{
	"greeting": "Greetings from The On-Line Encyclopedia of Integer Sequences! http://oeis.org/",
	"query": "id:A000384",
	"count": 1,
	"start": 0,
	"results": [
		{
			"number": 384,
			"id": "M4108 N1705",
			"data": "0,1,6,15,28,45,66,91,120,153,190,231,276,325,378,435,496,561,630,703,780,861,946,1035,1128,1225,1326,1431,1540,1653,1770,1891,2016,2145,2278,2415,2556,2701,2850,3003,3160,3321,3486,3655,3828,4005,4186,4371,4560",
			"name": "Hexagonal numbers: a(n) = n*(2*n-1).",
			"comment": [
				"Number of edges in the join of two complete graphs, each of order n, K_n * K_n. - _Roberto E. Martinez II_, Jan 07 2002",
				"The power series expansion of the entropy function H(x) = (1+x)log(1+x) + (1-x)log(1-x) has 1/a_i as the coefficient of x^(2i) (the odd terms being zero). - Tommaso Toffoli (tt(AT)bu.edu), May 06 2002",
				"Partial sums of A016813 (4n+1). Also with offset = 0, a(n) = (2n+1)(n+1) = A005408 * A000027 = 2n^2 + 3n + 1, i.e., a(0) = 1. - _Jeremy Gardiner_, Sep 29 2002",
				"Sequence also gives the greatest semiperimeter of primitive Pythagorean triangles having inradius n-1. Such a triangle has consecutive longer sides, with short leg 2n-1, hypotenuse a(n) - (n-1) = A001844(n), and area (n-1)*a(n) = 6*A000330(n-1). - _Lekraj Beedassy_, Apr 23 2003",
				"Number of divisors of 12^(n-1), i.e., A000005(A001021(n-1)). - _Henry Bottomley_, Oct 22 2001",
				"More generally, if p1 and p2 are two arbitrarily chosen distinct primes then a(n) is the number of divisors of (p1^2*p2)^(n-1) or equivalently of any member of A054753^(n-1). - _Ant King_, Aug 29 2011",
				"Number of standard tableaux of shape (2n-1,1,1) (n\u003e=1). - _Emeric Deutsch_, May 30 2004",
				"It is well known that for n\u003e0, A014105(n) [0,3,10,21,...] is the first of 2n+1 consecutive integers such that the sum of the squares of the first n+1 such integers is equal to the sum of the squares of the last n; e.g., 10^2 + 11^2 + 12^2 = 13^2 + 14^2.",
				"Less well known is that for n\u003e1, a(n) [0,1,6,15,28... ] is the first of 2n consecutive integers such that sum of the squares of the first n such integers is equal to the sum of the squares of the last n-1 plus n^2; e.g., 15^2 + 16^2 + 17^2 = 19^2 + 20^2 + 3^2. - _Charlie Marion_, Dec 16 2006",
				"a(n) is also a perfect number A000396 when n is an even superperfect number A061652. - _Omar E. Pol_, Sep 05 2008",
				"Sequence found by reading the line from 0, in the direction 0, 6, ... and the line from 1, in the direction 1, 15, ..., in the square spiral whose vertices are the generalized hexagonal numbers A000217. - _Omar E. Pol_, Jan 09 2009",
				"Let Hex(n)=hexagonal number, T(n)=triangular number, then Hex(n)=T(n)+3*T(n-1). - _Vincenzo Librandi_, Nov 10 2010",
				"For n\u003e=1, 1/a(n) = Sum_{k=0..2*n-1} ((-1)^(k+1)*binomial(2*n-1,k)*binomial(2*n-1+k,k)*H(k)/(k+1)) with H(k) harmonic number of order k.",
				"The number of possible distinct colorings of any 2 colors chosen from n colors of a square divided into quadrants. - _Paul Cleary_, Dec 21 2010",
				"Central terms of the triangle in A051173. - _Reinhard Zumkeller_, Apr 23 2011",
				"For n\u003e0, a(n-1) is the number of triples (w,x,y) with all terms in {0,...,n} and max(|w-x|,|x-y|) = |w-y|. - _Clark Kimberling_, Jun 12 2012",
				"a(n) is the number of positions of one domino in an even pyramidal board with base 2n. - _César Eliud Lozada_, Sep 26 2012",
				"Partial sums give A002412. - _Omar E. Pol_, Jan 12 2013",
				"Let a triangle have T(0,0) = 0 and T(r,c) = |r^2 - c^2|. The sum of the differences of the terms in row(n) and row(n-1) is a(n). - _J. M. Bergot_, Jun 17 2013",
				"a(n+1) = A128918(2*n+1). - _Reinhard Zumkeller_, Oct 13 2013",
				"With T_(i+1,i)=a(i+1) and all other elements of the lower triangular matrix T zero, T is the infinitesimal generator for A176230, analogous to A132440 for the Pascal matrix. - _Tom Copeland_, Dec 11 2013",
				"a(n) is the number of length 2n binary sequences that have exactly two 1's. a(2) = 6 because we have: {0,0,1,1}, {0,1,0,1}, {0,1,1,0}, {1,0,0,1}, {1,0,1,0}, {1,1,0,0}. The ordinary generating function with interpolated zeros is: (x^2 + 3*x^4)/(1-x^2)^3. - _Geoffrey Critzer_, Jan 02 2014",
				"For n \u003e 0, a(n) is the largest integer k such that k^2 + n^2 is a multiple of k + n. More generally, for m \u003e 0 and n \u003e 0, the largest integer k such that k^(2*m) + n^(2*m) is a multiple of k + n is given by k = 2*n^(2*m) - n. - _Derek Orr_, Sep 04 2014",
				"Binomial transform of (0, 1, 4, 0, 0, 0, ...) and second partial sum of (0, 1, 4, 4, 4, ...). - _Gary W. Adamson_, Oct 05 2015",
				"a(n) also gives the dimension of the simple Lie algebras D_n, for n \u003e= 4. - _Wolfdieter Lang_, Oct 21 2015",
				"For n \u003e 0, a(n) equals the number of compositions of n+11 into n parts avoiding parts 2, 3, 4. - _Milan Janjic_, Jan 07 2016",
				"Also the number of minimum dominating sets and maximal irredundant sets in the n-cocktail party graph. - _Eric W. Weisstein_, Jun 29 and Aug 17 2017",
				"As Beedassy's formula shows, this Hexagonal number sequence is the odd bisection of the Triangle number sequence. Both of these sequences are figurative number sequences.  For A000384, a(n) can be found by multiplying its triangle number by its hexagonal number. For example let's use the number 153. 153 is said to be the 17th triangle number but is also said to be the 9th hexagonal number. Triangle(17) Hexagonal(9). 17*9=153. Because the Hexagonal number sequence is a subset of the Triangle number sequence, the Hexagonal number sequence will always have both a triangle number and a hexagonal number. n* (2*n-1) because (2*n-1) renders the triangle number. - _Bruce J. Nicholson_, Nov 05 2017",
				"Also numbers k with the property that in the symmetric representation of sigma(k) the smallest Dyck path has a central valley and the largest Dyck path has a central peak, n \u003e= 1. Thus all hexagonal numbers \u003e 0 have middle divisors. (Cf. A237593.) - _Omar E. Pol_, Aug 28 2018",
				"k^a(n-1) mod n = 1 for prime n and k=2..n-1. - _Joseph M. Shunia_, Feb 10 2019",
				"Consider all Pythagorean triples (X, Y, Z=Y+1) ordered by increasing Z: a(n+1) gives the semiperimeter of related triangles; A005408, A046092 and A001844 give the X, Y and Z values. - _Ralf Steiner_, Feb 25 2020",
				"See A002939(n) = 2*a(n) for the corresponding perimeters. - _M. F. Hasler_, Mar 09 2020",
				"It appears that these are the numbers k with the property that the smallest subpart in the symmetric representation of sigma(k) is 1. - _Omar E. Pol_, Aug 28 2021"
			],
			"reference": [
				"Albert H. Beiler, Recreations in the Theory of Numbers, Dover, NY, 1964, p. 189.",
				"Louis Comtet, Advanced Combinatorics, Reidel, 1974, pp. 77-78. (In the integral formula on p. 77 a left bracket is missing for the cosine argument.)",
				"E. Deza and M. M. Deza, Figurate numbers, World Scientific Publishing (2012), page 6.",
				"L. E. Dickson, History of the Theory of Numbers. Carnegie Institute Public. 256, Washington, DC, Vol. 1, 1919; Vol. 2, 1920; Vol. 3, 1923, see vol. 2, p. 2.",
				"N. J. A. Sloane, A Handbook of Integer Sequences, Academic Press, 1973 (includes this sequence).",
				"N. J. A. Sloane and Simon Plouffe, The Encyclopedia of Integer Sequences, Academic Press, 1995 (includes this sequence)."
			],
			"link": [
				"T. D. Noe, \u003ca href=\"/A000384/b000384.txt\"\u003eTable of n, a(n) for n = 0..1000\u003c/a\u003e",
				"C. K. Cook and M. R. Bacon, \u003ca href=\"https://www.fq.math.ca/Papers1/52-4/CookBacon4292014.pdf\"\u003eSome polygonal number summation formulas\u003c/a\u003e, Fib. Q., 52 (2014), 336-343.",
				"Elena Deza and Michel Deza, \u003ca href=\"https://www.fields.utoronto.ca/programs/scientific/11-12/Mtl-To-numbertheory/slides/Deza.pdf\"\u003eFigurate Numbers: presentation of a book\u003c/a\u003e, 3rd Montreal-Toronto Workshop in Number Theory, October 7-9, 2011.",
				"Anicius Manlius Severinus Boethius, \u003ca href=\"https://archive.org/stream/aniciimanliitor01friegoog#page/n114/mode/2up\"\u003eDe institutione arithmetica\u003c/a\u003e, Book 2, section 15.",
				"Jonathan M. Borwein, Dirk Nuyens, Armin Straub and James Wan, \u003ca href=\"http://www.carma.newcastle.edu.au/~jb616/walks.pdf\"\u003eRandom Walk Integrals\u003c/a\u003e, The Ramanujan Journal, October 2011, 26:109. DOI: 10.1007/s11139-011-9325-y.",
				"Paul Cooijmans, \u003ca href=\"http://web.archive.org/web/20050302174449/http://members.chello.nl/p.cooijmans/gliaweb/tests/odds.html\"\u003eOdds\u003c/a\u003e.",
				"Tom Copeland, \u003ca href=\"http://tcjpn.wordpress.com/2012/11/29/infinigens-the-pascal-pyramid-and-the-witt-and-virasoro-algebras/\"\u003eInfinitesimal Generators, the Pascal Pyramid, and the Witt and Virasoro Algebras\u003c/a\u003e",
				"INRIA Algorithms Project, \u003ca href=\"http://ecs.inria.fr/services/structure?nbr=340\"\u003eEncyclopedia of Combinatorial Structures 340\u003c/a\u003e",
				"Milan Janjic, \u003ca href=\"http://www.pmfbl.org/janjic/\"\u003eTwo Enumerative Functions\u003c/a\u003e",
				"Sameen Ahmed Khan, \u003ca href=\"https://doi.org/10.12732/ijam.v33i2.6\"\u003eSums of the powers of reciprocals of polygonal numbers\u003c/a\u003e, Int'l J. of Appl. Math. (2020) Vol. 33, No. 2, 265-282.",
				"Clark Kimberling, \u003ca href=\"http://www.cs.uwaterloo.ca/journals/JIS/VOL10/Kimberling/kimberling26.html\"\u003eComplementary Equations\u003c/a\u003e, Journal of Integer Sequences, Vol. 10 (2007), Article 07.1.4.",
				"Hyun Kwang Kim, \u003ca href=\"http://dx.doi.org/10.1090/S0002-9939-02-06710-2\"\u003eOn Regular Polytope Numbers\u003c/a\u003e, Proc. Amer. Math. Soc., 131 (2002), 65-75.",
				"Peter D. Loly and Ian D. Cameron, \u003ca href=\"https://arxiv.org/abs/2008.11020\"\u003eFrierson's 1907 Parameterization of Compound Magic Squares Extended to Orders 3^L, L = 1, 2, 3, ..., with Information Entropy\u003c/a\u003e, arXiv:2008.11020 [math.HO], 2020.",
				"Simon Plouffe, \u003ca href=\"https://arxiv.org/abs/0911.4975\"\u003eApproximations de séries génératrices et quelques conjectures\u003c/a\u003e, Dissertation, Université du Québec à Montréal, 1992.",
				"Simon Plouffe, \u003ca href=\"/A000051/a000051_2.pdf\"\u003e1031 Generating Functions\u003c/a\u003e, Appendix to Thesis, Montreal, 1992",
				"Omar E. Pol, \u003ca href=\"http://www.polprimos.com/imagenespub/polnum01.jpg\"\u003eIllustration of initial terms of A000217, A000290, A000326, A000384, A000566, A000567\u003c/a\u003e.",
				"Amelia Carolina Sparavigna, \u003ca href=\"https://doi.org/10.5281/zenodo.3471358\"\u003eThe groupoids of Mersenne, Fermat, Cullen, Woodall and other Numbers and their representations by means of integer sequences\u003c/a\u003e, Politecnico di Torino, Italy (2019), [math.NT].",
				"Amelia Carolina Sparavigna, \u003ca href=\"https://doi.org/10.5281/zenodo.3470205\"\u003eThe groupoid of the Triangular Numbers and the generation of related integer sequences\u003c/a\u003e, Politecnico di Torino, Italy (2019).",
				"J. C. Su, \u003ca href=\"https://cs.uwaterloo.ca/journals/JIS/VOL10/Su/su.html\"\u003eOn some properties of two simultaneous polygonal sequences\u003c/a\u003e, JIS 10 (2007) 07.10.4, example 4.6.",
				"A. J. Turner and J. F. Miller, \u003ca href=\"http://andrewjamesturner.co.uk/files/YDS2014.pdf\"\u003eRecurrent Cartesian Genetic Programming Applied to Famous Mathematical Sequences\u003c/a\u003e, 2014.",
				"Michel Waldschmidt, \u003ca href=\"http://webusers.imj-prg.fr/~michel.waldschmidt/articles/pdf/ContinuedFractionsOujda2015.pdf\"\u003eContinued fractions\u003c/a\u003e, Ecole de recherche CIMPA-Oujda, Théorie des Nombres et ses Applications, 18 - 29 mai 2015:  Oujda (Maroc).",
				"Eric Weisstein's World of Mathematics, \u003ca href=\"http://mathworld.wolfram.com/CocktailPartyGraph.html\"\u003eCocktail Party Graph\u003c/a\u003e",
				"Eric Weisstein's World of Mathematics, \u003ca href=\"http://mathworld.wolfram.com/DominatingSet.html\"\u003eDominating Set\u003c/a\u003e",
				"Eric Weisstein's World of Mathematics, \u003ca href=\"http://mathworld.wolfram.com/HexagonalNumber.html\"\u003eHexagonal Number\u003c/a\u003e",
				"Eric Weisstein's World of Mathematics, \u003ca href=\"http://mathworld.wolfram.com/MaximalIrredundantSet.html\"\u003eMaximal Irredundant Set\u003c/a\u003e",
				"Thomas Wieder, \u003ca href=\"http://www.math.nthu.edu.tw/~amen/2008/070301.pdf\"\u003eThe number of certain k-combinations of an n-set\u003c/a\u003e, Applied Mathematics Electronic Notes, vol. 8 (2008), pp. 45-52.",
				"\u003ca href=\"/index/Pol#polygonal_numbers\"\u003eIndex to sequences related to polygonal numbers\u003c/a\u003e",
				"\u003ca href=\"/index/Tu#2wis\"\u003eIndex entries for two-way infinite sequences\u003c/a\u003e",
				"\u003ca href=\"/index/Rec#order_03\"\u003eIndex entries for linear recurrences with constant coefficients\u003c/a\u003e, signature (3,-3,1)."
			],
			"formula": [
				"a(n) = Sum_{k=1..n} tan^2((k - 1/2)*Pi/(2n)). - _Ignacio Larrosa Cañestro_, Apr 17 2001",
				"E.g.f.: exp(x)*(x+2x^2) - _Paul Barry_, Jun 09 2003",
				"G.f.: x*(1+3*x)/(1-x)^3. -  _Simon Plouffe_ in his 1992 dissertation, dropping the initial zero",
				"a(n) = A000217(2*n-1) = A014105(-n).",
				"a(n) = 4*A000217(n-1) + n. - _Lekraj Beedassy_, Jun 03 2004",
				"a(n) = right term of M^n * [1,0,0], where M = the 3 X 3 matrix [1,0,0; 1,1,0; 1,4,1]. Example: a(5) = 45 since M^5 *[1,0,0] = [1,5,45]. - _Gary W. Adamson_, Dec 24 2006",
				"Row sums of triangle A131914. - _Gary W. Adamson_, Jul 27 2007",
				"Row sums of n-th row, triangle A134234 starting (1, 6, 15, 28, ...). - _Gary W. Adamson_, Oct 14 2007",
				"Starting with offset 1, = binomial transform of [1, 5, 4, 0, 0, 0, ...]. Also, A004736 * [1, 4, 4, 4, ...]. - _Gary W. Adamson_, Oct 25 2007",
				"a(n)^2 + (a(n)+1)^2 + ... + (a(n)+n-1)^2 = (a(n)+n+1)^2 + ... + (a(n)+2n-1)^2 + n^2; e.g., 6^2 + 7^2 = 9^2 + 2^2; 28^2 + 29^2 + 30^2 + 31^2 = 33^2 + 34^2 + 35^2 + 4^2. - _Charlie Marion_, Nov 10 2007",
				"a(n) = binomial(n+1,2) + 3*binomial(n,2).",
				"a(n) = 3*a(n-1) - 3*a(n-2) + a(n-3), a(0)=0, a(1)=1, a(2)=6. - _Jaume Oliver Lafont_, Dec 02 2008",
				"a(n) = a(n-1) + 4*n - 3 (with a(0)=0). - _Vincenzo Librandi_, Nov 20 2010",
				"a(n) = A007606(A000290(n)). - _Reinhard Zumkeller_, Feb 12 2011",
				"a(n) = 2*a(n-1) - a(n-2) + 4. - _Ant King_, Aug 26 2011",
				"a(n+1) = A045896(2*n). - _Reinhard Zumkeller_, Dec 12 2011",
				"a(2^n) = 2^(2n+1) - 2^n. - _Ivan N. Ianakiev_, Apr 13 2013",
				"a(n) = binomial(2*n,2). - _Gary Detlefs_, Jul 28 2013",
				"a(4*a(n)+7*n+1) =  a(4*a(n)+7*n) + a(4*n+1). - _Vladimir Shevelev_, Jan 24 2014",
				"Sum_{n\u003e=1} 1/a(n) = 2*log(2) = 1.38629436111989..= A016627. . - _Vaclav Kotesovec_, Apr 27 2016",
				"Sum_{n\u003e=1} (-1)^n/a(n) = log(2) - Pi/2. - _Vaclav Kotesovec_, Apr 20 2018",
				"a(n+1) = trinomial(2*n+1, 2) = trinomial(2*n+1, 4*n), for n \u003e= 0, with the trinomial irregular triangle A027907. a(n+1) = (n+1)*(2*n+1) = (1/Pi)*Integral_{x=0..2} (1/sqrt(4 - x^2))*(x^2 - 1)^(2*n+1)*R(4*n-2, x) with the R polynomial coefficients given in A127672. [Comtet, p. 77, the integral formula for q=3, n -\u003e 2*n+1, k = 2, rewritten with x = 2*cos(phi)]. - _Wolfdieter Lang_, Apr 19 2018",
				"Sum_{n\u003e=1} 1/(a(n))^2 = 2*Pi^2/3-8*log(2) = 1.0345588... = 10*A182448 - A257872. - _R. J. Mathar_, Sep 12 2019",
				"a(n) = (A005408(n-1) + A046092(n-1) + A001844(n-1))/2. - _Ralf Steiner_, Feb 27 2020",
				"Product_{n\u003e=2} (1 - 1/a(n)) = 2/3. - _Amiram Eldar_, Jan 21 2021",
				"a(n) = floor(Sum_{k=(n-1)^2..n^2} sqrt(k)), for n \u003e= 1. - _Amrit Awasthi_, Jun 13 2021"
			],
			"maple": [
				"A000384:=n-\u003en*(2*n-1); seq(A000384(k), k=0..100); # _Wesley Ivan Hurt_, Sep 27 2013"
			],
			"mathematica": [
				"Table[n*(2 n - 1), {n, 0, 100}] (* _Wesley Ivan Hurt_, Sep 27 2013 *)",
				"LinearRecurrence[{3, -3, 1}, {0, 1, 6}, 50] (* _Harvey P. Dale_, Sep 10 2015 *)",
				"Join[{0}, Accumulate[Range[1, 312, 4]]] (* _Harvey P. Dale_, Mar 26 2016 *)",
				"(* For Mathematica 10.4+ *) Table[PolygonalNumber[RegularPolygon[6], n], {n, 0, 48}] (* _Arkadiusz Wesolowski_, Aug 27 2016 *)",
				"PolygonalNumber[6, Range[0, 20]] (* _Eric W. Weisstein_, Aug 17 2017 *)",
				"CoefficientList[Series[x*(1 + 3*x)/(1 - x)^3 , {x, 0, 100}], x] (* _Stefano Spezia_, Sep 02 2018 *)"
			],
			"program": [
				"(PARI) a(n)=n*(2*n-1)",
				"(PARI) a(n) = binomial(2*n,2) \\\\ _Altug Alkan_, Oct 06 2015",
				"(Haskell)",
				"a000384 n = n * (2 * n - 1)",
				"a000384_list = scanl (+) 0 a016813_list",
				"-- _Reinhard Zumkeller_, Dec 16 2012",
				"(Python 3) # Intended to compute the initial segment of the sequence, not isolated terms.",
				"def aList():",
				"     x, y = 1, 1",
				"     yield 0",
				"     while True:",
				"         yield x",
				"         x, y = x + y + 4, y + 4",
				"A000384 = aList()",
				"print([next(A000384) for i in range(49)]) # _Peter Luschny_, Aug 04 2019"
			],
			"xref": [
				"Cf. A014105, A127672, A027907, A005408, A046092, A001844.",
				"a(n)= A093561(n+1, 2), (4, 1)-Pascal column.",
				"a(n) = A100345(n, n-1) for n\u003e0.",
				"Cf. A002939 (twice a(n): sums of Pythagorean triples (X, Y, Z=Y+1)."
			],
			"keyword": "nonn,easy,nice",
			"offset": "0,3",
			"author": "_N. J. A. Sloane_",
			"ext": [
				"Partially edited by _Joerg Arndt_, Mar 11 2010"
			],
			"references": 393,
			"revision": 382,
			"time": "2021-09-06T10:12:32-04:00",
			"created": "1991-04-30T03:00:00-04:00"
		}
	]
}