{
	"greeting": "Greetings from The On-Line Encyclopedia of Integer Sequences! http://oeis.org/",
	"query": "id:A000821",
	"count": 1,
	"start": 0,
	"results": [
		{
			"number": 821,
			"id": "M5253 N2285",
			"data": "36,330,22060,920737780,247617673784972437216,4865376593267541575898325655326600134256578720",
			"name": "Number of switching networks under action of AG_n(Z_2).",
			"comment": [
				"See Harrison reference for precise definition.",
				"Next term has 100 digits. - _Sean A. Irvine_, Jan 20 2012"
			],
			"reference": [
				"M. A. Harrison, On the number of classes of switching networks, J. Franklin Instit., 276 (1963), 313-327.",
				"N. J. A. Sloane, A Handbook of Integer Sequences, Academic Press, 1973 (includes this sequence).",
				"N. J. A. Sloane and Simon Plouffe, The Encyclopedia of Integer Sequences, Academic Press, 1995 (includes this sequence)."
			],
			"link": [
				"\u003ca href=\"/index/Sw#switching\"\u003eIndex entries for sequences related to switching networks\u003c/a\u003e"
			],
			"keyword": "nonn",
			"offset": "1,1",
			"author": "_N. J. A. Sloane_",
			"ext": [
				"More terms from _Sean A. Irvine_, Jan 19 2012"
			],
			"references": 0,
			"revision": 21,
			"time": "2021-12-19T11:19:52-05:00",
			"created": "1991-04-30T03:00:00-04:00"
		}
	]
}