{
	"greeting": "Greetings from The On-Line Encyclopedia of Integer Sequences! http://oeis.org/",
	"query": "id:A000917",
	"count": 1,
	"start": 0,
	"results": [
		{
			"number": 917,
			"data": "3,20,105,504,2310,10296,45045,194480,831402,3527160,14872858,62403600,260757900,1085822640,4508102925,18668849760,77138650050,318107374200,1309542023790,5382578744400,22093039119060,90567738003600,370847442355650,1516927277253024",
			"name": "a(n) = (2n+3)!/(n!*(n+2)!).",
			"comment": [
				"G.f.: c(x)*(4-c(x))/(1-4*x)^(3/2), c(x) = g.f. for Catalan numbers A000108 (agrees with Han 75 99, (5.27.9). Convolution of A038679 with A000984 (central binomial coefficients); also convolution of A038665 with A000302 (powers of 4). - _Wolfdieter Lang_, Dec 11 1999",
				"Appears as diagonal in A003506. - _Zerinvary Lajos_, Apr 12 2006",
				"a(n)=number of double rises in all Grand Dyck paths of semilength n+2. Example: a(0)=3 because in the 6 (=A000984(2)) Grand Dyck paths of semilength 2, namely udud, (uu)dd, uddu, d(uu)d, dudu, dd(uu), we have a total of 3 uu's (shown between parentheses). - _Emeric Deutsch_, Nov 29 2008"
			],
			"reference": [
				"E. R. Hansen, A Table of Series and Products, Prentice-Hall, Englewood Cliffs, NJ, 1975, p. 99."
			],
			"link": [
				"T. D. Noe, \u003ca href=\"/A000917/b000917.txt\"\u003eTable of n, a(n) for n = 0..200\u003c/a\u003e"
			],
			"formula": [
				"a(n) = (n+1)*binomial(2*n+3, n+1) = (n+1)*A001700(n+1). - _Vincenzo Librandi_, Jun 01 2016",
				"a(n) = (2*n+3)*A001791(n+1). - _R. J. Mathar_, Nov 09 2021",
				"D-finite with recurrence +(n+2)*a(n) +10*(-n-1)*a(n-1) +12*(2*n+1)*a(n-2)=0. - _R. J. Mathar_, Nov 09 2021",
				"D-finite with recurrence n*(n+2)*a(n) -2*(2*n+3)*(n+1)*a(n-1)=0. - _R. J. Mathar_, Nov 09 2021"
			],
			"maple": [
				"a := proc(n) (n+1)*binomial(2*n+3, n+2) end: seq(a(n), n=0..23); # _Zerinvary Lajos_, Nov 26 2006",
				"seq((n+1)*binomial(2*n+4, n+2)/2, n=0..23); # _Zerinvary Lajos_, Feb 28 2007"
			],
			"mathematica": [
				"Table[(2*n + 3)!/(n!*(n + 2)!), {n, 0, 25}] (* _T. D. Noe_, Jun 20 2012 *)"
			],
			"program": [
				"(MAGMA) [(n+1)*Binomial(2*n+3, n+1): n in [0..25]]; // _Vincenzo Librandi_, Jun 01 2016"
			],
			"xref": [
				"Cf. A007054, A038665, A038679, A000108, A000984, A000302, A003506. 1/beta(n, n+2) in A061928."
			],
			"keyword": "nonn,easy",
			"offset": "0,1",
			"author": "_N. J. A. Sloane_",
			"references": 9,
			"revision": 40,
			"time": "2021-11-09T08:36:21-05:00",
			"created": "1996-03-15T03:00:00-05:00"
		}
	]
}