{
	"greeting": "Greetings from The On-Line Encyclopedia of Integer Sequences! http://oeis.org/",
	"query": "id:A000720",
	"count": 1,
	"start": 0,
	"results": [
		{
			"number": 720,
			"id": "M0256 N0090",
			"data": "0,1,2,2,3,3,4,4,4,4,5,5,6,6,6,6,7,7,8,8,8,8,9,9,9,9,9,9,10,10,11,11,11,11,11,11,12,12,12,12,13,13,14,14,14,14,15,15,15,15,15,15,16,16,16,16,16,16,17,17,18,18,18,18,18,18,19,19,19,19,20,20,21,21,21,21,21,21",
			"name": "pi(n), the number of primes \u003c= n. Sometimes called PrimePi(n) to distinguish it from the number 3.14159...",
			"comment": [
				"Partial sums of A010051 (characteristic function of primes). - _Jeremy Gardiner_, Aug 13 2002",
				"pi(n) and prime(n) are inverse functions: a(A000040(n)) = n and A000040(n) is the least number m such that A000040(a(m)) = A000040(n). A000040(a(n)) = n if (and only if) n is prime. - _Jonathan Sondow_, Dec 27 2004",
				"See the additional references and links mentioned in A143227. - _Jonathan Sondow_, Aug 03 2008",
				"Equals row sums of triangle A143538. - _Gary W. Adamson_, Aug 23 2008",
				"a(n) = A036234(n) - 1. - _Jaroslav Krizek_, Mar 23 2009",
				"A lower bound that gets better with larger N is that there are at least T prime numbers less than N, where the recursive function T is: T = N- N*Sum_{i=0..T(sqrt(N))} A005867(i)/A002110(i). - _Ben Paul Thurston_, Aug 23 2010",
				"Number of partitions of 2n into exactly two parts with the smallest part prime. - _Wesley Ivan Hurt_, Jul 20 2013",
				"Equivalent to the Riemann hypothesis: abs(a(n) - li(n)) \u003c sqrt(n)*log(n)/(8*Pi), for n \u003e= 2657, where li(n) is the logarithmic integral (Lowell Schoenfeld). - _Ilya Gutkovskiy_, Jul 05 2016",
				"The second Hardy-Littlewood conjecture, that pi(x) + pi(y) \u003e= pi(x + y) for integers x and y with min{x, y} \u003e= 2, is known to hold for (x, y) sufficiently large (Udrescu 1975). In 2021 M. Visser published a (not yet peer reviewed) proof. - _Peter Luschny_, Jan 12 2021"
			],
			"reference": [
				"M. Abramowitz and I. A. Stegun, eds., Handbook of Mathematical Functions, National Bureau of Standards Applied Math. Series 55, 1964 (and various reprintings), p. 870.",
				"Tom M. Apostol, Introduction to Analytic Number Theory, Springer-Verlag, 1976, p. 8.",
				"Raymond Ayoub, An Introduction to the Analytic Theory of Numbers, Amer. Math. Soc., 1963; p. 129.",
				"Richard Crandall and Carl Pomerance, Prime Numbers: A Computational Perspective, Springer, NY, 2001; see p. 5.",
				"G. H. Hardy and E. M. Wright, An Introduction to the Theory of Numbers, 5th ed., Oxford Univ. Press, 1979, Theorems 6, 7, 420.",
				"G. J. O. Jameson, The Prime Number Theorem, Camb. Univ. Press, 2003. [See also the review by D. M. Bressoud (link below).]",
				"Władysław Narkiewicz, The Development of Prime Number Theory, Springer-Verlag, 2000.",
				"József Sándor, Dragoslav S. Mitrinovic and Borislav Crstici, Handbook of Number Theory I, Springer Science \u0026 Business Media, 2005, Section VII.1. (For inequalities, etc.).",
				"N. J. A. Sloane, A Handbook of Integer Sequences, Academic Press, 1973 (includes this sequence).",
				"N. J. A. Sloane and Simon Plouffe, The Encyclopedia of Integer Sequences, Academic Press, 1995 (includes this sequence).",
				"Gerald Tenenbaum and Michel Mendès France, Prime Numbers and Their Distribution, AMS Providence RI, 1999.",
				"V. Udrescu, Some remarks concerning the conjecture pi(x + y) \u003c= pi(x) + pi(y). Math. Pures Appl. 20 (1975), 1201-1208."
			],
			"link": [
				"Daniel Forgues, \u003ca href=\"/A000720/b000720.txt\"\u003eTable of n, pi(n) for n = 1..100000\u003c/a\u003e (first 20000 terms from N. J. A. Sloane; see below for links with 823852 terms (Verma) and more (Caldwell))",
				"M. Abramowitz and I. A. Stegun, eds., \u003ca href=\"http://www.convertit.com/Go/ConvertIt/Reference/AMS55.ASP\"\u003eHandbook of Mathematical Functions\u003c/a\u003e, National Bureau of Standards, Applied Math. Series 55, Tenth Printing, 1972 [alternative scanned copy].",
				"Christian Axler, \u003ca href=\"http://docserv.uni-duesseldorf.de/servlets/DocumentServlet?id=26247\"\u003eÜber die Primzahl-Zählfunktion, die n-te Primzahl und verallgemeinerte Ramanujan-Primzahlen\u003c/a\u003e, Ph.D. thesis 2013, in German, English summary.",
				"Paul T. Bateman and Harold G. Diamond, \u003ca href=\"http://www.jstor.org/stable/2974443\"\u003eA Hundred Years of Prime Numbers\u003c/a\u003e, Amer. Math. Month., Vol. 103, No. 9 (Nov. 1996), pp. 729-741, MAA Washington DC.",
				"Steve Bennett, \u003ca href=\"https://web.archive.org/web/20110926073136/http://www.freewebs.com/history_of_mathematics\"\u003eThe role of Riemann's zeta function in the analytic proof of the Prime Number Theorem\u003c/a\u003e, 2004.",
				"Claudio Bonanno and Mirko S. Mega, \u003ca href=\"https://doi.org/10.1016/S0960-0779(03)00433-8\"\u003eToward a dynamical model for prime numbers\u003c/a\u003e, Chaos, Solitons \u0026 Fractals, Vol. 20, No. 1 (2004), pp. 107-118; \u003ca href=\"https://arxiv.org/abs/cond-mat/0309251\"\u003earXiv preprint\u003c/a\u003e, arXiv:cond-mat/0309251, 2003.",
				"David M. Bressoud, \u003ca href=\"https://www.maa.org/press/maa-reviews/the-prime-number-theorem\"\u003eReview of \"The Prime Number Theorem\" by G. J. O. Jameson\u003c/a\u003e, MAA Reviews, 2005. - from _N. J. A. Sloane_, Dec 29 2018",
				"D. M. Bressoud and Stan Wagon, \u003ca href=\"http://www.msri.org/realvideo/ln/msri/2000/introant/wagon/1/main.html\"\u003eComputational Number Theory: Basic Algorithms\u003c/a\u003e, Springer/Key, 2000 (with a Mathematica package for computational number theory).",
				"Ben Brubaker, \u003ca href=\"https://web.archive.org/web/20171215121316/http://math.stanford.edu/~brubaker/pnt.pdf\"\u003eThe Prime Number Theorem\u003c/a\u003e.",
				"C. K. Caldwell, \u003ca href=\"http://primes.utm.edu/glossary/page.php/PrimeNumberThm.html\"\u003eThe Prime Glossary: Prime number theorem\u003c/a\u003e, and \u003ca href=\"http://www.utm.edu/research/primes/howmany.shtml\"\u003ePrime Pages: How Many Primes Are There\u003c/a\u003e.",
				"W. W. L. Chen, \u003ca href=\"http://www.williamchen-mathematics.info/lndpnfolder/lndpn.html\"\u003eDistribution of Prime Numbers\u003c/a\u003e.",
				"Jean-Marie de Koninck and Aleksandar Ivić, \u003ca href=\"https://www.sciencedirect.com/bookseries/north-holland-mathematics-studies/vol/43\"\u003eTopics in Arithmetical Functions: Asymptotic Formulae for Sums of Reciprocals of Arithmetical Functions and Related Fields\u003c/a\u003e, Amsterdam, Netherlands: North-Holland, 1980. See Chapter 9, p. 231.",
				"Marc Deléglise, \u003ca href=\"http://algo.inria.fr/seminars/sem95-96/deleglise.pdf\"\u003eComputation of large values of pi(x)\u003c/a\u003e, 1996.",
				"Pierre Dusart, \u003ca href=\"http://www.unilim.fr/laco/theses/1998/T1998_01.pdf\"\u003eAutour de la fonction qui compte le nombre de nombres premiers\u003c/a\u003e, Thèse, Université de Limoges, France (1998).",
				"Pierre Dusart, \u003ca href=\"http://dx.doi.org/10.1090/S0025-5718-99-01037-6\"\u003eThe k-th prime is greater than k(ln k + ln ln k-1) for k\u003e=2\u003c/a\u003e, Mathematics of Computation, Vo. 68, No. 225 (1999), pp. 411-415.",
				"Encyclopedia Britannica, \u003ca href=\"http://web.archive.org/web/20110824045457/http://users.forthnet.gr:80/ath/kimon/PNT/Prime%20Number%20Theorem.htm\"\u003eThe Prime Number Theorem\u003c/a\u003e [web.archive.org's copy of a no longer available personal copy of the Encyclopedia's article]",
				"R. Gray and J. D. Mitchell, \u003ca href=\"http://dx.doi.org/10.1016/j.disc.2007.08.075\"\u003eLargest subsemigroups of the full transformation monoid\u003c/a\u003e, Discrete Math., 308 (2008), 4801-4810.",
				"G. H. Hardy and J. E. Littlewood, \u003ca href=\"https://doi.org/10.1007/BF02422942\"\u003eContributions to the theory of the Riemann zeta-function and the theory of the distribution of primes\u003c/a\u003e, Acta Mathematica, Vol. 41 (1916), pp. 119-196.",
				"G. H. Hardy and J. E. Littlewood, \u003ca href=\"https://doi.org/10.1007/BF02403921\"\u003eSome problems of 'Partitio numerorum'; III: On the expression of a number as a sum of primes\u003c/a\u003e, Acta Math., Vol. 44, No. 1 (1923), pp. 1-70.",
				"Mehdi Hassani, \u003ca href=\"https://www.emis.de/journals/JIPAM/article643.html?sid=643\"\u003eApproximation of pi(x) by Psi(x)\u003c/a\u003e, J. Inequ. Pure Appl. Math., Vol. 7, No. 1 (2006), Article #7.",
				"Y.-C. Kim, \u003ca href=\"https://arxiv.org/abs/math/0502062\"\u003eNote on the Prime Number Theorem\u003c/a\u003e, arXiv:math/0502062 [math.NT], 2005.",
				"Tzanio V. Kolev, \u003ca href=\"https://www.researchgate.net/publication/2585909_On_the_Number_of_Prime_Numbers_less_than_a_Given_Quantity\"\u003eOn the number of Prime Numbers less than a Given Quantity\u003c/a\u003e, 2000.",
				"Angel V. Kumchev, \u003ca href=\"https://tigerweb.towson.edu/akumchev/distributionofprimesnotes.pdf\"\u003eThe Distribution of Prime Numbers\u003c/a\u003e, 2005.",
				"J. C. Lagarias, V. S. Miller and A. M. Odlyzko, \u003ca href=\"https://doi.org/10.1090/S0025-5718-1985-0777285-5\"\u003eComputing pi(x): The Meissel-Lehmer method\u003c/a\u003e, Math. Comp., Vol. 44, No. 170 (1985), pp. 537-560.",
				"Jeffrey C. Lagarias and Andrew M. Odlyzko, \u003ca href=\"https://doi.org/10.1016/0196-6774(87)90037-X\"\u003eComputing pi(x): An analytic method\u003c/a\u003e, Journal of Algorithms, Vol. 8, No. 2 (1987), pp. 173-191; \u003ca href=\"http://www.dtc.umn.edu/~odlyzko/doc/cnt.html\"\u003ealternative link\u003c/a\u003e.",
				"John Lorch, \u003ca href=\"http://www.bsu.edu/libraries/beneficencepress/mathexchange/03-01/Lorch.pdf\"\u003eThe Distribution of Primes\u003c/a\u003e, B.S. Undergraduate Mathematics Exchange, Vol. 3, No. 1 (Fall 2005).",
				"Nathan McKenzie, \u003ca href=\"http://www.icecreambreakfast.com/primecount/primecounting.php\"\u003eComputing the Prime Counting Function with Linnik's Identity\u003c/a\u003e, personal blog, March 24, 2011.",
				"Murat Baris Paksoy, \u003ca href=\"https://arxiv.org/abs/1210.6991\"\u003eDerived Ramanujan primes: R'_n\u003c/a\u003e, arXiv:1210.6991 [math.NT], 2012.",
				"Bent E. Petersen, \u003ca href=\"https://www.math.ucdavis.edu/~tracy/courses/math205A/PNT_Petersen.pdf\"\u003ePrime Number Theorem\u003c/a\u003e, Seminar Lecture Note, 1996; \u003ca href=\"http://citeseerx.ist.psu.edu/viewdoc/download?doi=10.1.1.502.4684\u0026amp;rep=rep1\u0026amp;type=pdf\"\u003eversion 2002-05-14\u003c/a\u003e.",
				"Simon Plouffe, \u003ca href=\"https://arxiv.org/abs/0911.4975\"\u003eApproximations de séries génératrices et quelques conjectures\u003c/a\u003e, Dissertation, Université du Québec à Montréal, 1992.",
				"Simon Plouffe, \u003ca href=\"/A000051/a000051_2.pdf\"\u003e1031 Generating Functions\u003c/a\u003e, Appendix to Thesis, Montreal, 1992",
				"Omar E. Pol, \u003ca href=\"http://www.polprimos.com\"\u003eDeterminacion geometrica de los numeros primos y perfectos\u003c/a\u003e, personal website, 2001 (?); \u003ca href=\"http://www.polprimos.com/imagenespub/polprdipi.jpg\"\u003eIllustration of initial terms: Divisors and pi(x)\u003c/a\u003e.",
				"Bernhard Riemann, \u003ca href=\"http://www.maths.tcd.ie/pub/HistMath/People/Riemann/Zeta/\"\u003eOn the Number of Prime Numbers\u003c/a\u003e, 1859, last page (various transcripts)",
				"J. Barkley Rosser, \u003ca href=\"http://www.jstor.org/stable/2371291\"\u003eExplicit Bounds for Some Functions of Prime Numbers\u003c/a\u003e, American Journal of Mathematics, Vol. 63, No. 1 (1941), pp. 211-232.",
				"J. Barkley Rosser and Lowell Schoenfeld, \u003ca href=\"http://projecteuclid.org/euclid.ijm/1255631807\"\u003eApproximate formulas for some functions of prime numbers\u003c/a\u003e, Ill. Journ. Math. 6 (1962) 64-94.",
				"J. Barkley Rosser and Lowell Schoenfeld, \u003ca href=\"/A000720/a000720.html\"\u003eApproximate formulas for some functions of prime numbers\u003c/a\u003e (scan of some key pages from an ancient annotated photocopy).",
				"Sebastian Martin Ruiz and Jonathan Sondow, \u003ca href=\"https://arxiv.org/abs/math/0210312\"\u003eFormulas for pi(n) and the n-th prime\u003c/a\u003e, arXiv:math/0210312 [math.NT], 2002, 2014.",
				"Jeffrey Shallit, \u003ca href=\"http://www.cs.uwaterloo.ca/~shallit/bib/pi.bib\"\u003eBibliography on calculation of pi(x)\u003c/a\u003e.",
				"Jonathan Sondow, \u003ca href=\"https://www.jstor.org/stable/40391170\"\u003eRamanujan Primes and Bertrand's Postulate\u003c/a\u003e, The American Mathematical Monthly, Vol. 116, No. 7 (2009), pp. 630-635; \u003ca href=\"https://arxiv.org/abs/0907.5232\"\u003earXiv preprint\u003c/a\u003e, arXiv:0907.5232 [math.NT], 2009-2010.",
				"Igor Turkanov, \u003ca href=\"https://arxiv.org/abs/1603.02914\"\u003eThe prime counting function\u003c/a\u003e, arXiv:1603.02914 [math.NT], 2016.",
				"Gaurav Verma and Srujan Sapkal, \u003ca href=\"/A000720/a000720.txt\"\u003eTable of n, pi(n) for n = 1..823852\u003c/a\u003e.",
				"Matt Visser, \u003ca href=\"https://arxiv.org/abs/2101.03283\"\u003eThe second Hardy-Littlewood conjecture is true\u003c/a\u003e, arXiv:2101.03283 [math.NT], Jan. 2021.",
				"Matthew R. Watkins, \u003ca href=\"https://web.archive.org/web/20200111044829/http://empslocal.ex.ac.uk/people/staff/mrwatkin//zeta/ss-a.htm\"\u003eThe distribution of Prime Numbers\u003c/a\u003e.",
				"Matthew R. Watkins, \u003ca href=\"https://web.archive.org/web/20040214162502/http://www.maths.ex.ac.uk/~mwatkins/zeta/pnt.htm\"\u003eThe prime number theorem (some references)\u003c/a\u003e.",
				"Eric Weisstein's World of Mathematics, \u003ca href=\"http://mathworld.wolfram.com/PrimeCountingFunction.html\"\u003ePrime Counting Function\u003c/a\u003e.",
				"Wikipedia, \u003ca href=\"http://en.wikipedia.org/wiki/Prime_number_theorem\"\u003ePrime number theorem\u003c/a\u003e.",
				"Wikipedia, \u003ca href=\"http://en.wikipedia.org/wiki/Prime-counting_function\"\u003ePrime-counting function\u003c/a\u003e.",
				"Marek Wolf, \u003ca href=\"https://doi.org/10.1016/S0378-4371(99)00318-0\"\u003eApplications of Statistical Mechanics in Number Theory\u003c/a\u003e, Physica A, vol. 274, no. 2, 1999, pp. 149-157; \u003ca href=\"http://www.maths.ex.ac.uk/~mwatkins/zeta/wolfgas.htm\"\u003e1999 preprint\u003c/a\u003e.",
				"Wolfram Research, \u003ca href=\"http://functions.wolfram.com/NumberTheoryFunctions/PrimePi/03/02\"\u003eFirst 50 values of pi(n)\u003c/a\u003e.",
				"\u003ca href=\"/index/Cor#core\"\u003eIndex entries for \"core\" sequences\u003c/a\u003e"
			],
			"formula": [
				"The prime number theorem gives the asymptotic expression a(n) ~ n/log(n).",
				"For x \u003e 1, pi(x) \u003c (x / log x) * (1 + 3/(2 log x)). For x \u003e= 59, pi(x) \u003e (x / log x) * (1 + 1/(2 log x)). [Rosser and Schoenfeld]",
				"For x \u003e= 355991, pi(x) \u003c (x / log(x)) * (1 + 1/log(x) + 2.51/(log(x))^2 ). For x \u003e= 599, pi(x) \u003e (x / log(x)) * (1 + 1/log(x)). [Dusart]",
				"For x \u003e= 55, x/(log(x) + 2) \u003c pi(x) \u003c x/(log(x) - 4). [Rosser]",
				"For n \u003e 1, A138194(n) \u003c= a(n) \u003c= A138195(n) (Tschebyscheff, 1850). - _Reinhard Zumkeller_, Mar 04 2008",
				"For n \u003e= 33, a(n) = 1 + Sum_{j=3..n} ((j-2)! - j*floor((j-2)!/j)) (Hardy and Wright); for n \u003e= 1, a(n) = n - 1 + Sum_{j=2..n} (floor((2 - Sum_{i=1..j} (floor(j/i)-floor((j-1)/i)))/j)) (Ruiz and Sondow 2000). - _Benoit Cloitre_, Aug 31 2003",
				"a(n) = A001221(A000142(n)). - _Benoit Cloitre_, Jun 03 2005",
				"G.f.: Sum_{p prime} x^p/(1-x) = b(x)/(1-x), where b(x) is the g.f. for A010051. - _Franklin T. Adams-Watters_, Jun 15 2006",
				"From _Enrique Pérez Herrero_, Jul 12 2010: (Start)",
				"a(n) = Sum_{i=2..n} floor((i+1)/A000203(i)).",
				"a(n) = Sum_{i=2..n} floor(A000010(n)/(i-1)).",
				"a(n) = Sum_{i=2..n} floor(2/A000005(n)). (End)",
				"Let pf(n) denote the set of prime factors of an integer n. Then a(n) = card(pf(n!/floor(n/2)!). - _Peter Luschny_, Mar 13 2011",
				"a(n) = -Sum_{p \u003c= n} mu(p). - _Wesley Ivan Hurt_, Jan 04 2013",
				"a(n) = (1/2)*Sum_{p \u003c= n} (mu(p)*d(p)*sigma(p)*phi(p)) + sum_{p \u003c= n} p^2. - _Wesley Ivan Hurt_, Jan 04 2013",
				"a(1) = 0 and then, for all k \u003e= 1, repeat k A001223(k) times. - _Jean-Christophe Hervé_, Oct 29 2013",
				"a(n) = n/(log(n) - 1 - Sum_{k=1..m} A233824(k)/log(n)^k + O(1/log(n)^{m+1})) for m \u003e 0. - _Jonathan Sondow_, Dec 19 2013",
				"a(n) = A001221(A003418(n)). - _Eric Desbiaux_, May 01 2014",
				"a(n) = Sum_{j=2..n} H(-sin^2 (Pi*(Gamma(j)+1)/j)) where H(x) is the Heaviside step function, taking H(0)=1. - _Keshav Raghavan_, Jun 18 2016",
				"a(A014076(n)) = (1/2) * (A014076(n) + 1) - n + 1. - _Christopher Heiling_, Mar 03 2017",
				"From _Steven Foster Clark_, Sep 25 2018: (Start)",
				"a(n) = Sum_{m=1..n} A143519(m) * floor(n/m).",
				"a(n) = Sum_{m=1..n} A001221(m) * A002321(floor(n/m)) where A002321() is the Mertens function.",
				"a(n) = Sum_{m=1..n} |A143519(m)| * A002819(floor(n/m)) where A002819() is the Liouville Lambda summatory function and |x| is the absolute value of x.",
				"a(n) = Sum_{m=1..n} A137851(m)/m * H(floor(n/m)) where H(n) = Sum_{m=1..n} 1/m is the harmonic number function.",
				"a(n) = Sum_{m=1..log_2(n)} A008683(m) * A025528(floor(n^(1/m))) where A008683() is the Moebius mu function and A025528() is the prime-power counting function.",
				"(End)",
				"Sum_{k=2..n} 1/a(k) ~ (1/2) * log(n)^2 + O(log(n)) (de Koninck and Ivić, 1980). - _Amiram Eldar_, Mar 08 2021"
			],
			"example": [
				"There are 3 primes \u003c= 6, namely 2, 3 and 5, so pi(6) = 3."
			],
			"maple": [
				"with(numtheory); A000720 := pi; [ seq(A000720(i),i=1..50) ];"
			],
			"mathematica": [
				"A000720[n_] := PrimePi[n]; Table[ A000720[n], {n, 1, 100} ]",
				"Array[ PrimePi[ # ]\u0026, 100 ]",
				"Accumulate[Table[Boole[PrimeQ[n]],{n,100}]] (* _Harvey P. Dale_, Jan 17 2015 *)"
			],
			"program": [
				"(PARI) A000720=vector(100,n,omega(n!)) \\\\ For illustration only; better use A000720=primepi",
				"(PARI) vector(300,j,primepi(j)) \\\\ _Joerg Arndt_, May 09 2008",
				"(PARI) A000720(n) = matsize(factor(n!))[1] \\\\ For illustration only. - _Colin Barker_, Mar 11 2013",
				"(Sage) [prime_pi(n) for n in range(1, 79)]  # _Zerinvary Lajos_, Jun 06 2009",
				"(MAGMA) [ #PrimesUpTo(n): n in [1..200] ];  // _Bruno Berselli_, Jul 06 2011",
				"(Haskell)",
				"a000720 n = a000720_list !! (n-1)",
				"a000720_list = scanl1 (+) a010051_list  -- _Reinhard Zumkeller_, Sep 15 2011",
				"(Python)",
				"from sympy import primepi",
				"for n in range(1,100): print(primepi(n), end=', ') # _Stefano Spezia_, Nov 30 2018"
			],
			"xref": [
				"Cf. A048989, A000040, A132090, A137588, A139328, A104272, A143223, A143224, A143225, A143226, A143227.",
				"Cf. A143538, A036234, A033844, A034387, A034386, A179215, A010051, A212210-A212213, A233824, A056171, A304483.",
				"Cf. A099802: Number of primes \u003c= 2n.",
				"Cf. A060715: Number of primes between n and 2n (exclusive).",
				"Cf. A035250: Number of primes between n and 2n (inclusive).",
				"Cf. A038107: Number of primes \u003c n^2.",
				"Cf. A014085: Number of primes between n^2 and (n+1)^2.",
				"Cf. A007053: Number of primes \u003c= 2^n.",
				"Cf. A036378: Number of primes p between powers of 2, 2^n \u003c p \u003c= 2^(n+1).",
				"Cf. A006880: Number of primes \u003c 10^n.",
				"Cf. A006879: Number of primes with n digits.",
				"Cf. A033270: Number of odd primes \u003c= n.",
				"For lists of large values of a(n) see, e.g., A005669(n) = a(A002386(n)), A214935(n) = a(A205827(n))."
			],
			"keyword": "nonn,core,easy,nice",
			"offset": "1,3",
			"author": "_N. J. A. Sloane_",
			"ext": [
				"Additional links contributed by _Lekraj Beedassy_, Dec 23 2003",
				"Edited by _M. F. Hasler_, Apr 27 2018 and (links recovered) Dec 21 2018"
			],
			"references": 1539,
			"revision": 363,
			"time": "2021-11-13T01:40:48-05:00",
			"created": "1991-04-30T03:00:00-04:00"
		}
	]
}