{
	"greeting": "Greetings from The On-Line Encyclopedia of Integer Sequences! http://oeis.org/",
	"query": "id:A000834",
	"count": 1,
	"start": 0,
	"results": [
		{
			"number": 834,
			"data": "1,3,9,35,177,1123,8569,76355,777697,8911683,113466729,1589173475,24280777617,401898209443,7163977596889,136821894075395,2787312733887937,60331585563062403,1382698089425999049",
			"name": "Expansion of exp(x)*(1 + tan(x))/(1 - tan(x)).",
			"reference": [
				"C. K. Cook, M. R. Bacon, and R. A. Hillman, Higher-order Boustrophedon transforms for certain well-known sequences, Fibonacci Quarterly 55(3) (2017), 201-208."
			],
			"link": [
				"R. J. Mathar, \u003ca href=\"/A000834/b000834.txt\"\u003eTable of n, a(n) for n = 0..161\u003c/a\u003e",
				"J. Millar, N. J. A. Sloane and N. E. Young, A new operation on sequences: the Boustrophedon transform, J. Combin. Theory, 17A (1996) 44-54 (\u003ca href=\"http://neilsloane.com/doc/bous.txt\"\u003eAbstract\u003c/a\u003e, \u003ca href=\"http://neilsloane.com/doc/bous.pdf\"\u003epdf\u003c/a\u003e, \u003ca href=\"http://neilsloane.com/doc/bous.ps\"\u003eps\u003c/a\u003e)."
			],
			"formula": [
				"a(n) = Sum_{i=0..n} binomial(n,i)*A000831(n-i). - _R. J. Mathar_, Nov 19 2006",
				"a(n) := -1 + Sum_{i=0...n} ((-1)^(i(i-1)/2) 4^i C(n,i)(E_{i}(1/2) + E_{i}(1))), where E_{n}(x) are Euler polynomials. - _Peter Luschny_, Nov 25 2010",
				"G.f.: G(0)*2*x/(1 - x)/(1 - 3*x) + 1/(1 - x), where G(k) = 1 - 2*x^2*(k+1)*(k+2)/(2*x^2*(k+1)*(k+2) - (2*x*k + 3*x - 1)*(2*x*k + 5*x - 1)/G(k+1) ); (continued fraction). - _Sergei N. Gladkovskii_, Jan 24 2014",
				"a(n) ~ n! * exp(Pi/4) * 2^(2*n+2) / Pi^(n+1). - _Vaclav Kotesovec_, Jul 02 2015"
			],
			"maple": [
				"A000834 := exp(x)*(sin(x)+cos(x))/(cos(x)-sin(x)) : for n from 0 to 200 do printf(\"%d %d \",n,n!*coeftayl(A000834,x=0,n)) ; end: # _R. J. Mathar_, Nov 19 2006",
				"A000834 := proc(n) local i; add((-1)^(i*(i-1)/2)*4^i*binomial(n,i)*(euler(i,1/2)+euler(i,1)),i=0...n)-1 end; # _Peter Luschny_, Nov 25 2010"
			],
			"mathematica": [
				"With[{nn=20},CoefficientList[Series[Exp[x] (1+Tan[x])/(1-Tan[x]), {x,0,nn}],x]Range[0,nn]!] (* _Harvey P. Dale_, Sep 08 2011 *)"
			],
			"keyword": "nonn",
			"offset": "0,2",
			"author": "_N. J. A. Sloane_",
			"references": 3,
			"revision": 35,
			"time": "2021-02-18T00:42:42-05:00",
			"created": "1996-03-15T03:00:00-05:00"
		}
	]
}