{
	"greeting": "Greetings from The On-Line Encyclopedia of Integer Sequences! http://oeis.org/",
	"query": "id:A000819",
	"count": 1,
	"start": 0,
	"results": [
		{
			"number": 819,
			"data": "1,2,40,1952,177280,25866752,5535262720,1633165156352,635421069967360,315212388819402752,194181169538675507200,145435130631317935357952,130145345400688287667978240,137139396592145493713802493952",
			"name": "E.g.f.: cos(x)^2 / cos(2x) = Sum_{n \u003e= 0} a(n) * x^(2n) / (2n)!.",
			"link": [
				"R. J. Mathar, \u003ca href=\"/A000819/b000819.txt\"\u003eTable of n, a(n) for n = 0..200\u003c/a\u003e"
			],
			"formula": [
				"E.g.f.: cos(x)^2/cos(2x)=1/Q(0)+1/2;   Q(k)=1+1/(1-2*(x^2)/(2*(x^2)-(k+1)*(2k+1)/Q(k+1)));  (continued fraction). - _Sergei N. Gladkovskii_, Nov 18 2011",
				"From _Michael Somos_, Apr 04 2017: (Start)",
				"E.g.f.: cos(x)^2 / cos(2*x) = (1 + sec(2*x)) / 2 = tan(2*x) / (2 * tan(x)) = 1 / (1 - tan(x)^2).",
				"a(n) = A000816(n) unless n=0.",
				"a(n) = 1/2 * A002436(n) unless n=0.",
				"a(n) = 2^(2*n - 1) * A000364(n). (End)"
			],
			"example": [
				"G.f. = 1 + 2*x + 40*x^2 + 1952*x^3 + 177280*x^4 + 25866752*x^5 + ... - _Michael Somos_, Apr 04 2017"
			],
			"mathematica": [
				"With[{nn=30},Take[CoefficientList[Series[Cos[x]^2/Cos[2x],{x,0,nn}],x] Range[ 0,nn]!,{1,-1,2}]] (* _Harvey P. Dale_, Jul 06 2014 *)",
				"a[ n_] := If[ n \u003c 0, 0, With[ {m = 2 n}, m! SeriesCoefficient[ 1 / (1 - Tan[x]^2), {x, 0, m}]]]; (* _Michael Somos_, Apr 04 2017 *)"
			],
			"program": [
				"(PARI) {a(n) = my(m); if( n\u003c0, 0, m = 2*n; m! * polcoeff( 1 / (1 - tan(x + x * O(x^m))^2), m))}; /* _Michael Somos_, Apr 04 2017 */"
			],
			"xref": [
				"Essentially the same as A000816.",
				"Second column of array A103905.",
				"Cf. A000364, A002436."
			],
			"keyword": "nonn",
			"offset": "0,2",
			"author": "_N. J. A. Sloane_",
			"references": 2,
			"revision": 31,
			"time": "2017-12-30T14:33:34-05:00",
			"created": "1996-03-15T03:00:00-05:00"
		}
	]
}