{
	"greeting": "Greetings from The On-Line Encyclopedia of Integer Sequences! http://oeis.org/",
	"query": "id:A000879",
	"count": 1,
	"start": 0,
	"results": [
		{
			"number": 879,
			"data": "2,4,9,15,30,39,61,72,99,146,162,219,263,283,329,409,487,519,609,675,705,811,886,1000,1163,1252,1294,1381,1423,1523,1877,1976,2141,2190,2489,2547,2729,2915,3043,3241,3436,3512,3868,3945,4089,4164,4627,5106",
			"name": "Number of primes \u003c prime(n)^2.",
			"comment": [
				"a(n) is the least index i such that A052180(i) = prime(n). - _Labos Elemer_, May 14 2003",
				"Number of primes determined at the n-th step of the sieve of Eratosthenes. - _Jean-Christophe Hervé_, Oct 21 2013",
				"There are only 3 squares in the current data: 4, 9, 7745089. - _Michel Marcus_, Apr 07 2018",
				"There are no other squares up to a(780000). - _Giovanni Resta_, Apr 09 2018"
			],
			"link": [
				"Donovan Johnson, \u003ca href=\"/A000879/b000879.txt\"\u003eTable of n, a(n) for n = 1..10000\u003c/a\u003e"
			],
			"formula": [
				"a(n) = A000720(A001248(n)). - _Michel Marcus_, Apr 07 2018"
			],
			"mathematica": [
				"PrimePi[Prime[Range[50]]^2] (* _Harvey P. Dale_, Jan 16 2013 *)"
			],
			"program": [
				"(PARI) a(n) = primepi(prime(n)^2); \\\\ _Michel Marcus_, Oct 28 2013"
			],
			"xref": [
				"Cf. A050216 (first differences), A089609, A052180, A000720, A001248, A000885, A054270 (primes of rank a(n))"
			],
			"keyword": "nonn",
			"offset": "1,1",
			"author": "gandalf(AT)hrn.office.ssi.net (James D. Ausfahl)",
			"ext": [
				"Edited by _Ralf Stephan_, Aug 24 2004"
			],
			"references": 19,
			"revision": 48,
			"time": "2018-04-09T03:44:06-04:00",
			"created": "1996-03-15T03:00:00-05:00"
		}
	]
}