{
	"greeting": "Greetings from The On-Line Encyclopedia of Integer Sequences! http://oeis.org/",
	"query": "id:A000221",
	"count": 1,
	"start": 0,
	"results": [
		{
			"number": 221,
			"data": "5,25,29,85,89,145,42,20,4,16,37,58,89,145,42,20,4,16,37,58,89,145,42,20,4,16,37,58,89,145,42,20,4,16,37,58,89,145,42,20,4,16,37,58,89,145,42,20,4,16,37,58,89,145,42,20,4,16,37,58,89,145,42,20,4,16,37,58,89,145",
			"name": "Take sum of squares of digits of previous term; start with 5.",
			"comment": [
				"Essentially the same as A080709, cf. formula. - _M. F. Hasler_, May 24 2009",
				"As the orbit of 5 under A003132, this could as well start with index 0. - _M. F. Hasler_, Apr 27 2018"
			],
			"reference": [
				"R. Honsberger, Ingenuity in Mathematics, Random House, 1970, p. 83."
			],
			"link": [
				"Vincenzo Librandi, \u003ca href=\"/A000221/b000221.txt\"\u003eTable of n, a(n) for n = 1..100\u003c/a\u003e",
				"Arthur Porges, \u003ca href=\"http://www.jstor.org/stable/2304639\"\u003eA set of eight numbers\u003c/a\u003e, Amer. Math. Monthly 52 (1945), 379-382.",
				"\u003ca href=\"/index/Rec#order_08\"\u003eIndex entries for linear recurrences with constant coefficients\u003c/a\u003e, signature (0, 0, 0, 0, 0, 0, 0, 1)."
			],
			"formula": [
				"Ultimately periodic with period 8.",
				"a(n) = A080709(n) for n \u003e= 5. - _M. F. Hasler_, May 24 2009",
				"a(n+1) = A003132(a(n)). - _Reinhard Zumkeller_, Dec 19 2011"
			],
			"mathematica": [
				"NestList[Plus @@ IntegerDigits[ # ]^2 \u0026, 5, 50]",
				"PadRight[{5,25,29,85},120,{4,16,37,58,89,145,42,20}] (* _Harvey P. Dale_, Jan 14 2022 *)"
			],
			"program": [
				"(PARI) A000221(n)=[20,4,16,37,58,89,145,42,5,25,29,85][n%8+8^(n\u003c5)] \\\\ _M. F. Hasler_, May 24 2009, edited Apr 27 2018",
				"(MAGMA) [5, 25, 29, 85] cat \u0026cat[[89, 145, 42, 20, 4, 16, 37, 58]: n in [0..17]]; // _Vincenzo Librandi_, Jan 29 2013",
				"(Haskell)",
				"a000221 n = a000221_list !! (n-1)",
				"a000221_list = iterate a003132 5",
				"-- _Reinhard Zumkeller_, Mar 04 2013"
			],
			"xref": [
				"Cf. A003132 (the iterated map), A003621, A039943, A099645, A031176, A007770, A000216 (starting with 2), A000218 (starting with 3), A080709 (starting with 4), A008460 (starting with 6), A008462 (starting with 8), A008463 (starting with 9), A139566 (starting with 15), A122065 (starting with 74169). - _M. F. Hasler_, May 24 2009"
			],
			"keyword": "nonn,base,easy,nice,changed",
			"offset": "1,1",
			"author": "_N. J. A. Sloane_",
			"references": 14,
			"revision": 45,
			"time": "2022-01-14T16:39:14-05:00",
			"created": "1991-04-30T03:00:00-04:00"
		}
	]
}