{
	"greeting": "Greetings from The On-Line Encyclopedia of Integer Sequences! http://oeis.org/",
	"query": "id:A000877",
	"count": 1,
	"start": 0,
	"results": [
		{
			"number": 877,
			"id": "M3910 N1605",
			"data": "5,20,206,54155,309771751363,2813362279226503905263636259,117782620520968191503190785913014275478335890027037842956986579",
			"name": "Number of switching networks with GL(n,2) acting on the domain and GL(2,2) acting on the range.",
			"reference": [
				"M. A. Harrison, On the number of classes of switching networks, J. Franklin Instit., 276 (1963), 313-327. (Available on-line at http://deepblue.lib.umich.edu/handle/2027.42/5406/.)",
				"N. J. A. Sloane, A Handbook of Integer Sequences, Academic Press, 1973 (includes this sequence).",
				"N. J. A. Sloane and Simon Plouffe, The Encyclopedia of Integer Sequences, Academic Press, 1995 (includes this sequence)."
			],
			"link": [
				"\u003ca href=\"/index/Sw#switching\"\u003eIndex entries for sequences related to switching networks\u003c/a\u003e"
			],
			"keyword": "nonn",
			"offset": "1,1",
			"author": "_N. J. A. Sloane_",
			"ext": [
				"More terms from _Sean A. Irvine_, Jan 25 2012"
			],
			"references": 0,
			"revision": 20,
			"time": "2017-04-01T00:22:47-04:00",
			"created": "1991-04-30T03:00:00-04:00"
		}
	]
}