{
	"greeting": "Greetings from The On-Line Encyclopedia of Integer Sequences! http://oeis.org/",
	"query": "id:A000223",
	"count": 1,
	"start": 0,
	"results": [
		{
			"number": 223,
			"id": "M2619 N1036",
			"data": "3,7,10,19,32,34,37,51,81,119,122,134,157,160,161,174,221,252,254,294,305,309,364,371,405,580,682,734,756,763,776,959,1028,1105,1120,1170,1205,1550,1570,1576,1851,1930,2028,2404,2411,2565,2675,2895,2905,2940,3133,3211,3240,3428",
			"name": "Let A(n) = #{(i,j,k): i^2 + j^2 + k^2 \u003c= n}, V(n) = (4/3)Pi*n^(3/2), P(n) = A(n) - V(n); A000092 gives values of n where |P(n)| sets a new record; sequence gives (nearest integer to, I believe) P(A000092(n)).",
			"comment": [
				"Record values of (absolute values of) A210641 = A117609-A210639. It appears that the records occur always at positive elements of that sequence. (One could add an initial a(0)=1.) - _M. F. Hasler_, Mar 26 2012"
			],
			"reference": [
				"N. J. A. Sloane, A Handbook of Integer Sequences, Academic Press, 1973 (includes this sequence).",
				"N. J. A. Sloane and Simon Plouffe, The Encyclopedia of Integer Sequences, Academic Press, 1995 (includes this sequence)."
			],
			"link": [
				"W. C. Mitchell, \u003ca href=\"http://dx.doi.org/10.1090/S0025-5718-1966-0195834-3\"\u003eThe number of lattice points in a k-dimensional hypersphere\u003c/a\u003e, Math. Comp., 20 (1966), 300-310."
			],
			"formula": [
				"a(n) = |A210641(A000092(n))|. - _M. F. Hasler_, Mar 26 2012"
			],
			"mathematica": [
				"nmax = 3*10^4; P[n_] := Sum[SquaresR[3, k], {k, 0, n}] - Round[(4/3)*Pi* n^(3/2)]; record = 0; A000223 = Reap[For[n = 1, n \u003c= nmax, n++, If[(p = Abs[pn = P[n]]) \u003e record, record = p; Print[pn]; Sow[pn]]]][[2, 1]] (* _Jean-François Alcover_, Feb 05 2016 *)"
			],
			"program": [
				"(PARI) m=0;for(n=0,1e4, m\u003cabs(A210641(n)) \u0026 print1(m=A210641(n)\",\")) /* This would print a negative value in case the record in absolute value occured for A117609(n)\u003cA210639(n), which does not happen for n\u003c10^4. */ \\\\ _M. F. Hasler_, Mar 26 2012"
			],
			"xref": [
				"Cf. A000323, A000036, A000092, A000413, A000099."
			],
			"keyword": "nonn",
			"offset": "1,1",
			"author": "_N. J. A. Sloane_",
			"ext": [
				"Revised Jun 28 2005"
			],
			"references": 7,
			"revision": 30,
			"time": "2017-06-24T11:57:33-04:00",
			"created": "1991-04-30T03:00:00-04:00"
		}
	]
}