{
	"greeting": "Greetings from The On-Line Encyclopedia of Integer Sequences! http://oeis.org/",
	"query": "id:A000683",
	"count": 1,
	"start": 0,
	"results": [
		{
			"number": 683,
			"id": "M4238 N1770",
			"data": "0,1,6,40,360,4576,82656,2122240,77366400,4002843136,293717546496,30558458490880,4505780560619520,941417163728674816,278628902101315608576,116805328001281573519360",
			"name": "Number of colorings of labeled graphs on n nodes using exactly 2 colors, divided by 4.",
			"comment": [
				"A coloring of a simple graph is a choice of color for each graph vertex such that no two vertices sharing the same edge have the same color. A213441 counts those colorings of labeled graphs on n vertices that use exactly two colors. This sequence is 1/4 of A213441 (1/4 of column 2 of Table 1 in Read). - _Peter Bala_, Apr 11 2013",
				"A047863 counts colorings of labeled graphs on n vertices that use two or fewer colors. - _Peter Bala_, Apr 11 2013"
			],
			"reference": [
				"F. Harary and E. M. Palmer, Graphical Enumeration, Academic Press, NY, 1973, p. 18, table 1.5.1, column 2 (divided by 2).",
				"R. C. Read, personal communication.",
				"N. J. A. Sloane, A Handbook of Integer Sequences, Academic Press, 1973 (includes this sequence).",
				"N. J. A. Sloane and Simon Plouffe, The Encyclopedia of Integer Sequences, Academic Press, 1995 (includes this sequence)."
			],
			"link": [
				"T. D. Noe, \u003ca href=\"/A000683/b000683.txt\"\u003eTable of n, a(n) for n=1..50\u003c/a\u003e",
				"R. C. Read, \u003ca href=\"http://cms.math.ca/10.4153/CJM-1960-035-0\"\u003eThe number of k-colored graphs on labelled nodes\u003c/a\u003e, Canad. J. Math., 12 (1960), 410—414."
			],
			"formula": [
				"Reference gives generating function.",
				"a(n) ~ c * 2^(n^2/4+n-3/2)/sqrt(Pi*n), where c = Sum_{k = -infinity..infinity} 2^(-k^2) = 2.128936827211877... if n is even and c = Sum_{k = -infinity..infinity} 2^(-(k+1/2)^2) = 2.12893125051302... if n is odd. - _Vaclav Kotesovec_, Jun 24 2013"
			],
			"mathematica": [
				"maxn = 16; t[_, 1] = 1; t[n_, k_] := t[n, k] = Sum[Binomial[n, j]*2^(j*(n - j))*t[j, k - 1]/k, {j, 1, n - 1}]; a[n_] := t[n, 2]/2; Table[a[n], {n, 1, maxn}] (* _Jean-François Alcover_, Sep 21 2011 *)"
			],
			"xref": [
				"a(n)=(A047863(n)-2)/4.",
				"A diagonal of A058843.",
				"One quarter of A213441."
			],
			"keyword": "nonn,nice,easy",
			"offset": "1,3",
			"author": "_N. J. A. Sloane_",
			"ext": [
				"More terms from _Vladeta Jovovic_, Feb 02 2000"
			],
			"references": 11,
			"revision": 37,
			"time": "2015-11-25T01:40:11-05:00",
			"created": "1991-04-30T03:00:00-04:00"
		}
	]
}