{
	"greeting": "Greetings from The On-Line Encyclopedia of Integer Sequences! http://oeis.org/",
	"query": "id:A001911",
	"count": 1,
	"start": 0,
	"results": [
		{
			"number": 1911,
			"id": "M2546 N1007",
			"data": "0,1,3,6,11,19,32,53,87,142,231,375,608,985,1595,2582,4179,6763,10944,17709,28655,46366,75023,121391,196416,317809,514227,832038,1346267,2178307,3524576,5702885,9227463,14930350,24157815,39088167,63245984",
			"name": "a(n) = Fibonacci(n+3) - 2.",
			"comment": [
				"This is the sequence A(0,1;1,1;2) of the family of sequences [a,b:c,d:k] considered by G. Detlefs, and treated as A(a,b;c,d;k) in the W. Lang link given below. - _Wolfdieter Lang_, Oct 17 2010",
				"Ternary words of length n - 1 with subwords (0, 1), (0, 2) and (2, 2) not allowed. - _Olivier Gérard_, Aug 28 2012",
				"For subsets of (1, 2, 3, 5, 8, 13, ...) Fibonacci Maximal terms (Cf. A181631) equals the number of leading 1's per subset. For example, (7-11) in Fibonacci Maximal = (1010, 1011, 1101, 1110, 1111), numbers of leading 1's = (1 + 1 + 2 + 3 + 4) = 11 = a(4) = row 4 of triangle A181631. - _Gary W. Adamson_, Nov 02 2010",
				"As in our 2009 paper, we use two types of Fibonacci trees: - Ta: Fibonacci analog of binomial trees; Tb: Binary Fibonacci trees. Let D(r(k)) be the sum over all distances of the form d(r, x), across all vertices x of the tree rooted at r of order k. Ignoring r, but overloading, let D(a(k)) and D(b(k)) be the distance sums for the Fibonacci trees Ta and Tb respectively of the order k. Using the sum-of-product form in Equations (18) and (21) in our paper it follows that F(k+4) - 2 = D(a(k+1)) - D(b(k-1)). - _K.V.Iyer_ and P. Venkata Subba Reddy, Apr 30 2011",
				"a(n) is the length of the n-th palindromic prefix of the infinite Fibonacci word A003849. - _Dimitri Hendriks_, May 19 2014",
				"The first k terms of the infinite Fibonacci word A014675 are palindromic if and only if k is a positive term of this sequence. - _Clark Kimberling_, Jul 14 2014",
				"Can be expressed in terms of a rule similar to Recamán's sequence (A005132). Instead of following the Recamán rule \"subtract if possible, otherwise add\", this sequence follows the rule \"If subtraction is possible, do nothing; otherwise add.\" For example when at the fourth term, 6, it is possible to subtract 4 (giving 2 which is not in {0, 1, 3, 6}) so nothing is done with 4. It is not possible to subtract 5 (6-5=1, which is in {0, 1, 3, 6}), so it is added, resulting in 11. - _Matthew Malone_, Jan 03 2020"
			],
			"reference": [
				"J. Riordan, An Introduction to Combinatorial Analysis, Wiley, 1958, p. 233.",
				"N. J. A. Sloane, A Handbook of Integer Sequences, Academic Press, 1973 (includes this sequence).",
				"N. J. A. Sloane and Simon Plouffe, The Encyclopedia of Integer Sequences, Academic Press, 1995 (includes this sequence)."
			],
			"link": [
				"Charles R Greathouse IV, \u003ca href=\"/A001911/b001911.txt\"\u003eTable of n, a(n) for n = 0..4783\u003c/a\u003e (next term has 1001 digits)",
				"Stefano Bilotta, \u003ca href=\"http://arxiv.org/abs/1605.03785\"\u003eVariable-length Non-overlapping Codes\u003c/a\u003e, arXiv preprint arXiv:1605.03785 [cs.IT], 2016.",
				"D. J. Broadhurst, \u003ca href=\"http://arXiv.org/abs/hep-th/9604128\"\u003eOn the enumeration of irreducible k-fold Euler sums and their roles in knot theory and field theory\u003c/a\u003e, arXiv:hep-th/9604128, 1996.",
				"K. Viswanathan Iyer and K. R. Uday Kumar Reddy, \u003ca href=\"http://arXiv.org/abs/0910.4432\"\u003eWiener index of binomial trees and Fibonacci trees\u003c/a\u003e, arXiv:0910.4432 [cs.DM], 2009. (Corrigendum: Eq.(23) to be corrected as follows on the right-side: in the fourth term F(k)-1 should be replaced by F(k); a term F(k)*F(K+1)-1 is to be included; pointed out by Emeric Deutsch).",
				"Simon Plouffe, \u003ca href=\"https://arxiv.org/abs/0911.4975\"\u003eApproximations de séries génératrices et quelques conjectures\u003c/a\u003e, Dissertation, Université du Québec à Montréal, 1992.",
				"Simon Plouffe, \u003ca href=\"/A000051/a000051_2.pdf\"\u003e1031 Generating Functions\u003c/a\u003e, Appendix to Thesis, Montreal, 1992",
				"M. Rigo, P. Salimov, and E. Vandomme, \u003ca href=\"http://www.emis.de/journals/JIS/VOL16/Rigo/rigo3.html\"\u003eSome Properties of Abelian Return Words\u003c/a\u003e, Journal of Integer Sequences, Vol. 16 (2013), #13.2.5.",
				"D. G. Rogers, \u003ca href=\"http://dx.doi.org/10.1007/BFb0102693\"\u003eAn application of renewal sequences to the dimer problem\u003c/a\u003e, pp. 142-153 of Combinatorial Mathematics VI (Armidale 1978), Lect. Notes Math. 748, 1979.",
				"Wolfdieter Lang, \u003ca href=\"/A001911/a001911.pdf\"\u003eNotes on certain inhomogeneous three term recurrences.\u003c/a\u003e [Wolfdieter Lang, Oct 17 2010]",
				"\u003ca href=\"/index/Rec#order_03\"\u003eIndex entries for linear recurrences with constant coefficients\u003c/a\u003e, signature (2,0,-1)."
			],
			"formula": [
				"a(n) = a(n-1) + a(n-2) + 2, a(0) = 0, a(1) = 1. - _Michael Somos_, Jun 09 1999",
				"G.f.: x*(1+x)/((1-x)*(1-x-x^2)).",
				"Sum of consecutive pairs of A000071 (partial sums of Fibonacci numbers). - _Paul Barry_, Apr 17 2004",
				"a(n) = A101220(2, 1, n). - _Ross La Haye_, Jan 28 2005",
				"a(n) = A108617(n+1, 2) = A108617(n+1, n-1) for n \u003e 0. - _Reinhard Zumkeller_, Jun 12 2005",
				"a(n) = term (1,1) in the 1 X 3 matrix [0,-1,1].[1,1,0; 1,0,0; 2,0,1]^n. - _Alois P. Heinz_, Jul 24 2008",
				"a(0) = 0, a(1) = 1, a(2) = 3, a(n) = 2*a(n-1)-a(n-3). - _Harvey P. Dale_, Jun 06 2011",
				"Eigensequence of an infinite lower triangular matrix with the natural numbers as the left border and (1, 0, 1, 0, ...) in all other columns. - _Gary W. Adamson_, Jan 30 2012",
				"a(n) = (-2+(2^(-n)*((1-sqrt(5))^n*(-2+sqrt(5))+(1+sqrt(5))^n*(2+sqrt(5))))/sqrt(5)). - _Colin Barker_, May 12 2016",
				"a(n) = A000032(6+n)-1 mod A000045(6+n). - _Mario C. Enriquez_, Apr 01 2017"
			],
			"example": [
				"x + 3*x^2 + 6*x^3 + 11*x^4 + 19*x^5 + 32*x^6 + 53*x^7 + 87*x^8 + ..."
			],
			"maple": [
				"a[0]:=0:a[1]:=1:for n from 2 to 50 do a[n]:=a[n-1]+a[n-2]+2 od: seq(a[n],n=0..50); # _Miklos Kristof_, Mar 09 2005",
				"A001911:=(1+z)/(z-1)/(z**2+z-1); # _Simon Plouffe_ in his 1992 dissertation with another offset",
				"a:= n-\u003e (Matrix([[0,-1,1]]). Matrix([[1,1,0], [1,0,0], [2,0,1]])^n)[1,1]: seq(a(n), n=0..50); # _Alois P. Heinz_, Jul 24 2008"
			],
			"mathematica": [
				"Table[Fibonacci[n + 3] - 2, {n, 0, 5!}] (* _Vladimir Joseph Stephan Orlovsky_, Nov 19 2010 *)",
				"LinearRecurrence[{2, 0, -1}, {0, 1, 3}, 40] (* _Harvey P. Dale_, Jun 06 2011 *)",
				"Fibonacci[Range[3,40]]-2 (* _Harvey P. Dale_, Jun 28 2015 *)"
			],
			"program": [
				"(MAGMA) [(Fibonacci(n+3))-2: n in [0..85]]; // _Vincenzo Librandi_, Apr 23 2011",
				"(PARI) a(n)=fibonacci(n+3)-2 \\\\ _Charles R Greathouse IV_, Mar 14 2012",
				"(Haskell)",
				"a001911 n = a001911_list !! n",
				"a001911_list = 0 : 1 : map (+ 2) (zipWith (+) a001911_list $ tail a001911_list)",
				"-- _Reinhard Zumkeller_, Jun 18 2013"
			],
			"xref": [
				"a(n) = A000045(n+3) - 2. - _Michael Somos_, Jun 09 1999",
				"Partial sums of F(n+1) = A000045(n+1).",
				"Right-hand column 3 of triangle A011794.",
				"Cf. A001611, A000071, A157725, A001911, A157726, A006327, A157727, A157728, A157729, A167616. [Added by _N. J. A. Sloane_, Jun 25 2010 in response to a comment from _Aviezri S. Fraenkel_]",
				"Cf. A181631. - _Gary W. Adamson_, Nov 02 2010",
				"See also A165910.",
				"Subsequence of A226538."
			],
			"keyword": "nonn,easy,nice",
			"offset": "0,3",
			"author": "_N. J. A. Sloane_",
			"ext": [
				"More terms and better description from _Michael Somos_"
			],
			"references": 64,
			"revision": 150,
			"time": "2021-03-12T22:32:35-05:00",
			"created": "1991-04-30T03:00:00-04:00"
		}
	]
}