{
	"greeting": "Greetings from The On-Line Encyclopedia of Integer Sequences! http://oeis.org/",
	"query": "id:A001110",
	"count": 1,
	"start": 0,
	"results": [
		{
			"number": 1110,
			"id": "M5259 N2291",
			"data": "0,1,36,1225,41616,1413721,48024900,1631432881,55420693056,1882672131025,63955431761796,2172602007770041,73804512832419600,2507180834294496361,85170343853180456676,2893284510173841030625",
			"name": "Square triangular numbers: numbers that are both triangular and square.",
			"comment": [
				"Satisfies a recurrence of S_r type for r=36: 0, 1, 36 and a(n-1)*a(n+1)=(a(n)-1)^2. First observed by Colin Dickson in alt.math.recreational, Mar 07 2004. - _Rainer Rosenthal_, Mar 14 2004",
				"For every n, a(n) is the first of three triangular numbers in geometric progression. The third number in the progression is a(n+1). The middle triangular number is sqrt(a(n)*a(n+1)). Chen and Fang prove that four distinct triangular numbers are never in geometric progression. - _T. D. Noe_, Apr 30 2007",
				"The sum of any two terms is never equal to a Fermat number. - _Arkadiusz Wesolowski_, Feb 14 2012",
				"Conjecture: No a(2^k), where k is a nonnegative integer, can be expressed as a sum of a positive square number and a positive triangular number. - _Ivan N. Ianakiev_, Sep 19 2012",
				"For n=2k+1, A010888(a(n))=1 and for n=2k, k \u003e 0, A010888(a(n))=9. - _Ivan N. Ianakiev_, Oct 12 2013",
				"For n \u003e 0, these are the triangular numbers which are the sum of two consecutive triangular numbers, for instance 36 = 15 + 21 and 1225 = 595 + 630. - _Michel Marcus_, Feb 18 2014",
				"The sequence is the case P1 = 36, P2 = 68, Q = 1 of the 3-parameter family of 4th order linear divisibility sequences found by Williams and Guy. - _Peter Bala_, Apr 03 2014",
				"For n=2k, k \u003e 0, a(n) is divisible by 12 and is therefore abundant. I conjecture that for n=2k+1 a(n) is deficient [true for k up to 43 incl.]. - _Ivan N. Ianakiev_, Sep 30 2014",
				"The conjecture is true for all k \u003e 0 because: For n=2k+1, k \u003e 0, a(n) is odd. If a(n) is a prime number, it is deficient; otherwise a(n) has one or two distinct prime factors and is therefore deficient again. So for n=2k+1, k \u003e 0, a(n) is deficient. - _Muniru A Asiru_, Apr 13 2016",
				"Numbers k for which A139275(k) is a perfect square. - _Bruno Berselli_, Jan 16 2018"
			],
			"reference": [
				"A. H. Beiler, Recreations in the Theory of Numbers, Dover, NY, 1964, p. 193.",
				"L. E. Dickson, History of the Theory of Numbers. Carnegie Institute Public. 256, Washington, DC, Vol. 1, 1919; Vol. 2, 1920; Vol. 3, 1923, see vol. 2, p. 10.",
				"Martin Gardner, Time Travel and other Mathematical Bewilderments, pp. 16-17, Freeman 1988",
				"Miodrag S. Petković, Famous Puzzles of Great Mathematicians, Amer. Math. Soc.(AMS), 2009, page 64.",
				"J. H. Silverman, A Friendly Introduction to Number Theory, p 196, Prentice Hall 2001",
				"N. J. A. Sloane, A Handbook of Integer Sequences, Academic Press, 1973 (includes this sequence).",
				"N. J. A. Sloane and Simon Plouffe, The Encyclopedia of Integer Sequences, Academic Press, 1995 (includes this sequence)."
			],
			"link": [
				"Kade Robertson, \u003ca href=\"/A001110/b001110.txt\"\u003eTable of n, a(n) for n = 0..600\u003c/a\u003e [This replaces an earlier b-file computed by T. D. Noe]",
				"Nikola Adžaga, Andrej Dujella, Dijana Kreso, and Petra Tadić, \u003ca href=\"https://www.researchgate.net/publication/323934704_On_Diophantine_m-tuples_and_Dn-sets\"\u003eOn Diophantine m-tuples and D(n)-sets\u003c/a\u003e, 2018.",
				"Muniru A. Asiru, \u003ca href=\"http://dx.doi.org/10.1080/0020739X.2016.1164346\"\u003eAll square chiliagonal numbers\u003c/a\u003e, International Journal of Mathematical Education in Science and Technology, Volume 47, 2016 - Issue 7.",
				"Tom Beldon and Tony Gardiner, \u003ca href=\"http://www.jstor.org/stable/3621134\"\u003eTriangular numbers and perfect squares\u003c/a\u003e, The Mathematical Gazette, 2002, pp. 423--431, esp pp. 424--426.",
				"K. S. Brown, \u003ca href=\"http://www.mathpages.com/home/kmath159.htm\"\u003eSquare Triangular Numbers\u003c/a\u003e",
				"P. Catarino, H. Campos, and P. Vasco, \u003ca href=\"http://ami.ektf.hu/uploads/papers/finalpdf/AMI_45_from11to24.pdf\"\u003eOn some identities for balancing and cobalancing numbers\u003c/a\u003e, Annales Mathematicae et Informaticae, 45 (2015) pp. 11-24.",
				"Kwang-Wu Chen and Yu-Ren Pan, \u003ca href=\"https://cs.uwaterloo.ca/journals/JIS/VOL23/Pan/pan32.html\"\u003eGreatest Common Divisors of Shifted Horadam Sequences\u003c/a\u003e, J. Int. Seq., Vol. 23 (2020), Article 20.5.8.",
				"Yong-Gao Chen and Jin-Hui Fang, \u003ca href=\"http://www.emis.de/journals/INTEGERS/papers/h19/h19.Abstract.html\"\u003eTriangular numbers in geometric progression,\u003c/a\u003e INTEGERS 7 (2007), #A19.",
				"Colin Dickson et al., \u003ca href=\"http://groups.google.com/group/alt.math.recreational/browse_thread/thread/7f1fb3d3cbba7219/0a63271688ab23dd\"\u003eratio of integers = sqrt(2)\u003c/a\u003e, thread in newsgroup alt.math.recreational, March 7, 2004.",
				"H. G. Forder, \u003ca href=\"http://www.jstor.org/stable/3613403\"\u003eA Simple Proof of a Result on Diophantine Approximation\u003c/a\u003e, Math. Gaz., 47 (1963), 237-238.",
				"M. Gardner, \u003ca href=\"/A001110/a001110.jpg\"\u003eLetter to N. J. A. Sloane, circa Aug 11 1980\u003c/a\u003e, concerning A001110, A027568, A039596, etc.",
				"Bill Gosper, \u003ca href=\"http://gosper.org/triangsq.pdf\"\u003eThe Triangular Squares\u003c/a\u003e, 2014.",
				"Jon Grantham and Hester Graves, \u003ca href=\"https://arxiv.org/abs/2009.04052\"\u003eThe abc Conjecture Implies That Only Finitely Many Cullen Numbers Are Repunits\u003c/a\u003e, arXiv:2009.04052 [math.NT], 2020. Mentions this sequence.",
				"Gillian Hatch, \u003ca href=\"http://www.jstor.org/stable/3619989\"\u003ePythagorean Triples and Triangular Square Numbers\u003c/a\u003e, Mathematical Gazette 79 (1995), 51-55.",
				"P. Lafer, \u003ca href=\"http://www.fq.math.ca/Scanned/9-1/lafer.pdf\"\u003eDiscovering the square-triangular numbers\u003c/a\u003e, Fib. Quart., 9 (1971), 93-105.",
				"Roger B. Nelson, \u003ca href=\"http://www.jstor.org/stable/10.4169/math.mag.89.3.159\"\u003eMulti-Polygonal Numbers\u003c/a\u003e, Mathematics Magazine, Vol. 89, No. 3 (June 2016), pp. 159-164.",
				"A. Nowicki, \u003ca href=\"https://cs.uwaterloo.ca/journals/JIS/VOL18/Nowicki/nowicki3.html\"\u003eThe numbers a^2+b^2-dc^2\u003c/a\u003e, J. Int. Seq. 18 (2015) # 15.2.3.",
				"Matthew Parker, \u003ca href=\"https://oeis.org/A001110/a001110_5K.7z\"\u003eThe first 5000 square triangular numbers (7-Zip compressed file)\u003c/a\u003e",
				"Vladimir Pletser, \u003ca href=\"https://arxiv.org/abs/2101.00998\"\u003eRecurrent Relations for Multiple of Triangular Numbers being Triangular Numbers\u003c/a\u003e, arXiv:2101.00998 [math.NT], 2020.",
				"Simon Plouffe, \u003ca href=\"https://arxiv.org/abs/0911.4975\"\u003eApproximations de séries génératrices et quelques conjectures\u003c/a\u003e, Dissertation, Université du Québec à Montréal, 1992.",
				"Simon Plouffe, \u003ca href=\"/A000051/a000051_2.pdf\"\u003e1031 Generating Functions\u003c/a\u003e, Appendix to Thesis, Montreal, 1992",
				"D. A. Q., \u003ca href=\"http://www.jstor.org/stable/3617837\"\u003eTriangular square numbers - a postscript\u003c/a\u003e, Math. Gaz., 56 (1972), 311-314.",
				"K. Ramsey, \u003ca href=\"http://groups.yahoo.com/group/Triangular_and_Fibonacci_Numbers/message/62\"\u003eRe_Generalized_Proof_re_Square_Triangular_Numbers\u003c/a\u003e",
				"K. Ramsey, \u003ca href=\"/A001108/a001108.txt\"\u003eGeneralized Proof re Square Triangular Numbers\u003c/a\u003e, digest of 2 messages in Triangular_and_Fibonacci_Numbers Yahoo group, May 27, 2005 - Oct 10, 2011.",
				"Fabio Roman, \u003ca href=\"https://arxiv.org/abs/1703.06701\"\u003eOn certain ratios regarding integer numbers which are both triangulars and squares\u003c/a\u003e, arXiv:1703.06701 [math.NT], 2017.",
				"Jon E. Schoenfield, \u003ca href=\"/A001110/a001110.txt\"\u003ePrime factorization of a(n) for n=1..300\u003c/a\u003e",
				"Jaap Spies, \u003ca href=\"http://www.jaapspies.nl/bookb5.pdf\"\u003eA Bit of Math, The Art of Problem Solving\u003c/a\u003e, Jaap Spies Publishers (2019).",
				"R. Stephan, \u003ca href=\"http://www.ark.in-berlin.de/A001110.ps\"\u003eBoring proof of a nonlinearity\u003c/a\u003e",
				"Michel Waldschmidt, \u003ca href=\"http://webusers.imj-prg.fr/~michel.waldschmidt/articles/pdf/ContinuedFractionsOujda2015.pdf\"\u003eContinued fractions\u003c/a\u003e, Ecole de recherche CIMPA-Oujda, Théorie des Nombres et ses Applications, 18 - 29 mai 2015:  Oujda (Maroc).",
				"Eric Weisstein's World of Mathematics, \u003ca href=\"http://mathworld.wolfram.com/SquareTriangularNumber.html\"\u003eSquare Triangular Number\u003c/a\u003e",
				"Eric Weisstein's World of Mathematics, \u003ca href=\"http://mathworld.wolfram.com/TriangularNumber.html\"\u003eTriangular Number\u003c/a\u003e",
				"Wikipedia, \u003ca href=\"http://en.wikipedia.org/wiki/Triangular_square_number\"\u003eSquare triangular number\u003c/a\u003e",
				"H. C. Williams and R. K. Guy, \u003ca href=\"http://dx.doi.org/10.1142/S1793042111004587\"\u003eSome fourth-order linear divisibility sequences\u003c/a\u003e, Intl. J. Number Theory 7 (5) (2011) 1255-1277.",
				"H. C. Williams and R. K. Guy, \u003ca href=\"http://www.emis.de/journals/INTEGERS/papers/a17self/a17self.Abstract.html\"\u003eSome Monoapparitic Fourth Order Linear Divisibility Sequences\u003c/a\u003e Integers, Volume 12A (2012) The John Selfridge Memorial Volume.",
				"\u003ca href=\"/index/Rec#order_03\"\u003eIndex entries for linear recurrences with constant coefficients\u003c/a\u003e, signature (35,-35,1)."
			],
			"formula": [
				"a(0) = 0, a(1) = 1; for n \u003e= 2, a(n) = 34 * a(n-1) - a(n-2) + 2.",
				"G.f.: x*(1 + x) / (( 1 - x )*( 1 - 34*x + x^2 )).",
				"a(n-1) * a(n+1) = (a(n)-1)^2. - Colin Dickson, posting to alt.math.recreational, Mar 07 2004",
				"If L is a square-triangular number, then the next one is 1 + 17*L + 6*sqrt(L + 8*L^2). - _Lekraj Beedassy_, Jun 27 2001",
				"a(n)-a(n-1) = A046176(n). - Sophie Kuo (ejiqj_6(AT)yahoo.com.tw), May 27 2006",
				"a(n) = A001109(n)^2 = A001108(n)*(A001108(n)+1)/2 = (A000129(n)*A001333(n))^2 = (A000129(n)*(A000129(n) + A000129(n-1)))^2. - _Henry Bottomley_, Apr 19 2000",
				"a(n) = (((17+12*sqrt(2))^n)+((17-12*sqrt(2))^n)-2)/32. - Bruce Corrigan (scentman(AT)myfamily.com), Oct 26 2002",
				"As n goes to infinity the ratio a(n+1)/a(n) goes to 17 + 12*sqrt(2). See Problem A of Nieuw Archief voor Wiskunde (URL www.math.leidenuniv.nl/~naw/serie5/deel05/dec2004/pdf/uwc.pdf is no longer valid). Since Feb 01 2005 (submission deadline) a solution can be found at http://www.jaapspies.nl/mathfiles/problem2004-4A.pdf - _Jaap Spies_, Dec 12 2004",
				"a(n) = 35*(a(n-1)-a(n-2)) + a(n-3); a(n) = -1/16 +((-24+17*2^(1/2))/2^(11/2))*(17-12*2^(1/2))^(n-1) +((24+17*2^(1/2))/2^(11/2))*(17+12*2^(1/2))^(n-1). - _Antonio Alberto Olivares_, Nov 07 2003",
				"a(n+1) = (17*A029547(n) - A091761(n) - 1)/16. - _R. J. Mathar_, Nov 16 2007",
				"a(n) = A001333^2 * A000129^2 = A000129(2*n)^2/4 = binomial(A001108,2). - _Bill Gosper_, Jul 28 2008",
				"Closed form (as square = triangular): ( (sqrt(2)+1)^(2*n)/(4*sqrt(2)) - (1-sqrt(2))^(2*n)/(4*sqrt(2)) )^2 = (1/2) * ( ( (sqrt(2)+1)^n / 2 - (sqrt(2)-1)^n / 2 )^2 + 1 )*( (sqrt(2)+1)^n / 2 - (sqrt(2)-1)^n / 2 )^2. - _Bill Gosper_, Jul 25 2008",
				"a(n) = (1/8)*(sinh(2*n*arcsinh(1)))^2. - _Artur Jasinski_, Feb 10 2010",
				"a(n) = floor((17+12*sqrt(2))*a(n-1)) + 3 = floor(3*sqrt(2)/4+(17+12*sqrt(2))*a(n-1)+1). - _Manuel Valdivia_, Aug 15 2011",
				"a(n) = (A011900(n) + A001652(n))^2; see the link about the generalized proof of square triangular numbers. - _Kenneth J Ramsey_, Oct 10 2011",
				"a(2*n+1) = (A002315(n))^2*(((A002315(n))^2)+1)/2. - _Ivan N. Ianakiev_, Oct 10 2012",
				"a(2*n+1) = ((sqrt(a^2 + (a+1)^2))*(2*a+1))^2, where a = (A002315(n)-1)(1/2). - _Ivan N. Ianakiev_, Nov 01 2012",
				"a(2*n) = A001333(2*n)^2 * (A001333(2*n)^2 - 1)/2, and  a(2*n+1) = A001333(2*n+1)^2 * (A001333(2*n+1)^2 + 1)/2. The later is equivalent to the comment above from Ivan using A002315, which is a bisection of A001333. Using A001333 shows symmetry and helps show that a(n) are both \"squares of triangular\" and \"triangular of squares\". - _Richard R. Forberg_, Aug 30 2013",
				"a(n) = (A001542(n)/2)^2.",
				"From _Peter Bala_, Apr 03 2014: (Start)",
				"a(n) = (T(n,17) - 1)/16, where T(n,x) denotes the Chebyshev polynomial of the first kind.",
				"a(n) = U(n-1,3)^2, for n \u003e= 1, where U(n,x) denotes the Chebyshev polynomial of the second kind.",
				"a(n) = the bottom left entry of the 2 X 2 matrix T(n, M), where M is the 2 X 2 matrix [0, -17; 1, 18].",
				"See the remarks in A100047 for the general connection between Chebyshev polynomials of the first kind and 4th order linear divisibility sequences. (End)",
				"a(n) = A096979(2*n-1) for n \u003e 0. - _Ivan N. Ianakiev_, Jun 21 2014",
				"a(n) = (6*sqrt(a(n-1)) - sqrt(a(n-2)))^2. - _Arkadiusz Wesolowski_, Apr 06 2015",
				"From _Daniel Poveda Parrilla_, Jul 16 2016 and Sep 21 2016: (Start)",
				"a(n) = A000290(A002965(2*n)*A002965(2*n + 1)), (after _Hugh Darwen_).",
				"a(n) = A000217(2*(A000129(n))^2 - (A000129(n) mod 2)).",
				"a(n) = A000129(n)^4 + Sum_{k=0..(A000129(n)^2 - (A000129(n) mod 2))} 2*k. This formula can be proved graphically by taking the corresponding triangle of a square triangular number and cutting both acute angles, one level at a time (sum of consecutive even numbers), resulting in a square of squares (4th powers).",
				"a(n) = A002965(2*n)^4 + Sum_{k=A002965(2*n)^2..A002965(2*n)*A002965(2*n + 1) - 1} 2*k + 1. This formula takes an equivalent sum of consecutives, but odd numbers. (End)",
				"E.g.f.: (exp((17-12*sqrt(2))*x) + exp((17+12*sqrt(2))*x) - 2*exp(x))/32. - _Ilya Gutkovskiy_, Jul 16 2016"
			],
			"example": [
				"a(2) = ((17 + 12*sqrt(2))^2 + (17 - 12*sqrt(2))^2 - 2)/32 = (289 + 24*sqrt(2) + 288 + 289 - 24*sqrt(2) + 288 - 2)/32 = (578 + 576 - 2)/32 = 1152/32 = 36 and 6^2 = 36 = 8*9/2 =\u003e a(2) is both the 6th square and the 8th triangular number."
			],
			"maple": [
				"a:=17+12*sqrt(2); b:=17-12*sqrt(2); A001110:=n -\u003e expand((a^n + b^n - 2)/32); seq(A001110(n), n=0..20); # _Jaap Spies_, Dec 12 2004",
				"A001110:=-(1+z)/((z-1)*(z**2-34*z+1)); # _Simon Plouffe_ in his 1992 dissertation"
			],
			"mathematica": [
				"f[n_]:=n*(n+1)/2; lst={}; Do[If[IntegerQ[Sqrt[f[n]]],AppendTo[lst,f[n]]],{n,0,10!}]; lst (* _Vladimir Joseph Stephan Orlovsky_, Feb 12 2010 *)",
				"Table[(1/8) Round[N[Sinh[2 n ArcSinh[1]]^2, 100]], {n, 0, 20}] (* _Artur Jasinski_, Feb 10 2010 *)",
				"Transpose[NestList[Flatten[{Rest[#],34Last[#]-First[#]+2}]\u0026, {0,1},20]][[1]]  (* _Harvey P. Dale_, Mar 25 2011 *)",
				"LinearRecurrence[{35, -35, 1}, {0, 1, 36}, 20] (* _T. D. Noe_, Mar 25 2011 *)",
				"LinearRecurrence[{6,-1},{0,1},20]^2 (* _Harvey P. Dale_, Oct 22 2012 *)",
				"(* Square = Triangular = Triangular = A001110 *)",
				"ChebyshevU[#-1,3]^2==Binomial[ChebyshevT[#/2,3]^2,2]==Binomial[(1+ChebyshevT[#,3])/2,2]=={1,36,1225,41616,1413721}[[#]]\u0026@Range[5]",
				"True (* _Bill Gosper_, Jul 20 2015 *)"
			],
			"program": [
				"(PARI) a=vector(100);a[1]=1;a[2]=36;for(n=3,#a,a[n]=34*a[n-1]-a[n-2]+2);a \\\\ _Charles R Greathouse IV_, Jul 25 2011",
				"(Haskell)",
				"a001110 n = a001110_list !! n",
				"a001110_list = 0 : 1 : (map (+ 2) $",
				"   zipWith (-) (map (* 34) (tail a001110_list)) a001110_list)",
				"-- _Reinhard Zumkeller_, Oct 12 2011",
				"(MIT/GNU Scheme, with memoizing definec-macro from _Antti Karttunen_'s IntSeq-library)",
				"(definec (A001110 n) (if (\u003c n 2) n (+ 2 (- (* 34 (A001110 (- n 1))) (A001110 (- n 2))))))",
				";; The following two are for testing whether n is in this sequence:",
				"(define (inA001110? n) (and (zero? (A068527 n)) (inA001109? (floor-\u003eexact (sqrt n)))))",
				"(define (inA001109? n) (= (* 8 n n) (floor-\u003eexact (* (sqrt 8) n (ceiling-\u003eexact (* (sqrt 8) n))))))",
				";; _Antti Karttunen_, Dec 06 2013",
				"(MAGMA) [n le 2 select n-1 else Floor((6*Sqrt(Self(n-1)) - Sqrt(Self(n-2)))^2): n in [1..20]]; // _Vincenzo Librandi_, Jul 22 2015"
			],
			"xref": [
				"Cf. A001108, A001109.",
				"Other S_r type sequences are S_4=A000290, S_5=A004146, S_7=A054493, S_8=A001108, S_9=A049684, S_20=A049683, S_36=this sequence, S_49=A049682, S_144=A004191^2.",
				"Cf. A001014; intersection of A000217 and A000290; A010052(a(n))*A010054(a(n)) = 1.",
				"Cf. A005214, A054686, A232847 and also A233267 (reveals an interesting divisibility pattern for this sequence).",
				"Cf. A240129 (triangular numbers that are squares of triangular numbers), A100047.",
				"See A229131, A182334, A299921 for near-misses."
			],
			"keyword": "nonn,easy,nice",
			"offset": "0,3",
			"author": "_N. J. A. Sloane_",
			"references": 81,
			"revision": 327,
			"time": "2021-04-22T01:41:03-04:00",
			"created": "1991-04-30T03:00:00-04:00"
		}
	]
}