{
	"greeting": "Greetings from The On-Line Encyclopedia of Integer Sequences! http://oeis.org/",
	"query": "id:A001034",
	"count": 1,
	"start": 0,
	"results": [
		{
			"number": 1034,
			"id": "M5318 N2311",
			"data": "60,168,360,504,660,1092,2448,2520,3420,4080,5616,6048,6072,7800,7920,9828,12180,14880,20160,25308,25920,29120,32736,34440,39732,51888,58800,62400,74412,95040,102660,113460,126000,150348,175560,178920",
			"name": "Orders of non-cyclic simple groups (without repetition).",
			"comment": [
				"This comment is about the three sequences A001034, A060793, A056866: The Feit-Thompson theorem says that a finite group with odd order is solvable, hence all numbers in this sequence are even. - Ahmed Fares (ahmedfares(AT)my-deja.com), May 08 2001 [Corrected by _Isaac Saffold_, Aug 09 2021]",
				"The primitive elements are A257146. These are also the primitive elements of A056866. - _Charles R Greathouse IV_, Jan 19 2017",
				"Conjecture: This is a subsequence of A083207 (Zumkeller numbers). Verified for n \u003c= 156. A fast provisional test was used, based on Proposition 17 from Rao/Peng JNT paper (see A083207). For those few cases where the fast test failed (such as 2588772 and 11332452) the comprehensive (but much slower) test by _T. D. Noe_ at A083207 was used for result confirmation. - _Ivan N. Ianakiev_, Jan 11 2020",
				"From _M. Farrokhi D. G._, Aug 11 2020: (Start)",
				"The conjecture is not true. The smallest and the only counterexample among the first 457 terms of the sequence is a(175) = 138297600.",
				"On the other hand, the orders of sporadic simple groups are Zumkeller. And with the exception of the smallest two orders 7920 and 95040, the odd part of the other orders are also Zumkeller. (End)",
				"Every term in this sequence is divisible by 4*p*q, where p and q are distinct odd primes. - _Isaac Saffold_, Oct 24 2021"
			],
			"reference": [
				"J. H. Conway, R. T. Curtis, S. P. Norton, R. A. Parker and R. A. Wilson, ATLAS of Finite Groups. Oxford Univ. Press, 1985.",
				"Dickson L.E. Linear groups, with an exposition of the Galois field theory (Teubner, 1901), p. 309.",
				"M. Hall, Jr., A search for simple groups of order less than one million, pp. 137-168 of J. Leech, editor, Computational Problems in Abstract Algebra. Pergamon, Oxford, 1970.",
				"N. J. A. Sloane, A Handbook of Integer Sequences, Academic Press, 1973 (includes this sequence).",
				"N. J. A. Sloane and Simon Plouffe, The Encyclopedia of Integer Sequences, Academic Press, 1995 (includes this sequence)."
			],
			"link": [
				"M. Farrokhi D. G., \u003ca href=\"/A001034/b001034.txt\"\u003eTable of n, a(n) for n = 1..10000\u003c/a\u003e",
				"C. Cato, \u003ca href=\"http://dx.doi.org/10.1090/S0025-5718-1977-0430052-X\"\u003eThe orders of the known simple groups as far as one trillion\u003c/a\u003e, Math. Comp., 31 (1977), 574-577.",
				"L. E. Dickson, \u003ca href=\"https://hdl.handle.net/2027/coo.31924062612092\"\u003eLinear Groups with an Exposition of the Galois Field Theory\u003c/a\u003e (page images), Dover, NY, 1958, p. 309.",
				"M. Farrokhi D. G., \u003ca href=\"/A001034/a001034.txt\"\u003eA GAP function generating the smallest non-cyclic finite simple group order greater than a given number m\u003c/a\u003e.",
				"Walter Feit and J. G. Thompson, \u003ca href=\"https://doi.org/10.1073/pnas.48.6.968\"\u003eA solvability criterion for finite groups and some consequences\u003c/a\u003e, Proc. N. A. S. 48 (6) (1962) 968.",
				"M. Hall Jr., \u003ca href=\"https://doi.org/10.1016/0021-8693(72)90090-7\"\u003eSimple groups of order less than one million\u003c/a\u003e, J. Alg. 20 (1) (1972) 98-102",
				"David A. Madore, \u003ca href=\"http://www.madore.org/~david/math/simplegroups.html\"\u003eMore terms\u003c/a\u003e",
				"\u003ca href=\"/index/Gre#groups\"\u003eIndex entries for sequences related to groups\u003c/a\u003e",
				"\u003ca href=\"/index/Cor#core\"\u003eIndex entries for \"core\" sequences\u003c/a\u003e"
			],
			"xref": [
				"Cf. A000001, A000679, A005180, A001228, A060793, A056866, A056868, A119630.",
				"Cf. A109379 (orders with repetition), A119648 (orders that are repeated)."
			],
			"keyword": "nonn,nice,core",
			"offset": "1,1",
			"author": "_N. J. A. Sloane_, _Simon Plouffe_",
			"references": 22,
			"revision": 65,
			"time": "2021-12-15T01:59:09-05:00",
			"created": "1991-04-30T03:00:00-04:00"
		}
	]
}