{
	"greeting": "Greetings from The On-Line Encyclopedia of Integer Sequences! http://oeis.org/",
	"query": "id:A001424",
	"count": 1,
	"start": 0,
	"results": [
		{
			"number": 1424,
			"id": "M4465 N1894",
			"data": "1,1,7,1734,89521056,1241763995193675,7162795001695681351632672,25488450150907292192918677242007992558,77841043345568973636021269757801814299054870565039692",
			"name": "Number of nonisomorphic and nonantiisomorphic groupoids with n elements.",
			"reference": [
				"N. J. A. Sloane, A Handbook of Integer Sequences, Academic Press, 1973 (includes this sequence).",
				"N. J. A. Sloane and Simon Plouffe, The Encyclopedia of Integer Sequences, Academic Press, 1995 (includes this sequence).",
				"T. Tamura, Some contributions of computation to semigroups and groupoids, pp. 229-261 of J. Leech, editor, Computational Problems in Abstract Algebra. Pergamon, Oxford, 1970."
			],
			"link": [
				"Eric Postpischil \u003ca href=\"http://groups.google.com/groups?\u0026amp;hl=en\u0026amp;lr=\u0026amp;ie=UTF-8\u0026amp;selm=11802%40shlump.nac.dec.com\u0026amp;rnum=2\"\u003ePosting to sci.math newsgroup, May 21 1990\u003c/a\u003e",
				"N. J. A. Sloane, \u003ca href=\"/A001329/a001329.jpg\"\u003eOverview of A001329, A001423-A001428, A258719, A258720.\u003c/a\u003e",
				"T. Tamura, \u003ca href=\"/A001329/a001329.pdf\"\u003eSome contributions of computation to semigroups and groupoids\u003c/a\u003e, pp. 229-261 of J. Leech, editor, Computational Problems in Abstract Algebra. Pergamon, Oxford, 1970. (Annotated and scanned copy)",
				"Eric Weisstein's World of Mathematics, \u003ca href=\"http://mathworld.wolfram.com/Groupoid.html\"\u003eGroupoid.\u003c/a\u003e",
				"\u003ca href=\"/index/Gre#groupoids\"\u003eIndex entries for sequences related to groupoids\u003c/a\u003e"
			],
			"formula": [
				"a(n) = (A001329(n) + A029850(n))/2"
			],
			"xref": [
				"Cf. A001329, A029850."
			],
			"keyword": "nonn",
			"offset": "0,3",
			"author": "_N. J. A. Sloane_",
			"ext": [
				"Better description and corrected 4th term from _Christian G. Bower_, Jan 15 1998. More terms, Jun 15 1998."
			],
			"references": 3,
			"revision": 27,
			"time": "2021-12-23T23:02:37-05:00",
			"created": "1991-04-30T03:00:00-04:00"
		}
	]
}