{
	"greeting": "Greetings from The On-Line Encyclopedia of Integer Sequences! http://oeis.org/",
	"query": "id:A001960",
	"count": 1,
	"start": 0,
	"results": [
		{
			"number": 1960,
			"id": "M1735 N0687",
			"data": "2,7,11,15,20,24,28,32,37,41,45,50,54,58,63,67,71,76,80,84,88,93,97,101,106,110,114,119,123,127,131,136,140,144,149,153,157,162,166,170,174,179,183,187,192,196,200,205,209,213,218,222,226,230,235,239,243,248",
			"name": "a(n) = floor((n+2/3)*(5+sqrt(13))/2); v-pile positions in the 3-Wythoff game.",
			"comment": [
				"3-Wythoff game, i=2, the v-pile positions in the Connell terminology. - _R. J. Mathar_, Feb 14 2011"
			],
			"reference": [
				"N. J. A. Sloane, A Handbook of Integer Sequences, Academic Press, 1973 (includes this sequence).",
				"N. J. A. Sloane and Simon Plouffe, The Encyclopedia of Integer Sequences, Academic Press, 1995 (includes this sequence)."
			],
			"link": [
				"T. D. Noe, \u003ca href=\"/A001960/b001960.txt\"\u003eTable of n, a(n) for n = 0..10000\u003c/a\u003e",
				"Ian G. Connell, \u003ca href=\"http://dx.doi.org/10.4153/CMB-1959-024-3\"\u003eA generalization of Wythoff's game\u003c/a\u003e, Canad. Math. Bull. 2 (1959) 181-190."
			],
			"formula": [
				"a(n) = floor((n+2/3)*(5+sqrt(13))/2). - _R. J. Mathar_, Feb 14 2011"
			],
			"mathematica": [
				"Table[Floor[(n + 2/3)*(5 + Sqrt[13])/2], {n, 0, 100}] (* _T. D. Noe_, Aug 17 2012 *)"
			],
			"xref": [
				"Complement of A001957.",
				"Cf. A001954, A001958, A001959, A001963-A001968."
			],
			"keyword": "nonn",
			"offset": "0,1",
			"author": "_N. J. A. Sloane_",
			"ext": [
				"New name from _Hugo Pfoertner_, Dec 27 2021"
			],
			"references": 4,
			"revision": 39,
			"time": "2021-12-27T10:47:41-05:00",
			"created": "1991-04-30T03:00:00-04:00"
		}
	]
}