{
	"greeting": "Greetings from The On-Line Encyclopedia of Integer Sequences! http://oeis.org/",
	"query": "id:A001749",
	"count": 1,
	"start": 0,
	"results": [
		{
			"number": 1749,
			"data": "8,12,20,28,44,52,68,76,92,116,124,148,164,172,188,212,236,244,268,284,292,316,332,356,388,404,412,428,436,452,508,524,548,556,596,604,628,652,668,692,716,724,764,772,788,796,844,892,908,916,932,956,964,1004,1028,1052,1076,1084,1108,1124,1132,1172,1228,1244,1252",
			"name": "Primes multiplied by 4.",
			"comment": [
				"n such that sum(d|n,(-1)^d)=A048272(n)=2. - _Benoit Cloitre_, Apr 14 2002",
				"Solutions of the differential equation n'=n+4, where n' is the arithmetic derivative of n. - _Paolo P. Lava_, Feb 02 2012"
			],
			"link": [
				"Paolo P. Lava, \u003ca href=\"/A001749/b001749.txt\"\u003eTable of n, a(n) for n = 1..20000\u003c/a\u003e"
			],
			"mathematica": [
				"4 * Prime[Range[66]] (* _Vladimir Joseph Stephan Orlovsky_, Apr 29 2008 *)"
			],
			"program": [
				"(Haskell)",
				"a001749 = (* 4) . a000040  -- _Reinhard Zumkeller_, Feb 20 2012",
				"(PARI) a(n)=4*prime(n) \\\\ _Charles R Greathouse IV_, Mar 25 2014",
				"(MAGMA) [4*p: p in PrimesUpTo(300)]; // _Vincenzo Librandi_, Mar 26 2014",
				"(PARI) 4 * primes(66) \\\\ _Joerg Arndt_, Mar 26 2014"
			],
			"keyword": "nonn,easy",
			"offset": "1,1",
			"author": "_N. J. A. Sloane_.",
			"references": 20,
			"revision": 37,
			"time": "2014-03-26T16:50:10-04:00",
			"created": "1996-12-11T03:00:00-05:00"
		}
	]
}