{
	"greeting": "Greetings from The On-Line Encyclopedia of Integer Sequences! http://oeis.org/",
	"query": "id:A001121",
	"count": 1,
	"start": 0,
	"results": [
		{
			"number": 1121,
			"data": "1,1,2,2,37,722",
			"name": "Number of doubly-regular tournaments of order 4n-1.",
			"comment": [
				"Equally, number of skew digraphs in switching classes of Hadamard matrices of order 4n."
			],
			"link": [
				"J. Gebel, \u003ca href=\"/A001014/a001014.txt\"\u003eInteger points on Mordell curves\u003c/a\u003e [Cached copy, after the original web site tnt.math.se.tmu.ac.jp was shut down in 2017]",
				"Edward Spence, \u003ca href=\"http://dx.doi.org/10.1016/0012-365X(93)E0169-5\"\u003eClassification of Hadamard matrices of order 24 and 28\u003c/a\u003e, Discrete Math. 140 (1995), no. 1-3, 185-243."
			],
			"keyword": "nonn,hard,more,nice",
			"offset": "2,3",
			"author": "_N. J. A. Sloane_",
			"ext": [
				"Better name suggested by _Brendan McKay_, Oct 31 2007"
			],
			"references": 0,
			"revision": 15,
			"time": "2017-05-02T21:48:41-04:00",
			"created": "1996-03-15T03:00:00-05:00"
		}
	]
}