{
	"greeting": "Greetings from The On-Line Encyclopedia of Integer Sequences! http://oeis.org/",
	"query": "id:A001554",
	"count": 1,
	"start": 0,
	"results": [
		{
			"number": 1554,
			"id": "M4393 N1850",
			"data": "7,28,140,784,4676,29008,184820,1200304,7907396,52666768,353815700,2393325424,16279522916,111239118928,762963987380,5249352196144,36210966447236,250337422025488,1733857359003860,12027604452404464,83544895168776356,580964060390826448",
			"name": "1^n + 2^n + ... + 7^n.",
			"comment": [
				"Conjectures for o.g.f.s for this type of sequences appear in the PhD thesis by _Simon Plouffe_. See A001552 for the reference. These conjectures are proved in a link given in A196837. [_Wolfdieter Lang_, Oct 15 2011]"
			],
			"reference": [
				"M. Abramowitz and I. A. Stegun, eds., Handbook of Mathematical Functions, National Bureau of Standards Applied Math. Series 55, 1964 (and various reprintings), p. 813.",
				"N. J. A. Sloane, A Handbook of Integer Sequences, Academic Press, 1973 (includes this sequence).",
				"N. J. A. Sloane and Simon Plouffe, The Encyclopedia of Integer Sequences, Academic Press, 1995 (includes this sequence)."
			],
			"link": [
				"T. D. Noe, \u003ca href=\"/A001554/b001554.txt\"\u003eTable of n, a(n) for n = 0..200\u003c/a\u003e",
				"M. Abramowitz and I. A. Stegun, eds., \u003ca href=\"http://www.convertit.com/Go/ConvertIt/Reference/AMS55.ASP\"\u003eHandbook of Mathematical Functions\u003c/a\u003e, National Bureau of Standards, Applied Math. Series 55, Tenth Printing, 1972 [alternative scanned copy].",
				"INRIA Algorithms Project, \u003ca href=\"http://ecs.inria.fr/services/structure?nbr=367\"\u003eEncyclopedia of Combinatorial Structures 367\u003c/a\u003e"
			],
			"formula": [
				"From Wolfdieter Lang, Oct 15 2011: (Start)",
				"E.g.f.: (1-exp(7*x))/(exp(-x)-1) = sum(exp(j*x),j=1..7) (trivial).",
				"O.g.f.: (7-168*x+1610*x^2-7840*x^3+20307*x^4-26264*x^5+13068*x^6) /product((1-j*x),j=1..7). From the e.g.f. via Laplace transformation. See the proof in a link under A196837. (End)"
			],
			"maple": [
				"A001554:=n-\u003eadd(i^n, i=1..7): seq(A001554(n), n=0..30); # _Wesley Ivan Hurt_, Jul 15 2014"
			],
			"mathematica": [
				"Table[Total[Range[7]^n], {n, 0, 20}]"
			],
			"program": [
				"(MAGMA) [1+2^n+3^n+4^n+5^n+6^n+7^n : n in [0..30]]; // _Wesley Ivan Hurt_, Jul 15 2014"
			],
			"xref": [
				"Column 7 of array A103438. A196837."
			],
			"keyword": "nonn,easy",
			"offset": "0,1",
			"author": "_N. J. A. Sloane_.",
			"ext": [
				"More terms from _Jon E. Schoenfield_, Mar 24 2010"
			],
			"references": 5,
			"revision": 37,
			"time": "2018-05-08T15:11:53-04:00",
			"created": "1991-04-30T03:00:00-04:00"
		}
	]
}