{
	"greeting": "Greetings from The On-Line Encyclopedia of Integer Sequences! http://oeis.org/",
	"query": "id:A001335",
	"count": 1,
	"start": 0,
	"results": [
		{
			"number": 1335,
			"id": "M4828 N2065",
			"data": "1,0,0,12,24,60,180,588,1968,6840,24240,87252,318360,1173744,4366740,16370700,61780320,234505140,894692736,3429028116,13195862760,50968206912,197517813636,767766750564,2992650987408,11694675166500,45807740881032",
			"name": "Number of n-step polygons on hexagonal lattice.",
			"comment": [
				"A \"polygon\" is a self-avoiding walk from (0,0) to (0,0).",
				"The hexagonal lattice is the familiar 2-dimensional lattice in which each point has 6 neighbors. This is sometimes called the triangular lattice."
			],
			"reference": [
				"A. J. Guttmann, personal communication.",
				"N. J. A. Sloane, A Handbook of Integer Sequences, Academic Press, 1973 (includes this sequence).",
				"N. J. A. Sloane and Simon Plouffe, The Encyclopedia of Integer Sequences, Academic Press, 1995 (includes this sequence)."
			],
			"link": [
				"M. E. Fisher and M. F. Sykes, \u003ca href=\"http://dx.doi.org/10.1103/PhysRev.114.45\"\u003eExcluded-volume problem and the Ising model of ferromagnetism\u003c/a\u003e, Phys. Rev. 114 (1959), 45-58.",
				"A. J. Guttmann, \u003ca href=\"https://doi.org/10.1088/0305-4470/17/2/030\"\u003eOn Two-Dimensional Self-Avoiding Random Walks\u003c/a\u003e, J. Phys. A 17 (1984), 455-468.",
				"B. D. Hughes, Random Walks and Random Environments, vol. 1, Oxford 1995, \u003ca href=\"/A001334/a001334.pdf\"\u003eTables and references for self-avoiding walks counts\u003c/a\u003e [Annotated scanned copy of several pages of a preprint or a draft of chapter 7 \"The self-avoiding walk\"]",
				"J. L. Martin, M. F. Sykes and F. T. Hioe, \u003ca href=\"http://dx.doi.org/10.1063/1.1841242\"\u003eProbability of initial ring closure for self-avoiding walks on the face-centered cubic and triangular lattices\u003c/a\u003e, J. Chem. Phys., 46 (1967), 3478-3481.",
				"G. Nebe and N. J. A. Sloane, \u003ca href=\"http://www.math.rwth-aachen.de/~Gabriele.Nebe/LATTICES/A2.html\"\u003eHome page for hexagonal (or triangular) lattice A2\u003c/a\u003e",
				"M. F. Sykes et al., \u003ca href=\"https://doi.org/10.1088/0305-4470/5/5/007\"\u003eThe number of self-avoiding walks on a lattice\u003c/a\u003e, J. Phys. A 5 (1972), 661-666."
			],
			"xref": [
				"Equals 6*A003289(n-1), n \u003e 2.",
				"Cf. A001334."
			],
			"keyword": "nonn,nice,walk,more",
			"offset": "0,4",
			"author": "_N. J. A. Sloane_",
			"ext": [
				"a(22)-a(25) computed from A003289 by _Bert Dobbelaere_, Jan 04 2019",
				"a(26) from _Bert Dobbelaere_, Jan 15 2019"
			],
			"references": 10,
			"revision": 46,
			"time": "2020-05-16T03:51:49-04:00",
			"created": "1991-04-30T03:00:00-04:00"
		}
	]
}