{
	"greeting": "Greetings from The On-Line Encyclopedia of Integer Sequences! http://oeis.org/",
	"query": "id:A001255",
	"count": 1,
	"start": 0,
	"results": [
		{
			"number": 1255,
			"data": "1,1,4,9,25,49,121,225,484,900,1764,3136,5929,10201,18225,30976,53361,88209,148225,240100,393129,627264,1004004,1575025,2480625,3833764,5934096,9060100,13823524,20839225,31404816,46812964,69705801,102880449,151536100",
			"name": "Squares of partition numbers.",
			"link": [
				"T. D. Noe, \u003ca href=\"/A001255/b001255.txt\"\u003eTable of n, a(n) for n = 0..1000\u003c/a\u003e"
			],
			"formula": [
				"a(n) = A000041(n)^2.",
				"a(n) ~ exp(2*Pi*sqrt(2*n/3)) / (48*n^2). - _Vaclav Kotesovec_, Dec 01 2015",
				"Sum_{n\u003e=1} 1/a(n) = A200089. - _Amiram Eldar_, May 01 2021"
			],
			"maple": [
				"seq(numbpart(k)^2, k=0..33); # _Zerinvary Lajos_, Jun 06 2007"
			],
			"mathematica": [
				"Table[ PartitionsP[n]^2, {n, 0, 33}] (* _Ray Chandler_, Nov 14 2005 *)"
			],
			"program": [
				"(Haskell)",
				"a001255 = (^ 2) . a000041  -- _Reinhard Zumkeller_, Nov 15 2015",
				"(PARI) a(n) = numbpart(n)^2; \\\\ _Michel Marcus_, May 01 2021"
			],
			"xref": [
				"Cf. A000041, A304990, A200089.",
				"Cf. A133042, A054440."
			],
			"keyword": "nonn",
			"offset": "0,3",
			"author": "_N. J. A. Sloane_.",
			"ext": [
				"Extended by _Ray Chandler_, Nov 14 2005"
			],
			"references": 13,
			"revision": 26,
			"time": "2021-05-01T07:32:35-04:00",
			"created": "1996-03-15T03:00:00-05:00"
		}
	]
}