{
	"greeting": "Greetings from The On-Line Encyclopedia of Integer Sequences! http://oeis.org/",
	"query": "id:A001390",
	"count": 1,
	"start": 0,
	"results": [
		{
			"number": 1390,
			"data": "1,1,4,2,3,4,2,4,2,4,7,3,2,9,2,4,3,4,4,2,6,2,3,5,2,4,2,3,12,9,9,3,2,4,4,5,3,4,2,4,3,4,2,2,4,2,4,9,3,5,7,2,3,3,9,2,4,2,7,5,6,4,7,2,2,4,5,3,3,3,9,2,2,3,4,2,4,3,2,2,3,4,5,6,5,3,2,3,4,2,3,2,2,4,5,2,4,2,4,4,4,4,3,2,5,17",
			"name": "Smallest multiplicative generator for quadratic residues mod prime(n).",
			"link": [
				"Robert Israel, \u003ca href=\"/A001390/b001390.txt\"\u003eTable of n, a(n) for n = 1..10000\u003c/a\u003e"
			],
			"maple": [
				"f:= proc(p) local x;",
				"  for x from 1 do if numtheory:-order(x,p) = (p-1)/2 then return x fi od",
				"end proc:",
				"f(2):= 1:",
				"seq(f(ithprime(n)), n=1..1000); # _Robert Israel_, Jan 14 2016"
			],
			"mathematica": [
				"f[p_] := Module[{x}, For[x = 1, True, x++, If[MultiplicativeOrder[x, p] == (p - 1)/2, Return[x]]]];",
				"f[2] = 1;",
				"f /@ Prime[Range[100]] (* _Jean-François Alcover_, Jul 17 2020, after Maple *)"
			],
			"xref": [
				"Cf. A000040."
			],
			"keyword": "nonn",
			"offset": "1,3",
			"author": "_N. J. A. Sloane_",
			"ext": [
				"More terms from _David W. Wilson_, Aug 15 1996",
				"Offset changed by _Robert Israel_, Jan 14 2016"
			],
			"references": 2,
			"revision": 25,
			"time": "2021-12-23T23:05:16-05:00",
			"created": "1996-12-11T03:00:00-05:00"
		}
	]
}