{
	"greeting": "Greetings from The On-Line Encyclopedia of Integer Sequences! http://oeis.org/",
	"query": "id:A001597",
	"count": 1,
	"start": 0,
	"results": [
		{
			"number": 1597,
			"id": "M3326 N1336",
			"data": "1,4,8,9,16,25,27,32,36,49,64,81,100,121,125,128,144,169,196,216,225,243,256,289,324,343,361,400,441,484,512,529,576,625,676,729,784,841,900,961,1000,1024,1089,1156,1225,1296,1331,1369,1444,1521,1600,1681,1728,1764",
			"name": "Perfect powers: m^k where m \u003e 0 and k \u003e= 2.",
			"comment": [
				"Might also be called the nontrivial powers. - _N. J. A. Sloane_, Mar 24 2018",
				"See A175064 for number of ways to write a(n) as m^k (m \u003e= 1, k \u003e= 1). - _Jaroslav Krizek_, Jan 23 2010",
				"a(1) = 1, for n \u003e= 2: a(n) = numbers m such that sum of perfect divisors of x = m has no solution. Perfect divisor of n is divisor d such that d^k = n for some k \u003e= 1. a(n) for n \u003e= 2 is complement of A175082. - _Jaroslav Krizek_, Jan 24 2010",
				"A075802(a(n)) = 1. - _Reinhard Zumkeller_, Jun 20 2011",
				"Catalan's conjecture (now a theorem) is that 1 occurs just once as a difference, between 8 and 9.",
				"For a proof of Catalan's conjecture, see the paper by Metsänkylä. - _L. Edson Jeffery_, Nov 29 2013",
				"m^k is the largest number n such that (n^k-m)/(n-m) is an integer (for k \u003e 1 and m \u003e 1). - _Derek Orr_, May 22 2014",
				"From _Daniel Forgues_, Jul 22 2014: (Start)",
				"a(n) is asymptotic to n^2, since the density of cubes and higher powers among the squares and higher powers is 0. E.g.,",
				"  a(10^1) = 49 (49% of 10^2),",
				"  a(10^2) = 6400 (64% of 10^4),",
				"  a(10^3) = 804357 (80.4% of 10^6),",
				"  a(10^4) = 90706576 (90.7% of 10^8),",
				"  a(10^n) ~ 10^(2n) - o(10^(2n)). (End)",
				"A proper subset of A001694. - _Robert G. Wilson v_, Aug 11 2014",
				"a(10^n): 1, 49, 6400, 804357, 90706576, 9565035601, 979846576384, 99066667994176, 9956760243243489, ... . - _Robert G. Wilson v_, Aug 15 2014"
			],
			"reference": [
				"R. L. Graham, D. E. Knuth and O. Patashnik, Concrete Mathematics. Addison-Wesley, Reading, MA, 1990, p. 66.",
				"R. Schoof, Catalan's Conjecture, Springer-Verlag, 2008, p. 1.",
				"N. J. A. Sloane, A Handbook of Integer Sequences, Academic Press, 1973 (includes this sequence).",
				"N. J. A. Sloane and Simon Plouffe, The Encyclopedia of Integer Sequences, Academic Press, 1995 (includes this sequence)."
			],
			"link": [
				"David W. Wilson, \u003ca href=\"/A001597/b001597.txt\"\u003eTable of n, a(n) for n = 1..10000\u003c/a\u003e.",
				"Abdelkader Dendane, \u003ca href=\"http://www.analyzemath.com/Calculators_2/power_calculator.html\"\u003ePower (Exponential) Calculator\u003c/a\u003e.",
				"H. W. Gould, \u003ca href=\"http://www.fq.math.ca/Scanned/8-3/advanced8-3.pdf\"\u003eProblem H-170\u003c/a\u003e, Fib. Quart., 8 (1970), p. 268, problem H-170.",
				"W. Hürlimann, \u003ca href=\"http://www.researchgate.net/profile/Werner_Huerlimann/publication/271834077\"\u003eA First Digit Theorem for Powers, Communications in Mathematics and Applications Vol. 5, No. 3, pp. 91-99, 2014.",
				"R. Jakimczuk, \u003ca href=\"https://cs.uwaterloo.ca/journals/JIS/VOL14/Jakimczuk3/jakimczuk21.html\"\u003eOn the Distribution of Perfect Powers\u003c/a\u003e, J. Int. Seq. 14 (2011) # 11.8.5",
				"Rafael Jakimczuk, \u003ca href=\"http://www.emis.de/journals/JIS/VOL15/Jakimczuk/jak29.html\"\u003eAsymptotic Formulae for the n-th Perfect Power\u003c/a\u003e, Journal of Integer Sequences, Vol. 15 (2012), #12.5.5.",
				"Holly Krieger and Brady Haran, \u003ca href=\"https://www.youtube.com/watch?v=Us-__MukH9I\u0026amp;t=0s\"\u003eCatalan's Conjecture\u003c/a\u003e, Numberphile video (2018)",
				"Tauno Metsänkylä, \u003ca href=\"http://dx.doi.org/10.1090/S0273-0979-03-00993-5\"\u003eCatalan's conjecture: another old Diophantine problem solved\u003c/a\u003e, Bull. Amer. Math. Soc. (NS), Vol. 41, No. 1 (2004), pp. 43-57.",
				"Donald J. Newman, \u003ca href=\"http://dx.doi.org/10.1007/978-1-4613-8214-0\"\u003eA Problem Seminar\u003c/a\u003e, Springer; see Problem #72.",
				"M. A. Nyblom, \u003ca href=\"http://www.austms.org.au/Publ/Gazette/2006/Nov06/nyblom.pdf\"\u003eA Counting Function for the Sequence of Perfect Powers\u003c/a\u003e, Austral. Math. Soc. Gaz. 33 (2006), 338-343.",
				"Alf van der Poorten, \u003ca href=\"/A023057/a023057.txt\"\u003eRemarks on the sequence of 'perfect' powers\u003c/a\u003e.",
				"Michel Waldschmidt, \u003ca href=\"http://arXiv.org/abs/math.NT/0312440\"\u003eOpen Diophantine problems\u003c/a\u003e, arXiv:math/0312440 [math.NT], 2003-2004.",
				"Michel Waldschmidt, \u003ca href=\"https://webusers.imj-prg.fr/~michel.waldschmidt/articles/pdf/abcLahoreProceedings.pdf\"\u003eLecture on the abc conjecture and some of its consequences\u003c/a\u003e, Abdus Salam School of Mathematical Sciences (ASSMS), Lahore, 6th World Conference on 21st Century Mathematics 2013.",
				"Eric W. Weisstein, \u003ca href=\"http://mathworld.wolfram.com/PerfectPower.html\"\u003eMathWorld: Perfect Power\u003c/a\u003e"
			],
			"formula": [
				"Goldbach showed that Sum_{n \u003e= 2} 1/(a(n)-1) = 1.",
				"Formulas from postings to the Number Theory List by various authors, 2002:",
				"Sum_{i \u003e= 2} Sum_{j \u003e= 2} 1/i^j = 1;",
				"Sum_{k \u003e= 2} 1/(a(k)+1) = Pi^2 / 3 - 5/2;",
				"Sum_{k \u003e= 2} 1/a(k) = Sum_{n \u003e= 2} mu(n)(1- zeta(n)) approx = 0.87446436840494... See A072102.",
				"For asymptotics see Newman.",
				"For n \u003e 1: gcd(exponents in prime factorization of a(n)) \u003e 1, cf. A124010. - _Reinhard Zumkeller_, Apr 13 2012",
				"a(n) ~ n^2. - _Thomas Ordowski_, Nov 04 2012"
			],
			"maple": [
				"isA001597 := proc(n)",
				"    local e ;",
				"    e := seq(op(2,p),p=ifactors(n)[2]) ;",
				"    return ( igcd(e) \u003e=2 or n =1 ) ;",
				"end proc:",
				"A001597 := proc(n)",
				"    option remember;",
				"    local a;",
				"    if n = 1 then",
				"        1;",
				"    else",
				"        for a from procname(n-1)+1 do",
				"            if isA001597(a) then",
				"                return a ;",
				"            end if;",
				"         end do;",
				"    end if;",
				"end proc:",
				"seq(A001597(n),n=1..70) ; # _R. J. Mathar_, Jun 07 2011"
			],
			"mathematica": [
				"min = 0; max = 10^4;  Union@ Flatten@ Table[ n^expo, {expo, Prime@ Range@ PrimePi@ Log2@ max}, {n, Floor[1 + min^(1/expo)], max^(1/expo)}] (* _T. D. Noe_, Apr 18 2011; slightly modified by _Robert G. Wilson v_, Aug 11 2014 *)",
				"perfectPowerQ[n_] := n == 1 || GCD @@ FactorInteger[n][[All, 2]] \u003e 1; Select[Range@ 1765, perfectPowerQ] (* _Ant King_, Jun 29 2013; slightly modified by _Robert G. Wilson v_, Aug 11 2014 *)",
				"nextPerfectPower[n_] := If[n == 1, 4, Min@ Table[ (Floor[n^(1/k)] + 1)^k, {k, 2, 1 + Floor@ Log2@ n}]]; NestList[ nextPerfectPower, 1, 55] (* _Robert G. Wilson v_, Aug 11 2014 *)",
				"Join[{1},Select[Range[2000],GCD@@FactorInteger[#][[All,2]]\u003e1\u0026]] (* _Harvey P. Dale_, Apr 30 2018 *)"
			],
			"program": [
				"(MAGMA) [1] cat [n : n in [2..1000] | IsPower(n) ];",
				"(PARI) {a(n) = local(m, c); if( n\u003c2, n==1, c=1; m=1; while( c\u003cn, m++; if( ispower(m), c++)); m)} /* _Michael Somos_, Aug 05 2009 */",
				"(PARI) is(n)=ispower(n) || n==1 \\\\ _Charles R Greathouse IV_, Sep 16 2015",
				"(PARI) list(lim)=my(v=List(vector(sqrtint(lim\\=1),n,n^2))); for(e=3,logint(lim,2), for(n=2,sqrtnint(lim,e), listput(v,n^e))); Set(v) \\\\ _Charles R Greathouse IV_, Dec 10 2019",
				"(Sage)",
				"def A001597_list(n) :",
				"    return [k for k in (1..n) if k.is_perfect_power()]",
				"A001597_list(1764) # _Peter Luschny_, Feb 03 2012",
				"(Haskell)",
				"import Data.Map (singleton, findMin, deleteMin, insert)",
				"a001597 n = a001597_list !! (n-1)",
				"(a001597_list, a025478_list, a025479_list) =",
				"   unzip3 $ (1, 1, 2) : f 9 (3, 2) (singleton 4 (2, 2)) where",
				"   f zz (bz, ez) m",
				"    | xx \u003c zz = (xx, bx, ex) :",
				"                f zz (bz, ez+1) (insert (bx*xx) (bx, ex+1) $ deleteMin m)",
				"    | xx \u003e zz = (zz, bz, 2) :",
				"                f (zz+2*bz+1) (bz+1, 2) (insert (bz*zz) (bz, 3) m)",
				"    | otherwise = f (zz+2*bz+1) (bz+1, 2) m",
				"    where (xx, (bx, ex)) = findMin m  --  bx ^ ex == xx",
				"-- _Reinhard Zumkeller_, Mar 28 2014, Oct 04 2012, Apr 13 2012",
				"(Python)",
				"from sympy import perfect_power",
				"def ok(n): return n==1 or perfect_power(n)",
				"print([m for m in range(1, 1765) if ok(m)]) # _Michael S. Branicky_, Jan 04 2021"
			],
			"xref": [
				"Complement of A007916.",
				"Subsequence of A072103; A072777 is a subsequence.",
				"Union of A075109 and A075090.",
				"Cf. A023055, A023057, A025478, A070428, A072102, A074981, A076404, A239728, A239870, A097054, A089579, A089580 (number of exact powers \u003c 10^n).",
				"There are four different sequences which may legitimately be called \"prime powers\": A000961 (p^k, k \u003e= 0), A246655 (p^k, k \u003e= 1), A246547 (p^k, k \u003e= 2), A025475 (p^k, k=0 and k \u003e= 2), and which are sometimes confused with the present sequence.",
				"First differences give A053289."
			],
			"keyword": "nonn,easy,nice",
			"offset": "1,2",
			"author": "_N. J. A. Sloane_",
			"ext": [
				"Minor corrections from _N. J. A. Sloane_, Jun 27 2010"
			],
			"references": 490,
			"revision": 189,
			"time": "2021-01-05T03:30:39-05:00",
			"created": "1991-04-30T03:00:00-04:00"
		}
	]
}