{
	"greeting": "Greetings from The On-Line Encyclopedia of Integer Sequences! http://oeis.org/",
	"query": "id:A001666",
	"count": 1,
	"start": 0,
	"results": [
		{
			"number": 1666,
			"id": "M4545 N1929",
			"data": "1,8,56,392,2648,17960,120056,804824,5351720,35652680,236291096,1568049560,10368669992,68626647608,453032542040,2992783648424,19731335857592,130161040083608,857282278813256",
			"name": "Number of n-step self-avoiding walks on b.c.c. lattice.",
			"reference": [
				"N. J. A. Sloane, A Handbook of Integer Sequences, Academic Press, 1973 (includes this sequence).",
				"N. J. A. Sloane and Simon Plouffe, The Encyclopedia of Integer Sequences, Academic Press, 1995 (includes this sequence)."
			],
			"link": [
				"M. E. Fisher and M. F. Sykes, \u003ca href=\"http://dx.doi.org/10.1103/PhysRev.114.45\"\u003eExcluded-volume problem and the Ising model of ferromagnetism\u003c/a\u003e, Phys. Rev. 114 (1959), 45-58.",
				"A. J. Guttmann, \u003ca href=\"http://dx.doi.org/10.1088/0305-4470/22/14/027\"\u003eOn the critical behavior of self-avoiding walks II\u003c/a\u003e, J. Phys. A 22 (1989), 2807-2813. See Table 1.",
				"M. F. Sykes, \u003ca href=\"http://dx.doi.org/10.1063/1.1724212\"\u003eSome counting theorems in the theory of the Ising problem and the excluded volume problem\u003c/a\u003e, J. Math. Phys., 2 (1961), 52-62.",
				"M. F. Sykes et al., \u003ca href=\"http://dx.doi.org/10.1088/0305-4470/5/5/007\"\u003eThe asymptotic behavior of selfavoiding walks and returns on a lattice\u003c/a\u003e, J. Phys. A 5 (1972), 653-660.",
				"\u003ca href=\"/index/Ba#bcc\"\u003eIndex entries for sequences related to b.c.c. lattice\u003c/a\u003e"
			],
			"xref": [
				"Cf. A002903."
			],
			"keyword": "nonn,walk,nice",
			"offset": "0,2",
			"author": "_N. J. A. Sloane_",
			"ext": [
				"a(16)-a(18) from _Bert Dobbelaere_, Jan 16 2019"
			],
			"references": 6,
			"revision": 24,
			"time": "2019-01-17T04:04:58-05:00",
			"created": "1991-04-30T03:00:00-04:00"
		}
	]
}