{
	"greeting": "Greetings from The On-Line Encyclopedia of Integer Sequences! http://oeis.org/",
	"query": "id:A001030",
	"count": 1,
	"start": 0,
	"results": [
		{
			"number": 1030,
			"id": "M0068 N0021",
			"data": "2,1,1,2,1,2,1,2,1,1,2,1,2,1,1,2,1,2,1,1,2,1,2,1,2,1,1,2,1,2,1,1,2,1,2,1,2,1,1,2,1,2,1,1,2,1,2,1,2,1,1,2,1,2,1,1,2,1,2,1,1,2,1,2,1,2,1,1,2,1,2,1,1,2,1,2,1,2,1,1,2,1,2,1,1,2,1,2,1,1,2,1,2,1,2,1,1,2,1,2,1,1,2,1,2",
			"name": "Fixed under 1 -\u003e 21, 2 -\u003e 211.",
			"comment": [
				"If treated as the terms of a continued fraction, it converges to approximately",
				"2.57737020881617828717350576260723346479894963737498275232531856357441\\",
				"7024804797827856956758619431996. - Peter Bertok (peter(AT)bertok.com), Nov 27 2001",
				"There are a(n) 1's between successive 2's. - _Eric Angelini_, Aug 19 2008",
				"Same sequence where 1's and 2's are exchanged: A001468. - _Eric Angelini_, Aug 19 2008"
			],
			"reference": [
				"Midhat J. Gazale, Number: From Ahmes to Cantor, Section on 'Cleavages' in Chapter 6, Princeton University Press, Princeton, NJ 2000, pp. 203-211.",
				"N. J. A. Sloane, A Handbook of Integer Sequences, Academic Press, 1973 (includes this sequence).",
				"N. J. A. Sloane and Simon Plouffe, The Encyclopedia of Integer Sequences, Academic Press, 1995 (includes this sequence)."
			],
			"link": [
				"T. D. Noe, \u003ca href=\"/A001030/b001030.txt\"\u003eTable of n, a(n) for n=1..8119\u003c/a\u003e",
				"N. G. de Bruijn, \u003ca href=\"http://alexandria.tue.nl/repository/freearticles/597565.pdf\"\u003eSequences of zeros and ones generated by special production rules\u003c/a\u003e, Indag. Math., 43 (1981), 27-37.",
				"D. R. Hofstadter, \u003ca href=\"/A006336/a006336_1.pdf\"\u003eEta-Lore\u003c/a\u003e [Cached copy, with permission]",
				"D. R. Hofstadter, \u003ca href=\"/A006336/a006336_2.pdf\"\u003ePi-Mu Sequences\u003c/a\u003e [Cached copy, with permission]",
				"D. R. Hofstadter and N. J. A. Sloane, \u003ca href=\"/A006336/a006336.pdf\"\u003eCorrespondence, 1977 and 1991\u003c/a\u003e",
				"A. Nagel, \u003ca href=\"http://www.jstor.org/stable/2687909\"\u003eA self-defining infinite sequence, with an application to Markoff chains and probability\u003c/a\u003e, Math. Mag., 36 (1963), 179-183.",
				"N. J. A. Sloane, \u003ca href=\"/A001149/a001149.pdf\"\u003eHandwritten notes on Self-Generating Sequences, 1970\u003c/a\u003e (note that A1148 has now become A005282)",
				"N. J. A. Sloane, \u003ca href=\"/A115004/a115004.txt\"\u003eFamilies of Essentially Identical Sequences\u003c/a\u003e, Mar 24 2021 (Includes this sequence)"
			],
			"formula": [
				"a(n) = -1 + floor(n*(1+sqrt(2))+1/sqrt(2))-floor((n-1)*(1+sqrt(2))+1/sqrt(2)). - _Benoit Cloitre_, Jun 26 2004. [I don't know if this is a theorem or a conjecture. - _N. J. A. Sloane_, May 14 2008]",
				"This is a theorem, following from Hofstadter's Generalized Fundamental Theorem of eta-sequences on page 10 of Eta-Lore. See also de Bruijn's paper from 1981 (hint from Benoit Cloitre). - _Michel Dekking_, Jan 22 2017"
			],
			"mathematica": [
				"('n' is the number of substitution steps to perform.) Nest[Flatten[ # /. {1 -\u003e {2, 1}, 2 -\u003e {2, 1, 1}}] \u0026, {1}, n]"
			],
			"program": [
				"A001030 := proc(n) begin [ 2 ]; while nops(%)\u003cn do subs(%,[ 1=(2,1),2=(2,1,1) ]) end_while; %[ n ] end_proc:",
				"(PARI) /* Fast string concatenation method giving e.g. 5740 terms in 8 iterations */",
				"a=\"2\";b=\"2,1,1,2\";print1(b);for(x=1,8,c=concat([\",1,\",a,\",1,\",b]);print1(c);a=b;b=concat(b,c)) \\\\ _K. Spage_, Oct 08 2009",
				"(Haskell) Following Spage's PARI program.",
				"a001030 n = a001030_list !! (n-1)",
				"a001030_list = [2, 1, 1, 2] ++ f [2] [2, 1, 1, 2] where",
				"   f us vs = ws ++ f vs (vs ++ ws) where",
				"             ws = 1 : us ++ 1 : vs",
				"-- _Reinhard Zumkeller_, Aug 04 2014"
			],
			"xref": [
				"Length of the sequence after 'n' substitution steps is given by the terms of A000129.",
				"Equals A004641(n) + 1.",
				"The following sequences are all essentially the same, in the sense that they are simple transformations of each other, with A000201 as the parent: A000201, A001030, A001468, A001950, A003622, A003842, A003849, A004641, A005614, A014675, A022342, A088462, A096270, A114986, A124841. - _N. J. A. Sloane_, Mar 11 2021"
			],
			"keyword": "nonn,nice,easy",
			"offset": "1,1",
			"author": "_N. J. A. Sloane_",
			"ext": [
				"More terms from Peter Bertok (peter(AT)bertok.com), Nov 27 2001"
			],
			"references": 22,
			"revision": 74,
			"time": "2021-03-24T15:35:58-04:00",
			"created": "1991-04-30T03:00:00-04:00"
		}
	]
}