{
	"greeting": "Greetings from The On-Line Encyclopedia of Integer Sequences! http://oeis.org/",
	"query": "id:A002591",
	"count": 1,
	"start": 0,
	"results": [
		{
			"number": 2591,
			"id": "M4886 N2095",
			"data": "2,13,11,1093,757,3851,797161,4561,34511,363889,368089,1001523179,391151,8209,20381027,4404047,2413941289,2664097031,17189128703,797161,86950696619,380808546861411923,927001,96656723,131713,99810171997",
			"name": "Largest prime factor of 3^(2n+1) - 1.",
			"reference": [
				"J. Brillhart et al., Factorizations of b^n +- 1. Contemporary Mathematics, Vol. 22, Amer. Math. Soc., Providence, RI, 2nd edition, 1985; and later supplements.",
				"M. Kraitchik, Recherches sur la Théorie des Nombres. Gauthiers-Villars, Paris, Vol. 1, 1924, Vol. 2, 1929, see Vol. 2, p. 28.",
				"N. J. A. Sloane, A Handbook of Integer Sequences, Academic Press, 1973 (includes this sequence).",
				"N. J. A. Sloane and Simon Plouffe, The Encyclopedia of Integer Sequences, Academic Press, 1995 (includes this sequence)."
			],
			"link": [
				"\u003ca href=\"/A002591/b002591.txt\"\u003eTable of n, a(n) for n = 0..337\u003c/a\u003e",
				"J. Brillhart et al., \u003ca href=\"http://dx.doi.org/10.1090/conm/022\"\u003eFactorizations of b^n +- 1\u003c/a\u003e, Contemporary Mathematics, Vol. 22, Amer. Math. Soc., Providence, RI, 3rd edition, 2002.",
				"S. S. Wagstaff, Jr., \u003ca href=\"http://www.cerias.purdue.edu/homes/ssw/cun/index.html\"\u003eThe Cunningham Project\u003c/a\u003e"
			],
			"keyword": "nonn",
			"offset": "0,1",
			"author": "_N. J. A. Sloane_",
			"ext": [
				"Corrected and extended by _Jud McCranie_, Jan 03 2001",
				"Terms up to a(307) in b-file from _Sean A. Irvine_, Apr 20 2014",
				"a(0) prepended and a(308)-a(337) added to b-file by _Max Alekseyev_, Apr 24 2019, Sep 10 2020, Aug 26 2021"
			],
			"references": 1,
			"revision": 39,
			"time": "2021-08-26T19:38:24-04:00",
			"created": "1991-04-30T03:00:00-04:00"
		}
	]
}