{
	"greeting": "Greetings from The On-Line Encyclopedia of Integer Sequences! http://oeis.org/",
	"query": "id:A002576",
	"count": 1,
	"start": 0,
	"results": [
		{
			"number": 2576,
			"id": "M2091 N0826",
			"data": "2,16,130,1424,23682,637328,28867714,2260015504,311718542466,76844461332880,34239915581996162,27825107366882974096,41547917209230771715202,114704977949192346233608592,588650824552337332645472468098",
			"name": "Coefficients of Bell's formula for making change.",
			"reference": [
				"G. Blom and C.-E. Froeberg, Om myntvaexling (On money-changing) [ Swedish ], Nordisk Matematisk Tidskrift, 10 (1962), 55-69, 103.",
				"N. J. A. Sloane, A Handbook of Integer Sequences, Academic Press, 1973 (includes this sequence).",
				"N. J. A. Sloane and Simon Plouffe, The Encyclopedia of Integer Sequences, Academic Press, 1995 (includes this sequence)."
			],
			"link": [
				"G. Blom and C.-E. Froeberg, \u003ca href=\"/A002575/a002575.pdf\"\u003eOm myntvaexling (On money-changing) [Swedish]\u003c/a\u003e, Nordisk Matematisk Tidskrift, 10 (1962), 55-69, 103. [Annotated scanned copy]"
			],
			"xref": [
				"Cf. A002575, A002577.",
				"A diagonal of A262554."
			],
			"keyword": "nonn",
			"offset": "3,1",
			"author": "_N. J. A. Sloane_.",
			"ext": [
				"More terms from _Sean A. Irvine_, Oct 19 2015"
			],
			"references": 3,
			"revision": 17,
			"time": "2015-10-19T01:37:30-04:00",
			"created": "1991-04-30T03:00:00-04:00"
		}
	]
}