{
	"greeting": "Greetings from The On-Line Encyclopedia of Integer Sequences! http://oeis.org/",
	"query": "id:A002916",
	"count": 1,
	"start": 0,
	"results": [
		{
			"number": 2916,
			"id": "M3133 N1271",
			"data": "3,33,564,8976,155124,2791308,51382068,962178084,18258531348,350143322088,6772382631732,131922552534036,2585198190891636",
			"name": "High temperature series for spin-1/2 Ising specific heat on 3-dimensional simple cubic lattice.",
			"reference": [
				"S. R. Finch, Mathematical Constants, Cambridge, 2003, pp. 391-406.",
				"N. J. A. Sloane, A Handbook of Integer Sequences, Academic Press, 1973 (includes this sequence).",
				"N. J. A. Sloane and Simon Plouffe, The Encyclopedia of Integer Sequences, Academic Press, 1995 (includes this sequence)."
			],
			"link": [
				"G. A. Baker, \u003ca href=\"https://doi.org/10.1103/PhysRev.129.99\"\u003eFurther application of the Padé approximant method to the Ising and Heisenberg models\u003c/a\u003e, Phys. Rev. 129 (1963) 99-102.",
				"Steven R. Finch, \u003ca href=\"http://www.people.fas.harvard.edu/~sfinch/constant/ising/ising.html\"\u003eLenz-Ising Constants\u003c/a\u003e [broken link]",
				"Steven R. Finch, \u003ca href=\"http://web.archive.org/web/20010207201511/http://www.mathsoft.com:80/asolve/constant/ising/ising.html\"\u003eLenz-Ising Constants\u003c/a\u003e [From the Wayback Machine]",
				"A. J. Guttmann and I. G. Enting, \u003ca href=\"https://doi.org/10.1088/0305-4470/27/24/012\"\u003eThe high-temperature specific heat exponent of the 3-dimensional Ising model\u003c/a\u003e, J. Phys. A 27 (1994) 8007-8010.",
				"\u003ca href=\"/index/Sp#specific_heat\"\u003eIndex entries for sequences related to specific heat\u003c/a\u003e"
			],
			"mathematica": [
				"3 Cases[Import[\"https://oeis.org/A001408/b001408.txt\", \"Table\"], {_, _}][[All, 2]] (* _Jean-François Alcover_, Jan 17 2020 *)"
			],
			"xref": [
				"Equals 3*A001408."
			],
			"keyword": "nonn",
			"offset": "0,1",
			"author": "_N. J. A. Sloane_",
			"ext": [
				"Corrections and updates from _Steven Finch_"
			],
			"references": 1,
			"revision": 31,
			"time": "2021-12-26T20:37:28-05:00",
			"created": "1991-04-30T03:00:00-04:00"
		}
	]
}