{
	"greeting": "Greetings from The On-Line Encyclopedia of Integer Sequences! http://oeis.org/",
	"query": "id:A003725",
	"count": 1,
	"start": 0,
	"results": [
		{
			"number": 3725,
			"id": "M1911",
			"data": "1,1,-1,-2,9,-4,-95,414,49,-10088,55521,-13870,-2024759,15787188,-28612415,-616876274,7476967905,-32522642896,-209513308607,4924388011050,-38993940088199,11731860520780,3807154270837281",
			"name": "E.g.f.: exp( x * exp(-x) ).",
			"reference": [
				"N. J. A. Sloane and Simon Plouffe, The Encyclopedia of Integer Sequences, Academic Press, 1995 (includes this sequence)."
			],
			"link": [
				"Seiichi Manyama, \u003ca href=\"/A003725/b003725.txt\"\u003eTable of n, a(n) for n = 0..557\u003c/a\u003e"
			],
			"formula": [
				"a(n) = Sum_{k=0..n} (-k)^(n-k)*binomial(n, k). - _Vladeta Jovovic_, Mar 15 2003",
				"First column of A215652. - _Peter Bala_, Sep 14 2012",
				"G.f.: Sum_{k\u003e=0} x^k/(1 + k*x)^(k+1). - _Ilya Gutkovskiy_, Jun 25 2018"
			],
			"mathematica": [
				"With[{nn=30},CoefficientList[Series[Exp[x Exp[-x]],{x,0,nn}],x]Range[0,nn]!] (* _Harvey P. Dale_, Oct 20 2011 *)"
			],
			"program": [
				"(PARI) Vec(serlaplace(exp(exp(-x) * x))) \\\\ _Charles R Greathouse IV_, Sep 26 2017"
			],
			"xref": [
				"Cf. A000248, A069856, A072034. A215652.",
				"Cf. this sequence (k=1), A292909 (k=2), A292910 (k=3), A292912 (k=4)."
			],
			"keyword": "sign,easy",
			"offset": "0,4",
			"author": "_R. H. Hardin_",
			"references": 17,
			"revision": 38,
			"time": "2018-06-25T15:30:38-04:00",
			"created": "1994-05-16T03:00:00-04:00"
		}
	]
}