{
	"greeting": "Greetings from The On-Line Encyclopedia of Integer Sequences! http://oeis.org/",
	"query": "id:A003515",
	"count": 1,
	"start": 0,
	"results": [
		{
			"number": 3515,
			"id": "M4009",
			"data": "0,1,1,0,5,51,3634,374119,73161880,26545249985,17904840957826,22602069719494379,53938857227326533032,246107945479472758874483,2170331943503938546383205218,37340982087637629911717846092591,1262915556964772342158139988356979872",
			"name": "Number of series-reduced connected labeled graphs with n nodes.",
			"comment": [
				"Jackson and Reilly paper has typographical error in value for a(12). - _Sean A. Irvine_, Jun 17 2015"
			],
			"reference": [
				"N. J. A. Sloane and Simon Plouffe, The Encyclopedia of Integer Sequences, Academic Press, 1995 (includes this sequence)."
			],
			"link": [
				"Andrew Howroyd, \u003ca href=\"/A003515/b003515.txt\"\u003eTable of n, a(n) for n = 0..50\u003c/a\u003e (terms 0..34 from Sean A. Irvine)",
				"D. M. Jackson and J. W. Reilly, \u003ca href=\"https://doi.org/10.1016/0095-8956(75)90090-8\"\u003eThe enumeration of homeomorphically irreducible labeled graphs\u003c/a\u003e, J. Combin. Theory, B 19 (1975), 272-286."
			],
			"formula": [
				"E.g.f.: log(B(x)) where B(x) is the e.g.f. for A003514. - _Sean A. Irvine_, Jun 17 2015"
			],
			"program": [
				"(PARI) \\\\ See Jackson \u0026 Reilly for e.g.f.",
				"seq(n)={my(A=O(x*x^n)); Vec(serlaplace(log((exp(x/2 - x^2/4 + A)/sqrt(1 + x + A))*sum(k=0, n, (2*exp(-x/(1+x) + A))^binomial(k,2) * (x*exp((x^2 + A)/(2*(1 + x))))^k / k!))), -(n+1))} \\\\ _Andrew Howroyd_, Jan 24 2020"
			],
			"xref": [
				"Row sums of A331438.",
				"Column sums of A331437.",
				"Cf. A003514, A331584."
			],
			"keyword": "nonn",
			"offset": "0,5",
			"author": "_N. J. A. Sloane_",
			"ext": [
				"More terms and a(12) corrected by _Sean A. Irvine_, Jun 17 2015"
			],
			"references": 6,
			"revision": 23,
			"time": "2020-01-24T19:17:07-05:00",
			"created": "1991-07-11T03:00:00-04:00"
		}
	]
}