{
	"greeting": "Greetings from The On-Line Encyclopedia of Integer Sequences! http://oeis.org/",
	"query": "id:A003304",
	"count": 1,
	"start": 0,
	"results": [
		{
			"number": 3304,
			"id": "M1850",
			"data": "2,8,32,144,708,3696,20296,115624,676828,4044744,24565432",
			"name": "Number of figure 8's with 2n edges on the square lattice.",
			"reference": [
				"N. J. A. Sloane and Simon Plouffe, The Encyclopedia of Integer Sequences, Academic Press, 1995 (includes this sequence).",
				"S. G. Whittington and J. P. Valleau, Figure eights on the square lattice: enumeration and Monte Carlo estimation, J. Phys. A 3 (1970), 21-27."
			],
			"link": [
				"Sean A. Irvine, \u003ca href=\"/A003304/a003304.pdf\"\u003eIllustration of initial terms\u003c/a\u003e"
			],
			"keyword": "nonn",
			"offset": "2,1",
			"author": "_N. J. A. Sloane_.",
			"ext": [
				"a(9)-a(12) from _Sean A. Irvine_, Mar 20 2017"
			],
			"references": 3,
			"revision": 14,
			"time": "2017-03-20T23:23:52-04:00",
			"created": "1991-04-30T03:00:00-04:00"
		}
	]
}