{
	"greeting": "Greetings from The On-Line Encyclopedia of Integer Sequences! http://oeis.org/",
	"query": "id:A003884",
	"count": 1,
	"start": 0,
	"results": [
		{
			"number": 3884,
			"data": "1,15,15,15,15,15,15,15,15,16,17,17,17,17,17,17,17",
			"name": "Degrees of irreducible representations of group L2(16).",
			"reference": [
				"J. H. Conway, R. T. Curtis, S. P. Norton, R. A. Parker and R. A. Wilson, ATLAS of Finite Groups. Oxford Univ. Press, 1985."
			],
			"program": [
				"(GAP) List(Irr(CharacterTable(\"L2(16)\")), chi-\u003echi[1]); # _Eric M. Schmidt_, Jul 18 2012"
			],
			"keyword": "nonn,fini,full",
			"offset": "1,2",
			"author": "_N. J. A. Sloane_.",
			"references": 1,
			"revision": 7,
			"time": "2012-07-18T18:55:58-04:00",
			"created": "1996-03-15T03:00:00-05:00"
		}
	]
}