{
	"greeting": "Greetings from The On-Line Encyclopedia of Integer Sequences! http://oeis.org/",
	"query": "id:A003409",
	"count": 1,
	"start": 0,
	"results": [
		{
			"number": 3409,
			"id": "M2814",
			"data": "3,9,30,105,378,1386,5148,19305,72930,277134,1058148,4056234,15600900,60174900,232676280,901620585,3500409330,13612702950,53017895700,206769793230,807386811660,3156148445580,12350146091400,48371405524650,189615909656628,743877799422156",
			"name": "a(n) = 3*binomial(2n-1,n).",
			"reference": [
				"N. J. A. Sloane and Simon Plouffe, The Encyclopedia of Integer Sequences, Academic Press, 1995 (includes this sequence)."
			],
			"link": [
				"T. D. Noe, \u003ca href=\"/A003409/b003409.txt\"\u003eTable of n, a(n) for n = 1..200\u003c/a\u003e",
				"C. Domb and A. J. Barrett, \u003ca href=\"http://dx.doi.org/10.1016/0012-365X(74)90081-8\"\u003eEnumeration of ladder graphs\u003c/a\u003e, Discrete Math. 9 (1974), 341-358.",
				"C. Domb \u0026 A. J. Barrett, \u003ca href=\"/A003408/a003408.pdf\"\u003eEnumeration of ladder graphs\u003c/a\u003e, Discrete Math. 9 (1974), 341-358. (Annotated scanned copy)",
				"C. Domb \u0026 A. J. Barrett, \u003ca href=\"/A001764/a001764.pdf\"\u003eNotes on Table 2 in \"Enumeration of ladder graphs\"\u003c/a\u003e, Discrete Math. 9 (1974), 55. (Annotated scanned copy)"
			],
			"formula": [
				"a(n) = (3/2)*4^n*Gamma(1/2+n)/(sqrt(Pi)*Gamma(1+n)). - _Peter Luschny_, Dec 14 2015",
				"From _Stefano Spezia_, Jul 05 2021: (Start)",
				"O.g.f.: 6*x/((1 - sqrt(1 - 4*x))*sqrt(1 - 4*x)) - 3.",
				"E.g.f.: 3*(exp(2*x)*I_0(2*x) - 1)/2, where I_n(x) is the modified Bessel function of the first kind.",
				"a(n) ~ 3*4^n/(2*sqrt(n*Pi)). (End)"
			],
			"maple": [
				"a := n -\u003e (3/2)*4^n*GAMMA(1/2+n)/(sqrt(Pi)*GAMMA(1+n)):",
				"seq(a(n), n=1..26); # _Peter Luschny_, Dec 14 2015"
			],
			"mathematica": [
				"Table[3*Binomial[2*n - 1, n], {n, 20}] (* _T. D. Noe_, Oct 07 2013 *)"
			],
			"xref": [
				"Equals 3 * A001700."
			],
			"keyword": "nonn",
			"offset": "1,1",
			"author": "_N. J. A. Sloane_",
			"ext": [
				"More terms from _Jon E. Schoenfield_, Mar 26 2010"
			],
			"references": 7,
			"revision": 32,
			"time": "2021-07-05T02:29:16-04:00",
			"created": "1991-04-30T03:00:00-04:00"
		}
	]
}