{
	"greeting": "Greetings from The On-Line Encyclopedia of Integer Sequences! http://oeis.org/",
	"query": "id:A003306",
	"count": 1,
	"start": 0,
	"results": [
		{
			"number": 3306,
			"id": "M0951",
			"data": "0,1,2,4,5,6,9,16,17,30,54,57,60,65,132,180,320,696,782,822,897,1252,1454,4217,5480,6225,7842,12096,13782,17720,43956,64822,82780,105106,152529,165896,191814,529680,1074726,1086112,1175232,1277862,1346542,3123036,3648969,5570081",
			"name": "Numbers k such that 2*3^k + 1 is prime.",
			"reference": [
				"N. J. A. Sloane and Simon Plouffe, The Encyclopedia of Integer Sequences, Academic Press, 1995 (includes this sequence)."
			],
			"link": [
				"C. K. Caldwell, \u003ca href=\"http://www.utm.edu/research/primes/\"\u003eThe Prime Pages\u003c/a\u003e",
				"Hartosh Singh Bal and Gaurav Bhatnagar, \u003ca href=\"https://arxiv.org/abs/1903.09619\"\u003ePrime number conjectures from the Shapiro class structure\u003c/a\u003e, arXiv:1903.09619 [math.NT], 2019. See also Integers (2020) Vol. 20, \u003ca href=\"http://math.colgate.edu/~integers/u11/u11.pdf\"\u003eArticle A11.\u003c/a\u003e",
				"W. Keller and J. Richstein, \u003ca href=\"https://doi.org/10.1090/S0025-5718-04-01666-7\"\u003eSolutions of the congruence a^(p-1) == 1 (mod p^r)\u003c/a\u003e, Math. Comp. 74 (2005), 927-936.",
				"H. C. Williams and C. R. Zarnke, \u003ca href=\"https://doi.org/10.1090/S0025-5718-1972-0314747-X\"\u003eSome prime numbers of the forms 2A3^n+1 and 2A3^n-1\u003c/a\u003e, Math. Comp., 26 (1972), 995-998."
			],
			"mathematica": [
				"lst={};Do[If[PrimeQ[2*3^n+1], AppendTo[lst, n]], {n, 0, 10^4}];lst (* _Vladimir Joseph Stephan Orlovsky_, Aug 19 2008 *)"
			],
			"program": [
				"(PARI) is(n)=isprime(2*3^n+1) \\\\ _Charles R Greathouse IV_, Feb 17 2017"
			],
			"xref": [
				"Cf. A056802 (k such that 2*9^k + 1 is prime).",
				"Cf. A111974 (primes of the form 2*3^k + 1), A003307 (k such that 2*3^k - 1 is prime)."
			],
			"keyword": "nonn",
			"offset": "1,3",
			"author": "_N. J. A. Sloane_, _Chris K. Caldwell_",
			"ext": [
				"More terms from _T. D. Noe_, Aug 24 2005",
				"More terms from _David Broadhurst_, Feb 14 2010",
				"Another term from _David Broadhurst_, Feb 22 2010",
				"a(42)-a(45) found by _Ryan Propper_ and added by _Paul S. Vanderveen_, Feb 09 2020",
				"a(46) found by _Ryan Propper_, Feb 14 2020"
			],
			"references": 20,
			"revision": 56,
			"time": "2021-12-24T08:17:48-05:00",
			"created": "1991-04-30T03:00:00-04:00"
		}
	]
}