{
	"greeting": "Greetings from The On-Line Encyclopedia of Integer Sequences! http://oeis.org/",
	"query": "id:A003186",
	"count": 1,
	"start": 0,
	"results": [
		{
			"number": 3186,
			"id": "M2468",
			"data": "3,5,10,30,198",
			"name": "Number of positive pseudo-threshold functions.",
			"reference": [
				"S. Muroga, Threshold Logic and Its Applications. Wiley, NY, 1971, p. 214.",
				"N. J. A. Sloane and Simon Plouffe, The Encyclopedia of Integer Sequences, Academic Press, 1995 (includes this sequence)."
			],
			"link": [
				"S. Muroga, \u003ca href=\"/A000371/a000371.pdf\"\u003eThreshold Logic and Its Applications\u003c/a\u003e, Wiley, NY, 1971 [Annotated scans of a few pages]"
			],
			"keyword": "nonn,more",
			"offset": "1,1",
			"author": "_N. J. A. Sloane_.",
			"references": 0,
			"revision": 15,
			"time": "2015-07-28T11:57:31-04:00",
			"created": "1991-04-30T03:00:00-04:00"
		}
	]
}