{
	"greeting": "Greetings from The On-Line Encyclopedia of Integer Sequences! http://oeis.org/",
	"query": "id:A003933",
	"count": 1,
	"start": 0,
	"results": [
		{
			"number": 3933,
			"data": "47377612800,131569513308979200,4408780839651901440000,13946558535000000000000000,2596509480922336727312302080000,319368723699461283992462111539200,22246837484597339860644476682240000",
			"name": "Order of universal Chevalley group B_4(q), q = prime power.",
			"reference": [
				"J. H. Conway, R. T. Curtis, S. P. Norton, R. A. Parker and R. A. Wilson, ATLAS of Finite Groups. Oxford Univ. Press, 1985, p. xvi.",
				"H. S. M. Coxeter and W. O. J. Moser, Generators and Relations for Discrete Groups, 4th ed., Springer-Verlag, NY, reprinted 1984, p. 131."
			],
			"formula": [
				"a(n) = B(A000961(n + 1), 4) where B(q,n) is defined in A003920. - _Sean A. Irvine_, Sep 22 2015"
			],
			"keyword": "nonn,easy",
			"offset": "1,1",
			"author": "_N. J. A. Sloane_.",
			"ext": [
				"a(7) from _Sean A. Irvine_, Sep 22 2015"
			],
			"references": 0,
			"revision": 11,
			"time": "2015-09-22T16:00:40-04:00",
			"created": "1996-03-15T03:00:00-05:00"
		}
	]
}