{
	"greeting": "Greetings from The On-Line Encyclopedia of Integer Sequences! http://oeis.org/",
	"query": "id:A003003",
	"count": 1,
	"start": 0,
	"results": [
		{
			"number": 3003,
			"id": "M0439",
			"data": "1,2,3,3,4,5,5,6,7,8,8,8,9,9,10,10,11,11,12,12,13,13,14,14,15,15,16,17,17,18,18,18,19,20,20,20,21,21,21,22,22,22,23,23,24,24,24,25,25,26,26,26,27,28,28,28,28,29,29,30,30,30,30,31,31,32,32,33,33,34,34,34",
			"name": "Size of the largest subset of the numbers [1...n] which doesn't contain a 4-term arithmetic progression.",
			"comment": [
				"These subsets have been called 4-free sequences.",
				"Szemeredi's theorem for arithmetic progressions of length 4 asserts that a(n) is o(n) as n -\u003e infinity. - _Doron Zeilberger_, Mar 26 2008",
				"False g.f. (z^12 + 1 - z^11 - z^10 + z^8 - z^6 + z^5 - z^3 + z)/((z+1)*(z-1)^2) was conjectured by _Simon Plouffe_ in his 1992 dissertation, but in fact is wrong (cf. A136746)."
			],
			"reference": [
				"N. J. A. Sloane and Simon Plouffe, The Encyclopedia of Integer Sequences, Academic Press, 1995 (includes this sequence)."
			],
			"link": [
				"Fausto A. C. Cariboni, \u003ca href=\"/A003003/b003003.txt\"\u003eTable of n, a(n) for n = 1..142\u003c/a\u003e",
				"Fausto A. C. Cariboni, \u003ca href=\"/A003003/a003003_1.txt\"\u003eSets that yield a(n) for n = 5..142.\u003c/a\u003e, Jun 15 2018",
				"K. O'Bryant, \u003ca href=\"https://cs.uwaterloo.ca/journals/JIS/VOL18/OBryant/obr3.html\"\u003eSets of Natural Numbers with Proscribed Subsets\u003c/a\u003e, J. Int. Seq. 18 (2015) # 15.7.7",
				"Simon Plouffe, \u003ca href=\"https://arxiv.org/abs/0911.4975\"\u003eApproximations de séries génératrices et quelques conjectures\u003c/a\u003e, Dissertation, Université du Québec à Montréal, 1992.",
				"Simon Plouffe, \u003ca href=\"/A000051/a000051_2.pdf\"\u003e1031 Generating Functions\u003c/a\u003e, Appendix to Thesis, Montreal, 1992",
				"Karl C. Rubin, \u003ca href=\"/A003002/a003002.pdf\"\u003eOn sequences of integers with no k terms in arithmetic progression\u003c/a\u003e, 1973 [Scanned copy, with correspondence]",
				"Z. Shao, F. Deng, M. Liang, X. Xu, \u003ca href=\"http://dx.doi.org/10.1016/j.jcss.2011.09.003\"\u003eOn sets without k-term arithmetic progression\u003c/a\u003e, Journal of Computer and System Sciences 78 (2012) 610-618.",
				"S. S. Wagstaff, Jr., \u003ca href=\"http://dx.doi.org/10.1090/S0025-5718-1972-0325500-5\"\u003eOn k-free sequences of integers\u003c/a\u003e, Math. Comp., 26 (1972), 767-771."
			],
			"xref": [
				"Cf. A003002, A003004, A003005, A065825, A136746.",
				"A selection of sequences related to \"no three-term arithmetic progression\": A003002, A003003, A003278, A004793, A005047, A005487, A033157, A065825, A092482, A093678, A093679, A093680, A093681, A093682, A094870, A101884, A101886, A101888, A140577, A185256, A208746, A229037."
			],
			"keyword": "nonn",
			"offset": "1,2",
			"author": "_N. J. A. Sloane_",
			"ext": [
				"a(52)-a(72) from _Rob Pratt_, Jul 09 2015"
			],
			"references": 12,
			"revision": 61,
			"time": "2021-03-12T22:32:35-05:00",
			"created": "1991-04-30T03:00:00-04:00"
		}
	]
}