{
	"greeting": "Greetings from The On-Line Encyclopedia of Integer Sequences! http://oeis.org/",
	"query": "id:A003136",
	"count": 1,
	"start": 0,
	"results": [
		{
			"number": 3136,
			"id": "M2336",
			"data": "0,1,3,4,7,9,12,13,16,19,21,25,27,28,31,36,37,39,43,48,49,52,57,61,63,64,67,73,75,76,79,81,84,91,93,97,100,103,108,109,111,112,117,121,124,127,129,133,139,144,147,148,151,156,157,163,169,171,172,175,181,183,189,192",
			"name": "Loeschian numbers: numbers of the form x^2 + xy + y^2; norms of vectors in A2 lattice.",
			"comment": [
				"Equally, numbers of the form x^2 - xy + y^2. - _Ray Chandler_, Jan 27 2009",
				"Also, numbers of the form X^2+3Y^2 (X=y+x/2, Y=x/2), cf. A092572. - _Zak Seidov_, Jan 20 2009",
				"Theorem (Schering, Delone, Watson): The only positive definite binary quadratic forms that represent the same numbers are x^2+xy+y^2 and x^2+3y^2 (up to scaling). - _N. J. A. Sloane_, Jun 22 2014",
				"Equivalently, numbers n such that the coefficient of x^n in Theta3(x)*Theta3(x^3) is nonzero. - _Joerg Arndt_, Jan 16 2011",
				"Equivalently, numbers n such that the coefficient of x^n in a(x) (resp. b(x)) is nonzero where a(), b() are cubic AGM functions. - _Michael Somos_, Jan 16 2011",
				"Relative areas of equilateral triangles whose vertices are on a triangular lattice. - Anton Sherwood (bronto(AT)pobox.com), Apr 05 2001",
				"2 appended to a(n) (for positive n) corresponds to capsomere count in viral architectural structures (cf. A071336). - _Lekraj Beedassy_, Apr 14 2006",
				"The triangle in A132111 gives the enumeration: n^2 + k*n + k^2, 0 \u003c= k \u003c= n.",
				"The number of coat proteins at each corner of a triangular face of a virus shell. - _Parthasarathy Nambi_, Sep 04 2007",
				"Numbers of the form (x^2 + y^2 + (x + y)^2)/2. If we let z = - x - y, then all the solutions to x^2 + y^2 + z^2 = k with x + y + z = 0 are k = 2a(n) for any n. - _Jon Perry_, Dec 16 2012",
				"Sequence of divisors of the hexagonal lattice, except zero (where it is said that an integer n divides a lattice if there exists a sublattice of index n; example: 3 divides the hexagonal lattice). - _Jean-Christophe Hervé_, May 01 2013",
				"Numbers of the form - (x*y + y*z + x*z) with x + y + z = 0. Numbers of the form x^2 + y^2 + z^2 - (x*y + y*z + x*z) = (x - y)*(x - z) + (y - x) * (y - z) + (z - x) * (z - y). - _Michael Somos_, Jun 26 2013",
				"Equivalently, the existence spectrum of affine Mendelsohn triple systems, cf. A248107. - _David Stanovsky_, Nov 25 2014",
				"Lame's solutions to the Helmholtz equation with Dirichlet boundary conditions on the unit-edged equilateral triangle have eigenvalues of the form: (x^2+x*y+y^2)*(4*Pi/3)^2. The actual set, starting at 1 and counting degeneracies, is given by A060428, e.g., the first degeneracy is 49 where (x,y)=(0,7) and (3,5). - _Robert Stephen Jones_, Oct 01 2015",
				"The number of structure units in an icosahedral virus is 20*a(n) for an integer n, see Stannard link. - _Charles R Greathouse IV_, Nov 03 2015",
				"Curvatures of spheres in one bowl of integers, the Loeschian spheres. Mod 12, numbers equal to 0, 1, 3, 4, 7, 9. - _Ed Pegg Jr_, Jan 10 2017",
				"Norms of Eisenstein integers Z[omega] or k(rho). - _Juris Evertovskis_, Dec 07 2017",
				"Named after the German economist August Lösch (1906-1945). - _Amiram Eldar_, Jun 10 2021"
			],
			"reference": [
				"J. H. Conway and N. J. A. Sloane, Sphere Packings, Lattices and Groups, Springer-Verlag, p. 111.",
				"Ivars Peterson, The Jungles of Randomness: A Mathematical Safari, John Wiley and Sons, (1998) pp. 53.",
				"N. J. A. Sloane and Simon Plouffe, The Encyclopedia of Integer Sequences, Academic Press, 1995 (includes this sequence)."
			],
			"link": [
				"T. D. Noe, \u003ca href=\"/A003136/b003136.txt\"\u003eTable of n, a(n) for n = 1..10000\u003c/a\u003e",
				"Joerg Arndt, \u003ca href=\"https://arxiv.org/abs/1607.02433\"\u003ePlane-filling curves on all uniform grids\u003c/a\u003e, arXiv preprint arXiv:1607.02433 [math.CO], 2016.",
				"Mira Bernstein, N. J. A. Sloane and Paul E. Wright, \u003ca href=\"https://doi.org/10.1016/0012-365X(95)00354-Y\"\u003eOn Sublattices of the Hexagonal Lattice\u003c/a\u003e, Discrete Math., Vol. 170, No. 1-3 (1997), pp. 29-39; (\u003ca href=\"http://neilsloane.com/doc/paul.txt\"\u003eAbstract\u003c/a\u003e, \u003ca href=\"http://neilsloane.com/doc/paul.pdf\"\u003epdf\u003c/a\u003e, \u003ca href=\"http://neilsloane.com/doc/paul.ps\"\u003eps\u003c/a\u003e).",
				"John H. Conway, E. M. Rains, and N. J. A. Sloane, \u003ca href=\"https://doi.org/10.4153/CJM-1999-059-5\"\u003eOn the existence of similar sublattices\u003c/a\u003e, Canadian Journal of Mathematics, Vol. 51, No. 6 (1999), pp. 1300-1306; (\u003ca href=\"http://neilsloane.com/doc/sim.txt\"\u003eAbstract\u003c/a\u003e, \u003ca href=\"http://neilsloane.com/doc/sim.pdf\"\u003epdf\u003c/a\u003e, \u003ca href=\"http://neilsloane.com/doc/sim.ps\"\u003eps\u003c/a\u003e).",
				"B. N. Delone, \u003ca href=\"http://mi.mathnet.ru/eng/umn7118\"\u003eGeometry of positive quadratic forms. Part II\u003c/a\u003e, Uspekhi Mat. Nauk, Vol. 4 (1938), pp. 102-164.",
				"Diane M. Donovan, Terry S. Griggs, Thomas A. McCourt, Jakub Opršal and David Stanovský, \u003ca href=\"http://arxiv.org/abs/1411.5194\"\u003eDistributive and anti-distributive Mendelsohn triple systems\u003c/a\u003e, arXiv:1411.5194 [math.CO], (19-November-2014)",
				"William C. Jagy and Irving Kaplansky, \u003ca href=\"/A244019/a244019.pdf\"\u003ePositive definite binary quadratic forms that represent the same primes\u003c/a\u003e [Cached copy]",
				"Yoshiyuki Kitaoka, \u003ca href=\"http://dx.doi.org/10.3792/pja/1195519924\"\u003eOn the relation between the positive-definite quadratic forms with the same representation numbers\u003c/a\u003e, Proc. Jap. Acad., Vol. 47 (1971), pp. 439-441.",
				"August Lösch, \u003ca href=\"http://archive.org/stream/economicsoflocat00ls#page/116/mode/2up\"\u003eEconomics of Location\u003c/a\u003e, New Haven and London: Yale University Press, 1954. See pp. 117f.",
				"Oscar Marmon, \u003ca href=\"http://arxiv.org/abs/math/0508201\"\u003eHexagonal Lattice Points on Circles\u003c/a\u003e, arXiv:math/0508201 [math.NT], 2005.",
				"John U. Marshall, \u003ca href=\"https://doi.org/10.1111/j.1538-4632.1975.tb01054.x\"\u003eThe Löschian numbers as a problem in number theory\u003c/a\u003e, Geographical Analysis, Vol. 7, No. 4 (1975), pp. 421-426; \u003ca href=\"/A003136/a003136_2.pdf\"\u003eAnnotated scanned copy\u003c/a\u003e.",
				"John U. Marshall, \u003ca href=\"https://doi.org/10.1111/j.1538-4632.1977.tb00555.x\"\u003eThe construction of the Löschian landscape\u003c/a\u003e, Geographical Analysis, Vol. 9, No. 1 (Jan. 1977), pp. 1-13; \u003ca href=\"/A003136/a003136_3.pdf\"\u003eAnnotated scanned copy\u003c/a\u003e.",
				"John U. Marshall, \u003ca href=\"https://doi.org/10.1111/j.0033-0124.1977.00153.x\"\u003eChristallerian networks in the Löschian economic landscape\u003c/a\u003e, Professional Geographer, Vol. 29, No. 2 (1977), pp. 153-159; \u003ca href=\"/A003136/a003136_1.pdf\"\u003eAnnotated scanned copy\u003c/a\u003e.",
				"John U. Marshall, \u003ca href=\"/A003136/a003136.pdf\"\u003eLetter to N. J. A. Sloane, 1990\u003c/a\u003e.",
				"Umesh P. Nair, \u003ca href=\"http://arXiv.org/abs/math.NT/0408107\"\u003eElementary results on the binary quadratic form a^2+ab+b^2\u003c/a\u003e, arXiv:math/0408107 [math.NT], 2004.",
				"Ed Pegg, Jr., \u003ca href=\"http://demonstrations.wolfram.com/LoeschianSpheres/\"\u003eLoeschian Spheres\u003c/a\u003e, 2015.",
				"Katherine A. Ritchey, \u003ca href=\"http://rave.ohiolink.edu/etdc/view?acc_num=osu1562945889197152\"\u003eComputational Topology for Configuration Spaces of Disks in a Torus\u003c/a\u003e, Ph. D. Dissertation, The Ohio State University (2019).",
				"Jacob Rus, \u003ca href=\"https://archive.bridgesmathart.org/2017/bridges2017-237.pdf\"\u003eFlowsnake Earth\u003c/a\u003e, Bridges 2017 Conference Proceedings, pp. 237-244.",
				"M. Schering, \u003ca href=\"http://sites.mathdoc.fr/JMPA/PDF/JMPA_1859_2_4_A24_0.pdf\"\u003eThéorèmes relatifs aux formes quadratiques qui représentent les mêmes nombres\u003c/a\u003e, J. Math, pures el appl., 2 serie 4 (1859).",
				"N. J. A. Sloane et al., \u003ca href=\"https://oeis.org/wiki/Binary_Quadratic_Forms_and_OEIS\"\u003eBinary Quadratic Forms and OEIS\u003c/a\u003e (Index to related sequences, programs, references).",
				"Linda Stannard, \u003ca href=\"https://web.archive.org/web/20030216063201/http://wwwweb.uct.ac.za/depts/mmi/stannard/virarch.html\"\u003ePrinciples of Virus Architecture\u003c/a\u003e. (archived version)",
				"V. N. Timofeev, \u003ca href=\"http://mi.mathnet.ru/eng/umn6393\"\u003eOn positive quadratic forms, representing the same numbers\u003c/a\u003e, Uspekhi Mat. Nauk, Vol. 18 (1963), pp. 191-193.",
				"G. L. Watson, \u003ca href=\"http://dx.doi.org/10.1112/S0025579300009621\"\u003eDetermination of a binary quadratic form by its values at integer points\u003c/a\u003e, Mathematika, Vol. 26, No. 1 (1979), pp. 72-75. MR0557128 (81e:10019).",
				"G. L. Watson, \u003ca href=\"http://dx.doi.org/10.1112/S002557930001007X\"\u003eAcknowledgement: Determination of a binary quadratic form by its values at integer points\u003c/a\u003e, Mathematika, Vol. 27, No. 2 (1980),p. 188. MR0610704 (82d:10037)",
				"\u003ca href=\"/index/Aa#A2\"\u003eIndex entries for sequences related to A2 = hexagonal = triangular lattice\u003c/a\u003e",
				"\u003ca href=\"/index/Cor#core\"\u003eIndex entries for \"core\" sequences\u003c/a\u003e"
			],
			"formula": [
				"Either n=0 or else in the prime factorization of n all primes of the form 3a+2 must occur to even powers only (there is no restriction of primes congruent to 0 or 1 mod 3).",
				"If n is in the sequence, then n^k is in the sequence (but the converse is not true). n is in the sequence iff n^(2k+1) is in the sequence. - _Ray Chandler_, Feb 03 2009",
				"A088534(a(n)) \u003e 0. - _Reinhard Zumkeller_, Oct 30 2011",
				"The sequence is multiplicative in the sense that if m and n are in the sequence, so is m*n. - _Jon Perry_, Dec 18 2012",
				"Comments from Richard C. Schroeppel, Jul 20 2016: (Start)",
				"The set is also closed under restricted division: If M and N are members, and M divides N, then N/M is a member.",
				"If N == 2 (mod 3), N is not in the sequence.",
				"The density of members (relative to the integers\u003e0) gradually falls to 0. The density goes as O(1/sqrt(log N)). This implies that, if N is a member, the average expected number of representations of N is O(sqrt(log N)).",
				"Representations usually come in sets of 6: (K,L), (K+L,-K), (K+L,-L) and their negatives. (End)",
				"Since Q(zeta), where zeta is a primitive 3rd root of unity has class number 1, the situation as to whether an integer is of the form x^2 + xy + y^2 is similar to the situation with x^2 + y^2: n is of the that form if and only if every prime p dividing n which is = 5 mod 6 divides it to an even power. The density of 1/sqrt(x) that Rich mentioned is an old result due to Landau. - _Victor S. Miller_, Jul 20 2016",
				"From _Juris Evertovskis_, Dec 07 2017; Jan 01 2020: (Start)",
				"In the prime factorization of n, let S_1 be the set of distinct prime factors p_i for which p_i == 1 (mod 3), let S_2 be the set of distinct prime factors p_j for which p_j == 2 (mod 3), and let M be the exponent of 3. Then n = 3^M * (Product_{p_i in S_1} p_i ^ e_i) * (Product_{p_j in S_2} p_j ^ e_j), and the number of solutions for x^2+xy+y^2=n is 6*Product_{p_i in S_1} (e_i + 1) if all e_j are even and 0 otherwise.",
				"For all Löschian numbers there are nonnegative X,Y such that X^2+XY+Y^2=n. For x,y such that x^2+xy+y^2=n take X=min(|x|,|y|), Y=|x+y| if xy\u003c0 and X=|x|, Y=|y| otherwise. (End)"
			],
			"maple": [
				"readlib(ifactors): for n from 2 to 200 do m := ifactors(n)[2]: flag := 1: for i from 1 to nops(m) do if m[i,1] mod 3 = 2 and m[i,2] mod 2 = 1 then flag := 0; break fi: od: if flag=1 then printf(`%d,`,n) fi: od: # _James A. Sellers_, Dec 07 2000"
			],
			"mathematica": [
				"ok[n_] := Resolve[Exists[{x, y}, Reduce[n == x^2 + x*y + y^2, {x, y}, Integers]]]; Select[Range[0, 192], ok] (* _Jean-François Alcover_, Apr 18 2011 *)",
				"nn = 14; Select[Union[Flatten[Table[x^2 + x*y + y^2, {x, 0, nn}, {y, 0, x}]]], # \u003c= nn^2 \u0026] (* _T. D. Noe_, Apr 18 2011 *)",
				"QP = QPochhammer; s = QP[q]^3 / QP[q^3]/3 + O[q]^200; Position[ CoefficientList[s, q], n_ /; n != 0] - 1 // Flatten (* _Jean-François Alcover_, Nov 27 2015, adapted from PARI *)"
			],
			"program": [
				"(Haskell)",
				"import Data.Set (singleton, union, fromList, deleteFindMin)",
				"a003136 n = a003136_list !! (n-1)",
				"a003136_list = f 0 $ singleton 0 where",
				"f x s | m \u003c x ^ 2 = m : f x s'",
				"| otherwise = m : f x'",
				"(union s' $ fromList $ map (\\y -\u003e x'^2+(x'+y)*y) [0..x'])",
				"where x' = x + 1",
				"(m,s') = deleteFindMin s",
				"-- _Reinhard Zumkeller_, Oct 30 2011",
				"(PARI) isA003136(n)=local(fac,flag);if(n==0,1,fac=factor(n);flag=1;for(i=1,matsize(fac)[1],if(Mod(fac[i,1],3)==2 \u0026\u0026 Mod(fac[i,2],2)==1,flag=0));flag)",
				"(PARI) is(n)=#bnfisintnorm(bnfinit(z^2+z+1),n) \\\\ _Ralf Stephan_, Oct 18 2013",
				"(PARI) x='x+O('x^200); p=eta(x)^3/eta(x^3); for(n=0, 199, if(polcoeff(p, n) != 0, print1(n, \", \"))) \\\\ _Altug Alkan_, Nov 08 2015",
				"(PARI) list(lim)=my(v=List(),y,t); for(x=0,sqrtint(lim\\3), my(y=x,t); while((t=x^2+x*y+y^2)\u003c=lim, listput(v,t); y++)); Set(v) \\\\ _Charles R Greathouse IV_, Feb 05 2017",
				"(MAGMA) [n: n in [0..192] | NormEquation(3, n) eq true]; // _Arkadiusz Wesolowski_, May 11 2016",
				"(Julia)",
				"function isA003136(n)",
				"    n % 3 == 2 \u0026\u0026 return false",
				"    n in [0, 1, 3] \u0026\u0026 return true",
				"    M = Int(round(2*sqrt(n/3)))",
				"    for y in 0:M, x in 0:y",
				"        n == x^2 + y^2 + x*y \u0026\u0026 return true",
				"    end",
				"    return false",
				"end",
				"A003136list(upto) = [n for n in 0:upto if isA003136(n)]",
				"A003136list(192) |\u003e println # _Peter Luschny_, Mar 17 2018"
			],
			"xref": [
				"Subsequence of A032766, A198772, A118886, A198773, A198774, A198775, A202822, and A260682.",
				"See A092572 for numbers of form x^2 + 3 y^2 with positive x,y.",
				"See A088534 for the number of representations.",
				"Cf. A034020 (complement), A007645 (primes); partitions: A198726, A198727.",
				"Cf. A004611, A034017, A045897, A060428."
			],
			"keyword": "core,easy,nonn,nice",
			"offset": "1,3",
			"author": "_N. J. A. Sloane_",
			"references": 103,
			"revision": 265,
			"time": "2021-09-16T00:34:58-04:00",
			"created": "1991-04-30T03:00:00-04:00"
		}
	]
}