{
	"greeting": "Greetings from The On-Line Encyclopedia of Integer Sequences! http://oeis.org/",
	"query": "id:A003578",
	"count": 1,
	"start": 0,
	"results": [
		{
			"number": 3578,
			"data": "1,2,10,80,772,8648,111592,1631360,26518672,472528160,9139219360,190461416192,4250569655872,101040920561792,2546488866632320,67772341398044672,1898177372174512384,55780954727160472064,1715291443214323558912,55062161002484359565312",
			"name": "Dowling numbers: e.g.f. exp(x + (exp(b*x) - 1)/b), with b=6.",
			"link": [
				"Muniru A Asiru, \u003ca href=\"/A003578/b003578.txt\"\u003eTable of n, a(n) for n = 0..180\u003c/a\u003e",
				"Moussa Benoumhani, \u003ca href=\"https://doi.org/10.1016/0012-365X(95)00095-E\"\u003eOn Whitney numbers of Dowling lattices\u003c/a\u003e, Discrete Math. 159 (1996), no. 1-3, 13-33."
			],
			"formula": [
				"E.g.f.: exp(x + (exp(6*x) - 1)/6).",
				"a(n) = exp(-1/6) * Sum_{k\u003e=0} (6*k + 1)^n / (6^k * k!). - _Ilya Gutkovskiy_, Apr 16 2020"
			],
			"maple": [
				"seq(coeff(series(factorial(n)*exp(z+(1/6)*exp(6*z)-(1/6)),z,n+1), z, n), n = 0 .. 20); # _Muniru A Asiru_, Feb 23 2019"
			],
			"mathematica": [
				"With[{nn=20},CoefficientList[Series[Exp[x+Exp[6x]/6-1/6],{x,0,nn}],x] Range[0,nn]!] (* _Harvey P. Dale_, Jun 12 2017 *)",
				"Table[Sum[Binomial[n, k] * 6^k * BellB[k, 1/6], {k, 0, n}], {n, 0, 20}] (* _Vaclav Kotesovec_, Apr 17 2020 *)"
			],
			"program": [
				"(PARI) my(x='x+O('x^20)); b=6; Vec(serlaplace(exp(x +(exp(b*x)-1)/b))) \\\\ _G. C. Greubel_, Feb 24 2019",
				"(MAGMA) m:=20; c:=6; R\u003cx\u003e:=PowerSeriesRing(Rationals(), m); b:=Coefficients(R!( Exp(x +(Exp(c*x)-1)/c) )); [Factorial(n-1)*b[n]: n in [1..m-1]]; // _G. C. Greubel_, Feb 24 2019",
				"(Sage) m = 20; b=6; T = taylor(exp(x + (exp(b*x) -1)/b), x, 0, m); [factorial(n)*T.coefficient(x, n) for n in (0..m)] # _G. C. Greubel_, Feb 24 2019"
			],
			"xref": [
				"Cf. A000110 (b=1), A007405 (b=2), A003575 (b=3), A003576 (b=4), A003577 (b=5), this sequence (b=6), A003579 (b=7), A003580 (b=8), A003581 (b=9), A003582 (b=10)."
			],
			"keyword": "nonn",
			"offset": "0,2",
			"author": "_N. J. A. Sloane_",
			"references": 12,
			"revision": 23,
			"time": "2020-04-17T10:41:27-04:00",
			"created": "1996-12-11T03:00:00-05:00"
		}
	]
}