{
	"greeting": "Greetings from The On-Line Encyclopedia of Integer Sequences! http://oeis.org/",
	"query": "id:A004142",
	"count": 1,
	"start": 0,
	"results": [
		{
			"number": 4142,
			"data": "0,1,10,57,260,1055,3990,14413,50440,172539,580250,1926089,6328140,20619703,66732190,214742085,687698960,2193154547,6968850210,22073006401,69714716500,219623377071,690291036710",
			"name": "n(3^n-2^n).",
			"xref": [
				"Equals n * A001047(n)."
			],
			"keyword": "nonn",
			"offset": "0,3",
			"author": "_N. J. A. Sloane_.",
			"references": 0,
			"revision": 5,
			"time": "2012-03-30T16:44:00-04:00",
			"created": "1996-12-11T03:00:00-05:00"
		}
	]
}