{
	"greeting": "Greetings from The On-Line Encyclopedia of Integer Sequences! http://oeis.org/",
	"query": "id:A004646",
	"count": 1,
	"start": 0,
	"results": [
		{
			"number": 4646,
			"data": "1,2,4,11,22,44,121,242,514,1331,2662,5654,14641,32612,65524,164351,362032,1054064,2141161,4312352,11625034,23553101,50436202,131205404,262414111,555131222,1443262444,3216555221,6436443442,16206220214,35415440431,104134211162",
			"name": "Powers of 2 written in base 7.",
			"link": [
				"Vincenzo Librandi, \u003ca href=\"/A004646/b004646.txt\"\u003eTable of n, a(n) for n = 0..1000\u003c/a\u003e"
			],
			"mathematica": [
				"Table[FromDigits[IntegerDigits[2^n, 7]], {n, 0, 40}] (* _Vladimir Joseph Stephan Orlovsky_, Feb 17 2012 *)"
			],
			"program": [
				"(PARI) for(n=0,30, print1(fromdigits(digits(2^n, 7)), \", \")) \\\\ _G. C. Greubel_, Sep 10 2018",
				"(MAGMA) [Seqint(Intseq(2^n, 7)): n in [0..30]]; // _G. C. Greubel_, Sep 10 2018"
			],
			"keyword": "nonn,base,easy",
			"offset": "0,2",
			"author": "_N. J. A. Sloane_",
			"references": 1,
			"revision": 16,
			"time": "2018-09-11T03:14:46-04:00",
			"created": "1996-12-11T03:00:00-05:00"
		}
	]
}