{
	"greeting": "Greetings from The On-Line Encyclopedia of Integer Sequences! http://oeis.org/",
	"query": "id:A004217",
	"count": 1,
	"start": 0,
	"results": [
		{
			"number": 4217,
			"data": "1,256,443426488243037769948249630619149892803",
			"name": "(n^n)^(n^n)",
			"comment": [
				"The next four terms have 617, 10922, 217833 and 4871823 digits respectively. - _Rick L. Shepherd_, May 07 2006"
			],
			"formula": [
				"a(n) = A000312(A000312(n)) = n^A007778(n) = A002488(n)^n = A002489(n)^A000169(n)"
			],
			"keyword": "nonn,easy,bref",
			"offset": "1,2",
			"author": "_Henry Bottomley_, Jun 08 2000",
			"references": 1,
			"revision": 9,
			"time": "2012-03-30T18:51:17-04:00",
			"created": "1996-12-11T03:00:00-05:00"
		}
	]
}