{
	"greeting": "Greetings from The On-Line Encyclopedia of Integer Sequences! http://oeis.org/",
	"query": "id:A004471",
	"count": 1,
	"start": 0,
	"results": [
		{
			"number": 4471,
			"data": "0,6,11,13,14,8,5,3,7,1,12,10,9,15,2,4,96,102,107,109,110,104,101,99,103,97,108,106,105,111,98,100,176,182,187,189,190,184,181,179,183,177,188,186,185,191,178,180,208,214,219,221,222,216,213,211,215,209,220,218",
			"name": "Nim product 6 * n.",
			"reference": [
				"J. H. Conway, On Numbers and Games. Academic Press, NY, 1976, pp. 51-53."
			],
			"link": [
				"R. J. Mathar, \u003ca href=\"/A004471/b004471.txt\"\u003eTable of n, a(n) for n = 0..1000\u003c/a\u003e",
				"\u003ca href=\"/index/Ni#Nimmult\"\u003eIndex entries for sequences related to Nim-multiplication\u003c/a\u003e"
			],
			"formula": [
				"a(n) = A051775(6,n)."
			],
			"keyword": "nonn",
			"offset": "0,2",
			"author": "_N. J. A. Sloane_.",
			"ext": [
				"More terms from _Erich Friedman_."
			],
			"references": 1,
			"revision": 12,
			"time": "2013-04-17T14:41:32-04:00",
			"created": "1996-12-11T03:00:00-05:00"
		}
	]
}