{
	"greeting": "Greetings from The On-Line Encyclopedia of Integer Sequences! http://oeis.org/",
	"query": "id:A004273",
	"count": 1,
	"start": 0,
	"results": [
		{
			"number": 4273,
			"data": "0,1,3,5,7,9,11,13,15,17,19,21,23,25,27,29,31,33,35,37,39,41,43,45,47,49,51,53,55,57,59,61,63,65,67,69,71,73,75,77,79,81,83,85,87,89,91,93,95,97,99,101,103,105,107,109,111,113,115,117,119,121,123,125,127,129,131",
			"name": "0 together with odd numbers.",
			"comment": [
				"Also continued fraction for tanh(1) (A073744 is decimal expansion). - _Rick L. Shepherd_, Aug 07 2002",
				"From _Alexander R. Povolotsky_ and _Paolo P. Lava_, Oct 29 2009: (Start)",
				"From Inverse Symbolic Calculator Plus http://glooscap.cs.dal.ca:8087/advancedCalc Advanced lookup results for sum(2/(2^(n+1))/GAMMA(n+1/2)*Pi^(1/2),n = 1 .. infinity) Transform Searched for Description K*1 1.4106861346424479976908247 Sum(1/prod(A004273(k),k=1..n),n=1..inf) Below are two Maple programs, developed by Paolo Lava confirming that indeed sum(2/(2^(n+1))/GAMMA(n+1/2)*Pi^(1/2),n = 1 .. infinity) = Sum(1/prod(A004273(k),k=1..n),n=1..inf). To reiterate, it appears that indeed the two formulas practically give the same result!",
				"Maple program for Sum(1/prod(A004273(k),k=1..n),n=1..inf)is:",
				"Formula1:=proc(i) local a,k,n,t; for n from 1 by 1 to i do a:=add(1/product(2*t-1,t=1..k),k=1..n); print(evalf(a,600)); od; end: Formula1(10000);",
				"Maple program for the formula using GAMMA function is:",
				"Formula2:=proc(i) local a,k,n; for n from 1 by 1 to i do a:=add(2/(2^(k+1))/GAMMA(k+1/2)*Pi^(1/2),k=1..n); print(evalf(a,600)); od; end: Formula2(10000); Both programs were run up to 10000 iterations showing 599 decimal digits.",
				"The result in both cases is: 1.41068613464244799769082471141911504132347\\",
				"862562519219772463946816478179849039792711540922477861164014728970035593\\",
				"291934262239437689612130677631195100435759045028697694516138268925799622\\",
				"506579245758816483482960481133594351367886637443783678748021144275108269\\",
				"196477247936726250874958337834244668843998292968423370781551842367181745\\",
				"798283956182034092760339072832832252093637885530596099628134118249573271\\",
				"812709090115944540248304702415273410481321124791326873921867111910022107\\",
				"760939194553035779605182699929996414630218895949183315671171755021724947\\",
				"333256207314724810499711097293803256333031250513313069 (End)",
				"From _Jaroslav Krizek_, May 28 2010: (Start)",
				"For n \u003e= 1, a(n) = numbers k such that arithmetic mean of the first k positive integers is integer. A040001(a(n)) = 1. See A145051 and A040001.",
				"For n \u003e= 1, a(n) = corresponding values of antiharmonic means to numbers from A016777 (numbers k such that antiharmonic mean of the first k positive integers is integer).",
				"a(n) = A000330(A016777(n)) / A000217(A016777(n)) = A146535(A016777(n)+1). (End)",
				"If the n-th prime is denoted by p(n) then it appears that a(j) = distinct, increasing values of (Sum of the quadratic non-residues of p(n) - Sum of the quadratic residues of p(n)) / p(n) for each j. - _Christopher Hunt Gribble_, Oct 05 2010",
				"A214546(a(n)) \u003e 0. - _Reinhard Zumkeller_, Jul 20 2012",
				"Dimension of the space of weight 2n+2 cusp forms for Gamma_0(6).",
				"The size of a maximal 2-degenerate graph of order n-1 (this class includes 2-trees and maximal outerplanar graphs (MOPs)). - _Allan Bickle_, Nov 14 2021"
			],
			"link": [
				"Vincenzo Librandi, \u003ca href=\"/A004273/b004273.txt\"\u003eTable of n, a(n) for n = 0..10000\u003c/a\u003e",
				"A. Bickle, \u003ca href=\"https://doi.org/10.7151/dmgt.1637\"\u003eStructural results on maximal k-degenerate graphs\u003c/a\u003e, Discuss. Math. Graph Theory 32 4 (2012), 659-676.",
				"D. R. Lick and A. T. White, \u003ca href=\"https://doi.org/10.4153/CJM-1970-125-1\"\u003ek-degenerate graphs\u003c/a\u003e, Canad. J. Math. 22 (1970), 1082-1096."
			],
			"formula": [
				"a(n) = 2*n - ((n+2) mod (n+1)), n \u003e= 0. - _Paolo P. Lava_, Aug 29 2007",
				"G.f.: x*(1+x)/(-1+x)^2. - _R. J. Mathar_, Nov 18 2007",
				"a(n) = lodumo_2(A057427(n)). - _Philippe Deléham_, Apr 26 2009",
				"Euler transform of length 2 sequence [3, -1]. - _Michael Somos_, Jul 03 2014",
				"a(n) = (4*n - 1 - (-1)^(2^n))/2. - _Luce ETIENNE_, Jul 11 2015"
			],
			"example": [
				"G.f. = x + 3*x^2 + 5*x^3 + 7*x^4 + 9*x^5 + 11*x^6 + 13*x^7 + 15*x^8 + 17*x^9 + ..."
			],
			"maple": [
				"a[0]:=0:a[1]:=1:for n from 2 to 100 do a[n]:=a[n-1]+2 od: seq(a[n], n=0..66); # _Zerinvary Lajos_, Mar 16 2008"
			],
			"mathematica": [
				"Join[{0}, Range[1, 200, 2]] (* _Vladimir Joseph Stephan Orlovsky_, Feb 16 2012 *)"
			],
			"program": [
				"(MAGMA) [2*n-Floor((n+2) mod (n+1)): n in [0..70]]; // _Vincenzo Librandi_, Sep 21 2011",
				"(Sage) def a(n) : return( dimension_cusp_forms( Gamma0(6), 2*n+2) ); # _Michael Somos_, Jul 03 2014",
				"(PARI) a(n)=max(2*n-1,n) \\\\ _Charles R Greathouse IV_, May 14 2014",
				"(GAP) Concatenation([0],List([1,3..141])); # _Muniru A Asiru_, Jul 28 2018"
			],
			"xref": [
				"Cf. A110185, continued fraction expansion of 2*tanh(1/2), and A204877, continued fraction expansion of 3*tanh(1/3). [_Bruno Berselli_, Jan 26 2012]",
				"Cf. A005408."
			],
			"keyword": "nonn,easy",
			"offset": "0,3",
			"author": "_N. J. A. Sloane_",
			"references": 29,
			"revision": 76,
			"time": "2021-12-15T11:06:14-05:00",
			"created": "1996-12-11T03:00:00-05:00"
		}
	]
}