{
	"greeting": "Greetings from The On-Line Encyclopedia of Integer Sequences! http://oeis.org/",
	"query": "id:A004478",
	"count": 1,
	"start": 0,
	"results": [
		{
			"number": 4478,
			"data": "0,13,6,11,9,4,15,2,14,3,8,5,7,10,1,12,208,221,214,219,217,212,223,210,222,211,216,213,215,218,209,220,96,109,102,107,105,100,111,98,110,99,104,101,103,106,97,108,176,189,182,187,185,180,191,178,190,179,184",
			"name": "Nim product 13 * n.",
			"reference": [
				"J. H. Conway, On Numbers and Games. Academic Press, NY, 1976, pp. 51-53."
			],
			"link": [
				"\u003ca href=\"/index/Ni#Nimmult\"\u003eIndex entries for sequences related to Nim-multiplication\u003c/a\u003e"
			],
			"keyword": "nonn",
			"offset": "0,2",
			"author": "_N. J. A. Sloane_.",
			"ext": [
				"More terms from _Erich Friedman_."
			],
			"references": 0,
			"revision": 8,
			"time": "2012-03-31T13:22:14-04:00",
			"created": "1996-12-11T03:00:00-05:00"
		}
	]
}