{
	"greeting": "Greetings from The On-Line Encyclopedia of Integer Sequences! http://oeis.org/",
	"query": "id:A004609",
	"count": 1,
	"start": 0,
	"results": [
		{
			"number": 4609,
			"data": "1,0,0,1,1,1,0,0,1,1,0,0,0,1,0,0,0,1,1,1,0,0,0,0,1,0,1,0,0,0,0,0,0,1,0,0,1,0,0,1,0,0,0,0,1,0,0,1,0,1,1,1,0,0,1,1,1,1,1,0,1,0,0,0,0,0,0,1,1,0,0,1,0,0,0,0,1,1,0,0,1,0,0,0,1,0,1,0,0,0,0,1,1,0,0,1,0,0,0",
			"name": "Expansion of sqrt(6) in base 2.",
			"link": [
				"Ivan Panchenko, \u003ca href=\"/A004609/b004609.txt\"\u003eTable of n, a(n) for n = 2..1000\u003c/a\u003e",
				"Jason Kimberley, \u003ca href=\"/wiki/User:Jason_Kimberley/sqrt_base\"\u003eIndex of expansions of sqrt(d) in base b\u003c/a\u003e"
			],
			"mathematica": [
				"RealDigits[Sqrt[6], 2, 110][[1]] (* _G. C. Greubel_, Oct 13 2018 *)"
			],
			"keyword": "nonn,base,cons",
			"offset": "2,1",
			"author": "_N. J. A. Sloane_",
			"references": 2,
			"revision": 15,
			"time": "2018-10-14T00:16:09-04:00",
			"created": "1996-12-11T03:00:00-05:00"
		}
	]
}