{
	"greeting": "Greetings from The On-Line Encyclopedia of Integer Sequences! http://oeis.org/",
	"query": "id:A004778",
	"count": 1,
	"start": 0,
	"results": [
		{
			"number": 4778,
			"data": "1,4,12,24,36,60,120,180,240,360,720,840,1260,1680,2520,5040,7560,10080,15120,20160,25200,27720,45360,50400,55440,83160,110880,166320,221760,277200,332640,498960,554400,665280,720720,1081080,1441440,2162160",
			"name": "Where records occur in A038548.",
			"comment": [
				"Records are 1, 2, 3, 4, 5, 6, 8, 9, 10, 12, 15, 16, 18, 20, 24, 30, ...",
				"This sequence coincides with the highly composite numbers (A002182) excluding 2, 6, and 48. These excluded numbers occur directly after the only squares of A002182, namely 1, 4, and 36. - _Jaycob Coleman_, Mar 08 2015"
			],
			"link": [
				"Amiram Eldar, \u003ca href=\"/A004778/b004778.txt\"\u003eTable of n, a(n) for n = 1..436\u003c/a\u003e",
				"Amiram Eldar, \u003ca href=\"/A004778/a004778.txt\"\u003eTable of n, a(n), A038548(a(n)) for n = 1..436\u003c/a\u003e"
			],
			"mathematica": [
				"s={}; dm = 0; Do[d =Ceiling[DivisorSigma[0,n]/2]; If[d \u003e dm, dm = d; AppendTo[s, n]], {n, 10^5}]; s (* _Amiram Eldar_, Jul 07 2019 *)"
			],
			"program": [
				"(PARI) lista(nn) = {rec = 0; for (n=1, nn, nb = ceil(numdiv(n)/2); if (nb \u003e rec, print1(n, \", \"); rec = nb;););} \\\\ _Michel Marcus_, Sep 01 2013"
			],
			"xref": [
				"Cf. A038548, A038549, A086921, A086921."
			],
			"keyword": "easy,nonn",
			"offset": "1,2",
			"author": "_Chittaranjan Pardeshi_, Sep 19 2003",
			"references": 4,
			"revision": 21,
			"time": "2019-07-07T09:13:11-04:00",
			"created": "1996-12-11T03:00:00-05:00"
		}
	]
}