{
	"greeting": "Greetings from The On-Line Encyclopedia of Integer Sequences! http://oeis.org/",
	"query": "id:A004995",
	"count": 1,
	"start": 0,
	"results": [
		{
			"number": 4995,
			"data": "1,-30,-90,-1260,-24570,-560196,-14004900,-372130200,-10326613050,-296029574100,-8703269478540,-261098084356200,-7963491572864100,-246255662483951400,-7704284297712193800,-243455383807705324080",
			"name": "a(n) = (6^n/n!) * Product_{k=0..n-1} (6*k - 5).",
			"link": [
				"G. C. Greubel, \u003ca href=\"/A004995/b004995.txt\"\u003eTable of n, a(n) for n = 0..635\u003c/a\u003e"
			],
			"formula": [
				"G.f.: (1 - 36*x)^(5/6).",
				"a(n) ~ -(5/6)*Gamma(1/6)^-1*n^(-11/6)*6^(2*n)*(1 + (55/72)*n^-1 + ...). - Joe Keane (jgk(AT)jgk.org), Nov 24 2001",
				"a(n) = 6^(2*n) * binomial(n-11/6, n). - _G. C. Greubel_, Aug 20 2019",
				"D-finite with recurrence: n*a(n) +6*(-6*n+11)*a(n-1)=0. - _R. J. Mathar_, Jan 17 2020"
			],
			"maple": [
				"seq(6^n*product(6*k-5, k = 0..n-1)/n!, n = 0..20); # _G. C. Greubel_, Aug 20 2019"
			],
			"mathematica": [
				"Table[6^(2*n)*Pochhammer[-5/6, n]/n!, {n,0,20}] (* _G. C. Greubel_, Aug 20 2019 *)"
			],
			"program": [
				"(PARI) vector(20, n, n--; 6^n*prod(j=0,n-1, 6*j-5)/n! ) \\\\ _G. C. Greubel_, Aug 20 2019",
				"(MAGMA) [1] cat [6^n*(\u0026*[6*k-5: k in [0..n-1]])/Factorial(n): n in [1..20]]; // _G. C. Greubel_, Aug 20 2019",
				"(Sage) [6^(2*n)*rising_factorial(-5/6, n)/factorial(n) for n in (0..20)] # _G. C. Greubel_, Aug 20 2019",
				"(GAP) List([0..20], n-\u003e 6^n*Product([0..n-1], k-\u003e 6*k-5)/Factorial(n) ); # _G. C. Greubel_, Aug 20 2019"
			],
			"keyword": "sign,easy",
			"offset": "0,2",
			"author": "Joe Keane (jgk(AT)jgk.org)",
			"references": 2,
			"revision": 13,
			"time": "2020-01-30T21:29:14-05:00",
			"created": "1996-12-11T03:00:00-05:00"
		}
	]
}