{
	"greeting": "Greetings from The On-Line Encyclopedia of Integer Sequences! http://oeis.org/",
	"query": "id:A004272",
	"count": 1,
	"start": 0,
	"results": [
		{
			"number": 4272,
			"data": "0,1,2,3,4,5,6,8,10,12,14,16,18,20,22,24,26,28,30,32,34,36,38,40,42,44,46,48,50,52,54,56,58,60,62,64,66,68,70,72,74,76,78,80,82,84,86,88,90,92,94,96,98,100,102,104",
			"name": "1, 3, 5 and the even numbers.",
			"mathematica": [
				"Join[{1,3,5},2*Range[0,60]]//Sort (* _Harvey P. Dale_, Jul 10 2018 *)"
			],
			"keyword": "easy,nonn",
			"offset": "0,3",
			"author": "_N. J. A. Sloane_.",
			"references": 0,
			"revision": 6,
			"time": "2018-07-10T20:19:16-04:00",
			"created": "1996-12-11T03:00:00-05:00"
		}
	]
}