{
	"greeting": "Greetings from The On-Line Encyclopedia of Integer Sequences! http://oeis.org/",
	"query": "id:A004433",
	"count": 1,
	"start": 0,
	"results": [
		{
			"number": 4433,
			"data": "30,39,46,50,51,54,57,62,63,65,66,70,71,74,75,78,79,81,84,85,86,87,90,91,93,94,95,98,99,102,105,106,107,109,110,111,113,114,116,117,118,119,120,121,122,123,125,126,127,129,130,131,133,134,135,137",
			"name": "Numbers that are the sum of 4 distinct nonzero squares: of form w^2+x^2+y^2+z^2 with 0\u003cw\u003cx\u003cy\u003cz.",
			"link": [
				"T. D. Noe, \u003ca href=\"/A004433/b004433.txt\"\u003eTable of n, a(n) for n = 1..1000\u003c/a\u003e",
				"\u003ca href=\"/index/Su#ssq\"\u003eIndex entries for sequences related to sums of squares\u003c/a\u003e"
			],
			"formula": [
				"{n: A025443(n) \u003e=1}. Union of A025386 and A025376. - _R. J. Mathar_, Jun 15 2018"
			],
			"example": [
				"30 = 1^2+2^2+3^2+4^2."
			],
			"mathematica": [
				"data = Flatten[ DeleteCases[ FindInstance[ w^2 + x^2 + y^2 + z^2 == # \u0026\u0026 0 \u003c w \u003c x \u003c y \u003c z \u003c #, {w, x, y, z}, Integers] \u0026 /@ Range[137], {}], 1]; w^2 + x^2 + y^2 + z^2 /. data (* From Ant King, Oct 17 2010 *)",
				"Select[Union[Total[#^2]\u0026/@Subsets[Range[10],{4}]],#\u003c=137\u0026] (* _Harvey P. Dale_, Jul 03 2011 *)"
			],
			"program": [
				"(Haskell)",
				"a004433 n = a004433_list !! (n-1)",
				"a004433_list = filter (p 4 $ tail a000290_list) [1..] where",
				"   p k (q:qs) m = k == 0 \u0026\u0026 m == 0 ||",
				"                  q \u003c= m \u0026\u0026 k \u003e= 0 \u0026\u0026 (p (k - 1) qs (m - q) || p k qs m)",
				"-- _Reinhard Zumkeller_, Apr 22 2013",
				"(PARI) list(lim)=my(v=List()); lim\\=1; for(z=4,sqrtint(lim\\4), for(y=3,min(sqrtint((lim-z^2)\\3),z-1), for(x=2,min(sqrtint((lim-y^2-z^2)\\2),y-1), for(w=1,min(sqrtint(lim-x^2-y^2-z^2),x-1), listput(v,w^2+x^2+y^2+z^2))))); Set(v) \\\\ _Charles R Greathouse IV_, Feb 07 2017"
			],
			"xref": [
				"Cf. A001944, A001995, A003995, A004431, A004432, A004434, A224981, A224982, A224983, A000290."
			],
			"keyword": "nonn,easy,nice",
			"offset": "1,1",
			"author": "_N. J. A. Sloane_",
			"references": 16,
			"revision": 27,
			"time": "2018-06-15T07:10:35-04:00",
			"created": "1996-12-11T03:00:00-05:00"
		}
	]
}