{
	"greeting": "Greetings from The On-Line Encyclopedia of Integer Sequences! http://oeis.org/",
	"query": "id:A004380",
	"count": 1,
	"start": 0,
	"results": [
		{
			"number": 4380,
			"data": "1,91,4753,187460,6210820,182637273,4925156775,124397910208,2985733783935,68805631064170,1534076755992935,33283806441690896,705873715441872264,14684612966748995725,300515354528763817950",
			"name": "Binomial coefficient C(7n,n-12).",
			"reference": [
				"M. Abramowitz and I. A. Stegun, eds., Handbook of Mathematical Functions, National Bureau of Standards Applied Math. Series 55, 1964 (and various reprintings), p. 828."
			],
			"link": [
				"M. Abramowitz and I. A. Stegun, eds., \u003ca href=\"http://www.convertit.com/Go/ConvertIt/Reference/AMS55.ASP\"\u003eHandbook of Mathematical Functions\u003c/a\u003e, National Bureau of Standards, Applied Math. Series 55, Tenth Printing, 1972 [alternative scanned copy]."
			],
			"mathematica": [
				"Table[Binomial[7n,n-12],{n,12,40}] (* _Harvey P. Dale_, Oct 10 2012 *)"
			],
			"keyword": "nonn,easy",
			"offset": "12,2",
			"author": "_N. J. A. Sloane_.",
			"references": 0,
			"revision": 9,
			"time": "2018-05-08T15:11:54-04:00",
			"created": "1996-12-11T03:00:00-05:00"
		}
	]
}