{
	"greeting": "Greetings from The On-Line Encyclopedia of Integer Sequences! http://oeis.org/",
	"query": "id:A004343",
	"count": 1,
	"start": 0,
	"results": [
		{
			"number": 4343,
			"data": "1,10,105,1140,12650,142506,1623160,18643560,215553195,2505433700,29248649430,342700125300,4027810484880,47465835030320,560658857389200,6635869816740560,78682166288559225,934433788613079150",
			"name": "Binomial coefficient C(5n,n-1).",
			"reference": [
				"M. Abramowitz and I. A. Stegun, eds., Handbook of Mathematical Functions, National Bureau of Standards Applied Math. Series 55, 1964 (and various reprintings), p. 828."
			],
			"link": [
				"M. Abramowitz and I. A. Stegun, eds., \u003ca href=\"http://www.convertit.com/Go/ConvertIt/Reference/AMS55.ASP\"\u003eHandbook of Mathematical Functions\u003c/a\u003e, National Bureau of Standards, Applied Math. Series 55, Tenth Printing, 1972 [alternative scanned copy]."
			],
			"keyword": "nonn,easy",
			"offset": "1,2",
			"author": "_N. J. A. Sloane_.",
			"references": 0,
			"revision": 7,
			"time": "2018-05-08T15:11:53-04:00",
			"created": "1996-12-11T03:00:00-05:00"
		}
	]
}