{
	"greeting": "Greetings from The On-Line Encyclopedia of Integer Sequences! http://oeis.org/",
	"query": "id:A005859",
	"count": 1,
	"start": 0,
	"results": [
		{
			"number": 5859,
			"id": "M0236",
			"data": "1,1,1,1,1,1,2,2,2,4,4,5,7,8,10,16,25",
			"name": "The coding-theoretic function A(n,12,9).",
			"reference": [
				"A. E. Brouwer, J. B. Shearer, N. J. A. Sloane and W. D. Smith, New table of constant weight codes, IEEE Trans. Info. Theory 36 (1990), 1334-1380.",
				"N. J. A. Sloane and Simon Plouffe, The Encyclopedia of Integer Sequences, Academic Press, 1995 (includes this sequence)."
			],
			"link": [
				"A. E. Brouwer, \u003ca href=\"http://www.win.tue.nl/~aeb/codes/Andw.html\"\u003eBounds for binary constant weight codes\u003c/a\u003e",
				"\u003ca href=\"/index/Aa#Andw\"\u003eIndex entries for sequences related to A(n,d,w)\u003c/a\u003e"
			],
			"keyword": "nonn,hard",
			"offset": "9,7",
			"author": "_N. J. A. Sloane_.",
			"references": 0,
			"revision": 14,
			"time": "2016-08-22T17:39:44-04:00",
			"created": "1991-07-11T03:00:00-04:00"
		}
	]
}