{
	"greeting": "Greetings from The On-Line Encyclopedia of Integer Sequences! http://oeis.org/",
	"query": "id:A005218",
	"count": 1,
	"start": 0,
	"results": [
		{
			"number": 5218,
			"id": "M2369",
			"data": "0,0,1,1,3,4,11,21,55,124,327,815,2177,5712,15465,41727,114291,313504,866963,2404251,6701321,18733340,52557441,147849031,417080105,1179355476,3342487033,9492629497,27011665839,77000574224",
			"name": "Number of unlabeled reduced unit interval graphs on n nodes.",
			"reference": [
				"R. W. Robinson, personal communication.",
				"R. W. Robinson, Numerical implementation of graph counting algorithms, AGRC Grant, Math. Dept., Univ. Newcastle, Australia, 1980.",
				"N. J. A. Sloane and Simon Plouffe, The Encyclopedia of Integer Sequences, Academic Press, 1995 (includes this sequence)."
			],
			"link": [
				"R. W. Robinson, \u003ca href=\"/A005218/b005218.txt\"\u003eTable of n, a(n) for n = 1..190\u003c/a\u003e",
				"Phil Hanlon, \u003ca href=\"http://dx.doi.org/10.1090/S0002-9947-1982-0662044-8\"\u003eCounting interval graphs\u003c/a\u003e, Trans. Amer. Math. Soc. 272 (1982), no. 2, 383-426."
			],
			"formula": [
				"G.f.: -z+(1/4)(1+2z-z^2)/sqrt[(1+z^2)(1-3z^2)]-(1/4)sqrt[(1-3z)/(1+z)]. - _Emeric Deutsch_, Nov 19 2004"
			],
			"maple": [
				"G:=-z+(1+2*z-z^2)/4/sqrt((1+z^2)*(1-3*z^2))-sqrt((1-3*z)/(1+z))/4: Gser:=series(G,z=0,30): seq(coeff(Gser,z^n),n=1..28); # _Emeric Deutsch_, Nov 19 2004"
			],
			"keyword": "nonn",
			"offset": "1,5",
			"author": "_N. J. A. Sloane_.",
			"ext": [
				"More terms from _Emeric Deutsch_, Nov 19 2004"
			],
			"references": 1,
			"revision": 20,
			"time": "2018-01-10T03:15:17-05:00",
			"created": "1991-05-20T03:00:00-04:00"
		}
	]
}