{
	"greeting": "Greetings from The On-Line Encyclopedia of Integer Sequences! http://oeis.org/",
	"query": "id:A005426",
	"count": 1,
	"start": 0,
	"results": [
		{
			"number": 5426,
			"id": "M0292",
			"data": "1,1,1,2,2,3,5,11,32,163,1680",
			"name": "Number of linear geometries on n points with \u003c=3 points per line.",
			"reference": [
				"N. J. A. Sloane and Simon Plouffe, The Encyclopedia of Integer Sequences, Academic Press, 1995 (includes this sequence)."
			],
			"link": [
				"D. G. Glynn, \u003ca href=\"https://doi.org/10.1016/0097-3165(88)90027-1\"\u003eRings of geometries II\u003c/a\u003e, J. Combin. Theory, A 49 (1988), 26-66."
			],
			"keyword": "nonn,hard,nice",
			"offset": "0,4",
			"author": "_N. J. A. Sloane_, _Simon Plouffe_",
			"references": 0,
			"revision": 18,
			"time": "2019-07-13T12:00:27-04:00",
			"created": "1991-07-11T03:00:00-04:00"
		}
	]
}