{
	"greeting": "Greetings from The On-Line Encyclopedia of Integer Sequences! http://oeis.org/",
	"query": "id:A005548",
	"count": 1,
	"start": 0,
	"results": [
		{
			"number": 5548,
			"id": "M4277",
			"data": "6,72,690,6192,53946,466800,4053816,35450940,312411672,2773863060,24802293720,223203954264,2020552369164",
			"name": "Number of n-step self-avoiding walks on f.c.c. lattice from (0,0,0) to (2,2,2).",
			"reference": [
				"N. J. A. Sloane and Simon Plouffe, The Encyclopedia of Integer Sequences, Academic Press, 1995 (includes this sequence)."
			],
			"link": [
				"D. S. McKenzie, \u003ca href=\"http://dx.doi.org/10.1088/0305-4470/6/3/009\"\u003eThe end-to-end length distribution of self-avoiding walks\u003c/a\u003e, J. Phys. A 6 (1973), 338-352.",
				"\u003ca href=\"/index/Fa#fcc\"\u003eIndex entries for sequences related to f.c.c. lattice\u003c/a\u003e"
			],
			"xref": [
				"Cf. A003287, A003288, A005543, A005544, A005545, A005546, A005547."
			],
			"keyword": "nonn,walk",
			"offset": "3,1",
			"author": "_N. J. A. Sloane_",
			"ext": [
				"More terms and title improved by _Sean A. Irvine_, Feb 17 2016",
				"a(15) from _Bert Dobbelaere_, Jan 14 2019"
			],
			"references": 7,
			"revision": 24,
			"time": "2021-12-26T21:20:08-05:00",
			"created": "1991-07-11T03:00:00-04:00"
		}
	]
}