{
	"greeting": "Greetings from The On-Line Encyclopedia of Integer Sequences! http://oeis.org/",
	"query": "id:A005830",
	"count": 1,
	"start": 0,
	"results": [
		{
			"number": 5830,
			"data": "1,3,5,11,22,46,96,201,421,882,1848,3872,8113,16999,35617,74628,156367,327635,686491,1438400,3013871,6314945,13231666,27724230,58090412,121716491,255031831,534366661,1119655250",
			"name": "a(n) = floor(tau*a(n-1)) + a(n-2) where tau is the golden ratio.",
			"link": [
				"Harvey P. Dale, \u003ca href=\"/A005830/b005830.txt\"\u003eTable of n, a(n) for n = 0..1000\u003c/a\u003e",
				"Michael Albert, Vít Jelínek, Michal Opler, \u003ca href=\"https://arxiv.org/abs/1912.07713\"\u003eTwo examples of Wilf-collapse\u003c/a\u003e, arXiv:1912.07713 [math.CO], 2019."
			],
			"mathematica": [
				"RecurrenceTable[{a[0]==1,a[1]==3,a[n]==Floor[GoldenRatio*a[n-1]]+a[n-2]},a,{n,30}] (* _Harvey P. Dale_, Dec 05 2018 *)"
			],
			"xref": [
				"Cf. A001622 (tau)."
			],
			"keyword": "nonn",
			"offset": "0,2",
			"author": "_N. J. A. Sloane_",
			"references": 1,
			"revision": 18,
			"time": "2020-03-05T03:46:15-05:00",
			"created": "1991-07-11T03:00:00-04:00"
		}
	]
}