{
	"greeting": "Greetings from The On-Line Encyclopedia of Integer Sequences! http://oeis.org/",
	"query": "id:A005297",
	"count": 1,
	"start": 0,
	"results": [
		{
			"number": 5297,
			"id": "M0177",
			"data": "2,1,5,7,17,25,52,77,143,218,371,564,920,1380,2168",
			"name": "Representation degeneracies for Neveu-Schwarz strings.",
			"reference": [
				"N. J. A. Sloane and Simon Plouffe, The Encyclopedia of Integer Sequences, Academic Press, 1995 (includes this sequence)."
			],
			"link": [
				"T. L. Curtright and C. B. Thorn, \u003ca href=\"http://dx.doi.org/10.1016/0550-3213(86)90525-0\"\u003eSymmetry patterns in the mass spectra of dual string models\u003c/a\u003e, Nuclear Phys. B 274 (1986), 520-588."
			],
			"keyword": "nonn",
			"offset": "1,1",
			"author": "_N. J. A. Sloane_.",
			"references": 0,
			"revision": 9,
			"time": "2015-08-23T12:25:23-04:00",
			"created": "1991-05-20T03:00:00-04:00"
		}
	]
}