{
	"greeting": "Greetings from The On-Line Encyclopedia of Integer Sequences! http://oeis.org/",
	"query": "id:A005396",
	"count": 1,
	"start": 0,
	"results": [
		{
			"number": 5396,
			"id": "M4043",
			"data": "1,0,0,6,0,30,24,168,288,1170,2760,9504,25776,84006,244104,779970,2356800,7487310,23167656,73639326,231348000,737718534,2341772136,7498417956,23982456384,77119604400,248088123192,800978437674,2588744704560,8388692108016,27217694697000",
			"name": "Number of 2n-step polygons on honeycomb.",
			"reference": [
				"N. J. A. Sloane and Simon Plouffe, The Encyclopedia of Integer Sequences, Academic Press, 1995 (includes this sequence)."
			],
			"link": [
				"M. E. Fisher and M. F. Sykes, \u003ca href=\"http://dx.doi.org/10.1103/PhysRev.114.45\"\u003eExcluded-volume problem and the Ising model of ferromagnetism\u003c/a\u003e, Phys. Rev. 114 (1959), 45-58."
			],
			"formula": [
				"a(n) = 2 * n * A006774(n), n \u003e 1. - _Sean A. Irvine_, Aug 06 2020"
			],
			"xref": [
				"Cf. A001335."
			],
			"keyword": "nonn",
			"offset": "2,4",
			"author": "_N. J. A. Sloane_.",
			"ext": [
				"a(11)-a(21) from _Sean A. Irvine_, Jun 12 2016",
				"a(0)-a(1) inserted and more terms from _Sean A. Irvine_, Aug 06 2020"
			],
			"references": 1,
			"revision": 21,
			"time": "2020-08-07T02:11:20-04:00",
			"created": "1991-07-11T03:00:00-04:00"
		}
	]
}