{
	"greeting": "Greetings from The On-Line Encyclopedia of Integer Sequences! http://oeis.org/",
	"query": "id:A005392",
	"count": 1,
	"start": 0,
	"results": [
		{
			"number": 5392,
			"id": "M2915",
			"data": "3,12,15,-36,-138,276,4326,21204,65274,126204,204246,1267356,10235538,54791316,212311746,678889380,4946455134,20113372464",
			"name": "Coefficients of high-temperature series for specific heat of spin-1/2 Ising model on a cristobalite lattice.",
			"reference": [
				"N. J. A. Sloane and Simon Plouffe, The Encyclopedia of Integer Sequences, Academic Press, 1995 (includes this sequence)."
			],
			"link": [
				"R. W. Gibberd, \u003ca href=\"http://www.nrcresearchpress.com/doi/abs/10.1139/p70-042\"\u003eHigh-temperature specific heat series of the Ising model on the crystobalite lattice\u003c/a\u003e, Canadian J. Phys. 48 (1970) 307-312.",
				"\u003ca href=\"/index/Sp#specific_heat\"\u003eIndex entries for sequences related to specific heat\u003c/a\u003e"
			],
			"keyword": "sign,nice",
			"offset": "0,1",
			"author": "_N. J. A. Sloane_.",
			"references": 0,
			"revision": 13,
			"time": "2017-05-14T02:59:52-04:00",
			"created": "1991-07-11T03:00:00-04:00"
		}
	]
}