{
	"greeting": "Greetings from The On-Line Encyclopedia of Integer Sequences! http://oeis.org/",
	"query": "id:A005079",
	"count": 1,
	"start": 0,
	"results": [
		{
			"number": 5079,
			"data": "0,0,0,0,25,0,0,0,0,25,0,0,169,0,25,0,289,0,0,25,0,0,0,0,25,169,0,0,841,25,0,0,0,289,25,0,1369,0,169,25,1681,0,0,0,25,0,0,0,0,25,289,169,2809,0,25,0,0,841,0,25,3721,0,0,0,194,0,0,289,0,25,0,0,5329,1369,25,0,0,169,0,25,0,1681,0,0,314",
			"name": "Sum of squares of primes = 1 mod 4 dividing n.",
			"link": [
				"Antti Karttunen, \u003ca href=\"/A005079/b005079.txt\"\u003eTable of n, a(n) for n = 1..10000\u003c/a\u003e"
			],
			"formula": [
				"Additive with a(p^e) = p^2 if p = 1 (mod 4), 0 otherwise.",
				"a(n) = A005063(n) - A005083(n) - 4*A059841(n). - _Antti Karttunen_, Jul 11 2017"
			],
			"mathematica": [
				"Array[DivisorSum[#, #^2 \u0026, And[PrimeQ@ #, Mod[#, 4] == 1] \u0026] \u0026, 85] (* _Michael De Vlieger_, Jul 11 2017 *)"
			],
			"program": [
				"(Scheme) (define (A005079 n) (if (= 1 n) 0 (+ (if (= 1 (modulo (A020639 n) 4)) (A000290 (A020639 n)) 0) (A005079 (A028234 n))))) ;; _Antti Karttunen_, Jul 11 2017",
				"(PARI) a(n) = my(f=factor(n)); sum(k=1, #f~, if (((p=f[k,1])%4) == 1, p^2)); \\\\ _Michel Marcus_, Jul 11 2017"
			],
			"xref": [
				"Cf. A000290, A005063, A005078, A005080, A005081, A005083, A059841."
			],
			"keyword": "nonn",
			"offset": "1,5",
			"author": "_N. J. A. Sloane_",
			"ext": [
				"More terms from _Antti Karttunen_, Jul 11 2017"
			],
			"references": 7,
			"revision": 15,
			"time": "2017-07-12T05:26:05-04:00",
			"created": "1998-06-14T03:00:00-04:00"
		}
	]
}