{
	"greeting": "Greetings from The On-Line Encyclopedia of Integer Sequences! http://oeis.org/",
	"query": "id:A006310",
	"count": 1,
	"start": 0,
	"results": [
		{
			"number": 6310,
			"id": "M5366",
			"data": "-1,-1,97,-243,12167,577,221874931,157112485811,-2480435158303,310695313260929,-51140551819476687829,2727257042363914863401,-2572343484535669027372727,1052824394331287344099620777449",
			"name": "a(n) = norm of Heilbronn sum NH_{p}, with p = prime(n).",
			"comment": [
				"Also, coefficients of period polynomials."
			],
			"reference": [
				"D. H. and Emma Lehmer, Cyclotomy for nonsquarefree moduli, pp. 276-300 of Analytic Number Theory (Philadelphia 1980), Lect. Notes Math. 899 (1981).",
				"N. J. A. Sloane and Simon Plouffe, The Encyclopedia of Integer Sequences, Academic Press, 1995 (includes this sequence)."
			],
			"link": [
				"Sean A. Irvine, \u003ca href=\"/A006310/b006310.txt\"\u003eTable of n, a(n) for n = 1..61\u003c/a\u003e",
				"W. L. Fouché, \u003ca href=\"http://dx.doi.org/10.1016/0022-314X(84)90088-X\"\u003eArithmetic properties of Heilbronn sums\u003c/a\u003e, J. Number Theory, 19 (1984), 1-6.",
				"Ken Yamamura, \u003ca href=\"http://dx.doi.org/10.3792/pjaa.71.22\"\u003eA table of absolute norms of Heilbronn sums\u003c/a\u003e, Proc. Japan Acad. Ser. A Math. Sci., Volume 71, Number 1 (1995), 22-23."
			],
			"keyword": "sign",
			"offset": "1,3",
			"author": "_N. J. A. Sloane_",
			"ext": [
				"Entry revised by _N. J. A. Sloane_, Aug 10 2003",
				"Name corrected by _Michel Marcus_, Mar 26 2015"
			],
			"references": 1,
			"revision": 26,
			"time": "2017-03-06T03:30:26-05:00",
			"created": "1991-07-11T03:00:00-04:00"
		}
	]
}