{
	"greeting": "Greetings from The On-Line Encyclopedia of Integer Sequences! http://oeis.org/",
	"query": "id:A006414",
	"count": 1,
	"start": 0,
	"results": [
		{
			"number": 6414,
			"id": "M4621",
			"data": "1,9,40,125,315,686,1344,2430,4125,6655,10296,15379,22295,31500,43520,58956,78489,102885,133000,169785,214291,267674,331200,406250,494325,597051,716184,853615,1011375,1191640,1396736,1629144,1891505,2186625,2517480,2887221",
			"name": "Number of nonseparable toroidal tree-rooted maps with n + 2 edges and n + 1 vertices.",
			"comment": [
				"The number of faces is 1.",
				"a(n) = K(Oa(2,3,n)), Kekulé numbers of certain benzenoid structures (see the Cyvin - Gutman reference).",
				"Sequence of partial sums of A006322. - _L. Edson Jeffery_, Dec 13 2011",
				"The sequence b(n) = a(n-2) with a(-1) = 0, for n \u003e= 1, is b(n) = n^3*(n^2 - 1)/4!. It is obtained by comparing the result for the powers n^5 from Worpitzky's identity (see a formula in A000584) with the result obtained from the counting of degrees of freedom for the decomposition of a rank 5 tensor in n dimensions via the standard Young tableaux version with 5 boxes corresponding to the seven partitions of 5. The difference of the two versions gives: 10*(binomial(n+3, 5) + 3*binomial(n+2, 5) + binomial(n+1, 5)) = 5*n*(binomial(n+2, 4) + binomial(n+1, 4)) = 10*b(n). See the formula for a(n) below. - _Wolfdieter Lang_, Jul 18 2019"
			],
			"reference": [
				"S. J. Cyvin and I. Gutman, Kekulé structures in benzenoid hydrocarbons, Lecture Notes in Chemistry, No. 46, Springer, New York, 1988, p. 105, eq. (ii), and p. 186.",
				"N. J. A. Sloane and Simon Plouffe, The Encyclopedia of Integer Sequences, Academic Press, 1995 (includes this sequence)."
			],
			"link": [
				"Vincenzo Librandi, \u003ca href=\"/A006414/b006414.txt\"\u003eTable of n, a(n) for n = 0..10000\u003c/a\u003e",
				"T. R. S. Walsh and A. B. Lehman, \u003ca href=\"http://dx.doi.org/10.1016/0095-8956(75)90050-7\"\u003eCounting rooted maps by genus. III: Nonseparable maps\u003c/a\u003e, J. Combinatorial Theory Ser. B, Vol. 18, No. 3 (1975), pp. 222-259.",
				"\u003ca href=\"/index/Rec#order_06\"\u003eIndex entries for linear recurrences with constant coefficients\u003c/a\u003e, signature (6,-15,20,-15,6,-1)."
			],
			"formula": [
				"a(n) = (n+1)*(n+2)^3*(n+3)/24. - _N. J. A. Sloane_, Apr 02 2004",
				"a(n) = (n+2)^3*((n+2)^2 - 1)/24. - _Paul Richards_, Mar 04 2007",
				"G.f.: (1 + 3*x + x^2)/(1-x)^6. - _Colin Barker_, Feb 21 2012",
				"a(n) = (Sum_{k=0..n+1} k*(n+1)*((n+1)^2 - k^2))/6 for n \u003e 0, which is the sum of all areas of Pythagorean triangles with arms 2*k*(n+1) and (n+1)^2 - k^2 with hypotenuse k^2 + (n+1)^2. - _J. M. Bergot_, May 12 2014",
				"a(n) = A143945(n+2)/8. - _J. M. Bergot_, Jun 14 2014",
				"Sum_{n\u003e=0} 1/a(n) = 30 - 24*zeta(3). - _Jaume Oliver Lafont_, Jul 09 2017",
				"a(n) = binomial(n+5, 5) + 3*binomial(n+4, 5) + binomial(n+3, 5) = ((n+2)/2)*(binomial(n+4, 4) + binomial(n+3, 4)), for n \u003e= 0. See a comment above on the sequence b(n) = a(n-2) = n^3*(n^2 - 1)/4!. - _Wolfdieter Lang_, Jul 19 2019",
				"E.g.f.: (24 + 192*x + 276*x^2 + 124*x^3 + 20*x^4 + x^5)*exp(x)/4!. - _G. C. Greubel_, Sep 02 2019",
				"Sum_{n\u003e=0} (-1)^n/a(n) = 18*zeta(3) + 48*log(2) - 54. - _Amiram Eldar_, Jan 09 2022"
			],
			"maple": [
				"seq((n+2)^2*binomial(n+3,3)/4, n=0..40); # _G. C. Greubel_, Sep 02 2019"
			],
			"mathematica": [
				"Table[(n + 1)*(n + 2)^3*(n + 3)/24, {n, 0, 40}] (* _Vladimir Joseph Stephan Orlovsky_, Apr 18 2011 *)"
			],
			"program": [
				"(MAGMA) [(n+1)*(n+2)^3*(n+3)/24: n in [0..40]]; // _Wesley Ivan Hurt_, May 10 2014",
				"(PARI) a(n) = (n+1)*(n+2)^3*(n+3)/24; \\\\ _Michel Marcus_, Jul 09 2017",
				"(Sage) [(n+2)^2*binomial(n+3,3)/4 for n in (0..40)] # _G. C. Greubel_, Sep 02 2019",
				"(GAP) List([0..40], n-\u003e (n+2)^2*Binomial(n+3,3)/4 ); _G. C. Greubel_, Sep 02 2019"
			],
			"xref": [
				"Differences of A006542 (C(n, 3)*C(n-1, 3)/4).",
				"Cf. A004068, A005891, A006322, A006415, A006434, A006441, A133754, A143945."
			],
			"keyword": "nonn,easy,changed",
			"offset": "0,2",
			"author": "_N. J. A. Sloane_",
			"ext": [
				"More terms from Robert Newstedt (Patternfinder(AT)webtv.net)",
				"Name clarified by _Andrew Howroyd_, Apr 05 2021"
			],
			"references": 13,
			"revision": 88,
			"time": "2022-01-09T03:19:27-05:00",
			"created": "1991-07-11T03:00:00-04:00"
		}
	]
}