{
	"greeting": "Greetings from The On-Line Encyclopedia of Integer Sequences! http://oeis.org/",
	"query": "id:A006377",
	"count": 1,
	"start": 0,
	"results": [
		{
			"number": 6377,
			"id": "M4501",
			"data": "8,28,32,56,64,68,72,92",
			"name": "Determinants of indecomposable indefinite ternary quadratic forms.",
			"reference": [
				"J. H. Conway and N. J. A. Sloane, \"Sphere Packings, Lattices and Groups\", Springer-Verlag, p. 399.",
				"N. J. A. Sloane and Simon Plouffe, The Encyclopedia of Integer Sequences, Academic Press, 1995 (includes this sequence)."
			],
			"link": [
				"A. Schiemann, \u003ca href=\"http://www.math.rwth-aachen.de/~Gabriele.Nebe/LATTICES/index.html#cryst\"\u003eBrandt-Intrau tables recomputed\u003c/a\u003e"
			],
			"xref": [
				"Cf. A006377, A071136."
			],
			"keyword": "nonn,nice",
			"offset": "1,1",
			"author": "_N. J. A. Sloane_",
			"references": 3,
			"revision": 13,
			"time": "2015-06-14T21:15:40-04:00",
			"created": "1991-07-11T03:00:00-04:00"
		}
	]
}