{
	"greeting": "Greetings from The On-Line Encyclopedia of Integer Sequences! http://oeis.org/",
	"query": "id:A006142",
	"count": 1,
	"start": 0,
	"results": [
		{
			"number": 6142,
			"id": "M4355",
			"data": "0,0,0,0,0,1,0,1,7,17,30,49,124,321,761,1721,3815",
			"name": "Number of certain self-avoiding walks with n steps on square lattice (see reference for precise definition).",
			"reference": [
				"N. J. A. Sloane and Simon Plouffe, The Encyclopedia of Integer Sequences, Academic Press, 1995 (includes this sequence)."
			],
			"link": [
				"W. A. Beyer and M. B. Wells, \u003ca href=\"http://dx.doi.org/10.1016/0097-3165(72)90024-6\"\u003eLower bound for the connective constant of a self-avoiding walk on a square lattice\u003c/a\u003e, J. Combin. Theory, A 13 (1972), 176-182, Table I."
			],
			"xref": [
				"Cf. A002976."
			],
			"keyword": "nonn,walk",
			"offset": "4,9",
			"author": "_N. J. A. Sloane_",
			"references": 1,
			"revision": 14,
			"time": "2018-12-27T07:57:34-05:00",
			"created": "1991-07-11T03:00:00-04:00"
		}
	]
}