{
	"greeting": "Greetings from The On-Line Encyclopedia of Integer Sequences! http://oeis.org/",
	"query": "id:A006901",
	"count": 1,
	"start": 0,
	"results": [
		{
			"number": 6901,
			"id": "M1213",
			"data": "1,2,4,10,25,76,251,968",
			"name": "Number of caskets of order n.",
			"reference": [
				"N. J. A. Sloane and Simon Plouffe, The Encyclopedia of Integer Sequences, Academic Press, 1995 (includes this sequence)."
			],
			"link": [
				"J.-M. Boe, \u003ca href=\"http://dx.doi.org/10.1016/0304-3975(91)90313-Q\"\u003eLes boites\u003c/a\u003e, Theoretical Computer Sci., 81 (1991), 17-34."
			],
			"xref": [
				"Cf. A260019."
			],
			"keyword": "nonn,more",
			"offset": "1,2",
			"author": "_Simon Plouffe_ and _N. J. A. Sloane_.",
			"references": 1,
			"revision": 15,
			"time": "2015-07-14T03:12:44-04:00",
			"created": "1994-04-28T03:00:00-04:00"
		}
	]
}