{
	"greeting": "Greetings from The On-Line Encyclopedia of Integer Sequences! http://oeis.org/",
	"query": "id:A006234",
	"count": 1,
	"start": 0,
	"results": [
		{
			"number": 6234,
			"id": "M3496",
			"data": "1,4,15,54,189,648,2187,7290,24057,78732,255879,826686,2657205,8503056,27103491,86093442,272629233,860934420,2711943423,8523250758,26732013741,83682825624,261508830075,815907549834,2541865828329",
			"name": "a(n) = n*3^(n-4).",
			"comment": [
				"For n \u003e= 1 a(n) is also the determinant of the n-3 X n-3 matrix with 4's on the diagonal and 1's elsewhere. - Ahmed Fares (ahmedfares(AT)my-deja.com), May 06 2001",
				"a(n+3)=det(M(n)) where M(n) is the n X n matrix with m(i,i)=4, m(i,j)=i/j for i != j. - _Benoit Cloitre_, Feb 01 2003",
				"Main diagonal of array defined by m(1,j)=j; m(i,1)=i and m(i,j)=m(i-1,j)+2*m(i-1,j-1) - _Benoit Cloitre_, Jun 13 2003",
				"a(n+3) is the number of words of length n on {A, B, C, D} with no D appearing anywhere to the right of an A. - _Rob Pratt_, Aug 04 2004",
				"Number of spanning trees in the book graph of order n-2, i.e., S_{n-2} X P_2 (S_k = the star graph on k nodes) (conjectured). This conjecture is true - see Doslic (2013). - _N. J. A. Sloane_, Dec 28 2013",
				"a(n+3) = sum of the n-th row of A112626. - _Ross La Haye_, Jan 11 2006",
				"Conjecture: a(n+2) is the total number of parts used in the compositions of n if the parts can be runs of any length from 1 to n, and contain any integers from 1 to n. (The number of such compositions is given by A000244(n-1).) - _Gregory L. Simay_, May 27 2017"
			],
			"reference": [
				"N. J. A. Sloane and Simon Plouffe, The Encyclopedia of Integer Sequences, Academic Press, 1995 (includes this sequence)."
			],
			"link": [
				"Vincenzo Librandi, \u003ca href=\"/A006234/b006234.txt\"\u003eTable of n, a(n) for n = 3..1000\u003c/a\u003e",
				"Tomislav Doslic, \u003ca href=\"http://dx.doi.org/10.1007/s10910-013-0167-2\"\u003ePlanar polycyclic graphs and their Tutte polynomials\u003c/a\u003e, Journal of Mathematical Chemistry, Volume 51, Issue 6, 2013, pp. 1599-1607.",
				"Guillermo Esteban, Clemens Huemer, and Rodrigo I. Silveira, \u003ca href=\"https://arxiv.org/abs/2003.00524\"\u003eNew production matrices for geometric graphs\u003c/a\u003e, arXiv:2003.00524 [math.CO], 2020.",
				"Germain Kreweras, \u003ca href=\"http://dx.doi.org/10.1016/0095-8956(78)90021-7\"\u003eComplexité et circuits Eulériens dans les sommes tensorielles de graphes\u003c/a\u003e, J. Combin. Theory, B 24 (1978), 202-212.",
				"Simon Plouffe, \u003ca href=\"https://arxiv.org/abs/0911.4975\"\u003eApproximations de séries génératrices et quelques conjectures\u003c/a\u003e, Dissertation, Université du Québec à Montréal, 1992.",
				"Simon Plouffe, \u003ca href=\"/A000051/a000051_2.pdf\"\u003e1031 Generating Functions\u003c/a\u003e, Appendix to Thesis, Montreal, 1992",
				"Eric Weisstein's World of Mathematics, \u003ca href=\"http://mathworld.wolfram.com/BookGraph.html\"\u003eBook Graph\u003c/a\u003e.",
				"Eric Weisstein's World of Mathematics, \u003ca href=\"http://mathworld.wolfram.com/SpanningTree.html\"\u003eSpanning Tree\u003c/a\u003e.",
				"\u003ca href=\"/index/Rec#order_02\"\u003eIndex entries for linear recurrences with constant coefficients\u003c/a\u003e, signature (6,-9)."
			],
			"formula": [
				"G.f.: (1-2x)/(1-3x)^2 - _Simon Plouffe_ in his 1992 dissertation.",
				"G.f.: 2F1(1,4;3;3x). - _R. J. Mathar_, Aug 09 2015",
				"From _Amiram Eldar_, Jan 18 2021: (Start)",
				"Sum_{n\u003e=1} 1/a(n) = 81*log(3/2).",
				"Sum_{n\u003e=1} (-1)^(n+1)/a(n) = 81*log(4/3). (End)"
			],
			"example": [
				"For n=3, the total number of parts is (3+2)3^(3+2-4)=(5)(3)=15 (each part indicated by \"[]\"): [3]; [2,1]; [1,2]; [2],[1]; [1],[2]; [1,1,1]; [1,1],[1]; [1],[1,1]; [1],[1],[1]. Note that these 15 parts are arranged into 9 = A000244(3-1)compositions. - _Gregory L. Simay_, May 27 2017"
			],
			"mathematica": [
				"Table[n 3^(n - 4), {n, 3, 27}] (* or *)",
				"CoefficientList[Series[(1 - 2 x)/(1 - 3 x)^2, {x, 0, 24}], x] (* _Michael De Vlieger_, May 28 2017 *)",
				"LinearRecurrence[{6,-9},{1,4},30] (* _Harvey P. Dale_, Aug 17 2020 *)"
			],
			"program": [
				"(MAGMA) [ n*3^(n-4): n in [3..30] ]; // _Vincenzo Librandi_, Aug 19 2011",
				"(PARI) a(n)=n*3^(n-4) \\\\ _Charles R Greathouse IV_, Sep 24 2015"
			],
			"xref": [
				"Binomial transform of A001792.",
				"Cf. A036290, A050914, A000244."
			],
			"keyword": "nonn,easy",
			"offset": "3,2",
			"author": "_N. J. A. Sloane_",
			"references": 29,
			"revision": 81,
			"time": "2021-12-26T21:32:18-05:00",
			"created": "1991-07-11T03:00:00-04:00"
		}
	]
}