{
	"greeting": "Greetings from The On-Line Encyclopedia of Integer Sequences! http://oeis.org/",
	"query": "id:A006929",
	"count": 1,
	"start": 0,
	"results": [
		{
			"number": 6929,
			"id": "M0388",
			"data": "1,1,1,2,2,15,39,449,2758",
			"name": "From analyzing an algorithm.",
			"comment": [
				"It would be nice to have a better description. - _N. J. A. Sloane_."
			],
			"reference": [
				"N. J. A. Sloane and Simon Plouffe, The Encyclopedia of Integer Sequences, Academic Press, 1995 (includes this sequence)."
			],
			"keyword": "nonn",
			"offset": "1,4",
			"author": "_N. J. A. Sloane_, S. K. Bhaskar [ bhaskar(AT)umd5.umd.edu ]",
			"references": 0,
			"revision": 8,
			"time": "2012-03-30T16:45:05-04:00",
			"created": "1994-04-28T03:00:00-04:00"
		}
	]
}