{
	"greeting": "Greetings from The On-Line Encyclopedia of Integer Sequences! http://oeis.org/",
	"query": "id:A006397",
	"count": 1,
	"start": 0,
	"results": [
		{
			"number": 6397,
			"id": "M1236",
			"data": "1,2,4,10,34,114,475,2104,10177,52012,279874",
			"name": "Number of unsensed planar maps with n edges and without faces or vertices of degree 1.",
			"reference": [
				"N. J. A. Sloane and Simon Plouffe, The Encyclopedia of Integer Sequences, Academic Press, 1995 (includes this sequence)."
			],
			"link": [
				"Timothy R. Walsh, \u003ca href=\"http://dx.doi.org/10.1137/0604018\"\u003eGenerating nonisomorphic maps without storing them\u003c/a\u003e, SIAM J. Algebraic Discrete Methods 4 (1983), no. 2, 161-178."
			],
			"keyword": "nonn",
			"offset": "2,2",
			"author": "_N. J. A. Sloane_",
			"ext": [
				"a(9)-a(12) from _Sean A. Irvine_, Mar 28 2017"
			],
			"references": 0,
			"revision": 16,
			"time": "2017-03-29T03:13:01-04:00",
			"created": "1991-07-11T03:00:00-04:00"
		}
	]
}