{
	"greeting": "Greetings from The On-Line Encyclopedia of Integer Sequences! http://oeis.org/",
	"query": "id:A006270",
	"count": 1,
	"start": 0,
	"results": [
		{
			"number": 6270,
			"id": "M3170",
			"data": "1,3,72,439128,84722519069640072,608130213374088941214747405817720857404971722895128",
			"name": "Denominators of a continued fraction for (1 + sqrt(5))/2.",
			"reference": [
				"N. J. A. Sloane and Simon Plouffe, The Encyclopedia of Integer Sequences, Academic Press, 1995 (includes this sequence)."
			],
			"link": [
				"Jeffrey Shallit, \u003ca href=\"http://archive.org/details/jresv80Bn2p285\"\u003ePredictable regular continued cotangent expansions\u003c/a\u003e, J. Res. Nat. Bur. Standards Sect. B 80B (1976), no. 2, 285-290."
			],
			"xref": [
				"For numerators see A002814."
			],
			"keyword": "nonn",
			"offset": "0,2",
			"author": "_N. J. A. Sloane_.",
			"references": 0,
			"revision": 11,
			"time": "2013-04-28T17:56:56-04:00",
			"created": "1991-07-11T03:00:00-04:00"
		}
	]
}