{
	"greeting": "Greetings from The On-Line Encyclopedia of Integer Sequences! http://oeis.org/",
	"query": "id:A006320",
	"count": 1,
	"start": 0,
	"results": [
		{
			"number": 6320,
			"id": "M4200",
			"data": "1,6,30,146,714,3534,17718,89898,461010,2386390,12455118,65478978,346448538,1843520670,9859734630,52974158938,285791932578,1547585781414,8408765223294",
			"name": "Royal paths in a lattice.",
			"reference": [
				"N. J. A. Sloane and Simon Plouffe, The Encyclopedia of Integer Sequences, Academic Press, 1995 (includes this sequence)."
			],
			"link": [
				"Vincenzo Librandi, \u003ca href=\"/A006320/b006320.txt\"\u003eTable of n, a(n) for n = 0..200\u003c/a\u003e",
				"G. Kreweras, \u003ca href=\"http://www.numdam.org/item?id=BURO_1973__20__3_0\"\u003eSur les hiérarchies de segments\u003c/a\u003e, Cahiers du Bureau Universitaire de Recherche Opérationnelle, Institut de Statistique, Université de Paris, #20 (1973).",
				"G. Kreweras, \u003ca href=\"/A001844/a001844.pdf\"\u003eSur les hiérarchies de segments\u003c/a\u003e, Cahiers du Bureau Universitaire de Recherche Opérationnelle, Institut de Statistique, Université de Paris, #20 (1973). (Annotated scanned copy)",
				"S.-n. Zheng and S.-l. Yang, \u003ca href=\"http://dx.doi.org/10.1155/2014/848374\"\u003eOn the-Shifted Central Coefficients of Riordan Matrices\u003c/a\u003e, Journal of Applied Mathematics, Volume 2014, Article ID 848374, 8 pages."
			],
			"formula": [
				"3-fold convolution of the large Schroeder numbers (A006318). G.f.=R^3, where R=[1-z-sqrt(1-6z+z^2)]/(2z) is the g.f. of A006318. - _Emeric Deutsch_, Mar 15 2004",
				"a(n) = (3/n)*sum(binomial(n, j)*binomial(n+2+j, n-1), j=0..n) (n\u003e0). - _Emeric Deutsch_, Aug 19 2004",
				"Recurrence: (n+3)*(5*n-1)*a(n) = 2*(15*n^2+20*n+13)*a(n-1) - (5*n^2+5*n-24)*a(n-2) + (n-3)*a(n-3). - _Vaclav Kotesovec_, Oct 05 2012",
				"a(n) ~ 3 * (1 + sqrt(2))^(2*n+3) / (2^(3/4) * sqrt(Pi) * n^(3/2)). - _Vaclav Kotesovec_, Oct 05 2012, simplified Dec 24 2017"
			],
			"maple": [
				"1,seq(3*sum(binomial(n,j)*binomial(n+2+j,n-1),j=0..n)/n,n=1..18);"
			],
			"mathematica": [
				"Table[SeriesCoefficient[(1-x-Sqrt[1-6*x+x^2])^3/(8*x^3),{x,0,n}],{n,0,20}] (* _Vaclav Kotesovec_, Oct 05 2012 *)"
			],
			"xref": [
				"Third diagonal of A033877.",
				"Cf. A006318."
			],
			"keyword": "nonn",
			"offset": "0,2",
			"author": "_N. J. A. Sloane_",
			"references": 5,
			"revision": 36,
			"time": "2017-12-24T09:53:07-05:00",
			"created": "1991-07-11T03:00:00-04:00"
		}
	]
}