{
	"greeting": "Greetings from The On-Line Encyclopedia of Integer Sequences! http://oeis.org/",
	"query": "id:A006664",
	"count": 1,
	"start": 0,
	"results": [
		{
			"number": 6664,
			"id": "M1871",
			"data": "1,1,2,8,46,322,2546,21870,199494,1904624,18846714,191955370,2002141126,21303422480,230553207346,2531848587534,28159614749270,316713536035464,3597509926531778,41225699113145888,476180721050626814,5539597373695447322,64863295574835126394,763984568163192551672,9047263176444565467566",
			"name": "Number of irreducible systems of meanders.",
			"reference": [
				"V. I. Arnol'd, A branched covering of CP^2-\u003eS^4, hyperbolicity and projective topology [ Russian ], Sibir. Mat. Zhurn., 29 (No. 2, 1988), 36-47 = Siberian Math. J., 29 (1988), 717-725.",
				"S. K. Lando and A. K. Zvonkin \"Plane and projective meanders\", Séries Formelles et Combinatoire Algébrique. Laboratoire Bordelais de Recherche Informatique, Université Bordeaux I, 1991, pp. 287-303.",
				"S. K. Lando and A. K. Zvonkin, \"Meanders\", Selecta Mathematica Sovietica Vol. 11, Number 2, pp. 117-144, 1992.",
				"N. J. A. Sloane and Simon Plouffe, The Encyclopedia of Integer Sequences, Academic Press, 1995 (includes this sequence)."
			],
			"link": [
				"Motohisa Fukuda, Ion Nechita, \u003ca href=\"https://arxiv.org/abs/1609.02756\"\u003eEnumerating meandric systems with large number of components\u003c/a\u003e, arXiv preprint arXiv:1609.02756 [math.CO], 2016.",
				"S. K. Lando and A. K. Zvonkin , \u003ca href=\"/A005316/a005316_1.pdf\"\u003ePlane and projective meanders\u003c/a\u003e, Séries Formelles et Combinatoire Algébrique. Laboratoire Bordelais de Recherche Informatique, Université Bordeaux I, 1991, pp. 287-303. (Annotated scanned copy)",
				"S. K. Lando and A. K. Zvonkin, \u003ca href=\"https://doi.org/10.1016/0304-3975(93)90316-L\"\u003ePlane and projective meanders\u003c/a\u003e, Theoretical Computer Science Vol. 117, pp. 227-241, 1993."
			],
			"formula": [
				"A(x^2) = S(x^2)#inv(x*S(x^2)) where # is functional composition, S(x) is g.f. of A001246 (squares of Catalan numbers) and inv(.) is functional inverse. A(x) consists of even-numbered terms of A(x^2), odd terms of which are 0. - Doug McIlroy (doug(AT)cs.dartmouth.edu), Mar 22 2006"
			],
			"mathematica": [
				"terms = 25;",
				"S[x_] = Sum[CatalanNumber[k]^2 x^k, {k, 0, 2 terms}];",
				"inv = InverseSeries[x S[x^2] + O[x]^(2 terms), x] // Normal;",
				"(S[x^2] /. x -\u003e inv) + O[x]^(2 terms) // CoefficientList[#, x]\u0026 // DeleteCases[#, 0]\u0026 (* _Jean-François Alcover_, Sep 04 2018 *)"
			],
			"keyword": "nonn,nice",
			"offset": "0,3",
			"author": "_N. J. A. Sloane_, _Simon Plouffe_",
			"ext": [
				"More terms from Doug McIlroy (doug(AT)cs.dartmouth.edu), Mar 22 2006"
			],
			"references": 3,
			"revision": 34,
			"time": "2018-09-04T08:32:14-04:00",
			"created": "1991-07-11T03:00:00-04:00"
		}
	]
}