{
	"greeting": "Greetings from The On-Line Encyclopedia of Integer Sequences! http://oeis.org/",
	"query": "id:A006865",
	"count": 1,
	"start": 0,
	"results": [
		{
			"number": 6865,
			"id": "M4946",
			"data": "1,14,154,1696,18684,205832,2267544,24980352,275195536,3031685984,33398506528,367933962880,4053336963648,44653503613184,491924407670784,5419275158305920,59701333748591488,657698520049847936,7245522270864939136,79820147647011513472",
			"name": "Number of Hamiltonian cycles in P_5 X P_{2n}: a(n) = 11a(n-1)+2a(n-3).",
			"reference": [
				"F. Faase, On the number of specific spanning subgraphs of the graphs G X P_n, Ars Combin. 49 (1998), 129-154.",
				"Kwong, Y. H. H.; Enumeration of Hamiltonian cycles in P_4 X P_n and P_5 X P_n. Ars Combin. 33 (1992), 87-96.",
				"Kwong, Y. H. H.; A Matrix Method for Counting Hamiltonian Cycles on Grid Graphs, European J. of Combinatorics 15 (1994), 277-283.",
				"N. J. A. Sloane and Simon Plouffe, The Encyclopedia of Integer Sequences, Academic Press, 1995 (includes this sequence)."
			],
			"link": [
				"Harvey P. Dale, \u003ca href=\"/A006865/b006865.txt\"\u003eTable of n, a(n) for n = 1..960\u003c/a\u003e",
				"F. Faase, \u003ca href=\"http://www.iwriteiam.nl/Cpaper.zip\"\u003eOn the number of specific spanning subgraphs of the graphs G X P_n\u003c/a\u003e, Preliminary version of paper that appeared in Ars Combin. 49 (1998), 129-154.",
				"F. Faase, \u003ca href=\"http://www.iwriteiam.nl/counting.html\"\u003eCounting Hamiltonian cycles in product graphs\u003c/a\u003e",
				"F. Faase, \u003ca href=\"http://www.iwriteiam.nl/Cresults.html\"\u003eResults from the counting program\u003c/a\u003e",
				"\u003ca href=\"/index/Rec\"\u003eIndex entries for linear recurrences with constant coefficients\u003c/a\u003e, signature (11,0,2)."
			],
			"formula": [
				"G.f.: x*(1+3*x)/(1-11*x-2*x^3). [_Colin Barker_, Aug 29 2012]"
			],
			"mathematica": [
				"LinearRecurrence[{11,0,2},{1,14,154},20] (* _Harvey P. Dale_, Aug 21 2013 *)"
			],
			"keyword": "nonn,easy",
			"offset": "1,2",
			"author": "_N. J. A. Sloane_, kwong(AT)cs.fredonia.edu (Harris Kwong), _Frans J. Faase_",
			"ext": [
				"More terms from _Harvey P. Dale_, Aug 21 2013"
			],
			"references": 5,
			"revision": 20,
			"time": "2019-01-01T06:31:05-05:00",
			"created": "1994-04-28T03:00:00-04:00"
		}
	]
}