{
	"greeting": "Greetings from The On-Line Encyclopedia of Integer Sequences! http://oeis.org/",
	"query": "id:A006737",
	"count": 1,
	"start": 0,
	"results": [
		{
			"number": 6737,
			"id": "M4275",
			"data": "0,6,68,442,2218,9528,36834,131856,445000,1433294,4444006,13349510,39041224,111583236,312618368,860662498,2333112020,6238124024,16474149036,43023953304,111230237224,284926172100,723731637254",
			"name": "Series for second parallel moment of hexagonal lattice.",
			"comment": [
				"The hexagonal lattice is the familiar 2-dimensional lattice in which each point has 6 neighbors. This is sometimes called the triangular lattice."
			],
			"reference": [
				"N. J. A. Sloane and Simon Plouffe, The Encyclopedia of Integer Sequences, Academic Press, 1995 (includes this sequence)."
			],
			"link": [
				"I. Jensen, \u003ca href=\"/A006737/b006737.txt\"\u003eTable of n, a(n) for n = 0..90\u003c/a\u003e (from link below)",
				"I. G. Enting, A, J. Guttmann and I. Jensen, \u003ca href=\"https://arxiv.org/abs/hep-lat/9410005\"\u003eLow-Temperature Series Expansions for the Spin-1 Ising Model\u003c/a\u003e, arXiv:hep-lat/9410005, 1994; J. Phys. A. 27 (1994) 6987-7006.",
				"J. W. Essam, A. J. Guttmann and K. De'Bell, \u003ca href=\"https://doi.org/10.1088/0305-4470/21/19/018\"\u003eOn two-dimensional directed percolation\u003c/a\u003e, J. Phys. A 21 (1988), 3815-3832.",
				"I. Jensen, \u003ca href=\"https://researchers.ms.unimelb.edu.au/~ij@unimelb/dirperc/series/triabond_t2.ser\"\u003eMore terms\u003c/a\u003e",
				"Iwan Jensen, Anthony J. Guttmann, \u003ca href=\"https://arxiv.org/abs/cond-mat/9509121\"\u003eSeries expansions of the percolation probability for directed square and honeycomb lattices\u003c/a\u003e, arXiv:cond-mat/9509121, 1995; J. Phys. A 28 (1995), no. 17, 4813-4833.",
				"G. Nebe and N. J. A. Sloane, \u003ca href=\"http://www.math.rwth-aachen.de/~Gabriele.Nebe/LATTICES/A2.html\"\u003eHome page for hexagonal (or triangular) lattice A2\u003c/a\u003e"
			],
			"xref": [
				"Cf. A006803, A006809, A006736, A006738."
			],
			"keyword": "nonn",
			"offset": "0,2",
			"author": "_N. J. A. Sloane_, _Simon Plouffe_",
			"references": 3,
			"revision": 22,
			"time": "2019-10-04T07:41:08-04:00",
			"created": "1991-07-25T03:00:00-04:00"
		}
	]
}