{
	"greeting": "Greetings from The On-Line Encyclopedia of Integer Sequences! http://oeis.org/",
	"query": "id:A006650",
	"count": 1,
	"start": 0,
	"results": [
		{
			"number": 6650,
			"id": "M3903",
			"data": "1,5,20,73,271,974,3507,12487,44475,157814,559952,1985053,7040855,24986930,88782435,315911844,1126178655,4023135764,14406870196,51728509807,186275015554,672886200335",
			"name": "Number of graphs with n nodes, n+1 edges and no isolated vertices.",
			"reference": [
				"W. L. Kocay, Some new methods in reconstruction theory, pp. 89 - 114 of Combinatorial Mathematics IX. Proc. Ninth Australian Conference (Brisbane, August 1981). Ed. E. J. Billington, S. Oates-Williams and A. P. Street. Lecture Notes Math., 952. Springer-Verlag, 1982.",
				"N. J. A. Sloane and Simon Plouffe, The Encyclopedia of Integer Sequences, Academic Press, 1995 (includes this sequence)."
			],
			"xref": [
				"Cf. A048179, A048180."
			],
			"keyword": "nonn",
			"offset": "4,2",
			"author": "_N. J. A. Sloane_.",
			"ext": [
				"More terms from _Vladeta Jovovic_, Mar 02 2008"
			],
			"references": 1,
			"revision": 10,
			"time": "2013-05-10T12:43:49-04:00",
			"created": "1991-07-11T03:00:00-04:00"
		}
	]
}