{
	"greeting": "Greetings from The On-Line Encyclopedia of Integer Sequences! http://oeis.org/",
	"query": "id:A007638",
	"count": 1,
	"start": 0,
	"results": [
		{
			"number": 7638,
			"id": "M5129",
			"data": "23,24,28,31,39,44,45,46,47,50,52,56,57,60,63,67,69,70,71,79,80,85,86,88,89,90,92,93,96,97,102,107,108,112,115,116,118,119,121,122,123,126,128,131,134,137,138,139,143,144,145,147,148,151,153,156,157,161,162",
			"name": "Numbers k such that 3*k^2 - 3*k + 23 is composite.",
			"reference": [
				"N. J. A. Sloane and Simon Plouffe, The Encyclopedia of Integer Sequences, Academic Press, 1995 (includes this sequence)."
			],
			"link": [
				"Vincenzo Librandi, \u003ca href=\"/A007638/b007638.txt\"\u003eTable of n, a(n) for n = 1..3100\u003c/a\u003e",
				"H. Dubner, \u003ca href=\"/A005849/a005849.pdf\"\u003eGeneralized Cullen numbers\u003c/a\u003e, J. Rec. Math., 21 (No. 3, 1989), 190-191. (Annotated scanned copy)"
			],
			"mathematica": [
				"Select[Range[200], !PrimeQ[3 #^2 - 3 # + 23] \u0026] (* _Vincenzo Librandi_, Jun 08 2017 *)"
			],
			"program": [
				"(PARI) is(n)=!isprime(3*n^2 - 3*n + 23) \\\\ _Charles R Greathouse IV_, Oct 23 2015",
				"(MAGMA) [n: n in [0..200]| not IsPrime(3*n^2-3*n+23)]; // _Vincenzo Librandi_, Jun 08 2017"
			],
			"keyword": "nonn,easy",
			"offset": "1,1",
			"author": "_N. J. A. Sloane_, _Mira Bernstein_, _Robert G. Wilson v_",
			"references": 1,
			"revision": 22,
			"time": "2017-10-16T01:58:54-04:00",
			"created": "1994-09-19T03:00:00-04:00"
		}
	]
}