{
	"greeting": "Greetings from The On-Line Encyclopedia of Integer Sequences! http://oeis.org/",
	"query": "id:A007734",
	"count": 1,
	"start": 0,
	"results": [
		{
			"number": 7734,
			"data": "1,1,1,2,4,1,6,2,1,4,5,2,3,6,4,4,16,1,18,4,6,5,11,2,20,3,1,6,28,4,30,8,5,16,12,2,18,18,3,4,8,6,42,10,4,11,23,4,42,20,16,6,52,1,20,6,18,28,29,4,10,30,6,16,12,5,22,16,11,12,35,2,12,18,20,18,30,3,78,4,1,8,41,6,16,42",
			"name": "Period of repeating digits of 1/n in base 3.",
			"link": [
				"T. D. Noe, \u003ca href=\"/A007734/b007734.txt\"\u003eTable of n, a(n) for n=1..1000\u003c/a\u003e",
				"\u003ca href=\"/index/1#1overn\"\u003eIndex entries for sequences related to decimal expansion of 1/n\u003c/a\u003e"
			],
			"mathematica": [
				"f[n_] := MultiplicativeOrder[3, n/(3^IntegerExponent[n, 3])]; Array[f, 80] (* _Robert G. Wilson v_, Jun 10 2011 *)"
			],
			"program": [
				"(PARI) a(n)=znorder(Mod(3,n/3^valuation(n,3))) \\\\ _Charles R Greathouse IV_, Jun 10 2011"
			],
			"keyword": "nonn,base",
			"offset": "1,4",
			"author": "_N. J. A. Sloane_, Hal Sampson (hals(AT)easynet.com)",
			"ext": [
				"More terms from _David W. Wilson_"
			],
			"references": 8,
			"revision": 21,
			"time": "2014-02-13T13:17:12-05:00",
			"created": "1996-03-15T03:00:00-05:00"
		}
	]
}