{
	"greeting": "Greetings from The On-Line Encyclopedia of Integer Sequences! http://oeis.org/",
	"query": "id:A007552",
	"count": 1,
	"start": 0,
	"results": [
		{
			"number": 7552,
			"id": "M2860",
			"data": "1,3,10,42,204,1127,6924,46704,342167,2700295,22799218,204799885,1947993126,19540680497,206001380039,2275381566909,26261810071925,315969045744894,3954454344433658,51382626410402336,691956435942841207",
			"name": "Exponentiation of Fibonacci numbers.",
			"reference": [
				"N. J. A. Sloane and Simon Plouffe, The Encyclopedia of Integer Sequences, Academic Press, 1995 (includes this sequence)."
			],
			"link": [
				"Alois P. Heinz, \u003ca href=\"/A007552/b007552.txt\"\u003eTable of n, a(n) for n = 1..500\u003c/a\u003e",
				"M. Bernstein and N. J. A. Sloane, \u003ca href=\"http://arXiv.org/abs/math.CO/0205301\"\u003eSome canonical sequences of integers\u003c/a\u003e, arXiv:math/0205301 [math.CO], 2002. [pLink to arXiv version]",
				"M. Bernstein and N. J. A. Sloane, \u003ca href=\"/A003633/a003633_1.pdf\"\u003eSome canonical sequences of integers\u003c/a\u003e, Linear Alg. Applications, 226-228 (1995), 57-72; erratum 320 (2000), 210. [Link to Lin. Alg. Applic. version together with omitted figures]"
			],
			"formula": [
				"E.g.f.: exp(exp(x/2)*(sqrt(5)*cosh(x*sqrt(5)/2)+sinh(x*sqrt(5)/2))/sqrt(5)-1)-1. - _Vladimir Kruchinin_, Feb 27 2015"
			],
			"maple": [
				"f:= proc(n) option remember; `if`(n\u003c2, 1, f(n-1) +f(n-2)) end: a:= proc(n) option remember; f(n) +add(binomial(n-1, k-1) *f(k) *a(n-k), k=1..n-1) end: seq(a(n), n=1..30); # _Alois P. Heinz_, Oct 07 2008"
			],
			"mathematica": [
				"f[n_] := f[n] = If[n\u003c2, 1, f[n-1]+f[n-2]]; a[n_] := a[n] = f[n]+Sum [Binomial[n-1, k-1]*f[k]*a[n-k], {k, 1, n-1}]; Table[a[n], {n, 1, 30}] (* _Jean-François Alcover_, Mar 03 2014, after _Alois P. Heinz_ *)"
			],
			"program": [
				"(PARI) Vec(serlaplace(exp( serconvol(Ser(1/(1-x-x^2)),exp(x))-1)))",
				"/* ==\u003e [1, 1, 3, 10, 42, 204, 1127, 6924, 46704,...] (note offset 0) */",
				"/* _Joerg Arndt_, Jun 16 2010 */"
			],
			"xref": [
				"Cf. A006701, A256180."
			],
			"keyword": "nonn",
			"offset": "1,2",
			"author": "_N. J. A. Sloane_.",
			"references": 4,
			"revision": 33,
			"time": "2017-06-11T07:48:53-04:00",
			"created": "1994-09-19T03:00:00-04:00"
		}
	]
}