{
	"greeting": "Greetings from The On-Line Encyclopedia of Integer Sequences! http://oeis.org/",
	"query": "id:A007020",
	"count": 1,
	"start": 0,
	"results": [
		{
			"number": 7020,
			"id": "M1437",
			"data": "1,1,1,2,5,13,33,85,199,445,947,1909,3713,7006,12765,22764,39540",
			"name": "Maximal planar degree sequences with n nodes.",
			"comment": [
				"The number of distinct degree sequences occurring in the polyhedra counted by A000109. - _Sean A. Irvine_, Sep 17 2017"
			],
			"reference": [
				"M. B. Dillencourt, Polyhedra of small orders and their Hamiltonian properties. Tech. Rep. 92-91, Info. and Comp. Sci. Dept., Univ. Calif. Irvine, 1992.",
				"N. J. A. Sloane and Simon Plouffe, The Encyclopedia of Integer Sequences, Academic Press, 1995 (includes this sequence)."
			],
			"link": [
				"M. B. Dillencourt, \u003ca href=\"http://dx.doi.org/10.1006/jctb.1996.0008\"\u003ePolyhedra of small orders and their Hamiltonian properties\u003c/a\u003e, Journal of Combinatorial Theory, Series B, Volume 66, Issue 1, January 1996, Pages 87-122."
			],
			"xref": [
				"Cf. A000109."
			],
			"keyword": "nonn,more",
			"offset": "3,4",
			"author": "_N. J. A. Sloane_",
			"ext": [
				"a(17)-a(19) from _Sean A. Irvine_, Sep 17 2017"
			],
			"references": 0,
			"revision": 17,
			"time": "2017-09-17T16:30:44-04:00",
			"created": "1994-04-28T03:00:00-04:00"
		}
	]
}