{
	"greeting": "Greetings from The On-Line Encyclopedia of Integer Sequences! http://oeis.org/",
	"query": "id:A007739",
	"count": 1,
	"start": 0,
	"results": [
		{
			"number": 7739,
			"data": "1,1,2,1,4,2,1,1,2,4,10,2,4,1,4,1,8,2,6,4,2,10,11,2,20,4,6,1,28,4,5,1,10,8,4,2,12,6,4,4,20,2,14,10,4,11,23,2,7,20,8,4,52,6,20,1,6,28,58,4,20,5,2,1,4,10,22,8,22,4,35,2,3,12,20,6,10,4,13,4,18,20,82,2,8,14,28,10,11,4,4",
			"name": "Period of repeating digits of 1/n in base 8.",
			"link": [
				"T. D. Noe, \u003ca href=\"/A007739/b007739.txt\"\u003eTable of n, a(n) for n=1..1000\u003c/a\u003e",
				"\u003ca href=\"/index/1#1overn\"\u003eIndex entries for sequences related to decimal expansion of 1/n\u003c/a\u003e"
			],
			"mathematica": [
				"DigitCycleLength[r_Rational, b_Integer?Positive] := MultiplicativeOrder[b, FixedPoint[ Quotient[#, GCD[#, b]] \u0026, Denominator[r]]]; DigitCycleLength[1, b_Integer?Positive] = 1; Array[ DigitCycleLength[1/#, 8] \u0026, 80] (* _Robert G. Wilson v_, Jun 10 2011 *)"
			],
			"keyword": "nonn,base",
			"offset": "1,3",
			"author": "_N. J. A. Sloane_, Hal Sampson (hals(AT)easynet.com)",
			"ext": [
				"More terms from _David W. Wilson_"
			],
			"references": 2,
			"revision": 20,
			"time": "2014-02-14T00:34:22-05:00",
			"created": "1996-03-15T03:00:00-05:00"
		}
	]
}