{
	"greeting": "Greetings from The On-Line Encyclopedia of Integer Sequences! http://oeis.org/",
	"query": "id:A007393",
	"count": 1,
	"start": 0,
	"results": [
		{
			"number": 7393,
			"id": "M4320",
			"data": "0,0,0,0,0,0,0,0,0,0,0,0,0,7,0,16,0,27,0,40,7,55,23,72,50,91,90,119,145,165,217,240,308,357,427,531,592,779,832,1120,1189,1582,1720,2211,2499,3082,3619,4312,5201,6075,7412,8619,10494,12285",
			"name": "Number of strict 5th-order maximal independent sets in cycle graph.",
			"reference": [
				"N. J. A. Sloane and Simon Plouffe, The Encyclopedia of Integer Sequences, Academic Press, 1995 (includes this sequence).",
				"R. Yanco and A. Bagchi, ``K-th order maximal independent sets in path and cycle graphs,'' J. Graph Theory, submitted, 1994."
			],
			"link": [
				"R. Yanco, \u003ca href=\"/A007380/a007380.pdf\"\u003eLetter and Email to N. J. A. Sloane, 1994\u003c/a\u003e"
			],
			"formula": [
				"Apparent g.f.: x^14*(-7+5*x^2)/((x^7+x^2-1)*(x-1)^2*(1+x)^2). [From _R. J. Mathar_, Oct 30 2009]",
				"a(n) = A007388(n) - b(n) where b(1) = 0, b(2*n+1) = 2*n+1, b(2*n) = 2. - _Sean A. Irvine_, Jan 02 2018"
			],
			"xref": [
				"Cf. A007388."
			],
			"keyword": "nonn",
			"offset": "1,14",
			"author": "_N. J. A. Sloane_, _Mira Bernstein_",
			"ext": [
				"More terms from _Sean A. Irvine_, Jan 02 2018"
			],
			"references": 0,
			"revision": 18,
			"time": "2018-01-02T19:43:27-05:00",
			"created": "1994-05-09T03:00:00-04:00"
		}
	]
}