{
	"greeting": "Greetings from The On-Line Encyclopedia of Integer Sequences! http://oeis.org/",
	"query": "id:A007609",
	"count": 1,
	"start": 0,
	"results": [
		{
			"number": 7609,
			"data": "1,3,4,6,7,8,12,12,13,14,15,18,18,20,24,24,24,28,30,31,31,32,32,36,38,39,40,42,42,42,44,48,48,48,54,54,56,56,57,60,60,60,62,63,68,72,72,72,72,72,74,78,80,80,84,84,84,90,90,90,91,93,96,96,96,96,98,98",
			"name": "Values taken by the sigma function A000203, listed with multiplicity and in ascending order.",
			"comment": [
				"A175192(a(n)) = 1, A054973(a(n)) \u003e= 1. - _Jaroslav Krizek_, Mar 01 2010",
				"a(n) is the median of the values of A000203(m) from m=1 to m=2n-1. (This needs confirmation as it relies on the assumption that A000203(n) is always bigger than the median of the values A000203(x) from x=1 to x=n.) - _Chayim Lowen_, May 27 2015"
			],
			"link": [
				"T. D. Noe, \u003ca href=\"/A007609/b007609.txt\"\u003eTable of n, a(n) for n = 1..10000\u003c/a\u003e"
			],
			"formula": [
				"a(n) = sigma(A085790(n)). - _Jinyuan Wang_, Apr 15 2020"
			],
			"maple": [
				"sort(select(`\u003c=`,map(numtheory:-sigma,[$1..1000]),1001)); # _Robert Israel_, Jun 04 2015"
			],
			"mathematica": [
				"terms = 68; ClearAll[t]; t[k_] := t[k] = Sort[ Table[ DivisorSigma[1, n], {n, 1, k*terms}]][[1 ;; terms]]; t[k = 2]; While[t[k] != t[k-1], k++]; t[k] (* _Jean-François Alcover_, Nov 21 2012 *)",
				"With[{nn=80},Take[Sort[DivisorSigma[1,Range[nn*100]]],nn]] (* _Harvey P. Dale_, Mar 09 2016 *)"
			],
			"program": [
				"(PARI) list(lim)=select(k-\u003ek\u003c=lim,Set(apply(sigma,[1..lim\\1]))) \\\\ _Charles R Greathouse IV_, Mar 09 2014"
			],
			"xref": [
				"Cf. A000203, A002191 (duplicates removed), A007368, A085790."
			],
			"keyword": "nonn,easy,nice",
			"offset": "1,2",
			"author": "_Walter Nissen_",
			"references": 20,
			"revision": 43,
			"time": "2020-04-15T02:23:56-04:00",
			"created": "1999-12-11T03:00:00-05:00"
		}
	]
}