{
	"greeting": "Greetings from The On-Line Encyclopedia of Integer Sequences! http://oeis.org/",
	"query": "id:A007979",
	"count": 1,
	"start": 0,
	"results": [
		{
			"number": 7979,
			"data": "1,2,5,9,16,25,39,56,79,107,142,183,233,290,357,433,520,617,727,848,983,1131,1294,1471,1665,1874,2101,2345,2608,2889,3191,3512,3855,4219,4606,5015,5449,5906",
			"name": "Expansion of (1+x^2)(1+x^4)/((1-x)^2*(1-x^2)*(1-x^3)).",
			"link": [
				"Vincenzo Librandi, \u003ca href=\"/A007979/b007979.txt\"\u003eTable of n, a(n) for n = 0..1000\u003c/a\u003e",
				"A. R. Calderbank and N. J. A. Sloane, Double circulant codes over Z_4, J. Algeb. Combin., 6 (1997) 119-131 (\u003ca href=\"http://neilsloane.com/doc/mckay.txt\"\u003eAbstract\u003c/a\u003e, \u003ca href=\"http://neilsloane.com/doc/mckay.pdf\"\u003epdf\u003c/a\u003e, \u003ca href=\"http://neilsloane.com/doc/mckay.ps\"\u003eps\u003c/a\u003e).",
				"\u003ca href=\"/index/Rec#order_07\"\u003eIndex entries for linear recurrences with constant coefficients\u003c/a\u003e, signature (2,0,-1,-1,0,2,-1)."
			],
			"formula": [
				"a(n) = floor((2*n^3+3*n^2+24*n+18)/18). - _Tani Akinari_, Jun 26 2013",
				"G.f.: (1+x^2)*(1+x^4) / ( (1+x)*(1+x+x^2)*(x-1)^4 ). - _R. J. Mathar_, Sep 07 2017"
			],
			"mathematica": [
				"CoefficientList[Series[(1+x^2)(1+x^4)/((1-x)^2*(1-x^2)*(1-x^3)),{x,0,40}],x] (* _Vincenzo Librandi_, Feb 25 2012 *)"
			],
			"keyword": "nonn,easy",
			"offset": "0,2",
			"author": "_N. J. A. Sloane_.",
			"references": 1,
			"revision": 20,
			"time": "2017-09-07T07:34:56-04:00",
			"created": "1996-03-15T03:00:00-05:00"
		}
	]
}