{
	"greeting": "Greetings from The On-Line Encyclopedia of Integer Sequences! http://oeis.org/",
	"query": "id:A007893",
	"count": 1,
	"start": 0,
	"results": [
		{
			"number": 7893,
			"data": "1,4,9,16,1,4,9,16,25,4,9,16,25,36,9,16,25,36,49,16,25,36,49,64,25,36,49,64,81,36,49,64,81,100,49,64,81,100,121,64,81,100,121,144,81,100,121,144,169,100,121,144,169,196,121,144,169,196,225,144,169,196",
			"name": "A Kutz sequence.",
			"link": [
				"Vincenzo Librandi, \u003ca href=\"/A007893/b007893.txt\"\u003eTable of n, a(n) for n = 1..10000\u003c/a\u003e",
				"R. E. Kutz, \u003ca href=\"http://www.jstor.org/stable/3027304\"\u003eTwo unusual sequences\u003c/a\u003e, Two-Year College Mathematics Journal, 12 (1981), 316-319.",
				"\u003ca href=\"/index/Rec#order_11\"\u003eIndex entries for linear recurrences with constant coefficients\u003c/a\u003e, signature (1,0,0,0,2,-2,0,0,0,-1,1)."
			],
			"formula": [
				"The pattern is obvious!",
				"a(n) = (n - 4*floor(n/5))^2. - _Michael Somos_, Jun 01 1999",
				"G.f.: x*(1+3*x+5*x^2+7*x^3-15*x^4+x^5-x^6-3*x^7-5*x^8+9*x^9) / ((1-x)^3*(1+x+x^2+x^3+x^4)^2). - _Colin Barker_, Aug 05 2016"
			],
			"mathematica": [
				"Table[(n - 4*Floor[n/5])^2, {n, 60}] (* _Arkadiusz Wesolowski_, Sep 29 2011 *)"
			],
			"program": [
				"(MAGMA) [(n-4*Floor(n/5))^2: n in [1..60]]; // _Vincenzo Librandi_, Sep 30 2011",
				"(PARI) Vec(x*(1+3*x+5*x^2+7*x^3-15*x^4+x^5-x^6-3*x^7-5*x^8+9*x^9)/((1-x)^3*(1+x+x^2+x^3+x^4)^2) + O(x^60)) \\\\ _Colin Barker_, Aug 05 2016"
			],
			"keyword": "nonn,easy",
			"offset": "1,2",
			"author": "_N. J. A. Sloane_",
			"references": 1,
			"revision": 22,
			"time": "2016-08-05T13:02:56-04:00",
			"created": "1996-03-15T03:00:00-05:00"
		}
	]
}