{
	"greeting": "Greetings from The On-Line Encyclopedia of Integer Sequences! http://oeis.org/",
	"query": "id:A007825",
	"count": 1,
	"start": 0,
	"results": [
		{
			"number": 7825,
			"data": "1,4,10,22,42,90,182,382,742,1486,2866,5646,10878,21198,40694,78758,151018,291046,557746,1072050,2053586,3941038,7547726,14471102,27711106,53099670,101675030,194762778,372916642,714195242",
			"name": "Number of n step self-avoiding walks on 3 X infinity grid starting from (0,1).",
			"link": [
				"Sean A. Irvine, \u003ca href=\"/A007825/b007825.txt\"\u003eTable of n, a(n) for n = 0..39\u003c/a\u003e"
			],
			"xref": [
				"Cf. A302408 (starting from (0,0)), A038577, A001411."
			],
			"keyword": "nonn,walk",
			"offset": "0,2",
			"author": "Lauren Williams (lwilliam(AT)MIT.EDU)",
			"ext": [
				"Title improved and more terms from _Sean A. Irvine_, Feb 02 2018"
			],
			"references": 5,
			"revision": 19,
			"time": "2018-04-15T21:48:45-04:00",
			"created": "1996-03-15T03:00:00-05:00"
		}
	]
}