{
	"greeting": "Greetings from The On-Line Encyclopedia of Integer Sequences! http://oeis.org/",
	"query": "id:A007174",
	"count": 1,
	"start": 0,
	"results": [
		{
			"number": 7174,
			"id": "M2679",
			"data": "1,1,1,3,7,20,131,815,5142,36800,272093,2077909,16176607,127997683,1025727646,8310377815,68217725764,560527576100,4556993996246",
			"name": "Erroneous version of A182322.",
			"keyword": "dead",
			"offset": "1,4",
			"references": 0,
			"revision": 14,
			"time": "2015-10-13T01:38:14-04:00",
			"created": "1994-04-28T03:00:00-04:00"
		}
	]
}