{
	"greeting": "Greetings from The On-Line Encyclopedia of Integer Sequences! http://oeis.org/",
	"query": "id:A007089",
	"count": 1,
	"start": 0,
	"results": [
		{
			"number": 7089,
			"id": "M1960",
			"data": "0,1,2,10,11,12,20,21,22,100,101,102,110,111,112,120,121,122,200,201,202,210,211,212,220,221,222,1000,1001,1002,1010,1011,1012,1020,1021,1022,1100,1101,1102,1110,1111,1112,1120,1121,1122,1200,1201,1202,1210,1211",
			"name": "Numbers in base 3.",
			"comment": [
				"Nonnegative integers with no decimal digit \u003e 2. Thus nonnegative integers in base 10 whose quadrupling by normal addition or multiplication requires no carry operation. - _Rick L. Shepherd_, Jun 25 2009"
			],
			"reference": [
				"N. J. A. Sloane and Simon Plouffe, The Encyclopedia of Integer Sequences, Academic Press, 1995 (includes this sequence)."
			],
			"link": [
				"T. D. Noe, \u003ca href=\"/A007089/b007089.txt\"\u003eTable of n, a(n) for n = 0..10000\u003c/a\u003e",
				"The Unicode Consortium, \u003ca href=\"http://www.unicode.org/charts/PDF/Unicode-4.0/U40-1D300.pdf\"\u003eTai Xuan Jing Symbols\u003c/a\u003e",
				"Eric Weisstein's World of Mathematics, \u003ca href=\"http://mathworld.wolfram.com/Ternary.html\"\u003eTernary.\u003c/a\u003e",
				"Wikipedia, \u003ca href=\"http://en.wikipedia.org/wiki/Ternary_numeral_system\"\u003eTernary numeral system\u003c/a\u003e",
				"R. G. Wilson, V, \u003ca href=\"/A007088/a007088.pdf\"\u003eLetter to N. J. A. Sloane, Sep. 1992\u003c/a\u003e",
				"\u003ca href=\"/index/Ar#10-automatic\"\u003eIndex entries for 10-automatic sequences\u003c/a\u003e."
			],
			"formula": [
				"a(0)=0, a(n) = 10*a(n/3) if n==0 (mod 3), a(n) = a(n-1) + 1 otherwise. - _Benoit Cloitre_, Dec 22 2002"
			],
			"maple": [
				"A007089 := proc(n) option remember;",
				"if n \u003c= 0 then 0",
				"else",
				"  if (n mod 3) = 0 then 10*procname(n/3) else procname(n-1) + 1 fi",
				"fi end:",
				"[seq(A007089(n), n=0..729)]; # - _N. J. A. Sloane_, Mar 09 2019"
			],
			"mathematica": [
				"Table[ FromDigits[ IntegerDigits[n, 3]], {n, 0, 50}]"
			],
			"program": [
				"(PARI) a(n)=if(n\u003c1,0,if(n%3,a(n-1)+1,10*a(n/3)))",
				"(PARI) a(n)=fromdigits(digits(n,3)) \\\\ _Charles R Greathouse IV_, Jan 08 2017",
				"(Haskell)",
				"a007089 0 = 0",
				"a007089 n = 10 * a007089 n' + m where (n', m) = divMod n 3",
				"-- _Reinhard Zumkeller_, Feb 19 2012"
			],
			"xref": [
				"Cf. A000042, A007088, A007090, A007091, A007092, A007093, A007094, A007095, A077267, A062756, A081603, A081604, A054635, A003137."
			],
			"keyword": "base,nonn,easy",
			"offset": "0,3",
			"author": "_N. J. A. Sloane_, _Robert G. Wilson v_",
			"ext": [
				"More terms from _James A. Sellers_, May 01 2000"
			],
			"references": 244,
			"revision": 49,
			"time": "2020-08-04T23:44:51-04:00",
			"created": "1994-04-28T03:00:00-04:00"
		}
	]
}