{
	"greeting": "Greetings from The On-Line Encyclopedia of Integer Sequences! http://oeis.org/",
	"query": "id:A007144",
	"count": 1,
	"start": 0,
	"results": [
		{
			"number": 7144,
			"id": "M5014",
			"data": "0,0,0,16,177,1374,9370,60582,383577,2412331,15179013,95860821,608523299,3884620950,24937791531,160952346541,1044035753142,6803694176919,44526622599370,292538816181867,1928821043343096,12758939344710713",
			"name": "E-trees with exactly 3 colors.",
			"reference": [
				"G. Gati, F. Harary and R. W. Robinson, Line colored trees with extendable automorphisms, Acta Math. Scientia, 2 (1982), 105-110.",
				"N. J. A. Sloane and Simon Plouffe, The Encyclopedia of Integer Sequences, Academic Press, 1995 (includes this sequence)."
			],
			"link": [
				"G. Gati, F. Harary, R. W. Robinson, \u003ca href=\"/A003238/a003238.pdf\"\u003eLine colored trees with extendable automorphisms\u003c/a\u003e, Acta Mathematica Scientia 2.1 (1982), 105-110. (Annotated scanned copy)",
				"\u003ca href=\"/index/Tra#trees\"\u003eIndex entries for sequences related to trees\u003c/a\u003e"
			],
			"formula": [
				"a(n) = A007142(n) - 3 * A007141(n) + 3 * A003238(n) for n \u003e 1. - _Sean A. Irvine_, Oct 30 2017"
			],
			"keyword": "nonn",
			"offset": "1,4",
			"author": "_N. J. A. Sloane_.",
			"ext": [
				"a(6) corrected and more terms from _Sean A. Irvine_, Oct 30 2017"
			],
			"references": 0,
			"revision": 19,
			"time": "2017-10-30T03:32:51-04:00",
			"created": "1994-04-28T03:00:00-04:00"
		}
	]
}