{
	"greeting": "Greetings from The On-Line Encyclopedia of Integer Sequences! http://oeis.org/",
	"query": "id:A008652",
	"count": 1,
	"start": 0,
	"results": [
		{
			"number": 8652,
			"data": "1,1,1,1,2,2,2,2,3,3,3,3,4,4,4,4,6,6,6,6,8,8,8,8,10,10,10,10,12,12,12,12,15,15,15,15,18,18,18,18,21,21,21,21,24,24,24,24,28,28,28,28,32,32,32,32,36,36,36,36,40,40",
			"name": "Molien series for group of 3 X 3 upper triangular matrices over GF( 4 ).",
			"comment": [
				"Partitions into parts 1, 4, and 16. - _Joerg Arndt_, Apr 29 2014"
			],
			"reference": [
				"D. J. Benson, Polynomial Invariants of Finite Groups, Cambridge, 1993, p. 105."
			],
			"link": [
				"Vincenzo Librandi, \u003ca href=\"/A008652/b008652.txt\"\u003eTable of n, a(n) for n = 0..1000\u003c/a\u003e",
				"INRIA Algorithms Project, \u003ca href=\"http://ecs.inria.fr/services/structure?nbr=220\"\u003eEncyclopedia of Combinatorial Structures 220\u003c/a\u003e",
				"\u003ca href=\"/index/Mo#Molien\"\u003eIndex entries for Molien series\u003c/a\u003e",
				"\u003ca href=\"/index/Rec#order_21\"\u003eIndex entries for linear recurrences with constant coefficients\u003c/a\u003e, signature (1, 0, 0, 1, -1, 0, 0, 0, 0, 0, 0, 0, 0, 0, 0, 1, -1, 0, 0, -1, 1)."
			],
			"formula": [
				"G.f.: 1/((1-x)*(1-x^4)*(1-x^16)).",
				"G.f.: 1/((1+x)^2*(1-x)^3*(1+x^2)^2*(1+x^4)*(1+x^8)). - _Bruno Berselli_, Jul 25 2013",
				"a(n) ~ 1/128*n^2. - _Ralf Stephan_, Apr 29 2014"
			],
			"maple": [
				"seq(coeff(series(1/((1-x)*(1-x^4)*(1-x^16)), x, n+1), x, n), n = 0..65); # _G. C. Greubel_, Sep 07 2019"
			],
			"mathematica": [
				"Table[Floor[(Floor[n/4] + 3)^2/8], {n, 0, 61}] (* or *) Table[Floor[(n + 3)^2/8], {n, 0, 15}, {4}] // Flatten (* _Jean-François Alcover_, Jul 17 2013, updated Feb 26 2016 *)",
				"LinearRecurrence[{1,0,0,1,-1,0,0,0,0,0,0,0,0,0,0,1,-1,0,0,-1,1}, {1,1,1,1,2,2,2,2,3,3,3,3,4,4,4,4,6,6,6,6,8}, 70] (* _Harvey P. Dale_, Jan 30 2018 *)"
			],
			"program": [
				"(PARI) a(n)=(n\\4 + 3)^2\\8 \\\\ _Charles R Greathouse IV_, Feb 10 2017",
				"(MAGMA) [Floor((Floor(n/4)+3)^2/8): n in [0..65]]; // _G. C. Greubel_, Sep 07 2019",
				"(Sage) [floor((floor(n/4)+3)^2/8) for n in (0..65)] # _G. C. Greubel_, Sep 07 2019",
				"(GAP) List([0..65], n-\u003e Int((Int(n/4)+3)^2/8) ); # _G. C. Greubel_, Sep 07 2019~"
			],
			"keyword": "nonn,easy,nice",
			"offset": "0,5",
			"author": "_N. J. A. Sloane_",
			"references": 2,
			"revision": 42,
			"time": "2019-09-07T20:46:42-04:00",
			"created": "1996-03-15T03:00:00-05:00"
		}
	]
}