{
	"greeting": "Greetings from The On-Line Encyclopedia of Integer Sequences! http://oeis.org/",
	"query": "id:A008633",
	"count": 1,
	"start": 0,
	"results": [
		{
			"number": 8633,
			"data": "1,1,2,3,5,7,11,15,22,30,42,55,75,97,128,164,212,267,340,423,530,653,807,984,1204,1455,1761,2112,2534,3015,3590,4242,5013,5888,6912,8070,9418,10936,12690,14663,16928,19466,22367,25608,29292,33402,38048,43216,49040,55499,62747",
			"name": "Molien series for A_10.",
			"reference": [
				"D. J. Benson, Polynomial Invariants of Finite Groups, Cambridge, 1993, p. 105."
			],
			"link": [
				"\u003ca href=\"/index/Mo#Molien\"\u003eIndex entries for Molien series\u003c/a\u003e",
				"\u003ca href=\"/index/Rec#order_48\"\u003eIndex entries for linear recurrences with constant coefficients\u003c/a\u003e, signature (0, 2, 2, 0, -2, -3, -3, 0, 3, 3, 0, 0, 1, 2, 3, 1, -5, -8, -5, 0, 4, 4, 2, 0, 2, 4, 4, 0, -5, -8, -5, 1, 3, 2, 1, 0, 0, 3, 3, 0, -3, -3, -2, 0, 2, 2, 0, -1)."
			],
			"maple": [
				"(1+x^45)/(1-x)/(1-x^2)/(1-x^3)/(1-x^4)/(1-x^5)/(1-x^6)/(1-x^7)/(1-x^8)/(1-x^9)/(1-x^10)"
			],
			"keyword": "nonn,easy",
			"offset": "0,3",
			"author": "_N. J. A. Sloane_.",
			"ext": [
				"More terms from _R. J. Mathar_, May 24 2008"
			],
			"references": 0,
			"revision": 13,
			"time": "2016-12-07T20:38:21-05:00",
			"created": "1996-03-15T03:00:00-05:00"
		}
	]
}