{
	"greeting": "Greetings from The On-Line Encyclopedia of Integer Sequences! http://oeis.org/",
	"query": "id:A008886",
	"count": 1,
	"start": 0,
	"results": [
		{
			"number": 8886,
			"data": "42,54,66,78,90,144,259,45,33,15,9,4,3,1,0",
			"name": "Aliquot sequence starting at 42.",
			"comment": [
				"The sum-of-divisor function A000203 and aliquot parts A001065 are defined only for positive integers, so the trajectory ends when 0 is reached, here at index 14. - _M. F. Hasler_, Feb 24 2018"
			],
			"reference": [
				"R. K. Guy, Unsolved Problems in Number Theory, B6."
			],
			"link": [
				"Christophe CLAVIER, \u003ca href=\"http://christophe.clavier.free.fr/Aliquot/site/Aliquot.html\"\u003eAliquot Sequences\u003c/a\u003e",
				"\u003ca href=\"/index/Al#ALIQUOT\"\u003eIndex entries for sequences related to aliquot parts\u003c/a\u003e."
			],
			"formula": [
				"a(n+1) = A001065(a(n)). - _R. J. Mathar_, Oct 11 2017"
			],
			"maple": [
				"f := proc(n) option remember; if n = 0 then 42; else sigma(f(n-1))-f(n-1); fi; end:"
			],
			"mathematica": [
				"Join[NestList[DivisorSigma[1,#]-#\u0026,42,14],PadRight[{},60,0]] (* _Harvey P. Dale_, Apr 28 2014 *)"
			],
			"program": [
				"(PARI) a(n,a=42)={for(i=1,n,a=sigma(a)-a);a} \\\\ _M. F. Hasler_, Feb 24 2018"
			],
			"xref": [
				"Cf. A098007 (length of aliquot sequences); some other examples: A008885 (starting at 30) .. A008892 (starting at 276), A014360 (starting at 552) .. A014365 (starting at 1134), see link to index for a more complete list."
			],
			"keyword": "nonn,fini,full",
			"offset": "0,1",
			"author": "_N. J. A. Sloane_.",
			"ext": [
				"Edited by _M. F. Hasler_, Feb 24 2018"
			],
			"references": 4,
			"revision": 19,
			"time": "2018-02-25T00:39:36-05:00",
			"created": "1996-03-15T03:00:00-05:00"
		}
	]
}