{
	"greeting": "Greetings from The On-Line Encyclopedia of Integer Sequences! http://oeis.org/",
	"query": "id:A008840",
	"count": 1,
	"start": 0,
	"results": [
		{
			"number": 8840,
			"data": "0,1,1,2,3,7,30,716",
			"name": "Number of monotone self-dual Boolean functions of n variables that are inequivalent under the symmetric group.",
			"reference": [
				"D. E. Knuth, The Art of Computer Programming, Vol. 4A, Section 7.1.1, p. 79."
			],
			"link": [
				"Daniel Elliott Loeb, \u003ca href=\"http://www.labri.u-bordeaux.fr/~loeb\"\u003eHome page\u003c/a\u003e",
				"\u003ca href=\"/index/Bo#Boolean\"\u003eIndex entries for sequences related to Boolean functions\u003c/a\u003e"
			],
			"xref": [
				"Cf. A003180, A057132, A108803.",
				"Cf. A107765 (non-isomorphic self dual monotones = differences of A008840?). - _Olivier Gérard_, Oct 11 2012"
			],
			"keyword": "nonn,hard,nice,more",
			"offset": "0,4",
			"author": "_Daniel E. Loeb_",
			"references": 2,
			"revision": 24,
			"time": "2021-01-04T20:03:52-05:00",
			"created": "1996-03-15T03:00:00-05:00"
		}
	]
}