{
	"greeting": "Greetings from The On-Line Encyclopedia of Integer Sequences! http://oeis.org/",
	"query": "id:A008142",
	"count": 1,
	"start": 0,
	"results": [
		{
			"number": 8142,
			"data": "1,4,10,20,33,50,71,97,129,163,200,240,287,343,401,461,523,591,665,741,822,905,990,1080,1178,1285,1394,1505,1621,1744,1872,2001,2135,2275,2420,2566,2712,2861,3013,3171,3332,3494,3659,3832,4019,4212,4407,4606",
			"name": "Coordination sequence T3 for Zeolite Code LTN.",
			"reference": [
				"W. M. Meier, D. H. Olson and Ch. Baerlocher, Atlas of Zeolite Structure Types, 4th Ed., Elsevier, 1996."
			],
			"link": [
				"R. W. Grosse-Kunstleve, \u003ca href=\"/A008142/b008142.txt\"\u003eTable of n, a(n) for n = 0..1000\u003c/a\u003e",
				"R. W. Grosse-Kunstleve, \u003ca href=\"/A005897/a005897.html\"\u003eCoordination Sequences and Encyclopedia of Integer Sequences\u003c/a\u003e",
				"R. W. Grosse-Kunstleve, G. O. Brunner and N. J. A. Sloane, \u003ca href=\"http://neilsloane.com/doc/ac96cs/\"\u003eAlgebraic Description of Coordination Sequences and Exact Topological Densities for Zeolites\u003c/a\u003e, Acta Cryst., A52 (1996), pp. 879-889.",
				"Sean A. Irvine, \u003ca href=\"/A008000/a008000_1.pdf\"\u003eGenerating Functions for Coordination Sequences of Zeolites, after Grosse-Kunstleve, Brunner, and Sloane\u003c/a\u003e",
				"International Zeolite Association, \u003ca href=\"http://www.iza-structure.org/databases/\"\u003eDatabase of Zeolite Structures\u003c/a\u003e"
			],
			"keyword": "nonn",
			"offset": "0,2",
			"author": "_Ralf W. Grosse-Kunstleve_",
			"references": 1,
			"revision": 16,
			"time": "2018-04-10T08:26:35-04:00",
			"created": "1996-03-15T03:00:00-05:00"
		}
	]
}