{
	"greeting": "Greetings from The On-Line Encyclopedia of Integer Sequences! http://oeis.org/",
	"query": "id:A008702",
	"count": 1,
	"start": 0,
	"results": [
		{
			"number": 8702,
			"data": "1,96,194256,16797312,397892688,4629844800,34417075392,187488327936,814887884880,2975540578272,9486540171360,27052997242752,70486201388736,169931039863872,384163624930176",
			"name": "Theta series of Niemeier lattice of type A_3^8.",
			"reference": [
				"J. H. Conway and N. J. A. Sloane, \"Sphere Packings, Lattices and Groups\", Springer-Verlag, p. 407."
			],
			"link": [
				"G. C. Greubel, \u003ca href=\"/A008702/b008702.txt\"\u003eTable of n, a(n) for n = 0..1000\u003c/a\u003e"
			],
			"formula": [
				"This series is the q-expansion of (23*E_4(z)^3 + 13*E_6(z)^2)/36. - _Daniel D. Briggs_, Nov 26 2011"
			],
			"mathematica": [
				"terms = 15; E4[q_] := 1 + 240 Sum[DivisorSigma[3, n]*q^(2 n), {n, 1, terms}]; E6[q_] := 1 - 504 Sum[DivisorSigma[5, n]*q^(2 n), {n, 1, terms}]; s = 23/36 E4[q]^3 + 13/36 E6[q]^2 + O[q]^(3 terms); Partition[ CoefficientList[s, q], 2][[All, 1]][[1 ;; terms]] (* _Jean-François Alcover_, Jul 06 2017 *)"
			],
			"xref": [
				"Cf. A004009, A013973.",
				"Cf. A008688 - A008701, A008703, A008704."
			],
			"keyword": "nonn",
			"offset": "0,2",
			"author": "_N. J. A. Sloane_",
			"references": 5,
			"revision": 17,
			"time": "2020-03-04T14:55:13-05:00",
			"created": "1996-03-15T03:00:00-05:00"
		}
	]
}