{
	"greeting": "Greetings from The On-Line Encyclopedia of Integer Sequences! http://oeis.org/",
	"query": "id:A008711",
	"count": 1,
	"start": 0,
	"results": [
		{
			"number": 8711,
			"data": "10,11,12,13,14,15,16,20,22,24,32,112,1110,11111111111111",
			"name": "14 in base 14-n.",
			"keyword": "fini,nonn,base,full",
			"offset": "0,1",
			"author": "_N. J. A. Sloane_.",
			"references": 2,
			"revision": 6,
			"time": "2012-03-30T16:45:24-04:00",
			"created": "1996-03-15T03:00:00-05:00"
		}
	]
}