{
	"greeting": "Greetings from The On-Line Encyclopedia of Integer Sequences! http://oeis.org/",
	"query": "id:A008538",
	"count": 1,
	"start": 0,
	"results": [
		{
			"number": 8538,
			"data": "6,7,16,17,26,27,36,37,46,47,56,57,60,61,62,63,64,65,66,67,68,69,70,71,72,73,74,75,76,77,78,79,86,87,96,97,106,107,116,117,126,127,136,137,146,147,156,157,160,161,162,163,164,165,166,167,168,169,170,171,172,173",
			"name": "Numbers that contain the letter 's'.",
			"keyword": "nonn,word",
			"offset": "1,1",
			"author": "_N. J. A. Sloane_.",
			"references": 2,
			"revision": 8,
			"time": "2021-05-02T18:38:20-04:00",
			"created": "1996-03-15T03:00:00-05:00"
		}
	]
}