{
	"greeting": "Greetings from The On-Line Encyclopedia of Integer Sequences! http://oeis.org/",
	"query": "id:A008088",
	"count": 1,
	"start": 0,
	"results": [
		{
			"number": 8088,
			"data": "1,4,9,16,25,37,53,73,97,124,152,180,210,245,287,336,388,437,481,526,581,648,722,797,866,929,993,1066,1153,1249,1347,1439,1522,1604,1695,1802,1920,2039,2152,2257,2361,2472,2596,2732,2873,3013,3146,3271,3396",
			"name": "Coordination sequence T3 for Zeolite Code EMT.",
			"reference": [
				"W. M. Meier, D. H. Olson and Ch. Baerlocher, Atlas of Zeolite Structure Types, 4th Ed., Elsevier, 1996"
			],
			"link": [
				"R. W. Grosse-Kunstleve, \u003ca href=\"/A008088/b008088.txt\"\u003eTable of n, a(n) for n = 0..1000\u003c/a\u003e",
				"R. W. Grosse-Kunstleve, \u003ca href=\"/A005897/a005897.html\"\u003eCoordination Sequences and Encyclopedia of Integer Sequences\u003c/a\u003e",
				"R. W. Grosse-Kunstleve, G. O. Brunner and N. J. A. Sloane, \u003ca href=\"http://neilsloane.com/doc/ac96cs/\"\u003eAlgebraic Description of Coordination Sequences and Exact Topological Densities for Zeolites\u003c/a\u003e, Acta Cryst., A52 (1996), pp. 879-889.",
				"Sean A. Irvine, \u003ca href=\"/A008000/a008000_1.pdf\"\u003eGenerating Functions for Coordination Sequences of Zeolites, after Grosse-Kunstleve, Brunner, and Sloane\u003c/a\u003e",
				"International Zeolite Association, \u003ca href=\"http://www.iza-structure.org/databases/\"\u003eDatabase of Zeolite Structures\u003c/a\u003e"
			],
			"keyword": "nonn",
			"offset": "0,2",
			"author": "_Ralf W. Grosse-Kunstleve_",
			"references": 1,
			"revision": 12,
			"time": "2018-04-10T08:26:35-04:00",
			"created": "1996-03-15T03:00:00-05:00"
		}
	]
}