{
	"greeting": "Greetings from The On-Line Encyclopedia of Integer Sequences! http://oeis.org/",
	"query": "id:A008078",
	"count": 1,
	"start": 0,
	"results": [
		{
			"number": 8078,
			"data": "1,4,12,23,41,64,92,128,167,207,259,318,378,447,514,588,681,756,855,956,1047,1168,1288,1380,1521,1652,1774,1950,2049,2209,2389,2515,2729,2885,3027,3242,3424,3617,3840,3998,4205,4449,4656,4897,5129,5317,5589,5854",
			"name": "Coordination sequence T1 for Zeolite Code DOH.",
			"reference": [
				"W. M. Meier, D. H. Olson and Ch. Baerlocher, Atlas of Zeolite Structure Types, 4th Ed., Elsevier, 1996"
			],
			"link": [
				"R. W. Grosse-Kunstleve, \u003ca href=\"/A008078/b008078.txt\"\u003eTable of n, a(n) for n = 0..1000\u003c/a\u003e",
				"R. W. Grosse-Kunstleve, \u003ca href=\"/A005897/a005897.html\"\u003eCoordination Sequences and Encyclopedia of Integer Sequences\u003c/a\u003e",
				"R. W. Grosse-Kunstleve, G. O. Brunner and N. J. A. Sloane, \u003ca href=\"http://neilsloane.com/doc/ac96cs/\"\u003eAlgebraic Description of Coordination Sequences and Exact Topological Densities for Zeolites\u003c/a\u003e, Acta Cryst., A52 (1996), pp. 879-889.",
				"Sean A. Irvine, \u003ca href=\"/A008000/a008000_1.pdf\"\u003eGenerating Functions for Coordination Sequences of Zeolites, after Grosse-Kunstleve, Brunner, and Sloane\u003c/a\u003e",
				"International Zeolite Association, \u003ca href=\"http://www.iza-structure.org/databases/\"\u003eDatabase of Zeolite Structures\u003c/a\u003e"
			],
			"keyword": "nonn",
			"offset": "0,2",
			"author": "_Ralf W. Grosse-Kunstleve_",
			"references": 1,
			"revision": 14,
			"time": "2018-04-10T08:26:35-04:00",
			"created": "1996-03-15T03:00:00-05:00"
		}
	]
}