{
	"greeting": "Greetings from The On-Line Encyclopedia of Integer Sequences! http://oeis.org/",
	"query": "id:A008799",
	"count": 1,
	"start": 0,
	"results": [
		{
			"number": 8799,
			"data": "1,0,2,0,3,0,5,1,7,2,9,3,12,5,15,7,18,9,22,12,26,15,30,18,35,22,40,26,45,30,51,35,57,40,63,45,70,51,77,57,84,63,92,70,100,77,108,84,117,92,126,100,135,108,145,117,155,126,165,135,176,145,187,155,198,165,210,176,222,187",
			"name": "Molien series for group [2,6]+ = 226.",
			"link": [
				"G. C. Greubel, \u003ca href=\"/A008799/b008799.txt\"\u003eTable of n, a(n) for n = 0..1000\u003c/a\u003e",
				"\u003ca href=\"/index/Mo#Molien\"\u003eIndex entries for Molien series\u003c/a\u003e",
				"\u003ca href=\"/index/Rec#order_09\"\u003eIndex entries for linear recurrences with constant coefficients\u003c/a\u003e, signature (1,1,-1,0,0,1,-1,-1,1)."
			],
			"formula": [
				"G.f.: (1+x^7)/((1-x^2)^2*(1-x^6)).",
				"a(n) = floor((n^2+3*n+21+7*(n+1)*(-1)^n)/24). - _Tani Akinari_, Jul 25 2013",
				"G.f.: (1 -x +x^2 -x^3 +x^4 -x^5 +x^6)/( (1+x+x^2)*(1-x+x^2)*(1+x)^2*(1-x)^3 ). - _R. J. Mathar_, Dec",
				"18 2014"
			],
			"maple": [
				"seq(coeff(series((1+x^7)/((1-x^2)^2*(1-x^6)), x, n+1), x, n), n = 0..80);"
			],
			"mathematica": [
				"CoefficientList[Series[(1+x^7)/((1-x^2)^2*(1-x^6)), {x,0,80}], x] (* _G. C. Greubel_, Sep 12 2019 *)"
			],
			"program": [
				"(PARI) my(x='x+O('x^80)); Vec((1+x^7)/((1-x^2)^2*(1-x^6))) \\\\ _G. C. Greubel_, Sep 12 2019",
				"(MAGMA) R\u003cx\u003e:=PowerSeriesRing(Integers(), 80); Coefficients(R!( (1+x^7)/((1-x^2)^2*(1-x^6)) )); // _G. C. Greubel_, Sep 12 2019",
				"(Sage)",
				"def A008799_list(prec):",
				"    P.\u003cx\u003e = PowerSeriesRing(ZZ, prec)",
				"    return P((1+x^7)/((1-x^2)^2*(1-x^6))).list()",
				"A008799_list(80) # _G. C. Greubel_, Sep 12 2019",
				"(GAP) a:=[1,0,2,0,3,0,5,1,7];; for n in [10..80] do a[n]:=a[n-1]+a[n-2]-a[n-3]+a[n-6]-a[n-7]-a[n-8]+a[n-9]; od; a; # _G. C. Greubel_, Sep 12 2019"
			],
			"keyword": "nonn",
			"offset": "0,3",
			"author": "_N. J. A. Sloane_",
			"ext": [
				"Definition clarified by _N. J. A. Sloane_, Feb 02 2018",
				"More terms added by _G. C. Greubel_, Sep 12 2019"
			],
			"references": 1,
			"revision": 28,
			"time": "2019-09-12T03:03:00-04:00",
			"created": "1996-03-15T03:00:00-05:00"
		}
	]
}