{
	"greeting": "Greetings from The On-Line Encyclopedia of Integer Sequences! http://oeis.org/",
	"query": "id:A009800",
	"count": 1,
	"start": 0,
	"results": [
		{
			"number": 9800,
			"data": "0,2,-4,-234,6712,352810,-51057612,-1023950914,1108394851184,-71310362507694,-51164568485366420,13196238860000066662,3757445119118639509416,-2956206137979802134429574",
			"name": "Expansion of tanh(sin(x)*x).",
			"mathematica": [
				"Tanh[ Sin[ x ]*x ] (* Even Part *)"
			],
			"xref": [
				"Cf. A024243."
			],
			"keyword": "sign",
			"offset": "0,2",
			"author": "_R. H. Hardin_",
			"ext": [
				"Extended with signs by _Olivier Gérard_, Mar 15 1997"
			],
			"references": 1,
			"revision": 12,
			"time": "2017-04-02T12:27:23-04:00",
			"created": "1996-03-15T03:00:00-05:00"
		}
	]
}