{
	"greeting": "Greetings from The On-Line Encyclopedia of Integer Sequences! http://oeis.org/",
	"query": "id:A009479",
	"count": 1,
	"start": 0,
	"results": [
		{
			"number": 9479,
			"data": "1,1,17,201,7041,291025,18979729,1597285977,176766161281,24470008076193,4166922390589073,854427257015747305,207778779976099167233,59114568337761907619441",
			"name": "Expansion of sin(sin(x))/cos(x).",
			"mathematica": [
				"Take[With[{nn=40},CoefficientList[Series[Sin[Sin[x]]/Cos[x],{x,0,nn}], x]Range[0,nn-1]!],{2,-1,2}] (* _Harvey P. Dale_, Sep 18 2011 *)"
			],
			"keyword": "nonn",
			"offset": "0,3",
			"author": "_R. H. Hardin_",
			"ext": [
				"Extended and signs tested Mar 15 1997 by _Olivier Gérard_."
			],
			"references": 0,
			"revision": 14,
			"time": "2014-01-27T09:12:52-05:00",
			"created": "1996-03-15T03:00:00-05:00"
		}
	]
}