{
	"greeting": "Greetings from The On-Line Encyclopedia of Integer Sequences! http://oeis.org/",
	"query": "id:A009477",
	"count": 1,
	"start": 0,
	"results": [
		{
			"number": 9477,
			"data": "0,1,2,1,-4,-3,38,61,-456,-1383,6154,28345,-131660,-808299,3516334,28955317,-106736272,-1188919631,3902982930,56978370417,-170222268308,-3196912985683,8352824699446,205147130407981,-450765801976408",
			"name": "Expansion of sin(sin(x))*exp(x).",
			"mathematica": [
				"Sin[ Sin[ x ] ]*Exp[ x ]"
			],
			"keyword": "sign,easy",
			"offset": "0,3",
			"author": "_R. H. Hardin_",
			"ext": [
				"Extended with signs by _Olivier Gérard_, Mar 15 1997"
			],
			"references": 0,
			"revision": 11,
			"time": "2017-04-01T14:27:11-04:00",
			"created": "1996-03-15T03:00:00-05:00"
		}
	]
}