{
	"greeting": "Greetings from The On-Line Encyclopedia of Integer Sequences! http://oeis.org/",
	"query": "id:A009340",
	"count": 1,
	"start": 0,
	"results": [
		{
			"number": 9340,
			"data": "0,1,1,-2,-2,20,-24,-352,1968,5840,-126944,278848,8284288,-76872640,-400462464,12744251648,-38515617792,-1843130033920,23434765820416,182086013314048,-7427539628214272,27218422422656000",
			"name": "E.g.f. log(1 + sin(x)*exp(x)).",
			"formula": [
				"a(n)=2*sum(k=1..n, sum(j=0..(n-k)/2, binomial(n,n-k-2*j)*(k^(n-k-2*j)*sum(i=0..k/2, (2*i-k)^(k+2*j)*binomial(k,i)*(-1)^(j-i+1))))/(2^k*k)). - _Vladimir Kruchinin_, Jun 13 2011",
				"Lim sup n-\u003einfinity (|a(n)|/n!)^(1/n) = 0.840089206911... = abs(1/r), where r is the complex root of the equation r = log(-1/sin(r)). - _Vaclav Kotesovec_, Nov 03 2013"
			],
			"mathematica": [
				"With[{nn=30},CoefficientList[Series[Log[1+Sin[x]Exp[x]],{x,0,nn}],x] Range[ 0,nn]!] (* _Harvey P. Dale_, May 06 2013 *)"
			],
			"program": [
				"(Maxima)",
				"a(n):=2*sum(sum(binomial(n,n-k-2*j)*(k^(n-k-2*j)*sum((2*i-k)^(k+2*j)*binomial(k,i)*(-1)^(j-i+1),i,0,k/2)),j,0,(n-k)/2)/(2^k*k),k,1,n); /* _Vladimir Kruchinin_, Jun 13 2011 */"
			],
			"keyword": "sign,easy",
			"offset": "0,4",
			"author": "_R. H. Hardin_",
			"ext": [
				"Extended with signs by _Olivier Gérard_, Mar 15 1997"
			],
			"references": 0,
			"revision": 19,
			"time": "2017-04-01T14:04:00-04:00",
			"created": "1996-03-15T03:00:00-05:00"
		}
	]
}