{
	"greeting": "Greetings from The On-Line Encyclopedia of Integer Sequences! http://oeis.org/",
	"query": "id:A009757",
	"count": 1,
	"start": 0,
	"results": [
		{
			"number": 9757,
			"data": "1,5,101,4297,311017,34201485,5316286925,1110355789329,300067100236625,101902284312853013,42484968788050104757,21335944225303831614809,12704193401200858575308601,8850034105543023432746843549,7130974518135579153768747620893",
			"name": "Expansion of e.g.f. tan(x)/cos(tan(x)), odd powers only.",
			"link": [
				"G. C. Greubel, \u003ca href=\"/A009757/b009757.txt\"\u003eTable of n, a(n) for n = 0..224\u003c/a\u003e"
			],
			"mathematica": [
				"With[{nmax = 50}, CoefficientList[Series[Tan[x]/Cos[Tan[x]], {x, 0, nmax}], x]*Range[0, nmax - 1]!][[2 ;; ;; 2]] (* _G. C. Greubel_, Feb 12 2018 *)"
			],
			"program": [
				"(PARI) x='x+O('x^50); v=Vec(serlaplace(tan(x)/cos(tan(x)))); vector((#v-1)\\2 ,n,v[2*n-1]) \\\\ _G. C. Greubel_, Feb 12 2018"
			],
			"keyword": "nonn",
			"offset": "0,2",
			"author": "_R. H. Hardin_",
			"ext": [
				"Extended and signs tested by _Olivier Gérard_, Mar 15 1997"
			],
			"references": 1,
			"revision": 16,
			"time": "2018-02-13T03:13:07-05:00",
			"created": "1996-03-15T03:00:00-05:00"
		}
	]
}