{
	"greeting": "Greetings from The On-Line Encyclopedia of Integer Sequences! http://oeis.org/",
	"query": "id:A009948",
	"count": 1,
	"start": 0,
	"results": [
		{
			"number": 9948,
			"data": "1,12,42,96,170,264,378,516,674,852,1050,1272,1514,1776,2058,2364,2690,3036,3402,3792,4202,4632,5082,5556,6050,6564,7098,7656,8234,8832,9450,10092,10754,11436,12138,12864,13610,14376,15162,15972,16802",
			"name": "Coordination sequence for alpha-Nd, Position Nd1.",
			"reference": [
				"Gmelin Handbook of Inorg. and Organomet. Chem., 8th Ed., 1994, TYPIX search code (194) hP4."
			],
			"link": [
				"Sean A. Irvine, \u003ca href=\"/A009948/b009948.txt\"\u003eTable of n, a(n) for n = 0..1000\u003c/a\u003e",
				"R. W. Grosse-Kunstleve, \u003ca href=\"/A005897/a005897.html\"\u003eCoordination Sequences and Encyclopedia of Integer Sequences\u003c/a\u003e",
				"R. W. Grosse-Kunstleve, G. O. Brunner and N. J. A. Sloane, \u003ca href=\"http://neilsloane.com/doc/ac96cs/\"\u003eAlgebraic Description of Coordination Sequences and Exact Topological Densities for Zeolites\u003c/a\u003e, Acta Cryst., A52 (1996), pp. 879-889.",
				"Sean A. Irvine, \u003ca href=\"/A008000/a008000_1.pdf\"\u003eGenerating Functions for Coordination Sequences of Zeolites, after Grosse-Kunstleve, Brunner, and Sloane\u003c/a\u003e"
			],
			"formula": [
				"From _Colin Barker_, Sep 09 2014: (Start)",
				"a(n) = (5-(-1)^n+2*(-i)^n+2*i^n+42*n^2)/4 for n\u003e0, where i=sqrt(-1).",
				"a(n) = 2*a(n-1)-a(n-2)+a(n-4)-2*a(n-5)+a(n-6) for n\u003e6.",
				"G.f.: -(x^6+10*x^5+19*x^4+24*x^3+19*x^2+10*x+1) / ((x-1)^3*(x+1)*(x^2+1)). (End)"
			],
			"keyword": "nonn",
			"offset": "0,2",
			"author": "_Ralf W. Grosse-Kunstleve_",
			"references": 1,
			"revision": 21,
			"time": "2018-04-10T08:26:36-04:00",
			"created": "1996-03-15T03:00:00-05:00"
		}
	]
}