{
	"greeting": "Greetings from The On-Line Encyclopedia of Integer Sequences! http://oeis.org/",
	"query": "id:A009126",
	"count": 1,
	"start": 0,
	"results": [
		{
			"number": 9126,
			"data": "1,0,1,-3,4,0,16,-168,64,3840,256,-177408,1024,11182080,4096,-951886848,16384,104932638720,65536,-14544442687488,262144,2475749026037760,1048576,-507711943255523328,4194304,123460740095095603200,16777216",
			"name": "Expansion of e.g.f. cosh(log(1+tanh(x))).",
			"link": [
				"G. C. Greubel, \u003ca href=\"/A009126/b009126.txt\"\u003eTable of n, a(n) for n = 0..250\u003c/a\u003e"
			],
			"formula": [
				"E.g.f.: (1/Q(0)+Q(0))/2, where Q(k) = 1 - x/( 2*k+1 + x/Q(k+1) ); (continued fraction). - _Sergei N. Gladkovskii_, Dec 20 2013"
			],
			"mathematica": [
				"With[{nn=30},CoefficientList[Series[Cosh[Log[1+Tanh[x]]],{x,0,nn}],x] Range[0,nn]!] (* _Harvey P. Dale_, May 18 2014 *)"
			],
			"program": [
				"(PARI) x='x+O('x^30); Vec(serlaplace(cosh(log(1+tanh(x))))) \\\\ _G. C. Greubel_, Jul 28 2018",
				"(MAGMA) m:=30; R\u003cx\u003e:=PowerSeriesRing(Rationals(), m); b:=Coefficients(R!(Cosh(Log(1+Tanh(x))))); [Factorial(n-1)*b[n]: n in [1..m]]; // _G. C. Greubel_, Jul 28 2018"
			],
			"xref": [
				"Cf. A009570."
			],
			"keyword": "sign,easy",
			"offset": "0,4",
			"author": "_R. H. Hardin_",
			"ext": [
				"Extended with signs by _Olivier Gérard_, Mar 15 1997",
				"Previous Mathematica program replaced and definition clarified by _Harvey P. Dale_, May 18 2014"
			],
			"references": 2,
			"revision": 20,
			"time": "2018-07-28T21:42:36-04:00",
			"created": "1996-03-15T03:00:00-05:00"
		}
	]
}