{
	"greeting": "Greetings from The On-Line Encyclopedia of Integer Sequences! http://oeis.org/",
	"query": "id:A009877",
	"count": 1,
	"start": 0,
	"results": [
		{
			"number": 9877,
			"data": "1,4,10,18,28,45,65,84,106,134,173,216,252,286,327,378,434,490,552,620,689,760,830,902,977,1056,1149,1254,1361,1461,1552,1644,1747,1861,1978,2094,2221,2365,2506,2628,2746,2884,3035,3178,3310,3455,3639,3837",
			"name": "Coordination sequence T3 for Zeolite Code DFO.",
			"reference": [
				"W. M. Meier, D. H. Olson and Ch. Baerlocher, Atlas of Zeolite Structure Types, 4th Ed., Elsevier, 1996."
			],
			"link": [
				"R. W. Grosse-Kunstleve, \u003ca href=\"/A009877/b009877.txt\"\u003eTable of n, a(n) for n = 0..1000\u003c/a\u003e",
				"R. W. Grosse-Kunstleve, \u003ca href=\"/A005897/a005897.html\"\u003eCoordination Sequences and Encyclopedia of Integer Sequences\u003c/a\u003e",
				"R. W. Grosse-Kunstleve, G. O. Brunner and N. J. A. Sloane, \u003ca href=\"http://neilsloane.com/doc/ac96cs/\"\u003eAlgebraic Description of Coordination Sequences and Exact Topological Densities for Zeolites\u003c/a\u003e, Acta Cryst., A52 (1996), pp. 879-889.",
				"Sean A. Irvine, \u003ca href=\"/A008000/a008000_1.pdf\"\u003eGenerating Functions for Coordination Sequences of Zeolites, after Grosse-Kunstleve, Brunner, and Sloane\u003c/a\u003e",
				"International Zeolite Association, \u003ca href=\"http://www.iza-structure.org/databases/\"\u003eDatabase of Zeolite Structures\u003c/a\u003e"
			],
			"keyword": "nonn",
			"offset": "0,2",
			"author": "_Ralf W. Grosse-Kunstleve_",
			"references": 1,
			"revision": 15,
			"time": "2018-04-10T08:26:36-04:00",
			"created": "1996-03-15T03:00:00-05:00"
		}
	]
}