{
	"greeting": "Greetings from The On-Line Encyclopedia of Integer Sequences! http://oeis.org/",
	"query": "id:A009318",
	"count": 1,
	"start": 0,
	"results": [
		{
			"number": 9318,
			"data": "0,1,-4,16,-79,498,-3903,36727,-403548,5071441,-71752592,1128768188,-19545504383,369430614902,-7568453115871,167056552799575,-3952337703492608,99774721152384553,-2676963889524158084",
			"name": "Expansion of log(1+log(1+x))/exp(x).",
			"link": [
				"INRIA Algorithms Project, \u003ca href=\"http://ecs.inria.fr/services/structure?nbr=172\"\u003eEncyclopedia of Combinatorial Structures 172\u003c/a\u003e"
			],
			"formula": [
				"a(n) ~ (n-1)! * (-1)^(n+1) * exp(1-exp(-1)) / (1-exp(-1))^n. - _Vaclav Kotesovec_, Jan 23 2015"
			],
			"mathematica": [
				"Log[ 1+Log[ 1+x ] ]/Exp[ x ]",
				"CoefficientList[Series[Log[1 + Log[1 + x]]/E^x, {x, 0, 20}], x] * Range[0, 20]! (* _Vaclav Kotesovec_, Jan 23 2015 *)"
			],
			"keyword": "sign,easy",
			"offset": "0,3",
			"author": "_R. H. Hardin_",
			"ext": [
				"Extended with signs by _Olivier Gérard_, Mar 15 1997"
			],
			"references": 0,
			"revision": 17,
			"time": "2017-04-18T07:03:10-04:00",
			"created": "1996-03-15T03:00:00-05:00"
		}
	]
}