{
	"greeting": "Greetings from The On-Line Encyclopedia of Integer Sequences! http://oeis.org/",
	"query": "id:A009221",
	"count": 1,
	"start": 0,
	"results": [
		{
			"number": 9221,
			"data": "1,1,1,4,13,68,373,2472,18649,152144,1433129,14034560,156563045,1799730624,23043285021,304857999232,4392102360241,65741679927552,1051530622359889,17551668357299200,308633929353801661",
			"name": "Expansion of exp(sinh(tan(x))).",
			"mathematica": [
				"Exp[ Sinh[ Tan[ x ] ] ]"
			],
			"keyword": "nonn,easy",
			"offset": "0,4",
			"author": "_R. H. Hardin_",
			"ext": [
				"Extended and signs tested Mar 15 1997 by _Olivier Gérard_."
			],
			"references": 0,
			"revision": 8,
			"time": "2014-01-27T09:12:47-05:00",
			"created": "1996-03-15T03:00:00-05:00"
		}
	]
}