{
	"greeting": "Greetings from The On-Line Encyclopedia of Integer Sequences! http://oeis.org/",
	"query": "id:A009527",
	"count": 1,
	"start": 0,
	"results": [
		{
			"number": 9527,
			"data": "1,-6,92,-3472,209488,-17750304,2024471360,-300235771648,56114783183104,-12879188611161600,3554985326516636672,-1160370413641935818752,441696720455092381339648,-193795533844150807278624768",
			"name": "Expansion of sin(tanh(x)*cos(x)).",
			"formula": [
				"sin(tanh(x)*cos(x)) = Sum a(n)x^(2n+1)/(2n+1)!."
			],
			"example": [
				"sin(tanh(x)*cos(x)) = x-x^3+(23/30)*x^5-(31/45)*x^7+(13093/22680)*x^9-(5603/12600)*x^11+(6326473/19459440)*x^13-(1172795983/5108103000)*x^15+..."
			],
			"mathematica": [
				"With[{nn=30},Take[CoefficientList[Series[Sin[Tanh[x]*Cos[x]],{x,0,nn}],x] Range[0,nn-1]!,{2,-1,2}]] (* _Harvey P. Dale_, Aug 29 2012 *)"
			],
			"keyword": "sign",
			"offset": "0,2",
			"author": "_R. H. Hardin_",
			"ext": [
				"Extended with signs by _Olivier Gérard_, Mar 15 1997"
			],
			"references": 0,
			"revision": 24,
			"time": "2017-04-01T22:44:32-04:00",
			"created": "1996-03-15T03:00:00-05:00"
		}
	]
}