{
	"greeting": "Greetings from The On-Line Encyclopedia of Integer Sequences! http://oeis.org/",
	"query": "id:A009035",
	"count": 1,
	"start": 0,
	"results": [
		{
			"number": 9035,
			"data": "1,0,0,0,-12,120,-1020,8820,-79548,746928,-7222560,70422000,-663291552,5383325376,-19385922192,-677619961200,27837247597392,-777514428757632,19561790897109504,-475628128967428992,11488209552378045888",
			"name": "Expansion of e.g.f.: cos(log(1+x)^2).",
			"link": [
				"G. C. Greubel, \u003ca href=\"/A009035/b009035.txt\"\u003eTable of n, a(n) for n = 0..250\u003c/a\u003e"
			],
			"mathematica": [
				"With[{nn=20},CoefficientList[Series[Cos[Log[1+x]^2],{x,0,nn}],x] Range[0,nn]!] (* _Harvey P. Dale_, Jan 30 2015 *)"
			],
			"program": [
				"(PARI) x='x+O('x^30); Vec(serlaplace(cos(log(1+x)^2))) \\\\ _G. C. Greubel_, Jul 22 2018",
				"(MAGMA) m:=30; R\u003cx\u003e:=PowerSeriesRing(Rationals(), m); b:=Coefficients(R!(Cos(Log(1+x)^2))); [Factorial(n-1)*b[n]: n in [1..m]]; // _G. C. Greubel_, Jul 22 2018"
			],
			"keyword": "sign,easy",
			"offset": "0,5",
			"author": "_R. H. Hardin_",
			"ext": [
				"Extended with signs by _Olivier Gérard_, Mar 15 1997",
				"Definition clarified and prior Mathematica program replaced by _Harvey P. Dale_, Jan 30 2015"
			],
			"references": 1,
			"revision": 18,
			"time": "2018-07-22T22:53:18-04:00",
			"created": "1996-03-15T03:00:00-05:00"
		}
	]
}