{
	"greeting": "Greetings from The On-Line Encyclopedia of Integer Sequences! http://oeis.org/",
	"query": "id:A009688",
	"count": 1,
	"start": 0,
	"results": [
		{
			"number": 9688,
			"data": "1,6,132,6888,631120,88901472,17815778112,4813349520000,1685527674636544,742370072201602560,401601528167832511488,261760691714482869528576,202316143535276408972627968",
			"name": "Expansion of tan(sinh(x)/cos(x)).",
			"mathematica": [
				"Tan[ Sinh[ x ]/Cos[ x ]] (* Odd Part *)"
			],
			"keyword": "nonn",
			"offset": "0,2",
			"author": "_R. H. Hardin_",
			"ext": [
				"Extended and signs tested Mar 15 1997 by _Olivier Gérard_."
			],
			"references": 0,
			"revision": 9,
			"time": "2014-01-27T09:12:59-05:00",
			"created": "1996-03-15T03:00:00-05:00"
		}
	]
}