{
	"greeting": "Greetings from The On-Line Encyclopedia of Integer Sequences! http://oeis.org/",
	"query": "id:A009696",
	"count": 1,
	"start": 0,
	"results": [
		{
			"number": 9696,
			"data": "1,7,117,4555,317577,34316335,5287957053,1099518892339,296443784525713,100546719214082775,41891900484967019141,21030561862406486561563,12519930918307503306140953",
			"name": "Expansion of tan(tan(x))*cosh(x) (odd powers only).",
			"link": [
				"Robert Israel, \u003ca href=\"/A009696/b009696.txt\"\u003eTable of n, a(n) for n = 1..225\u003c/a\u003e"
			],
			"formula": [
				"a(n) ~ (2*n-1)! * 8 * cosh(arctan(Pi/2)) / ((4+Pi^2) * arctan(Pi/2)^(2*n)). - _Vaclav Kotesovec_, Jan 23 2015"
			],
			"maple": [
				"S:= series(tan(tan(x))*cosh(x), x, 40):",
				"seq(coeff(S,x,j)*j!, j=1..39,2); # _Robert Israel_, Feb 19 2018"
			],
			"mathematica": [
				"Tan[ Tan[ x ]]*Cosh[ x ] (* Odd Part *)",
				"nn = 20; Table[(CoefficientList[Series[Cosh[x]*Tan[Tan[x]], {x, 0, 2*nn+1}], x] * Range[0, 2*nn+1]!)[[n]], {n, 2, 2*nn, 2}] (* _Vaclav Kotesovec_, Jan 23 2015 *)"
			],
			"keyword": "nonn",
			"offset": "1,2",
			"author": "_R. H. Hardin_",
			"ext": [
				"Extended and signs tested by _Olivier Gérard_, Mar 15 1997",
				"Offset changed to 1 by _Vaclav Kotesovec_, Jan 23 2015"
			],
			"references": 1,
			"revision": 20,
			"time": "2018-02-19T18:13:38-05:00",
			"created": "1996-03-15T03:00:00-05:00"
		}
	]
}