{
	"greeting": "Greetings from The On-Line Encyclopedia of Integer Sequences! http://oeis.org/",
	"query": "id:A009589",
	"count": 1,
	"start": 0,
	"results": [
		{
			"number": 9589,
			"data": "1,2,3,5,11,26,92,378,2238,20760,334080",
			"name": "If i \u003c n, j \u003c n, p/a(i) \u003c q/a(j), then there exists k with p/a(i) \u003c k/a(n) \u003c q/a(j).",
			"keyword": "nonn",
			"offset": "1,2",
			"author": "_David W. Wilson_",
			"references": 0,
			"revision": 5,
			"time": "2012-03-30T18:35:07-04:00",
			"created": "1999-12-11T03:00:00-05:00"
		}
	]
}