{
	"greeting": "Greetings from The On-Line Encyclopedia of Integer Sequences! http://oeis.org/",
	"query": "id:A009281",
	"count": 1,
	"start": 0,
	"results": [
		{
			"number": 9281,
			"data": "1,1,2,1,7,-19,136,-923,7421,-66743,667486,-7342279,88107427,-1145396459,16035550532,-240533257859,3848532125881,-65425046139823,1177650830516986,-22375365779822543,447507315596451071",
			"name": "Expansion of exp(x)*cosh(log(1+x)).",
			"formula": [
				"a(n) ~ n! * (-1)^n / (2*exp(1)). - _Vaclav Kotesovec_, Jan 22 2015"
			],
			"mathematica": [
				"With[{nn=20},CoefficientList[Series[Exp[x]*Cosh[Log[1+x]],{x,0,nn}],x] Range[0,nn]!] (* _Harvey P. Dale_, Sep 02 2016 *)",
				"CoefficientList[Series[(E^x*(1 + (1 + x)^2))/(2*(1 + x)), {x, 0, 20}], x] * Range[0, 20]! (* _Vaclav Kotesovec_, Jan 22 2015 *)"
			],
			"keyword": "sign,easy",
			"offset": "0,3",
			"author": "_R. H. Hardin_",
			"ext": [
				"Extended with signs by _Olivier Gérard_, Mar 15 1997",
				"Prior Mathematica program replaced by _Harvey P. Dale_, Sep 02 2016"
			],
			"references": 0,
			"revision": 16,
			"time": "2016-09-02T13:25:44-04:00",
			"created": "1996-03-15T03:00:00-05:00"
		}
	]
}