{
	"greeting": "Greetings from The On-Line Encyclopedia of Integer Sequences! http://oeis.org/",
	"query": "id:A009316",
	"count": 1,
	"start": 0,
	"results": [
		{
			"number": 9316,
			"data": "0,1,-2,10,-47,323,-2509,24022,-262884,3312757,-46812246,736778634,-12755932287,241166285111,-4941674443133,109108249437782,-2582086472552784,65202893342750121,-1749904916594467218",
			"name": "Expansion of log(1+log(1+x))/cos(x).",
			"formula": [
				"a(n) ~ (n-1)! * (-1)^(n+1) / (cos(1-exp(-1)) * (1-exp(-1))^n). - _Vaclav Kotesovec_, Jan 23 2015"
			],
			"mathematica": [
				"Log[ 1+Log[ 1+x ] ]/Cos[ x ]",
				"CoefficientList[Series[Log[1 + Log[1 + x]]*Sec[x], {x, 0, 20}], x] * Range[0, 20]! (* _Vaclav Kotesovec_, Jan 23 2015 *)"
			],
			"keyword": "sign,easy",
			"offset": "0,3",
			"author": "_R. H. Hardin_",
			"ext": [
				"Extended with signs by _Olivier Gérard_, Mar 15 1997"
			],
			"references": 0,
			"revision": 13,
			"time": "2015-06-21T21:49:06-04:00",
			"created": "1996-03-15T03:00:00-05:00"
		}
	]
}