{
	"greeting": "Greetings from The On-Line Encyclopedia of Integer Sequences! http://oeis.org/",
	"query": "id:A009872",
	"count": 1,
	"start": 0,
	"results": [
		{
			"number": 9872,
			"data": "1,4,10,19,32,51,74,101,130,164,203,242,292,345,394,455,519,578,648,727,808,893,978,1059,1151,1267,1371,1463,1570,1684,1810,1943,2071,2188,2312,2463,2614,2760,2904,3048,3218,3388,3552,3717,3882,4083,4267",
			"name": "Coordination sequence T5 for Zeolite Code CON.",
			"reference": [
				"W. M. Meier, D. H. Olson and Ch. Baerlocher, Atlas of Zeolite Structure Types, 4th Ed., Elsevier, 1996."
			],
			"link": [
				"R. W. Grosse-Kunstleve, \u003ca href=\"/A009872/b009872.txt\"\u003eTable of n, a(n) for n = 0..1000\u003c/a\u003e",
				"R. W. Grosse-Kunstleve, \u003ca href=\"/A005897/a005897.html\"\u003eCoordination Sequences and Encyclopedia of Integer Sequences\u003c/a\u003e",
				"R. W. Grosse-Kunstleve, G. O. Brunner and N. J. A. Sloane, \u003ca href=\"http://neilsloane.com/doc/ac96cs/\"\u003eAlgebraic Description of Coordination Sequences and Exact Topological Densities for Zeolites\u003c/a\u003e, Acta Cryst., A52 (1996), pp. 879-889.",
				"Sean A. Irvine, \u003ca href=\"/A008000/a008000_1.pdf\"\u003eGenerating Functions for Coordination Sequences of Zeolites, after Grosse-Kunstleve, Brunner, and Sloane\u003c/a\u003e",
				"International Zeolite Association, \u003ca href=\"http://www.iza-structure.org/databases/\"\u003eDatabase of Zeolite Structures\u003c/a\u003e"
			],
			"keyword": "nonn",
			"offset": "0,2",
			"author": "_Ralf W. Grosse-Kunstleve_",
			"references": 1,
			"revision": 15,
			"time": "2018-04-10T08:26:35-04:00",
			"created": "1996-03-15T03:00:00-05:00"
		}
	]
}