{
	"greeting": "Greetings from The On-Line Encyclopedia of Integer Sequences! http://oeis.org/",
	"query": "id:A009508",
	"count": 1,
	"start": 0,
	"results": [
		{
			"number": 9508,
			"data": "0,2,4,-18,-2200,-150150,-11618004,-1078005082,-118928710576,-15184771406478,-2148536703814700,-309605570133329954,-34193099991177752904,4268254817856544829418,6637048590856623019431932",
			"name": "Expansion of sin(tan(x))*x.",
			"mathematica": [
				"Sin[ Tan[ x ] ]*x (* Even Part *)"
			],
			"keyword": "sign",
			"offset": "0,2",
			"author": "_R. H. Hardin_",
			"ext": [
				"Extended with signs by _Olivier Gérard_, Mar 15 1997"
			],
			"references": 1,
			"revision": 11,
			"time": "2017-04-01T22:20:45-04:00",
			"created": "1996-03-15T03:00:00-05:00"
		}
	]
}