{
	"greeting": "Greetings from The On-Line Encyclopedia of Integer Sequences! http://oeis.org/",
	"query": "id:A009384",
	"count": 1,
	"start": 0,
	"results": [
		{
			"number": 9384,
			"data": "0,1,-1,-1,6,1,-72,-1,1904,1,-89344,-1,6445824,1,-660602880,-1,91175548928,1,-16301080281088,-1,3664597991424000,1,-1011727950085619712,-1,336514395583207178240,1,-132722531082033166286848,-1",
			"name": "Expansion of log(1+tanh(sin(x))).",
			"mathematica": [
				"Log[ 1+Tanh[ Sin[ x ] ] ]"
			],
			"keyword": "sign,easy",
			"offset": "0,5",
			"author": "_R. H. Hardin_",
			"ext": [
				"Extended with signs by _Olivier Gérard_, Mar 15 1997"
			],
			"references": 0,
			"revision": 10,
			"time": "2015-06-22T22:25:16-04:00",
			"created": "1996-03-15T03:00:00-05:00"
		}
	]
}