{
	"greeting": "Greetings from The On-Line Encyclopedia of Integer Sequences! http://oeis.org/",
	"query": "id:A009148",
	"count": 1,
	"start": 0,
	"results": [
		{
			"number": 9148,
			"data": "1,0,0,0,12,-60,210,-1260,11760,-114912,1111560,-11676720,138570696,-1799232864,25005472128,-371229549600,5885388887040,-99270313446784,1773606197591232,-33452898176207232,664355584657373312",
			"name": "Expansion of cosh(sin(x)*log(1+x)).",
			"mathematica": [
				"Cosh[ Sin[ x ]*Log[ 1+x ] ]"
			],
			"keyword": "sign,easy",
			"offset": "0,5",
			"author": "_R. H. Hardin_",
			"ext": [
				"Extended with signs by _Olivier Gérard_, Mar 15 1997"
			],
			"references": 0,
			"revision": 10,
			"time": "2015-06-21T21:53:20-04:00",
			"created": "1996-03-15T03:00:00-05:00"
		}
	]
}