{
	"greeting": "Greetings from The On-Line Encyclopedia of Integer Sequences! http://oeis.org/",
	"query": "id:A009120",
	"count": 1,
	"start": 0,
	"results": [
		{
			"number": 9120,
			"data": "1,12,1680,665280,518918400,670442572800,1295295050649600,3497296636753920000,12576278705767096320000,58102407620643984998400000,335367096786357081410764800000",
			"name": "a(n) = (4n)!/(2n)!.",
			"comment": [
				"Absolute value of the coefficients in the expansion of cos(x^2). - clarified by _Muniru A Asiru_, Jul 26 2018",
				"Bisection of sequence A001813. - _Gary W. Adamson_, Jul 19 2011",
				"Expansion of cosh(x^2) in powers of x^4. - _G. C. Greubel_, Jul 26 2018"
			],
			"link": [
				"Vincenzo Librandi, \u003ca href=\"/A009120/b009120.txt\"\u003eTable of n, a(n) for n = 0..100\u003c/a\u003e"
			],
			"formula": [
				"a(n) = 4^n * A101485(n).",
				"Integral representation as n-th moment of a positive function on a positive half-axis, in Maple notation: a(n)=int((1/4)*exp(-1/4*sqrt(x))/(sqrt(Pi)*x^(3/4)), x=0..infinity), n=0, 1... - _Karol A. Penson_, Sep 19 2001",
				"From _Gary W. Adamson_, Jul 19 2011: (Start)",
				"a(n) = upper left term of M^(2n), where M = an infinite square production matrix as follows:",
				"  2, 2, 0, 0, 0, 0, ...",
				"  4, 4, 4, 0, 0, 0, ...",
				"  6, 6, 6, 6, 0, 0, ...",
				"  8, 8, 8, 8, 8, 0, ...",
				"  ... (End)"
			],
			"maple": [
				"seq(coeff(series(factorial(n)*cosh(x^2), x,n+1),x,n),n=0..50,4); # _Muniru A Asiru_, Jul 27 2018"
			],
			"mathematica": [
				"Table[(4n)!/(2n)!,{n,0,10}] (* or *) With[{nn=60},Abs[Take[ CoefficientList[ Series[ Cos[x^2],{x,0,nn}],x] Range[0,nn]!,{1,-1,4}]]] (* _Harvey P. Dale_, Mar 27 2012 *)"
			],
			"program": [
				"(MAGMA) [Factorial(4*n)/Factorial(2*n): n in [0..15]]; // _Vincenzo Librandi_, Jul 20 2011",
				"(PARI) for(n=0, 20, print1((4*n)!/(2*n)!, \", \")) \\\\ _G. C. Greubel_, Jul 26 2018",
				"(PARI) x='x+O('x^120); v=Vec(serlaplace(cosh(x^2))); vector(#v\\4, n, v[4*n-3]) \\\\ _G. C. Greubel_, Jul 26 2018",
				"(GAP) List([0..25],n-\u003eFactorial(4*n)/Factorial(2*n)); # _Muniru A Asiru_, Jul 26 2018"
			],
			"xref": [
				"Cf. A001813, A101485."
			],
			"keyword": "nonn,easy",
			"offset": "0,2",
			"author": "_R. H. Hardin_",
			"ext": [
				"Extended by _Olivier Gérard_, Mar 01 1997"
			],
			"references": 3,
			"revision": 43,
			"time": "2018-07-31T00:39:19-04:00",
			"created": "1996-03-15T03:00:00-05:00"
		}
	]
}