{
	"greeting": "Greetings from The On-Line Encyclopedia of Integer Sequences! http://oeis.org/",
	"query": "id:A009323",
	"count": 1,
	"start": 0,
	"results": [
		{
			"number": 9323,
			"data": "0,1,-2,4,-17,113,-829,6921,-68018,766909,-9668901,134950693,-2070353196,34628733267,-626969184451,12218295424331,-255041910240464,5677409949583369,-134260064803417113,3361378755164561417",
			"name": "Expansion of log(1+log(1+x)/cosh(x)).",
			"formula": [
				"a(n) ~ (n-1)! * (-1)^(n+1) / (1-exp(-r))^n, where r = 1.2699247771697243287665144498039831430030774... is the root of the equation 1 + exp(-2 + 2*exp(-r)) - 2*exp(exp(-r)-1)*r = 0. - _Vaclav Kotesovec_, Jan 24 2015"
			],
			"mathematica": [
				"Log[ 1+Log[ 1+x ]/Cosh[ x ] ]",
				"CoefficientList[Series[Log[1 + Log[1 + x]*Sech[x]], {x, 0, 20}], x] * Range[0, 20]! (* _Vaclav Kotesovec_, Jan 24 2015 *)"
			],
			"keyword": "sign,easy",
			"offset": "0,3",
			"author": "_R. H. Hardin_",
			"ext": [
				"Extended with signs by _Olivier Gérard_, Mar 15 1997"
			],
			"references": 0,
			"revision": 13,
			"time": "2015-06-21T21:48:29-04:00",
			"created": "1996-03-15T03:00:00-05:00"
		}
	]
}