{
	"greeting": "Greetings from The On-Line Encyclopedia of Integer Sequences! http://oeis.org/",
	"query": "id:A009992",
	"count": 1,
	"start": 0,
	"results": [
		{
			"number": 9992,
			"data": "1,48,2304,110592,5308416,254803968,12230590464,587068342272,28179280429056,1352605460594688,64925062108545024,3116402981210161152,149587343098087735296,7180192468708211294208,344649238497994142121984,16543163447903718821855232",
			"name": "Powers of 48: a(n) = 48^n.",
			"comment": [
				"If X_1, X_2, ..., X_n is a partition of the set {1,2,...,2*n} into blocks of size 2 then, for n\u003e=1, a(n) is equal to the number of functions f : {1,2,..., 2*n}-\u003e{1,2,3,4,5,6,7} such that for fixed y_1,y_2,...,y_n in {1,2,3,4,5,6,7} we have f(X_i)\u003c\u003e{y_i}, (i=1,2,...,n). - _Milan Janjic_, May 24 2007",
				"The compositions of n in which each natural number is colored by one of p different colors are called p-colored compositions of n. For n \u003e= 1, a(n) equals the number of 48-colored compositions of n such that no adjacent parts have the same color. - _Milan Janjic_, Nov 17 2011"
			],
			"link": [
				"T. D. Noe, \u003ca href=\"/A009992/b009992.txt\"\u003eTable of n, a(n) for n = 0..100\u003c/a\u003e",
				"Milan Janjic, \u003ca href=\"http://www.pmfbl.org/janjic/\"\u003eEnumerative Formulas for Some Functions on Finite Sets\u003c/a\u003e",
				"Tanya Khovanova, \u003ca href=\"http://www.tanyakhovanova.com/RecursiveSequences/RecursiveSequences.html\"\u003eRecursive Sequences\u003c/a\u003e",
				"\u003ca href=\"/index/Rec#order_01\"\u003eIndex entries for linear recurrences with constant coefficients\u003c/a\u003e, signature (48)."
			],
			"formula": [
				"G.f.: 1/(1-48*x). - _Philippe Deléham_, Nov 24 2008",
				"a(n) = 48^n; a(n) = 48*a(n-1), a(0)=1. - _Vincenzo Librandi_, Nov 21 2010",
				"E.g.f.: exp(48*x). - _Muniru A Asiru_, Nov 21 2018"
			],
			"maple": [
				"A009992 := n -\u003e 48^n: seq(A009992(n), n=0..20); # _M. F. Hasler_, Apr 19 2015"
			],
			"mathematica": [
				"48^Range[0, 15] (* _Michael De Vlieger_, Jan 13 2018 *)"
			],
			"program": [
				"(MAGMA)[48^n: n in [0..20]] // _Vincenzo Librandi_, Nov 21 2010",
				"(PARI) A009992(n)=48^n \\\\ _M. F. Hasler_, Apr 19 2015",
				"(GAP) List([0..20],n-\u003e48^n); # _Muniru A Asiru_, Nov 21 2018",
				"(Python) for n in range(0,20): print(48**n, end=', ') # _Stefano Spezia_, Nov 21 2018",
				"(Sage) [(48)^n for n in range(20)] # _G. C. Greubel_, Nov 21 2018"
			],
			"xref": [
				"Cf. A001018 (powers of 8), ..., A001029 (powers of 19), A009964 (powers of 20), ..., A009991 (powers of 47), A087752 (powers of 49).",
				"Cf. A000079 (2^n), A000244 (3^n), A000302 (4^n), A000400 (6^n), A001018 (8^n), A001021 (12^n), A001025 (16^n), A009968 (24^n)."
			],
			"keyword": "nonn,easy",
			"offset": "0,2",
			"author": "_N. J. A. Sloane_",
			"ext": [
				"Edited by _M. F. Hasler_, Apr 19 2015"
			],
			"references": 10,
			"revision": 59,
			"time": "2019-02-06T11:00:33-05:00",
			"created": "1996-12-11T03:00:00-05:00"
		}
	]
}