{
	"greeting": "Greetings from The On-Line Encyclopedia of Integer Sequences! http://oeis.org/",
	"query": "id:A009708",
	"count": 1,
	"start": 0,
	"results": [
		{
			"number": 9708,
			"data": "1,7,177,10519,1108833,180134183,41643888145,12982974409271,5247381641852609,2667871676330509895,1666128949779524612977,1253728661849677130856279,1118729647152655182634160673",
			"name": "Expansion of tan(tan(x)/cos(x)).",
			"mathematica": [
				"With[{nn=30},Take[CoefficientList[Series[Tan[Tan[x]/Cos[x]],{x,0,nn}],x] Range[0,nn-1]!,{2,-1,2}]] (* _Harvey P. Dale_, Oct 13 2014 *)"
			],
			"keyword": "nonn",
			"offset": "0,2",
			"author": "_R. H. Hardin_",
			"ext": [
				"Extended and signs tested Mar 15 1997 by _Olivier Gérard_.",
				"Prior Mathematica program replaced by _Harvey P. Dale_, Oct 13 2014"
			],
			"references": 0,
			"revision": 11,
			"time": "2014-10-13T18:06:03-04:00",
			"created": "1996-03-15T03:00:00-05:00"
		}
	]
}