{
	"greeting": "Greetings from The On-Line Encyclopedia of Integer Sequences! http://oeis.org/",
	"query": "id:A009247",
	"count": 1,
	"start": 0,
	"results": [
		{
			"number": 9247,
			"data": "1,1,1,6,21,92,597,3472,26537,209488,1834249,17750304,180938109,2024471360,23781199197,300235771648,3989919982673,56114783183104,830092069266577,12879188611161600,209479116176732901,3554985326516636672",
			"name": "Expansion of exp(tan(x)*cosh(x)).",
			"mathematica": [
				"CoefficientList[Series[Exp[Tan[x]*Cosh[x]],{x,0,20}],x]Range[0,20]! (* _Harvey P. Dale_, Jul 25 2011 *)"
			],
			"keyword": "nonn,easy",
			"offset": "0,4",
			"author": "_R. H. Hardin_",
			"ext": [
				"Extended and signs tested Mar 15 1997 by _Olivier Gérard_."
			],
			"references": 0,
			"revision": 15,
			"time": "2014-01-27T09:12:47-05:00",
			"created": "1996-03-15T03:00:00-05:00"
		}
	]
}