{
	"greeting": "Greetings from The On-Line Encyclopedia of Integer Sequences! http://oeis.org/",
	"query": "id:A010278",
	"count": 1,
	"start": 0,
	"results": [
		{
			"number": 10278,
			"data": "3,1,1,1,14,2,2,1,34,2,1,2,1,1,6,4,1,1,2,1,80,4,1,3,3,1,3,5,1,4,1,39,1,1,2,2,1,7,2,29,4,5,1,1,4,13,13,63,1,31,3,1,2,4,1,17,19,4,2,16,5,2,1,3,1,2,4,4,5,4,5,4,1,3,3,1",
			"name": "Continued fraction for cube root of 49.",
			"link": [
				"G. Xiao, \u003ca href=\"http://wims.unice.fr/~wims/en_tool~number~contfrac.en.html\"\u003eContfrac\u003c/a\u003e"
			],
			"maple": [
				"Digits:=300: convert(evalf(49^(1/3)), confrac); # _Wesley Ivan Hurt_, Apr 01 2014"
			],
			"xref": [
				"Cf. A010620."
			],
			"keyword": "nonn,cofr",
			"offset": "0,1",
			"author": "_N. J. A. Sloane_",
			"references": 0,
			"revision": 12,
			"time": "2014-04-05T07:14:54-04:00",
			"created": "1996-03-15T03:00:00-05:00"
		}
	]
}