{
	"greeting": "Greetings from The On-Line Encyclopedia of Integer Sequences! http://oeis.org/",
	"query": "id:A010502",
	"count": 1,
	"start": 0,
	"results": [
		{
			"number": 10502,
			"data": "6,9,2,8,2,0,3,2,3,0,2,7,5,5,0,9,1,7,4,1,0,9,7,8,5,3,6,6,0,2,3,4,8,9,4,6,7,7,7,1,2,2,1,0,1,5,2,4,1,5,2,2,5,1,2,2,2,3,2,2,7,9,1,7,8,0,7,7,3,2,0,6,7,6,3,5,2,0,0,1,4,8,3,2,4,5,8,4,7,4,7,0,2,8,9,9,4,3,0",
			"name": "Decimal expansion of square root of 48.",
			"comment": [
				"sqrt(48)/10 is the area enclosed by Koch's fractal snowflake based on unit-sided equilateral triangle (actually 8/5 times the latter's area). - _Lekraj Beedassy_, Jan 06 2005",
				"7+sqrt(48) is the ratio of outer to inner Soddy circles' radii for three identical kissing circles. - _Lekraj Beedassy_, Feb 14 2006",
				"Continued fraction expansion is 6 followed by {1, 12} repeated. - _Harry J. Smith_, Jun 06 2009"
			],
			"reference": [
				"J. N. Kapur, Mathematics Enjoyment For The Millions, Problem 47 pp. 64-67, Arya Book Depot, New Delhi 2000."
			],
			"link": [
				"Harry J. Smith, \u003ca href=\"/A010502/b010502.txt\"\u003eTable of n, a(n) for n = 1..20000\u003c/a\u003e",
				"L. Riddle, \u003ca href=\"http://ecademy.agnesscott.edu/~lriddle/ifs/ksnow/area.htm\"\u003eArea of the Koch Snowflake\u003c/a\u003e"
			],
			"formula": [
				"Equals 4*A002194. - _R. J. Mathar_, Jul 31 2010"
			],
			"example": [
				"6.928203230275509174109785366023489467771221015241522512223227917807732... - _Harry J. Smith_, Jun 06 2009"
			],
			"mathematica": [
				"RealDigits[N[Sqrt[48],200]][[1]] (* _Vladimir Joseph Stephan Orlovsky_, Feb 24 2011 *)"
			],
			"program": [
				"(PARI) { default(realprecision, 20080); x=sqrt(48); for (n=1, 20000, d=floor(x); x=(x-d)*10; write(\"b010502.txt\", n, \" \", d)); } \\\\ _Harry J. Smith_, Jun 06 2009"
			],
			"xref": [
				"Cf. A040041 Continued fraction. - _Harry J. Smith_, Jun 06 2009"
			],
			"keyword": "nonn,cons",
			"offset": "1,1",
			"author": "_N. J. A. Sloane_",
			"references": 11,
			"revision": 23,
			"time": "2015-12-20T13:39:15-05:00",
			"created": "1996-12-11T03:00:00-05:00"
		}
	]
}