{
	"greeting": "Greetings from The On-Line Encyclopedia of Integer Sequences! http://oeis.org/",
	"query": "id:A010309",
	"count": 1,
	"start": 0,
	"results": [
		{
			"number": 10309,
			"data": "4,3,16,1,1,5,1,1,2,16,2,1,3,3,2,1,6,2,12,1,1,1,2,4,3,2,14,3,3,2,1,2,1,11,3,21,1,1,1,1,2,6,1,1,3,1,3,12,1,1,1,3,2,3,1,1,10,3,3,1,3,26,1,45,1,2,2,2,25,1,1,9,4,11,1,2",
			"name": "Continued fraction for cube root of 81.",
			"link": [
				"G. Xiao, \u003ca href=\"http://wims.unice.fr/~wims/en_tool~number~contfrac.en.html\"\u003eContfrac\u003c/a\u003e"
			],
			"mathematica": [
				"ContinuedFraction[Surd[81,3],120] (* _Harvey P. Dale_, May 29 2019 *)"
			],
			"keyword": "nonn,cofr",
			"offset": "0,1",
			"author": "_N. J. A. Sloane_.",
			"references": 0,
			"revision": 8,
			"time": "2019-05-29T19:32:06-04:00",
			"created": "1996-03-15T03:00:00-05:00"
		}
	]
}