{
	"greeting": "Greetings from The On-Line Encyclopedia of Integer Sequences! http://oeis.org/",
	"query": "id:A010973",
	"count": 1,
	"start": 0,
	"results": [
		{
			"number": 10973,
			"data": "1,21,231,1771,10626,53130,230230,888030,3108105,10015005,30045015,84672315,225792840,573166440,1391975640,3247943160,7307872110,15905368710,33578000610,68923264410,137846528820,269128937220,513791607420,960566918220,1761039350070",
			"name": "a(n) = binomial(n,20).",
			"comment": [
				"Coordination sequence for 22-dimensional cyclotomic lattice Z[zeta_23].",
				"In this sequence there are no primes. - _Artur Jasinski_, Dec 02 2007"
			],
			"link": [
				"T. D. Noe, \u003ca href=\"/A010973/b010973.txt\"\u003eTable of n, a(n) for n = 20..1000\u003c/a\u003e",
				"Matthias Beck and Serkan Hosten, \u003ca href=\"http://arxiv.org/abs/math/0508136\"\u003eCyclotomic polytopes and growth series of cyclotomic lattices\u003c/a\u003e, arXiv:math/0508136 [math.CO], 2005-2006.",
				"Milan Janjic, \u003ca href=\"http://www.pmfbl.org/janjic/\"\u003eTwo Enumerative Functions\u003c/a\u003e."
			],
			"formula": [
				"a(n+19) = n*(n+1)*(n+2)*(n+3)*(n+4)*(n+5)*(n+6)*(n+7)*(n+8)*(n+9)*(n+10)*(n+11)*(n+12)*(n+13)*(n+14)*(n+15)*(n+16)*(n+17)*(n+18)*(n+19)/20!. - _Artur Jasinski_, Dec 02 2007; _R. J. Mathar_, Jul 07 2009",
				"G.f.: x^20/(1-x)^21. - _Zerinvary Lajos_, Aug 04 2008; _R. J. Mathar_, Jul 07 2009",
				"a(n) = n/(n-20) * a(n-1), n \u003e 20. - _Vincenzo Librandi_, Mar 26 2011",
				"From _Amiram Eldar_, Dec 11 2020: (Start)",
				"Sum_{n\u003e=20} 1/a(n) = 20/19.",
				"Sum_{n\u003e=20} (-1)^n/a(n) = A001787(20)*log(2) - A242091(20)/19! = 10485760*log(2) - 21149710469086/2909907 = 0.9562240549... (End)"
			],
			"maple": [
				"(Maple) seq(binomial(n,20),n=20..40); # _Zerinvary Lajos_, Aug 04 2008"
			],
			"mathematica": [
				"Table[Binomial[n,20],{n,20,50}] (* _Vladimir Joseph Stephan Orlovsky_, Apr 22 2011 *)"
			],
			"program": [
				"(MAGMA) [ Binomial(n,20): n in [20..80]]; // _Vincenzo Librandi_, Mar 26 2011",
				"(PARI) for(n=20,50, print1(binomial(n,20), \", \")) \\\\ _G. C. Greubel_, Nov 23 2017"
			],
			"xref": [
				"Pascal's triangle A007318 diagonal. - _Zerinvary Lajos_, Aug 04 2008",
				"Cf. A001787, A242091."
			],
			"keyword": "nonn",
			"offset": "20,2",
			"author": "_N. J. A. Sloane_",
			"ext": [
				"Some formulas adjusted to the offset by _R. J. Mathar_, Jul 07 2009"
			],
			"references": 3,
			"revision": 44,
			"time": "2020-12-11T03:25:53-05:00",
			"created": "1996-12-11T03:00:00-05:00"
		}
	]
}