{
	"greeting": "Greetings from The On-Line Encyclopedia of Integer Sequences! http://oeis.org/",
	"query": "id:A010833",
	"count": 1,
	"start": 0,
	"results": [
		{
			"number": 10833,
			"data": "1,-28,350,-2520,11025,-26180,4158,184600,-554400,401100,1496964,-3920280,1444625,6224400,-4972350,-7121296,-8308965,50796900,-8971200,-121968000,94011435,80598288,20282500,-175228200",
			"name": "Expansion of Product (1-x^k )^28.",
			"reference": [
				"Morris Newman, A table of the coefficients of the powers of eta(tau), Nederl. Akad. Wetensch. Proc. Ser. A. 59 = Indag. Math. 18 (1956), 204-216."
			],
			"link": [
				"Seiichi Manyama, \u003ca href=\"/A010833/b010833.txt\"\u003eTable of n, a(n) for n = 0..10000\u003c/a\u003e",
				"M. Boylan, \u003ca href=\"http://dx.doi.org/10.1016/S0022-314X(02)00037-9\"\u003eExceptional congruences for the coefficients of certain eta-product newforms\u003c/a\u003e, J. Number Theory 98 (2003), no. 2, 377-389.",
				"\u003ca href=\"/index/Pro#1mxtok\"\u003eIndex entries for expansions of Product_{k \u003e= 1} (1-x^k)^m\u003c/a\u003e"
			],
			"example": [
				"1 - 28*x + 350*x^2 - 2520*x^3 + 11025*x^4 - 26180*x^5 + 4158*x^6 + 184600*x^7 + ..."
			],
			"xref": [
				"Cf. A126581."
			],
			"keyword": "sign",
			"offset": "0,2",
			"author": "_N. J. A. Sloane_.",
			"references": 1,
			"revision": 18,
			"time": "2017-07-17T13:44:30-04:00",
			"created": "1996-12-11T03:00:00-05:00"
		}
	]
}