{
	"greeting": "Greetings from The On-Line Encyclopedia of Integer Sequences! http://oeis.org/",
	"query": "id:A010107",
	"count": 1,
	"start": 0,
	"results": [
		{
			"number": 10107,
			"data": "1,0,0,0,1,0,0,2,-1,0,10,-14,13,30,-85,124,50,-476,1047,-642,-1949,7220,-9547,-2690,42625,-90224,62414,190074,-683506,952260,290296,-4276192,9356547,-6406858,-20006212,73731040,-103077077",
			"name": "Free energy coefficients for square lattice spin 1 Ising model.",
			"link": [
				"I. Jensen, \u003ca href=\"/A010107/b010107.txt\"\u003eTable of n, a(n) for n = 0..113\u003c/a\u003e (from link below)",
				"I. G. Enting, A, J. Guttmann and I. Jensen, \u003ca href=\"https://arxiv.org/abs/hep-lat/9410005\"\u003eLow-Temperature Series Expansions for the Spin-1 Ising Model\u003c/a\u003e, J. Phys. A. 27 (1994) 6987-7006.",
				"I. Jensen, \u003ca href=\"https://researchers.ms.unimelb.edu.au/~ij@unimelb/ising/series/pf1.ser\"\u003eMore terms\u003c/a\u003e",
				"Iwan Jensen, Anthony J. Guttmann, \u003ca href=\"https://arxiv.org/abs/cond-mat/9509121\"\u003eSeries expansions of the percolation probability for directed square and honeycomb lattices\u003c/a\u003e, arXiv:cond-mat/9509121, 1995; J. Phys. A 28 (1995), no. 17, 4813-4833."
			],
			"xref": [
				"Cf. A010102, A010115, A010111."
			],
			"keyword": "sign",
			"offset": "0,8",
			"author": "_N. J. A. Sloane_, _Simon Plouffe_",
			"references": 1,
			"revision": 12,
			"time": "2019-10-05T10:24:21-04:00",
			"created": "1996-03-15T03:00:00-05:00"
		}
	]
}