{
	"greeting": "Greetings from The On-Line Encyclopedia of Integer Sequences! http://oeis.org/",
	"query": "id:A010003",
	"count": 1,
	"start": 0,
	"results": [
		{
			"number": 10003,
			"data": "1,13,46,101,178,277,398,541,706,893,1102,1333,1586,1861,2158,2477,2818,3181,3566,3973,4402,4853,5326,5821,6338,6877,7438,8021,8626,9253,9902,10573,11266,11981,12718,13477,14258,15061,15886,16733,17602,18493,19406",
			"name": "a(0) = 1, a(n) = 11*n^2 + 2 for n\u003e0.",
			"comment": [
				"Apart from the first term, numbers of the form (r^2+2*s^2)*n^2+2 = (r*n)^2+(s*n-1)^2+(s*n+1)^2: in this case is r=3, s=1. After 13, all terms are in A000408. - _Bruno Berselli_, Feb 06 2012"
			],
			"link": [
				"Bruno Berselli, \u003ca href=\"/A010003/b010003.txt\"\u003eTable of n, a(n) for n = 0..1000\u003c/a\u003e",
				"\u003ca href=\"/index/Rec#order_03\"\u003eIndex entries for linear recurrences with constant coefficients\u003c/a\u003e, signature (3,-3,1)."
			],
			"formula": [
				"G.f.: (1+x)*(1+9*x+x^2)/(1-x)^3. - _Bruno Berselli_, Feb 06 2012",
				"E.g.f.: (x*(x+1)*11+2)*e^x-1. - _Gopinath A. R._, Feb 14 2012"
			],
			"mathematica": [
				"Join[{1}, 11 Range[41]^2 + 2] (* _Bruno Berselli_, Feb 06 2012 *)",
				"Join[{1}, LinearRecurrence[{3, -3, 1}, {13, 46, 101}, 50]] (* _Vincenzo Librandi_, Aug 03 2015 *)"
			],
			"program": [
				"(PARI) A010003(n)=11*n^2+2-!n   \\\\ _M. F. Hasler_, Feb 14 2012",
				"(MAGMA) [1] cat [11*n^2+2: n in [1..50]]; // _Vincenzo Librandi_, Aug 03 2015"
			],
			"xref": [
				"Cf. A206399."
			],
			"keyword": "nonn,easy",
			"offset": "0,2",
			"author": "_N. J. A. Sloane_.",
			"ext": [
				"More terms from _Bruno Berselli_, Feb 06 2012"
			],
			"references": 1,
			"revision": 32,
			"time": "2015-08-03T04:16:54-04:00",
			"created": "1996-03-15T03:00:00-05:00"
		}
	]
}