{
	"greeting": "Greetings from The On-Line Encyclopedia of Integer Sequences! http://oeis.org/",
	"query": "id:A010578",
	"count": 1,
	"start": 0,
	"results": [
		{
			"number": 10578,
			"data": "1,1,1,1,2,2,2,2,4,4,7,10",
			"name": "Maximal size of binary code of length n correcting 3 unidirectional errors.",
			"reference": [
				"J. H. Weber, Bounds and Constructions for Binary Block Codes Correcting Asymmetric or Unidirectional Errors, Ph. D. Thesis, Tech. Univ. Delft, 1989.",
				"J. H. Weber, C. de Vroedt and D. E. Boekee, Bounds and constructions for binary codes of length less than 24 and asymmetric distance less than 6, IEEE Trans. Inform. Theory, 34 (1988), 1321-1332."
			],
			"keyword": "nonn",
			"offset": "1,5",
			"author": "_N. J. A. Sloane_.",
			"references": 0,
			"revision": 5,
			"time": "2012-03-30T16:45:36-04:00",
			"created": "1999-12-11T03:00:00-05:00"
		}
	]
}