{
	"greeting": "Greetings from The On-Line Encyclopedia of Integer Sequences! http://oeis.org/",
	"query": "id:A010862",
	"count": 1,
	"start": 0,
	"results": [
		{
			"number": 10862,
			"data": "23,23,23,23,23,23,23,23,23,23,23,23,23,23,23,23,23,23,23,23,23,23,23,23,23,23,23,23,23,23,23,23,23,23,23,23,23,23,23,23,23,23,23,23,23,23,23,23,23,23,23,23,23,23",
			"name": "Constant sequence: a(n) = 23.",
			"link": [
				"Tanya Khovanova, \u003ca href=\"http://www.tanyakhovanova.com/RecursiveSequences/RecursiveSequences.html\"\u003eRecursive Sequences\u003c/a\u003e",
				"\u003ca href=\"/index/Di#divseq\"\u003eIndex to divisibility sequences\u003c/a\u003e",
				"\u003ca href=\"/index/Rec#order_01\"\u003eIndex entries for linear recurrences with constant coefficients\u003c/a\u003e, signature (1)."
			],
			"formula": [
				"G.f.: 23/(1-x). - _Vincenzo Librandi_, Jan 16 2012"
			],
			"keyword": "nonn,easy",
			"offset": "0,1",
			"author": "_N. J. A. Sloane_",
			"references": 1,
			"revision": 27,
			"time": "2018-08-18T21:30:02-04:00",
			"created": "1996-12-11T03:00:00-05:00"
		}
	]
}