{
	"greeting": "Greetings from The On-Line Encyclopedia of Integer Sequences! http://oeis.org/",
	"query": "id:A010162",
	"count": 1,
	"start": 0,
	"results": [
		{
			"number": 10162,
			"data": "9,1,1,5,1,5,1,1,18,1,1,5,1,5,1,1,18,1,1,5,1,5,1,1,18,1,1,5,1,5,1,1,18,1,1,5,1,5,1,1,18,1,1,5,1,5,1,1,18,1,1,5,1,5,1,1,18,1,1,5,1,5,1,1,18,1,1,5,1,5,1,1,18,1,1,5,1,5",
			"name": "Continued fraction for sqrt(91).",
			"link": [
				"Harry J. Smith, \u003ca href=\"/A010162/b010162.txt\"\u003eTable of n, a(n) for n = 0..20000\u003c/a\u003e",
				"G. Xiao, \u003ca href=\"http://wims.unice.fr/~wims/en_tool~number~contfrac.en.html\"\u003eContfrac\u003c/a\u003e",
				"\u003ca href=\"/index/Con#confC\"\u003eIndex entries for continued fractions for constants\u003c/a\u003e",
				"\u003ca href=\"/index/Rec#order_08\"\u003eIndex entries for linear recurrences with constant coefficients\u003c/a\u003e, signature (0, 0, 0, 0, 0, 0, 0, 1)."
			],
			"formula": [
				"a(n)=(1/224)*{-443*(n mod 8)+33*[(n+1) mod 8]+145*[(n+2) mod 8]-79*[(n+3) mod 8]+145*[(n+4) mod 8]-79*[(n+5) mod 8]+33*[(n+6) mod 8]+509*[(n+7) mod 8]}-9*[C(2*n,n) mod 2], with n\u003e=0. - _Paolo P. Lava_, Jul 24 2009"
			],
			"example": [
				"9.539392014169456491526215860... = 9 + 1/(1 + 1/(1 + 1/(5 + 1/(1 + ...)))). - _Harry J. Smith_, Jun 11 2009"
			],
			"mathematica": [
				"ContinuedFraction[Sqrt[91],300] (* _Vladimir Joseph Stephan Orlovsky_, Mar 10 2011 *)"
			],
			"program": [
				"(PARI) { allocatemem(932245000); default(realprecision, 18000); x=contfrac(sqrt(91)); for (n=0, 20000, write(\"b010162.txt\", n, \" \", x[n+1])); } \\\\ _Harry J. Smith_, Jun 11 2009"
			],
			"xref": [
				"Cf. A010542 Decimal expansion. - _Harry J. Smith_, Jun 11 2009"
			],
			"keyword": "nonn,cofr",
			"offset": "0,1",
			"author": "_N. J. A. Sloane_",
			"references": 3,
			"revision": 20,
			"time": "2017-03-09T15:30:52-05:00",
			"created": "1996-03-15T03:00:00-05:00"
		}
	]
}