{
	"greeting": "Greetings from The On-Line Encyclopedia of Integer Sequences! http://oeis.org/",
	"query": "id:A010314",
	"count": 1,
	"start": 0,
	"results": [
		{
			"number": 10314,
			"data": "4,2,2,2,2,5,5,30,1,27,1,4,1,80,2,1,2,17,1,5,36,1,4,2,1,4,1,1,2,1,6,1,1,3,4,3,2,4,2,2,2,1,64,1,11,4,14,2,1,6,4,1,1,1,2,2,8,1,2,1,22,1,40,1,2,1,2,1,4,1,1,2,19,1,2,2,2",
			"name": "Continued fraction for cube root of 86.",
			"link": [
				"Robert Israel, \u003ca href=\"/A010314/b010314.txt\"\u003eTable of n, a(n) for n = 0..2000\u003c/a\u003e",
				"G. Xiao, \u003ca href=\"http://wims.unice.fr/~wims/en_tool~number~contfrac.en.html\"\u003eContfrac\u003c/a\u003e"
			],
			"maple": [
				"numtheory:-cfrac(86^(1/3),100,'quotients'); # _Robert Israel_, Jul 15 2018"
			],
			"xref": [
				"Cf. A010656 (decimal expansion)."
			],
			"keyword": "nonn,cofr",
			"offset": "0,1",
			"author": "_N. J. A. Sloane_",
			"references": 1,
			"revision": 14,
			"time": "2018-07-15T13:09:42-04:00",
			"created": "1996-03-15T03:00:00-05:00"
		}
	]
}