{
	"greeting": "Greetings from The On-Line Encyclopedia of Integer Sequences! http://oeis.org/",
	"query": "id:A010022",
	"count": 1,
	"start": 0,
	"results": [
		{
			"number": 10022,
			"data": "1,42,162,362,642,1002,1442,1962,2562,3242,4002,4842,5762,6762,7842,9002,10242,11562,12962,14442,16002,17642,19362,21162,23042,25002,27042,29162,31362,33642,36002,38442,40962,43562,46242,49002,51842,54762,57762,60842",
			"name": "a(0) = 1, a(n) = 40*n^2 + 2 for n\u003e0.",
			"comment": [
				"First bisection of A005901. - _Bruno Berselli_, Feb 07 2012"
			],
			"link": [
				"Bruno Berselli, \u003ca href=\"/A010022/b010022.txt\"\u003eTable of n, a(n) for n = 0..1000\u003c/a\u003e",
				"\u003ca href=\"/index/Rec#order_03\"\u003eIndex entries for linear recurrences with constant coefficients\u003c/a\u003e, signature (3,-3,1)."
			],
			"formula": [
				"G.f.: (1+x)*(1+38*x+x^2)/(1-x)^3; a(n) = A008253(4n). - _Bruno Berselli_, Feb 07 2012",
				"E.g.f.: (x*(x+1)*40+2)*e^x-1. - _Gopinath A. R._, Feb 14 2012"
			],
			"mathematica": [
				"Join[{1}, 40 Range[39]^2 + 2] (* _Bruno Berselli_, Feb 07 2012 *)",
				"Join[{1}, LinearRecurrence[{3, -3, 1}, {42, 162, 362}, 50]] (* _Vincenzo Librandi_, Aug 03 2015 *)"
			],
			"program": [
				"(MAGMA) [1] cat [40*n^2+2: n in [1..50]]; // _Vincenzo Librandi_, Aug 03 2015"
			],
			"xref": [
				"Cf. A206399."
			],
			"keyword": "nonn,easy",
			"offset": "0,2",
			"author": "_N. J. A. Sloane_.",
			"references": 1,
			"revision": 28,
			"time": "2015-08-03T04:20:17-04:00",
			"created": "1996-03-15T03:00:00-05:00"
		}
	]
}