{
	"greeting": "Greetings from The On-Line Encyclopedia of Integer Sequences! http://oeis.org/",
	"query": "id:A010231",
	"count": 1,
	"start": 0,
	"results": [
		{
			"number": 10231,
			"data": "13,1,2,1,26,1,2,1,26,1,2,1,26,1,2,1,26,1,2,1,26,1,2,1,26,1,2,1,26,1,2,1,26,1,2,1,26,1,2,1,26,1,2,1,26,1,2,1,26,1,2,1,26,1,2,1,26,1,2,1,26,1,2,1,26,1,2,1,26,1,2,1",
			"name": "Continued fraction for sqrt(189).",
			"link": [
				"G. Xiao, \u003ca href=\"http://wims.unice.fr/~wims/en_tool~number~contfrac.en.html\"\u003eContfrac\u003c/a\u003e",
				"\u003ca href=\"/index/Con#confC\"\u003eIndex entries for continued fractions for constants\u003c/a\u003e",
				"\u003ca href=\"/index/Rec#order_04\"\u003eIndex entries for linear recurrences with constant coefficients\u003c/a\u003e, signature (0, 0, 0, 1)."
			],
			"formula": [
				"a(n) = (1/2)*(-10*(n mod 4) + 3*((n+1) mod 4) + 2*((n+2) mod 4) + 15*((n+3) mod 4)) - 13*(C(2*n,n) mod 2), with n \u003e= 0. - _Paolo P. Lava_, Jul 28 2009"
			],
			"mathematica": [
				"ContinuedFraction[Sqrt[189],300] (* _Vladimir Joseph Stephan Orlovsky_, Mar 28 2011 *)"
			],
			"keyword": "nonn,cofr",
			"offset": "0,1",
			"author": "_N. J. A. Sloane_",
			"references": 1,
			"revision": 21,
			"time": "2018-07-15T04:19:41-04:00",
			"created": "1996-03-15T03:00:00-05:00"
		}
	]
}