{
	"greeting": "Greetings from The On-Line Encyclopedia of Integer Sequences! http://oeis.org/",
	"query": "id:A010955",
	"count": 1,
	"start": 0,
	"results": [
		{
			"number": 10955,
			"data": "1,39,741,9139,82251,575757,3262623,15380937,61523748,211915132,635745396,1676056044,3910797436,8122425444,15084504396,25140840660,37711260990,51021117810,62359143990,68923264410,68923264410,62359143990,51021117810,37711260990",
			"name": "Binomial coefficient C(39,n).",
			"comment": [
				"Row 39 of A007318."
			],
			"link": [
				"Nathaniel Johnston, \u003ca href=\"/A010955/b010955.txt\"\u003eTable of n, a(n) for n = 0..39\u003c/a\u003e (full sequence)"
			],
			"maple": [
				"seq(binomial(39,n), n=0..39); # _Nathaniel Johnston_, Jun 24 2011"
			],
			"mathematica": [
				"Binomial[39,Range[0,39]] (* _Harvey P. Dale_, Sep 12 2017 *)"
			],
			"program": [
				"(Sage) [binomial(39, n) for n in range(40)] # _Zerinvary Lajos_, May 21 2009"
			],
			"xref": [
				"Cf. A010926..A011001."
			],
			"keyword": "nonn,fini,full,easy",
			"offset": "0,2",
			"author": "_N. J. A. Sloane_",
			"references": 1,
			"revision": 17,
			"time": "2018-01-28T02:31:17-05:00",
			"created": "1996-12-11T03:00:00-05:00"
		}
	]
}