{
	"greeting": "Greetings from The On-Line Encyclopedia of Integer Sequences! http://oeis.org/",
	"query": "id:A010127",
	"count": 1,
	"start": 0,
	"results": [
		{
			"number": 10127,
			"data": "4,1,3,1,8,1,3,1,8,1,3,1,8,1,3,1,8,1,3,1,8,1,3,1,8,1,3,1,8,1,3,1,8,1,3,1,8,1,3,1,8,1,3,1,8,1,3,1,8,1,3,1,8,1,3,1,8,1,3,1,8,1,3,1,8,1,3,1,8,1,3,1,8,1,3,1,8,1,3,1,8",
			"name": "Continued fraction for sqrt(23).",
			"link": [
				"Harry J. Smith, \u003ca href=\"/A010127/b010127.txt\"\u003eTable of n, a(n) for n = 0..20000\u003c/a\u003e",
				"G. Xiao, \u003ca href=\"http://wims.unice.fr/~wims/en_tool~number~contfrac.en.html\"\u003eContfrac\u003c/a\u003e",
				"\u003ca href=\"/index/Con#confC\"\u003eIndex entries for continued fractions for constants\u003c/a\u003e",
				"\u003ca href=\"/index/Rec#order_04\"\u003eIndex entries for linear recurrences with constant coefficients\u003c/a\u003e, signature (0, 0, 0, 1)."
			],
			"formula": [
				"a(n)=(1/24)*{-29*(n mod 4)+25*[(n+1) mod 4]+[(n+2) mod 4]+55*[(n+3) mod 4]}-4*[C(2*n,n) mod 2], with n\u003e=0. - _Paolo P. Lava_, Jun 11 2009"
			],
			"example": [
				"4.795831523312719541597438064... = 4 + 1/(1 + 1/(3 + 1/(1 + 1/(8 + ...)))). - _Harry J. Smith_, Jun 03 2009"
			],
			"mathematica": [
				"ContinuedFraction[Sqrt[23],300] (* _Vladimir Joseph Stephan Orlovsky_, Mar 05 2011 *)"
			],
			"program": [
				"(PARI) { allocatemem(932245000); default(realprecision, 17000); x=contfrac(sqrt(23)); for (n=0, 20000, write(\"b010127.txt\", n, \" \", x[n+1])); } \\\\ _Harry J. Smith_, Jun 03 2009"
			],
			"xref": [
				"Cf. A010479 Decimal expansion. - _Harry J. Smith_, Jun 03 2009"
			],
			"keyword": "nonn,cofr",
			"offset": "0,1",
			"author": "_N. J. A. Sloane_",
			"references": 4,
			"revision": 20,
			"time": "2017-03-09T15:16:10-05:00",
			"created": "1996-03-15T03:00:00-05:00"
		}
	]
}