{
	"greeting": "Greetings from The On-Line Encyclopedia of Integer Sequences! http://oeis.org/",
	"query": "id:A010406",
	"count": 1,
	"start": 0,
	"results": [
		{
			"number": 10406,
			"data": "0,1,4,9,10,16,19,25,31,34,36,40",
			"name": "Squares mod 45.",
			"program": [
				"(Sage) [quadratic_residues(45)] # _Zerinvary Lajos_, May 24 2009"
			],
			"keyword": "nonn,fini,full",
			"offset": "1,3",
			"author": "_N. J. A. Sloane_",
			"references": 0,
			"revision": 13,
			"time": "2018-01-27T06:25:42-05:00",
			"created": "1996-03-15T03:00:00-05:00"
		}
	]
}