{
	"greeting": "Greetings from The On-Line Encyclopedia of Integer Sequences! http://oeis.org/",
	"query": "id:A010161",
	"count": 1,
	"start": 0,
	"results": [
		{
			"number": 10161,
			"data": "9,2,3,3,2,18,2,3,3,2,18,2,3,3,2,18,2,3,3,2,18,2,3,3,2,18,2,3,3,2,18,2,3,3,2,18,2,3,3,2,18,2,3,3,2,18,2,3,3,2,18,2,3,3,2,18,2,3,3,2,18,2,3,3,2,18,2,3,3,2,18,2,3,3,2",
			"name": "Continued fraction for sqrt(89).",
			"link": [
				"Harry J. Smith, \u003ca href=\"/A010161/b010161.txt\"\u003eTable of n, a(n) for n = 0..20000\u003c/a\u003e",
				"G. Xiao, \u003ca href=\"http://wims.unice.fr/~wims/en_tool~number~contfrac.en.html\"\u003eContfrac\u003c/a\u003e",
				"\u003ca href=\"/index/Con#confC\"\u003eIndex entries for continued fractions for constants\u003c/a\u003e",
				"\u003ca href=\"/index/Rec#order_05\"\u003eIndex entries for linear recurrences with constant coefficients\u003c/a\u003e, signature (0, 0, 0, 0, 1)."
			],
			"formula": [
				"a(n)=(1/25)*{-66*(n mod 5)+19*[(n+1) mod 5]+14*[(n+2) mod 5]+9*[(n+3) mod 5]+94*[(n+4) mod 5]}-9*[C(2*n,n) mod 2], with n\u003e=0. - _Paolo P. Lava_, Jul 24 2009"
			],
			"example": [
				"9.433981132056603811320660377... = 9 + 1/(2 + 1/(3 + 1/(3 + 1/(2 + ...)))). - _Harry J. Smith_, Jun 10 2009"
			],
			"mathematica": [
				"ContinuedFraction[Sqrt[89],300] (* _Vladimir Joseph Stephan Orlovsky_, Mar 10 2011 *)"
			],
			"program": [
				"(PARI) { allocatemem(932245000); default(realprecision, 25000); x=contfrac(sqrt(89)); for (n=0, 20000, write(\"b010161.txt\", n, \" \", x[n+1])); } \\\\ _Harry J. Smith_, Jun 10 2009"
			],
			"xref": [
				"Cf. A010540 Decimal expansion. - _Harry J. Smith_, Jun 10 2009"
			],
			"keyword": "nonn,cofr",
			"offset": "0,1",
			"author": "_N. J. A. Sloane_",
			"references": 3,
			"revision": 20,
			"time": "2017-03-09T15:30:35-05:00",
			"created": "1996-03-15T03:00:00-05:00"
		}
	]
}