{
	"greeting": "Greetings from The On-Line Encyclopedia of Integer Sequences! http://oeis.org/",
	"query": "id:A010217",
	"count": 1,
	"start": 0,
	"results": [
		{
			"number": 10217,
			"data": "13,6,1,1,6,26,6,1,1,6,26,6,1,1,6,26,6,1,1,6,26,6,1,1,6,26,6,1,1,6,26,6,1,1,6,26,6,1,1,6,26,6,1,1,6,26,6,1,1,6,26,6,1,1,6,26,6,1,1,6,26,6,1,1,6,26,6,1,1,6,26,6,1,1,6",
			"name": "Continued fraction for sqrt(173).",
			"link": [
				"G. Xiao, \u003ca href=\"http://wims.unice.fr/~wims/en_tool~number~contfrac.en.html\"\u003eContfrac\u003c/a\u003e",
				"\u003ca href=\"/index/Con#confC\"\u003eIndex entries for continued fractions for constants\u003c/a\u003e",
				"\u003ca href=\"/index/Rec#order_05\"\u003eIndex entries for linear recurrences with constant coefficients\u003c/a\u003e, signature (0, 0, 0, 0, 1)."
			],
			"formula": [
				"a(n) = (1/5)*(-16*(n mod 5) - ((n+1) mod 5) + 4*((n+2) mod 5) + 9*((n+3) mod 5) + 24*((n+4) mod 5)) - 13*(C(2*n,n) mod 2), with n \u003e= 0. - _Paolo P. Lava_, Jul 28 2009"
			],
			"mathematica": [
				"ContinuedFraction[Sqrt[173],300] (* _Vladimir Joseph Stephan Orlovsky_, Mar 25 2011 *)",
				"PadRight[{13},120,{26,6,1,1,6}] (* _Harvey P. Dale_, Sep 01 2020 *)"
			],
			"keyword": "nonn,cofr",
			"offset": "0,1",
			"author": "_N. J. A. Sloane_",
			"references": 2,
			"revision": 23,
			"time": "2020-09-01T20:05:48-04:00",
			"created": "1996-03-15T03:00:00-05:00"
		}
	]
}