{
	"greeting": "Greetings from The On-Line Encyclopedia of Integer Sequences! http://oeis.org/",
	"query": "id:A010860",
	"count": 1,
	"start": 0,
	"results": [
		{
			"number": 10860,
			"data": "21,21,21,21,21,21,21,21,21,21,21,21,21,21,21,21,21,21,21,21,21,21,21,21,21,21,21,21,21,21,21,21,21,21,21,21,21,21,21,21,21,21,21,21,21,21,21,21,21,21,21,21,21,21",
			"name": "Constant sequence: a(n) = 21.",
			"link": [
				"Tanya Khovanova, \u003ca href=\"http://www.tanyakhovanova.com/RecursiveSequences/RecursiveSequences.html\"\u003eRecursive Sequences\u003c/a\u003e",
				"\u003ca href=\"/index/Di#divseq\"\u003eIndex to divisibility sequences\u003c/a\u003e",
				"\u003ca href=\"/index/Rec#order_01\"\u003eIndex entries for linear recurrences with constant coefficients\u003c/a\u003e, signature (1)."
			],
			"formula": [
				"G.f.: 21/(1-x); e.g.f.: 21*e^x. - _Vincenzo Librandi_, Jan 24 2012"
			],
			"keyword": "nonn,easy",
			"offset": "0,1",
			"author": "_N. J. A. Sloane_",
			"references": 1,
			"revision": 26,
			"time": "2021-12-27T21:49:41-05:00",
			"created": "1996-12-11T03:00:00-05:00"
		}
	]
}