{
	"greeting": "Greetings from The On-Line Encyclopedia of Integer Sequences! http://oeis.org/",
	"query": "id:A010117",
	"count": 1,
	"start": 0,
	"results": [
		{
			"number": 10117,
			"data": "1,0,0,0,0,0,0,0,0,0,0,8,-6,0,0,0,0,0,0,0,0,0,90,-144,57,0,0,0,0,0,0,0,144,544,-1872,1632,-444,0,0,0,0,0,750,900,675,-16200,26700,-16300,3480,0,0,792,2484,3672,-4176,-11592",
			"name": "Magnetic susceptibility coefficients for square lattice spin 3 Ising model.",
			"link": [
				"I. Jensen, \u003ca href=\"/A010117/b010117.txt\"\u003eTable of n, a(n) for n = 0..142\u003c/a\u003e (from link below)",
				"I. G. Enting, A, J. Guttmann and I. Jensen, \u003ca href=\"https://arxiv.org/abs/hep-lat/9410005\"\u003eLow-Temperature Series Expansions for the Spin-1 Ising Model\u003c/a\u003e, arXiv:hep-lat/9410005, 1994; J. Phys. A. 27 (1994) 6987-7006.",
				"I. Jensen, \u003ca href=\"https://researchers.ms.unimelb.edu.au/~ij@unimelb/ising/series/sus3.ser\"\u003eMore terms\u003c/a\u003e",
				"Iwan Jensen, Anthony J. Guttmann, \u003ca href=\"https://arxiv.org/abs/cond-mat/9509121\"\u003eSeries expansions of the percolation probability for directed square and honeycomb lattices\u003c/a\u003e, arXiv:cond-mat/9509121, 1995; J. Phys. A 28 (1995), no. 17, 4813-4833."
			],
			"keyword": "sign",
			"offset": "0,12",
			"author": "_N. J. A. Sloane_, _Simon Plouffe_",
			"references": 1,
			"revision": 12,
			"time": "2019-10-05T10:25:16-04:00",
			"created": "1996-03-15T03:00:00-05:00"
		}
	]
}