{
	"greeting": "Greetings from The On-Line Encyclopedia of Integer Sequences! http://oeis.org/",
	"query": "id:A010813",
	"count": 1,
	"start": 0,
	"results": [
		{
			"number": 10813,
			"data": "0,1,33554432,847288609443,1125899906842624,298023223876953125,28430288029929701376,1341068619663964900807,37778931862957161709568,717897987691852588770249,10000000000000000000000000",
			"name": "25th powers: a(n) = n^25.",
			"link": [
				"Vincenzo Librandi, \u003ca href=\"/A010813/b010813.txt\"\u003eTable of n, a(n) for n = 0..1000\u003c/a\u003e",
				"\u003ca href=\"/index/Di#divseq\"\u003eIndex to divisibility sequences\u003c/a\u003e",
				"\u003ca href=\"/index/Rec#order_26\"\u003eIndex entries for linear recurrences with constant coefficients\u003c/a\u003e, signature (26, -325, 2600, -14950, 65780, -230230, 657800, -1562275, 3124550, -5311735, 7726160, -9657700, 10400600, -9657700, 7726160, -5311735, 3124550, -1562275, 657800, -230230, 65780, -14950, 2600, -325, 26, -1)."
			],
			"formula": [
				"Completely multiplicative sequence with a(p) = p^25 for prime p. Multiplicative sequence with a(p^e) = p^(25e). - _Jaroslav Krizek_, Nov 01 2009",
				"From _Amiram Eldar_, Oct 09 2020: (Start)",
				"Dirichlet g.f.: zeta(s-25).",
				"Sum_{n\u003e=1} 1/a(n) = zeta(25).",
				"Sum_{n\u003e=1} (-1)^(n+1)/a(n) = 16777215*zeta(25)/16777216. (End)"
			],
			"mathematica": [
				"Range[0, 9]^25 (* _Alonso del Arte_, Apr 04 2015 *)"
			],
			"program": [
				"(MAGMA) [n^25: n in [0..15]]; // _Vincenzo Librandi_, Jun 19 2011",
				"(PARI) a(n)=n^25 \\\\ _Charles R Greathouse IV_, Jun 28 2015"
			],
			"keyword": "nonn,mult,easy",
			"offset": "0,3",
			"author": "_N. J. A. Sloane_",
			"references": 7,
			"revision": 29,
			"time": "2020-10-09T03:39:52-04:00",
			"created": "1996-12-11T03:00:00-05:00"
		}
	]
}