{
	"greeting": "Greetings from The On-Line Encyclopedia of Integer Sequences! http://oeis.org/",
	"query": "id:A010405",
	"count": 1,
	"start": 0,
	"results": [
		{
			"number": 10405,
			"data": "0,1,4,5,9,12,16,20,25,33,36,37",
			"name": "Squares mod 44.",
			"mathematica": [
				"Union[PowerMod[Range[44], 2, 44]] (* _Alonso del Arte_, Dec 22 2019 *)"
			],
			"program": [
				"(Sage) [quadratic_residues(44)] # _Zerinvary Lajos_, May 24 2009",
				"(Scala) (1 to 44).map(n =\u003e (n * n) % 44).toSet.toSeq.sorted // _Alonso del Arte_, Dec 22 2019"
			],
			"xref": [
				"Cf. A028757."
			],
			"keyword": "nonn,fini,full,easy",
			"offset": "1,3",
			"author": "_N. J. A. Sloane_",
			"references": 1,
			"revision": 17,
			"time": "2019-12-22T03:35:47-05:00",
			"created": "1996-03-15T03:00:00-05:00"
		}
	]
}