{
	"greeting": "Greetings from The On-Line Encyclopedia of Integer Sequences! http://oeis.org/",
	"query": "id:A010665",
	"count": 1,
	"start": 0,
	"results": [
		{
			"number": 10665,
			"data": "4,5,6,2,9,0,2,6,3,5,3,8,6,9,6,6,7,2,7,5,6,3,9,3,5,9,0,6,3,0,0,4,2,8,1,7,7,2,5,4,2,1,7,6,3,7,2,4,4,1,0,5,5,7,9,9,0,0,1,2,3,7,1,7,3,1,5,2,3,2,8,3,7,1,6,2,8,4,4,7,8,8,7,5,7,6,9,3,3,3,7,8,1,9,1,9,4,5,1",
			"name": "Decimal expansion of cube root of 95.",
			"link": [
				"Vincenzo Librandi, \u003ca href=\"/A010665/b010665.txt\"\u003eTable of n, a(n) for n = 1..5000\u003c/a\u003e"
			],
			"mathematica": [
				"RealDigits[Power[95, (3)^-1],10,120][[1]]  (* _Harvey P. Dale_, Mar 23 2011 *)"
			],
			"program": [
				"(PARI) sqrtn(95,3) \\\\ _Charles R Greathouse IV_, Apr 14 2014"
			],
			"keyword": "nonn,cons",
			"offset": "1,1",
			"author": "_N. J. A. Sloane_.",
			"references": 1,
			"revision": 14,
			"time": "2014-04-14T15:49:50-04:00",
			"created": "1996-12-11T03:00:00-05:00"
		}
	]
}