{
	"greeting": "Greetings from The On-Line Encyclopedia of Integer Sequences! http://oeis.org/",
	"query": "id:A010443",
	"count": 1,
	"start": 0,
	"results": [
		{
			"number": 10443,
			"data": "0,1,2,4,5,8,9,10,16,18,20,21,23,25,31,32,33,36,37,39,40,41,42,43,45,46,49,50,51,57,59,61,62,64,66,72,73,74,77,78,80,81",
			"name": "Squares mod 82.",
			"mathematica": [
				"Union[PowerMod[Range[82], 2, 82]] (* _Alonso del Arte_, May 01 2020 *)"
			],
			"program": [
				"(Sage) [quadratic_residues(82)] # _Zerinvary Lajos_, May 28 2009",
				"(Scala) (1 to 82).map(n =\u003e n * n % 82).toSet.toList.sorted // _Alonso del Arte_, May 01 2020"
			],
			"xref": [
				"Cf. A028795, A010402."
			],
			"keyword": "nonn,fini,full,easy",
			"offset": "1,3",
			"author": "_N. J. A. Sloane_",
			"references": 1,
			"revision": 17,
			"time": "2020-05-01T22:57:28-04:00",
			"created": "1996-03-15T03:00:00-05:00"
		}
	]
}