{
	"greeting": "Greetings from The On-Line Encyclopedia of Integer Sequences! http://oeis.org/",
	"query": "id:A010397",
	"count": 1,
	"start": 0,
	"results": [
		{
			"number": 10397,
			"data": "0,1,4,9,13,16,25,28",
			"name": "Squares mod 36.",
			"mathematica": [
				"Union[PowerMod[Range[36], 2, 36]] (* _Vincenzo Librandi_, Jan 31 2020 *)"
			],
			"program": [
				"(Sage) [quadratic_residues(36)] # _Zerinvary Lajos_, May 24 2009",
				"(MAGMA) [n: n in [0..35] | IsSquare(R! n) where R:= ResidueClassRing(36)]; // _Vincenzo Librandi_, Jan 31 2020"
			],
			"xref": [
				"Cf. A028749."
			],
			"keyword": "nonn,fini,full",
			"offset": "1,3",
			"author": "_N. J. A. Sloane_",
			"references": 0,
			"revision": 19,
			"time": "2020-01-31T02:14:23-05:00",
			"created": "1996-03-15T03:00:00-05:00"
		}
	]
}