{
	"greeting": "Greetings from The On-Line Encyclopedia of Integer Sequences! http://oeis.org/",
	"query": "id:A010883",
	"count": 1,
	"start": 0,
	"results": [
		{
			"number": 10883,
			"data": "1,2,3,4,1,2,3,4,1,2,3,4,1,2,3,4,1,2,3,4,1,2,3,4,1,2,3,4,1,2,3,4,1,2,3,4,1,2,3,4,1,2,3,4,1,2,3,4,1,2,3,4,1,2,3,4,1,2,3,4,1,2,3,4,1,2,3,4,1,2,3,4,1,2,3,4,1,2,3,4,1",
			"name": "Simple periodic sequence: repeat 1,2,3,4.",
			"comment": [
				"Partial sums are given by A130482(n)+n+1. - _Hieronymus Fischer_, Jun 08 2007",
				"1234/9999=0,123412341234... - _Eric Desbiaux_, Nov 03 2008",
				"Terms of the simple continued fraction of 5/(2*sqrt(39)-9). - _Paolo P. Lava_, Feb 16 2009"
			],
			"link": [
				"\u003ca href=\"/index/Rec\"\u003eIndex entries for linear recurrences with constant coefficients\u003c/a\u003e, signature (0,0,0,1)."
			],
			"formula": [
				"a(n) = 1 + (n mod 4) - _Paolo P. Lava_, Nov 21 2006",
				"a(n)=A010873(n)+1. Also a(n)=1/2*(5-(-1)^n-2*(-1)^((2n-1+(-1)^n)/4))). G.f.: g(x)=(4x^3+3x^2+2x+1)/(1-x^4)=(4x^5-5x^4+1)/((1-x^4)(1-x)^2). - _Hieronymus Fischer_, Jun 08 2007",
				"a(n) = (7*(n mod 4)+(n+1 mod 4)+(n+2 mod 4)+(n+3 mod 4))/6 (cf. forms of modular arithmetic of Paolo P. Lava, i.e. see A146094). - _Bruno Berselli_, Sep 27 2010",
				"a(n) = 5/2 -cos(Pi*n/2) -sin(Pi*n/2) -(-1)^n/2.- R. J. Mathar, Oct 08 2011"
			],
			"mathematica": [
				"PadRight[{},120,{1,2,3,4}] (* _Harvey P. Dale_, Aug 02 2016 *)"
			],
			"program": [
				"(PARI) a(n)=(n-1)%4+1 \\\\ _Charles R Greathouse IV_, Jun 11 2015"
			],
			"xref": [
				"Cf. A010872, A010873, A010874, A010875, A010876, A004526, A002264, A002265, A002266.",
				"Cf. A177037 (decimal expansion of (9+2*sqrt(39))/15). - _Klaus Brockhaus_, May 01 2010"
			],
			"keyword": "nonn,easy",
			"offset": "0,2",
			"author": "_N. J. A. Sloane_.",
			"references": 8,
			"revision": 24,
			"time": "2016-08-02T17:09:31-04:00",
			"created": "1996-12-11T03:00:00-05:00"
		}
	]
}