{
	"greeting": "Greetings from The On-Line Encyclopedia of Integer Sequences! http://oeis.org/",
	"query": "id:A011533",
	"count": 1,
	"start": 0,
	"results": [
		{
			"number": 11533,
			"data": "3,13,23,30,31,32,33,34,35,36,37,38,39,43,53,63,73,83,93,103,113,123,130,131,132,133,134,135,136,137,138,139,143,153,163,173,183,193,203,213,223,230,231,232,233,234,235,236,237,238,239,243,253",
			"name": "Numbers that contain a 3.",
			"link": [
				"Reinhard Zumkeller, \u003ca href=\"/A011533/b011533.txt\"\u003eTable of n, a(n) for n = 1..10000\u003c/a\u003e",
				"James Grime and Brady Haran, \u003ca href=\"http://www.youtube.com/watch?v=UfEiJJGv4CE\"\u003e3 is everywhere\u003c/a\u003e, Numberphile video, 2012.",
				"\u003ca href=\"/index/Ar#10-automatic\"\u003eIndex entries for 10-automatic sequences\u003c/a\u003e."
			],
			"formula": [
				"a(n) ~ n. - _Charles R Greathouse IV_, Aug 28 2012",
				"For m \u003e= 1, a(10^m - 9^m) = 10^m-7, a(10^m - 9^m + 1) = 10^m + 3. - _Robert Israel_, Jan 11 2016"
			],
			"maple": [
				"M:= 3: # to get all terms of up to M digits",
				"B:= {3}: A:= {3}:",
				"for i from 2 to M do",
				"   B:= map(t -\u003e seq(10*t+j,j=0..9),B) union",
				"      {seq(10*x+3,x=10^(i-2)..10^(i-1)-1)}:",
				"   A:= A union B;",
				"od:",
				"sort(convert(A,list));# _Robert Israel_, Jan 11 2016"
			],
			"mathematica": [
				"Select[Range[600] - 1, DigitCount[#, 10, 3]\u003e0 \u0026] (* _Vincenzo Librandi_, Jan 11 2016 *)"
			],
			"program": [
				"(Haskell)",
				"a011533 n = a011533_list !! (n-1)",
				"a011533_list = filter ((elem '3') . show) [0..]",
				"-- _Reinhard Zumkeller_, Apr 10 2015",
				"(MAGMA) [n: n in [0..500] | 3 in Intseq(n)]; // _Vincenzo Librandi_, Jan 11 2016",
				"(PARI) isok(n)=my(d=digits(n)); for (k=1, #d, if (d[k] == 3, return (1))); \\\\ _Michel Marcus_, Jan 11 2016",
				"(GAP) Filtered([1..260],n-\u003e3 in ListOfDigits(n)); # _Muniru A Asiru_, Feb 23 2019"
			],
			"xref": [
				"Complement: A052405.",
				"Cf. A016189.",
				"Numbers that contain a digit k: A011531 (k=1), A011532 (k=2), A011534 (k=4), A011535 (k=5), A011536 (k=6), A011537 (k=7), A011538 (k=8), A011539 (k=9), A011540 (k=0)."
			],
			"keyword": "nonn,base,easy",
			"offset": "1,1",
			"author": "_N. J. A. Sloane_",
			"references": 28,
			"revision": 39,
			"time": "2019-02-24T08:48:12-05:00",
			"created": "1996-12-11T03:00:00-05:00"
		}
	]
}