{
	"greeting": "Greetings from The On-Line Encyclopedia of Integer Sequences! http://oeis.org/",
	"query": "id:A011530",
	"count": 1,
	"start": 0,
	"results": [
		{
			"number": 11530,
			"data": "-121645100408832000,431565146817638400,-668609730341153280,610116075740491776,-371384787345228000,161429736530118960,-52260903362512720,12953636989943896,-2503858755467550,381922055502195,-46280647751910,4465226757381,-342252511900,20692933630,-973941900,34916946,-920550,16815,-190,1",
			"name": "Stirling numbers of first kind S1(20,n).",
			"reference": [
				"M. Abramowitz and I. A. Stegun, eds., Handbook of Mathematical Functions, National Bureau of Standards Applied Math. Series 55, 1964 (and various reprintings), p. 833.",
				"F. N. David, M. G. Kendall and D. E. Barton, Symmetric Function and Allied Tables, Cambridge, 1966, p. 226."
			],
			"link": [
				"M. Abramowitz and I. A. Stegun, eds., \u003ca href=\"http://www.convertit.com/Go/ConvertIt/Reference/AMS55.ASP\"\u003eHandbook of Mathematical Functions\u003c/a\u003e, National Bureau of Standards, Applied Math. Series 55, Tenth Printing, 1972 [alternative scanned copy]."
			],
			"xref": [
				"Cf. A011520."
			],
			"keyword": "sign,fini,full",
			"offset": "1,1",
			"author": "_N. J. A. Sloane_",
			"ext": [
				"More terms from _Jinyuan Wang_, Aug 02 2020"
			],
			"references": 0,
			"revision": 11,
			"time": "2020-08-02T08:17:05-04:00",
			"created": "1996-12-11T03:00:00-05:00"
		}
	]
}