{
	"greeting": "Greetings from The On-Line Encyclopedia of Integer Sequences! http://oeis.org/",
	"query": "id:A011230",
	"count": 1,
	"start": 0,
	"results": [
		{
			"number": 11230,
			"data": "1,3,8,3,0,8,7,5,5,4,2,6,8,4,8,8,4,9,2,6,4,0,6,5,8,5,1,3,5,3,4,8,2,2,5,9,0,8,7,7,0,4,2,7,3,6,2,1,0,2,5,1,1,4,8,7,1,9,0,8,4,2,9,2,5,3,9,7,5,8,7,5,9,4,5,4,9,0,7,9,5,4,8,5,5,1,4,6,4,7,8,4,7,3,3,4,4,4,7",
			"name": "Decimal expansion of 6th root of 7.",
			"link": [
				"Ivan Panchenko, \u003ca href=\"/A011230/b011230.txt\"\u003eTable of n, a(n) for n = 1..1000\u003c/a\u003e"
			],
			"example": [
				"1.38308755426848849264..."
			],
			"mathematica": [
				"RealDigits[7^(1/6), 10, 105][[1]] (* _Alonso del Arte_, Sep 28 2014 *)"
			],
			"keyword": "nonn,cons,easy",
			"offset": "1,2",
			"author": "_N. J. A. Sloane_.",
			"references": 1,
			"revision": 11,
			"time": "2014-09-28T16:08:56-04:00",
			"created": "1996-12-11T03:00:00-05:00"
		}
	]
}