{
	"greeting": "Greetings from The On-Line Encyclopedia of Integer Sequences! http://oeis.org/",
	"query": "id:A011380",
	"count": 1,
	"start": 0,
	"results": [
		{
			"number": 11380,
			"data": "1,6,0,3,5,2,1,6,2,1,5,1,2,5,4,9,2,8,2,9,8,5,4,6,4,7,9,0,7,0,2,3,1,7,5,8,6,5,3,5,1,3,4,8,6,6,5,4,4,9,7,1,0,0,9,8,5,9,8,3,0,2,4,1,2,5,1,1,1,7,4,0,4,2,5,5,5,0,6,2,4,1,7,8,4,7,7,5,0,4,0,7,7,9,1,4,7,2,5",
			"name": "Decimal expansion of 6th root of 17.",
			"link": [
				"Ivan Panchenko, \u003ca href=\"/A011380/b011380.txt\"\u003eTable of n, a(n) for n = 1..1000\u003c/a\u003e"
			],
			"example": [
				"1.60352162151254928298546479..."
			],
			"mathematica": [
				"RealDigits[17^(1/6), 10, 100][[1]] (* _Alonso del Arte_, Apr 17 2015 *)"
			],
			"keyword": "nonn,cons,easy",
			"offset": "1,2",
			"author": "_N. J. A. Sloane_.",
			"references": 1,
			"revision": 11,
			"time": "2015-04-18T17:38:58-04:00",
			"created": "1996-12-11T03:00:00-05:00"
		}
	]
}