{
	"greeting": "Greetings from The On-Line Encyclopedia of Integer Sequences! http://oeis.org/",
	"query": "id:A011057",
	"count": 1,
	"start": 0,
	"results": [
		{
			"number": 11057,
			"data": "2,8,3,9,4,1,1,5,1,4,4,3,3,6,7,7,4,4,4,0,8,2,2,6,2,9,3,9,0,7,9,9,2,6,3,4,0,1,1,9,6,8,1,7,1,1,7,4,3,5,5,3,4,3,5,1,2,9,4,6,4,7,9,4,4,8,9,9,9,3,8,6,3,3,1,3,3,9,0,6,3,4,8,7,4,9,1,4,9,8,3,9,7,4,8,4,6,9,9",
			"name": "Decimal expansion of 4th root of 65.",
			"link": [
				"Vincenzo Librandi, \u003ca href=\"/A011057/b011057.txt\"\u003eTable of n, a(n) for n = 1..1000\u003c/a\u003e"
			],
			"mathematica": [
				"RealDigits[65^(1/4), 10, 100][[1]] (* _Vincenzo Librandi_, Apr 17 2014 *)"
			],
			"program": [
				"(PARI) sqrtn(65,4) \\\\ _Charles R Greathouse IV_, Apr 16 2014"
			],
			"keyword": "nonn,cons",
			"offset": "1,1",
			"author": "_N. J. A. Sloane_.",
			"references": 1,
			"revision": 9,
			"time": "2014-04-17T02:21:43-04:00",
			"created": "1996-12-11T03:00:00-05:00"
		}
	]
}