{
	"greeting": "Greetings from The On-Line Encyclopedia of Integer Sequences! http://oeis.org/",
	"query": "id:A011589",
	"count": 1,
	"start": 0,
	"results": [
		{
			"number": 11589,
			"data": "0,1,-1,1,1,-1,-1,1,-1,1,1,1,1,-1,-1,-1,1,-1,-1,-1,-1,1,-1,-1,-1,1,1,1,1,-1,1,-1,-1,1,1,-1,1,0,1,-1,1,1,-1,-1,1,-1,1,1,1,1,-1,-1,-1,1,-1,-1,-1,-1,1,-1,-1,-1,1,1,1,1,-1,1,-1,-1,1,1,-1,1,0,1,-1,1,1,-1,-1",
			"name": "Legendre symbol (n,37).",
			"reference": [
				"G. H. Hardy and E. M. Wright, An Introduction to the Theory of Numbers. 3rd ed., Oxford Univ. Press, 1954, p. 68."
			],
			"keyword": "sign,mult",
			"offset": "0,1",
			"author": "_N. J. A. Sloane_.",
			"references": 0,
			"revision": 6,
			"time": "2012-03-30T16:45:49-04:00",
			"created": "1996-12-11T03:00:00-05:00"
		}
	]
}