{
	"greeting": "Greetings from The On-Line Encyclopedia of Integer Sequences! http://oeis.org/",
	"query": "id:A011871",
	"count": 1,
	"start": 0,
	"results": [
		{
			"number": 11871,
			"data": "0,0,0,0,0,1,1,2,3,4,5,6,7,8,10,11,13,15,17,19,21,23,25,28,30,33,36,39,42,45,48,51,55,58,62,66,70,74,78,82,86,91,95,100,105,110,115,120,125,130,136,141,147,153,159,165,171,177,183,190,196,203,210,217,224,231,238",
			"name": "[ n(n-1)/18 ].",
			"link": [
				"\u003ca href=\"/index/Rec#order_11\"\u003eIndex entries for linear recurrences with constant coefficients\u003c/a\u003e, signature (2, -1, 0, 0, 0, 0, 0, 0, 1, -2, 1)."
			],
			"formula": [
				"a(n) = +2*a(n-1) -a(n-2) +a(n-9) -2*a(n-10) +a(n-11). G.f.: x^5*(x^2-x+1) / ( (1-x)^3*(1+x+x^2)*(x^6+x^3+1) ). - _R. J. Mathar_, Apr 15 2010",
				"a(n) = floor( (1/3) * sum_{i=1..n} floor(i/3) ). - _Wesley Ivan Hurt_, Jun 06 2014"
			],
			"mathematica": [
				"Table[Floor[n (n-1)/18], {n,0,70}] (* or *) LinearRecurrence[{2, -1, 0, 0, 0, 0, 0, 0, 1, -2, 1}, {0, 0, 0, 0, 0, 1, 1, 2, 3, 4, 5}, 71] (* _Harvey P. Dale_, Apr 25 2012 *)"
			],
			"keyword": "nonn,easy",
			"offset": "0,8",
			"author": "_N. J. A. Sloane_, Dec 11 1996",
			"references": 0,
			"revision": 19,
			"time": "2015-07-30T14:53:26-04:00",
			"created": "1996-12-11T03:00:00-05:00"
		}
	]
}