{
	"greeting": "Greetings from The On-Line Encyclopedia of Integer Sequences! http://oeis.org/",
	"query": "id:A011995",
	"count": 1,
	"start": 0,
	"results": [
		{
			"number": 11995,
			"data": "5,0,4,0,0,0,1224,0,15686,0,0,0",
			"name": "(n,3,5) difference families over Z_n.",
			"reference": [
				"CRC Handbook of Combinatorial Designs, 1996, p. 285."
			],
			"keyword": "nonn,hard",
			"offset": "7,1",
			"author": "_N. J. A. Sloane_.",
			"references": 0,
			"revision": 4,
			"time": "2012-03-30T16:45:52-04:00",
			"created": "1996-12-11T03:00:00-05:00"
		}
	]
}