{
	"greeting": "Greetings from The On-Line Encyclopedia of Integer Sequences! http://oeis.org/",
	"query": "id:A011891",
	"count": 1,
	"start": 0,
	"results": [
		{
			"number": 11891,
			"data": "0,0,0,0,2,6,13,23,37,56,80,110,146,190,242,303,373,453,544,646,760,886,1026,1180,1349,1533,1733,1950,2184,2436,2706,2996,3306,3637,3989,4363,4760,5180,5624,6092,6586,7106,7653,8227,8829,9460,10120,10810,11530",
			"name": "a(n) = floor( n*(n-1)*(n-2)/9 ).",
			"link": [
				"Vincenzo Librandi, \u003ca href=\"/A011891/b011891.txt\"\u003eTable of n, a(n) for n = 0..2000\u003c/a\u003e",
				"\u003ca href=\"/index/Rec#order_10\"\u003eIndex entries for linear recurrences with constant coefficients\u003c/a\u003e, signature (4, -6, 3, 3, -6, 3, 3, -6, 4, -1)."
			],
			"formula": [
				"G.f.: (x^4*(x^5-x^4+x^3+x^2-2*x+2))/((x^6+x^3+1)*(x-1)^4). [Maksym Voznyy (voznyy(AT)mail.ru), Jul 27 2009]",
				"Third differences are [-2, 4] repeated. - _M. F. Hasler_, Sep 15 2009"
			],
			"mathematica": [
				"Table[Floor[(n(n-1)(n-2))/9],{n,0,40}] (* or *) LinearRecurrence[{4,-6,3,3,-6,3,3,-6,4,-1},{0,0,0,0,2,6,13,23,37,56},50] (* _Harvey P. Dale_, Feb 20 2017 *)"
			],
			"program": [
				"(MAGMA) [Floor(n*(n-1)*(n-2)/9): n in [0..50]]; // _Vincenzo Librandi_, Feb 23 2017"
			],
			"keyword": "nonn",
			"offset": "0,5",
			"author": "_N. J. A. Sloane_.",
			"references": 1,
			"revision": 17,
			"time": "2017-02-23T16:26:09-05:00",
			"created": "1996-12-11T03:00:00-05:00"
		}
	]
}