{
	"greeting": "Greetings from The On-Line Encyclopedia of Integer Sequences! http://oeis.org/",
	"query": "id:A011470",
	"count": 1,
	"start": 0,
	"results": [
		{
			"number": 11470,
			"data": "1,0,8,0,1,4,4,2,7,5,0,7,8,2,9,1,7,0,9,5,6,5,2,7,5,0,3,6,1,3,9,4,9,1,2,2,3,6,3,3,1,5,7,1,0,4,9,1,3,8,0,9,4,9,9,6,7,1,9,4,5,2,0,4,9,7,5,1,6,2,7,1,6,1,5,2,4,3,1,7,3,3,3,4,9,0,6,8,4,8,0,6,6,5,0,0,9,9,2",
			"name": "Decimal expansion of 51st root of 51.",
			"link": [
				"Ivan Panchenko, \u003ca href=\"/A011470/b011470.txt\"\u003eTable of n, a(n) for n = 1..1000\u003c/a\u003e"
			],
			"mathematica": [
				"RealDigits[Surd[51,51],10,120][[1]] (* _Harvey P. Dale_, Oct 09 2017 *)"
			],
			"keyword": "nonn,cons",
			"offset": "1,3",
			"author": "_N. J. A. Sloane_.",
			"references": 1,
			"revision": 9,
			"time": "2017-10-09T17:22:18-04:00",
			"created": "1996-12-11T03:00:00-05:00"
		}
	]
}