{
	"greeting": "Greetings from The On-Line Encyclopedia of Integer Sequences! http://oeis.org/",
	"query": "id:A011730",
	"count": 1,
	"start": 0,
	"results": [
		{
			"number": 11730,
			"data": "0,0,0,0,0,0,0,0,0,0,0,0,0,0,0,0,1,0,0,1,0,0,1,0,0,1,0,0,1,0,0,1,0,1,1,0,0,1,0,1,1,0,0,1,0,1,1,0,0,1,1,1,1,1,0,1,0,1,1,0,0,1,1,1,1,1,0,0,0,1,1,0,0,1,1,1,1,1,0,0,0",
			"name": "A binary m-sequence: expansion of reciprocal of x^17+x^3+1.",
			"comment": [
				"Sequence is 131071-periodic. - _Ray Chandler_, Dec 15 2016"
			],
			"reference": [
				"S. W. Golomb, Shift-Register Sequences, Holden-Day, San Francisco, 1967.",
				"H. D. Lueke, Korrelationssignale, Springer 1992, pp. 43-48.",
				"F. J. MacWilliams and N. J. A. Sloane, The Theory of Error-Correcting Codes, Elsevier/North Holland, 1978, p. 408."
			],
			"link": [
				"\u003ca href=\"/index/Rec#order_131071\"\u003eIndex entries for linear recurrences with constant coefficients\u003c/a\u003e, order 131071."
			],
			"keyword": "nonn",
			"offset": "0,1",
			"author": "_N. J. A. Sloane_.",
			"references": 0,
			"revision": 9,
			"time": "2017-06-25T22:58:56-04:00",
			"created": "1996-12-11T03:00:00-05:00"
		}
	]
}