{
	"greeting": "Greetings from The On-Line Encyclopedia of Integer Sequences! http://oeis.org/",
	"query": "id:A011406",
	"count": 1,
	"start": 0,
	"results": [
		{
			"number": 11406,
			"data": "1,1,8,5,3,3,0,7,7,1,9,8,2,4,7,8,9,5,5,7,4,3,2,6,2,2,1,4,9,4,8,3,5,5,3,4,1,5,5,7,8,0,0,6,4,6,2,9,5,5,9,9,7,0,4,9,5,6,4,6,8,8,2,7,8,2,4,4,7,4,9,0,3,4,4,8,1,7,6,4,2,8,2,3,1,3,5,1,8,5,0,3,3,6,1,3,5,6,2",
			"name": "Decimal expansion of 17th root of 18.",
			"link": [
				"Ivan Panchenko, \u003ca href=\"/A011406/b011406.txt\"\u003eTable of n, a(n) for n = 1..1000\u003c/a\u003e"
			],
			"mathematica": [
				"RealDigits[Power[18, (17)^-1],10,150][[1]]  (* _Harvey P. Dale_, Mar 13 2011 *)"
			],
			"keyword": "nonn,cons",
			"offset": "1,3",
			"author": "_N. J. A. Sloane_.",
			"references": 1,
			"revision": 11,
			"time": "2014-09-06T06:47:01-04:00",
			"created": "1996-12-11T03:00:00-05:00"
		}
	]
}