{
	"greeting": "Greetings from The On-Line Encyclopedia of Integer Sequences! http://oeis.org/",
	"query": "id:A011325",
	"count": 1,
	"start": 0,
	"results": [
		{
			"number": 11325,
			"data": "1,2,6,2,6,0,5,2,1,1,2,1,9,6,5,3,0,3,3,3,6,6,0,3,2,0,3,1,2,0,8,0,9,8,7,1,8,7,6,3,3,2,1,3,4,0,1,2,4,9,4,3,1,4,3,6,3,6,4,4,3,6,6,1,2,7,1,9,2,1,1,3,4,1,0,3,0,0,5,9,3,3,9,6,7,3,1,4,1,0,2,0,8,3,9,5,5,4,7",
			"name": "Decimal expansion of 11th root of 13.",
			"link": [
				"Ivan Panchenko, \u003ca href=\"/A011325/b011325.txt\"\u003eTable of n, a(n) for n = 1..1000\u003c/a\u003e"
			],
			"mathematica": [
				"RealDigits[N[Surd[13, 11], 5000], 10, 50][[1]] (* _G. C. Greubel_, Jun 10 2017 *)"
			],
			"program": [
				"(PARI) sqrtn(13, 11) \\\\ _Michel Marcus_, Sep 05 2014"
			],
			"keyword": "nonn,cons",
			"offset": "1,2",
			"author": "_N. J. A. Sloane_",
			"references": 1,
			"revision": 13,
			"time": "2017-06-10T00:42:11-04:00",
			"created": "1996-12-11T03:00:00-05:00"
		}
	]
}