{
	"greeting": "Greetings from The On-Line Encyclopedia of Integer Sequences! http://oeis.org/",
	"query": "id:A011078",
	"count": 1,
	"start": 0,
	"results": [
		{
			"number": 11078,
			"data": "3,0,5,4,0,7,5,8,0,9,9,7,7,3,5,1,4,0,4,6,3,8,8,3,2,8,8,2,0,5,7,4,8,9,4,4,7,6,1,5,0,2,2,4,7,9,9,9,8,6,8,2,1,6,4,9,0,0,9,3,0,0,5,4,6,5,4,6,5,2,8,3,5,4,4,2,6,3,9,6,7,5,5,5,5,7,5,3,0,6,5,1,6,3,4,2,3,5,2",
			"name": "Decimal expansion of 4th root of 87.",
			"link": [
				"Vincenzo Librandi, \u003ca href=\"/A011078/b011078.txt\"\u003eTable of n, a(n) for n = 1..5000\u003c/a\u003e"
			],
			"mathematica": [
				"RealDigits[N[87^(1/4), 200]][[1]] (* _Vincenzo Librandi_, Apr 12 2014 *)"
			],
			"keyword": "nonn,cons",
			"offset": "1,1",
			"author": "_N. J. A. Sloane_.",
			"references": 1,
			"revision": 8,
			"time": "2014-04-12T01:56:43-04:00",
			"created": "1996-12-11T03:00:00-05:00"
		}
	]
}