{
	"greeting": "Greetings from The On-Line Encyclopedia of Integer Sequences! http://oeis.org/",
	"query": "id:A011109",
	"count": 1,
	"start": 0,
	"results": [
		{
			"number": 11109,
			"data": "1,8,8,8,1,7,5,0,2,2,5,8,9,8,0,3,9,6,4,3,2,8,1,2,9,4,8,9,4,5,5,5,0,5,5,1,2,4,5,2,3,8,7,4,0,4,2,3,0,0,3,0,6,7,1,5,0,2,0,9,9,7,9,0,7,0,5,5,8,6,4,8,6,5,1,3,7,8,8,9,9,6,3,1,2,8,7,7,6,3,0,3,1,8,7,1,1,7,1",
			"name": "Decimal expansion of 5th root of 24.",
			"link": [
				"Ivan Panchenko, \u003ca href=\"/A011109/b011109.txt\"\u003eTable of n, a(n) for n = 1..1000\u003c/a\u003e"
			],
			"mathematica": [
				"RealDigits[24^(1/5), 10, 100][[1]] (* _Alonso del Arte_, Jan 23 2016 *)"
			],
			"program": [
				"(PARI) sqrtn(24,5) \\\\ _Charles R Greathouse IV_, Apr 16 2014"
			],
			"keyword": "nonn,cons,easy",
			"offset": "1,2",
			"author": "_N. J. A. Sloane_",
			"references": 1,
			"revision": 16,
			"time": "2021-12-27T22:01:08-05:00",
			"created": "1996-12-11T03:00:00-05:00"
		}
	]
}