{
	"greeting": "Greetings from The On-Line Encyclopedia of Integer Sequences! http://oeis.org/",
	"query": "id:A011351",
	"count": 1,
	"start": 0,
	"results": [
		{
			"number": 11351,
			"data": "1,4,7,2,3,5,6,7,0,0,1,8,0,3,4,6,9,2,3,7,1,2,7,9,0,0,0,0,9,7,4,0,2,4,2,3,2,7,9,6,1,6,6,4,0,7,5,4,6,7,7,5,7,6,3,4,6,8,2,8,2,2,1,4,8,3,9,3,8,8,2,6,5,5,3,8,1,2,3,5,3,5,0,2,8,0,8,3,0,3,4,9,8,6,5,0,1,5,4",
			"name": "Decimal expansion of 7th root of 15.",
			"link": [
				"Ivan Panchenko, \u003ca href=\"/A011351/b011351.txt\"\u003eTable of n, a(n) for n = 1..1000\u003c/a\u003e"
			],
			"mathematica": [
				"RealDigits[Surd[15,7],10,120][[1]] (* _Harvey P. Dale_, Jun 24 2013 *)"
			],
			"keyword": "nonn,cons",
			"offset": "1,2",
			"author": "_N. J. A. Sloane_.",
			"references": 1,
			"revision": 9,
			"time": "2014-09-05T14:18:39-04:00",
			"created": "1996-12-11T03:00:00-05:00"
		}
	]
}