{
	"greeting": "Greetings from The On-Line Encyclopedia of Integer Sequences! http://oeis.org/",
	"query": "id:A011887",
	"count": 1,
	"start": 0,
	"results": [
		{
			"number": 11887,
			"data": "0,0,0,1,4,12,24,42,67,100,144,198,264,343,436,546,672,816,979,1162,1368,1596,1848,2125,2428,2760,3120,3510,3931,4384,4872,5394,5952,6547,7180,7854,8568,9324,10123,10966",
			"name": "[ n(n-1)(n-2)/5 ].",
			"link": [
				"Vincenzo Librandi, \u003ca href=\"/A011887/b011887.txt\"\u003eTable of n, a(n) for n = 0..1000\u003c/a\u003e",
				"\u003ca href=\"/index/Rec\"\u003eIndex entries for linear recurrences with constant coefficients\u003c/a\u003e, signature (3,-3,1,0,1,-3,3,-1) [From _R. J. Mathar_, Apr 15 2010]"
			],
			"formula": [
				"a(n) = +3*a(n-1) -3*a(n-2) +a(n-3) +a(n-5) -3*a(n-6) +3*a(n-7) -a(n-8). G.f.: x^3*(1+x+3*x^2-x^3+2*x^4) / ( (-1+x)^4*(1+x+x^2+x^3+x^4) ). [From _R. J. Mathar_, Apr 15 2010]"
			],
			"mathematica": [
				"CoefficientList[Series[x^3*(1+x+3*x^2-x^3+2*x^4)/((-1+x)^4*(1+x+x^2+x^3+x^4)),{x,0,50}],x] (* _Vincenzo Librandi_, Jul 07 2012 *)"
			],
			"program": [
				"(MAGMA) [Floor(n*(n-1)*(n-2)/5): n in [0..50]]; // _Vincenzo Librandi_, Jul 07 2012"
			],
			"keyword": "nonn,easy",
			"offset": "0,5",
			"author": "_N. J. A. Sloane_.",
			"references": 1,
			"revision": 15,
			"time": "2015-06-13T00:48:27-04:00",
			"created": "1996-12-11T03:00:00-05:00"
		}
	]
}