{
	"greeting": "Greetings from The On-Line Encyclopedia of Integer Sequences! http://oeis.org/",
	"query": "id:A011896",
	"count": 1,
	"start": 0,
	"results": [
		{
			"number": 11896,
			"data": "0,0,0,0,1,4,8,15,24,36,51,70,94,122,156,195,240,291,349,415,488,570,660,759,867,985,1114,1253,1404,1566,1740,1926,2125,2338,2564,2805,3060,3330,3615,3916,4234,4568,4920,5289,5676,6081,6505,6949,7412,7896",
			"name": "[ n(n-1)(n-2)/14 ].",
			"formula": [
				"G.f.: x^4*(1+x-x^2+2*x^3-x^4+x^5)/((1-x)^3*(1-x^7))"
			],
			"program": [
				"(PARI) a(n)=n*(n-1)*(n-2)\\14"
			],
			"xref": [
				"A055610(n)=-A011896(2-n)"
			],
			"keyword": "nonn",
			"offset": "0,6",
			"author": "_N. J. A. Sloane_.",
			"ext": [
				"Additional comments from _Michael Somos_, Jun 02 2000."
			],
			"references": 2,
			"revision": 8,
			"time": "2014-04-30T01:35:33-04:00",
			"created": "1996-12-11T03:00:00-05:00"
		}
	]
}