{
	"greeting": "Greetings from The On-Line Encyclopedia of Integer Sequences! http://oeis.org/",
	"query": "id:A011309",
	"count": 1,
	"start": 0,
	"results": [
		{
			"number": 11309,
			"data": "1,2,8,2,0,8,8,8,5,3,9,8,6,8,1,5,4,4,0,4,4,8,5,3,0,7,6,2,9,1,5,5,9,9,4,8,2,5,8,2,0,8,8,5,4,8,9,4,7,0,0,2,4,2,4,8,2,2,5,0,6,4,6,2,0,9,3,6,9,8,4,1,4,4,1,6,6,0,7,0,7,6,7,8,6,0,6,4,7,6,4,8,1,6,0,9,7,6,4",
			"name": "Decimal expansion of 10th root of 12.",
			"link": [
				"Vincenzo Librandi, \u003ca href=\"/A011309/b011309.txt\"\u003eTable of n, a(n) for n = 1..5000\u003c/a\u003e"
			],
			"mathematica": [
				"RealDigits[Surd[12,10],10,120][[1]] (* _Harvey P. Dale_, Apr 11 2014 *)",
				"RealDigits[N[12^(1/10), 200]][[1]] (* _Vincenzo Librandi_, Apr 12 2014 *)"
			],
			"program": [
				"(PARI) sqrtn(12,10) \\\\ _Charles R Greathouse IV_, May 08 2015"
			],
			"keyword": "nonn,cons",
			"offset": "1,2",
			"author": "_N. J. A. Sloane_.",
			"references": 1,
			"revision": 12,
			"time": "2015-05-08T16:03:03-04:00",
			"created": "1996-12-11T03:00:00-05:00"
		}
	]
}