{
	"greeting": "Greetings from The On-Line Encyclopedia of Integer Sequences! http://oeis.org/",
	"query": "id:A011387",
	"count": 1,
	"start": 0,
	"results": [
		{
			"number": 11387,
			"data": "1,2,4,3,5,1,1,8,1,7,9,6,0,5,8,0,3,3,9,7,5,9,8,0,1,3,2,0,6,0,2,0,5,0,9,3,7,2,2,7,9,6,0,9,7,1,9,4,0,3,6,6,5,5,5,0,5,1,2,6,1,6,7,3,0,6,8,6,9,9,2,0,7,0,6,9,7,1,4,8,1,6,8,7,4,9,5,2,3,1,1,6,1,9,2,2,3,5,1",
			"name": "Decimal expansion of 13th root of 17.",
			"link": [
				"Ivan Panchenko, \u003ca href=\"/A011387/b011387.txt\"\u003eTable of n, a(n) for n = 1..1000\u003c/a\u003e"
			],
			"keyword": "nonn,cons",
			"offset": "1,2",
			"author": "_N. J. A. Sloane_.",
			"references": 1,
			"revision": 8,
			"time": "2014-09-06T06:45:30-04:00",
			"created": "1996-12-11T03:00:00-05:00"
		}
	]
}