{
	"greeting": "Greetings from The On-Line Encyclopedia of Integer Sequences! http://oeis.org/",
	"query": "id:A011266",
	"count": 1,
	"start": 0,
	"results": [
		{
			"number": 11266,
			"data": "1,1,4,48,1536,122880,23592960,10569646080,10823317585920,24936923717959680,127677049435953561600,1438154284846580917862400,35344079704389572637386342400,1882001556099335963795547960115200,215842994465920643015783804449692057600",
			"name": "a(n) = 2^(n*(n-1)/2)*n!.",
			"comment": [
				"Let A = the sum of the n-th powers of the first 2^{n-1} terms of A001969, and similarly let B = the sum of the n-th powers of the first 2^{n-1} terms of A000069. Then a(n) = |A-B|. - _Jeffrey Shallit_, Nov 29 2019"
			],
			"link": [
				"Alois P. Heinz, \u003ca href=\"/A011266/b011266.txt\"\u003eTable of n, a(n) for n = 0..77\u003c/a\u003e",
				"Richard P. Stanley, \u003ca href=\"http://dx.doi.org/10.1016/0012-365X(73)90108-8\"\u003eAcyclic Orientations of Graphs\u003c/a\u003e, Discrete Mathematics, 5 (1973), pages 171-178, doi:10.1016/0012-365X(73)90108-8"
			],
			"maple": [
				"a:= n-\u003e 2^(n*(n-1)/2)*n!:",
				"seq(a(n), n=0..15);  # _Alois P. Heinz_, Apr 21 2020"
			],
			"mathematica": [
				"Table[2^((n(n-1))/2) n!,{n,0,20}] (* _Harvey P. Dale_, Dec 16 2012 *)"
			],
			"xref": [
				"Main diagonal of A046860.",
				"Cf. A000069, A001969."
			],
			"keyword": "nonn",
			"offset": "0,3",
			"author": "_N. J. A. Sloane_.",
			"references": 5,
			"revision": 17,
			"time": "2020-04-21T19:08:27-04:00",
			"created": "1999-12-11T03:00:00-05:00"
		}
	]
}