{
	"greeting": "Greetings from The On-Line Encyclopedia of Integer Sequences! http://oeis.org/",
	"query": "id:A011840",
	"count": 1,
	"start": 0,
	"results": [
		{
			"number": 11840,
			"data": "1,2,12,233,13027,2054860,902972232,1088301119016,3548682190216501,30975390230263001230,718172054909597874684616,43989826242167986964609396098,7092859798789990177772152185478717",
			"name": "f-vectors for 8-neighborly simplicial complexes on n+7 vertices.",
			"keyword": "nonn",
			"offset": "1,2",
			"author": "Svante Linusson (linusson(AT)math.kth.se)",
			"references": 0,
			"revision": 3,
			"time": "2003-05-16T03:00:00-04:00",
			"created": "1996-12-11T03:00:00-05:00"
		}
	]
}