{
	"greeting": "Greetings from The On-Line Encyclopedia of Integer Sequences! http://oeis.org/",
	"query": "id:A012733",
	"count": 1,
	"start": 0,
	"results": [
		{
			"number": 12733,
			"data": "2,88,353952,4859875200,286589256061440,38349390501320693760,11520524205295446001950720,6360705742909296331970308177920",
			"name": "arcsinh(arctanh(x)*arctan(x))=2/2!*x^2+88/6!*x^6+353952/10!*x^10...",
			"mathematica": [
				"With[{nn=30},Take[CoefficientList[Series[ArcSinh[ArcTanh[x]ArcTan[x]],{x,0,nn}],x] Range[0,nn]!,{3,-1,4}]] (* _Harvey P. Dale_, Apr 12 2013 *)"
			],
			"keyword": "nonn",
			"offset": "0,1",
			"author": "Patrick Demichel (patrick.demichel(AT)hp.com)",
			"ext": [
				"Definition clarified by _Harvey P. Dale_, Apr 12 2013"
			],
			"references": 0,
			"revision": 6,
			"time": "2013-04-12T18:24:10-04:00",
			"created": "1996-12-11T03:00:00-05:00"
		}
	]
}