{
	"greeting": "Greetings from The On-Line Encyclopedia of Integer Sequences! http://oeis.org/",
	"query": "id:A012430",
	"count": 1,
	"start": 0,
	"results": [
		{
			"number": 12430,
			"data": "1,0,12,-360,24080,-2640960,420653376,-92737380736,26980142475520,-10012413760149504,4615824952212134912,-2587662789242232604672,1733488941554235507937280,-1367558750121199449308119040",
			"name": "sec(arctan(x)*sin(x))=1+12/4!*x^4-360/6!*x^6+24080/8!*x^8...",
			"keyword": "sign",
			"offset": "0,3",
			"author": "Patrick Demichel (patrick.demichel(AT)hp.com)",
			"references": 0,
			"revision": 4,
			"time": "2012-02-24T12:50:49-05:00",
			"created": "1996-12-11T03:00:00-05:00"
		}
	]
}