{
	"greeting": "Greetings from The On-Line Encyclopedia of Integer Sequences! http://oeis.org/",
	"query": "id:A012290",
	"count": 1,
	"start": 0,
	"results": [
		{
			"number": 12290,
			"data": "0,1,2,0,-24,-140,-8,8960,92736,12240,-14154208,-210017280,-50776704,58549241920,1133642065792,435228385280,-500888609593344,-11981516394489600,-6690495105515008,7684815276420464640",
			"name": "Expansion of e.g.f. arctan(sin(x)*exp(x)).",
			"link": [
				"G. C. Greubel, \u003ca href=\"/A012290/b012290.txt\"\u003eTable of n, a(n) for n = 0..423\u003c/a\u003e"
			],
			"formula": [
				"a(n) = Sum_{m=0..n/2} ((4^(-m)*Sum_{j=m..n/2} (binomial(n+1,2*j+1)*((2*m+1)^(n-2*j-1)*sum(i=0..m+1/2, (2*i-2*m-1)^(2*j+1)*(-1)^(j+1-i)*binomial(2*m+1,i)))))). - _Vladimir Kruchinin_, Jun 30 2011"
			],
			"example": [
				"arctan(sin(x)*exp(x)) = x + (2/2!)*x^2 - (24/4!)*x^4 - (140/5!)*x^5 - (8/6!)*x^6 + ..."
			],
			"mathematica": [
				"CoefficientList[Series[ArcTan[Sin[x]*Exp[x]],{x,0,20}],x]*Range[0,20]! (* _Vaclav Kotesovec_, Jan 02 2014 *)"
			],
			"program": [
				"(Maxima)",
				"a(n):=sum((4^(-m)*sum(binomial(n+1,2*j+1)*((2*m+1)^(n-2*j-1)*sum((2*i-2*m-1)^(2*j+1)*(-1)^(j+1-i)*binomial(2*m+1,i),i,0,m+1/2)),j,m,(n)/2)),m,0,(n)/2); /* _Vladimir Kruchinin_, Jun 30 2011 */",
				"(PARI) x='x+O('x^30); concat([0], Vec(serlaplace(atan(sin(x)*exp(x))))) \\\\ _G. C. Greubel_, Oct 26 2018",
				"(MAGMA) m:=30; R\u003cx\u003e:=PowerSeriesRing(Rationals(), m); b:=Coefficients(R!( Arctan(Sin(x)*Exp(x)) )); [0] cat [Factorial(n)*b[n]: n in [1..m-1]]; // _G. C. Greubel_, Oct 26 2018"
			],
			"keyword": "sign",
			"offset": "0,3",
			"author": "Patrick Demichel (patrick.demichel(AT)hp.com)",
			"ext": [
				"Missing a(0)=0 prepended by _Vaclav Kotesovec_, Jan 02 2014"
			],
			"references": 1,
			"revision": 19,
			"time": "2018-10-27T03:10:31-04:00",
			"created": "1996-12-11T03:00:00-05:00"
		}
	]
}