{
	"greeting": "Greetings from The On-Line Encyclopedia of Integer Sequences! http://oeis.org/",
	"query": "id:A012415",
	"count": 1,
	"start": 0,
	"results": [
		{
			"number": 12415,
			"data": "0,1,2,-1,-28,-115,230,7051,43080,-172327,-6067382,-47080361,309697324,12289126629,114505019694,-1105109602973,-48948382516592,-522517588252495,7065091754607762,338212264324430255",
			"name": "Expansion of e.g.f. tanh(arctan(x) * exp(x)).",
			"example": [
				"x + 2/2!*x^2 - 1/3!*x^3 - 28/4!*x^4 - 115/5!*x^5 ..."
			],
			"mathematica": [
				"With[{nn=20},CoefficientList[Series[Tanh[ArcTan[x]Exp[x]],{x,0,nn}],x] Range[0,nn]!] * _Harvey P. Dale_, Dec 13 2018 *)"
			],
			"program": [
				"(PARI) x = 'x + O('x^30); concat([0], Vec(serlaplace(tanh(atan(x) * exp(x))))) \\\\ _Michel Marcus_, Jul 19 2018"
			],
			"keyword": "sign",
			"offset": "0,3",
			"author": "Patrick Demichel (patrick.demichel(AT)hp.com)",
			"ext": [
				"a(0) inserted and title improved by _Sean A. Irvine_, Jul 18 2018"
			],
			"references": 0,
			"revision": 11,
			"time": "2018-12-13T16:23:20-05:00",
			"created": "1996-12-11T03:00:00-05:00"
		}
	]
}