{
	"greeting": "Greetings from The On-Line Encyclopedia of Integer Sequences! http://oeis.org/",
	"query": "id:A012662",
	"count": 1,
	"start": 0,
	"results": [
		{
			"number": 12662,
			"data": "1,0,1,6,21,100,957,8498,70217,762696,9950809,128378910,1775380893,28325140012,483428842197,8558590549322,163465935697169,3367220579004048,72712394227734577,1648059951297530166",
			"name": "sec(tanh(x)*exp(x))=1+1/2!*x^2+6/3!*x^3+21/4!*x^4+100/5!*x^5...",
			"keyword": "nonn",
			"offset": "0,4",
			"author": "Patrick Demichel (patrick.demichel(AT)hp.com)",
			"references": 0,
			"revision": 4,
			"time": "2012-02-24T12:51:04-05:00",
			"created": "1996-12-11T03:00:00-05:00"
		}
	]
}