{
	"greeting": "Greetings from The On-Line Encyclopedia of Integer Sequences! http://oeis.org/",
	"query": "id:A012470",
	"count": 1,
	"start": 0,
	"results": [
		{
			"number": 12470,
			"data": "0,1,-1,-2,6,13,-225,530,8540,-65579,-650565,13899070,-8281878,-2388363655,18379145603,516826612354,-11083263907560,-64702488848279,5027641615912599,-24199820388513346",
			"name": "arcsinh(cos(x)*log(x+1))=x-1/2!*x^2-2/3!*x^3+6/4!*x^4+13/5!*x^5...",
			"formula": [
				"Lim sup n-\u003einfinity (|a(n)|/n!)^(1/n) = 1.25977488234489... = abs(1/r), where r is the complex root of the equation 1+r = exp(-I/cos(r)). - _Vaclav Kotesovec_, Nov 02 2013"
			],
			"mathematica": [
				"CoefficientList[Series[ArcSinh[Cos[x]*Log[x+1]], {x, 0, 20}], x]* Range[0, 20]! (* _Vaclav Kotesovec_, Oct 30 2013 *)"
			],
			"keyword": "sign",
			"offset": "0,4",
			"author": "Patrick Demichel (patrick.demichel(AT)hp.com)",
			"ext": [
				"Prepended missing a(0)=0 from _Vaclav Kotesovec_, Nov 02 2013"
			],
			"references": 0,
			"revision": 8,
			"time": "2013-11-02T08:23:52-04:00",
			"created": "1996-12-11T03:00:00-05:00"
		}
	]
}