{
	"greeting": "Greetings from The On-Line Encyclopedia of Integer Sequences! http://oeis.org/",
	"query": "id:A012813",
	"count": 1,
	"start": 0,
	"results": [
		{
			"number": 12813,
			"data": "1,-1,1,-145,6977,-568865,80708417,-14347965489,3496685652353,-1086579978065473,419435785375158145,-197705949756543164369,111488102700546889037505,-74151248251988209281143905",
			"name": "sech(sec(x)*arctan(x))=1-1/2!*x^2+1/4!*x^4-145/6!*x^6+6977/8!*x^8...",
			"mathematica": [
				"With[{nn=30},Take[CoefficientList[Series[Sech[Sec[x] ArcTan[x]],{x,0,nn}],x] Range[0,nn]!,{1,-1,2}]] (* _Harvey P. Dale_, Jan 22 2015 *)"
			],
			"keyword": "sign",
			"offset": "0,4",
			"author": "Patrick Demichel (patrick.demichel(AT)hp.com)",
			"references": 0,
			"revision": 6,
			"time": "2015-01-22T18:09:19-05:00",
			"created": "1996-12-11T03:00:00-05:00"
		}
	]
}