{
	"greeting": "Greetings from The On-Line Encyclopedia of Integer Sequences! http://oeis.org/",
	"query": "id:A012140",
	"count": 1,
	"start": 0,
	"results": [
		{
			"number": 12140,
			"data": "1,2,32,1336,108800,14701312,2986596480,852635258112,325714440802304,160437668874481664,98998538588401238016,74780329820590921056256,67860526461080359727955968,72835853250644384064569933824",
			"name": "arcsinh(arcsin(arctanh(x)))=x+2/3!*x^3+32/5!*x^5+1336/7!*x^7...",
			"keyword": "nonn",
			"offset": "0,2",
			"author": "Patrick Demichel (patrick.demichel(AT)hp.com)",
			"references": 0,
			"revision": 4,
			"time": "2012-02-24T12:50:41-05:00",
			"created": "1996-12-11T03:00:00-05:00"
		}
	]
}