{
	"greeting": "Greetings from The On-Line Encyclopedia of Integer Sequences! http://oeis.org/",
	"query": "id:A012077",
	"count": 1,
	"start": 0,
	"results": [
		{
			"number": 12077,
			"data": "1,5,121,6845,698161,111973685,25947503401,8200346492525,3389281372287841,1774459993676715365,1147649139272698443481,898537335398420151634205,837511978485668107020082321",
			"name": "tan(arcsin(tan(x))) = x+5/3!*x^3+121/5!*x^5+6845/7!*x^7+698161/9!*x^9...",
			"link": [
				"Robert Israel, \u003ca href=\"/A012077/b012077.txt\"\u003eTable of n, a(n) for n = 0..215\u003c/a\u003e"
			],
			"formula": [
				"a(n) = Sum_(m=0..n, binomial(2*m,m)*Sum_(j=0..2*n-2*m, binomial(j+2*m,2*m)*(j+2*m+1)!*2^(2*n-j-4*m)*(-1)^(n+m+j)*stirling2(2*n+1,j+2*m+1))) /((2*n+1)!), n\u003e0. - _Vladimir Kruchinin_, Jun 15 2011",
				"From _Peter Luschny_, May 13 2017 (Start)",
				"a(n) = (2*n+1)! [x^(2*n+1)] tan(x)/sqrt(1-tan(x)^2),",
				"a(n) = (2*n+1)! [x^(2*n+1)] tan(arcsin(tan(x))),",
				"a(n) = (2*n+1)! [x^(2*n+1)] sinh(arctanh(tan(x))).",
				"(End)"
			],
			"maple": [
				"S:= series(tan(x)/sqrt(1-tan(x)^2), x, 102):",
				"seq(coeff(S,x,2*j+1)*(2*j+1)!, j=0..50); # _Robert Israel_, May 08 2017"
			],
			"mathematica": [
				"nn = 20; Table[(CoefficientList[Series[Tan[x]/Sqrt[1 - Tan[x]^2], {x, 0, 2*nn+1}], x] * Range[0, 2*nn+1]!)[[n]], {n, 2, 2*nn, 2}] (* _Vaclav Kotesovec_, Feb 06 2015 *)",
				"With[{nn=30},Take[CoefficientList[Series[Tan[ArcSin[Tan[x]]],{x,0,nn}],x] Range[0,nn-1]!,{2,-1,2}]] (* _Harvey P. Dale_, Mar 22 2015 *)"
			],
			"program": [
				"(Maxima)",
				"a(n):=sum(binomial(2*m,m)*sum(binomial(j+2*m,2*m)*(j+2*m+1)!*2^(2*n-j-4*m)*(-1)^(n+m+j)*stirling2(2*n+1,j+2*m+1),j,0,2*n-2*m),m,0,n)/((2*n+1)!); /* _Vladimir Kruchinin_, Jun 15 2011 */"
			],
			"keyword": "nonn",
			"offset": "0,2",
			"author": "Patrick Demichel (patrick.demichel(AT)hp.com)",
			"references": 2,
			"revision": 26,
			"time": "2017-05-13T23:58:22-04:00",
			"created": "1996-12-11T03:00:00-05:00"
		}
	]
}