{
	"greeting": "Greetings from The On-Line Encyclopedia of Integer Sequences! http://oeis.org/",
	"query": "id:A012772",
	"count": 1,
	"start": 0,
	"results": [
		{
			"number": 12772,
			"data": "1,3,12,49,200,816,3329,13581,55405,226030,922111,3761840,15346786,62608681,255418101,1042002567,4250949112,17342153393,70748973084,288627200960,1177482265857,4803651498529,19596955630177",
			"name": "Take every 5th term of Padovan sequence A000931, beginning with the sixth term.",
			"link": [
				"Vincenzo Librandi, \u003ca href=\"/A012772/b012772.txt\"\u003eTable of n, a(n) for n = 0..1000\u003c/a\u003e",
				"\u003ca href=\"/index/Rec#order_03\"\u003eIndex entries for linear recurrences with constant coefficients\u003c/a\u003e, signature (5, -4, 1)."
			],
			"formula": [
				"a(n+3) = 5*a(n+2) - 4*a(n+1) + a(n).",
				"G.f.: (1-x)^2/(1-5*x+4*x^2-x^3). - _Colin Barker_, Feb 02 2012"
			],
			"mathematica": [
				"CoefficientList[Series[(1-x)^2/(1-5*x+4*x^2-x^3),{x,0,33}],x] (* _Vincenzo Librandi_, Apr 18 2012 *)"
			],
			"program": [
				"(MAGMA) I:=[1, 3, 12]; [n le 3 select I[n] else 5*Self(n-1)-4*Self(n-2)+Self(n-3): n in [1..30]]; // _Vincenzo Librandi_, Apr 18 2012"
			],
			"keyword": "nonn,easy",
			"offset": "0,2",
			"author": "_N. J. A. Sloane_.",
			"references": 2,
			"revision": 16,
			"time": "2016-12-26T05:28:24-05:00",
			"created": "1999-12-11T03:00:00-05:00"
		}
	]
}