{
	"greeting": "Greetings from The On-Line Encyclopedia of Integer Sequences! http://oeis.org/",
	"query": "id:A012959",
	"count": 1,
	"start": 0,
	"results": [
		{
			"number": 12959,
			"data": "1,-4,56,-1894,120872,-12371994,1856495604,-384431704934,104893865610544,-36513587479094898,15776775677608315084,-8290816621524021595806,5204162380787016330112520",
			"name": "sech(tan(x)+arcsin(x))=1-4/2!*x^2+56/4!*x^4-1894/6!*x^6+120872/8!*x^8...",
			"keyword": "sign",
			"offset": "0,2",
			"author": "Patrick Demichel (patrick.demichel(AT)hp.com)",
			"references": 0,
			"revision": 4,
			"time": "2012-02-24T12:51:14-05:00",
			"created": "1996-12-11T03:00:00-05:00"
		}
	]
}