{
	"greeting": "Greetings from The On-Line Encyclopedia of Integer Sequences! http://oeis.org/",
	"query": "id:A012963",
	"count": 1,
	"start": 0,
	"results": [
		{
			"number": 12963,
			"data": "0,2,-1,-16,42,756,-5130,-82584,1145256,15632064,-405336960,-4218834816,206734828608,1303793191008,-142600433831856,-162973525708224,126855035118725760,-683674107835961088",
			"name": "Expansion of e.g.f.: arctan(arctan(x)+log(x+1))=2*x-1/2!*x^2-16/3!*x^3+42/4!*x^4+756/5!*x^5...",
			"mathematica": [
				"With[{nn=20},CoefficientList[Series[ArcTan[ArcTan[x]+Log[x+1]],{x,0,nn}],x] Range[0,nn]!] (* _Harvey P. Dale_, Jan 27 2015 *)"
			],
			"keyword": "sign",
			"offset": "0,2",
			"author": "Patrick Demichel (patrick.demichel(AT)hp.com)",
			"ext": [
				"Definition clarified by and zero prepended by _Harvey P. Dale_, Jan 27 2015"
			],
			"references": 0,
			"revision": 6,
			"time": "2015-01-27T18:02:02-05:00",
			"created": "1996-12-11T03:00:00-05:00"
		}
	]
}