{
	"greeting": "Greetings from The On-Line Encyclopedia of Integer Sequences! http://oeis.org/",
	"query": "id:A012909",
	"count": 1,
	"start": 0,
	"results": [
		{
			"number": 12909,
			"data": "1,0,4,-6,107,-490,7780,-66045,1113185,-14056740,264337750,-4409272175,93796875575,-1927625491350,46373594683000,-1124449061497125,30408904419466625,-845698069130473000",
			"name": "sec(arcsin(x)+log(x+1))=1+4/2!*x^2-6/3!*x^3+107/4!*x^4-490/5!*x^5...",
			"keyword": "sign",
			"offset": "0,3",
			"author": "Patrick Demichel (patrick.demichel(AT)hp.com)",
			"references": 0,
			"revision": 4,
			"time": "2012-02-24T12:51:11-05:00",
			"created": "1996-12-11T03:00:00-05:00"
		}
	]
}