{
	"greeting": "Greetings from The On-Line Encyclopedia of Integer Sequences! http://oeis.org/",
	"query": "id:A012452",
	"count": 1,
	"start": 0,
	"results": [
		{
			"number": 12452,
			"data": "0,2,0,400,-2688,1873408,-60938240,49450805248,-4291105193984,4345356280528896,-769792296435580928,962815994229666349056,-298377426990773724774400,452668537171760533299265536",
			"name": "arctanh(arctan(x)*tan(x))=2/2!*x^2+400/6!*x^6-2688/8!*x^8...",
			"mathematica": [
				"With[{nn=30},Take[CoefficientList[Series[ArcTanh[ArcTan[x]*Tan[x]],{x,0,nn}],x] Range[0,nn]!,{1,-1,2}]] (* _Ray Chandler_, Nov 28 2016 *)"
			],
			"keyword": "sign",
			"offset": "0,2",
			"author": "Patrick Demichel (patrick.demichel(AT)hp.com)",
			"references": 0,
			"revision": 6,
			"time": "2016-11-28T18:46:16-05:00",
			"created": "1996-12-11T03:00:00-05:00"
		}
	]
}