{
	"greeting": "Greetings from The On-Line Encyclopedia of Integer Sequences! http://oeis.org/",
	"query": "id:A012318",
	"count": 1,
	"start": 0,
	"results": [
		{
			"number": 12318,
			"data": "0,1,2,6,32,240,2000,19656,221888,2846784,40430848,632914304,10802538496,199980939392,3985563555584,85138224664832,1939700554334208,46962544699670528,1203843275552612352",
			"name": "tan(arcsin(x)*exp(x))=x+2/2!*x^2+6/3!*x^3+32/4!*x^4+240/5!*x^5...",
			"formula": [
				"a(n) ~ n! / ((Pi/2 + exp(r)/sqrt(1-r^2)) * r^(n+1)), where r = 0.70212550839123612037106419625287862875439228120419... is the root of the equation arcsin(r)*exp(r) = Pi/2. - _Vaclav Kotesovec_, Feb 06 2015"
			],
			"mathematica": [
				"CoefficientList[Series[Tan[E^x*ArcSin[x]], {x, 0, 20}], x] * Range[0, 20]! (* _Vaclav Kotesovec_, Feb 06 2015 *)"
			],
			"keyword": "nonn",
			"offset": "0,3",
			"author": "Patrick Demichel (patrick.demichel(AT)hp.com)",
			"ext": [
				"a(0)=0 prepended by _Vaclav Kotesovec_, Feb 06 2015"
			],
			"references": 0,
			"revision": 11,
			"time": "2015-02-06T09:13:48-05:00",
			"created": "1996-12-11T03:00:00-05:00"
		}
	]
}