{
	"greeting": "Greetings from The On-Line Encyclopedia of Integer Sequences! http://oeis.org/",
	"query": "id:A012284",
	"count": 1,
	"start": 0,
	"results": [
		{
			"number": 12284,
			"data": "0,0,2,-3,4,-20,230,-1911,12920,-104040,1058458,-11889955,141336380,-1804017852,24962731950,-371663464095,5900573560752,-99478198783184,1776396441716658,-33501559023746883,665305926036550324",
			"name": "Expansion of e.g.f. sinh(sin(x)*log(x+1)).",
			"link": [
				"G. C. Greubel, \u003ca href=\"/A012284/b012284.txt\"\u003eTable of n, a(n) for n = 0..449\u003c/a\u003e"
			],
			"example": [
				"E.g.f. = 2*x^2/2! - 3*x^3/3! + 4*x^4/4! - 20*x^5/5! + ..."
			],
			"mathematica": [
				"CoefficientList[Series[Sinh[Log[1 + x]*Sin[x]], {x, 0, 20}], x] * Range[0, 20]! (* _Vaclav Kotesovec_, Feb 05 2015 *)"
			],
			"program": [
				"(PARI) x='x+O('x^30); concat([0,0], Vec(serlaplace(sinh(sin(x)* log(x+1))))) \\\\ _G. C. Greubel_, Oct 26 2018",
				"(MAGMA) m:=30; R\u003cx\u003e:=PowerSeriesRing(Rationals(), m); b:=Coefficients(R!( Sinh(Sin(x)*Log(x+1)) )); [0,0] cat [Factorial(n+1)*b[n]: n in [1..m-2]]; // _G. C. Greubel_, Oct 26 2018"
			],
			"keyword": "sign",
			"offset": "0,3",
			"author": "Patrick Demichel (patrick.demichel(AT)hp.com)",
			"ext": [
				"Prepended missing a(0)=a(1)=0 from _Vaclav Kotesovec_, Feb 05 2015"
			],
			"references": 1,
			"revision": 11,
			"time": "2018-10-27T03:11:07-04:00",
			"created": "1996-12-11T03:00:00-05:00"
		}
	]
}