{
	"greeting": "Greetings from The On-Line Encyclopedia of Integer Sequences! http://oeis.org/",
	"query": "id:A012260",
	"count": 1,
	"start": 0,
	"results": [
		{
			"number": 12260,
			"data": "1,1,1,1,1,9,49,57,-447,5169,78561,-93807,-5655231,31981689,1014069393,-3857766903,-187639949439,1058896281825,51144433721793,-286891166986335,-16631972691697791,108826313005021545",
			"name": "Expansion of e.g.f. exp(arctanh(arctan(x))).",
			"link": [
				"G. C. Greubel, \u003ca href=\"/A012260/b012260.txt\"\u003eTable of n, a(n) for n = 0..450\u003c/a\u003e"
			],
			"example": [
				"E.g.f. = 1 + x + x^2/2! + x^3/3! + x^4/4! + 9*x^5/5! + ..."
			],
			"maple": [
				"seq(coeff(series(factorial(n)*exp(arctanh(arctan(x))),x,n+1), x, n), n = 0 .. 25); # _Muniru A Asiru_, Oct 29 2018"
			],
			"mathematica": [
				"With[{nn=30},CoefficientList[Series[Exp[ArcTanh[ArcTan[x]]],{x,0,nn}],x] Range[0,nn]!] (* _Ray Chandler_, Nov 28 2016 *)"
			],
			"program": [
				"(PARI) x='x+O('x^30); Vec(serlaplace(exp(atanh(atan(x))))) \\\\ _G. C. Greubel_, Oct 28 2018",
				"(MAGMA) m:=30; R\u003cx\u003e:=PowerSeriesRing(Rationals(), m); b:=Coefficients(R!( Exp(Argtanh(Arctan(x))) )); [Factorial(n-1)*b[n]: n in [1..m-1]]; // _G. C. Greubel_, Oct 28 2018"
			],
			"keyword": "sign",
			"offset": "0,6",
			"author": "Patrick Demichel (patrick.demichel(AT)hp.com)",
			"references": 1,
			"revision": 13,
			"time": "2018-10-29T03:52:24-04:00",
			"created": "1996-12-11T03:00:00-05:00"
		}
	]
}