{
	"greeting": "Greetings from The On-Line Encyclopedia of Integer Sequences! http://oeis.org/",
	"query": "id:A013016",
	"count": 1,
	"start": 0,
	"results": [
		{
			"number": 13016,
			"data": "0,2,-1,19,-54,837,-5430,85727,-913304,15882789,-235221480,4628229637,-86832384408,1942163547859,-43698750863040,1105827151216987,-28836153358566240,818829801177930873,-24192235106596630656",
			"name": "Expansion of e.g.f. tan(sinh(x) + log(x+1)).",
			"link": [
				"Muniru A Asiru, \u003ca href=\"/A013016/b013016.txt\"\u003eTable of n, a(n) for n = 0..100\u003c/a\u003e"
			],
			"example": [
				"2*x - 1/2!*x^2 + 19/3!*x^3 - 54/4!*x^4 + 837/5!*x^5 ..."
			],
			"maple": [
				"seq(coeff(series(factorial(n)*tan(sinh(x)+log(x+1)), x,n+1),x,n),n=0..20); # _Muniru A Asiru_, Aug 21 2018"
			],
			"program": [
				"(PARI) x = 'x + O('x^30); concat([0], Vec(serlaplace(tan(sinh(x) + log(x+1))))) \\\\ _Michel Marcus_, Jul 30 2018"
			],
			"keyword": "sign",
			"offset": "0,2",
			"author": "Patrick Demichel (patrick.demichel(AT)hp.com)",
			"ext": [
				"a(0)=0 inserted and title improved by _Sean A. Irvine_, Jul 30 2018"
			],
			"references": 1,
			"revision": 13,
			"time": "2018-08-27T09:12:11-04:00",
			"created": "1996-12-11T03:00:00-05:00"
		}
	]
}