{
	"greeting": "Greetings from The On-Line Encyclopedia of Integer Sequences! http://oeis.org/",
	"query": "id:A013233",
	"count": 1,
	"start": 0,
	"results": [
		{
			"number": 13233,
			"data": "1,0,0,0,-3,10,-100,525,-4935,32940,-339750,2618275,-30387775,251013750,-3301268100,26222434875,-400587471375,2197651183000,-45694778418250,-233584427890125,-1331937583104375",
			"name": "Expansion of e.g.f.: sech(log(x+1)-arcsin(x))=1-3/4!*x^4+10/5!*x^5-100/6!*x^6+525/7!*x^7...",
			"mathematica": [
				"With[{nn=30},CoefficientList[Series[Sech[Log[x+1]-ArcSin[x]],{x,0,nn}],x] Range[0,nn]!] (* _Harvey P. Dale_, Oct 14 2019 *)"
			],
			"keyword": "sign",
			"offset": "0,5",
			"author": "Patrick Demichel (patrick.demichel(AT) hp.com)",
			"ext": [
				"Definition clarified by _Harvey P. Dale_, Oct 14 2019"
			],
			"references": 0,
			"revision": 8,
			"time": "2019-10-14T20:45:50-04:00",
			"created": "1996-12-11T03:00:00-05:00"
		}
	]
}