{
	"greeting": "Greetings from The On-Line Encyclopedia of Integer Sequences! http://oeis.org/",
	"query": "id:A013230",
	"count": 1,
	"start": 0,
	"results": [
		{
			"number": 13230,
			"data": "0,0,-1,1,-6,15,-150,705,-8120,56315,-750960,7042275,-106939800,1270108125,-21672530880,312137314125,-5928695604000,100366159008375,-2104970646729600,40921600563449775",
			"name": "Expansion of e.g.f. arctanh(log(x+1) - arcsin(x)).",
			"example": [
				"-1/2!*x^2 + 1/3!*x^3 - 6/4!*x^4 + 15/5!*x^5 ..."
			],
			"mathematica": [
				"Range[0, 20]! CoefficientList[ Series[ ArcTanh[ Log[x + 1] - ArcSin[x]], {x, 0, 20}], x] (* _Robert G. Wilson v_, Aug 01 2018 *)"
			],
			"keyword": "sign",
			"offset": "0,5",
			"author": "Patrick Demichel (patrick.demichel(AT)hp.com)",
			"ext": [
				"a(0)=a(1)=0 inserted and title improved by _Sean A. Irvine_, Aug 01 2018"
			],
			"references": 0,
			"revision": 9,
			"time": "2018-08-02T17:25:31-04:00",
			"created": "1996-12-11T03:00:00-05:00"
		}
	]
}