{
	"greeting": "Greetings from The On-Line Encyclopedia of Integer Sequences! http://oeis.org/",
	"query": "id:A013880",
	"count": 1,
	"start": 0,
	"results": [
		{
			"number": 13880,
			"data": "4096,4294967296,4503599627370496,4722366482869645213696,4951760157141521099596496896,5192296858534827628530496329220096,5444517870735015415413993718908291383296,5708990770823839524233143877797980545530986496",
			"name": "a(n) = 16^(5*n + 3).",
			"link": [
				"Vincenzo Librandi, \u003ca href=\"/A013880/b013880.txt\"\u003eTable of n, a(n) for n = 0..100\u003c/a\u003e",
				"Tanya Khovanova, \u003ca href=\"http://www.tanyakhovanova.com/RecursiveSequences/RecursiveSequences.html\"\u003eRecursive Sequences\u003c/a\u003e",
				"\u003ca href=\"/index/Rec#order_01\"\u003eIndex entries for linear recurrences with constant coefficients\u003c/a\u003e, signature (1048576)."
			],
			"program": [
				"(MAGMA) [16^(5*n+3): n in [0..10]]; // _Vincenzo Librandi_, Jul 10 2011"
			],
			"keyword": "nonn,easy",
			"offset": "0,1",
			"author": "_N. J. A. Sloane_",
			"references": 1,
			"revision": 12,
			"time": "2018-10-09T23:28:27-04:00",
			"created": "1996-12-11T03:00:00-05:00"
		}
	]
}