{
	"greeting": "Greetings from The On-Line Encyclopedia of Integer Sequences! http://oeis.org/",
	"query": "id:A013109",
	"count": 1,
	"start": 0,
	"results": [
		{
			"number": 13109,
			"data": "2,-11,441,-48897,10711449,-3898352493,2124846180765,-1619764201737297,1645104402411921297,-2147066174256624128277,3501336873746919748187493,-6976563529004472877778185497",
			"name": "arcsinh(arcsinh(x)+arctan(x))=2*x-11/3!*x^3+441/5!*x^5-48897/7!*x^7...",
			"mathematica": [
				"With[{nn=30},Take[CoefficientList[Series[ArcSinh[ArcSinh[x]+ArcTan[x]],{x,0,nn}],x] Range[0,nn-1]!,{2,-1,2}]] (* _Harvey P. Dale_, Jul 19 2014 *)"
			],
			"keyword": "sign",
			"offset": "0,1",
			"author": "Patrick Demichel (patrick.demichel(AT)hp.com)",
			"references": 1,
			"revision": 6,
			"time": "2014-07-19T18:16:11-04:00",
			"created": "1996-12-11T03:00:00-05:00"
		}
	]
}