{
	"greeting": "Greetings from The On-Line Encyclopedia of Integer Sequences! http://oeis.org/",
	"query": "id:A013170",
	"count": 1,
	"start": 0,
	"results": [
		{
			"number": 13170,
			"data": "1,2,4,11,40,185,1030,6785,51160,438425,4176250,44098925,507867100,6375156125,86130937750,1253044612625,19429666282000,321457635604625,5626346310003250,104323833636303125,2034312191276462500",
			"name": "Expansion of e.g.f.: exp(arctanh(x)+arcsin(x)).",
			"link": [
				"Vincenzo Librandi, \u003ca href=\"/A013170/b013170.txt\"\u003eTable of n, a(n) for n = 0..200\u003c/a\u003e"
			],
			"formula": [
				"a(n) = n * A006228(n) + A006228(n+1). - _Mark van Hoeij_, Aug 27 2005",
				"a(n) = (n^2-3*n+5)*a(n-2) + (n^2-6*n+10)*a(n-3). - _Vaclav Kotesovec_, Oct 07 2012"
			],
			"example": [
				"exp(arctanh(x)+arcsin(x)) = 1+2*x+4/2!*x^2+11/3!*x^3+40/4!*x^4+185/5!*x^5+..."
			],
			"mathematica": [
				"Table[n!*SeriesCoefficient[E^(ArcTanh[x]+ArcSin[x]),{x,0,n}],{n,0,20}] (* _Vaclav Kotesovec_, Oct 07 2012 *)"
			],
			"program": [
				"(PARI) x='x+O('x^66); Vec(serlaplace(exp(atanh(x)+asin(x)))) \\\\ _Joerg Arndt_, May 04 2013"
			],
			"xref": [
				"Cf. A006228."
			],
			"keyword": "nonn",
			"offset": "0,2",
			"author": "Patrick Demichel (patrick.demichel(AT)hp.com)",
			"references": 2,
			"revision": 21,
			"time": "2020-05-10T02:59:35-04:00",
			"created": "1996-12-11T03:00:00-05:00"
		}
	]
}