{
	"greeting": "Greetings from The On-Line Encyclopedia of Integer Sequences! http://oeis.org/",
	"query": "id:A013788",
	"count": 1,
	"start": 0,
	"results": [
		{
			"number": 13788,
			"data": "8,32768,134217728,549755813888,2251799813685248,9223372036854775808,37778931862957161709568,154742504910672534362390528,633825300114114700748351602688,2596148429267413814265248164610048,10633823966279326983230456482242756608",
			"name": "a(n) = 8^(4*n + 1).",
			"link": [
				"Vincenzo Librandi, \u003ca href=\"/A013788/b013788.txt\"\u003eTable of n, a(n) for n = 0..200\u003c/a\u003e",
				"Tanya Khovanova, \u003ca href=\"http://www.tanyakhovanova.com/RecursiveSequences/RecursiveSequences.html\"\u003eRecursive Sequences\u003c/a\u003e",
				"\u003ca href=\"/index/Rec#order_01\"\u003eIndex entries for linear recurrences with constant coefficients\u003c/a\u003e, signature (4096)."
			],
			"formula": [
				"From _Philippe Deléham_, Dec 03 2008: (Start)",
				"a(n) = 4096*a(n-1); a(0)=8.",
				"G.f.: 8/(1-4096*x). (End)"
			],
			"mathematica": [
				"8^(4Range[0,20]+1)  (* _Harvey P. Dale_, Apr 17 2011 *)"
			],
			"program": [
				"(MAGMA) [8^(4*n+1): n in [0..15]]; // _Vincenzo Librandi_, Jun 28 2011",
				"(PARI) a(n)=8^(4*n+1) \\\\ _Charles R Greathouse IV_, Jul 11 2016"
			],
			"xref": [
				"Subsequence of A001018."
			],
			"keyword": "nonn,easy",
			"offset": "0,1",
			"author": "_N. J. A. Sloane_",
			"references": 2,
			"revision": 23,
			"time": "2018-09-26T02:53:16-04:00",
			"created": "1996-12-11T03:00:00-05:00"
		}
	]
}