{
	"greeting": "Greetings from The On-Line Encyclopedia of Integer Sequences! http://oeis.org/",
	"query": "id:A013512",
	"count": 1,
	"start": 0,
	"results": [
		{
			"number": 13512,
			"data": "2,362,1441682,32555086202,2447023018597922,462534850269339720842,184789477601927787169878962,138612178386831070025588251376282,179134512141830902349787461672276596802",
			"name": "arctanh(sec(x)-sech(x))=2/2!*x^2+362/6!*x^6+1441682/10!*x^10...",
			"keyword": "nonn",
			"offset": "0,1",
			"author": "Patrick Demichel (patrick.demichel(AT)hp.com)",
			"ext": [
				"More terms from _Max Alekseyev_, Feb 06 2010"
			],
			"references": 0,
			"revision": 6,
			"time": "2012-03-30T17:26:41-04:00",
			"created": "1996-12-11T03:00:00-05:00"
		}
	]
}