{
	"greeting": "Greetings from The On-Line Encyclopedia of Integer Sequences! http://oeis.org/",
	"query": "id:A013399",
	"count": 1,
	"start": 0,
	"results": [
		{
			"number": 13399,
			"data": "-1,-7,-47,2809,506893,83115485,16337883105,3980912553745,1198885514196949,441311715413932261,196017910100566581641,103733615818680354449241,64634094120174715384992573",
			"name": "arcsin(arcsin(x)-tan(x))=-1/3!*x^3-7/5!*x^5-47/7!*x^7+2809/9!*x^9...",
			"keyword": "sign",
			"offset": "0,2",
			"author": "Patrick Demichel (patrick.demichel(AT)hp.com)",
			"references": 0,
			"revision": 4,
			"time": "2012-02-24T12:51:28-05:00",
			"created": "1996-12-11T03:00:00-05:00"
		}
	]
}