{
	"greeting": "Greetings from The On-Line Encyclopedia of Integer Sequences! http://oeis.org/",
	"query": "id:A013013",
	"count": 1,
	"start": 0,
	"results": [
		{
			"number": 13013,
			"data": "1,2,3,5,13,37,109,387,1481,5985,26889,127459,639885,3443689,19368717,114799939,715261329,4637302689,31449421137,221816518915,1622927749909,12332636914873,96898010418037,787180051115907",
			"name": "exp(sinh(x)+log(x+1))=1+2*x+3/2!*x^2+5/3!*x^3+13/4!*x^4+37/5!*x^5...",
			"keyword": "nonn",
			"offset": "0,2",
			"author": "Patrick Demichel (patrick.demichel(AT)hp.com)",
			"references": 0,
			"revision": 4,
			"time": "2012-02-24T12:51:16-05:00",
			"created": "1996-12-11T03:00:00-05:00"
		}
	]
}