{
	"greeting": "Greetings from The On-Line Encyclopedia of Integer Sequences! http://oeis.org/",
	"query": "id:A013622",
	"count": 1,
	"start": 0,
	"results": [
		{
			"number": 13622,
			"data": "1,3,5,9,30,25,27,135,225,125,81,540,1350,1500,625,243,2025,6750,11250,9375,3125,729,7290,30375,67500,84375,56250,15625,2187,25515,127575,354375,590625,590625,328125,78125,6561,87480,510300,1701000",
			"name": "Triangle of coefficients in expansion of (3+5x)^n.",
			"link": [
				"Vincenzo Librandi, \u003ca href=\"/A013622/b013622.txt\"\u003eRows n = 0..100, flattened\u003c/a\u003e",
				"Gábor Kallós, \u003ca href=\"http://dx.doi.org/10.5802/ambp.211\"\u003eA generalization of Pascal’s triangle using powers of base numbers\u003c/a\u003e, Annales mathématiques Blaise Pascal, 13 no. 1 (2006), p. 1-15."
			],
			"formula": [
				"G.f.: 1 / (1 - x*(3+5*y))."
			],
			"example": [
				"Triangle begins:",
				"1,",
				"3, 5,",
				"9, 30, 25,",
				"27, 135, 225, 125,",
				"81, 540, 1350, 1500, 625,",
				"243, 2025, 6750, 11250, 9375, 3125,",
				"729, 7290, 30375, 67500, 84375, 56250, 15625,",
				"... - _Vincenzo Librandi_, Apr 22 2014"
			],
			"mathematica": [
				"Flatten[Table[Binomial[i, j] 3^(i-j) 5^j, {i, 0, 10}, {j, 0, i}]] (* _Vincenzo Librandi_, Apr 22 2014 *)"
			],
			"keyword": "tabl,nonn,easy",
			"offset": "0,2",
			"author": "_N. J. A. Sloane_.",
			"references": 2,
			"revision": 13,
			"time": "2014-04-22T03:04:32-04:00",
			"created": "1996-12-11T03:00:00-05:00"
		}
	]
}