{
	"greeting": "Greetings from The On-Line Encyclopedia of Integer Sequences! http://oeis.org/",
	"query": "id:A013371",
	"count": 1,
	"start": 0,
	"results": [
		{
			"number": 13371,
			"data": "0,2,0,2,4480,2,274560,717516802,20650240,397299302402,1260764869707520,211694311628802,3189730834295158400,12098583209553471488002,6723227372694939050880",
			"name": "Expansion of tan(sinh(x)-sin(x)) = 2/3!*x^3 + 2/7!*x^7 + 4480/9!*x^9 + 2/11!*x^11 + ...",
			"mathematica": [
				"nn = 20; Table[(CoefficientList[Series[-Tan[Sin[x] - Sinh[x]], {x, 0, 2*nn+1}], x] * Range[0, 2*nn+1]!)[[n]], {n, 2, 2*nn, 2}] (* _Vaclav Kotesovec_, Feb 06 2015 *)"
			],
			"keyword": "nonn",
			"offset": "0,2",
			"author": "Patrick Demichel (patrick.demichel(AT)hp.com)",
			"ext": [
				"a(0)=0 prepended by _Vaclav Kotesovec_, Feb 06 2015",
				"Definition modified by _Vaclav Kotesovec_, Feb 06 2015"
			],
			"references": 0,
			"revision": 8,
			"time": "2015-02-06T12:33:11-05:00",
			"created": "1996-12-11T03:00:00-05:00"
		}
	]
}