{
	"greeting": "Greetings from The On-Line Encyclopedia of Integer Sequences! http://oeis.org/",
	"query": "id:A013657",
	"count": 1,
	"start": 0,
	"results": [
		{
			"number": 13657,
			"data": "14,19,22,23,33,34,45,47,52,54,59,60,61,62,69,70,71,77,78,79,95,96,98,107,109,114,116,117,118,119,127,129,138,140,141,142,149,153,154,161,162,164,165,167,178,187,188,189,192,193,194,202,205,206,216,218,219,220,221",
			"name": "Period of continued fraction for sqrt(n) contains more than one 1, but no two consecutive 1's.",
			"reference": [
				"Kenneth H. Rosen, Elementary Number Theory and Its Applications, Addison-Wesley, 1984, page 426 (but beware of errors!)."
			],
			"keyword": "nonn",
			"offset": "1,1",
			"author": "_Clark Kimberling_",
			"ext": [
				"More terms from _David W. Wilson_"
			],
			"references": 0,
			"revision": 8,
			"time": "2012-03-30T18:55:49-04:00",
			"created": "1996-12-11T03:00:00-05:00"
		}
	]
}