{
	"greeting": "Greetings from The On-Line Encyclopedia of Integer Sequences! http://oeis.org/",
	"query": "id:A013761",
	"count": 1,
	"start": 0,
	"results": [
		{
			"number": 13761,
			"data": "289,1419857,6975757441,34271896307633,168377826559400929,827240261886336764177,4064231406647572522401601,19967568900859523802559065713,98100666009922840441972689847969,481968572106750915091411825223071697",
			"name": "a(n) = 17^(3*n + 2).",
			"link": [
				"Vincenzo Librandi, \u003ca href=\"/A013761/b013761.txt\"\u003eTable of n, a(n) for n = 0..100\u003c/a\u003e",
				"Tanya Khovanova, \u003ca href=\"http://www.tanyakhovanova.com/RecursiveSequences/RecursiveSequences.html\"\u003eRecursive Sequences\u003c/a\u003e",
				"\u003ca href=\"/index/Rec#order_01\"\u003eIndex entries for linear recurrences with constant coefficients\u003c/a\u003e, signature (4913)."
			],
			"formula": [
				"From _Philippe Deléham_, Dec 03 2008: (Start)",
				"a(n) = 4913*a(n-1), a(0)=289.",
				"G.f.: 289/(1-4913*x).",
				"a(n) = 17*A013760(n). (End)"
			],
			"program": [
				"(MAGMA) [17^(3*n+2): n in [0..15]]; // _Vincenzo Librandi_, May 24 2011",
				"(PARI) a(n)=17^(3*n+2) \\\\ _Charles R Greathouse IV_, Jul 11 2016"
			],
			"keyword": "nonn,easy",
			"offset": "0,1",
			"author": "_N. J. A. Sloane_",
			"references": 2,
			"revision": 18,
			"time": "2018-09-08T16:55:59-04:00",
			"created": "1996-12-11T03:00:00-05:00"
		}
	]
}