{
	"greeting": "Greetings from The On-Line Encyclopedia of Integer Sequences! http://oeis.org/",
	"query": "id:A013292",
	"count": 1,
	"start": 0,
	"results": [
		{
			"number": 13292,
			"data": "1,0,0,0,3,-40,250,-1008,6937,-107280,1460724,-16878400,198206107,-2751120216,45257093830,-796023874800,14139937791153,-259510939790752,5134675490787400,-109869768885171456",
			"name": "Expansion of e.g.f.: sec(log(x+1)-tanh(x))=1+3/4!*x^4-40/5!*x^5+250/6!*x^6-1008/7!*x^7...",
			"mathematica": [
				"With[{nn=20},CoefficientList[Series[Sec[Log[x+1]-Tanh[x]],{x,0,nn}],x] Range[0,nn]!] (* _Harvey P. Dale_, Aug 25 2016 *)"
			],
			"keyword": "sign",
			"offset": "0,5",
			"author": "Patrick Demichel (patrick.demichel(AT)hp.com)",
			"ext": [
				"Definition clarified by _Harvey P. Dale_, Aug 25 2016"
			],
			"references": 0,
			"revision": 6,
			"time": "2016-08-25T17:46:44-04:00",
			"created": "1996-12-11T03:00:00-05:00"
		}
	]
}