{
	"greeting": "Greetings from The On-Line Encyclopedia of Integer Sequences! http://oeis.org/",
	"query": "id:A013730",
	"count": 1,
	"start": 0,
	"results": [
		{
			"number": 13730,
			"data": "2,16,128,1024,8192,65536,524288,4194304,33554432,268435456,2147483648,17179869184,137438953472,1099511627776,8796093022208,70368744177664,562949953421312,4503599627370496,36028797018963968,288230376151711744",
			"name": "a(n) = 2^(3n+1).",
			"comment": [
				"1/2 + 1/16 + 1/128 + 1/1024 + ... = 4/7. - _Gary W. Adamson_, Aug 29 2008",
				"a(n) = A157176(A016921(n)) = A157176(A016933(n)). - _Reinhard Zumkeller_, Feb 24 2009"
			],
			"link": [
				"Vincenzo Librandi, \u003ca href=\"/A013730/b013730.txt\"\u003eTable of n, a(n) for n = 0..200\u003c/a\u003e",
				"Tanya Khovanova, \u003ca href=\"http://www.tanyakhovanova.com/RecursiveSequences/RecursiveSequences.html\"\u003eRecursive Sequences\u003c/a\u003e",
				"\u003ca href=\"/index/Di#divseq\"\u003eIndex to divisibility sequences\u003c/a\u003e",
				"\u003ca href=\"/index/Rec#order_01\"\u003eIndex entries for linear recurrences with constant coefficients\u003c/a\u003e, signature (8)."
			],
			"formula": [
				"From _Philippe Deléham_, Nov 23 2008: (Start)",
				"a(n) = 8*a(n-1), n \u003e 0; a(0)=2.",
				"G.f.: 2/(1-8x). (End)"
			],
			"maple": [
				"seq(2^(3*n+1),n=0..19); # _Nathaniel Johnston_, Jun 26 2011"
			],
			"mathematica": [
				"Table[2^n, {n, 1, 100, 3}] (* and *) 2^(3*Range[0, 40] + 1) (* _Vladimir Joseph Stephan Orlovsky_, Jun 14 2011 *)"
			],
			"program": [
				"(MAGMA) [2^(3*n+1): n in [0..30]]; // _Vincenzo Librandi_, May 04 2011",
				"(PARI) a(n)=2\u003c\u003c(3*n) \\\\ _Charles R Greathouse IV_, Jun 14 2011"
			],
			"xref": [
				"Cf. A013731."
			],
			"keyword": "nonn,easy",
			"offset": "0,1",
			"author": "_N. J. A. Sloane_",
			"references": 12,
			"revision": 38,
			"time": "2020-01-26T20:52:56-05:00",
			"created": "1996-12-11T03:00:00-05:00"
		}
	]
}