{
	"greeting": "Greetings from The On-Line Encyclopedia of Integer Sequences! http://oeis.org/",
	"query": "id:A013529",
	"count": 1,
	"start": 0,
	"results": [
		{
			"number": 13529,
			"data": "1,1,1,1,1,211,5029,157,6697,439801,375719873,8013839,186044689,890107609,1770350411,1552280998637,102625697881591,76919615326361,15912188224095499151,25930051873454543,1419184560088744177499,659157886816533334709,323645955378411578735051,1513017447627551117359,935339682040604214800761,6612344442139455641066609,36813244507954712597112169117,112537977176478238359834596179,45816041290074218754101655557981",
			"name": "Numerator of [x^n] in the Taylor expansion exp(cosec(x) - cosech(x)) = 1 + x/3 + x^2/18 + x^3/162 + x^4/1944 + 211*x^5/51030 + ...",
			"link": [
				"G. C. Greubel, \u003ca href=\"/A013529/b013529.txt\"\u003eTable of n, a(n) for n = 0..445\u003c/a\u003e"
			],
			"mathematica": [
				"Numerator[CoefficientList[Series[Exp[1/Sin[x]  - 1/Sinh[x]], {x, 0, 25}], x]] (* _G. C. Greubel_, Nov 11 2016 *)"
			],
			"xref": [
				"Cf. A068917."
			],
			"keyword": "nonn,frac",
			"offset": "0,6",
			"author": "Patrick Demichel (patrick.demichel(AT)hp.com)",
			"ext": [
				"Name edited by _R. J. Mathar_, Dec 20 2011"
			],
			"references": 3,
			"revision": 16,
			"time": "2016-11-11T21:27:36-05:00",
			"created": "1996-12-11T03:00:00-05:00"
		}
	]
}