{
	"greeting": "Greetings from The On-Line Encyclopedia of Integer Sequences! http://oeis.org/",
	"query": "id:A013480",
	"count": 1,
	"start": 0,
	"results": [
		{
			"number": 13480,
			"data": "1,12,8512,41692992,748457181952,35753146158600192,3745546830245915840512,756079630242293501892083712",
			"name": "sec(cos(x)-cosh(x)) = 1+12/4!*x^4+8512/8!*x^8+41692992/12!*x^12...",
			"keyword": "nonn",
			"offset": "0,2",
			"author": "Patrick Demichel (patrick.demichel(AT)hp.com)",
			"references": 0,
			"revision": 5,
			"time": "2012-02-24T12:51:30-05:00",
			"created": "1996-12-11T03:00:00-05:00"
		}
	]
}