{
	"greeting": "Greetings from The On-Line Encyclopedia of Integer Sequences! http://oeis.org/",
	"query": "id:A013625",
	"count": 1,
	"start": 0,
	"results": [
		{
			"number": 13625,
			"data": "1,4,7,16,56,49,64,336,588,343,256,1792,4704,5488,2401,1024,8960,31360,54880,48020,16807,4096,43008,188160,439040,576240,403368,117649,16384,200704,1053696,3073280,5378240,5647152,3294172,823543",
			"name": "Triangle of coefficients in expansion of (4+7x)^n.",
			"link": [
				"Gábor Kallós, \u003ca href=\"http://ami.ektf.hu/uploads/papers/finalpdf/AAPASM_24_from11to18.pdf\"\u003eThe generalization of Pascal’s triangle from algebraic point of view\u003c/a\u003e, Acta Academiae Paedagogicae Agriensis, Sectio Mathematicae, 24. (1997) pp. 11-18. See Fig. 2.",
				"Gábor Kallós, \u003ca href=\"https://doi.org/10.5802/ambp.211\"\u003eA generalization of Pascal’s triangle using powers of base numbers\u003c/a\u003e, Annales mathématiques Blaise Pascal, Tome 13 (2006) no. 1 , p. 1-15. See Figure 2."
			],
			"formula": [
				"G.f.: 1 / [1 - x(4+7y)]."
			],
			"mathematica": [
				"Table[CoefficientList[Expand[(4+7x)^n],x],{n,0,10}]//Flatten (* _Harvey P. Dale_, May 14 2019 *)"
			],
			"keyword": "tabl,nonn,easy",
			"offset": "0,2",
			"author": "_N. J. A. Sloane_.",
			"references": 0,
			"revision": 14,
			"time": "2019-05-14T17:40:56-04:00",
			"created": "1996-12-11T03:00:00-05:00"
		}
	]
}