{
	"greeting": "Greetings from The On-Line Encyclopedia of Integer Sequences! http://oeis.org/",
	"query": "id:A013571",
	"count": 1,
	"start": 0,
	"results": [
		{
			"number": 13571,
			"data": "1,1,-1,-4,9,60,-175,-2154,6433,140984,-404063,-14300174,38333361,2070386084,-5007071823,-406148697538,844312637249,103808494182512,-173366392362431,-33528470038125974,40208654504239441",
			"name": "Expansion of e.g.f. exp(arctan(x)/exp(x)).",
			"comment": [
				"The inner function is arctan(x)/exp(x) = 2*x/2! - 6*x^2/2! + 4*x^3/3! + 20*x^4/4! + 54*x^5/5! - 770*x^6/6! - 2232*x^7/7! + ..."
			],
			"link": [
				"G. C. Greubel, \u003ca href=\"/A013571/b013571.txt\"\u003eTable of n, a(n) for n = 0..400\u003c/a\u003e"
			],
			"example": [
				"exp(arctan(x)/exp(x)) = 1 + x - 1/2!*x^2 - 4/3!*x^3 + 9/4!*x^4 + 60/5!*x^5 + ..."
			],
			"mathematica": [
				"Table[n!*SeriesCoefficient[Exp[ArcTan[x]/Exp[x]], {x, 0, n}], {n,0,50}] (* _G. C. Greubel_, Nov 19 2016 *)"
			],
			"program": [
				"(PARI) x='x + O('x^50); Vec(serlaplace(exp(atan(x)/exp(x)))) \\\\ _G. C. Greubel_, Nov 19 2016 *)"
			],
			"keyword": "sign",
			"offset": "0,4",
			"author": "Patrick Demichel (patrick.demichel(AT)hp.com)",
			"references": 1,
			"revision": 16,
			"time": "2016-11-20T13:08:58-05:00",
			"created": "1996-12-11T03:00:00-05:00"
		}
	]
}