{
	"greeting": "Greetings from The On-Line Encyclopedia of Integer Sequences! http://oeis.org/",
	"query": "id:A013214",
	"count": 1,
	"start": 0,
	"results": [
		{
			"number": 13214,
			"data": "1,0,0,0,-3,30,-180,1113,-8379,69804,-628614,6216155,-67322211,789438078,-9958088140,134602170675,-1941190097399,29743794572824,-482464755060922,8257903545778011,-148698758217737671",
			"name": "E.g.f.: cos(log(x+1)-sin(x))= 1-3/4!*x^4+30/5!*x^5-180/6!*x^6+1113/7!*x^7...",
			"link": [
				"Vincenzo Librandi, \u003ca href=\"/A013214/b013214.txt\"\u003eTable of n, a(n) for n = 0..200\u003c/a\u003e"
			],
			"mathematica": [
				"With[{nn=30},CoefficientList[Series[Cos[Log[x+1]-Sin[x]],{x,0,nn}], x] Range[0,nn]!] (* _Harvey P. Dale_, Jan 26 2013 *)"
			],
			"keyword": "sign",
			"offset": "0,5",
			"author": "Patrick Demichel (patrick.demichel(AT)hp.com)",
			"ext": [
				"Definition clarified by _Harvey P. Dale_, Jan 26 2013"
			],
			"references": 1,
			"revision": 10,
			"time": "2013-01-27T08:49:13-05:00",
			"created": "1996-12-11T03:00:00-05:00"
		}
	]
}