{
	"greeting": "Greetings from The On-Line Encyclopedia of Integer Sequences! http://oeis.org/",
	"query": "id:A014698",
	"count": 1,
	"start": 0,
	"results": [
		{
			"number": 14698,
			"data": "1,1,1,1,1,1,1,1,1,1,1,1,1,0,0,0,0,0,0,0,0,0,0,0,0,0,0,0,0,0,0,0,0,0,0,0,0,0,0,0,0,0,0,0,0,0,0,0,0,0,0,0,0,-1,-1,-1,-1,-1,-1,-1,-1,-1,-1,-1,-1,-1,0,0,0,0,0,0,0,0,0,0,0,0,0,0,0",
			"name": "Inverse of 689th cyclotomic polynomial.",
			"comment": [
				"Periodic with period length 689. - _Ray Chandler_, Apr 06 2017"
			],
			"link": [
				"Ray Chandler, \u003ca href=\"/A014698/b014698.txt\"\u003eTable of n, a(n) for n = 0..1000\u003c/a\u003e",
				"\u003ca href=\"/index/Rec#order_624\"\u003eIndex entries for linear recurrences with constant coefficients\u003c/a\u003e, order 624.",
				"\u003ca href=\"/index/Pol#poly_cyclo_inv\"\u003eIndex to sequences related to inverse of cyclotomic polynomials\u003c/a\u003e"
			],
			"maple": [
				"with(numtheory,cyclotomic); c := n-\u003eseries(1/cyclotomic(n,x),x,80);"
			],
			"keyword": "sign",
			"offset": "0,1",
			"author": "_Simon Plouffe_",
			"references": 1,
			"revision": 11,
			"time": "2017-04-06T10:38:13-04:00",
			"created": "1996-12-11T03:00:00-05:00"
		}
	]
}