{
	"greeting": "Greetings from The On-Line Encyclopedia of Integer Sequences! http://oeis.org/",
	"query": "id:A014108",
	"count": 1,
	"start": 0,
	"results": [
		{
			"number": 14108,
			"data": "1,0,0,1,0,0,1,0,0,0,0,0,0,0,0,0,0,0,0,0,0,0,0,0,0,0,0,0,0,0,0,0,0,-1,0,0,-1,0,0,-1,0,0,0,0,0,0,0,0,0,0,0,0,0,0,0,0,0,0,0,0,0,0,0,0,0,0,0,0,0,0,0,0,0,0,0,0,0,0,0,0,0",
			"name": "Inverse of 99th cyclotomic polynomial.",
			"comment": [
				"Periodic with period length 99. - _Ray Chandler_, Apr 03 2017"
			],
			"link": [
				"Vincenzo Librandi, \u003ca href=\"/A014108/b014108.txt\"\u003eTable of n, a(n) for n = 0..1000\u003c/a\u003e",
				"\u003ca href=\"/index/Rec#order_60\"\u003eIndex entries for linear recurrences with constant coefficients\u003c/a\u003e, signature (0, 0, 1, 0, 0, 0, 0, 0, -1, 0, 0, 1, 0, 0, 0, 0, 0, -1, 0, 0, 1, 0, 0, 0, 0, 0, -1, 0, 0, 1, 0, 0, -1, 0, 0, 0, 0, 0, 1, 0, 0, -1, 0, 0, 0, 0, 0, 1, 0, 0, -1, 0, 0, 0, 0, 0, 1, 0, 0, -1).",
				"\u003ca href=\"/index/Pol#poly_cyclo_inv\"\u003eIndex to sequences related to inverse of cyclotomic polynomials\u003c/a\u003e"
			],
			"maple": [
				"with(numtheory,cyclotomic); c := n-\u003eseries(1/cyclotomic(n,x),x,80);"
			],
			"mathematica": [
				"CoefficientList[Series[1/Cyclotomic[99, x], {x, 0, 200}], x] (* _Vincenzo Librandi_, Apr 06 2014 *)"
			],
			"xref": [
				"Cf. similar sequences listed in A240328 and A240465."
			],
			"keyword": "sign,easy",
			"offset": "0,1",
			"author": "_Simon Plouffe_",
			"references": 3,
			"revision": 14,
			"time": "2017-04-03T13:58:30-04:00",
			"created": "1996-12-11T03:00:00-05:00"
		}
	]
}