{
	"greeting": "Greetings from The On-Line Encyclopedia of Integer Sequences! http://oeis.org/",
	"query": "id:A014902",
	"count": 1,
	"start": 0,
	"results": [
		{
			"number": 14902,
			"data": "1,1,1,1,1,1,1,1,1,1,1,1,1,1,1,1,1,1,1,0,0,0,0,0,0,0,0,0,0,0,0,0,0,0,0,0,0,0,0,0,0,0,0,0,0,0,0,-1,-1,-1,-1,-1,-1,-1,-1,-1,-1,-1,-1,-1,-1,-1,-1,-1,-1,-1,0,0,0,0,0,0,0,0,0,0,0,0,0,0,0",
			"name": "Inverse of 893rd cyclotomic polynomial.",
			"comment": [
				"Periodic with period length 893. - _Ray Chandler_, Apr 06 2017"
			],
			"link": [
				"Ray Chandler, \u003ca href=\"/A014902/b014902.txt\"\u003eTable of n, a(n) for n = 0..1000\u003c/a\u003e",
				"\u003ca href=\"/index/Rec#order_828\"\u003eIndex entries for linear recurrences with constant coefficients\u003c/a\u003e, order 828.",
				"\u003ca href=\"/index/Pol#poly_cyclo_inv\"\u003eIndex to sequences related to inverse of cyclotomic polynomials\u003c/a\u003e"
			],
			"maple": [
				"with(numtheory,cyclotomic); c := n-\u003eseries(1/cyclotomic(n,x),x,80);"
			],
			"mathematica": [
				"CoefficientList[Series[1/Cyclotomic[893,x],{x,0,100}],x,90] (* _Harvey P. Dale_, Nov 29 2020 *)"
			],
			"keyword": "sign",
			"offset": "0,1",
			"author": "_Simon Plouffe_",
			"references": 1,
			"revision": 16,
			"time": "2020-11-29T16:08:20-05:00",
			"created": "1996-12-11T03:00:00-05:00"
		}
	]
}