{
	"greeting": "Greetings from The On-Line Encyclopedia of Integer Sequences! http://oeis.org/",
	"query": "id:A014946",
	"count": 1,
	"start": 0,
	"results": [
		{
			"number": 14946,
			"data": "1,5,25,125,625,1555,3125,7775,15625,38875,78125,194375,390625,483605,971875,1953125,2418025,4859375,9673655,9765625,12090125,24296875,48368275,48828125,60450625,120909025,121484375,150401155,241841375",
			"name": "Numbers k that divide 6^k-1.",
			"comment": [
				"Includes all powers of 5. If a term such as 1555 = 5*311 occurs, so does any number of the form 5^a * 311^b for a\u003e3.",
				"From _Alexander Adamchuk_, May 16 2010: (Start)",
				"All terms that are not powers of 5 are divisible by 5 and 311.",
				"Prime divisors of a(n) are {5, 311, 6221, 15551, 155501, ...}. (End)"
			],
			"mathematica": [
				"Select[ Range[ 5*10^7], PowerMod[6, #, # ] == 1 \u0026 ]"
			],
			"program": [
				"(PARI) is(n)=Mod(6,n)^n==1 \\\\ _Charles R Greathouse IV_, Nov 04 2016"
			],
			"xref": [
				"Cf. A024062 (6^n-1)."
			],
			"keyword": "nonn",
			"offset": "1,2",
			"author": "_Olivier Gérard_",
			"ext": [
				"Better description from _Benoit Cloitre_, Mar 06 2002",
				"Edited and extended by _Robert G. Wilson v_, Jun 18 2002",
				"a(25)-a(45) from _Alexander Adamchuk_, May 16 2010"
			],
			"references": 16,
			"revision": 21,
			"time": "2021-06-28T04:06:05-04:00",
			"created": "1999-12-11T03:00:00-05:00"
		}
	]
}