{
	"greeting": "Greetings from The On-Line Encyclopedia of Integer Sequences! http://oeis.org/",
	"query": "id:A014677",
	"count": 1,
	"start": 0,
	"results": [
		{
			"number": 14677,
			"data": "1,-1,1,0,-1,1,-1,1,0,-1,1,0,-1,1,-1,1,0,-1,1,-1,1,0,-1,1,0,-1,1,-1,1,0,-1,1,0,-1,1,-1,1,0,-1,1,-1,1,0,-1,1,0,-1,1,-1,1,0,-1,1,-1,1,0,-1,1,0,-1,1,-1,1,0,-1,1,0,-1,1,-1,1,0,-1,1,-1,1,0,-1,1,0,-1,1,-1,1,0,-1,1,0,-1,1,-1,1",
			"name": "First differences of A001468.",
			"comment": [
				"A001468 is an infinite Fibonacci word with strings of 2's of length A001468(n) delimited by 1's. - _Paul D. Hanna_, Dec 17 2004",
				"c(n):=a(n-1), n \u003e= 1, is -1 if n is a Wythoff B-number from A001950, it is 0 if n=A(B(m)+1) for some m \u003e= 1, with A(k):=A000201(k) (Wythoff A-numbers) and it is +1 if n=A(A(m)+1)=B(m)+1 for some m \u003e= 0, with B(0):=0. - _Wolfdieter Lang_, Oct 13 2006",
				"This sequence is a symbolic sequence as discussed in the paper \"Morphisms, Symbolic Sequences, and Their Standard Forms\". It can be derived directly from the 2-block morphism induced by the morphism generating A001468. Since A001468 is the Fibonacci word A003849, but on the alphabet {2,1}, with an extra 1 in front, this 2-block morphism has 3-symbol Fibonacci as a fixed point: A270788.  The 2-blocks in A001468 are 12, 21, and 22, yielding the differences a(n) = 1, a(n) = -1, and a(n) = 0. In 3-symbol Fibonacci these correspond to the letters 2, 1, and 3. Expressing this coding with pi given by pi(1)=-1, pi(2)=1, pi(3)=0, we obtain the formula below. Wolfdieter Lang's Wythoff description of (a(n)) follows from the corresponding Wythoff description in A270788. - _Michel Dekking_, Dec 30 2019"
			],
			"link": [
				"F. Michel Dekking, \u003ca href=\"https://cs.uwaterloo.ca/journals/JIS/VOL19/Dekking/dekk4.html\"\u003eMorphisms, Symbolic Sequences, and Their Standard Forms\u003c/a\u003e, Journal of Integer Sequences, Vol. 19 (2016), Article 16.1.1."
			],
			"formula": [
				"abs(a(n)) = floor(f*ceiling(n/f)) - ceiling(f*floor(n/f)) where f=phi=(1+sqrt(5))/2; for n \u003e 1, abs(a(n)) = A005713(n-1). - _Benoit Cloitre_, Apr 21 2003",
				"G.f. equals the continued fraction: A(x) = [0;1, 1/x, 1/x, 1/x^2, 1/x^3, 1/x^5, 1/x^8, ..., 1/x^Fibonacci(n), ...]. - _Paul D. Hanna_, Dec 17 2004",
				"a(n) = b(n) - b(n-1) with b(n):=A005614(n), n \u003e= 1.",
				"a(n) = pi(A270788(n)), n \u003e= 1, where pi is the letter-to-letter map pi(1)=-1, pi(2)=1, pi(3)=0. - _Michel Dekking_, Dec 30 2019"
			],
			"xref": [
				"Cf. A001468, A000045. Essentially equal to A270788."
			],
			"keyword": "sign",
			"offset": "0,1",
			"author": "_N. J. A. Sloane_, Nov 07 2001",
			"references": 1,
			"revision": 23,
			"time": "2019-12-30T12:20:40-05:00",
			"created": "1999-12-11T03:00:00-05:00"
		}
	]
}