{
	"greeting": "Greetings from The On-Line Encyclopedia of Integer Sequences! http://oeis.org/",
	"query": "id:A014885",
	"count": 1,
	"start": 0,
	"results": [
		{
			"number": 14885,
			"data": "1,8177,8178,8179,8180,8181,8182,8183,8184,8192,8193,49137,49138,49139,49140,49141,49142,49143,49144,90112,90113,322096,1048576,1048577,1056753,1056754,1056755,1056756,1056757,1056758,1056759,1056760,1056768,1056769,1097713,1097714,1097715,1097716,1097717,1097718,1097719,1097720,1138688,1138689,2396744",
			"name": "n is equal to the number of 1's in all numbers \u003c= n written in base 8.",
			"maple": [
				"T:= 0: R:= NULL:",
				"for n from 1 to (8^8-1)/(8-1) do",
				"  T:= T + numboccur(1,convert(n,base,8));",
				"  if T = n then R:= R, n; count:= count+1;",
				"fi od:",
				"R; # _Robert Israel_, Dec 01 2020"
			],
			"mathematica": [
				"Module[{nn=106*10^4,n1s},n1s=Accumulate[Table[DigitCount[n,8,1],{n,nn}]];Position[Thread[{n1s,Range[nn]}],_?(#[[1]]==#[[2]]\u0026),1,Heads-\u003e False]]// Flatten (* _Harvey P. Dale_, Feb 28 2020 *)"
			],
			"xref": [
				"Cf. A014778."
			],
			"keyword": "nonn,base,fini,full",
			"offset": "1,2",
			"author": "_Olivier Gérard_",
			"references": 0,
			"revision": 9,
			"time": "2020-12-01T21:02:58-05:00",
			"created": "1999-12-11T03:00:00-05:00"
		}
	]
}