{
	"greeting": "Greetings from The On-Line Encyclopedia of Integer Sequences! http://oeis.org/",
	"query": "id:A014393",
	"count": 1,
	"start": 0,
	"results": [
		{
			"number": 14393,
			"data": "1,9,81,29,61,49,41,69,21,89,1,9,81,29,61,49,41,69,21,89,1,9,81,29,61,49,41,69,21,89,1,9,81,29,61,49,41,69,21,89,1,9,81,29,61,49,41,69,21,89,1,9,81,29,61,49,41,69,21,89",
			"name": "Final 2 digits of 9^n.",
			"comment": [
				"Period is 10, i. e., a(n+10) = a(n). - _Martin Renner_, Jun 11 2020"
			],
			"link": [
				"Vincenzo Librandi, \u003ca href=\"/A014393/b014393.txt\"\u003eTable of n, a(n) for n = 0..1000\u003c/a\u003e",
				"\u003ca href=\"/index/Fi#final\"\u003eIndex entries for sequences related to final digits of numbers\u003c/a\u003e"
			],
			"formula": [
				"a(n) = 9^n mod 100. - _Martin Renner_, Jun 11 2020"
			],
			"maple": [
				"seq(9^n mod 100, n=0..80); # _Martin Renner_, Jun 11 2020"
			],
			"mathematica": [
				"Flatten[Prepend[FromDigits[Take[IntegerDigits[#],-2]]\u0026/@(9^Range[2,60]),{1,9}]] (* _Harvey P. Dale_, Jan 22 2011 *)",
				"PowerMod[9, Range[0, 80], 100] (* _Vincenzo Librandi_, Aug 16 2016 *)"
			],
			"program": [
				"(MAGMA) [Modexp(9, n, 100): n in [0..110]]; // _Vincenzo Librandi_, Aug 16 2016",
				"(PARI) a(n) = lift(Mod(9, 100)^n); \\\\ _Michel Marcus_, Aug 16 2016"
			],
			"xref": [
				"Cf. A001019 (9^n), A010690 (final digit of 9^n)."
			],
			"keyword": "nonn,base,easy",
			"offset": "0,2",
			"author": "_N. J. A. Sloane_.",
			"references": 2,
			"revision": 25,
			"time": "2020-07-11T17:06:54-04:00",
			"created": "1998-06-14T03:00:00-04:00"
		}
	]
}