{
	"greeting": "Greetings from The On-Line Encyclopedia of Integer Sequences! http://oeis.org/",
	"query": "id:A014786",
	"count": 1,
	"start": 0,
	"results": [
		{
			"number": 14786,
			"data": "1,-1,0,1,-1,0,1,0,-1,1,0,-1,1,0,0,0,0,0,0,0,0,0,0,0,0,0,0,0,0,0,0,0,0,0,0,0,0,1,-1,0,1,-1,0,1,0,-1,1,0,-1,1,0,0,0,0,0,0,0,0,0,0,0,0,0,0,0,0,0,0,0,0,0,0,0,0,1,-1,0,1,-1,0,1",
			"name": "Inverse of 777th cyclotomic polynomial.",
			"comment": [
				"Periodic with period length 777. - _Ray Chandler_, Apr 06 2017"
			],
			"link": [
				"Ray Chandler, \u003ca href=\"/A014786/b014786.txt\"\u003eTable of n, a(n) for n = 0..1000\u003c/a\u003e",
				"\u003ca href=\"/index/Rec#order_432\"\u003eIndex entries for linear recurrences with constant coefficients\u003c/a\u003e, order 432.",
				"\u003ca href=\"/index/Pol#poly_cyclo_inv\"\u003eIndex to sequences related to inverse of cyclotomic polynomials\u003c/a\u003e"
			],
			"maple": [
				"with(numtheory,cyclotomic); c := n-\u003eseries(1/cyclotomic(n,x),x,80);"
			],
			"mathematica": [
				"CoefficientList[Series[1/Cyclotomic[777,x],{x,0,120}],x] (* _Harvey P. Dale_, May 09 2016 *)"
			],
			"keyword": "sign",
			"offset": "0,1",
			"author": "_Simon Plouffe_",
			"references": 1,
			"revision": 13,
			"time": "2017-04-06T11:30:32-04:00",
			"created": "1996-12-11T03:00:00-05:00"
		}
	]
}