{
	"greeting": "Greetings from The On-Line Encyclopedia of Integer Sequences! http://oeis.org/",
	"query": "id:A014859",
	"count": 1,
	"start": 0,
	"results": [
		{
			"number": 14859,
			"data": "1,2,3,4,6,11,12,20,22,26,33,42,44,52,60,66,78,84,100,114,116,121,132,156,220,228,242,253,260,286,294,300,338,348,363,420,462,471,484,500,506,546,572,580,588,660,676,726,759,780,798,858,924,942,1012,1014",
			"name": "Numbers k that divide s(k), where s(1)=1, s(j)=12*s(j-1)+j.",
			"keyword": "nonn",
			"offset": "1,2",
			"author": "_N. J. A. Sloane_, _Olivier Gérard_",
			"references": 0,
			"revision": 10,
			"time": "2021-07-03T17:24:17-04:00",
			"created": "1999-12-11T03:00:00-05:00"
		}
	]
}