{
	"greeting": "Greetings from The On-Line Encyclopedia of Integer Sequences! http://oeis.org/",
	"query": "id:A014321",
	"count": 1,
	"start": 0,
	"results": [
		{
			"number": 14321,
			"data": "1,2,3,4,7,5,6,9,10,11,17,12,8,13,14,15,16,18,22,21,20,26,24,19,36,25,31,27,30,29,23,28,32,34,43,33,35,39,38,41,48,56,50,37,45,42,57,40,44,49,46,53,47,59,66,52,51,55,63,60,74,54,61,69,64,77,65,58,73,68,62,67",
			"name": "The next new gap between successive odd primes (divided by 2).",
			"comment": [
				"If Polignac's conjecture holds (which is highly likely), then this sequence is a permutation of the positive integers. Even a weaker form of the conjecture would be enough: \"Every even number occurs at least once as difference of subsequent primes\". - Ferenc Adorjan (ferencadorjan(AT)gmail.com) May 17 2007"
			],
			"link": [
				"Ferenc Adorjan, \u003ca href=\"/A014321/b014321.txt\"\u003eTable of n, a(n) for n=1..999 based on Thomas R. Nicely's web page\u003c/a\u003e",
				"C. K. Caldwell, \u003ca href=\"http://www.utm.edu/research/primes/\"\u003eThe prime pages\u003c/a\u003e",
				"Thomas R. Nicely, \u003ca href=\"https://faculty.lynchburg.edu/~nicely/gaps/gaplist.html\"\u003eFirst occurrence prime gaps\u003c/a\u003e [For local copy see A000101]"
			],
			"xref": [
				"Cf. A014320.",
				"Equals A058320(n+1)/2.",
				"Inverse: A130264, Cf. A086979."
			],
			"keyword": "nonn",
			"offset": "1,2",
			"author": "Hynek Mlcousek (hynek(AT)dior.ics.muni.cz)",
			"ext": [
				"More terms from Ferenc Adorjan (ferencadorjan(AT)gmail.com) May 17 2007"
			],
			"references": 3,
			"revision": 10,
			"time": "2021-10-28T13:06:09-04:00",
			"created": "1998-06-14T03:00:00-04:00"
		}
	]
}