{
	"greeting": "Greetings from The On-Line Encyclopedia of Integer Sequences! http://oeis.org/",
	"query": "id:A014398",
	"count": 1,
	"start": 0,
	"results": [
		{
			"number": 14398,
			"data": "1,1,3,8,23,64,197,588,1806,5509,16677,49505,143761,406091,1114890,2970964,7685972,19311709,47170674,112123118,259662333,586583731,1294143065,2791716176,5895027869,12198014683,24758285639,49339306519",
			"name": "Number of loopless multigraphs with 8 nodes and n edges.",
			"reference": [
				"CRC Handbook of Combinatorial Designs, 1996, p. 650.",
				"F. Harary and E. M. Palmer, Graphical Enumeration, Academic Press, NY, 1973, p. 88, (4.1.18)."
			],
			"link": [
				"Andrew Howroyd, \u003ca href=\"/A014398/b014398.txt\"\u003eTable of n, a(n) for n = 0..1000\u003c/a\u003e"
			],
			"program": [
				"(PARI) concat([1], G(8, 30)) \\\\ See A191646 for G. - _Andrew Howroyd_, Mar 15 2020"
			],
			"xref": [
				"Row 8 of A192517.",
				"Cf. A001399, A003082, A014395, A014396, A014397."
			],
			"keyword": "nonn",
			"offset": "0,3",
			"author": "_N. J. A. Sloane_",
			"ext": [
				"More terms and better description from _Vladeta Jovovic_, Dec 29 1999"
			],
			"references": 7,
			"revision": 13,
			"time": "2020-03-16T02:53:07-04:00",
			"created": "1998-06-14T03:00:00-04:00"
		}
	]
}