{
	"greeting": "Greetings from The On-Line Encyclopedia of Integer Sequences! http://oeis.org/",
	"query": "id:A014679",
	"count": 1,
	"start": 0,
	"results": [
		{
			"number": 14679,
			"data": "1,0,1,3,2,3,6,6,7,10,11,13,16,17,20,24,25,28,33,35,38,43,46,50,55,58,63,69,72,77,84,88,93,100,105,111,118,123,130,138,143,150,159,165,172,181,188,196,205,212,221,231,238,247,258,266,275,286,295,305",
			"name": "G.f.: (1+x^3)^2/((1-x^2)*(1-x^3)*(1-x^4)).",
			"comment": [
				"Poincaré series [or Poincare series] (or Molien series) for mod 2 cohomology of M_12."
			],
			"reference": [
				"A. Adem and R. J. Milgram, Cohomology of Finite Groups, Springer-Verlag, 2nd. ed., 2004; p. 255, Theorem 3.20, where the series is given in the form GF_2 (see formula line)."
			],
			"link": [
				"T. D. Noe, \u003ca href=\"/A014679/b014679.txt\"\u003eTable of n, a(n) for n = 0..1000\u003c/a\u003e",
				"A. Adem, \u003ca href=\"http://www.ams.org/notices/199707/adem.pdf\"\u003eRecent developments in the cohomology of finite groups\u003c/a\u003e, Notices Amer. Math. Soc., 44 (1997), 806-812.",
				"Alejandro Adem; John Maginnis; James R. Milgram, \u003ca href=\"http://dx.doi.org/10.1016/0021-8693(91)90285-G\"\u003eThe geometry and cohomology of the Mathieu group M_12\u003c/a\u003e, J. Algebra 139 (1991), no. 1, 90-133.",
				"\u003ca href=\"/index/Rec#order_07\"\u003eIndex entries for linear recurrences with constant coefficients\u003c/a\u003e, signature (2,-2,3,-3,2,-2,1)."
			],
			"formula": [
				"Can also be written as GF_2 = (1 + x^2 + 3*x^3 + x^4 + 3*x^5 + 4*x^6 + 2*x^7 + 4*x^8 + 3*x^9 + x^10 + 3*x^11 + x^12 + x^14 ) / ( (1-x^4)*(1-x^6)*(1-x^7)).",
				"G.f.: (1-x+x^2)^2/((1-x)^3*(1+x^2)(1+x+x^2)). a(n)=n^2/12+n/4+13/36-A057077(n)/4+4*A099837(n+3)/9. - _R. J. Mathar_, Jan 11 2009",
				"a(0)=1, a(1)=0, a(2)=1, a(3)=3, a(4)=2, a(5)=3, a(6)=6, a(n)= 2*a(n-1)- 2*a(n-2)+3*a(n-3)-3*a(n-4)+2*a(n-5)-2*a(n-6)+a(n-7). - _Harvey P. Dale_, Apr 10 2012"
			],
			"maple": [
				"(1+x^3)^2/((1-x^2)*(1-x^3)*(1-x^4));"
			],
			"mathematica": [
				"CoefficientList[Series[(1+x^3)^2/((1-x^2)*(1-x^3)*(1-x^4)), {x,0,60}],x] (* _Harvey P. Dale_, Mar 17 2011 *)",
				"LinearRecurrence[{2,-2,3,-3,2,-2,1},{1,0,1,3,2,3,6},60] (* _Harvey P. Dale_, Apr 10 2012 *)"
			],
			"program": [
				"(MAGMA) I:=[1,0,1,3,2,3,6]; [n le 7 select I[n] else 2*Self(n-1)- 2*Self(n-2)+3*Self(n-3)-3*Self(n-4)+2*Self(n-5)-2*Self(n-6)+Self(n-7): n in [1..60]]; // _Vincenzo Librandi_, Jul 19 2015",
				"(PARI) a(n)=([0,1,0,0,0,0,0; 0,0,1,0,0,0,0; 0,0,0,1,0,0,0; 0,0,0,0,1,0,0; 0,0,0,0,0,1,0; 0,0,0,0,0,0,1; 1,-2,2,-3,3,-2,2]^n*[1;0;1;3;2;3;6])[1,1] \\\\ _Charles R Greathouse IV_, Feb 10 2017"
			],
			"keyword": "nonn,easy,nice",
			"offset": "0,4",
			"author": "_N. J. A. Sloane_",
			"references": 1,
			"revision": 33,
			"time": "2018-01-30T18:57:34-05:00",
			"created": "1999-12-11T03:00:00-05:00"
		}
	]
}