{
	"greeting": "Greetings from The On-Line Encyclopedia of Integer Sequences! http://oeis.org/",
	"query": "id:A014998",
	"count": 1,
	"start": 0,
	"results": [
		{
			"number": 14998,
			"data": "1,1,1,1,1,1,1,1,1,1,1,1,1,1,1,1,1,1,1,1,1,1,1,0,0,0,0,0,0,0,0,0,0,0,0,0,0,0,0,0,0,0,0,-1,-1,-1,-1,-1,-1,-1,-1,-1,-1,-1,-1,-1,-1,-1,-1,-1,-1,-1,-1,-1,-1,-1,0,0,0,0,0,0,0,0,0,0,0,0,0,0,0",
			"name": "Inverse of 989th cyclotomic polynomial.",
			"comment": [
				"Periodic with period length 989. - _Ray Chandler_, Apr 07 2017"
			],
			"link": [
				"Ray Chandler, \u003ca href=\"/A014998/b014998.txt\"\u003eTable of n, a(n) for n = 0..1000\u003c/a\u003e",
				"\u003ca href=\"/index/Rec#order_924\"\u003eIndex entries for linear recurrences with constant coefficients\u003c/a\u003e, order 924.",
				"\u003ca href=\"/index/Pol#poly_cyclo_inv\"\u003eIndex to sequences related to inverse of cyclotomic polynomials\u003c/a\u003e"
			],
			"maple": [
				"with(numtheory,cyclotomic); c := n-\u003eseries(1/cyclotomic(n,x),x,80);"
			],
			"mathematica": [
				"CoefficientList[Series[1/Cyclotomic[989,x],{x,0,1000}],x] (* _Harvey P. Dale_, Dec 10 2016 *)"
			],
			"keyword": "sign",
			"offset": "0,1",
			"author": "_Simon Plouffe_",
			"references": 1,
			"revision": 13,
			"time": "2017-04-07T10:39:20-04:00",
			"created": "1996-12-11T03:00:00-05:00"
		}
	]
}