{
	"greeting": "Greetings from The On-Line Encyclopedia of Integer Sequences! http://oeis.org/",
	"query": "id:A014518",
	"count": 1,
	"start": 0,
	"results": [
		{
			"number": 14518,
			"data": "4,1,1,3,8,35,185,1155,8377,69106,639233,6552134,73711509,902965986,11964299312,170491265198,2599991794272,42249866656927,728810199831991,13300786146933842,256040133328476466",
			"name": "Nearest integer to Gamma(n+1/4).",
			"reference": [
				"M. Abramowitz and I. A. Stegun, eds., Handbook of Mathematical Functions, National Bureau of Standards Applied Math. Series 55, Tenth Printing, 1972, p. 255."
			],
			"link": [
				"Amiram Eldar, \u003ca href=\"/A014518/b014518.txt\"\u003eTable of n, a(n) for n = 0..450\u003c/a\u003e",
				"M. Abramowitz and I. A. Stegun, eds., \u003ca href=\"http://www.convertit.com/Go/ConvertIt/Reference/AMS55.ASP\"\u003eHandbook of Mathematical Functions\u003c/a\u003e, National Bureau of Standards, Applied Math. Series 55, Tenth Printing, 1972 [alternative scanned copy].",
				"M. Abramowitz and I. A. Stegun, eds., \u003ca href=\"http://www.convertit.com/Go/ConvertIt/Reference/AMS55.ASP\"\u003eHandbook of Mathematical Functions\u003c/a\u003e, National Bureau of Standards Applied Math. Series 55, Tenth Printing, 1972, p. 255."
			],
			"maple": [
				"[ seq(round(evalf(GAMMA(n+1/4),100)), n=0..24) ];"
			],
			"mathematica": [
				"a[n_] := Round[Gamma[n + 1/4]]; Array[a, 21, 0] (* _Amiram Eldar_, Sep 20 2019 *)"
			],
			"program": [
				"(PARI) a(n) = round(gamma(n + 1/4)); \\\\ _Michel Marcus_, Nov 05 2018"
			],
			"xref": [
				"Cf. A014510, A014511, A014512, A014513, A014514, A014516, A014517, A014521, A014522."
			],
			"keyword": "nonn",
			"offset": "0,1",
			"author": "_N. J. A. Sloane_.",
			"ext": [
				"a(20) corrected by _Sean A. Irvine_, Nov 04 2018"
			],
			"references": 10,
			"revision": 19,
			"time": "2019-09-20T21:07:29-04:00",
			"created": "1996-12-11T03:00:00-05:00"
		}
	]
}