{
	"greeting": "Greetings from The On-Line Encyclopedia of Integer Sequences! http://oeis.org/",
	"query": "id:A014839",
	"count": 1,
	"start": 0,
	"results": [
		{
			"number": 14839,
			"data": "2,3,7,9,13,13,16,19,26,28,36,39,42,34,45,44,55,59,63,64,76,75,80,82,82,87,102,112,128,113,120,121,129,130,148,149,154,156,175,187,207,214,219,217,238,227,237,228,233,239,262,246,256,261,265,260,284,299",
			"name": "Sum of all the digits of n in every prime-power base from 2 to n-1.",
			"keyword": "nonn,base",
			"offset": "3,1",
			"author": "_Olivier Gérard_",
			"references": 0,
			"revision": 7,
			"time": "2013-02-15T21:38:10-05:00",
			"created": "1999-12-11T03:00:00-05:00"
		}
	]
}