{
	"greeting": "Greetings from The On-Line Encyclopedia of Integer Sequences! http://oeis.org/",
	"query": "id:A015427",
	"count": 1,
	"start": 0,
	"results": [
		{
			"number": 15427,
			"data": "1,203450521,51740143068101671,12531617923263572089314671,3064380040090865325461356053952796,747900330120650910670378436164144443652796,182604540723920504029015495725080327984747417027796,44580616068292567497216163076570130750072904955316534527796",
			"name": "Gaussian binomial coefficient [ n,12 ] for q=-5.",
			"reference": [
				"J. Goldman and G.-C. Rota, The number of subspaces of a vector space, pp. 75-83 of W. T. Tutte, editor, Recent Progress in Combinatorics. Academic Press, NY, 1969.",
				"I. P. Goulden and D. M. Jackson, Combinatorial Enumeration. Wiley, NY, 1983, p. 99.",
				"M. Sved, Gaussians and binomials, Ars. Combinatoria, 17A (1984), 325-351."
			],
			"link": [
				"Vincenzo Librandi, \u003ca href=\"/A015427/b015427.txt\"\u003eTable of n, a(n) for n = 12..130\u003c/a\u003e"
			],
			"formula": [
				"a(n) = Product_{i=1..12} ((-5)^(n-i+1)-1)/((-5)^i-1). - _Vincenzo Librandi_, Nov 06 2012"
			],
			"mathematica": [
				"QBinomial[Range[12,20],12,-5] (* _Harvey P. Dale_, Mar 28 2012 *)",
				"Table[QBinomial[n, 12, -5], {n, 12, 20}] (* _Vincenzo Librandi_, Nov 06 2012 *)"
			],
			"program": [
				"(Sage) [gaussian_binomial(n,12,-5) for n in range(12,18)] # _Zerinvary Lajos_, May 28 2009",
				"(MAGMA) r:=12; q:=-5; [\u0026*[(1-q^(n-i+1))/(1-q^i): i in [1..r]]: n in [r..20]]; // _Vincenzo Librandi_, Nov 06 2012"
			],
			"keyword": "nonn,easy",
			"offset": "12,2",
			"author": "_Olivier Gérard_",
			"ext": [
				"More terms from _Harvey P. Dale_, Mar 28 2012"
			],
			"references": 2,
			"revision": 20,
			"time": "2019-12-07T12:18:19-05:00",
			"created": "1999-12-11T03:00:00-05:00"
		}
	]
}