{
	"greeting": "Greetings from The On-Line Encyclopedia of Integer Sequences! http://oeis.org/",
	"query": "id:A015606",
	"count": 1,
	"start": 0,
	"results": [
		{
			"number": 15606,
			"data": "0,1,11,131,1551,18371,217591,2577211,30525231,361549651,4282298471,50720779691,600751561311,7115474971331,84277740297751,998209892988571,11823086225851791,140036047414255411,1658627383815327431,19645261696111155851",
			"name": "a(n) = 11*a(n-1) + 10*a(n-2).",
			"link": [
				"Vincenzo Librandi, \u003ca href=\"/A015606/b015606.txt\"\u003eTable of n, a(n) for n = 0..900\u003c/a\u003e",
				"\u003ca href=\"/index/Rec#order_02\"\u003eIndex entries for linear recurrences with constant coefficients\u003c/a\u003e, signature (11,10)."
			],
			"formula": [
				"a(n) = (1/161)*(11/2 + (1/2)*sqrt(161))^n*sqrt(161) - (1/161)*sqrt(161)*(11/2 - (1/2)*sqrt(161))^n, with n \u003e= 0. - _Paolo P. Lava_, Jul 09 2008",
				"G.f.: x/(1 - 11*x - 10*x^2). - _Zerinvary Lajos_, Apr 27 2009",
				"a(n) = 11*a(n-1) + 10*a(n-2), with a(0)=0, a(1)=1. - _Harvey P. Dale_, Feb 02 2015"
			],
			"mathematica": [
				"Join[{a=0,b=1},Table[c=11*b+10*a;a=b;b=c,{n,60}]] (* _Vladimir Joseph Stephan Orlovsky_, Jan 31 2011 *)",
				"LinearRecurrence[{11, 10}, {0, 1}, 30] (* _Vincenzo Librandi_, Nov 21 2012 *)"
			],
			"program": [
				"(Sage) [lucas_number1(n,11,-10) for n in range(0, 18)] # _Zerinvary Lajos_, Apr 27 2009",
				"(MAGMA) [n le 2 select n-1 else 11*Self(n-1) + 10*Self(n-2): n in [1..22]]; // _Vincenzo Librandi_, Nov 21 2012"
			],
			"keyword": "nonn,easy",
			"offset": "0,3",
			"author": "_Olivier Gérard_",
			"ext": [
				"G.f. adapted to the offset by _Vincenzo Librandi_, Nov 22 2012"
			],
			"references": 1,
			"revision": 34,
			"time": "2019-12-07T12:18:20-05:00",
			"created": "1999-12-11T03:00:00-05:00"
		}
	]
}