{
	"greeting": "Greetings from The On-Line Encyclopedia of Integer Sequences! http://oeis.org/",
	"query": "id:A015769",
	"count": 1,
	"start": 0,
	"results": [
		{
			"number": 15769,
			"data": "1,2,3,6,12,14,15,30,35,42,56,70,78,105,140,168,190,210,235,248,264,270,329,357,418,420,470,570,594,616,630,658,695,705,714,744,799,807,812,840,910,940,987,1045,1240,1254,1316,1390,1410,1485,1529",
			"name": "Numbers k such that phi(k) | sigma_11(k).",
			"comment": [
				"sigma_11(n) = A013959(n) is the sum of the 11th powers of the divisors of n."
			],
			"link": [
				"Amiram Eldar, \u003ca href=\"/A015769/b015769.txt\"\u003eTable of n, a(n) for n = 1..10000\u003c/a\u003e (terms 1..1000 from Harvey P. Dale)"
			],
			"mathematica": [
				"Select[Range[2000],Divisible[DivisorSigma[11,#],EulerPhi[#]]\u0026] (* _Harvey P. Dale_, Feb 07 2015 *)"
			],
			"xref": [
				"Cf. A000010, A013959.",
				"Cf. A020492, A015759, A015761, A015762, A015763, A015764, A015765, A015766, A015767, A015768, A015770, A015771, A015773, A015774, A094470."
			],
			"keyword": "nonn",
			"offset": "1,2",
			"author": "_Robert G. Wilson v_",
			"ext": [
				"Offset corrected by _Amiram Eldar_, Nov 02 2019"
			],
			"references": 10,
			"revision": 15,
			"time": "2021-02-18T11:04:49-05:00",
			"created": "1999-12-11T03:00:00-05:00"
		}
	]
}