{
	"greeting": "Greetings from The On-Line Encyclopedia of Integer Sequences! http://oeis.org/",
	"query": "id:A015253",
	"count": 1,
	"start": 0,
	"results": [
		{
			"number": 15253,
			"data": "1,13,221,3485,55965,894621,14317213,229062301,3665049245,58640578205,938250090141,15011998086813,240191982810781,3843071671285405,61489146955314845,983826350426044061,15741221610252678813",
			"name": "Gaussian binomial coefficient [ n,2 ] for q = -4.",
			"reference": [
				"J. Goldman and G.-C. Rota, The number of subspaces of a vector space, pp. 75-83 of W. T. Tutte, editor, Recent Progress in Combinatorics. Academic Press, NY, 1969.",
				"I. P. Goulden and D. M. Jackson, Combinatorial Enumeration. Wiley, NY, 1983, p. 99.",
				"M. Sved, Gaussians and binomials, Ars. Combinatoria, 17A (1984), 325-351."
			],
			"link": [
				"Vincenzo Librandi, \u003ca href=\"/A015253/b015253.txt\"\u003eTable of n, a(n) for n = 2..200\u003c/a\u003e",
				"\u003ca href=\"/index/Rec#order_03\"\u003eIndex entries for linear recurrences with constant coefficients\u003c/a\u003e, signature (13,52,-64)."
			],
			"formula": [
				"G.f.: x^2/((1-x)*(1+4*x)*(1-16*x)).",
				"a(2) = 1, a(3) = 13, a(4) = 221  a(n) = 13*(n-1) + 52*a(n-2) - 64*a(n-3). - _Vincenzo Librandi_, Oct 27 2012"
			],
			"example": [
				"G.f. = x^2 + 13*x^3 + 221*x^4 + 3485*x^5 + 55965*x^6 + 894621*x^7 + ..."
			],
			"mathematica": [
				"Rest[Table[QBinomial[n,2,-4],{n,20}]] (* _Harvey P. Dale_, Feb 26 2012 *)"
			],
			"program": [
				"(Sage) [gaussian_binomial(n,2,-4) for n in range(2,19)] # _Zerinvary Lajos_, May 27 2009",
				"(MAGMA) I:=[1, 13, 221]; [n le 3 select I[n] else 13*Self(n-1) + 52*Self(n-2) - 64*Self(n-3): n in [1..30]]; // _Vincenzo Librandi_, Oct 27 2012"
			],
			"keyword": "nonn,easy",
			"offset": "2,2",
			"author": "_Olivier Gérard_, Dec 11 1999",
			"references": 4,
			"revision": 29,
			"time": "2019-12-07T12:18:18-05:00",
			"created": "1999-12-11T03:00:00-05:00"
		}
	]
}