{
	"greeting": "Greetings from The On-Line Encyclopedia of Integer Sequences! http://oeis.org/",
	"query": "id:A015412",
	"count": 1,
	"start": 0,
	"results": [
		{
			"number": 15412,
			"data": "1,1,1,1,1,1,1,1,1,1,1,1,1,1,1,1,1,1,1,1,1,1,1,0,0,0,0,0,0,0,0,0,0,0,0,0,0,0,0,0,0,0,0,0,0,0,0,0,0,0,0,0,0,0,0,0,0,0,0,0,0,-1,-1,-1,-1,-1,-1,-1,-1,-1,-1,-1,-1,-1,-1,-1,-1,-1,-1",
			"name": "Inverse of 1403rd cyclotomic polynomial.",
			"comment": [
				"Periodic with period length 1403. - _Ray Chandler_, Apr 07 2017"
			],
			"link": [
				"Ray Chandler, \u003ca href=\"/A015412/b015412.txt\"\u003eTable of n, a(n) for n = 0..2000\u003c/a\u003e",
				"\u003ca href=\"/index/Rec#order_1320\"\u003eIndex entries for linear recurrences with constant coefficients\u003c/a\u003e, order 1320.",
				"\u003ca href=\"/index/Pol#poly_cyclo_inv\"\u003eIndex to sequences related to inverse of cyclotomic polynomials\u003c/a\u003e"
			],
			"maple": [
				"with(numtheory,cyclotomic); c := n-\u003eseries(1/cyclotomic(n,x),x,80);"
			],
			"mathematica": [
				"CoefficientList[Series[1/Cyclotomic[1403,x],{x,0,120}],x] (* _Harvey P. Dale_, Dec 27 2021 *)"
			],
			"keyword": "sign",
			"offset": "0,1",
			"author": "_Simon Plouffe_",
			"references": 1,
			"revision": 16,
			"time": "2021-12-27T17:51:40-05:00",
			"created": "1996-12-11T03:00:00-05:00"
		}
	]
}