{
	"greeting": "Greetings from The On-Line Encyclopedia of Integer Sequences! http://oeis.org/",
	"query": "id:A015529",
	"count": 1,
	"start": 0,
	"results": [
		{
			"number": 15529,
			"data": "0,1,3,20,93,499,2520,13049,66867,344140,1767957,9089411,46715760,240130801,1234265763,6344236100,32609631693,167615492179,861552425160,4428427689449,22762359745107,116999783819260,601385308653957,3091153547973731",
			"name": "Expansion of x/(1 - 3*x - 11*x^2).",
			"link": [
				"Vincenzo Librandi, \u003ca href=\"/A015529/b015529.txt\"\u003eTable of n, a(n) for n = 0..1000\u003c/a\u003e",
				"\u003ca href=\"/index/Rec#order_02\"\u003eIndex entries for linear recurrences with constant coefficients\u003c/a\u003e, signature (3,11)."
			],
			"formula": [
				"a(n) = 3*a(n-1) + 11*a(n-2).",
				"a(n) = -22^n*(A^n - B^n)/sqrt(53) where A = -1/(3+sqrt(53)) and B = 1/(sqrt(53)-3). - _R. J. Mathar_, Apr 29 2008"
			],
			"mathematica": [
				"Join[{a=0,b=1},Table[c=3*b+11*a;a=b;b=c,{n,100}]] (* _Vladimir Joseph Stephan Orlovsky_, Jan 16 2011 *)",
				"LinearRecurrence[{3, 11}, {0, 1}, 30] (* _Vincenzo Librandi_, Nov 12 2012 *)"
			],
			"program": [
				"(Sage) [lucas_number1(n,3,-11) for n in range(0, 22)] # _Zerinvary Lajos_, Apr 22 2009",
				"(MAGMA) [n le 2 select n-1 else 3*Self(n-1) + 11*Self(n-2): n in [1..30] ]; // _Vincenzo Librandi_, Nov 12 2012",
				"(PARI) x='x+O('x^30); concat([0], Vec(x/(1-3*x-11*x^2))) \\\\ _G. C. Greubel_, Jan 01 2018"
			],
			"keyword": "nonn,easy",
			"offset": "0,3",
			"author": "_Olivier Gérard_",
			"references": 11,
			"revision": 31,
			"time": "2019-12-07T12:18:19-05:00",
			"created": "1999-12-11T03:00:00-05:00"
		}
	]
}