{
	"greeting": "Greetings from The On-Line Encyclopedia of Integer Sequences! http://oeis.org/",
	"query": "id:A015138",
	"count": 1,
	"start": 0,
	"results": [
		{
			"number": 15138,
			"data": "1,1,1,2,1,1,3,4,3,1,11,5,6,3,4,8,8,13,19,5,27,11,11,21,5,6,9,15,58,4,31,16,24,32,12,53,18,76,24,21,42,27,21,59,12,44,69,93,21,5,32,30,26,36,145,63,40,58,59,20,62,124,72,32,24,24,33,128,99,12,71,213,36,18,20,316",
			"name": "Consider Fibonacci-type sequences b(0)=X, b(1)=Y, b(k)=b(k-1)+b(k-2) mod n; all are periodic; sequence gives number of maximal length periods.",
			"keyword": "nonn",
			"offset": "1,4",
			"author": "_Phil Carmody_",
			"ext": [
				"More terms from Larry Reeves (larryr(AT)acm.org), Jan 06 2005"
			],
			"references": 0,
			"revision": 5,
			"time": "2012-03-31T10:23:25-04:00",
			"created": "1999-12-11T03:00:00-05:00"
		}
	]
}