{
	"greeting": "Greetings from The On-Line Encyclopedia of Integer Sequences! http://oeis.org/",
	"query": "id:A015849",
	"count": 1,
	"start": 0,
	"results": [
		{
			"number": 15849,
			"data": "5,7,10,31,47,79,127,145,161,223,238,239,355,367,371,376,418,455,463,479,748,863,1039,1045,1087,1103,1118,1327,1423,1439,1567,1583,1823,1886,1999,2065,2108,2143,2201,2207,2239,2447,2461,2687,2767,2840,2927,2975",
			"name": "Numbers n such that phi(n + 9) | sigma(n) for n not congruent to 0 (mod 3).",
			"comment": [
				"Includes primes p such that (p+9)/8 is prime. Thus Dickson's conjecture implies the sequence is infinite. - _Robert Israel_, Jan 10 2019"
			],
			"link": [
				"Robert Israel, \u003ca href=\"/A015849/b015849.txt\"\u003eTable of n, a(n) for n = 1..10000\u003c/a\u003e"
			],
			"maple": [
				"select(n -\u003e (numtheory:-sigma(n)/numtheory:-phi(n+9))::integer, [seq(seq(3*i+j,j=1..2),i=0..1000)]); # _Robert Israel_, Jan 10 2019"
			],
			"mathematica": [
				"Select[Range[1, 5000], Divisible[DivisorSigma[1, #], EulerPhi[9 + #]] \u0026\u0026 ! Mod[#, 3] == 0 \u0026] (* _David Nacin_, Mar 04 2012 *)"
			],
			"program": [
				"(PARI) is(n)=n%3 \u0026\u0026 sigma(n)%eulerphi(n+9)==0 \\\\ _Charles R Greathouse IV_, Sep 25 2012"
			],
			"xref": [
				"Cf. A015827."
			],
			"keyword": "nonn",
			"offset": "1,1",
			"author": "_Robert G. Wilson v_",
			"references": 2,
			"revision": 18,
			"time": "2019-01-10T10:23:12-05:00",
			"created": "1999-12-11T03:00:00-05:00"
		}
	]
}