{
	"greeting": "Greetings from The On-Line Encyclopedia of Integer Sequences! http://oeis.org/",
	"query": "id:A015977",
	"count": 1,
	"start": 0,
	"results": [
		{
			"number": 15977,
			"data": "5,6,7,8,9,19,28,37,39,46,48,49,55,57,58,64,66,67,73,75,76,82,84,85,91,93,94,109,119,129,139,149,150,151,152,153,154,159,160,161,162,163,169,170,171,172,173,179,189,208,218,219,228,229,238,239,248",
			"name": "Two iterations of Reverse and Add are needed to reach a palindrome.",
			"comment": [
				"The number of iterations starts at 1, so palindromes (cf. A002113) are not excluded. The corresponding sequence excluding palindromes is A065207."
			],
			"link": [
				"\u003ca href=\"/index/Res#RAA\"\u003eIndex entries for sequences related to Reverse and Add!\u003c/a\u003e"
			],
			"program": [
				"(Python)",
				"def ra(n): s = str(n); return int(s) + int(s[::-1])",
				"def ispal(n): s = str(n); return s == s[::-1]",
				"def aupto(limit):",
				"  alst = []",
				"  for k in range(limit+1):",
				"    k2 = ra(k)",
				"    if ispal(k2): continue",
				"    if ispal(ra(k2)): alst.append(k)",
				"  return alst",
				"print(aupto(250)) # _Michael S. Branicky_, May 06 2021"
			],
			"xref": [
				"Cf. A002113, A065207."
			],
			"keyword": "nonn,base",
			"offset": "0,1",
			"author": "_Robert G. Wilson v_",
			"references": 1,
			"revision": 14,
			"time": "2021-05-07T01:02:05-04:00",
			"created": "1999-12-11T03:00:00-05:00"
		}
	]
}