{
	"greeting": "Greetings from The On-Line Encyclopedia of Integer Sequences! http://oeis.org/",
	"query": "id:A015797",
	"count": 1,
	"start": 0,
	"results": [
		{
			"number": 15797,
			"data": "14,20,54,56,234,286,456,686,735,980,1176,1224,1470,2000,3296,21645,34632,37496,43290,46620,62336,191616,277808,779568,1124528,4095712,16726016,17409376,50251776,149911936,177383296,12883623936,42932880896,295964664896",
			"name": "Numbers n such that phi(n) + 6 | sigma(n).",
			"comment": [
				"a(35) \u003e 10^12. - _Donovan Johnson_, Feb 28 2012"
			],
			"example": [
				"phi(14)+6 = 12, which divides sigma(14)=24, so 14 is in the sequence."
			],
			"mathematica": [
				"Select[Range[100000],",
				"Divisible[DivisorSigma[1, #], EulerPhi[#] + 6] \u0026] (* _David Nacin_, Feb 28 2012 *)"
			],
			"program": [
				"(PARI) isok(n) = (sigma(n) % (eulerphi(n) + 6)) == 0; \\\\ _Michel Marcus_, Jul 15 2017"
			],
			"xref": [
				"Cf. A000010, A000203."
			],
			"keyword": "nonn",
			"offset": "1,1",
			"author": "_Robert G. Wilson v_",
			"ext": [
				"More terms from _Jud McCranie_, Dec 25 1999",
				"a(32)-a(34) from _Donovan Johnson_, Feb 28 2012"
			],
			"references": 1,
			"revision": 27,
			"time": "2017-07-15T11:23:47-04:00",
			"created": "1999-12-11T03:00:00-05:00"
		}
	]
}