{
	"greeting": "Greetings from The On-Line Encyclopedia of Integer Sequences! http://oeis.org/",
	"query": "id:A015811",
	"count": 1,
	"start": 0,
	"results": [
		{
			"number": 15811,
			"data": "1,-1,1,-1,1,-1,1,-1,1,-1,1,-1,1,-1,1,-1,1,0,0,0,0,0,0,0,0,0,0,0,0,0,0,0,0,0,0,0,0,0,0,0,0,0,0,0,0,0,0,0,0,0,0,0,0,1,-1,1,-1,1,-1,1,-1,1,-1,1,-1,1,-1,1,-1,1,0,0,0,0,0,0,0,0,0,0,0",
			"name": "Inverse of 1802nd cyclotomic polynomial.",
			"comment": [
				"Periodic with period length 1802. - _Ray Chandler_, Apr 07 2017"
			],
			"link": [
				"Ray Chandler, \u003ca href=\"/A015811/b015811.txt\"\u003eTable of n, a(n) for n = 0..2000\u003c/a\u003e",
				"\u003ca href=\"/index/Rec#order_832\"\u003eIndex entries for linear recurrences with constant coefficients\u003c/a\u003e, order 832.",
				"\u003ca href=\"/index/Pol#poly_cyclo_inv\"\u003eIndex to sequences related to inverse of cyclotomic polynomials\u003c/a\u003e"
			],
			"maple": [
				"with(numtheory,cyclotomic); c := n-\u003eseries(1/cyclotomic(n,x),x,80);"
			],
			"mathematica": [
				"CoefficientList[Series[1/Cyclotomic[1802,x],{x,0,120}],x,120] (* _Harvey P. Dale_, May 15 2021 *)"
			],
			"keyword": "sign",
			"offset": "0,1",
			"author": "_Simon Plouffe_",
			"references": 1,
			"revision": 16,
			"time": "2021-05-15T15:55:00-04:00",
			"created": "1996-12-11T03:00:00-05:00"
		}
	]
}