{
	"greeting": "Greetings from The On-Line Encyclopedia of Integer Sequences! http://oeis.org/",
	"query": "id:A015798",
	"count": 1,
	"start": 0,
	"results": [
		{
			"number": 15798,
			"data": "9,18,24,408,7684,10848,14528,46272,533776,774912,201142272,1410521344,3220488192,4469373184,6505814272,27945013504",
			"name": "Numbers k such that phi(k) + 7 | sigma(k).",
			"comment": [
				"a(17) \u003e 10^12. - _Donovan Johnson_, Feb 28 2012"
			],
			"mathematica": [
				"Cases[Range[100000],",
				"x_ /; Divisible[DivisorSigma[1, x], EulerPhi[x] + 7] == True] (* _David Nacin_, Feb 28 2012 *)"
			],
			"keyword": "nonn",
			"offset": "1,1",
			"author": "_Robert G. Wilson v_",
			"ext": [
				"Offset corrected and a(9)-a(16) from _Donovan Johnson_, Feb 28 2012"
			],
			"references": 1,
			"revision": 16,
			"time": "2019-09-08T20:07:30-04:00",
			"created": "1999-12-11T03:00:00-05:00"
		}
	]
}