{
	"greeting": "Greetings from The On-Line Encyclopedia of Integer Sequences! http://oeis.org/",
	"query": "id:A015442",
	"count": 1,
	"start": 0,
	"results": [
		{
			"number": 15442,
			"data": "0,1,1,8,15,71,176,673,1905,6616,19951,66263,205920,669761,2111201,6799528,21577935,69174631,220220176,704442593,2245983825,7177081976,22898968751,73138542583,233431323840,745401121921,2379420388801",
			"name": "Generalized Fibonacci numbers: a(n) = a(n-1) + 7*a(n-2), a(0)=0, a(1)=1.",
			"comment": [
				"One obtains A015523 through a binomial transform, and A197189 by shifting one place left (starting 1,1,8 with offset 0) followed by a binomial transform. - _R. J. Mathar_, Oct 11 2011",
				"The compositions of n in which each positive integer is colored by one of p different colors are called p-colored compositions of n. For n\u003e=2, 8*a(n-1) equals the number of 8-colored compositions of n, with all parts \u003e=2, such that no adjacent parts have the same color. - _Milan Janjic_, Nov 26 2011",
				"Pisano period lengths: 1, 3, 8, 6, 4, 24, 1, 6, 24, 12, 60, 24, 12, 3, 8, 6, 288, 24, 120, 12, ... - _R. J. Mathar_, Aug 10 2012"
			],
			"link": [
				"Vincenzo Librandi, \u003ca href=\"/A015442/b015442.txt\"\u003eTable of n, a(n) for n = 0..1000\u003c/a\u003e",
				"Joerg Arndt, \u003ca href=\"http://www.jjj.de/fxt/#fxtbook\"\u003eMatters Computational (The Fxtbook)\u003c/a\u003e, section 14.8 \"Strings with no two consecutive nonzero digits\", pp.317-318",
				"M. Janjic, \u003ca href=\"https://cs.uwaterloo.ca/journals/JIS/VOL18/Janjic/janjic63.html\"\u003eOn Linear Recurrence Equations Arising from Compositions of Positive Integers\u003c/a\u003e, Journal of Integer Sequences, Vol. 18 (2015), Article 15.4.7.",
				"\u003ca href=\"/index/Rec#order_02\"\u003eIndex entries for linear recurrences with constant coefficients\u003c/a\u003e, signature (1,7)."
			],
			"formula": [
				"O.g.f.: x/(1-x-7x^2). - _R. J. Mathar_, May 06 2008",
				"a(n) = ( ((1+sqrt(29))/2)^(n+1) - ((1-sqrt(29))/2)^(n+1) )/sqrt(29).",
				"a(n) = 8*a(n-2) + 7*a(n-3) with characteristic polynomial x^3 - 8*x - 7. - _Roger L. Bagula_, May 30 2007",
				"a(n+1) = Sum_{k=0..n} A109466(n,k)*(-7)^(n-k). - _Philippe Deléham_, Oct 26 2008",
				"a(n) = (Sum_{1\u003c=k\u003c=n, k odd} C(n,k)*29^((k-1)/2))/2^(n-1). - _Vladimir Shevelev_, Feb 05 2014"
			],
			"mathematica": [
				"(* recursion *) A015442[0] := 0; A015442[1] := 1; A015442[ 2] := 1; A015442[n_] := A015442[n] = 8*A015442[n - 2] + 7*A015442[n - 3]; Table[A015442[n], {n, 0, 25}]  (* _Roger L. Bagula_ *)",
				"(* matrix representation *) mat15442 = {{0, 1, 0}, {0, 0, 1}, {7, 8, 0}}; w15442[ 0] = {0, 1, 1}; w15442[n_] := w15442[n] = mat15442.w15442[n - 1]; Table[w15442[n][[1]], {n, 0, 25}]  (* _Roger L. Bagula_ *)",
				"LinearRecurrence[{1, 7}, {0, 1}, 30] (* _Vincenzo Librandi_, Oct 17 2012 *)"
			],
			"program": [
				"(Sage) [lucas_number1(n,1,-7) for n in range(0, 27)] # _Zerinvary Lajos_, Apr 22 2009",
				"(MAGMA) I:=[0, 1]; [n le 2 select I[n] else Self(n-1) + 7*Self(n-2): n in [1..40]]; // _Vincenzo Librandi_, Oct 17 2012",
				"(PARI) concat(0,Vec(1/(1-x-7*x^2)+O(x^99))) \\\\ _Charles R Greathouse IV_, Mar 12 2014"
			],
			"xref": [
				"Cf. A015440, A015441."
			],
			"keyword": "nonn,easy",
			"offset": "0,4",
			"author": "_Olivier Gérard_",
			"references": 16,
			"revision": 55,
			"time": "2019-12-07T12:18:19-05:00",
			"created": "1999-12-11T03:00:00-05:00"
		}
	]
}