{
	"greeting": "Greetings from The On-Line Encyclopedia of Integer Sequences! http://oeis.org/",
	"query": "id:A015870",
	"count": 1,
	"start": 0,
	"results": [
		{
			"number": 15870,
			"data": "6,11,12,62,65,166,251,782,2342,6662,25040,83623931,933180002,943169410,1840122962,4294967291",
			"name": "Numbers k such that phi(k + 4) | sigma(k) + 4.",
			"comment": [
				"There are no other terms \u003c 4290000000. - _Jud McCranie_, Dec 26 1999",
				"a(17) \u003e 10^12. - _Donovan Johnson_, Feb 28 2012"
			],
			"example": [
				"phi(6+4)=4, which divides 16=sigma(6)+4, so 6 is a term of the sequence."
			],
			"mathematica": [
				"Select[Range[100000],",
				"Divisible[DivisorSigma[1, #] + 4, EulerPhi[# + 4]] \u0026] (* _David Nacin_, Feb 28 2012 *)"
			],
			"program": [
				"(PARI) is(n)=(sigma(n)+4)%eulerphi(n+4)==0 \\\\ _Charles R Greathouse IV_, Jan 29 2016"
			],
			"xref": [
				"Cf. A000010, A000203."
			],
			"keyword": "nonn,more",
			"offset": "1,1",
			"author": "_Robert G. Wilson v_",
			"ext": [
				"a(16) from _Donovan Johnson_, Feb 28 2012"
			],
			"references": 0,
			"revision": 28,
			"time": "2019-09-08T18:16:07-04:00",
			"created": "1999-12-11T03:00:00-05:00"
		}
	]
}