{
	"greeting": "Greetings from The On-Line Encyclopedia of Integer Sequences! http://oeis.org/",
	"query": "id:A015251",
	"count": 1,
	"start": 0,
	"results": [
		{
			"number": 15251,
			"data": "1,7,70,610,5551,49777,448540,4035220,36321901,326882347,2941985410,26477735830,238300021051,2144698993717,19302294530680,173720640014440,1563485792415001,14071372034879887",
			"name": "Gaussian binomial coefficient [ n,2 ] for q = -3.",
			"reference": [
				"J. Goldman and G.-C. Rota, The number of subspaces of a vector space, pp. 75-83 of W. T. Tutte, editor, Recent Progress in Combinatorics. Academic Press, NY, 1969.",
				"I. P. Goulden and D. M. Jackson, Combinatorial Enumeration. Wiley, NY, 1983, p. 99.",
				"M. Sved, Gaussians and binomials, Ars. Combinatoria, 17A (1984), 325-351."
			],
			"link": [
				"G. C. Greubel, \u003ca href=\"/A015251/b015251.txt\"\u003eTable of n, a(n) for n = 2..500\u003c/a\u003e",
				"\u003ca href=\"/index/Rec#order_03\"\u003eIndex entries for linear recurrences with constant coefficients\u003c/a\u003e, signature (7,21,-27)."
			],
			"formula": [
				"G.f.: x^2/[(1-x)(1+3x)(1-9x)].",
				"a(n) = 10*a(n-1) - 9*a(n-2) + (-1)^n *3^(n-2), n \u003e= 4. - _Vincenzo Librandi_, Mar 20 2011",
				"a(n) = 7*a(n-1) + 21*a(n-2) - 27*a(n-3), n \u003e= 3. - _Vincenzo Librandi_, Mar 20 2011",
				"a(n) = (1/96)*(2*(-1)^n*3^n - 3 + 9^n). - _R. J. Mathar_, Mar 21 2011"
			],
			"mathematica": [
				"Table[QBinomial[n, 2, -3], {n, 2, 25}] (* _G. C. Greubel_, Jul 30 2016 *)"
			],
			"program": [
				"(Sage) [gaussian_binomial(n,2,-3) for n in range(2,18)] # _Zerinvary Lajos_, May 28 2009",
				"(PARI) a(n)=([0,1,0; 0,0,1; -27,21,7]^(n-2)*[1;7;70])[1,1] \\\\ _Charles R Greathouse IV_, Jul 30 2016"
			],
			"keyword": "nonn,easy",
			"offset": "2,2",
			"author": "_Olivier Gérard_, Dec 11 1999",
			"references": 4,
			"revision": 23,
			"time": "2019-12-07T12:18:18-05:00",
			"created": "1999-12-11T03:00:00-05:00"
		}
	]
}