{
	"greeting": "Greetings from The On-Line Encyclopedia of Integer Sequences! http://oeis.org/",
	"query": "id:A015382",
	"count": 1,
	"start": 0,
	"results": [
		{
			"number": 15382,
			"data": "1,-909090909,918273645463728191,-917356289173636281073462809,917448033977125729275307703398447191,-917438859588520669588272049420660231320652809,917439777028298615325746963688293507886210115870347191",
			"name": "Gaussian binomial coefficient [ n,9 ] for q=-10.",
			"reference": [
				"J. Goldman and G.-C. Rota, The number of subspaces of a vector space, pp. 75-83 of W. T. Tutte, editor, Recent Progress in Combinatorics. Academic Press, NY, 1969.",
				"I. P. Goulden and D. M. Jackson, Combinatorial Enumeration. Wiley, NY, 1983, p. 99.",
				"M. Sved, Gaussians and binomials, Ars. Combinatoria, 17A (1984), 325-351."
			],
			"link": [
				"Vincenzo Librandi, \u003ca href=\"/A015382/b015382.txt\"\u003eTable of n, a(n) for n = 9..120\u003c/a\u003e"
			],
			"formula": [
				"a(n) = Product_{i=1..9} ((-10)^(n-i+1)-1)/((-10)^i-1). - _Vincenzo Librandi_, Nov 04 2012"
			],
			"mathematica": [
				"Table[QBinomial[n, 9, -10],{n, 9, 20}] (* _Vincenzo Librandi_, Nov 04 2012 *)"
			],
			"program": [
				"(MAGMA) r:=9; q:=-10; [\u0026*[(1-q^(n-i+1))/(1-q^i): i in [1..r]]: n in [r..20]]; // _Vincenzo Librandi_, Nov 04 2012"
			],
			"xref": [
				"Cf. Gaussian binomial coefficients [n, 9] for q = -2..-13: A015371, A015375, A015376, A015377, A015378, A015379, A015380, A015381, A015383, A015384, A015385. - _Vincenzo Librandi_, Nov 04 2012"
			],
			"keyword": "sign,easy",
			"offset": "9,2",
			"author": "_Olivier Gérard_",
			"references": 13,
			"revision": 11,
			"time": "2018-02-02T02:33:28-05:00",
			"created": "1999-12-11T03:00:00-05:00"
		}
	]
}