{
	"greeting": "Greetings from The On-Line Encyclopedia of Integer Sequences! http://oeis.org/",
	"query": "id:A016073",
	"count": 1,
	"start": 0,
	"results": [
		{
			"number": 16073,
			"data": "0,1,4,9,16,25,36,49,64,81,121,484,676,69696",
			"name": "Undulating squares.",
			"comment": [
				"Numbers with decimal expansion ababab... which are squares.",
				"\"Most mathematicians believe we will never find a larger one\" - this has now been proved by David Moews."
			],
			"reference": [
				"C. A. Pickover, \"Keys to Infinity\", Wiley 1995, pp. 159, 160.",
				"C. A. Pickover, \"Wonders of Numbers\", Oxford New York 2001, Chapter 52, pp. 123-124, 316-317.",
				"Clifford A. Pickover, A Passion for Mathematics, Wiley, 2005; see p. 68."
			],
			"link": [
				"D. Moews, \u003ca href=\"http://djm.cc/dmoews.html\"\u003eHome Page\u003c/a\u003e [See the paper \"No More Undulating Squares\", available in LaTeX, DVI and Postscript]",
				"C. A. Pickover, \"Wonders of Numbers, Adventures in Mathematics, Mind and Meaning,\" \u003ca href=\"http://www.zentralblatt-math.org/zmath/en/search/?q=an:0983.00008\u0026amp;format=complete\"\u003eZentralblatt review\u003c/a\u003e",
				"Eric Weisstein's World of Mathematics, \u003ca href=\"http://mathworld.wolfram.com/UndulatingNumber.html\"\u003eUndulating Number.\u003c/a\u003e"
			],
			"maple": [
				"select(issqr,[$0..9,seq(seq(seq(a*(10^(d+1)-10^(d+1 mod 2))/99 + b*(10^d - 10^(d mod 2))/99, b=0..9),a=1..9),d=2..6)]); # _Robert Israel_, Jul 08 2016"
			],
			"mathematica": [
				"wave[1]=Range[0, 9]; wave[2]=Range[10, 99]; wave[n_] := wave[n] = Select[ Union[ Flatten[{id = IntegerDigits[#]; FromDigits[Prepend[id, id[[2]]]], FromDigits[Append[id, id[[-2]]]]} \u0026 /@ wave[n-1]]], 10^(n-1) \u003c # \u003c 10^n \u0026]; A016073 = Reap[Do[Do[wk = wave[n][[k]]; If[IntegerQ[Sqrt[wk]], Sow[wk]], {k, 1, Length[wave[n]]}], {n, 1, 5}]][[2, 1]] (* _Jean-François Alcover_, Dec 28 2012 *)"
			],
			"xref": [
				"Numbers in A033619 that are squares. See A122875 for the square roots."
			],
			"keyword": "nonn,fini,full,nice,base",
			"offset": "0,3",
			"author": "_Robert G. Wilson v_",
			"references": 5,
			"revision": 20,
			"time": "2016-07-09T00:51:45-04:00",
			"created": "1999-12-11T03:00:00-05:00"
		}
	]
}