{
	"greeting": "Greetings from The On-Line Encyclopedia of Integer Sequences! http://oeis.org/",
	"query": "id:A016079",
	"count": 1,
	"start": 0,
	"results": [
		{
			"number": 16079,
			"data": "1,0,0,1,0,0,0,0,0,-1,0,0,-1,0,0,-1,0,0,0,0,0,1,0,0,1,0,0,0,0,0,0,0,0,0,0,0,0,0,0,0,0,0,0,0,0,0,0,0,0,0,0,0,0,0,0,0,0,0,0,0,0,0,0,0,0,0,0,0,0,-1,0,0,-1,0,0,0,0,0,1,0,0",
			"name": "Inverse of 2070th cyclotomic polynomial.",
			"comment": [
				"Periodic with period length 2070. - _Ray Chandler_, Apr 07 2017"
			],
			"link": [
				"Ray Chandler, \u003ca href=\"/A016079/b016079.txt\"\u003eTable of n, a(n) for n = 0..3000\u003c/a\u003e",
				"\u003ca href=\"/index/Rec#order_528\"\u003eIndex entries for linear recurrences with constant coefficients\u003c/a\u003e, order 528.",
				"\u003ca href=\"/index/Pol#poly_cyclo_inv\"\u003eIndex to sequences related to inverse of cyclotomic polynomials\u003c/a\u003e"
			],
			"maple": [
				"with(numtheory,cyclotomic); c := n-\u003eseries(1/cyclotomic(n,x),x,80);"
			],
			"mathematica": [
				"CoefficientList[Series[1/Cyclotomic[2070,x],{x,0,120}],x] (* _Harvey P. Dale_, Aug 28 2021 *)"
			],
			"keyword": "sign",
			"offset": "0,1",
			"author": "_Simon Plouffe_",
			"references": 1,
			"revision": 13,
			"time": "2021-08-28T18:14:49-04:00",
			"created": "1996-12-11T03:00:00-05:00"
		}
	]
}