{
	"greeting": "Greetings from The On-Line Encyclopedia of Integer Sequences! http://oeis.org/",
	"query": "id:A016730",
	"count": 1,
	"start": 0,
	"results": [
		{
			"number": 16730,
			"data": "0,1,2,3,1,6,3,1,1,2,1,1,1,1,3,10,1,1,1,2,1,1,1,1,3,2,3,1,13,7,4,1,1,1,7,2,4,1,1,2,5,14,1,10,1,4,2,18,3,1,4,1,6,2,7,3,3,1,13,3,1,4,4,1,3,1,1,1,1,2,17,3,1,2,32,1,1,1",
			"name": "Continued fraction for log(2).",
			"comment": [
				"Continued fraction for 1/log(2) is the same but without the initial zero."
			],
			"link": [
				"Harry J. Smith, \u003ca href=\"/A016730/b016730.txt\"\u003eTable of n, a(n) for n = 1..20000\u003c/a\u003e",
				"G. Xiao, \u003ca href=\"http://wims.unice.fr/~wims/en_tool~number~contfrac.en.html\"\u003eContfrac\u003c/a\u003e",
				"Eric Weisstein's World of Mathematics, \u003ca href=\"http://mathworld.wolfram.com/NaturalLogarithmof2.html\"\u003eNatural Logarithm of 2\u003c/a\u003e",
				"\u003ca href=\"/index/Con#confC\"\u003eIndex entries for continued fractions for constants\u003c/a\u003e"
			],
			"example": [
				"log(2) = 0.6931471805599453094... = 0 + 1/(1 + 1/(2 + 1/(3 + 1/(1 + ...)))). - _Harry J. Smith_, Apr 21 2009"
			],
			"mathematica": [
				"ContinuedFraction[Log[2], 80] (* _Alonso del Arte_, Oct 03 2017 *)"
			],
			"program": [
				"(PARI) { allocatemem(932245000); default(realprecision, 21000); x=contfrac(log(2)); for (n=1, 20000, write(\"b016730.txt\", n, \" \", x[n])); } \\\\ _Harry J. Smith_, Apr 21 2009",
				"(MAGMA) ContinuedFraction(Log(2)); // _G. C. Greubel_, Sep 15 2018"
			],
			"xref": [
				"Cf. A120754, A120755, A002162 (decimal expansion)."
			],
			"keyword": "nonn,cofr",
			"offset": "1,3",
			"author": "_N. J. A. Sloane_",
			"references": 11,
			"revision": 26,
			"time": "2018-09-16T01:53:49-04:00",
			"created": "1996-12-11T03:00:00-05:00"
		}
	]
}