{
	"greeting": "Greetings from The On-Line Encyclopedia of Integer Sequences! http://oeis.org/",
	"query": "id:A016710",
	"count": 1,
	"start": 0,
	"results": [
		{
			"number": 16710,
			"data": "4,4,6,5,9,0,8,1,1,8,6,5,4,5,8,3,7,1,8,5,7,8,5,1,7,2,6,9,2,8,4,4,3,7,3,1,0,1,4,2,0,0,3,4,7,1,7,4,5,4,9,3,5,3,0,6,5,6,3,6,4,6,8,5,2,8,0,2,7,5,0,7,4,3,5,6,4,6,1,3,0,0,1,6,6,9,8,2,8,6,9,6,3,1,5,8,8,5,1",
			"name": "Decimal expansion of log(87).",
			"link": [
				"Harry J. Smith, \u003ca href=\"/A016710/b016710.txt\"\u003eTable of n, a(n) for n = 1..20000\u003c/a\u003e",
				"M. Abramowitz and I. A. Stegun, eds., \u003ca href=\"http://www.convertit.com/Go/ConvertIt/Reference/AMS55.ASP\"\u003eHandbook of Mathematical Functions\u003c/a\u003e, National Bureau of Standards, Applied Math. Series 55, Tenth Printing, 1972 [alternative scanned copy].",
				"\u003ca href=\"/index/Tra#transcendental\"\u003eIndex entries for transcendental numbers\u003c/a\u003e"
			],
			"example": [
				"4.465908118654583718578517269284437310142003471745493530656364685280275...."
			],
			"mathematica": [
				"RealDigits[Log[87], 10, 100][[1]] (* _G. C. Greubel_, Sep 17 2018 *)"
			],
			"program": [
				"(PARI) default(realprecision, 20080); x=log(87); for (n=1, 20000, d=floor(x); x=(x-d)*10; write(\"b016710.txt\", n, \" \", d)); \\\\ _Harry J. Smith_, May 24 2009",
				"(MAGMA) SetDefaultRealField(RealField(100)); Log(87); // _G. C. Greubel_, Sep 17 2018"
			],
			"xref": [
				"Cf. A016515 (continued fraction)."
			],
			"keyword": "nonn,cons",
			"offset": "1,1",
			"author": "_N. J. A. Sloane_",
			"references": 2,
			"revision": 22,
			"time": "2019-05-15T11:05:37-04:00",
			"created": "1996-12-11T03:00:00-05:00"
		}
	]
}