{
	"greeting": "Greetings from The On-Line Encyclopedia of Integer Sequences! http://oeis.org/",
	"query": "id:A016849",
	"count": 1,
	"start": 0,
	"results": [
		{
			"number": 16849,
			"data": "1,15,157,1431,12229,101199,823789,6649287,53436757,428483583,3431885821,27471332343,219836173285,1758953038767,14072683703053,112585721544999,900702823089013,7205690916768351,57645801049792285",
			"name": "Expansion of 1/((1-3x)(1-4x)(1-8x)).",
			"link": [
				"Vincenzo Librandi, \u003ca href=\"/A016849/b016849.txt\"\u003eTable of n, a(n) for n = 0..200\u003c/a\u003e",
				"\u003ca href=\"/index/Rec\"\u003eIndex entries for linear recurrences with constant coefficients\u003c/a\u003e, signature (15,-68,96)."
			],
			"formula": [
				"a(n) = 15*a(n-1) - 68*a(n-2) + 96*a(n-3); a(0)=1, a(1)=15, a(2)=157. - _Harvey P. Dale_, Mar 23 2012",
				"a(n) = 9*3^n/5 - 4*4^n + 16*8^n/5. - _R. J. Mathar_, Jun 23 2013",
				"a(n) = 12*a(n-1) - 32*a(n-2) + 3^n. - _Vincenzo Librandi_, Jun 26 2013"
			],
			"mathematica": [
				"CoefficientList[Series[1/((1-3x)(1-4x)(1-8x)),{x,0,30}],x] (* or *) LinearRecurrence[{15,-68,96},{1,15,157},30] (* _Harvey P. Dale_, Mar 23 2012 *)"
			],
			"program": [
				"(MAGMA) I:=[1, 15, 157]; [n le 3 select I[n] else 15*Self(n-1)-68*Self(n-2) +96*Self(n-3): n in [1..20]]; // _Vincenzo Librandi_, Jun 26 2013",
				"(MAGMA) m:=20; R\u003cx\u003e:=PowerSeriesRing(Integers(), m); Coefficients(R!(1/((1-3*x)*(1-4*x)*(1-8*x)))); // _Vincenzo Librandi_, Jun 26 2013",
				"(PARI) x='x+O('x^20); Vec(1/((1-3*x)*(1-4*x)*(1-8*x))) \\\\ _Altug Alkan_, Sep 23 2018"
			],
			"keyword": "nonn,easy",
			"offset": "0,2",
			"author": "_N. J. A. Sloane_",
			"references": 1,
			"revision": 29,
			"time": "2018-09-23T21:00:19-04:00",
			"created": "1999-12-11T03:00:00-05:00"
		}
	]
}