{
	"greeting": "Greetings from The On-Line Encyclopedia of Integer Sequences! http://oeis.org/",
	"query": "id:A016616",
	"count": 1,
	"start": 0,
	"results": [
		{
			"number": 16616,
			"data": "3,6,7,6,3,0,0,6,7,1,9,0,7,0,7,6,1,8,4,7,5,5,7,1,3,4,2,0,0,2,3,2,3,4,3,5,4,0,9,8,0,4,1,0,9,0,0,6,2,3,5,4,3,7,1,2,9,1,4,9,1,1,0,8,0,6,6,4,1,2,4,3,9,1,5,4,7,3,7,5,6,2,5,4,0,0,7,7,0,3,8,7,7,7,6,6,0,9,1",
			"name": "Decimal expansion of log(79/2).",
			"link": [
				"Harry J. Smith, \u003ca href=\"/A016616/b016616.txt\"\u003eTable of n, a(n) for n = 1..20000\u003c/a\u003e",
				"\u003ca href=\"/index/Tra#transcendental\"\u003eIndex entries for transcendental numbers\u003c/a\u003e"
			],
			"example": [
				"3.676300671907076184755713420023234354098041090062354371291491108066412...."
			],
			"mathematica": [
				"RealDigits[Log[79/2], 10, 120][[1]] (* _Vincenzo Librandi_, Jun 21 2015 *)"
			],
			"program": [
				"(PARI) default(realprecision, 20080); x=log(79/2); for (n=1, 20000, d=floor(x); x=(x-d)*10; write(\"b016616.txt\", n, \" \", d)); \\\\ _Harry J. Smith_, May 29 2009"
			],
			"xref": [
				"Cf. A016567 (continued fraction)."
			],
			"keyword": "nonn,cons",
			"offset": "1,1",
			"author": "_N. J. A. Sloane_",
			"references": 2,
			"revision": 17,
			"time": "2019-05-15T02:59:24-04:00",
			"created": "1996-12-11T03:00:00-05:00"
		}
	]
}