{
	"greeting": "Greetings from The On-Line Encyclopedia of Integer Sequences! http://oeis.org/",
	"query": "id:A016502",
	"count": 1,
	"start": 0,
	"results": [
		{
			"number": 16502,
			"data": "4,3,3,2,6,3,1,49,1,1,4,1,1,7,3,1,1,20,3,30,20,1,1,4,1,1,5,1,10,1,96,1,3,2,1,4,5,1,1,2,2,1,2,3,4,1,4,1,1,7,1,4,1,4,79,1,2,4,1,14,4,4,11,1,1,2,2,2,2,10,1,2,1,3,1,21",
			"name": "Continued fraction for log(74).",
			"link": [
				"Harry J. Smith, \u003ca href=\"/A016502/b016502.txt\"\u003eTable of n, a(n) for n = 1..20000\u003c/a\u003e"
			],
			"example": [
				"4.304065093204169753785327792... = 4 + 1/(3 + 1/(3 + 1/(2 + 1/(6 + ...)))). - _Harry J. Smith_, May 23 2009"
			],
			"mathematica": [
				"ContinuedFraction[Log[74],80]  (* _Harvey P. Dale_, Apr 05 2011 *)"
			],
			"program": [
				"(PARI) { allocatemem(932245000); default(realprecision, 21000); x=contfrac(log(74)); for (n=1, 20000, write(\"b016502.txt\", n, \" \", x[n])); } \\\\ _Harry J. Smith_, May 23 2009"
			],
			"xref": [
				"Cf. A016697 Decimal expansion. - _Harry J. Smith_, May 23 2009"
			],
			"keyword": "nonn,cofr",
			"offset": "1,1",
			"author": "_N. J. A. Sloane_",
			"references": 2,
			"revision": 14,
			"time": "2015-12-24T23:31:33-05:00",
			"created": "1996-12-11T03:00:00-05:00"
		}
	]
}