{
	"greeting": "Greetings from The On-Line Encyclopedia of Integer Sequences! http://oeis.org/",
	"query": "id:A016466",
	"count": 1,
	"start": 0,
	"results": [
		{
			"number": 16466,
			"data": "3,1,1,1,3,6,2,19,2,2,7,1,2,18,7,1,4,1,1,1,4,1,6,2,2,1,1,1,6,4,2,9,2,5,2,17,2,3,1,15,1,3,2,9,1,8,1,11,2,1,3,1,1,125,1,1,7,1,36,1,1,5,1,18,1,7,1,103,49,20,1,2,1,2,6",
			"name": "Continued fraction for log(38).",
			"link": [
				"Harry J. Smith, \u003ca href=\"/A016466/b016466.txt\"\u003eTable of n, a(n) for n = 1..20000\u003c/a\u003e"
			],
			"example": [
				"3.637586159726385769426259553... = 3 + 1/(1 + 1/(1 + 1/(1 + 1/(3 + ...)))). - _Harry J. Smith_, May 21 2009"
			],
			"mathematica": [
				"ContinuedFraction[Log[38],100] (* _Harvey P. Dale_, Apr 26 2018 *)"
			],
			"program": [
				"(PARI) { allocatemem(932245000); default(realprecision, 21000); x=contfrac(log(38)); for (n=1, 20000, write(\"b016466.txt\", n, \" \", x[n])); } \\\\ _Harry J. Smith_, May 21 2009"
			],
			"xref": [
				"Cf. A016661 Decimal expansion. - _Harry J. Smith_, May 21 2009"
			],
			"keyword": "nonn,cofr",
			"offset": "1,1",
			"author": "_N. J. A. Sloane_",
			"references": 2,
			"revision": 14,
			"time": "2018-04-26T05:11:13-04:00",
			"created": "1996-12-11T03:00:00-05:00"
		}
	]
}