{
	"greeting": "Greetings from The On-Line Encyclopedia of Integer Sequences! http://oeis.org/",
	"query": "id:A016196",
	"count": 1,
	"start": 0,
	"results": [
		{
			"number": 16196,
			"data": "1,22,364,5368,74416,992992,12915904,164990848,2079890176,25958682112,321504185344,3958050224128,48496602689536,591959232274432,7203510787293184,87442129447518208,1059305553370218496",
			"name": "Expansion of 1/((1-10x)*(1-12x)).",
			"link": [
				"\u003ca href=\"/index/Rec\"\u003eIndex entries for linear recurrences with constant coefficients\u003c/a\u003e, signature (22,-120)."
			],
			"formula": [
				"a(n) = 6*12^n - 5*10^n. - _Bruno Berselli_, Feb 09 2011",
				"a(n) = 12*a(n-1) + 10^n, a(0)=1. - _Vincenzo Librandi_, Feb 09 2011",
				"a(n) = 22*a(n-1) - 120*a(n-2); a(0)=1, a(1)=22. - _Vincenzo Librandi_, Feb 09 2011"
			],
			"program": [
				"(PARI) Vec(1/((1-10*x)*(1-12*x))+O(x^99)) \\\\ _Charles R Greathouse IV_, Sep 26 2012"
			],
			"keyword": "nonn,easy",
			"offset": "0,2",
			"author": "_N. J. A. Sloane_",
			"references": 2,
			"revision": 14,
			"time": "2018-08-22T07:48:42-04:00",
			"created": "1999-12-11T03:00:00-05:00"
		}
	]
}