{
	"greeting": "Greetings from The On-Line Encyclopedia of Integer Sequences! http://oeis.org/",
	"query": "id:A016326",
	"count": 1,
	"start": 0,
	"results": [
		{
			"number": 16326,
			"data": "1,24,412,6192,86800,1166592,15249088,195489024,2470868224,30900418560,383305022464,4724660269056,57945923227648,707851078729728,8619212944752640,104680555337023488,1268666664044265472",
			"name": "Expansion of 1/((1-2x)(1-10x)(1-12x)).",
			"link": [
				"Vincenzo Librandi, \u003ca href=\"/A016326/b016326.txt\"\u003eTable of n, a(n) for n = 0..900\u003c/a\u003e",
				"\u003ca href=\"/index/Rec#order_03\"\u003eIndex entries for linear recurrences with constant coefficients\u003c/a\u003e, signature (24,-164, 240)."
			],
			"formula": [
				"From _Vincenzo Librandi_, Oct 09 2011: (Start)",
				"a(n) = (12^(n+2)+2^n-125*10^n)/20.",
				"a(n) = 22*a(n-1) - 120*a(n-2) + 2^n.",
				"a(n) = 24*a(n-1) - 164*a(n-2) + 240*a(n-3), n\u003e=3. (End)"
			],
			"mathematica": [
				"CoefficientList[Series[1/((1-2x)(1-10x)(1-12x)),{x,0,20}],x] (* or *) LinearRecurrence[{24,-164,240},{1,24,412},20] (* _Harvey P. Dale_, Aug 30 2014 *)"
			],
			"program": [
				"(MAGMA) [(12^(n+2)+2^n-125*10^n)/20 : n in [0..20]]; // _Vincenzo Librandi_, Oct 09 2011",
				"(PARI) Vec(1/((1-2*x)*(1-10*x)*(1-12*x))+O(x^99)) \\\\ _Charles R Greathouse IV_, Sep 26 2012"
			],
			"keyword": "nonn,easy",
			"offset": "0,2",
			"author": "_N. J. A. Sloane_.",
			"references": 1,
			"revision": 19,
			"time": "2015-06-22T11:38:42-04:00",
			"created": "1999-12-11T03:00:00-05:00"
		}
	]
}