{
	"greeting": "Greetings from The On-Line Encyclopedia of Integer Sequences! http://oeis.org/",
	"query": "id:A016152",
	"count": 1,
	"start": 0,
	"results": [
		{
			"number": 16152,
			"data": "0,1,12,112,960,7936,64512,520192,4177920,33488896,268173312,2146435072,17175674880,137422176256,1099444518912,8795824586752,70367670435840,562945658454016,4503582447501312,36028728299487232",
			"name": "a(n) = 4^(n-1)*(2^n-1).",
			"comment": [
				"Numbers whose binary representation is the concatenation of n digits 1 and 2(n-1) digits 0, for n\u003e0. (See A147816.) - _Omar E. Pol_, Nov 13 2008",
				"a(n) is the number of lattices L in Z^n such that the quotient group Z^n / L is C_8. - _Álvar Ibeas_, Nov 29 2015"
			],
			"link": [
				"Vincenzo Librandi, \u003ca href=\"/A016152/b016152.txt\"\u003eTable of n, a(n) for n = 0..140\u003c/a\u003e",
				"\u003ca href=\"/index/Rec#order_02\"\u003eIndex entries for linear recurrences with constant coefficients\u003c/a\u003e, signature (12, -32)."
			],
			"formula": [
				"From _Barry E. Williams_, Jan 17 2000: (Start)",
				"a(n) = ((8^(n+1)) - 4^(n+1))/4.",
				"a(n) = 12a(n-1) - 32a(n-2), n\u003e0; a(0)=1. (End)",
				"a(n) = (4^(n-1))*stirling2(n+1, 2), n\u003e=0, with stirling2(n, m)=A008277(n, m).",
				"a(n) = -4^(n-1) + 2*8^(n-1).",
				"E.g.f. for a(n+1), n\u003e=0: d^2/dx^2((((exp(4*x)-1)/4)^2)/2!) = -exp(4*x) + 2*exp(8*x).",
				"G.f.: x/((1-4*x)*(1-8*x)).",
				"((6+sqrt4)^n - (6-sqrt4)^n)/4 in Fibonacci form. Offset 1. a(3)=112. - Al Hakanson (hawkuu(AT)gmail.com), Dec 31 2008",
				"a(n) + A160873(n) + A006096(n) = A006096(n+2), for n \u003e 2. - _Álvar Ibeas_, Nov 29 2015"
			],
			"mathematica": [
				"Table[4^(n - 1) (2^n - 1), {n, 0, 19}] (* _Michael De Vlieger_, Nov 30 2015 *)"
			],
			"program": [
				"(Sage) [lucas_number1(n,12,32) for n in range(0, 20)] # _Zerinvary Lajos_, Apr 27 2009",
				"(MAGMA) [4^(n-1)*(2^n-1): n in [0..40]]; // _Vincenzo Librandi_, Apr 26 2011",
				"(PARI) a(n)=4^(n-1)*(2^n-1) \\\\ _Charles R Greathouse IV_, Oct 07 2015",
				"(PARI) x='x+O('x^100); concat(0, Vec(x/((1-4*x)*(1-8*x)))) \\\\ _Altug Alkan_, Dec 04 2015"
			],
			"xref": [
				"Second column of triangle A075499.",
				"Cf. A019677, A147538, A147816."
			],
			"keyword": "nonn,easy",
			"offset": "0,3",
			"author": "_N. J. A. Sloane_",
			"references": 8,
			"revision": 35,
			"time": "2019-12-07T12:18:20-05:00",
			"created": "1999-12-11T03:00:00-05:00"
		}
	]
}