{
	"greeting": "Greetings from The On-Line Encyclopedia of Integer Sequences! http://oeis.org/",
	"query": "id:A016512",
	"count": 1,
	"start": 0,
	"results": [
		{
			"number": 16512,
			"data": "4,2,3,8,1,4,11,1,68,1,12,1,2,2,1,1,32,2,2,3,1,2,4,1,1,30,2,2,1,1,3,1,106,55,9,1,4,1,1,19,1,5,32,1,1,1,4,2,1,2,3,26,1,1,2,27,4,16,2,9,3,2,9,19,1,1,1,1,9,1,1,3,116",
			"name": "Continued fraction for log(84).",
			"link": [
				"Harry J. Smith, \u003ca href=\"/A016512/b016512.txt\"\u003eTable of n, a(n) for n = 1..20000\u003c/a\u003e"
			],
			"example": [
				"4.430816798843313615335062223... = 4 + 1/(2 + 1/(3 + 1/(8 + 1/(1 + ...)))). - _Harry J. Smith_, May 24 2009"
			],
			"program": [
				"(PARI) { allocatemem(932245000); default(realprecision, 21000); x=contfrac(log(84)); for (n=1, 20000, write(\"b016512.txt\", n, \" \", x[n])); } \\\\ _Harry J. Smith_, May 24 2009"
			],
			"xref": [
				"Cf. A016707 Decimal expansion. - _Harry J. Smith_, May 24 2009"
			],
			"keyword": "nonn,cofr",
			"offset": "1,1",
			"author": "_N. J. A. Sloane_",
			"references": 2,
			"revision": 11,
			"time": "2015-12-24T23:29:33-05:00",
			"created": "1996-12-11T03:00:00-05:00"
		}
	]
}