{
	"greeting": "Greetings from The On-Line Encyclopedia of Integer Sequences! http://oeis.org/",
	"query": "id:A016630",
	"count": 1,
	"start": 0,
	"results": [
		{
			"number": 16630,
			"data": "1,9,4,5,9,1,0,1,4,9,0,5,5,3,1,3,3,0,5,1,0,5,3,5,2,7,4,3,4,4,3,1,7,9,7,2,9,6,3,7,0,8,4,7,2,9,5,8,1,8,6,1,1,8,8,4,5,9,3,9,0,1,4,9,9,3,7,5,7,9,8,6,2,7,5,2,0,6,9,2,6,7,7,8,7,6,5,8,4,9,8,5,8,7,8,7,1,5,2",
			"name": "Decimal expansion of log(7).",
			"reference": [
				"M. Abramowitz and I. A. Stegun, eds., Handbook of Mathematical Functions, National Bureau of Standards Applied Math. Series 55, 1964 (and various reprintings), p. 2.",
				"Uhler, Horace S.; Recalculation and extension of the modulus and of the logarithms of 2, 3, 5, 7 and 17. Proc. Nat. Acad. Sci. U. S. A. 26, (1940). 205-212."
			],
			"link": [
				"Harry J. Smith, \u003ca href=\"/A016630/b016630.txt\"\u003eTable of n, a(n) for n = 1..20000\u003c/a\u003e",
				"M. Abramowitz and I. A. Stegun, eds., \u003ca href=\"http://www.convertit.com/Go/ConvertIt/Reference/AMS55.ASP\"\u003eHandbook of Mathematical Functions\u003c/a\u003e, National Bureau of Standards, Applied Math. Series 55, Tenth Printing, 1972 [alternative scanned copy].",
				"\u003ca href=\"/index/Tra#transcendental\"\u003eIndex entries for transcendental numbers\u003c/a\u003e"
			],
			"formula": [
				"From _Peter Bala_, Nov 11 2019: (Start)",
				"log(7) = 2*sqrt(3)*Integral_{t = 0..sqrt(3)/3} (1 - t^4)/(1 + t^6) dt.",
				"Log(7) = (8/9)*Sum_{n \u003e= 0} (12*n+11)/((6*n+1)*(6*n+5))*(-1/27)^n.",
				"Log(7) = 6*Sum_{n \u003e= 0} ( 243/(12*n+1) - 27/(12*n+5) - 9/(12*n+7) + 1/(12*n+11) )*(1/729)^(n+1), a BPP-type formula. (End)"
			],
			"example": [
				"1.945910149055313305105352743443179729637084729581861188459390149937579..."
			],
			"program": [
				"(PARI) default(realprecision, 20080); x=log(7); for (n=1, 20000, d=floor(x); x=(x-d)*10; write(\"b016630.txt\", n, \" \", d)); \\\\ _Harry J. Smith_, May 16 2009"
			],
			"xref": [
				"Cf. A016735 Continued fraction."
			],
			"keyword": "nonn,cons",
			"offset": "1,2",
			"author": "_N. J. A. Sloane_",
			"ext": [
				"Fixed my PARI program, had -n _Harry J. Smith_, May 19 2009"
			],
			"references": 4,
			"revision": 21,
			"time": "2019-11-11T10:24:33-05:00",
			"created": "1996-12-11T03:00:00-05:00"
		}
	]
}