{
	"greeting": "Greetings from The On-Line Encyclopedia of Integer Sequences! http://oeis.org/",
	"query": "id:A016716",
	"count": 1,
	"start": 0,
	"results": [
		{
			"number": 16716,
			"data": "4,5,3,2,5,9,9,4,9,3,1,5,3,2,5,5,9,3,7,3,2,4,4,0,9,5,6,1,4,6,4,8,8,2,9,1,5,0,9,7,4,2,9,4,8,8,3,0,3,3,4,1,4,2,3,4,9,1,4,1,2,4,0,6,1,1,2,4,7,5,7,0,9,8,1,6,1,6,0,1,9,9,0,8,7,4,8,0,5,8,6,1,4,9,8,1,8,7,1",
			"name": "Decimal expansion of log(93).",
			"link": [
				"Harry J. Smith, \u003ca href=\"/A016716/b016716.txt\"\u003eTable of n, a(n) for n = 1..20000\u003c/a\u003e",
				"M. Abramowitz and I. A. Stegun, eds., \u003ca href=\"http://www.convertit.com/Go/ConvertIt/Reference/AMS55.ASP\"\u003eHandbook of Mathematical Functions\u003c/a\u003e, National Bureau of Standards, Applied Math. Series 55, Tenth Printing, 1972 [alternative scanned copy].",
				"\u003ca href=\"/index/Tra#transcendental\"\u003eIndex entries for transcendental numbers\u003c/a\u003e"
			],
			"example": [
				"4.532599493153255937324409561464882915097429488303341423491412406112475...."
			],
			"mathematica": [
				"RealDigits[Log[93], 10, 100][[1]] (* _G. C. Greubel_, Sep 17 2018 *)"
			],
			"program": [
				"(PARI) default(realprecision, 20080); x=log(93); for (n=1, 20000, d=floor(x); x=(x-d)*10; write(\"b016716.txt\", n, \" \", d)); \\\\ _Harry J. Smith_, May 25 2009",
				"(MAGMA) SetDefaultRealField(RealField(100)); Log(93); // _G. C. Greubel_, Sep 17 2018"
			],
			"xref": [
				"Cf. A016521 (continued fraction)."
			],
			"keyword": "nonn,cons",
			"offset": "1,1",
			"author": "_N. J. A. Sloane_",
			"references": 2,
			"revision": 21,
			"time": "2019-05-15T11:07:11-04:00",
			"created": "1996-12-11T03:00:00-05:00"
		}
	]
}