{
	"greeting": "Greetings from The On-Line Encyclopedia of Integer Sequences! http://oeis.org/",
	"query": "id:A016028",
	"count": 1,
	"start": 0,
	"results": [
		{
			"number": 16028,
			"data": "1,2,3,4,6,9,13,18,24,31,39,48,58,69,81,94,108,123,139,156,174,193,213,234,256,279,303,328,354,381,409,438,468,499,531,564,598,633,669,706,744,783,823,864,906,949,993,1038,1084,1131,1179",
			"name": "Expansion of (1 - x + x^4) / (1 - x)^3.",
			"comment": [
				"For n\u003e2, maximal number of edges in critical strongly connected digraphs on n-1 vertices.",
				"If Y is a 3-subset of an n-set X then, for n\u003e=3, a(n) is the number of 2-subsets of X which have no exactly one element in common with Y. Also, if Y is a 3-subset of an n-set X then, for n\u003e=4, a(n-3) is the number of (n-2)-subsets of X which have no exactly two elements in common with Y. - _Milan Janjic_, Dec 28 2007"
			],
			"link": [
				"G. C. Greubel, \u003ca href=\"/A016028/b016028.txt\"\u003eTable of n, a(n) for n = 1..5000\u003c/a\u003e",
				"R. Aharoni and E. Berger, \u003ca href=\"http://arXiv.org/abs/math.CO/9911113\"\u003eThe number of edges in critical strongly connected graphs\u003c/a\u003e, arXiv:math/9911113 [math.CO], 1999.",
				"\u003ca href=\"/index/Rec#order_03\"\u003eIndex entries for linear recurrences with constant coefficients\u003c/a\u003e, signature (3,-3,1)."
			],
			"formula": [
				"Also, from the third term on, triangular numbers + 3. - _Alexandre Wajnberg_, Dec 10 2005",
				"a(n) = binomial(n,2) - 3*n + 9, n\u003e=3. a(n-3) = n^2/2 - 7*n/2 + 9, n\u003e=4. - _Milan Janjic_, Dec 28 2007"
			],
			"mathematica": [
				"i=0;s=3;lst={1, 2};Do[s+=n+i;AppendTo[lst, s], {n, 0, 6!, 1}];lst (* _Vladimir Joseph Stephan Orlovsky_, Oct 30 2008 *)",
				"CoefficientList[Series[(1-x+x^4)/(1-x)^3,{x,0,50}],x] (* or *) LinearRecurrence[{3,-3,1},{1,2,3,4,6},60] (* _Harvey P. Dale_, Nov 30 2015 *)"
			],
			"program": [
				"(PARI) Vec((1-x+x^4)/(1-x)^3+O(x^99)) \\\\ _Charles R Greathouse IV_, Sep 25 2012"
			],
			"xref": [
				"Essentially triangular numbers (A000217) plus 3. Cf. A000124."
			],
			"keyword": "nonn,easy",
			"offset": "1,2",
			"author": "_Robert G. Wilson v_",
			"ext": [
				"Definition corrected by _Harvey P. Dale_, Nov 30 2015"
			],
			"references": 5,
			"revision": 28,
			"time": "2017-07-13T03:06:32-04:00",
			"created": "1999-12-11T03:00:00-05:00"
		}
	]
}