{
	"greeting": "Greetings from The On-Line Encyclopedia of Integer Sequences! http://oeis.org/",
	"query": "id:A016738",
	"count": 1,
	"start": 0,
	"results": [
		{
			"number": 16738,
			"data": "2,3,3,3,1,1,3,6,3,3,1,4,2,1,2,1,3,26,5,1,23,1,1,1,2,2,3,19,1,3,716,1,2,1,1,2,2,1,22,1,17,4,1,13,7,3,5,1,1,1,1,1,7,7,1,1,4,2,1,15,1,4,2,4,1,28,1,1,2,4,1,3,6,1,9,2,4,3,1,4,3,4,1,24,16,4,6,1,33,20,9,1,1,7,24,4,2",
			"name": "Continued fraction for log(10).",
			"link": [
				"Harry J. Smith, \u003ca href=\"/A016738/b016738.txt\"\u003eTable of n, a(n) for n = 1..20000\u003c/a\u003e",
				"G. Xiao, \u003ca href=\"http://wims.unice.fr/~wims/en_tool~number~contfrac.en.html\"\u003eContfrac\u003c/a\u003e"
			],
			"example": [
				"2.302585092994045684017991454... = 2 + 1/(3 + 1/(3 + 1/(3 + 1/(1 + ...)))). - _Harry J. Smith_, May 16 2009"
			],
			"mathematica": [
				"ContinuedFraction[ Log[10], 75 ]"
			],
			"program": [
				"(PARI) { allocatemem(932245000); default(realprecision, 21000); x=contfrac(log(10)); for (n=1, 20000, write(\"b016738.txt\", n, \" \", x[n])); } \\\\ _Harry J. Smith_, Apr 16 2009",
				"(MAGMA) ContinuedFraction(Log(10)); // _G. C. Greubel_, Sep 15 2018"
			],
			"xref": [
				"Cf. A002392 Decimal expansion. - _Harry J. Smith_, May 16 2009"
			],
			"keyword": "nonn,cofr",
			"offset": "1,1",
			"author": "_N. J. A. Sloane_",
			"ext": [
				"More terms from _Robert G. Wilson v_, Dec 07 2000"
			],
			"references": 2,
			"revision": 17,
			"time": "2018-09-16T01:51:06-04:00",
			"created": "1996-12-11T03:00:00-05:00"
		}
	]
}