{
	"greeting": "Greetings from The On-Line Encyclopedia of Integer Sequences! http://oeis.org/",
	"query": "id:A016013",
	"count": 1,
	"start": 0,
	"results": [
		{
			"number": 16013,
			"data": "2,1,2,4,8,6,32,64,12,256,512,24,2048,36,30,16384,32768,96,72,262144,192,1,2",
			"name": "Probably an erroneous version of A016017.",
			"keyword": "dead",
			"offset": "1,1",
			"references": 0,
			"revision": 14,
			"time": "2018-12-26T14:01:23-05:00",
			"created": "1999-12-11T03:00:00-05:00"
		}
	]
}