{
	"greeting": "Greetings from The On-Line Encyclopedia of Integer Sequences! http://oeis.org/",
	"query": "id:A016648",
	"count": 1,
	"start": 0,
	"results": [
		{
			"number": 16648,
			"data": "3,2,1,8,8,7,5,8,2,4,8,6,8,2,0,0,7,4,9,2,0,1,5,1,8,6,6,6,4,5,2,3,7,5,2,7,9,0,5,1,2,0,2,7,0,8,5,3,7,0,3,5,4,4,3,8,2,5,2,9,5,7,8,2,9,4,8,3,5,7,9,7,5,4,1,5,3,1,5,5,2,9,2,6,0,2,6,7,7,5,6,1,8,6,3,5,9,2,2",
			"name": "Decimal expansion of log(25).",
			"reference": [
				"M. Abramowitz and I. A. Stegun, eds., Handbook of Mathematical Functions, National Bureau of Standards Applied Math. Series 55, 1964 (and various reprintings), p. 2."
			],
			"link": [
				"Harry J. Smith, \u003ca href=\"/A016648/b016648.txt\"\u003eTable of n, a(n) for n = 1..20000\u003c/a\u003e",
				"M. Abramowitz and I. A. Stegun, eds., \u003ca href=\"http://www.convertit.com/Go/ConvertIt/Reference/AMS55.ASP\"\u003eHandbook of Mathematical Functions\u003c/a\u003e, National Bureau of Standards, Applied Math. Series 55, Tenth Printing, 1972 [alternative scanned copy].",
				"\u003ca href=\"/index/Tra#transcendental\"\u003eIndex entries for transcendental numbers\u003c/a\u003e"
			],
			"formula": [
				"Equals 10 * Sum_{k\u003e=1} F(k)^2/(k * 4^k), where F(k) is the k-th Fibonacci number (A000045). - _Amiram Eldar_, Aug 09 2020"
			],
			"example": [
				"3.218875824868200749201518666452375279051202708537035443825295782948357...."
			],
			"mathematica": [
				"RealDigits[Log[25], 10, 120][[1]] (* _Vincenzo Librandi_, Jun 21 2015 *)"
			],
			"program": [
				"(PARI) default(realprecision, 20080); x=log(25); for (n=1, 20000, d=floor(x); x=(x-d)*10; write(\"b016648.txt\", n, \" \", d)); \\\\ _Harry J. Smith_, May 19 2009"
			],
			"xref": [
				"Cf. A000045, A016453 (continued fraction)."
			],
			"keyword": "nonn,cons",
			"offset": "1,1",
			"author": "_N. J. A. Sloane_",
			"references": 3,
			"revision": 25,
			"time": "2020-08-09T17:03:54-04:00",
			"created": "1996-12-11T03:00:00-05:00"
		}
	]
}