{
	"greeting": "Greetings from The On-Line Encyclopedia of Integer Sequences! http://oeis.org/",
	"query": "id:A016271",
	"count": 1,
	"start": 0,
	"results": [
		{
			"number": 16271,
			"data": "1,1,0,-1,-1,0,1,1,0,-1,-1,0,1,0,-1,-1,0,1,1,0,-1,-1,0,1,1,0,0,0,0,-1,-1,0,1,1,0,-1,-1,0,1,1,0,-1,0,1,1,0,-1,-1,0,1,1,0,-1,-1,0,0,0,0,1,1,0,-1,-1,0,1,1,0,-1,-1,0,1,0,-1,-1,0,1,1,0,-1,-1,0",
			"name": "Inverse of 2262nd cyclotomic polynomial.",
			"comment": [
				"Periodic with period length 2262. - _Ray Chandler_, Apr 07 2017"
			],
			"link": [
				"Ray Chandler, \u003ca href=\"/A016271/b016271.txt\"\u003eTable of n, a(n) for n = 0..3000\u003c/a\u003e",
				"\u003ca href=\"/index/Rec#order_672\"\u003eIndex entries for linear recurrences with constant coefficients\u003c/a\u003e, order 672.",
				"\u003ca href=\"/index/Pol#poly_cyclo_inv\"\u003eIndex to sequences related to inverse of cyclotomic polynomials\u003c/a\u003e"
			],
			"maple": [
				"with(numtheory,cyclotomic); c := n-\u003eseries(1/cyclotomic(n,x),x,80);"
			],
			"keyword": "sign",
			"offset": "0,1",
			"author": "_Simon Plouffe_",
			"references": 1,
			"revision": 15,
			"time": "2017-04-07T21:05:49-04:00",
			"created": "1996-12-11T03:00:00-05:00"
		}
	]
}