{
	"greeting": "Greetings from The On-Line Encyclopedia of Integer Sequences! http://oeis.org/",
	"query": "id:A016499",
	"count": 1,
	"start": 0,
	"results": [
		{
			"number": 16499,
			"data": "4,3,1,4,5,1,1,2,2,6,48,8,1,26,6,14,1,1,4,1,2,1,7,4,2,2,4,1,7,2,10,1,5,1,4,3,4,9,9,1,5,1,5,6,1,3,4,10,743,1,16,1,2,1,11,1,3,1,3,1,2,2,4,5,33,4,12,1,6,1,1,18,1,1,1,1",
			"name": "Continued fraction for log(71).",
			"link": [
				"Harry J. Smith, \u003ca href=\"/A016499/b016499.txt\"\u003eTable of n, a(n) for n = 1..20000\u003c/a\u003e"
			],
			"example": [
				"4.262679877041315421329454532... = 4 + 1/(3 + 1/(1 + 1/(4 + 1/(5 + ...)))). - _Harry J. Smith_, May 23 2009"
			],
			"program": [
				"(PARI) { allocatemem(932245000); default(realprecision, 21000); x=contfrac(log(71)); for (n=1, 20000, write(\"b016499.txt\", n, \" \", x[n])); } \\\\ _Harry J. Smith_, May 23 2009"
			],
			"xref": [
				"Cf. A016694 Decimal expansion. - _Harry J. Smith_, May 23 2009"
			],
			"keyword": "nonn,cofr",
			"offset": "1,1",
			"author": "_N. J. A. Sloane_",
			"references": 2,
			"revision": 11,
			"time": "2015-12-24T23:32:04-05:00",
			"created": "1996-12-11T03:00:00-05:00"
		}
	]
}