{
	"greeting": "Greetings from The On-Line Encyclopedia of Integer Sequences! http://oeis.org/",
	"query": "id:A016129",
	"count": 1,
	"start": 0,
	"results": [
		{
			"number": 16129,
			"data": "1,8,52,320,1936,11648,69952,419840,2519296,15116288,90698752,544194560,3265171456,19591036928,117546237952,705277460480,4231664828416,25389989101568,152339934871552,914039609753600",
			"name": "Expansion of 1/((1-2x)(1-6x)).",
			"comment": [
				"a(n) = sum of n-th row in triangle A100851. - _Reinhard Zumkeller_, Nov 20 2004"
			],
			"link": [
				"Vincenzo Librandi, \u003ca href=\"/A016129/b016129.txt\"\u003eTable of n, a(n) for n = 0..900\u003c/a\u003e",
				"\u003ca href=\"/index/Rec\u0026#34;order_02\"\u003eIndex entries for linear recurrences with constant coefficients\u003c/a\u003e, signature (8,-12)"
			],
			"formula": [
				"a(n)= A071951(n+2, 2) = 9*(2*3)^(n-1) - (2*1)^(n-1) = (2^(n-1))*(3^(n+1)-1), n\u003e=0. - _Wolfdieter Lang_, Nov 07 2003",
				"From Lambert Klasen (lambert.klasen(AT)gmx.net), Feb 05 2005: (Start)",
				"G.f.: 1/((1-2*x)*(1-6*x)).",
				"E.g.f.: (-exp(2*x) + 3*exp(6*x))/2.",
				"a(n) = (6^(n+1) - 2^(n+1))/4. (End)",
				"a(n)^2 = A144843(n+1). - _Philippe Deléham_, Nov 26 2008",
				"a(n-1) = ((4+sqrt4)^n - (4-sqrt4)^n)/4 in Fibonacci form. - Al Hakanson (hawkuu(AT)gmail.com), Dec 31 2008",
				"a(n) = 8*a(n-1) - 12*a(n-2). - _Philippe Deléham_, Jan 01 2009",
				"a(n) = det(|ps(i+2,j+1)|, 1 \u003c= i,j \u003c= n), where ps(n,k) are Legendre-Stirling numbers of the first kind (A129467). - _Mircea Merca_, Apr 06 2013"
			],
			"mathematica": [
				"Join[{a=1,b=8},Table[c=8*b-12*a;a=b;b=c,{n,60}]] (* _Vladimir Joseph Stephan Orlovsky_, Jan 19 2011 *)",
				"CoefficientList[Series[1/((1-2x)(1-6x)),{x,0,30}],x] (* or *) LinearRecurrence[{8,-12},{1,8},30] (* _Harvey P. Dale_, Jan 15 2015 *)"
			],
			"program": [
				"(Sage) [lucas_number1(n,8,12) for n in range(1, 21)] # _Zerinvary Lajos_, Apr 23 2009",
				"(Sage) [(6^n - 2^n)/4 for n in range(1,21)] # _Zerinvary Lajos_, Jun 04 2009",
				"(MAGMA) [(6^(n+1)-2^(n+1))/4 : n in [0..20]]; // _Vincenzo Librandi_, Oct 09 2011",
				"(PARI) Vec(1/(1-2*x)/(1-6*x)+O(x^99)) \\\\ _Charles R Greathouse IV_, Apr 17 2012"
			],
			"xref": [
				"Cf. A089278, A089500."
			],
			"keyword": "nonn,easy",
			"offset": "0,2",
			"author": "_N. J. A. Sloane_",
			"references": 20,
			"revision": 45,
			"time": "2019-12-07T12:18:20-05:00",
			"created": "1999-12-11T03:00:00-05:00"
		}
	]
}