{
	"greeting": "Greetings from The On-Line Encyclopedia of Integer Sequences! http://oeis.org/",
	"query": "id:A016538",
	"count": 1,
	"start": 0,
	"results": [
		{
			"number": 16538,
			"data": "2,2,1,5,2,30,10,2,1,1,1,1,38,1,1,1,1,6,2,2,1,26,1,1,2,2,2,1,42,2,2,1,5,2,2,7,1,1,2,5,1,1,3,1,1,1,1,1,4,1,2,2,1,1,5,2,3,1,1,1,2,9,1,1,2,1,3,2,1,1,7,2,3,2,2,2,1,21,1",
			"name": "Continued fraction for log(21/2).",
			"link": [
				"Harry J. Smith, \u003ca href=\"/A016538/b016538.txt\"\u003eTable of n, a(n) for n = 1..20000\u003c/a\u003e",
				"G. Xiao, \u003ca href=\"http://wims.unice.fr/~wims/en_tool~number~contfrac.en.html\"\u003eContfrac\u003c/a\u003e"
			],
			"example": [
				"2.351375257163477687083365858... = 2 + 1/(2 + 1/(1 + 1/(5 + 1/(2 + ...)))). - _Harry J. Smith_, May 26 2009"
			],
			"mathematica": [
				"ContinuedFraction[Log[21/2],80] (* _Harvey P. Dale_, Jun 19 2013 *)"
			],
			"program": [
				"(PARI) { allocatemem(932245000); default(realprecision, 21000); x=contfrac(log(21/2)); for (n=1, 20000, write(\"b016538.txt\", n, \" \", x[n])); } \\\\ _Harry J. Smith_, May 26 2009"
			],
			"xref": [
				"Cf. A016587 Decimal expansion. - _Harry J. Smith_, May 26 2009"
			],
			"keyword": "nonn,cofr",
			"offset": "1,1",
			"author": "_N. J. A. Sloane_",
			"references": 2,
			"revision": 14,
			"time": "2015-12-24T23:25:12-05:00",
			"created": "1996-12-11T03:00:00-05:00"
		}
	]
}