{
	"greeting": "Greetings from The On-Line Encyclopedia of Integer Sequences! http://oeis.org/",
	"query": "id:A016965",
	"count": 1,
	"start": 0,
	"results": [
		{
			"number": 16965,
			"data": "262144,1000000000,68719476736,1207269217792,10578455953408,60716992766464,262144000000000,922190162669056,2779905883635712,7427658739644928,18014398509481984,40353607000000000,84590643846578176",
			"name": "a(n) = (6*n + 4)^9.",
			"link": [
				"Vincenzo Librandi, \u003ca href=\"/A016965/b016965.txt\"\u003eTable of n, a(n) for n = 0..1000\u003c/a\u003e",
				"\u003ca href=\"/index/Rec#order_10\"\u003eIndex entries for linear recurrences with constant coefficients\u003c/a\u003e, signature (10, -45, 120, -210, 252, -210, 120, -45, 10, -1)."
			],
			"mathematica": [
				"(6*Range[0,20]+4)^9 (* or *) LinearRecurrence[{10,-45,120,-210,252,-210,120,-45,10,-1},{262144,1000000000,68719476736,1207269217792,10578455953408,60716992766464,262144000000000,922190162669056,2779905883635712,7427658739644928},20] (* _Harvey P. Dale_, Mar 04 2016 *)"
			],
			"program": [
				"(MAGMA) [(6*n+4)^9: n in [0..20]]; // _Vincenzo Librandi_, May 07 2011"
			],
			"keyword": "nonn,easy",
			"offset": "0,1",
			"author": "_N. J. A. Sloane_",
			"references": 1,
			"revision": 11,
			"time": "2018-09-08T02:42:26-04:00",
			"created": "1996-12-11T03:00:00-05:00"
		}
	]
}