{
	"greeting": "Greetings from The On-Line Encyclopedia of Integer Sequences! http://oeis.org/",
	"query": "id:A016445",
	"count": 1,
	"start": 0,
	"results": [
		{
			"number": 16445,
			"data": "2,1,4,1,230,1,2,50,1,11,2,2,1,1,7,1,8,1,90,1,3,2,5,5,1,2,3,2,4,1,17,1,401,13,2,1,22,3,1,8,1,22,1,4,1,1,3,1,2,3,3,2,7,32,1,14,2,1,1,1,3,1,6,58,1,1,1,1,1,1,3,2,6,1,3",
			"name": "Continued fraction for log(17).",
			"link": [
				"Harry J. Smith, \u003ca href=\"/A016445/b016445.txt\"\u003eTable of n, a(n) for n = 1..20000\u003c/a\u003e"
			],
			"example": [
				"2.8332133440562160802495346... = 2 + 1/(1 + 1/(4 + 1/(1 + 1/(230 + ...)))). - _Harry J. Smith_, May 17 2009"
			],
			"mathematica": [
				"ContinuedFraction[Log[17],120] (* _Harvey P. Dale_, Sep 20 2017 *)"
			],
			"program": [
				"(PARI) { allocatemem(932245000); default(realprecision, 21000); x=contfrac(log(17)); for (n=1, 20000, write(\"b016445.txt\", n, \" \", x[n])); } \\\\ _Harry J. Smith_, May 17 2009"
			],
			"xref": [
				"Cf. A016640 Decimal expansion. - _Harry J. Smith_, May 17 2009"
			],
			"keyword": "nonn,cofr",
			"offset": "1,1",
			"author": "_N. J. A. Sloane_",
			"references": 2,
			"revision": 14,
			"time": "2017-09-20T16:13:45-04:00",
			"created": "1996-12-11T03:00:00-05:00"
		}
	]
}