{
	"greeting": "Greetings from The On-Line Encyclopedia of Integer Sequences! http://oeis.org/",
	"query": "id:A017773",
	"count": 1,
	"start": 0,
	"results": [
		{
			"number": 17773,
			"data": "1,57,1596,29260,395010,4187106,36288252,264385836,1652411475,8996462475,43183019880,184509266760,707285522580,2448296039700,7694644696200,22057981462440,57902201338905,139646485582065,310325523515700,636983969321700",
			"name": "Binomial coefficients C(57,n).",
			"comment": [
				"Row 57 of A007318."
			],
			"link": [
				"Nathaniel Johnston, \u003ca href=\"/A017773/b017773.txt\"\u003eTable of n, a(n) for n = 0..57\u003c/a\u003e (full sequence)"
			],
			"formula": [
				"From _G. C. Greubel_, Nov 13 2018: (Start)",
				"G.f.: (1+x)^57.",
				"E.g.f.: 1F1(-57; 1; -x), where 1F1 is the confluent hypergeometric function. (End)"
			],
			"maple": [
				"seq(binomial(57,n), n=0..57); # _Nathaniel Johnston_, Jun 24 2011"
			],
			"mathematica": [
				"Binomial[57, Range[0,57]] (* _G. C. Greubel_, Nov 13 2018 *)"
			],
			"program": [
				"(Sage) [binomial(57, n) for n in range(58)] # _Zerinvary Lajos_, May 28 2009",
				"(PARI) vector(57, n, n--; binomial(57,n)) \\\\ _G. C. Greubel_, Nov 13 2018",
				"(MAGMA) [Binomial(57,n): n in [0..57]]; // _G. C. Greubel_, Nov 13 2018"
			],
			"xref": [
				"Cf. A010926-A011001, A017765-A017772, A017774-A017816."
			],
			"keyword": "nonn,fini,full,easy",
			"offset": "0,2",
			"author": "_N. J. A. Sloane_",
			"references": 3,
			"revision": 20,
			"time": "2018-11-15T01:39:30-05:00",
			"created": "1996-12-11T03:00:00-05:00"
		}
	]
}