{
	"greeting": "Greetings from The On-Line Encyclopedia of Integer Sequences! http://oeis.org/",
	"query": "id:A017586",
	"count": 1,
	"start": 0,
	"results": [
		{
			"number": 17586,
			"data": "15625,24137569,594823321,4750104241,22164361129,75418890625,208422380089,496981290961,1061520150601,2081951752609,3814697265625,6611856250609,10942526586601,17416274304961",
			"name": "(12n+5)^6.",
			"link": [
				"\u003ca href=\"/index/Rec#order_07\"\u003eIndex entries for linear recurrences with constant coefficients\u003c/a\u003e, signature (7, -21, 35, -35, 21, -7, 1)."
			],
			"mathematica": [
				"(12Range[0,20]+5)^6  (* _Harvey P. Dale_, Mar 06 2011 *)"
			],
			"keyword": "nonn,easy",
			"offset": "0,1",
			"author": "_N. J. A. Sloane_",
			"references": 0,
			"revision": 12,
			"time": "2017-07-17T10:14:44-04:00",
			"created": "1996-12-11T03:00:00-05:00"
		}
	]
}