{
	"greeting": "Greetings from The On-Line Encyclopedia of Integer Sequences! http://oeis.org/",
	"query": "id:A017248",
	"count": 1,
	"start": 0,
	"results": [
		{
			"number": 17248,
			"data": "2401,65536,390625,1336336,3418801,7311616,13845841,24010000,38950081,59969536,88529281,126247696,174900625,236421376,312900721,406586896,519885601,655360000,815730721,1003875856",
			"name": "a(n) = (9*n + 7)^4.",
			"link": [
				"Vincenzo Librandi, \u003ca href=\"/A017248/b017248.txt\"\u003eTable of n, a(n) for n = 0..10000\u003c/a\u003e",
				"\u003ca href=\"/index/Rec#order_05\"\u003eIndex entries for linear recurrences with constant coefficients\u003c/a\u003e, signature (5, -10, 10, -5, 1)."
			],
			"formula": [
				"G.f.: -(2401 + 53531*x + 86955*x^2 + 14561*x^3 + 16*x^4)/(x-1)^5. - _R. J. Mathar_, Mar 20 2018"
			],
			"program": [
				"(MAGMA) [(9*n+7)^4: n in [0..35]]; // _Vincenzo Librandi_, Jul 27 2011"
			],
			"keyword": "nonn,easy",
			"offset": "0,1",
			"author": "_N. J. A. Sloane_",
			"references": 1,
			"revision": 13,
			"time": "2018-10-20T11:05:26-04:00",
			"created": "1996-12-11T03:00:00-05:00"
		}
	]
}