{
	"greeting": "Greetings from The On-Line Encyclopedia of Integer Sequences! http://oeis.org/",
	"query": "id:A017663",
	"count": 1,
	"start": 0,
	"results": [
		{
			"number": 17663,
			"data": "285311670611,952809757913927,96549157373046875,2472159215084012303,30155888444737842659,231122292121701565271,1287831418538085836267,5688000922764599609375,21048519522998348950643,67766737102405685929319",
			"name": "a(n) = (12*n + 11)^11.",
			"link": [
				"\u003ca href=\"/index/Rec#order_12\"\u003eIndex entries for linear recurrences with constant coefficients\u003c/a\u003e, signature (12, -66, 220, -495, 792, -924, 792, -495, 220, -66, 12, -1)."
			],
			"mathematica": [
				"(12Range[0,10]+11)^11  (* _Harvey P. Dale_, Feb 02 2011 *)"
			],
			"keyword": "nonn,easy",
			"offset": "0,1",
			"author": "_N. J. A. Sloane_",
			"references": 0,
			"revision": 14,
			"time": "2019-05-19T16:51:27-04:00",
			"created": "1996-12-11T03:00:00-05:00"
		}
	]
}