{
	"greeting": "Greetings from The On-Line Encyclopedia of Integer Sequences! http://oeis.org/",
	"query": "id:A017013",
	"count": 1,
	"start": 0,
	"results": [
		{
			"number": 17013,
			"data": "512,387420489,68719476736,1801152661463,19683000000000,129961739795077,618121839509504,2334165173090451,7427658739644928,20711912837890625,51998697814228992,119851595982618319",
			"name": "a(n) = (7*n + 2)^9.",
			"link": [
				"Vincenzo Librandi, \u003ca href=\"/A017013/b017013.txt\"\u003eTable of n, a(n) for n = 0..10000\u003c/a\u003e",
				"\u003ca href=\"/index/Rec#order_10\"\u003eIndex entries for linear recurrences with constant coefficients\u003c/a\u003e, signature (10, -45, 120, -210, 252, -210, 120, -45, 10, -1)."
			],
			"maple": [
				"A017013:=n-\u003e(7*n+2)^9; seq(A017013(k), k=0..100); # _Wesley Ivan Hurt_, Nov 05 2013"
			],
			"mathematica": [
				"Table[(7n+2)^9, {n,0,100}] (* _Wesley Ivan Hurt_, Nov 05 2013 *)"
			],
			"program": [
				"(MAGMA) [(7*n+2)^9: n in [0..25]]; // _Vincenzo Librandi_, Jul 13 2011",
				"(PARI) a(n) = (7*n+2)^9; \\\\ _Altug Alkan_, Oct 13 2018",
				"(GAP) List([0..15],n-\u003e(7*n+2)^9); # _Muniru A Asiru_, Oct 13 2018"
			],
			"keyword": "nonn,easy",
			"offset": "0,1",
			"author": "_N. J. A. Sloane_",
			"references": 1,
			"revision": 20,
			"time": "2018-10-13T09:13:12-04:00",
			"created": "1996-12-11T03:00:00-05:00"
		}
	]
}