{
	"greeting": "Greetings from The On-Line Encyclopedia of Integer Sequences! http://oeis.org/",
	"query": "id:A017261",
	"count": 1,
	"start": 0,
	"results": [
		{
			"number": 17261,
			"data": "32768,1419857,11881376,52521875,164916224,418195493,916132832,1804229351,3276800000,5584059449,9039207968,14025517307,21003416576,30517578125,43204003424,59797108943,81136812032",
			"name": "a(n) = (9*n + 8)^5.",
			"link": [
				"Vincenzo Librandi, \u003ca href=\"/A017261/b017261.txt\"\u003eTable of n, a(n) for n = 0..10000\u003c/a\u003e",
				"\u003ca href=\"/index/Rec#order_06\"\u003eIndex entries for linear recurrences with constant coefficients\u003c/a\u003e, signature (6, -15, 20, -15, 6, -1)."
			],
			"formula": [
				"G.f.: (32768 + 1223249*x + 3853754*x^2 + 1876114*x^3 + 99994*x^4 + x^5)/(x-1)^6. - _R. J. Mathar_, Mar 20 2018"
			],
			"program": [
				"(MAGMA) [(9*n+8)^5: n in [0..20]]; // _Vincenzo Librandi_, Jul 28 2011"
			],
			"keyword": "nonn,easy",
			"offset": "0,1",
			"author": "_N. J. A. Sloane_",
			"references": 1,
			"revision": 13,
			"time": "2018-10-20T11:30:47-04:00",
			"created": "1996-12-11T03:00:00-05:00"
		}
	]
}