{
	"greeting": "Greetings from The On-Line Encyclopedia of Integer Sequences! http://oeis.org/",
	"query": "id:A017677",
	"count": 1,
	"start": 0,
	"results": [
		{
			"number": 17677,
			"data": "1,129,2188,16513,78126,23521,823544,2113665,4785157,5039127,19487172,9032611,62748518,13279647,56979896,270549121,410338674,205761751,893871740,645047319,1801914272,628461297",
			"name": "Numerator of sum of -7th powers of divisors of n.",
			"comment": [
				"Sum_{d|n} 1/d^k is equal to sigma_k(n)/n^k. So sequences A017665-A017712 also give the numerators and denominators of sigma_k(n)/n^k for k = 1..24. The power sums sigma_k(n) are in sequences A000203 (k=1), A001157-A001160 (k=2,3,4,5), A013954-A013972 for k = 6,7,...,24. - Ahmed Fares (ahmedfares(AT)my-deja.com), Apr 05 2001"
			],
			"link": [
				"G. C. Greubel, \u003ca href=\"/A017677/b017677.txt\"\u003eTable of n, a(n) for n = 1..10000\u003c/a\u003e"
			],
			"formula": [
				"Numerators of coefficients in expansion of Sum_{k\u003e=1} x^k/(k^7*(1 - x^k)). - _Ilya Gutkovskiy_, May 25 2018"
			],
			"example": [
				"1, 129/128, 2188/2187, 16513/16384, 78126/78125, 23521/23328, 823544/823543, 2113665/2097152, ..."
			],
			"mathematica": [
				"Table[Numerator[Total[Divisors[n]^-7]],{n,30}] (* _Harvey P. Dale_, Nov 29 2014 *)",
				"Table[Numerator[DivisorSigma[7, n]/n^7], {n, 1, 20}] (* _G. C. Greubel_, Nov 07 2018 *)"
			],
			"program": [
				"(PARI) vector(20, n, numerator(sigma(n, 7)/n^7)) \\\\ _G. C. Greubel_, Nov 07 2018",
				"(MAGMA) [Numerator(DivisorSigma(7,n)/n^7): n in [1..20]]; // _G. C. Greubel_, Nov 07 2018"
			],
			"xref": [
				"Cf. A017678."
			],
			"keyword": "nonn,frac",
			"offset": "1,2",
			"author": "_N. J. A. Sloane_",
			"references": 3,
			"revision": 16,
			"time": "2018-11-07T21:49:28-05:00",
			"created": "1996-12-11T03:00:00-05:00"
		}
	]
}