{
	"greeting": "Greetings from The On-Line Encyclopedia of Integer Sequences! http://oeis.org/",
	"query": "id:A017394",
	"count": 1,
	"start": 0,
	"results": [
		{
			"number": 17394,
			"data": "0,1771561,113379904,1291467969,7256313856,27680640625,82653950016,208422380089,464404086784,941480149401,1771561000000,3138428376721,5289852801024,8550986578849,13339032325696",
			"name": "a(n) = (11*n)^6.",
			"link": [
				"Vincenzo Librandi, \u003ca href=\"/A017394/b017394.txt\"\u003eTable of n, a(n) for n = 0..10000\u003c/a\u003e",
				"\u003ca href=\"/index/Rec#order_07\"\u003eIndex entries for linear recurrences with constant coefficients\u003c/a\u003e, signature (7, -21, 35, -35, 21, -7, 1)."
			],
			"mathematica": [
				"(11 Range[0, 16])^6 (* _Harvey P. Dale_, Jan 31 2011 *)"
			],
			"program": [
				"(MAGMA) [(11*n)^6: n in [0..20]]; // _Vincenzo Librandi_, Sep 02 2011"
			],
			"keyword": "nonn,easy",
			"offset": "0,2",
			"author": "_N. J. A. Sloane_",
			"references": 1,
			"revision": 16,
			"time": "2018-11-11T20:53:38-05:00",
			"created": "1996-12-11T03:00:00-05:00"
		}
	]
}