{
	"greeting": "Greetings from The On-Line Encyclopedia of Integer Sequences! http://oeis.org/",
	"query": "id:A017959",
	"count": 1,
	"start": 0,
	"results": [
		{
			"number": 17959,
			"data": "1,4,18,76,324,1375,5832,24743,104976,445375,1889568,8016758,34012224,144301645,612220032,2597429617,11019960576,46753733110,198359290368,841567195983,3570467226624,15148209527701",
			"name": "Powers of sqrt(18) rounded to nearest integer.",
			"link": [
				"Vincenzo Librandi, \u003ca href=\"/A017959/b017959.txt\"\u003eTable of n, a(n) for n = 0..1000\u003c/a\u003e"
			],
			"maple": [
				"Digits:=1500: A017959:=n-\u003eround(sqrt(18)^n): seq(A017959(n), n=0..30); # _Wesley Ivan Hurt_, Apr 18 2017"
			],
			"mathematica": [
				"Floor[(Sqrt[18])^Range[0,25]+1/2] (* _Vincenzo Librandi_, Nov 20 2011 *)"
			],
			"program": [
				"(PARI) a(n)=round(sqrt(18)^n) \\\\ _Charles R Greathouse IV_, Nov 18 2011",
				"(MAGMA) [Round(Sqrt(18)^n): n in [0..30]]; // _Vincenzo Librandi_, Nov 20 2011"
			],
			"xref": [
				"Cf. A010474, A001027 (bisection)."
			],
			"keyword": "nonn,easy",
			"offset": "0,2",
			"author": "_N. J. A. Sloane_",
			"references": 1,
			"revision": 19,
			"time": "2020-06-09T05:45:44-04:00",
			"created": "1996-12-11T03:00:00-05:00"
		}
	]
}