{
	"greeting": "Greetings from The On-Line Encyclopedia of Integer Sequences! http://oeis.org/",
	"query": "id:A017530",
	"count": 1,
	"start": 0,
	"results": [
		{
			"number": 17530,
			"data": "0,61917364224,63403380965376,3656158440062976,64925062108545024,604661760000000000,3743906242624487424,17490122876598091776,66483263599150104576,215892499727278669824,619173642240000000000",
			"name": "(12n)^10.",
			"link": [
				"\u003ca href=\"/index/Rec#order_11\"\u003eIndex entries for linear recurrences with constant coefficients\u003c/a\u003e, signature (11, -55, 165, -330, 462, -462, 330, -165, 55, -11, 1)."
			],
			"mathematica": [
				"(12*Range[0,20])^10 (* _Harvey P. Dale_, Aug 23 2015 *)"
			],
			"keyword": "nonn,easy",
			"offset": "0,2",
			"author": "_N. J. A. Sloane_.",
			"references": 0,
			"revision": 8,
			"time": "2017-07-17T09:58:58-04:00",
			"created": "1996-12-11T03:00:00-05:00"
		}
	]
}