{
	"greeting": "Greetings from The On-Line Encyclopedia of Integer Sequences! http://oeis.org/",
	"query": "id:A017741",
	"count": 1,
	"start": 0,
	"results": [
		{
			"number": 17741,
			"data": "1,78,3081,82160,1663740,27285336,377447148,4529365776,48124511370,459856441980,4000751045226,32006008361808,237377895350076,1643385429346680,10682005290753420,65516299116620976,380813488615359423,2105674584108457986,11113282527239083815",
			"name": "Binomial coefficients C(n,77).",
			"link": [
				"G. C. Greubel, \u003ca href=\"/A017741/b017741.txt\"\u003eTable of n, a(n) for n = 77..10000\u003c/a\u003e"
			],
			"formula": [
				"From _G. C. Greubel_, Nov 09 2018: (Start)",
				"G.f.: x^77/(1-x)^78.",
				"E.g.f.: x^77*exp(x)/77!. (End)",
				"From _Amiram Eldar_, Dec 18 2020: (Start)",
				"Sum_{n\u003e=77} 1/a(n) = 77/76.",
				"Sum_{n\u003e=77} (-1)^(n+1)/a(n) = A001787(77)*log(2) - A242091(77)/76! = 5817955506895402903273472*log(2) - 1343868224767541359938872007600837410461932350790322871 / 333242841266582924868719919300 = 0.9874924526... (End)"
			],
			"mathematica": [
				"Binomial[Range[77, 100], 77] (* _Alonso del Arte_, Nov 29 2017 *)"
			],
			"program": [
				"(Sage) [binomial(n, 77) for n in range(77,93)] # _Zerinvary Lajos_, May 23 2009",
				"(PARI) for(n=77, 95, print1(binomial(n,77), \", \")) \\\\ _G. C. Greubel_, Nov 09 2018",
				"(MAGMA) [Binomial(n,77): n in [77..95]]; // _G. C. Greubel_, Nov 09 2018"
			],
			"xref": [
				"Cf. A001787, A242091."
			],
			"keyword": "nonn,easy",
			"offset": "77,2",
			"author": "_N. J. A. Sloane_",
			"references": 2,
			"revision": 20,
			"time": "2020-12-18T02:41:45-05:00",
			"created": "1996-12-11T03:00:00-05:00"
		}
	]
}