{
	"greeting": "Greetings from The On-Line Encyclopedia of Integer Sequences! http://oeis.org/",
	"query": "id:A017713",
	"count": 1,
	"start": 0,
	"results": [
		{
			"number": 17713,
			"data": "1,50,1275,22100,292825,3162510,28989675,231917400,1652411475,10648873950,62828356305,342700125300,1742058970275,8308281242850,37387265592825,159518999862720,648045936942300,2515943049305400",
			"name": "Binomial coefficients C(n,49).",
			"link": [
				"G. C. Greubel, \u003ca href=\"/A017713/b017713.txt\"\u003eTable of n, a(n) for n = 49..10000\u003c/a\u003e"
			],
			"formula": [
				"From _G. C. Greubel_, Nov 03 2018: (Start)",
				"G.f.: x^49/(1-x)^50.",
				"E.g.f.: x^49*exp(x)/49!. (End)",
				"From _Amiram Eldar_, Dec 16 2020: (Start)",
				"Sum_{n\u003e=49} 1/a(n) = 49/48.",
				"Sum_{n\u003e=49} (-1)^(n+1)/a(n) = A001787(49)*log(2) - A242091(49)/48! = 13792273858822144*log(2) - 302317348758761304758836609908210929 / 31622903104550986800 = 0.9807421943... (End)"
			],
			"mathematica": [
				"Table[Binomial[n,49],{n,49,77}] (* _Vladimir Joseph Stephan Orlovsky_, May 16 2011 *)"
			],
			"program": [
				"(Sage) [binomial(n, 49) for n in range(49,67)] # _Zerinvary Lajos_, May 23 2009",
				"(Python)",
				"A017713_list, m = [], [1]*50",
				"for _ in range(10**2):",
				"    A017713_list.append(m[-1])",
				"    for i in range(49):",
				"        m[i+1] += m[i] # _Chai Wah Wu_, Jan 24 2016",
				"(PARI) for(n=49, 80, print1(binomial(n,49), \", \")) \\\\ _G. C. Greubel_, Nov 03 2018",
				"(MAGMA) [Binomial(n,49): n in [49..80]]; // _G. C. Greubel_, Nov 03 2018"
			],
			"xref": [
				"Cf. A011000, A011001, A001787, A242091."
			],
			"keyword": "nonn",
			"offset": "49,2",
			"author": "_N. J. A. Sloane_",
			"references": 10,
			"revision": 30,
			"time": "2020-12-16T05:55:30-05:00",
			"created": "1996-12-11T03:00:00-05:00"
		}
	]
}