{
	"greeting": "Greetings from The On-Line Encyclopedia of Integer Sequences! http://oeis.org/",
	"query": "id:A017570",
	"count": 1,
	"start": 0,
	"results": [
		{
			"number": 17570,
			"data": "16,256,784,1600,2704,4096,5776,7744,10000,12544,15376,18496,21904,25600,29584,33856,38416,43264,48400,53824,59536,65536,71824,78400,85264,92416,99856,107584,115600",
			"name": "a(n) = (12*n + 4)^2.",
			"link": [
				"\u003ca href=\"/index/Rec#order_03\"\u003eIndex entries for linear recurrences with constant coefficients\u003c/a\u003e, signature (3,-3,1)."
			],
			"formula": [
				"G.f.: 16*(1 + 13*x + 4*x^2)/(1-x)^3.",
				"a(n) = 16*A016778(n).",
				"a(n) = a(n-1) + 288*n - 48, n \u003e= 1. - _Vincenzo Librandi_, Mar 20 2011"
			],
			"program": [
				"(PARI) a(n)=(12*n+4)^2 \\\\ _Charles R Greathouse IV_, Jun 17 2017"
			],
			"keyword": "nonn,easy",
			"offset": "0,1",
			"author": "_N. J. A. Sloane_",
			"references": 0,
			"revision": 16,
			"time": "2018-08-31T02:53:24-04:00",
			"created": "1996-12-11T03:00:00-05:00"
		}
	]
}