{
	"greeting": "Greetings from The On-Line Encyclopedia of Integer Sequences! http://oeis.org/",
	"query": "id:A017378",
	"count": 1,
	"start": 0,
	"results": [
		{
			"number": 17378,
			"data": "81,361,841,1521,2401,3481,4761,6241,7921,9801,11881,14161,16641,19321,22201,25281,28561,32041,35721,39601,43681,47961,52441,57121,62001,67081,72361,77841,83521,89401,95481,101761,108241,114921,121801,128881,136161,143641",
			"name": "a(n) = (10*n + 9)^2.",
			"link": [
				"Vincenzo Librandi, \u003ca href=\"/A017378/b017378.txt\"\u003eTable of n, a(n) for n = 0..10000\u003c/a\u003e",
				"\u003ca href=\"/index/Rec#order_03\"\u003eIndex entries for linear recurrences with constant coefficients\u003c/a\u003e, signature (3,-3,1)."
			],
			"formula": [
				"From _Colin Barker_, Mar 30 2017: (Start)",
				"G.f.: (81 + 118*x + x^2) / (1 - x)^3.",
				"a(n) = 3*a(n-1) - 3*a(n-2) + a(n-3) for n\u003e2.",
				"(End)"
			],
			"maple": [
				"A017378:=n-\u003e(10*n+9)^2: seq(A017378(n), n=0..50); # _Wesley Ivan Hurt_, Mar 30 2017"
			],
			"mathematica": [
				"Table[(10 n + 9)^2, {n, 0, 37}] (* or *)",
				"LinearRecurrence[{3, -3, 1}, {81, 361, 841}, 38] (* or *)",
				"CoefficientList[Series[(81 + 118 x + x^2)/(1 - x)^3, {x, 0, 37}], x] (* _Michael De Vlieger_, Mar 30 2017 *)"
			],
			"program": [
				"(MAGMA) [(10*n+9)^2: n in [0..40]]; // _Vincenzo Librandi_, Aug 31 2011",
				"(PARI) a(n) = (10*n+9)^2; \\\\ _Michel Marcus_, Aug 26 2015",
				"(PARI) Vec((81 + 118*x + x^2) / (1 - x)^3 + O(x^40)) \\\\ _Colin Barker_, Mar 30 2017"
			],
			"xref": [
				"Cf. A017377."
			],
			"keyword": "nonn,easy",
			"offset": "0,1",
			"author": "_N. J. A. Sloane_",
			"references": 3,
			"revision": 29,
			"time": "2017-04-14T09:30:05-04:00",
			"created": "1996-12-11T03:00:00-05:00"
		}
	]
}