{
	"greeting": "Greetings from The On-Line Encyclopedia of Integer Sequences! http://oeis.org/",
	"query": "id:A017247",
	"count": 1,
	"start": 0,
	"results": [
		{
			"number": 17247,
			"data": "343,4096,15625,39304,79507,140608,226981,343000,493039,681472,912673,1191016,1520875,1906624,2352637,2863288,3442951,4096000,4826809,5639752,6539203,7529536,8615125",
			"name": "a(n) = (9*n + 7)^3.",
			"link": [
				"Vincenzo Librandi, \u003ca href=\"/A017247/b017247.txt\"\u003eTable of n, a(n) for n = 0..10000\u003c/a\u003e",
				"\u003ca href=\"/index/Rec#order_04\"\u003eIndex entries for linear recurrences with constant coefficients\u003c/a\u003e, signature (4, -6, 4, -1)."
			],
			"formula": [
				"G.f.: (343 + 2724*x + 1299*x^2 + 8*x^3)/(x-1)^4. - _R. J. Mathar_, Mar 20 2018"
			],
			"program": [
				"(MAGMA) [(9*n+7)^3: n in [0..35]]; // _Vincenzo Librandi_, Jul 27 2011"
			],
			"keyword": "nonn,easy",
			"offset": "0,1",
			"author": "_N. J. A. Sloane_",
			"references": 1,
			"revision": 13,
			"time": "2018-10-20T11:04:46-04:00",
			"created": "1996-12-11T03:00:00-05:00"
		}
	]
}