{
	"greeting": "Greetings from The On-Line Encyclopedia of Integer Sequences! http://oeis.org/",
	"query": "id:A017430",
	"count": 1,
	"start": 0,
	"results": [
		{
			"number": 17430,
			"data": "729,7529536,244140625,2176782336,10779215329,38068692544,107918163081,262144000000,567869252041,1126162419264,2081951752609,3635215077376,6053445140625,9685390482496,14976071831449",
			"name": "(11n+3)^6.",
			"link": [
				"\u003ca href=\"/index/Rec#order_07\"\u003eIndex entries for linear recurrences with constant coefficients\u003c/a\u003e, signature (7, -21, 35, -35, 21, -7, 1)."
			],
			"mathematica": [
				"(11*Range[0,20]+3)^6 (* or *) LinearRecurrence[{7,-21,35,-35,21,-7,1},{729,7529536,244140625,2176782336,10779215329,38068692544,107918163081},20] (* _Harvey P. Dale_, Jun 04 2016 *)"
			],
			"keyword": "nonn,easy",
			"offset": "0,1",
			"author": "_N. J. A. Sloane_.",
			"references": 0,
			"revision": 6,
			"time": "2016-06-04T13:59:51-04:00",
			"created": "1996-12-11T03:00:00-05:00"
		}
	]
}