{
	"greeting": "Greetings from The On-Line Encyclopedia of Integer Sequences! http://oeis.org/",
	"query": "id:A017485",
	"count": 1,
	"start": 0,
	"results": [
		{
			"number": 17485,
			"data": "8,19,30,41,52,63,74,85,96,107,118,129,140,151,162,173,184,195,206,217,228,239,250,261,272,283,294,305,316,327,338,349,360,371,382,393,404,415,426,437,448,459,470,481,492,503,514,525,536,547,558,569,580,591,602,613",
			"name": "a(n) = 11*n + 8.",
			"comment": [
				"a(n) = A125199(n+1,3) for n\u003e1. - _Reinhard Zumkeller_, Nov 24 2006"
			],
			"link": [
				"G. C. Greubel, \u003ca href=\"/A017485/b017485.txt\"\u003eTable of n, a(n) for n = 0..1000\u003c/a\u003e",
				"Tanya Khovanova, \u003ca href=\"http://www.tanyakhovanova.com/RecursiveSequences/RecursiveSequences.html\"\u003eRecursive Sequences\u003c/a\u003e",
				"\u003ca href=\"/index/Rec#order_02\"\u003eIndex entries for linear recurrences with constant coefficients\u003c/a\u003e, signature (2,-1)."
			],
			"formula": [
				"a(n) = 22*n + 5 - a(n-1), with n\u003e0, a(0)=8. - _Vincenzo Librandi_, Dec 24 2010",
				"From _Colin Barker_, Oct 05 2014: (Start)",
				"a(n) = 2*a(n-1) - a(n-2).",
				"G.f.: (8 + 3*x)/(1-x)^2. (End)",
				"E.g.f.: (8 + 11*x)*exp(x). - _G. C. Greubel_, Sep 21 2019"
			],
			"maple": [
				"A017485:=n-\u003e11*n+8; seq(A017485(n), n=0..60); # _Wesley Ivan Hurt_, May 21 2014"
			],
			"mathematica": [
				"Range[8, 1000, 11] (* _Vladimir Joseph Stephan Orlovsky_, May 29 2011 *)",
				"LinearRecurrence[{2,-1},{8,19},60] (* _Harvey P. Dale_, May 10 2021 *)"
			],
			"program": [
				"(MAGMA) [11*n+8 : n in [0..60]]; // _Wesley Ivan Hurt_, May 21 2014",
				"(PARI) Vec((8+3*x)/(1-x)^2 + O(x^60)) \\\\ _Colin Barker_, Oct 05 2014",
				"(GAP) List([0..60], n-\u003e 11*n+8); # _G. C. Greubel_, Sep 21 2019",
				"(Sage) [11*n+8 for n in (0..60)] # _G. C. Greubel_, Sep 22 2019"
			],
			"xref": [
				"Cf. A002939, A016789, A017041, A125202.",
				"Powers of the form (11*n+8)^m: this sequence (m=1), A017486 (m=2), A017487 (m=3), A017488 (m=4), A017489 (m=5), A017490 (m=6), A017491 (m=7), A017492 (m=8), A017493 (m=9), A017494 (m=10), A017495 (m=11), A017496 (m=12)."
			],
			"keyword": "nonn,easy",
			"offset": "0,1",
			"author": "_N. J. A. Sloane_, Dec 11 1996",
			"references": 22,
			"revision": 40,
			"time": "2021-05-10T16:03:21-04:00",
			"created": "1996-12-11T03:00:00-05:00"
		}
	]
}