{
	"greeting": "Greetings from The On-Line Encyclopedia of Integer Sequences! http://oeis.org/",
	"query": "id:A017246",
	"count": 1,
	"start": 0,
	"results": [
		{
			"number": 17246,
			"data": "49,256,625,1156,1849,2704,3721,4900,6241,7744,9409,11236,13225,15376,17689,20164,22801,25600,28561,31684,34969,38416,42025,45796,49729,53824,58081,62500,67081,71824",
			"name": "a(n) = (9*n + 7)^2.",
			"link": [
				"Vincenzo Librandi, \u003ca href=\"/A017246/b017246.txt\"\u003eTable of n, a(n) for n = 0..10000\u003c/a\u003e",
				"\u003ca href=\"/index/Rec#order_03\"\u003eIndex entries for linear recurrences with constant coefficients\u003c/a\u003e, signature (3, -3, 1)."
			],
			"formula": [
				"a(n) = 3*a(n-1) - 3*a(n-2) + a(n-3); a(0)=49, a(1)=256, a(2)=625. - _Harvey P. Dale_, Apr 24 2016",
				"G.f.: -(49 + 109*x + 4*x^2)/(x-1)^3. - _R. J. Mathar_, Mar 20 2018"
			],
			"mathematica": [
				"(9*Range[0,30]+7)^2 (* or *) LinearRecurrence[{3,-3,1},{49,256,625},30] (* _Harvey P. Dale_, Apr 24 2016 *)"
			],
			"program": [
				"(MAGMA) [(9*n+7)^2: n in [0..35]]; // _Vincenzo Librandi_, Jul 27 2011",
				"(PARI) a(n)=(9*n+7)^2 \\\\ _Charles R Greathouse IV_, Jun 17 2017"
			],
			"xref": [
				"Cf. A000290 (n^2), A017245 (9*n+7)."
			],
			"keyword": "nonn,easy",
			"offset": "0,1",
			"author": "_N. J. A. Sloane_",
			"references": 1,
			"revision": 18,
			"time": "2018-10-20T11:53:13-04:00",
			"created": "1996-12-11T03:00:00-05:00"
		}
	]
}