{
	"greeting": "Greetings from The On-Line Encyclopedia of Integer Sequences! http://oeis.org/",
	"query": "id:A017786",
	"count": 1,
	"start": 0,
	"results": [
		{
			"number": 17786,
			"data": "1,70,2415,54740,916895,12103014,131115985,1198774720,9440350920,65033528560,396704524216,2163842859360,10638894058520,47465835030320,193253756909160,721480692460864,2480089880334220,7877932561061640,23196134763125940",
			"name": "Binomial coefficients C(70,n).",
			"comment": [
				"Row 70 of A007318."
			],
			"link": [
				"Nathaniel Johnston, \u003ca href=\"/A017786/b017786.txt\"\u003eTable of n, a(n) for n = 0..70\u003c/a\u003e (full sequence)"
			],
			"formula": [
				"From _G. C. Greubel_, Nov 14 2018: (Start)",
				"G.f.: (1+x)^70.",
				"E.g.f.: 1F1(-70; 1; -x), where 1F1 is the confluent hypergeometric function. (End)"
			],
			"maple": [
				"seq(binomial(70,n), n=0..70); # _Nathaniel Johnston_, Jun 24 2011"
			],
			"mathematica": [
				"Binomial[70, Range[0,70]] (* _G. C. Greubel_, Nov 14 2018 *)"
			],
			"program": [
				"(Sage) [binomial(70, n) for n in range(17)] # _Zerinvary Lajos_, May 28 2009",
				"(PARI) vector(70, n, n--; binomial(70,n)) \\\\ _G. C. Greubel_, Nov 14 2018",
				"(MAGMA) [Binomial(70,n): n in [0..70]]; // _G. C. Greubel_, Nov 14 2018"
			],
			"xref": [
				"Cf. A010926-A011001, A017765-A017785, A017787-A017816."
			],
			"keyword": "nonn,fini,full,easy",
			"offset": "0,2",
			"author": "_N. J. A. Sloane_",
			"references": 3,
			"revision": 18,
			"time": "2018-11-15T03:33:42-05:00",
			"created": "1996-12-11T03:00:00-05:00"
		}
	]
}