{
	"greeting": "Greetings from The On-Line Encyclopedia of Integer Sequences! http://oeis.org/",
	"query": "id:A017353",
	"count": 1,
	"start": 0,
	"results": [
		{
			"number": 17353,
			"data": "7,17,27,37,47,57,67,77,87,97,107,117,127,137,147,157,167,177,187,197,207,217,227,237,247,257,267,277,287,297,307,317,327,337,347,357,367,377,387,397,407,417,427,437,447,457,467,477,487,497,507,517,527,537",
			"name": "a(n) = 10n + 7.",
			"link": [
				"Vincenzo Librandi, \u003ca href=\"/A017353/b017353.txt\"\u003eTable of n, a(n) for n = 0..5000\u003c/a\u003e",
				"Tanya Khovanova, \u003ca href=\"http://www.tanyakhovanova.com/RecursiveSequences/RecursiveSequences.html\"\u003eRecursive Sequences\u003c/a\u003e",
				"\u003ca href=\"/index/Rec#order_02\"\u003eIndex entries for linear recurrences with constant coefficients\u003c/a\u003e, signature (2,-1)."
			],
			"formula": [
				"From _Vincenzo Librandi_, May 28 2011: (Start)",
				"a(n) = 10*n + 7.",
				"a(n) = 2*a(n-1) - a(n-2). (End)",
				"G.f.: (7+3*x)/(x-1)^2. - _Wesley Ivan Hurt_, Mar 26 2015"
			],
			"maple": [
				"A017353:=n-\u003e10*n+7: seq(A017353(n), n=0..70); # _Wesley Ivan Hurt_, Mar 26 2015"
			],
			"mathematica": [
				"Range[7, 497, 10] (* _Vladimir Joseph Stephan Orlovsky_, May 28 2011 *)"
			],
			"program": [
				"(MAGMA) [10*n+7: n in [0..60]]; // _Vincenzo Librandi_, May 28 2011",
				"(PARI) vector(100,n,10*n-3) \\\\ _Derek Orr_, Mar 29 2015"
			],
			"xref": [
				"Cf. A008592, A017341."
			],
			"keyword": "nonn,easy",
			"offset": "0,1",
			"author": "_N. J. A. Sloane_",
			"references": 19,
			"revision": 33,
			"time": "2015-06-13T00:48:41-04:00",
			"created": "1996-12-11T03:00:00-05:00"
		}
	]
}