{
	"greeting": "Greetings from The On-Line Encyclopedia of Integer Sequences! http://oeis.org/",
	"query": "id:A017262",
	"count": 1,
	"start": 0,
	"results": [
		{
			"number": 17262,
			"data": "262144,24137569,308915776,1838265625,7256313856,22164361129,56800235584,128100283921,262144000000,496981290961,885842380864,1500730351849,2436396322816,3814697265625,5789336458816",
			"name": "a(n) = (9*n + 8)^6.",
			"link": [
				"Vincenzo Librandi, \u003ca href=\"/A017262/b017262.txt\"\u003eTable of n, a(n) for n = 0..10000\u003c/a\u003e",
				"\u003ca href=\"/index/Rec#order_07\"\u003eIndex entries for linear recurrences with constant coefficients\u003c/a\u003e, signature (7, -21, 35, -35, 21, -7, 1)."
			],
			"mathematica": [
				"(9*Range[0,20]+8)^6 (* or *) LinearRecurrence[{7,-21,35,-35,21,-7,1},{262144,24137569,308915776,1838265625,7256313856,22164361129,56800235584},20] (* _Harvey P. Dale_, Jul 18 2018 *)"
			],
			"program": [
				"(MAGMA) [(9*n+8)^6: n in [0..20]]; // _Vincenzo Librandi_, Jul 28 2011"
			],
			"keyword": "nonn,easy",
			"offset": "0,1",
			"author": "_N. J. A. Sloane_",
			"references": 1,
			"revision": 13,
			"time": "2018-10-20T11:31:12-04:00",
			"created": "1996-12-11T03:00:00-05:00"
		}
	]
}