{
	"greeting": "Greetings from The On-Line Encyclopedia of Integer Sequences! http://oeis.org/",
	"query": "id:A017919",
	"count": 1,
	"start": 0,
	"results": [
		{
			"number": 17919,
			"data": "1,2,5,11,25,55,125,279,625,1397,3125,6987,15625,34938,78125,174692,390625,873464,1953125,4367320,9765625,21836601,48828125,109183006,244140625,545915033,1220703125,2729575167",
			"name": "Powers of sqrt(5) rounded down.",
			"comment": [
				"a(n) is the total length (rounded down to integer) of the elements of a variant of a 5-element fractal after n iterations, starting with 5 elements, each of whose length is 1/5 (in some units). See illustration in the Links. - _Kival Ngaokrajang_, Feb 26 2015"
			],
			"link": [
				"Vincenzo Librandi, \u003ca href=\"/A017919/b017919.txt\"\u003eTable of n, a(n) for n = 0..1000\u003c/a\u003e",
				"Kival Ngaokrajang, \u003ca href=\"/A017919/a017919_3.pdf\"\u003eIllustration of initial terms\u003c/a\u003e"
			],
			"mathematica": [
				"Floor[(Sqrt[5])^Range[0,40]] (* _Vincenzo Librandi_, Nov 20 2011 *)"
			],
			"program": [
				"(PARI) a(n)=sqrtint(5^n) \\\\ _Charles R Greathouse IV_, Nov 18 2011",
				"(MAGMA) [Floor(Sqrt(5^n)): n in [0..40]]; // _Vincenzo Librandi_, Nov 20 2011"
			],
			"xref": [
				"Cf. A017920, A017921."
			],
			"keyword": "nonn",
			"offset": "0,2",
			"author": "_N. J. A. Sloane_",
			"references": 10,
			"revision": 37,
			"time": "2015-03-26T18:18:27-04:00",
			"created": "1996-12-11T03:00:00-05:00"
		}
	]
}