{
	"greeting": "Greetings from The On-Line Encyclopedia of Integer Sequences! http://oeis.org/",
	"query": "id:A017023",
	"count": 1,
	"start": 0,
	"results": [
		{
			"number": 17023,
			"data": "2187,10000000,410338673,4586471424,27512614111,114415582592,373669453125,1028071702528,2488651484819,5455160701056,11047398519097,20971520000000,37725479487783,64847759419264",
			"name": "a(n) = (7*n + 3)^7.",
			"link": [
				"Vincenzo Librandi, \u003ca href=\"/A017023/b017023.txt\"\u003eTable of n, a(n) for n = 0..10000\u003c/a\u003e",
				"\u003ca href=\"/index/Rec#order_08\"\u003eIndex entries for linear recurrences with constant coefficients\u003c/a\u003e, signature (8, -28, 56, -70, 56, -28, 8, -1)."
			],
			"mathematica": [
				"(7*Range[0,30]+3)^7 (* or *) LinearRecurrence[{8,-28,56,-70,56,-28,8,-1},{2187,10000000,410338673,4586471424,27512614111,114415582592,373669453125,1028071702528},30] (* _Harvey P. Dale_, Jul 07 2020 *)"
			],
			"program": [
				"(MAGMA) [(7*n+3)^7: n in [0..30]]; // _Vincenzo Librandi_, Jul 14 2011"
			],
			"keyword": "nonn,easy",
			"offset": "0,1",
			"author": "_N. J. A. Sloane_",
			"references": 1,
			"revision": 14,
			"time": "2020-07-07T16:08:30-04:00",
			"created": "1996-12-11T03:00:00-05:00"
		}
	]
}