{
	"greeting": "Greetings from The On-Line Encyclopedia of Integer Sequences! http://oeis.org/",
	"query": "id:A017161",
	"count": 1,
	"start": 0,
	"results": [
		{
			"number": 17161,
			"data": "1,19,265,3355,41041,495859,5964505,71633035,859838881,10319056099,123832690345,1486008529915,17832167873521,213986278134739,2567836397009785,30814041016037995,369768509243184961",
			"name": "Expansion of 1/((1-3x)(1-4x)(1-12x)).",
			"link": [
				"Vincenzo Librandi, \u003ca href=\"/A017161/b017161.txt\"\u003eTable of n, a(n) for n = 0..200\u003c/a\u003e",
				"\u003ca href=\"/index/Rec\"\u003eIndex entries for linear recurrences with constant coefficients\u003c/a\u003e, signature (19,-96,144)."
			],
			"formula": [
				"a(n) = 3^n - 2*4^n + 2*12^n. - _R. J. Mathar_, Jun 23 2013",
				"From _Vincenzo Librandi_, Jun 26 2013: (Start)",
				"a(n) = 19*a(n-1) - 96*a(n-2) + 144*a(n-3).",
				"a(n) = 16*a(n-1) - 48*a(n-2) + 3^n. (End)"
			],
			"mathematica": [
				"CoefficientList[Series[1 / ((1 - 3 x) (1 - 4 x) (1 - 12 x)), {x, 0, 20}], x] (* _Vincenzo Librandi_, Jun 26 2013 *)"
			],
			"program": [
				"(MAGMA) I:=[1,19,265]; [n le 3 select I[n] else 19*Self(n-1)-96*Self(n-2)+144*Self(n-3): n in [1..20]]; /* or */ m:=20; R\u003cx\u003e:=PowerSeriesRing(Integers(), m); Coefficients(R!(1/((1-3*x)*(1-4*x)*(1-12*x)))); // _Vincenzo Librandi_, Jun 26 2013",
				"(PARI) x='x+O('x^20); Vec(1/((1-3*x)*(1-4*x)*(1-12*x))) \\\\ _Altug Alkan_, Sep 23 2018"
			],
			"keyword": "nonn,easy",
			"offset": "0,2",
			"author": "_N. J. A. Sloane_",
			"references": 1,
			"revision": 20,
			"time": "2018-09-23T21:00:42-04:00",
			"created": "1999-12-11T03:00:00-05:00"
		}
	]
}