{
	"greeting": "Greetings from The On-Line Encyclopedia of Integer Sequences! http://oeis.org/",
	"query": "id:A017461",
	"count": 1,
	"start": 0,
	"results": [
		{
			"number": 17461,
			"data": "6,17,28,39,50,61,72,83,94,105,116,127,138,149,160,171,182,193,204,215,226,237,248,259,270,281,292,303,314,325,336,347,358,369,380,391,402,413,424,435,446,457,468,479,490,501,512,523,534,545,556,567,578,589",
			"name": "a(n) = 11*n + 6.",
			"link": [
				"Vincenzo Librandi, \u003ca href=\"/A017461/b017461.txt\"\u003eTable of n, a(n) for n = 0..10000\u003c/a\u003e",
				"Tanya Khovanova, \u003ca href=\"http://www.tanyakhovanova.com/RecursiveSequences/RecursiveSequences.html\"\u003eRecursive Sequences\u003c/a\u003e",
				"\u003ca href=\"/index/Rec#order_02\"\u003eIndex entries for linear recurrences with constant coefficients\u003c/a\u003e, signature (2,-1)."
			],
			"formula": [
				"a(0)=6, a(1)=17; for n\u003e1, a(n) = 2*a(n-1) - a(n-2). - _Harvey P. Dale_, Apr 14 2015",
				"From _G. C. Greubel_, Sep 19 2019: (Start)",
				"G.f.: (6 + 5*x)/(1-x)^2.",
				"E.g.f.: (6 + 11*x)*exp(x). (End)"
			],
			"maple": [
				"seq(11*n+6, n=0..60); # _G. C. Greubel_, Sep 19 2019"
			],
			"mathematica": [
				"Range[6, 1000, 11] (* _Vladimir Joseph Stephan Orlovsky_, May 28 2011 *)",
				"LinearRecurrence[{2,-1},{6,17},60] (* or *) NestList[11 + #\u0026, 6, 60] (* _Harvey P. Dale_, Apr 14 2015 *)"
			],
			"program": [
				"(MAGMA) [11*n+6: n in [0..60]]; // _Vincenzo Librandi_, Sep 03 2011",
				"(PARI) a(n)=11*n+6 \\\\ _Charles R Greathouse IV_, Oct 07 2015",
				"(Sage) [11*n+6 for n in (0..60)] # _G. C. Greubel_, Sep 19 2019",
				"(GAP) List([0..60], n-\u003e 11*n+6); # _G. C. Greubel_, Sep 19 2019"
			],
			"xref": [
				"Cf. A008593, A017401, A017449.",
				"Cf. similar sequences with closed form (2*k-1)*n+k listed in A269044.",
				"Powers of the form (11*n+6)^m: this sequence (m=1), A017462 (m=2), A017463 (m=3), A017464 (m=4), A017465 (m=5), A017466 (m=6), A017467 (m=7), A017468 (m=8), A017469 (m=9), A017470 (m=10), A017471 (m=11), A017472 (m=12)."
			],
			"keyword": "nonn,easy",
			"offset": "0,1",
			"author": "_N. J. A. Sloane_",
			"references": 19,
			"revision": 29,
			"time": "2019-09-19T17:18:11-04:00",
			"created": "1996-12-11T03:00:00-05:00"
		}
	]
}