{
	"greeting": "Greetings from The On-Line Encyclopedia of Integer Sequences! http://oeis.org/",
	"query": "id:A017953",
	"count": 1,
	"start": 0,
	"results": [
		{
			"number": 17953,
			"data": "1,20,283,3518,41209,468608,5247271,58277666,644406997,7108612676,78315612739,862197157094,9488521761265,104399859167624,1148555174389087,12635047273900202,138991162189670413",
			"name": "Expansion of 1/((1-3x)(1-6x)(1-11x)).",
			"link": [
				"Vincenzo Librandi, \u003ca href=\"/A017953/b017953.txt\"\u003eTable of n, a(n) for n = 0..200\u003c/a\u003e",
				"\u003ca href=\"/index/Rec\"\u003eIndex entries for linear recurrences with constant coefficients\u003c/a\u003e, signature (20,-117,198)."
			],
			"formula": [
				"a(0)=1, a(1)=20, a(2)=283; for n\u003e2, a(n) = 20*a(n-1) -117*a(n-2) +198*a(n-3). - _Vincenzo Librandi_, Jul 02 2013",
				"a(n) = 17*a(n-1) -66*a(n-2) +3^n. - _Vincenzo Librandi_, Jul 02 2013",
				"a(n) = (3*11^(n+2) - 8*6^(n+2) + 5*3^(n+2))/120. [_Yahia Kahloune_, Jul 06 2013]"
			],
			"mathematica": [
				"CoefficientList[Series[1 / ((1 - 3 x) (1 - 6 x) (1 - 11 x)), {x, 0, 30}], x] (* _Vincenzo Librandi_, Jul 02 2013 *)",
				"LinearRecurrence[{20,-117,198},{1,20,283},30] (* _Harvey P. Dale_, Aug 31 2020 *)"
			],
			"program": [
				"(MAGMA) m:=20; R\u003cx\u003e:=PowerSeriesRing(Integers(), m); Coefficients(R!(1/((1-3*x)*(1-6*x)*(1-11*x)))); /* or */ I:=[1, 20, 283]; [n le 3 select I[n] else 20*Self(n-1)-117*Self(n-2)+198*Self(n-3): n in [1..20]]; // _Vincenzo Librandi_, Jul 02 2013"
			],
			"keyword": "nonn,easy",
			"offset": "0,2",
			"author": "_N. J. A. Sloane_.",
			"references": 2,
			"revision": 15,
			"time": "2020-08-31T17:13:28-04:00",
			"created": "1999-12-11T03:00:00-05:00"
		}
	]
}