{
	"greeting": "Greetings from The On-Line Encyclopedia of Integer Sequences! http://oeis.org/",
	"query": "id:A017598",
	"count": 1,
	"start": 0,
	"results": [
		{
			"number": 17598,
			"data": "46656,34012224,729000000,5489031744,24794911296,82653950016,225199600704,531441000000,1126162419264,2194972623936,4001504141376,6906762437184,11390625000000,18075490334784",
			"name": "(12n+6)^6.",
			"link": [
				"\u003ca href=\"/index/Rec#order_07\"\u003eIndex entries for linear recurrences with constant coefficients\u003c/a\u003e, signature (7, -21, 35, -35, 21, -7, 1)."
			],
			"keyword": "nonn,easy",
			"offset": "0,1",
			"author": "_N. J. A. Sloane_.",
			"references": 0,
			"revision": 6,
			"time": "2017-07-17T10:17:14-04:00",
			"created": "1996-12-11T03:00:00-05:00"
		}
	]
}