{
	"greeting": "Greetings from The On-Line Encyclopedia of Integer Sequences! http://oeis.org/",
	"query": "id:A018272",
	"count": 1,
	"start": 0,
	"results": [
		{
			"number": 18272,
			"data": "1,3,5,15,25,75",
			"name": "Divisors of 75.",
			"link": [
				"\u003ca href=\"/index/Di#divisors\"\u003eIndex entries for sequences related to divisors of numbers\u003c/a\u003e"
			],
			"mathematica": [
				"Divisors[75] (* _Wesley Ivan Hurt_, Jan 15 2017 *)"
			],
			"program": [
				"(PARI) divisors(75) \\\\ _Charles R Greathouse IV_, Jun 22 2017"
			],
			"keyword": "nonn,fini,full,easy",
			"offset": "1,2",
			"author": "_N. J. A. Sloane_",
			"references": 1,
			"revision": 16,
			"time": "2017-06-22T02:11:52-04:00",
			"created": "1996-12-11T03:00:00-05:00"
		}
	]
}