{
	"greeting": "Greetings from The On-Line Encyclopedia of Integer Sequences! http://oeis.org/",
	"query": "id:A018208",
	"count": 1,
	"start": 0,
	"results": [
		{
			"number": 18208,
			"data": "1,26,475,7520,110341,1545446,20980975,278565740,3637529881,46892529266,598374287875,7572794935160,95188878040621,1189735265087486,14798979200433175,183331466632763780",
			"name": "Expansion of 1/((1-3x)(1-11x)(1-12x)).",
			"link": [
				"Vincenzo Librandi, \u003ca href=\"/A018208/b018208.txt\"\u003eTable of n, a(n) for n = 0..200\u003c/a\u003e",
				"\u003ca href=\"/index/Rec\"\u003eIndex entries for linear recurrences with constant coefficients\u003c/a\u003e, signature (26,-201,396)."
			],
			"formula": [
				"a(0)=1, a(1)=26, a(2)=475; for n\u003e2, a(n) = 26*a(n-1) -201*a(n-2)+396*a(n-3). - _Vincenzo Librandi_, Jul 02 2013",
				"a(n) = 23*a(n-1) -132*a(n-2) +3^n. - _Vincenzo Librandi_, Jul 02 2013",
				"a(n) = (8*12^(n+2) - 9*11^(n+2) + 3^(n+2))/72. [_Yahia Kahloune_, Jul 07 2013]"
			],
			"mathematica": [
				"CoefficientList[Series[1 / ((1 - 3 x) (1 - 11 x) (1 - 12 x)), {x, 0, 20}], x] (* _Vincenzo Librandi_, Jul 02 2013 *)",
				"LinearRecurrence[{26,-201,396},{1,26,475},20] (* _Harvey P. Dale_, Jul 04 2017 *)"
			],
			"program": [
				"(MAGMA) m:=20; R\u003cx\u003e:=PowerSeriesRing(Integers(), m); Coefficients(R!(1/((1-3*x)*(1-11*x)*(1-12*x)))); /* or */ I:=[1, 26, 475]; [n le 3 select I[n] else 26*Self(n-1)-201*Self(n-2)+396*Self(n-3): n in [1..20]]; // _Vincenzo Librandi_, Jul 02 2013"
			],
			"keyword": "nonn,easy",
			"offset": "0,2",
			"author": "_N. J. A. Sloane_.",
			"references": 1,
			"revision": 14,
			"time": "2017-07-04T14:50:05-04:00",
			"created": "1999-12-11T03:00:00-05:00"
		}
	]
}