{
	"greeting": "Greetings from The On-Line Encyclopedia of Integer Sequences! http://oeis.org/",
	"query": "id:A018961",
	"count": 1,
	"start": 0,
	"results": [
		{
			"number": 18961,
			"data": "3,11,38,171,1016,5660,32322,191194,1184443,7663094,51297396,349410472,2398302135,16510574038,113831981156",
			"name": "Cycle class sequence c(2n) (the number of true cycles of length 2n in which a certain node is included) for zeolite AFR = SAPO-40 [ Si7Al29P28O128 ] . 4 TPA . OH.",
			"reference": [
				"G. Thimm and W. E. Klee, Zeolite cycle sequences, Zeolites, 19, pp. 422-424, 1997."
			],
			"link": [
				"G. Thimm, \u003ca href=\"/thimm1.html\"\u003eCycle sequences of crystal structures\u003c/a\u003e"
			],
			"keyword": "nonn,more",
			"offset": "2,1",
			"author": "Georg Thimm (mgeorg(AT)ntu.edu.sg)",
			"ext": [
				"a(11)-a(16) from _Sean A. Irvine_, Mar 06 2019"
			],
			"references": 0,
			"revision": 10,
			"time": "2019-03-06T17:32:29-05:00",
			"created": "1996-12-11T03:00:00-05:00"
		}
	]
}