{
	"greeting": "Greetings from The On-Line Encyclopedia of Integer Sequences! http://oeis.org/",
	"query": "id:A018855",
	"count": 1,
	"start": 0,
	"results": [
		{
			"number": 18855,
			"data": "1,21,3,45,55,6,78,820,91,10,1128,120,136,1431,15,1653,171,1830,190,2016,21,2211,231,2415,253,2628,276,28,2926,300,3160,325,3321,3403,351,36,378,3828,3916,406,4186,4278,435,4465,45,465,4753,4851,496,5050,5151,528",
			"name": "Smallest triangular number that begins with n.",
			"link": [
				"Robert Israel, \u003ca href=\"/A018855/b018855.txt\"\u003eTable of n, a(n) for n = 1..10000\u003c/a\u003e"
			],
			"maple": [
				"f:= proc(n) local d,t;",
				"   for d from 0 do",
				"     t:= ceil((sqrt(8*n*10^d+1)+1)/2);",
				"     if (2*t-1)^2 \u003c 8*(n+1)*10^d+1 then",
				"       return t*(t-1)/2 fi",
				"   od",
				"end proc:",
				"map(f, [$1..100]); # _Robert Israel_, Feb 27 2017"
			],
			"mathematica": [
				"Do[k = Ceiling[ Sqrt[n]]; While[ FromDigits[ Take[ IntegerDigits[ k(k + 1)/2], Floor[ Log[10, n] + 1]]] != n, k++ ]; Print[ k(k + 1)/2], {n, 1, 50} ]",
				"With[{tr=Accumulate[Range[150]]},Table[SelectFirst[tr,Take[ IntegerDigits[ #], Length[ IntegerDigits[ n]]] == IntegerDigits[n]\u0026],{n,60}]]//Quiet (* Requires Mathematica version 10 or later *) (* _Harvey P. Dale_, May 13 2018 *)"
			],
			"xref": [
				"Cf. A018801."
			],
			"keyword": "base,easy,nonn,look",
			"offset": "1,2",
			"author": "_David W. Wilson_",
			"references": 4,
			"revision": 14,
			"time": "2018-05-13T11:12:04-04:00",
			"created": "1996-12-11T03:00:00-05:00"
		}
	]
}