{
	"greeting": "Greetings from The On-Line Encyclopedia of Integer Sequences! http://oeis.org/",
	"query": "id:A018802",
	"count": 1,
	"start": 0,
	"results": [
		{
			"number": 18802,
			"data": "1,2,32,4,512,64,70368744177664,8,9007199254740992,1024,1125899906842624,128,131072,140737488355328,151115727451828646838272,16,17179869184,18014398509481984,19342813113834066795298816,2048,2147483648",
			"name": "Smallest power of 2 that begins with n.",
			"link": [
				"Christian N. K. Anderson, \u003ca href=\"/A018802/b018802.txt\"\u003eTable of n, a(n) for n = 1..981\u003c/a\u003e (a(982) has 1196 digits)"
			],
			"formula": [
				"a(n) = 2^A018856(n). - _Seiichi Manyama_, Jan 29 2017",
				"a(2^n) = 2^n for n \u003e= 0. - _Seiichi Manyama_, Jan 29 2017"
			],
			"example": [
				"a(7) = 70368744177664, because 2^46 is the smallest power of 2 that begins with a 7."
			],
			"program": [
				"(R) library(gmp); ndig\u003c-function(i) nchar(as.character(as.bigz(i))) y=as.bigz(rep(0,100)); for(i in 1:100) {n=as.bigz(2); while(substr(n,1,ndig(i))!=as.character(i)) n=n*2; y[i]=n; } # _Christian N. K. Anderson_, May 23 2013"
			],
			"xref": [
				"Cf. A018856.",
				"Cf. this sequence (k=2), A018857 (k=3), A018859 (k=4), A018861 (k=5), A018863 (k=6), A018865 (k=7), A018867 (k=8), A018869 (k=9)."
			],
			"keyword": "nonn,base",
			"offset": "1,2",
			"author": "_David W. Wilson_",
			"references": 17,
			"revision": 15,
			"time": "2017-01-29T08:52:48-05:00",
			"created": "1996-12-11T03:00:00-05:00"
		}
	]
}