{
	"greeting": "Greetings from The On-Line Encyclopedia of Integer Sequences! http://oeis.org/",
	"query": "id:A018746",
	"count": 1,
	"start": 0,
	"results": [
		{
			"number": 18746,
			"data": "1,3,9,107,321,963",
			"name": "Divisors of 963.",
			"link": [
				"\u003ca href=\"/index/Di#divisors\"\u003eIndex entries for sequences related to divisors of numbers\u003c/a\u003e"
			],
			"program": [
				"(PARI) divisors(963) \\\\ _Charles R Greathouse IV_, Jun 23 2017"
			],
			"keyword": "nonn,fini,full,easy",
			"offset": "1,2",
			"author": "_N. J. A. Sloane_.",
			"references": 0,
			"revision": 10,
			"time": "2017-06-23T01:59:52-04:00",
			"created": "1996-12-11T03:00:00-05:00"
		}
	]
}