{
	"greeting": "Greetings from The On-Line Encyclopedia of Integer Sequences! http://oeis.org/",
	"query": "id:A018304",
	"count": 1,
	"start": 0,
	"results": [
		{
			"number": 18304,
			"data": "1,2,4,37,74,148",
			"name": "Divisors of 148.",
			"link": [
				"\u003ca href=\"/index/Di#divisors\"\u003eIndex entries for sequences related to divisors of numbers\u003c/a\u003e"
			],
			"program": [
				"(PARI) divisors(148) \\\\ _Charles R Greathouse IV_, Jun 22 2017"
			],
			"keyword": "nonn,fini,full,easy",
			"offset": "1,2",
			"author": "_N. J. A. Sloane_.",
			"references": 0,
			"revision": 12,
			"time": "2017-06-22T02:16:52-04:00",
			"created": "1996-12-11T03:00:00-05:00"
		}
	]
}