{
	"greeting": "Greetings from The On-Line Encyclopedia of Integer Sequences! http://oeis.org/",
	"query": "id:A018909",
	"count": 1,
	"start": 0,
	"results": [
		{
			"number": 18909,
			"data": "3,6,13,29,65,146,328,737,1657,3726,8379,18843,42375,95295,214305,481942,1083821,2437364,5481296,12326680,27721007,62340730,140195723,315280889,709023335,1594495915,3585801902,8063975053,18134770251,40782602860,91714461944",
			"name": "Define the sequence S(a_0,a_1) by a_{n+2} is the least integer such that a_{n+2}/a_{n+1}\u003ea_{n+1}/a_n for n \u003e= 0. This is S(3,6).",
			"link": [
				"Alois P. Heinz, \u003ca href=\"/A018909/b018909.txt\"\u003eTable of n, a(n) for n = 0..1000\u003c/a\u003e",
				"D. W. Boyd, \u003ca href=\"https://www.researchgate.net/profile/David_Boyd7/publication/262181133_Linear_recurrence_relations_for_some_generalized_Pisot_sequences_-_annotated_with_corrections_and_additions/links/00b7d536d49781037f000000.pdf\"\u003eLinear recurrence relations for some generalized Pisot sequences\u003c/a\u003e, Advances in Number Theory ( Kingston ON, 1991) 333-340, Oxford Sci. Publ., Oxford Univ. Press, New York, 1993."
			],
			"maple": [
				"a:= proc(n) option remember; `if`(n\u003c2, [3, 6][n+1],",
				"       1 +floor(a(n-1)^2/a(n-2)))",
				"    end:",
				"seq(a(n), n=0..40);  # _Alois P. Heinz_, May 05 2014"
			],
			"mathematica": [
				"a[n_] := a[n] = Switch[n, 0, 3, 1, 6, _, 1 + Floor[a[n-1]^2/a[n-2]]];",
				"a /@ Range[0, 40] (* _Jean-François Alcover_, Nov 16 2020, after _Alois P. Heinz_ *)"
			],
			"keyword": "nonn",
			"offset": "0,1",
			"author": "_R. K. Guy_",
			"references": 1,
			"revision": 14,
			"time": "2020-11-16T12:16:25-05:00",
			"created": "1996-12-11T03:00:00-05:00"
		}
	]
}