{
	"greeting": "Greetings from The On-Line Encyclopedia of Integer Sequences! http://oeis.org/",
	"query": "id:A018171",
	"count": 1,
	"start": 0,
	"results": [
		{
			"number": 18171,
			"data": "1,1,3,6,10,20,36,66,120,219,400,728,1325,2413,4394,8000,14564,26515,48273,87884,160000,291290,530312,965468,1757696,3200000,5825805,10606252,19309364,35153937,64000000,116516108",
			"name": "Powers of fifth root of 20 rounded down.",
			"keyword": "nonn",
			"offset": "0,3",
			"author": "_N. J. A. Sloane_.",
			"references": 0,
			"revision": 4,
			"time": "2012-03-30T16:46:24-04:00",
			"created": "1996-12-11T03:00:00-05:00"
		}
	]
}