{
	"greeting": "Greetings from The On-Line Encyclopedia of Integer Sequences! http://oeis.org/",
	"query": "id:A018860",
	"count": 1,
	"start": 0,
	"results": [
		{
			"number": 18860,
			"data": "0,4,39,1,51,3,23,53,78,5,25,40,60,75,90,2,17,27,42,52,62,72,82,92,4,9,19,24,34,39,49,54,59,64,74,79,84,89,94,6,11,16,21,119,26,31,36,41,46,51,56,154,61,66,71,267,76,81,86,184,91,96,194,3,8,204,13,18,116,23,317,28",
			"name": "4^a(n) is smallest power of 4 beginning with n.",
			"link": [
				"D. Mondot, \u003ca href=\"/A018860/b018860.txt\"\u003eTable of n, a(n) for n=1..32699\u003c/a\u003e"
			],
			"keyword": "nonn,base",
			"offset": "1,2",
			"author": "_David W. Wilson_",
			"references": 2,
			"revision": 8,
			"time": "2012-03-30T18:35:08-04:00",
			"created": "1996-12-11T03:00:00-05:00"
		}
	]
}