{
	"greeting": "Greetings from The On-Line Encyclopedia of Integer Sequences! http://oeis.org/",
	"query": "id:A018137",
	"count": 1,
	"start": 0,
	"results": [
		{
			"number": 18137,
			"data": "1,2,3,4,6,8,13,19,28,43,64,98,148,223,338,512,777,1177,1783,2703,4096,6209,9411,14264,21619,32768,49668,75282,114105,172951,262144,397337,602249,912839,1383605,2097152",
			"name": "Powers of fifth root of 8 rounded up.",
			"mathematica": [
				"Ceiling[Surd[8,5]^Range[0,40]] (* _Harvey P. Dale_, Mar 06 2013 *)"
			],
			"keyword": "nonn",
			"offset": "0,2",
			"author": "_N. J. A. Sloane_.",
			"references": 0,
			"revision": 6,
			"time": "2013-03-06T08:58:01-05:00",
			"created": "1996-12-11T03:00:00-05:00"
		}
	]
}