{
	"greeting": "Greetings from The On-Line Encyclopedia of Integer Sequences! http://oeis.org/",
	"query": "id:A018848",
	"count": 1,
	"start": 0,
	"results": [
		{
			"number": 18848,
			"data": "0,1,6889,69169,109181601",
			"name": "Strobogrammatic squares: the same upside down (probably finite).",
			"comment": [
				"Square numbers which when written down and rotated by 180 degrees are unchanged.",
				"Subsequence of squares in A000787. - _Derek Orr_ and _Michel Marcus_, Aug 04 2014"
			],
			"xref": [
				"Cf. A000787, A018849 (similar sequence)."
			],
			"keyword": "nonn,base",
			"offset": "1,3",
			"author": "_David W. Wilson_",
			"references": 4,
			"revision": 19,
			"time": "2014-08-08T09:19:14-04:00",
			"created": "1996-12-11T03:00:00-05:00"
		}
	]
}