{
	"greeting": "Greetings from The On-Line Encyclopedia of Integer Sequences! http://oeis.org/",
	"query": "id:A018022",
	"count": 1,
	"start": 0,
	"results": [
		{
			"number": 18022,
			"data": "1,3,6,16,40,102,256,645,1625,4096,10321,26008,65536,165140,416128,1048576,2642246,6658043,16777216,42275935,106528681,268435456,676414963,1704458901,4294967296,10822639410,27271342415,68719476736,173162230555",
			"name": "Powers of cube root of 16 rounded to nearest integer.",
			"link": [
				"Vincenzo Librandi, \u003ca href=\"/A018022/b018022.txt\"\u003eTable of n, a(n) for n = 0..200\u003c/a\u003e"
			],
			"mathematica": [
				"Table[Round[16^(n/3)], {n, 0, 40}] (* _Vincenzo Librandi_, Jan 08 2014 *)"
			],
			"program": [
				"(MAGMA) [Round(16^(n/3)): n in [0..40]]; // _Vincenzo Librandi_, Jan 08 2014"
			],
			"xref": [
				"Cf. powers of cube root of k rounded up: A017980 (k=2), A017983 (k=3), A017986 (k=4), A017989 (k=5), A017992 (k=6), A017995 (k=7), A018001 (k=9), A018004 (k=10), A018007 (k=11), A018010 (k=12), A018013 (k=13), A018016 (k=14), A018019 (k=15), this sequence (k=16), A018025 (k=17), A018028 (k=18), A018031 (k=19), A018034 (k=20), A018037 (k=21), A018040 (k=22), A018043 (k=23), A018046 (k=24)."
			],
			"keyword": "nonn",
			"offset": "0,2",
			"author": "_N. J. A. Sloane_",
			"ext": [
				"More terms from _Vincenzo Librandi_, Jan 08 2014"
			],
			"references": 22,
			"revision": 10,
			"time": "2021-12-27T21:19:24-05:00",
			"created": "1996-12-11T03:00:00-05:00"
		}
	]
}