{
	"greeting": "Greetings from The On-Line Encyclopedia of Integer Sequences! http://oeis.org/",
	"query": "id:A018720",
	"count": 1,
	"start": 0,
	"results": [
		{
			"number": 18720,
			"data": "1,2,4,229,458,916",
			"name": "Divisors of 916.",
			"link": [
				"\u003ca href=\"/index/Di#divisors\"\u003eIndex entries for sequences related to divisors of numbers\u003c/a\u003e"
			],
			"mathematica": [
				"Divisors[916] (* _Harvey P. Dale_, Jun 05 2019 *)"
			],
			"program": [
				"(Sage) divisors(916); # _Zerinvary Lajos_, Jun 15 2009",
				"(PARI) divisors(916) \\\\ _Charles R Greathouse IV_, Jun 23 2017"
			],
			"keyword": "nonn,fini,full,easy",
			"offset": "1,2",
			"author": "_N. J. A. Sloane_",
			"references": 0,
			"revision": 18,
			"time": "2019-06-05T10:38:42-04:00",
			"created": "1996-12-11T03:00:00-05:00"
		}
	]
}