{
	"greeting": "Greetings from The On-Line Encyclopedia of Integer Sequences! http://oeis.org/",
	"query": "id:A019803",
	"count": 1,
	"start": 0,
	"results": [
		{
			"number": 19803,
			"data": "2,1,1,9,6,7,6,3,4,6,9,0,6,4,7,6,5,4,8,5,1,2,3,0,5,5,1,1,0,6,2,1,8,2,6,1,4,8,9,1,1,2,3,9,0,8,3,5,2,3,5,3,1,1,1,8,2,5,5,4,2,2,2,5,2,5,0,9,1,8,2,2,6,7,3,8,7,7,9,4,0,8,6,3,8,7,5,4,5,3,7,9,9,5,8,8,8,8,6",
			"name": "Decimal expansion of sqrt(2*e)/11.",
			"link": [
				"Ivan Panchenko, \u003ca href=\"/A019803/b019803.txt\"\u003eTable of n, a(n) for n = 0..1000\u003c/a\u003e"
			],
			"example": [
				"0.211967634690647654851230551106218261489112390835235311182554222525..."
			],
			"mathematica": [
				"RealDigits[Sqrt[2E]/11,10,120][[1]] (* _Harvey P. Dale_, Nov 25 2012 *)"
			],
			"program": [
				"(PARI) default(realprecision, 100); sqrt(2*exp(1))/11 \\\\ _G. C. Greubel_, Sep 08 2018",
				"(MAGMA) SetDefaultRealField(RealField(100)); R:= RealField(); Sqrt(2*Exp(1))/11; // _G. C. Greubel_, Sep 08 2018"
			],
			"xref": [
				"Cf. A019798 (sqrt(2*e))."
			],
			"keyword": "nonn,cons",
			"offset": "0,1",
			"author": "_N. J. A. Sloane_",
			"references": 1,
			"revision": 14,
			"time": "2018-09-09T08:39:36-04:00",
			"created": "1996-12-11T03:00:00-05:00"
		}
	]
}