{
	"greeting": "Greetings from The On-Line Encyclopedia of Integer Sequences! http://oeis.org/",
	"query": "id:A019179",
	"count": 1,
	"start": 0,
	"results": [
		{
			"number": 19179,
			"data": "0,0,5,4,3,24,46,86,253,576,1397,3592,8596,21725,55668,139137,356719,921053,2368628,6165627,16099130,42045592,110522792,291264353,768592256,2036215796,5408656458,14392052859,38395090089",
			"name": "Cycle class sequence c(n) (the number of true cycles of length n in which a certain node is included) for zeolite MOR = Mordenite Na8[ Al8Si40O96 ] . 24 H2O.",
			"reference": [
				"G. Thimm and W. E. Klee, Zeolite cycle sequences, Zeolites, 19, pp. 422-424, 1997."
			],
			"link": [
				"G. Thimm, \u003ca href=\"/thimm1.html\"\u003eCycle sequences of crystal structures\u003c/a\u003e"
			],
			"keyword": "nonn,more",
			"offset": "3,3",
			"author": "Georg Thimm (mgeorg(AT)ntu.edu.sg)",
			"ext": [
				"a(21)-a(31) from _Sean A. Irvine_, Apr 12 2019"
			],
			"references": 0,
			"revision": 10,
			"time": "2019-04-13T01:29:38-04:00",
			"created": "1996-12-11T03:00:00-05:00"
		}
	]
}