{
	"greeting": "Greetings from The On-Line Encyclopedia of Integer Sequences! http://oeis.org/",
	"query": "id:A019827",
	"count": 1,
	"start": 0,
	"results": [
		{
			"number": 19827,
			"data": "3,0,9,0,1,6,9,9,4,3,7,4,9,4,7,4,2,4,1,0,2,2,9,3,4,1,7,1,8,2,8,1,9,0,5,8,8,6,0,1,5,4,5,8,9,9,0,2,8,8,1,4,3,1,0,6,7,7,2,4,3,1,1,3,5,2,6,3,0,2,3,1,4,0,9,4,5,1,2,2,4,8,5,3,6,0,3,6,0,2,0,9,4,6,9,5,5,6,8",
			"name": "Decimal expansion of sin(Pi/10) (angle of 18 degrees).",
			"comment": [
				"Decimal expansion of cos(2*Pi/5) (angle of 72 degrees).",
				"Also the imaginary part of i^(1/5). - _Stanislav Sykora_, Apr 25 2012",
				"One of the two roots of 4x^2 + 2x - 1 (the other is the sine of 54 degrees times -1). - _Alonso del Arte_, Apr 25 2015",
				"This is the height h of the isosceles triangle in a regular pentagon inscribed in a unit circle, formed by a diagonal as base and two adjacent radii. h = cos(2*Pi/5) = sin(Pi/10). - _Wolfdieter Lang_, Jan 08 2018",
				"Quadratic number of denominator 2 and minimal polynomial 4x^2 + 2x - 1. - _Charles R Greathouse IV_, May 13 2019"
			],
			"link": [
				"Zak Seidov, \u003ca href=\"/A019827/b019827.txt\"\u003eTable of n, a(n) for n = 0..999\u003c/a\u003e",
				"Hideyuki Ohtsuka, \u003ca href=\"https://www.fq.math.ca/Problems/ElemProbSolnNov2018.pdf\"\u003eProblem B-1237\u003c/a\u003e, Elementary Problems and Solutions, The Fibonacci Quarterly, Vol. 56, No. 4 (2018), p. 366; \u003ca href=\"https://www.fq.math.ca/Problems/ElemProbSolnNov2019.pdf\"\u003eA Telescoping Product\u003c/a\u003e, Solution to Problem B-1237 by Steve Edwards, ibid., Vol. 57, No. 4 (2019), pp. 369-370.",
				"Wikipedia, \u003ca href=\"http://en.wikipedia.org/wiki/Exact_trigonometric_constants\"\u003eExact trigonometric constants\u003c/a\u003e."
			],
			"formula": [
				"Equals (sqrt(5) - 1)/4 = (phi - 1)/2 = 1/(2*phi), with phi from A001622.",
				"Equals 1/(1 + sqrt(5)). - _Omar E. Pol_, Nov 15 2007",
				"Equals 1/A134945. - _R. J. Mathar_, Jan 17 2021",
				"Equals 2*A019818*A019890. - _R. J. Mathar_, Jan 17 2021",
				"Equals Product_{k\u003e=1} 1 - 1/(phi + phi^k), where phi is the golden ratio (A001622) (Ohtsuka, 2018). - _Amiram Eldar_, Dec 02 2021"
			],
			"example": [
				"0.30901699437494742410229341718281905886015458990288143106772431135263..."
			],
			"mathematica": [
				"RealDigits[Sin[18 Degree], 10, 108][[1]] (* _Alonso del Arte_, Apr 20 2015 *)"
			],
			"program": [
				"(PARI) sin(Pi/10) \\\\ _Charles R Greathouse IV_, Feb 03 2015",
				"(PARI) polrootsreal(4*x^2 + 2*x - 1)[2] \\\\ _Charles R Greathouse IV_, Feb 03 2015"
			],
			"xref": [
				"Cf. A001622, A019845, A019863."
			],
			"keyword": "nonn,cons,easy",
			"offset": "0,1",
			"author": "_N. J. A. Sloane_",
			"references": 22,
			"revision": 67,
			"time": "2021-12-03T09:56:02-05:00",
			"created": "1996-12-11T03:00:00-05:00"
		}
	]
}