{
	"greeting": "Greetings from The On-Line Encyclopedia of Integer Sequences! http://oeis.org/",
	"query": "id:A019796",
	"count": 1,
	"start": 0,
	"results": [
		{
			"number": 19796,
			"data": "7,1,6,8,3,5,3,3,5,0,8,7,0,1,2,2,3,7,7,6,0,2,8,2,9,5,1,2,2,3,5,4,9,3,7,8,9,7,9,9,0,2,6,5,2,4,8,2,6,7,3,0,4,8,5,1,0,9,0,4,0,4,8,5,3,9,4,1,7,8,3,5,3,0,1,8,3,2,8,7,3,3,1,8,5,9,8,4,8,6,9,8,1,0,2,8,9,7,5",
			"name": "Decimal expansion of sqrt(e)/23.",
			"link": [
				"Ivan Panchenko, \u003ca href=\"/A019796/b019796.txt\"\u003eTable of n, a(n) for n = 0..1000\u003c/a\u003e"
			],
			"keyword": "nonn,cons",
			"offset": "0,1",
			"author": "_N. J. A. Sloane_.",
			"references": 1,
			"revision": 7,
			"time": "2014-08-31T02:57:19-04:00",
			"created": "1996-12-11T03:00:00-05:00"
		}
	]
}