{
	"greeting": "Greetings from The On-Line Encyclopedia of Integer Sequences! http://oeis.org/",
	"query": "id:A019148",
	"count": 1,
	"start": 0,
	"results": [
		{
			"number": 19148,
			"data": "0,0,4,5,9,26,47,120,309,612,1449,3708,8653,20721,53261,133949,333428,865874,2254196,5819271,15294876,40448411,106628317,282842205,753174274,2004759492,5347626549,14291732370",
			"name": "Cycle class sequence c(n) (the number of true cycles of length n in which a certain node is included) for zeolite MEL = ZSM-11 Nan[ AlnSi96-nO192 ].",
			"reference": [
				"G. Thimm and W. E. Klee, Zeolite cycle sequences, Zeolites, 19, pp. 422-424, 1997."
			],
			"link": [
				"G. Thimm, \u003ca href=\"/thimm1.html\"\u003eCycle sequences of crystal structures\u003c/a\u003e"
			],
			"keyword": "nonn,more",
			"offset": "3,3",
			"author": "Georg Thimm (mgeorg(AT)ntu.edu.sg)",
			"ext": [
				"a(20)-a(30) from _Sean A. Irvine_, Apr 09 2019"
			],
			"references": 0,
			"revision": 10,
			"time": "2019-04-09T03:18:12-04:00",
			"created": "1996-12-11T03:00:00-05:00"
		}
	]
}