{
	"greeting": "Greetings from The On-Line Encyclopedia of Integer Sequences! http://oeis.org/",
	"query": "id:A019385",
	"count": 1,
	"start": 0,
	"results": [
		{
			"number": 19385,
			"data": "2,7,11,17,23,29,37,43,53,59,67,71,89,101,139,151,157,173,191,193,223,227,233,251,307,337,359,373,383,389,397,401,419,433,457,467,499,509,547,557,577,587,593,599,617,631,643,647,653,673,677,709,743,769,821,887,941",
			"name": "Primes with primitive root 61.",
			"link": [
				"Vincenzo Librandi, \u003ca href=\"/A019385/b019385.txt\"\u003eTable of n, a(n) for n = 1..1000\u003c/a\u003e",
				"\u003ca href=\"/index/Pri#primes_root\"\u003eIndex entries for primes by primitive root\u003c/a\u003e"
			],
			"mathematica": [
				"pr=61; Select[Prime[Range[200]], MultiplicativeOrder[pr, # ] == #-1 \u0026]"
			],
			"keyword": "nonn",
			"offset": "1,1",
			"author": "_David W. Wilson_",
			"references": 1,
			"revision": 16,
			"time": "2014-03-31T06:39:05-04:00",
			"created": "1996-12-11T03:00:00-05:00"
		}
	]
}