{
	"greeting": "Greetings from The On-Line Encyclopedia of Integer Sequences! http://oeis.org/",
	"query": "id:A019103",
	"count": 1,
	"start": 0,
	"results": [
		{
			"number": 19103,
			"data": "0,0,6,6,5,27,48,90,240,509,1258,3279,7694,19611,51180,128869,332925,869682,2261400,5927998,15574925,40925436,107951037,285169848,754303062,2000457878,5315573176,14150928435,37752107214",
			"name": "Cycle class sequence c(n) (the number of true cycles of length n in which a certain node is included) for zeolite DAC = Dachiardite Na5[ Al5Si19O48 ] . 12 H2O.",
			"reference": [
				"G. Thimm and W. E. Klee, Zeolite cycle sequences, Zeolites, 19, pp. 422-424, 1997."
			],
			"link": [
				"G. Thimm, \u003ca href=\"/thimm1.html\"\u003eCycle sequences of crystal structures\u003c/a\u003e"
			],
			"keyword": "nonn,more",
			"offset": "3,3",
			"author": "Georg Thimm (mgeorg(AT)ntu.edu.sg)",
			"ext": [
				"a(21)-a(31) from _Sean A. Irvine_, Apr 04 2019"
			],
			"references": 0,
			"revision": 9,
			"time": "2019-04-04T21:25:45-04:00",
			"created": "1996-12-11T03:00:00-05:00"
		}
	]
}