{
	"greeting": "Greetings from The On-Line Encyclopedia of Integer Sequences! http://oeis.org/",
	"query": "id:A019753",
	"count": 1,
	"start": 0,
	"results": [
		{
			"number": 19753,
			"data": "1,6,9,8,9,2,6,1,4,2,7,8,6,9,0,3,2,7,2,1,0,0,1,7,9,6,6,9,5,9,5,4,1,4,0,6,1,0,9,8,2,7,9,4,3,3,5,6,2,4,7,4,7,3,4,3,5,4,3,5,4,7,6,7,3,2,7,5,4,7,8,9,3,9,7,0,9,6,7,2,4,6,6,0,7,1,1,3,8,6,1,5,7,8,2,2,9,0,1",
			"name": "Decimal expansion of e/16.",
			"link": [
				"Ivan Panchenko, \u003ca href=\"/A019753/b019753.txt\"\u003eTable of n, a(n) for n = 0..1000\u003c/a\u003e"
			],
			"mathematica": [
				"RealDigits[E/16,10,120][[1]] (* _Harvey P. Dale_, Feb 27 2012 *)"
			],
			"xref": [
				"Cf. A001113."
			],
			"keyword": "nonn,cons",
			"offset": "0,2",
			"author": "_N. J. A. Sloane_.",
			"references": 1,
			"revision": 11,
			"time": "2014-08-30T14:46:25-04:00",
			"created": "1996-12-11T03:00:00-05:00"
		}
	]
}