{
	"greeting": "Greetings from The On-Line Encyclopedia of Integer Sequences! http://oeis.org/",
	"query": "id:A019483",
	"count": 1,
	"start": 0,
	"results": [
		{
			"number": 19483,
			"data": "1,20,276,3280,36176,383040,3962176,40428800,409195776,4121666560,41395966976,415039672320,4156893515776,41607983022080,416314385842176,4164552265891840,41653977398706176,416590519605657600",
			"name": "Expansion of 1/((1-4x)(1-6x)(1-10x)).",
			"link": [
				"Vincenzo Librandi, \u003ca href=\"/A019483/b019483.txt\"\u003eTable of n, a(n) for n = 0..200\u003c/a\u003e",
				"\u003ca href=\"/index/Rec\"\u003eIndex entries for linear recurrences with constant coefficients\u003c/a\u003e, signature (20,-124,240)."
			],
			"formula": [
				"a(n) = 4*4^n/3 -9*6^n/2 +25*10^n/6. - _R. J. Mathar_, Jun 29 2013",
				"a(0)=1, a(1)=20, a(2)=276; for n\u003e2, a(n) = 20*a(n-1) -124*a(n-2) +240*a(n-3). - _Vincenzo Librandi_, Jul 03 2013",
				"a(n) = 16*a(n-1) -60*a(n-2) +4^n. - _Vincenzo Librandi_, Jul 03 2013"
			],
			"mathematica": [
				"CoefficientList[Series[1 / ((1 - 4 x) (1 - 6 x) (1 - 10 x)), {x, 0, 20}], x] (* _Vincenzo Librandi_, Jul 03 2013 *)",
				"LinearRecurrence[{20,-124,240},{1,20,276},20] (* _Harvey P. Dale_, Aug 15 2017 *)"
			],
			"program": [
				"(MAGMA) m:=20; R\u003cx\u003e:=PowerSeriesRing(Integers(), m); Coefficients(R!(1/((1-4*x)*(1-6*x)*(1-10*x)))); /* or */ I:=[1, 20, 276]; [n le 3 select I[n] else 20*Self(n-1)-124*Self(n-2)+240*Self(n-3): n in [1..20]]; // _Vincenzo Librandi_, Jul 03 2013"
			],
			"keyword": "nonn,easy",
			"offset": "0,2",
			"author": "_N. J. A. Sloane_.",
			"references": 1,
			"revision": 14,
			"time": "2017-08-15T18:08:26-04:00",
			"created": "1999-12-11T03:00:00-05:00"
		}
	]
}