{
	"greeting": "Greetings from The On-Line Encyclopedia of Integer Sequences! http://oeis.org/",
	"query": "id:A019494",
	"count": 1,
	"start": 0,
	"results": [
		{
			"number": 19494,
			"data": "4,10,24,57,135,319,753,1777,4193,9893,23341,55069,129925,306533,723205,1706261,4025589,9497589,22407701,52866581,124728341,294272085,694277333,1638011349,3864566869,9117688405,21511399509,50751932757,119739242325,282501283669",
			"name": "Define the sequence T(a(0),a(1)) by a(n+2) is the greatest integer such that a(n+2)/a(n+1) \u003c a(n+1)/a(n) for n \u003e= 0. This is T(4,10).",
			"comment": [
				"Not to be confused with the Pisot T(4,10) sequence, which is A020748. - _R. J. Mathar_, Feb 13 2016"
			],
			"link": [
				"Colin Barker, \u003ca href=\"/A019494/b019494.txt\"\u003eTable of n, a(n) for n = 0..1000\u003c/a\u003e",
				"D. W. Boyd, \u003ca href=\"http://www.researchgate.net/publication/258834801\"\u003eLinear recurrence relations for some generalized Pisot sequences\u003c/a\u003e, Advances in Number Theory ( Kingston ON, 1991) 333-340, Oxford Sci. Publ., Oxford Univ. Press, New York, 1993."
			],
			"formula": [
				"Empirical G.f.: (4-2*x+2*x^2-3*x^3)/(1-3*x+2*x^2-2*x^3+2*x^4). - _Colin Barker_, Feb 04 2012",
				"a(n+1) = ceiling(a(n)^2/a(n-1))-1 for n\u003e0. - _Bruno Berselli_, Feb 15 2016"
			],
			"mathematica": [
				"T[a_, b_, n_] := Block[{s = {a, b}, k}, Do[k = Ceiling[b Last@ s/a]; While[k/s[[i - 1]] \u003e= s[[i - 1]]/s[[i - 2]], k--]; AppendTo[s, k], {i, 3, n}]; s]; T[4, 10, 20] (* or *)",
				"a = {4, 10}; Do[AppendTo[a, Ceiling[a[[n - 1]]^2/a[[n - 2]]] - 1], {n, 3, 27}]; a (* _Michael De Vlieger_, Feb 15 2016 *)"
			],
			"program": [
				"(PARI) T(a0, a1, maxn) = a=vector(maxn); a[1]=a0; a[2]=a1; for(n=3, maxn, a[n]=ceil(a[n-1]^2/a[n-2])-1); a",
				"T(4, 10, 30) \\\\ _Colin Barker_, Feb 16 2016"
			],
			"keyword": "nonn",
			"offset": "0,1",
			"author": "_R. K. Guy_",
			"references": 1,
			"revision": 31,
			"time": "2016-02-16T08:37:08-05:00",
			"created": "1996-12-11T03:00:00-05:00"
		}
	]
}