{
	"greeting": "Greetings from The On-Line Encyclopedia of Integer Sequences! http://oeis.org/",
	"query": "id:A019930",
	"count": 1,
	"start": 0,
	"results": [
		{
			"number": 19930,
			"data": "6,2,4,8,6,9,3,5,1,9,0,9,3,2,7,5,0,9,7,8,0,5,1,0,8,2,7,9,4,9,4,3,6,6,5,8,3,1,0,8,7,0,2,0,2,8,4,2,7,0,4,9,6,6,7,6,3,6,5,7,3,8,0,3,3,2,9,3,3,6,4,7,5,9,6,3,9,4,8,5,8,4,4,1,0,3,8,2,7,8,8,6,1,4,6,8,7,8,2",
			"name": "Decimal expansion of tangent of 32 degrees.",
			"comment": [
				"Also the decimal expansion of cotangent of 58 degrees. - _Ivan Panchenko_, Sep 01 2014"
			],
			"link": [
				"Ivan Panchenko, \u003ca href=\"/A019930/b019930.txt\"\u003eTable of n, a(n) for n = 0..1000\u003c/a\u003e"
			],
			"mathematica": [
				"RealDigits[Tan[32 Degree],10,120][[1]] (* _Harvey P. Dale_, Jun 20 2021 *)"
			],
			"keyword": "nonn,cons",
			"offset": "0,1",
			"author": "_N. J. A. Sloane_.",
			"references": 1,
			"revision": 10,
			"time": "2021-06-20T13:44:13-04:00",
			"created": "1996-12-11T03:00:00-05:00"
		}
	]
}