{
	"greeting": "Greetings from The On-Line Encyclopedia of Integer Sequences! http://oeis.org/",
	"query": "id:A019653",
	"count": 1,
	"start": 0,
	"results": [
		{
			"number": 19653,
			"data": "3,2,4,6,9,8,0,4,0,5,9,1,3,6,4,2,0,7,1,7,1,2,9,1,4,5,2,9,0,0,8,5,3,5,9,0,5,9,9,7,6,7,5,0,5,8,4,9,6,1,8,5,3,9,8,9,0,8,6,0,0,0,1,2,7,4,6,6,1,7,9,6,9,2,9,2,1,7,4,3,1,6,0,4,8,8,4,0,6,3,0,8,5,2,2,8,7,6,9",
			"name": "Decimal expansion of sqrt(Pi*e)/9.",
			"link": [
				"Ivan Panchenko, \u003ca href=\"/A019653/b019653.txt\"\u003eTable of n, a(n) for n = 0..1000\u003c/a\u003e"
			],
			"mathematica": [
				"RealDigits[Sqrt[Pi E]/9,10,120][[1]] (* _Harvey P. Dale_, Apr 06 2013 *)"
			],
			"program": [
				"(PARI) sqrt(Pi*exp (1))/9 \\\\ _G. C. Greubel_, Jan 10 2017",
				"(MAGMA) C\u003ci\u003e := ComplexField(); [Sqrt(Pi(C)*Exp(1))/9]; // _G. C. Greubel_, Nov 06 2017"
			],
			"xref": [
				"Cf. A019645."
			],
			"keyword": "nonn,cons",
			"offset": "0,1",
			"author": "_N. J. A. Sloane_",
			"references": 1,
			"revision": 20,
			"time": "2017-11-07T03:43:31-05:00",
			"created": "1996-12-11T03:00:00-05:00"
		}
	]
}