{
	"greeting": "Greetings from The On-Line Encyclopedia of Integer Sequences! http://oeis.org/",
	"query": "id:A019971",
	"count": 1,
	"start": 0,
	"results": [
		{
			"number": 19971,
			"data": "3,2,7,0,8,5,2,6,1,8,4,8,4,1,4,0,8,6,5,3,0,8,8,5,6,2,5,7,3,0,5,4,1,0,7,7,7,1,0,5,9,4,2,6,8,4,3,1,8,8,1,0,7,0,3,6,4,0,0,8,8,0,3,4,8,2,3,6,6,1,1,6,1,0,0,9,2,6,7,9,9,4,3,4,1,5,8,5,5,4,2,5,1,2,0,4,8,2,0",
			"name": "Decimal expansion of tangent of 73 degrees.",
			"comment": [
				"Also the decimal expansion of cotangent of 17 degrees. - _Ivan Panchenko_, Sep 01 2014"
			],
			"link": [
				"Ivan Panchenko, \u003ca href=\"/A019971/b019971.txt\"\u003eTable of n, a(n) for n = 1..1000\u003c/a\u003e"
			],
			"example": [
				"3.27085261848414086530885625730541077710594268431881..."
			],
			"mathematica": [
				"RealDigits[Tan[73*Pi/180], 10, 100][[1]] (* _G. C. Greubel_, Nov 20 2018 *)"
			],
			"program": [
				"(PARI) default(realprecision, 100); tan(73*Pi/180) \\\\ _G. C. Greubel_, Nov 20 2018",
				"(MAGMA) SetDefaultRealField(RealField(100)); R:= RealField(); Tan(73*Pi(R)/180); // _G. C. Greubel_, Nov 20 2018",
				"(Sage) numerical_approx(tan(73*pi/180), digits=100) # _G. C. Greubel_, Nov 20 2018"
			],
			"xref": [
				"Cf. A019882."
			],
			"keyword": "nonn,cons",
			"offset": "1,1",
			"author": "_N. J. A. Sloane_",
			"references": 1,
			"revision": 17,
			"time": "2018-11-22T02:47:42-05:00",
			"created": "1996-12-11T03:00:00-05:00"
		}
	]
}