{
	"greeting": "Greetings from The On-Line Encyclopedia of Integer Sequences! http://oeis.org/",
	"query": "id:A019713",
	"count": 1,
	"start": 0,
	"results": [
		{
			"number": 19713,
			"data": "1,6,1,1,3,2,1,6,8,2,6,4,1,3,7,8,2,0,6,6,3,4,6,9,7,7,1,2,1,2,8,3,1,3,8,0,2,5,4,3,2,2,6,7,7,8,2,9,3,0,7,9,2,0,7,4,6,7,0,9,7,9,9,0,7,7,5,3,7,3,8,9,5,0,8,2,7,5,6,5,2,8,5,2,2,6,8,2,4,1,5,2,1,6,8,5,8,7,8",
			"name": "Decimal expansion of sqrt(Pi)/11.",
			"link": [
				"Ivan Panchenko, \u003ca href=\"/A019713/b019713.txt\"\u003eTable of n, a(n) for n = 0..1000\u003c/a\u003e"
			],
			"mathematica": [
				"RealDigits[Sqrt[Pi]/11,10,120][[1]] (* _Harvey P. Dale_, Aug 24 2015 *)"
			],
			"keyword": "nonn,cons",
			"offset": "0,2",
			"author": "_N. J. A. Sloane_.",
			"references": 1,
			"revision": 10,
			"time": "2015-08-24T11:14:36-04:00",
			"created": "1996-12-11T03:00:00-05:00"
		}
	]
}