{
	"greeting": "Greetings from The On-Line Encyclopedia of Integer Sequences! http://oeis.org/",
	"query": "id:A020844",
	"count": 1,
	"start": 0,
	"results": [
		{
			"number": 20844,
			"data": "1,0,7,2,1,1,2,5,3,4,8,3,7,7,9,4,8,3,2,8,2,2,3,5,3,5,1,0,6,1,1,5,5,8,2,7,3,9,3,9,7,9,7,7,8,0,9,4,1,5,6,9,5,0,2,4,2,0,2,5,2,5,6,3,0,3,9,8,6,0,2,9,2,9,6,6,3,5,0,5,3,7,7,4,8,7,6,0,9,8,4,2,4,2,7,4,5,0,5",
			"name": "Decimal expansion of 1/sqrt(87).",
			"link": [
				"Ivan Panchenko, \u003ca href=\"/A020844/b020844.txt\"\u003eTable of n, a(n) for n = 0..1000\u003c/a\u003e"
			],
			"mathematica": [
				"RealDigits[1/Sqrt[87],10,120][[1]] (* _Harvey P. Dale_, Apr 27 2013 *)"
			],
			"keyword": "nonn,cons",
			"offset": "0,3",
			"author": "_N. J. A. Sloane_.",
			"references": 1,
			"revision": 9,
			"time": "2014-10-13T10:55:28-04:00",
			"created": "1996-12-11T03:00:00-05:00"
		}
	]
}