{
	"greeting": "Greetings from The On-Line Encyclopedia of Integer Sequences! http://oeis.org/",
	"query": "id:A020001",
	"count": 1,
	"start": 0,
	"results": [
		{
			"number": 20001,
			"data": "1,1,2,5,20,99,584,4038,31970,285070,2826941,30860774,367757553,4750201727,66106974037,986095696055,15695356495548,265513114049684,4757109960056837,89988663411075165,1792274212937247027,37488402287270750315,821620816796017277740",
			"name": "Nearest integer to Gamma(n + 11/12)/Gamma(11/12).",
			"comment": [
				"Gamma(n + 11/12)/Gamma(11/12) = 1, 11/12, 253/144, 8855/1728, 416185/20736, 24554915/248832, 1743398965/2985984, 144702114095/35831808, ..."
			],
			"link": [
				"Shujing Lyu, \u003ca href=\"/A020001/b020001.txt\"\u003eTable of n, a(n) for n = 0..449\u003c/a\u003e"
			],
			"formula": [
				"a(n) = round(Product_{k=0..n-1} (k+11/12)). - _Sean A. Irvine_, Apr 14 2019"
			],
			"maple": [
				"Digits := 64:f := proc(n,x) round(GAMMA(n+x)/GAMMA(x)); end:",
				"seq(f(n,11/12), n=0..22);"
			],
			"mathematica": [
				"Table[Round[Gamma[n + #]/Gamma[#]] \u0026[11/12], {n, 0, 20}] (* _Michael De Vlieger_, Apr 18 2016 *)"
			],
			"program": [
				"(PARI) a(n) = round(gamma(n+11/12)/gamma(11/12)); \\\\ _Michel Marcus_, Apr 19 2016",
				"(MAGMA) [Round(Gamma(n+11/12)/Gamma(11/12)): n in [1..30]]; // _G. C. Greubel_, Jan 19 2018"
			],
			"xref": [
				"Cf. A020046, A020091."
			],
			"keyword": "nonn",
			"offset": "0,3",
			"author": "_Simon Plouffe_",
			"references": 2,
			"revision": 30,
			"time": "2019-04-14T20:48:40-04:00",
			"created": "1996-12-11T03:00:00-05:00"
		}
	]
}