{
	"greeting": "Greetings from The On-Line Encyclopedia of Integer Sequences! http://oeis.org/",
	"query": "id:A020126",
	"count": 1,
	"start": 0,
	"results": [
		{
			"number": 20126,
			"data": "1,1,1,1,2,6,29,178,1270,10366,95020,966033,10787363,131246246,1728075563,24481070470,371296235456,6002622473193,103045019123133,1871984514070245,35879703186346360,723574014257984911",
			"name": "Ceiling of GAMMA(n+1/6)/GAMMA(1/6).",
			"maple": [
				"Digits := 64:f := proc(n,x) ceil(GAMMA(n+x)/GAMMA(x)); end;"
			],
			"keyword": "nonn",
			"offset": "0,5",
			"author": "_Simon Plouffe_",
			"references": 2,
			"revision": 6,
			"time": "2012-03-30T18:36:22-04:00",
			"created": "1996-12-11T03:00:00-05:00"
		}
	]
}