{
	"greeting": "Greetings from The On-Line Encyclopedia of Integer Sequences! http://oeis.org/",
	"query": "id:A020359",
	"count": 1,
	"start": 0,
	"results": [
		{
			"number": 20359,
			"data": "151,199,268,367,393,412,477,511,524,537,559,606,622,790,801,863,972,996,1002,1044,1065,1079,1151,1182,1195,1216,1353,1356,1374,1388,1397,1408,1415,1454,1500,1502,1510,1513,1528,1537,1603,1612,1687,1791,1854,1859",
			"name": "Numbers k such that the continued fraction for sqrt(k) has period 20.",
			"mathematica": [
				"cf20Q[n_]:=Module[{s=Sqrt[n]},!IntegerQ[s]\u0026\u0026Length[ContinuedFraction[s][[2]]]==20]; Select[Range[2000],cf20Q] (* _Harvey P. Dale_, Mar 13 2013 *)"
			],
			"keyword": "nonn",
			"offset": "1,1",
			"author": "_David W. Wilson_",
			"references": 0,
			"revision": 12,
			"time": "2021-07-10T19:35:43-04:00",
			"created": "1996-12-11T03:00:00-05:00"
		}
	]
}