{
	"greeting": "Greetings from The On-Line Encyclopedia of Integer Sequences! http://oeis.org/",
	"query": "id:A020247",
	"count": 1,
	"start": 0,
	"results": [
		{
			"number": 20247,
			"data": "221,703,793,3781,7363,9061,11647,13051,17767,19669,19909,22681,27133,30073,31021,38503,41353,43213,58829,79081,80137,83569,88357,92509,96049,104653,107213,121987,127697,128627,129889,130561,133141,139679,139897",
			"name": "Strong pseudoprimes to base 21.",
			"link": [
				"R. J. Mathar, \u003ca href=\"/A020247/b020247.txt\"\u003eTable of n, a(n) for n = 1..204\u003c/a\u003e",
				"\u003ca href=\"/index/Ps#pseudoprimes\"\u003eIndex entries for sequences related to pseudoprimes\u003c/a\u003e"
			],
			"keyword": "nonn",
			"offset": "1,1",
			"author": "_David W. Wilson_",
			"references": 1,
			"revision": 11,
			"time": "2015-08-04T14:15:33-04:00",
			"created": "1996-12-11T03:00:00-05:00"
		}
	]
}