{
	"greeting": "Greetings from The On-Line Encyclopedia of Integer Sequences! http://oeis.org/",
	"query": "id:A020275",
	"count": 1,
	"start": 0,
	"results": [
		{
			"number": 20275,
			"data": "25,325,703,817,2101,2353,3277,4525,11041,14089,20197,25829,26419,29857,29891,30811,33227,38503,39331,45991,49241,49321,58825,64681,65131,75241,76627,78937,79381,84151,87673,88399,88831,102943,109061,116003,126673",
			"name": "Strong pseudoprimes to base 49.",
			"link": [
				"R. J. Mathar, \u003ca href=\"/A020275/b020275.txt\"\u003eTable of n, a(n) for n = 1..1278\u003c/a\u003e",
				"\u003ca href=\"/index/Ps#pseudoprimes\"\u003eIndex entries for sequences related to pseudoprimes\u003c/a\u003e"
			],
			"keyword": "nonn",
			"offset": "1,1",
			"author": "_David W. Wilson_",
			"references": 1,
			"revision": 12,
			"time": "2014-08-11T22:45:15-04:00",
			"created": "1996-12-11T03:00:00-05:00"
		}
	]
}