{
	"greeting": "Greetings from The On-Line Encyclopedia of Integer Sequences! http://oeis.org/",
	"query": "id:A020984",
	"count": 1,
	"start": 0,
	"results": [
		{
			"number": 20984,
			"data": "1,32,685,12260,198121,2997512,43322245,605523020,8251539841,110243798192,1449890883805,18826690025780,241910703467161,3081364962170072,38962058064701365,489593051613776540,6119501542765132081,76138929852279201152,943571277592721190925",
			"name": "Expansion of 1/((1-9*x)*(1-11*x)*(1-12*x)).",
			"link": [
				"G. C. Greubel, \u003ca href=\"/A020984/b020984.txt\"\u003eTable of n, a(n) for n = 0..920\u003c/a\u003e",
				"\u003ca href=\"/index/Rec#order_03\"\u003eIndex entries for linear recurrences with constant coefficients\u003c/a\u003e, signature (32,-339,1188)"
			],
			"formula": [
				"a(n) = 32*a(n-1) - 339*a(n-2) + 1188*a(n-3), n \u003e= 3. - _Vincenzo Librandi_, Mar 18 2011",
				"a(n) = 23*a(n-1) - 132*a(n-2) + 9^n, n \u003e= 2. - _Vincenzo Librandi_, Mar 18 2011",
				"a(n) = 4*12^(n+1) - 11^(n+2)/2+3*9^(n+1)/2. - _R. J. Mathar_, Mar 19 2011"
			],
			"mathematica": [
				"CoefficientList[Series[1/((1-9*x)*(1-11*x)*(1-12*x)), {x,0,50}], x] (* _G. C. Greubel_, Feb 09 2018 *)"
			],
			"program": [
				"(PARI) x='x+O('x^30); Vec(1/((1-9*x)*(1-11*x)*(1-12*x))) \\\\ _G. C. Greubel_, Feb 09 2018",
				"(MAGMA) R\u003cx\u003e:=PowerSeriesRing(Integers(), 30); Coefficients(R!(1/((1-9*x)*(1-11*x)*(1-12*x)))); // _G. C. Greubel_, Feb 09 2018"
			],
			"keyword": "nonn",
			"offset": "0,2",
			"author": "_N. J. A. Sloane_",
			"ext": [
				"a(18) corrected by _Andrew Howroyd_, Feb 23 2018"
			],
			"references": 1,
			"revision": 24,
			"time": "2018-02-23T22:15:04-05:00",
			"created": "1999-12-11T03:00:00-05:00"
		}
	]
}