{
	"greeting": "Greetings from The On-Line Encyclopedia of Integer Sequences! http://oeis.org/",
	"query": "id:A020288",
	"count": 1,
	"start": 0,
	"results": [
		{
			"number": 20288,
			"data": "9,21,63,91,231,361,679,1261,1541,2871,3367,3439,3845,4141,4577,6533,8827,10349,11521,13333,13833,16129,17153,17893,28381,30121,38503,46657,54223,56551,65341,74233,79501,80137,83953,88561,96139,111361,118301",
			"name": "Strong pseudoprimes to base 62.",
			"link": [
				"R. J. Mathar, \u003ca href=\"/A020288/b020288.txt\"\u003eTable of n, a(n) for n = 1..300\u003c/a\u003e",
				"\u003ca href=\"/index/Ps#pseudoprimes\"\u003eIndex entries for sequences related to pseudoprimes\u003c/a\u003e"
			],
			"keyword": "nonn",
			"offset": "1,1",
			"author": "_David W. Wilson_",
			"references": 1,
			"revision": 11,
			"time": "2015-08-07T03:41:58-04:00",
			"created": "1996-12-11T03:00:00-05:00"
		}
	]
}