{
	"greeting": "Greetings from The On-Line Encyclopedia of Integer Sequences! http://oeis.org/",
	"query": "id:A020998",
	"count": 1,
	"start": 0,
	"results": [
		{
			"number": 20998,
			"data": "1,7,165,227,278,322,323,385,414,433,439,634,860,964,1045,1268",
			"name": "Numbers n such that the sum of the digits of Lucas(n) in base 12 is n.",
			"link": [
				"David Terr, \u003ca href=\"http://www.fq.math.ca/Scanned/34-4/terr.pdf\"\u003eOn the Sums of Digits of Fibonacci Numbers,\u003c/a\u003e Fibonacci Quarterly 34, Aug. 1996, pp. 349-355."
			],
			"program": [
				"(PARI) isok(n) = vecsum(digits(fibonacci(n+1)+fibonacci(n-1), 12)) == n; \\\\ _Michel Marcus_, Feb 18 2015"
			],
			"xref": [
				"Cf. A020996."
			],
			"keyword": "nonn,base",
			"offset": "1,2",
			"author": "_Sven Simon_",
			"references": 1,
			"revision": 11,
			"time": "2015-02-18T04:01:17-05:00",
			"created": "1998-06-14T03:00:00-04:00"
		}
	]
}