{
	"greeting": "Greetings from The On-Line Encyclopedia of Integer Sequences! http://oeis.org/",
	"query": "id:A020044",
	"count": 1,
	"start": 0,
	"results": [
		{
			"number": 20044,
			"data": "1,0,0,1,3,15,80,506,3710,30920,288591,2982109,33797241,416832633,5557768440,79661347641,1221473997164,19950741953682,345812860530488,6339902443058941,122571447232472866,2492286093726948268",
			"name": "a(n) = round(Gamma(n+1/3)/Gamma(1/3)).",
			"comment": [
				"Gamma(n+1/3)/Gamma(1/3) = {1, 1/3, 4/9, 28/27, 280/81, 3640/243, 58240/729, 1106560/2187, ...}. - _R. J. Mathar_, Sep 04 2016"
			],
			"link": [
				"G. C. Greubel, \u003ca href=\"/A020044/b020044.txt\"\u003eTable of n, a(n) for n = 0..449\u003c/a\u003e"
			],
			"maple": [
				"Digits := 64:f := proc(n,x) round(GAMMA(n+x)/GAMMA(x)); end;",
				"seq(round(pochhammer(1/3,n)), n = 0..25); # _G. C. Greubel_, Dec 01 2019"
			],
			"mathematica": [
				"Round[Pochhammer[1/3, Range[0, 25]]] (* _G. C. Greubel_, Dec 01 2019 *)"
			],
			"program": [
				"(PARI) x=1/3; vector(26, n, round(gamma(n-1+x)/gamma(x)) ) \\\\ _G. C. Greubel_, Dec 01 2019",
				"(MAGMA) [Round(Gamma(n+1/3)/Gamma(1/3)): n in [0..25]]; // _G. C. Greubel_, Dec 01 2019",
				"(Sage) [round(rising_factorial(1/3, n)) for n in (0..25)] # _G. C. Greubel_, Dec 01 2019"
			],
			"xref": [
				"Cf. A007559, A020089, A020134."
			],
			"keyword": "nonn",
			"offset": "0,5",
			"author": "_Simon Plouffe_",
			"references": 3,
			"revision": 15,
			"time": "2019-12-02T09:23:48-05:00",
			"created": "1996-12-11T03:00:00-05:00"
		}
	]
}