{
	"greeting": "Greetings from The On-Line Encyclopedia of Integer Sequences! http://oeis.org/",
	"query": "id:A020372",
	"count": 1,
	"start": 0,
	"results": [
		{
			"number": 20372,
			"data": "613,937,1033,1114,1693,2785,3274,3373,3461,3593,3802,3946,4397,4589,4709,4813,4817,5242,5281,6997,7345,7837,7937,8266,8713,9818,9901,9941,10229,10330,11729,11789,12077,12130,12517,12842,12970,13165,13322,14138",
			"name": "Numbers k such that the continued fraction for sqrt(k) has period 33.",
			"keyword": "nonn",
			"offset": "1,1",
			"author": "_David W. Wilson_",
			"references": 0,
			"revision": 10,
			"time": "2021-07-11T07:24:38-04:00",
			"created": "1996-12-11T03:00:00-05:00"
		}
	]
}