{
	"greeting": "Greetings from The On-Line Encyclopedia of Integer Sequences! http://oeis.org/",
	"query": "id:A020097",
	"count": 1,
	"start": 0,
	"results": [
		{
			"number": 20097,
			"data": "1,1,2,4,13,61,346,2326,17973,156849,1525708,16366685,191936577,2442829157,33533382056,493855262997,7766996408942,129920667204110,2303139100436493,43131514062719763,850867141055471684",
			"name": "Ceiling of GAMMA(n+8/11)/GAMMA(8/11).",
			"maple": [
				"Digits := 64:f := proc(n,x) ceil(GAMMA(n+x)/GAMMA(x)); end;"
			],
			"keyword": "nonn",
			"offset": "0,3",
			"author": "_Simon Plouffe_",
			"references": 2,
			"revision": 6,
			"time": "2012-03-30T18:36:22-04:00",
			"created": "1996-12-11T03:00:00-05:00"
		}
	]
}