{
	"greeting": "Greetings from The On-Line Encyclopedia of Integer Sequences! http://oeis.org/",
	"query": "id:A020612",
	"count": 1,
	"start": 0,
	"results": [
		{
			"number": 20612,
			"data": "3,5,11,13,17,23,29,43,103,127,211",
			"name": "Smallest nonempty set S containing prime divisors of 7k+8 for each k in S.",
			"keyword": "nonn,fini,full",
			"offset": "1,1",
			"author": "_David W. Wilson_",
			"references": 0,
			"revision": 6,
			"time": "2012-03-30T18:35:15-04:00",
			"created": "1996-12-11T03:00:00-05:00"
		}
	]
}