{
	"greeting": "Greetings from The On-Line Encyclopedia of Integer Sequences! http://oeis.org/",
	"query": "id:A020892",
	"count": 1,
	"start": 0,
	"results": [
		{
			"number": 20892,
			"data": "2,3,4,5,5,6,7,7,8,9,9,10,11,11,12,13,13,14,14,15,15,16,17,17,18,18,19,19,20,21,21,21,22,22,23,23,24,24,25,25,26,26,27,27,28,29,29,30,30,30,31,31,32,33,33,33,33,34,34,35,35,36,37,37,38,38,39,39,39,39,40,41,41,42,42",
			"name": "Ordered set of (c + a - b)/2 as (a,b,c) runs through all primitive Pythagorean triples with a\u003cb\u003cc.",
			"link": [
				"Ray Chandler, \u003ca href=\"/A020892/b020892.txt\"\u003eTable of n, a(n) for n = 1..10000\u003c/a\u003e"
			],
			"formula": [
				"a(n) = A020891(n)/2."
			],
			"xref": [
				"Cf. A020891."
			],
			"keyword": "nonn",
			"offset": "1,1",
			"author": "_Clark Kimberling_",
			"ext": [
				"Offset corrected to 1 by _Ray Chandler_, Jan 23 2020"
			],
			"references": 6,
			"revision": 8,
			"time": "2020-01-23T17:47:46-05:00",
			"created": "1998-06-14T03:00:00-04:00"
		}
	]
}