{
	"greeting": "Greetings from The On-Line Encyclopedia of Integer Sequences! http://oeis.org/",
	"query": "id:A020110",
	"count": 1,
	"start": 0,
	"results": [
		{
			"number": 20110,
			"data": "1,1,2,4,15,70,401,2715,21116,185346,1812264,19532171,230045569,2939471158,40499380397,598490843643,9442855533027,158430131720784,2816535675036147,52888281009012093,1046012668844905827",
			"name": "Ceiling of Gamma(n + 7/9)/Gamma(7/9).",
			"maple": [
				"Digits := 64:f := proc(n,x) ceil(GAMMA(n+x)/GAMMA(x)); end;"
			],
			"mathematica": [
				"Table[Ceiling[Gamma[n + 7/9]/Gamma[7/9]], {n, 0, 29}] (* _Alonso del Arte_, Jun 17 2018 *)"
			],
			"program": [
				"(PARI) a(n) = ceil(gamma(n + 7/9)/gamma(7/9)); \\\\ _Michel Marcus_, Jun 21 2018"
			],
			"keyword": "nonn",
			"offset": "0,3",
			"author": "_Simon Plouffe_",
			"references": 2,
			"revision": 13,
			"time": "2018-06-22T04:41:03-04:00",
			"created": "1996-12-11T03:00:00-05:00"
		}
	]
}