{
	"greeting": "Greetings from The On-Line Encyclopedia of Integer Sequences! http://oeis.org/",
	"query": "id:A020251",
	"count": 1,
	"start": 0,
	"results": [
		{
			"number": 20251,
			"data": "217,781,1541,1891,4123,5461,5611,5731,7813,8911,11041,13021,13333,14981,15751,16297,17767,22791,23653,24211,25327,25351,29539,35371,36991,38081,40501,42127,44173,44801,47641,48133,53083,53971,58807,68251,79381,88831",
			"name": "Strong pseudoprimes to base 25.",
			"link": [
				"R. J. Mathar, \u003ca href=\"/A020251/b020251.txt\"\u003eTable of n, a(n) for n = 1..299\u003c/a\u003e",
				"\u003ca href=\"/index/Ps#pseudoprimes\"\u003eIndex entries for sequences related to pseudoprimes\u003c/a\u003e"
			],
			"keyword": "nonn",
			"offset": "1,1",
			"author": "_David W. Wilson_",
			"references": 1,
			"revision": 11,
			"time": "2015-08-04T16:06:23-04:00",
			"created": "1996-12-11T03:00:00-05:00"
		}
	]
}