{
	"greeting": "Greetings from The On-Line Encyclopedia of Integer Sequences! http://oeis.org/",
	"query": "id:A021472",
	"count": 1,
	"start": 0,
	"results": [
		{
			"number": 21472,
			"data": "0,0,2,1,3,6,7,5,2,1,3,6,7,5,2,1,3,6,7,5,2,1,3,6,7,5,2,1,3,6,7,5,2,1,3,6,7,5,2,1,3,6,7,5,2,1,3,6,7,5,2,1,3,6,7,5,2,1,3,6,7,5,2,1,3,6,7,5,2,1,3,6,7,5,2,1,3,6,7,5,2,1,3,6,7,5,2,1,3,6,7,5,2,1,3,6,7,5,2",
			"name": "Decimal expansion of 1/468.",
			"formula": [
				"a(n)=(1/30)*{3*(n mod 6)-7*[(n+1) mod 6]-2*[(n+2) mod 6]+13*[(n+3) mod 6]+23*[(n+4) mod 6]+18*[(n+5) mod 6]}-7*[C(2*n,n) mod 2]-5*{C[(n+1)^2,n+3] mod 2}, with n\u003e=0 [From _Paolo P. Lava_, Nov 11 2009]"
			],
			"keyword": "nonn,cons",
			"offset": "0,3",
			"author": "_N. J. A. Sloane_.",
			"references": 0,
			"revision": 7,
			"time": "2012-03-30T18:53:16-04:00",
			"created": "1996-12-11T03:00:00-05:00"
		}
	]
}