{
	"greeting": "Greetings from The On-Line Encyclopedia of Integer Sequences! http://oeis.org/",
	"query": "id:A021333",
	"count": 1,
	"start": 0,
	"results": [
		{
			"number": 21333,
			"data": "0,0,3,0,3,9,5,1,3,6,7,7,8,1,1,5,5,0,1,5,1,9,7,5,6,8,3,8,9,0,5,7,7,5,0,7,5,9,8,7,8,4,1,9,4,5,2,8,8,7,5,3,7,9,9,3,9,2,0,9,7,2,6,4,4,3,7,6,8,9,9,6,9,6,0,4,8,6,3,2,2,1,8,8,4,4,9,8,4,8,0,2,4,3,1,6,1,0,9",
			"name": "Decimal expansion of 1/329.",
			"keyword": "nonn,cons",
			"offset": "0,3",
			"author": "_N. J. A. Sloane_.",
			"references": 0,
			"revision": 4,
			"time": "2012-03-30T16:46:40-04:00",
			"created": "1996-12-11T03:00:00-05:00"
		}
	]
}