{
	"greeting": "Greetings from The On-Line Encyclopedia of Integer Sequences! http://oeis.org/",
	"query": "id:A021970",
	"count": 1,
	"start": 0,
	"results": [
		{
			"number": 21970,
			"data": "0,0,1,0,3,5,1,9,6,6,8,7,3,7,0,6,0,0,4,1,4,0,7,8,6,7,4,9,4,8,2,4,0,1,6,5,6,3,1,4,6,9,9,7,9,2,9,6,0,6,6,2,5,2,5,8,7,9,9,1,7,1,8,4,2,6,5,0,1,0,3,5,1,9,6,6,8,7,3,7,0,6,0,0,4,1,4,0,7,8,6,7,4,9,4,8,2,4,0",
			"name": "Decimal expansion of 1/966.",
			"keyword": "nonn,cons",
			"offset": "0,5",
			"author": "_N. J. A. Sloane_.",
			"references": 0,
			"revision": 4,
			"time": "2012-03-30T16:46:47-04:00",
			"created": "1996-12-11T03:00:00-05:00"
		}
	]
}