{
	"greeting": "Greetings from The On-Line Encyclopedia of Integer Sequences! http://oeis.org/",
	"query": "id:A021485",
	"count": 1,
	"start": 0,
	"results": [
		{
			"number": 21485,
			"data": "0,0,2,0,7,9,0,0,2,0,7,9,0,0,2,0,7,9,0,0,2,0,7,9,0,0,2,0,7,9,0,0,2,0,7,9,0,0,2,0,7,9,0,0,2,0,7,9,0,0,2,0,7,9,0,0,2,0,7,9,0,0,2,0,7,9,0,0,2,0,7,9,0,0,2,0,7,9,0,0,2,0,7,9,0,0,2,0,7,9,0,0,2,0,7,9,0,0,2",
			"name": "Decimal expansion of 1/481.",
			"link": [
				"\u003ca href=\"/index/Rec#order_05\"\u003eIndex entries for linear recurrences with constant coefficients\u003c/a\u003e, signature (1,-1,1,-1,1)."
			],
			"formula": [
				"a(n) = (1/30)*{51*(n mod 6)-4*[(n+1) mod 6]-29*[(n+2) mod 6]+16*[(n+3) mod 6]-4*[(n+4) mod 6]+6*[(n+5) mod 6]}, with n\u003e=0. [_Paolo P. Lava_, Nov 11 2009]",
				"From _Chai Wah Wu_, Aug 10 2020: (Start)",
				"a(n) = a(n-1) - a(n-2) + a(n-3) - a(n-4) + a(n-5) for n \u003e 4.",
				"G.f.: x^2*(-9*x^2 + 2*x - 2)/((x - 1)*(x^2 - x + 1)*(x^2 + x + 1)). (End)"
			],
			"mathematica": [
				"Join[{0,0},RealDigits[1/481,10,120][[1]]] (* or *) PadRight[{},120,{0,0,2,0,7,9}] (* _Harvey P. Dale_, Jul 22 2015 *)"
			],
			"keyword": "nonn,cons",
			"offset": "0,3",
			"author": "_N. J. A. Sloane_.",
			"references": 0,
			"revision": 19,
			"time": "2020-08-11T01:33:38-04:00",
			"created": "1996-12-11T03:00:00-05:00"
		}
	]
}