{
	"greeting": "Greetings from The On-Line Encyclopedia of Integer Sequences! http://oeis.org/",
	"query": "id:A021352",
	"count": 1,
	"start": 0,
	"results": [
		{
			"number": 21352,
			"data": "0,0,2,8,7,3,5,6,3,2,1,8,3,9,0,8,0,4,5,9,7,7,0,1,1,4,9,4,2,5,2,8,7,3,5,6,3,2,1,8,3,9,0,8,0,4,5,9,7,7,0,1,1,4,9,4,2,5,2,8,7,3,5,6,3,2,1,8,3,9,0,8,0,4,5,9,7,7,0,1,1,4,9,4,2,5,2,8,7,3,5,6,3,2,1,8,3,9,0",
			"name": "Decimal expansion of 1/348.",
			"keyword": "nonn,cons",
			"offset": "0,3",
			"author": "_N. J. A. Sloane_.",
			"references": 0,
			"revision": 4,
			"time": "2012-03-30T16:46:40-04:00",
			"created": "1996-12-11T03:00:00-05:00"
		}
	]
}