{
	"greeting": "Greetings from The On-Line Encyclopedia of Integer Sequences! http://oeis.org/",
	"query": "id:A021364",
	"count": 1,
	"start": 0,
	"results": [
		{
			"number": 21364,
			"data": "1,15,150,1270,9891,73605,533800,3814140,27018981,190442395,1338423450,9390536610,65820843271,461096642385,3229086629100,22609268456680,158287591978761,1108104188689575,7757094081310750",
			"name": "Expansion of 1/((1-x)(1-3x)(1-4x)(1-7x)).",
			"link": [
				"Vincenzo Librandi, \u003ca href=\"/A021364/b021364.txt\"\u003eTable of n, a(n) for n = 0..200\u003c/a\u003e",
				"\u003ca href=\"/index/Rec\"\u003eIndex entries for linear recurrences with constant coefficients\u003c/a\u003e, signature (15,-75,145,-84)."
			],
			"formula": [
				"a(n) = 15*a(n-1) - 75*a(n-2) + 145*a(n-3) - 84*a(n-4), with a(0)=1, a(1)=15, a(2)=150, a(3)=1270. [_Harvey P. Dale_, Jun 09 2011]",
				"a(n) = (7^(n+3) - 2*4^(n+4) + 3^(n+5) -2)/72. [_Yahia Kahloune_, Jun 26 2013]",
				"a(0)=1, a(1)=15; for n\u003e1, a(n) = 11*a(n-1) -28*a(n-2) +(3^n-1)/2. - _Vincenzo Librandi_, Jul 09 2013"
			],
			"mathematica": [
				"CoefficientList[Series[1 / ((1 - x) (1 - 3 x) (1 - 4 x) (1 - 7 x)), {x, 0, 20}], x] (* or *) LinearRecurrence[{15, -75, 145, -84}, {1, 15, 150, 1270}, 20] (* _Harvey P. Dale_, Jun 09 2011 *)"
			],
			"program": [
				"(MAGMA) m:=25; R\u003cx\u003e:=PowerSeriesRing(Integers(), m); Coefficients(R!(1/((1-x)*(1-3*x)*(1-4*x)*(1-7*x)))); /* or */ I:=[1, 15, 150, 1270]; [n le 4 select I[n] else 15*Self(n-1)-75*Self(n-2)+145*Self(n-3)-84*Self(n-4): n in [1..25]]; // _Vincenzo Librandi_, Jul 09 2013"
			],
			"keyword": "nonn,easy",
			"offset": "0,2",
			"author": "_N. J. A. Sloane_.",
			"references": 1,
			"revision": 16,
			"time": "2015-06-13T00:48:55-04:00",
			"created": "1999-12-11T03:00:00-05:00"
		}
	]
}