{
	"greeting": "Greetings from The On-Line Encyclopedia of Integer Sequences! http://oeis.org/",
	"query": "id:A021298",
	"count": 1,
	"start": 0,
	"results": [
		{
			"number": 21298,
			"data": "0,0,3,4,0,1,3,6,0,5,4,4,2,1,7,6,8,7,0,7,4,8,2,9,9,3,1,9,7,2,7,8,9,1,1,5,6,4,6,2,5,8,5,0,3,4,0,1,3,6,0,5,4,4,2,1,7,6,8,7,0,7,4,8,2,9,9,3,1,9,7,2,7,8,9,1,1,5,6,4,6,2,5,8,5,0,3,4,0,1,3,6,0,5,4,4,2,1,7",
			"name": "Decimal expansion of 1/294.",
			"keyword": "nonn,cons",
			"offset": "0,3",
			"author": "_N. J. A. Sloane_.",
			"references": 0,
			"revision": 4,
			"time": "2012-03-30T16:46:39-04:00",
			"created": "1996-12-11T03:00:00-05:00"
		}
	]
}