{
	"greeting": "Greetings from The On-Line Encyclopedia of Integer Sequences! http://oeis.org/",
	"query": "id:A021085",
	"count": 1,
	"start": 0,
	"results": [
		{
			"number": 21085,
			"data": "0,1,2,3,4,5,6,7,9,0,1,2,3,4,5,6,7,9,0,1,2,3,4,5,6,7,9,0,1,2,3,4,5,6,7,9,0,1,2,3,4,5,6,7,9,0,1,2,3,4,5,6,7,9,0,1,2,3,4,5,6,7,9,0,1,2,3,4,5,6,7,9,0,1,2,3,4,5,6,7,9,0,1,2,3,4,5,6,7,9,0,1,2,3,4,5,6,7,9",
			"name": "Decimal expansion of 1/81.",
			"comment": [
				"The decimal expansion of Sum_{n\u003e=1} floor(n * tanh(Pi))/10^n is the same as that of 1/81 for the first 268 decimal places [Borwein et al.]",
				"Sqrt(999999999999999999) = 9*sqrt(12345679012345679). - _Ryohei Miyadera_, Ken Hirotomi, Hiroyuki Ozaki and Atushi Tanaka, Jan 16 2006"
			],
			"reference": [
				"J. Borwein, D. Bailey and R. Girgensohn, Experimentation in Mathematics: Computational Paths to Discovery, Peters, Boston, 2004. See Sect. 1.4."
			],
			"link": [
				"Jean-François Alcover, \u003ca href=\"/A021085/a021085.txt\"\u003e300 digits of Sum_{n\u003e=1} floor(n*tanh(Pi))/10^n\u003c/a\u003e",
				"\u003ca href=\"/index/Rec#order_09\"\u003eIndex entries for linear recurrences with constant coefficients\u003c/a\u003e, signature (0,0,0,0,0,0,0,0,1)."
			],
			"formula": [
				"Equals Sum_{k \u003e= 1} (1/2^k)*(1/5^k)*k. - _Eric Desbiaux_, Mar 11 2009",
				"G.f.: x*(1 + 2*x + 3*x^2 + 4*x^3 + 5*x^4 + 6*x^5 + 7*x^6 + 9*x^7)/(1 - x^9). - _Ilya Gutkovskiy_, Jun 21 2016",
				"From _Stefano Spezia_, Jun 03 2021: (Start)",
				"a(n) = a(n-9) for n \u003e 8.",
				"Equals (1/10)*Sum_{n\u003e0} 1/A052268(n). (End)"
			],
			"mathematica": [
				"Table[Mod[n, 9], {n, 0, 120}] /. 8 -\u003e 9 (* or *)",
				"PadLeft[First@ #, Abs@ Last@ # + Length@ First@ #] \u0026@ RealDigits[N[1/81, 120]] (* _Michael De Vlieger_, Jun 21 2016 *)",
				"PadRight[{},120,{0,1,2,3,4,5,6,7,9}](* _Harvey P. Dale_, Apr 07 2019 *)"
			],
			"xref": [
				"Cf. A052268."
			],
			"keyword": "nonn,easy,cons",
			"offset": "0,3",
			"author": "_N. J. A. Sloane_",
			"references": 10,
			"revision": 37,
			"time": "2021-06-04T22:08:13-04:00",
			"created": "1996-12-11T03:00:00-05:00"
		}
	]
}