{
	"greeting": "Greetings from The On-Line Encyclopedia of Integer Sequences! http://oeis.org/",
	"query": "id:A021566",
	"count": 1,
	"start": 0,
	"results": [
		{
			"number": 21566,
			"data": "0,0,1,7,7,9,3,5,9,4,3,0,6,0,4,9,8,2,2,0,6,4,0,5,6,9,3,9,5,0,1,7,7,9,3,5,9,4,3,0,6,0,4,9,8,2,2,0,6,4,0,5,6,9,3,9,5,0,1,7,7,9,3,5,9,4,3,0,6,0,4,9,8,2,2,0,6,4,0,5,6,9,3,9,5,0,1,7,7,9,3,5,9,4,3,0,6,0,4",
			"name": "Decimal expansion of 1/562.",
			"mathematica": [
				"Join[{0,0},RealDigits[1/562,10,120][[1]]] (* or *) PadRight[{0},120,{5,0,1,7,7,9,3,5,9,4,3,0,6,0,4,9,8,2,2,0,6,4,0,5,6,9,3,9}] (* _Harvey P. Dale_, Sep 03 2019 *)"
			],
			"keyword": "nonn,cons",
			"offset": "0,4",
			"author": "_N. J. A. Sloane_.",
			"references": 0,
			"revision": 6,
			"time": "2019-09-03T18:10:56-04:00",
			"created": "1996-12-11T03:00:00-05:00"
		}
	]
}