{
	"greeting": "Greetings from The On-Line Encyclopedia of Integer Sequences! http://oeis.org/",
	"query": "id:A021151",
	"count": 1,
	"start": 0,
	"results": [
		{
			"number": 21151,
			"data": "0,0,6,8,0,2,7,2,1,0,8,8,4,3,5,3,7,4,1,4,9,6,5,9,8,6,3,9,4,5,5,7,8,2,3,1,2,9,2,5,1,7,0,0,6,8,0,2,7,2,1,0,8,8,4,3,5,3,7,4,1,4,9,6,5,9,8,6,3,9,4,5,5,7,8,2,3,1,2,9,2,5,1,7,0,0,6,8,0,2,7,2,1,0,8,8,4,3,5",
			"name": "Decimal expansion of 1/147.",
			"formula": [
				"G.f.: x^2*(7*x^39 + x^38 + 5*x^37 + 2*x^36 + 9*x^35 + 2*x^34 + x^33 + 3*x^32 + 2*x^31 + 8*x^30 + 7*x^29 + 5*x^28 + 5*x^27 + 4*x^26 + 9*x^25 + 3*x^24 + 6*x^23 + 8*x^22 + 9*x^21 + 5*x^20 + 6*x^19 + 9*x^18 + 4*x^17 + x^16 + 4*x^15 + 7*x^14 + 3*x^13 + 5*x^12 + 3*x^11 + 4*x^10 + 8*x^9 + 8*x^8 + x^6 + 2*x^5 + 7*x^4 + 2*x^3 + 8*x + 6)/(1 - x^42). - _Chai Wah Wu_, Jun 21 2016"
			],
			"mathematica": [
				"PadLeft[First@ #, Abs@ Last@ # + Length@ First@ #] \u0026@ RealDigits[N[1/147, 120]] (* _Bruno Berselli_, Jun 21 2016 *)"
			],
			"keyword": "nonn,cons,easy",
			"offset": "0,3",
			"author": "_N. J. A. Sloane_.",
			"references": 0,
			"revision": 10,
			"time": "2016-06-21T17:30:51-04:00",
			"created": "1996-12-11T03:00:00-05:00"
		}
	]
}