{
	"greeting": "Greetings from The On-Line Encyclopedia of Integer Sequences! http://oeis.org/",
	"query": "id:A021195",
	"count": 1,
	"start": 0,
	"results": [
		{
			"number": 21195,
			"data": "0,0,5,2,3,5,6,0,2,0,9,4,2,4,0,8,3,7,6,9,6,3,3,5,0,7,8,5,3,4,0,3,1,4,1,3,6,1,2,5,6,5,4,4,5,0,2,6,1,7,8,0,1,0,4,7,1,2,0,4,1,8,8,4,8,1,6,7,5,3,9,2,6,7,0,1,5,7,0,6,8,0,6,2,8,2,7,2,2,5,1,3,0,8,9,0,0,5,2",
			"name": "Decimal expansion of 1/191.",
			"keyword": "nonn,cons",
			"offset": "0,3",
			"author": "_N. J. A. Sloane_.",
			"references": 0,
			"revision": 4,
			"time": "2012-03-30T16:46:38-04:00",
			"created": "1996-12-11T03:00:00-05:00"
		}
	]
}