{
	"greeting": "Greetings from The On-Line Encyclopedia of Integer Sequences! http://oeis.org/",
	"query": "id:A021549",
	"count": 1,
	"start": 0,
	"results": [
		{
			"number": 21549,
			"data": "0,0,1,8,3,4,8,6,2,3,8,5,3,2,1,1,0,0,9,1,7,4,3,1,1,9,2,6,6,0,5,5,0,4,5,8,7,1,5,5,9,6,3,3,0,2,7,5,2,2,9,3,5,7,7,9,8,1,6,5,1,3,7,6,1,4,6,7,8,8,9,9,0,8,2,5,6,8,8,0,7,3,3,9,4,4,9,5,4,1,2,8,4,4,0,3,6,6,9",
			"name": "Decimal expansion of 1/545.",
			"mathematica": [
				"Join[{0,0},RealDigits[1/545,10,120][[1]]] (* _Harvey P. Dale_, Jan 30 2019 *)"
			],
			"keyword": "nonn,cons",
			"offset": "0,4",
			"author": "_N. J. A. Sloane_.",
			"references": 0,
			"revision": 6,
			"time": "2019-01-30T17:29:10-05:00",
			"created": "1996-12-11T03:00:00-05:00"
		}
	]
}