{
	"greeting": "Greetings from The On-Line Encyclopedia of Integer Sequences! http://oeis.org/",
	"query": "id:A021665",
	"count": 1,
	"start": 0,
	"results": [
		{
			"number": 21665,
			"data": "0,0,1,5,1,2,8,5,9,3,0,4,0,8,4,7,2,0,1,2,1,0,2,8,7,4,4,3,2,6,7,7,7,6,0,9,6,8,2,2,9,9,5,4,6,1,4,2,2,0,8,7,7,4,5,8,3,9,6,3,6,9,1,3,7,6,7,0,1,9,6,6,7,1,7,0,9,5,3,1,0,1,3,6,1,5,7,3,3,7,3,6,7,6,2,4,8,1,0",
			"name": "Decimal expansion of 1/661.",
			"mathematica": [
				"Join[{0,0},RealDigits[1/661,10,120][[1]]] (* _Harvey P. Dale_, May 08 2016 *)"
			],
			"keyword": "nonn,cons",
			"offset": "0,4",
			"author": "_N. J. A. Sloane_.",
			"references": 0,
			"revision": 6,
			"time": "2016-05-08T16:32:07-04:00",
			"created": "1996-12-11T03:00:00-05:00"
		}
	]
}