{
	"greeting": "Greetings from The On-Line Encyclopedia of Integer Sequences! http://oeis.org/",
	"query": "id:A021107",
	"count": 1,
	"start": 0,
	"results": [
		{
			"number": 21107,
			"data": "0,0,9,7,0,8,7,3,7,8,6,4,0,7,7,6,6,9,9,0,2,9,1,2,6,2,1,3,5,9,2,2,3,3,0,0,9,7,0,8,7,3,7,8,6,4,0,7,7,6,6,9,9,0,2,9,1,2,6,2,1,3,5,9,2,2,3,3,0,0,9,7,0,8,7,3,7,8,6,4,0,7,7,6,6,9,9,0,2,9,1,2,6,2,1,3,5,9,2",
			"name": "Decimal expansion of 1/103.",
			"mathematica": [
				"Join[{0,0},RealDigits[1/103,10,120][[1]]] (* _Harvey P. Dale_, Sep 03 2014 *)"
			],
			"keyword": "nonn,cons",
			"offset": "0,3",
			"author": "_N. J. A. Sloane_.",
			"references": 1,
			"revision": 7,
			"time": "2014-09-05T12:54:57-04:00",
			"created": "1996-12-11T03:00:00-05:00"
		}
	]
}