{
	"greeting": "Greetings from The On-Line Encyclopedia of Integer Sequences! http://oeis.org/",
	"query": "id:A021060",
	"count": 1,
	"start": 0,
	"results": [
		{
			"number": 21060,
			"data": "0,1,7,8,5,7,1,4,2,8,5,7,1,4,2,8,5,7,1,4,2,8,5,7,1,4,2,8,5,7,1,4,2,8,5,7,1,4,2,8,5,7,1,4,2,8,5,7,1,4,2,8,5,7,1,4,2,8,5,7,1,4,2,8,5,7,1,4,2,8,5,7,1,4,2,8,5,7,1,4,2,8,5,7,1,4,2,8,5,7,1,4,2,8,5,7,1,4,2",
			"name": "Decimal expansion of 1/56.",
			"comment": [
				"Same decimal period as A020806. - R. J. Mathar, Feb 13 2012"
			],
			"example": [
				"0.017857142857.."
			],
			"mathematica": [
				"Join[{0},RealDigits[1/56,10,120][[1]]] (* or *) PadRight[{0,1,7},120,{1,4,2,8,5,7}] (* _Harvey P. Dale_, Feb 04 2019 *)"
			],
			"keyword": "nonn,cons",
			"offset": "0,3",
			"author": "_N. J. A. Sloane_.",
			"references": 0,
			"revision": 9,
			"time": "2019-02-04T19:14:14-05:00",
			"created": "1996-12-11T03:00:00-05:00"
		}
	]
}