{
	"greeting": "Greetings from The On-Line Encyclopedia of Integer Sequences! http://oeis.org/",
	"query": "id:A021949",
	"count": 1,
	"start": 0,
	"results": [
		{
			"number": 21949,
			"data": "0,0,1,0,5,8,2,0,1,0,5,8,2,0,1,0,5,8,2,0,1,0,5,8,2,0,1,0,5,8,2,0,1,0,5,8,2,0,1,0,5,8,2,0,1,0,5,8,2,0,1,0,5,8,2,0,1,0,5,8,2,0,1,0,5,8,2,0,1,0,5,8,2,0,1,0,5,8,2,0,1,0,5,8,2,0,1,0,5,8,2,0,1,0,5,8,2,0,1",
			"name": "Decimal expansion of 1/945.",
			"mathematica": [
				"Join[{0,0},RealDigits[1/945,10,120][[1]]] (* or *) PadRight[{0},120,{2,0,1,0,5,8}] (* _Harvey P. Dale_, May 29 2019 *)"
			],
			"keyword": "nonn,cons",
			"offset": "0,5",
			"author": "_N. J. A. Sloane_.",
			"references": 1,
			"revision": 6,
			"time": "2019-05-29T14:25:25-04:00",
			"created": "1996-12-11T03:00:00-05:00"
		}
	]
}