{
	"greeting": "Greetings from The On-Line Encyclopedia of Integer Sequences! http://oeis.org/",
	"query": "id:A021994",
	"count": 1,
	"start": 0,
	"results": [
		{
			"number": 21994,
			"data": "1,27,495,7735,111111,1517607,20059495,259217895,3295741671,41400518887,515323813095,6369067214055,78280643507431,957886180955367,11679819118040295,142009680313898215,1722634678467548391",
			"name": "G.f.: 1/((1-x)(1-4x)(1-10x)(1-12x)).",
			"link": [
				"Vincenzo Librandi, \u003ca href=\"/A021994/b021994.txt\"\u003eTable of n, a(n) for n = 0..200\u003c/a\u003e",
				"\u003ca href=\"/index/Rec\"\u003eIndex entries for linear recurrences with constant coefficients\u003c/a\u003e, signature (27,-234,688,-480)."
			],
			"formula": [
				"a(n) = (27*12^(n+3) - 44*10^(n+3) + 33*4^(n+3) - 16)/4752. [_Yahia Kahloune_, Jun 27 2013]",
				"a(0)=1, a(1)=27, a(2)=495, a(3)=7735; for n\u003e3, a(n) = 27*a(n-1) -234*a(n-2) +688*a(n-3) -480*a(n-4). - _Vincenzo Librandi_, Jul 12 2013"
			],
			"mathematica": [
				"CoefficientList[Series[1 / ((1 - x) (1 - 4 x) (1 - 10 x) (1 - 12 x)), {x, 0, 20}], x] (* _Vincenzo Librandi_, Jul 12 2013 *)"
			],
			"program": [
				"(MAGMA) I:=[1,27,495,7735]; [n le 4 select I[n] else 27*Self(n-1)-234*Self(n-2)+688*Self(n-3)-480*Self(n-4): n in [1..25]]; /* or */ m:=25; R\u003cx\u003e:=PowerSeriesRing(Integers(), m); Coefficients(R!(1/((1-x)*(1-4*x)*(1-10*x)*(1-12*x)))); // _Vincenzo Librandi_, Jul 12 2013"
			],
			"keyword": "nonn,easy",
			"offset": "0,2",
			"author": "_N. J. A. Sloane_.",
			"references": 1,
			"revision": 14,
			"time": "2015-06-13T00:48:56-04:00",
			"created": "1999-12-11T03:00:00-05:00"
		}
	]
}