{
	"greeting": "Greetings from The On-Line Encyclopedia of Integer Sequences! http://oeis.org/",
	"query": "id:A021730",
	"count": 1,
	"start": 0,
	"results": [
		{
			"number": 21730,
			"data": "0,0,1,3,7,7,4,1,0,4,6,8,3,1,9,5,5,9,2,2,8,6,5,0,1,3,7,7,4,1,0,4,6,8,3,1,9,5,5,9,2,2,8,6,5,0,1,3,7,7,4,1,0,4,6,8,3,1,9,5,5,9,2,2,8,6,5,0,1,3,7,7,4,1,0,4,6,8,3,1,9,5,5,9,2,2,8,6,5,0,1,3,7,7,4,1,0,4,6",
			"name": "Decimal expansion of 1/726.",
			"keyword": "nonn,cons",
			"offset": "0,4",
			"author": "_N. J. A. Sloane_.",
			"references": 0,
			"revision": 4,
			"time": "2012-03-30T16:46:43-04:00",
			"created": "1996-12-11T03:00:00-05:00"
		}
	]
}