{
	"greeting": "Greetings from The On-Line Encyclopedia of Integer Sequences! http://oeis.org/",
	"query": "id:A021687",
	"count": 1,
	"start": 0,
	"results": [
		{
			"number": 21687,
			"data": "0,0,1,4,6,4,1,2,8,8,4,3,3,3,8,2,1,3,7,6,2,8,1,1,1,2,7,3,7,9,2,0,9,3,7,0,4,2,4,5,9,7,3,6,4,5,6,8,0,8,1,9,9,1,2,1,5,2,2,6,9,3,9,9,7,0,7,1,7,4,2,3,1,3,3,2,3,5,7,2,4,7,4,3,7,7,7,4,5,2,4,1,5,8,1,2,5,9,1",
			"name": "Decimal expansion of 1/683.",
			"comment": [
				"Radiant intensity in any given direction, expressed in W/sr (Watts per steradian), of a luminous source with the frequency 540*10^12 Hz, corresponding to 1 cd (candela). Defined and fixed in 1979 by the 16th CPGM. - _Stanislav Sykora_, Mar 30 2015"
			],
			"link": [
				"Bureau International des Poids et Mesures, \u003ca href=\"http://www.bipm.org/en/worldwide-metrology/cgpm/\"\u003eGeneral Conference on Weights and Measures\u003c/a\u003e",
				"Wikipedia, \u003ca href=\"http://en.wikipedia.org/wiki/Candela\"\u003eCandela\u003c/a\u003e",
				"Wikipedia, \u003ca href=\"http://en.wikipedia.org/wiki/Radiant_intensity\"\u003eRadiant intensity\u003c/a\u003e"
			],
			"example": [
				"0.0014641288433382137628111273792..."
			],
			"mathematica": [
				"d = RealDigits@ N[1/683, 120]; PadLeft[First@ d, Length@ First@ d + Abs@ Last@ d] (* _Michael De Vlieger_, Mar 30 2015 *)"
			],
			"program": [
				"(PARI) 1/683.0 \\\\ _Michel Marcus_, Mar 31 2015"
			],
			"keyword": "nonn,cons",
			"offset": "0,4",
			"author": "_N. J. A. Sloane_",
			"references": 0,
			"revision": 14,
			"time": "2015-04-01T22:16:26-04:00",
			"created": "1996-12-11T03:00:00-05:00"
		}
	]
}