{
	"greeting": "Greetings from The On-Line Encyclopedia of Integer Sequences! http://oeis.org/",
	"query": "id:A022137",
	"count": 1,
	"start": 0,
	"results": [
		{
			"number": 22137,
			"data": "5,12,17,29,46,75,121,196,317,513,830,1343,2173,3516,5689,9205,14894,24099,38993,63092,102085,165177,267262,432439,699701,1132140,1831841,2963981,4795822,7759803,12555625,20315428,32871053,53186481,86057534,139244015",
			"name": "Fibonacci sequence beginning 5, 12.",
			"link": [
				"Tanya Khovanova, \u003ca href=\"http://www.tanyakhovanova.com/RecursiveSequences/RecursiveSequences.html\"\u003eRecursive Sequences\u003c/a\u003e",
				"\u003ca href=\"/index/Rec#order_02\"\u003eIndex entries for linear recurrences with constant coefficients\u003c/a\u003e, signature (1, 1)."
			],
			"formula": [
				"G.f.: (5+7*x)/(1-x-x^2). - _Philippe Deléham_, Nov 20 2008",
				"a(n) = Lucas(n + 4) - Fibonacci(n - 3). - _Ehren Metcalfe_, Oct 16 2017"
			],
			"mathematica": [
				"a={};b=5;c=12;AppendTo[a, b];AppendTo[a, c];Do[b=b+c;AppendTo[a, b];c=b+c;AppendTo[a, c], {n, 4!}];a (* _Vladimir Joseph Stephan Orlovsky_, Sep 17 2008 *)"
			],
			"xref": [
				"Cf. A000032."
			],
			"keyword": "nonn,easy",
			"offset": "0,1",
			"author": "_N. J. A. Sloane_",
			"references": 5,
			"revision": 21,
			"time": "2017-10-16T12:23:41-04:00",
			"created": "1998-06-14T03:00:00-04:00"
		}
	]
}