{
	"greeting": "Greetings from The On-Line Encyclopedia of Integer Sequences! http://oeis.org/",
	"query": "id:A022822",
	"count": 1,
	"start": 0,
	"results": [
		{
			"number": 22822,
			"data": "4,9,16,22,30,38,47,54,65,73,85,91,104,114,125,134,145,157,170,178,192,200,217,225,238,251,264,272,289,299,314,324,338,352,365,375,390,402,421,428,445,455,472,484,497,511,529,539,554,566,585,591",
			"name": "a(n) = [ (n+2)/(n-1) ] + [ (n+4)/(n-2) ] + ... + [ (3n-2)/1 ].",
			"program": [
				"(PARI) a(n) = sum(k=1, n-1, (3*n-2*k)\\k); \\\\ _Michel Marcus_, Mar 24 2013"
			],
			"keyword": "nonn",
			"offset": "2,1",
			"author": "_Clark Kimberling_",
			"references": 0,
			"revision": 9,
			"time": "2013-03-25T09:34:41-04:00",
			"created": "1998-06-14T03:00:00-04:00"
		}
	]
}