{
	"greeting": "Greetings from The On-Line Encyclopedia of Integer Sequences! http://oeis.org/",
	"query": "id:A022458",
	"count": 1,
	"start": 0,
	"results": [
		{
			"number": 22458,
			"data": "0,2,1,3,1,5,7,9,13,9,11,9,15,17,15,21,19,27,23,25,33,33,31,33,33,31,35,43,51,51,29,45,39,53,49,51,53,53,55,55,61,69,57,63,67,69,65,53,55,65,81,85,89,85,85,81,79,89,89,91,95,91,77,87,101,105,89,87",
			"name": "a(n) = prime(2n-1) mod prime(n).",
			"link": [
				"G. C. Greubel, \u003ca href=\"/A022458/b022458.txt\"\u003eTable of n, a(n) for n = 1..10000\u003c/a\u003e"
			],
			"mathematica": [
				"Table[Mod[Prime[2n-1],Prime[n]],{n,70}] (* _Harvey P. Dale_, Aug 10 2012 *)"
			],
			"program": [
				"(PARI) for(n=1,50, print1(prime(2*n-1) % prime(n), \", \")) \\\\ _G. C. Greubel_, Feb 28 2018",
				"(MAGMA) [NthPrime(2*n-1) mod NthPrime(n): n in [1..50]]; // _G. C. Greubel_, Feb 28 2018"
			],
			"keyword": "nonn",
			"offset": "1,2",
			"author": "_Clark Kimberling_",
			"references": 1,
			"revision": 9,
			"time": "2018-03-01T02:32:47-05:00",
			"created": "1998-06-14T03:00:00-04:00"
		}
	]
}