{
	"greeting": "Greetings from The On-Line Encyclopedia of Integer Sequences! http://oeis.org/",
	"query": "id:A022652",
	"count": 1,
	"start": 0,
	"results": [
		{
			"number": 22652,
			"data": "1,24,324,3248,26802,191904,1230824,7221744,39342783,201199888,974039652,4493483424,19859122142,84451085664,346817307672,1379695128080,5330825817507,20050294307376,73556403409336",
			"name": "Expansion of Product_{m\u003e=1} (1+m*q^m)^24.",
			"comment": [
				"This sequence is obtained from the generalized Euler transform in A266964 by taking f(n) = -24, g(n) = -n. - _Seiichi Manyama_, Dec 29 2017"
			],
			"link": [
				"Seiichi Manyama, \u003ca href=\"/A022652/b022652.txt\"\u003eTable of n, a(n) for n = 0..1000\u003c/a\u003e"
			],
			"mathematica": [
				"With[{nmax=50}, CoefficientList[Series[Product[(1+m*q^m)^24,{m,1,nmax}],{q,0,nmax}],q]] (* _G. C. Greubel_, Jul 18 2018 *)"
			],
			"program": [
				"(PARI) m=50; q='q+O('q^m); Vec(prod(n=1,m,(1+n*q^n)^24)) \\\\ _G. C. Greubel_, Jul 18 2018",
				"(MAGMA) Coefficients(\u0026*[(1+m*x^m)^24:m in [1..40]])[1..50] where x is PolynomialRing(Integers()).1; // _G. C. Greubel_, Jul 18 2018"
			],
			"xref": [
				"Column k=24 of A297321."
			],
			"keyword": "nonn",
			"offset": "0,2",
			"author": "_N. J. A. Sloane_",
			"references": 2,
			"revision": 15,
			"time": "2018-07-18T17:29:27-04:00",
			"created": "1998-06-14T03:00:00-04:00"
		}
	]
}