{
	"greeting": "Greetings from The On-Line Encyclopedia of Integer Sequences! http://oeis.org/",
	"query": "id:A022925",
	"count": 1,
	"start": 0,
	"results": [
		{
			"number": 22925,
			"data": "0,0,1,0,1,0,1,0,0,1,0,1,0,1,0,0,1,0,1,0,1,0,0,1,0,1,0,1,0,0,1,0,1,0,1,0,0,1,0,1,0,1,0,0,1,0,1,0,1,0,0,1,0,1,0,1,0,0,1,0,1,0,1,0,0,1,0,1,0,1,0,1,0,0,1,0,1,0,1,0,0,1,0,1,0,1,0,0,1,0,1,0,1,0,0,1,0,1,0",
			"name": "Number of 5^m between 2^n and 2^(n+1).",
			"comment": [
				"All terms \u003c= 1; each 1 is followed by either one or two 0's. - _Robert Israel_, Mar 29 2020"
			],
			"link": [
				"Robert Israel, \u003ca href=\"/A022925/b022925.txt\"\u003eTable of n, a(n) for n = 0..10000\u003c/a\u003e"
			],
			"formula": [
				"a(n) = floor((n+1)*log_5(2))-floor(n*log_5(2)) - Stephen P. Glasby (GlasbyS(AT)cwu.edu), Jul 29 2003"
			],
			"maple": [
				"F:= [seq(floor(n*log[5](2)),n=0..101)]:",
				"F[2..-1]-F[1..-2]; # _Robert Israel_, Mar 29 2020"
			],
			"program": [
				"(PARI) logint(2^(n+1),5)-logint(2^n,5) \\\\ _Charles R Greathouse IV_, Jan 16 2017"
			],
			"keyword": "nonn",
			"offset": "0,1",
			"author": "_Clark Kimberling_",
			"references": 1,
			"revision": 14,
			"time": "2020-03-29T17:11:56-04:00",
			"created": "1998-06-14T03:00:00-04:00"
		}
	]
}