{
	"greeting": "Greetings from The On-Line Encyclopedia of Integer Sequences! http://oeis.org/",
	"query": "id:A022913",
	"count": 1,
	"start": 0,
	"results": [
		{
			"number": 22913,
			"data": "1,4,13,30,63,124,233,431,798,1480,2772,5232,9964,19120,36931,71711,139843,273633,536868,1055596,2079074,4100581,8096797,16002508,31652202,62648233,124068507",
			"name": "Arrange the nontrivial binomial coefficients C(m,k) (2 \u003c= k \u003c= m-2) in increasing order; record the positions of the central binomial coefficients.",
			"xref": [
				"Cf. A022911, A022912."
			],
			"keyword": "nonn,more",
			"offset": "1,2",
			"author": "_Clark Kimberling_",
			"ext": [
				"Terms corrected by _Sean A. Irvine_, May 27 2019"
			],
			"references": 0,
			"revision": 6,
			"time": "2019-05-28T12:11:41-04:00",
			"created": "1998-06-14T03:00:00-04:00"
		}
	]
}