{
	"greeting": "Greetings from The On-Line Encyclopedia of Integer Sequences! http://oeis.org/",
	"query": "id:A022950",
	"count": 1,
	"start": 0,
	"results": [
		{
			"number": 22950,
			"data": "1,7,11,16,22,30,39,49,61,74,88,103,120,138,157,177,198,221,245,270,296,323,351,380,411,443,476,510,545,581,618,656,696,737,779,822,866,911,957,1004,1052,1102,1153,1205,1258,1312,1367,1423,1480,1538",
			"name": "a(n) = a(n-1) + c(n) for n \u003e= 3, a( ) increasing, given a(1)=1 a(2)=7; where c( ) is complement of a( ).",
			"link": [
				"Ivan Neretin, \u003ca href=\"/A022950/b022950.txt\"\u003eTable of n, a(n) for n = 1..10000\u003c/a\u003e"
			],
			"mathematica": [
				"Fold[Append[#1, #1[[-1]] + Complement[Range[Max@#1 + 3], #1][[#2]]] \u0026, {1, 7}, Range[3, 50]] (* _Ivan Neretin_, Apr 05 2016 *)"
			],
			"xref": [
				"Cf. A005228 and references therein."
			],
			"keyword": "nonn",
			"offset": "1,2",
			"author": "_Clark Kimberling_",
			"references": 1,
			"revision": 8,
			"time": "2016-04-05T07:30:03-04:00",
			"created": "1998-06-14T03:00:00-04:00"
		}
	]
}