{
	"greeting": "Greetings from The On-Line Encyclopedia of Integer Sequences! http://oeis.org/",
	"query": "id:A022777",
	"count": 1,
	"start": 0,
	"results": [
		{
			"number": 22777,
			"data": "1,3,7,13,20,29,40,53,67,83,101,121,142,165,190,216,244,274,306,339,374,411,450,490,532,576,622,669,718,769,821,875,931,989,1048,1109,1172,1237,1303,1371,1441,1513,1586,1661,1738,1816,1896,1978,2062",
			"name": "Place where n-th 1 occurs in A007337.",
			"comment": [
				"Also place where first n appears in A023116. First differences minus 1 are A022838. - _Franklin T. Adams-Watters_, Nov 10 2006"
			],
			"keyword": "nonn",
			"offset": "1,2",
			"author": "_Clark Kimberling_",
			"references": 1,
			"revision": 5,
			"time": "2012-03-30T18:55:50-04:00",
			"created": "1998-06-14T03:00:00-04:00"
		}
	]
}