{
	"greeting": "Greetings from The On-Line Encyclopedia of Integer Sequences! http://oeis.org/",
	"query": "id:A022058",
	"count": 1,
	"start": 0,
	"results": [
		{
			"number": 22058,
			"data": "1,1404,280854,19014840,581257404,9436118328,93086496360,638406025200,3387901252374,14765641285044,55108831380408,181434042582840,538265644820280,1464212332875816,3696677780664960,8759016189382896,19620550996489404,41872709357187696",
			"name": "Theta series of D_27 lattice.",
			"reference": [
				"J. H. Conway and N. J. A. Sloane, \"Sphere Packings, Lattices and Groups\", Springer-Verlag, p. 118."
			],
			"link": [
				"Seiichi Manyama, \u003ca href=\"/A022058/b022058.txt\"\u003eTable of n, a(n) for n = 0..1000\u003c/a\u003e"
			],
			"mathematica": [
				"terms = 15; f[q_] = LatticeData[\"D27\", \"ThetaSeriesFunction\"][-I*Log[q]/Pi]; s = f[q] + O[q]^(2 terms); DeleteCases[CoefficientList[s, q], 0][[1 ;; terms]] (* _Jean-François Alcover_, Jul 06 2017 *)"
			],
			"keyword": "nonn",
			"offset": "0,2",
			"author": "_N. J. A. Sloane_",
			"ext": [
				"More terms from _Seiichi Manyama_, Oct 16 2018"
			],
			"references": 2,
			"revision": 12,
			"time": "2018-10-16T12:00:36-04:00",
			"created": "1998-06-14T03:00:00-04:00"
		}
	]
}