{
	"greeting": "Greetings from The On-Line Encyclopedia of Integer Sequences! http://oeis.org/",
	"query": "id:A022691",
	"count": 1,
	"start": 0,
	"results": [
		{
			"number": 22691,
			"data": "1,-31,403,-2666,7254,17329,-187488,384865,916050,-4785594,267220,23607058,8499735,-138349218,-198872750,1055690151,1063384258,-4561862102,-6887455628,9053067640,53042071422",
			"name": "Expansion of Product_{m\u003e=1} (1-m*q^m)^31.",
			"link": [
				"G. C. Greubel, \u003ca href=\"/A022691/b022691.txt\"\u003eTable of n, a(n) for n = 0..1000\u003c/a\u003e"
			],
			"mathematica": [
				"With[{nmax = 50}, CoefficientList[Series[Product[(1 - k*q^k)^31, {k, 1, nmax}], {q, 0, nmax}], q]] (* _G. C. Greubel_, Jul 19 2018 *)"
			],
			"program": [
				"(PARI) m=50; q='q+O('q^m); Vec(prod(n=1,m,(1-n*q^n)^31)) \\\\ _G. C. Greubel_, Jul 19 2018",
				"(MAGMA) Coefficients(\u0026*[(1-m*x^m)^31:m in [1..40]])[1..40] where x is PolynomialRing(Integers()).1; // _G. C. Greubel_, Jul 19 2018"
			],
			"keyword": "sign",
			"offset": "0,2",
			"author": "_N. J. A. Sloane_",
			"references": 2,
			"revision": 9,
			"time": "2018-07-19T03:58:26-04:00",
			"created": "1998-06-14T03:00:00-04:00"
		}
	]
}