{
	"greeting": "Greetings from The On-Line Encyclopedia of Integer Sequences! http://oeis.org/",
	"query": "id:A022239",
	"count": 1,
	"start": 0,
	"results": [
		{
			"number": 22239,
			"data": "1,329554457,95030372653688550,26922218610904350161500150,7608029097572151019476340332672053,2149207789489010647406518443408592558383021",
			"name": "Gaussian binomial coefficients [ n,10 ] for q = 7.",
			"reference": [
				"F. J. MacWilliams and N. J. A. Sloane, The Theory of Error-Correcting Codes, Elsevier-North Holland, 1978, p. 698."
			],
			"link": [
				"Vincenzo Librandi, \u003ca href=\"/A022239/b022239.txt\"\u003eTable of n, a(n) for n = 10..130\u003c/a\u003e"
			],
			"formula": [
				"G.f.: x^10/((1-x)*(1-7*x)*(1-49*x)*(1-343*x)*(1-2401*x)*(1-16807*x)*(1-117649*x)*(1-823543*x)*(1-5764801*x)*(1-40353607*x)*(1-282475249*x)). - _Vincenzo Librandi_, Aug 12 2016",
				"a(n) = Product_{i=1..10} (7^(n-i+1)-1)/(7^i-1), by definition. - _Vincenzo Librandi_, Aug 12 2016"
			],
			"mathematica": [
				"Table[QBinomial[n, 10, 7], {n, 10, 20}] (* _Vincenzo Librandi_, Aug 12 2016 *)"
			],
			"program": [
				"(Sage) [gaussian_binomial(n,10,7) for n in range(10,16)] # _Zerinvary Lajos_, May 27 2009",
				"(MAGMA) r:=10; q:=7; [\u0026*[(1-q^(n-i+1))/(1-q^i): i in [1..r]]: n in [r..20]]; // _Vincenzo Librandi_, Aug 12 2016"
			],
			"keyword": "nonn,easy",
			"offset": "10,2",
			"author": "_N. J. A. Sloane_",
			"ext": [
				"Offset changed by _Vincenzo Librandi_, Aug 12 2016"
			],
			"references": 1,
			"revision": 12,
			"time": "2019-12-07T12:18:21-05:00",
			"created": "1998-06-14T03:00:00-04:00"
		}
	]
}