{
	"greeting": "Greetings from The On-Line Encyclopedia of Integer Sequences! http://oeis.org/",
	"query": "id:A022667",
	"count": 1,
	"start": 0,
	"results": [
		{
			"number": 22667,
			"data": "1,-7,7,42,-56,-105,-126,489,987,-651,-833,-6062,-3101,10381,21040,34720,-20692,-46732,-173642,-238014,25193,614802,1161951,982667,981253,-3028025,-5721548,-10660692,-7448428,4778767,21412363,79760653,64512273,37376857,-64640856,-220678215",
			"name": "Expansion of Product_{m\u003e=1} (1 - m*q^m)^7.",
			"link": [
				"G. C. Greubel, \u003ca href=\"/A022667/b022667.txt\"\u003eTable of n, a(n) for n = 0..1000\u003c/a\u003e"
			],
			"formula": [
				"G.f.: exp(-7*Sum_{j\u003e=1} Sum_{k\u003e=1} k^j*x^(j*k)/j). - _Ilya Gutkovskiy_, Feb 07 2018"
			],
			"mathematica": [
				"With[{nmax = 50}, CoefficientList[Series[Product[(1 - k*q^k)^7, {k, 1, nmax}], {q, 0, nmax}], q]] (* _G. C. Greubel_, Feb 24 2018 *)"
			],
			"program": [
				"(PARI) m=50; q='q+O('q^m); Vec(prod(n=1,m,(1-n*q^n)^7)) \\\\ _G. C. Greubel_, Feb 24 2018",
				"(MAGMA) Coefficients(\u0026*[(1-m*x^m)^7:m in [1..40]])[1..40] where x is PolynomialRing(Integers()).1; // _G. C. Greubel_, Feb 24 2018"
			],
			"xref": [
				"Column k=7 of A297323."
			],
			"keyword": "sign",
			"offset": "0,2",
			"author": "_N. J. A. Sloane_",
			"ext": [
				"Terms a(31) onward added by _G. C. Greubel_, Feb 24 2018"
			],
			"references": 2,
			"revision": 12,
			"time": "2018-02-25T03:06:49-05:00",
			"created": "1998-06-14T03:00:00-04:00"
		}
	]
}