{
	"greeting": "Greetings from The On-Line Encyclopedia of Integer Sequences! http://oeis.org/",
	"query": "id:A022590",
	"count": 1,
	"start": 0,
	"results": [
		{
			"number": 22590,
			"data": "1,26,351,3302,24427,151658,822484,4001660,17799041,73391968,283542740,1034983222,3593364255,11931569028,38062054017,117095671862,348538604492,1006539781078,2827014674081,7738495452714,20683325376064,54066855041446,138427417637249,347584258977384",
			"name": "Expansion of Product_{m\u003e=1} (1+q^m)^26.",
			"link": [
				"G. C. Greubel, \u003ca href=\"/A022590/b022590.txt\"\u003eTable of n, a(n) for n = 0..1000\u003c/a\u003e"
			],
			"formula": [
				"a(n) ~ (13/6)^(1/4) * exp(Pi * sqrt(26*n/3)) / (16384 * n^(3/4)). - _Vaclav Kotesovec_, Mar 05 2015"
			],
			"mathematica": [
				"nmax=50; CoefficientList[Series[Product[(1+q^m)^26,{m,1,nmax}],{q,0,nmax}],q] (* _Vaclav Kotesovec_, Mar 05 2015 *)"
			],
			"program": [
				"(PARI) m=50; q='q+O('q^m); Vec(prod(n=1,m,(1+q^n)^26)) \\\\ _G. C. Greubel_, Feb 19 2018",
				"(MAGMA) Coefficients(\u0026*[(1+x^m)^26:m in [1..40]])[1..40] where x is PolynomialRing(Integers()).1; // _G. C. Greubel_, Feb 19 2018"
			],
			"xref": [
				"Column k=26 of A286335."
			],
			"keyword": "nonn",
			"offset": "0,2",
			"author": "_N. J. A. Sloane_",
			"references": 2,
			"revision": 14,
			"time": "2018-05-03T17:09:18-04:00",
			"created": "1998-06-14T03:00:00-04:00"
		}
	]
}