{
	"greeting": "Greetings from The On-Line Encyclopedia of Integer Sequences! http://oeis.org/",
	"query": "id:A022171",
	"count": 1,
	"start": 0,
	"results": [
		{
			"number": 22171,
			"data": "1,1,1,1,8,1,1,57,57,1,1,400,2850,400,1,1,2801,140050,140050,2801,1,1,19608,6865251,48177200,6865251,19608,1,1,137257,336416907,16531644851,16531644851,336416907,137257,1,1",
			"name": "Triangle of Gaussian binomial coefficients [ n,k ] for q = 7.",
			"reference": [
				"F. J. MacWilliams and N. J. A. Sloane, The Theory of Error-Correcting Codes, Elsevier-North Holland, 1978, p. 698."
			],
			"link": [
				"G. C. Greubel, \u003ca href=\"/A022171/b022171.txt\"\u003eRows n=0..50 of triangle, flattened\u003c/a\u003e",
				"R. Mestrovic, \u003ca href=\"http://arxiv.org/abs/1409.3820\"\u003eLucas' theorem: its generalizations, extensions and applications (1878--2014)\u003c/a\u003e,  arXiv:1409.3820 [math.NT], 2014.",
				"Kent E. Morrison, \u003ca href=\"http://www.cs.uwaterloo.ca/journals/JIS/VOL9/Morrison/morrison37.html\"\u003eInteger Sequences and Matrices Over Finite Fields\u003c/a\u003e, Journal of Integer Sequences, Vol. 9 (2006), Article 06.2.1."
			],
			"formula": [
				"T(n,k) = T(n-1,k-1) + q^k * T(n-1,k). - _Peter A. Lawrence_, Jul 13 2017"
			],
			"example": [
				"1 ;",
				"1 1;",
				"1 8 1;",
				"1 57 57 1;",
				"1 400 2850 400 1;",
				"1 2801 140050 140050 2801 1;",
				"1 19608 6865251 48177200 6865251 19608 1;",
				"1 137257 336416907 16531644851 16531644851 336416907 137257 1;"
			],
			"maple": [
				"A027875 := proc(n)",
				"    mul(7^i-1,i=1..n) ;",
				"end proc:",
				"A022171 := proc(n,m)",
				"    A027875(n)/A027875(m)/A027875(n-m) ;",
				"end proc: # _R. J. Mathar_, Jul 19 2017"
			],
			"mathematica": [
				"p[n_]:=Product[7^i - 1, {i, 1, n}]; t[n_, k_]:=p[n]/(p[k]*p[n - k]); Table[t[n, k], {n, 0, 15}, {k, 0, n}]//Flatten (* _Vincenzo Librandi_, Aug 13 2016 *)",
				"Table[QBinomial[n,k,7], {n,0,10}, {k,0,n}]//Flatten (* or *) q:= 7; T[n_, 0]:= 1; T[n_,n_]:= 1; T[n_,k_]:= T[n,k] = If[k \u003c 0 || n \u003c k, 0, T[n-1, k -1] +q^k*T[n-1,k]]; Table[T[n,k], {n,0,10}, {k,0,n}] // Flatten  (* _G. C. Greubel_, May 27 2018 *)"
			],
			"program": [
				"(PARI) {q=7; T(n,k) = if(k==0,1, if (k==n, 1, if (k\u003c0 || n\u003ck, 0, T(n-1,k-1) + q^k*T(n-1,k))))};",
				"for(n=0,10, for(k=0,n, print1(T(n,k), \", \"))) \\\\ _G. C. Greubel_, May 27 2018"
			],
			"xref": [
				"Cf. A023000 (k=1), A022231 (k=2)"
			],
			"keyword": "nonn,tabl",
			"offset": "0,5",
			"author": "_N. J. A. Sloane_",
			"references": 18,
			"revision": 25,
			"time": "2018-05-28T11:13:51-04:00",
			"created": "1998-06-14T03:00:00-04:00"
		}
	]
}