{
	"greeting": "Greetings from The On-Line Encyclopedia of Integer Sequences! http://oeis.org/",
	"query": "id:A022564",
	"count": 1,
	"start": 0,
	"results": [
		{
			"number": 22564,
			"data": "0,0,0,0,0,0,0,0,4,16,84,408",
			"name": "Number of 2-connected non-Hamiltonian claw-free graphs on n nodes.",
			"link": [
				"R. Faudree, E. Flandrin and Z. Ryjacek, \u003ca href=\"https://doi.org/10.1016/S0012-365X(96)00045-3\"\u003eClaw-free graphs - a survey\u003c/a\u003e, Discr. Math., 164 (1997), 87-147."
			],
			"xref": [
				"Cf. A022562, A022564."
			],
			"keyword": "nonn,more",
			"offset": "1,9",
			"author": "_N. J. A. Sloane_.",
			"references": 4,
			"revision": 13,
			"time": "2020-01-14T04:16:49-05:00",
			"created": "1998-06-14T03:00:00-04:00"
		}
	]
}