{
	"greeting": "Greetings from The On-Line Encyclopedia of Integer Sequences! http://oeis.org/",
	"query": "id:A022588",
	"count": 1,
	"start": 0,
	"results": [
		{
			"number": 22588,
			"data": "1,23,276,2323,15479,87101,430445,1917349,7839849,29824583,106646308,361327079,1167406906,3615602714,10780913004,31061653709,86741652761,235404301651,622271232287,1605432041576,4049617772390,10002785010369,24227747380447,57613905606273,134662398395411",
			"name": "Expansion of Product_{m\u003e=1} (1 + x^m)^23.",
			"link": [
				"Seiichi Manyama, \u003ca href=\"/A022588/b022588.txt\"\u003eTable of n, a(n) for n = 0..10000\u003c/a\u003e"
			],
			"formula": [
				"a(n) ~ (23/3)^(1/4) * exp(Pi * sqrt(23*n/3)) / (8192 * n^(3/4)). - _Vaclav Kotesovec_, Mar 05 2015",
				"a(0) = 1, a(n) = (23/n)*Sum_{k=1..n} A000593(k)*a(n-k) for n \u003e 0. - _Seiichi Manyama_, Apr 04 2017"
			],
			"mathematica": [
				"nmax=50; CoefficientList[Series[Product[(1+q^m)^23,{m,1,nmax}],{q,0,nmax}],q] (* _Vaclav Kotesovec_, Mar 05 2015 *)"
			],
			"program": [
				"(PARI) m=50; q='q+O('q^m); Vec(prod(n=1,m,(1+q^n)^23)) \\\\ _G. C. Greubel_, Feb 25 2018",
				"(MAGMA) Coefficients(\u0026*[(1+x^m)^23:m in [1..40]])[1..40] where x is PolynomialRing(Integers()).1; // _G. C. Greubel_, Feb 25 2018"
			],
			"xref": [
				"Column k=23 of A286335."
			],
			"keyword": "nonn",
			"offset": "0,2",
			"author": "_N. J. A. Sloane_",
			"references": 2,
			"revision": 23,
			"time": "2018-05-03T17:11:29-04:00",
			"created": "1998-06-14T03:00:00-04:00"
		}
	]
}