{
	"greeting": "Greetings from The On-Line Encyclopedia of Integer Sequences! http://oeis.org/",
	"query": "id:A022044",
	"count": 1,
	"start": 0,
	"results": [
		{
			"number": 22044,
			"data": "1,312,11466,116688,535704,1899664,5043376,12066912,24443978,48210760,83323344,145532816,227110416,363737712,531517376,800145632,1104376728,1594656544,2114015514,2931991920,3779027408,5091783840,6365016528,8409556064,10285042352,13266026280,15994749968",
			"name": "Theta series of D_13 lattice.",
			"reference": [
				"J. H. Conway and N. J. A. Sloane, \"Sphere Packings, Lattices and Groups\", Springer-Verlag, p. 118."
			],
			"link": [
				"Seiichi Manyama, \u003ca href=\"/A022044/b022044.txt\"\u003eTable of n, a(n) for n = 0..10000\u003c/a\u003e"
			],
			"mathematica": [
				"terms = 20; f[q_] = LatticeData[\"D13\", \"ThetaSeriesFunction\"][-I*Log[q]/Pi]; s = f[q] + O[q]^(2 terms); DeleteCases[CoefficientList[s, q], 0][[1 ;; terms]] (* _Jean-François Alcover_, Jul 06 2017 *)"
			],
			"keyword": "nonn",
			"offset": "0,2",
			"author": "_N. J. A. Sloane_",
			"ext": [
				"More terms from _Seiichi Manyama_, Oct 16 2018"
			],
			"references": 2,
			"revision": 12,
			"time": "2018-10-16T08:40:20-04:00",
			"created": "1998-06-14T03:00:00-04:00"
		}
	]
}