{
	"greeting": "Greetings from The On-Line Encyclopedia of Integer Sequences! http://oeis.org/",
	"query": "id:A022110",
	"count": 1,
	"start": 0,
	"results": [
		{
			"number": 22110,
			"data": "1,20,21,41,62,103,165,268,433,701,1134,1835,2969,4804,7773,12577,20350,32927,53277,86204,139481,225685,365166,590851,956017,1546868,2502885,4049753,6552638,10602391",
			"name": "Fibonacci sequence beginning 1, 20.",
			"comment": [
				"a(n-1)=sum(P(20;n-1-k,k),k=0..ceiling((n-1)/2)), n\u003e=1, with a(-1)=19. These are the SW-NE diagonals in P(20;n,k), the (20,1) Pascal triangle. Cf. A093645 for the (10,1) Pascal triangle. Observation by _Paul Barry_, Apr 29 2004. Proof via recursion relations and comparison of inputs."
			],
			"link": [
				"Tanya Khovanova, \u003ca href=\"http://www.tanyakhovanova.com/RecursiveSequences/RecursiveSequences.html\"\u003eRecursive Sequences\u003c/a\u003e",
				"\u003ca href=\"/index/Rec#order_02\"\u003eIndex entries for linear recurrences with constant coefficients\u003c/a\u003e, signature (1, 1)."
			],
			"formula": [
				"a(n)= a(n-1)+a(n-2), n\u003e=2, a(0)=1, a(1)=20. a(-1):=19.",
				"G.f.: (1+19*x)/(1-x-x^2).",
				"a(n) = 20*A000045(n) + A000045(n-1). [_Paolo P. Lava_, May 19 2015]"
			],
			"maple": [
				"with(numtheory): with(combinat): P:=proc(q) local n;",
				"for n from 0 to q do print(20*fibonacci(n)+fibonacci(n-1));",
				"od; end: P(30); # _Paolo P. Lava_, May 19 2015"
			],
			"mathematica": [
				"a={};b=1;c=20;AppendTo[a,b];AppendTo[a,c];Do[b=b+c;AppendTo[a,b];c=b+c;AppendTo[a,c],{n,1,12,1}];a (* _Vladimir Joseph Stephan Orlovsky_, Jul 23 2008 *)"
			],
			"program": [
				"(MAGMA) a0:=1; a1:=20; [GeneralizedFibonacciNumber(a0, a1, n): n in [0..30]]; // _Bruno Berselli_, Feb 12 2013"
			],
			"xref": [
				"a(n) = A109754(19, n+1) = A101220(19, 0, n+1)."
			],
			"keyword": "nonn,easy",
			"offset": "0,2",
			"author": "_N. J. A. Sloane_",
			"references": 3,
			"revision": 19,
			"time": "2017-03-16T10:57:20-04:00",
			"created": "1998-06-14T03:00:00-04:00"
		}
	]
}