{
	"greeting": "Greetings from The On-Line Encyclopedia of Integer Sequences! http://oeis.org/",
	"query": "id:A022269",
	"count": 1,
	"start": 0,
	"results": [
		{
			"number": 22269,
			"data": "0,6,23,51,90,140,201,273,356,450,555,671,798,936,1085,1245,1416,1598,1791,1995,2210,2436,2673,2921,3180,3450,3731,4023,4326,4640,4965,5301,5648,6006,6375,6755,7146,7548,7961,8385,8820,9266,9723,10191,10670,11160",
			"name": "a(n) = n*(11*n+1)/2.",
			"comment": [
				"Essentially identical to A026817. - _R. J. Mathar_, May 28 2008"
			],
			"link": [
				"G. C. Greubel, \u003ca href=\"/A022269/b022269.txt\"\u003eTable of n, a(n) for n = 0..5000\u003c/a\u003e",
				"\u003ca href=\"/index/Rec#order_03\"\u003eIndex entries for linear recurrences with constant coefficients\u003c/a\u003e, signature (3,-3,1)."
			],
			"formula": [
				"a(n) = A110449(n, 5) for n\u003e4.",
				"a(n) = 11*n + a(n-1) - 5 with n\u003e0, a(0)=0. - _Vincenzo Librandi_, Aug 04 2010",
				"G.f.: x*(6 + 5*x)/(1 - x)^3. - _Philippe Deléham_, Mar 27 2013",
				"a(n) = 3*a(n-1) - 3*a(n-2) + a(n-3) with n\u003e2, a(0)=0, a(1)=6, a(2)=23. - _Philippe Deléham_, Mar 27 2013",
				"a(n) = A218530(11*n+5).",
				"a(n) = A000217(6*n) - A000217(5*n). - _Bruno Berselli_, Oct 13 2016",
				"E.g.f.: (x/2)*(11*x + 12)*exp(x). - _G. C. Greubel_, Aug 24 2017"
			],
			"mathematica": [
				"Table[n*(11*n + 1)/2, {n,0,50}] (* _G. C. Greubel_, Aug 24 2017 *)"
			],
			"program": [
				"(PARI) a(n)=n*(11*n+1)/2 \\\\ _Charles R Greathouse IV_, Jun 17 2017"
			],
			"xref": [
				"Cf. A110449.",
				"Cf. similar sequences listed in A022289."
			],
			"keyword": "nonn,easy",
			"offset": "0,2",
			"author": "_N. J. A. Sloane_",
			"references": 11,
			"revision": 32,
			"time": "2017-08-24T16:34:44-04:00",
			"created": "1998-06-14T03:00:00-04:00"
		}
	]
}