{
	"greeting": "Greetings from The On-Line Encyclopedia of Integer Sequences! http://oeis.org/",
	"query": "id:A022374",
	"count": 1,
	"start": 0,
	"results": [
		{
			"number": 22374,
			"data": "2,24,26,50,76,126,202,328,530,858,1388,2246,3634,5880,9514,15394,24908,40302,65210,105512,170722,276234,446956,723190,1170146,1893336,3063482,4956818,8020300,12977118,20997418,33974536,54971954,88946490,143918444,232864934,376783378,609648312",
			"name": "Fibonacci sequence beginning 2, 24.",
			"link": [
				"G. C. Greubel, \u003ca href=\"/A022374/b022374.txt\"\u003eTable of n, a(n) for n = 0..1000\u003c/a\u003e",
				"Tanya Khovanova, \u003ca href=\"http://www.tanyakhovanova.com/RecursiveSequences/RecursiveSequences.html\"\u003eRecursive Sequences\u003c/a\u003e",
				"\u003ca href=\"/index/Rec#order_02\"\u003eIndex entries for linear recurrences with constant coefficients\u003c/a\u003e, signature (1, 1)."
			],
			"formula": [
				"G.f.: 2*(1+11*x)/(1-x-x^2). - _Philippe Deléham_, Nov 19 2008",
				"Equals 2*A022102(n). - _Bruno Berselli_, Oct 05 2017",
				"a(n) = a(n-1)+a(n-2). - _Wesley Ivan Hurt_, May 10 2021"
			],
			"mathematica": [
				"LinearRecurrence[{1,1}, {2,24}, 50] (* _G. C. Greubel_, Oct 04 2017 *)"
			],
			"program": [
				"(PARI) x='x+O('x^50); Vec((2+22*x)/(1-x-x^2)) \\\\ _G. C. Greubel_, Oct 04 2017"
			],
			"xref": [
				"Cf. A022102."
			],
			"keyword": "nonn",
			"offset": "0,1",
			"author": "_N. J. A. Sloane_",
			"ext": [
				"Terms a(30) onward added by _G. C. Greubel_, Oct 04 2017"
			],
			"references": 2,
			"revision": 25,
			"time": "2021-05-10T01:06:13-04:00",
			"created": "1998-06-14T03:00:00-04:00"
		}
	]
}