{
	"greeting": "Greetings from The On-Line Encyclopedia of Integer Sequences! http://oeis.org/",
	"query": "id:A022209",
	"count": 1,
	"start": 0,
	"results": [
		{
			"number": 22209,
			"data": "1,1398101,1563749404581,1665737215212030181,1753501675591663698472421,1840477112202685809580351554021,1930351405154232225472089767795511781,2024243704924003025844684284218991557841381",
			"name": "Gaussian binomial coefficients [ n,10 ] for q = 4.",
			"reference": [
				"F. J. MacWilliams and N. J. A. Sloane, The Theory of Error-Correcting Codes, Elsevier-North Holland, 1978, p. 698."
			],
			"link": [
				"Vincenzo Librandi, \u003ca href=\"/A022209/b022209.txt\"\u003eTable of n, a(n) for n = 10..170\u003c/a\u003e"
			],
			"formula": [
				"G.f.: x^10/((1-x)*(1-4*x)*(1-16*x)*(1-64*x)*(1-256*x)*(1-1024*x)*(1-4096*x)*(1-16384*x)*(1-65536*x)*(1-262144*x)*(1-1048576*x)). - _Vincenzo Librandi_, Aug 11 2016",
				"a(n) = Product_{i=1..10} (4^(n-i+1)-1)/(4^i-1), by definition. - _Vincenzo Librandi_, Aug 11 2016"
			],
			"mathematica": [
				"Table[QBinomial[n, 10, 4], {n, 10, 20}] (* _Vincenzo Librandi_, Aug 11 2016 *)"
			],
			"program": [
				"(Sage) [gaussian_binomial(n,10,4) for n in range(10,18)] # _Zerinvary Lajos_, May 25 2009",
				"(MAGMA) r:=10; q:=4; [\u0026*[(1-q^(n-i+1))/(1-q^i): i in [1..r]]: n in [r..20]]; // _Vincenzo Librandi_, Aug 11 2016",
				"(PARI) r=10; q=4; for(n=r,30, print1(prod(j=1,r,(1-q^(n-j+1))/(1-q^j)), \", \")) \\\\ _G. C. Greubel_, Jun 04 2018"
			],
			"keyword": "nonn,easy",
			"offset": "10,2",
			"author": "_N. J. A. Sloane_",
			"ext": [
				"Offset changed by _Vincenzo Librandi_, Aug 11 2016"
			],
			"references": 1,
			"revision": 16,
			"time": "2019-12-07T12:18:21-05:00",
			"created": "1998-06-14T03:00:00-04:00"
		}
	]
}