{
	"greeting": "Greetings from The On-Line Encyclopedia of Integer Sequences! http://oeis.org/",
	"query": "id:A022199",
	"count": 1,
	"start": 0,
	"results": [
		{
			"number": 22199,
			"data": "1,9841,72636421,494894285941,3287582741506063,21658948312410865183,142299528422960399756323,934054234760012359481199283,6129263888495201102915629695046,40216143252770054194345243936096486,263862583736385343242102717216527933566",
			"name": "Gaussian binomial coefficients [ n,8 ] for q = 3.",
			"reference": [
				"F. J. MacWilliams and N. J. A. Sloane, The Theory of Error-Correcting Codes, Elsevier-North Holland, 1978, p. 698."
			],
			"link": [
				"Vincenzo Librandi, \u003ca href=\"/A022199/b022199.txt\"\u003eTable of n, a(n) for n = 8..200\u003c/a\u003e"
			],
			"formula": [
				"G.f.: x^8/((1-x)*(1-3*x)*(1-9*x)*(1-27*x)*(1-81*x)*(1-243*x)*(1-729*x)*(1-2187*x)*(1-6561*x)). - _Vincenzo Librandi_, Aug 07 2016",
				"a(n) = Product_{i=1..8} (3^(n-i+1)-1)/(3^i-1), by definition. - _Vincenzo Librandi_, Aug 07 2016"
			],
			"mathematica": [
				"Table[QBinomial[n, 8, 3], {n, 8, 20}] (* _Vincenzo Librandi_, Aug 07 2016 *)"
			],
			"program": [
				"(Sage) [gaussian_binomial(n,8,3) for n in range(8,19)] # _Zerinvary Lajos_, May 25 2009",
				"(MAGMA) r:=8; q:=3; [\u0026*[(1-q^(n-i+1))/(1-q^i): i in [1..r]]: n in [r..20]]; // _Vincenzo Librandi_, Aug 07 2016",
				"(PARI) r=8; q=3; for(n=r,30, print1(prod(j=1,r,(1-q^(n-j+1))/(1-q^j)), \", \")) \\\\ _G. C. Greubel_, May 30 2018"
			],
			"keyword": "nonn,easy",
			"offset": "8,2",
			"author": "_N. J. A. Sloane_",
			"ext": [
				"Offset changed by _Vincenzo Librandi_, Aug 07 2016"
			],
			"references": 1,
			"revision": 16,
			"time": "2019-12-07T12:18:21-05:00",
			"created": "1998-06-14T03:00:00-04:00"
		}
	]
}