{
	"greeting": "Greetings from The On-Line Encyclopedia of Integer Sequences! http://oeis.org/",
	"query": "id:A022221",
	"count": 1,
	"start": 0,
	"results": [
		{
			"number": 22221,
			"data": "1,259,57535,12485095,2698853335,583026951031,125936508182839,27202382491194295,5875718100153221815,1269155234987097152695,274137535269957102205111,59213707780769522731688119,12790160886494733304250601655",
			"name": "Gaussian binomial coefficients [ n,3 ] for q = 6.",
			"link": [
				"Vincenzo Librandi, \u003ca href=\"/A022221/b022221.txt\"\u003eTable of n, a(n) for n = 3..200\u003c/a\u003e"
			],
			"formula": [
				"G.f.: x^3/((1-x)*(1-6*x)*(1-36*x)*(1-216*x)). - _Vincenzo Librandi_, Aug 11 2016",
				"a(n) = Product_{i=1..3} (6^(n-i+1)-1)/(6^i-1), by definition. - _Vincenzo Librandi_, Aug 11 2016"
			],
			"mathematica": [
				"Table[QBinomial[n, 3, 6], {n, 3, 20}] (* _Vincenzo Librandi_, Aug 11 2016 *)"
			],
			"program": [
				"(Sage) [gaussian_binomial(n,3,6) for n in range(3,16)] # _Zerinvary Lajos_, May 27 2009",
				"(MAGMA) r:=3; q:=6; [\u0026*[(1-q^(n-i+1))/(1-q^i): i in [1..r]]: n in [r..20]]; // _Vincenzo Librandi_, Aug 11 2016",
				"(PARI) r=3; q=6; for(n=r,30, print1(prod(j=1,r,(1-q^(n-j+1))/(1-q^j)), \", \")) \\\\ _G. C. Greubel_, Jun 07 2018",
				"(GAP) List([3..15],n-\u003eProduct([1..3],i-\u003e(6^(n-i+1)-1)/(6^i-1))); # _Muniru A Asiru_, Jul 04 2018"
			],
			"keyword": "nonn,easy",
			"offset": "3,2",
			"author": "_N. J. A. Sloane_",
			"ext": [
				"Offset changed by _Vincenzo Librandi_, Aug 11 2016"
			],
			"references": 2,
			"revision": 21,
			"time": "2019-12-07T12:18:21-05:00",
			"created": "1998-06-14T03:00:00-04:00"
		}
	]
}