{
	"greeting": "Greetings from The On-Line Encyclopedia of Integer Sequences! http://oeis.org/",
	"query": "id:A022926",
	"count": 1,
	"start": 0,
	"results": [
		{
			"number": 22926,
			"data": "0,0,1,0,0,1,0,0,1,0,0,1,0,0,1,0,1,0,0,1,0,0,1,0,0,1,0,0,1,0,1,0,0,1,0,0,1,0,0,1,0,0,1,0,1,0,0,1,0,0,1,0,0,1,0,0,1,0,1,0,0,1,0,0,1,0,0,1,0,0,1,0,1,0,0,1,0,0,1,0,0,1,0,0,1,0,0,1,0,1,0,0,1,0,0,1,0,0,1",
			"name": "Number of powers of 7 between 2^n and 2^(n+1).",
			"formula": [
				"a(n) = floor(log_7 2^(n + 1)) - floor(log_7 2^n). - _Alonso del Arte_, Nov 04 2018"
			],
			"example": [
				"Between 2^2 and 2^3 there is only one power of 7, which is 7 itself. Hence a(2) = 1.",
				"Between 2^3 and 2^4 there are no powers of 7, so a(3) = 0."
			],
			"mathematica": [
				"Table[Floor[Log[7, 2^(n + 1)]] - Floor[Log[7, 2^n]], {n, 0, 127}] (* _Alonso del Arte_, Nov 04 2018 *)"
			],
			"program": [
				"(PARI) logint(2^(n+1),7)-logint(2^n,7) \\\\ _Charles R Greathouse IV_, Jan 16 2017",
				"(MAGMA) [Floor(Log(7, 2^(n+1))) - Floor(Log(7, 2^n)): n in [0..100]]; // _Vincenzo Librandi_, Nov 05 2018"
			],
			"keyword": "nonn",
			"offset": "0,1",
			"author": "_Clark Kimberling_",
			"ext": [
				"Definition clarified by _Alonso del Arte_, Nov 04 2018"
			],
			"references": 0,
			"revision": 14,
			"time": "2018-11-21T02:31:11-05:00",
			"created": "1998-06-14T03:00:00-04:00"
		}
	]
}