{
	"greeting": "Greetings from The On-Line Encyclopedia of Integer Sequences! http://oeis.org/",
	"query": "id:A022656",
	"count": 1,
	"start": 0,
	"results": [
		{
			"number": 22656,
			"data": "1,28,434,4928,45619,363804,2584078,16712728,99967861,559436136,2954968758,14835042600,71185664242,327991293140,1456679962528,6256129706904,26054952884072,105476694483636,415919297844582",
			"name": "Expansion of Product_{m\u003e=1} (1+m*q^m)^28.",
			"link": [
				"G. C. Greubel, \u003ca href=\"/A022656/b022656.txt\"\u003eTable of n, a(n) for n = 0..1000\u003c/a\u003e"
			],
			"mathematica": [
				"With[{nmax=50}, CoefficientList[Series[Product[(1+m*q^m)^28,{m,1,nmax}],{q,0,nmax}],q]] (* _G. C. Greubel_, Jul 18 2018 *)"
			],
			"program": [
				"(PARI) m=50; q='q+O('q^m); Vec(prod(n=1,m,(1+n*q^n)^28)) \\\\ _G. C. Greubel_, Jul 18 2018",
				"(MAGMA) Coefficients(\u0026*[(1+m*x^m)^28:m in [1..40]])[1..50] where x is PolynomialRing(Integers()).1; // _G. C. Greubel_, Jul 18 2018"
			],
			"keyword": "nonn",
			"offset": "0,2",
			"author": "_N. J. A. Sloane_",
			"references": 2,
			"revision": 8,
			"time": "2018-07-18T17:31:09-04:00",
			"created": "1998-06-14T03:00:00-04:00"
		}
	]
}