{
	"greeting": "Greetings from The On-Line Encyclopedia of Integer Sequences! http://oeis.org/",
	"query": "id:A023799",
	"count": 1,
	"start": 0,
	"results": [
		{
			"number": 23799,
			"data": "0,1,2,3,4,6,7,8,9,11,12,13,14,18,19,24,27,28,30,33,35,36,39,44,45,49,50,52,54,56,57,75,78,99,108,114,120,135,141,147,156,177,180,198,201,210,216,225,228",
			"name": "Xenodromes: all digits in base 4 are different.",
			"mathematica": [
				"Select[Range[0,250],Max[DigitCount[#,4]]==1\u0026]  (* _Harvey P. Dale_, Apr 01 2011 *)"
			],
			"keyword": "nonn,base,fini,full,easy",
			"offset": "1,3",
			"author": "_Olivier Gérard_",
			"references": 0,
			"revision": 10,
			"time": "2013-11-21T12:46:22-05:00",
			"created": "1998-06-14T03:00:00-04:00"
		}
	]
}