{
	"greeting": "Greetings from The On-Line Encyclopedia of Integer Sequences! http://oeis.org/",
	"query": "id:A023940",
	"count": 1,
	"start": 0,
	"results": [
		{
			"number": 23940,
			"data": "1,0,7398,175104,1820448,10506240,46589382,155022336,465542694,1157492736,2774172672,5765465088,11929117248,21932052480,40953956940,68918860800,119138987808,187615014912,305761893030,456635833344,710329749696,1017103417344,1522382017536",
			"name": "Theta series of laminated lattice LAMBDA_18.",
			"reference": [
				"J. H. Conway and N. J. A. Sloane, \"Sphere Packings, Lattices and Groups\", Springer-Verlag, p. 174."
			],
			"link": [
				"Andy Huchala, \u003ca href=\"/A023940/b023940.txt\"\u003eTable of n, a(n) for n = 0..20000\u003c/a\u003e"
			],
			"program": [
				"(Sage)",
				"e = DirichletGroup(6).0",
				"M = ModularForms(e, 9, QQ)",
				"bases = [_.q_expansion(30) for _ in M.integral_basis()]",
				"list(sum(x*y for (x,y) in zip(bases,[1, 0, 7398, 175104, 1820448, 10506240, 46589382, 155022336, 465542694, 1157492736]))) # _Andy Huchala_, Jun 17 2021"
			],
			"keyword": "nonn",
			"offset": "0,3",
			"author": "_N. J. A. Sloane_.",
			"ext": [
				"More terms from _Andy Huchala_, Jun 17 2021"
			],
			"references": 1,
			"revision": 10,
			"time": "2021-06-18T11:58:17-04:00",
			"created": "1998-06-14T03:00:00-04:00"
		}
	]
}