{
	"greeting": "Greetings from The On-Line Encyclopedia of Integer Sequences! http://oeis.org/",
	"query": "id:A023630",
	"count": 1,
	"start": 0,
	"results": [
		{
			"number": 23630,
			"data": "3,2,4,4,2,2,4,2,2,4,4,4,2,2,4,4,4,2,2,4,2,2,4,2,2,4,4,4,2,2,4,2,2,4,2,2,4,4,4,2,2,4,4,4,2,2,4,4,4,2,2,4,2,2,4,2,2,4,4,4,2,2,4,4,4,2,2,4,4,4,2,2,4,2,2,4,2,2,4,4,4,2,2,4,2,2,4,2,2,4,4,4,2,2,4,2,2,4,2",
			"name": "a(n) = s(2n) - s(2n-1), where s( ) is sequence A023629.",
			"keyword": "nonn",
			"offset": "1,1",
			"author": "_Clark Kimberling_",
			"references": 1,
			"revision": 3,
			"time": "2012-03-30T18:55:53-04:00",
			"created": "1998-06-14T03:00:00-04:00"
		}
	]
}