{
	"greeting": "Greetings from The On-Line Encyclopedia of Integer Sequences! http://oeis.org/",
	"query": "id:A023930",
	"count": 1,
	"start": 0,
	"results": [
		{
			"number": 23930,
			"data": "1,0,0,0,0,0,0,0,0,38,0,0,0,0,0,0,0,342,0,342,0,0,0,0,1938,0,0,0,5814,0,7752,0,0,0,0,23256,31046,0,23256,54264,0,0,100776,116964,151164,184756,0,233244,0,331398,0,0,0,0,736440,825588,0,548454,1325592,0",
			"name": "Theta series of A*_18 lattice.",
			"reference": [
				"J. H. Conway and N. J. A. Sloane, \"Sphere Packings, Lattices and Groups\", Springer-Verlag, p. 114."
			],
			"link": [
				"Kok Seng Chua, \u003ca href=\"https://doi.org/10.1090/S0002-9939-01-06080-4\"\u003eThe Root Lattice A*n and Ramanujan's Circular Summation of Theta Functions\u003c/a\u003e, Proc. Amer. Math. Soc. 130 (2002), 1-8."
			],
			"keyword": "nonn",
			"offset": "0,10",
			"author": "_N. J. A. Sloane_.",
			"ext": [
				"More terms from _Sean A. Irvine_, Jul 15 2020"
			],
			"references": 0,
			"revision": 8,
			"time": "2020-07-15T02:17:59-04:00",
			"created": "1998-06-14T03:00:00-04:00"
		}
	]
}