{
	"greeting": "Greetings from The On-Line Encyclopedia of Integer Sequences! http://oeis.org/",
	"query": "id:A023743",
	"count": 1,
	"start": 0,
	"results": [
		{
			"number": 23743,
			"data": "194,198,214,222,238,242,294,298,334,346,358,366,414,422,434,446,482,486,538,542,558,566,582,586,694,698,714,722,738,742,894,898,954,970,978,990,1014,1022,1054,1070,1102,1110,1138",
			"name": "Base 5 expansion uses each positive digit just once.",
			"link": [
				"Vincenzo Librandi, \u003ca href=\"/A023743/b023743.txt\"\u003eTable of n, a(n) for n = 1..3000\u003c/a\u003e"
			],
			"example": [
				"194 in base 5 is 1234.",
				"1138 in base 5 is 14023; 14510 in base 5 is 431020. - _Harvey P. Dale_, Jul 26 2018"
			],
			"mathematica": [
				"Union[ Map[ Plus@@(Array[ (5^#)\u0026, Length[ # ], 0 ]*#)\u0026, Flatten[ Table[ Permutations[ Join[ Range[ 5-1 ], Array[ 0\u0026, k ] ] ], {k, 0, 1} ], 1 ] ] ]",
				"Table[FromDigits[#,5]\u0026/@Permutations[PadRight[{1,2,3,4},n,0]],{n,4,5}]//Flatten//Union (* _Harvey P. Dale_, Jul 26 2018 *)"
			],
			"keyword": "nonn,base,easy",
			"offset": "1,1",
			"author": "_Olivier Gérard_",
			"references": 1,
			"revision": 16,
			"time": "2018-07-26T16:24:39-04:00",
			"created": "1998-06-14T03:00:00-04:00"
		}
	]
}