{
	"greeting": "Greetings from The On-Line Encyclopedia of Integer Sequences! http://oeis.org/",
	"query": "id:A023810",
	"count": 1,
	"start": 0,
	"results": [
		{
			"number": 23810,
			"data": "0,1,2,3,4,5,6,7,8,9,10,11,12,13,14,15,16,18,19,20,21,22,23,24,25,26,27,28,29,30,31,32,33,35,36,37,38,39,40,41,42,43,44,45,46,47,48,49,50,52,53,54,55,56,57,58,59,60,61,62,63,64,65,66,67,69,70,71,72",
			"name": "Xenodromes: all digits in base 16 are different.",
			"comment": [
				"Last term is a(53319412081141) = 18364758544493064720 = 'fedcba9876543210'. - _Charles R Greathouse IV_, Jun 16 2012"
			],
			"mathematica": [
				"Select[Range[0,80],Max[DigitCount[#,16]]\u003c2\u0026] (* _Harvey P. Dale_, Aug 11 2021 *)"
			],
			"keyword": "nonn,base,fini,easy",
			"offset": "1,3",
			"author": "_Olivier Gérard_",
			"references": 4,
			"revision": 12,
			"time": "2021-08-11T18:16:28-04:00",
			"created": "1998-06-14T03:00:00-04:00"
		}
	]
}