{
	"greeting": "Greetings from The On-Line Encyclopedia of Integer Sequences! http://oeis.org/",
	"query": "id:A023646",
	"count": 1,
	"start": 0,
	"results": [
		{
			"number": 23646,
			"data": "1,2,3,3,7,3,7,7,11,3,20,5,10,15",
			"name": "Number of vertex-transitive graphs of valency 3 with 2n nodes.",
			"reference": [
				"CRC Handbook of Combinatorial Designs, 1996, p. 649."
			],
			"xref": [
				"Even-indexed terms of column k=3 of A319367."
			],
			"keyword": "nonn,more",
			"offset": "2,2",
			"author": "_N. J. A. Sloane_",
			"ext": [
				"a(14)-a(15) added by _Andrew Howroyd_, Sep 18 2018"
			],
			"references": 2,
			"revision": 13,
			"time": "2018-09-18T13:44:03-04:00",
			"created": "1998-06-14T03:00:00-04:00"
		}
	]
}