{
	"greeting": "Greetings from The On-Line Encyclopedia of Integer Sequences! http://oeis.org/",
	"query": "id:A023492",
	"count": 1,
	"start": 0,
	"results": [
		{
			"number": 23492,
			"data": "3,8,10,15,20,28,41,60,90,138,215,339,540,863,1385,2229,3594,5802",
			"name": "Duplicate of A022801.",
			"keyword": "dead",
			"offset": "0,1",
			"references": 0,
			"revision": 4,
			"time": "2007-05-11T03:00:00-04:00",
			"created": "1998-06-14T03:00:00-04:00"
		}
	]
}