{
	"greeting": "Greetings from The On-Line Encyclopedia of Integer Sequences! http://oeis.org/",
	"query": "id:A023858",
	"count": 1,
	"start": 0,
	"results": [
		{
			"number": 23858,
			"data": "0,1,2,0,1,2,3,4,6,2,3,4,5,7,9,11,13,5,6,8,10,12,14,16,18,20,23,11,13,15,17,19,21,23,26,29,32,35,38,20,22,24,26,29,32,35,38,41,44,47,50,53,56,32,35,38,41,44,47,50,53,56,59,62,66,70,74,78,82,50,53,56,59,62,65,68,72,76,80,84,88,92",
			"name": "a(n) = 1*t(n) + 2*t(n-1) + ... + k*t(n+1-k), where k = floor((n+1)/2), t = A023531.",
			"formula": [
				"a(n) = Sum_{k=1..floor((n+1)/2)} A023531(n+1-k). - _Sean A. Irvine_, Jun 11 2019"
			],
			"mathematica": [
				"Array[Sum[k Boole@ IntegerQ@ Sqrt[8 # + 9] \u0026[# + 1 - k], {k, Floor[(# + 1)/2]}] \u0026, 82] (* _Michael De Vlieger_, Jun 12 2019 *)"
			],
			"keyword": "nonn",
			"offset": "1,3",
			"author": "_Clark Kimberling_",
			"ext": [
				"Missing a(21)=10 inserted and title simplified by _Sean A. Irvine_, Jun 11 2019"
			],
			"references": 0,
			"revision": 11,
			"time": "2019-06-13T20:49:28-04:00",
			"created": "1998-06-14T03:00:00-04:00"
		}
	]
}