{
	"greeting": "Greetings from The On-Line Encyclopedia of Integer Sequences! http://oeis.org/",
	"query": "id:A023259",
	"count": 1,
	"start": 0,
	"results": [
		{
			"number": 23259,
			"data": "5,11,31,59,61,71,149,179,269,439,499,541,571,719,761,1049,1091,1181,1319,1451,1489,1579,1601,1831,1861,1879,1949,2069,2089,2269,2311,2389,2441,2621,2699,2819,2851,2909,3001,3079,3119,3391,3529,3631,3701,3709",
			"name": "Primes that remain prime through 2 iterations of function f(x) = 7x + 6.",
			"comment": [
				"Primes p such that 7*p+6 and 49*p+48 are also primes. - _Vincenzo Librandi_, Aug 04 2010"
			],
			"link": [
				"John Cerkan, \u003ca href=\"/A023259/b023259.txt\"\u003eTable of n, a(n) for n = 1..10000\u003c/a\u003e"
			],
			"formula": [
				"a(n) = 1 or 9 (mod 10) for n \u003e 1. - _John Cerkan_, Sep 14 2016"
			],
			"program": [
				"(MAGMA) [n: n in [1..100000] | IsPrime(n) and IsPrime(7*n+6) and IsPrime(49*n+48)] // _Vincenzo Librandi_, Aug 04 2010"
			],
			"xref": [
				"Subsequence of A023225, A024900. - _John Cerkan_, Sep 14 2016"
			],
			"keyword": "nonn",
			"offset": "1,1",
			"author": "_David W. Wilson_",
			"references": 4,
			"revision": 20,
			"time": "2021-02-12T15:27:02-05:00",
			"created": "1998-06-14T03:00:00-04:00"
		}
	]
}