{
	"greeting": "Greetings from The On-Line Encyclopedia of Integer Sequences! http://oeis.org/",
	"query": "id:A023811",
	"count": 1,
	"start": 0,
	"results": [
		{
			"number": 23811,
			"data": "0,1,5,27,194,1865,22875,342391,6053444,123456789,2853116705,73686780563,2103299351334,65751519677857,2234152501943159,81985529216486895,3231407272993502984,136146740744970718253,6106233505124424657789,290464265927977839335179",
			"name": "Largest metadrome (number with digits in strict ascending order) in base n.",
			"comment": [
				"Also smallest zeroless pandigital number in base n. - _Franklin T. Adams-Watters_, Nov 15 2006",
				"The smallest permutational number in A134640 in the n-positional system. - _Artur Jasinski_, Nov 07 2007"
			],
			"link": [
				"Vincenzo Librandi, \u003ca href=\"/A023811/b023811.txt\"\u003eTable of n, a(n) for n = 1..200\u003c/a\u003e",
				"Christian Perfect, \u003ca href=\"http://aperiodical.com/2013/07/integer-sequence-reviews-on-numberphile-or-vice-versa/\"\u003eInteger sequence reviews on Numberphile (or vice versa)\u003c/a\u003e, 2013."
			],
			"formula": [
				"a(n) = Sum_{j=1...n-1} j*n^(n-1-j).",
				"lim_{n-\u003einfinity} a(n)/a(n-1) - a(n-1)/a(n-2) = exp(1). - Conjectured by _Gerald McGarvey_, Sep 26 2004. Follows from the formula below and lim_{n-\u003einfinity} (1+1/n)^n = e. - _Franklin T. Adams-Watters_, Jan 25 2010",
				"a(n) = (n^n-n^2+n-1)/(n-1)^2 = A058128(n)-1 = n*A060073(n)-1 (for n\u003e=2). - _Henry Bottomley_, Feb 21 2001"
			],
			"example": [
				"a(5) = 1234[5] (in base 5) = 1*5^3 + 2*5^2 + 3*5 + 4 = 125 + 50 + 15 + 4 = 194.",
				"a(10) = 123456789 (in base 10)."
			],
			"maple": [
				"0, seq((n^n-n^2+n-1)/(n-1)^2, n=2..100); # _Robert Israel_, Dec 13 2015"
			],
			"mathematica": [
				"Table[Total[(#1 n^#2) \u0026 @@@ Transpose@ {Range[n - 1], Reverse@ (Range[n - 1] - 1)}], {n, 20}] (* _Michael De Vlieger_, Jul 24 2015 *)",
				"Table[Sum[(b - k)*b^(k - 1), {k, b - 1}], {b, 30}] (* _Clark Kimberling_, Aug 22 2015 *)",
				"Table[FromDigits[Range[0, n - 1], n], {n, 20}] (* _L. Edson Jeffery_, Dec 13 2015 *)"
			],
			"program": [
				"(PARI) {for(i=1,18,cuo=0; for(j=1,i-1,cuo=cuo+j*i^(i-j-1)); print1(cuo,\", \"))} \\\\\\ _Douglas Latimer_, May 16 2012",
				"(MAGMA) [0] cat [(n^n-n^2+n-1)/(n-1)^2: n in [2..20]]; // _Vincenzo Librandi_, May 22 2012",
				"(PARI) A023811(n)=if(n\u003e1,(n^n-n^2)\\(n-1)^2+1)  \\\\ _M. F. Hasler_, Jan 22 2013",
				"(Haskell)",
				"a023811 n = foldl (\\val dig -\u003e val * n + dig) 0 [0 .. n - 1]",
				"-- _Reinhard Zumkeller_, Aug 29 2014"
			],
			"xref": [
				"Cf. A049363, A051846, A058128, A060073.",
				"Cf. A062813, A134640."
			],
			"keyword": "nonn,easy,base",
			"offset": "1,3",
			"author": "_Olivier Gérard_",
			"ext": [
				"Edited by _M. F. Hasler_, Jan 22 2013"
			],
			"references": 17,
			"revision": 61,
			"time": "2016-05-28T18:40:29-04:00",
			"created": "1998-06-14T03:00:00-04:00"
		}
	]
}