{
	"greeting": "Greetings from The On-Line Encyclopedia of Integer Sequences! http://oeis.org/",
	"query": "id:A023264",
	"count": 1,
	"start": 0,
	"results": [
		{
			"number": 23264,
			"data": "23,43,83,109,193,379,389,569,643,659,853,1063,1129,1283,1423,1493,1759,1789,1889,2003,2129,2293,2459,2713,2729,2879,2969,3373,3823,4519,4603,4649,4663,4703,4783,4789,5023,5153,5209,5639,5653,5669,5693,5783,6203",
			"name": "Primes that remain prime through 2 iterations of function f(x) = 8x + 9.",
			"comment": [
				"Primes p such that 8*p+9 and 64*p+81 are also primes. - _Vincenzo Librandi_, Aug 04 2010"
			],
			"link": [
				"John Cerkan, \u003ca href=\"/A023264/b023264.txt\"\u003eTable of n, a(n) for n = 1..10000\u003c/a\u003e"
			],
			"formula": [
				"a(n) == 3 or 9 (mod 10). - _John Cerkan_, Sep 16 2016"
			],
			"mathematica": [
				"Select[Prime[Range[1000]],AllTrue[Rest[NestList[8#+9\u0026,#,2]],PrimeQ]\u0026] (* The program uses the AllTrue function from Mathematica version 10 *) (* _Harvey P. Dale_, Sep 26 2016 *)"
			],
			"program": [
				"(MAGMA) [n: n in [1..100000] | IsPrime(n) and IsPrime(8*n+9) and IsPrime(64*n+81)] // _Vincenzo Librandi_, Aug 04 2010"
			],
			"xref": [
				"Subsequence of A023232 and of A153762."
			],
			"keyword": "nonn",
			"offset": "1,1",
			"author": "_David W. Wilson_",
			"references": 3,
			"revision": 22,
			"time": "2021-02-12T15:20:52-05:00",
			"created": "1998-06-14T03:00:00-04:00"
		}
	]
}