{
	"greeting": "Greetings from The On-Line Encyclopedia of Integer Sequences! http://oeis.org/",
	"query": "id:A023338",
	"count": 1,
	"start": 0,
	"results": [
		{
			"number": 23338,
			"data": "233,709,11699,16417,24481,31663,63317,94999,172279,185243,205081,228713,240347,266681,285539,334511,372059,395719,479327,583501,734197,786613,856627,863711,1146091,1187167,1188259,1423067,1534591,1562269,1594301",
			"name": "Primes that remain prime through 5 iterations of function f(x) = 3x + 10.",
			"comment": [
				"Primes p such that 3*p+10, 9*p+40, 27*p+130, 81*p+400 and 243*p+1210 are also primes. - _Vincenzo Librandi_, Aug 05 2010"
			],
			"link": [
				"John Cerkan, \u003ca href=\"/A023338/b023338.txt\"\u003eTable of n, a(n) for n = 1..10000\u003c/a\u003e"
			],
			"formula": [
				"a(n) == 9 (mod 14). - _John Cerkan_, Oct 11 2016"
			],
			"mathematica": [
				"rp5Q[p_]:=AllTrue[Rest[NestList[3#+10\u0026,p,5]],PrimeQ]; Select[Prime[ Range[ 150000]],rp5Q] (* Requires Mathematica version 10 or later *) (* _Harvey P. Dale_, Mar 17 2020 *)"
			],
			"program": [
				"(MAGMA) [n: n in [1..25000000] | IsPrime(n) and IsPrime(3*n+10) and IsPrime(9*n+40) and IsPrime(27*n+130) and IsPrime(81*n+400) and IsPrime(243*n+1210)] // _Vincenzo Librandi_, Aug 05 2010",
				"(PARI) is(n)=isprime(n) \u0026\u0026 isprime(3*n+10) \u0026\u0026 isprime(9*n+40) \u0026\u0026 isprime(27*n+130) \u0026\u0026 isprime(81*n+400) \u0026\u0026 isprime(243*n+1210) \\\\ _Charles R Greathouse IV_, Oct 11 2016"
			],
			"xref": [
				"Subsequence of A023211, A023249, A023280, and A023310."
			],
			"keyword": "nonn",
			"offset": "1,1",
			"author": "_David W. Wilson_",
			"ext": [
				"Definition clarified by _Harvey P. Dale_, Mar 17 2020"
			],
			"references": 1,
			"revision": 23,
			"time": "2021-02-12T07:37:50-05:00",
			"created": "1998-06-14T03:00:00-04:00"
		}
	]
}