{
	"greeting": "Greetings from The On-Line Encyclopedia of Integer Sequences! http://oeis.org/",
	"query": "id:A023302",
	"count": 1,
	"start": 0,
	"results": [
		{
			"number": 23302,
			"data": "2,89,179,53639,53849,61409,63419,66749,126839,127139,143609,167729,186149,206369,254279,268049,296099,340919,405269,422069,446609,539009,594449,607319,658349,671249,725009,775949,810539,810809,812849,819509",
			"name": "Primes that remain prime through 4 iterations of function f(x) = 2x + 1.",
			"comment": [
				"Primes p such that 2*p+1, 4*p+3, 8*p+7 and 16*p+15 are also primes. - _Vincenzo Librandi_, Aug 04 2010",
				"For n \u003e 1, a(n) == 29 (mod 30). One should use it in codes. - _Zak Seidov_, Jan 31 2013"
			],
			"link": [
				"Harvey P. Dale, \u003ca href=\"/A023302/b023302.txt\"\u003eTable of n, a(n) for n = 1..1000\u003c/a\u003e"
			],
			"mathematica": [
				"Select[Prime[Range[10^4*4]], PrimeQ[a1=2*#+1] \u0026\u0026 PrimeQ[a2=2*a1+1] \u0026\u0026 PrimeQ[a3=2*a2+1] \u0026\u0026 PrimeQ[a4=2*a3+1] \u0026] (* _Vladimir Joseph Stephan Orlovsky_, May 01 2008 *)",
				"Join[{2},Select[Range[29,820000,30],And@@PrimeQ[NestList[2#+1\u0026,#,4]]\u0026]] (* _Harvey P. Dale_, Apr 03 2013 *)"
			],
			"program": [
				"(MAGMA) [n: n in [1..1200000] | IsPrime(n) and IsPrime(2*n+1) and IsPrime(4*n+3) and IsPrime(8*n+7) and IsPrime(16*n+15)] // _Vincenzo Librandi_, Aug 04 2010",
				"(PARI) is(n)=isprime(n) \u0026\u0026 isprime(2*n+1) \u0026\u0026 isprime(4*n+3) \u0026\u0026 isprime(8*n+7) \u0026\u0026 isprime(16*n+15) \\\\ _Charles R Greathouse IV_, Jul 01 2013"
			],
			"xref": [
				"Cf. A005384, A005385, A007700, A023272, A023330, A057331, A005602."
			],
			"keyword": "nonn",
			"offset": "1,1",
			"author": "_David W. Wilson_",
			"references": 33,
			"revision": 29,
			"time": "2021-02-12T13:24:02-05:00",
			"created": "1998-06-14T03:00:00-04:00"
		}
	]
}