{
	"greeting": "Greetings from The On-Line Encyclopedia of Integer Sequences! http://oeis.org/",
	"query": "id:A023574",
	"count": 1,
	"start": 0,
	"results": [
		{
			"number": 23574,
			"data": "0,0,1,2,3,2,2,4,3,2,3,2,2,4,3,3,4,2,6,3,3,3,5,2,2,3,4,4,2,3,3,7,2,4,2,3,3,6,3,3,5,2,3,3,2,4,5,4,6,2,3,3,3,4,2,4,3,3,2,2,5,3,5,4,3,2,4,2,4,2,4,3,4,3,4,4,2,2,2,3,6,3,3,3,3,5,2,2,2,4,5,4,4,4,5,5,3,3,5",
			"name": "Sum of exponents in prime-power factorization of p(n)-3.",
			"keyword": "nonn",
			"offset": "1,4",
			"author": "_Clark Kimberling_",
			"references": 0,
			"revision": 3,
			"time": "2012-03-30T18:55:52-04:00",
			"created": "1998-06-14T03:00:00-04:00"
		}
	]
}