{
	"greeting": "Greetings from The On-Line Encyclopedia of Integer Sequences! http://oeis.org/",
	"query": "id:A023614",
	"count": 1,
	"start": 0,
	"results": [
		{
			"number": 23614,
			"data": "0,1,2,3,6,10,17,28,46,74,121,196,318,515,834,1350,2185,3536,5722,9258,14981,24240,39222,63463,102686,166150,268837,434988,703826,1138815,1842642,2981458,4824101,7805560",
			"name": "Convolution of Fibonacci numbers and A014306.",
			"keyword": "nonn",
			"offset": "0,3",
			"author": "_Clark Kimberling_",
			"references": 0,
			"revision": 3,
			"time": "2012-03-30T18:55:53-04:00",
			"created": "1998-06-14T03:00:00-04:00"
		}
	]
}