{
	"greeting": "Greetings from The On-Line Encyclopedia of Integer Sequences! http://oeis.org/",
	"query": "id:A023672",
	"count": 1,
	"start": 0,
	"results": [
		{
			"number": 23672,
			"data": "2,3,5,9,14,18,24,30,36,48,53,65,77,85,97,111,121,131,149,163,174,192,204,220,242,260,272,294,310,320,350,364,382,410,436,453,469,495,513,543,569,587,615,647,661,687,715,739,759,799,827,855,869",
			"name": "Convolution of A023533 and primes.",
			"keyword": "nonn",
			"offset": "1,1",
			"author": "_Clark Kimberling_",
			"references": 0,
			"revision": 3,
			"time": "2012-03-30T18:55:53-04:00",
			"created": "1998-06-14T03:00:00-04:00"
		}
	]
}