{
	"greeting": "Greetings from The On-Line Encyclopedia of Integer Sequences! http://oeis.org/",
	"query": "id:A023258",
	"count": 1,
	"start": 0,
	"results": [
		{
			"number": 23258,
			"data": "5,17,29,37,89,127,199,229,269,347,359,379,397,499,769,809,929,947,977,1049,1087,1129,1277,1279,1367,1409,1439,1489,1499,1607,1609,1787,2017,2039,2089,2399,2539,2707,2819,2837,2957,3089,3109,3217,3229,3389,3499",
			"name": "Primes that remain prime through 2 iterations of function f(x) = 6x + 7.",
			"comment": [
				"Primes p such that 6*p+7 and 36*p+49 are also primes. - _Vincenzo Librandi_, Aug 04 2010"
			],
			"link": [
				"John Cerkan, \u003ca href=\"/A023258/b023258.txt\"\u003eTable of n, a(n) for n = 1..10000\u003c/a\u003e"
			],
			"formula": [
				"a(n) = 7 or 9 (mod 10) for n \u003e 1. - _John Cerkan_, Sep 14 2016"
			],
			"mathematica": [
				"nrpQ[n_]:=AllTrue[Rest[NestList[6#+7\u0026,n,2]],PrimeQ]; Select[Prime[ Range[ 500]],nrpQ] (* _Harvey P. Dale_, Oct 12 2020 *)"
			],
			"program": [
				"(MAGMA) [n: n in [1..100000] | IsPrime(n) and IsPrime(6*n+7) and IsPrime(36*n+49)] // _Vincenzo Librandi_, Aug 04 2010"
			],
			"xref": [
				"Subsequence of A023222, A153218. - _John Cerkan_, Sep 14 2016"
			],
			"keyword": "nonn",
			"offset": "1,1",
			"author": "_David W. Wilson_",
			"references": 2,
			"revision": 22,
			"time": "2021-02-12T15:25:38-05:00",
			"created": "1998-06-14T03:00:00-04:00"
		}
	]
}