{
	"greeting": "Greetings from The On-Line Encyclopedia of Integer Sequences! http://oeis.org/",
	"query": "id:A023021",
	"count": 1,
	"start": 0,
	"results": [
		{
			"number": 23021,
			"data": "1,23,299,2852,22126,147407,871838,4680845,23177583,107100903,466066181,1923780950,7576060505,28601630657,103928814438,364712523658,1239637963457,4091266414235,13139808783725,41145568478988,125833948024603,376417734772625,1102878148698235",
			"name": "Number of partitions of n into parts of 23 kinds.",
			"comment": [
				"a(n) is Euler transform of A010862. - _Alois P. Heinz_, Oct 17 2008",
				"Convolved with A000041 = A006922. - _Gary W. Adamson_, Jun 09 2009"
			],
			"link": [
				"Alois P. Heinz, \u003ca href=\"/A023021/b023021.txt\"\u003eTable of n, a(n) for n = 0..1000\u003c/a\u003e",
				"N. J. A. Sloane, \u003ca href=\"/transforms.txt\"\u003eTransforms\u003c/a\u003e",
				"\u003ca href=\"/index/Pro#1mxtok\"\u003eIndex entries for expansions of Product_{k \u003e= 1} (1-x^k)^m\u003c/a\u003e"
			],
			"formula": [
				"G.f.: Product_{m\u003e=1} 1/(1-x^m)^23.",
				"a(0) = 1, a(n) = (23/n)*Sum_{k=1..n} A000203(k)*a(n-k) for n \u003e 0. - _Seiichi Manyama_, Mar 27 2017"
			],
			"maple": [
				"with (numtheory): a:= proc(n) option remember; `if`(n=0, 1, add (add (d*23, d=divisors(j)) *a(n-j), j=1..n)/n) end: seq (a(n), n=0..40); # _Alois P. Heinz_, Oct 17 2008"
			],
			"mathematica": [
				"CoefficientList[1/QPochhammer[q]^23 + O[q]^30, q] (* _Jean-François Alcover_, Dec 03 2015 *)"
			],
			"program": [
				"(PARI) Vec(1/eta(x)^23 + O(x^30)) \\\\ _Indranil Ghosh_, Mar 27 2017"
			],
			"xref": [
				"Cf. 23rd column of A144064. - _Alois P. Heinz_, Oct 17 2008",
				"Cf. A006922, A000041. - _Gary W. Adamson_, Jun 09 2009"
			],
			"keyword": "nonn",
			"offset": "0,2",
			"author": "_David W. Wilson_",
			"references": 6,
			"revision": 34,
			"time": "2017-03-27T21:32:46-04:00",
			"created": "1998-06-14T03:00:00-04:00"
		}
	]
}