{
	"greeting": "Greetings from The On-Line Encyclopedia of Integer Sequences! http://oeis.org/",
	"query": "id:A023648",
	"count": 1,
	"start": 0,
	"results": [
		{
			"number": 23648,
			"data": "16,48,100,168,252,360,497,660,848,1068,1326,1620,1948,2316,2723,3172,3660,4186,4762,5394,6076,6806,7585,8416,9308,10256,11260,12328,13467,14674,15946,17290,18705,20194,21754,23382,25092,26886",
			"name": "Self-convolution of composite numbers.",
			"keyword": "nonn",
			"offset": "1,1",
			"author": "_Clark Kimberling_",
			"references": 0,
			"revision": 3,
			"time": "2012-03-30T18:55:53-04:00",
			"created": "1998-06-14T03:00:00-04:00"
		}
	]
}