{
	"greeting": "Greetings from The On-Line Encyclopedia of Integer Sequences! http://oeis.org/",
	"query": "id:A023293",
	"count": 1,
	"start": 0,
	"results": [
		{
			"number": 23293,
			"data": "43,103,199,1039,1303,2311,2857,3673,4513,4663,5743,5953,8431,9721,12391,14143,14533,17599,18457,19507,21211,23719,24169,25621,28663,29023,31963,33409,35311,36979,37423,40867,40939,43891,44371,44983,45841,46747,46807",
			"name": "Primes that remain prime through 3 iterations of function f(x) = 8x + 5.",
			"comment": [
				"Primes p such that 8*p+5, 64*p+45 and 512*p+365 are also primes. - _Vincenzo Librandi_, Aug 04 2010"
			],
			"link": [
				"John Cerkan, \u003ca href=\"/A023293/b023293.txt\"\u003eTable of n, a(n) for n = 1..10000\u003c/a\u003e"
			],
			"formula": [
				"a(n) == 1 (mod 6). - _John Cerkan_, Sep 23 2016"
			],
			"program": [
				"(MAGMA) [n: n in [1..450000] | IsPrime(n) and IsPrime(8*n+5) and IsPrime(64*n+45) and IsPrime(512*n+365)] // _Vincenzo Librandi_, Aug 04 2010"
			],
			"xref": [
				"Subsequence of A023230, A023262, and A105133."
			],
			"keyword": "nonn",
			"offset": "1,1",
			"author": "_David W. Wilson_",
			"references": 3,
			"revision": 17,
			"time": "2021-02-12T14:51:42-05:00",
			"created": "1998-06-14T03:00:00-04:00"
		}
	]
}