{
	"greeting": "Greetings from The On-Line Encyclopedia of Integer Sequences! http://oeis.org/",
	"query": "id:A024273",
	"count": 1,
	"start": 0,
	"results": [
		{
			"number": 24273,
			"data": "0,1,-6,111,-3836,208205,-16162146,1691108251,-228856755640,38843134101081,-8072581315789950,2015026740164435591,-594586585293174554676,204653655148187534506789",
			"name": "Expansion of sin(tanh(x))*x/2.",
			"mathematica": [
				"With[{nn=30},Take[CoefficientList[Series[Sin[Tanh[x]]*x/2,{x,0,nn}],x] Range[ 0,nn]!,{1,-1,2}]] (* _Harvey P. Dale_, Aug 25 2020 *)"
			],
			"xref": [
				"Cf. A009525."
			],
			"keyword": "sign",
			"offset": "0,3",
			"author": "_R. H. Hardin_",
			"ext": [
				"Extended with signs Mar 1997",
				"Previous Mathematica program replaced by _Harvey P. Dale_, Aug 25 2020"
			],
			"references": 0,
			"revision": 10,
			"time": "2020-08-25T18:29:27-04:00",
			"created": "1998-06-14T03:00:00-04:00"
		}
	]
}