{
	"greeting": "Greetings from The On-Line Encyclopedia of Integer Sequences! http://oeis.org/",
	"query": "id:A024159",
	"count": 1,
	"start": 0,
	"results": [
		{
			"number": 24159,
			"data": "0,0,0,0,0,0,0,0,1,0,0,1,0,0,2,0,0,3,0,1,3,0,0,3,0,0,4,2,0,6,0,1,5,0,4,11,0,0,6,5,0,9,0,3,17,0,0,11,0,0,8,3,0,12,6,7,9,0,0,20,0,0,24,4,8,15,0,4,11,12,0,31,0,0,13,5,10,18,0,17,21,0,0,30,10,0,14,10,0,57,12,6,15,0,12,30,0,1,40",
			"name": "Number of integer-sided triangles with sides a,b,c, a\u003cb\u003cc, a+b+c=n such that n divides a^3 + b^3 + c^3.",
			"keyword": "nonn",
			"offset": "1,15",
			"author": "_Clark Kimberling_",
			"references": 0,
			"revision": 3,
			"time": "2012-03-30T18:55:53-04:00",
			"created": "1998-06-14T03:00:00-04:00"
		}
	]
}