{
	"greeting": "Greetings from The On-Line Encyclopedia of Integer Sequences! http://oeis.org/",
	"query": "id:A024248",
	"count": 1,
	"start": 0,
	"results": [
		{
			"number": 24248,
			"data": "0,1,4,-12,-2272,-166960,-13136448,-1177426880,-116571720704,-11452654888704,-669616618900480,214088681811547136,155062926684742508544,76744341986122463531008,36379718195920790292840448",
			"name": "Expansion of sin(tan(x)*x)/2.",
			"mathematica": [
				"Sin[ Tan[ x ]*x ]/2 (* Even Part *)"
			],
			"xref": [
				"Cf. A009515."
			],
			"keyword": "sign",
			"offset": "0,3",
			"author": "_R. H. Hardin_",
			"ext": [
				"Extended with signs Mar 1997"
			],
			"references": 0,
			"revision": 9,
			"time": "2017-04-02T15:23:01-04:00",
			"created": "1998-06-14T03:00:00-04:00"
		}
	]
}