{
	"greeting": "Greetings from The On-Line Encyclopedia of Integer Sequences! http://oeis.org/",
	"query": "id:A024349",
	"count": 1,
	"start": 0,
	"results": [
		{
			"number": 24349,
			"data": "2,248,524192,5362156928,167986518651392,12583779264376322048",
			"name": "Duplicate of A012529",
			"keyword": "dead",
			"offset": "0,1",
			"references": 0,
			"revision": 6,
			"time": "2007-05-11T03:00:00-04:00",
			"created": "1998-06-14T03:00:00-04:00"
		}
	]
}