{
	"greeting": "Greetings from The On-Line Encyclopedia of Integer Sequences! http://oeis.org/",
	"query": "id:A024157",
	"count": 1,
	"start": 0,
	"results": [
		{
			"number": 24157,
			"data": "0,0,0,0,0,0,0,0,0,0,0,1,0,0,2,0,0,0,0,1,2,0,0,2,0,0,1,2,0,4,0,1,4,0,4,2,0,0,4,5,0,6,0,3,6,0,0,9,0,0,6,3,0,3,6,7,6,0,0,14,0,0,9,4,8,10,0,4,8,12,0,9,0,0,9,5,10,12,0,17,11,0,0,21,10,0,10,10,0,18,12,6,10,0,12,22,0,1,13,8",
			"name": "Number of integer-sided triangles with sides a,b,c, a\u003cb\u003cc, a+b+c=n such that n divides abc.",
			"link": [
				"Sean A. Irvine, \u003ca href=\"https://github.com/archmageirvine/joeis/blob/master/src/irvine/oeis/a024/A024157.java\"\u003eJava program\u003c/a\u003e (github)"
			],
			"keyword": "nonn",
			"offset": "1,15",
			"author": "_Clark Kimberling_",
			"ext": [
				"a(100) corrected by _Sean A. Irvine_, Jun 20 2019"
			],
			"references": 1,
			"revision": 6,
			"time": "2019-06-20T08:23:19-04:00",
			"created": "1998-06-14T03:00:00-04:00"
		}
	]
}