{
	"greeting": "Greetings from The On-Line Encyclopedia of Integer Sequences! http://oeis.org/",
	"query": "id:A024946",
	"count": 1,
	"start": 0,
	"results": [
		{
			"number": 24946,
			"data": "1,1,3,5,7,13,25,45,81,145,311,593,1103,2137,4401,8689,16769,32993,68395,137141,270343,541349,1119489,2268541,4545665,9161233,19115279,39020945,78883311,160667153,335141345,688565217,1403294593,2872624641,6015309539",
			"name": "s(n+3)/2, where s is A024945.",
			"keyword": "nonn",
			"offset": "1,3",
			"author": "_Clark Kimberling_",
			"references": 0,
			"revision": 3,
			"time": "2012-03-30T18:56:00-04:00",
			"created": "1999-12-11T03:00:00-05:00"
		}
	]
}