{
	"greeting": "Greetings from The On-Line Encyclopedia of Integer Sequences! http://oeis.org/",
	"query": "id:A024055",
	"count": 1,
	"start": 0,
	"results": [
		{
			"number": 24055,
			"data": "1,4,-39,-604,-3471,-12500,-31031,-39524,128481,1421684,8765625,47056564,241154641,1215876316,6095986089,30506187500,152571113409,762915315556,3814663253401,19073439282244,95367367640625",
			"name": "a(n) = 5^n - n^6.",
			"link": [
				"Vincenzo Librandi, \u003ca href=\"/A024055/b024055.txt\"\u003eTable of n, a(n) for n = 0..300\u003c/a\u003e",
				"\u003ca href=\"/index/Rec#order_08\"\u003eIndex entries for linear recurrences with constant coefficients\u003c/a\u003e, signature (12, -56, 140, -210, 196, -112, 36, -5)."
			],
			"formula": [
				"a(n) = 12*a(n-1) - 56*a(n-2) + 140*a(n-3) - 210*a(n-4) + 196*a(n-5) - 112*a(n-6) + 36*a(n-7) - 5*a(n-8), a(0)=1, a(1)=4, a(2)=-39, a(3)=-604, a(4)=-3471, a(5)=-12500, a(6)=-31031, a(7)=-39524. - _Harvey P. Dale_, Jul 21 2011",
				"G.f.: (1 - 8*x - 31*x^2 - 52*x^3 + 1243*x^4 + 1432*x^5 + 291*x^6 + 4*x^7)/((1-5*x)*(1-x)^7). - _Bruno Berselli_, Jul 21 2011"
			],
			"mathematica": [
				"Table[5^n-n^6,{n,0,60}] (* _Vladimir Joseph Stephan Orlovsky_, Feb 15 2011 *)",
				"LinearRecurrence[{12,-56,140,-210,196,-112,36,-5},{1,4,-39,-604,-3471,-12500,-31031,-39524},61] (* _Harvey P. Dale_, Jul 21 2011 *)"
			],
			"program": [
				"(MAGMA) [5^n-n^6: n in [0..30]]; // _Vincenzo Librandi_, Jul 03 2011"
			],
			"keyword": "sign,easy",
			"offset": "0,2",
			"author": "_N. J. A. Sloane_",
			"references": 2,
			"revision": 22,
			"time": "2018-07-15T22:08:30-04:00",
			"created": "1998-06-14T03:00:00-04:00"
		}
	]
}