{
	"greeting": "Greetings from The On-Line Encyclopedia of Integer Sequences! http://oeis.org/",
	"query": "id:A024981",
	"count": 1,
	"start": 0,
	"results": [
		{
			"number": 24981,
			"data": "3,10,17,24,29,36,43,55,62,66,73,80,81,92,99,118,127,129,134,136,141,153,155,160,179,190,192,197,216,218,225,232,244,251,251,253,258,270,277,281,288,307,314,342,344,345,349,352,359,368,371,375,378,397,405,408,415,433",
			"name": "Numbers that are the sum of 3 positive cubes, including repetitions.",
			"reference": [
				"H. Davenport, Sums of three positive cubes, J. London Math. Soc., 25 (1950), 339-343. Coll. Works III p. 999."
			],
			"link": [
				"Bruno Berselli, \u003ca href=\"/A024981/b024981.txt\"\u003eTable of n, a(n) for n = 1..2000\u003c/a\u003e",
				"\u003ca href=\"/index/Su#ssq\"\u003eIndex entries for sequences related to sums of cubes\u003c/a\u003e"
			],
			"example": [
				"An example of repetition: 251 shows twice, because 251 = 1^3+5^3+5^3 = 2^3+3^3+6^3. [_Jean-François Alcover_, Jul 31 2013]"
			],
			"mathematica": [
				"m = 8; Sort[Select[Flatten[Table[x^3 + y^3 + z^3, {x, 1, m}, {y, x, m}, {z, y, m}]], # \u003c= m^3 + 2 \u0026]] (* _T. D. Noe_, Jul 30 2013 *)",
				"max = 500; pr = Table[ PowersRepresentations[n, 3, 3], {n, 1, max}] // Flatten[#, 1]\u0026 // Select[#, Times @@ # != 0 \u0026]\u0026; Total[#^3] \u0026 /@ pr (* _Jean-François Alcover_, Jul 31 2013 - replaced my previous incorrect code *)"
			],
			"xref": [
				"Cf. A003072, A003325."
			],
			"keyword": "nonn,easy,nice",
			"offset": "1,1",
			"author": "_Clark Kimberling_",
			"ext": [
				"Corrected by _David W. Wilson_ May 15 1997",
				"Inserted a second 251 from _T. D. Noe_, Jul 30 2013"
			],
			"references": 3,
			"revision": 45,
			"time": "2013-07-31T04:53:53-04:00",
			"created": "1999-12-11T03:00:00-05:00"
		}
	]
}