{
	"greeting": "Greetings from The On-Line Encyclopedia of Integer Sequences! http://oeis.org/",
	"query": "id:A024890",
	"count": 1,
	"start": 0,
	"results": [
		{
			"number": 24890,
			"data": "0,0,1,0,1,1,1,1,2,1,2,2,1,2,2,2,2,3,3,2,3,3,2,3,3,3,3,4,4,4,4,3,4,4,3,4,4,3,5,5,5,4,5,5,5,5,4,5,5,5,5,5,5,6,6,5,6,6,5,5,6,6,5,6,6,6,6,5,7,7,7,7,7,6,7,7,7,7,7,7,6,7,7,6,7,7,7,8,7,8,7,8,8,8,8,7,8,7,8,8,8,7,8,8,8,8,9,8,8,9,9,9",
			"name": "a(n) = s(1)t(n) + s(2)t(n-1) + ... + s(k)t(n-k+1), where k = [ n/2 ], s = A023531, t = A014306.",
			"keyword": "nonn",
			"offset": "2,9",
			"author": "_Clark Kimberling_",
			"ext": [
				"a(102) onward corrected by _Sean A. Irvine_, Jul 27 2019"
			],
			"references": 1,
			"revision": 6,
			"time": "2019-07-27T17:02:46-04:00",
			"created": "1999-12-11T03:00:00-05:00"
		}
	]
}