{
	"greeting": "Greetings from The On-Line Encyclopedia of Integer Sequences! http://oeis.org/",
	"query": "id:A024608",
	"count": 1,
	"start": 0,
	"results": [
		{
			"number": 24608,
			"data": "1,4,7,9,14,16,20,22,26,30,33,37,39,42,45,50,52,54,59,64,66,69,75,80,82,83,85,93,94,96,100,101,106,113,115,120,123,126,130,132,135,136,140,145,148,151,154,158,164,168,171,173,177,181,183,189,195,197,199,201,207",
			"name": "Positions of even numbers in A003136.",
			"keyword": "nonn",
			"offset": "1,2",
			"author": "_Clark Kimberling_",
			"ext": [
				"Edited for A003136(1)=0 and extended by _Ray Chandler_, Jan 28 2009"
			],
			"references": 0,
			"revision": 5,
			"time": "2012-03-30T18:55:58-04:00",
			"created": "1999-12-11T03:00:00-05:00"
		}
	]
}