{
	"greeting": "Greetings from The On-Line Encyclopedia of Integer Sequences! http://oeis.org/",
	"query": "id:A024443",
	"count": 1,
	"start": 0,
	"results": [
		{
			"number": 24443,
			"data": "1,29,558,8986,131243,1805223,23872696,307323332,3882264405,48383711857,597102947714,7316027902638,89165615770687,1082459954878331,13102563809462412,158253703693612504",
			"name": "Expansion of 1/((1-x)(1-7x)(1-9x)(1-12x)).",
			"link": [
				"\u003ca href=\"/index/Rec#order_04\"\u003eIndex entries for linear recurrences with constant coefficients\u003c/a\u003e, signature (29,-283,1011,-756)."
			],
			"formula": [
				"a(n) = (16*12^(n+3) - 55*9^(n+3) + 44*7^(n+3) - 5)/2640. [_Yahia Kahloune_, Jun 28 2013]"
			],
			"keyword": "nonn,easy",
			"offset": "0,2",
			"author": "_N. J. A. Sloane_.",
			"references": 0,
			"revision": 12,
			"time": "2020-04-27T11:57:59-04:00",
			"created": "1999-12-11T03:00:00-05:00"
		}
	]
}