{
	"greeting": "Greetings from The On-Line Encyclopedia of Integer Sequences! http://oeis.org/",
	"query": "id:A024811",
	"count": 1,
	"start": 0,
	"results": [
		{
			"number": 24811,
			"data": "0,1,1,2,3,3,4,5,5,6,6,7,8,8,9,10,10,11,12,12,13,13,14,15,15,16,17,17,18,19,19,20,20,21,22,22,23,24,24,25,26,26,27,27,28,29,29,30,31,31,32,33,33,34,35,35,36,36,37,38,38,39,40,40,41,42,42,43,43,44,45,45,46,47,47,48,49,49,50,50",
			"name": "a(n) = floor(tan(m*Pi/2)), where m = 1 - 1/n.",
			"mathematica": [
				"Floor[Tan[Pi/2 (1-1/Range[80])]] (* _Harvey P. Dale_, Jul 25 2013 *)"
			],
			"program": [
				"(PARI) a(n) = floor(tan((1 - 1/n)*Pi/2)) \\\\ _Michel Marcus_, Mar 23 2013"
			],
			"keyword": "nonn",
			"offset": "1,4",
			"author": "_Clark Kimberling_",
			"references": 1,
			"revision": 12,
			"time": "2021-04-11T16:11:29-04:00",
			"created": "1999-12-11T03:00:00-05:00"
		}
	]
}