{
	"greeting": "Greetings from The On-Line Encyclopedia of Integer Sequences! http://oeis.org/",
	"query": "id:A024821",
	"count": 1,
	"start": 0,
	"results": [
		{
			"number": 24821,
			"data": "4,5,9,11,17,21,25,32,40,43,55,61,67,73,87,94,105,113,125,137,145,153,166,179,188,202,216,226,246,256,271,281,297,307,329,340,351,368,385,403,421,439,451,469,481,500,519,538,551,564,584,604,624,645,666,687,708,722,743",
			"name": "Least m such that if r and s in {1/sqrt(h): h = 1,2,...,n} satisfy r \u003c s, then r \u003c k/m \u003c s for some integer k.",
			"comment": [
				"For a guide to related sequences, see A001000. - _Clark Kimberling_, Aug 07 2012"
			],
			"link": [
				"Clark Kimberling, \u003ca href=\"/A024821/b024821.txt\"\u003eTable of n, a(n) for n = 2..200\u003c/a\u003e"
			],
			"mathematica": [
				"leastSeparator[seq_] := Module[{n = 1},",
				"Table[While[Or @@ (Ceiling[n #1[[1]]] \u003c",
				"2 + Floor[n #1[[2]]] \u0026) /@ (Sort[#1, Greater] \u0026) /@",
				"Partition[Take[seq, k], 2, 1], n++]; n, {k, 2, Length[seq]}]];",
				"t = Flatten[Table[1/Sqrt[h], {h, 1, 60}]];",
				"leastSeparator[t]",
				"(* _Peter J. C. Moses_, Aug 01 2012 *)"
			],
			"xref": [
				"Cf. A001000."
			],
			"keyword": "nonn",
			"offset": "2,1",
			"author": "_Clark Kimberling_",
			"references": 2,
			"revision": 13,
			"time": "2014-03-01T09:57:52-05:00",
			"created": "1999-12-11T03:00:00-05:00"
		}
	]
}