{
	"greeting": "Greetings from The On-Line Encyclopedia of Integer Sequences! http://oeis.org/",
	"query": "id:A024467",
	"count": 1,
	"start": 0,
	"results": [
		{
			"number": 24467,
			"data": "0,1,2,1,3,2,4,7,12,11,19,18,30,28,46,41,67,54,88,142,231,230,373,371,601,596,965,952,1541,1507,2439,2350,3803,3570,5776,5166,8359,6761,10940,17702,28643,28635,46333,46312,74935,74880,121159,121015,195807,195430,316213",
			"name": "a(n) = s(1)t(n) + s(2)t(n-1) + ... + s(k)t(n+1-k), where k = [ (n+1)/2 ], s = (Fibonacci numbers), t = A014306.",
			"keyword": "nonn",
			"offset": "1,3",
			"author": "_Clark Kimberling_",
			"references": 0,
			"revision": 3,
			"time": "2012-03-30T18:55:54-04:00",
			"created": "1999-12-11T03:00:00-05:00"
		}
	]
}