{
	"greeting": "Greetings from The On-Line Encyclopedia of Integer Sequences! http://oeis.org/",
	"query": "id:A024474",
	"count": 1,
	"start": 0,
	"results": [
		{
			"number": 24474,
			"data": "1,3,13,18,42,57,112,137,245,282,488,562,947,1056,1752,1969,3234,3564,5822,6294,10245,11166,18135,19514,31647,33580,54413,58116,94119,99407,160936,171219,277135,292509,473393,494951,800957,842277,1362949,1422184",
			"name": "a(n) = s(1)t(n) + s(2)t(n-1) + ... + s(k)t(n+1-k), where k = [ (n+1)/2 ], s = (Lucas numbers), t = A000201 (lower Wythoff sequence).",
			"keyword": "nonn",
			"offset": "1,2",
			"author": "_Clark Kimberling_",
			"references": 0,
			"revision": 3,
			"time": "2012-03-30T18:55:54-04:00",
			"created": "1999-12-11T03:00:00-05:00"
		}
	]
}