{
	"greeting": "Greetings from The On-Line Encyclopedia of Integer Sequences! http://oeis.org/",
	"query": "id:A024279",
	"count": 1,
	"start": 0,
	"results": [
		{
			"number": 24279,
			"data": "0,1,6,191,11676,1111501,159118146,31534949291,8253261002616,2758076443359961,1145356666834820286,578481632054752663511,349162848547458172567956,248194708790049332718453541",
			"name": "Expansion of tan(tan(x)*sinh(x))/2.",
			"mathematica": [
				"With[{nn=30},Take[CoefficientList[Series[Tan[Tan[x]*Sinh[x]]/2,{x,0,nn}],x] Range[0,nn]!,{1,-1,2}]] (* _Harvey P. Dale_, Aug 12 2019 *)"
			],
			"xref": [
				"A009706."
			],
			"keyword": "nonn",
			"offset": "0,3",
			"author": "_R. H. Hardin_",
			"ext": [
				"Extended and signs tested 03/97.",
				"Previous Mathematica program replaced by _Harvey P. Dale_, Aug 12 2019"
			],
			"references": 0,
			"revision": 9,
			"time": "2019-08-12T11:04:38-04:00",
			"created": "1998-06-14T03:00:00-04:00"
		}
	]
}