{
	"greeting": "Greetings from The On-Line Encyclopedia of Integer Sequences! http://oeis.org/",
	"query": "id:A024929",
	"count": 1,
	"start": 0,
	"results": [
		{
			"number": 24929,
			"data": "3,8,17,29,51,70,97,122,161,195,254,303,393,455,518,586,667,747,834,915,1024,1125,1238,1364,1481,1603,1744,1919,2125,2246,2472,2711,2911,3090,3297,3507,3753,3944,4154,4367,4609,4820,5089,5315,5555,5807,6100,6341,6630,6894",
			"name": "a(n) = Sum_{k = 1..n} k*floor((n + prime(k))/k).",
			"program": [
				"(PARI) a(n) = sum(k=1, n, k*floor((n+prime(k))/k)) \\\\ _Michel Marcus_, Mar 23 2013"
			],
			"keyword": "nonn",
			"offset": "1,1",
			"author": "_Clark Kimberling_",
			"references": 0,
			"revision": 8,
			"time": "2013-03-23T16:32:58-04:00",
			"created": "1999-12-11T03:00:00-05:00"
		}
	]
}