{
	"greeting": "Greetings from The On-Line Encyclopedia of Integer Sequences! http://oeis.org/",
	"query": "id:A024276",
	"count": 1,
	"start": 0,
	"results": [
		{
			"number": 24276,
			"data": "0,1,6,131,6636,478981,46186866,5850470471,949119838296,191928333160201,47247581207762526,13887944994837826571,4798123437751335493956,1923214499293440219360781",
			"name": "Expansion of sinh(tan(x)*sinh(x))/2.",
			"mathematica": [
				"With[{nn=30},Take[CoefficientList[Series[Sinh[(Tan[x]Sinh[x])]/2,{x, 0, nn}], x]Range[0,nn]!,{1,-1,2}]] (* _Harvey P. Dale_, Jan 22 2012 *)"
			],
			"xref": [
				"A009610."
			],
			"keyword": "nonn",
			"offset": "0,3",
			"author": "_R. H. Hardin_",
			"ext": [
				"Extended and signs tested 03/97."
			],
			"references": 0,
			"revision": 12,
			"time": "2013-11-21T12:46:23-05:00",
			"created": "1998-06-14T03:00:00-04:00"
		}
	]
}