{
	"greeting": "Greetings from The On-Line Encyclopedia of Integer Sequences! http://oeis.org/",
	"query": "id:A024322",
	"count": 1,
	"start": 0,
	"results": [
		{
			"number": 24322,
			"data": "0,0,2,3,5,8,13,21,42,68,110,178,288,466,754,1220,2029,3283,5312,8595,13907,22502,36409,58911,95320,154231,250161,404769,654930,1059699,1714629,2774328,4488957,7263285",
			"name": "s(1)t(n) + s(2)t(n-1) + ... + s(k)t(n+1-k), where k=[ (n+1)/2) ], s = A023531, t = (F(2), F(3), ...).",
			"keyword": "nonn",
			"offset": "1,3",
			"author": "_Clark Kimberling_",
			"references": 0,
			"revision": 4,
			"time": "2012-03-30T18:55:54-04:00",
			"created": "1998-06-14T03:00:00-04:00"
		}
	]
}