{
	"greeting": "Greetings from The On-Line Encyclopedia of Integer Sequences! http://oeis.org/",
	"query": "id:A024227",
	"count": 1,
	"start": 0,
	"results": [
		{
			"number": 24227,
			"data": "0,1,-2,19,-228,3077,-65830,1758167,-53368136,1951491465,-85111134154,4176412349723,-225382900988204,13340341706761357,-843824556920205294,53569650920259775455,-2964970152744457750672,54890174653048507285777",
			"name": "Expansion of sinh(x)*sin(sin(x))/2.",
			"mathematica": [
				"Sinh[ x ]*Sin[ Sin[ x ] ]/2 (* Even Part *)"
			],
			"xref": [
				"Cf. A009626."
			],
			"keyword": "sign",
			"offset": "0,3",
			"author": "_R. H. Hardin_",
			"ext": [
				"Extended with signs Mar 1997"
			],
			"references": 0,
			"revision": 10,
			"time": "2017-04-02T14:45:50-04:00",
			"created": "1998-06-14T03:00:00-04:00"
		}
	]
}