{
	"greeting": "Greetings from The On-Line Encyclopedia of Integer Sequences! http://oeis.org/",
	"query": "id:A024498",
	"count": 1,
	"start": 0,
	"results": [
		{
			"number": 24498,
			"data": "2,3,6,17,50,154,490,1608,5402,18475,64130,225346,800046,2865471,10341168,37567524,137270954,504174183,1860277042,6892326441,25631327354,95640861987,357975249026,1343650153462,5056424257510,19073789728773,72108867616596",
			"name": "a(n) = [ C(2n,n)/n ].",
			"mathematica": [
				"Table[Floor[Binomial[2n,n]/n],{n,40}] (* _Harvey P. Dale_, Nov 28 2014 *)"
			],
			"keyword": "nonn",
			"offset": "1,1",
			"author": "_Clark Kimberling_",
			"references": 1,
			"revision": 5,
			"time": "2014-11-28T14:12:01-05:00",
			"created": "1999-12-11T03:00:00-05:00"
		}
	]
}