{
	"greeting": "Greetings from The On-Line Encyclopedia of Integer Sequences! http://oeis.org/",
	"query": "id:A024079",
	"count": 1,
	"start": 0,
	"results": [
		{
			"number": 24079,
			"data": "1,6,33,262,2145,16182,116353,821142,5760705,40347046,282465249,1977312102,13841266465,96888981846,678223034433,4747561459318,33232930504065,232630513903686,1628413597805473,11398895185242822",
			"name": "a(n) = 7^n - n^4.",
			"link": [
				"Vincenzo Librandi, \u003ca href=\"/A024079/b024079.txt\"\u003eTable of n, a(n) for n = 0..500\u003c/a\u003e",
				"\u003ca href=\"/index/Rec#order_06\"\u003eIndex entries for linear recurrences with constant coefficients\u003c/a\u003e, signature (12,-45,80,-75,36,-7)."
			],
			"formula": [
				"From _Chai Wah Wu_, May 13 2017: (Start)",
				"a(n) = 12*a(n-1) - 45*a(n-2) + 80*a(n-3) - 75*a(n-4) + 36*a(n-5) - 7*a(n-6) for n \u003e 5.",
				"G.f.: (6*x^5 + 81*x^4 + 56*x^3 + 6*x^2 - 6*x + 1)/((x - 1)^5*(7*x - 1)). (End)"
			],
			"mathematica": [
				"Array[7^# - #^4 \u0026, 20, 0] (* or *)",
				"CoefficientList[Series[(6 x^5 + 81 x^4 + 56 x^3 + 6 x^2 - 6 x + 1)/((x - 1)^5*(7 x - 1)), {x, 0, 19}], x] (* _Michael De Vlieger_, May 13 2017 *)",
				"LinearRecurrence[{12,-45,80,-75,36,-7},{1,6,33,262,2145,16182},20] (* _Harvey P. Dale_, Feb 02 2020 *)"
			],
			"program": [
				"(MAGMA) [7^n-n^4: n in [0..25]]; // _Vincenzo Librandi_, Jul 03 2011"
			],
			"keyword": "nonn,easy",
			"offset": "0,2",
			"author": "_N. J. A. Sloane_",
			"references": 2,
			"revision": 14,
			"time": "2020-02-02T14:48:23-05:00",
			"created": "1998-06-14T03:00:00-04:00"
		}
	]
}