{
	"greeting": "Greetings from The On-Line Encyclopedia of Integer Sequences! http://oeis.org/",
	"query": "id:A025714",
	"count": 1,
	"start": 0,
	"results": [
		{
			"number": 25714,
			"data": "1,3,6,10,16,23,31,41,52,64,77,92,108,125,144,164,185,207,231,256,282,310,339,369,401,434,468,503,540,578,617,658,700,743,787,833,880,928,978,1029,1081,1134,1189,1245,1302,1361,1421,1482,1545,1609,1674,1740,1808",
			"name": "Index of 6^n within sequence of numbers of form 4^i*6^j.",
			"program": [
				"(PARI) a(n)=my(N=1); n+1+sum(i=1, n, logint(N*=6, 4)); \\\\ _Charles R Greathouse IV_, Jan 16 2018",
				"(PARI) first(n)=my(s, N=1/6); vector(n+1, i, s+=logint(N*=6, 4)+1) \\\\ _Charles R Greathouse IV_, Jan 16 2018"
			],
			"xref": [
				"Differs from A025729 at a(65)."
			],
			"keyword": "nonn",
			"offset": "1,2",
			"author": "_David W. Wilson_",
			"references": 1,
			"revision": 7,
			"time": "2018-01-24T22:34:27-05:00",
			"created": "1999-12-11T03:00:00-05:00"
		}
	]
}