{
	"greeting": "Greetings from The On-Line Encyclopedia of Integer Sequences! http://oeis.org/",
	"query": "id:A025947",
	"count": 1,
	"start": 0,
	"results": [
		{
			"number": 25947,
			"data": "1,24,391,5478,71449,898044,11063179,134771010,1631361325,19675158360,236793832639,2846370045246,34190350504129,410521580544372,4927920602312371,59146678721188986,709841565237360661",
			"name": "Expansion of 1/((1-2x)(1-3x)(1-7x)(1-12x)).",
			"link": [
				"\u003ca href=\"/index/Rec#order_04\"\u003eIndex entries for linear recurrences with constant coefficients\u003c/a\u003e, signature (24,-185,534,-504)."
			],
			"formula": [
				"a(n) = -7^(n+3)/100 +96*12^n/25 +3^(n+1)/4 -2^(n+2)/25; - _R. J. Mathar_, May 22 2013"
			],
			"keyword": "nonn",
			"offset": "0,2",
			"author": "_N. J. A. Sloane_.",
			"references": 0,
			"revision": 6,
			"time": "2015-06-13T00:49:05-04:00",
			"created": "1999-12-11T03:00:00-05:00"
		}
	]
}