{
	"greeting": "Greetings from The On-Line Encyclopedia of Integer Sequences! http://oeis.org/",
	"query": "id:A025727",
	"count": 1,
	"start": 0,
	"results": [
		{
			"number": 25727,
			"data": "1,2,4,7,11,16,22,28,35,43,52,62,73,84,96,109,123,138,154,171,188,206,225,245,266,288,310,333,357,382,408,435,463,491,520,550,581,613,646,679,713,748,784,821,859,898,937,977,1018,1060,1103,1147,1191,1236,1282,1329",
			"name": "Index of 7^n within sequence of numbers of form 7^i*10^j.",
			"keyword": "nonn",
			"offset": "1,2",
			"author": "_David W. Wilson_",
			"references": 0,
			"revision": 5,
			"time": "2012-03-30T18:35:28-04:00",
			"created": "1999-12-11T03:00:00-05:00"
		}
	]
}