{
	"greeting": "Greetings from The On-Line Encyclopedia of Integer Sequences! http://oeis.org/",
	"query": "id:A025303",
	"count": 1,
	"start": 0,
	"results": [
		{
			"number": 25303,
			"data": "65,85,125,130,145,170,185,205,221,250,260,265,290,305,340,365,370,377,410,442,445,481,485,493,500,505,520,530,533,545,565,580,585,610,625,629,680,685,689,697,730,740,745,754,765,785,793,820,865,884,890,901,905,949",
			"name": "Numbers that are the sum of 2 distinct nonzero squares in exactly 2 ways.",
			"comment": [
				"Numbers with exactly 2 distinct prime divisors of the form 4k+1, each with multiplicity one, or with only one prime divisor of this form with multiplicity 3, and with no prime divisor of the form 4k+3 to an odd multiplicity. - _Jean-Christophe Hervé_, Dec 01 2013"
			],
			"link": [
				"Donovan Johnson, \u003ca href=\"/A025303/b025303.txt\"\u003eTable of n, a(n) for n = 1..1000\u003c/a\u003e",
				"\u003ca href=\"/index/Su#ssq\"\u003eIndex entries for sequences related to sums of squares\u003c/a\u003e"
			],
			"formula": [
				"A004018(a(n)) = 16. - _Jean-Christophe Hervé_, Dec 01 2013"
			],
			"example": [
				"65 = 5*13 = 64+1 = 49 + 16; 85 = 5*17 = 81+4 = 49+16; 125 = 5^3 = 121+4 = 100+25; 130 = 2*5*13 = 121+9 = 81+49. - _Jean-Christophe Hervé_, Dec 01 2013"
			],
			"mathematica": [
				"nn = 949; t = Table[0, {nn}]; lim = Floor[Sqrt[nn - 1]]; Do[num = i^2 + j^2; If[num \u003c= nn, t[[num]]++], {i, lim}, {j, i - 1}]; Flatten[Position[t, 2]] (* _T. D. Noe_, Apr 07 2011 *)"
			],
			"xref": [
				"Cf. A001481, A004431, A004018, A230779 (one way).",
				"Cf. analogs for square decompositions: A084645, A084646, A084647, A084648, A084649."
			],
			"keyword": "nonn",
			"offset": "1,1",
			"author": "_David W. Wilson_",
			"references": 4,
			"revision": 21,
			"time": "2013-12-08T06:30:17-05:00",
			"created": "1999-12-11T03:00:00-05:00"
		}
	]
}