{
	"greeting": "Greetings from The On-Line Encyclopedia of Integer Sequences! http://oeis.org/",
	"query": "id:A025528",
	"count": 1,
	"start": 0,
	"results": [
		{
			"number": 25528,
			"data": "0,1,2,3,4,4,5,6,7,7,8,8,9,9,9,10,11,11,12,12,12,12,13,13,14,14,15,15,16,16,17,18,18,18,18,18,19,19,19,19,20,20,21,21,21,21,22,22,23,23,23,23,24,24,24,24,24,24,25,25,26,26,26,27,27,27,28,28,28,28,29,29,30,30",
			"name": "Number of prime powers \u003c= n with exponents \u003e 0 (A246655).",
			"comment": [
				"a(n) is the sum of the exponents in the prime factorization of lcm{1,2,...,n}.",
				"Larger than but analogous to Pi(n).",
				"Counts A000961 without 1=prime^0: a(n)=A065515(n)-1. - _Reinhard Zumkeller_, Jul 03 2003",
				"Equally, number of finite fields of order \u003c= n. - Neven Juric, Feb 05 2010"
			],
			"reference": [
				"G. Tenenbaum, Introduction à la théorie analytique et probabiliste des nombres, p. 203, Publications de l'Institut Cartan, 1990."
			],
			"link": [
				"Daniel Forgues, \u003ca href=\"/A025528/b025528.txt\"\u003eTable of n, a(n) for n = 1..100000\u003c/a\u003e.",
				"\u003ca href=\"/index/Lc#lcm\"\u003eIndex entries for sequences related to lcm's\u003c/a\u003e"
			],
			"formula": [
				"a(n) = Cardinality[{1..n}|A001221(i)=1].",
				"a(n) = Sum_{p prime \u003c= n} floor(log(n)/log(p)). - _Benoit Cloitre_, Apr 30 2002",
				"a(n) ~ n/log(n). - _Benoit Cloitre_, May 30 2003",
				"a(n) = A069637(n) + A000720(n). - Mohammed Bouayoun (bouyao(AT)wanadoo.fr), Feb 24 2004 [Corrected by _Franklin T. Adams-Watters_, Jun 08 2008]",
				"a(n) = A000720(n) + A000720(floor(n^(1/2))) + A000720(floor(n^(1/3))) + ... - _Max Alekseyev_, May 11 2009",
				"Partial sums of A069513. - _Enrique Pérez Herrero_, May 30 2011",
				"a(n) = A001222(A003418(n)). - _Luc Rousseau_, Jan 05 2018",
				"From _Steven Foster Clark_, Sep 26 2018: (Start)",
				"a(n) = Sum_{m=1..n} A001222(m) * A002321(floor(n/m)) where A001222() is the Omega function and A002321() is the Mertens function.",
				"a(n) = Sum_{m=1..floor(log_2(n))} A000010(m)/m * J(floor(n^(1/m))) where A000010() is Euler's totient function and J(n) = Sum_{m=1..floor(log_2(n))} 1/m * A000720(floor(n^(1/m))) is Riemann's prime-power counting function.",
				"(End)"
			],
			"example": [
				"Below 100 there are 25 primes and 25 + 10 = 35 prime powers."
			],
			"mathematica": [
				"primePowerPi[n_] := Sum[PrimePi[n^(1/k)], {k, Log[2, n]}]; Table[primePowerPi[n], {n, 75}] (* _Geoffrey Critzer_, Jan 07 2012 *) (* and modified by _Robert G. Wilson v_, Jan 07 2012 *)",
				"Table[Sum[Boole[1 \u003c Cyclotomic[n, 1]], {n, 1, m}], {m, 1, 75}] (* _Fred Daniel Kline_, Oct 03 2016 *)"
			],
			"program": [
				"(PARI) for(n=1,100,print1(sum(k=1,n,logint(n,prime(k))),\",\")) \\\\ corrected by _Luc Rousseau_, Jan 04 2018",
				"(PARI) a(n)=sum(i=1,n,if(omega(i)-1,0,1))",
				"(PARI) a(n)=n+=.5;sum(e=1,log(n)\\log(2),primepi(n^(1/e))) \\\\ _Charles R Greathouse IV_, Apr 30 2012",
				"(SageMath)",
				"def A025528(n) : return sum([1 for k in (0..n) if is_prime_power(k)])",
				"print([A025528(n)  for n in (1..74)]) # _Peter Luschny_, Nov 18 2019"
			],
			"xref": [
				"Cf. A000961, A000040, A000720, A001221, A003418, A141228, A246655, A276781 (ordinal transform).",
				"One less than A065515."
			],
			"keyword": "nonn",
			"offset": "1,3",
			"author": "_Clark Kimberling_",
			"ext": [
				"New description from _Labos Elemer_, Nov 09 2000"
			],
			"references": 25,
			"revision": 84,
			"time": "2020-02-15T07:59:37-05:00",
			"created": "1999-12-11T03:00:00-05:00"
		}
	]
}