{
	"greeting": "Greetings from The On-Line Encyclopedia of Integer Sequences! http://oeis.org/",
	"query": "id:A025724",
	"count": 1,
	"start": 0,
	"results": [
		{
			"number": 25724,
			"data": "1,3,6,10,15,21,28,36,45,55,66,78,92,107,123,140,158,177,197,218,240,263,287,312,339,367,396,426,457,489,522,556,591,627,664,703,743,784,826,869,913,958,1004,1051,1099,1148,1198,1250,1303,1357,1412,1468,1525,1583",
			"name": "Index of 7^n within sequence of numbers of form 6^i*7^j.",
			"keyword": "nonn",
			"offset": "1,2",
			"author": "_David W. Wilson_",
			"references": 0,
			"revision": 5,
			"time": "2012-03-30T18:35:26-04:00",
			"created": "1999-12-11T03:00:00-05:00"
		}
	]
}