{
	"greeting": "Greetings from The On-Line Encyclopedia of Integer Sequences! http://oeis.org/",
	"query": "id:A025219",
	"count": 1,
	"start": 0,
	"results": [
		{
			"number": 25219,
			"data": "2,8,20,38,64,99,145,203,274,360,462,581,719,877,1056,1258,1484,1735,2013,2319,2655,3021,3419,3850,4317,4819,5359,5937,6556,7216,7918,8665,9457,10296,11183,12119,13106,14145,15237,16385,17588,18849,20168,21548,22988",
			"name": "a(n) = [ 2nd elementary symmetric function of {sqrt(k+1)} ], k = 1,2,...,n.",
			"keyword": "nonn",
			"offset": "2,1",
			"author": "_Clark Kimberling_",
			"references": 0,
			"revision": 3,
			"time": "2012-03-30T18:56:01-04:00",
			"created": "1999-12-11T03:00:00-05:00"
		}
	]
}