{
	"greeting": "Greetings from The On-Line Encyclopedia of Integer Sequences! http://oeis.org/",
	"query": "id:A025177",
	"count": 1,
	"start": 0,
	"results": [
		{
			"number": 25177,
			"data": "1,1,0,1,1,1,2,1,1,1,2,4,4,4,2,1,1,3,7,10,12,10,7,3,1,1,4,11,20,29,32,29,20,11,4,1,1,5,16,35,60,81,90,81,60,35,16,5,1,1,6,22,56,111,176,231,252,231,176,111,56,22,6,1,1,7,29,84,189,343,518,659,714,659,518,343",
			"name": "Triangular array, read by rows: first differences in n,n direction of trinomial array A027907.",
			"comment": [
				"The Motzkin transforms of the rows starting (1, 2), (1, 3) and (1, 4), extended by zeros after their last element, are apparently in A026134, A026109 and A026110. - _R. J. Mathar_, Dec 11 2008"
			],
			"link": [
				"Georg Fischer, \u003ca href=\"/A025177/b025177.txt\"\u003eTable of n, a(n) for n = 0..2499\u003c/a\u003e [rows 0..49; first 676 terms from _G. C. Greubel_]"
			],
			"formula": [
				"T(n, k) = T(n-1, k-2) + T(n-1, k-1) + T(n-1, k), starting with [1], [1, 0, 1].",
				"G.f.: (1-y*z)/[1-z*(1+y+y^2)]."
			],
			"example": [
				"               1",
				"            1  0  1",
				"         1  1  2  1  1",
				"      1  2  4  4  4  2  1",
				"   1  3  7 10 12 10  7  3  1",
				"1  4 11 20 29 32 29 20 11  4  1"
			],
			"maple": [
				"A025177 := proc(n,k)",
				"    option remember;",
				"    if k \u003c 0 or k \u003e 2*n then",
				"        0;",
				"    elif n = 0 then",
				"        1 ;",
				"    elif n = 1 then",
				"        op(k+1,[1,0,1]) ;",
				"    else",
				"        procname(n-1,k-2)+procname(n-1,k-1)+procname(n-1,k) ;",
				"    end if;",
				"end proc:",
				"seq(seq(A025177(n,k),k=0..2*n),n=0..20)  ; # _R. J. Mathar_, Feb 25 2015"
			],
			"mathematica": [
				"nmax = 10; CoefficientList[CoefficientList[Series[(1 - y*x)/(1 - x*(1 + y + y^2)), {x, 0, nmax}, {y, 0, 2*nmax}], x], y] // Flatten (* _G. C. Greubel_, May 22 2017; amended by _Georg Fischer_, Jun 24 2020 *)"
			],
			"program": [
				"(PARI) {T(n, k) = if( k\u003c0 || k\u003e2*n, 0, if( n==0, 1, if( n==1, [1,0,1][k+1], if( n==2, [1,1,2,1,1][k+1], T(n-1, k-2) + T(n-1, k-1) + T(n-1, k)))))};",
				"(PARI) T(n,k)=polcoeff(Ser(polcoeff(Ser((1-y*z)/(1-z*(1+y+y^2)),y),k,y),z),n,z)",
				"(PARI) {T(n, k) = if( k\u003c0 || k\u003e2*n, 0, if( n==0, 1, polcoeff( (1 + x + x^2)^n, k) - polcoeff( (1 + x + x^2)^(n-1), k-1)))};",
				"(PARI) g=matrix(33,65);",
				"for(n=0,32,for(k=0,2*n,g[n+1,k+1]=0));",
				"g[1,1]=1;",
				"g[2,1]=1;g[2,2]=0;g[2,3]=1;",
				"g[3,1]=1;g[3,2]=1;g[3,3]=2;g[3,4]=1;g[3,5]=1;",
				"for(n=0,2,for(k=0,2*n,print(n,\" \",k,\" \",g[n+1,k+1])))",
				"for(n=3,32,g[n+1,1]=1;print(n,\" 1 1\");g[n+1,2]=n-1;print(n,\" 2 \",n-1);for(k=2,2*n,g[n+1,k+1]=g[n,k-1]+g[n,k]+g[n,k+1];print(n,\" \",k,\" \",g[n+1,k+1])))",
				"\\\\ _Michael B. Porter_, Feb 02 2010"
			],
			"xref": [
				"Columns include A025178, A025179, A025180, A025181, A025182.",
				"Cf. A024996."
			],
			"keyword": "nonn,tabf,easy",
			"offset": "0,7",
			"author": "_Clark Kimberling_",
			"ext": [
				"Edited by _Ralf Stephan_, Jan 09 2005",
				"Offset corrected by _R. J. Mathar_, Feb 25 2015"
			],
			"references": 23,
			"revision": 41,
			"time": "2020-06-25T04:57:37-04:00",
			"created": "1999-12-11T03:00:00-05:00"
		}
	]
}