{
	"greeting": "Greetings from The On-Line Encyclopedia of Integer Sequences! http://oeis.org/",
	"query": "id:A025554",
	"count": 1,
	"start": 0,
	"results": [
		{
			"number": 25554,
			"data": "1,0,1,1,2,7,17,107,113,329,334,3644,3659,47462,95029,94973,95001,1614765,1614891,30681669,30682299,30681969,30682134,705687102,705688092,3528437886,3528439173,10585315517,10585316518,306974164007,613948343029",
			"name": "a(n) = (Sum_{i=0..n-1} (-1)^i/b(i)) * LCM{b(i): i=0..n-1}, where b(i) = C(i,floor(i/2)).",
			"keyword": "nonn",
			"offset": "1,5",
			"author": "_Clark Kimberling_",
			"ext": [
				"Title corrected by _Sean A. Irvine_, Sep 05 2019"
			],
			"references": 0,
			"revision": 8,
			"time": "2019-09-06T04:10:38-04:00",
			"created": "1999-12-11T03:00:00-05:00"
		}
	]
}