{
	"greeting": "Greetings from The On-Line Encyclopedia of Integer Sequences! http://oeis.org/",
	"query": "id:A025888",
	"count": 1,
	"start": 0,
	"results": [
		{
			"number": 25888,
			"data": "1,0,0,0,0,1,0,0,1,0,2,0,0,1,0,2,1,0,2,0,3,1,0,2,1,3,2,0,3,1,4,2,1,3,2,4,3,1,4,2,6,3,2,4,3,6,4,2,6,3,8,4,3,6,4,8,6,3,8,4,10,6,4,8,6,10,8,4,10,6,12,8,6,10,8,12,10,6",
			"name": "Expansion of 1/((1-x^5)(1-x^8)(1-x^10)).",
			"mathematica": [
				"CoefficientList[Series[1/((1-x^5)(1-x^8)(1-x^10)),{x,0,100}],x] (* _Harvey P. Dale_, Jul 26 2011 *)"
			],
			"keyword": "nonn",
			"offset": "0,11",
			"author": "_N. J. A. Sloane_.",
			"references": 0,
			"revision": 6,
			"time": "2013-11-21T12:46:24-05:00",
			"created": "1999-12-11T03:00:00-05:00"
		}
	]
}