{
	"greeting": "Greetings from The On-Line Encyclopedia of Integer Sequences! http://oeis.org/",
	"query": "id:A025884",
	"count": 1,
	"start": 0,
	"results": [
		{
			"number": 25884,
			"data": "1,0,0,0,0,1,0,1,0,0,2,0,1,0,1,2,0,2,0,1,3,1,2,0,2,3,1,3,1,2,4,2,3,1,3,5,2,4,2,3,6,3,5,2,4,7,3,6,3,5,8,4,7,3,6,9,5,8,4,7,10,6,9,5,8,11,7,10,6,9,13,8,11,7,10,14,9,13",
			"name": "Expansion of 1/((1-x^5)(1-x^7)(1-x^10)).",
			"link": [
				"\u003ca href=\"/index/Rec#order_22\"\u003eIndex entries for linear recurrences with constant coefficients\u003c/a\u003e,signature (0,0,0,0,1,0,1,0,0,1,0,-1,0,0,-1,0,-1,0,0,0,0,1)."
			],
			"mathematica": [
				"CoefficientList[Series[1/((1-x^5)(1-x^7)(1-x^10)),{x,0,80}],x] (* _Harvey P. Dale_, Jan 29 2020 *)"
			],
			"program": [
				"(MAGMA) m:=100; R\u003cx\u003e:=PowerSeriesRing(Integers(), m); Coefficients(R!( 1/((1-x^5)*(1-x^7)*(1-x^10)))); // _Vincenzo Librandi_, Jan 30 2020"
			],
			"keyword": "nonn,easy",
			"offset": "0,11",
			"author": "_N. J. A. Sloane_.",
			"references": 0,
			"revision": 10,
			"time": "2020-01-30T07:04:56-05:00",
			"created": "1999-12-11T03:00:00-05:00"
		}
	]
}