{
	"greeting": "Greetings from The On-Line Encyclopedia of Integer Sequences! http://oeis.org/",
	"query": "id:A026968",
	"count": 1,
	"start": 0,
	"results": [
		{
			"number": 26968,
			"data": "1,8,41,208,856,3552,14172,56462,223292,881656,3475141,13688112,53891760,212145608,835111160,3287779006,12946154944,50989472460,200879577216,791617503410,3120501139160,12304529289928,48533074308046,191488113441258,755744827552836,2983563960355832",
			"name": "a(n) = Sum_{k=0..n-2} T(n,k) * T(n,k+2), with T given by A026637.",
			"keyword": "nonn",
			"offset": "2,2",
			"author": "_Clark Kimberling_",
			"ext": [
				"More terms from _Sean A. Irvine_, Oct 20 2019"
			],
			"references": 0,
			"revision": 8,
			"time": "2019-10-20T16:23:22-04:00",
			"created": "1999-12-11T03:00:00-05:00"
		}
	]
}