{
	"greeting": "Greetings from The On-Line Encyclopedia of Integer Sequences! http://oeis.org/",
	"query": "id:A026157",
	"count": 1,
	"start": 0,
	"results": [
		{
			"number": 26157,
			"data": "1,1,7,35,189,1038,5796,32734,186494,1069793,6170554,35752906,207940493,1213271620,7098581115,41631465591,244669507994,1440588095878,8495970243502,50179297862166,296763850899633",
			"name": "a(n) = T(2n,n), where T is the array in A026148.",
			"keyword": "nonn",
			"offset": "0,3",
			"author": "_Clark Kimberling_",
			"references": 0,
			"revision": 4,
			"time": "2012-03-30T18:56:05-04:00",
			"created": "1999-12-11T03:00:00-05:00"
		}
	]
}