{
	"greeting": "Greetings from The On-Line Encyclopedia of Integer Sequences! http://oeis.org/",
	"query": "id:A026334",
	"count": 1,
	"start": 0,
	"results": [
		{
			"number": 26334,
			"data": "1,4,36,352,3620,38304,412895,4509152,49721364,552359680,6172578126,69310337760,781375805392,8838533555180,100264250360835,1140219161743552,12994808897190788,148381034370726096",
			"name": "T(4n,n), where T is the array in A026323.",
			"keyword": "nonn",
			"offset": "0,2",
			"author": "_Clark Kimberling_",
			"ext": [
				"More terms from Antonio G. Astudillo (afg_astudillo(AT)lycos.com), Mar 23 2003"
			],
			"references": 0,
			"revision": 4,
			"time": "2012-03-30T18:56:06-04:00",
			"created": "1999-12-11T03:00:00-05:00"
		}
	]
}