{
	"greeting": "Greetings from The On-Line Encyclopedia of Integer Sequences! http://oeis.org/",
	"query": "id:A026373",
	"count": 1,
	"start": 0,
	"results": [
		{
			"number": 26373,
			"data": "5,13,25,61,85,144,180,262,310,362,418,539,607,751,831,915,1003,1186,1286,1492,1604,1720,1840,2085,2217,2485,2629,2920,3076,3390,3558,3730,3906,4259,4447,4823,5023,5227,5435,5850,6070",
			"name": "a(n) = sum of the numbers between the two n's in A026370.",
			"keyword": "nonn",
			"offset": "1,1",
			"author": "_Clark Kimberling_",
			"references": 0,
			"revision": 4,
			"time": "2012-03-30T18:56:06-04:00",
			"created": "1999-12-11T03:00:00-05:00"
		}
	]
}