{
	"greeting": "Greetings from The On-Line Encyclopedia of Integer Sequences! http://oeis.org/",
	"query": "id:A026281",
	"count": 1,
	"start": 0,
	"results": [
		{
			"number": 26281,
			"data": "1,2,3,4,6,8,10,12,13,15,16,18,19,21,22,24,26,27,29,31,32,34,36,37,39,41,42,44,45,47,49,50,52,53,55,57,58,60,61,63,65,66,68,69,71,73,74,76,78,79,81,82,84,86,87,89,91,92,94,95,97,99",
			"name": "a(n) = least k such that s(k) = n, where s = A026280.",
			"keyword": "nonn",
			"offset": "1,2",
			"author": "_Clark Kimberling_",
			"references": 0,
			"revision": 4,
			"time": "2012-03-30T18:56:05-04:00",
			"created": "1999-12-11T03:00:00-05:00"
		}
	]
}