{
	"greeting": "Greetings from The On-Line Encyclopedia of Integer Sequences! http://oeis.org/",
	"query": "id:A026632",
	"count": 1,
	"start": 0,
	"results": [
		{
			"number": 26632,
			"data": "1,1,3,4,8,14,28,49,98,177,354,650,1300,2417,4834,9071,18142,34289,68578,130360,260720,497928,995856,1909322,3818644,7345470,14690940,28338826,56677652,109597727,219195454,424761659,849523318",
			"name": "T(n,[ n/2 ]), T given by A026626.",
			"keyword": "nonn",
			"offset": "0,3",
			"author": "_Clark Kimberling_",
			"references": 0,
			"revision": 4,
			"time": "2012-03-30T18:56:09-04:00",
			"created": "1999-12-11T03:00:00-05:00"
		}
	]
}