{
	"greeting": "Greetings from The On-Line Encyclopedia of Integer Sequences! http://oeis.org/",
	"query": "id:A026472",
	"count": 1,
	"start": 0,
	"results": [
		{
			"number": 26472,
			"data": "1,2,3,7,13,14,25,26,37,38,49,50,61,62,73,74,85,86,97,98,109,110,121,122,133,134,145,146,157,158,169,170,181,182,193,194,205,206,217,218,229,230,241,242,253,254,265,266,277,278,289,290,301,302,313,314",
			"name": "{3, 7} together with the numbers congruent to {1, 2} mod 12.",
			"comment": [
				"The old definition of this sequence was \"a(n) = least positive integer \u003e a(n-1) and not equal to a(i)+a(j)+a(k) for 1\u003c=i\u003c=j\u003c=k\u003c=n\". However, Ralf Stephan observes that this does not fit the terms shown. The present definition (due to Stephan) has been adopted as a temporary solution. - _N. J. A. Sloane_, Nov 24 2004",
				"Regarding the old definition, see Comments at A047239. - _Clark Kimberling_, Oct 09 2019"
			],
			"link": [
				"Clark Kimberling, \u003ca href=\"/A026472/b026472.txt\"\u003eTable of n, a(n) for n = 1..10000\u003c/a\u003e",
				"\u003ca href=\"/index/Rec#order_03\"\u003eIndex entries for linear recurrences with constant coefficients\u003c/a\u003e, signature (1,1,-1)."
			],
			"formula": [
				"From _Colin Barker_, Oct 10 2019: (Start)",
				"G.f.: x*(1 + x + 3*x^3 + 5*x^4 - 3*x^5 + 5*x^6) / ((1 - x)^2*(1 + x)).",
				"a(n) = a(n-1) + a(n-2) - a(n-3) for n\u003e6.",
				"a(n) = -(39/2) - (5*(-1)^n)/2 + 6*n for n\u003e4.",
				"(End)"
			],
			"mathematica": [
				"p = {1, 2, 3, 7}; r = 12 Range[200]; Union[p, 1 + r, 2 + r] (* _Clark Kimberling_, Oct 10 2019 *)"
			],
			"program": [
				"(PARI) Vec(x*(1 + x + 3*x^3 + 5*x^4 - 3*x^5 + 5*x^6) / ((1 - x)^2*(1 + x)) + O(x^40)) \\\\ _Colin Barker_, Oct 20 2019"
			],
			"xref": [
				"Cf. A026476, A026474."
			],
			"keyword": "nonn",
			"offset": "1,2",
			"author": "_Clark Kimberling_",
			"ext": [
				"More terms from _Clark Kimberling_, Oct 10 2019"
			],
			"references": 3,
			"revision": 22,
			"time": "2022-01-03T21:37:58-05:00",
			"created": "1999-12-11T03:00:00-05:00"
		}
	]
}