{
	"greeting": "Greetings from The On-Line Encyclopedia of Integer Sequences! http://oeis.org/",
	"query": "id:A026916",
	"count": 1,
	"start": 0,
	"results": [
		{
			"number": 26916,
			"data": "1,13,72,136,419,700,1851,3028,7564,12412,30209,50020,119942,200524,475853,802612,1888976,3211036,7504737,12844804,29838451,51379948,118713767,205520596,472568449,822083260,1882043403",
			"name": "a(n) = T(n,0) + T(n,1) + ... + T(n,[ n/2 ]), T given by A026907.",
			"keyword": "nonn",
			"offset": "0,2",
			"author": "_Clark Kimberling_",
			"references": 0,
			"revision": 4,
			"time": "2012-03-30T18:56:11-04:00",
			"created": "1999-12-11T03:00:00-05:00"
		}
	]
}