{
	"greeting": "Greetings from The On-Line Encyclopedia of Integer Sequences! http://oeis.org/",
	"query": "id:A026009",
	"count": 1,
	"start": 0,
	"results": [
		{
			"number": 26009,
			"data": "1,1,1,1,2,1,1,3,3,1,4,6,3,1,5,10,9,1,6,15,19,9,1,7,21,34,28,1,8,28,55,62,28,1,9,36,83,117,90,1,10,45,119,200,207,90,1,11,55,164,319,407,297,1,12,66,219,483,726,704,297,1,13,78,285,702,1209,1430,1001,1,14,91,363,987,1911,2639,2431,1001",
			"name": "Triangular array T read by rows: T(n,0) = 1 for n \u003e= 0; T(1,1) = 1; and for n \u003e= 2, T(n,k) = T(n-1,k-1) + T(n-1,k) for k = 1,2,...,[(n+1)/2]; T(n,n/2 + 1) = T(n-1,n/2) if n is even.",
			"link": [
				"G. C. Greubel, \u003ca href=\"/A026009/b026009.txt\"\u003eRows n = 0..100 of the triangle, flattened\u003c/a\u003e"
			],
			"formula": [
				"T(n, k) = binomial(n, k) - binomial(n, k-3). - Darko Marinov (marinov(AT)lcs.mit.edu), May 17 2001",
				"Sum_{k=0..floor((n+2)/2)} T(n, k) = A026010(n). - _G. C. Greubel_, Mar 18 2021"
			],
			"example": [
				"From _Jonathon Kirkpatrick_, Jul 01 2016: (Start)",
				"Triangle begins:",
				"  1;",
				"  1,  1;",
				"  1,  2,  1;",
				"  1,  3,  3;",
				"  1,  4,  6,   3;",
				"  1,  5, 10,   9;",
				"  1,  6, 15,  19,   9;",
				"  1,  7, 21,  34,  28;",
				"  1,  8, 28,  55,  62,   28;",
				"  1,  9, 36,  83, 117,   90;",
				"  1, 10, 45, 119, 200,  207,   90;",
				"  1, 11, 55, 164, 319,  407,  297;",
				"  1, 12, 66, 219, 483,  726,  704,  297;",
				"  1, 13, 78, 285, 702, 1209, 1430, 1001;",
				"  ... (End)"
			],
			"mathematica": [
				"T[n_, k_]:= Binomial[n, k] - Binomial[n, k-3];",
				"Join[{1}, Table[T[n, k], {n,14}, {k,0,Floor[(n+2)/2]}]//Flatten] (* _G. C. Greubel_, Mar 18 2021 *)"
			],
			"program": [
				"(Sage) [1]+flatten([[binomial(n,k) - binomial(n,k-3) for k in (0..(n+2)//2)] for n in (1..15)]) # _G. C. Greubel_, Mar 18 2021",
				"(Magma) [1] cat [Binomial(n,k) - Binomial(n,k-3): k in [0..Floor((n+2)/2)], n in [1..15]]; // _G. C. Greubel_, Mar 18 2021"
			],
			"xref": [
				"Diagonals of this sequence: A000217, A000245, A026012, A026013, A026014, A026015, A026016, A026017, A026018, A026019, A026020, A026021.",
				"Sums involving this sequence: A026010, A027287, A027288, A027289, A027290, A027291, A027292."
			],
			"keyword": "nonn,tabf,easy",
			"offset": "0,5",
			"author": "_Clark Kimberling_",
			"references": 19,
			"revision": 22,
			"time": "2021-03-18T23:31:50-04:00",
			"created": "1999-12-11T03:00:00-05:00"
		}
	]
}