{
	"greeting": "Greetings from The On-Line Encyclopedia of Integer Sequences! http://oeis.org/",
	"query": "id:A026831",
	"count": 1,
	"start": 0,
	"results": [
		{
			"number": 26831,
			"data": "0,0,0,0,0,0,0,0,0,0,1,0,0,0,0,0,0,0,0,0,0,1,1,1,1,1,1,1,1,1,1,1,1,2,2,3,3,4,4,5,5,6,6,7,7,8,9,10,11,13,14,16,18,20,22,25,27,30,33,36,40,44,48,53,59,64,71,78,86,94,104,113,125,136,149,163,179,194,213,232,254,276,302",
			"name": "Number of partitions of n into distinct parts, the least being 10.",
			"link": [
				"Alois P. Heinz, \u003ca href=\"/A026831/b026831.txt\"\u003eTable of n, a(n) for n = 0..1000\u003c/a\u003e"
			],
			"formula": [
				"a(n) = A096740(n-10), n\u003e10. - _R. J. Mathar_, Jul 31 2008",
				"G.f.: x^10*Product_{j\u003e=11} (1+x^j). - _R. J. Mathar_, Jul 31 2008",
				"G.f.: Sum_{k\u003e=1} x^(k*(k + 19)/2) / Product_{j=1..k-1} (1 - x^j). - _Ilya Gutkovskiy_, Nov 25 2020"
			],
			"example": [
				"Say n = 11. There is no way to partition 11 into n distinct parts if one of the least parts is 10 since 11 = 10 + x where x \u003e= 10 has no solutions. Hence a(11) = 0."
			],
			"maple": [
				"b:= proc(n, i) option remember;",
				"      `if`(n=0, 1, `if`((i-10)*(i+11)/2\u003cn, 0,",
				"       add(b(n-i*j, i-1), j=0..min(1, n/i))))",
				"    end:",
				"a:= n-\u003e `if`(n\u003c10, 0, b(n-10$2)):",
				"seq(a(n), n=0..100); # _Alois P. Heinz_, Feb 07 2014"
			],
			"mathematica": [
				"b[n_, i_] := b[n, i] = If[n == 0, 1, If[(i-10)*(i+11)/2 \u003c n, 0, Sum[b[n-i*j, i-1], {j, 0, Min[1, n/i]}]]]; a[n_] := If[n\u003c10, 0, b[n-10, n-10]]; Table[a[n], {n, 0, 100}] (* _Jean-François Alcover_, Jun 24 2015, after _Alois P. Heinz_ *)",
				"Join[{0}, Table[Count[Last /@ Select[IntegerPartitions@n, DeleteDuplicates[#] == # \u0026], 10], {n, 66}]] (* _Robert Price_, Jun 13 2020 *)"
			],
			"xref": [
				"Cf. A025147, A025155, A096740."
			],
			"keyword": "nonn",
			"offset": "0,34",
			"author": "_Clark Kimberling_",
			"references": 4,
			"revision": 23,
			"time": "2020-11-25T07:04:03-05:00",
			"created": "1999-12-11T03:00:00-05:00"
		}
	]
}