{
	"greeting": "Greetings from The On-Line Encyclopedia of Integer Sequences! http://oeis.org/",
	"query": "id:A026065",
	"count": 1,
	"start": 0,
	"results": [
		{
			"number": 26065,
			"data": "14,23,36,51,69,90,114,143,175,211,251,295,345,399,458,522,591,667,748,835,928,1027,1134,1247,1367,1494,1628,1771,1921,2079,2245,2419,2603,2795,2996,3206,3425,3655,3894,4143,4402,4671,4952,5243,5545,5858,6182,6519,6867,7227,7599,7983,8381",
			"name": "a(n) = (d(n)-r(n))/5, where d = A026063 and r is the periodic sequence with fundamental period (1,4,0,0,0).",
			"link": [
				"\u003ca href=\"/index/Rec#order_08\"\u003eIndex entries for linear recurrences with constant coefficients\u003c/a\u003e, signature (3,-3,1,0,1,-3,3,-1)."
			],
			"formula": [
				"a(n) = (n + 6)*(n^2 + 30*n + 71)/30 - 1/5*(1 + 2/5*5^(1/2)*cos(2*n*Pi/5) + 2/5*2^(1/2)*(5 + 5^(1/2))^(1/2)*sin(2*n*Pi/5) - 2/5*5^(1/2)*cos(4*n*Pi/5) + 2/5*2^(1/2)*(5 - 5^(1/2))^(1/2)*sin(4*n*Pi/5)). [_Richard Choulet_, Dec 14 2008]",
				"G.f.: (14-19*x+9*x^2-2*x^3+x^4-14*x^5+19*x^6-7*x^7) / ( (x^4+x^3+x^2+x+1)*(x-1)^4 ). - _R. J. Mathar_, Jun 23 2013 [Corrected by _Georg Fischer_, May 18 2019]"
			],
			"mathematica": [
				"CoefficientList[Series[(14-19*x+9*x^2-2*x^3+x^4-14*x^5+19*x^6-7*x^7) / ( (x^4+x^3+x^2+x+1)*(x-1)^4), {x, 0, 52}], x] (* _Georg Fischer_, May 18 2019 *)",
				"LinearRecurrence[{3,-3,1,0,1,-3,3,-1},{14,23,36,51,69,90,114,143},60] (* _Harvey P. Dale_, Sep 27 2020 *)"
			],
			"program": [
				"(PARI) my(x='x+O('x^20)); Vec((14-19*x+9*x^2-2*x^3+x^4-14*x^5+19*x^6-7*x^7) / ((x^4+x^3+x^2+x+1)*(x-1)^4)) \\\\ _Felix Fröhlich_, May 18 2019"
			],
			"xref": [
				"Cf. A152898."
			],
			"keyword": "nonn",
			"offset": "6,1",
			"author": "_Clark Kimberling_",
			"references": 1,
			"revision": 24,
			"time": "2020-09-27T14:40:07-04:00",
			"created": "1999-12-11T03:00:00-05:00"
		}
	]
}