{
	"greeting": "Greetings from The On-Line Encyclopedia of Integer Sequences! http://oeis.org/",
	"query": "id:A026143",
	"count": 1,
	"start": 0,
	"results": [
		{
			"number": 26143,
			"data": "1,3,5,2,8,9,11,4,14,15,17,6,20,7,23,24,26,27,29,10,32,33,35,12,38,13,41,42,44,45,47,16,50,51,53,18,56,19,59,60,62,21,65,22,68,69,71,72,74,25,77,78,80,81,83,28,86,87,89,30,92,31,95,96,98,99,101,34,104",
			"name": "a(n) = position of n in A026142.",
			"keyword": "nonn",
			"offset": "1,2",
			"author": "_Clark Kimberling_",
			"references": 0,
			"revision": 4,
			"time": "2012-03-30T18:56:04-04:00",
			"created": "1999-12-11T03:00:00-05:00"
		}
	]
}