{
	"greeting": "Greetings from The On-Line Encyclopedia of Integer Sequences! http://oeis.org/",
	"query": "id:A027484",
	"count": 1,
	"start": 0,
	"results": [
		{
			"number": 27484,
			"data": "15,120,510,1560,3885,8400,16380,29520,49995,80520,124410,185640,268905,379680,524280,709920,944775,1238040,1599990,2042040,2576805,3218160,3981300,4882800,5940675,7174440,8605170,10255560,12149985",
			"name": "a(n) = n*(n^4-1)/2.",
			"comment": [
				"Row sums in a pandiagonal magic 4D-cube with entries (0..n^4-1).",
				"Can be computed from the fourth power of a matrix constructed with the Stirling numbers of the first kind (see A027479)."
			],
			"link": [
				"Vincenzo Librandi, \u003ca href=\"/A027484/b027484.txt\"\u003eTable of n, a(n) for n = 2..1000\u003c/a\u003e",
				"S. Gartenhaus, \u003ca href=\"https://arxiv.org/abs/math/0210275\"\u003eOdd Order Pandiagonal Latin and Magic Cubes in Three and Four Dimensions\u003c/a\u003e, arXiv:math/0210275 [math.CO], 2002.",
				"\u003ca href=\"/index/Rec#order_06\"\u003eIndex entries for linear recurrences with constant coefficients\u003c/a\u003e, signature (6,-15,20,-15,6,-1)."
			],
			"formula": [
				"From _Chai Wah Wu_, Apr 08 2021: (Start)",
				"a(n) = 6*a(n-1) - 15*a(n-2) + 20*a(n-3) - 15*a(n-4) + 6*a(n-5) - a(n-6) for n \u003e 7.",
				"G.f.: 15*x^2*(x + 1)^2/(x - 1)^6. (End)"
			],
			"mathematica": [
				"Table[(m^5 - m)/2, {m, 34}] (* _Zerinvary Lajos_, Mar 21 2007 *)"
			],
			"program": [
				"(MAGMA) [n*(n^4 - 1)/2: n in [2..50]];// _Vincenzo Librandi_, Dec 29 2012"
			],
			"xref": [
				"First subdiagonal of A027479."
			],
			"keyword": "nonn",
			"offset": "2,1",
			"author": "_Olivier Gérard_",
			"references": 1,
			"revision": 22,
			"time": "2021-04-08T12:20:17-04:00",
			"created": "1999-12-11T03:00:00-05:00"
		}
	]
}