{
	"greeting": "Greetings from The On-Line Encyclopedia of Integer Sequences! http://oeis.org/",
	"query": "id:A027236",
	"count": 1,
	"start": 0,
	"results": [
		{
			"number": 27236,
			"data": "1,3,8,23,55,149,339,889,1966,5059,10985,27939,59898,151210,321155,806806,1701347,4260511,8933737,22325426,46600476,116300505,241846731,603086027,1250175771,3116094702,6442311137,16054097455,33114584924",
			"name": "a(n) = Sum_{k=0..n} (k+1) * A026758(n, n-k).",
			"keyword": "nonn",
			"offset": "0,2",
			"author": "_Clark Kimberling_",
			"references": 0,
			"revision": 8,
			"time": "2019-10-27T11:34:22-04:00",
			"created": "1999-12-11T03:00:00-05:00"
		}
	]
}