{
	"greeting": "Greetings from The On-Line Encyclopedia of Integer Sequences! http://oeis.org/",
	"query": "id:A027861",
	"count": 1,
	"start": 0,
	"results": [
		{
			"number": 27861,
			"data": "1,2,4,5,7,9,12,14,17,19,22,24,25,29,30,32,34,35,39,42,47,50,60,65,69,70,72,79,82,84,85,87,90,97,99,100,102,104,109,110,115,122,130,135,137,139,144,149,154,157,160,162,164,167,172,174,185,187,189,195,199,202",
			"name": "Numbers k such that k^2 + (k+1)^2 is prime.",
			"comment": [
				"k \u003e 1 never ends in 1, 3, 6 or 8, (that is, k*(k+1) does not end in 2). - _Lekraj Beedassy_, Jul 09 2004",
				"k can never be congruent to (1 or 3) mod 5, because if it were, then k^2 + (k+1)^2 would be divisible by 5. In other words, for k \u003e 1, this sequence cannot contain any values in A047219. This means that we can immediately discard 40% of all possible k. - _Dmitry Kamenetsky_, Sep 02 2008"
			],
			"link": [
				"T. D. Noe and Zak Seidov, \u003ca href=\"/A027861/b027861.txt\"\u003eTable of n, a(n) for n = 1..10000\u003c/a\u003e",
				"Patrick De Geest, \u003ca href=\"http://www.worldofnumbers.com/index.html\"\u003eWorld!Of Numbers\u003c/a\u003e"
			],
			"formula": [
				"a(n) = (1/2)*(sqrt(2*A027862(n)-1)-1). - _Zak Seidov_, Jul 22 2013",
				"A010051(A001844(a(n))) = 1. - _Reinhard Zumkeller_, Jul 13 2014"
			],
			"mathematica": [
				"Select[Range[250],PrimeQ[#^2+(#+1)^2]\u0026] (* _Harvey P. Dale_, Dec 31 2017 *)"
			],
			"program": [
				"(MAGMA) [n: n in [0..1000] |IsPrime(n^2 + (n+1)^2)]; // _Vincenzo Librandi_, Nov 19 2010",
				"(Haskell)",
				"a027861 n = a027861_list !! (n-1)",
				"a027861_list = filter ((== 1) . a010051 . a001844) [0..]",
				"-- _Reinhard Zumkeller_, Jul 13 2014",
				"(PARI) is(n)=isprime(n^2 + (n+1)^2) \\\\ _Charles R Greathouse IV_, Apr 28 2015"
			],
			"xref": [
				"Complement of A012132.",
				"Equals (A002731(n+1)-1)/2. A027862 gives primes, A091277 gives prime index.",
				"Cf. A047219, A001844, A010051."
			],
			"keyword": "nonn,easy",
			"offset": "1,2",
			"author": "_Patrick De Geest_",
			"references": 38,
			"revision": 46,
			"time": "2019-12-08T07:43:07-05:00",
			"created": "1999-12-11T03:00:00-05:00"
		}
	]
}