{
	"greeting": "Greetings from The On-Line Encyclopedia of Integer Sequences! http://oeis.org/",
	"query": "id:A027103",
	"count": 1,
	"start": 0,
	"results": [
		{
			"number": 27103,
			"data": "1,3,11,41,161,633,2457,9415,35663,133721,497025,1833499,6719707,24488183,88798775,320596441,1152996137,4132351481,14764629473,52606224267,186963146315,662947211163,2345810793755,8284654896229",
			"name": "a(n) = self-convolution of row n of array T given by A027082.",
			"keyword": "nonn",
			"offset": "0,2",
			"author": "_Clark Kimberling_",
			"references": 0,
			"revision": 4,
			"time": "2012-03-30T18:56:14-04:00",
			"created": "1999-12-11T03:00:00-05:00"
		}
	]
}