{
	"greeting": "Greetings from The On-Line Encyclopedia of Integer Sequences! http://oeis.org/",
	"query": "id:A027180",
	"count": 1,
	"start": 0,
	"results": [
		{
			"number": 27180,
			"data": "1,7,27,79,199,459,1003,2119,4383,8947,18115,36495,73303,146971,294363,589207,1178959,2358531,4717747,9436255,18873351,37747627,75496267,150993639,301988479,603978259,1207957923,2415917359,4831836343,9663674427,19327350715",
			"name": "a(n) = Sum_{0\u003c=j\u003c=i\u003c=n} A027170(i, j).",
			"link": [
				"Colin Barker, \u003ca href=\"/A027180/b027180.txt\"\u003eTable of n, a(n) for n = 0..1000\u003c/a\u003e",
				"\u003ca href=\"/index/Rec#order_04\"\u003eIndex entries for linear recurrences with constant coefficients\u003c/a\u003e, signature (5,-9,7,-2)."
			],
			"formula": [
				"a(n) = 18*2^n - 2*n^2 - 10*n - 17.",
				"From _Colin Barker_, Feb 20 2016: (Start)",
				"a(n) = 5*a(n-1)-9*a(n-2)+7*a(n-3)-2*a(n-4) for n\u003e3.",
				"G.f.: (1+x)^2 / ((1-x)^3*(1-2*x)).",
				"(End)"
			],
			"mathematica": [
				"LinearRecurrence[{5,-9,7,-2},{1,7,27,79},50] (* _Harvey P. Dale_, Jul 08 2019 *)"
			],
			"program": [
				"(PARI) Vec((1+x)^2/((1-x)^3*(1-2*x)) + O(x^40)) \\\\ _Colin Barker_, Feb 20 2016"
			],
			"xref": [
				"Partial sums of A027178."
			],
			"keyword": "nonn,easy",
			"offset": "0,2",
			"author": "_Clark Kimberling_",
			"references": 1,
			"revision": 15,
			"time": "2019-10-24T19:14:22-04:00",
			"created": "1999-12-11T03:00:00-05:00"
		}
	]
}