{
	"greeting": "Greetings from The On-Line Encyclopedia of Integer Sequences! http://oeis.org/",
	"query": "id:A027327",
	"count": 1,
	"start": 0,
	"results": [
		{
			"number": 27327,
			"data": "1,3,12,36,108,324,972,2916,8748,26244,78732,236196,708588,2125764,6377292,19131876,57395628,172186884,516560652,1549681956,4649045868,13947137604,41841412812,125524238436,376572715308",
			"name": "a(n) = Sum_{k=0..m} (k+1) * A026120(n, m-k), where m=0 for n=0,1; m=n for n \u003e= 2.",
			"formula": [
				"G.f.: (1+3x^2)/(1-3x). - _Paul Barry_, May 19 2003",
				"a(n) = A003946(n), n\u003e1. - _R. J. Mathar_, Oct 23 2008"
			],
			"keyword": "nonn",
			"offset": "0,2",
			"author": "_Clark Kimberling_",
			"references": 2,
			"revision": 16,
			"time": "2020-12-04T17:20:00-05:00",
			"created": "1999-12-11T03:00:00-05:00"
		}
	]
}