{
	"greeting": "Greetings from The On-Line Encyclopedia of Integer Sequences! http://oeis.org/",
	"query": "id:A027203",
	"count": 1,
	"start": 0,
	"results": [
		{
			"number": 27203,
			"data": "1,10,75,450,2814,15202,89623,466252,2677281,13691160,77546684,393047294,2209036094,11140807218,62325916869,313402240000,1748294223916,8775335427968,48864101440273,244988564184682,1362584143931457",
			"name": "a(n) = Sum_{k=0..n-2} T(n,k) * T(n,k+2), with T given by A026714.",
			"maple": [
				"A027203 := proc(n)",
				"    add( A026714(n,k)*A026714(n,k+2),k=0..n-2) ;",
				"end proc:",
				"seq(A027203(n),n=2..30) ; # _R. J. Mathar_, Oct 21 2019"
			],
			"keyword": "nonn",
			"offset": "2,2",
			"author": "_Clark Kimberling_",
			"ext": [
				"Name corrected by _Sean A. Irvine_, Oct 21 2019",
				"More terms from _Ray Chandler_, Oct 22 2019"
			],
			"references": 1,
			"revision": 12,
			"time": "2019-10-24T21:05:19-04:00",
			"created": "1999-12-11T03:00:00-05:00"
		}
	]
}