{
	"greeting": "Greetings from The On-Line Encyclopedia of Integer Sequences! http://oeis.org/",
	"query": "id:A027645",
	"count": 1,
	"start": 0,
	"results": [
		{
			"number": 27645,
			"data": "1,1,-11,-1,1243,-49,-75613,599,234671,-803,-4955857,53443,921931911863,-449291,-23461249769,1237447,917870505450709,-82659252107,-959539811053709101,145633840717,20593004175300735901,-12278015226517",
			"name": "Numerators of poly-Bernoulli numbers B_n^(k) with k=3.",
			"link": [
				"Seiichi Manyama, \u003ca href=\"/A027645/b027645.txt\"\u003eTable of n, a(n) for n = 0..443\u003c/a\u003e",
				"K. Imatomi, M. Kaneko, E. Takeda, \u003ca href=\"https://cs.uwaterloo.ca/journals/JIS/VOL17/Kaneko/kaneko2.html\"\u003eMulti-Poly-Bernoulli Numbers and Finite Multiple Zeta Values\u003c/a\u003e, J. Int. Seq. 17 (2014) # 14.4.5",
				"M. Kaneko, \u003ca href=\"http://ftp.linux.cz/mount/muni.cz/EMIS/journals/JTNB/1997-1/kaneko.ps\"\u003ePoly-Bernoulli numbers\u003c/a\u003e",
				"Masanobu Kaneko, \u003ca href=\"http://jtnb.cedram.org/item?id=JTNB_1997__9_1_221_0\"\u003ePoly-Bernoulli numbers\u003c/a\u003e, Journal de théorie des nombres de Bordeaux, 9 no. 1 (1997), Pages 221-228.",
				"\u003ca href=\"/index/Be#Bernoulli\"\u003eIndex entries for sequences related to Bernoulli numbers.\u003c/a\u003e"
			],
			"maple": [
				"(-1)^n*sum( (-1)^'m'*'m'!*stirling2(n,'m')/('m'+1)^k,'m'=0..n);"
			],
			"xref": [
				"Cf. A027646."
			],
			"keyword": "sign,frac",
			"offset": "0,3",
			"author": "_N. J. A. Sloane_.",
			"references": 2,
			"revision": 18,
			"time": "2018-02-11T11:18:50-05:00",
			"created": "1999-12-11T03:00:00-05:00"
		}
	]
}