{
	"greeting": "Greetings from The On-Line Encyclopedia of Integer Sequences! http://oeis.org/",
	"query": "id:A027124",
	"count": 1,
	"start": 0,
	"results": [
		{
			"number": 27124,
			"data": "1,2,7,24,81,270,886,2861,9109,28652,89211,275420,844320,2573161,7803656,23569375,70941900,212911167,637427166,1904416809,5679745126,16913962409,50304623519,149450737592,443593524167,1315613998440",
			"name": "a(n) = A027113(n, 2n-6).",
			"keyword": "nonn",
			"offset": "3,2",
			"author": "_Clark Kimberling_",
			"references": 0,
			"revision": 7,
			"time": "2019-10-23T21:57:13-04:00",
			"created": "1999-12-11T03:00:00-05:00"
		}
	]
}