{
	"greeting": "Greetings from The On-Line Encyclopedia of Integer Sequences! http://oeis.org/",
	"query": "id:A027295",
	"count": 1,
	"start": 0,
	"results": [
		{
			"number": 27295,
			"data": "1,4,15,52,195,676,2555,8976,34098,121448,463067,1669340,6384287,23251620,89157557,327523680,1258803182,4658150520,17940605163,66803546472,257777882894,965023761064,3730202020650,14029655954272,54315578806820,205120107930192",
			"name": "a(n) = Sum_{k=0..m-1} T(n,k) * T(n,k+1), where m=n for n=0,1 and m=floor((n+3)/2) for n \u003e= 2, and T given by A026022.",
			"keyword": "nonn",
			"offset": "1,2",
			"author": "_Clark Kimberling_",
			"ext": [
				"More terms from _Sean A. Irvine_, Oct 26 2019"
			],
			"references": 0,
			"revision": 8,
			"time": "2019-10-26T23:16:46-04:00",
			"created": "1999-12-11T03:00:00-05:00"
		}
	]
}