{
	"greeting": "Greetings from The On-Line Encyclopedia of Integer Sequences! http://oeis.org/",
	"query": "id:A027279",
	"count": 1,
	"start": 0,
	"results": [
		{
			"number": 27279,
			"data": "7,44,273,1696,10573,66151,415277,2615004,16512355,104526093,663143211,4215574482,26846320149,171243444982,1093897673897,6997031842554,44809862773473,287283383574927,1843675415666053,11842954734864350,76138777668602115,489884818519692190",
			"name": "a(n) = Sum_{k=0..2n-2} T(n,k) * T(n,k+2), with T given by A026568.",
			"keyword": "nonn",
			"offset": "2,1",
			"author": "_Clark Kimberling_",
			"ext": [
				"More terms from _Sean A. Irvine_, Oct 26 2019"
			],
			"references": 0,
			"revision": 8,
			"time": "2019-10-26T22:42:10-04:00",
			"created": "1999-12-11T03:00:00-05:00"
		}
	]
}