{
	"greeting": "Greetings from The On-Line Encyclopedia of Integer Sequences! http://oeis.org/",
	"query": "id:A027127",
	"count": 1,
	"start": 0,
	"results": [
		{
			"number": 27127,
			"data": "1,4,13,44,149,504,1701,5715,19079,63218,207803,677598,2192383,7041688,22463815,71216406,224495351,704036264,2197641219,6831066997,21152812449,65276358340,200814955029,616052453764,1885109044861",
			"name": "a(n) = A027113(n, 2n-9).",
			"keyword": "nonn",
			"offset": "5,2",
			"author": "_Clark Kimberling_",
			"references": 0,
			"revision": 7,
			"time": "2019-10-23T22:10:27-04:00",
			"created": "1999-12-11T03:00:00-05:00"
		}
	]
}