{
	"greeting": "Greetings from The On-Line Encyclopedia of Integer Sequences! http://oeis.org/",
	"query": "id:A027912",
	"count": 1,
	"start": 0,
	"results": [
		{
			"number": 27912,
			"data": "1,5,28,156,880,5005,28665,165104,955434,5550755,32355917,189147400,1108476720,6510243495,38308997100,225810489168,1333057076890",
			"name": "T(2n-1,n-2), T given by A027907.",
			"keyword": "nonn",
			"offset": "2,2",
			"author": "_Clark Kimberling_",
			"references": 0,
			"revision": 4,
			"time": "2012-03-30T18:56:15-04:00",
			"created": "1999-12-11T03:00:00-05:00"
		}
	]
}