{
	"greeting": "Greetings from The On-Line Encyclopedia of Integer Sequences! http://oeis.org/",
	"query": "id:A027540",
	"count": 1,
	"start": 0,
	"results": [
		{
			"number": 27540,
			"data": "3,16,55,156,399,960,2223,5020,11143,24432,53079,114492,245535,524032,1113823,2358972,4980375,10485360,22019655,46136860,96468463,201326016,419429775,872414556,1811938599,3758095600,7784627383,16106126460,33285995583,68719475712",
			"name": "Second diagonal of A027537.",
			"link": [
				"Vincenzo Librandi, \u003ca href=\"/A027540/b027540.txt\"\u003eTable of n, a(n) for n = 2..1000\u003c/a\u003e"
			],
			"formula": [
				"Numerators of sequence a[ n, n-1 ] in (a[ i, j ])^2 where a[ i, j ] = A(i, j)/i! if j \u003c= i, 0 if j \u003e i.",
				"a(n) = (n+1)*(2^n - n - 1). - _Vladeta Jovovic_, Aug 18 2002",
				"G.f.: x^2*(-3+5*x)/((2*x-1)^2*(x-1)^3). - Maksym Voznyy (voznyy(AT)mail.ru), Aug 14 2009; corrected by _R. J. Mathar_, Sep 16 2009",
				"a(n) = Sum_{k=0..n} Sum_{i=0..n} (i-k) * C(n-k,i-2). - _Wesley Ivan Hurt_, Sep 19 2017"
			],
			"mathematica": [
				"Table[(n + 1) (2^n - n - 1), {n, 2, 35}] (* _Vincenzo Librandi_, Sep 04 2017 *)"
			],
			"program": [
				"(MAGMA) [(n+1)*(2^n-n-1): n in [2..30]]; // _Vincenzo Librandi_, Sep 04 2017"
			],
			"xref": [
				"Cf. A027537."
			],
			"keyword": "nonn,easy",
			"offset": "2,1",
			"author": "_Olivier Gérard_",
			"ext": [
				"More terms from _Vladeta Jovovic_, Aug 18 2002"
			],
			"references": 5,
			"revision": 21,
			"time": "2017-09-20T07:44:09-04:00",
			"created": "1999-12-11T03:00:00-05:00"
		}
	]
}