{
	"greeting": "Greetings from The On-Line Encyclopedia of Integer Sequences! http://oeis.org/",
	"query": "id:A028840",
	"count": 1,
	"start": 0,
	"results": [
		{
			"number": 28840,
			"data": "0,1,2,3,5,8,10,11,12,14,17,20,21,23,26,30,32,35,41,44,49,50,53,58,62,67,71,76,80,85,94,100,101,102,104,107,110,111,113,116,120,122,125,131,134,139,140,143,148,152,157,161,166,170,175,184,193,200,201,203,206",
			"name": "Numbers k such that sum of digits of k is a Fibonacci number.",
			"comment": [
				"The subsequence of primes begins: 2, 3, 5, 11, 17, 23, 41, 53, 67, 71, 101, 107, 113, 131, 139, 157, 193, 229, 233, 251 ... - _Dario Piazzalunga_, Jan 03 2013",
				"The subsequence of Fibonacci numbers begins: 0, 1, 2, 3, 5, 8, 21, 233, ... (no more up to 100000). - _Dario Piazzalunga_, Jan 03 2013"
			],
			"link": [
				"Alois P. Heinz, \u003ca href=\"/A028840/b028840.txt\"\u003eTable of n, a(n) for n = 1..10000\u003c/a\u003e"
			],
			"maple": [
				"isA000045 := proc(n)",
				"    local i,f;",
				"    for i from 0 do",
				"        f := combinat[fibonacci](i) ;",
				"        if f = n then",
				"            return true;",
				"        elif f \u003e n then",
				"            return false;",
				"        end if;",
				"    end do:",
				"end proc:",
				"isA028840 := proc(n)",
				"    isA000045(A007953(n)) ;",
				"end proc:",
				"for n from 0 to 1000 do",
				"    if isA028840(n) then",
				"        printf(\"%d,\",n);",
				"    end if;",
				"end do: # _R. J. Mathar_, Apr 17 2013",
				"# second Maple program:",
				"q:= proc(n) option remember; (t-\u003e",
				"      issqr(t+4) or issqr(t-4))(5*n^2)",
				"    end:",
				"a:= proc(n) option remember; local k; for k from",
				"     `if`(n=1, 0, 1+a(n-1)) while not q(",
				"      add(i, i=convert(k, base, 10))) do od; k",
				"    end:",
				"seq(a(n), n=1..66);  # _Alois P. Heinz_, Jan 28 2020"
			],
			"mathematica": [
				"f = Union[Fibonacci[Range[0, 8]]]; t = {}; n = 0; While[c = Total[IntegerDigits[n]]; c \u003c f[[-1]], If[MemberQ[f, c], AppendTo[t, n]]; n++]; t (* _T. D. Noe_, Jan 03 2013 *)"
			],
			"xref": [
				"Cf. A000045, A007953, A028841, A028890."
			],
			"keyword": "nonn,base,easy",
			"offset": "1,3",
			"author": "_N. J. A. Sloane_",
			"ext": [
				"More terms from _Erich Friedman_",
				"0 inserted by _Dario Piazzalunga_, Jan 03 2013"
			],
			"references": 3,
			"revision": 19,
			"time": "2021-02-12T17:43:42-05:00",
			"created": "1999-12-11T03:00:00-05:00"
		}
	]
}