{
	"greeting": "Greetings from The On-Line Encyclopedia of Integer Sequences! http://oeis.org/",
	"query": "id:A028511",
	"count": 1,
	"start": 0,
	"results": [
		{
			"number": 28511,
			"data": "1,0,0,4371,96256,1143745,9646891,64680601,366845011,1829005611,8223700027,33950840617,130416170627,470887671187,1610882889457,5254605009307,16428803075153,49446546607298,143782211788218",
			"name": "q-expansion of character of vertex-operator superalgebra of rank 23.5 on which Baby Monster group acts.",
			"reference": [
				"T. Gannon, Moonshine Beyond the Monster, Cambridge, 2006; see p. 423.",
				"G. Hoehn, Selbstduale Vertexoperatorsuperalgebren und das Babymonster, Bonner Mathematische Schriften, Vol. 286 (1996), 1-85."
			],
			"link": [
				"G. Hoehn (gerald(AT)math.ksu.edu), Selbstduale Vertexoperatorsuperalgebren und das Babymonster, Doctoral Dissertation, Univ. Bonn, Jul 15 1995 (\u003ca href=\"http://www.math.ksu.edu/~gerald/papers/dr.pdf\"\u003epdf\u003c/a\u003e, \u003ca href=\"http://www.math.ksu.edu/~gerald/papers/dr.ps.gz\"\u003eps\u003c/a\u003e)."
			],
			"formula": [
				"Let X=sqrt( Sum (q^(m^2/2), m=-inf..inf) / q^(1/24) Product( 1-q^n, n=1..inf ) ). Then series is X^47 - 47*X^23.",
				"a(n) ~ 47^(1/4) * exp(Pi*sqrt(47*n/6)) /  (2^(7/4) * 3^(1/4) * n^(3/4)). - _Vaclav Kotesovec_, Feb 05 2020"
			],
			"example": [
				"G.f. = 1 + 4371*x^3 + 96256*x^4 + 1143745*x^5 + 9646891*x^6 + 64680601*x^7 + ...",
				"G.f. = q^(-47/48) * (1 + 4371 * q^(3/2) + 96256 * q^2 + 1143745 * q^(5/2) + ...)."
			],
			"mathematica": [
				"nmax = 30; CoefficientList[Series[Product[(1 + x^(2*k + 1))^47, {k, 0, nmax}] - 47*x*Product[(1 + x^(2*k + 1))^23, {k, 0, nmax}], {x, 0, nmax}], x] (* _Vaclav Kotesovec_, Feb 05 2020 *)"
			],
			"program": [
				"(PARI) {a(n) = local(A); if( n\u003c0, 0, A = prod( i=1, (1+n)\\2, 1 + x^(2*i-1), 1 + x * O(x^n)); polcoeff( A^47 - 47 * x * A^23, n))}; /* _Michael Somos_, Jul 01 2004 */"
			],
			"xref": [
				"Cf. A007245 (rank 8), A097340 (rank 12), A028523 (rank 14), A028524 (rank 15), A028525 (rank 15.5), A000521 (rank 24)."
			],
			"keyword": "nonn",
			"offset": "0,4",
			"author": "_N. J. A. Sloane_",
			"references": 3,
			"revision": 26,
			"time": "2020-02-05T08:53:48-05:00",
			"created": "1999-12-11T03:00:00-05:00"
		}
	]
}