{
	"greeting": "Greetings from The On-Line Encyclopedia of Integer Sequences! http://oeis.org/",
	"query": "id:A028658",
	"count": 1,
	"start": 0,
	"results": [
		{
			"number": 28658,
			"data": "1,4,4,0,4,8,8,16,12,20,24,0,40,24,32,16,36,24,44,16,40,16,32,4,80,28,48,48,48,24,80,48,84,80,56,64,92,40,64,48,88,40,96,48,112,88,4,48,120,68,92,80,96,56,136,64,112,96,96,80,192,56,120,128,140,96",
			"name": "Expansion of (theta_3(z)*theta_3(23z) + theta_2(z)*theta_2(23z))^2.",
			"reference": [
				"Köklüce, Bülent. \"Cusp forms in S_6 (Gamma_ 0(23)), S_8 (Gamma_0 (23)) and the number of representations of numbers by some quadratic forms in 12 and 16 variables.\" The Ramanujan Journal 34.2 (2014): 187-208. See F_2, p. 195."
			],
			"link": [
				"Jinyuan Wang, \u003ca href=\"/A028658/b028658.txt\"\u003eTable of n, a(n) for n = 0..1000\u003c/a\u003e"
			],
			"program": [
				"(PARI) a(n) = if( n\u003c0, 0, polcoeff( (1 + 2 * x * Ser(qfrep( [ 2, 1; 1, 12], n, 1)))^2, n)); \\\\ _Jinyuan Wang_, Feb 19 2020"
			],
			"keyword": "nonn",
			"offset": "0,2",
			"author": "_N. J. A. Sloane_.",
			"ext": [
				"More terms from _Jinyuan Wang_, Feb 19 2020"
			],
			"references": 2,
			"revision": 14,
			"time": "2020-02-19T02:59:08-05:00",
			"created": "1999-12-11T03:00:00-05:00"
		}
	]
}