{
	"greeting": "Greetings from The On-Line Encyclopedia of Integer Sequences! http://oeis.org/",
	"query": "id:A028408",
	"count": 1,
	"start": 0,
	"results": [
		{
			"number": 28408,
			"data": "1,1,1,1,2,2,4,6,12,19,43,87",
			"name": "Number of types of Boolean functions of n variables under a certain group.",
			"link": [
				"I. Strazdins, \u003ca href=\"https://doi.org/10.1023/A:1005769927571\"\u003eUniversal affine classification of Boolean functions\u003c/a\u003e, Acta Applic. Math. 46 (1997), 147-167.",
				"\u003ca href=\"/index/Bo#Boolean\"\u003eIndex entries for sequences related to Boolean functions\u003c/a\u003e"
			],
			"keyword": "nonn,more",
			"offset": "0,5",
			"author": "_N. J. A. Sloane_.",
			"references": 0,
			"revision": 7,
			"time": "2019-05-17T10:18:47-04:00",
			"created": "1999-12-11T03:00:00-05:00"
		}
	]
}