{
	"greeting": "Greetings from The On-Line Encyclopedia of Integer Sequences! http://oeis.org/",
	"query": "id:A028960",
	"count": 1,
	"start": 0,
	"results": [
		{
			"number": 28960,
			"data": "0,3,8,9,12,13,16,24,27,29,31,32,36,39,41,47,48,52,64,69,71,72,73,75,81,87,93,96,104,108,116,117,123,124,127,128,131,139,141,144,147,151,156,163,164,169,177,179,184,188,192,193,197,200",
			"name": "Numbers represented by quadratic form with Gram matrix [ 3, 1; 1, 8 ].",
			"comment": [
				"Nonnegative integers of the form 3*x^2 + 2*x*y + 8*y^2, discriminant -92."
			],
			"link": [
				"N. J. A. Sloane et al., \u003ca href=\"https://oeis.org/wiki/Binary_Quadratic_Forms_and_OEIS\"\u003eBinary Quadratic Forms and OEIS\u003c/a\u003e (Index to related sequences, programs, references)"
			],
			"keyword": "nonn",
			"offset": "1,2",
			"author": "_N. J. A. Sloane_.",
			"references": 1,
			"revision": 10,
			"time": "2014-07-12T15:00:00-04:00",
			"created": "1999-12-11T03:00:00-05:00"
		}
	]
}