{
	"greeting": "Greetings from The On-Line Encyclopedia of Integer Sequences! http://oeis.org/",
	"query": "id:A028545",
	"count": 1,
	"start": 0,
	"results": [
		{
			"number": 28545,
			"data": "1,0,0,6240,64910,624128,3928640,21820160,102066525,435107840,1681228928,6065581440,20483625750,65651665920,200400925120,587021103104,1655255008870,4513857474560,11934605001600,30689664533440,76909902651384,188251191994880,450777531819200",
			"name": "Character of extremal vertex operator algebra of rank 20.",
			"reference": [
				"G. Höhn, Selbstduale Vertexoperatorsuperalgebren und das Babymonster, Bonner Mathematische Schriften, Vol. 286 (1996), 1-85."
			],
			"link": [
				"G. Höhn (gerald(AT)math.ksu.edu), Selbstduale Vertexoperatorsuperalgebren und das Babymonster, Doctoral Dissertation, Univ. Bonn, Jul 15 1995 (\u003ca href=\"http://www.math.ksu.edu/~gerald/papers/dr.pdf\"\u003epdf\u003c/a\u003e, \u003ca href=\"http://www.math.ksu.edu/~gerald/papers/dr.ps.gz\"\u003eps\u003c/a\u003e)."
			],
			"formula": [
				"G.f.: x^(2*r/24) * (B(x)^(2*r) - 2*r*B(x)^(2*r-24) - r*(47-2*r)*B(x)^(2*r-48) where B(x) = x^(-1/24) * Product_{k\u003e=0} (1+x^(2*k+1)) = x^(-1/24) * A000700 and r = 20. - _Sean A. Irvine_, Feb 29 2020"
			],
			"xref": [
				"Cf. A000700."
			],
			"keyword": "nonn,easy",
			"offset": "0,4",
			"author": "_N. J. A. Sloane_.",
			"ext": [
				"More terms from _Sean A. Irvine_, Feb 29 2020"
			],
			"references": 0,
			"revision": 10,
			"time": "2020-02-29T18:48:06-05:00",
			"created": "1999-12-11T03:00:00-05:00"
		}
	]
}