{
	"greeting": "Greetings from The On-Line Encyclopedia of Integer Sequences! http://oeis.org/",
	"query": "id:A028695",
	"count": 1,
	"start": 0,
	"results": [
		{
			"number": 28695,
			"data": "1,0,0,16,12,0,64,96,60,0,0,240,160,0,384,416,252,0,0",
			"name": "Duplicate of A008665.",
			"keyword": "dead",
			"offset": "0,4",
			"references": 0,
			"revision": 3,
			"time": "2007-05-11T03:00:00-04:00",
			"created": "1999-12-11T03:00:00-05:00"
		}
	]
}