{
	"greeting": "Greetings from The On-Line Encyclopedia of Integer Sequences! http://oeis.org/",
	"query": "id:A028679",
	"count": 1,
	"start": 0,
	"results": [
		{
			"number": 28679,
			"data": "1,272,22639104,546341708980224,3811101610741578352558080,7683152190027081335646892427952783360,4476375132477699824408564935442752007430598683525120",
			"name": "Galois numbers for p=17; order of group AGL(n,17).",
			"link": [
				"Vincenzo Librandi, \u003ca href=\"/A028679/b028679.txt\"\u003eTable of n, a(n) for n = 0..28\u003c/a\u003e"
			],
			"formula": [
				"a(n) = p^n Product (p^n - p^k) for k=0 to n-1"
			],
			"mathematica": [
				"FoldList[ #1*17^#2 (17^#2-1)\u0026, 1, Range[ 20 ] ]"
			],
			"keyword": "nonn",
			"offset": "0,2",
			"author": "_Olivier Gérard_",
			"references": 1,
			"revision": 8,
			"time": "2012-12-29T13:00:49-05:00",
			"created": "1999-12-11T03:00:00-05:00"
		}
	]
}