{
	"greeting": "Greetings from The On-Line Encyclopedia of Integer Sequences! http://oeis.org/",
	"query": "id:A028516",
	"count": 1,
	"start": 0,
	"results": [
		{
			"number": 28516,
			"data": "1,1984,1755104,911719680,308364427760,71226326491264,11488232538492032,1307043714624803328,105853456783515750520,6235592163326852466880,278442896270934914719552,9831877365857693440182016,284555804926510720221660608",
			"name": "Expansion of A007245^8.",
			"link": [
				"Vaclav Kotesovec, \u003ca href=\"/A028516/b028516.txt\"\u003eTable of n, a(n) for n = 0..5000\u003c/a\u003e"
			],
			"formula": [
				"a(n) ~ 2^(1/4) * exp(8*Pi*sqrt(2*n/3)) / (3^(1/4) * n^(3/4)). - _Vaclav Kotesovec_, Mar 06 2018"
			],
			"mathematica": [
				"CoefficientList[Series[(2^16 + x*QPochhammer[-1, x]^24)^8 / (2*QPochhammer[-1, x])^64, {x, 0, 20}], x] (* _Vaclav Kotesovec_, Mar 06 2018 *)"
			],
			"xref": [
				"Cf. A000521."
			],
			"keyword": "nonn",
			"offset": "0,2",
			"author": "_N. J. A. Sloane_.",
			"references": 1,
			"revision": 7,
			"time": "2018-03-06T04:28:29-05:00",
			"created": "1999-12-11T03:00:00-05:00"
		}
	]
}