{
	"greeting": "Greetings from The On-Line Encyclopedia of Integer Sequences! http://oeis.org/",
	"query": "id:A028128",
	"count": 1,
	"start": 0,
	"results": [
		{
			"number": 28128,
			"data": "1,31,623,10355,155151,2182251,29453143,386424115,4968644351,62947998971,788663289063,9797059846275,120896875524751,1484089915071691,18142382512443383,221041773758074835",
			"name": "Expansion of 1/((1-4x)(1-5x)(1-10x)(1-12x)).",
			"link": [
				"\u003ca href=\"/index/Rec\"\u003eIndex entries for linear recurrences with constant coefficients\u003c/a\u003e, signature (31,-338,1520,-2400)"
			],
			"formula": [
				"From _Vincenzo Librandi_, Mar 17 2011: (Start)",
				"a(n) = 31*a(n-1) - 338*a(n-2) + 1520*a(n-3) - 2400*a(n-4), n \u003e= 4.",
				"a(n) = 22*a(n-1) - 120*a(n-2) + 5^(n+1) - 4^(n+1), n \u003e= 2. (End)",
				"a(n) = 9*12^(n+1)/7 - 5*10^(n+1)/3 - 2^(2n+2)/3 + 5^(n+2)/7. - _R. J. Mathar_, Mar 18 2011"
			],
			"keyword": "nonn",
			"offset": "0,2",
			"author": "_N. J. A. Sloane_",
			"references": 0,
			"revision": 13,
			"time": "2018-08-31T19:26:11-04:00",
			"created": "1999-12-11T03:00:00-05:00"
		}
	]
}