{
	"greeting": "Greetings from The On-Line Encyclopedia of Integer Sequences! http://oeis.org/",
	"query": "id:A028240",
	"count": 1,
	"start": 0,
	"results": [
		{
			"number": 28240,
			"data": "1,0,0,0,0,0,0,0,0,0,0,0,0,0,0,32512,510,32512,0,0,0,0,0,0,0,0,0,0,0,0,0,0,1",
			"name": "Weight distribution of (256,2^16,120) Kerdock code.",
			"reference": [
				"F. J. MacWilliams and N. J. A. Sloane, The Theory of Error-Correcting Codes, Elsevier-North Holland, 1978, p. 456."
			],
			"link": [
				"A. R. Hammons, Jr., P. V. Kumar, A. R. Calderbank, N. J. A. Sloane and P. Solé, \u003ca href=\"http://neilsloane.com/doc/linear.txt\"\u003eThe Z_4 linearity of Kerdock, Preparata, Goethals and related codes\u003c/a\u003e, IEEE Trans. Inform. Theory, 40 (1994), 301-319."
			],
			"example": [
				"x^256+y^256+510*x^128*y^128+32512*x^120*y^136+32512*y^120*x^136."
			],
			"xref": [
				"Cf. A010032, A028238, A109151."
			],
			"keyword": "nonn,fini,full",
			"offset": "0,16",
			"author": "_N. J. A. Sloane_.",
			"references": 1,
			"revision": 9,
			"time": "2019-12-13T05:52:29-05:00",
			"created": "1999-12-11T03:00:00-05:00"
		}
	]
}