{
	"greeting": "Greetings from The On-Line Encyclopedia of Integer Sequences! http://oeis.org/",
	"query": "id:A028198",
	"count": 1,
	"start": 0,
	"results": [
		{
			"number": 28198,
			"data": "1,37,870,16610,281171,4403367,65339080,932218420,12912631941,174806957897,2323925673290,30446318392230,394142295428311,5052076439311627,64222440261259500,810705252920074040",
			"name": "Expansion of 1/((1-5x)(1-9x)(1-11x)(1-12x)).",
			"link": [
				"\u003ca href=\"/index/Rec\"\u003eIndex entries for linear recurrences with constant coefficients\u003c/a\u003e, signature (37,-499,2883,-5940)"
			],
			"formula": [
				"a(n) = 23*a(n-1) - 132*a(n-2) + (9^(n+1) - 5^(n+1))/4, n \u003e= 2. - _Vincenzo Librandi_, Mar 12 2011",
				"a(n) = 4*12^(n+2)/7 - 5^(n+3)/168 - 11^(n+3)/12 + 3*9^(n+2)/8. - _R. J. Mathar_, Mar 18 2011"
			],
			"mathematica": [
				"CoefficientList[Series[1/((1-5x)(1-9x)(1-11x)(1-12x)),{x,0,20}],x] (* or *) LinearRecurrence[{37,-499,2883,-5940},{1,37,870,16610},20] (* _Harvey P. Dale_, Feb 06 2017 *)"
			],
			"keyword": "nonn",
			"offset": "0,2",
			"author": "_N. J. A. Sloane_",
			"references": 0,
			"revision": 15,
			"time": "2018-08-31T19:27:16-04:00",
			"created": "1999-12-11T03:00:00-05:00"
		}
	]
}