{
	"greeting": "Greetings from The On-Line Encyclopedia of Integer Sequences! http://oeis.org/",
	"query": "id:A028741",
	"count": 1,
	"start": 0,
	"results": [
		{
			"number": 28741,
			"data": "2,3,5,6,7,10,11,12,13,14,15,17,18,19,20,22,23,24,26,27",
			"name": "Nonsquares mod 28.",
			"mathematica": [
				"Complement[Range[0, 27], PowerMod[Range[28], 2, 28]] (* _Alonso del Arte_, Nov 28 2019 *)"
			],
			"program": [
				"(Scala) val squaresMod28 = (1 to 28).map(n =\u003e n * n).map(_ % 28)",
				"(0 to 27).diff(squaresMod28) // _Alonso del Arte_, Nov 28 2019"
			],
			"xref": [
				"Cf. A010390."
			],
			"keyword": "nonn,fini,full",
			"offset": "1,1",
			"author": "_N. J. A. Sloane_",
			"references": 1,
			"revision": 9,
			"time": "2019-11-29T01:35:22-05:00",
			"created": "1999-12-11T03:00:00-05:00"
		}
	]
}