{
	"greeting": "Greetings from The On-Line Encyclopedia of Integer Sequences! http://oeis.org/",
	"query": "id:A028402",
	"count": 1,
	"start": 0,
	"results": [
		{
			"number": 28402,
			"data": "6,20,72,272,1056,4160,16512,65792,262656,1049600,4196352,16781312,67117056,268451840,1073774592,4295032832,17180000256,68719738880,274878431232,1099512676352,4398048608256,17592190238720,70368752566272,281474993487872,1125899940397056",
			"name": "Number of types of Boolean functions of n variables under a certain group.",
			"link": [
				"Vincenzo Librandi, \u003ca href=\"/A028402/b028402.txt\"\u003eTable of n, a(n) for n = 2..300\u003c/a\u003e",
				"I. Strazdins, \u003ca href=\"https://doi.org/10.1023/A:1005769927571\"\u003eUniversal affine classification of Boolean functions\u003c/a\u003e, Acta Applic. Math. 46 (1997), 147-167.",
				"\u003ca href=\"/index/Bo#Boolean\"\u003eIndex entries for sequences related to Boolean functions\u003c/a\u003e",
				"\u003ca href=\"/index/Rec#order_02\"\u003eIndex entries for linear recurrences with constant coefficients\u003c/a\u003e, signature (6,-8)."
			],
			"formula": [
				"a(n) = 2^(n-1) * (2^(n-1)+1). - _Sean A. Irvine_, Jan 07 2020",
				"From _Chai Wah Wu_, Dec 29 2021: (Start)",
				"a(n) = 6*a(n-1) - 8*a(n-2) for n \u003e 3.",
				"G.f.: x^2*(6 - 16*x)/((2*x - 1)*(4*x - 1)). (End)"
			],
			"mathematica": [
				"Table[2^(n-1) (2^(n-1) + 1), {n, 2, 30}] (* _Vincenzo Librandi_, Jan 08 2020 *)"
			],
			"program": [
				"(MAGMA) [2^(n-1)*(2^(n-1)+1): n in [2..30]]; // _Vincenzo Librandi_, Jan 08 2020"
			],
			"xref": [
				"Essentially the same as A063376."
			],
			"keyword": "nonn",
			"offset": "2,1",
			"author": "_N. J. A. Sloane_.",
			"ext": [
				"a(6) corrected and more terms from _Sean A. Irvine_, Jan 07 2020"
			],
			"references": 2,
			"revision": 22,
			"time": "2021-12-29T02:16:36-05:00",
			"created": "1999-12-11T03:00:00-05:00"
		}
	]
}