{
	"greeting": "Greetings from The On-Line Encyclopedia of Integer Sequences! http://oeis.org/",
	"query": "id:A028466",
	"count": 1,
	"start": 0,
	"results": [
		{
			"number": 28466,
			"data": "1,106784,56850678464,32898111133723321,19096119789145305208336,11085838411090123868197412129,6435670258948861016802884153464799,3736105167546089403361511734752297982336,2168924345573542197211153077794030841411079321",
			"name": "Number of perfect matchings in graph C_{3} X C_{5} X P_{2n}.",
			"reference": [
				"Per Hakan Lundow, \"Computation of matching polynomials and the number of 1-factors in polygraphs\", Research report, No 12, 1996, Department of Math., Umea University, Sweden."
			],
			"link": [
				"Per Hakan Lundow, \u003ca href=\"http://www.theophys.kth.se/~phl/Text/1factors2.ps.gz\"\u003eEnumeration of matchings in polygraphs\u003c/a\u003e, 1998."
			],
			"keyword": "nonn",
			"offset": "0,2",
			"author": "_Per H. Lundow_",
			"ext": [
				"a(8) from _Alois P. Heinz_, Dec 10 2013"
			],
			"references": 0,
			"revision": 9,
			"time": "2013-12-10T09:56:12-05:00",
			"created": "1999-12-11T03:00:00-05:00"
		}
	]
}