{
	"greeting": "Greetings from The On-Line Encyclopedia of Integer Sequences! http://oeis.org/",
	"query": "id:A028540",
	"count": 1,
	"start": 0,
	"results": [
		{
			"number": 28540,
			"data": "1,0,0,7385,28315,427987,1398635,10063590,30106965,148903370,415546516,1630361950,4294071285,14375319490,36019030960,107362236457,257518347380,702230132030,1620548828150,4117804435185,9180947306314,22023446814405,47606945661555",
			"name": "Character of extremal vertex operator algebra of rank 17.5.",
			"reference": [
				"G. Höhn, Selbstduale Vertexoperatorsuperalgebren und das Babymonster, Bonner Mathematische Schriften, Vol. 286 (1996), 1-85."
			],
			"link": [
				"G. Höhn (gerald(AT)math.ksu.edu), Selbstduale Vertexoperatorsuperalgebren und das Babymonster, Doctoral Dissertation, Univ. Bonn, Jul 15 1995 (\u003ca href=\"http://www.math.ksu.edu/~gerald/papers/dr.pdf\"\u003epdf\u003c/a\u003e, \u003ca href=\"http://www.math.ksu.edu/~gerald/papers/dr.ps.gz\"\u003eps\u003c/a\u003e)."
			],
			"formula": [
				"G.f.: x^(2*r/24) * (B(x)^(2*r) - 2*r*B(x)^(2*r-24) - r*(47-2*r)*B(x)^(2*r-48) where B(x) = x^(-1/24) * Product_{k\u003e=0} (1+x^(2*k+1)) = x^(-1/24) * A000700 and r = 35/2. - _Sean A. Irvine_, Feb 29 2020"
			],
			"xref": [
				"Cf. A000700."
			],
			"keyword": "nonn,easy",
			"offset": "0,4",
			"author": "_N. J. A. Sloane_.",
			"ext": [
				"More terms from _Sean A. Irvine_, Feb 29 2020"
			],
			"references": 0,
			"revision": 12,
			"time": "2020-02-29T18:49:23-05:00",
			"created": "1999-12-11T03:00:00-05:00"
		}
	]
}