{
	"greeting": "Greetings from The On-Line Encyclopedia of Integer Sequences! http://oeis.org/",
	"query": "id:A028464",
	"count": 1,
	"start": 0,
	"results": [
		{
			"number": 28464,
			"data": "1,1120,2861029,7537209013,19875272280736,52411725012875905,138211512392292291937,364468498187098321751584,961115930137025304064194421,2534495671871264129163903449317,6683552014192354263830206528781536,17624755892139792658340655302347504609",
			"name": "Number of perfect matchings in graph C_{3} X C_{3} X P_{2n}.",
			"reference": [
				"Per Hakan Lundow, \"Computation of matching polynomials and the number of 1-factors in polygraphs\", Research report, No 12, 1996, Department of Math., Umea University, Sweden."
			],
			"link": [
				"Alois P. Heinz, \u003ca href=\"/A028464/b028464.txt\"\u003eTable of n, a(n) for n = 0..250\u003c/a\u003e",
				"Per Hakan Lundow, \u003ca href=\"http://www.theophys.kth.se/~phl/Text/1factors2.ps.gz\"\u003eEnumeration of matchings in polygraphs\u003c/a\u003e, 1998."
			],
			"formula": [
				"G.f.: -(x^12 -1639*x^11 +96397*x^10 -1989840*x^9 +17959907*x^8 -72515033*x^7 +117260158*x^6 -72515033*x^5 +17959907*x^4 -1989840*x^3 +96397*x^2 -1639*x +1) / (x^13 -2759*x^12 +325448*x^11 -10121602*x^10 +125374286*x^9 -684055000*x^8 +1622518920*x^7 -1622518920*x^6 +684055000*x^5 -125374286*x^4 +10121602*x^3 -325448*x^2 +2759*x -1). - _Alois P. Heinz_, Dec 09 2013"
			],
			"keyword": "nonn",
			"offset": "0,2",
			"author": "_Per H. Lundow_",
			"references": 1,
			"revision": 9,
			"time": "2013-12-09T19:35:53-05:00",
			"created": "1999-12-11T03:00:00-05:00"
		}
	]
}