{
	"greeting": "Greetings from The On-Line Encyclopedia of Integer Sequences! http://oeis.org/",
	"query": "id:A028753",
	"count": 1,
	"start": 0,
	"results": [
		{
			"number": 28753,
			"data": "2,3,5,6,7,8,10,11,12,13,14,15,17,18,19,21,22,23,26,27,28,29,30,31,32,33,34,35,37,38,39",
			"name": "Nonsquares mod 40.",
			"mathematica": [
				"Complement[Range[0, 39], PowerMod[Range[40], 2, 40]] (* _Alonso del Arte_, Feb 20 2020 *)"
			],
			"program": [
				"(Scala) (0 to 39).diff((1 to 40).map(n =\u003e n * n % 40)) // _Alonso del Arte_, Feb 20 2020",
				"(MAGMA) [n: n in [0..39] | not IsSquare(R! n) where R:= ResidueClassRing(40)]; // _Vincenzo Librandi_, Feb 21 2020"
			],
			"xref": [
				"Cf. A010401."
			],
			"keyword": "nonn,fini,full,easy",
			"offset": "1,1",
			"author": "_N. J. A. Sloane_.",
			"references": 1,
			"revision": 12,
			"time": "2020-02-21T10:53:32-05:00",
			"created": "1999-12-11T03:00:00-05:00"
		}
	]
}