{
	"greeting": "Greetings from The On-Line Encyclopedia of Integer Sequences! http://oeis.org/",
	"query": "id:A028209",
	"count": 1,
	"start": 0,
	"results": [
		{
			"number": 28209,
			"data": "1,36,823,15282,251881,3847032,55777051,779149134,10588135261,140901434388,1844713666159,23841089487306,304926682591441,3866889746187504,48692419436767747,609526612369569798",
			"name": "Expansion of 1/((1-6x)(1-7x)(1-11x)(1-12x)).",
			"link": [
				"\u003ca href=\"/index/Rec\"\u003eIndex entries for linear recurrences with constant coefficients\u003c/a\u003e, signature (36,-473,2682,-5544)"
			],
			"formula": [
				"a(n) = 23*a(n-1) - 132*a(n-2) + 7^(n+1) - 6^(n+1), n \u003e= 2. - _Vincenzo Librandi_, Mar 13 2011",
				"a(n) = -6^(n+2)/5 - 11^(n+3)/20 + 2*12^(n+2)/5 + 7^(n+3)/20. - _R. J. Mathar_, Mar 18 2011",
				"a(n) = 36*a(n-1) - 473*a(n-2) + 2682*a(n-3) - 5544*a(n-4); a(0)=1, a(1)=36, a(2)=823, a(3)=15282. - _Harvey P. Dale_, Apr 09 2015"
			],
			"mathematica": [
				"CoefficientList[Series[1/((1-6x)(1-7x)(1-11x)(1-12x)),{x,0,30}],x] (* or *) LinearRecurrence[{36,-473,2682,-5544},{1,36,823,15282},30] (* _Harvey P. Dale_, Apr 09 2015 *)"
			],
			"keyword": "nonn",
			"offset": "0,2",
			"author": "_N. J. A. Sloane_",
			"references": 0,
			"revision": 15,
			"time": "2018-08-31T19:28:30-04:00",
			"created": "1999-12-11T03:00:00-05:00"
		}
	]
}