{
	"greeting": "Greetings from The On-Line Encyclopedia of Integer Sequences! http://oeis.org/",
	"query": "id:A028993",
	"count": 1,
	"start": 0,
	"results": [
		{
			"number": 28993,
			"data": "1,27,85,175,297,451,637,855,1105,1387,1701,2047,2425,2835,3277,3751,4257,4795,5365,5967,6601,7267,7965,8695,9457,10251,11077,11935,12825,13747,14701,15687,16705,17755,18837,19951,21097,22275",
			"name": "Odd 10-gonal (or decagonal) numbers.",
			"link": [
				"Vincenzo Librandi, \u003ca href=\"/A028993/b028993.txt\"\u003eTable of n, a(n) for n = 0..1000\u003c/a\u003e",
				"Eric Weisstein's World of Mathematics, \u003ca href=\"http://mathworld.wolfram.com/DecagonalNumber.html\"\u003eDecagonal Number\u003c/a\u003e",
				"\u003ca href=\"/index/Rec#order_03\"\u003eIndex entries for linear recurrences with constant coefficients\u003c/a\u003e, signature (3,-3,1)."
			],
			"formula": [
				"a(n) = (2n+1)*(8n+1). - _N. J. A. Sloane_",
				"G.f.: -(7*x^2+24*x+1)/(x-1)^3. - _Colin Barker_, Nov 18 2012"
			],
			"maple": [
				"A028993:=n-\u003e(2*n+1)*(8*n+1): seq(A028993(n), n=0..100); # _Wesley Ivan Hurt_, Apr 26 2017"
			],
			"mathematica": [
				"CoefficientList[Series[-(7 x^2 + 24 x + 1)/(x - 1)^3, {x, 0, 40}], x] (* _Vincenzo Librandi_, Oct 18 2013 *)"
			],
			"program": [
				"(MAGMA) [(2*n+1)*(8*n+1): n in [0..60]]; // _Vincenzo Librandi_, Oct 18 2013",
				"(PARI) a(n)=(2*n+1)*(8*n+1) \\\\ _Charles R Greathouse IV_, Oct 07 2015"
			],
			"keyword": "nonn,easy",
			"offset": "0,2",
			"author": "_Patrick De Geest_",
			"references": 4,
			"revision": 24,
			"time": "2017-04-26T11:06:11-04:00",
			"created": "1999-12-11T03:00:00-05:00"
		}
	]
}