{
	"greeting": "Greetings from The On-Line Encyclopedia of Integer Sequences! http://oeis.org/",
	"query": "id:A028759",
	"count": 1,
	"start": 0,
	"results": [
		{
			"number": 28759,
			"data": "5,7,10,11,14,15,17,19,20,21,22,28,30,33,34,37,38,40,42,43,44,45",
			"name": "Nonsquares mod 46.",
			"example": [
				"Since 11 is not a perfect square and there are no solutions to x^2 = 11 mod 46, 11 is in the sequence.",
				"Although 12 is not a perfect square either, there are solutions to x^2 = 12 mod 46, such as x = 14, x = 32. Thus 12 is not in the sequence."
			],
			"mathematica": [
				"Complement[Range[45], PowerMod[Range[46], 2, 46]] (* _Alonso del Arte_, Nov 23 2019 *)"
			],
			"program": [
				"(Scala) val squaresMod46 = (1 to 46).map(n =\u003e n * n).map(_ % 46)",
				"(0 to 45).diff(squaresMod46) // _Alonso del Arte_, Nov 23 2019"
			],
			"xref": [
				"Cf. A028736 (subset), A010407."
			],
			"keyword": "nonn,fini,full,easy",
			"offset": "1,1",
			"author": "_N. J. A. Sloane_",
			"ext": [
				"Incorrect term 23 removed by _Alonso del Arte_, Dec 01 2019"
			],
			"references": 2,
			"revision": 23,
			"time": "2019-12-23T00:44:25-05:00",
			"created": "1999-12-11T03:00:00-05:00"
		}
	]
}