{
	"greeting": "Greetings from The On-Line Encyclopedia of Integer Sequences! http://oeis.org/",
	"query": "id:A028509",
	"count": 1,
	"start": 0,
	"results": [
		{
			"number": 28509,
			"data": "2,1,4,5,4,5,4,1,29,1,4,8,1,1,2,1,31,10,1,2,2,6,2,3,1,1,197,1,4,5,149,5,1,10,1,4,4,1,3,14,3,1,1,1,6,5,1,5,1,1,3,61,1,11,13,11,1,85,1,5,1,1,1,2,1,14,1,2,5,1,4,24,20",
			"name": "Continued fraction expansion for log_2(7).",
			"keyword": "nonn",
			"offset": "1,1",
			"author": "_N. J. A. Sloane_.",
			"references": 0,
			"revision": 3,
			"time": "2012-03-30T16:47:06-04:00",
			"created": "1999-12-11T03:00:00-05:00"
		}
	]
}