{
	"greeting": "Greetings from The On-Line Encyclopedia of Integer Sequences! http://oeis.org/",
	"query": "id:A029377",
	"count": 1,
	"start": 0,
	"results": [
		{
			"number": 29377,
			"data": "1,0,0,0,1,0,0,0,1,0,1,1,2,0,1,1,2,0,1,1,3,1,3,2,4,1,3,2,4,1,4,3,6,3,6,4,7,3,6,4,8,4,8,6,11,6,10,7,12,6,11,8,14,8,14,11,17,10,16,12,19,11,18,14,22,14,22,17,25,16,25",
			"name": "Expansion of 1/((1-x^4)(1-x^10)(1-x^11)(1-x^12)).",
			"link": [
				"\u003ca href=\"/index/Rec#order_37\"\u003eIndex entries for linear recurrences with constant coefficients\u003c/a\u003e, signature (0, 0, 0, 1, 0, 0, 0, 0, 0, 1, 1, 1, 0, -1, -1, -1, 0, 0, 0, 0, -1, -1, -1, 0, 1, 1, 1, 0, 0, 0, 0, 0, 1, 0, 0, 0, -1)."
			],
			"mathematica": [
				"CoefficientList[Series[1/((1-x^4)(1-x^10)(1-x^11)(1-x^12)),{x,0,70}],x] (* or *) LinearRecurrence[{0,0,0,1,0,0,0,0,0,1,1,1,0,-1,-1,-1,0,0,0,0,-1,-1,-1,0,1,1,1,0,0,0,0,0,1,0,0,0,-1},{1,0,0,0,1,0,0,0,1,0,1,1,2,0,1,1,2,0,1,1,3,1,3,2,4,1,3,2,4,1,4,3,6,3,6,4,7},80] (* _Harvey P. Dale_, Mar 16 2016 *)"
			],
			"keyword": "nonn",
			"offset": "0,13",
			"author": "_N. J. A. Sloane_.",
			"references": 0,
			"revision": 5,
			"time": "2016-03-16T16:36:38-04:00",
			"created": "1999-12-11T03:00:00-05:00"
		}
	]
}