{
	"greeting": "Greetings from The On-Line Encyclopedia of Integer Sequences! http://oeis.org/",
	"query": "id:A029502",
	"count": 1,
	"start": 0,
	"results": [
		{
			"number": 29502,
			"data": "1,3,32,320,544,2048,3331,5833,32281,125120,145760,317621,889760,7371043",
			"name": "Numbers n such that n divides the (right) concatenation of all numbers \u003c= n written in base 9 (most significant digit on right).",
			"comment": [
				"This sequence differs from A061938 in that all least significant zeros are kept during concatenation.",
				"No more terms \u003c 10^7. - _Lars Blomberg_, Oct 04 2011"
			],
			"link": [
				"\u003ca href=\"/index/N#concat\"\u003eIndex entries for related sequences\u003c/a\u003e"
			],
			"example": [
				"See A029495 for example."
			],
			"mathematica": [
				"b = 9; c = {}; Select[Range[10^4], Divisible[FromDigits[c = Join[c, Reverse[IntegerDigits[#, b]]], b], #] \u0026] (* _Robert Price_, Mar 12 2020 *)"
			],
			"program": [
				"(PARI) lista(nn, m=9) = my(s, t); for(k=1, nn, s=k; while(s, t=t*m+s%m; s\\=m); if(t%k==0, print1(k, \", \"))); \\\\ _Jinyuan Wang_, Dec 05 2020"
			],
			"xref": [
				"Cf. A029447-A029470, A029471-A029494, A029495-A029518, A029519-A029542, A061931-A061954, A061955-A061978."
			],
			"keyword": "nonn,base,more",
			"offset": "1,2",
			"author": "_Olivier Gérard_",
			"ext": [
				"Edited and updated by Larry Reeves (larryr(AT)acm.org), Apr 12 2002",
				"Additional comments and more terms from Larry Reeves (larryr(AT)acm.org), May 25 2001",
				"a(13)-a(14) from _Lars Blomberg_, Oct 04 2011"
			],
			"references": 1,
			"revision": 21,
			"time": "2020-12-05T23:31:15-05:00",
			"created": "1999-12-11T03:00:00-05:00"
		}
	]
}