{
	"greeting": "Greetings from The On-Line Encyclopedia of Integer Sequences! http://oeis.org/",
	"query": "id:A029866",
	"count": 1,
	"start": 0,
	"results": [
		{
			"number": 29866,
			"data": "1,2,2,2,4,7,12,16",
			"name": "Size of minimal binary covering code of length n and covering radius 2.",
			"comment": [
				"Also the domination number of the (n+1)-halved cube graph. - _Eric W. Weisstein_, Aug 31 2016 and Jul 17 2017 (after discussion with Stan Wagon)"
			],
			"reference": [
				"G. D. Cohen et al., Covering Codes, North-Holland, 1997, p. 166."
			],
			"link": [
				"R. Bertolo, Patric R. J. Östergård and W. D. Weakley, \u003ca href=\"http://dx.doi.org/10.1002/jcd.20008\"\u003eAn updated table of binary/ternary mixed covering codes\u003c/a\u003e, J. Combin. Designs, 12 (2004), 157-176, DOI:10.1002/jcd.20008. [a(9)=16, bounds for n\u003e9]",
				"Dmitry Kamenetsky, \u003ca href=\"/A029866/a029866.txt\"\u003eBest known solutions for n \u003c= 11.\u003c/a\u003e",
				"Eric Weisstein's World of Mathematics, \u003ca href=\"http://mathworld.wolfram.com/DominationNumber.html\"\u003eDomination Number\u003c/a\u003e",
				"Eric Weisstein's World of Mathematics, \u003ca href=\"http://mathworld.wolfram.com/HalvedCubeGraph.html\"\u003eHalved Cube Graph\u003c/a\u003e",
				"\u003ca href=\"/index/Coa#covcod\"\u003eIndex entries for sequences related to covering codes\u003c/a\u003e"
			],
			"xref": [
				"A column of A060438.",
				"Cf. A000983 (domination number of the n-hypercube graph Q_n)."
			],
			"keyword": "nonn,more",
			"offset": "2,2",
			"author": "_N. J. A. Sloane_",
			"ext": [
				"a(9) from _Andrey Zabolotskiy_, Sep 01 2016"
			],
			"references": 4,
			"revision": 42,
			"time": "2020-07-27T04:00:51-04:00",
			"created": "1999-12-11T03:00:00-05:00"
		}
	]
}