{
	"greeting": "Greetings from The On-Line Encyclopedia of Integer Sequences! http://oeis.org/",
	"query": "id:A029450",
	"count": 1,
	"start": 0,
	"results": [
		{
			"number": 29450,
			"data": "1,5,16,23,25,35,80,125,160,205,352,625,800,1120,1875,2221,3125,6000,9375,10000,11120,15625,19184,21875,30000,50000,55135,58775,66800,71875,78125,88000,88385,171875,200000,390625,472000,715189,734375",
			"name": "Numbers k that divide the (right) concatenation of all numbers \u003c= k written in base 5 (most significant digit on left).",
			"mathematica": [
				"b = 5; c = {}; Select[Range[10^5], Divisible[FromDigits[c = Join[c, IntegerDigits[#, b]], b], #] \u0026] (* _Robert Price_, Mar 10 2020 *)"
			],
			"xref": [
				"Cf. A007091.",
				"Cf. A029447-A029470, A029471-A029494, A029495-A029518, A029519-A029542, A061931-A061954, A061955-A061978."
			],
			"keyword": "nonn,base",
			"offset": "1,2",
			"author": "_Olivier Gérard_",
			"ext": [
				"More terms from _David W. Wilson_"
			],
			"references": 0,
			"revision": 17,
			"time": "2021-07-04T02:00:06-04:00",
			"created": "1999-12-11T03:00:00-05:00"
		}
	]
}