{
	"greeting": "Greetings from The On-Line Encyclopedia of Integer Sequences! http://oeis.org/",
	"query": "id:A029691",
	"count": 1,
	"start": 0,
	"results": [
		{
			"number": 29691,
			"data": "0,1,1,0,1,0,0,0,0,0,0,0,0,1,1,0,1,0,0,0,1,1,0,1,0,1,0,1,1,1,1,1,1,1,1,0,0,0,0,0,1,0,0,0,1,0,0,0,0,1,1,1,1,1,0,0,0,1,0,1,0,1,0,0,0,1,0,0,1,1,1,1,0,1,0,1,0,1,0,0,0,0,1,1,0,0,0,1,0,0,1,1,0,0,1,0,0,1,1,0,0,1",
			"name": "n-th binary digit in fractional part of square root of n.",
			"link": [
				"Robert Israel, \u003ca href=\"/A029691/b029691.txt\"\u003eTable of n, a(n) for n = 1..10000\u003c/a\u003e"
			],
			"maple": [
				"seq(floor(2^n*n^(1/2)) mod 2,n=1..200); # _Robert Israel_, Oct 16 2020"
			],
			"mathematica": [
				"Array[ Function[ n, RealDigits[ N[ Sqrt[ n ], n+6 ], 2 ]// (#[ [ 1, #[ [ 2 ] ]+n ] ])\u0026 ], 110 ]"
			],
			"keyword": "nonn,base",
			"offset": "1,1",
			"author": "_Olivier Gérard_",
			"references": 1,
			"revision": 9,
			"time": "2020-10-18T22:24:46-04:00",
			"created": "1999-12-11T03:00:00-05:00"
		}
	]
}