{
	"greeting": "Greetings from The On-Line Encyclopedia of Integer Sequences! http://oeis.org/",
	"query": "id:A029976",
	"count": 1,
	"start": 0,
	"results": [
		{
			"number": 29976,
			"data": "2,3,5,7,73,89,97,113,211,227,251,349,373,463,479,487,503,4289,4481,4937,5393,5521,5657,5849,6761,7537,7993,12547,12611,12739,13003,13259,13331,13523,14107,14563,14627,14891,15083,15667,15731,15859",
			"name": "Palindromic primes in base 8.",
			"link": [
				"Chai Wah Wu, \u003ca href=\"/A029976/b029976.txt\"\u003eTable of n, a(n) for n = 1..15000\u003c/a\u003e",
				"Patrick De Geest, \u003ca href=\"http://www.worldofnumbers.com/palpri.htm\"\u003eWorld!Of Palindromic Primes\u003c/a\u003e"
			],
			"mathematica": [
				"palQ[n_, b_:10] := Module[{idn = IntegerDigits[n, b]}, idn == Reverse[idn]]; Select[Prime[Range[2000]], palQ[#, 8] \u0026] (* _Harvey P. Dale_, Dec 23 2013 *)"
			],
			"program": [
				"(Python)",
				"from itertools import chain",
				"from sympy import isprime",
				"from gmpy2 import digits",
				"A029976 = sorted((n for n in chain((int(digits(x,8)+digits(x,8)[::-1],8) for x in range(1,8**6)),(int(digits(x,8)+digits(x,8)[-2::-1],8) for x in range(1,8**6))) if isprime(n)))",
				"# _Chai Wah Wu_, Aug 16 2014",
				"(PARI) forprime(p=2,10^4, my(d=digits(p,8)); if(d==Vecrev(d),print1(p,\", \"))); \\\\ _Joerg Arndt_, Aug 17 2014"
			],
			"xref": [
				"Cf. A006341."
			],
			"keyword": "nonn,base",
			"offset": "1,1",
			"author": "_Patrick De Geest_",
			"references": 11,
			"revision": 20,
			"time": "2017-03-05T13:21:48-05:00",
			"created": "1999-12-11T03:00:00-05:00"
		}
	]
}