{
	"greeting": "Greetings from The On-Line Encyclopedia of Integer Sequences! http://oeis.org/",
	"query": "id:A029850",
	"count": 1,
	"start": 0,
	"results": [
		{
			"number": 29850,
			"data": "1,1,4,138,60160,453292525,72471180989664,298545867396801815077,37263960166680610905649057368,161614516495439236943507628117344255307,27480138271604938271870114918720067827110789528890",
			"name": "Number of self-converse groupoids.",
			"link": [
				"\u003ca href=\"/index/Gre#groupoids\"\u003eIndex entries for sequences related to groupoids\u003c/a\u003e"
			],
			"formula": [
				"a(n) = sum {1*s_1+2*s_2+...=n} (fixA[s_1, s_2, ...]/(1^s_1*s_1!*2^s_2*s2!*...)) where fixA[s_1, s_2, ...] = prod {i\u003e=j\u003e=1} f(i, j, s_i, s_j) where f(i, j, s_i, s_j) = {i=j, odd} (sum {d|i*2} (d*s_d))^((i*s_i^2-s_i)/2) * (sum {d|i} (d*s_d))^s_i or {i=j == 0 mod 4} (sum {d|i} (d*s_d))^(i*s_i^2) or {i=j == 2 mod 4} (sum {d|i} (d*s_d))^(i*s_i^2-s_i) * (sum {d|i/2} (d*s_d))^(2*s_i) or {i != j} (sum {d|lcm(i, j, 2)} (d*s_d))^(2*i*j*s_i*s_j/lcm(2*i*j))."
			],
			"xref": [
				"a(n) = 2*A001424(n) - A001329(n). Cf. A001425."
			],
			"keyword": "nonn",
			"offset": "0,3",
			"author": "_Christian G. Bower_, Jan 15 1998, Jun 15 1998, Dec 05 2003",
			"ext": [
				"Formula corrected by _Sean A. Irvine_ and _Christian G. Bower_, Jul 13 2012"
			],
			"references": 3,
			"revision": 20,
			"time": "2021-12-19T13:49:27-05:00",
			"created": "1999-12-11T03:00:00-05:00"
		}
	]
}