{
	"greeting": "Greetings from The On-Line Encyclopedia of Integer Sequences! http://oeis.org/",
	"query": "id:A029374",
	"count": 1,
	"start": 0,
	"results": [
		{
			"number": 29374,
			"data": "1,0,0,0,1,0,0,0,1,1,1,1,1,1,1,1,1,1,2,2,3,2,3,2,3,2,3,3,4,4,5,5,5,5,5,5,6,6,7,7,9,8,9,8,10,9,10,10,12,12,13,13,14,14,15,15,16,16,18,18,20,19,21,21,23,22,24,24,26",
			"name": "Expansion of 1/((1-x^4)(1-x^9)(1-x^10)(1-x^11)).",
			"link": [
				"\u003ca href=\"/index/Rec#order_34\"\u003eIndex entries for linear recurrences with constant coefficients\u003c/a\u003e, signature (0, 0, 0, 1, 0, 0, 0, 0, 1, 1, 1, 0, -1, -1, -1, 0, 0, 0, -1, -1, -1, 0, 1, 1, 1, 0, 0, 0, 0, 1, 0, 0, 0, -1)."
			],
			"mathematica": [
				"CoefficientList[Series[1/((1-x^4)(1-x^9)(1-x^10)(1-x^11)),{x,0,70}],x] (* or *) LinearRecurrence[{0,0,0,1,0,0,0,0,1,1,1,0,-1,-1,-1,0,0,0,-1,-1,-1,0,1,1,1,0,0,0,0,1,0,0,0,-1},{1,0,0,0,1,0,0,0,1,1,1,1,1,1,1,1,1,1,2,2,3,2,3,2,3,2,3,3,4,4,5,5,5,5},70] (* _Harvey P. Dale_, Jun 07 2016 *)"
			],
			"keyword": "nonn",
			"offset": "0,19",
			"author": "_N. J. A. Sloane_.",
			"references": 0,
			"revision": 5,
			"time": "2016-06-07T12:17:24-04:00",
			"created": "1999-12-11T03:00:00-05:00"
		}
	]
}