{
	"greeting": "Greetings from The On-Line Encyclopedia of Integer Sequences! http://oeis.org/",
	"query": "id:A029948",
	"count": 1,
	"start": 0,
	"results": [
		{
			"number": 29948,
			"data": "101,11,41,19,163,251,367,149,641,181,1009,1213,1447,1693,11969,2251,12569,1289,13241,1361,4001,2441,14843,3529,15761,6257,6761,2729,7841,6841,9001,6961,10243,10891,115601,12251,12967,11369",
			"name": "Smallest prime containing n-th square as substring.",
			"link": [
				"John Cerkan, \u003ca href=\"/A029948/b029948.txt\"\u003eTable of n, a(n) for n = 0..10000\u003c/a\u003e",
				"John Cerkan, \u003ca href=\"/A029948/a029948_2.py.txt\"\u003ePython 2.7\u003c/a\u003e"
			],
			"mathematica": [
				"fr[n_] := If[n == 0, {{}}, Join[{Range[9]}, Table[Range[0, 9], {n - 1}]]]; bk[n_] := If[n == 0, {{}}, Join[Table[Range[0, 9], {n - 1}], {{1, 3, 7, 9}}]]; cand[n_, f_, b_] := FromDigits /@ Partition[ Flatten[ Map[ IntegerDigits, Tuples@ DeleteCases[Join[fr[f], {{n}}, bk[b]], {}], 2]], f + b + IntegerLength@n]; a[0] = 101; a[n_] := Block[{m = Infinity, k = 0}, While[m == Infinity, k++; Do[ m = Min[m, Select[cand[n^2, f, k - f], PrimeQ]], {f, 0, k}]]; m]; Array[a, 100, 0] (* _Giovanni Resta_, May 11 2017 *)"
			],
			"keyword": "nonn,base",
			"offset": "0,1",
			"author": "_Patrick De Geest_",
			"references": 2,
			"revision": 24,
			"time": "2017-05-14T03:10:01-04:00",
			"created": "1999-12-11T03:00:00-05:00"
		}
	]
}