{
	"greeting": "Greetings from The On-Line Encyclopedia of Integer Sequences! http://oeis.org/",
	"query": "id:A029971",
	"count": 1,
	"start": 0,
	"results": [
		{
			"number": 29971,
			"data": "2,13,23,151,173,233,757,937,1093,1249,1429,1487,1667,1733,1823,1913,1979,2069,8389,9103,10111,12301,14951,16673,16871,18593,60103,60913,61507,63127,69697,73243,78979,80599,82003,82813,83407,85027",
			"name": "Palindromic primes in base 3.",
			"comment": [
				"Intersection of A000040 and A014190. - _Michel Marcus_, Aug 19 2015"
			],
			"link": [
				"Chai Wah Wu, \u003ca href=\"/A029971/b029971.txt\"\u003eTable of n, a(n) for n = 1..3004\u003c/a\u003e",
				"P. De Geest, \u003ca href=\"http://www.worldofnumbers.com/palpri.htm\"\u003eWorld!Of Palindromic Primes\u003c/a\u003e"
			],
			"maple": [
				"N:= 14: # to get all terms \u003c 3^N",
				"Res:= 2:",
				"digrev:=proc(n) local L;",
				"  L:= convert(n,base,3);",
				"  add(L[-i]*3^(i-1),i=1..nops(L))",
				"end proc;",
				"for d from 2 to N do",
				"  if d::even then",
				"    m:= d/2;",
				"    Res:= Res, op(select(isprime,[seq](n*3^m + digrev(n), n=3^(m-1)..3^m-1)));",
				"  else",
				"    m:= (d-1)/2;",
				"    Res:= Res, op(select(isprime,[seq](seq(n*3^(m+1)+y*3^m+digrev(n),",
				"      y=0..2), n=3^(m-1)..3^m-1)));",
				"  fi",
				"od:",
				"Res; # _Robert Israel_, Aug 19 2015"
			],
			"mathematica": [
				"Do[s = RealDigits[n, 3][[1]]; If[PrimeQ[n], If[FromDigits[s] == FromDigits[Reverse[s]], Print[n]]], {n, 1, 8500}]",
				"Select[Prime[Range[8300]], Reverse[x = IntegerDigits[#, 3]] == x \u0026] (* _Jayanta Basu_, Jun 23 2013 *)"
			],
			"program": [
				"(PARI) lista(nn) = forprime(p=2, nn, if ((d=digits(p,3)) \u0026\u0026 (Vecrev(d)==d), print1(p, \", \"))); \\\\ _Michel Marcus_, Aug 19 2015"
			],
			"xref": [
				"Cf. A117698 (in base 3), A014190."
			],
			"keyword": "nonn,base",
			"offset": "1,1",
			"author": "_Patrick De Geest_",
			"references": 12,
			"revision": 18,
			"time": "2015-10-17T18:09:23-04:00",
			"created": "1999-12-11T03:00:00-05:00"
		}
	]
}