{
	"greeting": "Greetings from The On-Line Encyclopedia of Integer Sequences! http://oeis.org/",
	"query": "id:A029874",
	"count": 1,
	"start": 0,
	"results": [
		{
			"number": 29874,
			"data": "2,9,36,150,672,3185,15688,79326,408710,2135771,11285280,60168394,323185688,1746853245,9492648592,51824157994,284078305566,1562777946663",
			"name": "Low temperature series for spin-1/2 Ising specific heat on 2D square lattice, divided by 8.",
			"reference": [
				"S. R. Finch, Mathematical Constants, Cambridge, 2003, pp. 391-406."
			],
			"link": [
				"G. A. Baker, \u003ca href=\"https://doi.org/10.1103/PhysRev.129.99\"\u003eFurther application of the Padé approximant method to the Ising and Heisenberg models\u003c/a\u003e, Phys. Rev. 129 (1963) 99-102.",
				"I. G. Enting, A, J. Guttmann and I. Jensen, \u003ca href=\"https://arxiv.org/abs/hep-lat/9410005\"\u003eLow-Temperature Series Expansions for the Spin-1 Ising Model\u003c/a\u003e, arXiv:hep-lat/9410005, 1994; J. Phys. A. 27 (1994) 6987-7006.",
				"Steven R. Finch, \u003ca href=\"http://www.people.fas.harvard.edu/~sfinch/constant/ising/ising.html\"\u003eLenz-Ising Constants\u003c/a\u003e [broken link]",
				"Steven R. Finch, \u003ca href=\"http://web.archive.org/web/20010207201511/http://www.mathsoft.com:80/asolve/constant/ising/ising.html\"\u003eLenz-Ising Constants\u003c/a\u003e [From the Wayback Machine]",
				"\u003ca href=\"/index/Sp#specific_heat\"\u003eIndex entries for sequences related to specific heat\u003c/a\u003e"
			],
			"keyword": "nonn,more",
			"offset": "0,1",
			"author": "_Steven Finch_",
			"references": 0,
			"revision": 20,
			"time": "2019-10-05T18:25:11-04:00",
			"created": "1999-12-11T03:00:00-05:00"
		}
	]
}