{
	"greeting": "Greetings from The On-Line Encyclopedia of Integer Sequences! http://oeis.org/",
	"query": "id:A029381",
	"count": 1,
	"start": 0,
	"results": [
		{
			"number": 29381,
			"data": "1,0,0,0,0,1,1,1,0,0,1,2,2,1,1,1,2,3,3,2,2,3,4,4,4,4,4,5,6,6,6,6,7,8,8,9,9,9,10,11,12,12,13,13,14,15,16,17,17,18,19,20,21,22,23,24,25,26,27,28,30,31,32,33,34,36,38",
			"name": "Expansion of 1/((1-x^5)(1-x^6)(1-x^7)(1-x^11)).",
			"link": [
				"\u003ca href=\"/index/Rec#order_29\"\u003eIndex entries for linear recurrences with constant coefficients\u003c/a\u003e, signature (0, 0, 0, 0, 1, 1, 1, 0, 0, 0, 0, -1, -1, 0, 0, -1, -1, 0, 0, 0, 0, 1, 1, 1, 0, 0, 0, 0, -1)."
			],
			"mathematica": [
				"CoefficientList[Series[1/((1 - x^5) (1 - x^6) (1 - x^7) (1 - x^11)), {x, 0, 100}], x] (* _Martin Ettl_, Oct 21 2012*)"
			],
			"program": [
				"(PARI) Vec(1/((1-x^5)*(1-x^6)*(1-x^7)*(1-x^11)) + O(x^80)) \\\\ _Jinyuan Wang_, Mar 11 2020"
			],
			"keyword": "nonn,easy",
			"offset": "0,12",
			"author": "_N. J. A. Sloane_",
			"references": 0,
			"revision": 12,
			"time": "2020-03-11T22:47:08-04:00",
			"created": "1999-12-11T03:00:00-05:00"
		}
	]
}