{
	"greeting": "Greetings from The On-Line Encyclopedia of Integer Sequences! http://oeis.org/",
	"query": "id:A029261",
	"count": 1,
	"start": 0,
	"results": [
		{
			"number": 29261,
			"data": "1,0,0,1,1,0,1,2,1,1,2,2,3,2,3,4,4,3,5,6,5,6,7,7,9,8,9,11,12,10,13,15,14,15,17,18,20,19,21,24,25,23,28,30,29,31,34,35,38,38,40,44,46,44,50,53,53,55,59,61,65,65,68",
			"name": "Expansion of 1/((1-x^3)(1-x^4)(1-x^7)(1-x^12)).",
			"comment": [
				"Number of partitions of n into parts 3, 4, 7, and 12. - _Vincenzo Librandi_, Jun 03 2014"
			],
			"link": [
				"Vincenzo Librandi, \u003ca href=\"/A029261/b029261.txt\"\u003eTable of n, a(n) for n = 0..1000\u003c/a\u003e",
				"\u003ca href=\"/index/Rec#order_26\"\u003eIndex entries for linear recurrences with constant coefficients\u003c/a\u003e, signature (0,0,1,1,0,0,0,0,0,-1,-1,1,0,1,-1,-1,0,0,0,0,0,1,1,0,0,-1)."
			],
			"mathematica": [
				"CoefficientList[Series[1/((1 - x^3) (1 - x^4) (1 - x^7) (1 - x^12)), {x, 0, 100}], x] (* _Vincenzo Librandi_, Jun 03 2014 *)"
			],
			"program": [
				"(PARI) Vec(1/((1-x^3)*(1-x^4)*(1-x^7)*(1-x^12)) + O(x^80)) \\\\ _Jinyuan Wang_, Mar 12 2020"
			],
			"keyword": "nonn,easy",
			"offset": "0,8",
			"author": "_N. J. A. Sloane_",
			"references": 1,
			"revision": 10,
			"time": "2020-03-12T07:34:29-04:00",
			"created": "1999-12-11T03:00:00-05:00"
		}
	]
}