{
	"greeting": "Greetings from The On-Line Encyclopedia of Integer Sequences! http://oeis.org/",
	"query": "id:A029362",
	"count": 1,
	"start": 0,
	"results": [
		{
			"number": 29362,
			"data": "1,0,0,0,1,0,0,1,2,0,0,1,3,0,1,2,4,0,1,3,5,1,2,4,7,1,3,5,9,2,4,7,11,3,5,9,14,4,7,11,17,5,9,14,20,7,11,17,24,9,14,20,28,11,17,24,33,14,20,28,38,17,24,33,44,20,28,38",
			"name": "Expansion of 1/((1-x^4)(1-x^7)(1-x^8)(1-x^12)).",
			"link": [
				"\u003ca href=\"/index/Rec#order_31\"\u003eIndex entries for linear recurrences with constant coefficients\u003c/a\u003e, signature (0, 0, 0, 1, 0, 0, 1, 1, 0, 0, -1, 0, 0, 0, -1, -1, 0, 0, 0, -1, 0, 0, 1, 1, 0, 0, 1, 0, 0, 0, -1)."
			],
			"mathematica": [
				"CoefficientList[Series[1/((1-x^4)(1-x^7)(1-x^8)(1-x^12)), {x, 0, 100}], x] (* _Jinyuan Wang_, Mar 11 2020 *)"
			],
			"keyword": "nonn,easy",
			"offset": "0,9",
			"author": "_N. J. A. Sloane_",
			"references": 0,
			"revision": 6,
			"time": "2020-03-11T23:03:06-04:00",
			"created": "1999-12-11T03:00:00-05:00"
		}
	]
}