{
	"greeting": "Greetings from The On-Line Encyclopedia of Integer Sequences! http://oeis.org/",
	"query": "id:A029773",
	"count": 1,
	"start": 0,
	"results": [
		{
			"number": 29773,
			"data": "0,1,25,36,100,121,625,729,2500,3025,3600,3969,4096,4356,5476,5776,9025,9216,9801,10000,10201,11025,12100,12321,12544,13225,13456,15625,19321,20164,39601,42025,44521,49284,50625,53824,62500,65025",
			"name": "Squares such that digits of sqrt(n) appear in n.",
			"link": [
				"Harvey P. Dale, \u003ca href=\"/A029773/b029773.txt\"\u003eTable of n, a(n) for n = 1..1000\u003c/a\u003e"
			],
			"mathematica": [
				"Select[Range[0,300]^2,SubsetQ[IntegerDigits[#],IntegerDigits[Sqrt[#]]]\u0026] (* _Harvey P. Dale_, Jan 18 2015 *)"
			],
			"keyword": "nonn,base",
			"offset": "1,3",
			"author": "_Patrick De Geest_",
			"references": 1,
			"revision": 6,
			"time": "2015-01-18T07:48:38-05:00",
			"created": "1999-12-11T03:00:00-05:00"
		}
	]
}