{
	"greeting": "Greetings from The On-Line Encyclopedia of Integer Sequences! http://oeis.org/",
	"query": "id:A029341",
	"count": 1,
	"start": 0,
	"results": [
		{
			"number": 29341,
			"data": "1,0,0,0,1,1,0,0,1,2,2,0,1,2,3,2,1,2,4,4,4,2,4,5,6,5,4,6,8,8,8,6,9,10,11,10,10,12,14,14,15,13,16,17,19,19,18,20,23,24,25,22,26,28,31,30,29,32,36,37,38,35,40,43,46,45,44,48,53,54,55,52,59,62,65,64,64,69,74,75",
			"name": "Expansion of 1/((1-x^4)(1-x^5)(1-x^9)(1-x^10)).",
			"link": [
				"\u003ca href=\"/index/Tu#2wis\"\u003eIndex entries for two-way infinite sequences\u003c/a\u003e",
				"\u003ca href=\"/index/Rec#order_28\"\u003eIndex entries for linear recurrences with constant coefficients\u003c/a\u003e, signature (0, 0, 0, 1, 1, 0, 0, 0, 0, 1, 0, 0, -1, -2, -1, 0, 0, 1, 0, 0, 0, 0,1, 1, 0, 0, 0, -1)."
			],
			"formula": [
				"G.f.: 1/((1-x^4)(1-x^5)(1-x^9)(1-x^10)). a(n)=a(n-4)+a(n-5)+a(n-10)-a(n-13)-2*a(n-14)-a(n-15)+a(n-18)+a(n-23)+a(n-24)-a(n-28)=-a(-28-n)."
			],
			"mathematica": [
				"CoefficientList[Series[1/((1-x^4)(1-x^5)(1-x^9)(1-x^10)),{x,0,90}],x] (* or *) LinearRecurrence[{0,0,0,1,1,0,0,0,0,1,0,0,-1,-2,-1,0,0,1,0,0,0,0,1,1,0,0,0,-1},{1,0,0,0,1,1,0,0,1,2,2,0,1,2,3,2,1,2,4,4,4,2,4,5,6,5,4,6,8},90] (* _Harvey P. Dale_, Dec 01 2015 *)"
			],
			"program": [
				"(PARI) a(n)=if(n\u003c-27,-a(-28-n),if(n\u003c0,0,polcoeff(1/((1-x^4)*(1-x^5)*(1-x^9)*(1-x^10))+x*O(x^n),n)))"
			],
			"keyword": "nonn",
			"offset": "0,10",
			"author": "_N. J. A. Sloane_.",
			"references": 0,
			"revision": 9,
			"time": "2015-12-01T17:54:19-05:00",
			"created": "1999-12-11T03:00:00-05:00"
		}
	]
}