{
	"greeting": "Greetings from The On-Line Encyclopedia of Integer Sequences! http://oeis.org/",
	"query": "id:A029140",
	"count": 1,
	"start": 0,
	"results": [
		{
			"number": 29140,
			"data": "1,0,1,1,2,1,3,2,4,3,6,4,8,6,10,8,13,10,16,13,20,16,24,20,29,24,34,29,40,34,47,40,54,47,62,54,71,62,80,71,91,80,102,91,114,102,127,114,141,127,156,141,172,156,189",
			"name": "Expansion of 1/((1-x^2)(1-x^3)(1-x^4)(1-x^10)).",
			"link": [
				"\u003ca href=\"/index/Rec#order_19\"\u003eIndex entries for linear recurrences with constant coefficients\u003c/a\u003e, signature (0,1,1,1,-1,-1,-1,0,1,1,0,-1,-1,-1,1,1,1,0,-1)."
			],
			"mathematica": [
				"CoefficientList[Series[1/((1-x^2)(1-x^3)(1-x^4)(1-x^10)), {x, 0, 100}], x] (* _Jinyuan Wang_, Mar 18 2020 *)"
			],
			"keyword": "nonn,easy",
			"offset": "0,5",
			"author": "_N. J. A. Sloane_",
			"references": 0,
			"revision": 6,
			"time": "2020-03-18T08:16:29-04:00",
			"created": "1999-12-11T03:00:00-05:00"
		}
	]
}