{
	"greeting": "Greetings from The On-Line Encyclopedia of Integer Sequences! http://oeis.org/",
	"query": "id:A029560",
	"count": 1,
	"start": 0,
	"results": [
		{
			"number": 29560,
			"data": "35,1295,2635,6083,6923,7315,7843,13363,24335,25795,26243,29795,31003,43043,44099,49283,50435,54131,115843,138043,147223,191843,234883,254467,388433,471523,472739,544643,618103,631123,725903,790195,819283,862403",
			"name": "Quasi-Carmichael numbers to base 3: squarefree composites n such that prime p|n ==\u003e p-3|n-3.",
			"comment": [
				"Define C(k) to be the numbers n such that n is composite and squarefree and for p prime, p|n =\u003e p+k|n+k (p+k and n+k positive); sequence gives C(-3).",
				"These are called 3-Korselt numbers by Bouallegue et al."
			],
			"link": [
				"Giovanni Resta, \u003ca href=\"/A029560/b029560.txt\"\u003eTable of n, a(n) for n = 1..2453\u003c/a\u003e (terms \u003c 10^12)",
				"K. Bouallegue, O. Echi, R. G. E. Pinch, \u003ca href=\"http://dx.doi.org/10.1142/S1793042110002922 \"\u003eKorselt numbers and sets\u003c/a\u003e, Intl. J. Numb. Theory 6 (2) (2010) 257-269.",
				"\u003ca href=\"/index/Ca#Carmichael\"\u003eIndex entries for sequences related to Carmichael numbers.\u003c/a\u003e"
			],
			"mathematica": [
				"qcm[n_, d_] := Block[{p, e}, {p, e} = Transpose@FactorInteger@n; Length[p] \u003e 1 \u0026\u0026 Max[e] == 1 \u0026\u0026 ! MemberQ[p, d] \u0026\u0026 Max@ Mod[n-d, p-d] == 0]; Select[Range[10^5],  qcm[#, 3] \u0026] (* _Giovanni Resta_, May 21 2013 *)"
			],
			"xref": [
				"Cf. A120944"
			],
			"keyword": "nonn",
			"offset": "1,1",
			"author": "_David W. Wilson_",
			"references": 2,
			"revision": 19,
			"time": "2015-09-16T01:52:08-04:00",
			"created": "1999-12-11T03:00:00-05:00"
		}
	]
}