{
	"greeting": "Greetings from The On-Line Encyclopedia of Integer Sequences! http://oeis.org/",
	"query": "id:A029998",
	"count": 1,
	"start": 0,
	"results": [
		{
			"number": 29998,
			"data": "0,1,2,3,14,28,170,183,196,209,308,340,353,366,2198,2380,2562,2898,4026,4242,4396,4578,7078,7662,28562,28731,28900,29069,30772,30941,31110,32813,32982,33151,37374,51510,52360,54942,55449,57124,57293",
			"name": "Numbers k such that k^2 is palindromic in base 13.",
			"link": [
				"Seiichi Manyama, \u003ca href=\"/A029998/b029998.txt\"\u003eTable of n, a(n) for n = 1..100\u003c/a\u003e",
				"Patrick De Geest, \u003ca href=\"http://www.worldofnumbers.com/square.htm\"\u003ePalindromic Squares\u003c/a\u003e"
			],
			"xref": [
				"Numbers k such that k^2 is palindromic in base b: A003166 (b=2), A029984 (b=3), A029986 (b=4), A029988 (b=5), A029990 (b=6), A029992 (b=7), A029805 (b=8), A029994 (b=9), A002778 (b=10), A029996 (b=11), A029737 (b=12), this sequence (b=13), A030072 (b=14), A030073 (b=15), A029733 (b=16), A118651 (b=17)."
			],
			"keyword": "nonn,base",
			"offset": "1,3",
			"author": "_Patrick De Geest_",
			"references": 11,
			"revision": 16,
			"time": "2021-10-16T13:20:30-04:00",
			"created": "1999-12-11T03:00:00-05:00"
		}
	]
}