{
	"greeting": "Greetings from The On-Line Encyclopedia of Integer Sequences! http://oeis.org/",
	"query": "id:A030746",
	"count": 1,
	"start": 0,
	"results": [
		{
			"number": 30746,
			"data": "6,7,18,19,38,48,50,65,82,83,123,148,173,175,201,204,237,262,265,272,291,294,302,306,341,349,396,435,437,445,476,489,493,498,545,548,553,555,606,612,667,726,733,795,804,867,873,877",
			"name": "Numbers k such that A030737(k) = 4.",
			"xref": [
				"Cf. A030737."
			],
			"keyword": "nonn",
			"offset": "1,1",
			"author": "_Clark Kimberling_",
			"references": 0,
			"revision": 8,
			"time": "2021-02-12T20:09:42-05:00",
			"created": "1999-12-11T03:00:00-05:00"
		}
	]
}