{
	"greeting": "Greetings from The On-Line Encyclopedia of Integer Sequences! http://oeis.org/",
	"query": "id:A030457",
	"count": 1,
	"start": 0,
	"results": [
		{
			"number": 30457,
			"data": "2,6,8,12,36,42,50,56,62,68,78,80,90,92,96,102,108,120,126,138,150,156,180,186,188,192,200,216,242,246,252,270,276,278,300,308,312,318,330,338,342,350,362,368,378,390,402,410,416,420,426,428,432",
			"name": "Numbers k such that k concatenated with k+1 is prime.",
			"comment": [
				"k is not congruent to 1 (mod 2), 1 (mod 3), or 4 (mod 5). - _Charles R Greathouse IV_, Apr 16 2012"
			],
			"link": [
				"Reinhard Zumkeller, \u003ca href=\"/A030457/b030457.txt\"\u003eTable of n, a(n) for n = 1..10000\u003c/a\u003e"
			],
			"example": [
				"1213 is prime, therefore 12 is a term."
			],
			"maple": [
				"concat:=proc(a,b) local bb: bb:=nops(convert(b,base,10)): 10^bb*a+b end proc: a:=proc(n) if isprime(concat(n,n+1))=true then n else end if end proc: seq(a(n),n=0..500); # _Emeric Deutsch_, Nov 23 2007"
			],
			"mathematica": [
				"Select[ Range[500], PrimeQ[ ToExpression[ StringJoin[ ToString[#], ToString[#+1]]]]\u0026] (* _Jean-François Alcover_, Nov 18 2011 *)",
				"Select[Range[500],PrimeQ[FromDigits[Join[IntegerDigits[#], IntegerDigits[ #+1]]]]\u0026] (* _Harvey P. Dale_, Dec 23 2015 *)",
				"Position[#[[1]]*10^IntegerLength[#[[2]]]+#[[2]]\u0026/@Partition[Range[ 500], 2,1],_?PrimeQ]//Flatten (* _Harvey P. Dale_, Jul 14 2019 *)"
			],
			"program": [
				"(Haskell)",
				"a030457 n = a030457_list !! (n-1)",
				"a030457_list = filter ((== 1) . a010051' . a001704) [1..]",
				"-- _Reinhard Zumkeller_, Jun 27 2015, Apr 26 2011",
				"(PARI) for(n=1,10^5,if(isprime(eval(concat(Str(n),n+1))),print1(n,\", \"))); /* _Joerg Arndt_, Apr 27 2011 */",
				"(MAGMA) [n: n in [1..500] | IsPrime(Seqint(Intseq(n+1) cat Intseq(n)))]; // _Vincenzo Librandi_, Jul 23 2016"
			],
			"xref": [
				"Cf. A030458, A054211, A052089, A052087, A052088.",
				"Cf. A010051, A001704, A068700 (subsequence)."
			],
			"keyword": "nonn,base,nice",
			"offset": "1,1",
			"author": "_Patrick De Geest_",
			"references": 8,
			"revision": 45,
			"time": "2021-02-23T03:08:13-05:00",
			"created": "1999-12-11T03:00:00-05:00"
		}
	]
}