{
	"greeting": "Greetings from The On-Line Encyclopedia of Integer Sequences! http://oeis.org/",
	"query": "id:A030337",
	"count": 1,
	"start": 0,
	"results": [
		{
			"number": 30337,
			"data": "1,1,3,1,1,1,2,2,5,1,1,2,1,1,2,1,1,1,1,2,1,1,1,3,1,1,1,2,2,2,3,3,7,2,2,3,1,1,2,1,1,1,3,1,1,1,2,1,1,2,1,1,1,1,1,1,2,3,2,1,1,1,1,1,1,2,1,1,1,1,2,1,1,1,3,1,1,1,2,1,1,1,1,2,1,1,2,1,4,2",
			"name": "Length of n-th run of digit 1 in A003137.",
			"link": [
				"Reinhard Zumkeller, \u003ca href=\"/A030337/b030337.txt\"\u003eTable of n, a(n) for n = 1..10000\u003c/a\u003e"
			],
			"program": [
				"(Haskell)",
				"import Data.List (group)",
				"a030337 n = a030337_list !! (n-1)",
				"a030337_list = map length $ filter ((== 1) . head) $ group a003137_list",
				"-- _Reinhard Zumkeller_, Feb 21 2013"
			],
			"xref": [
				"Cf. A030336, A030338, A030333."
			],
			"keyword": "nonn,base",
			"offset": "1,3",
			"author": "_Clark Kimberling_",
			"references": 4,
			"revision": 12,
			"time": "2013-07-13T12:01:54-04:00",
			"created": "1999-12-11T03:00:00-05:00"
		}
	]
}