{
	"greeting": "Greetings from The On-Line Encyclopedia of Integer Sequences! http://oeis.org/",
	"query": "id:A030701",
	"count": 1,
	"start": 0,
	"results": [
		{
			"number": 30701,
			"data": "0,1,2,3,4,7,8,9,12,14,16,17,18,36,38,43",
			"name": "Decimal expansion of 4^n contains no zeros (probably finite).",
			"comment": [
				"Integers in A007377 / 2. Conjectured to be finite, and probably complete. - _M. F. Hasler_, Mar 08 2014"
			],
			"link": [
				"M. F. Hasler, \u003ca href=\"https://oeis.org/wiki/Zeroless_powers\"\u003eZeroless powers\u003c/a\u003e, OEIS Wiki, Mar 07 2014",
				"Eric Weisstein's World of Mathematics, \u003ca href=\"http://mathworld.wolfram.com/Zero.html\"\u003eZero\u003c/a\u003e"
			],
			"program": [
				"(PARI) for(n=0, 99, vecmin(digits(4^n))\u0026\u0026 print1(n\", \")) \\\\ _M. F. Hasler_, Mar 07 2014",
				"(MAGMA) [n: n in [0..500] | not 0 in Intseq(4^n)]; // _Vincenzo Librandi_, Mar 08 2014"
			],
			"xref": [
				"For the zeroless numbers (powers x^n), see A238938, A238939, A238940, A195948, A238936, A195908, A195946, A195945, A195942, A195943, A103662.",
				"For the corresponding exponents, see A007377, A008839, A030700, A030701, A008839, A030702, A030703, A030704, A030705, A030706, A195944.",
				"For other related sequences, see A052382, A027870, A102483, A103663."
			],
			"keyword": "nonn,base",
			"offset": "1,3",
			"author": "_Eric W. Weisstein_",
			"ext": [
				"Offset corrected and initial 0 added by _M. F. Hasler_, Mar 07 2014"
			],
			"references": 28,
			"revision": 19,
			"time": "2020-03-10T10:01:40-04:00",
			"created": "1999-12-11T03:00:00-05:00"
		}
	]
}