{
	"greeting": "Greetings from The On-Line Encyclopedia of Integer Sequences! http://oeis.org/",
	"query": "id:A030186",
	"count": 1,
	"start": 0,
	"results": [
		{
			"number": 30186,
			"data": "1,2,7,22,71,228,733,2356,7573,24342,78243,251498,808395,2598440,8352217,26846696,86293865,277376074,891575391,2865808382,9211624463,29609106380,95173135221,305916887580,983314691581,3160687827102",
			"name": "a(n) = 3*a(n-1) + a(n-2) - a(n-3) for n \u003e= 3, a(0)=1, a(1)=2, a(2)=7.",
			"comment": [
				"Number of matchings in ladder graph L_n = P_2 X P_n.",
				"Cycle-path coverings of a family of digraphs.",
				"a(n+1) = Fibonacci(n+1)^2 + Sum_{k=0..n} Fibonacci(k)^2*a(n-k) (with the offset convention Fibonacci(2)=2). - _Barry Cipra_, Jun 11 2003",
				"Equivalently, ways of paving a 2xn grid cells using only singletons and dominoes. - _Lekraj Beedassy_, Mar 25 2005",
				"It is easy to see that the g.f. for indecomposable tilings (pavings) i.e. those that cannot be split vertically into smaller tilings, is g=2x+3x^2+2x^3+2x^4+2x^5+...=x(2+x-x^2)/(1-x); then G.f.=1/(1-g)=(1-x)/(1-3x-x^2+x^3). - _Emeric Deutsch_, Oct 16 2006",
				"Row sums of A046741. - _Emeric Deutsch_, Oct 16 2006",
				"Equals binomial transform of A156096. - _Gary W. Adamson_, Feb 03 2009",
				"a(n) = Lucas(2n) + Sum_{k=2..n-1} Fibonacci(2k-1)*a(n-k). This relationship can be proven by a visual proof using the idea of tiling a 2 X n board with only singletons and dominoes while conditioning on where the vertical dominoes first appear. If there are no vertical dominoes positioned at lengths 2 through n-1, there will be Lucas(2n) ways to tile the board since a complete tour around the board will be made possible. If the first vertical domino appears at length k (where 2 \u003c= k \u003c= n-1) there will be Fibonacci(2k-1)*a(n-k) ways to tile the board. - _Rana Ürek_, Jun 25 2018"
			],
			"reference": [
				"Miklos Bona, editor, Handbook of Enumerative Combinatorics, CRC Press, 2015, page 25.",
				"J. D. E. Konhauser et al., Which Way Did The Bicycle Go? Problem 140 \"Count The Tilings\" pp. 42; 180-1 Dolciani Math. Exp. No. 18 MAA Washington DC 1996."
			],
			"link": [
				"Indranil Ghosh, \u003ca href=\"/A030186/b030186.txt\"\u003eTable of n, a(n) for n = 0..1968\u003c/a\u003e (terms 0..200 from T. D. Noe)",
				"O. M. D'Antona and E. Munarini, \u003ca href=\"https://doi.org/10.1006/aama.2000.0689\"\u003eThe Cycle-path Indicator Polynomial of a Digraph\u003c/a\u003e, Advances in Applied Mathematics 25 (2000), 41-56.",
				"R. C. Grimson, \u003ca href=\"https://doi.org/10.1063/1.1666624\"\u003eExact formulas for 2 x n arrays of dumbbells\u003c/a\u003e, J. Math. Phys., 15 (1974), 214-216.",
				"Svenja Huntemann, Neil A. McKay, \u003ca href=\"https://arxiv.org/abs/1909.12419\"\u003eCounting Domineering Positions\u003c/a\u003e, arXiv:1909.12419 [math.CO], 2019.",
				"INRIA Algorithms Project, \u003ca href=\"http://ecs.inria.fr/services/structure?nbr=473\"\u003eEncyclopedia of Combinatorial Structures 473\u003c/a\u003e",
				"M. Katz, C. Stenson, \u003ca href=\"https://cs.uwaterloo.ca/journals/JIS/VOL12/Stenson/stenson8.html\"\u003e Tiling a (2xn)-Board with Squares and Dominoes\u003c/a\u003e, JIS 12 (2009) 09.2.2, Table 1.",
				"David Friedhelm Kind, \u003ca href=\"https://doi.org/10.13140/RG.2.2.11182.54086\"\u003eThe Gunport Problem: An Evolutionary Approach\u003c/a\u003e, De Montfort University (Leicester, UK, 2020).",
				"Richard M. Low and Ardak Kapbasov, \u003ca href=\"https://www.emis.de/journals/JIS/VOL20/Low/low2.html\"\u003eNon-Attacking Bishop and King Positions on Regular and Cylindrical Chessboards\u003c/a\u003e, Journal of Integer Sequences, Vol. 20 (2017), Article 17.6.1, Table 2.",
				"Per Hakan Lundow, \u003ca href=\"http://www.theophys.kth.se/~phl/Text/1factors.pdf\"\u003eComputation of matching polynomials and the number of 1-factors in polygraphs\u003c/a\u003e, Research report, No 12, 1996, Department of Math., Umea University, Sweden.",
				"Per Hakan Lundow, \u003ca href=\"http://www.theophys.kth.se/~phl/Text/1factors2.ps.gz\"\u003eEnumeration of matchings in polygraphs\u003c/a\u003e, 1998.",
				"R. B. McQuistan and S. J. Lichtman, \u003ca href=\"https://doi.org/10.1063/1.1665098\"\u003eExact recursion relation for (2 × N) arrays of dumbbells\u003c/a\u003e, J. Math Phys. 11 (1970), 3095-3099.",
				"László Németh, \u003ca href=\"https://arxiv.org/abs/1909.11729\"\u003eTilings of (2 X 2 X n)-board with colored cubes and bricks\u003c/a\u003e, arXiv:1909.11729 [math.CO], 2019.",
				"N. J. A. Sloane \u003ca href=\"/A030186/a030186.txt\"\u003eNotes on A030186 and A033505\u003c/a\u003e",
				"Eric Weisstein's World of Mathematics, \u003ca href=\"http://mathworld.wolfram.com/IndependentEdgeSet.html\"\u003eIndependent Edge Set\u003c/a\u003e",
				"Eric Weisstein's World of Mathematics, \u003ca href=\"http://mathworld.wolfram.com/LadderGraph.html\"\u003eLadder Graph\u003c/a\u003e",
				"Eric Weisstein's World of Mathematics, \u003ca href=\"http://mathworld.wolfram.com/Matching.html\"\u003eMatching\u003c/a\u003e",
				"Yifan Zhang, George Grossman, \u003ca href=\"https://www.emis.de/journals/JIS/VOL21/Zhang/zhang44.html\"\u003eA Combinatorial Proof for the Generating Function of Powers of a Second-Order Recurrence Sequence\u003c/a\u003e, J. Int. Seq. 21 (2018), #18.3.3.",
				"\u003ca href=\"/index/Rec#order_03\"\u003eIndex entries for linear recurrences with constant coefficients\u003c/a\u003e, signature (3,1,-1)."
			],
			"formula": [
				"G.f.: (1-x)/(1-3*x-x^2+x^3).",
				"a(n) = ( (Sum_{k=0..n-1} a(k))^2 + (Sum_{k=0..n-1} a(k)^2) ) / a(n-1) for n\u003e1 with a(0)=1, a(1)=2 (similar to A088016). - _Paul D. Hanna_, Nov 20 2012"
			],
			"maple": [
				"a[0]:=1: a[1]:=2: a[2]:=7: for n from 3 to 30 do a[n]:=3*a[n-1]+a[n-2]-a[n-3] od: seq(a[n],n=0..30); # _Emeric Deutsch_, Oct 16 2006"
			],
			"mathematica": [
				"LinearRecurrence[{3,1,-1}, {1,2,7}, 26] (* _Robert G. Wilson v_, Nov 20 2012 *)",
				"Table[RootSum[1 -# -3#^2 +#^3 \u0026, 9#^n -10#^(n+1) +7#^(n+2) \u0026]/74, {n, 0, 30}] (* _Eric W. Weisstein_, Oct 03 2017 *)",
				"CoefficientList[Series[(1-x)/(1-3x-x^2+x^3), {x,0,30}], x] (* _Eric W. Weisstein_, Oct 03 2017 *)"
			],
			"program": [
				"(Haskell)",
				"a030186 n = a030186_list !! n",
				"a030186_list = 1 : 2 : 7 : zipWith (-) (tail $",
				"   zipWith (+) a030186_list $ tail $ map (* 3) a030186_list) a030186_list",
				"-- _Reinhard Zumkeller_, Oct 20 2011",
				"(PARI) {a(n)=if(n==0,1,if(n==1,2,(sum(k=0, n-1, a(k))^2+sum(k=0, n-1, a(k)^2))/a(n-1)))} \\\\ _Paul D. Hanna_, Nov 20 2012",
				"(Sage)",
				"def A030186_list(prec):",
				"    P.\u003cx\u003e = PowerSeriesRing(ZZ, prec)",
				"    return P((1-x)/(1-3*x-x^2+x^3)).list()",
				"A030186_list(30) # _G. C. Greubel_, Sep 27 2019",
				"(GAP) a:=[1,2,7];; for n in [4..30] do a[n]:=3*a[n-1]+a[n-2]-a[n-3]; od; a; # _G. C. Greubel_, Sep 27 2019"
			],
			"xref": [
				"Partial sums give A033505.",
				"Column 2 of triangle A210662.",
				"Cf. A054894, A055518, A055519, A088016.",
				"Cf. A156096. - _Gary W. Adamson_, Feb 03 2009",
				"Bisection (even part) gives A260033."
			],
			"keyword": "nonn,easy,nice",
			"offset": "0,2",
			"author": "Ottavio D'Antona (dantona(AT)dsi.unimi.it)",
			"ext": [
				"More terms from _James A. Sellers_",
				"Entry revised by _N. J. A. Sloane_, Feb 13 2002"
			],
			"references": 24,
			"revision": 97,
			"time": "2020-12-04T20:39:00-05:00",
			"created": "1999-12-11T03:00:00-05:00"
		}
	]
}