{
	"greeting": "Greetings from The On-Line Encyclopedia of Integer Sequences! http://oeis.org/",
	"query": "id:A030644",
	"count": 1,
	"start": 0,
	"results": [
		{
			"number": 30644,
			"data": "6,8,5,8,4,0,7,3,4,6,4,1,0,2,0,6,7,6,1,5,3,7,3,5,6,6,1,6,7,2,0,4,9,7,1,1,5,8,0,2,8,3,0,6,0,0,6,2,4,8,9,4,1,7,9,0,2,5,0,5,5,4,0,7,6,9,2,1,8,3,5,9,3,7,1,3,7,9,1,0,0,1,3,7,1,9,6,5,1,7,4,6,5,7,8,8,2,9,3,2,0,1,7,8,5",
			"name": "Decimal expansion of 10 - Pi.",
			"reference": [
				"Problems Drive, Eureka, 37 (1974), 8-11 and 33."
			],
			"link": [
				"G. C. Greubel, \u003ca href=\"/A030644/b030644.txt\"\u003eTable of n, a(n) for n = 1..10000\u003c/a\u003e",
				"Eureka, \u003ca href=\"/A005589/a005589.pdf\"\u003eProblems Drive\u003c/a\u003e, 37 (1974), 8-11, 32-33, 24-27. (Annotated scanned copy)"
			],
			"example": [
				"Equals 6.85840734..."
			],
			"mathematica": [
				"RealDigits[10 - Pi, 10, 100][[1]] (* _G. C. Greubel_, Jul 02 2017 *)"
			],
			"program": [
				"(PARI) 10 - Pi \\\\ _G. C. Greubel_, Jul 02 2017"
			],
			"xref": [
				"Cf. A000796."
			],
			"keyword": "cons,nonn,easy",
			"offset": "1,1",
			"author": "_Joost de Winter_",
			"ext": [
				"More terms from _Erich Friedman_"
			],
			"references": 3,
			"revision": 21,
			"time": "2019-08-09T04:55:41-04:00",
			"created": "1999-12-11T03:00:00-05:00"
		}
	]
}