{
	"greeting": "Greetings from The On-Line Encyclopedia of Integer Sequences! http://oeis.org/",
	"query": "id:A030432",
	"count": 1,
	"start": 0,
	"results": [
		{
			"number": 30432,
			"data": "7,17,37,47,67,97,107,127,137,157,167,197,227,257,277,307,317,337,347,367,397,457,467,487,547,557,577,587,607,617,647,677,727,757,787,797,827,857,877,887,907,937,947,967,977,997,1087,1097,1117,1187,1217,1237",
			"name": "Primes of form 10n+7.",
			"comment": [
				"Union of A132231 and A039949. - _Ray Chandler_, Apr 07 2009",
				"5 is not quadratic residue of primes of this form. - _Vincenzo Librandi_, Jun 25 2014",
				"Also primes of the form 5n+2 with positive n. - _Danny Rorabaugh_, Feb 20 2016",
				"Intersection of A000040 and A017353. - _Iain Fox_, Dec 30 2017"
			],
			"link": [
				"Michael B. Porter, \u003ca href=\"/A030432/b030432.txt\"\u003eTable of n, a(n) for n = 1..100000\u003c/a\u003e",
				"A. Granville and G. Martin, \u003ca href=\"https://arxiv.org/abs/math/0408319\"\u003ePrime number races\u003c/a\u003e, arXiv:math/0408319 [math.NT], 2004."
			],
			"formula": [
				"a(n) = 10*A102342(n) + 7.",
				"a(n) ~ 4n log n. - _Charles R Greathouse IV_, Jul 01 2013"
			],
			"mathematica": [
				"Select[Prime@Range[210], Mod[ #, 10] == 7 \u0026] (* _Ray Chandler_, Nov 07 2006 *)"
			],
			"program": [
				"(MAGMA) [n: n in [7..1240 by 10] | IsPrime(n)]; // _Bruno Berselli_, Apr 06 2011",
				"(PARI) is(n)=n%10==7 \u0026\u0026 isprime(n) \\\\ _Charles R Greathouse IV_, Jul 01 2013",
				"(PARI) lista(nn) = forprime(p=7, nn, if(p%10==7, print1(p, \", \"))) \\\\ _Iain Fox_, Dec 30 2017",
				"(Sage) [10*n+7 for n in range(124) if is_prime(10*n+7)] # _Danny Rorabaugh_, Feb 20 2016"
			],
			"xref": [
				"Cf. A030430 (10n+1), A030431 (10n+3), A030433 (10n+9).",
				"Cf. A045357, A045380, A049509, A102342."
			],
			"keyword": "nonn,easy,base",
			"offset": "1,1",
			"author": "_Warut Roonguthai_",
			"ext": [
				"Extended by _Ray Chandler_, Nov 07 2006"
			],
			"references": 40,
			"revision": 44,
			"time": "2018-01-04T04:27:09-05:00",
			"created": "1999-12-11T03:00:00-05:00"
		}
	]
}