{
	"greeting": "Greetings from The On-Line Encyclopedia of Integer Sequences! http://oeis.org/",
	"query": "id:A030239",
	"count": 1,
	"start": 0,
	"results": [
		{
			"number": 30239,
			"data": "1,1,1,1,1,18,12,21,102,202,826,708,502,1522,6223,3493,1063,50655,10051,328426",
			"name": "a(n) is the smallest number k such that k*2^(2^n) + 1 is prime.",
			"comment": [
				"The primality test for Proth numbers can be used. - _Thomas Ordowski_, Apr 13 2019"
			],
			"formula": [
				"a(n) = min{a : a \u003e 0 and (a*2^2^n)! == -1 (mod a*2^2^n+1)}."
			],
			"program": [
				"(PARI) isok(k, n) = isprime(k*2^(2^n) + 1);",
				"a(n) = my(k=1); while (!isok(k, n), k++); k; \\\\ _Michel Marcus_, Apr 15 2019"
			],
			"xref": [
				"Cf. A080075, A080076."
			],
			"keyword": "nonn,more",
			"offset": "0,6",
			"author": "Alar Leibak (aleibak(AT)cyber.ee)",
			"ext": [
				"a(11)-a(17) from _Donovan Johnson_, Mar 26 2010",
				"a(18)-a(19) from _Donovan Johnson_, Jan 14 2012",
				"Name edited by _Thomas Ordowski_, Apr 13 2019"
			],
			"references": 1,
			"revision": 24,
			"time": "2019-04-19T05:12:46-04:00",
			"created": "1999-12-11T03:00:00-05:00"
		}
	]
}