{
	"greeting": "Greetings from The On-Line Encyclopedia of Integer Sequences! http://oeis.org/",
	"query": "id:A030918",
	"count": 1,
	"start": 0,
	"results": [
		{
			"number": 30918,
			"data": "1,3,11,45,228,1369,9585,76684,690164,6901640,75918047,911016565,11843215346,165805014854,2487075222810,39793203564972,676484460604539,12176720290881708,231357685526752468,4627153710535049363",
			"name": "[ exp(9/14)*n! ].",
			"keyword": "nonn",
			"offset": "1,2",
			"author": "_Simon Plouffe_",
			"references": 0,
			"revision": 4,
			"time": "2012-03-30T18:36:25-04:00",
			"created": "1999-12-11T03:00:00-05:00"
		}
	]
}