{
	"greeting": "Greetings from The On-Line Encyclopedia of Integer Sequences! http://oeis.org/",
	"query": "id:A030822",
	"count": 1,
	"start": 0,
	"results": [
		{
			"number": 30822,
			"data": "1,2,8,32,162,976,6832,54663,491971,4919711,54116823,649401885,8442224517,118191143240,1772867148604,28365874377664,482219864420304,8679957559565488,164919193631744286,3298383872634885721",
			"name": "[ exp(7/23)*n! ].",
			"mathematica": [
				"Floor[Exp[7/23]Range[30]!] (* _Harvey P. Dale_, May 07 2016 *)"
			],
			"keyword": "nonn",
			"offset": "1,2",
			"author": "_Simon Plouffe_",
			"references": 0,
			"revision": 6,
			"time": "2016-05-07T11:47:02-04:00",
			"created": "1999-12-11T03:00:00-05:00"
		}
	]
}