{
	"greeting": "Greetings from The On-Line Encyclopedia of Integer Sequences! http://oeis.org/",
	"query": "id:A030480",
	"count": 1,
	"start": 0,
	"results": [
		{
			"number": 30480,
			"data": "2,3,5,7,17,29,47,53,67,79,83,149,151,157,257,283,457,653,683,907,1429,1571,1693,1699,2017,2459,2467,2543,2609,2617,2843,2879,2909,2971,4759,5101,5179,5333,6653,6803,6947,6949,7759,8297,9091,9103",
			"name": "Primes with property that when squared all even digits occur together and all odd digits occur together.",
			"keyword": "nonn,base",
			"offset": "0,1",
			"author": "_Patrick De Geest_",
			"references": 0,
			"revision": 3,
			"time": "2012-08-24T10:47:39-04:00",
			"created": "1999-12-11T03:00:00-05:00"
		}
	]
}