{
	"greeting": "Greetings from The On-Line Encyclopedia of Integer Sequences! http://oeis.org/",
	"query": "id:A030881",
	"count": 1,
	"start": 0,
	"results": [
		{
			"number": 30881,
			"data": "1,2,8,35,177,1062,7435,59485,535371,5353716,58890876,706690515,9186976699,128617673796,1929265106946,30868241711142,524760109089429,9445681963609723,179467957308584751,3589359146171695020",
			"name": "[ exp(7/18)*n! ].",
			"keyword": "nonn",
			"offset": "1,2",
			"author": "_Simon Plouffe_",
			"references": 0,
			"revision": 4,
			"time": "2012-03-30T18:36:25-04:00",
			"created": "1999-12-11T03:00:00-05:00"
		}
	]
}