{
	"greeting": "Greetings from The On-Line Encyclopedia of Integer Sequences! http://oeis.org/",
	"query": "id:A030232",
	"count": 1,
	"start": 0,
	"results": [
		{
			"number": 30232,
			"data": "1,2,4,8,10,13,20,22,24,32,33,34,37,42,56,68,75,100,102,108,114,129,133,134,136,148,149,153,159,161,162,186,187,248,249,254,277,300,301,310,311,330,331,351,380,381,382,388,411,423,430,488,489,531,545,556",
			"name": "Number of divisors of n! divides the number of divisors of (2n)!.",
			"comment": [
				"n such that A000005(n!) divides A000005((2n)!)."
			],
			"mathematica": [
				"Select[Range[560],Divisible[DivisorSigma[0,(2#)!],DivisorSigma[ 0,#!]]\u0026] (* _Harvey P. Dale_, Mar 06 2015 *)"
			],
			"program": [
				"(PARI) isok(n) = (numdiv((2*n)!) % numdiv(n!)) == 0; \\\\ _Michel Marcus_, Apr 16 2015"
			],
			"xref": [
				"Cf. A000005 (number of divisors), A027423 (number of divisors of n!)."
			],
			"keyword": "easy,nonn",
			"offset": "1,2",
			"author": "_Benoit Cloitre_, Sep 28 2002",
			"references": 0,
			"revision": 12,
			"time": "2015-04-16T08:26:46-04:00",
			"created": "1999-12-11T03:00:00-05:00"
		}
	]
}