{
	"greeting": "Greetings from The On-Line Encyclopedia of Integer Sequences! http://oeis.org/",
	"query": "id:A030305",
	"count": 1,
	"start": 0,
	"results": [
		{
			"number": 30305,
			"data": "1,2,1,1,3,2,1,1,1,2,1,1,4,3,2,1,2,1,2,1,1,1,1,1,3,2,1,1,1,2,1,1,5,4,3,1,3,2,2,2,1,2,1,2,1,3,1,2,1,1,1,1,1,1,2,1,1,1,1,1,4,3,2,1,2,1,2,1,1,1,1,1,3,2,1,1,1,2,1,1,6,5,4,1,4,3,2,3,1,3",
			"name": "Length of n-th run of 0's in A030302.",
			"xref": [
				"Cf. A030312."
			],
			"keyword": "nonn",
			"offset": "1,2",
			"author": "_Clark Kimberling_",
			"references": 1,
			"revision": 4,
			"time": "2012-03-30T18:56:16-04:00",
			"created": "1999-12-11T03:00:00-05:00"
		}
	]
}