{
	"greeting": "Greetings from The On-Line Encyclopedia of Integer Sequences! http://oeis.org/",
	"query": "id:A030817",
	"count": 1,
	"start": 0,
	"results": [
		{
			"number": 30817,
			"data": "1,3,10,40,202,1213,8492,67937,611436,6114366,67258030,807096361,10492252698,146891537782,2203373066735,35253969067771,599317474152112,10787714534738019,204966576160022369,4099331523200447395,86085961987209395295,1893891163718606696491",
			"name": "Floor(exp(12/23) * n!).",
			"mathematica": [
				"Table[Floor[Exp[12/23]*n!], {n, 50}] (* _Wesley Ivan Hurt_, Nov 26 2013 *)"
			],
			"keyword": "nonn",
			"offset": "1,2",
			"author": "_Simon Plouffe_",
			"references": 0,
			"revision": 9,
			"time": "2013-11-27T14:39:34-05:00",
			"created": "1999-12-11T03:00:00-05:00"
		}
	]
}