{
	"greeting": "Greetings from The On-Line Encyclopedia of Integer Sequences! http://oeis.org/",
	"query": "id:A030721",
	"count": 1,
	"start": 0,
	"results": [
		{
			"number": 30721,
			"data": "1,2,3,4,5,6,7,8,9,11,15,18,20,23,25,30,38,49,62,77,94,110,129,149,172,195,218,241,266,293,323,356,389,424,461,500,545,593,641,688,737,787,839,896,957,1021,1085,1152,1219,1291,1368,1447,1527,1611,1697,1788",
			"name": "Record values in A030717.",
			"keyword": "nonn",
			"offset": "1,2",
			"author": "_Clark Kimberling_",
			"ext": [
				"More terms and simpler title from _Sean A. Irvine_, Apr 08 2020"
			],
			"references": 1,
			"revision": 7,
			"time": "2020-04-08T16:56:11-04:00",
			"created": "1999-12-11T03:00:00-05:00"
		}
	]
}