{
	"greeting": "Greetings from The On-Line Encyclopedia of Integer Sequences! http://oeis.org/",
	"query": "id:A030047",
	"count": 1,
	"start": 0,
	"results": [
		{
			"number": 30047,
			"data": "1,0,0,0,0,1,0,0,0,5,-5,45,-95,50,10,485,-1640,1790,-325,5425,-27510,47160,-27775,66567",
			"name": "Low temperature series for spin-1/2 Ising free energy on 5D simple cubic lattice.",
			"reference": [
				"G. Bhanot, M. Creutz, I. Horvath, J. Lacki and J. Weckel, Series expansions without diagrams, Phys. Rev. E 49 (1994) 2445.",
				"S. R. Finch, Mathematical Constants, Cambridge, 2003, pp. 391-406."
			],
			"link": [
				"Steven R. Finch, \u003ca href=\"http://www.people.fas.harvard.edu/~sfinch/constant/ising/ising.html\"\u003eLenz-Ising Constants\u003c/a\u003e [broken link]",
				"Steven R. Finch, \u003ca href=\"http://web.archive.org/web/20010207201511/http://www.mathsoft.com:80/asolve/constant/ising/ising.html\"\u003eLenz-Ising Constants\u003c/a\u003e [From the Wayback Machine]"
			],
			"keyword": "sign",
			"offset": "0,10",
			"author": "_Steven Finch_",
			"references": 0,
			"revision": 9,
			"time": "2019-04-14T14:43:14-04:00",
			"created": "1999-12-11T03:00:00-05:00"
		}
	]
}