{
	"greeting": "Greetings from The On-Line Encyclopedia of Integer Sequences! http://oeis.org/",
	"query": "id:A030215",
	"count": 1,
	"start": 0,
	"results": [
		{
			"number": 30215,
			"data": "0,1,0,0,0,0,0,0,0,0,-1,0,0,0,0,0,-1,0,0,-1,0,0,0,0,0,1,0,0,0,0,0,-1,0,0,1,0,0,0,0,0,1,0,0,0,0,0,1,0,0,1,0,0,0,0,0,0,0,0,0,0,0,-1,0,0,1,0,0,0,0,0,0,0,0,0,0,0,0,0,0,-1,0",
			"name": "Expansion of eta(q^9)*eta(q^15).",
			"link": [
				"Seiichi Manyama, \u003ca href=\"/A030215/b030215.txt\"\u003eTable of n, a(n) for n = 0..10000\u003c/a\u003e",
				"M. Koike, \u003ca href=\"http://projecteuclid.org/euclid.nmj/1118787564\"\u003eOn McKay's conjecture\u003c/a\u003e, Nagoya Math. J., 95 (1984), 85-89."
			],
			"formula": [
				"Expansion of x * Product_{k\u003e=1} (1 - x^(9*k)) * (1 - x^(15*k)). - _Seiichi Manyama_, Oct 18 2016"
			],
			"mathematica": [
				"eta = QPochhammer;",
				"CoefficientList[q eta[q^9] eta[q^15] + O[q]^100, q] (* _Jean-François Alcover_, Feb 21 2021 *)"
			],
			"xref": [
				"Cf. Expansion of eta(q^k)*eta(q^(24 - k)): A030199 (k=1), A030201 (k=3), A030213 (k=5), A030214 (k=7), this sequence (k=9), A030216 (k=10), A030217 (k=11)."
			],
			"keyword": "sign",
			"offset": "0,1",
			"author": "_N. J. A. Sloane_.",
			"references": 6,
			"revision": 21,
			"time": "2021-02-21T04:05:16-05:00",
			"created": "1999-12-11T03:00:00-05:00"
		}
	]
}