{
	"greeting": "Greetings from The On-Line Encyclopedia of Integer Sequences! http://oeis.org/",
	"query": "id:A030334",
	"count": 1,
	"start": 0,
	"results": [
		{
			"number": 30334,
			"data": "2,8,9,11,13,14,23,32,34,37,40,41,42,45,48,50,51,54,57,59,60,61,63,64,66,67,68,80,92,95,99,103,104,116,128,131,135,139,140,142,146,150,152,154,158,162,164,166,167,170,171,174,175,176",
			"name": "Position of n-th 2 in A003137.",
			"comment": [
				"A003137(a(n)) = 2. - _Reinhard Zumkeller_, Feb 21 2013"
			],
			"link": [
				"Reinhard Zumkeller, \u003ca href=\"/A030334/b030334.txt\"\u003eTable of n, a(n) for n = 1..10000\u003c/a\u003e"
			],
			"program": [
				"(Haskell)",
				"import Data.List (elemIndices)",
				"a030334 n = a030334_list !! (n-1)",
				"a030334_list = map (+ 1) $ elemIndices 2 a003137_list",
				"-- _Reinhard Zumkeller_, Feb 21 2013"
			],
			"xref": [
				"Cf. A030332, A030333, A030338."
			],
			"keyword": "nonn",
			"offset": "1,1",
			"author": "_Clark Kimberling_",
			"references": 4,
			"revision": 9,
			"time": "2013-07-13T12:01:54-04:00",
			"created": "1999-12-11T03:00:00-05:00"
		}
	]
}