{
	"greeting": "Greetings from The On-Line Encyclopedia of Integer Sequences! http://oeis.org/",
	"query": "id:A030938",
	"count": 1,
	"start": 0,
	"results": [
		{
			"number": 30938,
			"data": "2,4,14,59,297,1787,12509,100076,900691,9006917,99076095,1188913146,15455870908,216382192724,3245732890869,51931726253908,882839346316439,15891108233695915,301931056440222386,6038621128804447739",
			"name": "Floor(exp(10/11)*n!).",
			"mathematica": [
				"Floor[Exp[10/11](Range[20]!)] (* _Harvey P. Dale_, Mar 13 2016 *)"
			],
			"keyword": "nonn,easy",
			"offset": "1,1",
			"author": "_Simon Plouffe_",
			"references": 0,
			"revision": 9,
			"time": "2016-03-13T13:02:44-04:00",
			"created": "1999-12-11T03:00:00-05:00"
		}
	]
}