{
	"greeting": "Greetings from The On-Line Encyclopedia of Integer Sequences! http://oeis.org/",
	"query": "id:A031681",
	"count": 1,
	"start": 0,
	"results": [
		{
			"number": 31681,
			"data": "19609,107633,175642,177322,178165,262265,369833,372269,487429,494434,627553,629138,781817,785357,792461,972637,1145429,1149713,1151858,1156154,1166929,1353194,1355521,1360181,1364849,1374209,1376554",
			"name": "Numbers k such that the continued fraction for sqrt(k) has odd period and if the last term of the periodic part is deleted the two central terms are both 93.",
			"keyword": "nonn",
			"offset": "1,1",
			"author": "_David W. Wilson_",
			"ext": [
				"First term 8650 removed by _Georg Fischer_, Jun 16 2019"
			],
			"references": 0,
			"revision": 12,
			"time": "2021-08-18T00:10:32-04:00",
			"created": "1999-12-11T03:00:00-05:00"
		}
	]
}