{
	"greeting": "Greetings from The On-Line Encyclopedia of Integer Sequences! http://oeis.org/",
	"query": "id:A031074",
	"count": 1,
	"start": 0,
	"results": [
		{
			"number": 31074,
			"data": "13,63,66,84,97,104,124,138,148,157,158,179,187,189,198,202,209,212,218,223,228,244,253,259,262,271,294,297,307,308,310,316,327,348,357,358,370,372,373,376,388,394,399,401,420,427,450",
			"name": "Position of n-th 6 in A031067.",
			"keyword": "nonn",
			"offset": "1,1",
			"author": "_Clark Kimberling_",
			"references": 0,
			"revision": 4,
			"time": "2012-03-30T18:56:20-04:00",
			"created": "1999-12-11T03:00:00-05:00"
		}
	]
}