{
	"greeting": "Greetings from The On-Line Encyclopedia of Integer Sequences! http://oeis.org/",
	"query": "id:A031888",
	"count": 1,
	"start": 0,
	"results": [
		{
			"number": 31888,
			"data": "15,25,37,43,87,93,99,105,135,163,195,205,261,267,297,321,361,385,393,409,415,421,477,489,511,529,553,645,673,679,693,717,729,781,867,897,1023,1087,1095,1117,1183,1203,1275,1285,1303,1323,1389",
			"name": "Lucky numbers with size of gaps equal to 6 (lower terms).",
			"link": [
				"Amiram Eldar, \u003ca href=\"/A031888/b031888.txt\"\u003eTable of n, a(n) for n = 1..10000\u003c/a\u003e"
			],
			"xref": [
				"Cf. A000959."
			],
			"keyword": "nonn",
			"offset": "1,1",
			"author": "_Patrick De Geest_",
			"references": 3,
			"revision": 8,
			"time": "2019-11-15T06:28:30-05:00",
			"created": "1999-12-11T03:00:00-05:00"
		}
	]
}