{
	"greeting": "Greetings from The On-Line Encyclopedia of Integer Sequences! http://oeis.org/",
	"query": "id:A031134",
	"count": 1,
	"start": 0,
	"results": [
		{
			"number": 31134,
			"data": "5,7,11,29,59,97,127,223,1151,1361,2203,2521,5639,9601,14143,19661,19681,31469,31477,38543,58889,156007,360769,370373,396871,1357333,1562051,4652507,8917663,20831533,38089453,70396589,72546391,102765847",
			"name": "Upper prime of a record difference between it and the second prime before it.",
			"link": [
				"\u003ca href=\"/A031134/b031134.txt\"\u003eTable of n, a(n) for n = 1..67\u003c/a\u003e"
			],
			"formula": [
				"a(n) = A031133(n) + A031132(n). - _Robert G. Wilson v_"
			],
			"mathematica": [
				"lst = {}; {p, q, r} = {1, 2, 3}; d = 0; Do[{p, q, r} = {q, r, Prime@n}; If[r - p \u003e d, d = r - p; AppendTo[lst, {p, r}]; Print[{p, r-p, r}]], {n, 8050000}]; Last /@ lst (* _Robert G. Wilson v_, May 17 2006 *)"
			],
			"xref": [
				"Cf. A031131, A031132, A031133, A122412, A122413."
			],
			"keyword": "nonn",
			"offset": "1,1",
			"author": "_Jeff Burch_",
			"ext": [
				"Extended (and first term added) by _Patrick De Geest_, Oct 15 2000",
				"Corrected and extended by _Jud McCranie_, Jan 03 2001",
				"a(34)-a(52) from _Jon E. Schoenfield_, Sep 02 2006",
				"Definition corrected by _Jon E. Schoenfield_, Aug 27 2006",
				"a(53)-a(55) added by _Dmitry Kamenetsky_, Jul 28 2008",
				"a(55) corrected, a(56)-a(62) added by _Dmitry Petukhov_, Sep 20 2015",
				"a(63)-a(67) added by _Vladimir Chirkov_ and _Natalia Makarova_, Sep 25 2015, Sep 29 2015"
			],
			"references": 6,
			"revision": 54,
			"time": "2019-10-06T18:01:55-04:00",
			"created": "1999-12-11T03:00:00-05:00"
		}
	]
}