{
	"greeting": "Greetings from The On-Line Encyclopedia of Integer Sequences! http://oeis.org/",
	"query": "id:A031514",
	"count": 1,
	"start": 0,
	"results": [
		{
			"number": 31514,
			"data": "258,262,278,302,322,579,597,633,651,654,669,681,687,717,726,1028,1052,1060,1068,1076,1084,1108,1116,1124,1132,1148,1164,1172,1212,1228,1244,1252,1268,1276,1292,1605,1630,1645,1655,1670,1795,1805,1830,1895,1905",
			"name": "that the continued fraction for sqrt(k) has even period and if the last term of the periodic part is deleted the central term is 16.",
			"mathematica": [
				"cf16Q[n_]:=Module[{s=Sqrt[n],cf,len},cf=If[IntegerQ[s],{1}, ContinuedFraction[ s][[2]]];len=Length[cf];EvenQ[len] \u0026\u0026 cf[[len/2]] == 16]; Select[Range[2000],cf16Q] (* _Harvey P. Dale_, Mar 04 2018 *)"
			],
			"keyword": "nonn",
			"offset": "1,1",
			"author": "_David W. Wilson_",
			"references": 0,
			"revision": 12,
			"time": "2021-08-17T23:48:27-04:00",
			"created": "1999-12-11T03:00:00-05:00"
		}
	]
}