{
	"greeting": "Greetings from The On-Line Encyclopedia of Integer Sequences! http://oeis.org/",
	"query": "id:A031487",
	"count": 1,
	"start": 0,
	"results": [
		{
			"number": 31487,
			"data": "1,2,3,4,5,6,9,10,11,12,13,14,17,18,19,20,21,22,25,26,27,28,29,30,33,34,35,36,37,38,41,42,43,44,45,46,49,50,51,52,53,54,56,71,73,74,75,76,77,78,81,82,83,84,85,86,89,90,91,92,93,94,97",
			"name": "Numbers whose base-8 representation has the same number of 0's as 7's.",
			"mathematica": [
				"Select[Range[100],DigitCount[#,8,0]==DigitCount[#,8,7]\u0026] (* _Harvey P. Dale_, Dec 12 2017 *)"
			],
			"xref": [
				"Cf. A007094."
			],
			"keyword": "nonn,base",
			"offset": "1,2",
			"author": "_Clark Kimberling_",
			"references": 0,
			"revision": 9,
			"time": "2021-07-04T15:54:40-04:00",
			"created": "1999-12-11T03:00:00-05:00"
		}
	]
}