{
	"greeting": "Greetings from The On-Line Encyclopedia of Integer Sequences! http://oeis.org/",
	"query": "id:A031458",
	"count": 1,
	"start": 0,
	"results": [
		{
			"number": 31458,
			"data": "8,17,23,25,44,50,52,62,68,70,74,76,78,107,125,131,133,143,149,151,155,157,159,179,185,187,197,203,205,209,211,213,221,223,227,229,231,235,237,296,314,320,322,350,368,374,376,386,392",
			"name": "Numbers whose base-3 representation has 2 fewer 0's than 2's.",
			"link": [
				"Vincenzo Librandi, \u003ca href=\"/A031458/b031458.txt\"\u003eTable of n, a(n) for n = 1..1000\u003c/a\u003e"
			],
			"mathematica": [
				"Select[Range[400], DigitCount[#,3,0] == DigitCount[#,3,2] - 2\u0026] (* _Harvey P. Dale_, Aug 23 2013 *)"
			],
			"xref": [
				"Cf. A007089."
			],
			"keyword": "nonn,base",
			"offset": "1,1",
			"author": "_Clark Kimberling_",
			"references": 1,
			"revision": 14,
			"time": "2021-07-04T18:29:20-04:00",
			"created": "1999-12-11T03:00:00-05:00"
		}
	]
}