{
	"greeting": "Greetings from The On-Line Encyclopedia of Integer Sequences! http://oeis.org/",
	"query": "id:A031345",
	"count": 1,
	"start": 0,
	"results": [
		{
			"number": 31345,
			"data": "2,3,5,7,14,16,20,22,29,35,40,46,53,55,59,68,74,79,85,92,94,100,107,113,124,170,172,176,178,185,202,209,215,217,230,235,241,250,254,263,269,274,287,289,293,295,352,367,371,373,380,386,391,404,410",
			"name": "Write primes in base 10 but interpret as if in base 13.",
			"mathematica": [
				"FromDigits[IntegerDigits[#],13]\u0026/@Prime[Range[70]]  (* _Harvey P. Dale_, Apr 23 2011 *)"
			],
			"keyword": "nonn,base",
			"offset": "1,1",
			"author": "_Jeff Burch_",
			"references": 0,
			"revision": 9,
			"time": "2013-11-21T12:46:29-05:00",
			"created": "1999-12-11T03:00:00-05:00"
		}
	]
}