{
	"greeting": "Greetings from The On-Line Encyclopedia of Integer Sequences! http://oeis.org/",
	"query": "id:A031857",
	"count": 1,
	"start": 0,
	"results": [
		{
			"number": 31857,
			"data": "88687,93883,108487,123496,137107,152359,173455,181879,190411,219235,220499,222119,225107,226687,245219,247336,253795,254531,265139,293771,296695,299791,301855,302584,303883,313043,314863,319019,319303,349363",
			"name": "Period of continued fraction for sqrt(n) contains exactly 89 ones.",
			"keyword": "nonn",
			"offset": "1,1",
			"author": "_David W. Wilson_",
			"references": 0,
			"revision": 5,
			"time": "2012-03-30T18:35:33-04:00",
			"created": "1999-12-11T03:00:00-05:00"
		}
	]
}