{
	"greeting": "Greetings from The On-Line Encyclopedia of Integer Sequences! http://oeis.org/",
	"query": "id:A031618",
	"count": 1,
	"start": 0,
	"results": [
		{
			"number": 31618,
			"data": "5801,11498,18577,28345,29021,39373,40169,51754,54049,66853,85625,100297,102841,121633,124433,125138,126554,142001,143509,144266,145786,146549,148081,150394,170473,175453,194441,201545,218117,219985,224690",
			"name": "Numbers k such that the continued fraction for sqrt(k) has odd period and if the last term of the periodic part is deleted the two central terms are both 30.",
			"xref": [
				"Subsequence of A003814."
			],
			"keyword": "nonn",
			"offset": "1,1",
			"author": "_David W. Wilson_",
			"ext": [
				"First term 901 removed by _Georg Fischer_, Jun 16 2019"
			],
			"references": 0,
			"revision": 14,
			"time": "2021-08-18T00:10:32-04:00",
			"created": "1999-12-11T03:00:00-05:00"
		}
	]
}