{
	"greeting": "Greetings from The On-Line Encyclopedia of Integer Sequences! http://oeis.org/",
	"query": "id:A031003",
	"count": 1,
	"start": 0,
	"results": [
		{
			"number": 31003,
			"data": "4,16,30,44,49,51,53,55,57,58,59,61,72,86,105,126,147,168,176,179,182,185,188,189,191,194,210,231,252,273,294,315,323,326,329,332,335,336,338,341,357,378,399,420,441,462,470,473,476",
			"name": "Position of n-th 4 in A030998.",
			"mathematica": [
				"Flatten[Position[Flatten[IntegerDigits[#,7]\u0026/@Range[0,200]],4]]-1 (* _Harvey P. Dale_, May 06 2014 *)"
			],
			"keyword": "nonn",
			"offset": "1,1",
			"author": "_Clark Kimberling_",
			"references": 0,
			"revision": 6,
			"time": "2014-05-06T15:30:51-04:00",
			"created": "1999-12-11T03:00:00-05:00"
		}
	]
}