{
	"greeting": "Greetings from The On-Line Encyclopedia of Integer Sequences! http://oeis.org/",
	"query": "id:A031176",
	"count": 1,
	"start": 0,
	"results": [
		{
			"number": 31176,
			"data": "1,1,8,8,8,8,8,1,8,8,1,8,8,1,8,8,8,8,8,1,8,8,8,1,8,8,8,8,1,8,8,1,1,8,8,8,8,8,8,8,8,8,8,8,1,8,8,8,8,1,8,8,8,8,8,8,8,8,8,8,8,8,8,8,8,8,8,8,1,8,1,8,8,8,8,8,8,8,8,1,8,8,1,8,8,8,1,8,8,8,8,1,8,8,1,8,8,1,8,8",
			"name": "Periods of sum of squares of digits iterated until the sequence becomes periodic.",
			"link": [
				"Eric Weisstein's World of Mathematics, \u003ca href=\"http://mathworld.wolfram.com/Digitaddition.html\"\u003eDigit addition.\u003c/a\u003e"
			],
			"xref": [
				"Cf. A003132, A099645. [From _R. J. Mathar_, May 31 2009]"
			],
			"keyword": "nonn,base",
			"offset": "0,3",
			"author": "_Eric W. Weisstein_",
			"ext": [
				"The value a(0)=1 was added by _R. J. Mathar_, May 31 2009"
			],
			"references": 17,
			"revision": 11,
			"time": "2012-12-20T16:52:49-05:00",
			"created": "1999-12-11T03:00:00-05:00"
		}
	]
}