{
	"greeting": "Greetings from The On-Line Encyclopedia of Integer Sequences! http://oeis.org/",
	"query": "id:A031127",
	"count": 1,
	"start": 0,
	"results": [
		{
			"number": 31127,
			"data": "4,11,28,56,108,188,322,521,830,1278,1940,2875,4214,6065,8643,12150,16932,23335,31920,43263,58249,77824,103361,136370,178974,233531,303267,391830,504068,645519,823418,1046066,1324135,1669949,2099103",
			"name": "Number of proper factorizations of p1^n*p2^4, where p1 and p2 are distinct primes.",
			"link": [
				"Ray Chandler, \u003ca href=\"/A031127/b031127.txt\"\u003eTable of n, a(n) for n = 0..100\u003c/a\u003e"
			],
			"formula": [
				"a(n) = A000465(n) - 1 = A028422(2^n*3^4). - _Ray Chandler_, May 01 2017"
			],
			"xref": [
				"Cf. A000465, A028422."
			],
			"keyword": "nonn",
			"offset": "0,1",
			"author": "_Jeff Burch_",
			"ext": [
				"Offset changed to 0 and more terms added by _Ray Chandler_, May 01 2017"
			],
			"references": 1,
			"revision": 10,
			"time": "2017-05-01T15:11:28-04:00",
			"created": "1999-12-11T03:00:00-05:00"
		}
	]
}