{
	"greeting": "Greetings from The On-Line Encyclopedia of Integer Sequences! http://oeis.org/",
	"query": "id:A031319",
	"count": 1,
	"start": 0,
	"results": [
		{
			"number": 31319,
			"data": "56,58,60,62,64,187,190,193,196,199,337,340,343,346,349,487,490,493,496,499,637,640,643,646,649,787,790,793,796,799,846,849,852,855,858,861,864,867,870,873,876,879,882,885,888,891,894",
			"name": "Position of n-th 6 in A031312.",
			"keyword": "nonn",
			"offset": "1,1",
			"author": "_Clark Kimberling_",
			"references": 0,
			"revision": 4,
			"time": "2012-03-30T18:56:23-04:00",
			"created": "1999-12-11T03:00:00-05:00"
		}
	]
}