{
	"greeting": "Greetings from The On-Line Encyclopedia of Integer Sequences! http://oeis.org/",
	"query": "id:A031230",
	"count": 1,
	"start": 0,
	"results": [
		{
			"number": 31230,
			"data": "1,1,1,2,1,1,1,2,1,1,1,1,1,1,1,1,2,1,1,1,1,1,1,1,1,2,1,1,1,1,1,1,1,1,3,1,1,1,1,2,1,1,1,1,2,1,1,1,1,2,1,1,1,1,3,2,2,2,3,1,1,1,1,1,1,1,1,2,1,1,1,1,1,1,1,1,2,1,1,1,1,1,1,1,1,2,1",
			"name": "Length of n-th run of digit 4 in A031219.",
			"keyword": "nonn,base",
			"offset": "1,4",
			"author": "_Clark Kimberling_",
			"ext": [
				"a(86) corrected by _Sean A. Irvine_, Apr 16 2020"
			],
			"references": 0,
			"revision": 12,
			"time": "2020-04-17T02:50:48-04:00",
			"created": "1999-12-11T03:00:00-05:00"
		}
	]
}