{
	"greeting": "Greetings from The On-Line Encyclopedia of Integer Sequences! http://oeis.org/",
	"query": "id:A031984",
	"count": 1,
	"start": 0,
	"results": [
		{
			"number": 31984,
			"data": "2524,2525,2526,2530,2532,2533,2537,2538,2540,2544,2545,2546,2566,2567,2568,2578,2581,2582,2585,2587,2589,2592,2594,2595,2614,2616,2617,2620,2623,2624,2634,2635,2638,2641,2642,2644",
			"name": "Numbers with exactly five distinct base-7 digits.",
			"link": [
				"Harvey P. Dale, \u003ca href=\"/A031984/b031984.txt\"\u003eTable of n, a(n) for n = 1..10000\u003c/a\u003e"
			],
			"mathematica": [
				"Select[Range[2700],Length[Union[IntegerDigits[#,7]]]==5\u0026] (* _Harvey P. Dale_, Feb 11 2020 *)"
			],
			"xref": [
				"Cf. A007093."
			],
			"keyword": "nonn,base",
			"offset": "1,1",
			"author": "_Clark Kimberling_",
			"references": 1,
			"revision": 16,
			"time": "2021-08-10T14:52:58-04:00",
			"created": "1999-12-11T03:00:00-05:00"
		}
	]
}