{
	"greeting": "Greetings from The On-Line Encyclopedia of Integer Sequences! http://oeis.org/",
	"query": "id:A031235",
	"count": 1,
	"start": 0,
	"results": [
		{
			"number": 31235,
			"data": "0,1,2,3,4,0,1,1,1,2,1,3,1,4,1,0,2,1,2,2,2,3,2,4,2,0,3,1,3,2,3,3,3,4,3,0,4,1,4,2,4,3,4,4,4,0,0,1,1,0,1,2,0,1,3,0,1,4,0,1,0,1,1,1,1,1,2,1,1,3,1,1,4,1,1,0,2,1,1,2,1,2,2,1,3,2,1,4,2,1,0",
			"name": "Triangle T(n,k): write n in base 5, reverse order of digits.",
			"link": [
				"Reinhard Zumkeller, \u003ca href=\"/A031235/b031235.txt\"\u003eRows n = 0..1000 of triangle, flattened\u003c/a\u003e"
			],
			"mathematica": [
				"Reverse[IntegerDigits[#,5]]\u0026/@Range[0,40]//Flatten (* _Harvey P. Dale_, Aug 02 2016 *)"
			],
			"program": [
				"(PARI) A031235(n, k=-1)=/*k\u003c0\u0026\u0026error(\"Flattened sequence not yet implemented.\")*/n\\5^k%5 \\\\ Assuming that columns are numbered starting with k=0 as in A030308, A030341, ... - _M. F. Hasler_, Jul 21 2013",
				"(Haskell)",
				"a031235 n k = a031235_tabf !! n !! k",
				"a031235_row n = a031235_tabf !! n",
				"a031235_tabf = iterate succ [0] where",
				"   succ []     = [1]",
				"   succ (4:ts) = 0 : succ ts",
				"   succ (t:ts) = (t + 1) : ts",
				"-- _Reinhard Zumkeller_, Sep 18 2015"
			],
			"xref": [
				"Cf. A030308, A030341, A030386, A030567, A031007, A031045, A031087, A031298 for the base-2 to base-10 analogs.",
				"Cf. A007091."
			],
			"keyword": "nonn,base,tabf,less",
			"offset": "0,3",
			"author": "_Clark Kimberling_",
			"ext": [
				"Initial 0 and better name by _Philippe Deléham_, Oct 20 2011"
			],
			"references": 26,
			"revision": 27,
			"time": "2020-04-17T07:20:15-04:00",
			"created": "1999-12-11T03:00:00-05:00"
		}
	]
}