{
	"greeting": "Greetings from The On-Line Encyclopedia of Integer Sequences! http://oeis.org/",
	"query": "id:A031754",
	"count": 1,
	"start": 0,
	"results": [
		{
			"number": 31754,
			"data": "1445,5778,12999,23108,36105,51990,70763,92424,116973,144410,174735,207948,244049,283038,324915,369680,417333,467874,521303,577620,636825,698918,763899,831768,902525,976170,1052703,1132124,1214433,1299630",
			"name": "Numbers k such that the least term in the periodic part of the continued fraction for sqrt(k) is 76.",
			"link": [
				"Charles R Greathouse IV, \u003ca href=\"/A031754/b031754.txt\"\u003eTable of n, a(n) for n = 1..10000\u003c/a\u003e"
			],
			"keyword": "nonn",
			"offset": "1,1",
			"author": "_David W. Wilson_",
			"references": 1,
			"revision": 10,
			"time": "2021-07-15T22:15:23-04:00",
			"created": "1999-12-11T03:00:00-05:00"
		}
	]
}