{
	"greeting": "Greetings from The On-Line Encyclopedia of Integer Sequences! http://oeis.org/",
	"query": "id:A031980",
	"count": 1,
	"start": 0,
	"results": [
		{
			"number": 31980,
			"data": "1,2,3,4,5,6,7,8,10,11,12,13,14,15,16,17,18,19,20,21,22,23,24,25,26,27,29,30,31,32,33,34,36,37,38,39,40,41,42,43,44,45,46,47,48,49,50,51,52,53,54,55,56,57,58,59,60,61,62,63,64,66,67,68,69,70,71,73,74,75,76,77",
			"name": "a(n) = smallest number \u003e= 1 not occurring earlier and not the sum of cubes of two distinct earlier terms.",
			"reference": [
				"Mihaly Bencze [Beneze], Smarandache recurrence type sequences, Bulletin of pure and applied sciences, Vol. 16E, No. 2, 1997, pp. 231-236.",
				"F. Smarandache, Properties of numbers, ASU Special Collections, 1973."
			],
			"link": [
				"Klaus Brockhaus, \u003ca href=\"/A031980/b031980.txt\"\u003eTable of n, a(n) for n = 1..4900\u003c/a\u003e",
				"F. Smarandache, \u003ca href=\"http://www.gallup.unm.edu/~smarandache/Sequences-book.pdf\"\u003eSequences of Numbers Involved in Unsolved Problems\u003c/a\u003e.",
				"Eric Weisstein's World of Mathematics, \u003ca href=\"http://mathworld.wolfram.com/SmarandacheSequences.html\"\u003eSmarandache Sequences\u003c/a\u003e"
			],
			"mathematica": [
				"A031980 = {1}; Do[ m = Ceiling[(n-1)^(1/3)]; s = Select[ A031980, # \u003c= m \u0026]; ls = Length[s]; sumOfCubes = Union[ Flatten[ Table[ s[[i]]^3 + s[[j]]^3, {i, 1, ls}, {j, i+1, ls}]]]; If[ FreeQ[ sumOfCubes, n], AppendTo[ A031980, n] ], {n, 2, 77}]; A031980 (* _Jean-François Alcover_, Dec 14 2011 *)"
			],
			"program": [
				"(MAGMA) m:=77; a:=[]; a2:={}; for n in [1..m] do p:=1; u:= a2 join { x: x in a }; while p in u do p:=p+1; end while; if p gt m then break; end if; a2:=a2 join { x^3 + p^3: x in a | x^3 + p^3 le m }; Append(~a,p); end for; print a; /* Klaus Brockhaus, Jul 16 2008 */"
			],
			"xref": [
				"Cf. A024670 (sums of cubes of two distinct positive integers), A001235 (sums of two cubes in more than one way), A141805 (complement)."
			],
			"keyword": "nonn,nice,easy",
			"offset": "1,2",
			"author": "J. Castillo (arp(AT)cia-g.com) [Broken email address?]",
			"ext": [
				"More terms from Larry Reeves (larryr(AT)acm.org), Sep 26 2000",
				"Better definition from _Klaus Brockhaus_, Jul 16 2008"
			],
			"references": 6,
			"revision": 18,
			"time": "2014-02-21T22:56:57-05:00",
			"created": "1999-12-11T03:00:00-05:00"
		}
	]
}