{
	"greeting": "Greetings from The On-Line Encyclopedia of Integer Sequences! http://oeis.org/",
	"query": "id:A031057",
	"count": 1,
	"start": 0,
	"results": [
		{
			"number": 31057,
			"data": "1,3,5,7,1,1,1,3,1,5,1,7,2,1,2,3,2,5,2,7,3,1,3,3,3,5,3,7,4,1,4,3,4,5,4,7,5,1,5,3,5,5,5,7,6,1,6,3,6,5,6,7,7,1,7,3,7,5,7,7,1,0,1,1,0,3,1,0,5,1,0,7,1,1,1,1,1,3,1,1,5,1,1,7,1,2,1,1,2,3",
			"name": "Write 2n-1 in base 8 and juxtapose.",
			"keyword": "nonn,base",
			"offset": "1,2",
			"author": "_Clark Kimberling_",
			"references": 9,
			"revision": 5,
			"time": "2012-03-30T18:56:20-04:00",
			"created": "1999-12-11T03:00:00-05:00"
		}
	]
}