{
	"greeting": "Greetings from The On-Line Encyclopedia of Integer Sequences! http://oeis.org/",
	"query": "id:A031228",
	"count": 1,
	"start": 0,
	"results": [
		{
			"number": 31228,
			"data": "1,1,1,1,3,1,1,1,1,1,1,1,2,1,1,1,1,1,1,1,2,1,1,1,1,2,1,2,2,5,2,1,1,1,2,1,1,1,1,2,1,1,1,1,1,2,1,1,1,1,1,1,1,1,2,1,1,1,1,1,1,1,1,2,1,1,1,1,1,1,1,1,2,1,1,1,1,1,1,1,1,1,1,1,1,1,1,1,1,2",
			"name": "Length of n-th run of digit 2 in A031219.",
			"mathematica": [
				"Length/@(If[MemberQ[#,2],#,Nothing]\u0026/@Split[Flatten[ IntegerDigits[ Range[ 400],5]]]) (* _Harvey P. Dale_, Dec 19 2021 *)"
			],
			"keyword": "nonn,base",
			"offset": "1,5",
			"author": "_Clark Kimberling_",
			"references": 0,
			"revision": 8,
			"time": "2021-12-19T16:33:01-05:00",
			"created": "1999-12-11T03:00:00-05:00"
		}
	]
}