{
	"greeting": "Greetings from The On-Line Encyclopedia of Integer Sequences! http://oeis.org/",
	"query": "id:A031216",
	"count": 1,
	"start": 0,
	"results": [
		{
			"number": 31216,
			"data": "2,3,5,7,12,14,18,20,25,31,34,40,45,47,51,58,64,67,73,78,80,86,91,97,106,122,124,128,130,135,150,155,161,163,174,177,183,190,194,201,207,210,221,223,227,229,254,267,271,273,278,284,287,298,304,311",
			"name": "Write primes in base 10 but interpret as if in base 11.",
			"example": [
				"13 = 11+2 -\u003e 12, so 5th term is 12."
			],
			"keyword": "nonn,base",
			"offset": "1,1",
			"author": "_Jeff Burch_",
			"ext": [
				"a(25) corrected by _Sean A. Irvine_, Apr 16 2020"
			],
			"references": 0,
			"revision": 6,
			"time": "2020-04-16T22:37:16-04:00",
			"created": "1999-12-11T03:00:00-05:00"
		}
	]
}