{
	"greeting": "Greetings from The On-Line Encyclopedia of Integer Sequences! http://oeis.org/",
	"query": "id:A031533",
	"count": 1,
	"start": 0,
	"results": [
		{
			"number": 31533,
			"data": "1227,1231,1251,1259,1279,1283,1291,1303,1307,1319,1327,1331,1343,1347,1367,4904,4992,5000,5024,5032,5088,5120,5152,5216,5224,5248,5280,5288,5312,5376,5408,5416,5440,5472,11031,11103,11175,11319,11379,11391,11463",
			"name": "that the continued fraction for sqrt(k) has even period and if the last term of the periodic part is deleted the central term is 35.",
			"keyword": "nonn",
			"offset": "1,1",
			"author": "_David W. Wilson_",
			"references": 0,
			"revision": 10,
			"time": "2021-08-17T23:48:27-04:00",
			"created": "1999-12-11T03:00:00-05:00"
		}
	]
}