{
	"greeting": "Greetings from The On-Line Encyclopedia of Integer Sequences! http://oeis.org/",
	"query": "id:A031195",
	"count": 1,
	"start": 0,
	"results": [
		{
			"number": 31195,
			"data": "1,1,10,30,30,30,10,10,10,3,1,10,10,3,10,10,30,10,30,10,10,10,30,10,10,10,10,10,10,30,30,3,10,30,30,10,10,3,30,3,30,10,10,30,30,10,10,10,30,3,30,10,10,10,10,10,10,3,30,30,10,30,10,10,10,10,10,10,10,30",
			"name": "Periods of sum of 6th powers of digits iterated until the sequence becomes periodic.",
			"link": [
				"Eric Weisstein's World of Mathematics, \u003ca href=\"http://mathworld.wolfram.com/Digitaddition.html\"\u003eDigitaddition\u003c/a\u003e"
			],
			"keyword": "nonn,base",
			"offset": "0,3",
			"author": "_Eric W. Weisstein_",
			"ext": [
				"Missing a(0)=1 inserted by _Sean A. Irvine_, Apr 14 2020"
			],
			"references": 0,
			"revision": 11,
			"time": "2020-04-14T19:57:29-04:00",
			"created": "1999-12-11T03:00:00-05:00"
		}
	]
}