{
	"greeting": "Greetings from The On-Line Encyclopedia of Integer Sequences! http://oeis.org/",
	"query": "id:A032830",
	"count": 1,
	"start": 0,
	"results": [
		{
			"number": 32830,
			"data": "3,4,21,22,27,28,129,130,135,136,165,166,171,172,777,778,783,784,813,814,819,820,993,994,999,1000,1029,1030,1035,1036,4665,4666,4671,4672,4701,4702,4707,4708,4881,4882,4887,4888,4917",
			"name": "Numbers whose set of base-6 digits is {3,4}.",
			"link": [
				"Vincenzo Librandi, \u003ca href=\"/A032830/b032830.txt\"\u003eTable of n, a(n) for n = 1..1000\u003c/a\u003e",
				"\u003ca href=\"/index/Ar#6-automatic\"\u003eIndex entries for 6-automatic sequences\u003c/a\u003e."
			],
			"mathematica": [
				"Flatten[Table[FromDigits[#,6]\u0026/@Tuples[{3,4},n],{n,5}]] (* _Vincenzo Librandi_, May 30 2012"
			],
			"program": [
				"(MAGMA) [n: n in [1..5000] | Set(IntegerToSequence(n, 6)) subset {3, 4}]; // _Vincenzo Librandi_, May 30 2012"
			],
			"keyword": "nonn,base,easy",
			"offset": "1,1",
			"author": "_Clark Kimberling_",
			"references": 1,
			"revision": 13,
			"time": "2021-08-22T00:33:45-04:00",
			"created": "1999-12-11T03:00:00-05:00"
		}
	]
}