{
	"greeting": "Greetings from The On-Line Encyclopedia of Integer Sequences! http://oeis.org/",
	"query": "id:A032158",
	"count": 1,
	"start": 0,
	"results": [
		{
			"number": 32158,
			"data": "1,1,2,5,8,17,34,63,130,255,512,1011,2054,4057,7990,16261,31870,63341,124692,247123,487028,952439,1866764,3640427,7134760,13808661,26792704,51847089,100150988,192939285,370315400",
			"name": "\"CGK\" (necklace, element, unlabeled) transform of 1,2,3,4,...",
			"link": [
				"Andrew Howroyd, \u003ca href=\"/A032158/b032158.txt\"\u003eTable of n, a(n) for n = 0..1000\u003c/a\u003e",
				"\u003ca href=\"/index/Lu#Lyndon\"\u003eIndex entries for sequences related to Lyndon words\u003c/a\u003e",
				"C. G. Bower, \u003ca href=\"/transforms2.html\"\u003eTransforms (2)\u003c/a\u003e"
			],
			"program": [
				"(PARI) seq(n)=[subst(serlaplace(p/y),y,1) | p \u003c- Vec(y-1+prod(k=1, n, (1 + x^k*y + O(x*x^n))^k))] \\\\ _Andrew Howroyd_, Sep 13 2018"
			],
			"keyword": "nonn",
			"offset": "0,3",
			"author": "_Christian G. Bower_",
			"references": 1,
			"revision": 9,
			"time": "2018-09-13T15:46:35-04:00",
			"created": "1999-12-11T03:00:00-05:00"
		}
	]
}