{
	"greeting": "Greetings from The On-Line Encyclopedia of Integer Sequences! http://oeis.org/",
	"query": "id:A032888",
	"count": 1,
	"start": 0,
	"results": [
		{
			"number": 32888,
			"data": "1,2,3,4,5,6,7,8,9,18,19,27,28,29,36,37,38,39,45,46,47,48,49,54,55,56,57,58,59,63,64,65,66,67,68,69,72,73,74,75,76,77,78,79,99,100,108,109,110,117,118,119,120,126,127,128,129,130,135",
			"name": "Numbers whose base-9 representation Sum_{i=0..m} d(i)*9^i has d(0) \u003c d(1) \u003e d(2) \u003c ...",
			"xref": [
				"Different from A032864."
			],
			"keyword": "nonn,base",
			"offset": "1,2",
			"author": "_Clark Kimberling_",
			"references": 1,
			"revision": 10,
			"time": "2021-02-12T21:37:48-05:00",
			"created": "1999-12-11T03:00:00-05:00"
		}
	]
}