{
	"greeting": "Greetings from The On-Line Encyclopedia of Integer Sequences! http://oeis.org/",
	"query": "id:A032608",
	"count": 1,
	"start": 0,
	"results": [
		{
			"number": 32608,
			"data": "14,25,36,47,58,69,710,811,912,1013,1114,1215,1316,1417,1518,1619,1720,1821,1922,2023,2124,2225,2326,2427,2528,2629,2730,2831,2932,3033,3134,3235,3336,3437,3538,3639,3740,3841,3942,4043,4144,4245",
			"name": "Concatenation of n and n + 3.",
			"formula": [
				"a(n) = n*10^floor(log_10(n+3)+1) + n + 3, with n \u003e= 1. - _Paolo P. Lava_, Oct 09 2008"
			],
			"mathematica": [
				"Table[FromDigits[Join[IntegerDigits[n],IntegerDigits[n+3]]],{n,50}] (* _Harvey P. Dale_, Jul 11 2011 *)",
				"#[[1]]*10^IntegerLength[#[[2]]]+#[[2]]\u0026/@Table[{n,n+3},{n,50}] (* _Harvey P. Dale_, May 21 2018 *)"
			],
			"xref": [
				"Cf. A001704, A020338."
			],
			"keyword": "nonn,base",
			"offset": "1,1",
			"author": "_Patrick De Geest_, May 15 1998",
			"references": 2,
			"revision": 15,
			"time": "2019-12-07T08:17:03-05:00",
			"created": "1999-12-11T03:00:00-05:00"
		}
	]
}