{
	"greeting": "Greetings from The On-Line Encyclopedia of Integer Sequences! http://oeis.org/",
	"query": "id:A032795",
	"count": 1,
	"start": 0,
	"results": [
		{
			"number": 32795,
			"data": "8,18,56,126,176,312,504,624,918,1292,1512,2024,2640,2990,3780,4698,5208,6336,7616,8316,9842,11544,12464,14448,16632,17802,20304,23030,24480,27560,30888,32648,36366,40356,42456,46872,51584,54054,59228",
			"name": "Positive numbers k such that (k+1)*(k+2)*(k+3)*(k+4)/(k+(k+1)+(k+2)+(k+3)+(k+4)) is an integer.",
			"link": [
				"\u003ca href=\"/index/Rec#order_10\"\u003eIndex entries for linear recurrences with constant coefficients\u003c/a\u003e, signature (1,0,3,-3,0,-3,3,0,1,-1)."
			],
			"formula": [
				"a(n) = A032794(n)/A032793(n).",
				"O.g.f.: 2*x*(4+5*x+19*x^2+23*x^3+10*x^4+11*x^5+3*x^6)/((1-x)^4* (1+x+x^2)^3). [Corrected by _Georg Fischer_, May 27 2019]"
			],
			"mathematica": [
				"CoefficientList[Series[2*x*(4+5x+19x^2+23x^3+10x^4+11x^5+3x^6)/((1-x)^4*(1+x+x^2)^3), {x, 0, 39}], x] (* _Georg Fischer_, May 27 2019 *)"
			],
			"program": [
				"(PARI) Vec(2*x*(4+5*x+19*x^2+23*x^3+10*x^4+11*x^5+3*x^6)/((1-x)^4*(1+x+x^2)^3) + O(x^20)) \\\\ _Felix Fröhlich_, May 27 2019",
				"(MAGMA) R\u003cx\u003e:=PowerSeriesRing(Integers(), 30); Coefficients(R!( 2*x*(4+ 5*x +19*x^2+23*x^3+10*x^4+11*x^5+3*x^6)/((1-x)*(1-x^3)^3) )); // _G. C. Greubel_, May 29 2019",
				"(Sage) a=(2*x*(4+ 5*x +19*x^2+23*x^3+10*x^4+11*x^5+3*x^6)/((1-x)*(1-x^3)^3) ).series(x, 30).coefficients(x, sparse=False); a[1:] # _G. C. Greubel_, May 29 2019"
			],
			"xref": [
				"Cf. A032793, A032794."
			],
			"keyword": "nonn,easy",
			"offset": "1,1",
			"author": "_Patrick De Geest_, May 15 1998",
			"ext": [
				"Definition amended and offset changed by _Georg Fischer_, May 27 2019"
			],
			"references": 2,
			"revision": 19,
			"time": "2019-05-29T15:11:04-04:00",
			"created": "1999-12-11T03:00:00-05:00"
		}
	]
}