{
	"greeting": "Greetings from The On-Line Encyclopedia of Integer Sequences! http://oeis.org/",
	"query": "id:A032260",
	"count": 1,
	"start": 0,
	"results": [
		{
			"number": 32260,
			"data": "2,16,102,528,2470,11016,47950,205792,874998,3694920,15519262,64899456,270415262,1123264408,4653525150,19234571968,79342610902,326704870152,1343120023678,5513861152000,22606830725598,92580354402712,378737813468542,1547884976787648",
			"name": "Number of n X n (0,1) matrices such that each row and each column is nondecreasing or nonincreasing.",
			"link": [
				"Eric M. Schmidt, \u003ca href=\"/A032260/b032260.txt\"\u003eTable of n, a(n) for n = 1..1000\u003c/a\u003e",
				"Don Coppersmith, \u003ca href=\"http://domino.research.ibm.com/Comm/wwwr_ponder.nsf/challenges/March2004.html\"\u003ePonder This: IBM Research Monthly Puzzles, March challenge\u003c/a\u003e"
			],
			"formula": [
				"a(n) = 2*n*(binomial(2*n, n)-n). G.f.: 4*x/(1-4*x)^(3/2)-2*x*(1+x)/(1-x)^3. - _Vladimir Baltic_ and _Vladeta Jovovic_, Jul 10 2003"
			],
			"xref": [
				"The number of n X n 0, 1 matrices such that each row and each column is increasing is in sequence A000984.",
				"Cf. A000984, A062528, A045992, A016742, A086113 - A086115."
			],
			"keyword": "nonn",
			"offset": "1,1",
			"author": "Yuval Dekel (dekelyuval(AT)hotmail.com), Jun 25 2003",
			"ext": [
				"Extended by _Vladimir Baltic_ and _Vladeta Jovovic_, Jul 10 2003",
				"More terms from _Eric M. Schmidt_, May 01 2013"
			],
			"references": 5,
			"revision": 15,
			"time": "2015-01-02T11:36:37-05:00",
			"created": "1999-12-11T03:00:00-05:00"
		}
	]
}