{
	"greeting": "Greetings from The On-Line Encyclopedia of Integer Sequences! http://oeis.org/",
	"query": "id:A032124",
	"count": 1,
	"start": 0,
	"results": [
		{
			"number": 32124,
			"data": "2,5,12,33,90,261,756,2241,6642,19845,59292,177633,532170,1595781,4785156,14353281,43053282,129153285,387440172,1162300833,3486843450,10460471301,31381236756,94143533121,282430067922,847289672325,2541867422652,7625600673633",
			"name": "\"BIK\" (reversible, indistinct, unlabeled) transform of 2,2,2,2...",
			"link": [
				"Vincenzo Librandi, \u003ca href=\"/A032124/b032124.txt\"\u003eTable of n, a(n) for n = 1..1000\u003c/a\u003e",
				"C. G. Bower, \u003ca href=\"/transforms2.html\"\u003eTransforms (2)\u003c/a\u003e",
				"\u003ca href=\"/index/Rec\"\u003eIndex entries for linear recurrences with constant coefficients\u003c/a\u003e, signature (3,3,-9)."
			],
			"formula": [
				"a(n) = (1/6)*((5-(-1)^n)*3^floor(n/2) + 2*3^n). - _Ralf Stephan_, May 11 2004",
				"a(n) = 3*a(n-1)+3*a(n-2)-9*a(n-3). G.f.: -x*(9*x^2+x-2) / ((3*x-1)*(3*x^2-1)). - _Colin Barker_, Dec 15 2012"
			],
			"mathematica": [
				"CoefficientList[Series[-(9 x^2 + x - 2)/((3 x - 1) (3 x^2 - 1)), {x, 0, 30}], x] (* _Vincenzo Librandi_, Oct 19 2013 *)"
			],
			"program": [
				"(MAGMA) [(1/6)*((5-(-1)^n)*3^Floor(n/2) + 2*3^n): n in [1..30]]; // _Vincenzo Librandi_, Oct 19 2013"
			],
			"keyword": "nonn,easy",
			"offset": "1,1",
			"author": "_Christian G. Bower_",
			"ext": [
				"More terms from _Vincenzo Librandi_, Oct 19 2013"
			],
			"references": 1,
			"revision": 23,
			"time": "2015-06-13T00:49:11-04:00",
			"created": "1999-12-11T03:00:00-05:00"
		}
	]
}