{
	"greeting": "Greetings from The On-Line Encyclopedia of Integer Sequences! http://oeis.org/",
	"query": "id:A032837",
	"count": 1,
	"start": 0,
	"results": [
		{
			"number": 32837,
			"data": "3,4,42,43,55,56,549,550,562,563,718,719,731,732,7140,7141,7153,7154,7309,7310,7322,7323,9337,9338,9350,9351,9506,9507,9519,9520,92823,92824,92836,92837,92992,92993,93005,93006,95020,95021",
			"name": "Numbers whose set of base-13 digits is {3,4}.",
			"link": [
				"Vincenzo Librandi, \u003ca href=\"/A032837/b032837.txt\"\u003eTable of n, a(n) for n = 1..1000\u003c/a\u003e",
				"\u003ca href=\"/index/Ar#13-automatic\"\u003eIndex entries for 13-automatic sequences\u003c/a\u003e."
			],
			"mathematica": [
				"Flatten[Table[FromDigits[#,13]\u0026/@Tuples[{3,4},n],{n,5}]] (* _Vincenzo Librandi_, May 31 2012 *)"
			],
			"program": [
				"(MAGMA) [n: n in [1..100000] | Set(IntegerToSequence(n, 13)) subset {3, 4}]; // _Vincenzo Librandi_, May 31 2012"
			],
			"keyword": "nonn,base,easy",
			"offset": "1,1",
			"author": "_Clark Kimberling_",
			"references": 1,
			"revision": 15,
			"time": "2021-08-22T01:28:41-04:00",
			"created": "1999-12-11T03:00:00-05:00"
		}
	]
}