{
	"greeting": "Greetings from The On-Line Encyclopedia of Integer Sequences! http://oeis.org/",
	"query": "id:A032341",
	"count": 1,
	"start": 0,
	"results": [
		{
			"number": 32341,
			"data": "1,2,3,4,5,6,10,11,12,15,16,17,18,20,21,22,23,24,25,30,31,50,55,56,60,61,62,75,80,81,85,86,87,90,91,92,93,100,105,106,110,111,112",
			"name": "Duplicate of A023761.",
			"link": [
				"\u003ca href=\"/A032341/b032341.txt\"\u003eTable of n, a(n) for n = 1..43\u003c/a\u003e"
			],
			"xref": [
				"Cf. A000225, A023745, ..., A023757 (nondecreasing digits in base 2, 3, ..., 16).",
				"Cf. A023758, A023759, ..., A023771 (nonincreasing digits in base 2, 3, ..., 16)."
			],
			"keyword": "dead",
			"offset": "1,2",
			"references": 1,
			"revision": 20,
			"time": "2020-05-05T12:08:47-04:00",
			"created": "1999-12-11T03:00:00-05:00"
		}
	]
}