{
	"greeting": "Greetings from The On-Line Encyclopedia of Integer Sequences! http://oeis.org/",
	"query": "id:A032776",
	"count": 1,
	"start": 0,
	"results": [
		{
			"number": 32776,
			"data": "0,180,1152,4320,29700,63360,123552,224640,386100,633600,1527552,2267460,3283200,4651200,6462720,8825652,15732000,20592000,26640900,34100352,43221600,54288000,83566080,102529152,124945920,151301700",
			"name": "Integer quotients n(n+1)(n+2)...(n+6) / (n+(n+1)+(n+2)+...+(n+6)).",
			"comment": [
				"S(A016873) = (5n+2) gives values n so that above divisions end with digit '2'."
			],
			"mathematica": [
				"f[n_]:=Module[{r=Range[0,6]+n},Times@@r/Total[r]]; Select[f/@Range[0,50], IntegerQ]  (* _Harvey P. Dale_, Mar 20 2011 *)"
			],
			"xref": [
				"Cf. A032774, A032775."
			],
			"keyword": "nonn",
			"offset": "0,2",
			"author": "_Patrick De Geest_, May 15 1998",
			"references": 2,
			"revision": 9,
			"time": "2016-08-06T09:55:17-04:00",
			"created": "1999-12-11T03:00:00-05:00"
		}
	]
}