{
	"greeting": "Greetings from The On-Line Encyclopedia of Integer Sequences! http://oeis.org/",
	"query": "id:A032078",
	"count": 1,
	"start": 0,
	"results": [
		{
			"number": 32078,
			"data": "3,9,84,1353,24618,535122,13177587,370392657,11624145978,405212195604,15506995605357,647330629401534,29258665730749029,1424158024377474255,74261352697327011864,4130415517652786968257",
			"name": "\"BHJ\" (reversible, identity, labeled) transform of 3,3,3,3...",
			"link": [
				"C. G. Bower, \u003ca href=\"/transforms2.html\"\u003eTransforms (2)\u003c/a\u003e"
			],
			"keyword": "nonn",
			"offset": "1,1",
			"author": "_Christian G. Bower_",
			"references": 0,
			"revision": 5,
			"time": "2012-03-30T17:37:01-04:00",
			"created": "1999-12-11T03:00:00-05:00"
		}
	]
}