{
	"greeting": "Greetings from The On-Line Encyclopedia of Integer Sequences! http://oeis.org/",
	"query": "id:A032410",
	"count": 1,
	"start": 0,
	"results": [
		{
			"number": 32410,
			"data": "8,12,44,84,96,228,264,320,732,788,1808,7928,12264,37784,59196,91112,112208,168716,251184,264632,272052,513020,636564,674360",
			"name": "Numbers k such that 121*2^k+1 is prime.",
			"comment": [
				"9584444 is also a term (cf. PrimeGrid, 2020). - _Felix Fröhlich_, Dec 10 2020"
			],
			"link": [
				"Ray Ballinger, \u003ca href=\"http://www.prothsearch.com/index.html\"\u003eProth Search Page\u003c/a\u003e",
				"Ray Ballinger and Wilfrid Keller, \u003ca href=\"http://www.prothsearch.com/riesel1.html\"\u003eList of primes k.2^n + 1 for k \u003c 300\u003c/a\u003e",
				"Y. Gallot, \u003ca href=\"http://www.utm.edu/research/primes/programs/gallot/index.html\"\u003eProth.exe: Windows Program for Finding Large Primes\u003c/a\u003e",
				"Wilfrid Keller, \u003ca href=\"http://www.prothsearch.com/riesel2.html\"\u003eList of primes k.2^n - 1 for k \u003c 300\u003c/a\u003e",
				"PrimeGrid, \u003ca href=\"http://www.primegrid.com/download/27121-9584444.pdf\"\u003eAnnouncement of 9584444\u003c/a\u003e, 2020.",
				"\u003ca href=\"/index/Pri#riesel\"\u003eIndex entries for sequences of n such that k*2^n-1 (or k*2^n+1) is prime\u003c/a\u003e"
			],
			"mathematica": [
				"Select[Range[1000], PrimeQ[121*2^# + 1] \u0026 ] (* _Robert Price_, Dec 17 2018 *)"
			],
			"program": [
				"(PARI) is(n)=ispseudoprime(121*2^n+1) \\\\ _Charles R Greathouse IV_, Jun 13 2017"
			],
			"xref": [
				"Cf. A050586."
			],
			"keyword": "nonn,hard,more",
			"offset": "1,1",
			"author": "_James R. Buddenhagen_",
			"ext": [
				"Extended by _Hugo Pfoertner_, Jul 02 2003",
				"a(20)-a(24) from the Ray Ballinger and Wilfrid Keller link by _Robert Price_, Dec 17 2018"
			],
			"references": 1,
			"revision": 34,
			"time": "2020-12-12T06:15:50-05:00",
			"created": "1999-12-11T03:00:00-05:00"
		}
	]
}