{
	"greeting": "Greetings from The On-Line Encyclopedia of Integer Sequences! http://oeis.org/",
	"query": "id:A032589",
	"count": 1,
	"start": 0,
	"results": [
		{
			"number": 32589,
			"data": "9,49,69,79,99,129,159,169,189,219,259,289,319,339,349,399,409,429,489,519,529,559,579,619,639,679,699,729,739,769,819,979,1009,1029,1039,1179,1189,1209,1219,1249,1309,1329,1339,1369,1389,1419,1459",
			"name": "Lucky numbers (A000959) ending with digit 9.",
			"comment": [
				"Because lucky numbers are all odd, these are also the lucky numbers that are congruent to 4 mod 5. - Nathaniel Johnston, Jun 24 2011"
			],
			"link": [
				"Nathaniel Johnston, \u003ca href=\"/A032589/b032589.txt\"\u003eTable of n, a(n) for n = 1..10000\u003c/a\u003e"
			],
			"xref": [
				"Cf. A000959."
			],
			"keyword": "nonn,base,easy",
			"offset": "1,1",
			"author": "_Patrick De Geest_, Apr 15 1998",
			"references": 2,
			"revision": 10,
			"time": "2019-10-06T18:23:34-04:00",
			"created": "1999-12-11T03:00:00-05:00"
		}
	]
}