{
	"greeting": "Greetings from The On-Line Encyclopedia of Integer Sequences! http://oeis.org/",
	"query": "id:A032857",
	"count": 1,
	"start": 0,
	"results": [
		{
			"number": 32857,
			"data": "1,2,3,4,5,6,7,8,9,11,12,13,14,15,16,17,18,19,22,23,24,25,26,27,28,29,33,34,35,36,37,38,39,44,45,46,47,48,49,55,56,57,58,59,66,67,68,69,77,78,79,88,89,99,110,111,120,121,122,130,131",
			"name": "Numbers whose base-10 representation Sum_{i=0..m} d(i)*10^i, d(m) \u003e 0, has d(m) \u003c= d(m-1) \u003e= d(m-2) \u003c= ...",
			"comment": [
				"The second digit must be greater than or equal to the first, the third digit must be less than or equal to the second, etc. - _M. F. Hasler_, Mar 08 2014"
			],
			"program": [
				"(PARI) is_A032857(n)=!for(i=2,#n=digits(n),(n[i]-n[i-1])*(-1)^i\u003c0\u0026\u0026return) \\\\ _M. F. Hasler_, Mar 08 2014"
			],
			"keyword": "nonn,base",
			"offset": "1,2",
			"author": "_Clark Kimberling_",
			"references": 1,
			"revision": 11,
			"time": "2021-02-12T22:05:46-05:00",
			"created": "1999-12-11T03:00:00-05:00"
		}
	]
}