{
	"greeting": "Greetings from The On-Line Encyclopedia of Integer Sequences! http://oeis.org/",
	"query": "id:A032549",
	"count": 1,
	"start": 0,
	"results": [
		{
			"number": 32549,
			"data": "1,2,3,4,5,6,51,102,105,153,156,207,210,258,261,312,315,2589,2590,2601,2753,5354,5355,5506,8108,8259,8260,10861,11013,11025,13614,13615,13626,13766,13778,16379,16380,16531,33045,140403,289065,1123224",
			"name": "Numbers that, when expressed in base 7 and then interpreted in base 10, yield a multiple of the original number.",
			"comment": [
				"Decimal 'base-7 looking' numbers divided by their actual base-7 values (n) is an integer."
			],
			"link": [
				"Giovanni Resta, \u003ca href=\"/A032549/b032549.txt\"\u003eTable of n, a(n) for n = 1..70\u003c/a\u003e (terms \u003c 10^12, first 63 terms from Paolo P. Lava)"
			],
			"mathematica": [
				"Select[Range@ 300000, Mod[ FromDigits[ IntegerDigits[#, 7]], #] == 0 \u0026] (* _Giovanni Resta_, Oct 21 2019 *)"
			],
			"xref": [
				"Cf. A032548, A032550. See also A032532 for explanation."
			],
			"keyword": "nonn,base",
			"offset": "1,2",
			"author": "_Patrick De Geest_, Apr 15 1998",
			"ext": [
				"Offset set to 1 by _Giovanni Resta_, Oct 21 2019",
				"Name edited by _Jon E. Schoenfield_, Oct 25 2019"
			],
			"references": 5,
			"revision": 22,
			"time": "2019-10-25T09:43:52-04:00",
			"created": "1999-12-11T03:00:00-05:00"
		}
	]
}