{
	"greeting": "Greetings from The On-Line Encyclopedia of Integer Sequences! http://oeis.org/",
	"query": "id:A032738",
	"count": 1,
	"start": 0,
	"results": [
		{
			"number": 32738,
			"data": "14612,27971,33170,36186,39608,40078,41165,41528,47382,55553,60806,62318,63056,65970,66818,70558,83986,86145,89072,89280,91538,93160,96222,97908,101532,102852,104609,105275,108312,108615,108792,109934",
			"name": "a(n) cannot be prefixed or followed by any digit to form a prime ('empty' prefixes and suffixes are allowed).",
			"comment": [
				"a(n) itself cannot be a prime to start with."
			],
			"example": [
				"104609 prefixed or followed by a digit from ('',1,2,3,4,5,6,7,8,9) never yields a prime: '_'104609'_' = 73 x 1433; '8'104609'3' = 3089 x 26237."
			],
			"xref": [
				"Cf. A032682-A032685 and A032702-A032733."
			],
			"keyword": "nonn,base",
			"offset": "0,1",
			"author": "_Patrick De Geest_, May 15 1998",
			"references": 0,
			"revision": 6,
			"time": "2015-03-09T09:35:21-04:00",
			"created": "1999-12-11T03:00:00-05:00"
		}
	]
}