{
	"greeting": "Greetings from The On-Line Encyclopedia of Integer Sequences! http://oeis.org/",
	"query": "id:A032012",
	"count": 1,
	"start": 0,
	"results": [
		{
			"number": 32012,
			"data": "1,1,0,1,8,1,12,1,128,3025,260,7921,2048,78937,4760,2375101,138411008,9837697,588189972,96605425,7353141248,1752111145,151280741480,9294316285,12191175684608,1413604888888801,75955683963432,9022098736088101,1170150933402368",
			"name": "Number of ways to partition n labeled elements into sets of different odd sizes and order the sets.",
			"link": [
				"Alois P. Heinz, \u003ca href=\"/A032012/b032012.txt\"\u003eTable of n, a(n) for n = 0..742\u003c/a\u003e",
				"C. G. Bower, \u003ca href=\"/transforms2.html\"\u003eTransforms (2)\u003c/a\u003e"
			],
			"formula": [
				"\"AGJ\" (ordered, elements, labeled) transform of 1, 0, 1, 0, ...(odds)."
			],
			"maple": [
				"b:= proc(n, i, p) option remember;",
				"      `if`(n=0, p!, `if`(i\u003c1, 0, b(n, i-2, p)+",
				"      `if`(i\u003en, 0, b(n-i, i-2, p+1)*binomial(n, i))))",
				"    end:",
				"a:= n-\u003e b(n, n-1+irem(n, 2), 0):",
				"seq(a(n), n=0..30);"
			],
			"mathematica": [
				"b[n_, i_, p_] := b[n, i, p] = If[n==0, p!, If[i\u003c1, 0, b[n, i-2, p] + If[i\u003en, 0, b[n-i, i-2, p+1]*Binomial[n, i]]]]; a[n_] := b[n, n-1+Mod[n, 2], 0]; Table[a[n], {n, 0, 30}] (* _Jean-François Alcover_, Feb 27 2017, translated from Maple *)"
			],
			"program": [
				"(PARI) seq(n)=[subst(serlaplace(y^0*p),y,1) | p \u003c- Vec(serlaplace(prod(k=1, ceil(n/2), 1 + x^(2*k-1)*y/(2*k-1)! + O(x*x^n))))] \\\\ _Andrew Howroyd_, Sep 13 2018"
			],
			"keyword": "nonn",
			"offset": "0,5",
			"author": "_Christian G. Bower_",
			"ext": [
				"a(0)=1 prepended by _Alois P. Heinz_, May 11 2016"
			],
			"references": 1,
			"revision": 17,
			"time": "2018-09-13T18:32:51-04:00",
			"created": "1999-12-11T03:00:00-05:00"
		}
	]
}