{
	"greeting": "Greetings from The On-Line Encyclopedia of Integer Sequences! http://oeis.org/",
	"query": "id:A032849",
	"count": 1,
	"start": 0,
	"results": [
		{
			"number": 32849,
			"data": "1,3,6,7,12,13,15,24,26,27,30,31,48,49,52,53,55,60,61,63,96,98,99,104,106,107,110,111,120,122,123,126,127,192,193,196,197,199,208,209,212,213,215,220,221,223,240,241,244,245,247,252,253",
			"name": "Numbers whose base-2 representation Sum_{i=0..m} d(i)*2^i has d(m) \u003c= d(m-1) \u003e= d(m-2) \u003c= ...",
			"keyword": "nonn,base",
			"offset": "1,2",
			"author": "_Clark Kimberling_",
			"references": 0,
			"revision": 9,
			"time": "2021-02-12T20:53:09-05:00",
			"created": "1999-12-11T03:00:00-05:00"
		}
	]
}