{
	"greeting": "Greetings from The On-Line Encyclopedia of Integer Sequences! http://oeis.org/",
	"query": "id:A033019",
	"count": 1,
	"start": 0,
	"results": [
		{
			"number": 33019,
			"data": "7,14,21,28,35,43,86,129,172,215,252,259,266,273,280,287,504,511,518,525,532,539,756,763,770,777,784,791,1008,1015,1022,1029,1036,1043,1260,1267,1274,1281,1288,1295,1512,1548,1555,1562",
			"name": "Numbers whose base-6 expansion has no run of digits with length \u003c 2.",
			"link": [
				"Vincenzo Librandi, \u003ca href=\"/A033019/b033019.txt\"\u003eTable of n, a(n) for n = 1..1000\u003c/a\u003e"
			],
			"mathematica": [
				"Select[Range[10000], Min[Length/@Split[IntegerDigits[#, 6]]]\u003e1\u0026] (* _Vincenzo Librandi_, Feb 05 2014 *)"
			],
			"xref": [
				"Cf. A007092."
			],
			"keyword": "nonn,base",
			"offset": "1,1",
			"author": "_Clark Kimberling_",
			"references": 2,
			"revision": 15,
			"time": "2021-08-13T19:54:10-04:00",
			"created": "1999-12-11T03:00:00-05:00"
		}
	]
}