{
	"greeting": "Greetings from The On-Line Encyclopedia of Integer Sequences! http://oeis.org/",
	"query": "id:A033533",
	"count": 1,
	"start": 0,
	"results": [
		{
			"number": 33533,
			"data": "1,10012,1441534384,154620656140976,17312701462385916505,1926836037115087006553088,214664979834173287380956088153,23911146651705731250582573707211200",
			"name": "Number of matchings in graph P_{4} X P_{4} X P_{n}.",
			"reference": [
				"Per Hakan Lundow, \"Computation of matching polynomials and the number of 1-factors in polygraphs\", Research reports, No 12, 1996, Department of Mathematics, Umea University."
			],
			"link": [
				"Per Hakan Lundow, \u003ca href=\"http://www.theophys.kth.se/~phl/Text/1factors2.ps.gz\"\u003eEnumeration of matchings in polygraphs\u003c/a\u003e, 1998."
			],
			"keyword": "nonn",
			"offset": "0,2",
			"author": "_Per H. Lundow_",
			"references": 0,
			"revision": 7,
			"time": "2013-12-09T11:39:56-05:00",
			"created": "1999-12-11T03:00:00-05:00"
		}
	]
}