{
	"greeting": "Greetings from The On-Line Encyclopedia of Integer Sequences! http://oeis.org/",
	"query": "id:A033822",
	"count": 1,
	"start": 0,
	"results": [
		{
			"number": 33822,
			"data": "1,1,1,2,2,3,2,4,4,6,8,24",
			"name": "Numbers of fixed points of elements of group M24.",
			"reference": [
				"S. Mukai, Invent. Math., 94 (1988), pp. 183-221."
			],
			"xref": [
				"Cf. A033821-A033825."
			],
			"keyword": "nonn,fini,full",
			"offset": "0,4",
			"author": "_N. J. A. Sloane_.",
			"references": 0,
			"revision": 3,
			"time": "2012-03-30T16:47:26-04:00",
			"created": "1999-12-11T03:00:00-05:00"
		}
	]
}