{
	"greeting": "Greetings from The On-Line Encyclopedia of Integer Sequences! http://oeis.org/",
	"query": "id:A033022",
	"count": 1,
	"start": 0,
	"results": [
		{
			"number": 33022,
			"data": "10,20,30,40,50,60,70,80,91,182,273,364,455,546,637,728,810,820,830,840,850,860,870,880,890,1620,1630,1640,1650,1660,1670,1680,1690,1700,2430,2440,2450,2460,2470,2480,2490,2500,2510,3240",
			"name": "Numbers whose base-9 expansion has no run of digits with length \u003c 2.",
			"link": [
				"Vincenzo Librandi, \u003ca href=\"/A033022/b033022.txt\"\u003eTable of n, a(n) for n = 1..1100\u003c/a\u003e"
			],
			"mathematica": [
				"Select[Range[10000], Min[Length/@Split[IntegerDigits[#, 9]]]\u003e1\u0026] (* _Vincenzo Librandi_, Feb 05 2014 *)"
			],
			"keyword": "nonn,base",
			"offset": "1,1",
			"author": "_Clark Kimberling_",
			"references": 2,
			"revision": 10,
			"time": "2021-08-22T00:12:30-04:00",
			"created": "1999-12-11T03:00:00-05:00"
		}
	]
}