{
	"greeting": "Greetings from The On-Line Encyclopedia of Integer Sequences! http://oeis.org/",
	"query": "id:A033656",
	"count": 1,
	"start": 0,
	"results": [
		{
			"number": 33656,
			"data": "21,33,66,132,363,726,1353,4884,9768,18447,92928,175857,934428,1758867,9447438,17794887,96644658,182289327,906271608,1712444217,8836886388,17673772776,85401510447,159803020905",
			"name": "Trajectory of 21 under map x-\u003ex + (x-with-digits-reversed).",
			"link": [
				"\u003ca href=\"/index/Res#RAA\"\u003eIndex entries for sequences related to Reverse and Add!\u003c/a\u003e"
			],
			"formula": [
				"a(n) = A033653(n-1), n\u003e1. [From _R. J. Mathar_, Oct 22 2008]"
			],
			"mathematica": [
				"NestList[#+IntegerReverse[#]\u0026,21,30] (* _Harvey P. Dale_, Dec 16 2021 *)"
			],
			"keyword": "nonn,base",
			"offset": "0,1",
			"author": "_N. J. A. Sloane_.",
			"references": 0,
			"revision": 14,
			"time": "2021-12-16T15:20:07-05:00",
			"created": "1999-12-11T03:00:00-05:00"
		}
	]
}