{
	"greeting": "Greetings from The On-Line Encyclopedia of Integer Sequences! http://oeis.org/",
	"query": "id:A033596",
	"count": 1,
	"start": 0,
	"results": [
		{
			"number": 33596,
			"data": "3,0,3,48,195,528,1155,2208,3843,6240,9603,14160,20163,27888,37635,49728,64515,82368,103683,128880,158403,192720,232323,277728,329475,388128,454275,528528,611523,703920,806403,919680,1044483,1181568,1331715,1495728,1674435",
			"name": "a(n) = (n^2 - 1)*(n^2 - 3).",
			"link": [
				"G. C. Greubel, \u003ca href=\"/A033596/b033596.txt\"\u003eTable of n, a(n) for n = 0..1000\u003c/a\u003e",
				"\u003ca href=\"/index/Rec#order_05\"\u003eIndex entries for linear recurrences with constant coefficients\u003c/a\u003e, signature (5,-10,10,-5,1)."
			],
			"formula": [
				"From _Wesley Ivan Hurt_, Oct 30 2014: (Start)",
				"G.f.: 3*(1 -5*x +11*x^2 +x^3)/(1-x)^5.",
				"a(n) = 5*a(n-1) -10*a(n-2) +10*a(n-3) -5*a(n-4) +a(n-5).",
				"a(n) = (n^2-1)*(n^2-3) = (A000290(n)-1)*(A000290(n)-3) = A000583(n) - A082109(n+1). (End)",
				"E.g.f.: (3 - 3*x + 3*x^2 + 6*x^3 + x^4)*exp(x). - _G. C. Greubel_, Mar 05 2020"
			],
			"maple": [
				"A033596:=n-\u003e(n^2-1)*(n^2-3): seq(A033596(n), n=0..30); # _Wesley Ivan Hurt_, Oct 30 2014"
			],
			"mathematica": [
				"Table[(n^2 - 1)*(n^2 - 3), {n, 0, 30}] (* or *)",
				"CoefficientList[Series[3 (1 - 5 x + 11 x^2 + x^3)/(1 - x)^5, {x, 0, 30}], x] (* _Wesley Ivan Hurt_, Oct 30 2014 *)"
			],
			"program": [
				"(MAGMA) [(n^2-1)*(n^2-3) : n in [0..30]]; // _Wesley Ivan Hurt_, Oct 30 2014",
				"(PARI) vector(31, n, my(m=n-1); (m^2-1)*(m^2-3)) \\\\ _G. C. Greubel_, Mar 05 2020",
				"(Sage) [(n^2-1)*(n^2-3) for n in (0..30)] # _G. C. Greubel_, Mar 05 2020"
			],
			"xref": [
				"Cf. A000290 (n^2), A000583 (n^4), A082109."
			],
			"keyword": "nonn,easy",
			"offset": "0,1",
			"author": "_N. J. A. Sloane_",
			"references": 1,
			"revision": 12,
			"time": "2020-03-05T03:57:54-05:00",
			"created": "1999-12-11T03:00:00-05:00"
		}
	]
}