{
	"greeting": "Greetings from The On-Line Encyclopedia of Integer Sequences! http://oeis.org/",
	"query": "id:A033727",
	"count": 1,
	"start": 0,
	"results": [
		{
			"number": 33727,
			"data": "1,2,0,2,6,2,4,4,4,14,0,0,14,4,4,2,10,12,12,16,6,28,8,12,48,2,8,38,20,12,4,16,40,48,8,4,66,4,8,52,4,36,28,28,16,14,12,36,106,18,0,60,28,12,40,0,52,64,16,24,14,28,16,100",
			"name": "Product theta3(q^d); d | 15.",
			"reference": [
				"J. H. Conway and N. J. A. Sloane, \"Sphere Packings, Lattices and Groups\", Springer-Verlag, p 102 eq 9."
			],
			"link": [
				"Seiichi Manyama, \u003ca href=\"/A033727/b033727.txt\"\u003eTable of n, a(n) for n = 0..10000\u003c/a\u003e"
			],
			"keyword": "nonn",
			"offset": "0,2",
			"author": "_N. J. A. Sloane_",
			"references": 2,
			"revision": 9,
			"time": "2018-10-06T11:44:27-04:00",
			"created": "1999-12-11T03:00:00-05:00"
		}
	]
}