{
	"greeting": "Greetings from The On-Line Encyclopedia of Integer Sequences! http://oeis.org/",
	"query": "id:A033480",
	"count": 1,
	"start": 0,
	"results": [
		{
			"number": 33480,
			"data": "15,46,23,70,35,106,53,160,80,40,20,10,5,16,8,4,2,1,4,2,1,4,2,1,4,2,1,4,2,1,4,2,1,4,2,1,4,2,1,4,2,1,4,2,1,4,2,1,4,2,1,4,2,1,4,2,1,4,2,1,4,2,1,4,2,1,4,2,1,4,2,1,4,2,1,4,2,1,4,2,1,4,2,1,4,2,1,4,2,1,4,2,1",
			"name": "3x + 1 sequence beginning at 15.",
			"link": [
				"Colin Barker, \u003ca href=\"/A033480/b033480.txt\"\u003eTable of n, a(n) for n = 0..1000\u003c/a\u003e",
				"\u003ca href=\"/index/3#3x1\"\u003eIndex entries for sequences related to 3x+1 (or Collatz) problem\u003c/a\u003e",
				"\u003ca href=\"/index/Rec#order_03\"\u003eIndex entries for linear recurrences with constant coefficients\u003c/a\u003e, signature (0,0,1)."
			],
			"formula": [
				"a(0) = 15, a(n) = a(n - 1)/2 if a(n - 1) is even or 3a(n - 1) + 1 if a(n - 1) is odd.",
				"From _Colin Barker_, Oct 04 2019: (Start)",
				"G.f.: (15 + 46*x + 23*x^2 + 55*x^3 - 11*x^4 + 83*x^5 - 17*x^6 + 125*x^7 - 26*x^8 - 13*x^9 - 140*x^10 - 70*x^11 - 35*x^12 - 4*x^13 - 2*x^14 - x^15 - 14*x^16 - 7*x^17) / ((1 - x)*(1 + x + x^2)).",
				"a(n) = a(n-3) for n\u003e17.",
				"(End)"
			],
			"example": [
				"15 is odd, so the next term is 3 * 15 + 1 = 46.",
				"46 is even, so the next term is 46/2 = 23."
			],
			"mathematica": [
				"NestList[If[EvenQ[#], #/2, 3# + 1] \u0026, 15, 100] (* _Harvey P. Dale_, Dec 27 2011 *)"
			],
			"program": [
				"(PARI) a(n)=my(k=15); for(i=1,n,k=if(k%2,k/2,3*k+1)); k \\\\ _Charles R Greathouse IV_, May 04 2015",
				"(PARI) Vec((15 + 46*x + 23*x^2 + 55*x^3 - 11*x^4 + 83*x^5 - 17*x^6 + 125*x^7 - 26*x^8 - 13*x^9 - 140*x^10 - 70*x^11 - 35*x^12 - 4*x^13 - 2*x^14 - x^15 - 14*x^16 - 7*x^17) / ((1 - x)*(1 + x + x^2)) + O(x^80)) \\\\ _Colin Barker_, Oct 04 2019"
			],
			"xref": [
				"Cf. A033479.",
				"Row 15 of A347270."
			],
			"keyword": "nonn,easy",
			"offset": "0,1",
			"author": "_Jeff Burch_",
			"references": 3,
			"revision": 24,
			"time": "2021-11-17T17:01:27-05:00",
			"created": "1999-12-11T03:00:00-05:00"
		}
	]
}