{
	"greeting": "Greetings from The On-Line Encyclopedia of Integer Sequences! http://oeis.org/",
	"query": "id:A033722",
	"count": 1,
	"start": 0,
	"results": [
		{
			"number": 33722,
			"data": "1,2,2,4,2,2,8,4,10,10,2,16,8,12,16,4,26,20,26,24,2,32,24,28,40,2,28,40,16,28,8,24,58,48,36,4,26,44,40,56,10,36,64,36,24,10,48,52,104,66,2,72,28,60,80,16,80,80,60,56,8,60,64,116,122,12,96,76,36,96,16,72,130",
			"name": "Expansion of Product_{d | 10} theta_3(q^d).",
			"reference": [
				"J. H. Conway and N. J. A. Sloane, \"Sphere Packings, Lattices and Groups\", Springer-Verlag, p 102 eq 9."
			],
			"link": [
				"Seiichi Manyama, \u003ca href=\"/A033722/b033722.txt\"\u003eTable of n, a(n) for n = 0..10000\u003c/a\u003e"
			],
			"xref": [
				"Number of integer solutions to a^2 + 2*b^2 + 5*c^2 + m*d^2 = n: A319822 (m=5), A320163 (m=6), A320164 (m=7), A320165 (m=8), A320166 (m=9), this sequence (m=10)."
			],
			"keyword": "nonn",
			"offset": "0,2",
			"author": "_N. J. A. Sloane_",
			"references": 7,
			"revision": 18,
			"time": "2018-10-08T05:45:06-04:00",
			"created": "1999-12-11T03:00:00-05:00"
		}
	]
}