{
	"greeting": "Greetings from The On-Line Encyclopedia of Integer Sequences! http://oeis.org/",
	"query": "id:A033809",
	"count": 1,
	"start": 0,
	"results": [
		{
			"number": 33809,
			"data": "1,1,1,2,1,1,2,1,3,6,1,1,2,2,1,8,1,1,2,1,1,2,2,583,2,1,1,4,2,5,4,1,1,2,1,3,2,1,3,2,1,1,4,2,1,8,2,1,2,1,3,16,1,3,6,1,1,2,3,1,8,6,1,2,3,1,4,1,3,2,1,53,6,8,3,4,1,1,8,6,3,2,1,7,2,8,1,2,2,1,4,1,3,6,1,1,2,4,15,2",
			"name": "Smallest m\u003e0 such that (2n-1)2^m+1 is prime, or -1 if no such value exists.",
			"comment": [
				"There exist odd integers 2k-1 such that (2k-1)2^n+1 is always composite."
			],
			"reference": [
				"Ribenboim, P. The New Book of Prime Number Records. New York: Springer-Verlag, pp. 357-359, 1996."
			],
			"link": [
				"T. D. Noe, \u003ca href=\"/A033809/b033809.txt\"\u003eTable of n, a(n) for n=1..1000\u003c/a\u003e"
			],
			"xref": [
				"Cf. A046067 (except for initial term a(1) identical to this sequence), A046068, A046069, A046070.",
				"Cf. A040076"
			],
			"keyword": "sign",
			"offset": "1,4",
			"author": "_Eric W. Weisstein_",
			"references": 6,
			"revision": 13,
			"time": "2014-03-30T04:54:20-04:00",
			"created": "1999-12-11T03:00:00-05:00"
		}
	]
}