{
	"greeting": "Greetings from The On-Line Encyclopedia of Integer Sequences! http://oeis.org/",
	"query": "id:A033328",
	"count": 1,
	"start": 0,
	"results": [
		{
			"number": 33328,
			"data": "8,4,2,2,1,1,1,1,0,0,0,0,0,0,0,0,0,0,0,0,0,0,0,0,0,0,0,0,0,0,0,0,0,0,0,0,0,0,0,0,0,0,0,0,0,0,0,0,0,0,0,0,0,0,0,0,0,0,0,0,0,0,0,0,0,0,0,0,0,0,0,0,0,0,0,0,0,0,0,0,0,0,0,0,0,0,0,0,0,0,0,0",
			"name": "a(n) = floor(8/n).",
			"formula": [
				"a(n) = 8*(C(2*n,n) mod 2) + 4*(C((n+1)^2,n+3) mod 2) + 2*(C(n^2,n+2) mod 2) + 2*(C((n+11)^4,n+13) mod 2) + (C((n+10)^4,n+12) mod 2) + (C((n+9)^4,n+11) mod 2) + (C((n+8)^4,n+10) mod 2) + (C((n+7)^4,n+9) mod 2). - _Paolo P. Lava_, Jan 07 2008"
			],
			"xref": [
				"Cf. A010766."
			],
			"keyword": "easy,nonn",
			"offset": "1,1",
			"author": "_Jeff Burch_",
			"references": 1,
			"revision": 11,
			"time": "2021-08-07T01:28:41-04:00",
			"created": "1999-12-11T03:00:00-05:00"
		}
	]
}