{
	"greeting": "Greetings from The On-Line Encyclopedia of Integer Sequences! http://oeis.org/",
	"query": "id:A033198",
	"count": 1,
	"start": 0,
	"results": [
		{
			"number": 33198,
			"data": "8,12,5,24,28,40,44,13,56,60,17,76,21,88,92,104,29,120,124,33,136,140,37,152,156,41,168,172,184,188,204,53,220,57,232,236,61,248,65,264,268,69,280,284,73,296,77,312,316,328,332,85,344,348,89,364,93,376,380,97",
			"name": "Discriminants of real quadratic number fields.",
			"reference": [
				"David A. Cox, \"Primes of the Form x^2 + n y^2\", Wiley, 1989, p. 103."
			],
			"formula": [
				"For squarefree n \u003e= 2, list n if n=1 mod 4 else 4n."
			],
			"maple": [
				"with(numtheory): a:= proc(n) if issqrfree(n) then RETURN(piecewise(n mod 4=1,n,4*n)) else RETURN(NULL) fi: end: seq(a(n),n=2..150); # C. Ronaldo (aga_new_ac(AT)hotmail.com), Jan 03 2005"
			],
			"keyword": "nonn,easy",
			"offset": "1,1",
			"author": "_N. J. A. Sloane_",
			"ext": [
				"More terms from C. Ronaldo (aga_new_ac(AT)hotmail.com), Jan 03 2005"
			],
			"references": 0,
			"revision": 13,
			"time": "2017-09-04T14:31:06-04:00",
			"created": "1999-12-11T03:00:00-05:00"
		}
	]
}