{
	"greeting": "Greetings from The On-Line Encyclopedia of Integer Sequences! http://oeis.org/",
	"query": "id:A033535",
	"count": 1,
	"start": 0,
	"results": [
		{
			"number": 33535,
			"data": "1,1,108,49793133,17312701462385916505,463310369790129032480118384076035223552",
			"name": "Number of matchings in graph P_{n} X P_{n} X P_{n}.",
			"link": [
				"Per Hakan Lundow, \u003ca href=\"http://www.theophys.kth.se/~phl/Text/1factors.pdf\"\u003eComputation of matching polynomials and the number of 1-factors in polygraphs\u003c/a\u003e, Research reports, No 12, 1996, Department of Mathematics, Umea University.",
				"Per Hakan Lundow, \u003ca href=\"http://www.theophys.kth.se/~phl/Text/1factors2.ps.gz\"\u003eEnumeration of matchings in polygraphs\u003c/a\u003e, 1998.",
				"Eric Weisstein's World of Mathematics, \u003ca href=\"http://mathworld.wolfram.com/GridGraph.html\"\u003eGrid Graph\u003c/a\u003e",
				"Eric Weisstein's World of Mathematics, \u003ca href=\"http://mathworld.wolfram.com/IndependentEdgeSet.html\"\u003eIndependent Edge Set\u003c/a\u003e",
				"Eric Weisstein's World of Mathematics, \u003ca href=\"http://mathworld.wolfram.com/Matching.html\"\u003eMatching\u003c/a\u003e"
			],
			"keyword": "nonn,more",
			"offset": "0,3",
			"author": "_Per H. Lundow_",
			"references": 2,
			"revision": 19,
			"time": "2017-05-20T21:47:42-04:00",
			"created": "1999-12-11T03:00:00-05:00"
		}
	]
}