{
	"greeting": "Greetings from The On-Line Encyclopedia of Integer Sequences! http://oeis.org/",
	"query": "id:A033003",
	"count": 1,
	"start": 0,
	"results": [
		{
			"number": 33003,
			"data": "6,12,18,24,150,162,168,174,300,306,318,324,450,456,462,474,600,606,612,618,3756,3762,3768,3774,4050,4056,4068,4074,4200,4206,4212,4224,4350,4356,4362,4368,7506,7512,7518,7524,7650,7662",
			"name": "Every run of digits of n in base 5 has length 2.",
			"comment": [
				"See A043291 and A033001 through A033014 for the analog in other bases, A033015 - A033029 for the variants with run lengths \u003e= 2. - _M. F. Hasler_, Feb 02 2014"
			],
			"link": [
				"Vincenzo Librandi, \u003ca href=\"/A033003/b033003.txt\"\u003eTable of n, a(n) for n = 1..1000\u003c/a\u003e"
			],
			"formula": [
				"a(n) = 6*A043309(n) (= 6*n for n\u003c5). - _M. F. Hasler_, Feb 02 2014"
			],
			"mathematica": [
				"Select[Range[10000],Union[Length/@Split[IntegerDigits[#, 5]]]=={2}\u0026] (* _Vincenzo Librandi_, Feb 05 2014 *)"
			],
			"keyword": "nonn,base",
			"offset": "1,1",
			"author": "_Clark Kimberling_",
			"references": 3,
			"revision": 10,
			"time": "2014-02-05T03:48:44-05:00",
			"created": "1999-12-11T03:00:00-05:00"
		}
	]
}