{
	"greeting": "Greetings from The On-Line Encyclopedia of Integer Sequences! http://oeis.org/",
	"query": "id:A033088",
	"count": 1,
	"start": 0,
	"results": [
		{
			"number": 33088,
			"data": "1,2,3,4,5,6,7,8,9,13,20,24,31,35,42,46,53,57,64,68,75,79,86,97,131,135,202,242,246,313,353,357,420,424,464,468,531,535,575,579,642,646,686,753,757,797,864,868,975,979,1313,1353,1357,2020",
			"name": "Numbers n with property that all pairs of consecutive digits differ by 2.",
			"comment": [
				"If we restrict the maximum number of digits in the number to n, n \u003e= 1, the sequence is finite and the last term is 9797...97 if n is even or 9797..9 if n is odd. - _Enrique Navarrete_, Dec 01 2017"
			],
			"link": [
				"Iain Fox, \u003ca href=\"/A033088/b033088.txt\"\u003eTable of n, a(n) for n = 1..947\u003c/a\u003e"
			],
			"program": [
				"(PARI) is(n) = for(i=2, #n=digits(n), if(abs(n[i]-n[i-1]) != 2, return(0))); 1 \\\\ _Iain Fox_, Dec 01 2017"
			],
			"keyword": "nonn,base",
			"offset": "1,2",
			"author": "_Clark Kimberling_",
			"references": 8,
			"revision": 17,
			"time": "2017-12-04T09:07:29-05:00",
			"created": "1999-12-11T03:00:00-05:00"
		}
	]
}