{
	"greeting": "Greetings from The On-Line Encyclopedia of Integer Sequences! http://oeis.org/",
	"query": "id:A033457",
	"count": 1,
	"start": 0,
	"results": [
		{
			"number": 33457,
			"data": "1,2,6,4,19,6,28,24,45,10,98,12,79,94,120,16,201,18,238,164,171,22,436,120,229,234,426,28,695,30,496,352,369,370,1014,36,451,470,1068,40,1261,42,946,1020,639,46,1832,336",
			"name": "GCD-convolution of squares A000290 with themselves.",
			"link": [
				"Danny Rorabaugh, \u003ca href=\"/A033457/b033457.txt\"\u003eTable of n, a(n) for n = 0..10000\u003c/a\u003e"
			],
			"formula": [
				"a(n-2) = Sum_{d|n, d\u003cn} d^2*phi(n/d). - _Vladeta Jovovic_, Aug 27 2003"
			],
			"mathematica": [
				"Table[Sum[d^2*EulerPhi[(n + 2)/d], {d, Most@ Divisors[n + 2]}], {n, 0, 47}] (* _Michael De Vlieger_, Mar 20 2015 *)"
			],
			"program": [
				"(Sage) sum([d^2*euler_phi(int((n+2)/d)) for d in range(1,n+2) if (n+2)%d==0]) # _Danny Rorabaugh_, Mar 20 2015"
			],
			"xref": [
				"Cf. A069097."
			],
			"keyword": "nonn,easy",
			"offset": "0,2",
			"author": "_N. J. A. Sloane_",
			"references": 2,
			"revision": 17,
			"time": "2015-03-21T01:55:13-04:00",
			"created": "1999-12-11T03:00:00-05:00"
		}
	]
}