{
	"greeting": "Greetings from The On-Line Encyclopedia of Integer Sequences! http://oeis.org/",
	"query": "id:A033545",
	"count": 1,
	"start": 0,
	"results": [
		{
			"number": 33545,
			"data": "1,3,4,5,7,8,8,9,10,15,16,23,32,37,42,42,44,49",
			"name": "Uniform numbers retired by New York Yankees.",
			"comment": [
				"In 1972, the Yankees retired number 8 in honor of the Bill Dickey and Yogi Berra.",
				"Jackie Robinson played with the Brooklyn Dodgers from 1947 to 1956. His number, 42, was retired for all Major League Baseball teams in 1997. But Mariano Rivera, who had been playing with the Yankees since 1990, was allowed to keep wearing 42, which was then retired again for him in 2013."
			],
			"link": [
				"Major League Baseball, \u003ca href=\"http://newyork.yankees.mlb.com/nyy/history/retired_numbers.jsp\"\u003eNew York Yankees: Retired numbers\u003c/a\u003e",
				"Major League Baseball, \u003ca href=\"http://mlb.mlb.com/team/player.jsp?player_id=121250#gameType=\u0026#39;R\u0026#39;\u0026amp;sectionType=career\u0026amp;statType=2\u0026amp;season=2014\u0026amp;level=\u0026#39;ALL\u0026#39;\"\u003eMariano Rivera Stats\u003c/a\u003e",
				"Wikipedia, \u003ca href=\"http://en.wikipedia.org/wiki/New_York_Yankees#Retired_numbers\"\u003eNew York Yankees: Retired numbers\u003c/a\u003e"
			],
			"xref": [
				"Cf. A033546."
			],
			"keyword": "nonn,fini",
			"offset": "1,2",
			"author": "Jack Rosenthal, rosebud(AT)nytimes.com (submitted by James Gleick, jim(AT)around.com).",
			"ext": [
				"Updated by _Gerry Myerson_, Feb 10 2014"
			],
			"references": 1,
			"revision": 13,
			"time": "2014-02-23T05:56:58-05:00",
			"created": "1999-12-11T03:00:00-05:00"
		}
	]
}