{
	"greeting": "Greetings from The On-Line Encyclopedia of Integer Sequences! http://oeis.org/",
	"query": "id:A033398",
	"count": 1,
	"start": 0,
	"results": [
		{
			"number": 33398,
			"data": "78,39,26,19,15,13,11,9,8,7,7,6,6,5,5,4,4,4,4,3,3,3,3,3,3,3,2,2,2,2,2,2,2,2,2,2,2,2,2,1,1,1,1,1,1,1,1,1,1,1,1,1,1,1,1,1,1,1,1,1,1,1,1,1,1,1,1,1,1,1,1,1,1,1,1,1,1,1,0,0,0,0,0,0,0,0,0,0,0,0,0,0",
			"name": "a(n) = floor(78/n).",
			"keyword": "easy,nonn",
			"offset": "1,1",
			"author": "_Jeff Burch_",
			"references": 0,
			"revision": 6,
			"time": "2021-08-09T21:09:58-04:00",
			"created": "1999-12-11T03:00:00-05:00"
		}
	]
}