{
	"greeting": "Greetings from The On-Line Encyclopedia of Integer Sequences! http://oeis.org/",
	"query": "id:A033957",
	"count": 1,
	"start": 0,
	"results": [
		{
			"number": 33957,
			"data": "3,4,6,6,6,6,6,10,8,8,10,6,6,10,12,8,8,10,6,8,10,10,14,12,6,6,6,6,18,18",
			"name": "Duplicate of A031131.",
			"keyword": "dead",
			"offset": "1,1",
			"references": 0,
			"revision": 5,
			"time": "2009-01-09T03:00:00-05:00",
			"created": "1999-12-11T03:00:00-05:00"
		}
	]
}