{
	"greeting": "Greetings from The On-Line Encyclopedia of Integer Sequences! http://oeis.org/",
	"query": "id:A033246",
	"count": 1,
	"start": 0,
	"results": [
		{
			"number": 33246,
			"data": "71,107,293,509,643,647,739,971,1013,1039,1123,1217,1361,1367,1373,1423,1663,1811,2083,2099,2239,2309,2351,2557,2657,2677,2917,3181,3343,3517,3533,3539,3623,3671,3803",
			"name": "Primes of form x^2+71*y^2.",
			"comment": [
				"Also primes of the form x^2-xy+18y^2 with x and y nonnegative. - _T. D. Noe_, May 08 2005"
			],
			"reference": [
				"David A. Cox, \"Primes of the Form x^2 + n y^2\", Wiley, 1989."
			],
			"link": [
				"Vincenzo Librandi and Ray Chandler, \u003ca href=\"/A033246/b033246.txt\"\u003eTable of n, a(n) for n = 1..10000\u003c/a\u003e [First 1000 terms from Vincenzo Librandi]",
				"N. J. A. Sloane et al., \u003ca href=\"https://oeis.org/wiki/Binary_Quadratic_Forms_and_OEIS\"\u003eBinary Quadratic Forms and OEIS\u003c/a\u003e (Index to related sequences, programs, references)"
			],
			"mathematica": [
				"QuadPrimes2[1, 0, 71, 10000] (* see A106856 *)"
			],
			"keyword": "nonn,easy",
			"offset": "1,1",
			"author": "_N. J. A. Sloane_.",
			"references": 3,
			"revision": 22,
			"time": "2014-08-07T11:59:33-04:00",
			"created": "1999-12-11T03:00:00-05:00"
		}
	]
}