{
	"greeting": "Greetings from The On-Line Encyclopedia of Integer Sequences! http://oeis.org/",
	"query": "id:A034977",
	"count": 1,
	"start": 0,
	"results": [
		{
			"number": 34977,
			"data": "1,8,288,13056,652800,34467840,1884241920,105517547520,6014500208640,347504456499200,20294260259553280,1195516422562775040,70933974405391319040,4234212626044897198080,254052757562693831884800",
			"name": "Expansion of 1/(1-64*x)^(1/8), related to octo-factorial numbers A045755.",
			"link": [
				"Seiichi Manyama, \u003ca href=\"/A034977/b034977.txt\"\u003eTable of n, a(n) for n = 0..500\u003c/a\u003e",
				"A. Straub, V. H. Moll, T. Amdeberhan, \u003ca href=\"http://dx.doi.org/10.4064/aa140-1-2\"\u003eThe p-adic valuation of k-central binomial coefficients\u003c/a\u003e, Acta Arith. 140 (1) (2009) 31-41, eq (1.10)"
			],
			"formula": [
				"a(n) = 8^n*A045755(n)/n!, n \u003e= 1, A045755(n)=(8*n-7)!^8 := product(8*j-7, j=1..n); G.f.: (1-64*x)^(-1/8).",
				"D-finite with recurrence: n*a(n) +8*(-8*n+7)*a(n-1)=0. - _R. J. Mathar_, Jan 28 2020"
			],
			"mathematica": [
				"CoefficientList[Series[1/(1-64x)^(1/8),{x,0,30}],x] (* _Harvey P. Dale_, May 20 2011 *)"
			],
			"xref": [
				"Cf. A004993, A034855, A045755."
			],
			"keyword": "easy,nonn",
			"offset": "0,2",
			"author": "_Wolfdieter Lang_",
			"ext": [
				"Corrected a(11) -- Harvey P. Dale, May 20 2011."
			],
			"references": 4,
			"revision": 16,
			"time": "2020-01-30T21:29:14-05:00",
			"created": "1999-12-11T03:00:00-05:00"
		}
	]
}