{
	"greeting": "Greetings from The On-Line Encyclopedia of Integer Sequences! http://oeis.org/",
	"query": "id:A034453",
	"count": 1,
	"start": 0,
	"results": [
		{
			"number": 34453,
			"data": "0,0,0,0,0,0,0,0,0,0,0,0,0,0,0,0,0,0,0,0,0,1,1,5,8,19,30,63,100,185,299,519,829,1391,2198,3585,5633,9000,14033,22134,34300,53546,82638,128114,197128,304405,467848,721435,1110256,1715028,2651226,4120694",
			"name": "Multiplicity of highest weight (or singular) vectors associated with character chi_65 of Monster module.",
			"reference": [
				"K. Harada and M. L. Lung, Modular forms associated with the Monster module, pp. 59-83 of The Monster and Lie Algebras, de Gruyter, 1998."
			],
			"keyword": "nonn",
			"offset": "1,24",
			"author": "_N. J. A. Sloane_.",
			"references": 0,
			"revision": 3,
			"time": "2012-03-30T16:47:29-04:00",
			"created": "1999-12-11T03:00:00-05:00"
		}
	]
}