{
	"greeting": "Greetings from The On-Line Encyclopedia of Integer Sequences! http://oeis.org/",
	"query": "id:A034810",
	"count": 1,
	"start": 0,
	"results": [
		{
			"number": 34810,
			"data": "7,10,13,16,19,36,37,40,43,46,58,63,74,85,88,97,98,104,125,132,143,153,156,164,168,169,175,188,196,203,206,222,224,233,241,269,292,304,305,308,311,317,331,333,338,344,359,364,367,368,372,382,389,395,397,409",
			"name": "Concatenation of 'prevprime(n) and n and nextprime(n)' is a prime.",
			"example": [
				"n=88 --\u003e previous prime is 83, next prime is 89, thus '838889' is a prime."
			],
			"mathematica": [
				"coQ[n_]:=PrimeQ[FromDigits[Flatten[IntegerDigits[{NextPrime[n,-1],n,NextPrime[n]}]]]]; Select[Range[3,409],coQ[#]\u0026] (* _Jayanta Basu_, May 30 2013 *)"
			],
			"xref": [
				"Cf. A034808-A034821."
			],
			"keyword": "nonn,base",
			"offset": "0,1",
			"author": "_Patrick De Geest_, Oct 15 1998",
			"references": 0,
			"revision": 9,
			"time": "2019-10-06T18:20:31-04:00",
			"created": "1999-12-11T03:00:00-05:00"
		}
	]
}