{
	"greeting": "Greetings from The On-Line Encyclopedia of Integer Sequences! http://oeis.org/",
	"query": "id:A034629",
	"count": 1,
	"start": 0,
	"results": [
		{
			"number": 34629,
			"data": "1,0,0,0,490770,25510464,680279040,10924246080,120784075020,1006463391360,6705022657536,37283543136000,178519518847530,754021089521280,2862533247114240,9909872660858688,31663678300510410",
			"name": "Theta series of (putative) extremal 3-modular even lattice in dimension 38.",
			"link": [
				"H.-G. Quebbemann, \u003ca href=\"http://dx.doi.org/10.1006/jnth.1995.1111\"\u003eModular lattices in Euclidean spaces\u003c/a\u003e, J. Number Theory, 54 (1995), 190-202."
			],
			"keyword": "nonn",
			"offset": "0,5",
			"author": "_N. J. A. Sloane_.",
			"references": 0,
			"revision": 6,
			"time": "2015-11-23T09:12:32-05:00",
			"created": "1999-12-11T03:00:00-05:00"
		}
	]
}