{
	"greeting": "Greetings from The On-Line Encyclopedia of Integer Sequences! http://oeis.org/",
	"query": "id:A034751",
	"count": 1,
	"start": 0,
	"results": [
		{
			"number": 34751,
			"data": "1,6,18,63,162,540,1458,4536,13203,39852,118098,356238,1062882,3193020,9567396,28711665,86093442,258324066,774840978,2324645406,6973581924,20921060700,62762119218,188287473024,564859079523,1694580407532",
			"name": "Dirichlet convolution of 3^(n-1) with itself.",
			"formula": [
				"a(n) ~ 2 * 3^(n-1). - _Vaclav Kotesovec_, Sep 11 2019",
				"G.f.: Sum_{k\u003e=1} 3^(k-1)*x^k / (1 - 3*x^k). - _Ilya Gutkovskiy_, Sep 22 2020"
			],
			"mathematica": [
				"Table[Sum[3^(d + n/d - 2), {d, Divisors[n]}], {n, 1, 30}] (* _Vaclav Kotesovec_, Sep 10 2019 *)"
			],
			"xref": [
				"Cf. A034719."
			],
			"keyword": "nonn",
			"offset": "1,2",
			"author": "_Erich Friedman_",
			"references": 1,
			"revision": 13,
			"time": "2020-09-23T02:48:05-04:00",
			"created": "1999-12-11T03:00:00-05:00"
		}
	]
}