{
	"greeting": "Greetings from The On-Line Encyclopedia of Integer Sequences! http://oeis.org/",
	"query": "id:A034249",
	"count": 1,
	"start": 0,
	"results": [
		{
			"number": 34249,
			"data": "0,10,40411006,16115614918786,2743732568913925577,335945077218184962957540,34003737003435994894150148682,2984588821879989225616325978449208,232335548668502380985795271986258349451,16268469921243333766692294351708903359498443",
			"name": "Number of quaternary codes (not necessarily linear) of length n with 12 words.",
			"link": [
				"H. Fripertinger, \u003ca href=\"http://www.mathe2.uni-bayreuth.de/frib/codes/tables.html\"\u003eIsometry Classes of Codes\u003c/a\u003e",
				"H. Fripertinger, \u003ca href=\"https://doi.org/10.1023/A:1008248618779\"\u003eEnumeration, construction and random generation of block codes\u003c/a\u003e, Designs, Codes, Crypt., 14 (1998), 213-219."
			],
			"xref": [
				"Cf. A034188-."
			],
			"keyword": "nonn",
			"offset": "1,2",
			"author": "_N. J. A. Sloane_.",
			"ext": [
				"More terms from _Sean A. Irvine_, Aug 09 2020"
			],
			"references": 0,
			"revision": 8,
			"time": "2020-08-09T17:10:44-04:00",
			"created": "1999-12-11T03:00:00-05:00"
		}
	]
}