{
	"greeting": "Greetings from The On-Line Encyclopedia of Integer Sequences! http://oeis.org/",
	"query": "id:A034679",
	"count": 1,
	"start": 0,
	"results": [
		{
			"number": 34679,
			"data": "1,33,244,1025,3126,8052,16808,32769,59050,103158,161052,250100,371294,554664,762744,1048577,1419858,1948650,2476100,3204150,4101152,5314716,6436344,7995636,9765626,12252702,14348908,17228200,20511150,25170552",
			"name": "Sum of fifth powers of unitary divisors.",
			"link": [
				"Amiram Eldar, \u003ca href=\"/A034679/b034679.txt\"\u003eTable of n, a(n) for n = 1..10000\u003c/a\u003e"
			],
			"formula": [
				"Dirichlet g.f.: zeta(s)*zeta(s-5)/zeta(2s-5). - _R. J. Mathar_, Apr 12 2011",
				"If n = Product (p_j^k_j) then a(n) = Product (1 + p_j^(5*k_j)). - _Ilya Gutkovskiy_, Nov 04 2018",
				"Sum_{k=1..n} a(k) ~ (Pi*n)^6 / (5670*Zeta(7)). - _Vaclav Kotesovec_, Feb 07 2019"
			],
			"mathematica": [
				"Table[Total[Select[Divisors[n], CoprimeQ[#, n/#] \u0026]^5], {n, 1, 50}] (* _Vaclav Kotesovec_, Feb 07 2019 *)",
				"a[1] = 1; a[n_] := Times @@ (1 + First[#]^(5*Last[#]) \u0026 /@ FactorInteger[n]); s = Array[a, 50] (* _Amiram Eldar_, Aug 10 2019 *)"
			],
			"xref": [
				"Cf. A034444, A034448.",
				"Row n=5 of A286880."
			],
			"keyword": "nonn,mult",
			"offset": "1,2",
			"author": "_Erich Friedman_",
			"references": 2,
			"revision": 17,
			"time": "2019-08-10T04:53:01-04:00",
			"created": "1999-12-11T03:00:00-05:00"
		}
	]
}