{
	"greeting": "Greetings from The On-Line Encyclopedia of Integer Sequences! http://oeis.org/",
	"query": "id:A034701",
	"count": 1,
	"start": 0,
	"results": [
		{
			"number": 34701,
			"data": "1,2,4,3,6,5,10,7,14,8,16,9,18,11,22,12,24,13,26,15,30,17,34,19,38,20,40,21,42,23,46,25,50,27,54,28,56,29,58,31,62,32,64,33,66,35,70,36,72,37,74,39,78,41,82,43,86,44,88,45,90,47,94,48,96,49,98,51,102,52,104",
			"name": "a(n) is the smallest number not of the form a(i) (1\u003c=i\u003c=n-1) or a(i)+a(n-1) (1\u003c=i\u003c=n-2).",
			"keyword": "nonn",
			"offset": "1,2",
			"author": "_Erich Friedman_",
			"references": 0,
			"revision": 3,
			"time": "2012-03-31T13:22:16-04:00",
			"created": "1999-12-11T03:00:00-05:00"
		}
	]
}