{
	"greeting": "Greetings from The On-Line Encyclopedia of Integer Sequences! http://oeis.org/",
	"query": "id:A034959",
	"count": 1,
	"start": 0,
	"results": [
		{
			"number": 34959,
			"data": "2,18,70,182,484,884,1666,2546,4048,6612,8928,13172,17794,22274,28576,37524,48380,57340,71556,85626,98550,118658,138112,163404,196134,224220,249672,281838,310650,347136,420624,467670,525806,571846,655898",
			"name": "Divide even numbers into groups with prime(n) elements and add together.",
			"link": [
				"Hieronymus Fischer, \u003ca href=\"/A034959/b034959.txt\"\u003eTable of n, a(n) for n = 1..10000\u003c/a\u003e"
			],
			"formula": [
				"From _Hieronymus Fischer_, Sep 27 2012: (Start)",
				"a(n) = 2*Sum_{k=(A007504(n-1)+1)..A007504(n)} (k-1), n \u003e 1.",
				"a(n) = (A007504(n) - A007504(n-1))*(A007504(n) + A007504(n-1) - 1), n \u003e 1.",
				"a(n) = 2*(A000217(A007504(n) - 1) - A000217(A007504(n-1) - 1)), n \u003e 1.",
				"If we define A007504(0):=0, then the formulas above are also true for n=1.",
				"a(n) = 2*A034957(n).",
				"a(n) = A034960(n) - A000040(n).",
				"(End)"
			],
			"example": [
				"{0,2} #2 S=2; {4,6,8} #3 S=18; {10,12,14,16,18} #5 S=70; {20,22,24,26,28,30,32} #7 S=182; etc."
			],
			"xref": [
				"Cf. A006003, A027441, A034960.",
				"Cf. A046992, A034956-A034958."
			],
			"keyword": "nonn",
			"offset": "1,1",
			"author": "_Patrick De Geest_, Oct 15 1998",
			"references": 5,
			"revision": 17,
			"time": "2019-10-06T18:18:55-04:00",
			"created": "1999-12-11T03:00:00-05:00"
		}
	]
}