{
	"greeting": "Greetings from The On-Line Encyclopedia of Integer Sequences! http://oeis.org/",
	"query": "id:A034746",
	"count": 1,
	"start": 0,
	"results": [
		{
			"number": 34746,
			"data": "1,3,5,10,12,26,26,49,59,95,118,221,270,457,682,1108,1650,2776,4242,7011,11082,17991,28736,46940,75149,121993,196659,318813,514336,833734,1346382,2180613,3525034,5706271,9227760,14936537,24157968,39096749",
			"name": "Dirichlet convolution of Fibonacci numbers with Primes (with 1).",
			"keyword": "nonn",
			"offset": "1,2",
			"author": "_Erich Friedman_",
			"references": 0,
			"revision": 3,
			"time": "2012-03-31T13:22:16-04:00",
			"created": "1999-12-11T03:00:00-05:00"
		}
	]
}