{
	"greeting": "Greetings from The On-Line Encyclopedia of Integer Sequences! http://oeis.org/",
	"query": "id:A034240",
	"count": 1,
	"start": 0,
	"results": [
		{
			"number": 34240,
			"data": "1,1,9,179,40719,106287822,1295484202258,28080454247154740,720645869857713416245,18726377123294059174412659,464647323565599860735629425620,10778588361453642047099243794276139",
			"name": "Number of quaternary codes of length 9 with n words.",
			"comment": [
				"a(4^9)=1 is the last term. - _Sean A. Irvine_, Aug 08 2020"
			],
			"link": [
				"H. Fripertinger, \u003ca href=\"http://www.mathe2.uni-bayreuth.de/frib/codes/tables.html\"\u003eIsometry Classes of Codes\u003c/a\u003e",
				"H. Fripertinger, \u003ca href=\"https://doi.org/10.1023/A:1008248618779\"\u003eEnumeration, construction and random generation of block codes\u003c/a\u003e, Designs, Codes, Crypt., 14 (1998), 213-219."
			],
			"xref": [
				"Cf. A034188-."
			],
			"keyword": "nonn,fini",
			"offset": "0,3",
			"author": "_N. J. A. Sloane_.",
			"references": 0,
			"revision": 9,
			"time": "2020-08-09T01:08:07-04:00",
			"created": "1999-12-11T03:00:00-05:00"
		}
	]
}