{
	"greeting": "Greetings from The On-Line Encyclopedia of Integer Sequences! http://oeis.org/",
	"query": "id:A034096",
	"count": 1,
	"start": 0,
	"results": [
		{
			"number": 34096,
			"data": "26,37,50,65,82,101,102,122,123,145,146,170,171,197,198,226,227,228,257,258,259,290,291,292,325,326,327,362,363,364,401,402,403,404,442,443,444,445,485,486,487,488,530,531,532,533,577,578,579,580,626,627",
			"name": "Fractional part of square root of n starts with digit 0 (squares excluded).",
			"comment": [
				"Given n \u003e 4, n^2 + 1 is in the sequence. In fact, as n gets larger, more and more numbers just above n^2 are also in the sequence. For a particular n, the integers between n^2 and (n + 1/10)^2 are in this sequence. - _Alonso del Arte_, Mar 16 2019"
			],
			"link": [
				"Nathaniel Johnston, \u003ca href=\"/A034096/b034096.txt\"\u003eTable of n, a(n) for n = 1..10000\u003c/a\u003e"
			],
			"formula": [
				"A023961(a(n)) = 0. - _Michel Marcus_, Sep 21 2015"
			],
			"example": [
				"sqrt(145) = 12.041594578792295..., so 145 is in the sequence.",
				"sqrt(146) = 12.083045973594572..., so 146 is also in the sequence.",
				"sqrt(147) = 12.124355652982141..., so 147 is not in the sequence."
			],
			"maple": [
				"A034096 := proc(n) option remember: local k,rt: if(n=1)then return 26: else k:=procname(n-1)+1: do rt:=sqrt(k): if(not frac(rt)=0 and floor(10*rt) mod 10 = 0)then return k: fi: k:=k+1: od: fi: end: seq(A034096(n), n=1..50); # _Nathaniel Johnston_, May 04 2011",
				"seq(seq(x, x=floor(n^2) +1 .. ceil((n+1/10)^2)-1),n=1..100); # _Robert Israel_, Sep 21 2015"
			],
			"mathematica": [
				"zdQ[n_] := Module[{c = Sqrt[n], sr, i, l}, sr = RealDigits[c, 10, 5]; i = Last[sr] + 1; l = First[sr]; l[[i]] == 0 \u0026\u0026 !IntegerQ[c]]; Select[Range[700], zdQ] (* _Harvey P. Dale_, Oct 10 2011 *)",
				"Flatten[Table[Range[n^2 + 1, Floor[(n + 1/10)^2]], {n, 25}]] (* _Alonso del Arte_, Mar 16 2019 *)"
			],
			"program": [
				"(PARI) isok(n) = !issquare(n) \u0026\u0026 !(floor(10*sqrt(n)) % 10); \\\\ _Michel Marcus_, Sep 21 2015"
			],
			"xref": [
				"Cf. A023961, A034106."
			],
			"keyword": "nonn,easy,base",
			"offset": "1,1",
			"author": "_Patrick De Geest_, Sep 15 1998",
			"ext": [
				"Name clarified by _Michel Marcus_, Sep 21 2015"
			],
			"references": 13,
			"revision": 31,
			"time": "2020-09-03T09:43:38-04:00",
			"created": "1999-12-11T03:00:00-05:00"
		}
	]
}