{
	"greeting": "Greetings from The On-Line Encyclopedia of Integer Sequences! http://oeis.org/",
	"query": "id:A034432",
	"count": 1,
	"start": 0,
	"results": [
		{
			"number": 34432,
			"data": "0,0,0,0,0,0,0,0,0,0,0,0,0,0,0,0,0,0,0,0,0,0,0,0,0,0,0,0,0,0,0,0,0,0,0,0,0,0,0,0,0,0,0,0,0,0,6,24,107,330,1025,2812",
			"name": "Multiplicity of highest weight (or singular) vectors associated with character chi_44 of Monster module.",
			"reference": [
				"K. Harada and M. L. Lung, Modular forms associated with the Monster module, pp. 59-83 of The Monster and Lie Algebras, de Gruyter, 1998."
			],
			"keyword": "nonn,more",
			"offset": "1,47",
			"author": "_N. J. A. Sloane_.",
			"references": 0,
			"revision": 5,
			"time": "2013-07-17T02:40:58-04:00",
			"created": "1999-12-11T03:00:00-05:00"
		}
	]
}