{
	"greeting": "Greetings from The On-Line Encyclopedia of Integer Sequences! http://oeis.org/",
	"query": "id:A034471",
	"count": 1,
	"start": 0,
	"results": [
		{
			"number": 34471,
			"data": "0,0,0,0,0,0,0,0,0,0,0,0,0,0,0,0,0,0,0,0,0,0,0,0,0,0,0,0,0,0,0,0,0,0,0,0,0,0,0,0,1,7,46,191,717,2333,7190,20665,57174,151862,392584,988361",
			"name": "Multiplicity of highest weight (or singular) vectors associated with character chi_83 of Monster module.",
			"reference": [
				"K. Harada and M. L. Lung, Modular forms associated with the Monster module, pp. 59-83 of The Monster and Lie Algebras, de Gruyter, 1998."
			],
			"keyword": "nonn",
			"offset": "1,42",
			"author": "_N. J. A. Sloane_.",
			"references": 0,
			"revision": 3,
			"time": "2012-03-30T16:47:29-04:00",
			"created": "1999-12-11T03:00:00-05:00"
		}
	]
}