{
	"greeting": "Greetings from The On-Line Encyclopedia of Integer Sequences! http://oeis.org/",
	"query": "id:A035750",
	"count": 1,
	"start": 0,
	"results": [
		{
			"number": 35750,
			"data": "1,338,19266,454610,6065410,53972178,354870594,1847023698,7988589570,29746958930,97926519106,290835675858,791675204866,2000029880786,4736845866818,10603978331986,22589850308610,46054413896530,90282306981698,170866164067794,313276266562818,558092423954130",
			"name": "Coordination sequence for C_13 lattice.",
			"reference": [
				"R. Bacher, P. de la Harpe and B. Venkov, Series de croissance et series d'Ehrhart associees aux reseaux de racines, C. R. Acad. Sci. Paris, 325 (Series 1) (1997), 1137-1142.",
				"J. Serra-Sagrista, Enumeration of lattice points in l_1 norm, Information Processing Letters, 76, no. 1-2 (2000), 39-44."
			],
			"link": [
				"Seiichi Manyama, \u003ca href=\"/A035750/b035750.txt\"\u003eTable of n, a(n) for n = 0..10000\u003c/a\u003e",
				"J. H. Conway and N. J. A. Sloane, Low-Dimensional Lattices VII: Coordination Sequences, Proc. Royal Soc. London, A453 (1997), 2369-2389 (\u003ca href=\"http://neilsloane.com/doc/Me220.pdf\"\u003epdf\u003c/a\u003e)."
			],
			"formula": [
				"a(n) = [x^(2n)] ((1+x)/(1-x))^13."
			],
			"keyword": "nonn,easy",
			"offset": "0,2",
			"author": "Joan Serra-Sagrista (jserra(AT)ccd.uab.es)",
			"ext": [
				"Recomputed by _N. J. A. Sloane_, Nov 25 1998"
			],
			"references": 3,
			"revision": 16,
			"time": "2018-06-30T20:10:23-04:00",
			"created": "1999-12-11T03:00:00-05:00"
		}
	]
}