{
	"greeting": "Greetings from The On-Line Encyclopedia of Integer Sequences! http://oeis.org/",
	"query": "id:A035320",
	"count": 1,
	"start": 0,
	"results": [
		{
			"number": 35320,
			"data": "1,10,483,56628,12317877,4304016990,2208143028375,1564439686929000,1463987089109939625,1749439028845202483250,2599814727071941690276875,4703355398722212580185337500,10178412573609612134472323548125,25964951174281047136977541086063750,77111791432516504424842576279238829375",
			"name": "Right-hand diagonal of A035309.",
			"link": [
				"Gheorghe Coserea, \u003ca href=\"/A035320/b035320.txt\"\u003eTable of n, a(n) for n = 0..109\u003c/a\u003e"
			],
			"formula": [
				"a(n) = A035318(2*n+1). - _Gheorghe Coserea_, Mar 18 2016"
			],
			"xref": [
				"Cf. A035318."
			],
			"keyword": "nonn",
			"offset": "0,2",
			"author": "_N. J. A. Sloane_.",
			"ext": [
				"More terms from _Gheorghe Coserea_, Mar 18 2016"
			],
			"references": 1,
			"revision": 11,
			"time": "2016-03-19T04:57:09-04:00",
			"created": "1999-12-11T03:00:00-05:00"
		}
	]
}