{
	"greeting": "Greetings from The On-Line Encyclopedia of Integer Sequences! http://oeis.org/",
	"query": "id:A035523",
	"count": 1,
	"start": 0,
	"results": [
		{
			"number": 35523,
			"data": "1,2,4,8,16,32,96,160,320,960,1600,2880,3520,6080,11200,21440,62400,86080,169280,338560,648248,1902840,3281200,6404832,6510784,12950936,25744192,51882584,156278688,261609208,506142216,531792640,1008314456,2014504120",
			"name": "Reverse and add (in base 3).",
			"link": [
				"T. D. Noe, \u003ca href=\"/A035523/b035523.txt\"\u003eTable of n, a(n) for n = 0..500\u003c/a\u003e"
			],
			"formula": [
				"a(n) = A055946(a(n-1)). - _R. J. Mathar_, May 28 2016"
			],
			"example": [
				"32 = 1012, 1012 + 2101 = 10120 = 96."
			],
			"maple": [
				"A035523 := proc(n)",
				"    option remember;",
				"    if n =1 then",
				"        1;",
				"    else",
				"        A055946(procname(n-1)) ;",
				"    end if;",
				"end proc: # _R. J. Mathar_, May 28 2016"
			],
			"mathematica": [
				"NestList[ (Fold[ 3 #1+#2\u0026, 0, Reverse@IntegerDigits[ #, 3 ] ]+#\u0026), 1, 40 ]",
				"Join[{m = 1}, Table[m = m + FromDigits[Reverse[IntegerDigits[m, 3]], 3], {35}]] (* _T. D. Noe_, May 02 2012 *)",
				"NestList[#+IntegerReverse[#,3]\u0026,1,40] (* The program uses the IntegerRevese function from Mathematica version 10 *) (* _Harvey P. Dale_, Feb 21 2016 *)"
			],
			"program": [
				"(Python)",
				"def reversedigits(n, b=10): # reverse digits of n in base b",
				"    x, y = n, 0",
				"    while x \u003e= b:",
				"        x, r = divmod(x, b)",
				"        y = b*y + r",
				"    return b*y + x",
				"A035523_list, l = [1], 1",
				"for _ in range(50):",
				"    l += reversedigits(l, 3)",
				"    A035523_list.append(l)",
				" # _Chai Wah Wu_, Jan 03 2015"
			],
			"xref": [
				"Cf. A035522."
			],
			"keyword": "nonn,easy,nice,base",
			"offset": "0,2",
			"author": "_N. J. A. Sloane_",
			"ext": [
				"More terms from _Wouter Meeussen_"
			],
			"references": 1,
			"revision": 25,
			"time": "2020-03-31T04:44:36-04:00",
			"created": "1999-12-11T03:00:00-05:00"
		}
	]
}