{
	"greeting": "Greetings from The On-Line Encyclopedia of Integer Sequences! http://oeis.org/",
	"query": "id:A035604",
	"count": 1,
	"start": 0,
	"results": [
		{
			"number": 35604,
			"data": "0,2,40,402,2720,14002,58728,209762,658048,1854882,4780008,11414898,25534368,53972178,108568488,209070018,387328512,693230658,1202893992,2029779538,3339504032,5369283570,8453107432,13053926690,19804348032,29557550050,43450388072",
			"name": "Number of points of L1 norm 10 in cubic lattice Z^n.",
			"link": [
				"T. D. Noe, \u003ca href=\"/A035604/b035604.txt\"\u003eTable of n, a(n) for n = 0..1000\u003c/a\u003e",
				"J. H. Conway and N. J. A. Sloane, Low-Dimensional Lattices VII: Coordination Sequences, Proc. Royal Soc. London, A453 (1997), 2369-2389 (\u003ca href=\"http://neilsloane.com/doc/Me220.pdf\"\u003epdf\u003c/a\u003e).",
				"M. Janjic and B. Petkovic, \u003ca href=\"http://arxiv.org/abs/1301.4550\"\u003eA Counting Function\u003c/a\u003e, arXiv preprint arXiv:1301.4550 [math.CO], 2013. - _N. J. A. Sloane_, Feb 13 2013",
				"M. Janjic, B. Petkovic, \u003ca href=\"https://cs.uwaterloo.ca/journals/JIS/VOL17/Janjic/janjic45.html\"\u003eA Counting Function Generalizing Binomial Coefficients and Some Other Classes of Integers\u003c/a\u003e, J. Int. Seq. 17 (2014) # 14.3.5.",
				"Joan Serra-Sagrista, \u003ca href=\"http://dx.doi.org/10.1016/S0020-0190(00)00119-8\"\u003eEnumeration of lattice points in l_1 norm\u003c/a\u003e, Inf. Proc. Lett. 76 (1-2) (2000) 39-44."
			],
			"formula": [
				"a(n) = 2n^2/14175 * (2n^8 + 120n^6 + 1806n^4 + 7180n^2 + 5067).",
				"G.f.: 2*x*(1+x)^9/(1-x)^11. - _Colin Barker_, Apr 15 2012",
				"a(n) = 2*A099197(n). - _R. J. Mathar_, Dec 10 2013",
				"a(n) = a(n-1) + A035603(n) + A035603(n-1). - _Bruce J. Nicholson_, Mar 11 2018"
			],
			"maple": [
				"f := proc(d,m) local i; sum( 2^i*binomial(d,i)*binomial(m-1,i-1),i=1..min(d,m)); end; # n=dimension, m=norm"
			],
			"mathematica": [
				"f[d_, m_] := Sum[2^i*Binomial[d, i]*Binomial[m-1, i-1], {i, 1, Min[d, m]}];",
				"a[n_] := f[n, 10];",
				"Table[a[n], {n, 0, 26}] (* _Jean-François Alcover_, Nov 24 2017, from Maple *)"
			],
			"program": [
				"(PARI) x='x+O('x^99); concat(0, Vec(2*x*(1+x)^9/(1-x)^11)) \\\\ _Altug Alkan_, Mar 12 2018"
			],
			"xref": [
				"Cf. A035607."
			],
			"keyword": "nonn,easy",
			"offset": "0,2",
			"author": "_N. J. A. Sloane_",
			"references": 3,
			"revision": 40,
			"time": "2018-04-09T07:39:11-04:00",
			"created": "1999-12-11T03:00:00-05:00"
		}
	]
}