{
	"greeting": "Greetings from The On-Line Encyclopedia of Integer Sequences! http://oeis.org/",
	"query": "id:A035582",
	"count": 1,
	"start": 0,
	"results": [
		{
			"number": 35582,
			"data": "0,0,0,0,0,0,0,0,1,0,0,1,1,3,1,1,6,5,7,6,8,18,16,18,24,29,48,44,50,72,83,113,117,131,187,209,261,285,325,440,491,576,662,755,978,1084,1245,1458,1671,2068,2304,2609,3096,3526,4232,4730,5348,6324,7187,8410,9462,10665",
			"name": "Number of partitions of n with equal nonzero number of parts congruent to each of 0, 1 and 2 (mod 5)",
			"keyword": "nonn",
			"offset": "0,14",
			"author": "_Olivier Gérard_",
			"ext": [
				"More terms from _David W. Wilson_"
			],
			"references": 0,
			"revision": 8,
			"time": "2012-03-30T18:35:34-04:00",
			"created": "1999-12-11T03:00:00-05:00"
		}
	]
}