{
	"greeting": "Greetings from The On-Line Encyclopedia of Integer Sequences! http://oeis.org/",
	"query": "id:A035906",
	"count": 1,
	"start": 0,
	"results": [
		{
			"number": 35906,
			"data": "1,0,7200,0,8644800,0,4158723680,0,1074729932160,0,173483353200288,0,19187724061887040,0,1548407735451345120,0,95421058074344344320,0,4648998863987510065440,0,184032053624967973166016,0,6051292765125604899742560,0,168331474188275017301655680,0,4022814049902922327686276000,0",
			"name": "Coordination sequence for diamond structure D^+_60. (Edges defined by l_1 norm = 1.)",
			"reference": [
				"J. Serra-Sagrista, Enumeration of lattice points in l_1 norm, Information Processing Letters, 76, no. 1-2 (2000), 39-44."
			],
			"link": [
				"Georg Fischer, \u003ca href=\"/A035906/b035906.txt\"\u003eTable of n, a(n) for n = 0..200\u003c/a\u003e",
				"J. H. Conway and N. J. A. Sloane, Low-Dimensional Lattices VII: Coordination Sequences, Proc. Royal Soc. London, A453 (1997), 2369-2389 (\u003ca href=\"http://neilsloane.com/doc/Me220.pdf\"\u003epdf\u003c/a\u003e)."
			],
			"maple": [
				"f := proc(m) local k,t1; t1 := 2^(n-1)*binomial((n+2*m)/2-1,n-1); if m mod 2 = 0 then t1 := t1+add(2^k*binomial(n,k)*binomial(m-1,k-1),k=0..n); fi; t1; end; where n=60."
			],
			"keyword": "nonn",
			"offset": "0,3",
			"author": "Joan Serra-Sagrista (jserra(AT)ccd.uab.es)",
			"ext": [
				"Recomputed by _N. J. A. Sloane_, Nov 27 1998",
				"Zeroes inserted by _Georg Fischer_, Jul 26 2020"
			],
			"references": 1,
			"revision": 13,
			"time": "2020-07-26T08:45:26-04:00",
			"created": "1999-12-11T03:00:00-05:00"
		}
	]
}