{
	"greeting": "Greetings from The On-Line Encyclopedia of Integer Sequences! http://oeis.org/",
	"query": "id:A035859",
	"count": 1,
	"start": 0,
	"results": [
		{
			"number": 35859,
			"data": "1,1122,315282,39585282,2820372522,130174144914,4236638107746,103169215245426,1964280056680326,30250552830905946,387159959112556938,4209712158409065210,39606467973324369810",
			"name": "Coordination sequence for A_33 lattice.",
			"reference": [
				"R. Bacher, P. de la Harpe and B. Venkov, Series de croissance et series d'Ehrhart associees aux reseaux de racines, C. R. Acad. Sci. Paris, 325 (Series 1) (1997), 1137-1142.",
				"J. Serra-Sagrista, Enumeration of lattice points in l_1 norm, Information Processing Letters, 76, no. 1-2 (2000), 39-44."
			],
			"link": [
				"J. H. Conway and N. J. A. Sloane, Low-Dimensional Lattices VII: Coordination Sequences, Proc. Royal Soc. London, A453 (1997), 2369-2389 (\u003ca href=\"http://neilsloane.com/doc/Me220.pdf\"\u003epdf\u003c/a\u003e).",
				"\u003ca href=\"/index/Rec#order_33\"\u003eIndex entries for linear recurrences with constant coefficients\u003c/a\u003e, signature (33, -528, 5456, -40920, 237336, -1107568, 4272048, -13884156, 38567100, -92561040, 193536720, -354817320, 573166440, -818809200, 1037158320, -1166803110, 1166803110, -1037158320, 818809200, -573166440, 354817320, -193536720, 92561040, -38567100, 13884156, -4272048, 1107568, -237336, 40920, -5456, 528, -33, 1)."
			],
			"formula": [
				"Sum_{d=1..33} C(34, d)*C(m/2-1, d-1)*C(33-d+m/2, m/2), where norm m is always even."
			],
			"keyword": "nonn,easy",
			"offset": "0,2",
			"author": "Joan Serra-Sagrista (jserra(AT)ccd.uab.es)",
			"references": 0,
			"revision": 11,
			"time": "2018-07-01T12:09:01-04:00",
			"created": "1999-12-11T03:00:00-05:00"
		}
	]
}