{
	"greeting": "Greetings from The On-Line Encyclopedia of Integer Sequences! http://oeis.org/",
	"query": "id:A035076",
	"count": 1,
	"start": 0,
	"results": [
		{
			"number": 35076,
			"data": "30,95,300,949,3000,9487,30000,94869,300000,948684,3000000,9486833,30000000,94868330,300000000,948683299,3000000000,9486832981,30000000000,94868329806,300000000000,948683298051,3000000000000",
			"name": "a(n) is root of square starting with digit 9: first term of runs.",
			"formula": [
				"a(n) = ceiling(sqrt(9*10^n)), n \u003e 1."
			],
			"mathematica": [
				"Ceiling[Sqrt[9*10^Range[2,30]]] (* _Harvey P. Dale_, Aug 07 2013 *)"
			],
			"xref": [
				"Cf. A067479 (squares), A017936.",
				"Cf. 2: A035069, 3: A035070, 4: A035071, 5: A035072, 6: A035073, 7: A035074, 8: A035075."
			],
			"keyword": "nonn,base",
			"offset": "2,1",
			"author": "_Patrick De Geest_, Nov 15 1998",
			"references": 8,
			"revision": 11,
			"time": "2019-10-08T16:29:20-04:00",
			"created": "1999-12-11T03:00:00-05:00"
		}
	]
}