{
	"greeting": "Greetings from The On-Line Encyclopedia of Integer Sequences! http://oeis.org/",
	"query": "id:A035173",
	"count": 1,
	"start": 0,
	"results": [
		{
			"number": 35173,
			"data": "1,2,2,3,0,4,2,4,3,0,2,6,2,4,0,5,1,6,0,0,4,4,2,8,1,4,4,6,0,0,2,6,4,2,0,9,0,0,4,0,0,8,0,6,0,4,0,10,3,2,2,6,2,8,0,8,0,0,0,0,0,4,6,7,0,8,0,3,4,0,2,12,0,0,2,0,4,8,2,0,5",
			"name": "Coefficients in expansion of Dirichlet series Product_p (1-(Kronecker(m,p)+1)*p^(-s)+Kronecker(m,p)*p^(-2s))^(-1) for m = -17.",
			"link": [
				"G. C. Greubel, \u003ca href=\"/A035173/b035173.txt\"\u003eTable of n, a(n) for n = 1..10000\u003c/a\u003e"
			],
			"mathematica": [
				"a[n_] := If[n \u003c 0, 0, DivisorSum[n, KroneckerSymbol[-17, #] \u0026]]; Table[a[n], {n, 1, 100}] (* _G. C. Greubel_, Jul 17 2018 *)"
			],
			"program": [
				"(PARI) m = -17; direuler(p=2,101,1/(1-(kronecker(m,p)*(X-X^2))-X))"
			],
			"keyword": "nonn",
			"offset": "1,2",
			"author": "_N. J. A. Sloane_",
			"references": 1,
			"revision": 9,
			"time": "2018-07-18T03:32:42-04:00",
			"created": "1999-12-11T03:00:00-05:00"
		}
	]
}