{
	"greeting": "Greetings from The On-Line Encyclopedia of Integer Sequences! http://oeis.org/",
	"query": "id:A035720",
	"count": 1,
	"start": 0,
	"results": [
		{
			"number": 35720,
			"data": "1,50,1250,20850,261250,2625010,22049250,159369650,1012597250,5749494450,29557550050,139056632050,604033925250,2440870708850,9235138753250,32899217125170,110890799925250,355178132537650",
			"name": "Coordination sequence for 25-dimensional cubic lattice.",
			"link": [
				"Seiichi Manyama, \u003ca href=\"/A035720/b035720.txt\"\u003eTable of n, a(n) for n = 0..10000\u003c/a\u003e",
				"J. H. Conway and N. J. A. Sloane, Low-Dimensional Lattices VII: Coordination Sequences, Proc. Royal Soc. London, A453 (1997), 2369-2389 (\u003ca href=\"http://neilsloane.com/doc/Me220.pdf\"\u003epdf\u003c/a\u003e).",
				"Joan Serra-Sagrista, \u003ca href=\"http://dx.doi.org/10.1016/S0020-0190(00)00119-8\"\u003eEnumeration of lattice points in l_1 norm\u003c/a\u003e, Inf. Proc. Lett. 76 (1-2) (2000) 39-44.",
				"\u003ca href=\"/index/Rec#order_25\"\u003eIndex entries for linear recurrences with constant coefficients\u003c/a\u003e, signature (25, -300, 2300, -12650, 53130, -177100, 480700, -1081575, 2042975, -3268760, 4457400, -5200300, 5200300, -4457400, 3268760, -2042975, 1081575, -480700, 177100, -53130, 12650, -2300, 300, -25, 1)."
			],
			"formula": [
				"G.f.: ((1+x)/(1-x))^25.",
				"n*a(n) = 50*a(n-1) + (n-2)*a(n-2) for n \u003e 1. - _Seiichi Manyama_, Aug 21 2018"
			],
			"keyword": "nonn,easy",
			"offset": "0,2",
			"author": "Joan Serra-Sagrista (jserra(AT)ccd.uab.es)",
			"ext": [
				"Recomputed by _N. J. A. Sloane_, Nov 25 1998"
			],
			"references": 1,
			"revision": 21,
			"time": "2018-08-21T08:23:05-04:00",
			"created": "1999-12-11T03:00:00-05:00"
		}
	]
}