{
	"greeting": "Greetings from The On-Line Encyclopedia of Integer Sequences! http://oeis.org/",
	"query": "id:A035677",
	"count": 1,
	"start": 0,
	"results": [
		{
			"number": 35677,
			"data": "0,0,0,0,0,0,0,0,0,0,0,0,0,1,0,0,0,0,0,1,0,3,0,0,0,1,0,3,0,6,0,1,0,3,0,7,0,12,0,3,0,7,0,15,0,21,0,7,0,16,0,28,0,36,0,16,0,31,0,50,0,60,0,32,0,57,0,85,0,98,0,60,0,100,0,141,0,157,0,107,0,169,0,226,0,248,0",
			"name": "Number of partitions of n into parts 8k and 8k + 6 with at least one part of each type.",
			"link": [
				"Alois P. Heinz, \u003ca href=\"/A035677/b035677.txt\"\u003eTable of n, a(n) for n = 1..20000\u003c/a\u003e (first 361 terms from Antti Karttunen)"
			],
			"formula": [
				"G.f.: (-1 + 1/Product_{k\u003e=0} (1 - x^(8*k + 6)))*(-1 + 1/Product_{k\u003e=1} (1 - x^(8*k))). - _Robert Price_, Aug 13 2020"
			],
			"maple": [
				"b:= proc(n, i, t, s) option remember; `if`(n=0, t*s, `if`(i\u003c1, 0,",
				"       b(n, i-1, t, s)+(h-\u003e `if`(h in {0, 3}, add(b(n-i*j, i-1,",
				"      `if`(h=0, 1, t), `if`(h=3, 1, s)), j=1..n/i), 0))(irem(i, 4))))",
				"    end:",
				"a:= n-\u003e `if`(n::odd, 0, b(n/2$2, 0$2)):",
				"seq(a(n), n=1..100);  # _Alois P. Heinz_, Aug 17 2020"
			],
			"mathematica": [
				"nmax = 87; s1 = Range[1, nmax/8]*8; s2 = Range[0, nmax/8]*8 + 6;",
				"Table[Count[IntegerPartitions[n, All, s1~Join~s2],",
				"x_ /; ContainsAny[x, s1 ] \u0026\u0026 ContainsAny[x, s2 ]], {n, 1, nmax}] (* _Robert Price_, Aug 13 2020 *)",
				"nmax = 87; l = Rest@CoefficientList[Series[(-1 + 1/Product[(1 - x^(8 k)), {k, 1, nmax}])*(-1 + 1/Product[(1 - x^(8 k + 6)), {k, 0, nmax}]), {x, 0, nmax}], x]  (* _Robert Price_, Aug 13 2020 *)"
			],
			"program": [
				"(PARI)",
				"parts8katleast(up_to,n) = select(x -\u003e (x\u003e=n), vector(((up_to+0)\u003e\u003e3),k,((k\u003c\u003c3)-0)));",
				"parts8kplus6(up_to) = vector(((up_to+2)\u003e\u003e3),k,((k\u003c\u003c3)-2));",
				"partitions_for_A035677(n,parts,from=1,has8k6parts=0) = if(!n,(has8k6parts\u003e0), my(k = #parts, s=0); for(i=from,k,if(parts[i]\u003c=n, s += partitions_for_A035677(n-parts[i],parts,i,(has8k6parts+(6==(parts[i]%8)))))); (s));",
				"A035677(n) = if(n%2,0,sum(i=1,n\u003e\u003e3, my(k = i*8); partitions_for_A035677(n-k,vecsort(setunion(parts8katleast(n-k,k),parts8kplus6(n-k)),,4)))); \\\\ _Antti Karttunen_, Feb 06 2019"
			],
			"xref": [
				"Cf. A035441-A035468, A035618-A035676, A035678-A035699.",
				"Bisections give: A035623 (even part), A000004 (odd part)."
			],
			"keyword": "nonn",
			"offset": "1,22",
			"author": "_Olivier Gérard_",
			"references": 3,
			"revision": 31,
			"time": "2020-08-17T14:38:36-04:00",
			"created": "1999-12-11T03:00:00-05:00"
		}
	]
}