{
	"greeting": "Greetings from The On-Line Encyclopedia of Integer Sequences! http://oeis.org/",
	"query": "id:A035619",
	"count": 1,
	"start": 0,
	"results": [
		{
			"number": 35619,
			"data": "0,0,0,0,1,0,1,3,1,3,7,3,8,14,8,17,26,18,33,47,36,61,81,68,106,137,121,181,224,209,296,362,347,478,570,565,750,890,894,1166,1360,1396,1774,2062,2134,2677,3076,3228,3973,4555,4804,5854,6657,7085,8513",
			"name": "Number of partitions of n into parts 3k and 3k+2 with at least one part of each type.",
			"link": [
				"Alois P. Heinz, \u003ca href=\"/A035619/b035619.txt\"\u003eTable of n, a(n) for n = 1..1000\u003c/a\u003e (first 80 terms from Robert Price)"
			],
			"formula": [
				"G.f.: (-1 + 1/Product_{k\u003e=1} (1 - x^(3 k)))*(-1 + 1/Product_{k\u003e=0} (1 - x^(3 k + 2))). - _Robert Price_, Aug 16 2020"
			],
			"mathematica": [
				"nmax = 55; s1 = Range[1, nmax/3]*3; s2 = Range[0, nmax/3]*3 + 2;",
				"Table[Count[IntegerPartitions[n, All, s1~Join~s2],",
				"x_ /; ContainsAny[x, s1 ] \u0026\u0026 ContainsAny[x, s2 ]], {n, 1, nmax}] (* _Robert Price_, Aug 06 2020 *)",
				"nmax = 55; l = Rest@CoefficientList[Series[(-1 + 1/Product[(1 - x^(3 k)), {k, 1, nmax}])*(-1 + 1/Product[(1 - x^(3 k + 2)), {k, 0, nmax}]), {x, 0, nmax}], x]  (* _Robert Price_, Aug 16 2020*)"
			],
			"xref": [
				"Cf. A035441-A035468, A035618, A035620-A035699."
			],
			"keyword": "nonn",
			"offset": "1,8",
			"author": "_Olivier Gérard_",
			"references": 4,
			"revision": 15,
			"time": "2020-08-16T16:31:45-04:00",
			"created": "1999-12-11T03:00:00-05:00"
		}
	]
}