{
	"greeting": "Greetings from The On-Line Encyclopedia of Integer Sequences! http://oeis.org/",
	"query": "id:A035180",
	"count": 1,
	"start": 0,
	"results": [
		{
			"number": 35180,
			"data": "1,1,0,1,1,0,2,1,1,1,2,0,2,2,0,1,0,1,2,1,0,2,2,0,1,2,0,2,0,0,0,1,0,0,2,1,2,2,0,1,2,0,0,2,1,2,2,0,3,1,0,2,2,0,2,2,0,0,2,0,0,0,2,1,2,0,0,0,0,2,0,1,0,2,0,2,4,0,0,1,1",
			"name": "Coefficients in expansion of Dirichlet series Product_p (1-(Kronecker(m,p)+1)*p^(-s)+Kronecker(m,p)*p^(-2s))^(-1) for m = -10.",
			"link": [
				"G. C. Greubel, \u003ca href=\"/A035180/b035180.txt\"\u003eTable of n, a(n) for n = 1..10000\u003c/a\u003e"
			],
			"mathematica": [
				"a[n_] := If[n \u003c 0, 0, DivisorSum[n, KroneckerSymbol[-10, #] \u0026]]; Table[ a[n], {n, 1, 100}] (* _G. C. Greubel_, Apr 27 2018 *)"
			],
			"program": [
				"(PARI) m=-10; direuler(p=2,101,1/(1-(kronecker(m,p)*(X-X^2))-X))"
			],
			"keyword": "nonn",
			"offset": "1,7",
			"author": "_N. J. A. Sloane_",
			"references": 2,
			"revision": 8,
			"time": "2018-04-28T03:09:57-04:00",
			"created": "1999-12-11T03:00:00-05:00"
		}
	]
}