{
	"greeting": "Greetings from The On-Line Encyclopedia of Integer Sequences! http://oeis.org/",
	"query": "id:A035919",
	"count": 1,
	"start": 0,
	"results": [
		{
			"number": 35919,
			"data": "1,0,14792,0,36477072,0,36010162520,0,19069940181280,0,6295606113770728,0,1420507268612532656,0,233146706655610223736,0,29119100331561118798400,0,2863789159379953441861640,0,227816193344959389026441936,0,14980493079438827125762543512,0,828964387249656093121206745952,0",
			"name": "Coordination sequence for diamond structure D^+_86. (Edges defined by l_1 norm = 1.)",
			"reference": [
				"J. Serra-Sagrista, Enumeration of lattice points in l_1 norm, Information Processing Letters, 76, no. 1-2 (2000), 39-44."
			],
			"link": [
				"Georg Fischer, \u003ca href=\"/A035919/b035919.txt\"\u003eTable of n, a(n) for n = 0..200\u003c/a\u003e",
				"J. H. Conway and N. J. A. Sloane, Low-Dimensional Lattices VII: Coordination Sequences, Proc. Royal Soc. London, A453 (1997), 2369-2389 (\u003ca href=\"http://neilsloane.com/doc/Me220.pdf\"\u003epdf\u003c/a\u003e)."
			],
			"maple": [
				"f := proc(m) local k,t1; t1 := 2^(n-1)*binomial((n+2*m)/2-1,n-1); if m mod 2 = 0 then t1 := t1+add(2^k*binomial(n,k)*binomial(m-1,k-1),k=0..n); fi; t1; end; where n=86."
			],
			"keyword": "nonn",
			"offset": "0,3",
			"author": "Joan Serra-Sagrista (jserra(AT)ccd.uab.es)",
			"ext": [
				"Recomputed by _N. J. A. Sloane_, Nov 27 1998",
				"Zeroes inserted by _Georg Fischer_, Jul 26 2020"
			],
			"references": 1,
			"revision": 14,
			"time": "2020-07-26T09:03:23-04:00",
			"created": "1999-12-11T03:00:00-05:00"
		}
	]
}