{
	"greeting": "Greetings from The On-Line Encyclopedia of Integer Sequences! http://oeis.org/",
	"query": "id:A036399",
	"count": 1,
	"start": 0,
	"results": [
		{
			"number": 36399,
			"data": "12,66,312,1368,5685",
			"name": "Duplicate of A003200.",
			"keyword": "dead",
			"offset": "1,1",
			"references": 0,
			"revision": 8,
			"time": "2021-03-04T11:23:27-05:00",
			"created": "1999-12-11T03:00:00-05:00"
		}
	]
}