{
	"greeting": "Greetings from The On-Line Encyclopedia of Integer Sequences! http://oeis.org/",
	"query": "id:A036619",
	"count": 1,
	"start": 0,
	"results": [
		{
			"number": 36619,
			"data": "1,1,1,2,4,9,20,47,112,276,684,1713,4295,10797,27103,67985,170202,425420,1061324,2643451,6573241,16321357,40469502,100219208,247888403,612467226,1511670488,3727408256,9182341969,22600453960,55579530018",
			"name": "Number of 5-ary rooted trees with n nodes and height at most 8.",
			"link": [
				"E. M. Rains and N. J. A. Sloane, \u003ca href=\"https://cs.uwaterloo.ca/journals/JIS/cayley.html\"\u003eOn Cayley's Enumeration of Alkanes (or 4-Valent Trees)\u003c/a\u003e, J. Integer Sequences, Vol. 2 (1999), Article 99.1.1.",
				"\u003ca href=\"/index/Ro#rooted\"\u003eIndex entries for sequences related to rooted trees\u003c/a\u003e"
			],
			"keyword": "nonn,fini",
			"offset": "0,4",
			"author": "_N. J. A. Sloane_.",
			"references": 0,
			"revision": 14,
			"time": "2020-12-21T03:18:00-05:00",
			"created": "1999-12-11T03:00:00-05:00"
		}
	]
}