{
	"greeting": "Greetings from The On-Line Encyclopedia of Integer Sequences! http://oeis.org/",
	"query": "id:A036901",
	"count": 1,
	"start": 0,
	"results": [
		{
			"number": 36901,
			"data": "2,98,604,1155,46847,175403",
			"name": "Scan decimal expansion of log(2) until all n-digit strings have been seen; a(n) is last string seen.",
			"link": [
				"Eric Weisstein's World of Mathematics, \u003ca href=\"http://mathworld.wolfram.com/ConstantDigitScanning.html\"\u003eConstant Digit Scanning\u003c/a\u003e",
				"Eric Weisstein's World of Mathematics, \u003ca href=\"http://mathworld.wolfram.com/NaturalLogarithmof2Digits.html\"\u003eNatural Logarithm of 2 Digits\u003c/a\u003e"
			],
			"xref": [
				"Cf. A002162 (decimal expansion of log(2)).",
				"Cf. A036905 (number of digits in the decimal expansion of log(2) that must be scanned to see all n-digit strings).",
				"Cf. A032510, A036900-A036906."
			],
			"keyword": "nonn,base,more",
			"offset": "1,1",
			"author": "_Michael Kleber_",
			"references": 2,
			"revision": 9,
			"time": "2013-09-16T00:52:51-04:00",
			"created": "1999-12-11T03:00:00-05:00"
		}
	]
}