{
	"greeting": "Greetings from The On-Line Encyclopedia of Integer Sequences! http://oeis.org/",
	"query": "id:A036513",
	"count": 1,
	"start": 0,
	"results": [
		{
			"number": 36513,
			"data": "16,676,46656,1666681,26666896,4666665969,26661664656,616686666436,12666666068676,696626660666596,16666569616666761,64666665664666569,666566667666656964,16656666666663616576,6466267667066666666596,46366666666326666766276",
			"name": "Smallest square containing exactly n 6's.",
			"comment": [
				"a(21) \u003e 10^28. - _Giovanni Resta_, Jul 27 2018"
			],
			"link": [
				"Giovanni Resta, \u003ca href=\"/A036513/b036513.txt\"\u003eTable of n, a(n) for n = 1..20\u003c/a\u003e"
			],
			"example": [
				"a(n) = A048351(n)^2."
			],
			"mathematica": [
				"a[n_] := Block[{k=1}, While[DigitCount[k^2, 10, 6] != n, k++]; k^2]; Array[a, 6] (* _Giovanni Resta_, Jul 27 2018 *)"
			],
			"xref": [
				"Cf. A048351. - _Jon E. Schoenfield_, Jan 24 2009"
			],
			"keyword": "nonn,base",
			"offset": "1,1",
			"author": "_David W. Wilson_",
			"ext": [
				"a(13)-a(15) from _Jon E. Schoenfield_, Jan 14 2009",
				"a(16) from _Giovanni Resta_, Jul 27 2018"
			],
			"references": 3,
			"revision": 14,
			"time": "2021-04-26T15:50:13-04:00",
			"created": "1999-12-11T03:00:00-05:00"
		}
	]
}