{
	"greeting": "Greetings from The On-Line Encyclopedia of Integer Sequences! http://oeis.org/",
	"query": "id:A036051",
	"count": 1,
	"start": 0,
	"results": [
		{
			"number": 36051,
			"data": "0,0,0,2,4,14,26,68,128,272,492,990,1718,3162,5510,9706,16266,27884,45702,76072,122770,198814,314782,502026,781326,1221738,1878460,2890834,4384516,6659228,9986558,14962700,22213548,32899640,48336230,70912120,103173604",
			"name": "Sum of distances between greatest-part-order and length-order of partitions of n.",
			"link": [
				"Sean A. Irvine, \u003ca href=\"https://github.com/archmageirvine/joeis/blob/master/src/irvine/oeis/a036/A036051.java\"\u003eJava program\u003c/a\u003e (github)"
			],
			"xref": [
				"Cf. A036045-A036056."
			],
			"keyword": "nonn",
			"offset": "1,4",
			"author": "_Olivier Gérard_",
			"ext": [
				"More terms from _Sean A. Irvine_, Oct 20 2020"
			],
			"references": 2,
			"revision": 8,
			"time": "2020-10-21T02:48:13-04:00",
			"created": "1999-12-11T03:00:00-05:00"
		}
	]
}