{
	"greeting": "Greetings from The On-Line Encyclopedia of Integer Sequences! http://oeis.org/",
	"query": "id:A036480",
	"count": 1,
	"start": 0,
	"results": [
		{
			"number": 36480,
			"data": "4,0,0,4,0,0,4,0,4,4,0,0,4,0,4,4,4,4,4,4,4,4,4,4,8,4,4,8,8,4,8,8,8,1,8,8,1,8,1,1,1,1,5,1,5,5,5,5,9,5,9,9,9,9,2,2,6,6,6,6,10,6,10,3,3,3,7,3,7,0,0,0,8,4,8,1,1,1,9,5,2,2,2,6,3,10,3,7,0,0,8,8,1,5,9,9,10,6,3,7,0,0,1",
			"name": "Partition(11n+7) mod 11.",
			"xref": [
				"Cf. A000041."
			],
			"keyword": "nonn",
			"offset": "1,1",
			"author": "_David W. Wilson_",
			"references": 1,
			"revision": 7,
			"time": "2012-03-30T18:35:34-04:00",
			"created": "1999-12-11T03:00:00-05:00"
		}
	]
}