{
	"greeting": "Greetings from The On-Line Encyclopedia of Integer Sequences! http://oeis.org/",
	"query": "id:A036104",
	"count": 1,
	"start": 0,
	"results": [
		{
			"number": 36104,
			"data": "0,2,1210,222110,424120,24523120,153413522120,352433624120,16353453624120,36354463523120,46454473423120,1736357463422120,3736257453523120,4736453473623120,4736454483522120,183736357463522120",
			"name": "A summarize Fibonacci sequence: summarize the previous two terms!.",
			"comment": [
				"From the 50th term the sequence gets into a cycle of 117."
			],
			"xref": [
				"Cf. A036059."
			],
			"keyword": "base,easy,nonn",
			"offset": "0,2",
			"author": "_Floor van Lamoen_",
			"references": 0,
			"revision": 4,
			"time": "2015-03-02T16:08:43-05:00",
			"created": "1999-12-11T03:00:00-05:00"
		}
	]
}