{
	"greeting": "Greetings from The On-Line Encyclopedia of Integer Sequences! http://oeis.org/",
	"query": "id:A036334",
	"count": 1,
	"start": 0,
	"results": [
		{
			"number": 36334,
			"data": "0,10,104,1048,10077,96411,919196,8779116,84018465,806042505,7751259738,74707764877,721541770283,6982040969944,67679076290812,657067482195951,6388342113379479,62192024806773396,606179550401383787",
			"name": "Number of composite numbers whose juxtaposition of prime factors has length n.",
			"xref": [
				"Cf. A036326-A036333."
			],
			"keyword": "nonn,base",
			"offset": "1,2",
			"author": "_Patrick De Geest_, Dec 15 1998",
			"ext": [
				"More terms from _David Wasserman_, Mar 03 2002"
			],
			"references": 8,
			"revision": 6,
			"time": "2019-10-10T00:18:41-04:00",
			"created": "1999-12-11T03:00:00-05:00"
		}
	]
}