{
	"greeting": "Greetings from The On-Line Encyclopedia of Integer Sequences! http://oeis.org/",
	"query": "id:A036422",
	"count": 1,
	"start": 0,
	"results": [
		{
			"number": 36422,
			"data": "0,0,0,0,0,0,0,1,6,26,88,267,743,1968,5006,12394,29984,71289,166927,386042,882887,1999964,4491226,10008151,22144282,48681992,106384313,231200051,499868227,1075542674,2303703530,4913213715,10436198873",
			"name": "Number of ternary rooted trees with n nodes and height exactly 7.",
			"link": [
				"Sean A. Irvine, \u003ca href=\"/A036422/b036422.txt\"\u003eTable of n, a(n) for n = 0..1093\u003c/a\u003e",
				"\u003ca href=\"/index/Ro#rooted\"\u003eIndex entries for sequences related to rooted trees\u003c/a\u003e"
			],
			"formula": [
				"a(n) = A036375(n) - A036374(n). - _Sean A. Irvine_, Oct 31 2020"
			],
			"xref": [
				"Cf. A036370, A036437."
			],
			"keyword": "nonn,fini,full",
			"offset": "0,9",
			"author": "_N. J. A. Sloane_, Eric Rains (rains(AT)caltech.edu)",
			"references": 1,
			"revision": 13,
			"time": "2020-10-31T17:19:26-04:00",
			"created": "1999-12-11T03:00:00-05:00"
		}
	]
}