{
	"greeting": "Greetings from The On-Line Encyclopedia of Integer Sequences! http://oeis.org/",
	"query": "id:A036380",
	"count": 1,
	"start": 0,
	"results": [
		{
			"number": 36380,
			"data": "0,1,1,2,3,2,4,3,4,6,5,9,10,11,17,15,26,31,39,53,68,90,125,159,216,290,391,536,719,971,1329,1812,2477,3386,4626,6351,8729,11995,16459,22669,31259,43049,59388,82024,113275,156558,216560,299566,414821,574654",
			"name": "Number of true prime powers whose binary order, ceiling(log_2(p^x)), is n.",
			"example": [
				"The 5 prime powers between 1025 and 2048 (inclusive) are 1331 = 11^3, 1369 = 37^2, 1681 = 41^2, 1849 = 43^2, and 2048 = 2^11."
			],
			"mathematica": [
				"t=Table[Length[Union[Flatten[Table[Table[Prime[w]^s, {w, 1, PrimePi[2^(n/s)]}], {s, 2, g+1}]]] ], {n, 1, 42}] Delete[t-RotateRight[t], 1]"
			],
			"xref": [
				"Cf. A029837, A036378-A036390."
			],
			"keyword": "nonn",
			"offset": "1,4",
			"author": "_Labos Elemer_",
			"ext": [
				"More terms from _Sean A. Irvine_, Oct 29 2020"
			],
			"references": 2,
			"revision": 15,
			"time": "2020-10-29T21:58:54-04:00",
			"created": "1999-12-11T03:00:00-05:00"
		}
	]
}