{
	"greeting": "Greetings from The On-Line Encyclopedia of Integer Sequences! http://oeis.org/",
	"query": "id:A036171",
	"count": 1,
	"start": 0,
	"results": [
		{
			"number": 36171,
			"data": "0,1,17,2,47,18,14,3,34,48,6,19,24,15,12,4,10,35,37,49,31,7,39,20,42,25,51,16,46,13,33,5,23,11,9,36,30,38,41,50,45,32,22,8,29,40,44,21,28,43,27,26",
			"name": "Log base 2 (n) mod 53.",
			"reference": [
				"I. M. Vinogradov, Elements of Number Theory, p. 220ff."
			],
			"maple": [
				"a:= n-\u003e numtheory[mlog](n, 2, 53):",
				"seq(a(n), n=1..52);  # _Alois P. Heinz_, Aug 21 2021"
			],
			"mathematica": [
				"a[1]=0; a[n_]:=MultiplicativeOrder[2, 53, {n}]; Array[a, 52] (* _Vincenzo Librandi_, Apr 03 2020 *)"
			],
			"keyword": "nonn,fini,full",
			"offset": "1,3",
			"author": "_N. J. A. Sloane_",
			"references": 0,
			"revision": 15,
			"time": "2021-08-21T07:03:52-04:00",
			"created": "1999-12-11T03:00:00-05:00"
		}
	]
}