{
	"greeting": "Greetings from The On-Line Encyclopedia of Integer Sequences! http://oeis.org/",
	"query": "id:A036414",
	"count": 1,
	"start": 0,
	"results": [
		{
			"number": 36414,
			"data": "0,0,0,0,0,0,1,0,2,0,1,1,0,2,2,0,2,3,1,2,0,3,2,4,3,1,3,3,4,3,2,4,5,0,4,5,4,8,6,6,5,2,5,5,5,5,8,5,5,4,8,6,6,5,0,6,7,8,7,6,8,8,11,9,8,10,9,4,9,9,9,8,8,9,8,12,8,8,10,9,6,9,8,11,10,8,10,10,0,10,11,9,12,12,14",
			"name": "Number of empty intervals when fractional_part(i*phi) for i = 1, ..., n is plotted along [ 0, 1 ] subdivided into n equal regions.",
			"reference": [
				"H. Steinhaus, Mathematical Snapshots, 3rd American ed. New York: Oxford University Press, pp. 48-49, 1983."
			],
			"link": [
				"Ivan Neretin, \u003ca href=\"/A036414/b036414.txt\"\u003eTable of n, a(n) for n = 1..10000\u003c/a\u003e",
				"Eric Weisstein's World of Mathematics, \u003ca href=\"http://mathworld.wolfram.com/EquidistributedSequence.html\"\u003eEquidistributed Sequence\u003c/a\u003e",
				"Eric Weisstein's World of Mathematics, \u003ca href=\"http://mathworld.wolfram.com/GoldenRatio.html\"\u003eGolden Ratio\u003c/a\u003e"
			],
			"mathematica": [
				"Table[Length@Complement[Range[n] - 1, Floor[n*FractionalPart[GoldenRatio*Range[n]]]], {n, 95}] (* _Ivan Neretin_, Jan 23 2018 *)"
			],
			"xref": [
				"Cf. A036415 (positions of 0).",
				"Cf. similar sequences with other constants: A036412 (e), A036416 (Pi), A046157 (gamma)."
			],
			"keyword": "nonn,look",
			"offset": "1,9",
			"author": "_Eric W. Weisstein_",
			"references": 5,
			"revision": 17,
			"time": "2018-01-24T14:06:41-05:00",
			"created": "1999-12-11T03:00:00-05:00"
		}
	]
}