{
	"greeting": "Greetings from The On-Line Encyclopedia of Integer Sequences! http://oeis.org/",
	"query": "id:A036547",
	"count": 1,
	"start": 0,
	"results": [
		{
			"number": 36547,
			"data": "1,65,257,833,2561,7745,23297,69953,209921,629825,1889537,5668673,17006081,51018305,153054977,459164993,1377495041,4132485185,12397455617,37192366913,111577100801,334731302465,1004193907457",
			"name": "a(n) = T(6,n), array T given by A048471.",
			"link": [
				"Vincenzo Librandi, \u003ca href=\"/A036547/b036547.txt\"\u003eTable of n, a(n) for n = 0..1000\u003c/a\u003e",
				"\u003ca href=\"/index/Rec\"\u003eIndex entries for linear recurrences with constant coefficients\u003c/a\u003e, signature (4,-3)."
			],
			"formula": [
				"a(n) = 32*3^n - 31. - _Ralf Stephan_, Feb 17 2004",
				"From _Vincenzo Librandi_, Nov 11 2011: (Start)",
				"a(n) = 3*a(n-1) + 62.",
				"a(n) = 4*a(n-1) - 3*a(n-2).",
				"G.f.: (1+61*x)/((1-x)*(1-3*x)). (End)"
			],
			"program": [
				"(MAGMA) [32*3^n-31: n in [0..30]]; // _Vincenzo Librandi_, Nov 11 2011"
			],
			"xref": [
				"n-th difference of a(n), a(n-1), ..., a(0) is 2^(n+5) for n=1, 2, 3, ..."
			],
			"keyword": "nonn,easy",
			"offset": "0,2",
			"author": "_Clark Kimberling_",
			"references": 2,
			"revision": 16,
			"time": "2018-11-23T03:08:50-05:00",
			"created": "1999-12-11T03:00:00-05:00"
		}
	]
}