{
	"greeting": "Greetings from The On-Line Encyclopedia of Integer Sequences! http://oeis.org/",
	"query": "id:A036713",
	"count": 1,
	"start": 0,
	"results": [
		{
			"number": 36713,
			"data": "0,1,3,5,9,13,18,23,29,38,45,54,63,74,85,96,110,124,138,153,167,185,203,221,239,260,281,301,324,346,371,395,419,445,473,501,530,558,589,619,652,683,716,751,784,820,855,893,931,970,1010",
			"name": "a(n)=number of Gaussian integers z=a+bi satisfying |z|\u003c=n+1/2, a\u003e=0, 0\u003c=b\u003ca.",
			"link": [
				"Robert Israel, \u003ca href=\"/A036713/b036713.txt\"\u003eTable of n, a(n) for n = 0..2000\u003c/a\u003e",
				"\u003ca href=\"/index/Ga#gaussians\"\u003eIndex entries for Gaussian integers and primes\u003c/a\u003e"
			],
			"maple": [
				"N:= 100: V:= Vector(N):",
				"for a from 1 to N do",
				"  for b from 0 to a-1 do",
				"    nmin:= ceil(sqrt(a^2+b^2)-1/2);",
				"    if nmin \u003e N then break fi;",
				"    V[nmin..N]:= V[nmin..N]+~1",
				"od od:",
				"0,seq(V[i],i=1..N); # _Robert Israel_, Jul 14 2019"
			],
			"keyword": "nonn",
			"offset": "0,3",
			"author": "_Clark Kimberling_",
			"references": 1,
			"revision": 10,
			"time": "2019-07-14T06:31:11-04:00",
			"created": "1999-12-11T03:00:00-05:00"
		}
	]
}