{
	"greeting": "Greetings from The On-Line Encyclopedia of Integer Sequences! http://oeis.org/",
	"query": "id:A036772",
	"count": 1,
	"start": 0,
	"results": [
		{
			"number": 36772,
			"data": "1,5,2520,9909900,150089940000,6217438242015000,574985352122181000000,103753754577643425255000000,33189544956070738228953960000000,17517292900368819935211385551000000000,14427024664929016470240101675459976000000000",
			"name": "Number of labeled rooted trees with a degree constraint: ((4*n)!/(24^n)) * binomial(4*n+1, n).",
			"link": [
				"L. Takacs, \u003ca href=\"http://www.appliedprobability.org/data/files/TMS%20articles/18_1_1.pdf \"\u003eEnumeration of rooted trees and forests\u003c/a\u003e, Math. Scientist 18 (1993), 1-10;  see Eq. (13) on p. 4 (with r = 4).",
				"\u003ca href=\"/index/Ro#rooted\"\u003eIndex entries for sequences related to rooted trees\u003c/a\u003e"
			],
			"formula": [
				"From _Petros Hadjicostas_, Jun 08 2019: (Start)",
				"Recurrence (with no interpolated zeros): -8 * (4*n + 1) * (4*n + 3)^2 * (2*n + 1)^2 * (4*n + 5) * a(n) + (81*n^2 + 162*n + 72) * a(n + 1) = 0 for n \u003e= 0 with a(0) = 1.",
				"E.g.f. (with interpolated zeros): Let G(x) = Sum_{n \u003e= 0} a(n)*x^(4*n + 1)/(4*n + 1)!. Then the e.g.f. satisfies G(x) = x * (1 + G(x)^4/4!).",
				"(End)"
			],
			"mathematica": [
				"Table[(4n)!/24^n Binomial[4n+1,n],{n,0,10}] (* _Harvey P. Dale_, Aug 10 2011 *)"
			],
			"xref": [
				"Cf. A036770, A036771, A036773."
			],
			"keyword": "nonn",
			"offset": "0,2",
			"author": "_N. J. A. Sloane_.",
			"references": 3,
			"revision": 39,
			"time": "2019-06-23T22:14:53-04:00",
			"created": "1999-12-11T03:00:00-05:00"
		}
	]
}