{
	"greeting": "Greetings from The On-Line Encyclopedia of Integer Sequences! http://oeis.org/",
	"query": "id:A036461",
	"count": 1,
	"start": 0,
	"results": [
		{
			"number": 36461,
			"data": "1,0,2,0,2,2,2,2,4,0,4,2,4,2,6,4,2,4,6,2,6,4,6,4,8,2,10,4,4,8,6,8,8,8,8,6,10,8,10,10,6,6,12,8,10,14,8,10,10,12,16,8,12,18,10,10,14,10,14,14,16,10,16,12,16,16,14,16,14,18,20,12,20,10,22,12,26,8,20,12,22,14,16",
			"name": "Number of 1 digits in base 3 representation of 2^n.",
			"comment": [
				"The number of 1's in the base 3 representation of any even(odd) number is even(odd)."
			],
			"link": [
				"Robert Israel, \u003ca href=\"/A036461/b036461.txt\"\u003eTable of n, a(n) for n = 0..10000\u003c/a\u003e"
			],
			"maple": [
				"seq(numboccur(1,convert(2^n,base,3)),n=0..100); # _Robert Israel_, Apr 04 2018"
			],
			"mathematica": [
				"Table[DigitCount[2^n,3,1],{n,0,120}]  (* _Harvey P. Dale_, Mar 14 2011 *)"
			],
			"program": [
				"(PARI) a(n) = #select(x-\u003e(x==1), digits(2^n, 3)); \\\\ _Michel Marcus_, Apr 04 2018"
			],
			"xref": [
				"Cf. A020915 (number of digits), A104320 (number of 0's), A260683 (number of 2's)."
			],
			"keyword": "base,nonn",
			"offset": "0,3",
			"author": "_David W. Wilson_",
			"references": 2,
			"revision": 15,
			"time": "2018-04-04T15:43:34-04:00",
			"created": "1999-12-11T03:00:00-05:00"
		}
	]
}