{
	"greeting": "Greetings from The On-Line Encyclopedia of Integer Sequences! http://oeis.org/",
	"query": "id:A036360",
	"count": 1,
	"start": 0,
	"results": [
		{
			"number": 36360,
			"data": "1,12,153,2272,39225,776736,17398969,435538944,12058401393,366021568000,12090393761721,431832459644928,16585599200808937,681703972229640192,29858718555221585625,1388451967046195347456,68316647610168842824161",
			"name": "Number of labeled connected functional digraphs.",
			"reference": [
				"F. Harary and E. Palmer, Graphical Enumeration, (1973), p. 30."
			],
			"formula": [
				"a(n) = (n+1)^2 * A001865(n+1). - _Gerald McGarvey_, Apr 17 2008"
			],
			"maple": [
				"f := proc(n) local k; add(n!*n^(n-k+1)/(n-k)!,k=1..n); end;"
			],
			"keyword": "nonn,easy",
			"offset": "0,2",
			"author": "_N. J. A. Sloane_.",
			"references": 0,
			"revision": 7,
			"time": "2012-03-30T17:28:31-04:00",
			"created": "1999-12-11T03:00:00-05:00"
		}
	]
}