{
	"greeting": "Greetings from The On-Line Encyclopedia of Integer Sequences! http://oeis.org/",
	"query": "id:A036453",
	"count": 1,
	"start": 0,
	"results": [
		{
			"number": 36453,
			"data": "1,2,2,2,2,2,2,2,2,2,2,2,2,2,2,2,2,2,2,2,2,2,2,2,2,2,2,2,2,2,2,2,2,2,2,2,2,2,2,2,2,2,2,2,2,2,2,2,2,2,2,2,2,2,2,2,2,2,2,2,2,2,2,2,2,2,2,2,2,2,2,2,2,2,2,2,2,2,2,2,2,2,2,2,2,2,2,2,2,2,2,2,2,2,2,2,2,2,2,2,2,2,2,2,2",
			"name": "a(n) = d(d(d(d(d(n))))), the 5th iterate of the number-of-divisors function with initial value n.",
			"comment": [
				"The iterated d function rapidly converges to fixed point 2. In the 5th iterated d-sequence the first term different from the fixed point 2 appears at n=5040. The 6th and further iterated sequences have very long initial segment of 2's. In the 6th one the first non-stationary term is a(293318625600)=3. In such sequences any large value occurs infinite many times and constructible.",
				"Differs from A007395 for n=1, 5040, 7920, 8400, 9360, 10080, 10800 etc. - _R. J. Mathar_, Oct 20 2008"
			],
			"link": [
				"Charles R Greathouse IV, \u003ca href=\"/A036453/b036453.txt\"\u003eTable of n, a(n) for n = 1..10000\u003c/a\u003e"
			],
			"example": [
				"E.g., n=96 and its successive iterates are 12,6,4,3 and 2. The 5th term is a(96)=2 is stationary(fixed)."
			],
			"mathematica": [
				"Table[Nest[DivisorSigma[0,#]\u0026,n,5],{n,110}] (* _Harvey P. Dale_, Jun 18 2021 *)"
			],
			"program": [
				"(PARI) a(n)=my(d=numdiv);d(d(d(d(d(n))))) \\\\ _Charles R Greathouse IV_, Apr 07 2012"
			],
			"xref": [
				"Cf. A000005, A010553, A036450, A036452."
			],
			"keyword": "nonn",
			"offset": "1,2",
			"author": "_Labos Elemer_",
			"ext": [
				"Previous Mathematica program replaced by _Harvey P. Dale_, Jun 18 2021"
			],
			"references": 9,
			"revision": 21,
			"time": "2021-06-18T16:26:47-04:00",
			"created": "1999-12-11T03:00:00-05:00"
		}
	]
}