{
	"greeting": "Greetings from The On-Line Encyclopedia of Integer Sequences! http://oeis.org/",
	"query": "id:A036339",
	"count": 1,
	"start": 0,
	"results": [
		{
			"number": 36339,
			"data": "467,941,13681,14461,21787,22171,22369,24049,24151,25457,29333,37397,41221,42467,43481,46511,48023,54133,56681,68699,75883,85081,101341,103511,117443,120193,126199,137363,144323,145133,158791,175853,181891,183797",
			"name": "Concatenation of prime p and nextprime(p) is prime -\u003e cycles of 2 steps possible.",
			"link": [
				"C. Rivera, \u003ca href=\"http://www.primepuzzles.net/puzzles/puzz_029.htm\"\u003eDetails of procedure\u003c/a\u003e"
			],
			"xref": [
				"Cf. A030459, A034592, A036340, A036341."
			],
			"keyword": "nonn,base",
			"offset": "1,1",
			"author": "_Patrick De Geest_, Dec 15 1998",
			"ext": [
				"Offset corrected and missing 181891 inserted by _Sean A. Irvine_, Oct 26 2020"
			],
			"references": 3,
			"revision": 9,
			"time": "2020-10-26T17:15:46-04:00",
			"created": "1999-12-11T03:00:00-05:00"
		}
	]
}