{
	"greeting": "Greetings from The On-Line Encyclopedia of Integer Sequences! http://oeis.org/",
	"query": "id:A037006",
	"count": 1,
	"start": 0,
	"results": [
		{
			"number": 37006,
			"data": "11,18,26,34,35,52,67,74,78,81,84,88,101,105,107,113,124,134,147,150,152,161,171,189,197,204,205,222,228,233,236,255,267,279,305,317,318,322,323,334,352,372,373,383,425,431,447,450,472,473,481,489,491,502",
			"name": "Positions of the digit '8' in the decimal expansion of Pi.",
			"link": [
				"Amiram Eldar, \u003ca href=\"/A037006/b037006.txt\"\u003eTable of n, a(n) for n = 1..10000\u003c/a\u003e",
				"Eric Weisstein's World of Mathematics, \u003ca href=\"http://mathworld.wolfram.com/PiDigits.html\"\u003ePi Digits.\u003c/a\u003e"
			],
			"mathematica": [
				"Flatten @ Position[ RealDigits[Pi - 3, 10, 500][[1]], 8] (* _Robert G. Wilson v_, Mar 07 2011 *)"
			],
			"xref": [
				"Cf. A036974.",
				"Cf. A037000, A037001, A037002, A037003, A037004, A037005, A036974, A037007, A037008."
			],
			"keyword": "base,nonn",
			"offset": "1,1",
			"author": "Nicolau C. Saldanha (nicolau(AT)mat.puc-rio.br)",
			"references": 24,
			"revision": 16,
			"time": "2020-03-22T08:03:08-04:00",
			"created": "1999-12-11T03:00:00-05:00"
		}
	]
}