{
	"greeting": "Greetings from The On-Line Encyclopedia of Integer Sequences! http://oeis.org/",
	"query": "id:A037096",
	"count": 1,
	"start": 0,
	"results": [
		{
			"number": 37096,
			"data": "1,2,0,204,30840,3743473440,400814250895866480,192435610587299441243182587501623263200,2911899996313975217187797869354128351340558818020188112521784134070351919360",
			"name": "Periodic vertical binary vectors computed for powers of 3: a(n) = Sum_{k=0 .. (2^n)-1} (floor((3^k)/(2^n)) mod 2) * 2^k.",
			"comment": [
				"This sequence can be also computed with a recurrence that does not explicitly refer to 3^n. See the C-program.",
				"Conjecture: For n\u003e=3, each term a(n), when considered as a GF(2)[X]-polynomial, is divisible by the GF(2)[X]-polynomial (x + 1) ^ A055010(n-1). If this holds, then for n\u003e=3, a(n) = A048720(A136386(n), A048723(3,A055010(n-1)))."
			],
			"reference": [
				"S. Wolfram, A New Kind of Science, Wolfram Media Inc., (2002), p. 119."
			],
			"link": [
				"A. Karttunen, \u003ca href=\"/A037096/b037096.txt\"\u003eTable of n, a(n) for n = 0..11\u003c/a\u003e",
				"A. Karttunen, \u003ca href=\"/A036284/a036284.c.txt\"\u003eC program for computing this sequence\u003c/a\u003e",
				"S. Wolfram, \u003ca href=\"http://www.wolframscience.com/nksonline/page-119\"\u003eA New Kind of Science, Wolfram Media Inc., (2002), p. 119.\u003c/a\u003e"
			],
			"formula": [
				"a(n) = Sum_{k=0 .. A000225(n)} (floor(A000244(k)/(2^n)) mod 2) * 2^k.",
				"Other identities and observations:",
				"For n\u003e=2, a(n) = A000215(n-1)*A037097(n) = A048720(A037097(n), A048723(3, A000079(n-1)))."
			],
			"example": [
				"When powers of 3 are written in binary (see A004656), under each other as:",
				"000000000001 (1)",
				"000000000011 (3)",
				"000000001001 (9)",
				"000000011011 (27)",
				"000001010001 (81)",
				"000011110011 (243)",
				"001011011001 (729)",
				"100010001011 (2187)",
				"it can be seen that the bits in the n-th column from the right can be arranged in periods of 2^n: 1, 2, 4, 8, ... This sequence is formed from those bits: 1, is binary for 1, thus a(0) = 1. 01, reversed is 10, which is binary for 2, thus a(1) = 2, 0000 is binary for 0, thus a(2)=0, 000110011, reversed is 11001100 = A007088(204), thus a(3) = 204."
			],
			"maple": [
				"a(n) := sum( 'bit_n(3^i, n)*(2^i)', 'i'=0..(2^(n))-1);",
				"bit_n := (x, n) -\u003e `mod`(floor(x/(2^n)), 2);"
			],
			"xref": [
				"Cf. A036284, A037095, A037097, A136386 for related sequences.",
				"Cf. A000079, A000215, A000225, A000244, A004656, A007088, A048720, A048723, A055010.",
				"Cf. also A004642, A265209, A265210 (for 2^n written in base 3)."
			],
			"keyword": "nonn,base",
			"offset": "0,2",
			"author": "_Antti Karttunen_, Jan 29 1999",
			"ext": [
				"Entry revised by _Antti Karttunen_, Dec 29 2007",
				"Name changed and the example corrected by _Antti Karttunen_, Dec 05 2015"
			],
			"references": 7,
			"revision": 22,
			"time": "2015-12-05T17:27:58-05:00",
			"created": "1999-12-11T03:00:00-05:00"
		}
	]
}