{
	"greeting": "Greetings from The On-Line Encyclopedia of Integer Sequences! http://oeis.org/",
	"query": "id:A037190",
	"count": 1,
	"start": 0,
	"results": [
		{
			"number": 37190,
			"data": "1,0,792,16704,573480,6289344,47367288,256779072,1116635400,4092791616,12993723216,37059359040,96956352072,232789209984,526238331840,1128121363008,2286165374280,4451600668032,8386296787224,15130668404160,26614226534832,45684867221568",
			"name": "Theta series of lattice A_2 tensor D12+ (dimension 24, min norm 4).",
			"link": [
				"N. J. A. Sloane, \u003ca href=\"/A037150/a037150.pdf\"\u003eNotes on Two-dimensional Theta Series of Lattices\u003c/a\u003e (Notes on some joint work with Eric M. Rains), pages 96-115, circa Jun 08 1998, of N. J. A. Sloane's notebook \"Lattices Volume 79\"."
			],
			"formula": [
				"G.f.: phi_0(z)^12 - 72*phi_0(z)^6*Delta_12(z) + 576*Delta_12(z)^2 where phi_0(z) is the theta series of the A_2 lattice given in A004016, and Delta_12 is the 12-dimensional cusp form given in A007332. - _Sean A. Irvine_, Dec 16 2020"
			],
			"keyword": "nonn",
			"offset": "0,3",
			"author": "_N. J. A. Sloane_.",
			"ext": [
				"More terms from _Sean A. Irvine_, Dec 16 2020"
			],
			"references": 0,
			"revision": 8,
			"time": "2020-12-16T19:26:24-05:00",
			"created": "1999-12-11T03:00:00-05:00"
		}
	]
}