{
	"greeting": "Greetings from The On-Line Encyclopedia of Integer Sequences! http://oeis.org/",
	"query": "id:A037418",
	"count": 1,
	"start": 0,
	"results": [
		{
			"number": 37418,
			"data": "1,2,36,37,38,44,48,49,50,72,73,74,79,228,252,253,254,264,288,289,290,294,300,433,438,439,440,468,469,470,474,475,476,480,481,482,504,505,506,1298,1304,1308,1309,1310,1334,1344,1368,1369,1370,1374,1380,1381",
			"name": "Positive numbers having the same set of digits in base 3 and base 6.",
			"link": [
				"Rémy Sigrist, \u003ca href=\"/A037418/b037418.txt\"\u003eTable of n, a(n) for n = 1..10000\u003c/a\u003e"
			],
			"mathematica": [
				"Select[Range[1500],Union[IntegerDigits[#,3]]==Union[IntegerDigits[#,6]]\u0026] (* _Harvey P. Dale_, Nov 06 2012 *)"
			],
			"program": [
				"(PARI) isok(n) = Set(digits(n, 3)) == Set(digits(n, 6)); \\\\ _Michel Marcus_, Jan 22 2017"
			],
			"keyword": "nonn,base",
			"offset": "1,2",
			"author": "_Clark Kimberling_",
			"ext": [
				"Corrected by _Don Reble_, Apr 28 2006"
			],
			"references": 1,
			"revision": 19,
			"time": "2021-04-23T22:17:34-04:00",
			"created": "1999-12-11T03:00:00-05:00"
		}
	]
}