{
	"greeting": "Greetings from The On-Line Encyclopedia of Integer Sequences! http://oeis.org/",
	"query": "id:A037457",
	"count": 1,
	"start": 0,
	"results": [
		{
			"number": 37457,
			"data": "1,2,9,10,11,18,19,20,81,82,83,90,91,92,99,100,101,162,163,164",
			"name": "Duplicate of A037314.",
			"keyword": "dead",
			"offset": "1,2",
			"references": 0,
			"revision": 5,
			"time": "2007-11-10T03:00:00-05:00",
			"created": "1999-12-11T03:00:00-05:00"
		}
	]
}