{
	"greeting": "Greetings from The On-Line Encyclopedia of Integer Sequences! http://oeis.org/",
	"query": "id:A037083",
	"count": 1,
	"start": 0,
	"results": [
		{
			"number": 37083,
			"data": "0,1,2,4,5,6,7,9,10,11,17,24,29,39,40,57,58,59,91,155,175,245,359,372,597,864,977,1077,1327,2076,4798,4975,10830,13453,15472,15948,16116,16681,18037,21725,22326,24753,28565,32659,46487,50649,51393,80069,95493",
			"name": "Numbers n such that n!!! + 1 is prime (0 is included by convention).",
			"comment": [
				"n!!! = n(n-3)(n-6)(n-9)...",
				"The search for multifactorial primes started by Ray Ballinger is now continued by a team of volunteers on the website of Ken Davis (see link)."
			],
			"link": [
				"Ray Ballinger, \u003ca href=\"http://web.archive.org/web/20160604135248/http://www.prothsearch.net/multifac.html\"\u003eStatus of Search for Multifactorial Primes\u003c/a\u003e",
				"Ken Davis, \u003ca href=\"http://mfprimes.free-dc.org\"\u003eStatus of Search for Multifactorial Primes.\u003c/a\u003e",
				"Ken Davis, \u003ca href=\"http://mfprimes.free-dc.org/mfdata/f03p.html\"\u003eResults for n!3+1.\u003c/a\u003e",
				"\u003ca href=\"/index/Fa#factorial\"\u003eIndex entries for sequences related to factorial numbers\u003c/a\u003e"
			],
			"xref": [
				"Cf. A007661 (triple factorials), A084438, A037082."
			],
			"keyword": "nonn",
			"offset": "1,3",
			"author": "_G. L. Honaker, Jr._",
			"ext": [
				"More terms from _Steven Harvey_",
				"Corrected and extended by _Hugo Pfoertner_, Jun 25 2003",
				"More terms from Herman Jamke (hermanjamke(AT)fastmail.fm), Jan 03 2008",
				"Edited by _N. J. A. Sloane_, Jan 14 2008"
			],
			"references": 18,
			"revision": 25,
			"time": "2017-03-03T11:56:04-05:00",
			"created": "1999-12-11T03:00:00-05:00"
		}
	]
}