{
	"greeting": "Greetings from The On-Line Encyclopedia of Integer Sequences! http://oeis.org/",
	"query": "id:A037685",
	"count": 1,
	"start": 0,
	"results": [
		{
			"number": 37685,
			"data": "1,8,67,538,4305,34440,275523,2204186,17633489,141067912,1128543299,9028346394,72226771153,577814169224,4622513353795,36980106830362,295840854642897,2366726837143176",
			"name": "Base 8 digits are, in order, the first n terms of the periodic sequence with initial period 1,0,3,2.",
			"link": [
				"\u003ca href=\"/index/Rec#order_05\"\u003eIndex entries for linear recurrences with constant coefficients\u003c/a\u003e, signature (8,0,0,1,-8)."
			],
			"formula": [
				"G.f.: ( x*(1+3*x^2+2*x^3) ) / ( (x-1)*(8*x-1)*(1+x)*(x^2+1) ). - _R. J. Mathar_, Oct 11 2015"
			],
			"keyword": "nonn,base,easy",
			"offset": "1,2",
			"author": "_Clark Kimberling_",
			"references": 0,
			"revision": 6,
			"time": "2015-10-11T13:27:12-04:00",
			"created": "1999-12-11T03:00:00-05:00"
		}
	]
}