{
	"greeting": "Greetings from The On-Line Encyclopedia of Integer Sequences! http://oeis.org/",
	"query": "id:A037209",
	"count": 1,
	"start": 0,
	"results": [
		{
			"number": 37209,
			"data": "3,61,79,317,4730603,9150613,14791703,27154511,59259191,203404631,234273623,237683879,263802551,314778551,477772151,500998679,507736049,628103831,803042231,1047040151,1222341431,1516790903,1826793071,2037439031,2070067991,2310340343",
			"name": "Primes n such that nextprime(n) - n = ( number of divisors of (nextprime(n)+n)/2 )-1.",
			"program": [
				"(PARI) p1=3; for(m=2, 112664172, p2=nextprime(p1+1); if(p2-p1==numdiv((p2+p1)/2)-1, print1(p1 \", \")); p1=p2) /* _Donovan Johnson_, Sep 10 2012 */"
			],
			"keyword": "nonn",
			"offset": "1,1",
			"author": "_Naohiro Nomoto_",
			"ext": [
				"Next term if it exists is \u003e 2*10^6. - _Michel ten Voorde_ Apr 13 2001",
				"Offset corrected and a(5)-a(26) from _Donovan Johnson_, Sep 10 2012"
			],
			"references": 0,
			"revision": 8,
			"time": "2019-01-08T09:12:41-05:00",
			"created": "1999-12-11T03:00:00-05:00"
		}
	]
}