{
	"greeting": "Greetings from The On-Line Encyclopedia of Integer Sequences! http://oeis.org/",
	"query": "id:A037570",
	"count": 1,
	"start": 0,
	"results": [
		{
			"number": 37570,
			"data": "2,11,57,287,1436,7182,35912,179561,897807,4489037,22445186,112225932,561129662,2805648311,14028241557,70141207787,350706038936,1753530194682,8767650973412,43838254867061,219191274335307,1095956371676537",
			"name": "Base 5 digits are, in order, the first n terms of the periodic sequence with initial period 2,1,2.",
			"link": [
				"\u003ca href=\"/index/Rec#order_04\"\u003eIndex entries for linear recurrences with constant coefficients\u003c/a\u003e, signature (5,0,1,-5)."
			],
			"formula": [
				"G.f.: x*(2+x+2*x^2) / ( (x-1)*(5*x-1)*(1+x+x^2) ). - _R. J. Mathar_, Apr 27 2015"
			],
			"keyword": "nonn,base,easy",
			"offset": "1,1",
			"author": "_Clark Kimberling_",
			"references": 0,
			"revision": 7,
			"time": "2015-06-13T00:49:16-04:00",
			"created": "1999-12-11T03:00:00-05:00"
		}
	]
}