{
	"greeting": "Greetings from The On-Line Encyclopedia of Integer Sequences! http://oeis.org/",
	"query": "id:A037810",
	"count": 1,
	"start": 0,
	"results": [
		{
			"number": 37810,
			"data": "0,0,0,1,1,0,0,1,1,1,1,1,2,2,1,1,2,1,1,1,0,1,1,1,1,2,2,2,2,1,2,2,1,1,2,2,2,2,2,3,3,2,2,3,2,2,2,1,2,2,2,2,3,2,2,2,1,2,2,1,1,2,1,1,1,1,2,2,1,1,2,2,2,2,1,2,2,2,2,3,3,3,3,2,3,3,2,2,3,2",
			"name": "Number of i such that d(i)\u003c=d(i-1), where Sum{d(i)*3^i: i=0,1,...,m} is the base 3 representation of n.",
			"maple": [
				"A037810 := proc(n)",
				"    a := 0 ;",
				"    dgs := convert(n,base,3);",
				"    for i from 2 to nops(dgs) do",
				"        if op(i,dgs)\u003c=op(i-1,dgs) then",
				"            a := a+1 ;",
				"        end if;",
				"    end do:",
				"    a ;",
				"end proc: # _R. J. Mathar_, Oct 16 2015"
			],
			"xref": [
				"Cf. A037826."
			],
			"keyword": "nonn,base",
			"offset": "1,13",
			"author": "_Clark Kimberling_",
			"ext": [
				"Sign in name corrected. - _R. J. Mathar_, Oct 16 2015"
			],
			"references": 2,
			"revision": 8,
			"time": "2015-10-16T13:56:42-04:00",
			"created": "1999-12-11T03:00:00-05:00"
		}
	]
}