{
	"greeting": "Greetings from The On-Line Encyclopedia of Integer Sequences! http://oeis.org/",
	"query": "id:A037289",
	"count": 1,
	"start": 0,
	"results": [
		{
			"number": 37289,
			"data": "1,2,2,9,2,4,2,34,9,4,2,18,2,4,4,162,2,18,2,18,4,4,2,68,9,4,36,18,2,8,2",
			"name": "Number of commutative rings with n elements.",
			"comment": [
				"These rings do not necessarily contain an identity element.",
				"This sequence is multiplicative. See the reference \"The Numbers of Small Rings\" below, which proves the result for all rings; restricting to commutative rings only makes the proof easier. - Conjecture by _Mitch Harris_, Apr 19 2005, proof found by _Franklin T. Adams-Watters_, Jul 10 2012"
			],
			"link": [
				"A. V. Lelechenko, \u003ca href=\"http://arxiv.org/abs/1305.1639\"\u003eParity of the number of primes in a given interval and algorithms of the sublinear summation\u003c/a\u003e, arXiv preprint arXiv:1305.1639, 2013",
				"C. Noebauer, \u003ca href=\"https://web.archive.org/web/20080111141811/http://www.algebra.uni-linz.ac.at/~noebsi/\"\u003eHome page\u003c/a\u003e [Archived copy as of 2008 from web.archive.org]",
				"Christof Noebauer, \u003ca href=\"ftp://www.algebra.uni-linz.ac.at/pub/noebauer/smallrings.ps.gz\"\u003eThe numbers of small rings\u003c/a\u003e (\u003ca href=\"ftp://ftp.mathe2.uni-bayreuth.de/axel/papers/noebauer:the_number_of_small_rings.ps\"\u003ePostScript\u003c/a\u003e).",
				"C. Noebauer, \u003ca href=\"ftp://www.algebra.uni-linz.ac.at/pub/noebauer/thesis.ps.gz\"\u003eThesis on the enumeration of near-rings\u003c/a\u003e",
				"Bjorn Poonen, \u003ca href=\"http://www-math.mit.edu/~poonen/papers/moduli.pdf\"\u003eThe moduli space of commutative algebras of finite rank\u003c/a\u003e, J. Eur. Math. Soc. (JEMS) 10:3 (2008), pp. 817-836. \u003ca href=\"http://arxiv.org/abs/math/0608491\"\u003earXiv:0608491\u003c/a\u003e"
			],
			"formula": [
				"a(p^n) = p^(2/27 * n^3 + O(n^(8/3))), see Theorems 11.2 and 11.3 in Poonen 2008. - _Charles R Greathouse IV_, Jul 10 2012"
			],
			"xref": [
				"Cf. A027623, A037291."
			],
			"keyword": "nonn,nice,more,hard,mult",
			"offset": "1,2",
			"author": "_Christian G. Bower_, Jun 15 1998",
			"ext": [
				"a(16) from Christof Noebauer (christof.noebauer(AT)algebra.uni-linz.ac.at), Sep 29 2000, who reports that the sequence continues a(32) = ? (\u003e 876), a(33) = 4, 4, 4, 81, 2, 4, 4, 68, 2, 8, 2, 18, 18, 4, 2, 324, 9, 18, 4, 18, 2, 72, 4, 68, 4, 4, 2, 36, 2, 4, 18 = a(63), a(64) = ? (\u003e 12696)"
			],
			"references": 15,
			"revision": 30,
			"time": "2015-03-02T22:36:52-05:00",
			"created": "1999-12-11T03:00:00-05:00"
		}
	]
}