{
	"greeting": "Greetings from The On-Line Encyclopedia of Integer Sequences! http://oeis.org/",
	"query": "id:A037369",
	"count": 1,
	"start": 0,
	"results": [
		{
			"number": 37369,
			"data": "7,8,9,14,16,17,18,19,21,22,24,25,26,27,28,29,30,32,33,36,37,39,40,41,42,43,44,45,47,48,49,52,53,55,56,57,58,59,60,63,64,65,66,67,68,77,78,79,80,82,83,84,86,87,88,89,90,92,93,94,95",
			"name": "Numbers whose base-7 and base-10 expansions have no digits in common.",
			"link": [
				"Vincenzo Librandi, \u003ca href=\"/A037369/b037369.txt\"\u003eTable of n, a(n) for n = 1..1000\u003c/a\u003e"
			],
			"mathematica": [
				"Select[Range[100],Intersection[IntegerDigits[#,7],IntegerDigits[#,10]]=={}\u0026] (* _Vincenzo Librandi_, Jun 08 2012 *)"
			],
			"keyword": "nonn,base",
			"offset": "1,1",
			"author": "_Clark Kimberling_",
			"references": 1,
			"revision": 11,
			"time": "2021-06-20T08:28:50-04:00",
			"created": "1999-12-11T03:00:00-05:00"
		}
	]
}