{
	"greeting": "Greetings from The On-Line Encyclopedia of Integer Sequences! http://oeis.org/",
	"query": "id:A037499",
	"count": 1,
	"start": 0,
	"results": [
		{
			"number": 37499,
			"data": "1,6,38,229,1374,8246,49477,296862,1781174,10687045,64122270,384733622,2308401733,13850410398,83102462390,498614774341,2991688646046,17950131876278,107700791257669,646204747546014,3877228485276086",
			"name": "Base-6 digits are, in order, the first n terms of the periodic sequence with initial period 1,0,2.",
			"link": [
				"\u003ca href=\"/index/Rec\"\u003eIndex entries for linear recurrences with constant coefficients\u003c/a\u003e, signature (6,0,1,-6)."
			],
			"formula": [
				"G.f.: x*(1+2*x^2) / ( (x-1)*(6*x-1)*(1+x+x^2) ). - _R. J. Mathar_, Apr 27 2015"
			],
			"keyword": "nonn,base,easy",
			"offset": "1,2",
			"author": "_Clark Kimberling_",
			"references": 2,
			"revision": 13,
			"time": "2015-06-13T00:49:15-04:00",
			"created": "1999-12-11T03:00:00-05:00"
		}
	]
}