{
	"greeting": "Greetings from The On-Line Encyclopedia of Integer Sequences! http://oeis.org/",
	"query": "id:A037948",
	"count": 1,
	"start": 0,
	"results": [
		{
			"number": 37948,
			"data": "2,3,5,7,2411",
			"name": "Duplicate of A007659.",
			"keyword": "dead",
			"offset": "1,1",
			"references": 0,
			"revision": 3,
			"time": "2004-09-22T03:00:00-04:00",
			"created": "1999-12-11T03:00:00-05:00"
		}
	]
}