{
	"greeting": "Greetings from The On-Line Encyclopedia of Integer Sequences! http://oeis.org/",
	"query": "id:A037111",
	"count": 1,
	"start": 0,
	"results": [
		{
			"number": 37111,
			"data": "3,82,41,1108,554,277,7480,3740,1870,935,25246,12623,340822,170411,4601098,2300549,62114824,31057412,15528706,7764353,209637532,104818766,52409383,1415053342,707526671,19103220118",
			"name": "Trajectory of 3 under map n-\u003e27n+1 if n odd, n-\u003en/2 if n even",
			"keyword": "nonn",
			"offset": "0,1",
			"author": "_N. J. A. Sloane_.",
			"references": 0,
			"revision": 3,
			"time": "2012-03-30T16:47:44-04:00",
			"created": "1999-12-11T03:00:00-05:00"
		}
	]
}