{
	"greeting": "Greetings from The On-Line Encyclopedia of Integer Sequences! http://oeis.org/",
	"query": "id:A037629",
	"count": 1,
	"start": 0,
	"results": [
		{
			"number": 37629,
			"data": "2,19,152,1218,9747,77976,623810,4990483,39923864,319390914,2555127315,20441018520,163528148162,1308225185299,10465801482392,83726411859138,669811294873107,5358490358984856",
			"name": "Base 8 digits are, in order, the first n terms of the periodic sequence with initial period 2,3,0.",
			"link": [
				"\u003ca href=\"/index/Rec#order_04\"\u003eIndex entries for linear recurrences with constant coefficients\u003c/a\u003e, signature (8,0,1,-8)"
			],
			"formula": [
				"G.f.: x*(2+3*x) / ( (x-1)*(8*x-1)*(1+x+x^2) ). - _R. J. Mathar_, Nov 21 2011"
			],
			"mathematica": [
				"Table[FromDigits[PadRight[{},n,{2,3,0}],8],{n,20}] (* _Harvey P. Dale_, Jan 28 2019 *)"
			],
			"keyword": "nonn,base",
			"offset": "1,1",
			"author": "_Clark Kimberling_",
			"references": 0,
			"revision": 14,
			"time": "2021-07-23T02:44:44-04:00",
			"created": "1999-12-11T03:00:00-05:00"
		}
	]
}