{
	"greeting": "Greetings from The On-Line Encyclopedia of Integer Sequences! http://oeis.org/",
	"query": "id:A037045",
	"count": 1,
	"start": 0,
	"results": [
		{
			"number": 37045,
			"data": "0,1,27100,73440,95120,104336,139564,143901,144442,148780,155555,165311,172898,182655,195119,204876,204877,212463,216530,217341,227098,233873,234685,238752,239021,239563,244441,248779,251216,255554,260432",
			"name": "5-white numbers: partition digits of n^5 into blocks of 5 starting at right; sum of these 5-digit numbers equals n.",
			"link": [
				"Paolo P. Lava, \u003ca href=\"/A037045/b037045.txt\"\u003eTable of n, a(n) for n = 1..53\u003c/a\u003e"
			],
			"example": [
				"27100 is a 5-white number since 27100^5=14616603103510000000000 and 146+16603+10351+00000+00000=27100."
			],
			"mathematica": [
				"w5Q[n_]:=Module[{idn5=IntegerDigits[n^5],len},len=Length[idn5];Total[ FromDigits/@Partition[PadLeft[idn5,len+5-Mod[len,5]],5]]==n]; Select[ Range[0,300000],w5Q] (* _Harvey P. Dale_, Jul 27 2011 *)",
				"Select[Range[0, 10^6], # == Plus@@ IntegerDigits[#^5, 10^5] \u0026] (* _Giovanni Resta_, Jul 12 2016 *)",
				"Select[Range[0,261000],Total[FromDigits/@(Reverse/@Partition[ Reverse[ IntegerDigits[ #^5]],UpTo[5]])]==#\u0026] (* _Harvey P. Dale_, Aug 22 2021 *)"
			],
			"xref": [
				"Cf. A037043, A037044."
			],
			"keyword": "full,nonn,fini,easy,base,nice",
			"offset": "1,3",
			"author": "_Erich Friedman_",
			"ext": [
				"Offset set to 1 by _Paolo P. Lava_, Jul 12 2016"
			],
			"references": 11,
			"revision": 17,
			"time": "2021-08-22T15:41:44-04:00",
			"created": "1999-12-11T03:00:00-05:00"
		}
	]
}