{
	"greeting": "Greetings from The On-Line Encyclopedia of Integer Sequences! http://oeis.org/",
	"query": "id:A038651",
	"count": 1,
	"start": 0,
	"results": [
		{
			"number": 38651,
			"data": "1261,7651,7778,7930,12097,20917,21925,32761,42653,47909,48007,52669,69986,85177,90776,117622,124651,154720,194383,249698,249977,251875,261415,291935,310087,325711,399386,448147,549829,579683,614098,701786,739720,830369,912646",
			"name": "Gaps of 6 in sequence A038593 (lower terms).",
			"link": [
				"Jinyuan Wang, \u003ca href=\"/A038651/b038651.txt\"\u003eTable of n, a(n) for n = 1..150\u003c/a\u003e"
			],
			"xref": [
				"Cf. A038593, A038652."
			],
			"keyword": "nonn",
			"offset": "1,1",
			"author": "_Jeff Burch_",
			"ext": [
				"Offset changed to 1 by and more terms from _Jinyuan Wang_, Mar 16 2020"
			],
			"references": 3,
			"revision": 8,
			"time": "2020-03-17T06:50:06-04:00",
			"created": "1999-12-11T03:00:00-05:00"
		}
	]
}