{
	"greeting": "Greetings from The On-Line Encyclopedia of Integer Sequences! http://oeis.org/",
	"query": "id:A038947",
	"count": 1,
	"start": 0,
	"results": [
		{
			"number": 38947,
			"data": "2,3,5,11,13,17,19,31,41,43,53,59,61,97,103,109,139,167,179,199,211,223,233,239,251,263,269,277,281,283,307,313,317,349,359,367,373,389,419,431,433,443,463,467,479,487",
			"name": "Primes p such that 66 is a square mod p.",
			"link": [
				"Vincenzo Librandi, \u003ca href=\"/A038947/b038947.txt\"\u003eTable of n, a(n) for n = 1..1000\u003c/a\u003e"
			],
			"mathematica": [
				"Select[Prime[Range[100]], ! JacobiSymbol[66, #] == -1 \u0026] (* _Vincenzo Librandi_, Sep 08 2012 *)"
			],
			"keyword": "nonn",
			"offset": "1,1",
			"author": "_N. J. A. Sloane_.",
			"references": 1,
			"revision": 7,
			"time": "2012-09-08T05:16:05-04:00",
			"created": "1999-12-11T03:00:00-05:00"
		}
	]
}