{
	"greeting": "Greetings from The On-Line Encyclopedia of Integer Sequences! http://oeis.org/",
	"query": "id:A038230",
	"count": 1,
	"start": 0,
	"results": [
		{
			"number": 38230,
			"data": "1,3,12,9,72,144,27,324,1296,1728,81,1296,7776,20736,20736,243,4860,38880,155520,311040,248832,729,17496,174960,933120,2799360,4478976,2985984,2187,61236,734832,4898880,19595520,47029248,62705664",
			"name": "Triangle whose (i,j)-th entry is binomial(i,j)*3^(i-j)*12^j.",
			"reference": [
				"B. N. Cyvin et al., Isomer enumeration of unbranched catacondensed polygonal systems with pentagons and heptagons, Match, No. 34 (Oct 1996), pp. 109-121."
			],
			"keyword": "nonn,tabl,easy",
			"offset": "0,2",
			"author": "_N. J. A. Sloane_.",
			"references": 0,
			"revision": 5,
			"time": "2012-03-30T16:47:46-04:00",
			"created": "1999-12-11T03:00:00-05:00"
		}
	]
}