{
	"greeting": "Greetings from The On-Line Encyclopedia of Integer Sequences! http://oeis.org/",
	"query": "id:A038805",
	"count": 1,
	"start": 0,
	"results": [
		{
			"number": 38805,
			"data": "1,4,9,21,24,34,56,66,92,100,112,117,135,180,260,349,387,393,411,574,617,787,1209",
			"name": "Difference between last prime \u003c 10^n and 10^n is a record high.",
			"example": [
				"For a(19)=411, the difference is 4433 and no other n \u003c= 540 exceeds that difference."
			],
			"mathematica": [
				"PrevPrim[n_] := Block[{k = n - 1}, While[ !PrimeQ[k], k-- ]; k]; d = 0; k = 1; Do[ While[f = 10^k - PrevPrim[10^k]; d \u003e= f, k++ ]; d = f; Print[k], {n, 1, 50}]"
			],
			"xref": [
				"Cf. A033874."
			],
			"keyword": "base,nonn",
			"offset": "1,2",
			"author": "_Jeff Burch_",
			"ext": [
				"Edited and extended by _Robert G. Wilson v_, Jun 18 2002",
				"a(23) from _Robert G. Wilson v_, Jan 10 2007"
			],
			"references": 1,
			"revision": 5,
			"time": "2013-05-19T12:18:42-04:00",
			"created": "1999-12-11T03:00:00-05:00"
		}
	]
}