{
	"greeting": "Greetings from The On-Line Encyclopedia of Integer Sequences! http://oeis.org/",
	"query": "id:A038322",
	"count": 1,
	"start": 0,
	"results": [
		{
			"number": 38322,
			"data": "1,11,8,121,176,64,1331,2904,2112,512,14641,42592,46464,22528,4096,161051,585640,851840,619520,225280,32768,1771561,7730448,14055360,13629440,7434240,2162688,262144,19487171,99207416,216452544,262366720",
			"name": "Triangle whose (i,j)-th entry is binomial(i,j)*11^(i-j)*8^j.",
			"reference": [
				"B. N. Cyvin et al., Isomer enumeration of unbranched catacondensed polygonal systems with pentagons and heptagons, Match, No. 34 (Oct 1996), pp. 109-121."
			],
			"keyword": "nonn,tabl,easy",
			"offset": "0,2",
			"author": "_N. J. A. Sloane_.",
			"references": 0,
			"revision": 5,
			"time": "2012-03-30T16:47:46-04:00",
			"created": "1999-12-11T03:00:00-05:00"
		}
	]
}