{
	"greeting": "Greetings from The On-Line Encyclopedia of Integer Sequences! http://oeis.org/",
	"query": "id:A038900",
	"count": 1,
	"start": 0,
	"results": [
		{
			"number": 38900,
			"data": "3,7,29,31,41,43,47,53,61,71,73,89,97,101,107,131,137,139,151,157,167,173,179,181,193,211,223,239,241,251,269,271,277,281,283,347,353,359,373,383,389,401,409,419,431,443",
			"name": "Primes p such that 26 is not a square mod p.",
			"link": [
				"Vincenzo Librandi, \u003ca href=\"/A038900/b038900.txt\"\u003eTable of n, a(n) for n = 1..1000\u003c/a\u003e"
			],
			"mathematica": [
				"Select[Prime@Range[120], JacobiSymbol[26, #] == -1 \u0026] (* _Vincenzo Librandi_, Sep 08 2012 *)"
			],
			"keyword": "nonn",
			"offset": "1,1",
			"author": "_N. J. A. Sloane_.",
			"ext": [
				"Offset changed from 0 to 1 by _Vincenzo Librandi_, Sep 08 2012"
			],
			"references": 1,
			"revision": 6,
			"time": "2012-09-09T02:05:09-04:00",
			"created": "1999-12-11T03:00:00-05:00"
		}
	]
}