{
	"greeting": "Greetings from The On-Line Encyclopedia of Integer Sequences! http://oeis.org/",
	"query": "id:A038870",
	"count": 1,
	"start": 0,
	"results": [
		{
			"number": 38870,
			"data": "0,1,1,3,1,7,1,5,11,15,1,31,1,9,21,43,55,63,1,37,91,127,1,17,85,171,239,255,1,73,439,511,1,33,137,293,341,683,731,887,991,1023,1,661,1387,2047,1,65,273,585,1189,1365,2731,2907,3511,3823,4031,4095,1",
			"name": "Irregular triangle read by rows: T(n,k) = number of orbits of order exactly k under doubling map which remain in a semicircle, with k dividing n.",
			"comment": [
				"If alpha = exp(2*i*Pi*T(n,k)/(2^n - 1)), the orbit of alpha has period n and stays in the semicircle of minimal argument alpha."
			],
			"formula": [
				"T(n, k) = Sum_{j=0..n-1} 2^[n*j/k], for k such that (k, n)=1."
			],
			"example": [
				"Triangle begins:",
				"  0;",
				"  1;",
				"  1, 3;",
				"  1, 7;",
				"  1, 5, 11, 15;",
				"  1, 31;",
				"  1, 9, 21, 43, 55, 63;",
				"  1, 37, 91, 127;",
				"  1, 17, 85, 171, 239, 255;",
				"  1, 73, 439, 511;",
				"  1, 33, 137, 293, 341, 683, 731, 887, 991, 1023;",
				"  ...",
				"with the length of each row given by phi(n) = A000010(n)."
			],
			"xref": [
				"Cf. A038871."
			],
			"keyword": "nonn,tabf,easy",
			"offset": "1,4",
			"author": "Francois Maurel (maurel(AT)sequoia.ens.fr)",
			"ext": [
				"Revised by _Sean A. Irvine_, Feb 16 2021"
			],
			"references": 1,
			"revision": 7,
			"time": "2021-02-16T20:17:10-05:00",
			"created": "1999-12-11T03:00:00-05:00"
		}
	]
}