{
	"greeting": "Greetings from The On-Line Encyclopedia of Integer Sequences! http://oeis.org/",
	"query": "id:A038261",
	"count": 1,
	"start": 0,
	"results": [
		{
			"number": 38261,
			"data": "1,5,55,671,8272,102091,1260143,15554592,191998646,2369942427,29253473175,361091343583,4457144547354,55016930950608,679103551405906,8382540166524150,103470199055689961,1277188284212361415",
			"name": "First line of 5-wave sequence A038201, also bisection of A006358.",
			"link": [
				"F. v. Lamoen, \u003ca href=\"http://home.wxs.nl/~lamoen/wiskunde/wave.htm\"\u003eWave sequences\u003c/a\u003e",
				"\u003ca href=\"/index/Rec#order_05\"\u003eIndex entries for linear recurrences with constant coefficients\u003c/a\u003e, signature (15,-35,28,-9,1)."
			],
			"formula": [
				"Conjecture: GF = -(x-1)*(x^3-6*x^2+9*x-1) / ( -1+15*x-35*x^2+28*x^3-9*x^4+x^5 ). - _Wouter Meeussen_, Mar 19 2005"
			],
			"maple": [
				"a:= n-\u003e (Matrix([[5, 1, 1, 2, 5]]). Matrix(5, (i,j)-\u003e if i=j-1 then 1 elif j=1 then [15, -35, 28, -9, 1][i] else 0 fi)^n)[1,2]: seq(a(n), n=0..20); # _Alois P. Heinz_, Jul 16 2009"
			],
			"keyword": "nonn,easy",
			"offset": "0,2",
			"author": "_Floor van Lamoen_",
			"references": 0,
			"revision": 12,
			"time": "2015-06-13T00:49:19-04:00",
			"created": "1999-12-11T03:00:00-05:00"
		}
	]
}