{
	"greeting": "Greetings from The On-Line Encyclopedia of Integer Sequences! http://oeis.org/",
	"query": "id:A038443",
	"count": 1,
	"start": 0,
	"results": [
		{
			"number": 38443,
			"data": "1,4,12,20,34,56,88,114,143,173,224,285,332,373,429,505,589,662,718,797,896,1012,1098,1176,1279,1402,1546,1645,1745,1870,2026,2189,2313,2418,2574,2763,2949,3085,3209,3393,3603,3828,3971,4106,4322,4569,4810",
			"name": "Coordination sequence T1 for Zeolite Code STF.",
			"reference": [
				"W. M. Meier, D. H. Olson and Ch. Baerlocher, Atlas of Zeolite Structure Types, 4th Ed., Elsevier, 1996."
			],
			"link": [
				"R. W. Grosse-Kunstleve, \u003ca href=\"/A038443/b038443.txt\"\u003eTable of n, a(n) for n = 0..1000\u003c/a\u003e",
				"R. W. Grosse-Kunstleve, \u003ca href=\"/A005897/a005897.html\"\u003eCoordination Sequences and Encyclopedia of Integer Sequences\u003c/a\u003e",
				"R. W. Grosse-Kunstleve, G. O. Brunner and N. J. A. Sloane, \u003ca href=\"http://neilsloane.com/doc/ac96cs/\"\u003eAlgebraic Description of Coordination Sequences and Exact Topological Densities for Zeolites\u003c/a\u003e, Acta Cryst., A52 (1996), pp. 879-889.",
				"Sean A. Irvine, \u003ca href=\"/A008000/a008000_1.pdf\"\u003eGenerating Functions for Coordination Sequences of Zeolites, after Grosse-Kunstleve, Brunner, and Sloane\u003c/a\u003e",
				"International Zeolite Association, \u003ca href=\"http://www.iza-structure.org/databases/\"\u003eDatabase of Zeolite Structures\u003c/a\u003e"
			],
			"keyword": "nonn",
			"offset": "0,2",
			"author": "_Ralf W. Grosse-Kunstleve_",
			"ext": [
				"Title improved by _Sean A. Irvine_, Mar 17 2018"
			],
			"references": 1,
			"revision": 14,
			"time": "2018-04-10T08:26:36-04:00",
			"created": "1999-12-11T03:00:00-05:00"
		}
	]
}