{
	"greeting": "Greetings from The On-Line Encyclopedia of Integer Sequences! http://oeis.org/",
	"query": "id:A038133",
	"count": 1,
	"start": 0,
	"results": [
		{
			"number": 38133,
			"data": "97,127,149,191,211,223,227,229,251,257,263,269,293,307,331,337,347,349,367,373,379,383,397,409,419,431,457,479,487,499,521,541,547,557,563,569,587,593,599,631,641,673,691,701,709,719,727,733,739,743,751",
			"name": "From a subtractive Goldbach conjecture: odd primes that are not cluster primes.",
			"comment": [
				"Erdős asks if there are infinitely many primes p such that every even number \u003c= p-3 can be expressed as the difference between two primes each \u003c= p. Sequence gives primes not having this property."
			],
			"reference": [
				"R. K. Guy, Unsolved Problems In Number Theory, section C1."
			],
			"link": [
				"T. D. Noe, \u003ca href=\"/A038133/b038133.txt\"\u003eTable of n, a(n) for n = 1..10000\u003c/a\u003e",
				"Richard Blecksmith, Paul Erdős and J. L. Selfridge, \u003ca href=\"http://www.jstor.org/stable/2589585\"\u003eCluster Primes\u003c/a\u003e, Amer. Math. Monthly, 106 (1999), 43-48.",
				"Eric Weisstein's World of Mathematics, \u003ca href=\"http://mathworld.wolfram.com/ClusterPrime.html\"\u003eCluster Prime.\u003c/a\u003e",
				"\u003ca href=\"/index/Go#Goldbach\"\u003eIndex entries for sequences related to Goldbach conjecture\u003c/a\u003e"
			],
			"mathematica": [
				"m=1000; lst={}; n=PrimePi[m]-1; p=Table[Prime[i+1], {i, n}]; d=Table[0, {m/2}]; For[i=2, i\u003c=n, i++, For[j=1, j\u003ci, j++, diff=p[[i]]-p[[j]]; d[[diff/2]]++ ]; c=Count[Take[d, (p[[i]]-3)/2], 0]; If[c\u003e0, AppendTo[lst, p[[i]]]]]; lst"
			],
			"xref": [
				"Cf. A038134, A039506, A039507, A072325."
			],
			"keyword": "nonn,easy,nice",
			"offset": "1,1",
			"author": "_N. J. A. Sloane_",
			"ext": [
				"More terms from _Christian G. Bower_, Feb 15 1999"
			],
			"references": 5,
			"revision": 21,
			"time": "2021-12-21T23:48:37-05:00",
			"created": "1999-12-11T03:00:00-05:00"
		}
	]
}