{
	"greeting": "Greetings from The On-Line Encyclopedia of Integer Sequences! http://oeis.org/",
	"query": "id:A038469",
	"count": 1,
	"start": 0,
	"results": [
		{
			"number": 38469,
			"data": "1093,2551,3037,3199,3253,3271,3277,3279,6925,7411,7573,7627,7645,7651,7653,8869,9031,9085,9103,9109,9111,9517,9571,9589,9595,9597,9733,9751,9757,9759,9805,9811,9813,9829,9831,9837,20047,20533,20695",
			"name": "Sums of 7 distinct powers of 3.",
			"xref": [
				"Base 3 interpretation of A038449."
			],
			"keyword": "nonn,easy",
			"offset": "0,1",
			"author": "_Olivier Gérard_",
			"references": 0,
			"revision": 4,
			"time": "2012-03-30T17:20:51-04:00",
			"created": "1999-12-11T03:00:00-05:00"
		}
	]
}