{
	"greeting": "Greetings from The On-Line Encyclopedia of Integer Sequences! http://oeis.org/",
	"query": "id:A038652",
	"count": 1,
	"start": 0,
	"results": [
		{
			"number": 38652,
			"data": "1267,7657,7784,7936,12103,20923,21931,32767,42659,47915,48013,52675,69992,85183,90782,117628,124657,154726,194389,249704,249983,251881,261421,291941,310093,325717,399392,448153,549835,579689,614104,701792,739726,830375,912652",
			"name": "Gaps of 6 in sequence A038593 (upper terms).",
			"link": [
				"Jinyuan Wang, \u003ca href=\"/A038652/b038652.txt\"\u003eTable of n, a(n) for n = 1..150\u003c/a\u003e"
			],
			"xref": [
				"Cf. A038593, A038651."
			],
			"keyword": "nonn",
			"offset": "1,1",
			"author": "_Jeff Burch_",
			"ext": [
				"Offset changed to 1 by and more terms from _Jinyuan Wang_, Mar 16 2020"
			],
			"references": 3,
			"revision": 9,
			"time": "2020-03-18T02:36:42-04:00",
			"created": "1999-12-11T03:00:00-05:00"
		}
	]
}