{
	"greeting": "Greetings from The On-Line Encyclopedia of Integer Sequences! http://oeis.org/",
	"query": "id:A038956",
	"count": 1,
	"start": 0,
	"results": [
		{
			"number": 38956,
			"data": "3,13,17,19,41,43,53,61,79,83,97,103,107,113,131,137,149,151,167,173,179,181,191,193,197,199,223,241,251,257,263,269,271,281,311,317,337,349,353,359,367,379,389,397,401",
			"name": "Primes p such that 71 is not a square mod p.",
			"comment": [
				"Also, only entries p=1 (mod 4) of the sequence are not squares mod 71 (from the quadratic reciprocity law). - _Lekraj Beedassy_, Jul 21 2004"
			],
			"link": [
				"Vincenzo Librandi, \u003ca href=\"/A038956/b038956.txt\"\u003eTable of n, a(n) for n = 1..1000\u003c/a\u003e"
			],
			"mathematica": [
				"Select[Prime@Range[120], JacobiSymbol[71, #] == - 1 \u0026] (* _Vincenzo Librandi_, Sep 09 2012 *)"
			],
			"program": [
				"(MAGMA) [ p: p in PrimesUpTo(401) | not IsSquare(R! 71) where R:= ResidueClassRing(p) ]; // _Vincenzo Librandi_, Sep 10 2012"
			],
			"keyword": "nonn,easy",
			"offset": "1,1",
			"author": "_N. J. A. Sloane_.",
			"ext": [
				"Offset changed from 0 to 1 by _Vincenzo Librandi_, Sep 09 2012"
			],
			"references": 1,
			"revision": 11,
			"time": "2012-09-10T03:03:38-04:00",
			"created": "1999-12-11T03:00:00-05:00"
		}
	]
}