{
	"greeting": "Greetings from The On-Line Encyclopedia of Integer Sequences! http://oeis.org/",
	"query": "id:A039156",
	"count": 1,
	"start": 0,
	"results": [
		{
			"number": 39156,
			"data": "2,3,4,5,6,7,8,9,10,11,24,25,26,27,28,29,30,31,32,35,36,37,38,39,40,41,42,43,46,47,48,49,50,51,52,53,54,57,58,59,60,61,62,63,64,65,68,69,70,71,72,73,74,75,76,79,80,81,82,83,84,85,86,87,90,91,92,93,94,95",
			"name": "Numbers whose base-11 representation has the same number of 0's and 1's.",
			"keyword": "nonn,base,easy",
			"offset": "1,1",
			"author": "_Olivier Gérard_",
			"references": 0,
			"revision": 9,
			"time": "2021-06-26T06:48:21-04:00",
			"created": "1999-12-11T03:00:00-05:00"
		}
	]
}