{
	"greeting": "Greetings from The On-Line Encyclopedia of Integer Sequences! http://oeis.org/",
	"query": "id:A039034",
	"count": 1,
	"start": 0,
	"results": [
		{
			"number": 39034,
			"data": "1,2,3,4,6,8,9,10,11,13,15,16,17,18,20,22,23,24,25,27,29,30,31,32,34,35,43,44,45,46,48,54,57,58,59,60,62,64,65,66,67,69,71,72,73,74,76,78,79,80,81,83,84,92,93,94,95,97,103,106,107,108,109,111,113,114,115",
			"name": "Numbers whose base-7 representation has the same number of 0's and 5's.",
			"link": [
				"Daniel Starodubtsev, \u003ca href=\"/A039034/b039034.txt\"\u003eTable of n, a(n) for n = 1..10000\u003c/a\u003e"
			],
			"mathematica": [
				"Select[Range[150],DigitCount[#,7,0]==DigitCount[#,7,5]\u0026] _Harvey P. Dale_, May 17 2012"
			],
			"xref": [
				"Cf. A007093."
			],
			"keyword": "nonn,base,easy",
			"offset": "1,2",
			"author": "_Olivier Gérard_",
			"references": 1,
			"revision": 13,
			"time": "2021-06-20T15:03:25-04:00",
			"created": "1999-12-11T03:00:00-05:00"
		}
	]
}