{
	"greeting": "Greetings from The On-Line Encyclopedia of Integer Sequences! http://oeis.org/",
	"query": "id:A039555",
	"count": 1,
	"start": 0,
	"results": [
		{
			"number": 39555,
			"data": "107,140,251,284,395,428,539,572,683,716,827,860,971,1004,1115,1148,1163,1175,1187,1199,1211,1223,1235,1247,1271,1283,1284,1285,1286,1287,1288,1289,1290,1291,1293,1294,1403,1436,1547,1580,1592,1604",
			"name": "Numbers whose base-12 representation has the same nonzero number of 8's and 11's.",
			"keyword": "nonn,base,easy",
			"offset": "1,1",
			"author": "_Olivier Gérard_",
			"references": 0,
			"revision": 10,
			"time": "2021-07-01T02:13:11-04:00",
			"created": "1999-12-11T03:00:00-05:00"
		}
	]
}