{
	"greeting": "Greetings from The On-Line Encyclopedia of Integer Sequences! http://oeis.org/",
	"query": "id:A039201",
	"count": 1,
	"start": 0,
	"results": [
		{
			"number": 39201,
			"data": "0,1,2,3,4,5,7,9,10,11,12,13,14,15,16,18,20,21,22,23,24,25,26,27,29,31,32,33,34,35,36,37,38,40,42,43,44,45,46,47,48,49,51,53,54,55,56,57,58,59,60,62,64,65,74,77,78,79,80,81,82,84,86,87,94,99,100,101,102",
			"name": "Numbers whose base-11 representation has the same number of 6's and 8's.",
			"keyword": "nonn,base,easy",
			"offset": "1,3",
			"author": "_Olivier Gérard_",
			"references": 0,
			"revision": 9,
			"time": "2021-06-26T06:46:22-04:00",
			"created": "1999-12-11T03:00:00-05:00"
		}
	]
}