{
	"greeting": "Greetings from The On-Line Encyclopedia of Integer Sequences! http://oeis.org/",
	"query": "id:A039603",
	"count": 1,
	"start": 0,
	"results": [
		{
			"number": 39603,
			"data": "132,155,276,299,420,443,564,587,708,731,852,875,996,1019,1140,1163,1284,1307,1428,1451,1572,1585,1586,1587,1588,1589,1590,1591,1592,1593,1594,1596,1608,1620,1632,1644,1656,1668,1680,1692,1704,1751",
			"name": "Numbers whose base-12 representation has the same nonzero number of 0's and 11's.",
			"keyword": "nonn,base,easy",
			"offset": "1,1",
			"author": "_Olivier Gérard_",
			"references": 0,
			"revision": 10,
			"time": "2021-07-01T02:47:34-04:00",
			"created": "1999-12-11T03:00:00-05:00"
		}
	]
}