{
	"greeting": "Greetings from The On-Line Encyclopedia of Integer Sequences! http://oeis.org/",
	"query": "id:A039249",
	"count": 1,
	"start": 0,
	"results": [
		{
			"number": 39249,
			"data": "0,1,2,3,5,6,8,9,10,11,12,13,14,15,17,18,20,21,22,23,24,25,26,27,29,30,32,33,34,35,36,37,38,39,41,42,44,45,46,47,55,60,61,62,63,65,66,68,69,70,71,72,73,74,75,77,78,80,81,82,83,88,96,97,98,99,101,102,104",
			"name": "Numbers whose base-12 representation has the same number of 4's and 7's.",
			"mathematica": [
				"Select[Range[0,150],DigitCount[#,12,4]==DigitCount[#,12,7]\u0026] (* _Harvey P. Dale_, Jul 22 2020 *)"
			],
			"keyword": "nonn,base,easy",
			"offset": "1,3",
			"author": "_Olivier Gérard_",
			"references": 0,
			"revision": 12,
			"time": "2021-06-26T20:29:30-04:00",
			"created": "1999-12-11T03:00:00-05:00"
		}
	]
}