{
	"greeting": "Greetings from The On-Line Encyclopedia of Integer Sequences! http://oeis.org/",
	"query": "id:A039398",
	"count": 1,
	"start": 0,
	"results": [
		{
			"number": 39398,
			"data": "60,106,160,206,260,306,360,406,460,506,560,601,602,603,604,605,607,608,609,610,620,630,640,650,670,680,690,706,760,806,860,906,960,1016,1026,1036,1046,1056,1061,1062,1063,1064,1065,1067,1068,1069,1076",
			"name": "Numbers whose base-10 representation has the same nonzero number of 0's and 6's.",
			"mathematica": [
				"Select[Range[1100],DigitCount[#,10,0]==DigitCount[#,10,6]\u003e0\u0026] (* _Harvey P. Dale_, Dec 31 2013 *)"
			],
			"keyword": "nonn,base,easy",
			"offset": "1,1",
			"author": "_Olivier Gérard_",
			"references": 0,
			"revision": 13,
			"time": "2021-06-30T03:55:00-04:00",
			"created": "1999-12-11T03:00:00-05:00"
		}
	]
}