{
	"greeting": "Greetings from The On-Line Encyclopedia of Integer Sequences! http://oeis.org/",
	"query": "id:A039583",
	"count": 1,
	"start": 0,
	"results": [
		{
			"number": 39583,
			"data": "0,4,5,24,28,29,30,34,35,51,56,81,91,116,121,144,148,149,168,172,173,174,178,179,180,184,185,204,208,209,210,214,215,231,236,291,306,310,311,315,321,326,336,340,341,350,356,375,380,411,416,441,451,471,486",
			"name": "Numbers whose base-6 representation has the same number of 1's, 2's and 3's.",
			"link": [
				"Robert Israel, \u003ca href=\"/A039583/b039583.txt\"\u003eTable of n, a(n) for n = 1..10000\u003c/a\u003e"
			],
			"maple": [
				"filter:= proc(n) local L,x;",
				"  L:= convert(n,base,6);",
				"  x:= numboccur(1,L);",
				"  numboccur(2,L) = x and numboccur(3,L) = x",
				"end proc:",
				"select(filter, [$0..1000]); # _Robert Israel_, Aug 16 2018"
			],
			"mathematica": [
				"okQ[n_]:=Module[{dc6=DigitCount[n,6]},dc6[[1]]==dc6[[2]]==dc6[[3]]]; Select[ Range[0,500],okQ] (* _Harvey P. Dale_, Nov 05 2011 *)"
			],
			"xref": [
				"Cf. A007092."
			],
			"keyword": "nonn,base,easy",
			"offset": "1,2",
			"author": "_Olivier Gérard_",
			"references": 1,
			"revision": 17,
			"time": "2021-07-01T03:40:04-04:00",
			"created": "1999-12-11T03:00:00-05:00"
		}
	]
}