{
	"greeting": "Greetings from The On-Line Encyclopedia of Integer Sequences! http://oeis.org/",
	"query": "id:A039965",
	"count": 1,
	"start": 0,
	"results": [
		{
			"number": 39965,
			"data": "1,2,2,1,2,0,0,0,2,1,2,2,1,2,0,0,0,0,0,0,0,0,0,0,0,0,2,1,2,2,1,2,0,0,0,2,1,2,2,1,2,0,0,0,0,0,0,0,0,0,0,0,0,0,0,0,0,0,0,0,0,0,0,0,0,0,0,0,0,0,0,0,0,0,0,0,0,0,0,0,2,1,2,2,1,2,0,0,0,2,1,2,2,1,2,0,0,0,0,0,0,0,0,0,0",
			"name": "An example of a d-perfect sequence.",
			"link": [
				"D. Kohel, S. Ling and C. Xing, \u003ca href=\"http://www.maths.usyd.edu.au/u/kohel/doc/perfect.ps\"\u003eExplicit Sequence Expansions\u003c/a\u003e, in Sequences and their Applications, C. Ding, T. Helleseth, and H. Niederreiter, eds., Proceedings of SETA'98 (Singapore, 1998), 308-317, 1999."
			],
			"formula": [
				"a(n) = ((-1)^(n+1)*A000108(n-1)) mod 3 - _Christian G. Bower_, Jun 12 2005"
			],
			"program": [
				"(PARI) C(n) = binomial(2*n, n)/(n+1);",
				"a(n) = ((-1)^(n+1)*C(n-1)) % 3; \\\\ _Michel Marcus_, Jul 09 2016"
			],
			"xref": [
				"Cf. A000108."
			],
			"keyword": "nonn",
			"offset": "1,2",
			"author": "_N. J. A. Sloane_.",
			"ext": [
				"More terms from _Christian G. Bower_, Jun 12 2005"
			],
			"references": 1,
			"revision": 12,
			"time": "2016-07-09T13:30:13-04:00",
			"created": "1999-12-11T03:00:00-05:00"
		}
	]
}