{
	"greeting": "Greetings from The On-Line Encyclopedia of Integer Sequences! http://oeis.org/",
	"query": "id:A039449",
	"count": 1,
	"start": 0,
	"results": [
		{
			"number": 39449,
			"data": "14,34,124,146,154,156,158,159,160,161,162,163,164,168,179,190,201,212,223,234,256,276,364,374,376,378,379,380,381,382,383,384,386,408,419,430,441,452,463,474,498,518,619,639,740,760,861,881,982,1002",
			"name": "Numbers whose base-11 representation has the same nonzero number of 1's and 3's.",
			"keyword": "nonn,base,easy",
			"offset": "1,1",
			"author": "_Olivier Gérard_",
			"references": 0,
			"revision": 11,
			"time": "2021-06-30T04:31:05-04:00",
			"created": "1999-12-11T03:00:00-05:00"
		}
	]
}