{
	"greeting": "Greetings from The On-Line Encyclopedia of Integer Sequences! http://oeis.org/",
	"query": "id:A040194",
	"count": 1,
	"start": 0,
	"results": [
		{
			"number": 40194,
			"data": "14,2,5,3,2,3,5,2,28,2,5,3,2,3,5,2,28,2,5,3,2,3,5,2,28,2,5,3,2,3,5,2,28,2,5,3,2,3,5,2,28,2,5,3,2,3,5,2,28,2,5,3,2,3,5,2,28,2,5,3,2,3,5,2,28,2,5,3,2,3,5,2,28,2,5,3,2,3,5,2,28,2,5,3,2,3,5,2",
			"name": "Continued fraction for sqrt(209).",
			"link": [
				"\u003ca href=\"/index/Con#confC\"\u003eIndex entries for continued fractions for constants\u003c/a\u003e",
				"\u003ca href=\"/index/Rec#order_08\"\u003eIndex entries for linear recurrences with constant coefficients\u003c/a\u003e, signature (0, 0, 0, 0, 0, 0, 0, 1)."
			],
			"formula": [
				"a(n)=(1/112)*{-339*(n mod 8)+67*[(n+1) mod 8]-3*[(n+2) mod 8]+11*[(n+3) mod 8]+39*[(n+4) mod 8]+53*[(n+5) mod 8]-17*[(n+6) mod 8]+389*[(n+7) mod 8]}-14*[C(2*n,n) mod 2], with n\u003e=0 [From _Paolo P. Lava_, Apr 24 2009]"
			],
			"maple": [
				"with(numtheory): Digits := 300: convert(evalf(sqrt(209)),confrac);"
			],
			"mathematica": [
				"ContinuedFraction[Sqrt[209],90] (* or *) PadRight[{14},90,{28,2,5,3,2,3,5,2}] (* _Harvey P. Dale_, Dec 13 2013 *)"
			],
			"keyword": "nonn,cofr,easy",
			"offset": "0,1",
			"author": "_N. J. A. Sloane_.",
			"references": 1,
			"revision": 14,
			"time": "2017-03-10T08:08:56-05:00",
			"created": "1999-12-11T03:00:00-05:00"
		}
	]
}