{
	"greeting": "Greetings from The On-Line Encyclopedia of Integer Sequences! http://oeis.org/",
	"query": "id:A040408",
	"count": 1,
	"start": 0,
	"results": [
		{
			"number": 40408,
			"data": "20,1,2,2,9,1,12,1,9,2,2,1,40,1,2,2,9,1,12,1,9,2,2,1,40,1,2,2,9,1,12,1,9,2,2,1,40,1,2,2,9,1,12,1,9,2,2,1,40,1,2,2,9,1,12,1,9,2,2,1,40,1,2,2,9,1,12,1,9,2,2,1,40,1,2,2,9,1,12,1,9,2,2,1,40,1,2",
			"name": "Continued fraction for sqrt(429).",
			"link": [
				"\u003ca href=\"/index/Con#confC\"\u003eIndex entries for continued fractions for constants\u003c/a\u003e",
				"\u003ca href=\"/index/Rec#order_12\"\u003eIndex entries for linear recurrences with constant coefficients\u003c/a\u003e, signature (0, 0, 0, 0, 0, 0, 0, 0, 0, 0, 0, 1)."
			],
			"formula": [
				"a(n)=(1/396)*{-1246*(n mod 12)+74*[(n+1) mod 12]+41*[(n+2) mod 12]+272*[(n+3) mod 12]-223*[(n+4) mod 12]+404*[(n+5) mod 12]-322*[(n+6) mod 12]+305*[(n+7) mod 12]-190*[(n+8) mod 12]+41*[(n+9) mod 12]+8*[(n+10) mod 12]+1328*[(n+11) mod 12]}-20*[C(2*n,n) mod 2], with n\u003e=0 [From _Paolo P. Lava_, Apr 30 2009]"
			],
			"maple": [
				"with(numtheory): Digits := 300: convert(evalf(sqrt(429)),confrac);"
			],
			"mathematica": [
				"ContinuedFraction[Sqrt[429],90] (* or *) PadRight[{20},90,{40,1,2,2,9,1,12,1,9,2,2,1}] (* _Harvey P. Dale_, Jan 23 2013 *)"
			],
			"keyword": "nonn,cofr,easy",
			"offset": "0,1",
			"author": "_N. J. A. Sloane_.",
			"references": 0,
			"revision": 14,
			"time": "2017-03-10T11:35:40-05:00",
			"created": "1999-12-11T03:00:00-05:00"
		}
	]
}