{
	"greeting": "Greetings from The On-Line Encyclopedia of Integer Sequences! http://oeis.org/",
	"query": "id:A040611",
	"count": 1,
	"start": 0,
	"results": [
		{
			"number": 40611,
			"data": "25,4,5,2,1,3,1,1,12,16,1,2,1,16,12,1,1,3,1,2,5,4,50,4,5,2,1,3,1,1,12,16,1,2,1,16,12,1,1,3,1,2,5,4,50,4,5,2,1,3,1,1,12,16,1,2,1,16,12,1,1,3,1,2,5,4,50,4,5,2,1,3,1,1,12,16,1,2,1,16,12,1,1,3",
			"name": "Continued fraction for sqrt(637).",
			"link": [
				"\u003ca href=\"/index/Con#confC\"\u003eIndex entries for continued fractions for constants\u003c/a\u003e",
				"\u003ca href=\"/index/Rec#order_22\"\u003eIndex entries for linear recurrences with constant coefficients\u003c/a\u003e, signature (0, 0, 0, 0, 0, 0, 0, 0, 0, 0, 0, 0, 0, 0, 0, 0, 0, 0, 0, 0, 0, 1)."
			],
			"maple": [
				"with(numtheory): Digits := 300: convert(evalf(sqrt(637)),confrac);"
			],
			"mathematica": [
				"ContinuedFraction[Sqrt[637],100] (* or *) PadRight[{25},100,{50,4,5,2,1,3,1,1,12,16,1,2,1,16,12,1,1,3,1,2,5,4}] (* _Harvey P. Dale_, Jan 09 2015 *)"
			],
			"keyword": "nonn,cofr,easy",
			"offset": "0,1",
			"author": "_N. J. A. Sloane_.",
			"references": 0,
			"revision": 11,
			"time": "2017-03-10T14:30:42-05:00",
			"created": "1999-12-11T03:00:00-05:00"
		}
	]
}