{
	"greeting": "Greetings from The On-Line Encyclopedia of Integer Sequences! http://oeis.org/",
	"query": "id:A040550",
	"count": 1,
	"start": 0,
	"results": [
		{
			"number": 40550,
			"data": "23,1,22,1,46,1,22,1,46,1,22,1,46,1,22,1,46,1,22,1,46,1,22,1,46,1,22,1,46,1,22,1,46,1,22,1,46,1,22,1,46,1,22,1,46,1,22,1,46,1,22,1,46,1,22,1,46,1,22,1,46,1,22,1,46,1,22,1,46,1,22,1,46,1,22",
			"name": "Continued fraction for sqrt(574).",
			"link": [
				"\u003ca href=\"/index/Con#confC\"\u003eIndex entries for continued fractions for constants\u003c/a\u003e",
				"\u003ca href=\"/index/Rec#order_04\"\u003eIndex entries for linear recurrences with constant coefficients\u003c/a\u003e, signature (0, 0, 0, 1)."
			],
			"formula": [
				"a(n)=(1/6)*{-50*(n mod 4)+49*[(n+1) mod 4]-14*[(n+2) mod 4]+85*[(n+3) mod 4]}-23*[C(2*n,n) mod 2], with n\u003e=0 [From _Paolo P. Lava_, May 14 2009]"
			],
			"maple": [
				"with(numtheory): Digits := 300: convert(evalf(sqrt(574)),confrac);"
			],
			"keyword": "nonn,cofr,easy,less",
			"offset": "0,1",
			"author": "_N. J. A. Sloane_.",
			"references": 1,
			"revision": 13,
			"time": "2017-03-10T13:42:51-05:00",
			"created": "1999-12-11T03:00:00-05:00"
		}
	]
}