{
	"greeting": "Greetings from The On-Line Encyclopedia of Integer Sequences! http://oeis.org/",
	"query": "id:A040383",
	"count": 1,
	"start": 0,
	"results": [
		{
			"number": 40383,
			"data": "20,10,40,10,40,10,40,10,40,10,40,10,40,10,40,10,40,10,40,10,40,10,40,10,40,10,40,10,40,10,40,10,40,10,40,10,40,10,40,10,40,10,40,10,40,10,40,10,40,10,40,10,40,10,40,10,40,10,40,10,40,10,40",
			"name": "Continued fraction for sqrt(404).",
			"link": [
				"\u003ca href=\"/index/Con#confC\"\u003eIndex entries for continued fractions for constants\u003c/a\u003e",
				"\u003ca href=\"/index/Rec#order_02\"\u003eIndex entries for linear recurrences with constant coefficients\u003c/a\u003e, signature (0, 1)."
			],
			"formula": [
				"a(n)=25+15*(-1)^n-20*[C(2*n,n) mod 2], with n\u003e=0 [From _Paolo P. Lava_, Apr 29 2009]"
			],
			"maple": [
				"with(numtheory): Digits := 300: convert(evalf(sqrt(404)),confrac);"
			],
			"mathematica": [
				"Block[{$MaxExtraPrecision=1000}, ContinuedFraction[Sqrt[404],100]] (* or *) PadRight[{20},100,{40,10}] (* _Harvey P. Dale_, Aug 03 2021 *)"
			],
			"keyword": "nonn,cofr,easy",
			"offset": "0,1",
			"author": "_N. J. A. Sloane_.",
			"references": 1,
			"revision": 14,
			"time": "2021-08-03T10:43:55-04:00",
			"created": "1999-12-11T03:00:00-05:00"
		}
	]
}