{
	"greeting": "Greetings from The On-Line Encyclopedia of Integer Sequences! http://oeis.org/",
	"query": "id:A040393",
	"count": 1,
	"start": 0,
	"results": [
		{
			"number": 40393,
			"data": "20,2,1,7,2,7,1,2,40,2,1,7,2,7,1,2,40,2,1,7,2,7,1,2,40,2,1,7,2,7,1,2,40,2,1,7,2,7,1,2,40,2,1,7,2,7,1,2,40,2,1,7,2,7,1,2,40,2,1,7,2,7,1,2,40,2,1,7,2,7,1,2,40,2,1,7,2,7,1,2,40,2,1,7,2,7,1,2",
			"name": "Continued fraction for sqrt(414).",
			"link": [
				"\u003ca href=\"/index/Con#confC\"\u003eIndex entries for continued fractions for constants\u003c/a\u003e",
				"\u003ca href=\"/index/Rec#order_08\"\u003eIndex entries for linear recurrences with constant coefficients\u003c/a\u003e, signature (0, 0, 0, 0, 0, 0, 0, 1)."
			],
			"formula": [
				"a(n)=(1/112)*{-501*(n mod 8)+17*[(n+1) mod 8]+115*[(n+2) mod 8]-39*[(n+3) mod 8]+101*[(n+4) mod 8]-53*[(n+5) mod 8]+45*[(n+6) mod 8]+563*[(n+7) mod 8]}-20*[C(2*n,n) mod 2], with n\u003e=0 [From _Paolo P. Lava_, Apr 30 2009]"
			],
			"maple": [
				"with(numtheory): Digits := 300: convert(evalf(sqrt(414)),confrac);"
			],
			"mathematica": [
				"ContinuedFraction[Sqrt[414],120] (* or *) PadRight[{20},120,{40,2,1,7,2,7,1,2}] (* _Harvey P. Dale_, Dec 19 2015 *)"
			],
			"keyword": "nonn,cofr,easy",
			"offset": "0,1",
			"author": "_N. J. A. Sloane_.",
			"references": 2,
			"revision": 14,
			"time": "2017-03-10T11:31:59-05:00",
			"created": "1999-12-11T03:00:00-05:00"
		}
	]
}