{
	"greeting": "Greetings from The On-Line Encyclopedia of Integer Sequences! http://oeis.org/",
	"query": "id:A040821",
	"count": 1,
	"start": 0,
	"results": [
		{
			"number": 40821,
			"data": "29,5,1,4,2,7,1,7,2,4,1,5,58,5,1,4,2,7,1,7,2,4,1,5,58,5,1,4,2,7,1,7,2,4,1,5,58,5,1,4,2,7,1,7,2,4,1,5,58,5,1,4,2,7,1,7,2,4,1,5,58,5,1,4,2,7,1,7,2,4,1,5,58,5,1,4,2,7,1,7,2,4,1,5,58,5,1,4,2,7",
			"name": "Continued fraction for sqrt(851).",
			"link": [
				"\u003ca href=\"/index/Con#confC\"\u003eIndex entries for continued fractions for constants\u003c/a\u003e",
				"\u003ca href=\"/index/Rec#order_12\"\u003eIndex entries for linear recurrences with constant coefficients\u003c/a\u003e, signature (0, 0, 0, 0, 0, 0, 0, 0, 0, 0, 0, 1)."
			],
			"formula": [
				"a(n)=(1/792)*{-3401*(n mod 12)-167*[(n+1) mod 12]+295*[(n+2) mod 12]-35*[(n+3) mod 12]+427*[(n+4) mod 12]-299*[(n+5) mod 12]+493*[(n+6) mod 12]-233*[(n+7) mod 12]+229*[(n+8) mod 12]-101*[(n+9) mod 12]+361*[(n+10) mod 12]+3595*[(n+11) mod 12]}-29*[C(2*n,n) mod 2], with n\u003e=0 [From _Paolo P. Lava_, May 29 2009]"
			],
			"maple": [
				"with(numtheory): Digits := 300: convert(evalf(sqrt(851)),confrac);"
			],
			"keyword": "nonn,cofr,easy",
			"offset": "0,1",
			"author": "_N. J. A. Sloane_.",
			"references": 1,
			"revision": 12,
			"time": "2017-03-10T16:41:47-05:00",
			"created": "1999-12-11T03:00:00-05:00"
		}
	]
}