{
	"greeting": "Greetings from The On-Line Encyclopedia of Integer Sequences! http://oeis.org/",
	"query": "id:A040165",
	"count": 1,
	"start": 0,
	"results": [
		{
			"number": 40165,
			"data": "2,3,5,7,13,17,19,23,29,31,37,43,47,53,59,67,73,79,83,89,97,103,107,109,113,127,137,139,149,157,163,167,173,179,191,193,197,199,223,227,229,233,239,251,257,263,269,271",
			"name": "Primes p such that x^5 = 5 has a solution mod p.",
			"link": [
				"Vincenzo Librandi, \u003ca href=\"/A040165/b040165.txt\"\u003eTable of n, a(n) for n = 1..1000\u003c/a\u003e"
			],
			"mathematica": [
				"ok [p_]:=Reduce[Mod[x^5 - 5, p]== 0, x, Integers]=!= False; Select[Prime[Range[150]], ok] (* _Vincenzo Librandi_, Sep 12 2012 *)"
			],
			"program": [
				"(MAGMA) [p: p in PrimesUpTo(400) | exists(t){x : x in ResidueClassRing(p) | x^5 eq 5}]; // _Vincenzo Librandi_, Sep 12 2012"
			],
			"keyword": "nonn,easy",
			"offset": "1,1",
			"author": "_N. J. A. Sloane_.",
			"references": 2,
			"revision": 7,
			"time": "2012-09-12T11:55:36-04:00",
			"created": "1999-12-11T03:00:00-05:00"
		}
	]
}