{
	"greeting": "Greetings from The On-Line Encyclopedia of Integer Sequences! http://oeis.org/",
	"query": "id:A040692",
	"count": 1,
	"start": 0,
	"results": [
		{
			"number": 40692,
			"data": "26,1,4,2,1,1,1,1,1,4,3,1,9,1,25,1,9,1,3,4,1,1,1,1,1,2,4,1,52,1,4,2,1,1,1,1,1,4,3,1,9,1,25,1,9,1,3,4,1,1,1,1,1,2,4,1,52,1,4,2,1,1,1,1,1,4,3,1,9,1,25,1,9,1,3,4,1,1,1,1,1,2,4,1,52,1,4,2,1,1",
			"name": "Continued fraction for sqrt(719).",
			"link": [
				"\u003ca href=\"/index/Con#confC\"\u003eIndex entries for continued fractions for constants\u003c/a\u003e",
				"\u003ca href=\"/index/Rec#order_28\"\u003eIndex entries for linear recurrences with constant coefficients\u003c/a\u003e, signature (0, 0, 0, 0, 0, 0, 0, 0, 0, 0, 0, 0, 0, 0, 0, 0, 0, 0, 0, 0, 0, 0, 0, 0, 0, 0, 0, 1)."
			],
			"maple": [
				"with(numtheory): Digits := 300: convert(evalf(sqrt(719)),confrac);"
			],
			"mathematica": [
				"ContinuedFraction[Sqrt[719],120] (* _Harvey P. Dale_, Feb 29 2012 *)"
			],
			"keyword": "nonn,cofr,easy",
			"offset": "0,1",
			"author": "_N. J. A. Sloane_.",
			"references": 0,
			"revision": 12,
			"time": "2017-03-10T15:49:28-05:00",
			"created": "1999-12-11T03:00:00-05:00"
		}
	]
}