{
	"greeting": "Greetings from The On-Line Encyclopedia of Integer Sequences! http://oeis.org/",
	"query": "id:A040129",
	"count": 1,
	"start": 0,
	"results": [
		{
			"number": 40129,
			"data": "3,5,17,19,23,29,37,41,53,59,61,71,73,79,83,89,97,101,109,127,131,139,149,151,191,193,197,227,233,239,241,251,257,263,277,281,283,293,307,313,317,337,353,359,373,389,409",
			"name": "Primes p such that x^4 = 14 has no solution mod p.",
			"comment": [
				"Complement of A040128 relative to A000040. - _Vincenzo Librandi_, Sep 18 2012"
			],
			"link": [
				"Vincenzo Librandi, \u003ca href=\"/A040129/b040129.txt\"\u003eTable of n, a(n) for n = 1..1000\u003c/a\u003e"
			],
			"mathematica": [
				"ok[p_]:= Reduce[Mod[x^4 - 14, p] == 0, x, Integers] == False; Select[Prime[Range[100]], ok] (* _Vincenzo Librandi_, Sep 18 2012  *)"
			],
			"program": [
				"(MAGMA) [p: p in PrimesUpTo(500) | not exists{x : x in ResidueClassRing(p) | x^4 eq 14} ]; // _Vincenzo Librandi_, Sep 18 2012"
			],
			"keyword": "nonn,easy",
			"offset": "1,1",
			"author": "_N. J. A. Sloane_.",
			"references": 1,
			"revision": 8,
			"time": "2012-09-18T02:01:19-04:00",
			"created": "1999-12-11T03:00:00-05:00"
		}
	]
}