{
	"greeting": "Greetings from The On-Line Encyclopedia of Integer Sequences! http://oeis.org/",
	"query": "id:A040535",
	"count": 1,
	"start": 0,
	"results": [
		{
			"number": 40535,
			"data": "23,1,1,1,4,15,1,1,4,1,2,1,4,1,1,15,4,1,1,1,46,1,1,1,4,15,1,1,4,1,2,1,4,1,1,15,4,1,1,1,46,1,1,1,4,15,1,1,4,1,2,1,4,1,1,15,4,1,1,1,46,1,1,1,4,15,1,1,4,1,2,1,4,1,1,15,4,1,1,1,46,1,1,1,4,15,1",
			"name": "Continued fraction for sqrt(559).",
			"link": [
				"\u003ca href=\"/index/Con#confC\"\u003eIndex entries for continued fractions for constants\u003c/a\u003e",
				"\u003ca href=\"/index/Rec#order_20\"\u003eIndex entries for linear recurrences with constant coefficients\u003c/a\u003e, signature (0, 0, 0, 0, 0, 0, 0, 0, 0, 0, 0, 0, 0, 0, 0, 0, 0, 0, 0, 1)."
			],
			"maple": [
				"with(numtheory): Digits := 300: convert(evalf(sqrt(559)),confrac);"
			],
			"keyword": "nonn,cofr,easy,less",
			"offset": "0,1",
			"author": "_N. J. A. Sloane_.",
			"references": 0,
			"revision": 10,
			"time": "2017-03-10T13:38:33-05:00",
			"created": "1999-12-11T03:00:00-05:00"
		}
	]
}