{
	"greeting": "Greetings from The On-Line Encyclopedia of Integer Sequences! http://oeis.org/",
	"query": "id:A040032",
	"count": 1,
	"start": 0,
	"results": [
		{
			"number": 40032,
			"data": "6,4,12,4,12,4,12,4,12,4,12,4,12,4,12,4,12,4,12,4,12,4,12,4,12,4,12,4,12,4,12,4,12,4,12,4,12,4,12,4,12,4,12,4,12,4,12,4,12,4,12,4,12,4,12,4,12,4,12,4,12,4,12,4,12,4",
			"name": "Continued fraction for sqrt(39).",
			"link": [
				"Harry J. Smith, \u003ca href=\"/A040032/b040032.txt\"\u003eTable of n, a(n) for n = 0..20000\u003c/a\u003e",
				"G. Xiao, \u003ca href=\"http://wims.unice.fr/~wims/en_tool~number~contfrac.en.html\"\u003eContfrac\u003c/a\u003e",
				"\u003ca href=\"/index/Con#confC\"\u003eIndex entries for continued fractions for constants\u003c/a\u003e",
				"\u003ca href=\"/index/Rec#order_02\"\u003eIndex entries for linear recurrences with constant coefficients\u003c/a\u003e, signature (0,1)."
			],
			"formula": [
				"a(n) = 8 + 4*(-1)^n - 6*(binomial(2*n,n) mod 2), with n\u003e=0. - _Paolo P. Lava_, Jun 09 2009"
			],
			"example": [
				"6.2449979983983982058468931... = 6 + 1/(4 + 1/(12 + 1/(4 + 1/(12 + ...)))). - _Harry J. Smith_, Jun 05 2009"
			],
			"maple": [
				"Digits := 100: convert(evalf(sqrt(N)),confrac,90,'cvgts'):"
			],
			"mathematica": [
				"ContinuedFraction[Sqrt[39],300] (* _Vladimir Joseph Stephan Orlovsky_, Mar 06 2011 *)",
				"PadRight[{6},100,{12,4}] (* or *) Join[{6},LinearRecurrence[{0,1},{4,12},100]] (* _Harvey P. Dale_, Feb 09 2015 *)"
			],
			"program": [
				"(PARI) { allocatemem(932245000); default(realprecision, 35000); x=contfrac(sqrt(39)); for (n=0, 20000, write(\"b040032.txt\", n, \" \", x[n+1])); } \\\\ _Harry J. Smith_, Jun 05 2009"
			],
			"xref": [
				"Cf. A010493 Decimal expansion. - _Harry J. Smith_, Jun 05 2009"
			],
			"keyword": "nonn,cofr,easy",
			"offset": "0,1",
			"author": "_N. J. A. Sloane_",
			"references": 2,
			"revision": 24,
			"time": "2016-01-03T02:16:10-05:00",
			"created": "1999-12-11T03:00:00-05:00"
		}
	]
}