{
	"greeting": "Greetings from The On-Line Encyclopedia of Integer Sequences! http://oeis.org/",
	"query": "id:A040390",
	"count": 1,
	"start": 0,
	"results": [
		{
			"number": 40390,
			"data": "20,3,1,1,1,19,1,1,1,3,40,3,1,1,1,19,1,1,1,3,40,3,1,1,1,19,1,1,1,3,40,3,1,1,1,19,1,1,1,3,40,3,1,1,1,19,1,1,1,3,40,3,1,1,1,19,1,1,1,3,40,3,1,1,1,19,1,1,1,3,40,3,1,1,1,19,1,1,1,3,40,3,1,1,1",
			"name": "Continued fraction for sqrt(411).",
			"link": [
				"\u003ca href=\"/index/Con#confC\"\u003eIndex entries for continued fractions for constants\u003c/a\u003e",
				"\u003ca href=\"/index/Rec#order_10\"\u003eIndex entries for linear recurrences with constant coefficients\u003c/a\u003e, signature (0, 0, 0, 0, 0, 0, 0, 0, 0, 1)."
			],
			"formula": [
				"a(n)=(1/450)*{-1594*(n mod 10)-19*[(n+1) mod 10]+71*[(n+2) mod 10]+71*[(n+3) mod 10]+881*[(n+4) mod 10]-739*[(n+5) mod 10]+71*[(n+6) mod 10]+71*[(n+7) mod 10]+161*[(n+8) mod 10]+1736*[(n+9) mod 10]}-20*[C(2*n,n) mod 2], with n\u003e=0 [From _Paolo P. Lava_, Apr 30 2009]"
			],
			"maple": [
				"with(numtheory): Digits := 300: convert(evalf(sqrt(411)),confrac);"
			],
			"keyword": "nonn,cofr,easy",
			"offset": "0,1",
			"author": "_N. J. A. Sloane_.",
			"references": 2,
			"revision": 12,
			"time": "2017-03-10T11:31:05-05:00",
			"created": "1999-12-11T03:00:00-05:00"
		}
	]
}