{
	"greeting": "Greetings from The On-Line Encyclopedia of Integer Sequences! http://oeis.org/",
	"query": "id:A040265",
	"count": 1,
	"start": 0,
	"results": [
		{
			"number": 40265,
			"data": "16,1,3,1,4,1,3,1,32,1,3,1,4,1,3,1,32,1,3,1,4,1,3,1,32,1,3,1,4,1,3,1,32,1,3,1,4,1,3,1,32,1,3,1,4,1,3,1,32,1,3,1,4,1,3,1,32,1,3,1,4,1,3,1,32,1,3,1,4,1,3,1,32,1,3,1,4,1,3,1,32,1,3,1,4,1,3,1",
			"name": "Continued fraction for sqrt(282).",
			"link": [
				"\u003ca href=\"/index/Con#confC\"\u003eIndex entries for continued fractions for constants\u003c/a\u003e",
				"\u003ca href=\"/index/Rec#order_08\"\u003eIndex entries for linear recurrences with constant coefficients\u003c/a\u003e, signature (0, 0, 0, 0, 0, 0, 0, 1)."
			],
			"formula": [
				"a(n)=(1/112)*{-411*(n mod 8)+51*[(n+1) mod 8]-5*[(n+2) mod 8]+65*[(n+3) mod 8]-19*[(n+4) mod 8]+51*[(n+5) mod 8]-5*[(n+6) mod 8]+457*[(n+7) mod 8]}-16*[C(2*n,n) mod 2], with n\u003e=0 [From _Paolo P. Lava_, Apr 24 2009]"
			],
			"maple": [
				"with(numtheory): Digits := 300: convert(evalf(sqrt(282)),confrac);"
			],
			"keyword": "nonn,cofr,easy",
			"offset": "0,1",
			"author": "_N. J. A. Sloane_.",
			"references": 1,
			"revision": 12,
			"time": "2017-03-10T08:30:36-05:00",
			"created": "1999-12-11T03:00:00-05:00"
		}
	]
}