{
	"greeting": "Greetings from The On-Line Encyclopedia of Integer Sequences! http://oeis.org/",
	"query": "id:A040696",
	"count": 1,
	"start": 0,
	"results": [
		{
			"number": 40696,
			"data": "26,1,7,1,52,1,7,1,52,1,7,1,52,1,7,1,52,1,7,1,52,1,7,1,52,1,7,1,52,1,7,1,52,1,7,1,52,1,7,1,52,1,7,1,52,1,7,1,52,1,7,1,52,1,7,1,52,1,7,1,52,1,7,1,52,1,7,1,52,1,7,1,52,1,7,1,52,1,7,1,52,1,7,1",
			"name": "Continued fraction for sqrt(723).",
			"link": [
				"\u003ca href=\"/index/Con#confC\"\u003eIndex entries for continued fractions for constants\u003c/a\u003e",
				"\u003ca href=\"/index/Rec#order_04\"\u003eIndex entries for linear recurrences with constant coefficients\u003c/a\u003e, signature (0, 0, 0, 1)."
			],
			"formula": [
				"a(n)=(1/24)*{-245*(n mod 4)+97*[(n+1) mod 4]+25*[(n+2) mod 4]+367*[(n+3) mod 4]}-26*[C(2*n,n) mod 2], with n\u003e=0. - _Paolo P. Lava_, May 19 2009"
			],
			"maple": [
				"with(numtheory): Digits := 300: convert(evalf(sqrt(723)),confrac);"
			],
			"mathematica": [
				"ContinuedFraction[Sqrt[723],120] (* _Harvey P. Dale_, Jun 02 2011 *)"
			],
			"keyword": "nonn,cofr,easy",
			"offset": "0,1",
			"author": "_N. J. A. Sloane_",
			"references": 1,
			"revision": 19,
			"time": "2017-03-10T15:50:20-05:00",
			"created": "1999-12-11T03:00:00-05:00"
		}
	]
}