{
	"greeting": "Greetings from The On-Line Encyclopedia of Integer Sequences! http://oeis.org/",
	"query": "id:A040010",
	"count": 1,
	"start": 0,
	"results": [
		{
			"number": 40010,
			"data": "0,44,3,1,5,1,3,6,14,9,6,1,3,1,1,20,2,2,9,1,8,4,2,21,4,1,9,9,5,3,5,16,1,3,1,9,2,2,12,1,4,1,4,5,4,2,5,3,1,2,1,1,6,4,3,1,1,21,1,2,1,2,1,1,4,1,7,1,2,19,1,2,2,3,1,1,1",
			"name": "Continued fraction for Pi*exp(-Pi^2/2).",
			"xref": [
				"Cf. A040009."
			],
			"keyword": "nonn,cofr",
			"offset": "0,2",
			"author": "_N. J. A. Sloane_.",
			"references": 0,
			"revision": 4,
			"time": "2012-03-30T16:47:51-04:00",
			"created": "1999-12-11T03:00:00-05:00"
		}
	]
}