{
	"greeting": "Greetings from The On-Line Encyclopedia of Integer Sequences! http://oeis.org/",
	"query": "id:A040195",
	"count": 1,
	"start": 0,
	"results": [
		{
			"number": 40195,
			"data": "14,2,28,2,28,2,28,2,28,2,28,2,28,2,28,2,28,2,28,2,28,2,28,2,28,2,28,2,28,2,28,2,28,2,28,2,28,2,28,2,28,2,28,2,28,2,28,2,28,2,28,2,28,2,28,2,28,2,28,2,28,2,28,2,28,2,28,2,28,2,28,2,28,2,28",
			"name": "Continued fraction for sqrt(210).",
			"link": [
				"\u003ca href=\"/index/Con#confC\"\u003eIndex entries for continued fractions for constants\u003c/a\u003e",
				"\u003ca href=\"/index/Rec#order_02\"\u003eIndex entries for linear recurrences with constant coefficients\u003c/a\u003e, signature (0, 1)."
			],
			"formula": [
				"a(n)=15+13*(-1)^n-14*[C(2*n,n) mod 2], with n\u003e=0 [From _Paolo P. Lava_, Apr 24 2009]"
			],
			"maple": [
				"with(numtheory): Digits := 300: convert(evalf(sqrt(210)),confrac);"
			],
			"keyword": "nonn,cofr,easy",
			"offset": "0,1",
			"author": "_N. J. A. Sloane_.",
			"references": 2,
			"revision": 12,
			"time": "2017-03-10T08:09:12-05:00",
			"created": "1999-12-11T03:00:00-05:00"
		}
	]
}