{
	"greeting": "Greetings from The On-Line Encyclopedia of Integer Sequences! http://oeis.org/",
	"query": "id:A040582",
	"count": 1,
	"start": 0,
	"results": [
		{
			"number": 40582,
			"data": "24,1,1,1,3,7,1,15,1,1,4,1,23,1,4,1,1,15,1,7,3,1,1,1,48,1,1,1,3,7,1,15,1,1,4,1,23,1,4,1,1,15,1,7,3,1,1,1,48,1,1,1,3,7,1,15,1,1,4,1,23,1,4,1,1,15,1,7,3,1,1,1,48,1,1,1,3,7,1,15,1,1,4,1,23,1,4",
			"name": "Continued fraction for sqrt(607).",
			"link": [
				"\u003ca href=\"/index/Con#confC\"\u003eIndex entries for continued fractions for constants\u003c/a\u003e",
				"\u003ca href=\"/index/Rec#order_24\"\u003eIndex entries for linear recurrences with constant coefficients\u003c/a\u003e, signature (0, 0, 0, 0, 0, 0, 0, 0, 0, 0, 0, 0, 0, 0, 0, 0, 0, 0, 0, 0, 0, 0, 0, 1)."
			],
			"maple": [
				"with(numtheory): Digits := 300: convert(evalf(sqrt(607)),confrac);"
			],
			"mathematica": [
				"ContinuedFraction[Sqrt[607],90] (* _Harvey P. Dale_, Oct 03 2012 *)"
			],
			"keyword": "nonn,cofr,easy,less",
			"offset": "0,1",
			"author": "_N. J. A. Sloane_.",
			"references": 0,
			"revision": 14,
			"time": "2017-03-10T14:22:56-05:00",
			"created": "1999-12-11T03:00:00-05:00"
		}
	]
}