{
	"greeting": "Greetings from The On-Line Encyclopedia of Integer Sequences! http://oeis.org/",
	"query": "id:A040860",
	"count": 1,
	"start": 0,
	"results": [
		{
			"number": 40860,
			"data": "29,1,4,1,58,1,4,1,58,1,4,1,58,1,4,1,58,1,4,1,58,1,4,1,58,1,4,1,58,1,4,1,58,1,4,1,58,1,4,1,58,1,4,1,58,1,4,1,58,1,4,1,58,1,4,1,58,1,4,1,58,1,4,1,58,1,4,1,58,1,4,1,58,1,4,1,58,1,4,1,58,1,4,1",
			"name": "Continued fraction for sqrt(890).",
			"link": [
				"\u003ca href=\"/index/Con#confC\"\u003eIndex entries for continued fractions for constants\u003c/a\u003e",
				"\u003ca href=\"/index/Rec#order_04\"\u003eIndex entries for linear recurrences with constant coefficients\u003c/a\u003e, signature (0, 0, 0, 1)."
			],
			"formula": [
				"a(n)=(1/12)*{-139*(n mod 4)+41*[(n+1) mod 4]+23*[(n+2) mod 4]+203*[(n+3) mod 4]}-29*[C(2*n,n) mod 2], with n\u003e=0 [From _Paolo P. Lava_, May 29 2009]"
			],
			"maple": [
				"with(numtheory): Digits := 300: convert(evalf(sqrt(890)),confrac);"
			],
			"mathematica": [
				"ContinuedFraction[Sqrt[890],120] (* or *) PadRight[{29},120,{58,1,4,1}] (* _Harvey P. Dale_, Apr 08 2019 *)"
			],
			"keyword": "nonn,cofr,easy",
			"offset": "0,1",
			"author": "_N. J. A. Sloane_.",
			"references": 1,
			"revision": 14,
			"time": "2019-04-08T09:43:43-04:00",
			"created": "1999-12-11T03:00:00-05:00"
		}
	]
}