{
	"greeting": "Greetings from The On-Line Encyclopedia of Integer Sequences! http://oeis.org/",
	"query": "id:A040771",
	"count": 1,
	"start": 0,
	"results": [
		{
			"number": 40771,
			"data": "28,3,1,1,13,1,1,3,56,3,1,1,13,1,1,3,56,3,1,1,13,1,1,3,56,3,1,1,13,1,1,3,56,3,1,1,13,1,1,3,56,3,1,1,13,1,1,3,56,3,1,1,13,1,1,3,56,3,1,1,13,1,1,3,56,3,1,1,13,1,1,3,56,3,1,1,13,1,1,3,56,3,1,1",
			"name": "Continued fraction for sqrt(800).",
			"link": [
				"\u003ca href=\"/index/Con#confC\"\u003eIndex entries for continued fractions for constants\u003c/a\u003e",
				"\u003ca href=\"/index/Rec#order_08\"\u003eIndex entries for linear recurrences with constant coefficients\u003c/a\u003e, signature (0, 0, 0, 0, 0, 0, 0, 1)."
			],
			"formula": [
				"a(n)=(1/224)*{-1405*(n mod 8)+23*[(n+1) mod 8]+79*[(n+2) mod 8]+415*[(n+3) mod 8]-257*[(n+4) mod 8]+79*[(n+5) mod 8]+135*[(n+6) mod 8]+1563*[(n+7) mod 8]}-28*[C(2*n,n) mod 2], with n\u003e=0 [From _Paolo P. Lava_, May 20 2009]"
			],
			"maple": [
				"with(numtheory): Digits := 300: convert(evalf(sqrt(800)),confrac);"
			],
			"mathematica": [
				"ContinuedFraction[Sqrt[800],100] (* or *) PadRight[{28},100,{56,3,1,1,13,1,1,3}] (* _Harvey P. Dale_, May 01 2013 *)"
			],
			"keyword": "nonn,cofr,easy",
			"offset": "0,1",
			"author": "_N. J. A. Sloane_.",
			"references": 2,
			"revision": 14,
			"time": "2017-03-10T16:10:11-05:00",
			"created": "1999-12-11T03:00:00-05:00"
		}
	]
}