{
	"greeting": "Greetings from The On-Line Encyclopedia of Integer Sequences! http://oeis.org/",
	"query": "id:A040295",
	"count": 1,
	"start": 0,
	"results": [
		{
			"number": 40295,
			"data": "17,1,2,4,11,1,1,3,2,2,3,1,1,11,4,2,1,34,1,2,4,11,1,1,3,2,2,3,1,1,11,4,2,1,34,1,2,4,11,1,1,3,2,2,3,1,1,11,4,2,1,34,1,2,4,11,1,1,3,2,2,3,1,1,11,4,2,1,34,1,2,4,11,1,1,3,2,2,3,1,1,11,4,2,1,34",
			"name": "Continued fraction for sqrt(313).",
			"link": [
				"\u003ca href=\"/index/Con#confC\"\u003eIndex entries for continued fractions for constants\u003c/a\u003e",
				"\u003ca href=\"/index/Rec#order_17\"\u003eIndex entries for linear recurrences with constant coefficients\u003c/a\u003e, signature (0, 0, 0, 0, 0, 0, 0, 0, 0, 0, 0, 0, 0, 0, 0, 0, 1)."
			],
			"formula": [
				"a(n)=(1/578)*{-1101*(n mod 17)+55*[(n+1) mod 17]+89*[(n+2) mod 17]+259*[(n+3) mod 17]-319*[(n+4) mod 17]+21*[(n+5) mod 17]+89*[(n+6) mod 17]-13*[(n+7) mod 17]+21*[(n+8) mod 17]+55*[(n+9) mod 17]-47*[(n+10) mod 17]+21*[(n+11) mod 17]+361*[(n+12) mod 17]-217*[(n+13) mod 17]-47*[(n+14) mod 17]-13*[(n+15) mod 17]+1143*[(n+16) mod 17]}-17*[C(2*n,n) mod 2], with n\u003e=0 [From _Paolo P. Lava_, Apr 27 2009]"
			],
			"maple": [
				"with(numtheory): Digits := 300: convert(evalf(sqrt(313)),confrac);"
			],
			"mathematica": [
				"ContinuedFraction[Sqrt[313],120] (* or *) PadRight[{17},120,{34,1,2,4,11,1,1,3,2,2,3,1,1,11,4,2,1}] (* _Harvey P. Dale_, Feb 25 2015 *)"
			],
			"keyword": "nonn,cofr,easy",
			"offset": "0,1",
			"author": "_N. J. A. Sloane_.",
			"references": 0,
			"revision": 14,
			"time": "2017-03-10T09:24:24-05:00",
			"created": "1999-12-11T03:00:00-05:00"
		}
	]
}