{
	"greeting": "Greetings from The On-Line Encyclopedia of Integer Sequences! http://oeis.org/",
	"query": "id:A041526",
	"count": 1,
	"start": 0,
	"results": [
		{
			"number": 41526,
			"data": "16,17,50,67,184,251,8216,8467,25150,33617,92384,126001,4124416,4250417,12625250,16875667,46376584,63252251,2070448616,2133700867,6337850350,8471551217,23280952784,31752504001,1039361080816,1071113584817,3181588250450,4252701835267",
			"name": "Numerators of continued fraction convergents to sqrt(280).",
			"link": [
				"Vincenzo Librandi, \u003ca href=\"/A041526/b041526.txt\"\u003eTable of n, a(n) for n = 0..200\u003c/a\u003e",
				"\u003ca href=\"/index/Rec\"\u003eIndex entries for linear recurrences with constant coefficients\u003c/a\u003e, signature (0,0,0,0,0,502,0,0,0,0,0,-1)."
			],
			"formula": [
				"G.f.: -(x^11-16*x^10+17*x^9-50*x^8+67*x^7-184*x^6-251*x^5-184*x^4-67*x^3-50*x^2-17*x-16) / (x^12-502*x^6+1). - _Colin Barker_, Nov 08 2013"
			],
			"mathematica": [
				"Numerator[Convergents[Sqrt[280], 30]] (* _Harvey P. Dale_, Sep 20 2012 *)"
			],
			"xref": [
				"Cf. A041527."
			],
			"keyword": "nonn,cofr,frac,easy",
			"offset": "0,1",
			"author": "_N. J. A. Sloane_.",
			"ext": [
				"More terms from _Colin Barker_, Nov 08 2013"
			],
			"references": 2,
			"revision": 14,
			"time": "2015-06-13T00:49:25-04:00",
			"created": "1999-12-11T03:00:00-05:00"
		}
	]
}