{
	"greeting": "Greetings from The On-Line Encyclopedia of Integer Sequences! http://oeis.org/",
	"query": "id:A041796",
	"count": 1,
	"start": 0,
	"results": [
		{
			"number": 41796,
			"data": "20,41,307,348,1003,3357,4360,12077,16437,324380,340817,1006014,1346831,5046507,11439845,16486352,126844309,270174970,10933843109,22137861188,165898871425,188036732613,541972336651",
			"name": "Numerators of continued fraction convergents to sqrt(419).",
			"link": [
				"Vincenzo Librandi, \u003ca href=\"/A041796/b041796.txt\"\u003eTable of n, a(n) for n = 0..200\u003c/a\u003e"
			],
			"formula": [
				"a(n) = 540349940*a(n-18) - a(n-36) for n\u003e35. [_Bruno Berselli_, Nov 09 2013]"
			],
			"mathematica": [
				"Numerator[Convergents[Sqrt[419], 30]] (* _Vincenzo Librandi_, Nov 09 2013 *)"
			],
			"xref": [
				"Cf. A041797."
			],
			"keyword": "nonn,cofr,frac,easy,less",
			"offset": "0,1",
			"author": "_N. J. A. Sloane_.",
			"references": 2,
			"revision": 11,
			"time": "2013-11-09T06:05:15-05:00",
			"created": "1999-12-11T03:00:00-05:00"
		}
	]
}