{
	"greeting": "Greetings from The On-Line Encyclopedia of Integer Sequences! http://oeis.org/",
	"query": "id:A041162",
	"count": 1,
	"start": 0,
	"results": [
		{
			"number": 41162,
			"data": "9,10,19,105,124,725,849,1574,29181,30755,59936,330435,390371,2282290,2672661,4954951,91861779,96816730,188678509,1040209275,1228887784,7184648195,8413535979,15598184174,289180851111,304779035285,593959886396,3274578467265",
			"name": "Numerators of continued fraction convergents to sqrt(91).",
			"link": [
				"Vincenzo Librandi, \u003ca href=\"/A041162/b041162.txt\"\u003eTable of n, a(n) for n = 0..200\u003c/a\u003e",
				"\u003ca href=\"/index/Rec\"\u003eIndex entries for linear recurrences with constant coefficients\u003c/a\u003e, signature (0,0,0,0,0,0,0,3148,0,0,0,0,0,0,0,-1)."
			],
			"formula": [
				"G.f.: -(x^15 -9*x^14 +10*x^13 -19*x^12 +105*x^11 -124*x^10 +725*x^9 -849*x^8 -1574*x^7 -849*x^6 -725*x^5 -124*x^4 -105*x^3 -19*x^2 -10*x -9) / (x^16 -3148*x^8 +1). - _Colin Barker_, Nov 05 2013"
			],
			"mathematica": [
				"Numerator[Convergents[Sqrt[91], 30]] (* _Vincenzo Librandi_, Oct 29 2013 *)"
			],
			"xref": [
				"Cf. A010542, A041163."
			],
			"keyword": "nonn,cofr,frac,easy",
			"offset": "0,1",
			"author": "_N. J. A. Sloane_.",
			"ext": [
				"More terms from _Colin Barker_, Nov 05 2013"
			],
			"references": 2,
			"revision": 13,
			"time": "2015-06-13T00:49:22-04:00",
			"created": "1999-12-11T03:00:00-05:00"
		}
	]
}