{
	"greeting": "Greetings from The On-Line Encyclopedia of Integer Sequences! http://oeis.org/",
	"query": "id:A041814",
	"count": 1,
	"start": 0,
	"results": [
		{
			"number": 41814,
			"data": "20,21,62,269,331,1924,19571,99779,119350,577179,1273708,1850887,75309188,77160075,229629338,995677427,1225306765,7122211252,72447419285,369359307677,441806726962,2136586215525",
			"name": "Numerators of continued fraction convergents to sqrt(428).",
			"link": [
				"Vincenzo Librandi, \u003ca href=\"/A041814/b041814.txt\"\u003eTable of n, a(n) for n = 0..200\u003c/a\u003e",
				"\u003ca href=\"/index/Rec#order_24\"\u003eIndex entries for linear recurrences with constant coefficients\u003c/a\u003e, signature (0, 0, 0, 0, 0, 0, 0, 0, 0, 0, 0, 3701774, 0, 0, 0, 0, 0, 0, 0, 0, 0, 0, 0, -1)."
			],
			"mathematica": [
				"Numerator[Convergents[Sqrt[428], 30]] (* _Vincenzo Librandi_, Nov 09 2013 *)"
			],
			"xref": [
				"Cf. A041815."
			],
			"keyword": "nonn,cofr,frac,easy,less",
			"offset": "0,1",
			"author": "_N. J. A. Sloane_.",
			"references": 2,
			"revision": 10,
			"time": "2017-03-18T13:00:23-04:00",
			"created": "1999-12-11T03:00:00-05:00"
		}
	]
}