{
	"greeting": "Greetings from The On-Line Encyclopedia of Integer Sequences! http://oeis.org/",
	"query": "id:A041843",
	"count": 1,
	"start": 0,
	"results": [
		{
			"number": 41843,
			"data": "1,21,883,18564,780571,16410555,690023881,14506912056,609980330233,12824093846949,539221921902091,11336484453790860,476671568981118211,10021439433057273291,421377127757386596433,8858941122338175798384",
			"name": "Denominators of continued fraction convergents to sqrt(443).",
			"link": [
				"Vincenzo Librandi, \u003ca href=\"/A041843/b041843.txt\"\u003eTable of n, a(n) for n = 0..200\u003c/a\u003e",
				"\u003ca href=\"/index/Rec#order_04\"\u003eIndex entries for linear recurrences with constant coefficients\u003c/a\u003e, signature (0, 884, 0, -1)."
			],
			"formula": [
				"G.f.: -(x^2-21*x-1) / (x^4-884*x^2+1). - _Colin Barker_, Nov 25 2013",
				"a(n) = 884*a(n-2) - a(n-4) for n\u003e3. - _Vincenzo Librandi_, Dec 25 2013"
			],
			"mathematica": [
				"Denominator[Convergents[Sqrt[443], 30]] (* _Vincenzo Librandi_, Dec 25 2013 *)"
			],
			"program": [
				"(MAGMA) I:=[1,21,883,18564]; [n le 4 select I[n] else 884*Self(n-2)-Self(n-4): n in [1..50]]; // _Vincenzo Librandi_, Dec 25 2013"
			],
			"xref": [
				"Cf. A041842, A040421."
			],
			"keyword": "nonn,frac,easy,less",
			"offset": "0,2",
			"author": "_N. J. A. Sloane_.",
			"references": 2,
			"revision": 18,
			"time": "2017-03-19T09:09:49-04:00",
			"created": "1999-12-11T03:00:00-05:00"
		}
	]
}