{
	"greeting": "Greetings from The On-Line Encyclopedia of Integer Sequences! http://oeis.org/",
	"query": "id:A041409",
	"count": 1,
	"start": 0,
	"results": [
		{
			"number": 41409,
			"data": "1,1,4,5,144,149,591,740,21311,22051,87464,109515,3153884,3263399,12944081,16207480,466753521,482961001,1915636524,2398597525,69076367224,71474964749,283501261471,354976226220,10222835595631,10577811821851,41956271061184",
			"name": "Denominators of continued fraction convergents to sqrt(219).",
			"link": [
				"Vincenzo Librandi, \u003ca href=\"/A041409/b041409.txt\"\u003eTable of n, a(n) for n = 0..200\u003c/a\u003e",
				"\u003ca href=\"/index/Rec\"\u003eIndex entries for linear recurrences with constant coefficients\u003c/a\u003e, signature (0,0,0,148,0,0,0,-1)."
			],
			"formula": [
				"G.f.: -(x^2-x-1)*(x^4+5*x^2+1) / (x^8-148*x^4+1). - _Colin Barker_, Nov 17 2013",
				"a(n) = 148*a(n-4) - a(n-8) for n\u003e7. - _Vincenzo Librandi_, Dec 17 2013"
			],
			"mathematica": [
				"Denominator[Convergents[Sqrt[219], 30]] (* _Vincenzo Librandi_, Dec 17 2013 *)"
			],
			"program": [
				"(MAGMA) I:=[1,1,4,5,144,149,591,740]; [n le 8 select I[n] else 148*Self(n-4)-Self(n-8): n in [1..40]]; // _Vincenzo Librandi_, Dec 17 2013"
			],
			"xref": [
				"Cf. A041408, A040204."
			],
			"keyword": "nonn,frac,easy",
			"offset": "0,3",
			"author": "_N. J. A. Sloane_.",
			"ext": [
				"More terms from _Colin Barker_, Nov 17 2013"
			],
			"references": 2,
			"revision": 17,
			"time": "2015-06-13T00:49:24-04:00",
			"created": "1999-12-11T03:00:00-05:00"
		}
	]
}