{
	"greeting": "Greetings from The On-Line Encyclopedia of Integer Sequences! http://oeis.org/",
	"query": "id:A041877",
	"count": 1,
	"start": 0,
	"results": [
		{
			"number": 41877,
			"data": "1,2,9,29,38,105,1088,2281,3369,12388,52921,118230,5018581,10155392,45640149,147075839,192715988,532507815,5517794138,11568096091,17085890229,62825766778,268388957341,599603681460,25451743578661,51503090838782,231464106933789",
			"name": "Denominators of continued fraction convergents to sqrt(460).",
			"link": [
				"Vincenzo Librandi, \u003ca href=\"/A041877/b041877.txt\"\u003eTable of n, a(n) for n = 0..200\u003c/a\u003e"
			],
			"formula": [
				"G.f.: (1 +2*x +9*x^2 +29*x^3 +38*x^4 +105*x^5 +1088*x^6 +2281*x^7 +3369*x^8 +12388*x^9 +52921*x^10 +118230*x^11 -52921*x^12 +12388*x^13 -3369*x^14 +2281*x^15 -1088*x^16 +105*x^17 -38*x^18 +29*x^19 -9*x^20 +2*x^21 -x^22)/(1 -5071502*x^12 +x^24). - _Vincenzo Librandi_, Dec 26 2013",
				"a(n) = 5071502*a(n-12) - a(n-24) for n\u003e23. - _Vincenzo Librandi_, Dec 26 2013"
			],
			"mathematica": [
				"Denominator[Convergents[Sqrt[460], 30]] (* or *) CoefficientList[Series[(1 + 2 x + 9 x^2 + 29 x^3 + 38 x^4 + 105 x^5 + 1088 x^6 + 2281 x^7 + 3369 x^8 + 12388 x^9 + 52921 x^10 + 118230 x^11 - 52921 x^12 + 12388 x^13 - 3369 x^14 + 2281 x^15 - 1088 x^16 + 105 x^17 - 38 x^18 + 29 x^19 - 9 x^20 + 2 x^21 - x^22)/(1 -5071502 x^12 + x^24), {x, 0, 30}], x] (* _Vincenzo Librandi_, Dec 26 2013 *)"
			],
			"program": [
				"(MAGMA) I:=[1,2,9,29,38,105,1088,2281,3369,12388,52921, 118230,5018581,10155392,45640149,147075839,192715988, 532507815,5517794138,11568096091,17085890229, 62825766778,268388957341,599603681460]; [n le 24 select I[n] else 5071502*Self(n-12)-Self(n-24): n in [1..40]]; // _Vincenzo Librandi_, Dec 26 2013"
			],
			"xref": [
				"Cf. A041876."
			],
			"keyword": "nonn,frac,easy",
			"offset": "0,2",
			"author": "_N. J. A. Sloane_.",
			"ext": [
				"More terms from _Vincenzo Librandi_, Dec 26 2013"
			],
			"references": 2,
			"revision": 9,
			"time": "2013-12-26T04:24:20-05:00",
			"created": "1999-12-11T03:00:00-05:00"
		}
	]
}