{
	"greeting": "Greetings from The On-Line Encyclopedia of Integer Sequences! http://oeis.org/",
	"query": "id:A041203",
	"count": 1,
	"start": 0,
	"results": [
		{
			"number": 41203,
			"data": "1,1,2,5,7,12,247,259,506,1271,1777,3048,62737,65785,128522,322829,451351,774180,15934951,16709131,32644082,81997295,114641377,196638672,4047414817,4244053489,8291468306,20826990101",
			"name": "Denominators of continued fraction convergents to sqrt(112).",
			"link": [
				"Vincenzo Librandi, \u003ca href=\"/A041203/b041203.txt\"\u003eTable of n, a(n) for n = 0..200\u003c/a\u003e",
				"\u003ca href=\"/index/Rec\"\u003eIndex entries for linear recurrences with constant coefficients\u003c/a\u003e, signature (0,0,0,0,0,254,0,0,0,0,0,-1)."
			],
			"formula": [
				"a(n) = 254*a(n-6)-a(n-12). G.f.: -(x^4-x^3+2*x^2+x+1)*(x^6-6*x^3-1)/((x^6-16*x^3+1)*(x^6+16*x^3+1)). [_Colin Barker_, Jul 19 2012]"
			],
			"mathematica": [
				"Denominator[Convergents[Sqrt[112], 30]] (* _Vincenzo Librandi_, Oct 24 2013 *)"
			],
			"xref": [
				"Cf. A041202."
			],
			"keyword": "nonn,cofr,frac,easy",
			"offset": "0,3",
			"author": "_N. J. A. Sloane_.",
			"references": 3,
			"revision": 13,
			"time": "2015-06-13T00:49:22-04:00",
			"created": "1999-12-11T03:00:00-05:00"
		}
	]
}