{
	"greeting": "Greetings from The On-Line Encyclopedia of Integer Sequences! http://oeis.org/",
	"query": "id:A041454",
	"count": 1,
	"start": 0,
	"results": [
		{
			"number": 41454,
			"data": "15,16,31,78,265,4053,12424,28901,41325,70226,2148105,2218331,4366436,10951203,37220045,569251878,1744975679,4059203236,5804178915,9863382151,301705643445,311569025596,613274669041,1538118363678,5227629760075,79952564764803",
			"name": "Numerators of continued fraction convergents to sqrt(243).",
			"link": [
				"Vincenzo Librandi, \u003ca href=\"/A041454/b041454.txt\"\u003eTable of n, a(n) for n = 0..200\u003c/a\u003e",
				"\u003ca href=\"/index/Rec\"\u003eIndex entries for linear recurrences with constant coefficients\u003c/a\u003e, signature (0,0,0,0,0,0,0,0,0,140452,0,0,0,0,0,0,0,0,0,-1)."
			],
			"formula": [
				"G.f.: -(x^19 -15*x^18 +16*x^17 -31*x^16 +78*x^15 -265*x^14 +4053*x^13 -12424*x^12 +28901*x^11 -41325*x^10 -70226*x^9 -41325*x^8 -28901*x^7 -12424*x^6 -4053*x^5 -265*x^4 -78*x^3 -31*x^2 -16*x -15) / (x^20 -140452*x^10 +1). - _Colin Barker_, Nov 10 2013"
			],
			"mathematica": [
				"Numerator[Convergents[Sqrt[243], 30]] (* _Vincenzo Librandi_, Nov 02 2013 *)",
				"LinearRecurrence[{0,0,0,0,0,0,0,0,0,140452,0,0,0,0,0,0,0,0,0,-1},{15,16,31,78,265,4053,12424,28901,41325,70226,2148105,2218331,4366436,10951203,37220045,569251878,1744975679,4059203236,5804178915,9863382151},40] (* _Harvey P. Dale_, Aug 10 2021 *)"
			],
			"xref": [
				"Cf. A041455."
			],
			"keyword": "nonn,cofr,frac,easy",
			"offset": "0,1",
			"author": "_N. J. A. Sloane_.",
			"ext": [
				"More terms from _Colin Barker_, Nov 10 2013"
			],
			"references": 2,
			"revision": 14,
			"time": "2021-08-10T18:49:32-04:00",
			"created": "1999-12-11T03:00:00-05:00"
		}
	]
}