{
	"greeting": "Greetings from The On-Line Encyclopedia of Integer Sequences! http://oeis.org/",
	"query": "id:A041341",
	"count": 1,
	"start": 0,
	"results": [
		{
			"number": 41341,
			"data": "1,1,2,7,16,23,62,85,232,781,1013,1794,47657,49451,97108,340775,778658,1119433,3017524,4136957,11291438,38011271,49302709,87313980,2319466189,2406780169,4726246358,16585519243,37897284844,54482804087,146862893018,201345697105",
			"name": "Denominators of continued fraction convergents to sqrt(184).",
			"link": [
				"Vincenzo Librandi, \u003ca href=\"/A041341/b041341.txt\"\u003eTable of n, a(n) for n = 0..200\u003c/a\u003e",
				"\u003ca href=\"/index/Rec#order_24\"\u003eIndex entries for linear recurrences with constant coefficients\u003c/a\u003e, signature (0, 0, 0, 0, 0, 0, 0, 0, 0, 0, 0, 48670, 0, 0, 0, 0, 0, 0, 0, 0, 0, 0, 0, -1)."
			],
			"formula": [
				"G.f.: -(x^22 -x^21 +2*x^20 -7*x^19 +16*x^18 -23*x^17 +62*x^16 -85*x^15 +232*x^14 -781*x^13 +1013*x^12 -1794*x^11 -1013*x^10 -781*x^9 -232*x^8 -85*x^7 -62*x^6 -23*x^5 -16*x^4 -7*x^3 -2*x^2 -x -1) / (x^24 -48670*x^12 +1). - _Colin Barker_, Nov 15 2013",
				"a(n) = 48670*a(n-12) - a(n-24). - _Vincenzo Librandi_, Dec 16 2013"
			],
			"mathematica": [
				"Denominator[Convergents[Sqrt[184], 30]] (* _Vincenzo Librandi_, Dec 16 2013 *)"
			],
			"program": [
				"(MAGMA) I:=[1,1,2,7,16,23,62,85,232,781,1013,1794,47657, 49451,97108,340775,778658,1119433,3017524,4136957, 11291438,38011271,49302709,87313980]; [n le 24 select I[n] else 48670*Self(n-12)-Self(n-24): n in [1..40]]; // _Vincenzo Librandi_, Dec 16 2013"
			],
			"xref": [
				"Cf. A041340, A010226."
			],
			"keyword": "nonn,frac,easy",
			"offset": "0,3",
			"author": "_N. J. A. Sloane_.",
			"ext": [
				"More terms from _Colin Barker_, Nov 15 2013"
			],
			"references": 2,
			"revision": 16,
			"time": "2017-03-19T08:46:12-04:00",
			"created": "1999-12-11T03:00:00-05:00"
		}
	]
}