{
	"greeting": "Greetings from The On-Line Encyclopedia of Integer Sequences! http://oeis.org/",
	"query": "id:A041925",
	"count": 1,
	"start": 0,
	"results": [
		{
			"number": 41925,
			"data": "1,44,1937,85272,3753905,165257092,7275065953,320268159024,14099074063009,620679526931420,27323998259045489,1202876602924932936,52953894526956094673,2331174235788993098548,102624620269242652430785,4517814466082465700053088",
			"name": "Denominators of continued fraction convergents to sqrt(485).",
			"link": [
				"Vincenzo Librandi, \u003ca href=\"/A041925/b041925.txt\"\u003eTable of n, a(n) for n = 0..200\u003c/a\u003e",
				"Tanya Khovanova, \u003ca href=\"http://www.tanyakhovanova.com/RecursiveSequences/RecursiveSequences.html\"\u003eRecursive Sequences\u003c/a\u003e",
				"\u003ca href=\"/index/Rec#order_02\"\u003eIndex entries for linear recurrences with constant coefficients\u003c/a\u003e, signature (44, 1)."
			],
			"formula": [
				"a(n) = F(n, 44), the n-th Fibonacci polynomial evaluated at x=44. - _T. D. Noe_, Jan 19 2006",
				"From _Philippe Deléham_, Nov 23 2008: (Start)",
				"a(n) = 44*a(n-1) + a(n-2) for n\u003e1; a(0)=1, a(1)=44.",
				"G.f.: 1/(1-44*x-x^2).  (End)"
			],
			"mathematica": [
				"a=0;lst={};s=0;Do[a=s-(a-1);AppendTo[lst,a];s+=a*44,{n,3*4!}];lst (* _Vladimir Joseph Stephan Orlovsky_, Nov 03 2009 *)",
				"Denominator[Convergents[Sqrt[485],20]] (* _Harvey P. Dale_, Oct 20 2011 *)",
				"CoefficientList[Series[1/(1 - 44 x - x^2), {x, 0, 30}], x] (* _Vincenzo Librandi_, Dec 27 2013 *)"
			],
			"xref": [
				"Cf. A041924, A040462."
			],
			"keyword": "nonn,frac,easy",
			"offset": "0,2",
			"author": "_N. J. A. Sloane_",
			"ext": [
				"Additional term from _Colin Barker_, Nov 27 2013"
			],
			"references": 2,
			"revision": 34,
			"time": "2017-03-19T09:17:25-04:00",
			"created": "1999-12-11T03:00:00-05:00"
		}
	]
}