{
	"greeting": "Greetings from The On-Line Encyclopedia of Integer Sequences! http://oeis.org/",
	"query": "id:A041324",
	"count": 1,
	"start": 0,
	"results": [
		{
			"number": 41324,
			"data": "13,40,53,199,5227,15880,21107,79201,2080333,6320200,8400533,31521799,827967307,2515423720,3343391027,12545596801,329528907853,1001132320360,1330661228213,4993116004999,131151677358187,398448148079560,529599825437747",
			"name": "Numerators of continued fraction convergents to sqrt(176).",
			"link": [
				"Vincenzo Librandi, \u003ca href=\"/A041324/b041324.txt\"\u003eTable of n, a(n) for n = 0..200\u003c/a\u003e",
				"\u003ca href=\"/index/Rec#order_08\"\u003eIndex entries for linear recurrences with constant coefficients\u003c/a\u003e, signature (0,0,0,398,0,0,0,-1)."
			],
			"formula": [
				"G.f.: -(x^7-13*x^6+40*x^5-53*x^4-199*x^3-53*x^2-40*x-13) / ((x^4-20*x^2+1)*(x^4+20*x^2+1)). - _Colin Barker_, Nov 06 2013",
				"a(n) = 398*a(n-4) - a(n-8) for n \u003e 7. - _Wesley Ivan Hurt_, Oct 15 2017"
			],
			"mathematica": [
				"Numerator[Convergents[Sqrt[176], 30]] (* _Vincenzo Librandi_, Nov 01 2013 *)",
				"LinearRecurrence[{0,0,0,398,0,0,0,-1}, {13,40,53,199,5227,15880,21107,79201}, 30]"
			],
			"xref": [
				"Cf. A041325."
			],
			"keyword": "nonn,cofr,frac,easy",
			"offset": "0,1",
			"author": "_N. J. A. Sloane_",
			"ext": [
				"More terms from _Colin Barker_, Nov 06 2013"
			],
			"references": 2,
			"revision": 20,
			"time": "2017-10-16T02:09:23-04:00",
			"created": "1999-12-11T03:00:00-05:00"
		}
	]
}