{
	"greeting": "Greetings from The On-Line Encyclopedia of Integer Sequences! http://oeis.org/",
	"query": "id:A041654",
	"count": 1,
	"start": 0,
	"results": [
		{
			"number": 41654,
			"data": "18,19,37,56,93,3404,3497,6901,10398,17299,633162,650461,1283623,1934084,3217707,117771536,120989243,238760779,359750022,598510801,21906138858,22504649659,44410788517,66915438176,111326226693,4074659599124,4185985825817",
			"name": "Numerators of continued fraction convergents to sqrt(346).",
			"link": [
				"Vincenzo Librandi, \u003ca href=\"/A041654/b041654.txt\"\u003eTable of n, a(n) for n = 0..200\u003c/a\u003e",
				"\u003ca href=\"/index/Rec#order_10\"\u003eIndex entries for linear recurrences with constant coefficients\u003c/a\u003e, signature (0, 0, 0, 0, 186, 0, 0, 0, 0, 1)."
			],
			"formula": [
				"G.f.: -(x^9-18*x^8+19*x^7-37*x^6+56*x^5+93*x^4+56*x^3+37*x^2+19*x+18) / (x^10+186*x^5-1). - _Colin Barker_, Nov 09 2013"
			],
			"mathematica": [
				"Numerator[Convergents[Sqrt[346], 30]] (* _Vincenzo Librandi_, Nov 06 2013 *)",
				"LinearRecurrence[{0,0,0,0,186,0,0,0,0,1},{18,19,37,56,93,3404,3497,6901,10398,17299},30] (* _Harvey P. Dale_, Jul 28 2014 *)"
			],
			"xref": [
				"Cf. A041655."
			],
			"keyword": "nonn,cofr,frac,easy",
			"offset": "0,1",
			"author": "_N. J. A. Sloane_.",
			"ext": [
				"More terms from _Colin Barker_, Nov 09 2013"
			],
			"references": 2,
			"revision": 19,
			"time": "2017-03-18T12:39:58-04:00",
			"created": "1999-12-11T03:00:00-05:00"
		}
	]
}