{
	"greeting": "Greetings from The On-Line Encyclopedia of Integer Sequences! http://oeis.org/",
	"query": "id:A041593",
	"count": 1,
	"start": 0,
	"results": [
		{
			"number": 41593,
			"data": "1,1,3,4,7,18,25,868,893,2654,3547,6201,15949,22150,769049,791199,2351447,3142646,5494093,14130832,19624925,681378282,701003207,2083384696,2784387903,4867772599,12519933101,17387705700,603701926901,621089632601,1845881192103",
			"name": "Denominators of continued fraction convergents to sqrt(314).",
			"link": [
				"Vincenzo Librandi, \u003ca href=\"/A041593/b041593.txt\"\u003eTable of n, a(n) for n = 0..200\u003c/a\u003e",
				"\u003ca href=\"/index/Rec\"\u003eIndex entries for linear recurrences with constant coefficients\u003c/a\u003e, signature (0,0,0,0,0,0,886,0,0,0,0,0,0,1)."
			],
			"formula": [
				"G.f.: -(x^12-x^11+3*x^10-4*x^9+7*x^8-18*x^7+25*x^6+18*x^5+7*x^4+4*x^3+3*x^2+x+1) / (x^14+886*x^7-1). - _Colin Barker_, Nov 19 2013",
				"a(n) = 886*a(n-7) + a(n-14) for n\u003e13. - _Vincenzo Librandi_, Dec 21 2013"
			],
			"mathematica": [
				"Denominator[Convergents[Sqrt[314], 30]] (* _Harvey P. Dale_, Aug 08 2013 *)",
				"CoefficientList[Series[-(x^12 - x^11 + 3 x^10 - 4 x^9 + 7 x^8 - 18 x^7 + 25 x^6 + 18 x^5 + 7 x^4 + 4 x^3 + 3 x^2 + x + 1)/(x^14 + 886 x^7 - 1), {x, 0, 30}], x] (* _Vincenzo Librandi_, Dec 21 2013 *)"
			],
			"program": [
				"(MAGMA) I:=[1,1,3,4,7,18,25,868,893,2654,3547,6201, 15949,22150]; [n le 14 select I[n] else 886*Self(n-7)+Self(n-14): n in [1..40]]; // _Vincenzo Librandi_, Dec 21 2013"
			],
			"xref": [
				"Cf. A041592, A040296."
			],
			"keyword": "nonn,frac,easy",
			"offset": "0,3",
			"author": "_N. J. A. Sloane_.",
			"ext": [
				"More terms from _Colin Barker_, Nov 19 2013"
			],
			"references": 2,
			"revision": 15,
			"time": "2015-06-13T00:49:35-04:00",
			"created": "1999-12-11T03:00:00-05:00"
		}
	]
}