{
	"greeting": "Greetings from The On-Line Encyclopedia of Integer Sequences! http://oeis.org/",
	"query": "id:A041066",
	"count": 1,
	"start": 0,
	"results": [
		{
			"number": 41066,
			"data": "6,19,234,721,8886,27379,337434,1039681,12813606,39480499,486579594,1499219281,18477210966,56930852179,701647437114,2161873163521,26644125399366,82094249361619,1011775117738794",
			"name": "Numerators of continued fraction convergents to sqrt(40).",
			"comment": [
				"With a(-1) = 1, a(n-1) gives, for n \u003e= 0, the denominator of the convergents to 1/sqrt(40) = 1/(2*sqrt(10)). - _Wolfdieter Lang_, Nov 21 2017"
			],
			"link": [
				"Vincenzo Librandi, \u003ca href=\"/A041066/b041066.txt\"\u003eTable of n, a(n) for n = 0..100\u003c/a\u003e",
				"\u003ca href=\"/index/Rec\"\u003eIndex entries for linear recurrences with constant coefficients\u003c/a\u003e, signature (0,38,0,-1)."
			],
			"formula": [
				"G.f.: -(x+2)*(x^2-8*x-3) / ((x^2-6*x-1)*(x^2+6*x-1)). - _Colin Barker_, Nov 04 2013"
			],
			"mathematica": [
				"Table[Numerator[FromContinuedFraction[ContinuedFraction[Sqrt[40],n]]],{n,1,50}] (* _Vladimir Joseph Stephan Orlovsky_, Mar 21 2011*)",
				"Numerator[Convergents[Sqrt[40], 30]] (* _Vincenzo Librandi_, Oct 29 2013 *)"
			],
			"xref": [
				"Cf. A041067 (denominators), A010494, A020797 (1/sqrt(40))."
			],
			"keyword": "nonn,cofr,frac,easy",
			"offset": "0,1",
			"author": "_N. J. A. Sloane_.",
			"references": 3,
			"revision": 21,
			"time": "2017-11-21T12:27:01-05:00",
			"created": "1999-12-11T03:00:00-05:00"
		}
	]
}