{
	"greeting": "Greetings from The On-Line Encyclopedia of Integer Sequences! http://oeis.org/",
	"query": "id:A041469",
	"count": 1,
	"start": 0,
	"results": [
		{
			"number": 41469,
			"data": "1,1,5,16,53,228,281,8658,8939,44414,142181,470957,2026009,2496966,76934989,79431955,394662809,1263420382,4184923955,18003116202,22188040157,683644320912,705832361069,3506973765188,11226753656633,37187234735087,159975692596981",
			"name": "Denominators of continued fraction convergents to sqrt(250).",
			"link": [
				"Vincenzo Librandi, \u003ca href=\"/A041469/b041469.txt\"\u003eTable of n, a(n) for n = 0..200\u003c/a\u003e",
				"\u003ca href=\"/index/Rec\"\u003eIndex entries for linear recurrences with constant coefficients\u003c/a\u003e, signature (0,0,0,0,0,0,8886,0,0,0,0,0,0,1)."
			],
			"formula": [
				"G.f.: -(x^12 -x^11 +5*x^10 -16*x^9 +53*x^8 -228*x^7 +281*x^6 +228*x^5 +53*x^4 +16*x^3 +5*x^2 +x +1) / (x^14 +8886*x^7 -1). - _Colin Barker_, Nov 18 2013",
				"a(n) = 8886*a(n-7) + a(n-14) for n\u003e13. - _Vincenzo Librandi_, Dec 18 2013"
			],
			"mathematica": [
				"Denominator[Convergents[Sqrt[250], 30]] (* _Vincenzo Librandi_, Dec 18 2013 *)"
			],
			"program": [
				"(MAGMA) I:=[1,1,5,16,53,228,281,8658,8939,44414,142181, 470957,2026009,2496966]; [n le 14 select I[n] else 8886*Self(n-7)+Self(n-14): n in [1..40]]; // _Vincenzo Librandi_, Dec 18 2013"
			],
			"xref": [
				"Cf. A041468, A040234."
			],
			"keyword": "nonn,frac,easy",
			"offset": "0,3",
			"author": "_N. J. A. Sloane_.",
			"ext": [
				"More terms from _Colin Barker_, Nov 18 2013"
			],
			"references": 2,
			"revision": 15,
			"time": "2015-06-13T00:49:25-04:00",
			"created": "1999-12-11T03:00:00-05:00"
		}
	]
}