{
	"greeting": "Greetings from The On-Line Encyclopedia of Integer Sequences! http://oeis.org/",
	"query": "id:A041854",
	"count": 1,
	"start": 0,
	"results": [
		{
			"number": 41854,
			"data": "21,106,339,445,784,1229,9387,10616,62467,322951,385418,3020877,3406295,6427172,9833467,35927573,189471332,7993723517,40158088917,128467990268,168626079185,297094069453,465720148638",
			"name": "Numerators of continued fraction convergents to sqrt(449).",
			"link": [
				"Vincenzo Librandi, \u003ca href=\"/A041854/b041854.txt\"\u003eTable of n, a(n) for n = 0..200\u003c/a\u003e",
				"\u003ca href=\"/index/Rec#order_34\"\u003eIndex entries for linear recurrences with constant coefficients\u003c/a\u003e, signature (0, 0, 0, 0, 0, 0, 0, 0, 0, 0, 0, 0, 0, 0, 0, 0, 378942664, 0, 0, 0, 0, 0, 0, 0, 0, 0, 0, 0, 0, 0, 0, 0, 0, 1)."
			],
			"formula": [
				"a(n) = 378942664*a(n-17) + a(n-34) for n\u003e33. [_Bruno Berselli_, Nov 10 2013]"
			],
			"mathematica": [
				"Numerator[Convergents[Sqrt[449], 30]] (* _Vincenzo Librandi_, Nov 10 2013 *)",
				"LinearRecurrence[{0,0,0,0,0,0,0,0,0,0,0,0,0,0,0,0,378942664,0,0,0,0,0,0,0,0,0,0,0,0,0,0,0,0,1},{21,106,339,445,784,1229,9387,10616,62467,322951,385418,3020877,3406295,6427172,9833467,35927573,189471332,7993723517,40158088917,128467990268,168626079185,297094069453,465720148638,3557135109919,4022855258557,23671411402704,122379912272077,146051323674781,1144739177995544,1290790501670325,2435529679665869,3726320181336194,13614490223674451,71798771299708449},30] (* _Harvey P. Dale_, Nov 14 2021 *)"
			],
			"xref": [
				"Cf. A041855."
			],
			"keyword": "nonn,cofr,frac,easy,less",
			"offset": "0,1",
			"author": "_N. J. A. Sloane_.",
			"references": 2,
			"revision": 15,
			"time": "2021-11-14T10:35:05-05:00",
			"created": "1999-12-11T03:00:00-05:00"
		}
	]
}