{
	"greeting": "Greetings from The On-Line Encyclopedia of Integer Sequences! http://oeis.org/",
	"query": "id:A041015",
	"count": 1,
	"start": 0,
	"results": [
		{
			"number": 41015,
			"data": "1,3,19,60,379,1197,7561,23880,150841,476403,3009259,9504180,60034339,189607197,1197677521,3782639760,23893516081,75463188003,476672644099,1505481120300,9509559365899,30034159217997",
			"name": "Denominators of continued fraction convergents to sqrt(11).",
			"comment": [
				"Sqrt(11) = 3 + continued fraction [3, 6, 3, 6, 3, 6,...] = 6/2 + 6/19 + 6/(19*379) + 6/(379*7561)... - _Gary W. Adamson_, Dec 21 2007",
				"Let X = the 2 X 2 matrix [1, 6; 3, 19], then X^n * [1, 0] = [a(n+1), a(n+2)]; e.g. X^3 * [1, 0] = [379, 1197] = [a(4), a(5)]. - _Gary W. Adamson_, Dec 21 2007"
			],
			"link": [
				"Vincenzo Librandi, \u003ca href=\"/A041015/b041015.txt\"\u003eTable of n, a(n) for n = 0..200\u003c/a\u003e",
				"\u003ca href=\"/index/Rec#order_04\"\u003eIndex entries for linear recurrences with constant coefficients\u003c/a\u003e, signature (0,20,0,-1)."
			],
			"formula": [
				"G.f.: (1+3*x-x^2)/(1-20*x^2+x^4). - _Colin Barker_, Dec 31 2011",
				"From _Gerry Martens_, Jul 11 2015: (Start)",
				"Interspersion of 2 sequences [a0(n),a1(n)]:",
				"a0(n) = ((11+3*sqrt(11))/(10+3*sqrt(11))^n+(11-3*sqrt(11))*(10+3*sqrt(11))^n)/22.",
				"a1(n) = 3*sum(i=1,n,a0(i)). (End)"
			],
			"mathematica": [
				"Table[Denominator[FromContinuedFraction[ContinuedFraction[Sqrt[11],n]]],{n,1,50}] (* _Vladimir Joseph Stephan Orlovsky_, Mar 16 2011 *)",
				"a0[n_] := (11+3*Sqrt[11]+(11-3*Sqrt[11])*(10+3*Sqrt[11])^(2*n))/(22*(10+3*Sqrt[11])^n) // Simplify",
				"a1[n_] := 3*Sum[a0[i], {i, 1, n}]",
				"Flatten[MapIndexed[{a0[#], a1[#]}\u0026,Range[11]]] (* _Gerry Martens_, Jul 10 2015 *)"
			],
			"xref": [
				"Cf. A010468, A041014."
			],
			"keyword": "nonn,cofr,frac,easy",
			"offset": "0,2",
			"author": "_N. J. A. Sloane_",
			"references": 7,
			"revision": 44,
			"time": "2015-07-14T16:49:52-04:00",
			"created": "1999-12-11T03:00:00-05:00"
		}
	]
}