{
	"greeting": "Greetings from The On-Line Encyclopedia of Integer Sequences! http://oeis.org/",
	"query": "id:A041115",
	"count": 1,
	"start": 0,
	"results": [
		{
			"number": 41115,
			"data": "1,8,129,1040,16769,135192,2179841,17573920,283362561,2284474408,36834953089,296964099120,4788260539009,38603048411192,622437035118081,5018099329355840,80912026304811521,652314309767848008,10517940982590379649",
			"name": "Denominators of continued fraction convergents to sqrt(66).",
			"link": [
				"Nathaniel Johnston, \u003ca href=\"/A041115/b041115.txt\"\u003eTable of n, a(n) for n = 0..250\u003c/a\u003e",
				"\u003ca href=\"/index/Rec#order_04\"\u003eIndex entries for linear recurrences with constant coefficients\u003c/a\u003e, signature (0,130,0,-1)."
			],
			"formula": [
				"a(n) = 16*a(n-1) + a(n-2) for n \u003e= 2 even and a(n) = 8*a(n-1) + a(n-2) for n \u003e= 2 odd. - _Nathaniel Johnston_, Jun 26 2011",
				"From _Colin Barker_, Feb 28 2013: (Start)",
				"a(n) = 130*a(n-2) - a(n-4).",
				"G.f.: -(x^2 - 8*x - 1) / (x^4 - 130*x^2 + 1). (End)",
				"a(2n) = A041495(2n), a(2n+1) = A041495(2n+1)*2. - _M. F. Hasler_, Feb 23 2020"
			],
			"maple": [
				"a := proc(n) option remember: if(n\u003c=1)then return (n+1)^3: fi: if(n mod 2 = 0)then return 16*a(n-1) + a(n-2): else return 8*a(n-1) + a(n-2): fi: end: seq(a(n),n=0..20); # _Nathaniel Johnston_, Jun 26 2011"
			],
			"mathematica": [
				"Table[Denominator[FromContinuedFraction[ContinuedFraction[Sqrt[66],n]]],{n,1,60}] (* _Vladimir Joseph Stephan Orlovsky_, Jun 26 2011 *)",
				"CoefficientList[Series[(1 + 8 x - x^2)/(x^4 - 130 x^2 + 1), {x, 0, 30}], x] (* _Vincenzo Librandi_, Dec 11 2013 *)"
			],
			"program": [
				"(MAGMA) I:=[1,8,129,1040]; [n le 4 select I[n] else 130*Self(n-2)-Self(n-4): n in [1..30]]; // _Vincenzo Librandi_, Dec 11 2013"
			],
			"xref": [
				"Cf. A041114, A041495."
			],
			"keyword": "nonn,frac,easy",
			"offset": "0,2",
			"author": "_N. J. A. Sloane_",
			"references": 3,
			"revision": 31,
			"time": "2020-02-24T01:14:40-05:00",
			"created": "1999-12-11T03:00:00-05:00"
		}
	]
}