{
	"greeting": "Greetings from The On-Line Encyclopedia of Integer Sequences! http://oeis.org/",
	"query": "id:A041755",
	"count": 1,
	"start": 0,
	"results": [
		{
			"number": 41755,
			"data": "1,1,13,40,173,1597,1770,5137,6907,18951,25858,44809,115476,160285,436046,596331,5803025,23808431,77228318,950548247,1027776565,40006057717,41033834282,532412069101,1638270041585,7085492235441,65407700160554,72493192395995",
			"name": "Denominators of continued fraction convergents to sqrt(397).",
			"link": [
				"Vincenzo Librandi, \u003ca href=\"/A041755/b041755.txt\"\u003eTable of n, a(n) for n = 0..200\u003c/a\u003e",
				"\u003ca href=\"/index/Rec#order_42\"\u003eIndex entries for linear recurrences with constant coefficients\u003c/a\u003e, signature (0, 0, 0, 0, 0, 0, 0, 0, 0, 0, 0, 0, 0, 0, 0, 0, 0, 0, 0, 0, 40956605964, 0, 0, 0, 0, 0, 0, 0, 0, 0, 0, 0, 0, 0, 0, 0, 0, 0, 0, 0, 0, 1)."
			],
			"formula": [
				"a(n) = 40956605964*a(n-21) + a(n-42) for n\u003e41. - _Vincenzo Librandi_, Dec 24 2013"
			],
			"mathematica": [
				"Denominator[Convergents[Sqrt[397], 30]] (* _Vincenzo Librandi_, Dec 24 2013 *)"
			],
			"xref": [
				"Cf. A041754."
			],
			"keyword": "nonn,frac,easy",
			"offset": "0,3",
			"author": "_N. J. A. Sloane_.",
			"ext": [
				"More terms from _Vincenzo Librandi_, Dec 24 2013"
			],
			"references": 2,
			"revision": 10,
			"time": "2017-03-19T09:03:08-04:00",
			"created": "1999-12-11T03:00:00-05:00"
		}
	]
}