{
	"greeting": "Greetings from The On-Line Encyclopedia of Integer Sequences! http://oeis.org/",
	"query": "id:A042939",
	"count": 1,
	"start": 0,
	"results": [
		{
			"number": 42939,
			"data": "2,3,5,7,0,2,6,8,1,7,2,4,3,1,3,2,4,5,1,6,4,2,5,1,2,0,2,6,8,3,8,3,9,11,12,5,11,8,12,9,15,8,9,11,15,17,0,3,7,9,4,10,3,4,10,7,13,6,12,7,9,10,4,1,1,5,1,7,8,10,5,11,10,7,13,8,14,13,3,5,6,1,0,2,8,3,9,8,3,5,9,12,11,6",
			"name": "Absolute values between digits of primes.",
			"comment": [
				"a(n) = absolute difference between the first digit of prime(n) and the sum of the other digits of prime (n). [Harvey P. Dale, Mar 11 2012]"
			],
			"link": [
				"James Spahlinger, \u003ca href=\"/A042939/b042939.txt\"\u003eTable of n, a(n) for n = 1..10000\u003c/a\u003e"
			],
			"formula": [
				"If decimal expansion of n-th prime is x1 x2 x3......xk then a(n)=|x1-x2-x3.......-xk|",
				"a(n) = A040997(A000040(n)). - _Reinhard Zumkeller_, Oct 10 2012"
			],
			"mathematica": [
				"ddp[n_]:=Module[{idn=IntegerDigits[n]},Abs[First[idn]-Total[Rest[idn]]]]; ddp/@Prime[Range[100]] (* _Harvey P. Dale_, Mar 11 2012 *)"
			],
			"program": [
				"(Haskell)",
				"a042939 = a040997 . a000040",
				"-- _Reinhard Zumkeller_, Oct 10 2012"
			],
			"xref": [
				"Cf. A041000, A040164, A000040.",
				"Cf. A007605."
			],
			"keyword": "base,nonn",
			"offset": "1,1",
			"author": "_Felice Russo_",
			"references": 5,
			"revision": 20,
			"time": "2014-08-03T14:31:47-04:00",
			"created": "1999-12-11T03:00:00-05:00"
		}
	]
}