{
	"greeting": "Greetings from The On-Line Encyclopedia of Integer Sequences! http://oeis.org/",
	"query": "id:A042733",
	"count": 1,
	"start": 0,
	"results": [
		{
			"number": 42733,
			"data": "1,1,14,15,884,899,12571,13470,793831,807301,11288744,12096045,712859354,724955399,10137279541,10862234940,640146906061,651009141001,9103265739074,9754274880075,574851208783424,584605483663499,8174722496408911,8759327980072410",
			"name": "Denominators of continued fraction convergents to sqrt(896).",
			"link": [
				"Vincenzo Librandi, \u003ca href=\"/A042733/b042733.txt\"\u003eTable of n, a(n) for n = 0..200\u003c/a\u003e",
				"\u003ca href=\"/index/Rec\"\u003eIndex entries for linear recurrences with constant coefficients\u003c/a\u003e, signature (0,0,0,898,0,0,0,-1)."
			],
			"formula": [
				"G.f.: -(x^2-x-1)*(x^4+15*x^2+1) / ((x^4-30*x^2+1)*(x^4+30*x^2+1)). - _Colin Barker_, Dec 22 2013"
			],
			"mathematica": [
				"Denominator[Convergents[Sqrt[896], 30]] (* _Vincenzo Librandi_, Jan 27 2014 *)",
				"LinearRecurrence[{0,0,0,898,0,0,0,-1},{1,1,14,15,884,899,12571,13470},30] (* _Harvey P. Dale_, Apr 13 2016 *)"
			],
			"xref": [
				"Cf. A042732, A040866."
			],
			"keyword": "nonn,frac,easy",
			"offset": "0,3",
			"author": "_N. J. A. Sloane_.",
			"ext": [
				"More terms from _Colin Barker_, Dec 22 2013"
			],
			"references": 2,
			"revision": 15,
			"time": "2016-04-13T08:51:07-04:00",
			"created": "1999-12-11T03:00:00-05:00"
		}
	]
}