{
	"greeting": "Greetings from The On-Line Encyclopedia of Integer Sequences! http://oeis.org/",
	"query": "id:A042190",
	"count": 1,
	"start": 0,
	"results": [
		{
			"number": 42190,
			"data": "24,25,224,249,12176,12425,111576,124001,6063624,6187625,55564624,61752249,3019672576,3081424825,27671071176,30752496001,1503790879224,1534543375225,13780137881024,15314681256249",
			"name": "Numerators of continued fraction convergents to sqrt(620).",
			"link": [
				"Vincenzo Librandi, \u003ca href=\"/A042190/b042190.txt\"\u003eTable of n, a(n) for n = 0..200\u003c/a\u003e",
				"\u003ca href=\"/index/Rec#order_08\"\u003eIndex entries for linear recurrences with constant coefficients\u003c/a\u003e, signature (0, 0, 0, 498, 0, 0, 0, -1)."
			],
			"formula": [
				"G.f.: (24 +25*x +224*x^2 +249*x^3 +224*x^4 -25*x^5 +24*x^6 -x^7)/(1 -498*x^4 +x^8). - _Vincenzo Librandi_, Nov 18 2013",
				"a(n) = 498*a(n-4) - a(n-8). - _Vincenzo Librandi_, Nov 18 2013"
			],
			"mathematica": [
				"Numerator[Convergents[Sqrt[620], 30]] (* or *) CoefficientList[Series[(24 + 25 x + 224 x^2 + 249 x^3 + 224 x^4 - 25 x^5 + 24 x^6 - x^7)/(1 - 498 x^4 + x^8), {x, 0, 30}], x] (* _Vincenzo Librandi_, Nov 18 2013 *)",
				"LinearRecurrence[{0,0,0,498,0,0,0,-1},{24,25,224,249,12176,12425,111576,124001},20] (* _Harvey P. Dale_, Dec 15 2014 *)"
			],
			"program": [
				"(MAGMA) I:=[24, 25, 224, 249, 12176, 12425, 111576, 124001]; [n le 8 select I[n] else 498*Self(n-4)-Self(n-8): n in [1..30]]; // _Vincenzo Librandi_, Nov 18 2013"
			],
			"xref": [
				"Cf. A042191."
			],
			"keyword": "nonn,cofr,frac,easy,less",
			"offset": "0,1",
			"author": "_N. J. A. Sloane_.",
			"references": 2,
			"revision": 16,
			"time": "2017-03-18T16:08:56-04:00",
			"created": "1999-12-11T03:00:00-05:00"
		}
	]
}