{
	"greeting": "Greetings from The On-Line Encyclopedia of Integer Sequences! http://oeis.org/",
	"query": "id:A042912",
	"count": 1,
	"start": 0,
	"results": [
		{
			"number": 42912,
			"data": "31,63,220,943,1163,24203,146381,170584,2534557,2705141,18765403,378013201,396778604,1965127617,6292161455,14549450527,908358094129,1831265638785,6402155010484,27439885680721",
			"name": "Numerators of continued fraction convergents to sqrt(988).",
			"link": [
				"Vincenzo Librandi, \u003ca href=\"/A042912/b042912.txt\"\u003eTable of n, a(n) for n = 0..200\u003c/a\u003e"
			],
			"mathematica": [
				"Numerator[Convergents[Sqrt[988], 40]] (* _Harvey P. Dale_, Sep 05 2012 *)"
			],
			"xref": [
				"Cf. A042913."
			],
			"keyword": "nonn,frac,easy",
			"offset": "0,1",
			"author": "_N. J. A. Sloane_.",
			"references": 2,
			"revision": 11,
			"time": "2013-12-10T03:46:53-05:00",
			"created": "1999-12-11T03:00:00-05:00"
		}
	]
}