{
	"greeting": "Greetings from The On-Line Encyclopedia of Integer Sequences! http://oeis.org/",
	"query": "id:A042524",
	"count": 1,
	"start": 0,
	"results": [
		{
			"number": 42524,
			"data": "28,225,12628,101249,5682572,45561825,2557144772,20502720001,1150709464828,9226178438625,517816702027828,4151759794661249,233016365203057772,1868282681419123425,104856846524673969572",
			"name": "Numerators of continued fraction convergents to sqrt(791).",
			"link": [
				"Vincenzo Librandi, \u003ca href=\"/A042524/b042524.txt\"\u003eTable of n, a(n) for n = 0..200\u003c/a\u003e",
				"\u003ca href=\"/index/Rec#order_04\"\u003eIndex entries for linear recurrences with constant coefficients\u003c/a\u003e, signature (0, 450, 0, -1)."
			],
			"formula": [
				"G.f.: (28 +225*x +28*x^2 -x^3)/(1 -450*x^2 +x^4). - _Vincenzo Librandi_, Nov 26 2013",
				"a(n) = 450*a(n-2) - a(n-4). - _Vincenzo Librandi_, Nov 26 2013"
			],
			"mathematica": [
				"Numerator[Convergents[Sqrt[791], 30]] (* or *) CoefficientList[Series[(28 + 225 x + 28 x^2 - x^3)/(1 - 450 x^2 + x^4), {x, 0, 30}], x] (* _Vincenzo Librandi_, Nov 25 2013 *)"
			],
			"program": [
				"(MAGMA) I:=[28, 225, 12628, 101249]; [n le 4 select I[n] else 450*Self(n-2)-Self(n-4): n in [1..30]]; // _Vincenzo Librandi_, Nov 26 2013"
			],
			"xref": [
				"Cf. A042525."
			],
			"keyword": "nonn,cofr,frac,easy",
			"offset": "0,1",
			"author": "_N. J. A. Sloane_.",
			"references": 2,
			"revision": 14,
			"time": "2017-03-18T16:47:34-04:00",
			"created": "1999-12-11T03:00:00-05:00"
		}
	]
}