{
	"greeting": "Greetings from The On-Line Encyclopedia of Integer Sequences! http://oeis.org/",
	"query": "id:A042599",
	"count": 1,
	"start": 0,
	"results": [
		{
			"number": 42599,
			"data": "1,1,4,9,31,40,2271,2311,9204,20719,71361,92080,5227841,5319921,21187604,47695129,164272991,211968120,12034487711,12246455831,48773855204,109794166239,378156353921,487950520160,27703385482881,28191336003041,112277393492004",
			"name": "Denominators of continued fraction convergents to sqrt(828).",
			"link": [
				"Vincenzo Librandi, \u003ca href=\"/A042599/b042599.txt\"\u003eTable of n, a(n) for n = 0..200\u003c/a\u003e",
				"\u003ca href=\"/index/Rec#order_12\"\u003eIndex entries for linear recurrences with constant coefficients\u003c/a\u003e, signature (0, 0, 0, 0, 0, 2302, 0, 0, 0, 0, 0, -1)."
			],
			"formula": [
				"G.f.: -(x^10-x^9+4*x^8-9*x^7+31*x^6-40*x^5-31*x^4-9*x^3-4*x^2-x-1) / ((x^6-48*x^3+1)*(x^6+48*x^3+1)). - _Colin Barker_, Dec 19 2013"
			],
			"mathematica": [
				"Table[ Denominator[ FromContinuedFraction[ ContinuedFraction[ Sqrt[828], n]]], {n, 25}] (* _Robert G. Wilson v_, Jun 15 2005 *)",
				"Denominator[Convergents[Sqrt[828], 30]] (* _Vincenzo Librandi_, Jan 25 2014 *)"
			],
			"xref": [
				"Cf. A042598, A040799."
			],
			"keyword": "nonn,frac,easy",
			"offset": "0,3",
			"author": "_N. J. A. Sloane_",
			"ext": [
				"More terms from _Colin Barker_, Dec 19 2013"
			],
			"references": 2,
			"revision": 19,
			"time": "2017-03-19T12:16:49-04:00",
			"created": "1999-12-11T03:00:00-05:00"
		}
	]
}