{
	"greeting": "Greetings from The On-Line Encyclopedia of Integer Sequences! http://oeis.org/",
	"query": "id:A042853",
	"count": 1,
	"start": 0,
	"results": [
		{
			"number": 42853,
			"data": "1,1,15,31,449,480,29249,29729,445455,920639,13334401,14255040,868636801,882891841,13229122575,27341136991,396005040449,423346177440,25796775686849,26220121864289,392878481786895,811977085438079,11760557677920001,12572534763358080",
			"name": "Denominators of continued fraction convergents to sqrt(957).",
			"link": [
				"Vincenzo Librandi, \u003ca href=\"/A042853/b042853.txt\"\u003eTable of n, a(n) for n = 0..200\u003c/a\u003e",
				"\u003ca href=\"/index/Rec\"\u003eIndex entries for linear recurrences with constant coefficients\u003c/a\u003e, signature (0,0,0,0,0,29698,0,0,0,0,0,-1)."
			],
			"formula": [
				"G.f.: -(x^10 -x^9 +15*x^8 -31*x^7 +449*x^6 -480*x^5 -449*x^4 -31*x^3 -15*x^2 -x -1) / ((x^4 -31*x^2 +1)*(x^8 +31*x^6 +960*x^4 +31*x^2 +1)). - _Colin Barker_, Dec 25 2013",
				"a(n) = 29698*a(n-6) - a(n-12) for n\u003e11. - _Vincenzo Librandi_, Dec 25 2013"
			],
			"mathematica": [
				"Denominator[Convergents[Sqrt[957], 30]] (* _Vincenzo Librandi_, Dec 25 2013 *)"
			],
			"program": [
				"(MAGMA) I:=[1,1,15,31,449,480,29249,29729,445455,920639, 13334401,14255040]; [n le 12 select I[n] else 29698*Self(n-6)-Self(n-12): n in [1..40]]; // _Vincenzo Librandi_, Dec 25 2013"
			],
			"xref": [
				"Cf. A042852, A040926."
			],
			"keyword": "nonn,frac,easy",
			"offset": "0,3",
			"author": "_N. J. A. Sloane_.",
			"ext": [
				"More terms from _Colin Barker_, Dec 25 2013"
			],
			"references": 2,
			"revision": 13,
			"time": "2015-06-13T00:49:48-04:00",
			"created": "1999-12-11T03:00:00-05:00"
		}
	]
}