{
	"greeting": "Greetings from The On-Line Encyclopedia of Integer Sequences! http://oeis.org/",
	"query": "id:A042194",
	"count": 1,
	"start": 0,
	"results": [
		{
			"number": 42194,
			"data": "24,25,399,424,823,1247,5811,7058,55217,117492,2875025,5867542,43947819,49815361,243209263,293024624,536233887,829258511,12975111552,13804370063,675584874576,689389244639",
			"name": "Numerators of continued fraction convergents to sqrt(622).",
			"link": [
				"Vincenzo Librandi, \u003ca href=\"/A042194/b042194.txt\"\u003eTable of n, a(n) for n = 0..200\u003c/a\u003e",
				"\u003ca href=\"/index/Rec#order_40\"\u003eIndex entries for linear recurrences with constant coefficients\u003c/a\u003e, signature (0, 0, 0, 0, 0, 0, 0, 0, 0, 0, 0, 0, 0, 0, 0, 0, 0, 0, 0, 27608740126, 0, 0, 0, 0, 0, 0, 0, 0, 0, 0, 0, 0, 0, 0, 0, 0, 0, 0, 0, -1)."
			],
			"mathematica": [
				"Numerator[Convergents[Sqrt[622], 30]] (* _Vincenzo Librandi_, Nov 18 2013 *)"
			],
			"xref": [
				"Cf. A042195."
			],
			"keyword": "nonn,cofr,frac,easy,less",
			"offset": "0,1",
			"author": "_N. J. A. Sloane_.",
			"references": 2,
			"revision": 10,
			"time": "2017-03-18T16:09:31-04:00",
			"created": "1999-12-11T03:00:00-05:00"
		}
	]
}