{
	"greeting": "Greetings from The On-Line Encyclopedia of Integer Sequences! http://oeis.org/",
	"query": "id:A042724",
	"count": 1,
	"start": 0,
	"results": [
		{
			"number": 42724,
			"data": "29,30,209,448,6481,13410,86941,100351,5907299,6007650,41953199,89914048,1300749871,2691413790,17449232611,20140646401,1185606723869,1205747370270,8420090945489,18045929261248",
			"name": "Numerators of continued fraction convergents to sqrt(892).",
			"link": [
				"Vincenzo Librandi, \u003ca href=\"/A042724/b042724.txt\"\u003eTable of n, a(n) for n = 0..200\u003c/a\u003e",
				"\u003ca href=\"/index/Rec#order_16\"\u003eIndex entries for linear recurrences with constant coefficients\u003c/a\u003e, signature (0, 0, 0, 0, 0, 0, 0, 200702, 0, 0, 0, 0, 0, 0, 0, -1)."
			],
			"formula": [
				"G.f.: (29 +30*x +209*x^2 +448*x^3 +6481*x^4 +13410*x^5 +86941*x^6 +100351*x^7 +86941*x^8 -13410*x^9 +6481*x^10 -448*x^11 +209*x^12 -30*x^13 +29*x^14 -x^15)/(1 -200702*x^8 +x^16). - _Vincenzo Librandi_, Dec 02 2013",
				"a(n) = 200702*a(n-8) - a(n-16). - _Vincenzo Librandi_, Dec 02 2013"
			],
			"mathematica": [
				"Numerator[Convergents[Sqrt[892], 30]] (* or *) CoefficientList[Series[(29 + 30 x + 209 x^2 + 448 x^3 + 6481 x^4 + 13410 x^5 + 86941 x^6 + 100351 x^7 + 86941 x^8 - 13410 x^9 + 6481 x^10 - 448 x^11 + 209 x^12 - 30 x^13 + 29 x^14 - x^15)/(1 - 200702 x^8 + x^16), {x, 0, 30}], x] (* _Vincenzo Librandi_, Dec 02 2013 *)",
				"LinearRecurrence[{0,0,0,0,0,0,0,200702,0,0,0,0,0,0,0,-1},{29,30,209,448,6481,13410,86941,100351,5907299,6007650,41953199,89914048,1300749871,2691413790,17449232611,20140646401},20] (* _Harvey P. Dale_, Jul 25 2016 *)"
			],
			"program": [
				"(MAGMA) I:=[29,30,209,448,6481,13410,86941,100351,5907299,6007650,41953199, 89914048,1300749871,2691413790,17449232611,20140646401]; [n le 16 select I[n] else 200702*Self(n-8)-Self(n-16): n in [1..30]]; // _Vincenzo Librandi_, Dec 02 2013"
			],
			"xref": [
				"Cf. A042725."
			],
			"keyword": "nonn,cofr,frac,easy",
			"offset": "0,1",
			"author": "_N. J. A. Sloane_.",
			"references": 2,
			"revision": 18,
			"time": "2017-03-18T17:56:11-04:00",
			"created": "1999-12-11T03:00:00-05:00"
		}
	]
}