{
	"greeting": "Greetings from The On-Line Encyclopedia of Integer Sequences! http://oeis.org/",
	"query": "id:A042278",
	"count": 1,
	"start": 0,
	"results": [
		{
			"number": 42278,
			"data": "25,26,103,129,361,851,2063,2914,10805,13719,696755,710474,2828177,3538651,9905479,23349609,56604697,79954306,296467615,376421921,19117563665,19493985586,77599520423,97093506009,271786532441,640666570891,1553119674223,2193786245114",
			"name": "Numerators of continued fraction convergents to sqrt(665).",
			"link": [
				"Vincenzo Librandi, \u003ca href=\"/A042278/b042278.txt\"\u003eTable of n, a(n) for n = 0..200\u003c/a\u003e",
				"\u003ca href=\"/index/Rec#order_20\"\u003eIndex entries for linear recurrences with constant coefficients\u003c/a\u003e, signature (0, 0, 0, 0, 0, 0, 0, 0, 0, 27438, 0, 0, 0, 0, 0, 0, 0, 0, 0, -1)."
			],
			"formula": [
				"G.f.: -(x^19 -25*x^18 +26*x^17 -103*x^16 +129*x^15 -361*x^14 +851*x^13 -2063*x^12 +2914*x^11 -10805*x^10 -13719*x^9 -10805*x^8 -2914*x^7 -2063*x^6 -851*x^5 -361*x^4 -129*x^3 -103*x^2 -26*x -25) / (x^20 -27438*x^10 +1). - _Colin Barker_, Dec 06 2013"
			],
			"maple": [
				"convert(sqrt(665),confrac,30,cvgts): numer(cvgts); # _Wesley Ivan Hurt_, Dec 07 2013"
			],
			"mathematica": [
				"Numerator[Convergents[Sqrt[665], 30]] (* _Vincenzo Librandi_, Nov 20 2013 *)",
				"LinearRecurrence[{0,0,0,0,0,0,0,0,0,27438,0,0,0,0,0,0,0,0,0,-1},{25,26,103,129,361,851,2063,2914,10805,13719,696755,710474,2828177,3538651,9905479,23349609,56604697,79954306,296467615,376421921},30] (* _Harvey P. Dale_, Jul 04 2021 *)"
			],
			"xref": [
				"Cf. A042279, A040639."
			],
			"keyword": "nonn,cofr,frac,easy",
			"offset": "0,1",
			"author": "_N. J. A. Sloane_.",
			"ext": [
				"More terms from _Colin Barker_, Dec 06 2013"
			],
			"references": 2,
			"revision": 19,
			"time": "2021-07-04T14:51:51-04:00",
			"created": "1999-12-11T03:00:00-05:00"
		}
	]
}