{
	"greeting": "Greetings from The On-Line Encyclopedia of Integer Sequences! http://oeis.org/",
	"query": "id:A042449",
	"count": 1,
	"start": 0,
	"results": [
		{
			"number": 42449,
			"data": "1,2,5,7,19,26,71,168,9143,18454,46051,64505,175061,239566,654193,1547952,84243601,170035154,424313909,594349063,1613012035,2207361098,6027734231,14262829560,776220530471,1566703890502,3909628311475,5476332201977,14862292715429",
			"name": "Denominators of continued fraction convergents to sqrt(752).",
			"link": [
				"Vincenzo Librandi, \u003ca href=\"/A042449/b042449.txt\"\u003eTable of n, a(n) for n = 0..200\u003c/a\u003e",
				"\u003ca href=\"/index/Rec\"\u003eIndex entries for linear recurrences with constant coefficients\u003c/a\u003e, signature (0,0,0,0,0,0,0,9214,0,0,0,0,0,0,0,-1)."
			],
			"formula": [
				"G.f.: -(x^14 -2*x^13 +5*x^12 -7*x^11 +19*x^10 -26*x^9 +71*x^8 -168*x^7 -71*x^6 -26*x^5 -19*x^4 -7*x^3 -5*x^2 -2*x -1) / ((x^8 -96*x^4 +1)*(x^8 +96*x^4 +1)). - _Colin Barker_, Dec 14 2013"
			],
			"mathematica": [
				"Denominator[Convergents[Sqrt[752], 30]] (* _Vincenzo Librandi_, Jan 22 2014 *)",
				"LinearRecurrence[{0,0,0,0,0,0,0,9214,0,0,0,0,0,0,0,-1},{1,2,5,7,19,26,71,168,9143,18454,46051,64505,175061,239566,654193,1547952},30] (* _Harvey P. Dale_, Jun 19 2021 *)"
			],
			"xref": [
				"Cf. A042448, A040724."
			],
			"keyword": "nonn,frac,easy",
			"offset": "0,2",
			"author": "_N. J. A. Sloane_.",
			"ext": [
				"More terms from _Colin Barker_, Dec 14 2013"
			],
			"references": 2,
			"revision": 16,
			"time": "2021-06-19T20:06:51-04:00",
			"created": "1999-12-11T03:00:00-05:00"
		}
	]
}