{
	"greeting": "Greetings from The On-Line Encyclopedia of Integer Sequences! http://oeis.org/",
	"query": "id:A042678",
	"count": 1,
	"start": 0,
	"results": [
		{
			"number": 42678,
			"data": "29,59,678,2093,4864,6957,11821,18778,30599,49377,721877,5824393,12370663,18195056,85150887,103345943,291842773,2438088127,34425076551,36863164678,71288241229,108151405907",
			"name": "Numerators of continued fraction convergents to sqrt(869).",
			"link": [
				"Vincenzo Librandi, \u003ca href=\"/A042678/b042678.txt\"\u003eTable of n, a(n) for n = 0..200\u003c/a\u003e",
				"\u003ca href=\"/index/Rec#order_56\"\u003eIndex entries for linear recurrences with constant coefficients\u003c/a\u003e, signature (0, 0, 0, 0, 0, 0, 0, 0, 0, 0, 0, 0, 0, 0, 0, 0, 0, 0, 0, 0, 0, 0, 0, 0, 0, 0, 0, 120385477397502, 0, 0, 0, 0, 0, 0, 0, 0, 0, 0, 0, 0, 0, 0, 0, 0, 0, 0, 0, 0, 0, 0, 0, 0, 0, 0, 0, -1)."
			],
			"mathematica": [
				"Numerator[Convergents[Sqrt[869], 30]] (* _Harvey P. Dale_, Oct 14 2011 *)"
			],
			"xref": [
				"Cf. A042679."
			],
			"keyword": "nonn,cofr,frac,easy",
			"offset": "0,1",
			"author": "_N. J. A. Sloane_.",
			"references": 2,
			"revision": 12,
			"time": "2017-03-18T17:46:37-04:00",
			"created": "1999-12-11T03:00:00-05:00"
		}
	]
}