{
	"greeting": "Greetings from The On-Line Encyclopedia of Integer Sequences! http://oeis.org/",
	"query": "id:A042207",
	"count": 1,
	"start": 0,
	"results": [
		{
			"number": 42207,
			"data": "1,12,13,25,313,15675,188413,204088,392501,4914100,246097501,2958084112,3204181613,6162265725,77151370313,3863730781375,46441920746813,50305651528188,96747572275001,1211276518828200,60660573513685001,729138158683048212,789798732196733213",
			"name": "Denominators of continued fraction convergents to sqrt(629).",
			"link": [
				"Vincenzo Librandi, \u003ca href=\"/A042207/b042207.txt\"\u003eTable of n, a(n) for n = 0..200\u003c/a\u003e",
				"\u003ca href=\"/index/Rec#order_10\"\u003eIndex entries for linear recurrences with constant coefficients\u003c/a\u003e, signature (0, 0, 0, 0, 15700, 0, 0, 0, 0, 1)."
			],
			"formula": [
				"G.f.: -(x^8 - 12*x^7 + 13*x^6 - 25*x^5 + 313*x^4 + 25*x^3 + 13*x^2 + 12*x + 1) / (x^10 + 15700*x^5 - 1). - _Colin Barker_, Dec 04 2013"
			],
			"mathematica": [
				"Denominator[Convergents[Sqrt[629], 30]] (* _Vincenzo Librandi_, Jan 16 2014 *)",
				"LinearRecurrence[{0,0,0,0,15700,0,0,0,0,1},{1,12,13,25,313,15675,188413,204088,392501,4914100},30] (* _Harvey P. Dale_, May 27 2014 *)"
			],
			"xref": [
				"Cf. A042206, A040603."
			],
			"keyword": "nonn,frac,easy",
			"offset": "0,2",
			"author": "_N. J. A. Sloane_",
			"ext": [
				"More terms from _Colin Barker_, Dec 04 2013"
			],
			"references": 2,
			"revision": 21,
			"time": "2019-05-19T02:20:46-04:00",
			"created": "1999-12-11T03:00:00-05:00"
		}
	]
}