{
	"greeting": "Greetings from The On-Line Encyclopedia of Integer Sequences! http://oeis.org/",
	"query": "id:A042762",
	"count": 1,
	"start": 0,
	"results": [
		{
			"number": 42762,
			"data": "30,151,9090,45601,2745150,13771351,829026210,4158902401,250363170270,1255974753751,75608848395330,379300216730401,22833621852219390,114547409477827351,6895678190521860450,34592938362087129601,2082471979915749636510,10446952837940835312151",
			"name": "Numerators of continued fraction convergents to sqrt(912).",
			"link": [
				"Vincenzo Librandi, \u003ca href=\"/A042762/b042762.txt\"\u003eTable of n, a(n) for n = 0..200\u003c/a\u003e",
				"\u003ca href=\"/index/Rec\"\u003eIndex entries for linear recurrences with constant coefficients\u003c/a\u003e, signature (0,302,0,-1)."
			],
			"formula": [
				"G.f.: (30 +151*x +30*x^2 -x^3)/(1 -302*x^2 +x^4). - _Vincenzo Librandi_, Dec 04 2013",
				"a(n) = 302*a(n-2) - a(n-4). - _Vincenzo Librandi_, Dec 04 2013"
			],
			"mathematica": [
				"Numerator[Convergents[Sqrt[912], 30]] (* or *) CoefficientList[Series[(30 + 151 x + 30 x^2 - x^3)/(1 - 302 x^2 + x^4), {x, 0, 30}], x] (* _Vincenzo Librandi_, Dec 04 2013 *)"
			],
			"program": [
				"(MAGMA) I:=[30, 151, 9090, 45601]; [n le 4 select I[n] else 302*Self(n-2)-Self(n-4): n in [1..30]]; // _Vincenzo Librandi_, Dec 04 2013"
			],
			"xref": [
				"Cf. A042763."
			],
			"keyword": "nonn,cofr,frac,easy",
			"offset": "0,1",
			"author": "_N. J. A. Sloane_.",
			"ext": [
				"More terms from _Vincenzo Librandi_, Dec 04 2013"
			],
			"references": 2,
			"revision": 12,
			"time": "2015-06-13T00:49:47-04:00",
			"created": "1999-12-11T03:00:00-05:00"
		}
	]
}