{
	"greeting": "Greetings from The On-Line Encyclopedia of Integer Sequences! http://oeis.org/",
	"query": "id:A042530",
	"count": 1,
	"start": 0,
	"results": [
		{
			"number": 42530,
			"data": "28,141,169,310,479,789,1268,2057,3325,5382,30235,1698542,8522945,10221487,18744432,28965919,47710351,76676270,124386621,201062891,325449512,1828310451,102710834768,515382484291,618093319059,1133475803350,1751569122409,2885044925759",
			"name": "Numerators of continued fraction convergents to sqrt(794).",
			"link": [
				"Vincenzo Librandi, \u003ca href=\"/A042530/b042530.txt\"\u003eTable of n, a(n) for n = 0..200\u003c/a\u003e",
				"\u003ca href=\"/index/Rec#order_22\"\u003eIndex entries for linear recurrences with constant coefficients\u003c/a\u003e, signature (0, 0, 0, 0, 0, 0, 0, 0, 0, 0, 60470, 0, 0, 0, 0, 0, 0, 0, 0, 0, 0, 1)."
			],
			"formula": [
				"G.f.: -(x^21 -28*x^20 +141*x^19 -169*x^18 +310*x^17 -479*x^16 +789*x^15 -1268*x^14 +2057*x^13 -3325*x^12 +5382*x^11 +30235*x^10 +5382*x^9 +3325*x^8 +2057*x^7 +1268*x^6 +789*x^5 +479*x^4 +310*x^3 +169*x^2 +141*x +28) / (x^22 +60470*x^11 -1). - _Colin Barker_, Dec 17 2013"
			],
			"mathematica": [
				"Numerator[Convergents[Sqrt[794], 30]] (* _Harvey P. Dale_, Jan 27 2012 *)"
			],
			"xref": [
				"Cf. A042531, A040765."
			],
			"keyword": "nonn,frac,easy",
			"offset": "0,1",
			"author": "_N. J. A. Sloane_.",
			"ext": [
				"More terms from _Colin Barker_, Dec 17 2013"
			],
			"references": 2,
			"revision": 17,
			"time": "2017-03-18T16:47:49-04:00",
			"created": "1999-12-11T03:00:00-05:00"
		}
	]
}