{
	"greeting": "Greetings from The On-Line Encyclopedia of Integer Sequences! http://oeis.org/",
	"query": "id:A042697",
	"count": 1,
	"start": 0,
	"results": [
		{
			"number": 42697,
			"data": "1,1,2,3,8,19,84,103,2968,3071,15252,33575,82402,115977,198379,314356,18431027,18745383,37176410,55921793,149019996,353961785,1564867136,1918828921,55292076924,57210905845,284135700304,625482306453,1535100313210,2160582619663",
			"name": "Denominators of continued fraction convergents to sqrt(878).",
			"link": [
				"Vincenzo Librandi, \u003ca href=\"/A042697/b042697.txt\"\u003eTable of n, a(n) for n = 0..200\u003c/a\u003e"
			],
			"formula": [
				"a(n) = 18629406*a(n-16) - a(n-32) for n\u003e31. - _Vincenzo Librandi_, Jan 26 2014"
			],
			"mathematica": [
				"Denominator[Convergents[Sqrt[878], 30]] (* _Vincenzo Librandi_, Jan 26 2014 *)"
			],
			"xref": [
				"Cf. A040848, A042696."
			],
			"keyword": "nonn,frac,easy",
			"offset": "0,3",
			"author": "_N. J. A. Sloane_.",
			"ext": [
				"More terms from _Vincenzo Librandi_, Jan 26 2014"
			],
			"references": 2,
			"revision": 11,
			"time": "2014-01-26T14:22:14-05:00",
			"created": "1999-12-11T03:00:00-05:00"
		}
	]
}