{
	"greeting": "Greetings from The On-Line Encyclopedia of Integer Sequences! http://oeis.org/",
	"query": "id:A043804",
	"count": 1,
	"start": 0,
	"results": [
		{
			"number": 43804,
			"data": "273,275,276,277,289,290,291,293,300,302,303,304,307,308,312,313,415,416,420,421,424,425,426,428,435,437,438,439,451,452,453,455,516,518,519,520,532,533,534,536,543,545,546,547,550",
			"name": "Numbers n such that number of runs in the base 3 representation of n is congruent to 6 mod 8.",
			"keyword": "nonn,base",
			"offset": "1,1",
			"author": "_Clark Kimberling_",
			"references": 0,
			"revision": 5,
			"time": "2012-03-30T18:56:38-04:00",
			"created": "1999-12-11T03:00:00-05:00"
		}
	]
}