{
	"greeting": "Greetings from The On-Line Encyclopedia of Integer Sequences! http://oeis.org/",
	"query": "id:A043715",
	"count": 1,
	"start": 0,
	"results": [
		{
			"number": 43715,
			"data": "1,2,3,4,5,6,7,8,9,10,11,13,26,39,52,65,78,91,104,117,130,143,145,146,147,148,149,150,151,152,153,154,155,157,168,169,171,172,173,174,175,176,177,178,179,180,181,182,184,185,186,187",
			"name": "Numbers whose base-12 representation has an odd number of runs.",
			"keyword": "nonn,base",
			"offset": "1,2",
			"author": "_Clark Kimberling_",
			"references": 2,
			"revision": 8,
			"time": "2021-06-18T23:07:41-04:00",
			"created": "1999-12-11T03:00:00-05:00"
		}
	]
}