{
	"greeting": "Greetings from The On-Line Encyclopedia of Integer Sequences! http://oeis.org/",
	"query": "id:A043014",
	"count": 1,
	"start": 0,
	"results": [
		{
			"number": 43014,
			"data": "5,35,185,191,197,203,209,215,1085,1127,1169,1211,1253,1295,6485,6521,6557,6593,6629,6665,6707,6743,6779,6815,6851,6887,6929,6965,7001,7037,7073,7109,7151,7187,7223,7259,7295,7331,7373",
			"name": "Base-6 palindromes that start with 5.",
			"keyword": "nonn,base",
			"offset": "1,1",
			"author": "_Clark Kimberling_",
			"references": 0,
			"revision": 5,
			"time": "2012-03-30T18:56:33-04:00",
			"created": "1999-12-11T03:00:00-05:00"
		}
	]
}