{
	"greeting": "Greetings from The On-Line Encyclopedia of Integer Sequences! http://oeis.org/",
	"query": "id:A043136",
	"count": 1,
	"start": 0,
	"results": [
		{
			"number": 43136,
			"data": "42,55,91,104,140,153,189,202,238,251,287,294,336,349,385,398,434,447,483,496,532,545,581,594,630,637,679,692,728,741,777,790,826,839,875,888,924,937,973,980,1022,1035,1071,1084,1120",
			"name": "Numbers k such that 0 and 6 occur juxtaposed in the base-7 representation of k but not of k-1.",
			"mathematica": [
				"SequencePosition[Table[If[SequenceCount[IntegerDigits[n,7],{0,6}]\u003e0 || SequenceCount[ IntegerDigits[n,7],{6,0}]\u003e0,1,0],{n,1200}],{0,1}][[All,2]] (* Requires Mathematica version 10 or later *) (* _Harvey P. Dale_, Sep 24 2018 *)"
			],
			"xref": [
				"Cf. A007093."
			],
			"keyword": "nonn,base",
			"offset": "1,1",
			"author": "_Clark Kimberling_",
			"references": 0,
			"revision": 10,
			"time": "2021-08-22T20:50:40-04:00",
			"created": "1999-12-11T03:00:00-05:00"
		}
	]
}