{
	"greeting": "Greetings from The On-Line Encyclopedia of Integer Sequences! http://oeis.org/",
	"query": "id:A043213",
	"count": 1,
	"start": 0,
	"results": [
		{
			"number": 43213,
			"data": "61,69,142,150,223,231,304,312,385,393,466,474,547,549,621,636,709,717,790,798,871,879,952,960,1033,1041,1114,1122,1195,1203,1276,1278,1350,1365,1438,1446,1519,1527,1600,1608,1681,1689",
			"name": "Numbers k such that 6 and 7 occur juxtaposed in the base-9 representation of k but not of k-1.",
			"mathematica": [
				"SequencePosition[Table[If[SequenceCount[IntegerDigits[n,9],{6,7}]\u003e0 || SequenceCount[IntegerDigits[n,9],{7,6}]\u003e0,1,0],{n,1700}],{0,1}][[All,2]] (* Requires Mathematica version 10 or later *) (* _Harvey P. Dale_, May 27 2020 *)"
			],
			"xref": [
				"Cf. A007095."
			],
			"keyword": "nonn,base",
			"offset": "1,1",
			"author": "_Clark Kimberling_",
			"references": 0,
			"revision": 11,
			"time": "2021-08-23T10:23:42-04:00",
			"created": "1999-12-11T03:00:00-05:00"
		}
	]
}