{
	"greeting": "Greetings from The On-Line Encyclopedia of Integer Sequences! http://oeis.org/",
	"query": "id:A043199",
	"count": 1,
	"start": 0,
	"results": [
		{
			"number": 43199,
			"data": "25,65,106,146,187,225,268,308,349,389,430,470,511,551,585,632,673,713,754,794,835,875,916,954,997,1037,1078,1118,1159,1199,1240,1280,1314,1361,1402,1442,1483,1523,1564,1604,1645,1683",
			"name": "Numbers k such that 2 and 7 occur juxtaposed in the base-9 representation of k but not of k-1.",
			"mathematica": [
				"Transpose[SequencePosition[Table[If[SequenceCount[IntegerDigits[n,9],{2,7}]\u003e0||SequenceCount[IntegerDigits[n,9],{7,2}]\u003e0,1,0],{n,1700}],{0,1}]][[2]] (* The program uses the SequenceCount and SequencePosition functions from Mathematica version 10 *) (* _Harvey P. Dale_, Jun 13 2016 *)"
			],
			"xref": [
				"Cf. A007095."
			],
			"keyword": "nonn,base",
			"offset": "1,1",
			"author": "_Clark Kimberling_",
			"references": 0,
			"revision": 11,
			"time": "2021-08-23T10:23:13-04:00",
			"created": "1999-12-11T03:00:00-05:00"
		}
	]
}