{
	"greeting": "Greetings from The On-Line Encyclopedia of Integer Sequences! http://oeis.org/",
	"query": "id:A043093",
	"count": 1,
	"start": 0,
	"results": [
		{
			"number": 43093,
			"data": "0,1,2,3,4,5,6,7,9,10,11,12,13,14,15,17,18,19,20,21,22,23,25,26,27,28,29,30,31,33,34,35,36,37,38,39,41,42,43,44,45,46,47,50,51,52,53,54,55,63,64,66,67,68,69,70,71,72,74,75,76,77,78",
			"name": "Every string of 2 consecutive base 7 digits contains exactly 2 distinct numbers.",
			"xref": [
				"Cf. A000975 (base-2 analog), A031941 or A043089 (base-3 analog), A031942 or A043090 (base-4 analog), A031943 or A043091 (base-5 analog), A043092, ...,  A043096 (base-6 through base-10 analog)."
			],
			"keyword": "nonn,base",
			"offset": "0,3",
			"author": "_Clark Kimberling_",
			"references": 1,
			"revision": 7,
			"time": "2013-07-24T01:36:28-04:00",
			"created": "1999-12-11T03:00:00-05:00"
		}
	]
}