{
	"greeting": "Greetings from The On-Line Encyclopedia of Integer Sequences! http://oeis.org/",
	"query": "id:A043450",
	"count": 1,
	"start": 0,
	"results": [
		{
			"number": 43450,
			"data": "63,127,191,255,319,383,447,455,463,471,479,487,495,503,504,505,506,507,508,509,510,575,639,703,767,831,895,959,967,975,983,991,999,1007,1015,1016,1017,1018,1019,1020,1021,1022,1087,1151",
			"name": "Numbers having two 7's in base 8.",
			"xref": [
				"Cf. A007094."
			],
			"keyword": "nonn,base",
			"offset": "1,1",
			"author": "_Clark Kimberling_",
			"references": 0,
			"revision": 8,
			"time": "2021-04-24T20:51:41-04:00",
			"created": "1999-12-11T03:00:00-05:00"
		}
	]
}