{
	"greeting": "Greetings from The On-Line Encyclopedia of Integer Sequences! http://oeis.org/",
	"query": "id:A043171",
	"count": 1,
	"start": 0,
	"results": [
		{
			"number": 43171,
			"data": "29,43,93,107,157,171,221,232,285,299,344,363,413,427,477,491,541,555,605,619,669,683,733,744,797,811,856,875,925,939,989,1003,1053,1067,1117,1131,1181,1195,1245,1256,1309,1323,1368",
			"name": "Numbers k such that 3 and 5 occur juxtaposed in the base-8 representation of k but not of k-1.",
			"xref": [
				"Cf. A007094."
			],
			"keyword": "nonn,base",
			"offset": "1,1",
			"author": "_Clark Kimberling_",
			"references": 0,
			"revision": 9,
			"time": "2021-08-23T01:06:31-04:00",
			"created": "1999-12-11T03:00:00-05:00"
		}
	]
}