{
	"greeting": "Greetings from The On-Line Encyclopedia of Integer Sequences! http://oeis.org/",
	"query": "id:A043533",
	"count": 1,
	"start": 0,
	"results": [
		{
			"number": 43533,
			"data": "1,1,1,1,1,2,1,2,2,2,2,2,2,1,2,2,2,2,2,2,1,2,2,2,2,2,2,1,2,2,2,2,2,2,1,2,2,3,3,3,3,2,1,2,2,2,2,3,2,2,3,3,3,3,2,3,2,3,3,3,2,3,3,2,3,3,2,3,3,3,2,2,3,2,3,3,3,3,2,2,3,3,3,2,2,1,2,2,2,3",
			"name": "Number of distinct base-6 digits of n.",
			"xref": [
				"Cf. A007092."
			],
			"keyword": "nonn,base",
			"offset": "1,6",
			"author": "_Clark Kimberling_",
			"references": 0,
			"revision": 9,
			"time": "2021-04-24T21:25:20-04:00",
			"created": "1999-12-11T03:00:00-05:00"
		}
	]
}