{
	"greeting": "Greetings from The On-Line Encyclopedia of Integer Sequences! http://oeis.org/",
	"query": "id:A043774",
	"count": 1,
	"start": 0,
	"results": [
		{
			"number": 43774,
			"data": "1,2,4,8,13,26,30,32,33,34,40,46,47,48,50,57,59,60,61,64,65,69,70,80,84,86,87,88,90,93,95,98,99,103,105,106,111,113,114,115,121,127,128,129,131,136,137,139,143,144,147,149,152,154,155",
			"name": "Numbers n such that number of runs in the base 3 representation of n is congruent to 1 mod 3.",
			"mathematica": [
				"Select[Range[200],Mod[Length[Split[IntegerDigits[#,3]]],3]==1\u0026] (* _Harvey P. Dale_, Apr 06 2013 *)"
			],
			"keyword": "nonn,base",
			"offset": "1,2",
			"author": "_Clark Kimberling_",
			"references": 0,
			"revision": 7,
			"time": "2013-04-06T17:58:01-04:00",
			"created": "1999-12-11T03:00:00-05:00"
		}
	]
}