{
	"greeting": "Greetings from The On-Line Encyclopedia of Integer Sequences! http://oeis.org/",
	"query": "id:A043706",
	"count": 1,
	"start": 0,
	"results": [
		{
			"number": 43706,
			"data": "1,2,4,8,10,11,13,15,16,19,20,21,23,26,28,29,31,35,37,38,40,42,43,45,49,51,52,55,56,58,62,63,66,68,71,73,74,75,77,80,82,83,85,89,91,92,94,96,97,100,101,102,104,107,109,110,112,116,118",
			"name": "Numbers whose base-3 representation has an odd number of runs.",
			"mathematica": [
				"Select[Range[200],OddQ[Length[Split[IntegerDigits[#,3]]]]\u0026] (* _Harvey P. Dale_, Mar 05 2020 *)"
			],
			"keyword": "nonn,base",
			"offset": "1,2",
			"author": "_Clark Kimberling_",
			"references": 2,
			"revision": 10,
			"time": "2021-06-18T19:58:46-04:00",
			"created": "1999-12-11T03:00:00-05:00"
		}
	]
}