{
	"greeting": "Greetings from The On-Line Encyclopedia of Integer Sequences! http://oeis.org/",
	"query": "id:A043493",
	"count": 1,
	"start": 0,
	"results": [
		{
			"number": 43493,
			"data": "1,10,12,13,14,15,16,17,18,19,21,31,41,51,61,71,81,91,100,102,103,104,105,106,107,108,109,120,122,123,124,125,126,127,128,129,130,132,133,134,135,136,137,138,139,140,142,143,144,145",
			"name": "Numbers that contain a single 1.",
			"link": [
				"Enrique Pérez Herrero, \u003ca href=\"/A043493/b043493.txt\"\u003eTable of n, a(n) for n = 1..2000\u003c/a\u003e",
				"\u003ca href=\"/index/Ar#10-automatic\"\u003eIndex entries for 10-automatic sequences\u003c/a\u003e."
			],
			"mathematica": [
				"Select[Range[9000],DigitCount[#,10,1]==1\u0026] (* _Enrique Pérez Herrero_, Nov 29 2013 *)"
			],
			"xref": [
				"A178550 is a subsequence.",
				"Cf. A043489, A043497, A043501, A043505, A043509, A043513, A043517, A043521, A043525, A011531."
			],
			"keyword": "nonn,base,easy",
			"offset": "1,2",
			"author": "_Clark Kimberling_",
			"references": 13,
			"revision": 17,
			"time": "2020-04-07T01:00:07-04:00",
			"created": "1999-12-11T03:00:00-05:00"
		}
	]
}