{
	"greeting": "Greetings from The On-Line Encyclopedia of Integer Sequences! http://oeis.org/",
	"query": "id:A043743",
	"count": 1,
	"start": 0,
	"results": [
		{
			"number": 43743,
			"data": "10,18,20,22,26,34,36,38,40,44,46,50,52,54,58,66,68,70,72,76,78,80,88,92,94,98,100,102,104,108,110,114,116,118,122,130,132,134,136,140,142,144,152,156,158,160,176,184,188,190,194,196",
			"name": "Numbers n such that number of runs in the base 2 representation of n is congruent to 4 mod 7.",
			"mathematica": [
				"Select[Range[200],Mod[Length[Split[IntegerDigits[#,2]]],7]==4\u0026] (* _Harvey P. Dale_, Sep 21 2019 *)"
			],
			"keyword": "nonn,base",
			"offset": "1,1",
			"author": "_Clark Kimberling_",
			"references": 0,
			"revision": 7,
			"time": "2019-09-21T14:59:34-04:00",
			"created": "1999-12-11T03:00:00-05:00"
		}
	]
}