{
	"greeting": "Greetings from The On-Line Encyclopedia of Integer Sequences! http://oeis.org/",
	"query": "id:A043690",
	"count": 1,
	"start": 0,
	"results": [
		{
			"number": 43690,
			"data": "170,298,330,338,340,341,342,346,362,426,554,586,594,596,597,598,602,618,650,658,660,661,662,666,674,676,677,678,680,681,683,684,685,686,690,692,693,694,698,714,722,724,725,726,730",
			"name": "a(n) = (s(n)-1)/2, where s(n) is the n-th number whose base-2 representation has exactly 9 runs.",
			"link": [
				"Vincenzo Librandi, \u003ca href=\"/A043690/b043690.txt\"\u003eTable of n, a(n) for n = 1..1000\u003c/a\u003e"
			],
			"mathematica": [
				"(# - 1)/2\u0026/@Select[Range[50], Length[Split[IntegerDigits[#, 2]]]==9\u0026] (* _Vincenzo Librandi_, Feb 22 2014 *)"
			],
			"keyword": "nonn,base",
			"offset": "1,1",
			"author": "_Clark Kimberling_",
			"references": 1,
			"revision": 11,
			"time": "2021-04-13T23:10:37-04:00",
			"created": "1999-12-11T03:00:00-05:00"
		}
	]
}