{
	"greeting": "Greetings from The On-Line Encyclopedia of Integer Sequences! http://oeis.org/",
	"query": "id:A043601",
	"count": 1,
	"start": 0,
	"results": [
		{
			"number": 43601,
			"data": "279620,279622,279623,279624,279625,279627,279628,279629,279630,279649,279650,279651,279652,279654,279655,279660,279661,279662,279665,279666,279667,279668,279670,279671,279672,279673,279675",
			"name": "Numbers whose base-4 representation has exactly 10 runs.",
			"xref": [
				"Cf. A007090."
			],
			"keyword": "nonn,base",
			"offset": "1,1",
			"author": "_Clark Kimberling_",
			"references": 1,
			"revision": 9,
			"time": "2021-04-25T01:24:33-04:00",
			"created": "1999-12-11T03:00:00-05:00"
		}
	]
}