{
	"greeting": "Greetings from The On-Line Encyclopedia of Integer Sequences! http://oeis.org/",
	"query": "id:A043751",
	"count": 1,
	"start": 0,
	"results": [
		{
			"number": 43751,
			"data": "21,37,41,43,45,53,69,73,75,77,81,83,87,89,91,93,101,105,107,109,117,133,137,139,141,145,147,151,153,155,157,161,163,167,175,177,179,183,185,187,189,197,201,203,205,209,211,215,217",
			"name": "Numbers n such that number of runs in the base 2 representation of n is congruent to 5 mod 8.",
			"mathematica": [
				"Select[Range[300],Mod[Length[Split[IntegerDigits[#,2]]],8]==5\u0026] (* _Harvey P. Dale_, Apr 10 2017 *)"
			],
			"keyword": "nonn,base",
			"offset": "1,1",
			"author": "_Clark Kimberling_",
			"references": 0,
			"revision": 7,
			"time": "2017-04-10T12:02:35-04:00",
			"created": "1999-12-11T03:00:00-05:00"
		}
	]
}