{
	"greeting": "Greetings from The On-Line Encyclopedia of Integer Sequences! http://oeis.org/",
	"query": "id:A043161",
	"count": 1,
	"start": 0,
	"results": [
		{
			"number": 43161,
			"data": "12,33,76,96,140,161,204,225,264,289,332,353,396,417,460,481,524,545,588,608,652,673,716,737,768,844,865,908,929,972,993,1036,1057,1100,1120,1164,1185,1228,1249,1288,1313,1356,1377",
			"name": "Numbers k such that 1 and 4 occur juxtaposed in the base-8 representation of k but not of k-1.",
			"xref": [
				"Cf. A007094."
			],
			"keyword": "nonn,base",
			"offset": "1,1",
			"author": "_Clark Kimberling_",
			"references": 0,
			"revision": 8,
			"time": "2021-08-22T22:37:50-04:00",
			"created": "1999-12-11T03:00:00-05:00"
		}
	]
}