{
	"greeting": "Greetings from The On-Line Encyclopedia of Integer Sequences! http://oeis.org/",
	"query": "id:A043479",
	"count": 1,
	"start": 0,
	"results": [
		{
			"number": 43479,
			"data": "546,1275,2004,2733,3462,4191,4434,4515,4596,4677,4758,4839,4866,4875,4884,4893,4902,4911,4914,4915,4916,4917,4918,4919,4921,4922,4929,4938,5001,5082,5649,6378,7107,7836,8565,9294,10023",
			"name": "Numbers having three 6's in base 9.",
			"mathematica": [
				"Select[Range[11000],DigitCount[#,9,6]==3\u0026] (* _Harvey P. Dale_, Aug 22 2012 *)"
			],
			"xref": [
				"Cf. A007095."
			],
			"keyword": "nonn,base",
			"offset": "1,1",
			"author": "_Clark Kimberling_",
			"references": 0,
			"revision": 10,
			"time": "2021-04-24T20:41:35-04:00",
			"created": "1999-12-11T03:00:00-05:00"
		}
	]
}