{
	"greeting": "Greetings from The On-Line Encyclopedia of Integer Sequences! http://oeis.org/",
	"query": "id:A043153",
	"count": 1,
	"start": 0,
	"results": [
		{
			"number": 43153,
			"data": "16,66,80,128,144,194,208,258,272,322,336,386,400,450,464,514,528,578,592,640,656,706,720,770,784,834,848,898,912,962,976,1024,1090,1104,1152,1168,1218,1232,1282,1296,1346,1360,1410",
			"name": "Numbers k such that 0 and 2 occur juxtaposed in the base-8 representation of k but not of k-1.",
			"xref": [
				"Cf. A007094."
			],
			"keyword": "nonn,base",
			"offset": "1,1",
			"author": "_Clark Kimberling_",
			"references": 0,
			"revision": 8,
			"time": "2021-08-22T22:36:52-04:00",
			"created": "1999-12-11T03:00:00-05:00"
		}
	]
}