{
	"greeting": "Greetings from The On-Line Encyclopedia of Integer Sequences! http://oeis.org/",
	"query": "id:A043508",
	"count": 1,
	"start": 0,
	"results": [
		{
			"number": 43508,
			"data": "4444,14444,24444,34444,40444,41444,42444,43444,44044,44144,44244,44344,44404,44414,44424,44434,44440,44441,44442,44443,44445,44446,44447,44448,44449,44454,44464,44474,44484,44494,44544",
			"name": "Numbers having four 4's in base 10.",
			"link": [
				"Daniel Starodubtsev, \u003ca href=\"/A043508/b043508.txt\"\u003eTable of n, a(n) for n = 1..10000\u003c/a\u003e"
			],
			"mathematica": [
				"Select[Range[50000], DigitCount[#, 10, 4]==4\u0026] (* _Vincenzo Librandi_, Jul 01 2015 *)"
			],
			"xref": [
				"Subsequence of A011534."
			],
			"keyword": "nonn,base",
			"offset": "1,1",
			"author": "_Clark Kimberling_",
			"references": 3,
			"revision": 21,
			"time": "2021-04-24T21:13:23-04:00",
			"created": "1999-12-11T03:00:00-05:00"
		}
	]
}