{
	"greeting": "Greetings from The On-Line Encyclopedia of Integer Sequences! http://oeis.org/",
	"query": "id:A043531",
	"count": 1,
	"start": 0,
	"results": [
		{
			"number": 43531,
			"data": "1,1,1,2,1,2,2,2,2,1,2,2,2,2,1,2,2,3,3,2,1,2,2,3,2,2,3,3,2,3,2,2,3,2,3,3,2,2,3,2,2,1,2,3,3,2,2,2,3,3,2,3,2,3,2,3,3,2,2,2,2,2,1,2,2,3,3,2,2,3,3,3,3,3,4,3,3,4,3,2,2,3,3,2,1,2,2,3,2,2",
			"name": "Number of distinct base-4 digits of n.",
			"mathematica": [
				"Table[Length[Union[IntegerDigits[n,4]]],{n,100}] (* _Harvey P. Dale_, Aug 25 2016 *)"
			],
			"xref": [
				"Cf. A007090."
			],
			"keyword": "nonn,base",
			"offset": "1,4",
			"author": "_Clark Kimberling_",
			"references": 0,
			"revision": 11,
			"time": "2021-04-24T21:26:22-04:00",
			"created": "1999-12-11T03:00:00-05:00"
		}
	]
}