{
	"greeting": "Greetings from The On-Line Encyclopedia of Integer Sequences! http://oeis.org/",
	"query": "id:A043289",
	"count": 1,
	"start": 0,
	"results": [
		{
			"number": 43289,
			"data": "1,1,1,1,1,1,1,1,1,1,1,1,1,1,1,2,1,1,1,1,1,1,1,1,1,1,1,1,1,1,1,2,1,1,1,1,1,1,1,1,1,1,1,1,1,1,1,2,1,1,1,1,1,1,1,1,1,1,1,1,1,1,1,2,1,1,1,1,1,1,1,1,1,1,1,1,1,1,1,2,1,1,1,1,1,1,1,1,1,1",
			"name": "Maximal run length in base 15 representation of n.",
			"link": [
				"Antti Karttunen, \u003ca href=\"/A043289/b043289.txt\"\u003eTable of n, a(n) for n = 1..65537\u003c/a\u003e"
			],
			"maple": [
				"A043289 := proc(n) dgs := convert(n,base,15) ; a :=1 ; rl :=1 ; for i from 2 to nops(dgs) do if op(i,dgs) \u003c\u003e op(i-1,dgs) then a := max(a,rl) ; rl := 1; else rl := rl+1 ; end if; end do: a := max(a,rl) ; a; end proc; # _R. J. Mathar_, Jan 11 2012"
			],
			"program": [
				"(PARI) A043289(n,b=15){=my(m,c=1);while(n\u003e0,n%b==(n\\=b)%b\u0026\u0026c++\u0026\u0026next;m=max(m,c);c=1);m} \\\\ _M. F. Hasler_, Jul 23 2013"
			],
			"xref": [
				"Cf. A043276-A043290 for base-2 to base-16 analogs.",
				"Cf. A135518 (positions of records, also the first occurrence of each n)."
			],
			"keyword": "nonn,base",
			"offset": "1,16",
			"author": "_Clark Kimberling_",
			"references": 7,
			"revision": 16,
			"time": "2017-09-14T09:29:00-04:00",
			"created": "1999-12-11T03:00:00-05:00"
		}
	]
}