{
	"greeting": "Greetings from The On-Line Encyclopedia of Integer Sequences! http://oeis.org/",
	"query": "id:A044115",
	"count": 1,
	"start": 0,
	"results": [
		{
			"number": 44115,
			"data": "13,49,78,85,121,157,193,229,265,294,301,337,373,409,445,468,510,517,553,589,625,661,697,726,733,769,805,841,877,913,942,949,985,1021,1057,1093,1129,1158,1165,1201,1237,1273,1309,1345",
			"name": "Numbers n such that string 2,1 occurs in the base 6 representation of n but not of n-1.",
			"keyword": "nonn,base",
			"offset": "1,1",
			"author": "_Clark Kimberling_",
			"references": 0,
			"revision": 5,
			"time": "2012-03-30T18:56:42-04:00",
			"created": "1999-12-11T03:00:00-05:00"
		}
	]
}