{
	"greeting": "Greetings from The On-Line Encyclopedia of Integer Sequences! http://oeis.org/",
	"query": "id:A044077",
	"count": 1,
	"start": 0,
	"results": [
		{
			"number": 44077,
			"data": "25,50,75,100,125,150,175,200,225,250,275,300,325,350,375,400,425,450,475,500,525,550,575,600,625,675,700,725,750,775,800,825,850,875,900,925,950,975,1000,1025,1050,1075,1100,1125,1150",
			"name": "Numbers n such that string 0,0 occurs in the base 5 representation of n but not of n-1.",
			"keyword": "nonn,base",
			"offset": "1,1",
			"author": "_Clark Kimberling_",
			"references": 0,
			"revision": 5,
			"time": "2012-03-30T18:56:42-04:00",
			"created": "1999-12-11T03:00:00-05:00"
		}
	]
}