{
	"greeting": "Greetings from The On-Line Encyclopedia of Integer Sequences! http://oeis.org/",
	"query": "id:A044994",
	"count": 1,
	"start": 0,
	"results": [
		{
			"number": 44994,
			"data": "0,3,10,12,31,37,39,94,112,118,120,283,337,355,361,363,850,1012,1066,1084,1090,1092,2551,3037,3199,3253,3271,3277,3279,7654,9112,9598,9760,9814,9832,9838,9840,22963,27337,28795,29281,29443",
			"name": "Numbers n with property that in base-3 representation the numbers of 0's and 2's are 1 and 0, respectively.",
			"mathematica": [
				"Select[Range[0,30000],DigitCount[#,3,0]==1\u0026\u0026DigitCount[#,3,2]==0\u0026] (* _Harvey P. Dale_, Jun 20 2021 *)"
			],
			"keyword": "nonn,base",
			"offset": "1,2",
			"author": "_Clark Kimberling_",
			"ext": [
				"a(1) = 0 inserted by _Georg Fischer_, Jun 27 2019"
			],
			"references": 0,
			"revision": 15,
			"time": "2021-06-20T14:28:10-04:00",
			"created": "1999-12-11T03:00:00-05:00"
		}
	]
}