{
	"greeting": "Greetings from The On-Line Encyclopedia of Integer Sequences! http://oeis.org/",
	"query": "id:A044710",
	"count": 1,
	"start": 0,
	"results": [
		{
			"number": 44710,
			"data": "78,159,240,321,402,483,564,645,710,726,807,888,969,1050,1131,1212,1293,1374,1439,1455,1536,1617,1698,1779,1860,1941,2022,2103,2168,2184,2265,2346,2427,2508,2589,2670,2751,2832,2897",
			"name": "Numbers n such that string 8,6 occurs in the base 9 representation of n but not of n+1.",
			"keyword": "nonn,base",
			"offset": "1,1",
			"author": "_Clark Kimberling_",
			"references": 0,
			"revision": 5,
			"time": "2012-03-30T18:56:46-04:00",
			"created": "1999-12-11T03:00:00-05:00"
		}
	]
}