{
	"greeting": "Greetings from The On-Line Encyclopedia of Integer Sequences! http://oeis.org/",
	"query": "id:A044636",
	"count": 1,
	"start": 0,
	"results": [
		{
			"number": 44636,
			"data": "85,166,247,328,409,490,571,652,733,773,814,895,976,1057,1138,1219,1300,1381,1462,1502,1543,1624,1705,1786,1867,1948,2029,2110,2191,2231,2272,2353,2434,2515,2596,2677,2758,2839,2920",
			"name": "Numbers n such that string 0,4 occurs in the base 9 representation of n but not of n+1.",
			"link": [
				"Harvey P. Dale, \u003ca href=\"/A044636/b044636.txt\"\u003eTable of n, a(n) for n = 1..1000\u003c/a\u003e"
			],
			"mathematica": [
				"SequencePosition[Table[If[SequenceCount[IntegerDigits[n,9],{0,4}]\u003e0,1,0],{n,3000}],{1,0}][[All,1]] (* Requires Mathematica version 10 or later *) (* _Harvey P. Dale_, Jul 08 2019 *)"
			],
			"keyword": "nonn,base",
			"offset": "1,1",
			"author": "_Clark Kimberling_",
			"references": 1,
			"revision": 9,
			"time": "2019-07-08T12:15:14-04:00",
			"created": "1999-12-11T03:00:00-05:00"
		}
	]
}