{
	"greeting": "Greetings from The On-Line Encyclopedia of Integer Sequences! http://oeis.org/",
	"query": "id:A044436",
	"count": 1,
	"start": 0,
	"results": [
		{
			"number": 44436,
			"data": "3,12,21,39,48,57,66,75,120,129,138,147,156,165,174,183,201,210,219,228,237,363,372,381,390,399,408,417,426,444,453,462,471,480,489,498,507,525,534,543,552,561,606,615,624,633,642,651",
			"name": "Numbers n such that string 1,0 occurs in the base 3 representation of n but not of n+1.",
			"keyword": "nonn,base",
			"offset": "1,1",
			"author": "_Clark Kimberling_",
			"references": 0,
			"revision": 5,
			"time": "2012-03-30T18:56:44-04:00",
			"created": "1999-12-11T03:00:00-05:00"
		}
	]
}