{
	"greeting": "Greetings from The On-Line Encyclopedia of Integer Sequences! http://oeis.org/",
	"query": "id:A044412",
	"count": 1,
	"start": 0,
	"results": [
		{
			"number": 44412,
			"data": "80,180,280,380,480,580,680,780,800,880,980,1080,1180,1280,1380,1480,1580,1680,1780,1800,1880,1980,2080,2180,2280,2380,2480,2580,2680,2780,2800,2880,2980,3080,3180,3280,3380,3480,3580",
			"name": "Numbers n such that string 8,0 occurs in the base 10 representation of n but not of n-1.",
			"keyword": "nonn,base",
			"offset": "1,1",
			"author": "_Clark Kimberling_",
			"references": 0,
			"revision": 5,
			"time": "2012-03-30T18:56:44-04:00",
			"created": "1999-12-11T03:00:00-05:00"
		}
	]
}