{
	"greeting": "Greetings from The On-Line Encyclopedia of Integer Sequences! http://oeis.org/",
	"query": "id:A044181",
	"count": 1,
	"start": 0,
	"results": [
		{
			"number": 44181,
			"data": "43,92,141,190,239,288,301,337,386,435,484,533,582,631,644,680,729,778,827,876,925,974,987,1023,1072,1121,1170,1219,1268,1317,1330,1366,1415,1464,1513,1562,1611,1660,1673,1709,1758,1807",
			"name": "Numbers n such that string 6,1 occurs in the base 7 representation of n but not of n-1.",
			"mathematica": [
				"Transpose[SequencePosition[Table[If[SequenceCount[IntegerDigits[n,7],{6,1}]\u003e0,1,0],{n,2000}],{0,1}]][[2]] (* The program uses the SequencePosition and SequenceCount functions from Mathematica version 10 *) (* _Harvey P. Dale_, Oct 17 2015 *)"
			],
			"keyword": "nonn,base",
			"offset": "1,1",
			"author": "_Clark Kimberling_",
			"references": 0,
			"revision": 7,
			"time": "2015-10-17T15:13:55-04:00",
			"created": "1999-12-11T03:00:00-05:00"
		}
	]
}