{
	"greeting": "Greetings from The On-Line Encyclopedia of Integer Sequences! http://oeis.org/",
	"query": "id:A044563",
	"count": 1,
	"start": 0,
	"results": [
		{
			"number": 44563,
			"data": "44,93,142,191,240,289,314,338,387,436,485,534,583,632,657,681,730,779,828,877,926,975,1000,1024,1073,1122,1171,1220,1269,1318,1343,1367,1416,1465,1514,1563,1612,1661,1686,1710,1759,1808",
			"name": "Numbers n such that string 6,2 occurs in the base 7 representation of n but not of n+1.",
			"keyword": "nonn,base",
			"offset": "1,1",
			"author": "_Clark Kimberling_",
			"references": 0,
			"revision": 5,
			"time": "2012-03-30T18:56:45-04:00",
			"created": "1999-12-11T03:00:00-05:00"
		}
	]
}