{
	"greeting": "Greetings from The On-Line Encyclopedia of Integer Sequences! http://oeis.org/",
	"query": "id:A044392",
	"count": 1,
	"start": 0,
	"results": [
		{
			"number": 44392,
			"data": "60,160,260,360,460,560,600,660,760,860,960,1060,1160,1260,1360,1460,1560,1600,1660,1760,1860,1960,2060,2160,2260,2360,2460,2560,2600,2660,2760,2860,2960,3060,3160,3260,3360,3460,3560",
			"name": "Numbers n such that string 6,0 occurs in the base 10 representation of n but not of n-1.",
			"mathematica": [
				"SequencePosition[Table[If[SequenceCount[IntegerDigits[n],{6,0}]\u003e0,1,0],{n,4000}],{0,1}][[All,2]] (* _Harvey P. Dale_, Jan 16 2022 *)"
			],
			"keyword": "nonn,base,changed",
			"offset": "1,1",
			"author": "_Clark Kimberling_",
			"references": 0,
			"revision": 7,
			"time": "2022-01-16T13:57:42-05:00",
			"created": "1999-12-11T03:00:00-05:00"
		}
	]
}