{
	"greeting": "Greetings from The On-Line Encyclopedia of Integer Sequences! http://oeis.org/",
	"query": "id:A044787",
	"count": 1,
	"start": 0,
	"results": [
		{
			"number": 44787,
			"data": "74,174,274,374,474,574,674,749,774,874,974,1074,1174,1274,1374,1474,1574,1674,1749,1774,1874,1974,2074,2174,2274,2374,2474,2574,2674,2749,2774,2874,2974,3074,3174,3274,3374,3474,3574",
			"name": "Numbers n such that string 7,4 occurs in the base 10 representation of n but not of n+1.",
			"keyword": "nonn,base",
			"offset": "1,1",
			"author": "_Clark Kimberling_",
			"references": 0,
			"revision": 5,
			"time": "2012-03-30T18:56:46-04:00",
			"created": "1999-12-11T03:00:00-05:00"
		}
	]
}