{
	"greeting": "Greetings from The On-Line Encyclopedia of Integer Sequences! http://oeis.org/",
	"query": "id:A044847",
	"count": 1,
	"start": 0,
	"results": [
		{
			"number": 44847,
			"data": "7,14,21,28,35,36,42,44,45,46,47,50,57,64,71,72,79,84,85,87,88,89,93,100,107,108,115,122,126,127,128,130,131,136,143,144,151,158,165,168,169,170,171,173,179,180,187,194,201,208,210,211",
			"name": "Positive integers having no fewer base-6 runs of even length than odd.",
			"keyword": "nonn,base",
			"offset": "1,1",
			"author": "_Clark Kimberling_",
			"references": 0,
			"revision": 7,
			"time": "2018-01-18T03:47:40-05:00",
			"created": "1999-12-11T03:00:00-05:00"
		}
	]
}