{
	"greeting": "Greetings from The On-Line Encyclopedia of Integer Sequences! http://oeis.org/",
	"query": "id:A044932",
	"count": 1,
	"start": 0,
	"results": [
		{
			"number": 44932,
			"data": "1,1,1,1,1,1,1,1,1,2,-2,2,2,2,2,2,2,2,2,2,2,-2,2,2,2,2,2,2,2,2,2,2,-2,2,2,2,2,2,2,2,2,2,2,-2,2,2,2,2,2,2,2,2,2,2,-2,2,2,2,2,2,2,2,2,2,2,-2,2,2,2,2,2,2,2,2,2,2,-2,2,2,2,2,2,2,2,2,2,2",
			"name": "a(n)=so-se, where so(se)=sum of odd(even) base 10 run lengths of n.",
			"keyword": "sign,base",
			"offset": "1,10",
			"author": "_Clark Kimberling_",
			"references": 0,
			"revision": 4,
			"time": "2012-03-30T18:56:49-04:00",
			"created": "1999-12-11T03:00:00-05:00"
		}
	]
}