{
	"greeting": "Greetings from The On-Line Encyclopedia of Integer Sequences! http://oeis.org/",
	"query": "id:A044954",
	"count": 1,
	"start": 0,
	"results": [
		{
			"number": 44954,
			"data": "1,2,3,4,6,12,18,24,25,26,30,31,32,33,34,36,37,41,43,46,49,50,52,56,57,60,61,62,63,64,67,68,72,74,75,78,81,83,87,88,90,91,92,93,94,98,99,100,104,106,109,112,114,118,119,120,121,122,123",
			"name": "Numbers with no two equally numerous base 5 digits.",
			"mathematica": [
				"nten5Q[n_]:=Module[{c=Select[DigitCount[n,5],#\u003e0\u0026]},Length[c] == Length[ Union[ c]]]; Select[Range[150],nten5Q] (* _Harvey P. Dale_, Mar 08 2015 *)"
			],
			"keyword": "nonn,base",
			"offset": "1,2",
			"author": "_Clark Kimberling_",
			"references": 2,
			"revision": 7,
			"time": "2015-03-08T14:56:50-04:00",
			"created": "1999-12-11T03:00:00-05:00"
		}
	]
}