{
	"greeting": "Greetings from The On-Line Encyclopedia of Integer Sequences! http://oeis.org/",
	"query": "id:A044445",
	"count": 1,
	"start": 0,
	"results": [
		{
			"number": 44445,
			"data": "19,35,51,67,79,83,99,115,131,143,147,163,179,195,207,211,227,243,259,271,275,291,319,323,335,339,355,371,387,399,403,419,435,451,463,467,483,499,515,527,531,547,575,579,591,595,611",
			"name": "Numbers n such that string 0,3 occurs in the base 4 representation of n but not of n+1.",
			"mathematica": [
				"SequencePosition[Table[If[SequenceCount[IntegerDigits[n,4],{0,3}]\u003e0,1,0],{n,700}],{1,0}][[All,1]] (* Requires Mathematica version 10 or later *) (* _Harvey P. Dale_, Oct 11 2017 *)"
			],
			"keyword": "nonn,base",
			"offset": "1,1",
			"author": "_Clark Kimberling_",
			"references": 0,
			"revision": 7,
			"time": "2017-10-11T19:21:01-04:00",
			"created": "1999-12-11T03:00:00-05:00"
		}
	]
}