{
	"greeting": "Greetings from The On-Line Encyclopedia of Integer Sequences! http://oeis.org/",
	"query": "id:A044193",
	"count": 1,
	"start": 0,
	"results": [
		{
			"number": 44193,
			"data": "70,134,198,262,326,390,454,518,560,582,646,710,774,838,902,966,1030,1072,1094,1158,1222,1286,1350,1414,1478,1542,1584,1606,1670,1734,1798,1862,1926,1990,2054,2096,2118,2182,2246,2310",
			"name": "Numbers n such that string 0,6 occurs in the base 8 representation of n but not of n-1.",
			"mathematica": [
				"SequencePosition[Table[If[SequenceCount[IntegerDigits[n,8],{0,6}]\u003e0,1,0],{n,2500}],{0,1}][[All,2]] (* Requires Mathematica version 10 or later *) (* _Harvey P. Dale_, Jul 11 2020 *)"
			],
			"keyword": "nonn,base",
			"offset": "1,1",
			"author": "_Clark Kimberling_",
			"references": 0,
			"revision": 7,
			"time": "2020-07-11T18:19:20-04:00",
			"created": "1999-12-11T03:00:00-05:00"
		}
	]
}