{
	"greeting": "Greetings from The On-Line Encyclopedia of Integer Sequences! http://oeis.org/",
	"query": "id:A044394",
	"count": 1,
	"start": 0,
	"results": [
		{
			"number": 44394,
			"data": "62,162,262,362,462,562,620,662,762,862,962,1062,1162,1262,1362,1462,1562,1620,1662,1762,1862,1962,2062,2162,2262,2362,2462,2562,2620,2662,2762,2862,2962,3062,3162,3262,3362,3462,3562",
			"name": "Numbers n such that string 6,2 occurs in the base 10 representation of n but not of n-1.",
			"mathematica": [
				"SequencePosition[Table[If[SequenceCount[IntegerDigits[n],{6,2}]\u003e0,1,0],{n,3600}],{0,1}][[All,2]] (* Requires Mathematica version 10 or later *) (* _Harvey P. Dale_, Jun 27 2020 *)"
			],
			"keyword": "nonn,base",
			"offset": "1,1",
			"author": "_Clark Kimberling_",
			"references": 0,
			"revision": 7,
			"time": "2020-06-27T20:01:33-04:00",
			"created": "1999-12-11T03:00:00-05:00"
		}
	]
}