{
	"greeting": "Greetings from The On-Line Encyclopedia of Integer Sequences! http://oeis.org/",
	"query": "id:A044006",
	"count": 1,
	"start": 0,
	"results": [
		{
			"number": 44006,
			"data": "13,31,113,139,213,231,319,331,413,431,513,531,613,631,713,731,813,831,913,931,1013,1031,1113,1139,1213,1231,1399,1413,1431,1513,1531,1613,1631,1713,1731,1813,1831,1913,1931,2013,2031",
			"name": "Numbers k such that 1 and 3 occur juxtaposed in the base-10 representation of k but not of k+1.",
			"link": [
				"Michael De Vlieger, \u003ca href=\"/A044006/b044006.txt\"\u003eTable of n, a(n) for n = 1..10000\u003c/a\u003e"
			],
			"mathematica": [
				"SequencePosition[Table[If[SequenceCount[IntegerDigits[n],{1,3}]\u003e0 || SequenceCount[ IntegerDigits[n],{3,1}]\u003e0,1,0],{n,2100}],{1,0}][[All,1]] (* Requires Mathematica version 10 or later *) (* _Harvey P. Dale_, Aug 18 2019 *)"
			],
			"keyword": "nonn,base",
			"offset": "1,1",
			"author": "_Clark Kimberling_",
			"references": 1,
			"revision": 13,
			"time": "2021-08-28T02:51:04-04:00",
			"created": "1999-12-11T03:00:00-05:00"
		}
	]
}