{
	"greeting": "Greetings from The On-Line Encyclopedia of Integer Sequences! http://oeis.org/",
	"query": "id:A044843",
	"count": 1,
	"start": 0,
	"results": [
		{
			"number": 44843,
			"data": "3,4,6,12,15,16,19,24,25,27,28,30,36,38,44,48,50,51,52,54,60,63,64,67,76,79,96,97,99,100,102,103,108,111,112,115,120,121,123,124,126,132,134,140,144,147,152,153,155,156,158,176,179",
			"name": "Positive integers having no fewer base-2 runs of even length than odd.",
			"keyword": "nonn,base",
			"offset": "1,1",
			"author": "_Clark Kimberling_",
			"references": 0,
			"revision": 7,
			"time": "2018-01-18T03:47:07-05:00",
			"created": "1999-12-11T03:00:00-05:00"
		}
	]
}