{
	"greeting": "Greetings from The On-Line Encyclopedia of Integer Sequences! http://oeis.org/",
	"query": "id:A044236",
	"count": 1,
	"start": 0,
	"results": [
		{
			"number": 44236,
			"data": "49,113,177,241,305,369,392,433,497,561,625,689,753,817,881,904,945,1009,1073,1137,1201,1265,1329,1393,1416,1457,1521,1585,1649,1713,1777,1841,1905,1928,1969,2033,2097,2161,2225,2289,2353",
			"name": "Numbers n such that string 6,1 occurs in the base 8 representation of n but not of n-1.",
			"keyword": "nonn,base",
			"offset": "1,1",
			"author": "_Clark Kimberling_",
			"references": 0,
			"revision": 5,
			"time": "2012-03-30T18:56:42-04:00",
			"created": "1999-12-11T03:00:00-05:00"
		}
	]
}