{
	"greeting": "Greetings from The On-Line Encyclopedia of Integer Sequences! http://oeis.org/",
	"query": "id:A044106",
	"count": 1,
	"start": 0,
	"results": [
		{
			"number": 44106,
			"data": "40,76,112,148,184,220,240,256,292,328,364,400,436,456,472,508,544,580,616,652,672,688,724,760,796,832,868,888,904,940,976,1012,1048,1084,1104,1120,1156,1192,1228,1264,1300,1320,1336",
			"name": "Numbers n such that string 0,4 occurs in the base 6 representation of n but not of n-1.",
			"keyword": "nonn,base",
			"offset": "1,1",
			"author": "_Clark Kimberling_",
			"references": 0,
			"revision": 5,
			"time": "2012-03-30T18:56:42-04:00",
			"created": "1999-12-11T03:00:00-05:00"
		}
	]
}