{
	"greeting": "Greetings from The On-Line Encyclopedia of Integer Sequences! http://oeis.org/",
	"query": "id:A045562",
	"count": 1,
	"start": 0,
	"results": [
		{
			"number": 45562,
			"data": "61,96,130,139,159,161,166,178,187,192,211,218,236,255,264,324,334,341,361,388,406,432,446,458,469,483,489,494,507,537,549,555,575,576,587,624,637,654,657,684,691,697,746,756,788,793,797,824,838,840",
			"name": "Numbers whose factorial has '56' as its final two digits before the trailing zeros.",
			"link": [
				"Harvey P. Dale, \u003ca href=\"/A045562/b045562.txt\"\u003eTable of n, a(n) for n = 1..1000\u003c/a\u003e",
				"\u003ca href=\"/index/Fi#final\"\u003eIndex entries for sequences related to final digits of numbers\u003c/a\u003e"
			],
			"mathematica": [
				"lnzQ[n_]:=Module[{idn=IntegerDigits[n!],lz},lz=Length[Last[Split[idn]]];Take[idn,{-2-lz,-1-lz}]=={5,6}]; Select[Range[10,850],lnzQ] (* _Harvey P. Dale_, Mar 05 2013 *)"
			],
			"program": [
				"(PARI) last(n,k)=if(n*8\\9-1\u003ck, n=n!; return(n/10^valuation(n,10)%10^k)); my(m=Mod(1,5^k)); for(i=2,n,m*=i/10^valuation(i,5));lift(chinese(m, Mod(0,2^k))) \\\\ Gives the last k decimal digits of n!.",
				"is(n)=last(n,2)==56 \\\\ _Charles R Greathouse IV_, Oct 22 2014",
				"(PARI) is(n)=my(m=Mod(1,25)); for(i=2,n, m*=i/10^valuation(i,5)); m==56 \\\\ _Charles R Greathouse IV_, Oct 22 2014",
				"(PARI) v=List();m=Mod(1,25);for(n=2,1e6,m*=n/10^valuation(n,5);if(m==56,listput(v,n);if(#v==100, return(Vec(v))))) \\\\ _Charles R Greathouse IV_, Oct 22 2014"
			],
			"keyword": "nonn,base",
			"offset": "1,1",
			"author": "_Jeff Burch_",
			"references": 1,
			"revision": 18,
			"time": "2021-06-22T01:03:32-04:00",
			"created": "1999-12-11T03:00:00-05:00"
		}
	]
}