{
	"greeting": "Greetings from The On-Line Encyclopedia of Integer Sequences! http://oeis.org/",
	"query": "id:A045116",
	"count": 1,
	"start": 0,
	"results": [
		{
			"number": 45116,
			"data": "31,55,61,79,111,115,123,124,126,159,183,189,199,205,211,219,220,222,231,237,241,244,246,249,271,303,307,315,316,318,399,431,435,443,444,446,451,459,460,462,483,491,492,494,496,498",
			"name": "Numbers n with property that in base 4 representation the numbers of 1's and 3's are 1 and 2, respectively.",
			"mathematica": [
				"b413Q[n_]:=Module[{dc=DigitCount[n,4]},dc[[1]]==1\u0026\u0026dc[[3]]==2]; Select[ Range[500],b413Q] (* _Harvey P. Dale_, Oct 22 2011 *)"
			],
			"keyword": "nonn,base",
			"offset": "1,1",
			"author": "_Clark Kimberling_",
			"references": 0,
			"revision": 8,
			"time": "2013-11-21T12:47:04-05:00",
			"created": "1999-12-11T03:00:00-05:00"
		}
	]
}