{
	"greeting": "Greetings from The On-Line Encyclopedia of Integer Sequences! http://oeis.org/",
	"query": "id:A045939",
	"count": 1,
	"start": 0,
	"results": [
		{
			"number": 45939,
			"data": "33,85,93,121,141,170,201,213,217,244,284,301,393,428,434,445,506,602,603,604,633,637,697,841,921,962,1041,1074,1083,1084,1130,1137,1244,1261,1274,1309,1345,1401,1412,1430,1434,1448,1490,1532,1556,1586,1604",
			"name": "Numbers n such that factorizations of n through n+2 have the same number of primes (including multiplicities).",
			"link": [
				"Charles R Greathouse IV, \u003ca href=\"/A045939/b045939.txt\"\u003eTable of n, a(n) for n = 1..10000\u003c/a\u003e"
			],
			"mathematica": [
				"f[n_]:=Plus@@Last/@FactorInteger[n];lst={};lst={};Do[If[f[n]==f[n+1]==f[n+2],AppendTo[lst,n]],{n,0,7!}];lst (* _Vladimir Joseph Stephan Orlovsky_, May 12 2010 *)",
				"pd2Q[n_]:=PrimeOmega[n]==PrimeOmega[n+1]==PrimeOmega[n+2]; Select[Range[1700],pd2Q]  (* _Harvey P. Dale_, Apr 19 2011 *)"
			],
			"program": [
				"(PARI) is(n)=my(t=bigomega(n)); bigomega(n+1)==t \u0026\u0026 bigomega(n+2)==t \\\\ _Charles R Greathouse IV_, Sep 14 2015",
				"(PARI) list(lim)=my(v=List(),a=1,b=1,c); forfactored(n=4,lim\\1+2,c=bigomega(n); if(a==b\u0026\u0026a==c, listput(v,n[1]-2)); a=b; b=c); Vec(v) \\\\ _Charles R Greathouse IV_, May 07 2020"
			],
			"xref": [
				"A056809 is a subsequence.",
				"Cf. A006073. - _Harvey P. Dale_, Apr 19 2011",
				"Subsequence of A045920. __Zak Seidov_, Jul 02 2020"
			],
			"keyword": "nonn,easy",
			"offset": "1,1",
			"author": "_David W. Wilson_",
			"references": 12,
			"revision": 32,
			"time": "2020-07-02T22:08:12-04:00",
			"created": "1999-12-11T03:00:00-05:00"
		}
	]
}