{
	"greeting": "Greetings from The On-Line Encyclopedia of Integer Sequences! http://oeis.org/",
	"query": "id:A045587",
	"count": 1,
	"start": 0,
	"results": [
		{
			"number": 45587,
			"data": "1,11,121,1331,14641,56881,87967,151019,161051,625691,967637,1493503,1661209,1771561,6882601,10644007,16428533,18273299,19487171,63952009,75708611,117084077,180713863,201006289,214358881,294131651,454877357,703472099,780919249,832794721",
			"name": "Numbers k that divide 8^k + 3^k.",
			"mathematica": [
				"Select[Range[10^5], Divisible[PowerMod[8, #, #] + PowerMod[3, #, #], #] \u0026] (* _Amiram Eldar_, Oct 23 2021 *)"
			],
			"xref": [
				"Cf. A074609."
			],
			"keyword": "nonn",
			"offset": "1,2",
			"author": "_David W. Wilson_",
			"ext": [
				"a(28)-a(30) from _Amiram Eldar_, Oct 23 2021"
			],
			"references": 0,
			"revision": 17,
			"time": "2021-10-23T10:06:50-04:00",
			"created": "1999-12-11T03:00:00-05:00"
		}
	]
}