{
	"greeting": "Greetings from The On-Line Encyclopedia of Integer Sequences! http://oeis.org/",
	"query": "id:A045576",
	"count": 1,
	"start": 0,
	"results": [
		{
			"number": 45576,
			"data": "1,5,25,55,125,275,605,625,1375,3025,3125,6655,6875,15125,15625,30025,31375,33275,34375,73205,75625,78125,150125,156875,166375,171875,330275,345125,366025,378125,390625,439835,750625,784375,805255,831875",
			"name": "Numbers k that divide 3^k + 2^k.",
			"comment": [
				"For any j\u003e=0, 5*A003598(j) is a term of the sequence. - _Benoit Cloitre_, Mar 08 2002",
				"From _Robert Israel_, Jun 29 2017: (Start)",
				"This is a semigroup: if m and n are in the sequence, then so is m*n.",
				"If n is in the sequence and is divisible by prime p, then so is p*n.",
				"The only prime power in the sequence is 5.",
				"Conjecture: Every member of the sequence except 1 is of the form p*m where p is prime and m is in the sequence. (End)"
			],
			"link": [
				"Robert Israel and Giovanni Resta, \u003ca href=\"/A045576/b045576.txt\"\u003eTable of n, a(n) for n = 1..1000\u003c/a\u003e (first 205 terms from Robert Israel)"
			],
			"maple": [
				"select(t -\u003e 3 \u0026^ t + 2 \u0026^ t mod t = 0, [seq(i,i=1..10^6,2)]); # _Robert Israel_, Jun 29 2017"
			],
			"program": [
				"(PARI) isok(n) = ((3^n+2^n) % n) == 0; \\\\ _Michel Marcus_, Jun 29 2017",
				"(PARI) isok(n)=(Mod(2,n)^n+Mod(3,n)^n)==0; \\\\ significantly more efficient",
				"for(n=1,10^6,if(isok(n),print1(n,\", \"))); \\\\ _Joerg Arndt_, Aug 13 2017"
			],
			"xref": [
				"Cf. A003598, A007689."
			],
			"keyword": "nonn",
			"offset": "1,2",
			"author": "_David W. Wilson_",
			"references": 7,
			"revision": 32,
			"time": "2021-08-14T13:14:11-04:00",
			"created": "1999-12-11T03:00:00-05:00"
		}
	]
}