{
	"greeting": "Greetings from The On-Line Encyclopedia of Integer Sequences! http://oeis.org/",
	"query": "id:A045193",
	"count": 1,
	"start": 0,
	"results": [
		{
			"number": 45193,
			"data": "78,90,143,203,215,268,328,340,383,388,391,392,394,398,403,415,428,440,451,452,454,455,460,470,478,490,518,578,590,668,693,708,713,716,717,719,723,743,768,828,840,893,953,965,1008,1013",
			"name": "Numbers n with property that in base 5 representation the numbers of 0's and 3's are 1 and 2, respectively.",
			"mathematica": [
				"Select[Range[1100],DigitCount[#,5,0]==1\u0026\u0026DigitCount[#,5,3]==2\u0026] (* _Harvey P. Dale_, Dec 12 2011 *)"
			],
			"keyword": "nonn,base",
			"offset": "1,1",
			"author": "_Clark Kimberling_",
			"references": 0,
			"revision": 8,
			"time": "2013-11-21T12:47:04-05:00",
			"created": "1999-12-11T03:00:00-05:00"
		}
	]
}