{
	"greeting": "Greetings from The On-Line Encyclopedia of Integer Sequences! http://oeis.org/",
	"query": "id:A045594",
	"count": 1,
	"start": 0,
	"results": [
		{
			"number": 45594,
			"data": "1,2,4,7,8,16,32,49,58,64,128,136,256,343,512,1024,1552,1682,2048,2312,2401,2564,4096,6176,8192,11179,16384,16807,24059,32768,32896,39304,48778,65536,78253,117649,131072,150544,168413,183944,262144,524288",
			"name": "Numbers k that divide 10^k + 4^k.",
			"xref": [
				"Cf. A081343."
			],
			"keyword": "nonn",
			"offset": "1,2",
			"author": "_David W. Wilson_",
			"references": 0,
			"revision": 13,
			"time": "2021-08-10T05:11:18-04:00",
			"created": "1999-12-11T03:00:00-05:00"
		}
	]
}