{
	"greeting": "Greetings from The On-Line Encyclopedia of Integer Sequences! http://oeis.org/",
	"query": "id:A045798",
	"count": 1,
	"start": 0,
	"results": [
		{
			"number": 45798,
			"data": "11,13,17,19,31,33,37,39,51,53,57,59,71,73,77,79,91,93,97,99,111,113,117,119,131,133,137,139,151,153,157,159,171,173,177,179,191,193,197,199,211,213,217,219,231,233,237,239,251,253,257,259",
			"name": "Oddish numbers (prime to 10 and 10's digit is odd).",
			"comment": [
				"From _Jianing Song_, Apr 27 2019: (Start)",
				"Numbers congruent to {11, 13, 17, 19} mod 20.",
				"Numbers k such that Kronecker(-20,k) = A289741(k) = -1. (End)"
			],
			"link": [
				"Reinhard Zumkeller, \u003ca href=\"/A045798/b045798.txt\"\u003eTable of n, a(n) for n = 1..10000\u003c/a\u003e",
				"\u003ca href=\"/index/Rec#order_05\"\u003eIndex entries for linear recurrences with constant coefficients\u003c/a\u003e, signature (1, 0, 0, 1, -1)."
			],
			"formula": [
				"Conjecture a(n) = a(n-1)+a(n-4)-a(n-5). G.f.: x*(11+2*x+4*x^2+2*x^3+x^4)/((1-x)^2*(1+x)*(1+x^2)). - _Colin Barker_, Apr 14 2012",
				"a(n) = 5n + O(1). - _Charles R Greathouse IV_, Feb 07 2017",
				"a(n+4) = a(n) + 20. This confirms Barker's conjecture. - _Robert Israel_, Mar 27 2017"
			],
			"maple": [
				"seq(seq(20*j + k, k = [11, 13, 17, 19]),j=0..100); # _Robert Israel_, Mar 27 2017"
			],
			"mathematica": [
				"Table[10n+{1,3,7,9},{n,1,31,2}]//Flatten (* _Harvey P. Dale_, Oct 01 2019 *)"
			],
			"program": [
				"(Haskell)",
				"a045798 n = a045798_list !! (n-1)",
				"a045798_list = filter (odd . (`mod` 10) . (`div` 10)) a045572_list",
				"-- _Reinhard Zumkeller_, Dec 10 2011",
				"(PARI) is(n)=gcd(n,10)==1 \u0026\u0026 n\\10%2 \\\\ _Charles R Greathouse IV_, Feb 07 2017"
			],
			"xref": [
				"Complement of A045797 with respect to A045572."
			],
			"keyword": "nonn,base,easy,nice",
			"offset": "1,1",
			"author": "_J. H. Conway_.",
			"ext": [
				"More terms from _Erich Friedman_."
			],
			"references": 15,
			"revision": 30,
			"time": "2021-08-23T14:06:27-04:00",
			"created": "1999-12-11T03:00:00-05:00"
		}
	]
}