{
	"greeting": "Greetings from The On-Line Encyclopedia of Integer Sequences! http://oeis.org/",
	"query": "id:A045842",
	"count": 1,
	"start": 0,
	"results": [
		{
			"number": 45842,
			"data": "1,1,2,3,5,8,13,19,29,43,65,94,138,197,284,403,571,801,1124,1562,2170,2992,4118,5636,7700,10467,14201,19189,25873,34763,46614,62305,83113,110565,146791,194408,256985,338934,446211,586231,768855,1006450,1315304,1715882,2234957,2906250",
			"name": "Expansion of Product_{k\u003e=0} 1/(1 - x^(k+1))^A001156(k).",
			"link": [
				"Alois P. Heinz, \u003ca href=\"/A045842/b045842.txt\"\u003eTable of n, a(n) for n = 0..10000\u003c/a\u003e",
				"N. J. A. Sloane, \u003ca href=\"/transforms.txt\"\u003eTransforms\u003c/a\u003e"
			],
			"formula": [
				"G.f.: Product_{k\u003e=0} 1/(1 - x^(k+1))^A001156(k)."
			],
			"example": [
				"1/((1-x)^1 * (1-x^2)^1 * (1-x^3)^1 * (1-x^4)^1 * (1-x^5)^2 * (1-x^6)^2 * (1-x^7)^2 * (1-x^8)^2 * (1-x^9)^3 * ...) = 1 + x + 2*x^2 + 3*x^3 + 5*x^4 + 8*x^5 + 13*x^6 + 19*x^7 + 29*x^8 + 43*x^9 + ... ."
			],
			"xref": [
				"Cf. A001156."
			],
			"keyword": "nonn",
			"offset": "0,3",
			"author": "_N. J. A. Sloane_",
			"ext": [
				"More terms from _Seiichi Manyama_, Nov 10 2018"
			],
			"references": 2,
			"revision": 24,
			"time": "2018-11-10T09:47:31-05:00",
			"created": "1999-12-11T03:00:00-05:00"
		}
	]
}