{
	"greeting": "Greetings from The On-Line Encyclopedia of Integer Sequences! http://oeis.org/",
	"query": "id:A045141",
	"count": 1,
	"start": 0,
	"results": [
		{
			"number": 45141,
			"data": "191,239,251,254,447,495,507,510,575,639,719,735,755,759,764,765,815,827,830,879,891,894,911,927,947,951,956,957,971,974,987,990,995,999,1004,1005,1010,1014,1016,1017,1215,1263,1275",
			"name": "Numbers n with property that in base 4 representation the numbers of 2's and 3's are 1 and 3, respectively.",
			"mathematica": [
				"Select[Range[1300],DigitCount[#,4,2]==1\u0026\u0026DigitCount[#,4,3]==3\u0026] (* _Harvey P. Dale_, May 07 2019 *)"
			],
			"keyword": "nonn,base",
			"offset": "1,1",
			"author": "_Clark Kimberling_",
			"references": 0,
			"revision": 7,
			"time": "2019-05-07T21:12:00-04:00",
			"created": "1999-12-11T03:00:00-05:00"
		}
	]
}