{
	"greeting": "Greetings from The On-Line Encyclopedia of Integer Sequences! http://oeis.org/",
	"query": "id:A045154",
	"count": 1,
	"start": 0,
	"results": [
		{
			"number": 45154,
			"data": "683,686,698,746,938,1707,1710,1722,1770,1962,2219,2222,2234,2282,2475,2478,2490,2538,2603,2606,2618,2667,2670,2682,2699,2702,2715,2718,2723,2727,2732,2733,2738,2742,2744,2745,2762",
			"name": "Numbers n with property that in base 4 representation the numbers of 2's and 3's are 4 and 1, respectively.",
			"mathematica": [
				"Select[Range[3000],DigitCount[#,4,2]==4\u0026\u0026DigitCount[#,4,3]==1\u0026] (* _Harvey P. Dale_, Feb 02 2017 *)"
			],
			"keyword": "nonn,base",
			"offset": "1,1",
			"author": "_Clark Kimberling_",
			"references": 0,
			"revision": 7,
			"time": "2017-02-02T10:36:05-05:00",
			"created": "1999-12-11T03:00:00-05:00"
		}
	]
}