{
	"greeting": "Greetings from The On-Line Encyclopedia of Integer Sequences! http://oeis.org/",
	"query": "id:A045869",
	"count": 1,
	"start": 0,
	"results": [
		{
			"number": 45869,
			"data": "2034,2403,2430,3024,3042,3240,3304,3340,3420,4203,4230,4302,4320,4330,4340,213330,303240,310430,330101,1230134,1240404,1303034,1322340,1330304,1340303,1343030,2000434,2004120,2244030,2420401,3020002",
			"name": "In the list of divisors of n (in base 5), each digit 0-4 appears equally often.",
			"link": [
				"N. Nomoto, \u003ca href=\"http://www.geocities.co.jp/Technopolis/1793/09digit.htm\"\u003eIn the list of divisors of n,... \u003c/a\u003e"
			],
			"xref": [
				"Cf. A038564, A038565."
			],
			"keyword": "easy,nonn,base",
			"offset": "1,1",
			"author": "_Naohiro Nomoto_",
			"references": 1,
			"revision": 4,
			"time": "2012-03-31T13:50:35-04:00",
			"created": "1999-12-11T03:00:00-05:00"
		}
	]
}