{
	"greeting": "Greetings from The On-Line Encyclopedia of Integer Sequences! http://oeis.org/",
	"query": "id:A045179",
	"count": 1,
	"start": 0,
	"results": [
		{
			"number": 45179,
			"data": "262,302,310,687,887,927,935,1287,1307,1311,1313,1314,1317,1322,1337,1362,1387,1427,1435,1507,1511,1513,1514,1517,1522,1527,1535,1551,1553,1554,1555,1565,1570,1577,1585,1602,1610,1637",
			"name": "Numbers n with property that in base 5 representation the numbers of 0's and 2's are 1 and 3, respectively.",
			"keyword": "nonn,base",
			"offset": "1,1",
			"author": "_Clark Kimberling_",
			"references": 0,
			"revision": 5,
			"time": "2012-03-30T18:56:50-04:00",
			"created": "1999-12-11T03:00:00-05:00"
		}
	]
}