{
	"greeting": "Greetings from The On-Line Encyclopedia of Integer Sequences! http://oeis.org/",
	"query": "id:A045021",
	"count": 1,
	"start": 0,
	"results": [
		{
			"number": 45021,
			"data": "69,81,84,278,279,281,285,293,309,326,327,329,333,338,339,344,348,353,356,369,372,389,401,404,453,465,468,533,581,593,596,789,837,849,852,1114,1115,1118,1119,1126,1127,1129,1133,1142",
			"name": "Numbers n with property that in base 4 representation the numbers of 0's and 1's are 1 and 3, respectively.",
			"link": [
				"Vincenzo Librandi, \u003ca href=\"/A045021/b045021.txt\"\u003eTable of n, a(n) for n = 1..9000\u003c/a\u003e"
			],
			"mathematica": [
				"Select[Range[10000], DigitCount[#, 4, 0] == 1 \u0026\u0026 DigitCount[#, 4, 1] == 3 \u0026] (* _Vincenzo Librandi_, Sep 21 2016 *)"
			],
			"keyword": "nonn,base",
			"offset": "1,1",
			"author": "_Clark Kimberling_",
			"references": 1,
			"revision": 9,
			"time": "2016-09-21T11:35:52-04:00",
			"created": "1999-12-11T03:00:00-05:00"
		}
	]
}