{
	"greeting": "Greetings from The On-Line Encyclopedia of Integer Sequences! http://oeis.org/",
	"query": "id:A045250",
	"count": 1,
	"start": 0,
	"results": [
		{
			"number": 45250,
			"data": "124,374,499,524,574,599,604,614,619,620,622,623,1374,1624,1749,1774,1824,1849,1854,1864,1869,1870,1872,1873,1999,2249,2374,2399,2449,2474,2479,2489,2494,2495,2497,2498,2524,2574,2599",
			"name": "Numbers n with property that in base 5 representation the numbers of 1's and 4's are 0 and 3, respectively.",
			"keyword": "nonn,base",
			"offset": "1,1",
			"author": "_Clark Kimberling_",
			"references": 0,
			"revision": 5,
			"time": "2012-03-30T18:56:51-04:00",
			"created": "1999-12-11T03:00:00-05:00"
		}
	]
}