{
	"greeting": "Greetings from The On-Line Encyclopedia of Integer Sequences! http://oeis.org/",
	"query": "id:A045441",
	"count": 1,
	"start": 0,
	"results": [
		{
			"number": 45441,
			"data": "5,7,11,19,47,53,61,67,89,103,109,131,137,151,173,179,193,229,257,263,271,277,313,347,383,389,397,431,439,467,487,509,523,557,571,593,599,607,613,641,677,683,691,719,733",
			"name": "Primes congruent to {0, 4, 5} mod 7.",
			"link": [
				"Vincenzo Librandi, \u003ca href=\"/A045441/b045441.txt\"\u003eTable of n, a(n) for n = 1..1000\u003c/a\u003e"
			],
			"mathematica": [
				"Select[Prime[Range[200]],MemberQ[{0,4,5},Mod[#,7]]\u0026] (* _Vincenzo Librandi_, Aug 13 2012 *)"
			],
			"program": [
				"(MAGMA) [ p: p in PrimesUpTo(1000) | p mod 7 in {0, 4, 5} ]; // _Vincenzo Librandi_, Aug 13 2012"
			],
			"xref": [
				"Cf. A000040."
			],
			"keyword": "nonn,easy",
			"offset": "1,1",
			"author": "_N. J. A. Sloane_",
			"references": 1,
			"revision": 9,
			"time": "2020-03-08T23:16:48-04:00",
			"created": "1999-12-11T03:00:00-05:00"
		}
	]
}