{
	"greeting": "Greetings from The On-Line Encyclopedia of Integer Sequences! http://oeis.org/",
	"query": "id:A045680",
	"count": 1,
	"start": 0,
	"results": [
		{
			"number": 45680,
			"data": "1,1,1,1,4,5,17,19,64,68,245,251,900,923,3411,3425,12800,12869,48532,48619,184500,184735,705179,705431,2703168,2704150,10399675,10400530,40113164,40116599,155113825,155117519,601067520,601080137,2333593349",
			"name": "Number of 2n-bead balanced binary necklaces of fundamental period 2n equivalent to reverse.",
			"link": [
				"Andrew Howroyd, \u003ca href=\"/A045680/b045680.txt\"\u003eTable of n, a(n) for n = 0..200\u003c/a\u003e",
				"\u003ca href=\"/index/Lu#Lyndon\"\u003eIndex entries for sequences related to Lyndon words\u003c/a\u003e"
			],
			"formula": [
				"Moebius transform of A128014. - _Andrew Howroyd_, Sep 28 2017"
			],
			"mathematica": [
				"a[0] = 1;",
				"a[n_] := DivisorSum[n, MoebiusMu[n/#] Binomial[# - Mod[#, 2], Quotient[#, 2]]\u0026];",
				"Table[a[n], {n, 0, 34}] (* _Jean-François Alcover_, Jul 02 2018, after _Andrew Howroyd_ *)"
			],
			"program": [
				"(PARI) a(n) = if(n\u003c1, n\u003e=0, sumdiv(n, d, moebius(n/d) * binomial(d-d%2, d\\2))); \\\\ _Andrew Howroyd_, Sep 28 2017"
			],
			"xref": [
				"Cf. A128014."
			],
			"keyword": "nonn",
			"offset": "0,5",
			"author": "_David W. Wilson_",
			"references": 5,
			"revision": 14,
			"time": "2018-07-02T08:27:04-04:00",
			"created": "1999-12-11T03:00:00-05:00"
		}
	]
}