{
	"greeting": "Greetings from The On-Line Encyclopedia of Integer Sequences! http://oeis.org/",
	"query": "id:A045719",
	"count": 1,
	"start": 0,
	"results": [
		{
			"number": 45719,
			"data": "0,0,0,0,0,2,2,0,2,1,2,3,0,1,1,2,1,0,1,2,3,2,1,0,2,1,3,4,1,6,5,6,10,5,5,2,6,6,7,10,9,2,3,5,9,3,2,3,2,2,3,5,3,3,3,3,2,5,3,2,5,5,4,6,4,10,4,6,7,3,3,6,6,6,9,2,5,9,1,0,5,3,5,2,3,2,0,4,3,3,4,5,2,5,0,3,2,3,5,2,4,2,4,3,6,3",
			"name": "Number of primes embedded in n-th prime.",
			"comment": [
				"a(n) counts permuted subsequences of digits of prime(n) which denote primes distinct from prime(n)."
			],
			"example": [
				"For example a(11)=3 because 37 generate 3 primes with its digits: 3, 7, 73"
			],
			"xref": [
				"Cf. A000040."
			],
			"keyword": "nonn,base",
			"offset": "1,6",
			"author": "_Felice Russo_",
			"ext": [
				"More terms from _David W. Wilson_"
			],
			"references": 2,
			"revision": 7,
			"time": "2013-05-18T16:49:24-04:00",
			"created": "1999-12-11T03:00:00-05:00"
		}
	]
}