{
	"greeting": "Greetings from The On-Line Encyclopedia of Integer Sequences! http://oeis.org/",
	"query": "id:A045972",
	"count": 1,
	"start": 0,
	"results": [
		{
			"number": 45972,
			"data": "9,25,49,125,121,1225,169,625,343,3025,289,6125,361,4225,5929,3125,529,8575,841,15125,8281,7225,961,30625,1331,9025,2401,21125,1369,148225,1681,15625,14161,13225,20449,42875,1849,21025,17689,75625,2209,207025",
			"name": "a(1)=9; if n = Product p_i^e_i, n \u003e 1, then a(n) = Product p_{i+2}^{e_i+1}.",
			"reference": [
				"From a puzzle proposed by _Marc LeBrun_."
			],
			"keyword": "easy,nonn",
			"offset": "1,1",
			"author": "_N. J. A. Sloane_",
			"ext": [
				"More terms from _David W. Wilson_"
			],
			"references": 0,
			"revision": 10,
			"time": "2020-03-08T03:43:06-04:00",
			"created": "1999-12-11T03:00:00-05:00"
		}
	]
}