{
	"greeting": "Greetings from The On-Line Encyclopedia of Integer Sequences! http://oeis.org/",
	"query": "id:A045245",
	"count": 1,
	"start": 0,
	"results": [
		{
			"number": 45245,
			"data": "158,166,206,406,658,666,706,758,766,778,788,790,792,794,798,808,816,826,830,832,834,836,846,858,866,908,916,956,1006,1026,1030,1032,1034,1036,1046,1056,1106,1158,1166,1206,1408,1416",
			"name": "Numbers n with property that in base 5 representation the numbers of 1's and 3's are 3 and 1, respectively.",
			"keyword": "nonn,base",
			"offset": "1,1",
			"author": "_Clark Kimberling_",
			"references": 0,
			"revision": 5,
			"time": "2012-03-30T18:56:51-04:00",
			"created": "1999-12-11T03:00:00-05:00"
		}
	]
}