{
	"greeting": "Greetings from The On-Line Encyclopedia of Integer Sequences! http://oeis.org/",
	"query": "id:A045134",
	"count": 1,
	"start": 0,
	"results": [
		{
			"number": 45134,
			"data": "3,7,12,13,19,23,28,29,48,49,52,53,67,71,76,77,83,87,92,93,112,113,116,117,192,193,196,197,208,209,212,213,259,263,268,269,275,279,284,285,304,305,308,309,323,327,332,333,339,343,348",
			"name": "Numbers n with property that in base 4 representation the numbers of 2's and 3's are 0 and 1, respectively.",
			"link": [
				"Robert Israel, \u003ca href=\"/A045134/b045134.txt\"\u003eTable of n, a(n) for n = 1..10000\u003c/a\u003e"
			],
			"formula": [
				"From _Robert Israel_, Sep 20 2016: (Start)",
				"a(m+(n+1)*2^n) = a(m) + 4^(n+1) for 1 \u003c= m \u003c= (n+1)*2^n.",
				"a(m+(n+1)*2^n) = A000695(m-(n+1)*2^n-1) + 3*4^(n+1) for (n+1)*2^n \u003c m \u003c= (n+2)*2^n. (End)"
			],
			"maple": [
				"N:= 5: # to get all terms \u003c 4^(N+1)",
				"B0:= {0,1}:",
				"B1:= {3}:",
				"for d from 1 to N do",
				"  B1:= B1 union map(`+`,B0, 3*4^d) union map(`+`,B1,4^d);",
				"  B0:= B0 union map(`+`, B0,4^d);",
				"od:",
				"sort(convert(B1,list)); # _Robert Israel_, Sep 20 2016"
			],
			"mathematica": [
				"Select[Range[400],DigitCount[#,4,2]==0\u0026\u0026DigitCount[#,4,3]==1\u0026] (* _Harvey P. Dale_, Dec 25 2012 *)"
			],
			"xref": [
				"Cf. A000695."
			],
			"keyword": "nonn,base",
			"offset": "1,1",
			"author": "_Clark Kimberling_",
			"references": 1,
			"revision": 14,
			"time": "2016-09-21T02:41:36-04:00",
			"created": "1999-12-11T03:00:00-05:00"
		}
	]
}