{
	"greeting": "Greetings from The On-Line Encyclopedia of Integer Sequences! http://oeis.org/",
	"query": "id:A045674",
	"count": 1,
	"start": 0,
	"results": [
		{
			"number": 45674,
			"data": "1,1,2,2,4,4,6,8,12,16,20,32,38,64,72,128,140,256,272,512,532,1024,1056,2048,2086,4096,4160,8192,8264,16384,16512,32768,32908,65536,65792,131072,131344,262144,262656,524288,524820,1048576,1049600",
			"name": "Number of 2n-bead balanced binary necklaces which are equivalent to their reverse, complement and reversed complement.",
			"link": [
				"Andrew Howroyd, \u003ca href=\"/A045674/b045674.txt\"\u003eTable of n, a(n) for n = 0..200\u003c/a\u003e",
				"\u003ca href=\"/index/Ne#necklaces\"\u003eIndex entries for sequences related to necklaces\u003c/a\u003e"
			],
			"formula": [
				"a(2n) = a(n) + 2^(n-1), a(2n+1) = 2^n. - _Ralf Stephan_, Nov 01 2003"
			],
			"mathematica": [
				"a[0] = 1; a[n_] := a[n] = If[EvenQ[n], 2^(n/2-1) + a[n/2], 2^((n-1)/2)]; Table[a[n], {n, 0, 42}] (* _Jean-François Alcover_, Sep 30 2017 *)"
			],
			"program": [
				"(PARI) a(n) = if(n\u003c1, n==0, my(t=0,r=n); while(r%2==0, r=r/2; t+=2^(r-1)); t + 2^(r\\2)); \\\\ _Andrew Howroyd_, Sep 29 2017"
			],
			"xref": [
				"Cf. A045654."
			],
			"keyword": "nonn",
			"offset": "0,3",
			"author": "_David W. Wilson_",
			"references": 12,
			"revision": 15,
			"time": "2017-09-30T14:55:05-04:00",
			"created": "1999-12-11T03:00:00-05:00"
		}
	]
}