{
	"greeting": "Greetings from The On-Line Encyclopedia of Integer Sequences! http://oeis.org/",
	"query": "id:A045086",
	"count": 1,
	"start": 0,
	"results": [
		{
			"number": 45086,
			"data": "2,8,11,14,32,35,44,47,50,56,59,62,128,131,140,143,176,179,188,191,194,200,203,206,224,227,236,239,242,248,251,254,512,515,524,527,560,563,572,575,704,707,716,719,752,755,764,767,770",
			"name": "Numbers n with property that in base 4 representation the numbers of 1's and 2's are 0 and 1, respectively.",
			"keyword": "nonn,base",
			"offset": "1,1",
			"author": "_Clark Kimberling_",
			"references": 0,
			"revision": 5,
			"time": "2012-03-30T18:56:50-04:00",
			"created": "1999-12-11T03:00:00-05:00"
		}
	]
}