{
	"greeting": "Greetings from The On-Line Encyclopedia of Integer Sequences! http://oeis.org/",
	"query": "id:A045705",
	"count": 1,
	"start": 0,
	"results": [
		{
			"number": 45705,
			"data": "2,5,17,31,449,521,953,39313,187111,974177,2989009,45804529,53603369,226981169,540660521,961504807,2149991549,5631736609,17253512729,18074736353,38580197099,101003831729,1311494070977,101503242568393",
			"name": "Primes of the form F(i)^2 + F(j)^3, where F() are Fibonacci numbers.",
			"formula": [
				"For example, a(2)=17 because 17=2^3+3^2"
			],
			"mathematica": [
				"f = Table[ Fibonacci[ i ], {i, 1, 100} ]; g = Union[ Flatten[ Table[ f[ [ i ] ]^2 + f[ [ j ] ]^3, {i, 1, 100}, {j, 1, 100} ] ] ]; Table[ g[ [ Select[ Range[ 1000 ], PrimeQ[ g[ [ # ] ] ] \u0026 ] ] ] ]"
			],
			"xref": [
				"Cf. A000045."
			],
			"keyword": "nonn",
			"offset": "1,1",
			"author": "_Felice Russo_",
			"ext": [
				"More terms from _Robert G. Wilson v_, Aug 28 2001"
			],
			"references": 0,
			"revision": 6,
			"time": "2013-05-18T16:49:24-04:00",
			"created": "1999-12-11T03:00:00-05:00"
		}
	]
}