{
	"greeting": "Greetings from The On-Line Encyclopedia of Integer Sequences! http://oeis.org/",
	"query": "id:A046330",
	"count": 1,
	"start": 0,
	"results": [
		{
			"number": 46330,
			"data": "88,232,414,424,444,484,525,585,636,666,676,686,808,858,868,999,1881,2002,2332,2442,2662,3003,3663,3773,3993,4114,4444,4774,5005,5115,5225,6116,6556,6666,7007,7227,8668,9999,10101,10701,11011,12321,13431",
			"name": "Palindromes with exactly 4 prime factors (counted with multiplicity).",
			"link": [
				"John Cerkan, \u003ca href=\"/A046330/b046330.txt\"\u003eTable of n, a(n) for n = 1..10000\u003c/a\u003e"
			],
			"xref": [
				"Cf. A014613, A046317, A046410."
			],
			"keyword": "nonn,base",
			"offset": "1,1",
			"author": "_Patrick De Geest_, Jun 15 1998",
			"references": 5,
			"revision": 10,
			"time": "2017-04-11T04:36:45-04:00",
			"created": "1999-12-11T03:00:00-05:00"
		}
	]
}