{
	"greeting": "Greetings from The On-Line Encyclopedia of Integer Sequences! http://oeis.org/",
	"query": "id:A046938",
	"count": 1,
	"start": 0,
	"results": [
		{
			"number": 46938,
			"data": "1,2,3,5,8,11,16,24,32,43,59,83,107,139,182,241,324,407,514,653,835,1076,1400,1724,2131,2645,3298,4133,5209,6609,8009,9733,11864,14509,17807,21940,27149,33758,40367,48376,58109,69973,84482,102289",
			"name": "Sequence formed from rows of triangle A046937.",
			"comment": [
				"Apparently formed by deleting any repeated elements in A046937. - _Sean A. Irvine_, May 05 2021"
			],
			"keyword": "nonn",
			"offset": "0,2",
			"author": "_N. J. A. Sloane_",
			"ext": [
				"Title corrected by _Sean A. Irvine_, May 05 2021"
			],
			"references": 0,
			"revision": 9,
			"time": "2021-05-05T01:55:21-04:00",
			"created": "1999-12-11T03:00:00-05:00"
		}
	]
}