{
	"greeting": "Greetings from The On-Line Encyclopedia of Integer Sequences! http://oeis.org/",
	"query": "id:A046592",
	"count": 1,
	"start": 0,
	"results": [
		{
			"number": 46592,
			"data": "1,1,1,1,1,1,1,1,4,1,1,1,1,1,4,5,4,5,1,1,1,1,4,9,5,4,9,1,1,1,1,4,13,4,19,4,19,4,13,1,1,1,1,4,17,1,8,19,1,8,4,17,1,1,1,1,4,21,4,49,35,35,4,49,4,21,1,1,1,1,4,25,35,4,119,1,35,4,119,35,4,25,1,1,1,1,4,29",
			"name": "First denominator and then numerator of each element of the 1/4-Pascal triangle (by row), excluding 2's.",
			"example": [
				"1/1; --\u003e 1 1",
				"1/1 1/1; --\u003e 1 1 1 1",
				"1/1 1/4 1/1; --\u003e 1 1 4 1 1 1",
				"1/1 5/4 5/4 1/1; --\u003e ...",
				"1/1 9/4 5/2 9/4 1/1;",
				"1/1 13/4 19/4 19/4 13/4 1/1;",
				"1/1 17/4 8/1 19/2 8/1 17/4 1/1;",
				"1/1 21/4 49/4 35/2 35/2 49/4 21/4 1/1; ..."
			],
			"xref": [
				"Cf. A046563."
			],
			"keyword": "tabf,nonn,frac,less",
			"offset": "1,9",
			"author": "_Mohammad K. Azarian_",
			"references": 0,
			"revision": 12,
			"time": "2013-06-22T16:05:40-04:00",
			"created": "1999-12-11T03:00:00-05:00"
		}
	]
}