{
	"greeting": "Greetings from The On-Line Encyclopedia of Integer Sequences! http://oeis.org/",
	"query": "id:A046294",
	"count": 1,
	"start": 0,
	"results": [
		{
			"number": 46294,
			"data": "108,146,161,191,208,222,230,249,258,260,272,308,313,322,325,332,350,358,381,386,389,391,401,408,416,422,430,464,470,484,487,500,508,525,533,534,541,547,560,583,587,599,608,615,628,641,649,653,663,676,689",
			"name": "Numbers k such that 2^k contains 2^8=256 as its largest proper substring of the form 2^m.",
			"example": [
				"2^108 = 324518553658426726783156020576{256}."
			],
			"xref": [
				"Cf. A033921."
			],
			"keyword": "nonn,base",
			"offset": "1,1",
			"author": "_Patrick De Geest_, Jun 15 1998",
			"references": 0,
			"revision": 12,
			"time": "2019-10-13T23:14:08-04:00",
			"created": "1999-12-11T03:00:00-05:00"
		}
	]
}