{
	"greeting": "Greetings from The On-Line Encyclopedia of Integer Sequences! http://oeis.org/",
	"query": "id:A046830",
	"count": 1,
	"start": 0,
	"results": [
		{
			"number": 46830,
			"data": "1,5,6,11,25,76,95,96,101,105,125,205,305,371,376,405,441,501,505,506,525,601,605,625,676,705,756,805,825,826,905,946,976,995,996,1001,1005,1006,1011,1021,1025,1026,1036,1046,1101,1105,1201,1205,1276,1305,1316",
			"name": "Digits of n^2 include digits of n as subsequence, n does not end in 0.",
			"keyword": "nonn,base",
			"offset": "1,2",
			"author": "_David W. Wilson_",
			"references": 0,
			"revision": 5,
			"time": "2012-03-30T18:35:36-04:00",
			"created": "1999-12-11T03:00:00-05:00"
		}
	]
}