{
	"greeting": "Greetings from The On-Line Encyclopedia of Integer Sequences! http://oeis.org/",
	"query": "id:A046118",
	"count": 1,
	"start": 0,
	"results": [
		{
			"number": 46118,
			"data": "7,17,31,47,67,97,101,151,167,227,257,271,347,367,557,587,607,647,727,941,971,1097,1117,1181,1217,1277,1291,1361,1427,1447,1487,1607,1657,1747,1777,1867,1901,1987,2131,2281,2377,2411,2677,2687,2707,2791,2897,2957",
			"name": "Smallest member of a sexy prime triple: value of p such that p, p+6 and p+12 are all prime, but p+18 is not (although p-6 might be).",
			"comment": [
				"p-6 will be prime if the prime triple contains the last 3 primes of a sexy prime quadruple.",
				"If a sexy prime triple happens to include the last 3 members of a sexy prime quadruple, this sequence will contain the sexy prime triple's smallest member; e.g., a(4)=47 is the smallest member of the sexy prime triple (47, 53, 59), but is also the second member of the sexy prime quadruple (41, 47, 53, 59). - _Daniel Forgues_, Aug 05 2009"
			],
			"link": [
				"Eric M. Schmidt, \u003ca href=\"/A046118/b046118.txt\"\u003eTable of n, a(n) for n = 1..1000\u003c/a\u003e",
				"Maxie D. Schmidt, \u003ca href=\"https://arxiv.org/abs/1701.04741\"\u003eNew Congruences and Finite Difference Equations for Generalized Factorial Functions\u003c/a\u003e, arXiv:1701.04741 [math.CO], 2017.",
				"Eric Weisstein's World of Mathematics, \u003ca href=\"http://mathworld.wolfram.com/SexyPrimes.html\"\u003eSexy Primes\u003c/a\u003e. [The definition in this webpage is unsatisfactory, because it defines a \"sexy prime\" as a pair of primes.- _N. J. A. Sloane_, Mar 07 2021]."
			],
			"mathematica": [
				"lst={};Do[p=Prime[n];If[PrimeQ[p+6]\u0026\u0026PrimeQ[p+12]\u0026\u0026!PrimeQ[p+18], AppendTo[lst, p]], {n, 7!}];lst (* _Vladimir Joseph Stephan Orlovsky_, Aug 29 2008 *)",
				"Select[Prime[Range[500]],AllTrue[#+{6,12},PrimeQ]\u0026\u0026CompositeQ[#+18]\u0026] (* Requires Mathematica version 10 or later *) (* _Harvey P. Dale_, May 11 2019 *)"
			],
			"program": [
				"(PARI) lista(nn) = forprime(p=3, nn, if (isprime(p+6) \u0026\u0026 isprime(p+12) \u0026\u0026 !isprime(p+18), print1(p, \", \"));); \\\\ _Michel Marcus_, Jan 06 2015",
				"(MAGMA) [p: p in PrimesUpTo(5000) | not IsPrime(p+18) and IsPrime(p+6) and IsPrime(p+12)]; // _Vincenzo Librandi_, Sep 07 2017"
			],
			"xref": [
				"Cf. A023201, A046117.",
				"Cf. A046119, A046120."
			],
			"keyword": "nonn",
			"offset": "1,1",
			"author": "_Eric W. Weisstein_",
			"ext": [
				"Definition edited by _Daniel Forgues_, Aug 12 2009",
				"More terms from _Eric M. Schmidt_, Sep 07 2017"
			],
			"references": 8,
			"revision": 28,
			"time": "2021-03-07T00:56:09-05:00",
			"created": "1999-12-11T03:00:00-05:00"
		}
	]
}