{
	"greeting": "Greetings from The On-Line Encyclopedia of Integer Sequences! http://oeis.org/",
	"query": "id:A046362",
	"count": 1,
	"start": 0,
	"results": [
		{
			"number": 46362,
			"data": "4,1345431,12333321,1425665241,12026255262021,35686666668653,40181955918104,128449444944821,146426787624641,651751101157156,1734573883754371,2313421221243132,6858874224788586,9889882002889889,12446686768664421,23265253035256232,30153338083335103",
			"name": "Composite palindromes divided by the palindromic sum of their prime factors is a palindrome (counted with multiplicity).",
			"link": [
				"Giovanni Resta, \u003ca href=\"/A046362/b046362.txt\"\u003eTable of n, a(n) for n = 1..39\u003c/a\u003e (terms \u003c 10^19)"
			],
			"example": [
				"1345431 = 3 * 17 * 23 * 31 * 37 -\u003e Sum of factors is palindrome 111 -\u003e 1345431 / 111 = 12121 and quotient is also palindromic."
			],
			"xref": [
				"Cf. A046358, A046361."
			],
			"keyword": "nonn,base",
			"offset": "1,1",
			"author": "_Patrick De Geest_, Jun 15 1998",
			"ext": [
				"Edited name and a(5)-a(12) from _Donovan Johnson_, Oct 11 2011",
				"a(13)-a(17) from _Giovanni Resta_, Nov 01 2019"
			],
			"references": 2,
			"revision": 14,
			"time": "2019-11-01T10:32:45-04:00",
			"created": "1999-12-11T03:00:00-05:00"
		}
	]
}