{
	"greeting": "Greetings from The On-Line Encyclopedia of Integer Sequences! http://oeis.org/",
	"query": "id:A046533",
	"count": 1,
	"start": 0,
	"results": [
		{
			"number": 46533,
			"data": "1,1,1,1,1,1,1,1,1,1,1,1,1,3,3,1,1,1,1,5,1,3,5,1,1,1,1,7,11,11,7,1,1,1,1,9,1,9,1,11,1,9,9,1,1,1,1,11,27,1,20,1,20,27,11,1,1,1,1,13,1,19,67,1,40,67,1,19,13,1,1,1,1,15,51",
			"name": "First denominator and then numerator of 1/2-Pascal triangle (by row), excluding 2's.",
			"example": [
				"1/1;",
				"1/1 1/1;",
				"1/1 1/2 1/1;",
				"1/1 3/2 3/2 1/1;",
				"1/1 5/2 3/1 5/2 1/1;",
				"1/1 7/2 11/2 11/2 7/2 1/1;",
				"1/1 9/2 9/1 11/1 9/1 9/2 1/1;",
				"1/1 11/2 27/2 20/1 20/1 27/2 11/2 1/1; ...",
				"with numerator/denominator exchange and without the 2's."
			],
			"xref": [
				"Cf. A046213."
			],
			"keyword": "tabf,nonn,less",
			"offset": "1,14",
			"author": "_Mohammad K. Azarian_",
			"references": 0,
			"revision": 10,
			"time": "2013-06-22T16:05:39-04:00",
			"created": "1999-12-11T03:00:00-05:00"
		}
	]
}