{
	"greeting": "Greetings from The On-Line Encyclopedia of Integer Sequences! http://oeis.org/",
	"query": "id:A046307",
	"count": 1,
	"start": 0,
	"results": [
		{
			"number": 46307,
			"data": "128,192,256,288,320,384,432,448,480,512,576,640,648,672,704,720,768,800,832,864,896,960,972,1008,1024,1056,1080,1088,1120,1152,1200,1216,1248,1280,1296,1344,1408,1440,1458,1472,1512,1536,1568,1584,1600,1620",
			"name": "Numbers that are divisible by at least 7 primes (counted with multiplicity).",
			"link": [
				"Harvey P. Dale, \u003ca href=\"/A046307/b046307.txt\"\u003eTable of n, a(n) for n = 1..1000\u003c/a\u003e"
			],
			"formula": [
				"Product p_i^e_i with Sum e_i \u003e= 7."
			],
			"mathematica": [
				"Select[Range[2000],PrimeOmega[#]\u003e6\u0026] (* _Harvey P. Dale_, Nov 16 2012 *)"
			],
			"program": [
				"(PARI) is(n)=bigomega(n)\u003e6 \\\\ _Charles R Greathouse IV_, Sep 17 2015"
			],
			"xref": [
				"Cf. A046308."
			],
			"keyword": "nonn",
			"offset": "1,1",
			"author": "_Patrick De Geest_, Jun 15 1998",
			"references": 3,
			"revision": 11,
			"time": "2019-10-10T22:55:37-04:00",
			"created": "1999-12-11T03:00:00-05:00"
		}
	]
}