{
	"greeting": "Greetings from The On-Line Encyclopedia of Integer Sequences! http://oeis.org/",
	"query": "id:A046890",
	"count": 1,
	"start": 0,
	"results": [
		{
			"number": 46890,
			"data": "1,2,13,113,149,1013,1039,1247,1123,1349,1579,1237,10127,10238,10139,10235,10234,10457,11579,10789,10237,11239,12457,10279,12349,12347,13678,12359,14579,13489,10379,12367,12389,23579,13579,100349,12379",
			"name": "a(n) has exactly n anagrams that are primes.",
			"comment": [
				"An anagram is a permutation of digits not beginning with 0."
			],
			"link": [
				"Chai Wah Wu, \u003ca href=\"/A046890/b046890.txt\"\u003eTable of n, a(n) for n = 0..511\u003c/a\u003e"
			],
			"mathematica": [
				"ap[n_] := Count[FromDigits /@ Select[Permutations[IntegerDigits[n]], First[#] != 0 \u0026], _?PrimeQ]; t = {1}; Do[i = 1; While[ap[i] != n, i++]; AppendTo[t, i], {n, 30}]; t (* _Jayanta Basu_, Jun 29 2013 *)"
			],
			"xref": [
				"Cf. A046810."
			],
			"keyword": "nonn,base",
			"offset": "0,2",
			"author": "_David W. Wilson_",
			"references": 1,
			"revision": 14,
			"time": "2017-01-02T19:53:13-05:00",
			"created": "1999-12-11T03:00:00-05:00"
		}
	]
}