{
	"greeting": "Greetings from The On-Line Encyclopedia of Integer Sequences! http://oeis.org/",
	"query": "id:A046493",
	"count": 1,
	"start": 0,
	"results": [
		{
			"number": 46493,
			"data": "23,383,463,523,857,1039,1109,1483,1867,2341,2503,12149,32413,37963,38873,39983,43013,44533,52103,53623,56053,59273,90709,91309,91909,93329,94849,96259,111409,180007,215461,219001,219911,224351,233941",
			"name": "Primes expressible as the sum of 3 consecutive palindromic primes.",
			"link": [
				"P. De Geest, \u003ca href=\"http://www.worldofnumbers.com/palpri.htm\"\u003eWorld!Of Palindromic Primes\u003c/a\u003e"
			],
			"example": [
				"12149 = 919 + 929 + 10301."
			],
			"mathematica": [
				"palQ[n_] := Reverse[x = IntegerDigits[n]] == x; t = Select[Prime[Range[7750]], palQ]; Select[Total /@ Partition[t, 3, 1], PrimeQ] (* _Jayanta Basu_, Jun 26 2013 *)"
			],
			"xref": [
				"Cf. A000040, A002385."
			],
			"keyword": "nonn,base",
			"offset": "1,1",
			"author": "_Patrick De Geest_, Sep 15 1998",
			"references": 0,
			"revision": 11,
			"time": "2019-10-12T23:35:58-04:00",
			"created": "1999-12-11T03:00:00-05:00"
		}
	]
}