{
	"greeting": "Greetings from The On-Line Encyclopedia of Integer Sequences! http://oeis.org/",
	"query": "id:A046577",
	"count": 1,
	"start": 0,
	"results": [
		{
			"number": 46577,
			"data": "4,5,4,9,4,19,4,13,8,4,17,2,35,4,49,4,21,4,119,2,35,4,25,4,259,4,189,4,95,4,29,112,71,31,4,33,2,483,183,102,4,157,4,37,2,849,285,4,565,2,97,4,41,2,1815,2,1419,4,1705,4,759,4,235,4,45,1617,4,4543,616,2,497,70,4",
			"name": "First denominator and then numerator of the elements to the right of the central elements of the 1/4-Pascal triangle (by row), excluding 1's.",
			"example": [
				"1/1; 1/1 1/1; 1/1 1/4 1/1; 1/1 5/4 5/4 1/1; 1/1 9/4 5/2 9/4 1/1; 1/1 13/4 19/4 19/4 13/4 1/1; 1/1 17/4 8/1 19/2 8/1 17/4 1/1; 1/1 21/4 49/4 35/2 35/2 49/4 21/4 1/1; ..."
			],
			"xref": [
				"Cf. A046563."
			],
			"keyword": "nonn",
			"offset": "1,1",
			"author": "_Mohammad K. Azarian_",
			"ext": [
				"More terms from _James A. Sellers_, Dec 14 1999"
			],
			"references": 0,
			"revision": 8,
			"time": "2013-06-22T16:05:40-04:00",
			"created": "1999-12-11T03:00:00-05:00"
		}
	]
}