{
	"greeting": "Greetings from The On-Line Encyclopedia of Integer Sequences! http://oeis.org/",
	"query": "id:A046039",
	"count": 1,
	"start": 0,
	"results": [
		{
			"number": 46039,
			"data": "2,3,4,5,6,7,8,9,10,11,12,13,14,15,18,19,20,21,22,23,24,25,26,27,28,29,30,31,32,33,34,35,36,37,38,39,40,41,42,43,44,45,46,47,48,49,50,51,52,53,54,55,56,57,58,59,60,61,62,63,64,65,66,67,68,69,70,71,72,73,74",
			"name": "Numbers which cannot be represented as a sum of distinct 4th powers.",
			"comment": [
				"Last term is a(889576) = 5134240. [_Charles R Greathouse IV_, Feb 26 2012]"
			],
			"link": [
				"Vaclav Kotesovec, \u003ca href=\"/A046039/b046039.txt\"\u003eTable of n, a(n) for n = 1..60000\u003c/a\u003e",
				"Eric Weisstein's World of Mathematics, \u003ca href=\"http://mathworld.wolfram.com/BiquadraticNumber.html\"\u003eBiquadratic Number\u003c/a\u003e"
			],
			"mathematica": [
				"max = 2000; f[x_] := Product[1 + x^(k^4), {k, 1, 10}]; A003999 = Exponent[#, x]\u0026 /@ List @@ Normal[Series[f[x], {x, 0, max}]] // Rest; A046039 = Complement[Range[max], A003999][[1 ;; 71]](* _Jean-François Alcover_, Nov 09 2012, after _Charles R Greathouse IV_ *)"
			],
			"program": [
				"(PARI) select( is_A046039(n,m=n)={m^4\u003en\u0026\u0026 m=sqrtnint(n,4); n!=m^4\u0026\u0026 !while(m\u003e1, is_A046039(n-m^4, m--)||return)}, [1..74]) \\\\ _M. F. Hasler_, Apr 21 2020"
			],
			"xref": [
				"Cf. A001422, A001476. Complement of A003999.",
				"Cf. A279487."
			],
			"keyword": "nonn,fini",
			"offset": "1,1",
			"author": "_Eric W. Weisstein_",
			"references": 7,
			"revision": 25,
			"time": "2020-04-21T12:51:36-04:00",
			"created": "1999-12-11T03:00:00-05:00"
		}
	]
}