{
	"greeting": "Greetings from The On-Line Encyclopedia of Integer Sequences! http://oeis.org/",
	"query": "id:A046042",
	"count": 1,
	"start": 0,
	"results": [
		{
			"number": 46042,
			"data": "1,1,1,1,1,1,1,1,1,1,1,1,1,1,1,2,2,2,2,2,2,2,2,2,2,2,2,2,2,2,2,3,3,3,3,3,3,3,3,3,3,3,3,3,3,3,3,4,4,4,4,4,4,4,4,4,4,4,4,4,4,4,4,5,5,5,5,5,5,5,5,5,5,5,5,5,5,5,5,6,7,7,7,7,7,7,7,7,7,7,7,7,7,7,7,8,9,9,9,9,9,9",
			"name": "Number of partitions of n into fourth powers.",
			"comment": [
				"In general, the number of partitions of n into perfect s-th powers (s\u003e=1) is asymptotic to (2*Pi)^(-(s+1)/2) * sqrt(s/(s+1)) * k * n^(1/(s+1)-3/2) * exp((s+1)*k*n^(1/(s+1))), where k = (Gamma(1 + 1/s) * Zeta(1 + 1/s) / s)^(s/(s+1)) [Hardy \u0026 Ramanujan, 1917]. - _Vaclav Kotesovec_, Dec 29 2016"
			],
			"reference": [
				"H. P. Robinson, Letter to N. J. A. Sloane, Jan 04 1974."
			],
			"link": [
				"Alois P. Heinz, \u003ca href=\"/A046042/b046042.txt\"\u003eTable of n, a(n) for n = 1..10000\u003c/a\u003e",
				"G. H. Hardy and S. Ramanujan, \u003ca href=\"http://ramanujan.sirinudi.org/Volumes/published/ram33.html\"\u003eAsymptotic formulae in combinatory analysis\u003c/a\u003e, Proceedings of the London Mathematical Society, 2, XVI, 1917, p. 373.",
				"Herman P. Robinson, \u003ca href=\"/A003105/a003105.pdf\"\u003eLetter to N. J. A. Sloane, Jan 1974\u003c/a\u003e.",
				"Eric Weisstein's World of Mathematics, \u003ca href=\"http://mathworld.wolfram.com/Partition.html\"\u003ePartition\u003c/a\u003e"
			],
			"formula": [
				"G.f.: -1+1/product(1-x^(j^4),j=1..infinity). - _Emeric Deutsch_, Apr 06 2006",
				"a(n) ~ exp(5 * (Gamma(1/4)*Zeta(5/4))^(4/5) * n^(1/5) / 2^(16/5)) * (Gamma(1/4)*Zeta(5/4))^(4/5) / (2^(47/10) * sqrt(5) * Pi^(5/2) * n^(13/10)) [Hardy \u0026 Ramanujan, 1917]. - _Vaclav Kotesovec_, Dec 29 2016",
				"G.f.: Sum_{i\u003e=1} x^(i^4) / Product_{j=1..i} (1 - x^(j^4)). - _Ilya Gutkovskiy_, May 07 2017"
			],
			"example": [
				"a(33) = 3 because we have [16,16,1], [16,1,1,...,1] (17 1's) and [1,1,...,1] (33 1's))."
			],
			"maple": [
				"g:=-1+1/product(1-x^(j^4),j=1..10): gser:=series(g,x=0,105): seq(coeff(gser,x,n),n=1..102); # _Emeric Deutsch_, Apr 06 2006"
			],
			"mathematica": [
				"g = -1 + 1/Product[1 - x^(j^4), {j, 1, 10}]; gser =",
				"Series[g, {x, 0, 105}]; Table[Coefficient[gser, x, n], {n, 1, 102}] (* _Jean-François Alcover_, Oct 29 2012, after _Emeric Deutsch_ *)"
			],
			"program": [
				"(Haskell)",
				"a046042 = p $ tail a000583_list where",
				"   p _          0 = 1",
				"   p ks'@(k:ks) m = if m \u003c k then 0 else p ks' (m - k) + p ks m",
				"-- _Reinhard Zumkeller_, May 18 2015   ~"
			],
			"xref": [
				"Cf. A000583, A002377, A003105.",
				"Cf. A001156, A003108, A046042.",
				"Cf. A037444, A259792, A259793."
			],
			"keyword": "nonn",
			"offset": "1,16",
			"author": "_Eric W. Weisstein_",
			"references": 15,
			"revision": 38,
			"time": "2017-06-14T19:15:07-04:00",
			"created": "1999-12-11T03:00:00-05:00"
		}
	]
}