{
	"greeting": "Greetings from The On-Line Encyclopedia of Integer Sequences! http://oeis.org/",
	"query": "id:A046784",
	"count": 1,
	"start": 0,
	"results": [
		{
			"number": 46784,
			"data": "0,0,0,0,0,0,0,0,0,0,0,0,1,0,0,1,0,4,1,0,5,1,10,5,2,15,5,22,16,9,37,16,45,42,30,80,44,91,96,80,162,105,183,202,192,314,232,367,402,418,597,483,725,772,862,1115,966,1408,1445,1690,2066,1869,2672,2663,3209,3777",
			"name": "Number of partitions of n with equal nonzero number of parts congruent to each of 0, 1, 2 and 4 (mod 5).",
			"link": [
				"Andrew Howroyd, \u003ca href=\"/A046784/b046784.txt\"\u003eTable of n, a(n) for n = 0..1000\u003c/a\u003e"
			],
			"formula": [
				"G.f.: (Sum_{k\u003e0} x^(12*k)/(Product_{j=1..k} 1 - x^(5*j))^3)/(Product_{j\u003e=0} 1 - x^(5*j+3)). - _Andrew Howroyd_, Sep 16 2019"
			],
			"program": [
				"(PARI) seq(n)={Vec(sum(k=1, n\\12, x^(12*k)/prod(j=1, k, 1 - x^(5*j) + O(x*x^(n-12*k)))^4)/prod(j=0, n\\5, 1 - x^(5*j+3) + O(x*x^n)), -(n+1))} \\\\ _Andrew Howroyd_, Sep 16 2019"
			],
			"xref": [
				"Cf. A046787."
			],
			"keyword": "nonn",
			"offset": "0,18",
			"author": "_David W. Wilson_",
			"references": 2,
			"revision": 9,
			"time": "2019-09-16T19:55:51-04:00",
			"created": "1999-12-11T03:00:00-05:00"
		}
	]
}