{
	"greeting": "Greetings from The On-Line Encyclopedia of Integer Sequences! http://oeis.org/",
	"query": "id:A046856",
	"count": 1,
	"start": 0,
	"results": [
		{
			"number": 46856,
			"data": "1,2,630,81729648000,256963707943060088053923840000000,30978254928194376001814792318154658399137088909801072314160618743948902400000000000000",
			"name": "a(n) = (2^n)!/4^n, with a(1)=1, a(2)=2.",
			"comment": [
				"The next term has 212 digits. - _Harvey P. Dale_, May 31 2021"
			],
			"link": [
				"C. S. Lorens, \u003ca href=\"http://dx.doi.org/10.1109/PGEC.1964.263724\"\u003eInvertible Boolean functions\u003c/a\u003e, IEEE Trans. Electron. Computers, EC-13 (1964), 529-541.",
				"C. S. Lorens, \u003ca href=\"/A000722/a000722.pdf\"\u003eInvertible Boolean functions\u003c/a\u003e, IEEE Trans. Electron. Computers, EC-13 (1964), 529-541. [Annotated scan of page 530 only]"
			],
			"maple": [
				"a:= n-\u003e ceil((2^n)!/4^n):",
				"seq(a(n), n=1..6);  # _Alois P. Heinz_, May 31 2021"
			],
			"mathematica": [
				"Join[{1,2},Table[(2^n)!/4^n,{n,3,6}]] (* _Harvey P. Dale_, May 31 2021 *)"
			],
			"keyword": "nonn,easy",
			"offset": "1,2",
			"author": "_N. J. A. Sloane_",
			"references": 3,
			"revision": 19,
			"time": "2021-05-31T16:58:56-04:00",
			"created": "1999-12-11T03:00:00-05:00"
		}
	]
}