{
	"greeting": "Greetings from The On-Line Encyclopedia of Integer Sequences! http://oeis.org/",
	"query": "id:A046085",
	"count": 1,
	"start": 0,
	"results": [
		{
			"number": 46085,
			"data": "14,17,21,30,33,34,39,42,46,55,57,70,73,78,82,85,93,97,102,130,133,142,155,177,190,193,195,203,219,253,259,291,323,355,435,483,555,595,627,667,715,723,763,795,955,1003,1027,1227,1243,1387,1411,1435,1507,1555",
			"name": "Numbers n such that Q(sqrt(-n)) has class number 4.",
			"comment": [
				"Contains 54 numbers [Arno, Theorem 7], ..., 1387, 1411, 1435, 1507 and 1555. [_R. J. Mathar_, May 01 2010]"
			],
			"link": [
				"Steven Arno, \u003ca href=\"http://matwbn.icm.edu.pl/ksiazki/aa/aa60/aa6042.pdf\"\u003eThe imaginary quadratic fields of class number 4\u003c/a\u003e, Acta Arithm. vol 60 issue 4 (1991).",
				"Steven Arno, M. L. Robinson, Ferrell S. Wheeler, \u003ca href=\"http://matwbn.icm.edu.pl/ksiazki/aa/aa83/aa8341.pdf\"\u003eImaginary quadratic fields with small odd class number\u003c/a\u003e, Acta Arith. 83 (1998) 295-330.",
				"Keith Matthews, \u003ca href=\"http://www.numbertheory.org/classnos/\"\u003eTables of imaginary quadratic fields with small class numbers\u003c/a\u003e",
				"Eric Weisstein's World of Mathematics, \u003ca href=\"http://mathworld.wolfram.com/PythagoreanTriple.html\"\u003ePythagorean Triple.\u003c/a\u003e",
				"\u003ca href=\"/index/Qua#quadfield\"\u003eIndex entries for sequences related to quadratic fields\u003c/a\u003e"
			],
			"program": [
				"For PARI code see A005847"
			],
			"xref": [
				"See A003173, A005847, A006203, A046085, A046002, A055109, A046004, A055110, A046006, A055111 for class numbers 1 through 10."
			],
			"keyword": "nonn,fini,full",
			"offset": "1,1",
			"author": "_N. J. A. Sloane_, Jun 16 2000",
			"references": 6,
			"revision": 23,
			"time": "2018-12-25T11:29:40-05:00",
			"created": "1999-12-11T03:00:00-05:00"
		}
	]
}