{
	"greeting": "Greetings from The On-Line Encyclopedia of Integer Sequences! http://oeis.org/",
	"query": "id:A046525",
	"count": 1,
	"start": 0,
	"results": [
		{
			"number": 46525,
			"data": "2,8,12,18,24,36,40,56,60,72,80,84,96,108,132,180,240,252,288,360,480,504,720,1260",
			"name": "Numbers common to A033950 and A034884.",
			"mathematica": [
				"Select[Range[1265], Mod[#, x = DivisorSigma[0, #]] == 0 \u0026\u0026 # \u003c x^2 \u0026] (* _Jayanta Basu_, Jun 27 2013 *)"
			],
			"xref": [
				"Cf. A035033, A036763, A046526."
			],
			"keyword": "nonn,fini,full",
			"offset": "1,1",
			"author": "_Labos Elemer_",
			"references": 1,
			"revision": 7,
			"time": "2013-10-15T22:30:20-04:00",
			"created": "1999-12-11T03:00:00-05:00"
		}
	]
}