{
	"greeting": "Greetings from The On-Line Encyclopedia of Integer Sequences! http://oeis.org/",
	"query": "id:A046515",
	"count": 1,
	"start": 0,
	"results": [
		{
			"number": 46515,
			"data": "6788,6878,6887,7688,7868,7886,8678,8687,8768,8786,8867,8876,16788,16878,16887,17688,17868,17886,18678,18687,18768,18786,18867,18876,23788,23878,23887,24678,24687,24768,24786,24867,24876,26478,26487",
			"name": "Numbers with multiplicative persistence value 6.",
			"link": [
				"Robert Israel, \u003ca href=\"/A046515/b046515.txt\"\u003eTable of n, a(n) for n = 1..10000\u003c/a\u003e",
				"Eric Weisstein's World of Mathematics, \u003ca href=\"http://mathworld.wolfram.com/MultiplicativePersistence.html\"\u003eMultiplicative Persistence\u003c/a\u003e"
			],
			"example": [
				"6788 -\u003e [ 2688 ][ 768 ][ 336 ][ 54 ][ 20 ][ 0 ] -\u003e one digit in six steps."
			],
			"maple": [
				"mp:= proc(n) option remember;",
				"    if n \u003c= 9 then return 0 fi;",
				"    1+procname(convert(convert(n,base,10),`*`))",
				"end proc:",
				"select(mp=6, [$1..30000]); # _Robert Israel_, Feb 12 2019"
			],
			"xref": [
				"Cf. A003001, A014120, A046506."
			],
			"keyword": "nonn,base",
			"offset": "1,1",
			"author": "_Patrick De Geest_, Sep 15 1998",
			"ext": [
				"Offset corrected by _Robert Israel_, Feb 12 2019"
			],
			"references": 3,
			"revision": 13,
			"time": "2019-10-13T23:24:35-04:00",
			"created": "1999-12-11T03:00:00-05:00"
		}
	]
}