{
	"greeting": "Greetings from The On-Line Encyclopedia of Integer Sequences! http://oeis.org/",
	"query": "id:A047742",
	"count": 1,
	"start": 0,
	"results": [
		{
			"number": 47742,
			"data": "2,3,4,4,5,5,6,6,7,7,7,8,8,9,9,9,10,10,10,11,11,11,12,12,12,13,13,13,13,14,14,14,15,15,15,15,16,16,16,17,17,17,17,18,18,18,18,19,19,19,19,20,20,20,20,21,21,21,21,22,22,22,22,23,23,23,23,24",
			"name": "A discrete analog of Li(n): ceiling(Sum_{k=2..n} 1/log(k)).",
			"keyword": "nonn",
			"offset": "2,1",
			"author": "_N. J. A. Sloane_",
			"references": 0,
			"revision": 9,
			"time": "2019-06-27T06:15:26-04:00",
			"created": "1999-12-11T03:00:00-05:00"
		}
	]
}