{
	"greeting": "Greetings from The On-Line Encyclopedia of Integer Sequences! http://oeis.org/",
	"query": "id:A047399",
	"count": 1,
	"start": 0,
	"results": [
		{
			"number": 47399,
			"data": "0,3,6,8,11,14,16,19,22,24,27,30,32,35,38,40,43,46,48,51,54,56,59,62,64,67,70,72,75,78,80,83,86,88,91,94,96,99,102,104,107,110,112,115,118,120,123,126,128,131,134,136,139,142,144,147,150,152,155,158",
			"name": "Numbers that are congruent to {0, 3, 6} mod 8.",
			"link": [
				"Vincenzo Librandi, \u003ca href=\"/A047399/b047399.txt\"\u003eTable of n, a(n) for n = 1..10000\u003c/a\u003e",
				"\u003ca href=\"/index/Rec#order_04\"\u003eIndex entries for linear recurrences with constant coefficients\u003c/a\u003e, signature (1,0,1,-1)."
			],
			"formula": [
				"a(n) = a(n-1) + a(n-3) - a(n-4) for n\u003e4.",
				"a(n) = floor((8*n-6)/3). [_Gary Detlefs_, Mar 07 2010]",
				"a(n) = 3*n-floor(n/3). [_Gary Detlefs_, Jul 09 2011]",
				"G.f. x^2*(3+3*x+2*x^2) / ((1+x+x^2)*(x-1)^2). - _R. J. Mathar_, Oct 08 2011",
				"From _Wesley Ivan Hurt_, Jun 13 2016: (Start)",
				"a(n) = (24*n-21+3*cos(2*n*Pi/3)-sqrt(3)*sin(2*n*Pi/3))/9.",
				"a(3k) = 8k-2, a(3k-1) = 8k-5, a(3k-2) = 8k-8. (End)"
			],
			"maple": [
				"seq(floor((8*n-6)/3), n=1..52); # _Gary Detlefs_, Mar 07 2010"
			],
			"mathematica": [
				"f[n_] := 3 n - Floor[n/3]; Array[f, 52, 0] (* Or *)",
				"Cases[ Range[0, 136], n_ /; MatchQ[ Mod[n, 8], 0 | 3 | 6]] (* _Robert G. Wilson v_, Jul 10 2011 *)"
			],
			"program": [
				"(MAGMA) [Floor((8*n-6)/3): n in [1..60]]; // _Vincenzo Librandi_, Jul 11 2011"
			],
			"keyword": "nonn,easy",
			"offset": "1,2",
			"author": "_N. J. A. Sloane_",
			"references": 6,
			"revision": 24,
			"time": "2016-06-14T10:45:28-04:00",
			"created": "1999-12-11T03:00:00-05:00"
		}
	]
}