{
	"greeting": "Greetings from The On-Line Encyclopedia of Integer Sequences! http://oeis.org/",
	"query": "id:A047004",
	"count": 1,
	"start": 0,
	"results": [
		{
			"number": 47004,
			"data": "1,1,4,7,30,143,585,2420,9690,38779,153769,608925,2404100,9484317,37378622,147270615,580094570,2284987355,9001081353,35463025663,139747015800,550824207900,2171675252565,8564359325319,33784352403732",
			"name": "T(n,n-2), array T given by A047000.",
			"keyword": "nonn",
			"offset": "2,3",
			"author": "_Clark Kimberling_",
			"references": 0,
			"revision": 4,
			"time": "2012-03-30T18:56:51-04:00",
			"created": "1999-12-11T03:00:00-05:00"
		}
	]
}