{
	"greeting": "Greetings from The On-Line Encyclopedia of Integer Sequences! http://oeis.org/",
	"query": "id:A047333",
	"count": 1,
	"start": 0,
	"results": [
		{
			"number": 47333,
			"data": "1,2,3,5,6,8,9,10,12,13,15,16,17,19,20,22,23,24,26,27,29,30,31,33,34",
			"name": "Duplicate of A032796.",
			"keyword": "dead",
			"offset": "1,2",
			"references": 0,
			"revision": 3,
			"time": "2007-05-11T03:00:00-04:00",
			"created": "1999-12-11T03:00:00-05:00"
		}
	]
}