{
	"greeting": "Greetings from The On-Line Encyclopedia of Integer Sequences! http://oeis.org/",
	"query": "id:A047823",
	"count": 1,
	"start": 0,
	"results": [
		{
			"number": 47823,
			"data": "62,69,124,133,190,194,201,206,207,213,217,219,226,235,238,248,249,254,282,286,303,309,310,314,355,380,386,388,406,411,412,426,447,451,452,458,469,476,483,489,496,505,508,553,564,572,598,602,603,606,620,621",
			"name": "Becomes prime after exactly 4 iterations of f(x) = sum of prime factors of x.",
			"comment": [
				"f(x) = sum of prime factors without multiplicity, so that f(1500) = 2+3+5 = 10."
			],
			"link": [
				"Harvey P. Dale, \u003ca href=\"/A047823/b047823.txt\"\u003eTable of n, a(n) for n = 1..1000\u003c/a\u003e"
			],
			"mathematica": [
				"p4iQ[n_]:=PrimeQ[NestList[Total[Transpose[FactorInteger[#]][[1]]]\u0026, n,4]] == {False,False,False,False,True}; Select[Range[700],p4iQ] (* _Harvey P. Dale_, Aug 18 2013 *)"
			],
			"keyword": "nonn",
			"offset": "1,1",
			"author": "_David W. Wilson_",
			"references": 1,
			"revision": 7,
			"time": "2013-08-18T09:57:59-04:00",
			"created": "1999-12-11T03:00:00-05:00"
		}
	]
}