{
	"greeting": "Greetings from The On-Line Encyclopedia of Integer Sequences! http://oeis.org/",
	"query": "id:A047041",
	"count": 1,
	"start": 0,
	"results": [
		{
			"number": 47041,
			"data": "1,2,3,5,9,16,30,60,100,191,368,713,1370,2674,5348,9888,19333,37951,74626,146008,288038,576076,1100372,2170350,4290958,8490063,16742078,33186996,66373992,128763352,255105237,506218479,1004926765,1990177172",
			"name": "Sum{T(i,n-i): i=0,1,...,n}, array T as in A047040; Sum{T(i,n-i): i=0,1,...,n}, array T given by A047050.",
			"keyword": "nonn",
			"offset": "0,2",
			"author": "_Clark Kimberling_",
			"references": 0,
			"revision": 5,
			"time": "2012-03-30T18:56:51-04:00",
			"created": "1999-12-11T03:00:00-05:00"
		}
	]
}