{
	"greeting": "Greetings from The On-Line Encyclopedia of Integer Sequences! http://oeis.org/",
	"query": "id:A047353",
	"count": 1,
	"start": 0,
	"results": [
		{
			"number": 47353,
			"data": "1,2,8,9,15,16,22,23,29,30,36,37,43,44,50,51,57,58,64,65,71,72,78,79,85,86,92,93,99,100,106,107,113,114,120,121,127,128,134,135,141,142,148,149,155,156,162,163,169,170",
			"name": "Numbers that are congruent to {1, 2} mod 7.",
			"link": [
				"\u003ca href=\"/index/Rec#order_03\"\u003eIndex entries for linear recurrences with constant coefficients\u003c/a\u003e, signature (1,1,-1)."
			],
			"formula": [
				"From _R. J. Mathar_, Oct 08 2011: (Start)",
				"a(n) = 7*n/2 - 15/4 - 5*(-1)^n/4.",
				"G.f.: x*(1 + x + 5*x^2) / ( (1+x)*(x-1)^2 ). (End)"
			],
			"mathematica": [
				"LinearRecurrence[{1,1,-1},{1,2,8},50] (* _Harvey P. Dale_, Nov 29 2014 *)"
			],
			"keyword": "nonn,easy",
			"offset": "1,2",
			"author": "_N. J. A. Sloane_",
			"references": 1,
			"revision": 24,
			"time": "2020-03-07T08:55:37-05:00",
			"created": "1999-12-11T03:00:00-05:00"
		}
	]
}