{
	"greeting": "Greetings from The On-Line Encyclopedia of Integer Sequences! http://oeis.org/",
	"query": "id:A047967",
	"count": 1,
	"start": 0,
	"results": [
		{
			"number": 47967,
			"data": "0,0,1,1,3,4,7,10,16,22,32,44,62,83,113,149,199,259,339,436,563,716,913,1151,1453,1816,2271,2818,3496,4309,5308,6502,7959,9695,11798,14298,17309,20877,25151,30203,36225,43323,51748,61651,73359,87086,103254,122164",
			"name": "Number of partitions of n with some part repeated.",
			"comment": [
				"Also number of partitions of n with at least one even part. - _Vladeta Jovovic_, Sep 10 2003. Example: a(5)=4 because we have [4,1], [3,2], [2,2,1] and [2,1,1,1] ([5], [3,1,1] and [1,1,1,1,1] do not qualify). - _Emeric Deutsch_, Mar 30 2006",
				"Also number of partitions of n (where it is assumed that the least part is 0) such that at least one difference is at least two. Example: a(5)=4 because we have [5,0], [4,1,0], [3,2,0] and [3,1,1,0] ([2,2,1,0], [2,1,1,1,0] and [1,1,1,1,1,0] do not qualify). - _Emeric Deutsch_, Mar 30 2006",
				"The Heinz numbers of these partitions (with some part repeated) are given by A013929. Equivalent to Vladeta Jovovic's comment, a(n) is also the number of integer partitions whose product of parts is even. The Heinz numbers of these latter partitions are given by A324929. - _Gus Wiseman_, Mar 23 2019"
			],
			"link": [
				"Alois P. Heinz, \u003ca href=\"/A047967/b047967.txt\"\u003eTable of n, a(n) for n = 0..1000\u003c/a\u003e",
				"H. Bottomley, \u003ca href=\"/A000009/a000009.gif\"\u003eIllustration for A000009, A000041, A047967\u003c/a\u003e"
			],
			"formula": [
				"a(n) = A000041(n) - A000009(n).",
				"G.f.: sum(x^(2*k)*product(1+x^j, j=k+1..infinity)/product(1-x^j, j=1..k), k=1..infinity) = sum(x^(2k)/(product(1-x^j, j=1..2*k)*product(1-x^(2*j+1), j=k..infinity) ), k=1..infinity). - _Emeric Deutsch_, Mar 30 2006",
				"G.f.: 1/P(x) - P(x^2)/P(x) where P(x)=prod(k\u003e=1, 1-x^k ). - _Joerg Arndt_, Jun 21 2011"
			],
			"example": [
				"a(5) = 4 because we have [3,1,1], [2,2,1], [2,1,1,1] and [1,1,1,1,1] ([5], [4,1] and [3,2] do not qualify)."
			],
			"maple": [
				"g:=sum(x^(2*k)*product(1+x^j,j=k+1..70)/product(1-x^j,j=1..k),k=1..40): gser:=series(g,x=0,50): seq(coeff(gser,x,n),n=0..44); # _Emeric Deutsch_, Mar 30 2006"
			],
			"mathematica": [
				"Clear[fQ,fP,lst,n]; fQ[n_]:=PartitionsQ[n]; fP[n_]:=PartitionsP[n]; lst={};Do[AppendTo[lst,fP[n]-fQ[n]],{n,5!}];lst (* _Vladimir Joseph Stephan Orlovsky_, Sep 19 2009 *)",
				"Table[PartitionsP[n]-PartitionsQ[n],{n,0,50}] (* _Harvey P. Dale_, Jan 17 2019 *)"
			],
			"program": [
				"(PARI)  x='x+O('x^66); concat([0,0], Vec(1/eta(x)-eta(x^2)/eta(x))) \\\\ _Joerg Arndt_, Jun 21 2011"
			],
			"xref": [
				"Cf. A038348, A261982.",
				"Column k=1 of A320264.",
				"Cf. A324847, A324929, A324966, A324967."
			],
			"keyword": "nonn",
			"offset": "0,5",
			"author": "_N. J. A. Sloane_",
			"references": 36,
			"revision": 42,
			"time": "2019-03-26T21:04:48-04:00",
			"created": "1999-12-11T03:00:00-05:00"
		}
	]
}