{
	"greeting": "Greetings from The On-Line Encyclopedia of Integer Sequences! http://oeis.org/",
	"query": "id:A047660",
	"count": 1,
	"start": 0,
	"results": [
		{
			"number": 47660,
			"data": "1,1,0,1,2,40,0,703760,131328,300241541128192,0,28170013344558609991874248704,24595658799308603392,9502080486519653717758562294813775233459455787008,0",
			"name": "Number of self-complementary 2-plexes.",
			"link": [
				"E. M. Palmer, \u003ca href=\"http://dx.doi.org/10.1016/0012-365X(73)90069-1\"\u003eOn the number of n-plexes\u003c/a\u003e, Discrete Math., 6 (1973), 377-390."
			],
			"xref": [
				"Cf. A000171, A051251."
			],
			"keyword": "nonn,nice",
			"offset": "1,5",
			"author": "_N. J. A. Sloane_",
			"ext": [
				"More terms from _Vladeta Jovovic_"
			],
			"references": 2,
			"revision": 13,
			"time": "2017-06-24T13:53:20-04:00",
			"created": "1999-12-11T03:00:00-05:00"
		}
	]
}