{
	"greeting": "Greetings from The On-Line Encyclopedia of Integer Sequences! http://oeis.org/",
	"query": "id:A047291",
	"count": 1,
	"start": 0,
	"results": [
		{
			"number": 47291,
			"data": "0,1,4,6,7,8,11,13,14,15,18,20,21,22,25,27,28,29,32,34,35,36,39,41,42,43,46,48,49,50,53,55,56,57,60,62,63,64,67,69,70,71,74,76,77,78,81,83,84,85,88,90,91,92,95,97,98,99,102,104,105,106,109,111",
			"name": "Numbers that are congruent to {0, 1, 4, 6} mod 7.",
			"link": [
				"Vincenzo Librandi, \u003ca href=\"/A047291/b047291.txt\"\u003eTable of n, a(n) for n = 1..5000\u003c/a\u003e",
				"\u003ca href=\"/index/Rec#order_05\"\u003eIndex entries for linear recurrences with constant coefficients\u003c/a\u003e, signature (1,0,0,1,-1)."
			],
			"formula": [
				"From _Colin Barker_, Mar 13 2012: (Start)",
				"a(n) = a(n-1) + a(n-4) - a(n-5) for n\u003e5.",
				"G.f.: x^2*(1 + 3*x + 2*x^2 + x^3)/((1-x)^2*(1+x)*(1+x^2)). (End)",
				"a(n) = (-13 - (-1)^n + (3-i)*(-i)^n + (3+i)*i^n + 14*n)/8 where i=sqrt(-1). - _Colin Barker_, May 14 2012",
				"a(2k) = A047336(k), a(2k-1) = A047345(k). - _Wesley Ivan Hurt_, Jun 01 2016",
				"E.g.f.: (4 - sin(x) + 3*cos(x) + (7*x - 6)*sinh(x) + 7*(x - 1)*cosh(x))/4. - _Ilya Gutkovskiy_, Jun 01 2016"
			],
			"maple": [
				"A047291:=n-\u003e(-13-(-1)^n+(3-I)*(-I)^n+(3+I)*I^n+14*n)/8: seq(A047291(n), n=1..100); # _Wesley Ivan Hurt_, Jun 01 2016"
			],
			"mathematica": [
				"Select[Range[0,120], MemberQ[{0,1,4,6}, Mod[#,7]]\u0026] (* _Vincenzo Librandi_, Apr 26 2012 *)",
				"LinearRecurrence[{1,0,0,1,-1},{0,1,4,6,7},100] (* _G. C. Greubel_, Jun 01 2016 *)"
			],
			"program": [
				"(MAGMA) I:=[0, 1, 4, 6, 7]; [n le 5 select I[n] else Self(n-1)+Self(n-4)-Self(n-5): n in [1..70]]; // _Vincenzo Librandi_, Apr 26 2012",
				"(PARI) x='x+O('x^100); concat(0, Vec(x^2*(1+3*x+2*x^2+x^3)/((1-x)^2*(1+x)*(1+x^2)))) \\\\ _Altug Alkan_, Dec 24 2015"
			],
			"xref": [
				"Cf. A047336, A047345."
			],
			"keyword": "nonn,easy",
			"offset": "1,3",
			"author": "_N. J. A. Sloane_",
			"references": 1,
			"revision": 32,
			"time": "2016-06-02T02:32:36-04:00",
			"created": "1999-12-11T03:00:00-05:00"
		}
	]
}