{
	"greeting": "Greetings from The On-Line Encyclopedia of Integer Sequences! http://oeis.org/",
	"query": "id:A047138",
	"count": 1,
	"start": 0,
	"results": [
		{
			"number": 47138,
			"data": "1,4,14,48,179,656,2394,8744,32791,123188,463211,1744076,6632688,25303978,96699766,370030836,1422210560,5479757300,21147107145,81707846148,316422360163,1227500661756,4768032430608,18539704936398",
			"name": "a(n) = T(n,n+3), array T as in A047130.",
			"xref": [
				"Cf. A047130."
			],
			"keyword": "nonn",
			"offset": "0,2",
			"author": "_Clark Kimberling_",
			"ext": [
				"Definition corrected by _Georg Fischer_, Jan 20 2020"
			],
			"references": 1,
			"revision": 8,
			"time": "2020-01-20T08:18:26-05:00",
			"created": "1999-12-11T03:00:00-05:00"
		}
	]
}