{
	"greeting": "Greetings from The On-Line Encyclopedia of Integer Sequences! http://oeis.org/",
	"query": "id:A047705",
	"count": 1,
	"start": 0,
	"results": [
		{
			"number": 47705,
			"data": "1,3,6,7,12,15,22,23,24,26,31,32,35,36,38,41,42,51,52,53,55,59,64,68,75,77,78,80,82,86,87,91,92,94,97,100,101,102,107,111,116,119,120,125,127,128,131,137,144,146,147,151,154,159,161,163,164,165",
			"name": "First differences of A047699.",
			"link": [
				"Andrew Weimholt, \u003ca href=\"/A047705/b047705.txt\"\u003eTable of n, a(n) for n = 0..999\u003c/a\u003e",
				"K. S. Brown, \u003ca href=\"http://www.mathpages.com/home/kmath509/kmath509.htm\"\u003eExpulsion Sets\u003c/a\u003e"
			],
			"xref": [
				"Cf. A047699, A047706."
			],
			"keyword": "nonn",
			"offset": "0,2",
			"author": "_N. J. A. Sloane_",
			"ext": [
				"Corrected by _Zak Seidov_ and _Andrew Weimholt_, Jul 13 2010"
			],
			"references": 3,
			"revision": 10,
			"time": "2018-11-09T14:05:55-05:00",
			"created": "1999-12-11T03:00:00-05:00"
		}
	]
}