{
	"greeting": "Greetings from The On-Line Encyclopedia of Integer Sequences! http://oeis.org/",
	"query": "id:A047247",
	"count": 1,
	"start": 0,
	"results": [
		{
			"number": 47247,
			"data": "2,3,4,5,8,9,10,11,14,15,16,17,20,21,22,23,26,27,28,29,32,33,34,35,38,39,40,41,44,45,46,47,50,51,52,53,56,57,58,59,62,63,64,65,68,69,70,71,74,75,76,77,80,81,82,83,86,87,88,89,92,93,94,95,98,99",
			"name": "Numbers that are congruent to {2, 3, 4, 5} (mod 6).",
			"comment": [
				"The sequence is the interleaving of A047235 with A047270. - _Guenther Schrack_, Feb 10 2019"
			],
			"link": [
				"Guenther Schrack, \u003ca href=\"/A047247/b047247.txt\"\u003eTable of n, a(n) for n = 1..10015\u003c/a\u003e",
				"\u003ca href=\"/index/Rec#order_05\"\u003eIndex entries for linear recurrences with constant coefficients\u003c/a\u003e, signature (1,0,0,1,-1).",
				"\u003ca href=\"/index/Tu#2wis\"\u003eIndex entries for two-way infinite sequences\u003c/a\u003e."
			],
			"formula": [
				"G.f.: x*(2+x+x^2+x^3+x^4) / ( (1+x)*(1+x^2)*(1-x)^2 ). - _R. J. Mathar_, Oct 08 2011",
				"From _Wesley Ivan Hurt_, May 21 2016: (Start)",
				"a(n) = a(n-1) + a(n-4) - a(n-5) for n\u003e5.",
				"a(n) = (6*n - 1 - i^(2*n) - (1-i)*i^(-n) - (1+i)*i^n)/4 where i = sqrt(-1).",
				"a(2*n) = A047270(n), a(2*n-1) = A047235(n).",
				"a(n) = A047227(n) + 1, a(1-n) = - A047227(n). (End)",
				"From _Guenther Schrack_, Feb 10 2019: (Start)",
				"a(n) = (6*n - 1 - (-1)^n -2*(-1)^(n*(n+1)/2))/4.",
				"a(n) = a(n-4) + 6, a(1)=2, a(2)=3, a(3)=4, a(4)=5, for n \u003e 4.",
				"a(n) = A047227(n) + 1. a(n) = A047246(n) + 2. (End)",
				"Sum_{n\u003e=1} (-1)^(n+1)/a(n) = sqrt(3)*Pi/12 - 2*log(2)/3 + log(3)/4. - _Amiram Eldar_, Dec 17 2021"
			],
			"maple": [
				"A047247:=n-\u003e(6*n-1-I^(2*n)-(1-I)*I^(-n)-(1+I)*I^n)/4: seq(A047247(n), n=1..100); # _Wesley Ivan Hurt_, May 21 2016"
			],
			"mathematica": [
				"Table[(6n-1-I^(2n)-(1-I)*I^(-n)-(1+I)*I^n)/4, {n, 80}] (* _Wesley Ivan Hurt_, May 21 2016 *)"
			],
			"program": [
				"(MAGMA) [n : n in [0..100] | n mod 6 in [2, 3, 4, 5]]; // _Wesley Ivan Hurt_, May 21 2016",
				"(PARI) my(x='x+O('x^70)); Vec(x*(2+x+x^2+x^3+x^4)/((1-x)*(1-x^4))) \\\\ _G. C. Greubel_, Feb 16 2019",
				"(Sage) a=(x*(2+x+x^2+x^3+x^4)/((1-x)*(1-x^4))).series(x, 72).coefficients(x, sparse=False); a[1:] # _G. C. Greubel_, Feb 16 2019"
			],
			"xref": [
				"Cf. A047227, A047235, A047246, A047270.",
				"Complement: A047225."
			],
			"keyword": "nonn,easy",
			"offset": "1,1",
			"author": "_N. J. A. Sloane_",
			"ext": [
				"More terms from _Wesley Ivan Hurt_, May 21 2016"
			],
			"references": 4,
			"revision": 31,
			"time": "2021-12-18T02:22:29-05:00",
			"created": "1999-12-11T03:00:00-05:00"
		}
	]
}