{
	"greeting": "Greetings from The On-Line Encyclopedia of Integer Sequences! http://oeis.org/",
	"query": "id:A047518",
	"count": 1,
	"start": 0,
	"results": [
		{
			"number": 47518,
			"data": "2,3,4,6,7,10,11,12,14,15,18,19,20,22,23,26,27,28,30,31,34,35,36,38,39,42,43,44,46,47,50,51,52,54,55,58,59,60,62,63,66,67,68,70,71,74,75,76,78,79,82,83,84,86,87,90",
			"name": "Numbers that are congruent to {2, 3, 4, 6, 7} mod 8.",
			"link": [
				"G. C. Greubel, \u003ca href=\"/A047518/b047518.txt\"\u003eTable of n, a(n) for n = 1..1000\u003c/a\u003e",
				"\u003ca href=\"/index/Rec#order_06\"\u003eIndex entries for linear recurrences with constant coefficients\u003c/a\u003e, signature (1,0,0,0,1,-1)."
			],
			"formula": [
				"From _Chai Wah Wu_, May 30 2016: (Start)",
				"a(n) = a(n-1) + a(n-5) - a(n-6) for n \u003e 6.",
				"G.f.: x*(x^5 + x^4 + 2*x^3 + x^2 + x + 2)/(x^6 - x^5 - x + 1). (End)"
			],
			"mathematica": [
				"LinearRecurrence[{1, 0, 0, 0, 1, -1}, {2, 3, 4, 6, 7, 10}, 50] (* _G. C. Greubel_, May 30 2016 *)"
			],
			"keyword": "nonn,easy",
			"offset": "1,1",
			"author": "_N. J. A. Sloane_",
			"references": 1,
			"revision": 15,
			"time": "2020-03-07T06:52:07-05:00",
			"created": "1999-12-11T03:00:00-05:00"
		}
	]
}