{
	"greeting": "Greetings from The On-Line Encyclopedia of Integer Sequences! http://oeis.org/",
	"query": "id:A047843",
	"count": 1,
	"start": 0,
	"results": [
		{
			"number": 47843,
			"data": "10,11,12,13,14,15,16,17,18,19,1011,21,1112,110213,11020314,1102030415,110203040516,11020304050617,1102030405060718,110203040506070819,100112,1112,22,1213,120314,12030415,1203040516",
			"name": "Describe n: give frequency of each digit, by increasing size; mention also missing digits between the smallest and largest one.",
			"comment": [
				"Other methods to describe or summarize n are: A047842 (as here, but ignoring \"missing\" digits), A244112 (count digits in order of decreasing size, ignoring missing digits). - _M. F. Hasler_, Feb 25 2018"
			],
			"link": [
				"Vincenzo Librandi, \u003ca href=\"/A047843/b047843.txt\"\u003eTable of n, a(n) for n = 0..5000\u003c/a\u003e"
			],
			"example": [
				"131 contains two 1's, zero 2's and one 3, so a(131) = 210213."
			],
			"mathematica": [
				"a[n_] := Module[{T, f}, T = Tally[IntegerDigits[n]]; f[_] = 0; Do[f[t[[1]]] = t[[2]], {t, T}]; Table[{f[k], k}, {k, Min@T[[All, 1]], Max@T[[All, 1]]} ] // Flatten // FromDigits];",
				"a /@ Range[0, 26] (* _Jean-François Alcover_, Jan 07 2020 *)"
			],
			"program": [
				"(PARI) A047843(n,S=\"\")={if(n,for(d=vecmin(n=digits(n)),vecmax(n),S=Str(S,#select(t-\u003et==d,n),d));eval(S),10)} \\\\ _M. F. Hasler_, Feb 25 2018"
			],
			"xref": [
				"Cf. A005151, A047841, A047842."
			],
			"keyword": "nonn,easy,base,nice",
			"offset": "0,1",
			"author": "_N. J. A. Sloane_",
			"ext": [
				"More accurate title from _M. F. Hasler_, Feb 25 2018"
			],
			"references": 3,
			"revision": 22,
			"time": "2020-01-08T03:20:30-05:00",
			"created": "1999-12-11T03:00:00-05:00"
		}
	]
}