{
	"greeting": "Greetings from The On-Line Encyclopedia of Integer Sequences! http://oeis.org/",
	"query": "id:A047201",
	"count": 1,
	"start": 0,
	"results": [
		{
			"number": 47201,
			"data": "1,2,3,4,6,7,8,9,11,12,13,14,16,17,18,19,21,22,23,24,26,27,28,29,31,32,33,34,36,37,38,39,41,42,43,44,46,47,48,49,51,52,53,54,56,57,58,59,61,62,63,64,66,67,68,69,71,72,73,74,76,77,78,79,81,82,83,84,86,87",
			"name": "Numbers not divisible by 5.",
			"comment": [
				"Original name was: Numbers that are congruent to {1, 2, 3, 4} mod 5.",
				"More generally the sequence of numbers not divisible by some fixed integer m\u003e=2 is given by a(n,m) = n-1+floor((n+m-2)/(m-1)). - _Benoit Cloitre_, Jul 11 2009",
				"Complement of A008587. - _Reinhard Zumkeller_, Nov 30 2009"
			],
			"link": [
				"Reinhard Zumkeller, \u003ca href=\"/A047201/b047201.txt\"\u003eTable of n, a(n) for n = 1..10000\u003c/a\u003e",
				"\u003ca href=\"/index/Rec#order_05\"\u003eIndex entries for linear recurrences with constant coefficients\u003c/a\u003e, signature (1,0,0,1,-1)."
			],
			"formula": [
				"G.f.: (x+2*x^2+3*x^3+4*x^4+4*x^5+3*x^6+2*x^7+x^8)/(1-x^4)^2 (not reduced). - _Len Smiley_",
				"a(n) = 5+a(n-4).",
				"G.f.: x*(1+x+x^2+x^3+x^4)/((1-x)*(1-x^4)).",
				"a(n) = n-1+floor((n+3)/4). - _Benoit Cloitre_, Jul 11 2009",
				"A011558(a(n))=1; A079998(a(n))=0. - _Reinhard Zumkeller_, Nov 30 2009",
				"a(n) = floor((15*n-1)/12). - _Gary Detlefs_, Mar 07 2010",
				"a(n) = A225496(n) for n \u003c= 42. - _Reinhard Zumkeller_, May 09 2013",
				"From _Wesley Ivan Hurt_, Jun 22 2015: (Start)",
				"a(n) = a(n-1) + a(n-4) - a(n-5), n\u003e5.",
				"a(n) = (10*n-5-(-1)^n+2*(-1)^((2*n+5-(-1)^n)/4))/8. (End)",
				"E.g.f.: 1 + (1/4)*(-cos(x) + (-3 + 5*x)*cosh(x) + sin(x) + (-2 + 5*x)*sinh(x)). - _Stefano Spezia_, Dec 01 2019",
				"a(n) = floor((5*n-1)/4). - _Wolfdieter Lang_, Sep 30 2020",
				"Sum_{n\u003e=1} (-1)^(n+1)/a(n) = sqrt(2-2/sqrt(5))*Pi/5 = A179290 * A019692 / 10. - _Amiram Eldar_, Dec 07 2021"
			],
			"maple": [
				"seq(floor((15*n-1)/12), n=1..56); # _Gary Detlefs_, Mar 07 2010"
			],
			"mathematica": [
				"Select[Table[n,{n,200}],Mod[#,5]!=0\u0026] (* _Vladimir Joseph Stephan Orlovsky_, Feb 18 2011 *)"
			],
			"program": [
				"(PARI) a(n)= 1+n+n\\4",
				"(PARI) a(n)=n-1+floor((n+3)/4) \\\\ _Benoit Cloitre_, Jul 11 2009",
				"(Sage) [i for i in range(72) if gcd(5,i) == 1] # _Zerinvary Lajos_, Apr 21 2009",
				"(Haskell)",
				"a047201 n = a047201_list !! (n-1)",
				"a047201_list = [x | x \u003c- [1..], mod x 5 \u003e 0]",
				"-- _Reinhard Zumkeller_, Dec 17 2011",
				"(MAGMA) [Floor((15*n-1)/12): n in [1..70]]; // _Vincenzo Librandi_, Apr 06 2015"
			],
			"xref": [
				"Cf. A019692, A045572, A179290."
			],
			"keyword": "nonn,easy",
			"offset": "1,2",
			"author": "_N. J. A. Sloane_",
			"ext": [
				"Comment from _Lekraj Beedassy_, Dec 17 2006 is now the current name. - _Wesley Ivan Hurt_, Jun 25 2015"
			],
			"references": 44,
			"revision": 67,
			"time": "2021-12-07T11:01:23-05:00",
			"created": "1999-12-11T03:00:00-05:00"
		}
	]
}