{
	"greeting": "Greetings from The On-Line Encyclopedia of Integer Sequences! http://oeis.org/",
	"query": "id:A047958",
	"count": 1,
	"start": 0,
	"results": [
		{
			"number": 47958,
			"data": "1,4,12,17,30,48,72,99,128,160,199,246,295,339,396,461,518,589,669,734,832,911,988,1090,1192,1287,1398,1502,1625,1754,1851,1991,2112,2262,2410,2527,2700,2844,2994,3172,3299,3502,3658,3838,4045,4187,4414",
			"name": "Coordination sequence T1 for Zeolite Code ISV.",
			"link": [
				"R. W. Grosse-Kunstleve, \u003ca href=\"/A047958/b047958.txt\"\u003eTable of n, a(n) for n = 0..1000\u003c/a\u003e",
				"R. W. Grosse-Kunstleve, \u003ca href=\"/A005897/a005897.html\"\u003eCoordination Sequences and Encyclopedia of Integer Sequences\u003c/a\u003e",
				"Sean A. Irvine, \u003ca href=\"/A008000/a008000_1.pdf\"\u003eGenerating Functions for Coordination Sequences of Zeolites, after Grosse-Kunstleve, Brunner, and Sloane\u003c/a\u003e",
				"International Zeolite Association, \u003ca href=\"http://www.iza-structure.org/databases/\"\u003eDatabase of Zeolite Structures\u003c/a\u003e"
			],
			"keyword": "nonn",
			"offset": "0,2",
			"author": "_Ralf W. Grosse-Kunstleve_",
			"references": 1,
			"revision": 11,
			"time": "2018-04-10T08:26:36-04:00",
			"created": "1999-12-11T03:00:00-05:00"
		}
	]
}