{
	"greeting": "Greetings from The On-Line Encyclopedia of Integer Sequences! http://oeis.org/",
	"query": "id:A047636",
	"count": 1,
	"start": 0,
	"results": [
		{
			"number": 47636,
			"data": "1,0,0,182,1092,3822,11284,28938,62244",
			"name": "Theta series of 14-dimensional lattice M14,3 with minimal norm 6.",
			"link": [
				"G. Nebe and N. J. A. Sloane, \u003ca href=\"http://www.math.rwth-aachen.de/~Gabriele.Nebe/LATTICES/P14.7.html\"\u003eHome page for this lattice\u003c/a\u003e"
			],
			"keyword": "nonn",
			"offset": "0,4",
			"author": "_N. J. A. Sloane_",
			"references": 0,
			"revision": 8,
			"time": "2020-03-07T06:46:27-05:00",
			"created": "1999-12-11T03:00:00-05:00"
		}
	]
}