{
	"greeting": "Greetings from The On-Line Encyclopedia of Integer Sequences! http://oeis.org/",
	"query": "id:A047848",
	"count": 1,
	"start": 0,
	"results": [
		{
			"number": 47848,
			"data": "1,2,1,5,2,1,14,6,2,1,41,22,7,2,1,122,86,32,8,2,1,365,342,157,44,9,2,1,1094,1366,782,260,58,10,2,1,3281,5462,3907,1556,401,74,11,2,1,9842,21846,19532,9332,2802,586,92,12,2,1,29525,87382",
			"name": "Array T read by diagonals; n-th difference of (T(k,n),T(k,n-1),...,T(k,0)) is (k+2)^(n-1), for n=1,2,3,...; k=0,1,2,...",
			"formula": [
				"T(k, n) = ((k+3)^n+k+1)/(k+2). - _Ralf Stephan_, Feb 14 2004"
			],
			"example": [
				"Diagonals (each starting on row 1): {1}; {2,1}; {5,2,1}; ..."
			],
			"xref": [
				"Row 1 = (1, 2, 5, 14, 41, ...) = A007051."
			],
			"keyword": "nonn,tabl",
			"offset": "0,2",
			"author": "_Clark Kimberling_",
			"references": 14,
			"revision": 8,
			"time": "2012-03-30T18:56:53-04:00",
			"created": "1999-12-11T03:00:00-05:00"
		}
	]
}