{
	"greeting": "Greetings from The On-Line Encyclopedia of Integer Sequences! http://oeis.org/",
	"query": "id:A048520",
	"count": 1,
	"start": 0,
	"results": [
		{
			"number": 48520,
			"data": "13,17,29,47,61,73,79,83,103,107,113,137,163,173,181,191,241,271,281,293,307,317,383,397,409,433,439,443,499,521,523,563,577,607,631,641,709,743,757,809,821,859,877,881,967,1019,1063,1069,1103,1163,1181",
			"name": "Primes expressible as the sum of a prime plus its digit sum.",
			"link": [
				"M. F. Hasler, \u003ca href=\"/A048520/b048520.txt\"\u003eTable of n, a(n) for n = 1..10000\u003c/a\u003e, Nov 08 2018"
			],
			"example": [
				"a(15) = 181 which is 167 + (1+6+7)."
			],
			"mathematica": [
				"Sort[Select[Table[p=Prime[n];p+Total[IntegerDigits[p]],{n,195}],PrimeQ]] (* _Jayanta Basu_, May 03 2013 *)"
			],
			"program": [
				"(PARI) is_A048520(n)=#select(p-\u003ep+sumdigits(p)==n,primes([n-9*#digits(n),n-2]))\u0026\u0026isprime(n) \\\\ _M. F. Hasler_, Nov 08 2018"
			],
			"xref": [
				"Cf. A007953, A047791, A048519."
			],
			"keyword": "nonn,base",
			"offset": "1,1",
			"author": "_Patrick De Geest_, May 15 1999",
			"ext": [
				"Offset corrected to 1 by _M. F. Hasler_, Nov 08 2018"
			],
			"references": 14,
			"revision": 18,
			"time": "2019-10-15T11:56:36-04:00",
			"created": "1999-12-11T03:00:00-05:00"
		}
	]
}