{
	"greeting": "Greetings from The On-Line Encyclopedia of Integer Sequences! http://oeis.org/",
	"query": "id:A048067",
	"count": 1,
	"start": 0,
	"results": [
		{
			"number": 48067,
			"data": "0,0,0,0,0,0,0,0,0,21,28,112,144,360,450,1110,1430,4235,5775,17556,24388,68328,94731,251160,349300,923230,1301080,3482710,4976070,13287846,19136832,50391978,72898098",
			"name": "Number of nonempty subsets of {1,2,...,n} in which exactly 3/5 of the elements are \u003c= (n-4)/2.",
			"keyword": "nonn",
			"offset": "1,10",
			"author": "_Clark Kimberling_",
			"references": 0,
			"revision": 4,
			"time": "2012-03-30T18:56:54-04:00",
			"created": "1999-12-11T03:00:00-05:00"
		}
	]
}