{
	"greeting": "Greetings from The On-Line Encyclopedia of Integer Sequences! http://oeis.org/",
	"query": "id:A048357",
	"count": 1,
	"start": 0,
	"results": [
		{
			"number": 48357,
			"data": "6,49,215,651,6651,66367,206020,635959,6651759,21411348,66651759,666816649,666651759,6666651759,64687340681,210818509825,1115546688777,6666665142651",
			"name": "a(n) is the index of the smallest triangular number containing exactly n 2's.",
			"link": [
				"Eric Weisstein's World of Mathematics, \u003ca href=\"http://mathworld.wolfram.com/TriangularNumber.html\"\u003eTriangular Number\u003c/a\u003e"
			],
			"mathematica": [
				"nsmall = Table[Infinity, 20];",
				"For[i = 0, i \u003c= 10^6, i++, p = PolygonalNumber[i];",
				"  n0 = Count[IntegerDigits[p], 2];",
				"  If[nsmall[[n0]] \u003e i, nsmall[[n0]] = i]];",
				"ReplaceAll[nsmall, Infinity -\u003e \"?\"] (* _Robert Price_, Mar 22 2020 *)"
			],
			"xref": [
				"Cf. A036519, A048355-A049364."
			],
			"keyword": "nonn,base,more",
			"offset": "1,1",
			"author": "_Patrick De Geest_, Mar 15 1999",
			"ext": [
				"a(14)-a(15) from _Lars Blomberg_, May 13 2011",
				"a(16)-a(18) from _Giovanni Resta_, Oct 30 2019"
			],
			"references": 1,
			"revision": 16,
			"time": "2020-03-22T23:42:19-04:00",
			"created": "1999-12-11T03:00:00-05:00"
		}
	]
}