{
	"greeting": "Greetings from The On-Line Encyclopedia of Integer Sequences! http://oeis.org/",
	"query": "id:A048440",
	"count": 1,
	"start": 0,
	"results": [
		{
			"number": 48440,
			"data": "1,10,83,668,5349,42798,342391,21913032,1402434057,89755779658,5744369898123,367639673479884,23528939102712589,1505852102573605710,96374534564710765455,6167970212141488989136,394750093577055295304721",
			"name": "Take the first n numbers written in base 8, concatenate them, then convert from base 8 to base 10.",
			"comment": [
				"83 is the only prime in this sequence among the first 3000 terms (email from Kurt Foster, Oct 24 2015). - _N. J. A. Sloane_, Oct 25 2015"
			],
			"link": [
				"Harvey P. Dale, \u003ca href=\"/A048440/b048440.txt\"\u003eTable of n, a(n) for n = 1..390\u003c/a\u003e"
			],
			"example": [
				"a(9): (1)(2)(3)(4)(5)(6)(7)(10)(11) = 12345671011_8 = 1402434057."
			],
			"mathematica": [
				"If[STARTPOINT==1, n={}, n=Flatten[IntegerDigits[Range[STARTPOINT-1], 8]]]; Table[AppendTo[n, IntegerDigits[w, 8]]; n=Flatten[n]; FromDigits[n, 8], {w, STARTPOINT, ENDPOINT}] (* _Dylan Hamilton_, Aug 11 2010 *)",
				"Table[FromDigits[Flatten[IntegerDigits[#,8]\u0026/@Range[n]],8],{n,20}] (* _Harvey P. Dale_, Dec 07 2012 *)"
			],
			"program": [
				"(MAGMA) [n eq 1 select 1 else Self(n-1)*8^(1+Ilog(8, n))+n: n in [1..20]]; // _Vincenzo Librandi_, Dec 30 2012"
			],
			"xref": [
				"Cf. A014831.",
				"Concatenation of first n numbers in other bases: 2: A047778, 3: A048435, 4: A048436, 5: A048437, 6: A048438, 7: A048439, 8: this sequence, 9: A048441, 10: A007908, 11: A048442, 12: A048443, 13: A048444, 14: A048445, 15: A048446, 16: A048447."
			],
			"keyword": "nonn,base,easy",
			"offset": "1,2",
			"author": "_Patrick De Geest_, May 15 1999",
			"references": 16,
			"revision": 34,
			"time": "2018-01-20T03:17:25-05:00",
			"created": "1999-12-11T03:00:00-05:00"
		}
	]
}