{
	"greeting": "Greetings from The On-Line Encyclopedia of Integer Sequences! http://oeis.org/",
	"query": "id:A048331",
	"count": 1,
	"start": 0,
	"results": [
		{
			"number": 48331,
			"data": "0,1,2,3,4,5,7,14,21,28,35,43,86,129,172,215,259,518,777,1036,1295,1555,3110,4665,6220,7775,9331,18662,27993,37324,46655,55987,111974,167961,223948,279935,335923,671846,1007769,1343692,1679615,2015539",
			"name": "a(n) in base 6 is a repdigit.",
			"link": [
				"Vincenzo Librandi, \u003ca href=\"/A048331/b048331.txt\"\u003eTable of n, a(n) for n = 0..500\u003c/a\u003e",
				"Eric Weisstein's World of Mathematics, \u003ca href=\"http://mathworld.wolfram.com/Repdigit.html\"\u003eRepdigit\u003c/a\u003e"
			],
			"formula": [
				"Conjecture: G.f.: x*(1+2*x+3*x^2+4*x^3+5*x^4) / ( (x-1)*(x^4+x^3+x^2+x+1)*(6*x^5-1) ) with a(n) = 7*a(n-5) - 6*a(n-10). - _R. J. Mathar_, Mar 15 2015"
			],
			"example": [
				"14_10 = 22_6, 21_10_ = 33_6, 9331_10_ = 111111_6."
			],
			"mathematica": [
				"Union[Flatten[Table[FromDigits[PadRight[{}, n, d], 6], {n, 0, 40}, {d, 5}]]] (* _Vincenzo Librandi_, Feb 06 2014 *)"
			],
			"program": [
				"(MAGMA) [0] cat [k:k in [1..2*10^6]| #Set(Intseq(k,6)) eq 1]; // _Marius A. Burtea_, Oct 11 2019"
			],
			"xref": [
				"Cf. A010785, A033019, A028987, A028988."
			],
			"keyword": "nonn,base",
			"offset": "0,3",
			"author": "_Patrick De Geest_, Feb 15 1999",
			"references": 4,
			"revision": 21,
			"time": "2019-10-11T04:06:26-04:00",
			"created": "1999-12-11T03:00:00-05:00"
		}
	]
}