{
	"greeting": "Greetings from The On-Line Encyclopedia of Integer Sequences! http://oeis.org/",
	"query": "id:A048728",
	"count": 1,
	"start": 0,
	"results": [
		{
			"number": 48728,
			"data": "0,0,0,4,0,0,8,12,0,0,0,4,16,16,24,28,0,0,0,4,0,0,8,12,32,32,32,36,48,48,56,60,0,0,0,4,0,0,8,12,0,0,0,4,16,16,24,28,64,64,64,68,64,64,72,76,96,96,96,100,112,112,120",
			"name": "Differences between A008585 (multiples of 3) and A048724.",
			"link": [
				"Reinhard Zumkeller, \u003ca href=\"/A048728/b048728.txt\"\u003eTable of n, a(n) for n = 0..10000\u003c/a\u003e"
			],
			"formula": [
				"a(n) = n*3 - Xmult(n, 3)."
			],
			"program": [
				"(Haskell)",
				"a048728 n = a008585 n - a048724 n  -- _Reinhard Zumkeller_, May 13 2014",
				"(PARI) a(n)=3*n - bitxor(2*n, n) \\\\ _Charles R Greathouse IV_, Oct 03 2016",
				"(Python)",
				"def a(n): return 3*n - (2*n^n) # _Indranil Ghosh_, Jun 13 2017"
			],
			"xref": [
				"Positions of zeros are given by A003714. Cf. A048735, A242400.",
				"Diagonal 3 of A061858."
			],
			"keyword": "nonn,easy",
			"offset": "0,4",
			"author": "_Antti Karttunen_, Apr 26 1999",
			"references": 8,
			"revision": 18,
			"time": "2017-06-14T07:14:51-04:00",
			"created": "1999-12-11T03:00:00-05:00"
		}
	]
}