{
	"greeting": "Greetings from The On-Line Encyclopedia of Integer Sequences! http://oeis.org/",
	"query": "id:A048400",
	"count": 1,
	"start": 0,
	"results": [
		{
			"number": 48400,
			"data": "2,3,5,7,41,47,14741,14747,74747,1414741,1474141,7414741,4141414747,4147414147,14141414141,14141414741,14141474741,14141474747,14147414741,14147474141,14147474147,14741414747,74141414147,74141414741,74147414741,74741474741,74747414141",
			"name": "Primes with consecutive digits that differ exactly by 3.",
			"link": [
				"Sean A. Irvine, \u003ca href=\"/A048400/b048400.txt\"\u003eTable of n, a(n) for n = 1..1000\u003c/a\u003e"
			],
			"xref": [
				"Cf. A033081, A048398, A048399, A048401, A048402, A048403, A048404, A048405."
			],
			"keyword": "nonn,base",
			"offset": "1,1",
			"author": "_Patrick De Geest_, Apr 15 1999",
			"ext": [
				"More terms from _Naohiro Nomoto_, Jul 28 2001",
				"More terms from _Sean A. Irvine_, Jun 15 2021"
			],
			"references": 8,
			"revision": 12,
			"time": "2021-06-16T02:12:42-04:00",
			"created": "1999-12-11T03:00:00-05:00"
		}
	]
}