{
	"greeting": "Greetings from The On-Line Encyclopedia of Integer Sequences! http://oeis.org/",
	"query": "id:A048756",
	"count": 1,
	"start": 0,
	"results": [
		{
			"number": 48756,
			"data": "3,13,305175781",
			"name": "Prime repunits in ascending prime bases (written in decimal).",
			"comment": [
				"2^2-1=3 is prime; (3^3-1)/2=13 is prime; (5^13-1)/4=305175781 is prime; the next term is too gigantic to be computed simply."
			],
			"formula": [
				"a(p)=((p^a(p-1))-1)/(p-1); a(p)=111...111 in base p with a(p-1) 1's; p runs through the primes."
			],
			"keyword": "nonn,bref,more",
			"offset": "1,1",
			"author": "Xavier Labouze (Xavier.Labouze(AT)cep.u-psud.fr)",
			"references": 0,
			"revision": 7,
			"time": "2019-02-17T08:50:52-05:00",
			"created": "1999-12-11T03:00:00-05:00"
		}
	]
}