{
	"greeting": "Greetings from The On-Line Encyclopedia of Integer Sequences! http://oeis.org/",
	"query": "id:A048409",
	"count": 1,
	"start": 0,
	"results": [
		{
			"number": 48409,
			"data": "0,1,2,3,4,5,6,7,8,9,18,29,70,81,92,181,292,707,818,929,1818,2929,7070,8181,9292,18181,29292,70707,81818,92929,181818,292929,707070,818181,929292,1818181,2929292,7070707,8181818,9292929,18181818,29292929",
			"name": "Numbers whose consecutive digits differ by 7.",
			"xref": [
				"Cf. A033075, A033088, A033081, A048407-A048410."
			],
			"keyword": "nonn,base",
			"offset": "0,3",
			"author": "_Patrick De Geest_, Apr 15 1999",
			"references": 2,
			"revision": 5,
			"time": "2019-10-10T23:17:49-04:00",
			"created": "1999-12-11T03:00:00-05:00"
		}
	]
}