{
	"greeting": "Greetings from The On-Line Encyclopedia of Integer Sequences! http://oeis.org/",
	"query": "id:A048716",
	"count": 1,
	"start": 0,
	"results": [
		{
			"number": 48716,
			"data": "0,1,2,3,4,6,8,9,12,16,17,18,19,24,25,32,33,34,35,36,38,48,49,50,51,64,65,66,67,68,70,72,73,76,96,97,98,99,100,102,128,129,130,131,132,134,136,137,140,144,145,146,147,152,153,192,193,194,195,196,198,200,201",
			"name": "Numbers n such that binary expansion matches ((0)*00(1?)1)*(0*).",
			"comment": [
				"If bit i is 1, then bits i+-2 must be 0. All terms satisfy A048725(n) = 5*n.",
				"It appears that n is in the sequence if and only if C(5n,n) is odd (cf. A003714). - _Benoit Cloitre_, Mar 09 2003",
				"Yes, as remarked in A048715, \"This is easily proved using the well-known result that the multiplicity with which a prime p divides C(n+m,n) is the number of carries when adding n+m in base p.\" - _Jason Kimberley_, Dec 21 2011",
				"A116361(a(n)) \u003c= 2. - _Reinhard Zumkeller_, Feb 04 2006"
			],
			"link": [
				"Charles R Greathouse IV, \u003ca href=\"/A048716/b048716.txt\"\u003eTable of n, a(n) for n = 1..10000\u003c/a\u003e",
				"\u003ca href=\"/index/Ar#2-automatic\"\u003eIndex entries for 2-automatic sequences\u003c/a\u003e.",
				"\u003ca href=\"/index/Con#CongruCrossDomain\"\u003eIndex entries for sequences defined by congruent products between domains N and GF(2)[X]\u003c/a\u003e",
				"\u003ca href=\"/index/Con#CongruXOR\"\u003eIndex entries for sequences defined by congruent products under XOR\u003c/a\u003e"
			],
			"mathematica": [
				"Reap[Do[If[OddQ[Binomial[5n, n]], Sow[n]], {n, 0, 400}]][[2, 1]]",
				"(* Second program: *)",
				"filterQ[n_] := With[{bb = IntegerDigits[n, 2]}, MatchQ[bb, {0}|{1}|{1, 1}|{___, 0, _, 1, ___}|{___ 1, _, 0, ___}] \u0026\u0026 !MatchQ[bb, {___, 1, _, 1, ___}]];",
				"Select[Range[0, 201], filterQ] (* _Jean-François Alcover_, Dec 31 2020 *)"
			],
			"program": [
				"(PARI) is(n)=!bitand(n,n\u003e\u003e2) \\\\ _Charles R Greathouse IV_, Oct 03 2016",
				"(PARI) list(lim)=my(v=List(),n,t); while(n\u003c=lim, t=bitand(n,n\u003e\u003e2); if(t, n+=1\u003c\u003cvaluation(t,2), listput(v,n); n++)); Vec(v) \\\\ _Charles R Greathouse IV_, Oct 22 2021"
			],
			"xref": [
				"Superset of A048715 and A048719. Union of A004742 and A003726.",
				"Cf. A048729, A003714, A115845, A115847, A116360."
			],
			"keyword": "nonn,base,easy",
			"offset": "1,3",
			"author": "Antti Karttunen, Mar 30 1999",
			"references": 13,
			"revision": 35,
			"time": "2021-10-28T17:59:33-04:00",
			"created": "1999-12-11T03:00:00-05:00"
		}
	]
}