{
	"greeting": "Greetings from The On-Line Encyclopedia of Integer Sequences! http://oeis.org/",
	"query": "id:A048565",
	"count": 1,
	"start": 0,
	"results": [
		{
			"number": 48565,
			"data": "8,85184,8518411426967,85184114269674871467318307963894908884648",
			"name": "a(n+1) is next smallest nontrivial cube beginning with a(n), initial cube is 8.",
			"comment": [
				"Next terms are 123 and 368 digits long."
			],
			"link": [
				"Jon E. Schoenfield, \u003ca href=\"/A048565/b048565.txt\"\u003eTable of n, a(n) for n = 0..5\u003c/a\u003e"
			],
			"xref": [
				"Cf. A048566."
			],
			"keyword": "nonn,base",
			"offset": "0,1",
			"author": "_Patrick De Geest_, May 15 1999",
			"references": 4,
			"revision": 9,
			"time": "2014-12-19T03:55:30-05:00",
			"created": "1999-12-11T03:00:00-05:00"
		}
	]
}