{
	"greeting": "Greetings from The On-Line Encyclopedia of Integer Sequences! http://oeis.org/",
	"query": "id:A048986",
	"count": 1,
	"start": 0,
	"results": [
		{
			"number": 48986,
			"data": "1,2,3,31,5,11,7,179,29,31,11,43,13,23,29,12007,17,47,19,251,31,43,23,499,4091,4091,127,4091,29,127,31,1564237,59,4079,47,367,37,83,61,383,41,179,43,499,4091,4091,47,683,127,173,113,173,53,191,4091",
			"name": "Home primes in base 2: primes reached when you start with n and (working in base 2) concatenate its prime factors (A048985); repeat until a prime is reached (or -1 if no prime is ever reached). Answer is written in base 10.",
			"comment": [
				"a(1) = 1 by convention.",
				"The first binary home prime that is not known is a(2295) - _Ely Golden_, Jan 09 2017"
			],
			"link": [
				"Ely Golden, \u003ca href=\"/A048986/b048986.txt\"\u003eTable of n, a(n) for n = 1..2294\u003c/a\u003e",
				"P. De Geest, \u003ca href=\"http://www.worldofnumbers.com/topic1.htm\"\u003eHome Primes\u003c/a\u003e",
				"Ely Golden, \u003ca href=\"http://www.mersennewiki.org/index.php/Base_2_Home_Prime_Results\"\u003eMersenne Wiki Home Primes base 2\u003c/a\u003e",
				"Ely Golden, \u003ca href=\"/A048986/a048986_2.txt\"\u003eTable of n, a(n) for n = 1..3000 (a-file)\u003c/a\u003e"
			],
			"example": [
				"4 = 2*2 -\u003e 1010 = 10 = 2*5 -\u003e10101 = 21 = 3*7 -\u003e 11111 = 31 = prime."
			],
			"mathematica": [
				"f[n_] := Module[{fi}, If[PrimeQ[n], n, fi = FactorInteger[n]; Table[ First[#], {Last[#]}]\u0026 /@ fi // Flatten // IntegerDigits[#, 2]\u0026 // Flatten // FromDigits[#, 2]\u0026]]; a[1] = 1; a[n_] := TimeConstrained[FixedPoint[f, n], 1] /. $Aborted -\u003e -1; Array[a, 55] (* _Jean-François Alcover_, Jan 01 2016 *)"
			],
			"program": [
				"(SageMath)",
				"def digitLen(x,n):",
				"    r=0",
				"    while(x\u003e0):",
				"        x//=n",
				"        r+=1",
				"    return r",
				"def concatPf(x,n):",
				"    r=0",
				"    f=list(factor(x))",
				"for c in range(len(f)):",
				"for d in range(f[c][1]):",
				"            r*=(n**digitLen(f[c][0],n))",
				"            r+=f[c][0]",
				"    return r",
				"def hp(x,n):",
				"    x1=concatPf(x,n)",
				"    while(x1!=x):",
				"        x=x1",
				"        x1=concatPf(x1,n)",
				"    return x",
				"radix=2",
				"index=2",
				"while(index\u003c=1344):",
				"    print(str(index)+\" \"+str(hp(index,radix)))",
				"    index+=1"
			],
			"xref": [
				"Cf. A048985, A037274, A049065."
			],
			"keyword": "nonn,base,nice",
			"offset": "1,2",
			"author": "Michael B Greenwald (mbgreen(AT)central.cis.upenn.edu)",
			"references": 6,
			"revision": 19,
			"time": "2019-12-07T12:18:21-05:00",
			"created": "1999-12-11T03:00:00-05:00"
		}
	]
}