{
	"greeting": "Greetings from The On-Line Encyclopedia of Integer Sequences! http://oeis.org/",
	"query": "id:A048656",
	"count": 1,
	"start": 0,
	"results": [
		{
			"number": 48656,
			"data": "1,2,4,4,8,8,16,16,16,16,32,32,64,64,64,64,128,128,256,256,256,256,512,512,512,512,512,512,1024,1024,2048,2048,2048,2048,2048,2048,4096,4096,4096,4096,8192,8192,16384,16384,16384,16384,32768,32768,32768,32768",
			"name": "a(n) is the number of unitary (and also of squarefree) divisors of n!.",
			"comment": [
				"Let K(n) be the field that is generated over the rationals Q by adjoining the square roots of the numbers 1,2,3,...,n, i.e., K(n) = Q(sqrt(1),sqrt(2),...,sqrt(n)); a(n) is the degree of this field over Q. - Avi Peretz (njk(AT)netvision.net.il), Mar 20 2001",
				"For n\u003e1, a(n) is the number of ways n! can be expressed as the product of two coprime integers p and q such that 0 \u003c p/q \u003c 1, if negative integers are considered as well. This is the answer to the 2nd problem of the International Mathematical Olympiad 2001. Example, for n = 3, the a(3) = 4 products are 3! = (-2)*(-3) = (-1)*(-6) = 1*6 = 2*3. - _Bernard Schott_, Jan 21 2021"
			],
			"link": [
				"Charles R Greathouse IV, \u003ca href=\"/A048656/b048656.txt\"\u003eTable of n, a(n) for n = 1..10000\u003c/a\u003e",
				"International Mathematical Olympiad 2001, \u003ca href=\"/A048656/a048656.pdf\"\u003eHong Kong Preliminary Selection Contest\u003c/a\u003e, Problem 2.",
				"\u003ca href=\"/index/Di#divseq\"\u003eIndex to divisibility sequences\u003c/a\u003e.",
				"\u003ca href=\"/index/O#Olympiads\"\u003eIndex to sequences related to Olympiads\u003c/a\u003e."
			],
			"formula": [
				"A001221(n!) = A000720(n) so a(n) = A034444(n!) = 2^A000720(n)."
			],
			"example": [
				"n=7, n! = 5040 = 16*9*5*7 with 4 distinct prime factors, so a(7) = A034444(7!) = 16."
			],
			"program": [
				"(PARI) a(n)=2^primepi(n) \\\\ _Charles R Greathouse IV_, Apr 07 2012"
			],
			"xref": [
				"Cf. A000720, A001221, A034444."
			],
			"keyword": "nonn",
			"offset": "1,2",
			"author": "_Labos Elemer_",
			"references": 31,
			"revision": 36,
			"time": "2021-01-28T06:59:14-05:00",
			"created": "1999-12-11T03:00:00-05:00"
		}
	]
}