{
	"greeting": "Greetings from The On-Line Encyclopedia of Integer Sequences! http://oeis.org/",
	"query": "id:A048542",
	"count": 1,
	"start": 0,
	"results": [
		{
			"number": 48542,
			"data": "6,3660,66306,666672,16666806,6066462656,66686606406,666692662656,20666666069660,666676608666642,10666051666666662,664566666660662640,666626669666607656,6666086666606866662,616766666966468666660,66636666164666636562656,1536666668666666766166056",
			"name": "Smallest pronic number containing exactly n 6's.",
			"link": [
				"Eric Weisstein's World of Mathematics, \u003ca href=\"http://mathworld.wolfram.com/PronicNumber.html\"\u003ePronic Number\u003c/a\u003e"
			],
			"xref": [
				"Cf. A048541, A002378.",
				"Cf. A048530, A048532, A048534, A048536, A048538, A048540, A048544, A048546, A048548."
			],
			"keyword": "nonn,base",
			"offset": "1,1",
			"author": "_Patrick De Geest_, May 15 1999",
			"ext": [
				"a(14)-a(17) from _Giovanni Resta_, Oct 09 2019"
			],
			"references": 10,
			"revision": 11,
			"time": "2019-10-15T00:13:00-04:00",
			"created": "1999-12-11T03:00:00-05:00"
		}
	]
}