{
	"greeting": "Greetings from The On-Line Encyclopedia of Integer Sequences! http://oeis.org/",
	"query": "id:A048478",
	"count": 1,
	"start": 0,
	"results": [
		{
			"number": 48478,
			"data": "1,8,29,85,225,561,1345,3137,7169,16129,35841,78849,172033,372737,802817,1720321,3670017,7798785,16515073,34865153,73400321,154140673,322961409,675282945,1409286145,2936012801,6106906625,12683575297,26306674689,54492397569",
			"name": "a(n) = T(6,n), array T given by A048472.",
			"comment": [
				"n-th difference of a(n), a(n-1), ..., a(0) is (7, 14, 21, ...)."
			],
			"link": [
				"Vincenzo Librandi, \u003ca href=\"/A048478/b048478.txt\"\u003eTable of n, a(n) for n = 0..1000\u003c/a\u003e",
				"\u003ca href=\"/index/Rec#order_03\"\u003eIndex entries for linear recurrences with constant coefficients\u003c/a\u003e, signature (5,-8,4)."
			],
			"formula": [
				"a(n) = 7*n * 2^(n-1) + 1.",
				"a(n) = 5*a(n-1)-8*a(n-2)+4*a(n-3) for n\u003e2. G.f.: (1+3*x-3*x^2) / ((1-x)*(1-2*x)^2). - _Colin Barker_, Feb 18 2016"
			],
			"program": [
				"(MAGMA) [7*n * 2^(n-1) + 1: n in [0..30]]; // _Vincenzo Librandi_, Sep 23 2011",
				"(PARI) Vec((1+3*x-3*x^2)/((1-x)*(1-2*x)^2) + O(x^40)) \\\\ _Colin Barker_, Feb 18 2016"
			],
			"keyword": "nonn,easy",
			"offset": "0,2",
			"author": "_Clark Kimberling_",
			"references": 1,
			"revision": 13,
			"time": "2016-02-18T09:58:10-05:00",
			"created": "1999-12-11T03:00:00-05:00"
		}
	]
}