{
	"greeting": "Greetings from The On-Line Encyclopedia of Integer Sequences! http://oeis.org/",
	"query": "id:A048750",
	"count": 1,
	"start": 0,
	"results": [
		{
			"number": 48750,
			"data": "2,3,6,5,8,4,7,9,10,11,18,13,16,15,20,17,19,26,22,21,25,38,29,28,31,30,36,42,44,35,34,37,39,33,54,45,62,47,23,51,46,57,27,41,59,80,12,78,61,58,65,70,67,92,90,77,79,81,110,86,69,85,116,87,114,89,100,91,72,95",
			"name": "Mean integral aliquot divisors associated with A048749.",
			"link": [
				"Amiram Eldar, \u003ca href=\"/A048750/b048750.txt\"\u003eTable of n, a(n) for n = 1..10000\u003c/a\u003e"
			],
			"formula": [
				"a(n) = A001065(A048749(n))/A032741(A048749(n)). - _Amiram Eldar_, Sep 06 2019"
			],
			"example": [
				"For a(2)=3, n=15 and sum of aliquot divisors of 15 is 9, number of aliquot divisors is 3, so integral quotient is 3 (9/3)."
			],
			"xref": [
				"Cf. A001065, A032741, A048749."
			],
			"keyword": "easy,nonn",
			"offset": "1,1",
			"author": "_Enoch Haga_",
			"ext": [
				"Offset corrected by _Amiram Eldar_, Sep 06 2019"
			],
			"references": 1,
			"revision": 9,
			"time": "2019-09-06T17:15:34-04:00",
			"created": "1999-12-11T03:00:00-05:00"
		}
	]
}