{
	"greeting": "Greetings from The On-Line Encyclopedia of Integer Sequences! http://oeis.org/",
	"query": "id:A048065",
	"count": 1,
	"start": 0,
	"results": [
		{
			"number": 48065,
			"data": "0,0,0,0,0,5,15,30,70,105,213,286,558,720,1500,1935,4455,5775,13895,17876,42484,53859,124761,156065,357825,444015,1028500,1272155,3002795,3709043,8871603,10935267,26243427",
			"name": "Number of nonempty subsets of {1,2,...,n} in which exactly 1/5 of the elements are \u003c= (n-4)/2.",
			"keyword": "nonn",
			"offset": "1,6",
			"author": "_Clark Kimberling_",
			"references": 0,
			"revision": 4,
			"time": "2012-03-30T18:56:54-04:00",
			"created": "1999-12-11T03:00:00-05:00"
		}
	]
}