{
	"greeting": "Greetings from The On-Line Encyclopedia of Integer Sequences! http://oeis.org/",
	"query": "id:A048186",
	"count": 1,
	"start": 0,
	"results": [
		{
			"number": 48186,
			"data": "2,4,3,5,4,3,11,23,29,41,53,3,83,89,113,5,4,131,173,179,191,233,239,3,251,281,293,359,419,431,443,491,509,593,641,653,659,683,719,3,743,761,809,911,953,1013,1019,1031,1049,1103,1223,1229,1289,11,1409,1439,1451",
			"name": "Order of omnipower group mod A048184(n).",
			"xref": [
				"See A048184."
			],
			"keyword": "nonn",
			"offset": "1,1",
			"author": "_David W. Wilson_",
			"references": 0,
			"revision": 5,
			"time": "2012-03-30T18:35:39-04:00",
			"created": "1999-12-11T03:00:00-05:00"
		}
	]
}