{
	"greeting": "Greetings from The On-Line Encyclopedia of Integer Sequences! http://oeis.org/",
	"query": "id:A048850",
	"count": 1,
	"start": 0,
	"results": [
		{
			"number": 48850,
			"data": "0,2,1,6,8,7,3,4,5,13,12,14,18,16,10,11,9,20,21,22,15,17,28,29,34,19,35,36,37,38,23,24,41,39,47,26,27,45,25,51,50,52,53,30,55,31,59,58,32,33,62,67,65,69,70,72,73,43,71,76,40,42,77,46,48,83,44,49,84,90,86,88",
			"name": "Position of n in sequence A047708.",
			"comment": [
				"Inverse permutation to A047708, i.e. A047708(A048850(n)) = n."
			],
			"link": [
				"\u003ca href=\"/index/Per#IntegerPermutation\"\u003eIndex entries for sequences that are permutations of the natural numbers\u003c/a\u003e"
			],
			"keyword": "nonn",
			"offset": "0,2",
			"author": "_Howard A. Landman_",
			"references": 2,
			"revision": 7,
			"time": "2013-10-12T15:16:36-04:00",
			"created": "1999-12-11T03:00:00-05:00"
		}
	]
}