{
	"greeting": "Greetings from The On-Line Encyclopedia of Integer Sequences! http://oeis.org/",
	"query": "id:A048086",
	"count": 1,
	"start": 0,
	"results": [
		{
			"number": 48086,
			"data": "0,0,0,0,0,3,4,5,20,24,28,70,80,90,216,245,275,770,882,1001,2912,3332,3780,10535,11984,13532,37400,42450,47880,135432,153780,173635,497245,564399,637307,1822106,2065778,2330900,6665750",
			"name": "Number of nonempty subsets of {1,2,...,n} in which exactly 3/4 of the elements are \u003c= (n+3)/3.",
			"keyword": "nonn",
			"offset": "1,6",
			"author": "_Clark Kimberling_",
			"references": 0,
			"revision": 4,
			"time": "2012-03-30T18:56:54-04:00",
			"created": "1999-12-11T03:00:00-05:00"
		}
	]
}