{
	"greeting": "Greetings from The On-Line Encyclopedia of Integer Sequences! http://oeis.org/",
	"query": "id:A049308",
	"count": 1,
	"start": 0,
	"results": [
		{
			"number": 49308,
			"data": "1,4,40,640,14080,394240,13404160,536166400,24663654400,1282510028800,74385581670400,4760677226905600,333247405883392000,25326802847137792000,2076797833465298944000,182758209344946307072000",
			"name": "Sextuple factorial numbers: product_{k=0..n-1} (6*k+4).",
			"formula": [
				"E.g.f.: (1-6*x)^(-2/3).",
				"a(n) = 2^n*A008544(n).",
				"G.f.: 1/(1-4x/(1-6x/(1-10x/(1-12x/(1-16x/(1-18x/(1-22x/(1-24x/(1-28x/(1-... (continued fraction). - _Philippe Deléham_, Jan 08 2012",
				"a(n) = (-2)^n*sum_{k=0..n} 3^k*s(n+1,n+1-k), where s(n,k) are the Stirling numbers of the first kind, A048994. - _Mircea Merca_, May 03 2012",
				"G.f.: ( 1 - 1/Q(0) )/x/2 where Q(k) =1 - x*(6*k-2)/(1 - x*(6*k+6)/Q(k+1) ); (continued fraction). - _Sergei N. Gladkovskii_, Mar 20 2013",
				"D-finite with recurrence: a(n) +2*(-3*n+1)*a(n-1)=0. - _R. J. Mathar_, Jan 17 2020"
			],
			"mathematica": [
				"s=1;lst={s};Do[s+=n*s;AppendTo[lst, s], {n, 3, 5!, 6}];lst (* _Vladimir Joseph Stephan Orlovsky_, Nov 08 2008 *)"
			],
			"xref": [
				"Cf. A008544, A011781, A008543."
			],
			"keyword": "nonn,easy",
			"offset": "0,2",
			"author": "Joe Keane (jgk(AT)jgk.org)",
			"references": 10,
			"revision": 26,
			"time": "2020-01-30T21:29:14-05:00",
			"created": "1999-12-11T03:00:00-05:00"
		}
	]
}