{
	"greeting": "Greetings from The On-Line Encyclopedia of Integer Sequences! http://oeis.org/",
	"query": "id:A049619",
	"count": 1,
	"start": 0,
	"results": [
		{
			"number": 49619,
			"data": "0,0,0,3,4,11,14,26,30,49,56,82,92,126,138,184,200,256,276,343,366,449,478,574,608,720,758,889,934,1081,1134,1298,1352,1540,1602,1814,1888,2120,2196,2456,2544,2826,2924,3229,3330,3669,3782,4146,4268,4661,4792",
			"name": "a(n) = Sum_{i=0..floor((n+1)/2)} T(2i+1,n-2i-1) where T is A049615.",
			"keyword": "nonn",
			"offset": "0,4",
			"author": "_Clark Kimberling_",
			"ext": [
				"More terms from _Sean A. Irvine_, Aug 05 2021"
			],
			"references": 4,
			"revision": 8,
			"time": "2021-08-05T20:01:36-04:00",
			"created": "1999-12-11T03:00:00-05:00"
		}
	]
}