{
	"greeting": "Greetings from The On-Line Encyclopedia of Integer Sequences! http://oeis.org/",
	"query": "id:A049341",
	"count": 1,
	"start": 0,
	"results": [
		{
			"number": 49341,
			"data": "3,6,9,6,6,3,9,3,3,6,9,6,6,3,9,3,3,6,9,6,6,3,9,3,3,6,9,6,6,3,9,3,3,6,9,6,6,3,9,3,3,6,9,6,6,3,9,3,3,6,9,6,6,3,9,3,3,6,9,6,6,3,9,3,3,6,9,6,6,3,9,3,3,6,9,6,6,3,9,3,3,6,9,6,6,3,9,3,3,6,9,6,6,3,9,3,3,6,9,6,6,3,9,3,3,6,9,6,6,3,9,3",
			"name": "a(n+1) = sum of digits of a(n) + a(n-1).",
			"comment": [
				"a(n+1) = a007953(a(n) + a(n-1)) for n \u003e 0.",
				"Terms of the simple continued fraction of 21447/[sqrt(1347705679)-29932]. [From _Paolo P. Lava_, Aug 06 2009]"
			],
			"link": [
				"Reinhard Zumkeller, \u003ca href=\"/A049341/b049341.txt\"\u003eTable of n, a(n) for n = 0..10000\u003c/a\u003e",
				"Michael Gilleland, \u003ca href=\"/selfsimilar.html\"\u003eSome Self-Similar Integer Sequences\u003c/a\u003e",
				"\u003ca href=\"/index/Rec#order_08\"\u003eIndex entries for linear recurrences with constant coefficients\u003c/a\u003e, signature (0, 0, 0, 0, 0, 0, 0, 1)."
			],
			"formula": [
				"Period 8.",
				"a(n)=1/224*{45*(n mod 8)+213*[(n+1) mod 8]-123*[(n+2) mod 8]+129*[(n+3) mod 8]+45*[(n+4) mod 8]+129*[(n+5) mod 8]-39*[(n+6) mod 8]-39*[(n+7) mod 8]} with n\u003e=0 - _Paolo P. Lava_, Nov 27 2006"
			],
			"example": [
				"After 6,9 we get 6+9 = 15 -\u003e 1+5 = 6."
			],
			"mathematica": [
				"LinearRecurrence[{0, 0, 0, 0, 0, 0, 0, 1},{3, 6, 9, 6, 6, 3, 9, 3},112] (* _Ray Chandler_, Aug 27 2015 *)"
			],
			"program": [
				"(Haskell)",
				"a049341 n =  a030132_list !! n",
				"a049341_list =",
				"   3 : 6 : map a007953 (zipWith (+) a049341_list $ tail a049341_list)",
				"-- _Reinhard Zumkeller_, Aug 20 2011"
			],
			"xref": [
				"Cf. A030132, A030133, A049342."
			],
			"keyword": "base,nonn",
			"offset": "0,1",
			"author": "_Damir Olejar_",
			"ext": [
				"Definition improved by _Reinhard Zumkeller_, Aug 20 2011"
			],
			"references": 4,
			"revision": 20,
			"time": "2015-08-27T11:09:04-04:00",
			"created": "1999-12-11T03:00:00-05:00"
		}
	]
}