{
	"greeting": "Greetings from The On-Line Encyclopedia of Integer Sequences! http://oeis.org/",
	"query": "id:A049587",
	"count": 1,
	"start": 0,
	"results": [
		{
			"number": 49587,
			"data": "2,3,5,7,13,17,19,29,37,43,47,53,59,73,79,83,97,103,107,109,113,127,137,139,149,151,157,163,167,173,179,193,197,223,227,229,233,239,241,251,257,263,269,277,283,293,307,313,317,337,347,349,359,367,373,379",
			"name": "Primes p such that x^55 = 2 has a solution mod p.",
			"comment": [
				"Complement of A059642 relative to A000040. - _Vincenzo Librandi_, Sep 14 2012"
			],
			"link": [
				"R. J. Mathar, \u003ca href=\"/A049587/b049587.txt\"\u003eTable of n, a(n) for n = 1..1000\u003c/a\u003e",
				"\u003ca href=\"/index/Pri#smp\"\u003eIndex entries for related sequences\u003c/a\u003e"
			],
			"mathematica": [
				"ok[p_] := Reduce[Mod[x^55 - 2, p] == 0, x, Integers] =!= False; Select[Prime[Range[100]], ok] (* _Vincenzo Librandi_, Sep 14 2012 *)"
			],
			"program": [
				"(MAGMA) [p: p in PrimesUpTo(400) | exists(t){x : x in ResidueClassRing(p) | x^55 eq 2}]; // _Vincenzo Librandi_, Sep 14 2012",
				"(PARI)",
				"N=10^4;  default(primelimit,N);",
				"ok(p, r, k)={ return ( (p==r) || (Mod(r,p)^((p-1)/gcd(k,p-1))==1) ); }",
				"forprime(p=2,N, if (ok(p,2,55),print1(p,\", \")));",
				"/* _Joerg Arndt_, Sep 21 2012 */"
			],
			"xref": [
				"Cf. A000040, A059642."
			],
			"keyword": "nonn,easy",
			"offset": "1,1",
			"author": "_N. J. A. Sloane_",
			"references": 2,
			"revision": 17,
			"time": "2020-03-06T22:55:58-05:00",
			"created": "1999-12-11T03:00:00-05:00"
		}
	]
}