{
	"greeting": "Greetings from The On-Line Encyclopedia of Integer Sequences! http://oeis.org/",
	"query": "id:A049221",
	"count": 1,
	"start": 0,
	"results": [
		{
			"number": 49221,
			"data": "1,0,1,4,14,46,148,474,1518,4864,15590,49974,160196,513522,1646134,5276800,16915150,54222686,173814580,557174698,1786062174,5725346304,18352995094,58831800038,188589419748,604536478850,1937883656166",
			"name": "Number of horizontally convex n-ominoes in which the top row has exactly 1 square, which is not above the rightmost square in the second row.",
			"link": [
				"Dean Hickerson, \u003ca href=\"http://www.cs.uwaterloo.ca/journals/JIS/HICK2/chcp.html\"\u003eCounting Horizontally Convex Polyominoes\u003c/a\u003e, J. Integer Sequences, Vol. 2 (1999), #99.1.8.",
				"\u003ca href=\"/index/Rec#order_03\"\u003eIndex entries for linear recurrences with constant coefficients\u003c/a\u003e, signature (5,-7,4)"
			],
			"formula": [
				"G.f.: x (1-x)^2 (1-3x+x^2)/(1-5x+7x^2-4x^3).",
				"a(n) = 5a(n-1) - 7a(n-2) + 4a(n-3) for n \u003e= 6.",
				"a(n) = A049219(n-1) + A049222(n) for n \u003e= 3."
			],
			"mathematica": [
				"a[ n_ ] := a[ n ]=If[ n\u003c6, {1, 0, 1, 4, 14}[ [ n ] ], 5a[ n-1 ]-7a[ n-2 ]+4a[ n-3 ] ]",
				"LinearRecurrence[{5,-7,4},{1,0,1,4,14},40] (* _Harvey P. Dale_, Nov 16 2015 *)"
			],
			"xref": [
				"Cf. A049219, A049222."
			],
			"keyword": "nonn,easy",
			"offset": "1,4",
			"author": "_Dean Hickerson_, Aug 10 1999",
			"references": 2,
			"revision": 18,
			"time": "2015-11-16T05:55:25-05:00",
			"created": "1999-12-11T03:00:00-05:00"
		}
	]
}