{
	"greeting": "Greetings from The On-Line Encyclopedia of Integer Sequences! http://oeis.org/",
	"query": "id:A049913",
	"count": 1,
	"start": 0,
	"results": [
		{
			"number": 49913,
			"data": "1,2,4,5,11,18,37,76,153,231,501,1021,2049,4104,8209,16420,32841,49263,106737,217579,437213,875454,1751428,3503126,7006330,14012737,28025513,56051045,112102097,224204200,448408401,896816804,1793633609",
			"name": "a(n) = a(1) + a(2) + ... + a(n-1) - a(m) for n \u003e= 4, where m = 2^(p+1) + 2 - n and p is the unique integer such that 2^p \u003c n - 1 \u003c= 2^(p+1), starting with a(1) = 1, a(2) = 2, and a(3) = 4.",
			"maple": [
				"s := proc(n) option remember; `if`(n \u003c 1, 0, a(n) + s(n - 1)) end proc:",
				"a := proc(n) option remember;",
				"`if`(n \u003c 4, [1,2,4][n], s(n - 1) - a(2^ceil(log[2](n - 1)) + 2 - n)):",
				"end proc:",
				"seq(a(n), n = 1..34); # _Petros Hadjicostas_, Nov 12 2019"
			],
			"keyword": "nonn",
			"offset": "1,2",
			"author": "_Clark Kimberling_",
			"ext": [
				"Name edited by _Petros Hadjicostas_, Nov 12 2019"
			],
			"references": 2,
			"revision": 10,
			"time": "2019-11-13T01:38:27-05:00",
			"created": "1999-12-11T03:00:00-05:00"
		}
	]
}