{
	"greeting": "Greetings from The On-Line Encyclopedia of Integer Sequences! http://oeis.org/",
	"query": "id:A049750",
	"count": 1,
	"start": 0,
	"results": [
		{
			"number": 49750,
			"data": "0,2,6,10,23,33,60,74,121,147,218,256,349,407,552,612,785,875,1094,1210,1501,1603,1948,2088,2503,2677,3146,3344,3891,4125,4764,5014,5751,6033,6850,7156,8075,8441,9436,9856,10985,11429,12682,13154,14541,15065,16560",
			"name": "a(n) = Sum_{i=0..floor(n/2)} T(2i,n-2i), array T as in A049747.",
			"keyword": "nonn",
			"offset": "0,2",
			"author": "_Clark Kimberling_",
			"ext": [
				"More terms from _Sean A. Irvine_, Aug 06 2021"
			],
			"references": 0,
			"revision": 9,
			"time": "2021-08-07T01:12:20-04:00",
			"created": "1999-12-11T03:00:00-05:00"
		}
	]
}