{
	"greeting": "Greetings from The On-Line Encyclopedia of Integer Sequences! http://oeis.org/",
	"query": "id:A049708",
	"count": 1,
	"start": 0,
	"results": [
		{
			"number": 49708,
			"data": "0,2,3,4,6,8,14,18,28,36,52,66,90,104,140,170,204,240,296,336,404,458,530,602,698,772,888,994,1108,1216,1364,1476,1638,1788,1972,2156,2356,2526,2766,2998,3240,3450,3740,3978,4298,4578",
			"name": "a(n) = Sum_{i=0..n} T(i,n-i), array T as in A049704.",
			"keyword": "nonn",
			"offset": "0,2",
			"author": "_Clark Kimberling_",
			"references": 0,
			"revision": 8,
			"time": "2021-08-07T00:05:52-04:00",
			"created": "1999-12-11T03:00:00-05:00"
		}
	]
}