{
	"greeting": "Greetings from The On-Line Encyclopedia of Integer Sequences! http://oeis.org/",
	"query": "id:A049180",
	"count": 1,
	"start": 0,
	"results": [
		{
			"number": 49180,
			"data": "1,1,3,11,43,183,815,3749,17693,85161,416451,2063255,10334187,52241811,266203487,1365869249,7050739841,36591914977,190811893315,999264296139,5253232501219,27713207861343,146664411527631,778434156770069",
			"name": "Revert transform of 2*(1 + x + x^2 + x^4 + x^5 + x^6)-1/(1-x).",
			"comment": [
				"Sign diagram of generating sequence: +++-+++---------..."
			],
			"link": [
				"\u003ca href=\"/index/Res#revert\"\u003eIndex entries for reversions of series\u003c/a\u003e"
			],
			"keyword": "nonn",
			"offset": "1,3",
			"author": "_Olivier Gérard_",
			"references": 0,
			"revision": 7,
			"time": "2012-03-30T17:20:57-04:00",
			"created": "1999-12-11T03:00:00-05:00"
		}
	]
}