{
	"greeting": "Greetings from The On-Line Encyclopedia of Integer Sequences! http://oeis.org/",
	"query": "id:A049873",
	"count": 1,
	"start": 0,
	"results": [
		{
			"number": 49873,
			"data": "2,2,3,5,10,19,36,67,125,233,435,812,1516,2830,5283,9862,18410,34367,64155,119762,223567,417346,779085,1454365,2714951,5068163,9461046,17661506,32969800,61546717,114892974,214477654,400378391",
			"name": "a(n)=Sum{a(k): k=0,1,2,...,n-4,n-2,n-1}; a(n-3) is not a summand; 3 initial terms required.",
			"formula": [
				"a(n)=2*a(n-1)-a(n-3)+a(n-4); 4 initial terms required."
			],
			"mathematica": [
				"LinearRecurrence[{2,0,-1,1},{2,2,3,5},40] (* _Harvey P. Dale_, May 08 2017 *)"
			],
			"keyword": "nonn",
			"offset": "0,1",
			"author": "_Clark Kimberling_",
			"references": 0,
			"revision": 7,
			"time": "2017-05-08T11:15:32-04:00",
			"created": "1999-12-11T03:00:00-05:00"
		}
	]
}