{
	"greeting": "Greetings from The On-Line Encyclopedia of Integer Sequences! http://oeis.org/",
	"query": "id:A049941",
	"count": 1,
	"start": 0,
	"results": [
		{
			"number": 49941,
			"data": "1,1,3,6,12,29,55,108,216,539,1025,2024,4031,8056,16109,32216,64432,161079,306051,604049,1204073,2406139,4811279,9622072,19243821,38487534,76975015,153950004,307899991,615799976,1231599949,2463199896,4926399792,12315999479,23400399011",
			"name": "a(n) = a(1) + a(2) + ... + a(n-1) + a(m), where m = 2^(p+1) + 2 - n and p is the unique integer such that 2^p \u003c n-1 \u003c= 2^(p+1), starting with a(1) = a(2) = 1.",
			"formula": [
				"From _Petros Hadjicostas_, Oct 06 2019: (Start)",
				"a(n) = a(2 - n + 2^ceiling(log_2(n-1))) + Sum_{i = 1..n-1} a(i) for n \u003e= 3.",
				"a(n) = a(n - 1 - A006257(n-2)) + Sum_{i = 1..n-1} a(i) for n \u003e= 3.",
				"(End)"
			],
			"example": [
				"From _Petros Hadjicostas_, Oct 06 2019: (Start)",
				"a(3) = a(2 - 3 + 2^ceiling(log_2(3-1))) + a(1) + a(2) = a(1) + a(1) + a(2) = 3.",
				"a(4) = a(2 - 4 + 2^ceiling(log_2(4-1))) + a(1) + a(2) + a(3) =  a(2) + a(1) + a(2) + a(3) = 6.",
				"a(5) = a(5 - 1 - A006257(5-2)) + a(1) + a(2) + a(3) + a(4) = a(1) + a(1) + a(2) + a(3) + a(4) = 12.",
				"(End)"
			],
			"maple": [
				"a := proc(n) local i; option remember; if n \u003c 3 then return [1, 1][n]; end if; add(a(i), i = 1 .. n - 1) + a(3 - n + Bits:-Iff(n - 2, n - 2)); end proc;",
				"seq(a(n), n = 1 .. 35); # _Petros Hadjicostas_, Oct 06 2019"
			],
			"xref": [
				"Cf. A006257."
			],
			"keyword": "nonn",
			"offset": "1,3",
			"author": "_Clark Kimberling_",
			"ext": [
				"More terms from _Petros Hadjicostas_, Oct 06 2019"
			],
			"references": 0,
			"revision": 23,
			"time": "2019-10-26T02:15:54-04:00",
			"created": "1999-12-11T03:00:00-05:00"
		}
	]
}