{
	"greeting": "Greetings from The On-Line Encyclopedia of Integer Sequences! http://oeis.org/",
	"query": "id:A049576",
	"count": 1,
	"start": 0,
	"results": [
		{
			"number": 49576,
			"data": "2,7,31,47,71,73,79,103,113,127,151,167,191,223,233,239,257,263,271,281,311,337,359,367,383,431,439,479,487,503,577,593,599,601,607,631,647,719,743,751,823,839,863,887,911,919,937,967,983,1031,1033,1039",
			"name": "Primes p such that x^44 = 2 has a solution mod p.",
			"comment": [
				"Complement of A059636 relative to A000040. - _Vincenzo Librandi_, Sep 14 2012"
			],
			"link": [
				"R. J. Mathar, \u003ca href=\"/A049576/b049576.txt\"\u003eTable of n, a(n) for n = 1..1000\u003c/a\u003e",
				"\u003ca href=\"/index/Pri#smp\"\u003eIndex entries for related sequences\u003c/a\u003e"
			],
			"mathematica": [
				"ok[p_]:= Reduce[Mod[x^44 - 2, p] == 0, x, Integers] =!= False; Select[Prime[Range[300]], ok] (* _Vincenzo Librandi_, Sep 14 2012 *)"
			],
			"program": [
				"(MAGMA) [p: p in PrimesUpTo(1100) | exists(t){x : x in ResidueClassRing(p) | x^44 eq 2}]; // _Vincenzo Librandi_, Sep 14 2012",
				"(PARI)",
				"N=10^4;  default(primelimit,N);",
				"ok(p, r, k)={ return (  Mod(r,p)^((p-1)/gcd(k,p-1)) == 1 ); }",
				"forprime(p=2,N, if (ok(p,2,44),print1(p,\", \")));",
				"/* _Joerg Arndt_, Sep 21 2012 */"
			],
			"xref": [
				"Cf. A000040, A059636."
			],
			"keyword": "nonn,easy",
			"offset": "1,1",
			"author": "_N. J. A. Sloane_",
			"references": 2,
			"revision": 17,
			"time": "2020-03-06T23:53:22-05:00",
			"created": "1999-12-11T03:00:00-05:00"
		}
	]
}