{
	"greeting": "Greetings from The On-Line Encyclopedia of Integer Sequences! http://oeis.org/",
	"query": "id:A049328",
	"count": 1,
	"start": 0,
	"results": [
		{
			"number": 49328,
			"data": "51,91,130,154,156,220,264,297,392,441,525,560,625,630,672,750,756,800,900,960,1024,1080,1152,1215,1296,1458",
			"name": "Numbers whose prime factors (taken with multiplicity) sum to 20.",
			"comment": [
				"Numbers whose prime factorization k = 2^i_1 * 3^i_2 * 5^i_3 * .. * 17^i_7 * 19^i_8 satisfies 2*i_1 + 3*i_2 + ... + 17*i_7 + 19*i_8 = 20. - _N. J. A. Sloane_, Jan 16 2019"
			],
			"example": [
				"E.g. 51 = 3 * 17 and 3 + 17 = 20. 1024 = 2^10 and 10*2 = 20."
			],
			"mathematica": [
				"pfs20Q[n_]:=Total[#[[1]]#[[2]]\u0026/@FactorInteger[n]]==20; Select[Range[ 10000],pfs20Q] (* _Harvey P. Dale_, Jan 17 2019 *)"
			],
			"xref": [
				"Numbers k such that A001414(k) = 20."
			],
			"keyword": "fini,full,nonn",
			"offset": "1,1",
			"author": "Rawlyn Watson (rawlyn(AT)chplayers.freeserve.co.uk)",
			"ext": [
				"Corrected by _Frank Ellermann_, Jun 07 2001",
				"Further corrected by _N. J. A. Sloane_, Jan 16 2019 at the suggestion of _Harvey P. Dale_."
			],
			"references": 0,
			"revision": 14,
			"time": "2019-01-17T10:29:04-05:00",
			"created": "1999-12-11T03:00:00-05:00"
		}
	]
}