{
	"greeting": "Greetings from The On-Line Encyclopedia of Integer Sequences! http://oeis.org/",
	"query": "id:A049409",
	"count": 1,
	"start": 0,
	"results": [
		{
			"number": 49409,
			"data": "1,2,7,12,13,17,22,23,24,28,29,30,40,43,44,50,62,63,68,73,74,77,79,83,85,94,99,110,117,118,120,122,127,129,134,143,145,154,162,164,165,172,175,177,193,198,204,208,222,227,239,249,254,255,260",
			"name": "Numbers n such that n^4 + n^3 + n^2 + n + 1 is prime.",
			"comment": [
				"There is no square \u003e 1 in this sequence, because if f(n) = n^4 + n^3 + n^2 + n + 1, then f(n^2) = f(n)*f(-n). Actually, f(x) divides f(x^m) for all m not in 5Z. So the only perfect powers in this sequence can be 5th, 25th, 125th... powers. The least perfect power \u003e 1 in this sequence is 22^5. - _M. F. Hasler_, Feb 09 2012",
				"The corresponding prime numbers n^4 + n^3 + n^2 + n + 1 are in A088548. - _Bernard Schott_, Dec 19 2012",
				"This is also the list of bases where 11111 is a prime number. - _Christian N. K. Anderson_, Mar 28 2013"
			],
			"link": [
				"T. D. Noe, \u003ca href=\"/A049409/b049409.txt\"\u003eTable of n, a(n) for n = 1..1000\u003c/a\u003e"
			],
			"maple": [
				"A049409:=n-\u003eif isprime(n^4+n^3+n^2+n+1) then n fi; seq(A049409(n), n=1..300); # _Wesley Ivan Hurt_, Dec 28 2013"
			],
			"mathematica": [
				"lst={}; Do[p=n^0+n^1+n^2+n^3+n^4; If[PrimeQ[p], AppendTo[lst,n]], {n,300}]; lst (* _Vladimir Joseph Stephan Orlovsky_, Jun 10 2009 *)",
				"Select[Range[300],PrimeQ[1+Total[#^Range[4]]]\u0026] (* _Harvey P. Dale_, Mar 12 2018 *)"
			],
			"program": [
				"(PARI) for(n=1,1000, ispseudoprime(n^4+n^3+n^2+n+1) \u0026 print1(n\",\"))  \\\\ _M. F. Hasler_, Feb 09 2012"
			],
			"xref": [
				"Cf. A088548."
			],
			"keyword": "nonn",
			"offset": "1,2",
			"author": "_N. J. A. Sloane_",
			"references": 35,
			"revision": 37,
			"time": "2018-03-12T17:47:27-04:00",
			"created": "1999-12-11T03:00:00-05:00"
		}
	]
}