{
	"greeting": "Greetings from The On-Line Encyclopedia of Integer Sequences! http://oeis.org/",
	"query": "id:A049892",
	"count": 1,
	"start": 0,
	"results": [
		{
			"number": 49892,
			"data": "1,1,3,4,6,14,26,49,78,181,360,717,1414,2776,5270,9486,15116,35501,71000,141997,283974,567896,1135510,2269966,4536076,9062306,18068728,35924482,70997428,138594290,263655928,474383156,756107812",
			"name": "a(n) = a(1) + a(2) + ... + a(n-1) - a(m) for n \u003e= 4, where m = 2*n - 3 - 2^(p+1) and p is the unique integer such that 2^p \u003c n - 1 \u003c= 2^(p+1), starting with a(1) = a(2) = 1 and a(3) = 3.",
			"maple": [
				"s := proc(n) option remember; `if`(n \u003c 1, 0, a(n) + s(n - 1)) end proc:",
				"a := proc(n) option remember;",
				"`if`(n \u003c 4, [1, 1, 3][n], s(n - 1) - a(-2^ceil(log[2](n - 1)) + 2*n - 3)):",
				"end proc:",
				"seq(a(n), n = 1..40); # _Petros Hadjicostas_, Nov 15 2019"
			],
			"keyword": "nonn",
			"offset": "1,3",
			"author": "_Clark Kimberling_",
			"ext": [
				"Name edited by _Petros Hadjicostas_, Nov 15 2019"
			],
			"references": 0,
			"revision": 10,
			"time": "2019-11-16T03:29:09-05:00",
			"created": "1999-12-11T03:00:00-05:00"
		}
	]
}