{
	"greeting": "Greetings from The On-Line Encyclopedia of Integer Sequences! http://oeis.org/",
	"query": "id:A049562",
	"count": 1,
	"start": 0,
	"results": [
		{
			"number": 49562,
			"data": "2,17,23,47,89,113,127,137,167,223,233,239,257,263,353,359,383,431,433,439,449,457,479,503,569,593,599,617,641,647,719,727,743,809,839,857,863,887,911,919,929,953,977,983,1049,1097,1103,1193,1217,1223,1289",
			"name": "Primes p such that x^30 = 2 has a solution mod p.",
			"comment": [
				"Complement of A059334 relative to A000040. - _Vincenzo Librandi_, Sep 14 2012"
			],
			"link": [
				"R. J. Mathar, \u003ca href=\"/A049562/b049562.txt\"\u003eTable of n, a(n) for n = 1..1000\u003c/a\u003e",
				"\u003ca href=\"/index/Pri#smp\"\u003eIndex entries for related sequences\u003c/a\u003e"
			],
			"mathematica": [
				"ok[p_]:= Reduce[Mod[x^30 - 2, p] == 0, x, Integers] =!= False; Select[Prime[Range[300]], ok] (* _Vincenzo Librandi_, Sep 14 2012 *)"
			],
			"program": [
				"(MAGMA) [p: p in PrimesUpTo(1300) | exists(t){x : x in ResidueClassRing(p) | x^30 eq 2}]; // _Vincenzo Librandi_, Sep 14 2012"
			],
			"xref": [
				"Cf. A000040, A059334."
			],
			"keyword": "nonn,easy",
			"offset": "1,1",
			"author": "_N. J. A. Sloane_",
			"references": 2,
			"revision": 15,
			"time": "2020-03-06T23:58:30-05:00",
			"created": "1999-12-11T03:00:00-05:00"
		}
	]
}