{
	"greeting": "Greetings from The On-Line Encyclopedia of Integer Sequences! http://oeis.org/",
	"query": "id:A050740",
	"count": 1,
	"start": 0,
	"results": [
		{
			"number": 50740,
			"data": "1,121,14641,161051,19487171,2357947691,25937424601,3138428376721,45949729863572161",
			"name": "Numbers of form 11^k (values of k see A050731) containing no pair of consecutive equal digits (probably finite).",
			"xref": [
				"Cf. A043096, A050731."
			],
			"keyword": "nonn,base",
			"offset": "0,2",
			"author": "_Patrick De Geest_, Sep 15 1999",
			"references": 0,
			"revision": 5,
			"time": "2019-10-16T01:12:19-04:00",
			"created": "1999-12-11T03:00:00-05:00"
		}
	]
}