{
	"greeting": "Greetings from The On-Line Encyclopedia of Integer Sequences! http://oeis.org/",
	"query": "id:A050595",
	"count": 1,
	"start": 0,
	"results": [
		{
			"number": 50595,
			"data": "1,5,7,9,15,19,21,35,37,39,41,49,69,111,115,141,159,181,201,217,487,567,677,765,811,841,917,1279,1407,1505,1521,1587,2047,2469,2649,3019,7427,10257,33685,34479,35177,43641,49211,65031,84907,90231,95021,124375,176425,224947,382441,451367",
			"name": "Numbers k such that 139*2^k-1 is prime.",
			"link": [
				"Ray Ballinger and Wilfrid Keller, \u003ca href=\"http://www.prothsearch.com/riesel1.html\"\u003eList of primes k.2^n + 1 for k \u003c 300\u003c/a\u003e",
				"Wilfrid Keller, \u003ca href=\"http://www.prothsearch.com/riesel2.html\"\u003eList of primes k.2^n - 1 for k \u003c 300\u003c/a\u003e",
				"Kosmaj, \u003ca href=\"http://www.15k.org/riesellist.html\"\u003eRiesel list k\u003c300\u003c/a\u003e.",
				"\u003ca href=\"/index/Pri#riesel\"\u003eIndex entries for sequences of n such that k*2^n-1 (or k*2^n+1) is prime\u003c/a\u003e"
			],
			"mathematica": [
				"Select[Range[1000], PrimeQ[139*2^# - 1] \u0026 ] (* _Robert Price_, Dec 23 2018 *)"
			],
			"program": [
				"(PARI) is(n)=ispseudoprime(139*2^n-1) \\\\ _Charles R Greathouse IV_, Jun 13 2017"
			],
			"keyword": "hard,nonn",
			"offset": "1,2",
			"author": "_N. J. A. Sloane_, Dec 29 1999",
			"ext": [
				"More terms from Herman Jamke (hermanjamke(AT)fastmail.fm), Jan 02 2008",
				"a(49)-a(52) from the Wilfrid Keller link by _Robert Price_, Dec 23 2018"
			],
			"references": 0,
			"revision": 24,
			"time": "2019-01-17T10:08:17-05:00",
			"created": "2000-05-08T03:00:00-04:00"
		}
	]
}