{
	"greeting": "Greetings from The On-Line Encyclopedia of Integer Sequences! http://oeis.org/",
	"query": "id:A050039",
	"count": 1,
	"start": 0,
	"results": [
		{
			"number": 50039,
			"data": "1,1,4,5,10,11,16,27,54,55,60,71,98,153,224,377,754,755,760,771,798,853,924,1077,1454,2209,2980,3833,4910,7119,10952,18071,36142,36143,36148,36159,36186,36241,36312,36465,36842,37597,38368",
			"name": "a(n) = a(n-1) + a(m) for n \u003e= 4, where m = 2*n - 2 - 2^(p+1) and p is the unique integer such that 2^p \u003c n - 1 \u003c= 2^(p+1), starting with a(1) = a(2) = 1 and a(2) = 4.",
			"link": [
				"Ivan Neretin, \u003ca href=\"/A050039/b050039.txt\"\u003eTable of n, a(n) for n = 1..8193\u003c/a\u003e"
			],
			"mathematica": [
				"Fold[Append[#1, #1[[-1]] + #1[[#2]]] \u0026, {1, 1, 4}, Flatten@Table[2 k, {n, 5}, {k, 2^n}]] (* _Ivan Neretin_, Sep 06 2015 *)"
			],
			"program": [
				"(PARI) lista(nn) = {nn = max(nn, 3); my(va = vector(nn)); va[1] = 1; va[2] = 1; va[3] = 4; for(n=4, nn, va[n] = va[n-1] + va[2*(n - 1 - 2^logint(n-2, 2))]); va; } \\\\ _Petros Hadjicostas_, May 15 2020"
			],
			"xref": [
				"Cf. A050027, A050031, A050035, A050043, A050047, A050051, A050055, A050059, A050063, A050067, A050071 (similar, but with different initial conditions)."
			],
			"keyword": "nonn",
			"offset": "1,3",
			"author": "_Clark Kimberling_",
			"ext": [
				"Name edited by _Petros Hadjicostas_, May 15 2020"
			],
			"references": 11,
			"revision": 18,
			"time": "2020-05-15T10:24:53-04:00",
			"created": "1999-12-11T03:00:00-05:00"
		}
	]
}