{
	"greeting": "Greetings from The On-Line Encyclopedia of Integer Sequences! http://oeis.org/",
	"query": "id:A050269",
	"count": 1,
	"start": 0,
	"results": [
		{
			"number": 50269,
			"data": "1,2,3,4,5,1,3,6,7,8,9,2,4,10,11,12,1,8,13,3,5,14,15,16,17,4,6,18,3,8,19,20,21,1,2,5,7,12,15,22,23,24,25,6,8,26,27,4,12,28,29,7,9,30,3,16,31,32,1,24,33,8,10,34,35,36,5,16,37,2,3,9,11,21,24,38,39,4,20,40,41",
			"name": "Smallest value a for Diophantine 1-doubles (a,b) ordered by smallest b.",
			"link": [
				"P. Gibbs, \u003ca href=\"https://arxiv.org/abs/math/0107203\"\u003eDiophantine quadruples and Cayley's hyperdeterminant\u003c/a\u003e, arXiv:math/0107203 [math.NT], 2001.",
				"Eric Weisstein's World of Mathematics, \u003ca href=\"http://mathworld.wolfram.com/DiophantusProperty.html\"\u003eDiophantus Property.\u003c/a\u003e"
			],
			"mathematica": [
				"m = 0; Do[If[IntegerQ[Sqrt[a*b + 1]], an[m++] = a], {b, 2, 43}, {a, 1, b}]; Array[an, 81, 0] (* _Jean-François Alcover_, Feb 04 2019 *)"
			],
			"program": [
				"(PARI) an=vector(81); m=0; for(b=2,43, for(a=1,b, if(issquare(a*b+1), an[ m++ ]=a))); an"
			],
			"xref": [
				"Cf. A050270."
			],
			"keyword": "nonn",
			"offset": "1,2",
			"author": "_Eric W. Weisstein_",
			"references": 2,
			"revision": 15,
			"time": "2019-02-04T12:18:19-05:00",
			"created": "1999-12-11T03:00:00-05:00"
		}
	]
}