{
	"greeting": "Greetings from The On-Line Encyclopedia of Integer Sequences! http://oeis.org/",
	"query": "id:A050726",
	"count": 1,
	"start": 0,
	"results": [
		{
			"number": 50726,
			"data": "0,1,2,3,4,5,6,7,8,9,10,14,15,16,17,18,19,20,21,22,27,28,29,32",
			"name": "Decimal expansion of 5^n contains no pair of consecutive equal digits (probably finite).",
			"comment": [
				"No further terms up to 3000. [From Harvey P. Dale, May 11 2011]",
				"No further terms up to 80000. - _Ivan N. Ianakiev_, Aug 31 2019"
			],
			"example": [
				"5^32 = 23283064365386962890625."
			],
			"mathematica": [
				"Select[Range[0,3000],And@@(First[#]!=Last[#]\u0026/@Partition[ IntegerDigits[ 5^#],2,1])\u0026] (* _Harvey P. Dale_, May 11 2011 *)",
				"Select[Range[0,40],SequenceCount[IntegerDigits[5^#],{x_,x_}]==0\u0026] (* Requires Mathematica version 10 or later *) (* _Harvey P. Dale_, Jun 12 2020 *)"
			],
			"xref": [
				"Cf. A008839, A046263, A046271."
			],
			"keyword": "nonn,base",
			"offset": "0,3",
			"author": "_Patrick De Geest_, Sep 15 1999",
			"references": 1,
			"revision": 14,
			"time": "2020-06-12T13:42:56-04:00",
			"created": "1999-12-11T03:00:00-05:00"
		}
	]
}