{
	"greeting": "Greetings from The On-Line Encyclopedia of Integer Sequences! http://oeis.org/",
	"query": "id:A050637",
	"count": 1,
	"start": 0,
	"results": [
		{
			"number": 50637,
			"data": "2,8,42,2458,310042,2929997542,1046218875000310042,406005268741864709999999997070002458,50376698115810287966925579573179705000000000000000001046218875000310042",
			"name": "a(1) = 2; a(n+1)^2 is next smallest square ending with a(n)^2.",
			"xref": [
				"Cf. A050636, A048560, A050631, A061361.",
				"See A065789 for an essentially identical sequence."
			],
			"keyword": "nonn,base",
			"offset": "1,1",
			"author": "_Patrick De Geest_, Jul 15 1999",
			"ext": [
				"More terms from Ulrich Schimke (ulrschimke(AT)aol.com), Nov 06 2001"
			],
			"references": 5,
			"revision": 8,
			"time": "2015-03-05T12:19:18-05:00",
			"created": "1999-12-11T03:00:00-05:00"
		}
	]
}