{
	"greeting": "Greetings from The On-Line Encyclopedia of Integer Sequences! http://oeis.org/",
	"query": "id:A050146",
	"count": 1,
	"start": 0,
	"results": [
		{
			"number": 50146,
			"data": "1,1,4,18,88,450,2364,12642,68464,374274,2060980,11414898,63521352,354870594,1989102444,11180805570,63001648608,355761664002,2012724468324,11406058224594,64734486343480,367891005738690,2093292414443164,11923933134635298,67990160422313808",
			"name": "a(n) = T(n,n), array T as in A050143.",
			"comment": [
				"Also main diagonal of array : m(i,1)=1, i\u003e=1; m(1,j)=2, j\u003e1; m(i,j)=m(i,j-1)+m(i-1,j-1)+m(i-1,j): 1 2 2 2 ... / 1 4 8 12 ... / 1 6 18 38 ... / 1 8 32 88 ... / - _Benoit Cloitre_, Aug 05 2002",
				"a(n) is also the number of order-preserving partial transformations (of an n-element chain) of waist n (waist(alpha) = max(Im(alpha))). - _Abdullahi Umar_, Aug 25 2008",
				"Define a finite triangle T(r,c) with T(r,0) = binomial(n,r) for 0\u003c=r\u003c=n, and the other terms recursively with T(r,c) = T(r,c-1) + 2*T(r-1,c-1). The sum of the last terms in each row is Sum_{r=0..n} T(r,r)=a(n+1). For n=4 the triangle is 1; 4 6; 6 14 26; 4 16 44 96; 1 9 41 129 321 with the sum of the last terms being 1 + 6 + 26 + 96 + 321 = 450 = a(5). - _J. M. Bergot_, Jan 29 2013",
				"It may be better to define a(0) = 0 for formulas without exceptions. - _Michael Somos_, Nov 25 2016"
			],
			"link": [
				"Vincenzo Librandi, \u003ca href=\"/A050146/b050146.txt\"\u003eTable of n, a(n) for n = 0..200\u003c/a\u003e",
				"A. Laradji and A. Umar, \u003ca href=\"http://dx.doi.org/10.1016/j.jalgebra.2003.10.023\"\u003eA. Combinatorial results for semigroups of order-preserving partial transformations\u003c/a\u003e, Journal of Algebra, 278 (2004), 342-359.",
				"A. Laradji and A. Umar \u003ca href=\"http://www.cs.uwaterloo.ca/journals/JIS/VOL7/Umar/um.html\"\u003eCombinatorial results for semigroups of order-decreasing partial transformations\u003c/a\u003e, J. Integer Seq., 7 (2004), 04.3.8.",
				"Emanuele Munarini, \u003ca href=\"http://www.emis.de/journals/INTEGERS/papers/j29/j29.Abstract.html\"\u003eCombinatorial properties of the antichains of a garland\u003c/a\u003e, Integers, 9 (2009), 353-374."
			],
			"formula": [
				"From _Vladeta Jovovic_, Mar 31 2004: (Start)",
				"Coefficient of x^(n-1) in expansion of ((1+x)/(1-x))^n, n \u003e 0.",
				"a(n) = Sum_{k=1..n} binomial(n, k)*binomial(n+k-2, k-1), n \u003e 0. (End)",
				"(n-1)*(n-2)*a(n) = 3*(2*n-3)*(n-2)*a(n-1) - (n-1)*(n-3)*a(n-2) for n \u003e 2. - _Vladeta Jovovic_, Jul 16 2004",
				"a(n+1) = Jacobi_P(n, 1, -1, 3); a(n+1) = Sum{k=0..n} C(n+1, k)*C(n-1, n-k)*2^k. - _Paul Barry_, Jan 23 2006",
				"a(n) = n*A006318(n-1) - _Abdullahi Umar_, Aug 25 2008",
				"a(n) ~ sqrt(3*sqrt(2)-4)*(3+2*sqrt(2))^n/(2*sqrt(Pi*n)). - _Vaclav Kotesovec_, Oct 08 2012",
				"a(n+1) = A035607(2*n,n). - _Reinhard Zumkeller_, Jul 20 2013",
				"a(n) = n*hypergeometric([1-n, n], [2], -1) for n \u003e= 1. - _Peter Luschny_, Sep 17 2014",
				"O.g.f.: -(x^4 + sqrt(x^2 - 6*x + 1)*(x^3 - 5*x^2 + 5*x + 1) - 8*x^3 + 16*x^2 - 6*x + 1)/(x^3 + sqrt(x^2 - 6*x + 1)*(x^2 - 4*x - 1)- 7*x^2 + 7*x - 1). - _Vladimir Kruchinin_, Nov 25 2016",
				"0 = a(n)*(a(n+1) - 18*a(n+2) + 65*a(n+3) - 12*a(n+4)) + a(n+1)*(54*a(n+2) - 408*a(n+3) + 81*a(n+4)) + a(n+2)*(72*a(n+2) + 334*a(n+3) - 90*a(n+4)) + a(n+3)*(-24*a(n+3) + 9*a(n+4)) for all integer n if a(0) = 0 and a(n) = -2*A050151(-n) for n \u003c 0. - _Michael Somos_, Nov 25 2016",
				"O.g.f: (2 - x + x*(3 - x)/sqrt(x^2 - 6*x + 1))/2. - _Petros Hadjicostas_, Feb 14 2021"
			],
			"example": [
				"G.f. = 1 + x + 4*x^2 + 18*x^3 + 88*x^4 + 450*x^5 + 2364*x^6 + 12642*x^7 + ..."
			],
			"mathematica": [
				"Flatten[{1,RecurrenceTable[{(n-3)*(n-1)*a[n-2]-3*(n-2)*(2*n-3)*a[n-1]+(n-2)*(n-1)*a[n]==0,a[1]==1,a[2]==4},a,{n,20}]}] (* _Vaclav Kotesovec_, Oct 08 2012 *)",
				"a[ n_] := If[ n == 0, 1, Sum[ Binomial[n, k] Binomial[n + k - 2, k - 1], {k, n}]]; (* _Michael Somos_, Nov 25 2016 *)",
				"a[ n_] := If[ n == 0, 1, Hypergeometric2F1[1 - n, n, 2, -1]; (* _Michael Somos_, Nov 25 2016 *)"
			],
			"program": [
				"(PARI) a(n)=if(n==0, 1, sum(k=1,n, binomial(n, k)*binomial(n+k-2, k-1)) ); \\\\ _Joerg Arndt_, May 04 2013",
				"(Haskell)",
				"a050146 n = if n == 0 then 1 else a035607 (2 * n - 2) (n - 1)",
				"-- _Reinhard Zumkeller_, Nov 05 2013, Jul 20 2013",
				"(Sage)",
				"A050146 = lambda n : n*hypergeometric([1-n, n], [2], -1) if n\u003e0 else 1",
				"[round(A050146(n).n(100)) for n in (0..24)] # _Peter Luschny_, Sep 17 2014",
				"(Maxima)",
				"taylor(-(x^4+sqrt(x^2-6*x+1)*(x^3-5*x^2+5*x+1)-8*x^3+16*x^2-6*x+1)/(x^3+sqrt(x^2-6*x+1)*(x^2-4*x-1)-7*x^2+7*x-1),x,0,10); /* _Vladimir Kruchinin_, Nov 25 2016"
			],
			"xref": [
				"Cf. A002003, A006318, A050151."
			],
			"keyword": "nonn",
			"offset": "0,3",
			"author": "_Clark Kimberling_",
			"references": 11,
			"revision": 66,
			"time": "2021-02-14T01:57:21-05:00",
			"created": "1999-12-11T03:00:00-05:00"
		}
	]
}