{
	"greeting": "Greetings from The On-Line Encyclopedia of Integer Sequences! http://oeis.org/",
	"query": "id:A050620",
	"count": 1,
	"start": 0,
	"results": [
		{
			"number": 50620,
			"data": "2,11,43,209,1042,6771,26823,130599,651237,3255306,21158903,83821639,408121757,2035115566,13224589033,52388661704,331370112102,1691563962301,6567827879588,41430886596044,211450306579272,1059399469695886,5298071316879193,20530429091056784",
			"name": "Quotients arising from sequence A035014.",
			"link": [
				"Ray Chandler, \u003ca href=\"/A050620/b050620.txt\"\u003eTable of n, a(n) for n = 1..1431\u003c/a\u003e (terms \u003c 10^1000, first 1000 terms from Alois P. Heinz)"
			],
			"formula": [
				"a(n) = a(n-1)/2 + 5^(n-1)*(4-[a(n-1) mod 2])/2. - Antonio G. Astudillo (afg_astudillo(AT)hotmail.com), Jun 17 2001",
				"a(n) = A035014(n)/2^n. - _Michel Marcus_, Apr 07 2017"
			],
			"program": [
				"(PARI) a(n) = if (n==1, 2, a(n-1)/2 + 5^(n-1)*(4-(a(n-1) % 2))/2);"
			],
			"xref": [
				"Cf. A023402, A035014."
			],
			"keyword": "nonn,base",
			"offset": "1,1",
			"author": "_Patrick De Geest_, Jun 15 1999",
			"ext": [
				"More terms from Antonio G. Astudillo (afg_astudillo(AT)hotmail.com), Jun 17 2001",
				"More terms from _Michel Marcus_, Apr 07 2017"
			],
			"references": 3,
			"revision": 14,
			"time": "2020-06-17T16:42:25-04:00",
			"created": "1999-12-11T03:00:00-05:00"
		}
	]
}