{
	"greeting": "Greetings from The On-Line Encyclopedia of Integer Sequences! http://oeis.org/",
	"query": "id:A050363",
	"count": 1,
	"start": 0,
	"results": [
		{
			"number": 50363,
			"data": "1,1,1,2,1,2,1,4,2,2,1,5,1,2,2,8,1,5,1,5,2,2,1,12,2,2,4,5,1,6,1,16,2,2,2,14,1,2,2,12,1,6,1,5,5,2,1,28,2,5,2,5,1,12,2,12,2,2,1,18,1,2,5,32,2,6,1,5,2,6,1,37,1,2,5,5,2,6,1,28,8,2,1,18,2,2,2,12,1,18,2,5,2,2,2,64",
			"name": "Number of ordered factorizations into prime powers greater than 1.",
			"comment": [
				"a(n) depends only on prime signature of n (cf. A025487). So a(24) = a(375) since 24 = 2^3*3 and 375 = 3*5^3 both have prime signature (3,1).",
				"The Dirichlet inverse is in A010055, turning all but the first element in A010055 negative. - _R. J. Mathar_, Jul 15 2010",
				"Not multiplicative: a(6) =2 \u003c\u003e a(2)*a(3) = 1*1. - _R. J. Mathar_, May 25 2017"
			],
			"link": [
				"R. J. Mathar, \u003ca href=\"/A050363/b050363.txt\"\u003eTable of n, a(n) for n = 1..5000\u003c/a\u003e"
			],
			"formula": [
				"Dirichlet g.f.: 1/(1-B(s)) where B(s) is D.g.f. of characteristic function of prime powers \u003e1.",
				"a(p^k) = 2^(k-1).",
				"a(A002110(k)) = k!.",
				"a(n) = A050364(A101296(n)). - _R. J. Mathar_, May 26 2017",
				"G.f. A(x) satisfies: A(x) = x + Sum_{p prime, k\u003e=1} A(x^(p^k)). - _Ilya Gutkovskiy_, May 11 2019"
			],
			"example": [
				"From _R. J. Mathar_, May 25 2017: (Start)",
				"a(p^2)  = 2: factorizations p^2, p*p.",
				"a(p^3)  = 4: factorizations p^3, p^2*p, p*p^2, p*p*p.",
				"a(p*q)  = 2: factorizations p*q, q*p.",
				"a(p*q^2)= 5: factorizations p*q^2, q^2*p, p*q*q, q*p*q, q*q*p. (End)"
			],
			"maple": [
				"read(transforms) ;",
				"[1,seq(-A010055(n),n=2..100)] ;",
				"DIRICHLETi(%) ; # _R. J. Mathar_, May 25 2017"
			],
			"xref": [
				"Cf. A000961, A050360, A050361, A050362, A050363, A050364, A076277."
			],
			"keyword": "nonn",
			"offset": "1,4",
			"author": "_Christian G. Bower_, Oct 15 1999",
			"references": 4,
			"revision": 29,
			"time": "2021-01-03T15:56:41-05:00",
			"created": "1999-12-11T03:00:00-05:00"
		}
	]
}