{
	"greeting": "Greetings from The On-Line Encyclopedia of Integer Sequences! http://oeis.org/",
	"query": "id:A050585",
	"count": 1,
	"start": 0,
	"results": [
		{
			"number": 50585,
			"data": "12,16,52,160,192,216,376,436,266136,401552",
			"name": "Numbers n such that 119*2^n-1 is prime.",
			"link": [
				"Ray Ballinger and Wilfrid Keller, \u003ca href=\"http://www.prothsearch.com/riesel1.html\"\u003eList of primes k.2^n + 1 for k \u003c 300\u003c/a\u003e",
				"Wilfrid Keller, \u003ca href=\"http://www.prothsearch.com/riesel2.html\"\u003eList of primes k.2^n - 1 for k \u003c 300\u003c/a\u003e",
				"\u003ca href=\"/index/Pri#riesel\"\u003eIndex entries for sequences of n such that k*2^n-1 (or k*2^n+1) is prime\u003c/a\u003e",
				"Kosmaj, \u003ca href=\"http://www.15k.org/riesellist.html\"\u003eRiesel list k\u003c300\u003c/a\u003e."
			],
			"program": [
				"(PARI) is(n)=ispseudoprime(119*2^n-1) \\\\ _Charles R Greathouse IV_, Jun 13 2017"
			],
			"keyword": "hard,nonn",
			"offset": "1,1",
			"author": "_N. J. A. Sloane_, Dec 29 1999",
			"ext": [
				"More terms from Herman Jamke (hermanjamke(AT)fastmail.fm), Jan 02 2008"
			],
			"references": 0,
			"revision": 18,
			"time": "2019-01-17T10:08:17-05:00",
			"created": "2000-05-08T03:00:00-04:00"
		}
	]
}