{
	"greeting": "Greetings from The On-Line Encyclopedia of Integer Sequences! http://oeis.org/",
	"query": "id:A050113",
	"count": 1,
	"start": 0,
	"results": [
		{
			"number": 50113,
			"data": "1,5,7,9,27,2,20,93,4,22,31,6,15,72,24,33,65,8,17,42,74,26,193,10,51,83,99,19,273,28,76,92,108,124,541,3,53,69,85,101,188,21,204,550,30,62,165,94,110,692,126,268,653,14,55,158,71,87",
			"name": "a(n) = position of n in A050112.",
			"xref": [
				"Cf. A050112."
			],
			"keyword": "nonn",
			"offset": "1,2",
			"author": "_Clark Kimberling_",
			"ext": [
				"Definition corrected by _Georg Fischer_, Aug 06 2021"
			],
			"references": 0,
			"revision": 6,
			"time": "2021-08-06T07:47:40-04:00",
			"created": "1999-12-11T03:00:00-05:00"
		}
	]
}