{
	"greeting": "Greetings from The On-Line Encyclopedia of Integer Sequences! http://oeis.org/",
	"query": "id:A050819",
	"count": 1,
	"start": 0,
	"results": [
		{
			"number": 50819,
			"data": "3,141,59265,358979,3238462643,3832795028841,97169399375105,820974944592307,81640628620899862803,48253421170679821480865,132823066470938446095505,82231725359408128481117450284102701,9385211055596446229489549303819644288109",
			"name": "Increasing odd numbers seen in decimal expansion of Pi (disregarding the decimal period) contiguous, smallest and distinct.",
			"comment": [
				"Leading zero not allowed thus forcing continuation of previous term."
			],
			"link": [
				"Carlos Rivera, \u003ca href=\"http://www.primepuzzles.net/problems/prob_018.htm\"\u003eProblem 18. Pi as a concatenation of the smallest contiguous different primes\u003c/a\u003e, The Prime Puzzles \u0026 Problems Connection."
			],
			"xref": [
				"Cf. A000796, A016062, A037244, A047777, A050817, A016062, A050818, A050807."
			],
			"keyword": "nonn,easy,base",
			"offset": "1,1",
			"author": "_Patrick De Geest_, Oct 15 1999",
			"ext": [
				"a(12) corrected and a(13) from _Sean A. Irvine_, Aug 19 2021"
			],
			"references": 5,
			"revision": 13,
			"time": "2021-08-20T04:24:49-04:00",
			"created": "1999-12-11T03:00:00-05:00"
		}
	]
}