{
	"greeting": "Greetings from The On-Line Encyclopedia of Integer Sequences! http://oeis.org/",
	"query": "id:A050300",
	"count": 1,
	"start": 0,
	"results": [
		{
			"number": 50300,
			"data": "1,6,1,21,6,1,71,27,6,1,196,92,27,6,1,532,288,98,27,6,1,1301,799,309,98,27,6,1,3101,2100,891,315,98,27,6,1,6956,5145,2373,912,315,98,27,6,1,15217,12121,5980,2465,918,315,98,27,6,1,31951,27247,14292,6253",
			"name": "Matrix 6th power of partition triangle A008284.",
			"example": [
				"1; 6,1; 21,6,1; 71,27,6,1; ..."
			],
			"xref": [
				"Cf. A038497, A038498, A039805-A039807. A050301-A050304. a(n, 1) = A022814(n) (first column)."
			],
			"keyword": "nonn,tabl",
			"offset": "1,2",
			"author": "_Christian G. Bower_, Aug 15 1999",
			"references": 4,
			"revision": 5,
			"time": "2015-12-19T13:15:17-05:00",
			"created": "1999-12-11T03:00:00-05:00"
		}
	]
}