{
	"greeting": "Greetings from The On-Line Encyclopedia of Integer Sequences! http://oeis.org/",
	"query": "id:A050697",
	"count": 1,
	"start": 0,
	"results": [
		{
			"number": 50697,
			"data": "121,132,143,187,295,312,341,351,451,671,679,781,928,932,1023,1053,1057,1207,1243,1255,1324,1325,1328,1331,1359,1375,1377,1379,1392,1395,1539,1573,1592,1703,1775,1972,1975,1982,2139,2189,2317,2321,2349,2367",
			"name": "Numbers that appear in A035140 but not in A050694.",
			"comment": [
				"Digits of prime factors of a(n) all appear in a(n) but not all prime factors of a(n) are a substring of a(n)."
			],
			"example": [
				"187 = 11*17 -\u003e digits 1 and 7 appear in {1}8{7} and 11 and 17 aren't substrings of \"187\"."
			],
			"mathematica": [
				"d[n_]:=IntegerDigits[n]; t={}; Do[le1=Max@@Length/@(t1=d[First/@FactorInteger[n]]); t2=Flatten[Table[Partition[d[n],i,1],{i,le1}],1]; If[!PrimeQ[n]\u0026\u0026Complement[t1,t2]!={}\u0026\u0026Complement[Flatten[t1],d[n]]=={},AppendTo[t,n]],{n,20,2380}]; t (* _Jayanta Basu_, May 31 2013 *)"
			],
			"xref": [
				"Cf. A050694, A035140."
			],
			"keyword": "nonn,base",
			"offset": "1,1",
			"author": "_Patrick De Geest_, Aug 15 1999",
			"references": 1,
			"revision": 10,
			"time": "2019-10-16T01:32:58-04:00",
			"created": "1999-12-11T03:00:00-05:00"
		}
	]
}