{
	"greeting": "Greetings from The On-Line Encyclopedia of Integer Sequences! http://oeis.org/",
	"query": "id:A050665",
	"count": 1,
	"start": 0,
	"results": [
		{
			"number": 50665,
			"data": "2,3,5,7,929,1117,2459,2819,4111,5189,6427,6959,7561,7841,8849,16741,17053,17761,18089,24659,26119,27329,27689,28843,28933,29243,29311,31601,32621,33107,33289,35977,38273,38431,38959,40361,40471,41467",
			"name": "Primes p such that number of primes produced according to rules stipulated in Honaker's A048853 is 3.",
			"example": [
				"Altering a(1)=2 gives 3 primes: 3, 5 and 7."
			],
			"xref": [
				"Cf. A048853, A050673, A050654."
			],
			"keyword": "nonn,base",
			"offset": "1,1",
			"author": "_Patrick De Geest_, Jul 15 1999",
			"references": 1,
			"revision": 6,
			"time": "2019-10-14T23:55:34-04:00",
			"created": "1999-12-11T03:00:00-05:00"
		}
	]
}