{
	"greeting": "Greetings from The On-Line Encyclopedia of Integer Sequences! http://oeis.org/",
	"query": "id:A050527",
	"count": 1,
	"start": 0,
	"results": [
		{
			"number": 50527,
			"data": "29,113,449,114689,7340033,469762049,7881299347898369,31525197391593473,34662321099990647697175478273,9304595970494411110326649421962412033,167616699782206593882944206094565066958299591488831489",
			"name": "Primes of form 7*2^n+1.",
			"link": [
				"\u003ca href=\"/index/Pri#riesel\"\u003eIndex entries for sequences of n such that k*2^n-1 (or k*2^n+1) is prime\u003c/a\u003e"
			],
			"xref": [
				"For more terms see A032353."
			],
			"keyword": "nonn",
			"offset": "1,1",
			"author": "_N. J. A. Sloane_, Dec 29 1999",
			"references": 28,
			"revision": 7,
			"time": "2012-03-30T16:48:37-04:00",
			"created": "2000-05-08T03:00:00-04:00"
		}
	]
}