{
	"greeting": "Greetings from The On-Line Encyclopedia of Integer Sequences! http://oeis.org/",
	"query": "id:A050667",
	"count": 1,
	"start": 0,
	"results": [
		{
			"number": 50667,
			"data": "29,31,37,59,61,67,89,269,331,443,487,503,521,569,571,599,733,751,761,773,811,919,983,1291,1303,1319,1511,1567,1777,1847,2179,2473,2579,2633,2671,2707,2927,3299,3449,3797,3847,3877,3943,3989,4139,4339,4561",
			"name": "Primes p such that number of primes produced according to rules stipulated in Honaker's A048853 is 5.",
			"example": [
				"Altering a(1)=29 gives 5 primes: 19, 59, 79, 89 and 23."
			],
			"xref": [
				"Cf. A048853, A050673, A050656."
			],
			"keyword": "nonn,base",
			"offset": "1,1",
			"author": "_Patrick De Geest_, Jul 15 1999",
			"references": 1,
			"revision": 5,
			"time": "2019-10-14T23:55:08-04:00",
			"created": "1999-12-11T03:00:00-05:00"
		}
	]
}