{
	"greeting": "Greetings from The On-Line Encyclopedia of Integer Sequences! http://oeis.org/",
	"query": "id:A050106",
	"count": 1,
	"start": 0,
	"results": [
		{
			"number": 50106,
			"data": "1,2,4,5,7,8,9,11,14,15,17,19,20,21,24,25,28,29,30,32,34,36,38,40,42,43,45,47,48,49,50,52,55,56,58,61,62,64,65,68,70,72,73,75,77,78,79,80,82,85,87,89,91,92,94,96,98,100,101,103,104",
			"name": "Numbers k such that A050104(k) \u003c A050104(k+1).",
			"keyword": "nonn",
			"offset": "1,2",
			"author": "_Clark Kimberling_",
			"references": 0,
			"revision": 10,
			"time": "2021-07-04T13:55:16-04:00",
			"created": "1999-12-11T03:00:00-05:00"
		}
	]
}