{
	"greeting": "Greetings from The On-Line Encyclopedia of Integer Sequences! http://oeis.org/",
	"query": "id:A050183",
	"count": 1,
	"start": 0,
	"results": [
		{
			"number": 50183,
			"data": "0,1,4,15,55,200,728,2652,9690,35530,130750,482885,1789515,6653325,24812400,92798375,347993910,1308233790,4929576600,18615637950,70441574000,267058714626,1014283603024,3858687620200,14702930414900",
			"name": "T(2n+5,n), array T as in A051168; a count of Lyndon words.",
			"link": [
				"\u003ca href=\"/index/Lu#Lyndon\"\u003eIndex entries for sequences related to Lyndon words\u003c/a\u003e"
			],
			"formula": [
				"From _Petros Hadjicostas_, Dec 03 2017: (Start)",
				"a(n) = (1/(2*n+5))*Sum_{d|gcd(n,5)} mu(d)*binomial((2*n+5)/d, n/d). (This is a special case of A. Howroyd's formula for double array A051168.)",
				"a(n) = (1/(2*n+5))*(binomial(2*n+5, n) - binomial((2*n/5)+1, n/5)) if 5|n; = (1/(2*n+5))*binomial(2*n+5, n) otherwise.",
				"(End)"
			],
			"maple": [
				"A050183 := proc(n)",
				"    binomial(2*n+5,n) ;",
				"    if modp(n,5) = 0 then",
				"        %-binomial(2*n/5+1,n/5) ;",
				"    end if;",
				"    %/(2*n+5) ;",
				"end proc:",
				"seq(A050183(n),n=0..40) ; # _R. J. Mathar_, Oct 28 2021"
			],
			"program": [
				"(PARI) a(n) = (1/(2*n+5))*sumdiv(gcd(n,5), d, moebius(d)*binomial((2*n+5)/d, n/d)); \\\\ _Michel Marcus_, Dec 05 2017"
			],
			"xref": [
				"A diagonal of the square array described in A051168."
			],
			"keyword": "nonn",
			"offset": "0,3",
			"author": "_Clark Kimberling_",
			"references": 3,
			"revision": 19,
			"time": "2021-10-28T10:56:40-04:00",
			"created": "1999-12-11T03:00:00-05:00"
		}
	]
}