{
	"greeting": "Greetings from The On-Line Encyclopedia of Integer Sequences! http://oeis.org/",
	"query": "id:A050638",
	"count": 1,
	"start": 0,
	"results": [
		{
			"number": 50638,
			"data": "9,49,1849,1671849,24011671849,408646172724011671849,14079962896835441528408646172724011671849,30988070410883251650062468506470600085614079962896835441528408646172724011671849",
			"name": "a(n+1) is next smallest square ending with a(n), initial term is 9.",
			"xref": [
				"Cf. A050639, A048561, A050630."
			],
			"keyword": "nonn,base",
			"offset": "1,1",
			"author": "_Patrick De Geest_, Jul 15 1999",
			"ext": [
				"More terms from Ulrich Schimke (ulrschimke(AT)aol.com), Nov 06 2001"
			],
			"references": 6,
			"revision": 6,
			"time": "2015-03-05T12:19:44-05:00",
			"created": "1999-12-11T03:00:00-05:00"
		}
	]
}