{
	"greeting": "Greetings from The On-Line Encyclopedia of Integer Sequences! http://oeis.org/",
	"query": "id:A050016",
	"count": 1,
	"start": 0,
	"results": [
		{
			"number": 50016,
			"data": "1,9,4,2,18,162,81,40,20,10,5,45,22,11,99,49,24,12,6,3,27,13,117,58,29,14,7,63,31,15,135,67,33,16,8,72,36,324,2916,1458,729,364,182,91,819,409,204,102,51,25,225,112,56,28,252,126,1134",
			"name": "a(n) = floor(a(n-1)/2) if this is positive and not yet in the sequence, otherwise a(n) = 9*a(n-1).",
			"link": [
				"Ivan Neretin, \u003ca href=\"/A050016/b050016.txt\"\u003eTable of n, a(n) for n = 1..10000\u003c/a\u003e"
			],
			"mathematica": [
				"Rest@Nest[Append[#, If[FreeQ[#, r = Quotient[#[[-1]], 2]], r, 9 #[[-1]]]] \u0026, {0, 1}, 56] (* _Ivan Neretin_, Jul 31 2016 *)"
			],
			"program": [
				"(PARI) first(n)=my(v=vector(n), t); v[1]=1; for(i=2, n, t=v[i-1]\\2; if(t\u003c2, v[i]=9*v[i-1]; next); for(j=1, i-1, if(v[j]==t, v[i]=9*v[i-1]; next(2))); v[i]=t); v \\\\ _Charles R Greathouse IV_, Jul 31 2016"
			],
			"xref": [
				"Cf. A050000 and references therein."
			],
			"keyword": "nonn,easy",
			"offset": "1,2",
			"author": "_Clark Kimberling_",
			"references": 5,
			"revision": 12,
			"time": "2019-10-05T11:32:13-04:00",
			"created": "1999-12-11T03:00:00-05:00"
		}
	]
}