{
	"greeting": "Greetings from The On-Line Encyclopedia of Integer Sequences! http://oeis.org/",
	"query": "id:A050783",
	"count": 1,
	"start": 0,
	"results": [
		{
			"number": 50783,
			"data": "0,1,2,3,4,5,6,7,8,9,101,121,131,141,151,161,171,181,191,202,212,232,242,252,262,272,282,292,303,313,323,343,353,363,373,383,393,404,414,424,434,454,464,474,484,494,505,515,525,535,545,565,575,585,595,606",
			"name": "Palindromes containing no pair of consecutive equal digits.",
			"mathematica": [
				"Select[Range[0,610],Reverse[x=IntegerDigits[#]]==x\u0026\u0026FreeQ[Differences[x],0]\u0026] (* _Jayanta Basu_, Jun 01 2013 *)"
			],
			"xref": [
				"Cf. A002113, A050784, A030147, A046075."
			],
			"keyword": "nonn,base",
			"offset": "1,3",
			"author": "_Patrick De Geest_, Sep 15 1999",
			"references": 3,
			"revision": 13,
			"time": "2021-08-19T06:41:01-04:00",
			"created": "1999-12-11T03:00:00-05:00"
		}
	]
}