{
	"greeting": "Greetings from The On-Line Encyclopedia of Integer Sequences! http://oeis.org/",
	"query": "id:A050643",
	"count": 1,
	"start": 0,
	"results": [
		{
			"number": 50643,
			"data": "2,12,557,12345792",
			"name": "a(n+1)^3 is next smallest nontrivial cube containing a(n)^3 as a substring, initial term is 8.",
			"xref": [
				"Cf. A050642, A048566, A050649."
			],
			"keyword": "nonn,base,more",
			"offset": "1,1",
			"author": "_Patrick De Geest_, Jul 15 1999",
			"references": 2,
			"revision": 6,
			"time": "2019-10-15T00:01:09-04:00",
			"created": "1999-12-11T03:00:00-05:00"
		}
	]
}