{
	"greeting": "Greetings from The On-Line Encyclopedia of Integer Sequences! http://oeis.org/",
	"query": "id:A051981",
	"count": 1,
	"start": 0,
	"results": [
		{
			"number": 51981,
			"data": "310,391,415,654,655,679,955,1038,1146,1166,1267,1282,1346,1391,1578,1662,1739,1833,1858,1895,1902,2183,2195,2198,2407,2526,2553,2615,3227,3278,3374,3497,3565,3611,3755,3818,3918,4043,4069,4087",
			"name": "Discriminants of real quadratic fields with class number 2 and related continued fraction period length of 16.",
			"reference": [
				"R. A. Mollin, Quadratics, CRC Press, 1996, Appendix A, Table A3."
			],
			"link": [
				"Georg Fischer, \u003ca href=\"/A051981/b051981.txt\"\u003eTable of n, a(n) for n = 1..130\u003c/a\u003e"
			],
			"xref": [
				"Cf. A051966-A051989."
			],
			"keyword": "nonn,fini,full",
			"offset": "1,1",
			"author": "_N. J. A. Sloane_, Jan 04 2000",
			"references": 1,
			"revision": 7,
			"time": "2021-09-21T06:57:13-04:00",
			"created": "2000-05-08T03:00:00-04:00"
		}
	]
}