{
	"greeting": "Greetings from The On-Line Encyclopedia of Integer Sequences! http://oeis.org/",
	"query": "id:A051012",
	"count": 1,
	"start": 0,
	"results": [
		{
			"number": 51012,
			"data": "1,2,1,1,5,6,7,4,9,10,11,3,13,14,15,8,17,18,19,5,21,2,23,4,25,26,9,7,29,30,31,16,11,34,35,9,37,38,13,4,41,42,43,1,15,46,47,8,49,50,51,13,53,54,55,28,19,58,59,15,61,62,63,32,65,6,67,17,69,70,71,36,73,74,75",
			"name": "Denominator of average of number of steps in Euclidean algorithm for all gcd(m,n) with 0 \u003c= m \u003c n.",
			"link": [
				"Reinhard Zumkeller, \u003ca href=\"/A051012/b051012.txt\"\u003eTable of n, a(n) for n = 1..1000\u003c/a\u003e",
				"Eric Weisstein's World of Mathematics, \u003ca href=\"http://mathworld.wolfram.com/EuclideanAlgorithm.html\"\u003eEuclidean Algorithm.\u003c/a\u003e"
			],
			"program": [
				"(Haskell)",
				"import Data.Ratio ((%), denominator)",
				"a051012 n = denominator $ (sum $ a051010_row n) % n",
				"-- _Reinhard Zumkeller_, Jun 27 2013"
			],
			"xref": [
				"Cf. A034883, A051010, A051011."
			],
			"keyword": "nonn,frac",
			"offset": "1,2",
			"author": "_Eric W. Weisstein_",
			"references": 3,
			"revision": 13,
			"time": "2019-10-18T23:15:24-04:00",
			"created": "1999-12-11T03:00:00-05:00"
		}
	]
}