{
	"greeting": "Greetings from The On-Line Encyclopedia of Integer Sequences! http://oeis.org/",
	"query": "id:A051750",
	"count": 1,
	"start": 0,
	"results": [
		{
			"number": 51750,
			"data": "2,3,5,7,11,13,17,19,23,29,31,41,53,61,71,83,97,113,137,139,151,157,167,173,179,181,191,197,211,233,239,241,251,257,263,277,283,293,307,331,337,347,353,359,373,379,383,389,409,421,433,457,461,463,499,503",
			"name": "Primes whose cubes lack zeros.",
			"link": [
				"Giovanni Resta, \u003ca href=\"/A051750/b051750.txt\"\u003eTable of n, a(n) for n = 1..10000\u003c/a\u003e"
			],
			"mathematica": [
				"Select[Prime[Range[100]],FreeQ[IntegerDigits[#^3],0]\u0026] (* _Harvey P. Dale_, Jan 06 2017 *)"
			],
			"program": [
				"(PARI) isok(n) = isprime(n) \u0026\u0026 vecmin(digits(n^3)); \\\\ _Michel Marcus_, Jan 06 2014"
			],
			"xref": [
				"Cf. A000040, A000578.",
				"Cubes: A052044, A052045, A051751, A051832, A051833. Squares: A052040, A052041, A052042, A052043."
			],
			"keyword": "base,nonn",
			"offset": "1,1",
			"author": "_G. L. Honaker, Jr._, Dec 07 1999",
			"ext": [
				"More terms from _Michel Marcus_, Jan 06 2014"
			],
			"references": 10,
			"revision": 13,
			"time": "2017-01-06T11:44:59-05:00",
			"created": "1999-12-11T03:00:00-05:00"
		}
	]
}