{
	"greeting": "Greetings from The On-Line Encyclopedia of Integer Sequences! http://oeis.org/",
	"query": "id:A051035",
	"count": 1,
	"start": 0,
	"results": [
		{
			"number": 51035,
			"data": "4,6,8,9,10,12,14,15,16,18,20,21,22,24,25,26,28,30,32,33,34,36,38,39,40,42,44,45,46,48,49,50,52,54,55,56,58,60,62,63,64,66,68,69,70,72,74,75,76,78,80,81,82,84,85,86,88,90,91,92,94,96,98,99,100,102,104,105",
			"name": "Composite numbers which can be represented as the sum of two primes (i.e., A002808 excluding A025583).",
			"link": [
				"Reinhard Zumkeller, \u003ca href=\"/A051035/b051035.txt\"\u003eTable of n, a(n) for n = 1..10000\u003c/a\u003e",
				"Eric Weisstein's World of Mathematics, \u003ca href=\"http://mathworld.wolfram.com/PrimePartition.html\"\u003ePrime Partition.\u003c/a\u003e"
			],
			"mathematica": [
				"r[n_] := Reduce[2 \u003c= p \u003c= q \u0026\u0026 n == p + q, {p, q}, Primes]; Select[Range[4, 105], r[#] =!= False \u0026\u0026 ! PrimeQ[#] \u0026 ] (* _Jean-François Alcover_, Oct 29 2012 *)"
			],
			"program": [
				"(Haskell)",
				"a051035 n = a051035_list !! (n-1)",
				"a051035_list = filter ((== 0) . a010051) a014091_list"
			],
			"xref": [
				"Cf. A002808, A025583.",
				"Cf. A010051, subsequence of A014092."
			],
			"keyword": "nonn",
			"offset": "1,1",
			"author": "_Eric W. Weisstein_",
			"references": 2,
			"revision": 15,
			"time": "2017-08-03T01:02:46-04:00",
			"created": "1999-12-11T03:00:00-05:00"
		}
	]
}