{
	"greeting": "Greetings from The On-Line Encyclopedia of Integer Sequences! http://oeis.org/",
	"query": "id:A051918",
	"count": 1,
	"start": 0,
	"results": [
		{
			"number": 51918,
			"data": "2,2,2,3,4,5,5,10,13,13,26,32,287,18380,21727,23205,24828,35646,48819,51476",
			"name": "Start with n, apply k-\u003e2k+1 until reach new record prime; sequence gives number of steps needed.",
			"comment": [
				"a(20) \u003e 60000. [From _Donovan Johnson_, May 23 2010]"
			],
			"example": [
				"0-\u003e1-\u003e3, new record prime 3 in 2 steps; 1-\u003e3-\u003e7, new record prime 7 in 2 steps; 2-\u003e5-\u003e11, new record prime 11 in 2 steps; 3-\u003e7-\u003e15-\u003e31, new record prime 31 in 3 steps.",
				"For the next few terms we have: 4-\u003e9-\u003e19-\u003e39-\u003e79; 5-\u003e11-\u003e23-\u003e47-\u003e95-\u003e191; 6-\u003e13-\u003e27-\u003e55-\u003e111-\u003e223; 7-\u003e15-\u003e31-\u003e63-\u003e127-\u003e255-\u003e511-\u003e1023-\u003e2047-\u003e4095-\u003e8191; etc."
			],
			"mathematica": [
				"f[0] = {start=0, k=3, steps=2}; f[n_] := f[n] = (k=start=f[n-1][[1]]+1; steps=0; While[!PrimeQ[k] || k \u003c= f[n-1][[2]], k=2k+1; steps++]; {start, k, steps}); A051918 = Table[Print[f[n] // Last]; f[n], {n, 0, 13}][[All, 3]] (* _Jean-François Alcover_, Dec 10 2014 *)"
			],
			"xref": [
				"Cf. A051919, A052333."
			],
			"keyword": "nice,nonn,hard",
			"offset": "0,1",
			"author": "_N. J. A. Sloane_, Dec 18 1999",
			"ext": [
				"More terms from _Naohiro Nomoto_, May 21 2001",
				"a(13)-a(19) from _Donovan Johnson_, May 23 2010"
			],
			"references": 2,
			"revision": 10,
			"time": "2014-12-10T09:16:44-05:00",
			"created": "2000-05-08T03:00:00-04:00"
		}
	]
}