{
	"greeting": "Greetings from The On-Line Encyclopedia of Integer Sequences! http://oeis.org/",
	"query": "id:A051979",
	"count": 1,
	"start": 0,
	"results": [
		{
			"number": 51979,
			"data": "190,319,406,430,471,474,611,667,670,669,742,745,806,807,1001,1043,1070,1115,1119,1309,1315,1338,1347,1398,1542,1545,1562,1634,1670,1691,1826,1839,1874,2282,2294,2315,2323,2337,2345,2427,2435,2463",
			"name": "Discriminants of real quadratic fields with class number 2 and related continued fraction period length of 14.",
			"reference": [
				"R. A. Mollin, Quadratics, CRC Press, 1996, Appendix A, Table A3."
			],
			"link": [
				"Georg Fischer, \u003ca href=\"/A051979/b051979.txt\"\u003eTable of n, a(n) for n = 1..168\u003c/a\u003e"
			],
			"xref": [
				"Cf. A051966-A051989."
			],
			"keyword": "nonn,fini,full",
			"offset": "1,1",
			"author": "_N. J. A. Sloane_, Jan 04 2000",
			"references": 1,
			"revision": 7,
			"time": "2021-09-21T06:03:19-04:00",
			"created": "2000-05-08T03:00:00-04:00"
		}
	]
}