{
	"greeting": "Greetings from The On-Line Encyclopedia of Integer Sequences! http://oeis.org/",
	"query": "id:A051239",
	"count": 1,
	"start": 0,
	"results": [
		{
			"number": 51239,
			"data": "1,1,1,4,2,8,12,30,70,664,1072,8768,11648,37108,95772,1059816,2047488,12111712,22802028,120779959,337801784,4361743860,11425028900,142573286216,429917269469,4138239848098,16171519847028,214845911686065",
			"name": "Number of ways to arrange integers 1 through n so that the sum of each adjacent pair is prime, not counting reversals.",
			"comment": [
				"Similar to A036440, but not requiring 1 to be first and n to be last."
			],
			"formula": [
				"For n\u003e1, a(n) = A103839(n)/2."
			],
			"example": [
				"a(5)=2 since 1,4,3,2,5 and 3,4,1,2,5 have the property that the sum of each adjacent pair is prime."
			],
			"xref": [
				"Cf. A036440, A051237."
			],
			"keyword": "nonn,nice",
			"offset": "1,4",
			"author": "_Jud McCranie_",
			"ext": [
				"More terms from _Max Alekseyev_, Jan 04 2008",
				"a(25)-a(28) from _Giovanni Resta_, Apr 01 2014"
			],
			"references": 8,
			"revision": 16,
			"time": "2017-07-03T02:13:43-04:00",
			"created": "1999-12-11T03:00:00-05:00"
		}
	]
}