{
	"greeting": "Greetings from The On-Line Encyclopedia of Integer Sequences! http://oeis.org/",
	"query": "id:A051265",
	"count": 1,
	"start": 0,
	"results": [
		{
			"number": 51265,
			"data": "0,0,1,1,1,1,2,1,1,1,2,1,2,1,2,2,2,1,2,1,2,2,2,1,2,2,2,2,2,1,3,2,2,2,2,2,3,2,2,2,3,1,3,2,2,2,3,2,3,2,2,2,3,2,3,2,2,2,3,1,3,2,2,2,3,2,3,2,2,2,3,2,3,2,2,2,3,2,3,2,3,2,3,2,3,2,3,2,3,2,3,2,3,2,3,2,3,2,3,2,3,2,3,2,2",
			"name": "Maximal value of prime divisors of numbers in reduced residue system for n.",
			"comment": [
				"The smallest number for which a(n)=k is the n-th Euclid number (A006862=A002110 + 1).",
				"Largest value of A001221(k) for 1 \u003c= k \u003c= n such that gcd(k, n) = 1. - _Michael De Vlieger_, Aug 10 2017"
			],
			"link": [
				"Michael De Vlieger, \u003ca href=\"/A051265/b051265.txt\"\u003eTable of n, a(n) for n = 1..10000\u003c/a\u003e",
				"Z. Abel, E. Demaine, M. Demaine, H. Matsui and G. Rote, \u003ca href=\"http://2011.cccg.ca/PDFschedule/papers/paper49.pdf\"\u003eCommon Developments of Several Different Orthogonal Boxes\u003c/a\u003e, CCCG 2011, Toronto ON, August 10-12, 2011."
			],
			"formula": [
				"a(n) \u003c\u003c log n/log log n. - _Charles R Greathouse IV_, Aug 10 2017"
			],
			"example": [
				"For n=60 a(n)=1 since in RRS[ 60 ] only 1 and prime powers occur (see A051250)."
			],
			"mathematica": [
				"Table[Max@ Map[PrimeNu, Cases[Range[n - 1], k_ /; CoprimeQ[n, k]]] /. k_ /; ! IntegerQ@ k -\u003e 0, {n, 105}] (* _Michael De Vlieger_, Aug 10 2017 *)"
			],
			"program": [
				"(PARI) a(n)=my(k=1,s); forprime(p=2,, if(n%p==0, next); k*=p; if(k\u003en, return(s)); s++) \\\\ _Charles R Greathouse IV_, Aug 10 2017"
			],
			"xref": [
				"Records are A006862.",
				"Cf. A001221, A002110, A051250, A051266, A051267, A051268."
			],
			"keyword": "nonn,easy",
			"offset": "1,7",
			"author": "_Labos Elemer_",
			"references": 5,
			"revision": 20,
			"time": "2017-08-10T11:11:34-04:00",
			"created": "1999-12-11T03:00:00-05:00"
		}
	]
}