{
	"greeting": "Greetings from The On-Line Encyclopedia of Integer Sequences! http://oeis.org/",
	"query": "id:A051152",
	"count": 1,
	"start": 0,
	"results": [
		{
			"number": 51152,
			"data": "4,5,216,494,16800,21228,246400,440220",
			"name": "(-1)sigma sociable number of order 2: (-1)sigma((-1)sigma(x))=x, but (-1)sigma(x)\u003c\u003ex, where if x=Product p(i)^r(i) then (-1)sigma(x)=Product (-1+Sum p(i)^s(i), s(i)=1 to r(i)); (-1)sigma(1)=1.",
			"comment": [
				"Factorizations: 4, 5, 2^3*3^3, 2*13*19, 2^5*3*5^2*7, 2^2*3*29*61"
			],
			"program": [
				"(PARI) A049060(n)={ local(i,resul,rmax,p) ; if(n==1, return(1) ) ; i=factor(n) ; rmax=matsize(i)[1] ; resul=1 ; for(r=1,rmax, p=0 ; for(j=1,i[r,2], p += i[r,1]^j ; ) ; resul *= p-1 ; ) ; return(resul) ; } isA051152(r)={ local(s,t) ; s=A049060(r) ; t=A049060(s) ; if( r == t \u0026\u0026 s !=r, return(1), return(0) ) ; } { for(n=1,30000000, if( isA051152(n), print(n,\" \") ) ; ) ; } - _R. J. Mathar_, Oct 12 2006"
			],
			"xref": [
				"Cf. A049057, A049058, A049059, A049060, A034094, A051153."
			],
			"keyword": "nonn",
			"offset": "0,1",
			"author": "_Yasutoshi Kohmoto_",
			"ext": [
				"More terms from _R. J. Mathar_, Oct 12 2006"
			],
			"references": 1,
			"revision": 10,
			"time": "2016-04-19T01:07:32-04:00",
			"created": "1999-12-11T03:00:00-05:00"
		}
	]
}