{
	"greeting": "Greetings from The On-Line Encyclopedia of Integer Sequences! http://oeis.org/",
	"query": "id:A051501",
	"count": 1,
	"start": 0,
	"results": [
		{
			"number": 51501,
			"data": "2,5,37,137438953481",
			"name": "Bertrand primes III: a(n+1) is the smallest prime \u003e 2^a(n).",
			"comment": [
				"The terms in the sequence are floor(2^b), floor(2^2^b), floor(2^2^2^b), ..., where b is approximately 1.2516475977905.",
				"The existence of b is a consequence of Bertrand's postulate.",
				"a(5) is much larger than the largest known prime, which is currently only 2^32582657-1. - _T. D. Noe_, Oct 18 2007",
				"This sequence is of course not computed from b; rather b is more precisely computed by determining the next term in the sequence.",
				"Robert Ballie comments that the next term is known to be 2.80248435135615213561103452115581... * 10^41373247570 via Dusart 2016, improving on my 2010 result in the Extensions section. - _Charles R Greathouse IV_, Aug 11 2020"
			],
			"reference": [
				"R. L. Graham, D. E. Knuth and O. Patashnik, Concrete Mathematics. Addison-Wesley, Exercise 4.19."
			],
			"link": [
				"Pierre Dusart, \u003ca href=\"https://dx.doi.org/10.1007/s11139-016-9839-4\"\u003eExplicit estimates of some functions over primes\u003c/a\u003e, Ramanujan J. Vol 45 (2016), pp. 227-251.",
				"E. M. Wright, \u003ca href=\"http://www.jstor.org/stable/2306356\"\u003eA prime-representing function\u003c/a\u003e, Amer. Math. Monthly, 58 (1951), 616-618."
			],
			"example": [
				"The smallest prime after 2^5 = 32 is 37, so a(5) = 37."
			],
			"xref": [
				"Cf. A006992 (Bertrand primes), A079614 (Bertrand's constant), A227770 (Bertrand primes II)."
			],
			"keyword": "nonn",
			"offset": "1,1",
			"author": "_Jud McCranie_",
			"ext": [
				"Although the exact value of the next term is not known, it has 41373247571 digits.",
				"Next term is 2.8024843513561521356110...e41373247570, where the next digit is 3 or 4. Under the Riemann hypothesis, the first 20686623775 digits are known. [From _Charles R Greathouse IV_, Oct 27 2010]",
				"Edited by _Franklin T. Adams-Watters_, Aug 10 2009",
				"Reference and bounds on next term from _Charles R Greathouse IV_, Oct 27 2010",
				"Name clarified by _Jonathan Sondow_, Aug 02 2013"
			],
			"references": 2,
			"revision": 22,
			"time": "2020-08-11T12:51:02-04:00",
			"created": "1999-12-11T03:00:00-05:00"
		}
	]
}