{
	"greeting": "Greetings from The On-Line Encyclopedia of Integer Sequences! http://oeis.org/",
	"query": "id:A051611",
	"count": 1,
	"start": 0,
	"results": [
		{
			"number": 51611,
			"data": "1,3,5,8,10,14,15,17,19,23,26,28,32,33,35,40,41,44,45,47,50,52,53,54,59,62,63,68,71,74,75,77,78,80,82,85,86,89,95,96,98,103,104,105,107,109,113,116,117,118,122,124,125,128,129,131,134,138,140,143,145,147",
			"name": "Numbers that are not the sum of 2 nonzero triangular numbers.",
			"comment": [
				"A053603(a(n)) = 0. - _Reinhard Zumkeller_, Jun 28 2013"
			],
			"link": [
				"T. D. Noe, \u003ca href=\"/A051611/b051611.txt\"\u003eTable of n, a(n) for n=1..1000\u003c/a\u003e"
			],
			"mathematica": [
				"notSumQ[n_] := Reduce[ 0 \u003c x \u003c= y \u0026\u0026 n == x*(x + 1)/2 + y*(y + 1)/2, {x, y}, Integers] === False; Select[ Range[150], notSumQ] (* _Jean-François Alcover_, Jun 27 2012 *)",
				"With[{trnos=Accumulate[Range[100]]},Complement[Range[150],Total/@ Tuples[ trnos,2]]] (* _Harvey P. Dale_, Jun 01 2016 *)"
			],
			"program": [
				"(Haskell)",
				"a051611 n = a051611_list !! (n-1)",
				"a051611_list = filter ((== 0) . a053603) [1..]",
				"-- _Reinhard Zumkeller_, Jun 28 2013"
			],
			"xref": [
				"Integers not in the sequence A051533. Cf. A002097, A000217, A007294, A051611, A053603."
			],
			"keyword": "easy,nonn,nice",
			"offset": "1,2",
			"author": "Klaus Strassburger (strass(AT)ddfi.uni-duesseldorf.de)",
			"references": 6,
			"revision": 14,
			"time": "2016-06-01T11:37:06-04:00",
			"created": "1999-12-11T03:00:00-05:00"
		}
	]
}