{
	"greeting": "Greetings from The On-Line Encyclopedia of Integer Sequences! http://oeis.org/",
	"query": "id:A051834",
	"count": 1,
	"start": 0,
	"results": [
		{
			"number": 51834,
			"data": "1,1,3,1,0,1,1,0,1,0,0,1,0,1,1,1,0,0,1,0,1,0,1,0,1,0,1,1,0,1,1,0,1,0,0,0,1,1,1,1,0,0,0,1,1,0,0,1,1,0,1,0,0,0,1,1,0,0,1,0,1,1,1,0,1,1,0,1,1,0,1,0,1,1,0,1,0,1,0,0,0,0,0,1,0,1,0,1,0,1,1,0,1,0,0,1,0,0,1,0,1,1,1",
			"name": "Fibonacci(Pn-1) mod Pn, where Pn is the n-th prime.",
			"comment": [
				"Terms are 0 when Pn == 1 or 4 mod 5, terms are 1 when Pn == 2 or 3 mod 5."
			],
			"example": [
				"P3=5, Fibonacci(5-1)=3 mod 5."
			],
			"xref": [
				"Cf. A000045, A003631, A045468, A051830, A051831."
			],
			"keyword": "nonn",
			"offset": "1,3",
			"author": "_Jud McCranie_, Dec 11 1999",
			"references": 2,
			"revision": 6,
			"time": "2012-03-30T18:34:54-04:00",
			"created": "2000-05-08T03:00:00-04:00"
		}
	]
}