{
	"greeting": "Greetings from The On-Line Encyclopedia of Integer Sequences! http://oeis.org/",
	"query": "id:A051816",
	"count": 1,
	"start": 0,
	"results": [
		{
			"number": 51816,
			"data": "1,7,58,422,2872,19772,142418,1096582,9040811,78452199,699839588,6297456806,56804155533,517737762700,4839960759976,46837953974511",
			"name": "Number of n-digit numbers with nonzero multiplicative digital root 5.",
			"reference": [
				"William Mayne, sci.math, Jun 15 1991"
			],
			"formula": [
				"# { i : 10^(n-1) \u003c i \u003c 10^n and A051802(i)=5 }"
			],
			"xref": [
				"Cf. A051802, A051807, A051825."
			],
			"keyword": "nonn,base,hard",
			"offset": "1,2",
			"author": "_Dan Hoey_, Dec 09 1999",
			"references": 1,
			"revision": 4,
			"time": "2014-06-11T17:24:22-04:00",
			"created": "1999-12-11T03:00:00-05:00"
		}
	]
}