{
	"greeting": "Greetings from The On-Line Encyclopedia of Integer Sequences! http://oeis.org/",
	"query": "id:A051714",
	"count": 1,
	"start": 0,
	"results": [
		{
			"number": 51714,
			"data": "1,1,1,1,1,1,1,1,1,0,1,1,3,1,-1,1,1,2,1,-1,0,1,1,5,2,-3,-1,1,1,1,3,5,-1,-1,1,0,1,1,7,5,0,-4,1,1,-1,1,1,4,7,1,-1,-1,1,-1,0,1,1,9,28,49,-29,-5,8,1,-5,5,1,1,5,3,8,-7,-9,5,7,-5,5,0,1,1,11,15,27,-28,-343,295,200,-44,-1017,691,-691",
			"name": "Numerators of table a(n,k) read by antidiagonals: a(0,k) = 1/(k+1), a(n+1,k) = (k+1)(a(n,k)-a(n,k+1)), n \u003e= 0, k \u003e= 0.",
			"comment": [
				"Leading column gives the Bernoulli numbers A164555/A027642. - corrected by _Paul Curtz_, Apr 17 2014"
			],
			"link": [
				"Alois P. Heinz, \u003ca href=\"/A051714/b051714.txt\"\u003eAntidiagonals n = 0..140, flattened\u003c/a\u003e",
				"M. Kaneko, \u003ca href=\"https://cs.uwaterloo.ca/journals/JIS/VOL3/KANEKO/AT-kaneko.html\"\u003eThe Akiyama-Tanigawa algorithm for Bernoulli numbers\u003c/a\u003e, J. Integer Sequences, 3 (2000), #00.2.9.",
				"\u003ca href=\"/index/Be#Bernoulli\"\u003eIndex entries for sequences related to Bernoulli numbers.\u003c/a\u003e"
			],
			"example": [
				"Table begins:",
				"    1    1/2   1/3    1/4   1/5  1/6  1/7 ...",
				"   1/2   1/3   1/4    1/5   1/6  1/7 ...",
				"   1/6   1/6   3/20   2/15  5/42 ...",
				"    0    1/30  1/20   2/35  5/84 ...",
				"  -1/30 -1/30 -3/140 -1/105 ..."
			],
			"maple": [
				"a:= proc(n,k) option remember;",
				"      `if`(n=0, 1/(k+1), (k+1)*(a(n-1,k)-a(n-1,k+1)))",
				"    end:",
				"seq(seq(numer(a(n, d-n)), n=0..d), d=0..12); # _Alois P. Heinz_, Apr 17 2013"
			],
			"mathematica": [
				"nmax = 12; a[0, k_] := 1/(k+1); a[n_, k_] := a[n, k] = (k+1)(a[n-1, k]-a[n-1, k+1]); Numerator[ Flatten[ Table[ a[n-k, k], {n, 0, nmax}, {k, n, 0, -1}]]](* _Jean-François Alcover_, Nov 28 2011 *)"
			],
			"xref": [
				"Rows 2, 3, 4 give A026741/A045896, A051712/A051713, A051722/A051723, columns 0, 1, 2, 3 give A000367/A002445, A051716/A051717, A051718/A051719, A051720/A051721.",
				"Denominators are in A051715."
			],
			"keyword": "sign,frac,nice,easy,tabl,look",
			"offset": "0,13",
			"author": "_N. J. A. Sloane_",
			"ext": [
				"More terms from _James A. Sellers_, Dec 07 1999"
			],
			"references": 21,
			"revision": 39,
			"time": "2015-12-14T03:49:32-05:00",
			"created": "1999-12-11T03:00:00-05:00"
		}
	]
}