{
	"greeting": "Greetings from The On-Line Encyclopedia of Integer Sequences! http://oeis.org/",
	"query": "id:A051236",
	"count": 1,
	"start": 0,
	"results": [
		{
			"number": 51236,
			"data": "1,1,2,3,5,9,18,40,102,268",
			"name": "Largest integer a(n) for which the integer interval [ 0,a(n) ] is a subset of the set of determinants of all n X n 0-1 matrices.",
			"comment": [
				"A definition for a(n) is given in Craigen's paper. The table given there suggests a(9)=102. Term for term, this sequence is one less than the sequence A013588."
			],
			"reference": [
				"R. Craigen, The Range of the Determinant Function on the Set of n X n (0,1)-Matrices, J. Combin. Math. Combin. Computing, 8 (1990) pp. 161-171."
			],
			"link": [
				"G. R. Paseman, \u003ca href=\"http://www.prado.com/~paseman/icm98sl.html\"\u003eA Different Approach to Hadamard's Maximum Determinant Problem\u003c/a\u003e"
			],
			"formula": [
				"a(n) = A013588(n) - 1"
			],
			"example": [
				"There is a 7x7 0-1 matrix with determinant 20, but no 7x7 0-1 matrix with determinant 19."
			],
			"xref": [
				"Cf. A013588."
			],
			"keyword": "hard,nice,nonn",
			"offset": "1,3",
			"author": "Gerhard R. Paseman (paseman(AT)prado.com)",
			"ext": [
				"Extended by William Orrick, Jan 12 2006"
			],
			"references": 1,
			"revision": 3,
			"time": "2006-01-24T03:00:00-05:00",
			"created": "1999-12-11T03:00:00-05:00"
		}
	]
}