{
	"greeting": "Greetings from The On-Line Encyclopedia of Integer Sequences! http://oeis.org/",
	"query": "id:A051917",
	"count": 1,
	"start": 0,
	"results": [
		{
			"number": 51917,
			"data": "1,3,2,15,12,9,11,10,6,8,7,5,14,13,4,170,160,109,107,131,139,116,115,228,234,92,89,73,77,220,209,85,214,80,219,199,179,203,184,66,226,70,236,156,247,149,248,255,182,189,240,120,164,174,127,142,100,98,134",
			"name": "Inverse of n under Nim (or Conway) multiplication.",
			"comment": [
				"The Conway product makes N into a field of characteristic 2. This is the inverse function for that field."
			],
			"reference": [
				"E. R. Berlekamp, J. H. Conway and R. K. Guy, ``Winning Ways'', p. 443.",
				"J. H. Conway, ``On Numbers and Games'', chapter 6."
			],
			"link": [
				"Paul Tek, \u003ca href=\"/A051917/b051917.txt\"\u003eTable of n, a(n) for n = 1..255\u003c/a\u003e",
				"David A. Madore, \u003ca href=\"http://www.eleves.ens.fr:8080/home/madore/math/games.ps.gz\"\u003eNotes on game theory\u003c/a\u003e",
				"\u003ca href=\"/index/Ni#Nimmult\"\u003eIndex entries for sequences related to Nim-multiplication\u003c/a\u003e"
			],
			"example": [
				"a(4)=15 because the Conway product of 4 and 15 is 1. And a(15)=4."
			],
			"xref": [
				"Cf. A051776."
			],
			"keyword": "easy,nice,nonn",
			"offset": "1,2",
			"author": "_David A. Madore_, Dec 18 1999",
			"ext": [
				"More terms from _John W. Layman_, Mar 01 2001"
			],
			"references": 6,
			"revision": 18,
			"time": "2013-09-24T20:51:59-04:00",
			"created": "2000-05-08T03:00:00-04:00"
		}
	]
}