{
	"greeting": "Greetings from The On-Line Encyclopedia of Integer Sequences! http://oeis.org/",
	"query": "id:A051681",
	"count": 1,
	"start": 0,
	"results": [
		{
			"number": 51681,
			"data": "4,8,48,242,844,22020,217070,1092747,8870024,262315467,221167422,47255689915,82462576220,1043460553364,79180770078548,3215226335143218,23742453640900972,125781000834058568",
			"name": "Smallest term of first run of exactly n consecutive integers which are not squarefree.",
			"reference": [
				"a(16) was obtained as a result of a team effort by Z. McGregor-Dorsey et al."
			],
			"link": [
				"Eric Weisstein's World of Mathematics, \u003ca href=\"http://mathworld.wolfram.com/Squarefree.html\"\u003eSee also.\u003c/a\u003e",
				"L. Marmet, \u003ca href=\"http://www.marmet.org/louis/sqfgap/results.html\"\u003eResults\u003c/a\u003e",
				"L. Marmet, \u003ca href=\"http://www.marmet.org/louis/sqfgap/index.html#acknowledgements\"\u003eAbout a(16), a(17) and a(18).\u003c/a\u003e",
				"L. Marmet, \u003ca href=\"http://www.marmet.org/louis/sqfgap/\"\u003eFirst occurrences of squarefree gaps...\u003c/a\u003e"
			],
			"example": [
				"n=5 -\u003e {844=2^2.211; 845=5.13^2; 846=2.3^2.47; 847=7.11^2; 848=2^4.53}"
			],
			"program": [
				"(PARI) iscons(x, n) = {if (issquarefree(x-1) \u0026\u0026 issquarefree(x+n), for (k = 0, n-1, if (issquarefree(x+k), return (0));); return (1);); return (0);}",
				"a(n) = {my(x = 1); while (! iscons(x, n), x++); x;} \\\\ _Michel Marcus_, Jan 13 2014"
			],
			"xref": [
				"Cf. A045882 (another version), A013929, A053806."
			],
			"keyword": "nice,nonn",
			"offset": "1,1",
			"author": "Louis Marmet (louis(AT)marmet.org) and David Bernier (ezcos(AT)yahoo.com)",
			"ext": [
				"a(16) reported by Louis Marmet (louis(AT)marmet.org), Jul 24 2000",
				"a(17) was obtained as a result of a team effort by E. Wong et al.",
				"a(18) = 125781000834058568 was obtained as a result of a team effort by L. Marmet et al."
			],
			"references": 14,
			"revision": 14,
			"time": "2014-01-13T04:10:20-05:00",
			"created": "1999-12-11T03:00:00-05:00"
		}
	]
}