{
	"greeting": "Greetings from The On-Line Encyclopedia of Integer Sequences! http://oeis.org/",
	"query": "id:A052742",
	"count": 1,
	"start": 0,
	"results": [
		{
			"number": 52742,
			"data": "0,0,2,12,144,2640,64800,1985760,72817920,3105527040,150907276800,8226772646400,497068582348800,32962398345676800,2379770152465305600,185792734381782528000,15595576381312671744000,1400555897449216155648000,133983477830143785811968000,13602115002476999012990976000",
			"name": "A simple context-free grammar in a labeled universe.",
			"link": [
				"INRIA Algorithms Project, \u003ca href=\"http://ecs.inria.fr/services/structure?nbr=698\"\u003eEncyclopedia of Combinatorial Structures 698\u003c/a\u003e"
			],
			"formula": [
				"E.g.f.: (1/2-1/2*x-1/2*(1-6*x+x^2)^(1/2))*x",
				"Recurrence: {a(1)=0, a(2)=2, a(3)=12, (-4*n+n^2-4+n^3)*a(n) +(-6*n^2+6-9*n)*a(n+1) +(n+1)*a(n+2) =0.",
				"a(n) ~ sqrt(3/sqrt(2)-2)*n^(n-1)*(3+2*sqrt(2))^(n-1)/exp(n). - _Vaclav Kotesovec_, Oct 05 2013",
				"a(n) = n!*A006318(n-2). - _R. J. Mathar_, Oct 18 2013"
			],
			"maple": [
				"spec := [S,{B=Prod(C,C),C=Union(B,S,Z),S=Prod(Z,C)},labeled]: seq(combstruct[count](spec,size=n), n=0..20); # end of program",
				"0,0,seq(simplify(2*n!*hypergeom([ 3-n, n], [2], -1)), n=2..20);  # _Mark van Hoeij_, May 29 2013"
			],
			"mathematica": [
				"CoefficientList[Series[(1/2-1/2*x-1/2*(1-6*x+x^2)^(1/2))*x, {x, 0, 20}], x]* Range[0, 20]! (* _Vaclav Kotesovec_, Oct 05 2013 *)"
			],
			"program": [
				"(PARI) x='x+O('x^66); concat([0,0], Vec( serlaplace( (1/2-1/2*x-1/2*(1-6*x+x^2)^(1/2))*x))) \\\\ _Joerg Arndt_, May 29 2013"
			],
			"keyword": "easy,nonn",
			"offset": "0,3",
			"author": "encyclopedia(AT)pommard.inria.fr, Jan 25 2000",
			"references": 0,
			"revision": 18,
			"time": "2017-04-18T07:04:04-04:00",
			"created": "2000-05-08T03:00:00-04:00"
		}
	]
}