{
	"greeting": "Greetings from The On-Line Encyclopedia of Integer Sequences! http://oeis.org/",
	"query": "id:A052667",
	"count": 1,
	"start": 0,
	"results": [
		{
			"number": 52667,
			"data": "1,2,8,48,408,4320,54720,806400,13587840,257644800,5428684800,125817753600,3181049625600,87128475033600,2570016024576000,81222270345216000,2738060898693120000,98070849049485312000",
			"name": "E.g.f. 1/(1-2x-x^4).",
			"link": [
				"INRIA Algorithms Project, \u003ca href=\"http://ecs.inria.fr/services/structure?nbr=615\"\u003eEncyclopedia of Combinatorial Structures 615\u003c/a\u003e"
			],
			"formula": [
				"E.g.f.: -1/(-1+2*x+x^4)",
				"Recurrence: {a(0)=1, a(1)=2, a(2)=8, a(3)=48, (-n^4-35*n^2-50*n-24-10*n^3)*a(n)+(-2*n-8)*a(n+3)+a(n+4)=0}",
				"Sum(1/86*(27+18*_alpha^3+12*_alpha^2+8*_alpha)*_alpha^(-1-n), _alpha=RootOf(-1+2*_Z+_Z^4))*n!",
				"a(n) = n!*A008999(n). - _R. J. Mathar_, Nov 27 2011"
			],
			"maple": [
				"spec := [S,{S=Sequence(Union(Z,Z,Prod(Z,Z,Z,Z)))},labeled]: seq(combstruct[count](spec,size=n), n=0..20);"
			],
			"keyword": "easy,nonn",
			"offset": "0,2",
			"author": "encyclopedia(AT)pommard.inria.fr, Jan 25 2000",
			"references": 0,
			"revision": 13,
			"time": "2017-04-18T07:03:59-04:00",
			"created": "2000-05-08T03:00:00-04:00"
		}
	]
}