{
	"greeting": "Greetings from The On-Line Encyclopedia of Integer Sequences! http://oeis.org/",
	"query": "id:A052914",
	"count": 1,
	"start": 0,
	"results": [
		{
			"number": 52914,
			"data": "1,0,0,1,3,1,2,7,12,10,19,41,61,76,135,240,356,521,879,1445,2198,3407,5568,8898,13811,21797,35017,55488,87111,138100,220028,348081,549427,871433,1383370,2188903,3463028,5490410,8703187,13777281,21815941",
			"name": "Expansion of (1-x)/(1 - x - x^3 - 2*x^4 + 2*x^5).",
			"link": [
				"Harvey P. Dale, \u003ca href=\"/A052914/b052914.txt\"\u003eTable of n, a(n) for n = 0..1000\u003c/a\u003e",
				"INRIA Algorithms Project, \u003ca href=\"http://ecs.inria.fr/services/structure?nbr=896\"\u003eEncyclopedia of Combinatorial Structures 896\u003c/a\u003e",
				"\u003ca href=\"/index/Rec#order_05\"\u003eIndex entries for linear recurrences with constant coefficients\u003c/a\u003e, signature (1,0,1,2,-2)."
			],
			"formula": [
				"G.f.: (1-x)/(1 - x - x^3 - 2*x^4 + 2*x^5).",
				"a(n) = a(n-1) + a(n-3) + 2*a(n-4) - 2*a(n-5), with a(0)=1, a(1)=0, a(2)=0, a(3)=1, a(4)=3.",
				"a(n) = Sum_{alpha = RootOf(1 - z - z^3 - 2*z^4 + 2*z^5)} (1/19913)*(418 + 4709*alpha - 599*alpha^2 - 1048*alpha^3 - 542*alpha^4)*alpha^(-1-n)."
			],
			"maple": [
				"spec := [S,{S=Sequence(Prod(Union(Sequence(Z),Z,Z),Z,Z,Z))},unlabeled]: seq(combstruct[count](spec,size=n), n=0..20);",
				"seq(coeff(series((1-x)/(1-x-x^3-2*x^4+2*x^5), x, n+1), x, n), n = 0..50); # _G. C. Greubel_, Oct 16 2019"
			],
			"mathematica": [
				"CoefficientList[Series[(1-x)/(1-x-x^3-2x^4+2x^5),{x,0,50}],x] (* or *) LinearRecurrence[{1,0,1,2,-2},{1,0,0,1,3},50] (* _Harvey P. Dale_, Aug 22 2016 *)"
			],
			"program": [
				"(PARI) my(x='x+O('x^50)); Vec((1-x)/(1-x-x^3-2*x^4+2*x^5)) \\\\ _G. C. Greubel_, Oct 16 2019",
				"(MAGMA) R\u003cx\u003e:=PowerSeriesRing(Integers(), 50); Coefficients(R!( (1-x)/(1-x-x^3-2*x^4+2*x^5) )); // _G. C. Greubel_, Oct 16 2019",
				"(Sage)",
				"def A052914_list(prec):",
				"    P.\u003cx\u003e = PowerSeriesRing(ZZ, prec)",
				"    return P((1-x)/(1-x-x^3-2*x^4+2*x^5)).list()",
				"A052914_list(50) # _G. C. Greubel_, Oct 16 2019",
				"(GAP) a:=[1,0,0,1,3];; for n in [6..50] do a[n]:=a[n-1]+a[n-3]+2*a[n-4] -2*a[n-5]; od; a; # _G. C. Greubel_, Oct 16 2019"
			],
			"keyword": "easy,nonn",
			"offset": "0,5",
			"author": "encyclopedia(AT)pommard.inria.fr, Jan 25 2000",
			"ext": [
				"More terms from _James A. Sellers_, May 06 2000"
			],
			"references": 1,
			"revision": 26,
			"time": "2019-10-17T14:19:57-04:00",
			"created": "2000-05-08T03:00:00-04:00"
		}
	]
}