{
	"greeting": "Greetings from The On-Line Encyclopedia of Integer Sequences! http://oeis.org/",
	"query": "id:A052607",
	"count": 1,
	"start": 0,
	"results": [
		{
			"number": 52607,
			"data": "1,0,2,0,24,120,720,10080,80640,1088640,14515200,199584000,3353011200,56043187200,1046139494400,20922789888000,439378587648000,9959247986688000,236887827111936000,5960609920032768000",
			"name": "E.g.f. (1-x^3)/(1-x^2-x^3).",
			"link": [
				"INRIA Algorithms Project, \u003ca href=\"http://ecs.inria.fr/services/structure?nbr=552\"\u003eEncyclopedia of Combinatorial Structures 552\u003c/a\u003e"
			],
			"formula": [
				"E.g.f.: (-1+x^3)/(-1+x^2+x^3)",
				"Recurrence: {a(1)=0, a(0)=1, a(3)=0, a(2)=2, (-11*n-6-n^3-6*n^2)*a(n) +(-n^2-5*n-6)*a(n+1) +a(n+3)=0}",
				"Sum(-1/23*(6*_alpha^2+2*_alpha-9)*_alpha^(-1-n), _alpha=RootOf(_Z^3+_Z^2-1))*n!"
			],
			"maple": [
				"spec := [S,{S=Sequence(Prod(Z,Z, Sequence(Prod(Z,Z,Z))))},labeled]: [seq(combstruct[count](spec,size=n), n=0..20)];"
			],
			"mathematica": [
				"With[{nn=20},CoefficientList[Series[(1-x^3)/(1-x^2-x^3),{x,0,nn}],x] Range[0,nn]!] (* _Harvey P. Dale_, Jan 04 2012 *)"
			],
			"keyword": "easy,nonn",
			"offset": "0,3",
			"author": "encyclopedia(AT)pommard.inria.fr, Jan 25 2000",
			"references": 0,
			"revision": 16,
			"time": "2017-04-18T07:03:55-04:00",
			"created": "2000-05-08T03:00:00-04:00"
		}
	]
}