{
	"greeting": "Greetings from The On-Line Encyclopedia of Integer Sequences! http://oeis.org/",
	"query": "id:A052964",
	"count": 1,
	"start": 0,
	"results": [
		{
			"number": 52964,
			"data": "1,0,3,1,10,7,35,36,127,165,474,715,1807,3004,6995,12393,27370,50559,107883,204820,427351,826045,1698458,3321891,6765175,13333932,26985675,53457121,107746282,214146295,430470899,857417220,1720537327",
			"name": "Expansion of (1-x)/((1-2x)(1+x-x^2)).",
			"comment": [
				"Number of walks of length n+1 between two adjacent vertices in the cycle graph C_5. Example: a(2)=3 because in the cycle ABCDE we have three walks of length 3 between A and B: ABAB, ABCB and AEAB. - _Emeric Deutsch_, Apr 01 2004",
				"In general a(n,m)=2^n/m*Sum(k,0,m-1,Cos(2Pi*k/m)^(n+1)) gives number of walks of length n between two adjacent vertices in the cycle graph C_m. Here we have m=5. - _Herbert Kociemba_, May 31 2004",
				"Counts walks of length n at the vertex of degree 3 of the graph with adjacency matrix A=[0,1,1,1;1,0,0,0;1,0,0,0;1,0,0,1]. Binomial transform is (L(n-2)+2*3^n)/5, or A099159. - _Paul Barry_, Oct 01 2004"
			],
			"link": [
				"Harvey P. Dale, \u003ca href=\"/A052964/b052964.txt\"\u003eTable of n, a(n) for n = 0..1000\u003c/a\u003e",
				"INRIA Algorithms Project, \u003ca href=\"http://ecs.inria.fr/services/structure?nbr=1035\"\u003eEncyclopedia of Combinatorial Structures 1035\u003c/a\u003e",
				"\u003ca href=\"/index/Rec\"\u003eIndex entries for linear recurrences with constant coefficients\u003c/a\u003e, signature (1,3,-2)."
			],
			"formula": [
				"G.f.: -(-1+x)/(1-x-3*x^2+2*x^3)",
				"Recurrence: {a(1)=0, a(0)=1, a(2)=3, 2*a(n)-3*a(n+1)-a(n+2)+a(n+3)=0}",
				"Sum(-1/25*(-1-11*_alpha+6*_alpha^2)*_alpha^(-1-n), _alpha=RootOf(1-_Z-3*_Z^2+2*_Z^3))",
				"a(n-1)=2^n/5*Sum(k, 0, 4, Cos(2Pi*k/5)^(n+1)), n\u003e=1 - _Herbert Kociemba_, May 31 2004",
				"a(n)=((sqrt(5)-1)/2)^n(3/10-sqrt(5)/10)+((-sqrt(5)-1)/2)^n(3/10+sqrt(5)/10)+2^(n+1)/5 - _Paul Barry_, Oct 01 2004",
				"a(n) = (2^(n+1) + A000032(n+2)*(-1)^n)/5 - _Ross La Haye_, May 31 2006",
				"a(n) = |A084179(n+1)|-|A084179(n)|. - _R. J. Mathar_, Feb 27 2019"
			],
			"maple": [
				"spec := [S,{S=Sequence(Prod(Union(Prod(Sequence(Z),Z),Z,Z),Z))},unlabeled ]: seq(combstruct[count ](spec,size=n), n=0..20);"
			],
			"mathematica": [
				"CoefficientList[Series[(1-x)/((1-2x)(1+x-x^2)),{x,0,40}],x] (* or *) LinearRecurrence[{1,3,-2},{1,0,3},40] (* _Harvey P. Dale_, Jun 03 2019 *)"
			],
			"keyword": "easy,nonn",
			"offset": "0,3",
			"author": "encyclopedia(AT)pommard.inria.fr, Jan 25 2000",
			"references": 10,
			"revision": 33,
			"time": "2020-11-03T13:28:06-05:00",
			"created": "2000-05-08T03:00:00-04:00"
		}
	]
}