{
	"greeting": "Greetings from The On-Line Encyclopedia of Integer Sequences! http://oeis.org/",
	"query": "id:A052472",
	"count": 1,
	"start": 0,
	"results": [
		{
			"number": 52472,
			"data": "0,10,35,84,168,300,495,770,1144,1638,2275,3080,4080,5304,6783,8550,10640,13090,15939,19228,23000,27300,32175,37674,43848,50750,58435,66960,76384,86768,98175,110670,124320,139194,155363,172900,191880",
			"name": "Number of independent components for a Weyl tensor in n dimensions.",
			"link": [
				"Vincenzo Librandi, \u003ca href=\"/A052472/b052472.txt\"\u003eTable of n, a(n) for n = 3..10000\u003c/a\u003e",
				"Eric Weisstein's World of Mathematics, \u003ca href=\"http://mathworld.wolfram.com/WeylTensor.html\"\u003eWeyl Tensor\u003c/a\u003e",
				"\u003ca href=\"/index/Rec#order_05\"\u003eIndex entries for linear recurrences with constant coefficients\u003c/a\u003e, signature (5,-10,10,-5,1)."
			],
			"formula": [
				"a(n) = n*(n+1)*(n+2)*(n-3)/12 for n \u003e= 3.",
				"a(n) = 2*C(n,4) - C(n,3), n\u003e=5. - _Zerinvary Lajos_, Nov 25 2006",
				"G.f.: x^4*(2-x)*(5 - 5*x + 2*x^2)/(1-x)^5. - _R. J. Mathar_, Sep 05 2011",
				"E.g.f.: x*(1 + x - (12 - 6*x^2 - x^3)*exp(x)/12). - _G. C. Greubel_, May 18 2019"
			],
			"maple": [
				"A052472 := proc(n) n*(n+1)*(n+2)*(n-3)/12 ; end proc:",
				"seq(A052472(n),n=3..40) ; # _R. J. Mathar_, Nov 05 2011"
			],
			"mathematica": [
				"LinearRecurrence[{5,-10,10,-5,1},{0,10,35,84,168},40] (* _Harvey P. Dale_, Mar 25 2016 *)"
			],
			"program": [
				"(MAGMA) [n*(n+1)*(n+2)*(n-3)/12 : n in [3..40]]; // _Vincenzo Librandi_, Sep 06 2011",
				"(PARI) a(n)=n*(n-3)*(n+1)*(n+2)/12 \\\\ _Charles R Greathouse IV_, Jun 02 2015",
				"(Sage) [(n-3)*binomial(n+2,3)/2 for n in (3..40)] # _G. C. Greubel_, May 18 2019",
				"(GAP) List([3..40], n-\u003e (n-3)*Binomial(n+2,3)/2) # _G. C. Greubel_, May 18 2019"
			],
			"xref": [
				"Cf. A058373."
			],
			"keyword": "nonn,easy",
			"offset": "3,2",
			"author": "_Eric W. Weisstein_",
			"references": 6,
			"revision": 35,
			"time": "2019-05-19T02:22:54-04:00",
			"created": "2000-05-08T03:00:00-04:00"
		}
	]
}