{
	"greeting": "Greetings from The On-Line Encyclopedia of Integer Sequences! http://oeis.org/",
	"query": "id:A052045",
	"count": 1,
	"start": 0,
	"results": [
		{
			"number": 52045,
			"data": "1,8,27,64,125,216,343,512,729,1331,1728,2197,2744,3375,4913,5832,6859,9261,12167,13824,15625,17576,19683,21952,24389,29791,32768,35937,42875,46656,54872,59319,68921,85184,91125,97336,117649,132651,148877",
			"name": "Cubes lacking the digit zero in their decimal expansion.",
			"comment": [
				"This sequence is infinite since A052427(n)^3 is a term for all n\u003e=0. - _Amiram Eldar_, Nov 23 2020"
			],
			"link": [
				"Amiram Eldar, \u003ca href=\"/A052045/b052045.txt\"\u003eTable of n, a(n) for n = 1..10000\u003c/a\u003e (terms 1..1000 from Alois P. Heinz)",
				"Eric Weisstein's World of Mathematics, \u003ca href=\"http://mathworld.wolfram.com/Zerofree.html\"\u003eZerofree\u003c/a\u003e [From _Reinhard Zumkeller_, Dec 01 2009]"
			],
			"formula": [
				"Intersection of A052382 and A000578; A168046(a(n))*A010057(a(n)) = 1. - _Reinhard Zumkeller_, Dec 01 2009",
				"a(n) = A052044(n)^3. - _Amiram Eldar_, Nov 23 2020"
			],
			"maple": [
				"select(t -\u003e not has(convert(t,base,10),0), [seq(m^3,m=1..10^3)]); # _Robert Israel_, Aug 24 2014"
			],
			"mathematica": [
				"Select[Range[53]^3, DigitCount[#, 10, 0] == 0 \u0026] (* _Amiram Eldar_, Nov 23 2020 *)"
			],
			"program": [
				"(Python)",
				"A052045 = [n**3 for n in range(1,10**5) if not str(n**3).count('0')]",
				"# _Chai Wah Wu_, Aug 24 2014",
				"(PARI) lista(nn) = {for (n=1, nn, if (vecmin(digits(cub=n^3)), print1(cub, \", \")););} \\\\ _Michel Marcus_, Aug 25 2014"
			],
			"xref": [
				"Cubes: A052044, A051750, A051751, A051832, A051833, A052427.",
				"Squares: A052040, A052041, A052042, A052043."
			],
			"keyword": "nonn,base",
			"offset": "1,2",
			"author": "_Patrick De Geest_, Dec 15 1999",
			"references": 8,
			"revision": 32,
			"time": "2020-11-23T02:06:59-05:00",
			"created": "2000-05-08T03:00:00-04:00"
		}
	]
}