{
	"greeting": "Greetings from The On-Line Encyclopedia of Integer Sequences! http://oeis.org/",
	"query": "id:A052411",
	"count": 1,
	"start": 0,
	"results": [
		{
			"number": 52411,
			"data": "0,0,0,0,0,0,0,0,2,24,173,1047,6709,37177,224311,1301492",
			"name": "Number of n-crossing hyperbolic knots having symmetry group Z1.",
			"reference": [
				"Hoste, J.; Thistlethwaite, M.; and Weeks, J. \"The First 1,701,936 Knots.\" Math. Intell., 20, 33-48, Fall 1998."
			],
			"link": [
				"Eric Weisstein's World of Mathematics, \u003ca href=\"http://mathworld.wolfram.com/KnotSymmetry.html\"\u003eKnot symmetry.\u003c/a\u003e"
			],
			"xref": [
				"Cf. A052411, A052412, A052413, A052414."
			],
			"keyword": "nonn,hard",
			"offset": "1,9",
			"author": "_Eric W. Weisstein_",
			"references": 2,
			"revision": 10,
			"time": "2021-11-25T12:37:29-05:00",
			"created": "2000-05-08T03:00:00-04:00"
		}
	]
}