{
	"greeting": "Greetings from The On-Line Encyclopedia of Integer Sequences! http://oeis.org/",
	"query": "id:A052699",
	"count": 1,
	"start": 0,
	"results": [
		{
			"number": 52699,
			"data": "1,1,2,6,24,240,720,5040,40320,362880,3628800,39916800,479001600,6227020800,87178291200,1307674368000,20922789888000,355687428096000,6402373705728000,121645100408832000,2432902008176640000",
			"name": "E.g.f. (1+x^5-x^6)/(1-x).",
			"link": [
				"Vincenzo Librandi, \u003ca href=\"/A052699/b052699.txt\"\u003eTable of n, a(n) for n = 0..200\u003c/a\u003e",
				"INRIA Algorithms Project, \u003ca href=\"http://ecs.inria.fr/services/structure?nbr=649\"\u003eEncyclopedia of Combinatorial Structures 649\u003c/a\u003e"
			],
			"formula": [
				"E.g.f.: (-1-x^5+x^6)/(-1+x)",
				"Recurrence: {a(1)=1, a(0)=1, (-1-n)*a(n)+a(n+1)=0, a(3)=6, a(2)=2, a(4)=24, a(6)=720, a(5)=240}",
				"n!, n\u003e5."
			],
			"maple": [
				"spec := [S,{S=Union(Sequence(Z),Prod(Z,Z,Z,Z,Z))},labeled]: seq(combstruct[count](spec,size=n), n=0..20);"
			],
			"mathematica": [
				"With[{nn=20},CoefficientList[Series[(1+x^5-x^6)/(1-x),{x,0,nn}],x] Range[0,nn]!] (* _Harvey P. Dale_, Feb 04 2014 *)"
			],
			"keyword": "easy,nonn",
			"offset": "0,3",
			"author": "encyclopedia(AT)pommard.inria.fr, Jan 25 2000",
			"references": 2,
			"revision": 17,
			"time": "2017-04-18T07:04:01-04:00",
			"created": "2000-05-08T03:00:00-04:00"
		}
	]
}