{
	"greeting": "Greetings from The On-Line Encyclopedia of Integer Sequences! http://oeis.org/",
	"query": "id:A052396",
	"count": 1,
	"start": 0,
	"results": [
		{
			"number": 52396,
			"data": "2,4,8,16,32,63,64,128,256,512,1024,2048,4096,8192,16384,32768,34587,65536,131072,262144,524288,1048576,2097152,4194304,8388608,16777216,33554432,67108864,134217728,170271081",
			"name": "(+2)-sigma perfect numbers: numbers such that (+2)sigma(n)=2*n, where if n=Product p(i)^r(i) then (+2)sigma(n)=Product (2+Sum p(i)^s(i), s(i)=1 to r(i)), e.g. (+2)sigma(6)=(2+2)*(2+3)=20.",
			"example": [
				"Factorizations: even examples 2,2^2,2^3,2^4,...; odd examples 3^2*7 a(6), 3^4*7*61 a(17), 3^6*7*61*547 a(30)."
			],
			"keyword": "nonn",
			"offset": "1,1",
			"author": "_Yasutoshi Kohmoto_ Mar 13 2000",
			"ext": [
				"Corrected by Franklin T. Adams-Watters, Oct 25 2006"
			],
			"references": 2,
			"revision": 7,
			"time": "2016-04-19T01:07:32-04:00",
			"created": "2000-05-08T03:00:00-04:00"
		}
	]
}