{
	"greeting": "Greetings from The On-Line Encyclopedia of Integer Sequences! http://oeis.org/",
	"query": "id:A052925",
	"count": 1,
	"start": 0,
	"results": [
		{
			"number": 52925,
			"data": "2,2,4,9,22,56,145,378,988,2585,6766,17712,46369,121394,317812,832041,2178310,5702888,14930353,39088170,102334156,267914297,701408734,1836311904,4807526977,12586269026,32951280100,86267571273",
			"name": "Expansion of (2-6*x+4*x^2-x^3)/((1-x)*(1-3*x+x^2)).",
			"link": [
				"Vincenzo Librandi, \u003ca href=\"/A052925/b052925.txt\"\u003eTable of n, a(n) for n = 0..1000\u003c/a\u003e",
				"INRIA Algorithms Project, \u003ca href=\"http://ecs.inria.fr/services/structure?nbr=910\"\u003eEncyclopedia of Combinatorial Structures 910\u003c/a\u003e",
				"\u003ca href=\"/index/Rec#order_03\"\u003eIndex entries for linear recurrences with constant coefficients\u003c/a\u003e, signature (4,-4,1)."
			],
			"formula": [
				"G.f.: (2-6*x+4*x^2-x^3)/((1-x)*(1-3*x+x^2)).",
				"a(n) = 4*a(n-1) - 4*a(n-2) + a(n-3), with a(0)=2, a(1)=2, a(2)=4, a(3)=9.",
				"a(n) = 1 + Sum_{alpha=RootOf(1-3*z+z^2)} (1/5)*(2-3*alpha)*alpha^(-1-n)."
			],
			"maple": [
				"spec:=[S,{S=Union(Sequence(Z),Sequence(Prod(Sequence(Z),Sequence(Z),Z) ))}, unlabeled]: seq(combstruct[count](spec,size=n), n=0..20);",
				"seq(coeff(series((2-6*x+4*x^2-x^3)/((1-x)*(1-3*x+x^2)), x, n+1), x, n), n = 0..30); # _G. C. Greubel_, Oct 17 2019"
			],
			"mathematica": [
				"CoefficientList[Series[(-2+6*x-4*x^2+x^3)/(-1+x)/(1-3*x+x^2),{x,0,40}],x] (* _Vincenzo Librandi_, Jun 22 2012 *)",
				"LinearRecurrence[{4,-4,1}, {2,2,4,9}, 30] (* _G. C. Greubel_, Oct 17 2019 *)"
			],
			"program": [
				"(MAGMA) I:=[2,2,4,9]; [n le 4 select I[n] else 4*Self(n-1)-4*Self(n-2) +Self(n-3): n in [1..30]]; // _Vincenzo Librandi_, Jun 22 2012",
				"(PARI) my(x='x+O('x^30)); Vec((2-6*x+4*x^2-x^3)/((1-x)*(1-3*x+x^2))) \\\\ _G. C. Greubel_, Oct 17 2019",
				"(Sage)",
				"def A052925_list(prec):",
				"    P.\u003cx\u003e = PowerSeriesRing(ZZ, prec)",
				"    return P((2-6*x+4*x^2-x^3)/((1-x)*(1-3*x+x^2))).list()",
				"A052925_list(30) # _G. C. Greubel_, Oct 17 2019",
				"(GAP) a:=[2,4,9];; for n in [4..30] do a[n]:=4*a[n-1]-4*a[n-2]+a[n-3]; od; Concatenation([2], a); # _G. C. Greubel_, Oct 17 2019"
			],
			"xref": [
				"Apart from first term, same as A055588."
			],
			"keyword": "easy,nonn",
			"offset": "0,1",
			"author": "encyclopedia(AT)pommard.inria.fr, Jan 25 2000",
			"ext": [
				"More terms from _James A. Sellers_, Jun 05 2000"
			],
			"references": 2,
			"revision": 23,
			"time": "2019-10-18T03:57:35-04:00",
			"created": "2000-05-08T03:00:00-04:00"
		}
	]
}