{
	"greeting": "Greetings from The On-Line Encyclopedia of Integer Sequences! http://oeis.org/",
	"query": "id:A052290",
	"count": 1,
	"start": 0,
	"results": [
		{
			"number": 52290,
			"data": "2,11,389,1961990553613,1678343852714360832019,25563186766285862273530264901662157745369907200000037",
			"name": "Prime values of n!*2^n+n+1 = A000165(n)+n+1.",
			"comment": [
				"For a(6), n = 36.  There are no additional terms up to n=1000. - _Harvey P. Dale_, Aug 06 2012",
				"Primes for n = 0, 2, 4, 12, 18, 36, and no others for n \u003c 5001. - _Robert G. Wilson v_, Aug 07 2012"
			],
			"example": [
				"If n=4, 2^4*4!+4+1 = 389 is prime, so 389 is a term."
			],
			"mathematica": [
				"Select[Table[n! 2^n+n+1,{n,0,1000}],PrimeQ] (* _Harvey P. Dale_, Aug 06 2012 *)"
			],
			"xref": [
				"Cf. A000165, A052289."
			],
			"keyword": "nonn",
			"offset": "1,1",
			"author": "_Labos Elemer_, Feb 08 2000",
			"references": 1,
			"revision": 17,
			"time": "2013-10-15T22:30:33-04:00",
			"created": "2000-05-08T03:00:00-04:00"
		}
	]
}