{
	"greeting": "Greetings from The On-Line Encyclopedia of Integer Sequences! http://oeis.org/",
	"query": "id:A052682",
	"count": 1,
	"start": 0,
	"results": [
		{
			"number": 52682,
			"data": "1,0,6,18,288,2520,41040,604800,11733120,236234880,5530291200,138790713600,3855483878400,115075344384000,3716149018982400,128239702246656000,4727462529613824000,185010460036706304000",
			"name": "E.g.f. (1-x)/(1-x-3x^2).",
			"link": [
				"INRIA Algorithms Project, \u003ca href=\"http://ecs.inria.fr/services/structure?nbr=630\"\u003eEncyclopedia of Combinatorial Structures 630\u003c/a\u003e"
			],
			"formula": [
				"E.g.f.: (-1+x)/(-1+x+3*x^2)",
				"Recurrence: {a(1)=0, a(0)=1, (-3*n^2-9*n-6)*a(n)+(-2-n)*a(n+1)+a(n+2)=0}",
				"Sum(1/13*(-1+7*_alpha)*_alpha^(-1-n), _alpha=RootOf(-1+_Z+3*_Z^2))*n!.",
				"a(n) = n!*A052533(n). - _R. J. Mathar_, Nov 27 2011"
			],
			"maple": [
				"spec := [S,{S=Sequence(Prod(Z,Sequence(Z),Union(Z,Z,Z)))},labeled]: seq(combstruct[count](spec,size=n), n=0..20);"
			],
			"mathematica": [
				"With[{nn=20},CoefficientList[Series[(-1+x)/(-1+x+3*x^2),{x,0,nn}],x] Range[0,nn]!] (* _Harvey P. Dale_, Jul 15 2020 *)"
			],
			"keyword": "easy,nonn",
			"offset": "0,3",
			"author": "encyclopedia(AT)pommard.inria.fr, Jan 25 2000",
			"references": 0,
			"revision": 15,
			"time": "2020-07-15T13:08:51-04:00",
			"created": "2000-05-08T03:00:00-04:00"
		}
	]
}