{
	"greeting": "Greetings from The On-Line Encyclopedia of Integer Sequences! http://oeis.org/",
	"query": "id:A052211",
	"count": 1,
	"start": 0,
	"results": [
		{
			"number": 52211,
			"data": "0,1,10,100,1000,10000,46416,100000,464159,1000000,2154435,4641589,10000000,21544347,100000000,1000000000,10000000000,100000000000,1000000000000,2154434690032,4641588833613,10000000000000,21544346900319,46415888336128",
			"name": "Numbers n such that n^4 starts with n itself (in base 10).",
			"link": [
				"Andrew Howroyd, \u003ca href=\"/A052211/b052211.txt\"\u003eTable of n, a(n) for n = 1..500\u003c/a\u003e"
			],
			"example": [
				"46416^4 starts with 46416."
			],
			"mathematica": [
				"Sort[ Table[ 10^i,{i,0,22} ]~Join~Select[ Table[ Ceiling[ 10.^(1/3)*10^i ],{i,0,22} ], Take[ IntegerDigits[ #^4 ],Length[ IntegerDigits[ # ] ] ]==IntegerDigits[ # ]\u0026 ]~Join~Select[ Table[ Ceiling[ 10.^(2/3)*10^i ],{i,0,22} ],Take[ IntegerDigits[ #^4 ],Length[ IntegerDigits[ # ] ] ]==IntegerDigits[ # ]\u0026 ] ]"
			],
			"program": [
				"(PARI) r=41; print1(1, \", \"); e=4; for(n=2, r, p=round((10^(1/(e-1)))^n); f=p^e; b=10^(#Str(f)-#Str(p)); if((f-lift(Mod(f, b)))/b==p, print1(p, \", \"))); \\\\ _Arkadiusz Wesolowski_, Dec 10 2013"
			],
			"xref": [
				"Cf. A052210, A233451, A233452, A233453, A233454, A233455, A233456."
			],
			"keyword": "nonn,base,easy",
			"offset": "1,3",
			"author": "_Erich Friedman_, Jan 29 2000",
			"references": 9,
			"revision": 21,
			"time": "2019-12-24T21:43:01-05:00",
			"created": "2000-05-08T03:00:00-04:00"
		}
	]
}