{
	"greeting": "Greetings from The On-Line Encyclopedia of Integer Sequences! http://oeis.org/",
	"query": "id:A052289",
	"count": 1,
	"start": 0,
	"results": [
		{
			"number": 52289,
			"data": "0,2,4,12,18,36",
			"name": "Numbers n such that n!*2^n + n + 1 = A000165(n) + n + 1 is prime.",
			"comment": [
				"For comparison, A000165(n)+1 is prime for n = 0, 1, 259, 16708, 18655,... (A256594).",
				"a(6) \u003e 25000, if it exists. - _Giovanni Resta_, Jun 01 2018"
			],
			"example": [
				"n=4, 2^4*4! + 4 + 1 = 389 is prime."
			],
			"mathematica": [
				"Select[Range[100], PrimeQ[#! 2^# + # + 1] \u0026] (* _Giovanni Resta_, May 31 2018 *)"
			],
			"xref": [
				"Cf. A000165, A052290, A256594."
			],
			"keyword": "nonn,more",
			"offset": "1,2",
			"author": "_Labos Elemer_, Feb 08 2000",
			"ext": [
				"a(1)=0 inserted by _Sean A. Irvine_, Nov 03 2021"
			],
			"references": 1,
			"revision": 17,
			"time": "2021-11-03T21:28:47-04:00",
			"created": "2000-05-08T03:00:00-04:00"
		}
	]
}