{
	"greeting": "Greetings from The On-Line Encyclopedia of Integer Sequences! http://oeis.org/",
	"query": "id:A052095",
	"count": 1,
	"start": 0,
	"results": [
		{
			"number": 52095,
			"data": "10011,10110,10401,11001,11010,14499,20022,20220,22002,22020,28998,31086,333303,344514,354318,354996,360096,367854,379665,414189,442263,458499,458610,460719,462765,467997,470682,484173,492489,518484,528297",
			"name": "a(n)^2 is a square whose decimal expansion digits occur with an exact frequency of 3.",
			"comment": [
				"For case frequency 2 the first terms correspond to those of sequence A052049.",
				"Last term is 999944387118711. - _Giovanni Resta_, Mar 21 2013"
			],
			"link": [
				"P. De Geest, \u003ca href=\"http://www.worldofnumbers.com/samedigits.htm\"\u003eNumbers whose digits occur with same frequency\u003c/a\u003e"
			],
			"mathematica": [
				"Select[Range[53*10^4],Union[Tally[IntegerDigits[#^2]][[All,2]]]=={3}\u0026] (* _Harvey P. Dale_, May 05 2018 *)"
			],
			"xref": [
				"Cf. A052096, A052097, A052098, A052049."
			],
			"keyword": "nonn,base,fini",
			"offset": "1,1",
			"author": "_Patrick De Geest_, Jan 15 2000",
			"references": 3,
			"revision": 11,
			"time": "2019-10-18T21:25:27-04:00",
			"created": "2000-05-08T03:00:00-04:00"
		}
	]
}