{
	"greeting": "Greetings from The On-Line Encyclopedia of Integer Sequences! http://oeis.org/",
	"query": "id:A052293",
	"count": 1,
	"start": 0,
	"results": [
		{
			"number": 52293,
			"data": "11,13,17,19,23,29,31,41,43,53,61,67,83,101,109,121,139,143,167,173,193,211,221,251,253,283,299,317,349,353,391,403,431,461,473,517,523,563,589,611,659,661,713,733,767,811,823,881,893,941,979,1003,1067",
			"name": "Numbers of the form 11 + x^2 + x or 11 + 2*x^2.",
			"mathematica": [
				"Union[Flatten[Table[{11+x^2+x,11+2x^2},{x,0,40}]]] (* _Harvey P. Dale_, May 06 2013 *)"
			],
			"keyword": "nonn,easy",
			"offset": "1,1",
			"author": "Stuart M. Ellerstein (ellerstein(AT)aol.com), Feb 08 2000",
			"ext": [
				"Corrected and extended by _James A. Sellers_, Feb 10 2000"
			],
			"references": 5,
			"revision": 7,
			"time": "2013-05-06T11:51:03-04:00",
			"created": "2000-05-08T03:00:00-04:00"
		}
	]
}