{
	"greeting": "Greetings from The On-Line Encyclopedia of Integer Sequences! http://oeis.org/",
	"query": "id:A053350",
	"count": 1,
	"start": 0,
	"results": [
		{
			"number": 53350,
			"data": "2,3,4,12,34,40,46,70,82,102,118,119,192,202,300,434,508,515,516,612,690,718,795,846,1112,1786,3884,5112,5136,8628,10218,10222,16415,38796,40642,47318,48134,48634,50778,60134,60282,88088,240778,314228,331154,383172",
			"name": "Numbers k such that 267*2^k + 1 is prime.",
			"link": [
				"Jeppe Stig Nielsen, \u003ca href=\"/A053350/b053350.txt\"\u003eTable of n, a(n) for n = 1..54\u003c/a\u003e",
				"Ray Ballinger and Wilfrid Keller, \u003ca href=\"http://www.prothsearch.com/riesel1.html\"\u003eList of primes k.2^n + 1 for k \u003c 300\u003c/a\u003e",
				"Wilfrid Keller, \u003ca href=\"http://www.prothsearch.com/riesel2.html\"\u003eList of primes k.2^n - 1 for k \u003c 300\u003c/a\u003e",
				"\u003ca href=\"/index/Pri#riesel\"\u003eIndex entries for sequences of n such that k*2^n-1 (or k*2^n+1) is prime\u003c/a\u003e"
			],
			"mathematica": [
				"Select[Range[5*10^3], PrimeQ[267*2^# + 1] \u0026] (* _G. C. Greubel_, May 24 2018 *)"
			],
			"program": [
				"(PARI) is(n)=ispseudoprime(267*2^n+1) \\\\ _Charles R Greathouse IV_, Jun 13 2017",
				"(MAGMA) [n: n in [1..300] | IsPrime(267*2^n+1)];  // _G. C. Greubel_, May 24 2018"
			],
			"keyword": "hard,nonn",
			"offset": "1,1",
			"author": "_N. J. A. Sloane_, Dec 29 1999",
			"ext": [
				"a(43)-a(51) from the Ray Ballinger and Wilfrid Keller link by _Robert Price_, Dec 20 2018",
				"Terms moved from Data section to b-file, and more terms added to b-file by _Jeppe Stig Nielsen_, Mar 12 2020"
			],
			"references": 1,
			"revision": 28,
			"time": "2020-03-12T20:55:06-04:00",
			"created": "2000-05-08T03:00:00-04:00"
		}
	]
}