{
	"greeting": "Greetings from The On-Line Encyclopedia of Integer Sequences! http://oeis.org/",
	"query": "id:A053401",
	"count": 1,
	"start": 0,
	"results": [
		{
			"number": 53401,
			"data": "1,60,3600,86400,604800,2629746,31556952,3155695200,31556952000,31556952000000000",
			"name": "Number of seconds in the time units: second, minute, hour, day, week, month, year, century, millennium, (a)eon.",
			"comment": [
				"The last five numbers are based on the average Gregorian year of 365.2425 days."
			],
			"keyword": "easy,fini,nonn,full",
			"offset": "1,2",
			"author": "Jean Fontaine (jfontain(AT)odyssee.net), Jan 07 2000",
			"references": 1,
			"revision": 15,
			"time": "2021-08-31T01:07:42-04:00",
			"created": "2000-05-08T03:00:00-04:00"
		}
	]
}