{
	"greeting": "Greetings from The On-Line Encyclopedia of Integer Sequences! http://oeis.org/",
	"query": "id:A053994",
	"count": 1,
	"start": 0,
	"results": [
		{
			"number": 53994,
			"data": "1,0,1,1,0,2,11,0,97,354,0,31381,395551,0,90120677",
			"name": "Nonattacking queens on a 2n+1 X 2n+1 toroidal board, solutions which differ only by rotation, reflection or torus shift count only once.",
			"reference": [
				"A. P. Street and R. Day, Sequential binary arrays II: Further results on the square grid, pp. 392-418 of Combinatorial Mathematics IX. Proc. Ninth Australian Conference (Brisbane, August 1981). Ed. E. J. Billington, S. Oates-Williams and A. P. Street. Lecture Notes Math., 952. Springer-Verlag, 1982 (for getting equivalence classes)."
			],
			"link": [
				"I. Rivin, I. Vardi and P. Zimmermann, \u003ca href=\"https://www.jstor.org/stable/2974691\"\u003eThe n-queens problem\u003c/a\u003e, Amer. Math. Monthly, 101 (1994), 629-639 (for finding the solutions)."
			],
			"xref": [
				"A007705, A006841, A051906."
			],
			"keyword": "hard,nice,nonn",
			"offset": "0,6",
			"author": "_Matthias Engelhardt_, Apr 05 2000",
			"ext": [
				"More terms from _Matthias Engelhardt_, Jan 11 2001"
			],
			"references": 6,
			"revision": 7,
			"time": "2018-07-12T20:27:57-04:00",
			"created": "2000-05-08T03:00:00-04:00"
		}
	]
}