{
	"greeting": "Greetings from The On-Line Encyclopedia of Integer Sequences! http://oeis.org/",
	"query": "id:A053205",
	"count": 1,
	"start": 0,
	"results": [
		{
			"number": 53205,
			"data": "0,0,2,0,8,0,14,6,12,0,26,0,44,36,62,0,44,0,74,48,68,0,134,30,80,78,154,0,242,0,254,72,36,86,170,0,116,84,254,0,440,0,322,330,324,0,590,126,272,414,430,0,674,96,646,120,408,0,794,0,932,384,958,290,524,0",
			"name": "Row sums of A053201.",
			"link": [
				"Reinhard Zumkeller, \u003ca href=\"/A053205/b053205.txt\"\u003eTable of n, a(n) for n = 2..1000\u003c/a\u003e"
			],
			"formula": [
				"a(n) = A053204(n) - 2.",
				"a(prime(n)) = 0."
			],
			"example": [
				"a(6) = 0 + 3 + 2 + 3 + 0 = 8."
			],
			"program": [
				"(Haskell)",
				"a053205 = sum . a053201_row  -- _Reinhard Zumkeller_, Jan 24 2014"
			],
			"xref": [
				"Cf. A053201, A053202, A053204."
			],
			"keyword": "nonn,easy",
			"offset": "2,3",
			"author": "Asher Auel (asher.auel(AT)reed.edu), Dec 12 1999",
			"ext": [
				"Corrected and extended by _James A. Sellers_, Dec 13 1999"
			],
			"references": 3,
			"revision": 16,
			"time": "2019-11-21T19:12:46-05:00",
			"created": "2000-05-08T03:00:00-04:00"
		}
	]
}