{
	"greeting": "Greetings from The On-Line Encyclopedia of Integer Sequences! http://oeis.org/",
	"query": "id:A053003",
	"count": 1,
	"start": 0,
	"results": [
		{
			"number": 53003,
			"data": "1,5,21,3,4,14,1,1,1,1,1,3,1,15,1,3,8,36,1,2,5,2,1,1,2,2,6,9,1,1,1,3,1,2,6,1,5,1,1,2,1,13,2,2,5,1,2,2,1,5,1,3,1,3,1,2,2,2,2,8,3,1,2,2,1,10,2,2,2,3,3,1,7,1,8,3,1,1,1,1,1,1,1,1,5,2,1,2,17,1,4,31,2,2,5,30,1,8,2,1",
			"name": "Continued fraction for M(1,sqrt(2)).",
			"comment": [
				"M(a,b) is the limit of the arithmetic-geometric mean iteration applied repeatedly starting with a and b: a_0=a, b_0=b, a_{n+1}=(a_n+b_n)/2, b_{n+1}=sqrt(a_n*b_n)."
			],
			"reference": [
				"J. M. Borwein and P. B. Borwein, Pi and the AGM, page 5.",
				"J. R. Goldman, The Queen of Mathematics, 1998, p. 92."
			],
			"link": [
				"Harry J. Smith, \u003ca href=\"/A053003/b053003.txt\"\u003eTable of n, a(n) for n = 1..20000\u003c/a\u003e",
				"Eric Weisstein's World of Mathematics, \u003ca href=\"http://mathworld.wolfram.com/GaussConstant.html\"\u003eGauss Constant.\u003c/a\u003e",
				"G. Xiao, \u003ca href=\"http://wims.unice.fr/~wims/en_tool~number~contfrac.en.html\"\u003eContfrac\u003c/a\u003e",
				"\u003ca href=\"/index/Con#confC\"\u003eIndex entries for continued fractions for constants\u003c/a\u003e"
			],
			"example": [
				"1.19814023473559220743992249228..."
			],
			"mathematica": [
				"ContinuedFraction[ArithmeticGeometricMean[1,Sqrt[2]],100] (* _Harvey P. Dale_, Feb 26 2012 *)"
			],
			"program": [
				"(PARI) { allocatemem(932245000); default(realprecision, 21000); x=contfrac(agm(1, sqrt(2))); for (n=1, 20000, write(\"b053003.txt\", n, \" \", x[n])); } \\\\ _Harry J. Smith_, Apr 20 2009"
			],
			"xref": [
				"Cf. A014549, A053002, A053004."
			],
			"keyword": "nonn,cofr,nice,easy",
			"offset": "1,2",
			"author": "_N. J. A. Sloane_, Feb 21 2000",
			"ext": [
				"More terms from _James A. Sellers_, Feb 22 2000"
			],
			"references": 4,
			"revision": 21,
			"time": "2016-01-03T15:54:59-05:00",
			"created": "2000-05-08T03:00:00-04:00"
		}
	]
}