{
	"greeting": "Greetings from The On-Line Encyclopedia of Integer Sequences! http://oeis.org/",
	"query": "id:A053078",
	"count": 1,
	"start": 0,
	"results": [
		{
			"number": 53078,
			"data": "3565979,3653911,3985951,5425661,5647409,6127019,6292129,6532601,7134031,7360411,7389541,7700179,7865881,7956211,8467951,8708339,8972749,9203791,9603409,9863599,10279861,10971791,11998439,12225299",
			"name": "Balanced primes separated from the next lower and next higher prime neighbors by 48.",
			"link": [
				"Zak Seidov, \u003ca href=\"/A053078/b053078.txt\"\u003eTable of n, a (n) for n = 1..1000\u003c/a\u003e"
			],
			"formula": [
				"a(n) = A329578(n) + 48. - _Sean A. Irvine_, Dec 06 2021"
			],
			"example": [
				"3653911 is separated from both the next lower prime and the next higher prime by 48."
			],
			"mathematica": [
				"lst={};Do[p=Prime[n];If[p-Prime[n-1]==Prime[n+1]-p==6*8,AppendTo[lst,p]],{n,2,3*9!}];lst (* _Vladimir Joseph Stephan Orlovsky_, May 20 2010 *)",
				"Transpose[Select[Partition[Prime[Range[810000]],3,1],Union[ Differences[ #]] == {48}\u0026]][[2]] (* _Harvey P. Dale_, May 01 2013 *)"
			],
			"xref": [
				"Cf. A329578."
			],
			"keyword": "easy,nonn",
			"offset": "1,1",
			"author": "_Harvey P. Dale_, Feb 25 2000",
			"references": 3,
			"revision": 18,
			"time": "2021-12-06T03:18:10-05:00",
			"created": "2000-05-08T03:00:00-04:00"
		}
	]
}