{
	"greeting": "Greetings from The On-Line Encyclopedia of Integer Sequences! http://oeis.org/",
	"query": "id:A053748",
	"count": 1,
	"start": 0,
	"results": [
		{
			"number": 53748,
			"data": "3,20,24,37,58,60,61,71,88,93,105,120,126,127,146,152,158,163,183,184,189,193,202,203,218,219,224,228,252,255,263,267,272,274,279,294,297,304,322,340,349,372,377,385,387",
			"name": "Positions of 4's in the decimal expansion of Pi.",
			"link": [
				"Vincenzo Librandi, \u003ca href=\"/A053748/b053748.txt\"\u003eTable of n, a(n) for n = 1..1000\u003c/a\u003e",
				"\u003ca href=\"/index/Ph#Pi314\"\u003eIndex entries for sequences related to the number Pi\u003c/a\u003e"
			],
			"formula": [
				"a(n) = A037003(n) + 1. - _Georg Fischer_, May 31 2021"
			],
			"example": [
				"Pi starts off 3.141592653589793238462643383279502884197..., with 4s in the hundredths' (10^(-2)s') place, which is the third digit counting the 3 in the ones' place. Then there's another 4 at the 10^(-19)s' place, which is the twentieth digit counting the initial 3. [_Alonso del Arte_, Oct 07 2013]"
			],
			"mathematica": [
				"Flatten[Position[RealDigits[Pi, 10, 1000][[1]], 4]] (* _Vincenzo Librandi_, Oct 07 2013 *)"
			],
			"xref": [
				"Cf. A000796, A037003."
			],
			"keyword": "nonn,base",
			"offset": "1,1",
			"author": "_Simon Plouffe_, Feb 20 2000",
			"references": 3,
			"revision": 29,
			"time": "2021-05-31T09:03:39-04:00",
			"created": "2000-05-08T03:00:00-04:00"
		}
	]
}