{
	"greeting": "Greetings from The On-Line Encyclopedia of Integer Sequences! http://oeis.org/",
	"query": "id:A053713",
	"count": 1,
	"start": 0,
	"results": [
		{
			"number": 53713,
			"data": "7,127,3628811,51090942171709440031",
			"name": "Upper balancing primes to prime-balanced factorials.",
			"example": [
				"127 is balancing 5!=120 from above, where 5!=120 is a balanced factorial"
			],
			"xref": [
				"Cf. A033392, A033393, A037151, A006990, A006562, A053709, A053710, A053711, A053712."
			],
			"keyword": "nonn",
			"offset": "1,1",
			"author": "_Labos Elemer_ Feb 10 2000",
			"ext": [
				"The next two terms are 171!+397 and 190!+409, which are too large to include. - _Jud McCranie_, Jul 04 2000"
			],
			"references": 1,
			"revision": 9,
			"time": "2013-10-15T22:30:49-04:00",
			"created": "2000-05-08T03:00:00-04:00"
		}
	]
}