{
	"greeting": "Greetings from The On-Line Encyclopedia of Integer Sequences! http://oeis.org/",
	"query": "id:A053203",
	"count": 1,
	"start": 0,
	"results": [
		{
			"number": 53203,
			"data": "2,0,0,0,6,0,3,0,0,3,0,0,2,0,0,0,0,0,0,0,0,4,3,0,0,0,3,4,0,0,0,0,0,0,0,0,0,7,0,7,2,7,0,7,0,5,0,3,10,0,0,10,3,0,5,0,12,0,8,0,6,0,8,0,12,0,0,0,0,0,0,0,0,0,0,0,0,0,6,0,0,6,0,0,2,0,0,6,0,0,6,0,0,0,0,0,0,0,0,0,0,0,0",
			"name": "Pascal's triangle (excluding first, last three elements of each row) read by rows, row n read mod n.",
			"comment": [
				"Prime numbered rows contain all zeros."
			],
			"link": [
				"T. D. Noe, \u003ca href=\"/A053203/b053203.txt\"\u003eRows n=6..100 of triangle, flattened\u003c/a\u003e"
			],
			"example": [
				"Triangle begins:",
				"  2;",
				"  0,0;",
				"  0,6,0;",
				"  3,0,0,3;",
				"  0,0,2,0,0;",
				"  ...",
				"row 9 = 84 mod 9, 126 mod 9, 126 mod 9, 84 mod 9, = 3, 0, 0, 3."
			],
			"mathematica": [
				"Table[Mod[Binomial[n, k], n], {n, 6, 20}, {k, 3, n-3}] // Flatten (* _Jean-François Alcover_, Jan 17 2014 *)"
			],
			"program": [
				"(Haskell)",
				"a053203 n k = a053203_tabl !! (n - 6) !! k",
				"a053203_row n = a053203_tabl !! (n - 6)",
				"a053203_tabl = zipWith (\\k row -\u003e take (k - 5) $ drop 3 row)",
				"                       [6..] $ drop 6 a053200_tabl",
				"-- _Reinhard Zumkeller_, Jan 24 2014"
			],
			"xref": [
				"Row sums give A053206.",
				"Cf. A053200, A053201, A053203, A007318 (Pascal's triangle)."
			],
			"keyword": "nonn,nice,tabl",
			"offset": "6,1",
			"author": "Asher Auel (asher.auel(AT)reed.edu), Dec 12 1999",
			"ext": [
				"a(30) corrected by _T. D. Noe_, Feb 08 2008"
			],
			"references": 5,
			"revision": 14,
			"time": "2019-11-21T04:02:55-05:00",
			"created": "2000-05-08T03:00:00-04:00"
		}
	]
}