{
	"greeting": "Greetings from The On-Line Encyclopedia of Integer Sequences! http://oeis.org/",
	"query": "id:A053512",
	"count": 1,
	"start": 0,
	"results": [
		{
			"number": 53512,
			"data": "1,6,92,4256,631408,287890282,394680026626,1633299243490821,20522104351316248402,784379015232375006607050,91206645757124024620735442618,32264019671635009481678592579241059,34725332380760680832137350774453679498244",
			"name": "Half the number of non-self-intersecting paths from one corner of an n X n grid to the opposite corner.",
			"formula": [
				"a(n) = A007764(n) / 2. - _Andrew Howroyd_, May 12 2017"
			],
			"xref": [
				"Cf. A007764."
			],
			"keyword": "nonn,walk",
			"offset": "2,2",
			"author": "_Horst H. Manninger_, Jan 14 2000",
			"ext": [
				"Corrected, additional terms from A007764 by _Andrew Howroyd_, May 12 2017",
				"Offset corrected by _Joerg Arndt_, Dec 03 2018"
			],
			"references": 0,
			"revision": 19,
			"time": "2018-12-04T23:28:46-05:00",
			"created": "2000-05-08T03:00:00-04:00"
		}
	]
}