{
	"greeting": "Greetings from The On-Line Encyclopedia of Integer Sequences! http://oeis.org/",
	"query": "id:A053595",
	"count": 1,
	"start": 0,
	"results": [
		{
			"number": 53595,
			"data": "0,0,4,12,36,56,112,168,268,372,536,680,888,1132,1452,1740,2160,2544,3048,3556,4196,4812,5552,6304,7248,8116,9220,10280,11512,12656,14108,15564,17164,18800,20664,22368,24436,26412,28692,30984,33536",
			"name": "Open 3-dimensional ball numbers (version 3): a(n)= number of integer points (i,j,k) contained in a open ball of diameter n, centered at (1/2,1/2,0).",
			"comment": [
				"a(n)/(n/2)^3-\u003e4/3*Pi"
			],
			"keyword": "easy,nonn",
			"offset": "0,3",
			"author": "Klaus Strassburger (strass(AT)ddfi.uni-duesseldorf.de), Jan 19 2000",
			"references": 0,
			"revision": 3,
			"time": "2005-04-09T03:00:00-04:00",
			"created": "2000-05-08T03:00:00-04:00"
		}
	]
}