{
	"greeting": "Greetings from The On-Line Encyclopedia of Integer Sequences! http://oeis.org/",
	"query": "id:A053814",
	"count": 1,
	"start": 0,
	"results": [
		{
			"number": 53814,
			"data": "0,0,1,0,0,0,1,1,2,0,12,0,4,6,1,0,18,0,20,10,8,0,24,1,10,1,0,0,30,0,1,3,14,9,36,0,16,5,40,0,42,0,4,12,20,0,48,1,7,9,6,0,54,4,56,11,26,0,60,0,28,22,1,8,66,0,10,15,70,0,72,0,34,26,12,1,78,0,80",
			"name": "a(n) = n modulo (sum of proper divisors of n).",
			"link": [
				"Antti Karttunen, \u003ca href=\"/A053814/b053814.txt\"\u003eTable of n, a(n) for n = 2..16385\u003c/a\u003e"
			],
			"mathematica": [
				"Table[Mod[n,DivisorSigma[1,n]-n],{n,2,80}] (* _Harvey P. Dale_, Sep 01 2014 *)"
			],
			"program": [
				"(PARI) a(n) = n % (sigma(n) - n) \\\\ _Michel Marcus_, Jul 27 2013"
			],
			"xref": [
				"Cf. A001065."
			],
			"keyword": "nonn",
			"offset": "2,9",
			"author": "_Henry Bottomley_, Mar 28 2000",
			"references": 2,
			"revision": 14,
			"time": "2017-12-15T13:44:01-05:00",
			"created": "2000-05-08T03:00:00-04:00"
		}
	]
}