{
	"greeting": "Greetings from The On-Line Encyclopedia of Integer Sequences! http://oeis.org/",
	"query": "id:A053282",
	"count": 1,
	"start": 0,
	"results": [
		{
			"number": 53282,
			"data": "0,1,1,2,2,2,4,4,4,6,7,8,10,11,12,16,18,20,24,26,30,36,40,44,52,58,64,74,82,91,104,116,128,144,159,176,198,218,240,268,294,324,360,394,432,478,524,572,630,688,752,826,900,980,1072,1168,1270,1386,1505,1634",
			"name": "Coefficients of the '10th-order' mock theta function psi(q).",
			"comment": [
				"Number of partitions (d1,d2,...,dm) of n such that 0 \u003c d1/1 \u003c= d2/2 \u003c= ... \u003c= dm/m. - _Seiichi Manyama_, Mar 17 2018"
			],
			"reference": [
				"Srinivasa Ramanujan, The Lost Notebook and Other Unpublished Papers, Narosa Publishing House, New Delhi, 1988, p. 9"
			],
			"link": [
				"Vaclav Kotesovec, \u003ca href=\"/A053282/b053282.txt\"\u003eTable of n, a(n) for n = 0..10000\u003c/a\u003e (terms 0..1000 from Seiichi Manyama)",
				"Youn-Seo Choi, \u003ca href=\"http://dx.doi.org/10.1007/s002220050318\"\u003eTenth order mock theta functions in Ramanujan's lost notebook\u003c/a\u003e, Inventiones Mathematicae, 136 (1999) p. 497-569.",
				"Michele Nardelli, Antonio Nardelli, \u003ca href=\"https://pdfs.semanticscholar.org/e28c/47202ef1caaafd703fda86d278a8b6771111.pdf\"\u003eOn the Ramanujan's Mock theta functions of tenth order: new possible mathematical developments and mathematical connections with some sectors of Particle Physics and Black Hole physics II\u003c/a\u003e, Università degli Studi di Napoli (Italy, 2019)."
			],
			"formula": [
				"G.f.: psi(q) = Sum_{n \u003e= 0} q^((n+1)(n+2)/2)/((1-q)(1-q^3)...(1-q^(2n+1))).",
				"a(n) ~ exp(Pi*sqrt(n/5)) / (2*5^(1/4)*sqrt(phi*n)), where phi = A001622 = (1+sqrt(5))/2 is the golden ratio. - _Vaclav Kotesovec_, Jun 12 2019"
			],
			"example": [
				"From _Seiichi Manyama_, Mar 17 2018: (Start)",
				"n | Partition (d1,d2,...,dm) | (d1/1, d2/2, ... , dm/m)",
				"--+--------------------------+-------------------------",
				"1 | (1)                      | (1)",
				"2 | (2)                      | (2)",
				"3 | (3)                      | (3)",
				"  | (1, 2)                   | (1, 1)",
				"4 | (4)                      | (4)",
				"  | (1, 3)                   | (1, 3/2)",
				"5 | (5)                      | (5)",
				"  | (1, 4)                   | (1, 2)",
				"6 | (6)                      | (6)",
				"  | (1, 5)                   | (1, 5/2)",
				"  | (2, 4)                   | (2, 2)",
				"  | (1, 2, 3)                | (1, 1, 1)",
				"7 | (7)                      | (7)",
				"  | (1, 6)                   | (1, 3)",
				"  | (2, 5)                   | (2, 5/2)",
				"  | (1, 2, 4)                | (1, 1, 4/3)",
				"8 | (8)                      | (8)",
				"  | (1, 7)                   | (1, 7/2)",
				"  | (2, 6)                   | (2, 3)",
				"  | (1, 2, 5)                | (1, 1, 5/3)",
				"9 | (9)                      | (9)",
				"  | (1, 8)                   | (1, 4)",
				"  | (2, 7)                   | (2, 7/2)",
				"  | (3, 6)                   | (3, 3)",
				"  | (1, 2, 6)                | (1, 1, 2)",
				"  | (1, 3, 5)                | (1, 3/2, 5/3) (End)"
			],
			"mathematica": [
				"Series[Sum[q^((n+1)(n+2)/2)/Product[1-q^(2k+1), {k, 0, n}], {n, 0, 12}], {q, 0, 100}]",
				"nmax = 100; CoefficientList[Series[Sum[x^((k+1)*(k+2)/2) / Product[1-x^(2*j+1), {j, 0, k}], {k, 0, Floor[Sqrt[2*nmax]]}], {x, 0, nmax}], x] (* _Vaclav Kotesovec_, Jun 11 2019 *)"
			],
			"xref": [
				"Other '10th-order' mock theta functions are at A053281, A053283, A053284."
			],
			"keyword": "nonn,easy",
			"offset": "0,4",
			"author": "_Dean Hickerson_, Dec 19 1999",
			"references": 10,
			"revision": 48,
			"time": "2020-03-06T22:38:13-05:00",
			"created": "2000-05-08T03:00:00-04:00"
		}
	]
}