{
	"greeting": "Greetings from The On-Line Encyclopedia of Integer Sequences! http://oeis.org/",
	"query": "id:A053720",
	"count": 1,
	"start": 0,
	"results": [
		{
			"number": 53720,
			"data": "45,69,145,212,225,224,344,395,377,522,643,715,845,909,1082,1292,1479,1547,1363,1830,2290,2204,2315,3017,3195,2804,3293,4035,3642,3394,4047,5084,5309,5550,8406,8631,8697,8073,8728,9940,9005,10804,10471,11571",
			"name": "Let Py(n)=A000330(n)=n-th square pyramidal number. Consider all integer triples (i,j,k), j \u003e= k\u003e0, with Py(i)=Py(j)+Py(k), ordered by increasing i; sequence gives j values.",
			"comment": [
				"i values are A053719 and k values are A053721"
			],
			"example": [
				"Py(55) = 56980 = Py(45) + Py(42); Py(70) = 116795 = Py(69) + Py(24);"
			],
			"xref": [
				"Cf. A000330, A053719, A053721."
			],
			"keyword": "easy,nice,nonn",
			"offset": "0,1",
			"author": "Klaus Strassburger (strass(AT)ddfi.uni-duesseldorf.de), Feb 11 2000",
			"ext": [
				"Crossrefs in comments corrected by _Jean-François Alcover_, Oct 17 2012"
			],
			"references": 2,
			"revision": 7,
			"time": "2012-10-17T08:48:15-04:00",
			"created": "2000-05-08T03:00:00-04:00"
		}
	]
}