{
	"greeting": "Greetings from The On-Line Encyclopedia of Integer Sequences! http://oeis.org/",
	"query": "id:A053296",
	"count": 1,
	"start": 0,
	"results": [
		{
			"number": 53296,
			"data": "1,8,37,129,376,967,2267,4950,10220,20175,38403,70954,127921,226007,392688,672959,1140260,1914166,3189022,5280288,8699540,14275838,23352118,38102976,62048869,100888126,163843187,265838881,431026972,698489013,1131463777,1832277574,2966502032,4802042229",
			"name": "Partial sums of A053295.",
			"reference": [
				"A. H. Beiler, Recreations in the Theory of Numbers, Dover, N.Y., 1964, pp. 189, 194-196."
			],
			"link": [
				"G. C. Greubel, \u003ca href=\"/A053296/b053296.txt\"\u003eTable of n, a(n) for n = 0..1000\u003c/a\u003e",
				"\u003ca href=\"/index/Rec#order_09\"\u003eIndex entries for linear recurrences with constant coefficients\u003c/a\u003e, signature (8,-27,49,-49,21,7,-13,6,-1)."
			],
			"formula": [
				"a(n) = Sum_{i=0..floor(n/2)} C(n+7-i, n-2i), n \u003e= 0.",
				"a(n) = a(n-1) + a(n-2) + C(n+6,6); n \u003e= 0; a(-1)=0.",
				"a(n) = Sum_{k=1..n} C(n-k+7,k+6), with n\u003e=0. - _Paolo P. Lava_, Apr 16 2008"
			],
			"mathematica": [
				"Table[Sum[Binomial[n+7-j, n-2*j], {j, 0, Floor[n/2]}], {n, 0, 50}] (* _G. C. Greubel_, May 24 2018 *)"
			],
			"program": [
				"(PARI) for(n=0, 30, print1(sum(j=0, floor(n/2), binomial(n+7-j, n-2*j)), \", \")) \\\\ _G. C. Greubel_, May 24 2018",
				"(MAGMA) [(\u0026+[Binomial(n+7-j, n-2*j): j in [0..Floor(n/2)]]): n in [0..30]]; // _G. C. Greubel_, May 24 2018"
			],
			"xref": [
				"Cf. A053739, A014166 and A136431.",
				"Right-hand column 14 of triangle A011794.",
				"Cf. A228074."
			],
			"keyword": "easy,nonn",
			"offset": "0,2",
			"author": "_Barry E. Williams_, Mar 04 2000",
			"ext": [
				"Terms a(28) onward added by _G. C. Greubel_, May 24 2018"
			],
			"references": 9,
			"revision": 38,
			"time": "2020-03-22T03:59:51-04:00",
			"created": "2000-05-08T03:00:00-04:00"
		}
	]
}