{
	"greeting": "Greetings from The On-Line Encyclopedia of Integer Sequences! http://oeis.org/",
	"query": "id:A054970",
	"count": 1,
	"start": 0,
	"results": [
		{
			"number": 54970,
			"data": "0,1,2,6,39,55,87,182,556,644,797,917,1593,1685,25141,51425,55556,83527,810311,1620213,1853942,5555556,17352586,17835196,25004441,91071921,170563673,181737182,184252876,507354403,1240058219,1783816196,2756800387",
			"name": "Index numbers for palindromic hexagonal numbers.",
			"mathematica": [
				"Select[Range[0, 10^6], PalindromeQ[PolygonalNumber[6, #]] \u0026] (* _Robert Price_, Apr 27 2019 *)"
			],
			"xref": [
				"Cf. A000384, A054969, A082721."
			],
			"keyword": "nonn,base",
			"offset": "1,3",
			"author": "_Jeff Heleen_, May 26 2000",
			"ext": [
				"Added a(1)=0 by _Robert Price_, Apr 27 2019"
			],
			"references": 3,
			"revision": 11,
			"time": "2019-04-27T10:49:10-04:00",
			"created": "2000-06-15T03:00:00-04:00"
		}
	]
}