{
	"greeting": "Greetings from The On-Line Encyclopedia of Integer Sequences! http://oeis.org/",
	"query": "id:A054093",
	"count": 1,
	"start": 0,
	"results": [
		{
			"number": 54093,
			"data": "1,2,2,8,24,106,546,3368,24032,195170,1777650,17950552,199059672,2405063018,31448531954,442501797656,6666753146496,107081325959938,1826636018849442",
			"name": "T(n,n-1), array T as in A054090.",
			"keyword": "nonn",
			"offset": "1,2",
			"author": "_Clark Kimberling_",
			"references": 0,
			"revision": 4,
			"time": "2012-03-30T18:57:02-04:00",
			"created": "2000-05-08T03:00:00-04:00"
		}
	]
}