{
	"greeting": "Greetings from The On-Line Encyclopedia of Integer Sequences! http://oeis.org/",
	"query": "id:A054665",
	"count": 1,
	"start": 0,
	"results": [
		{
			"number": 54665,
			"data": "1,2,11,51,259,1282,6665,34938,186612,1007510,5496925,30231741,167444795,932900050,5224277345,29386526544,165947641615,940369781244,5345260877285,30467985992745,174102782853475,997134114520250",
			"name": "Number of 6-ary Lyndon words with trace 0 mod 6.",
			"link": [
				"F. Ruskey, \u003ca href=\"http://combos.org/TSlyndon\"\u003eNumber of q-ary Lyndon words with given trace mod q\u003c/a\u003e"
			],
			"xref": [
				"Cf. A000048, A051841, A046211, A046209, A054660, etc."
			],
			"keyword": "nonn,easy",
			"offset": "1,2",
			"author": "_N. J. A. Sloane_, Apr 18 2000",
			"ext": [
				"More terms from _James A. Sellers_, Apr 19 2000"
			],
			"references": 1,
			"revision": 9,
			"time": "2019-04-30T11:23:25-04:00",
			"created": "2000-05-08T03:00:00-04:00"
		}
	]
}