{
	"greeting": "Greetings from The On-Line Encyclopedia of Integer Sequences! http://oeis.org/",
	"query": "id:A054676",
	"count": 1,
	"start": 0,
	"results": [
		{
			"number": 54676,
			"data": "1,3,2,29,67,2261,499,7601,163673,3146141,16688347,232429801,1220661809,1475887019,96968880223,5041994433457,25104916552337,4417388168138681,279381762131009,383174447010300497,24854210193336894641,2271390683068712389,8081231165699623062227",
			"name": "Numerator of expected length of longest increasing subsequence of a permutation of length n.",
			"link": [
				"Alois P. Heinz, \u003ca href=\"/A054676/b054676.txt\"\u003eTable of n, a(n) for n = 1..60\u003c/a\u003e",
				"A. M. Odlyzko and E. M. Rains, \u003ca href=\"http://www.dtc.umn.edu/~odlyzko/doc/probability.html\"\u003eOn longest increasing subsequences in random permutations\u003c/a\u003e, pp. 439-451 in Analysis, Geometry, Number Theory: The Mathematics of Leon Ehrenpreis, E. L. Grinberg, S. Berhanu, M. Knopp, G. Mendoza and E. T. Quinto, eds., Amer. Math. Soc., Contemporary Math. #251, 2000."
			],
			"example": [
				"A054676/A054677 = 1/1, 3/2, 2/1, 29/12, 67/24, 2261/720, 499/144, 7601/2016, 163673/40320, 3146141/725760, 16688347/3628800, 232429801/47900160, ... ."
			],
			"xref": [
				"Cf. A047874, A054677."
			],
			"keyword": "nonn,frac,nice,easy",
			"offset": "1,2",
			"author": "Eric M. Rains (rains(AT)caltech.edu), Apr 19 2000",
			"ext": [
				"More terms from _Alois P. Heinz_, Feb 14 2016"
			],
			"references": 2,
			"revision": 12,
			"time": "2016-02-14T16:10:55-05:00",
			"created": "2000-05-08T03:00:00-04:00"
		}
	]
}