{
	"greeting": "Greetings from The On-Line Encyclopedia of Integer Sequences! http://oeis.org/",
	"query": "id:A054309",
	"count": 1,
	"start": 0,
	"results": [
		{
			"number": 54309,
			"data": "14,35,43,44,47,51,62,83,90,104,137,144,153,155,159,163,164,165,170,172,173,176,180,206,210,222,224,225,255,274,292,308,313,314,316,333,338,359,371,374,378,382,385,390",
			"name": "Positions of 3's in the decimal expansion of Euler's constant.",
			"link": [
				"G. C. Greubel, \u003ca href=\"/A054309/b054309.txt\"\u003eTable of n, a(n) for n = 1..10000\u003c/a\u003e"
			],
			"mathematica": [
				"Position[RealDigits[EulerGamma,10,400][[1]],3]//Flatten (* _Harvey P. Dale_, Jan 28 2017 *)"
			],
			"keyword": "nonn,base",
			"offset": "1,1",
			"author": "_Simon Plouffe_, Feb 20 2000",
			"references": 1,
			"revision": 12,
			"time": "2019-07-24T02:02:17-04:00",
			"created": "2000-05-08T03:00:00-04:00"
		}
	]
}