{
	"greeting": "Greetings from The On-Line Encyclopedia of Integer Sequences! http://oeis.org/",
	"query": "id:A054745",
	"count": 1,
	"start": 0,
	"results": [
		{
			"number": 54745,
			"data": "1,1,7,74,1474,41876,1540696,68343112,3540691525,209612916303,13957423192794,1032436318269648,83993175608894096,7453446303042245261,716451740543945788671,74159075140708644544128,8223831291824019614386868,972718473204236819072891710",
			"name": "Number of nonisomorphic binary n-state automata without output under input permutations.",
			"comment": [
				"Also isomorphism classes of unordered pairs of endofunctions i.e. an unorder pair {f,g} of functions from {1,...,n} to itself. - _Christian G. Bower_, Dec 18 2003"
			],
			"reference": [
				"F. Harary and E. Palmer, Graphical Enumeration, 1973."
			],
			"link": [
				"Alois P. Heinz, \u003ca href=\"/A054745/b054745.txt\"\u003eTable of n, a(n) for n = 0..45\u003c/a\u003e",
				"M. A. Harrison, \u003ca href=\"http://dx.doi.org/10.4153/CJM-1965-010-9\"\u003eA census of finite automata\u003c/a\u003e, Canad. J. Math., 17, No. 1, 1965, p. 110."
			],
			"formula": [
				"a(n) = sum {1*s_1+2*s_2+...=n, 1*t_1+2*t_2=2} (fixA[s_1, s_2, ...;t_1, t_2]/(1^s_1*s_1!*2^s_2*s_2!*...*1^t_1*t_1!*2^t_2*t_2!)) where fixA[...] = prod {i, j\u003e=1} ( (sum {d|lcm(i, j)} (d*s_d))^(gcd(i, j)*s_i*t_j)). - _Christian G. Bower_, Dec 18 2003"
			],
			"maple": [
				"with(numtheory):",
				"b:= proc(n, i) option remember; `if`(n=0, {0}, `if`(i\u003c1, {},",
				"      {seq(map(p-\u003e p+j*x^i, b(n-i*j, i-1) )[], j=0..n/i)}))",
				"    end:",
				"a:= proc(n) option remember; add(add(mul(mul(add(coeff(s, x, d)",
				"      *d, d=divisors(ilcm(i, j)))^(igcd(i, j)*coeff(s, x, i)*",
				"      coeff(t, x, j)), j=1..degree(t)), i=1..degree(s))",
				"      /mul(i^coeff(t, x, i)*coeff(t, x, i)!, i=1..degree(t))",
				"      /mul(i^coeff(s, x, i)*coeff(s, x, i)!, i=1..degree(s))",
				"      , t=b(2$2)), s=b(n$2))",
				"    end:",
				"seq(a(n), n=0..20);  # _Alois P. Heinz_, Aug 15 2014"
			],
			"mathematica": [
				"b[n_, i_] := b[n, i] = If[n==0, {0}, If[i\u003c1, {}, Table[Map[Function[{p}, p + j*x^i], b[n - i*j, i-1]], {j, 0, n/i}] // Flatten // Union]];",
				"a[n_] := a[n] = Sum[Sum[Product[Product[With[{g = GCD[i, j]*Coefficient[s, x, i]*Coefficient[t, x, j]}, If[g==0, 1, Sum[Coefficient[s, x, d]*d, {d, Divisors[LCM[i, j]]}]^g]], {j, 1, Exponent[t, x]}], {i, 1, Exponent[s, x]}]/",
				"Product[i^Coefficient[t, x, i]Coefficient[t, x, i]!, {i, Exponent[t, x]}]/",
				"Product[i^Coefficient[s, x, i]Coefficient[s, x, i]!, {i, Exponent[s, x]}], {t, b[2, 2]}], {s, b[n, n]}];",
				"Table[a[n], {n, 0, 20}] (* _Jean-François Alcover_, Mar 16 2015, after _Alois P. Heinz_, updated Jan 01 2021 *)"
			],
			"xref": [
				"Cf. A001372, A054050, A054732, A054746."
			],
			"keyword": "nonn",
			"offset": "0,3",
			"author": "_Vladeta Jovovic_, Apr 22 2000",
			"ext": [
				"More terms from _Alois P. Heinz_, Aug 15 2014"
			],
			"references": 10,
			"revision": 26,
			"time": "2021-12-19T12:07:33-05:00",
			"created": "2000-05-08T03:00:00-04:00"
		}
	]
}