{
	"greeting": "Greetings from The On-Line Encyclopedia of Integer Sequences! http://oeis.org/",
	"query": "id:A054545",
	"count": 1,
	"start": 0,
	"results": [
		{
			"number": 54545,
			"data": "1,0,3,54,3861,1028700,1067510583,4390552197234,72022439672173161,4721718122762915558520,1237892818862615769794806443,1298060597552993036455274183624814,5444502293926142814638982021027945429501,91343781554550362267223855965291602454111295060",
			"name": "Number of labeled digraphs on n unisolated nodes (inverse binomial transform of A053763).",
			"link": [
				"Andrew Howroyd, \u003ca href=\"/A054545/b054545.txt\"\u003eTable of n, a(n) for n = 0..50\u003c/a\u003e",
				"N. J. A. Sloane, \u003ca href=\"/transforms.txt\"\u003eTransforms\u003c/a\u003e"
			],
			"formula": [
				"a(n) = Sum_{k=0..n} (-1)^(n-k)*binomial(n, k)*2^(k*(k-1))."
			],
			"example": [
				"2^(n*(n-1))=1+3*C(n,2)+54*C(n,3)+3861*C(n,4)+..."
			],
			"mathematica": [
				"nn=20;s=Sum[2^(2Binomial[n,2])x^n/n!,{n,0,nn}];Range[0,nn]!CoefficientList[Series[ s/Exp[x],{x,0,nn}],x]  (* _Geoffrey Critzer_, Oct 07 2012 *)"
			],
			"program": [
				"(PARI) a(n)={sum(k=0, n, (-1)^(n-k)*binomial(n, k)*2^(k*(k-1)))} \\\\ _Andrew Howroyd_, Nov 07 2019"
			],
			"xref": [
				"Cf. A006129."
			],
			"keyword": "easy,nonn",
			"offset": "0,3",
			"author": "_Vladeta Jovovic_, Apr 09 2000",
			"ext": [
				"Terms a(12) and beyond from _Andrew Howroyd_, Nov 07 2019"
			],
			"references": 3,
			"revision": 15,
			"time": "2019-11-07T19:24:04-05:00",
			"created": "2000-05-08T03:00:00-04:00"
		}
	]
}