{
	"greeting": "Greetings from The On-Line Encyclopedia of Integer Sequences! http://oeis.org/",
	"query": "id:A054227",
	"count": 1,
	"start": 0,
	"results": [
		{
			"number": 54227,
			"data": "1,1,2,2,6,10,19,32,58,105,194,364,682,1295,2467,4723,9059,17448,33706,65256,126643,246179,479336,934603,1824646,3566467,6978040,13666391,26788334,52551600,103168475,202676349,398411711,783639902,1542192977",
			"name": "Number of positive integers \u003c= 2^n of form x^2 + 13 y^2.",
			"keyword": "nonn",
			"offset": "0,3",
			"author": "_David W. Wilson_",
			"references": 0,
			"revision": 5,
			"time": "2012-03-30T18:35:40-04:00",
			"created": "2000-05-08T03:00:00-04:00"
		}
	]
}