{
	"greeting": "Greetings from The On-Line Encyclopedia of Integer Sequences! http://oeis.org/",
	"query": "id:A054039",
	"count": 1,
	"start": 0,
	"results": [
		{
			"number": 54039,
			"data": "0,4,13,32,113,322,1017,3206,10124,32043",
			"name": "a(n)^2 is the least square to contain n different decimal digits.",
			"comment": [
				"It turns out that \"...at least n...\" and \"...exactly n...\" yield the same (and thus strictly increasing) sequence. - _M. F. Hasler_, Feb 02 2009"
			],
			"example": [
				"13^2=169 is the first square to contain exactly 3 different digits; 322^2=103684 is the first square to contain exactly 6 different digits."
			],
			"program": [
				"(PARI) A054039(n,k=0) = { while( #Set(Vec(Str(k^2)))\u003cn, k++); k } /* If \"exactly n\" would correspond to a different sequence, this would yield some term twice in a row. The optional 2nd arg can be used to find further terms with a given # of distinct digits. - _M. F. Hasler_, Feb 02 2009 */"
			],
			"xref": [
				"Cf. A016069, A054031, A054032, A054033, A054034, A054035, A054036, A054037, A054038."
			],
			"keyword": "nonn,fini,full,base,easy",
			"offset": "1,2",
			"author": "Asher Auel (asher.auel(AT)reed.edu), Feb 28 2000",
			"ext": [
				"Minor rewording, added comment, keywords \"easy,full\" and PARI code _M. F. Hasler_, Feb 02 2009"
			],
			"references": 13,
			"revision": 11,
			"time": "2019-11-19T11:57:53-05:00",
			"created": "2000-05-08T03:00:00-04:00"
		}
	]
}