{
	"greeting": "Greetings from The On-Line Encyclopedia of Integer Sequences! http://oeis.org/",
	"query": "id:A054274",
	"count": 1,
	"start": 0,
	"results": [
		{
			"number": 54274,
			"data": "1,-1,-1,2,-2,-2,6,-3,-5,12,-8,-9,24,-14,-18,42,-26,-31,76,-45,-54,126,-76,-88,210,-121,-144,332,-196,-225,526,-302,-351,804,-464,-531,1224,-698,-800,1818,-1040,-1179,2688,-1519,-1728,3902,-2212,-2491,5632,-3167,-3571,8016,-4508",
			"name": "Expansion of g.f. Product_{n\u003e=1} (1-x^n)*(1-x^(5*n))/(1-x^(3*n))^2.",
			"link": [
				"G. C. Greubel, \u003ca href=\"/A054274/b054274.txt\"\u003eTable of n, a(n) for n = 0..1000\u003c/a\u003e",
				"A. J. Guttmann, \u003ca href=\"https://doi.org/10.1016/S0012-365X(99)00262-9\"\u003eIndicators of solvability for lattice models\u003c/a\u003e, Discrete Math., 217 (2000), 167-189."
			],
			"formula": [
				"Euler transform of period 15 sequence [ -1, -1, 1, -1, -2, 1, -1, -1, 1, -2, -1, 1, -1, -1, 0, ...]. - _Michael Somos_, Sep 21 2005",
				"Expansion of eta(q)*eta(q^5)/eta(q^3)^2 in powers of q. - _Michael Somos_, Sep 21 2005"
			],
			"example": [
				"G.f. = 1 - q - q^2 + 2*q^3 - 2*q^4 - 2*q^5 + 6*q^6 - 3*q^7 - 5*q^8 + 12*q^9 + ..."
			],
			"mathematica": [
				"QP = QPochhammer; s = QP[q]*(QP[q^5]/QP[q^3]^2) + O[q]^60; CoefficientList[ s, q] (* _Jean-François Alcover_, Nov 30 2015, adapted from PARI *)"
			],
			"program": [
				"(PARI) {a(n)=local(A); if(n\u003c0, 0, A=x*O(x^n); polcoeff( eta(x+A)* eta(x^5+A)/eta(x^3+A)^2, n))} /* _Michael Somos_, Sep 21 2005 */",
				"(MAGMA) m:=60; R\u003cx\u003e:=PowerSeriesRing(Integers(), m); Coefficients(R!( (\u0026*[(1-x^j)*(1-x^(5*j))/(1-x^(3*j))^2: j in [1..m+2]]) )); // _G. C. Greubel_, Jul 31 2019"
			],
			"keyword": "sign",
			"offset": "0,4",
			"author": "_N. J. A. Sloane_, May 08 2000",
			"references": 1,
			"revision": 22,
			"time": "2021-08-16T14:28:52-04:00",
			"created": "2000-05-08T03:00:00-04:00"
		}
	]
}