{
	"greeting": "Greetings from The On-Line Encyclopedia of Integer Sequences! http://oeis.org/",
	"query": "id:A054727",
	"count": 1,
	"start": 0,
	"results": [
		{
			"number": 54727,
			"data": "1,2,7,33,181,1083,6854,45111,305629,2117283,14929212,106790500,773035602,5652275723,41683912721,309691336359,2315772552485,17415395593371,131632335068744,999423449413828,7618960581522348,58295017292748756,447517868947619432,3445923223190363608",
			"name": "Number of forests of rooted trees with n nodes on a circle without crossing edges.",
			"link": [
				"Andrew Howroyd, \u003ca href=\"/A054727/b054727.txt\"\u003eTable of n, a(n) for n = 1..200\u003c/a\u003e",
				"C. Banderier and D. Merlini, \u003ca href=\"http://algo.inria.fr/banderier/Papers/infjumps.ps\"\u003eLattice paths with an infinite set of jumps\u003c/a\u003e, FPSAC02, Melbourne, 2002.",
				"F. Cazals, \u003ca href=\"http://algo.inria.fr/libraries/autocomb/NCC-html/NCC.html\"\u003eCombinatorics of Non-Crossing Configurations\u003c/a\u003e, Studies in Automatic Combinatorics, Volume II (1997).",
				"Guillermo Esteban, Clemens Huemer, Rodrigo I. Silveira, \u003ca href=\"https://arxiv.org/abs/2003.00524\"\u003eNew production matrices for geometric graphs\u003c/a\u003e, arXiv:2003.00524 [math.CO], 2020.",
				"Philippe Flajolet, \u003ca href=\"http://algo.inria.fr/flajolet/Publications\"\u003eSource\u003c/a\u003e",
				"Philippe Flajolet, \u003ca href=\"http://algo.inria.fr/libraries/autocomb/nc-configs-html/nc-configs1.html\"\u003eEnumeration of planar configurations in computational geometry\u003c/a\u003e",
				"P. Flajolet and M. Noy, \u003ca href=\"https://dx.doi.org/10.1016/S0012-365X(98)00372-0\"\u003eAnalytic combinatorics of noncrossing configurations\u003c/a\u003e, Discrete Math. 204 (1999), 203-229.",
				"P. Flajolet and R. Sedgewick, \u003ca href=\"http://algo.inria.fr/flajolet/Publications/books.html\"\u003eAnalytic Combinatorics\u003c/a\u003e, 2009; see page 486, 502",
				"Samuele Giraudo, \u003ca href=\"https://arxiv.org/abs/1709.08416\"\u003eCombalgebraic structures on decorated cliques\u003c/a\u003e, Formal Power Series and Algebraic Combinatorics, Séminaire Lotharingien de Combinatoire, 78B.15, 2017, p. 8, arXiv:1709.08416 [math.CO], 2017.",
				"Anssi Yli-Jyrä and Carlos Gómez-Rodríguez, \u003ca href=\"https://arxiv.org/abs/1706.03357\"\u003eGeneric Axiomatization of Families of Noncrossing Graphs in Dependency Parsing\u003c/a\u003e, arXiv:1706.03357 [cs.CL], 2017."
			],
			"formula": [
				"a(n) = Sum_{j=1..n} binomial(n, j-1) * binomial(3*n-2*j-1, n-j) / (2*n - j).",
				"G.f. A(x) satisfies 2*A(x)^2=x*(1-sqrt(1-4*A(x)))*(1-A(x)). - _Vladimir Kruchinin_, Nov 25 2011",
				"From _Peter Bala_, Nov 07 2015: (Start)",
				"O.g.f. A(x) = revert(x/((1 + x)*C(x))), where C(x) = (1 - sqrt(1 - 4*x))/(2*x) is the o.g.f for the Catalan numbers A000108.",
				"Row sums of A094021. (End)",
				"Conjecture: -2(37*n-80) *(n-1) *(2*n-1) *a(n) +2*(592*n^3-3056*n^2+5045*n-2665) *a(n-1) +2*(148*n^3-986*n^2+2021*n-1255) *a(n-2) -5*(n-5) *(n-2) *(37*n-43) *a(n-3)=0. - _R. J. Mathar_, Apr 30 2018",
				"a(n) ~ c * d^n / (sqrt(Pi) * n^(3/2)), where d = 8.2246915409778560686084627753... is the real root of the equation 5 - 8*d - 32*d^2 + 4*d^3 = 0 and c = 0.07465927842190452347018812862935237... is the positive real root of the equation -125 + 22376*c^2 + 8880*c^4 + 592*c^6 = 0. - _Vaclav Kotesovec_, Apr 30 2018"
			],
			"maple": [
				"ZZ:=[F,{F=Union(Epsilon,ZB),ZB=Prod(Z1,P),P=Sequence(B),B=Prod(P,Z1,P),Z1=Prod(Z,F)}, unlabeled]: seq(count(ZZ,size=n),n=1..20); # _Zerinvary Lajos_, Apr 22 2007"
			],
			"mathematica": [
				"a[n_] := (3*n-3)!/((n-1)!*(2*n-1)!)*HypergeometricPFQ[{1-2*n, 1-n, -n}, {3/2 - 3*n/2, 2 - 3*n/2}, -1/4]; Table[a[n], {n, 1, 20}] (* _Jean-François Alcover_, Sep 05 2012, after formula *)"
			],
			"program": [
				"(PARI) N=33; x='x+O('x^N); Vec(serreverse(x/((1+x)*(1-sqrt(1-4*x))/(2*x)))) \\\\ _Joerg Arndt_, May 25 2016"
			],
			"xref": [
				"Row sums of A094021.",
				"Cf. A006013, A000108."
			],
			"keyword": "nonn,easy",
			"offset": "1,2",
			"author": "_Philippe Flajolet_, Apr 20 2000",
			"references": 7,
			"revision": 56,
			"time": "2020-08-23T06:32:57-04:00",
			"created": "2000-05-08T03:00:00-04:00"
		}
	]
}