{
	"greeting": "Greetings from The On-Line Encyclopedia of Integer Sequences! http://oeis.org/",
	"query": "id:A054766",
	"count": 1,
	"start": 0,
	"results": [
		{
			"number": 54766,
			"data": "1,0,1,5,44,476,6336,99504,1803024,37019664,849418560,21539756160,598194037440,18056575823040,588622339549440,20609136708249600,771323264354361600,30729606721005830400,1298448658633614566400",
			"name": "a(n+2) = (2*n + 3)*a(n+1) + (n + 1)^2*a(n), a(0) = 1, a(1) = 0.",
			"comment": [
				"Numerators of the convergents of the generalized continued fraction expansion 4/Pi - 1 =  [0; 1/3, 4/5, 9/7,..., n^2/(2*n + 1),...] = 1/(3 + 4/(5 + 9/(7 + ...))). The first 4 convergents are 1/3, 5/19, 44/160 and 476/1744."
			],
			"link": [
				"Indranil Ghosh, \u003ca href=\"/A054766/b054766.txt\"\u003eTable of n, a(n) for n = 0..392\u003c/a\u003e",
				"K. S. Brown, \u003ca href=\"https://www.mathpages.com/home/kmath381/kmath381.htm\"\u003eInteger Sequences Related To Pi\u003c/a\u003e"
			],
			"formula": [
				"a(n) ~ (1 - Pi/4) * (1 + sqrt(2))^(n + 1/2) * n^n / (2^(1/4) * exp(n)). - _Vaclav Kotesovec_, Feb 18 2017"
			],
			"mathematica": [
				"RecurrenceTable[{a[n+2] == (2*n+3)*a[n+1] + (n+1)^2*a[n], a[0] == 1, a[1] == 0}, a, {n, 0, 25}] (* _Vaclav Kotesovec_, Feb 18 2017 *)",
				"t={1,0};Do[AppendTo[t,(2(n-2)+3)*t[[-1]]+(n-1)^2*t[[-2]]],{n,2,18}];t (* _Indranil Ghosh_, Feb 25 2017 *)"
			],
			"xref": [
				"Cf. A012244, A054765."
			],
			"keyword": "nonn,easy,frac",
			"offset": "0,4",
			"author": "_N. J. A. Sloane_, May 26 2000",
			"ext": [
				"More terms from _James A. Sellers_, May 27 2000",
				"Definition expanded by Al Hakanson (hawkuu(AT)gmail.com), Dec 01 2008",
				"Keyword frac added by _Michel Marcus_, Feb 25 2017"
			],
			"references": 5,
			"revision": 27,
			"time": "2020-08-15T15:50:01-04:00",
			"created": "2000-06-15T03:00:00-04:00"
		}
	]
}