{
	"greeting": "Greetings from The On-Line Encyclopedia of Integer Sequences! http://oeis.org/",
	"query": "id:A054653",
	"count": 1,
	"start": 0,
	"results": [
		{
			"number": 54653,
			"data": "1,6,204,19164,3733056,1288391040,712770186240,589563294888960,692610802412175360,1110893919113884631040,2357555468242103997235200,6453187419589244410090291200,22305345996450386267133758668800",
			"name": "Acyclic orientations of the Hamming graph (K_3) x (K_n).",
			"comment": [
				"This number is equivalent to the number of plans (i.e. structural solutions) of the open shop problem with n jobs and 3 machines - see problems in scheduling theory."
			],
			"reference": [
				"M. Harborth, Structural analysis of shop scheduling problems, PhD thesis, Otto-von-Guericke-Univ. Magdeburg, GCA-Verlag, 1999 (in German)"
			],
			"link": [
				"M. Harborth, \u003ca href=\"https://web.archive.org/web/20171109080634/http://www.math.uni-magdeburg.de/publ/diss/sources/harborth_diss.ps.gz\"\u003eStructural analysis of shop scheduling problems\u003c/a\u003e,  (PhD thesis in German with English abstract).",
				"K. B. Athreya, C. R. Pranesachar, and N. M. Singhi, \u003ca href=\"https://doi.org/10.1016/S0195-6698(80)80015-1\"\u003eOn the number of Latin rectangles and chromatic polynomial of L(K_{r,s})\u003c/a\u003e, European J. Combin. 1 (1980) 9-17."
			],
			"formula": [
				"a(n) = (-1)^n*(z!n!/(((z-n)!)^3)*Sum[If[a+b+c*n, (-1)^b*2^c*((z-n+a)!)^2/(a!c!) *Binomial[3z-3n+3a+b+2, b], 0], {c, 0, n}, {b, 0, n}, {a, 0, n}]) with z=-1."
			],
			"mathematica": [
				"Table[n!*Evaluate[(-1)^n*FunctionExpand[z!n!/(((z-n)!)^3)*Sum[If[a+b+c*n, (-1 )^b*2^c*((z-n+a)!)^2/(a!c!)*Binomial[3z-3n+3a+b+2, b], 0], {c, 0, n}, {b, 0, n}, {a, 0, n}]]/.z-\u003e-1]/n!, {n, 0, 15}]"
			],
			"xref": [
				"Cf. A054652, A053870, A054583."
			],
			"keyword": "nonn,easy",
			"offset": "0,2",
			"author": "M. Harborth (Martin.Harborth(AT)vt.siemens.de)",
			"references": 1,
			"revision": 8,
			"time": "2020-11-10T05:31:14-05:00",
			"created": "2000-05-08T03:00:00-04:00"
		}
	]
}