{
	"greeting": "Greetings from The On-Line Encyclopedia of Integer Sequences! http://oeis.org/",
	"query": "id:A054781",
	"count": 1,
	"start": 0,
	"results": [
		{
			"number": 54781,
			"data": "2,1,10,47,4,34,76,65,119,11,104,27,103,110,675,80,1080,146,142,369,246,586,679,16,1428,1621,1021,1627,64,1342,799,157,409,506,1406,1783,1445,206,3160,300,2683,2037,4207,5204,271,523,368,7892,2255,72,970",
			"name": "First position of n in continued fraction for Khinchin's constant.",
			"comment": [
				"Indexing of the terms is based on writing a c.f. as [a_1; a_2, a_3, ...]; the more standard convention of [a_0; a_1, a_2, ...] requires subtracting 1 from each term of the sequence.",
				"Smallest positive integers not occurring in the first 106621 terms of the c.f. are 236, 260, 265, 279, 282, 290, 294, 297, 299, ... - _Eric W. Weisstein_, Oct 01 2011"
			],
			"link": [
				"H. Havermann, \u003ca href=\"http://chesswanks.com/pxp/cfk.html\"\u003eSimple Continued Fraction Expansion of Khinchin's Constant\u003c/a\u003e",
				"Eric Weisstein's World of Mathematics, \u003ca href=\"http://mathworld.wolfram.com/KhinchinsConstantContinuedFraction.html\"\u003eKhinchin's Constant Continued Fraction\u003c/a\u003e"
			],
			"formula": [
				"a(n) = A224851(n) - 1."
			],
			"xref": [
				"Cf. A224851 (= a(n) - 1).",
				"Cf. A002211, A054866, A054870."
			],
			"keyword": "nonn",
			"offset": "1,1",
			"author": "_Hans Havermann_, May 27 2000",
			"references": 3,
			"revision": 19,
			"time": "2014-03-08T22:40:45-05:00",
			"created": "2000-06-15T03:00:00-04:00"
		}
	]
}