{
	"greeting": "Greetings from The On-Line Encyclopedia of Integer Sequences! http://oeis.org/",
	"query": "id:A054971",
	"count": 1,
	"start": 0,
	"results": [
		{
			"number": 54971,
			"data": "1,2,5,16,38,44,156,583,1359,1470,1556,53537,158476,161656,171657,190914,371778,382173,615769,1207698,1686537,16943262,88274141,496329416,765609041,1820198063,2497949426,2850685772,15911875336",
			"name": "n(5n-3)/2 is a palindromic heptagonal number.",
			"link": [
				"P. De Geest, \u003ca href=\"http://www.worldofnumbers.com/hepta.htm\"\u003ePalindromic Heptagonals\u003c/a\u003e"
			],
			"xref": [
				"Cf. A054910, A000566."
			],
			"keyword": "nonn,base",
			"offset": "1,2",
			"author": "_Jeff Heleen_, May 26 2000",
			"references": 4,
			"revision": 4,
			"time": "2014-10-04T10:44:29-04:00",
			"created": "2000-06-15T03:00:00-04:00"
		}
	]
}