{
	"greeting": "Greetings from The On-Line Encyclopedia of Integer Sequences! http://oeis.org/",
	"query": "id:A054934",
	"count": 1,
	"start": 0,
	"results": [
		{
			"number": 54934,
			"data": "1,2,6,30,342,11164,1077370,287640989,207974848520,408004023529326,2187203136795598146,32269918474347692838600,1318898367787065334889143452,150182948079490899321955309512894,47886343174490577986560743878301096450,42944209124580582731273744197913175367709988",
			"name": "Number of oriented graphs on n nodes up to reversing the arcs.",
			"link": [
				"Andrew Howroyd, \u003ca href=\"/A054934/b054934.txt\"\u003eTable of n, a(n) for n = 1..50\u003c/a\u003e",
				"V. A. Liskovets, \u003ca href=\"http://www.cs.uwaterloo.ca/journals/JIS/VOL3/LISK/Derseq.html\"\u003eSome easily derivable sequences\u003c/a\u003e, J. Integer Sequences, 3 (2000), #00.2.2."
			],
			"formula": [
				"Average of A001174 and A005639."
			],
			"mathematica": [
				"A001174 = Cases[Import[\"https://oeis.org/A001174/b001174.txt\", \"Table\"], {_, _}][[All, 2]];",
				"A005639 = Cases[Import[\"https://oeis.org/A005639/b005639.txt\", \"Table\"], {_, _}][[All, 2]];",
				"a[n_] := (A001174[[n]] + A005639[[n]])/2;",
				"Array[a, 50] (* _Jean-François Alcover_, Sep 01 2019 *)"
			],
			"xref": [
				"Cf. A001174, A005639."
			],
			"keyword": "nonn,easy",
			"offset": "1,2",
			"author": "_N. J. A. Sloane_, May 24 2000",
			"ext": [
				"More terms from Philip Sung (phil(AT)main.nu), May 07 2001",
				"Terms a(15) and beyond from _Andrew Howroyd_, Sep 16 2018"
			],
			"references": 1,
			"revision": 17,
			"time": "2019-09-01T04:00:48-04:00",
			"created": "2000-06-15T03:00:00-04:00"
		}
	]
}