{
	"greeting": "Greetings from The On-Line Encyclopedia of Integer Sequences! http://oeis.org/",
	"query": "id:A054049",
	"count": 1,
	"start": 0,
	"results": [
		{
			"number": 54049,
			"data": "1,1,2,3,6,13,5,9,377,21,11,89,14,8,233,16,987,18,2584,20,6765,55,23,28657,25,75025,27,196418,29,514229,31,1346269,33,3524578",
			"name": "Earliest sequence with a(a(n)) = Fibonacci(n+1).",
			"comment": [
				"a(34) \u003e 10^69."
			],
			"link": [
				"\u003ca href=\"/index/Aa#aan\"\u003eIndex entries for sequences of the a(a(n)) = 2n family\u003c/a\u003e"
			],
			"example": [
				"a(a(5)) = a(13) = 8."
			],
			"xref": [
				"Cf. A000045."
			],
			"keyword": "nice,nonn",
			"offset": "0,3",
			"author": "_Henry Bottomley_, Apr 28 2000",
			"references": 1,
			"revision": 8,
			"time": "2017-08-12T08:13:25-04:00",
			"created": "2000-05-08T03:00:00-04:00"
		}
	]
}