{
	"greeting": "Greetings from The On-Line Encyclopedia of Integer Sequences! http://oeis.org/",
	"query": "id:A054780",
	"count": 1,
	"start": 0,
	"results": [
		{
			"number": 54780,
			"data": "1,1,3,32,1225,155106,63602770,85538516963,386246934638991,6001601072676524540,327951891446717800997416,64149416776011080449232990868,45546527789182522411309599498741023,118653450898277491435912500458608964207578",
			"name": "Number of n-covers of a labeled n-set.",
			"comment": [
				"Also, number of n X n rational {0,1}-matrices with no zero rows or columns and with all rows distinct, up to permutation of rows."
			],
			"formula": [
				"a(n) = Sum_{k=0..n} (-1)^k*C(n, k)*C(2^(n-k)-1, n).",
				"a(n) = (1/n!)*Sum_{k=0..n} Stirling1(n+1, k+1)*(2^k-1)^n.",
				"G.f.: Sum_{n\u003e=0} log(1+(2^n-1)*x)^n/((1+(2^n-1)*x)*n!). - _Paul D. Hanna_ and _Vladeta Jovovic_, Jan 16 2008"
			],
			"xref": [
				"Main diagonal of A055154.",
				"Cf. A048291, A088310, A181230, A259763."
			],
			"keyword": "easy,nonn",
			"offset": "0,3",
			"author": "_Vladeta Jovovic_, May 21 2000",
			"references": 2,
			"revision": 17,
			"time": "2018-05-03T23:30:33-04:00",
			"created": "2000-06-15T03:00:00-04:00"
		}
	]
}