{
	"greeting": "Greetings from The On-Line Encyclopedia of Integer Sequences! http://oeis.org/",
	"query": "id:A055945",
	"count": 1,
	"start": 0,
	"results": [
		{
			"number": 55945,
			"data": "0,0,1,0,3,0,3,0,7,0,5,-2,9,2,7,0,15,0,9,-6,15,0,9,-6,21,6,15,0,21,6,15,0,31,0,17,-14,27,-4,13,-18,35,4,21,-10,31,0,17,-14,45,14,31,0,41,10,27,-4,49,18,35,4,45,14,31,0,63,0,33,-30,51,-12,21,-42,63,0,33,-30,51,-12,21,-42,75,12,45,-18,63,0,33,-30,75,12,45",
			"name": "a(n) = n - (reversal of base-2 digits of n) (and then the result is written in base 10).",
			"comment": [
				"a(n) is even if n is odd and a(n) is odd if n is even; this is caused by the kind of swapping the most significant and least significant binary digit when reversing n and the fact that the most significant digit of n is always 1. - _R. J. Mathar_, Nov 05 2015"
			],
			"link": [
				"Alois P. Heinz, \u003ca href=\"/A055945/b055945.txt\"\u003eTable of n, a(n) for n = 0..16384\u003c/a\u003e",
				"Rémy Sigrist, \u003ca href=\"/A055945/a055945.png\"\u003eColored scatterplot of the first 2^16 terms\u003c/a\u003e (where the color is function of n mod 8)"
			],
			"formula": [
				"For 2^m \u003c= n \u003c= 2^(m+1), we have n - 2^(m+1) \u003c= a(n) \u003c= n. - _N. J. A. Sloane_, May 29 2016",
				"a(n) = n - A030101(n)."
			],
			"maple": [
				"a:= proc(n) local m, r; m:=n; r:=0;",
				"      while m\u003e0 do r:= r*2 +irem(m, 2, 'm') od;",
				"      n-r",
				"    end:",
				"seq(a(n), n=0..100);  # _Alois P. Heinz_, Jul 02 2015"
			],
			"mathematica": [
				"Array[# - IntegerReverse[#, 2] \u0026, 90] (* _Michael De Vlieger_, Sep 06 2019 *)"
			],
			"xref": [
				"Cf. A030101, A030109, A265326."
			],
			"keyword": "base,sign,look",
			"offset": "0,5",
			"author": "_Henry Bottomley_, Jul 18 2000",
			"references": 6,
			"revision": 31,
			"time": "2021-04-13T23:26:06-04:00",
			"created": "2000-07-22T03:00:00-04:00"
		}
	]
}