{
	"greeting": "Greetings from The On-Line Encyclopedia of Integer Sequences! http://oeis.org/",
	"query": "id:A055933",
	"count": 1,
	"start": 0,
	"results": [
		{
			"number": 55933,
			"data": "1,2,3,4,5,6,7,8,9,10,11,20,22,30,40,50,60,70,80,90,100,101,110,111,112,121,123,132,200,202,211,213,220,231,300,312,321,400,500,600,700,800,900,1000,1001,1010,1011,1012,1021,1023,1032,1100,1101,1102,1110",
			"name": "Product of digits (not counting zeros) of n divides sum of digits of n.",
			"link": [
				"Harvey P. Dale, \u003ca href=\"/A055933/b055933.txt\"\u003eTable of n, a(n) for n = 1..1000\u003c/a\u003e"
			],
			"mathematica": [
				"Do[a=IntegerDigits[FromDigits[Sort[IntegerDigits[n]]]]; If[Mod[Apply[Plus,a],Apply[Times,a]]==0,Print[n]],{n,5000}]",
				"pdsdQ[n_]:=Module[{idnz=Select[IntegerDigits[n],#!=0\u0026]},Divisible[Total[ idnz], Times@@idnz]]; Select[Range[1200],pdsdQ] (* _Harvey P. Dale_, Aug 13 2015 *)"
			],
			"keyword": "easy,nonn,base",
			"offset": "1,2",
			"author": "_Robert G. Wilson v_, Jul 17 2000",
			"references": 1,
			"revision": 10,
			"time": "2015-08-13T12:30:47-04:00",
			"created": "2000-07-22T03:00:00-04:00"
		}
	]
}