{
	"greeting": "Greetings from The On-Line Encyclopedia of Integer Sequences! http://oeis.org/",
	"query": "id:A055565",
	"count": 1,
	"start": 0,
	"results": [
		{
			"number": 55565,
			"data": "0,1,7,9,13,13,18,7,19,18,1,16,18,22,22,18,25,19,27,10,7,27,22,31,27,25,37,18,28,25,9,22,31,27,25,19,36,28,25,18,13,31,27,25,37,18,37,43,27,31,13,27,25,37,27,28,43,18,31,22,18,34,37,36,37,34,45,13,31,27,7",
			"name": "Sum of digits of n^4.",
			"link": [
				"Seiichi Manyama, \u003ca href=\"/A055565/b055565.txt\"\u003eTable of n, a(n) for n = 0..10000\u003c/a\u003e"
			],
			"formula": [
				"a(n) = A007953(A000583(n)). - _Michel Marcus_, Feb 23 2015"
			],
			"example": [
				"a(2) = 7 because 2^4 = 16 and 1+6 = 7."
			],
			"maple": [
				"for i from 0 to 200 do printf(`%d,`,add(j, j=convert(i^4, base, 10))) od;"
			],
			"mathematica": [
				"a[n_Integer]:=Apply[Plus, IntegerDigits[n^4]]; Table[a[n], {n, 0, 100}] (* _Vincenzo Librandi_, Feb 23 2015 *)"
			],
			"program": [
				"(Sage) [sum((n^4).digits()) for n in (0..70)] # _Bruno Berselli_, Feb 23 2015",
				"(PARI) a(n) = sumdigits(n^4); \\\\ _Seiichi Manyama_, Nov 16 2021"
			],
			"xref": [
				"Cf. A000583, A007953, A004159, A004164, A055566, A055567, A055570, A055575, A066588."
			],
			"keyword": "nonn,base",
			"offset": "0,3",
			"author": "_Henry Bottomley_, Jun 19 2000",
			"ext": [
				"More terms from _James A. Sellers_, Jul 04 2000"
			],
			"references": 9,
			"revision": 22,
			"time": "2021-11-16T07:29:10-05:00",
			"created": "2000-07-22T03:00:00-04:00"
		}
	]
}