{
	"greeting": "Greetings from The On-Line Encyclopedia of Integer Sequences! http://oeis.org/",
	"query": "id:A055455",
	"count": 1,
	"start": 0,
	"results": [
		{
			"number": 55455,
			"data": "1,6,20,48,90,132,561,2420,10571,46672,207963,934064,4224585,19225588,87969426,404479884,1867924322,8660317820,40295911480,188105782260,880716750140,4134823623820,19461238795225,91810738725036",
			"name": "T(n,n-5), array T as in A055450.",
			"keyword": "nonn",
			"offset": "5,2",
			"author": "_Clark Kimberling_, May 18 2000",
			"references": 1,
			"revision": 4,
			"time": "2012-03-30T18:57:04-04:00",
			"created": "2000-06-15T03:00:00-04:00"
		}
	]
}