{
	"greeting": "Greetings from The On-Line Encyclopedia of Integer Sequences! http://oeis.org/",
	"query": "id:A055911",
	"count": 1,
	"start": 0,
	"results": [
		{
			"number": 55911,
			"data": "1,10,56,240,854,2654,7412,18974,45173,101074,214361,433731,841921,1574765,2849215,5002411,8546675,14243335,23202995,37016099,57925111,89043169,134635403,200468817,294253144,426179565,609587498,861767228",
			"name": "Column 5 of triangle A055907.",
			"link": [
				"A. J. Guttmann and A. R. Conway, \u003ca href=\"https://researchers.ms.unimelb.edu.au/~guttmann@unimelb/articles/hexfinal.pdf\"\u003eHexagonal lattice directed site animals\u003c/a\u003e, Statistical Physics on the Eve of the Twenty-First Century, ed. M. T. Batchelor, World Scientific, 1999 (H_5 for hexagonal lattices Table 1)."
			],
			"formula": [
				"G.f.: x^5(1 + 4x + 8x^2 + 22x^3 + 37x^4 + 56x^5 + 88x^6 + 98x^7 + 137x^8 + 118x^9 + 145x^10 + 113x^11 + 104x^12 + 79x^13 + 50x^14 + 40x^15 + 17x^16 + 10x^17 + 6x^18 + x^20)/((1 - x)^11(1 + x)^5(1 + x^2)^4(1 + x^2 + x^4)^2)."
			],
			"keyword": "nonn",
			"offset": "5,2",
			"author": "_Christian G. Bower_, Jun 15 2000",
			"references": 1,
			"revision": 7,
			"time": "2020-03-10T12:24:15-04:00",
			"created": "2000-07-22T03:00:00-04:00"
		}
	]
}