{
	"greeting": "Greetings from The On-Line Encyclopedia of Integer Sequences! http://oeis.org/",
	"query": "id:A055608",
	"count": 1,
	"start": 0,
	"results": [
		{
			"number": 55608,
			"data": "1,13,92,473,1982,7191,23431,70234,196941,522939,1327002,3240917,7660538,17602967,39466363,86593478,186399956,394478234,822229746,1690521204,3433033150,6893852746,13702694284,26982983126,52680389239",
			"name": "Arrays of dumbbells.",
			"reference": [
				"I. P. Goulden and D. M. Jackson, Combinatorial Enumeration, Wiley, N.Y., 1983,(2.3.14).",
				"R. C. Grimson, Exact formulas for 2 x n arrays of dumbbells, J. Math. Phys., 15 (1974), 214-216.",
				"R. B. McQuistan and S. J. Lichtman, Exact recursion relation for 2 x N arrays of dumbbells, J. Math. Phys., 11 (1970), 3095-3099."
			],
			"link": [
				"Reinhard Zumkeller, \u003ca href=\"/A055608/b055608.txt\"\u003eTable of n, a(n) for n = 1..1000\u003c/a\u003e",
				"\u003ca href=\"/index/Rec#order_14\"\u003eIndex entries for linear recurrences with constant coefficients\u003c/a\u003e, signature (9,-31,44,4,-84,66,46,-74,-4,36,-4,-9,1,1)."
			],
			"formula": [
				"G.f.: (1+x)^4/((1-x)^4*(1-x-x^2)^5).",
				"a(n) = 2*a(n-1) - a(n-3) + A002889(n) + A002889(n-1)."
			],
			"mathematica": [
				"CoefficientList[Series[(1+x)^4/((1-x)^4*(1-x-x^2)^5), {x,0,30}], x] (* _G. C. Greubel_, Jan 31 2019 *)"
			],
			"program": [
				"(Haskell)",
				"a055608 n = a055608_list !! (n-1)",
				"a055608_list = 1 : 13 : 92 : zipWith (+)",
				"   (zipWith (-) (map (* 2) $ drop 2 a055608_list) a055608_list)",
				"   (drop 2 $ zipWith (+) (tail a002889_list) a002889_list)",
				"-- _Reinhard Zumkeller_, Jan 18 2014",
				"(PARI) my(x='x+O('x^30)); Vec((1+x)^4/((1-x)^4*(1-x-x^2)^5)) \\\\ _G. C. Greubel_, Jan 31 2019",
				"(MAGMA) m:=30; R\u003cx\u003e:=PowerSeriesRing(Integers(), m); Coefficients(R!( (1+x)^4/((1-x)^4*(1-x-x^2)^5) )); // _G. C. Greubel_, Jan 31 2019",
				"(Sage) ((1+x)^4/((1-x)^4*(1-x-x^2)^5)).series(x, 30).coefficients(x, sparse=False) # _G. C. Greubel_, Jan 31 2019"
			],
			"xref": [
				"Cf. A002940, A002941, A002889, A046741.",
				"Cf. A062123-A062127."
			],
			"keyword": "easy,nonn",
			"offset": "1,2",
			"author": "_Henry Bottomley_, Jun 02 2000",
			"references": 9,
			"revision": 11,
			"time": "2019-01-31T19:37:42-05:00",
			"created": "2000-06-15T03:00:00-04:00"
		}
	]
}