{
	"greeting": "Greetings from The On-Line Encyclopedia of Integer Sequences! http://oeis.org/",
	"query": "id:A055660",
	"count": 1,
	"start": 0,
	"results": [
		{
			"number": 55660,
			"data": "15,168,1260,7920,45045,240240,1225224,6046560,29099070,137287920,637408200,2920488480,13233463425,59400885600,264475371600,1169259537600,5137434093330,22449291836400,97620405409800",
			"name": "Number of (2,2; n,n)-partitions of a chain of length n^2 + n.",
			"comment": [
				"The sequence {a(n)/3} is A030060 a (k_1,n_1; k_2,n_2)-partition of a chain C is a chain of k_1+k_2 intervals of C, k_1 being of length n_1 and k_2 of length n_2."
			],
			"link": [
				"Vincenzo Librandi, \u003ca href=\"/A055660/b055660.txt\"\u003eTable of n, a(n) for n = 4..200\u003c/a\u003e"
			],
			"formula": [
				"a(n) = 2*(2*n-3)*(n-3)*(2*n-5)!/((n-3)!^2*n)."
			],
			"example": [
				"a(4)=15 because in the linearly ordered set {1,..,20} we can choose in 15 ways 6 successive blocks, 2 constituted of 2 consecutive elements and 4 of 4 consecutive elements."
			],
			"program": [
				"(MAGMA) [Factorial(2*n-5)*2*(2*n-3)*(n-3)/Factorial(n-3)^2/n: n in [4..25]]; // _Vincenzo Librandi_, Jun 30 2011"
			],
			"xref": [
				"Cf. A030060, A055663."
			],
			"keyword": "nonn",
			"offset": "4,1",
			"author": "Paolo Dominici (pl.dm(AT)libero.it), Jun 07 2000",
			"references": 2,
			"revision": 15,
			"time": "2018-10-04T09:56:31-04:00",
			"created": "2000-06-15T03:00:00-04:00"
		}
	]
}