{
	"greeting": "Greetings from The On-Line Encyclopedia of Integer Sequences! http://oeis.org/",
	"query": "id:A055378",
	"count": 1,
	"start": 0,
	"results": [
		{
			"number": 55378,
			"data": "2,1,2,0,2,2,1,2,3,2,0,2,4,4,2,0,2,5,6,5,2,1,2,6,10,8,6,2,0,2,8,12,17,10,7,2,0,2,9,18,20,26,12,8,2,0,2,10,28,32,30,37,14,9,2,1,2,12,30,65,50,42,50,16,10,2,0,2,16,36,68,126,72,56,65,18,11,2,0,2,17,54,80,130",
			"name": "Table read by antidiagonals: T(n,k) = n^trinv(k)+n^(k-((trinv(k)*(trinv(k)-1))/2)) where trinv (k) = floor((1+sqrt(1+8*k))/2) and with 0^0 = 1.",
			"formula": [
				"T(n, k) = n^A025581(k)+n^A002262(k)"
			],
			"example": [
				"a(50) = T(5,4) = 5^2+5^1 = 30"
			],
			"xref": [
				"Rows include A010054 (apart from initial term), A007395 and A048645 (offset). Subsequent rows are sums of two powers of a given number and also rewritings of A052216 from a particular base to base 10. Columns include A007395, A000027, A005843, A002522, A002378, A001105, A001093, A034262, A011379, A033431, A002523."
			],
			"keyword": "nonn,tabl",
			"offset": "0,1",
			"author": "_Henry Bottomley_, Jun 22 2000",
			"references": 0,
			"revision": 4,
			"time": "2012-03-30T18:51:26-04:00",
			"created": "2000-07-22T03:00:00-04:00"
		}
	]
}