{
	"greeting": "Greetings from The On-Line Encyclopedia of Integer Sequences! http://oeis.org/",
	"query": "id:A055255",
	"count": 1,
	"start": 0,
	"results": [
		{
			"number": 55255,
			"data": "0,0,0,1,1,2,1,2,2,2,2,1,2,2,4,4,5,4,6,6,7,6,4,5,8,9,8,6,8,8,8,6,9,6,8,6,7,8,7,8,10,9,7,9,11,11,10,11,12,10,10,8,16,13,12,11,9,16,18,14,14,17,19,16,19,13,17,14,14,14,14,14,17,16,15,16,16,15,25,23,22",
			"name": "Number of even digits in 3^n.",
			"program": [
				"(PARI) a(n) = #select(x-\u003e((x%2) == 0), digits(3^n)); \\\\ _Michel Marcus_, Nov 22 2019"
			],
			"xref": [
				"Cf. A055256, A034888."
			],
			"keyword": "nonn,base,easy",
			"offset": "0,6",
			"author": "Asher Auel (asher.auel(AT)reed.edu), May 05 2000",
			"references": 1,
			"revision": 6,
			"time": "2019-11-22T02:56:35-05:00",
			"created": "2000-05-08T03:00:00-04:00"
		}
	]
}