{
	"greeting": "Greetings from The On-Line Encyclopedia of Integer Sequences! http://oeis.org/",
	"query": "id:A055488",
	"count": 1,
	"start": 0,
	"results": [
		{
			"number": 55488,
			"data": "5,14,54,264,1560,10920,97440,876960,10263240,112895640,1348827480,18029171160,264370186080,3806158356000,62703141621120,1128159304272000,20422064875212000,404757215566704000,8208550091549808000,177650747421074928000",
			"name": "Smallest number x such that sum of divisors of x is n!.",
			"comment": [
				"For n = 1, a(1) = 1; for n = 2, there is no solution."
			],
			"reference": [
				"R. K. Guy (1981): Unsolved Problems In Number Theory, B39."
			],
			"link": [
				"Max A. Alekseyev, \u003ca href=\"https://www.emis.de/journals/JIS/VOL19/Alekseyev/alek5.html\"\u003eComputing the Inverses, their Power Sums, and Extrema for Euler's Totient and Other Multiplicative Functions\u003c/a\u003e. Journal of Integer Sequences, Vol. 19 (2016), Article 16.5.2"
			],
			"formula": [
				"a(n) = Min{x; Sigma[x] = n!} = Min{x; A000203(x) = A000142(n)}"
			],
			"example": [
				"For n = 6 the 15 solutions are as follows: {264,270,280,354,376,406,418,435,459,478,537,623,649,667,719}"
			],
			"xref": [
				"Cf. A000203, A000142, A055486, A055487, A055489"
			],
			"keyword": "nonn",
			"offset": "3,1",
			"author": "_Labos Elemer_, Jun 28 2000",
			"ext": [
				"More terms from _Jud McCranie_, Oct 09 2000",
				"a(13), a(14) from _Vim Wenders_, Nov 06 2006, Jan 12 2007",
				"a(15), a(16) from _Donovan Johnson_, Aug 26 2008, Mar 26 2010",
				"a(17)-a(22) from _Max Alekseyev_, Jan 25 2012"
			],
			"references": 3,
			"revision": 35,
			"time": "2016-07-19T16:27:19-04:00",
			"created": "2000-07-22T03:00:00-04:00"
		}
	]
}