{
	"greeting": "Greetings from The On-Line Encyclopedia of Integer Sequences! http://oeis.org/",
	"query": "id:A055339",
	"count": 1,
	"start": 0,
	"results": [
		{
			"number": 55339,
			"data": "1,27,172,798,2866,8879,24308,60812,140884,306890,633610,1250265,2370223,4339340,7699607,13286899,22357092,36771118,59229576,93604439,145353364,222087798,334273110,496164369,726946124,1052222818",
			"name": "Number of asymmetric (identity) trees with n nodes and 8 leaves.",
			"link": [
				"\u003ca href=\"/index/Tra#trees\"\u003eIndex entries for sequences related to trees\u003c/a\u003e"
			],
			"xref": [
				"Column 8 of A055334."
			],
			"keyword": "nonn",
			"offset": "16,2",
			"author": "_Christian G. Bower_, May 12 2000",
			"references": 1,
			"revision": 7,
			"time": "2012-03-30T17:37:10-04:00",
			"created": "2000-06-15T03:00:00-04:00"
		}
	]
}