{
	"greeting": "Greetings from The On-Line Encyclopedia of Integer Sequences! http://oeis.org/",
	"query": "id:A055889",
	"count": 1,
	"start": 0,
	"results": [
		{
			"number": 55889,
			"data": "1,1,2,1,2,3,1,4,4,5,1,4,8,8,7,1,6,13,19,16,13,1,6,18,32,40,32,19,1,8,24,56,80,90,64,35,1,8,33,80,148,196,192,128,59,1,10,40,120,247,396,464,420,256,107,1,10,50,162,392,712,1008,1088,896,512,187,1,12,61",
			"name": "CIK transform of partition triangle A008284.",
			"link": [
				"C. G. Bower, \u003ca href=\"/transforms2.html\"\u003eTransforms (2)\u003c/a\u003e"
			],
			"example": [
				"1; 1,2; 1,2,3; 1,4,4,5; 1,4,8,8,7; ..."
			],
			"xref": [
				"Row sums give A055890."
			],
			"keyword": "nonn,tabl",
			"offset": "1,3",
			"author": "_Christian G. Bower_, Jun 09 2000",
			"references": 1,
			"revision": 5,
			"time": "2012-03-30T17:37:11-04:00",
			"created": "2000-06-15T03:00:00-04:00"
		}
	]
}