{
	"greeting": "Greetings from The On-Line Encyclopedia of Integer Sequences! http://oeis.org/",
	"query": "id:A055492",
	"count": 1,
	"start": 0,
	"results": [
		{
			"number": 55492,
			"data": "1,2,3,4,5,6,8,9,10,11,12,16,27,28",
			"name": "Numbers n such that LCM{1, ..., n} is a minimal number.",
			"comment": [
				"Minimal numbers (A007416): let A(h) = least positive integer having exactly h divisors, let d(n) = number of divisors of n; then n is minimal if A(d(n)) = n; i.e. if n is the least positive integer having the number of divisors it has.",
				"Also the numbers n such that LCM (1, ..., n) is a highly composite number (A002182). - _Matthew Vandermast_, Jul 12 2004"
			],
			"reference": [
				"J. Roberts, Lure of the Integers, Math. Assoc. of America, 1992, page 86."
			],
			"link": [
				"M. E. Grost, \u003ca href=\"http://www.jstor.org/stable/2315183\"\u003eThe smallest number with a given number of divisors\u003c/a\u003e, Amer. Math. Monthly, 75 (1968), 725-729."
			],
			"xref": [
				"Cf. A007416.",
				"Cf. A003418, A095921."
			],
			"keyword": "nonn,fini,full",
			"offset": "1,2",
			"author": "_Robert G. Wilson v_, Jul 05 2000",
			"ext": [
				"Description corrected by _N. J. A. Sloane_, Feb 27 2003"
			],
			"references": 1,
			"revision": 11,
			"time": "2017-10-02T06:15:15-04:00",
			"created": "2000-07-22T03:00:00-04:00"
		}
	]
}