{
	"greeting": "Greetings from The On-Line Encyclopedia of Integer Sequences! http://oeis.org/",
	"query": "id:A055289",
	"count": 1,
	"start": 0,
	"results": [
		{
			"number": 55289,
			"data": "1,-1,1,0,-3,5,9,-44,-50,545,572,-9890,-13263,251236,490208,-8309897,-25084529,340735734,1618199204,-16683530000,-123071639020,922641297931,10768715419165,-53177799474462,-1066100082041498",
			"name": "Column 1 of triangle A055288.",
			"link": [
				"\u003ca href=\"/index/Ro#rooted\"\u003eIndex entries for sequences related to rooted trees\u003c/a\u003e"
			],
			"keyword": "sign",
			"offset": "1,5",
			"author": "_Christian G. Bower_, May 09 2000",
			"references": 1,
			"revision": 6,
			"time": "2012-03-30T17:37:10-04:00",
			"created": "2000-06-15T03:00:00-04:00"
		}
	]
}