{
	"greeting": "Greetings from The On-Line Encyclopedia of Integer Sequences! http://oeis.org/",
	"query": "id:A055217",
	"count": 1,
	"start": 0,
	"results": [
		{
			"number": 55217,
			"data": "1,3,10,31,96,294,897,2727,8272,25048,75747,228826,690691,2083371,6280650,18925047,57002616,171633840,516632307,1554702516,4677501237,14069962041,42314975352,127240600050,382555886571,1150026301089",
			"name": "a(n) = sum of the first n coefficients of (1+x+x^2)^n.",
			"link": [
				"Reinhard Zumkeller, \u003ca href=\"/A055217/b055217.txt\"\u003eTable of n, a(n) for n = 0..1000\u003c/a\u003e"
			],
			"formula": [
				"From _Paul Barry_, Jan 20 2008: (Start)",
				"Binomial transform of A117186.",
				"G.f.: (1+x-sqrt(1-2x-3x^2))/(2x*(1-2x-3x^2)).",
				"a(n) = (3^(n+1) + A002426(n+1))/2. (End)",
				"From _Vladimir Kruchinin_, Aug 11 2010: (Start)",
				"Logarithm g.f.: log(1/(1-M(x)) = Sum_{n\u003e0} a(n)/n*x^n, M(x) - o.g.f Motzkin numbers (A001006).",
				"a(n) = sum(sum(binomial(n,j)*binomial(j,2*j-n-k),j,ceiling((n+k)/2),n),k,1,n), n\u003e0. (End)",
				"Conjecture: (n+1)*a(n) -(5*n+1)*a(n-1) +3*(n-1)*a(n-2) +9*(n-1)*a(n-3)=0. - _R. J. Mathar_, Nov 14 2011",
				"a(n) = 3^n * 3/2 + O(3^n/sqrt(n)). - _Charles R Greathouse IV_, Dec 02 2015",
				"From _Peter Luschny_, May 12 2016: (Start)",
				"a(n) = (3^(n+1) - hypergeom([-(n+1)/2, -n/2], [1], 4))/2.",
				"a(n) = (3^(n+1) - GegenbauerC(n+1,-n-1,-1/2))/2. (End)"
			],
			"maple": [
				"a := n -\u003e simplify((3^(n+1) - GegenbauerC(n+1,-n-1,-1/2))/2):",
				"seq(a(n), n=0..25); # _Peter Luschny_, May 12 2016"
			],
			"mathematica": [
				"Total/@Table[Take[CoefficientList[Expand[(1+x+x^2)^n],x],n],{n,30}] (* _Harvey P. Dale_, Aug 14 2011 *)"
			],
			"program": [
				"(Maxima) a(n):=sum(sum(binomial(n,j)*binomial(j,2*j-n-k),j,ceiling((n+k)/2),n),k,1,n); \\\\ _Vladimir Kruchinin_, Aug 11 2010",
				"(Haskell)",
				"a055217 n = sum $ take (n + 1) $ a027907_row (n + 1)",
				"-- _Reinhard Zumkeller_, Jan 22 2013",
				"(PARI) a(n) = my(v=Vec((1+'x+'x^2)^n)); sum(k=1, n, v[k]);"
			],
			"xref": [
				"T(2n+1, n), array T as in A055216.",
				"Cf. A000244, A002426, A027914.",
				"Cf. A001006, A117186."
			],
			"keyword": "nonn",
			"offset": "0,2",
			"author": "_Clark Kimberling_, May 07 2000",
			"ext": [
				"New description from _Paul D. Hanna_, Oct 09 2003"
			],
			"references": 5,
			"revision": 36,
			"time": "2021-07-09T07:45:27-04:00",
			"created": "2000-05-08T03:00:00-04:00"
		}
	]
}