{
	"greeting": "Greetings from The On-Line Encyclopedia of Integer Sequences! http://oeis.org/",
	"query": "id:A055798",
	"count": 1,
	"start": 0,
	"results": [
		{
			"number": 55798,
			"data": "1,7,29,93,255,627,1419,3003,6006,11440,20878,36686,62322,102714,164730,257754,394383,591261,870067,1258675,1792505,2516085,3484845,4767165,6446700,8625006,11424492,14991724,19501108,25158980,32208132,40932804,51664173",
			"name": "T(2n+5,n), array T as in A055794.",
			"comment": [
				"If Y is a 2-subset of an n-set X then, for n\u003e=8, a(n-8) is the number of 8-subsets of X which have no exactly one element in common with Y. - _Milan Janjic_, Dec 28 2007"
			],
			"link": [
				"Vincenzo Librandi, \u003ca href=\"/A055798/b055798.txt\"\u003eTable of n, a(n) for n = 0..1000\u003c/a\u003e",
				"\u003ca href=\"/index/Rec#order_09\"\u003eIndex entries for linear recurrences with constant coefficients\u003c/a\u003e, signature (9,-36,84,-126,126,-84,36,-9,1)."
			],
			"formula": [
				"a(n-8) = binomial(n,8)-2*binomial(n-2,7), n=8,9,10,.... - _Milan Janjic_, Dec 28 2007",
				"G.f.: (1-2*x+2*x^2)/(1-x)^9. [_Colin Barker_, Feb 22 2012]",
				"a(n) = 9*a(n-1) - 36*a(n-2) + 84*a(n-3) - 126*a(n-4) + 126*a(n-5) - 84*a(n-6) + 36*a(n-7) - 9*a(n-8) + a(n-9). - _Vincenzo Librandi_, May 01 2012"
			],
			"mathematica": [
				"CoefficientList[Series[(-2*(z - 1)*z - 1)/(z - 1)^9, {z, 0, 100}], z] (* _Vladimir Joseph Stephan Orlovsky_, Jul 16 2011 *)",
				"LinearRecurrence[{9,-36,84,-126,126,-84,36,-9,1},{1,7,29,93,255,627,1419,3003,6006},50] (* _Vincenzo Librandi_, May 01 2012 *)"
			],
			"program": [
				"(MAGMA) [Binomial(n,8)-2*Binomial(n-2,7): n in [8..40]]; // _Vincenzo Librandi_, May 01 2012"
			],
			"xref": [
				"Cf. A051601."
			],
			"keyword": "nonn,easy",
			"offset": "0,2",
			"author": "_Clark Kimberling_, May 28 2000",
			"references": 3,
			"revision": 32,
			"time": "2018-02-21T03:41:58-05:00",
			"created": "2000-06-15T03:00:00-04:00"
		}
	]
}