{
	"greeting": "Greetings from The On-Line Encyclopedia of Integer Sequences! http://oeis.org/",
	"query": "id:A055585",
	"count": 1,
	"start": 0,
	"results": [
		{
			"number": 55585,
			"data": "1,6,25,88,280,832,2352,6400,16896,43520,109824,272384,665600,1605632,3829760,9043968,21168128,49152000,113311744,259522560,590872576,1337982976,3014656000,6761218048,15099494400,33587986432,74440507392",
			"name": "Second column of triangle A055584.",
			"comment": [
				"Number of 132-avoiding permutations of [n+5] containing exactly three 123 patterns. - _Emeric Deutsch_, Jul 13 2001",
				"If X_1,X_2,...,X_n are 2-blocks of a (2n+2)-set X then, for n\u003e=1, a(n-1) is the number of (n+3)-subsets of X intersecting each X_i, (i=1,2,...,n). - _Milan Janjic_, Nov 18 2007",
				"Convolution of A001792 with itself. - _Philippe Deléham_, Feb 21 2013"
			],
			"link": [
				"Milan Janjic, \u003ca href=\"http://www.pmfbl.org/janjic/\"\u003eTwo Enumerative Functions\u003c/a\u003e",
				"M. Janjic, \u003ca href=\"https://cs.uwaterloo.ca/journals/JIS/VOL11/Janjic/janjic19.html\"\u003eOn a class of polynomials with integer coefficients\u003c/a\u003e, JIS 11 (2008) 08.5.2",
				"Pudwell, Lara; Scholten, Connor; Schrock, Tyler; Serrato, Alexa \u003ca href=\"https://doi.org/10.1155/2014/316535\"\u003eNoncontiguous pattern containment in binary trees\u003c/a\u003e, ISRN Comb. 2014, Article ID 316535, 8 p. (2014), Section 5.2.",
				"A. Robertson, H. S. Wilf and D. Zeilberger, \u003ca href=\"http://www.combinatorics.org/ojs/index.php/eljc/article/view/v6i1r38\"\u003ePermutation patterns and continued fractions,\u003c/a\u003e  Electr. J. Combin. 6, 1999, #R38.",
				"\u003ca href=\"/index/Rec#order_04\"\u003eIndex entries for linear recurrences with constant coefficients\u003c/a\u003e, signature (8,-24,32,-16)."
			],
			"formula": [
				"G.f.: (1-x)^2/(1-2*x)^4.",
				"a(n) = A055584(n+1, 1). a(n) = sum(a(j), j=0..n-1)+A001793(n+1), n \u003e= 1.",
				"a(n) = 2^(n-3)(n+1)(n+3)(n+8)/3.",
				"Preceded by 0, this is the binomial transform of the tetrahedral numbers A000292. - _Carl Najafi_, Sep 08 2011",
				"E.g.f.: (1/6)*(2*x^3 + 15*x^2 + 24*x + 6)*exp(2*x). - _G. C. Greubel_, Aug 22 2015"
			],
			"example": [
				"a(1)=6 because 432516,432561,435126,452136,532146 and 632145 are the only 132-avoiding permutations of 123456, containing exactly three increasing subsequences of length 3."
			],
			"mathematica": [
				"Table[(1/3)*2^(n-3)*(n+1)*(n+3)*(n+8), {n,0,50}] (* _G. C. Greubel_, Aug 22 2015 *)",
				"LinearRecurrence[{8,-24,32,-16},{1,6,25,88},30] (* _Harvey P. Dale_, Nov 03 2017 *)"
			],
			"program": [
				"(PARI) Vec(((1-x)^2)/(1-2*x)^4 + O(x^30)) \\\\ _Michel Marcus_, Aug 22 2015"
			],
			"xref": [
				"Cf. A055584, partial sums of A049612, n \u003e= 1."
			],
			"keyword": "easy,nonn",
			"offset": "0,2",
			"author": "_Wolfdieter Lang_, May 26 2000",
			"references": 6,
			"revision": 37,
			"time": "2019-06-12T11:20:29-04:00",
			"created": "2000-06-15T03:00:00-04:00"
		}
	]
}