{
	"greeting": "Greetings from The On-Line Encyclopedia of Integer Sequences! http://oeis.org/",
	"query": "id:A055434",
	"count": 1,
	"start": 0,
	"results": [
		{
			"number": 55434,
			"data": "1,21,317,4169,49689,532509,5260181,48218513,415055025,3375505573,26107328109,193280122713,1374386800585,9405092131245,62077194367429,396122100447649,2449318034512737,14705097001902901,85877415063465373",
			"name": "Number of points in Z^n of norm \u003c= 10.",
			"link": [
				"Andrew Howroyd, \u003ca href=\"/A055434/b055434.txt\"\u003eTable of n, a(n) for n = 0..1000\u003c/a\u003e"
			],
			"mathematica": [
				"a[n_] := SeriesCoefficient[1/(1-x) Sum[x^(i^2), {i, -10, 10}]^n, {x, 0, 100}];",
				"a /@ Range[0, 18] (* _Jean-François Alcover_, Sep 29 2019, from A302997 *)"
			],
			"xref": [
				"Row n=10 of A302997."
			],
			"keyword": "nonn",
			"offset": "0,2",
			"author": "_David W. Wilson_",
			"references": 2,
			"revision": 13,
			"time": "2019-09-29T07:21:22-04:00",
			"created": "2000-06-15T03:00:00-04:00"
		}
	]
}