{
	"greeting": "Greetings from The On-Line Encyclopedia of Integer Sequences! http://oeis.org/",
	"query": "id:A055218",
	"count": 1,
	"start": 0,
	"results": [
		{
			"number": 55218,
			"data": "1,4,15,51,168,540,1711,5365,16698,51679,159250,489048,1497681,4576140,13955895,42493677,129211818,392441049,1190716836,3609608838,10933915743,33097421223,100126350090,302737691646,914897836063",
			"name": "a(n) = T(2*n+2,n), array T as in A055216.",
			"link": [
				"G. C. Greubel, \u003ca href=\"/A055218/b055218.txt\"\u003eTable of n, a(n) for n = 0..1000\u003c/a\u003e"
			],
			"formula": [
				"G.f.: ((2*x-1) *sqrt(-3*x^2-2*x+1)+2*x^3-3*x+1)/ (6*x^6+x^5 +sqrt(-3*x^2-2*x+1) *(3*x^4-x^3)-4*x^4+x^3). - _Vladimir Kruchinin_, May 24 2014",
				"a(n) ~ 3^(n+2)/2 * (1-3*sqrt(3)/(2*sqrt(Pi*n))). - _Vaclav Kotesovec_, May 24 2014"
			],
			"mathematica": [
				"Table[Sum[Binomial[n+2,i]*Sum[Binomial[i,j],{j,0,n-i}],{i,0,n+2}],{n,0,20}] (* _Vaclav Kotesovec_, May 24 2014 *)"
			],
			"program": [
				"(PARI) x='x+O('x^50); Vec(((2*x-1)*sqrt(-3*x^2-2*x+1)+2*x^3-3*x+ 1)/(6*x^6 +x^5 + sqrt(-3*x^2-2*x+1)*(3*x^4-x^3)-4*x^4+x^3)) \\\\ _G. C. Greubel_, May 23 2017"
			],
			"xref": [
				"Cf. A055216."
			],
			"keyword": "nonn",
			"offset": "0,2",
			"author": "_Clark Kimberling_, May 07 2000",
			"references": 2,
			"revision": 18,
			"time": "2017-05-24T02:37:41-04:00",
			"created": "2000-05-08T03:00:00-04:00"
		}
	]
}