{
	"greeting": "Greetings from The On-Line Encyclopedia of Integer Sequences! http://oeis.org/",
	"query": "id:A055259",
	"count": 1,
	"start": 0,
	"results": [
		{
			"number": 55259,
			"data": "2,9,16,65,72,128,513,520,576,1024,4097,4104,4160,4608,8192,32769,32776,32832,33280,36864,65536,262145,262152,262208,262656,266240,294912,524288,2097153,2097160,2097216,2097664,2101248,2129920,2359296,4194304,16777217",
			"name": "Sums of two powers of 8.",
			"link": [
				"T. D. Noe, \u003ca href=\"/A055259/b055259.txt\"\u003eRows n = 0..100 of triangle, flattened\u003c/a\u003e"
			],
			"formula": [
				"a(n) = 8^(n-trinv(n))+8^trinv(n), where trinv(n) = floor((1+sqrt(1+8*n))/2) = A002262(n) and n-trinv(n) = A003056(n)",
				"Regarded as a triangle T(n, k) = 8^n + 8^k, so as a sequence a(n) = 8^A002262(n) + 8^A003056(n)."
			],
			"mathematica": [
				"Union[Total/@Tuples[8^Range[0,10], {2}]]  (* _Harvey P. Dale_, Mar 13 2011 *)"
			],
			"program": [
				"(Python)",
				"def valuation(n, b):",
				"  v = 0",
				"  while n \u003e 1: n //= b; v += 1",
				"  return v",
				"def aupto(lim):",
				"  pows8 = [8**i for i in range(valuation(lim-1, 8) + 1)]",
				"  sum_pows8 = sorted([a+b for i, a in enumerate(pows8) for b in pows8[i:]])",
				"  return [s for s in sum_pows8 if s \u003c= lim]",
				"print(aupto(16777217)) # _Michael S. Branicky_, Feb 09 2021"
			],
			"xref": [
				"Cf. A052216."
			],
			"keyword": "easy,nonn,tabl",
			"offset": "0,1",
			"author": "_Henry Bottomley_, Jun 22 2000",
			"references": 5,
			"revision": 18,
			"time": "2021-02-09T19:39:40-05:00",
			"created": "2000-07-22T03:00:00-04:00"
		}
	]
}