{
	"greeting": "Greetings from The On-Line Encyclopedia of Integer Sequences! http://oeis.org/",
	"query": "id:A056349",
	"count": 1,
	"start": 0,
	"results": [
		{
			"number": 56349,
			"data": "0,0,1,6,18,55,147,405,1083,2961,8043,22182,61278,170883,477910,1344825,3795750,10757763,30572427,87146139,248991674,713088309,2046303339,5883410760,16944543792,48879708297",
			"name": "Number of primitive (period n) bracelets using exactly three different colored beads.",
			"comment": [
				"Turning over will not create a new bracelet."
			],
			"reference": [
				"M. R. Nester (1999). Mathematical investigations of some plant interaction designs. PhD Thesis. University of Queensland, Brisbane, Australia. [See A056391 for pdf file of Chap. 2]"
			],
			"formula": [
				"sum mu(d)*A056343(n/d) where d|n."
			],
			"xref": [
				"Cf. A056288."
			],
			"keyword": "nonn",
			"offset": "1,4",
			"author": "_Marks R. Nester_",
			"references": 1,
			"revision": 6,
			"time": "2017-08-22T20:53:09-04:00",
			"created": "2000-07-22T03:00:00-04:00"
		}
	]
}