{
	"greeting": "Greetings from The On-Line Encyclopedia of Integer Sequences! http://oeis.org/",
	"query": "id:A056688",
	"count": 1,
	"start": 0,
	"results": [
		{
			"number": 56688,
			"data": "1,12,19,22,30,99,240,274,924,1066,1368,2064,7162,37962,91855,111705,260197,271756,314563,348723",
			"name": "Numbers k such that 70*R_k + 1 is prime, where R_k = 11...1 is the repunit (A002275) of length k.",
			"comment": [
				"Also numbers k such that (7*10^(k+1)-61)/9 is prime."
			],
			"link": [
				"Makoto Kamada, \u003ca href=\"https://stdkmd.net/nrr/7/77771.htm\"\u003ePrime numbers of the form 77...771\u003c/a\u003e.",
				"\u003ca href=\"/index/Pri#Pri_rep\"\u003eIndex entries for primes involving repunits\u003c/a\u003e"
			],
			"formula": [
				"a(n) = A099419(n) - 1."
			],
			"mathematica": [
				"Do[ If[ PrimeQ[70*(10^n - 1)/9 + 1], Print[n]], {n, 0, 7000}]"
			],
			"xref": [
				"Cf. A002275, A093176, A099419."
			],
			"keyword": "nonn",
			"offset": "1,2",
			"author": "_Robert G. Wilson v_, Aug 10 2000",
			"ext": [
				"a(13) from Kamada link by Herman Jamke (hermanjamke(AT)fastmail.fm), Jan 01 2008",
				"a(14)-a(15) from Erik Branger, Dec 19 2009",
				"a(16) from Erik Branger, Jan 29 2011",
				"a(17) from Erik Branger, Nov 26 2011",
				"a(18) from Erik Branger, Mar 05 2012",
				"a(19)-a(20) from Erik Branger, Sep 23 2016"
			],
			"references": 2,
			"revision": 25,
			"time": "2021-07-04T22:09:45-04:00",
			"created": "2003-05-16T03:00:00-04:00"
		}
	]
}