{
	"greeting": "Greetings from The On-Line Encyclopedia of Integer Sequences! http://oeis.org/",
	"query": "id:A056536",
	"count": 1,
	"start": 0,
	"results": [
		{
			"number": 56536,
			"data": "1,2,4,3,7,5,11,8,6,16,12,9,22,17,13,10,29,23,18,14,37,30,24,19,15,46,38,31,25,20,56,47,39,32,26,21,67,57,48,40,33,27,79,68,58,49,41,34,28,92,80,69,59,50,42,35,106,93,81,70,60,51,43,36,121,107,94,82,71,61,52",
			"name": "Mapping from half-antidiagonal reading of the triangle (as used in A028297) to the column-by-column reading of the triangular tables.",
			"comment": [
				"Moves squares (A000290) to triangular numbers (A000217), i.e., A056536(A000290(i)) = A000217(i) for all i \u003e= 1.",
				"This sequence may be regarded as a triangular array read by rows: 1; 2; 4, 3; 7, 5; 11, 8, 6; 16, 12, 9; 22, 17, 13, 10; .... with row sums: A079824 = [1, 2, 7, 12, 25, 37, 62, 84, ...]. - _Philippe Deléham_, Feb 16 2004"
			],
			"link": [
				"\u003ca href=\"/index/Per#IntegerPermutation\"\u003eIndex entries for sequences that are permutations of the natural numbers\u003c/a\u003e"
			],
			"formula": [
				"a(n) = A091018(n-1) + 1."
			],
			"example": [
				"As a triangular array read by rows:",
				"    1;",
				"    2;",
				"    4,  3;",
				"    7,  5;",
				"   11,  8, 6;",
				"   16, 12, 9;",
				"   22, 17, 13, 10;",
				"   29, 23, 18, 14;",
				"   37, 30, 24, 19, 15;",
				"   46, 38, 31, 25, 20;",
				"   56, 47, 39, 32, 26, 21;",
				"   67, 57, 48, 40, 33, 27;",
				"   79, 68, 58, 49, 41, 34, 28;",
				"   92, 80, 69, 59, 50, 42, 35;",
				"  106, 93, 81, 70, 60, 51, 43, 36;",
				"  ..."
			],
			"maple": [
				"triang_perm := proc(upto_d) local a,i,j; a := []; for i from 1 to upto_d do for j from 1 to floor((i+1)/2) do a := [op(a),binomial((i-j)+1,2)+j]; od; od; RETURN(a); end;"
			],
			"xref": [
				"Cf. A000217, A000290, A056536, A056537 (inverse), A079824, A091018."
			],
			"keyword": "nonn",
			"offset": "1,2",
			"author": "_Antti Karttunen_, Jun 20 2000",
			"references": 7,
			"revision": 23,
			"time": "2021-05-07T20:35:01-04:00",
			"created": "2000-07-22T03:00:00-04:00"
		}
	]
}