{
	"greeting": "Greetings from The On-Line Encyclopedia of Integer Sequences! http://oeis.org/",
	"query": "id:A056654",
	"count": 1,
	"start": 0,
	"results": [
		{
			"number": 56654,
			"data": "0,1,2,4,8,10,23,83,220,1313,2951,20015,51053",
			"name": "Numbers k such that 10*R_k + 3 is prime, where R_k is the repunit (A002275) of length k.",
			"comment": [
				"Also numbers k such that (10^(k+1)+17)/9 is prime.",
				"a(14) \u003e 10^5. - _Robert Price_, Nov 01 2014"
			],
			"link": [
				"Makoto Kamada, \u003ca href=\"https://stdkmd.net/nrr/1/11113.htm#prime\"\u003ePrime numbers of the form 11...113\u003c/a\u003e.",
				"\u003ca href=\"/index/Pri#Pri_rep\"\u003eIndex entries for primes involving repunits\u003c/a\u003e"
			],
			"formula": [
				"a(n) = A097683(n+1) - 1. - _Robert Price_, Nov 01 2014"
			],
			"example": [
				"8 is a term because 111111113 is a prime."
			],
			"mathematica": [
				"Do[ m = n; If[ primeQ[ 10*(10^n - 1)/9 + 3 ], Print[ n ] ], {n, 1, 1350} ]"
			],
			"program": [
				"(PARI) is(n)=ispseudoprime(10^n\\9*10+3) \\\\ _Charles R Greathouse IV_, Nov 10 2021"
			],
			"xref": [
				"Cf. A093011 (corresponding primes), A097683."
			],
			"keyword": "hard,nonn",
			"offset": "1,3",
			"author": "_Robert G. Wilson v_, Aug 09 2000",
			"ext": [
				"a(11) (only a probable prime) from _Rick L. Shepherd_, Mar 14 2004",
				"a(12)-a(13) derived from A097683 by _Robert Price_, Nov 01 2014"
			],
			"references": 507,
			"revision": 31,
			"time": "2021-11-10T17:24:26-05:00",
			"created": "2003-05-16T03:00:00-04:00"
		}
	]
}