{
	"greeting": "Greetings from The On-Line Encyclopedia of Integer Sequences! http://oeis.org/",
	"query": "id:A056626",
	"count": 1,
	"start": 0,
	"results": [
		{
			"number": 56626,
			"data": "0,0,0,0,0,0,0,1,0,0,0,0,0,0,0,1,0,0,0,0,0,0,0,1,0,0,1,0,0,0,0,2,0,0,0,0,0,0,0,1,0,0,0,0,0,0,0,1,0,0,0,0,0,1,0,1,0,0,0,0,0,0,0,2,0,0,0,0,0,0,0,2,0,0,0,0,0,0,0,1,1,0,0,0,0,0,0,1,0,0,0,0,0,0,0,2,0,0,0,0,0,0,0,1,0",
			"name": "Number of non-unitary square divisors of n.",
			"link": [
				"Michael De Vlieger, \u003ca href=\"/A056626/b056626.txt\"\u003eTable of n, a(n) for n = 1..10000\u003c/a\u003e"
			],
			"formula": [
				"a(n) = A046951(n) - 2^r, where r is the number of prime factors in the largest unitary prime divisor of n.",
				"a(n) = A046951(n) - 2^(A162641(n)). -  _David A. Corneth_, Jul 28 2017"
			],
			"example": [
				"n = p^u prime power has u+1 square divisors of which 2 (i.e., 1 and n) are unitary but u-1 are not unitary, so a[p^u] = u - 1. E.g., n = 4^4 = 256, has 5 square divisors {1, 4, 16, 64, 256} of which {4, 16, 64} are not unitary, so a(256)=3."
			],
			"mathematica": [
				"Table[DivisorSum[n, 1 \u0026, And[IntegerQ@ Sqrt@ #, ! CoprimeQ[#, n/#]] \u0026], {n, 105}] (* _Michael De Vlieger_, Jul 28 2017 *)"
			],
			"program": [
				"(PARI) a(n) = {my(f = factor(n), r=0, m = 0); prod(i=1,#f~,f[i,2]\u003e\u003e1 + 1) - 2^(omega(f) - omega(core(f)))} \\\\ _David A. Corneth_, Jul 28 2017",
				"(PARI) a(n) = sumdiv(n, d, if(gcd(d, n/d)!=1, issquare(d))); \\\\ _Michel Marcus_, Jul 29 2017"
			],
			"xref": [
				"Cf. A000188, A008833, A034444, A046951, A055229, A056624, A162641."
			],
			"keyword": "nonn",
			"offset": "1,32",
			"author": "_Labos Elemer_, Aug 08 2000",
			"ext": [
				"a(32) and a(96) corrected by _Michael De Vlieger_, Jul 29 2017"
			],
			"references": 3,
			"revision": 23,
			"time": "2017-08-01T02:52:36-04:00",
			"created": "2003-05-16T03:00:00-04:00"
		}
	]
}