{
	"greeting": "Greetings from The On-Line Encyclopedia of Integer Sequences! http://oeis.org/",
	"query": "id:A056524",
	"count": 1,
	"start": 0,
	"results": [
		{
			"number": 56524,
			"data": "11,22,33,44,55,66,77,88,99,1001,1111,1221,1331,1441,1551,1661,1771,1881,1991,2002,2112,2222,2332,2442,2552,2662,2772,2882,2992,3003,3113,3223,3333,3443,3553,3663,3773,3883,3993,4004,4114,4224,4334,4444,4554",
			"name": "Palindromes with even number of digits.",
			"comment": [
				"Concatenation of n with reverse of n (keeping leading zeros in the reverse).",
				"A178788(a(n)) = 0 for n \u003e 1. - _Reinhard Zumkeller_, Jun 30 2010",
				"All of the terms are divisible by eleven. - _James Burling_, Aug 08 2014"
			],
			"link": [
				"Reinhard Zumkeller, \u003ca href=\"/A056524/b056524.txt\"\u003eTable of n, a(n) for n = 1..9999\u003c/a\u003e"
			],
			"formula": [
				"a(n) = n*10^A055642(n) + A004086(n).",
				"a(n) = 11 * A066492(n)."
			],
			"mathematica": [
				"d[n_]:=IntegerDigits[n]; Table[FromDigits[Join[x=d[n],Reverse[x]]],{n,45}] (* _Jayanta Basu_, May 29 2013 *)",
				"Select[Flatten[Table[Range[10^n,10^(n+1)-1],{n,1,3,2}]],PalindromeQ] (* Requires Mathematica version 10 or later *) (* _Harvey P. Dale_, Feb 22 2018 *)"
			],
			"program": [
				"(Haskell)",
				"a056524 n = a056524_list !! (n-1)",
				"a056524_list = [read (ns ++ reverse ns) :: Integer |",
				"                n \u003c- [0..], let ns = show n]",
				"-- _Reinhard Zumkeller_, Dec 28 2011",
				"(Python)",
				"def a(n): s = str(n); return int(s + s[::-1])",
				"print([a(n) for n in range(1, 46)]) # _Michael S. Branicky_, Nov 02 2021"
			],
			"xref": [
				"Cf. A002113, A004086, A056525, A066492.",
				"Cf. A020338, A055642, A178788.",
				"Cf. A110745 (permutation)."
			],
			"keyword": "base,easy,nonn",
			"offset": "1,1",
			"author": "_Henry Bottomley_, Jun 16 2000",
			"references": 13,
			"revision": 43,
			"time": "2021-11-02T11:00:59-04:00",
			"created": "2000-07-22T03:00:00-04:00"
		}
	]
}