{
	"greeting": "Greetings from The On-Line Encyclopedia of Integer Sequences! http://oeis.org/",
	"query": "id:A056746",
	"count": 1,
	"start": 0,
	"results": [
		{
			"number": 56746,
			"data": "0,0,0,84,438984,2194477729800",
			"name": "Raw solutions to Hi-Q puzzle with n holes on a side, any initial peg removed.",
			"link": [
				"Eric Weisstein's World of Mathematics, \u003ca href=\"http://mathworld.wolfram.com/Hi-Q.html\"\u003eHi-Q\u003c/a\u003e"
			],
			"keyword": "hard,nonn",
			"offset": "1,4",
			"author": "_David W. Wilson_, Aug 15 2000",
			"references": 0,
			"revision": 5,
			"time": "2012-03-30T18:35:40-04:00",
			"created": "2003-05-16T03:00:00-04:00"
		}
	]
}