{
	"greeting": "Greetings from The On-Line Encyclopedia of Integer Sequences! http://oeis.org/",
	"query": "id:A056606",
	"count": 1,
	"start": 0,
	"results": [
		{
			"number": 56606,
			"data": "1,1,2,3,6,10,30,105,70,42,210,2310,2310,4290,6006,15015,30030,170170,510510,1939938,1385670,881790,9699690,223092870,44618574,17160990,74364290,31870410,223092870,6469693230,6469693230,100280245065",
			"name": "Squarefree kernel of lcm(binomial(n,0), ..., binomial(n,n)).",
			"comment": [
				"Also squarefree kernel of A001142; row products in table A256113. - _Reinhard Zumkeller_, Mar 21 2015",
				"a(2372) has 1001 decimal digits. - _Michael De Vlieger_, Jul 14 2017",
				"Also the squarefree kernel of the cumulative product of n^n/n!. - _Peter Luschny_, Dec 21 2019"
			],
			"link": [
				"Michael De Vlieger, \u003ca href=\"/A056606/b056606.txt\"\u003eTable of n, a(n) for n = 0..2371\u003c/a\u003e"
			],
			"formula": [
				"a(n) = A007947(A002944(n+1)). - _Michel Marcus_, Dec 21 2019",
				"a(n) = radical(hyperfactorial(n)/superfactorial(n)) = A007947(A002109(n)/ A000178(n)) for n \u003e= 0. - _Peter Luschny_, Dec 21 2019"
			],
			"example": [
				"a(7) = 105 because lcm(1, 7, 21, 35) = 105 is already squarefree.",
				"a(0) = 1 because n^n/n! = 1 for the integer n = 0. - _Peter Luschny_, Dec 21 2019"
			],
			"maple": [
				"h := n -\u003e mul(k^k/factorial(k), k=0..n):",
				"rad := n -\u003e mul(k, k = numtheory[factorset](n)):",
				"seq(rad(h(n)), n=0..31); # _Peter Luschny_, Dec 21 2019"
			],
			"mathematica": [
				"Table[Apply[Times, FactorInteger[Product[k^(2 k - 1 - n), {k, n}]][[All, 1]]], {n, 0, 31}] (* or *)",
				"Table[Apply[Times, FactorInteger[Apply[LCM, Range@ n]/n][[All, 1]]], {n, 1, 32}] (* _Michael De Vlieger_, Jul 14 2017 *)"
			],
			"program": [
				"(Haskell)",
				"a056606 = a007947 . a001142  -- _Reinhard Zumkeller_, Mar 21 2015"
			],
			"xref": [
				"Cf. A002944, A034386, A048633, A003418, A000142, A001405.",
				"Cf. A007947, A001142, A256113, A002109, A000178, A329947."
			],
			"keyword": "nonn",
			"offset": "0,3",
			"author": "_Labos Elemer_, Aug 07 2000",
			"ext": [
				"Extended with a(0) = 1 by _Peter Luschny_, Dec 21 2019"
			],
			"references": 6,
			"revision": 26,
			"time": "2019-12-21T16:31:02-05:00",
			"created": "2003-05-16T03:00:00-04:00"
		}
	]
}