{
	"greeting": "Greetings from The On-Line Encyclopedia of Integer Sequences! http://oeis.org/",
	"query": "id:A056409",
	"count": 1,
	"start": 0,
	"results": [
		{
			"number": 56409,
			"data": "0,0,0,0,1,9,26,299,1183,10700,24736,349232,626053,6680953,26364609,137246955,353304459,4826416835,8199440662,93679518802,315943737305,1913783049725,4382586624256,60629067426943",
			"name": "Number of primitive (aperiodic) step shifted (decimated) sequence structures using exactly five different symbols.",
			"comment": [
				"See A056371 for an explanation of step shifts. Permuting the symbols will not change the structure."
			],
			"reference": [
				"M. R. Nester (1999). Mathematical investigations of some plant interaction designs. PhD Thesis. University of Queensland, Brisbane, Australia. [See A056391 for pdf file of Chap. 2]"
			],
			"formula": [
				"A056404(n)-A056403(n)."
			],
			"xref": [
				"Cf. A056389."
			],
			"keyword": "nonn",
			"offset": "1,6",
			"author": "_Marks R. Nester_",
			"references": 0,
			"revision": 6,
			"time": "2017-08-22T20:53:11-04:00",
			"created": "2000-07-22T03:00:00-04:00"
		}
	]
}