{
	"greeting": "Greetings from The On-Line Encyclopedia of Integer Sequences! http://oeis.org/",
	"query": "id:A056975",
	"count": 1,
	"start": 0,
	"results": [
		{
			"number": 56975,
			"data": "0,0,0,0,0,0,0,0,1,0,0,0,0,0,0,0,1,1,1,0,0,0,0,0,1,0,0,0,0,0,0,0,1,1,1,1,1,1,1,0,1,0,0,0,0,0,0,0,1,1,1,0,0,0,0,0,1,0,0,0,0,0,0,0,1,1,1,1,1,1,1,1,2,1,1,1,1,1,1,0,1,1,1,0,0,0,0,0,1,0,0,0,0,0,0,0,1,1,1,1,1,1",
			"name": "Number of blocks of {0, 0, 1} in binary expansion of n.",
			"link": [
				"Eric Weisstein's World of Mathematics, \u003ca href=\"http://mathworld.wolfram.com/DigitBlock.html\"\u003eDigit Block\u003c/a\u003e"
			],
			"formula": [
				"a(2n) = a(n), a(2n+1) = a(n) + [n congruent to 0 mod 4]. - _Ralf Stephan_, Aug 22 2003"
			],
			"mathematica": [
				"a[n_, bits_] := (idn = IntegerDigits[n, 2]; ln = Length[idn]; lb = Length[bits]; For[cnt = 0; k = 1, k \u003c= ln - lb + 1, k++, If[idn[[k ;; k + lb - 1]] == bits, cnt++]]; cnt); Table[ a[n, {0, 0, 1}], {n, 1, 102} ] (* _Jean-François Alcover_, Oct 23 2012 *)",
				"Table[SequenceCount[IntegerDigits[n,2],{0,0,1}],{n,110}] (* Requires Mathematica version 10 or later *) (* _Harvey P. Dale_, Apr 26 2019 *)"
			],
			"xref": [
				"Cf. A007088 (binary expansion).",
				"Other block counts: A014082, A056974, A056976, A056977, A056978, A056979, A056980."
			],
			"keyword": "nonn,base,easy",
			"offset": "1,73",
			"author": "_Eric W. Weisstein_",
			"references": 9,
			"revision": 19,
			"time": "2021-06-04T02:33:17-04:00",
			"created": "2003-05-16T03:00:00-04:00"
		}
	]
}