{
	"greeting": "Greetings from The On-Line Encyclopedia of Integer Sequences! http://oeis.org/",
	"query": "id:A056641",
	"count": 1,
	"start": 0,
	"results": [
		{
			"number": 56641,
			"data": "4,3,4,4,4,5,5,5,5,6,6,6,6,6,6,6,6,6,6,7,7,7,7,7,7,7,7,7,7,7,7,7,7,7,8,8,8,8,8,8,8,8,8,8,8,8,8,8,8,8,8,8,8,8,8,8,8,8,8,8,8,8,8,8,8,8,8,8,8,9,9,9,9,9,9,9,9,9,9,9,9,9,9,9,9,9,9,9,9,9",
			"name": "Least positive integer k for which (b+1)^k is not palindromic in base b, b = 2, 3, 4, ...",
			"comment": [
				"Sequence of run lengths is C(n,[ (n-1)/2 ]) (= A037952), n=1,2,3,...; sequence of b where a(b) != a(b-1), b \u003e= 3, is C(b-1,[ (b-1)/2 ]) (= A001405)."
			],
			"example": [
				"The 4th term is 4 because base 5 representations of (5+1)^1 = 11, (5+1)^2 = 121, (5+1)^3 = 1331, are all palindromic, while (5+1)^4 = 20141 is not."
			],
			"mathematica": [
				"palq[x_] := x == Reverse[x] Table[x = 0; While[palq[IntegerDigits[(t + 1)^x, t]], ++x]; x, {t, START, FINISH}] (* _Dylan Hamilton_, Aug 15 2010 *)"
			],
			"xref": [
				"Cf. A037952, A001405."
			],
			"keyword": "nonn,base",
			"offset": "2,1",
			"author": "Helge Robitzsch (hrobi(AT)math.uni-goettingen.de), Aug 11 2000",
			"references": 0,
			"revision": 9,
			"time": "2015-03-14T01:55:50-04:00",
			"created": "2003-05-16T03:00:00-04:00"
		}
	]
}