{
	"greeting": "Greetings from The On-Line Encyclopedia of Integer Sequences! http://oeis.org/",
	"query": "id:A056723",
	"count": 1,
	"start": 0,
	"results": [
		{
			"number": 56723,
			"data": "1,7,23,29,133,173,367,1925,3707,5765,9709,19573,43753",
			"name": "Numbers k such that 8*10^k + 3*R_k is prime, where R_k = 11...1 is the repunit (A002275) of length k.",
			"comment": [
				"Also numbers k such that (25*10^k - 1)/3 is prime."
			],
			"link": [
				"Makoto Kamada, \u003ca href=\"https://stdkmd.net/nrr/8/83333.htm#prime\"\u003ePrime numbers of the form 833...33\u003c/a\u003e.",
				"\u003ca href=\"/index/Pri#Pri_rep\"\u003eIndex entries for primes involving repunits\u003c/a\u003e"
			],
			"mathematica": [
				"Do[ If[ PrimeQ[ 8*10^n + 3*(10^n-1)/9], Print[n]], {n, 0, 10000}]"
			],
			"xref": [
				"Cf. A002275, A093676."
			],
			"keyword": "nonn",
			"offset": "1,2",
			"author": "_Robert G. Wilson v_, Aug 11 2000",
			"ext": [
				"Corrected by Herman Jamke (hermanjamke(AT)fastmail.fm), Jan 01 2008",
				"19573 and 43753 from Serge Batalov, Jan 2009 confirmed as next terms by _Ray Chandler_, Feb 13 2012"
			],
			"references": 1,
			"revision": 19,
			"time": "2021-07-08T05:05:48-04:00",
			"created": "2003-05-16T03:00:00-04:00"
		}
	]
}