{
	"greeting": "Greetings from The On-Line Encyclopedia of Integer Sequences! http://oeis.org/",
	"query": "id:A056638",
	"count": 1,
	"start": 0,
	"results": [
		{
			"number": 56638,
			"data": "2,122,3400,64210,959742,12294090,141329502,1500596864,14998956452,143004562082,1312929589140,11688960621918,101451353794222,861927965928610,7191518458613614,59078731187602024",
			"name": "Number of polygons of length 2n with two (self-avoiding polygon) holes on square lattice (not allowing rotations).",
			"link": [
				"I. Jensen, \u003ca href=\"/A056638/b056638.txt\"\u003eTable of n, a(n) for n = 12..43\u003c/a\u003e (from link below)",
				"I. Jensen, \u003ca href=\"http://www.ms.unimelb.edu.au/~iwan/polygons/series/square.perim.2hole.ser\"\u003eMore terms\u003c/a\u003e"
			],
			"xref": [
				"Cf. A002931."
			],
			"keyword": "nonn",
			"offset": "12,1",
			"author": "_N. J. A. Sloane_, Aug 30 2000",
			"references": 2,
			"revision": 6,
			"time": "2012-03-30T16:48:51-04:00",
			"created": "2003-05-16T03:00:00-04:00"
		}
	]
}