{
	"greeting": "Greetings from The On-Line Encyclopedia of Integer Sequences! http://oeis.org/",
	"query": "id:A056783",
	"count": 1,
	"start": 0,
	"results": [
		{
			"number": 56783,
			"data": "1,1,3,7,20,62,204,709,2526,9212,33989,126838,476597,1802618,6850969,26153537,100207548,385225375,1485216987,5741272625,22246000726,86383442996,336093551268,1309998354125,5114452295933,19998173607505,78306014924606,307022185565345",
			"name": "Number of diamond polyominoes with n cells.",
			"comment": [
				"Also the number of polybricks of size n made of Lego."
			],
			"link": [
				"John Mason, \u003ca href=\"/A056783/b056783.txt\"\u003eTable of n, a(n) for n = 1..48\u003c/a\u003e",
				"Ed Pegg, Jr., \u003ca href=\"http://demonstrations.wolfram.com/PolyformExplorer/\"\u003eIllustrations of polyforms\u003c/a\u003e",
				"M. Keller, \u003ca href=\"http://www.solitairelaboratory.com/polyenum.html\"\u003eMore information\u003c/a\u003e",
				"M. Vicher, \u003ca href=\"http://www.vicher.cz/puzzle/polyforms.htm\"\u003ePolyforms\u003c/a\u003e",
				"Eric Weisstein's World of Mathematics, \u003ca href=\"http://mathworld.wolfram.com/Polyrhomb.html\"\u003ePolyrhomb\u003c/a\u003e [From _Eric W. Weisstein_, Apr 24 2009]"
			],
			"formula": [
				"a(n) = 2*A006749(n) + A006746(n) + 2*A006748(n) + 2*A006747(n) + A056877(n) + 2*A056878(n) + A144553(n) + A142886(n). - _Andrew Howroyd_, Dec 04 2018"
			],
			"xref": [
				"Cf. A000105, A056780, A057973, A151522."
			],
			"keyword": "nonn,hard",
			"offset": "1,3",
			"author": "_James A. Sellers_, Aug 28 2000",
			"ext": [
				"More terms from _Don Reble_, Nov 01 2001",
				"a(15)-a(18) from _Joseph Myers_, Nov 15 2010",
				"Offset corrected and a(19)-a(28) from _Andrew Howroyd_, Dec 04 2018"
			],
			"references": 4,
			"revision": 23,
			"time": "2021-12-24T12:45:29-05:00",
			"created": "2003-05-16T03:00:00-04:00"
		}
	]
}