{
	"greeting": "Greetings from The On-Line Encyclopedia of Integer Sequences! http://oeis.org/",
	"query": "id:A056555",
	"count": 1,
	"start": 0,
	"results": [
		{
			"number": 56555,
			"data": "1,8,27,4,125,216,343,2,9,1000,1331,108,2197,2744,3375,1,4913,72,6859,500,9261,10648,12167,54,25,17576,3,1372,24389,27000,29791,8,35937,39304,42875,36,50653,54872,59319,250,68921,74088,79507,5324,1125",
			"name": "Smallest number k (k\u003e0) such that n*k is a perfect 4th power.",
			"link": [
				"Amiram Eldar, \u003ca href=\"/A056555/b056555.txt\"\u003eTable of n, a(n) for n = 1..10000\u003c/a\u003e",
				"Henry Bottomley, \u003ca href=\"http://fs.gallup.unm.edu/Bottomley-Sm-Mult-Functions.htm\"\u003eSome Smarandache-type multiplicative sequences\u003c/a\u003e."
			],
			"formula": [
				"a(n) = A053167(n)/n = n^3/A000190(n)^4 = A056553(n)/A053165(n).",
				"Multiplicative with a(p^e) = p^((4 - e) mod 4). - _Amiram Eldar_, Sep 08 2020"
			],
			"example": [
				"a(64) = 4 because the smallest 4th power divisible by 64 is 256 and 64*4 = 256."
			],
			"mathematica": [
				"f[p_, e_] := p^Mod[4 - e, 4]; a[n_] := Times @@ (f @@@ FactorInteger[n]); Array[a, 100] (* _Amiram Eldar_, Sep 08 2020 *)"
			],
			"program": [
				"(PARI) a(n,f=factor(n))=f[,2]=-f[,2]%4; factorback(f) \\\\ _Charles R Greathouse IV_, Apr 24 2020"
			],
			"xref": [
				"Cf. A000190, A008835, A048798, A053164, A053165, A053166, A053167, A056554."
			],
			"keyword": "nonn,mult",
			"offset": "1,2",
			"author": "_Henry Bottomley_, Jun 25 2000",
			"references": 4,
			"revision": 16,
			"time": "2020-09-08T04:38:31-04:00",
			"created": "2000-07-22T03:00:00-04:00"
		}
	]
}