{
	"greeting": "Greetings from The On-Line Encyclopedia of Integer Sequences! http://oeis.org/",
	"query": "id:A057235",
	"count": 1,
	"start": 0,
	"results": [
		{
			"number": 57235,
			"data": "1,3,5,9,15,25,27,45,75,81,125,135,225,243,265,375,405,625,675,729,765,1005,1125,1143,1215,1875,2025,2125,2151,2187,2403,3125,3375,3645,5427,5625,6075,6561,9375,10125,10935,13095,15625,16875,17145,18225,19683",
			"name": "Numbers n such that n | 6^n + 5^n + 4^n.",
			"mathematica": [
				"Select[ Range[ 10^6 ], Mod[ PowerMod[ 6, #, # ] + PowerMod[ 5, #, # ] + PowerMod[ 4, #, # ], # ] == 0 \u0026 ]"
			],
			"keyword": "nonn",
			"offset": "1,2",
			"author": "_Robert G. Wilson v_, Sep 20 2000",
			"references": 0,
			"revision": 3,
			"time": "2012-03-30T17:30:26-04:00",
			"created": "2003-05-16T03:00:00-04:00"
		}
	]
}