{
	"greeting": "Greetings from The On-Line Encyclopedia of Integer Sequences! http://oeis.org/",
	"query": "id:A057629",
	"count": 1,
	"start": 0,
	"results": [
		{
			"number": 57629,
			"data": "2,8,52,568,10436,323144,16866856,1484714416,220426128584",
			"name": "Number of alternating sign 2n X 2n matrices invariant under flips in both diagonals.",
			"link": [
				"D. P. Robbins, \u003ca href=\"https://arxiv.org/abs/math/0008045\"\u003eSymmetry classes of alternating sign matrices\u003c/a\u003e, arXiv:math/0008045 [math.CO], 2000."
			],
			"formula": [
				"a(n) = A005162(2*n)."
			],
			"xref": [
				"Even numbered terms of A005162.",
				"Cf. A059475"
			],
			"keyword": "nonn,more,nice",
			"offset": "1,1",
			"author": "_N. J. A. Sloane_, Oct 10 2000",
			"ext": [
				"a(8)-a(9) from A005162(2*n) by _Jinyuan Wang_, Mar 03 2020"
			],
			"references": 0,
			"revision": 17,
			"time": "2020-03-04T10:04:22-05:00",
			"created": "2003-05-16T03:00:00-04:00"
		}
	]
}