{
	"greeting": "Greetings from The On-Line Encyclopedia of Integer Sequences! http://oeis.org/",
	"query": "id:A057985",
	"count": 1,
	"start": 0,
	"results": [
		{
			"number": 57985,
			"data": "0,1,1,2,1,2,0,1,2,0,0,1,1,2,0,0,1,0,1,1,2,1,2,0,0,1,0,1,1,2,0,1,1,2,1,2,0,1,2,0,0,1,0,1,1,2,0,1,1,2,1,2,0,0,1,1,2,1,2,0,1,2,0,0,1,1,2,0,0,1,0,1,1,2,0,1,1,2,1,2,0,0,1,1,2,1,2,0,1,2,0,0,1,0,1,1",
			"name": "Start with 0 and repeatedly substitute: 0-\u003e01, 1-\u003e12, 2-\u003e0.",
			"comment": [
				"This is the fixed point of the morphism 0-\u003e01, 1-\u003e12, 2-\u003e0 starting with 0. Let u be the sequence of positions of 0, and likewise, v for 1 and w for 2.  Let U, V, W be the limits of u(n)/n, v(n)/n, w(n)/n, respectively.  Then 1/U + 1/V + 1/W = 1, where U = 3.079595623491438786010417..., V = 2.324717957244746025960908..., W = U + 1.  If n \u003e=2, then u(n) - u(n-1) is in {1,2,3,4,6}, v(n) - v(n-1) is in {1,2,3,4}, and w(n) - w(n-1) is in {2,3,4,5,7}.  For n \u003e= 1, the number of terms resulting from n iterations of the morphism is A005251(n+2). - _Clark Kimberling_, May 20 2017."
			],
			"link": [
				"Clark Kimberling, \u003ca href=\"/A057985/b057985.txt\"\u003eTable of n, a(n) for n = 1..10000\u003c/a\u003e",
				"\u003ca href=\"/index/Fi#FIXEDPOINTS\"\u003eIndex entries for sequences that are fixed points of mappings\u003c/a\u003e"
			],
			"mathematica": [
				"t = Nest[Flatten[# /. {0 -\u003e {0, 1}, 1 -\u003e {1, 2}, 2 -\u003e {0}}] \u0026, {0}, 10] (* A057985 *)",
				"Flatten[Position[t, 0]] (* A057986 *)",
				"Flatten[Position[t, 1]] (* A057987 *)",
				"Flatten[Position[t, 2]] (* A057988 *)",
				"(* _Clark Kimberling_, May 13 2013 *)"
			],
			"xref": [
				"Cf. A287066 (initial term 1 instead of 0)."
			],
			"keyword": "nonn",
			"offset": "1,4",
			"author": "_Clark Kimberling_, Oct 30 2000",
			"references": 9,
			"revision": 21,
			"time": "2019-10-14T00:10:23-04:00",
			"created": "2003-05-16T03:00:00-04:00"
		}
	]
}