{
	"greeting": "Greetings from The On-Line Encyclopedia of Integer Sequences! http://oeis.org/",
	"query": "id:A057921",
	"count": 1,
	"start": 0,
	"results": [
		{
			"number": 57921,
			"data": "2,6,10,12,14,18,21,22,26,28,30,33,34,38,40,42,44,46,52,54,56,57,58,60,66,70,72,75,78,80,82,84,85,86,88,90,93,94,96,98,102,104,105,106,108,110,112,114,116,118,122,126,128,130,132,133,135,136,138,140,141,142",
			"name": "d(n+1) divides d(n), where d(n) is number of positive divisors of n.",
			"link": [
				"Ivan Neretin, \u003ca href=\"/A057921/b057921.txt\"\u003eTable of n, a(n) for n = 0..10000\u003c/a\u003e"
			],
			"example": [
				"10 is included because d(11) = 2 divides d(10) = 4."
			],
			"mathematica": [
				"Select[Range@150, Divisible @@ DivisorSigma[0, {#, # + 1}] \u0026] (* _Ivan Neretin_, May 29 2015 *)"
			],
			"xref": [
				"Cf. A057922, A005237."
			],
			"keyword": "nonn",
			"offset": "0,1",
			"author": "_Leroy Quet_, Nov 11 2000",
			"references": 4,
			"revision": 9,
			"time": "2015-05-29T15:13:16-04:00",
			"created": "2003-05-16T03:00:00-04:00"
		}
	]
}