{
	"greeting": "Greetings from The On-Line Encyclopedia of Integer Sequences! http://oeis.org/",
	"query": "id:A057125",
	"count": 1,
	"start": 0,
	"results": [
		{
			"number": 57125,
			"data": "1,2,3,6,11,13,22,23,26,33,37,39,46,47,59,61,66,69,71,73,74,78,83,94,97,107,109,111,118,121,122,131,138,141,142,143,146,157,166,167,169,177,179,181,183,191,193,194,213,214,218,219,222,227,229,239,241,242",
			"name": "Numbers n such that 3 is a square mod n.",
			"comment": [
				"Numbers that are not multiples of 4 or 9 and for which all prime factors greater than 3 are congruent to +/- 1 mod 12. - _Eric M. Schmidt_, Apr 21 2013"
			],
			"link": [
				"T. D. Noe, \u003ca href=\"/A057125/b057125.txt\"\u003eTable of n, a(n) for n=1..1000\u003c/a\u003e"
			],
			"example": [
				"3^2==3 (mod 6), so 6 is a member."
			],
			"maple": [
				"# Beware: Since 2007 at least and up to Maple 16 at least, the following Maple code returns the wrong answer for n = 6:",
				"with(numtheory): [seq(`if`(mroot(3,2,n)=FAIL,NULL,n), n=1..400)];",
				"# second Maple program:",
				"with(numtheory): mroot(3, 2, 6):=3:",
				"a:= proc(n) option remember; local m;",
				"      for m from 1+`if`(n=1, 0, a(n-1))",
				"      while mroot(3, 2, m)=FAIL do od; m",
				"    end:",
				"seq(a(n), n=1..80);  # _Alois P. Heinz_, Feb 24 2017"
			],
			"mathematica": [
				"Prepend[ Select[ Range[300], Reduce[Mod[3 - k^2, #] == 0, k, Integers] =!= False \u0026], 1]  (* _Jean-François Alcover_, Sep 20 2012 *)"
			],
			"program": [
				"(PARI) isok(n) = issquare(Mod(3,n)); \\\\ _Michel Marcus_, Feb 19 2016",
				"(MAGMA) [n: n in [1..300] | exists(t){x : x in ResidueClassRing(n) | x^2 eq 3}]; // _Vincenzo Librandi_, Feb 20 2016"
			],
			"xref": [
				"Includes the primes in A038874 and these (primes congruent to {1, 2, 3, 11} mod 12) are the prime factors of the terms in this sequence. Cf. A008784, A057126, A057127, A057128, A057129.",
				"Cf. A057759."
			],
			"keyword": "nonn",
			"offset": "1,2",
			"author": "_Henry Bottomley_, Aug 10 2000",
			"ext": [
				"Edited by _N. J. A. Sloane_, Oct 25 2008 at the suggestion of _R. J. Mathar_."
			],
			"references": 12,
			"revision": 25,
			"time": "2017-02-24T19:35:02-05:00",
			"created": "2003-05-16T03:00:00-04:00"
		}
	]
}