{
	"greeting": "Greetings from The On-Line Encyclopedia of Integer Sequences! http://oeis.org/",
	"query": "id:A057811",
	"count": 1,
	"start": 0,
	"results": [
		{
			"number": 57811,
			"data": "1,3,4,7,8,9,10,13,14,15,16,19,20,21,22,29,30,37,38,39,40,43,44,45,46,53,54,55,56,57,58,61,62,63,64,65,66,71,72,79,80,81,82,89,90,91,92,93,94,95,96,101,102,107,108,113,114,115,116,117,118,119",
			"name": "pi(n) is even.",
			"link": [
				"Charles R Greathouse IV, \u003ca href=\"/A057811/b057811.txt\"\u003eTable of n, a(n) for n = 1..10000\u003c/a\u003e",
				"Ping Ngai Chung and Shiyu Li, \u003ca href=\"http://www.emis.de/journals/INTEGERS/papers/n79/n79.Abstract.html\"\u003e On the residue classes of π(n) modulo t\u003c/a\u003e, INTEGERS: Electronic Journal of Combinatorial Number Theory 13 (2013), A79."
			],
			"formula": [
				"Chang \u0026 Li show that a(n) \u003c 64n + o(1), and a(n) \u003c 8n + o(1) under the Hardy-Littlewood prime tuples conjecture. - _Charles R Greathouse IV_, Dec 19 2014"
			],
			"program": [
				"(PARI) is(n)=primepi(n)%2==0 \\\\ _Charles R Greathouse IV_, Dec 19 2014"
			],
			"xref": [
				"Cf. A000720, A057812."
			],
			"keyword": "nonn",
			"offset": "1,2",
			"author": "_N. J. A. Sloane_, Nov 07 2000",
			"references": 2,
			"revision": 5,
			"time": "2014-12-19T02:37:26-05:00",
			"created": "2003-05-16T03:00:00-04:00"
		}
	]
}