{
	"greeting": "Greetings from The On-Line Encyclopedia of Integer Sequences! http://oeis.org/",
	"query": "id:A057444",
	"count": 1,
	"start": 0,
	"results": [
		{
			"number": 57444,
			"data": "18,45,234,261,1530,10413,7605,1746,71298,7794,488610,257085,11925,3348909,338949,22953690,8732061,1687626,340245,81693,157326858,264618,1078334253,296631765,1694970,75533706,15802146,559890,7391012850,376282629,15811029,10076746725",
			"name": "For the numbers k that can be expressed as k = w + x = y*z with w*x = y^2 + z^2 where w, x, y, and z are all positive integers, this sequence gives the corresponding values of w*x.",
			"xref": [
				"Cf. A057373."
			],
			"keyword": "nonn",
			"offset": "1,1",
			"author": "_Naohiro Nomoto_, Sep 24 2000",
			"ext": [
				"New name and more terms from _Jinyuan Wang_, May 02 2021"
			],
			"references": 1,
			"revision": 10,
			"time": "2021-05-03T09:51:00-04:00",
			"created": "2003-05-16T03:00:00-04:00"
		}
	]
}