{
	"greeting": "Greetings from The On-Line Encyclopedia of Integer Sequences! http://oeis.org/",
	"query": "id:A057454",
	"count": 1,
	"start": 0,
	"results": [
		{
			"number": 57454,
			"data": "46,84,136,144,184,196,210,220,226,234,238,280,306,324,364,460,480,486,498,540,550,558,574,586,610,684,786,796,798,820,876,924,936,964,966,976,1018,1024,1060,1108,1144,1170,1174,1216,1230,1240,1246,1386,1470",
			"name": "n*M31 + 1 is prime, where M31 = 2^31 - 1.",
			"mathematica": [
				"Select[ Range[ 0, 5000, 2 ], PrimeQ[ #(2^31 - 1) + 1 ] \u0026 ]"
			],
			"keyword": "nonn",
			"offset": "1,1",
			"author": "_Robert G. Wilson v_, Sep 08 2000",
			"references": 0,
			"revision": 2,
			"time": "2012-03-30T17:30:27-04:00",
			"created": "2003-05-16T03:00:00-04:00"
		}
	]
}