{
	"greeting": "Greetings from The On-Line Encyclopedia of Integer Sequences! http://oeis.org/",
	"query": "id:A057569",
	"count": 1,
	"start": 0,
	"results": [
		{
			"number": 57569,
			"data": "0,2,3,9,11,21,24,38,42,60,65,87,93,119,126,156,164,198,207,245,255,297,308,354,366,416,429,483,497,555,570,632,648,714,731,801,819,893,912,990,1010,1092,1113,1199,1221,1311,1334,1428,1452,1550",
			"name": "Numbers of the form k*(5*k+1)/2 or k*(5*k-1)/2.",
			"comment": [
				"a(n) is the set of all m such that 40*m+1 is a perfect square. - _Gary Detlefs_, Feb 22 2010",
				"Integers of the form (n^2 - n) / 10. Numbers of the form  n * (5*n - 1) / 2 where n is an integer. - _Michael Somos_, Jan 13 2012",
				"Also integers of the form sum_{k=1..n} k/5. - _Alonso del Arte_, Jan 20 2012",
				"These numbers appear in a theta function identity. See the Hardy-Wright reference, Theorem 356 on p. 284. See the G.f. of A113428. - _Wolfdieter Lang_, Oct 28 2016"
			],
			"reference": [
				"G. H. Hardy and E. M. Wright, An Introduction to the Theory of Numbers, Fifth ed., Clarendon Press, Oxford, 2003, p. 284."
			],
			"link": [
				"G. C. Greubel, \u003ca href=\"/A057569/b057569.txt\"\u003eTable of n, a(n) for n = 1..5000\u003c/a\u003e",
				"\u003ca href=\"/index/Rec#order_05\"\u003eIndex entries for linear recurrences with constant coefficients\u003c/a\u003e, signature (1,2,-2,-1,1)."
			],
			"formula": [
				"A005475 UNION A005476. G.f.: x^2*(2x^2+x+2)/((1-x)^3*(1+x)^2). a(n) = A132356(n+1)/4. - _R. J. Mathar_, Apr 07 2008",
				"a(n) = (A090771(n)^2 -1)/40. - _Gary Detlefs_, Feb 22 2010",
				"|A113428(n)| is the characteristic function of the numbers a(n).",
				"a(n) = a(1 - n) for all n in Z. - _Michael Somos_, Jan 13 2012",
				"From _Colin Barker_, Jun 13 2017: (Start)",
				"a(n) = n*(5*n - 2)/8 for n even.",
				"a(n) = (5*n - 3)*(n - 1)/8 for n odd.",
				"a(n) = a(n-1) + 2*a(n-2) - 2*a(n-3) - a(n-4) + a(n-5) for n\u003e5.",
				"(End)"
			],
			"mathematica": [
				"Select[Table[Plus@@Range[n]/5, {n, 0, 199}], IntegerQ] (* _Alonso del Arte_, Jan 20 2012 *)",
				"LinearRecurrence[{1,2,-2,-1,1},{0,2,3,9,11},50] (* _Harvey P. Dale_, Jul 05 2021 *)"
			],
			"program": [
				"(PARI) {a(n) = (10 * (n^2 - n) + 12 * (-1)^n * (n\\2)) / 16}; \\\\ _Michael Somos_, Jan 13 2012",
				"(PARI) Vec(x^2*(2*x^2+x+2) / ((1-x)^3*(1+x)^2) + O(x^60)) \\\\ _Colin Barker_, Jun 13 2017",
				"(MAGMA) [(10*(n^2-n)+12*(-1)^n*(n div 2))/16: n in [1..60]]; // _Vincenzo Librandi_, Oct 29 2016"
			],
			"xref": [
				"Cf. A074378, A001318, A057570, A154260. - _Vladimir Joseph Stephan Orlovsky_, Jan 06 2009",
				"Cf. A113428."
			],
			"keyword": "nonn,easy",
			"offset": "1,2",
			"author": "_N. J. A. Sloane_, Oct 04 2000",
			"references": 15,
			"revision": 46,
			"time": "2021-07-05T13:33:04-04:00",
			"created": "2003-05-16T03:00:00-04:00"
		}
	]
}