{
	"greeting": "Greetings from The On-Line Encyclopedia of Integer Sequences! http://oeis.org/",
	"query": "id:A057733",
	"count": 1,
	"start": 0,
	"results": [
		{
			"number": 57733,
			"data": "5,7,11,19,67,131,4099,32771,65539,262147,268435459,1073741827,36028797018963971,147573952589676412931,19342813113834066795298819,431359146674410236714672241392314090778194310760649159697657763987459",
			"name": "Primes of the form 2^n + 3.",
			"link": [
				"Robert Israel, \u003ca href=\"/A057733/b057733.txt\"\u003eTable of n, a(n) for n = 1..25\u003c/a\u003e"
			],
			"maple": [
				"for n from 1 to 2000 do `if`(isprime(2^n + 3)=true, 2^n + 3, NULL) od;",
				"# alternative:",
				"select(isprime, [seq(2^n+3,n=1..2000)]); # _Robert Israel_, Dec 28 2015"
			],
			"mathematica": [
				"Select[Table[2^n + 3, {n, 230}], PrimeQ] (* _Jayanta Basu_, May 23 2013 *)"
			],
			"program": [
				"(MAGMA) [ a: n in [0..250] | IsPrime(a) where a is 2^n+3 ] // _Vincenzo Librandi_, Aug 07 2010",
				"(PARI) for(n=1,99,if(ispseudoprime(t=2^n+3),print1(t\", \"))) \\\\ _Charles R Greathouse IV_, Jul 02 2013"
			],
			"xref": [
				"Cf. A057732."
			],
			"keyword": "nonn",
			"offset": "1,1",
			"author": "_G. L. Honaker, Jr._, Oct 29 2000",
			"ext": [
				"More terms from Francois Jooste (pin(AT)myway.com), Mar 17 2003"
			],
			"references": 33,
			"revision": 24,
			"time": "2017-08-30T05:19:20-04:00",
			"created": "2003-05-16T03:00:00-04:00"
		}
	]
}