{
	"greeting": "Greetings from The On-Line Encyclopedia of Integer Sequences! http://oeis.org/",
	"query": "id:A057037",
	"count": 1,
	"start": 0,
	"results": [
		{
			"number": 57037,
			"data": "1,1,2,4,2,5,3,1,5,3,1,6,4,2,8,6,4,2,9,7,5,3,1,9,7,5,3,1,10,8,6,4,2,12,10,8,6,4,2,13,11,9,7,5,3,1,13,11,9,7,5,3,1,14,12,10,8,6,4,2,16,14,12,10,8,6,4,2,17,15,13,11,9,7,5,3,1,17,15,13",
			"name": "Let R(i,j) be the rectangle with antidiagonals 1; 2,3; 4,5,6; ...; each k is an R(i(k),j(k)) and A057037(n)=j(2n-1).",
			"comment": [
				"i(2n-1)=A057036(n)."
			],
			"keyword": "nonn",
			"offset": "1,3",
			"author": "_Clark Kimberling_, Jul 30 2000",
			"references": 2,
			"revision": 4,
			"time": "2012-03-30T18:57:04-04:00",
			"created": "2003-05-16T03:00:00-04:00"
		}
	]
}