{
	"greeting": "Greetings from The On-Line Encyclopedia of Integer Sequences! http://oeis.org/",
	"query": "id:A057224",
	"count": 1,
	"start": 0,
	"results": [
		{
			"number": 57224,
			"data": "1,2,3,4,5,6,13,17",
			"name": "Numbers n such that (Product of first n Mersenne prime exponents) + 1 is prime.",
			"program": [
				"lista(v) = {for (n=1, #v, if (isprime(prod(k=1, n, v[k]) + 1), print1(n, \", \")););} \\\\ with v=A000043; _Michel Marcus_, Jan 07 2014"
			],
			"xref": [
				"Cf. A000043, A057225."
			],
			"keyword": "nonn",
			"offset": "1,2",
			"author": "_G. L. Honaker, Jr._, Sep 18 2000",
			"references": 1,
			"revision": 11,
			"time": "2014-01-07T03:46:56-05:00",
			"created": "2003-05-16T03:00:00-04:00"
		}
	]
}