{
	"greeting": "Greetings from The On-Line Encyclopedia of Integer Sequences! http://oeis.org/",
	"query": "id:A057428",
	"count": 1,
	"start": 0,
	"results": [
		{
			"number": 57428,
			"data": "0,-1,-1,-1,-1,-1,-1,-1,-1,-1,-1,-1,-1,-1,-1,-1,-1,-1,-1,-1,-1,-1,-1,-1,-1,-1,-1,-1,-1,-1,-1,-1,-1,-1,-1,-1,-1,-1,-1,-1,-1,-1,-1,-1,-1,-1,-1,-1,-1,-1,-1,-1,-1,-1,-1,-1,-1,-1,-1,-1,-1,-1,-1,-1,-1,-1,-1,-1,-1,-1,-1,-1,-1,-1,-1,-1,-1,-1,-1,-1,-1,-1,-1,-1",
			"name": "Sign(-n): a(n) = 1 if -n \u003e 0, = -1 if -n \u003c 0, = 0 if n = 0.",
			"link": [
				"\u003ca href=\"/index/Rec#order_01\"\u003eIndex entries for linear recurrences with constant coefficients\u003c/a\u003e, signature (1)."
			],
			"formula": [
				"G.f.: -x/(1-x). a(n) = -A057427(n).",
				"a(n)=-[(n+2) mod (n+1)], with n\u003e=0. - _Paolo P. Lava_, Aug 28 2007"
			],
			"mathematica": [
				"Table[Sign[-n], {n, 0, 80}] (* _Arkadiusz Wesolowski_, Sep 16 2012 *)"
			],
			"xref": [
				"First differences of A001489."
			],
			"keyword": "easy,sign",
			"offset": "0,1",
			"author": "_Henry Bottomley_, Sep 05 2000",
			"references": 4,
			"revision": 13,
			"time": "2017-03-26T12:58:06-04:00",
			"created": "2003-05-16T03:00:00-04:00"
		}
	]
}