{
	"greeting": "Greetings from The On-Line Encyclopedia of Integer Sequences! http://oeis.org/",
	"query": "id:A057587",
	"count": 1,
	"start": 0,
	"results": [
		{
			"number": 57587,
			"data": "0,1,3,5,12,15,30,34,60,65,105,111,168,175,252,260,360,369,495,505,660,671,858,870,1092,1105,1365,1379,1680,1695,2040,2056,2448,2465,2907,2925,3420,3439,3990,4010,4620,4641,5313,5335,6072,6095,6900,6924,7800",
			"name": "Nonnegative numbers of form n*(n^2+-1)/2.",
			"comment": [
				"Taking alternate terms gives A027480 and A006003. - _Jeremy Gardiner_, Apr 10 2005"
			],
			"link": [
				"Colin Barker, \u003ca href=\"/A057587/b057587.txt\"\u003eTable of n, a(n) for n = 0..1000\u003c/a\u003e",
				"\u003ca href=\"/index/Rec#order_07\"\u003eIndex entries for linear recurrences with constant coefficients\u003c/a\u003e, signature (1,3,-3,-3,3,1,-1)."
			],
			"formula": [
				"a(n) = (2*n^3+9*n^2+15*n+5+(3*n^2+n-5)*(-1)^n)/32. - _Luce ETIENNE_, Nov 18 2014",
				"From _Wesley Ivan Hurt_, Mar 27 2015: (Start)",
				"G.f.: x*(1 + 2 x - x^2 + x^3)/((x - 1)^4*(x + 1)^3).",
				"a(n) = a(n-1)+3*a(n-2)-3*a(n-3)-3*a(n-4)+3*a(n-5)+a(n-6)-a(n-7). (End)"
			],
			"maple": [
				"A057587:=n-\u003e(2*n^3+9*n^2+15*n+5+(3*n^2+n-5)*(-1)^n)/32: seq(A057587(n), n=0..50); # _Wesley Ivan Hurt_, Mar 27 2015"
			],
			"mathematica": [
				"CoefficientList[Series[x*(1 + 2 x - x^2 + x^3)/((x - 1)^4*(x + 1)^3), {x, 0, 50}], x] (* _Wesley Ivan Hurt_, Mar 27 2015 *)",
				"Table[(2 n^3 + 9 n^2 + 15 n + 5 + (3 n^2 + n - 5) (-1)^n) / 32, {n, 0, 50}] (* _Vincenzo Librandi_, Mar 28 2015 *)"
			],
			"program": [
				"(PARI) concat(0, Vec(x*(x^3-x^2+2*x+1)/((x-1)^4*(x+1)^3) + O(x^100))) \\\\ _Colin Barker_, Nov 18 2014",
				"(MAGMA) [(2*n^3+9*n^2+15*n+5+(3*n^2+n-5)*(-1)^n)/32 : n in [0..50]]; // _Wesley Ivan Hurt_, Mar 27 2015"
			],
			"xref": [
				"Cf. A027480, A006003."
			],
			"keyword": "nonn,easy",
			"offset": "0,3",
			"author": "_N. J. A. Sloane_, Oct 05 2000",
			"references": 3,
			"revision": 20,
			"time": "2015-06-13T00:50:18-04:00",
			"created": "2003-05-16T03:00:00-04:00"
		}
	]
}