{
	"greeting": "Greetings from The On-Line Encyclopedia of Integer Sequences! http://oeis.org/",
	"query": "id:A057269",
	"count": 1,
	"start": 0,
	"results": [
		{
			"number": 57269,
			"data": "1,3,9,531441",
			"name": "a(n-1)+k=a(n) =\u003e a(n)^k=a(n+1).",
			"comment": [
				"For +k and *k see A057268."
			],
			"xref": [
				"Cf. A057268."
			],
			"keyword": "easy,nonn",
			"offset": "0,2",
			"author": "_Jonas Wallgren_, Aug 22 2000",
			"references": 1,
			"revision": 2,
			"time": "2014-05-20T14:52:31-04:00",
			"created": "2003-05-16T03:00:00-04:00"
		}
	]
}