{
	"greeting": "Greetings from The On-Line Encyclopedia of Integer Sequences! http://oeis.org/",
	"query": "id:A057894",
	"count": 1,
	"start": 0,
	"results": [
		{
			"number": 57894,
			"data": "2,5,6,7,9,13,15,17,23,27,29,31,33,39,43,47,51,53,55,57,61,71,77,79,83,87,89,91,99,101,107,109,115,117,121,127,129,139,141,147,149,151,167,169,173,181,185,191,197,199,201,203,205,209,213,223,227,233,239,241",
			"name": "Negabinary numbral \"primes\".",
			"comment": [
				"\"Primes\" have no other distinct divisors, up to multiplication by units. (Units are [1]=1 and [3]=-1.)"
			],
			"example": [
				"[2]=-2, [5]=5, [6]=2, [7]=3, [9]=-7, [13]=-3, etc"
			],
			"xref": [
				"A005351, A005352, A057892, A057893."
			],
			"keyword": "easy,nonn",
			"offset": "0,1",
			"author": "_Marc LeBrun_, Sep 25 2000",
			"references": 2,
			"revision": 2,
			"time": "2012-03-30T17:38:10-04:00",
			"created": "2003-05-16T03:00:00-04:00"
		}
	]
}