{
	"greeting": "Greetings from The On-Line Encyclopedia of Integer Sequences! http://oeis.org/",
	"query": "id:A058409",
	"count": 1,
	"start": 0,
	"results": [
		{
			"number": 58409,
			"data": "1,3,18,92,458,1982,7928,28592,95138,292993,845027,2295322,5915631,14535676,34224682,77510148,169459010,358698558,737106306,1473867060,2873564862,5472731212,10198198452,18621343624,33361303957,58713103696",
			"name": "Number of 4 X n nonnegative integer matrices with all column sums 3, up to row and column permutation.",
			"link": [
				"Vladeta Jovovic, \u003ca href=\"/A058407/a058407.pdf\"\u003eNumber of m x l nonnegative integer matrices with all column sums equal to n, up to row and column permutation\u003c/a\u003e"
			],
			"formula": [
				"G.f.: 1 / 24*(1 / (1 - x)^20 + 6 / (1 - x)^6 / (1 - x^2)^7 + 3 / (1 - x^2)^10 + 8 / (1 - x)^2 / (1 - x^3)^6 + 6 / (1 - x^4)^5)."
			],
			"xref": [
				"Cf. A050532, A058390, A058407, A058408, A058410."
			],
			"keyword": "easy,nonn",
			"offset": "0,2",
			"author": "_Vladeta Jovovic_, Nov 25 2000",
			"ext": [
				"More terms from _Max Alekseyev_, Jun 21 2011"
			],
			"references": 2,
			"revision": 10,
			"time": "2013-05-10T12:44:33-04:00",
			"created": "2003-05-16T03:00:00-04:00"
		}
	]
}