{
	"greeting": "Greetings from The On-Line Encyclopedia of Integer Sequences! http://oeis.org/",
	"query": "id:A058163",
	"count": 1,
	"start": 0,
	"results": [
		{
			"number": 58163,
			"data": "1,1,1,4,6,80,120,2760,7560,108864,362880,21621600,39916800,1186099200,10897286400,647091244800,1307674368000,103742166528000,355687428096000,32438693442355200,260668072304640000,5573557327822848000,51090942171709440000",
			"name": "Number of labeled groups with a fixed identity.",
			"link": [
				"Stephen A. Silver, \u003ca href=\"/A058163/b058163.txt\"\u003eTable of n, a(n) for n = 1..255\u003c/a\u003e",
				"\u003ca href=\"/index/Gre#groups\"\u003eIndex entries for sequences related to groups\u003c/a\u003e"
			],
			"formula": [
				"a(n) = A034383(n)/n."
			],
			"program": [
				"(GAP) A058163 := function(n) local fn1, sum, k; fn1 := Factorial(n-1); sum := 0; for k in [1 .. NrSmallGroups(n)] do sum := sum + fn1 / Size(AutomorphismGroup(SmallGroup(n,k))); od; return sum; end; # _Stephen A. Silver_, Feb 10 2013"
			],
			"xref": [
				"Cf. A000688, A034383, A058158, A058162, A058163."
			],
			"keyword": "nonn",
			"offset": "1,4",
			"author": "_Christian G. Bower_, Nov 15 2000",
			"ext": [
				"More terms from _Stephen A. Silver_, Feb 10 2013"
			],
			"references": 7,
			"revision": 13,
			"time": "2021-07-15T19:01:32-04:00",
			"created": "2003-05-16T03:00:00-04:00"
		}
	]
}