{
	"greeting": "Greetings from The On-Line Encyclopedia of Integer Sequences! http://oeis.org/",
	"query": "id:A058455",
	"count": 1,
	"start": 0,
	"results": [
		{
			"number": 58455,
			"data": "3,283,301345331969667",
			"name": "Numbers k such that k^2 contains only digits {0,8,9}, not ending with zero.",
			"link": [
				"P. De Geest, \u003ca href=\"http://www.worldofnumbers.com/threedigits.htm\"\u003eIndex to related sequences\u003c/a\u003e",
				"Hisanori Mishima, \u003ca href=\"http://www.asahi-net.or.jp/~KC2H-MSM/mathland/math02/math0210.htm#089\"\u003eSporadic tridigital solutions\u003c/a\u003e"
			],
			"xref": [
				"Cf. A058456."
			],
			"keyword": "nonn,base,hard,more,bref",
			"offset": "1,1",
			"author": "_Patrick De Geest_, Nov 15 2000",
			"references": 1,
			"revision": 6,
			"time": "2019-10-18T22:16:30-04:00",
			"created": "2003-05-16T03:00:00-04:00"
		}
	]
}