{
	"greeting": "Greetings from The On-Line Encyclopedia of Integer Sequences! http://oeis.org/",
	"query": "id:A058226",
	"count": 1,
	"start": 0,
	"results": [
		{
			"number": 58226,
			"data": "1,2,3,4,5,6,7,8,9,10,11,12,14,15,18,20,21,23,24,31,34,36,37,39,40,43,45,53,54,57,59,61,69,72,73,77,78,81,85,89,91,121,127,144,166,169,211,219,231,239,257,267,271,331,337,353,361,413,481,523,571,661,721,1093,1291,3097",
			"name": "Panconsummate numbers (consummate in all bases \u003e=2).",
			"comment": [
				"No more terms \u003c= 358000 and probably the list shown is complete.",
				"Next term \u003e= 10^6. - _Giovanni Resta_, Jan 05 2014"
			],
			"xref": [
				"Complement of A058225."
			],
			"keyword": "nonn,nice",
			"offset": "1,2",
			"author": "_David W. Wilson_, Jan 17 2001",
			"references": 1,
			"revision": 11,
			"time": "2021-11-19T17:00:12-05:00",
			"created": "2003-05-16T03:00:00-04:00"
		}
	]
}