{
	"greeting": "Greetings from The On-Line Encyclopedia of Integer Sequences! http://oeis.org/",
	"query": "id:A058067",
	"count": 1,
	"start": 0,
	"results": [
		{
			"number": 58067,
			"data": "1,1,4,27,64,3125,108,823543,1024,19683,12500,285311670611,1728,302875106592253,3294172,84375,65536,827240261886336764177,78732,1978419655660313589123979,200000,22235661,1141246682444,20880467999847912034355032910567",
			"name": "Number of polynomial functions from Z to Z/nZ.",
			"comment": [
				"The first formula for a(n) is due to Kempner (1921). - _Jonathan Sondow_, Nov 05 2017"
			],
			"link": [
				"Amiram Eldar, \u003ca href=\"/A058067/b058067.txt\"\u003eTable of n, a(n) for n = 0..388\u003c/a\u003e",
				"Manjul Bhargava, \u003ca href=\"http://dx.doi.org/10.2307/2695734\"\u003eThe factorial function and generalizations\u003c/a\u003e, Amer. Math. Monthly, Vol. 107, No. 9 (Nov. 2000), pp. 783-799; \u003ca href=\"https://www.jstor.org/stable/2695734\"\u003ealternative link\u003c/a\u003e,",
				"Aubrey J. Kempner, \u003ca href=\"https://doi.org/10.1090/S0002-9947-1921-1501173-4\"\u003ePolynomials and their residue systems\u003c/a\u003e, \u003ca href=\"https://doi.org/10.1090/S0002-9947-1921-1501174-6\"\u003econtinued\u003c/a\u003e, Amer. Math. Soc. Trans., Vol. 22 (1921), pp. 240-288.",
				"David Singmaster, \u003ca href=\"https://doi.org/10.1016/0022-314X(74)90031-6\"\u003eOn polynomial functions (mod m)\u003c/a\u003e, Journal of Number Theory, Volume 6, Issue 5, October 1974, pp. 345-352."
			],
			"formula": [
				"a(n) = Product_{k=0..n-1} n/gcd(n, k!).",
				"Multiplicative with a(p^e) = p^t_p(e). - _David W. Wilson_, Aug 14 2005 [t_p(e) = Sum_{k\u003e=0: e \u003e A090622(k, p)} (e - A090622(k, p)) = p * Sum_{k = 1..e} max(0, k - A090622(e-k, p)). In particular, t_p(e) = p*e*(e+1)/2 for e \u003c= p. - _Andrey Zabolotskiy_, Nov 09 2017 and Sep 29 2020]",
				"a(prime(n)) = A051674(n). - _R. J. Mathar_, Apr 01 2014 [Edited by _Andrey Zabolotskiy_, Nov 08 2017]",
				"a(n) = n^n / A240098(n). - _Jonathan Sondow_, Nov 10 2017"
			],
			"maple": [
				"A058067 := n-\u003emul(n/gcd(n,k!),k=0..n-1);"
			],
			"mathematica": [
				"a[0] = 1; a[n_] := Product[n/GCD[n, k!], {k, 0, n - 1}]; Array[a, 24, 0] (* _Amiram Eldar_, Sep 29 2020 *)"
			],
			"program": [
				"(PARI) a(n) = prod(k=0, n-1, n/gcd(n, k!)); \\\\ _Michel Marcus_, Nov 06 2017"
			],
			"xref": [
				"Cf. A051674, A090622, A240098."
			],
			"keyword": "nonn,mult,easy",
			"offset": "0,3",
			"author": "_N. J. A. Sloane_, Nov 24 2000",
			"references": 3,
			"revision": 48,
			"time": "2021-06-06T02:56:28-04:00",
			"created": "2003-05-16T03:00:00-04:00"
		}
	]
}