{
	"greeting": "Greetings from The On-Line Encyclopedia of Integer Sequences! http://oeis.org/",
	"query": "id:A058044",
	"count": 1,
	"start": 0,
	"results": [
		{
			"number": 58044,
			"data": "2,2,12,2,18,48,46,80,102,74,120,72,136,174,132,168,198,190,230,176,234,286,102,354,364,336,278,486,442,386,408,1032,520,308,364,612,478,432,382,422,606,526,1344,606,1230,834,624,756,550",
			"name": "Difference between the smallest prime following and largest prime preceding n-th primorial number.",
			"link": [
				"Alois P. Heinz, \u003ca href=\"/A058044/b058044.txt\"\u003eTable of n, a(n) for n = 2..100\u003c/a\u003e"
			],
			"formula": [
				"a(n) = A038710(n)-A007014(n)."
			],
			"maple": [
				"[seq(nextprime(product(ithprime(k), k=1..w))-prevprime (product(ithprime(k), k=1..w)), w=2..50)];"
			],
			"mathematica": [
				"Rest[NextPrime[#]-NextPrime[#,-1]\u0026/@Rest[FoldList[Times,1,Prime[Range[ 50]]]]] (* _Harvey P. Dale_, Mar 24 2013 *)"
			],
			"xref": [
				"Cf. A002110, A007014, A038710."
			],
			"keyword": "nonn",
			"offset": "2,1",
			"author": "_Labos Elemer_, Nov 17 2000",
			"ext": [
				"Offset corrected by _Alois P. Heinz_, Jun 08 2014"
			],
			"references": 6,
			"revision": 12,
			"time": "2014-06-08T11:08:12-04:00",
			"created": "2003-05-16T03:00:00-04:00"
		}
	]
}