{
	"greeting": "Greetings from The On-Line Encyclopedia of Integer Sequences! http://oeis.org/",
	"query": "id:A058189",
	"count": 1,
	"start": 0,
	"results": [
		{
			"number": 58189,
			"data": "1,2,3,5,5,6,7,10,11,10,11,13,13,14,15,21,17,20,19,21,21,22,23,26,29,26,31,29,29,30,31,38,33,34,35,41,37,38,39,42,41,42,43,45,47,46,47,53,55,54,51,53,53,58,55,58,57,58,59,61,61,62,65,77,65,66,67,69,69,70,71",
			"name": "Number of increasing geometric progressions ending in n (in the positive integers), including those of length 1 or 2.",
			"link": [
				"Antti Karttunen, \u003ca href=\"/A058189/b058189.txt\"\u003eTable of n, a(n) for n = 1..16384\u003c/a\u003e"
			],
			"formula": [
				"a(n) = A058190(n) + n."
			],
			"example": [
				"a(4) = 5 since the possibilities are (4), (1,4), (2,4), (3,4) and (1,2,4)."
			],
			"program": [
				"(PARI)",
				"ends_max_progression_of_length(n,ratio) = { my(k=1); while(1,if(denominator(n)\u003e1,return(k)); n *= ratio; k++;) };",
				"A058190(n) = sum(d=1,(n-1),max(0,ends_max_progression_of_length(d,d/n)-2));",
				"A058189(n) = (A058190(n)+n); \\\\ _Antti Karttunen_, Nov 19 2017"
			],
			"xref": [
				"Cf. A054519 for arithmetic progressions.",
				"Cf. A058190."
			],
			"keyword": "nonn",
			"offset": "1,2",
			"author": "_Henry Bottomley_, Nov 22 2000",
			"references": 2,
			"revision": 9,
			"time": "2017-11-19T19:02:39-05:00",
			"created": "2003-05-16T03:00:00-04:00"
		}
	]
}