{
	"greeting": "Greetings from The On-Line Encyclopedia of Integer Sequences! http://oeis.org/",
	"query": "id:A058840",
	"count": 1,
	"start": 0,
	"results": [
		{
			"number": 58840,
			"data": "1,1,0,1,0,0,0,0,0,1,0,0,1,0,0,1,0,1,0,0,0,0,0,0,0,0,0,1,0,0,0,0,0,0,1,0,0,0,0,1,0,0,0,0,0,0,1,0,0,1,0,0,1,0,1,0,0,0,0,0,0,0,0,0,0,0,1,0,0,0,1,0,0,1,0,0,0,0,0,0,0,1,0,0,1,0,0,0,0,0,1,0,0,0,0,1,0,0,0,0,0,0,1,0,0",
			"name": "From Renyi's \"beta expansion of 1 in base 3/2\": sequence gives y(0), y(1), ...",
			"comment": [
				"Let r be a real number strictly between 1 and 2, x any real number between 0 and 1; define y = (y(i)) by x(0) = x; x(i+1) = r*x(i)-1 if r*x(i)\u003e1 and r*x(i) otherwise; y(i) = integer part of x(i+1): y = (y(i)) is an infinite word on the alphabet (0,1). Here we take r = 3/2 and x = 1.",
				"Kempner considers a \"canonical\" expansion of a real number in a non-integer base using the greedy algorithm.  The greedy algorithm takes the largest possible integer digit in the range 0 \u003c= digit \u003c base at each digit position from high to low.  For base 3/2, Kempner gives the present sequence of digits, except instead a(1)=0, as an example canonical 2 = 10.01000001001...  Kempner notes too that a(1) omitted and the rest shifted down is a base-3/2 non-canonical 1 = .101000001001.... (canonical would be 1 = 1.000...). - _Kevin Ryde_, Dec 06 2019"
			],
			"reference": [
				"A. Renyi (1957), Representation for real numbers and their ergodic properties, Acta. Math. Acad. Sci. Hung., 8, 477-493."
			],
			"link": [
				"Reinhard Zumkeller, \u003ca href=\"/A058840/b058840.txt\"\u003eTable of n, a(n) for n = 0..10000\u003c/a\u003e",
				"Aubrey J. Kempner, \u003ca href=\"http://www.jstor.org/stable/2300532\"\u003eAnormal Systems of Numeration\u003c/a\u003e, American Mathematical Monthly, volume 43, number 10, December 1936, pages 610-617."
			],
			"mathematica": [
				"r = 3/2; x = 1; a[0] = a[1] = 1;",
				"For[n = 2, n\u003c105, n++, x = If[r x \u003e 1, r x - 1, r x]; a[n] = Floor[r x]];",
				"Table[a[n], {n, 0, 104}] (* _Jean-François Alcover_, Dec 21 2018, a solution I owe to _Benoit Cloitre_ *)"
			],
			"program": [
				"(Haskell)",
				"import data.ratio ((%), numerator, denominator)",
				"a058840 n = a058840_list !! n",
				"a058840_list = 1 : renyi' 1 where",
				"   renyi' x = y : renyi' r  where",
				"      (r, y) | q \u003e 1     = (q - 1, 1)",
				"             | otherwise = (q, 0)",
				"      q = 3%2 * x",
				"-- _Reinhard Zumkeller_, Jul 01 2011",
				"(PARI) a_vector(len) = my(v=vector(len),c=2,d=1); for(i=1,len, if(c\u003e=d,c-=d;v[i]=1); c*=3;d*=2); v; \\\\ _Kevin Ryde_, Dec 06 2019"
			],
			"xref": [
				"Cf. A058841, A058842."
			],
			"keyword": "nonn,nice,easy",
			"offset": "0,1",
			"author": "Claude Lenormand (claude.lenormand(AT)free.fr), Jan 05 2001",
			"ext": [
				"More terms from Larry Reeves (larryr(AT)acm.org), Feb 22 2001"
			],
			"references": 3,
			"revision": 23,
			"time": "2019-12-07T12:07:16-05:00",
			"created": "2003-05-16T03:00:00-04:00"
		}
	]
}