{
	"greeting": "Greetings from The On-Line Encyclopedia of Integer Sequences! http://oeis.org/",
	"query": "id:A058947",
	"count": 1,
	"start": 0,
	"results": [
		{
			"number": 58947,
			"data": "11,111,1011,1101,10011,11001,100101,101001,101111,110111,111011,111101,1000011,1011011,1100001,1100111,1101101,1110011,10000011,10001001,10001111,10010001,10011101,10100111,10101011",
			"name": "Coefficients of primitive irreducible polynomials over GF(2) listed in lexicographic order.",
			"comment": [
				"Church's table extends through degree 11."
			],
			"link": [
				"T. D. Noe, \u003ca href=\"/A058947/b058947.txt\"\u003eTable of n, a(n) for n=1..1110\u003c/a\u003e (through degree 13)",
				"R. Church, \u003ca href=\"http://www.jstor.org/stable/1968675\"\u003eTables of irreducible polynomials for the first four prime moduli\u003c/a\u003e, Annals Math., 36 (1935), 198-209.",
				"F. Ruskey, \u003ca href=\"http://www.theory.cs.uvic.ca/~cos/gen/poly.html\"\u003eIrreducible and Primitive Polynomials over GF(2)\u003c/a\u003e",
				"\u003ca href=\"/index/Ge#GF2X\"\u003eIndex entries for sequences containing GF(2)[X]-polynomials\u003c/a\u003e"
			],
			"example": [
				"The first few are x+1; x^2+x+1; x^3+x+1, x^3+x^2+1; ... Note that x is irreducible but not primitive."
			],
			"mathematica": [
				"car = 2; maxDegree = 13;",
				"okQ[{1, 1}] = True;",
				"okQ[coefs_List] := Module[{P}, P = coefs.x^Range[Length[coefs]-1, 0, -1]; coefs[[1]] == 1 \u0026\u0026 IrreduciblePolynomialQ[P, Modulus -\u003e car] \u0026\u0026 PrimitivePolynomialQ[P, car]];",
				"FromDigits /@ Select[Table[IntegerDigits[k, car], {k, car+1, car^(maxDegree + 1)}], okQ] (* _Jean-François Alcover_, Sep 09 2019 *)"
			],
			"xref": [
				"Cf. A000020, A001037, A011260, A058943, A058944, A058945, A058946, A058948.",
				"Irreducible over GF(2), GF(3), GF(4), GF(5), GF(7): A058943, A058944, A058948, A058945, A058946.",
				"Primitive irreducible over GF(2), GF(3), GF(4), GF(5), GF(7): A058947, A058949, A058952, A058950, A058951.",
				"a(n) = A007088(A091250(n))."
			],
			"keyword": "nonn,easy,nice",
			"offset": "1,1",
			"author": "_N. J. A. Sloane_, Jan 13 2001",
			"references": 16,
			"revision": 16,
			"time": "2020-09-29T17:02:08-04:00",
			"created": "2003-05-16T03:00:00-04:00"
		}
	]
}