{
	"greeting": "Greetings from The On-Line Encyclopedia of Integer Sequences! http://oeis.org/",
	"query": "id:A058028",
	"count": 1,
	"start": 0,
	"results": [
		{
			"number": 58028,
			"data": "2,6,31,21,26,38,51,51,330,139,91,119,590,146,198,266,2138,230,247,331,387,1267,540,320,1302,1021,1291,621,462,954,823,608,447,708,1017,1505,1107,836,1769,922,1803,791,990,91803,1082,1691,1939,2221,1385,1065",
			"name": "Sum of the terms of the continued fraction for the sum of the reciprocals of the first n primes.",
			"example": [
				"The sum of the reciprocals of the first 2 primes = 1/2 + 1/3 = 5/6 = 0 + 1/(1 + 1/5). So a(2) = 0 + 1 + 5 = 6."
			],
			"keyword": "nonn",
			"offset": "1,1",
			"author": "_Leroy Quet_, Nov 15 2000",
			"references": 0,
			"revision": 6,
			"time": "2014-04-09T10:16:38-04:00",
			"created": "2003-05-16T03:00:00-04:00"
		}
	]
}