{
	"greeting": "Greetings from The On-Line Encyclopedia of Integer Sequences! http://oeis.org/",
	"query": "id:A058966",
	"count": 1,
	"start": 0,
	"results": [
		{
			"number": 58966,
			"data": "1,2,10,30,78,190,446,1022,2302,5118,11262,24574,53246,114686,245758,524286,1114110,2359294,4980734,10485758,22020094,46137342,96468990,201326590,419430398,872415230,1811939326,3758096382,7784628222",
			"name": "a(3) = 1, otherwise a(n) = n*2^(n-3) - 2^(n-2) - 2.",
			"reference": [
				"B. Elspas, The theory of multirail cascades, in A. Mukhopadhyay, ed., Recent Developments in Switching Theory, Ac. Press, 1971, Chap. 8, see esp. p. 361 (S_1(n))."
			],
			"link": [
				"Harry J. Smith, \u003ca href=\"/A058966/b058966.txt\"\u003eTable of n, a(n) for n = 3...200\u003c/a\u003e",
				"\u003ca href=\"/index/Rec#order_03\"\u003eIndex entries for linear recurrences with constant coefficients\u003c/a\u003e, signature (5,-8,4)."
			],
			"formula": [
				"From _Colin Barker_, Mar 23 2012: (Start)",
				"a(n) = 5*a(n-1)-8*a(n-2)+4*a(n-3) for n\u003e6.",
				"G.f.: x^3*(1-3*x+8*x^2-8*x^3)/((1-x)*(1-2*x)^2). (End)"
			],
			"mathematica": [
				"Join[{1},Table[n*2^(n-3)-2^(n-2)-2,{n,4,40}]] (* or *) LinearRecurrence[ {5,-8,4},{1,2,10,30},40] (* _Harvey P. Dale_, Dec 22 2019 *)"
			],
			"program": [
				"(PARI) { for (n = 3, 200, write(\"b058966.txt\", n, \" \", abs(n*2^(n-3)-2^(n-2)-2)); ) } \\\\ _Harry J. Smith_, Jun 24 2009"
			],
			"keyword": "nonn,easy",
			"offset": "3,2",
			"author": "_N. J. A. Sloane_, Jan 14 2001",
			"references": 3,
			"revision": 16,
			"time": "2019-12-22T19:54:46-05:00",
			"created": "2003-05-16T03:00:00-04:00"
		}
	]
}