{
	"greeting": "Greetings from The On-Line Encyclopedia of Integer Sequences! http://oeis.org/",
	"query": "id:A058983",
	"count": 1,
	"start": 0,
	"results": [
		{
			"number": 58983,
			"data": "0,1,3,4,5,8,25,27,28,397,400,402,403,405,1398,1399,1401,11300,11307,11309,11310,11315,44839,44840,44842,1447644,6237276,6237278,9113438,9113440,9113441",
			"name": "Position at which increasing values of the Improperly Reduced Fibonacci Sequence (A058981) occur.",
			"mathematica": [
				"y = 0; c = l = i = z = 1; d = {1}; Do[ x = y + z; c++; j = 1; While[ ! IntegerQ[ x / d[ [ j ] ] ] \u0026\u0026 j \u003c= i, j++ ]; If[ j \u003e i, d = Append[ d, x ]; i++, x = x/d[ [ j ] ]; d = Delete[ d, j ]; d = Append[ d, x ] ]; If[ x \u003e l, l = x; Print[ c ] ]; y = z; z = x, {n, 1, 10^7} ]"
			],
			"xref": [
				"Cf. A058981, A058982."
			],
			"keyword": "nonn",
			"offset": "0,3",
			"author": "_Robert G. Wilson v_, Jan 15 2001",
			"references": 0,
			"revision": 2,
			"time": "2012-03-30T17:30:30-04:00",
			"created": "2003-05-16T03:00:00-04:00"
		}
	]
}