{
	"greeting": "Greetings from The On-Line Encyclopedia of Integer Sequences! http://oeis.org/",
	"query": "id:A058636",
	"count": 1,
	"start": 0,
	"results": [
		{
			"number": 58636,
			"data": "1,0,-1,1,-1,0,2,-1,-1,3,-2,-2,5,-2,-3,6,-4,-4,9,-5,-7,12,-7,-7,18,-9,-10,22,-13,-14,31,-16,-18,39,-22,-24,53,-28,-31,66,-37,-38,87,-46,-51,108,-59,-64,138,-74,-80,171,-94,-100,216,-115,-126,266,-144",
			"name": "McKay-Thompson series of class 33A for Monster.",
			"link": [
				"G. C. Greubel, \u003ca href=\"/A058636/b058636.txt\"\u003eTable of n, a(n) for n = -1..1000\u003c/a\u003e",
				"D. Ford, J. McKay and S. P. Norton, \u003ca href=\"http://dx.doi.org/10.1080/00927879408825127\"\u003eMore on replicable functions\u003c/a\u003e, Commun. Algebra 22, No. 13, 5175-5193 (1994).",
				"\u003ca href=\"/index/Mat#McKay_Thompson\"\u003eIndex entries for McKay-Thompson series for Monster simple group\u003c/a\u003e"
			],
			"formula": [
				"Expansion of 1 + eta(q)*eta(q^11)/(eta(q^3)*eta(q^33)), in powers of q. - _G. C. Greubel_, Jun 19 2018"
			],
			"example": [
				"T33A = 1/q - q + q^2 - q^3 + 2*q^5 - q^6 - q^7 + 3*q^8 - 2*q^9 - 2*q^10 + ..."
			],
			"mathematica": [
				"eta[q_]:= q^(1/24)*QPochhammer[q]; A := (eta[q]*eta[q^11])/(eta[q^3] *eta[q^33]); a := CoefficientList[Series[1 + A, {q, 0, 60}], q]; Table[a[[n]], {n, 1, 50}] (* _G. C. Greubel_, Jun 19 2018 *)"
			],
			"program": [
				"(PARI) q='q+O('q^50); A = 1 + eta(q)*eta(q^11)/(eta(q^3)*eta(q^33))/q; Vec(A) \\\\ _G. C. Greubel_, Jun 19 2018"
			],
			"xref": [
				"Cf. A000521, A007240, A014708, A007241, A007267, A045478, etc.",
				"Cf. A226009 (same sequence except for n=0)."
			],
			"keyword": "sign",
			"offset": "-1,7",
			"author": "_N. J. A. Sloane_, Nov 27 2000",
			"ext": [
				"More terms from _Michel Marcus_, Feb 18 2014"
			],
			"references": 2,
			"revision": 25,
			"time": "2018-06-19T12:32:46-04:00",
			"created": "2003-05-16T03:00:00-04:00"
		}
	]
}