{
	"greeting": "Greetings from The On-Line Encyclopedia of Integer Sequences! http://oeis.org/",
	"query": "id:A058164",
	"count": 1,
	"start": 0,
	"results": [
		{
			"number": 58164,
			"data": "1,1,2,9,76,1065,22566,674611,27019896,1393871121,89805306250,7051089328371,661327038073428,72882388902988561,9308502142507505406,1361778362223282167235,225917426273413368357616,42135305039539420956486369",
			"name": "Number of labeled lattices with a fixed bottom.",
			"mathematica": [
				"A055512 = Cases[Import[\"https://oeis.org/A055512/b055512.txt\", \"Table\"], {_, _}][[All, 2]];",
				"a[n_] := A055512[[n + 1]]/n;",
				"a /@ Range[18] (* _Jean-François Alcover_, Jan 02 2020 *)"
			],
			"xref": [
				"a(n) = A055512(n)/n = A058165(n)*(n-1). Main diagonal of A058160."
			],
			"keyword": "nonn,hard",
			"offset": "1,3",
			"author": "_Christian G. Bower_, Nov 15 2000",
			"ext": [
				"a(18) from _Jean-François Alcover_, Jan 02 2020"
			],
			"references": 4,
			"revision": 8,
			"time": "2020-01-02T08:23:50-05:00",
			"created": "2003-05-16T03:00:00-04:00"
		}
	]
}