{
	"greeting": "Greetings from The On-Line Encyclopedia of Integer Sequences! http://oeis.org/",
	"query": "id:A058011",
	"count": 1,
	"start": 0,
	"results": [
		{
			"number": 58011,
			"data": "1,4,6,8,27,30,33,96,100,120,330,335,340,350,355,360,1008,1080,1092,1116,1122,1128,1134,3059,3066,3073,3080,3087,3094,8408,8424,8440,8456,8464,8472,23526,23535,24300,64540,64580,64610,64620,64650,64690,64700",
			"name": "Consider the sequence {b(m)} of nonprimes; sequence gives values of m where gcd{m, b(m)} increases.",
			"example": [
				"a(4) = 8 because eight is the fourth nonprime number and GCD(4,8) \u003e GCD(3,6)."
			],
			"mathematica": [
				"r=0; Do[a = GCD[n, n - PrimePi[n] ]; If[a \u003e r, r = a; Print[n]], {n, 1, 10^5} ]"
			],
			"xref": [
				"Cf. A058012. Apart from initial term same as A057809."
			],
			"keyword": "nonn",
			"offset": "0,2",
			"author": "_Robert G. Wilson v_, Nov 13 2000",
			"references": 2,
			"revision": 3,
			"time": "2012-03-30T17:30:27-04:00",
			"created": "2003-05-16T03:00:00-04:00"
		}
	]
}