{
	"greeting": "Greetings from The On-Line Encyclopedia of Integer Sequences! http://oeis.org/",
	"query": "id:A058756",
	"count": 1,
	"start": 0,
	"results": [
		{
			"number": 58756,
			"data": "1,-2,-2,-2,-6,-10,-34,-82,-254,-730,-2238,-6826,-21370,-67122,-213654,-684258,-2208694,-7169298,-23402738,-76748130,-252790518,-835816658,-2773236614,-9230776706,-30814377058,-103139338858,-346067984622,-1163810570178",
			"name": "G.f. is (1-S)/(1+S), where S = g.f. for A000084.",
			"xref": [
				"Cf. A036655, A000137."
			],
			"keyword": "sign",
			"offset": "0,2",
			"author": "_N. J. A. Sloane_, Jan 01 2001",
			"references": 1,
			"revision": 3,
			"time": "2012-03-30T16:48:57-04:00",
			"created": "2003-05-16T03:00:00-04:00"
		}
	]
}