{
	"greeting": "Greetings from The On-Line Encyclopedia of Integer Sequences! http://oeis.org/",
	"query": "id:A058138",
	"count": 1,
	"start": 0,
	"results": [
		{
			"number": 58138,
			"data": "1,3,9,32,219,5585",
			"name": "Monoids of order n with 2 idempotents.",
			"link": [
				"\u003ca href=\"/index/Mo#monoids\"\u003eIndex entries for sequences related to monoids\u003c/a\u003e"
			],
			"xref": [
				"Column 2 of A058137."
			],
			"keyword": "nonn,more",
			"offset": "2,2",
			"author": "_Christian G. Bower_, Nov 14 2000",
			"references": 1,
			"revision": 5,
			"time": "2012-03-30T17:37:11-04:00",
			"created": "2003-05-16T03:00:00-04:00"
		}
	]
}