{
	"greeting": "Greetings from The On-Line Encyclopedia of Integer Sequences! http://oeis.org/",
	"query": "id:A058678",
	"count": 1,
	"start": 0,
	"results": [
		{
			"number": 58678,
			"data": "1,1,2,2,4,5,7,8,12,14,20,23,31,37,47,56,71,84,104,122,151,178,215,252,303,355,423,492,582,676,795,920,1076,1242,1445,1662,1926,2210,2549,2916,3353,3827,4386,4992,5703,6478,7379,8362,9499,10742,12174,13738,15533,17496,19736,22190,24979",
			"name": "McKay-Thompson series of class 42d for Monster.",
			"link": [
				"G. C. Greubel, \u003ca href=\"/A058678/b058678.txt\"\u003eTable of n, a(n) for n = -1..1000\u003c/a\u003e",
				"D. Ford, J. McKay and S. P. Norton, \u003ca href=\"http://dx.doi.org/10.1080/00927879408825127\"\u003eMore on replicable functions\u003c/a\u003e, Comm. Algebra 22, No. 13, 5175-5193 (1994).",
				"\u003ca href=\"/index/Mat#McKay_Thompson\"\u003eIndex entries for McKay-Thompson series for Monster simple group\u003c/a\u003e"
			],
			"formula": [
				"Expansion of q^(1/2)*(eta(q^3)*eta(q^7)/(eta(q)*eta(q^21))) in powers of q. - _G. C. Greubel_, Jun 26 2018",
				"a(n) ~ exp(2*Pi*sqrt(2*n/21)) / (2^(3/4) * 21^(1/4) * n^(3/4)). - _Vaclav Kotesovec_, Jun 26 2018"
			],
			"example": [
				"T42d = 1/q + q + 2*q^3 + 2*q^5 + 4*q^7 + 5*q^9 + 7*q^11 + 8*q^13 + 12*q^15 + ..."
			],
			"mathematica": [
				"eta[q_] := q^(1/24)*QPochhammer[q]; a:= CoefficientList[Series[q^(1/2)*(eta[q^3]*eta[q^7]/(eta[q]*eta[q^21])), {q, 0, 60}], q]; Table[a[n], {n, 0, 50}] (* _G. C. Greubel_, Jun 26 2018 *)"
			],
			"program": [
				"(PARI) q='q+O('q^60); Vec(eta(q^3)*eta(q^7)/(eta(q)*eta(q^21))) \\\\ _G. C. Greubel_, Jun 26 2018"
			],
			"xref": [
				"Cf. A000521, A007240, A014708, A007241, A007267, A045478, etc."
			],
			"keyword": "nonn",
			"offset": "-1,3",
			"author": "_N. J. A. Sloane_, Nov 27 2000",
			"ext": [
				"Terms a(12) onward added by _G. C. Greubel_, Jun 26 2018"
			],
			"references": 1,
			"revision": 19,
			"time": "2018-06-26T07:47:44-04:00",
			"created": "2003-05-16T03:00:00-04:00"
		}
	]
}