{
	"greeting": "Greetings from The On-Line Encyclopedia of Integer Sequences! http://oeis.org/",
	"query": "id:A058493",
	"count": 1,
	"start": 0,
	"results": [
		{
			"number": 58493,
			"data": "1,4,0,-4,16,0,6,40,0,-8,96,0,17,204,0,-28,400,0,38,760,0,-56,1376,0,84,2404,0,-124,4096,0,172,6808,0,-232,11072,0,325,17688,0,-448,27792,0,594,43008,0,-784,65696,0,1049,99128,0",
			"name": "McKay-Thompson series of class 12e for Monster.",
			"comment": [
				"Agrees with A112149 except for signs.",
				"The convolution square of this sequence is A007263 except for the constant term: T12e(q)^2 = T6d(q^2) + 8. - _G. A. Edgar_, Apr 17 2017"
			],
			"link": [
				"G. C. Greubel, \u003ca href=\"/A058493/b058493.txt\"\u003eTable of n, a(n) for n = 0..1000\u003c/a\u003e (terms 0..503 from G. A. Edgar)",
				"D. Alexander, C. Cummins, J. McKay and C. Simons, \u003ca href=\"http://oeis.org/A007242/a007242_1.pdf\"\u003eCompletely Replicable Functions\u003c/a\u003e, LMS Lecture Notes, 165, ed. Liebeck and Saxl (1992), 87-98, annotated and scanned copy.",
				"D. Ford, J. McKay and S. P. Norton, \u003ca href=\"http://dx.doi.org/10.1080/00927879408825127\"\u003eMore on replicable functions\u003c/a\u003e, Commun. Algebra 22, No. 13, 5175-5193 (1994).",
				"\u003ca href=\"/index/Mat#McKay_Thompson\"\u003eIndex entries for McKay-Thompson series for Monster simple group\u003c/a\u003e"
			],
			"formula": [
				"Expansion of q^(1/2) * ((eta(q^3)/eta(q^6))^4 + 4*(eta(q^6)/eta(q^3))^4) in powers of q. - _G. A. Edgar_, Apr 17 2017"
			],
			"example": [
				"T12e = 1/q + 4*q - 4*q^5 + 16*q^7 + 6*q^11 + 40*q^13 - 8*q^17 + 96*q^19 + ..."
			],
			"mathematica": [
				"eta[q_]:= q^(1/24)*QPochhammer[q]; b:= q^(1/2)*(eta[q^3]/eta[q^6])^4;",
				"a:= CoefficientList[Series[b + 4*q/b, {q, 0, 60}], q]; Table[a[[n]], {n, 1, 50}] (* _G. C. Greubel_, Jun 13 2018 *)"
			],
			"program": [
				"(PARI) q='q+O('q^60); A = (eta(q^3)/eta(q^6))^4; Vec(A + 4*q/A) \\\\ _G. C. Greubel_, Jun 13 2018"
			],
			"xref": [
				"Cf. A000521, A007240, A007263, A014708, A007241, A007267, A045478, A112149, etc."
			],
			"keyword": "sign",
			"offset": "0,2",
			"author": "_N. J. A. Sloane_, Nov 27 2000",
			"references": 2,
			"revision": 21,
			"time": "2018-06-14T20:25:45-04:00",
			"created": "2003-05-16T03:00:00-04:00"
		}
	]
}