{
	"greeting": "Greetings from The On-Line Encyclopedia of Integer Sequences! http://oeis.org/",
	"query": "id:A058605",
	"count": 1,
	"start": 0,
	"results": [
		{
			"number": 58605,
			"data": "0,1,2,5,6,7,11,14,15,17,27,30,41,150,186,359,665,690,1029,1150,1575,1879,2010,2439,3197,3625,4107,4635,6417,7791,16354,20610,25889,26310,38689,45826,63410,82726,123109,164574",
			"name": "Numbers n such that 7*3^n - 2 is prime.",
			"comment": [
				"a(41) \u003e 2*10^5. - _Robert Price_, May 14 2015"
			],
			"mathematica": [
				"Do[ If[ PrimeQ[ 7*3^n - 2 ], Print[ n ] ], {n, 0, 2500} ]"
			],
			"program": [
				"(PARI) is(n)=ispseudoprime(7*3^n-2) \\\\ _Charles R Greathouse IV_, Jun 13 2017"
			],
			"keyword": "nonn",
			"offset": "1,3",
			"author": "_Robert G. Wilson v_, Dec 26 2000",
			"ext": [
				"a(30)-a(40) from _Robert Price_, May 14 2015",
				"First term 0 inserted by _Georg Fischer_, Aug 01 2019"
			],
			"references": 0,
			"revision": 11,
			"time": "2019-08-01T18:34:20-04:00",
			"created": "2003-05-16T03:00:00-04:00"
		}
	]
}