{
	"greeting": "Greetings from The On-Line Encyclopedia of Integer Sequences! http://oeis.org/",
	"query": "id:A058845",
	"count": 1,
	"start": 0,
	"results": [
		{
			"number": 58845,
			"data": "1,2,49,54,172,921,1421,12485,78653,1969457,5606014,90638394",
			"name": "Numbers n such that the sum of the first n odd primes is palindromic.",
			"comment": [
				"a(13) \u003e 2.8*10^12, if it exists. - _Giovanni Resta_, Sep 01 2018"
			],
			"link": [
				"P. De Geest, \u003ca href=\"http://www.worldofnumbers.com/firstpal.htm#sfn2\"\u003ePalindromic Sums\u003c/a\u003e"
			],
			"example": [
				"Palindromes are 3 + 5 + 7 + 11 + 13 + 17 + ... + z. For values of z see A058846."
			],
			"xref": [
				"Cf. A058846, A058847, A038582."
			],
			"keyword": "nonn,base,more",
			"offset": "1,2",
			"author": "_Patrick De Geest_, Dec 15 2000",
			"references": 3,
			"revision": 10,
			"time": "2018-09-10T04:00:44-04:00",
			"created": "2003-05-16T03:00:00-04:00"
		}
	]
}