{
	"greeting": "Greetings from The On-Line Encyclopedia of Integer Sequences! http://oeis.org/",
	"query": "id:A059781",
	"count": 1,
	"start": 0,
	"results": [
		{
			"number": 59781,
			"data": "0,0,0,0,0,1,0,1,0,0,0,1,0,1,0,0,0,2,1,4,0,4,1,2,0,0,0,0,1,0,0,0,1,0,0,0,0,1,0,1,1,1,0,1,1,1,0,1,0,0,0,2,0,0,1,0,0,0,1,0,0,2,0,0,0,3,2,4,1,3,4,3,0,3,4,3,1,4,2,3,0,0,0,0,2,1,1,1,8,0,0,0,8,1,1,1,2,0,0,0,0,1,0,1,0",
			"name": "Triangle T(n,k) giving exponent of power of 2 dividing entry (n,k) of trinomial triangle A027907.",
			"reference": [
				"B. A. Bondarenko, Generalized Pascal Triangles and Pyramids (in Russian), FAN, Tashkent, 1990, ISBN 5-648-00738-8. English translation published by Fibonacci Association, Santa Clara Univ., Santa Clara, CA, 1993; see p. 117."
			],
			"example": [
				"0; 0,0,0; 0,1,0,1,0; ..."
			],
			"maple": [
				"with(numtheory): T := proc(i,j) option remember: if i \u003e= 0 and j=0 then RETURN(1) fi: if i \u003e= 0 and j=2*i then RETURN(1) fi: if i \u003e= 1 and j=1 then RETURN(i) fi: if i \u003e= 1 and j=2*i-1 then RETURN(i) fi: T(i-1,j-2)+T(i-1,j-1)+T(i-1,j): end: for i from 0 to 20 do for j from 0 to 2*i do if T(i,j) mod 2 = 1 then printf(`%d,`,0) else printf(`%d,`, ifactors(T(i,j))[2,1,2] ) fi: od:od: # _James A. Sellers_, Feb 22 2001"
			],
			"keyword": "nonn,easy,tabf",
			"offset": "0,18",
			"author": "_N. J. A. Sloane_, Feb 22 2001",
			"ext": [
				"More terms from _James A. Sellers_, Feb 22 2001"
			],
			"references": 0,
			"revision": 9,
			"time": "2014-12-22T02:01:17-05:00",
			"created": "2003-05-16T03:00:00-04:00"
		}
	]
}