{
	"greeting": "Greetings from The On-Line Encyclopedia of Integer Sequences! http://oeis.org/",
	"query": "id:A059196",
	"count": 1,
	"start": 0,
	"results": [
		{
			"number": 59196,
			"data": "1,1,1,1,1,1,1,1,1,1,1,1,1,1,1,1,1,1,1,1,1,1,1,8,8,232,238,428,1103,3261,6085,15565,20674,43910,177426,193017,1480418,1739984,2573921,5238757,14403086,25953812,34670065,84077823,258624998,330484686",
			"name": "Engel expansion of e^Pi = 23.14069... .",
			"comment": [
				"Cf. A006784 for definition of Engel expansion."
			],
			"reference": [
				"F. Engel, Entwicklung der Zahlen nach Stammbruechen, Verhandlungen der 52. Versammlung deutscher Philologen und Schulmaenner in Marburg, 1913, pp. 190-191."
			],
			"link": [
				"G. C. Greubel, \u003ca href=\"/A059196/b059196.txt\"\u003eTable of n, a(n) for n = 1..1023\u003c/a\u003e",
				"F. Engel, \u003ca href=\"/A006784/a006784.pdf\"\u003eEntwicklung der Zahlen nach Stammbruechen\u003c/a\u003e, Verhandlungen der 52. Versammlung deutscher Philologen und Schulmaenner in Marburg, 1913, pp. 190-191. English translation by Georg Fischer, included with his permission.",
				"P. Erdős and Jeffrey Shallit, \u003ca href=\"http://www.numdam.org/item?id=JTNB_1991__3_1_43_0\"\u003eNew bounds on the length of finite Pierce and Engel series\u003c/a\u003e, Sem. Theor. Nombres Bordeaux (2) 3 (1991), no. 1, 43-53.",
				"\u003ca href=\"/index/El#Engel\"\u003eIndex entries for sequences related to Engel expansions\u003c/a\u003e"
			],
			"mathematica": [
				"EngelExp[A_, n_] := Join[Array[1 \u0026, Floor[A]], First@Transpose@",
				"NestList[{Ceiling[1/Expand[#[[1]] #[[2]] - 1]], Expand[#[[1]] #[[2]] - 1]/1} \u0026, {Ceiling[1/(A - Floor[A])], (A - Floor[A])/1}, n - 1]];",
				"EngelExp[N[E^Pi, 7!], 100] (* _G. C. Greubel_, Dec 28 2016 *)"
			],
			"xref": [
				"Cf. A039661."
			],
			"keyword": "nonn,easy,nice",
			"offset": "1,24",
			"author": "_Mitch Harris_",
			"references": 1,
			"revision": 23,
			"time": "2018-04-13T11:24:27-04:00",
			"created": "2003-05-16T03:00:00-04:00"
		}
	]
}