{
	"greeting": "Greetings from The On-Line Encyclopedia of Integer Sequences! http://oeis.org/",
	"query": "id:A059315",
	"count": 1,
	"start": 0,
	"results": [
		{
			"number": 59315,
			"data": "3,5,11,13,17,19,29,37,41,43,53,59,61,67,71,83,97,101,107,109,113,127,131,137,139,149,157,163,173,179,181,193,197,211,227,229,239,241,251,269,277,281,283,293,307,313,317,331,337,347,349,373,379,389,397,401",
			"name": "Primes p such that x^28 = 2 has no solution mod p.",
			"comment": [
				"Coincides for the first 51 terms with sequence A059634 of primes p such that x^56 = 2 has no solution mod p (first divergence is at 353, cf. A059635 ).",
				"Complement of A049560 relative to A000040."
			],
			"link": [
				"Vincenzo Librandi, \u003ca href=\"/A059315/b059315.txt\"\u003eTable of n, a(n) for n = 1..1000\u003c/a\u003e"
			],
			"mathematica": [
				"ok[p_] := Reduce[Mod[x^28 - 2, p] == 0, x, Integers] == False; Select[Prime[Range[100]], ok ] (* _Vincenzo Librandi_, Sep 20 2012  *)"
			],
			"program": [
				"(MAGMA) [p: p in PrimesUpTo(405) | not exists{x : x in ResidueClassRing(p) | x^28 eq 2} ]; // _Vincenzo Librandi_, Sep 20 2012"
			],
			"xref": [
				"A000040, A049560, A059634, A059635."
			],
			"keyword": "nonn,easy",
			"offset": "1,1",
			"author": "_Klaus Brockhaus_, Jan 25 2001",
			"references": 4,
			"revision": 8,
			"time": "2012-09-20T13:24:05-04:00",
			"created": "2003-05-16T03:00:00-04:00"
		}
	]
}