{
	"greeting": "Greetings from The On-Line Encyclopedia of Integer Sequences! http://oeis.org/",
	"query": "id:A059203",
	"count": 1,
	"start": 0,
	"results": [
		{
			"number": 59203,
			"data": "1,1,6,2270,148109472315,186266607433353989829111737621541,7485122439882901107741903784218892557452456923078744798141861944074340339271507786827",
			"name": "Number of n-block T_0-covers of a labeled set.",
			"comment": [
				"A cover of a set is a T_0-cover if for every two distinct points of the set there exists a member (block) of the cover containing one but not the other point."
			],
			"link": [
				"G. C. Greubel, \u003ca href=\"/A059203/b059203.txt\"\u003eTable of n, a(n) for n = 0..8\u003c/a\u003e"
			],
			"formula": [
				"a(n) = (- 1)^n + (1/n!)*Sum_{i = 2,..,n + 1} stirling1(n + 1, i)*floor((2^(i - 1) - 1)!*exp(1)), n\u003e0, a(0) = 1.",
				"a(n) = (1/n!)*Sum_{i = 1,..,n + 1} stirling1(n + 1, i)*A000522(2^(i - 1) - 1)."
			],
			"example": [
				"a(4) = 1 + (1/4!)*( - 50*[1!*e] + 35*[3!*e] - 10*[7!*e] + [15!*e]) = 1 + (1/4!)*( - 50*2 + 35*16 - 10*13700 + 3554627472076) = 148109472315, where [k!*e] := floor(k!*exp(1))."
			],
			"maple": [
				"with(combinat): Digits := 1500: f := n-\u003e(-1)^n+(1/n!)*sum(stirling1(n+1,i)*floor((2^(i-1)-1)!*exp(1)), i=2..n+1): for n from 1 to 10 do printf(`%d,`,f(n)) od:"
			],
			"mathematica": [
				"a[0] := 1; a[n_] := (-1)^n + (1/n!)*Sum[StirlingS1[n + 1, k]*Floor[(2^(k - 1) - 1)!*E], {k, 2, n + 1}]; Table[a[n], {n, 0, 5}] (* _G. C. Greubel_, Dec 28 2016 *)"
			],
			"xref": [
				"Cf. A059201, column sums of A059202, A059084 - A059089, A000522."
			],
			"keyword": "easy,nonn",
			"offset": "0,3",
			"author": "_Vladeta Jovovic_, Goran Kilibarda, Jan 18 2001",
			"ext": [
				"More terms from _James A. Sellers_, Jan 24 2001"
			],
			"references": 3,
			"revision": 10,
			"time": "2016-12-28T17:31:17-05:00",
			"created": "2003-05-16T03:00:00-04:00"
		}
	]
}