{
	"greeting": "Greetings from The On-Line Encyclopedia of Integer Sequences! http://oeis.org/",
	"query": "id:A059401",
	"count": 1,
	"start": 0,
	"results": [
		{
			"number": 59401,
			"data": "1197,2510,2570,5210,5230,5290,12590,14673,15230,20530,21530,22510,23510,23570,24590,25030,25210,25310,25390,25430,25490,25510,25570,25790,25910,25930,26570,26590,27530,28510,28570,29530,29570,32510",
			"name": "Numbers that contains as proper substrings every maximal prime power dividing them.",
			"comment": [
				"Most end in 0, since 2*5*prime will work if prime contains 2 and 5 as substrings",
				"There must be at least two maximal prime powers dividing each term. - ~~~"
			],
			"link": [
				"Reinhard Zumkeller, \u003ca href=\"/A059401/b059401.txt\"\u003eTable of n, a(n) for n = 1..10000\u003c/a\u003e"
			],
			"example": [
				"1197 = 9 * 7 * 19 and all of these are substrings."
			],
			"mathematica": [
				"psmppQ[n_]:=Module[{pp=#[[1]]^#[[2]]\u0026/@FactorInteger[n], idn= IntegerDigits[ n]}, Length[pp]\u003e1\u0026\u0026And@@Table[ SequenceCount[ idn, IntegerDigits[pp[[i]]]]\u003e0,{i,Length[pp]}]]; Select[Range[ 33000], psmppQ] (* Requires Mathematica version 10 or later *) (* _Harvey P. Dale_, Dec 04 2016 *)"
			],
			"program": [
				"(Haskell)",
				"import Data.List (isInfixOf)",
				"a059401 n = a059401_list !! (n-1)",
				"a059401_list = filter (\\x -\u003e a010055 x == 0 \u0026\u0026",
				"               all (`isInfixOf` show x) (map show $ a141809_row x)) [1..]",
				"-- _Reinhard Zumkeller_, Dec 16 2013"
			],
			"xref": [
				"Cf. A141809, A010055, subsequence of A024619."
			],
			"keyword": "base,nice,nonn",
			"offset": "1,1",
			"author": "_Erich Friedman_, Jan 29 2001",
			"ext": [
				"Offset corrected by _Reinhard Zumkeller_, Dec 16 2013"
			],
			"references": 1,
			"revision": 10,
			"time": "2016-12-04T14:47:01-05:00",
			"created": "2003-05-16T03:00:00-04:00"
		}
	]
}