{
	"greeting": "Greetings from The On-Line Encyclopedia of Integer Sequences! http://oeis.org/",
	"query": "id:A059765",
	"count": 1,
	"start": 0,
	"results": [
		{
			"number": 59765,
			"data": "1,2,3,4,5,6,7,8,9,10,12,16",
			"name": "Possible sizes of the torsion group of an elliptic curve over the rationals Q. This is a finite sequence.",
			"reference": [
				"Joseph H. Silverman, The Arithmetic of Elliptic Curves, Graduates texts in mathematics 106 Springer-Verlag."
			],
			"link": [
				"\u003ca href=\"/index/Gre#groups\"\u003eIndex entries for sequences related to groups\u003c/a\u003e"
			],
			"formula": [
				"Numbers n such that A221362(n) \u003e 0. - _Jonathan Sondow_, May 10 2014"
			],
			"example": [
				"a(1) corresponds to the trivial group.",
				"a(2) corresponds to the cyclic group C_2.",
				"a(3) corresponds to the cyclic group C_3.",
				"a(4) corresponds to the cyclic group C_4 and the product C_2 x C_2.",
				"a(5) corresponds to the cyclic group C_5.",
				"a(6) corresponds to the cyclic group C_6.",
				"a(7) corresponds to the cyclic group C_7.",
				"a(8) corresponds to the cyclic group C_8 and the product C_2 x C_4.",
				"a(9) corresponds to the cyclic group C_9.",
				"a(10) corresponds to the cyclic group C_10.",
				"a(12) corresponds to the cyclic group C_12 and the product C_2 x C_6.",
				"a(16) corresponds to the product C_2 x C_8."
			],
			"xref": [
				"Cf. A221362."
			],
			"keyword": "nonn,fini,full",
			"offset": "1,2",
			"author": "Noam Katz (noamkj(AT)hotmail.com), Feb 21 2001",
			"references": 12,
			"revision": 14,
			"time": "2021-07-09T15:50:32-04:00",
			"created": "2003-05-16T03:00:00-04:00"
		}
	]
}