{
	"greeting": "Greetings from The On-Line Encyclopedia of Integer Sequences! http://oeis.org/",
	"query": "id:A059055",
	"count": 1,
	"start": 0,
	"results": [
		{
			"number": 59055,
			"data": "3,7,11,13,31,43,61,73,157,211,241,307,421,463,521,547,601,683,757,1123,1483,1723,2551,2731,2971,3307,3541,3907,4423,4831,5113,5701,6007,6163,6481,8011,8191,9091,9901,10303,11131,12211,12433,13421,13807,14281",
			"name": "Primes which can be written as (b^k+1)/(b+1) for positive integers b and k.",
			"comment": [
				"For (b^k+1)/(b+1) to be a prime, k must be an odd prime. 2=(0^0+1)/(0+1) has been excluded since neither b nor k would be positive.",
				"From _Bernard Schott_, Apr 30 2021: (Start)",
				"43 is the only known prime to have two such representations (examples).",
				"The next two sequences realize a partition of this set: Brazilian primes of the form (c^q-1)/(c-1) (A002383 \\ {3}) and primes that are not Brazilian (A343774). (End)"
			],
			"link": [
				"Giovanni Resta, \u003ca href=\"/A059055/b059055.txt\"\u003eTable of n, a(n) for n = 1..10000\u003c/a\u003e (first 3880 terms from T. D. Noe)",
				"H. Dubner and T. Granlund, \u003ca href=\"https://cs.uwaterloo.ca/journals/JIS/VOL3/DUBNER/dubner.html\"\u003ePrimes of the Form (b^n+1)/(b+1)\u003c/a\u003e, J. Integer Sequences, 3 (2000), #P00.2.7."
			],
			"example": [
				"43 is in the sequence since (2^7+1)/(2+1) = 129/3 = 43; indeed also (7^3+1)/(7+1) = 344/8 = 43."
			],
			"mathematica": [
				"max = 89; maxdata = (1 + max^3)/(1 + max); a = {}; Do[i = 1; While[i = i + 2; cc = (1 + m^i)/(1 + m); cc \u003c= maxdata, If[PrimeQ[cc], a = Append[a, cc]]], {m, 2, max}]; Union[a] (* _Lei Zhou_, Feb 08 2012 *)"
			],
			"program": [
				"(PARI) isok(p) = {if (isprime(p), for (b=2, p, my(k=3); while ((x=(b^k+1)/(b+1)) \u003c= p, if (x == p, return (1)); k = nextprime(k+1););););} \\\\ _Michel Marcus_, Apr 30 2021"
			],
			"xref": [
				"Cf. A002383, A059054.",
				"Cf. A003424, A085104."
			],
			"keyword": "nonn,easy",
			"offset": "1,1",
			"author": "_Henry Bottomley_, Dec 21 2000",
			"references": 11,
			"revision": 57,
			"time": "2021-08-31T01:09:02-04:00",
			"created": "2003-05-16T03:00:00-04:00"
		}
	]
}