{
	"greeting": "Greetings from The On-Line Encyclopedia of Integer Sequences! http://oeis.org/",
	"query": "id:A059445",
	"count": 1,
	"start": 0,
	"results": [
		{
			"number": 59445,
			"data": "2,15,14,1,2,3,17,1,1,5,1,30,1,3,2,1,1,1,3,3,1,4,2,9,2,1,9,1,7,1,6,1,5,1,5,3,1,1,3,1,36,4,18,2,1,2,4,1,3,366,3,1,1,16,2,1,2,2,1,3,3,1,5,2,2,34,1,2,2,1,18,1,1,16,1,1,1,3,4,7,1,21,6,5,1,2,1,11,4,1,1,14,4,17,1,1",
			"name": "Continued fraction for square root of (Pi * e / 2).",
			"reference": [
				"C. A. Pickover, \"Wonders of Numbers, Adventures in Mathematics, Mind and Meaning,\" Oxford University Press, Oxford and NY, 2001, page 68."
			],
			"link": [
				"Harry J. Smith, \u003ca href=\"/A059445/b059445.txt\"\u003eTable of n, a(n) for n = 1..20000\u003c/a\u003e",
				"C. A. Pickover, \"Wonders of Numbers, Adventures in Mathematics, Mind and Meaning,\" \u003ca href=\"http://www.zentralblatt-math.org/zmath/en/search/?q=an:0983.00008\u0026amp;format=complete\"\u003eZentralblatt review\u003c/a\u003e"
			],
			"example": [
				"2.0663656770612464692346959... = 2 + 1/(15 + 1/(14 + 1/(1 + 1/(2 + ...)))). - _Harry J. Smith_, Jun 27 2009"
			],
			"mathematica": [
				"ContinuedFraction[Sqrt[ \\[Pi]*\\[ExponentialE]/2], 100]"
			],
			"program": [
				"(PARI) { allocatemem(932245000); default(realprecision, 21000); x=contfrac(sqrt(Pi*exp(1)/2)); for (n=1, 20000, write(\"b059445.txt\", n, \" \", x[n])); } \\\\ _Harry J. Smith_, Jun 27 2009"
			],
			"xref": [
				"Cf. A059444."
			],
			"keyword": "cofr,nonn",
			"offset": "1,1",
			"author": "_Robert G. Wilson v_, Feb 01 2001",
			"references": 2,
			"revision": 13,
			"time": "2016-01-04T01:57:10-05:00",
			"created": "2003-05-16T03:00:00-04:00"
		}
	]
}