{
	"greeting": "Greetings from The On-Line Encyclopedia of Integer Sequences! http://oeis.org/",
	"query": "id:A059124",
	"count": 1,
	"start": 0,
	"results": [
		{
			"number": 59124,
			"data": "4,3,3,3,4,3,3,3,4,3,3,4,4,7,7,6,6,7,5,6,5,8,8,8,9,8,8,8,9,8,7,10,10,10,11,10,10,10,11,10,6,9,9,9,10,9,9,9,10,9,6,9,9,9,10,9,9,9,10,9,6,9,9,9,10,9,9,9,10,9,7,10,10,10,11,10,10,10,11,10,5,8,8,8,9,8,8,8,9,8,6",
			"name": "Number of letters in n (in Swedish).",
			"link": [
				"\u003ca href=\"/index/Lc#letters\"\u003eIndex entries for sequences related to number of letters in n\u003c/a\u003e"
			],
			"example": [
				"noll, ett, tva, tre, fyra, fem, sex, sju, atta, nio, tio, elva... (the accents have been omitted)."
			],
			"keyword": "nonn,word",
			"offset": "0,1",
			"author": "_Fabian Rothelius_, Feb 14 2001",
			"references": 0,
			"revision": 6,
			"time": "2012-03-31T20:02:00-04:00",
			"created": "2003-05-16T03:00:00-04:00"
		}
	]
}