{
	"greeting": "Greetings from The On-Line Encyclopedia of Integer Sequences! http://oeis.org/",
	"query": "id:A059271",
	"count": 1,
	"start": 0,
	"results": [
		{
			"number": 59271,
			"data": "0,1,3,15,82,485,3039,19862,133969,925805,6521690,46658955,338115321,2476585674,18306446887,136384608971,1023041170426,7720127405881,58567844563843,446422706023630,3417223098702669,26257867836211825",
			"name": "Transform of A059226 applied to sequence 0, 1, 0, 0, 0, 0, ...",
			"xref": [
				"A059227 is transform of 1, 0, 0, 0, ..."
			],
			"keyword": "nonn,easy",
			"offset": "0,3",
			"author": "_N. J. A. Sloane_, Jan 24 2001",
			"references": 3,
			"revision": 3,
			"time": "2012-03-30T16:48:58-04:00",
			"created": "2003-05-16T03:00:00-04:00"
		}
	]
}