{
	"greeting": "Greetings from The On-Line Encyclopedia of Integer Sequences! http://oeis.org/",
	"query": "id:A059529",
	"count": 1,
	"start": 0,
	"results": [
		{
			"number": 59529,
			"data": "1,1,2,5,9,16,32,68,135,256,512,1059,2110,4096,8192,16745,33425,65536,131072,266254,531924,1048576,2097152,4244214,8482454,16777216,33554432,67741466,135417620,268435456,536870912,1082015434,2163280087,4294967296,8589934592",
			"name": "For 1 \u003c x, each c(i) is \"multiply\" (*) or \"divide\" (/); a(n) is number of choices for c(0),...,c(n-1) so that 1 c(0) x^1 c(1) x^2,.., c(n-1) x^n is an integer.",
			"comment": [
				"From _Gus Wiseman_, Jul 04 2019: (Start)",
				"Also the number of subsets of {1..n} whose sum is less than or equal to the sum of their complement. For example, the a(0) = 1 through a(5) = 16 subsets are:",
				"  {}  {}  {}   {}     {}     {}",
				"          {1}  {1}    {1}    {1}",
				"               {2}    {2}    {2}",
				"               {3}    {3}    {3}",
				"               {1,2}  {4}    {4}",
				"                      {1,2}  {5}",
				"                      {1,3}  {1,2}",
				"                      {1,4}  {1,3}",
				"                      {2,3}  {1,4}",
				"                             {1,5}",
				"                             {2,3}",
				"                             {2,4}",
				"                             {2,5}",
				"                             {3,4}",
				"                             {1,2,3}",
				"                             {1,2,4}",
				"(End)"
			],
			"formula": [
				"a(0)=1; for 0\u003cn, a(n) = A058377(n)+2^(n-1)."
			],
			"example": [
				"x = 3: for n = 2 there are 2 possibilities: 1*3*9=27 and 1/3*9=3. For n = 4 there are 9 possibilities: 1*3*9*27*81 1/3*9*27*81 1*3/9*27*81 1/3/9*27*81 1*3*9/27*81 1*3*9*27/81 1/3*9/27*81 1/3*9*27/81 1*3/9/27*81"
			],
			"mathematica": [
				"Table[Length[Select[Subsets[Range[n]],Plus@@Complement[Range[n],#]\u003e=Plus@@#\u0026]],{n,0,10}] (* _Gus Wiseman_, Jul 04 2019 *)"
			],
			"xref": [
				"Cf. A058524, A058377.",
				"Cf. A053632, A063865, A326173, A326174, A326175."
			],
			"keyword": "nonn",
			"offset": "0,3",
			"author": "_Naohiro Nomoto_, Feb 16 2001",
			"ext": [
				"More terms from _Alois P. Heinz_, Jun 13 2019"
			],
			"references": 10,
			"revision": 7,
			"time": "2019-07-04T10:27:22-04:00",
			"created": "2003-05-16T03:00:00-04:00"
		}
	]
}