{
	"greeting": "Greetings from The On-Line Encyclopedia of Integer Sequences! http://oeis.org/",
	"query": "id:A059394",
	"count": 1,
	"start": 0,
	"results": [
		{
			"number": 59394,
			"data": "5,7,467,1307,2447,5087,5927,12527,18947,44687,55079,78467,79943,83207,93383,103007,105143,111443,118787,128879,143687,164987,196907,204587,207227,208787,229487,232823,236507,257627,267143,275987,289319,296159",
			"name": "Special safe primes (from A005385) such that the next prime is also a safe prime.",
			"link": [
				"Amiram Eldar, \u003ca href=\"/A059394/b059394.txt\"\u003eTable of n, a(n) for n = 1..10000\u003c/a\u003e"
			],
			"example": [
				"For {467,55079,103007,728579,887759,..} safe primes {479,55103,103043,728627,887819} are the next primes, whose differences are 12,24,36,48,60,.. respectively,not necessarily equal to 12, the possible minimum (see A059322)."
			],
			"mathematica": [
				"ss[x_] := PrimeQ[(Prime[x]-1)/2]\u0026\u0026PrimeQ[(Prime[x+1]-1)/2] t=Prime[Flatten[Position[Table[ss[w], {w, 1, 100000}], True]]]"
			],
			"xref": [
				"Cf. A005385, A005384, A059322, A059323, A059327."
			],
			"keyword": "nonn",
			"offset": "1,1",
			"author": "_Labos Elemer_, Jan 29 2001",
			"references": 1,
			"revision": 9,
			"time": "2020-01-13T09:32:53-05:00",
			"created": "2003-05-16T03:00:00-04:00"
		}
	]
}