{
	"greeting": "Greetings from The On-Line Encyclopedia of Integer Sequences! http://oeis.org/",
	"query": "id:A059714",
	"count": 1,
	"start": 0,
	"results": [
		{
			"number": 59714,
			"data": "1,3,11,44,184,789,3435,15100,66806,296870,1323318,5911972,26455294,118528793,531540891,2385375732,10710619014,48112492938,216195753066,971744791032,4368674392104,19643610378738,88339070102046,397313118498744,1787115246076764",
			"name": "Number of stacked directed animals on the triangular lattice.",
			"comment": [
				"Closely related to directed animals. A square lattice version exists."
			],
			"link": [
				"Vincenzo Librandi, \u003ca href=\"/A059714/b059714.txt\"\u003eTable of n, a(n) for n = 1..200\u003c/a\u003e",
				"M. Bousquet-Mélou and A. Rechnitzer, \u003ca href=\"http://www.labri.fr/Perso/~bousquet/Articles/Klarner/article.ps.gz\"\u003eLattice animals and heaps of dimers\u003c/a\u003e",
				"M. Bousquet-Mélou and A. Rechnitzer, \u003ca href=\"http://dx.doi.org/10.1016/S0012-365X(02)00352-7\"\u003eLattice animals and heaps of dimers\u003c/a\u003e, Discrete Math. 258 (2002), no. 1-3, 235-274.",
				"M. Bousquet-Mélou and S. Butler, \u003ca href=\"http://arXiv.org/abs/math.CO/0603617\"\u003eForest-like permutations\u003c/a\u003e, arXiv:math/0603617 [math.CO], 2006.",
				"Kyu-Hwan Lee, Se-jin Oh, \u003ca href=\"http://arxiv.org/abs/1601.06685\"\u003eCatalan triangle numbers and binomial coefficients\u003c/a\u003e, arXiv:1601.06685 [math.CO], 2016."
			],
			"formula": [
				"G.f.: ((1-3*x)*(1-4*x)-(1-5*x)*sqrt(1-4*x))/(2*x*(2-9*x)).",
				"2*(n+1)*a(n) +(5-27*n)*a(n-1) +(121*n-163)*a(n-2) +90*(5-2*n)*a(n-3) =0. - _R. J. Mathar_, Aug 14 2012 [See following Israel's contribution.]",
				"a(n) ~ 3^(2*n-1)/2^(n+2). - _Vaclav Kotesovec_, Oct 11 2012",
				"a(n) = 3^(2*n-2)/2^n*(2-Sum_{k=1..n-1} (k+8)*C(2*k,k)*2^k/((k+1)*(k+2)*3^(2*k)) ), for n\u003e1. - _Vaclav Kotesovec_, Oct 28 2012",
				"a(n) = Sum_{k=1..n-1} (k+1)*2^(k-1)*binomial(2*n,n-k-1)/n + binomial(2*n,n-1)/n. - _Vladimir Kruchinin_, Jun 08 2016",
				"G.f. satisfies 60*x^3-31*x^2+4*x+(90*x^3-79*x^2+22*x-2)*g(x)+(180*x^4-121*x^3+27*x^2-2*x)*g'(x) = 0, from which Mathar's recurrence follows. - _Robert Israel_, Jun 08 2016",
				"G.f. F satisfies 0 = F^2*(9*x^2 - 2*x) + F*(12*x^2 - 7*x + 1) + 4*x^2 - x. - _F. Chapoton_, Oct 16 2021"
			],
			"maple": [
				"gf := ((1-3*x)*(1-4*x)-(1-5*x)*sqrt(1-4*x))/(2*x*(2-9*x)): s := series(gf, x, 50): for i from 1 to 100 do printf(`%d,`,coeff(s,x,i)) od:"
			],
			"mathematica": [
				"Rest[Table[SeriesCoefficient[((1-3*x)*(1-4*x)-(1-5*x)*Sqrt[1-4*x])/(2*x*(2-9*x)),{x,0,n}],{n,0,20}]] (* _Vaclav Kotesovec_, Oct 28 2012 *)",
				"Flatten[{1,Table[3^(2*n-2)/2^n* (2 - Sum[(k+8)*Binomial[2*k,k]*2^k/((k+1)*(k+2)*3^(2*k)),{k,1,n-1}]),{n,2,20}]}] (* _Vaclav Kotesovec_, Oct 28 2012 *)"
			],
			"program": [
				"(PARI) x = 'x + O('x^40); Vec(((1-3*x)*(1-4*x)-(1-5*x)*sqrt(1-4*x))/(2*x*(2-9*x))) \\\\ _Michel Marcus_, Jan 28 2016",
				"(Maxima)",
				"a(n):=sum((k+1)*2^(k-1)*binomial(2*n,n-k-1),k,1,n-1)/n+binomial(2*n,n-1)/n; /* _Vladimir Kruchinin_, Jun 08 2016 */"
			],
			"xref": [
				"Cf. A005773."
			],
			"keyword": "nonn",
			"offset": "1,2",
			"author": "_Mireille Bousquet-Mélou_, Feb 08 2001",
			"ext": [
				"More terms from _James A. Sellers_, Feb 09 2001"
			],
			"references": 3,
			"revision": 52,
			"time": "2021-10-16T15:17:56-04:00",
			"created": "2003-05-16T03:00:00-04:00"
		}
	]
}