{
	"greeting": "Greetings from The On-Line Encyclopedia of Integer Sequences! http://oeis.org/",
	"query": "id:A059332",
	"count": 1,
	"start": 0,
	"results": [
		{
			"number": 59332,
			"data": "1,1,2,24,3456,9953280,859963392000,3120635156889600000,634153008009974906880000000,9278496603801318870491332608000000000,12218100099725239100847669366019325952000000000000,1769792823810713244721831122736499011207487815680000000000000000",
			"name": "Determinant of n X n matrix A defined by A[i,j] = (i+j-1)! for 1 \u003c= i,j \u003c= n.",
			"comment": [
				"Hankel transform of n! (A000142(n)) and of A003319. - _Paul Barry_, Oct 07 2008",
				"Hankel transform of A000255. - _Paul Barry_, Apr 22 2009",
				"Monotonic magmas of size n, i.e., magmas with elements labeled 1..n where product(i,j) \u003e= max(i,j). - _Chad Brewbaker_, Nov 03 2013",
				"Also called the bouncing factorial function. - _Alexander Goebel_, Apr 08 2020"
			],
			"link": [
				"Alois P. Heinz, \u003ca href=\"/A059332/b059332.txt\"\u003eTable of n, a(n) for n = 0..32\u003c/a\u003e",
				"Paul Barry, \u003ca href=\"https://cs.uwaterloo.ca/journals/JIS/VOL19/Barry/barry321.html\"\u003eJacobsthal Decompositions of Pascal's Triangle, Ternary Trees, and Alternating Sign Matrices\u003c/a\u003e, Journal of Integer Sequences, 19, 2016, #16.3.5.",
				"Googology Wiki, \u003ca href=\"https://googology.wikia.org/wiki/Bouncing_Factorial\"\u003eBouncing Factorial\u003c/a\u003e"
			],
			"formula": [
				"a(n) = a(n-1)*(n!)*(n-1)! for n \u003e= 2 so a(n) = product k=1, 2, ..., n k!*(k-1)!.",
				"a(n) = 2^C(n,2)*Product_{k=1..(n-1), C(k+2,2)^(n-1-k)}. - _Paul Barry_, Jan 15 2009",
				"a(n) = n!*product(k!, k=0..n-1)^2. - _Johannes W. Meijer_, Jun 27 2009",
				"a(n) ~ (2*Pi)^(n+1/2) * exp(1/6 - n - 3*n^2/2) * n^(n^2 + n + 1/3) / A^2, where A = A074962 is the Glaisher-Kinkelin constant. - _Vaclav Kotesovec_, Aug 01 2015"
			],
			"example": [
				"a(4) = 3456 because the relevant matrix is {1 2 6 24 / 2 6 24 120 / 6 24 120 720 / 24 120 720 5040 } and the determinant is 3456."
			],
			"maple": [
				"with(linalg): Digits := 500: A059332 := proc(n) local A, i, j: A := array(1..n,1..n): for i from 1 to n do for j from 1 to n do A[i,j] := (i+j-1)! od: od: RETURN(det(A)) end: for n from 1 to 20 do printf(`%d,`, A059332(n)) od;",
				"# second Maple program:",
				"a:= proc(n) option remember;",
				"      `if`(n=0, 1, a(n-1)*n!^2/n)",
				"    end:",
				"seq(a(n), n=0..12);  # _Alois P. Heinz_, Apr 29 2020"
			],
			"mathematica": [
				"Table[n! BarnesG[n+1]^2, {n, 1, 10}] (* _Jean-François Alcover_, Sep 19 2016 *)"
			],
			"program": [
				"(Ruby)",
				"def mono_choices(a,b,n)",
				"    n - [a,b].max",
				"end",
				"def all_mono_choices(n)",
				"    accum =1",
				"    0.upto(n-1) do |i|",
				"        0.upto(n-1) do |j|",
				"            accum = accum * mono_choices(i,j,n)",
				"        end",
				"    end",
				"    accum",
				"end",
				"1.upto(12) do |k|",
				"puts all_mono_choices(k)",
				"end # _Chad Brewbaker_, Nov 03 2013",
				"(PARI) A059332(n)=matdet(matrix(n,n,i,j,(i+j-1)!)) \\\\ _M. F. Hasler_, Nov 03 2013",
				"(PARI) a(n) = 2^binomial(n,2)*prod(k=1,n-1, binomial(k+2,2)^(n-1-k)) \\\\ _Ralf Stephan_, Nov 04 2013"
			],
			"xref": [
				"Cf. A010790.",
				"Cf. A162014 and A055209. - _Johannes W. Meijer_, Jun 27 2009"
			],
			"keyword": "nonn",
			"offset": "0,3",
			"author": "Noam Katz (noamkj(AT)hotmail.com), Jan 26 2001",
			"ext": [
				"More terms from _James A. Sellers_, Jan 29 2001",
				"Offset corrected. Comment and formula aligned with new offset by _Johannes W. Meijer_, Jun 24 2009",
				"a(0)=1 prepended by _Alois P. Heinz_, Apr 08 2020"
			],
			"references": 8,
			"revision": 56,
			"time": "2020-04-29T07:52:45-04:00",
			"created": "2003-05-16T03:00:00-04:00"
		}
	]
}