{
	"greeting": "Greetings from The On-Line Encyclopedia of Integer Sequences! http://oeis.org/",
	"query": "id:A059733",
	"count": 1,
	"start": 0,
	"results": [
		{
			"number": 59733,
			"data": "1,1,2,3,10,41,1682,346493,120057399050,51458022952549550101,2647928126185116317725365841617509110202,505756353132539355991535788904396967700352784465846135098293311191732045",
			"name": "Central column a(n,[n/2]) of A059922.",
			"keyword": "nonn",
			"offset": "0,3",
			"author": "_N. J. A. Sloane_, Feb 09 2001",
			"references": 1,
			"revision": 3,
			"time": "2012-03-30T16:49:03-04:00",
			"created": "2003-05-16T03:00:00-04:00"
		}
	]
}