{
	"greeting": "Greetings from The On-Line Encyclopedia of Integer Sequences! http://oeis.org/",
	"query": "id:A059072",
	"count": 1,
	"start": 0,
	"results": [
		{
			"number": 59072,
			"data": "1,0,1,10,297,13756,925705,85394646,10351036465,1596005408152",
			"name": "Duplicate of A000459.",
			"keyword": "dead",
			"offset": "0,4",
			"author": "Barbara Haas Margolius (margolius(AT)math.csuohio.edu)",
			"references": 0,
			"revision": 20,
			"time": "2016-10-06T12:25:24-04:00",
			"created": "2003-05-16T03:00:00-04:00"
		}
	]
}