{
	"greeting": "Greetings from The On-Line Encyclopedia of Integer Sequences! http://oeis.org/",
	"query": "id:A059180",
	"count": 1,
	"start": 0,
	"results": [
		{
			"number": 59180,
			"data": "2,3,7,9,104,510,1413,2386,40447,87110,124975,1565154,1766158,2440919,2637001,9192874,24998746,73973182,88828340,432049320,470421590,477600793,3313014448,4571423959,28839435286,40818751774",
			"name": "Engel expansion of log(2).",
			"comment": [
				"See A006784 for the definition of Engel expansion."
			],
			"reference": [
				"F. Engel, Entwicklung der Zahlen nach Stammbruechen, Verhandlungen der 52. Versammlung deutscher Philologen und Schulmaenner in Marburg, 1913, pp. 190-191."
			],
			"link": [
				"G. C. Greubel and T. D. Noe, \u003ca href=\"/A059180/b059180.txt\"\u003eTable of n, a(n) for n = 1..1000\u003c/a\u003e[Terms 1 to 300 computed by T. D. Noe; Terms 301 to 1000 computed by G. C. Greubel, Dec 27 2016]",
				"F. Engel, \u003ca href=\"/A006784/a006784.pdf\"\u003eEntwicklung der Zahlen nach Stammbruechen\u003c/a\u003e, Verhandlungen der 52. Versammlung deutscher Philologen und Schulmaenner in Marburg, 1913, pp. 190-191. English translation by Georg Fischer, included with his permission.",
				"Eric Weisstein's World of Mathematics, \u003ca href=\"http://mathworld.wolfram.com/EngelExpansion.html\"\u003eEngel Expansion\u003c/a\u003e",
				"Eric Weisstein's World of Mathematics, \u003ca href=\"http://mathworld.wolfram.com/NaturalLogarithmof2.html\"\u003eNatural Logarithm of 2\u003c/a\u003e",
				"P. Erdős and Jeffrey Shallit, \u003ca href=\"http://www.numdam.org/item?id=JTNB_1991__3_1_43_0\"\u003eNew bounds on the length of finite Pierce and Engel series\u003c/a\u003e, Sem. Theor. Nombres Bordeaux (2) 3 (1991), no. 1, 43-53.",
				"\u003ca href=\"/index/El#Engel\"\u003eIndex entries for sequences related to Engel expansions\u003c/a\u003e"
			],
			"mathematica": [
				"EngelExp[A_, n_] := Join[Array[1 \u0026, Floor[A]], First@Transpose@",
				"NestList[{Ceiling[1/Expand[#[[1]] #[[2]] - 1]], Expand[#[[1]] #[[2]] - 1]/1} \u0026, {Ceiling[1/(A - Floor[A])], (A - Floor[A])/1}, n - 1]];",
				"EngelExp[N[Log[2], 7!], 100] (* Modified by _G. C. Greubel_, Dec 27 2016 *)"
			],
			"xref": [
				"Cf. A002162 (decimal expansion of the natural logarithm of 2)."
			],
			"keyword": "nonn,easy,nice",
			"offset": "1,1",
			"author": "_Mitch Harris_",
			"references": 3,
			"revision": 35,
			"time": "2018-04-13T11:17:10-04:00",
			"created": "2003-05-16T03:00:00-04:00"
		}
	]
}