{
	"greeting": "Greetings from The On-Line Encyclopedia of Integer Sequences! http://oeis.org/",
	"query": "id:A059351",
	"count": 1,
	"start": 0,
	"results": [
		{
			"number": 59351,
			"data": "7,13,19,37,53,61,67,73,79,97,103,131,139,151,157,163,181,193,199,211,241,271,313,331,337,349,367,373,379,409,421,443,463,487,521,523,541,547,571,577,599,607,613,619,631,661,673,677,709,751,757,769,787,823",
			"name": "Primes p such that x^39 = 2 has no solution mod p.",
			"comment": [
				"Complement of A049571 relative to A000040."
			],
			"link": [
				"Vincenzo Librandi, \u003ca href=\"/A059351/b059351.txt\"\u003eTable of n, a(n) for n = 1..1000\u003c/a\u003e"
			],
			"mathematica": [
				"ok[p_] := Reduce[Mod[x^39 - 2, p] == 0, x, Integers] == False; Select[Prime[Range[150]], ok ] (* _Vincenzo Librandi_, Sep 20 2012  *)"
			],
			"program": [
				"(MAGMA) [p: p in PrimesUpTo(850) | forall{x: x in ResidueClassRing(p) | x^39 ne 2 }]; // _Vincenzo Librandi_, Sep 20 2012"
			],
			"xref": [
				"Cf. A000040, A049571."
			],
			"keyword": "nonn,easy",
			"offset": "1,1",
			"author": "_Klaus Brockhaus_, Jan 27 2001",
			"references": 1,
			"revision": 7,
			"time": "2012-09-20T14:06:47-04:00",
			"created": "2003-05-16T03:00:00-04:00"
		}
	]
}