{
	"greeting": "Greetings from The On-Line Encyclopedia of Integer Sequences! http://oeis.org/",
	"query": "id:A059578",
	"count": 1,
	"start": 0,
	"results": [
		{
			"number": 59578,
			"data": "1,2,7,30,147,792,4559,27500,171645,1099388,7185101,47724494,321225165,2186177302,15018795171,104011496474,725373340023",
			"name": "Variation of Boustrophedon transform applied to 1,1,1,1,... Fill an array by diagonals, all in the 'up' direction. The first column is 1,1,1,1,.... For the next element of a diagonal, add to the previous element the elements of the row and the column the new element is in. The first row gives a(n).",
			"example": [
				"The array begins",
				"1 2 7 30 ...",
				"1 4 20 ...",
				"1 8 ...",
				"1 ..."
			],
			"xref": [
				"Cf. A000667, A035002, A059216, A059219, A059502, A059513."
			],
			"keyword": "easy,nonn",
			"offset": "1,2",
			"author": "_Floor van Lamoen_, Jan 23 2001",
			"references": 1,
			"revision": 3,
			"time": "2015-03-02T16:08:45-05:00",
			"created": "2003-05-16T03:00:00-04:00"
		}
	]
}