{
	"greeting": "Greetings from The On-Line Encyclopedia of Integer Sequences! http://oeis.org/",
	"query": "id:A059183",
	"count": 1,
	"start": 0,
	"results": [
		{
			"number": 59183,
			"data": "1,3,4,4,5,5,5,6,47,109,935,4763,7821,8895,9889,35798,44347,1146551,7874944,8043393,27403243,34058912,58098040,68760470,80046897,560099631,611427977,14235032003,602865059026,813485869378",
			"name": "Engel expansion of 1/log(2) = 1.4427...",
			"comment": [
				"Cf. A006784 for definition of Engel expansion."
			],
			"reference": [
				"F. Engel, Entwicklung der Zahlen nach Stammbruechen, Verhandlungen der 52. Versammlung deutscher Philologen und Schulmaenner in Marburg, 1913, pp. 190-191."
			],
			"link": [
				"G. C. Greubel, \u003ca href=\"/A059183/b059183.txt\"\u003eTable of n, a(n) for n = 1..1000\u003c/a\u003e",
				"F. Engel, \u003ca href=\"/A006784/a006784.pdf\"\u003eEntwicklung der Zahlen nach Stammbruechen\u003c/a\u003e, Verhandlungen der 52. Versammlung deutscher Philologen und Schulmaenner in Marburg, 1913, pp. 190-191. English translation by Georg Fischer, included with his permission.",
				"P. Erdős and Jeffrey Shallit, \u003ca href=\"http://www.numdam.org/item?id=JTNB_1991__3_1_43_0\"\u003eNew bounds on the length of finite Pierce and Engel series\u003c/a\u003e, Sem. Theor. Nombres Bordeaux (2) 3 (1991), no. 1, 43-53.",
				"\u003ca href=\"/index/El#Engel\"\u003eIndex entries for sequences related to Engel expansions\u003c/a\u003e"
			],
			"mathematica": [
				"EngelExp[A_, n_] := Join[Array[1 \u0026, Floor[A]], First@Transpose@",
				"NestList[{Ceiling[1/Expand[#[[1]] #[[2]] - 1]], Expand[#[[1]] #[[2]] - 1]/1} \u0026, {Ceiling[1/(A - Floor[A])], (A - Floor[A])/1}, n - 1]];",
				"EngelExp[N[1/Log[2], 7!], 100] (* Modified by _G. C. Greubel_, Dec 27 2016 *)"
			],
			"xref": [
				"Cf. A007525 (1/log(2))."
			],
			"keyword": "nonn,easy,nice",
			"offset": "1,2",
			"author": "_Mitch Harris_, May 16 2003",
			"references": 1,
			"revision": 29,
			"time": "2018-04-13T11:18:32-04:00",
			"created": "2003-05-16T03:00:00-04:00"
		}
	]
}