{
	"greeting": "Greetings from The On-Line Encyclopedia of Integer Sequences! http://oeis.org/",
	"query": "id:A059487",
	"count": 1,
	"start": 0,
	"results": [
		{
			"number": 59487,
			"data": "1,2,80,53760,590413824,104981650735104,300931721514121691136,13874404129378738693891686400,10274196157891080769280680484929536000,122089077024940067215877965611538507917950976000,23266604385482749027479729551862778584550130343015874560000",
			"name": "Number of 2-enumeration of 4n X 4n quarter-turn symmetric alternating-sign matrices.",
			"link": [
				"G. Kuperberg, \u003ca href=\"https://arxiv.org/abs/math/0008184\"\u003eSymmetry classes of alternating-sign matrices under one roof\u003c/a\u003e, arXiv:math/0008184 [math.CO], 2000-2001; [Th. 3]."
			],
			"maple": [
				"A059487 := proc(n) local i, j, t1; t1 := (-1)^(n*(n-1)/2)*2^(2*n^2-n); for i to n do for j to n do t1 := t1*(4*j - 4*i + 1)/(j - i + n); end do end do; t1 end proc;"
			],
			"mathematica": [
				"a[n_] := Module[{t1 = (-1)^(n*(n - 1)/2)*2^(2*n^2 - n)}, Do[t1 = t1*(4*j - 4*i + 1)/(j - i + n), {j, n}, {i, n}]; t1];",
				"Array[a, 11, 0] (* _Jean-François Alcover_, Nov 28 2017, from Maple *)"
			],
			"keyword": "nonn,easy",
			"offset": "0,2",
			"author": "_N. J. A. Sloane_, Feb 04 2001",
			"references": 1,
			"revision": 10,
			"time": "2017-11-28T06:43:53-05:00",
			"created": "2003-05-16T03:00:00-04:00"
		}
	]
}