{
	"greeting": "Greetings from The On-Line Encyclopedia of Integer Sequences! http://oeis.org/",
	"query": "id:A059882",
	"count": 1,
	"start": 0,
	"results": [
		{
			"number": 59882,
			"data": "1,0,1,1,0,1,2,0,0,1,2,1,0,0,1,4,2,0,0,0,1,6,3,1,0,0,0,1,9,4,2,0,0,0,0,1,14,7,3,1,0,0,0,0,1,23,10,5,2,0,0,0,0,0,1,35,17,7,3,1,0,0,0,0,0,1,55,26,11,5,2,0,0,0,0,0,0,1,87,41,17,8,3,1,0,0,0,0,0,0,1,136,64,28,11,5,2",
			"name": "As upper right triangle: ascending wiggly sums to n where first term is k (sums in which terms alternately increase and decrease; zigzag partitions).",
			"formula": [
				"If n\u003ek\u003e0 T(n, k)=sum_j[S(n-k, j)] over j\u003ek and if n\u003e0 T(n, n)=1; where S(n, k)=A059883(n, k) and if n\u003ek\u003e0, S(n, k)=sum_j[T(n-k, j)] over k\u003ej (note reversal) and if n\u003e0 S(n, n)=1."
			],
			"example": [
				"Rows start (1,0,1,2,2,...), (1,0,0,1,...), (1,0,0,...) etc. T(10,4)=2 since 10 can be written as 4+6 or 4+5+1."
			],
			"xref": [
				"Column sums are A025048. Cf. A025047, A025049, A059881, A059883."
			],
			"keyword": "nonn,tabl",
			"offset": "1,7",
			"author": "_Henry Bottomley_, Feb 05 2001",
			"references": 4,
			"revision": 3,
			"time": "2012-03-30T18:51:33-04:00",
			"created": "2003-05-16T03:00:00-04:00"
		}
	]
}