{
	"greeting": "Greetings from The On-Line Encyclopedia of Integer Sequences! http://oeis.org/",
	"query": "id:A059554",
	"count": 1,
	"start": 0,
	"results": [
		{
			"number": 59554,
			"data": "3,7,11,15,19,22,26,30,34,38,42,45,49,53,57,61,65,68,72,76,80,84,87,91,95,99,103,107,110,114,118,122,126,130,133,137,141,145,149,152,156,160,164,168,172,175,179,183,187,191,195,198,202,206,210,214,217,221",
			"name": "Beatty sequence for Gamma(2/3)/(Gamma(2/3)-1).",
			"link": [
				"Harry J. Smith, \u003ca href=\"/A059554/b059554.txt\"\u003eTable of n, a(n) for n = 1..2000\u003c/a\u003e",
				"Aviezri S. Fraenkel, Jonathan Levitt, Michael Shimshoni, \u003ca href=\"http://dx.doi.org/10.1016/0012-365X(72)90012-X\"\u003eCharacterization of the set of values f(n)=[n alpha], n=1,2,...\u003c/a\u003e, Discrete Math. 2 (1972), no.4, 335-345.",
				"Eric Weisstein's World of Mathematics, \u003ca href=\"http://mathworld.wolfram.com/BeattySequence.html\"\u003eBeatty Sequence.\u003c/a\u003e",
				"\u003ca href=\"/index/Be#Beatty\"\u003eIndex entries for sequences related to Beatty sequences\u003c/a\u003e"
			],
			"formula": [
				"a(n) = floor(n*gamma(2/3)/(gamma(2/3)-1)). - _Michel Marcus_, Jan 05 2015"
			],
			"program": [
				"(PARI) { default(realprecision, 100); b=gamma(2/3)/(gamma(2/3) - 1); for (n = 1, 2000, write(\"b059554.txt\", n, \" \", floor(n*b)); ) } \\\\ _Harry J. Smith_, Jun 28 2009"
			],
			"xref": [
				"Beatty complement is A059553."
			],
			"keyword": "nonn,easy",
			"offset": "1,1",
			"author": "_Mitch Harris_, Jan 22 2001",
			"references": 2,
			"revision": 18,
			"time": "2016-01-03T14:13:12-05:00",
			"created": "2003-05-16T03:00:00-04:00"
		}
	]
}