{
	"greeting": "Greetings from The On-Line Encyclopedia of Integer Sequences! http://oeis.org/",
	"query": "id:A060416",
	"count": 1,
	"start": 0,
	"results": [
		{
			"number": 60416,
			"data": "1,3,31,191,1023,5119,24575,114687,524287,2359295,10485759,46137343,201326591,872415231,3758096383,16106127359,68719476735,292057776127,1236950581247,5222680231935,21990232555519,92358976733183",
			"name": "a(n) = n*4^n - 1.",
			"link": [
				"Harry J. Smith, \u003ca href=\"/A060416/b060416.txt\"\u003eTable of n, a(n) for n = 0..200\u003c/a\u003e",
				"Paul Leyland, \u003ca href=\"http://www.leyland.vispa.com/numth/factorization/cullen_woodall/cw.htm\"\u003eFactors of Cullen and Woodall numbers\u003c/a\u003e",
				"Paul Leyland, \u003ca href=\"http://www.leyland.vispa.com/numth/factorization/cullen_woodall/gcw.htm\"\u003eGeneralized Cullen and Woodall numbers\u003c/a\u003e",
				"Amelia Carolina Sparavigna, \u003ca href=\"https://doi.org/10.5281/zenodo.3471358\"\u003eThe groupoids of Mersenne, Fermat, Cullen, Woodall and other Numbers and their representations by means of integer sequences\u003c/a\u003e, Politecnico di Torino, Italy (2019), [math.NT].",
				"Amelia Carolina Sparavigna, \u003ca href=\"https://doi.org/10.18483/ijSci.2188\"\u003eSome Groupoids and their Representations by Means of Integer Sequences\u003c/a\u003e, International Journal of Sciences (2019) Vol. 8, No. 10."
			],
			"formula": [
				"G.f.: (1-6*x+28*x^2-32*x^3)/((1-x)*(1-4*x)^2). [_Colin Barker_, Apr 22 2012]"
			],
			"mathematica": [
				"CoefficientList[Series[(1 - 6 x + 28 x^2 - 32 x^3)/((1 - x) (1 - 4 x)^2), {x, 0, 21}], x] (* _Michael De Vlieger_, Jan 04 2020 *)"
			],
			"program": [
				"(PARI) { for (n=0, 200, write(\"b060416.txt\", n, \" \", abs(n*4^n - 1)); ) } \\\\ _Harry J. Smith_, Jul 04 2009"
			],
			"keyword": "nonn,easy",
			"offset": "0,2",
			"author": "_Jason Earls_, Apr 05 2001",
			"references": 6,
			"revision": 23,
			"time": "2020-01-15T00:53:13-05:00",
			"created": "2003-05-16T03:00:00-04:00"
		}
	]
}