{
	"greeting": "Greetings from The On-Line Encyclopedia of Integer Sequences! http://oeis.org/",
	"query": "id:A060521",
	"count": 1,
	"start": 0,
	"results": [
		{
			"number": 60521,
			"data": "6,36,102,378,1260,4374,14946,51384,176238,605022,2076288,7126302,24457806,83942100,288096942,988778082,3393583068,11647114446,39974047290,137194888728,470866430838,1616060190870,5546478488640",
			"name": "Number of 3 X n grids of black and white cells, no 3 of same color vertically or horizontally contiguous.",
			"comment": [
				"The conjectured recursion is correct: For each n count the solutions separately where the last two rows differ in 0, 1, 2, or 3 places; a linear recursion is then readily found. The corresponding matrix has characteristic polynomial x^4 - 2 x^3 - 5 x^2 + 1, matching the recursion recursion a(n+4) = 2a(n+3) + 5a(n+2) - a(n). [From _Hagen von Eitzen_, Oct 21 2009]"
			],
			"formula": [
				"Almost surely satisfies a(n+4) = 2a(n+3) + 5a(n+2) - a(n)."
			],
			"keyword": "nonn",
			"offset": "1,1",
			"author": "Tom Womack (tom(AT)womack.net)",
			"ext": [
				"More terms from _Hagen von Eitzen_, Oct 21 2009"
			],
			"references": 5,
			"revision": 5,
			"time": "2012-03-31T14:12:21-04:00",
			"created": "2003-05-16T03:00:00-04:00"
		}
	]
}