{
	"greeting": "Greetings from The On-Line Encyclopedia of Integer Sequences! http://oeis.org/",
	"query": "id:A060298",
	"count": 1,
	"start": 0,
	"results": [
		{
			"number": 60298,
			"data": "3,12,34,94,263,768,2333,7167,22291,69751,219081,689736,2174856,6864354,21679391,68497906,216485583,684323923,2163459803,6840258025,21628220224,68388917596,216252901472,683826283482,2162393925204,6837972506895,21623315009817",
			"name": "Number of powers x^y (x,y \u003e 1) with n digits.",
			"comment": [
				"Conjectures from _Robert G. Wilson v_, Aug 29 2012: (Start)",
				"Lim_n-\u003einf. of a(2n)/10^n = 1-1/sqrt(10) and",
				"Lim_n-\u003einf. of a(2n-1)/10^n = 1/sqrt(10)-1/10. (End)",
				"These follow from the Formula. - _Robert Israel_, Apr 29 2020"
			],
			"link": [
				"Robert Israel, \u003ca href=\"/A060298/b060298.txt\"\u003eTable of n, a(n) for n = 1..1000\u003c/a\u003e"
			],
			"formula": [
				"a(n) = Sum_{2\u003c=y\u003c=n*log_2(10)} (ceiling(10^(n/y)) - ceiling(10^((n-1)/y))) for n \u003e= 2. - _Robert Israel_, Apr 29 2020"
			],
			"example": [
				"a(1) = 3 because there are 3 powers with 1 digit: 2^2, 2^3 and 3^2."
			],
			"maple": [
				"f:= proc(n) local y;",
				"  add(ceil(10^(n/y))-ceil(10^((n-1)/y)), y=2..floor(n*log[2](10)))",
				"end proc:",
				"f(1):= 3:",
				"map(f, [$1..20]); # _Robert Israel_, Apr 29 2020"
			],
			"keyword": "nonn,base",
			"offset": "1,1",
			"author": "_Michel ten Voorde_ Apr 10 2001",
			"ext": [
				"a(10)-a(18) from _Donovan Johnson_, Dec 14 2009",
				"a(19)-a(27) from _Donovan Johnson_, Aug 29 2012"
			],
			"references": 1,
			"revision": 17,
			"time": "2021-10-23T00:38:39-04:00",
			"created": "2003-05-16T03:00:00-04:00"
		}
	]
}