{
	"greeting": "Greetings from The On-Line Encyclopedia of Integer Sequences! http://oeis.org/",
	"query": "id:A061332",
	"count": 1,
	"start": 0,
	"results": [
		{
			"number": 61332,
			"data": "107227,151537,235747,332473,382873,418993,440497,551233,584473,607993,727777,737353,838657,920137,922993,983347,995443,1079107,1186963,1292593,1469833,1621537,1669537,1781803,1858033,1912513,1913473",
			"name": "Primes with 20 as smallest positive primitive root.",
			"link": [
				"T. D. Noe, \u003ca href=\"/A061332/b061332.txt\"\u003eTable of n, a(n) for n=1..1000\u003c/a\u003e"
			],
			"mathematica": [
				"Select[ Prime@Range@200000, PrimitiveRoot[#] == 20 \u0026] (* _Robert G. Wilson v_, May 11 2001 *)"
			],
			"xref": [
				"Cf. A001918, A001126, A019347."
			],
			"keyword": "nonn",
			"offset": "1,1",
			"author": "_Klaus Brockhaus_, Apr 25 2001",
			"ext": [
				"More terms from _Robert G. Wilson v_, May 11 2001"
			],
			"references": 1,
			"revision": 15,
			"time": "2015-07-19T00:58:39-04:00",
			"created": "2003-05-16T03:00:00-04:00"
		}
	]
}