{
	"greeting": "Greetings from The On-Line Encyclopedia of Integer Sequences! http://oeis.org/",
	"query": "id:A061245",
	"count": 1,
	"start": 0,
	"results": [
		{
			"number": 61245,
			"data": "3,5,7,11,31,53,71,73,97,311,331,733,751,773,911,953,971,977,991,997,3331,5333,5531,7331,7333,7753,9311,9511,9533,9551,9733,9931,9973,33311,33331,55331,55333,55511,73331,75511,75533,75553,77551,77711",
			"name": "Prime numbers with odd digits in descending order.",
			"xref": [
				"Cf. A061244, A028867, A052014."
			],
			"keyword": "nonn,base",
			"offset": "1,1",
			"author": "_Amarnath Murthy_, Apr 23 2001",
			"ext": [
				"More terms from _Patrick De Geest_, Jun 04 2001"
			],
			"references": 1,
			"revision": 6,
			"time": "2019-10-26T17:49:26-04:00",
			"created": "2003-05-16T03:00:00-04:00"
		}
	]
}