{
	"greeting": "Greetings from The On-Line Encyclopedia of Integer Sequences! http://oeis.org/",
	"query": "id:A061003",
	"count": 1,
	"start": 0,
	"results": [
		{
			"number": 61003,
			"data": "0,1,10,41,125,311,672,1311,2362,4000,6442,9953,14852,21513,30375,41943,56794,75583,99044,128000,163364,206145,257454,318505,390625,475255,573956,688415,820446,972000,1145166,1342177,1565416,1817417",
			"name": "Nearest integer to n^5/25.",
			"link": [
				"Harry J. Smith, \u003ca href=\"/A061003/b061003.txt\"\u003eTable of n, a(n) for n = 1..1000\u003c/a\u003e"
			],
			"formula": [
				"G.f.: x*(x^7+5x^6+x^5+10x^4+x^3+5x^2+x)/((1-x^5)*(1-x)^5)."
			],
			"maple": [
				"seq(round(n^5/25),n=1..35); # _Muniru A Asiru_, Jul 02 2018"
			],
			"program": [
				"(PARI) { default(realprecision, 100); for (n=1, 1000, write(\"b061003.txt\", n, \" \", round(n^5/25)) ) } \\\\ _Harry J. Smith_, Jul 16 2009"
			],
			"xref": [
				"Cf. A011863, A061004."
			],
			"keyword": "nonn",
			"offset": "1,3",
			"author": "_N. J. A. Sloane_, May 15 2001",
			"references": 1,
			"revision": 14,
			"time": "2018-07-03T03:25:17-04:00",
			"created": "2003-05-16T03:00:00-04:00"
		}
	]
}