{
	"greeting": "Greetings from The On-Line Encyclopedia of Integer Sequences! http://oeis.org/",
	"query": "id:A061628",
	"count": 1,
	"start": 0,
	"results": [
		{
			"number": 61628,
			"data": "0,0,0,0,0,5,-84,1200,-16854,239404",
			"name": "Disk degeneracies for brane I or brane II in the O(K) -\u003e P^2 geometry.",
			"link": [
				"M. Aganagic, A. Klemm and C. Vafa, \u003ca href=\"http://arXiv.org/abs/hep-th/0105045\"\u003eDisk Instantons, Mirror Symmetry and the Duality Web\u003c/a\u003e"
			],
			"keyword": "sign",
			"offset": "0,6",
			"author": "_N. J. A. Sloane_, Jun 10 2001",
			"references": 0,
			"revision": 3,
			"time": "2012-03-30T16:49:06-04:00",
			"created": "2003-05-16T03:00:00-04:00"
		}
	]
}