{
	"greeting": "Greetings from The On-Line Encyclopedia of Integer Sequences! http://oeis.org/",
	"query": "id:A061381",
	"count": 1,
	"start": 0,
	"results": [
		{
			"number": 61381,
			"data": "13,17,29,46,64,86,105,136,161,200,229,276,309,362,419,460,505,572,621,694,749,830,889,978,1054,1136,1205,1306,1381,1490,1569,1684,1769,1892,1999,2112,2205,2342,2441,2584,2689,2840,2949,3106,3269,3386,3505,3678",
			"name": "Smallest \"inconsummate number\" in base n greater than in the previous base.",
			"mathematica": [
				"n = 1; Do[ While[k = n; While[ Apply[ Plus, IntegerDigits[k, b] ]*n != k \u0026\u0026 k \u003c 100n, k += n]; k != 100n, n++ ]; Print[n], {b, 2, 60} ]"
			],
			"xref": [
				"Cf. A052491."
			],
			"keyword": "base,easy,nice,nonn",
			"offset": "2,1",
			"author": "_Robert G. Wilson v_, Jun 08 2001",
			"references": 0,
			"revision": 7,
			"time": "2021-06-18T11:37:32-04:00",
			"created": "2003-05-16T03:00:00-04:00"
		}
	]
}