{
	"greeting": "Greetings from The On-Line Encyclopedia of Integer Sequences! http://oeis.org/",
	"query": "id:A061835",
	"count": 1,
	"start": 0,
	"results": [
		{
			"number": 61835,
			"data": "5,25,125,3125,1953125,45474735088646411895751953125",
			"name": "a(1) = 5; a(n) = smallest power of 5 (larger than a(n-1)) with a(n-1) forming its final digits.",
			"link": [
				"\u003ca href=\"/index/Fi#final\"\u003eIndex entries for sequences related to final digits of numbers\u003c/a\u003e"
			],
			"example": [
				"After 3125 = 5^5 the next term is 1953125 = 5^9, containing 3125 as its final digits."
			],
			"program": [
				"(ARIBAS) a := 5; n := 1; writeln(\"a(\",n,\") = \",a); stop := 50000; run := true; c := 1; while run do b := a; len := length(itoa(b)); inc(n); a := 1; while a mod 10^len \u003c\u003e b and c \u003c\u003e stop do inc(c); a := 5^c; end; if c \u003c stop then writeln(\"a(\",n,\") = \",5,\"^\",c,\" = \",a); else writeln(\"a(\",n,\") \u003e \",5,\"^\",c); run := false; end; end;"
			],
			"keyword": "nonn,base",
			"offset": "1,1",
			"author": "_Amarnath Murthy_, May 29 2001",
			"ext": [
				"Description corrected by and one more term from _Klaus Brockhaus_, Jun 03 2001, who remarks that the next term is \u003e 5^50000",
				"6th term also found by _Frank Ellermann_, Jun 04 2001"
			],
			"references": 0,
			"revision": 12,
			"time": "2015-03-12T23:53:18-04:00",
			"created": "2003-05-16T03:00:00-04:00"
		}
	]
}