{
	"greeting": "Greetings from The On-Line Encyclopedia of Integer Sequences! http://oeis.org/",
	"query": "id:A061461",
	"count": 1,
	"start": 0,
	"results": [
		{
			"number": 61461,
			"data": "2,3,5,7,11,13,17,31,37,71,73,79,97,101,103,107,113,127,131,149,157,163,181,191,197,199,307,311,317,331,337,359,367,373,701,709,719,727,733,739,757,761,787,797,907,919,937,941,947,971,983,991,1013,1019",
			"name": "Primes which produce primes when the leading digit is moved to the end.",
			"link": [
				"Robert Israel, \u003ca href=\"/A061461/b061461.txt\"\u003eTable of n, a(n) for n = 1..10000\u003c/a\u003e"
			],
			"example": [
				"127 becomes 271 which is also a prime."
			],
			"maple": [
				"R:= 2,3,5,7:",
				"for d from 1 to 3 do",
				"  for i in [1,3,7,9] do",
				"    for x from 1 to 10^d-1 by 2 do",
				"      y:= i*10^d+x;",
				"      if isprime(y) and isprime(10*x+i) then R:= R, y fi",
				"od od od:",
				"R; # _Robert Israel_, Aug 05 2020"
			],
			"xref": [
				"Cf. A061459, A061460 (squares and cubes instead of primes)."
			],
			"keyword": "nonn,base,easy",
			"offset": "1,1",
			"author": "_Amarnath Murthy_, May 04 2001",
			"ext": [
				"More terms from Larry Reeves (larryr(AT)acm.org), May 25 2001"
			],
			"references": 4,
			"revision": 9,
			"time": "2020-08-05T12:08:37-04:00",
			"created": "2003-05-16T03:00:00-04:00"
		}
	]
}