{
	"greeting": "Greetings from The On-Line Encyclopedia of Integer Sequences! http://oeis.org/",
	"query": "id:A061651",
	"count": 1,
	"start": 0,
	"results": [
		{
			"number": 61651,
			"data": "0,2,4,6,8,20,22,40,44,60,66,80,88,200,202,204,220,222,240,244,248,284,400,404,408,420,440,444,480,488,600,606,648,660,666,684,800,808,840,880,888,2000,2002,2004,2008,2020,2022,2040,2044,2080,2088,2200,2202",
			"name": "Numbers with all even digits in which each nonzero digit divides the number formed by the rest, i.e., the number obtained by just removing this digit. 0 is divisible by every number.",
			"link": [
				"\u003ca href=\"/index/Ar#10-automatic\"\u003eIndex entries for 10-automatic sequences\u003c/a\u003e."
			],
			"example": [
				"648 is a member as 6 divides 48 and 4 divides 68 and 8 divides 64."
			],
			"keyword": "nonn,base,easy",
			"offset": "0,2",
			"author": "_Amarnath Murthy_, Jun 26 2001",
			"ext": [
				"Corrected and extended by Antonio G. Astudillo (afg_astudillo(AT)lycos.com), Apr 21 2003"
			],
			"references": 0,
			"revision": 8,
			"time": "2017-07-30T23:03:08-04:00",
			"created": "2003-05-16T03:00:00-04:00"
		}
	]
}