{
	"greeting": "Greetings from The On-Line Encyclopedia of Integer Sequences! http://oeis.org/",
	"query": "id:A061472",
	"count": 1,
	"start": 0,
	"results": [
		{
			"number": 61472,
			"data": "3,30,41,52,63,74,85,96,102,113,124,135,146,157,168,179,201,212,223,234,245,256,267,278,289,300,311,322,333,344,355,366,377,388,399,410,421,432,443,454,465,476,487,498,520,531,542,553,564,575,586,597,630",
			"name": "First (leftmost) digit - second digit + third digit - fourth digit .... = 3.",
			"link": [
				"Amiram Eldar, \u003ca href=\"/A061472/b061472.txt\"\u003eTable of n, a(n) for n = 1..10000\u003c/a\u003e"
			],
			"formula": [
				"A225693(n) = 3. - _Robert Israel_, Jun 12 2019"
			],
			"example": [
				"124 is in the sequence since 1 - 2 + 4 = 3."
			],
			"maple": [
				"A225693:= proc(n) local L,m,i;",
				"  L:= convert(n,base,10);",
				"  m:= nops(L);",
				"  add(L[i]*(-1)^(m-i),i=1..m);",
				"end proc:",
				"select(A225693=3, [$1..1000]); # _Robert Israel_, Jun 12 2019"
			],
			"mathematica": [
				"aQ[n_] := Differences[Total @ Take[IntegerDigits[n], {#, -1, 2}] \u0026 /@ {2, 1}][[1]] == 3; Select[Range[1000], aQ] (* _Amiram Eldar_, Jun 12 2019 *)",
				"Select[Range[1000],Total[Times@@@Partition[Riffle[IntegerDigits[#],{1,-1},{2,-1,2}],2]]==3\u0026] (* _Harvey P. Dale_, May 16 2020 *)"
			],
			"program": [
				"(PARI) isok(n) = my(d=digits(n)); sum(k=1, #d, (-1)^(k+1)*d[k]) == 3; \\\\ _Michel Marcus_, Jun 12 2019"
			],
			"xref": [
				"Cf. A008593, A060978-A060980, A060982, A061470-A061479, A061870-A061882, A225693."
			],
			"keyword": "nonn,base,easy",
			"offset": "1,1",
			"author": "_Amarnath Murthy_, May 05 2001",
			"ext": [
				"More terms from _Robert G. Wilson v_, May 10 2001 and from Larry Reeves (larryr(AT)acm.org), May 14 2001"
			],
			"references": 1,
			"revision": 17,
			"time": "2020-05-16T17:11:27-04:00",
			"created": "2003-05-16T03:00:00-04:00"
		}
	]
}