{
	"greeting": "Greetings from The On-Line Encyclopedia of Integer Sequences! http://oeis.org/",
	"query": "id:A061021",
	"count": 1,
	"start": 0,
	"results": [
		{
			"number": 61021,
			"data": "3,3,3,6,15,87,1299,112998,146784315,16586334025071,2434613678231239448367,40381315689150066251526220641224742,98312903521778500654864668915856114278134197773017871243",
			"name": "a(n) = a(n-1)*a(n-2) - a(n-3) with a(0) = a(1) = a(2) = 3.",
			"comment": [
				"Any three consecutive terms are a solution to the Diophantine equation x^2 + y^2 + z^2 = xyz."
			],
			"link": [
				"Harry J. Smith, \u003ca href=\"/A061021/b061021.txt\"\u003eTable of n, a(n) for n = 0..17\u003c/a\u003e",
				"Loren C. Larson, \u003ca href=\"https://www.jstor.org/stable/1559041\"\u003eSolution to Problem Proposal 701\u003c/a\u003e, College Mathematics Journal 33 (2002), pp. 241-242.",
				"Edward T. H. Wang, \u003ca href=\"http://www.jstor.org/stable/2687476\"\u003eProblem Proposal 701\u003c/a\u003e, College Mathematics Journal 32 (2001), p. 211."
			],
			"formula": [
				"From _Jon E. Schoenfield_, May 12 2019: (Start)",
				"It appears that, for n \u003e= 1,",
				"  a(n) = ceiling(e^(c0*phi^n - c1/(-phi)^n))",
				"where",
				"  phi = (1 + sqrt(5))/2,",
				"   c0 = 0.4004033011137849744572073756789830081726425559860...",
				"   c1 = 0.2798639753144007577581523025628820390768226527315...",
				"(End)"
			],
			"mathematica": [
				"RecurrenceTable[{a[n] == a[n - 1] a[n - 2] - a[n - 3], a[0] == a[1] == a[2] == 3}, a, {n, 0, 12}] (* _Michael De Vlieger_, Aug 21 2016 *)"
			],
			"program": [
				"(PARI) for (n=0, 17, if (n\u003e2, a=a1*a2 - a3; a3=a2; a2=a1; a1=a, if (n==0, a=a3=3, if (n==1, a=a2=3, a=a1=3))); write(\"b061021.txt\", n, \" \", a)) \\\\ _Harry J. Smith_, Jul 16 2009",
				"(Haskell)",
				"a061021 n = a061021_list !! n",
				"a061021_list = 3 : 3 : 3 : zipWith (-)",
				"(tail $ zipWith (*) (tail a061021_list) a061021_list) a061021_list",
				"-- _Reinhard Zumkeller_, Mar 25 2015"
			],
			"xref": [
				"Cf. A022405, A061292, A072878, A072879, A072880, A074394, A178768."
			],
			"keyword": "easy,nonn",
			"offset": "0,1",
			"author": "Stephen G. Penrice (spenrice(AT)ets.org), May 23 2001",
			"ext": [
				"More terms from _Erich Friedman_, Jun 03 2001",
				"Name clarified by _Petros Hadjicostas_, May 11 2019"
			],
			"references": 4,
			"revision": 38,
			"time": "2019-05-16T08:05:22-04:00",
			"created": "2003-05-16T03:00:00-04:00"
		}
	]
}