{
	"greeting": "Greetings from The On-Line Encyclopedia of Integer Sequences! http://oeis.org/",
	"query": "id:A061133",
	"count": 1,
	"start": 0,
	"results": [
		{
			"number": 61133,
			"data": "0,0,0,0,0,0,210,5040,37800,201600,2044350,25530120,213993780,1692490800,19767998250,232823791200,2235629476080,23171222430720,294649445112750,4300403589581400,55176842335916700,660577269463243440",
			"name": "Number of degree-n even permutations of order exactly 6.",
			"formula": [
				"E.g.f.: exp(x) - 1/2*exp(x + 1/2*x^2) - 1/2*exp(x - 1/2*x^2) - exp(x + 1/3*x^3) + 1/2*exp(x + 1/2*x^2 + 1/3*x^3 + 1/6*x^6) + 1/2*exp(x - 1/2*x^2 + 1/3*x^3 - 1/6*x^6)."
			],
			"xref": [
				"Cf. A000085, A001470, A001472, A052501, A053496 - A053505, A001189, A001471, A001473, A061121 - A061128, A000704, A061129 - A061132, A048099, A051695, A061133 - A061135."
			],
			"keyword": "easy,nonn",
			"offset": "1,7",
			"author": "_Vladeta Jovovic_, Apr 14 2001",
			"references": 15,
			"revision": 4,
			"time": "2013-05-10T12:44:45-04:00",
			"created": "2003-05-16T03:00:00-04:00"
		}
	]
}