{
	"greeting": "Greetings from The On-Line Encyclopedia of Integer Sequences! http://oeis.org/",
	"query": "id:A061527",
	"count": 1,
	"start": 0,
	"results": [
		{
			"number": 61527,
			"data": "1,24,131184,3225291101568,1785076390861215319123200,16075597952319222983557076134535064384000,19324867416058592682497889053499018267427827225906492986956800",
			"name": "Number of complete games of n X n tic-tac-toe won by X.",
			"link": [
				"J. Ferry, \u003ca href=\"http://ladybug.xs4all.nl/arlet/puzzles/solutions/contrib/tictactoe.html\"\u003en X n tic-tac-toe\u003c/a\u003e (Mathematica programs followed by results)",
				"\u003ca href=\"/index/Th#TTT\"\u003eIndex entries for sequences related to tic-tac-toe\u003c/a\u003e"
			],
			"xref": [
				"Cf. A061526, A061528, A061529, A061530."
			],
			"keyword": "nonn",
			"offset": "1,2",
			"author": "Jim Ferry (jferry(AT)alum.mit.edu), May 04 2001",
			"references": 4,
			"revision": 4,
			"time": "2011-07-10T18:21:39-04:00",
			"created": "2003-05-16T03:00:00-04:00"
		}
	]
}