{
	"greeting": "Greetings from The On-Line Encyclopedia of Integer Sequences! http://oeis.org/",
	"query": "id:A061916",
	"count": 1,
	"start": 0,
	"results": [
		{
			"number": 61916,
			"data": "1,2,1,2,1,-1,1,98,1,74,2,2,37,154,49,-1,29,38,37,34,1,286,1,36,37,-1,77,329144,31,16,2,28,132,2,19,-1,23,6,17,154,1,542,143,1602,1,-1,18,6,88,14,-1,824,77,8,164572,-1,143,1198,8,1154,1,1126,14,962,66,-1,1,998,121,12,98,65984,592,274,3,-1,529,26,77,358",
			"name": "Obtain m by omitting trailing zeros from n; a(n) = smallest k such that k*m is a palindrome with even digits, or -1 if no such multiple exists.",
			"comment": [
				"a(n) = -1 if and only if m ends with the digit 5."
			],
			"link": [
				"P. De Geest, \u003ca href=\"http://www.worldofnumbers.com/em36.htm\"\u003eSmallest multipliers to make a number palindromic\u003c/a\u003e."
			],
			"example": [
				"For n = 30 we have m = 3; 3*2 = 6 is a palindrome with even digits, so a(30) = 2."
			],
			"program": [
				"(ARIBAS): stop := 500000; for n := 0 to 80 do k := 1; test := true; while test and k \u003c stop do mp := omit_trailzeros(n)*k; if test := not all_even(mp) or mp \u003c\u003e int_reverse(mp) then inc(k); end; end; if k \u003c stop then write(k,\" \"); else write(-1,\" \"); end; end;"
			],
			"xref": [
				"Cf. A050782, A062293, A061816, A061906. Values of k*m are given in A061915."
			],
			"keyword": "base,easy,sign",
			"offset": "0,2",
			"author": "_Klaus Brockhaus_, Jun 25 2001",
			"references": 3,
			"revision": 3,
			"time": "2012-03-30T17:27:33-04:00",
			"created": "2003-05-16T03:00:00-04:00"
		}
	]
}