{
	"greeting": "Greetings from The On-Line Encyclopedia of Integer Sequences! http://oeis.org/",
	"query": "id:A061476",
	"count": 1,
	"start": 0,
	"results": [
		{
			"number": 61476,
			"data": "7,70,81,92,106,117,128,139,205,216,227,238,249,304,315,326,337,348,359,403,414,425,436,447,458,469,502,513,524,535,546,557,568,579,601,612,623,634,645,656,667,678,689,700,711,722,733,744,755,766,777,788",
			"name": "First (leftmost) digit - second digit + third digit - fourth digit .... = 7.",
			"xref": [
				"Cf. A008593, A060978-A060980, A060982, A061470-A061479, A061870-A061882."
			],
			"keyword": "nonn,base,easy",
			"offset": "1,1",
			"author": "_Amarnath Murthy_, May 05 2001",
			"ext": [
				"More terms from _Robert G. Wilson v_, May 10 2001 and from Larry Reeves (larryr(AT)acm.org), May 15 2001"
			],
			"references": 0,
			"revision": 3,
			"time": "2013-12-05T19:54:50-05:00",
			"created": "2003-05-16T03:00:00-04:00"
		}
	]
}