{
	"greeting": "Greetings from The On-Line Encyclopedia of Integer Sequences! http://oeis.org/",
	"query": "id:A061729",
	"count": 1,
	"start": 0,
	"results": [
		{
			"number": 61729,
			"data": "0,1,2,3,4,5,6,7,8,9,10,12,32,34,54,56,76,78,98,910,1210,1232,3432,3454,5654,5676,7876,7898,91098,9101210,12321210,12323432,34543432,34545654,56765654,56767876,78987876,789891098,910121091098",
			"name": "Start with 0; to get next term reverse digits and add 1 to each digit (9's get replaced by 10's).",
			"formula": [
				"Norman Sullivan, Test Your Own IQ, Workman Publishing Co. New York, NY, 1994, pp. 49, 51."
			],
			"example": [
				"a(12)=34 because previous term was 32 and 32 reversed with 1 added to each digit is 34."
			],
			"xref": [
				"Cf. A061728."
			],
			"keyword": "easy,nonn,base",
			"offset": "0,3",
			"author": "_Jason Earls_, May 06 2001",
			"ext": [
				"More terms from Larry Reeves (larryr(AT)acm.org), May 07 2001"
			],
			"references": 1,
			"revision": 6,
			"time": "2017-12-15T17:35:04-05:00",
			"created": "2003-05-16T03:00:00-04:00"
		}
	]
}