{
	"greeting": "Greetings from The On-Line Encyclopedia of Integer Sequences! http://oeis.org/",
	"query": "id:A061365",
	"count": 1,
	"start": 0,
	"results": [
		{
			"number": 61365,
			"data": "14,16,19,20,23,29,30,32,34,35,38,41,43,47,50,53,59,61,67,70,74,76,83,89,91,92,95,98,103,104,106,109,110,112,118,119,124,125,127,128,130,133,134,136,137,139,140,142,145,146,152,160,163,164,166",
			"name": "Numbers k such that either k or its reversal (but not both) is prime.",
			"link": [
				"Harry J. Smith, \u003ca href=\"/A061365/b061365.txt\"\u003eTable of n, a(n) for n = 1..1000\u003c/a\u003e"
			],
			"example": [
				"14=2*7 is a term as 41 is prime but 14 is not;",
				"13 is not a term as its reversal is also a prime."
			],
			"mathematica": [
				"Select[ Range[169], Xor[ PrimeQ[ # ], PrimeQ[ FromDigits[ Reverse[ IntegerDigits[ # ]]]]] \u0026 ]"
			],
			"program": [
				"(PARI) { n=0; for (m=0, 3910, x=m; r=0; while (x\u003e0, d=x-10*(x\\10); x\\=10; r=r*10 + d); if ((isprime(m) + isprime(r)) == 1, write(\"b061365.txt\", n++, \" \", m)) ) } \\\\ _Harry J. Smith_, Jul 21 2009"
			],
			"keyword": "nonn,base",
			"offset": "1,1",
			"author": "_Reinhard Zumkeller_, May 21 2002",
			"references": 1,
			"revision": 10,
			"time": "2018-07-02T01:41:01-04:00",
			"created": "2003-05-16T03:00:00-04:00"
		}
	]
}