{
	"greeting": "Greetings from The On-Line Encyclopedia of Integer Sequences! http://oeis.org/",
	"query": "id:A061727",
	"count": 1,
	"start": 0,
	"results": [
		{
			"number": 61727,
			"data": "1,4,3,12,6,30,10,50,15,60,21,84,28,140,36,180,45,180,55,220,66,330,78,390,91,364,105,420,120,600,136,680,153,612,171,684,190,950,210,1050,231,924,253,1012,276,1380,300,1500,325,1300,351,1404,378,1890,406",
			"name": "A000217 interleaved with A061726.",
			"reference": [
				"Norman Sullivan, Test Your Own IQ, Workman Publishing Co. New York, NY, 1994, pp. 48, 50."
			],
			"link": [
				"Harry J. Smith, \u003ca href=\"/A061727/b061727.txt\"\u003eTable of n, a(n) for n = 1..2000\u003c/a\u003e"
			],
			"mathematica": [
				"Array[{#, (4 + Boole[EvenQ@ #]) #} \u0026@ PolygonalNumber@ # \u0026, 28] // Flatten (* _Michael De Vlieger_, Jul 01 2018 *)"
			],
			"program": [
				"(PARI) { f=\"b061727.txt\"; for (n=1, 1000, a=n*(n + 1)/2; if (a%2, t=a*4, t=a*5); write(f, 2*n - 1, \" \", a); write(f, 2*n, \" \", t) ) } \\\\ _Harry J. Smith_, Jul 27 2009"
			],
			"xref": [
				"Cf. A000217, A061726."
			],
			"keyword": "nonn,dumb,easy",
			"offset": "1,2",
			"author": "_Jason Earls_, May 05 2001",
			"ext": [
				"More terms from _David Wasserman_, Jun 25 2002"
			],
			"references": 2,
			"revision": 14,
			"time": "2018-07-01T18:52:31-04:00",
			"created": "2003-05-16T03:00:00-04:00"
		}
	]
}