{
	"greeting": "Greetings from The On-Line Encyclopedia of Integer Sequences! http://oeis.org/",
	"query": "id:A061871",
	"count": 1,
	"start": 0,
	"results": [
		{
			"number": 61871,
			"data": "2,13,20,24,31,35,42,46,53,57,64,68,75,79,86,97,101,112,123,130,134,141,145,152,156,163,167,174,178,185,189,196,200,211,222,233,240,244,251,255,262,266,273,277,284,288,295,299,310,321,332,343,350,354,361",
			"name": "|First digit - second digit + third digit - fourth digit ...| = 2.",
			"mathematica": [
				"Do[ a = IntegerDigits[ n ]; l = Length[ a ]; e = o = {}; Do[ o = Append[ o, a[ [ 2k - 1 ] ] ], {k, 1, l/2 + .5} ]; Do[ e = Append[ e, a[ [ 2k ] ] ], {k, 1, l/2} ]; If[ Abs[ Apply[ Plus, o ] - Apply[ Plus, e ] ] == 2, Print[ n ] ], {n, 1, 1000} ]"
			],
			"xref": [
				"Cf. A008593, A060978-A060980, A060982, A061470-A061479, A061870-A061882."
			],
			"keyword": "nonn,base,easy",
			"offset": "1,1",
			"author": "_Robert G. Wilson v_, May 10 2001",
			"references": 0,
			"revision": 2,
			"time": "2012-03-30T17:30:32-04:00",
			"created": "2003-05-16T03:00:00-04:00"
		}
	]
}