{
	"greeting": "Greetings from The On-Line Encyclopedia of Integer Sequences! http://oeis.org/",
	"query": "id:A061600",
	"count": 1,
	"start": 0,
	"results": [
		{
			"number": 61600,
			"data": "1,1,7,25,61,121,211,337,505,721,991,1321,1717,2185,2731,3361,4081,4897,5815,6841,7981,9241,10627,12145,13801,15601,17551,19657,21925,24361,26971,29761,32737,35905,39271,42841,46621,50617,54835,59281,63961",
			"name": "a(n) = n^3 - n + 1.",
			"comment": [
				"Smallest of n consecutive odd numbers whose sum is n^4. (n^k can be expressed as the sum of n consecutive odd numbers the smallest of which is given by n^(k-1)-n+1.)"
			],
			"reference": [
				"T. A. Gulliver, Sequences from Cubes of Integers, Int. Math. Journal, 4 (2003), 439-445."
			],
			"link": [
				"Harry J. Smith, \u003ca href=\"/A061600/b061600.txt\"\u003eTable of n, a(n) for n = 0..1000\u003c/a\u003e",
				"\u003ca href=\"/index/Rec#order_04\"\u003eIndex entries for linear recurrences with constant coefficients\u003c/a\u003e, signature (4,-6,4,-1)."
			],
			"formula": [
				"G.f.: (1-3*x+9*x^2-x^3)/(1 - x)^4.  a(-n) = -A126420(n). - _Bruno Berselli_, Aug 29 2011",
				"a(n) = 1 + Sum_{k=1..n} 3*(k-1)*k. - _Luce ETIENNE_ and _Michel Marcus_, Nov 01 2014"
			],
			"example": [
				"a(5) = 121 = 5^3 - 5 + 1. We have 121 + 123 + 125 + 127 + 129 = 625 = 5^4."
			],
			"mathematica": [
				"Table[n^3 - n + 1, {n, 0, 40}] (* _Vladimir Joseph Stephan Orlovsky_, Feb 20 2012 *)",
				"LinearRecurrence[{4,-6,4,-1},{1,1,7,25},50] (* _Harvey P. Dale_, Aug 17 2020 *)"
			],
			"program": [
				"(PARI) { for (n=0, 1000, write(\"b061600.txt\", n, \" \", n^3 - n + 1) ) } \\\\ _Harry J. Smith_, Jul 25 2009",
				"(MAGMA) [n^3 - n + 1: n in [0..40]]; // _Vincenzo Librandi_, Aug 29 2011"
			],
			"keyword": "nonn,easy",
			"offset": "0,3",
			"author": "_Amarnath Murthy_, May 19 2001",
			"ext": [
				"Offset changed from 1 to 0 by _Harry J. Smith_, Jul 25 2009"
			],
			"references": 6,
			"revision": 46,
			"time": "2020-08-17T19:46:20-04:00",
			"created": "2003-05-16T03:00:00-04:00"
		}
	]
}