{
	"greeting": "Greetings from The On-Line Encyclopedia of Integer Sequences! http://oeis.org/",
	"query": "id:A061261",
	"count": 1,
	"start": 0,
	"results": [
		{
			"number": 61261,
			"data": "1,2,6,15,37,85,194,423,912,1917,3974,8096,16302,32382,63668,123851,238756,456190,864821,1627016,3039845,5641884,10406924,19083836,34802782,63135539,113965033,204739662,366156396,652001918,1156200929,2042173379,3593341512",
			"name": "Limits of diagonals in triangle defined in A061260.",
			"comment": [
				"Terms 1, 2, 6, 15, 37, 85, ... are limits of diagonals in the triangle T(n,k) = A061260: 1 2, 1 3, 2, 1, 5, 6, 2, 1, 7, 11, 6, 2, 1, 11, 23, 15, 6, 2, 1, 15, 40, 32, 15, 6, 2, 1, 22, 73, 67, 37, 15, 6, 2, 1, 30, 120, 134, 79, 37, 15, 6, 2, 1, 42, 202, 255, 172, 85, 37, 15, 6, 2, 1, 56, 320, 470, 348, 187, 85, 37, 15, 6, 2, 1"
			],
			"link": [
				"Alois P. Heinz, \u003ca href=\"/A061261/b061261.txt\"\u003eTable of n, a(n) for n = 0..5000\u003c/a\u003e"
			],
			"formula": [
				"G.f.: Product_{k \u003e= 1} (1 - x^k)^( - numbpart(k + 1)), where numbpart(k) = number of partitions of k, cf. A000041. a(n) = 1/n*Sum_{k = 1..n} b(k)*a(n - k), n\u003e0, a(0) = 1, where b(k) = Sum_{d|k} d*numbpart(d + 1).",
				"a(n) = A061260(2n,n). - _Alois P. Heinz_, Oct 21 2018"
			],
			"maple": [
				"with(numtheory): with(combinat):",
				"a:= proc(n) option remember; `if`(n=0, 1, add(add(d*",
				"      numbpart(d+1), d=divisors(j))*a(n-j), j=1..n)/n)",
				"    end:",
				"seq(a(n), n=0..40);  # _Alois P. Heinz_, Apr 14 2017, revised Sep 19 2017"
			],
			"mathematica": [
				"a[n_] := a[n] = If[n==0, 1, Sum[Sum[d PartitionsP[d+1], {d, Divisors[j]}] a[n-j], {j, 1, n}]/n];",
				"a /@ Range[0, 40] (* _Jean-François Alcover_, Nov 10 2020, after _Alois P. Heinz_ *)"
			],
			"xref": [
				"Cf. A061260."
			],
			"keyword": "easy,nonn",
			"offset": "0,2",
			"author": "_Vladeta Jovovic_, Apr 23 2001",
			"references": 2,
			"revision": 20,
			"time": "2020-11-10T08:24:20-05:00",
			"created": "2003-05-16T03:00:00-04:00"
		}
	]
}