{
	"greeting": "Greetings from The On-Line Encyclopedia of Integer Sequences! http://oeis.org/",
	"query": "id:A061710",
	"count": 1,
	"start": 0,
	"results": [
		{
			"number": 61710,
			"data": "1,1,4,168,130560,2778096640,2182547233161216,80604526437978334298112,171350523619928085051880067039232,24958704994164739282319189442326176511033344",
			"name": "Number of maximal chains in the Bruhat order of S_n.",
			"reference": [
				"Humphreys, James E., Reflection groups and Coxeter groups. Cambridge Studies in Advanced Mathematics, 29. Cambridge University Press, Cambridge, 1990."
			],
			"keyword": "nice,nonn",
			"offset": "1,3",
			"author": "_Sara Billey_, Jun 20 2001",
			"ext": [
				"a(8), a(9) added by _Tomas Boothby_, Aug 24 2009"
			],
			"references": 1,
			"revision": 5,
			"time": "2013-10-13T08:45:36-04:00",
			"created": "2003-05-16T03:00:00-04:00"
		}
	]
}