{
	"greeting": "Greetings from The On-Line Encyclopedia of Integer Sequences! http://oeis.org/",
	"query": "id:A062814",
	"count": 1,
	"start": 0,
	"results": [
		{
			"number": 62814,
			"data": "0,1,6,38,326,3739,53808,927420,18578248,423649565,10828720882,306545462810,9518362652994,321605286435431,11745699035775884,461063683165975712,19357125741005727156,865493449685182242777",
			"name": "a(n) = Sum_{i=0..n-1} i * (n - i)^(n - i).",
			"link": [
				"Seiichi Manyama, \u003ca href=\"/A062814/b062814.txt\"\u003eTable of n, a(n) for n = 1..387\u003c/a\u003e"
			],
			"mathematica": [
				"Sum[i*(n - i)^(n - i), {i, 0, -1 + n}]"
			],
			"program": [
				"(PARI) a(n) = sum(i=0, n-1, i*(n-i)^(n-i)); \\\\ _Michel Marcus_, Mar 26 2019"
			],
			"xref": [
				"Cf. A062813."
			],
			"keyword": "nonn,easy",
			"offset": "1,3",
			"author": "_Olivier Gérard_, Jun 23 2001",
			"references": 1,
			"revision": 11,
			"time": "2019-03-26T11:50:47-04:00",
			"created": "2003-05-16T03:00:00-04:00"
		}
	]
}