{
	"greeting": "Greetings from The On-Line Encyclopedia of Integer Sequences! http://oeis.org/",
	"query": "id:A062877",
	"count": 1,
	"start": 0,
	"results": [
		{
			"number": 62877,
			"data": "0,1,2,3,5,6,7,8,13,14,15,16,18,19,20,21,34,35,36,37,39,40,41,42,47,48,49,50,52,53,54,55,89,90,91,92,94,95,96,97,102,103,104,105,107,108,109,110,123,124,125,126,128,129,130,131,136,137,138,139,141,142,143,144",
			"name": "Apart from the initial term (0), each a(n) is representable as a sum of distinct odd-indexed Fibonacci numbers.",
			"link": [
				"R. J. Mathar, \u003ca href=\"/A062877/b062877.txt\"\u003eTable of n, a(n) for n = 0..3071\u003c/a\u003e",
				"A. Karttunen, \u003ca href=\"http://www.fq.math.ca/Papers1/42-1/quartkarttunen01_2004.pdf\"\u003eOn Pascal's Triangle Modulo 2 in Fibonacci Representation\u003c/a\u003e, The Fibonacci Quarterly, Vol. 42, #1 (2004) pp. 38-46."
			],
			"example": [
				"E.g. F_1 = 1, F_3 = 2, F_1 + F_3 = 3, F_5 = 5, F_5 + F_1 = 6, F_5 + F_3 = 7, F_5 + F_3 + F_1 = 8, F_7 = 13, ..."
			],
			"maple": [
				"with(combinat); [seq(A062877(j),j=0..265)]; A062877 := n -\u003e add((floor(n/(2^i)) mod 2)*fibonacci((2*i)+1),i=0..floor_log_2(n+1));",
				"floor_log_2 := proc(n) local nn,i; nn := n; for i from -1 to n do if(0 = nn) then RETURN(i); fi; nn := floor(nn/2); od; end;",
				"# alternative",
				"isA062877 := proc(n)",
				"    local fset,fidx,ps ;",
				"    if n = 0 then",
				"        return true;",
				"    end if;",
				"    fset := {} ;",
				"    for fidx from 1 by 2 do",
				"        if combinat[fibonacci](fidx) \u003en then",
				"            break;",
				"        end if;",
				"        fset := fset union {combinat[fibonacci](fidx)} ;",
				"    end do:",
				"    for ps in combinat[powerset](fset) do",
				"        if n = add(fidx,fidx=ps) then",
				"            return true;",
				"        end if;",
				"    end do:",
				"    return false;",
				"end proc: # _R. J. Mathar_, Aug 22 2016"
			],
			"mathematica": [
				"Take[Union[Total/@Subsets[Fibonacci[Range[1,20,2]]]],70](* _Harvey P. Dale_, Dec 21 2013 *)"
			],
			"program": [
				"(PARI) my(m=Mod('x,'x^2-3*'x+1)); a(n) = subst(lift(subst(Pol(binary(n)), 'x,m)), 'x,2); \\\\ _Kevin Ryde_, Nov 25 2020"
			],
			"xref": [
				"A062878 gives the positions of A050614(n) in this sequence. A062879 is bisection.",
				"A036796(n) - 1.",
				"Cf. A022290 (even-indexed Fibonaccis), A054204."
			],
			"keyword": "nonn",
			"offset": "0,3",
			"author": "_Antti Karttunen_, Jun 26 2001",
			"references": 6,
			"revision": 20,
			"time": "2020-11-25T21:28:51-05:00",
			"created": "2003-05-16T03:00:00-04:00"
		}
	]
}