{
	"greeting": "Greetings from The On-Line Encyclopedia of Integer Sequences! http://oeis.org/",
	"query": "id:A062749",
	"count": 1,
	"start": 0,
	"results": [
		{
			"number": 62749,
			"data": "12,43,108,228,431,753,1239,1944,2934,4287,6094,8460,11505,15365,20193,26160,33456,42291,52896,65524,80451,97977,118427,142152,169530,200967,236898,277788,324133,376461",
			"name": "Sixth column (r=5) of FS(3) staircase array A062745.",
			"comment": [
				"In the Frey-Sellers reference this sequence is called {(n+3) over 5}_{2}, n \u003e= 0."
			],
			"link": [
				"Colin Barker, \u003ca href=\"/A062749/b062749.txt\"\u003eTable of n, a(n) for n = 0..1000\u003c/a\u003e",
				"D. D. Frey and J. A. Sellers, \u003ca href=\"http://www.fq.math.ca/Scanned/39-2/frey.pdf\"\u003eGeneralizing Bailey's generalization of the Catalan numbers\u003c/a\u003e, The Fibonacci Quarterly, 39 (2001) 142-148.",
				"\u003ca href=\"/index/Rec#order_06\"\u003eIndex entries for linear recurrences with constant coefficients\u003c/a\u003e, signature (6,-15,20,-15,6,-1)."
			],
			"formula": [
				"a(n) = A062745(n+3, 5)= -3+binomial(n+4, 3)*(n^2+16*n+75)/20 = (n+1)*(n^4+24*n^3+221*n^2+894*n+1440)/5!.",
				"G.f.: N(3;2, x)/(1-x)^6 with N(3;2, x)= 12-29*x+30*x^2-15*x^3+3*x^4, polynomial of the third row of A062746.",
				"From _Colin Barker_, Oct 30 2018: (Start)",
				"G.f.: (12 - 29*x + 30*x^2 - 15*x^3 + 3*x^4) / (1 - x)^6.",
				"a(n) = 6*a(n-1) - 15*a(n-2) + 20*a(n-3) - 15*a(n-4) + 6*a(n-5) - a(n-6) for n\u003e5.",
				"(End)"
			],
			"maple": [
				"seq(coeff(series((3*x^4-15*x^3+30*x^2-29*x+12)/(1-x)^6,x,n+1), x, n), n = 0 .. 30); # _Muniru A Asiru_, Oct 30 2018"
			],
			"program": [
				"(PARI) Vec((12 - 29*x + 30*x^2 - 15*x^3 + 3*x^4) / (1 - x)^6 + O(x^40)) \\\\ _Colin Barker_, Oct 30 2018"
			],
			"keyword": "nonn,easy",
			"offset": "0,1",
			"author": "_Wolfdieter Lang_, Jul 12 2001",
			"references": 2,
			"revision": 12,
			"time": "2018-10-30T20:17:54-04:00",
			"created": "2003-05-16T03:00:00-04:00"
		}
	]
}