{
	"greeting": "Greetings from The On-Line Encyclopedia of Integer Sequences! http://oeis.org/",
	"query": "id:A062286",
	"count": 1,
	"start": 0,
	"results": [
		{
			"number": 62286,
			"data": "2,4,8,14641",
			"name": "Smallest palindromic n-th power larger than 1.",
			"comment": [
				"It is probably still unknown whether there are any palindromic n-th powers with more than one digit, for any n \u003e= 5."
			],
			"example": [
				"a(3) = 343 = 7^3."
			],
			"keyword": "nonn,base,hard",
			"offset": "1,1",
			"author": "_Amarnath Murthy_, Jun 18 2001",
			"ext": [
				"Corrected by and better description from _Dean Hickerson_, Jun 23, 2001"
			],
			"references": 0,
			"revision": 4,
			"time": "2014-06-24T01:08:16-04:00",
			"created": "2003-05-16T03:00:00-04:00"
		}
	]
}