{
	"greeting": "Greetings from The On-Line Encyclopedia of Integer Sequences! http://oeis.org/",
	"query": "id:A062646",
	"count": 1,
	"start": 0,
	"results": [
		{
			"number": 62646,
			"data": "7,277,6133",
			"name": "Numbers k such that 80^k - 79^k is prime.",
			"comment": [
				"Terms \u003e 1000 are often only strong pseudoprimes.",
				"a(4) \u003e 10^5. - _Robert Price_, Dec 12 2014"
			],
			"program": [
				"(PARI) is(n)=ispseudoprime(80^n-79^n) \\\\ _Charles R Greathouse IV_, Jun 13 2017"
			],
			"xref": [
				"Cf. A000043, A057468, A059801, A059802, A062572-A062666."
			],
			"keyword": "nonn,hard,bref",
			"offset": "1,1",
			"author": "_Mike Oakes_, May 18 2001, May 19 2001",
			"references": 0,
			"revision": 14,
			"time": "2021-07-04T09:01:42-04:00",
			"created": "2003-05-16T03:00:00-04:00"
		}
	]
}