{
	"greeting": "Greetings from The On-Line Encyclopedia of Integer Sequences! http://oeis.org/",
	"query": "id:A062408",
	"count": 1,
	"start": 0,
	"results": [
		{
			"number": 62408,
			"data": "1,10,12,14,15,17,19,31,33,35,36,42,50,52,57,61,63,71,73,77,80,82,84,98,99,101,117,119,122,124,138,140,143,147,159,166,182,187,189,201,206,208,210,220,226,229,241,245,254,262,264,273,275,289,290,296,308,311",
			"name": "Numbers k such that floor(Pi*k) is prime.",
			"link": [
				"Harry J. Smith, \u003ca href=\"/A062408/b062408.txt\"\u003eTable of n, a(n) for n = 0..1000\u003c/a\u003e"
			],
			"mathematica": [
				"Select[Range[1, 400], PrimeQ[Floor[Pi #]] \u0026] (* _Bruno Berselli_, Sep 30 2012 *)"
			],
			"program": [
				"(PARI) je=[]; for(n=0,1000, if(isprime(floor(Pi*n)),je=concat(je,n),)); je",
				"(PARI) { default(realprecision, 50); n=-1; for (m=1, 10^5, if (isprime(floor(Pi*m)), write(\"b062408.txt\", n++, \" \", m); if (n==1000, break)) ) } \\\\ _Harry J. Smith_, Aug 07 2009"
			],
			"xref": [
				"Cf. A067559."
			],
			"keyword": "nonn",
			"offset": "0,2",
			"author": "_Jason Earls_, Jul 08 2001",
			"references": 3,
			"revision": 14,
			"time": "2018-06-29T03:59:14-04:00",
			"created": "2003-05-16T03:00:00-04:00"
		}
	]
}