{
	"greeting": "Greetings from The On-Line Encyclopedia of Integer Sequences! http://oeis.org/",
	"query": "id:A062970",
	"count": 1,
	"start": 0,
	"results": [
		{
			"number": 62970,
			"data": "1,2,6,33,289,3414,50070,873613,17650829,405071318,10405071318,295716741929,9211817190185,312086923782438,11424093749340454,449317984130199829,18896062057839751445,846136323944176515622,40192544399240714091046,2018612200059554303215025",
			"name": "a(n) = 1 + Sum_{j=1..n} j^j.",
			"comment": [
				"The usual convention in the OEIS is that 0^0 = 1. This sequence could therefore be defined as Sum_{j=0..n} j^j. See also A001923."
			],
			"link": [
				"T. D. Noe, \u003ca href=\"/A062970/b062970.txt\"\u003eTable of n, a(n) for n = 0..100\u003c/a\u003e"
			],
			"formula": [
				"a(n) = a(n-1) + A000312(n) = A001923(n) + 1.",
				"a(n) ~ n^n. - _Vaclav Kotesovec_, Nov 27 2017"
			],
			"example": [
				"a(4) = 1 + 1^1 + 2^2 + 3^3 + 4^4 = 1 + 1 + 4 + 27 + 256 = 289."
			],
			"mathematica": [
				"Table[Sum[Sum[Binomial[n, k] StirlingS2[n, k] k!, {k, 0, n}], {n, 0, m}], {m, 0, 20}] (* _Geoffrey Critzer_, Mar 18 2009 *)",
				"Join[{1},Accumulate[Table[n^n,{n,20}]]+1] (* _Harvey P. Dale_, Aug 31 2016 *)"
			],
			"program": [
				"(PARI) { a=0; for (n=0, 100, write(\"b062970.txt\", n, \" \", a+=n^n) ) } \\\\ _Harry J. Smith_, Aug 14 2009"
			],
			"xref": [
				"Cf. A000312, A001923."
			],
			"keyword": "nonn",
			"offset": "0,2",
			"author": "_Henry Bottomley_, Jul 23 2001",
			"references": 13,
			"revision": 21,
			"time": "2021-11-19T04:59:03-05:00",
			"created": "2003-05-16T03:00:00-04:00"
		}
	]
}