{
	"greeting": "Greetings from The On-Line Encyclopedia of Integer Sequences! http://oeis.org/",
	"query": "id:A062577",
	"count": 1,
	"start": 0,
	"results": [
		{
			"number": 62577,
			"data": "3,5,19,311,317,1129,4253,7699,18199,35153,206081",
			"name": "Numbers k such that 11^k - 10^k is prime.",
			"comment": [
				"Terms greater than 1000 may correspond to unproven strong pseudoprimes."
			],
			"link": [
				"\u003ca href=\"http://www.primenumbers.net/prptop/searchform.php?form=11%5Ep-10%5Ep\"\u003eTop probable primes of the form 11^p-10^p\u003c/a\u003e"
			],
			"program": [
				"(PARI) is(n)=ispseudoprime(11^n-10^n) \\\\ _Charles R Greathouse IV_, Feb 17 2017"
			],
			"xref": [
				"Cf. A000043, A057468, A059801, A059802, A062572-A062666."
			],
			"keyword": "nonn,hard",
			"offset": "1,1",
			"author": "_Mike Oakes_, May 18 2001, May 19 2001",
			"ext": [
				"Two more terms 18199 and 35153 from _Jean-Louis Charton_, Sep 02 2009",
				"New term 206081 found by _Jean-Louis Charton_ in October 2011",
				"Edited by _M. F. Hasler_, Sep 16 2013"
			],
			"references": 6,
			"revision": 19,
			"time": "2021-07-04T07:52:01-04:00",
			"created": "2003-05-16T03:00:00-04:00"
		}
	]
}