{
	"greeting": "Greetings from The On-Line Encyclopedia of Integer Sequences! http://oeis.org/",
	"query": "id:A062837",
	"count": 1,
	"start": 0,
	"results": [
		{
			"number": 62837,
			"data": "2,3,6,7,10,11,14,15,19,23,26,30,34,35,38,39,42,43,46,47,51,55,59,66,70,71,74,78,79,82,86,91,95,102,106,107,110,111,115,118,119,123,127,131,134,138,142,143,146,151,154,155,159,167,170,174,178,179,182,186",
			"name": "Numbers n such that n, 2n+1, 3n+1 are all squarefree.",
			"mathematica": [
				"Select[Range[200],AllTrue[{#,2#+1,3#+1},SquareFreeQ]\u0026]  (* The program uses the AllTrue function from Mathematica version 10 *) (* _Harvey P. Dale_, Oct 20 2014 *)"
			],
			"program": [
				"(PARI) j=[]; for(n=1,200, if(issquarefree(n) \u0026\u0026 issquarefree(2*n+1) \u0026\u0026 issquarefree(3*n+1),j=concat(j,n))); j"
			],
			"xref": [
				"Cf. A005117."
			],
			"keyword": "nonn",
			"offset": "1,1",
			"author": "_Jason Earls_, Jul 21 2001",
			"references": 0,
			"revision": 11,
			"time": "2017-12-15T17:35:16-05:00",
			"created": "2003-05-16T03:00:00-04:00"
		}
	]
}