{
	"greeting": "Greetings from The On-Line Encyclopedia of Integer Sequences! http://oeis.org/",
	"query": "id:A062627",
	"count": 1,
	"start": 0,
	"results": [
		{
			"number": 62627,
			"data": "1,1,-2,-5,0,-42,132,-429,0,0,16796,-58786,0,-742900,2674440,9694845,0,-129644790,0,-1767263190,0,24466267020,91482563640,-343059613650,0,0,18367353072152,0,0,-1002242216651368,-3814986502092304,-14544636039226909,0,212336130412243110",
			"name": "a(n) = mu(n) * Catalan(n).",
			"link": [
				"Harry J. Smith, \u003ca href=\"/A062627/b062627.txt\"\u003eTable of n, a(n) for n = 0..200\u003c/a\u003e"
			],
			"formula": [
				"mu(n)* binomial(2*n, n)/(n+1); or mu(n) * A000108(n)."
			],
			"program": [
				"(PARI) a(n)={if(n==0, 1, moebius(n)*binomial(2*n, n)/(n + 1))}"
			],
			"xref": [
				"Cf. A000108."
			],
			"keyword": "easy,sign",
			"offset": "0,3",
			"author": "_Jason Earls_, Jul 04 2001",
			"references": 1,
			"revision": 15,
			"time": "2018-06-29T02:14:46-04:00",
			"created": "2003-05-16T03:00:00-04:00"
		}
	]
}