{
	"greeting": "Greetings from The On-Line Encyclopedia of Integer Sequences! http://oeis.org/",
	"query": "id:A062843",
	"count": 1,
	"start": 0,
	"results": [
		{
			"number": 62843,
			"data": "1,1,2,2,2,2,3,2,2,2,3,2,3,3,4,2,2,2,3,2,3,3,4,2,3,3,4,3,4,4,5,2,2,2,3,2,3,3,4,4,3,3,4,3,4,4,5,2,3,3,4,3,4,4,5,3,4,4,5,4,5,5,6,2,2,2,3,2,3,3,4,2,3,3,4,3,4,4,5,2,3,3,4,3,4,4,5,3,4,4,5,4,5,5,6,2,3,3,4,3,4,4,5,3,4",
			"name": "Maximum number of ones in the representation of n in any base.",
			"example": [
				"a(11)=3 since 11 in base 2 is 1011, containing 3 ones."
			],
			"maple": [
				"seq(max(numboccur(convert(i,base,2),1), numboccur(convert(i,base,3),1), numboccur(convert(i,base,4),2), numboccur(convert(i,base,5),1), numboccur(convert(i,base,6),1), numboccur(convert(i,base,7),1), numboccur(convert(i,base,8),1), numboccur(convert(i,base,9),1), numboccur(convert(i,base,10),1), numboccur(convert(i,base,11),1), numboccur(convert(i,base,12),1), numboccur(convert(i,base,13),1), numboccur(convert(i,base,14),1), numboccur(convert(i,base,15),1), numboccur(convert(i,base,16),1), numboccur(convert(i,base,17),1)),i=1..200);"
			],
			"program": [
				"(PARI) ones(n,b)=my(s); while(n,if(n%b==1,s++);n\\=b); s",
				"a(n)=if(n\u003c3,return(1)); my(m=hammingweight(n),b=2); while(b++^(m-1)\u003cn,m=max(m, ones(n,b)));m \\\\ _Charles R Greathouse IV_, Mar 17 2013"
			],
			"keyword": "base,easy,nonn",
			"offset": "1,3",
			"author": "_Erich Friedman_, Jul 21 2001",
			"ext": [
				"Maple code and more terms from Barbara Haas Margolius (b.margolius(AT)csuohio.edu), Oct 10 2001"
			],
			"references": 1,
			"revision": 11,
			"time": "2018-07-03T21:20:47-04:00",
			"created": "2003-05-16T03:00:00-04:00"
		}
	]
}