{
	"greeting": "Greetings from The On-Line Encyclopedia of Integer Sequences! http://oeis.org/",
	"query": "id:A062691",
	"count": 1,
	"start": 0,
	"results": [
		{
			"number": 62691,
			"data": "10,15,21,28,36,45,78,91,171,300,595,990,1711,2211,3003,5050,5151,5565,5995,6555,8778,10011,66066,222111,255255,333336,500500,600060,828828,887778,1188111,5656566,22221111,50005000,51151555,88877778,2222211111,5000050000",
			"name": "Triangular numbers that contain exactly 2 different digits.",
			"comment": [
				"For n \u003e 2, A309597(n) is a term. - _Seiichi Manyama_, Sep 15 2019"
			],
			"link": [
				"Seiichi Manyama, \u003ca href=\"/A062691/b062691.txt\"\u003eTable of n, a(n) for n = 1..51\u003c/a\u003e"
			],
			"example": [
				"300 is triangular and contains the digits 0 and 3."
			],
			"mathematica": [
				"Select[Accumulate[Range[14000]],Count[DigitCount[#],Except[0]]==2\u0026] (* _Harvey P. Dale_, Nov 27 2011 *)"
			],
			"program": [
				"(PARI) for(k=0, 1e5, if(#Set(digits(j=k*(k+1)/2))==2, print1(j\", \"))) \\\\ _Seiichi Manyama_, Sep 15 2019"
			],
			"xref": [
				"Cf. A000217, A045914 (all digits the same), A213516, A213518, A309597."
			],
			"keyword": "base,easy,nonn",
			"offset": "1,1",
			"author": "_Erich Friedman_, Jul 04 2001",
			"references": 11,
			"revision": 25,
			"time": "2019-09-15T13:49:49-04:00",
			"created": "2003-05-16T03:00:00-04:00"
		}
	]
}