{
	"greeting": "Greetings from The On-Line Encyclopedia of Integer Sequences! http://oeis.org/",
	"query": "id:A062761",
	"count": 1,
	"start": 0,
	"results": [
		{
			"number": 62761,
			"data": "1,0,1,1,2,3,3,7,8,12,17,25,36,50,74,105,152,213,306,437,620,882,1256,1781,2531,3588,5091,7221,10225,14504,20542,29101,41214,58369,82638,116986,165610,234387,331738,469429,664291,939924,1329876,1881500,2661826,3765629",
			"name": "Number of powerful numbers between 2^(n-1)+1 and 2^n.",
			"link": [
				"Daniel Suteu, \u003ca href=\"/A062761/b062761.txt\"\u003eTable of n, a(n) for n = 0..90\u003c/a\u003e"
			],
			"formula": [
				"Number of terms x from A001694 for which A029837(x)=n.",
				"Sum_{k=0..n} a(k) = A062762(n). - _Daniel Suteu_, Feb 18 2020"
			],
			"example": [
				"64 \u003c {72,81,100,108,121,125,128} \u003c= 128, i.e., 7 powerful numbers are between 2^6 and 2^7, so a(7)=7."
			],
			"program": [
				"(PARI) a(n) = my(ka = if (n==0, 1, 2^(n-1)+1)); #select(x-\u003eispowerful(x), [ka..2^n]); \\\\ _Michel Marcus_, Aug 25 2019",
				"(PARI) Q(n) = my(s=0); forsquarefree(k=1, sqrtnint(n, 3), s += sqrtint(n\\k[1]^3)); s;",
				"a(n) = if(n==0, 1, Q(2^n) - Q(2^(n-1))); \\\\ _Daniel Suteu_, Feb 18 2020"
			],
			"xref": [
				"Cf. A001694, A029837, A036380, A036386, A062762."
			],
			"keyword": "nonn",
			"offset": "0,5",
			"author": "_Labos Elemer_, Jul 16 2001",
			"ext": [
				"a(19)-a(29) from _Daniel Suteu_, Aug 25 2019",
				"a(30)-a(45) from _Daniel Suteu_, Feb 18 2020"
			],
			"references": 2,
			"revision": 27,
			"time": "2020-02-19T03:37:19-05:00",
			"created": "2003-05-16T03:00:00-04:00"
		}
	]
}