{
	"greeting": "Greetings from The On-Line Encyclopedia of Integer Sequences! http://oeis.org/",
	"query": "id:A062978",
	"count": 1,
	"start": 0,
	"results": [
		{
			"number": 62978,
			"data": "5,12,53,2,14,1,1,4,2,5,11,1,2,3,5,2,4,2,1,1,2,2,4,1,3,4,1,1,2,1,1,1,3,3,162,1,1,2,3641,1,1,1,2,2,1,1,1,1,1,2,2,2,66,1,18,1,1,10,2,4,36,1,4,3,1,1,3,4,1,1,2,1,1,14,3,1,2,2,1,9,28,1,1,1,1,3,15,1,1,2,11,1,1,1,3,1",
			"name": "Continued fraction for Pi * (1 + sqrt 5)/2.",
			"link": [
				"Harry J. Smith, \u003ca href=\"/A062978/b062978.txt\"\u003eTable of n, a(n) for n = 1..20000\u003c/a\u003e"
			],
			"example": [
				"phi*Pi = 5.083203692315259... = 5 + 1/(12 + 1/(53 + 1/(2 + 1/(14 + ...)))). - _Harry J. Smith_, Apr 27 2009"
			],
			"program": [
				"(PARI) contfrac(Pi * (1+sqrt(5))/2).",
				"(PARI) { allocatemem(932245000); default(realprecision, 21000); phi=(1+sqrt(5))/2; x=contfrac(phi*Pi); for (n=1, 20000, write(\"b062978.txt\", n, \" \", x[n])); } \\\\ _Harry J. Smith_, Apr 27 2009"
			],
			"xref": [
				"Cf. A094886 (phi*Pi)."
			],
			"keyword": "cofr,easy,nonn",
			"offset": "1,1",
			"author": "_Jason Earls_, Jul 24 2001",
			"ext": [
				"Name changed by _David A. Corneth_, Jun 28 2018"
			],
			"references": 1,
			"revision": 20,
			"time": "2018-06-28T04:47:37-04:00",
			"created": "2003-05-16T03:00:00-04:00"
		}
	]
}