{
	"greeting": "Greetings from The On-Line Encyclopedia of Integer Sequences! http://oeis.org/",
	"query": "id:A062120",
	"count": 1,
	"start": 0,
	"results": [
		{
			"number": 62120,
			"data": "1,2500,3600,62500,14379264,57760000,141376000000,245495475625,390625000000,943971582724,4482669527413081,8790937600000000,31561776563446336,10235319926865509025",
			"name": "Numbers k such that k has sqrt(k) as its middle digits.",
			"formula": [
				"a(n) = A062118(n)^2."
			],
			"mathematica": [
				"Do[ If[ StringPosition[ ToString[n^2], ToString[n]] [[1, 1]] == (Ceiling[ Log[10, n^2] ] - Ceiling[ Log[10, n] ])/2 + 1, Print[n^2] ], {n, 1, 10^9} ]"
			],
			"xref": [
				"Cf. A062118."
			],
			"keyword": "nonn,base",
			"offset": "1,2",
			"author": "Brian Wallace (wallacebrianedward(AT)yahoo.co.uk), Jun 28 2001",
			"references": 1,
			"revision": 9,
			"time": "2021-07-17T04:30:17-04:00",
			"created": "2003-05-16T03:00:00-04:00"
		}
	]
}