{
	"greeting": "Greetings from The On-Line Encyclopedia of Integer Sequences! http://oeis.org/",
	"query": "id:A062322",
	"count": 1,
	"start": 0,
	"results": [
		{
			"number": 62322,
			"data": "1,24,40320,362880,479001600,20922789888000,6402373705728000,2432902008176640000,620448401733239439360000,15511210043330985984000000,10888869450418352160768000000",
			"name": "Factorials of nonsquarefree numbers, or A013929(n)!, (including 1).",
			"link": [
				"Harry J. Smith, \u003ca href=\"/A062322/b062322.txt\"\u003eTable of n, a(n) for n = 0..100\u003c/a\u003e"
			],
			"mathematica": [
				"Select[Range[0,30],!SquareFreeQ[#]\u0026]! (* _Harvey P. Dale_, Aug 27 2016 *)"
			],
			"program": [
				"(PARI) for(n=0,38, if(issquarefree(n), n+1,print(n!)))",
				"(PARI) { n=-1; for (m=0, 10^9, if (m\u003e0, f*=m, f=1); if (!issquarefree(m), write(\"b062322.txt\", n++, \" \", f); if (n==100, break)); ) } \\\\ _Harry J. Smith_, Aug 04 2009"
			],
			"xref": [
				"Cf. A013929."
			],
			"keyword": "easy,nonn",
			"offset": "0,2",
			"author": "_Jason Earls_, Jul 05 2001",
			"ext": [
				"Better name from _Jon E. Schoenfield_, Aug 09 2015"
			],
			"references": 1,
			"revision": 14,
			"time": "2017-12-15T17:35:09-05:00",
			"created": "2003-05-16T03:00:00-04:00"
		}
	]
}