{
	"greeting": "Greetings from The On-Line Encyclopedia of Integer Sequences! http://oeis.org/",
	"query": "id:A062453",
	"count": 1,
	"start": 0,
	"results": [
		{
			"number": 62453,
			"data": "1,0,0,2,10,33,100,290,795,2098,5353,13270,32058,75681,174982,396969,885035,1941744,4197219,8947798,18829981,39148311,80467194,163624700,329349740,656560785,1296916079,2539570658,4931698805,9501297338",
			"name": "Integer part of log(n!)^sqrt(n).",
			"mathematica": [
				"Floor[Log[n! ]^Sqrt[n]]"
			],
			"xref": [
				"Cf. A062454."
			],
			"keyword": "nonn,easy",
			"offset": "0,4",
			"author": "_Olivier Gérard_, Jun 23 2001",
			"references": 1,
			"revision": 5,
			"time": "2015-06-29T02:44:17-04:00",
			"created": "2003-05-16T03:00:00-04:00"
		}
	]
}