{
	"greeting": "Greetings from The On-Line Encyclopedia of Integer Sequences! http://oeis.org/",
	"query": "id:A063948",
	"count": 1,
	"start": 0,
	"results": [
		{
			"number": 63948,
			"data": "2,3,4,5,7,374,702,758,998,1542,1598,1778,1808,1830,1974,2378,2430,2910,3164,3182,3188,3216,3506,3540,3666,3698,3818,3846,3986,4196,4230,4574,4718,4782,5126,5324,5610,5738,5918,5952,6002,6174,6270,6404,6450,6510",
			"name": "Unitary untouchable numbers: us(x) = n has no solution where us(x) (A063919) is the sum of the proper unitary divisors of x.",
			"comment": [
				"Pomerance \u0026 Yang show that this sequence has positive lower density (in fact, greater than 10^-7) and upper density at most 0.40632. - _Charles R Greathouse IV_, Dec 28 2013"
			],
			"link": [
				"Donovan Johnson, \u003ca href=\"/A063948/b063948.txt\"\u003eTable of n, a(n) for n = 1..10000\u003c/a\u003e",
				"C. Pomerance and H.-S. Yang, \u003ca href=\"http://www.math.dartmouth.edu/~carlp/uupaper3.pdf\"\u003eOn untouchable numbers and related problems\u003c/a\u003e, 2012",
				"C. Pomerance and H.-S. Yang, \u003ca href=\"http://www.math.dartmouth.edu/~carlp/uupaper6.pdf\"\u003eVariant of a theorem of Erdős on the sum-of-proper-divisors function\u003c/a\u003e, Mathematics of Computation, to appear c. 2014"
			],
			"formula": [
				"If us(x) = n \u003e 1, then n^2 - 4x \u003e= 0. - _Dean Hickerson_, Sep 04, 2001."
			],
			"mathematica": [
				"us[x_] := us[x] = Total[ Select[ Divisors[x], GCD[#, x/#] == 1 \u0026]] - x; us[1] = 1; usQ[n_] := With[{xm = Ceiling[n^2/4]}, Catch[ Do[ If[us[x] == n, Throw[True]]; If[x == xm, Throw[False]], {x, 1, xm}]]]; A063948 = Reap[ Do[ If[ !usQ[n], Print[n]; Sow[n]], {n, 1, 6600}]][[2, 1]] (* _Jean-François Alcover_, Jun 22 2012 *)"
			],
			"xref": [
				"Cf. A034448, A063919, A064000."
			],
			"keyword": "nonn,nice",
			"offset": "1,1",
			"author": "_Felice Russo_, Sep 04 2001",
			"ext": [
				"More terms from _David W. Wilson_, Sep 05 2001"
			],
			"references": 11,
			"revision": 26,
			"time": "2015-02-14T21:04:28-05:00",
			"created": "2003-05-16T03:00:00-04:00"
		}
	]
}