{
	"greeting": "Greetings from The On-Line Encyclopedia of Integer Sequences! http://oeis.org/",
	"query": "id:A063305",
	"count": 1,
	"start": 0,
	"results": [
		{
			"number": 63305,
			"data": "-1,13,31,49,67,85,103,121,139,157,175,193,211,229,247,265,283,301,319,337,355,373,391,409,427,445,463,481,499,517,535,553,571,589,607,625,643,661,679,697,715,733,751,769,787,805,823,841,859,877",
			"name": "Dimension of the space S_n^{new}(Gamma_1(32)) of weight n cuspidal newforms for Gamma_1( 32 ).",
			"comment": [
				"Conjecture: a(n) = 18n - 41 for n \u003e 2. - Peter Luschny, Mar 04 2012"
			],
			"link": [
				"William A. Stein, \u003ca href=\"http://wstein.org/Tables/dimskg1new.gp\"\u003eDimensions of the spaces S_k^{new}(Gamma_1(N))\u003c/a\u003e",
				"William A. Stein, \u003ca href=\"http://wstein.org/Tables/tables.html\"\u003eThe modular forms database\u003c/a\u003e"
			],
			"formula": [
				"Conjecture: a(n) = 2*a(n-1)-a(n-2) for n\u003e4. G.f.: x^2*(-1+15*x+4*x^2)/(1-x)^2. [_Colin Barker_, Sep 28 2012]"
			],
			"keyword": "sign",
			"offset": "2,2",
			"author": "_N. J. A. Sloane_, Jul 14 2001",
			"references": 1,
			"revision": 19,
			"time": "2019-08-22T12:18:12-04:00",
			"created": "2003-05-16T03:00:00-04:00"
		}
	]
}