{
	"greeting": "Greetings from The On-Line Encyclopedia of Integer Sequences! http://oeis.org/",
	"query": "id:A063587",
	"count": 1,
	"start": 0,
	"results": [
		{
			"number": 63587,
			"data": "1,2,11,13,28,25,46,53,64,66,85,100,97,115,116,148,145,107,139,184,175,209,199,274,276,251,232,244,342,250,329,339,312,375,354,332,394,351,419,362,453,415,484,517,509,468,550,541,496,522,504",
			"name": "Smallest k such that 5^k has exactly n 2's in its decimal representation.",
			"link": [
				"Robert Israel, \u003ca href=\"/A063587/b063587.txt\"\u003eTable of n, a(n) for n = 0..5000\u003c/a\u003e"
			],
			"maple": [
				"N:= 100:",
				"V:= Array(0..N): count:= 0:",
				"for k from 1 while count \u003c N+1 do",
				"  v:= numboccur(2, convert(5^k,base,10));",
				"  if v \u003c= N and V[v] = 0 then count:= count+1; V[v]:= k;",
				"  fi",
				"od:",
				"seq(V[i],i=0..N); # _Robert Israel_, Aug 02 2019"
			],
			"mathematica": [
				"a = {}; Do[k = 1; While[ Count[ IntegerDigits[5^k], 2] != n, k++ ]; a = Append[a, k], {n, 0, 50} ]; a"
			],
			"keyword": "base,nonn",
			"offset": "0,2",
			"author": "_Robert G. Wilson v_, Aug 10 2001",
			"ext": [
				"Name corrected by _Jon E. Schoenfield_, Jun 26 2018"
			],
			"references": 1,
			"revision": 10,
			"time": "2019-08-02T08:41:00-04:00",
			"created": "2003-05-16T03:00:00-04:00"
		}
	]
}