{
	"greeting": "Greetings from The On-Line Encyclopedia of Integer Sequences! http://oeis.org/",
	"query": "id:A063495",
	"count": 1,
	"start": 0,
	"results": [
		{
			"number": 63495,
			"data": "1,18,80,217,459,836,1378,2115,3077,4294,5796,7613,9775,12312,15254,18631,22473,26810,31672,37089,43091,49708,56970,64907,73549,82926,93068,104005,115767,128384,141886,156303,171665,188002,205344",
			"name": "a(n) = (2*n-1)*(5*n^2-5*n+2)/2.",
			"link": [
				"Harry J. Smith, \u003ca href=\"/A063495/b063495.txt\"\u003eTable of n, a(n) for n=1..1000\u003c/a\u003e",
				"T. P. Martin, \u003ca href=\"http://dx.doi.org/10.1016/0370-1573(95)00083-6\"\u003eShells of atoms\u003c/a\u003e, Phys. Rep., 273 (1996), 199-241, eq. (10).",
				"\u003ca href=\"/index/Rec#order_04\"\u003eIndex entries for linear recurrences with constant coefficients\u003c/a\u003e, signature (4, -6, 4, -1)."
			],
			"formula": [
				"From _Harvey P. Dale_, Dec 18 2011: (Start)",
				"a(1)=1, a(2)=18, a(3)=80, a(4)=217, a(n) = 4*a(n-1) -6*a(n-2) +4*a(n-3) - a(n-4).",
				"G.f.: (x^3+14*x^2+14*x+1)/(1-x)^4. (End)",
				"E.g.f.: (-2 + 4*x + 15*x^2 + 10*x^3)*exp(x)/2 + 1. - _G. C. Greubel_, Dec 01 2017"
			],
			"mathematica": [
				"Table[(2n-1)(5n^2-5n+2)/2,{n,40}] (* or *) LinearRecurrence[{4,-6,4,-1},{1,18,80,217},40] (* _Harvey P. Dale_, Dec 18 2011 *)"
			],
			"program": [
				"(PARI) { for (n=1, 1000, write(\"b063495.txt\", n, \" \", (2*n - 1)*(5*n^2 - 5*n + 2)/2) ) } \\\\ _Harry J. Smith_, Aug 23 2009",
				"(PARI) x='x+O('x^30); Vec(serlaplace((-2+4*x+15*x^2+10*x^3)*exp(x)/2 + 1)) \\\\ _G. C. Greubel_, Dec 01 2017",
				"(MAGMA) [(2*n-1)*(5*n^2-5*n+2)/2: n in [1..30]]; // _G. C. Greubel_, Dec 01 2017"
			],
			"xref": [
				"1/12*t*(2*n^3-3*n^2+n)+2*n-1 for t = 2, 4, 6, ... gives A049480, A005894, A063488, A001845, A063489, A005898, A063490, A057813, A063491, A005902, A063492, A005917, A063493, A063494, A063495, A063496."
			],
			"keyword": "nonn",
			"offset": "1,2",
			"author": "_N. J. A. Sloane_, Aug 01 2001",
			"references": 18,
			"revision": 17,
			"time": "2017-12-01T03:08:43-05:00",
			"created": "2003-05-16T03:00:00-04:00"
		}
	]
}