{
	"greeting": "Greetings from The On-Line Encyclopedia of Integer Sequences! http://oeis.org/",
	"query": "id:A063801",
	"count": 1,
	"start": 0,
	"results": [
		{
			"number": 63801,
			"data": "1,3,12,206,181472",
			"name": "Number of nonisomorphic oriented matroids with n points in 3 dimensions.",
			"reference": [
				"Fukuda, Komei; Miyata, Hiroyuki; Moriyama, Sonoko. Complete Enumeration of Small Realizable Oriented Matroids. Discrete Comput. Geom. 49 (2013), no. 2, 359--381. MR3017917. - From _N. J. A. Sloane_, Feb 16 2013"
			],
			"link": [
				"L. Finschi, \u003ca href=\"http://www.om.math.ethz.ch\"\u003eHomepage of Oriented Matroids\u003c/a\u003e",
				"L. Finschi and K. Fukuda, \u003ca href=\"http://www.cccg.ca/proceedings/2001/finschi-1053.ps.gz\"\u003eComplete combinatorial generation of small point set configurations and hyperplane arrangements\u003c/a\u003e, pp. 97-100 in Abstracts 13th Canadian Conference on Computational Geometry (CCCG '01), Waterloo, Aug. 13-15, 2001."
			],
			"xref": [
				"A diagonal of A063804."
			],
			"keyword": "nonn,more",
			"offset": "4,2",
			"author": "_N. J. A. Sloane_, Aug 20 2001",
			"references": 0,
			"revision": 15,
			"time": "2020-08-29T11:28:43-04:00",
			"created": "2003-05-16T03:00:00-04:00"
		}
	]
}