{
	"greeting": "Greetings from The On-Line Encyclopedia of Integer Sequences! http://oeis.org/",
	"query": "id:A063875",
	"count": 1,
	"start": 0,
	"results": [
		{
			"number": 63875,
			"data": "831600,1058400,1587600,1663200,1814400,1940400,1965600,2116800,2328480,2494800,2570400,2646000,2721600,2872800,2910600,2948400,3024000,3175200,3326400,3528000,3603600,3628800,3704400,3880800,3931200",
			"name": "Numbers k such that sigma(k) - usigma(k) \u003e 3k.",
			"link": [
				"Harry J. Smith, \u003ca href=\"/A063875/b063875.txt\"\u003eTable of n, a(n) for n = 1..400\u003c/a\u003e"
			],
			"program": [
				"(PARI) u(n) = sumdiv(n,d, if(gcd(d,n/d)==1,d));",
				"for(n=1,10^9, if(sigma(n)-u(n)\u003e3*n,print(n)))",
				"(PARI) u(n) = sumdiv(n, d, if(gcd(d, n/d)==1, d))",
				"{ n=0; for (m=1, 10^9, if(sigma(m) - u(m) \u003e 3*m, write(\"b063875.txt\", n++, \" \", m); if (n==1000, break)) ) } \\\\ _Harry J. Smith_, Sep 01 2009"
			],
			"xref": [
				"Cf. A034448, A048146, A034683, A063846."
			],
			"keyword": "nonn",
			"offset": "1,1",
			"author": "_Jason Earls_, Aug 27 2001",
			"ext": [
				"a(20)-a(25) from _Harry J. Smith_, Sep 01 2009"
			],
			"references": 1,
			"revision": 14,
			"time": "2018-06-25T03:42:46-04:00",
			"created": "2003-05-16T03:00:00-04:00"
		}
	]
}