{
	"greeting": "Greetings from The On-Line Encyclopedia of Integer Sequences! http://oeis.org/",
	"query": "id:A063384",
	"count": 1,
	"start": 0,
	"results": [
		{
			"number": 63384,
			"data": "7,17,117,913,1183,1391,13107,51257,151257,381397,577661,4911789,29116879,112646989,536920981,1928258999,11928258999,25227472837,46275452231,212892173679,370964057893,1859199550327,5593332415439",
			"name": "a(1) = 7, a(n) = concatenation of two closest factors of a(n-1) whose product equals a(n-1) or if a(n-1) is a prime then the concatenation of 1 and a(n-1).",
			"mathematica": [
				"f[ n_Integer ] := (d = Divisors[ n ]; l = Length[ d ]; If[ EvenQ[ l ], ToExpression[ ToString[ d[[ l/2 ] ]] \u003c\u003e ToString[ d[[ l/2 + 1 ]] ]], ToExpression[ ToString[ d[[ l/2 + .5 ] ]] \u003c\u003e ToString[ d[[ l/2 + .5 ] ]] ]] ); NestList[ f, 7, 25 ]"
			],
			"xref": [
				"Cf. A003681, A062094 and A062095."
			],
			"keyword": "base,nonn",
			"offset": "1,1",
			"author": "_Robert G. Wilson v_, Aug 09 2001",
			"references": 0,
			"revision": 3,
			"time": "2012-03-30T17:30:32-04:00",
			"created": "2003-05-16T03:00:00-04:00"
		}
	]
}