{
	"greeting": "Greetings from The On-Line Encyclopedia of Integer Sequences! http://oeis.org/",
	"query": "id:A063072",
	"count": 1,
	"start": 0,
	"results": [
		{
			"number": 63072,
			"data": "1,3,7,12,28,60,91,124,168,360,546,744,1170,2418,2880,4368,5952,9360,19344,28800,39312,59520,79248,99944,112320,180048,203112,232128,345600,471744,714240,950976,1199328,1451520,2160576,2437344,2926080",
			"name": "Sum of divisors of Ramanujan's highly composite numbers, or sigma(A002182(n)).",
			"link": [
				"Amiram Eldar, \u003ca href=\"/A063072/b063072.txt\"\u003eTable of n, a(n) for n = 1..10000\u003c/a\u003e (terms 1..50 from Harry J. Smith)"
			],
			"formula": [
				"a(n) = A000203(A002182(n)). - _Michel Marcus_, Jun 28 2018"
			],
			"mathematica": [
				"s={}; dm=0; Do[d = DivisorSigma[0,n]; If[d \u003e dm, dm=d; AppendTo[s, DivisorSigma[1,n]]], {n, 1, 10^5}]; s (* _Amiram Eldar_, Jun 28 2019 *)"
			],
			"program": [
				"(PARI) a=0; j=[]; for(n=1,200000,b=numdiv(n); if(b\u003ea,a=b; j=concat(j, sigma(n)))); j",
				"(PARI) { n=a=0; for (m=1, 10^9, b=numdiv(m); if(b\u003ea, a=b; write(\"b063072.txt\", n++, \" \", sigma(m)); if (n==50, break)) ) } \\\\ _Harry J. Smith_, Aug 16 2009"
			],
			"xref": [
				"Cf. A000005, A004394, A002182, A002183, A002473, A000203."
			],
			"keyword": "easy,nonn",
			"offset": "1,2",
			"author": "_Jason Earls_, Aug 02 2001",
			"ext": [
				"More terms from Reiner Martin (reinermartin(AT)hotmail.com), Dec 22 2001"
			],
			"references": 4,
			"revision": 20,
			"time": "2019-06-28T08:38:02-04:00",
			"created": "2003-05-16T03:00:00-04:00"
		}
	]
}