{
	"greeting": "Greetings from The On-Line Encyclopedia of Integer Sequences! http://oeis.org/",
	"query": "id:A063903",
	"count": 1,
	"start": 0,
	"results": [
		{
			"number": 63903,
			"data": "1,3,14,42,248,594,744,4064,7668,12192,16775168,50325504,4294934528,12884803584,68719345664,206158036992",
			"name": "Numbers n such that ud(n)*phi(n) = sigma(n), ud(n) = A034444.",
			"comment": [
				"(1) If 2^p-1 is prime (a Mersenne prime) then 2^(p-2)*(2^p-1) is in the sequence - the proof is easy. So 2^(A000043-2)* (2^A000043-1) is a subsequence of this sequence. (2) If n is in the sequence and 3 doesn't divide n then 3*n is in the sequence. Hence If 2^p-1 is a Mersenne prime greater than 3 then 3*2^(p-2)*(2^p-1) is in the sequence. The statement (2) is an special case of \" If gcd(m,n)=1 and m \u0026 n are in the sequence then m*n is in the sequence (*) \". (*) is correct because the three functions ud, phi \u0026 sigma are multiplicative. There is no further term up to 5.6*10^8. - _Farideh Firoozbakht_, Mar 25 2007"
			],
			"program": [
				"(PARI) ud(n) = 2^omega(n); for(n=1,10^8, if(ud(n)*eulerphi(n)==sigma(n),print(n)))"
			],
			"xref": [
				"Cf. A000043, A000668, A020492."
			],
			"keyword": "more,nonn",
			"offset": "1,2",
			"author": "_Jason Earls_, Aug 30 2001",
			"ext": [
				"a(11) from _R. J. Mathar_, Nov 10 2006",
				"a(12) from _Farideh Firoozbakht_, Mar 25 2007",
				"a(13)-a(16) from _Donovan Johnson_, Mar 06 2013"
			],
			"references": 3,
			"revision": 13,
			"time": "2017-12-15T17:35:35-05:00",
			"created": "2003-05-16T03:00:00-04:00"
		}
	]
}