{
	"greeting": "Greetings from The On-Line Encyclopedia of Integer Sequences! http://oeis.org/",
	"query": "id:A063392",
	"count": 1,
	"start": 0,
	"results": [
		{
			"number": 63392,
			"data": "1,9,225,6273,968193,20785780737,166595296845825,8149768955751661569,951855018651756891865089,115831656001165053232244326401,75552701461152667657380793652609025",
			"name": "Number of solutions of x^9=1 in general affine group AGL(n,2).",
			"link": [
				"V. Jovovic, \u003ca href=\"/A062766/a062766.pdf\"\u003eCycle index of general affine group AGL(n,2)\u003c/a\u003e"
			],
			"xref": [
				"Cf. A063385-A063393, A062710, A053722, A053725, A053718, A053770-A053777."
			],
			"keyword": "nonn",
			"offset": "1,2",
			"author": "_Vladeta Jovovic_, Jul 16 2001",
			"references": 1,
			"revision": 6,
			"time": "2013-05-10T12:44:49-04:00",
			"created": "2003-05-16T03:00:00-04:00"
		}
	]
}