{
	"greeting": "Greetings from The On-Line Encyclopedia of Integer Sequences! http://oeis.org/",
	"query": "id:A063128",
	"count": 1,
	"start": 0,
	"results": [
		{
			"number": 63128,
			"data": "7,30,54,78,102,126,150,174,198,222,246,270,294,318,342,366,390,414,438,462,486,510,534,558,582,606,630,654,678,702,726,750,774,798,822,846,870,894,918,942,966,990,1014,1038,1062,1086,1110,1134",
			"name": "Dimension of the space of weight 2n cusp forms for Gamma_0( 60 ).",
			"link": [
				"William A. Stein, \u003ca href=\"http://wstein.org/Tables/dimskg0n.gp\"\u003eDimensions of the spaces S_k(Gamma_0(N))\u003c/a\u003e.",
				"William A. Stein, \u003ca href=\"http://wstein.org/Tables/\"\u003eThe modular forms database\u003c/a\u003e"
			],
			"formula": [
				"Conjectures from _Colin Barker_, Jun 08 2019: (Start)",
				"G.f.: x*(7 + 16*x + x^2) / (1 - x)^2.",
				"a(n) = 2*a(n-1) - a(n-2) for n\u003e3.",
				"a(n) = 6*(4*n-3) for n\u003e1.",
				"(End)"
			],
			"keyword": "nonn",
			"offset": "1,1",
			"author": "_N. J. A. Sloane_, Jul 08 2001",
			"references": 1,
			"revision": 9,
			"time": "2019-08-22T12:18:12-04:00",
			"created": "2003-05-16T03:00:00-04:00"
		}
	]
}