{
	"greeting": "Greetings from The On-Line Encyclopedia of Integer Sequences! http://oeis.org/",
	"query": "id:A063237",
	"count": 1,
	"start": 0,
	"results": [
		{
			"number": 63237,
			"data": "4,11,17,25,31,39,45,53,59,67,73,81,87,95,101,109,115,123,129,137,143,151,157,165,171,179,185,193,199,207,213,221,227,235,241,249,255,263,269,277,283,291,297,305,311,319,325,333,339,347",
			"name": "Dimension of the space of weight 2n cuspidal newforms for Gamma_0( 86 ).",
			"link": [
				"William A. Stein, \u003ca href=\"http://wstein.org/Tables/dimskg0new.gp\"\u003eDimensions of the spaces S_k^{new}(Gamma_0(N))\u003c/a\u003e",
				"William A. Stein, \u003ca href=\"http://wstein.org/Tables/\"\u003eThe modular forms database\u003c/a\u003e",
				"\u003ca href=\"/index/Rec#order_03\"\u003eIndex entries for linear recurrences with constant coefficients\u003c/a\u003e, signature (1,1,-1)."
			],
			"formula": [
				"G.f.: 4x -x^2*(-11-6*x+3*x^2) / ( (1+x)*(x-1)^2 ). - _R. J. Mathar_, Jul 15 2015"
			],
			"mathematica": [
				"LinearRecurrence[{1,1,-1},{4,11,17,25},50] (* _Harvey P. Dale_, Mar 17 2018 *)"
			],
			"keyword": "nonn",
			"offset": "1,1",
			"author": "_N. J. A. Sloane_, Jul 10 2001",
			"references": 0,
			"revision": 10,
			"time": "2019-08-22T12:18:12-04:00",
			"created": "2003-05-16T03:00:00-04:00"
		}
	]
}