{
	"greeting": "Greetings from The On-Line Encyclopedia of Integer Sequences! http://oeis.org/",
	"query": "id:A063589",
	"count": 1,
	"start": 0,
	"results": [
		{
			"number": 63589,
			"data": "1,11,20,12,33,41,58,87,45,76,91,106,114,136,156,150,115,140,198,190,218,189,241,231,283,254,243,311,249,275,347,345,353,294,460,361,372,496,420,431,499,424,484,546,428,449,483,558,613,540,622",
			"name": "Smallest k such that 5^k has exactly n 4's in its decimal representation.",
			"mathematica": [
				"a = {}; Do[k = 1; While[ Count[ IntegerDigits[5^k], 4] != n, k++ ]; a = Append[a, k], {n, 0, 50} ]; a"
			],
			"keyword": "base,nonn",
			"offset": "0,2",
			"author": "_Robert G. Wilson v_, Aug 10 2001",
			"ext": [
				"Name corrected by _Jon E. Schoenfield_, Jun 26 2018"
			],
			"references": 0,
			"revision": 6,
			"time": "2018-06-26T19:04:04-04:00",
			"created": "2003-05-16T03:00:00-04:00"
		}
	]
}