{
	"greeting": "Greetings from The On-Line Encyclopedia of Integer Sequences! http://oeis.org/",
	"query": "id:A063454",
	"count": 1,
	"start": 0,
	"results": [
		{
			"number": 63454,
			"data": "1,4,9,20,25,36,55,112,189,100,121,180,109,220,225,448,289,756,487,500,495,484,529,1008,725,436,2187,1100,841,900,1081,2048,1089,1156,1375,3780,973,1948,981,2800,1681,1980,1513,2420,4725,2116,2209,4032",
			"name": "Number of solutions to x^3 + y^3 = z^3 mod n.",
			"comment": [
				"Equivalently, the number of solutions to x^3 + y^3 + z^3 == 0 (mod n). - _Andrew Howroyd_, Jul 18 2018"
			],
			"link": [
				"Chai Wah Wu, \u003ca href=\"/A063454/b063454.txt\"\u003eTable of n, a(n) for n = 1..10000\u003c/a\u003e (terms n = 1..1000 from Seiichi Manyama)"
			],
			"program": [
				"(PARI) a(n)={my(p=Mod(sum(i=0, n-1, x^(i^3%n)), 1-x^n)); polcoeff(lift(p^3), 0)} \\\\ _Andrew Howroyd_, Jul 18 2018",
				"(Python)",
				"def A063454(n):",
				"    ndict = {}",
				"    for i in range(n):",
				"        m = pow(i,3,n)",
				"        if m in ndict:",
				"            ndict[m] += 1",
				"        else:",
				"            ndict[m] = 1",
				"    count = 0",
				"    for i in ndict:",
				"        ni = ndict[i]",
				"        for j in ndict:",
				"            k = (i+j) % n",
				"            if k in ndict:",
				"                count += ni*ndict[j]*ndict[k]",
				"    return count # _Chai Wah Wu_, Jun 06 2017"
			],
			"xref": [
				"Number of solutions to x^k + y^k = z^k mod n: A062775 (k=2), this sequence (k=3), A288099 (k=4), A288100 (k=5), A288101 (k=6), A288102 (k=7), A288103 (k=8), A288104 (k=9), A288105 (k=10)."
			],
			"keyword": "nonn,mult",
			"offset": "1,2",
			"author": "Ahmed Fares (ahmedfares(AT)my-deja.com), Jul 25 2001",
			"ext": [
				"More terms from _Dean Hickerson_, Jul 26, 2001"
			],
			"references": 12,
			"revision": 20,
			"time": "2018-08-06T13:21:52-04:00",
			"created": "2003-05-16T03:00:00-04:00"
		}
	]
}