{
	"greeting": "Greetings from The On-Line Encyclopedia of Integer Sequences! http://oeis.org/",
	"query": "id:A063324",
	"count": 1,
	"start": 0,
	"results": [
		{
			"number": 63324,
			"data": "-1,55,128,200,272,342,414,486,556,628,700,774,842,914,984,1060,1128,1202,1270,1346,1412,1488,1556,1634,1698,1774,1840,1920,1984,2062,2126,2206,2268,2348,2412,2494,2554,2634,2696,2780,2840,2922",
			"name": "Dimension of the space of weight n cuspidal newforms for Gamma_1( 51 ).",
			"link": [
				"William A. Stein, \u003ca href=\"http://wstein.org/Tables/dimskg1new.gp\"\u003eDimensions of the spaces S_k^{new}(Gamma_1(N))\u003c/a\u003e",
				"William A. Stein, \u003ca href=\"http://wstein.org/Tables/\"\u003eThe modular forms database\u003c/a\u003e"
			],
			"formula": [
				"Empirical g.f.: x^2*(x^9 +12*x^8 +73*x^7 +71*x^6 +87*x^5 +129*x^4 +71*x^3 +73*x^2 +56*x -1) / ((x -1)^2*(x +1)^2*(x^2 -x +1)*(x^2 +1)). - _Colin Barker_, Feb 24 2015"
			],
			"keyword": "sign",
			"offset": "2,2",
			"author": "_N. J. A. Sloane_, Jul 14 2001",
			"references": 0,
			"revision": 9,
			"time": "2019-08-22T12:18:12-04:00",
			"created": "2003-05-16T03:00:00-04:00"
		}
	]
}