{
	"greeting": "Greetings from The On-Line Encyclopedia of Integer Sequences! http://oeis.org/",
	"query": "id:A064112",
	"count": 1,
	"start": 0,
	"results": [
		{
			"number": 64112,
			"data": "99,155,689,1106,1517,1524,3014,3403,3479,5809,6478,6723,8606,9143,9454,9797,10126,11771,12283,12382,13112,13969,14150,17422,19303,22184,24856,27466,28119,28529,35927,36464,37512,41904,44505,45016,45506",
			"name": "Numbers k such that sopf(k) = 2*sopf(k+1), where sopf(k) = A008472.",
			"link": [
				"Amiram Eldar, \u003ca href=\"/A064112/b064112.txt\"\u003eTable of n, a(n) for n = 1..10000\u003c/a\u003e (terms 1..600 from Harry J. Smith)"
			],
			"example": [
				"sopf(689)=66, 2*sopf(690)=66."
			],
			"program": [
				"(PARI) sopf(n, s, fac, i) = fac=factor(n); for(i=1,matsize(fac)[1],s=s+fac[i,1]); return(s);",
				"j=[]; for(n=1,50000, if(sopf(n)==2*sopf(n+1),j=concat(j,n))); j",
				"(PARI) sopf(n)= { local(f,s=0); f=factor(n); for(i=1, matsize(f)[1], s+=f[i, 1]); return(s) }",
				"{ n=0; sm=sopf(1); for (m=1, 10^9, sp=sopf(m + 1); if (sm==2*sp, write(\"b064112.txt\", n++, \" \", m); if (n==600, break)); sm=sp ) } \\\\ _Harry J. Smith_, Sep 07 2009"
			],
			"xref": [
				"Cf. A008472 (sopf)."
			],
			"keyword": "nonn",
			"offset": "1,1",
			"author": "_Jason Earls_, Sep 08 2001",
			"references": 1,
			"revision": 23,
			"time": "2019-11-17T03:51:09-05:00",
			"created": "2003-05-16T03:00:00-04:00"
		}
	]
}