{
	"greeting": "Greetings from The On-Line Encyclopedia of Integer Sequences! http://oeis.org/",
	"query": "id:A064966",
	"count": 1,
	"start": 0,
	"results": [
		{
			"number": 64966,
			"data": "12022,15298,44413,61507,72199,87463,96538,108862,112129,117694,122176,125716,175078,185746,201493,227221,250414,267844,273460,371194,387028,391765,397066,397792,454921,581365,601177,621010,642199,659788,677206",
			"name": "Numbers n such that 10000000n+1, 10000000n+3, 10000000n+7, 10000000n+9 are all primes.",
			"mathematica": [
				"Select[Range[10^6/2], PrimeQ[10^7# + 1] \u0026\u0026 PrimeQ[10^7# + 3] \u0026\u0026 PrimeQ[10^7# + 7] \u0026\u0026 PrimeQ[10^7# + 9] \u0026]"
			],
			"xref": [
				"Cf. A007811 and A064687."
			],
			"keyword": "nonn",
			"offset": "1,1",
			"author": "_Robert G. Wilson v_, Oct 29 2001",
			"references": 0,
			"revision": 3,
			"time": "2012-03-30T17:30:36-04:00",
			"created": "2003-05-16T03:00:00-04:00"
		}
	]
}