{
	"greeting": "Greetings from The On-Line Encyclopedia of Integer Sequences! http://oeis.org/",
	"query": "id:A064719",
	"count": 1,
	"start": 0,
	"results": [
		{
			"number": 64719,
			"data": "1,3,5,7,9,11,13,15,17,19,21,22,24,26,28,30,32,34,36,38,40,42,43,45,47,49,51,53,55,57,59,61,63,64,66,68,70,72,74,76,78,80,82,84,85,87,89,91,93,95,97,99,101,103,105,106,108,110,112,114,116,118,120,122,124,126",
			"name": "A Beatty sequence for 3^i + 3^-i + 1.",
			"comment": [
				"3^i + 3^-i + 1 ~= 1.90966484565321951005513028719008497... ~= 21/11."
			],
			"link": [
				"Harry J. Smith, \u003ca href=\"/A064719/b064719.txt\"\u003eTable of n, a(n) for n = 1..2000\u003c/a\u003e"
			],
			"mathematica": [
				"a = Chop[ N[ 3^I + 3^-I +1, 36], 10^-40]; Table[ Floor[n*a)], {n, 1, 75} ]"
			],
			"program": [
				"(PARI) { default(realprecision, 100); b=real(3^I + 3^-I) + 1; for (n = 1, 2000, write(\"b064719.txt\", n, \" \", floor(n*b)) ) } \\\\ _Harry J. Smith_, Sep 23 2009"
			],
			"xref": [
				"Cf. A064720.",
				"Cf. A059547. - _R. J. Mathar_, Oct 02 2008"
			],
			"keyword": "easy,nonn",
			"offset": "1,2",
			"author": "_Robert G. Wilson v_, Oct 13 2001",
			"references": 2,
			"revision": 11,
			"time": "2016-12-22T02:45:48-05:00",
			"created": "2003-05-16T03:00:00-04:00"
		}
	]
}