{
	"greeting": "Greetings from The On-Line Encyclopedia of Integer Sequences! http://oeis.org/",
	"query": "id:A064401",
	"count": 1,
	"start": 0,
	"results": [
		{
			"number": 64401,
			"data": "4,5,7,12,14,15,16,17,18,20,30,37,39,49,52,66,86,162,165,202,235,250,366,419,1169,1311,1916,3032,3211,3335,4650,6199,7762",
			"name": "Numbers n such that n! - prime(n) is prime.",
			"comment": [
				"a(34) \u003e 12500. - _Giovanni Resta_, Mar 16 2014"
			],
			"mathematica": [
				"Do[ If[ PrimeQ[ n! - Prime[ n ] ], Print[ n ] ], {n, 1, 600} ]",
				"Select[Range[2000], PrimeQ[#! - Prime[#]] \u0026] (* _Vincenzo Librandi_, Mar 05 2015 *)"
			],
			"program": [
				"(MAGMA) [n: n in [1..200] | IsPrime(Factorial(n)- NthPrime(n))]; // _Vincenzo Librandi_, Mar 05 2015"
			],
			"xref": [
				"Cf. A064278."
			],
			"keyword": "nonn,more,hard",
			"offset": "1,1",
			"author": "_Robert G. Wilson v_, Sep 28 2001",
			"ext": [
				"Three more terms from _Farideh Firoozbakht_, Feb 28 2004",
				"a(28)-a(33) from _Giovanni Resta_, Mar 16 2014"
			],
			"references": 6,
			"revision": 17,
			"time": "2015-03-05T03:58:30-05:00",
			"created": "2003-05-16T03:00:00-04:00"
		}
	]
}