{
	"greeting": "Greetings from The On-Line Encyclopedia of Integer Sequences! http://oeis.org/",
	"query": "id:A064182",
	"count": 1,
	"start": 0,
	"results": [
		{
			"number": 64182,
			"data": "0,11,171,2126,24300,266400,2853708,30130317,315037281,3271067968,33787242719,347589015681,3564432632541,36457601891708,372096179850464,3790896863469849,38562555830676602,391760068087338367,3975397006170581823,40066272402579605194",
			"name": "Sum_{k \u003c= 10^n} number of distinct primes dividing k (A001221).",
			"comment": [
				"This is just a subsequence of A013939. - _N. J. A. Sloane_, Jul 16 2011"
			],
			"formula": [
				"a(n) = Sum_{k, 1, limit}, PrimePi(10^n/k); which seems to be about 10^n/2.",
				"On the contrary, I guess that a(n) ~ 10^n * log n. [_Charles R Greathouse IV_, Jul 13 2011]",
				"a(n) ~ 10^n * (0.26149721284764278375 + log(log(10^n)). - _Hiroaki Yamanouchi_, Jul 10 2014"
			],
			"mathematica": [
				"s = 0; k = 2; Do[ While[ k \u003c= 10^n, s = s + PrimeNu@ k; k++ ]; Print[ s], {n, 8}]"
			],
			"program": [
				"(PARI) a(n)=sum(k=1,10^n,omega(k)) \\\\ _Charles R Greathouse IV_, Jul 13 2011",
				"(PARI) a(n)=sum(k=1,10^n\\2,primepi(10^n\\k)) \\\\ _Charles R Greathouse IV_, Jul 13 2011"
			],
			"xref": [
				"Cf. A001221."
			],
			"keyword": "nonn",
			"offset": "0,2",
			"author": "_Robert G. Wilson v_, Sep 20 2001",
			"ext": [
				"a(11)-a(13) from _Giovanni Resta_, Oct 26 2012",
				"a(14)-a(16) from _Hiroaki Yamanouchi_, Jun 29 2014",
				"a(17) from _Hiroaki Yamanouchi_, Jul 10 2014",
				"a(18) from _Henri Lifchitz_, Aug 25 2014",
				"a(19) from _Henri Lifchitz_, Dec 17 2017"
			],
			"references": 1,
			"revision": 46,
			"time": "2017-12-17T08:23:31-05:00",
			"created": "2003-05-16T03:00:00-04:00"
		}
	]
}