{
	"greeting": "Greetings from The On-Line Encyclopedia of Integer Sequences! http://oeis.org/",
	"query": "id:A064143",
	"count": 1,
	"start": 0,
	"results": [
		{
			"number": 64143,
			"data": "0,2,3,5,7,5,12,14,9,7,23,21,27,27,29,31,48,46,62,60,59,59,81,79,66,66,59,59,93,93,124,126,120,118,125,123,141,141,158,156,193,193,225,225,194,194,243,241,241,241,245,245,298,298,321,321,314,314,365,365,395",
			"name": "Sum of unitary prime divisors (A056169, A034444) of central binomial coefficient C(n, floor(n/2)).",
			"link": [
				"Harry J. Smith, \u003ca href=\"/A064143/b064143.txt\"\u003eTable of n, a(n) for n = 1..1000\u003c/a\u003e"
			],
			"formula": [
				"a(n) = A063956(A001405(n))."
			],
			"program": [
				"(PARI) { for (n=1, 1000, f=factor(binomial(n, n\\2))~; a=0; for (i=1, length(f), if (f[2, i]==1, a+=f[1, i])); write(\"b064143.txt\", n, \" \", a) ) } \\\\ _Harry J. Smith_, Sep 09 2009"
			],
			"xref": [
				"Cf. A008472, A001405, A063956."
			],
			"keyword": "nonn",
			"offset": "1,2",
			"author": "_Labos Elemer_, Sep 11 2001",
			"references": 1,
			"revision": 10,
			"time": "2018-06-22T04:39:23-04:00",
			"created": "2003-05-16T03:00:00-04:00"
		}
	]
}