{
	"greeting": "Greetings from The On-Line Encyclopedia of Integer Sequences! http://oeis.org/",
	"query": "id:A064752",
	"count": 1,
	"start": 0,
	"results": [
		{
			"number": 64752,
			"data": "5,71,647,5183,38879,279935,1959551,13436927,90699263,604661759,3990767615,26121388031,169789022207,1097098297343,7052774768639,45137758519295,287753210560511,1828079220031487,11577835060199423",
			"name": "a(n) = n*6^n - 1.",
			"link": [
				"Vincenzo Librandi, \u003ca href=\"/A064752/b064752.txt\"\u003eTable of n, a(n) for n = 1..1000\u003c/a\u003e",
				"Paul Leyland, \u003ca href=\"http://www.leyland.vispa.com/numth/factorization/cullen_woodall/cw.htm\"\u003eFactors of Cullen and Woodall numbers\u003c/a\u003e",
				"Paul Leyland, \u003ca href=\"http://www.leyland.vispa.com/numth/factorization/cullen_woodall/gcw.htm\"\u003eGeneralized Cullen and Woodall numbers\u003c/a\u003e",
				"\u003ca href=\"/index/Rec#order_03\"\u003eIndex entries for linear recurrences with constant coefficients\u003c/a\u003e, signature (13, -48, 36)."
			],
			"formula": [
				"a(n) = 13*a(n-1) - 48*a(n-2) + 36*a(n-3); a(1)=5, a(2)=71, a(3)=647. - _Harvey P. Dale_, May 25 2011",
				"G.f.: 6*x/(1-6*x)^2+x/(x-1). - _Harvey P. Dale_, May 25 2011"
			],
			"mathematica": [
				"Table[n 6^n-1,{n,25}] (* or *) LinearRecurrence[{13,-48,36},{5,71,647}, 25] (* _Harvey P. Dale_, May 25 2011 *)"
			],
			"program": [
				"(MAGMA) [ n*6^n-1: n in [1..20]]; // _Vincenzo Librandi_, Sep 16 2011"
			],
			"keyword": "nonn,easy",
			"offset": "1,1",
			"author": "_N. J. A. Sloane_, Oct 19 2001",
			"references": 5,
			"revision": 18,
			"time": "2018-11-12T03:02:29-05:00",
			"created": "2003-05-16T03:00:00-04:00"
		}
	]
}