{
	"greeting": "Greetings from The On-Line Encyclopedia of Integer Sequences! http://oeis.org/",
	"query": "id:A064359",
	"count": 1,
	"start": 0,
	"results": [
		{
			"number": 64359,
			"data": "1,2,5,3,7,11,23,4,9,14,29,19,39",
			"name": "Inverse of sequence A052331 considered as a permutation of the natural numbers.",
			"comment": [
				"Sequence A052331 claims to be the \"inverse\" of A052330."
			],
			"xref": [
				"Cf. A052330, A052331."
			],
			"keyword": "nonn",
			"offset": "1,2",
			"author": "_Howard A. Landman_, Sep 25 2001",
			"references": 0,
			"revision": 2,
			"time": "2013-10-12T15:16:36-04:00",
			"created": "2003-05-16T03:00:00-04:00"
		}
	]
}