{
	"greeting": "Greetings from The On-Line Encyclopedia of Integer Sequences! http://oeis.org/",
	"query": "id:A064571",
	"count": 1,
	"start": 0,
	"results": [
		{
			"number": 64571,
			"data": "1,7,733,365059,480457465,1310073012031,6410226944228437,51135786265589035963,620857308610340190325489,10894455325845833715898309495,265361776433005578042408841530061,8686235999260031219427964764144394867,372097544110411566152076374938114937481193",
			"name": "Binomial transform of (3n)!.",
			"formula": [
				"In Maple notation: a(n)=hypergeom([1, 1/3, 2/3, -n], [], -27), n=0, 1, ...",
				"a(n) = Integral_{x=0..infinity} (1+x^3)^n*exp(-x) dx - _Gerald McGarvey_, Oct 12 2007",
				"From _Vaclav Kotesovec_, Oct 30 2017: (Start)",
				"a(n) = (27*n^3 - 27*n^2 + 6*n + 1)*a(n-1) - 3*(n-1)*(27*n^2 - 45*n + 20)*a(n-2) + 27*(n-2)*(n-1)*(3*n - 4)*a(n-3) - 27*(n-3)*(n-2)*(n-1)*a(n-4).",
				"a(n) ~ sqrt(2*Pi) * (3*n)^(3*n + 1/2) / exp(3*n). (End)"
			],
			"mathematica": [
				"Table[Sum[Binomial[n, k] * (3*k)!, {k, 0, n}], {n, 0, 12}] (* _Vaclav Kotesovec_, Oct 30 2017 *)"
			],
			"program": [
				"(PARI) for(n=0,12,print1(round(intnum(x=0,999,exp(-x)*(1+x^3)^n)),\", \")) - _Gerald McGarvey_, Oct 12 2007"
			],
			"xref": [
				"Cf. A000522, A064570."
			],
			"keyword": "nonn",
			"offset": "0,2",
			"author": "_Karol A. Penson_, Sep 20 2001",
			"ext": [
				"Corrected and extended by _N. J. A. Sloane_, Oct 29 2006"
			],
			"references": 0,
			"revision": 13,
			"time": "2017-10-30T08:50:40-04:00",
			"created": "2003-05-16T03:00:00-04:00"
		}
	]
}