{
	"greeting": "Greetings from The On-Line Encyclopedia of Integer Sequences! http://oeis.org/",
	"query": "id:A064070",
	"count": 1,
	"start": 0,
	"results": [
		{
			"number": 64070,
			"data": "2,126,49410,48649086,89434106370,264235243691646,1145011717430672130,6841110155700330881406,53899295662946509072626690,541439307193573593050370186366,6754273504043546592593642328610050,102439130403410639137159601119206854526",
			"name": "Generalized Euler number c(9,n).",
			"link": [
				"D. Shanks, \u003ca href=\"http://dx.doi.org/10.1090/S0025-5718-1967-0223295-5\"\u003eGeneralized Euler and class numbers\u003c/a\u003e. Math. Comp. 21 (1967) 689-694.",
				"D. Shanks, \u003ca href=\"http://dx.doi.org/10.1090/S0025-5718-1968-0227093-9\"\u003eCorrigenda to: \"Generalized Euler and class numbers\"\u003c/a\u003e, Math. Comp. 22 (1968), 699.",
				"Eric Weisstein's World of Mathematics, \u003ca href=\"http://mathworld.wolfram.com/EulerNumber.html\"\u003eEuler Number\u003c/a\u003e."
			],
			"formula": [
				"a(n) = (2*n)!*[x^(2*n)](sec(9*x)*2*cos(3*x)^2). - _Peter Luschny_, Nov 21 2021"
			],
			"maple": [
				"egf := sec(9*x)*2*cos(3*x)^2: ser := series(egf, x, 24):",
				"seq((2*n)!*coeff(ser, x, 2*n), n = 0..10); # _Peter Luschny_, Nov 21 2021"
			],
			"xref": [
				"Cf. A064074, A349268, A349264."
			],
			"keyword": "nonn,easy",
			"offset": "0,1",
			"author": "_Eric W. Weisstein_, Aug 31 2001",
			"references": 4,
			"revision": 12,
			"time": "2021-11-22T02:35:44-05:00",
			"created": "2003-05-16T03:00:00-04:00"
		}
	]
}