{
	"greeting": "Greetings from The On-Line Encyclopedia of Integer Sequences! http://oeis.org/",
	"query": "id:A064328",
	"count": 1,
	"start": 0,
	"results": [
		{
			"number": 64328,
			"data": "1,1,-5,61,-917,15421,-277733,5239117,-102188021,2044131037,-41706059525,864547613293,-18157111255829,385517710342909,-8261602828082213,178459989617336461,-3881680470161846837",
			"name": "Generalized Catalan numbers C(-6; n).",
			"comment": [
				"See triangle A064334 with columns m built from C(-m; n), m \u003e= 0, also for Derrida et al. references."
			],
			"link": [
				"G. C. Greubel, \u003ca href=\"/A064328/b064328.txt\"\u003eTable of n, a(n) for n = 0..720\u003c/a\u003e"
			],
			"formula": [
				"a(n) = Sum_{m=0..n-1} (n-m)*binomial(n-1+m, m)*(-6)^m/n.",
				"a(n) = (1/7)^n*(1 + 6*Sum_{k=0..n-1} C(k)*(-6*7)^k), n \u003e= 1, a(0) := 1; with C(n)=A000108(n) (Catalan).",
				"G.f.: (1+6*x*c(-6*x)/7)/(1-x/7) = 1/(1-x*c(-6*x)) with c(x) g.f. of Catalan numbers A000108."
			],
			"mathematica": [
				"CoefficientList[Series[(13 +Sqrt[1+24*x])/(2*(7-x)), {x, 0, 30}], x] (* _G. C. Greubel_, May 03 2019 *)"
			],
			"program": [
				"(PARI) my(x='x+O('x^30)); Vec((13 +sqrt(1+24*x))/(2*(7-x))) \\\\ _G. C. Greubel_, May 03 2019",
				"(MAGMA) R\u003cx\u003e:=PowerSeriesRing(Rationals(), 30); Coefficients(R!( (13 +Sqrt(1+24*x))/(2*(7-x)) )); // _G. C. Greubel_, May 03 2019",
				"(Sage) ((13 +sqrt(1+24*x))/(2*(7-x))).series(x, 30).coefficients(x, sparse=False) # _G. C. Greubel_, May 03 2019"
			],
			"keyword": "sign,easy",
			"offset": "0,3",
			"author": "_Wolfdieter Lang_, Sep 21 2001",
			"references": 3,
			"revision": 12,
			"time": "2019-05-03T21:22:55-04:00",
			"created": "2003-05-16T03:00:00-04:00"
		}
	]
}