{
	"greeting": "Greetings from The On-Line Encyclopedia of Integer Sequences! http://oeis.org/",
	"query": "id:A064243",
	"count": 1,
	"start": 0,
	"results": [
		{
			"number": 64243,
			"data": "96,1656,2280,5556,6960,7506,8286,12420,12966,15540,17490,23496,26226,28410,32076,33870,42060,53526,57036,61560,67956,73416,89796,104850,107580,108516,122166,124350,126690,132150,143616,148920",
			"name": "Values of m such that N=(am+1)(bm+1)(cm+1) is a 3-Carmichael number (A087788), where a,b,c = 1,2,13.",
			"comment": [
				"am+1, bm+1, cm+1 are primes and am | (N-1), bm | (N-1), cm |(N-1)."
			],
			"reference": [
				"Harvey Dubner (harvey(AT)dubner.com), personal communication, Jun 27 2001."
			],
			"link": [
				"Amiram Eldar, \u003ca href=\"/A064243/b064243.txt\"\u003eTable of n, a(n) for n = 1..10000\u003c/a\u003e"
			],
			"mathematica": [
				"CarmichaelNbrQ[n_] := ! PrimeQ@ n \u0026\u0026 Mod[n, CarmichaelLambda@ n] == 1; Select[ Range@ 150000, PrimeQ[# + 1] \u0026\u0026 PrimeQ[2# + 1] \u0026\u0026 PrimeQ[13# + 1] \u0026\u0026 CarmichaelNbrQ[(# + 1)(2# + 1)(13# + 1)] \u0026] (* _Robert G. Wilson v_, Aug 23 2012 *)"
			],
			"xref": [
				"Cf. A087788."
			],
			"keyword": "nonn",
			"offset": "1,1",
			"author": "_N. J. A. Sloane_, Sep 23 2001",
			"ext": [
				"Offset corrected by _Amiram Eldar_, Oct 16 2019"
			],
			"references": 1,
			"revision": 14,
			"time": "2019-10-16T11:28:02-04:00",
			"created": "2003-05-16T03:00:00-04:00"
		}
	]
}