{
	"greeting": "Greetings from The On-Line Encyclopedia of Integer Sequences! http://oeis.org/",
	"query": "id:A064133",
	"count": 1,
	"start": 0,
	"results": [
		{
			"number": 64133,
			"data": "2,2,2,2,2,4,4,4,4,2,4,2,2,8,4,2,8,4,8,4,4,2,8,4,4,2,8,4,16,8,16,2,8,8,4,32,8,8,4,16,8,8,4,2,4,2,16,2,16,4,8,16,8,16,16,8,16,8,4,2,4,4,2,8,8,4,32,16,16,4,4,8,2,32,8,16,16,2,16,32,8",
			"name": "Number of divisors of 6^n + 1 that are relatively prime to 6^m + 1 for all 0 \u003c m \u003c n.",
			"link": [
				"Sam Wagstaff, Cunningham Project, \u003ca href=\"https://homes.cerias.purdue.edu/~ssw/cun/\"\u003eFactorizations of 6^n-1, n odd, n\u003c330\u003c/a\u003e"
			],
			"mathematica": [
				"a = {1}; Do[ d = Divisors[ 6^n + 1 ]; l = Length[ d ]; c = 0; k = 1; While[ k \u003c l + 1, If[ Union[ GCD[ a, d[ [ k ] ] ] ] == {1}, c++ ]; k++ ]; Print[ c ]; a = Union[ Flatten[ Append[ a, Transpose[ FactorInteger[ 6^n + 1 ] ][ [ 1 ] ] ] ] ], {n, 0, 66} ]"
			],
			"program": [
				"(PARI) a(n) = if (n==0, 2, sumdiv(6^n+1, d, vecsum(vector(n-1, k, gcd(d, 6^k+1) == 1)) == n-1)); \\\\ _Michel Marcus_, Jun 24 2018"
			],
			"xref": [
				"Cf. A064131, A064132, A064134, A064135, A064136, A064137."
			],
			"keyword": "nonn",
			"offset": "0,1",
			"author": "_Robert G. Wilson v_, Sep 10 2001",
			"ext": [
				"a(67)-a(80) from _Giovanni Resta_, Jun 26 2018"
			],
			"references": 6,
			"revision": 14,
			"time": "2019-01-18T13:56:37-05:00",
			"created": "2003-05-16T03:00:00-04:00"
		}
	]
}