{
	"greeting": "Greetings from The On-Line Encyclopedia of Integer Sequences! http://oeis.org/",
	"query": "id:A064082",
	"count": 1,
	"start": 0,
	"results": [
		{
			"number": 64082,
			"data": "5,7,43,37,311,31,55987,1297,46873,1111,72559411,1261,2612138803,5713,1406371,1679617,3385331888947,46441,121871948002099,1634221,1822428931,51828151,157946044610720563,1678321,731325737104301",
			"name": "Zsigmondy numbers for a = 6, b = 1: Zs(n, 6, 1) is the greatest divisor of 6^n - 1^n (A024062) that is relatively prime to 6^m - 1^m for all positive integers m \u003c n.",
			"comment": [
				"By Zsigmondy's theorem, the n-th Zsigmondy number for bases a and b is not 1 except in the three cases (1) a = 2, b = 1, n = 1, (2) a = 2, b = 1, n = 6, (3) n = 2 and a+b is a power of 2."
			],
			"link": [
				"K. Zsigmondy, \u003ca href=\"http://dx.doi.org/10.1007/BF01692444\"\u003eZur Theorie der Potenzreste\u003c/a\u003e, Monatsh. f. Math. 3 (1892) 265-284."
			],
			"xref": [
				"Cf. A024062, A064078, A064079, A064080, A064081, A064083."
			],
			"keyword": "nonn",
			"offset": "1,1",
			"author": "_Jens Voß_, Sep 04 2001",
			"ext": [
				"More terms from _Vladeta Jovovic_, Sep 06 2001",
				"Definition corrected by _Jerry Metzger_, Nov 04 2009"
			],
			"references": 7,
			"revision": 11,
			"time": "2016-11-14T00:47:57-05:00",
			"created": "2003-05-16T03:00:00-04:00"
		}
	]
}