{
	"greeting": "Greetings from The On-Line Encyclopedia of Integer Sequences! http://oeis.org/",
	"query": "id:A064646",
	"count": 1,
	"start": 0,
	"results": [
		{
			"number": 64646,
			"data": "1,2,7,74,543,10589,120009,3420257,4767631,2281311434,141441308909,51307141467,3301022547923,200573000466191,433638827007904943,328326540448842314,31534618884970203647,13785884222546140694347",
			"name": "Numerators of partial sums of reciprocals of primorial numbers.",
			"example": [
				"n=5, Sum[1/q(j)],j=1..5 = 1/2+1/6+1/30+1/210+1/2310= (1155+385+77+11+1)/2310=1629/2310=543/770, a(5)=543"
			],
			"mathematica": [
				"q[x_] := Apply[Times, Table[Prime[j], {j, 1, x}]] a(n)=Numerator[Apply[Plus, Table[1/q[w], {w, 1, n}]]]"
			],
			"xref": [
				"A002110."
			],
			"keyword": "frac,nonn",
			"offset": "1,2",
			"author": "_Labos Elemer_, Oct 04 2001",
			"references": 1,
			"revision": 5,
			"time": "2013-10-15T22:31:07-04:00",
			"created": "2003-05-16T03:00:00-04:00"
		}
	]
}