{
	"greeting": "Greetings from The On-Line Encyclopedia of Integer Sequences! http://oeis.org/",
	"query": "id:A064263",
	"count": 1,
	"start": 0,
	"results": [
		{
			"number": 64263,
			"data": "0,11,22,3,14,25,6,17,28,9,20,1,12,23,4,15,26,7,18,29,10,21,2,13,24,5,16,27,8,19,0,11,22,3,14,25,6,17,28,9,20,1,12,23,4,15,26,7,18,29,10,21,2,13,24,5,16,27,8,19,0,11,22,3,14,25,6,17,28,9,20",
			"name": "a(n) = 11*n mod 30.",
			"comment": [
				"Epact in Julian calendar for a year with Golden Number n+1."
			],
			"reference": [
				"B. Blackburn and L. Hollford-Stevens, The Oxford Companion to the Year, Oxford, 1999; see p. 821."
			],
			"link": [
				"Harry J. Smith, \u003ca href=\"/A064263/b064263.txt\"\u003eTable of n, a(n) for n = 0..1000\u003c/a\u003e",
				"\u003ca href=\"/index/Rec#order_30\"\u003eIndex entries for linear recurrences with constant coefficients\u003c/a\u003e, signature (0, 0, 0, 0, 0, 0, 0, 0, 0, 0, 0, 0, 0, 0, 0, 0, 0, 0, 0, 0, 0, 0, 0, 0, 0, 0, 0, 0, 0, 1)."
			],
			"mathematica": [
				"Mod[11*Range[0,80],30] (* _Harvey P. Dale_, Mar 13 2014 *)"
			],
			"program": [
				"(PARI) { for (n=0, 1000, write(\"b064263.txt\", n, \" \", 11*n % 30) ) } \\\\ _Harry J. Smith_, Sep 10 2009"
			],
			"keyword": "nonn,easy",
			"offset": "0,2",
			"author": "_N. J. A. Sloane_, Sep 24 2001",
			"references": 3,
			"revision": 17,
			"time": "2018-06-24T18:28:32-04:00",
			"created": "2003-05-16T03:00:00-04:00"
		}
	]
}