{
	"greeting": "Greetings from The On-Line Encyclopedia of Integer Sequences! http://oeis.org/",
	"query": "id:A065951",
	"count": 1,
	"start": 0,
	"results": [
		{
			"number": 65951,
			"data": "0,0,0,90,-1890,36540,-729540,15507450,-353908170,8680615020,-228436914420,6431738433120,-193144902350400,6166945337372820,-208728050864680620,7467661073819689470,-281666767117960443870,11173071188540083124700",
			"name": "Bessel polynomial {y_n}'''(-1).",
			"reference": [
				"J. Riordan, Combinatorial Identities, Wiley, 1968, p. 77."
			],
			"link": [
				"G. C. Greubel, \u003ca href=\"/A065951/b065951.txt\"\u003eTable of n, a(n) for n = 0..400\u003c/a\u003e",
				"\u003ca href=\"/index/Be#Bessel\"\u003eIndex entries for sequences related to Bessel functions or polynomials\u003c/a\u003e"
			],
			"formula": [
				"a(n) = 48*binomial(n,3)*(1/2)_{n}*(-2)^(n - 3)*hypergeometric1f1(3-n, -2*n, -2), where (a)_{n} is the Pochhammer symbol. - _G. C. Greubel_, Aug 15 2017",
				"G.f.: (90*x^3/(1-x)^7)*hypergeometric2f0(4,7/2; - ; -2*x/(1-x)^2). - _G. C. Greubel_, Aug 16 2017"
			],
			"mathematica": [
				"Join[{0, 0, 0}, Table[48*Binomial[n, 3]*Pochhammer[1/2, n]*(-2)^(n - 3)* Hypergeometric1F1[3 - n, -2*n, -2], {n,3,50}]] (* _G. C. Greubel_, Aug 15 2017 *)",
				"CoefficientList[Series[(90*t^3/(1 - t)^7)*HypergeometricPFQ[{4, 7/2}, {}, -2*t/(1 - t)^2], {t, 0, 50}], t] (* _G. C. Greubel_, Aug 16 2017 *)"
			],
			"program": [
				"(PARI) for(n=0,50, print1(sum(k=0,n-3, ((n+k+3)!/(8*(n-k-3)!*k!))*(-2)^k ), \", \")) \\\\ _G. C. Greubel_, Aug 15 2017"
			],
			"xref": [
				"Cf. A001518, A001516."
			],
			"keyword": "sign",
			"offset": "0,4",
			"author": "_N. J. A. Sloane_, Dec 08 2001",
			"references": 1,
			"revision": 13,
			"time": "2017-08-17T05:55:22-04:00",
			"created": "2003-05-16T03:00:00-04:00"
		}
	]
}