{
	"greeting": "Greetings from The On-Line Encyclopedia of Integer Sequences! http://oeis.org/",
	"query": "id:A065143",
	"count": 1,
	"start": 0,
	"results": [
		{
			"number": 65143,
			"data": "1,0,4,12,44,220,1228,7196,45004,303900,2201676,16920860,136966860,1163989788,10364408140,96463232284,935872773068,9440653262620,98809201693260,1071131795708188,12007932126074060",
			"name": "a(n) = Sum_{k=0..n} stirling2(n,k)*(1+(-1)^k)*2^k/2.",
			"comment": [
				"Stirling transform of A199572 (aerated powers of 4)."
			],
			"link": [
				"Vincenzo Librandi, \u003ca href=\"/A065143/b065143.txt\"\u003eTable of n, a(n) for n = 0..200\u003c/a\u003e",
				"Vaclav Kotesovec, \u003ca href=\"http://oeis.org/A216688/a216688.pdf\"\u003eAsymptotic solution of the equations using the Lambert W-function\u003c/a\u003e",
				"Eric Weisstein's MathWorld, \u003ca href=\"http://mathworld.wolfram.com/BellPolynomial.html\"\u003eBell Polynomial\u003c/a\u003e."
			],
			"formula": [
				"Representation as a sum of an infinite series: a(n) = exp(2)*Sum_{k = 0..infinity} ((2*k)^n*2^(2*k)/(2*k)!) - sinh(2)*sum_{k = 0..infinity}(k^n*2^k/k!), for n \u003e= 0.",
				"E.g.f.: cosh(2*exp(x)-2). - _Vladeta Jovovic_, Sep 14 2003",
				"From _Vaclav Kotesovec_, Aug 06 2014: (Start)",
				"a(n) ~ n^n * cosh(2*exp(r)-2) / (r^n * (exp(n) * sqrt(4*exp(2*r)*r^2/n + 1-n+r))), where r is the root of the equation -2*exp(r)*r*tanh(2-2*exp(r)) = n.",
				"(a(n)/n!)^(1/n) ~ exp(1/LambertW(n/2)) / LambertW(n/2).",
				"(End)",
				"a(n) = (Bell_n(2) + Bell_n(-2))/2, where Bell_n(x) is n-th Bell polynomial. - _Vladimir Reshetnikov_, Nov 01 2015"
			],
			"mathematica": [
				"Table[Sum[StirlingS2[n,k]*(1+(-1)^k)*2^k/2,{k,0,n}],{n,0,20}] (* _Vaclav Kotesovec_, Aug 06 2014 *)",
				"Table[(BellB[n, 2] + BellB[n, -2])/2, {n, 0, 20}] (* _Vladimir Reshetnikov_, Nov 01 2015 *)"
			],
			"program": [
				"(PARI) a(n) = sum(k=0, n, stirling(n,k,2)*(1+(-1)^k)*2^k/2); \\\\ _Michel Marcus_, Nov 02 2015",
				"(PARI) x='x+O('x^50); Vec(serlaplace(cosh(2*exp(x)-2))) \\\\ _G. C. Greubel_, Nov 16 2017"
			],
			"xref": [
				"Cf. A199572, A264036."
			],
			"keyword": "nonn",
			"offset": "0,3",
			"author": "_Karol A. Penson_, Oct 17 2001",
			"references": 4,
			"revision": 23,
			"time": "2017-11-16T14:23:41-05:00",
			"created": "2003-05-16T03:00:00-04:00"
		}
	]
}