{
	"greeting": "Greetings from The On-Line Encyclopedia of Integer Sequences! http://oeis.org/",
	"query": "id:A065808",
	"count": 1,
	"start": 0,
	"results": [
		{
			"number": 65808,
			"data": "7,8,9,10,11,12,13,15,17,18,19,20,21,22,23,25,27,28,29,30,31,32,33,35,37,38,39,40,41,42,43,44,45,46,47,48,49,50,51,52,53,54,55,56,57,58,59,60,61,62,63,65,67,68,69,70,71,72,73,75,77,78,79,80,81,82,83,85,87,88",
			"name": "Square of n has a smaller square as its final digits.",
			"comment": [
				"Includes all n \u003e= 7 not == 4 or 6 (mod 10). - _Robert Israel_, Oct 24 2017"
			],
			"link": [
				"Robert Israel, \u003ca href=\"/A065808/b065808.txt\"\u003eTable of n, a(n) for n = 1..10000\u003c/a\u003e"
			],
			"maple": [
				"filter:= n -\u003e",
				"  ormap(t -\u003e issqr(n^2 mod 10^t), [$1..ilog10(n^2)]):",
				"select(filter, [$1..100]); # _Robert Israel_, Oct 24 2017"
			],
			"mathematica": [
				"ds[n_] := NestWhileList[FromDigits[Rest[IntegerDigits[#]]] \u0026, n, # \u003e 9 \u0026]; Select[Range[4, 88], Or @@ IntegerQ /@ Sqrt[Rest[ds[#^2]]] \u0026] (* _Jayanta Basu_, Jul 10 2013 *)"
			],
			"program": [
				"(PARI): a065808(m) = local(k, a, b, d, j, n, r); for(k=1, m, a=length(Str(n))-1; b=1; j=1; n=k^2; while(b, d=divrem(n, 10^j); if(d[1]\u003e0\u0026\u0026issquare(d[2]), b=0; issquare(n, \u0026r); print1(r, \",\"), if(j\u003ca, j++, b=0)))) a065808(100)"
			],
			"xref": [
				"A065807 gives the corresponding squares.",
				"Cf. A065690, A050635, A050637, A050639, A065777, A065780, A065783, A065786, A065789, A065792."
			],
			"keyword": "base,easy,nonn",
			"offset": "1,1",
			"author": "_Klaus Brockhaus_, Nov 22 2001",
			"ext": [
				"Offset changed to 1 by _Robert Israel_, Oct 24 2017"
			],
			"references": 2,
			"revision": 12,
			"time": "2017-10-24T02:29:46-04:00",
			"created": "2003-05-16T03:00:00-04:00"
		}
	]
}