{
	"greeting": "Greetings from The On-Line Encyclopedia of Integer Sequences! http://oeis.org/",
	"query": "id:A065857",
	"count": 1,
	"start": 0,
	"results": [
		{
			"number": 65857,
			"data": "4,18,133,1197,11374,110487,1084605,10708555,106091745,1053422339,10475688327,104287176419,1039019056246,10358018863853,103307491450820,1030734020030318,10287026204717358,102692313540015924,1025351434864118026,10239531292310798956,102270102190290407386",
			"name": "The (10^n)-th composite number.",
			"reference": [
				"A. E. Bojarincev, Asymptotic expressions for the n-th composite number. Univ. Mat. Zap. 6:21-43(1967). [in Russian]",
				"J.-M. De Koninck, Ces nombres qui nous fascinent, Entry 133, p. 45, Ellipses, Paris 2008."
			],
			"link": [
				"Chai Wah Wu, \u003ca href=\"/A065857/b065857.txt\"\u003eTable of n, a(n) for n = 0..22\u003c/a\u003e",
				"Laurentiu Panaitopol, \u003ca href=\"https://www.emis.de/journals/JIPAM/article153.html?sid=153\"\u003eSome properties of the series of composed [sic] numbers\u003c/a\u003e, Journal of Inequalities in Pure and Applied Mathematics 2:3 (2001).",
				"J. Barkley Rosser and Lowell Schoenfeld, \u003ca href=\"http://projecteuclid.org/euclid.ijm/1255631807\"\u003eApproximate formulas for some functions of prime numbers\u003c/a\u003e. Illinois J. Math. 6 (1962), pp. 64-94."
			],
			"formula": [
				"a(n) = A002808(A011557(n)).",
				"a(n) = 10^(n + n/log n + 2n/log^2 + 4n/log^3 n + O(n/log^4 n)). See Bojarincev for an asymptotic expansion. - _Charles R Greathouse IV_, May 30 2013"
			],
			"example": [
				"The 100th composite number is C(100)=133, while the 100th prime is 541. In general: A000720(m) \u003c A062298(m) \u003c m \u003c A002808(m) \u003c A000040(m), for example pi(100)=25 \u003c 75 \u003c 100 \u003c C(100)=133 \u003c prime(100)=541."
			],
			"mathematica": [
				"Composite[n_Integer] := Block[ {k = n + PrimePi[n] + 1 }, While[ k != n + PrimePi[k] + 1, k = n + PrimePi[k] + 1]; Return[k]];",
				"Table[Composite[10^n], {n, 0, 9}]"
			],
			"program": [
				"(PARI) a(n)=my(k=10^n);forcomposite(n=4,2*k+2,if(k--==0,return(n))) \\\\ _Charles R Greathouse IV_, May 30 2013"
			],
			"xref": [
				"Cf. A033844, A002808, A062298, A000720, A006988, A065855, A065856."
			],
			"keyword": "nonn,hard",
			"offset": "0,1",
			"author": "_Labos Elemer_, Nov 26 2001",
			"ext": [
				"More terms from _Robert G. Wilson v_, Nov 26 2001",
				"a(14) from _Lekraj Beedassy_, Jul 14 2008",
				"a(15)-a(19) from _Chai Wah Wu_, Apr 16 2018",
				"a(20) from _Chai Wah Wu_, Aug 23 2018"
			],
			"references": 3,
			"revision": 51,
			"time": "2020-03-08T17:15:34-04:00",
			"created": "2003-05-16T03:00:00-04:00"
		}
	]
}