{
	"greeting": "Greetings from The On-Line Encyclopedia of Integer Sequences! http://oeis.org/",
	"query": "id:A065096",
	"count": 1,
	"start": 0,
	"results": [
		{
			"number": 65096,
			"data": "0,1,6,31,156,785,3978,20335,104856,545073,2854350,15046383,79787700,425360481,2278586898,12259138975,66216193968,358941938849,1952111592342,10648449309823,58245727453260,319406931168241,1755674399021466,9671384910586511",
			"name": "Sums of lists produced by a variant of the iteration that produces the Catalan numbers: start with 0 and at each iteration replace each integer k with the list 0,1,...,k-1,k,k+1,k,k-1,...,1,0 and let a(n) be the sum of the resulting (flattened) list after n iterations.",
			"comment": [
				"Number of diagonals emanating from a fixed vertex of a convex (n+3)-gon in all of its dissections. Example: a(1)=1 because in the three dissections of a convex quadrilateral ABCD (namely: empty, {AC}, {BD}) there is only one diagonal emanating from A."
			],
			"link": [
				"Fung Lam, \u003ca href=\"/A065096/b065096.txt\"\u003eTable of n, a(n) for n = 0..1000\u003c/a\u003e",
				"S. B. Ekhad, M. Yang, \u003ca href=\"http://sites.math.rutgers.edu/~zeilberg/tokhniot/oMathar1maple12.txt\"\u003eProofs of Linear Recurrences of Coefficients of Certain Algebraic Formal Power Series Conjectured in the On-Line Encyclopedia Of Integer Sequences\u003c/a\u003e, (2017)."
			],
			"formula": [
				"G.f.: (1-3*z-sqrt(1-6*z+z^2))^2/(16*z^3).",
				"a(n) = (1/Pi)*Integral_{x=3-2*sqrt(2)..3+2*sqrt(2)} x^n*sqrt(-x^2+6x-1)*(x-3)/8. - _Paul Barry_, Sep 16 2006",
				"a(0) = 0 and, for n \u003e 0, a(n) = Sum_{k=1..n} A001003(k)*A001003(n+1-k). - _Philippe Deléham_, Jan 27 2004",
				"Conjecture: (n+3)*a(n) + 3*(-3*n-4)*a(n-1) + (19*n-9)*a(n-2) + 3*(-n+2)*a(n-3) = 0. - _R. J. Mathar_, Nov 24 2012",
				"Recurrence: (n+3)*a(n) = -9*(n-3)*a(n-4) + 30*(2*n-3)*a(n-3) - 46*n*a(n-2) + 6*(2*n+3)*a(n-1). - _Fung Lam_, Jan 29 2014",
				"a(n) ~ (3*sqrt(2)-4)^(3/2) * (3+2*sqrt(2))^(n+3) / (4 * sqrt(Pi) * n^(3/2)). - _Vaclav Kotesovec_, Feb 13 2014"
			],
			"mathematica": [
				"Table[Plus@@Flatten[Nest[ #/.a_Integer:\u003e Join[Range[0, a+1], Range[a, 0, -1]]\u0026, {0}, n]], {n, 0, 10}]",
				"Table[Range[n, 0, -1].Table[a[n, k], {k, 0, n}], {n, 0, 36}] with a[n, k] as defined in A033877."
			],
			"xref": [
				"Cf. A000108, A001003."
			],
			"keyword": "nonn",
			"offset": "0,3",
			"author": "_Wouter Meeussen_, Nov 11 2001",
			"references": 7,
			"revision": 39,
			"time": "2019-09-09T01:45:26-04:00",
			"created": "2003-05-16T03:00:00-04:00"
		}
	]
}