{
	"greeting": "Greetings from The On-Line Encyclopedia of Integer Sequences! http://oeis.org/",
	"query": "id:A065928",
	"count": 1,
	"start": 0,
	"results": [
		{
			"number": 65928,
			"data": "2,11,63,366,2132,12425,72417,422076,2460038,14338151,83568867,487075050,2838881432,16546213541,96438399813,562084185336,3276066712202,19094316087875,111289829815047,648644662802406,3780578146999388,22034824219193921,128428367168164137",
			"name": "(x,y) = (a(n),a(n+1)) are the solutions of (t(x)+t(y))/(1+xy)) = t(2) = 3, where t(n) denotes the n-th triangular number t(n) = n(n+1)/2.",
			"link": [
				"Vincenzo Librandi, \u003ca href=\"/A065928/b065928.txt\"\u003eTable of n, a(n) for n = 0..200\u003c/a\u003e",
				"J.-P. Ehrmann et al., \u003ca href=\"http://forumgeom.fau.edu/POLYA/ProblemCenter/POLYA002.html\"\u003eProblem POLYA002, Integer pairs (x,y) for which (x^2+y^2)/(1+pxy) is an integer\u003c/a\u003e.",
				"\u003ca href=\"/index/Rec#order_03\"\u003eIndex entries for linear recurrences with constant coefficients\u003c/a\u003e, signature (7,-7,1)."
			],
			"formula": [
				"a(n) = 2*t(m)*a(n-1)-a(n-2)-1, a(0) = m, a(1) = m^3+m^2-1 with m = 2.",
				"G.f.: (3*x-2)/((1-6*x+x^2)*(x-1)).",
				"a(0)=2, a(1)=11, a(2)=63, a(n)=7*a(n-1)-7*a(n-2)+a(n-3). - _Harvey P. Dale_, Nov 06 2011",
				"a(n) = (4+(14-11*sqrt(2))*(3-2*sqrt(2))^n+(3+2*sqrt(2))^n*(14+11*sqrt(2)))/16. - _Colin Barker_, Mar 05 2016"
			],
			"mathematica": [
				"CoefficientList[Series[(3x-2)/((1-6x+x^2)(x-1)),{x,0,20}],x] (* or *) LinearRecurrence[{7,-7,1},{2,11,63},20] (* _Harvey P. Dale_, Nov 06 2011 *)"
			],
			"program": [
				"(MAGMA) I:=[2,11,63]; [n le 3 select I[n] else 7*Self(n-1)-7*Self(n-2)+Self(n-3): n in [1..20]]; // _Vincenzo Librandi_, Nov 13 2011",
				"(PARI) Vec((3*x-2)/((1-6*x+x^2)*(x-1)) + O(x^40)) \\\\ _Colin Barker_, Mar 05 2016"
			],
			"keyword": "nonn,easy",
			"offset": "0,1",
			"author": "_Floor van Lamoen_, Nov 29 2001",
			"references": 1,
			"revision": 21,
			"time": "2016-03-06T03:57:58-05:00",
			"created": "2003-05-16T03:00:00-04:00"
		}
	]
}