{
	"greeting": "Greetings from The On-Line Encyclopedia of Integer Sequences! http://oeis.org/",
	"query": "id:A065089",
	"count": 1,
	"start": 0,
	"results": [
		{
			"number": 65089,
			"data": "0,4,32,272,256,1156,2176,3692,2048,8496,9248,15196,17408,22324,29536,39820,16384,56144,67968,79252,73984,111956,121568,143176,139264,184852,178592,238884,236288,285940,318560,358004,131072,435396,449152",
			"name": "Volume (multiplied by 3) of polyhedron formed by points (i,j,k) in Z^3 with i^2+j^2+k^2 = n^2.",
			"comment": [
				"For n=2^k, a(n)=4 n^3 because A016727(2^k) = SumOfSquaresRepresentations[3,(2^k)^2] contains only {0,0,2^k}.",
				"This is why a(16) and a(32) are visibly so much smaller than their neighbors when you look at the graph. [_Jonathan Vos Post_, Apr 22 2011]"
			],
			"example": [
				"a(2) = 32 because the volume of the polyhedron formed by all integer points at distance 2 from the origin, {{-2, 0, 0}, {0, -2, 0}, {0, 0, -2}, {0, 0, 2}, {0, 2, 0}, {2, 0, 0}}, is 32/3."
			],
			"mathematica": [
				"forms[ z:{_Integer, _, _} ] := Union[ Flatten[ Permutations/@(Times[ z, # ]\u0026/@Flatten[ Outer[ List, {1, -1}, {1, -1}, {1, -1} ], 2 ]), 1 ] ]; polyhedra=Flatten[ forms/@SumOfSquaresRepresentations[ 3, # ], 1 ]\u0026/@(Range[ 1, 36 ]^2); HullVolume[ #, ConvexHull3D[ # ] ]\u0026/@polyhedra;"
			],
			"xref": [
				"Cf. A016727."
			],
			"keyword": "nonn",
			"offset": "0,2",
			"author": "_Wouter Meeussen_, Nov 10 2001",
			"references": 1,
			"revision": 16,
			"time": "2018-08-04T06:38:21-04:00",
			"created": "2003-05-16T03:00:00-04:00"
		}
	]
}