{
	"greeting": "Greetings from The On-Line Encyclopedia of Integer Sequences! http://oeis.org/",
	"query": "id:A065423",
	"count": 1,
	"start": 0,
	"results": [
		{
			"number": 65423,
			"data": "0,0,2,1,4,2,6,3,8,4,10,5,12,6,14,7,16,8,18,9,20,10,22,11,24,12,26,13,28,14,30,15,32,16,34,17,36,18,38,19,40,20,42,21,44,22,46,23,48,24,50,25,52,26,54,27,56,28,58,29,60,30,62,31,64,32,66,33,68,34,70,35,72,36,74",
			"name": "Number of ordered length 2 compositions of n with at least one even summand.",
			"comment": [
				"(Fourth column of table A210530)/2 for n\u003e2. - _Boris Putievskiy_, Jan 29 2013"
			],
			"link": [
				"\u003ca href=\"/index/Tu#2wis\"\u003eIndex entries for two-way infinite sequences\u003c/a\u003e",
				"\u003ca href=\"/index/Rec#order_04\"\u003eIndex entries for linear recurrences with constant coefficients\u003c/a\u003e, signature (0,2,0,-1)."
			],
			"formula": [
				"G.f.: x^3*(x+2)/(1-x^2)^2.",
				"a(n)=floor((n-1)/2) + (n is odd)*floor((n-1)/2)",
				"a(n+2)=sum{k=0..n, gcd(n, k) mod 2}; - _Paul Barry_, May 02 2005",
				"a(n)= Sum( (-1)^i (floor(i/2) + mod(i + 1, 2) ), {i = 1..n-1}) - __Olivier Gérard__, Jun 21 2007",
				"a(n) = (3*n+2-(n+2)*(-1)^n)/4, n \u003e 1. - _Boris Putievskiy_, Jan 29 2013",
				"a(n) = A026741(n)-1. - _Wesley Ivan Hurt_, Jun 23 2013"
			],
			"example": [
				"a(7) = 6 because we can write 7 = 1+6 = 2+5 = 3+4 = 4+3 = 5+2 = 6+1; a(8) = 3 because we can write 8 = 2+6 = 4+4 = 6+2."
			],
			"mathematica": [
				"LinearRecurrence[{0,2,0,-1},{0,0,2,1},100] (* _Harvey P. Dale_, May 14 2014 *)"
			],
			"program": [
				"(PARI) a(n)=n-=2;if(n%2,n+1,n/2)"
			],
			"xref": [
				"Cf. A097140 (first differences), A030451 (absolute first differences), A210530."
			],
			"keyword": "nonn,easy",
			"offset": "1,3",
			"author": "_Len Smiley_, Nov 23 2001",
			"references": 9,
			"revision": 29,
			"time": "2015-10-31T13:34:10-04:00",
			"created": "2003-05-16T03:00:00-04:00"
		}
	]
}