{
	"greeting": "Greetings from The On-Line Encyclopedia of Integer Sequences! http://oeis.org/",
	"query": "id:A065197",
	"count": 1,
	"start": 0,
	"results": [
		{
			"number": 65197,
			"data": "1,5,90,117,154,446,3650,4754,8110,69977,74014,401477,432257,545185",
			"name": "Solutions to A065191(n) = n.",
			"mathematica": [
				"Reap[Do[pos = n; Do[pos -= k (-1)^Quotient[pos, k], {k, n, 1, -1}]; pos -= If[Mod[n, 4] \u003c 2, 1, -1]; If[pos == n, Print[n]; Sow[n]], {n, 1, 10^4} ]][[2, 1]] (* _Jean-François Alcover_, Mar 02 2020, after _Charlie Neder_ in A065191 *)"
			],
			"program": [
				"(Python)",
				"from itertools import islice, count",
				"def A0065197gen(): # generator of terms, after _Charlie Neder_ in A065191",
				"    for n in count(1):",
				"        m = n",
				"        for k in range(n, 1, -1):",
				"            m += k if (m//k) % 2 else -k",
				"        if m == n:",
				"            yield n",
				"A0065197_list = list(islice(A0065197(),10)) # _Chai Wah Wu_, Dec 15 2021"
			],
			"xref": [
				"Cf. A065191, A065192, A065193, A065194, A065195, A065196."
			],
			"keyword": "nice,nonn,more",
			"offset": "1,2",
			"author": "Klaus Strassburger (strass(AT)ddfi.uni-duesseldorf.de), Oct 19 2001",
			"ext": [
				"a(7)-a(9) from _Charlie Neder_, Feb 04 2019",
				"a(10)-a(14) from _Chai Wah Wu_, Dec 15 2021"
			],
			"references": 6,
			"revision": 16,
			"time": "2021-12-15T21:45:56-05:00",
			"created": "2003-05-16T03:00:00-04:00"
		}
	]
}