{
	"greeting": "Greetings from The On-Line Encyclopedia of Integer Sequences! http://oeis.org/",
	"query": "id:A065856",
	"count": 1,
	"start": 0,
	"results": [
		{
			"number": 65856,
			"data": "4,6,9,15,26,48,88,168,323,627,1225,2406,4736,9351,18504,36655,72730,144450,287147,571208,1136971,2264215,4510963,8990492,17923944,35743996,71298762,142249762,283859985,566537515,1130886504,2257704401,4507834166,9001524190",
			"name": "The (2^n)-th composite number.",
			"comment": [
				"a(n) = A002808(A000079(n))."
			],
			"link": [
				"Chai Wah Wu, \u003ca href=\"/A065856/b065856.txt\"\u003eTable of n, a(n) for n = 0..70\u003c/a\u003e"
			],
			"formula": [
				"a(n)-pi(a(n))-1 = 2^n."
			],
			"example": [
				"composite[1] = composite[2^0] = 4, composite[2] = composite[2^1] = 6, composite[1024] = composite[2^10] = 1225, composite[1073741824}] = composite[2^30] = 1130886504."
			],
			"mathematica": [
				"Composite[n_Integer] := Block[ {k = n + PrimePi[n] + 1 }, While[ k != n + PrimePi[k] + 1, k = n + PrimePi[k] + 1]; Return[ k ]]; Table[ Composite[2^n], {n, 0, 36} ]"
			],
			"xref": [
				"Cf. A033844, A002808, A062298, A000720, A065855."
			],
			"keyword": "nonn",
			"offset": "0,1",
			"author": "_Labos Elemer_, Nov 26 2001",
			"ext": [
				"More terms from _Robert G. Wilson v_, Nov 26 2001",
				"Definition corrected by _N. J. A. Sloane_, Jun 07 2009",
				"Further corrections from _Reinhard Zumkeller_, Jun 24 2009",
				"a(32)-a(33) from _Chai Wah Wu_, Apr 16 2018"
			],
			"references": 5,
			"revision": 27,
			"time": "2018-08-24T01:15:50-04:00",
			"created": "2003-05-16T03:00:00-04:00"
		}
	]
}