{
	"greeting": "Greetings from The On-Line Encyclopedia of Integer Sequences! http://oeis.org/",
	"query": "id:A065777",
	"count": 1,
	"start": 0,
	"results": [
		{
			"number": 65777,
			"data": "4,46,2454,314954,4492502454,8866500849999685046,4716968811408150949999999995507497546,8302295225692406203256091732061577875000000000000000008866500849999685046",
			"name": "a(1) = 4; for n \u003e 1 is a(n) the square root of the smallest square \u003e a(n-1)^2 with a(n-1)^2 forming its final digits.",
			"xref": [
				"A050635, A065690, A065776, A065778."
			],
			"keyword": "base,nonn",
			"offset": "1,1",
			"author": "_Klaus Brockhaus_, Nov 19 2001",
			"ext": [
				"More terms from Ulrich Schimke (ulrschimke(AT)aol.com), Dec 18 2001"
			],
			"references": 4,
			"revision": 4,
			"time": "2015-03-05T12:26:13-05:00",
			"created": "2003-05-16T03:00:00-04:00"
		}
	]
}