{
	"greeting": "Greetings from The On-Line Encyclopedia of Integer Sequences! http://oeis.org/",
	"query": "id:A065841",
	"count": 1,
	"start": 0,
	"results": [
		{
			"number": 65841,
			"data": "1,2,3,123,23123,312323123,12323123312323123,2312331232312312323123312323123,312323123123231233123231232312331232312312323123312323123",
			"name": "a(1) = 1; a(2) = 2; a(3) = 3; a(n) is concatenation of a(n-3), a(n-2) and a(n-1).",
			"reference": [
				"C. A. Pickover, \"Wonders of Numbers\", Oxford University Press, 2001, chapter 122 '3 Weird Problems with 3 - Growth', pp. 272-274, 378."
			],
			"link": [
				"Harry J. Smith, \u003ca href=\"/A065841/b065841.txt\"\u003eTable of n, a(n) for n=1..13\u003c/a\u003e",
				"C. A. Pickover, \"Wonders of Numbers, Adventures in Mathematics, Mind and Meaning,\" \u003ca href=\"http://www.zentralblatt-math.org/zmath/en/search/?q=an:0983.00008\u0026amp;format=complete\"\u003eZentralblatt review\u003c/a\u003e"
			],
			"mathematica": [
				"nxt[{a_,b_,c_}]:={b,c,FromDigits[Flatten[IntegerDigits/@{a,b,c}]]}; Transpose[ NestList[nxt,{1,2,3},10]][[1]] (* _Harvey P. Dale_, Nov 08 2013 *)"
			],
			"program": [
				"(PARI) digitsIn(x)= { local(d); if (x==0, return(1)); d=1 + log(x)\\log(10); if (10^d == x, d++, if (10^(d-1) \u003e x, d--)); return(d) } Concat(a, b)= { return(a*10^digitsIn(b) + b) } { for (n = 1, 13, if (n\u003e3, a=Concat(Concat(a3, a2), a1); a3=a2; a2=a1; a1=a, if (n==1, a=a3=1, if (n==2, a=a2=2, a=a1=3))); write(\"b065841.txt\", n, \" \", a) ) } \\\\ _Harry J. Smith_, Nov 01 2009"
			],
			"xref": [
				"Cf. A065842, A001590."
			],
			"keyword": "nonn,base,easy",
			"offset": "1,2",
			"author": "_Patrick De Geest_, Nov 27 2001",
			"ext": [
				"OFFSET changed from 0 to 1 by _Harry J. Smith_, Nov 01 2009",
				"Edited by _Charles R Greathouse IV_, Apr 27 2010"
			],
			"references": 2,
			"revision": 14,
			"time": "2015-09-25T15:45:16-04:00",
			"created": "2003-05-16T03:00:00-04:00"
		}
	]
}