{
	"greeting": "Greetings from The On-Line Encyclopedia of Integer Sequences! http://oeis.org/",
	"query": "id:A065404",
	"count": 1,
	"start": 0,
	"results": [
		{
			"number": 65404,
			"data": "16,64,729,2401,4096,15625,28561,65536,83521,262144,279841,531441,707281,3418801,4826809,9765625,24137569,28398241,38950081,47458321,244140625,260144641,887503681,1073741824,1387488001,2655237841",
			"name": "Squares of composite numbers k such that sigma(k) (sum of divisors of k, A000203) is a prime.",
			"link": [
				"Amiram Eldar, \u003ca href=\"/A065404/b065404.txt\"\u003eTable of n, a(n) for n = 1..500\u003c/a\u003e (terms 1..100 from Harry J. Smith)"
			],
			"formula": [
				"sigma(a(n)) = A065403(n)."
			],
			"example": [
				"46 cases below 10^12; for M a Mersenne prime, (M+1)/2 is here: M=8191, 4096=(M+1)/2."
			],
			"program": [
				"(PARI) { n=0; for (m=1, 10^9, if (isprime(m), next); x=sigma(m^2); if (isprime(x), write(\"b065404.txt\", n++, \" \", m^2); if (n==100, return)) ) } \\\\ _Harry J. Smith_, Oct 18 2009"
			],
			"xref": [
				"Cf. A062700, A000203 (sigma), A065403, A065405, A053182, A053183, A028982."
			],
			"keyword": "nonn",
			"offset": "1,1",
			"author": "_Labos Elemer_, Nov 06 2001",
			"references": 4,
			"revision": 17,
			"time": "2020-07-18T04:32:46-04:00",
			"created": "2003-05-16T03:00:00-04:00"
		}
	]
}