{
	"greeting": "Greetings from The On-Line Encyclopedia of Integer Sequences! http://oeis.org/",
	"query": "id:A065962",
	"count": 1,
	"start": 0,
	"results": [
		{
			"number": 65962,
			"data": "1,2,4,7,12,18,26,36,48,64,83,107,136,169,209,256,311,376,451,539,639,755,889,1044,1220,1420,1644,1904,2196,2524,2894,3313,3780,4307,4898,5553,6286,7104,8015,9025,10147,11393,12769,14293,15971,17832",
			"name": "a(1) = 1, a(n) = a(n - 1) + pi(a(n - 1)) + 1.",
			"comment": [
				"Labos came up with this sequence when trying to write a Mathematica program for A006508. The entire loop \"While[ k - PrimePi[ k ] - 1, k++ ]\" is meaningless; all the function g[n] really does is add up n + pi(n) + 1 and then NestList makes the recurrence happen. [Alonso del Arte, Oct 25 2011]"
			],
			"example": [
				"a(4) = 7 because a(3) = 4 and 4 + pi(4) + 1 = 4 + 2 + 1 = 7.",
				"a(5) = 12 because a(4) = 7 and 7 + pi(7) + 1 = 7 + 4 + 1 = 12."
			],
			"mathematica": [
				"g[ n_Integer ] := (k = n + PrimePi[ n ] + 1; While[ k - PrimePi[ k ] - 1, k++ ]; k); NestList[ g, 1, 50 ]",
				"NestList[#+PrimePi[#]+1\u0026,1,50] (* _Harvey P. Dale_, Feb 13 2016 *)"
			],
			"xref": [
				"Cf. A000720"
			],
			"keyword": "nonn,easy",
			"offset": "1,2",
			"author": "_Labos Elemer_, Dec 08 2001",
			"references": 0,
			"revision": 10,
			"time": "2016-02-13T09:43:54-05:00",
			"created": "2003-05-16T03:00:00-04:00"
		}
	]
}