{
	"greeting": "Greetings from The On-Line Encyclopedia of Integer Sequences! http://oeis.org/",
	"query": "id:A065471",
	"count": 1,
	"start": 0,
	"results": [
		{
			"number": 65471,
			"data": "9,0,1,9,2,6,0,3,9,5,8,7,0,8,2,1,7,1,3,7,7,7,1,5,2,0,2,5,5,0,4,7,1,9,3,4,1,5,2,5,5,5,4,5,3,1,5,5,5,5,5,3,5,8,3,5,8,4,3,3,3,2,7,2,8,9,2,9,3,7,8,1,0,7,2,5,6,8,1,5,7,5,2,3,8,9,0,4,9,9,9,0,1,0,3,3,8,0",
			"name": "Decimal expansion of Product_{p prime} (1 - 1/(p^2*(p^2-1))).",
			"link": [
				"G. Niklasch, \u003ca href=\"/A001692/a001692.html\"\u003eSome number theoretical constants: 1000-digit values\u003c/a\u003e. [Cached copy]",
				"G. Niklasch, \u003ca href=\"http://guests.mpim-bonn.mpg.de/moree/Moree-details.en.shtml#t17-anon\"\u003e1000-digit value\u003c/a\u003e."
			],
			"example": [
				"0.90192603958708217137771520255047..."
			],
			"mathematica": [
				"$MaxExtraPrecision = 500; digits = 98; terms = 500; P[n_] := PrimeZetaP[n]; LR = Join[{0, 0, 0, 0}, LinearRecurrence[{0, 2, 0, 0, 0, -1}, {-4, 0, -6, 0, -12, 0}, terms + 10]]; r[n_Integer] := LR[[n]]; Exp[NSum[r[n]*P[n - 1]/(n - 1), {n, 3, terms}, NSumTerms -\u003e terms, WorkingPrecision -\u003e digits + 10]] // RealDigits[#, 10, digits]\u0026 // First (* _Jean-François Alcover_, Apr 18 2016 *)"
			],
			"program": [
				"(PARI) prodeulerrat(1 - 1/(p^2*(p^2-1))) \\\\ _Amiram Eldar_, Mar 16 2021"
			],
			"xref": [
				"Cf. A078086, A138402."
			],
			"keyword": "cons,nonn",
			"offset": "0,1",
			"author": "_N. J. A. Sloane_, Nov 19 2001",
			"references": 3,
			"revision": 17,
			"time": "2021-03-16T04:07:33-04:00",
			"created": "2003-05-16T03:00:00-04:00"
		}
	]
}