{
	"greeting": "Greetings from The On-Line Encyclopedia of Integer Sequences! http://oeis.org/",
	"query": "id:A065157",
	"count": 1,
	"start": 0,
	"results": [
		{
			"number": 65157,
			"data": "1,2,2,3,4,3,4,6,10,4,5,8,15,8,5,6,10,36,12,18,6,7,12,45,16,27,20,7,8,14,54,20,68,30,42,8,9,16,63,24,85,72,63,16,9,10,18,136,28,102,90,292,24,34,10,11,20,153,32,119,108,365,32,51,36,11,12,22,170,36,264,126",
			"name": "Table of binary string substitutions: a(i,j) is obtained by substituting i for each 1-bit in j.",
			"comment": [
				"Table origin is a(1,1). a(1,n)=a(n,1)=n. a(0,n)=a(n,0)=0. a(i,j)=A065158(i,j)*i. a(n,n)=A065159(n)=A065160(n)*n."
			],
			"example": [
				"a(3,5): 5=101-\u003e(3)0(3)=(11)0(11)=11011=27. a(5,3): 3=11-\u003e(5)(5)=(101)(101)=101101=45."
			],
			"xref": [
				"A065158, A065159, A065160."
			],
			"keyword": "base,easy,nonn,tabl",
			"offset": "1,2",
			"author": "_Marc LeBrun_, Oct 18 2001",
			"references": 4,
			"revision": 2,
			"time": "2012-03-30T17:38:10-04:00",
			"created": "2003-05-16T03:00:00-04:00"
		}
	]
}