{
	"greeting": "Greetings from The On-Line Encyclopedia of Integer Sequences! http://oeis.org/",
	"query": "id:A065112",
	"count": 1,
	"start": 0,
	"results": [
		{
			"number": 65112,
			"data": "0,13,0,17,211,113,317,419,223,229,131,137,241,443,347,353,359,461,167,271,173,179,283,389,197,5101,1103,5107,1109,2113,4127,2131,2137,4139,11149,1151,4157,1163,3167,6173,2179,1181,3191,1193,5197,6199,4211",
			"name": "Smallest prime whose decimal expansion ends (nontrivially) with the n-th prime; or 0 if no such prime exists.",
			"comment": [
				"a(1) and a(3) (respectively for primes 2 and 5) are trivially zero. All other terms are nonzero by Dirichlet's theorem on arithmetic progressions. - _Joerg Arndt_, Jun 06 2021"
			],
			"link": [
				"Wikipedia, \u003ca href=\"https://en.wikipedia.org/wiki/Dirichlet%27s_theorem_on_arithmetic_progressions\"\u003eDirichlet's theorem on arithmetic progressions\u003c/a\u003e"
			],
			"mathematica": [
				"f[n_] := (k = 1; While[a = ToExpression[ ToString[k] \u003c\u003e ToString[n]]; ! PrimeQ[a], k++ ]; a); Table[ f[ Prime[n]], {n, 4, 50} ]"
			],
			"xref": [
				"Cf. A030670."
			],
			"keyword": "nonn,base",
			"offset": "1,2",
			"author": "_Robert G. Wilson v_, Nov 12 2001",
			"references": 3,
			"revision": 24,
			"time": "2021-06-20T23:39:47-04:00",
			"created": "2003-05-16T03:00:00-04:00"
		}
	]
}