{
	"greeting": "Greetings from The On-Line Encyclopedia of Integer Sequences! http://oeis.org/",
	"query": "id:A066072",
	"count": 1,
	"start": 0,
	"results": [
		{
			"number": 66072,
			"data": "2,3,3,5,7,5,5,7,7,13,11,13,19,13,17,17,13,19,17,13,23,17,43,19,41,37,29,17,31,37,37,41,37,61,41,43,41,73,61,47,73,43,61,41,53,37,41,73,37,89,73,59,97,61,61,101,37,41,109,67,73,71,113,73,73,41,73,97,61,79,83",
			"name": "Prime numbers arising in A066071.",
			"link": [
				"Harry J. Smith, \u003ca href=\"/A066072/b066072.txt\"\u003eTable of n, a(n) for n = 1..1000\u003c/a\u003e"
			],
			"formula": [
				"a(n) = 1 + phi(A066071(n))."
			],
			"example": [
				"Solutions to 1+phi(x)=13 are {13, 21, 26, 28, 36, 42}; so 13 occur 5 times in the sequence in positions 10, 13, 15, 18 and 21, obtained as 1+Phi[m] values for 5 composite arguments."
			],
			"mathematica": [
				"Select[EulerPhi@ # + 1 \u0026 /@ Complement[Range@ #, Prime@ Range@ PrimePi@ #] \u0026@ 168, PrimeQ] (* _Michael De Vlieger_, Jul 01 2016 *)"
			],
			"program": [
				"(PARI) { n=0; for (m=1, 10^9, if (!isprime(m) \u0026\u0026 isprime(p=(eulerphi(m) + 1)), write(\"b066072.txt\", n++, \" \", p); if (n==1000, return)) ) } \\\\ _Harry J. Smith_, Nov 10 2009"
			],
			"xref": [
				"Cf. A000010, A058340, A066071, A066072, A066073, A066074, A066075, A066076, A066077, A066080."
			],
			"keyword": "nonn",
			"offset": "1,1",
			"author": "_Labos Elemer_, Dec 03 2001",
			"references": 10,
			"revision": 20,
			"time": "2018-01-05T02:56:13-05:00",
			"created": "2003-05-16T03:00:00-04:00"
		}
	]
}