{
	"greeting": "Greetings from The On-Line Encyclopedia of Integer Sequences! http://oeis.org/",
	"query": "id:A066933",
	"count": 1,
	"start": 0,
	"results": [
		{
			"number": 66933,
			"data": "1,2,-5,-70,1275,97748,-2713585,-251983958,9651414311,1137214908700,-268100912462097,-16553358418854560,4303513869962179379,602501593820064477686,-50199332236439321779977,-7847812115804566640572424,2754406130856424049914030863",
			"name": "Determinant of n X n matrix whose rows are cyclic permutations of 2..prime(n).",
			"link": [
				"Alois P. Heinz, \u003ca href=\"/A066933/b066933.txt\"\u003eTable of n, a(n) for n = 0..300\u003c/a\u003e"
			],
			"formula": [
				"Conjecture: a(n) = (-1)^(n+floor(n/2))*Res(f(n) , x^n - 1), where Res is the resultant, and f(n)=Sum_{k=1..n} prime(k)*x^k. - _Benedict W. J. Irwin_, Dec 07 2016"
			],
			"example": [
				"a(3) = -70 because this is the determinant of [(2,3,5), (3,5,2), (5,2,3)]."
			],
			"maple": [
				"a:= n-\u003e LinearAlgebra[Determinant](Matrix(n,",
				"       (i, j)-\u003e ithprime(1+irem(i+j-2, n)))):",
				"seq(a(n), n=0..20);  # _Alois P. Heinz_, Dec 09 2016"
			],
			"mathematica": [
				"f[ n_ ] := Module[ {a = Table[ Prime[ i ], {i, 1, n} ], m = {}, k = 0}, While[ k \u003c n, m = Append[ m, RotateLeft[ a, k ] ]; k++ ]; Det[ m ] ]; Table[ f[ n ], {n, 1, 16} ]"
			],
			"program": [
				"(PARI) a(n) = matdet(matrix(n, n, i, j, prime(1+lift(Mod(j-i, n))))); \\\\ _Michel Marcus_, Aug 11 2019"
			],
			"xref": [
				"Cf. A052182."
			],
			"keyword": "easy,sign",
			"offset": "0,2",
			"author": "_Robert G. Wilson v_, Jan 24 2002",
			"ext": [
				"a(0)=1 prepended by _Alois P. Heinz_, Dec 09 2016"
			],
			"references": 12,
			"revision": 14,
			"time": "2019-08-12T02:45:44-04:00",
			"created": "2003-05-16T03:00:00-04:00"
		}
	]
}