{
	"greeting": "Greetings from The On-Line Encyclopedia of Integer Sequences! http://oeis.org/",
	"query": "id:A066548",
	"count": 1,
	"start": 0,
	"results": [
		{
			"number": 66548,
			"data": "1,5,15,25,5,15,25,20,33,33,43,46,64,63,73,90,101,117,127,27,41,55,59,61,72,89,99,109,126,137,131,70,85,100,121,141,152,170,197,135,108,145,164,189,219,240,160,167,184,227,259,282,203,207,248,275,317,297,228",
			"name": "Sum of digits of n-th term of A066547.",
			"xref": [
				"Cf. A066547."
			],
			"keyword": "nonn,base",
			"offset": "1,2",
			"author": "_Amarnath Murthy_, Dec 16 2001",
			"ext": [
				"More terms from Antonio G. Astudillo (afg_astudillo(AT)lycos.com), Apr 01 2003"
			],
			"references": 1,
			"revision": 2,
			"time": "2013-12-05T19:55:05-05:00",
			"created": "2003-05-16T03:00:00-04:00"
		}
	]
}