{
	"greeting": "Greetings from The On-Line Encyclopedia of Integer Sequences! http://oeis.org/",
	"query": "id:A066891",
	"count": 1,
	"start": 0,
	"results": [
		{
			"number": 66891,
			"data": "4,6,2,22,26,42,18,9,24,66,72,36,96,82,28,114,32,126,60,150,66,152,158,200,202,84,204,42,206,62,218,110,236,270,222,126,290,135,8,300,324,330,148,350,356,408,410,420,434,17,438,384,122,15,68,446,216,456,462",
			"name": "Max (k : prime(k+n)-prime(k)=0 mod(k))",
			"comment": [
				"a(n) is very often even."
			],
			"keyword": "nonn",
			"offset": "1,1",
			"author": "_Benoit Cloitre_, Jan 24 2002",
			"references": 0,
			"revision": 5,
			"time": "2012-03-30T18:38:47-04:00",
			"created": "2003-05-16T03:00:00-04:00"
		}
	]
}