{
	"greeting": "Greetings from The On-Line Encyclopedia of Integer Sequences! http://oeis.org/",
	"query": "id:A066240",
	"count": 1,
	"start": 0,
	"results": [
		{
			"number": 66240,
			"data": "18,20,70,104,464,1952,45356,91388,130304,254012,388076,437745,522752,8382464,134193152",
			"name": "The floor(n/2)-perfect numbers, where f-perfect numbers for an arithmetical function f are defined in A066218.",
			"link": [
				"J. Pe, \u003ca href=\"http://jlpe.tripod.com/gpn/fperfect.htm\"\u003eOn a Generalization of Perfect Numbers\u003c/a\u003e, J. Rec. Math., 31(3) (2002-2003), 168-172."
			],
			"example": [
				"Let f(n) = floor(n/2). Then f(18) = 9 = 4+3+1+1+0 = f(9)+f(6)+f(3)+f(2)+f(1); so 18 is a term of the sequence."
			],
			"mathematica": [
				"f[x_] := Floor[x/2]; Select[ Range[ 1, 10^5], 2 * f[ # ] == Apply[ Plus, Map[ f, Divisors[ # ] ] ] \u0026 ]"
			],
			"xref": [
				"Cf. A066218."
			],
			"keyword": "nonn,more",
			"offset": "1,1",
			"author": "_Joseph L. Pe_, Dec 19 2001",
			"ext": [
				"a(7)-a(15) from _Amiram Eldar_, Sep 26 2019"
			],
			"references": 0,
			"revision": 12,
			"time": "2019-09-26T09:05:37-04:00",
			"created": "2003-05-16T03:00:00-04:00"
		}
	]
}