{
	"greeting": "Greetings from The On-Line Encyclopedia of Integer Sequences! http://oeis.org/",
	"query": "id:A066907",
	"count": 1,
	"start": 0,
	"results": [
		{
			"number": 66907,
			"data": "1,4,14,28,32,56,58,176,110,128,134,392,184,232,448,608,308,440,382,896,812,536,554,2464,752,736,974,1624,872,1792,994,2336,1876,1232,1856,3080,1408,1528,2576,5632,1724,3248,1894,3752,3520,2216,2258,8512,2746",
			"name": "Number of elements in GL(2,Z_n) x with x^2 == I mod n where I is the identity matrix.",
			"comment": [
				"a(n) is multiplicative and for an odd prime power p^k : a(p^k) = 2 + p^(2k-1)(p+1). [corrected by _Felix A. Pahl_, Mar 08 2013]",
				"Number of involutory matrices mod n. - _Charles R Greathouse IV_, May 29 2013"
			],
			"link": [
				"Charles R Greathouse IV, \u003ca href=\"/A066907/b066907.txt\"\u003eTable of n, a(n) for n = 1..10000\u003c/a\u003e"
			],
			"formula": [
				"a(n) = A066947(n) + 1."
			],
			"program": [
				"(PARI) a(n)=my(o=valuation(n,2),f=factor(n\u003e\u003eo)); prod(i=1,#f[,1],f[i,1]^(2*f[i,2])+f[i,1]^(2*f[i,2]-1)+2)*if(o, if(o\u003e1, if(o\u003e2, 9*4^(o-1)+32,28),4),1) \\\\ _Charles R Greathouse IV_, May 29 2013"
			],
			"xref": [
				"Cf. A066947, A060594."
			],
			"keyword": "nonn,mult,easy",
			"offset": "1,2",
			"author": "Sharon Sela (sharonsela(AT)hotmail.com), Jan 26 2002",
			"ext": [
				"Added more terms (from A066947), _Joerg Arndt_, Mar 08 2013"
			],
			"references": 5,
			"revision": 11,
			"time": "2013-05-29T02:49:19-04:00",
			"created": "2003-05-16T03:00:00-04:00"
		}
	]
}