{
	"greeting": "Greetings from The On-Line Encyclopedia of Integer Sequences! http://oeis.org/",
	"query": "id:A066143",
	"count": 1,
	"start": 0,
	"results": [
		{
			"number": 66143,
			"data": "1,3,8,18,44,150,762,5096,40392,362970,3628910,39916932,479001756,6227020982,87178291410,1307674368240,20922789888272,355687428096306,6402373705728342,121645100408832380,2432902008176640420,51090942171709440462,1124000727777607680506",
			"name": "a(n) = n! + n^2 + n.",
			"link": [
				"Harry J. Smith, \u003ca href=\"/A066143/b066143.txt\"\u003eTable of n, a(n) for n = 0..100\u003c/a\u003e"
			],
			"mathematica": [
				"Table[n!+n^2+n,{n,0,30}] (* _Harvey P. Dale_, Sep 14 2021 *)"
			],
			"program": [
				"(PARI) { for (n=0, 100, write(\"b066143.txt\", n, \" \", n! + n^2 + n) ) } \\\\ _Harry J. Smith_, Feb 02 2010"
			],
			"keyword": "easy,nonn",
			"offset": "0,2",
			"author": "_George E. Antoniou_, Dec 07 2001",
			"references": 1,
			"revision": 12,
			"time": "2021-09-14T19:58:41-04:00",
			"created": "2003-05-16T03:00:00-04:00"
		}
	]
}