{
	"greeting": "Greetings from The On-Line Encyclopedia of Integer Sequences! http://oeis.org/",
	"query": "id:A066741",
	"count": 1,
	"start": 0,
	"results": [
		{
			"number": 66741,
			"data": "0,1,925,1426,6112,9801,140301,52244922262,1445531162626,5205252778462,63253297234426,9040940929621480310251",
			"name": "Pentagonal numbers not divisible by 10 whose reverse is a square.",
			"comment": [
				"a(13) \u003e 2^63. - Donovan Johnson, May 24 2011"
			],
			"example": [
				"925 is pentagonal and 529 is square"
			],
			"mathematica": [
				"dtn[L_] := Fold[10#1+#2\u0026, 0, L] A={0}; For[i=1, i\u003e0, i++, t=i(3i-1)/2; r=dtn[Reverse[IntegerDigits[t]]]; If[IntegerQ[Sqrt[r]]\u0026\u0026Mod[t, 10]\u003e0, AppendTo[A, t]; Print[A]]]"
			],
			"keyword": "base,more,nonn",
			"offset": "1,3",
			"author": "_Erich Friedman_, Jan 16 2002",
			"ext": [
				"a(12) from _Donovan Johnson_, Apr 03 2008",
				"Offset corrected by _Donovan Johnson_, May 24 2011",
				"Description clarified and a(12) corrected by _Lars Blomberg_, May 29 2011"
			],
			"references": 0,
			"revision": 14,
			"time": "2012-03-31T10:28:27-04:00",
			"created": "2003-05-16T03:00:00-04:00"
		}
	]
}