{
	"greeting": "Greetings from The On-Line Encyclopedia of Integer Sequences! http://oeis.org/",
	"query": "id:A066774",
	"count": 1,
	"start": 0,
	"results": [
		{
			"number": 66774,
			"data": "4,13,15,19,21,27,31,35,37,39,51,53,57,65,67,69,77,83,87,89,95,109,111,113,125,127,129,131,139,155,157,161,177,181,199,209,211,221,233,237,249,251,257,263,267,291,293,305,307,309,317,329,335,337,353,365,371",
			"name": "A066728(a(n))=3.",
			"comment": [
				"Conjecture: the set of k such that a(k+1)-a(k)=2 is infinite."
			],
			"formula": [
				"If a(k+1)-a(k)=2 then a(k) or a(k+1) is prime. For example : a(9)-a(8)=37-35 and a(9)=37 is prime. a(16)-a(15)=69-67=2 and a(15)=67 is prime."
			],
			"xref": [
				"Cf. A066728."
			],
			"keyword": "nonn",
			"offset": "1,1",
			"author": "_Benoit Cloitre_, Jan 16 2002",
			"references": 0,
			"revision": 5,
			"time": "2012-03-30T18:38:46-04:00",
			"created": "2003-05-16T03:00:00-04:00"
		}
	]
}