{
	"greeting": "Greetings from The On-Line Encyclopedia of Integer Sequences! http://oeis.org/",
	"query": "id:A066501",
	"count": 1,
	"start": 0,
	"results": [
		{
			"number": 66501,
			"data": "1,2,3,4,5,6,10,11,17,22,23,25,29,34,41,46,47,50,53,58,59,71,82,83,89,94,101,106,107,113,118,121,125,131,137,142,149,166,167,173,178,179,191,197,202,214,226,227,233,239,242,250,251,257,262,263,269,274,281,289,293",
			"name": "Numbers k such that x^6 == 1 (mod(k)) has no solution 1 \u003c x \u003c k-1.",
			"formula": [
				"Sequence consists of the numbers 4, 6 and for all k \u003e 1, A045309(k), 2*A045309(k), A045309(k)^2, 2*A045309(k)^2."
			],
			"program": [
				"(PARI) isok(n) = {for (x=2, n-2, if ((Mod(x, n)^6) == Mod(1, n), return (0));); return (1);} \\\\ _Michel Marcus_, Nov 20 2013"
			],
			"xref": [
				"Cf. A045309, A066498, A066499, A066500, A066502, A000010."
			],
			"keyword": "nonn",
			"offset": "1,2",
			"author": "_Benoit Cloitre_, Jan 04 2002",
			"ext": [
				"Extended by _Ray Chandler_, Nov 06 2003",
				"Terms 1, 2 and 3 prepended by _Michel Marcus_, Nov 20 2013"
			],
			"references": 5,
			"revision": 17,
			"time": "2021-02-10T21:00:11-05:00",
			"created": "2003-05-16T03:00:00-04:00"
		}
	]
}