{
	"greeting": "Greetings from The On-Line Encyclopedia of Integer Sequences! http://oeis.org/",
	"query": "id:A066068",
	"count": 1,
	"start": 0,
	"results": [
		{
			"number": 66068,
			"data": "1,2,6,30,260,3130,46662,823550,16777224,387420498,10000000010,285311670622,8916100448268,302875106592266,11112006825558030,437893890380859390,18446744073709551632,827240261886336764194",
			"name": "a(n) = n^n + n.",
			"link": [
				"Harry J. Smith, \u003ca href=\"/A066068/b066068.txt\"\u003eTable of n, a(n) for n=0..100\u003c/a\u003e"
			],
			"formula": [
				"E.g.f.: (1-x*e^x*T(x)+x*e^x)/(1-T(x)), where T(x) is Euler's tree function (see A000169). - _Len Smiley_, Dec 04 2001",
				"Resultant of nx^n+1 and nx-1. - _Ralf Stephan_, Nov 20 2004",
				"a(n) = n*A124923(n), n\u003e0. - _R. J. Mathar_, Oct 31 2015",
				"Sum_{n\u003e=1} 1/a(n) = A286193. - _Amiram Eldar_, Nov 19 2020"
			],
			"mathematica": [
				"Table[ n^n + n, {n, 1, 18} ]",
				"Table[If[n==0,1,n^n+n],{n,0,18}] (* _Vladimir Joseph Stephan Orlovsky_, Apr 14 2011 *)"
			],
			"program": [
				"(PARI) a(n) = n^n + n; \\\\ _Harry J. Smith_, Nov 09 2009",
				"(MAGMA) [ n^n+n: n in [0..100] ]; // _Vincenzo Librandi_, Apr 15 2011"
			],
			"xref": [
				"Cf. A000169, A000312, A124923, A286193."
			],
			"keyword": "nonn,easy",
			"offset": "0,2",
			"author": "_George E. Antoniou_, Dec 02 2001",
			"references": 6,
			"revision": 34,
			"time": "2020-11-19T04:45:40-05:00",
			"created": "2003-05-16T03:00:00-04:00"
		}
	]
}