{
	"greeting": "Greetings from The On-Line Encyclopedia of Integer Sequences! http://oeis.org/",
	"query": "id:A066270",
	"count": 1,
	"start": 0,
	"results": [
		{
			"number": 66270,
			"data": "888,1896,1968,2688,2976,3696,3768,3984,4488,4776,4848,4992,5496,5568,5784,5856,5928,6288,6576,6648,6792,6864,6936,7296,7368,7584,7656,7728,7872,7944,8088,8376,8448,8592,8664,8736,8808,8880,8952,9096,9168,9384",
			"name": "Multiples of 24 whose digits also sum to 24.",
			"reference": [
				"David Wells, The Penguin Dictionary of Curious and Interesting Numbers, p. 149 (Rev. ed. 1997)."
			],
			"link": [
				"Harry J. Smith, \u003ca href=\"/A066270/b066270.txt\"\u003eTable of n, a(n) for n = 1..1000\u003c/a\u003e"
			],
			"example": [
				"6288 is included because it is divisible by 24 and its digits sum to 24."
			],
			"mathematica": [
				"Select[24*Range[400],Total[IntegerDigits[#]]==24\u0026] (* _Harvey P. Dale_, Nov 19 2014 *)"
			],
			"program": [
				"(PARI) SumD(x)= { local(s=0); while (x\u003e9, s+=x%10; x\\=10); return(s + x) } { n=0; forstep (m=24, 10^9, 24, if (SumD(m) == 24, write(\"b066270.txt\", n++, \" \", m); if (n==1000, return)) ) } \\\\ _Harry J. Smith_, Feb 08 2010"
			],
			"keyword": "nonn,base",
			"offset": "1,1",
			"author": "_Harvey P. Dale_, Jan 01 2002",
			"ext": [
				"Offset changed from 0 to 1 by _Harry J. Smith_, Feb 08 2010"
			],
			"references": 1,
			"revision": 15,
			"time": "2018-06-15T20:56:48-04:00",
			"created": "2003-05-16T03:00:00-04:00"
		}
	]
}