{
	"greeting": "Greetings from The On-Line Encyclopedia of Integer Sequences! http://oeis.org/",
	"query": "id:A066382",
	"count": 1,
	"start": 0,
	"results": [
		{
			"number": 66382,
			"data": "1,2,11,130,2517,68406,2391496,102022810,5130659561,296881218694,19415908147836,1415538531617772,113796709835547767,9998149029974754104,952980844872975079232,97930011125976327934826,10791878598088498089377489,1269466214540655412954317894",
			"name": "a(n) = Sum_{k=0..n} binomial(n^2,k).",
			"link": [
				"Harry J. Smith, \u003ca href=\"/A066382/b066382.txt\"\u003eTable of n, a(n) for n = 0..100\u003c/a\u003e"
			],
			"formula": [
				"a(n) = 2^(n^2) - binomial(n^2, n+1)*hypergeom([1, -n^2+n+1], [2+n], -1). - _Vladeta Jovovic_, Jul 08 2003",
				"a(n) ~ exp(n - 1/2) * n^(n - 1/2) / sqrt(2*Pi). - _Vaclav Kotesovec_, Jun 07 2019"
			],
			"mathematica": [
				"Table[Sum[Binomial[n^2, k], {k, 0, n}], {n, 0, 20}] (* _Vincenzo Librandi_, Jun 08 2019 *)"
			],
			"program": [
				"(PARI) { for (n=0, 100, a=0; for (k=0, n, a+=binomial(n^2, k)); write(\"b066382.txt\", n, \" \", a) ) } \\\\ _Harry J. Smith_, Feb 12 2010",
				"(PARI) a(n) = sum(k=0, n, binomial(n^2,k)); \\\\ _Michel Marcus_, Jun 08 2019",
				"(MAGMA) [\u0026+[Binomial(n^2, k): k in [0..n]]: n in [0..20]]; // _Vincenzo Librandi_, Jun 08 2019"
			],
			"keyword": "nonn",
			"offset": "0,2",
			"author": "_N. J. A. Sloane_, Dec 23 2001",
			"references": 3,
			"revision": 20,
			"time": "2019-06-10T12:07:37-04:00",
			"created": "2003-05-16T03:00:00-04:00"
		}
	]
}