{
	"greeting": "Greetings from The On-Line Encyclopedia of Integer Sequences! http://oeis.org/",
	"query": "id:A066842",
	"count": 1,
	"start": 0,
	"results": [
		{
			"number": 66842,
			"data": "1,4,27,1024,3125,5038848,823543,17179869184,10460353203,125000000000000,285311670611,11501279977342425366528,302875106592253,36604861748562100682752,36947297000885009765625",
			"name": "a(n) = Product_{k|n} k^k; product is over the positive divisors, k, of n.",
			"link": [
				"Harry J. Smith, \u003ca href=\"/A066842/b066842.txt\"\u003eTable of n, a(n) for n = 1..100\u003c/a\u003e"
			],
			"example": [
				"a(6) = 1^1 * 2^2 * 3^3 * 6^6 = 5038848 because 1, 2, 3 and 6 are the divisors of 6."
			],
			"mathematica": [
				"Table[Times@@(Divisors[n]^Divisors[n]),{n,20}] (* _Harvey P. Dale_, May 23 2021 *)"
			],
			"program": [
				"(PARI) { for (n=1, 100, d=divisors(n); p=1; for (i=2, length(d), k=d[i]; p*=k^k); write(\"b066842.txt\", n, \" \", p) ) } \\\\ _Harry J. Smith_, Apr 01 2010"
			],
			"keyword": "nonn",
			"offset": "1,2",
			"author": "_Leroy Quet_, Jan 20 2002",
			"references": 1,
			"revision": 15,
			"time": "2021-05-23T18:19:12-04:00",
			"created": "2003-05-16T03:00:00-04:00"
		}
	]
}