{
	"greeting": "Greetings from The On-Line Encyclopedia of Integer Sequences! http://oeis.org/",
	"query": "id:A066822",
	"count": 1,
	"start": 0,
	"results": [
		{
			"number": 66822,
			"data": "1,5,20,71,238,770,2436,7590,23397,71566,217646,659022,1988805,5986176,17980968,53922096,161492571,483149385,1444245936,4314214443,12880107548,38436170366,114657076900,341926185770,1019435748435,3038815305981,9056974493700",
			"name": "The fourth column of A038622, triangular array that counts rooted polyominoes.",
			"comment": [
				"There is a general solution for all rows of this triangular array: For the k-th row and n-th term on this row: a(0)=0; a(1)=1; a(n) = (2*k-1+n)*n*a(n) = 2*(n+k)*(n+k-1)*a(n-1) + 3*(n+k-1)*(n+k-2)*a(n-2)"
			],
			"link": [
				"Reinhard Zumkeller, \u003ca href=\"/A066822/b066822.txt\"\u003eTable of n, a(n) for n = 0..1000\u003c/a\u003e",
				"D. Gouyou-Beauchamps, G. Viennot, \u003ca href=\"http://dx.doi.org/10.1016/0196-8858(88)90017-6\"\u003eEquivalence of the two-dimensional directed animal problem to a one-dimensional path problem\u003c/a\u003e, Adv. in Appl. Math. 9 (1988), no. 3, 334-357."
			],
			"formula": [
				"a(0)=0; a(1)=1; (n+7)*n*a(n)=2*(n+4)*(n+3)*a(n-1) + 3*(n+3)*(n+2)*a(n-2).",
				"a(n) = ((-3)^(1/2)/9)*(-2*(n+7)^(-1)*(n+4)*(-1)^n*hypergeom([3/2, n+6],[2],4/3)-(n+6)^(-1)*(-1)^n*(5*n+18)*hypergeom([3/2, n+5],[2],4/3)). - _Mark van Hoeij_, Oct 31 2011",
				"a(n) ~ 3^(n+7/2) / sqrt(Pi*n). - _Vaclav Kotesovec_, Mar 10 2014",
				"a(n) = GegenbauerC(n,-n+1-4,-1/2)+GegenbauerC(n-1,-n-3,-1/2)). - _Peter Luschny_, May 12 2016"
			],
			"maple": [
				"a := n -\u003e simplify(GegenbauerC(n,-n+1-4,-1/2)+GegenbauerC(n-1,-n-3,-1/2)):",
				"seq(a(n), n=0..20); # _Peter Luschny_, May 12 2016"
			],
			"mathematica": [
				"Table[GegenbauerC[n,-n-3,-1/2]+GegenbauerC[n-1,-n-3,-1/2],{n,0,40}] (* _Harvey P. Dale_, Feb 20 2017 *)"
			],
			"program": [
				"(PARI) s=[0,1]; {A038622(n,k)=if(n==0,1,t=(2*(n+k)*(n+k-1)*s[2]+3*(n+k-1)*(n+k-2)*s[1])/((n+2*k-1)*n); s[1]=s[2]; s[2]=t; t)}",
				"(Haskell)",
				"a066822 = flip a038622 3 . (+ 3)  -- _Reinhard Zumkeller_, Feb 26 2013"
			],
			"xref": [
				"Cf. A038622.",
				"Cf. A005773, A005774, A005775."
			],
			"keyword": "easy,nice,nonn",
			"offset": "0,2",
			"author": "Randall L. Rathbun, Jan 19 2002",
			"ext": [
				"More terms from _Harvey P. Dale_, Feb 20 2017"
			],
			"references": 4,
			"revision": 21,
			"time": "2017-02-20T10:19:09-05:00",
			"created": "2003-05-16T03:00:00-04:00"
		}
	]
}