{
	"greeting": "Greetings from The On-Line Encyclopedia of Integer Sequences! http://oeis.org/",
	"query": "id:A066995",
	"count": 1,
	"start": 0,
	"results": [
		{
			"number": 66995,
			"data": "1,6,15,28,84,95,140,182,190,248,270,287,308,357,420,455,477,496,570,672,744,819,840,910,1199,1428,1488,1547,1638,1722,1848,1892,2295,2398,2480,2660,2730,3339,3417,3472,3515,3596,3640,3720,3780,3956,4064,4095",
			"name": "Numbers k such that sigma(k) divides k*phi(k).",
			"comment": [
				"A001599 is a subsequence of this sequence. - _Paolo P. Lava_, Jan 31 2018"
			],
			"link": [
				"Harry J. Smith, \u003ca href=\"/A066995/b066995.txt\"\u003eTable of n, a(n) for n = 1..1000\u003c/a\u003e"
			],
			"maple": [
				"with(numtheory): P:=proc(n) if frac(n*phi(n)/sigma(n))=0 then n; fi; end: seq(P(i),i=1..4100); # _Paolo P. Lava_, Jan 31 2018"
			],
			"mathematica": [
				"Select[Range[4500],Divisible[# EulerPhi[#],DivisorSigma[1,#]]\u0026]  (* _Harvey P. Dale_, Mar 19 2011 *)"
			],
			"program": [
				"(PARI) { n=0; for (m=1, 10^10, if ((m*eulerphi(m)) % sigma(m) == 0 , write(\"b066995.txt\", n++, \" \", m); if (n==1000, return)) ) } \\\\ _Harry J. Smith_, Apr 24 2010",
				"(PARI) isok(n) = frac(n*eulerphi(n)/sigma(n)) == 0; \\\\ _Michel Marcus_, Jan 31 2018",
				"(GAP) Filtered([1..10^5], n -\u003e  n*Phi(n) mod Sigma(n) = 0); # _Muniru A Asiru_, Jan 31 2018"
			],
			"xref": [
				"Cf. A001599, A011775."
			],
			"keyword": "nonn",
			"offset": "1,2",
			"author": "_Benoit Cloitre_, Jan 27 2002",
			"references": 1,
			"revision": 29,
			"time": "2021-05-08T22:58:40-04:00",
			"created": "2003-05-16T03:00:00-04:00"
		}
	]
}