{
	"greeting": "Greetings from The On-Line Encyclopedia of Integer Sequences! http://oeis.org/",
	"query": "id:A066247",
	"count": 1,
	"start": 0,
	"results": [
		{
			"number": 66247,
			"data": "0,0,0,1,0,1,0,1,1,1,0,1,0,1,1,1,0,1,0,1,1,1,0,1,1,1,1,1,0,1,0,1,1,1,1,1,0,1,1,1,0,1,0,1,1,1,0,1,1,1,1,1,0,1,1,1,1,1,0,1,0,1,1,1,1,1,0,1,1,1,0,1,0,1,1,1,1,1,0,1,1,1,0,1,1,1,1,1,0,1,1,1,1,1,1,1,0,1,1,1,0,1,0,1,1",
			"name": "Characteristic function of composite numbers: 1 if n is composite else 0.",
			"comment": [
				"a(n) = signum(A066246(n)), where signum = A057427. For n \u003e 1: a(n) = 1 - A010051(n) = A005171(n).",
				"a(n) = A057427(A086971(n)). - _Reinhard Zumkeller_, Dec 14 2012"
			],
			"link": [
				"Antti Karttunen, \u003ca href=\"/A066247/b066247.txt\"\u003eTable of n, a(n) for n = 1..65537\u003c/a\u003e",
				"\u003ca href=\"/index/Ch#char_fns\"\u003eIndex entries for characteristic functions\u003c/a\u003e",
				"\u003ca href=\"/index/Eu#epf\"\u003eIndex entries for sequences computed from exponents in factorization of n\u003c/a\u003e"
			],
			"formula": [
				"a(n) = ((n+1)-(n-1)!^2) mod n, with n\u003e=1 - _Paolo P. Lava_, Jan 29 2008",
				"For n\u003e1 a(n) = 1-floor(1/A001222(n)). - _Enrique Pérez Herrero_, Aug 08 2012",
				"a(n) = A065855(n)-A065855(n-1) = 1-A000720(n)+A000720(n-1). - _Chayim Lowen_, Jul 23 2015",
				"Dirichlet g.f.: Sum_{n\u003e=1} a(n)/n^s = Zeta(s)-1-P(s), where P is prime zeta. - _Enrique Pérez Herrero_, Aug 08 2012",
				"a(n) = 1 if A001222(n) \u003e 1, 0 otherwise. - _Antti Karttunen_, Nov 20 2017"
			],
			"maple": [
				"P:=proc(n) local i; for i from 1 by 1 to n do print(((i+1)-(i-1)!^2) mod i); od; end: P(100); # _Paolo P. Lava_, Jan 29 2008"
			],
			"mathematica": [
				"A066247[n_]:=1-Boole[PrimeQ[n]]-KroneckerDelta[n, 1] (* _Enrique Pérez Herrero_, Oct 13 2010 *)",
				"Table[Boole[CompositeQ[n]], {n, 1, 105}] (* _Jean-François Alcover_, Jan 25 2018 *)"
			],
			"program": [
				"(PARI) a(n)=!isprime(n)\u0026\u0026n\u003e1 \\\\ _Charles R Greathouse IV_, Aug 21 2011",
				"(Haskell)",
				"a066247 1 = 0",
				"a066247 n = 1 - a010051 n  -- _Reinhard Zumkeller_, Feb 04 2012"
			],
			"xref": [
				"Cf. A001222, A002808, A010051, A005171.",
				"Cf. A065855 (partial sums)."
			],
			"keyword": "nonn,easy",
			"offset": "1,1",
			"author": "_Reinhard Zumkeller_, Dec 09 2001",
			"references": 32,
			"revision": 44,
			"time": "2018-01-25T09:39:22-05:00",
			"created": "2003-05-16T03:00:00-04:00"
		}
	]
}