{
	"greeting": "Greetings from The On-Line Encyclopedia of Integer Sequences! http://oeis.org/",
	"query": "id:A067866",
	"count": 1,
	"start": 0,
	"results": [
		{
			"number": 67866,
			"data": "736,1736,2736,3736,4736,5736,6736,7736,8736,9736,10736,11736,12736,13736,14736,15736,16736,17736,18736,19736,20736,21736,22736,23736,24736,25736,26736,27736,28736,29736,30736,31736,32736,33736,34736",
			"name": "Numbers n such that n and 2^n end with the same three digits.",
			"link": [
				"Tanya Khovanova, \u003ca href=\"http://www.tanyakhovanova.com/RecursiveSequences/RecursiveSequences.html\"\u003eRecursive Sequences\u003c/a\u003e",
				"\u003ca href=\"/index/Rec#order_02\"\u003eIndex entries for linear recurrences with constant coefficients\u003c/a\u003e, signature (2,-1)."
			],
			"formula": [
				"a(n) = 736 + 1000(n-1).",
				"a(n) = 2*a(n-1)-a(n-2). G.f.: 8*x*(92+33*x)/(1-x)^2. [_Colin Barker_, Dec 01 2012]"
			],
			"program": [
				"(PARI) isok(n) = (2^n - n) % 1000 == 0; \\\\ _Michel Marcus_, Nov 23 2013"
			],
			"xref": [
				"Cf. A064541.",
				"Subsequence of A067844 and A067845."
			],
			"keyword": "easy,nonn,base",
			"offset": "1,1",
			"author": "_Benoit Cloitre_, Mar 07 2002",
			"references": 0,
			"revision": 18,
			"time": "2017-06-17T03:04:36-04:00",
			"created": "2003-05-16T03:00:00-04:00"
		}
	]
}