{
	"greeting": "Greetings from The On-Line Encyclopedia of Integer Sequences! http://oeis.org/",
	"query": "id:A067197",
	"count": 1,
	"start": 0,
	"results": [
		{
			"number": 67197,
			"data": "7,8,9,15,16,17,18,23,24,25,26,27,31,32,35,36,39,40,44,45,47,48,49,50,53,54,55,56,62,63,64,71,72,74,75,79,80,81,87,88,89,90,95,96,97,98,99,100,103,104,107,108,111,112,116,117,119,120,121,124,125,126,127,128",
			"name": "Numbers k such that k*(k+1)/2 is not squarefree.",
			"comment": [
				"The asymptotic density of this sequence is 1 - (3/2)*A065474 = 0.5160488515... (Granville and Ramaré, 1996). - _Amiram Eldar_, Mar 02 2021"
			],
			"link": [
				"Amiram Eldar, \u003ca href=\"/A067197/b067197.txt\"\u003eTable of n, a(n) for n = 1..10000\u003c/a\u003e",
				"Andrew Granville and Olivier Ramaré, \u003ca href=\"https://doi.org/10.1112/S0025579300011608\"\u003eExplicit bounds on exponential sums and the scarcity of squarefree binomial coefficients\u003c/a\u003e, Mathematika, Vol. 43, No. 1 (1996), pp. 73-107; \u003ca href=\"https://dms.umontreal.ca/~andrew/PDF/ramare.pdf\"\u003ealternative link\u003c/a\u003e."
			],
			"mathematica": [
				"Select[Range[200],!SquareFreeQ[#(#+1)/2]\u0026] (* _Vladimir Joseph Stephan Orlovsky_, Mar 30 2011 *)"
			],
			"program": [
				"(PARI) isok(k) = !issquarefree(k*(k+1)/2); \\\\ _Michel Marcus_, Feb 17 2021"
			],
			"xref": [
				"Complement of A215726.",
				"Cf. A000217, A005117, A013929, A065474."
			],
			"keyword": "nonn",
			"offset": "1,1",
			"author": "_Benoit Cloitre_, Feb 19 2002",
			"references": 1,
			"revision": 25,
			"time": "2021-03-02T05:59:54-05:00",
			"created": "2003-05-16T03:00:00-04:00"
		}
	]
}