{
	"greeting": "Greetings from The On-Line Encyclopedia of Integer Sequences! http://oeis.org/",
	"query": "id:A067494",
	"count": 1,
	"start": 0,
	"results": [
		{
			"number": 67494,
			"data": "1,16777216,134217728,1073741824,18014398509481984,144115188075855872,1152921504606846976,19342813113834066795298816,154742504910672534362390528,1237940039285380274899124224",
			"name": "Powers of 8 with initial digit 1.",
			"link": [
				"Muniru A Asiru, \u003ca href=\"/A067494/b067494.txt\"\u003eTable of n, a(n) for n = 1..330\u003c/a\u003e"
			],
			"program": [
				"(GAP) Filtered(List([0..40],n-\u003e8^n),i-\u003eListOfDigits(i)[1]=1); # _Muniru A Asiru_, Oct 22 2018"
			],
			"xref": [
				"Cf. A067480, A067481, A067482, A067483, A067484, A067485, A067486, A067487, A067488, A067489, A067490, A067491, A067492, A067493."
			],
			"keyword": "base,easy,nonn",
			"offset": "1,2",
			"author": "_Amarnath Murthy_, Feb 09 2002",
			"ext": [
				"Offset 1 by _Michel Marcus_, Oct 19 2018"
			],
			"references": 2,
			"revision": 8,
			"time": "2018-10-22T12:42:13-04:00",
			"created": "2003-05-16T03:00:00-04:00"
		}
	]
}