{
	"greeting": "Greetings from The On-Line Encyclopedia of Integer Sequences! http://oeis.org/",
	"query": "id:A067102",
	"count": 1,
	"start": 0,
	"results": [
		{
			"number": 67102,
			"data": "1,1,1,12,120,1208,12082,120821,1208216,12082165,120821655,1208216555,12082165556,120821655562,1208216555626,12082165556267,120821655562672,1208216555626728,12082165556267282,120821655562672822",
			"name": "Floor[ X/Y] where X = concatenation of the squares and Y = concatenation of natural numbers.",
			"example": [
				"a(5) = floor [1491625/12345]=floor[] = floor[120.828270554880518428513568246254]=120."
			],
			"mathematica": [
				"f[n_] := (k = 1; x = y = \"0\"; While[k \u003c n + 1, x = StringJoin[x, ToString[k^2]]; y = StringJoin[y, ToString[k]]; k++ ]; Return[ Floor[ ToExpression[x] / ToExpression[y]]] ); Table[ f[n], {n, 1, 20} ]"
			],
			"xref": [
				"Cf. A067091, A067092, A067093, A067094, A067095, A067096, A067097, A067098, A067099, A067100, A067101.",
				"floor[A019521(n)/A007908(n)]"
			],
			"keyword": "easy,base,nonn",
			"offset": "1,4",
			"author": "_Amarnath Murthy_, Jan 07 2002",
			"ext": [
				"More terms from _Robert G. Wilson v_, Jan 09 2002"
			],
			"references": 3,
			"revision": 3,
			"time": "2013-12-05T19:55:07-05:00",
			"created": "2003-05-16T03:00:00-04:00"
		}
	]
}