{
	"greeting": "Greetings from The On-Line Encyclopedia of Integer Sequences! http://oeis.org/",
	"query": "id:A067843",
	"count": 1,
	"start": 0,
	"results": [
		{
			"number": 67843,
			"data": "5,10,7,10,11,12,35,14,13,22,55,22,19,70,19,22,85,26,77,26,27,110,55,34,55,38,31,34,119,38,65,44,41,52,65,46,185,154,43,46,143,54,215,70,57,110,161,58,187,68,67,76,203,62,175,62,61,76,95,74,67,130,71,88,95,82,115,74,73,130,215",
			"name": "Least solution k\u003en of phi(k-n)+phi(k+n)=phi(2k).",
			"comment": [
				"From _Robert Israel_, Jun 08 2018: (Start)",
				"The first n for which a(n)-n is odd is 239.",
				"If n+2 and n+4 are twin primes (i.e. n+2 is in A001359), then a(n) \u003c= n+4.",
				"Conjecture: a(n) \u003e= n+4 for all n. (End)"
			],
			"link": [
				"Robert Israel, \u003ca href=\"/A067843/b067843.txt\"\u003eTable of n, a(n) for n = 1..10000\u003c/a\u003e"
			],
			"example": [
				"k = 10 is the smallest solution of phi(k-2)+phi(k+2)=phi(2k). So a(2) = 10."
			],
			"maple": [
				"f:= proc(n) local k;",
				"     for k from n+1 do if numtheory:-phi(k-n)+numtheory:-phi(k+n)=numtheory:-phi(2*k) then return k fi od:",
				"end proc:",
				"map(f, [$1..100]); # _Robert Israel_, Jun 08 2018"
			],
			"mathematica": [
				"f[k_] := Module[{i = k + 1}, While[EulerPhi[i - k] + EulerPhi[i + k] != EulerPhi[2 i], i++ ]; i]; Table[f[n], {n, 1, 40}]"
			],
			"xref": [
				"Cf. A000010, A067701."
			],
			"keyword": "nonn",
			"offset": "1,1",
			"author": "_Joseph L. Pe_, Feb 11 2002",
			"ext": [
				"More terms from _Robert Israel_, Jun 08 2018"
			],
			"references": 1,
			"revision": 7,
			"time": "2018-06-08T20:31:43-04:00",
			"created": "2003-05-16T03:00:00-04:00"
		}
	]
}