{
	"greeting": "Greetings from The On-Line Encyclopedia of Integer Sequences! http://oeis.org/",
	"query": "id:A067393",
	"count": 1,
	"start": 0,
	"results": [
		{
			"number": 67393,
			"data": "1,1,1,1,1,5,67,481,4989,51979,570755,5865449,74226518,904772855,13111019601,202135743076,3307158697867,53256981940267,974755766640247,17629139875485487,357191085875727470,7585952737111971220,168542590546266903340,3718034609300727209976",
			"name": "Number of nonprimes among the numbers in {1,2,3,...,n!} which are relatively prime to n!.",
			"formula": [
				"a(n)=phi(n!)-pi(n!)+pi(n)= A000010(n!)-A000720(n!)+A000720(n)."
			],
			"example": [
				"For n=5, n!=120, a(5)=phi(120)-pi(120)+pi(5)=32-30+3=5; the 5 nonprimes are 1,49,77,91,119."
			],
			"mathematica": [
				"a[n_] := EulerPhi[ n! ]-PrimePi[ n! ]+PrimePi[n]"
			],
			"xref": [
				"Cf. A000142, A000720, A003604, A000010, A048855."
			],
			"keyword": "nonn",
			"offset": "0,6",
			"author": "_Labos Elemer_, Jan 22 2002",
			"ext": [
				"a(18)-a(19) from _Donovan Johnson_, Mar 24 2011",
				"a(20)-a(23) from _Giovanni Resta_, Oct 29 2019"
			],
			"references": 0,
			"revision": 10,
			"time": "2019-10-29T09:13:22-04:00",
			"created": "2003-05-16T03:00:00-04:00"
		}
	]
}