{
	"greeting": "Greetings from The On-Line Encyclopedia of Integer Sequences! http://oeis.org/",
	"query": "id:A067064",
	"count": 1,
	"start": 0,
	"results": [
		{
			"number": 67064,
			"data": "1,3,7,8,14,15,20,23,24,26,38,41,44,59,60,65,78,83,92,114,123,132,133,135,140,143,158,167,168,177,182,188,195,203,204,209,220,224,239,246,248,249,266,284,285,286,287,297,299,334,378,381,395,413,415,420,437",
			"name": "Numbers n such that sigma(sigma(sigma(n)))) == 0 (mod sigma(n)).",
			"link": [
				"Harry J. Smith, \u003ca href=\"/A067064/b067064.txt\"\u003eTable of n, a(n) for n = 1..1000\u003c/a\u003e"
			],
			"mathematica": [
				"Select[Range[500],Divisible[DivisorSigma[1,DivisorSigma[1, DivisorSigma[ 1,#]]], DivisorSigma[ 1,#]]\u0026] (* _Harvey P. Dale_, Oct 04 2017 *)"
			],
			"program": [
				"(PARI) { n=0; for (m=1, 10^10, if (sigma(sigma(sigma(m))) % sigma(m) == 0, write(\"b067064.txt\", n++, \" \", m); if (n==1000, return)) ) } \\\\ _Harry J. Smith_, May 02 2010"
			],
			"keyword": "nonn",
			"offset": "1,2",
			"author": "_Benoit Cloitre_, Feb 17 2002",
			"references": 1,
			"revision": 13,
			"time": "2017-10-04T13:44:50-04:00",
			"created": "2003-05-16T03:00:00-04:00"
		}
	]
}