{
	"greeting": "Greetings from The On-Line Encyclopedia of Integer Sequences! http://oeis.org/",
	"query": "id:A067122",
	"count": 1,
	"start": 0,
	"results": [
		{
			"number": 67122,
			"data": "1,3,15,84,543,37719,2771247,212173614,16764334957,1357911131517,112224060455966,9429938413313834,803497710956918416,69281180179448577716,6035160584520853881123,530434035748903173145597",
			"name": "Floor[X/Y] where X = concatenation of first n odd numbers in increasing order (A019519) and Y = their sum (A000290 = n^2).",
			"example": [
				"a(4) = floor[1357/16] = floor[84.8125] =84."
			],
			"xref": [
				"Cf. A067112-A067121, A072723."
			],
			"keyword": "base,nonn",
			"offset": "1,2",
			"author": "_Amarnath Murthy_, Jan 08 2002",
			"ext": [
				"More terms from _Henry Bottomley_, Jul 07 2002"
			],
			"references": 2,
			"revision": 3,
			"time": "2013-12-05T19:55:08-05:00",
			"created": "2003-05-16T03:00:00-04:00"
		}
	]
}