{
	"greeting": "Greetings from The On-Line Encyclopedia of Integer Sequences! http://oeis.org/",
	"query": "id:A067895",
	"count": 1,
	"start": 0,
	"results": [
		{
			"number": 67895,
			"data": "1,21,422,8444,168888,3377776,67555552,1351111104,27022222208,540444444416,10808888888832,216177777777664,4323555555555328,86471111111110656,1729422222222221312,34588444444444442624,691768888888888885248,13835377777777777770496,276707555555555555540992",
			"name": "Write 2^n, 2^n+1, 2^n+2, ..., 2^(n+1)-1 in binary and add as if they were decimal numbers.",
			"formula": [
				"G.f.: (1-x)/(1-22x+40x^2). a(n)=2^(n-1)*(19*10^n-1)/9=22a(n-1)-40a(n-2)."
			],
			"example": [
				"2^2 to 2^3-1 = 4 through 7 = 100, 101, 110 and 111 in binary and when summed = 422."
			],
			"mathematica": [
				"Table[Total[FromDigits[IntegerDigits[#,2]]\u0026/@(Range[2^n,2^(n+1)-1])],{n,0,20}] _Harvey P. Dale_, May 20 2012"
			],
			"program": [
				"(PARI) a(n)=if(n\u003c0,0,2^(n-1)*(19*10^n-1)/9)"
			],
			"xref": [
				"Cf. A067894."
			],
			"keyword": "nonn,base,easy",
			"offset": "0,2",
			"author": "_N. J. A. Sloane_, May 15 2003",
			"references": 2,
			"revision": 6,
			"time": "2012-05-20T08:59:38-04:00",
			"created": "2003-05-16T03:00:00-04:00"
		}
	]
}