{
	"greeting": "Greetings from The On-Line Encyclopedia of Integer Sequences! http://oeis.org/",
	"query": "id:A067837",
	"count": 1,
	"start": 0,
	"results": [
		{
			"number": 67837,
			"data": "2,23,192329,192323192329192341,192323192329192339192323192329192341192323192329192399",
			"name": "a(1)=2; to form a(n+1), append P, the largest prime \u003c a(n), if any and Q, the smallest prime \u003e a(n), at the beginning and the end of a(n), respectively.",
			"example": [
				"To form a(2), note that there is no prime before 2 and that 3 is the prime coming immediately after 2. So a(2) = 23. To form a(3), the prime coming immediately before 23 is 19 and the prime coming immediate after 23 is 29. So a(3) = 192329."
			],
			"keyword": "base,nonn",
			"offset": "1,1",
			"author": "_Joseph L. Pe_, Feb 11 2002",
			"references": 0,
			"revision": 3,
			"time": "2014-02-11T19:05:27-05:00",
			"created": "2003-05-16T03:00:00-04:00"
		}
	]
}