{
	"greeting": "Greetings from The On-Line Encyclopedia of Integer Sequences! http://oeis.org/",
	"query": "id:A067369",
	"count": 1,
	"start": 0,
	"results": [
		{
			"number": 67369,
			"data": "0,0,4,22,166,1266,11166,106128,1122192,12809520,159451920,2128973760,30594214080,468275713920,7641089769600,131971588761600,2412294180710400,46422407927347200,940023724189132800,19949344876532736000,443393309963068416000,10288553164881868800000",
			"name": "Weight of the alternating group (A_n) in transpositions.",
			"comment": [
				"Sequences A067369, A067370 and A067318 are related: A067318 = A067369 + A067370. A067318 counts transpositions in the symmetric group, denoted S_n. One can think of the transpositions in S_n as being split between the alternating group A_n and its complement, which we call the periphery and denote P_N. For n \u003e= 3, A067369 v(P_N) and A067370 v(A_n) always differ by (n-2)!. When n is odd, v(A_n) is larger; when n is even, v(P_N) is larger. This gives new meaning to the name alternating group. The average weight of permutation in A_n converges with the average weight for a permutation in P_N at infinity."
			],
			"link": [
				"Charlie Neder and Muniru A Asiru, \u003ca href=\"/A067369/b067369.txt\"\u003eTable of n, a(n) for n = 1..445\u003c/a\u003e"
			],
			"formula": [
				"a(n) = a(n-1) + [(n-1)!/2]*[vbar(P_N-1)+1]*[n-1)] where vbar(P_N) is the average weight of a permutation in P_N, the periphery of A_n. vbar(P_N-1) is p(n-1)/(n-1)!2 where p(n) is from sequence A067370.",
				"From _Vladeta Jovovic_, Feb 02 2003: (Start)",
				"a(n) = (1/2)*((-1)^(n+1)*(n-2)! + n*n! - abs(Stirling1(n+1, 2))), n \u003e 1.",
				"E.g.f.: (1/2)*(-(1+x)*log(1+x) + x + x/(1-x)^2 + log(1-x)/(1-x) + 2). (End)"
			],
			"maple": [
				"seq(coeff(series(factorial(n)*(1/2)*(-(1+x)*log(1+x)+x+x/(1-x)^2+log(1-x)/(1-x)+2),x,n+1), x, n), n = 1 .. 25); # _Muniru A Asiru_, Dec 15 2018"
			],
			"mathematica": [
				"a[n_] := 1/2*((-1)^(n+1)*(n-2)!+n*n!-Abs[StirlingS1[n+1, 2]]); a[1]=0; Table[a[n], {n, 1, 20}] (* _Jean-François Alcover_, Jan 12 2015, after _Vladeta Jovovic_ *)"
			],
			"program": [
				"(PARI) a(n)={if(n \u003c 2, 0, 1/2*((-1)^(n+1)*(n-2)!+n*n!-abs(stirling(n+1, 2, 1))))} \\\\ _Andrew Howroyd_, Dec 14 2018",
				"(GAP) Concatenation([0],List([2..25],n-\u003e(1/2)*((-1)^(n+1)*Factorial(n-2)+n*Factorial(n)-AbsInt(Stirling1(n+1,2))))); # _Muniru A Asiru_, Dec 15 2018"
			],
			"xref": [
				"Cf. A067370, A067318."
			],
			"keyword": "easy,nice,nonn",
			"offset": "1,3",
			"author": "Nick Hann (nickhann(AT)aol.com), Jan 20 2002",
			"ext": [
				"More terms from _Vladeta Jovovic_, Feb 02 2003",
				"a(20)-a(22) from _Charlie Neder_, Dec 14 2018"
			],
			"references": 3,
			"revision": 23,
			"time": "2018-12-22T12:19:02-05:00",
			"created": "2003-05-16T03:00:00-04:00"
		}
	]
}