{
	"greeting": "Greetings from The On-Line Encyclopedia of Integer Sequences! http://oeis.org/",
	"query": "id:A067945",
	"count": 1,
	"start": 0,
	"results": [
		{
			"number": 67945,
			"data": "1,2,4,8,16,20,32,40,64,80,100,128,160,200,220,256,272,320,328,400,440,500,512,544,640,656,800,880,1000,1024,1088,1100,1220,1280,1312,1360,1600,1640,1760,2000,2048,2176,2200,2420,2440,2500,2560,2624,2720,3088",
			"name": "Numbers k that divide 3^k - 1.",
			"comment": [
				"Closed under multiplication: if x and y are terms then so is x*y."
			],
			"link": [
				"Charles R Greathouse IV, \u003ca href=\"/A067945/b067945.txt\"\u003eTable of n, a(n) for n = 1..10000\u003c/a\u003e"
			],
			"program": [
				"(PARI) is(n)=Mod(3,n)^n==1 \\\\ _Charles R Greathouse IV_, Aug 01 2016"
			],
			"xref": [
				"Cf. A024023."
			],
			"keyword": "easy,nonn",
			"offset": "1,2",
			"author": "_Benoit Cloitre_, Mar 05 2002",
			"references": 28,
			"revision": 18,
			"time": "2021-08-15T15:00:43-04:00",
			"created": "2003-05-16T03:00:00-04:00"
		}
	]
}