{
	"greeting": "Greetings from The On-Line Encyclopedia of Integer Sequences! http://oeis.org/",
	"query": "id:A067075",
	"count": 1,
	"start": 0,
	"results": [
		{
			"number": 67075,
			"data": "0,1,2,27,1192,341075,3848163483",
			"name": "a(n) is the smallest number m such that the sum of the digits of m^3 is equal to n^3.",
			"comment": [
				"If n = 6*k, a(n) \u003c= A002283(n^3/18). For example, a(6) = 3848163483 \u003c= A002283(6^3/18) = 999999999999. - _Seiichi Manyama_, Aug 12 2017",
				"a(n) \u003e= ceiling(A051885(n^3)^(1/3)). For example a(7) \u003e= ceiling(A051885(7^3)^(1/3)) = ceiling((2*10^38-1)^(1/3)) = 5848035476426 - _David A. Corneth_, Aug 23 2018"
			],
			"example": [
				"a(3) = 27 as 27^3 = 19683 is the smallest cube whose digit sum = 27 = 3^3."
			],
			"mathematica": [
				"Do[k = 1; While[Plus @@ IntegerDigits[k^3] != n^3, k++ ]; Print[k], {n, 1, 6}] (* _Ryan Propper_, Jul 07 2005 *)"
			],
			"program": [
				"(PARI) a(n) = my(k=0); while (sumdigits(k^3) != n^3, k++); k; \\\\ _Seiichi Manyama_, Aug 12 2017"
			],
			"xref": [
				"Cf. A051885, A061912, A067074. Subsequence of A067177."
			],
			"keyword": "nonn,base,more",
			"offset": "0,3",
			"author": "_Amarnath Murthy_, Jan 05 2002",
			"ext": [
				"Corrected and extended by _Ryan Propper_, Jul 07 2005",
				"a(0)=0 prepended by _Seiichi Manyama_, Aug 12 2017"
			],
			"references": 9,
			"revision": 28,
			"time": "2018-08-24T09:25:39-04:00",
			"created": "2003-05-16T03:00:00-04:00"
		}
	]
}