{
	"greeting": "Greetings from The On-Line Encyclopedia of Integer Sequences! http://oeis.org/",
	"query": "id:A067207",
	"count": 1,
	"start": 0,
	"results": [
		{
			"number": 67207,
			"data": "1,60,81,340,7060",
			"name": "Numbers k such that the digits of sigma_2(k) end in k.",
			"comment": [
				"Recall that sigma_2(k) denotes the sum of the squares of the divisors of k.",
				"No more terms between 7060 and 420000. - _R. J. Mathar_, May 30 2010",
				"No additional terms up to 10 million. - _Harvey P. Dale_, Dec 09 2014"
			],
			"example": [
				"The divisors of 81 are 1,3,9,27,81, the sum of whose squares = 7381 which ends in 81, so 81 is a term of the sequence."
			],
			"maple": [
				"endswith := proc(a,b) local dgsa,dgsb,ndb ; dgsa := convert(a,base,10) ; dgsb := convert(b,base,10) ; if nops(dgsa) \u003e= nops(dgsb) then ndb := nops(dgsb) ; [op(1..ndb,dgsa)] = dgsb ; else false; end if; end proc:",
				"for i from 1 do if endswith(numtheory[sigma][2](i),i) then printf(\"%d,\\n\",i) ; end if; end do: # _R. J. Mathar_, May 30 2010"
			],
			"mathematica": [
				"(*returns true if a ends in b, false o.w.*) f[a_, b_] := Module[{c, d, e, g, h, i, r}, r = False; c = ToString[a]; d = ToString[b]; e = StringLength[c]; g = StringPosition[c, d]; h = Length[g]; If[h \u003e 0, i = g[[h]]; If[i[[2]] == e, r = True]]; r]; Select[Range[10^5], f[Divisor[2, # ], # ]] \u0026]",
				"Select[Range[10000],Mod[DivisorSigma[2,#],10^IntegerLength[#]]==#\u0026] (* _Harvey P. Dale_, Dec 09 2014 *)"
			],
			"keyword": "base,nonn",
			"offset": "1,2",
			"author": "_Joseph L. Pe_, Feb 19 2002",
			"references": 0,
			"revision": 15,
			"time": "2019-02-18T11:11:03-05:00",
			"created": "2003-05-16T03:00:00-04:00"
		}
	]
}