{
	"greeting": "Greetings from The On-Line Encyclopedia of Integer Sequences! http://oeis.org/",
	"query": "id:A067573",
	"count": 1,
	"start": 0,
	"results": [
		{
			"number": 67573,
			"data": "2,3,5,7,13,31,37,61,181,241,421,1009,1201,1321,1801,2161,2521,7561,12601,15121,30241,55441,110881,278263,332641,555911,666917,722473,1443853,2165407,3607403,4324321,7212581,8654539,10817761,21631147",
			"name": "Numbers such that Sigma(Phi(k))/Sigma(k) \u003e Sigma(Phi(j))/Sigma(j) for all k \u003e j.",
			"mathematica": [
				"a = 0; Do[b = DivisorSigma[1, EulerPhi[n]]/DivisorSigma[1, n]; If[b \u003e a, a = b; Print[n]], {n, 2, 10^7}]"
			],
			"keyword": "nonn",
			"offset": "1,1",
			"author": "_Robert G. Wilson v_, Jan 30 2002",
			"references": 2,
			"revision": 2,
			"time": "2012-03-30T17:30:41-04:00",
			"created": "2003-05-16T03:00:00-04:00"
		}
	]
}