{
	"greeting": "Greetings from The On-Line Encyclopedia of Integer Sequences! http://oeis.org/",
	"query": "id:A067473",
	"count": 1,
	"start": 0,
	"results": [
		{
			"number": 67473,
			"data": "36,324,3025,30276,300304,3003289,30008484,300017041,3000081529,30000318436,300000484729,3000000666601,30000004655076,300000032019081,3000000027329536,30000000084216561,300000000542063364",
			"name": "Smallest n-digit square starting with 3.",
			"formula": [
				"a(n) = ceiling(sqrt(3*10^(n-1)))^2, n\u003e1. - _Rick L. Shepherd_, Feb 14 2002"
			],
			"program": [
				"(PARI) for(n=2,25,a=ceil(sqrt(3*10^(n-1)))^2; print(a))"
			],
			"xref": [
				"Cf. A035070 (roots), A045786, A067479 (2..9)."
			],
			"keyword": "base,easy,nonn",
			"offset": "2,1",
			"author": "_Amarnath Murthy_, Feb 09 2002",
			"ext": [
				"More terms from _Rick L. Shepherd_, Feb 14 2002"
			],
			"references": 2,
			"revision": 4,
			"time": "2013-12-05T19:55:09-05:00",
			"created": "2003-05-16T03:00:00-04:00"
		}
	]
}