{
	"greeting": "Greetings from The On-Line Encyclopedia of Integer Sequences! http://oeis.org/",
	"query": "id:A067577",
	"count": 1,
	"start": 0,
	"results": [
		{
			"number": 67577,
			"data": "1,4,19,145,954,11952,101664,1573344,21179232,390661056,4857760512,138055228416,1989835352064,48554918608896,1184490930438144,37179368055373824,683493250562260992,26913000032107757568,548273767789158727680,23227773590084738088960,751700319286194622955520",
			"name": "a(n) = Product_{i=1..n} sigma(i) * Sum_{i=1..n} 1/sigma(i).",
			"program": [
				"(PARI) a(n) = prod(i=1, n, sigma(i)) * sum(i=1, n, 1/sigma(i)); \\\\ _Michel Marcus_, Jan 09 2021"
			],
			"xref": [
				"Cf. A000230 (sigma), A066780, A212717, A212718."
			],
			"keyword": "nonn",
			"offset": "1,2",
			"author": "_Benoit Cloitre_, Jan 30 2002",
			"ext": [
				"More terms from _Michel Marcus_, Jan 09 2021"
			],
			"references": 0,
			"revision": 12,
			"time": "2021-01-09T11:03:49-05:00",
			"created": "2003-05-16T03:00:00-04:00"
		}
	]
}