{
	"greeting": "Greetings from The On-Line Encyclopedia of Integer Sequences! http://oeis.org/",
	"query": "id:A067821",
	"count": 1,
	"start": 0,
	"results": [
		{
			"number": 67821,
			"data": "64,5264,33614,8706123,101905622,4843161124,25189114374,412352139170,1122875553872,28099912628847",
			"name": "The start of a record-breaking run of consecutive integers with a number of prime factors (counted with multiplicity) equal to 6.",
			"comment": [
				"a(11) \u003e 3*10^13. - _Brian Trial_, May 26 2017"
			],
			"example": [
				"a(3)=33614 because 33614 is the start of a record breaking run of 3 consecutive integers (33614 to 33616) each having 6 prime factors; i.e., bigomega(n)=A001222(n)=6 for n = 33614, ..., 33616."
			],
			"mathematica": [
				"bigomega[n_] := Plus@@Last/@FactorInteger[n]; For[n=1; m=l=0, True, n++, If[bigomega[n]==6, l++, If[l\u003em, m=l; Print[n-l, \" \", l]]; l=0]]"
			],
			"xref": [
				"Cf. A001222, A067813, A067814, A067820, A067822."
			],
			"keyword": "fini,more,nonn",
			"offset": "1,1",
			"author": "_Shyam Sunder Gupta_, Feb 07 2002",
			"ext": [
				"Edited by _Dean Hickerson_, Jul 31 2002",
				"More terms from _Jens Kruse Andersen_, Aug 23 2003",
				"a(7)-a(9) from _Donovan Johnson_, Jan 31 2009",
				"a(10) from _Brian Trial_, May 26 2017"
			],
			"references": 6,
			"revision": 28,
			"time": "2017-06-03T14:08:43-04:00",
			"created": "2003-05-16T03:00:00-04:00"
		}
	]
}