{
	"greeting": "Greetings from The On-Line Encyclopedia of Integer Sequences! http://oeis.org/",
	"query": "id:A067248",
	"count": 1,
	"start": 0,
	"results": [
		{
			"number": 67248,
			"data": "7,9551,303027,440999,968819,5517973,27737957,93230839,46492090901,426836115943,732382677641,4895576080181,77628540590583,3475456543097857,20396537622790811",
			"name": "Numbers k such that the digits of prime(k) end in k.",
			"comment": [
				"There is no further term up to 115000000. - _Farideh Firoozbakht_, Jan 01 2007",
				"a(13) \u003e pi(10^15). - _Donovan Johnson_, May 08 2010"
			],
			"example": [
				"Prime(968819) = 14968819 which ends in 968819, so 968819 is a term of the sequence."
			],
			"mathematica": [
				"(* returns true if a ends with b, false otherwise *) f[a_, b_] := Module[{c, d, e, g, h, i, r}, r = False; c = ToString[a]; d = ToString[b]; e = StringLength[c]; g = StringPosition[c, d]; h = Length[g]; If[h \u003e 0, i = g[[h]]; If[i[[2]] == e, r = True]]; r]; Do[If[f[Prime[n], n], Print[n]], {n, 1, 10^6}]"
			],
			"xref": [
				"Corresponding primes are in A046883.",
				"Cf. A046883, A068575, A075902."
			],
			"keyword": "base,nonn",
			"offset": "1,1",
			"author": "_Joseph L. Pe_, Feb 20 2002",
			"ext": [
				"a(6) from _Zak Seidov_, Sep 27 2002",
				"a(7)-a(8) from _Farideh Firoozbakht_, Jan 01 2007",
				"a(9)-a(12) from _Donovan Johnson_, May 08 2010",
				"a(13)-a(14) from _Chai Wah Wu_, Apr 05 2021",
				"a(15) from _Chai Wah Wu_, Apr 07 2021"
			],
			"references": 5,
			"revision": 24,
			"time": "2021-04-07T20:37:51-04:00",
			"created": "2003-05-16T03:00:00-04:00"
		}
	]
}