{
	"greeting": "Greetings from The On-Line Encyclopedia of Integer Sequences! http://oeis.org/",
	"query": "id:A068237",
	"count": 1,
	"start": 0,
	"results": [
		{
			"number": 68237,
			"data": "0,-1,-1,-1,-1,-5,-1,-3,-2,-7,-1,-1,-1,-9,-8,-1,-1,-7,-1,-3,-10,-13,-1,-11,-2,-15,-1,-2,-1,-31,-1,-5,-14,-19,-12,-5,-1,-21,-16,-17,-1,-41,-1,-3,-13,-25,-1,-7,-2,-9,-20,-7,-1,-1,-16,-23,-22,-31,-1,-23",
			"name": "Numerators of arithmetic derivative of 1/n: -A003415(n)/n^2.",
			"link": [
				"Alois P. Heinz, \u003ca href=\"/A068237/b068237.txt\"\u003eTable of n, a(n) for n = 1..10000\u003c/a\u003e"
			],
			"maple": [
				"d:= n-\u003e n*add(i[2]/i[1], i=ifactors(n)[2]):",
				"a:= n-\u003e numer(-d(n)/n^2):",
				"seq(a(n), n=1..80);  # _Alois P. Heinz_, Jun 07 2015"
			],
			"mathematica": [
				"d[n_] := If[n \u003c 2, 0, n Sum[f[[2]]/f[[1]], {f, FactorInteger[n]}]];",
				"a[n_] := Numerator[-d[n]/n^2];",
				"Array[a, 80] (* _Jean-François Alcover_, Mar 12 2019 *)"
			],
			"xref": [
				"Cf. A003415, A068238 (denominators)."
			],
			"keyword": "sign,frac,look",
			"offset": "1,6",
			"author": "_Reinhard Zumkeller_, Feb 23 2002",
			"references": 3,
			"revision": 14,
			"time": "2019-03-12T09:20:20-04:00",
			"created": "2003-05-16T03:00:00-04:00"
		}
	]
}