{
	"greeting": "Greetings from The On-Line Encyclopedia of Integer Sequences! http://oeis.org/",
	"query": "id:A068347",
	"count": 1,
	"start": 0,
	"results": [
		{
			"number": 68347,
			"data": "1,1,1,1,1,1,1,1,2,1,1,1,2,1,3,1,2,2,1,3,3,2,7,1,1,13,2,2,3,1,5,1,13,6,3,3,2,2,9,8,3,3,2,1,30,1,19,6,7,10,1,10,1,24,1,3,15,1,1,9,1,27,11,38,3,2,4,136,1,3,12,13,9,18,29,6,3,1,156,50,4,2,1,7,22,6,1,15,21,195,5,4,2",
			"name": "Number of partitions of A066925(n) into x_i parts.",
			"link": [
				"Giovanni Resta, \u003ca href=\"/A068347/b068347.txt\"\u003eTable of n, a(n) for n = 1..700\u003c/a\u003e"
			],
			"example": [
				"a(9) = 2 because A066925(9) = 36 has 2 partitions that satisfy the property of A066925: 6+6+6+6+6+6 and 3+3+6+12+12."
			],
			"keyword": "easy,nonn",
			"offset": "1,9",
			"author": "_Naohiro Nomoto_, Feb 28 2002",
			"ext": [
				"More terms from _David Wasserman_, Feb 04 2003"
			],
			"references": 1,
			"revision": 7,
			"time": "2014-02-23T11:32:54-05:00",
			"created": "2003-05-16T03:00:00-04:00"
		}
	]
}