{
	"greeting": "Greetings from The On-Line Encyclopedia of Integer Sequences! http://oeis.org/",
	"query": "id:A068487",
	"count": 1,
	"start": 0,
	"results": [
		{
			"number": 68487,
			"data": "5,13,73,41,61,157,113,233,181,269,317,313,569,421,709,617,613,853,761,929,1117,1013,1429,1201,1301,1637,1753,1873,1741,1861,2897,2113,2689,2381,2521,3697,2969,3469,3121,3449,3617,3613,4153,4337,4729,4517,4513",
			"name": "Smallest prime equal to n^2 + m^2 with n\u003cm.",
			"comment": [
				"All terms are congruent to 1 (mod 4). - Carmine Suriano, Mar 30 2011"
			],
			"link": [
				"Carmine Suriano, \u003ca href=\"/A068487/b068487.txt\"\u003eTable of n, a(n) for n = 1..872\u003c/a\u003e"
			],
			"maple": [
				"for n from 1 to 100 do m := n+1:while(not isprime(n^2+m^2)) do m := m+1; end do:a[n] := n^2+m^2:end do:q := seq(a[i],i=1..100);"
			],
			"mathematica": [
				"Table[k = n + 1; While[p = n^2 + k^2; ! PrimeQ[p], k++]; p, {n, 100}] (* _T. D. Noe_, Mar 30 2011 *)"
			],
			"xref": [
				"Cf. A089489 (values of m)."
			],
			"keyword": "nonn",
			"offset": "1,1",
			"author": "_Lekraj Beedassy_, Mar 11 2002",
			"ext": [
				"More terms from _Sascha Kurz_, Mar 17 2002"
			],
			"references": 3,
			"revision": 13,
			"time": "2014-08-03T14:01:18-04:00",
			"created": "2003-05-16T03:00:00-04:00"
		}
	]
}