{
	"greeting": "Greetings from The On-Line Encyclopedia of Integer Sequences! http://oeis.org/",
	"query": "id:A068797",
	"count": 1,
	"start": 0,
	"results": [
		{
			"number": 68797,
			"data": "2,1,6,15,60,726,6318,189375,755968,683441871,33714015615",
			"name": "Minimum x such that f(x)=n, where f(x)=A068796(x) is the maximum k such that k consecutive integers starting at x have distinct numbers of prime factors (counted with multiplicity).",
			"comment": [
				"The number of prime factors (counted with multiplicity) of n is bigomega(n) = A001222(n).",
				"The known terms, except for the first, agree with A067665. Is that true forever?"
			],
			"link": [
				"J.-M. De Koninck, J. B. Friedlander, and F. Luca, \u003ca href=\"http://dx.doi.org/10.1090/S0002-9939-08-09702-5\"\u003eOn strings of consecutive integers with a distinct number of prime factors\u003c/a\u003e, Proc. Amer. Math. Soc., 137 (2009), 1585-1592."
			],
			"mathematica": [
				"bigomega[n_] := Plus@@Last/@FactorInteger[n]; f[n_] := For[k=1; s={bigomega[n]}, True, k++, If[MemberQ[s, z=bigomega[n+k]], Return[k], AppendTo[s, z]]]; a[n_] := For[x=1, True, x++, If[f[x]==n, Return[x]]]"
			],
			"xref": [
				"Cf. A001222, A067665, A068796."
			],
			"keyword": "more,nonn",
			"offset": "1,1",
			"author": "_Dean Hickerson_, Mar 05 2002",
			"ext": [
				"a(11) from _Donovan Johnson_, Oct 15 2008"
			],
			"references": 2,
			"revision": 14,
			"time": "2017-10-25T06:01:44-04:00",
			"created": "2003-05-16T03:00:00-04:00"
		}
	]
}