{
	"greeting": "Greetings from The On-Line Encyclopedia of Integer Sequences! http://oeis.org/",
	"query": "id:A068158",
	"count": 1,
	"start": 0,
	"results": [
		{
			"number": 68158,
			"data": "1,1,1,1,1,1,1,1,1,3628800,1,0,0,0,0,0,0,0,0,1216451004088320000,106661318400,1,0,0,0,0,0,0,0,44208809968698509772718080000000,1320509264105545113600000,10178348544000,1,0,0,0,0,0,0",
			"name": "a(n) = floor[ n!/(R(n))! ], where R(n) = Digit reversal of n (A004086).",
			"comment": [
				"If n \u003c R(n) then a(n) =0, n is a palindrome a(n) = 1 and for n \u003e R(n) n!/(R(n)! = an integer."
			],
			"example": [
				"a(21) = 21! / 12! = 51090942171709440000/479001600 = 106661318400."
			],
			"keyword": "base,easy,nonn",
			"offset": "1,10",
			"author": "_Amarnath Murthy_, Feb 24 2002",
			"references": 0,
			"revision": 3,
			"time": "2013-12-05T19:55:11-05:00",
			"created": "2003-05-16T03:00:00-04:00"
		}
	]
}