{
	"greeting": "Greetings from The On-Line Encyclopedia of Integer Sequences! http://oeis.org/",
	"query": "id:A068471",
	"count": 1,
	"start": 0,
	"results": [
		{
			"number": 68471,
			"data": "2,16,378,30824,8402216,7664347268,23371379782671,238225926162821893,8118262028301675826132,924887563235974860108746534,352261845112790535941917078458268",
			"name": "Number of n X n binary matrices with each 1 having at most 2 adjacent 1's.",
			"xref": [
				"No adjacent 1's A006506, one adjacent 1 A067968."
			],
			"keyword": "nonn",
			"offset": "1,1",
			"author": "_R. H. Hardin_, Mar 10 2002",
			"references": 1,
			"revision": 5,
			"time": "2012-03-31T12:34:59-04:00",
			"created": "2003-05-16T03:00:00-04:00"
		}
	]
}