{
	"greeting": "Greetings from The On-Line Encyclopedia of Integer Sequences! http://oeis.org/",
	"query": "id:A068850",
	"count": 1,
	"start": 0,
	"results": [
		{
			"number": 68850,
			"data": "61,613,6131,613141,61314101,613141013,61314101333,613141013339,61314101333909,6131410133390957",
			"name": "a(1) = 61 ( the smallest prime beginning with 6) and then the smallest prime with leading digits containing a(n-1).",
			"xref": [
				"Cf. A068849."
			],
			"keyword": "base,nonn",
			"offset": "1,1",
			"author": "_Amarnath Murthy_, Mar 12 2002",
			"references": 2,
			"revision": 2,
			"time": "2013-12-05T19:55:14-05:00",
			"created": "2003-05-16T03:00:00-04:00"
		}
	]
}