{
	"greeting": "Greetings from The On-Line Encyclopedia of Integer Sequences! http://oeis.org/",
	"query": "id:A068310",
	"count": 1,
	"start": 0,
	"results": [
		{
			"number": 68310,
			"data": "3,2,15,6,35,3,7,5,11,30,143,42,195,14,255,2,323,10,399,110,483,33,23,39,3,182,87,210,899,15,1023,17,1155,34,1295,38,1443,95,1599,105,1763,462,215,506,235,138,47,6,51,26,2703,78,2915,21,3135,203,3363,870,3599",
			"name": "n^2 - 1 divided by its largest square divisor.",
			"comment": [
				"In other words, squarefree part of n^2-1.",
				"Least m for which x^2 - m*y^2 = 1 has a solution with x = n.",
				"a(n) = A005563(n-1) / A008833(n). [_Reinhard Zumkeller_, Nov 26 2011]"
			],
			"link": [
				"Reinhard Zumkeller, \u003ca href=\"/A068310/b068310.txt\"\u003eTable of n, a(n) for n = 2..10000\u003c/a\u003e"
			],
			"example": [
				"a(6) = 35, as 6^2 - 1 = 35 itself is squarefree.",
				"7^2-1 = 48, whose largest square divisor is 16, so a(7) = 48/16=3."
			],
			"mathematica": [
				"a[n_] := Times@@(#[[1]] ^ Mod[ #[[2]], 2]\u0026/@FactorInteger[n^2-1])",
				"Table[(n^2-1)/Max[Select[Divisors[n^2-1],IntegerQ[Sqrt[#]]\u0026]],{n,2,60}] (* _Harvey P. Dale_, Dec 08 2019 *)"
			],
			"program": [
				"(PARI) a(n) = core(n*n - 1). - _David Wasserman_, Mar 07 2005",
				"(Haskell)",
				"a068310 n = f 1 $ a027746_row (n^2 - 1) where",
				"   f y [] = y",
				"   f y [p] = y*p",
				"   f y (p:ps'@(p':ps)) | p == p' = f y ps",
				"                       | otherwise = f (y*p) ps'",
				"-- _Reinhard Zumkeller_, Nov 26 2011"
			],
			"xref": [
				"a(n) = A007913(n^2-1).",
				"Cf. A002350, A067872, A033314, A027746, A175607."
			],
			"keyword": "easy,nice,nonn",
			"offset": "2,1",
			"author": "_Lekraj Beedassy_, Feb 25 2002",
			"ext": [
				"Edited by _Dean Hickerson_, Mar 19 2002",
				"Entry revised by _N. J. A. Sloane_, Apr 27 2007"
			],
			"references": 7,
			"revision": 25,
			"time": "2019-12-08T15:52:20-05:00",
			"created": "2003-05-16T03:00:00-04:00"
		}
	]
}