{
	"greeting": "Greetings from The On-Line Encyclopedia of Integer Sequences! http://oeis.org/",
	"query": "id:A068516",
	"count": 1,
	"start": 0,
	"results": [
		{
			"number": 68516,
			"data": "3,16,16,162,48,696,104,1236,486,4680,256,9366,2088,2592,1342,28296,3708,44640,2592",
			"name": "Number of squares (of another matrix) in the group GL(2,Z_n) described in sequence A000252.",
			"comment": [
				"a(n) is multiplicative. This is the 2-dimensional analog of A046073."
			],
			"xref": [
				"Cf. A000252, A046073."
			],
			"keyword": "nonn,mult,more",
			"offset": "2,1",
			"author": "Sharon Sela (sharonsela(AT)hotmail.com), Mar 19 2002",
			"references": 1,
			"revision": 6,
			"time": "2015-07-11T00:35:56-04:00",
			"created": "2003-05-16T03:00:00-04:00"
		}
	]
}