{
	"greeting": "Greetings from The On-Line Encyclopedia of Integer Sequences! http://oeis.org/",
	"query": "id:A068726",
	"count": 1,
	"start": 0,
	"results": [
		{
			"number": 68726,
			"data": "1,3,35,2053,569397,758541101,4855339973053,149596683621380451,22207207625437795523567,15894065026795563049567474623,54873022990102933765115144179983347",
			"name": "Number of solenoidal flows (flow in = flow out) in an n X n square array with integer velocities in -1 .. 1.",
			"xref": [
				"By size 3 X 3, ..., 6 X 6 A068722-A068725, by velocity limit 1..13 A068726-A068738."
			],
			"keyword": "nonn",
			"offset": "1,2",
			"author": "_R. H. Hardin_, Feb 26 2002",
			"references": 17,
			"revision": 6,
			"time": "2012-03-31T12:34:59-04:00",
			"created": "2003-05-16T03:00:00-04:00"
		}
	]
}