{
	"greeting": "Greetings from The On-Line Encyclopedia of Integer Sequences! http://oeis.org/",
	"query": "id:A068294",
	"count": 1,
	"start": 0,
	"results": [
		{
			"number": 68294,
			"data": "1,24,1344,187008,65012352,56638464768,123968096842368,682463815024774272,9455897825697924931968,329835949030491781985964672,28967729014957963606903092579840,6405563550899359667890368716213003520,3566277295414164369700428069692324488565760,4998812913455162820842387241261713638306330756608",
			"name": "1/5 the number of colorings of an n X n octagonal array with 5 colors.",
			"xref": [
				"Cf. A068239-A068305, A000332, A002417, A027441, A212208, A212209."
			],
			"keyword": "nonn",
			"offset": "1,2",
			"author": "_R. H. Hardin_, Feb 24 2002",
			"ext": [
				"a(8) from _Alois P. Heinz_, May 03 2012",
				"a(9)-a(14) from _Andrew Howroyd_, Jun 25 2017"
			],
			"references": 1,
			"revision": 12,
			"time": "2017-06-26T01:06:37-04:00",
			"created": "2003-05-16T03:00:00-04:00"
		}
	]
}