{
	"greeting": "Greetings from The On-Line Encyclopedia of Integer Sequences! http://oeis.org/",
	"query": "id:A068973",
	"count": 1,
	"start": 0,
	"results": [
		{
			"number": 68973,
			"data": "11,91,11,911,101,9901,108949,99009901",
			"name": "Multipliers resulting from A068666.",
			"formula": [
				"a(n) = A068666(n+1)/A068666(n). - _Jinyuan Wang_, Mar 13 2020"
			],
			"xref": [
				"Cf. A068664, A068665, A068666, A068667, A068971, A068972, A068974."
			],
			"keyword": "nonn,base,hard,more",
			"offset": "1,1",
			"author": "_Patrick De Geest_, Mar 30 2002",
			"references": 9,
			"revision": 7,
			"time": "2020-03-13T08:36:16-04:00",
			"created": "2003-05-16T03:00:00-04:00"
		}
	]
}