{
	"greeting": "Greetings from The On-Line Encyclopedia of Integer Sequences! http://oeis.org/",
	"query": "id:A068182",
	"count": 1,
	"start": 0,
	"results": [
		{
			"number": 68182,
			"data": "1,9,1726,1349005,2169056374,5849686966988,23808202021448662,136415042681045401661,1047212810636411989605202,10378926166167927379808819918,129040245485216017874985276329588",
			"name": "Number of combinatorially non-equivalent \"triangulations\" of a compact genus n surface which have only 1 vertex (all vertices of the triangles are identified). Also the number of combinatorially distinct identifications of pairs of edges of a polygone P having 12g-6 sides leading to a compact oriented genus g surface containing the boundary of P as a 3-regular graph.",
			"comment": [
				"In the Krasko paper p. 18, Table 2, this sequence is designated \"tautilde^(3)_(+)(g)\" and has offset 1. - _Michael De Vlieger_, Oct 31 2021"
			],
			"reference": [
				"R. Bacher and A. Vdovina, Counting 1-vertex triangulations of oriented surfaces, Discrete Math. 246 (2002), 13-27."
			],
			"link": [
				"R. Bacher and A. Vdovina, \u003ca href=\"http://arXiv.org/abs/math.CO/0110025\"\u003eCounting 1-vertex triangulations of oriented surfaces\u003c/a\u003e",
				"Evgeniy Krasko, Igor Labutin, and Alexander Omelchenko, \u003ca href=\"https://arxiv.org/abs/1901.06591\"\u003eEnumeration of 3-regular one-face maps on orientable or non-orientable surface up to all symmetries\u003c/a\u003e, arXiv:1901.06591 [math.CO], 2019."
			],
			"formula": [
				"Reference gives a formula. Another formula can be derived by use of characters of the symmetric groups."
			],
			"example": [
				"The first term, 1, is associated to the usual construction of the torus: identify opposite sides of a square. The 1-vertex triangulation is obtained by subdividing the square into 2 triangles along a diagonal. Another point of view is to identify opposite sides of a hexagon (thus getting a torus). The 1-vertex triangulation is the dual of the boundary of the hexagon (which is a graph having 2 nodes and a triple edge between them) drawn on the torus."
			],
			"xref": [
				"Cf. A348794, A348795, A348796, A348797."
			],
			"keyword": "nonn",
			"offset": "0,2",
			"author": "_Roland Bacher_, Mar 23 2002",
			"references": 4,
			"revision": 12,
			"time": "2021-10-31T18:33:38-04:00",
			"created": "2003-05-16T03:00:00-04:00"
		}
	]
}