{
	"greeting": "Greetings from The On-Line Encyclopedia of Integer Sequences! http://oeis.org/",
	"query": "id:A068574",
	"count": 1,
	"start": 0,
	"results": [
		{
			"number": 68574,
			"data": "1,5,25,29,41,42,43,48,49,53,61,65,69,70,85,89,97,99,101,125,139,145,149,167,189,194,213,227,231,245,265,269,273,339,340,348,365,368,369,385,423,458,464,485,487,489,492,500",
			"name": "As strings, n is a substring of Fibonacci(n).",
			"link": [
				"Paolo P. Lava, \u003ca href=\"/A068574/b068574.txt\"\u003eTable of n, a(n) for n = 1..382\u003c/a\u003e"
			],
			"example": [
				"Treated as strings, 69 is a substring of 117669030460994 = Fibonacci(69), so 69 belongs to the sequence."
			],
			"maple": [
				"with(combinat): select(n-\u003esearchtext(convert(n, string), convert(fibonacci(n), string))\u003e0, [$0..500]);",
				"# _Paolo P. Lava_, Jun 27 2018"
			],
			"mathematica": [
				"Select[Range[500], StringPosition[ToString[Fibonacci[ # ]], ToString[ # ]] != {} \u0026]"
			],
			"keyword": "base,nonn",
			"offset": "1,2",
			"author": "_Joseph L. Pe_, Mar 26 2002",
			"references": 1,
			"revision": 11,
			"time": "2018-06-27T09:22:55-04:00",
			"created": "2003-05-16T03:00:00-04:00"
		}
	]
}