{
	"greeting": "Greetings from The On-Line Encyclopedia of Integer Sequences! http://oeis.org/",
	"query": "id:A068414",
	"count": 1,
	"start": 0,
	"results": [
		{
			"number": 68414,
			"data": "1,12,56,260,992,1976,2156,2754,16256,25232,41072,133984,145888,1100864,1270208,1439552,2237888,4729664,67100672,75398912,171627376,277060144,473089984,538178048,558585344,629225984,1192258048,1863840112,2181070592,4534854656",
			"name": "Numbers n such that sigma(n) = 3n - 2*phi(n).",
			"comment": [
				"If 2^p-1 is prime(a Mersenne prime) and n=2^p*(2^p-1) then n is in the sequence because 3*n-2*phi(n)=3*2^p*(2^p-1)-2^p*(2^p-2) =2^p*(2^(p+1)-1)=sigma(2^p-1)*sigma(2^p)=sigma(2^p*(2^p-1))= sigma(n). - _Farideh Firoozbakht_, Dec 31 2005"
			],
			"program": [
				"(PARI) for(n=1,500000, if(sigma(n)==3*n-2*eulerphi(n),print1(n,\",\")))"
			],
			"xref": [
				"Cf. A068418, A069719, A069737."
			],
			"keyword": "nonn",
			"offset": "1,2",
			"author": "_Benoit Cloitre_, Mar 03 2002",
			"ext": [
				"More terms (complete up to 50000000). - _Rick L. Shepherd_, Mar 28 2002",
				"More terms from _Labos Elemer_, Apr 03 2002",
				"a(24)-a(30) from _Donovan Johnson_, Feb 08 2012"
			],
			"references": 4,
			"revision": 19,
			"time": "2013-10-15T22:31:17-04:00",
			"created": "2003-05-16T03:00:00-04:00"
		}
	]
}