{
	"greeting": "Greetings from The On-Line Encyclopedia of Integer Sequences! http://oeis.org/",
	"query": "id:A068603",
	"count": 1,
	"start": 0,
	"results": [
		{
			"number": 68603,
			"data": "2,3,12,14,17,18,19,27,29,30,31,33,34,35,36,41,43,48,49,56,57,63,66,71,77,78,79,80,92,95,102,106,108,109,113,116,118,121,125,130,134,141,142,146,147,158,162,164,168,179,182,184,187,190,194,201,204,209,211,214",
			"name": "Numbers n such that prime(n)+prime(2n)+prime(3n) is prime.",
			"link": [
				"Vincenzo Librandi, \u003ca href=\"/A068603/b068603.txt\"\u003eTable of n, a(n) for n = 1..1000\u003c/a\u003e"
			],
			"mathematica": [
				"Select[Range[225],PrimeQ[Prime[#]+Prime[2#]+Prime[3#]]\u0026]  (* _Harvey P. Dale_, Jan 16 2011 *)"
			],
			"keyword": "easy,nonn",
			"offset": "1,1",
			"author": "_Benoit Cloitre_, Mar 28 2002",
			"references": 1,
			"revision": 12,
			"time": "2012-10-04T02:06:59-04:00",
			"created": "2003-05-16T03:00:00-04:00"
		}
	]
}