{
	"greeting": "Greetings from The On-Line Encyclopedia of Integer Sequences! http://oeis.org/",
	"query": "id:A068580",
	"count": 1,
	"start": 0,
	"results": [
		{
			"number": 68580,
			"data": "1,5,7,15,21,22,26,40,56,66,70,78,108,120,126,168,210",
			"name": "Let phi_m(x) = phi(phi(...(phi(x))...)) m times; sequence gives values of k such that phi_2(k) = tau(k).",
			"comment": [
				"Numbers k such that A010554(k) = A000005(k)."
			],
			"program": [
				"(PARI) is(k) = numdiv(k) == eulerphi(eulerphi(k)); \\\\ _Jinyuan Wang_, Apr 05 2020"
			],
			"xref": [
				"Cf. A000005, A000010, A010554, A068579, A068581, A068582."
			],
			"keyword": "nonn,easy,fini,full",
			"offset": "1,2",
			"author": "_Benoit Cloitre_, Mar 26 2002",
			"references": 3,
			"revision": 13,
			"time": "2020-04-05T05:03:39-04:00",
			"created": "2003-05-16T03:00:00-04:00"
		}
	]
}