{
	"greeting": "Greetings from The On-Line Encyclopedia of Integer Sequences! http://oeis.org/",
	"query": "id:A068600",
	"count": 1,
	"start": 0,
	"results": [
		{
			"number": 68600,
			"data": "11,20,39,33,15,10,7,0,0,0,0,0,0,0,0,0,0,0,0,0,0,0,0,0,0,0,0,0,0,0,0,0,0,0,0,0,0",
			"name": "Number of n-uniform tilings having n different arrangements of polygons about their vertices.",
			"comment": [
				"Sequence gives the number of edge-to-edge regular-polygon tilings having n topologically distinct vertex types, with each vertex type having a different arrangement of surrounding polygons. Does not allow for tilings with two or more vertex types having the same arrangement of surrounding polygons, even when those vertices are topologically distinct. There are no 8- or higher-uniform tilings having the equivalent number of distinct polygon arrangements.",
				"There are eleven 1-uniform tilings (also called the \"Archimedean\" tessellations) which comprise the three regular tessellations (all triangles, squares, or hexagons) plus the eight semiregular tessellations. (See A250120. - _N. J. A. Sloane_, Nov 29 2014)"
			],
			"reference": [
				"This sequence was originally calculated by Otto Krotenheerdt.",
				"Branko Grünbaum and G. C. Shephard, Tilings and Patterns. W. H. Freeman, New York, 1987, page 69.",
				"Krotenheerdt, Otto. \"Die homogenen Mosaike n-ter Ordnung in der euklidischen Ebene,\" Wiss. Z. Martin-Luther-Univ. Halle-Wittenberg. Math.-natur. Reihe, 18(1969), 273-290; 19 (1970)19-38 and 97-122."
			],
			"link": [
				"Steven Dutch, \u003ca href=\"https://stevedutch.net/Symmetry/Uniftil.htm\"\u003eUniform Tilings\u003c/a\u003e",
				"Brian L. Galebach, \u003ca href=\"http://ProbabilitySports.com/tilings.html\"\u003en-Uniform Tilings\u003c/a\u003e",
				"Ng Lay Ling, \u003ca href=\"http://citeseerx.ist.psu.edu/viewdoc/download?doi=10.1.1.435.153\u0026amp;rep=rep1\u0026amp;type=pdf\"\u003eHonours Project - Tilings and Patterns\u003c/a\u003e."
			],
			"xref": [
				"Cf. A068599.",
				"List of coordination sequences for uniform planar nets: A008458 (the planar net 3.3.3.3.3.3), A008486 (6^3), A008574 (4.4.4.4 and 3.4.6.4), A008576 (4.8.8), A008579 (3.6.3.6), A008706 (3.3.3.4.4), A072154 (4.6.12), A219529 (3.3.4.3.4), A250120(3.3.3.3.6), A250122 (3.12.12)."
			],
			"keyword": "nonn",
			"offset": "1,1",
			"author": "_Brian Galebach_, Mar 28 2002",
			"references": 4,
			"revision": 20,
			"time": "2020-04-19T16:57:59-04:00",
			"created": "2003-05-16T03:00:00-04:00"
		}
	]
}