{
	"greeting": "Greetings from The On-Line Encyclopedia of Integer Sequences! http://oeis.org/",
	"query": "id:A069545",
	"count": 1,
	"start": 0,
	"results": [
		{
			"number": 69545,
			"data": "1,2,1,1,1,2,2,3,3,4,2,1,3,6,4,1,3,5,1,2,1,1,1,2,5,1,1,1,1,1,2,3,1,4,1,2,1,3,2,1,5,1,2,1,4,3,1,3,1,1,1,4,1,3,1,2,2,1,3,2,1,2,1,2,5,3,7,3,1,1,1,2,2,1,4,4,1,2,1,7,2",
			"name": "Liouville clusters: the number of successive occurrences of signs in Liouville function lambda(k); a(2n-1) is number of successive positive signs, while a(2n) is number of successive negative signs.",
			"comment": [
				"Related open questions. What is the limit of ratio: a(n)/n, as n-\u003einfinity? What is frequency distribution of integer k in the sequence; a(n)=k for what set of n?",
				"Essentially this sequence is a run-length encoding of A008836. - _Alonso del Arte_, Feb 29 2012"
			],
			"reference": [
				"H. Gupta, On a table of values of L(n), Proceedings of the Indian Academy of Sciences. Section A, 12 (1940), 407-409.",
				"H. Gupta, A table of values of Liouville's function L(n), Research Bulletin of East Panjab University, No. 3 (Feb. 1950), 45-55."
			],
			"link": [
				"Reinhard Zumkeller, \u003ca href=\"/A069545/b069545.txt\"\u003eTable of n, a(n) for n = 1..10000\u003c/a\u003e",
				"R. S. Lehman, \u003ca href=\"http://dx.doi.org/10.1090/S0025-5718-1960-0120198-5\"\u003eOn Liouville's function\u003c/a\u003e, Math. Comp., 14 (1960), 311-320.",
				"Eric Weisstein's World of Mathematics, \u003ca href=\"http://mathworld.wolfram.com/LiouvilleFunction.html\"\u003eLiouville Function\u003c/a\u003e"
			],
			"formula": [
				"Related to summatory Liouville function (A002819): L(m)=sum_{k=1, n} (-1)^(k-1)*a(k) where m=sum_{k=1, n} a(k)."
			],
			"example": [
				"a(6) = 2 because the 6th Liouville cluster consists of 2 successive negative signs: lambda(7) = lambda(8) = (-1).",
				"a(7) = 2 because the 7th Liouville cluster consists of 2 successive positive signs: lambda(9) = lambda(10) = 1."
			],
			"mathematica": [
				"max = 227; lambdaClLens = {}; Module[{curr = 1, cl = 1, iter = 2}, While[iter \u003c max, If[LiouvilleLambda[iter] == curr, cl++, AppendTo[lambdaClLens, cl]; curr = (-1)curr; cl = 1]; iter++]]; lambdaClLens (* _Alonso del Arte_, Feb 29 2012 *)",
				"Length/@Split[LiouvilleLambda[Range[300]]] (* _Harvey P. Dale_, Jul 02 2017 *)"
			],
			"program": [
				"(Haskell)",
				"import Data.List (group)",
				"a069545 n = a069545_list !! (n-1)",
				"a069545_list = map length $ group a008836_list",
				"-- _Reinhard Zumkeller_, Mar 10 2014"
			],
			"xref": [
				"Cf. A008836, A002819, A001222, A028260, A026424."
			],
			"keyword": "easy,nice,nonn",
			"offset": "1,2",
			"author": "_Paul D. Hanna_, Apr 17 2002",
			"ext": [
				"Corrected a(46) and a(47), and added terms after that. - _Alonso del Arte_, Feb 29 2012"
			],
			"references": 1,
			"revision": 21,
			"time": "2017-07-02T20:19:12-04:00",
			"created": "2003-05-16T03:00:00-04:00"
		}
	]
}