{
	"greeting": "Greetings from The On-Line Encyclopedia of Integer Sequences! http://oeis.org/",
	"query": "id:A069873",
	"count": 1,
	"start": 0,
	"results": [
		{
			"number": 69873,
			"data": "1,12,12,12,0,12,1248163264128256,1248,12481632,0,1248163264128,12,1248,1248163264128256,0,1248,1248163264128256512,12481632,12481632,0,124816326412825651210242048,1248163264128,1248163264,1248,0,1248",
			"name": "Smallest concatenation of powers of 2 in ascending order that is a multiple of n, or 0 if no such number exists.",
			"comment": [
				"a(n) = 0 for n = 5k."
			],
			"keyword": "base,nonn",
			"offset": "1,2",
			"author": "_Amarnath Murthy_, Apr 24 2002",
			"ext": [
				"Corrected and extended by Larry Reeves (larryr(AT)acm.org), Jul 09 2002"
			],
			"references": 0,
			"revision": 2,
			"time": "2013-12-05T19:55:18-05:00",
			"created": "2003-05-16T03:00:00-04:00"
		}
	]
}