{
	"greeting": "Greetings from The On-Line Encyclopedia of Integer Sequences! http://oeis.org/",
	"query": "id:A069018",
	"count": 1,
	"start": 0,
	"results": [
		{
			"number": 69018,
			"data": "0,4,1,0,16,4,9,1,0,36,9,4,32400,16,1,0,64,16,1521,4,144,1764,25,1,0,100,25,576,3312400,4,74529,9,16,36,1,0,144,36,16,9,102400,4,281961,900,576,12873744,49,1,0,196,49,8100,82810000,4356,144,4,400,6625476",
			"name": "Smallest square k \u003e 0 such that n*k + 1 is also a square or 0 if no such term exists, i.e., when n is a square.",
			"comment": [
				"Terms from _Robert G. Wilson v_."
			],
			"link": [
				"Robert Israel, \u003ca href=\"/A069018/b069018.txt\"\u003eTable of n, a(n) for n = 1..10000\u003c/a\u003e"
			],
			"maple": [
				"f:= proc(n) local x,y,t,z,k,r;",
				"  if issqr(n) then return 0 fi;",
				"  t:= [isolve(n*x^2+1=y^2)];",
				"  z:= (indets(t,name) minus {x,y})[1];",
				"  for k from 0 do",
				"    r:= select(`\u003e`, map(s -\u003e eval(x,s), eval(t, z=k)),0);",
				"    if nops(r) \u003e= 1 then return min(r)^2 fi",
				"  od",
				"end proc:",
				"map(f, [$1..100]); # _Robert Israel_, Jun 29 2018"
			],
			"mathematica": [
				"Do[k = 0; If[ !IntegerQ[ Sqrt[n]], k = 1; While[ !IntegerQ[ Sqrt[n*k^2 + 1]], k++ ]]; Print[k^2], {n, 1, 35}] (* _Robert G. Wilson v_ *)"
			],
			"keyword": "nonn",
			"offset": "1,2",
			"author": "_Amarnath Murthy_, Apr 02 2002",
			"ext": [
				"Offset corrected by _Robert Israel_, Jun 29 2018"
			],
			"references": 2,
			"revision": 12,
			"time": "2018-06-29T22:15:18-04:00",
			"created": "2003-05-16T03:00:00-04:00"
		}
	]
}