{
	"greeting": "Greetings from The On-Line Encyclopedia of Integer Sequences! http://oeis.org/",
	"query": "id:A069532",
	"count": 1,
	"start": 0,
	"results": [
		{
			"number": 69532,
			"data": "10,2,12,4,14,6,16,8,18,28,38,48,58,68,78,88,98,198,298,398,498,598,698,798,898,998,1998,2998,3998,4998,5998,6998,7998,8998,9998,19998,29998,39998,49998,59998,69998,79998,89998,99998,199998,299998,399998,499998",
			"name": "Smallest even number with digit sum n.",
			"link": [
				"Chai Wah Wu, \u003ca href=\"/A069532/b069532.txt\"\u003eTable of n, a(n) for n = 1..8999\u003c/a\u003e",
				"\u003ca href=\"/index/Rec#order_10\"\u003eIndex entries for linear recurrences with constant coefficients\u003c/a\u003e, signature (1,0,0,0,0,0,0,0,10,-10)."
			],
			"formula": [
				"From _Chai Wah Wu_, Sep 15 2020: (Start)",
				"a(n) = a(n-1) + 10*a(n-9) - 10*a(n-10) for n \u003e 17.",
				"G.f.: 2*x*(45*x^16 - 45*x^15 + 45*x^14 - 45*x^13 + 45*x^12 - 45*x^11 + 45*x^10 - 45*x^9 + 5*x^8 - 4*x^7 + 5*x^6 - 4*x^5 + 5*x^4 - 4*x^3 + 5*x^2 - 4*x + 5)/((x - 1)*(10*x^9 - 1)). (End)",
				"a(n) = 2 * A077491(n). - _Alois P. Heinz_, Sep 15 2020"
			],
			"mathematica": [
				"t={}; Do[i=2; While[Total[IntegerDigits[i]]!=n,i=i+2]; AppendTo[t,i],{n,48}]; t (* _Jayanta Basu_, May 18 2013 *)"
			],
			"program": [
				"(PARI) a(n) = {my(k = 2); while(sumdigits(k) != n, k+=2); k;} \\\\ _Michel Marcus_, Mar 18 2016"
			],
			"xref": [
				"Cf. A069521 to A069530.",
				"Cf. A000918 (smallest even number with bit sum n), A051885 (smallest number with digit sum n).",
				"Cf. A077491."
			],
			"keyword": "base,nonn,easy",
			"offset": "1,1",
			"author": "_Amarnath Murthy_, Apr 01 2002",
			"ext": [
				"More terms from _Ray Chandler_, Jul 28 2003"
			],
			"references": 20,
			"revision": 29,
			"time": "2020-09-15T20:47:58-04:00",
			"created": "2003-05-16T03:00:00-04:00"
		}
	]
}