{
	"greeting": "Greetings from The On-Line Encyclopedia of Integer Sequences! http://oeis.org/",
	"query": "id:A069914",
	"count": 1,
	"start": 0,
	"results": [
		{
			"number": 69914,
			"data": "0,1,2,6,4,15,6,23,16,27,10,64,12,39,42,72,16,98,18,110,60,63,22,213,48,75,84,156,28,245,30,201,96,99,102,380,36,111,114,357,40,345,42,248,248,135,46,618,96,278,150,294,52,478,162,501,168,171,58,924,60,183",
			"name": "a(n) = Sum_{d|n} (d-1)*sigma(n/d).",
			"link": [
				"Ivan Neretin, \u003ca href=\"/A069914/b069914.txt\"\u003eTable of n, a(n) for n = 1..10000\u003c/a\u003e"
			],
			"formula": [
				"a(n) = A060640(n) - A007429(n).",
				"G.f.: Sum_{k\u003e=1} sigma(k) * x^(2*k) / (1 - x^k)^2. - _Ilya Gutkovskiy_, Aug 19 2021"
			],
			"mathematica": [
				"Table[Plus @@ (DivisorSigma[1, ds = Divisors[n]]*(n/ds - 1)), {n, 62}] (* _Ivan Neretin_, May 17 2015 *)"
			],
			"program": [
				"(PARI) a(n) = sumdiv(n, d, (d-1)*sigma(n/d)) \\\\ _Michel Marcus_, Jun 17 2013"
			],
			"xref": [
				"Cf. A000203, A006579, A007429, A060640."
			],
			"keyword": "nonn",
			"offset": "1,3",
			"author": "_Vladeta Jovovic_, May 04 2002",
			"references": 1,
			"revision": 13,
			"time": "2021-08-20T00:21:31-04:00",
			"created": "2003-05-16T03:00:00-04:00"
		}
	]
}