{
	"greeting": "Greetings from The On-Line Encyclopedia of Integer Sequences! http://oeis.org/",
	"query": "id:A069149",
	"count": 1,
	"start": 0,
	"results": [
		{
			"number": 69149,
			"data": "1,2,3,5,7,9,11,12,13,15,17,19,21,23,24,25,27,29,30,31,32,33,35,36,37,39,40,41,43,45,47,48,49,50,51,53,54,55,56,57,59,60,61,63,64,65,67,69,70,71,72,73,75,77,79,80,81,83,84,85,87,88,89,90,91,93,95,96,97,98,99",
			"name": "Numbers k such that k*k!/A062758(k) is an integer where A062758(k) is the product of squares of divisors of n.",
			"comment": [
				"Also numbers k such that k! is divisible by k ^ (tau(k) - 1). - _David A. Corneth_, Apr 23 2018"
			],
			"link": [
				"Ivan Neretin, \u003ca href=\"/A069149/b069149.txt\"\u003eTable of n, a(n) for n = 1..10000\u003c/a\u003e"
			],
			"mathematica": [
				"Select[Range[100], Divisible[#!*#, Times @@ Divisors[#]^2] \u0026] (* _Ivan Neretin_, Apr 22 2018 *)"
			],
			"program": [
				"(PARI) for(n=1, 320, if((n*(n!))%(n^numdiv(n))==0, print1(n, \", \")))",
				"(PARI) is(n) = {my(f = factor(n), qdiv = numdiv(f)); for(i = 1, #f~, cn = n; t = 0; while(cn \\= f[i,1], t += cn); if(t \u003c f[i,2] * (qdiv - 1), return(0))); 1} \\\\ _David A. Corneth_, Apr 27 2018"
			],
			"xref": [
				"Complement of A069148.",
				"Cf. A001563 (n*n!), A062758."
			],
			"keyword": "easy,nonn",
			"offset": "1,2",
			"author": "_Benoit Cloitre_, Apr 08 2002",
			"references": 2,
			"revision": 19,
			"time": "2018-04-28T03:15:32-04:00",
			"created": "2003-05-16T03:00:00-04:00"
		}
	]
}