{
	"greeting": "Greetings from The On-Line Encyclopedia of Integer Sequences! http://oeis.org/",
	"query": "id:A069162",
	"count": 1,
	"start": 0,
	"results": [
		{
			"number": 69162,
			"data": "1,2,5,11,8,29,56,128,92,110,101,317,209,263,236,749,1478,3341,7229,5285,6257,5771,6014,17678,11846,14762,13304,14033,41006,82559,185348,401861,880814,1924013,4207241,3065627,3636434,10053092,6844763",
			"name": "a(1)=1, a(2)=2, a(n+2)=(a(n+1)+a(n))/2 if a(n+1)+a(n) is even, a(n+2)=(3*(a(n+1)+a(n))+1)/2 otherwise.",
			"comment": [
				"A Collatz-Fibonacci mixture.",
				"Does this sequence diverge to infinity?"
			],
			"keyword": "nonn",
			"offset": "1,2",
			"author": "_Benoit Cloitre_, Apr 09 2002",
			"references": 0,
			"revision": 5,
			"time": "2012-03-30T18:38:56-04:00",
			"created": "2003-05-16T03:00:00-04:00"
		}
	]
}