{
	"greeting": "Greetings from The On-Line Encyclopedia of Integer Sequences! http://oeis.org/",
	"query": "id:A069789",
	"count": 1,
	"start": 0,
	"results": [
		{
			"number": 69789,
			"data": "2,5,6,12,6,11,14,24,18,17,14,28,20,15,23,25,22,45,24,26,31,30,30,38,48,41,54,39,38,46,42,68,35,53,42,117,74,54,60,58,44,62,86,60,90,51,62,75,74,80,55,97,85,56,66,87,79,88,87,78,75,69,103,192,78,70,134,82,77",
			"name": "Smallest k\u003en such that sigma(n) divides sigma(k).",
			"link": [
				"Ivan Neretin, \u003ca href=\"/A069789/b069789.txt\"\u003eTable of n, a(n) for n = 1..10000\u003c/a\u003e"
			],
			"program": [
				"(PARI) for(s=1,80,n=s+1; while(frac(sigma(n)/sigma(s))\u003e0,n++); print1(n,\",\"); )"
			],
			"keyword": "easy,nonn",
			"offset": "1,1",
			"author": "_Benoit Cloitre_, May 01 2002",
			"references": 2,
			"revision": 10,
			"time": "2018-10-21T12:57:29-04:00",
			"created": "2003-05-16T03:00:00-04:00"
		}
	]
}