{
	"greeting": "Greetings from The On-Line Encyclopedia of Integer Sequences! http://oeis.org/",
	"query": "id:A069783",
	"count": 1,
	"start": 0,
	"results": [
		{
			"number": 69783,
			"data": "1,2,4,8,16,2,4,32,32,10,20,8,16,32,448,448,1792,32,64,80,3200,1280,2560,320,448,1792,25088,101920,203840,128,256,4096,81920,112640,2048,8960,17920,1024,2048,5120,10240,5734400,11468800,1003520,250880,8960,17920",
			"name": "a(n) = gcd(d(n!^3), d(n!)) = A069780(n!), where d() is the number of divisors function.",
			"mathematica": [
				"Table[GCD[DivisorSigma[0, (n!)^3], DivisorSigma[0, n! ]], {n, 1, 100}]"
			],
			"xref": [
				"Cf. A000005, A000142, A069780, A069781, A069782."
			],
			"keyword": "easy,nonn",
			"offset": "1,2",
			"author": "_Labos Elemer_, Apr 08 2002",
			"references": 1,
			"revision": 10,
			"time": "2019-10-26T20:52:32-04:00",
			"created": "2003-05-16T03:00:00-04:00"
		}
	]
}