{
	"greeting": "Greetings from The On-Line Encyclopedia of Integer Sequences! http://oeis.org/",
	"query": "id:A069382",
	"count": 1,
	"start": 0,
	"results": [
		{
			"number": 69382,
			"data": "127,14197,1461797,144769425,14142942975,1374273318721",
			"name": "Number of n X 7 binary arrays with a path of adjacent 1's from top row to bottom row.",
			"xref": [
				"Cf. 1 X n A000225, 2 X n A005061, n X 2 A001333, vertical path of 1 A069361-A069395, vertical paths of 0+1 A069396-A069416, vertical path of 1 not 0 A069417-A069428, no vertical paths A069429-A069447, no horizontal or vertical paths A069448-A069452."
			],
			"keyword": "nonn",
			"offset": "1,1",
			"author": "_R. H. Hardin_, Mar 22 2002",
			"references": 0,
			"revision": 9,
			"time": "2021-04-07T18:57:52-04:00",
			"created": "2003-05-16T03:00:00-04:00"
		}
	]
}