{
	"greeting": "Greetings from The On-Line Encyclopedia of Integer Sequences! http://oeis.org/",
	"query": "id:A069094",
	"count": 1,
	"start": 0,
	"results": [
		{
			"number": 69094,
			"data": "1,511,19682,261632,1953124,10057502,40353606,133955584,387400806,998046364,2357947690,5149441024,10604499372,20620692666,38441386568,68585259008,118587876496,197961811866,322687697778,510999738368",
			"name": "Jordan function J_9(n).",
			"reference": [
				"L. Comtet, Advanced Combinatorics, Reidel, 1974, p. 199, #3."
			],
			"link": [
				"G. C. Greubel, \u003ca href=\"/A069094/b069094.txt\"\u003eTable of n, a(n) for n = 1..5000\u003c/a\u003e",
				"Wikipedia, \u003ca href=\"https://en.wikipedia.org/wiki/Jordan%27s_totient_function\"\u003eJordan's totient function\u003c/a\u003e."
			],
			"formula": [
				"a(n) = Sum_{d|n} d^9*mu(n/d).",
				"Multiplicative with a(p^e) = p^(9e)-p^(9(e-1)).",
				"Dirichlet generating function: zeta(s-9)/zeta(s). - _Ralf Stephan_, Jul 04 2013",
				"a(n) = n^9*Product_{distinct primes p dividing n} (1-1/p^9). - _Tom Edgar_, Jan 09 2015",
				"Sum_{k=1..n} a(k) ~ 18711*n^10 / (2*Pi^10). - _Vaclav Kotesovec_, Feb 07 2019",
				"From _Amiram Eldar_, Oct 12 2020: (Start)",
				"lim_{n-\u003eoo} (1/n) * Sum_{k=1..n} a(k)/k^9 = 1/zeta(10).",
				"Sum_{n\u003e=1} 1/a(n) = Product_{p prime} (1 + p^9/(p^9-1)^2) = 1.0020122252...  (End)"
			],
			"mathematica": [
				"JordanJ[n_, k_] := DivisorSum[n, #^k*MoebiusMu[n/#] \u0026]; f[n_] := JordanJ[n, 9]; Array[f, 22]",
				"f[p_, e_] := p^(9*e) - p^(9*(e-1)); a[1] = 1; a[n_] := Times @@ f @@@ FactorInteger[n]; Array[a, 100] (* _Amiram Eldar_, Oct 12 2020 *)"
			],
			"program": [
				"(PARI) for(n=1,100,print1(sumdiv(n,d,d^9*moebius(n/d)),\",\"))"
			],
			"xref": [
				"Cf. A059379 and A059380 (triangle of values of J_k(n)), A000010 (J_1), A059376 (J_3), A059377 (J_4), A059378 (J_5).",
				"Cf. A013668."
			],
			"keyword": "easy,nonn,mult",
			"offset": "1,2",
			"author": "_Benoit Cloitre_, Apr 05 2002",
			"references": 4,
			"revision": 32,
			"time": "2020-10-12T02:23:44-04:00",
			"created": "2003-05-16T03:00:00-04:00"
		}
	]
}