{
	"greeting": "Greetings from The On-Line Encyclopedia of Integer Sequences! http://oeis.org/",
	"query": "id:A069657",
	"count": 1,
	"start": 0,
	"results": [
		{
			"number": 69657,
			"data": "0,1,2,6,24,115,628,3818,25455,183968,1428184,11824098,103794727,961461179,9360372700,95448502365,1016413911387,11273822075837,129950445723958,1553488011957986,19225242250821071,245899882175001580,3245812116097119188,44155099624566615247",
			"name": "Sum( S(n,k) * M(k-1), k=1..n), where S(n,k) = Stirling numbers of the second kind, M(n) = Motzkin numbers, A001006.",
			"xref": [
				"Cf. A006531, A001006."
			],
			"keyword": "nonn",
			"offset": "0,3",
			"author": "_N. J. A. Sloane_, Jun 06 2002",
			"references": 0,
			"revision": 3,
			"time": "2012-03-30T16:49:19-04:00",
			"created": "2003-05-16T03:00:00-04:00"
		}
	]
}