{
	"greeting": "Greetings from The On-Line Encyclopedia of Integer Sequences! http://oeis.org/",
	"query": "id:A069629",
	"count": 1,
	"start": 0,
	"results": [
		{
			"number": 69629,
			"data": "2,23,223,2237,32237,3223709,63223709,6322370909,66322370909,6632237090903,36632237090903,3663223709090329,73663223709090329,736632237090903299,5736632237090903299,573663223709090329963",
			"name": "a(1) = 2; a(2n) = smallest prime starting (most significant digits) with a(2n-1). a(2n+1) = smallest prime ending (least significant digits)in a(2n).",
			"xref": [
				"Cf. A069614 to A069621, A069628 to A069636."
			],
			"keyword": "nonn,base",
			"offset": "1,1",
			"author": "_Amarnath Murthy_, Mar 27 2002",
			"ext": [
				"Edited and extended by _Robert G. Wilson v_, Apr 03 2002"
			],
			"references": 0,
			"revision": 3,
			"time": "2013-12-05T19:55:16-05:00",
			"created": "2003-05-16T03:00:00-04:00"
		}
	]
}