{
	"greeting": "Greetings from The On-Line Encyclopedia of Integer Sequences! http://oeis.org/",
	"query": "id:A069974",
	"count": 1,
	"start": 0,
	"results": [
		{
			"number": 69974,
			"data": "2,2,3,3,5,3,7,5,7,5,11,5,13,7,7,7,17,7,19,7,13,11,23,7,13,13,19,13,29",
			"name": "Duplicate of A039650.",
			"keyword": "dead",
			"offset": "1,1",
			"references": 0,
			"revision": 3,
			"time": "2007-05-11T03:00:00-04:00",
			"created": "2003-05-16T03:00:00-04:00"
		}
	]
}