{
	"greeting": "Greetings from The On-Line Encyclopedia of Integer Sequences! http://oeis.org/",
	"query": "id:A069687",
	"count": 1,
	"start": 0,
	"results": [
		{
			"number": 69687,
			"data": "3,5,17,23,29,47,53,83,107,113,131,149,173,197,239,251,317,359,383,401,443,503,509,599,641,683,701,719,743,797,821,947,953,1031,1049,1103,1109,1187,1229,1277,1283,1301,1373,1583,1613,1619,1637,1733,1847,1889",
			"name": "Primes that yield another prime on placing a 1 on both sides (as leading and trailing digits).",
			"link": [
				"Harvey P. Dale, \u003ca href=\"/A069687/b069687.txt\"\u003eTable of n, a(n) for n = 1..1000\u003c/a\u003e"
			],
			"example": [
				"239 belongs to this sequence as 12391 is also a prime.",
				"947 and 19471 are both primes ==\u003e 947 is in the sequence. [From _José María Grau Ribas_, Jan 22 2012]"
			],
			"maple": [
				"a:= proc(n) option remember; local p;",
				"      p:= `if`(n=1, 1, a(n-1));",
				"      do p:= nextprime(p);",
				"         if isprime(parse(cat(1, p, 1))) then break fi",
				"      od; p",
				"    end:",
				"seq(a(n), n=1..100);  # _Alois P. Heinz_, May 18 2012"
			],
			"mathematica": [
				"Select[ Range[2000], PrimeQ[ # ] \u0026\u0026 PrimeQ[ FromDigits[ Insert[ IntegerDigits[ # ], 1, {{1}, {-1}}]]] \u0026]",
				"san[i_]:=1+Prime[i]*10+10^(Floor@Log[10,Prime[i]]+2); Prime@Select[Range[1000],PrimeQ@san[#]\u0026]  (* From _José María Grau Ribas_, Jan 22 2012 *)",
				"Select[Prime[Range[300]],PrimeQ[FromDigits[Join[{1},IntegerDigits[#],{1}]]]\u0026]  (* _Harvey P. Dale_, May 18 2012 *)"
			],
			"program": [
				"(PARI) forprime( p=1,9999, isprime(10^#Str(p*10)+p*10+1) \u0026 print1(p\",\")) \\\\ _M. F. Hasler_, May 18 2012",
				"(PARI) A069687_vec(Nmax=10^4)=my(p,d=1);vector(Nmax,i,until(isprime((d+p)*10+1), d\u003c(p=nextprime(p+1))\u0026d*=10);p)  \\\\ _M. F. Hasler_, May 19 2012"
			],
			"xref": [
				"Cf. A069688, A069689 \u0026 A069690."
			],
			"keyword": "nonn,base",
			"offset": "1,1",
			"author": "_Amarnath Murthy_, Apr 06 2002",
			"ext": [
				"Edited and extended by _Robert G. Wilson v_, May 03 2002",
				"Corrected and edited following suggestions by H. P. Dale and others by _M. F. Hasler_, May 18 2012"
			],
			"references": 10,
			"revision": 25,
			"time": "2015-08-22T19:43:37-04:00",
			"created": "2003-05-16T03:00:00-04:00"
		}
	]
}