{
	"greeting": "Greetings from The On-Line Encyclopedia of Integer Sequences! http://oeis.org/",
	"query": "id:A069521",
	"count": 1,
	"start": 0,
	"results": [
		{
			"number": 69521,
			"data": "2,2,0,20,20,0,1001,200,0,20,11,0,1001,10010,0,2000,100000001,0,1000000001,20,0,110,100000000001,0,200,10010,0,100100,100000000000001,0,0,20000,0,1000000010,10010,0,0,10000000010,0,200,0,0,0,1100,0",
			"name": "Smallest multiple of n with digit sum = 2, or 0 if no such number exists, e.g. a(3k)=0.",
			"comment": [
				"a(3k)=a(31k)=a(37k)=a(41k)=a(43k)=a(53k)=a(67k)=a(71k)=a(79k)=a(83k)=0. - _Ray Chandler_, Jul 30 2003"
			],
			"example": [
				"a(7) =a(13) = 1001. digit sum of 1001 = 2 and is the smallest such multiple of 7 and 13. a(17) = 100000001= 17*5882353."
			],
			"keyword": "base,nonn",
			"offset": "1,1",
			"author": "_Amarnath Murthy_, Apr 01 2002",
			"ext": [
				"More terms from _Ray Chandler_, Jul 30 2003"
			],
			"references": 21,
			"revision": 5,
			"time": "2013-12-05T19:55:15-05:00",
			"created": "2003-05-16T03:00:00-04:00"
		}
	]
}