{
	"greeting": "Greetings from The On-Line Encyclopedia of Integer Sequences! http://oeis.org/",
	"query": "id:A069707",
	"count": 1,
	"start": 0,
	"results": [
		{
			"number": 69707,
			"data": "1,4,9,100,121,144,169,400,441,484,676,900,961,1521,1681,1764,4624,4761,5625,9409,10000,10201,10404,10609,11881,12321,14161,14641,16641,17161,19321,19881,40000,40401,40804,41209,43264,44944,47524,49284",
			"name": "Squares with property that swapping first and last digits also gives a square.",
			"link": [
				"Harvey P. Dale, \u003ca href=\"/A069707/b069707.txt\"\u003eTable of n, a(n) for n = 1..1000\u003c/a\u003e"
			],
			"example": [
				"1764 and 4761 both are squares hence both are members."
			],
			"mathematica": [
				"Do[t = IntegerDigits[n^2]; u = t; u[[1]] = t[[ -1]]; u[[ -1]] = t[[1]]; t = FromDigits[u]; If[ IntegerQ[ Sqrt[t]], Print[n^2]], {n, 1, 300}]",
				"sfldQ[n_]:=Module[{idn=IntegerDigits[n]},IntegerQ[Sqrt[FromDigits[Join[ {idn[[-1]]},Most[ Rest[idn]],{idn[[1]]}]]]]]; Join[{1,4,9},Select[ Range[10,250]^2,sfldQ]] (* _Harvey P. Dale_, Oct 13 2020 *)"
			],
			"xref": [
				"Cf. A069706, A069708."
			],
			"keyword": "nonn,base",
			"offset": "1,2",
			"author": "_Amarnath Murthy_, Apr 08 2002",
			"ext": [
				"Edited and extended by _Robert G. Wilson v_",
				"Edited by _N. J. A. Sloane_, Jan 20 2009"
			],
			"references": 3,
			"revision": 11,
			"time": "2020-10-13T15:57:39-04:00",
			"created": "2003-05-16T03:00:00-04:00"
		}
	]
}