{
	"greeting": "Greetings from The On-Line Encyclopedia of Integer Sequences! http://oeis.org/",
	"query": "id:A070685",
	"count": 1,
	"start": 0,
	"results": [
		{
			"number": 70685,
			"data": "0,1,19,9,1,10,36,19,19,36,10,1,9,19,1,0,1,19,9,1,10,36,19,19,36,10,1,9,19,1,0,1,19,9,1,10,36,19,19,36,10,1,9,19,1,0,1,19,9,1,10,36,19,19,36,10,1,9,19,1,0,1,19,9,1,10,36,19,19,36,10,1,9,19,1,0,1,19,9,1,10,36",
			"name": "n^6 mod 45.",
			"link": [
				"\u003ca href=\"/index/Rec#order_15\"\u003eIndex entries for linear recurrences with constant coefficients\u003c/a\u003e, signature (0,0,0,0,0,0,0,0,0,0,0,0,0,0,1)."
			],
			"formula": [
				"a(n) = a(n-15) for n \u003e 14. - _Chai Wah Wu_, Sep 02 2020"
			],
			"program": [
				"(PARI) a(n)=n^6%45 \\\\ _Charles R Greathouse IV_, Apr 06 2016"
			],
			"keyword": "nonn,easy",
			"offset": "0,3",
			"author": "_N. J. A. Sloane_, May 13 2002",
			"references": 0,
			"revision": 8,
			"time": "2020-09-02T22:37:21-04:00",
			"created": "2003-05-16T03:00:00-04:00"
		}
	]
}