{
	"greeting": "Greetings from The On-Line Encyclopedia of Integer Sequences! http://oeis.org/",
	"query": "id:A070200",
	"count": 1,
	"start": 0,
	"results": [
		{
			"number": 70200,
			"data": "0,0,1,0,1,1,0,1,1,1,1,0,1,1,1,1,1,1,0,1,1,1,1,1,1,1,1,0,1,1,1,1,1,1,1,1,1,1,2,0,1,1,1,1,1,1,2,1,1,1,1,1,2,2,0,1,1,1,1,1,1,2,2,2,1,1,1,2,1,2,2,2,0,1,1,1,1,2,1,2,2,2,2,2,1,1,1,2,1,2",
			"name": "Inradii of integer triangles [A070080(n), A070081(n), A070082(n)], rounded values.",
			"comment": [
				"Triangles [A070080(A070209(n)), A070081(A070209(n)), A070082(A070209(n))] have integer inradii = a(A070209(k))= A070210(k)."
			],
			"link": [
				"Eric Weisstein's World of Mathematics, \u003ca href=\"http://mathworld.wolfram.com/Incircle.html\"\u003eIncircle\u003c/a\u003e.",
				"R. Zumkeller, \u003ca href=\"/A070080/a070080.txt\"\u003eInteger-sided triangles\u003c/a\u003e"
			],
			"formula": [
				"a(n) = sqrt((s-u)*(s-v)*(s-w)/s), where u=A070080(n), v=A070081(n), w=A070082(n) and s=A070083(n)/2=(u+v+w)/2."
			],
			"example": [
				"[A070080(25), A070081(25), A070082(25)] = [3,5,6] and s = A070083(25)/2 = (3+5+6)/2 = 7: a(25) = sqrt((s-3)*(s-5)*(s-6)/7) = sqrt((7-3)*(7-5)*(7-6)/7) = sqrt(4*2*1/7) = sqrt(8/7) = 1.069, rounded = 1."
			],
			"xref": [
				"Cf. A070086."
			],
			"keyword": "nonn",
			"offset": "1,39",
			"author": "_Reinhard Zumkeller_, May 05 2002",
			"references": 4,
			"revision": 10,
			"time": "2017-12-22T18:55:40-05:00",
			"created": "2003-05-16T03:00:00-04:00"
		}
	]
}