{
	"greeting": "Greetings from The On-Line Encyclopedia of Integer Sequences! http://oeis.org/",
	"query": "id:A070660",
	"count": 1,
	"start": 0,
	"results": [
		{
			"number": 70660,
			"data": "0,1,27,26,26,11,36,26,36,10,1,1,10,11,36,27,10,27,11,11,27,10,27,36,11,10,1,1,10,36,26,36,11,26,26,27,1,0,1,27,26,26,11,36,26,36,10,1,1,10,11,36,27,10,27,11,11,27,10,27,36,11,10,1,1,10,36,26,36,11,26,26,27",
			"name": "n^6 mod 37.",
			"link": [
				"Vincenzo Librandi, \u003ca href=\"/A070660/b070660.txt\"\u003eTable of n, a(n) for n = 0..1000\u003c/a\u003e"
			],
			"mathematica": [
				"PowerMod[Range[0,80],6,37] (* _Harvey P. Dale_, Jul 19 2014 *)"
			],
			"program": [
				"(Sage) [power_mod(n,6,37)for n in range(0, 73)] # - _Zerinvary Lajos_, Nov 07 2009",
				"(MAGMA) [n^6 mod 37: n in [0..80]]; // _Vincenzo Librandi_, Jul 23 2014",
				"(PARI) a(n)=n^6%37 \\\\ _Charles R Greathouse IV_, Apr 06 2016"
			],
			"keyword": "nonn,easy",
			"offset": "0,3",
			"author": "_N. J. A. Sloane_, May 13 2002",
			"references": 1,
			"revision": 17,
			"time": "2019-12-07T12:18:23-05:00",
			"created": "2003-05-16T03:00:00-04:00"
		}
	]
}