{
	"greeting": "Greetings from The On-Line Encyclopedia of Integer Sequences! http://oeis.org/",
	"query": "id:A070829",
	"count": 1,
	"start": 0,
	"results": [
		{
			"number": 70829,
			"data": "1,0,1,1,0,0,1,1,1,0,0,0,1,1,0,1,1,0,1,0,0,0,0,1,1,1,0,0,0,0,0,1,1,0,0,1,0,1,1,1,0,0,0,0,0,0,1,1,1,0,0,0,0,0,0,0,1,1,0,1,0,1,0,1,1,0,0,0,1,0,0,0,0,0,0,0,0,1,1,1,0",
			"name": "Array showing which primes divide n \u003e= 2.",
			"comment": [
				"In the Kac reference this array is called rho_{p}(n) := 1 if p divides n else 0.",
				"The row length sequence is A061395(n),n\u003e=2: [1,2,1,3,2,4,1,2,3,5,2,6,4,3,...] (the index of the largest prime dividing n). All row entries beyond these numbers are 0, hence they are not shown. The n=1 row would have 0 for all entries.",
				"The column sequences (without leading zeros) give for m\u003e=1 periodic sequences with the period: 1 followed by p(m)-1 zeros. They start with n=p(m) := A000040(m)."
			],
			"reference": [
				"Mark Kac, A Personal History of the Scottish Book, pp. 17-27, in R. D. Mauldin (ed.), The Scottish Book, Birkhäuser, Boston, Basel, 1981."
			],
			"link": [
				"W. Lang, \u003ca href=\"http://www.itp.kit.edu/~wl/A070829.text\"\u003eFirst 32 rows\u003c/a\u003e."
			],
			"formula": [
				"a(n, m)=1 if p(m), m\u003e=1, divides n\u003e=2, with the prime p(m) := A000040(m), else 0."
			],
			"example": [
				"{1}, {0, 1}, {1}, {0, 0, 1}, {1, 1}, {0, 0, 0, 1}, {1}, {0, 1}, {1, 0, 1}...",
				"Row n=10: {1,0,1} because p(1)=2 and p(3)= 5 divides 10."
			],
			"xref": [
				"Cf. A067255 (array with multiplicities)."
			],
			"keyword": "nonn,easy,tabf",
			"offset": "2,1",
			"author": "_Wolfdieter Lang_, May 17 2002",
			"references": 1,
			"revision": 12,
			"time": "2018-02-26T00:53:45-05:00",
			"created": "2003-05-16T03:00:00-04:00"
		}
	]
}