{
	"greeting": "Greetings from The On-Line Encyclopedia of Integer Sequences! http://oeis.org/",
	"query": "id:A070984",
	"count": 1,
	"start": 0,
	"results": [
		{
			"number": 70984,
			"data": "2,3,3,4,4,5,5,5,6,6,7,7,7,8,8,8,9,9,9,10,10,10,10,11,11,11,12,12,12,13,13,13,13,14,14,14,15,15,15,15,16,16,16,16,17,17,17,17,18,18,18,18,19,19,19,20,20,20,20,21,21,21,21,22,22,22,22,22,23,23,23,23,24,24,24",
			"name": "a(n)=k such that kLog(k)\u003cn\u003c(k+1)Log(k+1).",
			"program": [
				"(PARI) for(n=1,100,s=1; while(s*log(s)\u003cn,s++); print1(s,\",\"))"
			],
			"keyword": "easy,nonn",
			"offset": "1,1",
			"author": "_Benoit Cloitre_, May 18 2002",
			"references": 0,
			"revision": 6,
			"time": "2012-03-30T18:38:59-04:00",
			"created": "2003-05-16T03:00:00-04:00"
		}
	]
}