{
	"greeting": "Greetings from The On-Line Encyclopedia of Integer Sequences! http://oeis.org/",
	"query": "id:A070102",
	"count": 1,
	"start": 0,
	"results": [
		{
			"number": 70102,
			"data": "0,0,0,0,0,0,1,0,1,0,2,0,2,1,3,2,3,2,5,3,6,2,8,5,9,5,9,6,11,6,14,9,14,9,17,11,19,12,19,15,23,13,27,18,26,16,32,20,33,21,34,26,40,23,42,29,42,29,50,32,53,35,48,41,58,37,64,45,60,42,71",
			"name": "Number of obtuse integer triangles with perimeter n and relatively prime side lengths.",
			"comment": [
				"a(n) = A051493(n) - A070094(n) - A070109(n)."
			],
			"link": [
				"R. Zumkeller, \u003ca href=\"/A070080/a070080.txt\"\u003eInteger-sided triangles\u003c/a\u003e"
			],
			"example": [
				"For n=9 there are A005044(9)=3 integer triangles: [1,4,4], [2,3,4] and [3,3,3]; only one of them is obtuse: 2^2+3^2\u003c16=4^2 and GCD(2,3,4)=1, therefore a(9)=1."
			],
			"xref": [
				"Cf. A070080, A070081, A070082, A070101, A051493, A070104, A070107, A070084, A070128."
			],
			"keyword": "nonn",
			"offset": "1,11",
			"author": "_Reinhard Zumkeller_, May 05 2002",
			"references": 8,
			"revision": 5,
			"time": "2012-03-30T18:50:20-04:00",
			"created": "2003-05-16T03:00:00-04:00"
		}
	]
}