{
	"greeting": "Greetings from The On-Line Encyclopedia of Integer Sequences! http://oeis.org/",
	"query": "id:A070361",
	"count": 1,
	"start": 0,
	"results": [
		{
			"number": 70361,
			"data": "1,3,9,27,40,38,32,14,1,3,9,27,40,38,32,14,1,3,9,27,40,38,32,14,1,3,9,27,40,38,32,14,1,3,9,27,40,38,32,14,1,3,9,27,40,38,32,14,1,3,9,27,40,38,32,14,1,3,9,27,40,38,32,14,1,3,9,27,40,38,32,14,1,3,9,27,40,38,32",
			"name": "a(n) = 3^n mod 41.",
			"link": [
				"G. C. Greubel, \u003ca href=\"/A070361/b070361.txt\"\u003eTable of n, a(n) for n = 0..1000\u003c/a\u003e",
				"\u003ca href=\"/index/Rec#order_05\"\u003eIndex entries for linear recurrences with constant coefficients\u003c/a\u003e, signature (1, 0, 0, -1, 1)."
			],
			"formula": [
				"a(n) = (1/56)*{132*(n mod 8)+167*[(n+1) mod 8]+83*[(n+2) mod 8]+55*[(n+3) mod 8]-50*[(n+4) mod 8]-85*[(n+5) mod 8]-[(n+6) mod 8]+27*[(n+7) mod 8]}, with n\u003e=0. - _Paolo P. Lava_, Feb 24 2010",
				"G.f.: (1+2*x+6*x^2+18*x^3+14*x^4)/ ((1-x) * (1+x^4)). - _R. J. Mathar_, Mar 13 2010",
				"a(n) = a(n-2)+a(n-6)-a(n-4). - _Vincenzo Librandi_, Feb 06 2011",
				"a(n) = a(n-8). - _G. C. Greubel_, Mar 09 2016"
			],
			"mathematica": [
				"PowerMod[3, Range[0,50], 41] (* or *) Table[Mod[3^n, 41], {n, 0, 100}] (* _G. C. Greubel_, Mar 09 2016 *)",
				"LinearRecurrence[{1,0,0,-1,1},{1,3,9,27,40},100] (* _Harvey P. Dale_, Mar 27 2020 *)"
			],
			"program": [
				"(PARI) a(n)=lift(Mod(3,41)^n) \\\\ _Charles R Greathouse IV_, Mar 22 2016"
			],
			"keyword": "nonn,easy",
			"offset": "0,2",
			"author": "_N. J. A. Sloane_, May 12 2002",
			"references": 3,
			"revision": 28,
			"time": "2020-03-27T17:25:15-04:00",
			"created": "2003-05-16T03:00:00-04:00"
		}
	]
}