{
	"greeting": "Greetings from The On-Line Encyclopedia of Integer Sequences! http://oeis.org/",
	"query": "id:A070231",
	"count": 1,
	"start": 0,
	"results": [
		{
			"number": 70231,
			"data": "1,3,7,31,1279,9202687,3692849258577919,98367959484921734629696721986125823,3882894052327310957045599009145809243674851356642054390303168725061781159935999",
			"name": "Let u(k), v(k), w(k) satisfy the recursions u(1) = v(1) = w(1) = 1, u(k+1) = u(k) + v(k) + w(k), v(k+1) = u(k)*v(k) + v(k)*w(k) + w(k)*u(k), and w(k+1) = u(k)*v(k)*w(k) for k \u003e= 1; then a(n) = u(n).",
			"link": [
				"Petros Hadjicostas, \u003ca href=\"/A070231/b070231.txt\"\u003eTable of n, a(n) for n = 1..12\u003c/a\u003e"
			],
			"formula": [
				"Let C be the positive root of x^3 + x^2 - 2*x - 1 = 0; that is, C = 1.246979603717... = A255249. Then Lim_{n -\u003e infinity} u(n)^(C+1)/w(n)= Lim_{n -\u003e infinity} v(n)^C/w(n) = Lim_{n -\u003e infinity} u(n)^B/v(n) = 1 with B = C + 1 - 1/(1 + C) = 1.8019377... = A160389. [corrected by _Vaclav Kotesovec_, May 11 2020]",
				"a(n) ~ gu^((1 + C)^n), where C is defined above and gu = 1.131945853718244297... The relation between constants gu, gv (see A070234) and gw (see A070233) is gu^(1 + C) = gv^C = gw. - _Vaclav Kotesovec_, May 11 2020"
			],
			"mathematica": [
				"a[1] = 1; v[1] = 1; w[1] = 1; a[k_] := a[k] = a[k - 1] + v[k - 1] + w[k - 1]; v[k_] := v[k] = a[k - 1]*v[k - 1] + v[k - 1]*w[k - 1] + w[k - 1]*a[k - 1]; w[k_] := w[k] = a[k - 1]*v[k - 1]*w[k - 1]; Table[a[n], {n, 1, 9}] (* _Vaclav Kotesovec_, May 11 2020 *)"
			],
			"program": [
				"(PARI) lista(nn) = {my(u = vector(nn)); my(v = vector(nn)); my(w = vector(nn)); u[1] = 1; v[1] = 1; w[1] = 1; for (n=2, nn, u[n] = u[n-1] + v[n-1] + w[n-1]; v[n] = u[n-1]*v[n-1] + v[n-1]*w[n-1] + w[n-1]*u[n-1]; w[n] = u[n-1]*v[n-1]*w[n-1];); u; } \\\\ _Petros Hadjicostas_, May 11 2020"
			],
			"xref": [
				"Cf. A003686, A064183, A064526, A064847, A070233 (= w), A070234 (= v), A094303, A160389, A255249."
			],
			"keyword": "easy,nonn",
			"offset": "1,2",
			"author": "_Benoit Cloitre_, May 08 2002",
			"references": 8,
			"revision": 40,
			"time": "2020-05-11T20:03:56-04:00",
			"created": "2003-05-16T03:00:00-04:00"
		}
	]
}