{
	"greeting": "Greetings from The On-Line Encyclopedia of Integer Sequences! http://oeis.org/",
	"query": "id:A070401",
	"count": 1,
	"start": 0,
	"results": [
		{
			"number": 70401,
			"data": "1,6,36,28,27,21,32,4,24,3,18,14,37,34,16,2,12,25,9,7,42,17,8,1,6,36,28,27,21,32,4,24,3,18,14,37,34,16,2,12,25,9,7,42,17,8,1,6,36,28,27,21,32,4,24,3,18,14,37,34,16,2,12,25,9,7,42,17,8,1,6,36,28,27,21,32,4,24",
			"name": "a(n) = 6^n mod 47.",
			"comment": [
				"Periodic with period = 23. - _Harvey P. Dale_, Feb 21 2015"
			],
			"link": [
				"G. C. Greubel, \u003ca href=\"/A070401/b070401.txt\"\u003eTable of n, a(n) for n = 0..1000\u003c/a\u003e",
				"\u003ca href=\"/index/Rec#order_23\"\u003eIndex entries for linear recurrences with constant coefficients\u003c/a\u003e, signature (0, 0, 0, 0, 0, 0, 0, 0, 0, 0, 0, 0, 0, 0, 0, 0, 0, 0, 0, 0, 0, 0, 1)."
			],
			"formula": [
				"a(n) = a(n-23). - _G. C. Greubel_, Mar 19 2016"
			],
			"mathematica": [
				"PowerMod[6,Range[0,80],47] (* or *) PadRight[{},80,{1,6,36,28,27,21,32,4,24,3,18,14,37,34,16,2,12,25,9,7,42,17,8}] (* _Harvey P. Dale_, Feb 21 2015 *)"
			],
			"program": [
				"(Sage) [power_mod(6,n,47)for n in range(0,78)] # _Zerinvary Lajos_, Nov 27 2009",
				"(PARI) a(n) = lift(Mod(6, 47)^n); \\\\ _Michel Marcus_, Mar 19 2016"
			],
			"keyword": "nonn,easy",
			"offset": "0,2",
			"author": "_N. J. A. Sloane_, May 12 2002",
			"references": 1,
			"revision": 20,
			"time": "2019-12-07T12:18:23-05:00",
			"created": "2003-05-16T03:00:00-04:00"
		}
	]
}