{
	"greeting": "Greetings from The On-Line Encyclopedia of Integer Sequences! http://oeis.org/",
	"query": "id:A070432",
	"count": 1,
	"start": 0,
	"results": [
		{
			"number": 70432,
			"data": "0,1,4,1,0,1,4,1,0,1,4,1,0,1,4,1,0,1,4,1,0,1,4,1,0,1,4,1,0,1,4,1,0,1,4,1,0,1,4,1,0,1,4,1,0,1,4,1,0,1,4,1,0,1,4,1,0,1,4,1,0,1,4,1,0,1,4,1,0,1,4,1,0,1,4,1,0,1,4,1,0,1,4,1,0,1,4,1,0,1,4,1,0,1,4,1,0,1,4,1,0",
			"name": "Period 4: repeat [0, 1, 4, 1]; a(n) = n^2 mod 8.",
			"comment": [
				"Multiplicative with a(2) = 4, a(2^e) = 0 if e \u003e= 2, a(p^e) = 1 otherwise. - _David W. Wilson_, Jun 12 2005"
			],
			"link": [
				"\u003ca href=\"/index/Rec#order_04\"\u003eIndex entries for linear recurrences with constant coefficients\u003c/a\u003e, signature (0,0,0,1). - _R. J. Mathar_, Apr 20 2010"
			],
			"formula": [
				"From _R. J. Mathar_, Apr 20 2010: (Start)",
				"a(n) = a(n-4) for n \u003e 3.",
				"G.f.: -x*(1+4*x+x^2) / ( (x-1)*(1+x)*(x^2+1) ). (End)",
				"From _Paolo P. Lava_, May 14 2010: (Start)",
				"a(n) = (1/2)*((n mod 4) + 2*((n+1) mod 4) - ((n+2) mod 4)).",
				"a(n) = (1/2)*(3 - 2*i^n + (-1)^n - 2*(-i)^n), i = sqrt(-1). (End)",
				"Dirichlet g.f.: zeta(s)*(1 + 4*2^(-s))*(1 - 2^(-s)). - _R. J. Mathar_, Mar 10 2011",
				"a(n) = (n mod 2) + 4*floor(((n+1) mod 4)/3). - _Gary Detlefs_, Dec 29 2011",
				"From _Wesley Ivan Hurt_, Mar 19 2015: (Start)",
				"a(n) = (((n+1) mod 4) - 1)^2.",
				"a(n) = (1 + (-1)^n - 2(-1)^((2n + 1 - (-1)^n)/4))^2/4. (End)",
				"E.g.f.: 2*cosh(x) + sinh(x) - 2*cos(x). - _G. C. Greubel_, Mar 22 2016",
				"a(n) = (3 + cos(n*Pi) - 4*cos(n*Pi/2))/2. - _Wesley Ivan Hurt_, Dec 21 2016",
				"a(n) = a(-n) for all n in Z. - _Michael Somos_, Dec 22 2016"
			],
			"example": [
				"G.f. = x + 4*x^2 + x^3 + x^5 + 4*x^6 + x^7 + x^9 + 4*x^10 + x^11 + x^13 + ..."
			],
			"maple": [
				"seq(n mod 2 + 4*floor(((n+1) mod 4)/3), n = 0..200) # _Gary Detlefs_, Dec 29 2011"
			],
			"mathematica": [
				"Table[Mod[n^2, 8], {n, 0, 99}] (* _Vladimir Joseph Stephan Orlovsky_, Apr 21 2011 *)",
				"Mod[Range[0, 99]^2, 8] (* _Alonso del Arte_, Mar 20 2015 *)"
			],
			"program": [
				"(PARI) a(n)=n^2%8 \\\\ _Charles R Greathouse IV_, Oct 07 2015",
				"(MAGMA) \u0026cat [[0, 1, 4, 1]^^30]; // _Wesley Ivan Hurt_, Dec 21 2016"
			],
			"xref": [
				"Cf. A070430, A070431."
			],
			"keyword": "nonn,easy,mult",
			"offset": "0,3",
			"author": "_N. J. A. Sloane_, May 12 2002",
			"references": 7,
			"revision": 52,
			"time": "2021-06-12T02:56:11-04:00",
			"created": "2003-05-16T03:00:00-04:00"
		}
	]
}