{
	"greeting": "Greetings from The On-Line Encyclopedia of Integer Sequences! http://oeis.org/",
	"query": "id:A070629",
	"count": 1,
	"start": 0,
	"results": [
		{
			"number": 70629,
			"data": "0,1,32,13,12,43,2,17,16,31,42,5,18,27,38,7,6,21,26,11,10,37,22,23,24,9,36,35,20,25,40,39,8,19,28,41,4,15,30,29,44,3,34,33,14,45,0,1,32,13,12,43,2,17,16,31,42,5,18,27,38,7,6,21,26,11,10,37,22,23,24,9,36,35,20",
			"name": "n^5 mod 46.",
			"comment": [
				"Periodic, with period 46. - _Harvey P. Dale_, Nov 23 2014"
			],
			"link": [
				"\u003ca href=\"/index/Rec#order_46\"\u003eIndex entries for linear recurrences with constant coefficients\u003c/a\u003e, signature (0, 0, 0, 0, 0, 0, 0, 0, 0, 0, 0, 0, 0, 0, 0, 0, 0, 0, 0, 0, 0, 0, 0, 0, 0, 0, 0, 0, 0, 0, 0, 0, 0, 0, 0, 0, 0, 0, 0, 0, 0, 0, 0, 0, 0, 1)."
			],
			"mathematica": [
				"PowerMod[Range[0,80],5,46] (* _Harvey P. Dale_, Nov 23 2014 *)"
			],
			"program": [
				"(Sage) [power_mod(n,5,46)for n in range(0, 75)] # - _Zerinvary Lajos_, Nov 05 2009",
				"(PARI) a(n)=n^5%46 \\\\ _Charles R Greathouse IV_, Apr 06 2016"
			],
			"keyword": "nonn,easy",
			"offset": "0,3",
			"author": "_N. J. A. Sloane_, May 13 2002",
			"references": 0,
			"revision": 13,
			"time": "2019-12-07T12:18:23-05:00",
			"created": "2003-05-16T03:00:00-04:00"
		}
	]
}