{
	"greeting": "Greetings from The On-Line Encyclopedia of Integer Sequences! http://oeis.org/",
	"query": "id:A070800",
	"count": 1,
	"start": 0,
	"results": [
		{
			"number": 70800,
			"data": "2,3,3,5,3,7,5,7,5,11,5,13,7,11,11,17,7,19,11,13,11,23,11,23,13,19,13,29,11,31,17,23,17,29,13,37,19,29,17,41,13,43,23,29,23,47,17,43,23,37,29,53,19,41,29,37,29,59,17,61,31,37,37,53,23,67,37,47,29,71,29,73,37",
			"name": "Smallest prime greater than phi(n): a(n) = nextprime(phi(n)).",
			"link": [
				"Antti Karttunen, \u003ca href=\"/A070800/b070800.txt\"\u003eTable of n, a(n) for n = 2..16384\u003c/a\u003e"
			],
			"formula": [
				"a(n) = prime(1 + primepi(phi(n))) = A151800(A000010(n))."
			],
			"mathematica": [
				"Table[Prime[1+PrimePi[EulerPhi[w]]], {w, 2, 128}] (* or *)",
				"NextPrime[EulerPhi[#]] \u0026 /@ Range[2,80] (* _Harvey P. Dale_, Jan 30 2011 *)"
			],
			"program": [
				"(PARI) a(n)=nextprime(eulerphi(n)+1) \\\\ _Charles R Greathouse IV_, Oct 31 2011"
			],
			"xref": [
				"Cf. A000010, A070801, A151800, A078773."
			],
			"keyword": "easy,nonn",
			"offset": "2,1",
			"author": "_Labos Elemer_, May 08 2002",
			"references": 6,
			"revision": 23,
			"time": "2017-12-05T04:08:13-05:00",
			"created": "2003-05-16T03:00:00-04:00"
		}
	]
}