{
	"greeting": "Greetings from The On-Line Encyclopedia of Integer Sequences! http://oeis.org/",
	"query": "id:A070892",
	"count": 1,
	"start": 0,
	"results": [
		{
			"number": 70892,
			"data": "1,2,3,5,7,11,61,154,857,859,2141,2153,2161,39011,39065,39095,56026,56045,56101,56189,56242,56245,56254,56263,56359,2985634,2985703,2986715,2986718,2986721,16904494,16904497,16904531,16904534",
			"name": "Numbers n such that absolute value of Sum_{k=1..n} mu(k)/k sets a new minimum.",
			"mathematica": [
				"s = 1; t = 0; Do[t = t + MoebiusMu[n] / n; If[ s \u003e Abs[t], s = Abs[t]; Print[n]], {n, 1, 2 * 10^7}]"
			],
			"program": [
				"PARI: t = 0.; t1 = 1; v = []; for( n = 1, 1400, t = t + mu( n) / n; if( (t / t1 )^2 \u003c 1, t1 = t; v = concat( v, n), )); v"
			],
			"xref": [
				"Cf. A070888-A070891."
			],
			"keyword": "nonn",
			"offset": "1,2",
			"author": "_Donald S. McDonald_, May 17 2002",
			"ext": [
				"Edited and extended by _Robert G. Wilson v_, May 24 2002"
			],
			"references": 0,
			"revision": 6,
			"time": "2015-03-17T02:13:26-04:00",
			"created": "2003-05-16T03:00:00-04:00"
		}
	]
}