{
	"greeting": "Greetings from The On-Line Encyclopedia of Integer Sequences! http://oeis.org/",
	"query": "id:A070084",
	"count": 1,
	"start": 0,
	"results": [
		{
			"number": 70084,
			"data": "1,1,2,1,1,1,1,1,3,2,1,1,1,1,1,1,1,4,1,1,1,1,1,2,1,2,1,1,1,1,3,1,1,5,1,1,1,2,1,1,1,1,1,1,1,1,1,2,1,2,1,1,1,6,1,1,1,1,1,1,1,1,1,1,1,1,1,4,1,1,2,1,1,1,1,3,1,1,1,1,1,3,1,7,2,1,2,1,1,1",
			"name": "Greatest common divisor of sides of integer triangles [A070080(n), A070081(n), A070082(n)], sorted by perimeter, sides lexicographically ordered.",
			"comment": [
				"a(n)\u003e1 iff there exists a smaller similar triangle [A070080(k), A070081(k), A070082(k)] with k\u003cn and A070080(n)=A070080(k)*a(n), A070081(n)=A070081(k)*a(n) and A070082(n)=A070082(k)*a(n)."
			],
			"link": [
				"R. Zumkeller, \u003ca href=\"/A070080/a070080.txt\"\u003eInteger-sided triangles\u003c/a\u003e"
			],
			"formula": [
				"a(n) = GCD(A070080(n), A070081(n), A070082(n))."
			],
			"mathematica": [
				"maxPer = 22; maxSide = Floor[(maxPer - 1)/2]; order[{a_, b_, c_}] := (a + b + c)*maxPer^3 + a*maxPer^2 + b*maxPer + c; triangles = Reap[Do[If[a + b + c \u003c= maxPer \u0026\u0026 c - b \u003c a \u003c c + b \u0026\u0026 b - a \u003c c \u003c b + a \u0026\u0026 c - a \u003c b \u003c c + a, Sow[{a, b, c}]], {a, 1, maxSide}, {b, a, maxSide}, {c, b, maxSide}]][[2, 1]]; GCD @@@ Sort[triangles, order[#1] \u003c order[#2] \u0026] (* _Jean-François Alcover_, May 27 2013 *)"
			],
			"xref": [
				"Cf. A051493, A005044, A070091, A070094, A070102, A070109, A070110, A070113, A070116, A070119, A070128, A070137."
			],
			"keyword": "nonn",
			"offset": "1,3",
			"author": "_Reinhard Zumkeller_, May 05 2002",
			"references": 21,
			"revision": 11,
			"time": "2013-05-27T05:07:25-04:00",
			"created": "2003-05-16T03:00:00-04:00"
		}
	]
}