{
	"greeting": "Greetings from The On-Line Encyclopedia of Integer Sequences! http://oeis.org/",
	"query": "id:A070143",
	"count": 1,
	"start": 0,
	"results": [
		{
			"number": 70143,
			"data": "17,39,52,212,252,368,375,493,561,587,659,839,957,972,1156,1186,1196,1297,1582,1912,1955,1971,2115,2352,2555,2574,2713,3251,3473,3728,3746,4286,4298,4313,4319,4330,5251,5272,5378",
			"name": "Numbers n such that [A070080(n), A070081(n), A070082(n)] is an integer triangle with integer area, having relatively prime side lengths.",
			"link": [
				"Eric Weisstein's World of Mathematics, \u003ca href=\"http://mathworld.wolfram.com/HeronianTriangle.html\"\u003eHeronian Triangle\u003c/a\u003e.",
				"R. Zumkeller, \u003ca href=\"/A070080/a070080.txt\"\u003eInteger-sided triangles\u003c/a\u003e"
			],
			"xref": [
				"Cf. A070142."
			],
			"keyword": "nonn",
			"offset": "1,1",
			"author": "_Reinhard Zumkeller_, May 05 2002",
			"references": 3,
			"revision": 10,
			"time": "2017-06-12T09:42:07-04:00",
			"created": "2003-05-16T03:00:00-04:00"
		}
	]
}