{
	"greeting": "Greetings from The On-Line Encyclopedia of Integer Sequences! http://oeis.org/",
	"query": "id:A070385",
	"count": 1,
	"start": 0,
	"results": [
		{
			"number": 70385,
			"data": "1,5,25,11,17,9,7,35,23,1,5,25,11,17,9,7,35,23,1,5,25,11,17,9,7,35,23,1,5,25,11,17,9,7,35,23,1,5,25,11,17,9,7,35,23,1,5,25,11,17,9,7,35,23,1,5,25,11,17,9,7,35,23,1,5,25,11,17,9,7,35,23,1,5,25,11,17,9,7,35,23",
			"name": "a(n) = 5^n mod 38.",
			"link": [
				"G. C. Greubel, \u003ca href=\"/A070385/b070385.txt\"\u003eTable of n, a(n) for n = 0..1000\u003c/a\u003e",
				"\u003ca href=\"/index/Rec#order_09\"\u003eIndex entries for linear recurrences with constant coefficients\u003c/a\u003e, signature (0,0,0,0,0,0,0,0,1). [_R. J. Mathar_, Apr 20 2010]"
			],
			"formula": [
				"a(n) = (1/324)*{925*(n mod 9)+565*[(n+1) mod 9]-875*[(n+2) mod 9]+205*[(n+3) mod 9]+421*[(n+4) mod 9]-83*[(n+5) mod 9]+637*[(n+6) mod 9]-587*[(n+7) mod 9]-11*[(n+8) mod 9]}, with n\u003e=0. - _Paolo P. Lava_, Apr 16 2010",
				"From _R. J. Mathar_, Apr 20 2010: (Start)",
				"a(n) = a(n-9).",
				"G.f.: ( -1-5*x-25*x^2-11*x^3-17*x^4-9*x^5-7*x^6-35*x^7-23*x^8 ) / ( (x-1)*(1+x+x^2)*(x^6+x^3+1) ). (End)"
			],
			"mathematica": [
				"PowerMod[5, Range[0, 50], 38] (* _G. C. Greubel_, Mar 16 2016 *)"
			],
			"program": [
				"(Sage) [power_mod(5,n,38) for n in range(0,81)] # _Zerinvary Lajos_, Nov 26 2009",
				"(PARI) a(n) = lift(Mod(5, 38)^n); \\\\ _Altug Alkan_, Mar 16 2016"
			],
			"keyword": "nonn",
			"offset": "0,2",
			"author": "_N. J. A. Sloane_, May 12 2002",
			"references": 1,
			"revision": 26,
			"time": "2019-12-07T12:18:23-05:00",
			"created": "2003-05-16T03:00:00-04:00"
		}
	]
}