{
	"greeting": "Greetings from The On-Line Encyclopedia of Integer Sequences! http://oeis.org/",
	"query": "id:A071613",
	"count": 1,
	"start": 0,
	"results": [
		{
			"number": 71613,
			"data": "2,523,22193,1442173,5521819,354963229,881160173,881160173,441586802467,3085029222449",
			"name": "a(n) is the smallest prime that is the first of n consecutive primes with equal digit sum.",
			"comment": [
				"a(11) \u003e 10^14. - _Giovanni Resta_, Aug 15 2013"
			],
			"example": [
				"a(3) = 22193, since 22193,22229,22247 are three consecutive primes with digit sum 17 and this is the first occurrence of three consecutive primes with equal digit sum."
			],
			"xref": [
				"Cf. A006567, A070905, A071614."
			],
			"keyword": "base,more,nonn",
			"offset": "1,1",
			"author": "_Klaus Brockhaus_, May 27 2002",
			"ext": [
				"a(7)-a(9) from _Donovan Johnson_, Dec 02 2009",
				"a(10) from _Giovanni Resta_, Aug 14 2013"
			],
			"references": 5,
			"revision": 13,
			"time": "2019-04-28T10:53:16-04:00",
			"created": "2003-05-16T03:00:00-04:00"
		}
	]
}