{
	"greeting": "Greetings from The On-Line Encyclopedia of Integer Sequences! http://oeis.org/",
	"query": "id:A071198",
	"count": 1,
	"start": 0,
	"results": [
		{
			"number": 71198,
			"data": "2,5,7,19,43,53,59,67,83,101,103,109,163,179,181,191,193,199,229,233,241,257,263,271,277,313,337,347,367,373,431,433,449,467,491,499,521,541,547,571,587,607,613,619,643,659,683,701",
			"name": "Impossible primes in A071195. These primes are not terminal primes of shortest consecutive prime sequences initiated with n-th prime and providing prime-sum.",
			"link": [
				"Michael De Vlieger, \u003ca href=\"/A071198/b071198.txt\"\u003eTable of n, a(n) for n = 1..10000\u003c/a\u003e"
			],
			"mathematica": [
				"Complement[Prime@ Range@ PrimePi@ Last@ #, #] \u0026@ Prime@ Table[k = 1; While[! PrimeQ@ Total@ Prime@ Range[n, n + k], k++]; n + k, {n, 125}] (* _Michael De Vlieger_, Jul 18 2017 *)"
			],
			"xref": [
				"Cf. A071194, A071195, A071196, A071197."
			],
			"keyword": "nonn",
			"offset": "1,1",
			"author": "_Labos Elemer_, May 16 2002",
			"references": 5,
			"revision": 9,
			"time": "2017-07-19T08:29:40-04:00",
			"created": "2003-05-16T03:00:00-04:00"
		}
	]
}