{
	"greeting": "Greetings from The On-Line Encyclopedia of Integer Sequences! http://oeis.org/",
	"query": "id:A071190",
	"count": 1,
	"start": 0,
	"results": [
		{
			"number": 71190,
			"data": "1,3,2,7,3,3,2,5,13,3,3,7,7,3,3,31,3,13,5,7,2,3,3,5,31,7,5,7,5,3,2,7,3,3,3,13,19,5,7,5,7,3,11,7,13,3,3,31,19,31,3,7,3,5,3,5,5,5,5,7,31,3,13,127,7,3,17,7,3,3,3,13,37,19,31,7,3,7,5,31",
			"name": "Greatest prime factor of sum of divisors of n, for n \u003e= 2; a(1) = 1.",
			"comment": [
				"a(n) is the greatest noncomposite factor of the sum of divisors of n. (Cf. A008578.) - _Omar E. Pol_, Feb 11 2018"
			],
			"link": [
				"Antti Karttunen, \u003ca href=\"/A071190/b071190.txt\"\u003eTable of n, a(n) for n = 1..10000\u003c/a\u003e"
			],
			"formula": [
				"a(n) = A006530(A000203(n))."
			],
			"mathematica": [
				"Table[FactorInteger[DivisorSigma[1,n]][[-1,1]],{n,80}] (* _Harvey P. Dale_, Nov 18 2014 *)"
			],
			"program": [
				"(PARI) a(n) = if (n==1, 1, my(f = factor(sigma(n))); f[#f~,1]); \\\\ _Michel Marcus_, Sep 21 2014"
			],
			"xref": [
				"Cf. A000203, A006530, A071188, A071189."
			],
			"keyword": "nonn",
			"offset": "1,2",
			"author": "_Reinhard Zumkeller_, May 15 2002",
			"ext": [
				"Name clarified by _David A. Corneth_ and _Omar E. Pol_, Feb 11 2018"
			],
			"references": 10,
			"revision": 29,
			"time": "2018-02-20T22:53:29-05:00",
			"created": "2003-05-16T03:00:00-04:00"
		}
	]
}