{
	"greeting": "Greetings from The On-Line Encyclopedia of Integer Sequences! http://oeis.org/",
	"query": "id:A071896",
	"count": 1,
	"start": 0,
	"results": [
		{
			"number": 71896,
			"data": "1,4,25,254,3835,80789,2265927,81654161,3676703172,202300328621,13355498392158,1041931174916945,94829092415834153,9958096634837503010,1195066425272916195353,162538991933751440071018,24869660832289243247061107",
			"name": "CONTINUANT transform of triangular numbers 1, 3, 6, 10, ...",
			"comment": [
				"Equals the eigensequence of an infinite lower triangular matrix with (1, 3, 6,...) in the main diagonal and (1, 1, 1,...) in the subdiagonal; with the rest zeros. - _Gary W. Adamson_, Apr 13 2009"
			],
			"link": [
				"Alois P. Heinz, \u003ca href=\"/A071896/b071896.txt\"\u003eTable of n, a(n) for n = 1..200\u003c/a\u003e",
				"N. J. A. Sloane, \u003ca href=\"/transforms.txt\"\u003eTransforms\u003c/a\u003e"
			],
			"maple": [
				"a:= proc(n) option remember; `if`(n\u003c0, 0,",
				"      `if`(n=0, 1, n*(n+1)/2 *a(n-1) +a(n-2)))",
				"    end:",
				"seq(a(n), n=1..20);  # _Alois P. Heinz_, Aug 06 2013"
			],
			"keyword": "nonn",
			"offset": "1,2",
			"author": "_N. J. A. Sloane_, Jun 10 2002",
			"references": 3,
			"revision": 12,
			"time": "2013-08-06T10:32:09-04:00",
			"created": "2003-05-16T03:00:00-04:00"
		}
	]
}