{
	"greeting": "Greetings from The On-Line Encyclopedia of Integer Sequences! http://oeis.org/",
	"query": "id:A071370",
	"count": 1,
	"start": 0,
	"results": [
		{
			"number": 71370,
			"data": "10780552,62198632,884811061,1457032501,3573315892,7321991041,7391371681,8557865812,11434075381,16893247141,21599190901,22487905441,28044279892,28273111012,37923188932,50238568801,59635316161",
			"name": "Numbers n such that n+0, n+1, ... and n+7 are, in some order, 1 * a prime, 2 * a prime, ... and 8 * a prime.",
			"example": [
				"10780552 is there because 10780552=8*1347569, 10780553=7*1540079, 10780554=6*1796759, 10780555=5*2156111, 10780556=4*2695139, 10780557=3*3593519, 10780558=2*5390279 and 10780559=1*10780559. The left factors are the integers 1 to 8; and the right factors are primes."
			],
			"xref": [
				"Cf. A071367 - A071373."
			],
			"keyword": "nonn",
			"offset": "1,1",
			"author": "_Don Reble_, May 21 2002",
			"references": 0,
			"revision": 6,
			"time": "2017-10-19T03:14:02-04:00",
			"created": "2003-05-16T03:00:00-04:00"
		}
	]
}