{
	"greeting": "Greetings from The On-Line Encyclopedia of Integer Sequences! http://oeis.org/",
	"query": "id:A071770",
	"count": 1,
	"start": 0,
	"results": [
		{
			"number": 71770,
			"data": "0,1,2,4,5,3,8,6,7,12,13,14,16,17,15,11,9,10,24,25,26,19,20,18,23,21,22,9,37,38,40,41,39,44,42,43,48,49,50,52,53,51,47,45,46,33,34,35,28,29,27,32,30,31,72,73,74,76,77,75,80,78,79,57,58,59,61,62,60,56,54,55,69,70",
			"name": "Tersum n + [n/3] (answer recorded in base 10).",
			"comment": [
				"Some numbers occur more than once, but they are sparse."
			],
			"formula": [
				"Tersum m + n: write m and n in base 3 and add mod 3 with no carries, e.g. 5 + 8 = \"21\" + \"22\" = \"10\" = 1. See A004482 for references."
			],
			"xref": [
				"Cf. A004482."
			],
			"keyword": "nonn",
			"offset": "0,3",
			"author": "_Paul D. Hanna_, Jun 04 2002",
			"references": 0,
			"revision": 5,
			"time": "2012-03-30T18:36:31-04:00",
			"created": "2003-05-16T03:00:00-04:00"
		}
	]
}