{
	"greeting": "Greetings from The On-Line Encyclopedia of Integer Sequences! http://oeis.org/",
	"query": "id:A071543",
	"count": 1,
	"start": 0,
	"results": [
		{
			"number": 71543,
			"data": "1,3,-4,12,144,576,-7104,45248,450432,2240512,5292544,-88076288,-62210048,391122944,-1489174528,-165174853632,2565388042240,-28667557511168,-1065163492556800,-14206520416796672,-115544734381899776,5968167755906547712,-258278630548029046784",
			"name": "a(n) = det M_n where M_n is the n X n matrix m(i,j) = prime(i+j); a(0) = 1 by convention.",
			"comment": [
				"a(n) is a square for n=2,4 and 5. Are there any other values?"
			],
			"program": [
				"(PARI) for(n=1,30,print1(matdet(matrix(n,n,i,j, prime(i+j))),\",\"))"
			],
			"keyword": "easy,sign",
			"offset": "0,2",
			"author": "_Benoit Cloitre_, May 30 2002",
			"ext": [
				"Edited by _N. J. A. Sloane_, Sep 18 2008 at the suggestion of R. J. Mathar."
			],
			"references": 4,
			"revision": 9,
			"time": "2012-03-30T18:39:00-04:00",
			"created": "2003-05-16T03:00:00-04:00"
		}
	]
}