{
	"greeting": "Greetings from The On-Line Encyclopedia of Integer Sequences! http://oeis.org/",
	"query": "id:A071061",
	"count": 1,
	"start": 0,
	"results": [
		{
			"number": 71061,
			"data": "1,2,3,4,5,6,7,8,9,10,20,30,40,50,60,70,80,90,100,200,300,400,500,600,700,800,900,1000",
			"name": "Abjad values of the Arabic letters in the traditional order for abjad calculations.",
			"comment": [
				"The Greek or Ionian numerals are similar, but omit 1000. - _Charles R Greathouse IV_, Jun 25 2012"
			],
			"link": [
				"F. Lewis, \u003ca href=\"http://bahai-library.org/essays/abjad.html\"\u003eOverview of the abjad numerological system\u003c/a\u003e"
			],
			"xref": [
				"Subsequence of A037124.",
				"Cf. A051596."
			],
			"keyword": "fini,full,nonn,word",
			"offset": "1,2",
			"author": "Koksal Karakus (karakusk(AT)hotmail.com), May 26 2002",
			"references": 0,
			"revision": 5,
			"time": "2012-06-26T11:30:05-04:00",
			"created": "2003-05-16T03:00:00-04:00"
		}
	]
}