{
	"greeting": "Greetings from The On-Line Encyclopedia of Integer Sequences! http://oeis.org/",
	"query": "id:A071225",
	"count": 1,
	"start": 0,
	"results": [
		{
			"number": 71225,
			"data": "2,225,1003003001,2154335931602036919361,7754752485988106582786291510397200232607,84466085320679991847325449027117479144218810924905247445943615969",
			"name": "n-th power of the product of next n primes.",
			"maple": [
				"with(numtheory):seq(product(ithprime(n*(n-1)/2+i),i=1..n)^n,n=1..7);"
			],
			"keyword": "nonn",
			"offset": "1,1",
			"author": "_Amarnath Murthy_, May 17 2002",
			"ext": [
				"More terms from _Sascha Kurz_, Jan 02 2003"
			],
			"references": 0,
			"revision": 5,
			"time": "2013-12-05T19:55:20-05:00",
			"created": "2003-05-16T03:00:00-04:00"
		}
	]
}