{
	"greeting": "Greetings from The On-Line Encyclopedia of Integer Sequences! http://oeis.org/",
	"query": "id:A071525",
	"count": 1,
	"start": 0,
	"results": [
		{
			"number": 71525,
			"data": "1,3,304,918,23922,2388063,88423222968,655516144546",
			"name": "Numbers n such that sigma(phi(n)) = reversal(n).",
			"comment": [
				"There are no other terms up to 10^7. - _Jason Earls_, Jun 04 2002",
				"There are no other terms up to 45*10^7. - _Farideh Firoozbakht_, Dec 26 2007",
				"There are no other terms up to 10^10. - _Donovan Johnson_, Oct 24 2013",
				"a(9) \u003e 10^12. - _Giovanni Resta_, Nov 10 2017"
			],
			"example": [
				"sigma(phi(304)) = 403 = reverse(304)."
			],
			"mathematica": [
				"Select[Range[10^5], DivisorSigma[1, EulerPhi[ # ]] == FromDigits[Reverse[IntegerDigits[ # ]]] \u0026]"
			],
			"xref": [
				"Cf. A000010, A000203, A135238."
			],
			"keyword": "base,nonn",
			"offset": "1,2",
			"author": "_Joseph L. Pe_, Jun 02 2002",
			"ext": [
				"More terms from _Jason Earls_, Jun 04 2002",
				"Definition restored by _Farideh Firoozbakht_, Dec 26 2007",
				"a(7)-a(8) from _Giovanni Resta_, Nov 10 2017"
			],
			"references": 2,
			"revision": 15,
			"time": "2017-12-15T17:35:55-05:00",
			"created": "2003-05-16T03:00:00-04:00"
		}
	]
}