{
	"greeting": "Greetings from The On-Line Encyclopedia of Integer Sequences! http://oeis.org/",
	"query": "id:A071670",
	"count": 1,
	"start": 0,
	"results": [
		{
			"number": 71670,
			"data": "0,1,2,3,4,5,6,7,8,9,10,11,12,13,14,15,16,17,18,19,20,21,22,23,24,25,26,27,28,29,30,31,32,33,40,35,36,37,38,39,43,41,42,47,44,45,46,48,34,49,50,51,52,53,54,55,56,57,58,59,60,61,62,63,64,65,66,67,68,69,70,71",
			"name": "Permutation A057506 applied six times (\"^6\"), permutation A071662 cubed, permutation A071664 squared.",
			"link": [
				"A. Karttunen, \u003ca href=\"http://www.iki.fi/~kartturi/matikka/Nekomorphisms/gatomorf.htm\"\u003eGatomorphisms\u003c/a\u003e (Includes the complete Scheme source for computing this sequence)",
				"\u003ca href=\"/index/Per#IntegerPermutation\"\u003eIndex entries for sequences that are permutations of the natural numbers\u003c/a\u003e"
			],
			"xref": [
				"Inverse permutation: A071669 and also its car/cdr-flipped conjugate, i.e. A071670(n) = A057163(A071669(A057163(n))) = A057506(A071668(n)) = A071662(A071662(A071662(n))) = A071664(A071664(n)). Cf. also A071666."
			],
			"keyword": "nonn",
			"offset": "0,3",
			"author": "_Antti Karttunen_, May 30 2002",
			"references": 7,
			"revision": 5,
			"time": "2014-04-30T01:53:48-04:00",
			"created": "2003-05-16T03:00:00-04:00"
		}
	]
}