{
	"greeting": "Greetings from The On-Line Encyclopedia of Integer Sequences! http://oeis.org/",
	"query": "id:A071222",
	"count": 1,
	"start": 0,
	"results": [
		{
			"number": 71222,
			"data": "1,2,1,2,1,4,1,2,1,2,1,4,1,2,1,2,1,4,1,2,1,2,1,4,1,2,1,2,1,6,1,2,1,2,1,4,1,2,1,2,1,4,1,2,1,2,1,4,1,2,1,2,1,4,1,2,1,2,1,6,1,2,1,2,1,4,1,2,1,2,1,4,1,2,1,2,1,4,1,2,1,2,1,4,1,2,1,2,1,6,1,2,1,2,1,4,1,2,1,2,1,4,1,2,1,2",
			"name": "Smallest k such that gcd(n,k) = gcd(n+1,k+1).",
			"comment": [
				"a(n) = least m\u003e0 such that gcd(n!+1+m,n-m) = 1.  [_Clark Kimberling_, Jul 21 2012]",
				"From _Antti Karttunen_, Jan 26 2014: (Start)",
				"a(n-1)+1 = A053669(n) = Smallest k \u003e= 2 coprime to n = Smallest prime not dividing n.",
				"Note that a(n) is equal to A235918(n+1) for the first 209 values of n. The first difference occurs at n=210 and A235921 lists the integers n for which a(n) differs from A235918(n+1).",
				"(End)"
			],
			"link": [
				"Clark Kimberling \u0026 Antti Karttunen, \u003ca href=\"/A071222/b071222.txt\"\u003eTable of n, a(n) for n = 0..10001\u003c/a\u003e (Terms up to n=1000 from Kimberling)"
			],
			"mathematica": [
				"sgcd[n_]:=Module[{k=1},While[GCD[n,k]!=GCD[n+1,k+1],k++];k]; Array[sgcd,110] (* _Harvey P. Dale_, Jul 13 2012 *)"
			],
			"program": [
				"(PARI) for(n=1,140,s=1; while(gcd(s,n)\u003cgcd(n+1,s+1),s++); print1(s,\",\"))",
				"(Scheme) (define (A071222 n) (let loop ((k 1)) (cond ((= (gcd n k) (gcd (+ n 1) (+ k 1))) k) (else (loop (+ 1 k)))))) ;; _Antti Karttunen_, Jan 26 2014",
				"(Haskell)",
				"a071222 n = head [k | k \u003c- [1..], gcd (n + 1) (k + 1) == gcd n k]",
				"-- _Reinhard Zumkeller_, Oct 01 2014"
			],
			"xref": [
				"One less than A053669(n+1).",
				"Cf. also A007978, A055874, A235918, A235921."
			],
			"keyword": "easy,nonn",
			"offset": "0,2",
			"author": "_Benoit Cloitre_, Jun 10 2002",
			"ext": [
				"Added a(0)=1. - _N. J. A. Sloane_, Jan 19 2014"
			],
			"references": 8,
			"revision": 27,
			"time": "2019-05-18T05:54:07-04:00",
			"created": "2003-05-16T03:00:00-04:00"
		}
	]
}