{
	"greeting": "Greetings from The On-Line Encyclopedia of Integer Sequences! http://oeis.org/",
	"query": "id:A071584",
	"count": 1,
	"start": 0,
	"results": [
		{
			"number": 71584,
			"data": "1,7,94,343,1042,70861,946711,345328,1084675,70635304,942574282,3476237791,10278214831,70401098869,948270322876,3499051657474,10696503923233,702789315036232,9440197953148261,34137358159889311",
			"name": "Powers of 7 written backwards.",
			"link": [
				"Alois P. Heinz, \u003ca href=\"/A071584/b071584.txt\"\u003eTable of n, a(n) for n = 0..1000\u003c/a\u003e"
			],
			"maple": [
				"a:= n-\u003e (s-\u003e parse(cat(s[-i]$i=1..length(s))))(\"\"||(7^n)):",
				"seq(a(n), n=0..50);  # _Alois P. Heinz_, Apr 09 2015"
			],
			"mathematica": [
				"FromDigits[Reverse[IntegerDigits[#]]]\u0026/@(7^Range[0,20]) (* _Harvey P. Dale_, Apr 29 2012 *)"
			],
			"program": [
				"(PARI) for(i=1,50,n=5^i; s=ceil(log(n)/log(10)); print1(sum(i=0,s,10^(s-i-1)*(floor(n/10^i)-10*floor(n/10^(i+1)))),\",\"))"
			],
			"keyword": "easy,nonn,base",
			"offset": "0,2",
			"author": "_Benoit Cloitre_, Jun 01 2002",
			"references": 1,
			"revision": 11,
			"time": "2015-04-09T11:14:36-04:00",
			"created": "2003-05-16T03:00:00-04:00"
		}
	]
}