{
	"greeting": "Greetings from The On-Line Encyclopedia of Integer Sequences! http://oeis.org/",
	"query": "id:A071899",
	"count": 1,
	"start": 0,
	"results": [
		{
			"number": 71899,
			"data": "1,2,3,7,13,31,37,43,73,109,131,199,229,313,337,421,433,443,487,571,601,631,661,691,769,1051,1093,1297,1373,1451,1471,1489,1601,1783,1871,2311,2341,2591,2699,2731,2801,2953,3067,3527,3697,4051",
			"name": "a(0)=1 and for n\u003e0: a(n) = least prime\u003ea(n-1) of form 1+k*n.",
			"link": [
				"R. Zumkeller, \u003ca href=\"/A071899/b071899.txt\"\u003eTable of n, a(n) for n = 0..500\u003c/a\u003e",
				"\u003ca href=\"/index/Pri#primes_AP\"\u003eIndex entries for sequences related to primes in arithmetic progressions\u003c/a\u003e"
			],
			"example": [
				"n=5: in the sequence 1+k*5: 6,11,16,21,26,31,36,41,... the first prime \u003e13=a(4) is 31, therefore a(5)=31."
			],
			"mathematica": [
				"a[0] = 1; a[1] = 2; a[n_] := a[n] = (p = NextPrime[a[n-1]]; While[True, If[Mod[p, n] == 1, Break[], p = NextPrime[p]]]; p); Table[a[n], {n, 0, 45}] (* _Jean-François Alcover_, Oct 10 2011 *)",
				"lp[{n_,p_}]:=Module[{np=NextPrime[p]},While[!IntegerQ[(np-1)/(n+1)],np= NextPrime[np]]; {n+1,np}]; Transpose[NestList[lp,{0,1},50]][[2]] (* _Harvey P. Dale_, May 12 2015 *)"
			],
			"xref": [
				"Cf. A034694, A000040."
			],
			"keyword": "nonn,nice",
			"offset": "0,2",
			"author": "_Reinhard Zumkeller_, Jun 12 2002",
			"references": 2,
			"revision": 16,
			"time": "2018-02-09T21:47:58-05:00",
			"created": "2003-05-16T03:00:00-04:00"
		}
	]
}