{
	"greeting": "Greetings from The On-Line Encyclopedia of Integer Sequences! http://oeis.org/",
	"query": "id:A072990",
	"count": 1,
	"start": 0,
	"results": [
		{
			"number": 72990,
			"data": "1000,15,14,13,12,11,10,9,8,8,8,8,8,8",
			"name": "8 expressed in base n.",
			"comment": [
				"For n\u003e=10 a(n) = 8."
			],
			"example": [
				"The second term is 15, since it is the number 8 expressed in ternary base, so 1*3^1 + 5*3^0 = 8"
			],
			"keyword": "base,easy,nonn",
			"offset": "2,1",
			"author": "Vincenzo Vennarini (vennarini(AT)hotmail.com), Aug 21 2002",
			"references": 0,
			"revision": 1,
			"time": "2003-05-16T03:00:00-04:00",
			"created": "2003-05-16T03:00:00-04:00"
		}
	]
}