{
	"greeting": "Greetings from The On-Line Encyclopedia of Integer Sequences! http://oeis.org/",
	"query": "id:A072603",
	"count": 1,
	"start": 0,
	"results": [
		{
			"number": 72603,
			"data": "4,8,16,17,18,20,24,32,33,34,36,40,48,64,65,66,67,68,69,70,72,73,74,76,80,81,82,84,88,96,97,98,100,104,112,128,129,130,131,132,133,134,136,137,138,140,144,145,146,148,152,160,161,162,164,168,176,192,193",
			"name": "Numbers which in base 2 have more 0's than 1's.",
			"link": [
				"T. D. Noe, \u003ca href=\"/A072603/b072603.txt\"\u003eTable of n, a(n) for n = 1..5202\u003c/a\u003e (numbers up to 2^14)",
				"Jason Bell, Thomas Finn Lidbetter, Jeffrey Shallit, \u003ca href=\"https://arxiv.org/abs/1804.07996\"\u003eAdditive Number Theory via Approximation by Regular Languages\u003c/a\u003e, arXiv:1804.07996 [cs.FL], 2018.",
				"\u003ca href=\"/index/Bi#binary\"\u003eIndex entries for sequences related to binary expansion of n\u003c/a\u003e"
			],
			"example": [
				"8 is present because '1000' contains 3 '0's and 1 '1': 3\u003e1."
			],
			"mathematica": [
				"gtQ[n_] := Module[{a, b}, {a, b} = DigitCount[n, 2]; b \u003e a]; Select[Range[2^8], gtQ] (* _T. D. Noe_, Apr 20 2013 *)"
			],
			"program": [
				"(Haskell)",
				"a072603 n = a072603_list !! (n-1)",
				"a072603_list = filter ((\u003e 0) . a037861) [1..]",
				"-- _Reinhard Zumkeller_, Mar 31 2015",
				"(PARI) is(n)=2*hammingweight(n)\u003cexponent(n)+1 \\\\ _Charles R Greathouse IV_, Apr 18 2020"
			],
			"xref": [
				"Cf. A007088, A000120, A023416, A072600, A072601, A031443, A072602.",
				"Cf. A037861(a(n)) \u003e 0."
			],
			"keyword": "nonn,base,easy",
			"offset": "1,1",
			"author": "_Reinhard Zumkeller_, Jun 23 2002",
			"references": 6,
			"revision": 23,
			"time": "2020-04-18T01:03:16-04:00",
			"created": "2003-05-16T03:00:00-04:00"
		}
	]
}