{
	"greeting": "Greetings from The On-Line Encyclopedia of Integer Sequences! http://oeis.org/",
	"query": "id:A072712",
	"count": 1,
	"start": 0,
	"results": [
		{
			"number": 72712,
			"data": "2,3,5,8167,371321",
			"name": "Primes p such that p divides the (right) concatenation of all numbers from 1 to p written in base 10 (most significant digit on left).",
			"comment": [
				"Right concatenation, normal order.",
				"Primes in A029455. - _Derek Orr_, Oct 04 2014"
			],
			"link": [
				"Carlos Rivera, \u003ca href=\"http://www.primepuzzles.net/puzzles/puzz_190.htm\"\u003ePuzzle 190. A follow up for the puzzle 188\u003c/a\u003e, The Prime Puzzles \u0026 Problems Connection."
			],
			"example": [
				"p=17 is not a term since 1234567891011121314151617 is not divisible by 17."
			],
			"program": [
				"(PARI) p=\"\"; n=1; while(n\u003c10^4, p=concat(p,Str(n)); if(eval(p)%n==0\u0026\u0026isprime(n), print1(n,\", \")); n++) \\\\ _Derek Orr_, Oct 04 2014"
			],
			"xref": [
				"Cf. A029447-A029542, A061931-A061978."
			],
			"keyword": "base,more,nonn",
			"offset": "1,1",
			"author": "_Jeff Heleen_, Aug 07 2002",
			"ext": [
				"Another term from _Jeff Heleen_, Oct 11 2009"
			],
			"references": 0,
			"revision": 18,
			"time": "2021-02-16T00:59:47-05:00",
			"created": "2003-05-16T03:00:00-04:00"
		}
	]
}