{
	"greeting": "Greetings from The On-Line Encyclopedia of Integer Sequences! http://oeis.org/",
	"query": "id:A072542",
	"count": 1,
	"start": 0,
	"results": [
		{
			"number": 72542,
			"data": "2,4,6,10,12,18,20,24,30,36,48,60,60,60,72,84,96,108,120,120,144,168,168,180,180,210,240,240,240,288,288,300,336,336,360,360,360,420,420,420,480,480,504,540,600,600,600,660,660,720,720,720,720,840,840,840",
			"name": "a(n) = the least positive integer k such that sigma(k) \u003e sigma(1) + ... + sigma(n).",
			"example": [
				"sigma(1) + ... + sigma(4) = 15 and k = 10 is the least positive integer such that sigma(k) \u003e 15. Hence a(4) = 10."
			],
			"mathematica": [
				"s = 0; a = {}; For[i = 1, i \u003c= 100, i++, s = s + DivisorSigma[1, i]; k = 1; While[DivisorSigma[1, k] \u003c= s, k = k + 1]; a = Append[a, k]]; a"
			],
			"keyword": "nonn",
			"offset": "1,1",
			"author": "_Joseph L. Pe_, Dec 08 2002",
			"references": 0,
			"revision": 3,
			"time": "2014-02-11T19:05:29-05:00",
			"created": "2003-05-16T03:00:00-04:00"
		}
	]
}