{
	"greeting": "Greetings from The On-Line Encyclopedia of Integer Sequences! http://oeis.org/",
	"query": "id:A072736",
	"count": 1,
	"start": 0,
	"results": [
		{
			"number": 72736,
			"data": "0,1,0,3,0,0,5,2,0,0,7,4,1,0,0,9,6,2,1,0,0,11,8,4,1,1,0,0,13,10,6,3,1,1,0,0,15,12,8,5,2,1,1,0,0,17,14,10,7,3,2,1,1,0,0,19,16,12,9,5,2,2,1,1,0,0,21,18,14,11,7,4,2,2,1,1,0,0,23,20,16,13,9,6,3,2,2,1,1,0,0,25,22",
			"name": "X-projection of the tabular N X N -\u003e N bijection A072732.",
			"program": [
				"(Scheme) (define (A072736 n) (A025581 (A072733 n)))"
			],
			"xref": [
				"The Y-projection is A072737. Composition of A025581 \u0026 A072733. A072783(n) = A072740(n)-A072736(n)."
			],
			"keyword": "nonn,tabl",
			"offset": "0,4",
			"author": "_Antti Karttunen_, Jun 12 2002",
			"references": 5,
			"revision": 2,
			"time": "2014-05-01T02:47:42-04:00",
			"created": "2003-05-16T03:00:00-04:00"
		}
	]
}