{
	"greeting": "Greetings from The On-Line Encyclopedia of Integer Sequences! http://oeis.org/",
	"query": "id:A072751",
	"count": 1,
	"start": 0,
	"results": [
		{
			"number": 72751,
			"data": "1,2,3,5,3,3,2,2,2,2,2,2,2,3,2,2,2,2,2,2,2,2,2,2,2,2,2,2,2,2,2,2,2,2,2,2,2,2,2,2,2,2,2,2,2,2,2,2,2,2,2,2,2,2,2,2,2,2,2,2,2,2,2,2,2,2,2,2,2,2,2,2,2,2,2,2,2,2,2,2,2,2,2,2,2,2,2,2,2,2,2,2,2,2,2,2,2,2,2,2,2,2,2,2,2",
			"name": "Greatest of the most frequent prime factors of squarefree numbers \u003c= n; a(1)=1.",
			"comment": [
				"a(n)=2 for n\u003e14."
			],
			"mathematica": [
				"max = 200; primeFactors = FactorInteger[#][[All, 1]]\u0026 /@ Select[Range[max], SquareFreeQ]; a[n_] := Sort[ Tally[ Take[ primeFactors, n] // Flatten], Which[#1[[2]] \u003e #2[[2]], True, #1[[2]] == #2[[2]], #1[[1]] \u003e #2[[1]], True, False]\u0026 ][[1, 1]]; Table[a[n], {n, 1, primeFactors // Length}] (* _Jean-François Alcover_, Oct 14 2013 *)"
			],
			"xref": [
				"Cf. A005117, A072747, A072748, A072749, A072750."
			],
			"keyword": "nonn,nice",
			"offset": "1,2",
			"author": "_Reinhard Zumkeller_, Jul 08 2002",
			"references": 4,
			"revision": 7,
			"time": "2013-10-15T10:31:39-04:00",
			"created": "2003-05-16T03:00:00-04:00"
		}
	]
}