{
	"greeting": "Greetings from The On-Line Encyclopedia of Integer Sequences! http://oeis.org/",
	"query": "id:A072901",
	"count": 1,
	"start": 0,
	"results": [
		{
			"number": 72901,
			"data": "6,10,14,15,22,26,30,34,35,38,39,42,46,51,55,58,62,66,70,74,78,82,86,87,91,94,95,102,106,110,111,114,115,118,119,122,123,130,134,138,142,143,146,154,155,158,159,166,170,174,178,182,183,186,187,190,194,195",
			"name": "Composite numbers n such that the discriminant of the quadratic field Q(sqrt(n)) equals 4n.",
			"comment": [
				"Conjecture: All terms are squarefree. Example: 6=2*3; 15=3*5; 30=2*3*5; 154=2*7*11; 195=3*5*13. - _Vincenzo Librandi_, Aug 08 2010 and _Michel Marcus_, Nov 26 2013",
				"If prime numbers were accepted, then sequence A230375 would have been obtained. - _Michel Marcus_, Nov 26 2013"
			],
			"link": [
				"Wikipedia, \u003ca href=\"http://en.wikipedia.org/wiki/Quadratic_field\"\u003eQuadratic field\u003c/a\u003e"
			],
			"program": [
				"(PARI) isok(n) = !isprime(n) \u0026\u0026 (quaddisc(n) == 4*n); \\\\ _Michel Marcus_, Nov 26 2013"
			],
			"xref": [
				"Cf. A037449."
			],
			"keyword": "easy,nonn",
			"offset": "1,1",
			"author": "_Benoit Cloitre_, Aug 10 2002",
			"references": 0,
			"revision": 18,
			"time": "2013-11-26T12:02:36-05:00",
			"created": "2003-05-16T03:00:00-04:00"
		}
	]
}