{
	"greeting": "Greetings from The On-Line Encyclopedia of Integer Sequences! http://oeis.org/",
	"query": "id:A072438",
	"count": 1,
	"start": 0,
	"results": [
		{
			"number": 72438,
			"data": "1,2,3,4,1,6,7,8,9,2,11,12,1,14,3,16,1,18,19,4,21,22,23,24,1,2,27,28,1,6,31,32,33,2,7,36,1,38,3,8,1,42,43,44,9,46,47,48,49,2,3,4,1,54,11,56,57,2,59,12,1,62,63,64,1,66,67,4,69,14,71,72,1,2,3,76,77,6,79,16,81,2",
			"name": "Remove prime factors of form 4*k+1.",
			"comment": [
				"a(n) \u003c= n; a(a(n)) = a(n).",
				"All factors p^m of a(n) are of the form p=2 or p=4*k+3."
			],
			"link": [
				"Alois P. Heinz, \u003ca href=\"/A072438/b072438.txt\"\u003eTable of n, a(n) for n = 1..10000\u003c/a\u003e"
			],
			"formula": [
				"Multiplicative with a(p)=(if p==1 (mod 4) then 1 else p)."
			],
			"example": [
				"a(90) = a(2*3*3*5) = a(2*(4*0+3)^2*(4*1+1)^1 = 2*3^2*1 = 18."
			],
			"maple": [
				"a:= n-\u003e mul(`if`(irem(i[1], 4)=1, 1, i[1]^i[2]), i=ifactors(n)[2]):",
				"seq(a(n), n=1..100);  # _Alois P. Heinz_, Jun 09 2014"
			],
			"mathematica": [
				"a[n_] := n/Product[{p, e} = pe; If[Mod[p, 4] == 1, p^e, 1], {pe, FactorInteger[n]}];",
				"Array[a, 100] (* _Jean-François Alcover_, May 29 2019 *)"
			],
			"program": [
				"(PARI) a(n) = my(f=factor(n)); for (i=1, #f~, if ((f[i,1] % 4) == 1, f[i,1] = 1)); factorback(f); \\\\ _Michel Marcus_, Jun 09 2014",
				"(Python)",
				"from sympy import factorint, prod",
				"def a(n):",
				"    f = factorint(n)",
				"    return 1 if n == 1 else prod(i**f[i] for i in f if i%4 != 1) # _Indranil Ghosh_, May 08 2017"
			],
			"xref": [
				"Cf. A072436, A004144, A002144, A002145."
			],
			"keyword": "nonn,mult",
			"offset": "1,2",
			"author": "_Reinhard Zumkeller_, Jun 17 2002",
			"references": 5,
			"revision": 21,
			"time": "2020-05-20T15:52:44-04:00",
			"created": "2003-05-16T03:00:00-04:00"
		}
	]
}