{
	"greeting": "Greetings from The On-Line Encyclopedia of Integer Sequences! http://oeis.org/",
	"query": "id:A072419",
	"count": 1,
	"start": 0,
	"results": [
		{
			"number": 72419,
			"data": "120,5040,0,479001600,6402373705728000,121645100408832000,2432902008176640000,1124000727777607680000,15511210043330985984000000,304888344611713860501504000000",
			"name": "Smallest factorial containing exactly n 0's, or 0 if no such factorial exists.",
			"comment": [
				"a(3)=0 since no factorial can contain just three zeros."
			],
			"example": [
				"a(2)=5040, so 5040 is the smallest factorial containing exactly two 0's."
			],
			"xref": [
				"Cf. A072417."
			],
			"keyword": "base,nonn",
			"offset": "1,1",
			"author": "_Shyam Sunder Gupta_, Jul 31 2002",
			"references": 1,
			"revision": 2,
			"time": "2013-10-02T15:47:17-04:00",
			"created": "2003-05-16T03:00:00-04:00"
		}
	]
}