{
	"greeting": "Greetings from The On-Line Encyclopedia of Integer Sequences! http://oeis.org/",
	"query": "id:A072430",
	"count": 1,
	"start": 0,
	"results": [
		{
			"number": 72430,
			"data": "66,143,606,626,646,666,686,706,726,746,766,786,1313,1333,1353,1373,1393,1413,1433,1453,1473,1493,1551,2222,2431,3113,3762,4873,6006,7986,13013,14993,15051,15251,15451,15651,15851,16051,16126,16251,16451",
			"name": "Numbers n for which there are exactly six k such that n = k + reverse(k).",
			"comment": [
				"Subsequence of A067030. First term is A072041(6).",
				"Includes 6*(10^k+1) for k \u003e= 1. - _Robert Israel_, Jul 12 2019"
			],
			"link": [
				"Robert Israel, \u003ca href=\"/A072430/b072430.txt\"\u003eTable of n, a(n) for n = 1..628\u003c/a\u003e",
				"\u003ca href=\"/index/Res#RAA\"\u003eIndex entries for sequences related to Reverse and Add!\u003c/a\u003e"
			],
			"example": [
				"66 = k + reverse(k) for k = 15, 24, 33, 42, 51, 60; 626 = k + reverse(k) for k = 115, 214, 313, 412, 511, 610."
			],
			"maple": [
				"N:= 10^5:",
				"revdigs:= proc(n) local L, i;",
				"  L:= convert(n, base, 10);",
				"  add(L[-i]*10^(i-1), i=1..nops(L))",
				"end proc:",
				"V:= Vector(N):",
				"for x from 1 to N do",
				"  v:= x + revdigs(x);",
				"  if v \u003c= N then V[v]:= V[v]+1 fi;",
				"od:",
				"select(t -\u003e V[t]=6, [$1..N]); # Robert Israel, Jul 12 2019"
			],
			"program": [
				"(ARIBAS) var n,k,c,i,rev: integer; st,nst: string; end; m := 6; for n := 0 to 17500 do k := n div 2; c := 0; while k \u003c= n and c \u003c m + 1 do st := itoa(k); nst := \"\"; for i := 0 to length(st) - 1 do nst := concat(st[i],nst); end; rev := atoi(nst); if n = k + rev then inc(c); if k mod 10 \u003c\u003e 0 and k \u003c\u003e rev then inc(c); end; end; inc(k); end; if c = m then write(n,\",\"); end; end;"
			],
			"xref": [
				"Cf. A067030, A072041."
			],
			"keyword": "base,nonn",
			"offset": "1,1",
			"author": "_Klaus Brockhaus_, Jun 17 2002",
			"ext": [
				"Offset changed to 1 by _Robert Israel_, Jul 12 2019"
			],
			"references": 1,
			"revision": 9,
			"time": "2019-07-12T20:18:44-04:00",
			"created": "2003-05-16T03:00:00-04:00"
		}
	]
}