{
	"greeting": "Greetings from The On-Line Encyclopedia of Integer Sequences! http://oeis.org/",
	"query": "id:A072452",
	"count": 1,
	"start": 0,
	"results": [
		{
			"number": 72452,
			"data": "0,1,3,6,1,6,21,82,9,81,19,3,51,46,6,12,82,99,711,37,75,69,19,24,84,901,729,657,586,516,645,676,807,48,28,36,27,46,48,78,811,258,3,64,801,648,496,345,393,244,492,345,793,648,207,262,813,78,631,96,651,217,972",
			"name": "a(n) = reversal(a(n-1)+n) for n\u003e0, a(0) = 0.",
			"link": [
				"Reinhard Zumkeller, \u003ca href=\"/A072452/b072452.txt\"\u003eTable of n, a(n) for n = 0..10000\u003c/a\u003e",
				"Nick Hobson, \u003ca href=\"/A072452/a072452.py.txt\"\u003ePython program for this sequence\u003c/a\u003e"
			],
			"example": [
				"a(10)=19 given: a(11) = rev(a(10)+11) = rev(19+11) = rev(30) = 3; a(12) = rev(a(11)+12) = rev(3+12) = rev(15) = 51."
			],
			"program": [
				"(Python) # See Hobson link.",
				"(Haskell)",
				"a072452 n = a072452_list !! n",
				"a072452_list = 0 : map a004086 (zipWith (+) a072452_list [1..])",
				"-- _Reinhard Zumkeller_, Feb 09 2012"
			],
			"xref": [
				"Cf. A004086."
			],
			"keyword": "nonn,base,look",
			"offset": "0,3",
			"author": "_Reinhard Zumkeller_, Aug 02 2002",
			"references": 1,
			"revision": 19,
			"time": "2021-05-15T21:43:50-04:00",
			"created": "2003-05-16T03:00:00-04:00"
		}
	]
}