{
	"greeting": "Greetings from The On-Line Encyclopedia of Integer Sequences! http://oeis.org/",
	"query": "id:A073049",
	"count": 1,
	"start": 0,
	"results": [
		{
			"number": 73049,
			"data": "2,3,28,5,0,7,225,153,640,11,6348,13,19474560,0,976,17,1225,19,1521,81,0,23,343000,49,2601,2133,3025,29,1495296000,31,20063232,4225,15262600,4761,19236456,37,25462407801600,5929,34633600,41,0,43,7569,356445,8281",
			"name": "Least m \u003e 1 such that m^n has m divisors, or 0 if no such m exists.",
			"comment": [
				"Since a prime power p^k has exactly k+1 divisors, choosing k=p-1, where p is a prime, thus implies a(p-1)=p for any prime p."
			],
			"link": [
				"Jon E. Schoenfield, \u003ca href=\"/A073049/b073049.txt\"\u003eTable of n, a(n) for n = 1..100\u003c/a\u003e"
			],
			"xref": [
				"Cf. A000005, A323730."
			],
			"keyword": "nice,nonn",
			"offset": "1,1",
			"author": "_Lekraj Beedassy_, Aug 31 2002",
			"ext": [
				"Definition and terms for n = 1, 13, 23, 29, 31, 33, 35, 37, 39, and 44 corrected by _Jon E. Schoenfield_, Apr 17 2010"
			],
			"references": 7,
			"revision": 18,
			"time": "2019-01-27T14:08:12-05:00",
			"created": "2003-05-16T03:00:00-04:00"
		}
	]
}