{
	"greeting": "Greetings from The On-Line Encyclopedia of Integer Sequences! http://oeis.org/",
	"query": "id:A073294",
	"count": 1,
	"start": 0,
	"results": [
		{
			"number": 73294,
			"data": "0,1,2,3,4,5,6,7,8,10,9,11,13,12,14,15,16,18,17,19,20,22,21,26,27,25,24,23,29,28,33,35,36,30,34,32,31,38,37,39,41,40,42,43,47,49,50,44,48,46,45,51,52,53,55,54,60,61,63,64,56,57,62,59,58,73,74,76,77,78,72,75",
			"name": "Permutation A069767 applied four times or permutation A073290 applied twice.",
			"link": [
				"\u003ca href=\"/index/Per#IntegerPermutation\"\u003eIndex entries for sequences that are permutations of the natural numbers\u003c/a\u003e"
			],
			"formula": [
				"a(n) = A069767(A069767(A069767(A069767(n)))) = A073290(A073290(n))."
			],
			"xref": [
				"Inverse permutation: A073295. Cf. A073290-A073299. Occurs in A073200 as row 142647371."
			],
			"keyword": "nonn",
			"offset": "0,3",
			"author": "_Antti Karttunen_, Jun 25 2002",
			"references": 2,
			"revision": 8,
			"time": "2017-05-26T14:55:49-04:00",
			"created": "2003-05-16T03:00:00-04:00"
		}
	]
}