{
	"greeting": "Greetings from The On-Line Encyclopedia of Integer Sequences! http://oeis.org/",
	"query": "id:A073239",
	"count": 1,
	"start": 0,
	"results": [
		{
			"number": 73239,
			"data": "0,2,7,4,2,5,6,9,3,1,2,3,2,9,8,1,0,6,1,1,9,5,5,6,2,7,0,8,5,9,0,9,6,5,9,4,4,5,4,4,2,5,1,1,4,5,3,7,4,4,8,3,0,7,7,6,3,3,8,6,7,9,1,3,2,6,4,0,2,3,9,5,8,0,1,2,3,0,3,9,6,7,2,0,9,0,1,7,6,6,9,3,4,2,8,9,6,1,9,4,7,0,6,4",
			"name": "Decimal expansion of (1/Pi)^Pi.",
			"comment": [
				"(1/Pi)^Pi = Pi^(-Pi) = 1/(Pi^Pi) (reciprocal of A073233)."
			],
			"example": [
				"0.02742569312329810611955627085..."
			],
			"mathematica": [
				"Join[{0},RealDigits[(1/Pi)^Pi,10,120][[1]]] (* _Harvey P. Dale_, Nov 30 2011 *)"
			],
			"program": [
				"(PARI) (1/Pi)^Pi"
			],
			"xref": [
				"Cf. A000796 (Pi), A049541 (1/Pi), A073238 (Pi^(1/Pi)), A073240 ((1/Pi)^(1/Pi)), A073233 (Pi^Pi)."
			],
			"keyword": "cons,nonn",
			"offset": "0,2",
			"author": "_Rick L. Shepherd_, Jul 25 2002",
			"references": 3,
			"revision": 6,
			"time": "2013-11-21T12:47:51-05:00",
			"created": "2003-05-16T03:00:00-04:00"
		}
	]
}