{
	"greeting": "Greetings from The On-Line Encyclopedia of Integer Sequences! http://oeis.org/",
	"query": "id:A073778",
	"count": 1,
	"start": 0,
	"results": [
		{
			"number": 73778,
			"data": "0,0,0,0,1,2,5,12,26,56,118,244,499,1010,2027,4040,8004,15776,30956,60504,117845,228818,443057,855732,1649022,3171128,6086626,11662252,22309543,42614178,81286743,154856528,294660040,560052736,1063367384,2017030256",
			"name": "a(n) = Sum_{k=0..n} T(k)*T(n-k), where T is A000073; convolution of A000073 with itself.",
			"comment": [
				"Number of binary sequences of length n+1 that have exactly one subsequence 000. Example: a(4)=5 because we have 00010,00011,01000,10001 and 11000. Column 1 of A118390. - _Emeric Deutsch_, Apr 27 2006",
				"Let (b(n)) be the p-INVERT of (1,1,1,0,0,0,0,0,0,...) using p(S) = 1 - S^2; then b(n) = a(n+3) for n \u003e= 0. See A292324. - _Clark Kimberling_, Sep 15 2017"
			],
			"link": [
				"Michael De Vlieger, \u003ca href=\"/A073778/b073778.txt\"\u003eTable of n, a(n) for n = 0..3770\u003c/a\u003e, terms n = 2..1002 from Vincenzo Librandi.",
				"D. Birmajer, J. Gil and M. Weiner, \u003ca href=\"http://arxiv.org/abs/1405.7727\"\u003eLinear recurrence sequences and their convolutions via Bell polynomials\u003c/a\u003e, arXiv:1405.7727 [math.CO], 2014; see \u003ca href=\"https://cs.uwaterloo.ca/journals/JIS/VOL18/Gil/gil3.html\"\u003ealso\u003c/a\u003e, J. Int. Seq. 18 (2015) # 15.1.2.",
				"Michael Dairyko, Lara Pudwell, Samantha Tyner and Casey Wynn. \u003ca href=\"https://doi.org/10.37236/2099\"\u003eNon-contiguous pattern avoidance in binary trees\u003c/a\u003e. Electron. J. Combin. 19 (2012), no. 3, Paper 22, 21 pp. MR2967227. - From _N. J. A. Sloane_, Feb 01 2013",
				"Emrah Kilic and Helmut Prodinger, \u003ca href=\"https://cs.uwaterloo.ca/journals/JIS/VOL17/Kilic/kilic12.html\"\u003eA Note on the Conjecture of Ramirez and Sirvent\u003c/a\u003e, J. Int. Seq. 17 (2014) # 14.5.8.",
				"J. L. Ramirez and V. F. Sirvent, \u003ca href=\"https://cs.uwaterloo.ca/journals/JIS/VOL17/Ramirez/ramirez4.html\"\u003eIncomplete Tribonacci Numbers and Polynomials\u003c/a\u003e, Journal of Integer Sequences, Vol. 17, 2014, #14.4.2.",
				"\u003ca href=\"/index/Rec#order_06\"\u003eIndex entries for linear recurrences with constant coefficients\u003c/a\u003e, signature (2,1,0,-3,-2,-1)."
			],
			"formula": [
				"G.f.: x^4/(1 - x - x^2 - x^3)^2.",
				"a(n) = Sum_{k=0..n-4} (k+1)*Sum_{j=0..k} binomial(j,n-3*k+2*j-4)*binomial(k,j). - _Vladimir Kruchinin_, Dec 14 2011",
				"(n-2)*a(n) - (n-1)*a(n-1) - n*a(n-2) - (n+1)*a(n-3) = 0, n \u003e 2. - _Michael D. Weiner_, Nov 18 2014"
			],
			"maple": [
				"A073778:=proc(n) coeftayl(x^4/(1-x-x^2-x^3)^2, x=0, n); end proc: seq(A073778(n), n=0..40); # _Wesley Ivan Hurt_, Nov 17 2014"
			],
			"mathematica": [
				"CoefficientList[Series[x^4/(1-x-x^2-x^3)^2, {x, 0, 40}], x]"
			],
			"program": [
				"(Sage) [( x^4/(1-x-x^2-x^3)^2 ).series(x,n+1).list()[n] for n in (0..40)] # _Zerinvary Lajos_, Jun 02 2009; modified by _G. C. Greubel_, Dec 15 2021",
				"(Maxima)",
				"a(n):= sum((k+1)*sum(binomial(j,n-3*k+2*j-4)*binomial(k,j), j,0,k), k,0,n-4);",
				"makelist(a(n), n, 0, 30); /* _Vladimir Kruchinin_, Dec 14 2011 */",
				"(PARI) T(n) = ([0, 1, 0; 0, 0, 1; 1, 1, 1]^n)[1, 3]; \\\\ A000073",
				"a(n) = sum(k=0, n, T(k)*T(n-k)); \\\\ _Michel Marcus_, Oct 20 2021"
			],
			"xref": [
				"Cf. A000073, A118390."
			],
			"keyword": "easy,nonn",
			"offset": "0,6",
			"author": "Mario Catalani (mario.catalani(AT)unito.it), Aug 10 2002",
			"ext": [
				"Two initial zeros inserted by _Hans J. H. Tuenter_, Oct 20 2021"
			],
			"references": 6,
			"revision": 91,
			"time": "2021-12-15T01:33:14-05:00",
			"created": "2003-05-16T03:00:00-04:00"
		}
	]
}