{
	"greeting": "Greetings from The On-Line Encyclopedia of Integer Sequences! http://oeis.org/",
	"query": "id:A073500",
	"count": 1,
	"start": 0,
	"results": [
		{
			"number": 73500,
			"data": "954,1300,11142,38214,89484,152154,167784,254136,303280,473316,574716,813920,918080,1307022,2008360,3676242,9878244,10368512,12548754,19411480,22493262,42413484,77766486,81513816,157874000,240828972",
			"name": "Numbers n such that sigma(n) = sigma(n+1)+sigma(n-1).",
			"link": [
				"Donovan Johnson and Giovanni Resta, \u003ca href=\"/A073500/b073500.txt\"\u003eTable of n, a(n) for n = 1..170\u003c/a\u003e (terms \u003c 10^13, first 50 terms from Donovan Johnson)"
			],
			"formula": [
				"a(n) = A076528(n)-1  - _Alex Ratushnyak_, Jul 06 2013."
			],
			"maple": [
				"with(numtheory); A073500:=proc(i) local n;",
				"for n from 1 to i do",
				"if sigma(n)=sigma(n+1)+sigma(n-1) then print(n); fi;",
				"od; end: A073500 (10^9); # _Paolo P. Lava_, Apr 24 2013"
			],
			"mathematica": [
				"s1 = s2 = s3 = 0; Do[ s1 = s2; s2 = s3; s3 = DivisorSigma[1, n]; If[ s2 == s1 + s3, Print[n - 1]], {n, 1, 10^8}]"
			],
			"xref": [
				"Cf. A000203, A076528."
			],
			"keyword": "nonn",
			"offset": "1,1",
			"author": "_Benoit Cloitre_, Aug 27 2002",
			"ext": [
				"Edited and extended by _Robert G. Wilson v_, Oct 24 2002",
				"a(25)-a(26) from _Donovan Johnson_, Feb 01 2009"
			],
			"references": 7,
			"revision": 27,
			"time": "2015-07-23T17:14:57-04:00",
			"created": "2003-05-16T03:00:00-04:00"
		}
	]
}