{
	"greeting": "Greetings from The On-Line Encyclopedia of Integer Sequences! http://oeis.org/",
	"query": "id:A073559",
	"count": 1,
	"start": 0,
	"results": [
		{
			"number": 73559,
			"data": "2,13,125,1250,12494,124939,1249382,12493871",
			"name": "Number of Fibonacci numbers F(k), k \u003c= 10^n, whose initial digit is 3.",
			"formula": [
				"Lim as n -\u003e inf. a(n)/10^n=log(4/3), where the base is 10. - _Robert Gerbicz_, Sep 05 2002"
			],
			"example": [
				"a(2)=13 because there are 13 Fibonacci numbers up to 10^2 whose initial digit is 3."
			],
			"keyword": "base,nonn",
			"offset": "1,1",
			"author": "_Shyam Sunder Gupta_, Aug 15 2002",
			"ext": [
				"More terms from _Robert Gerbicz_, Sep 05 2002"
			],
			"references": 0,
			"revision": 3,
			"time": "2013-10-02T16:02:48-04:00",
			"created": "2003-05-16T03:00:00-04:00"
		}
	]
}