{
	"greeting": "Greetings from The On-Line Encyclopedia of Integer Sequences! http://oeis.org/",
	"query": "id:A073210",
	"count": 1,
	"start": 0,
	"results": [
		{
			"number": 73210,
			"data": "0,1,2,3,4,6,7,5,8,9,10,14,16,19,17,20,12,11,13,21,18,15,22,23,24,25,26,27,37,38,42,44,47,51,53,56,60,45,46,54,57,61,31,34,30,28,29,35,33,32,36,58,62,49,48,59,40,43,39,52,63,55,50,41,64,65,66,67,68,69,70,71",
			"name": "Permutation of natural numbers induced by the Catalan bijection gmA073210 acting on the parenthesizations as ordered by A014486.",
			"comment": [
				"Is there an equivalent Catalan bijection in A073200?"
			],
			"link": [
				"A. Karttunen, \u003ca href=\"http://www.iki.fi/~kartturi/matikka/Nekomorphisms/gatomorf.htm\"\u003eGatomorphisms\u003c/a\u003e (with the complete Scheme source)",
				"\u003ca href=\"/index/Per#IntegerPermutation\"\u003eIndex entries for sequences that are permutations of the natural numbers\u003c/a\u003e"
			],
			"program": [
				"(Scheme function implementing this automorphism on list-structures:)",
				"(define (gmA073210 s) (cond ((pair? s) (gmA073210 (car s)) (gmA072797! s) (gmA073210 (car s)) (gmA072796! s))) s)"
			],
			"xref": [
				"Inverse permutation: A073209. The car/cdr-flipped conjugate of A073199, i.e. A073210(n) = A057163(A073199(A057163(n))). Cf. also A073205-A073208.",
				"The scheme functions gma072796! and gma072797! referred to below are given in A072796 and A072797."
			],
			"keyword": "nonn",
			"offset": "0,3",
			"author": "_Antti Karttunen_, Jun 25 2002",
			"references": 7,
			"revision": 7,
			"time": "2015-10-15T10:57:13-04:00",
			"created": "2003-05-16T03:00:00-04:00"
		}
	]
}