{
	"greeting": "Greetings from The On-Line Encyclopedia of Integer Sequences! http://oeis.org/",
	"query": "id:A073839",
	"count": 1,
	"start": 0,
	"results": [
		{
			"number": 73839,
			"data": "0,4,10,18,33,45,53,84,94,105,138,162,201,256,272,289,340,411,431,510,532,555,624,672,747,825,853,937,1024,1084,1116,1243,1342,1377,1482,1519,1557,1708,1825,1866,1989,2073,2202,2377,2423,2561,2702,2893,2943",
			"name": "Sum of the composite numbers between n and 2n (both inclusive).",
			"comment": [
				"a(n) is the sum of A075084(n) composite numbers (A002808). - _Michel Marcus_, Aug 26 2015"
			],
			"example": [
				"a(6) = 6+8+9+10+12 = 45."
			],
			"maple": [
				"for n from 1 to 150 do l := 0:for j from n to 2*n do if not isprime(j) then l := l+j:fi:od:a[n] := l:od:a[1] := 0:seq(a[j],j=1..150);"
			],
			"mathematica": [
				"cs[x_] := Flatten[Position[Table[PrimeQ[j], {j, x, 2*x}], False]]+x-1; sucs[x_] := Apply[Plus, cs[x]]; Table[sucs[w], {w, 1, 128}]",
				"Join[{0}, Table[Plus @@ Select[Range[n, 2 n], ! PrimeQ[#] \u0026], {n, 2, 49}]] (* _Jayanta Basu_, Aug 12 2013 *)"
			],
			"program": [
				"(PARI) a(n) = my(s=0); forcomposite (c=n, 2*n, s+=c); s; \\\\ _Michel Marcus_, Aug 26 2015"
			],
			"xref": [
				"Cf. A002808, A073840, A075084."
			],
			"keyword": "nonn",
			"offset": "1,2",
			"author": "_Amarnath Murthy_, Aug 13 2002",
			"ext": [
				"More terms from _Sascha Kurz_ and _Labos Elemer_, Aug 14 2002"
			],
			"references": 2,
			"revision": 19,
			"time": "2015-08-27T02:48:55-04:00",
			"created": "2003-05-16T03:00:00-04:00"
		}
	]
}