{
	"greeting": "Greetings from The On-Line Encyclopedia of Integer Sequences! http://oeis.org/",
	"query": "id:A073465",
	"count": 1,
	"start": 0,
	"results": [
		{
			"number": 73465,
			"data": "2,3,4,8,10,11,13,14,20,27,37,39,43,63,90,91,95,122,124,136,152,169,175,176,224,322,364,365,410,460,605,875,917,1082,1084,1085,1086,1087,1137,1143,1164,1168,1444,1517,1541,1751,1786,1991,2873,3087,3101,3283",
			"name": "Numbers n such that phi(n)/pi(n) is an integer.",
			"link": [
				"Donovan Johnson, \u003ca href=\"/A073465/b073465.txt\"\u003eTable of n, a(n) for n = 1..1000\u003c/a\u003e"
			],
			"formula": [
				"Mod[A000010(n), A000720(n)]=A071259[n]=0"
			],
			"mathematica": [
				"Select[Range[2,3300],IntegerQ[EulerPhi[#]/PrimePi[#]]\u0026] (* _Harvey P. Dale_, Apr 11 2020 *)"
			],
			"xref": [
				"Cf. A000010, A000720, A073464."
			],
			"keyword": "nonn",
			"offset": "1,1",
			"author": "_Labos Elemer_, Aug 02 2002",
			"references": 2,
			"revision": 9,
			"time": "2020-04-11T15:49:44-04:00",
			"created": "2003-05-16T03:00:00-04:00"
		}
	]
}