{
	"greeting": "Greetings from The On-Line Encyclopedia of Integer Sequences! http://oeis.org/",
	"query": "id:A073024",
	"count": 1,
	"start": 0,
	"results": [
		{
			"number": 73024,
			"data": "11,23,47,59,83,107,149,167,173,179,223,227,263,269,283,293,317,347,359,367,383,389,439,467,479,499,503,509,557,563,569,587,607,619,643,653,719,773,787,797,809,823,839,857,863,887,907,983,1019,1031,1039,1049,1087,1091",
			"name": "Primes p such that p-1 has a prime factor q \u003e p^(2/3).",
			"comment": [
				"Etienne Fouvry showed that a positive fraction of all primes have this property."
			],
			"reference": [
				"Etienne Fouvry, Theoreme de Brun-Titchmarsh: application au theoreme de Fermat, Invent. Math. 79 (1985), no. 2, 383-407."
			],
			"link": [
				"Charles R Greathouse IV, \u003ca href=\"/A073024/b073024.txt\"\u003eTable of n, a(n) for n = 1..27449\u003c/a\u003e."
			],
			"maple": [
				"with(numtheory); a := []; for i from 2 to 1000 do p := ithprime(i); t1 := factorset(p-1); q := t1[nops(t1)]; if q^3 \u003e p^2 then a := [op(a),p]; fi; od:"
			],
			"program": [
				"(PARI) gpf(n)=my(f=factor(n)[,1]); f[#f]",
				"is(n)=gpf(n-1)^3\u003en^2 \u0026\u0026 isprime(n) \\\\ _Charles R Greathouse IV_, Sep 14 2015"
			],
			"xref": [
				"Cf. A005384, A005385, A073025, A073026."
			],
			"keyword": "nonn",
			"offset": "1,1",
			"author": "_N. J. A. Sloane_, Aug 23 2002",
			"references": 3,
			"revision": 9,
			"time": "2015-09-14T15:49:23-04:00",
			"created": "2003-05-16T03:00:00-04:00"
		}
	]
}