{
	"greeting": "Greetings from The On-Line Encyclopedia of Integer Sequences! http://oeis.org/",
	"query": "id:A073381",
	"count": 1,
	"start": 0,
	"results": [
		{
			"number": 73381,
			"data": "1,10,65,340,1555,6482,25235,93200,330070,1129580,3756950,12197320,38787770,121148300,372476410,1129367632,3382133695,10016694470,29370557375,85341915260,245939376949,703423066190",
			"name": "Fourth convolution of A000129(n+1) (generalized (2,1)-Fibonacci, called Pell numbers), n\u003e=0, with itself.",
			"link": [
				"M. Janjic, \u003ca href=\"https://cs.uwaterloo.ca/journals/JIS/VOL13/Janjic/janjic33.html\"\u003eHessenberg Matrices and Integer Sequences \u003c/a\u003e, J. Int. Seq. 13 (2010) # 10.7.8.",
				"\u003ca href=\"/index/Rec#order_10\"\u003eIndex entries for linear recurrences with constant coefficients\u003c/a\u003e, signature (10,-35,40,30,-68,-30,40,35,10,1)."
			],
			"formula": [
				"a(n) = sum(b(k) * c(n-k), k=0..n) with b(k) := A000129(k+1) and c(k) := A073380(k).",
				"a(n) = sum((2^n) * binomial(n-k+4, 4) * binomial(n-k, k) * (1/4)^k, k=0..floor(n/2)).",
				"a(n)= ((2457+2128*n+572*n^2+48*n^3)*(n+1)*U(n+1)+5*(123+142*n+44*n^2+4*n^3) *(n+2)*U(n))/(3*2^11), with U(n) := A000129(n+1), n\u003e=0.",
				"G.f.: 1/(1-(2+x)*x)^5.",
				"a(n) = F''''(n+5, 2)/4!, that is, 1/4! times the 4th derivative of the (n+5)th Fibonacci polynomial evaluated at x=2. - _T. D. Noe_, Jan 19 2006"
			],
			"xref": [
				"Fifth (m=4) column of triangle A054456, A073380."
			],
			"keyword": "nonn,easy",
			"offset": "0,2",
			"author": "_Wolfdieter Lang_, Aug 02 2002",
			"references": 1,
			"revision": 16,
			"time": "2017-07-15T12:16:39-04:00",
			"created": "2003-05-16T03:00:00-04:00"
		}
	]
}