{
	"greeting": "Greetings from The On-Line Encyclopedia of Integer Sequences! http://oeis.org/",
	"query": "id:A073522",
	"count": 1,
	"start": 0,
	"results": [
		{
			"number": 73522,
			"data": "269,271,277,281,283,293,307,311,313,317,331,337,347,349,353,359,367,373,379,383,389,397,401,409,419",
			"name": "A set of 25 consecutive primes that form a 5 X 5 magic square with the (non-minimal) magic constant 1703.",
			"comment": [
				"The magic constant here is not the smallest possible for a 5 X 5 magic square composed of consecutive primes, this would be A073520(5) = 313 corresponding to primes (13, 17, ..., 113). [Edited by _M. F. Hasler_, Oct 29 2018]"
			],
			"reference": [
				"Allan W. Johnson, Jr., Journal of Recreational Mathematics, vol. 14:2, 1981-82, pp. 152-153.",
				"Clifford A. Pickover, The Zen of Magic Squares, Circles and Stars: An Exhibition of Surprising Structures across Dimensions, Princeton University Press, 2002."
			],
			"link": [
				"Harvey Heinz, \u003ca href=\"http://www.magic-squares.net/primesqr.htm\"\u003ePrime Magic Squares\u003c/a\u003e",
				"\u003ca href=\"/index/Mag#magic\"\u003eIndex entries for sequences related to magic squares\u003c/a\u003e"
			],
			"example": [
				"The magic square is",
				"[ 281 409 311 419 283 ]",
				"[ 359 379 349 347 269 ]",
				"[ 313 307 389 293 401 ]",
				"[ 397 331 337 271 367 ]",
				"[ 353 277 317 373 383 ]"
			],
			"program": [
				"(PARI) A073522=MagicPrimes(1703,5) \\\\ Cf. A073519. - _M. F. Hasler_, Oct 28 2018"
			],
			"xref": [
				"Cf. A073519 and A320873 (minimal 3 X 3 magic square of consecutive primes), A073520 (minimal magic sum for n X n square of consecutive primes), A073521 (consecutive primes of a 4 X 4 magic square), A073523 (consecutive primes of a pandiagonal 6 X 6 magic square)."
			],
			"keyword": "nonn,fini,full",
			"offset": "1,1",
			"author": "_N. J. A. Sloane_, Aug 29 2002",
			"ext": [
				"Edited by _Max Alekseyev_, Sep 24 2009"
			],
			"references": 10,
			"revision": 15,
			"time": "2018-10-30T20:15:33-04:00",
			"created": "2003-05-16T03:00:00-04:00"
		}
	]
}