{
	"greeting": "Greetings from The On-Line Encyclopedia of Integer Sequences! http://oeis.org/",
	"query": "id:A073984",
	"count": 1,
	"start": 0,
	"results": [
		{
			"number": 73984,
			"data": "0,1,9,36,210,1296,7056,40824,262440,1700352,10478160,62355744,367960320,2176782336,12958657344,77716392192,468205557120,2821109907456,16960580969472,101758315958784,609954817881600,3656220357427200,21926486787222528,131557435432187904",
			"name": "Number of strings of length n over Z_6 with trace 2 and subtrace 1.",
			"comment": [
				"Same as the number of strings of length n over Z_6 with trace 4 and subtrace 1."
			],
			"link": [
				"Max Alekseyev, \u003ca href=\"http://home.gwu.edu/~maxal/gpscripts/\"\u003ePARI/GP scripts for miscellaneous math problems\u003c/a\u003e",
				"F. Ruskey \u003ca href=\"http://combos.org/TSstringZ6\"\u003eStrings over Z_6 with given trace and subtrace\u003c/a\u003e"
			],
			"formula": [
				"a(n; t, s) = a(n-1; t, s) + a(n-1; t+5, s+5t+1) + a(n-1; t+4, s+4t+4) + a(n-1; t+3, s+3t+3) + a(n-1; t+2, s+2t+2) + a(n-1; t+1, s+t+1) where t is the trace and s is the subtrace."
			],
			"xref": [
				"Cf. A073971, A073972, A073973, A073974, A073975, A073976, A073977, A073978, A073979, A073980, A073981, A073982, A073983, A073985, A073986, A073987, A073988, A073989, A073990, A073991, A073992, A073993, A073994."
			],
			"keyword": "easy,nonn",
			"offset": "1,3",
			"author": "_Frank Ruskey_ and Nate Kube, Aug 16 2002",
			"ext": [
				"Terms a(11) onward from _Max Alekseyev_, Apr 09 2013"
			],
			"references": 22,
			"revision": 16,
			"time": "2019-05-02T16:17:58-04:00",
			"created": "2003-05-16T03:00:00-04:00"
		}
	]
}