{
	"greeting": "Greetings from The On-Line Encyclopedia of Integer Sequences! http://oeis.org/",
	"query": "id:A073797",
	"count": 1,
	"start": 0,
	"results": [
		{
			"number": 73797,
			"data": "0,0,0,2,1,0,0,0,0,3,1,2,4,2,4,4,1,0,0,0,0,5,1,2,4,8,7,2,4,2,4,8,5,10,9,8,4,8,4,6,12,2,4,8,2,8,1,2,4,8,1,0,0,0,0,0,0,8,16,2,4,8,16,14,10,3,6,12,5,8,16,2,4,8,16,11,1,6,12,2,4,18,13,3,6,12,1,8,16,8,16,8,16,8,16",
			"name": "a(n) = 2^n mod pi(n).",
			"link": [
				"Michael De Vlieger, \u003ca href=\"/A073797/b073797.txt\"\u003eTable of n, a(n) for n = 2..10000\u003c/a\u003e"
			],
			"formula": [
				"a(n) = A000079(n) mod A000720(n)."
			],
			"example": [
				"From _Michael De Vlieger_, Dec 09 2018: (Start)",
				"a(2) = 0 since 2^2 mod PrimePi(2) = 4 mod 1 = 0.",
				"a(5) = 2 since 2^5 mod PrimePi(5) = 32 mod 3 = 2. (End)"
			],
			"mathematica": [
				"Array[Mod[2^#, PrimePi@ #] \u0026, 95, 2] (* _Michael De Vlieger_, Dec 09 2018 *)",
				"Table[PowerMod[2,n,PrimePi[n]],{n,2,100}] (* _Harvey P. Dale_, Aug 30 2021 *)"
			],
			"program": [
				"(PARI) for(n=2, 100, print1(lift(Mod(2^n, primepi(n))), \", \")) \\\\ _G. C. Greubel_, Dec 10 2018",
				"(MAGMA) [2^n mod #PrimesUpTo(n): n in [2..100]]; // _G. C. Greubel_, Dec 10 2018",
				"(Sage) [mod(2^n, prime_pi(n)) for n in (2..100)] # _G. C. Greubel_, Dec 10 2018"
			],
			"xref": [
				"Cf. A000079, A000720, A015910, A062173, A064367."
			],
			"keyword": "nonn",
			"offset": "2,4",
			"author": "_Labos Elemer_, Aug 12 2002",
			"references": 4,
			"revision": 18,
			"time": "2021-08-30T11:17:55-04:00",
			"created": "2003-05-16T03:00:00-04:00"
		}
	]
}