{
	"greeting": "Greetings from The On-Line Encyclopedia of Integer Sequences! http://oeis.org/",
	"query": "id:A073074",
	"count": 1,
	"start": 0,
	"results": [
		{
			"number": 73074,
			"data": "1,2,7,9,10,13,14,15,17,18,21,25,26,27,31,33,34,37,41,42,43,45,46,49,50,51,55,57,58,61,62,63,65,66,69,73,74,75,77,78,81,82,83,87,89,90,93,97,98,99,103,105,106,109,110,111,113,114,117,121,122,123,127,129,130,133",
			"name": "Inverse Aronson transform of odious numbers (A000069).",
			"link": [
				"B. Cloitre, N. J. A. Sloane and M. J. Vandermast, \u003ca href=\"http://www.cs.uwaterloo.ca/journals/JIS/VOL6/Cloitre/cloitre2.html\"\u003eNumerical analogues of Aronson's sequence\u003c/a\u003e, J. Integer Seqs., Vol. 6 (2003), #03.2.2.",
				"B. Cloitre, N. J. A. Sloane and M. J. Vandermast, \u003ca href=\"http://arXiv.org/abs/math.NT/0305308\"\u003eNumerical analogues of Aronson's sequence\u003c/a\u003e (math.NT/0305308)"
			],
			"keyword": "nonn,easy",
			"offset": "1,2",
			"author": "_N. J. A. Sloane_, Mar 10 2003",
			"ext": [
				"More terms from _Matthew Vandermast_, Mar 16 2003"
			],
			"references": 0,
			"revision": 9,
			"time": "2012-03-30T17:27:17-04:00",
			"created": "2003-05-16T03:00:00-04:00"
		}
	]
}