{
	"greeting": "Greetings from The On-Line Encyclopedia of Integer Sequences! http://oeis.org/",
	"query": "id:A073942",
	"count": 1,
	"start": 0,
	"results": [
		{
			"number": 73942,
			"data": "3,6,11,13,16,19,22,24,28,33,37,41,43,48,50,55,62,64,67,70,73,75,81,84,86,93,95,98,106,109,111,115,120,124,127,129,138,142,145,147,150,158,162,164,168,170,173,182,186,189,191,196,198,203,211,215,218,220,223",
			"name": "Numbers n such that A002977(n)-A002977(n-1) = 1.",
			"formula": [
				"conjecture : a(n) is asymptotic to c*n where c is around 3.8..."
			],
			"keyword": "nonn",
			"offset": "1,1",
			"author": "_Benoit Cloitre_, Nov 20 2002",
			"references": 0,
			"revision": 6,
			"time": "2012-03-30T18:39:06-04:00",
			"created": "2003-05-16T03:00:00-04:00"
		}
	]
}