{
	"greeting": "Greetings from The On-Line Encyclopedia of Integer Sequences! http://oeis.org/",
	"query": "id:A073742",
	"count": 1,
	"start": 0,
	"results": [
		{
			"number": 73742,
			"data": "1,1,7,5,2,0,1,1,9,3,6,4,3,8,0,1,4,5,6,8,8,2,3,8,1,8,5,0,5,9,5,6,0,0,8,1,5,1,5,5,7,1,7,9,8,1,3,3,4,0,9,5,8,7,0,2,2,9,5,6,5,4,1,3,0,1,3,3,0,7,5,6,7,3,0,4,3,2,3,8,9,5,6,0,7,1,1,7,4,5,2,0,8,9,6,2,3,3,9,1,8,4,0,4,1",
			"name": "Decimal expansion of sinh(1).",
			"comment": [
				"By the Lindemann-Weierstrass theorem, this constant is transcendental. - _Charles R Greathouse IV_, May 14 2019",
				"Decimal expansion of u \u003e 0 such that 1 = arclength on the hyperbola y^2 - x^2 = 1 from (0,0) to (u,y(u)). - _Clark Kimberling_, Jul 04 2020"
			],
			"reference": [
				"S. Selby, editor, CRC Basic Mathematical Tables, CRC Press, 1970, p. 218."
			],
			"link": [
				"G. C. Greubel, \u003ca href=\"/A073742/b073742.txt\"\u003eTable of n, a(n) for n = 1..5000\u003c/a\u003e",
				"Eric Weisstein's World of Mathematics, \u003ca href=\"http://mathworld.wolfram.com/HyperbolicSine.html\"\u003eHyperbolic Sine\u003c/a\u003e",
				"Eric Weisstein's World of Mathematics, \u003ca href=\"http://mathworld.wolfram.com/HyperbolicFunctions.html\"\u003eHyperbolic Functions\u003c/a\u003e",
				"Eric Weisstein's World of Mathematics, \u003ca href=\"http://mathworld.wolfram.com/FactorialSums.html\"\u003eFactorial Sums\u003c/a\u003e",
				"\u003ca href=\"/index/Tra#transcendental\"\u003eIndex entries for transcendental numbers\u003c/a\u003e"
			],
			"formula": [
				"Equals (e - e^(-1))/2.",
				"Equals sin(i)/i. - _N. J. A. Sloane_, Feb 12 2010",
				"Equals Sum_{n\u003e=0} 1/A009445(n). See Gradsteyn-Ryzhik (0.245.6.) - _R. J. Mathar_, Oct 27 2012",
				"Continued fraction representation: sinh(1) = 1 + 1/(6 - 6/(21 - 20/(43 - 42/(73 - ... - (2*n - 1)*(2*n - 2)/((2*n*(2*n + 1) + 1) - ... ))))). See A051397 for proof. Cf. A049469. - _Peter Bala_, Sep 02 2016",
				"Equals Product_{k\u003e=1} 1 + 1/(k * Pi)^2. - _Amiram Eldar_, Jul 16 2020"
			],
			"example": [
				"1.17520119364380145688238185059..."
			],
			"mathematica": [
				"First@ RealDigits@ N[Sinh@ 1, 120] (* _Michael De Vlieger_, Sep 04 2016 *)"
			],
			"program": [
				"(PARI) sinh(1)"
			],
			"xref": [
				"Cf. A068139 (continued fraction), A073745 (csch(1)=1/A073742), A073743 (cosh(1)), A073744 (tanh(1)), A073746 (sech(1)), A073747 (coth(1)), A049469 (sin(1)), A049470 (cos(1))."
			],
			"keyword": "cons,nonn",
			"offset": "1,3",
			"author": "_Rick L. Shepherd_, Aug 07 2002",
			"references": 24,
			"revision": 47,
			"time": "2021-03-06T02:14:53-05:00",
			"created": "2003-05-16T03:00:00-04:00"
		}
	]
}