{
	"greeting": "Greetings from The On-Line Encyclopedia of Integer Sequences! http://oeis.org/",
	"query": "id:A073513",
	"count": 1,
	"start": 0,
	"results": [
		{
			"number": 73513,
			"data": "1,3,17,131,1055,8615,72951,633932,5602768,50193913,454577490,4153943134,38243708524,354330372215,3300752009165,30892997367352,290332329192655,2738477783884855,25913537508233527,245923809778144431,2339944887042508496,22316931815316988517",
			"name": "Number of primes less than 10^n with initial digit 5.",
			"link": [
				"Thomas R. Nicely, \u003ca href=\"https://faculty.lynchburg.edu/~nicely/index.html\"\u003eSome Results of Computational Research in Prime Numbers\u003c/a\u003e [See local copy in A007053]",
				"Tomás Oliveira e Silva, \u003ca href=\"http://sweet.ua.pt/tos/primes.html\"\u003eTables of values of pi(x) and of pi2(x)\u003c/a\u003e"
			],
			"example": [
				"a(2)=3 because there are 3 primes up to 10^2 whose initial digit is 5 (namely 5, 53 and 59)."
			],
			"mathematica": [
				"f[n_] := f[n] = PrimePi[6*10^n] - PrimePi[5*10^n] + f[n - 1]; f[0] = 1; Table[ f[n], {n, 0, 13}]"
			],
			"xref": [
				"Cf. A073509 to A073517, their sum is A006880.",
				"For primes with initial digit d (1 \u003c= d \u003c= 9) see A045707, A045708, A045709, A045710, A045711, A045712, A045713, A045714, A045715; A073517, A073516, A073515, A073514, A073513, A073512, A073511, A073510, A073509"
			],
			"keyword": "base,hard,nonn",
			"offset": "1,2",
			"author": "_Shyam Sunder Gupta_, Aug 14 2002",
			"ext": [
				"Edited and extended by _Robert G. Wilson v_, Aug 29 2002",
				"a(20)-a(22) added by _David Baugh_, Mar 22 2015"
			],
			"references": 23,
			"revision": 11,
			"time": "2021-10-28T12:59:31-04:00",
			"created": "2003-05-16T03:00:00-04:00"
		}
	]
}