{
	"greeting": "Greetings from The On-Line Encyclopedia of Integer Sequences! http://oeis.org/",
	"query": "id:A073235",
	"count": 1,
	"start": 0,
	"results": [
		{
			"number": 73235,
			"data": "8,0,6,6,2,6,6,5,9,3,8,5,5,4,5,9,6,7,3,8,4,9,8,3,6,0,1,8,9,7,7,4,6,6,8,0,7,1,9,3,6,0,0,6,8,0,5,2,5,1,4,9,6,0,5,9,9,5,0,4,7,7,0,8,9,3,0,1,4,5,9,0,1,3,1,1,5,4,9,8,4,4,3,6,1,6,3,0,1,5,8,4,0,3,9,0,0,8,2,6,1,3,2,6,9",
			"name": "Decimal expansion of (Pi^Pi)^Pi.",
			"example": [
				"80662.6659385545967384983601897..."
			],
			"mathematica": [
				"RealDigits[(Pi^Pi)^Pi, 10, 105][[1]] (* _Alonso del Arte_, Jul 03 2012 *)"
			],
			"program": [
				"(PARI) (Pi^Pi)^Pi"
			],
			"xref": [
				"Cf. A000796 (Pi), A073233 (Pi^Pi), A073234 (Pi^Pi^Pi), A073241 ((1/Pi)^(1/Pi)^(1/Pi)), A073242 (((1/Pi)^(1/Pi))^(1/Pi))."
			],
			"keyword": "cons,nonn",
			"offset": "5,1",
			"author": "_Rick L. Shepherd_, Jul 25 2002",
			"references": 4,
			"revision": 7,
			"time": "2012-07-03T11:52:27-04:00",
			"created": "2003-05-16T03:00:00-04:00"
		}
	]
}