{
	"greeting": "Greetings from The On-Line Encyclopedia of Integer Sequences! http://oeis.org/",
	"query": "id:A074481",
	"count": 1,
	"start": 0,
	"results": [
		{
			"number": 74481,
			"data": "1,1,1,1,1,1,1,1,1,1,1,1,1,1,1,1,0,1,1,1,0,1,1,1,1,1,1,1,0,1,1,1,1,1,1,1,1,0,1,1,0,1,0,1,1,1,1,1,1,1,1,1,0,1,0,1,0,1,0,1,0,1,0,1,1,1,0,0,1,1,1,1,1,1,0,1,0,1,0,1,0,1,1,0,1,1,0,0,1,1,1,1,1,0,1,1,0,1,1,0,0,1,0,1,0",
			"name": "Triangle T(p,k) read by rows, where p runs through the primes and 1 \u003c= k \u003c= p-1. T(p,k) = 1 if the reverse of the base-k expansion of p is a prime, otherwise 0.",
			"comment": [
				"Row p has p-1 terms.",
				"A very large version of this pyramid, with 1's replaced with white dots and 0's replaced with black dots, shows a very interesting pattern (see link). The author says: \"These primes form a pattern similar to an astronomical radiant (the point in the sky from which a meteor shower appears to originate)\"."
			],
			"link": [
				"C. E. Nichols, \u003ca href=\"http://www.radiantprimes.com/\"\u003eRadiant Prime\u003c/a\u003e, 2003"
			],
			"example": [
				"Writing 11 in bases 1 through 10, we obtain",
				"11111111111,1011,102,23,21,15,14,13,12,11. Reversing these, we obtain",
				"11111111111,1101,201,32,12,51,41,31,21,11. Now 32 (base 4) and 31 (octal) are composite, all others are prime, so the row for 11 reads.",
				"1,1,1,0,1,1,1,0,1,1",
				"Triangle begins:",
				".1",
				".1 1",
				".1 1 1 1",
				".1 1 1 1 1 1",
				".1 1 1 0 1 1 1 0 1 1",
				"...."
			],
			"xref": [
				"See A089829 for another version."
			],
			"keyword": "base,easy,nonn,tabf",
			"offset": "2,1",
			"author": "C. E. Nichols (radprime(AT)radiantprimes.com), Nov 19 2003",
			"ext": [
				"More terms from _Ray Chandler_, Nov 22 2003"
			],
			"references": 1,
			"revision": 5,
			"time": "2012-03-30T17:29:00-04:00",
			"created": "2003-05-16T03:00:00-04:00"
		}
	]
}