{
	"greeting": "Greetings from The On-Line Encyclopedia of Integer Sequences! http://oeis.org/",
	"query": "id:A074142",
	"count": 1,
	"start": 0,
	"results": [
		{
			"number": 74142,
			"data": "1,-1,-1,0,0,2,1,0,-2,-5,2,3,5,6,-10,-12,-9,11,32,11,-5,-55,-61,29,84,129,9,-188,-232,-136,322,567,255,-354,-1185,-840,585,2038,2318,-594,-3909,-4761,-929,7387,10441,3930,-11137,-23097,-12215,16547,44716,36786,-23108",
			"name": "Coefficients a(n) of a series connected with the odd primes.",
			"comment": [
				"The series reciprocal to the series with coefficients in A005097 has (integer) coefficients with irregular signs and values. In contrast the series reciprocal to the series with coefficients = primes themselves has coefficients (A030018) with alternating signs and regular growth. The radius of convergence (defined from consecutive coefficients ratio) of that series is 0.686777834460."
			],
			"formula": [
				"Sum(a(i)*x^(i-1), (i=1, inf))=1/(1+sum(1/2(p(i)-1)*x^(i-1), i=2, inf)) =1/(1+sum( A005097(i)*x^(i), i=1, inf))"
			],
			"xref": [
				"Cf. A005097, A030018."
			],
			"keyword": "easy,sign",
			"offset": "1,6",
			"author": "_Zak Seidov_, Sep 16 2002",
			"references": 0,
			"revision": 7,
			"time": "2012-03-30T17:26:02-04:00",
			"created": "2003-05-16T03:00:00-04:00"
		}
	]
}