{
	"greeting": "Greetings from The On-Line Encyclopedia of Integer Sequences! http://oeis.org/",
	"query": "id:A074053",
	"count": 1,
	"start": 0,
	"results": [
		{
			"number": 74053,
			"data": "1,21,5324,9625,12705,13552,15246,18150,19360,21780,22638,23232,26136,26950,29403,32340,34496,38500,38808,39325,41405,43659,46137,46200,49280,51909,51975,55000,55440,59136,61875,62370,65910,66000,66528",
			"name": "Numbers n such that A001414(n) = sum of composites from the smallest prime factor of n to the largest prime factor of n.",
			"example": [
				"Sum of primes dividing 5324 with repetition is: 2+2+11+11+11 = 37 and sum of composites between 2 and 11 is 4+6+8+9+10 = 37."
			],
			"xref": [
				"Cf. A001414."
			],
			"keyword": "nonn",
			"offset": "1,2",
			"author": "_Jason Earls_, Sep 15 2002",
			"references": 0,
			"revision": 8,
			"time": "2017-12-15T17:36:00-05:00",
			"created": "2003-05-16T03:00:00-04:00"
		}
	]
}