{
	"greeting": "Greetings from The On-Line Encyclopedia of Integer Sequences! http://oeis.org/",
	"query": "id:A074600",
	"count": 1,
	"start": 0,
	"results": [
		{
			"number": 74600,
			"data": "2,7,29,133,641,3157,15689,78253,390881,1953637,9766649,48830173,244144721,1220711317,6103532009,30517610893,152587956161,762939584197,3814697527769,19073486852413,95367432689201,476837160300277",
			"name": "a(n) = 2^n + 5^n.",
			"comment": [
				"Digital root of a(n) is A010697(n). - _Peter M. Chema_, Oct 24 2016"
			],
			"reference": [
				"Miller, Steven J., ed. Benford's Law: Theory and Applications. Princeton University Press, 2015. See page 14."
			],
			"link": [
				"Vincenzo Librandi, \u003ca href=\"/A074600/b074600.txt\"\u003eTable of n, a(n) for n = 0..200\u003c/a\u003e",
				"D. Suprijanto, I. W. Suwarno, \u003ca href=\"http://dx.doi.org/10.12988/ams.2014.4139\"\u003eObservation on Sums of Powers of Integers Divisible by 3k-1\u003c/a\u003e, Applied Mathematical Sciences, Vol. 8, 2014, no. 45, pp. 2211-2217.",
				"\u003ca href=\"/index/Rec#order_02\"\u003eIndex entries for linear recurrences with constant coefficients\u003c/a\u003e, signature (7,-10)."
			],
			"formula": [
				"a(n) = 5*a(n-1)-3*2^(n-1) = 7*a(n-1)- 10*a(n-2). [Corrected by _Zak Seidov_, Oct 24 2009]",
				"G.f.: 1/(1-2*x)+1/(1-5*x). E.g.f.: e^(2*x)+e^(5*x). - _Mohammad K. Azarian_, Jan 02 2009"
			],
			"mathematica": [
				"Table[2^n + 5^n, {n, 0, 25}]",
				"LinearRecurrence[{7,-10},{2,7},30] (* _Harvey P. Dale_, May 09 2019 *)"
			],
			"program": [
				"(MAGMA) [2^n + 5^n: n in [0..35]]; // _Vincenzo Librandi_, Apr 30 2011",
				"(PARI) a(n)=2^n+5^n \\\\ _Charles R Greathouse IV_, Sep 24 2015"
			],
			"xref": [
				"Cf. A000051, A034472, A052539, A034474, A062394, A034491, A062395, A062396, A007689, A063376, A063481, A074601-A074624, A010697, A094475, A337429."
			],
			"keyword": "easy,nonn",
			"offset": "0,1",
			"author": "_Robert G. Wilson v_, Aug 25 2002",
			"references": 58,
			"revision": 48,
			"time": "2020-09-28T07:46:18-04:00",
			"created": "2003-05-16T03:00:00-04:00"
		}
	]
}