{
	"greeting": "Greetings from The On-Line Encyclopedia of Integer Sequences! http://oeis.org/",
	"query": "id:A074470",
	"count": 1,
	"start": 0,
	"results": [
		{
			"number": 74470,
			"data": "2,7,16,31,60,113,205,371,663,1176,2069,3631,6341,11039,19159,33164,57287,98763,169967,292061,501165,858892,1470334,2514423,4295912,7333264,12508213,21319360,36312685,61811287,105152840,178787270,303829041,516074615,876190239",
			"name": "Subscript m such that PhiComposite-Harmonic series cd[m]=Sum[1/A000010[A002808(k)],{k,1,m}]\u003e=n.",
			"mathematica": [
				"c[x_] := FixedPoint[x+PrimePi[ # ]+1\u0026, x] {s=0, s1=0}; Do[s=s+(1/EulerPhi[c[n]]); If[Greater[Floor[s], s1], s1=Floor[s]; Print[{n, Floor[s]}]], {n, 1, 1000000}]"
			],
			"xref": [
				"Cf. A004080, A002387, A002808, A000203, A073255, A046024, A074631, A074633, A074468, A074469."
			],
			"keyword": "hard,nonn",
			"offset": "1,1",
			"author": "_Labos Elemer_, Sep 05 2002",
			"ext": [
				"More terms from Lambert Klasen (lambert.klasen(AT)gmx.net), Jul 23 2005",
				"a(30)-a(35) from _Donovan Johnson_, Aug 21 2011"
			],
			"references": 1,
			"revision": 11,
			"time": "2013-10-15T22:31:29-04:00",
			"created": "2003-05-16T03:00:00-04:00"
		}
	]
}