{
	"greeting": "Greetings from The On-Line Encyclopedia of Integer Sequences! http://oeis.org/",
	"query": "id:A074431",
	"count": 1,
	"start": 0,
	"results": [
		{
			"number": 74431,
			"data": "0,0,1,9,60,270,1157,5616,29160,157464,883872,5038848,28421280,158130514,877515379,4897760256,27554100480,156116108160,889046473445,5077739844402,29045467518171,166351313967709,954240788994048,5484237660094464,31581615565250142",
			"name": "Number of 6-ary Lyndon words of length n with trace 1 and subtrace 3 over Z_6.",
			"comment": [
				"Same as the number of 6-ary Lyndon words of length n with trace 5 and subtrace 3 over Z_6."
			],
			"link": [
				"Max Alekseyev, \u003ca href=\"http://home.gwu.edu/~maxal/gpscripts/\"\u003ePARI/GP scripts for miscellaneous math problems\u003c/a\u003e",
				"F. Ruskey \u003ca href=\"http://combos.org/TSlyndonZ6\"\u003e6-ary Lyndon words with given trace and subtrace\u003c/a\u003e"
			],
			"xref": [
				"Cf. A074422, A074423, A074424, A074425, A074426, A074427, A074428, A074429, A074430, A074432, A074433, A074434, A074435, A074436, A074437, A074438, A074439, A074440, A074441, A074442, A074443, A074444, A074445."
			],
			"keyword": "easy,nonn",
			"offset": "1,4",
			"author": "_Frank Ruskey_ and Nate Kube, Aug 23 2002",
			"ext": [
				"Terms a(11) onwards from _Max Alekseyev_, Feb 20 2010"
			],
			"references": 21,
			"revision": 11,
			"time": "2019-05-03T07:21:00-04:00",
			"created": "2003-05-16T03:00:00-04:00"
		}
	]
}