{
	"greeting": "Greetings from The On-Line Encyclopedia of Integer Sequences! http://oeis.org/",
	"query": "id:A074244",
	"count": 1,
	"start": 0,
	"results": [
		{
			"number": 74244,
			"data": "1,2,7,9,14,18,29,58,213,271,284,426,542,673,731,791,833,1011,1015,1017,1131,1305,1346,1348,1376,1462,1508,1568,1582,1624,1666,1720,1960,2022,2030,2034,2064,2088,2262,2352,2436,2580,2610,2940,2971,5942,7775",
			"name": "Numbers k such that phi(k) is a harmonic number.",
			"comment": [
				"Recall that k is harmonic if the harmonic mean of its divisors is an integer, i.e. if k * tau(k) / sigma(k) is an integer (Tattersall, p. 147)."
			],
			"reference": [
				"James J. Tattersall, Elementary Number Theory in Nine Chapters, Cambridge Univ. Press, 2001."
			],
			"link": [
				"Amiram Eldar, \u003ca href=\"/A074244/b074244.txt\"\u003eTable of n, a(n) for n = 1..10000\u003c/a\u003e (terms 1..1000 from Donovan Johnson)"
			],
			"example": [
				"phi(14) = 6 and 6 * tau(6) / sigma(6) = 6 * 4 / 12 = 2, an integer, so 14 is a term of the sequence."
			],
			"mathematica": [
				"isHarmonic[n_] := IntegerQ[n*DivisorSigma[0, n] / DivisorSigma[1, n]]; Select[Range[10^4], isHarmonic[EulerPhi[ # ]] \u0026]"
			],
			"xref": [
				"Cf. A000010, A001599."
			],
			"keyword": "nonn",
			"offset": "1,2",
			"author": "_Joseph L. Pe_, Sep 19 2002",
			"references": 1,
			"revision": 16,
			"time": "2020-12-01T02:54:10-05:00",
			"created": "2003-05-16T03:00:00-04:00"
		}
	]
}