{
	"greeting": "Greetings from The On-Line Encyclopedia of Integer Sequences! http://oeis.org/",
	"query": "id:A074093",
	"count": 1,
	"start": 0,
	"results": [
		{
			"number": 74093,
			"data": "1,2,1,2,1,3,1,1,1,3,1,2,1,2,1,2,1,3,1,2,1,3,1,1,1,2,1,3,1,3,1,1,1,2,1,2,1,2,1,2,1,4,1,2,1,3,1,1,1,2,1,3,1,2,1,1,1,3,1,2,1,2,1,1,1,4,1,2,1,3,1,2,1,2,1,2,1,4,1,1,1,3,1,1,1,2,1,2,1,2,1,2,1,2,1,2,1,2,1,3,1,4,1,1,1",
			"name": "Number of values of k such that n = k - largest divisor of k (\u003ck).",
			"link": [
				"Antti Karttunen, \u003ca href=\"/A074093/b074093.txt\"\u003eTable of n, a(n) for n = 1..100000\u003c/a\u003e"
			],
			"formula": [
				"a(2n+1)=1; sum(k=1, n, a(k)) seems to be asymptotic to C*n with C=1.6... - _Benoit Cloitre_, Aug 21 2002"
			],
			"example": [
				"a(6) = 3 and the three values of k are 7,9 and 12."
			],
			"mathematica": [
				"f1[n_] := Count[Range[n, 2 n], _?(Differences[Take[Divisors[#], -2]] == {n} \u0026)]; Join[{1}, Table[f1[n], {n, 2, 105}]] (* _Jayanta Basu_, Jul 30 2013 *)"
			],
			"program": [
				"(PARI) a(n)=sum(k=2,2*n,if(k- component(divisors(k),numdiv(k)-1)-n,0,1))"
			],
			"xref": [
				"Cf. A073932, A073933, A073934, A073935, A060681."
			],
			"keyword": "nonn",
			"offset": "1,2",
			"author": "_Amarnath Murthy_, Aug 19 2002",
			"ext": [
				"More terms from _Benoit Cloitre_ and _Vladeta Jovovic_, Aug 21 2002"
			],
			"references": 1,
			"revision": 16,
			"time": "2019-02-06T17:19:10-05:00",
			"created": "2003-05-16T03:00:00-04:00"
		}
	]
}