{
	"greeting": "Greetings from The On-Line Encyclopedia of Integer Sequences! http://oeis.org/",
	"query": "id:A074103",
	"count": 1,
	"start": 0,
	"results": [
		{
			"number": 74103,
			"data": "1,1,2,3,4,6,3,12,15,20,30,15,60,60,84,105,140,210,105,420,420,420,315,840,840,1260,1260,1540,2310,2520,4620,4620,5460,5460,9240,9240,13860,13860,16380,16380,27720,30030,32760,60060,60060,60060,45045,120120",
			"name": "a(n) = n!/A074859(n).",
			"comment": [
				"1/a(n) is probability that a random degree-n permutation has the maximum possible order."
			],
			"link": [
				"Alois P. Heinz, \u003ca href=\"/A074103/b074103.txt\"\u003eTable of n, a(n) for n = 0..175\u003c/a\u003e"
			],
			"mathematica": [
				"g[n_] := g[n] = Max[LCM @@@ IntegerPartitions[n]];",
				"f[x_, n_] := Total[(MoebiusMu[g[n]/#]*Exp[Total[(x^#/#\u0026) /@ Divisors[#]]]\u0026) /@ Divisors[g[n]]];",
				"a[0] = 1; a[n_] := 1/SeriesCoefficient[f[x, n], {x, 0, n}];",
				"Table[a[n], {n, 0, 50}] (* _Jean-François Alcover_, May 24 2019 *)"
			],
			"xref": [
				"Cf. A074859, A000793."
			],
			"keyword": "nonn",
			"offset": "0,3",
			"author": "_Vladeta Jovovic_, Sep 15 2002",
			"ext": [
				"More terms from _Max Alekseyev_, Jun 13 2011"
			],
			"references": 2,
			"revision": 16,
			"time": "2019-05-24T17:16:00-04:00",
			"created": "2003-05-16T03:00:00-04:00"
		}
	]
}