{
	"greeting": "Greetings from The On-Line Encyclopedia of Integer Sequences! http://oeis.org/",
	"query": "id:A074146",
	"count": 1,
	"start": 0,
	"results": [
		{
			"number": 74146,
			"data": "1,2,4,3,5,7,6,8,9,13,10,11,12,14,23,15,16,17,18,19,29,20,21,22,24",
			"name": "Erroneous version of A074135.",
			"keyword": "dead",
			"offset": "1,2",
			"references": 0,
			"revision": 2,
			"time": "2006-12-06T03:00:00-05:00",
			"created": "2003-05-16T03:00:00-04:00"
		}
	]
}