{
	"greeting": "Greetings from The On-Line Encyclopedia of Integer Sequences! http://oeis.org/",
	"query": "id:A074876",
	"count": 1,
	"start": 0,
	"results": [
		{
			"number": 74876,
			"data": "4,16,85,923,6713,8035,8827,10109,19349,21671,30565,31499,41285,116129,154255,269009,282799,312997,362483,477325,486301,498329,525083,607057,609367,714589,995087,1038841,2013187,2084785,2088545,2148409,2185937",
			"name": "Numbers n such that sigma(sigma(n) - phi(n)) = phi(sigma(n) + phi(n)).",
			"example": [
				"sigma(sigma(85) - phi(85)) = sigma(108 - 64) = 84; phi(sigma(85) + phi(85)) = phi(108 + 64) = 84, so 85 is a term of the sequence."
			],
			"mathematica": [
				"r = {}; Do[d = DivisorSigma[1, n]; e = EulerPhi[n]; If[DivisorSigma[1, d - e] == EulerPhi[d + e], r = Append[r, n]], {n, 1, 10^5}]; r"
			],
			"keyword": "nonn",
			"offset": "1,1",
			"author": "_Joseph L. Pe_, Sep 12 2002",
			"ext": [
				"a(14)-a(33) from _Donovan Johnson_, Feb 17 2010"
			],
			"references": 0,
			"revision": 5,
			"time": "2014-02-11T19:05:30-05:00",
			"created": "2003-05-16T03:00:00-04:00"
		}
	]
}