{
	"greeting": "Greetings from The On-Line Encyclopedia of Integer Sequences! http://oeis.org/",
	"query": "id:A074002",
	"count": 1,
	"start": 0,
	"results": [
		{
			"number": 74002,
			"data": "0,0,6,6,30,72,252,756,2106,6642,19602,59292,176904,531441,1594323,4780782,14344533,43046721,129146724,387420489",
			"name": "Number of elements of GF(3^n) with trace 0 and subtrace 2.",
			"link": [
				"F. Ruskey, \u003ca href=\"http://combos.org/TSGF3\"\u003eNumber of Elements of GF(3^n) with given trace and subtrace\u003c/a\u003e"
			],
			"formula": [
				"A074000(n)+ A074001(n) + a(n) = 3^n = A000244(n). - _R. J. Mathar_, Jun 14 2019"
			],
			"xref": [
				"Cf. A074000, A074001, A074003, A074004, A074005."
			],
			"keyword": "nonn,more",
			"offset": "1,3",
			"author": "_Frank Ruskey_ and Nate Kube, Aug 19 2002",
			"references": 5,
			"revision": 17,
			"time": "2019-06-14T06:25:34-04:00",
			"created": "2003-05-16T03:00:00-04:00"
		}
	]
}