{
	"greeting": "Greetings from The On-Line Encyclopedia of Integer Sequences! http://oeis.org/",
	"query": "id:A074736",
	"count": 1,
	"start": 0,
	"results": [
		{
			"number": 74736,
			"data": "4,8,36,32,108,128,900,216,972,2048,4500,8192,8748,1944,44100,131072,13500,524288,112500,17496,708588,8388608,308700,7776,6377292,27000,2812500,536870912,337500,2147483648,5336100,1417176,516560652,69984",
			"name": "Goedel encoding of the prime factors of n, in increasing order and repeated according to multiplicity.",
			"comment": [
				"For irregular triangle T(n,k) at A027746, a(n) = Product_{1..A001222(n)} pi(k)^T(n,k). - _Michael De Vlieger_, May 04 2020."
			],
			"reference": [
				"K. Gödel, \"On Formally Undecidable Propositions of Principia Mathematica and Related Systems\", Dover Publications, 1992."
			],
			"link": [
				"Michael De Vlieger, \u003ca href=\"/A074736/b074736.txt\"\u003eTable of n, a(n) for n = 2..3322\u003c/a\u003e"
			],
			"formula": [
				"a(n) = prime(1)^p_1 * prime(2)^p_2 * ... * prime(k)^p_k, where p_1 \u003c= ... \u003c= p_k are the prime factors of n, repeated according to multiplicity."
			],
			"example": [
				"The prime factors of 12 in increasing order and repeated according to multiplicity are 2, 2, 3. Hence a(12) = 2^2 * 3^2 * 5^3 = 4500."
			],
			"mathematica": [
				"Array[Times @@ MapIndexed[Prime[First[#2]]^#1 \u0026, Apply[Join, ConstantArray[#1, #2] \u0026 @@@ FactorInteger[#]]] \u0026, 34, 2] (* _Michael De Vlieger_, May 04 2020 *)"
			],
			"program": [
				"(PARI) for(n=2,50,m=factor(n):s=1:c=1:for(k=1,matsize(m)[1], for(l=1,m[k,2],s=s*prime(c)^m[k,1]:c=c+1)):print1(s\",\"))"
			],
			"xref": [
				"Cf. A001222, A027746."
			],
			"keyword": "nonn",
			"offset": "2,1",
			"author": "_Joseph L. Pe_, Sep 28 2002",
			"ext": [
				"More terms from _Ralf Stephan_, Mar 22 2003"
			],
			"references": 3,
			"revision": 13,
			"time": "2020-05-04T17:46:44-04:00",
			"created": "2003-05-16T03:00:00-04:00"
		}
	]
}