{
	"greeting": "Greetings from The On-Line Encyclopedia of Integer Sequences! http://oeis.org/",
	"query": "id:A074354",
	"count": 1,
	"start": 0,
	"results": [
		{
			"number": 74354,
			"data": "0,0,0,0,0,14,64,218,692,1982,5496,14562,37692,95142,236032,576074,1387780,3304078,7787656,18190386,42151116,96972534,221651472,503650970,1138286740,2559944414,5731095704,12776843138,28374100572",
			"name": "Coefficient of q^3 in nu(n), where nu(0)=1, nu(1)=b and, for n\u003e=2, nu(n)=b*nu(n-1)+lambda*(1+q+q^2+...+q^(n-2))*nu(n-2) with (b,lambda)=(1,2).",
			"comment": [
				"Coefficient of q^0 is A001045(n+1)."
			],
			"link": [
				"M. Beattie, S. Dăscălescu and S. Raianu, \u003ca href=\"https://arxiv.org/abs/math/0204075\"\u003eLifting of Nichols Algebras of Type B_2\u003c/a\u003e, arXiv:math/0204075 [math.QA], 2002."
			],
			"formula": [
				"Conjectures from _Colin Barker_, Nov 18 2017: (Start)",
				"G.f.: 2*x^5*(1 + 2*x)*(7 - 10*x - 13*x^2 + 12*x^3 + 12*x^4) / ((1 + x)^4*(1 - 2*x)^4).",
				"a(n) = 4*a(n-1) + 2*a(n-2) - 20*a(n-3) - a(n-4) + 40*a(n-5) + 8*a(n-6) - 32*a(n-7) - 16*a(n-8) for n\u003e10.",
				"(End)"
			],
			"example": [
				"The first 6 nu polynomials are nu(0)=1, nu(1)=1, nu(2)=3, nu(3)=5+2q, nu(4)=11+8q+6q^2, nu(5)=21+22q+20q^2+14q^3+4q^4, so the coefficients of q^1 are 0,0,0,0,0,14."
			],
			"xref": [
				"Coefficients of q^0, q^1 and q^2 are in A001045, A074352 and A074353. Related sequences with other values of b and lambda are in A074082-A074089, A074035-A074363."
			],
			"keyword": "nonn",
			"offset": "0,6",
			"author": "Y. Kelly Itakura (yitkr(AT)mta.ca), Aug 21 2002",
			"ext": [
				"More terms from _Benoit Cloitre_, Jan 16 2003",
				"Corrected by _T. D. Noe_, Oct 25 2006"
			],
			"references": 5,
			"revision": 15,
			"time": "2017-11-18T09:17:08-05:00",
			"created": "2003-05-16T03:00:00-04:00"
		}
	]
}