{
	"greeting": "Greetings from The On-Line Encyclopedia of Integer Sequences! http://oeis.org/",
	"query": "id:A075599",
	"count": 1,
	"start": 0,
	"results": [
		{
			"number": 75599,
			"data": "7,173,11731,2117317,421173173,34211731733,1342117317337,813421173173377,28134211731733771,4281342117317337713,142813421173173377131,21428134211731733771317,2214281342117317337713171,2221428134211731733771317113,922214281342117317337713171139",
			"name": "a(1) = 7 and then the smallest prime that is obtained by placing digits on both sides of the previous term. Or smallest prime that encompasses a(n-1).",
			"xref": [
				"Cf. A075595, A075596, A075597, A075598, A075600, A075601, A075602."
			],
			"keyword": "base,nonn",
			"offset": "1,1",
			"author": "_Amarnath Murthy_, Sep 28 2002",
			"ext": [
				"More terms from _Sascha Kurz_, Jan 20 2003",
				"Further terms from _Ray G. Opao_, Nov 26 2004"
			],
			"references": 7,
			"revision": 7,
			"time": "2013-12-05T19:55:39-05:00",
			"created": "2003-05-16T03:00:00-04:00"
		}
	]
}