{
	"greeting": "Greetings from The On-Line Encyclopedia of Integer Sequences! http://oeis.org/",
	"query": "id:A075747",
	"count": 1,
	"start": 0,
	"results": [
		{
			"number": 75747,
			"data": "0,1,3,4,6,7,8,9,14,15,18,19,20,22,26,28,30,32,33,36,41,42,44,45,46,47,52,56,57,58,62,64,66,67,70,72,75,77,79,81,84,86,87,90,96,99,100,101,103,105,106,108,109,110,111,112,113,114,123,125,127,129,131,132,133",
			"name": "Numbers n such that 210*n + 17 is prime.",
			"link": [
				"Vincenzo Librandi, \u003ca href=\"/A075747/b075747.txt\"\u003eTable of n, a(n) for n = 1..1000\u003c/a\u003e"
			],
			"example": [
				"n=1: 210*1 + 17 = 227 is prime."
			],
			"mathematica": [
				"Select[Range[0, 500], PrimeQ[210*# + 17] \u0026] (* _Vincenzo Librandi_, Oct 04 2012 *)"
			],
			"program": [
				"(MAGMA) [n: n in [0..150]| IsPrime(210*n + 17)]; // _Vincenzo Librandi_, Oct 04 2012",
				"(PARI) is(n)=isprime(210*n+17) \\\\ _Charles R Greathouse IV_, May 22 2017"
			],
			"xref": [
				"Cf. A140842."
			],
			"keyword": "easy,nonn",
			"offset": "1,3",
			"author": "_Zak Seidov_, Oct 08 2002",
			"ext": [
				"0 inserted by _Ray Chandler_, Apr 30 2010"
			],
			"references": 2,
			"revision": 17,
			"time": "2018-01-14T03:22:39-05:00",
			"created": "2003-05-16T03:00:00-04:00"
		}
	]
}