{
	"greeting": "Greetings from The On-Line Encyclopedia of Integer Sequences! http://oeis.org/",
	"query": "id:A075551",
	"count": 1,
	"start": 0,
	"results": [
		{
			"number": 75551,
			"data": "2,3,5,7,11,17,23,29,37,47,59,67,73,79,89,101,109,113,127,149,173,191,211,229,241,251,263,277,283,293,307,331,349,367,379,397,409,419,431,443,457,463,479,491,503,509,521,541,557,569,577,587,599,607,613,617",
			"name": "Primes generated in A074311.",
			"comment": [
				"Inspired by A073627, A073628. Primes generated in the sequence are in A075551. Primes generated in A073628 are in A075552."
			],
			"xref": [
				"Cf. A073627, A073628, A074311, A075552."
			],
			"keyword": "nonn",
			"offset": "1,1",
			"author": "_Zak Seidov_, Sep 23 2002",
			"references": 2,
			"revision": 4,
			"time": "2012-03-30T17:26:03-04:00",
			"created": "2003-05-16T03:00:00-04:00"
		}
	]
}