{
	"greeting": "Greetings from The On-Line Encyclopedia of Integer Sequences! http://oeis.org/",
	"query": "id:A075612",
	"count": 1,
	"start": 0,
	"results": [
		{
			"number": 75612,
			"data": "1,2,5,17,19,43,61,127,149,199,263,349,353,461,587,769,809,883,1009,1303,1619,2179,2207,2467,2591,2593,2909,3019,3517,3821,3853,3989,5669,6121,8011,8273,8563,9127,10163,10639,12781,13009,13577,13619,13907",
			"name": "a(1) = 1, a(n) = smallest prime number not already used such that concatenation of a(k) and a(n) is composite for all k = 1 to n-1.",
			"comment": [
				"Is the sequence finite? Surprisingly it contains the finite sequence A020608 (2,5,17,19,43,61)."
			],
			"link": [
				"Emmanuel Vantieghem, \u003ca href=\"/A075612/a075612.txt\"\u003eTable of n, a(n) for n = 1..306\u003c/a\u003e"
			],
			"example": [
				"a(4) = 17 because 117, 217 and 517 are all composite."
			],
			"mathematica": [
				"(* to compute the terms up to B *)",
				"K[m_Integer, n_Integer] := n + m 10^IntegerLength[n];",
				"A = {1, 2}; i = 2; b = 2; While[b \u003c B, i++; m = Last[A];",
				"b = NextPrime[m]; flag = 0;",
				"While[flag == 0, j = 1; While[j \u003c i \u0026\u0026 ! PrimeQ[K[A[[j]], b]], j++];",
				"  If[j == i, flag = 1; AppendTo[A, b],",
				"   b = NextPrime[b]]]]; A (* _Emmanuel Vantieghem_, Nov 28 2015 *)"
			],
			"xref": [
				"Cf. A075611."
			],
			"keyword": "base,nonn",
			"offset": "1,2",
			"author": "_Amarnath Murthy_, Sep 28 2002",
			"ext": [
				"More terms from _David Wasserman_, Jan 21 2005"
			],
			"references": 1,
			"revision": 11,
			"time": "2015-11-28T13:01:08-05:00",
			"created": "2003-05-16T03:00:00-04:00"
		}
	]
}