{
	"greeting": "Greetings from The On-Line Encyclopedia of Integer Sequences! http://oeis.org/",
	"query": "id:A075357",
	"count": 1,
	"start": 0,
	"results": [
		{
			"number": 75357,
			"data": "0,1,2,2,3,4,4,5,6,6,7,8,8,9,10,11,11,12,13,13,14,15,16,16,17,18,18,19,20,21,21,22,23,24,24,25,26,27,27,28,29,30,30,31,32,33,33,34,35,36,37,37,38,39,40,40,41,42,43,43,44,45,46,47,47,48,49,50,50,51,52,53,53,54",
			"name": "a(n) = smallest k such that (n+1)(n+2)...(n+k) is just \u003e= n!.",
			"comment": [
				"Is this sequence the same as A094331? - _David Wasserman_, Jan 16 2005"
			],
			"xref": [
				"Cf. A075358.",
				"Cf. A094331."
			],
			"keyword": "nonn",
			"offset": "1,3",
			"author": "_Amarnath Murthy_, Sep 19 2002",
			"ext": [
				"More terms from _David Wasserman_, Jan 16 2005"
			],
			"references": 1,
			"revision": 4,
			"time": "2013-12-05T19:55:37-05:00",
			"created": "2003-05-16T03:00:00-04:00"
		}
	]
}