{
	"greeting": "Greetings from The On-Line Encyclopedia of Integer Sequences! http://oeis.org/",
	"query": "id:A075464",
	"count": 1,
	"start": 0,
	"results": [
		{
			"number": 75464,
			"data": "1,4,5,4,15,28,33,40,25,44,55,72,105,56,117,104,147,188,141,224,245,276,231,270,353,356,405,416,345,376,553,428,469,520,563,600,761,772,561,696,891,940,953,772,1069,1188,971,1096,1165,1220,1317,1256,1487,1400",
			"name": "a(n) is the minimal number of nontrivial switch flippings needed to solve the all-ones lights out problem on an n X n square.",
			"comment": [
				"For squares having multiple possible solutions (see A075462, A075463), there may be nontrivial solutions involving *more* than this number of flips."
			],
			"reference": [
				"See A075462 for references."
			],
			"link": [
				"Max Alekseyev and Zhao Hui Du, \u003ca href=\"/A075464/b075464.txt\"\u003eTable of n, a(n) for n = 1..78\u003c/a\u003e (terms 1..60 from Max Alekseyev)",
				"Eric Weisstein's World of Mathematics, \u003ca href=\"http://mathworld.wolfram.com/LightsOutPuzzle.html\"\u003eLights Out Puzzle\u003c/a\u003e",
				"Zhao Hui Du, \u003ca href=\"/A075464/a075464.c.txt\"\u003eC code for the problem\u003c/a\u003e Please compile it by latest gcc with option -O3 -msse4.2"
			],
			"xref": [
				"Cf. A075462, A075463."
			],
			"keyword": "nonn,nice",
			"offset": "1,2",
			"author": "_Eric W. Weisstein_, Sep 17 2002",
			"ext": [
				"a(26)-a(29) from _Les Reid_, Sep 09 2007",
				"a(30)-a(38) from _Max Alekseyev_, Sep 17 2009",
				"Extended by _Max Alekseyev_, Sep 20 2009"
			],
			"references": 5,
			"revision": 32,
			"time": "2018-04-01T19:39:11-04:00",
			"created": "2003-05-16T03:00:00-04:00"
		}
	]
}