{
	"greeting": "Greetings from The On-Line Encyclopedia of Integer Sequences! http://oeis.org/",
	"query": "id:A075435",
	"count": 1,
	"start": 0,
	"results": [
		{
			"number": 75435,
			"data": "2,6,4,20,24,8,70,116,72,16,252,520,456,192,32,924,2248,2496,1504,480,64,3432,9520,12624,9728,4480,1152,128,12870,39796,60792,56400,33440,12480,2688,256,48620,164904,283208,304704,218720,105600,33152,6144",
			"name": "T(n,k) = right- or upward-moving paths connecting opposite corners of a n*n chessboard, visiting the diagonal at k points between start and finish.",
			"comment": [
				"If it is required that the paths stay at the same side of the diagonal between intermediate points, then the count of intermediate points becomes an exact count of crossings and one gets table A039598. Row sums give A075436."
			],
			"formula": [
				"G.f.: [2*x*c(x)/(1-x*c(x))]^m=sum(n\u003e=m T(n,m)*x^n) where c(x) is the g.f. of A000108, also T(n,m)=sum(k=m..n, k/n*binomial(2*n-k-1,n-1)*2^k*binomial(k-1,m-1)), n\u003e=m\u003e0. [_Vladimir Kruchinin_, Mar 30 2011]"
			],
			"example": [
				"{2},",
				"{6, 4},",
				"{20, 24, 8},",
				"{70, 116, 72, 16},",
				"{252, 520, 456, 192, 32},",
				"..."
			],
			"mathematica": [
				"Table[Table[Plus@@Apply[Times, Compositions[n-1-k, k]+1 /. i_Integer-\u003eBinomial[2i, i], {1}], {k, 1, n-1}], {n, 2, 12}]"
			],
			"program": [
				"(Maxima)",
				"T(n,m):=sum(k/n*binomial(2*n-k-1,n-1)*2^k*binomial(k-1,m-1),k,m,n); /* _Vladimir Kruchinin_, Mar 30 2011 */",
				"(Sage)",
				"@cached_function",
				"def T(k,n):",
				"    if k==n: return 2^n",
				"    if k==0: return 0",
				"    return sum(binomial(2*i,i)*T(k-1,n-i) for i in (1..n-k+1))",
				"A075435 = lambda n,k: T(k,n)",
				"for n in (1..9): print([A075435(n,k) for k in (1..n)]) # _Peter Luschny_, Mar 12 2016"
			],
			"xref": [
				"Cf. A075436, A039598."
			],
			"keyword": "easy,nonn,tabl",
			"offset": "2,1",
			"author": "_Wouter Meeussen_, Sep 15 2002",
			"references": 2,
			"revision": 27,
			"time": "2020-03-08T04:55:10-04:00",
			"created": "2003-05-16T03:00:00-04:00"
		}
	]
}