{
	"greeting": "Greetings from The On-Line Encyclopedia of Integer Sequences! http://oeis.org/",
	"query": "id:A075490",
	"count": 1,
	"start": 0,
	"results": [
		{
			"number": 75490,
			"data": "1,2,14,30,1364,126,335922,87380,12093234,1398100,111111111110,22369620,116719860413532,94036996914,40210710958664,321685687669320,314824432191309680912,121871948002098,749896248023298716143374",
			"name": "Sum[phi[n]^j,j = 1..n].",
			"example": [
				"n=5: phi[5]=4, 4+16+64+256+1024=1364 n=22: phi[22]=10, a(22)=10+100+...10^22=11111111111111111111110, n=101: a(101)=1010101.....010100, etc."
			],
			"mathematica": [
				"Table[Apply[Plus, Table[EulerPhi[w]^j, {j, 1, w}]], {w, 1, 25}]"
			],
			"xref": [
				"Cf. A000010."
			],
			"keyword": "easy,nonn",
			"offset": "1,2",
			"author": "_Labos Elemer_, Sep 26 2002",
			"references": 0,
			"revision": 5,
			"time": "2013-10-15T22:31:31-04:00",
			"created": "2003-05-16T03:00:00-04:00"
		}
	]
}