{
	"greeting": "Greetings from The On-Line Encyclopedia of Integer Sequences! http://oeis.org/",
	"query": "id:A075027",
	"count": 1,
	"start": 0,
	"results": [
		{
			"number": 75027,
			"data": "4,6,8,10,12,16,18,20,24,28,30,32,36,40,42,48,50,52,54,56,60,64,66,68,70,72,78,80,84,88,90,92,96,100,102,108,110,112,114,120,124,126,128,130,132,138,140,144,150,152,154,156,160,162,165,168,170,174,176,180",
			"name": "Numbers k such that d(k-1) \u003c d(k) \u003e d(k+1), d = A000005.",
			"comment": [
				"Obviously every term is composite.",
				"The average of each twin prime pair is a term.",
				"a(55) = 165 is the first odd term; A323379 lists all odd terms. - _Jon E. Schoenfield_, Sep 26 2021"
			],
			"link": [
				"Michael De Vlieger, \u003ca href=\"/A075027/b075027.txt\"\u003eTable of n, a(n) for n = 1..3403\u003c/a\u003e (first 1001 terms from Harvey P. Dale)"
			],
			"example": [
				"10 is a term since d(9) = 3, d(10) = 4, d(11) = 2 and 3 \u003c 4 \u003e 2."
			],
			"maple": [
				"q:= k-\u003e (d-\u003e d(k-1)\u003cd(k) and d(k)\u003ed(k+1))(numtheory[tau]):",
				"select(q, [$1..200])[];  # _Alois P. Heinz_, Sep 28 2021"
			],
			"mathematica": [
				"#[[2,1]]\u0026/@Select[Partition[Table[{n,DivisorSigma[0,n]},{n,200}],3,1], #[[1,-1]]\u003c#[[2,-1]]\u003e#[[3,-1]]\u0026] (* _Harvey P. Dale_, Oct 09 2011 *)"
			],
			"xref": [
				"Cf. A000005, A014574, A075025, A075026, A323379."
			],
			"keyword": "nonn",
			"offset": "1,1",
			"author": "_Amarnath Murthy_, Sep 02 2002",
			"ext": [
				"More terms from _Jason Earls_, Sep 04 2002"
			],
			"references": 5,
			"revision": 26,
			"time": "2021-09-28T17:33:44-04:00",
			"created": "2003-05-16T03:00:00-04:00"
		}
	]
}