{
	"greeting": "Greetings from The On-Line Encyclopedia of Integer Sequences! http://oeis.org/",
	"query": "id:A075065",
	"count": 1,
	"start": 0,
	"results": [
		{
			"number": 75065,
			"data": "1,4,9,6,15,8,21,10,25,12,27,14,33,16,35,18,39,20,45,22,49,24,51,26,55,28,57,30,63,32,65,34,69,36,75,38,77,40,81,42,85,44,87,46,91,48,93,50,95,52,99,54,105,56,111,58,115,60,117,62,119,64,121,66",
			"name": "a(1) = 1 and then alternately even and odd composite numbers matching the parity of the index.",
			"mathematica": [
				"Module[{nn=150,comps,odds,evens,len},comps=Complement[Range[nn], Prime[Range[ PrimePi[nn]]]]; odds=Select[ comps, OddQ];evens=Select[comps,EvenQ]; len=Min[ Length[odds],Length[evens]]; Riffle[Take[odds,len],Take[evens,len]]] (* _Harvey P. Dale_, Feb 19 2013 *)"
			],
			"xref": [
				"Cf. A075066."
			],
			"keyword": "easy,nonn",
			"offset": "1,2",
			"author": "_Amarnath Murthy_, Sep 08 2002",
			"ext": [
				"More terms from _Harvey P. Dale_, Feb 19 2013"
			],
			"references": 1,
			"revision": 5,
			"time": "2013-12-05T19:55:36-05:00",
			"created": "2003-05-16T03:00:00-04:00"
		}
	]
}