{
	"greeting": "Greetings from The On-Line Encyclopedia of Integer Sequences! http://oeis.org/",
	"query": "id:A075336",
	"count": 1,
	"start": 0,
	"results": [
		{
			"number": 75336,
			"data": "5,15,25,32,40,50,58,66,72,85,91,101,109,117,130,133,147,157,164,169,182,190,197,208,216,226,232,241,247,254,263,277,283,289,296,307,314,322,334,341,350,358,365,373,381,387,403,412,421,427,434,445,452,462",
			"name": "Sums of members of pairs in A075333.",
			"link": [
				"Joshua Zucker, Feb 24 2008, \u003ca href=\"/A075336/b075336.txt\"\u003eTable of n, a(n) for n = 1..151\u003c/a\u003e"
			],
			"xref": [
				"Cf. A075333, A075334, A075335, A075337."
			],
			"keyword": "nonn",
			"offset": "1,1",
			"author": "_Amarnath Murthy_, Sep 18 2002",
			"ext": [
				"More terms from _Joshua Zucker_, Feb 24 2008"
			],
			"references": 6,
			"revision": 8,
			"time": "2015-03-08T18:06:10-04:00",
			"created": "2003-05-16T03:00:00-04:00"
		}
	]
}