{
	"greeting": "Greetings from The On-Line Encyclopedia of Integer Sequences! http://oeis.org/",
	"query": "id:A075073",
	"count": 1,
	"start": 0,
	"results": [
		{
			"number": 75073,
			"data": "2,3,4,5,6,11,14,17,18,23,26,35,48,50,51,76,90,92,94,124,143,145,158,159,172,173,176,177,197,230,233,254,276,317,323,333,335,352,354,355,356,386,389,405,431,440,459,472,475,480,488",
			"name": "Numbers k such that k-th perfect power - k is prime: A001597(k) - k is prime.",
			"example": [
				"k=3: pp(3)-3 = 8-3 = 5 is prime."
			],
			"mathematica": [
				"With[{s = {1}~Join~Select[Range[4, 2*10^5], GCD @@ FactorInteger[#][[All, -1]] \u003e 1 \u0026]}, Select[Range@ Length@ s, PrimeQ[s[[#]] - #] \u0026]] (* _Michael De Vlieger_, Aug 25 2021 *)"
			],
			"program": [
				"(PARI) lista(nn) = {n = 0; for (pn=1, nn, if (pn==1 || ispower(pn), n++; if (isprime(pn - n), print1(n, \", \"));););} \\\\ _Michel Marcus_, Jun 05 2013"
			],
			"xref": [
				"Cf. A001597."
			],
			"keyword": "easy,nonn",
			"offset": "1,1",
			"author": "_Zak Seidov_, Oct 11 2002",
			"ext": [
				"Edited by _Georg Fischer_, Aug 25 2021"
			],
			"references": 1,
			"revision": 14,
			"time": "2021-08-25T16:11:38-04:00",
			"created": "2003-05-16T03:00:00-04:00"
		}
	]
}