{
	"greeting": "Greetings from The On-Line Encyclopedia of Integer Sequences! http://oeis.org/",
	"query": "id:A075760",
	"count": 1,
	"start": 0,
	"results": [
		{
			"number": 75760,
			"data": "36,1225,19600,41616,1413721,48024900,1631432881,55420693056,1882672131025",
			"name": "Nontrivial binomial coefficients which are perfect powers (A001597).",
			"comment": [
				"Triangular-square numbers (A001110) are a subset, except for 0 and 1.",
				"\"For C(n,k) k\u003e=4 and any l\u003e=2 no solutions exist and this is what Erdos proved by an ingenious argument. ... C(50, 3) = 140^2 is the only solution for k = 3, l=2.\" page 13 of Aigner and Ziegler."
			],
			"reference": [
				"Martin Aigner and Gunter M. Ziegler, Proofs from THE BOOK, Second Edition, Springer-Verlag, Berlin, 2000, Chapter 3, \"Binomial coefficients are (almost) never powers,\" pages 13-16."
			],
			"mathematica": [
				"f[n_] := Apply[ GCD, Last[ Transpose[ FactorInteger[n]]]]; a = {}; Do[ If[ f[n(n - 1)/2] \u003e 1, a = Append[a, Binomial[n, 2]]]; If[ f[n(n - 1)*(n - 2)/6] \u003e 1, a = Append[a, Binomial[n, 3]]], {n, 5, 1500000}]"
			],
			"xref": [
				"Cf. A001110."
			],
			"keyword": "nonn",
			"offset": "1,1",
			"author": "_Robert G. Wilson v_, Oct 08 2002",
			"references": 0,
			"revision": 4,
			"time": "2012-03-30T17:30:50-04:00",
			"created": "2003-05-16T03:00:00-04:00"
		}
	]
}