{
	"greeting": "Greetings from The On-Line Encyclopedia of Integer Sequences! http://oeis.org/",
	"query": "id:A075897",
	"count": 1,
	"start": 0,
	"results": [
		{
			"number": 75897,
			"data": "0,1,1,1,1,1,1,0,1,1,1,0,1,0,0,0,1,1,1,0,1,0,0,0,1,0,0,0,0,0,0,0,1,1,1,0,1,0,0,0,1,0,0,0,0,0,0,0,1,0,0,0,0,0,0,0,0,0,0,0,0,0,0,0,1,1,1,0,1,0,0,0,1,0,0,0,0,0,0,0,1,0,0,0,0,0,0,0,0,0,0,0,0,0,0,0,1,0,0,0,0,0,0,0,0",
			"name": "1 if binary weight of n is 1 or 2, otherwise 0.",
			"link": [
				"\u003ca href=\"/index/Ch#char_fns\"\u003eIndex entries for characteristic functions\u003c/a\u003e"
			],
			"formula": [
				"a(n) = 1 if n is in A048645, 0 otherwise.",
				"For n\u003e0: a(n) = 0^floor(A000120(n)/3). - _Reinhard Zumkeller_, Apr 07 2003"
			],
			"mathematica": [
				"Table[If[MemberQ[{1,2},Total[IntegerDigits[n,2]]],1,0],{n,0,120}] (* _Harvey P. Dale_, Jul 26 2017 *)"
			],
			"program": [
				"(PARI) a(n)=(hammingweight(n)+1)\\2 == 1 \\\\ _Charles R Greathouse IV_, Jan 10 2022",
				"(PARI) a(n)=(hammingweight(n)) \u003c= 2 \u0026\u0026 n \u003e 0 \\\\ _David A. Corneth_, Jan 11 2022",
				"(Python)",
				"def a(n): return int(bin(n).count('1') in [1, 2])",
				"print([a(n) for n in range(105)]) # _Michael S. Branicky_, Jan 11 2022"
			],
			"xref": [
				"Cf. A000120, A048645."
			],
			"keyword": "nonn,easy,changed",
			"offset": "0,1",
			"author": "_Benoit Cloitre_, Mar 29 2003",
			"references": 9,
			"revision": 31,
			"time": "2022-01-11T08:24:00-05:00",
			"created": "2003-05-16T03:00:00-04:00"
		}
	]
}