{
	"greeting": "Greetings from The On-Line Encyclopedia of Integer Sequences! http://oeis.org/",
	"query": "id:A075492",
	"count": 1,
	"start": 0,
	"results": [
		{
			"number": 75492,
			"data": "10,12,20,21,24,30,32,40,42,50,60,70,72,80,90,100,102,104,105,108,110,111,112,114,120,126,130,132,140,144,150,160,162,168,180,192,200,201,204,210,212,216,220,222,224,230,231,232,234,240,250,252,260,264,270",
			"name": "Sum of digits of n \u003c number of divisors of n.",
			"formula": [
				"Solutions to A007953[x] \u003c A000005[x]"
			],
			"example": [
				"All are special composites."
			],
			"mathematica": [
				"sud[x_] := Apply[Plus, IntegerDigits[x]] Do[s=sud[n]-DivisorSigma[0, n]; If[s\u003e0, Print[n]], {n, 1, 256}]",
				"Select[Range[300],Total[IntegerDigits[#]]\u003cDivisorSigma[0,#]\u0026] (* _Harvey P. Dale_, Apr 05 2015 *)"
			],
			"xref": [
				"Cf. A007953, A000005, A057531, A075492, A075493."
			],
			"keyword": "base,easy,nonn",
			"offset": "1,1",
			"author": "_Labos Elemer_, Sep 26 2002",
			"references": 3,
			"revision": 13,
			"time": "2015-04-05T08:55:50-04:00",
			"created": "2003-05-16T03:00:00-04:00"
		}
	]
}