{
	"greeting": "Greetings from The On-Line Encyclopedia of Integer Sequences! http://oeis.org/",
	"query": "id:A075011",
	"count": 1,
	"start": 0,
	"results": [
		{
			"number": 75011,
			"data": "1,1,2,3,4,5,6,7,8,0,0,0,1,1,1,1,1,1,1,1,1,1,1,1,2,2,2,2,2,2,2,2,2,2,2,2,3,3,3,3,3,3,3,3,3,3,3,3,4,4,4,4,4,4,4,4,4,4,4,4,4,5,5,5,5,5,5,5,5,5,5,5,5,6,6,6,6,6,6,6,6,6,6,6,6,7,7,7,7,7,7,7,7,7,7,7,7,8,8,0",
			"name": "Floor[ concatenation of numbers from n to 1 divided by concatenation of numbers from 1 to n].",
			"link": [
				"Harvey P. Dale, \u003ca href=\"/A075011/b075011.txt\"\u003eTable of n, a(n) for n = 1..1000\u003c/a\u003e"
			],
			"example": [
				"a(4) = Floor[4321/1234] = 3."
			],
			"mathematica": [
				"Table[Floor[FromDigits[Flatten[IntegerDigits/@Range[n,1,-1]]]/FromDigits[ Flatten[IntegerDigits/@Range[n]]]],{n,100}] (* _Harvey P. Dale_, May 29 2013 *)"
			],
			"keyword": "base,nonn",
			"offset": "1,3",
			"author": "_Amarnath Murthy_, Sep 01 2002",
			"ext": [
				"Corrected and extended by Antonio G. Astudillo (afg_astudillo(AT)lycos.com), Apr 18 2003"
			],
			"references": 1,
			"revision": 4,
			"time": "2013-12-05T19:55:35-05:00",
			"created": "2003-05-16T03:00:00-04:00"
		}
	]
}