{
	"greeting": "Greetings from The On-Line Encyclopedia of Integer Sequences! http://oeis.org/",
	"query": "id:A075098",
	"count": 1,
	"start": 0,
	"results": [
		{
			"number": 75098,
			"data": "0,0,0,2,4,14,74,623,7003,117914,3079400",
			"name": "Number of simple graphs g on n nodes with |Aut(g)| = 8.",
			"link": [
				"Zoran Maksimovic, \u003ca href=\"/A075095/a075095.pdf\"\u003eNumber of graphs on n nodes whose automorphism group orders are k, n\u003c=11\u003c/a\u003e",
				"Eric Weisstein's World of Mathematics, \u003ca href=\"http://mathworld.wolfram.com/GraphAutomorphism.html\"\u003eGraph Automorphism\u003c/a\u003e"
			],
			"xref": [
				"Cf. A003400, A075095, A075096, A075097."
			],
			"keyword": "nonn,more",
			"offset": "1,4",
			"author": "_Eric W. Weisstein_, Aug 31 2002",
			"ext": [
				"a(8) and a(9) from _Eric W. Weisstein_, Jun 09 2004",
				"a(10), a(11) from Maksimovic's preprint added by _Max Alekseyev_, Apr 26 2010"
			],
			"references": 3,
			"revision": 12,
			"time": "2015-02-14T21:07:17-05:00",
			"created": "2003-05-16T03:00:00-04:00"
		}
	]
}