{
	"greeting": "Greetings from The On-Line Encyclopedia of Integer Sequences! http://oeis.org/",
	"query": "id:A075087",
	"count": 1,
	"start": 0,
	"results": [
		{
			"number": 75087,
			"data": "1,3,2,4,8,10,12,15,23,6,21,14,33,16,30,9,27,56,40,11,22,45,47,26,13,52,28,98,59,5,63,17,32,87,34,75,18,36,80,57,19,86,109,91,93,46,97,72,24,103,157,192,141,29,116,60,151,62,31,126,64,128,134,136,68,140,35,70",
			"name": "Rearrangement of natural numbers such that the n-th partial sum is divisible by the n-th squarefree number.",
			"keyword": "nonn",
			"offset": "1,2",
			"author": "_Amarnath Murthy_, Sep 13 2002",
			"ext": [
				"Corrected and extended by _David Wasserman_, Jan 16 2005"
			],
			"references": 0,
			"revision": 5,
			"time": "2013-12-05T19:55:36-05:00",
			"created": "2003-05-16T03:00:00-04:00"
		}
	]
}