{
	"greeting": "Greetings from The On-Line Encyclopedia of Integer Sequences! http://oeis.org/",
	"query": "id:A075377",
	"count": 1,
	"start": 0,
	"results": [
		{
			"number": 75377,
			"data": "1,1,1,1,6,1,1,60,1,1,840,5040,1,10080,1,15120,1,1,332640,3326400,19958400,1,1,8648640,1,1816214400,1,259459200,36324288000,217945728000,1307674368000,1,1,8821612800,1482030950400,88921857024000,1,1",
			"name": "Triangle read by rows in which n-th row gives all values of n!/{(p!)^a*(q!)^b*(r!)^c*...} (in increasing order) for all factorizations n = p^a*q^b*r^c*....",
			"comment": [
				"This is a modification of A036038.",
				"A001055 gives the row lengths. - _David Wasserman_, Jan 17 2005"
			],
			"reference": [
				"Amarnath Murthy, Generalization of partition function,Introducing Smarandache Factor Partition, Smarandache Notions Journal, Vol. 11, 2000."
			],
			"example": [
				"The row for n = 12 is: 1, 332640, 3326400, 19958400, since 12 = 12, 6*2, 4*3, 3*2*2.",
				"Triangle begins:",
				"1",
				"1",
				"1",
				"1 6",
				"1",
				"1 60",
				"1",
				"1 840 5040",
				"1 10080",
				"1 15120",
				"1",
				"1 332640 3326400 19958400",
				"1",
				"1 8648640",
				"1 1816214400",
				"1 259459200 36324288000 217945728000 1307674368000",
				"1",
				"1 8821612800 1482030950400 88921857024000",
				"1",
				"1 335221286400 844757641728000 5068545850368000"
			],
			"xref": [
				"Cf. A036038, A001055, A036038."
			],
			"keyword": "tabf,nonn",
			"offset": "1,5",
			"author": "_Amarnath Murthy_, Sep 21 2002",
			"ext": [
				"More terms from _David Wasserman_, Jan 17 2005"
			],
			"references": 0,
			"revision": 7,
			"time": "2013-12-05T19:55:37-05:00",
			"created": "2003-05-16T03:00:00-04:00"
		}
	]
}