{
	"greeting": "Greetings from The On-Line Encyclopedia of Integer Sequences! http://oeis.org/",
	"query": "id:A075446",
	"count": 1,
	"start": 0,
	"results": [
		{
			"number": 75446,
			"data": "0,0,0,0,1,0,2,0,1,1,1,0,25,2,3,2,33,2,23,1,7,16,29,0,101,11,10,14,97,3,13,4,63,9,49,6,247,40,9,5,243,4,155,16,27,98,156,6,59,43,57,7,417,20,151,22,21,71,222,15,243,94,49",
			"name": "Numerator of A075443(n)/A000010(n).",
			"link": [
				"Ivan Neretin, \u003ca href=\"/A075446/b075446.txt\"\u003eTable of n, a(n) for n = 1..10000\u003c/a\u003e"
			],
			"xref": [
				"Cf. A075447, A075443."
			],
			"keyword": "nonn,frac",
			"offset": "1,7",
			"author": "Michele Dondi (bik.mido(AT)tiscalinet.it), Sep 18 2002",
			"references": 2,
			"revision": 7,
			"time": "2016-09-01T10:24:48-04:00",
			"created": "2003-05-16T03:00:00-04:00"
		}
	]
}