{
	"greeting": "Greetings from The On-Line Encyclopedia of Integer Sequences! http://oeis.org/",
	"query": "id:A075324",
	"count": 1,
	"start": 0,
	"results": [
		{
			"number": 75324,
			"data": "1,1,1,3,3,4,4,5,5,5,5,7,7,8,9,9,9,10,11,11,11,12,13,13,13",
			"name": "Independent domination number for queens' graph Q(n).",
			"reference": [
				"W. W. R. Ball and H. S. M. Coxeter, Math'l Rec. and Essays, 13th Ed. Dover, p. 173.",
				"C. Berge, Graphs and Hypergraphs, North-Holland, 1973; p. 304, Example 2.",
				"M. A. Sainte-Laguë, Les Réseaux (ou Graphes), Mémorial des Sciences Mathématiques, Fasc. 18, Gauthier-Villars, Paris, 1926, p. 49."
			],
			"link": [
				"William Herbert Bird, \u003ca href=\"https://dspace.library.uvic.ca/handle/1828/8634\"\u003eComputational methods for domination problems\u003c/a\u003e, University of Victoria, 2017. See Table 5.1 on p. 114.",
				"Matthew D. Kearse and Peter B. Gibbons, \u003ca href=\"http://ajc.maths.uq.edu.au/pdf/23/ocr-ajc-v23-p253.pdf\"\u003eComputational Methods and New Results for Chessboard Problems\u003c/a\u003e, Australasian Journal of Combinatorics 23 (2001), 253-284."
			],
			"example": [
				"a(8) = 5 queens attacking all squares of standard chessboard:",
				"........",
				".....Q..",
				"..Q.....",
				"....Q...",
				"......Q.",
				"...Q....",
				"........",
				"........"
			],
			"xref": [
				"A002567 gives number of solutions."
			],
			"keyword": "nonn,more",
			"offset": "1,4",
			"author": "_N. J. A. Sloane_, Oct 16 2002",
			"ext": [
				"a(19)-a(24) from Bird and a(25) from Kearse \u0026 Gibbons added by _Andrey Zabolotskiy_, Sep 03 2021"
			],
			"references": 6,
			"revision": 16,
			"time": "2021-09-03T10:12:06-04:00",
			"created": "2003-05-16T03:00:00-04:00"
		}
	]
}