{
	"greeting": "Greetings from The On-Line Encyclopedia of Integer Sequences! http://oeis.org/",
	"query": "id:A075583",
	"count": 1,
	"start": 0,
	"results": [
		{
			"number": 75583,
			"data": "7,29,41,59,101,137,149,179,197,227,239,269,281,311,347,521,599,617,641,809,821,827,881,1031,1061,1277,1451,1487,1607,1619,1667,1697,1787,1871,1877,1997,2027,2081,2087,2111,2237,2267,2381,2657,2687,2711,2801,2999",
			"name": "Primes p such that the composite numbers between p and the next prime together contain exactly three distinct prime factors.",
			"comment": [
				"p+2 is prime for all members p except 7. - _David Wasserman_, Jan 20 2005"
			],
			"link": [
				"Amiram Eldar, \u003ca href=\"/A075583/b075583.txt\"\u003eTable of n, a(n) for n = 1..10000\u003c/a\u003e"
			],
			"program": [
				"(MAGMA) a:=[]; for k in PrimesInInterval(2,3000) do b:={}; for s in [k..NextPrime(k)-1] do if not IsPrime(s) then b:=b join Set(PrimeDivisors(s)); end if; end for; if #Set(b) eq 3 then  Append(~a,k); end if; end for; a; // _Marius A. Burtea_, Sep 26 2019"
			],
			"xref": [
				"Cf. A052297, A075580, A059960, A075584, A075585, A075586, A075587, A075588, A075589.",
				"See A080899 for another version."
			],
			"keyword": "nonn",
			"offset": "1,1",
			"author": "_Amarnath Murthy_, Sep 26 2002",
			"ext": [
				"More terms from _David Wasserman_, Jan 20 2005"
			],
			"references": 11,
			"revision": 12,
			"time": "2019-09-26T09:06:18-04:00",
			"created": "2003-05-16T03:00:00-04:00"
		}
	]
}