{
	"greeting": "Greetings from The On-Line Encyclopedia of Integer Sequences! http://oeis.org/",
	"query": "id:A075090",
	"count": 1,
	"start": 0,
	"results": [
		{
			"number": 75090,
			"data": "4,8,16,32,36,64,100,128,144,196,216,256,324,400,484,512,576,676,784,900,1000,1024,1156,1296,1444,1600,1728,1764,1936,2048,2116,2304,2500,2704,2744,2916,3136,3364,3600,3844,4096,4356,4624,4900,5184,5476,5776",
			"name": "Even perfect powers (numbers 2^k, k \u003e= 2).",
			"link": [
				"Reinhard Zumkeller, \u003ca href=\"/A075090/b075090.txt\"\u003eTable of n, a(n) for n = 1..10000\u003c/a\u003e"
			],
			"formula": [
				"Sum_{n\u003e=1} 1/a(n) = -Sum_{k\u003e=2} mu(k)*zeta(k)/2^k = 0.5854268109... - _Amiram Eldar_, Dec 19 2020"
			],
			"mathematica": [
				"Take[Union[Flatten[Table[a^b, {a, 2, 100, 2}, {b, 2, 15}]]], 50] (* _Alonso del Arte_, Nov 22 2011 *)"
			],
			"program": [
				"(Haskell)",
				"a075090 n = a075090_list !! (n-1)",
				"a075090_list = filter even a001597_list  -- _Reinhard Zumkeller_, Oct 04 2012"
			],
			"xref": [
				"Cf. A001597, A008683, A075109."
			],
			"keyword": "easy,nonn",
			"offset": "1,1",
			"author": "_Zak Seidov_, Oct 11 2002",
			"references": 6,
			"revision": 19,
			"time": "2021-12-25T12:34:08-05:00",
			"created": "2003-05-16T03:00:00-04:00"
		}
	]
}