{
	"greeting": "Greetings from The On-Line Encyclopedia of Integer Sequences! http://oeis.org/",
	"query": "id:A075913",
	"count": 1,
	"start": 0,
	"results": [
		{
			"number": 75913,
			"data": "1,75,3500,131250,4344375,132890625,3855156250,107765625000,2933008203125,78271552734375,2058270703125000,53524929199218750,1380066321044921875,35349237725830078125,900813505310058593750,22863955398559570312500,578500758117828369140625",
			"name": "Fifth column of triangle A075500.",
			"comment": [
				"The e.g.f. given below is Sum_{m=0..4}(A075513(5,m)*exp(5*(m+1)*x))/4!."
			],
			"link": [
				"Colin Barker, \u003ca href=\"/A075913/b075913.txt\"\u003eTable of n, a(n) for n = 0..714\u003c/a\u003e",
				"\u003ca href=\"/index/Rec#order_05\"\u003eIndex entries for linear recurrences with constant coefficients\u003c/a\u003e, signature (75,-2125,28125,-171250,375000)."
			],
			"formula": [
				"a(n) = A075500(n+5, 5) = (5^n)*S2(n+5, 5) with S2(n, m) = A008277(n, m) (Stirling2).",
				"a(n) = Sum_{m=0..4}(A075513(5, m)*((m+1)*5)^n)/4!.",
				"G.f.: 1/Product_{k=1..5}(1-5*k*x).",
				"E.g.f.: (d^5/dx^5)((((exp(5*x)-1)/5)^5)/5!) = (exp(5*x) - 64*exp(10*x) + 486*exp(15*x) - 1024*exp(20*x) + 625*exp(25*x))/4!.",
				"G.f.: 1 / ((1-5*x)*(1-10*x)*(1-15*x)*(1-20*x)*(1-25*x)). - _Colin Barker_, Dec 12 2015"
			],
			"mathematica": [
				"Table[5^n*(1 - 2^(n+6) + 2*3^(n+5) - 4^(n+5) + 5^(n+4))/24, {n, 0, 20}] (* _Vaclav Kotesovec_, Dec 12 2015 *)"
			],
			"program": [
				"(PARI) Vec(1/((1-5*x)*(1-10*x)*(1-15*x)*(1-20*x)*(1-25*x)) + O(x^30)) \\\\ _Colin Barker_, Dec 12 2015"
			],
			"xref": [
				"Cf. A000351, A016164, A075911, A075912, A075914."
			],
			"keyword": "nonn,easy",
			"offset": "0,2",
			"author": "_Wolfdieter Lang_, Oct 02 2002",
			"references": 4,
			"revision": 17,
			"time": "2015-12-12T13:13:25-05:00",
			"created": "2003-05-16T03:00:00-04:00"
		}
	]
}