{
	"greeting": "Greetings from The On-Line Encyclopedia of Integer Sequences! http://oeis.org/",
	"query": "id:A075067",
	"count": 1,
	"start": 0,
	"results": [
		{
			"number": 75067,
			"data": "9,25,91,141,201,115,1833,525,889,1131,1671,2479,2973,4299,5593,1329,9553,30595,19335,16143,15685,81465,28231,31909,19611,35619,82075,44295,43333,34063,89691,162145,134515,173361,31399,404599,212703",
			"name": "Start of the first run of exactly n consecutive odd composite numbers.",
			"comment": [
				"More precisely, a(n)-2 and a(n) + 2n are two consecutive primes and are the smallest successive prime pair with a difference 2(n+1)."
			],
			"xref": [
				"This is a trivial variation of A000230 and A045881.",
				"See A189118 for another version."
			],
			"keyword": "nonn",
			"offset": "1,1",
			"author": "_Amarnath Murthy_, Sep 08 2002",
			"ext": [
				"More terms from _Matthew Conroy_, Sep 10 2002"
			],
			"references": 1,
			"revision": 14,
			"time": "2014-10-03T11:35:16-04:00",
			"created": "2003-05-16T03:00:00-04:00"
		}
	]
}