{
	"greeting": "Greetings from The On-Line Encyclopedia of Integer Sequences! http://oeis.org/",
	"query": "id:A076135",
	"count": 1,
	"start": 0,
	"results": [
		{
			"number": 76135,
			"data": "906180359,906180361,906180363,906180365,906180367,906180369,906180371,906180373,906180375,906180391,906180393,906180423,906180425,906180517,906180519,906180525,906180529,906180533,906180537,906180553,906180555",
			"name": "Numbers n such that O(n) = E(n)-1, where O(n), E(n) denote the number of integers k, 1 \u003c= k \u003c= n, such that Omega(n) is even or odd, respectively and Omega(n) denotes the number of prime factors of n, counting multiplicity.",
			"comment": [
				"In 1919, George Polya conjectured that O(n) \u003e= E(n) for n \u003e= 2. However, in 1958, C. B. Haselgrove showed that there are infinitely many positive integers n for which O(n) \u003c E(n). In 1966, R.S. Lehman showed that 906180359 is the smallest positive integer for which O(n) = E(n) - 1. (Tattersall, p. 92)"
			],
			"reference": [
				"J. Tattersall, \"Elementary Number Theory in Nine Chapters\". Cambridge University Press, 2001."
			],
			"mathematica": [
				"(*This program relies on Lehman's result that 906180359 is the least term of the sequence.*) Omega[n_] := Apply[Plus, Transpose[FactorInteger[n]][[2]]]; start = 906180360; l = {906180359}; o = 0; e = 1; i = start; While[i \u003c 906193475, If[Mod[Omega[i], 2] == 0, e = e + 1, o = o + 1]; If[o == e - 1, l = Append[l, i]]; i = i + 1]; l"
			],
			"keyword": "nonn",
			"offset": "1,1",
			"author": "_Joseph L. Pe_, Oct 30 2002",
			"references": 0,
			"revision": 4,
			"time": "2014-02-11T19:05:31-05:00",
			"created": "2003-05-16T03:00:00-04:00"
		}
	]
}