{
	"greeting": "Greetings from The On-Line Encyclopedia of Integer Sequences! http://oeis.org/",
	"query": "id:A076855",
	"count": 1,
	"start": 0,
	"results": [
		{
			"number": 76855,
			"data": "0,7,11,23,61",
			"name": "Number of geometries for group A_n under axioms A, 2T_1, CD.",
			"reference": [
				"F. Buekenhout, P. Cara, M. Dehon and D. Leemans, Residually weakly primitive geometries of small sporadic and almost simple groups: a synthesis. Topics in diagram geometry, 1-27, Quad. Mat., 12, Dept. Math., Seconda Univ. Napoli, Caserta, 2003."
			],
			"xref": [
				"Cf. A076851-A076862."
			],
			"keyword": "nonn",
			"offset": "4,2",
			"author": "_N. J. A. Sloane_, Nov 23 2002",
			"references": 0,
			"revision": 5,
			"time": "2012-03-30T16:49:31-04:00",
			"created": "2003-05-16T03:00:00-04:00"
		}
	]
}