{
	"greeting": "Greetings from The On-Line Encyclopedia of Integer Sequences! http://oeis.org/",
	"query": "id:A076581",
	"count": 1,
	"start": 0,
	"results": [
		{
			"number": 76581,
			"data": "2080,4560,8128,9180,10296,10440,12720,12880,15400,18336,18528,21528,23220,23436,29403,29646,37128,39060,43956,52326,56280,61425,64980,67896,70500,81810,82215,86320,86736,93096,93528,100576,103740,105570",
			"name": "Triangular numbers which are 7-almost primes.",
			"example": [
				"a(1)=2080, 2080 is a triangular number and 2080=2*2*2*2*2*5*13 i.e. is a product of 7 prime factors so is 7-almost prime."
			],
			"keyword": "base,easy,nonn",
			"offset": "1,1",
			"author": "_Shyam Sunder Gupta_, Oct 19 2002",
			"references": 0,
			"revision": 2,
			"time": "2013-10-02T15:47:20-04:00",
			"created": "2003-05-16T03:00:00-04:00"
		}
	]
}