{
	"greeting": "Greetings from The On-Line Encyclopedia of Integer Sequences! http://oeis.org/",
	"query": "id:A076059",
	"count": 1,
	"start": 0,
	"results": [
		{
			"number": 76059,
			"data": "2,5,8,13,19,31,29,47,52,82,87,81,112,115,135,162,182,201,198,267,282,253,279,328,381,366,453,468,490,475,612,534,562,699,683,795,724,892,903,900,868,1067,1133,1115,1089,1116,1228,1213,1255,1301,1406,1604",
			"name": "Final members of groups in A076062.",
			"xref": [
				"Cf. A076058, A076060, A076061, A076062."
			],
			"keyword": "nonn",
			"offset": "1,1",
			"author": "_Amarnath Murthy_, Oct 05 2002",
			"ext": [
				"Corrected and extended by _Sascha Kurz_, Jan 20 2003"
			],
			"references": 4,
			"revision": 5,
			"time": "2013-12-05T19:55:45-05:00",
			"created": "2003-05-16T03:00:00-04:00"
		}
	]
}