{
	"greeting": "Greetings from The On-Line Encyclopedia of Integer Sequences! http://oeis.org/",
	"query": "id:A076297",
	"count": 1,
	"start": 0,
	"results": [
		{
			"number": 76297,
			"data": "2,3,7,9,11,12,13,14,18,24,27,28,29,30,36,38,43,44,53,54,55,57,60,63,64,65,66,72,74,80,84,90,93,102,103,108,110,111,117,118,125,126,135,138,141,143,148,150,155,156,162,165,171,174,180,183,186,188,190,198",
			"name": "Prime(n)+ s*n is prime, s=2.",
			"comment": [
				"See also A064402 (s=1), A076298 (s=3), A076299 (s=4), A076300 (s=5)."
			],
			"link": [
				"G. C. Greubel, \u003ca href=\"/A076297/b076297.txt\"\u003eTable of n, a(n) for n = 1..10000\u003c/a\u003e"
			],
			"example": [
				"3 is OK because p(3) + 2*3 = 5 + 6 = 11 is prime."
			],
			"mathematica": [
				"Select[Range[200],PrimeQ[Prime[#]+2#]\u0026] (* _Harvey P. Dale_, Sep 01 2015 *)"
			],
			"program": [
				"(MAGMA) [n: n in [0..500]| IsPrime(NthPrime(n) +2*n)]; // _G. C. Greubel_, May 04 2018",
				"(PARI) select(x-\u003eisprime(x), vector(500, n, prime(n) + 2*n), 1) \\\\ _G. C. Greubel_, May 04 2018"
			],
			"xref": [
				"Cf. A064402, A076298, A076299, A076300."
			],
			"keyword": "nonn",
			"offset": "1,1",
			"author": "_Zak Seidov_, Oct 05 2002",
			"references": 7,
			"revision": 10,
			"time": "2018-05-04T22:40:18-04:00",
			"created": "2003-05-16T03:00:00-04:00"
		}
	]
}