{
	"greeting": "Greetings from The On-Line Encyclopedia of Integer Sequences! http://oeis.org/",
	"query": "id:A076509",
	"count": 1,
	"start": 0,
	"results": [
		{
			"number": 76509,
			"data": "3,3,12,54,72,288,1296,1728,6912,31104,41472,165888,746496,995328,3981312,17915904,23887872,95551488,429981696,573308928,2293235712,10319560704,13759414272,55037657088,247669456896,330225942528",
			"name": "Expansion of 3*x*(1-x)*(1+2*x+6*x^2)/(1-24*x^3).",
			"comment": [
				"Previous name was: 3 people at a party are saying Hello to each other. Person 3 says Hello Hello Hello. Person 1 counts the times Hello has been said and says Hello that number of times. Person 2 says Hello a number of times equal to 2 * the sum of Hello's; then it is Person 3's turn again. Sequence gives the number of Hello's said."
			],
			"link": [
				"\u003ca href=\"/index/Rec#order_03\"\u003eIndex entries for linear recurrences with constant coefficients\u003c/a\u003e, signature (0,0,24)."
			],
			"formula": [
				"G.f.: 3*x*(1-x)*(1+2*x+6*x^2)/(1-24*x^3). [_Colin Barker_, Jun 07 2012]"
			],
			"xref": [
				"Cf. A076510."
			],
			"keyword": "nonn,easy",
			"offset": "1,1",
			"author": "_Jon Perry_, Oct 15 2002",
			"references": 1,
			"revision": 26,
			"time": "2019-10-05T04:55:26-04:00",
			"created": "2003-05-16T03:00:00-04:00"
		}
	]
}