{
	"greeting": "Greetings from The On-Line Encyclopedia of Integer Sequences! http://oeis.org/",
	"query": "id:A076185",
	"count": 1,
	"start": 0,
	"results": [
		{
			"number": 76185,
			"data": "0,1,3,5,7,9,21,23,27,57,75,103,169,219,245,461,695,1169,3597,3637,7495,27743,28799,32501",
			"name": "Numbers n such that n!! + 2 is prime.",
			"comment": [
				"a(25) \u003e 50000. - _Robert Price_, Jan 18 2015",
				"a(1)=0 since 0!!=1 and 1+2 = 3 is prime. - _Robert Price_, Jan 18 2015"
			],
			"link": [
				"C. K. Caldwell, The Prime Glossary, \u003ca href=\"http://primes.utm.edu/glossary/page.php/MultifactorialPrime.html\"\u003eMultifactorial prime\u003c/a\u003e",
				"C. Caldwell and H. Dubner (Eds): \u003ca href=\"http://primes.utm.edu/lists/top_ten/\"\u003eThe top ten prime numbers: from the unpublished collections of R. Ondrejka\u003c/a\u003e (May 2001), Table 21 F, p. 75",
				"Ken Davis, \u003ca href=\"http://mfprimes.free-dc.org\"\u003eStatus of Search for Multifactorial Primes\u003c/a\u003e.",
				"Joe McLean, \u003ca href=\"http://web.archive.org/web/20091027034731/http://uk.geocities.com/nassarawa%40btinternet.com/probprim2.htm\"\u003eInteresting Sources of Probable Primes\u003c/a\u003e",
				"The OpenPFGW Project, \u003ca href=\"http://sourceforge.net/projects/openpfgw/\"\u003ePrimality Tester\u003c/a\u003e"
			],
			"mathematica": [
				"lst={};Do[If[PrimeQ[n!!+2], AppendTo[lst, n]], {n, 0, 13^3}];lst (* _Vladimir Joseph Stephan Orlovsky_, Sep 08 2008 *)",
				"Select[Range[0,33000],PrimeQ[#!!+2]\u0026] (* _Harvey P. Dale_, Jul 28 2017 *)"
			],
			"xref": [
				"Cf. A006882, A080778 and A076186, A076188, A076189, A076190, A076193, A076194, A076195, A076196, A076197 for other values of s in n!! + 2^s."
			],
			"keyword": "nonn,more",
			"offset": "1,3",
			"author": "_Zak Seidov_, Nov 02 2002",
			"ext": [
				"Edited and extended (n\u003c4096) by _Hugo Pfoertner_, Jun 19 2003",
				"One more term from Herman Jamke (hermanjamke(AT)fastmail.fm), Dec 30 2007",
				"a(22) - a(23) from _Robert Price_, Oct 17 2012",
				"a(24) from _Robert Price_, Jan 18 2015"
			],
			"references": 18,
			"revision": 40,
			"time": "2017-07-28T16:35:48-04:00",
			"created": "2003-05-16T03:00:00-04:00"
		}
	]
}