{
	"greeting": "Greetings from The On-Line Encyclopedia of Integer Sequences! http://oeis.org/",
	"query": "id:A076656",
	"count": 1,
	"start": 0,
	"results": [
		{
			"number": 76656,
			"data": "2,7,23,71,223,673,2027,6089,18269,54829,164503,493523,1480571,4441721,13325171,39975553,119926691,359780077,1079340313,3238020943,9714062893,29142188683,87426566057,262279698173,786839094529",
			"name": "a(1) = 2; a(n) is smallest prime \u003e 3*a(n-1).",
			"link": [
				"Harvey P. Dale, \u003ca href=\"/A076656/b076656.txt\"\u003eTable of n, a(n) for n = 1..1000\u003c/a\u003e"
			],
			"mathematica": [
				"PrimeNext[n_]:=Module[{k},k=n+1;While[ !PrimeQ[k],k++ ];k]; p=2;lst={p};Do[p=PrimeNext[3*p];AppendTo[lst,p],{n,2*4!}];lst (* _Vladimir Joseph Stephan Orlovsky_, May 27 2009 *)",
				"NestList[NextPrime[3#]\u0026,2,30] (* _Harvey P. Dale_, Aug 12 2016 *)"
			],
			"xref": [
				"Cf. A055496."
			],
			"keyword": "nonn",
			"offset": "1,1",
			"author": "_Cino Hilliard_, Oct 24 2002",
			"ext": [
				"Edited by _Don Reble_, May 03 2006"
			],
			"references": 10,
			"revision": 15,
			"time": "2017-10-19T03:14:07-04:00",
			"created": "2003-05-16T03:00:00-04:00"
		}
	]
}