{
	"greeting": "Greetings from The On-Line Encyclopedia of Integer Sequences! http://oeis.org/",
	"query": "id:A076223",
	"count": 1,
	"start": 0,
	"results": [
		{
			"number": 76223,
			"data": "0,1,2,2,3,2,3,3,3,3,4,4,5,5,5,5,6,6,7,7,7,7,8,8,9,9,9,9,10,8,9,9,9,9,9,9,10,10,10,10,11,11,12,12,12,12,13,13,14,14,14,14,15,15,15,15,15,15,16,16,17,17,17,17,17,17,18,18,18,18,19,19,20,20,20,20,21,21,22,22,22",
			"name": "Minimum of n-th row of A076221.",
			"keyword": "nonn",
			"offset": "1,3",
			"author": "_Olivier Gérard_",
			"references": 0,
			"revision": 3,
			"time": "2012-03-30T17:21:00-04:00",
			"created": "2003-05-16T03:00:00-04:00"
		}
	]
}