{
	"greeting": "Greetings from The On-Line Encyclopedia of Integer Sequences! http://oeis.org/",
	"query": "id:A076651",
	"count": 1,
	"start": 0,
	"results": [
		{
			"number": 76651,
			"data": "2,4,8,12,21,29,42,50,72,76,97,106,127,135,140,161,169,190,199,220,246,296,305,326,369,403,424,436,453,466,572,581,585,606,623,721,729,742,750,772,814,869,903,912,920,933,1009,1026,1047,1052,1137,1145,1179",
			"name": "Floor( Sqrt( p * (p+2) / 2)) where p is the lesser of the twin primes.",
			"link": [
				"Harvey P. Dale, \u003ca href=\"/A076651/b076651.txt\"\u003eTable of n, a(n) for n = 1..1000\u003c/a\u003e"
			],
			"mathematica": [
				"a = Select[ Range[300], PrimeQ[ Prime[ # ] + 2] \u0026 ]; Floor[ Sqrt[ Prime[a]*Prime[a + 1]/2 ]]",
				"Floor[Sqrt[Times@@#/2]]\u0026/@Select[Partition[Prime[Range[500]],2,1],#[[2]] - #[[1]]==2\u0026] (* _Harvey P. Dale_, Jun 13 2013 *)"
			],
			"keyword": "nonn",
			"offset": "1,1",
			"author": "_Cino Hilliard_ and _Robert G. Wilson v_, Oct 20 2002",
			"references": 1,
			"revision": 8,
			"time": "2015-03-14T19:25:43-04:00",
			"created": "2003-05-16T03:00:00-04:00"
		}
	]
}