{
	"greeting": "Greetings from The On-Line Encyclopedia of Integer Sequences! http://oeis.org/",
	"query": "id:A076550",
	"count": 1,
	"start": 0,
	"results": [
		{
			"number": 76550,
			"data": "1,2,3,7,8,15,32,64,63,224,255,1280,512,3968,6399,10240,4095,14336,32768,65535,229375,180224,483327,262143,2097151,1048575,14680064,17432576,33554432,67108864,16777215",
			"name": "Indices of triangular numbers listed in A075088.",
			"comment": [
				"a(32) = 134217728. - _Robert G. Wilson v_, Jun 28 2010"
			],
			"link": [
				"Donovan Johnson, \u003ca href=\"/A076550/b076550.txt\"\u003eTable of n, a(n) for n = 0..51\u003c/a\u003e"
			],
			"formula": [
				"A000217(a(n)) = A075088(n)."
			],
			"mathematica": [
				"f[n_] := Plus @@ Last /@ FactorInteger@n; t = Table[0, {100}]; k = 1; While[k \u003c 10^9/4, a = f[k] + f[k + 1] -1; If[ t[[a + 1]] == 0, t[[a + 1]] = k; Print[{a, k}]]; k++ ]; t (* _Robert G. Wilson v_, Jun 28 2010 *)"
			],
			"xref": [
				"Cf. A000217, A075088."
			],
			"keyword": "nonn",
			"offset": "0,2",
			"author": "_Shyam Sunder Gupta_, Oct 19 2002",
			"ext": [
				"Edited by _Ray Chandler_, Dec 17 2004",
				"a(26)-a(30) from _Ray Chandler_, Dec 22 2004"
			],
			"references": 4,
			"revision": 15,
			"time": "2015-02-14T17:00:32-05:00",
			"created": "2003-05-16T03:00:00-04:00"
		}
	]
}