{
	"greeting": "Greetings from The On-Line Encyclopedia of Integer Sequences! http://oeis.org/",
	"query": "id:A076624",
	"count": 1,
	"start": 0,
	"results": [
		{
			"number": 76624,
			"data": "1,2,5,6,14,149,158,384,846,5065,8648,181166,196366,947545,5821349,55867168,491372910,4273496001,40534401950,87226316289",
			"name": "Sum of the non-divisors of n between 1 and n is a perfect square.",
			"comment": [
				"Define b(0)=2, b(1)=5 and b(n)=6*b(n-1)-b(n-2)-2 for n\u003e1. A prime number p is in the sequence iff (p^2-p-2)/2 is a square iff p=b(n) for some n. The next prime in the sequence is b(21)=8946229758127349, followed by b(n) for n=33, 51, 57 and 75.",
				"a(21) \u003e 2*10^11. - Donovan Johnson, Jul 09 2011"
			],
			"formula": [
				"s(n)=A000217[n]-A000203[n]=A024816[n] is a square."
			],
			"example": [
				"The sum of the non-divisors of 14 between 1 and 14 is 3 + 4 + 5 + 6 + 8 + 9 + 10 + 11 + 12 + 13 = 81 = 9^2. 1, 2, 7 \u0026 14 are divisors. Hence 14 is a term of the sequence."
			],
			"mathematica": [
				"Select[ Range[14*10^6], IntegerQ[Sqrt[(# (# + 1)/2) - DivisorSigma[1, # ]]] \u0026]"
			],
			"keyword": "nonn",
			"offset": "1,2",
			"author": "_Joseph L. Pe_, Oct 22 2002",
			"ext": [
				"Edited by _Robert G. Wilson v_ and _Dean Hickerson_, Oct 25 2002",
				"a(16)-a(17) from _Donovan Johnson_, Oct 14 2009",
				"a(18)-a(20) from _Donovan Johnson_, Jul 09 2011"
			],
			"references": 0,
			"revision": 10,
			"time": "2014-06-24T01:08:32-04:00",
			"created": "2003-05-16T03:00:00-04:00"
		}
	]
}