{
	"greeting": "Greetings from The On-Line Encyclopedia of Integer Sequences! http://oeis.org/",
	"query": "id:A076318",
	"count": 1,
	"start": 0,
	"results": [
		{
			"number": 76318,
			"data": "1,2,4,11,34,156,1043,12338,274541,12000742,1018595454",
			"name": "Number of 6-colorable (i.e., chromatic number \u003c= 6) simple graphs on n nodes.",
			"link": [
				"Eric Weisstein's World of Mathematics, \u003ca href=\"http://mathworld.wolfram.com/n-ColorableGraph.html\"\u003en-Colorable Graph\u003c/a\u003e"
			],
			"formula": [
				"a(n) = A076317(n) + A076282(n). - _Andrew Howroyd_, Dec 02 2018"
			],
			"xref": [
				"Cf. A033995, A076282, A076315, A076316, A076317, A076319, A076320, A076321."
			],
			"keyword": "nonn,more",
			"offset": "1,2",
			"author": "_Eric W. Weisstein_, Oct 06 2002",
			"ext": [
				"a(10)-a(11) from _Andrew Howroyd_, Dec 02 2018"
			],
			"references": 8,
			"revision": 9,
			"time": "2018-12-02T14:41:24-05:00",
			"created": "2003-05-16T03:00:00-04:00"
		}
	]
}