{
	"greeting": "Greetings from The On-Line Encyclopedia of Integer Sequences! http://oeis.org/",
	"query": "id:A076355",
	"count": 1,
	"start": 0,
	"results": [
		{
			"number": 76355,
			"data": "0,2,3,5,7,9,10,12,13,16,17,19,20,21,24,25,26,29,30,31,34,42,43,45,48,49,54,57,59,60,61,63,64,67,72,74,75,76,80,81,82,89,90,91,93,94,95,100,101,104,106,107,108,109,111,112,113,116,123,125,127,128,133,134,136",
			"name": "Numbers n such that 210*n + 11 is prime.",
			"comment": [
				"First sets of exactly n consecutive integers;",
				"  0;",
				"  2, 3;",
				"  19..21;",
				"  106..109;",
				"  1270..1274;",
				"  1178..1183;",
				"  15304..15310;",
				"  2562331..2562338;",
				"  108571234..108571242;",
				"  1594939699..1594939708."
			],
			"link": [
				"Vincenzo Librandi, \u003ca href=\"/A076355/b076355.txt\"\u003eTable of n, a(n) for n = 1..1000\u003c/a\u003e"
			],
			"formula": [
				"a(n) = (A140840(n) - 11)/210. - _Zak Seidov_, Jan 15 2014"
			],
			"example": [
				"n=2: 210*2 + 11 = 431 is prime."
			],
			"mathematica": [
				"Select[Range[0,150],PrimeQ[210#+11]\u0026] (* _Harvey P. Dale_, Dec 09 2011 *)"
			],
			"program": [
				"(MAGMA) [n: n in [0..150]| IsPrime(210*n + 11)]; // _Vincenzo Librandi_, Oct 04 2012",
				"(PARI) is(n)=isprime(210*n+11) \\\\ _Charles R Greathouse IV_, May 22 2017"
			],
			"xref": [
				"Cf. A140840."
			],
			"keyword": "easy,nonn",
			"offset": "1,2",
			"author": "_Zak Seidov_, Oct 08 2002",
			"ext": [
				"0 inserted by _Ray Chandler_, Apr 30 2010"
			],
			"references": 2,
			"revision": 32,
			"time": "2018-01-14T03:22:44-05:00",
			"created": "2003-05-16T03:00:00-04:00"
		}
	]
}