{
	"greeting": "Greetings from The On-Line Encyclopedia of Integer Sequences! http://oeis.org/",
	"query": "id:A077308",
	"count": 1,
	"start": 0,
	"results": [
		{
			"number": 77308,
			"data": "1,1,1,3,1,1,3,5,1,1,9,1,4,7,1,5,23,1,14,1,9,9,13,5,1,21,1,13,12,1,36",
			"name": "Duplicate of A075001.",
			"keyword": "dead",
			"offset": "1,4",
			"references": 1,
			"revision": 3,
			"time": "2007-05-11T03:00:00-04:00",
			"created": "2003-05-16T03:00:00-04:00"
		}
	]
}