{
	"greeting": "Greetings from The On-Line Encyclopedia of Integer Sequences! http://oeis.org/",
	"query": "id:A077815",
	"count": 1,
	"start": 0,
	"results": [
		{
			"number": 77815,
			"data": "0,2,4,4,16,4,15,16,64,16,56,16,40,64,31,0,222,64,58,256,127,56,392,256,451,40,433,176,30,256,187,0,958,800,841,208,38,780,586,1536,944,568,1076,1200,91,392,2069,1024,2157,1076,1021,1600,1909,2620,826,2752",
			"name": "2^phi(n) mod n^2, where phi is Euler's totient function A000010.",
			"link": [
				"Harvey P. Dale, \u003ca href=\"/A077815/b077815.txt\"\u003eTable of n, a(n) for n = 1..1000\u003c/a\u003e"
			],
			"example": [
				"a(42) = 2^phi(42) mod 42*42 = 2^phi(2*3*7) mod 1764 = 2^(42*(1-1/2)*(1-1/3)*(1-1/7)) mod 1764 = 2^12 mod 1764 = 4096 mod 1764 = 568."
			],
			"mathematica": [
				"PowerMod[2,EulerPhi[#],#^2]\u0026/@Range[60] (* _Harvey P. Dale_, Dec 04 2021 *)"
			],
			"program": [
				"(PARI) a(n)=lift(Mod(2,n^2)^eulerphi(n)) \\\\ _Charles R Greathouse IV_, Feb 21 2013"
			],
			"xref": [
				"Cf. A077816, A000010, A000290."
			],
			"keyword": "nonn",
			"offset": "1,2",
			"author": "_Reinhard Zumkeller_, Nov 17 2002",
			"references": 4,
			"revision": 9,
			"time": "2021-12-04T15:01:47-05:00",
			"created": "2003-05-16T03:00:00-04:00"
		}
	]
}