{
	"greeting": "Greetings from The On-Line Encyclopedia of Integer Sequences! http://oeis.org/",
	"query": "id:A077665",
	"count": 1,
	"start": 0,
	"results": [
		{
			"number": 77665,
			"data": "2,5,7,11,11,23,15,23,22,33,23,47,27,45,43,47,35,71,39,69,58,69,47,95,56,81,67,93,59,139,63,95,86,105,86,143,75,117,101,139,83,187,87,139,128,141,95,191,106,173,131,163,107,215,129,185,146,177,119,283,123,189",
			"name": "Final term of n-th row of A077664.",
			"comment": [
				"a(p) = 2p+1, p is a prime. a(2^n) = 3*2^n -1.",
				"a(n) also equals the (n+phi(n))th integer from among those positive integers coprime to n, where phi(n) = A000010(n). a(n) also equals n + (the n-th integer from among those positive integers coprime to n) = n + A069213(n). - _Leroy Quet_, Apr 12 2007"
			],
			"link": [
				"Reinhard Zumkeller, \u003ca href=\"/A077665/b077665.txt\"\u003eTable of n, a(n) for n = 1..1000\u003c/a\u003e"
			],
			"program": [
				"(Haskell)",
				"a077665 = last . a077664_row  -- _Reinhard Zumkeller_, Aug 03 2015"
			],
			"xref": [
				"Cf. A077664, A077666."
			],
			"keyword": "nonn",
			"offset": "1,1",
			"author": "_Amarnath Murthy_, Nov 14 2002",
			"ext": [
				"More terms from _Sascha Kurz_, Jan 03 2003"
			],
			"references": 3,
			"revision": 14,
			"time": "2015-08-04T01:55:01-04:00",
			"created": "2003-05-16T03:00:00-04:00"
		}
	]
}