{
	"greeting": "Greetings from The On-Line Encyclopedia of Integer Sequences! http://oeis.org/",
	"query": "id:A077170",
	"count": 1,
	"start": 0,
	"results": [
		{
			"number": 77170,
			"data": "1,3,6,10,259200,87178291200,202741834014720,484725313854093312000000,4438779300500903005519872000000,346902756482949716983678260882702336000000000",
			"name": "Final terms of rows of A077168.",
			"xref": [
				"Cf. A077168, A077169."
			],
			"keyword": "nonn",
			"offset": "0,2",
			"author": "_Amarnath Murthy_, Nov 01 2002",
			"ext": [
				"More terms from _Sascha Kurz_, Feb 10 2003"
			],
			"references": 3,
			"revision": 5,
			"time": "2013-12-05T19:55:49-05:00",
			"created": "2003-05-16T03:00:00-04:00"
		}
	]
}