{
	"greeting": "Greetings from The On-Line Encyclopedia of Integer Sequences! http://oeis.org/",
	"query": "id:A077567",
	"count": 1,
	"start": 0,
	"results": [
		{
			"number": 77567,
			"data": "2,3,3,4,3,3,3,5,4,3,3,5,3,3,3,6,3,7,3,5,3,3,3,3,4,3,5,7,3,3,3,7,3,3,3,4,3,3,3,5,3,3,3,5,3,3,3,11,4,7,3,7,3,5,3,3,3,3,3,5,3,3,7,8,3,3,3,5,3,3,3,13,3,3,7,5,3,3,3,5,6,3,3,5,3,3,3,5,3,3,3,5,3,3,3,7,3,4,7,4,3,3,3",
			"name": "Least k \u003e= 2 such that sigma(n) divides sigma(n^k).",
			"comment": [
				"From _Robert Israel_, Mar 14 2017: (Start)",
				"If x and y are coprime and a(x)=a(y)=k, then a(xy)=k as well.",
				"If n \u003e 1 is squarefree, then a(n^k) = k+2 for all k\u003e=1.",
				"Is there any n \u003e 1 with a(n) = 2? (End)"
			],
			"link": [
				"Robert Israel, \u003ca href=\"/A077567/b077567.txt\"\u003eTable of n, a(n) for n = 1..10000\u003c/a\u003e"
			],
			"maple": [
				"f:= proc(n) local k, s; uses numtheory;",
				"  s:= sigma(n);",
				"  for k from 2 do if sigma(n^k) mod s = 0 then return k fi",
				"  od",
				"end proc:",
				"map(f, [$1..200]); # _Robert Israel_, Mar 14 2017"
			],
			"mathematica": [
				"a[n_] := For[k = 2, True, k++, If[Divisible[DivisorSigma[1, n^k], DivisorSigma[1, n]], Return[k]]];",
				"Array[a, 100] (* _Jean-François Alcover_, Aug 24 2020 *)"
			],
			"keyword": "nonn",
			"offset": "1,1",
			"author": "_Benoit Cloitre_, Dec 01 2002",
			"references": 1,
			"revision": 17,
			"time": "2020-08-24T10:44:43-04:00",
			"created": "2003-05-16T03:00:00-04:00"
		}
	]
}