{
	"greeting": "Greetings from The On-Line Encyclopedia of Integer Sequences! http://oeis.org/",
	"query": "id:A077615",
	"count": 1,
	"start": 0,
	"results": [
		{
			"number": 77615,
			"data": "1,4,31,255,431,432,1727,2700,21599,21600,10800,10799,43200,43199",
			"name": "a(n) is least k such that A077614(k)=n or 0 if there is none.",
			"keyword": "nonn,more",
			"offset": "1,2",
			"author": "_Christian G. Bower_, Nov 11 2002",
			"references": 1,
			"revision": 2,
			"time": "2012-03-30T17:37:12-04:00",
			"created": "2003-05-16T03:00:00-04:00"
		}
	]
}