{
	"greeting": "Greetings from The On-Line Encyclopedia of Integer Sequences! http://oeis.org/",
	"query": "id:A077142",
	"count": 1,
	"start": 0,
	"results": [
		{
			"number": 77142,
			"data": "5,4,9,2,6,9,2,3,3,9,5,8,5,7,9,0,5,3,2,5,7,4,0,3,4,2,7,7,7,0,0,3,4,0,6,4,2,0,1,7,1,5,2,7,9,3,0,5,6,0,5,0,2,6,2,3,1,4,1,9,4,6,3,5,2,3,0,9,7,5,2,8,4,6,5,6,8,8,4,5,9,9,2,1,0,1,3,0,6,5,6,2,6,0,3,5,0,2,0,4,8,6,6,9",
			"name": "Decimal expansion of b = log(2*Pi)-1-Gamma/2.",
			"comment": [
				"Arises in the Riemann zeta function's expression (Hadamard product) : zeta(s)=exp(b*s)/(2(s-1)GAMMA(s/2+1))*prod( r, (1-s/r)^exp(s/r)) where r runs through the zeros."
			],
			"link": [
				"Eric Weisstein's World of Mathematics, \u003ca href=\"http://mathworld.wolfram.com/HadamardProduct.html\"\u003eHadamard Product\u003c/a\u003e",
				"\u003ca href=\"/index/Z#zeta_function\"\u003eIndex entries for zeta function\u003c/a\u003e."
			],
			"formula": [
				"b = 0.54926923395857905325740342777003406420171527930560..."
			],
			"mathematica": [
				"RealDigits[Log[2Pi]-1-EulerGamma/2,10,120][[1]] (* _Harvey P. Dale_, Nov 05 2011 *)"
			],
			"program": [
				"(PARI) log(2*Pi)-1-Euler/2 \\\\ _Charles R Greathouse IV_, Mar 10 2016"
			],
			"keyword": "cons,nonn",
			"offset": "0,1",
			"author": "_Benoit Cloitre_, Nov 29 2002",
			"references": 1,
			"revision": 14,
			"time": "2016-03-10T17:13:25-05:00",
			"created": "2003-05-16T03:00:00-04:00"
		}
	]
}