{
	"greeting": "Greetings from The On-Line Encyclopedia of Integer Sequences! http://oeis.org/",
	"query": "id:A077836",
	"count": 1,
	"start": 0,
	"results": [
		{
			"number": 77836,
			"data": "1,2,9,36,141,558,2205,8712,34425,136026,537489,2123820,8392005,33159942,131027301,517737744,2045774961,8083620018,31941398169,126212379444,498712192893,1970597911518,7786567451565,30767632667928,121574394093033,480385782637578",
			"name": "Expansion of (1-x)/(1-3*x-3*x^2-3*x^3).",
			"link": [
				"\u003ca href=\"/index/Rec#order_03\"\u003eIndex entries for linear recurrences with constant coefficients\u003c/a\u003e, signature (3, 3, 3)."
			],
			"formula": [
				"a(0)=1, a(1)=2, a(2)=9, a(n)=3*a(n-1)+3*a(n-2)+3*a(n-3). - _Harvey P. Dale_, Dec 15 2013"
			],
			"mathematica": [
				"CoefficientList[Series[(1-x)/(1-3*x-3*x^2-3*x^3),{x,0,30}],x] (* or *) LinearRecurrence[{3,3,3},{1,2,9},30] (* _Harvey P. Dale_, Dec 15 2013 *)"
			],
			"keyword": "nonn",
			"offset": "0,2",
			"author": "_N. J. A. Sloane_, Nov 17 2002",
			"references": 0,
			"revision": 7,
			"time": "2015-07-31T12:06:17-04:00",
			"created": "2003-05-16T03:00:00-04:00"
		}
	]
}