{
	"greeting": "Greetings from The On-Line Encyclopedia of Integer Sequences! http://oeis.org/",
	"query": "id:A077788",
	"count": 1,
	"start": 0,
	"results": [
		{
			"number": 77788,
			"data": "9,11,17,23,2489,3371,4019,29315,30237",
			"name": "Numbers k such that 7*(10^k - 1)/9 - 10^floor(k/2) is a palindromic wing prime (a.k.a. near-repdigit palindromic prime).",
			"comment": [
				"Prime versus probable prime status and proofs are given in the author's table."
			],
			"reference": [
				"C. Caldwell and H. Dubner, \"Journal of Recreational Mathematics\", Volume 28, No. 1, 1996-97, pp. 1-9."
			],
			"link": [
				"Patrick De Geest, World!Of Numbers, \u003ca href=\"http://www.worldofnumbers.com/wing.htm#pwp767\"\u003ePalindromic Wing Primes (PWP's)\u003c/a\u003e",
				"Makoto Kamada, \u003ca href=\"https://stdkmd.net/nrr/7/77677.htm#prime\"\u003ePrime numbers of the form 77...77677...77\u003c/a\u003e",
				"\u003ca href=\"/index/Pri#Pri_rep\"\u003eIndex entries for primes involving repunits\u003c/a\u003e."
			],
			"formula": [
				"a(n) = 2*A183181(n) + 1."
			],
			"example": [
				"11 is a term because 7*(10^11 - 1)/9 - 10^5 = 77777677777."
			],
			"mathematica": [
				"Do[ If[ PrimeQ[(7*10^n - 9*10^Floor[n/2] - 7)/9], Print[n]], {n, 3, 30300, 2}] (* _Robert G. Wilson v_, Dec 16 2005 *)"
			],
			"xref": [
				"Cf. A004023, A077775-A077798, A107123-A107127, A107648, A107649, A115073, A183174-A183187."
			],
			"keyword": "more,nonn,base",
			"offset": "1,1",
			"author": "_Patrick De Geest_, Nov 16 2002",
			"ext": [
				"Name corrected by _Jon E. Schoenfield_, Oct 31 2018"
			],
			"references": 2,
			"revision": 32,
			"time": "2020-03-26T11:13:38-04:00",
			"created": "2003-05-16T03:00:00-04:00"
		}
	]
}