{
	"greeting": "Greetings from The On-Line Encyclopedia of Integer Sequences! http://oeis.org/",
	"query": "id:A077123",
	"count": 1,
	"start": 0,
	"results": [
		{
			"number": 77123,
			"data": "0,1,42,1379,51676,2438373,146581550,11075609047,1032628339584,116710488322601,15741160102417618,2499106917666707835,461526692949421538852,98124338524653370059469",
			"name": "Let M_n be the n X n matrix M_(i,j) = i!-j! then the characteristic polynomial of M_n = x^n+a(n)*x^(n-2).",
			"program": [
				"(PARI) a(n)=polcoeff(charpoly(matrix(n,n,i,j,i!-j!)),n-2)",
				"(PARI) a(n)=sum(i=1,n,sum(j=1,i-1,(i!-j!)^2))"
			],
			"keyword": "nonn",
			"offset": "1,3",
			"author": "_Benoit Cloitre_, Nov 29 2002",
			"references": 0,
			"revision": 5,
			"time": "2012-03-30T18:39:10-04:00",
			"created": "2003-05-16T03:00:00-04:00"
		}
	]
}