{
	"greeting": "Greetings from The On-Line Encyclopedia of Integer Sequences! http://oeis.org/",
	"query": "id:A077748",
	"count": 1,
	"start": 0,
	"results": [
		{
			"number": 77748,
			"data": "1,2,4,2,2",
			"name": "Least significant digit of A077747(n).",
			"formula": [
				"a(n) = A077747(n) mod 10."
			],
			"xref": [
				"Cf. A077747."
			],
			"keyword": "base,hard,more,nonn",
			"offset": "1,2",
			"author": "_Amarnath Murthy_, Nov 20 2002",
			"ext": [
				"a(5) from _Max Alekseyev_, Dec 12 2011"
			],
			"references": 1,
			"revision": 5,
			"time": "2013-12-05T19:55:56-05:00",
			"created": "2003-05-16T03:00:00-04:00"
		}
	]
}