{
	"greeting": "Greetings from The On-Line Encyclopedia of Integer Sequences! http://oeis.org/",
	"query": "id:A077184",
	"count": 1,
	"start": 0,
	"results": [
		{
			"number": 77184,
			"data": "0,2,0,2,14,15,9,5,16,4,25,21,40,67,78,66,25,111,161,49,30,15,27,20,63,98,102,3,99,92,296,71,22,367,4,48,50,91,45,241,137,258,23,28,212,40,96,408,456,110",
			"name": "Duplicate of A077183.",
			"keyword": "dead",
			"offset": "1,2",
			"references": 6,
			"revision": 17,
			"time": "2015-09-19T17:34:45-04:00",
			"created": "2003-05-16T03:00:00-04:00"
		}
	]
}