{
	"greeting": "Greetings from The On-Line Encyclopedia of Integer Sequences! http://oeis.org/",
	"query": "id:A077383",
	"count": 1,
	"start": 0,
	"results": [
		{
			"number": 77383,
			"data": "1,3,9,5,10,60,53,61,549,539,550,6600,6587,6601,99015,98999,99016,1782288,1782269,1782289,37428069,37428047,37428070,898273680,898273655,898273681,24253389387,24253389359,24253389388,727601681640,727601681609",
			"name": "a(1) = 1, then add, multiply and subtract 2, 3, 4; 5, 6, 7; ... in that order.",
			"example": [
				"a(2) = a(1) + 2 = 3, a(3) = 3*3 = 9, a(4) = 9 - 4 = 5;",
				"a(5) = 5 + 5 = 10, etc."
			],
			"maple": [
				"a := proc(n) if n=1 then 1 elif n mod 3 = 2 then a(n-1)+n elif n mod 3 = 0 then n*a(n-1) elif n mod 3 = 1 then a(n-1)-n else fi end: # _Emeric Deutsch_, Dec 17 2003"
			],
			"xref": [
				"Cf. A077382, A077384."
			],
			"keyword": "nonn",
			"offset": "1,2",
			"author": "_Amarnath Murthy_, Nov 06 2002",
			"ext": [
				"More terms from _Emeric Deutsch_, Dec 17 2003"
			],
			"references": 1,
			"revision": 8,
			"time": "2017-08-13T17:15:07-04:00",
			"created": "2003-05-16T03:00:00-04:00"
		}
	]
}