{
	"greeting": "Greetings from The On-Line Encyclopedia of Integer Sequences! http://oeis.org/",
	"query": "id:A077450",
	"count": 1,
	"start": 0,
	"results": [
		{
			"number": 77450,
			"data": "3,2,2,1,1,1,2,2,1,1,1,2,2,1,1,1,2,2,1,1,1,2,2,1,1,1,2,2,1,1,1,2,2,1,1,1,2,2,1,1,1,2,2,1,1,1,2,2,1,1,1,2,2,1,1,1,2,2,1,1,1,2,2,1,1,1,2,2,1,1,1,2,2,1,1,1,2,2,1,1,1,2,2,1,1,1,2,2,1,1,1,2,2,1,1,1,2,2,1,1,1,2,2,1,1",
			"name": "Continued fraction expansion of (29+sqrt(145))/12.",
			"link": [
				"I. Jensen, \u003ca href=\"http://arXiv.org/abs/cond-mat/0008178\"\u003eA transfer matrix approach to the enumeration of plane meanders\u003c/a\u003e, J. Phys. A 33 (2000), no. 34, 5953-5963.",
				"\u003ca href=\"/index/Rec\"\u003eIndex entries for linear recurrences with constant coefficients\u003c/a\u003e, signature (0,0,0,0,1)."
			],
			"formula": [
				"a(n) = a(n-5) for n\u003e6. G.f.: x*(2*x^5-x^4-x^3-2*x^2-2*x-3) / ((x-1)*(x^4+x^3+x^2+x+1)). - _Colin Barker_, Jan 10 2014"
			],
			"example": [
				"3.420132881566024623344..."
			],
			"mathematica": [
				"PadRight[{3},120,{1,2,2,1,1}] (* _Harvey P. Dale_, Oct 15 2015 *)"
			],
			"xref": [
				"Cf. A077451."
			],
			"keyword": "nonn,cofr,easy",
			"offset": "1,1",
			"author": "_N. J. A. Sloane_, Dec 01 2002",
			"references": 1,
			"revision": 10,
			"time": "2015-10-15T10:38:21-04:00",
			"created": "2003-05-16T03:00:00-04:00"
		}
	]
}