{
	"greeting": "Greetings from The On-Line Encyclopedia of Integer Sequences! http://oeis.org/",
	"query": "id:A077298",
	"count": 1,
	"start": 0,
	"results": [
		{
			"number": 77298,
			"data": "12345,678910,1112131415,1617181920,2122232425,2627282930,3132333435,3637383940,4142434445,4647484950,515,25,35,45,55,65,75,85,960,6162636465,6667686970,7172737475,7677787980,8182838485,8687888990",
			"name": "Partition the concatenation 1234567...of natural numbers into successive strings which are multiples of 5, all different and \u003e 5. ( 0's never taken as the most significant digit.)",
			"xref": [
				"Cf. A077293, A077294, A077295, A077296, A077297, A077299, A077300, A077301, A077302."
			],
			"keyword": "base,nonn",
			"offset": "0,1",
			"author": "_Amarnath Murthy_, Nov 03 2002",
			"ext": [
				"More terms from _R. J. Mathar_, Mar 13 2006",
				"More terms from Kyle Shearer (kss198(AT)psu.edu), Mar 14 2006"
			],
			"references": 10,
			"revision": 5,
			"time": "2013-12-05T19:55:51-05:00",
			"created": "2003-05-16T03:00:00-04:00"
		}
	]
}