{
	"greeting": "Greetings from The On-Line Encyclopedia of Integer Sequences! http://oeis.org/",
	"query": "id:A077692",
	"count": 1,
	"start": 0,
	"results": [
		{
			"number": 77692,
			"data": "1,120,123256,1234806,123457041,12345625545,12345671807241,123456781852386,123456789378124021,12345678910482682485,123456789101100044904153,1234567891011124675039766878",
			"name": "Smallest triangular number which begins with the concatenation of first n natural numbers.",
			"example": [
				"a(4) = 12342996, begins with 1234."
			],
			"mathematica": [
				"t=x={1}; i=4; Do[x=Append[x,n]; While[Take[IntegerDigits[y=i*(i+1)/2],Length[x]]!=x,i++]; AppendTo[t,y],{n,2,7}]; t (* _Jayanta Basu_, May 22 2013 *)"
			],
			"program": [
				"(PARI) {rT(m) = ceil((sqrt(8*m+1)-1)/2)} {len10(m) = ceil(log(m+1)/log(10))} {T(n) = (n*(n+1))/2} m=0;for(n=1,20,m=m*10^len10(n)+n;for(k=0,10^6,t=rT(m*10^k);if(T(t)\u003c(m+1)*10^k,print1(\" \",T(t));break))) (Alekseyev)"
			],
			"keyword": "base,nonn",
			"offset": "1,2",
			"author": "_Amarnath Murthy_, Nov 18 2002",
			"ext": [
				"Corrected and extended by _Max Alekseyev_, Feb 15 2005"
			],
			"references": 3,
			"revision": 8,
			"time": "2013-12-05T19:55:54-05:00",
			"created": "2003-05-16T03:00:00-04:00"
		}
	]
}