{
	"greeting": "Greetings from The On-Line Encyclopedia of Integer Sequences! http://oeis.org/",
	"query": "id:A077033",
	"count": 1,
	"start": 0,
	"results": [
		{
			"number": 77033,
			"data": "15,16,5034,5241",
			"name": "Numbers n such that A068340(n)=+/-5.",
			"xref": [
				"Cf. A068340, A076542, A077030-A077033."
			],
			"keyword": "easy,nonn",
			"offset": "1,1",
			"author": "_Zak Seidov_, Oct 21 2002",
			"references": 5,
			"revision": 6,
			"time": "2012-03-30T17:26:08-04:00",
			"created": "2003-05-16T03:00:00-04:00"
		}
	]
}