{
	"greeting": "Greetings from The On-Line Encyclopedia of Integer Sequences! http://oeis.org/",
	"query": "id:A077550",
	"count": 1,
	"start": 0,
	"results": [
		{
			"number": 77550,
			"data": "1,1,2,3,9,21,54,131",
			"name": "Number of nonisomorphic ways a river (or undirected line) can cross two perpendicular roads n times (orbits of A076875 under symmetry group of order 8).",
			"comment": [
				"There is no constraint on touching any particular sector."
			],
			"xref": [
				"Cf. A076875 (total number of solutions), A076906, A076907 (if line is directed)"
			],
			"keyword": "nonn",
			"offset": "0,3",
			"author": "_N. J. A. Sloane_ and _Jon Wild_, Aug 25 2003",
			"references": 1,
			"revision": 6,
			"time": "2012-03-31T10:32:24-04:00",
			"created": "2003-05-16T03:00:00-04:00"
		}
	]
}