{
	"greeting": "Greetings from The On-Line Encyclopedia of Integer Sequences! http://oeis.org/",
	"query": "id:A077764",
	"count": 1,
	"start": 0,
	"results": [
		{
			"number": 77764,
			"data": "1,1,1,1,1,1,1,1,2,4,4,8,6,14,14,44,22,30,12,41,137,667,401,517,149,286,306,1312,1940,23546,23886,23886,68285,728501,241424,555302,630441,4175810,7996830,87591010,101316606,148078428,92744140,298180464,241949668,1090944470",
			"name": "Number of ways of pairing the even squares of the numbers 1 to n with the odd squares of the numbers n+1 to 2n such that each pair sums to a prime. a(1) is defined to be 1.",
			"comment": [
				"It appears that a pairing is always possible. The Mathematica program uses backtracking to find all solutions. The Print statement can be uncommented to print all solutions. The product of this sequence and A077763 gives A077762."
			],
			"link": [
				"Bert Dobbelaere, \u003ca href=\"/A077764/b077764.txt\"\u003eTable of n, a(n) for n = 1..50\u003c/a\u003e"
			],
			"example": [
				"a(5)=1 because only one pairing is possible: 4+49=53, 16+81=97."
			],
			"mathematica": [
				"try[lev_] := Module[{j}, If[lev\u003en, (*Print[soln]; *) cnt++, For[j=1, j\u003c=Length[s[[lev]]], j++, If[ !MemberQ[soln, s[[lev]][[j]]], soln[[lev]]=s[[lev]][[j]]; try[lev+2]; soln[[lev]]=0]]]]; maxN=28; For[lst2={1}; n=2, n\u003c=maxN, n++, s=Table[{}, {n}]; For[i=2, i\u003c=n, i=i+2, For[j=n+1, j\u003c=2n, j++, If[PrimeQ[i^2+j^2], AppendTo[s[[i]], j]]]]; soln=Table[0, {n}]; cnt=0; try[2]; AppendTo[lst2, cnt]]; lst2"
			],
			"xref": [
				"Cf. A077762, A077763."
			],
			"keyword": "nonn",
			"offset": "1,9",
			"author": "_T. D. Noe_, Nov 15 2002",
			"ext": [
				"a(29)-a(46) from _Bert Dobbelaere_, Sep 08 2019"
			],
			"references": 3,
			"revision": 10,
			"time": "2019-09-08T03:14:14-04:00",
			"created": "2003-05-16T03:00:00-04:00"
		}
	]
}