{
	"greeting": "Greetings from The On-Line Encyclopedia of Integer Sequences! http://oeis.org/",
	"query": "id:A077828",
	"count": 1,
	"start": 0,
	"results": [
		{
			"number": 77828,
			"data": "1,3,12,48,189,747,2952,11664,46089,182115,719604,2843424,11235429,44395371,175422672,693160416,2738935377,10822555395,42763953564,168976333008,667688525901,2638286437419,10424853888984,41192486556912,162766880649945,643152663287523",
			"name": "Expansion of 1/(1-3*x-3*x^2-3*x^3).",
			"link": [
				"\u003ca href=\"/index/Rec#order_03\"\u003eIndex entries for linear recurrences with constant coefficients\u003c/a\u003e, signature (3,3,3)."
			],
			"formula": [
				"a(n)=sum{k=0..n, T(n-k, k)3^(n-k)}, T(n, k) = trinomial coefficients (A027907). - _Paul Barry_, Feb 15 2005",
				"a(n)=sum{k=0..n, sum{i=0..floor((n-k)/2), C(n-k-i, i)C(k, n-k-i)}*3^k}; - _Paul Barry_, Apr 26 2005"
			],
			"mathematica": [
				"CoefficientList[Series[1/(1-3x-3x^2-3x^3),{x,0,30}],x] (* or *) LinearRecurrence[ {3,3,3},{1,3,12},30] (* _Harvey P. Dale_, Dec 25 2018 *)"
			],
			"program": [
				"(PARI) Vec(1/(1-3*x-3*x^2-3*x^3)+O(x^99)) \\\\ _Charles R Greathouse IV_, Sep 27 2012"
			],
			"xref": [
				"Partial sums of S(n, x), for x=1...12, A021823, A000217, A027941, A061278, A089817, A053142, A092521, A076765, A092420, A097784, A097826-7.",
				"Cf. A071675."
			],
			"keyword": "nonn,easy",
			"offset": "0,2",
			"author": "_N. J. A. Sloane_, Nov 17 2002",
			"references": 1,
			"revision": 14,
			"time": "2018-12-25T13:05:19-05:00",
			"created": "2003-05-16T03:00:00-04:00"
		}
	]
}