{
	"greeting": "Greetings from The On-Line Encyclopedia of Integer Sequences! http://oeis.org/",
	"query": "id:A078100",
	"count": 1,
	"start": 0,
	"results": [
		{
			"number": 78100,
			"data": "4,27,187,1302,9075,63267,441090,3075255,21440547,149482638,1042187067,7266087315,50658875658,353191693599,2462438631411,17168025532662,119694800484387,834507453158019,5818153224352338,40563936024707079,282810170576026755",
			"name": "1/6 of the number of ways of 3-coloring a 4 X n grid.",
			"comment": [
				"Also the number of 3-colorings of the P_4 X P_n grid graph up to permutation of the colors. - _Andrew Howroyd_, Jun 26 2017"
			],
			"reference": [
				"Michael S. Paterson (Warwick), personal communication."
			],
			"link": [
				"Alois P. Heinz, \u003ca href=\"/A078100/b078100.txt\"\u003eTable of n, a(n) for n = 1..1000\u003c/a\u003e",
				"\u003ca href=\"/index/Rec#order_03\"\u003eIndex entries for linear recurrences with constant coefficients\u003c/a\u003e, signature (9,-15,6)."
			],
			"formula": [
				"See A078099 for formula.",
				"G.f.: x*(9*x-4-4*x^2) / (6*x^3-15*x^2+9*x-1). - _Alois P. Heinz_, Mar 23 2009"
			],
			"maple": [
				"a:= n-\u003e (Matrix([[27, 4, 2/3]]). Matrix([[9, 1, 0], [ -15, 0, 1], [6, 0, 0]])^n)[1, 3]: seq(a(n), n=1..30); # _Alois P. Heinz_, Mar 23 2009"
			],
			"mathematica": [
				"LinearRecurrence[{9, -15, 6}, {4, 27, 187}, 21] (* _Jean-François Alcover_, Feb 13 2016 *)"
			],
			"program": [
				"(MAGMA) I:=[4,27,187]; [n le 3 select I[n] else 9*Self(n-1)-15*Self(n-2)+6*Self(n-3): n in [1..30]]; // _Vincenzo Librandi_, Feb 13 2016"
			],
			"xref": [
				"Row 4 of (1/2)*A078099.",
				"Row 4 of A207997."
			],
			"keyword": "nonn,easy",
			"offset": "1,1",
			"author": "_N. J. A. Sloane_, Dec 05 2002",
			"ext": [
				"More terms from _Alois P. Heinz_, Mar 23 2009",
				"Name clarified by _Andrew Howroyd_, Jun 26 2017"
			],
			"references": 4,
			"revision": 23,
			"time": "2017-06-26T22:17:22-04:00",
			"created": "2003-05-16T03:00:00-04:00"
		}
	]
}