{
	"greeting": "Greetings from The On-Line Encyclopedia of Integer Sequences! http://oeis.org/",
	"query": "id:A078312",
	"count": 1,
	"start": 0,
	"results": [
		{
			"number": 78312,
			"data": "2,5,5,3,13,37,5,17,7,101,61,73,17,197,113,11,29,109,181,67,17,97,53,29,7,677,41,131,421,53,37,13,109,89,613,31,137,17,761,401,29,353,37,19,13,73,17,17,43,167,1301,41,281,13,89,157,13,673,1741,1801,1861,769",
			"name": "Greatest prime factor of n*rad(n)+1, where rad=A007947 (squarefree kernel).",
			"comment": [
				"a(n)=A006530(A078310(n))."
			],
			"link": [
				"Reinhard Zumkeller, \u003ca href=\"/A078312/b078312.txt\"\u003eTable of n, a(n) for n = 1..10000\u003c/a\u003e"
			],
			"program": [
				"(Haskell)",
				"a078312 = a006530 . a078310  -- _Reinhard Zumkeller_, Jul 23 2013"
			],
			"xref": [
				"Cf. A078311."
			],
			"keyword": "nonn",
			"offset": "1,1",
			"author": "_Reinhard Zumkeller_, Nov 23 2002",
			"references": 3,
			"revision": 7,
			"time": "2013-07-23T13:20:48-04:00",
			"created": "2003-05-16T03:00:00-04:00"
		}
	]
}