{
	"greeting": "Greetings from The On-Line Encyclopedia of Integer Sequences! http://oeis.org/",
	"query": "id:A078837",
	"count": 1,
	"start": 0,
	"results": [
		{
			"number": 78837,
			"data": "0,2,18,60,270,462,1080,1530,2772,5670,6960,11970,16380,18942,24840,35802,49590,54870,72930,86940,94572,120120,139482,172260,223440,252450,267852,300510,317790,354312,504000,553410,633420,661710,815850",
			"name": "a(n)=sum(k=1,p(n)-1, floor(k^3/p(n))) where p(n) denotes the n-th prime.",
			"link": [
				"Harvey P. Dale, \u003ca href=\"/A078837/b078837.txt\"\u003eTable of n, a(n) for n = 1..1000\u003c/a\u003e",
				"E. M. Weisstein, \u003ca href=\"http://mathworld.wolfram.com/PrimeSums.html\"\u003ePrime sums\u003c/a\u003e"
			],
			"formula": [
				"a(n)= (1/4)*(prime(n)-2)*(prime(n)-1)*(prime(n)+1)"
			],
			"mathematica": [
				"Table[(Times@@(Prime[n]+{1,-1,-2}))/4,{n,40}] (* _Harvey P. Dale_, Dec 31 2020 *)"
			],
			"keyword": "nonn",
			"offset": "1,2",
			"author": "_Benoit Cloitre_, Dec 08 2002",
			"references": 3,
			"revision": 10,
			"time": "2020-12-31T14:04:40-05:00",
			"created": "2003-05-16T03:00:00-04:00"
		}
	]
}