{
	"greeting": "Greetings from The On-Line Encyclopedia of Integer Sequences! http://oeis.org/",
	"query": "id:A078759",
	"count": 1,
	"start": 0,
	"results": [
		{
			"number": 78759,
			"data": "1,2,3,2,3,4,5,4,5,4,5,4,5,4,5,4,5,6,7,6,7,6,5,6,5,6,7,8,7,8,7,6,5,6,5,6,7,8,7,6,7,8,9,8,7,6,7,6,7,6,7,8,9,8,9,8,7,6,7,8,9,8,9,8,9,8,9,8,7,8,9,10,9,10,9,8,7,8,7,8,9,10,9,10,9,10,9,8,9,10,11,10,11,10,9,8,9,8,9,10",
			"name": "Height of n-th term in A064389 (variation (4) of Recamán's sequence).",
			"link": [
				"Nick Hobson, \u003ca href=\"/A078759/b078759.txt\"\u003eTable of n, a(n) for n=1..10000\u003c/a\u003e",
				"Nick Hobson, \u003ca href=\"/A078759/a078759.py.txt\"\u003ePython program for this sequence\u003c/a\u003e"
			],
			"formula": [
				"The height of a term in A064389 = number of addition steps - number of subtraction steps to produce it."
			],
			"xref": [
				"Cf. A005132, A064289, A064389."
			],
			"keyword": "nonn",
			"offset": "1,2",
			"author": "Reiner Martin (reinermartin(AT)hotmail.com), Jan 08 2003",
			"references": 2,
			"revision": 7,
			"time": "2014-04-04T01:48:07-04:00",
			"created": "2003-05-16T03:00:00-04:00"
		}
	]
}