{
	"greeting": "Greetings from The On-Line Encyclopedia of Integer Sequences! http://oeis.org/",
	"query": "id:A078520",
	"count": 1,
	"start": 0,
	"results": [
		{
			"number": 78520,
			"data": "217519,673865,1705575,8282543,4479031,16281009,15365639",
			"name": "Consider primitive solutions (x,y,z) to x^4+y^4+z^4=w^4 with 0\u003cx\u003c=y\u003c=z arranged in order of increasing w; sequence gives z values.",
			"reference": [
				"See A003828 for references and links."
			],
			"xref": [
				"Cf. A003828, A078518, A078519."
			],
			"keyword": "nonn",
			"offset": "1,1",
			"author": "_N. J. A. Sloane_, Jan 07 2003",
			"references": 3,
			"revision": 3,
			"time": "2012-03-30T16:49:36-04:00",
			"created": "2003-05-16T03:00:00-04:00"
		}
	]
}