{
	"greeting": "Greetings from The On-Line Encyclopedia of Integer Sequences! http://oeis.org/",
	"query": "id:A078201",
	"count": 1,
	"start": 0,
	"results": [
		{
			"number": 78201,
			"data": "2,3,17,5,59604644783353249,7,4318114567396436564035293097707729426477458833,205688069665150755269371147819668813122841983204711281293004769,593,11",
			"name": "Smallest prime of the form n^k + k^n, or 0 if no such prime exists.",
			"comment": [
				"If p is a prime then a(p-1) = p, with k = 1.",
				"a(11) has 3229 digits and is too long to include. See A243147 for k-values. - _Derek Orr_, Aug 10 2014"
			],
			"link": [
				"R. J. Cano (updated by Derek Orr), \u003ca href=\"/A078201/a078201.txt\"\u003eAdditional Information\u003c/a\u003e"
			],
			"example": [
				"a(3) = 3^2 + 2^3 = 17.",
				"a(4) = 4^1 + 1^4 = 5."
			],
			"program": [
				"See \"Additional Information\" in links.",
				"(PARI)",
				"a(n)=k=1;while(!ispseudoprime(n^k+k^n),k++);return(n^k+k^n)",
				"vector(10,n,a(n)) \\\\ _Derek Orr_, Aug 10 2014"
			],
			"keyword": "hard,nonn",
			"offset": "1,1",
			"author": "_Amarnath Murthy_, Nov 21 2002",
			"ext": [
				"Extended and updated by _Derek Orr_, Aug 10 2014"
			],
			"references": 3,
			"revision": 15,
			"time": "2014-08-11T23:35:30-04:00",
			"created": "2003-05-16T03:00:00-04:00"
		}
	]
}