{
	"greeting": "Greetings from The On-Line Encyclopedia of Integer Sequences! http://oeis.org/",
	"query": "id:A078084",
	"count": 1,
	"start": 0,
	"results": [
		{
			"number": 78084,
			"data": "0,1,40,2,1,3,211,1,4,14,3,1,2,1,2,1,1,3,1,1,2,1,12,1,1,1,1,1,1,3,1,1,1,3,33,1,1,4,1,3,20,2,1,3,3,7,1,2,1,1,7296,3,1,1,2,3,2,1,2,5,1,2,1,1,1,1,2,1,2,7,1,1,11,2,1,1,252,1,1,88,2,2,1,70,1,1,4,1,3,1,1,14",
			"name": "Continued fraction expansion of Product_{p prime} (1 - 1/(p^4*(p+1))).",
			"program": [
				"(PARI) contfrac(prodeulerrat(1 - 1/(p^4*(p+1)))) \\\\ _Amiram Eldar_, Mar 13 2021"
			],
			"xref": [
				"Cf. A065467."
			],
			"keyword": "nonn,cofr",
			"offset": "1,3",
			"author": "_Benoit Cloitre_, Dec 02 2002",
			"references": 1,
			"revision": 7,
			"time": "2021-03-13T10:05:34-05:00",
			"created": "2003-05-16T03:00:00-04:00"
		}
	]
}