{
	"greeting": "Greetings from The On-Line Encyclopedia of Integer Sequences! http://oeis.org/",
	"query": "id:A078285",
	"count": 1,
	"start": 0,
	"results": [
		{
			"number": 78285,
			"data": "10,12,10,14,110,104,102,114,115,116,124,111,123,129,141,106,118,122,134,142,146,158,166,178,194,1010,1030,1070,1090,1017,1016,1048,1096,1112,1043,1057,1099,1141,1002,1038,1074,1086,1146,1158,1182,1194,1055",
			"name": "Least nontrivial multiple of the n-th prime beginning with 1.",
			"link": [
				"Robert Israel, \u003ca href=\"/A078285/b078285.txt\"\u003eTable of n, a(n) for n = 1..10000\u003c/a\u003e"
			],
			"formula": [
				"a(n) = ceiling(10^d/prime(n))*prime(n) where prime(n) has d digits. - _Robert Israel_, Jul 21 2020"
			],
			"maple": [
				"g:= proc(n) ceil(10^(ilog10(n)+1)/n)*n end proc:",
				"seq(g(ithprime(n)),n=1..100); # _Robert Israel_, Jul 21 2020"
			],
			"mathematica": [
				"f[n_] := Block[{k = 2, m = n}, While[ IntegerDigits[k*m][[1]] != 1, k++ ]; k*m]; Table[ f[ Prime[n]], {n, 1, 55}]"
			],
			"xref": [
				"Cf. A078286, A078287, A078288, A078289, A078290, A078291, A078292, A078293."
			],
			"keyword": "base,easy,nonn,look",
			"offset": "1,1",
			"author": "_Amarnath Murthy_, Nov 26 2002",
			"ext": [
				"Edited, corrected and extended by _Robert G. Wilson v_, Nov 29 2002"
			],
			"references": 9,
			"revision": 17,
			"time": "2021-10-22T15:30:31-04:00",
			"created": "2003-05-16T03:00:00-04:00"
		}
	]
}