{
	"greeting": "Greetings from The On-Line Encyclopedia of Integer Sequences! http://oeis.org/",
	"query": "id:A078036",
	"count": 1,
	"start": 0,
	"results": [
		{
			"number": 78036,
			"data": "1,-1,-2,1,5,0,-11,-5,22,21,-39,-64,57,167,-50,-391,-67,832,525,-1597,-1882,2669,5361,-3456,-13391,1551,30238,10289,-62027,-50816,113765,163659,-176714,-441083,189769,1058880,61545,-2307529,-1181970,4553513,4671469,-7925056,-13896451,11178643",
			"name": "Expansion of (1-x)/(1+2*x^2+x^3).",
			"link": [
				"Harvey P. Dale, \u003ca href=\"/A078036/b078036.txt\"\u003eTable of n, a(n) for n = 0..1000\u003c/a\u003e",
				"\u003ca href=\"/index/Rec#order_03\"\u003eIndex entries for linear recurrences with constant coefficients\u003c/a\u003e, signature (0, -2, -1)."
			],
			"formula": [
				"a(0)=1, a(1)=-1, a(2)=-2, a(n)=-2*a(n-2)-a(n-3). - _Harvey P. Dale_, Dec 18 2012"
			],
			"mathematica": [
				"CoefficientList[Series[(1-x)/(1+2x^2+x^3),{x,0,50}],x] (* or *) LinearRecurrence[{0,-2,-1},{1,-1,-2},50] (* _Harvey P. Dale_, Dec 18 2012 *)"
			],
			"keyword": "sign",
			"offset": "0,3",
			"author": "_N. J. A. Sloane_, Nov 17 2002",
			"references": 1,
			"revision": 9,
			"time": "2015-07-31T12:19:38-04:00",
			"created": "2003-05-16T03:00:00-04:00"
		}
	]
}