{
	"greeting": "Greetings from The On-Line Encyclopedia of Integer Sequences! http://oeis.org/",
	"query": "id:A078554",
	"count": 1,
	"start": 0,
	"results": [
		{
			"number": 78554,
			"data": "11,61,151,521,61,191,41,4561,521,13421,151,2411,191,521,1801,101,4561,2251,521,191,13421,211,61,1741,2411,1181,191,401,521,21821,331,13421,101,521,4561,1824841,2251,2411,521,4111,191,3341101,13421,4561,211",
			"name": "Largest prime dividing sigma(5,n).",
			"link": [
				"Amiram Eldar, \u003ca href=\"/A078554/b078554.txt\"\u003eTable of n, a(n) for n = 2..10000\u003c/a\u003e"
			],
			"formula": [
				"a(n) = A006530(A001160(n))."
			],
			"example": [
				"Observe nontrivial frequent occurrence of several primes like 61,191,521,4561, etc."
			],
			"mathematica": [
				"gpf[n_] := FactorInteger[n][[-1, 1]]; a[n_] := gpf[DivisorSigma[5, n]]; Array[a, 50, 2] (* _Amiram Eldar_, Aug 01 2019 *)"
			],
			"xref": [
				"Cf. A006530, A001157-A001160, A071190."
			],
			"keyword": "nonn",
			"offset": "2,1",
			"author": "_Labos Elemer_, Dec 05 2002",
			"references": 1,
			"revision": 10,
			"time": "2019-08-01T11:32:48-04:00",
			"created": "2003-05-16T03:00:00-04:00"
		}
	]
}