{
	"greeting": "Greetings from The On-Line Encyclopedia of Integer Sequences! http://oeis.org/",
	"query": "id:A078507",
	"count": 1,
	"start": 0,
	"results": [
		{
			"number": 78507,
			"data": "0,4,5,9,12,17,21,29,32,39,49,52,58,73,76,88,92,109,117,125,140,151,159",
			"name": "Duplicate of A060199.",
			"keyword": "dead",
			"offset": "0,2",
			"references": 0,
			"revision": 4,
			"time": "2009-02-27T03:00:00-05:00",
			"created": "2003-05-16T03:00:00-04:00"
		}
	]
}