{
	"greeting": "Greetings from The On-Line Encyclopedia of Integer Sequences! http://oeis.org/",
	"query": "id:A079534",
	"count": 1,
	"start": 0,
	"results": [
		{
			"number": 79534,
			"data": "0,1,1,2,0,4,2,4,2,8,2,10,4,6,6,13,3,15,5,9,7,19,5,17,9,15,9,25,4,26,12,16,12,20,8,32,14,20,12,36,8,38,15,19,17,41,11,37,15,27,19,47,13,35,19,31,23,52,10,54,24,30,26,42,14,60,26,38,18,64,18,66,30,33,29,53,17,71,25",
			"name": "a(n) = phi(n) - ceiling( (log 2 / 2) * (n / log n) ).",
			"comment": [
				"It is known that a(n) \u003e= 0."
			],
			"reference": [
				"D. S. Mitrinovic et al., Handbook of Number Theory, Kluwer, p. 9."
			],
			"link": [
				"G. C. Greubel, \u003ca href=\"/A079534/b079534.txt\"\u003eTable of n, a(n) for n = 2..10000\u003c/a\u003e"
			],
			"mathematica": [
				"Table[EulerPhi[n] - Ceiling[n*Log[2.]/(2*Log[n])], {n, 2, 80}] (* _G. C. Greubel_, Jan 14 2019 *)"
			],
			"program": [
				"(PARI) vector(80, n, n++; eulerphi(n) - ceil(n*log(2.)/(2*log(n)))) \\\\ _G. C. Greubel_, Jan 14 2019",
				"(MAGMA) [EulerPhi(n) - Ceiling(n*Log(2.)/(2*Log(n))): n in [2..80]]; // _G. C. Greubel_, Jan 14 2019",
				"(Sage) [euler_phi(n) - ceil(n*log(2.)/(2*log(n))) for n in (2..80)] # _G. C. Greubel_, Jan 14 2019"
			],
			"xref": [
				"Cf. A000010, A079530, A079531, A079532, A079533."
			],
			"keyword": "nonn",
			"offset": "2,4",
			"author": "_N. J. A. Sloane_, Jan 23 2003",
			"references": 5,
			"revision": 7,
			"time": "2019-01-15T02:50:47-05:00",
			"created": "2003-05-16T03:00:00-04:00"
		}
	]
}