{
	"greeting": "Greetings from The On-Line Encyclopedia of Integer Sequences! http://oeis.org/",
	"query": "id:A079251",
	"count": 1,
	"start": 0,
	"results": [
		{
			"number": 79251,
			"data": "2,3,5,10,12,14,22,24,26,28,30,32,46,48,50,52,54,56,58,60,62,64,66,68,94,96,98,100,102,104,106,108,110,112,114,116,118,120,122,124,126,128,130,132,134,136,138,140,190,192,194,196,198,200,202,204",
			"name": "Complement of A079000.",
			"link": [
				"Alois P. Heinz, \u003ca href=\"/A079251/b079251.txt\"\u003eTable of n, a(n) for n = 1..20000\u003c/a\u003e",
				"B. Cloitre, N. J. A. Sloane and M. J. Vandermast, \u003ca href=\"http://www.cs.uwaterloo.ca/journals/JIS/VOL6/Cloitre/cloitre2.html\"\u003eNumerical analogues of Aronson's sequence\u003c/a\u003e, J. Integer Seqs., Vol. 6 (2003), #03.2.2.",
				"B. Cloitre, N. J. A. Sloane and M. J. Vandermast, \u003ca href=\"https://arxiv.org/abs/math/0305308\"\u003eNumerical analogues of Aronson's sequence\u003c/a\u003e, arXiv:math/0305308 [math.NT], 2003.",
				"Ralf Stephan, \u003ca href=\"/somedcgf.html\"\u003eSome divide-and-conquer sequences ...\u003c/a\u003e",
				"Ralf Stephan, \u003ca href=\"/A079944/a079944.ps\"\u003eTable of generating functions\u003c/a\u003e"
			],
			"formula": [
				"a(n)=b(n-1)+2, with b(0)=0, b(2n)=2b(n)+1+3[n\u003e1], b(2n+1)=2b(n)+1+5[n\u003e0]. - _Ralf Stephan_, Oct 07 2003"
			],
			"mathematica": [
				"nmax = 150; b[1] = 1; b[n_] := Module[{k, j}, k = Floor[Log[2, (n+3)/6]]; j = n - 9*2^k + 3; 12*2^k - 3 + 3j/2 + Abs[j]/2];",
				"Complement[Range[b[nmax]], Array[b, nmax]] (* _Jean-François Alcover_, Nov 28 2018 *)"
			],
			"program": [
				"(PARI) a(n)=if(n\u003c3,if(n\u003c2,2,3),3*2^floor(log(2/3*(n-1))/log(2))+2*n-4) /* _Ralf Stephan_ */"
			],
			"keyword": "nonn",
			"offset": "1,1",
			"author": "_N. J. A. Sloane_, Feb 04 2003",
			"references": 1,
			"revision": 21,
			"time": "2018-11-28T07:59:42-05:00",
			"created": "2003-05-16T03:00:00-04:00"
		}
	]
}