{
	"greeting": "Greetings from The On-Line Encyclopedia of Integer Sequences! http://oeis.org/",
	"query": "id:A079448",
	"count": 1,
	"start": 0,
	"results": [
		{
			"number": 79448,
			"data": "3,5,11,13,23,31,37,59,61,71,73,79,83,103,107,131,139,151,157,167,191,193,227,239,263,269,277,307,311,313,347,379,397,421,431,443,449,457,479,487,491,499,541,563,571,587,593,613,619,631,643,661,673,701,719",
			"name": "Primes p such that there is at least one integer x satisfying p=x*tau(x)-1 where tau(x)=A000005(x), the number of divisors of x.",
			"example": [
				"6*tau(6)=24 hence 23 is in the sequence."
			],
			"program": [
				"(PARI) lista(nn) = {forprime(p=2, nn, for (n=1, p, if (n*numdiv(n)-1 == p, print1(p, \", \"); break;);););} \\\\ _Michel Marcus_, Dec 01 2013"
			],
			"xref": [
				"Cf. A079449."
			],
			"keyword": "nonn",
			"offset": "1,1",
			"author": "_Benoit Cloitre_, Jan 13 2003",
			"references": 1,
			"revision": 9,
			"time": "2013-12-01T08:27:09-05:00",
			"created": "2003-05-16T03:00:00-04:00"
		}
	]
}