{
	"greeting": "Greetings from The On-Line Encyclopedia of Integer Sequences! http://oeis.org/",
	"query": "id:A079155",
	"count": 1,
	"start": 0,
	"results": [
		{
			"number": 79155,
			"data": "4,15,85,619,4800,39266,332276,2880818,25423985,227527467",
			"name": "The number of primes less than 10^n whose digital root (A038194) is also prime.",
			"example": [
				"a(2) = 15 because the only primes less than 100 whose have digital roots are also prime are {2,3,5,7,11,23,29,41,43,47,59,61,79,83,97}."
			],
			"mathematica": [
				"c = 0; k = 1; Do[ While[ k \u003c 10^n, If[ PrimeQ[k] \u0026\u0026 PrimeQ[ Mod[k, 9]], c++ ]; k++ ]; Print[c], {n, 1, 8}]"
			],
			"program": [
				"(Python)",
				"# use primerange (slower) vs. sieve.primerange (\u003e\u003e memory) for larger terms",
				"from sympy import isprime, sieve",
				"def afind(terms):",
				"  s = 0",
				"  for n in range(1, terms+1):",
				"    s += sum(isprime(p%9) for p in sieve.primerange(10**(n-1), 10**n))",
				"    print(s, end=\", \")",
				"afind(7) # _Michael S. Branicky_, Apr 15 2021"
			],
			"xref": [
				"The primes are in A078403, their digital roots are in A078400."
			],
			"keyword": "base,nonn",
			"offset": "1,1",
			"author": "_Robert G. Wilson v_, Dec 27 2002",
			"ext": [
				"a(9)-a(10) from _Michael S. Branicky_, Apr 15 2021"
			],
			"references": 0,
			"revision": 6,
			"time": "2021-04-15T23:04:08-04:00",
			"created": "2003-05-16T03:00:00-04:00"
		}
	]
}