{
	"greeting": "Greetings from The On-Line Encyclopedia of Integer Sequences! http://oeis.org/",
	"query": "id:A079575",
	"count": 1,
	"start": 0,
	"results": [
		{
			"number": 79575,
			"data": "1,1,2,6,20,93,480,2960,19475,140851,1116717,10329833,121557264",
			"name": "Number of unlabeled, connected graphs on n vertices with no induced subgraph isomorphic to a bull-graph.",
			"comment": [
				"A bull-graph is formed by adding a 5th vertex to a 4-path adjacent only to the middle two vertices on the path."
			],
			"link": [
				"C. De Simone and A. Sassano, \u003ca href=\"https://doi.org/10.1016/0166-218X(93)90032-J\"\u003eStability number of bull- and chair-free graphs\u003c/a\u003e, Discrete Appl. Math. 41 (1993) 121-129.",
				"Travis Hoppe and Anna Petrone, \u003ca href=\"https://github.com/thoppe/Encyclopedia-of-Finite-Graphs\"\u003eEncyclopedia of Finite Graphs\u003c/a\u003e",
				"Falk Hüffner, \u003ca href=\"https://github.com/falk-hueffner/tinygraph\"\u003etinygraph\u003c/a\u003e, software for generating integer sequences based on graph properties, version ece94ef.",
				"Eric Weisstein's World of Mathematics, \u003ca href=\"http://mathworld.wolfram.com/BullGraph.html\"\u003eBull Graph\u003c/a\u003e"
			],
			"xref": [
				"Cf. A244427 (no bull subgraph)."
			],
			"keyword": "nonn,more",
			"offset": "1,3",
			"author": "_Jim Nastos_, Jan 24 2003",
			"ext": [
				"a(10)-a(13) added using tinygraph by _Falk Hüffner_, Jan 15 2016"
			],
			"references": 2,
			"revision": 21,
			"time": "2020-03-03T10:27:24-05:00",
			"created": "2003-05-16T03:00:00-04:00"
		}
	]
}