{
	"greeting": "Greetings from The On-Line Encyclopedia of Integer Sequences! http://oeis.org/",
	"query": "id:A079081",
	"count": 1,
	"start": 0,
	"results": [
		{
			"number": 79081,
			"data": "3,3,1,4,7,21,5,20,45,4,76,133,11,88,162,405,31,527,204,37,185,280,945,735,833,13,468,55,1045,76,704,2277,35,875,19,1501,3239,1148,1827,3915,91,728,97,3201,25,1060,848,2128,115,4485,1755,121,2541,8127,4257,4455",
			"name": "Numerator of (prime(n)+1)*(prime(n+1)+1)/(4*(prime(n)*prime(n+1)+1).",
			"comment": [
				"a(n) = numerator of A079079(n)/A023523(n+1);",
				"a(n) = A079079(n)/A079080(n)."
			],
			"link": [
				"Reinhard Zumkeller, \u003ca href=\"/A079081/b079081.txt\"\u003eTable of n, a(n) for n = 1..10000\u003c/a\u003e"
			],
			"program": [
				"(Haskell)",
				"a079081 n = a079081_list !! (n-1)",
				"a079081_list = zipWith div a079079_list a079080_list",
				"-- _Reinhard Zumkeller_, Oct 09 2012"
			],
			"xref": [
				"Denominator = A079082."
			],
			"keyword": "nonn,frac",
			"offset": "1,1",
			"author": "_Reinhard Zumkeller_, Dec 22 2002",
			"references": 4,
			"revision": 8,
			"time": "2013-07-13T12:02:54-04:00",
			"created": "2003-05-16T03:00:00-04:00"
		}
	]
}