{
	"greeting": "Greetings from The On-Line Encyclopedia of Integer Sequences! http://oeis.org/",
	"query": "id:A079941",
	"count": 1,
	"start": 0,
	"results": [
		{
			"number": 79941,
			"data": "1,3,6,13,26,39,277,642,2291,4582,6231,16402,26573,36744,63317,73488,110232,414355,828710",
			"name": "Greedy frac multiples of log(2): a(1)=1, sum(n\u003e0,frac(a(n)*x))=1 at x=log(2).",
			"comment": [
				"The n-th greedy frac multiple of x is the smallest integer that does not cause sum(k=1..n,frac(a(k)*x)) to exceed unity; an infinite number of terms appear as the denominators of the convergents to the continued fraction of x."
			],
			"example": [
				"a(4) = 13 since frac(1x) + frac(3x) + frac(6x) + frac(13x) \u003c 1, while frac(1x) + frac(3x) + frac(6x) + frac(k*x) \u003e 1 for all k\u003e6 and k\u003c13."
			],
			"xref": [
				"Cf. A079943 (denominators of convergents to ln2), A079934, A079939, A079940."
			],
			"keyword": "nonn",
			"offset": "1,2",
			"author": "_Benoit Cloitre_ and _Paul D. Hanna_, Jan 21 2003",
			"ext": [
				"More terms from Mark Hudson (mrmarkhudson(AT)hotmail.com), Jan 29 2003"
			],
			"references": 6,
			"revision": 10,
			"time": "2013-09-02T03:10:55-04:00",
			"created": "2003-05-16T03:00:00-04:00"
		}
	]
}