{
	"greeting": "Greetings from The On-Line Encyclopedia of Integer Sequences! http://oeis.org/",
	"query": "id:A079595",
	"count": 1,
	"start": 0,
	"results": [
		{
			"number": 79595,
			"data": "31,714169,2516309,4483363,47127727,145996069,583363661,1028282141,1637687383,1984271941,3680735213,4484951059,5187593417,8601029209,19614906869,23431992781,33458412373,40695658637,41234578433",
			"name": "Primes of the form floor(x^Pi) where x is prime.",
			"example": [
				"The smallest prime x for which floor(x^Pi) is prime, is 3, for which floor(3^Pi)=31, which is prime, so a(1)=31. The next smallest is 73, for which floor(73^Pi)=714169, so a(2)=714169."
			],
			"mathematica": [
				"For[i = 1, i \u003c 10000, If[PrimeQ[IntegerPart[Prime[i]^Pi]] == True, Print[IntegerPart[Prime[i]^Pi]]]; i++ ]",
				"Select[Floor[Prime[Range[500]]^Pi],PrimeQ] (* _Harvey P. Dale_, Aug 02 2021 *)"
			],
			"xref": [
				"Cf. A074218."
			],
			"keyword": "nonn",
			"offset": "1,1",
			"author": "_Neil Fernandez_, Jan 27 2003",
			"references": 0,
			"revision": 10,
			"time": "2021-08-02T18:52:30-04:00",
			"created": "2003-05-16T03:00:00-04:00"
		}
	]
}