{
	"greeting": "Greetings from The On-Line Encyclopedia of Integer Sequences! http://oeis.org/",
	"query": "id:A079380",
	"count": 1,
	"start": 0,
	"results": [
		{
			"number": 79380,
			"data": "1,2,3,7,10,22,38,111,200,1193",
			"name": "Where records occur in A079378.",
			"comment": [
				"RECORDS transform of A079378."
			],
			"link": [
				"N. J. A. Sloane, \u003ca href=\"/transforms.txt\"\u003eTransforms\u003c/a\u003e"
			],
			"mathematica": [
				"A079378 = Cases[Import[\"https://oeis.org/A079378/b079378.txt\", \"Table\"], {_, _}][[All, 2]];",
				"a = {}; l = 0;",
				"For[i = 1, i \u003c= Length[A079378], i++,",
				"  If[A079378[[i]] \u003e l, l = A079378[[i]]; AppendTo[a, i]]];",
				"a (* _Robert Price_, Mar 14 2020 *)"
			],
			"xref": [
				"Cf. A079378, A079379, A079366-A079368."
			],
			"keyword": "nonn,more",
			"offset": "1,2",
			"author": "_N. J. A. Sloane_, Feb 16 2003",
			"ext": [
				"a(8)-a(10) from _Robert Price_, Mar 14 2020"
			],
			"references": 2,
			"revision": 8,
			"time": "2020-03-15T02:48:24-04:00",
			"created": "2003-05-16T03:00:00-04:00"
		}
	]
}