{
	"greeting": "Greetings from The On-Line Encyclopedia of Integer Sequences! http://oeis.org/",
	"query": "id:A079874",
	"count": 1,
	"start": 0,
	"results": [
		{
			"number": 79874,
			"data": "1,5,72,576,3166,13326,44256,119944,270531,511319,816752,1113504,1300852,1300852,1113504,816752,511319,270531,119944,44256,13326,3166,576,72,5,1",
			"name": "Number of configurations in the Classic Lights Out puzzle with n lights on.",
			"comment": [
				"A puzzle in the Rubik cube family. The total number of distinct configurations is 8388608."
			],
			"link": [
				"Jaap Scherphuis, \u003ca href=\"http://www.jaapsch.net/puzzles/\"\u003ePuzzle Pages\u003c/a\u003e"
			],
			"xref": [
				"Cf. A079873."
			],
			"keyword": "nonn,fini,full",
			"offset": "0,2",
			"author": "_N. J. A. Sloane_, Feb 21 2003",
			"references": 1,
			"revision": 5,
			"time": "2013-12-11T07:06:39-05:00",
			"created": "2003-05-16T03:00:00-04:00"
		}
	]
}