{
	"greeting": "Greetings from The On-Line Encyclopedia of Integer Sequences! http://oeis.org/",
	"query": "id:A079453",
	"count": 1,
	"start": 0,
	"results": [
		{
			"number": 79453,
			"data": "1,1,2,6,19,87,454,3006,23509,220102,2450511,32773345,532120179",
			"name": "Number of unlabeled and connected graphs on n vertices which are HH-free (\"house-hole-free\").",
			"comment": [
				"Also characterized as Weakly Chordal Meyniel graphs or P5-free Weakly Chordal graphs."
			],
			"reference": [
				"R. Hayward, Meyniel Weakly Triangulated Graphs I: Co-perfect orderability Discrete Applied Mathematics 73 (1997) 199-210"
			],
			"link": [
				"F. Hüffner, \u003ca href=\"https://github.com/falk-hueffner/tinygraph\"\u003etinygraph\u003c/a\u003e, software for generating integer sequences based on graph properties, version 5926e72."
			],
			"keyword": "more,nonn",
			"offset": "1,3",
			"author": "_Jim Nastos_, Jan 13 2003",
			"ext": [
				"Corrected by _Jim Nastos_, Jan 20 2003",
				"a(10)-a(13) added using tinygraph by _Falk Hüffner_, Jan 15 2016"
			],
			"references": 0,
			"revision": 7,
			"time": "2016-01-15T16:24:17-05:00",
			"created": "2003-05-16T03:00:00-04:00"
		}
	]
}