{
	"greeting": "Greetings from The On-Line Encyclopedia of Integer Sequences! http://oeis.org/",
	"query": "id:A079970",
	"count": 1,
	"start": 0,
	"results": [
		{
			"number": 79970,
			"data": "1,1,1,2,4,7,12,20,34,59,102,175,300,515,885,1521,2613,4488,7709,13243",
			"name": "Duplicate of A079816.",
			"keyword": "dead",
			"offset": "0,4",
			"references": 0,
			"revision": 3,
			"time": "2007-05-11T03:00:00-04:00",
			"created": "2003-05-16T03:00:00-04:00"
		}
	]
}