{
	"greeting": "Greetings from The On-Line Encyclopedia of Integer Sequences! http://oeis.org/",
	"query": "id:A079675",
	"count": 1,
	"start": 0,
	"results": [
		{
			"number": 79675,
			"data": "1,1,6,26,106,431,1757,7168,29244,119305,486716,1985603,8100456,33046585,134816705,549997641,2243767969,9153665985,37343255690,152345382480,621507555626,2535499503900,10343812679475,42198572937400",
			"name": "a(1)=1; a(n)=sum(u=1,n-1,sum(v=1,u,sum(w=1,v,sum(x=1, w,sum(y=1,x,a(y)))))).",
			"comment": [
				"Row sums of Riordan array (1,1/(1-x)^5). A quintisection of A003520. - _Paul Barry_, Feb 02 2006"
			],
			"link": [
				"Michael De Vlieger, \u003ca href=\"/A079675/b079675.txt\"\u003eTable of n, a(n) for n = 1..1639\u003c/a\u003e",
				"D. Birmajer, J. B. Gil, M. D. Weiner, \u003ca href=\"https://cs.uwaterloo.ca/journals/JIS/VOL19/Gil/gil6.html\"\u003en the Enumeration of Restricted Words over a Finite Alphabet\u003c/a\u003e, J. Int. Seq. 19 (2016) # 16.1.3 , example 16.",
				"Milan Janjić, \u003ca href=\"https://www.emis.de/journals/JIS/VOL21/Janjic2/janjic103.html\"\u003ePascal Matrices and Restricted Words\u003c/a\u003e, J. Int. Seq., Vol. 21 (2018), Article 18.5.2.",
				"\u003ca href=\"/index/Rec#order_05\"\u003eIndex entries for linear recurrences with constant coefficients\u003c/a\u003e, signature (6,-10,10,-5,1)."
			],
			"formula": [
				"a(1)=1, a(2)=1, a(3)=6, a(4)=26, a(5)=106, a(6)=431; for n\u003e=7, a(n)=5*u(n-1)-4*u(n-2)+u(n-3)+b(n) where b(n) is the 6 periodic sequence (0, 1, 1, 0, -1, -1)",
				"G.f.: (1-x)^5/((1-x)^5-x); a(n)=sum{k=0..n, binomial(5n-4k-1,k)}; - _Paul Barry_, Feb 02 2006"
			],
			"mathematica": [
				"LinearRecurrence[{6,-10,10,-5,1},{1,1,6,26,106,431},40] (* _Harvey P. Dale_, Aug 21 2017 *)"
			],
			"xref": [
				"Cf. A055991, A052529, A001906."
			],
			"keyword": "nonn,easy",
			"offset": "1,3",
			"author": "_Benoit Cloitre_, Jan 26 2003",
			"references": 2,
			"revision": 22,
			"time": "2019-08-04T10:40:15-04:00",
			"created": "2003-05-16T03:00:00-04:00"
		}
	]
}