{
	"greeting": "Greetings from The On-Line Encyclopedia of Integer Sequences! http://oeis.org/",
	"query": "id:A079968",
	"count": 1,
	"start": 0,
	"results": [
		{
			"number": 79968,
			"data": "1,1,2,4,7,14,27,51,98,187,357,683,1305,2494,4767,9110,17411,33276,63596,121544,232293,443954,848478,1621597,3099169,5923081,11320094,21634776,41348026,79023662,151028714,288643577,551650823,1054305916",
			"name": "Number of permutations satisfying -k\u003c=p(i)-i\u003c=r and p(i)-i not in I, i=1..n, with k=1, r=5, I={3}.",
			"comment": [
				"Number of compositions (ordered partitions) of n into elements of the set {1,2,3,5,6}."
			],
			"reference": [
				"D. H. Lehmer, Permutations with strongly restricted displacements. Combinatorial theory and its applications, II (Proc. Colloq., Balatonfured, 1969), pp. 755-770. North-Holland, Amsterdam, 1970."
			],
			"link": [
				"D. Applegate, M. LeBrun, N. J. A. Sloane, \u003ca href=\"https://cs.uwaterloo.ca/journals/JIS/VOL14/Sloane/carry2.html\"\u003eDismal Arithmetic\u003c/a\u003e, J. Int. Seq. 14 (2011) # 11.9.8.",
				"Vladimir Baltic, \u003ca href=\"http://pefmath.etf.rs/vol4num1/AADM-Vol4-No1-119-135.pdf\"\u003eOn the number of certain types of strongly restricted permutations\u003c/a\u003e, Applicable Analysis and Discrete Mathematics Vol. 4, No 1 (2010), 119-135",
				"\u003ca href=\"/index/Rec\"\u003eIndex entries for linear recurrences with constant coefficients\u003c/a\u003e, signature (1,1,1,0,1,1)."
			],
			"formula": [
				"a(n) = a(n-1)+a(n-2)+a(n-3)+a(n-5)+a(n-6) G.f.: -1/(x^6+x^5+x^3+x^2+x-1)"
			],
			"mathematica": [
				"LinearRecurrence[{1,1,1,0,1,1},{1,1,2,4,7,14},40] (* _Harvey P. Dale_, Jun 05 2013 *)"
			],
			"xref": [
				"Cf. A002524-A002529, A072827, A072850-A072856, A079955-A080014."
			],
			"keyword": "nonn,easy",
			"offset": "0,3",
			"author": "_Vladimir Baltic_, Feb 19 2003",
			"references": 1,
			"revision": 17,
			"time": "2017-09-14T15:26:27-04:00",
			"created": "2003-05-16T03:00:00-04:00"
		}
	]
}