{
	"greeting": "Greetings from The On-Line Encyclopedia of Integer Sequences! http://oeis.org/",
	"query": "id:A079875",
	"count": 1,
	"start": 0,
	"results": [
		{
			"number": 79875,
			"data": "1,25,325,2900,19850,110630,520948,2125078,7644164,24561916,71147752,186876765,446015084,964537892,1872111656,3203446007,4709112417,5767439109,5710406148,4433675458,2590026921,1073252214,279734731,36143633,2147985",
			"name": "Number of positions that are exactly n moves from the starting position in the Lights Out 2000 puzzle.",
			"comment": [
				"This is the number of positions that can be reached in n moves from the start, but which cannot be reached in fewer than n moves.",
				"A puzzle in the Rubik cube family. The total number of distinct positions is 31381059609."
			],
			"link": [
				"Jaap Scherphuis, \u003ca href=\"http://www.jaapsch.net/puzzles/\"\u003ePuzzle Pages\u003c/a\u003e"
			],
			"program": [
				"(Python) # alst(), moves() in A079873",
				"shape, states = (5, 5), 3  # 5x5 with off-red-green states",
				"start = tuple([0 for i in range(shape[0]*shape[1])])",
				"print(alst(start, shape, states, v=True)) # _Michael S. Branicky_, Jan 25 2021"
			],
			"keyword": "nonn,fini,full",
			"offset": "0,2",
			"author": "_N. J. A. Sloane_, Feb 21 2003",
			"references": 0,
			"revision": 8,
			"time": "2021-01-25T20:33:40-05:00",
			"created": "2003-05-16T03:00:00-04:00"
		}
	]
}