{
	"greeting": "Greetings from The On-Line Encyclopedia of Integer Sequences! http://oeis.org/",
	"query": "id:A079714",
	"count": 1,
	"start": 0,
	"results": [
		{
			"number": 79714,
			"data": "0,0,1,0,1,1,1,0,1,1,1,0,0,3,2,0,3,1,2,2,3,1,2,2,2,1,2,1,0,0,4,7,3,1,4,3,3,3,7,4,5,4,3,4,4,4,8,6,6,10,3,10,3,6,9,6,1,9,10,6,9,10,13,8,6,11,8,8,8,14,7,8,10,8,14,9,12,10,16,8,12,9,5,9,12,14,17,16,12,9,10,8,8,17,11,19,7,13,16,19,19,14",
			"name": "Number of 2's in n!.",
			"link": [
				"Alois P. Heinz, \u003ca href=\"/A079714/b079714.txt\"\u003eTable of n, a(n) for n = 0..10000\u003c/a\u003e",
				"\u003ca href=\"/index/Fa#factorial\"\u003eIndex entries for sequences related to factorial numbers\u003c/a\u003e."
			],
			"formula": [
				"a(n) = A034886(n) - (A027869(n) + A079680(n) + A079684(n) + A079688(n) + A079690(n) + A079691(n) + A079692(n) + A079693(n) + A079694(n)). - _Reinhard Zumkeller_, Jan 27 2008"
			],
			"maple": [
				"a:= n-\u003e numboccur(2, convert(n!, base, 10)):",
				"seq(a(n), n=0..101);  # _Alois P. Heinz_, Apr 26 2021"
			],
			"mathematica": [
				"Table[DigitCount[n!,10,2],{n,0,110}] (* _Harvey P. Dale_, Jun 20 2021 *)"
			],
			"program": [
				"(PARI) a(n) = #select(x-\u003e(x==2), digits(n!)); \\\\ _Michel Marcus_, Apr 26 2021"
			],
			"xref": [
				"Cf. A000142, A137579, A137580.",
				"Cf. A316863."
			],
			"keyword": "nonn,base,easy",
			"offset": "0,14",
			"author": "_Cino Hilliard_, Jan 31 2003",
			"ext": [
				"a(36) ff. corrected by _Georg Fischer_, Apr 26 2021"
			],
			"references": 14,
			"revision": 23,
			"time": "2021-06-20T18:24:04-04:00",
			"created": "2003-05-16T03:00:00-04:00"
		}
	]
}