{
	"greeting": "Greetings from The On-Line Encyclopedia of Integer Sequences! http://oeis.org/",
	"query": "id:A080547",
	"count": 1,
	"start": 0,
	"results": [
		{
			"number": 80547,
			"data": "1,1,2,5,7,12,16,24,29,33,30,27,19,11,4,2,1",
			"name": "Number of positions that are exactly n moves from the starting position in the Luminations Level 1 puzzle.",
			"comment": [
				"This is the number of positions that can be reached in n moves from the start, but which cannot be reached in fewer than n moves.",
				"A puzzle in the Rubik cube family. The total number of distinct positions is 225. Here positions differing by rotations are considered the same."
			],
			"link": [
				"Jaap Scherphuis, \u003ca href=\"http://www.jaapsch.net/puzzles/\"\u003ePuzzle Pages\u003c/a\u003e"
			],
			"xref": [
				"Cf. A080546-A080558."
			],
			"keyword": "nonn,fini,full",
			"offset": "0,3",
			"author": "_N. J. A. Sloane_, Feb 21 2003",
			"references": 1,
			"revision": 5,
			"time": "2013-12-11T07:07:02-05:00",
			"created": "2003-05-16T03:00:00-04:00"
		}
	]
}