{
	"greeting": "Greetings from The On-Line Encyclopedia of Integer Sequences! http://oeis.org/",
	"query": "id:A080415",
	"count": 1,
	"start": 0,
	"results": [
		{
			"number": 80415,
			"data": "1,3,5,8,11,15,21,27,34,41,49,58,69,80,92,105,119,133,148,164,181,200,219,239,260,282,305,329,355,381,408,436,465,495,526,557,589,622,656,691,727,764,802,841,881,922,964,1007,1051,1096,1142,1189,1237,1287",
			"name": "a(n) is the number of distinct substrings in the initial string of length n of the repetition-resistant sequence A079101.",
			"comment": [
				"Jointly submitted by C. Kimberling and Alejandro Dau, ad1n(AT)dc.uba.ar."
			],
			"example": [
				"a(4) counts the following 8 strings in the initial segment, 0100, of A079101: 0, 1, 00, 01, 10, 010, 100, 0100."
			],
			"xref": [
				"Cf. A079101, A038219."
			],
			"keyword": "nonn",
			"offset": "1,2",
			"author": "_Clark Kimberling_, Feb 17 2003",
			"references": 3,
			"revision": 3,
			"time": "2012-03-30T18:57:05-04:00",
			"created": "2003-05-16T03:00:00-04:00"
		}
	]
}