{
	"greeting": "Greetings from The On-Line Encyclopedia of Integer Sequences! http://oeis.org/",
	"query": "id:A080532",
	"count": 1,
	"start": 0,
	"results": [
		{
			"number": 80532,
			"data": "209,209,209,213,217,221,225,225,229,233,233,237,237,241,245,249,253,257,261,265,269,273",
			"name": "Number of nucleons in longest known radioactive decay series ending with Lead 209, reversed.",
			"comment": [
				"The numbers are all == 1 mod 4. The sequence was submitted reversed, as it is open in the past. It is unknown if reversed decay series are finite (the \"island of stability\" hypothesis)."
			],
			"link": [
				"C. Heilman, \u003ca href=\"http://chemlab.pc.maricopa.edu/periodic/periodic.html\"\u003eThe Pictorial Periodic Table\u003c/a\u003e"
			],
			"formula": [
				"a(n)=A080536(n)+A080540(n)."
			],
			"xref": [
				"Cf. A080529, A080530, A080531."
			],
			"keyword": "nonn,hard",
			"offset": "0,1",
			"author": "_Ralf Stephan_, Feb 20 2003",
			"references": 5,
			"revision": 3,
			"time": "2012-03-30T18:41:15-04:00",
			"created": "2003-05-16T03:00:00-04:00"
		}
	]
}