{
	"greeting": "Greetings from The On-Line Encyclopedia of Integer Sequences! http://oeis.org/",
	"query": "id:A080255",
	"count": 1,
	"start": 0,
	"results": [
		{
			"number": 80255,
			"data": "6,10,15,21,22,24,26,33,35,38,40,42,51,54,57,58,60,65,66,69,70,74,77,78,84,85,86,87,88,90,91,93,96,102,104,105,106,110,114,115,118,119,122,123,129,132,133,134,135,140,141,143,150,152,159,160,161,165,166,168,170",
			"name": "Antisquares: of the form a*p^k where p is prime, k is odd and a is nonsquare modulo p.",
			"link": [
				"Eric Weisstein's World of Mathematics, \u003ca href=\"http://mathworld.wolfram.com/AntisquareNumber.html\"\u003eAntisquare Number.\u003c/a\u003e"
			],
			"example": [
				"135 = 5*3^3 is antisquare."
			],
			"keyword": "nonn",
			"offset": "1,1",
			"author": "_David W. Wilson_, Feb 10 2003",
			"references": 1,
			"revision": 8,
			"time": "2013-01-11T17:42:39-05:00",
			"created": "2003-05-16T03:00:00-04:00"
		}
	]
}