{
	"greeting": "Greetings from The On-Line Encyclopedia of Integer Sequences! http://oeis.org/",
	"query": "id:A080400",
	"count": 1,
	"start": 0,
	"results": [
		{
			"number": 80400,
			"data": "1,1,2,2,2,2,6,2,6,2,10,2,6,6,2,2,2,6,6,2,6,10,22,2,10,6,6,6,14,2,30,2,10,2,6,6,6,6,6,2,10,6,42,10,6,22,46,2,42,10,2,6,26,6,10,6,6,14,58,2,30,30,6,2,6,10,66,2,22,6,70,6,6,6,10,6,30,6,78,2,6,10,82,6,2,42,14,10,22",
			"name": "Largest squarefree number dividing phi of n.",
			"comment": [
				"Also largest squarefree number dividing Carmichael's lambda, A002322(n). - _Antti Karttunen_, Jul 17 2017"
			],
			"link": [
				"Antti Karttunen, \u003ca href=\"/A080400/b080400.txt\"\u003eTable of n, a(n) for n = 1..16384\u003c/a\u003e"
			],
			"formula": [
				"a(n) = A007947(A000010(n)).",
				"a(m * n) = A007947(a(m) * a(n)) if gcd(m, n) = 1. - _David A. Corneth_, Jul 16 2017",
				"a(n) = A007947(A002322(n)). - _Antti Karttunen_, Jul 17 2017"
			],
			"mathematica": [
				"Table[Max[Select[Divisors[EulerPhi[n]],SquareFreeQ]],{n,90}] (* _Harvey P. Dale_, Jul 05 2012 *)"
			],
			"program": [
				"(PARI) A080400(n) = factorback(factorint(eulerphi(n))[, 1]); \\\\ _Antti Karttunen_ \u0026 _David A. Corneth_, Jul 16 2017"
			],
			"xref": [
				"Cf. A000010, A002322, A007947, A034380, A289624."
			],
			"keyword": "nonn",
			"offset": "1,3",
			"author": "_Labos Elemer_, Mar 19 2003",
			"references": 6,
			"revision": 38,
			"time": "2020-03-26T15:00:04-04:00",
			"created": "2003-05-16T03:00:00-04:00"
		}
	]
}