{
	"greeting": "Greetings from The On-Line Encyclopedia of Integer Sequences! http://oeis.org/",
	"query": "id:A080522",
	"count": 1,
	"start": 0,
	"results": [
		{
			"number": 80522,
			"data": "1,3,5,10,22,49,107,228,476,979,1993,4030,8114,16293,32663,65416,130936,261991,524117,1048386,2096942,4194073,8388355,16776940,33554132,67108539,134217377,268435078,536870506,1073741389,2147483183",
			"name": "Leading diagonal of triangle in A080521.",
			"link": [
				"Vincenzo Librandi, \u003ca href=\"/A080522/b080522.txt\"\u003eTable of n, a(n) for n = 1..1000\u003c/a\u003e",
				"\u003ca href=\"/index/Rec\"\u003eIndex entries for linear recurrences with constant coefficients\u003c/a\u003e, signature (5,-9,7,-2)."
			],
			"formula": [
				"a(n)=2^n-(n-1)*(n-2)/2-n+1 for n\u003e1. - Lambert Herrgesell (zero815(AT)googlemail.com), Mar 14 2006",
				"a(n)=A014844(n), n\u003e1. - _R. J. Mathar_, Sep 19 2008",
				"a(n)=5*a(n-1)-9*a(n-2)+7*a(n-3)-2*a(n-4) for n\u003e5. G.f.: -x*(2*x^4-5*x^3+x^2+2*x-1) / ((x-1)^3*(2*x-1)). - _Colin Barker_, Dec 18 2012"
			],
			"program": [
				"(MAGMA) [1] cat[2^n-(n-1)*(n-2)/2-n+1: n in [2..40]]; // _Vincenzo Librandi_, Apr 18 2012"
			],
			"xref": [
				"Cf. A080521."
			],
			"keyword": "nonn,easy",
			"offset": "1,2",
			"author": "_Amarnath Murthy_, Mar 21 2003",
			"ext": [
				"More terms from Lambert Herrgesell (zero815(AT)googlemail.com), Mar 14 2006"
			],
			"references": 2,
			"revision": 18,
			"time": "2018-02-09T21:49:13-05:00",
			"created": "2003-05-16T03:00:00-04:00"
		}
	]
}