{
	"greeting": "Greetings from The On-Line Encyclopedia of Integer Sequences! http://oeis.org/",
	"query": "id:A080391",
	"count": 1,
	"start": 0,
	"results": [
		{
			"number": 80391,
			"data": "1,2,3,3,5,4,5,3,6,6,7,6,7,6,7,4,8,5,7,4,5,6,7,4,5,8,9,8,9,8,9,4,8,7,9,10,13,12,13,13,18,9,11,8,9,8,9,7,9,8,9,8,9,4,5,8,9,12,13,4,5,4,5,4,9,9,12,9,11,8,9,4,5,4,5,10,11,8,9,7,9,14,15,14,15,14,15,12,13,12,13,12,13",
			"name": "Number of integers among the following n+1 quotients: A001405(n)/A001405(k), k=0,..,n. Number of values k for which the n-th central binomial coefficient[cbc] is divisible by the k-th cbc-s k=0,..n.",
			"example": [
				"n=11: the 12 relevant C[11,5]/C[k,Floor(k/2] quotients are {462,462,231,154,77,231/5,231/10,66/5,33/5,11/3,11/6,1}; of which a(12)=6 are integers."
			],
			"mathematica": [
				"Table[Count[Table[IntegerQ[Binomial[n, Floor[n/2]]/ Binomial[i, Floor[i/2]]], {i, 0, n}], True], {n, 1, 256}]"
			],
			"xref": [
				"Cf. A001405."
			],
			"keyword": "nonn",
			"offset": "0,2",
			"author": "_Labos Elemer_, Mar 13 2003",
			"references": 0,
			"revision": 7,
			"time": "2013-10-15T22:31:50-04:00",
			"created": "2003-05-16T03:00:00-04:00"
		}
	]
}