{
	"greeting": "Greetings from The On-Line Encyclopedia of Integer Sequences! http://oeis.org/",
	"query": "id:A080228",
	"count": 1,
	"start": 0,
	"results": [
		{
			"number": 80228,
			"data": "0,1,2,5,8,10,11,12,15,18,20,21,22,25,28,50,51,52,55,58,80,81,82,85,88,100,101,102,105,108,110,111,112,115,118,120,121,122,125,128,150,151,152,155,158,180,181,182,185,188,200,201,202,205,208,210,211,212,215",
			"name": "Numbers containing the digits 0, 1, 2, 5 or 8 only.",
			"comment": [
				"Numbers that are still numbers when viewed in a mirror, writing 2 and 5 as in calculator displays."
			],
			"reference": [
				"P. Giannopoulos, The Brainteasers, unpublished"
			],
			"link": [
				"Harvey P. Dale, \u003ca href=\"/A080228/b080228.txt\"\u003eTable of n, a(n) for n = 1..3000\u003c/a\u003e"
			],
			"mathematica": [
				"FromDigits/@Tuples[{0,1,2,5,8},3] (* _Harvey P. Dale_, Sep 10 2017 *)"
			],
			"xref": [
				"Cf. A080792, A053701."
			],
			"keyword": "easy,nonn,base",
			"offset": "1,3",
			"author": "Giannopoulos P. (pgiannop1(AT)yahoo.com), Mar 17 2003",
			"ext": [
				"More terms from Antonio G. Astudillo (afg_astudillo(AT)lycos.com), Apr 06 2003",
				"Offset corrected by Arkadiusz Wesolowski, Sep 23 2011"
			],
			"references": 4,
			"revision": 6,
			"time": "2017-09-10T12:28:58-04:00",
			"created": "2003-05-16T03:00:00-04:00"
		}
	]
}