{
	"greeting": "Greetings from The On-Line Encyclopedia of Integer Sequences! http://oeis.org/",
	"query": "id:A080915",
	"count": 1,
	"start": 0,
	"results": [
		{
			"number": 80915,
			"data": "1,2,1,2,3,4,5,6,7,8,1,2,3,4,5,6,7,8,1,2,2,2,2,1,2,2,2,2,1,2,3,4,5,6,7,8,1,2,2,2,1,1,2,1,1,10,1,2,3,4,5,6,7,8,1,2,2,2,2,2,2,2,2,2,2,2,2,2,2,2,2,2,2,2,2,2,2,1,1,2,3,4,5,6,7,8,1,2,2,2,2,2,2,2,2,2,2,2",
			"name": "Number of electrons in outermost electron shell (valence electrons) in chemical element number n.",
			"link": [
				"C. Heilman, \u003ca href=\"http://chemlab.pc.maricopa.edu/periodic/periodic.html\"\u003eThe Pictorial Periodic Table\u003c/a\u003e"
			],
			"example": [
				"Example: element 46Pd has ten electrons in its N-shell, none in its O-shell."
			],
			"xref": [
				"Cf. A080916."
			],
			"keyword": "nonn",
			"offset": "0,2",
			"author": "_Ralf Stephan_, Feb 23 2003",
			"references": 3,
			"revision": 2,
			"time": "2012-03-30T18:41:15-04:00",
			"created": "2003-05-16T03:00:00-04:00"
		}
	]
}