{
	"greeting": "Greetings from The On-Line Encyclopedia of Integer Sequences! http://oeis.org/",
	"query": "id:A080372",
	"count": 1,
	"start": 0,
	"results": [
		{
			"number": 80372,
			"data": "2,6,12,30,112,60,192,210,180,240,13312,420,12288,2112,1008,1320,2162688,1800,786432,2160,4800,15360,62914560,2520,6480,61440,6300,8640,3489660928,12240,3221225472,7560,64512,1376256,58320,12600,206158430208,8650752,184320,15120",
			"name": "a(n) is the smallest x such that the quotient d(x)/d(x+1) equals n, where d = A000005.",
			"comment": [
				"a(41) \u003e 10^12. - _Donovan Johnson_, Sep 02 2013"
			],
			"link": [
				"Donovan Johnson, \u003ca href=\"/A080372/a080372.txt\"\u003eAll 433 terms \u003c= 10^12\u003c/a\u003e"
			],
			"formula": [
				"a(n)=Min{x : d[x]/d[x+1]=n}"
			],
			"example": [
				"n = 17: a(17) = 2162688 = m, d(m) = 68, d(m+1) = 4, quotient = 17."
			],
			"mathematica": [
				"t = Table[ 0, {50}]; Do[ s = DivisorSigma[0, n] / DivisorSigma[0, n+1]; If[ s \u003c 51 \u0026\u0026 t[[s]] == 0, t[[s]] = n], {n, 1, 45000000}]; t"
			],
			"program": [
				"(PARI) {a(n) = my(k=1); while(numdiv(k)!=n*numdiv(k+1), k++); k} \\\\ _Seiichi Manyama_, Jan 17 2021"
			],
			"xref": [
				"Cf. A000005, A080371."
			],
			"keyword": "nonn",
			"offset": "1,1",
			"author": "_Labos Elemer_, Feb 24 2003",
			"ext": [
				"More terms from _Robert G. Wilson v_, Feb 27 2003",
				"a(23), a(29) and a(31) from _Donovan Johnson_, Jun 02 2010",
				"a(37), a(39)-a(40) from _Donovan Johnson_, Sep 02 2013"
			],
			"references": 8,
			"revision": 17,
			"time": "2021-01-17T11:08:36-05:00",
			"created": "2003-05-16T03:00:00-04:00"
		}
	]
}