{
	"greeting": "Greetings from The On-Line Encyclopedia of Integer Sequences! http://oeis.org/",
	"query": "id:A080586",
	"count": 1,
	"start": 0,
	"results": [
		{
			"number": 80586,
			"data": "1,1,1,2,2,2,1,1,1,1,1,1,2,2,2,2,2,2,1,1,1,1,1,1,1,1,1,1,1,1,2,2,2,2,2,2,2,2,2,2,2,2,1,1,1,1,1,1,1,1,1,1,1,1,1,1,1,1,1,1,1,1,1,1,1,1,2,2,2,2,2,2,2,2,2,2,2,2,2,2,2,2,2,2,2,2,2,2,2,2,1,1,1,1,1,1,1,1,1,1,1,1,1,1,1",
			"name": "A run of 3*2^n 1's followed by a run of 3*2^n 2's, for n=0, 1, 2, ...",
			"formula": [
				"a(n) = ( 3 - (-1)^A079944(A002264(n)) )/2, A079944(A002264(n))=floor(log[2](4*(floor((n+6)/3))/3)) - floor(log[2](floor((n+6)/3))) - Antonio G. Astudillo (afg_astudillo(AT)hotmail.com), Feb 24 2003",
				"Also a(n) = 1+A079944(A002264(n))=floor(log[2](8*(floor((n+6)/3))/3)) - floor(log[2](floor((n+6)/3))) - Antonio G. Astudillo (afg_astudillo(AT)hotmail.com), Feb 24 2003"
			],
			"maple": [
				"f := (c,n)-\u003eseq(c,i=1..3*2^n); [f(1,0),f(2,0),f(1,1),f(2,1),f(1,2),f(2,2),f(1,3),f(2,3)]; f;"
			],
			"mathematica": [
				"Flatten[Table[{PadRight[{},3*2^n,1],PadRight[{},3*2^n,2]},{n,0,4}]] (* _Harvey P. Dale_, May 04 2014 *)"
			],
			"xref": [
				"Cf. A079948, A080587.",
				"Equals 1 + A080584."
			],
			"keyword": "nonn",
			"offset": "0,4",
			"author": "_N. J. A. Sloane_, Feb 23 2003",
			"references": 2,
			"revision": 6,
			"time": "2014-05-04T10:42:41-04:00",
			"created": "2003-05-16T03:00:00-04:00"
		}
	]
}