{
	"greeting": "Greetings from The On-Line Encyclopedia of Integer Sequences! http://oeis.org/",
	"query": "id:A080392",
	"count": 1,
	"start": 0,
	"results": [
		{
			"number": 80392,
			"data": "2,420,920,1122,1218,1892,1978,2444,2914,3198,3782,4028,4136,4292,4664,4958,4960,5330,5762,5986,6020,6032,6710,6834,6864,6882,6954,6956,6968,7106,7130,7140,7238,7254,7448,7616,8178,8190,8400,8692,9462,9506,10712,11060,11288",
			"name": "Numbers k such that A000984(k) mod k = 0 and A080383(k) != 7.",
			"comment": [
				"Numbers arising in A067348 and not present in A080385.",
				"Even numbers n such that n divides binomial(n, [n/2]) and A010551(n) does not divide j!*(n-j)! exactly 7 times for j = 0..n. - _Peter Luschny_, Aug 04 2017"
			],
			"link": [
				"David A. Corneth, \u003ca href=\"/A080392/b080392.txt\"\u003eTable of n, a(n) for n = 1..274\u003c/a\u003e (Terms \u003c= 60000)"
			],
			"example": [
				"A080383(2) = 3;",
				"A080383(420) = 11;",
				"A080383(920) = 11;",
				"A080383(1122) = 9;",
				"A080383(1218) = 9."
			],
			"maple": [
				"isa := proc(n)  local bn, bm;",
				"if n mod 2 = 0 then bn := binomial(n, iquo(n,2)):",
				"if modp(bn, n) = 0 then",
				"   bm := (n, j) -\u003e `if`(modp(bn, binomial(n, j)) = 0, 1, 0):",
				"   return 1 \u003c\u003e add(bm(n, j), j=2..iquo(n,2)-1)",
				"fi fi; false end:",
				"select(isa, [$1..5000]); # _Peter Luschny_, Aug 04 2017"
			],
			"mathematica": [
				"Do[s=Count[Table[IntegerQ[Binomial[n, Floor[n/2]]/ Binomial[n, j]], {j, 0, n}], True]; s1=IntegerQ[Binomial[n, n/2]/n]; If[ !Equal[s, 7] \u0026\u0026 Equal[s1, True], Print[n]], {n, 1, 10000}]",
				"(* Second program: *)",
				"Select[Range@ 5000, Function[n, And[Divisible[Binomial[n, n/2], n], Count[Table[Divisible[Binomial[n, Floor[n/2]], Binomial[n, j]], {j, 0, n}], True] != 7]]] (* _Michael De Vlieger_, Jul 30 2017 *)"
			],
			"xref": [
				"Cf. A000984, A001405, A067348, A080383, A080385."
			],
			"keyword": "nonn",
			"offset": "1,1",
			"author": "_Labos Elemer_, Mar 17 2003",
			"ext": [
				"More terms from _Michael De Vlieger_, Jul 30 2017"
			],
			"references": 1,
			"revision": 22,
			"time": "2017-08-04T14:33:18-04:00",
			"created": "2003-05-16T03:00:00-04:00"
		}
	]
}