{
	"greeting": "Greetings from The On-Line Encyclopedia of Integer Sequences! http://oeis.org/",
	"query": "id:A080968",
	"count": 1,
	"start": 0,
	"results": [
		{
			"number": 80968,
			"data": "1,1,2,2,3,3,3,6,6,6,6,6,6,3,2,3,5,3,5,5,5,5,3,3,2,3,6,24,24,24,24,6,24,24,24,6,24,24,24,24,24,24,24,24,24,24,6,24,24,24,24,24,6,24,24,6,3,18,9,24,18,18,9,18,9,18,18,3,24,15,15,24,24,18,15,15,24,3,24,24,15,15,24",
			"name": "Orbit size of each branch-reduced tree encoded by A080981(n) under Donaghey's \"Map M\" Catalan automorphism.",
			"comment": [
				"This is the size of the cycle containing A080980(n) in the permutations A057505/A057506.",
				"If the conjecture given in A080070 is true, then this sequence contains only six 2's. Questions: are there any (other) values with finite number of occurrences? Which primes will eventually appear?"
			],
			"formula": [
				"a(n) = A080967(A080980(n))"
			],
			"xref": [
				"Cf. A080969, A080972."
			],
			"keyword": "nonn",
			"offset": "0,3",
			"author": "_Antti Karttunen_ Mar 02 2003",
			"references": 4,
			"revision": 2,
			"time": "2012-03-31T14:02:12-04:00",
			"created": "2003-05-16T03:00:00-04:00"
		}
	]
}