{
	"greeting": "Greetings from The On-Line Encyclopedia of Integer Sequences! http://oeis.org/",
	"query": "id:A080843",
	"count": 1,
	"start": 0,
	"results": [
		{
			"number": 80843,
			"data": "0,1,0,2,0,1,0,0,1,0,2,0,1,0,1,0,2,0,1,0,0,1,0,2,0,1,0,2,0,1,0,0,1,0,2,0,1,0,1,0,2,0,1,0,0,1,0,2,0,1,0,0,1,0,2,0,1,0,1,0,2,0,1,0,0,1,0,2,0,1,0,2,0,1,0,0,1,0,2,0,1,0,1,0,2,0,1,0,0,1,0,2,0,1,0,1,0,2,0,1,0,0,1,0,2",
			"name": "Tribonacci word: limit S(infinity), where S(0) = 0, S(1) = 0,1, S(2) = 0,1,0,2 and for n \u003e= 0, S(n+3) = S(n+2) S(n+1) S(n).",
			"comment": [
				"An Arnoux-Rauzy or episturmian word.",
				"The initial terms in a form suitable for mousing:",
				"0,1,0,2,0,1,0,0,1,0,2,0,1,0,1,0,2,0,1,0,0,1,0,2,0,1,0,2,0,1,0,0,1,0,2,0,1,",
				"0,1,0,2,0,1,0,0,1,0,2,0,1,0,0,1,0,2,0,1,0,1,0,2,0,1,0,0,1,0,2,0,1,0,2,0,1,",
				"0,0,1,0,2,0,1,0,1,0,2,0,1,0,0,1,0,2,0,1,0,1,0,2,0,1,0,0,1,0,2,0,1,0,2,0,1,",
				"0,0,1,0,2,0,1,0,1,0,2,0,1,0,0,1,0,2,0,1,0,0,1,0,2,0,1,0,1,0,2,0,1,0,0,1,0,",
				"2,0,1,0,2,0,1,0,0,1,0,2,0,1,0,1,0,2,0,1,0,0,1,0,2,0,1,0,2,0,1,0,0,1,0,2,0,",
				"1,0,1,0,2,0,1,0,0,1,0,2,0,1,0,0,1,0,2,0,1,0,1,0,2,0,1,0,0,1,0,2,0,1,0,2,0,",
				"1,0,0,1,0,2,0,1,0,1,0,2,0,1,0,0,1,0,2,0,1,0,1,0,2,0,1,0,0,1,0,2,0,1,0,2,0,",
				"1,0,0,1,0,2,0,1,0,1,0,2,0,1,0,0,1,0,2,0,1,0,0,1,0,2,0,1,0,1,0,2,0,1,0,0,1,",
				"...",
				"Let TTW(a,b,c) denote this sequence written over the alphabet {a,b,c}. It begins :",
				"a,b,a,c,a,b,a,a,b,a,c,a,b,a,b,a,c,a,b,a,a,b,a,c,a,b,a,c,a,b,a,a,b,a,c,a,b,",
				"a,b,a,c,a,b,a,a,b,a,c,a,b,a,a,b,a,c,a,b,a,b,a,c,a,b,a,a,b,a,c,a,b,a,c,a,b,",
				"a,a,b,a,c,a,b,a,b,a,c,a,b,a,a,b,a,c,a,b,a,b,a,c,a,b,a,a,b,a,c,a,b,a,c,a,b,",
				"a,a,b,a,c,a,b,a,b,a,c,a,b,a,a,b,a,c,a,b,a,a,b,a,c,a,b,a,b,a,c,a,b,a,a,b,a,",
				"c,a,b,a,c,a,b,a,a,b,a,c,a,b,a,b,a,c,a,b,a,a,b,a,c,a,b,a,c,a,b,a,a,b,a,c,a,",
				"b,a,b,a,c,a,b,a,a,b,a,c,a,b,a,a,b,a,c,a,b,a,b,a,c,a,b,a,a,b,a,c,a,b,a,c,a,",
				"b,a,a,b,a,c,a,b,a,b,a,c,a,b,a,a,b,a,c,a,b,a,b,a,c,a,b,a,a,b,a,c,a,b,a,c,a,",
				"b,a,a,b,a,c,a,b,a,b,a,c,a,b,a,a,b,a,c,a,b,a,a,b,a,c,a,b,a,b,a,c,a,b,a,a,b,",
				"... - From _N. J. A. Sloane_, Jul 10 2018",
				"From _Wolfdieter Lang_, Aug 14 2018: (Start)",
				"The substitution sequence 0 -\u003e 0, 1; 1-\u003e 0, 2; 2 -\u003e 0  read as an irregular triangle with rows l \u003e= 1 and length T(l+2), with the tribonacci numbers T = A000073, leads to the tribonacci tree TriT with level TriT(l) for l \u003e= 1 given by a(0), a(1), ..., a(T(l+2)-1).",
				"  E.g., l = 4:  0 1  0 2  0 1  0 with T(6) = 7 leaves (nodes). See the example below.",
				"This tree can be used to find the tribonacci representation of nonnegative n given in A278038, call it ZTri(n) (Z for generalized Zeckendorf), by replacing every 2 by 1, and reading from bottom to top, omitting the final 0, except for n = 0 which is represented by 0. See the example below. (End)"
			],
			"reference": [
				"The entry A092782 has a more complete list of references and links. - _N. J. A. Sloane_, Aug 17 2018",
				"J.-P. Allouche and J. Shallit, Automatic Sequences, Cambridge Univ. Press, 2003, p. 246."
			],
			"link": [
				"N. J. A. Sloane, \u003ca href=\"/A080843/b080843.txt\"\u003eTable of n, a(n) for n = 0..20000\u003c/a\u003e",
				"Jean Berstel and J. Karhumaki, \u003ca href=\"http://www-igm.univ-mlv.fr/~berstel/Articles/2003TutorialCoWdec03.pdf\"\u003eCombinatorics on words - a tutorial\u003c/a\u003e, Bull. EATCS, #79 (2003), pp. 178-228.",
				"Nataliya Chekhova, Pascal Hubert, and Ali Messaoudi, \u003ca href=\"http://www.numdam.org/item?id=JTNB_2001__13_2_371_0\"\u003ePropriétés combinatoires, ergodiques et arithmétiques de la substitution de Tribonacci\u003c/a\u003e, Journal de théorie des nombres de Bordeaux, 13.2 (2001): 371-394.",
				"D. Damanik and L. Q. Zamboni, \u003ca href=\"https://arxiv.org/abs/math/0208137\"\u003eArnoux-Rauzy subshifts: linear recurrence, powers and palindromes\u003c/a\u003e, arXiv:math/0208137 [math.CO], 2002.",
				"F. Michel Dekking, \u003ca href=\"https://cs.uwaterloo.ca/journals/JIS/VOL19/Dekking/dekk4.html\"\u003eMorphisms, Symbolic Sequences, and Their Standard Forms\u003c/a\u003e, Journal of Integer Sequences, Vol. 19 (2016), Article 16.1.1.",
				"F. Michel Dekking, Jeffrey Shallit, and N. J. A. Sloane, \u003ca href=\"https://www.combinatorics.org/ojs/index.php/eljc/article/view/v27i1p52/8039\"\u003eQueens in exile: non-attacking queens on infinite chess boards\u003c/a\u003e, Electronic J. Combin., 27:1 (2020), #P1.52.",
				"Eric Duchêne and Michel Rigo, \u003ca href=\"http://dx.doi.org/10.1051/ita:2007039\"\u003eA morphic approach to combinatorial games: the Tribonacci case\u003c/a\u003e. RAIRO - Theoretical Informatics and Applications, 42, 2008, pp 375-393. doi:10.1051/ita:2007039. [Also available \u003ca href=\"http://archive.numdam.org/item/ITA_2008__42_2_375_0\"\u003ehere\u003c/a\u003e]",
				"Wolfdieter Lang, \u003ca href=\"https://arxiv.org/abs/1810.09787\"\u003eThe Tribonacci and ABC Representations of Numbers are Equivalent\u003c/a\u003e, arXiv:1810.09787v1 [math.NT], 2018.",
				"Aayush Rajasekaran, Narad Rampersad, Jeffrey Shallit, \u003ca href=\"https://dx.doi.org/10.1007/978-3-319-66396-8_3\"\u003eOverpals, Underlaps, and Underpals\u003c/a\u003e, In: Brlek S., Dolce F., Reutenauer C., Vandomme É. (eds) Combinatorics on Words, WORDS 2017, Lecture Notes in Computer Science, vol 10432.",
				"Gérard Rauzy, \u003ca href=\"https://doi.org/10.24033/bsmf.1957\"\u003eNombres algébriques et substitutions\u003c/a\u003e, Bull. Soc. Math. France 110.2 (1982): 147-178. See page 148.",
				"Bo Tan and Zhi-Ying Wen, \u003ca href=\"http://dx.doi.org/10.1016/j.ejc.2006.07.007\"\u003eSome properties of the Tribonacci sequence\u003c/a\u003e, European Journal of Combinatorics, 28 (2007) 1703-1719.",
				"O. Turek, \u003ca href=\"https://cs.uwaterloo.ca/journals/JIS/VOL18/Turek/turek3.html\"\u003eAbelian Complexity Function of the Tribonacci Word\u003c/a\u003e, J. Int. Seq. 18 (2015) # 15.3.4",
				"\u003ca href=\"/index/Fi#FIXEDPOINTS\"\u003eIndex entries for sequences that are fixed points of mappings\u003c/a\u003e"
			],
			"formula": [
				"Fixed point of morphism 0 -\u003e 0, 1; 1 -\u003e 0, 2; 2 -\u003e 0.",
				"a(n) = A092782(n+1) - 1. [_Joerg Arndt_, Sep 14 2013]"
			],
			"example": [
				"From _Joerg Arndt_, Mar 12 2013: (Start)",
				"The first few steps of the substitution are",
				"Start: 0",
				"Rules:",
				"  0 --\u003e 01",
				"  1 --\u003e 02",
				"  2 --\u003e 0",
				"-------------",
				"0:   (#=1)",
				"  0",
				"1:   (#=2)",
				"  01",
				"2:   (#=4)",
				"  0102",
				"3:   (#=7)",
				"  0102010",
				"4:   (#=13)",
				"  0102010010201",
				"5:   (#=24)",
				"  010201001020101020100102",
				"6:   (#=44)",
				"  01020100102010102010010201020100102010102010",
				"7:   (#=81)",
				"  010201001020101020100102010201001020101020100102010010201010201001020102010010201",
				"(End)",
				"From _Wolfdieter Lang_, Aug 14 2018: (Start)",
				"The levels l of the tree TriT begin (the branches (edges) have been omitted):",
				"Substitution rule: 0 -\u003e 0 1; 1 -\u003e 0 2; 2 -\u003e 0.",
				"l=1:                                 0",
				"l=2:                  0                                 1",
				"l=3:             0             1                  0             2",
				"l=4:         0      1       0     2          0       1          0",
				"l=5:      0    1  0   2   0   1   0        0   1   0   2      0    1",
				"...",
				"----------------------------------------------------------------------------------",
				"n =       0    1  2   3   4   5   6        7   8   9  10     11   12",
				"The tribonacci representation of n \u003e= 0 (A278038; here at level 5 for n = 0.. 12) is obtained by reading from bottom to top (along the branches not shown) replacing 2 with 1, omitting the last 0 except for n = 0.",
				"          0    1  0   1   0   1   0        0   1   0  1      0    1",
				"                  1   1   0   0   1        0   0   1  1      0    0",
				"                          1   1   1        0   0   0  0      1    1",
				"                                           1   1   1  1      1    1",
				"E.g., ZTri(9) = A278038(9) = 1010. (End)"
			],
			"maple": [
				"M:=17; S[1]:=`0`; S[2]:=`01`; S[3]:=`0102`;",
				"for n from 4 to M do S[n]:=cat(S[n-1], S[n-2], S[n-3]); od:",
				"t0:=S[M]: l:=length(t0); for i from 1 to l do lprint(i,substring(t0,i..i)); od:",
				"# _N. J. A. Sloane_, Nov 01 2006",
				"# A version that uses the letters a,b,c:",
				"M:=10; B[1]:=`a`; B[2]:=`ab`; B[3]:=`abac`;",
				"for n from 4 to M do B[n]:=cat(B[n-1], B[n-2], B[n-3]); od:",
				"B[10]; # _N. J. A. Sloane_, Oct 30 2018"
			],
			"mathematica": [
				"Nest[Flatten[ # /. {0 -\u003e {0, 1}, 1 -\u003e {0, 2}, 2 -\u003e {0}}] \u0026, {0}, 8] (* updated by _Robert G. Wilson v_, Nov 07 2010 *)",
				"SubstitutionSystem[{0-\u003e{0,1},1-\u003e{0,2},2-\u003e{0}},{0},{8}]//Flatten (* _Harvey P. Dale_, Nov 21 2021 *)"
			],
			"program": [
				"(PARI)",
				"strsub(s, vv, off=0)=",
				"{",
				"    my( nl=#vv, r=[], ct=1 );",
				"    while ( ct \u003c= #s,",
				"        r = concat(r, vv[ s[ct] + (1-off) ] );",
				"        ct += 1;",
				"    );",
				"    return( r );",
				"}",
				"t=[0];  for (k=1, 10, t=strsub( t, [[0,1], [0,2], [0]], 0 ) );  t",
				"\\\\ _Joerg Arndt_, Sep 14 2013"
			],
			"xref": [
				"Cf. A003849 (the Fibonacci word), A092782.",
				"See A092782 for a version over the alphabet {1,2,3}.",
				"See A278045 for another construction.",
				"Cf. A000073, A278038.",
				"First differences: A317950. Partial sums: A319198."
			],
			"keyword": "nonn,easy",
			"offset": "0,4",
			"author": "_N. J. A. Sloane_, Mar 29 2003",
			"ext": [
				"More terms from Antonio G. Astudillo (afg_astudillo(AT)lycos.com), Apr 06 2003"
			],
			"references": 61,
			"revision": 114,
			"time": "2021-11-21T12:27:24-05:00",
			"created": "2003-05-16T03:00:00-04:00"
		}
	]
}