{
	"greeting": "Greetings from The On-Line Encyclopedia of Integer Sequences! http://oeis.org/",
	"query": "id:A080657",
	"count": 1,
	"start": 0,
	"results": [
		{
			"number": 80657,
			"data": "1,3674160,43252003274489856000,7401196841564901869874093974498574336000000000",
			"name": "Duplicate of A075152.",
			"keyword": "dead",
			"offset": "1,2",
			"references": 0,
			"revision": 3,
			"time": "2006-02-24T03:00:00-05:00",
			"created": "2003-05-16T03:00:00-04:00"
		}
	]
}