{
	"greeting": "Greetings from The On-Line Encyclopedia of Integer Sequences! http://oeis.org/",
	"query": "id:A080767",
	"count": 1,
	"start": 0,
	"results": [
		{
			"number": 80767,
			"data": "1,3,12,20,220,144,240,5060,5520,5520,10800,11520,8928,15120,31680,33984,56576,60372,39168,65280,80640,149760,149760,169920,281600,398200,664092,669600,940896,1235520",
			"name": "A unitary phi reciprocal amicable number: consider two different numbers a, b which satisfy the following equation for some integer k: uphi(a)=uphi(b)=1/k*a*b/(a-b); or equivalently, 1/uphi(a)=1/uphi(b)=k*(-1/a+1/b); sequence gives b numbers.",
			"comment": [
				"Here uphi(n)=A047994(n) is the unitary totient function: if n = Product p_i^e_i, uphi(n) = Product (p_i^e_i - 1)."
			],
			"xref": [
				"Cf. A047994, A080766, A080768, A067739, A067741."
			],
			"keyword": "nonn",
			"offset": "0,2",
			"author": "_Yasutoshi Kohmoto_",
			"ext": [
				"Kohmoto found 2nd, 6th, 13th, 25th terms. _Dean Hickerson_ calculated the other terms."
			],
			"references": 2,
			"revision": 4,
			"time": "2016-04-19T01:07:33-04:00",
			"created": "2003-05-16T03:00:00-04:00"
		}
	]
}