{
	"greeting": "Greetings from The On-Line Encyclopedia of Integer Sequences! http://oeis.org/",
	"query": "id:A080160",
	"count": 1,
	"start": 0,
	"results": [
		{
			"number": 80160,
			"data": "1,4,9,16,25,36,49,64,81,324,441,576,729,900,1089,1296,2025,2304,2601,2916,3249,3600,3969,5184,5329,5476,5625,5776,5929,6084,6241,6400,6561,6724,6889,7056,7225,7396,7569,7744,7921,8100,9801,10404,11025,11664",
			"name": "Consider those Wonderful Demlo numbers A002477 whose digit sums are squares; sequence gives these digit sums.",
			"comment": [
				"These are the squares in A080151."
			],
			"link": [
				"Eric Weisstein's World of Mathematics, \u003ca href=\"http://mathworld.wolfram.com/DemloNumber.html\"\u003eDemlo Number\u003c/a\u003e"
			],
			"maple": [
				"b:=n-\u003esum(convert(((10^(n+1)-1)/9)^2,base,10)[j],j=1..2*n+1): a:=proc(n) if type(sqrt(b(n)),integer)=true then b(n) else fi end: seq(a(n),n=0..2000); # _Emeric Deutsch_, Jun 19 2005"
			],
			"xref": [
				"Cf. A002477, A080151, A080161, A080162."
			],
			"keyword": "nonn,base",
			"offset": "1,2",
			"author": "_N. J. A. Sloane_, Jun 19 2005",
			"ext": [
				"More terms from _Emeric Deutsch_, Jun 19 2005"
			],
			"references": 5,
			"revision": 11,
			"time": "2017-11-18T13:39:54-05:00",
			"created": "2003-05-16T03:00:00-04:00"
		}
	]
}