{
	"greeting": "Greetings from The On-Line Encyclopedia of Integer Sequences! http://oeis.org/",
	"query": "id:A080014",
	"count": 1,
	"start": 0,
	"results": [
		{
			"number": 80014,
			"data": "1,1,1,3,6,10,18,35,65,119,221,412,764,1416,2629,4881,9057,16807,31194,57894,107442,199399,370065,686799,1274617,2365544,4390184,8147680,15121161,28063153,52082017,96658283,179386750,332921362,617864098",
			"name": "Number of permutations satisfying -k\u003c=p(i)-i\u003c=r and p(i)-i not in I, i=1..n, with k=2, r=2, I={1}.",
			"reference": [
				"D. H. Lehmer, Permutations with strongly restricted displacements. Combinatorial theory and its applications, II (Proc. Colloq., Balatonfured, 1969), pp. 755-770. North-Holland, Amsterdam, 1970."
			],
			"link": [
				"Vladimir Baltic, \u003ca href=\"http://pefmath.etf.rs/vol4num1/AADM-Vol4-No1-119-135.pdf\"\u003eOn the number of certain types of strongly restricted permutations\u003c/a\u003e, Applicable Analysis and Discrete Mathematics Vol. 4, No 1 (2010), 119-135",
				"\u003ca href=\"/index/Rec#order_06\"\u003eIndex entries for linear recurrences with constant coefficients\u003c/a\u003e, signature (1,1,1,1,-1,-1)."
			],
			"formula": [
				"Recurrence: a(n) = a(n-1)+a(n-2)+a(n-3)+a(n-4)-a(n-5)-a(n-6).",
				"G.f.: -(x^2-1)/(x^6+x^5-x^4-x^3-x^2-x+1)."
			],
			"program": [
				"(PARI) Vec(-(x^2-1)/(x^6+x^5-x^4-x^3-x^2-x+1)+O(x^99)) \\\\ _Charles R Greathouse IV_, Jun 12 2015"
			],
			"xref": [
				"Cf. A002524-A002529, A072827, A072850..A072856, A079955..A080014."
			],
			"keyword": "nonn,easy",
			"offset": "0,4",
			"author": "_Vladimir Baltic_, Jan 24 2003",
			"references": 77,
			"revision": 23,
			"time": "2020-05-10T13:44:54-04:00",
			"created": "2003-05-16T03:00:00-04:00"
		}
	]
}