{
	"greeting": "Greetings from The On-Line Encyclopedia of Integer Sequences! http://oeis.org/",
	"query": "id:A080078",
	"count": 1,
	"start": 0,
	"results": [
		{
			"number": 80078,
			"data": "0,1,2,3,4,5,6,8,10,13,16,20,27,33,43,53,70,86,113,140,183,226,296,366,479,592,775,957,1253,1549,2028,2506,3281,4055,5309,6562,8589,10617,13898,17179,22488,27796,36386,44975,58873,72771,95259,117746,154132,190518,249391",
			"name": "Union of A080105 and A080106.",
			"comment": [
				"Related to Le Corbusier's \"modular\" (or \"modulor\") numbers, see A080104."
			],
			"keyword": "nonn",
			"offset": "0,3",
			"author": "_N. J. A. Sloane_, Mar 15 2003",
			"references": 2,
			"revision": 3,
			"time": "2012-03-30T16:49:38-04:00",
			"created": "2003-05-16T03:00:00-04:00"
		}
	]
}