{
	"greeting": "Greetings from The On-Line Encyclopedia of Integer Sequences! http://oeis.org/",
	"query": "id:A080977",
	"count": 1,
	"start": 0,
	"results": [
		{
			"number": 80977,
			"data": "1,1,6,2,14,14,22,22,18,18,46,46,62,62,26,26",
			"name": "a(n) = A080272(2*n)/A080292(n).",
			"comment": [
				"This gives the orbit size (under the Catalan bijection A057505) for every other binomial-mod-2 tree A080263(2*n) divided by the orbit size of the corresponding branch-reduced tree A080293(n). See comment at A080972."
			],
			"keyword": "nonn",
			"offset": "0,3",
			"author": "_Antti Karttunen_ Mar 02 2003",
			"references": 2,
			"revision": 3,
			"time": "2015-10-15T10:55:24-04:00",
			"created": "2003-05-16T03:00:00-04:00"
		}
	]
}