{
	"greeting": "Greetings from The On-Line Encyclopedia of Integer Sequences! http://oeis.org/",
	"query": "id:A080746",
	"count": 1,
	"start": 0,
	"results": [
		{
			"number": 80746,
			"data": "1,4,6,7,9,10,12,14,15,17,19,20,22,23,25,27,28,30,31,33,35,36,38,40,41,43,44,46,48,49,51,53,54,56,57,59,61,62,64,65,67,69,70,72,74,75,77,78,80,82,83,85,86,88,90,91,93,95,96,98,99",
			"name": "Inverse Aronson transform of lower Wythoff sequence A000201.",
			"link": [
				"B. Cloitre, N. J. A. Sloane and M. J. Vandermast, \u003ca href=\"http://www.cs.uwaterloo.ca/journals/JIS/index.html\"\u003eNumerical analogues of Aronson's sequence\u003c/a\u003e, J. Integer Seqs., Vol. 6 (2003), #03.2.2.",
				"B. Cloitre, N. J. A. Sloane and M. J. Vandermast, \u003ca href=\"http://arXiv.org/abs/math.NT/0305308\"\u003eNumerical analogues of Aronson's sequence\u003c/a\u003e (math.NT/0305308)"
			],
			"formula": [
				"Consists of numbers [phi[phi*k]] (k \u003e= 1) and [phi[phi^2*k]]-1 (k \u003e= 2), where phi = (1+sqrt(5))/2. - _N. J. A. Sloane_, Mar 10 2003"
			],
			"xref": [
				"Union of A003622 and A035336, omitting 2. Cf. A000201, A080760.",
				"Same as A026273 except for initial terms."
			],
			"keyword": "nonn",
			"offset": "1,2",
			"author": "_Matthew Vandermast_, Mar 08 2003",
			"references": 1,
			"revision": 9,
			"time": "2015-03-05T10:38:28-05:00",
			"created": "2003-05-16T03:00:00-04:00"
		}
	]
}