{
	"greeting": "Greetings from The On-Line Encyclopedia of Integer Sequences! http://oeis.org/",
	"query": "id:A080871",
	"count": 1,
	"start": 0,
	"results": [
		{
			"number": 80871,
			"data": "1,1,4,7,31,55,244,433,1921,3409,15124,26839,119071,211303,937444,1663585,7380481,13097377,58106404,103115431,457470751,811826071,3601659604,6391493137,28355806081,50320119025,223244789044",
			"name": "a(n)*a(n+3) - a(n+1)*a(n+2) = 3, given a(0)=a(1)=1, a(2)=4.",
			"link": [
				"Seiichi Manyama, \u003ca href=\"/A080871/b080871.txt\"\u003eTable of n, a(n) for n = 0..2000\u003c/a\u003e"
			],
			"formula": [
				"a(n) = (3 + a(n-1)*a(n-2))/a(n-3) for n\u003e2.",
				"G.f.: (-x^3 - 4*x^2 + x + 1)/(x^4 - 8*x^2 + 1)",
				"a(n+4) = 8*a(n+2)-a(n). [_Richard Choulet_, Dec 04 2008]",
				"a(n) = (0.25 + sqrt(10)/20)*(sqrt(4 + sqrt(15)))^n + (0.25 + sqrt(10)/20)*(sqrt(4 - sqrt(15)))^n + ( - 1/20*10^(1/2) + 1/4)*( - sqrt(4 + sqrt(15)))^n + ( - 1/20*10^(1/2) + 1/4)*( - (sqrt(4 - sqrt(15))))^n. [_Richard Choulet_, Dec 06 2008]"
			],
			"mathematica": [
				"RecurrenceTable[{a[0]==a[1]==1,a[2]==4,a[n]==(3+a[n+1]a[n+2])/a[n+3]},a,{n,30}] (* _Harvey P. Dale_, Jun 08 2017 *)"
			],
			"xref": [
				"Cf. A001519, A079496, A080872, A080873, A080874, A080875.",
				"Bisections are A001091 and A070997."
			],
			"keyword": "nonn",
			"offset": "0,3",
			"author": "_Paul D. Hanna_, Feb 22 2003",
			"references": 6,
			"revision": 14,
			"time": "2018-12-26T09:43:49-05:00",
			"created": "2003-05-16T03:00:00-04:00"
		}
	]
}