{
	"greeting": "Greetings from The On-Line Encyclopedia of Integer Sequences! http://oeis.org/",
	"query": "id:A081289",
	"count": 1,
	"start": 0,
	"results": [
		{
			"number": 81289,
			"data": "0,3,6,6,6,14,14,14,14,14,14,14,14,14,37,37,37,37,37,37,37,37,37,37,37,37,37,37,37,37,37,37,37,37,37,37,37,37,37,37,37,37,107,107,107,107,107,107,107,107,107,107,107,107,107,107,107,107,107,107,107,107,107,107",
			"name": "a(0) = 0, a(n) = A081293(A081288(n)-1).",
			"comment": [
				"After n\u003e0, A081293(n) occurs A000245(n) times."
			],
			"program": [
				"(PARI) A000108(n) = binomial(2*n, n)/(n+1);",
				"A081293(n) = A000108(n) + sum(k=0, n, A000108(k));",
				"A081288(n) = my(i=0); while(binomial(2*i, i)/(i+1) \u003c= n, i++); i;",
				"a(n) = if (n==0, 0, A081293(A081288(n)-1)); \\\\ _Michel Marcus_, Apr 28 2020"
			],
			"xref": [
				"Cf. A000108, A000245, A081288, A081290, A081293."
			],
			"keyword": "nonn",
			"offset": "0,2",
			"author": "_Antti Karttunen_, Mar 17 2003",
			"references": 5,
			"revision": 6,
			"time": "2020-04-28T06:38:14-04:00",
			"created": "2003-05-16T03:00:00-04:00"
		}
	]
}