{
	"greeting": "Greetings from The On-Line Encyclopedia of Integer Sequences! http://oeis.org/",
	"query": "id:A081353",
	"count": 1,
	"start": 0,
	"results": [
		{
			"number": 81353,
			"data": "3,5,13,19,31,41,57,71,91,109,133,155,183,209,241,271,307,341,381,419,463,505,553,599,651,701,757,811,871,929,993,1055,1123,1189,1261,1331,1407,1481,1561,1639,1723,1805,1893,1979,2071,2161,2257,2351,2451,2549",
			"name": "Diagonal of square maze arrangement of natural numbers A081349.",
			"link": [
				"Vincenzo Librandi, \u003ca href=\"/A081353/b081353.txt\"\u003eTable of n, a(n) for n = 0..10000\u003c/a\u003e",
				"\u003ca href=\"/index/Rec#order_04\"\u003eIndex entries for linear recurrences with constant coefficients\u003c/a\u003e, signature (2,0,-2,1)."
			],
			"formula": [
				"a(n) = (n+1)*(n+2)+(-1)^n = 2*binomial(n+2,2)+(-1)^n.",
				"G.f.: (3-x)*(1+x^2)/((1-x)^3*(1+x)). [_Colin Barker_, Sep 03 2012]",
				"From _Wesley Ivan Hurt_, Aug 09 2015: (Start)",
				"a(n) = 2*a(n-1)-2*a(n-3)+a(n-4), n\u003e4.",
				"a(n) = n^2+3n+3 if n is even, otherwise n^2+3n+1.",
				"a(n) = A137932(n+3) - A109613(n+1). (End)"
			],
			"maple": [
				"A081353:=n-\u003e(n+1)*(n+2)+(-1)^n: seq(A081353(n), n=0..100); # _Wesley Ivan Hurt_, Aug 09 2015"
			],
			"mathematica": [
				"Table[(n + 1) (n + 2) + (-1)^n, {n, 0, 70}] (* _Wesley Ivan Hurt_, Aug 09 2015 *)",
				"LinearRecurrence[{2,0,-2,1},{3,5,13,19},50] (* _Harvey P. Dale_, Aug 02 2021 *)"
			],
			"program": [
				"(MAGMA) [(n + 1)*(n + 2) + (-1)^n: n in [0..50]]; // _Vincenzo Librandi_, Sep 06 2011"
			],
			"xref": [
				"Cf. A081349, A081350, A081351, A081352.",
				"Cf. A109613, A137932.",
				"Bisections are in A054554, A125202."
			],
			"keyword": "nonn,easy",
			"offset": "0,1",
			"author": "_Paul Barry_, Mar 19 2003",
			"references": 1,
			"revision": 21,
			"time": "2021-08-02T18:31:30-04:00",
			"created": "2003-05-16T03:00:00-04:00"
		}
	]
}