{
	"greeting": "Greetings from The On-Line Encyclopedia of Integer Sequences! http://oeis.org/",
	"query": "id:A081425",
	"count": 1,
	"start": 0,
	"results": [
		{
			"number": 81425,
			"data": "719,1319,1699,2447,3343,4079,4139,4457,4517,4679,4703,5273,5647,6653,6793,7523,7529,7559,8599,9227,9587,9623,9839,10159,10343,10723,10771,11069,11213,11279,11321,11489,11863,11887,12163,12917,12919,13163",
			"name": "Class 6- primes (for definition see A005109).",
			"reference": [
				"R. K. Guy, Unsolved Problems in Number Theory, A18."
			],
			"link": [
				"R. J. Mathar, \u003ca href=\"/A081425/b081425.txt\"\u003eTable of n, a(n) for n = 1..20000\u003c/a\u003e"
			],
			"mathematica": [
				"PrimeFactors[n_Integer] := Flatten[ Table[ #[[1]], {1}] \u0026 /@ FactorInteger[n]]; f[n_Integer] := Block[{m = n}, If[m == 0, m = 1, While[ IntegerQ[m/2], m /= 2]; While[ IntegerQ[m/3], m /= 3]]; Apply[Times, PrimeFactors[m] - 1]]; ClassMinusNbr[n_] := Length[NestWhileList[f, n, UnsameQ, All]] - 3; Prime[ Select[ Range[1700], ClassMinusNbr[ Prime[ # ]] == 6 \u0026]]"
			],
			"xref": [
				"Cf. A005113, A056637, A005109, A005110, A005111, A005112, A081424, A081426, A081427, A081428, A081429, A081430."
			],
			"keyword": "nonn",
			"offset": "1,1",
			"author": "_Robert G. Wilson v_, Mar 20 2003",
			"references": 15,
			"revision": 8,
			"time": "2012-09-22T11:26:56-04:00",
			"created": "2003-05-16T03:00:00-04:00"
		}
	]
}