{
	"greeting": "Greetings from The On-Line Encyclopedia of Integer Sequences! http://oeis.org/",
	"query": "id:A081779",
	"count": 1,
	"start": 0,
	"results": [
		{
			"number": 81779,
			"data": "30,240,390,810,1020,1920,2100,3120,3750,6090,6480,7380,7770,8160,10290,10530,15360,16800,20130,21870,24960,27540,30000,32760,33390,39930,46410,48720,48750,51840,56700,59040,60060,62160,65280,65910,82320,84240,94920,96360",
			"name": "Ordered m for which m = k^3*a*b*(a^4 - b^4) determine (unique) solution triples(k,a,b), where k=1,2,3,... and (a,b) are coprime pairs, not both odd (i.e., of opposite parity).",
			"comment": [
				"Also called Saint-Exupery numbers."
			],
			"link": [
				"N. des Vallieres and F. D'Agay, \u003ca href=\"http://www.saint-exupery.org/home/inv_math1.htm\"\u003eLe Probleme du Pharaon\u003c/a\u003e"
			],
			"formula": [
				"a(n) = A057096(n)/2."
			],
			"mathematica": [
				"Import[\"https://oeis.org/A057096/b057096.txt\", \"Table\"][[;;40, 2]]/2 (* _Jean-François Alcover_, Nov 21 2019 *)"
			],
			"xref": [
				"Cf. A057096."
			],
			"keyword": "nice,nonn",
			"offset": "1,1",
			"author": "_Lekraj Beedassy_, Apr 10 2003",
			"ext": [
				"Corrected and extended by _Jean-François Alcover_, Nov 21 2019"
			],
			"references": 1,
			"revision": 12,
			"time": "2019-11-21T07:37:35-05:00",
			"created": "2003-05-16T03:00:00-04:00"
		}
	]
}