{
	"greeting": "Greetings from The On-Line Encyclopedia of Integer Sequences! http://oeis.org/",
	"query": "id:A081803",
	"count": 1,
	"start": 0,
	"results": [
		{
			"number": 81803,
			"data": "3,8,6,1,5,9,2,6,7",
			"name": "Decimal expansion of Compton electron radius in meters.",
			"link": [
				"NIST, \u003ca href=\"http://physics.nist.gov/cgi-bin/cuu/Value?ecomwlbar\"\u003eCODATA Value: Compton wavelength over 2 pi\u003c/a\u003e",
				"\u003ca href=\"/index/Na\"\u003eIndex entries for natural constants\u003c/a\u003e"
			],
			"formula": [
				"Equals A230436/A019692."
			],
			"xref": [
				"Cf. A003672."
			],
			"keyword": "cons,nonn",
			"offset": "-12,1",
			"author": "_Benoit Cloitre_, Apr 10 2003",
			"ext": [
				"Edited by _Andrey Zabolotskiy_, Jun 22 2017"
			],
			"references": 0,
			"revision": 9,
			"time": "2017-06-23T06:13:53-04:00",
			"created": "2003-05-16T03:00:00-04:00"
		}
	]
}