{
	"greeting": "Greetings from The On-Line Encyclopedia of Integer Sequences! http://oeis.org/",
	"query": "id:A081197",
	"count": 1,
	"start": 0,
	"results": [
		{
			"number": 81197,
			"data": "0,0,0,1,4,13,44,162,643,2724,12259,58423,293902,1555743,8640526,50222288,304792741,1927313470,12673784445,86517541197,612134881624,4482215342305,33919417267456,264951302794510,2133720505175351",
			"name": "Diagonal sums of A081130.",
			"link": [
				"G. C. Greubel, \u003ca href=\"/A081197/b081197.txt\"\u003eTable of n, a(n) for n = 0..500\u003c/a\u003e"
			],
			"formula": [
				"a(n) = Sum_{k=1..n-2} k^(n-k-2)*binomial(n-k, 2).",
				"a(n) = Sum_{k=0..n-1} (n-k)^(k-2)*binomial(k, 2). - _G. C. Greubel_, May 15 2021"
			],
			"maple": [
				"A081197 := proc(n)",
				"    add(k^(n-k-2)*binomial(n-k,2), k=1..n-2) ;",
				"end proc: # _R. J. Mathar_, Feb 13 2015"
			],
			"mathematica": [
				"Table[Sum[k^(n-k-2)*Binomial[n-k, 2], {k,n-2}], {n,0,30}] (* _G. C. Greubel_, May 15 2021 *)"
			],
			"program": [
				"(MAGMA) [n lt 3 select 0 else (\u0026+[j^(n-j-2)*Binomial(n-j,2): j in [1..n-2]]): n in [0..30]]; // _G. C. Greubel_, May 15 2021",
				"(Sage) [sum( (n-k)^(k-2)*binomial(k,2) for k in (0..n-1) ) for n in (0..30)] # _G. C. Greubel_, May 15 2021"
			],
			"xref": [
				"Cf. A081130."
			],
			"keyword": "easy,nonn",
			"offset": "0,5",
			"author": "_Paul Barry_, Mar 11 2003",
			"ext": [
				"Terms corrected by _G. C. Greubel_, May 15 2021"
			],
			"references": 2,
			"revision": 9,
			"time": "2021-05-17T05:05:51-04:00",
			"created": "2003-05-16T03:00:00-04:00"
		}
	]
}