{
	"greeting": "Greetings from The On-Line Encyclopedia of Integer Sequences! http://oeis.org/",
	"query": "id:A081508",
	"count": 1,
	"start": 0,
	"results": [
		{
			"number": 81508,
			"data": "3,244672067,14551915378461487103639747,3552713678880267372432493847753987,211758236813575107295480170109084902352995775163267",
			"name": "Primes of form 1+3^n+5^n.",
			"mathematica": [
				"Do[s=1^w+3^w+5^w; If[IntegerQ[w/100], Print[{w}]]; If[PrimeQ[s], Print[{w, s}]], {w, 0, 1000}]"
			],
			"keyword": "nonn",
			"offset": "1,1",
			"author": "_Labos Elemer_, Apr 15 2003",
			"references": 1,
			"revision": 4,
			"time": "2013-10-15T22:31:52-04:00",
			"created": "2003-05-16T03:00:00-04:00"
		}
	]
}