{
	"greeting": "Greetings from The On-Line Encyclopedia of Integer Sequences! http://oeis.org/",
	"query": "id:A081637",
	"count": 1,
	"start": 0,
	"results": [
		{
			"number": 81637,
			"data": "532801,710341,720617,1212487,1261157,1372081,1457293,1490429,1532173,1657801,1788547,1789093,1809601,1829293,1887877,1944181,1960141,1997587,2121853,2161853,2474413,2484049,2557441,2578801,2613607",
			"name": "Class 9+ primes.",
			"reference": [
				"R. K. Guy, Unsolved Problems in Number Theory, A18."
			],
			"link": [
				"T. D. Noe, \u003ca href=\"/A081637/b081637.txt\"\u003eTable of n, a(n) for n=1..10000\u003c/a\u003e"
			],
			"maple": [
				"For Maple program see Mathar link in A005105."
			],
			"mathematica": [
				"PrimeFactors[n_Integer] := Flatten[ Table[ #[[1]], {1}] \u0026 /@ FactorInteger[n]]; f[n_Integer] := Block[{m = n}, If[m == 0, m = 1, While[ IntegerQ[m/2], m /= 2]; While[ IntegerQ[m/3], m /= 3]]; Apply[Times, PrimeFactors[m] + 1]]; ClassPlusNbr[n_] := Length[ NestWhileList[f, n, UnsameQ, All]] - 3; Prime[ Select[ Range[196000], ClassPlusNbr[ Prime[ # ]] == 9 \u0026]]"
			],
			"xref": [
				"Cf. A005113, A005105, A005106, A005107, A005108, A081633, A081634, A081635, A081636, A081638, A081639."
			],
			"keyword": "nonn",
			"offset": "1,1",
			"author": "_Robert G. Wilson v_, Mar 20 2003",
			"references": 11,
			"revision": 7,
			"time": "2014-01-13T11:58:40-05:00",
			"created": "2003-05-16T03:00:00-04:00"
		}
	]
}