{
	"greeting": "Greetings from The On-Line Encyclopedia of Integer Sequences! http://oeis.org/",
	"query": "id:A081168",
	"count": 1,
	"start": 0,
	"results": [
		{
			"number": 81168,
			"data": "3,3,3,3,3,3,4,3,3,3,3,3,4,3,3,3,3,3,4,3,3,3,3,3,4,3,3,3,3,3,4,3,3,3,3,3,4,3,3,3,3,3,3,4,3,3,3,3,3,4,3,3,3,3,3,4,3,3,3,3,3,4,3,3,3,3,3,4,3,3,3,3,3,4,3,3,3,3,3,3,4,3,3,3,3,3,4,3,3,3,3,3,4,3,3,3,3,3,4,3,3,3,3,3,4",
			"name": "Differences of Beatty sequence for square root of 10.",
			"comment": [
				"Start with 3 and applies the morphism : 3 -\u003e3,3,3,3,3,4 4 -\u003e3,3,3,3,3,3,4. More generally for a(n,m)=floor((n+1)*sqrt(m^2+1))-floor(n*sqrt(m^2+1)) start with m and applies the morphism : m -\u003em^(2m-1),m+1; m+1 -\u003em^(2m),m+1"
			],
			"formula": [
				"a(n)=floor((n+1)*sqrt(10))-floor(n*sqrt(10))"
			],
			"program": [
				"(PARI) a(n)=floor((n+1)*sqrt(10))-floor(n*sqrt(10))"
			],
			"xref": [
				"Cf. A006337."
			],
			"keyword": "nonn",
			"offset": "0,1",
			"author": "_Benoit Cloitre_, Apr 16 2003",
			"references": 0,
			"revision": 10,
			"time": "2012-03-30T18:39:16-04:00",
			"created": "2003-05-16T03:00:00-04:00"
		}
	]
}