{
	"greeting": "Greetings from The On-Line Encyclopedia of Integer Sequences! http://oeis.org/",
	"query": "id:A081175",
	"count": 1,
	"start": 0,
	"results": [
		{
			"number": 81175,
			"data": "1,3,5,6,9,10,14,15,17,21,28,30,33,36,45,55,65,66,78,91,98,100,105,120,129,136,140,153,171,190,204,210,225,231,253,257,276,285,300,325,351,354,378,385,406,435,441,465,496,506,513,528,561,595,630,650,666,703",
			"name": "Numbers of the form Sum_{i=1..k} i^j, j \u003e= 1, k \u003e= 1.",
			"comment": [
				"Union of sums of k-th powers, for k \u003e= 1."
			],
			"link": [
				"Robert Israel, \u003ca href=\"/A081175/b081175.txt\"\u003eTable of n, a(n) for n = 1..10000\u003c/a\u003e"
			],
			"example": [
				"30 is in the set because 30 = 1^2 + 2^2 + 3^2 + 4^2 (j=2, k=4)."
			],
			"maple": [
				"N:= 1000: # to get all terms \u003c= N",
				"A:=select(`\u003c=`,{1, seq(seq(sum(i^k,i=1..m), m=2..floor((N*(k+1))^(1/(k+1)))),k = 1 ..ilog2(N-1))},N):",
				"sort(convert(A,list)); # _Robert Israel_, Jan 26 2015"
			],
			"mathematica": [
				"Take[ Union[ Flatten[ Table[ Sum[ i^j, {i, 1, n}], {j, 1, 9}, {n, 1, 40}]]], 60]"
			],
			"xref": [
				"Cf. A000217, A000330, A000537, A000538, A000539, A000540, A000541, A000542, A007487, A023002.",
				"For primes in this sequence see A164307."
			],
			"keyword": "nonn,easy",
			"offset": "1,2",
			"author": "_N. J. A. Sloane_, Apr 18 2003",
			"ext": [
				"Corrected and extended by _Robert G. Wilson v_, May 08 2003"
			],
			"references": 2,
			"revision": 22,
			"time": "2017-11-28T06:42:46-05:00",
			"created": "2003-05-16T03:00:00-04:00"
		}
	]
}