{
	"greeting": "Greetings from The On-Line Encyclopedia of Integer Sequences! http://oeis.org/",
	"query": "id:A081672",
	"count": 1,
	"start": 0,
	"results": [
		{
			"number": 81672,
			"data": "1,2,6,8,22,32,84,128,326,512,1276,2048,5020,8192,19816,32768,78406,131072,310764,524288,1233332,2097152,4899736,8388608,19481372,33554432,77509464,134217728,308552056,536870912,1228859344",
			"name": "Expansion of exp(2x) - exp(0) + BesselI_0(2x).",
			"comment": [
				"Inverse binomial transform of A081673."
			],
			"link": [
				"G. C. Greubel, \u003ca href=\"/A081672/b081672.txt\"\u003eTable of n, a(n) for n = 0..500\u003c/a\u003e"
			],
			"formula": [
				"E.g.f.: exp(2x) - exp(0) + BesselI_0(2x).",
				"Conjecture: n*a(n) +2*(1-n)*a(n-1) +4*(1-n)*a(n-2) +8*(n-2)*a(n-3)=0. - _R. J. Mathar_, Nov 12 2012",
				"a(n) ~ 2^n * (1+(1+(-1)^n)/sqrt(2*Pi*n)). - _Vaclav Kotesovec_, Feb 04 2014",
				"From _Benedict W. J. Irwin_, Jun 03 2016: (Start)",
				"For odd n, a(n) = 2^n. For even n\u003e0, a(n) = 2^n*(1+n!/(2^n*(n/2)!^2)).",
				"G.f.: 1/sqrt(1-4*z^2) + 1/(1-2*z) - 1. (End)",
				"E.g.f. satisfies y''' - (2*x-2)*y'' - (4*x + 2)*y' + (8*x-4)*y + 8x - 4 = 0, which implies Mathar's conjectured recurrence. - _Robert Israel_, Jun 03 2016"
			],
			"maple": [
				"1, seq(op([2^(2*k-1), 2^(2*k)+(2*k)!/k!^2]), k=1..30); # _Robert Israel_, Jun 03 2016"
			],
			"mathematica": [
				"CoefficientList[Series[1/Sqrt[1 - 4 z^2] + 1/(1 - 2 z) - 1, {z, 0, 20}], z] (* _Benedict W. J. Irwin_, Jun 03 2016 *)",
				"CoefficientList[Series[Exp[2*x] - 1 + BesselI[0, 2*x], {x, 0, 50}],",
				"  x]*Range[0, 50]! (* _G. C. Greubel_, Jun 03 2016 *)"
			],
			"program": [
				"(PARI) a(n)=if(n,if(n%2,1,1+n!/(2^n*(n/2)!^2))\u003c\u003cn,1) \\\\ _Charles R Greathouse IV_, Jun 10 2016",
				"(PARI) Vec(1/sqrt(1-4*x^2)+1/(1-2*x)-1) \\\\ _Charles R Greathouse IV_, Jun 10 2016"
			],
			"xref": [
				"Cf. A000984, A081673."
			],
			"keyword": "easy,nonn",
			"offset": "0,2",
			"author": "_Paul Barry_, Mar 28 2003",
			"references": 2,
			"revision": 28,
			"time": "2016-06-14T23:03:28-04:00",
			"created": "2003-05-16T03:00:00-04:00"
		}
	]
}