{
	"greeting": "Greetings from The On-Line Encyclopedia of Integer Sequences! http://oeis.org/",
	"query": "id:A081483",
	"count": 1,
	"start": 0,
	"results": [
		{
			"number": 81483,
			"data": "2,5,14,207,21517,463002621,107185713757914799,11488777233793645929753929838165243,65996001163867589433635003347899713882296914933506539441485910752304",
			"name": "Consider the mapping f(a/b) = (a^2 + b)/(a^2 - b). Taking a =2, b = 1 to start with and carrying out this mapping repeatedly on each new (reduced) rational number gives the following sequence 2/1,5/3,14/11,207/185,... Sequence contains the numerator.",
			"comment": [
				"The mapping f(a/b) = (a + b)/(a - b). Taking a = 2 b = 1 to start with and carrying out this mapping repeatedly on each new (reduced)rational number gives the periodic sequence 2/1,3/1,2/1,3/1,..."
			],
			"xref": [
				"Cf. A081484."
			],
			"keyword": "nonn",
			"offset": "1,1",
			"author": "_Amarnath Murthy_, Mar 24 2003",
			"ext": [
				"More terms from Antonio G. Astudillo (afg_astudillo(AT)lycos.com), Apr 06 2003"
			],
			"references": 1,
			"revision": 3,
			"time": "2013-12-05T19:56:01-05:00",
			"created": "2003-05-16T03:00:00-04:00"
		}
	]
}