{
	"greeting": "Greetings from The On-Line Encyclopedia of Integer Sequences! http://oeis.org/",
	"query": "id:A081371",
	"count": 1,
	"start": 0,
	"results": [
		{
			"number": 81371,
			"data": "0,0,1,0,1,1,0,0,1,1,0,0,1,1,1,0,1,2,3,1,1,0,1,2,3,1,1,1,0,0,2,2,1,4,1,1,0,0,0,2,1,0,1,1,1,0,1,0,2,2,0,1,5,1,1,0,1,0,2,2,0,1,5,1,1,1,0,0,1,3,2,0,1,7,4,6,1,1,0,0,1,3,2,0,1,7,4,6,1,1,1,0,1,1,1,2,3,2,3,4,1,1,7,1,1",
			"name": "Binomial coefficients C[n,j] reduced modulo j, j=1,...n; read by rows, j=0 is omitted because of mod[n,0].",
			"link": [
				"Michel Marcus, \u003ca href=\"/A081371/b081371.txt\"\u003eRows n = 1..100 of triangle, flattened\u003c/a\u003e"
			],
			"example": [
				"Triangle begins:",
				"0,",
				"0,1,",
				"0,1,1,",
				"0,0,1,1,",
				"0,0,1,1,1,",
				"0,1,2,3,1,1,",
				"0,1,2,3,1,1,1,"
			],
			"mathematica": [
				"Flatten[Table[Table[Mod[Binomial[n, j], j], {j, 1, n}], {n, 1, 50}], 1]"
			],
			"program": [
				"(PARI) tabl(nn)=for(n=1, nn, for (k=1, n, print1(binomial(n, k) % k, \", \")); print) \\\\ _Michel Marcus_, Feb 01 2017"
			],
			"xref": [
				"Cf. A007318."
			],
			"keyword": "nonn,tabl",
			"offset": "1,18",
			"author": "_Labos Elemer_, Mar 21 2003",
			"references": 6,
			"revision": 8,
			"time": "2017-02-01T14:16:13-05:00",
			"created": "2003-05-16T03:00:00-04:00"
		}
	]
}