{
	"greeting": "Greetings from The On-Line Encyclopedia of Integer Sequences! http://oeis.org/",
	"query": "id:A081999",
	"count": 1,
	"start": 0,
	"results": [
		{
			"number": 81999,
			"data": "1,2,7,9,29,31,71,73,143,149,229,233,359,361,485,487,629,631,821,823,1031,1033,1277,1279,1553,1559,1873,1877,2221,2237,2593,2599,2971,2999,3433,3449,3907,3911,4429,4441,4969,4973,5557,5561,6131,6133,6761,6763",
			"name": "First row of array in A081998.",
			"link": [
				"Charlie Neder, \u003ca href=\"/A081999/b081999.txt\"\u003eTable of n, a(n) for n = 0..140\u003c/a\u003e"
			],
			"xref": [
				"Cf. A081998, A082000, A082001."
			],
			"keyword": "nonn",
			"offset": "0,2",
			"author": "_Amarnath Murthy_, Apr 05 2003",
			"ext": [
				"a(4)-a(47) from _Charlie Neder_, Aug 31 2018"
			],
			"references": 4,
			"revision": 9,
			"time": "2018-08-31T16:50:36-04:00",
			"created": "2003-05-16T03:00:00-04:00"
		}
	]
}