{
	"greeting": "Greetings from The On-Line Encyclopedia of Integer Sequences! http://oeis.org/",
	"query": "id:A081814",
	"count": 1,
	"start": 0,
	"results": [
		{
			"number": 81814,
			"data": "3,6,7,0,4,8,2,9,5,5,0",
			"name": "Deuteron-electron mass ratio.",
			"link": [
				"NIST, \u003ca href=\"http://physics.nist.gov/cuu/Constants/index.html\"\u003eConstants\u003c/a\u003e."
			],
			"formula": [
				"m(d)/m(e)=3670.4829550"
			],
			"keyword": "cons,nonn",
			"offset": "4,1",
			"author": "_Benoit Cloitre_, Apr 10 2003",
			"references": 1,
			"revision": 5,
			"time": "2012-03-30T18:39:16-04:00",
			"created": "2003-05-16T03:00:00-04:00"
		}
	]
}