{
	"greeting": "Greetings from The On-Line Encyclopedia of Integer Sequences! http://oeis.org/",
	"query": "id:A081821",
	"count": 1,
	"start": 0,
	"results": [
		{
			"number": 81821,
			"data": "1,0,9,7,3,7,3,1,5,6,8,1",
			"name": "Rydberg constant, in inverse meters.",
			"comment": [
				"2010 CODATA value is 10973731.568539(55). - _Charles R Greathouse IV_, Sep 12 2012",
				"2014 CODATA value is 10973731.568508(65). - _Georg Fischer_, Mar 18 2019",
				"2018 CODATA value is 10973731.568160(21). - _Ivan Panchenko_, May 23 2019"
			],
			"link": [
				"NIST, \u003ca href=\"https://physics.nist.gov/cgi-bin/cuu/Value?ryd\"\u003eRydberg constant\u003c/a\u003e",
				"Wikipedia, \u003ca href=\"https://en.wikipedia.org/wiki/Rydberg_constant\"\u003eRydberg constant\u003c/a\u003e"
			],
			"formula": [
				"R_infinity = 10973731.568... m^-1."
			],
			"keyword": "cons,nonn",
			"offset": "8,3",
			"author": "_Benoit Cloitre_, Apr 10 2003",
			"ext": [
				"a(19) from _Ivan Panchenko_, May 23 2019"
			],
			"references": 3,
			"revision": 31,
			"time": "2019-05-29T03:22:30-04:00",
			"created": "2003-05-16T03:00:00-04:00"
		}
	]
}