{
	"greeting": "Greetings from The On-Line Encyclopedia of Integer Sequences! http://oeis.org/",
	"query": "id:A081757",
	"count": 1,
	"start": 0,
	"results": [
		{
			"number": 81757,
			"data": "0,0,0,0,1,1,1,1,1,1,2,1,2,1,2,1,2,1,3,1,2,2,2,1,3,1,2,2,3,1,3,1,3,2,2,1,4,1,2,2,4,1,3,1,3,3,2,1,4,1,3,2,3,1,4,2,3,2,2,1,6,1,2,2,3,2,4,1,3,2,4,1,5,1,2,3,3,2,4,1,4,2,2,1,6,2,2,2,4,1,5,2,3,2,2,2,6,1,3,2,4,1,4,1,4",
			"name": "Number of ways to write n as i*j+i-j, 0\u003ci\u003cj.",
			"link": [
				"Reinhard Zumkeller, \u003ca href=\"/A081757/b081757.txt\"\u003eTable of n, a(n) for n = 1..1000\u003c/a\u003e"
			],
			"formula": [
				"G.f.: Sum(x^(n^2+3*n)/(1-x^n),n = 1 .. infinity). - _Vladeta Jovovic_, May 13 2008"
			],
			"example": [
				"n=25 = 2*23+2-23 = 3*11+3-11 = 4*7+4-7, therefore a(25)=3."
			],
			"program": [
				"(Haskell)",
				"a081757 n = length [() | j \u003c- [2..n], i \u003c- [1..j-1], i * j + i - j == n]",
				"-- _Reinhard Zumkeller_, May 24 2013"
			],
			"xref": [
				"Cf. A072670."
			],
			"keyword": "nonn",
			"offset": "1,11",
			"author": "_Reinhard Zumkeller_, Apr 08 2003",
			"references": 4,
			"revision": 9,
			"time": "2013-05-24T21:29:07-04:00",
			"created": "2003-05-16T03:00:00-04:00"
		}
	]
}