{
	"greeting": "Greetings from The On-Line Encyclopedia of Integer Sequences! http://oeis.org/",
	"query": "id:A082003",
	"count": 1,
	"start": 0,
	"results": [
		{
			"number": 82003,
			"data": "1,2,4,8,16,20,32,34,46,52,58,62,64,74,94,106,122,128,134,136,146,158,166,178,184,194,206,214,218,226,232,254,256,262,278,298,302,314,326,334,346,358,362,376,382,386,394,398,422,424,446,454,458,464,466,478",
			"name": "First row of array in A082002.",
			"xref": [
				"Cf. A082002, A082004, A082005."
			],
			"keyword": "nonn",
			"offset": "1,2",
			"author": "_Amarnath Murthy_, Apr 05 2003",
			"ext": [
				"More terms from _David Wasserman_, Jul 30 2004"
			],
			"references": 7,
			"revision": 4,
			"time": "2013-12-05T19:56:03-05:00",
			"created": "2003-05-16T03:00:00-04:00"
		}
	]
}