{
	"greeting": "Greetings from The On-Line Encyclopedia of Integer Sequences! http://oeis.org/",
	"query": "id:A082879",
	"count": 1,
	"start": 0,
	"results": [
		{
			"number": 82879,
			"data": "1,3,30,675,2428956,289620751,10953617995740,3175094503778521",
			"name": "Number of primes not exceeding factorial of n-th prime.",
			"link": [
				"Tomás Oliveira e Silva, \u003ca href=\"http://sweet.ua.pt/tos/primes.html\"\u003eTables of values of pi(x) and of pi2(x)\u003c/a\u003e [From _Donovan Johnson_, Feb 18 2010]"
			],
			"formula": [
				"a(n)=A000720[A000142[A000040(n)]]"
			],
			"mathematica": [
				"Table[PrimePi[Prime[j]! ], {j, 1, 6}]"
			],
			"xref": [
				"Cf. A000720, A000142, A000040."
			],
			"keyword": "easy,nonn",
			"offset": "1,2",
			"author": "_Labos Elemer_, Apr 16 2003",
			"ext": [
				"a(7) from _Donovan Johnson_, Dec 15 2009",
				"a(8) from _Donovan Johnson_, Feb 18 2010"
			],
			"references": 0,
			"revision": 8,
			"time": "2015-04-07T10:50:20-04:00",
			"created": "2003-05-16T03:00:00-04:00"
		}
	]
}