{
	"greeting": "Greetings from The On-Line Encyclopedia of Integer Sequences! http://oeis.org/",
	"query": "id:A082107",
	"count": 1,
	"start": 0,
	"results": [
		{
			"number": 82107,
			"data": "1,2,8,28,79,190,406,792,1437,2458,4004,6260,9451,13846,19762,27568,37689,50610,66880,87116,112007,142318,178894,222664,274645,335946,407772,491428,588323,699974,828010,974176,1140337,1328482,1540728",
			"name": "Diagonal sums of number array A082105.",
			"link": [
				"\u003ca href=\"/index/Rec#order_06\"\u003eIndex entries for linear recurrences with constant coefficients\u003c/a\u003e, signature (6,-15,20,-15,6,-1)."
			],
			"formula": [
				"a(n)=(n^5+20n^3+9n+30)/30.",
				"G.f.: (1-4*x+11*x^2-10*x^3+6*x^4)/(x-1)^6 . - _R. J. Mathar_, Mar 27 2019"
			],
			"xref": [
				"Cf. A082045."
			],
			"keyword": "easy,nonn",
			"offset": "0,2",
			"author": "_Paul Barry_, Apr 03 2003",
			"references": 3,
			"revision": 7,
			"time": "2019-03-27T13:20:31-04:00",
			"created": "2003-05-16T03:00:00-04:00"
		}
	]
}