{
	"greeting": "Greetings from The On-Line Encyclopedia of Integer Sequences! http://oeis.org/",
	"query": "id:A082908",
	"count": 1,
	"start": 0,
	"results": [
		{
			"number": 82908,
			"data": "1,1,2,1,4,2,4,1,8,4,8,2,8,4,8,1,16,8,16,4,16,8,16,2,16,8,16,4,16,8,16,1,32,16,32,8,32,16,32,4,32,16,32,8,32,16,32,2,32,16,32,8,32,16,32,4,32,16,32,8,32,16,32,1,64,32,64,16,64,32,64,8,64,32,64,16,64,32,64,4,64,32",
			"name": "Largest value of gcd(2^n, binomial(n,j)) with j=0..n-1; maximal value of largest power of 2 dividing binomial(n,j) in the n-th row of Pascal's triangle.",
			"formula": [
				"a(n) = Max_{gcd(2^n, binomial(n, j)), j=0..n}.",
				"a(n-1) = 2^floor(log_2(A000265(n))). - _Brad Clardy_, May 06 2013"
			],
			"example": [
				"n=10: 10th row = {1,10,45,120,210,252,210,120,45,10,1}, largest powers of 2 dividing entries: {1,2,1,8,2,4,2,8,1,2,1}; maximal 2^k-divisor is a(10)=8."
			],
			"mathematica": [
				"Table[Max[Table[GCD[2^n, Binomial[n, j]], {j, 0, n}]], {n, 0, 128}]"
			],
			"program": [
				"(PARI) a(n)=n--; 2^(log(n\u003e\u003evaluation(n, 2)+.5)\\log(2)) \\\\ _Charles R Greathouse IV_, May 06 2013"
			],
			"xref": [
				"Cf. A000005, A007318, A000079, A082907, A000265."
			],
			"keyword": "nonn,tabl",
			"offset": "0,3",
			"author": "_Labos Elemer_, Apr 23 2003",
			"references": 1,
			"revision": 22,
			"time": "2019-10-26T18:00:18-04:00",
			"created": "2003-05-16T03:00:00-04:00"
		}
	]
}