{
	"greeting": "Greetings from The On-Line Encyclopedia of Integer Sequences! http://oeis.org/",
	"query": "id:A082920",
	"count": 1,
	"start": 0,
	"results": [
		{
			"number": 82920,
			"data": "4,9,16,169,361,729,961,1444,10201,403225,725904",
			"name": "Squares that are the sum of four factorials.",
			"example": [
				"These appear to be the only solutions to a! + b! + c! + d! = n^2:",
				"a b c d n",
				"0 0 0 0 4",
				"0 0 0 1 4",
				"0 0 0 3 9",
				"0 0 1 1 4",
				"0 0 1 3 9",
				"0 1 1 1 4",
				"0 1 1 3 9",
				"0 2 3 6 729",
				"0 4 4 5 169",
				"0 4 8 9 403225",
				"0 5 5 5 361",
				"0 5 5 6 961",
				"0 5 7 7 10201",
				"1 1 1 1 4",
				"1 1 1 3 9",
				"1 2 3 6 729",
				"1 4 4 5 169",
				"1 4 8 9 403225",
				"1 5 5 5 361",
				"1 5 5 6 961",
				"1 5 7 7 10201",
				"2 2 3 3 16",
				"2 2 6 6 1444",
				"4 5 9 9 725904",
				"1!+2!+3!+6! = 729 = 27^2. This shows that 4 factorials can add to a cube."
			],
			"mathematica": [
				"e = 75; a = Union[ Flatten[ Table[a! + b! + c! + d!, {a, 1, e}, {b, a, e}, {c, b, e}, {d, c, e}]]]; l = Length[a]; Do[ If[ IntegerQ[ Sqrt[ a[[i]] ]], Print[ a[[i]] ]], {i, 1, l}]",
				"Select[Union[Total/@Tuples[Range[10]!,4]],IntegerQ[Sqrt[#]]\u0026] (* _Harvey P. Dale_, Aug 23 2014 *)"
			],
			"program": [
				"(PARI) sum4factsq(n) = { for(a1=0,n, for(a2=a1,n, for(a3=a2,n, for(a4=a3,n, z = a1!+a2!+a3!+a4!; if(issquare(z),print(a1\" \"a2\" \"a3\" \"a4\" \"z)) ) ) ) ) }"
			],
			"xref": [
				"Cf. A082875."
			],
			"keyword": "easy,nonn",
			"offset": "0,1",
			"author": "_Cino Hilliard_, May 25 2003",
			"ext": [
				"Edited, corrected and extended by _Robert G. Wilson v_, May 26 2003"
			],
			"references": 1,
			"revision": 6,
			"time": "2014-08-23T17:44:17-04:00",
			"created": "2003-09-13T03:00:00-04:00"
		}
	]
}