{
	"greeting": "Greetings from The On-Line Encyclopedia of Integer Sequences! http://oeis.org/",
	"query": "id:A082599",
	"count": 1,
	"start": 0,
	"results": [
		{
			"number": 82599,
			"data": "3,7,11,131,151,919,10301,10501,10601,12421,13331,13931,14341,16061,16561,30203,30403,30703",
			"name": "Palindromic prime units W appearing four times in second order fractal palindromic primes WxWmWxW.",
			"example": [
				"919 is in the sequence because this palindromic prime builds up the second order fractal palindromic prime 919691979196919."
			],
			"keyword": "more,base,nonn",
			"offset": "1,1",
			"author": "_Lekraj Beedassy_, May 14 2003",
			"references": 1,
			"revision": 4,
			"time": "2012-03-31T10:26:01-04:00",
			"created": "2003-05-16T03:00:00-04:00"
		}
	]
}