{
	"greeting": "Greetings from The On-Line Encyclopedia of Integer Sequences! http://oeis.org/",
	"query": "id:A082064",
	"count": 1,
	"start": 0,
	"results": [
		{
			"number": 82064,
			"data": "1,1,2,1,2,2,2,1,1,2,2,2,2,3,2,1,2,3,2,2,2,2,2,2,1,3,2,2,2,2,2,1,2,2,3,1,2,3,2,2,2,3,2,2,3,2,2,2,3,1,2,2,2,3,2,3,2,2,2,2,2,3,2,1,3,2,2,2,2,3,2,3,2,3,2,2,3,3,2,2,1,2,2,2,2,3,2,5,2,3,2,2,2,2,3,2,2,3,3,1,2,2,2,3,3",
			"name": "Greatest common prime-divisor of phi(n) and sigma(n) = A000203(n); a(n)=1 if no common prime-divisor was found.",
			"link": [
				"Antti Karttunen, \u003ca href=\"/A082064/b082064.txt\"\u003eTable of n, a(n) for n = 1..16384\u003c/a\u003e"
			],
			"formula": [
				"a(n) = A006530(A009223(n)). - _Antti Karttunen_, Nov 03 2017"
			],
			"mathematica": [
				"ffi[x_] := Flatten[FactorInteger[x]]; lf[x_] := Length[FactorInteger[x]]; ba[x_] := Table[Part[ffi[x], 2*w-1], {w, 1, lf[x]}]; f1[x_] := EulerPhi[n]; f2[x_] := DivisorSigma[1, x]; Table[Max[Intersection[ba[f1[w]], ba[f2[w]]]], {w, 1, 128}]",
				"(* Second program: *)",
				"Array[If[CoprimeQ[#1, #2], 1, Max@ Apply[Intersection, Map[FactorInteger[#][[All, 1]] \u0026, {#1, #2}]]] \u0026 @@ {EulerPhi@ #, DivisorSigma[1, #]} \u0026, 105] (* _Michael De Vlieger_, Nov 03 2017 *)"
			],
			"program": [
				"(PARI)",
				"A006530(n) = if(1==n, n, vecmax(factor(n)[, 1]));",
				"A082064(n) = A006530(gcd(eulerphi(n), sigma(n))); \\\\ _Antti Karttunen_, Nov 03 2017"
			],
			"xref": [
				"Cf. A000010, A000203, A006530, A009223.",
				"Cf. also A082061, A082062, A082063, A082065, A082066, A082070."
			],
			"keyword": "nonn",
			"offset": "1,3",
			"author": "_Labos Elemer_, Apr 07 2003",
			"references": 4,
			"revision": 13,
			"time": "2017-11-06T02:48:50-05:00",
			"created": "2003-05-16T03:00:00-04:00"
		}
	]
}