{
	"greeting": "Greetings from The On-Line Encyclopedia of Integer Sequences! http://oeis.org/",
	"query": "id:A082068",
	"count": 1,
	"start": 0,
	"results": [
		{
			"number": 82068,
			"data": "1,1,1,1,1,2,1,1,1,2,1,2,1,2,3,1,1,3,1,2,1,2,1,2,1,2,1,2,1,2,1,1,3,2,1,1,1,2,1,2,1,2,1,2,3,2,1,2,1,1,3,2,1,2,1,2,1,2,1,2,1,2,1,1,1,2,1,2,3,2,1,3,1,2,1,2,1,2,1,2,1,2,1,2,1,2,3,2,1,2,7,2,1,2,5,2,1,1,3,1,1,2,1,2,3",
			"name": "Smallest common prime-divisor of n and sigma(n) = A000203(n); a(n)=1 if no common prime-divisor was found.",
			"link": [
				"Antti Karttunen, \u003ca href=\"/A082068/b082068.txt\"\u003eTable of n, a(n) for n = 1..16384\u003c/a\u003e"
			],
			"formula": [
				"a(n) = A020639(A009194(n)). - _Antti Karttunen_, Nov 03 2017"
			],
			"mathematica": [
				"ffi[x_] := Flatten[FactorInteger[x]]; lf[x_] := Length[FactorInteger[x]]; ba[x_] := Table[Part[ffi[x], 2*w-1], {w, 1, lf[x]}]; f1[x_] := n; f2[x_] := DivisorSigma[1, x]; Table[Min[Intersection[ba[f1[w]], ba[f2[w]]]], {w, 1, 128}]",
				"(* Second program: *)",
				"Array[If[CoprimeQ[#1, #2], 1, Min@ Apply[Intersection, Map[FactorInteger[#][[All, 1]] \u0026, {#1, #2}]]] \u0026 @@ {#, DivisorSigma[1, #]} \u0026, 105] (* _Michael De Vlieger_, Nov 03 2017 *)"
			],
			"program": [
				"(PARI)",
				"A020639(n) = if(1==n,n,vecmin(factor(n)[, 1]));",
				"A082068(n) = A020639(gcd(sigma(n), n)); \\\\ _Antti Karttunen_, Nov 03 2017"
			],
			"xref": [
				"Cf. A000203, A009194, A020639.",
				"Cf. also A082062, A082067, A082069, A082070, A082071, A082072."
			],
			"keyword": "nonn",
			"offset": "1,6",
			"author": "_Labos Elemer_, Apr 07 2003",
			"references": 6,
			"revision": 12,
			"time": "2017-11-03T18:57:46-04:00",
			"created": "2003-05-16T03:00:00-04:00"
		}
	]
}