{
	"greeting": "Greetings from The On-Line Encyclopedia of Integer Sequences! http://oeis.org/",
	"query": "id:A082845",
	"count": 1,
	"start": 0,
	"results": [
		{
			"number": 82845,
			"data": "2,5,7,10,12,14,17,19,22,24,26,29,31,34,36,39,41,43,46,48,51,53,55,58,60,63,65,68,70,72,75,77,80,82,84,87,89,92,94,96,99,101,104,106,109,111,113,116,118,121,123,125,128,130,133,135,138,140,142,145,147,150,152",
			"name": "Partial sums of A082844.",
			"formula": [
				"a(n)=1+floor((1+sqrt(2))*n-(2-sqrt(2)))"
			],
			"xref": [
				"Not the same as A003153."
			],
			"keyword": "nonn",
			"offset": "1,1",
			"author": "_Benoit Cloitre_, Apr 14 2003",
			"references": 1,
			"revision": 6,
			"time": "2012-03-30T18:39:17-04:00",
			"created": "2003-05-16T03:00:00-04:00"
		}
	]
}