{
	"greeting": "Greetings from The On-Line Encyclopedia of Integer Sequences! http://oeis.org/",
	"query": "id:A082240",
	"count": 1,
	"start": 0,
	"results": [
		{
			"number": 82240,
			"data": "12,34,567,8,90,12,34567890,123456,789012,34567890,123456789012345678901",
			"name": "Break up the cyclic concatenation 1234567890123456789023... into parts nontrivially (a(n) is not equal to n) such that the n-th part is a multiple of n.",
			"comment": [
				"a(12) does not exist: 23 mod 12, 234 mod 12, 2345 mod 12, ... is periodic and does not contain 0. - _Sam Alexander_, Feb 23 2004"
			],
			"xref": [
				"Cf. A082241."
			],
			"keyword": "base,fini,full,nonn",
			"offset": "1,1",
			"author": "_Amarnath Murthy_, Apr 11 2003",
			"ext": [
				"More terms from _Sam Alexander_, Feb 23 2004"
			],
			"references": 1,
			"revision": 9,
			"time": "2020-05-24T04:00:11-04:00",
			"created": "2003-05-16T03:00:00-04:00"
		}
	]
}