{
	"greeting": "Greetings from The On-Line Encyclopedia of Integer Sequences! http://oeis.org/",
	"query": "id:A082480",
	"count": 1,
	"start": 0,
	"results": [
		{
			"number": 82480,
			"data": "1,2,4,12,48,288,2592,36288,798336,27941760,1564738560,140826470400,20419838208000,4778242140672000,1806175529174016000,1103573248325323776000,1090330369345419890688000",
			"name": "a(n) = Product_{k=1..n} (F(k)+1) where F(k) denotes the k-th Fibonacci number.",
			"comment": [
				"Equals row sums (unsigned) of triangle A158472. - _Gary W. Adamson_, Mar 20 2009"
			],
			"formula": [
				"a(n) ~ f * C * ((1+sqrt(5))/2)^(n*(n+1)/2) / 5^(n/2), where C = A062073 = 1.2267420107203532444176302304553616558714096904402504196432973... is the Fibonacci factorial constant and f = Product_{k\u003e=1} (1 + 1/Fibonacci(k)) = 13.150966657784184367612433370626658932190199543164284701354100747157698046... . - _Vaclav Kotesovec_, Jul 19 2015"
			],
			"maple": [
				"with(combinat): a:= n-\u003emul(fibonacci(j)+1, j=0..n): seq(a(n), n=0..20); # _Zerinvary Lajos_, Mar 29 2009"
			],
			"mathematica": [
				"Table[Product[Fibonacci[k]+1,{k,1,n}],{n,0,20}] (* _Vaclav Kotesovec_, Jul 19 2015 *)"
			],
			"program": [
				"(PARI) a(n)=prod(k=1,n,fibonacci(k)+1)"
			],
			"xref": [
				"Cf. A000045, A158472. [_Gary W. Adamson_, Mar 20 2009]"
			],
			"keyword": "nonn",
			"offset": "0,2",
			"author": "_Benoit Cloitre_, Apr 27 2003",
			"references": 4,
			"revision": 14,
			"time": "2016-11-06T19:15:13-05:00",
			"created": "2003-05-16T03:00:00-04:00"
		}
	]
}