{
	"greeting": "Greetings from The On-Line Encyclopedia of Integer Sequences! http://oeis.org/",
	"query": "id:A082866",
	"count": 1,
	"start": 0,
	"results": [
		{
			"number": 82866,
			"data": "1,2,3,4,10,11,31,45,93,128,328,370,1026,1461,2898,4390,10801,12197,33799,46082,96616,145278,355574,401570,1063600,1563754,3226314,4694447,11660833,12062393,35384059,51835986,106656033,158481218,369773689",
			"name": "a(1)=1, a(2)=2, otherwise a(n) is the sum of the preceding terms a(j), 1\u003c=j\u003cn, where gcd(n,j)=1.",
			"comment": [
				"It appears that log(a(n))/n approaches a constant, approximately 0.5815, as n -\u003e infinity. - _Robert Israel_, Aug 05 2014"
			],
			"link": [
				"Robert Israel, \u003ca href=\"/A082866/b082866.txt\"\u003eTable of n, a(n) for n = 1..3560\u003c/a\u003e"
			],
			"example": [
				"a(6)=11 as gcd(6,2)=2, gcd(6,3)=3 and gcd(6,4)=2. So a(6)=a(1)+a(5)=1+10=11."
			],
			"maple": [
				"A[1]:= 1: A[2]:= 2:",
				"for n from 3 to 100 do",
				"A[n]:= add(A[j], j=select(t -\u003e igcd(t,n)=1, [$1..n]));",
				"od:",
				"seq(A[n],n=1..100); # _Robert Israel_, Aug 05 2014"
			],
			"program": [
				"(PARI) { v=vector(100,i,0); v[1]=1; v[2]=2; print1(\"1,2,\"); for (i=3,100, for (j=1,i-1, if (gcd(i,j) == 1,v[i]+=v[j])); print1(v[i]\",\")) }"
			],
			"keyword": "nonn",
			"offset": "1,2",
			"author": "_Jon Perry_, May 24 2003",
			"references": 1,
			"revision": 20,
			"time": "2014-08-08T04:02:11-04:00",
			"created": "2003-09-13T03:00:00-04:00"
		}
	]
}