{
	"greeting": "Greetings from The On-Line Encyclopedia of Integer Sequences! http://oeis.org/",
	"query": "id:A082418",
	"count": 1,
	"start": 0,
	"results": [
		{
			"number": 82418,
			"data": "3,5,7,11,15,17,19,23,26,29,31,35,39,41,44,47,49,51,53,55,59,63,65,67,69,71,74,76,80,83,87,89,95,97,99,101,104,107,109,111,113,116,119,124,127,129,131,134,137,139,143,146,149,153,155,159,161,164,167,174,179,181,183",
			"name": "Numbers n such that P(n) \u003e P(n+1) \u003c P(n+2), where P(n) = largest prime factor of n (A006530).",
			"reference": [
				"Antal Balog, On the largest prime factor of consecutive integers, Abstracts Amer. Math. Soc., 25 (No. 2, 2002), p. 337, #975-11-76."
			],
			"link": [
				"T. D. Noe, \u003ca href=\"/A082418/b082418.txt\"\u003eTable of n, a(n) for n = 1..1000\u003c/a\u003e",
				"P. Erdős and C. Pomerance, \u003ca href=\"http://www.math.dartmouth.edu/~carlp/PDF/paper17.pdf\"\u003eOn the largest prime factors of n and n+1\u003c/a\u003e, Aequationes Math. 17 (1978), p. 311-321. [\u003ca href=\"http://www.renyi.hu/~p_erdos/1978-29.pdf\"\u003ealternate link\u003c/a\u003e]"
			],
			"formula": [
				"a(n) = A100390(n) - 1. - T. D. Noe, Nov 26 2007"
			],
			"mathematica": [
				"Flatten[Position[Partition[Table[FactorInteger[n][[-1,1]],{n,200}],3,1], _?(#[[1]]\u003e #[[2]] \u003c#[[3]]\u0026),{1},Heads-\u003eFalse]] (* _Harvey P. Dale_, Jan 10 2016 *)"
			],
			"xref": [
				"Cf. A006530, A082417-A082422, A071869, A071870."
			],
			"keyword": "nonn",
			"offset": "1,1",
			"author": "_N. J. A. Sloane_, Apr 25 2003",
			"references": 4,
			"revision": 10,
			"time": "2016-01-10T11:42:31-05:00",
			"created": "2003-05-16T03:00:00-04:00"
		}
	]
}