{
	"greeting": "Greetings from The On-Line Encyclopedia of Integer Sequences! http://oeis.org/",
	"query": "id:A082132",
	"count": 1,
	"start": 0,
	"results": [
		{
			"number": 82132,
			"data": "5,13,47,673,1093,4789,15887,6961,7079,1853387,5636791,16319158451,46975091221,97536826417,9513432505744326182381,2335222008886384800739,7440517660385876970522347503153,83914607657246408236765553419",
			"name": "a(0) = 5; for n \u003e 0, a(n) is the greatest prime factor of PP(a(n-1))*a(n-1)-2 where PP(n) is an abbreviation for PreviousPrime(n).",
			"comment": [
				"Some of the larger entries may only correspond to probable primes."
			],
			"program": [
				"(PARI) p=5;for(k=1,20,print1(p,\",\");p=precprime(p-1)*p-2;f=factor(p);s=matsize(f)[1];p=f[s,1]) (Shepherd)"
			],
			"xref": [
				"Cf. A082021, A031441, A031442."
			],
			"keyword": "nonn",
			"offset": "0,1",
			"author": "_Yasutoshi Kohmoto_, May 10 2003",
			"ext": [
				"Edited by _Rick L. Shepherd_, Dec 19 2004"
			],
			"references": 1,
			"revision": 5,
			"time": "2016-04-19T01:07:33-04:00",
			"created": "2003-05-16T03:00:00-04:00"
		}
	]
}