{
	"greeting": "Greetings from The On-Line Encyclopedia of Integer Sequences! http://oeis.org/",
	"query": "id:A082872",
	"count": 1,
	"start": 0,
	"results": [
		{
			"number": 82872,
			"data": "1,4,27,32,3125,793,823543,768,39366,9766649,285311670611,539633,302875106592253,678223089233,30531927032,262144,827240261886336764177,775103122,1978419655660313589123979,95367433737777,558545874543637210",
			"name": "a^n + b^n + c^n + ..., where a*b*c* ... is the prime factorization of n.",
			"comment": [
				"n*log_10(2) + log_10(log_2(n)) \u003c= length(a(n)) \u003c= n*log_10(n). - Martin Renner, Jan 18 2012",
				"If m = p^k is a power of a prime then a(n) = sum(p^m,i=1..k) = k*p^m is composite. - Martin Renner, Jan 31 2013"
			],
			"link": [
				"T. D. Noe, \u003ca href=\"/A082872/b082872.txt\"\u003eTable of n, a(n) for n = 1..100\u003c/a\u003e"
			],
			"example": [
				"a(6) = a(2*3) = 2^6 + 3^6 = 793.",
				"a(8) = a(2*2*2) = 2^8 + 2^8 + 2^8 = 768."
			],
			"maple": [
				"A082872 := proc(n)",
				"    local ps;",
				"    if n= 1 then",
				"        1;",
				"    else",
				"        ps := ifactors(n)[2] ;",
				"        add( op(2,p)*op(1,p)^n,p=ps) ;",
				"    end if;",
				"end proc: # _R. J. Mathar_, Mar 12 2014"
			],
			"mathematica": [
				"Table[f = FactorInteger[n]; Total[Flatten[Table[Table[f[[i, 1]], {f[[i, 2]]}], {i, Length[f]}]]^n], {n, 25}] (* _T. D. Noe_, Feb 01 2013 *)",
				"Table[Total[Flatten[Table[#[[1]],#[[2]]]\u0026/@FactorInteger[n]]^n],{n,30}] (* _Harvey P. Dale_, Jun 10 2016 *)"
			],
			"xref": [
				"Cf. A082813, A082814, A051674."
			],
			"keyword": "nonn,easy",
			"offset": "1,2",
			"author": "_Jason Earls_, May 25 2003",
			"references": 4,
			"revision": 26,
			"time": "2017-12-15T17:36:11-05:00",
			"created": "2003-09-13T03:00:00-04:00"
		}
	]
}