{
	"greeting": "Greetings from The On-Line Encyclopedia of Integer Sequences! http://oeis.org/",
	"query": "id:A082686",
	"count": 1,
	"start": 0,
	"results": [
		{
			"number": 82686,
			"data": "15,21,27,33,35,39,45,51,55,57,63,65,69,75,77,85,87,91,93,95,99,105,111,115,117,119,123,125,129,133,135,141,143,145,147,153,155,159,161,165,171,175,177,183,185,187,189,195,201,203,205,207,209,213,215,217,219",
			"name": "Odd nonprime integers n which have an odd number of proper divisors.",
			"comment": [
				"Odd nonprime numbers with even abundance and even sigma. Is their abundance always negative; i.e. are they always deficient? - _Labos Elemer_, Oct 28 2003",
				"Odd nonprime nonsquares. - _Vladeta Jovovic_, Jan 25 2004"
			],
			"link": [
				"Harvey P. Dale, \u003ca href=\"/A082686/b082686.txt\"\u003eTable of n, a(n) for n = 1..1000\u003c/a\u003e",
				"Eric Weisstein's World of Mathematics, \u003ca href=\"http://mathworld.wolfram.com/UnsolvedProblems.html\"\u003eUnsolved Problems\u003c/a\u003e (see #17). [Today this web page has only 16 sections, so this link is no longer useful. - _N. J. A. Sloane_, Nov 26 2019]"
			],
			"example": [
				"a(1) = 15 since 15 is the first odd nonprime number with an odd number of proper divisors.",
				"n, #proper divisors, #divisors:",
				"9,  2, {1, 3}",
				"15, 3, {1, 3, 5}"
			],
			"mathematica": [
				"Select[Range[1,221,2],!PrimeQ[#]\u0026\u0026EvenQ[DivisorSigma[0,#]]\u0026] (* _Harvey P. Dale_, Dec 16 2015 *)"
			],
			"program": [
				"(PARI) isok(n) = (n % 2) \u0026\u0026 (! isprime(n)) \u0026\u0026 ((numdiv(n) % 2) == 0) \\\\ _Michel Marcus_, Jun 10 2013"
			],
			"xref": [
				"Cf. A000396, A001065."
			],
			"keyword": "easy,nonn",
			"offset": "1,1",
			"author": "Anne Donovan (anned3005(AT)aol.com), May 19 2003",
			"ext": [
				"Definition corrected by _Zak Seidov_, Jul 21 2009"
			],
			"references": 3,
			"revision": 24,
			"time": "2019-11-26T18:14:12-05:00",
			"created": "2003-09-13T03:00:00-04:00"
		}
	]
}