{
	"greeting": "Greetings from The On-Line Encyclopedia of Integer Sequences! http://oeis.org/",
	"query": "id:A082484",
	"count": 1,
	"start": 0,
	"results": [
		{
			"number": 82484,
			"data": "3,53,71,97,109,127,137,149,151,179,197,239,293,311,401,419,431,439,457,467,503,557,563,601,619,641,643,653,673,769,887,907,971,991,1021,1031,1093,1103,1123,1151,1297,1361,1367,1373,1427,1447,1459,1471,1481",
			"name": "First of four consecutive primes p, q, r, s such that neither of the congruences p^x+q^x = r (mod s) and q^x-p^x = r (mod s) has a solution.",
			"comment": [
				"Is this sequence infinite?"
			],
			"formula": [
				"a(n) = prime(A082475(n))."
			],
			"example": [
				"2 is not in the sequence because 2^1+3^1 = 5 (mod 7).",
				"17 is not in the sequence because 19^4-17^4 = 23 (mod 29)."
			],
			"program": [
				"(PARI) { for (p = 1, 300, f = 0; for (x = 1, prime(p + 3) - 1, if ((prime(p + 1)^x + prime(p)^x - prime(p + 2))%prime(p + 3) == 0 || (prime(p + 1)^x - prime(p)^x - prime(p + 2))%prime(p + 3) == 0, f = 1; break)); if (f == 0, print(prime(p)))) }"
			],
			"xref": [
				"Cf. A082371, A082475."
			],
			"keyword": "easy,nonn,less",
			"offset": "1,1",
			"author": "_Cino Hilliard_, May 11 2003",
			"ext": [
				"Edited and extended by _David Wasserman_, Oct 12 2006"
			],
			"references": 1,
			"revision": 4,
			"time": "2013-10-01T17:57:37-04:00",
			"created": "2003-05-16T03:00:00-04:00"
		}
	]
}