{
	"greeting": "Greetings from The On-Line Encyclopedia of Integer Sequences! http://oeis.org/",
	"query": "id:A082877",
	"count": 1,
	"start": 0,
	"results": [
		{
			"number": 82877,
			"data": "1,2,3,6,12,21,42,84,147,294",
			"name": "a(n) = A002884(n) / A070731(n).",
			"link": [
				"Kent E. Morrison, \u003ca href=\"https://cs.uwaterloo.ca/journals/JIS/VOL9/Morrison/morrison37.html\"\u003eInteger Sequences and Matrices Over Finite Fields\u003c/a\u003e, Journal of Integer Sequences, Vol. 9 (2006), Article 06.2.1."
			],
			"xref": [
				"Cf. A002884, A070731."
			],
			"keyword": "nonn,more",
			"offset": "1,2",
			"author": "Yuval Dekel (dekelyuval(AT)hotmail.com), May 25 2003",
			"ext": [
				"a(10) from _Jinyuan Wang_, Mar 02 2020"
			],
			"references": 1,
			"revision": 9,
			"time": "2020-03-02T23:28:29-05:00",
			"created": "2003-09-13T03:00:00-04:00"
		}
	]
}