{
	"greeting": "Greetings from The On-Line Encyclopedia of Integer Sequences! http://oeis.org/",
	"query": "id:A082728",
	"count": 1,
	"start": 0,
	"results": [
		{
			"number": 82728,
			"data": "5,7,8,11,13,15,18,21,23,24,29,34,36,37,39,47,55,57,58,60,63,76,89,91,92,94,97,102,123,144,146,147,149,152,157,165,199,233,235,236,238,241,246,254,267",
			"name": "Numbers expressible as a sum of 2 Fibonacci numbers in exactly 1 way.",
			"comment": [
				"n such that card( (k,l); 0\u003c=k\u003c=l : n=F(k)+F(l)) = 1"
			],
			"keyword": "nonn",
			"offset": "1,1",
			"author": "_Benoit Cloitre_, Apr 13 2003",
			"references": 0,
			"revision": 6,
			"time": "2012-03-30T18:39:17-04:00",
			"created": "2003-05-16T03:00:00-04:00"
		}
	]
}