{
	"greeting": "Greetings from The On-Line Encyclopedia of Integer Sequences! http://oeis.org/",
	"query": "id:A082671",
	"count": 1,
	"start": 0,
	"results": [
		{
			"number": 82671,
			"data": "3,4,5,6,9,31,41,373,589,812,989,1115,1488,1864,1918,4412,4686,5821,13830",
			"name": "Numbers n such that (n!-2)/2 is a prime.",
			"example": [
				"(4!-2)/2 = 11 is a prime."
			],
			"mathematica": [
				"Select[Range[0, 14000], PrimeQ[(#! - 2) / 2] \u0026] (* _Vincenzo Librandi_, Feb 18 2015 *)"
			],
			"program": [
				"(PARI) xfactpk(n,k=2) = { for(x=2,n, y = (x!-k)/k; if(isprime(y),print1(x\", \")) ) }",
				"(MAGMA) [n: n in [1..600]| IsPrime((Factorial(n)-2) div 2)]; // _Vincenzo Librandi_, Feb 18 2015"
			],
			"xref": [
				"Cf. n!/m-1 is a prime: A002982, A082671, A139056, A139199, A139200, A139201, A139202, A139203, A139204, A139205; n!/m+1 is a prime: A002981, A082672, A089085, A139061, A139058, A139063, A139065, A151913, A137390, A139071"
			],
			"keyword": "hard,more,nonn",
			"offset": "1,1",
			"author": "_Cino Hilliard_, May 18 2003",
			"ext": [
				"More terms from Herman Jamke (hermanjamke(AT)fastmail.fm), Jan 03 2008",
				"Edited by _T. D. Noe_, Oct 30 2008"
			],
			"references": 20,
			"revision": 17,
			"time": "2015-02-19T00:06:34-05:00",
			"created": "2003-09-13T03:00:00-04:00"
		}
	]
}