{
	"greeting": "Greetings from The On-Line Encyclopedia of Integer Sequences! http://oeis.org/",
	"query": "id:A082812",
	"count": 1,
	"start": 0,
	"results": [
		{
			"number": 82812,
			"data": "4,5,6,9,10,14,18,21,22,25,29,34,36,37,42,45,46,56,60,61,70,76,77,86,88,90,104,105,106,122,126,128,129,133,136,142,172,177,178,209,210,212,245,246,257,258,270,304,306,308,309,326,373,376,378,380,384,385,388,389",
			"name": "Positions of sign changes in running sum of mu(k)/k: n such that sign(Sum(k=1..n; mu(k)/k)) \u003c\u003e sign(Sum(k=1..n+1; mu(k)/k)).",
			"example": [
				"The running sums of mu(k)/k are 1, 1/2, 1/6, 1/6, -(1/30), 2/15, -(1/105), -(1/105), so the 4th, 5th and 6th terms precede a sign change."
			],
			"mathematica": [
				"cum=0; res={}; Do[cum += MoebiusMu[k]/k; If[Sign[cum+MoebiusMu[k+1]/(k+1)] =!= Sign[cum], AppendTo[res, k]], {k, 1, 1000}]; res"
			],
			"keyword": "easy,nonn",
			"offset": "1,1",
			"author": "_Wouter Meeussen_, May 24 2003",
			"references": 0,
			"revision": 4,
			"time": "2012-03-30T18:37:43-04:00",
			"created": "2003-09-13T03:00:00-04:00"
		}
	]
}