{
	"greeting": "Greetings from The On-Line Encyclopedia of Integer Sequences! http://oeis.org/",
	"query": "id:A082873",
	"count": 1,
	"start": 0,
	"results": [
		{
			"number": 82873,
			"data": "1,1,3,6,8,12,15,19,25,30,36,42,49,55,63,72,80,90,99,109,121,132,144,156,169,181,195,210,224,240,255,271,289,306,324,342,361,379,399,420,440,462,483,505,529,552,576,600,625,649,675,702,728",
			"name": "Independence number of king KG_2 on triangle board B_n.",
			"link": [
				"Vincenzo Librandi, \u003ca href=\"/A082873/b082873.txt\"\u003eTable of n, a(n) for n = 1..1000\u003c/a\u003e",
				"J.-J. Bode, H. Harborth and M. Harborth, \u003ca href=\"http://dx.doi.org/10.1016/S0012-365X(02)00825-7\"\u003eKing independence on triangle boards\u003c/a\u003e, Discr. Math., 266 (2003), 101-107.",
				"\u003ca href=\"/index/Rec\"\u003eIndex entries for linear recurrences with constant coefficients\u003c/a\u003e, signature (2,-1,0,0,0,0,0,0,0,0,0,1,-2,1)."
			],
			"formula": [
				"a(n) = floor((n+1)^2/4) if n == 0, 1, 4, 6, 9, 10, 11 (mod 12), a(n) = floor((n+1)^2/4) - 1 otherwise.",
				"a(n)= +2*a(n-1) -a(n-2) +a(n-12) -2*a(n-13) +a(n-14). - _R. J. Mathar_, Aug 05 2014",
				"G.f.: -x*(1-x+2*x^2-x^4+2*x^5-x^6+x^7+2*x^8-x^9+x^10+x^3) / ( (1+x) *(1+x^2) *(x^4-x^2+1) *(x^2-x+1) *(1+x+x^2) *(x-1)^3 ). - _R. J. Mathar_, Aug 05 2014"
			],
			"mathematica": [
				"CoefficientList[Series[-(1 - x + 2 x^2 - x^4 + 2 x^5 - x^6 + x^7 + 2 x^8 - x^9 + x^10 + x^3)/((1 + x) (1 + x^2) (x^4 - x^2 + 1) (x^2 - x + 1) (1 + x + x^2) (x - 1)^3), {x, 0, 40}], x] (* _Vincenzo Librandi_, Aug 06 2014 *)"
			],
			"program": [
				"(MAGMA) I:=[1,1,3,6,8,12,15,19,25,30,36,42,49,55]; [n le 14 select I[n] else 2*Self(n-1)-Self(n-2)+Self(n-12)-2*Self(n-13)+Self(n-14): n in [1..60]]; // _Vincenzo Librandi_, Aug 06 2014"
			],
			"xref": [
				"Cf. A082874."
			],
			"keyword": "nonn,easy",
			"offset": "1,3",
			"author": "_N. J. A. Sloane_, May 25 2003",
			"ext": [
				"More terms from _Sean A. Irvine_, Sep 26 2011"
			],
			"references": 2,
			"revision": 18,
			"time": "2015-06-13T00:51:02-04:00",
			"created": "2003-09-13T03:00:00-04:00"
		}
	]
}