{
	"greeting": "Greetings from The On-Line Encyclopedia of Integer Sequences! http://oeis.org/",
	"query": "id:A083896",
	"count": 1,
	"start": 0,
	"results": [
		{
			"number": 83896,
			"data": "0,0,0,0,0,0,0,0,1,0,0,0,0,0,0,0,0,1,1,0,0,0,0,0,0,0,1,0,1,0,0,0,0,0,0,1,0,1,1,0,0,0,0,0,1,0,0,0,1,0,0,0,0,1,0,0,1,1,1,0,0,0,1,0,0,0,0,0,1,0,0,1,0,0,0,1,0,1,1,0,1,0,0,0,0,0,1,0,1,2,1,1,1,1,2,1,1,2,2,0,0,0,0,0,0",
			"name": "Number of divisors of n with largest digit = 9 (base 10).",
			"comment": [
				"a(n) = A000005(n) - A083888(n) - A083889(n) - A083890(n) - A083891(n) - A083892(n) - A083893(n) - A083894(n) - A083895(n) = A000005(n) - A083903(n)."
			],
			"link": [
				"Robert Israel, \u003ca href=\"/A083896/b083896.txt\"\u003eTable of n, a(n) for n = 1..10000\u003c/a\u003e"
			],
			"example": [
				"n=117, 2 of the 6 divisors of 117 have largest digit =9: {9,39},",
				"therefore a(117)=2."
			],
			"maple": [
				"f:= proc(n) nops(select(t -\u003e max(convert(t, base, 10))=d, numtheory:-divisors(n))) end proc:",
				"d:= 9:",
				"map(f, [$1..200]); # Robert Israel, Oct 06 2019"
			],
			"mathematica": [
				"Table[Count[Divisors[n],_?(Max[IntegerDigits[#]]==9\u0026)],{n,110}] (* _Harvey P. Dale_, Mar 15 2018 *)"
			],
			"xref": [
				"Cf. A054055, A000005, A083888, A083889, A083890, A083891, A083892, A083893, A083894, A083895."
			],
			"keyword": "nonn,base",
			"offset": "1,90",
			"author": "_Reinhard Zumkeller_, May 08 2003",
			"references": 11,
			"revision": 8,
			"time": "2019-10-06T18:22:39-04:00",
			"created": "2003-05-16T03:00:00-04:00"
		}
	]
}