{
	"greeting": "Greetings from The On-Line Encyclopedia of Integer Sequences! http://oeis.org/",
	"query": "id:A083821",
	"count": 1,
	"start": 0,
	"results": [
		{
			"number": 83821,
			"data": "29,59,79,439,479,659,829,839,859,929,2459,2659,2879,2939,3659,3929,5479,5639,5659,5839,5879,5939,7459,7639,7829,7879,42829,42839,42859,42929,42979,45439,45659,45959,45979,47459,47629,47639,47659,47939",
			"name": "Primes in which odd positioned digits are composite and even positioned digits are primes. The least significant digit is the taken to be the first digit.",
			"comment": [
				"Terms are == 9 (mod 10)."
			],
			"program": [
				"(PARI) iscomp(n) =  (n != 0) \u0026\u0026 (n != 1) \u0026\u0026 ! isprime(n);",
				"isok(p) = {if (! isprime(p), return (0)); rd = digits(subst(Polrev(digits(p)),x, 10)); for (i=1, #rd, if (i % 2, if (! iscomp(rd[i]), return (0)), if (! isprime(rd[i]), return (0)));); return (1);} \\\\ _Michel Marcus_, Apr 20 2014"
			],
			"xref": [
				"Cf. A083820."
			],
			"keyword": "base,nonn",
			"offset": "1,1",
			"author": "_Amarnath Murthy_ and Meenakshi Srikanth (menakan_s(AT)yahoo.com), May 08 2003",
			"ext": [
				"More terms from _Ray Chandler_, May 20 2003"
			],
			"references": 1,
			"revision": 16,
			"time": "2014-08-25T12:09:28-04:00",
			"created": "2003-05-16T03:00:00-04:00"
		}
	]
}