{
	"greeting": "Greetings from The On-Line Encyclopedia of Integer Sequences! http://oeis.org/",
	"query": "id:A083727",
	"count": 1,
	"start": 0,
	"results": [
		{
			"number": 83727,
			"data": "0,-6,-8,0,32,120,336,840,1984,4536,10160,22440,49056,106392,229264,491400,1048448,2228088,4718448,9961320,20971360,44040024,92274512,192937800,402652992,838860600,1744830256,3623878440,7516192544,15569256216,32212254480,66571992840",
			"name": "a(n) = n * (2^n - 8).",
			"keyword": "sign",
			"offset": "0,2",
			"author": "_N. J. A. Sloane_, Jun 16 2003",
			"references": 0,
			"revision": 6,
			"time": "2021-06-12T06:38:15-04:00",
			"created": "2003-09-13T03:00:00-04:00"
		}
	]
}