{
	"greeting": "Greetings from The On-Line Encyclopedia of Integer Sequences! http://oeis.org/",
	"query": "id:A083685",
	"count": 1,
	"start": 0,
	"results": [
		{
			"number": 83685,
			"data": "2,3,5,11,59,59,419,839,5039,5039,55439,55439,1081079,1081079,1081079,1441439,24504479,24504479,232792559,232792559,232792559,232792559,5354228879,5354228879,53542288799,53542288799,1044074631599",
			"name": "a(n) is the smallest prime of the form k*lcm(1..n) - 1.",
			"link": [
				"Harvey P. Dale, \u003ca href=\"/A083685/b083685.txt\"\u003eTable of n, a(n) for n = 1..500\u003c/a\u003e"
			],
			"example": [
				"a(9) = 5039: lcm(1..9) = 2520; 2519 is not a prime but 2*2520 - 1 = 5039 is a prime."
			],
			"mathematica": [
				"spf[n_]:=Module[{c=LCM@@Range[n],k=1},While[!PrimeQ[k*c-1],k++];k*c-1]; Array[spf,30] (* _Harvey P. Dale_, Jan 15 2022 *)"
			],
			"program": [
				"(PARI) a(n) = {my(lcmn = lcm(vector(n, k, k)), k = 1); while(!isprime(p = k*lcmn-1), k++); p;} \\\\ _Michel Marcus_, Mar 15 2018"
			],
			"xref": [
				"Cf. A070858."
			],
			"keyword": "nonn,changed",
			"offset": "1,1",
			"author": "_Amarnath Murthy_ and Meenakshi Srikanth (menakan_s(AT)yahoo.com), Jun 15 2003",
			"ext": [
				"Corrected and extended by _Vladeta Jovovic_, Jun 16 2003"
			],
			"references": 1,
			"revision": 18,
			"time": "2022-01-15T17:04:14-05:00",
			"created": "2003-09-13T03:00:00-04:00"
		}
	]
}