{
	"greeting": "Greetings from The On-Line Encyclopedia of Integer Sequences! http://oeis.org/",
	"query": "id:A083401",
	"count": 1,
	"start": 0,
	"results": [
		{
			"number": 83401,
			"data": "3,4,5,6,15,21,25,27,28,52,70,205,245,308,339,357,415,524,537,1455,1500",
			"name": "Numbers n such that A073605(n) is prime.",
			"comment": [
				"No other terms below 2200. [From _Max Alekseyev_, May 11 2009]"
			],
			"example": [
				"a(1)=3 because A073605(3)=7 is prime and A073605(1) and A073605(2) are'nt primes."
			],
			"mathematica": [
				"For[k = 0, k \u003c 875, If[PrimeQ[ChineseRemainder[ -Range[k], Prime[Range[k]]]], Print[k]], k++ ]"
			],
			"xref": [
				"Cf. A053664, A073605, A053664."
			],
			"keyword": "more,nonn",
			"offset": "1,1",
			"author": "_Farideh Firoozbakht_, Jun 07 2003",
			"ext": [
				"1455 and 1500 from _Max Alekseyev_, May 11 2009"
			],
			"references": 3,
			"revision": 6,
			"time": "2012-03-31T14:40:08-04:00",
			"created": "2003-09-13T03:00:00-04:00"
		}
	]
}