{
	"greeting": "Greetings from The On-Line Encyclopedia of Integer Sequences! http://oeis.org/",
	"query": "id:A083388",
	"count": 1,
	"start": 0,
	"results": [
		{
			"number": 83388,
			"data": "2,3,5,29,1129,10009,575119,32694619,586130089,1030544269,427744892959,18736892249459,221530676461709,221530676461709",
			"name": "a(n) = beginning of a run of at least n primes when x -\u003e 3*x + 2 is iterated.",
			"comment": [
				"a(11) \u003e 8695354111. - _Donovan Johnson_, Sep 27 2008"
			],
			"link": [
				"D. H. Lehmer, \u003ca href=\"http://dx.doi.org/10.1112/plms/s3-14A.1.183\"\u003eOn certain chains of primes\u003c/a\u003e, Proc. London Math. Soc. (3) 14a 1965 183-186."
			],
			"example": [
				"a(3) = 5 because 5 is the beginning of 3 primes in succession: 5, 3*5 + 2 = 17 is prime and 3*17 + 2 = 53 is prime."
			],
			"mathematica": [
				"c[p_] := Block[{k=1, q = 3 p + 2}, While[PrimeQ[q], q = 3 q + 2; k++]; k]; a[n_] := Block[{p=2}, While[c[p] \u003c n, p = NextPrime[p]]; p]; Array[a, 7] (* _Giovanni Resta_, Mar 21 2017 *)"
			],
			"program": [
				"(PARI) mx=1; forprime(p=1,198000,x=p; m=0; while(isprime(x=3*x+2),m=m+1; if(m\u003emx,print(p,\" \",m, \" \",x); mx=m,))) \\\\ _Donald S. McDonald_, Jun 11 2003"
			],
			"xref": [
				"Cf. A057331, A081173."
			],
			"keyword": "nonn",
			"offset": "1,1",
			"author": "_W. Edwin Clark_, Jun 09 2003",
			"ext": [
				"a(8)-a(10) from _Donovan Johnson_, Sep 27 2008",
				"a(11)-a(12) from _John Cerkan_, Jan 09 2017",
				"a(13)-a(14) from _Giovanni Resta_, Mar 21 2017"
			],
			"references": 9,
			"revision": 22,
			"time": "2019-02-04T09:44:09-05:00",
			"created": "2003-09-13T03:00:00-04:00"
		}
	]
}