{
	"greeting": "Greetings from The On-Line Encyclopedia of Integer Sequences! http://oeis.org/",
	"query": "id:A083626",
	"count": 1,
	"start": 0,
	"results": [
		{
			"number": 83626,
			"data": "21880,29868,32427,43523,48439,48440,59983,64870,74392,100537,102387,102388,124494,131591,140744,140745,141919,147343,151265,161077,162317,166974,180722,194824,200045,226102,250129,250130,252499,252500,252501",
			"name": "Starting positions of strings of four 6's in the decimal expansion of Pi.",
			"link": [
				"\u003ca href=\"/index/Ph#Pi314\"\u003eIndex entries for sequences related to the number Pi\u003c/a\u003e",
				"Dave Andersen, \u003ca href=\"http://www.angio.net/pi/piquery\"\u003ePi-Search Page\u003c/a\u003e",
				"Eric Weisstein's World of Mathematics, \u003ca href=\"http://mathworld.wolfram.com/PiDigits.html\"\u003ePi Digits.\u003c/a\u003e"
			],
			"mathematica": [
				"Transpose[StringPosition[StringDrop[ToString[N[Pi,9! ]],2],\"6666\"]][[1]] (* _Vladimir Joseph Stephan Orlovsky_, Jun 19 2009 *)",
				"Flatten[Position[Partition[RealDigits[Pi,10,260000][[1]],4,1], {6,6,6,6}]]-1 (* _Harvey P. Dale_, Apr 27 2012 *)"
			],
			"xref": [
				"Cf. A083625 (three 6's), A083627 (five 6's)."
			],
			"keyword": "base,nonn",
			"offset": "1,1",
			"author": "_Rick L. Shepherd_, May 03 2003",
			"references": 2,
			"revision": 16,
			"time": "2015-01-16T03:49:56-05:00",
			"created": "2003-05-16T03:00:00-04:00"
		}
	]
}