{
	"greeting": "Greetings from The On-Line Encyclopedia of Integer Sequences! http://oeis.org/",
	"query": "id:A083923",
	"count": 1,
	"start": 0,
	"results": [
		{
			"number": 83923,
			"data": "0,1,0,1,0,0,0,1,1,0,0,0,0,0,0,0,0,1,1,0,1,1,1,0,0,0,0,0,0,0,0,0,0,0,0,0,0,0,0,0,0,0,0,0,0,1,1,0,1,1,1,0,0,0,1,1,0,1,1,1,0,1,1,1,1,0,0,0,0,0,0,0,0,0,0,0,0,0,0,0,0,0,0,0,0,0,0,0,0,0,0,0,0,0,0,0,0,0,0,0,0",
			"name": "Characteristic function for A057548.",
			"link": [
				"\u003ca href=\"/index/Ch#char_fns\"\u003eIndex entries for characteristic functions\u003c/a\u003e"
			],
			"formula": [
				"a(n) = 1 if A057515(n)=1 (equivalently: if A072772(n)=0), otherwise 0."
			],
			"xref": [
				"a(n) = A083924(A069770(n)). Used to compute A083925."
			],
			"keyword": "nonn",
			"offset": "0,1",
			"author": "_Antti Karttunen_ May 13 2003",
			"references": 3,
			"revision": 7,
			"time": "2012-03-31T14:02:28-04:00",
			"created": "2003-05-16T03:00:00-04:00"
		}
	]
}