{
	"greeting": "Greetings from The On-Line Encyclopedia of Integer Sequences! http://oeis.org/",
	"query": "id:A083081",
	"count": 1,
	"start": 0,
	"results": [
		{
			"number": 83081,
			"data": "1,13,229,4921,128841,4022341,146450893,6103787761,286833509137,15011892880381,866190689012661,54637591044108073,3740820141248285785,276304073198956644661,21900911192388373534621",
			"name": "First super-diagonal of number array A083075.",
			"link": [
				"Vincenzo Librandi, \u003ca href=\"/A083081/b083081.txt\"\u003eTable of n, a(n) for n = 1..300\u003c/a\u003e"
			],
			"formula": [
				"a(n) = ((n-1)*(2n+1)^n + 1)/n."
			],
			"program": [
				"(MAGMA) [((n-1)*(2*n+1)^n+1)/n: n in [1..20]]; // _Vincenzo Librandi_, Nov 12 2011"
			],
			"xref": [
				"Cf. A083080, A083082."
			],
			"keyword": "easy,nonn",
			"offset": "1,2",
			"author": "_Paul Barry_, Apr 23 2003",
			"references": 3,
			"revision": 8,
			"time": "2018-11-23T11:18:45-05:00",
			"created": "2003-05-16T03:00:00-04:00"
		}
	]
}