{
	"greeting": "Greetings from The On-Line Encyclopedia of Integer Sequences! http://oeis.org/",
	"query": "id:A083989",
	"count": 1,
	"start": 0,
	"results": [
		{
			"number": 83989,
			"data": "3,7,17,23,29,31,41,43,53,67,71,83,109,127,139,151,173,179,197,211,229,263,271,281,307,359,463,547,557,569,587,593,673,677,683,691,701,719,727,757,769,823,839,881,883,887,907,937,983,997,1087,1103,1171,1181",
			"name": "Concatenation of prime k and its 10's complement is a prime.",
			"example": [
				"43 belongs to this sequence as 4357 is also a prime."
			],
			"xref": [
				"Cf. A083990."
			],
			"keyword": "base,nonn",
			"offset": "1,1",
			"author": "_Amarnath Murthy_, May 23 2003",
			"ext": [
				"More terms from _Jason Earls_, Jun 01 2003"
			],
			"references": 2,
			"revision": 6,
			"time": "2017-12-15T17:36:21-05:00",
			"created": "2003-09-13T03:00:00-04:00"
		}
	]
}