{
	"greeting": "Greetings from The On-Line Encyclopedia of Integer Sequences! http://oeis.org/",
	"query": "id:A083066",
	"count": 1,
	"start": 0,
	"results": [
		{
			"number": 83066,
			"data": "1,5,29,173,1037,6221,37325,223949,1343693,8062157,48372941,290237645,1741425869,10448555213,62691331277,376147987661,2256887925965,13541327555789,81247965334733,487487792008397,2924926752050381",
			"name": "5th row of number array A083064.",
			"comment": [
				"Let A be the Hessenberg matrix of order n, defined by: A[1,j]=1, A[i,i]:=8, (i\u003e1), A[i,i-1]=-1, and A[i,j]=0 otherwise. Then, for n\u003e=1, a(n-1)=(-1)^(n-1)*charpoly(A,2). [_Milan Janjic_, Feb 21 2010]",
				"An Engel expansion of 3/2 to the base b := 6/5 as defined in A181565, with the associated series expansion 3/2 = b + b^2/5 + b^3/(5*29) + b^4/(5*29*173) + .... Cf. A007051. - _Peter Bala_, Oct 29 2013"
			],
			"link": [
				"Vincenzo Librandi, \u003ca href=\"/A083066/b083066.txt\"\u003eTable of n, a(n) for n = 0..1000\u003c/a\u003e",
				"R. J. Mathar, \u003ca href=\"https://arxiv.org/abs/1406.7788\"\u003eTilings of rectangular regions by rectangular tiles: Counts derived from transfer matrices\u003c/a\u003e, arXiv:1406.7788 (2014), eq (43).",
				"\u003ca href=\"/index/Rec\"\u003eIndex entries for linear recurrences with constant coefficients\u003c/a\u003e, signature (7,-6)."
			],
			"formula": [
				"a(n) = (4*6^n+1)/5.",
				"G.f.: (1-2*x)/((1-6*x)*(1-x)).",
				"E.g.f.: (4*exp(6*x)+exp(x))/5.",
				"a(n) = 6*a(n-1)-1 with n\u003e0, a(0)=1. - _Vincenzo Librandi_, Aug 08 2010",
				"a(n) = 7*a(n-1)-6*a(n-2). - _Vincenzo Librandi_, Nov 04 2011",
				"a(n) = 6^n - sum(6^i, i=0..n-1) for n\u003e0. [_Bruno Berselli_, Jun 20 2013]"
			],
			"mathematica": [
				"f[n_]:=6^n; lst={}; Do[a=f[n]; Do[a-=f[m],{m,n-1,1,-1}]; AppendTo[lst,a/6],{n,1,30}]; lst (* _Vladimir Joseph Stephan Orlovsky_, Feb 10 2010 *)"
			],
			"program": [
				"(MAGMA) [(4*6^n+1)/5: n in [0..30]]; // _Vincenzo Librandi_, Nov 06 2011"
			],
			"xref": [
				"Cf. A083065, A083067. A007051, A007583."
			],
			"keyword": "nonn,easy",
			"offset": "0,2",
			"author": "_Paul Barry_, Apr 21 2003",
			"references": 12,
			"revision": 29,
			"time": "2020-11-05T06:08:49-05:00",
			"created": "2003-05-16T03:00:00-04:00"
		}
	]
}