{
	"greeting": "Greetings from The On-Line Encyclopedia of Integer Sequences! http://oeis.org/",
	"query": "id:A083043",
	"count": 1,
	"start": 0,
	"results": [
		{
			"number": 83043,
			"data": "1,21,419,8359,166761,3326861,66370459,1324082319,26415275921,526981436101,10513213446099,209737287485879,4184232536271481,83474913437943741,1665314036222603339,33222805811014123039",
			"name": "Integers y such that 11*x^2 - 9*y^2 = 2 for some integer x.",
			"link": [
				"G. C. Greubel, \u003ca href=\"/A083043/b083043.txt\"\u003eTable of n, a(n) for n = 1..750\u003c/a\u003e",
				"Tanya Khovanova, \u003ca href=\"http://www.tanyakhovanova.com/RecursiveSequences/RecursiveSequences.html\"\u003eRecursive Sequences\u003c/a\u003e",
				"\u003ca href=\"/index/Tu#2wis\"\u003eIndex entries for two-way infinite sequences\u003c/a\u003e",
				"\u003ca href=\"/index/Rec#order_02\"\u003eIndex entries for linear recurrences with constant coefficients\u003c/a\u003e, signature (20,-1)."
			],
			"formula": [
				"G.f.: x*(1+x)/(1-20*x+x^2).",
				"a(n) = 20*a(n-1) - a(n-2).",
				"a(1-n) = -a(n).",
				"11*A075839(n)^2 - 9*a(n)^2 = 2.",
				"a(n+1) = 10*a(n) + sqrt(99*a(n)^2 + 22). - _Richard Choulet_, Sep 27 2007",
				"a(n) = ((3 + sqrt(11))*(10 + 3*sqrt(11))^(n-1) + (3 - sqrt(11))*(10 - 3*sqrt(11))^(n-1))/6. - _G. C. Greubel_, Dec 06 2019",
				"E.g.f.: 1 + (1/3)*exp(10*x)*(-3*cosh(3*sqrt(11)*x) + sqrt(11)*sinh(3*sqrt(11)*x)). - _Stefano Spezia_, Dec 06 2019 after _G. C. Greubel_"
			],
			"maple": [
				"seq(coeff(series( x*(1+x)/(1-20*x+x^2), x, n+1), x, n), n = 1..20); # _G. C. Greubel_, Dec 06 2019"
			],
			"mathematica": [
				"LinearRecurrence[{20,-1},{1,21},20] (* _Harvey P. Dale_, Jun 02 2014 *)"
			],
			"program": [
				"(PARI) a(n)=subst(poltchebi(n+1)-poltchebi(n),x,10)/9",
				"(MAGMA) I:=[1,21]; [n le 2 select I[n] else 20*Self(n-1) - Self(n-2): n in [1..20]]; // _G. C. Greubel_, Dec 06 2019",
				"(Sage)",
				"def A083043_list(prec):",
				"    P.\u003cx\u003e = PowerSeriesRing(ZZ, prec)",
				"    return P( x*(1+x)/(1-20*x+x^2) ).list()",
				"a=A083043_list(20); a[1:] # _G. C. Greubel_, Dec 06 2019",
				"(GAP) a:=[1,21];; for n in [3..20] do a[n]:=20*a[n-1]-a[n-2]; od; a; # _G. C. Greubel_, Dec 06 2019"
			],
			"xref": [
				"Cf. A075839, A075843."
			],
			"keyword": "easy,nonn",
			"offset": "1,2",
			"author": "_Michael Somos_, Apr 17 2003",
			"ext": [
				"Corrected by _T. D. Noe_, Nov 07 2006",
				"Offset changed to 1 by _G. C. Greubel_, Dec 06 2019"
			],
			"references": 6,
			"revision": 28,
			"time": "2019-12-07T02:00:13-05:00",
			"created": "2003-05-16T03:00:00-04:00"
		}
	]
}