{
	"greeting": "Greetings from The On-Line Encyclopedia of Integer Sequences! http://oeis.org/",
	"query": "id:A083366",
	"count": 1,
	"start": 0,
	"results": [
		{
			"number": 83366,
			"data": "1,3,5,9,23,65,95,129,161,341,439,771,819,1031,1099,1443,1923,5793",
			"name": "Numbers n such that 7*11^n + 2 is prime.",
			"comment": [
				"Values corresponding to 5, 9, 23, 65, 95, 129, 161, 341, 439, 771, 819, 1031, 1099 and 1443 (1504 digits) have been certified prime with Primo. Values for 1923 (2004 digits) and 5793 (6034 digits) are probable primes. There are no other terms \u003c= 6000."
			],
			"program": [
				"(PARI) for(n=1,6000,if(isprime(7*11^n+2),print1(n,\",\")))"
			],
			"keyword": "nonn",
			"offset": "1,2",
			"author": "_Rick L. Shepherd_, May 03 2003",
			"references": 0,
			"revision": 6,
			"time": "2012-03-30T17:36:40-04:00",
			"created": "2003-05-16T03:00:00-04:00"
		}
	]
}