{
	"greeting": "Greetings from The On-Line Encyclopedia of Integer Sequences! http://oeis.org/",
	"query": "id:A083297",
	"count": 1,
	"start": 0,
	"results": [
		{
			"number": 83297,
			"data": "1,2,20,8,464,-736,12608,-42880,388352,-1805824,12932096,-69203968,448778240,-2558451712,15887581184,-93178003456,567657955328,-3371587993600,20366966915072,-121652045676544,732111297314816,-4383871690866688,26338414517288960",
			"name": "a(n) = (4*4^n + (-6)^n)/5.",
			"comment": [
				"Binomial transform of A083296."
			],
			"link": [
				"Iain Fox, \u003ca href=\"/A083297/b083297.txt\"\u003eTable of n, a(n) for n = 0..1000\u003c/a\u003e (terms 0..300 from Vincenzo Librandi)",
				"\u003ca href=\"/index/Rec#order_02\"\u003eIndex entries for linear recurrences with constant coefficients\u003c/a\u003e, signature (-2,24)."
			],
			"formula": [
				"a(n) = (4*4^n + (-6)^n)/5.",
				"G.f.: (1+4*x)/((1-4*x)*(1+6*x)).",
				"E.g.f.: (4*exp(4*x) + exp(-6*x))/5.",
				"a(n) = -2*a(n-1) + 24*a(n-2). - _Iain Fox_, Oct 31 2018"
			],
			"maple": [
				"seq(coeff(series((1+4*x)/((1-4*x)*(1+6*x)),x,n+1), x, n), n = 0 .. 25); # _Muniru A Asiru_, Oct 31 2018"
			],
			"mathematica": [
				"CoefficientList[Series[(1 + 4 x)/((1 - 4 x) (1 + 6 x)), {x, 0, 22}], x] (* _Michael De Vlieger_, Oct 31 2018 *)",
				"CoefficientList[Series[(4*Exp[4*x] + Exp[-6*x])/5, {x, 0, 50}], x]*Table[k!, {k, 0, 50}] (* _Stefano Spezia_, Nov 01 2018 *)",
				"LinearRecurrence[{-2,24}, {1,2}, 30] (* _G. C. Greubel_, Nov 07 2018 *)"
			],
			"program": [
				"(MAGMA) [(4*4^n+(-6)^n)/5: n in [0..30]]; // _Vincenzo Librandi_, Jun 08 2011",
				"(PARI) first(n) = Vec((1+4*x)/((1-4*x)*(1+6*x)) + O(x^n)) \\\\ _Iain Fox_, Oct 31 2018",
				"(PARI) a(n) = (4*4^n + (-6)^n)/5 \\\\ _Iain Fox_, Oct 31 2018",
				"(GAP) List([0..25],n-\u003e(4*4^n+(-6)^n)/5); # _Muniru A Asiru_, Oct 31 2018"
			],
			"xref": [
				"Cf. A083222."
			],
			"keyword": "easy,sign",
			"offset": "0,2",
			"author": "_Paul Barry_, Apr 24 2003",
			"references": 3,
			"revision": 23,
			"time": "2018-11-07T10:03:58-05:00",
			"created": "2003-05-16T03:00:00-04:00"
		}
	]
}