{
	"greeting": "Greetings from The On-Line Encyclopedia of Integer Sequences! http://oeis.org/",
	"query": "id:A083351",
	"count": 1,
	"start": 0,
	"results": [
		{
			"number": 83351,
			"data": "0,1,4,9,12,25,132,192,459,10377,45130,63589,83265",
			"name": "Numbers n such that 5*7^n + 2 is prime.",
			"comment": [
				"Values corresponding to 9, 12, 25, 132, 192 and 459 (389 digits) have been certified prime with Primo. There are no other terms \u003c= 4000.",
				"No other terms \u003c= 10^5. - _Tyler NeSmith_"
			],
			"example": [
				"7, 37, 12007, 201768037, 69206436007, 6705343098319824504037",
				"are 5*7^0 + 2, 5*7^1 + 2, 5*7^4 + 2, 5*7^9 + 2, 5*7^12 + 2, 5*7^25 + 2,",
				"respectively. 5*7^132 + 2 has 113 digits."
			],
			"program": [
				"(PARI) for(n=0,4000,if(isprime(5*7^n+2),print1(n,\",\")))"
			],
			"keyword": "nonn",
			"offset": "1,3",
			"author": "_Rick L. Shepherd_, Apr 26 2003",
			"ext": [
				"a(10)-a(13) from _Tyler NeSmith_, Jan 17 2021"
			],
			"references": 0,
			"revision": 10,
			"time": "2021-01-17T11:09:25-05:00",
			"created": "2003-05-16T03:00:00-04:00"
		}
	]
}