{
	"greeting": "Greetings from The On-Line Encyclopedia of Integer Sequences! http://oeis.org/",
	"query": "id:A083018",
	"count": 1,
	"start": 0,
	"results": [
		{
			"number": 83018,
			"data": "2,73,271,5087,8669,9973,31079,64063,75611,80317,87833,95087,98669,1130257,3248731,4264661,4454767,5980321,6692051,8398387,9428213,9543467,9851123,9867349,9940681,9980317,9999271,9999973,10685377",
			"name": "Primes whose 10's complement is a cube.",
			"example": [
				"a(3)=271 because 1000-271 = 729 = 9^3."
			],
			"keyword": "nonn,base",
			"offset": "1,1",
			"author": "_Jason Earls_, May 31 2003",
			"references": 0,
			"revision": 7,
			"time": "2017-12-15T17:36:13-05:00",
			"created": "2003-09-13T03:00:00-04:00"
		}
	]
}