{
	"greeting": "Greetings from The On-Line Encyclopedia of Integer Sequences! http://oeis.org/",
	"query": "id:A083489",
	"count": 1,
	"start": 0,
	"results": [
		{
			"number": 83489,
			"data": "4,2,8,2,3,6,2,3,4,6,2,3,4,6,9,2,3,5,6,8,10,2,3,4,5,6,8,10,2,3,4,5,6,8,9,10,2,3,4,5,6,7,9,10,14,2,3,4,5,7,8,9,10,12,14,2,3,4,5,6,7,8,9,12,14,15,2,3,4,5,6,7,8,9,12,14,15,16,2,3,4,6,7,8,9,10,12,14,15,16,18,2",
			"name": "Triangle read by rows where the n-th row gives the reverse-lexicographically earliest sequence of n distinct integers \u003e 1 whose product equals the smallest possible square (=A081456(n)).",
			"formula": [
				"Results from the triangle in A081454 by removing first column (equivalently, by removing all 1's from the sequence)."
			],
			"example": [
				"4",
				"2 8",
				"2 3 6",
				"2 3 4 6",
				"2 3 4 6 9",
				"2 3 5 6 8 10",
				"..."
			],
			"xref": [
				"Cf. A081454, A086435, A081457."
			],
			"keyword": "nonn,tabl",
			"offset": "1,1",
			"author": "_Amarnath Murthy_ and Meenakshi Srikanth (menakan_s(AT)yahoo.com), May 03 2003",
			"ext": [
				"Corrected by _R. J. Mathar_, Jul 18 2007",
				"Corrected and extended by _Max Alekseyev_, Jul 16 2009"
			],
			"references": 1,
			"revision": 10,
			"time": "2015-04-04T21:34:04-04:00",
			"created": "2003-05-16T03:00:00-04:00"
		}
	]
}