{
	"greeting": "Greetings from The On-Line Encyclopedia of Integer Sequences! http://oeis.org/",
	"query": "id:A083738",
	"count": 1,
	"start": 0,
	"results": [
		{
			"number": 83738,
			"data": "1105,2465,10585,18721,29341,46657,75361,104653,115921,162401,226801,252601,278545,294409,314821,334153,340561,399001,410041,449065,488881,512461,530881,534061,552721,574561,658801,721801,852841,1024651",
			"name": "Pseudoprimes to bases 2,3 and 7.",
			"link": [
				"Amiram Eldar, \u003ca href=\"/A083738/b083738.txt\"\u003eTable of n, a(n) for n = 1..10460\u003c/a\u003e (terms 1..98 from R. J. Mathar)",
				"F. Richman, \u003ca href=\"http://math.fau.edu/Richman/carm.htm\"\u003ePrimality testing with Fermat's little theorem\u003c/a\u003e"
			],
			"formula": [
				"a(n) = n-th positive integer k(\u003e1) such that 2^(k-1) = 1 (mod k), 3^(k-1) = 1 (mod k) and 7^(k-1) = 1 (mod k)."
			],
			"example": [
				"a(1)=1105 since it is the first number such that 2^(k-1) = 1 (mod k), 3^(k-1) = 1 (mod k) and 7^(k-1) = 1 (mod k)."
			],
			"mathematica": [
				"Select[Range[1, 10^5, 2], CompositeQ[#] \u0026\u0026  PowerMod[2, #-1,#] == PowerMod[3, #-1,#] == PowerMod[7, #-1,#] == 1\u0026] (* _Amiram Eldar_, Jun 29 2019 *)"
			],
			"xref": [
				"Intersection of A001567 and A083735. Intersection of A005935 and A083733. - _R. J. Mathar_, Apr 05 2011"
			],
			"keyword": "easy,nonn",
			"offset": "1,1",
			"author": "Serhat Sevki Dincer (sevki(AT)ug.bilkent.edu.tr), May 05 2003",
			"references": 1,
			"revision": 18,
			"time": "2019-06-29T08:33:41-04:00",
			"created": "2003-05-16T03:00:00-04:00"
		}
	]
}