{
	"greeting": "Greetings from The On-Line Encyclopedia of Integer Sequences! http://oeis.org/",
	"query": "id:A083141",
	"count": 1,
	"start": 0,
	"results": [
		{
			"number": 83141,
			"data": "2,9,35,91,209,377,629,817,1219,1769,2201,2923,3649,4343,5029,5989,7729,8479,10117,11573,12629,14299,16019,17711,21631,23129,24617,26857,28667,30623,35687,38383,42607,44063,50213,52699,56363,60799,63961,68681",
			"name": "Main diagonal of array in A083140.",
			"formula": [
				"a(n) = prime(n)*prime(2*n-2)."
			],
			"mathematica": [
				"Table[ Prime[n]*Prime[2n - 2], {n, 2, 41}]"
			],
			"program": [
				"(PARI) vector(50, n, if (n==1, 2, prime(n)*prime(2*n-2))) \\\\ _Michel Marcus_, Dec 19 2014"
			],
			"xref": [
				"Cf. A083140."
			],
			"keyword": "nonn",
			"offset": "1,1",
			"author": "_Yasutoshi Kohmoto_, Jun 05 2003",
			"ext": [
				"Edited and extended by _Robert G. Wilson v_, Jun 11 2003"
			],
			"references": 7,
			"revision": 12,
			"time": "2016-04-19T01:07:33-04:00",
			"created": "2003-05-16T03:00:00-04:00"
		}
	]
}