{
	"greeting": "Greetings from The On-Line Encyclopedia of Integer Sequences! http://oeis.org/",
	"query": "id:A083255",
	"count": 1,
	"start": 0,
	"results": [
		{
			"number": 83255,
			"data": "165,195,5187,5865,7395,10005,15045,16215,21165,22695,27285,37995,42585,44115,50235,57885,59415,60945,64005,310845,346035,347565,486795,635205,707115,890445,979455,994755,1049835,1070535,1078815,1083585,1121745",
			"name": "Odd composite numbers k such that cototient(k) - phi(k) = k - 2*phi(k) is an odd prime.",
			"comment": [
				"Quite a number of terms are divisible by 3*5*17 = 255."
			],
			"link": [
				"Amiram Eldar, \u003ca href=\"/A083255/b083255.txt\"\u003eTable of n, a(n) for n = 1..10000\u003c/a\u003e (terms 1..369 from R. J. Mathar)"
			],
			"example": [
				"m = 17425605 = 3*5*23*53*953 is a term since cototient(m) - phi(m) = 9712901 - 8712704 = 197 is an odd prime."
			],
			"mathematica": [
				"Do[s=EulerPhi[n]; c=n-s; If[Greater[c, s]\u0026\u0026PrimeQ[c-s]\u0026\u0026OddQ[c-s]\u0026\u0026!PrimeQ[n], Print[{n, c-s, n/255}]], {n, 1, 10000000}]"
			],
			"xref": [
				"Cf. A000010, A051953, A036798, A067800, A083254."
			],
			"keyword": "nonn",
			"offset": "1,1",
			"author": "_Labos Elemer_, May 08 2003",
			"references": 7,
			"revision": 21,
			"time": "2021-03-25T04:52:41-04:00",
			"created": "2003-05-16T03:00:00-04:00"
		}
	]
}