{
	"greeting": "Greetings from The On-Line Encyclopedia of Integer Sequences! http://oeis.org/",
	"query": "id:A083193",
	"count": 1,
	"start": 0,
	"results": [
		{
			"number": 83193,
			"data": "1,421,21649,649877,49877939,8779391081,77939108112221,9391081122211463,39108112221146315203,10811222114631520316143,81122211463152031614318511,12221146315203161431851120217",
			"name": "a(1) = 1 and then primes arising in A083192. Concatenation of n-th term to (2n-1)th term of A083192.",
			"example": [
				"421, 21649, etc. are primes."
			],
			"xref": [
				"Cf. A083192."
			],
			"keyword": "base,nonn",
			"offset": "1,2",
			"author": "_Amarnath Murthy_, Apr 27 2003",
			"ext": [
				"Correct a(6)=8779391081 and extended by _Ray Chandler_, Jan 04 2009"
			],
			"references": 1,
			"revision": 4,
			"time": "2013-12-05T19:56:14-05:00",
			"created": "2003-05-16T03:00:00-04:00"
		}
	]
}