{
	"greeting": "Greetings from The On-Line Encyclopedia of Integer Sequences! http://oeis.org/",
	"query": "id:A084011",
	"count": 1,
	"start": 0,
	"results": [
		{
			"number": 84011,
			"data": "1,2,3,4,5,6,7,8,9,1,11,21,31,41,51,61,71,81,82,2,12,22,32,42,52,62,72,73,83,3,13,23,33,43,53,63,64,74,84,4,14,24,34,44,54,55,65,75,85,5,15,25,35,45,46,56,66,76,86,6,16,26,36,37,47,57,67,77,87,7,17,27,28,38,48,58",
			"name": "Digit reversal of 11*n, divided by 11.",
			"link": [
				"Indranil Ghosh, \u003ca href=\"/A084011/b084011.txt\"\u003eTable of n, a(n) for n = 1..9999\u003c/a\u003e"
			],
			"formula": [
				"a(n) = A004086(11*n)/11. - _Indranil Ghosh_, Jan 10 2017"
			],
			"example": [
				"For n = 13, A004086(13*11)/11 = 341/11 = 31. So, a(13) = 31. - _Indranil Ghosh_, Jan 10 2017"
			],
			"mathematica": [
				"a[n_] := Module[{aux = IntegerDigits[11*n]},Sum[aux[[i]]*10^(i - 1), {i, 1, Length[aux]}]/11]; Table[a[n], {n, 100}] (* _José María Grau Ribas_, Feb 16 2010 *)"
			],
			"program": [
				"(Python)",
				"def A084011(n):",
				"     return int(str(11*n)[::-1])/11 # _Indranil Ghosh_, Jan 10 2017"
			],
			"xref": [
				"Cf. A004086, A007091.",
				"Cf. A039691 (n such that a(n) = A004086(n))."
			],
			"keyword": "base,nonn",
			"offset": "1,2",
			"author": "_Amarnath Murthy_, May 23 2003",
			"references": 1,
			"revision": 17,
			"time": "2017-01-10T19:43:01-05:00",
			"created": "2003-09-13T03:00:00-04:00"
		}
	]
}