{
	"greeting": "Greetings from The On-Line Encyclopedia of Integer Sequences! http://oeis.org/",
	"query": "id:A084758",
	"count": 1,
	"start": 0,
	"results": [
		{
			"number": 84758,
			"data": "2,3,5,11,19,23,37,47,59,79,97,113,137,163,191,223,257,293,331,353,383,431,487,541,587,631,673,733,773,823,881,947,1009,1061,1129,1193,1277,1367,1439,1531,1601,1697,1777,1871,1949,2053,2129,2203,2309,2411,2521",
			"name": "The slowest increasing sequence of primes such that difference of successive terms is unique.",
			"comment": [
				"The sequence of successive differences is 1,2,6,8,4,14,10,12,20,18,16,... Conjecture: every even number is a term of this sequence. For every even number e there exists some k such that a(k) - a(k-1) = e.",
				"The slowest increasing sequence of primes such that each difference between successive terms is unique. - _Zak Seidov_, Feb 10 2015"
			],
			"link": [
				"Zak Seidov, \u003ca href=\"/A084758/b084758.txt\"\u003eTable of n, a(n) for n = 1..1000\u003c/a\u003e"
			],
			"example": [
				"After 23, the next term is 37 and not 29 or 31 as 29-23= 11-5 =6, 31-23 = 19-11=8."
			],
			"mathematica": [
				"diffs = {}; prms = {2}; p = 2; Do[While[p = NextPrime[p]; d = p - prms[[-1]]; MemberQ[diffs, d]]; AppendTo[diffs, d]; AppendTo[prms, p], {100}]; prms (* _T. D. Noe_, Nov 01 2011 *)"
			],
			"xref": [
				"Cf. A084759, A121862."
			],
			"keyword": "nonn",
			"offset": "1,1",
			"author": "_Amarnath Murthy_ and Meenakshi Srikanth (menakan_s(AT)yahoo.com), Jun 17 2003",
			"ext": [
				"More terms from _David Wasserman_, Jan 05 2005",
				"Definition corrected by _Zak Seidov_, Nov 01 2011",
				"Definition corrected by _Zak Seidov_, Feb 11 2015"
			],
			"references": 26,
			"revision": 25,
			"time": "2018-10-30T10:31:02-04:00",
			"created": "2003-09-13T03:00:00-04:00"
		}
	]
}