{
	"greeting": "Greetings from The On-Line Encyclopedia of Integer Sequences! http://oeis.org/",
	"query": "id:A084513",
	"count": 1,
	"start": 0,
	"results": [
		{
			"number": 84513,
			"data": "7,7,11,7,11,13,7,19,11,7,19,13,7,11,13,14,7,11,21,11,7,11,21,14,7,19,11,13,7,19,13,14,7,19,25,13,7,19,25,14,7,35,19,11,7,35,19,13,7,35,21,11,7,35,21,14,7,35,25,13,7,35,25,14,7,11,13,22,11,7,11,21,11,13,7,11",
			"name": "Juggling states associated with the juggling sequence A084511.",
			"link": [
				"A. Karttunen, \u003ca href=\"/A084507/a084507.scm.txt\"\u003eScheme-program for computing this sequence\u003c/a\u003e"
			],
			"formula": [
				"a(0)=7, a(n) = (A084513(n-1) + 2^A084511(n) - 1)/2."
			],
			"xref": [
				"Same sequence in binary: A084514.",
				"Cf. A084503, A084523."
			],
			"keyword": "nonn",
			"offset": "0,1",
			"author": "_Antti Karttunen_, Jun 02 2003",
			"references": 6,
			"revision": 8,
			"time": "2017-07-29T13:28:39-04:00",
			"created": "2003-09-13T03:00:00-04:00"
		}
	]
}