{
	"greeting": "Greetings from The On-Line Encyclopedia of Integer Sequences! http://oeis.org/",
	"query": "id:A084905",
	"count": 1,
	"start": 0,
	"results": [
		{
			"number": 84905,
			"data": "0,1,2,3,4,5,6,7,8,9,10,1,12,13,14,15,16,17,18,19,20,2,1,23,24,25,26,27,28,29,30,3,32,1,34,35,36,37,38,39,40,4,2,43,1,45,46,47,48,49,50,5,52,53,54,1,56,57,58,59,60,6,3,2,64,65,1,67,68,69,70,7,72,73,74,75",
			"name": "Smallest positive integer resulting after inserting division operator in the decimal string of n.",
			"comment": [
				"a(n)\u003cn iff A084904(n)\u003e0."
			],
			"example": [
				"121-\u003e12/1=12=a(121); 122-\u003e12/2=6=a(122); 123-\u003e12/3=4=a(123);",
				"124-\u003e12/4=3=a(124)."
			],
			"xref": [
				"Cf. A084906."
			],
			"keyword": "nonn,base",
			"offset": "0,3",
			"author": "_Reinhard Zumkeller_, Jun 10 2003",
			"references": 2,
			"revision": 3,
			"time": "2012-03-30T18:50:36-04:00",
			"created": "2003-09-13T03:00:00-04:00"
		}
	]
}