{
	"greeting": "Greetings from The On-Line Encyclopedia of Integer Sequences! http://oeis.org/",
	"query": "id:A084722",
	"count": 1,
	"start": 0,
	"results": [
		{
			"number": 84722,
			"data": "1,3,5,7,9,15,19,25,27,53,57,65,71,87,101,151,195,247,253,255,277,289,291",
			"name": "Duplicate of A083566.",
			"keyword": "dead",
			"offset": "1,2",
			"references": 1,
			"revision": 3,
			"time": "2009-01-09T03:00:00-05:00",
			"created": "2003-09-13T03:00:00-04:00"
		}
	]
}