{
	"greeting": "Greetings from The On-Line Encyclopedia of Integer Sequences! http://oeis.org/",
	"query": "id:A084233",
	"count": 1,
	"start": 0,
	"results": [
		{
			"number": 84233,
			"data": "1,3,8,3,2,8,5,3,0,4,2,2,7,2,2,5,1,8,8,5,6,6,8,3,0,2,5,4,8,2,9,4,6,9,8,3,9,3,2,7,0,0,6,8,2,8,4,8,5,1,9,9,2,2,3,9,9,8,0,4,9,3,3,3,6,7,4,4,5,0,3,0,3,9,8,6,4,2,0,0,6,0,3,1,4,8,9,5,6,0,2,6,2,5,9,0,5,7,4,6",
			"name": "Decimal expansion of area under the curve Zeta(1/2 + t*I) from zero to its first nontrivial zero (A058303).",
			"link": [
				"Eric Weisstein's World of Mathematics, \u003ca href=\"http://mathworld.wolfram.com/RiemannZetaFunctionZeros.html\"\u003eRiemann Zeta Function Zeros\u003c/a\u003e",
				"\u003ca href=\"/index/Z#zeta_function\"\u003eIndex entries for zeta function\u003c/a\u003e."
			],
			"example": [
				"13.832853042..."
			],
			"mathematica": [
				"digits = 100; NIntegrate[ Zeta[1/2 + t*I] // Abs, {t, 0, ZetaZero[1] // Im}, WorkingPrecision -\u003e digits+5] // RealDigits[#, 10, digits]\u0026 // First (* _Jean-François Alcover_, Mar 05 2013 *)"
			],
			"program": [
				"(PARI) intnum(t=0,solve(s=14,15,imag(zeta(1/2+I*s))),abs(zeta(1/2+I*t))) /* Brad Chalfan (brad(AT)chalfan.net), Aug 31 2010 */"
			],
			"xref": [
				"Cf. A058303."
			],
			"keyword": "nonn,cons",
			"offset": "2,2",
			"author": "_Robert G. Wilson v_, May 11 2003",
			"ext": [
				"More terms from Brad Chalfan (brad(AT)chalfan.net), Aug 31 2010"
			],
			"references": 0,
			"revision": 17,
			"time": "2013-03-06T12:11:28-05:00",
			"created": "2003-09-13T03:00:00-04:00"
		}
	]
}