{
	"greeting": "Greetings from The On-Line Encyclopedia of Integer Sequences! http://oeis.org/",
	"query": "id:A084206",
	"count": 1,
	"start": 0,
	"results": [
		{
			"number": 84206,
			"data": "1,1,-2,7,-27,115,-510,2343,-11029,52896,-257457,1268098,-6307546,31633044,-159757597,811708539,-4145882814,21273287952,-109603172373,566748274099,-2940175511195,15297961574259,-79808998488751,417373462315834",
			"name": "G.f. A(x) defined by: A(x)^6 consists entirely of integer coefficients between 1 and 6 (A083946); A(x) is the unique power series solution with A(0)=1.",
			"comment": [
				"Limit a(n)/a(n+1) -\u003e r = -0.1815238859919 where A(r)=0."
			],
			"link": [
				"N. Heninger, E. M. Rains and N. J. A. Sloane, \u003ca href=\"https://arxiv.org/abs/math/0509316\"\u003eOn the Integrality of n-th Roots of Generating Functions\u003c/a\u003e, arXiv:math/0509316 [math.NT], 2005-2006.",
				"N. Heninger, E. M. Rains and N. J. A. Sloane, \u003ca href=\"https://doi.org/10.1016/j.jcta.2006.03.018\"\u003eOn the Integrality of n-th Roots of Generating Functions\u003c/a\u003e, J. Combinatorial Theory, Series A, 113 (2006), 1732-1745."
			],
			"mathematica": [
				"kmax = 25;",
				"A[x_] = Sum[a[k] x^k, {k, 0, kmax}];",
				"coes = CoefficientList[A[x]^6 + O[x]^(kmax + 1), x];",
				"r = {a[0] -\u003e 1, a[1] -\u003e 1};",
				"coes = coes /. r;",
				"Do[r = Flatten @ Append[r, Reduce[1 \u003c= coes[[k]] \u003c= 6, a[k-1], Integers] // ToRules];",
				"coes = coes /. r, {k, 3, kmax + 1}];",
				"Table[a[k], {k, 0, kmax}] /. r (* _Jean-François Alcover_, Jul 26 2018 *)"
			],
			"xref": [
				"Cf. A083946, A084202-A084205, A084207-A084212."
			],
			"keyword": "sign",
			"offset": "0,3",
			"author": "_Paul D. Hanna_, May 20 2003",
			"references": 2,
			"revision": 10,
			"time": "2018-07-26T17:50:05-04:00",
			"created": "2003-09-13T03:00:00-04:00"
		}
	]
}