{
	"greeting": "Greetings from The On-Line Encyclopedia of Integer Sequences! http://oeis.org/",
	"query": "id:A084376",
	"count": 1,
	"start": 0,
	"results": [
		{
			"number": 84376,
			"data": "1,2,3,5,8,12,18,26,37,52,72,98,133,178,236,311,407,528,682,875,1117,1419,1794,2257,2830,3533,4394,5446,6728,8283,10169,12446,15191,18492,22453,27193,32860,39614,47652,57200,68523,81921,97757,116435,138436",
			"name": "G.f.: (1+x)/Product_{m\u003e0} (1 - x^m).",
			"link": [
				"Robert Price, \u003ca href=\"/A084376/b084376.txt\"\u003eTable of n, a(n) for n = 0..1000\u003c/a\u003e"
			],
			"formula": [
				"a(n) = A000041(n) + A000041(n-1), n\u003e0.",
				"a(n) ~ exp(sqrt(2*n/3)*Pi)/(2*sqrt(3)*n) * (1 - (sqrt(3/2)/Pi + 13*Pi/(24*sqrt(6)))/sqrt(n) + (13/16 + 313*Pi^2/6912)/n). - _Vaclav Kotesovec_, Nov 04 2016"
			],
			"maple": [
				"seq(numbpart(k)+numbpart(k+1), k=0..43); # _Zerinvary Lajos_, Jun 06 2007"
			],
			"mathematica": [
				"Table[PartitionsP[n] + PartitionsP[n - 1], {n, 0, 44}] (* _Robert Price_, May 18 2020 *)"
			],
			"xref": [
				"Cf. A052816."
			],
			"keyword": "nonn",
			"offset": "0,2",
			"author": "_Vladeta Jovovic_, Jun 23 2003",
			"references": 4,
			"revision": 10,
			"time": "2020-05-18T20:00:27-04:00",
			"created": "2003-09-13T03:00:00-04:00"
		}
	]
}