{
	"greeting": "Greetings from The On-Line Encyclopedia of Integer Sequences! http://oeis.org/",
	"query": "id:A084222",
	"count": 1,
	"start": 0,
	"results": [
		{
			"number": 84222,
			"data": "1,2,-1,8,-19,62,-181,548,-1639,4922,-14761,44288,-132859,398582,-1195741,3587228,-10761679,32285042,-96855121,290565368,-871696099,2615088302,-7845264901,23535794708,-70607384119,211822152362,-635466457081,1906399371248",
			"name": "a(n) = -2*a(n-1) + 3*a(n-2), with a(0)=1, a(1)=2.",
			"link": [
				"Vincenzo Librandi, \u003ca href=\"/A084222/b084222.txt\"\u003eTable of n, a(n) for n = 0..200\u003c/a\u003e",
				"Alexandru Ciolan and Pieter Moree, \u003ca href=\"https://arxiv.org/abs/1707.02183\"\u003eBrowkin's discriminator conjecture\u003c/a\u003e, arXiv:1707.02183 [math.NT], 2017.",
				"Pieter Moree and Ana Zumalacárregui, \u003ca href=\"http://arxiv.org/abs/1504.05718\"\u003eSalajan's conjecture on discriminating terms in an exponential sequence\u003c/a\u003e, arXiv:1504.05718 [math.NT], 2015; Journal of Number Theory 160 (2016), pp. 646-665.",
				"\u003ca href=\"/index/Rec#order_02\"\u003eIndex entries for linear recurrences with constant coefficients\u003c/a\u003e, signature (-2,3)."
			],
			"formula": [
				"Binomial transform is A084221.",
				"a(n) = (5-(-3)^n)/4.",
				"G.f.: (1+4*x)/((1-x)*(1+3*x)).",
				"E.g.f.: (5*exp(x)-exp(-3*x))/4.",
				"For n \u003e 1, abs(a(n) - a(n+1)) = 3^n. - _Amarnath Murthy_ and Meenakshi Srikanth (menakan_s(AT)yahoo.com), Jul 15 2003; corrected by _Philippe Deléham_, Dec 16 2007",
				"a(n) = 9*a(n-2) - 10 with a(0) = 1 and a(1) = 2. - _Philippe Deléham_, Feb 24 2014",
				"a(2n) = -A211866(n), n\u003e0. - _Philippe Deléham_, Feb 24 2014"
			],
			"mathematica": [
				"CoefficientList[Series[(1 + 4 x)/((1 - x) (1 + 3 x)), {x, 0, 40}], x] (* _Vincenzo Librandi_, Feb 26 2014 *)",
				"LinearRecurrence[{-2, 3}, {1, 2}, 28] (* _Jean-François Alcover_, Sep 27 2017 *)"
			],
			"program": [
				"(PARI) a(n) = (5-(-3)^n)/4; \\\\ _Joerg Arndt_, Jul 14 2013",
				"(MAGMA) [(5-(-3)^n)/4: n in [0..40]]; // _Vincenzo Librandi_, Feb 26 2014"
			],
			"xref": [
				"Cf. A211866."
			],
			"keyword": "easy,sign",
			"offset": "0,2",
			"author": "_Paul Barry_, May 21 2003",
			"references": 8,
			"revision": 41,
			"time": "2021-07-22T15:11:29-04:00",
			"created": "2003-09-13T03:00:00-04:00"
		}
	]
}