{
	"greeting": "Greetings from The On-Line Encyclopedia of Integer Sequences! http://oeis.org/",
	"query": "id:A084026",
	"count": 1,
	"start": 0,
	"results": [
		{
			"number": 84026,
			"data": "1,44,171,2772,50405,216612,1036301,21177112,100808001,1000900010,10011211001,210033330012,1000175710001,20001366310002,500000464000005,2110001551000112,10000027672000001,200000187781000002",
			"name": "Diagonal of A084024.",
			"xref": [
				"Cf. A084024, A084025, A084027, A084028."
			],
			"keyword": "base,nonn",
			"offset": "1,2",
			"author": "_Amarnath Murthy_ and Meenakshi Srikanth (menakan_s(AT)yahoo.com), May 23 2003",
			"ext": [
				"Corrected and extended by _Ray Chandler_, Jun 14 2003"
			],
			"references": 4,
			"revision": 6,
			"time": "2014-08-23T13:12:43-04:00",
			"created": "2003-09-13T03:00:00-04:00"
		}
	]
}