{
	"greeting": "Greetings from The On-Line Encyclopedia of Integer Sequences! http://oeis.org/",
	"query": "id:A084897",
	"count": 1,
	"start": 0,
	"results": [
		{
			"number": 84897,
			"data": "2,6,0,4,0,0,8,1,9,0,5,3,0,9,4,0,2,8,8,6,9,6,4,2,7,4,4,8,7,2,5,0,3,4,3,3,0,9,2,7,0,6,5,2,5,5,6,3,7,6,4,9,4,8,7,7,4,8,4,1,3,2,5,4,4,5,5,6,7,9,2,8,0,5,6,8,5,1,8,5,2,6,9,5,6,1,2,1,1,1,6,8,5,4,3,2,8,8,5,5,4,4",
			"name": "Decimal expansion of arithmetic-geometric mean of (1,5).",
			"link": [
				"Ivan Panchenko, \u003ca href=\"/A084897/b084897.txt\"\u003eTable of n, a(n) for n = 1..1000\u003c/a\u003e",
				"Eric Weisstein's World of Mathematics, \u003ca href=\"http://mathworld.wolfram.com/Arithmetic-GeometricMean.html\"\u003eArithmetic-Geometric Mean\u003c/a\u003e"
			],
			"mathematica": [
				"RealDigits[ArithmeticGeometricMean[1, 5], 10, 120][[1]] (* _Vincenzo Librandi_, Mar 12 2015 *)",
				"RealDigits[N[3Pi/(2EllipticK[4/9]), 102]][[1]] (* _Jean-François Alcover_, Jun 02 2019 *)"
			],
			"program": [
				"(PARI) agm(1, 5) \\\\ _Michel Marcus_, Jun 02 2019"
			],
			"xref": [
				"Cf. A068521, A084895, A084896, A084898."
			],
			"keyword": "nonn,cons,easy",
			"offset": "1,1",
			"author": "_Eric W. Weisstein_, Jun 10 2003",
			"references": 3,
			"revision": 21,
			"time": "2019-06-02T04:41:23-04:00",
			"created": "2003-09-13T03:00:00-04:00"
		}
	]
}