{
	"greeting": "Greetings from The On-Line Encyclopedia of Integer Sequences! http://oeis.org/",
	"query": "id:A084500",
	"count": 1,
	"start": 0,
	"results": [
		{
			"number": 84500,
			"data": "0,1,2,2,3,3,4,4,4,5,5,5,6,6,6,7,7,7,8,8,8,9,9,9,10,10,10,10,11,11,11,11,12,12,12,12,13,13,13,13,14,14,14,14,15,15,15,15,16,16,16,16,17,17,17,17,18,18,18,18,19,19,19,19,20,20,20,20,21,21,21,21,22,22,22,22,23",
			"name": "a(0)=0, after which each n occurs A084506(n) times.",
			"comment": [
				"Also minimum i such that A084505(i) \u003e= n. Tells that the n-th throw (n\u003e=1) in A084501 belongs to the a(n)-th lexicographical solution A084502(a(n))."
			],
			"link": [
				"A. Karttunen, \u003ca href=\"/A084500/b084500.txt\"\u003eTable of n, a(n) for n = 0..13663\u003c/a\u003e",
				"A. Karttunen, \u003ca href=\"/A084507/a084507.scm.txt\"\u003eScheme-program for computing this sequence\u003c/a\u003e",
				"\u003ca href=\"/index/J#Juggling\"\u003eIndex entries for sequences related to juggling\u003c/a\u003e",
				"\u003ca href=\"/index/Se#sequences_which_agree_for_a_long_time\"\u003eIndex entries for sequences which agree for a long time but are different\u003c/a\u003e"
			],
			"xref": [
				"Differs from A084557 first time at the 605th term, where A084500(605) = 130, while A084557(605) = 131. Cf. A084510, A084520."
			],
			"keyword": "nonn",
			"offset": "0,3",
			"author": "_Antti Karttunen_, Jun 02 2003",
			"references": 7,
			"revision": 16,
			"time": "2021-07-19T21:20:01-04:00",
			"created": "2003-09-13T03:00:00-04:00"
		}
	]
}