{
	"greeting": "Greetings from The On-Line Encyclopedia of Integer Sequences! http://oeis.org/",
	"query": "id:A084856",
	"count": 1,
	"start": 0,
	"results": [
		{
			"number": 84856,
			"data": "21,40,96,120,168,192,240,480,432,528,720,480,528,960,1272,912,1008,1320,840,1200,1560,1680,2520,2280,1200,1248,1272,1320,4248,4392,2640,2160,3432,3480,2448,3768,3240,3360,4152,2832,4440,4488,2328,2352,5712",
			"name": "Prime(n+2)^2-prime(n)^2.",
			"formula": [
				"A031131(n)*A048448(n)."
			],
			"example": [
				"a(3)=prime(5)^2-prime(3)^2= 11^2-5^2=96"
			],
			"mathematica": [
				"Table[ Prime[n + 2]^2 - Prime[n]^2, {n, 1, 45}]"
			],
			"keyword": "nonn",
			"offset": "1,1",
			"author": "Meir Avshalomi (amomy(AT)yahoo.com), Jul 13 2003",
			"ext": [
				"Edited and extended by _Robert G. Wilson v_, Jul 19 2003"
			],
			"references": 0,
			"revision": 3,
			"time": "2012-03-30T17:30:55-04:00",
			"created": "2003-09-13T03:00:00-04:00"
		}
	]
}