{
	"greeting": "Greetings from The On-Line Encyclopedia of Integer Sequences! http://oeis.org/",
	"query": "id:A084174",
	"count": 1,
	"start": 0,
	"results": [
		{
			"number": 84174,
			"data": "1,1,3,6,14,29,61,124,252,507,1019,2042,4090,8185,16377,32760,65528,131063,262135,524278,1048566,2097141,4194293,8388596,16777204,33554419,67108851,134217714,268435442,536870897,1073741809,2147483632",
			"name": "a(n) = 3*a(n-1) - a(n-2) - 3*a(n-3) + 2*a(n-4).",
			"comment": [
				"Original name was: Generalized Jacobsthal numbers.",
				"Row sums of triangle A131087. - _Gary W. Adamson_, Jun 14 2007"
			],
			"link": [
				"Vincenzo Librandi, \u003ca href=\"/A084174/b084174.txt\"\u003eTable of n, a(n) for n = 0..1000\u003c/a\u003e",
				"\u003ca href=\"/index/Rec#order_04\"\u003eIndex entries for linear recurrences with constant coefficients\u003c/a\u003e, signature (3,-1,-3,2)."
			],
			"formula": [
				"a(n) = 2^n + (-1)^n/4 - (2*n+1)/4.",
				"a(n+2) = a(n+1) + 2*a(n) + n, a(0)=1, a(1)=1.",
				"a(n) = A084172(n) - A001045(n).",
				"a(n) = floor(2^n - n*(n+1)/2). - _Zerinvary Lajos_, Apr 29 2007",
				"G.f.: (1 - 2*x + x^2 + x^3)/(1 - 3*x + x^2 + 3*x^3 - 2*x^4). - _Colin Barker_, Jan 16 2012"
			],
			"maple": [
				"seq(floor(2^n-n(n+1)/2),n=0..31); # _Zerinvary Lajos_, Apr 29 2007"
			],
			"mathematica": [
				"LinearRecurrence[{3,-1,-3,2},{1,1,3,6},40] (* _Harvey P. Dale_, Feb 17 2021 *)"
			],
			"program": [
				"(MAGMA) [2^n+(-1)^n/4-(2*n+1)/4: n in [0..35]]; // _Vincenzo Librandi_, Jul 05 2011"
			],
			"xref": [
				"Cf. A131087."
			],
			"keyword": "nonn,easy",
			"offset": "0,3",
			"author": "_Paul Barry_, May 18 2003",
			"references": 5,
			"revision": 23,
			"time": "2021-02-17T14:09:23-05:00",
			"created": "2003-09-13T03:00:00-04:00"
		}
	]
}