{
	"greeting": "Greetings from The On-Line Encyclopedia of Integer Sequences! http://oeis.org/",
	"query": "id:A084294",
	"count": 1,
	"start": 0,
	"results": [
		{
			"number": 84294,
			"data": "2,2,2,2,2,3,3,2,3,3,3,4,4,3,4,4,5,5,5,5,4,5,5,7,6,6,5,5,5,5,7,7,7,7,8,7,8,9,8,8,7,7,9,8,9,8,9,11,10,10,11,10,10,9,10,11,10,9,9,9,8,10,11,11,10,11,12,12,12,12,12,12,13,13,13,13,14,14,14,14,15,15,15,14,15,14,13",
			"name": "Number of primes in the interval [prime(n),n+prime(n)].",
			"formula": [
				"a(n) = Pi(n+prime(n)) - n + 1 = A000720(n+A000040(n)) - n + 1. [corrected by _Michel Marcus_, Aug 28 2019]"
			],
			"mathematica": [
				"t[x_] := Table[w, {w, Prime[x], x+Prime[x]}] Table[Count[PrimeQ[t[n]], True], {n, 1, 128}] (* or *) Table[PrimePi[n+Prime[n]]-n+1, {n, 1, 25}];"
			],
			"program": [
				"(PARI) a(n) = primepi(n+prime(n)) - n + 1; \\\\ _Michel Marcus_, Aug 28 2019"
			],
			"xref": [
				"Cf. A000040, A000720, A061067, A061068, A084295."
			],
			"keyword": "nonn",
			"offset": "1,1",
			"author": "_Labos Elemer_, May 27 2003",
			"references": 0,
			"revision": 15,
			"time": "2019-08-28T08:16:24-04:00",
			"created": "2003-09-13T03:00:00-04:00"
		}
	]
}