{
	"greeting": "Greetings from The On-Line Encyclopedia of Integer Sequences! http://oeis.org/",
	"query": "id:A084967",
	"count": 1,
	"start": 0,
	"results": [
		{
			"number": 84967,
			"data": "5,25,35,55,65,85,95,115,125,145,155,175,185,205,215,235,245,265,275,295,305,325,335,355,365,385,395,415,425,445,455,475,485,505,515,535,545,565,575,595,605,625,635,655,665,685,695,715,725,745,755,775,785",
			"name": "Multiples of 5 whose GCD with 6 is 1.",
			"comment": [
				"Third row of A083140.",
				"Positions of 5 in A020639. - _Zak Seidov_, Apr 29 2015"
			],
			"link": [
				"Amiram Eldar, \u003ca href=\"/A084967/b084967.txt\"\u003eTable of n, a(n) for n = 1..10000\u003c/a\u003e",
				"\u003ca href=\"/index/Rec#order_03\"\u003eIndex entries for linear recurrences with constant coefficients\u003c/a\u003e, signature (1,1,-1)."
			],
			"formula": [
				"Numbers of the form 5k for which gcd(5k, 6) = 1.",
				"a(n) = 5*A007310(n). - _Adriano Caroli_, Oct 03 2010",
				"From _Colin Barker_, Feb 24 2013: (Start)",
				"a(n) = 5*(-3 + (-1)^n + 6*n)/2.",
				"a(n) = a(n-1) + a(n-2) - a(n-3).",
				"G.f.: 5*x*(x^2+4*x+1) / ((x-1)^2*(x+1)). (End)",
				"Lim_{n-\u003einfinity} a(n)/n = A038111(3)/A038110(3) = 15. - _Vladimir Shevelev_, Jan 20 2015",
				"For n \u003e 2, a(n) = a(n-2) + 30. - _Zak Seidov_, Apr 29 2015",
				"a(n) = A007310(A273669(n)). - _Antti Karttunen_, May 20 2017"
			],
			"mathematica": [
				"5Select[ Range[160], GCD[ #, 2*3] == 1 \u0026 ]",
				"Select[Range[5, 785, 10], Mod[#, 3] \u003e 0 \u0026] (* _Zak Seidov_, Apr 29 2015 *)",
				"a[1] = 5; a[n_] := a[n] = a[n - 1] + 10*(2 - Mod[n, 2]); Table[a[n], {n, 50}] (* _Zak Seidov_, Apr 29 2015 *)"
			],
			"program": [
				"(PARI) is(n)=n%5==0 \u0026\u0026 gcd(n,6)==1 \\\\ _Charles R Greathouse IV_, Nov 19 2014",
				"(PARI) list(lim)=5*select(k-\u003egcd(n,6)==1, [1..lim\\5]) \\\\ _Charles R Greathouse IV_, Nov 19 2014"
			],
			"xref": [
				"Cf. A083140, A063149, A007310 (5-rough numbers), A273669.",
				"Cf. A020639. - _Zak Seidov_, Apr 29 2015"
			],
			"keyword": "nonn,easy",
			"offset": "1,1",
			"author": "_Robert G. Wilson v_, Jun 15 2003",
			"references": 26,
			"revision": 45,
			"time": "2020-12-08T03:50:00-05:00",
			"created": "2003-09-13T03:00:00-04:00"
		}
	]
}