{
	"greeting": "Greetings from The On-Line Encyclopedia of Integer Sequences! http://oeis.org/",
	"query": "id:A084347",
	"count": 1,
	"start": 0,
	"results": [
		{
			"number": 84347,
			"data": "0,1,2,3,4,5,6,7,8,9,10,11,12,14,15,16,18,20,21,22,24,25,27,28,30,32,33,35,36,40,42,44,45,48,49,50,54,55,56,60,63,64,66,70,72,75,77,80,81,84,88,90,96,98,99,100,105,108,110,111,112,120,121,125,126,128,132,135,140",
			"name": "Duplicate of A084034.",
			"keyword": "dead",
			"offset": "1,3",
			"references": 0,
			"revision": 15,
			"time": "2018-10-10T10:07:59-04:00",
			"created": "2003-09-13T03:00:00-04:00"
		}
	]
}