{
	"greeting": "Greetings from The On-Line Encyclopedia of Integer Sequences! http://oeis.org/",
	"query": "id:A085034",
	"count": 1,
	"start": 0,
	"results": [
		{
			"number": 85034,
			"data": "3,2,2,2,3,1,2,3,3,2,4,1,2,2,3,2,5,1,4,1,4,2,3,3,4,2,5,2,6,1,5,2,3,2,3,1,5,2,8,2,5,2,3,3,5,2,7,2,7,4,5,2,5,1,5,3,6,2,4,3,4,3,5,2,4,1,5,3,7,3,6,2,6,3,7,4,4,2",
			"name": "Number of prime factors of cyclotomic(n,9), which is A019327(n), the value of the n-th cyclotomic polynomial evaluated at x=9.",
			"comment": [
				"The Mobius transform of this sequence yields A057952, number of prime factors of 9^n-1."
			],
			"reference": [
				"See references at A085021"
			],
			"mathematica": [
				"Table[Plus@@Transpose[FactorInteger[Cyclotomic[n, 9]]][[2]], {n, 1, 100}]"
			],
			"xref": [
				"Cf. A019327, A057952, A085021."
			],
			"keyword": "nonn",
			"offset": "1,1",
			"author": "_T. D. Noe_, Jun 19 2003",
			"references": 1,
			"revision": 3,
			"time": "2012-03-30T17:22:28-04:00",
			"created": "2003-09-13T03:00:00-04:00"
		}
	]
}