{
	"greeting": "Greetings from The On-Line Encyclopedia of Integer Sequences! http://oeis.org/",
	"query": "id:A085904",
	"count": 1,
	"start": 0,
	"results": [
		{
			"number": 85904,
			"data": "1,2,3,4,5,6,7,8,14,48",
			"name": "Numbers n such that n, n+1 and n+2 are highly composite numbers (2), i.e., all prime divisors \u003c= 7 (A002473).",
			"comment": [
				"No more terms \u003c 3*10^7. Probably no more terms. - _David Wasserman_, Feb 10 2005",
				"No more terms \u003c 2^180. - _Donovan Johnson_, Oct 10 2012",
				"There are no further terms: see A003032 (and maybe A002072). - _Don Reble_, Mar 14 2019"
			],
			"example": [
				"48 is a member as 48, 49 and 50 have all prime divisors \u003c= 7."
			],
			"program": [
				"(PARI) mx=2^180+2; v=vector(4607193); c=0; for(e1=0, 180, x1=2^e1; for(e2=0, 113, x2=x1*3^e2; if(x2\u003emx, next(2)); for(e3=0, 77, x3=x2*5^e3; if(x3\u003emx, next(2)); for(e4=0, 64, x4=x3*7^e4; if(x4\u003emx, next(2)); c++; v[c]=x4)))); v=vecsort(v); for(i=1, 4607191, if(v[i+1]-v[i]==1, if(v[i+2]-v[i]==2, print1(v[i] \", \")))) /* _Donovan Johnson_, Oct 10 2012 */"
			],
			"xref": [
				"Cf. A002473."
			],
			"keyword": "nonn,fini,full",
			"offset": "1,2",
			"author": "_Amarnath Murthy_, Jul 09 2003",
			"ext": [
				"Offset corrected and missing term added by _Donovan Johnson_, Oct 10 2012"
			],
			"references": 0,
			"revision": 11,
			"time": "2019-03-14T20:54:46-04:00",
			"created": "2003-09-13T03:00:00-04:00"
		}
	]
}