{
	"greeting": "Greetings from The On-Line Encyclopedia of Integer Sequences! http://oeis.org/",
	"query": "id:A085072",
	"count": 1,
	"start": 0,
	"results": [
		{
			"number": 85072,
			"data": "1,2,5,2,4,4,19,16,4,2,6,4,1,6,65,2,2,4,8,1,4,6,16,24,7,98,16,2,12,6,211,1,1,3,64,4,1,7,14,2,24,4,1,5,5,6,32,72,2,4,11,6,2,2,32,1,4,2,24,6,3,5,665,4,4,4,7,5,8,2,36,6,3,1,16,5,24,4,32,544,3,6,6,1,1,4,16,8,36,2",
			"name": "Smallest k such that n and n+k have the same prime signature.",
			"link": [
				"Alois P. Heinz, \u003ca href=\"/A085072/b085072.txt\"\u003eTable of n, a(n) for n = 2..20000\u003c/a\u003e"
			],
			"formula": [
				"a(prime(k)^r) = prime(k+1)^r- prime(k)^r.",
				"a(2^m*prime(k)) = 2^m*(prime(k+1) - prime(k)).",
				"a(n) = A081761(n) - n. - _Michel Marcus_, Nov 02 2020"
			],
			"example": [
				"a(28) = 17 as 28 = 2^2*7 and 28+17 = 45 = 3^2*5, both have the prime signature p^2*q where p and q are primes."
			],
			"maple": [
				"s:= n-\u003e sort(map(i-\u003e i[2], ifactors(n)[2])):",
				"a:= proc(n) option remember; local k;",
				"      for k while s(n)\u003c\u003es(n+k) do od; k",
				"    end:",
				"seq(a(n), n=2..100);  # _Alois P. Heinz_, Feb 28 2018"
			],
			"mathematica": [
				"s[n_] := Sort[FactorInteger[n][[All, 2]]];",
				"a[n_] := Module[{sn = s[n], k}, For[k = 1, True, k++, If[sn == s[n+k], Return[k]]]];",
				"a /@ Range[2, 100] (* _Jean-François Alcover_, Nov 02 2020 *)"
			],
			"program": [
				"(PARI) a(n) = {my(k=1, s = vecsort(factor(n)[,2]~)); while (vecsort(factor(n+k)[,2]~) != s, k++); k;} \\\\ _Michel Marcus_, Nov 02 2020"
			],
			"xref": [
				"Cf. A046523, A081761, A085073."
			],
			"keyword": "nonn",
			"offset": "2,2",
			"author": "_Amarnath Murthy_, Jul 01 2003",
			"ext": [
				"More terms from _David Wasserman_, Jan 12 2005"
			],
			"references": 6,
			"revision": 25,
			"time": "2020-12-28T07:44:45-05:00",
			"created": "2003-09-13T03:00:00-04:00"
		}
	]
}