{
	"greeting": "Greetings from The On-Line Encyclopedia of Integer Sequences! http://oeis.org/",
	"query": "id:A085883",
	"count": 1,
	"start": 0,
	"results": [
		{
			"number": 85883,
			"data": "2,3,4,4,5,5,6,6,7,6,8,7,8,8,9,8,10,8,10,9,10,8,12,9,10,10,11,10,12,10,12,11,12,10,14,10,12,12,13,11,14,11,14,12,13,11,16,11,14,13,14,12,16,12,15,13,14,12,17,13,14,14,16,14,17,14,16,15,16,14,18,14,16,16,17,14",
			"name": "Let r and s be such that r + s = n; a(n) = maximum value of tau(r) + tau(s).",
			"link": [
				"Antti Karttunen, \u003ca href=\"/A085883/b085883.txt\"\u003eTable of n, a(n) for n = 2..16385\u003c/a\u003e"
			],
			"example": [
				"a(8) = 6, the partitions are (1,7), (2,6), (3,5), (4,4) which give 3, 6, 4 and 6 as the sum of the number of divisors of both parts."
			],
			"program": [
				"(PARI) A085883(n) = { my(m=0); for(r=1,n-1,m = max(m,(numdiv(r)+numdiv(n-r)))); m; }; \\\\ _Antti Karttunen_, Dec 14 2017"
			],
			"xref": [
				"Cf. A085887."
			],
			"keyword": "nonn,look",
			"offset": "2,1",
			"author": "_Amarnath Murthy_, Jul 08 2003",
			"ext": [
				"More terms from _David Wasserman_, Feb 10 2005"
			],
			"references": 3,
			"revision": 13,
			"time": "2017-12-14T21:24:22-05:00",
			"created": "2003-09-13T03:00:00-04:00"
		}
	]
}