{
	"greeting": "Greetings from The On-Line Encyclopedia of Integer Sequences! http://oeis.org/",
	"query": "id:A085326",
	"count": 1,
	"start": 0,
	"results": [
		{
			"number": 85326,
			"data": "0,2,3,61,5,0,7,61277761,0,0,11,0,31,41,0,61,71,0,163,2,0,0,18258901387,0,5265674839116110941,6716872795737314976899264656807717363719079328404119318887571869813,0",
			"name": "a(n)=p is smallest prime such that rev(p)=n^j with some exponent, or 0 if no such prime exists [when e.g. n=1,n=3k or n=11k, k\u003e1].",
			"example": [
				"n=86: a(86)=6505868216024313214870917495263873755562243530151045641,",
				"and rev[86]=86^28."
			],
			"xref": [
				"Cf. A085298, A085299, A085300, A085324, A085325."
			],
			"keyword": "nonn,base",
			"offset": "1,2",
			"author": "_Labos Elemer_, Jul 03 2003",
			"references": 0,
			"revision": 6,
			"time": "2013-10-15T22:32:12-04:00",
			"created": "2003-09-13T03:00:00-04:00"
		}
	]
}