{
	"greeting": "Greetings from The On-Line Encyclopedia of Integer Sequences! http://oeis.org/",
	"query": "id:A085733",
	"count": 1,
	"start": 0,
	"results": [
		{
			"number": 85733,
			"data": "4,6,9,46,49,62,65,69,91,93,94,95,466,469,493,497,622,623,626,629,655,694,695,697,698,699,913,914,917,933,934,939,943,949,951,955,958,959,4661,4666,4667,4694,4699,4934,4939,4971,4979,6227,6233,6238",
			"name": "Right-truncatable semiprimes.",
			"comment": [
				"Semiprimes in which repeatedly deleting the rightmost digit gives a semiprime at every step until a single-digit semiprime remains.",
				"The sequence is finite. According to Shyam Sunder Gupta the number 95861957783594714393831931415189937897 is the largest right-truncatable semiprime.",
				"The total number of right-truncatable semiprimes including the single digit semiprimes 4, 6 and 9 is 56076. - _Shyam Sunder Gupta_, Jan 13 2008"
			],
			"reference": [
				"Shyam Sunder Gupta, Truncatable semi-primes, Mathematical Spectrum 39:3 (2007), pp. 109-112."
			],
			"link": [
				"\u003ca href=\"/index/Tri#tprime\"\u003eIndex entries for sequences related to truncatable primes\u003c/a\u003e",
				"I. O. Angell and H. J. Godwin, \u003ca href=\"http://www.ams.org/journals/mcom/1977-31-137/S0025-5718-1977-0427213-2/S0025-5718-1977-0427213-2.pdf\"\u003eOn truncatable primes\u003c/a\u003e, Math. Comput. 31:137, 265-267, 1977.",
				"G. L. Honaker, Jr., \u003ca href=\"http://primes.utm.edu/curios/page.php?short=46613113151331733179\"\u003ePrime Curios!\u003c/a\u003e",
				"Shyam Sunder Gupta, \u003ca href=\"http://primes.utm.edu/curios/page.php?curio_id=6861\"\u003eThe largest right-truncatable semiprime.\u003c/a\u003e Prime Curios."
			],
			"xref": [
				"Cf. A001358, A213019."
			],
			"keyword": "base,fini,nonn",
			"offset": "1,1",
			"author": "_G. L. Honaker, Jr._, Jul 20 2003",
			"ext": [
				"More terms from _Reinhard Zumkeller_, Jul 22 2003",
				"More terms from _Hugo Pfoertner_, Jul 22 2003"
			],
			"references": 3,
			"revision": 24,
			"time": "2018-12-08T02:22:42-05:00",
			"created": "2003-09-13T03:00:00-04:00"
		}
	]
}