{
	"greeting": "Greetings from The On-Line Encyclopedia of Integer Sequences! http://oeis.org/",
	"query": "id:A085853",
	"count": 1,
	"start": 0,
	"results": [
		{
			"number": 85853,
			"data": "1,1,1,2,3,1,5,11,7,1,14,42,42,15,1,42,162,227,137,31,1,132,627,1145,996,408,63,1,429,2432,5516,6345,3849,1143,127,1,1430,9453,25752,37141,30238,13634,3062,255,1,4862,36821,117581,205138,211512",
			"name": "Triangle T(n, k) read by rows; given by [1, 1, 1, 1, 1, 1, 1, 1, ...] DELTA [1, 0, 2, 0, 2, 0, 3, 0, 2, 0, 4, 0, 2, 0, ...] (A000005 interspersed with 0's) where DELTA is Deléham's operator defined in A084938.",
			"link": [
				"Alois P. Heinz, \u003ca href=\"/A085853/b085853.txt\"\u003eRows n = 0..140, flattened\u003c/a\u003e"
			],
			"formula": [
				"T(n,0)= A000108(n), Catalan numbers ."
			],
			"example": [
				"Triangle begins :",
				"1;",
				"1, 1;",
				"2, 3, 1;",
				"5, 11, 7, 1;",
				"14, 42, 42, 15, 1; ..."
			],
			"xref": [
				"Cf. A000005, A000012, A000108, A000225 (first subdiagonal)."
			],
			"keyword": "nonn,tabl",
			"offset": "0,4",
			"author": "_N. J. A. Sloane_, Aug 16 2003",
			"references": 1,
			"revision": 11,
			"time": "2015-08-08T11:04:19-04:00",
			"created": "2003-09-13T03:00:00-04:00"
		}
	]
}