{
	"greeting": "Greetings from The On-Line Encyclopedia of Integer Sequences! http://oeis.org/",
	"query": "id:A085311",
	"count": 1,
	"start": 0,
	"results": [
		{
			"number": 85311,
			"data": "1,2,2,2,2,4,4,2,4,4,6,4,4,8,4,2,3,8,10,4,8,12,12,4,6,8,10,8,8,8,16,2,12,6,8,8,10,20,8,4,6,16,22,12,8,24,24,4,22,12,6,8,14,20,12,8,20,16,30,8,16,32,16,3,8,24,34,6,24,16,36,8,10,20,12,20,24,16,40,4,28,12,42,16,6",
			"name": "Number of distinct 8th powers modulo n.",
			"comment": [
				"This sequence is multiplicative. - Leon P Smith, Apr 16 2005"
			],
			"link": [
				"T. D. Noe, \u003ca href=\"/A085311/b085311.txt\"\u003eTable of n, a(n) for n = 1..1000\u003c/a\u003e",
				"S. Li, \u003ca href=\"http://pldml.icm.edu.pl/pldml/element/bwmeta1.element.bwnjournal-article-aav86i2p113bwm\"\u003eOn the number of elements with maximal order in the multiplicative group modulo n\u003c/a\u003e, Acta Arithm. 86 (2) (1998) 113, see proof of theorem 2.1",
				"R. J. Mathar, \u003ca href=\"http://www.mpia.de/~mathar/public/mathar20171110.pdf\"\u003eSize of the set of residues of integer powers of fixed exponent\u003c/a\u003e, (2017)."
			],
			"maple": [
				"A085311 := proc(m)",
				"    {seq( modp(b^8,m),b=0..m-1) };",
				"    nops(%) ;",
				"end proc:",
				"seq(A085311(m),m=1..100) ; # _R. J. Mathar_, Sep 22 2017"
			],
			"mathematica": [
				"a[n_] := Table[PowerMod[i, 8, n], {i, 0, n - 1}] // Union // Length;",
				"Array[a, 100] (* _Jean-François Alcover_, Mar 24 2020 *)"
			],
			"program": [
				"(PARI) a(n)=my(f=factor(n)); prod(i=1, #f[, 1], my(k=f[i, 1]^f[i, 2]); #vecsort(vector(k, i, i^8%k), , 8)) \\\\ _Charles R Greathouse IV_, Sep 05 2013"
			],
			"xref": [
				"Cf. A000224[k=2], A046530[k=3], A052273[k=4], A052274[k=5], A052275[k=6], A085310[k=7], A085312[k=9], A085313[k=10], A085314[k=11], A228849[k=12], A055653."
			],
			"keyword": "nonn,mult",
			"offset": "1,2",
			"author": "_Labos Elemer_, Jun 27 2003",
			"references": 13,
			"revision": 22,
			"time": "2020-03-24T14:04:50-04:00",
			"created": "2003-09-13T03:00:00-04:00"
		}
	]
}