{
	"greeting": "Greetings from The On-Line Encyclopedia of Integer Sequences! http://oeis.org/",
	"query": "id:A085154",
	"count": 1,
	"start": 0,
	"results": [
		{
			"number": 85154,
			"data": "1,2,4,6,8,10,12,16,18,24,30,32,33,36,42,48,60,64,65,66,72,78,80,84,96,102,104,105,108,110,112,114,120,128,129,130,132,144,150,160,165,168,192,195,196,198,200,204,208,210,216,220,224,228,240,256,258,260",
			"name": "a(n+1) = smallest number \u003ea(n) having more prime factors than a(n), with or without repetitions; a(1)=1.",
			"comment": [
				"A001221(a(n+1))\u003eA001221(a(n)) or A001222(a(n+1))\u003eA001222(a(n))."
			],
			"mathematica": [
				"a[n_] := a[n] = If[n == 1, 1, Module[{k, nu, om}, For[k = a[n-1]+1; nu = PrimeNu[a[n-1]]; om = PrimeOmega[a[n-1]], True, k++, If[PrimeNu[k] \u003e nu || PrimeOmega[k] \u003e om, Return[k]]]]];",
				"Array[a, 100] (* _Jean-François Alcover_, Oct 07 2021 *)"
			],
			"program": [
				"(Python)",
				"from sympy import factorint",
				"def aupton(terms):",
				"    alst, wn, Wn, k = [1], 0, 0, 1",
				"    while len(alst) \u003c terms:",
				"        while True:",
				"            k += 1",
				"            pf = factorint(k, multiple=True)",
				"            wk, Wk = len(pf), len(set(pf))",
				"            if wk \u003e wn or Wk \u003e Wn:",
				"                break",
				"        alst.append(k)",
				"        wn, Wn = wk, Wk",
				"    return alst",
				"print(aupton(58)) # _Michael S. Branicky_, Oct 07 2021"
			],
			"xref": [
				"Cf. A001221, A001222."
			],
			"keyword": "nonn",
			"offset": "1,2",
			"author": "_Reinhard Zumkeller_, Aug 10 2003",
			"references": 0,
			"revision": 11,
			"time": "2021-10-07T09:28:49-04:00",
			"created": "2003-09-13T03:00:00-04:00"
		}
	]
}