{
	"greeting": "Greetings from The On-Line Encyclopedia of Integer Sequences! http://oeis.org/",
	"query": "id:A085470",
	"count": 1,
	"start": 0,
	"results": [
		{
			"number": 85470,
			"data": "2,-1,8,-3,-5,41,-31,11,-33,286,-344,250,-63,-279,2577,-4418,4822,-2423,489,-2895,28624,-64891,93624,-70501,28504,-4785,-35685,378317,-1073889,1916161,-1925999,1169751,-392971,56475,-509985,5795682,-19792118,41973586",
			"name": "Triangle of coefficients of powers of e^2 in numerators of Sum_{k\u003e=1} {1 / (1 + k^2*Pi^2)^n}.",
			"link": [
				"Eric Weisstein's World of Mathematics, \u003ca href=\"http://mathworld.wolfram.com/InfiniteSeries.html\"\u003eInfinite Series\u003c/a\u003e"
			],
			"example": [
				"{2, -3 + 8*e^2 - e^4, 11 - 31*e^2 + 41*e^4 - 5*e^6}"
			],
			"keyword": "sign,tabl",
			"offset": "1,1",
			"author": "_Eric W. Weisstein_, Jul 01 2003",
			"references": 0,
			"revision": 5,
			"time": "2015-07-30T22:20:19-04:00",
			"created": "2003-09-13T03:00:00-04:00"
		}
	]
}