{
	"greeting": "Greetings from The On-Line Encyclopedia of Integer Sequences! http://oeis.org/",
	"query": "id:A085921",
	"count": 1,
	"start": 0,
	"results": [
		{
			"number": 85921,
			"data": "1,2,3,5,6,8,10,11,14,16,17,18,19,21,22,24,25,29,30,32,33,34,35,37",
			"name": "Duplicate of A005243.",
			"keyword": "dead",
			"offset": "1,2",
			"references": 0,
			"revision": 3,
			"time": "2007-05-11T03:00:00-04:00",
			"created": "2003-09-13T03:00:00-04:00"
		}
	]
}