{
	"greeting": "Greetings from The On-Line Encyclopedia of Integer Sequences! http://oeis.org/",
	"query": "id:A085728",
	"count": 1,
	"start": 0,
	"results": [
		{
			"number": 85728,
			"data": "10,19,32,45,70,81,99,125,134,154,157,183,185,189,193,236,238,245,260,269,282,300,303,313,333,341,352,354,359,371,381,384,394,397,417,453,464,527,532,562,564,595,601,606,615,620,633,641,654,670,690,699,708",
			"name": "There are never n semiprimes between any k and 2k; or values which do not occur in the sequence of number of semiprimes between n and 2n (inclusive).",
			"xref": [
				"Cf. A001358, A085727."
			],
			"keyword": "nonn",
			"offset": "0,1",
			"author": "_Jason Earls_, Jul 20 2003",
			"ext": [
				"More terms from _Ray Chandler_, Nov 22 2003"
			],
			"references": 0,
			"revision": 8,
			"time": "2017-12-15T17:36:27-05:00",
			"created": "2003-09-13T03:00:00-04:00"
		}
	]
}