{
	"greeting": "Greetings from The On-Line Encyclopedia of Integer Sequences! http://oeis.org/",
	"query": "id:A085798",
	"count": 1,
	"start": 0,
	"results": [
		{
			"number": 85798,
			"data": "1,12,42,70,133,286,393,463",
			"name": "Dimensions n such that the (5,n)-cross lattice-tiles R^n.",
			"reference": [
				"J. Charlebois, TILING BY (k, n)-CROSSES, Furman Univ. Electronic J. Undergrad. Math., 7 (2001), 1-11.",
				"S. K. Stein and S. Szabo, Algebra and Tiling, MAA Carus Monograph 25, 1994, Chapter 3."
			],
			"link": [
				"J. Charlebois, \u003ca href=\"http://math.furman.edu/~mwoodard/fuejum/content/2001/2001paper1.pdf\"\u003eTILING BY (k, n)-CROSSES\u003c/a\u003e"
			],
			"xref": [
				"Cf. A085795-A085797."
			],
			"keyword": "nonn",
			"offset": "1,2",
			"author": "_N. J. A. Sloane_, Jul 24 2003",
			"references": 3,
			"revision": 3,
			"time": "2012-03-30T16:49:45-04:00",
			"created": "2003-09-13T03:00:00-04:00"
		}
	]
}