{
	"greeting": "Greetings from The On-Line Encyclopedia of Integer Sequences! http://oeis.org/",
	"query": "id:A085511",
	"count": 1,
	"start": 0,
	"results": [
		{
			"number": 85511,
			"data": "1,0,-1,6,0,-96,1856,-19866,194701,-143840,-12421376,-2242688,7161224400,-182262318208,4419601227184,-105598371081024,1963290383833664,-34552138617760368,6240219707831587,4597964531722783442,255030441797039438464,-20656928385327220865224",
			"name": "Determinant of the n X n matrix whose element (i,j) equals sigma(|i-j|) where sigma(n) is the sum of divisors of n and sigma(0) = 0.",
			"maple": [
				"a:= n-\u003e LinearAlgebra[Determinant](Matrix(n,",
				"        (i,j)-\u003e numtheory[sigma](abs(i-j)))):",
				"seq(a(n), n=0..21);  # _Alois P. Heinz_, Jun 17 2021"
			],
			"program": [
				"(Sage)",
				"def A085511(n) : return matrix([[0 if i==j else sigma(i-j) for j in range(n)] for i in range(n)]).determinant() # _Eric M. Schmidt_, May 04 2013"
			],
			"xref": [
				"Cf. A071084, A000203."
			],
			"keyword": "sign",
			"offset": "0,4",
			"author": "Yuval Dekel (dekelyuval(AT)hotmail.com), Aug 19 2003",
			"ext": [
				"More terms from _Eric M. Schmidt_, May 04 2013",
				"a(0)=1 prepended by _Alois P. Heinz_, Jun 17 2021"
			],
			"references": 2,
			"revision": 9,
			"time": "2021-06-17T08:29:27-04:00",
			"created": "2003-09-13T03:00:00-04:00"
		}
	]
}