{
	"greeting": "Greetings from The On-Line Encyclopedia of Integer Sequences! http://oeis.org/",
	"query": "id:A085202",
	"count": 1,
	"start": 0,
	"results": [
		{
			"number": 85202,
			"data": "0,1,1,2,2,2,3,4,4,3,4,5,9,6,4,5,9,10,14,9,5,6,10,23,15,23,11,6,7,11,24,37,24,28,14,7,8,12,25,38,65,29,37,16,8,9,13,26,39,66,79,38,42,19,9,10,23,27,40,67,80,107,43,51,23,10,11,24,65,41,68,81,108,121,52,65,25,11",
			"name": "Transpose of A085201.",
			"keyword": "nonn,tabl",
			"offset": "0,4",
			"author": "_Antti Karttunen_ Jun 23 2003",
			"references": 1,
			"revision": 2,
			"time": "2012-03-31T14:02:28-04:00",
			"created": "2003-09-13T03:00:00-04:00"
		}
	]
}