{
	"greeting": "Greetings from The On-Line Encyclopedia of Integer Sequences! http://oeis.org/",
	"query": "id:A086582",
	"count": 1,
	"start": 0,
	"results": [
		{
			"number": 86582,
			"data": "1,1,1,2,1,2,3,6,1,2,3,6,7,10,16,26,1,2,3,6,7,10,16,26,29,34,46,50,75,102,146,180,1,2,3,6,7,10,16,26,29,34,46,50,75,102,146,180,207,246,312,310,409,498,572,440,633,858,1164,1368,1726,2170,2536,2512,1,2,3,6,7,10",
			"name": "First 2^n terms of the self-convolution generates the next 2^n terms of this sequence after the 2^n-th term, for all n\u003e=0, where a(0)=1.",
			"example": [
				"The first 8 terms of the self-convolution of {1,1,1,2,1,2,3,6} gives the next 8 terms: {1,2,3,6,7,10,16,26}; together these form the first 16 terms of this sequence: {1,1,1,2,1,2,3,6, 1,2,3,6,7,10,16,26}."
			],
			"xref": [
				"The self-convolution is A086583, the 2^n-th terms are given by A086584."
			],
			"keyword": "easy,nonn",
			"offset": "0,4",
			"author": "_Paul D. Hanna_, Jul 23 2003",
			"references": 2,
			"revision": 4,
			"time": "2012-03-30T18:36:38-04:00",
			"created": "2003-09-13T03:00:00-04:00"
		}
	]
}