{
	"greeting": "Greetings from The On-Line Encyclopedia of Integer Sequences! http://oeis.org/",
	"query": "id:A086652",
	"count": 1,
	"start": 0,
	"results": [
		{
			"number": 86652,
			"data": "6,13,28,58,120,244,496,1000,2016,4048,8128,16288,32640,65344,130816,261760,523776,1047808,2096128,4192768,8386560,16774144,33550336,67102720,134209536,268423168,536854528,1073717248,2147450880",
			"name": "a(n) = A000225(n+3)-A052955(n).",
			"link": [
				"\u003ca href=\"/index/Rec#order_03\"\u003eIndex entries for linear recurrences with constant coefficients\u003c/a\u003e, signature (2,2,-4)."
			],
			"formula": [
				"a(2n) = A006516(n+2); a(2n+1) = A086221(n+1).",
				"G.f.: ( 6+x-10*x^2 ) / ( (2*x-1)*(2*x^2-1) ). - _R. J. Mathar_, Sep 15 2012",
				"a(n) = 2^(n+3)-((5-(-1)^n)/2)*2^((2*n-1+(-1)^n)/4). - _Luce ETIENNE_, Sep 23 2014"
			],
			"maple": [
				"f:=n-\u003e2^(n+3)-((5-(-1)^n)/2)*2^((2*n-1+(-1)^n)/4);"
			],
			"xref": [
				"Cf. A000225, A052955, A055010, A086221."
			],
			"keyword": "nonn,easy",
			"offset": "0,1",
			"author": "_Marco Matosic_, Jul 27 2003",
			"ext": [
				"Edited and extended by _David Wasserman_, Feb 17 2005"
			],
			"references": 1,
			"revision": 14,
			"time": "2015-06-13T00:51:07-04:00",
			"created": "2003-09-13T03:00:00-04:00"
		}
	]
}