{
	"greeting": "Greetings from The On-Line Encyclopedia of Integer Sequences! http://oeis.org/",
	"query": "id:A086825",
	"count": 1,
	"start": 0,
	"results": [
		{
			"number": 86825,
			"data": "1,0,0,1,1,2,5,8,26",
			"name": "Number of knots (prime or composite) with n crossings.",
			"comment": [
				"For n = 0, we have the trivial knot (the unknot), which is neither a prime knot nor a composite knot. - _Daniel Forgues_, Feb 12 2016"
			],
			"link": [
				"S. R. Finch, \u003ca href=\"/A002863/a002863_4.pdf\"\u003eKnots, links and tangles\u003c/a\u003e, August 8, 2003. [Cached copy, with permission of the author]",
				"Eric Weisstein's World of Mathematics, \u003ca href=\"http://mathworld.wolfram.com/Knot.html\"\u003eKnot\u003c/a\u003e",
				"Eric Weisstein's World of Mathematics, \u003ca href=\"http://mathworld.wolfram.com/Unknot.html\"\u003eUnknot\u003c/a\u003e",
				"\u003ca href=\"/index/K#knots\"\u003eIndex entries for sequences related to knots\u003c/a\u003e"
			],
			"example": [
				"a(7)=8 since we have 7 prime knots and one composite knot (the connected sum 3_1#4_1 of the trefoil knot 3_1 and the figure eight knot 4_1). Note that 3_1*#4_1=3_1#4_1, where * denotes mirror image because 4_1 is achiral.",
				"a(8)=26 since we have 21 prime knots and five composites (3_1#5_1, 3_1#5_2, 3_1*#5_1, 3_1*#5_2, and 4_1#4_1)."
			],
			"xref": [
				"Cf. A002863 (prime knots), A227050, A086826.",
				"A283314 gives the partial sums."
			],
			"keyword": "nonn,more",
			"offset": "0,6",
			"author": "_Steven Finch_, Aug 07 2003",
			"ext": [
				"a(8) corrected by _Kyle Miller_, Oct 14 2020"
			],
			"references": 7,
			"revision": 37,
			"time": "2020-10-14T23:13:29-04:00",
			"created": "2003-09-13T03:00:00-04:00"
		}
	]
}