{
	"greeting": "Greetings from The On-Line Encyclopedia of Integer Sequences! http://oeis.org/",
	"query": "id:A086059",
	"count": 1,
	"start": 0,
	"results": [
		{
			"number": 86059,
			"data": "128,320,608,928,1360,1808,2288,2936,3608,4312,5032,5832,6664,7636,8644,9700,10780,11868,12988,14188,15404,16652,18110,19582,21094,22662,24246,25866,27498,29178,30938,32738,34562,36418,38290,40274,42274,44354",
			"name": "Sum of first n 7-almost primes.",
			"comment": [
				"Elements in this sequence can themselves be 7-almost primes. a(1) = 128 = 2^7. Also a 7-Brilliant number. a(2) = 320 = 2^6 * 5. Also a 7-Brilliant number. Does this happen infinitely often? - _Jonathan Vos Post_, Dec 11 2004"
			],
			"example": [
				"a(2)=320 because sum of first two 7-almost primes i.e. 128+192 is 320."
			],
			"mathematica": [
				"Accumulate[Select[Range[2500],PrimeOmega[#]==7\u0026]] (* _Harvey P. Dale_, Oct 18 2018 *)"
			],
			"keyword": "easy,nonn",
			"offset": "1,1",
			"author": "_Shyam Sunder Gupta_, Aug 24 2003",
			"references": 0,
			"revision": 7,
			"time": "2018-10-18T22:44:47-04:00",
			"created": "2003-09-13T03:00:00-04:00"
		}
	]
}