{
	"greeting": "Greetings from The On-Line Encyclopedia of Integer Sequences! http://oeis.org/",
	"query": "id:A086300",
	"count": 1,
	"start": 0,
	"results": [
		{
			"number": 86300,
			"data": "0,1,1,4,1,5,1,12,6,7,16,9,8,32,21,24,10,44,10,27,32,31,80,12,60,68,41,39,112,14,45,81,92,92,51,192,59,156,55,176,108,124,123,272,77,140,71,216,240,244,75,165,448,162,188,384,91,185,432,297,332,95,336",
			"name": "Arithmetic derivative of 7-smooth numbers.",
			"comment": [
				"a(n) = A003415(A002473(n))."
			],
			"keyword": "nonn",
			"offset": "1,4",
			"author": "_Reinhard Zumkeller_, Jul 15 2003",
			"references": 0,
			"revision": 3,
			"time": "2012-03-30T18:50:37-04:00",
			"created": "2003-09-13T03:00:00-04:00"
		}
	]
}