{
	"greeting": "Greetings from The On-Line Encyclopedia of Integer Sequences! http://oeis.org/",
	"query": "id:A086169",
	"count": 1,
	"start": 0,
	"results": [
		{
			"number": 86169,
			"data": "8,20,44,80,140,224,344,488,692,908,1184,1484,1844,2228,2624,3080,3560,4100,4664,5288,5984,6824,7688,8612,9656,10796,11996,13232,14516,15836,17456,19100,20756,22472,24236,26276,28340,30440,32564,34748,37052",
			"name": "Sum of the first n twin prime pairs.",
			"link": [
				"Harvey P. Dale, \u003ca href=\"/A086169/b086169.txt\"\u003eTable of n, a(n) for n = 1..1000\u003c/a\u003e"
			],
			"example": [
				"For n = 4 we have twin prime pairs (3,5) (5,7) (11,13) (17,19) and 3+5+5+7+11+13+17+19 = 80"
			],
			"mathematica": [
				"Accumulate[Total/@Select[Partition[Prime[Range[300]],2,1],#[[2]]-#[[1]] == 2\u0026]] (* _Harvey P. Dale_, Nov 09 2019 *)"
			],
			"program": [
				"(PARI) addnexttwin(n)= { s=0; for(x=1,n, if(prime(x+1)-prime(x)==2,s=s+prime(x+1)+prime(x); print1(s\",\")) ) }"
			],
			"keyword": "nonn",
			"offset": "1,1",
			"author": "_Cino Hilliard_, Aug 25 2003",
			"references": 2,
			"revision": 8,
			"time": "2019-11-09T17:42:29-05:00",
			"created": "2003-09-13T03:00:00-04:00"
		}
	]
}