{
	"greeting": "Greetings from The On-Line Encyclopedia of Integer Sequences! http://oeis.org/",
	"query": "id:A086629",
	"count": 1,
	"start": 0,
	"results": [
		{
			"number": 86629,
			"data": "1,1,1,1,2,1,1,4,4,1,1,7,13,7,1,1,11,34,34,11,1,1,16,76,124,76,16,1,1,22,151,370,370,151,22,1,1,29,274,952,1419,952,274,29,1,1,37,463,2185,4573,4573,2185,463,37,1,1,46,739,4579,12892,18037,12892,4579,739,46,1",
			"name": "Symmetric square table of coefficients, read by antidiagonals, where T(n,k) is the coefficient of x^n*y^k in f(x,y) that satisfies f(x,y) = 1/[(1-x)(1-y)] + xy*f(x,y)^3.",
			"comment": [
				"If 1 is subtracted from every element of the table, the resulting table forms the coefficients of f(x,y)^3, where f(x,y) = 1/[(1-x)(1-y)] + xy*f(x,y)^3."
			],
			"mathematica": [
				"m = 11; f[_, _] = 0;",
				"Do[f[x_, y_] = 1/((1 - x)(1 - y)) + x y f[x, y]^3 + O[x]^m, {m}];",
				"T =CoefficientList[# + O[y]^m, y]\u0026 /@ CoefficientList[f[x, y], x];",
				"Table[T[[n-k+1, k]], {n, 1, m}, {k, 1, n}] // Flatten (* _Jean-François Alcover_, Nov 15 2019 *)"
			],
			"xref": [
				"Cf. A086630 (diagonal), A086631 (antidiagonal sums)."
			],
			"keyword": "nonn,tabl",
			"offset": "0,5",
			"author": "_Paul D. Hanna_, Jul 27 2003",
			"references": 2,
			"revision": 7,
			"time": "2019-11-15T17:41:54-05:00",
			"created": "2003-09-13T03:00:00-04:00"
		}
	]
}