{
	"greeting": "Greetings from The On-Line Encyclopedia of Integer Sequences! http://oeis.org/",
	"query": "id:A086538",
	"count": 1,
	"start": 0,
	"results": [
		{
			"number": 86538,
			"data": "1,3,6,12,16,24,36,49,60,70,96,112,144,168,210,240,288,343,360,396,448,512,630,648,675,720,729,768,840,896,1000,1080,1120,1260,1344,1440,1600,1728,1920,2160,2304,2520,2640,2700,2880,3125,3200,3456,3570,3584,3888",
			"name": "n-th partial sum of A086537.",
			"comment": [
				"Every member has a unique prime signature. Conjecture: Every prime signature occurs in the sequence."
			],
			"example": [
				"a(4) = 1+2+3+6 = 12, where 1, 2, 3 and 6 are the first four terms of A086537."
			],
			"program": [
				"(PARI) print(1); ps(n) = local(f); f = factor(n); vecsort(f[,2]); P = vector(70); psUsed(v, n) = for (i = 1, n - 1, if (v == P[i], return(1))); 0; used = vector(10000); x = 2; s = 1; for (n = 1, 70, i = x; v = ps(s + i); while (psUsed(v, n), i++; while (used[i], i++); v = ps(s + i)); used[i] = 1; P[n] = v; s += i; print(s); while(used[x], x++)); (Wasserman)"
			],
			"xref": [
				"Cf. A086537."
			],
			"keyword": "nonn",
			"offset": "1,2",
			"author": "_Amarnath Murthy_, Aug 19 2003",
			"ext": [
				"Corrected and extended by _David Wasserman_, Mar 15 2005"
			],
			"references": 1,
			"revision": 5,
			"time": "2013-12-05T19:56:19-05:00",
			"created": "2003-09-13T03:00:00-04:00"
		}
	]
}