{
	"greeting": "Greetings from The On-Line Encyclopedia of Integer Sequences! http://oeis.org/",
	"query": "id:A086979",
	"count": 1,
	"start": 0,
	"results": [
		{
			"number": 86979,
			"data": "46,282,738,3302,7970,8028,14862,15783,34202,44773,44903,85787,110224,165326,402884,460883,474029,786922,887313,2959782,4875380,8321465,9330121,20226285,45808557,92276646,114867712,201745031,265878477",
			"name": "Increasing peaks in the prime gap sequence A038664.",
			"comment": [
				"a(n) is Pi(p_k), the number of primes up to and including p_k, where p_k is the initial prime of a prime gap g = p_k+1 - p_k. All even gaps smaller than g occur at a smaller prime and the next even gap g+2 also occurs earlier."
			],
			"reference": [
				"P. Ribenboim, The Little Book of Big Primes. Springer-Verlag, 1991, p. 144."
			],
			"link": [
				"Thomas R. Nicely, \u003ca href=\"https://faculty.lynchburg.edu/~nicely/gaps/gaplist.html\"\u003eFirst occurrence prime gaps\u003c/a\u003e [For local copy see A000101]",
				"Eric Weisstein's World of Mathematics, \u003ca href=\"http://mathworld.wolfram.com/PrimeGaps.html\"\u003ePrime Gaps\u003c/a\u003e."
			],
			"example": [
				"282 is in this list because the 282nd prime is 1831, the next prime is 1847, giving a prime gap of 16. All even gaps less than 16 occur before this (for smaller primes) and the next even gap, 18, also occurs earlier."
			],
			"xref": [
				"Cf. A000230, A001223, A001632, A002386, A038664, A086977, A086978, A086980."
			],
			"keyword": "nonn",
			"offset": "1,1",
			"author": "_Harry J. Smith_, Jul 26 2003",
			"references": 4,
			"revision": 15,
			"time": "2021-11-24T01:27:45-05:00",
			"created": "2003-09-13T03:00:00-04:00"
		}
	]
}