{
	"greeting": "Greetings from The On-Line Encyclopedia of Integer Sequences! http://oeis.org/",
	"query": "id:A086536",
	"count": 1,
	"start": 0,
	"results": [
		{
			"number": 86536,
			"data": "2,2,4,6,6,20,8,42,20,18,12,660,14,104,48,210,18,340,20,342,88,84,24,106260,78,350,140,2808,30,20880,32,6510,204,198,72,78540,38,740,280,31122,42,234520,44,3612,5520,360,48,4994220,200,11466,468,17850,54",
			"name": "Least common multiple of numbers obtained by adding one to the odd divisors of n and subtracting 1 from the even divisors of n.",
			"formula": [
				"a(n) = least common multiple of (Ea-1), (Eb-1), (Ec-1), ..., (Oa+1), (Ob+1), (Oc+1)..., where Ea, Eb, Ec, ... and Oa, Ob, Oc, ... are respectively the even and odd divisors of n."
			],
			"example": [
				"a(14) = 104. The divisors of 14 are 1,2,7 and 14 and the corresponding numbers obtained are 2,1,8 and 13 whose least common multiple is 104."
			],
			"program": [
				"(PARI) a(n) = local(d); d = divisors(n); l = 1; for (i = 1, length(d), if (d[i]%2, d[i]++, d[i]--); l = lcm(l, d[i])); l; (Wasserman)"
			],
			"xref": [
				"Cf. A086535."
			],
			"keyword": "nonn",
			"offset": "1,1",
			"author": "_Amarnath Murthy_, Aug 18 2003",
			"ext": [
				"More terms from _David Wasserman_, Mar 15 2005"
			],
			"references": 0,
			"revision": 4,
			"time": "2013-12-05T19:56:19-05:00",
			"created": "2003-09-13T03:00:00-04:00"
		}
	]
}