{
	"greeting": "Greetings from The On-Line Encyclopedia of Integer Sequences! http://oeis.org/",
	"query": "id:A086615",
	"count": 1,
	"start": 0,
	"results": [
		{
			"number": 86615,
			"data": "1,2,4,8,17,38,89,216,539,1374,3562,9360,24871,66706,180340,490912,1344379,3701158,10237540,28436824,79288843,221836402,622599625,1752360040,4945087837,13988490338,39658308814,112666081616",
			"name": "Antidiagonal sums of triangle A086614.",
			"comment": [
				"Partial sums of the Motzkin sequence (A001006). - _Emeric Deutsch_, Jul 12 2004",
				"a(n) = number of distinct ordered trees obtained by branch-reducing the ordered trees on n+1 edges. - _David Callan_, Oct 24 2004",
				"a(n)= the number of consecutive horizontal steps at height 0 of all Motzkin paths from (0,0) to (n,0) starting with a horizontal step. - Charles Moore (chamoore(AT)howard.edu), Apr 15 2007",
				"Equals row sums of triangle A136788 - _Gary W. Adamson_, Jan 21 2008",
				"The subsequence of prime partial sums of the Motzkin sequence begins: 2, 17, 89, no more through a(27). [From _Jonathan Vos Post_, Feb 11 2010]",
				"This sequence (with offset 1 instead of 0) occurs in Section 7 of K. Grygiel, P. Lescanne (2015), see g.f. N. - _N. J. A. Sloane_, Nov 09 2015",
				"Also number of plain (untyped) normal forms of lambda-terms (terms that cannot be further beta-reduced.) [Bendkowski et al., 2016]. - _N. J. A. Sloane_, Nov 22 2017",
				"If interpreted with offset 2, the INVERT transform is A002026 with offset 1. - _R. J. Mathar_, Nov 02 2021"
			],
			"link": [
				"Vincenzo Librandi, \u003ca href=\"/A086615/b086615.txt\"\u003eTable of n, a(n) for n = 0..200\u003c/a\u003e",
				"P. Barry, \u003ca href=\"https://cs.uwaterloo.ca/journals/JIS/VOL12/Barry3/barry93.html\"\u003eContinued fractions and transformations of integer sequences\u003c/a\u003e, JIS 12 (2009) 09.7.6",
				"Maciej Bendkowski, K Grygiel, P Tarau, \u003ca href=\"http://arxiv.org/abs/1612.07682\"\u003eRandom generation of closed simply-typed lambda-terms: a synergy between logic programming and Boltzmann samplers\u003c/a\u003e, arXiv preprint arXiv:1612.07682, 2016",
				"K. Grygiel, P. Lescanne, \u003ca href=\"http://dx.doi.org/10.1007/978-3-662-49192-8_15\"\u003eA natural counting of lambda terms\u003c/a\u003e, SOFSEM 2016. \u003ca href=\"http://perso.ens-lyon.fr/pierre.lescanne/PUBLICATIONS/natural_counting.pdf\"\u003ePreprint 2015\u003c/a\u003e"
			],
			"formula": [
				"G.f.: A(x) = 1/(1-x)^2 + x^2*A(x)^2.",
				"a(n)=sum{k=0..floor((n+1)/2), binomial(n+1, 2k+1)binomial(2k, k)/(k+1)} - _Paul Barry_, Nov 29 2004",
				"a(n) = n + 1 + sum_k a(k-1)a(n-k-1), starting from a(n)=0 for n negative. - _Henry Bottomley_, Feb 22 2005",
				"a(n)=sum{k=0..n, sum{j=0..n-k, C(j)C(n-k, 2j)}}; - _Paul Barry_, Aug 19 2005",
				"G.f.: c(x^2/(1-x)^2)/(1-x)^2, c(x) the g.f. of A000108; a(n)=sum{k=0..floor(n/2), C(n+1,n-2k)C(k)}; - _Paul Barry_, May 31 2006",
				"Binomial transform of doubled Catalan sequence 1,1,1,1,2,2,5,5,14,14,... - _Paul Barry_, Nov 17 2005",
				"Row sums of Pascal-Catalan triangle A086617. - _Paul Barry_, Nov 17 2005",
				"g(z)=(1-z-sqrt(1-2z-3z^2))/(2z-2z^2)/z - Charles Moore (chamoore(AT)howard.edu), Apr 15 2007, corrected by _Vaclav Kotesovec_, Feb 13 2014",
				"D-finite with recurrence (n+2)*a(n) +3*(-n-1)*a(n-1) +(-n+4)*a(n-2) +3*(n-1)*a(n-3)=0. - _R. J. Mathar_, Nov 30 2012",
				"a(n) ~ 3^(n+5/2) / (4 * sqrt(Pi) * n^(3/2)). - _Vaclav Kotesovec_, Feb 13 2014"
			],
			"example": [
				"a(0)=1, a(1)=2, a(2)=3+1=4, a(3)=4+4=8, a(4)=5+10+2=17, a(5)=6+20+12=38, are upward antidiagonal sums of triangle A086614:",
				"{1},",
				"{2,1},",
				"{3,4,2},",
				"{4,10,12,5},",
				"{5,20,42,40,14},",
				"{6,35,112,180,140,42}, ...",
				"For example with n=2, the 5 ordered trees (A000108) on 3 edges are",
				"|...|..../\\.../\\.../|\\..",
				"|../.\\..|......|........",
				"|.......................",
				"Suppressing nonroot vertices of outdegree 1 (branch-reducing) yields",
				"|...|..../\\.../\\../|\\..",
				".../.\\.................",
				"of which 4 are distinct. So a(2)=4.",
				"a(4)=8 because we have HHHH, HHUD, HUDH, HUHD"
			],
			"maple": [
				"A086615 := proc(n)",
				"    option remember;",
				"    if n \u003c= 3 then",
				"        2^n;",
				"    else",
				"        3*(-n-1)*procname(n-1) +(-n+4)*procname(n-2) +3*(n-1)*procname(n-3) ;",
				"        -%/(n+2) ;",
				"    end if;",
				"end proc:",
				"seq(A086615(n),n=0..20) ; # _R. J. Mathar_, Nov 02 2021"
			],
			"mathematica": [
				"CoefficientList[Series[(1-x-Sqrt[1-2*x-3*x^2])/(2*x-2*x^2)/x, {x, 0, 20}], x] (* _Vaclav Kotesovec_, Feb 13 2014 *)"
			],
			"xref": [
				"Cf. A086614 (triangle), A086616 (row sums), A348869 (Seq. Transf.).",
				"Cf. A001006.",
				"Cf. A136788."
			],
			"keyword": "nonn",
			"offset": "0,2",
			"author": "_Paul D. Hanna_, Jul 24 2003",
			"ext": [
				"Edited by _N. J. A. Sloane_, Oct 16 2006"
			],
			"references": 10,
			"revision": 42,
			"time": "2021-11-02T09:31:44-04:00",
			"created": "2003-09-13T03:00:00-04:00"
		}
	]
}