{
	"greeting": "Greetings from The On-Line Encyclopedia of Integer Sequences! http://oeis.org/",
	"query": "id:A086694",
	"count": 1,
	"start": 0,
	"results": [
		{
			"number": 86694,
			"data": "1,0,1,1,0,0,1,1,1,1,0,0,0,0,1,1,1,1,1,1,1,1,0,0,0,0,0,0,0,0,1,1,1,1,1,1,1,1,1,1,1,1,1,1,1,1,0,0,0,0,0,0,0,0,0,0,0,0,0,0,0,0,1,1,1,1,1,1,1,1,1,1,1,1,1,1,1,1,1,1,1,1,1,1,1,1,1,1,1,1,1,1,1,1,0,0,0,0,0,0,0",
			"name": "A run of 2^n 1's followed by a run of 2^n 0's, for n=0, 1, 2, ...",
			"comment": [
				"First differences of A006165 and, likely, of A078881."
			],
			"link": [
				"Robert Israel, \u003ca href=\"/A086694/b086694.txt\"\u003eTable of n, a(n) for n = 1..10000\u003c/a\u003e",
				"R. Stephan, \u003ca href=\"/somedcgf.html\"\u003eSome divide-and-conquer sequences ...\u003c/a\u003e",
				"R. Stephan, \u003ca href=\"/A079944/a079944.ps\"\u003eTable of generating functions\u003c/a\u003e"
			],
			"formula": [
				"a(n) = 1-A079944(n-1) = 2-A079882(n-1) = A080791(n+1)-A083661(n+1).",
				"a(n) = 1 - floor(log_2(4*(n+1)/3)) + floor(log_2(n+1)).",
				"a(1) = 1, a(2) = 0, a(2n+1) = a(n), a(2n) = a(n-1).",
				"G.f.: Sum_{k\u003e=1} (x^(2^k)-x^(3*2^(k-1)))/(x-x^2). - _Robert Israel_, Jul 27 2017",
				"G.f.: g(x) = (1/(1 - x))*( Sum_{n \u003e= 1} x^(2^n-1) (1 - x^2^(n-1) ). Functional equation: g(x) = x + x*(1+x)*g(x^2). - _Wolfgang Hintze_, Aug 05 2017"
			],
			"maple": [
				"seq(op([1$(2^n),0$(2^n)]),n=0..6); # _Robert Israel_, Jul 27 2017"
			],
			"mathematica": [
				"Table[{PadRight[{},2^n,1],PadRight[{},2^n,0]},{n,0,5}]//Flatten (* _Harvey P. Dale_, May 29 2017 *)",
				"Table[{Array[1\u0026,2^n],Array[0\u0026,2^n]},{n,0,5}]//Flatten (* _Wolfgang Hintze_, Jul 27 2017 *)"
			],
			"program": [
				"(PARI) a(n)=if(n\u003c3,if(n\u003c2,1,0),if(n%2==0,a(n/2-1),a((n-1)/2)))"
			],
			"xref": [
				"Cf. A005942, A079944."
			],
			"keyword": "nonn,easy",
			"offset": "1,1",
			"author": "_Ralf Stephan_, Sep 12 2003",
			"references": 2,
			"revision": 33,
			"time": "2017-08-07T03:39:28-04:00",
			"created": "2003-09-13T03:00:00-04:00"
		}
	]
}