{
	"greeting": "Greetings from The On-Line Encyclopedia of Integer Sequences! http://oeis.org/",
	"query": "id:A086216",
	"count": 1,
	"start": 0,
	"results": [
		{
			"number": 86216,
			"data": "0,0,0,0,1,4,25,384,14480,1211735,184649399",
			"name": "Number of 4-connected unlabeled n-node graphs.",
			"comment": [
				"The definition means that the connectivity is 4 or more."
			],
			"link": [
				"T. Hoppe and A. Petrone, \u003ca href=\"http://arxiv.org/abs/1408.3644\"\u003eInteger sequence discovery from small graphs\u003c/a\u003e, arXiv preprint arXiv:1408.3644, [math.CO], 2014.",
				"T. Hoppe and A. Petrone, \u003ca href=\"http://doi.org/10.1016/j.dam.2015.07.017\"\u003eInteger sequence discovery from small graphs\u003c/a\u003e, Discr. Appl. Math. 201 (2016) 172-181.",
				"Eric Weisstein's World of Mathematics, \u003ca href=\"http://mathworld.wolfram.com/k-ConnectedGraph.html\"\u003ek-Connected Graph\u003c/a\u003e"
			],
			"formula": [
				"a(n) = A086217(n) + A052445(n). - _Andrew Howroyd_, Sep 04 2019"
			],
			"example": [
				"There are 4 different 4-connected graphs on 6 vertices. - _Dylan Thurston_, Jun 18 2009"
			],
			"xref": [
				"See A052445 for exactly-4-connected graphs.",
				"See A086217 for 5-connected graphs.",
				"See A259862 for further information."
			],
			"keyword": "nonn,hard,more",
			"offset": "1,6",
			"author": "_Eric W. Weisstein_, Jul 12 2003",
			"ext": [
				"Offset corrected by _Dylan Thurston_, Jun 18 2009",
				"a(10) from the Encyclopedia of Finite Graphs (_Travis Hoppe_ and Anna Petrone), Apr 11 2014",
				"Minor edits by _N. J. A. Sloane_, Jul 08 2015 at the suggestion of _Brendan McKay_."
			],
			"references": 8,
			"revision": 53,
			"time": "2019-09-04T17:12:26-04:00",
			"created": "2003-09-13T03:00:00-04:00"
		}
	]
}