{
	"greeting": "Greetings from The On-Line Encyclopedia of Integer Sequences! http://oeis.org/",
	"query": "id:A086467",
	"count": 1,
	"start": 0,
	"results": [
		{
			"number": 86467,
			"data": "4,6,3,1,2,9,6,4,1,1,5,4,3,8,8,7,8,4,9,9,3,8,5,8,1,4,2,4,6,3,0,6,5,5,2,0,0,3,2,8,1,2,7,0,0,0,9,8,5,9,7,7,4,1,6,3,0,6,0,2,4,5,7,3,7,9,5,9,0,6,9,1,1,3,3,9,2,3,6,2,5,9,7,0,1,0,9,0,9,4,1,7,2,7,7,6,7,9,0,1,1,1",
			"name": "Decimal expansion of 2*arccsch(2)^2.",
			"link": [
				"Steven R. Finch, \u003ca href=\"https://doi.org/10.1017/9781316997741\"\u003eMathematical Constants II\u003c/a\u003e, Encyclopedia of Mathematics and Its Applications, Cambridge University Press, Cambridge, 2018, p. 77.",
				"Eric Weisstein's World of Mathematics, \u003ca href=\"http://mathworld.wolfram.com/CentralBinomialCoefficient.html\"\u003eCentral Binomial Coefficient\u003c/a\u003e"
			],
			"formula": [
				"Equals Sum_{n\u003e=1} (-1)^(n-1)/n^2/binomial(2*n,n).",
				"Equals Integral_{x=0..1} log(1+x-x^2)/x dx. - _Vaclav Kotesovec_, Jun 13 2021"
			],
			"example": [
				"0.4631..."
			],
			"mathematica": [
				"RealDigits[2ArcCsch[2]^2,10,120][[1]] (* _Harvey P. Dale_, Mar 07 2012 *)"
			],
			"program": [
				"(PARI) suminf(n=1, (-1)^(n-1)/n^2/binomial(2*n,n)) \\\\ _Michel Marcus_, Jul 31 2015"
			],
			"xref": [
				"Cf. A086465, A086466, A086468."
			],
			"keyword": "nonn,cons",
			"offset": "0,1",
			"author": "_Eric W. Weisstein_, Jul 21 2003",
			"references": 5,
			"revision": 20,
			"time": "2021-06-13T10:32:45-04:00",
			"created": "2003-09-13T03:00:00-04:00"
		}
	]
}