{
	"greeting": "Greetings from The On-Line Encyclopedia of Integer Sequences! http://oeis.org/",
	"query": "id:A086253",
	"count": 1,
	"start": 0,
	"results": [
		{
			"number": 86253,
			"data": "1,0,8,7,3,7,8,0,2,5,3,8,4,1,5,2,7,2,3,1,4,1,7,1,1,9,4,3,6,0,3,4,9,5,9,7,3,0,5,0,4,0,6,5,9,5,3,0,1,9,6,7,8,7,0,4,8,1,6,0,8,0,7,5,6,6,2,3,3,7,3,4,7,8,5,5,9,4,7,7,3,2,9,7,0,3,1,5,8,2,9,1,5,2,1,1,8,2,5,0,9,2",
			"name": "Decimal expansion of Feller's alpha coin-tossing constant.",
			"reference": [
				"Steven R. Finch, Mathematical Constants, Cambridge University Press, 2003, Section 5.11 Feller's coin tossing constants, p. 339."
			],
			"link": [
				"G. C. Greubel, \u003ca href=\"/A086253/b086253.txt\"\u003eTable of n, a(n) for n = 1..10000\u003c/a\u003e",
				"Eric Weisstein's World of Mathematics, \u003ca href=\"http://mathworld.wolfram.com/Run.html\"\u003eRun\u003c/a\u003e",
				"Wikipedia, \u003ca href=\"https://en.wikipedia.org/wiki/Feller%27s_coin-tossing_constants\"\u003eFeller's coin-tossing constants\u003c/a\u003e"
			],
			"formula": [
				"Equals -2/3 - 4/(3*(17 + 3*sqrt(33))^(1/3)) +  2*(17 + 3*sqrt(33))^(1/3)/3. - _Vaclav Kotesovec_, Oct 14 2018",
				"Positive real root of x^3 + 2*x^2 + 4*x - 8. - _Peter Luschny_, Oct 14 2018",
				"Equals 2/A058265 = 2*A192918. - _Jon Maiga_, Nov 24 2018"
			],
			"example": [
				"1.0873780253841527231417119436...."
			],
			"maple": [
				"evalf[120](solve(x^3+2*x^2+4*x-8=0,x)[1]); # _Muniru A Asiru_, Nov 25 2018"
			],
			"mathematica": [
				"alpha = Root[1-x+(x/2)^4, x, 1]; RealDigits[alpha, 10, 102] // First (* _Jean-François Alcover_, Jun 03 2014 *)"
			],
			"program": [
				"(PARI) solve(x=1, 3/2, 1-x+(x/2)^4) \\\\ _Michel Marcus_, Oct 14 2018"
			],
			"xref": [
				"Cf. A086254, A058265, A192918."
			],
			"keyword": "nonn,cons",
			"offset": "1,3",
			"author": "_Eric W. Weisstein_, Jul 13 2003",
			"references": 3,
			"revision": 28,
			"time": "2018-11-26T07:41:03-05:00",
			"created": "2003-09-13T03:00:00-04:00"
		}
	]
}