{
	"greeting": "Greetings from The On-Line Encyclopedia of Integer Sequences! http://oeis.org/",
	"query": "id:A086624",
	"count": 1,
	"start": 0,
	"results": [
		{
			"number": 86624,
			"data": "1,1,4,19,100,570,3442,21685,141112,941990,6419174,44493000,312818326,2226155632,16008452202,116167346499,849724397580,6259403310366,46399703925202,345894094030552",
			"name": "Main diagonal of square table A086623 of coefficients of f(x,y) that satisfies f(x,y) = (1-xy)/[(1-x)(1-y)] + xy*f(x,y)^2.",
			"xref": [
				"Cf. A086623 (table), A086625 (antidiagonal sums)."
			],
			"keyword": "nonn",
			"offset": "0,3",
			"author": "_Paul D. Hanna_, Jul 24 2003",
			"references": 2,
			"revision": 3,
			"time": "2012-03-30T18:36:38-04:00",
			"created": "2003-09-13T03:00:00-04:00"
		}
	]
}