{
	"greeting": "Greetings from The On-Line Encyclopedia of Integer Sequences! http://oeis.org/",
	"query": "id:A086317",
	"count": 1,
	"start": 0,
	"results": [
		{
			"number": 86317,
			"data": "2,4,8,3,2,5,3,5,3,6,1,7,2,6,3,6,8,5,8,5,6,2,2,8,8,5,1,8,1,7,8,2,2,1,2,8,9,1,8,8,6,9,7,3,4,0,8,1,4,3,6,4,5,8,5,9,2,0,2,5,9,6,9,7,3,0,6,7,4,2,5,4,0,8,8,5,8,0,9,8,3,9,0,6,4,7,6,4,0,1,6,9,1,6,7,2,1,8,2,7,4,7",
			"name": "Decimal expansion of asymptotic constant xi for counts of weakly binary trees.",
			"link": [
				"Vincenzo Librandi, \u003ca href=\"/A086317/b086317.txt\"\u003eTable of n, a(n) for n = 1..1000\u003c/a\u003e",
				"Lyuben Lichev, Dieter Mitsche, \u003ca href=\"https://arxiv.org/abs/2007.15574\"\u003eOn the modularity of 3-regular random graphs and random graphs with given degree sequences\u003c/a\u003e, arXiv:2007.15574 [math.PR], 2020.",
				"Eric Weisstein's World of Mathematics, \u003ca href=\"http://mathworld.wolfram.com/WeaklyBinaryTree.html\"\u003eWeakly binary tree\u003c/a\u003e"
			],
			"formula": [
				"Equals 1/A240943.",
				"Equals lim_{n-\u003einfinity} A001190(n)^(1/n). - _Vaclav Kotesovec_, Jul 28 2014"
			],
			"example": [
				"2.48325353617263685856228851817822128918869734..."
			],
			"mathematica": [
				"digits = 102; c[0] = 2; c[n_] := c[n] = c[n - 1]^2 + 2; xi[n_Integer] := xi[n] = c[n]^(2^-n); xi[5]; xi[n = 10]; While[RealDigits[xi[n], 10, digits] != RealDigits[xi[n - 5], 10, digits], n = n + 5]; RealDigits[xi[n], 10, digits] // First (* _Jean-François Alcover_, May 27 2014 *)"
			],
			"xref": [
				"Cf. A001190, A086318, A240943.",
				"Cf. A000672, A003214."
			],
			"keyword": "nonn,cons",
			"offset": "1,1",
			"author": "_Eric W. Weisstein_, Jul 15 2003",
			"ext": [
				"Typos corrected by _Jean-François Alcover_, May 27 2014"
			],
			"references": 8,
			"revision": 33,
			"time": "2020-10-06T02:26:38-04:00",
			"created": "2003-09-13T03:00:00-04:00"
		}
	]
}