{
	"greeting": "Greetings from The On-Line Encyclopedia of Integer Sequences! http://oeis.org/",
	"query": "id:A087096",
	"count": 1,
	"start": 0,
	"results": [
		{
			"number": 87096,
			"data": "515904,11318,15216,10799546,129618,125258,14118,10211981,2839691",
			"name": "Duplicate of A072959.",
			"keyword": "dead",
			"offset": "1,1",
			"references": 0,
			"revision": 5,
			"time": "2010-08-27T03:00:00-04:00",
			"created": "2004-02-19T03:00:00-05:00"
		}
	]
}