{
	"greeting": "Greetings from The On-Line Encyclopedia of Integer Sequences! http://oeis.org/",
	"query": "id:A087005",
	"count": 1,
	"start": 0,
	"results": [
		{
			"number": 87005,
			"data": "1,2,3,5,6,7,10,11,14,15,21,22,30,33,35,42,55,66,70,77,105,110,154,165,210,231,330,385,462,770,1155,2310",
			"name": "Divisors of 2310.",
			"comment": [
				"2310 = 11# = A002110(5);",
				"divisors of 2310 are squarefree (A005117) and 11-smooth;",
				"a(A000005(2310)) = a(32) = 2310 is the last term."
			],
			"link": [
				"\u003ca href=\"/index/Di#divisors\"\u003eIndex entries for sequences related to divisors of numbers\u003c/a\u003e",
				"Eric Weisstein's World of Mathematics, \u003ca href=\"http://mathworld.wolfram.com/Primorial.html\"\u003ePrimorial\u003c/a\u003e",
				"Eric Weisstein's World of Mathematics, \u003ca href=\"http://mathworld.wolfram.com/Divisor.html\"\u003eDivisor\u003c/a\u003e"
			],
			"mathematica": [
				"squarefrees[s_List] := Block[{a = Subsets[s]}, SortBy[Table[",
				"Product[a[[n, m]], {m, 1, Length[a[[n]]]}], {n, 1, Length[a]}], Abs[#] \u0026]]",
				"A087005 = squarefrees[Prime[Range[5]]](* _Fred Daniel Kline_, Jan 25 2015 *)",
				"Divisors[2310] (* _Harvey P. Dale_, Jun 27 2020 *)"
			],
			"program": [
				"(PARI) divisors(2310) \\\\ _Charles R Greathouse IV_, Jun 21 2017"
			],
			"xref": [
				"Cf. A018255, A018336, A087006, A087007, A087008."
			],
			"keyword": "nonn,fini,full,easy",
			"offset": "1,2",
			"author": "_Reinhard Zumkeller_, Jul 29 2003",
			"references": 5,
			"revision": 17,
			"time": "2020-06-27T16:45:15-04:00",
			"created": "2003-09-13T03:00:00-04:00"
		}
	]
}