{
	"greeting": "Greetings from The On-Line Encyclopedia of Integer Sequences! http://oeis.org/",
	"query": "id:A087994",
	"count": 1,
	"start": 0,
	"results": [
		{
			"number": 87994,
			"data": "11,11,11,11,5,11,11,11,132,132,11,5,19,37,37,55,55,73,73,5,11,91,11,91,11,11,5,67,67,12,12,19,37,37,55,55,73,73,5,11,11,91,11,11,91,22,44,132,11,110,132,11,44,110,4,22,109,11,11,109,5,127,127,145,145,163,163,4",
			"name": "Integer values of quotients arising in A087993. The quotient is (n+rev(n))/(abs(n-rev(n)).",
			"link": [
				"Giovanni Resta, \u003ca href=\"/A087994/b087994.txt\"\u003eTable of n, a(n) for n = 1..500\u003c/a\u003e"
			],
			"example": [
				"n=45, rev(n)=54, q=99/9=9 integer;",
				"n=934065, rev(n)=560434, q=1494504/373626=4",
				"Values observed as quotients:",
				"11,5,132,19,37,55,73,91,67,12,55,22,44,110,4,109,127,163,"
			],
			"mathematica": [
				"rev[n_] := FromDigits@ Reverse@ IntegerDigits@ n;",
				"Reap[Do[r=rev@n; If[n != r \u0026\u0026 IntegerQ[q = (n+r)/(n-r)], Sow@ Abs@ q], {n, 5*^5}]][[2, 1]]"
			],
			"xref": [
				"Cf. A087993."
			],
			"keyword": "base,nonn",
			"offset": "1,1",
			"author": "_Labos Elemer_, Oct 08 2003",
			"references": 3,
			"revision": 7,
			"time": "2017-05-14T10:12:56-04:00",
			"created": "2004-02-19T03:00:00-05:00"
		}
	]
}