{
	"greeting": "Greetings from The On-Line Encyclopedia of Integer Sequences! http://oeis.org/",
	"query": "id:A087992",
	"count": 1,
	"start": 0,
	"results": [
		{
			"number": 87992,
			"data": "1,2,3,4,5,6,7,8,9,11,22,33,44,55,66,77,88,99,101,121,131,151,181,191",
			"name": "Duplicate of A062687.",
			"keyword": "dead",
			"offset": "1,2",
			"references": 0,
			"revision": 3,
			"time": "2007-05-11T03:00:00-04:00",
			"created": "2004-02-19T03:00:00-05:00"
		}
	]
}