{
	"greeting": "Greetings from The On-Line Encyclopedia of Integer Sequences! http://oeis.org/",
	"query": "id:A087402",
	"count": 1,
	"start": 0,
	"results": [
		{
			"number": 87402,
			"data": "11,222,44,222,22,66,44,22,66,222,222,66,222,888,44,666,88,44,22,888,66,44,88,444,66,222,66,66,44,222,22,66,66,66,44,66,888,22,44,88,66,222,444,66,2222,22,666,2222,22,66,44,66,22,66,222,222,6666,44,22,66,444,66",
			"name": "Numbers \u003e10, using only one digit such that every partial sum is a prime.",
			"example": [
				"11, 11+222=233, 11+222+44=277 etc. are all prime."
			],
			"keyword": "base,nonn",
			"offset": "0,1",
			"author": "_Amarnath Murthy_, Sep 10 2003",
			"ext": [
				"More terms from _Ray Chandler_ and _Vladeta Jovovic_, Sep 22 2003"
			],
			"references": 0,
			"revision": 8,
			"time": "2013-12-05T19:56:21-05:00",
			"created": "2003-09-13T03:00:00-04:00"
		}
	]
}