{
	"greeting": "Greetings from The On-Line Encyclopedia of Integer Sequences! http://oeis.org/",
	"query": "id:A087636",
	"count": 1,
	"start": 0,
	"results": [
		{
			"number": 87636,
			"data": "0,18,81,1539,20457,242217,2894799,33535839,381591711",
			"name": "Number of n-digit lunar primes.",
			"comment": [
				"Although a(1) through a(6) are divisible by 9, a(7) is not."
			],
			"reference": [
				"BENJAMIN BAILY, JUSTINE DELL, HENRY L. FLEISCHMANN, FAYE JACKSON, STEVEN J. MILLER, ETHAN PESIKOFF, AND LUKE REIFENBERG, IRREDUCIBILITY OVER THE MAX-MIN SEMIRING, arXiv, to appear 2021."
			],
			"link": [
				"D. Applegate, \u003ca href=\"/A087061/a087061.txt\"\u003eC program for lunar arithmetic and number theory\u003c/a\u003e",
				"D. Applegate, M. LeBrun and N. J. A. Sloane, \u003ca href=\"http://arxiv.org/abs/1107.1130\"\u003eDismal Arithmetic\u003c/a\u003e, arxiv:1107.1130 [math.NT], July 2011. [Note: we have now changed the name from \"dismal arithmetic\" to \"lunar arithmetic\" - the old name was too depressing]",
				"D. Applegate, M. LeBrun, N. J. A. Sloane, \u003ca href=\"https://cs.uwaterloo.ca/journals/JIS/VOL14/Sloane/carry2.html\"\u003eDismal Arithmetic\u003c/a\u003e, J. Int. Seq. 14 (2011) # 11.9.8.",
				"\u003ca href=\"/index/Di#dismal\"\u003eIndex entries for sequences related to dismal (or lunar) arithmetic\u003c/a\u003e"
			],
			"program": [
				"(PARI) A87636=[]; A087636(n)={while(#A87636\u003cn,A87636=concat(A87636,0)); !A87636[n] \u0026\u0026 A87636[n]=sum(k=10^(n-1),10^n-1,is_A087097(k)); A87636[n]} \\\\ Store results in array A87636 to avoid re-calculation. - _M. F. Hasler_, Nov 15 2018"
			],
			"xref": [
				"Cf. A087062 (lunar product), A087097 (lunar primes), A087638 (partial sums)."
			],
			"keyword": "nonn,base,more",
			"offset": "1,2",
			"author": "Marc LeBrun and _N. J. A. Sloane_, Oct 26 2003",
			"ext": [
				"a(6)-a(9) from _David Applegate_, Nov 07 2003"
			],
			"references": 7,
			"revision": 28,
			"time": "2021-11-18T12:06:53-05:00",
			"created": "2004-02-19T03:00:00-05:00"
		}
	]
}