{
	"greeting": "Greetings from The On-Line Encyclopedia of Integer Sequences! http://oeis.org/",
	"query": "id:A087189",
	"count": 1,
	"start": 0,
	"results": [
		{
			"number": 87189,
			"data": "1,83,16907,279021,89444018,1695011087,658067703933,5768410509553937,122108313460051500,1226978854222034501448,593538703869555995238872,13175226571428140572866093,6594852118968926152838341468",
			"name": "(P(p)-1)/2/p^2 where p runs through the odd primes different from 5 and P(k) is the k-th central pentanomial coefficient (A005191).",
			"link": [
				"M. F. Hasler, \u003ca href=\"/A087189/b087189.txt\"\u003eTable of n, a(n) for n = 1..100\u003c/a\u003e"
			],
			"program": [
				"(PARI) A087189(n) = local(p=prime(n+2-(n==1))); (A005191(p)-1)/2/p^2 \\\\ - M. F. Hasler"
			],
			"keyword": "nonn",
			"offset": "1,2",
			"author": "_Benoit Cloitre_, Oct 19 2003",
			"ext": [
				"Corrected and extended by _M. F. Hasler_, Jul 23 2007"
			],
			"references": 1,
			"revision": 9,
			"time": "2012-03-31T13:48:24-04:00",
			"created": "2004-02-19T03:00:00-05:00"
		}
	]
}