{
	"greeting": "Greetings from The On-Line Encyclopedia of Integer Sequences! http://oeis.org/",
	"query": "id:A087041",
	"count": 1,
	"start": 0,
	"results": [
		{
			"number": 87041,
			"data": "0,3,2,1,26,1,2,10,1,2,1,31,1,1,1,2,4,4,1,1,1,1,1,4,3,2,1,5,3,4,1,5,1,1,5,1,2,2,3,2,1,1,11,2,1,1,3,1,14,1,7,2,1,1,1,1,1,3,1,23,1,9,1,6,2,1,1,26,3,3,8,1,5,2,1,12,2,3,2,2,7,1,1,2,6,1,53,1,1,10,1,21,16,6,1,1,3,2,2",
			"name": "Partial quotients of the continued fraction of a number x such that Pi added to each partial quotient evaluates to x+3.",
			"comment": [
				"x=0.299634725792984934678119742255150066764714688418375868896757325993501389962"
			],
			"example": [
				"[0+Pi; 3+Pi, 2+Pi, 1+Pi, 26+Pi, 1+Pi, 2+Pi, 10+Pi, 1+Pi, 2+Pi, ...]",
				"= [3; 3, 2, 1, 26, 1, 2, 10, 1, 2, 1, 31, 1, ...] = x+3."
			],
			"xref": [
				"Cf. A087042."
			],
			"keyword": "cofr,nonn",
			"offset": "0,2",
			"author": "_Paul D. Hanna_, Aug 02 2003",
			"references": 1,
			"revision": 3,
			"time": "2012-03-30T18:36:38-04:00",
			"created": "2003-09-13T03:00:00-04:00"
		}
	]
}