{
	"greeting": "Greetings from The On-Line Encyclopedia of Integer Sequences! http://oeis.org/",
	"query": "id:A087336",
	"count": 1,
	"start": 0,
	"results": [
		{
			"number": 87336,
			"data": "7,9,65,2294,6344286,59597778583982,3551895212145224329469808362,12615959598060168145040535737856890513190349434065506322",
			"name": "a(1) = 7, then smallest number such that every partial product + 1 is a cube.",
			"example": [
				"7+1 = 8, 7*9 +1 = 64= 8^3, 7*9*65+1 = 4096 = 16^3."
			],
			"xref": [
				"Cf. A087337."
			],
			"keyword": "nonn",
			"offset": "1,1",
			"author": "_Amarnath Murthy_, Sep 06 2003",
			"ext": [
				"More terms from _Don Reble_, Sep 17 2003"
			],
			"references": 1,
			"revision": 4,
			"time": "2017-10-19T03:14:22-04:00",
			"created": "2003-09-13T03:00:00-04:00"
		}
	]
}