{
	"greeting": "Greetings from The On-Line Encyclopedia of Integer Sequences! http://oeis.org/",
	"query": "id:A087043",
	"count": 1,
	"start": 0,
	"results": [
		{
			"number": 87043,
			"data": "0,1,71,1,2,1,1,2,19,21,2,1,1,1,3,9,1,1,25,7,4,4,4,1,44,4,3,2,27,1,3,3,1,2,1,7,4,1,1,3,2,12,1,17,1,1,1,1,2,5,1,5,1,12,1,6,3,2,1,2,3,34,1,1,2,3,2,1,1,4,1,1,1,6,5,1,1,4,2,1,3,1,2,5,2,3,1,1,3,1,1,1,12,8,1,2,1,4,2,1",
			"name": "Partial quotients of the continued fraction of a number x such that exp(1) added to each partial quotient evaluates to x+2.",
			"comment": [
				"x=0.986249015044859336370034743005882782311325342608646330155951494215884126777"
			],
			"example": [
				"[0+e; 1+e, 71+e, 1+e, 2+e, 1+e, 1+e, 2+e, 19+e, 21+e, 2+e, 1+e, 1+e, ...]",
				"= [2; 1, 71, 1, 2, 1, 1, 2, 19, 21, 2, 1, 1, 1, 3, 9, ...] = x+2."
			],
			"xref": [
				"Cf. A087044."
			],
			"keyword": "cofr,nonn",
			"offset": "0,3",
			"author": "_Paul D. Hanna_, Aug 02 2003",
			"references": 1,
			"revision": 3,
			"time": "2012-03-30T18:36:38-04:00",
			"created": "2003-09-13T03:00:00-04:00"
		}
	]
}