{
	"greeting": "Greetings from The On-Line Encyclopedia of Integer Sequences! http://oeis.org/",
	"query": "id:A087837",
	"count": 1,
	"start": 0,
	"results": [
		{
			"number": 87837,
			"data": "1017,1074,1269,1771,2145,2255",
			"name": "a(n)*primorial(2749)+1 is prime.",
			"comment": [
				"The \"2749\" sequence has rather few small terms."
			],
			"xref": [
				"Cf. A002110, A087730-2, A087832, 3, 5, 7."
			],
			"keyword": "nonn",
			"offset": "0,1",
			"author": "_Pierre CAMI_, Oct 07 2003",
			"ext": [
				"Edited by _Don Reble_, Nov 09 2005"
			],
			"references": 0,
			"revision": 4,
			"time": "2017-10-19T03:14:23-04:00",
			"created": "2004-02-19T03:00:00-05:00"
		}
	]
}