{
	"greeting": "Greetings from The On-Line Encyclopedia of Integer Sequences! http://oeis.org/",
	"query": "id:A087889",
	"count": 1,
	"start": 0,
	"results": [
		{
			"number": 87889,
			"data": "2,2,1,2,2,1,1,2,1,2,2,1,2,1,1,2,2,1,2,2,1,1,2,1,1,2,1,2,2,1,2,1,1,2,2,1,2,2,1,2,1,1,2,1,1,2,2,1,2,1,1,2,1,2,2,1",
			"name": "Given a sequence u consisting just of 1's and 2's, let f(u)(n) be the length of n-th run. Then we may define a sequence u = {a(n)} by a(n)=f^(n-1)(u)(1) (starting with n=1).",
			"comment": [
				"There are exactly three infinite sequences satisfying this relation, namely this sequence, A087888 and A087890."
			],
			"xref": [
				"Cf. A000002, A087888, A087890."
			],
			"keyword": "easy,eigen,nonn",
			"offset": "1,1",
			"author": "Vincent Nesme (vincent.nesme(AT)ens-lyon.fr), Oct 13 2003",
			"ext": [
				"The description was not quite clear to me but I hope I have edited it correctly. - _N. J. A. Sloane_."
			],
			"references": 2,
			"revision": 3,
			"time": "2012-03-30T16:49:49-04:00",
			"created": "2004-02-19T03:00:00-05:00"
		}
	]
}