{
	"greeting": "Greetings from The On-Line Encyclopedia of Integer Sequences! http://oeis.org/",
	"query": "id:A088271",
	"count": 1,
	"start": 0,
	"results": [
		{
			"number": 88271,
			"data": "2,5,131,191,797,11411,15551,30203,31013,32423,36263,36563,38183,39293,72227,74747,77477,94349,94949,1003001,1055501,1074701,1085801,1120211,1123211,1153511,1178711,1183811,1221221,1311131,1317131,1363631",
			"name": "Palindromic primes that yield a prime when sandwiched between two 7's. (Prefixing and suffixing a 'seven' on both sides yields another pal prime).",
			"example": [
				"191 is a member as 71917 is also a prime."
			],
			"xref": [
				"Cf. A088269, A088270, A088272."
			],
			"keyword": "base,nonn",
			"offset": "1,1",
			"author": "_Amarnath Murthy_, Sep 28 2003",
			"ext": [
				"More terms from _David Wasserman_, Jul 28 2005"
			],
			"references": 3,
			"revision": 5,
			"time": "2013-12-05T19:56:33-05:00",
			"created": "2004-02-19T03:00:00-05:00"
		}
	]
}