{
	"greeting": "Greetings from The On-Line Encyclopedia of Integer Sequences! http://oeis.org/",
	"query": "id:A088939",
	"count": 1,
	"start": 0,
	"results": [
		{
			"number": 88939,
			"data": "1,2,3,2,4,3,4,2,5,4,5,4,5,3,5,4,5,2,6,5,6,5,6,5,6,4,6,5,6,5,6,5,6,4,6,5,6,5,6,3,6,5,6,5,6,5,6,4,6,5,6,2,7,6,7,6,7,6,7,6,7,5,7,6,7,6,7,6,7,6,7,5,7,6,7,6,7,6,7,6,7",
			"name": "Runs are reduced to one term in A088936.",
			"formula": [
				"Is sum(k=1, n, a(k)) asymptotic to c*n*log(n) for some c?"
			],
			"example": [
				"A run of 5 7's ...6,7, 7, 7, 7, 7,6,... is replaced by its",
				"own value 7 which gives ...6,7,6,..."
			],
			"xref": [
				"Cf. A088936, A088937, A088938, A088940 (partial sums)."
			],
			"keyword": "nonn",
			"offset": "1,2",
			"author": "_Benoit Cloitre_, Oct 25 2003",
			"references": 4,
			"revision": 6,
			"time": "2012-03-30T18:39:21-04:00",
			"created": "2004-02-19T03:00:00-05:00"
		}
	]
}