{
	"greeting": "Greetings from The On-Line Encyclopedia of Integer Sequences! http://oeis.org/",
	"query": "id:A088416",
	"count": 1,
	"start": 0,
	"results": [
		{
			"number": 88416,
			"data": "1,2,3,4,5,6,7,8,14,16,17,21,22,23,24,35,73,83,147,553,801,1098,1115",
			"name": "A088415 indexed by A000040.",
			"formula": [
				"a(n) = k such that A088415(n) = A000040(k).",
				"a(n) = A000720(A088415(n)). - _Michel Marcus_, Aug 06 2021"
			],
			"xref": [
				"Cf. A000040, A088415."
			],
			"keyword": "nonn,hard,more",
			"offset": "1,2",
			"author": "_Ray Chandler_, Oct 05 2003",
			"ext": [
				"Offset changed to 1 and a(20)-a(23) from _Jinyuan Wang_, Aug 06 2021"
			],
			"references": 0,
			"revision": 8,
			"time": "2021-08-06T07:01:11-04:00",
			"created": "2004-02-19T03:00:00-05:00"
		}
	]
}