{
	"greeting": "Greetings from The On-Line Encyclopedia of Integer Sequences! http://oeis.org/",
	"query": "id:A088733",
	"count": 1,
	"start": 0,
	"results": [
		{
			"number": 88733,
			"data": "3,11,19,79,41,167,127,233,179,461,227,883,433,569,719,1801,593,1861,859,1553,1319,3863,1103,3499,2027,3671,2239,6089,1499,6323,3583,5147,3739,5879,2843,11173,4597,7253,4799,14923,3779,14533,6599,7919,7589",
			"name": "n-th prime in the arithmetic progression n+k*(n+1) with k\u003e0.",
			"link": [
				"T. D. Noe, \u003ca href=\"/A088733/b088733.txt\"\u003eTable of n, a(n) for n = 1..10000\u003c/a\u003e",
				"T. D. Noe, \u003ca href=\"/A088733/a088733.png\"\u003eLinear Plot\u003c/a\u003e",
				"Eric Weisstein's World of Mathematics, \u003ca href=\"http://mathworld.wolfram.com/DirichletsTheorem.html\"\u003eDirichlet's Theorem\u003c/a\u003e",
				"\u003ca href=\"/index/Pri#primes_AP\"\u003eIndex entries for sequences related to primes in arithmetic progressions\u003c/a\u003e"
			],
			"example": [
				"n=4, the progression starts: 4, 9, 14, 19, 24, 29, 34, 39, 44, 49,",
				"54, 59, 64, 69, 74, 79, 84, 89, etc., with primes 19, 29, 59, 79, 89, etc.,",
				"79 is the fourth prime: a(4)=79."
			],
			"mathematica": [
				"Table[k = 1; Do[While[p = n + k*(n + 1); ! PrimeQ[p], k++]; k++, {n}]; p, {n, 100}] (* _T. D. Noe_, Oct 20 2011 *)"
			],
			"program": [
				"(Haskell)",
				"a088733 n = last $ take n $",
				"            [q | q \u003c- [2 * n + 1, 3 * n + 2 ..], a010051' q == 1]",
				"-- _Reinhard Zumkeller_, Oct 01 2014"
			],
			"xref": [
				"Cf. A088732.",
				"Cf. A010051."
			],
			"keyword": "nonn",
			"offset": "1,1",
			"author": "_Reinhard Zumkeller_, Oct 12 2003",
			"references": 2,
			"revision": 22,
			"time": "2014-10-01T16:47:54-04:00",
			"created": "2004-02-19T03:00:00-05:00"
		}
	]
}