{
	"greeting": "Greetings from The On-Line Encyclopedia of Integer Sequences! http://oeis.org/",
	"query": "id:A088169",
	"count": 1,
	"start": 0,
	"results": [
		{
			"number": 88169,
			"data": "0,2,4,6,8,11,22,33,44,55,66,77,88,99,101,141,161,181,201,202,221,222,241,242,261,262,281,282,302,303,322,323,342,343,362,363,382,383,403,404,423,424,443,444,463,464,483,484,504,505,524,525,544,545,564,565",
			"name": "Numbers n such that the set S(n) = {k: k + reverse(k) = n} is not empty and all elements of S(n) have the same number of digits as n.",
			"comment": [
				"Subsequence of A067030."
			],
			"link": [
				"\u003ca href=\"/index/Res#RAA\"\u003eIndex entries for sequences related to Reverse and Add!\u003c/a\u003e"
			],
			"example": [
				"404 is a term since S(404) = {103, 202, 301, 400}."
			],
			"xref": [
				"Cf. A067030, A088170, A088171."
			],
			"keyword": "nonn,base",
			"offset": "1,2",
			"author": "_Klaus Brockhaus_, Sep 21 2003",
			"references": 2,
			"revision": 6,
			"time": "2012-03-30T17:27:41-04:00",
			"created": "2004-02-19T03:00:00-05:00"
		}
	]
}