{
	"greeting": "Greetings from The On-Line Encyclopedia of Integer Sequences! http://oeis.org/",
	"query": "id:A088679",
	"count": 1,
	"start": 0,
	"results": [
		{
			"number": 88679,
			"data": "0,1,2,6,48,2880,9953280,115579079884800,15266884236590834264309760000,262212473580148912869121218589990322256745385164800000000",
			"name": "a(n) = a(n-1)^2 * n / (n-1), n\u003e1, a(0) = 0, a(1) = 1.",
			"comment": [
				"Unreduced numerators of: f(1) = 1, f(n) = f(n-1) + f(n-1)/(n-1). - _Daniel Suteu_, Jul 29 2016"
			],
			"formula": [
				"a(n) is asymptotic to c^(2^n)*(1-1/n+2/n^2-6/n^3+25/n^4-137/n^5+...) where c=1.28906475773... and coefficient of n^-k is (-1)^k*A084784(k).",
				"a(0) = 0, a(1) = 1, a(n) = n * Product i=1..(n-1) a(i) for n \u003e 1. - _Gerald McGarvey_, Jun 11 2004 Corrected by _Jaroslav Krizek_, Oct 16 2009",
				"a(n)^2 = n * A052129(n). _Michael Somos_, May 13 2012",
				"a(n+1)/A052129(n) = n+1. - _Daniel Suteu_, Jul 29 2016"
			],
			"example": [
				"x + 2*x^2 + 6*x^3 + 48*x^4 + 2880*x^5 + 9953280*x^6 + ..."
			],
			"mathematica": [
				"Join[{0},RecurrenceTable[{a[1]==1,a[n]==a[n-1]^2 n/(n-1)},a,{n,10}]] (* _Harvey P. Dale_, Jan 16 2015 *)"
			],
			"program": [
				"(PARI) {a(n) = if( n\u003c2, n\u003e0, a(n-1)^2 * n / (n-1))}"
			],
			"xref": [
				"Cf. A052129."
			],
			"keyword": "nonn",
			"offset": "0,3",
			"author": "_Michael Somos_, Oct 05 2003",
			"references": 3,
			"revision": 18,
			"time": "2016-08-21T21:36:13-04:00",
			"created": "2004-02-19T03:00:00-05:00"
		}
	]
}