{
	"greeting": "Greetings from The On-Line Encyclopedia of Integer Sequences! http://oeis.org/",
	"query": "id:A088176",
	"count": 1,
	"start": 0,
	"results": [
		{
			"number": 88176,
			"data": "7,11,17,23,37,47,67,79,107,113,149,157,191,197,211,233,251,277,293,317,353,431,439,467,541,577,607,631,647,673,821,827,839,863,887,1031,1039,1061,1069,1097,1163,1237,1283,1297,1307,1327,1433,1459,1487,1493,1613",
			"name": "Primes such that the previous two primes are a twin prime pair.",
			"comment": [
				"Primes p such that prevprime(p) - 2 is prime. - _Irina Gerasimova_, Jun 28 2013"
			],
			"link": [
				"Amiram Eldar, \u003ca href=\"/A088176/b088176.txt\"\u003eTable of n, a(n) for n = 1..10000\u003c/a\u003e"
			],
			"maple": [
				"A088176 := proc(n)",
				"    nextprime(A006512(n)) ;",
				"end proc:",
				"seq(A088176(n),n=1..30) ; # _R. J. Mathar_, Nov 26 2014"
			],
			"program": [
				"(PARI) is(n)=isprime(n) \u0026\u0026 isprime(precprime(n-1)-2) \\\\ _Charles R Greathouse IV_, Jun 28 2013",
				"(MAGMA) [NthPrime(n): n in [2..260] | IsPrime((NthPrime(n-1)-2))]; // _Vincenzo Librandi_, Nov 18 2014"
			],
			"xref": [
				"Cf. A088175."
			],
			"keyword": "easy,nonn",
			"offset": "1,1",
			"author": "_Zak Seidov_, Sep 22 2003",
			"ext": [
				"More terms from _Ray Chandler_, Sep 25 2003",
				"Definition clarified by _Irina Gerasimova_, Jun 28 2013"
			],
			"references": 4,
			"revision": 25,
			"time": "2020-01-01T10:28:21-05:00",
			"created": "2004-02-19T03:00:00-05:00"
		}
	]
}