{
	"greeting": "Greetings from The On-Line Encyclopedia of Integer Sequences! http://oeis.org/",
	"query": "id:A088755",
	"count": 1,
	"start": 0,
	"results": [
		{
			"number": 88755,
			"data": "0,2,16,119,924,7445,63129,547572,4838319,4814936,43167234,391378851,3580266494,32997926272,306051434210,2853931339135,26737370196938,251515351394258,2374493400086829,22488661383368556,213597279448646179,2033961812788210675,19413250431142245897",
			"name": "Number of n-digit primes beginning with n.",
			"comment": [
				"This is a subsidiary sequence suggested in A088104."
			],
			"link": [
				"Tomás Oliveira e Silva, \u003ca href=\"http://sweet.ua.pt/tos/primes.html\"\u003eTables of values of pi(x) and of pi2(x)\u003c/a\u003e"
			],
			"example": [
				"a(2) = 2 since 23 and 29 are the only two 2-digit primes beginning with 2."
			],
			"xref": [
				"Cf. A077504, A077505, A088104, A088105, A088754."
			],
			"keyword": "nonn,base",
			"offset": "1,2",
			"author": "_Ray Chandler_, Oct 15 2003",
			"ext": [
				"More terms from _Harvey P. Dale_, Oct 16 2003",
				"a(10)-a(13) corrected and a(14)-a(22) from _Donovan Johnson_, Apr 24 2013",
				"Incorrect Mathematica program deleted by _Harvey P. Dale_, Apr 25 2013",
				"a(23) from _Chai Wah Wu_, Jun 20 2019"
			],
			"references": 5,
			"revision": 16,
			"time": "2019-06-20T00:47:15-04:00",
			"created": "2004-02-19T03:00:00-05:00"
		}
	]
}