{
	"greeting": "Greetings from The On-Line Encyclopedia of Integer Sequences! http://oeis.org/",
	"query": "id:A088702",
	"count": 1,
	"start": 0,
	"results": [
		{
			"number": 88702,
			"data": "0,1,2,7,28,124,588,2939,15292,82168,453376,2558074,14712038,86029132,510455002,3068304865,18658787150,114663168405,711391109162,4452321247688,28090360338572,178550339417087,1142799275636690",
			"name": "Number of polygons with polygonal holes on the square lattice enumerated by half-perimeter.",
			"comment": [
				"The polygons and the hole are self-avoiding and mutually-avoiding, i.e., no degree four vertices are allowed. Translations are allowed, rotations and reflections are not allowed. The contribution of the holes to the perimeter is counted. The number of the holes is not limited, possibly no holes."
			],
			"reference": [
				"A. J. Guttmann, I. Jensen, L. H. Wong and I. G. Enting, J. Phys. A, Vol. 33 (2000) 1735-1764."
			],
			"link": [
				"I. Jensen, \u003ca href=\"/A088702/b088702.txt\"\u003eTable of n, a(n) for n = 1..43\u003c/a\u003e (from link below)",
				"I. Jensen, \u003ca href=\"https://researchers.ms.unimelb.edu.au/~ij@unimelb/polygons/series/square.perim.allholes.ser\"\u003eMore terms\u003c/a\u003e",
				"I. Jensen, \u003ca href=\"https://researchers.ms.unimelb.edu.au/~ij@unimelb/polygons/Polygons_ser.html\"\u003eSeries expansions for self-avoiding polygons\u003c/a\u003e"
			],
			"xref": [
				"Cf. A002931 (self-avoiding polygons), A056634 (self-avoiding polygons with exactly one hole), A056638 (self-avoiding polygons with exactly two holes), A056639 (self-avoiding polygons with exactly three holes)."
			],
			"keyword": "nonn",
			"offset": "1,3",
			"author": "Markus Voege (markus.voege(AT)inria.fr), Nov 23 2003",
			"references": 1,
			"revision": 12,
			"time": "2019-10-06T18:21:30-04:00",
			"created": "2004-02-19T03:00:00-05:00"
		}
	]
}