{
	"greeting": "Greetings from The On-Line Encyclopedia of Integer Sequences! http://oeis.org/",
	"query": "id:A088504",
	"count": 1,
	"start": 0,
	"results": [
		{
			"number": 88504,
			"data": "0,0,2,0,14,20,32,0,254,492,932,1584,3104,4160,8192,0,65534,131036,261836,521968,1038884,2044440,4029984,7607296,15306272,27305280,53360192,77448960,201334784,268451840,536870912,0,4294967294",
			"name": "Sum of even entries in row n of Pascal's triangle.",
			"comment": [
				"a(n) = 0 iff n = 2^k - 1.",
				"A088560(n) = A088504(n) iff n = 2^k - 2, k\u003e1. A088560(n) \u003e A088504(n) iff n = 2^k - 1."
			],
			"formula": [
				"A088504(n) + A088560(n) = 2^n. A088504(n) - A088560(n) = A085814(n)."
			],
			"mathematica": [
				"f[n_] := Plus @@ Select[ Table[ Binomial[n, i], {i, 0, n}], EvenQ[ # ] \u0026 ]; Table[ f[n], {n, 0, 35}] (* _Robert G. Wilson v_, Nov 19 2003 *)"
			],
			"xref": [
				"Cf. A048967."
			],
			"keyword": "nonn",
			"offset": "0,3",
			"author": "Yuval Dekel (dekelyuval(AT)hotmail.com), Nov 18 2003",
			"ext": [
				"Edited and extended by _Robert G. Wilson v_ and _Ray Chandler_, Nov 19 2003"
			],
			"references": 2,
			"revision": 7,
			"time": "2015-03-29T12:00:32-04:00",
			"created": "2004-02-19T03:00:00-05:00"
		}
	]
}