{
	"greeting": "Greetings from The On-Line Encyclopedia of Integer Sequences! http://oeis.org/",
	"query": "id:A088126",
	"count": 1,
	"start": 0,
	"results": [
		{
			"number": 88126,
			"data": "1,18,1,0,0,0,0,1,0,0,0,0,0,0,0,0,0,0,0,1,0,0,0,0,0,0,0,0,0,0,0,0,0,1,0,0,0,0,0,0,0,0,0,0,0,0,0,0,0,0,0,0,0,0,0,0,0,0,0,0,0,0,0,0,0,0,0,0,0,0,0,0,0,0,0,0,0,0,0,0,0,0,0,0,0,0,0,0,0,0,0,0,0,0,0,0,0,0,0,0,0,0,0,0",
			"name": "Let f(n, x) = x+3x^2+6x^3+...+(n(n+1)/2)x^n; then a(n) = least x such that f(n, x) is a triangular number, or 0 if no such x exists.",
			"comment": [
				"If k is a member of A027568 (both triangular and tetrahedral) then k = A000292(n-1) for some n and a(n) = 1.",
				"Zero values are conjectures. I have searched for a(4) up to x = 10^7, a(5) up to x = 10^6 and the rest up to x = 10^4. (Wasserman)"
			],
			"xref": [
				"Cf. A087702."
			],
			"keyword": "nonn",
			"offset": "1,2",
			"author": "_Amarnath Murthy_, Sep 26 2003",
			"ext": [
				"Edited and extended by _David Wasserman_, Jun 16 2005"
			],
			"references": 1,
			"revision": 5,
			"time": "2013-12-05T19:56:33-05:00",
			"created": "2004-02-19T03:00:00-05:00"
		}
	]
}