{
	"greeting": "Greetings from The On-Line Encyclopedia of Integer Sequences! http://oeis.org/",
	"query": "id:A088878",
	"count": 1,
	"start": 0,
	"results": [
		{
			"number": 88878,
			"data": "3,5,7,11,13,23,37,43,47,53,61,67,71,103,113,127,137,163,167,181,191,193,211,251,257,263,271,277,293,307,313,331,337,347,373,401,431,433,443,461,467,487,491,523,541,557,587,593,601,673,677,727,751,757,761",
			"name": "Prime numbers p such that 3p - 2 is a prime.",
			"comment": [
				"Indices of semiprime octagonal numbers. - _Jonathan Vos Post_, Feb 16 2006",
				"Daughter primes of order 1. - _Artur Jasinski_, Dec 12 2007",
				"A010051(3*a(n)-2) = 1. - _Reinhard Zumkeller_, Jul 02 2015"
			],
			"reference": [
				"M. Cerasoli, F. Eugeni and M. Protasi, Elementi di Matematica Discreta, Bologna 1988",
				"Emanuele Munarini and Norma Zagaglia Salvi, Matematica Discreta, UTET, CittaStudiEdizioni, Milano 1997"
			],
			"link": [
				"Vincenzo Librandi, \u003ca href=\"/A088878/b088878.txt\"\u003eTable of n, a(n) for n = 1..1000\u003c/a\u003e",
				"Eric Weisstein's World of Mathematics, \u003ca href=\"http://mathworld.wolfram.com/OctagonalNumber.html\"\u003eOctagonal Number.\u003c/a\u003e",
				"Eric Weisstein's World of Mathematics, \u003ca href=\"http://mathworld.wolfram.com/Semiprime.html\"\u003eSemiprime.\u003c/a\u003e"
			],
			"example": [
				"For p = 3, 3p - 2 = 7;",
				"for p = 523, 3p - 2 = 1567."
			],
			"mathematica": [
				"lst={};Do[p=Prime[n];If[PrimeQ[3*p-2],AppendTo[lst,p]],{n,5!}];lst (* _Vladimir Joseph Stephan Orlovsky_, Dec 22 2008 *)",
				"n = 1; a = {}; Do[If[PrimeQ[(Prime[k] + 2n)/(2n + 1)], AppendTo[a, (Prime[k] + 2n)/(2n + 1)]], {k, 1, 500}]; a (* _Artur Jasinski_, Dec 12 2007 *)"
			],
			"program": [
				"(MAGMA) [ p: p in PrimesUpTo(770) | IsPrime(3*p-2) ]; // _Klaus Brockhaus_, Dec 21 2008",
				"(PARI) list(lim)=select(p-\u003eisprime(3*p-2),primes(primepi(lim))) \\\\ _Charles R Greathouse IV_, Jul 25 2011",
				"(Haskell)",
				"a088878 n = a088878_list !! (n-1)",
				"a088878_list = filter ((== 1) . a010051' . subtract 2 . (* 3)) a000040_list",
				"-- _Reinhard Zumkeller_, Jul 02 2015"
			],
			"xref": [
				"Cf. A000040, A000567, A001222, A001358, A091179, A091180, A091181, A136019, A136020, A153183, A153184.",
				"Cf. A010051, A063908, A172287.",
				"Cf. A259730."
			],
			"keyword": "easy,nonn",
			"offset": "1,1",
			"author": "_Giovanni Teofilatto_, Nov 27 2003",
			"ext": [
				"Corrected and extended by _Ray Chandler_, Dec 27 2003",
				"Entry revised by _N. J. A. Sloane_, Nov 28 2006, Jul 08 2010"
			],
			"references": 44,
			"revision": 27,
			"time": "2015-07-05T14:49:16-04:00",
			"created": "2004-02-19T03:00:00-05:00"
		}
	]
}