{
	"greeting": "Greetings from The On-Line Encyclopedia of Integer Sequences! http://oeis.org/",
	"query": "id:A088557",
	"count": 1,
	"start": 0,
	"results": [
		{
			"number": 88557,
			"data": "4,12,24,40,60,84,8,144,180,20,264,312,364,420,480,56,12,684,80,840,924,28,1104,1200,140,1404,48,176,1740,1860,16,72,2244,260,2520,2664,308,36,3120,3280,3444,132,416,3960,60,476,168,4704,20,5100,5304,88,5724,5940",
			"name": "Least even leg of primitive Pythagorean triangles with odd leg 2n+1.",
			"comment": [
				"a(n) shares identical entries with A046092(n) except for n=(A081934 - 1)/2."
			],
			"link": [
				"Jean-François Alcover, \u003ca href=\"/A088557/b088557.txt\"\u003eTable of n, a(n) for n = 1..1000\u003c/a\u003e"
			],
			"mathematica": [
				"a[n_] := 2k /. Solve[k \u003e 0 \u0026\u0026 1 \u003c h \u003c 2k + 2n + 1 \u0026\u0026 (2k)^2 + (2n + 1)^2 == h^2 \u0026\u0026 GCD[2k, 2n + 1, h] == 1, {k, h}, Integers][[1]];",
				"a /@ Range[54] (* _Jean-François Alcover_, Mar 05 2020 *)"
			],
			"xref": [
				"Cf. A088558, A096891-A096900."
			],
			"keyword": "nonn",
			"offset": "1,1",
			"author": "_Lekraj Beedassy_, Nov 17 2003",
			"ext": [
				"Corrected and extended by _Ray Chandler_, Jul 14 2004"
			],
			"references": 12,
			"revision": 10,
			"time": "2020-03-05T08:21:38-05:00",
			"created": "2004-02-19T03:00:00-05:00"
		}
	]
}