{
	"greeting": "Greetings from The On-Line Encyclopedia of Integer Sequences! http://oeis.org/",
	"query": "id:A088049",
	"count": 1,
	"start": 0,
	"results": [
		{
			"number": 88049,
			"data": "1,3,5,7,9,11,22,33,44,55,66,77,88,99,101,202,303,404,505,606,707,808,909,2002,10601,20202,30103,40004,50305,60206,70107,80008,90309,202202,1001001,2004002,3000003,4003004,5000005,6003006,7000007,8003008",
			"name": "Beginning with 1 palindromes with prime successive differences.",
			"example": [
				"2002 follows 909 as 2002-909 =1093 is a prime."
			],
			"xref": [
				"Cf. A088050, A088051."
			],
			"keyword": "base,nonn",
			"offset": "1,2",
			"author": "_Amarnath Murthy_, Sep 20 2003",
			"ext": [
				"More terms from _David Wasserman_, Jun 27 2005"
			],
			"references": 2,
			"revision": 4,
			"time": "2013-12-05T19:56:32-05:00",
			"created": "2004-02-19T03:00:00-05:00"
		}
	]
}