{
	"greeting": "Greetings from The On-Line Encyclopedia of Integer Sequences! http://oeis.org/",
	"query": "id:A088754",
	"count": 1,
	"start": 0,
	"results": [
		{
			"number": 88754,
			"data": "1,2,14,107,103,851,6931,59557,518971,4585526,41368791,375232730,3441863700,31843327587,295907384843,2761221438054,25890141962275,244138314690159,2306482418751769,21874074143081175,208132164249925671,1983046852246630734,18946883921641542673",
			"name": "Number of n-digit primes beginning with prime(n).",
			"comment": [
				"Subsidiary sequence suggested in A088104."
			],
			"link": [
				"Tomás Oliveira e Silva, \u003ca href=\"http://sweet.ua.pt/tos/primes.html\"\u003eTables of values of pi(x) and of pi2(x)\u003c/a\u003e"
			],
			"example": [
				"a(2) = 2 since 31 and 37 are the only two 2-digit primes beginning with prime(2) = 3."
			],
			"program": [
				"(PARI) A088754(n)={ local (resul,sdig,p,lo,hi) ; sdig=prime(n) ; lo=sdig ; hi=sdig+1 ; while( lo \u003c 10^(n-1), lo *= 10 ; hi *= 10 ; ) ; resul=0 ; p=nextprime(lo) ; while(p \u003c hi, resul++ ; p=nextprime(p+1) ; ) ; return(resul) ; }",
				"{ for(n=1,11, print(A088754(n)); ) } \\\\ _R. J. Mathar_, Sep 25 2006",
				"(Python)",
				"from sympy import prime, primepi",
				"def A088754(n):",
				"    p = prime(n)",
				"    m = n-len(str(p))",
				"    return primepi((p+1)*10**m)-primepi(p*10**m) # _Chai Wah Wu_, Jun 18 2019"
			],
			"xref": [
				"Cf. A077504, A077505, A088104, A088105, A088755."
			],
			"keyword": "nonn,base",
			"offset": "1,2",
			"author": "_Ray Chandler_, Oct 15 2003",
			"ext": [
				"a(10) from _R. J. Mathar_, Sep 25 2006",
				"a(11)-a(14) from Floris P. van Doorn and Jasper Mulder (florisvandoorn(AT)hotmail.com), Oct 12 2009",
				"a(15)-a(22) from _Donovan Johnson_, Apr 24 2013",
				"a(23) from _Chai Wah Wu_, Jun 19 2019"
			],
			"references": 6,
			"revision": 29,
			"time": "2020-04-26T09:06:40-04:00",
			"created": "2004-02-19T03:00:00-05:00"
		}
	]
}