{
	"greeting": "Greetings from The On-Line Encyclopedia of Integer Sequences! http://oeis.org/",
	"query": "id:A088635",
	"count": 1,
	"start": 0,
	"results": [
		{
			"number": 88635,
			"data": "1,3,5,7,10,16,23,29,36,46,55,67,79,92,105,121,136,154,171,191,210,232,255,277,301,326,353,379,406,436,466,497,528,562,595,631,667,704,743,781,821,862,903,947,990,1036,1081,1129,1177,1226,1277,1327,1378,1432",
			"name": "a(1) = 1, a(n+1) = smallest number such that the product of all numbers between a(n) and a(n+1), ( both excluded) is divisible by n!.",
			"keyword": "nonn",
			"offset": "0,2",
			"author": "_Amarnath Murthy_, Oct 26 2003",
			"ext": [
				"More terms from _David Wasserman_, Aug 16 2005"
			],
			"references": 0,
			"revision": 4,
			"time": "2013-12-05T19:56:34-05:00",
			"created": "2004-02-19T03:00:00-05:00"
		}
	]
}