{
	"greeting": "Greetings from The On-Line Encyclopedia of Integer Sequences! http://oeis.org/",
	"query": "id:A088113",
	"count": 1,
	"start": 0,
	"results": [
		{
			"number": 88113,
			"data": "1,11,121,1331,13651,150161,1561681,17168492,178863412,967497632,10552373962,116067113483,1266738338413,12944121722543,142286328947974,1466139717526814,16126635892794955,167392994830654505",
			"name": "a(n) = digit reversal of (11^n) divided by 11.",
			"comment": [
				"Conjecture: There are finitely many palindromic terms. Question: How many are palindromes? Observation: a(n) is further divisible by 11 for n = 2,3,4,5,6,7,8,"
			],
			"mathematica": [
				"Table[FromDigits[Reverse[IntegerDigits[11^n]]]/11,{n,20}] (* _Harvey P. Dale_, Aug 14 2015 *)"
			],
			"keyword": "base,nonn",
			"offset": "1,2",
			"author": "_Amarnath Murthy_, Sep 25 2003",
			"ext": [
				"Corrected and extended by _Ray Chandler_, Oct 14 2003"
			],
			"references": 0,
			"revision": 6,
			"time": "2015-08-14T11:44:38-04:00",
			"created": "2004-02-19T03:00:00-05:00"
		}
	]
}