{
	"greeting": "Greetings from The On-Line Encyclopedia of Integer Sequences! http://oeis.org/",
	"query": "id:A088514",
	"count": 1,
	"start": 0,
	"results": [
		{
			"number": 88514,
			"data": "3,7,5,11,7,13,16,9,32,17,40,11,19,55,40,24,13,23,65,69,25,56,15,75,32,104,56,29,17,87,85,31,119,72,93,64,144,95,40,35,133,21,136,105,37,105,111,88,23,185,152,176,80,41,115",
			"name": "Smaller section of edge A089025(n) by integral cevian A088513(n).",
			"comment": [
				"Obviously, larger section is A089025(n) - a(n)."
			],
			"formula": [
				"Larger section is A089025(n) - a(n) = A088586(n). a(n) = (A089025(n) - A088587(n))/2. - _Lekraj Beedassy_, Nov 25 2003"
			],
			"mathematica": [
				"findPrimIntEquiSmallSection[maxC_] :=",
				"Reap[Do[Do[",
				"     With[{cevian = Abs[c E^((2 \\[Pi] I)/6) - a]},",
				"      If[FractionalPart[cevian] == 0 \u0026\u0026 GCD[a, c] == 1,",
				"       Sow[a]; Break[]]], {a, Floor[c/2],",
				"      1, -1}], {c, maxC}]][[2, 1]]",
				"(* _Andrew Turner_, Aug 04 2017 *)"
			],
			"keyword": "nonn",
			"offset": "1,1",
			"author": "_Lekraj Beedassy_, Nov 14 2003",
			"ext": [
				"a(7) changed from 18 to 16 by W. D. Smith, Mar 04 2012 (_N. J. A. Sloane_, Dec 05 2012)",
				"a(42) changed from 105 to 21, and a(52)=176 inserted by _Andrew Turner_, Aug 04 2017"
			],
			"references": 2,
			"revision": 33,
			"time": "2017-08-10T04:39:11-04:00",
			"created": "2004-02-19T03:00:00-05:00"
		}
	]
}