{
	"greeting": "Greetings from The On-Line Encyclopedia of Integer Sequences! http://oeis.org/",
	"query": "id:A088983",
	"count": 1,
	"start": 0,
	"results": [
		{
			"number": 88983,
			"data": "91,141,142,143,212,213,214,323,324,2302,2303",
			"name": "Numbers n such that each of the 6 consecutive numbers n through n+5 has exactly two distinct prime factors.",
			"comment": [
				"Initial segment of A045934 is identical to this sequence but in A045934 the 12th term is divisible by 3 prime factors. Is the present sequence complete?",
				"No more terms \u003c 3*10^8. - _David Wasserman_, Aug 29 2005",
				"a(12) \u003e 10^40, if it exists. - _Giovanni Resta_, May 10 2017",
				"From _David A. Corneth_, May 14 2017: (Start)",
				"We're looking for at least 6 consecutive positive integers that each have exactly two distinct prime divisors. I.e. 6 consecutive positive integers m with omega(m) = 2. Now of exactly 6 consecutive integers, exactly one of them is divisible by 6, i.e. m is of the form 2*3*k. However m has exactly 2 distinct prime divisors, so k can only have prime divisors 2 or 3. Now, suppose m ends in 6 or higher. Then one of the consecutive integers is divisible by 10 = 2*5. I.e. it's of the form 2*5*t. Then t can only have prime divisors 2 and 5. (End)",
				"This sequence has no run of four consecutive integers, since Eggleton and MacDougall prove that there are no more than 9 consecutive integers with A001221(k) = 2. They conjecture that A007774 contains no runs of 9 consecutive integers, and has only two runs of size 8 (at 141 and 212) and two maximal runs of size 7 (at 323 and 2302); they add that the maximal run of size 6 at 91 might be the only such run, so A088983 might be complete. - Roger Eggleton via _Jason Kimberley_, Jul 12 2017"
			],
			"link": [
				"Roger B. Eggleton and James A. MacDougall, \u003ca href=\"http://www.jstor.org/stable/27643119\"\u003eConsecutive integers with equally many principal divisors\u003c/a\u003e, Math. Mag. 81 (2008), 235-248."
			],
			"mathematica": [
				"Select[Range[3000], AllTrue[# + Range[0, 5], Length@FactorInteger[#] == 2 \u0026] \u0026] (* _Giovanni Resta_, May 09 2017 *)"
			],
			"xref": [
				"Cf. A064709, A045932, A045933, A045934, A045935, A074851, A006073, A003586."
			],
			"keyword": "nonn,hard",
			"offset": "1,1",
			"author": "_Labos Elemer_, Sep 30 2003",
			"ext": [
				"Definition simplified by Roger Eggleton via _Jason Kimberley_, Jul 12 2017"
			],
			"references": 2,
			"revision": 38,
			"time": "2017-11-16T15:52:23-05:00",
			"created": "2004-02-19T03:00:00-05:00"
		}
	]
}