{
	"greeting": "Greetings from The On-Line Encyclopedia of Integer Sequences! http://oeis.org/",
	"query": "id:A088600",
	"count": 1,
	"start": 0,
	"results": [
		{
			"number": 88600,
			"data": "1,1,1,1,2,24,8437,48615649",
			"name": "Number of simple loops with n elements: loops with no real substructure, every subset which is closed under the operation is either {E} or the whole set.",
			"link": [
				"\u003ca href=\"/index/Qua#quasigroups\"\u003eIndex entries for sequences related to quasigroups\u003c/a\u003e"
			],
			"keyword": "nonn,more",
			"offset": "1,5",
			"author": "Juergen Buntrock (jubu(AT)eule.in-berlin.de), Nov 17 2003",
			"references": 0,
			"revision": 6,
			"time": "2011-07-10T18:37:14-04:00",
			"created": "2004-02-19T03:00:00-05:00"
		}
	]
}