{
	"greeting": "Greetings from The On-Line Encyclopedia of Integer Sequences! http://oeis.org/",
	"query": "id:A088447",
	"count": 1,
	"start": 0,
	"results": [
		{
			"number": 88447,
			"data": "1,2,3,16,5,36,7,32,27,100,11,156,13,126,135,256,17,162,19,440,147,484,23,696,125,1222,243,1148,29,930,31,1376",
			"name": "Smallest number m with A088444(m) = n.",
			"comment": [
				"A088444(a(n)) = n, A088444(m) \u003c\u003e n for m \u003c a(n);",
				"a(n)=n iff n=1 or n is prime: a(A008578(n))=A008578(n), a(A002808(n))\u003eA002808(n)."
			],
			"xref": [
				"Cf. A088448, A088446."
			],
			"keyword": "nonn",
			"offset": "1,2",
			"author": "_Reinhard Zumkeller_, Sep 30 2003",
			"references": 3,
			"revision": 3,
			"time": "2012-03-30T18:50:38-04:00",
			"created": "2004-02-19T03:00:00-05:00"
		}
	]
}