{
	"greeting": "Greetings from The On-Line Encyclopedia of Integer Sequences! http://oeis.org/",
	"query": "id:A089748",
	"count": 1,
	"start": 0,
	"results": [
		{
			"number": 89748,
			"data": "2,6,28,120,496,672,8128,30240,32760,523776,2178540,23569920,33550336,45532800,142990848,459818240",
			"name": "Numbers k that divide (sum of proper divisors of k + product of proper divisors of k).",
			"comment": [
				"All perfect numbers belong to this sequence.",
				"Every term of A007691 is in this sequence. - _T. D. Noe_, Sep 29 2005",
				"There are two sets of candidates of k: (i) k|A001065(k) and k|A007956(k) individually, or (ii) neither k|A001065(k) nor k|A007956(k) but the remainders of A001065(k)/k and A007956(k)/k sum up to k. If k has at least 4 divisors, the product of the second and penultimate divisor (in the sorted divisors list) is k, so k|A007956(k). This means for all k in A080257 we have k|A007956(k), and the k that do not divide A007956(k) are in A000430, which means k=p or k=p^2 for some prime p. If k=p, A001065(k)+A007956(k) = 1+1 =2, and the requirement here reduces to k|2 and only k=2 is left. If k=p^2, A001065(k) +A007956(k) = 1+p+p = 1+2*p, and the requirement here reduces to p^2 | (1+2*p), which has no solutions. This means case (ii) does not generate any solutions besides k=2. And this means all other solutions are from case (i), and therefore elements A007691 \u003e 1 are the only remaining candidates. - _R. J. Mathar_, Oct 15 2021"
			],
			"maple": [
				"isA087948 := proc(n)",
				"    if modp( A001065(n)+A007956(n),n) = 0 then",
				"        true;",
				"    else",
				"        false;",
				"    end if;",
				"end proc:",
				"for n from 2 do",
				"    if isA087948(n) then",
				"        printf(\"%d\\n\",n) ;",
				"    end if;",
				"end do: # _R. J. Mathar_, Oct 15 2021"
			],
			"mathematica": [
				"l = {}; Do[d = Drop[Divisors[n], -1]; p = Apply[Plus, d]; t = Apply[Times, d]; m = Mod[p + t, n]; If[m == 0, l = Append[l, n]], {n, 2, 10^6}]; l"
			],
			"program": [
				"(Python)",
				"from math import prod",
				"from sympy import divisors",
				"def ok(n): d = divisors(n)[:-1]; return n \u003e 1 and (sum(d) + prod(d))%n == 0",
				"print([k for k in range(10**5) if ok(k)]) # _Michael S. Branicky_, Oct 15 2021"
			],
			"xref": [
				"Cf. A001065, A007956, A007691, A080257 (k which divide A007691(k)).",
				"Cf. A219544."
			],
			"keyword": "nonn,more",
			"offset": "1,1",
			"author": "_Joseph L. Pe_, Jan 08 2004",
			"ext": [
				"a(11)-a(16) from _Michael S. Branicky_, Oct 16 2021"
			],
			"references": 1,
			"revision": 31,
			"time": "2021-10-18T05:36:07-04:00",
			"created": "2004-02-19T03:00:00-05:00"
		}
	]
}