{
	"greeting": "Greetings from The On-Line Encyclopedia of Integer Sequences! http://oeis.org/",
	"query": "id:A089857",
	"count": 1,
	"start": 0,
	"results": [
		{
			"number": 89857,
			"data": "0,1,2,3,4,5,8,6,7,9,10,11,12,13,21,22,19,14,15,20,16,17,18,23,24,25,26,27,28,29,30,31,32,33,34,35,36,58,59,62,63,64,56,60,51,37,38,52,39,40,41,57,61,53,42,43,54,44,45,46,55,47,48,49,50,65,66,67,68,69,70,71,72",
			"name": "Permutation of natural numbers induced by Catalan Automorphism *A089857 acting on the binary trees/parenthesizations encoded by A014486/A063171.",
			"comment": [
				".A...B...........C...A",
				"..\\./.............\\./",
				"...x...C....--\u003e....x...B...............()..A.........()..A..",
				"....\\./.............\\./.................\\./....--\u003e....\\./...",
				".....x...............x...................x.............x....",
				"((a . b) . c) -\u003e ((c . a) . b) _____ (() . a) ---\u003e (() . a)",
				"In terms of S-expressions, this automorphism rotates caar, cdar and cdr of an S-exp, i.e., if car-side is not ().",
				"See the Karttunen OEIS-Wiki link for a detailed explanation how to obtain a given integer sequence from this definition."
			],
			"link": [
				"A. Karttunen, \u003ca href=\"http://oeis.org/wiki/Catalan_Automorphisms\"\u003eCatalan Automorphisms\u003c/a\u003e",
				"A. Karttunen, \u003ca href=\"/A089408/a089408.c.txt\"\u003eC-program for computing this sequence\u003c/a\u003e",
				"\u003ca href=\"/index/Per#IntegerPermutationCatAuto\"\u003eIndex entries for signature-permutations induced by Catalan automorphisms\u003c/a\u003e"
			],
			"program": [
				"(Scheme functions implementing this automorphism on list-structures/S-expressions, both constructive (*A089857) and destructive (*A089857!) versions:)",
				"(define (*A089857 s) (if (and (pair? s) (pair? (car s))) (cons (cons (cdr s) (caar s)) (cdar s)) s))",
				"(define (*A089857! s) (cond ((not (pair? s)) s) ((not (pair? (car s))) s) (else (swap! s) (robl! s) s)))",
				"(define (swap! s) (let ((ex-car (car s))) (set-car! s (cdr s)) (set-cdr! s ex-car) s))",
				"(define (robl! s) (let ((ex-car (car s))) (set-car! s (cddr s)) (set-cdr! (cdr s) ex-car) (swap! (cdr s)) (swap! s) s))"
			],
			"xref": [
				"Row 11 of A089840. Inverse of A089855. a(n) = A074679(A069770(n)) = A069770(A089862(n)) = A057163(A089851(A057163(n))).",
				"Number of cycles: A089847. Number of fixed-points: A089848 (in each range limited by A014137 and A014138)."
			],
			"keyword": "nonn",
			"offset": "0,3",
			"author": "_Antti Karttunen_, Nov 29 2003",
			"ext": [
				"Further comments and constructive implementation of Scheme-function (*A089857) added by _Antti Karttunen_, Jun 04 2011"
			],
			"references": 14,
			"revision": 21,
			"time": "2018-05-01T02:42:51-04:00",
			"created": "2004-02-19T03:00:00-05:00"
		}
	]
}