{
	"greeting": "Greetings from The On-Line Encyclopedia of Integer Sequences! http://oeis.org/",
	"query": "id:A089112",
	"count": 1,
	"start": 0,
	"results": [
		{
			"number": 89112,
			"data": "1,1,1,0,1,2,0,1,3,3,0,1,3,5,5,0,1,3,7,11,8,0,1,4,10,17,19,13,0,1,5,13,25,37,37,21,0,1,5,16,38,64,77,65,34,0,1,5,20,54,102,146,158,120,55,0,1,6,24,70,154,259,331,314,210,89,0,1,7,28,89,222,425,626,710,611,376,144",
			"name": "Square array T(r,j) (r \u003e= 1, j \u003e= 1) read by antidiagonals, where T(r,j) is the sign twisted convoluted convolved Fibonacci number H_j^(r) (see the Moree paper).",
			"link": [
				"P. Moree, \u003ca href=\"https://arxiv.org/abs/math/0311205\"\u003eConvoluted convolved Fibonacci numbers\u003c/a\u003e, arXiv:math/0311205 [math.CO], 2003.",
				"P. Moree, \u003ca href=\"https://cs.uwaterloo.ca/journals/JIS/VOL7/Moree/moree12.htm\"\u003eConvoluted Convolved Fibonacci Numbers\u003c/a\u003e, Journal of Integer Sequences, Vol. 7 (2004), Article 04.2.2."
			],
			"example": [
				"Triangle begins:",
				"  1",
				"  1 1",
				"  0 1 2",
				"  0 1 3 3",
				"  0 1 3 5 5",
				"Array begins:",
				"  1, 1, 2,  3,  5,   8,  13,   21, ...,",
				"  1, 1, 3,  5, 11,  19,  37,   65, ...,",
				"  0, 1, 3,  7, 17,  37,  77,  158, ...,",
				"  0, 1, 3, 10, 25,  64, 146,  331, ...,",
				"  0, 1, 4, 13, 38, 102, 259,  626, ...,",
				"  0, 1, 5, 16, 54, 154, 425, 1098, ...,",
				"  0, 1, 5, 20, 70, 222, 654, 1817, ...,",
				"  0, 1, 5, 24, 89, 309, 967, 2871, ...,",
				"  ..."
			],
			"maple": [
				"with(numtheory): m := proc(r,j) d := divisors(r): f := z-\u003e-1/(1-z-z^2): W := (1/r)*z*sum(mobius(d[i])*f(z^d[i])^(r/d[i]),i=1..nops(d)): Wser := simplify(series(W,z=0,30)): (-1)^r*coeff(Wser,z^j) end: seq(seq(m(n-q+1,q),q=1..n),n=1..17); # for the sequence read by antidiagonals",
				"with(numtheory): m := proc(r,j) d := divisors(r): f := z-\u003e-1/(1-z-z^2): W := (1/r)*z*sum(mobius(d[i])*f(z^d[i])^(r/d[i]),i=1..nops(d)): Wser := simplify(series(W,z=0,80)): (-1)^r*coeff(Wser,z^j) end: matrix(10,10,m); # for the square array"
			],
			"mathematica": [
				"f[z_] = -1/(1-z-z^2); m[r_, j_] := (-1)^r *(1/r)*z*DivisorSum[r, MoebiusMu[#] * f[z^#]^(r/#) \u0026] // SeriesCoefficient[#, {z, 0, j}] \u0026;",
				"Table[m[r - j + 1, j], {r, 1, 12}, {j, 1, r}] // Flatten (* _Jean-François Alcover_, Mar 25 2018, translated from Maple *)"
			],
			"keyword": "nonn,tabl,easy",
			"offset": "1,6",
			"author": "_N. J. A. Sloane_, Dec 05 2003",
			"ext": [
				"Edited by _Emeric Deutsch_, Mar 06 2004"
			],
			"references": 0,
			"revision": 15,
			"time": "2018-03-27T08:50:58-04:00",
			"created": "2004-02-19T03:00:00-05:00"
		}
	]
}