{
	"greeting": "Greetings from The On-Line Encyclopedia of Integer Sequences! http://oeis.org/",
	"query": "id:A089123",
	"count": 1,
	"start": 0,
	"results": [
		{
			"number": 89123,
			"data": "2,7,2,19,2,3,2,67,2,103,2,3,2,199,2,7,2,3,2,13,2,487,2,3,2,7,2,787,2,3,2,13,2,19,2,3,2,1447,2,7,2,3,2,7,2,13,2,3,2,2503,2,2707,2,3,2,43,2,7,2,3,2,3847,2,4099,2,3,2,7,2,4903,2,3,2,5479,2,5779,2,3,2,19,2,7,2,3,2,7",
			"name": "Smallest prime factor of numbers of the form A^2 + 3.",
			"reference": [
				"H. Rademacher, Lectures on Elementary Number Theory, pp. 33-38."
			],
			"link": [
				"Harvey P. Dale, \u003ca href=\"/A089123/b089123.txt\"\u003eTable of n, a(n) for n = 1..1000\u003c/a\u003e"
			],
			"mathematica": [
				"FactorInteger[#][[1,1]]\u0026/@(Range[90]^2+3) (* _Harvey P. Dale_, Apr 22 2018 *)"
			],
			"program": [
				"(PARI) smallasqp3(m) = { for(a=1,m, y=a^2 + 3; f = factor(y); v = component(f,1); v1 = v[length(v)]; print1(v[1]\",\") ) }"
			],
			"xref": [
				"Cf. A002496."
			],
			"keyword": "easy,nonn",
			"offset": "1,1",
			"author": "_Cino Hilliard_, Dec 05 2003",
			"references": 1,
			"revision": 7,
			"time": "2018-04-22T08:55:51-04:00",
			"created": "2004-02-19T03:00:00-05:00"
		}
	]
}