{
	"greeting": "Greetings from The On-Line Encyclopedia of Integer Sequences! http://oeis.org/",
	"query": "id:A089703",
	"count": 1,
	"start": 0,
	"results": [
		{
			"number": 89703,
			"data": "2,23,233,2333,23333,2333323,233332343,23333234359,2333323435967,233332343596783,233332343596783199,233332343596783199239,233332343596783199239421,233332343596783199239421569",
			"name": "Primes arising in A089702.",
			"xref": [
				"Cf. A089702."
			],
			"keyword": "base,nonn",
			"offset": "1,1",
			"author": "_Amarnath Murthy_, Nov 10 2003",
			"ext": [
				"More terms from C. Ronaldo (aga_new_ac(AT)hotmail.com), Dec 25 2004"
			],
			"references": 2,
			"revision": 4,
			"time": "2013-12-05T19:56:36-05:00",
			"created": "2004-02-19T03:00:00-05:00"
		}
	]
}