{
	"greeting": "Greetings from The On-Line Encyclopedia of Integer Sequences! http://oeis.org/",
	"query": "id:A089279",
	"count": 1,
	"start": 0,
	"results": [
		{
			"number": 89279,
			"data": "1,3,2,5,4,6,5,9,8,10,9,12,11,13,12,17,16,18,17,20,19,21,20,24,23,25,24,27,26,28,27,33,32,34,33,36,35,37,36,40,39,41,40,43,42,44,43,48,47,49,48,51,50,52,51,55,54,56,55,58,57,59,58,65,64,66,65,68,67,69,68,72",
			"name": "a(n) = 2 + sum(k=1 to n) [(-1)^k A001511(k)].",
			"comment": [
				"a(2^n) = 2^n+1."
			],
			"formula": [
				"a(2n+1) = A101925(n), a(2n+2) = a(2n+3)+1. - _Ralf Stephan_, Dec 28 2004"
			],
			"xref": [
				"Cf. A001511, A005187, A101925."
			],
			"keyword": "nonn",
			"offset": "1,2",
			"author": "_Gary W. Adamson_, Oct 28 2003",
			"ext": [
				"Edited by _Don Reble_, Nov 15 2005"
			],
			"references": 1,
			"revision": 7,
			"time": "2017-10-19T03:14:26-04:00",
			"created": "2004-02-19T03:00:00-05:00"
		}
	]
}