{
	"greeting": "Greetings from The On-Line Encyclopedia of Integer Sequences! http://oeis.org/",
	"query": "id:A089119",
	"count": 1,
	"start": 0,
	"results": [
		{
			"number": 89119,
			"data": "4,5,6,13,14,15,16,17,18,19,20,21,22,23,24,31,32,33,40,41,42,43,44,45,46,47,48,49,50,51,52,53,54,55,56,57,58,59,60,61,62,63,64,65,66,67,68,69,70,71,72,73,74,75,76,77,78,85,86,87,94,95,96,97,98,99,100,101,102",
			"name": "Complement of ((3*A005836) union (3*A005836 - 1) union (3*A005836 - 2)).",
			"comment": [
				"Numbers k such that the Motzkin number A001006(k) == 0 (mod 3).",
				"The asymptotic density of this sequence is 1 (Burns, 2016). - _Amiram Eldar_, Jan 30 2021"
			],
			"link": [
				"Amiram Eldar, \u003ca href=\"/A089119/b089119.txt\"\u003eTable of n, a(n) for n = 1..10000\u003c/a\u003e",
				"Rob Burns, \u003ca href=\"https://arxiv.org/abs/1611.04910\"\u003eAsymptotic density of Motzkin numbers modulo small primes\u003c/a\u003e, arXiv:1611.04910 [math.NT], 2016."
			],
			"mathematica": [
				"(* m = MotzkinNumber *) m[0] = 1; m[n_] := m[n] = m[n - 1] + Sum[m[k]*m[n - 2 - k], {k, 0, n - 2}]; Select[Range[0, 120], Mod[m[#], 3] == 0 \u0026] (* _Jean-François Alcover_, Jul 10 2013 *)"
			],
			"xref": [
				"Cf. A001006, A005836."
			],
			"keyword": "nonn",
			"offset": "1,1",
			"author": "_Emeric Deutsch_ and _Bruce E. Sagan_, Dec 05 2003",
			"ext": [
				"Offset corrected by _Amiram Eldar_, Jan 30 2021"
			],
			"references": 2,
			"revision": 16,
			"time": "2021-01-30T04:12:10-05:00",
			"created": "2004-02-19T03:00:00-05:00"
		}
	]
}