{
	"greeting": "Greetings from The On-Line Encyclopedia of Integer Sequences! http://oeis.org/",
	"query": "id:A089406",
	"count": 1,
	"start": 0,
	"results": [
		{
			"number": 89406,
			"data": "1,1,1,3,6,16,37,95,238,624,1650,4478,12356,34756,99313,288145,847366,2523092,7597834,23117382,71007196",
			"name": "Number of cycles in range [A014137(n-1)..A014138(n-1)] of permutation A082345/A082346.",
			"comment": [
				"The number of orbits to which the corresponding automorphism(s) partitions the set of A000108(n) binary trees with n internal nodes."
			],
			"link": [
				"A. Karttunen, \u003ca href=\"/A089408/a089408.c.txt\"\u003eC-program for computing the initial terms of this sequence\u003c/a\u003e"
			],
			"keyword": "nonn",
			"offset": "0,4",
			"author": "_Antti Karttunen_, Nov 29 2003",
			"references": 0,
			"revision": 6,
			"time": "2012-03-31T14:02:17-04:00",
			"created": "2004-02-19T03:00:00-05:00"
		}
	]
}