{
	"greeting": "Greetings from The On-Line Encyclopedia of Integer Sequences! http://oeis.org/",
	"query": "id:A089470",
	"count": 1,
	"start": 0,
	"results": [
		{
			"number": 89470,
			"data": "1,1,4,29,303,4108,68165,1334403,30056112,764920823,21694511367,678288426792,23173084581845,858785085529061,34311202499100416,1470080434980994825,67236889676684657943,3269565144147886318168",
			"name": "Self-convolution of this sequence is equal to its hyperbinomial transform and results in A089471.",
			"comment": [
				"See A088956 for the definition of the hyperbinomial transform."
			],
			"formula": [
				"A089471(n) = sum(k=1, n, a(k)*a(n-k)); A089471(n) = sum(k=0, n, (n-k+1)^(n-k-1)*binomial(n, k)*a(k))."
			],
			"example": [
				"The self-convolution at n=4: 303*1+29*1+4*4+1*29+1*303 = 680 = A089471(4) and equals the hyperbinomial transform at n=4: 125*1+64*1+18*4+4*29+1*303 = 680 = A089471(4)."
			],
			"xref": [
				"Cf. A089471, A088956."
			],
			"keyword": "nonn",
			"offset": "0,3",
			"author": "_Paul D. Hanna_, Nov 07 2003",
			"references": 1,
			"revision": 5,
			"time": "2012-03-30T18:36:39-04:00",
			"created": "2004-02-19T03:00:00-05:00"
		}
	]
}