{
	"greeting": "Greetings from The On-Line Encyclopedia of Integer Sequences! http://oeis.org/",
	"query": "id:A089389",
	"count": 1,
	"start": 0,
	"results": [
		{
			"number": 89389,
			"data": "0,0,0,4,0,5,0,6,6,7,0,8,0,9,8,10,0,11,0,12,10,13,0,14,10,15,12,16,0,17,0,18,14,19,12,20,0,21,16,22,0,23,0,24,18,25,0,26,14,27,20,28,0,29,16,30,22,31,0,32,0,33,24,34,18,35,0,36,26,37,0,38,0,39,28,40,18,41,0,42",
			"name": "Sum of the smallest and the largest nontrivial divisor of n or 0 if n is 1 or a prime.",
			"comment": [
				"The product of the smallest and the largest nontrivial divisor is n. a(2m) = m+2, m \u003e1."
			],
			"link": [
				"Antti Karttunen, \u003ca href=\"/A089389/b089389.txt\"\u003eTable of n, a(n) for n = 1..65537\u003c/a\u003e"
			],
			"formula": [
				"a(1) = 0, for n \u003e 1, if n is prime, a(n) = 0, otherwise a(n) = A020639(n) + A032742(n). - _Antti Karttunen_, Feb 25 2018"
			],
			"mathematica": [
				"Array[If[Or[# == 1, PrimeQ@ #], 0, #[[2]] + #[[-2]] \u0026@ Divisors@ #] \u0026, 80] (* _Michael De Vlieger_, Feb 25 2018 *)"
			],
			"program": [
				"(PARI)",
				"A020639(n) = if(1==n,n,vecmin(factor(n)[, 1])); \\\\ From A020639.",
				"A089389(n) = {my(spf=A020639(n)); if((1==n)||isprime(n),0,spf+(n/spf)); }; \\\\ _Antti Karttunen_, Feb 25 2018",
				"(Scheme) (define (A089389 n) (if (or (= 1 n) (= 1 (A010051 n))) 0 (+ (A020639 n) (A032742 n)))) ;; _Antti Karttunen_, Feb 25 2018"
			],
			"xref": [
				"Cf. A020639, A032742."
			],
			"keyword": "easy,nonn",
			"offset": "1,4",
			"author": "_Amarnath Murthy_, Nov 10 2003",
			"ext": [
				"More terms from _David Wasserman_, Sep 15 2005"
			],
			"references": 1,
			"revision": 11,
			"time": "2018-02-25T23:01:01-05:00",
			"created": "2004-02-19T03:00:00-05:00"
		}
	]
}