{
	"greeting": "Greetings from The On-Line Encyclopedia of Integer Sequences! http://oeis.org/",
	"query": "id:A089337",
	"count": 1,
	"start": 0,
	"results": [
		{
			"number": 89337,
			"data": "1,2,4,8,88,11,22,44,484,121,242,2662,1331,3993,3,6,66,33,99,9,171,1881,171171,7,77,616,6776,88088,1001,2002,4004,8008,232232,232,464,42224,21112,63336,696,25752,111,222,444,888,21312,333,666,24642,12321,36963",
			"name": "a(1) = 1; for n \u003e 1, a(n) is the smallest number that is either a divisor or a multiple, in that priority (order), of a(n-1) such that it is a distinct palindrome not included earlier.",
			"comment": [
				"Conjecture: Every palindrome is a member."
			],
			"xref": [
				"Cf. A002113 (palindromes)."
			],
			"keyword": "base,nonn",
			"offset": "1,2",
			"author": "_Amarnath Murthy_, Nov 04 2003",
			"ext": [
				"More terms from _David Wasserman_, Sep 14 2005"
			],
			"references": 0,
			"revision": 9,
			"time": "2019-04-28T20:07:06-04:00",
			"created": "2004-02-19T03:00:00-05:00"
		}
	]
}