{
	"greeting": "Greetings from The On-Line Encyclopedia of Integer Sequences! http://oeis.org/",
	"query": "id:A089543",
	"count": 1,
	"start": 0,
	"results": [
		{
			"number": 89543,
			"data": "2,2,3,7,53,29,353,1549,8353,7,15889,1691419,347,67,1097,274177,43,18882774223,67,5197,1801088543,556114086547,44773,3062989,5641,92553847628747,18349361,607,51131,13217,42806180589950051",
			"name": "Lesser prime factor of semiprimes in A089542.",
			"xref": [
				"Cf. A085753, A089542, A089544."
			],
			"keyword": "nonn",
			"offset": "1,1",
			"author": "_Ray Chandler_, Nov 09 2003",
			"references": 3,
			"revision": 3,
			"time": "2012-03-30T17:29:13-04:00",
			"created": "2004-02-19T03:00:00-05:00"
		}
	]
}