{
	"greeting": "Greetings from The On-Line Encyclopedia of Integer Sequences! http://oeis.org/",
	"query": "id:A089758",
	"count": 1,
	"start": 0,
	"results": [
		{
			"number": 89758,
			"data": "31,631,9631,129631,27129631,3027129631,393027129631,42393027129631,6642393027129631,1626642393027129631,2311626642393027129631,2522311626642393027129631,2582522311626642393027129631",
			"name": "Primes arising in A089757.",
			"comment": [
				"Conjecture: Sequence is infinite."
			],
			"maple": [
				"ds:=proc(s) local j: RETURN(add(s[j]*10^(j-1),j=1..nops(s))): end: a:=[]: k1:=1: for n from 1 to 50 do for k from k1 do m:=ds([1,seq(op(convert(a[i],base,10)),i=1..nops(a)),op(convert(3*k,base,10))]): if isprime(m) then k1:=k+1: a:=[op(a),3*k]: break fi od od: seq(ds([1,seq(op(convert(a[i],base,10)),i=1..j)]),j=1..nops(a)); # C. Ronaldo"
			],
			"xref": [
				"Cf. A089757."
			],
			"keyword": "base,nonn",
			"offset": "1,1",
			"author": "_Amarnath Murthy_, Nov 22 2003",
			"ext": [
				"More terms from C. Ronaldo (aga_new_ac(AT)hotmail.com), Dec 26 2004"
			],
			"references": 1,
			"revision": 6,
			"time": "2017-08-14T23:30:07-04:00",
			"created": "2004-02-19T03:00:00-05:00"
		}
	]
}