{
	"greeting": "Greetings from The On-Line Encyclopedia of Integer Sequences! http://oeis.org/",
	"query": "id:A089153",
	"count": 1,
	"start": 0,
	"results": [
		{
			"number": 89153,
			"data": "1,6,59,812,14389,104038,534113,15837352,177575597,6681333014",
			"name": "Duplicate of A075136.",
			"keyword": "dead",
			"offset": "1,2",
			"references": 0,
			"revision": 2,
			"time": "2007-05-11T03:00:00-04:00",
			"created": "2004-06-12T03:00:00-04:00"
		}
	]
}