{
	"greeting": "Greetings from The On-Line Encyclopedia of Integer Sequences! http://oeis.org/",
	"query": "id:A089036",
	"count": 1,
	"start": 0,
	"results": [
		{
			"number": 89036,
			"data": "1,12,729,758160,2972290464,354396766517640,92079975413927255040,939180873931369976460153600,22528399544939174411840147874772641,11276516942788127325350557035641264267894784,25780902234356363794160964471948503247074139517747200",
			"name": "Number of n X n matrices over GF(3) with characteristic polynomial x^n - 1.",
			"link": [
				"I. Reiner, \u003ca href=\"https://projecteuclid.org/euclid.ijm/1255629830\"\u003eOn the number of matrices with given characteristic polynomial\u003c/a\u003e, Illinois J. Math. 5 1961 324-329."
			],
			"program": [
				"(PARI) \\\\ see Reiner reference.",
				"F(u,r)={prod(i=1, r, (1-u^(-i)))}",
				"a(n, q=3)={my(D=ffgen(q)); my(f=factor(D^0*(x^n-1))); q^(n^2-n)*F(q,n)/prod(i=1, #f~, F(q^poldegree(f[i,1]), f[i,2]))} \\\\ _Andrew Howroyd_, Jul 08 2018"
			],
			"xref": [
				"Cf. A088654, A089035, A089037."
			],
			"keyword": "nonn",
			"offset": "1,2",
			"author": "Yuval Dekel (dekelyuval(AT)hotmail.com) and _W. Edwin Clark_, Nov 29 2003",
			"ext": [
				"Offset corrected and a(9)-a(11) from _Andrew Howroyd_, Jul 08 2018"
			],
			"references": 3,
			"revision": 12,
			"time": "2018-07-09T02:45:58-04:00",
			"created": "2004-02-19T03:00:00-05:00"
		}
	]
}