{
	"greeting": "Greetings from The On-Line Encyclopedia of Integer Sequences! http://oeis.org/",
	"query": "id:A089296",
	"count": 1,
	"start": 0,
	"results": [
		{
			"number": 89296,
			"data": "29,37,19,19,19,19,19,17,19,19,19,23,29,29,29,31,37,37,37,41,41,43,43,43,47,47,53,53,53,53,59,61,61,61,67,67,67,71,71,71,73,73,79,79,79,79,83,89,89,89,89,97,97,97,101,101,101,101,103,103,103,103,107,107,109",
			"name": "Maximum prime required in the representation of the square of the n-th prime A000040(n) by a signed sum of squares of distinct other primes minimizing the largest prime used in the sum.",
			"link": [
				"T. Lassila, H. Pfoertner et al., \u003ca href=\"http://groups.google.com/group/sci.math/browse_thread/thread/78e4c851ebdb9280/d8a1aed3599aefe8\"\u003eSum of unique prime squares?\u003c/a\u003e Thread in NG sci.math, Oct 21 2003."
			],
			"example": [
				"a(1)=29: 2^2 = 4 = -29^2 + 19^2 + 17^2 + 11^2 + 7^2 + 5^2",
				"a(2)=37: 3^2 = 9 = -37^2 + 23^2 + 19^2 + 17^2 + 11^2 + 7^2 + 5^2 + 2^2",
				"a(3)=19: 5^2 = 25 = -19^2 + 17^2 + 13^2 - 11^2 + 7^2",
				"a(4)=19: 7^2 = 49 = -19^2 + 17^2 + 11^2"
			],
			"xref": [
				"Cf. A089294 representation of n by distinct squares of primes, A089297 representation of (n-th prime)^2 with minimal number of terms."
			],
			"keyword": "nonn",
			"offset": "1,1",
			"author": "_Hugo Pfoertner_, Nov 18 2003",
			"ext": [
				"More terms from _David Wasserman_, Sep 01 2005"
			],
			"references": 1,
			"revision": 7,
			"time": "2012-03-31T13:20:51-04:00",
			"created": "2004-02-19T03:00:00-05:00"
		}
	]
}