{
	"greeting": "Greetings from The On-Line Encyclopedia of Integer Sequences! http://oeis.org/",
	"query": "id:A089874",
	"count": 1,
	"start": 0,
	"results": [
		{
			"number": 89874,
			"data": "1,1,1,3,3,5,6,18,45,147,147,267,801,2538,3255,7665,29484,67644,164088,515592,1657785",
			"name": "Maximum cycle size in range [A014137(n-1)..A014138(n-1)] of permutation A071665/A071666.",
			"link": [
				"A. Karttunen, \u003ca href=\"/A089408/a089408.c.txt\"\u003eC-program for computing the initial terms of this sequence\u003c/a\u003e"
			],
			"keyword": "nonn",
			"offset": "0,4",
			"author": "_Antti Karttunen_, Nov 29 2003",
			"references": 0,
			"revision": 5,
			"time": "2012-03-31T14:02:17-04:00",
			"created": "2004-02-19T03:00:00-05:00"
		}
	]
}