{
	"greeting": "Greetings from The On-Line Encyclopedia of Integer Sequences! http://oeis.org/",
	"query": "id:A090254",
	"count": 1,
	"start": 0,
	"results": [
		{
			"number": 90254,
			"data": "1,4,8,81,3125,11390625,93206534790699,8617349368939718909662068736,74105919101282598267356326331746183707428417326748270592,5491683934004801146906916946452250098334779832050966992467328999644645901218476851483661300917240426576650390625",
			"name": "a(1) =1, a(n) the least n-th power greater than the product of all previous terms.",
			"example": [
				"a(5) = 5^5 \u003e 1*4*8*81= 2592 \u003e 4^5."
			],
			"xref": [
				"Cf. A090255."
			],
			"keyword": "nonn",
			"offset": "1,2",
			"author": "_Amarnath Murthy_, Nov 27 2003",
			"ext": [
				"More terms from _David Wasserman_, Oct 21 2005"
			],
			"references": 1,
			"revision": 4,
			"time": "2013-12-05T19:56:37-05:00",
			"created": "2004-02-19T03:00:00-05:00"
		}
	]
}