{
	"greeting": "Greetings from The On-Line Encyclopedia of Integer Sequences! http://oeis.org/",
	"query": "id:A090435",
	"count": 1,
	"start": 0,
	"results": [
		{
			"number": 90435,
			"data": "1,-1,6,1,-48,147,-5,1584,-24255,50176,1,-1980,121275,-1003520,1571724,-41,496980,-113458275,2950635520,-16174611684,20412000000,45182,-3322062810,2744728561050,-206756932157440,3081396966348393,-12443694076800000,13160600037440625,-1294492177294",
			"name": "Triangle of signed numbers used for the computation of the column sequences of triangle A090217.",
			"comment": [
				"A090217(n+m,m)= sum(a(m,p)*((p+4)*(p+3)*(p+2)*(p+1)*p)^n,p=1..m)/D(m) with D(m) := A090436(m); m=1,2,..., n\u003e=0."
			],
			"link": [
				"W. Lang, \u003ca href=\"/A090435/a090435.txt\"\u003eFirst 8 rows\u003c/a\u003e."
			],
			"formula": [
				"a(n, m)= D(n)*((-1)^(n-m))*(fallfac(m+4, 5)^(n-1))/(product(fallfac(m+4, 5)-fallfac(r+4, 5), r=1..m-1)*product(fallfac(r+4, 5)-fallfac(m+4, 5), r=m+1..n)), with D(n) := A090436(n) and fallfac(n, m) := A008279(n, m) (falling factorials), 1\u003c=m\u003c=n else 0. (Replace in the denominator the first product by 1 if m=1 and the second one by 1 if m=n.)"
			],
			"example": [
				"[1]; [ -1,6]; [1,-48,147]; [ -5,1584,-24255,50176]; ...",
				"A090217(2+3,3) = 9086400 = (1*(5*4*3*2*1)^2 - 48*(6*5*4*3*2)^2 + 147*(7*6*5*4*3)^2)/100.",
				"a(3,2)= -48 = 100*(-1)*((6*5*4*3*2)^2)/((6*5*4*3*2-5*4*3*2*1)*(7*6*5*4*3-6*5*4*3*2))."
			],
			"keyword": "sign,easy,tabl",
			"offset": "1,3",
			"author": "_Wolfdieter Lang_, Dec 01 2003",
			"references": 3,
			"revision": 9,
			"time": "2019-08-29T17:24:54-04:00",
			"created": "2004-02-19T03:00:00-05:00"
		}
	]
}