{
	"greeting": "Greetings from The On-Line Encyclopedia of Integer Sequences! http://oeis.org/",
	"query": "id:A090267",
	"count": 1,
	"start": 0,
	"results": [
		{
			"number": 90267,
			"data": "727,131,151,373,131113,171317,1171,9199,1231,1291,3313,3373,3413,3433,1471,1531,3593,3613,3673,7717,3733,3793,1831,578957,179717,31013,31033,11071,91099,11131,3312733,11311,1913719,31393,11491,31513,31573,91639",
			"name": "Primes arising in A090266.",
			"xref": [
				"Cf. A090266."
			],
			"keyword": "base,nonn",
			"offset": "1,1",
			"author": "_Amarnath Murthy_, Nov 28 2003",
			"ext": [
				"More terms from _David Wasserman_, Oct 24 2005"
			],
			"references": 1,
			"revision": 4,
			"time": "2013-12-05T19:56:37-05:00",
			"created": "2004-02-19T03:00:00-05:00"
		}
	]
}