{
	"greeting": "Greetings from The On-Line Encyclopedia of Integer Sequences! http://oeis.org/",
	"query": "id:A090684",
	"count": 1,
	"start": 0,
	"results": [
		{
			"number": 90684,
			"data": "7,31,71,127,199,647,967,1151,1567,2311,2591,2887,3527,4231,4999,5407,6271,7687,8191,11551,12799,16927,19207,20807,23327,25087,27847,31751,34847,35911,39199,47431,49927,51199,53791,59167,63367,69191,70687",
			"name": "Primes of the form 8*n^2 - 1.",
			"comment": [
				"In the odd number variant of the Ulam spiral, unimpeded by even numbers, prime numbers can line up in horizontal and vertical lines. But there are still noticeable diagonal lines of primes, and these primes fall on one such diagonal."
			],
			"link": [
				"Vincenzo Librandi, \u003ca href=\"/A090684/b090684.txt\"\u003eTable of n, a(n) for n = 1..10000\u003c/a\u003e"
			],
			"mathematica": [
				"Select[Table[8n^2 - 1, {n, 9000}], PrimeQ] (* _Alonso del Arte_, Mar 27 2011 *)"
			],
			"program": [
				"(PARI) mx2pmp(n,m) = { for(x=1,n, y = 8*x^2-1; if(isprime(y),print1(y\",\")) ) }",
				"(MAGMA) [8*n^2-1: n in [1..95] | IsPrime(8*n^2-1)];  // _Bruno Berselli_, Mar 28 2011"
			],
			"keyword": "easy,nonn",
			"offset": "1,1",
			"author": "_Cino Hilliard_, Dec 18 2003",
			"references": 11,
			"revision": 17,
			"time": "2021-05-04T01:06:44-04:00",
			"created": "2004-02-19T03:00:00-05:00"
		}
	]
}