{
	"greeting": "Greetings from The On-Line Encyclopedia of Integer Sequences! http://oeis.org/",
	"query": "id:A090882",
	"count": 1,
	"start": 0,
	"results": [
		{
			"number": 90882,
			"data": "0,1,5,2,25,6,125,3,10,26,625,7,3125,126,30,4,15625,11,78125,27,130,626,390625,8,50,3126,15,127,1953125,31,9765625,5,630,15626,150,12,48828125,78126,3130,28,244140625,131,1220703125,627,35,390626,6103515625,9,250",
			"name": "Suppose n=(p1^e1)(p2^e2)... where p1,p2,... are the prime numbers and e1,e2,... are nonnegative integers. Then a(n) = e1 + (e2)*5 + (e3)*25 + (e4)*125 + ... + (ek)*(5^(k-1)) + ...",
			"comment": [
				"Replace \"5\" with \"x\" and extend the definition of a to positive rationals and a becomes an isomorphism between positive rationals under multiplication and polynomials over Z under addition. This remark generalizes A001222, A048675 and A054841: evaluate said polynomial at x=1, x=2 and x=10, respectively."
			],
			"reference": [
				"Joseph J. Rotman, The Theory of Groups: An Introduction, 2nd ed. Boston: Allyn and Bacon, Inc. 1973. Page 9, problem 1.26."
			],
			"link": [
				"Sam Alexander, \u003ca href=\"http://tinyurl.com/yzjw\"\u003ePost to sci.math\u003c/a\u003e."
			],
			"xref": [
				"Cf. A001222, A048675, A054841, A090880, A090881, A090883, A090884."
			],
			"keyword": "easy,nonn",
			"offset": "1,3",
			"author": "_Sam Alexander_, Dec 12 2003",
			"ext": [
				"More terms from _Ray Chandler_, Dec 20 2003"
			],
			"references": 6,
			"revision": 6,
			"time": "2013-10-09T14:20:16-04:00",
			"created": "2004-02-19T03:00:00-05:00"
		}
	]
}