{
	"greeting": "Greetings from The On-Line Encyclopedia of Integer Sequences! http://oeis.org/",
	"query": "id:A090398",
	"count": 1,
	"start": 0,
	"results": [
		{
			"number": 90398,
			"data": "2,9,20,36,57,83,113,147,187,231,279,332,390,453,520,591,668,748,834,924,1019,1118,1222,1331,1444,1562,1685,1812,1943,2080,2221,2366,2517,2672,2831,2995,3164,3337,3515,3698,3885,4077,4273,4474,4680,4891,5106",
			"name": "a(n) = Floor[(2*Pi/E)*n^2]",
			"comment": [
				"Shannon entropy white noise power as n squared."
			],
			"reference": [
				"C. E. Shannon, The Mathematical Theory of Communication, page 93"
			],
			"mathematica": [
				"digits=200 f[n_]=Floor[(2*Pi/E)*n^2] a=Table[f[n], {n, 1, digits}]"
			],
			"keyword": "nonn",
			"offset": "1,1",
			"author": "_Roger L. Bagula_, Jan 31 2004",
			"references": 0,
			"revision": 4,
			"time": "2012-03-30T17:34:14-04:00",
			"created": "2004-02-19T03:00:00-05:00"
		}
	]
}