{
	"greeting": "Greetings from The On-Line Encyclopedia of Integer Sequences! http://oeis.org/",
	"query": "id:A090839",
	"count": 1,
	"start": 0,
	"results": [
		{
			"number": 90839,
			"data": "290,550,850,1060,2650,3035,3245,5015,5105,8935,10615,11890,12925,13485,13905,14850,15215,15985,17560,17600,18105,19925,20135,21780,23510,24040,25490,28830,31145,34365,36355,38140,38370,42025,43845,46820,47575,48745,49130,50495,53350",
			"name": "Numbers n such that 6*n+1, 6*n+7, 6*n+13, 6*n+19 are consecutive primes.",
			"comment": [
				"All terms are == 0 (mod 5). - _Robert G. Wilson v_, Dec 12 2017"
			],
			"link": [
				"Robert Israel, \u003ca href=\"/A090839/b090839.txt\"\u003eTable of n, a(n) for n = 1..10000\u003c/a\u003e"
			],
			"example": [
				"6*290 + 1 = 1741, 6*290 + 7 = 1747, 6*290 + 13 = 1753, 6*290 + 19 = 1759 and 1741, 1747, 1753, 1759 are consecutive primes, so 290 is a term."
			],
			"maple": [
				"P:=proc(n) if isprime(6*n+1) and isprime(6*n+7) and isprime(6*n+13) and isprime(6*n+19) and not isprime(6*n+5) and not isprime(6*n+11) and not isprime(6*n+17) then n; fi; end: seq(P(i),i=1..10^5); # _Paolo P. Lava_, Dec 07 2017"
			],
			"mathematica": [
				"Block[{nn = 50500, s}, s = Select[Prime@ Range@ PrimePi[6 (nn + 3) - 1], Divisible[(# + 1), 6] \u0026]; Select[Range@ nn, And[AllTrue[#, PrimeQ], Count[s, q_ /; First[#] \u003c q \u003c Last@ #] == 0] \u0026@ Map[6 # + 1 \u0026, # + Range[0, 3]] \u0026]] (* _Michael De Vlieger_, Dec 06 2017 *)",
				"fQ[n_] := Block[{p = {6n +1, 6n +7, 6n +13, 6n +19}}, Union@ PrimeQ@ p == {True} \u0026\u0026 NextPrime[6n +1, 3] == 6n +19]; Select[5 Range@ 10100, fQ] (* _Robert G. Wilson v_, Dec 12 2017 *)"
			],
			"program": [
				"(PARI) isok(n) = my(p,q,r); isprime(p=6*n+1) \u0026\u0026 ((q=6*n+7) == nextprime(p+1)) \u0026\u0026 ((r=6*n+13) == nextprime(q+1)) \u0026\u0026 (6*n+19 == nextprime(r+1)); \\\\ _Michel Marcus_, Sep 20 2019"
			],
			"xref": [
				"Cf. A033451, A090832, A090833, A090834, A090835, A090836, A090837, A090838."
			],
			"keyword": "easy,nonn",
			"offset": "1,1",
			"author": "_Pierre CAMI_, Dec 09 2003",
			"ext": [
				"Missing term 5105 and more terms from _Michel Marcus_, Sep 20 2019"
			],
			"references": 11,
			"revision": 20,
			"time": "2021-03-30T14:02:22-04:00",
			"created": "2004-02-19T03:00:00-05:00"
		}
	]
}