{
	"greeting": "Greetings from The On-Line Encyclopedia of Integer Sequences! http://oeis.org/",
	"query": "id:A090043",
	"count": 1,
	"start": 0,
	"results": [
		{
			"number": 90043,
			"data": "27,29,39,83,139,167,263,370,510,615,1091,1399,1819,1931,2039,2491,2702,3419,3723,4232,4883,6299,7799",
			"name": "Numbers n such that there exists a block-transitive point-imprimitive 3-design with parameters (k(k-1)/2+1, k, lambda) for some lambda.",
			"reference": [
				"N. D. Tuan, A note on block-transitive point-imprimitive designs, Europ. J. Combin., 24 (2003), 113-119."
			],
			"keyword": "nonn",
			"offset": "1,1",
			"author": "_N. J. A. Sloane_, Jan 19 2004",
			"references": 0,
			"revision": 3,
			"time": "2012-03-30T16:49:51-04:00",
			"created": "2004-02-19T03:00:00-05:00"
		}
	]
}