{
	"greeting": "Greetings from The On-Line Encyclopedia of Integer Sequences! http://oeis.org/",
	"query": "id:A090946",
	"count": 1,
	"start": 0,
	"results": [
		{
			"number": 90946,
			"data": "0,2,5,6,8,9,10,12,13,14,15,16,17,19,20,21,22,23,24,25,26,27,28,30,31,32,33,34,35,36,37,38,39,40,41,42,43,44,45,46,48,49,50,51,52,53,54,55,56,57,58,59,60,61,62,63,64,65,66,67,68,69,70,71,72,73,74,75,77,78,79",
			"name": "Non-Lucas numbers: complement of A000204.",
			"link": [
				"G. C. Greubel, \u003ca href=\"/A090946/b090946.txt\"\u003eTable of n, a(n) for n = 1..10000\u003c/a\u003e"
			],
			"formula": [
				"a(n) = A057854(n-2), n\u003e2. - _R. J. Mathar_, Jan 29 2019"
			],
			"maple": [
				"L[1]:=1: L[2]:=3: for n from 3 to 10 do L[n]:=L[n-1]+L[n-2] od: A:={seq(L[n],n=1..10)}: B:={seq(n,n=0..L[10])}: C:=B minus A; # _Emeric Deutsch_, Dec 14 2004"
			],
			"mathematica": [
				"Complement[Range[0,100],LucasL[Range[10]]] (* _Harvey P. Dale_, Mar 21 2012 *)"
			],
			"xref": [
				"Cf. A000032, A000204, A022801."
			],
			"keyword": "nonn,easy",
			"offset": "1,2",
			"author": "_N. J. A. Sloane_, Feb 28 2004",
			"ext": [
				"More terms from _Emeric Deutsch_, Dec 14 2004",
				"Offset corrected by _Michel Marcus_, Aug 15 2017"
			],
			"references": 13,
			"revision": 26,
			"time": "2019-05-03T07:50:15-04:00",
			"created": "2004-06-12T03:00:00-04:00"
		}
	]
}