{
	"greeting": "Greetings from The On-Line Encyclopedia of Integer Sequences! http://oeis.org/",
	"query": "id:A091658",
	"count": 1,
	"start": 0,
	"results": [
		{
			"number": 91658,
			"data": "4,9,30,40,44,130,276,647,791,878,1008,3041,3200,3384,5606,9721,17899,22640,34070,34152,37648,91193,134943,152617,158172,190950,258992,315679,525765,558041,734305,1500708,1669873,1873804,1936902,4278672,5227319,7385934,7876549,10765774,11396841,11466234,12994613,19147251,31403937,43166470",
			"name": "When A032523 is a maximum; or, A091657 less duplicates.",
			"comment": [
				"Each entry is enumerated: 1,2,1,2,1,1,2,6,8,4,1,1,1,1,1,1,1,1,1,8,6,... in A091657.",
				"The 4278672nd term of the continued fraction expansion of Pi is 837."
			],
			"link": [
				"H. Havermann, \u003ca href=\"http://chesswanks.com/pxp/cfpifoi.html\"\u003e3131 terms of a trivial variation (first term of pi excluded) of A032523\u003c/a\u003e",
				"Eric Weisstein's World of Mathematics, \u003ca href=\"http://mathworld.wolfram.com/PiContinuedFraction.html\"\u003ePi Continued Fraction.\u003c/a\u003e"
			],
			"example": [
				"One has to go to the 30th term of the continued fraction of Pi (4) to have seen the integers 1, 2, 3 \u0026 4."
			],
			"mathematica": [
				"cfpi = ContinuedFraction[Pi, 10000000]; a = Table[0, {1562}]; Do[b = cfpi[[n]]; If[b \u003c 1563 \u0026\u0026 a[[b]] == 0, a[[b]] = n], {n, 1, 10000000}]; c"
			],
			"xref": [
				"Cf. A001203, A032523, A091657."
			],
			"keyword": "nonn",
			"offset": "1,1",
			"author": "_Robert G. Wilson v_, Jan 26 2004",
			"references": 0,
			"revision": 12,
			"time": "2015-02-01T22:53:41-05:00",
			"created": "2004-02-19T03:00:00-05:00"
		}
	]
}