{
	"greeting": "Greetings from The On-Line Encyclopedia of Integer Sequences! http://oeis.org/",
	"query": "id:A091031",
	"count": 1,
	"start": 0,
	"results": [
		{
			"number": 91031,
			"data": "1,16,114,644,3270,15642,72072,323752,1428102,6214520,26761196,114287736,484816540,2045277990,8588492100,35923392720,149753379270,622458753840,2580709189740,10675646755800,44074384410420",
			"name": "Third to last entries in rows of array A090452 (scaled (3,2)-Stirling2).",
			"formula": [
				"a(n)= A090452(n, 2*(n-1)), n\u003e=2.",
				"a(n)= (9*n^2-19*n+8)*(n-1)*C(n)/(4*(2*n-1)), n\u003e=2; with the Catalan numbers C(n)=A000108(n)."
			],
			"xref": [
				"Cf. A000108 (last row entries), 3*A002054(n-1) (second to last row entries)."
			],
			"keyword": "nonn,easy",
			"offset": "2,2",
			"author": "_Wolfdieter Lang_, Jan 09 2004",
			"references": 1,
			"revision": 3,
			"time": "2012-10-12T14:40:19-04:00",
			"created": "2004-02-19T03:00:00-05:00"
		}
	]
}