{
	"greeting": "Greetings from The On-Line Encyclopedia of Integer Sequences! http://oeis.org/",
	"query": "id:A091118",
	"count": 1,
	"start": 0,
	"results": [
		{
			"number": 91118,
			"data": "0,1,16,22,25,37,46",
			"name": "Numbers n such that there is no regular hypermap on the nonorientable surface of characteristic -n.",
			"link": [
				"S. Wilson and A. B. d'Azevedo, \u003ca href=\"https://doi.org/10.1016/j.disc.2003.03.001\"\u003eSurfaces having no regular hypermaps\u003c/a\u003e, Discrete Math., 277 (2004), 241-274."
			],
			"keyword": "nonn,more",
			"offset": "1,3",
			"author": "_N. J. A. Sloane_, Feb 22 2004",
			"references": 0,
			"revision": 7,
			"time": "2019-05-31T12:08:25-04:00",
			"created": "2004-06-12T03:00:00-04:00"
		}
	]
}