{
	"greeting": "Greetings from The On-Line Encyclopedia of Integer Sequences! http://oeis.org/",
	"query": "id:A091396",
	"count": 1,
	"start": 0,
	"results": [
		{
			"number": 91396,
			"data": "1,1,0,1,0,0,2,1,0,0,0,0,0,2,0,1,2,0,0,0,0,0,2,0,0,0,0,2,0,0,2,1,0,2,0,0,0,0,0,0,2,0,0,0,0,2,2,0,2,0,0,0,0,0,0,2,0,0,0,0,0,2,0,1,0,0,0,2,0,0,2,0,2,0,0,0,0,0,2,0,0,2,0,0,0,0,0,0,2,0,0,2,0,2,0,0,2,2,0,0,0,0,2,0,0",
			"name": "a(n) = Product_{ p | n } (1 + Legendre(2,p) ).",
			"link": [
				"Andrew Howroyd, \u003ca href=\"/A091396/b091396.txt\"\u003eTable of n, a(n) for n = 1..1000\u003c/a\u003e"
			],
			"formula": [
				"Multiplicative with a(2^e)=1, a(p^e)=0 if p mod 8=3 or p mod 8=5 and a(p^e)=2 if p mod 8=1 or p mod 8=7. - _Vladeta Jovovic_, Mar 02 2004"
			],
			"maple": [
				"with(numtheory); L := proc(n,N) local i,t1,t2; t1 := ifactors(n)[2]; t2 := mul((1+legendre(N,t1[i][1])),i=1..nops(t1)); end; [seq(L(n,2),n=1..120)];"
			],
			"mathematica": [
				"a[n_] := If[n == 1, 1, Product[1 + KroneckerSymbol[2, p], {p, FactorInteger[n][[All, 1]]}]];",
				"a /@ Range[1, 100] (* _Jean-François Alcover_, Sep 20 2019 *)"
			],
			"program": [
				"(PARI) a(n)={my(f=factor(n)[,1]); prod(i=1, #f, 1 + kronecker(2, f[i]))} \\\\ _Andrew Howroyd_, Jul 23 2018"
			],
			"xref": [
				"Cf. A091337, A091379, A091397, A091398, A091399."
			],
			"keyword": "nonn,mult",
			"offset": "1,7",
			"author": "_N. J. A. Sloane_, Mar 02 2004",
			"references": 4,
			"revision": 13,
			"time": "2019-09-20T07:30:30-04:00",
			"created": "2004-06-12T03:00:00-04:00"
		}
	]
}