{
	"greeting": "Greetings from The On-Line Encyclopedia of Integer Sequences! http://oeis.org/",
	"query": "id:A091502",
	"count": 1,
	"start": 0,
	"results": [
		{
			"number": 91502,
			"data": "3,51,6225",
			"name": "Number of n X n matrices with entries {-1,0,1} that are diagonalizable over the real numbers.",
			"link": [
				"Eric Weisstein's World of Mathematics, \u003ca href=\"http://mathworld.wolfram.com/DiagonalizableMatrix.html\"\u003eDiagonalizable Matrix\u003c/a\u003e"
			],
			"xref": [
				"Cf. A091503, A091504."
			],
			"keyword": "nonn,more,bref",
			"offset": "1,1",
			"author": "_Eric W. Weisstein_, Jan 16 2004",
			"references": 2,
			"revision": 6,
			"time": "2015-08-13T21:41:10-04:00",
			"created": "2004-02-19T03:00:00-05:00"
		}
	]
}