{
	"greeting": "Greetings from The On-Line Encyclopedia of Integer Sequences! http://oeis.org/",
	"query": "id:A091699",
	"count": 1,
	"start": 0,
	"results": [
		{
			"number": 91699,
			"data": "1,0,-1,3,-9,30,-109,420,-1685,6960,-29391,126291,-550359,2426502,-10803801,48507843,-219377949,998436792,-4569488371,21016589073,-97090411019,450314942682,-2096122733211,9788916220518",
			"name": "Row sums of triangle A091698.",
			"comment": [
				"Hankel transform is (-1)^n. - _Paul Barry_, Jun 17 2010"
			],
			"link": [
				"Vincenzo Librandi, \u003ca href=\"/A091699/b091699.txt\"\u003eTable of n, a(n) for n = 0..200\u003c/a\u003e"
			],
			"formula": [
				"G.f.: A(x) = 2/(3+3*x - sqrt(1+6*x+5*x^2)). - _Paul D. Hanna_, Feb 23 2004",
				"Conjecture: 2*n*a(n) + (13*n-16)*a(n-1) + 4*(4*n-7)*a(n-2) + 5*(n-2)*a(n-3) = 0. - _R. J. Mathar_, Nov 24 2012",
				"a(n) ~ (-1)^(n+1) * 5^(n+3/2) / (72 * sqrt(Pi) * n^(3/2)). - _Vaclav Kotesovec_, Feb 12 2014"
			],
			"mathematica": [
				"CoefficientList[Series[2/(3+3*x-Sqrt[1+6*x+5*x^2]), {x, 0, 20}], x] (* _Vaclav Kotesovec_, Feb 12 2014 *)"
			],
			"program": [
				"(PARI) a(n)=polcoeff(2/(3+3*x-sqrt(1+6*x+5*x^2+x*O(x^n))),n,x) \\\\ _Paul D. Hanna_"
			],
			"keyword": "sign",
			"offset": "0,4",
			"author": "_Christian G. Bower_, Jan 29 2004",
			"references": 4,
			"revision": 20,
			"time": "2018-02-28T21:37:13-05:00",
			"created": "2004-02-19T03:00:00-05:00"
		}
	]
}