{
	"greeting": "Greetings from The On-Line Encyclopedia of Integer Sequences! http://oeis.org/",
	"query": "id:A091443",
	"count": 1,
	"start": 0,
	"results": [
		{
			"number": 91443,
			"data": "1379454720,14182439040,212517062615531520,27099073228001299660800,680489641226538823680000,15229814702070563916152832000,34111227434420791224041472000,59023729003862626557345792000",
			"name": "Multiperfect numbers n which are divisible by sopfr(n) (multiperfect number: sigma(n) = k*n with k integer, sopfr: Sum of prime factors with repetition).",
			"comment": [
				"The sequence contains multiperfect numbers with multiplicity k from 3..8. They are extracted from a list with about 5000 multiperfect numbers with multiplicity from 2..11. Because of the size of these numbers, no numbers with multiplicity k \u003e 8 were found, even though there were about 3000 of them in the list. 95% of the multiperfect numbers with multiplicity from 3..8 are known.",
				"Conjecture: the sequence is finite.",
				"There are 5255 multiperfect numbers known with multiplicity 3 to 11. No more findings for A091443 so we still have 33 multiperfect numbers divisible by their sopfr (without the trivial case 1). With multiplicity 3..8 quite surely all are found (only very few - if any - missing). It is estimated that there are about 2200 with multiplicity 9 and 2091 of them are already found. With multiplicity 10 of estimated 4500 1161 are known. So far no multiperfect number with multiplicity 9 or 10 is divisible by its sopfr (with repetition). Using sopfr without repetition (A114887), there is one number with multiplicity 9 (or more). - _Sven Simon_, Feb 12 2012"
			],
			"link": [
				"Sven Simon, \u003ca href=\"/A091443/b091443.txt\"\u003eTable of n, a(n) for n = 1..33\u003c/a\u003e [Conjectured to be complete]",
				"Achim Flammenkamp, \u003ca href=\"http://wwwhomes.uni-bielefeld.de/achim/mpn.html\"\u003eThe Multiply Perfect Numbers Page\u003c/a\u003e (See here for the latest information about the search)",
				"Achim Flammenkamp, \u003ca href=\"/A091443/a091443.pdf\"\u003ehe Multiply Perfect Numbers Page\u003c/a\u003e [Local copy in pdf format of the page as of Jun 04 2020, made with permission of the author]",
				"Achim Flammenkamp, \u003ca href=\"/A091443/a091443.txt\"\u003eDatafile_2013_12_31\u003c/a\u003e (with 5311 multiperfect numbers). [_Sven Simon_, Feb 15 2014]",
				"Eric Weisstein's World of Mathematics, \u003ca href=\"http://mathworld.wolfram.com/MultiperfectNumber.html\"\u003eMultiperfect numbers\u003c/a\u003e"
			],
			"example": [
				"a(1): 1379454720 = 2^8*3*5*7*19*37*73, sopfr(n)= 2^5*5."
			],
			"xref": [
				"Cf. A000203, A001414, A005820, A027687, A046060, A046061.",
				"Intersection of A007691 and A036844. - _Michel Marcus_, Oct 08 2017"
			],
			"keyword": "nonn",
			"offset": "1,1",
			"author": "_Sven Simon_, Jan 10 2004",
			"references": 4,
			"revision": 44,
			"time": "2020-06-04T21:19:13-04:00",
			"created": "2004-02-19T03:00:00-05:00"
		}
	]
}