{
	"greeting": "Greetings from The On-Line Encyclopedia of Integer Sequences! http://oeis.org/",
	"query": "id:A091945",
	"count": 1,
	"start": 0,
	"results": [
		{
			"number": 91945,
			"data": "1,3,5,9,11,19,21,33,35,37,39,43,45,69,73,75,77,83,85,93,139,141,147,149,151,153,155,165,171,173,189,267,275,277,279,283,293,297,299,301,309,315,325,331,333,339,341,365,537,549,553,555,563,565,567,579,585",
			"name": "Numbers n such that there is no k, 0\u003ck\u003cn, satisfying A002487(k)=A002487(n).",
			"program": [
				"(PARI) isok(n) = (A091926(n) == n); \\\\ _Michel Marcus_, Dec 06 2013"
			],
			"keyword": "nonn",
			"offset": "1,2",
			"author": "_Benoit Cloitre_, Mar 11 2004",
			"references": 2,
			"revision": 9,
			"time": "2013-12-08T06:30:52-05:00",
			"created": "2004-06-12T03:00:00-04:00"
		}
	]
}