{
	"greeting": "Greetings from The On-Line Encyclopedia of Integer Sequences! http://oeis.org/",
	"query": "id:A091350",
	"count": 1,
	"start": 0,
	"results": [
		{
			"number": 91350,
			"data": "8,2,6,90,30,390,690,420,210,4290,3990,8778,2310,3570,4830,11550,38850,84630,66990,79170,39270,30030,51870,46410,43890,111930,163020,221340,419430,131670,1902810,1385670,1009470,1452990,746130,903210,570570,1067430,1531530",
			"name": "First occurrence (*2) of n in A088627 - or - least number that yields n different primes if you factorize it in all possible ways in two factors and add these factors.",
			"comment": [
				"a(0) .. a(29) are in the list; additional know values are a(34) = 746130, a(35) = 903210, a(36) = 570570, a(40) = 510510, a(41) = 690690 and a(46) = 870870. If n in { 30, 31, 32, 33, 37, 38, 39, 42, 43, 44, 45}, or if n \u003e 46, then a(n) \u003e 10^6.",
				"a(258) \u003e 10^11. - _Donovan Johnson_, Oct 15 2013"
			],
			"link": [
				"T. D. Noe and Donovan Johnson, \u003ca href=\"/A091350/b091350.txt\"\u003eTable of n, a(n) for n = 0..257\u003c/a\u003e (terms up to a(90) from T. D. Noe)",
				"M. Engelhardt, \u003ca href=\"http://nqueens.de/otherTopics/SumOfFactorPrimes.en.html\"\u003eNumber of Primes arising as Sum of a Factorization\u003c/a\u003e."
			],
			"example": [
				"Sequence A088627 starts with 1,1,2,0, meaning that 2 and 4 yield 1 prime, 6 yields 2 and 8 yields 0 primes; therefore a(0) = 8, a(1) = 2 and a(2) = 6."
			],
			"mathematica": [
				"DivPrimes[n_Integer] := Length[Select[Union[Divisors[n]+Reverse[Divisors[n]]], PrimeQ]]; nn=40; t=Table[0,{nn}]; cnt=0; k=0; While[cnt\u003cnn, k=k+2; m=DivPrimes[k]; If[0\u003cm\u003c=nn \u0026\u0026 t[[m]]==0, t[[m]]=k; cnt++ ]]; Prepend[t,8] [From _T. D. Noe_, Aug 02 2010]"
			],
			"program": [
				"Java programs available from _Matthias Engelhardt_."
			],
			"xref": [
				"Cf. A088627."
			],
			"keyword": "nonn",
			"offset": "0,1",
			"author": "_Matthias Engelhardt_, Jan 05 2004",
			"ext": [
				"Extended by _T. D. Noe_, Aug 02 2010"
			],
			"references": 2,
			"revision": 19,
			"time": "2013-10-16T04:11:45-04:00",
			"created": "2004-02-19T03:00:00-05:00"
		}
	]
}