{
	"greeting": "Greetings from The On-Line Encyclopedia of Integer Sequences! http://oeis.org/",
	"query": "id:A091479",
	"count": 1,
	"start": 0,
	"results": [
		{
			"number": 91479,
			"data": "1,1,2,16,1957,9864101,3554627472076,138879579704209680022,828772446866981044847857913441,1011182700521015817607065606491025592595137,325166909258549255903203528672831330994640286650913570126",
			"name": "Number of graphs with n nodes. Nodes and edges labeled each from their own label set.",
			"link": [
				"Andrew Howroyd, \u003ca href=\"/A091479/b091479.txt\"\u003eTable of n, a(n) for n = 0..30\u003c/a\u003e"
			],
			"formula": [
				"a(n) = A000522(A000217(n-1)). - _Gerald McGarvey_, Nov 17 2007"
			],
			"program": [
				"(PARI) a(n)={binomial(n,2)!*sum(k=0, binomial(n,2), 1/k!)} \\\\ _Andrew Howroyd_, Feb 12 2020"
			],
			"xref": [
				"Row sums of A091478.",
				"Cf. A006125.",
				"Cf. A000217, A000522."
			],
			"keyword": "nonn",
			"offset": "0,3",
			"author": "_Christian G. Bower_, Jan 13 2004",
			"ext": [
				"a(0)=1 prepended and terms a(10) and beyond from _Andrew Howroyd_, Feb 12 2020"
			],
			"references": 2,
			"revision": 10,
			"time": "2020-02-13T02:54:29-05:00",
			"created": "2004-02-19T03:00:00-05:00"
		}
	]
}