{
	"greeting": "Greetings from The On-Line Encyclopedia of Integer Sequences! http://oeis.org/",
	"query": "id:A091295",
	"count": 1,
	"start": 0,
	"results": [
		{
			"number": 91295,
			"data": "1,2,7,10,25,147,218,446,551,5960,14252,63337,118472,183457,951700,3458334,6284060,2581691,80743228,259753425",
			"name": "(Number of primes == 3 mod 4 less than 10^n) - (number of primes == 1 mod 4 less than 10^n).",
			"reference": [
				"Hans Riesel, Prime Numbers and Computer Methods for Factorization, 2nd ed., Birkhauser, The distribution of primes between the two series 4n+1 and 4n+3, pages 73-77, with graphs."
			],
			"link": [
				"Marc Deléglise, Pierre Dusart, and Xavier-Francois Roblot, \u003ca href=\"http://dx.doi.org/10.1090/S0025-5718-04-01649-7\"\u003eCounting primes in residue classes\u003c/a\u003e, Math. Comp. 73 (2004), no. 247, 1565-1575.",
				"Carlos Rivera, \u003ca href=\"http://www.primepuzzles.net/puzzles/puzz_256.htm\"\u003ePuzzle 256, Jack Brennen old records\u003c/a\u003e,  The Prime Puzzles \u0026 Problems Connection."
			],
			"formula": [
				"a(n) = A091099(n) - A091098(n) = A093153(n) + 1. [_Max Alekseyev_, May 17 2009]"
			],
			"example": [
				"a(1) = 1 because below 10^1 3 and 7 are 3 mod 4 and 5 is 1 mod 4 and the difference is 2-1=1."
			],
			"xref": [
				"Cf. A091098, A091099. A002144, A002145, A091318, A091267."
			],
			"keyword": "nonn,more",
			"offset": "1,2",
			"author": "_Enoch Haga_, Feb 23 2004",
			"ext": [
				"a(17)-a(20) from _Marc Deleglise_, Jun 28 2007"
			],
			"references": 5,
			"revision": 14,
			"time": "2015-03-04T03:53:15-05:00",
			"created": "2004-06-12T03:00:00-04:00"
		}
	]
}