{
	"greeting": "Greetings from The On-Line Encyclopedia of Integer Sequences! http://oeis.org/",
	"query": "id:A091632",
	"count": 1,
	"start": 0,
	"results": [
		{
			"number": 91632,
			"data": "0,8,10,42,72,176,354,764,1516,3022,6066,12268,24570,49148,98246,196530,393158,786406,1572834,3145674,6291440,12582874,25165764,50331634,100663192,201326576,402653180,805306350,1610612690,3221225038",
			"name": "Excess of n + product of digits over next prime associated with A091628.",
			"comment": [
				"Sequence arising in _Farideh Firoozbakht_'s solution to Prime Puzzle 251 - 23 is the only pointer prime (A089823) not containing the digit \"1\".",
				"The monotonically increasing value of successive excess (and product of digits (A091629)) strongly suggests that in successive n the digit 1 must be present."
			],
			"link": [
				"Carlos Rivera's Prime Puzzles and Problems Connection, \u003ca href=\"http://www.primepuzzles.net/puzzles/puzz_251.htm\"\u003ePuzzle 251, Pointer primes\u003c/a\u003e"
			],
			"formula": [
				"a(n) = A091630(n) - A091631(n)."
			],
			"example": [
				"a(2) = 235 - 227 = 8."
			],
			"xref": [
				"Cf. A089823, A091628, A091629, A091630, A091631."
			],
			"keyword": "base,easy,nonn",
			"offset": "1,2",
			"author": "_Enoch Haga_, Jan 24 2004",
			"ext": [
				"Edited and extended by _Ray Chandler_, Feb 07 2004"
			],
			"references": 5,
			"revision": 8,
			"time": "2018-03-17T23:13:59-04:00",
			"created": "2004-02-19T03:00:00-05:00"
		}
	]
}