{
	"greeting": "Greetings from The On-Line Encyclopedia of Integer Sequences! http://oeis.org/",
	"query": "id:A091838",
	"count": 1,
	"start": 0,
	"results": [
		{
			"number": 91838,
			"data": "1,2,4,7,11,18,29,47,76,121,199,310,521,841,1364,2207,3571,5776,9349,15125,24476,39601,64079,103682,167761,271441,439204,710645,1149851,1860496,3010349,4870847,7881196,12752041,20633239,33385280,54018521,87403801",
			"name": "a(n) is the number of images of the border correlation function for binary words of length n (cf. link).",
			"comment": [
				"Values for even indices seem mysterious, but does A091838(2n+1) = A002878(n), the bisection of Lucas sequence?"
			],
			"link": [
				"Tero Harju, \u003ca href=\"http://users.utu.fi/harju/combwords.htm\"\u003eCombinatorics on Words\u003c/a\u003e - From _N. J. A. Sloane_, Aug 02 2012",
				"T. Harju and D. Nowotka, \u003ca href=\"http://www.tucs.fi/Publications/attachment.php?fname=TR546.pdf\"\u003eBorder correlation of binary words\u003c/a\u003e."
			],
			"formula": [
				"a(n) \u003c 2^(n-1)",
				"a(n) \u003c= F(n) + F(n-2) - m where F(i) is the i-th Fibonacci number and m=2 if n is in the set {2i | i \u003e= 0} - {2^j, 3x2^j | j \u003e= 0}. - Dirk Nowotka (nowotka(AT)utu.fi), May 16 2004",
				"a(n) seems to be asymptotic to phi^n where phi=(1+sqrt(5))/2."
			],
			"keyword": "nonn",
			"offset": "1,2",
			"author": "_Benoit Cloitre_, based on the Harju and Nowotka paper, Mar 10 2004",
			"ext": [
				"More terms from Dirk Nowotka (nowotka(AT)utu.fi), May 16 2004",
				"a(31)-a(38) from _Lars Blomberg_, Jan 17 2019"
			],
			"references": 1,
			"revision": 12,
			"time": "2019-01-17T15:57:42-05:00",
			"created": "2004-06-12T03:00:00-04:00"
		}
	]
}