{
	"greeting": "Greetings from The On-Line Encyclopedia of Integer Sequences! http://oeis.org/",
	"query": "id:A091680",
	"count": 1,
	"start": 0,
	"results": [
		{
			"number": 91680,
			"data": "290,78,18,6,3,36,21,19,7,8,4,2,1,-1,-1,-1,-1,-1,-1,-1,-1",
			"name": "Smallest number whose base-4 Reverse and Add! trajectory (presumably) contains exactly n base-4 palindromes, or -1 if there is no such number.",
			"comment": [
				"Conjecture 1: For each k \u003e 0 the trajectory of k eventually leads to a term in the trajectory of some j which belongs to A075421, i.e., whose trajectory (presumably) never leads to a palindrome. Conjecture 2: There is no k \u003e 0 such that the trajectory of k contains more than twelve palindromes, i.e., a(n) = -1 for n \u003e 12.",
				"Base-4 analog of A077594."
			],
			"link": [
				"\u003ca href=\"/index/Res#RAA\"\u003eIndex entries for sequences related to Reverse and Add!\u003c/a\u003e"
			],
			"example": [
				"a(4) = 3 since the trajectory of 3 contains the four palindromes 3, 15, 975, 64575 (3, 33, 33033, 3330333 in base 4) and at 20966400 joins the trajectory of 318 = A075421(2) and the trajectories of 1 (A035524) and 2 do not contain exactly four palindromes."
			],
			"xref": [
				"Cf. A075299, A035524, A014192, A075420, A075421, A077594."
			],
			"keyword": "base,sign",
			"offset": "0,1",
			"author": "_Klaus Brockhaus_, Jan 28 2004",
			"references": 2,
			"revision": 10,
			"time": "2015-07-11T00:52:42-04:00",
			"created": "2004-02-19T03:00:00-05:00"
		}
	]
}