{
	"greeting": "Greetings from The On-Line Encyclopedia of Integer Sequences! http://oeis.org/",
	"query": "id:A091956",
	"count": 1,
	"start": 0,
	"results": [
		{
			"number": 91956,
			"data": "1,2,3,5,8,14,25,40,68,105,160,245,352,508,742,1039,1497,2085,2823,3875,5362,7174,9607,12698,16837,25317,38608,56459,79955,111702,159319,232290,326331,460445,651956,897771,1241982,1699443,2326219,3130763,4283977,5671153,7764404,10359118,13883187",
			"name": "Number of increasing subsequences that can be made from the sequence of successive primes.",
			"comment": [
				"See A091955 for the precise definition of increasing subsequence."
			],
			"example": [
				"For n = 4 we take 2357 and find that the increasing subsequence are",
				"2,3,5,7",
				"2,3,57",
				"2,357",
				"23,57",
				"2357",
				"so a(4)=5"
			],
			"xref": [
				"Cf. A091955."
			],
			"keyword": "nonn,base",
			"offset": "1,2",
			"author": "Mohammed Bouayoun (bouyao(AT)wanadoo.fr), Mar 12 2004",
			"ext": [
				"More terms from _Sean A. Irvine_, Nov 22 2010"
			],
			"references": 1,
			"revision": 7,
			"time": "2014-10-17T21:50:27-04:00",
			"created": "2004-06-12T03:00:00-04:00"
		}
	]
}