{
	"greeting": "Greetings from The On-Line Encyclopedia of Integer Sequences! http://oeis.org/",
	"query": "id:A091887",
	"count": 1,
	"start": 0,
	"results": [
		{
			"number": 91887,
			"data": "1,1,1,1,1,1,1,2,1,1,1,1,1,1,1,1,1,2,2,1,1,1,1,1,1,1,2,3,1,1,2,1,1,2,1,1,1,3,1,2,3,1,1,2,1,1,2,1,1,1,1,1,1,2,1,1,1,1,1,1,1,2,1,1,1,1,1,1,3,1,1,1,3,1,1,1,1,2,2,1,2,1,1,1,1,1,1,1,1,1,1,1,1,1,1,1,1,1,2,2,1,2,1,1,1",
			"name": "Irregularity index of the n-th irregular prime A000928(n).",
			"comment": [
				"See A091888 for definition."
			],
			"link": [
				"T. D. Noe, \u003ca href=\"/A091887/b091887.txt\"\u003eTable of n, a(n) for n=1..10000\u003c/a\u003e (from Buhler et al.)",
				"J. Buhler, R. Crandall, R. Ernvall, T. Metsankyla and M. A. Shokrollahi, \u003ca href=\"http://dx.doi.org/10.1006/jsco.1999.1011\"\u003eIrregular Primes and Cyclotomic Invariants to 12 Million\u003c/a\u003e, J. Symbolic Computation 31, 2001, 89-96."
			],
			"mathematica": [
				"tp=Table[p=Prime[i]; cnt=0; k=1; While[2k\u003c=p-3, If[Mod[Numerator[BernoulliB[2k]], p]==0, cnt++ ]; k++ ]; cnt, {i, 400}]; Select[tp, #\u003e0\u0026]"
			],
			"xref": [
				"Cf. A073277 (primes having irregularity index 2), A060975 (primes having irregularity index 3), A061576 (least prime having irregularity index n), A091888 (irregularity index of prime(n))."
			],
			"keyword": "nonn",
			"offset": "1,8",
			"author": "_T. D. Noe_, Feb 09 2004",
			"references": 10,
			"revision": 11,
			"time": "2014-11-27T15:29:58-05:00",
			"created": "2004-02-19T03:00:00-05:00"
		}
	]
}