{
	"greeting": "Greetings from The On-Line Encyclopedia of Integer Sequences! http://oeis.org/",
	"query": "id:A092699",
	"count": 1,
	"start": 0,
	"results": [
		{
			"number": 92699,
			"data": "0,2,100,1520,12908,76488",
			"name": "Disk degeneracies for brane III in the O(K)-\u003eP^1 x P^1 geometry.",
			"link": [
				"M. Aganagic, A. Klemm and C. Vafa, \u003ca href=\"http://arXiv.org/abs/hep-th/0105045\"\u003eDisk Instantons, Mirror Symmetry and the Duality Web\u003c/a\u003e p. 41"
			],
			"keyword": "nonn",
			"offset": "0,2",
			"author": "_Sam Alexander_, Mar 05 2004",
			"references": 0,
			"revision": 3,
			"time": "2013-10-09T14:20:17-04:00",
			"created": "2004-06-12T03:00:00-04:00"
		}
	]
}