{
	"greeting": "Greetings from The On-Line Encyclopedia of Integer Sequences! http://oeis.org/",
	"query": "id:A092422",
	"count": 1,
	"start": 0,
	"results": [
		{
			"number": 92422,
			"data": "1,1,1,1,2,1,1,3,4,1,1,4,8,7,1,1,5,14,18,11,1,1,6,21,40,36,16,1,1,7,30,72,98,66,22,1,1,8,40,119,211,214,113,29,1,1,9,52,182,398,546,428,183,37,1,1,10,65,265,692,1170,1278,799,283,46,1,1,11,80,368,1123,2286,3104",
			"name": "Triangle, read by rows, where T(n,k) equals the k-th term of the convolution of the (n-k)-th row with the (2k)-th Fibonacci polynomial (A011973).",
			"formula": [
				"T(n, k) = sum_{j=0, min(k, n-k)} binomial(k+j, k-j)*T(n-k, j) with T(n, 0)=1."
			],
			"example": [
				"Even-numbered Fibonacci polynomials (cf. A011973) are:",
				"{1},",
				"{1,1},",
				"{1,3,1},",
				"{1,5,6,1},",
				"{1,7,15,10,1},...",
				"These terms are used to generate each row from the prior rows. For example,",
				"row 5 = {1(1), 1(1)+1(4), 1(1)+3(3)+1(4), 1(1)+6(2)+5(1), 1(1)+10(1), 1(1)};",
				"row 6 = {1(1), 1(1)+1(5), 1(1)+3(4)+1(8), 1(1)+6(3)+5(4)+1(1), 1(1)+10(2)+15(1), 1(1)+15(1), 1(1)}.",
				"Rows begin:",
				"{1},",
				"{1,1},",
				"{1,2,1},",
				"{1,3,4,1},",
				"{1,4,8,7,1},",
				"{1,5,14,18,11,1},",
				"{1,6,21,40,36,16,1},",
				"{1,7,30,72,98,66,22,1},",
				"{1,8,40,119,211,214,113,29,1},",
				"{1,9,52,182,398,546,428,183,37,1},..."
			],
			"program": [
				"(PARI) T(n,k)=if(n\u003ck || k\u003c0,0,if(k==0,1,sum(j=0,min(k,n-k),binomial(k+j,k-j)*T(n-k,j))))"
			],
			"xref": [
				"Cf. A092423, A092424, A011973."
			],
			"keyword": "nonn,tabl",
			"offset": "0,5",
			"author": "_Paul D. Hanna_, Mar 22 2004",
			"references": 2,
			"revision": 6,
			"time": "2017-06-13T21:52:40-04:00",
			"created": "2004-06-12T03:00:00-04:00"
		}
	]
}