{
	"greeting": "Greetings from The On-Line Encyclopedia of Integer Sequences! http://oeis.org/",
	"query": "id:A092610",
	"count": 1,
	"start": 0,
	"results": [
		{
			"number": 92610,
			"data": "3,39,897,38571,2044263,149231199,12386189517,1275777520251,144162859788363,23498546145503169,4065248483172048237,784592957252205309741,174964229467241784072243,40766665465867335688832619,10721633017523109286162978797",
			"name": "Product of first n primes that end in 3.",
			"link": [
				"Harvey P. Dale, \u003ca href=\"/A092610/b092610.txt\"\u003eTable of n, a(n) for n = 1..289\u003c/a\u003e"
			],
			"example": [
				"a(1)= 3 = 3",
				"a(2)= 3*13 = 39",
				"a(3)= 3*13*23 = 897",
				"a(4)= 3*13*23*43 = 38571"
			],
			"mathematica": [
				"Rest[FoldList[Times,1,Select[Prime[Range[100]],Mod[#,10]==3\u0026]]] (* _Harvey P. Dale_, Jul 12 2012 *)"
			],
			"keyword": "nonn",
			"offset": "1,1",
			"author": "_Jorge Coveiro_, Apr 11 2004",
			"ext": [
				"Corrected and extended by _Harvey P. Dale_, Jul 12 2012"
			],
			"references": 1,
			"revision": 6,
			"time": "2019-01-21T19:01:55-05:00",
			"created": "2004-06-12T03:00:00-04:00"
		}
	]
}