{
	"greeting": "Greetings from The On-Line Encyclopedia of Integer Sequences! http://oeis.org/",
	"query": "id:A092955",
	"count": 1,
	"start": 0,
	"results": [
		{
			"number": 92955,
			"data": "5,13,85,183,1729,3932,49153,102790,1600001,3179144,59719681,114818732",
			"name": "Starting at the integer 0, add one of each base-n digit in base n to a pile and then take from this pile the digits required to construct the current integer. Continue consecutively until reaching an integer, a(n), that requires digits not in the pile.",
			"link": [
				"Michael Brand, \u003ca href=\"http://domino.research.ibm.com/Comm/wwwr_ponder.nsf/challenges/April2004.html\"\u003eIBM Research \"Ponder This\" Challenge for April, 2004\u003c/a\u003e."
			],
			"formula": [
				"For even bases n \u003e 4, the formula is a(n) := 2*n^(n-3) - 4*n^(n-4) + 1. No closed form is known for odd n."
			],
			"example": [
				"a(2)=5 because we first add 01 to the pile and then take 0 to make the integer 0. Next, we add another 01 to the pile (making it 011) and take the digit 1 to make the integer 1. Next we add 01 and take 10. Next we add 01 and take 11 (now the pile is just 00). Next we add 01 and take 100 (leaving just 0). Finally, we add 01 and now the pile is 001 but we need to form the number 101. So 101 (base 2) = 5 (base 10) is the first integer that cannot be formed."
			],
			"keyword": "base,nonn",
			"offset": "2,1",
			"author": "_Michael Brundage_, Apr 24 2004",
			"references": 0,
			"revision": 3,
			"time": "2012-03-31T10:33:25-04:00",
			"created": "2004-06-12T03:00:00-04:00"
		}
	]
}