{
	"greeting": "Greetings from The On-Line Encyclopedia of Integer Sequences! http://oeis.org/",
	"query": "id:A092081",
	"count": 1,
	"start": 0,
	"results": [
		{
			"number": 92081,
			"data": "1,1,2,1,3,8,1,4,15,48,1,5,24,105,384,1,6,35,192,945,3840,1,7,48,315,1920,10395,46080,1,8,63,480,3465,23040,135135,645120,1,9,80,693,5760,45045,322560,2027025,10321920,1,10,99,960,9009,80640,675675,5160960",
			"name": "Triangle of certain double factorials.",
			"comment": [
				"This is the rectangular array A(3;m,n) := (2*n+m)!!/m!!, m \u003e= 0, n \u003e= 0, read by SW-NE diagonals. For n!! see A006882 (double factorials)."
			],
			"link": [
				"W. Lang, \u003ca href=\"/A092081/a092081.txt\"\u003eFirst 9 rows\u003c/a\u003e."
			],
			"formula": [
				"a(m, n)=(n+m)!!/(m-n)!!, 0\u003c=n\u003c=m, else 0, with 0!! := 1."
			],
			"xref": [
				"Diagonals give: A000165 (double factorials of 2*n), A001147(n+1), A002866, A051577-83.",
				"Columns give: A000012 (powers of 1), A000027 (naturals \u003e=2), A005563, 3*A077415, for n=0..3."
			],
			"keyword": "nonn,easy,tabl",
			"offset": "0,3",
			"author": "_Wolfdieter Lang_, Mar 19 2004",
			"references": 1,
			"revision": 10,
			"time": "2019-08-29T09:13:49-04:00",
			"created": "2004-06-12T03:00:00-04:00"
		}
	]
}