{
	"greeting": "Greetings from The On-Line Encyclopedia of Integer Sequences! http://oeis.org/",
	"query": "id:A092509",
	"count": 1,
	"start": 0,
	"results": [
		{
			"number": 92509,
			"data": "0,2,3,2,5,0,7,4,6,0,11,0,13,0,0,8,17,0,19,0,0,0,23,0,20,0,18,0,29,0,31,16,0,0,0,0,37,0,0,0,41,0,43,0,0,0,47,0,42,0,0,0,53,0,0,0,0,0,59,0,61,0,0,32,0,0,67,0,0,0,71,0,73,0,0,0,0,0,79,0,54,0,83,0,0,0,0,0,89,0,0,0,0",
			"name": "Möbius transform of sequence A008475.",
			"link": [
				"Antti Karttunen, \u003ca href=\"/A092509/b092509.txt\"\u003eTable of n, a(n) for n = 1..16384\u003c/a\u003e"
			],
			"formula": [
				"a(n) = 0 if n is 1 or not a power of a prime;",
				"a(n) = n if n is a prime;",
				"a(n) = n*(1 -1/p) if n = p^k, k\u003e= 2, p=prime.",
				"a(n) = Sum_{d|n} A008683(d)*A008475(n/d). - _Antti Karttunen_, Nov 17 2017"
			],
			"mathematica": [
				"f[n_] := Plus @@ Map[Power @@ #1 \u0026, FactorInteger[n]]; mt[n_] := Block[{d = Divisors[n]}, Plus @@ (MoebiusMu /@ (n/d)*f /@ d)]; Table[ mt[n], {n, 93}] (* _Robert G. Wilson v_, Jan 12 2005 *)"
			],
			"program": [
				"(PARI)",
				"A008475(n) = { my(f=factor(n)); vecsum(vector(#f~,i,f[i,1]^f[i,2])); };",
				"A092509(n) = sumdiv(n,d,moebius(d)*A008475(n/d)); \\\\ _Antti Karttunen_, Nov 17 2017"
			],
			"xref": [
				"Cf. A008475, A008683."
			],
			"keyword": "nonn",
			"offset": "1,2",
			"author": "_Leroy Quet_, Dec 31 2004",
			"ext": [
				"More terms from _Robert G. Wilson v_, Jan 13 2005"
			],
			"references": 2,
			"revision": 14,
			"time": "2017-11-17T20:32:23-05:00",
			"created": "2004-06-12T03:00:00-04:00"
		}
	]
}