{
	"greeting": "Greetings from The On-Line Encyclopedia of Integer Sequences! http://oeis.org/",
	"query": "id:A092492",
	"count": 1,
	"start": 0,
	"results": [
		{
			"number": 92492,
			"data": "0,0,0,0,0,1,5,19,68,240,839,2911,10054,34641,119203,409893,1408873,4841373,16634350,57149111,196333312,674477710,2317047808,7959739375,27343914410,93933688630,322686958885,1108513737048,3808031504891",
			"name": "Arises in enumeration of 321-hexagon-avoiding permutations.",
			"link": [
				"Colin Barker, \u003ca href=\"/A092492/b092492.txt\"\u003eTable of n, a(n) for n = 1..1000\u003c/a\u003e",
				"Z. Stankova and J. West, \u003ca href=\"https://doi.org/10.1016/j.disc.2003.06.003\"\u003eExplicit enumeration of 321, hexagon-avoiding permutations\u003c/a\u003e, Discrete Math., 280 (2004), 165-189.",
				"\u003ca href=\"/index/Rec#order_06\"\u003eIndex entries for linear recurrences with constant coefficients\u003c/a\u003e, signature (6,-11,9,-4,-4,1)."
			],
			"formula": [
				"a(n) = 2*A058094(n-3) - 5*A058094(n-4) + A058094(n-5) for n \u003e= 6. - _Emeric Deutsch_, Jun 08 2004",
				"From _Colin Barker_, Aug 21 2019: (Start)",
				"G.f.: x^6*(1 - x) / (1 - 6*x + 11*x^2 - 9*x^3 + 4*x^4 + 4*x^5 - x^6).",
				"a(n) = 6*a(n-1) - 11*a(n-2) + 9*a(n-3) - 4*a(n-4) - 4*a(n-5) + a(n-6) for n\u003e7.",
				"(End)"
			],
			"maple": [
				"b[1]:=1: b[2]:=2: b[3]:=5: b[4]:=14: b[5]:=42: b[6]:=132: for n from 6 to 45 do b[n+1]:=6*b[n]-11*b[n-1]+9*b[n-2]-4*b[n-3]-4*b[n-4]+b[n-5] od: a[1]:=0: a[2]:=0: a[3]:=0: a[4]:=0: a[5]:=0: for n from 6 to 40 do a[n]:=2*b[n-3]-5*b[n-4]+b[n-5] od: seq(a[n],n=1..40); # _Emeric Deutsch_, Jun 08 2004"
			],
			"program": [
				"(PARI) concat([0,0,0,0,0], Vec(x^6*(1 - x) / (1 - 6*x + 11*x^2 - 9*x^3 + 4*x^4 + 4*x^5 - x^6) + O(x^30))) \\\\ _Colin Barker_, Aug 21 2019"
			],
			"xref": [
				"Cf. A058094, A092489, A092490, A092491."
			],
			"keyword": "nonn,easy",
			"offset": "1,7",
			"author": "_N. J. A. Sloane_, Apr 04 2004",
			"ext": [
				"More terms from _Emeric Deutsch_, Jun 08 2004"
			],
			"references": 6,
			"revision": 14,
			"time": "2019-08-21T05:46:43-04:00",
			"created": "2004-06-12T03:00:00-04:00"
		}
	]
}