{
	"greeting": "Greetings from The On-Line Encyclopedia of Integer Sequences! http://oeis.org/",
	"query": "id:A092670",
	"count": 1,
	"start": 0,
	"results": [
		{
			"number": 92670,
			"data": "1,1,1,1,1,2,2,2,2,2,2,3,3,3,6,6,6,11,11,22,22,22,22,41,41,41,41,114,114,200,200,200,363,363,566,852,852,852,852,1655,1655,3054,3054,3054,5777,5777,5777,10647,10647,10647,10647,19436,19436,33373,48360,90441",
			"name": "a(n) = number of Egyptian fractions 1 = 1/x_1 + ... + 1/x_k (for any k), 0\u003cx_1\u003c...\u003cx_k\u003c=n.",
			"link": [
				"Toshitaka Suzuki, \u003ca href=\"/A092670/b092670.txt\"\u003eTable of n, a(n) for n = 1..610\u003c/a\u003e",
				"\u003ca href=\"/index/Ed#Egypt\"\u003eIndex entries for sequences related to Egyptian fractions\u003c/a\u003e"
			],
			"formula": [
				"a(n)=Sum(A092669(i), i=1..n)"
			],
			"example": [
				"a(6)=2 since there are two fractions 1=1/1 and 1=1/2+1/3+1/6."
			],
			"xref": [
				"Cf. A020473, A038034, A092669, A006585."
			],
			"keyword": "nonn",
			"offset": "1,6",
			"author": "_Max Alekseyev_, Mar 02 2004",
			"ext": [
				"More terms from T. Suzuki (suzuki(AT)scio.co.jp), Nov 24 2006"
			],
			"references": 6,
			"revision": 9,
			"time": "2012-03-30T17:26:51-04:00",
			"created": "2004-06-12T03:00:00-04:00"
		}
	]
}