{
	"greeting": "Greetings from The On-Line Encyclopedia of Integer Sequences! http://oeis.org/",
	"query": "id:A092163",
	"count": 1,
	"start": 0,
	"results": [
		{
			"number": 92163,
			"data": "8,18,30,42,60,78,90,112,128,144,162,186,204,216,240,268,288,308,330,352,372,390,410,450,462,480,508,532,548,564,600,624,648,684,702,726,752,772,798,828,852,872,892,918,930,966,990,1012,1044,1088,1120,1140",
			"name": "a(n) = Prime(2n) + prime(2n+1).",
			"formula": [
				"a(n)= A001043(2*n). - _R. J. Mathar_, Apr 20 2009"
			],
			"example": [
				"a(1) = 8 because p(2)= 3 and p(3) = 5.",
				"a(2) = 18 because p(4)= 7 and p(5) = 11.",
				"a(3) = 30 because p(6)= 13 and p(7) = 17."
			],
			"mathematica": [
				"Table[ Prime[2n] + Prime[2n + 1], {n, 50}] (* _Robert G. Wilson v_, Apr 22 2004 *)"
			],
			"xref": [
				"Cf. A000040."
			],
			"keyword": "nonn",
			"offset": "1,1",
			"author": "Jun Mizuki (suzuki32(AT)sanken.osaka-u.ac.jp), Mar 31 2004",
			"ext": [
				"More terms from _Robert G. Wilson v_, Apr 22 2004"
			],
			"references": 0,
			"revision": 7,
			"time": "2015-07-21T00:31:13-04:00",
			"created": "2004-06-12T03:00:00-04:00"
		}
	]
}