{
	"greeting": "Greetings from The On-Line Encyclopedia of Integer Sequences! http://oeis.org/",
	"query": "id:A092796",
	"count": 1,
	"start": 0,
	"results": [
		{
			"number": 92796,
			"data": "1,213,14857,694485,27005881,957263493,32333393737,1064686990965,34589700409561,1115777278022373,35856732186282217,1149998292486777045,36843831022923582841,1179748027215029366853,37764598757179830172297,1208682260675932309564725",
			"name": "Number of connected relations.",
			"link": [
				"G. C. Greubel, \u003ca href=\"/A092796/b092796.txt\"\u003eTable of n, a(n) for n = 1..660\u003c/a\u003e",
				"G. Kilibarda and V. Jovovic, \u003ca href=\"https://arxiv.org/abs/1411.4187\"\u003eEnumeration of some classes of T_0-hypergraphs\u003c/a\u003e, arXiv:1411.4187 [math.CO], 2014.",
				"\u003ca href=\"/index/Rec#order_07\"\u003eIndex entries for linear recurrences with constant coefficients\u003c/a\u003e, signature (91,-3299,62713,-682172,4276972,-14386144,20106240)."
			],
			"formula": [
				"a(n) = 32^n - 5*17^n - 10*11^n + 20*10^n + 30*8^n - 60*7^n + 24*6^n.",
				"G.f.: -x*(132960*x^5 + 145292*x^4 - 17528*x^3 - 1227*x^2 + 122*x + 1) / ((6*x-1)*(7*x-1)*(8*x-1)*(10*x-1)*(11*x-1)*(17*x-1)*(32*x-1)). - _Colin Barker_, Jul 13 2013"
			],
			"mathematica": [
				"Table[32^n - 5*17^n - 10*11^n + 20*10^n + 30*8^n - 60*7^n + 24*6^n, {n, 0, 50}] (* _G. C. Greubel_, Oct 08 2017 *)"
			],
			"program": [
				"(PARI) for(n=0,50, print1(32^n - 5*17^n - 10*11^n + 20*10^n + 30*8^n - 60*7^n + 24*6^n, \", \")) \\\\ _G. C. Greubel_, Oct 08 2017",
				"(MAGMA) [32^n - 5*17^n - 10*11^n + 20*10^n + 30*8^n - 60*7^n + 24*6^n: n in [0..50]]; // _G. C. Greubel_, Oct 08 2017"
			],
			"xref": [
				"Cf. A005333, A001047, A002501, A002502, A093732, A093733."
			],
			"keyword": "nonn,easy",
			"offset": "1,2",
			"author": "Goran Kilibarda, _Vladeta Jovovic_, Apr 15 2004",
			"ext": [
				"Additional term from _Colin Barker_, Jul 13 2013"
			],
			"references": 1,
			"revision": 13,
			"time": "2017-10-08T17:43:19-04:00",
			"created": "2004-06-12T03:00:00-04:00"
		}
	]
}