{
	"greeting": "Greetings from The On-Line Encyclopedia of Integer Sequences! http://oeis.org/",
	"query": "id:A092186",
	"count": 1,
	"start": 0,
	"results": [
		{
			"number": 92186,
			"data": "2,1,2,2,8,12,72,144,1152,2880,28800,86400,1036800,3628800,50803200,203212800,3251404800,14631321600,263363788800,1316818944000,26336378880000,144850083840000,3186701844480000,19120211066880000,458885065605120000,2982752926433280000",
			"name": "a(n) = 2(m!)^2 for n = 2m and m!(m+1)! for n = 2m+1.",
			"comment": [
				"Singmaster's problem: \"A salesman's office is located on a straight road. His n customers are all located along this road to the east of the office, with the office of customer k at distance k from the salesman's office. The salesman must make a driving trip whereby he leaves the office, visits each customer exactly once, then returns to the office.",
				"\"Because he makes a profit on his mileage allowance, the salesman wants to drive as far as possible during his trip. What is the maximum possible distance he can travel on such a trip and how many different such trips are there?",
				"\"Assume that if the travel plans call for the salesman to visit customer j immediately after he visits customer i, then he drives directly from i to j.\"",
				"The solution to the first question is twice A002620(n-1); the solution to the second question is a(n).",
				"Number of permutation of [n] with no pair of consecutive elements of the same parity. - _Vladeta Jovovic_, Nov 26 2007"
			],
			"reference": [
				"A. O. Munagi, Alternating subsets and permutations, Rocky Mountain J. Math. 40 (6) (2010) 1965-1977 doi:10.1216/RJM-2010-40-6-1965, Corollary 3.2.",
				"David Singmaster, Problem 1654, Mathematics Magazine 75 (October 2002). Solution in Mathematics Magazine 76 (October 2003)."
			],
			"link": [
				"Alois P. Heinz, \u003ca href=\"/A092186/b092186.txt\"\u003eTable of n, a(n) for n = 0..300\u003c/a\u003e",
				"David Singmaster, \u003ca href=\"http://www.jstor.org/stable/3219173\"\u003eProblem 1654\u003c/a\u003e, Mathematics Magazine 75 p. 317 (October 2002). \u003ca href=\"http://www.jstor.org/stable/3219092\"\u003eSolution\u003c/a\u003e, Mathematics Magazine 76 p. 321-322 (October 2003).",
				"Shinji Tanimoto, \u003ca href=\"http://arXiv.org/abs/math/0612135\"\u003eAlternate Permutations and Signed Eulerian Numbers\u003c/a\u003e, arXiv:math/0612135 [math.CO], 2006; Ann. Comb. 14 (2010), 355."
			],
			"maple": [
				"a:= proc(n) option remember; `if`(n\u003c2, 2-n,",
				"      (n*(3*n-1)*(n-1)*a(n-2) -4*a(n-1))/(12*n-16))",
				"    end:",
				"seq(a(n), n=0..30);  # _Alois P. Heinz_, Nov 11 2013"
			],
			"mathematica": [
				"f[n_] := If[EvenQ[n], 2 (n/2)!^2, ((n + 1)/2)! ((n - 1)/2)!]; Table[",
				"f[n], {n, 0, 25}] (* _Geoffrey Critzer_, Aug 24 2013 *)"
			],
			"xref": [
				"Cf. A152877.",
				"Row sums of A125300. - _Alois P. Heinz_, Nov 18 2013"
			],
			"keyword": "nonn",
			"offset": "0,1",
			"author": "_N. J. A. Sloane_, based on correspondence from _Hugo Pfoertner_ and _Rob Pratt_, Apr 02 2004",
			"references": 9,
			"revision": 26,
			"time": "2018-06-10T09:52:15-04:00",
			"created": "2004-06-12T03:00:00-04:00"
		}
	]
}