{
	"greeting": "Greetings from The On-Line Encyclopedia of Integer Sequences! http://oeis.org/",
	"query": "id:A092616",
	"count": 1,
	"start": 0,
	"results": [
		{
			"number": 92616,
			"data": "7,7,8,8,0,0,7,8,3,0,7,1,4,0,4,8,6,8,2,4,5,1,7,0,2,6,6,9,7,8,3,2,0,6,4,7,2,9,6,7,7,2,2,9,0,4,2,6,1,4,1,4,7,4,2,4,1,3,1,7,3,6,6,2,6,8,2,4,5,6,1,2,0,5,3,5,1,9,2,4,4,6,3,1,9,9,9,0,1,5,2,4,7,3,1,3,8,2,0,6,0,4,1,2,4",
			"name": "Decimal expansion of e^(-1/4).",
			"example": [
				"0.778800783071404"
			],
			"mathematica": [
				"RealDigits[Surd[E,-4],10,120][[1]] (* _Harvey P. Dale_, Jul 07 2013 *)"
			],
			"xref": [
				"Cf. A001113, A019774, A068985."
			],
			"keyword": "cons,nonn",
			"offset": "0,1",
			"author": "_Mohammad K. Azarian_, Apr 22 2004",
			"references": 2,
			"revision": 6,
			"time": "2013-07-07T18:32:42-04:00",
			"created": "2004-06-12T03:00:00-04:00"
		}
	]
}