{
	"greeting": "Greetings from The On-Line Encyclopedia of Integer Sequences! http://oeis.org/",
	"query": "id:A093339",
	"count": 1,
	"start": 0,
	"results": [
		{
			"number": 93339,
			"data": "2,3,5,7,0,0,0,0,1,2,3,3,3,4,5,5,6,6,7,7,8,9,9,9,9,1,2,2,2,3,3,4,5,5,6,6,7,7,8,8,9,0,1,1,1,3,3,4,4,5,5,6,7,7,8,8,9,0,0,1,2,3,3,3,4,4,5,6,6,6,7,8,9,9,0,0,2,2,4,4,5,6,6,7,7,8,9,9,0,0,1,1,1,3,4,4,4,5,5,6,7,7,8,9,0",
			"name": "Middle digits of primes with an odd number of digits.",
			"link": [
				"Harvey P. Dale, \u003ca href=\"/A093339/b093339.txt\"\u003eTable of n, a(n) for n = 2..1000\u003c/a\u003e"
			],
			"mathematica": [
				"mdp[n_]:=Module[{idn=IntegerDigits[n],len=IntegerLength[n]},If[EvenQ[len], -1,idn[[(len-1)/2+1]]]]; Select[mdp/@Prime[Range[500]],NonNegative] (* _Harvey P. Dale_, Feb 26 2012 *)"
			],
			"program": [
				"(PARI) midd(n) = { forprime(x=2,n, s = Str(x); ln = length(s); if(ln\u003c2,p=1,p = (ln-1)/2+1); if(ln%2, md = eval(mid(s,p,1)); print1(md\",\") ) ) } \\ Get a substring of length n from string str starting at position s in str. mid(str,s,n) = { v =\"\"; tmp = Vec(str); ln=length(tmp); for(x=s,s+n-1, v=concat(v,tmp[x]); ); return(v) }"
			],
			"xref": [
				"Cf. A077648, A007652."
			],
			"keyword": "base,nonn",
			"offset": "2,1",
			"author": "_Cino Hilliard_, Apr 25 2004",
			"references": 3,
			"revision": 6,
			"time": "2013-11-21T12:48:18-05:00",
			"created": "2004-06-12T03:00:00-04:00"
		}
	]
}