{
	"greeting": "Greetings from The On-Line Encyclopedia of Integer Sequences! http://oeis.org/",
	"query": "id:A093132",
	"count": 1,
	"start": 0,
	"results": [
		{
			"number": 93132,
			"data": "1,8,60,440,3200,23200,168000,1216000,8800000,63680000,460800000,3334400000,24128000000,174592000000,1263360000000,9141760000000,66150400000000,478668800000000,3463680000000000,25063424000000000",
			"name": "Third binomial transform of Fibonacci(3n+2).",
			"link": [
				"G. C. Greubel, \u003ca href=\"/A093132/b093132.txt\"\u003eTable of n, a(n) for n = 0..1000\u003c/a\u003e",
				"\u003ca href=\"/index/Rec#order_02\"\u003eIndex entries for linear recurrences with constant coefficients\u003c/a\u003e, signature (10,-20)."
			],
			"formula": [
				"G.f.: (1-2*x)/(1-10*x+20*x^2).",
				"a(n) = ( (5 + 3*sqrt(5))*(5 + sqrt(5))^n + (5 - 3*sqrt(5))*(5 - sqrt(5))^n)/10.",
				"a(n) = 2^n*A039717(n).",
				"a(2*n) = 4^n*5^n*Fibonacci(2*n+2), a(2*n+1) = 2^(2*n+1)*5^n*Lucas(2*n+3). - _G. C. Greubel_, Dec 27 2019"
			],
			"maple": [
				"seq(coeff(series((1-2*x)/(1-10*x+20*x^2), x, n+1), x, n), n = 0..30); # _G. C. Greubel_, Dec 27 2019"
			],
			"mathematica": [
				"Table[If[EvenQ[n], 2^n*5^(n/2)*Fibonacci[n+2], 2^n*5^((n-1)/2)*LucasL[n+2]], {n, 0, 30}] (* _G. C. Greubel_, Dec 27 2019 *)"
			],
			"program": [
				"(PARI) my(x='x+O('x^30)); Vec((1-2*x)/(1-10*x+20*x^2)) \\\\ _G. C. Greubel_, Dec 27 2019",
				"(MAGMA) I:=[1,8]; [n le 2 select I[n] else 10*(Self(n-1) - 2*Self(n-2)): n in [1..30]]; // _G. C. Greubel_, Dec 27 2019",
				"(Sage)",
				"def A093132_list(prec):",
				"    P.\u003cx\u003e = PowerSeriesRing(ZZ, prec)",
				"    return P( (1-2*x)/(1-10*x+20*x^2) ).list()",
				"A093132_list(30) # _G. C. Greubel_, Dec 27 2019",
				"(GAP) a:=[1,8];; for n in [2..30] do a[n]:=10*(a[n-1]-2*a[n-2]); od; a; # _G. C. Greubel_, Dec 27 2019"
			],
			"xref": [
				"Cf. A000032, A000045, A039717."
			],
			"keyword": "easy,nonn",
			"offset": "0,2",
			"author": "_Paul Barry_, Mar 23 2004",
			"references": 1,
			"revision": 16,
			"time": "2019-12-27T08:54:59-05:00",
			"created": "2004-06-12T03:00:00-04:00"
		}
	]
}