{
	"greeting": "Greetings from The On-Line Encyclopedia of Integer Sequences! http://oeis.org/",
	"query": "id:A093649",
	"count": 1,
	"start": 0,
	"results": [
		{
			"number": 93649,
			"data": "38,92,7924,9382,900002,904702,908302,32274998,32392898,32465798,32529698,32556698,32683598,32929298,33629588,33692588,33865388,34692578,34738478,34747478,34756478,34856378,35338868,35483768",
			"name": "Numbers n such that n.s.rev(n) is palindromic and prime, where '.' represents concatenation, rev(n) is the reversal of n and s is the sum of n and rev(n). Or, n such that A084998(n) is prime.",
			"example": [
				"a(1)=38 because 83+38=121 and 3812183 is palindromic and prime."
			],
			"keyword": "nonn,base",
			"offset": "1,1",
			"author": "_Jason Earls_, May 15 2004",
			"ext": [
				"More terms from _David Wasserman_, Nov 03 2006"
			],
			"references": 0,
			"revision": 7,
			"time": "2017-12-15T17:36:35-05:00",
			"created": "2004-06-12T03:00:00-04:00"
		}
	]
}