{
	"greeting": "Greetings from The On-Line Encyclopedia of Integer Sequences! http://oeis.org/",
	"query": "id:A093338",
	"count": 1,
	"start": 0,
	"results": [
		{
			"number": 93338,
			"data": "2,3,5,7,2,2,3,3,5,5,7,7,7,2,2,2,2,2,2,2,2,2,2,2,2,2,2,2,2,3,3,3,3,3,3,3,3,3,3,3,3,3,3,3,3,5,5,5,5,5,5,5,5,5,5,5,5,5,5,7,7,7,7,7,7,7,7,7,7,7,7,7,7,2,2,2,2,2,2,2,2,2,2,2,2,2,2,2,2,2,2,2,2,2,2,2,2,2,2,2,2,2,2,2,2",
			"name": "Scan primes, write down initial digit if it is a prime.",
			"program": [
				"(PARI) firstpr(n) = { forprime(x=2,n, fd = eval(mid(Str(x),1,1)); if(isprime(fd),print1(fd\",\")) ) } \\ Get a substring of length n from string str starting at position s in str. mid(str,s,n) = { v =\"\"; tmp = Vec(str); ln=length(tmp); for(x=s,s+n-1, v=concat(v,tmp[x]); ); return(v) }"
			],
			"xref": [
				"Cf. A077648."
			],
			"keyword": "base,nonn",
			"offset": "2,1",
			"author": "_Cino Hilliard_, Apr 25 2004",
			"references": 0,
			"revision": 3,
			"time": "2013-10-01T17:57:59-04:00",
			"created": "2004-06-12T03:00:00-04:00"
		}
	]
}