{
	"greeting": "Greetings from The On-Line Encyclopedia of Integer Sequences! http://oeis.org/",
	"query": "id:A093988",
	"count": 1,
	"start": 0,
	"results": [
		{
			"number": 93988,
			"data": "1,3,5,7,11,13,35,45,47,57,87,183,325,367,447,809,1157,2789,5775,14829,20687",
			"name": "Numbers k such that 2^k + 3*k is prime.",
			"comment": [
				"a(22) \u003e 31410. - _Jinyuan Wang_, Feb 03 2020"
			],
			"maple": [
				"A093988:=n-\u003e`if`(isprime(2^n+3*n), n, NULL): seq(A093988(n), n=1..10^3); # _Wesley Ivan Hurt_, Jan 21 2017"
			],
			"mathematica": [
				"Do[ If[ PrimeQ[2^n + 3n], Print[n]], {n, 1, 5000, 2}]"
			],
			"program": [
				"(PARI) isok(n) = isprime(2^n + 3*n); \\\\ _Michel Marcus_, Jan 21 2017",
				"(PFGW) ABC2 2^$a+3*$a",
				"a: from 1 to 1000 // _Jinyuan Wang_, Feb 03 2020"
			],
			"xref": [
				"Cf. A082101, A086653, A094963."
			],
			"keyword": "nonn,more",
			"offset": "1,2",
			"author": "_Robert G. Wilson v_, May 25 2004",
			"ext": [
				"More terms from _Ryan Propper_, Jul 05 2005"
			],
			"references": 2,
			"revision": 16,
			"time": "2020-02-04T04:29:44-05:00",
			"created": "2004-06-12T03:00:00-04:00"
		}
	]
}