{
	"greeting": "Greetings from The On-Line Encyclopedia of Integer Sequences! http://oeis.org/",
	"query": "id:A093923",
	"count": 1,
	"start": 0,
	"results": [
		{
			"number": 93923,
			"data": "3,13,43,31,101,241,103,313,571,443,397,809,661,769,1217,1231,3463,14029,3019,2411,10789,3559,2341,8179,6029,8209,2939,2851,6679,3259,3889,7393,6421,8737,4673,16747,6529,6269,70783,10501,11681,17851,32189",
			"name": "Leading diagonal of triangle A093922.",
			"xref": [
				"Cf. A093922."
			],
			"keyword": "nonn,easy,less",
			"offset": "1,1",
			"author": "_Amarnath Murthy_, Apr 25 2004",
			"ext": [
				"Edited and extended by _David Wasserman_, Mar 06 2007"
			],
			"references": 1,
			"revision": 6,
			"time": "2013-12-05T19:56:49-05:00",
			"created": "2004-06-12T03:00:00-04:00"
		}
	]
}