{
	"greeting": "Greetings from The On-Line Encyclopedia of Integer Sequences! http://oeis.org/",
	"query": "id:A093958",
	"count": 1,
	"start": 0,
	"results": [
		{
			"number": 93958,
			"data": "0,0,0,0,0,1,0,0,0,0,0,1,0,0,0,0,0,1,0,0,0,0,0,1,0,0,0,0,0,1,1,0,0,0,0,0,1,0,0,0,0,0,1,0,0,0,0,0,1,0,0,0,0,0,1,0,0,0,0,0,1,1,0,0,0,0,0,1,0,0,0,0,0,1,0,0,0,0,0,1,0,0,0,0,0,1,0,0,0,0,0,1,1,0,0,0,0,0,1",
			"name": "A091844(n) - 4.",
			"comment": [
				"The purpose of A093955-A093958 is to compare A090822, A091787, A091799 and A091844 on the same \"scale\".",
				"Sequence is unbounded."
			],
			"link": [
				"F. J. van de Bult, D. C. Gijswijt, J. P. Linderman, N. J. A. Sloane and Allan Wilks, \u003ca href=\"http://www.cs.uwaterloo.ca/journals/JIS/index.html\"\u003eA Slow-Growing Sequence Defined by an Unusual Recurrence\u003c/a\u003e, J. Integer Sequences, Vol. 10 (2007), #07.1.2.",
				"F. J. van de Bult, D. C. Gijswijt, J. P. Linderman, N. J. A. Sloane and Allan Wilks, A Slow-Growing Sequence Defined by an Unusual Recurrence [\u003ca href=\"http://neilsloane.com/doc/gijs.pdf\"\u003epdf\u003c/a\u003e, \u003ca href=\"http://neilsloane.com/doc/gijs.ps\"\u003eps\u003c/a\u003e].",
				"\u003ca href=\"/index/Ge#Gijswijt\"\u003eIndex entries for sequences related to Gijswijt's sequence\u003c/a\u003e"
			],
			"xref": [
				"Cf. A090822, A093955-A093958."
			],
			"keyword": "nonn",
			"offset": "1,1",
			"author": "_N. J. A. Sloane_, May 22 2004",
			"references": 5,
			"revision": 10,
			"time": "2014-08-02T06:17:47-04:00",
			"created": "2004-06-12T03:00:00-04:00"
		}
	]
}