{
	"greeting": "Greetings from The On-Line Encyclopedia of Integer Sequences! http://oeis.org/",
	"query": "id:A093619",
	"count": 1,
	"start": 0,
	"results": [
		{
			"number": 93619,
			"data": "0,0,4,3,5,4,4,2,0,8,7,4,7,2,2,2,5,2,2,7,9,6,7,7,3,4,2,5,1,2,7,9,4,3,2,1,1,5,1,2,3,2,4,9,2,4,6,0,1,8,0,5,7,4,3,6,2,3,4,4,1,8,7,3,5,5,2,6,8,6,3,8,4,8,3,7,8,7,8,5,9,2,4,7,3,9,8,1,2,0,5,5,0,6,1,1,7,1,7,6,6,5,8,4,8",
			"name": "Decimal expansion of e^(-2*e).",
			"link": [
				"Harry J. Smith, \u003ca href=\"/A093619/b093619.txt\"\u003eTable of n, a(n) for n = 0..20000\u003c/a\u003e"
			],
			"example": [
				"0.004354420874722252279677"
			],
			"mathematica": [
				"Join[{0,0},RealDigits[E^(-2E),10,120][[1]]] (* _Harvey P. Dale_, Jan 22 2016 *)"
			],
			"program": [
				"(PARI) { default(realprecision, 20080); x=10*exp(1)^(-2*exp(1)); for (n=0, 20000, d=floor(x); x=(x-d)*10; write(\"b093619.txt\", n, \" \", d)); } \\\\ _Harry J. Smith_, Jun 19 2009"
			],
			"xref": [
				"Cf. A001113, A073226, A073230."
			],
			"keyword": "cons,nonn",
			"offset": "0,3",
			"author": "_Mohammad K. Azarian_, May 14 2004",
			"references": 1,
			"revision": 12,
			"time": "2016-01-22T15:38:50-05:00",
			"created": "2004-06-12T03:00:00-04:00"
		}
	]
}