{
	"greeting": "Greetings from The On-Line Encyclopedia of Integer Sequences! http://oeis.org/",
	"query": "id:A093736",
	"count": 1,
	"start": 0,
	"results": [
		{
			"number": 93736,
			"data": "2,2,3,3,3,8,8,8,8,45,45,15,45,45,288,96,144,144,96,288,140,35,140,35,140,35,140,17280,17280,640,17280,17280,640,17280,17280,14175,14175,14175,14175,2835,14175,14175,14175,14175,89600,89600,2240,5600,44800",
			"name": "Denominators of Newton-Cotes formulas.",
			"link": [
				"Eric Weisstein's World of Mathematics, \u003ca href=\"http://mathworld.wolfram.com/Newton-CotesFormulas.html\"\u003eNewton-Cotes Formulas\u003c/a\u003e"
			],
			"example": [
				"1/2, 1/2; 1/3, 4/3, 1/3; 3/8, 9/8, 9/8, 3/8; 14/45, 64/45, 8/15, 64/45, 14/45; ..."
			],
			"xref": [
				"Cf. A093735."
			],
			"keyword": "nonn,frac",
			"offset": "1,1",
			"author": "_Eric W. Weisstein_, Apr 14 2004",
			"references": 4,
			"revision": 7,
			"time": "2018-11-12T07:18:17-05:00",
			"created": "2004-06-12T03:00:00-04:00"
		}
	]
}