{
	"greeting": "Greetings from The On-Line Encyclopedia of Integer Sequences! http://oeis.org/",
	"query": "id:A093663",
	"count": 1,
	"start": 0,
	"results": [
		{
			"number": 93663,
			"data": "1,2,2,5,2,5,5,17,2,5,5,17,5,17,17,86,2,5,5,17,5,17,17,86,5,17,17,86,17,86,86,698,2,5,5,17,5,17,17,86,5,17,17,86,17,86,86,698,5,17,17,86,17,86,86,698,17,86,86,698,86,698,698,9551",
			"name": "Row sums of lower triangular matrix A093662.",
			"comment": [
				"a(n) equals the number of sequences of length A000120(n-1) that satisfy an ordering restriction (cf. A016121), where A000120(n-1) is the number of 1's in the binary expansion of n-1."
			],
			"formula": [
				"a(2^n) = A016121(n) for n\u003e=0. a(2^n+2^m) = a(2^(m+1)) for n\u003em\u003e=0.",
				"a(n) = A016121(A000120(n-1)) for n\u003e=1."
			],
			"xref": [
				"Cf. A016121, A093662, A093664.",
				"Cf. A000120."
			],
			"keyword": "nonn",
			"offset": "1,2",
			"author": "_Paul D. Hanna_, Apr 08 2004",
			"references": 2,
			"revision": 3,
			"time": "2012-03-30T18:36:40-04:00",
			"created": "2004-06-12T03:00:00-04:00"
		}
	]
}