{
	"greeting": "Greetings from The On-Line Encyclopedia of Integer Sequences! http://oeis.org/",
	"query": "id:A093722",
	"count": 1,
	"start": 0,
	"results": [
		{
			"number": 93722,
			"data": "0,1,3,7,8,14,20,29,31,42,52,66,69,85,99,118,122,143,161,185,190,216,238,267,273,304,330,364,371,407,437,476,484,525,559,603,612,658,696,745,755,806,848,902,913,969,1015,1074,1086,1147,1197,1261,1274,1340",
			"name": "Integers of the form (n^2 - 1) / 120.",
			"comment": [
				"This is \"one-fifteenth of triangular numbers (integers only)\". - _Vladimir Joseph Stephan Orlovsky_, Mar 04 2009"
			],
			"link": [
				"Harry J. Smith, \u003ca href=\"/A093722/b093722.txt\"\u003eTable of n, a(n) for n = 1..20000\u003c/a\u003e",
				"\u003ca href=\"/index/Rec#order_09\"\u003eIndex entries for linear recurrences with constant coefficients\u003c/a\u003e, signature (1,0,0,2,-2,0,0,-1,1)."
			],
			"formula": [
				"|A113430(n-1)| is the characteristic function of the numbers in A093722.",
				"a(-1 - n) = a(n). a(n) = (A057538(n) * 2 - 1) / 120.",
				"G.f. -x^2*(1+2*x+4*x^2+x^3+4*x^4+x^6+2*x^5) / ( (1+x)^2*(x^2+1)^2*(x-1)^3 ). - _R. J. Mathar_, Jun 09 2013"
			],
			"mathematica": [
				"lst={};s=0;Do[s+=n/15;If[Floor[s]==s,AppendTo[lst,s]],{n,0,7!}];lst (* _Vladimir Joseph Stephan Orlovsky_, Mar 04 2009 *)",
				"Select[Table[(n^2-1)/120,{n,0,700}],IntegerQ] (* _Harvey P. Dale_, Nov 26 2010 *)"
			],
			"program": [
				"(PARI) {a(n) = (((n\\4 * 3 + n%4) * 10 + (-1)^(n\\2))^2 - 1) / 120 } /* _Michael Somos_, Oct 17 2006 */",
				"(PARI) { for (n=0, 19999, a=(((n\\4*3 + n%4)*10 + (-1)^(n\\2))^2 - 1)/120; write(\"b093722.txt\", n+1, \" \", a); ) } \\\\ Harry J. Smith, Jun 18 2009"
			],
			"xref": [
				"Cf. A002381, A057538, A113430."
			],
			"keyword": "nonn,easy",
			"offset": "1,3",
			"author": "_Michael Somos_, Apr 13 2004",
			"ext": [
				"More terms from _Harvey P. Dale_, Nov 26 2010",
				"Offset corrected to 1 by _Ray Chandler_, Jul 29 2019"
			],
			"references": 10,
			"revision": 27,
			"time": "2019-07-30T10:58:21-04:00",
			"created": "2004-06-12T03:00:00-04:00"
		}
	]
}