{
	"greeting": "Greetings from The On-Line Encyclopedia of Integer Sequences! http://oeis.org/",
	"query": "id:A093593",
	"count": 1,
	"start": 0,
	"results": [
		{
			"number": 93593,
			"data": "1,3,15,84,660,4680,47880,463680,5261760,59875200,858211200,11256537600,183697113600,2833294464000,47730114432000,847372990464000,17250840262656000,329722245844992000,7359528574734336000",
			"name": "n! times sum of Farey fractions of order n.",
			"link": [
				"Eric Weisstein's World of Mathematics, \u003ca href=\"http://mathworld.wolfram.com/FareySequence.html\"\u003eFarey Sequence.\u003c/a\u003e."
			],
			"example": [
				"Multiplication of n-th-order positive Farey fractions by n! gives the integer sequence A002088(n), for n\u003e=1. Arrange them in rows:",
				"1",
				"1 2",
				"2 3 4 6",
				"6 8 12 16 18 24",
				"The sum over row 4 is a(4)=84."
			],
			"mathematica": [
				"Farey[n_] := Union[ Flatten[ Join[{0}, Table[a/b, {b, n}, {a, b}]]]]; Table[n!Plus @@ Farey[n], {n, 0, 20}] (* _Robert G. Wilson v_, Apr 06 2004 *)"
			],
			"xref": [
				"Cf. A002088, A092824, A093594."
			],
			"keyword": "nonn",
			"offset": "1,2",
			"author": "_Clark Kimberling_, Apr 03 2004",
			"ext": [
				"More terms from _Robert G. Wilson v_, Apr 06 2004"
			],
			"references": 2,
			"revision": 10,
			"time": "2015-07-25T01:16:35-04:00",
			"created": "2004-06-12T03:00:00-04:00"
		}
	]
}