{
	"greeting": "Greetings from The On-Line Encyclopedia of Integer Sequences! http://oeis.org/",
	"query": "id:A093198",
	"count": 1,
	"start": 0,
	"results": [
		{
			"number": 93198,
			"data": "1,11,53,164,397,819,1513,2576,4121,6275,9181,12996,17893,24059,31697,41024,52273,65691,81541,100100,121661,146531,175033,207504,244297,285779,332333,384356,442261,506475,577441,655616,741473,835499",
			"name": "Number of 4 X 4 symmetric magic squares with line sum 2n.",
			"comment": [
				"A symmetric magic square is a magic square which is a symmetric matrix. A magic square is defined here as a square matrix whose entries are nonnegative integers and whose rows, columns and main diagonals add up to the same number."
			],
			"link": [
				"Muniru A Asiru, \u003ca href=\"/A093198/b093198.txt\"\u003eTable of n, a(n) for n = 0..5000\u003c/a\u003e",
				"Matthias Beck, \u003ca href=\"https://arxiv.org/abs/math/0201013\"\u003eThe number of \"magic\" squares and hypercubes\u003c/a\u003e, arXiv:math/0201013 [math.CO], 2002-2005."
			],
			"formula": [
				"G.f.: ((1+3*x+x^2)*(1+4*x+x^2))/((1+x)*(1-x)^5)."
			],
			"maple": [
				"seq(coeff(series(((1+3*x+x^2)*(1+4*x+x^2))/((1+x)*(1-x)^5),x,n+1), x, n), n = 0 .. 40); # _Muniru A Asiru_, Feb 18 2019"
			],
			"mathematica": [
				"LinearRecurrence[{4, -5, 0, 5, -4, 1}, {1, 11, 53, 164, 397, 819}, 34] (* _Jean-François Alcover_, Feb 18 2019 *)"
			],
			"keyword": "nonn,easy",
			"offset": "0,2",
			"author": "_Ralf Stephan_, Apr 22 2004",
			"references": 1,
			"revision": 14,
			"time": "2019-02-18T04:18:49-05:00",
			"created": "2004-06-12T03:00:00-04:00"
		}
	]
}