{
	"greeting": "Greetings from The On-Line Encyclopedia of Integer Sequences! http://oeis.org/",
	"query": "id:A093786",
	"count": 1,
	"start": 0,
	"results": [
		{
			"number": 93786,
			"data": "448,576,576,630,630,720,720,960,1152,1152,1440,1440,1920,1920,2016,2016,2880,2880,5760,5760,40320,40320",
			"name": "Hook products of all partitions of 8.",
			"comment": [
				"a(n)=8!/A003872(n)"
			],
			"maple": [
				"H:=proc(pa) local F,j,p,Q,i,col,a,A: F:=proc(x) local i, ct: ct:=0: for i from 1 to nops(x) do if x[i]\u003e1 then ct:=ct+1 else fi od: ct; end: for j from 1 to nops(pa) do p[1][j]:=pa[j] od: Q[1]:=[seq(p[1][j],j=1..nops(pa))]: for i from 2 to pa[1] do for j from 1 to F(Q[i-1]) do p[i][j]:=Q[i-1][j]-1 od: Q[i]:=[seq(p[i][j],j=1..F(Q[i-1]))] od: for i from 1 to pa[1] do col[i]:=[seq(Q[i][j]+nops(Q[i])-j,j=1..nops(Q[i]))] od: a:=proc(i,j) if i\u003c=nops(Q[j]) and j\u003c=pa[1] then Q[j][i]+nops(Q[j])-i else 1 fi end: A:=matrix(nops(pa),pa[1],a): product(product(A[m,n],n=1..pa[1]),m=1..nops(pa)); end: with(combinat): rev:=proc(a) [seq(a[nops(a)+1-i],i=1..nops(a))] end: sort([seq(H(rev(partition(8)[q])),q=1..numbpart(8))]);"
			],
			"xref": [
				"Cf. A003872."
			],
			"keyword": "fini,full,nonn",
			"offset": "1,1",
			"author": "_Emeric Deutsch_, May 17 2004",
			"references": 0,
			"revision": 2,
			"time": "2012-03-30T17:35:55-04:00",
			"created": "2004-06-12T03:00:00-04:00"
		}
	]
}