{
	"greeting": "Greetings from The On-Line Encyclopedia of Integer Sequences! http://oeis.org/",
	"query": "id:A093368",
	"count": 1,
	"start": 0,
	"results": [
		{
			"number": 93368,
			"data": "0,0,1,1,3,4,9,16,31,54,105,192,364,676,1285,2417,4599",
			"name": "Number of asymmetric periodic cycles of iterative map described by Ma and Wainwright.",
			"reference": [
				"David W. Hobill and Scott MacDonald (zeened(AT)shaw.ca), Preprint, 2004.",
				"P. K-H. Ma and Wainright, A dynamical systems approach to the oscillatory singularity in Bianchi cosmologies, Relativity Today, 1994."
			],
			"link": [
				"P. K-H. Ma and Wainright, \u003ca href=\"https://doi.org/10.1007/978-1-4757-9993-4_25\"\u003eA dynamical systems approach to the oscillatory singularity in Bianchi cosmologies\u003c/a\u003e, Deterministic Chaos in General Relativity, pp. 449-462, 1994."
			],
			"xref": [
				"Cf. A093367."
			],
			"keyword": "nonn,more",
			"offset": "3,5",
			"author": "_N. J. A. Sloane_, Apr 28 2004",
			"references": 1,
			"revision": 7,
			"time": "2019-03-16T21:47:05-04:00",
			"created": "2004-06-12T03:00:00-04:00"
		}
	]
}