{
	"greeting": "Greetings from The On-Line Encyclopedia of Integer Sequences! http://oeis.org/",
	"query": "id:A093639",
	"count": 1,
	"start": 0,
	"results": [
		{
			"number": 93639,
			"data": "1,1,3,10,40,163,738,3308,15767,74784,368717,1805773,9113860,45683811,234272577,1194970083,6201864043,32034420492,167941221248,876209929880,4627819824850,24348860106096,129422692783990,685425678409977",
			"name": "Self-convolution forms A093638.",
			"formula": [
				"G.f.: A(x) = Product_{n\u003e=0} 1/(1-A093638(n)*x^(n+1))."
			],
			"xref": [
				"Cf. A093637, A093638."
			],
			"keyword": "nonn",
			"offset": "0,3",
			"author": "_Paul D. Hanna_, Apr 07 2004",
			"references": 1,
			"revision": 3,
			"time": "2012-03-30T18:36:40-04:00",
			"created": "2004-06-12T03:00:00-04:00"
		}
	]
}