{
	"greeting": "Greetings from The On-Line Encyclopedia of Integer Sequences! http://oeis.org/",
	"query": "id:A093531",
	"count": 1,
	"start": 0,
	"results": [
		{
			"number": 93531,
			"data": "3,35,693,1287,230945,96577,11700675,6678671,371255535,1204952175,74182976285,1860438674025,6771996773451,78736520890181,22884013460693,315208830571481,424299741297447197,108494411640283617,1355691431937597989,15176059956710358055",
			"name": "Denominators of the average length of a line segment picked at random in the unit n-ball for odd n.",
			"link": [
				"Eric Weisstein's World of Mathematics, \u003ca href=\"http://www.mathworld.wolfram.com/BallLinePicking.html\"\u003eBall Line Picking\u003c/a\u003e."
			],
			"example": [
				"2/3, 128/(45*Pi), 36/35, 16384/(4725*Pi), 800/693, ..."
			],
			"mathematica": [
				"B[z_, a_, b_] := z^a/a*HypergeometricPFQ[{a, 1 - b}, {a + 1}, z]; a[n_] := Integrate[ n*s^n*B[1 - s^2/4, (n + 1)/2, 1/2]/B[1, (n + 1)/2, 1/2], {s, 0, 2}]; Table[a[n], {n, 1, 21, 2}] // Denominator (* _Jean-François Alcover_, Oct 31 2012, after Maple program in A093530 *)"
			],
			"xref": [
				"Cf. A093530, A093532, A093533."
			],
			"keyword": "nonn,frac",
			"offset": "1,1",
			"author": "_Eric W. Weisstein_, Mar 30 2004",
			"ext": [
				"a(10)-a(11) from _Max Alekseyev_, Dec 12 2011",
				"a(12)-a(14) from _Robert G. Wilson v_, Nov 04 2013",
				"a(15)-a(20) from _Alois P. Heinz_, Nov 04 2013"
			],
			"references": 3,
			"revision": 21,
			"time": "2016-01-11T11:41:47-05:00",
			"created": "2004-06-12T03:00:00-04:00"
		}
	]
}