{
	"greeting": "Greetings from The On-Line Encyclopedia of Integer Sequences! http://oeis.org/",
	"query": "id:A093595",
	"count": 1,
	"start": 0,
	"results": [
		{
			"number": 93595,
			"data": "9,15,11340,278775,16247385,37139825022300,7581939039675,76731473729479944375,3915591422490399696806136375,381397512477801513050979496875,16227546388799797830522276658125",
			"name": "a(n) = numerator of Sum_{k in A030059} 1/k^(2n).",
			"comment": [
				"See the Hardy reference, p. 65, fourth formula (with a misprint corrected), and the Weisstein link, eqs. (25)-(31). - _Wolfdieter Lang_, Oct 18 2016"
			],
			"reference": [
				"G. H. Hardy, Ramanujan, AMS Chelsea Publishing, 2002, pp. 64 - 65, (misprint on p.65, line starting with Hence: it should be ... -1/Zeta(s) not ... -Zeta(s))."
			],
			"link": [
				"Eric Weisstein's World of Mathematics, \u003ca href=\"http://mathworld.wolfram.com/PrimeSums.html\"\u003ePrime Sums\u003c/a\u003e"
			],
			"formula": [
				"Numerator of (zeta(2n)^2-zeta(4n))/(2zeta(2n)zeta(4n))."
			],
			"example": [
				"9/(2*Pi^2), 15/(2*Pi^4), 11340/(691*Pi^6), 278775/(7234*Pi^8), ..."
			],
			"xref": [
				"Cf. A030059, A093596 (denominators)."
			],
			"keyword": "nonn,easy,frac",
			"offset": "1,1",
			"author": "_Eric W. Weisstein_, Apr 03 2004",
			"references": 1,
			"revision": 9,
			"time": "2016-10-18T05:20:15-04:00",
			"created": "2004-06-12T03:00:00-04:00"
		}
	]
}