{
	"greeting": "Greetings from The On-Line Encyclopedia of Integer Sequences! http://oeis.org/",
	"query": "id:A094757",
	"count": 1,
	"start": 0,
	"results": [
		{
			"number": 94757,
			"data": "1,2,3,2,5,2,7,2,9,10,11,12,13,14,10,16,17,18,19,10,21,22,23,16,25,26,27,28,29,27,31,32,27,34,35,36,37,38,39,40,41,42,43,44,45,46,47,48,49,40,51,52,53,54,55,56,57,58,59,60,61,62,56,64,65,66,67,68,69,70,71,72",
			"name": "Least positive k \u003c= n such that n*pi(k) = k*pi(n), where pi(n) is the number of primes \u003c= n (A000720).",
			"comment": [
				"Conjecture: For every n there exists a k different from n (possibly k \u003e n) such that n*pi(k) = k*pi(n).",
				"From _David A. Corneth_, Nov 15 2019: (Start)",
				"If n*pi(k) = k*pi(n) then n/pi(n) = k/pi(k). So to find terms, one can make a list of pairs (k/pi(k), k) and sort them.",
				"Then if for two such pairs (m/pi(m), m) and (k/pi(k), k), m \u003e k have the same first element, i.e., m/pi(m) = k/pi(k) then a(m) = k for the least k with that ratio.",
				"_Amarnath Murthy_'s conjecture above is false. For n = 3 we have pi(n)/n = 2/3. For no other k we have pi(k)/k = 2/3. Therefore the conjecture is false. (End)"
			],
			"link": [
				"David A. Corneth, \u003ca href=\"/A094757/b094757.txt\"\u003eTable of n, a(n) for n = 1..10007\u003c/a\u003e"
			],
			"example": [
				"a(15) = 10 as 15*pi(10) = 15*4 = 60 = 10*pi(15) = 10*6.",
				"For k in {2, 4, 6, 8} we have pi(k)/k = 1/2 and for no k \u003c 2 this holds. So for all these values a(k) = 2. - _David A. Corneth_, Nov 15 2019"
			],
			"mathematica": [
				"Table[SelectFirst[Range[n], n PrimePi[#] == # PrimePi[n] \u0026], {n, 72}] (* _Michael De Vlieger_, Dec 14 2019 *)"
			],
			"program": [
				"(PARI) {m=72;pi=vector(m,n,omega(n!));for(n=1,m,k=1;while(n*pi[k]!=k*pi[n],k++);print1(k,\",\"))}",
				"(PARI) first(n) = {n = nextprime(n); my(v = vector(n), t = -1, q = 1, res = vector(n), m); v[1] = [0, 1]; v[2] = [1/2, 2]; forprime(p = 2, n, t++; for(c = q, p - 1, v[c] = [t/c, c]; ); q = p ); v[n] = [t/n,n]; v = vecsort(v); res[1] = 1; for(i = 2, #v, if(v[i-1][1] != v[i][1], m = v[i][2]; ); res[v[i][2]] = m ); res } \\\\ _David A. Corneth_, Nov 15 2019"
			],
			"xref": [
				"Cf. A095299 for n such that a(n) \u003c n.",
				"Cf. A000720, A094758, A094759."
			],
			"keyword": "nonn,easy",
			"offset": "1,2",
			"author": "_Amarnath Murthy_, May 30 2004",
			"ext": [
				"Edited and extended by _Klaus Brockhaus_, Jun 01 2004"
			],
			"references": 4,
			"revision": 23,
			"time": "2019-12-17T09:43:10-05:00",
			"created": "2004-06-12T03:00:00-04:00"
		}
	]
}