{
	"greeting": "Greetings from The On-Line Encyclopedia of Integer Sequences! http://oeis.org/",
	"query": "id:A094425",
	"count": 1,
	"start": 0,
	"results": [
		{
			"number": 94425,
			"data": "5,6,17,31,33,63,127,129,171,257,511,683,2047,2731,2979,3277,3641,8191,28197,43691,48771,52429,61681,65537,85489,131071",
			"name": "Numbers n such that F_n(x) and F_n(1-x) have a common factor mod 2, with F_n(x) = U(n-1,x/2) the monic Chebyshev polynomials of second kind; this lists only the primitive elements of the set.",
			"comment": [
				"Klaus Sutner, Jun 26 2006, remarks that it can be shown that this sequence is infinite."
			],
			"reference": [
				"Dieter Gebhardt, \"Cross pattern puzzles revisited,\" Cubism For Fun 69 (March 2006), 23-25."
			],
			"link": [
				"K. Sutner, \u003ca href=\"http://dx.doi.org/10.1007/BF03023823\"\u003eLinear cellular automata and the Garden-of-Eden\u003c/a\u003e, Math. Intelligencer, 11 (No. 2, 1989), 49-53.",
				"K. Sutner, \u003ca href=\"http://dx.doi.org/10.1007/3-540-51498-8_44\"\u003eThe computational complexity of cellular automata\u003c/a\u003e, in Lect. Notes Computer Sci., 380 (1989), 451-459.",
				"K. Sutner, \u003ca href=\"http://dx.doi.org/10.1016/S0304-3975(97)00242-9\"\u003esigma-Automata and Chebyshev-polynomials\u003c/a\u003e, Theoretical Comp. Sci., 230 (2000), 49-73.",
				"M. Hunziker, A. Machiavelo and J. Park, \u003ca href=\"http://dx.doi.org/10.1016/j.tcs.2004.03.031\"\u003eChebyshev polynomials over finite fields and reversibility of sigma-automata on square grids\u003c/a\u003e, Theoretical Comp. Sci., 320 (2004), 465-483.",
				"Eric Weisstein's World of Mathematics, \u003ca href=\"http://mathworld.wolfram.com/LightsOutPuzzle.html\"\u003eLights-Out Puzzle\u003c/a\u003e"
			],
			"xref": [
				"Cf. A093614 (all elements), A076436."
			],
			"keyword": "nonn,hard,more",
			"offset": "1,1",
			"author": "_Ralf Stephan_, May 22 2004",
			"ext": [
				"Gebhardt and Sutner references from _Don Knuth_, May 11 2006"
			],
			"references": 2,
			"revision": 15,
			"time": "2014-05-21T23:42:00-04:00",
			"created": "2004-06-12T03:00:00-04:00"
		}
	]
}