{
	"greeting": "Greetings from The On-Line Encyclopedia of Integer Sequences! http://oeis.org/",
	"query": "id:A094653",
	"count": 1,
	"start": 0,
	"results": [
		{
			"number": 94653,
			"data": "1,1,1,5,32,343,4505,66603,1045335,17115162,289107854,5007144433,88516438360,1591949961503,29053438148676,536972307386326,10034276171127780,189331187319203010,3603141751525175854,69097496637591215442,1334213677527481808220,25922717218623692348237",
			"name": "Number of unlabeled 9-gonal 2-trees with n 9-gons.",
			"link": [
				"Andrew Howroyd, \u003ca href=\"/A094653/b094653.txt\"\u003eTable of n, a(n) for n = 0..200\u003c/a\u003e",
				"G. Labelle, C. Lamathe and P. Leroux, \u003ca href=\"http://arXiv.org/abs/math.CO/0312424\"\u003eLabeled and unlabeled enumeration of k-gonal 2-trees\u003c/a\u003e, arXiv:math/0312424 [math.CO], Dec 23 2003."
			],
			"xref": [
				"Column k=9 of A340811.",
				"Cf. A054581."
			],
			"keyword": "nonn",
			"offset": "0,4",
			"author": "_Vladeta Jovovic_, Jun 06 2004",
			"ext": [
				"Terms a(19) and beyond from _Andrew Howroyd_, Feb 02 2021"
			],
			"references": 2,
			"revision": 6,
			"time": "2021-02-02T19:47:37-05:00",
			"created": "2004-06-12T03:00:00-04:00"
		}
	]
}