{
	"greeting": "Greetings from The On-Line Encyclopedia of Integer Sequences! http://oeis.org/",
	"query": "id:A094153",
	"count": 1,
	"start": 0,
	"results": [
		{
			"number": 94153,
			"data": "7,0,2,43,11,13,31,149,347,23,439,223,461,173,5,71,197,1153,191,307,1657,971,9473,19,2399,1607,6781,89,9187,281,23623,15077,25579,17203",
			"name": "a(n) is least prime p such that 7 is the n-th term in the Euclid-Mullin sequence starting at p, or 0 if no such prime p exists.",
			"comment": [
				"The sequence is not monotonic. Compare to A093882.",
				"Next term exceeds 50000. - _Sean A. Irvine_, Jan 12 2012"
			],
			"example": [
				"a(5)=11 because p=7 first arises in EM at position 5, which is initiated with 11: {11,2,23,3,7,10627,433}; see A051309."
			],
			"xref": [
				"Cf. A000945, A051308-A051334, A056756, A093777-A093783."
			],
			"keyword": "more,nonn",
			"offset": "1,1",
			"author": "_Labos Elemer_, May 05 2004",
			"ext": [
				"Definition clarified, terms corrected and extended by _Sean A. Irvine_, Apr 15 2011",
				"More terms from _Sean A. Irvine_, May 22 2011",
				"25579 and 17203 from _Sean A. Irvine_, Jan 11 2012"
			],
			"references": 4,
			"revision": 14,
			"time": "2015-03-02T02:58:56-05:00",
			"created": "2004-06-12T03:00:00-04:00"
		}
	]
}