{
	"greeting": "Greetings from The On-Line Encyclopedia of Integer Sequences! http://oeis.org/",
	"query": "id:A094713",
	"count": 1,
	"start": 0,
	"results": [
		{
			"number": 94713,
			"data": "0,1,0,0,1,0,1,1,0,1,0,0,2,1,0,1,2,1,1,0,1,0,2,3,1,3,0,2,1,2,0,3,2,2,3,0,1,1,0,3,3,2,0,1,2,0,2,0,3,2,3,0,3,4,4,0,5,0,1,5,2,4,2,0,2,2,2,2,3,3,4,0,0,2,2,0,5,1,5,4,5,2,0,3,0,3,5,2,7,0,4,0,0,5,2,0,7,8,3,2,2,4,5,8,3",
			"name": "Number of ways that prime(n) can be represented as a^2+b^2+c^2 with c \u003e= b \u003e= a \u003e 0.",
			"link": [
				"T. D. Noe, \u003ca href=\"/A094713/b094713.txt\"\u003eTable of n, a(n) for n=1..10000\u003c/a\u003e"
			],
			"example": [
				"a(13) = 2 because prime(13) = 41 = 1+4+36 = 9+16+16."
			],
			"mathematica": [
				"lim=25; pLst=Table[0, {PrimePi[lim^2]}]; Do[n=a^2+b^2+c^2; If[n\u003clim^2 \u0026\u0026 PrimeQ[n], pLst[[PrimePi[n]]]++ ], {a, lim}, {b, a, Sqrt[lim^2-a^2]}, {c, b, Sqrt[lim^2-a^2-b^2]}; pLst",
				"Table[Count[PowersRepresentations[Prime[n],3,2], _?(Min[#]\u003e0\u0026)],{n,110}]  (* _Harvey P. Dale_, Feb 17 2011 *)"
			],
			"xref": [
				"Cf. A085317 (primes that are the sum of three positive squares), A094712 (primes that are not the sum of three positive squares), A094714 (least prime having exactly n representations as the sum of three positive squares)."
			],
			"keyword": "nonn",
			"offset": "1,13",
			"author": "_T. D. Noe_, May 21 2004",
			"references": 3,
			"revision": 12,
			"time": "2013-11-21T12:48:19-05:00",
			"created": "2004-06-12T03:00:00-04:00"
		}
	]
}