{
	"greeting": "Greetings from The On-Line Encyclopedia of Integer Sequences! http://oeis.org/",
	"query": "id:A094996",
	"count": 1,
	"start": 0,
	"results": [
		{
			"number": 94996,
			"data": "1,1,1,1,1,1,1,2,2,2,2,3,3,3,4,4,5,5,6,7,8,9,10,11,12,13,15,17,19,21,23,26,29,32,35,39,44,49,54,60,67,75,83,92,103,114,127,141,157,174,194,215,239,266,295,328,365,405,450,500,556,618,687,763,848,942,1047,1163",
			"name": "a(n) = floor(10^n/9^n).",
			"link": [
				"Vincenzo Librandi, \u003ca href=\"/A094996/b094996.txt\"\u003eTable of n, a(n) for n = 0..1000\u003c/a\u003e"
			],
			"mathematica": [
				"Table[ Floor[(10/9)^n], {n, 0, 67}]"
			],
			"program": [
				"(MAGMA) [Floor(10^n / 9^n): n in [0..70]]; // _Vincenzo Librandi_, Sep 09 2011",
				"(Maxima) A094996(n):=floor(10^n/9^n)$ makelist(A094996(n),n,0,60); /* _Martin Ettl_, Oct 25 2012 */",
				"(PARI) a(n) = 10^n\\9^n; \\\\ _Altug Alkan_, Sep 08 2018"
			],
			"xref": [
				"Cf. A002379, A094969-A094500."
			],
			"keyword": "nonn,easy",
			"offset": "0,8",
			"author": "_Robert G. Wilson v_, May 26 2004",
			"references": 1,
			"revision": 15,
			"time": "2018-09-08T21:12:09-04:00",
			"created": "2004-06-12T03:00:00-04:00"
		}
	]
}