{
	"greeting": "Greetings from The On-Line Encyclopedia of Integer Sequences! http://oeis.org/",
	"query": "id:A094120",
	"count": 1,
	"start": 0,
	"results": [
		{
			"number": 94120,
			"data": "0,1,0,0,4,9,12,16,12,9,4,0,0,1,0,0,16,33,48,64,84,105,124,144,156,169,180,192,208,225,240,256,240,225,208,192,180,169,156,144,124,105,84,64,48,33,16,0,0,1,0,0,4,9,12,16,12,9,4,0,0,1,0,0,64,129,192,256,324,393",
			"name": "a(n)=sum(k=1,n,sum(i=1,k,(-2)^valuation(i,2))).",
			"program": [
				"(PARI) a(n)=sum(k=1,n,sum(i=1,k,(-2)^valuation(i,2)))"
			],
			"xref": [
				"Cf. A006519."
			],
			"keyword": "nonn",
			"offset": "1,5",
			"author": "_Benoit Cloitre_, May 03 2004",
			"references": 0,
			"revision": 5,
			"time": "2012-03-30T18:39:22-04:00",
			"created": "2004-06-12T03:00:00-04:00"
		}
	]
}