{
	"greeting": "Greetings from The On-Line Encyclopedia of Integer Sequences! http://oeis.org/",
	"query": "id:A094326",
	"count": 1,
	"start": 0,
	"results": [
		{
			"number": 94326,
			"data": "11111111,1000,22,20,13,12,11,10,8,8,8,8,8,8,8,8,8,8,8,8,8,8,8,8,8,8,8,8,8,8,8,8,8,8,8,8,8,8,8,8,8,8,8,8,8,8,8,8,8,8,8,8,8,8,8,8,8,8,8,8,8,8,8,8,8,8,8,8,8,8,8,8,8,8,8,8,8,8,8,8,8,8,8,8,8,8,8,8,8,8,8",
			"name": "a(n) = 8 written in base n.",
			"comment": [
				"The term 111....1111 should officially be called the \"unary expansion\", since in base 1 only the digit 0 may appear."
			],
			"xref": [
				"Cf. A001732, A063432, A035613, A094324-A094327, A094232, etc."
			],
			"keyword": "nonn,base",
			"offset": "1,1",
			"author": "_N. J. A. Sloane_, Jun 04 2004",
			"references": 1,
			"revision": 3,
			"time": "2012-03-30T16:49:56-04:00",
			"created": "2004-06-12T03:00:00-04:00"
		}
	]
}