{
	"greeting": "Greetings from The On-Line Encyclopedia of Integer Sequences! http://oeis.org/",
	"query": "id:A094421",
	"count": 1,
	"start": 0,
	"results": [
		{
			"number": 94421,
			"data": "13,74,219,484,905,1518,2359,3464,4869,6610,8723,11244,14209,17654,21615,26128,31229,36954,43339,50420,58233,66814,76199,86424,97525,109538,122499,136444,151409,167430,184543,202784,222189,242794",
			"name": "a(n) = n * (6*n^2 + 6*n + 1).",
			"comment": [
				"Third column of array A094416."
			],
			"link": [
				"G. C. Greubel, \u003ca href=\"/A094421/b094421.txt\"\u003eTable of n, a(n) for n = 1..1000\u003c/a\u003e",
				"\u003ca href=\"/index/Rec#order_04\"\u003eIndex entries for linear recurrences with constant coefficients\u003c/a\u003e, signature (4,-6,4,-1)."
			],
			"formula": [
				"Equals n * A003154(n) (star numbers).",
				"G.f.: x*(13 + 22*x + x^2)/(1-x)^4. - _Colin Barker_, Aug 02 2012",
				"E.g.f.: x*(13 + 24*x + 6*x^2)*exp(x). - _G. C. Greubel_, Oct 30 2019"
			],
			"maple": [
				"A094421:=n-\u003en * (6*n^2 + 6*n + 1); seq(A094421(n), n=1..40); # _Wesley Ivan Hurt_, Feb 12 2014"
			],
			"mathematica": [
				"Table[n(6n^2+6n+1), {n, 40}] (* _Wesley Ivan Hurt_, Feb 12 2014 *)",
				"LinearRecurrence[{4,-6,4,-1},{13,74,219,484},40] (* _Harvey P. Dale_, Jan 04 2016 *)"
			],
			"program": [
				"(PARI) vector(40, n, n*(6*n^2+6*n+1)) \\\\ _G. C. Greubel_, Oct 30 2019",
				"(MAGMA) [n*(6*n^2+6*n+1): n in [1.40]]; // _G. C. Greubel_, Oct 30 2019",
				"(Sage) [n*(6*n^2+6*n+1) for n in (1..40)] # _G. C. Greubel_, Oct 30 2019",
				"(GAP) List([1..40], n-\u003e n*(6*n^2+6*n+1)); # _G. C. Greubel_, Oct 30 2019"
			],
			"keyword": "nonn,easy",
			"offset": "1,1",
			"author": "_Ralf Stephan_, May 02 2004",
			"references": 2,
			"revision": 20,
			"time": "2019-10-30T15:17:38-04:00",
			"created": "2004-06-12T03:00:00-04:00"
		}
	]
}