{
	"greeting": "Greetings from The On-Line Encyclopedia of Integer Sequences! http://oeis.org/",
	"query": "id:A094033",
	"count": 1,
	"start": 0,
	"results": [
		{
			"number": 94033,
			"data": "0,0,0,3,18,75,270,903,2898,9075,27990,85503,259578,784875,2366910,7125303,21425058,64373475,193317030,580344303,1741819338,5227030875,15684238350,47059006503,141189602418,423593973075,1270832250870",
			"name": "Number of connected 2-element antichains on a labeled n-set.",
			"comment": [
				"Let P(A) be the power set of an n-element set A. Then a(n+1) = the number of pairs of elements {x,y} of P(A) for which either 0) x and y are disjoint and for which x is not a subset of y and y is not a subset of x, or 1) x and y are intersecting and for which either x is a proper subset of y or y is a proper subset of x. - _Ross La Haye_, Jan 10 2008"
			],
			"link": [
				"G. C. Greubel, \u003ca href=\"/A094033/b094033.txt\"\u003eTable of n, a(n) for n = 0..1000\u003c/a\u003e",
				"Ross La Haye, \u003ca href=\"https://cs.uwaterloo.ca/journals/JIS/VOL12/LaHaye/lahaye5.html\"\u003eBinary Relations on the Power Set of an n-Element Set\u003c/a\u003e, Journal of Integer Sequences, Vol. 12 (2009), Article 09.2.6.",
				"Adam Roman, Igor T. Podolak and Agnieszka Deszynska, \u003ca href=\"https://www.ejournals.eu/sj/index.php/SI/article/view/2227\"\u003eOn the number of clusterings in a hierarchical classification model with overlapping clusters\u003c/a\u003e, Schedae Informaticae, Volume 20, 2011."
			],
			"formula": [
				"a(n) = 3 * A000392(n).",
				"E.g.f.: (exp(3*x)-3*exp(2*x)+3*exp(x)-1)/2!.",
				"From _Colin Barker_, Mar 31 2012: (Start)",
				"a(n) = (3^n-3*2^n+3)/2.",
				"a(n) = 6*a(n-1) - 11*a(n-2) + 6*a(n-3).",
				"G.f.: 3*x^3/((1-x)*(1-2*x)*(1-3*x)). (End)"
			],
			"maple": [
				"[seq(stirling2(n,3)*3,n=0..26)]; # _Zerinvary Lajos_, Dec 06 2006"
			],
			"mathematica": [
				"Table[3 StirlingS2[n, 3], {n, 0, 26}] (* _Michael De Vlieger_, Nov 30 2015 *)"
			],
			"program": [
				"(PARI) x='x+O('x^50); concat([0,0,0],Vec(serlaplace((exp(3*x)-3*exp(2*x)+3*exp(x)-1)/2!))) \\\\ _G. C. Greubel_, Oct 06 2017"
			],
			"xref": [
				"Cf. A016269, A047707.",
				"Cf. A051112, A051113, A051114, A051115, A051116, A051117, A051118.",
				"Cf. A094034, A094035, A094036, A094037."
			],
			"keyword": "nonn",
			"offset": "0,4",
			"author": "Goran Kilibarda, _Vladeta Jovovic_, Apr 22 2004",
			"references": 16,
			"revision": 39,
			"time": "2020-08-17T07:32:06-04:00",
			"created": "2004-06-12T03:00:00-04:00"
		}
	]
}