{
	"greeting": "Greetings from The On-Line Encyclopedia of Integer Sequences! http://oeis.org/",
	"query": "id:A094100",
	"count": 1,
	"start": 0,
	"results": [
		{
			"number": 94100,
			"data": "1,-2,9,-64,560,-5370,53788,-555864",
			"name": "Fit a polynomial of degree k-1 to column k of array in A048790, evaluate it at dimension n = -1.",
			"comment": [
				"Might be thought of as number of rooted (-1)-dimensional \"polycubes\" with n cells, with no symmetries removed."
			],
			"reference": [
				"Dan Hoey, Bill Gosper and Richard C. Schroeppel, Discussions in Math-Fun Mailing list, circa Jul 13 1999."
			],
			"link": [
				"R. C. Schroeppel, \u003ca href=\"http://www.experimentalmath.info/workshop2004/schroeppel-talk.pdf\"\u003eA few mathematical experiments\u003c/a\u003e"
			],
			"xref": [
				"Cf. A094101, A048663-A048868."
			],
			"keyword": "sign",
			"offset": "1,2",
			"author": "_Dan Hoey_",
			"references": 2,
			"revision": 7,
			"time": "2017-09-21T09:03:18-04:00",
			"created": "2004-06-12T03:00:00-04:00"
		}
	]
}