{
	"greeting": "Greetings from The On-Line Encyclopedia of Integer Sequences! http://oeis.org/",
	"query": "id:A094358",
	"count": 1,
	"start": 0,
	"results": [
		{
			"number": 94358,
			"data": "1,3,5,15,17,51,85,255,257,641,771,1285,1923,3205,3855,4369,9615,10897,13107,21845,32691,54485,65535,65537,114689,163455,164737,196611,274177,319489,327685,344067,494211,573445,822531,823685,958467,974849,983055",
			"name": "Squarefree products of factors of Fermat numbers (A023394).",
			"comment": [
				"641 is the first member not in sequences A001317, A004729, etc.",
				"Conjectured (by Munafo, see link) to be the same as: numbers n such that 2^^n == 1 mod n, where 2^^n is A014221(n).",
				"It is clear from the observations by _Max Alekseyev_ in A023394 and the Chinese remainder theorem that any squarefree product b of divisors of Fermat numbers satisfies 2^(2^b) == 1 (mod b), hence satisfies Munafo's congruence above. The converse is true iff all Fermat numbers are squarefree. However, if nonsquarefree Fermat numbers exist, the criterion that is equivalent with Munafo's property would be \"numbers b such that each prime power that divides b also divides some Fermat number\". - _Jeppe Stig Nielsen_, Mar 05 2014",
				"Also numbers b such that b is (squarefree and) a divisor of A051179(m) for some m. Or odd (squarefree) b where the multiplicative order of 2 mod b is a power of two. - _Jeppe Stig Nielsen_, Mar 07 2014"
			],
			"link": [
				"Robert G. Wilson v, T. D. Noe and Ray Chandler, \u003ca href=\"/A094358/b094358.txt\"\u003eTable of n, a(n) for n = 1..3393\u003c/a\u003e (Original 55 terms from Robert G. Wilson, extended to 1314 terms from T. D. Noe)",
				"Sourangshu Ghosh and Pranjal Jain, \u003ca href=\"https://www.researchgate.net/publication/350605122_On_Fermat_Numbers_and_Munafo%27s_Conjecture\"\u003eOn Fermat Numbers and Munafo's Conjecture\u003c/a\u003e, (2021).",
				"R. Mestrovic, \u003ca href=\"http://arxiv.org/abs/1202.3670\"\u003eEuclid's theorem on the infinitude of primes: a historical survey of its proofs (300 BC--2012) and another new proof\u003c/a\u003e, arXiv preprint arXiv:1202.3670 [math.HO], 2012-2018. - From _N. J. A. Sloane_, Jun 13 2012",
				"Robert Munafo, \u003ca href=\"http://mrob.com/pub/seq/a094358.html\"\u003eSequence A094358, 2^^A(N) = 1 mod N\u003c/a\u003e"
			],
			"example": [
				"3 is a term because it is in A023394.",
				"51 is a term because it is 3*17 and 17 is also in A023394.",
				"153 = 3*3*17 is not a term because its factorization includes two 3's.",
				"See the Munafo link for examples of the (conjectured) 2^^n == 1 (mod n) property."
			],
			"mathematica": [
				"kmax = 10^6;",
				"A023394 = Select[Prime[Range[kmax]], IntegerQ[Log[2, MultiplicativeOrder[2, #] ] ]\u0026];",
				"Reap[For[k = 1, k \u003c= kmax, k++, ff = FactorInteger[k]; If[k == 1 || AllTrue[ff, MemberQ[A023394, #[[1]]] \u0026\u0026 #[[2]] == 1 \u0026], Print[k]; Sow[k]]]][[2, 1]] (* _Jean-François Alcover_, Nov 03 2018 *)"
			],
			"program": [
				"(PARI) (  isOK1(n) = n%2==1 \u0026\u0026 hammingweight(znorder(Mod(2,n)))==1  ) ;  (  isOK2(n) = issquarefree(n) \u0026\u0026 isOK1(n)  )  \\\\ isOK1 and isOK2 differ only if n contains a squared prime that divides a Fermat number (none are known) \\\\ _Jeppe Stig Nielsen_, Apr 02 2014"
			],
			"xref": [
				"Cf. A023394, A014221, A092188, A001317, A004729."
			],
			"keyword": "nonn",
			"offset": "1,2",
			"author": "_Robert Munafo_, Apr 26 2004",
			"ext": [
				"Edited by _T. D. Noe_, Feb 02 2009",
				"Example brought in line with name/description by _Robert Munafo_, May 18 2011"
			],
			"references": 12,
			"revision": 61,
			"time": "2021-11-06T02:24:40-04:00",
			"created": "2004-06-12T03:00:00-04:00"
		}
	]
}