{
	"greeting": "Greetings from The On-Line Encyclopedia of Integer Sequences! http://oeis.org/",
	"query": "id:A094144",
	"count": 1,
	"start": 0,
	"results": [
		{
			"number": 94144,
			"data": "5,7,15,17,19,51,73,89,131,153,245,333,441,463,825,1771,2027,9157,10875,20515",
			"name": "Numbers n such that n!! - 2 is prime.",
			"comment": [
				"a(21) \u003e 50000. - _Robert Price_, Apr 14 2015"
			],
			"link": [
				"C. K. Caldwell, The Prime Glossary, \u003ca href=\"http://primes.utm.edu/glossary/page.php/MultifactorialPrime.html\"\u003emultifactorial prime\u003c/a\u003e",
				"C. Caldwell and H. Dubner (Eds): \u003ca href=\"http://primes.utm.edu/lists/top_ten/\"\u003eThe top ten prime numbers: from the unpublished collections of R. Ondrejka\u003c/a\u003e (May 2001), Table 21 F, p. 75",
				"Ken Davis, \u003ca href=\"http://mfprimes.free-dc.org\"\u003eStatus of Search for Multifactorial Primes\u003c/a\u003e.",
				"Joe McLean, \u003ca href=\"http://web.archive.org/web/20091027034731/http://uk.geocities.com/nassarawa%40btinternet.com/probprim2.htm\"\u003eInteresting Sources of Probable Primes\u003c/a\u003e"
			],
			"mathematica": [
				"Select[Range[0, 50000], PrimeQ[#!! - 2] \u0026] (* _Robert Price_, Apr 14 2014 *)"
			],
			"xref": [
				"Cf. A076185."
			],
			"keyword": "nonn",
			"offset": "1,1",
			"author": "_Lekraj Beedassy_, May 04 2004",
			"ext": [
				"Corrected by _Robert G. Wilson v_, May 05 2004",
				"More terms from Herman Jamke (hermanjamke(AT)fastmail.fm), Jan 03 2008"
			],
			"references": 17,
			"revision": 14,
			"time": "2017-03-11T21:17:15-05:00",
			"created": "2004-06-12T03:00:00-04:00"
		}
	]
}