{
	"greeting": "Greetings from The On-Line Encyclopedia of Integer Sequences! http://oeis.org/",
	"query": "id:A094875",
	"count": 1,
	"start": 0,
	"results": [
		{
			"number": 94875,
			"data": "1,1,0,0,0,1,0,0,0,0,0,0,0,0,0,0,0,0,0,0,0,0,0,0,0,0,0,0,0,0,0,0,0,0,0,0,0,1,0,0,0,0,0,0,0,0,0,0,0,0,0,0,0,0,0,0,0,0,0,0,0,0,0,0,0,0,0,0,0,0,0,0,0,0,0,0,0,0,0,0,0,0,0,0,0,0,0,0,0,0,0,0,0,0,0,0,0,0,0,0",
			"name": "a(n)=1 if floor(Pi*10^n) is prime, otherwise a(n)=0.",
			"example": [
				"a(0)=1 because 3 is prime,",
				"a(2)=0 because 314 is divided by 2",
				"a(5)=1 because 314159 is prime",
				"a(13)=0 because 31415926535897 is divided by 163"
			],
			"program": [
				"(PARI) \\p 120 a=vector(100);v=1;for(i=1,100,a[i]=isprime(floor(Pi*v));v=v*10)"
			],
			"xref": [
				"Cf. A089281, A000796, A010051."
			],
			"keyword": "nonn",
			"offset": "0,1",
			"author": "Frederic E.D. Michaud (famillesmichaud(AT)hotmail.com), Jun 16 2004",
			"ext": [
				"More terms from _Johan Claes_, Jun 16 2004"
			],
			"references": 0,
			"revision": 3,
			"time": "2012-03-31T20:25:00-04:00",
			"created": "2004-09-22T03:00:00-04:00"
		}
	]
}