{
	"greeting": "Greetings from The On-Line Encyclopedia of Integer Sequences! http://oeis.org/",
	"query": "id:A094840",
	"count": 1,
	"start": 0,
	"results": [
		{
			"number": 94840,
			"data": "1,1,1,1,2,1,2,1,1,2,2,1,2,2,2,1,2,1,1,2,3,1,2,1,1,2,2,1,2,1,2,3,1,1,2,2,2,1,1,2,2,1,2,2,2,1,2,1,1,2,3,1,2,1,1,2,2,1,2,1,2,2,3,1,2,1,1,2,2,1,2,1,2,3,1,1,2,2,2,1,1,2,2,1,2,2,2,1,2,1,1,2,3,1,2,1,1,2,2,1",
			"name": "a(1) = 1; for n \u003e 1, a(n) = curling number of (b(1),...,b(n-1)), where b() = Linus sequence A006345.",
			"comment": [
				"The curling number of a finite string S = (s(1),...,s(n)) is the largest integer k such that S can be written as xy^k for strings x and y (where y has positive length)."
			],
			"link": [
				"F. J. van de Bult, D. C. Gijswijt, J. P. Linderman, N. J. A. Sloane and Allan Wilks, \u003ca href=\"http://www.cs.uwaterloo.ca/journals/JIS/index.html\"\u003eA Slow-Growing Sequence Defined by an Unusual Recurrence\u003c/a\u003e, J. Integer Sequences, Vol. 10 (2007), #07.1.2.",
				"F. J. van de Bult, D. C. Gijswijt, J. P. Linderman, N. J. A. Sloane and Allan Wilks, A Slow-Growing Sequence Defined by an Unusual Recurrence [\u003ca href=\"http://neilsloane.com/doc/gijs.pdf\"\u003epdf\u003c/a\u003e, \u003ca href=\"http://neilsloane.com/doc/gijs.ps\"\u003eps\u003c/a\u003e].",
				"\u003ca href=\"/index/Cu#curling_numbers\"\u003eIndex entries for sequences related to curling numbers\u003c/a\u003e"
			],
			"maple": [
				"fd := fopen(\"b006345.txt\",READ) : a006345 := [] : bf := fscanf(fd,\"%d %d\") : while nops(bf) \u003c\u003e 0 do a006345 := [op(a006345), op(2,bf) ] ; bf := fscanf(fd,\"%d %d\") ; od: curlN := proc(L) local a,k,klen,Llen,y ; a := 1 ; Llen := nops(L) ; for klen from 1 to floor(Llen/2) do y := op(Llen-klen+1..Llen,L) ; for k from 2 to floor(Llen/klen) do if op(Llen-k*klen+1..Llen-(k-1)*klen,L) = y then if k \u003e a then a := k ; fi ; else break ; fi ; od: od: RETURN(a) ; end: A094840 := proc(n) global a006345 ; if n = 1 then 1; else curlN( [op(1..n-1,a006345)] ) ; fi ; end: for n from 1 to 100 do printf(\"%d, \",A094840(n)) ; od: # _R. J. Mathar_, Dec 07 2007"
			],
			"xref": [
				"Cf. A090822, A006345, A093921, A093914.",
				"Cf. A006345."
			],
			"keyword": "nonn",
			"offset": "1,5",
			"author": "_N. J. A. Sloane_, May 26 2004",
			"references": 2,
			"revision": 13,
			"time": "2015-08-08T20:14:59-04:00",
			"created": "2004-09-22T03:00:00-04:00"
		}
	]
}