{
	"greeting": "Greetings from The On-Line Encyclopedia of Integer Sequences! http://oeis.org/",
	"query": "id:A095805",
	"count": 1,
	"start": 0,
	"results": [
		{
			"number": 95805,
			"data": "0,1,1,5,11,11,45,45,181,181,181,181,181,181,11585,11585,11585,92681,185363,370727,741455,741455,741455,5931641,11863283,11863283,11863283,94906265,189812531,189812531,189812531,1518500249",
			"name": "Reduced numerators in Wolfram's iteration for sqrt(2).",
			"link": [
				"Eric Weisstein's World of Mathematics, \u003ca href=\"http://mathworld.wolfram.com/WolframsIteration.html\"\u003eWolfram's Iteration\u003c/a\u003e"
			],
			"example": [
				"0, 1, 1, 5/4, 11/8, 11/8, 45/32, 45/32, 181/128, 181/128, 181/128, ..."
			],
			"xref": [
				"Cf. A095806."
			],
			"keyword": "nonn,frac",
			"offset": "0,4",
			"author": "_Eric W. Weisstein_, Jun 07 2004",
			"references": 1,
			"revision": 5,
			"time": "2015-08-15T13:34:46-04:00",
			"created": "2004-06-12T03:00:00-04:00"
		}
	]
}