{
	"greeting": "Greetings from The On-Line Encyclopedia of Integer Sequences! http://oeis.org/",
	"query": "id:A095068",
	"count": 1,
	"start": 0,
	"results": [
		{
			"number": 95068,
			"data": "1,0,1,0,1,3,3,8,8,22,37,69,125,238,449,831,1545,3004,5597,10760,20524,39321,74899,143666,276562,533106,1025445,1979842,3824893,7394481,14325045,27772689,53894448",
			"name": "Number of fib100 primes (A095088) in range ]2^n,2^(n+1)].",
			"link": [
				"A. Karttunen and J. Moyer, \u003ca href=\"/A095062/a095062.c.txt\"\u003eC-program for computing the initial terms of this sequence\u003c/a\u003e",
				"\u003ca href=\"/index/Pri#primesubsetpop2\"\u003eIndex entries for sequences related to occurrences of various subsets of primes in range ]2^n,2^(n+1)]\u003c/a\u003e"
			],
			"xref": [
				"a(n) = A095062(n)-A095065(n)."
			],
			"keyword": "nonn",
			"offset": "1,6",
			"author": "_Antti Karttunen_, Jun 01 2004",
			"references": 3,
			"revision": 6,
			"time": "2012-03-31T14:02:22-04:00",
			"created": "2004-06-12T03:00:00-04:00"
		}
	]
}