{
	"greeting": "Greetings from The On-Line Encyclopedia of Integer Sequences! http://oeis.org/",
	"query": "id:A095512",
	"count": 1,
	"start": 0,
	"results": [
		{
			"number": 95512,
			"data": "111111111111111111111111111111111111111111111111111111111111,111100,2020,330,220,140,114,74,66,60,55,50,48,44,40",
			"name": "a(n) = 60 written in base n.",
			"comment": [
				"The next term contains a non-decimal digit."
			],
			"keyword": "nonn",
			"offset": "1,1",
			"author": "_N. J. A. Sloane_, Jun 04 2004",
			"references": 0,
			"revision": 5,
			"time": "2012-03-30T16:49:58-04:00",
			"created": "2004-06-12T03:00:00-04:00"
		}
	]
}