{
	"greeting": "Greetings from The On-Line Encyclopedia of Integer Sequences! http://oeis.org/",
	"query": "id:A095256",
	"count": 1,
	"start": 0,
	"results": [
		{
			"number": 95256,
			"data": "23,473,7053,93643,1166714,13969985,162725300,1857511487,20877697534,231802823099,2548286736153,27785452448917,300880375389561,3239062263180829,34693207724723990,369957928177109127,3929837791070240044,41600963003695964039,439035480966899467108",
			"name": "Number of numbers not divisible by 10 that stay multiples of themselves when freed of their last n digits.",
			"link": [
				"S. Das \u003ca href=\"http://ken.duisenberg.com/potw/archive/040323sol.html\"\u003eDividing by Dropping Digits\u003c/a\u003e"
			],
			"formula": [
				"a(n) = Sum_{r=1..10^n-1) tau(r) = A006218(A002283(n)).",
				"a(n) = A057494(n) - (n+1)^2. - _Max Alekseyev_, Jan 25 2010"
			],
			"example": [
				"We have the following a(1)=23 two-digit numbers not ending in zero: 11, 12, 13, 14, 15, 16, 17, 18, 19, 22, 24, 26, 28, 33, 36, 39, 44, 48, 55, 66, 77, 88, 99; each is divisible by its tens digit."
			],
			"mathematica": [
				"k = s = 0; Do[ While[ k \u003c 10^n - 1, k++; s = s + DivisorSigma[ 0, k ]]; Print[s], {n, 9}] (* _Robert G. Wilson v_, Jun 05 2004 *)"
			],
			"xref": [
				"Cf. A057494."
			],
			"keyword": "base,nonn",
			"offset": "1,1",
			"author": "_Lekraj Beedassy_, Jul 02 2004",
			"ext": [
				"a(5)-a(9) from _Robert G. Wilson v_, Jul 05 2004",
				"a(10) onward from _Max Alekseyev_, Jan 25 2010, Aug 04 2015"
			],
			"references": 3,
			"revision": 14,
			"time": "2015-08-04T12:57:59-04:00",
			"created": "2004-09-22T03:00:00-04:00"
		}
	]
}