{
	"greeting": "Greetings from The On-Line Encyclopedia of Integer Sequences! http://oeis.org/",
	"query": "id:A095912",
	"count": 1,
	"start": 0,
	"results": [
		{
			"number": 95912,
			"data": "1,2,4,6,12,28,104,152,528,2208,9120,23616,130944,278784,1635840,14181120,32186880,116674560,1262039040,2443714560,58920099840,161981890560,1416311930880,7700720025600,120779469619200",
			"name": "Variant of the pay-phone sequence A095236. Here a slot at the end of the row is always preferred over a slot sandwiched immediately between two used slots.",
			"link": [
				"Max Alekseyev, \u003ca href=\"/A095912/b095912.txt\"\u003eTable of n, a(n) for n = 1..100\u003c/a\u003e"
			],
			"example": [
				"Example: there are 5 payphones. First arrival may choose any; he selects phone #2. Next arrival must take the furthest away, #5. Next arrival must take either of #3 or #4 (since both have a neighbor on one side and a vacant slot on the other); he chooses #3. Next arrival must take #1 (because end slots are preferred over \"sandwiched\" slots), leaving #4 for the last arrival. The permutation (25314) is one of a(5)=10 that satisfy the requirements."
			],
			"xref": [
				"Cf. A095236, A095239, A095240, A095923."
			],
			"keyword": "nonn",
			"offset": "1,2",
			"author": "_Jon Wild_, Jul 13 2004",
			"ext": [
				"Corrected and extended by _Don Reble_, Jul 15 2004"
			],
			"references": 2,
			"revision": 7,
			"time": "2019-03-14T17:10:34-04:00",
			"created": "2004-09-22T03:00:00-04:00"
		}
	]
}