{
	"greeting": "Greetings from The On-Line Encyclopedia of Integer Sequences! http://oeis.org/",
	"query": "id:A095170",
	"count": 1,
	"start": 0,
	"results": [
		{
			"number": 95170,
			"data": "1,6,18,44,95,127,280,318,432,616,1276,962,2067,1480,1820,2360,4709,3258,6802,4105,4943,5818,12719,7345,9235,9398,11373,11675,25201,14899,28458,17828,18882,21879,23246,25703,50283,30272,31983,35175,71668",
			"name": "Row sums of A095167.",
			"program": [
				"(PARI) S=Set();for(n=2,50,k=0;m=1;s=0;while(k\u003cn,m++;if(!setsearch(S,m)\u0026\u0026gcd(m,n)\u003e1,S=setunion(S,[m]);k++;s+=m));print1(\" \",s)) (Alekseyev)"
			],
			"xref": [
				"Cf. A095167, A095168, A095169, A095171."
			],
			"keyword": "nonn",
			"offset": "1,2",
			"author": "_Amarnath Murthy_, Jun 01 2004",
			"ext": [
				"More terms from _Max Alekseyev_, Jun 30 2005"
			],
			"references": 4,
			"revision": 5,
			"time": "2013-12-05T19:56:51-05:00",
			"created": "2004-06-12T03:00:00-04:00"
		}
	]
}