{
	"greeting": "Greetings from The On-Line Encyclopedia of Integer Sequences! http://oeis.org/",
	"query": "id:A095105",
	"count": 1,
	"start": 0,
	"results": [
		{
			"number": 95105,
			"data": "2,6,10,2,22,30,2,46,58,2,70,78,82,102,6,6,130,2,150,2,166,10,190,198,2,12,60,238,250,262,270,2,2,310,2,6,358,44,2,382,418,430,438,6,6,34,478,6,34,2,502,2,2,562,2,14,598,606,2,14,2,646,658,6,2,718",
			"name": "Length of maximal Dyck path prefix in the Legendre-vector of the n-th 4k+3 prime (A002145(n)).",
			"link": [
				"A. Karttunen and J. Moyer, \u003ca href=\"/A095062/a095062.c.txt\"\u003eC-program for computing the initial terms of this sequence\u003c/a\u003e"
			],
			"xref": [
				"a(n)=A095104(n)-1 modulo A002145(n). Cf. A095107, A095270."
			],
			"keyword": "nonn",
			"offset": "1,1",
			"author": "_Antti Karttunen_, Jun 01 2004",
			"references": 4,
			"revision": 6,
			"time": "2012-03-31T14:02:22-04:00",
			"created": "2004-06-12T03:00:00-04:00"
		}
	]
}