{
	"greeting": "Greetings from The On-Line Encyclopedia of Integer Sequences! http://oeis.org/",
	"query": "id:A095606",
	"count": 1,
	"start": 0,
	"results": [
		{
			"number": 95606,
			"data": "111111111111111111111111111111111111111111111111111111111111111111111111111111111111111111111111111111111111,1101100,11000,1230,413,300,213,154,130,108,99,90,84",
			"name": "a(n) = 108 written in base n.",
			"comment": [
				"The next term contains a non-decimal digit.",
				"The term 111....1111 should officially be called the \"unary expansion\", since in base 1 only the digit 0 may appear."
			],
			"keyword": "nonn",
			"offset": "1,1",
			"author": "_N. J. A. Sloane_, Jun 04 2004",
			"references": 0,
			"revision": 6,
			"time": "2012-03-30T16:49:58-04:00",
			"created": "2004-06-12T03:00:00-04:00"
		}
	]
}