{
	"greeting": "Greetings from The On-Line Encyclopedia of Integer Sequences! http://oeis.org/",
	"query": "id:A095603",
	"count": 1,
	"start": 0,
	"results": [
		{
			"number": 95603,
			"data": "97,106,127,152,211,254,411,1222,10221,1101010,1111111111111111111111111111111111111111111111111111111111111111111111111111111111111111111111111111111111",
			"name": "a(n) = 106 written in base 11 - n.",
			"keyword": "nonn,fini,full",
			"offset": "0,1",
			"author": "_N. J. A. Sloane_, Jun 04 2004",
			"references": 0,
			"revision": 3,
			"time": "2012-03-30T16:49:58-04:00",
			"created": "2004-06-12T03:00:00-04:00"
		}
	]
}