{
	"greeting": "Greetings from The On-Line Encyclopedia of Integer Sequences! http://oeis.org/",
	"query": "id:A095010",
	"count": 1,
	"start": 0,
	"results": [
		{
			"number": 95010,
			"data": "1,0,1,1,2,3,7,10,20,35,66,113,218,412,746,1460,2672,5104,9651,18375,35105,67165,128410,246453,473535,911489,1756670,3390856,6552449,12673142,24546849,47583904,92330578",
			"name": "Number of 8k+3 primes (A007520) in range [2^n,2^(n+1)].",
			"link": [
				"A. Karttunen and J. Moyer, \u003ca href=\"/A095062/a095062.c.txt\"\u003eC-program for computing the initial terms of this sequence\u003c/a\u003e",
				"\u003ca href=\"/index/Pri#primesubsetpop2\"\u003eIndex entries for sequences related to occurrences of various subsets of primes in range ]2^n,2^(n+1)]\u003c/a\u003e"
			],
			"xref": [
				"a(n) = A095014(n)-A095011(n) = A095008(n)-A095012(n). Cf. A091127."
			],
			"keyword": "nonn",
			"offset": "1,5",
			"author": "_Antti Karttunen_ and _Labos Elemer_, Jun 01 2004",
			"references": 3,
			"revision": 10,
			"time": "2015-08-31T11:23:51-04:00",
			"created": "2004-06-12T03:00:00-04:00"
		}
	]
}