{
	"greeting": "Greetings from The On-Line Encyclopedia of Integer Sequences! http://oeis.org/",
	"query": "id:A095300",
	"count": 1,
	"start": 0,
	"results": [
		{
			"number": 95300,
			"data": "2,6,10,12,14,18,22,24,26,30,34,38,42,46,50,54,58,60,62,66,70,74,78,82,84,86,90,94,96,98,102,106,110,114,118,120,122,126,130,132,134,138,142,146,150,154,156,158,162,166,168,170,174,178,182,186,190,194,198,202",
			"name": "Numbers n such that A094758(n) \u003c n.",
			"link": [
				"Amiram Eldar, \u003ca href=\"/A095300/b095300.txt\"\u003eTable of n, a(n) for n = 1..10000\u003c/a\u003e"
			],
			"example": [
				"A094758(2) = 1 \u003c 2, hence 2 is in the sequence."
			],
			"mathematica": [
				"aQ[n_] := Module[{k = 1, r = DivisorSigma[0, n]/n}, While[DivisorSigma[0, k]/k != r, k++]; k \u003c n]; Select[Range[200], aQ] (* _Amiram Eldar_, Aug 19 2019 *)"
			],
			"program": [
				"(PARI) for(n=1,205,s=numdiv(n);k=1;while(n*numdiv(k)!=k*s,k++);if(k\u003cn,print1(n,\",\")));"
			],
			"xref": [
				"Cf. A000005, A094758."
			],
			"keyword": "nonn",
			"offset": "1,1",
			"author": "_Klaus Brockhaus_, Jun 01 2004",
			"references": 3,
			"revision": 10,
			"time": "2019-08-19T03:37:07-04:00",
			"created": "2004-06-12T03:00:00-04:00"
		}
	]
}