{
	"greeting": "Greetings from The On-Line Encyclopedia of Integer Sequences! http://oeis.org/",
	"query": "id:A095815",
	"count": 1,
	"start": 0,
	"results": [
		{
			"number": 95815,
			"data": "2,4,6,8,10,12,14,16,18,11,12,14,16,18,20,22,24,26,28,22,23,24,26,28,30,32,34,36,38,33,34,35,36,38,40,42,44,46,48,44,45,46,47,48,50,52,54,56,58,55,56,57,58,59,60,62,64,66,68,66,67,68,69,70,71,72,74,76,78,77,78",
			"name": "n + largest digit of n.",
			"link": [
				"Reinhard Zumkeller, \u003ca href=\"/A095815/b095815.txt\"\u003eTable of n, a(n) for n = 1..10000\u003c/a\u003e"
			],
			"example": [
				"a(19) = 19 + 9 = 28. a(77) = 77 + 7 = 84."
			],
			"program": [
				"(Haskell)",
				"a095815 n = n + fromIntegral (a054055 n) -- _Reinhard Zumkeller_, Aug 23 2011"
			],
			"xref": [
				"Cf. A054055; A045844 (iterated).",
				"Cf. A182324."
			],
			"keyword": "base,easy,nonn",
			"offset": "1,1",
			"author": "_Jason Earls_, Jul 10 2004",
			"references": 4,
			"revision": 10,
			"time": "2017-12-15T17:36:41-05:00",
			"created": "2004-09-22T03:00:00-04:00"
		}
	]
}