{
	"greeting": "Greetings from The On-Line Encyclopedia of Integer Sequences! http://oeis.org/",
	"query": "id:A095471",
	"count": 1,
	"start": 0,
	"results": [
		{
			"number": 95471,
			"data": "30,33,36,39,43,47,54,103,124,213,1110,100111,111111111111111111111111111111111111111",
			"name": "a(n) = 39 written in base 13 - n.",
			"keyword": "nonn,fini,full",
			"offset": "0,1",
			"author": "_N. J. A. Sloane_, Jun 04 2004",
			"references": 0,
			"revision": 3,
			"time": "2012-03-30T16:49:57-04:00",
			"created": "2004-06-12T03:00:00-04:00"
		}
	]
}