{
	"greeting": "Greetings from The On-Line Encyclopedia of Integer Sequences! http://oeis.org/",
	"query": "id:A095695",
	"count": 1,
	"start": 0,
	"results": [
		{
			"number": 95695,
			"data": "6,130,1005,4830,17465,52101,135135,314985,674685,1349205,2548546,4587765,7925190,13210190,21341970,33540966,51434520,77158620,113477595,163923760,232959111,326161275,450436025",
			"name": "T(n,4) diagonal of triangle in A095693.",
			"reference": [
				"Nicholas S. Horne, Analysis of Viable Network Configurations from a Combinatorial, Graphical and Algebraic Perspective, Diss. Providence College, 2004."
			],
			"link": [
				"\u003ca href=\"/index/Rec#order_09\"\u003eIndex entries for linear recurrences with constant coefficients\u003c/a\u003e, signature (9,-36,84,-126,126,-84,36,-9,1)."
			],
			"formula": [
				"a(n) = ((n)(n-1)(n-2)(n-3)(n^4+2n^3-13n^2-54n+136)/384.",
				"G.f.: -x^4*(11*x^4-39*x^3+51*x^2+76*x+6)/(x-1)^9. [_Colin Barker_, Nov 24 2012]"
			],
			"keyword": "easy,nonn",
			"offset": "4,1",
			"author": "Nicholas S. Horne (nickhorne(AT)cox.net), Jul 06 2004",
			"references": 0,
			"revision": 9,
			"time": "2017-06-18T02:17:16-04:00",
			"created": "2004-09-22T03:00:00-04:00"
		}
	]
}