{
	"greeting": "Greetings from The On-Line Encyclopedia of Integer Sequences! http://oeis.org/",
	"query": "id:A096779",
	"count": 1,
	"start": 0,
	"results": [
		{
			"number": 96779,
			"data": "2,1,4,3,6,5,8,7,10,9,20,30,22,23,24,25,26,27,28,11,33,13,14,15,16,17,18,19,31,12,29,40,21,50,41,42,44,45,46,32,35,36,51,37,38,39,52,53,55,34,43,47,48,60,49,70,61,62,63,54,57,58,59,71,72,73,80,74,75,56,64,65",
			"name": "Smallest number not occurring earlier having no common digits with n in its decimal representation.",
			"comment": [
				"For n=1023456789 there is no possible a(n), so the sequence is finite. - _Eric Angelini_, Dec 18 2006",
				"a(123456788) is the last term. - _Andrew Weimholt_, Dec 19 2006",
				"a(123456788) = 9099900999090090. - Sasha Semenov, Dec 25 2006"
			],
			"link": [
				"R. Zumkeller, \u003ca href=\"/A096779/b096779.txt\"\u003eTable of n, a(n) for n = 1..10000\u003c/a\u003e",
				"Hans Havermann, \u003ca href=\"/A096779/a096779.jpg\"\u003eGraph of first 2600 terms\u003c/a\u003e",
				"Sasha Semenov, \u003ca href=\"/A096779/a096779.txt\"\u003eNotes on computing this sequence\u003c/a\u003e [From rec.math]"
			],
			"xref": [
				"Cf. A030238."
			],
			"keyword": "nonn,base,fini,look",
			"offset": "1,1",
			"author": "_Reinhard Zumkeller_, Aug 16 2004",
			"references": 3,
			"revision": 11,
			"time": "2016-11-28T20:43:03-05:00",
			"created": "2004-09-22T03:00:00-04:00"
		}
	]
}