{
	"greeting": "Greetings from The On-Line Encyclopedia of Integer Sequences! http://oeis.org/",
	"query": "id:A096486",
	"count": 1,
	"start": 0,
	"results": [
		{
			"number": 96486,
			"data": "8,170,2242,2132,1294,976846,216566,9904144,25617930,408928520,25346031262,137031675878,89950978114",
			"name": "Period length of continued fraction for square root of A095372(n)=1+90*(-1+100^n)/99.",
			"maple": [
				"with(numtheory): [seq(nops(cfrac((1+90*(-1+100^k)/99)^(1/2), 'periodic', 'quotients')[2]), k=2..10)];"
			],
			"mathematica": [
				"Do[Print[Length[Last[ContinuedFraction[(1+90*(-1+100^n)/99)^(1/2)]]]], {n, 1, 9}]"
			],
			"xref": [
				"Cf. A095372, A096485."
			],
			"keyword": "nonn,hard,more",
			"offset": "1,1",
			"author": "_Labos Elemer_, Jun 25 2004",
			"ext": [
				"a(10) from _Vaclav Kotesovec_, Aug 29 2019",
				"a(11)-a(12) from _Chai Wah Wu_, Dec 07 2019",
				"a(13) from _Chai Wah Wu_, Oct 01 2021"
			],
			"references": 0,
			"revision": 21,
			"time": "2021-10-01T10:24:47-04:00",
			"created": "2004-09-22T03:00:00-04:00"
		}
	]
}