{
	"greeting": "Greetings from The On-Line Encyclopedia of Integer Sequences! http://oeis.org/",
	"query": "id:A096622",
	"count": 1,
	"start": 0,
	"results": [
		{
			"number": 96622,
			"data": "0,1,0,1,4,1,4,1,3,0,2,3,0,5,14,12,16,14,7,13,18,17,19,11,22,13,13,26,12,16,2,26,1,2,28,18,3,27,31,27,9,7,37,28,13,26,2,34,29,47,49,34,39,10,0,42,1,9,42,1,32,61,23,57,42,32,2,12,32,32,48,42,49,15,14,39,48",
			"name": "Harmonic expansion (or factorial expansion) of the Euler-Mascheroni constant.",
			"link": [
				"G. C. Greubel, \u003ca href=\"/A096622/b096622.txt\"\u003eTable of n, a(n) for n = 1..10000\u003c/a\u003e",
				"Eric Weisstein's World of Mathematics, \u003ca href=\"http://mathworld.wolfram.com/HarmonicExpansion.html\"\u003eHarmonic Expansion\u003c/a\u003e",
				"\u003ca href=\"https://oeis.org/wiki/Index_to_OEIS:_Section_Fa#facbase\"\u003eIndex entries for factorial base representation\u003c/a\u003e"
			],
			"formula": [
				"Sum_{n\u003e=1} a(n)/n! = Euler gamma = A001620. - _G. C. Greubel_, Nov 26 2018"
			],
			"example": [
				"Euler gamma = 0 + 1/2! + 0/3! + 1/4! + 4/5! + 1/6! + 4/7! + 1/8! + ..."
			],
			"mathematica": [
				"With[{b = EulerGamma}, Table[If[n==1, Floor[b], Floor[n!*b] - n*Floor[(n - 1)!*b]], {n, 1, 100}]] (* _G. C. Greubel_, Nov 26 2018 *)"
			],
			"program": [
				"(PARI) default(realprecision, 250); b = Euler; for(n=1, 80, print1( if(n==1, floor(b), floor(n!*b) - n*floor((n-1)!*b)), \", \")) \\\\ _G. C. Greubel_, Nov 26 2018",
				"(MAGMA) SetDefaultRealField(RealField(250));  [Floor(EulerGamma(250))] cat [Floor(Factorial(n)*EulerGamma(250)) - n*Floor(Factorial((n-1))*EulerGamma(250)) : n in [2..80]]; // _G. C. Greubel_, Nov 26 2018",
				"(Sage)",
				"b = euler_gamma;",
				"def A096622(n):",
				"    if (n==1): return floor(b)",
				"    else: return expand(floor(factorial(n)*b) -n*floor(factorial(n-1)*b))",
				"[A096622(n) for n in (1..80)] # _G. C. Greubel_, Nov 26 2018"
			],
			"xref": [
				"Cf. A001620 (decimal expansion), A002852 (continued fraction)."
			],
			"keyword": "nonn",
			"offset": "1,5",
			"author": "_Eric W. Weisstein_, Jul 01 2004",
			"references": 3,
			"revision": 17,
			"time": "2018-12-11T02:47:54-05:00",
			"created": "2004-09-22T03:00:00-04:00"
		}
	]
}