{
	"greeting": "Greetings from The On-Line Encyclopedia of Integer Sequences! http://oeis.org/",
	"query": "id:A096686",
	"count": 1,
	"start": 0,
	"results": [
		{
			"number": 96686,
			"data": "7,35,259,175,14,1295,1,875,86419753,7,7,6475,539,5,518,4375,4571,432098765,4053,35,37,35,33509,32375,28,2695,285473251,25,265783,259,25067,21875,23569,22855,2,2160493825,21,20265,1813,175,1897,185,179249",
			"name": "Least k such that decimal representation of k*n contains only digits 0 and 7.",
			"link": [
				"Robert Israel, \u003ca href=\"/A096686/b096686.txt\"\u003eTable of n, a(n) for n = 1..10000\u003c/a\u003e"
			],
			"formula": [
				"a(n) = A078246(n)/n."
			],
			"maple": [
				"f:= proc(n)  local q, q2, q5, n1, R, Agenda,d, newA, t, t1, t2;",
				"q2:= padic:-ordp(n,2);",
				"q5:= padic:-ordp(n,5);",
				"q:= max(q2,q5);",
				"n1:= n/2^q2/5^q5;",
				"R[7]:= 7: Agenda:= {7}:",
				"if 7 mod n1 = 0 then return 10^q*7/n fi;",
				"for d from 2 do",
				"    newA:= NULL;",
				"    for t in Agenda do",
				"      t1:= 10*t mod n1;",
				"      if not assigned(R[t1]) then",
				"        R[t1]:= 10*R[t];",
				"        newA:= newA, t1;",
				"      fi;",
				"      t2:= (10*t+7) mod n1;",
				"      if t2 = 0 then",
				"        return 10^q*(10*R[t]+7)/n;",
				"        break",
				"      elif not assigned(R[t2]) then",
				"        R[t2]:= 10*R[t]+7;",
				"        newA:= newA,t2;",
				"      fi;",
				"    od;",
				"    Agenda:= [newA];",
				"od:",
				"end proc:",
				"map(f, [$1..50]); # _Robert Israel_, Mar 06 2017"
			],
			"xref": [
				"Cf. A004290, A078241-A078248, A079339, A096681-A096688."
			],
			"keyword": "base,nonn,look",
			"offset": "1,1",
			"author": "_Ray Chandler_, Jul 12 2004",
			"references": 3,
			"revision": 13,
			"time": "2017-03-07T00:15:00-05:00",
			"created": "2004-09-22T03:00:00-04:00"
		}
	]
}