{
	"greeting": "Greetings from The On-Line Encyclopedia of Integer Sequences! http://oeis.org/",
	"query": "id:A096884",
	"count": 1,
	"start": 0,
	"results": [
		{
			"number": 96884,
			"data": "1,101,10201,1030301,104060401,10510100501,1061520150601,107213535210701,10828567056280801,1093685272684360901,110462212541120451001,11156683466653165551101",
			"name": "a(n) = 101^n.",
			"comment": [
				"A185817(n) = smallest m such that in decimal representation n is a prefix of a(m).",
				"a(n) gives the n-th row of Pascals' triangle (A007318) as long as all the binomial coefficients have at most two digits, otherwise the binomial coefficients with more than two digits overlap. - _Daniel Forgues_, Aug 12 2012",
				"From _Peter M. Chema_, Apr 10 2016: (Start)",
				"One percent growth applied n times increases a value by factor of a(n)/10^(2n), since 1% increases using \"1.01\".  Therefore (a(n)/10^(2n) - 1)*100 = the percentage increase of one percent growth applied n times.",
				"For instance, 432 increasing by 1% three times gives 445.090032 (i.e., 432*1.01^3), which is 1.030301 ((a(3)/10^(2*3)) times 432 or a 3.0301% increase from the original 432 ((a(3)/10^(2*3)-1)*100 = 3.0301). (End)"
			],
			"link": [
				"Tanya Khovanova, \u003ca href=\"http://www.tanyakhovanova.com/RecursiveSequences/RecursiveSequences.html\"\u003eRecursive Sequences\u003c/a\u003e",
				"\u003ca href=\"/index/Rec#order_01\"\u003eIndex entries for linear recurrences with constant coefficients\u003c/a\u003e, signature (101)."
			],
			"formula": [
				"a(n) = Sum_{k=0..n} binomial(n, k)*10^(n-k).",
				"a(n) = A096883(2n).",
				"a(n) = 101^n. a(n) = Sum_{k=0..n,} binomial(n, k)*100^k. - _Paul Barry_, Aug 24 2004",
				"G.f.: 1/(1-101*x). - _Philippe Deléham_, Nov 25 2008",
				"E.g.f.: exp(101*x). - _Ilya Gutkovskiy_, Apr 10 2016"
			],
			"mathematica": [
				"Table[101^n, {n, 0, 11}] \\\\ _Ilya Gutkovskiy_, Apr 10 2016"
			],
			"program": [
				"(PARI) a(n)=101^n \\\\ _Charles R Greathouse IV_, Oct 16 2015",
				"(PARI) x='x+O('x^99); Vec(1/(1-101*x)) \\\\ _Altug Alkan_, Apr 10 2016"
			],
			"xref": [
				"Cf. A007318, A003590, A001020, A097659."
			],
			"keyword": "easy,nonn",
			"offset": "0,2",
			"author": "_Paul Barry_, Jul 14 2004",
			"references": 6,
			"revision": 35,
			"time": "2016-04-10T23:03:03-04:00",
			"created": "2004-09-22T03:00:00-04:00"
		}
	]
}