{
	"greeting": "Greetings from The On-Line Encyclopedia of Integer Sequences! http://oeis.org/",
	"query": "id:A096744",
	"count": 1,
	"start": 0,
	"results": [
		{
			"number": 96744,
			"data": "1,1,1,1,1,1,1,3,1,1,1,6,3,1,1,1,16,12,3,1,1,1,40,37,12,3,1,1,1,133,138,55,12,3,1,1,1,429,498,219,55,12,3,1,1,1,1696,2103,969,273,55,12,3,1,1,1,6583,8734,4215,1266,273,55,12,3,1,1,1,29167,40291,19989,6213,1428",
			"name": "Triangle T, read by rows, such that the matrix cube shifts T one place diagonally left and upward, with T(n, 0) = T(n, n) = 1 for n\u003e=0.",
			"comment": [
				"Column with index 1 forms A096745 shift right. Row sums form A096746. The convergent of the rows in reverse order is the sequence enumerating ternary trees (A001764)."
			],
			"formula": [
				"T(n, k) = Sum_{i=0..n-1} Sum_{j=0..n-2} T(n-2, j)*T(j, i)*T(i, k-1) for n\u003e1 and k\u003e0; T(n, 0)=T(n, n)=1."
			],
			"example": [
				"Rows begin:",
				"{1},",
				"{1,1},",
				"{1,1,1},",
				"{1,3,1,1},",
				"{1,6,3,1,1},",
				"{1,16,12,3,1,1},",
				"{1,40,37,12,3,1,1},",
				"{1,133,138,55,12,3,1,1},",
				"{1,429,498,219,55,12,3,1,1},",
				"{1,1696,2103,969,273,55,12,3,1,1},",
				"{1,6583,8734,4215,1266,273,55,12,3,1,1},",
				"{1,29167,40291,19989,6213,1428,273,55,12,3,1,1},",
				"{1,128401,185364,94755,30249,7266,1428,273,55,12,3,1,1},...",
				"T^3 begins:",
				"{1},",
				"{3,1},",
				"{6,3,1},",
				"{16,12,3,1},",
				"{40,37,12,3,1},",
				"{133,138,55,12,3,1},",
				"{429,498,219,55,12,3,1},...",
				"which equals T shift one place diagonally left and upward."
			],
			"mathematica": [
				"T[n_, 0] := 1; T[n_, n_] := 1; T[n_, k_] := Sum[ Sum[ T[n - 2, j]*T[j, i]*T[i, k - 1], {j, 0, n - 2}], {i, 0, n - 1}] ; Table[T[n, k], {n,0,10}, {k,0,n}] (* _G. C. Greubel_, Nov 28 2016 *)"
			],
			"program": [
				"(PARI) {T(n, k) = if(n\u003ck||k\u003c0, 0 , if(n==k||k==0, 1, sum(i=0, n-1, sum(j=0, n-2, T(n-2, j)*T(j, i))*T(i, k-1) )))}"
			],
			"xref": [
				"Cf. A096745, A096746, A096591, A001764."
			],
			"keyword": "nonn,tabl",
			"offset": "0,8",
			"author": "_Paul D. Hanna_, Jul 06 2004",
			"references": 2,
			"revision": 10,
			"time": "2016-11-30T12:32:28-05:00",
			"created": "2004-09-22T03:00:00-04:00"
		}
	]
}