{
	"greeting": "Greetings from The On-Line Encyclopedia of Integer Sequences! http://oeis.org/",
	"query": "id:A096363",
	"count": 1,
	"start": 0,
	"results": [
		{
			"number": 96363,
			"data": "60,300,1500,15000,150000,1500000,15000000,150000000,1500000000,15000000000,150000000000,1500000000000,15000000000000,150000000000000,1500000000000000,15000000000000000",
			"name": "Length of repeating cycle of the final n digits in the Fibonacci sequence.",
			"comment": [
				"Pisano periods pi(10^(n-1))."
			],
			"link": [
				"Daniel Lance Herrick, \u003ca href=\"https://www.fq.math.ca/Scanned/11-5/herrick.pdf\"\u003eOn the Periodicity of the Terminal Digits in Fibonacci Sequences\u003c/a\u003e, The Fibonacci Quarterly, Vol. 11, No. 5, page 535.",
				"Dov Jarden, \u003ca href=\"https://www.fq.math.ca/Scanned/1-4/jarden.pdf\"\u003eOn the Periodicity of the Last Digits of the Fibonacci Numbers\u003c/a\u003e, The Fibonacci Quarterly, Vol. 1, No. 4, page 21.",
				"Ron Knott, \u003ca href=\"http://www.maths.surrey.ac.uk/hosted-sites/R.Knott/Fibonacci/fibmaths.html#cycles\"\u003eThe final digits\u003c/a\u003e",
				"Eric Weisstein's World of Mathematics, \u003ca href=\"http://mathworld.wolfram.com/PisanoPeriod.html\"\u003ePisano Period\u003c/a\u003e",
				"\u003ca href=\"/index/Rec#order_01\"\u003eIndex entries for linear recurrences with constant coefficients\u003c/a\u003e, signature (10)."
			],
			"formula": [
				"a(n) = A001175(A011557(n))."
			],
			"mathematica": [
				"Join[{60, 300},LinearRecurrence[{10},{1500},14]] (* _Ray Chandler_, Aug 09 2015 *)"
			],
			"program": [
				"(Haskell)",
				"a096363 = a001175 . (10 ^)  -- _Reinhard Zumkeller_, Jan 16 2014"
			],
			"xref": [
				"Cf. A001175, A000045."
			],
			"keyword": "base,nonn",
			"offset": "1,1",
			"author": "_Lekraj Beedassy_, Jun 30 2004",
			"ext": [
				"More terms from _Eric W. Weisstein_, Jul 01 2004"
			],
			"references": 2,
			"revision": 15,
			"time": "2019-06-05T21:26:05-04:00",
			"created": "2004-09-22T03:00:00-04:00"
		}
	]
}