{
	"greeting": "Greetings from The On-Line Encyclopedia of Integer Sequences! http://oeis.org/",
	"query": "id:A096292",
	"count": 1,
	"start": 0,
	"results": [
		{
			"number": 96292,
			"data": "3,5,11,17,29,41,59,71,101,107,137,149,179,191,197,227,239,269,281,311,347,419,431,461,521,569,599,617,641,659,809,821,827,857,881,1019,1031,1049,1061,1091,1151,1229,1277,1289,1301,1319,1427,1451,1481,1487,1607",
			"name": "Primes p such that p!-1 is divisible by the next prime larger than p.",
			"comment": [
				"This sequence includes A001359 as a subset, since the lesser of twin primes always satisfy this relation. The smallest number in this sequence that is not in A001359 is 7841. The only other known differences are 594278556271608991 and 4259842839142238791410741595983041626644087433."
			],
			"link": [
				"Jeppe Stig Nielsen, \u003ca href=\"/A096292/b096292.txt\"\u003eTable of n, a(n) for n = 1..600\u003c/a\u003e",
				"Carlos Rivera, \u003ca href=\"https://www.primepuzzles.net/puzzles/puzz_270.htm\"\u003ePuzzle 270\u003c/a\u003e."
			],
			"example": [
				"17 is here because 17!-1 is divisible by 19 and 19 is the next prime larger than 17."
			],
			"program": [
				"(PARI) p=2; forprime(q=3, , prod(j=1, p, Mod(j, q)) == 1 \u0026\u0026 print1(p, \", \"); p=q) \\\\ _Jeppe Stig Nielsen_, Oct 04 2019"
			],
			"xref": [
				"Cf. A001359, A286181."
			],
			"keyword": "nonn",
			"offset": "1,1",
			"author": "Stuart Gascoigne (stuart.g(AT)scoigne.com), Jun 24 2004",
			"references": 2,
			"revision": 9,
			"time": "2020-08-21T09:04:59-04:00",
			"created": "2004-09-22T03:00:00-04:00"
		}
	]
}