{
	"greeting": "Greetings from The On-Line Encyclopedia of Integer Sequences! http://oeis.org/",
	"query": "id:A096637",
	"count": 1,
	"start": 0,
	"results": [
		{
			"number": 96637,
			"data": "17,73,241,1009,2689,8089,33049,53881,87481,483289,515761,1083289,7921489,3818929,9257329,22000801,68204761,48473881,175244281,1149374521,427733329,898716289",
			"name": "Smallest prime p == 1 mod 8 (A007519) and p \u003e prime(n+2) such that p is a quadratic residue mod the first n odd primes 3, 5, 7, 11, ..., prime(n+1), and p is a quadratic non-residue mod prime(n+2).",
			"comment": [
				"Same as smallest prime p == 1 mod 8 with the property that the Legendre symbol (p|q) = 1 for the first n odd primes q = prime(k+1), k = 1, 2, ..., n, and (p|q) = -1 for q = prime(n+2)."
			],
			"mathematica": [
				"f[n_] := Block[{k = 2}, While[ JacobiSymbol[n, Prime[k]] == 1, k++ ]; Prime[k]]; t = Table[0, {50}]; Do[p = Prime[n]; If[Mod[p, 8] == 1, a = f[p]; If[ t[[ PrimePi[a]]] == 0, t[[ PrimePi[a]]] = p; Print[ PrimePi[a], \" = \", p]]], {n, 10^9}]; t"
			],
			"xref": [
				"Cf. A094928, A002224, A096636."
			],
			"keyword": "nonn",
			"offset": "0,1",
			"author": "_Robert G. Wilson v_, Jun 24 2004",
			"ext": [
				"Better name from _Jonathan Sondow_, Mar 07 2013"
			],
			"references": 2,
			"revision": 10,
			"time": "2013-03-07T17:11:59-05:00",
			"created": "2004-09-22T03:00:00-04:00"
		}
	]
}