{
	"greeting": "Greetings from The On-Line Encyclopedia of Integer Sequences! http://oeis.org/",
	"query": "id:A096912",
	"count": 1,
	"start": 0,
	"results": [
		{
			"number": 96912,
			"data": "8,16,20,62,64,76,100,142,230,670,2230,167644",
			"name": "Numbers n such that 111*10^n+1 is prime.",
			"comment": [
				"a(1) through a(11) have been proved to be prime with WinPFGW."
			],
			"program": [
				"(PARI) is(n)=ispseudoprime(111*10^n+1) \\\\ _Charles R Greathouse IV_, Jun 12 2017"
			],
			"keyword": "more,nonn",
			"offset": "1,1",
			"author": "_Jason Earls_, Aug 17 2004",
			"ext": [
				"a(12) from _Predrag Kurtovic_, May 24 2015"
			],
			"references": 1,
			"revision": 9,
			"time": "2017-12-15T17:36:44-05:00",
			"created": "2004-09-22T03:00:00-04:00"
		}
	]
}