{
	"greeting": "Greetings from The On-Line Encyclopedia of Integer Sequences! http://oeis.org/",
	"query": "id:A096569",
	"count": 1,
	"start": 0,
	"results": [
		{
			"number": 96569,
			"data": "1,0,1,2,2,5,9,14,25,46,78,136,242,419,733,1291,2251,3938,6905,12073,21129,37001,64741,113304,198344,347126,607532,1063387,1861149,3257410,5701362,9978711,17465052,30568232,53501720,93640745,163894183",
			"name": "Number of compositions of n with first part 1 and no equal adjacent parts; this is column 1 of the array in A096568.",
			"formula": [
				"Define s(0)=1, T(1, 1)=1 and T(i, j)=0 for j\u003ei. For n\u003e=2 and 1\u003c=k\u003c=n, define s(n)=T(n, 1)+T(n, 2)+...+T(n, n) and T(n, k)=s(n-k)-T(n-k, k). (This is array A096568.)"
			],
			"xref": [
				"Cf. A003242, A096568, A096570, A096571, A096572."
			],
			"keyword": "nonn",
			"offset": "1,4",
			"author": "_Clark Kimberling_, Jun 27 2004",
			"references": 4,
			"revision": 5,
			"time": "2012-03-30T18:57:05-04:00",
			"created": "2004-09-22T03:00:00-04:00"
		}
	]
}