{
	"greeting": "Greetings from The On-Line Encyclopedia of Integer Sequences! http://oeis.org/",
	"query": "id:A096789",
	"count": 1,
	"start": 0,
	"results": [
		{
			"number": 96789,
			"data": "1,5,9,0,6,3,6,8,5,4,6,3,7,3,2,9,0,6,3,3,8,2,2,5,4,4,2,4,9,9,9,6,6,6,2,4,7,9,5,4,4,7,8,1,5,9,4,9,5,5,3,6,6,4,7,1,3,2,2,8,7,9,8,4,6,0,8,5,4,5,0,3,7,5,3,5,3,6,1,1,8,5,1,1,6,1,2,2,1,4,7,5,9,4,2,2,8,9,2,5,2,3,7,7,5",
			"name": "Decimal expansion of BesselI(1,2).",
			"link": [
				"A.H.M. Smeets, \u003ca href=\"/A096789/b096789.txt\"\u003eTable of n, a(n) for n = 1..20000\u003c/a\u003e",
				"E. W. Weisstein, \u003ca href=\"http://mathworld.wolfram.com/ModifiedBesselFunctionoftheFirstKind.html\"\u003eModified Bessel Function of the First Kind\u003c/a\u003e"
			],
			"formula": [
				"Equals Sum_{k \u003e= 0} k/k!^2.",
				"Continued fraction expansion: 1/(1 - 1/(3 - 2/(7 - 6/(13 - 12/(21 - ... - n*(n-1)/(n^2+n+1 - ...)))))). For a sketch of the proof see A228229. Cf. A070910. - _Peter Bala_, Aug 19 2013"
			],
			"example": [
				"1.59063685463732906338225..."
			],
			"maple": [
				"evalf(BesselI(1,2)). # _R. J. Mathar_, Oct 16 2015"
			],
			"mathematica": [
				"RealDigits[BesselI[1, 2], 10, 110][[1]]",
				"(* Or *) RealDigits[ Sum[ n/(n!n!), {n, 0, Infinity}], 10, 110][[1]]"
			],
			"program": [
				"(PARI) besseli(1,2) \\\\ _Charles R Greathouse IV_, Feb 19 2014"
			],
			"xref": [
				"Cf. A070910, A228229."
			],
			"keyword": "cons,easy,nonn",
			"offset": "1,2",
			"author": "_Robert G. Wilson v_, Jul 09 2004",
			"references": 23,
			"revision": 25,
			"time": "2021-05-09T03:59:21-04:00",
			"created": "2004-09-22T03:00:00-04:00"
		}
	]
}