{
	"greeting": "Greetings from The On-Line Encyclopedia of Integer Sequences! http://oeis.org/",
	"query": "id:A096118",
	"count": 1,
	"start": 0,
	"results": [
		{
			"number": 96118,
			"data": "1,1,2,3,4,7,9,10,11,21,30,37,41,44,46,47,48,95,141,185,226,263,293,314",
			"name": "Duplicate of A050029.",
			"keyword": "dead",
			"offset": "1,3",
			"references": 1,
			"revision": 4,
			"time": "2006-09-29T03:00:00-04:00",
			"created": "2004-09-22T03:00:00-04:00"
		}
	]
}