{
	"greeting": "Greetings from The On-Line Encyclopedia of Integer Sequences! http://oeis.org/",
	"query": "id:A096740",
	"count": 1,
	"start": 0,
	"results": [
		{
			"number": 96740,
			"data": "1,0,0,0,0,0,0,0,0,0,0,1,1,1,1,1,1,1,1,1,1,1,1,2,2,3,3,4,4,5,5,6,6,7,7,8,9,10,11,13,14,16,18,20,22,25,27,30,33,36,40,44,48,53,59,64,71,78,86,94,104,113,125,136,149,163,179,194,213,232,254,276,302,328,359,390,425",
			"name": "Number of partitions of n into distinct parts \u003e= 11.",
			"comment": [
				"The old entry with this sequence number was a duplicate of A071569."
			],
			"link": [
				"Alois P. Heinz, \u003ca href=\"/A096740/b096740.txt\"\u003eTable of n, a(n) for n = 0..1000\u003c/a\u003e"
			],
			"formula": [
				"a(n) = A026831(n+10). - _R. J. Mathar_, Jul 31 2008",
				"G.f.: Product_{j\u003e=11} (1+x^j). - _R. J. Mathar_, Jul 31 2008",
				"G.f.: Sum_{k\u003e=0} x^(k*(k + 21)/2) / Product_{j=1..k} (1 - x^j). - _Ilya Gutkovskiy_, Nov 24 2020"
			],
			"maple": [
				"b:= proc(n, i) option remember;",
				"      `if`(n=0, 1, `if`((i-10)*(i+11)/2\u003cn, 0,",
				"       add(b(n-i*j, i-1), j=0..min(1, n/i))))",
				"    end:",
				"a:= n-\u003e b(n$2):",
				"seq(a(n), n=0..100);  # _Alois P. Heinz_, Feb 07 2014"
			],
			"mathematica": [
				"d[n_] := Select[IntegerPartitions[n], Max[Length /@ Split@#] == 1 \u0026\u0026 Min[#] \u003e= 11 \u0026]; Table[d[n], {n, 30}] (* str partitions, parts \u003e= 11 *)",
				"Table[Length[d[n]], {n, 40}] (* A096740 for n \u003e= 1 *)",
				"(* _Clark Kimberling_, Mar 07 2014 *)",
				"b[n_, i_] := b[n, i] = If[n == 0, 1, If[(i-10)*(i+11)/2 \u003c n, 0, Sum[b[n - i*j, i-1], {j, 0, Min[1, n/i]}]]]; a[n_] := b[n, n]; Table[a[n], {n, 0, 100}] (* _Jean-François Alcover_, Nov 11 2015, after _Alois P. Heinz_ *)"
			],
			"xref": [
				"Cf. A025147."
			],
			"keyword": "nonn",
			"offset": "0,24",
			"author": "_N. J. A. Sloane_, Sep 28 2008",
			"references": 3,
			"revision": 21,
			"time": "2020-11-24T16:40:02-05:00",
			"created": "2004-09-22T03:00:00-04:00"
		}
	]
}