{
	"greeting": "Greetings from The On-Line Encyclopedia of Integer Sequences! http://oeis.org/",
	"query": "id:A096330",
	"count": 1,
	"start": 0,
	"results": [
		{
			"number": 96330,
			"data": "1,25,1227,84672,7635120,850626360,112876089480,17381709797760,3046480841900160,598731545755324800,130389773403373545600,31163616486434838067200,8109213009296586130944000,2282014010657773764160588800,690521215428258768326957184000",
			"name": "Number of 3-connected planar graphs on n labeled nodes.",
			"comment": [
				"Recurrence known, see Bodirsky et al."
			],
			"reference": [
				"M. Bodirsky, C. Groepl and M. Kang: Generating Labeled Planar Graphs Uniformly At Random; ICALP03 Eindhoven, LNCS 2719, Springer Verlag (2003), 1095 - 1107.",
				"Miklos Bona, editor, Handbook of Enumerative Combinatorics, CRC Press, 2015, p. 419."
			],
			"link": [
				"Gheorghe Coserea, \u003ca href=\"/A096330/b096330.txt\"\u003eTable of n, a(n) for n = 4..104\u003c/a\u003e",
				"M. Bodirsky, C. Groepl and M. Kang, \u003ca href=\"https://doi.org/10.1016/j.tcs.2007.02.045\"\u003eGenerating Labeled Planar Graphs Uniformly At Random\u003c/a\u003e, Theoretical Computer Science, Volume 379, Issue 3, 15 June 2007, pp. 377-386."
			],
			"program": [
				"(PARI)",
				"Q(n,k) = { \\\\ c-nets with n-edges, k-vertices",
				"  if (k \u003c 2+(n+2)\\3 || k \u003e 2*n\\3, return(0));",
				"  sum(i=2, k, sum(j=k, n, (-1)^((i+j+1-k)%2)*binomial(i+j-k,i)*i*(i-1)/2*",
				"  (binomial(2*n-2*k+2,k-i)*binomial(2*k-2, n-j) -",
				"  4*binomial(2*n-2*k+1, k-i-1)*binomial(2*k-3, n-j-1))));",
				"};",
				"a(n) = sum(k=(3*n+1)\\2, 3*n-6, n!*Q(k,n)/(4*k));",
				"apply(a, [4..18]) \\\\ _Gheorghe Coserea_, Aug 11 2017"
			],
			"xref": [
				"Cf. A066537, A096331, A096332, A290326."
			],
			"keyword": "nonn",
			"offset": "4,2",
			"author": "_Steven Finch_, Aug 02 2004",
			"references": 3,
			"revision": 21,
			"time": "2018-12-25T22:35:58-05:00",
			"created": "2004-09-22T03:00:00-04:00"
		}
	]
}