{
	"greeting": "Greetings from The On-Line Encyclopedia of Integer Sequences! http://oeis.org/",
	"query": "id:A097942",
	"count": 1,
	"start": 0,
	"results": [
		{
			"number": 97942,
			"data": "1,2,4,8,12,24,48,72,144,240,432,480,576,720,1152,1440,2880,4320,5760,8640,11520,17280,25920,30240,34560,40320,51840,60480,69120,80640,103680,120960,161280,181440,207360,241920,362880,483840,725760,967680",
			"name": "Highly totient numbers: each number k on this list has more solutions to the equation phi(x) = k than any preceding k (where phi is Euler's totient function, A000010).",
			"comment": [
				"If you inspect PhiAnsYldList after running the Mathematica program below, the zeros with even-numbered indices should correspond to the nontotients (A005277).",
				"Where records occur in A014197. - _T. D. Noe_, Jun 13 2006",
				"Cf. A131934."
			],
			"link": [
				"Jud McCranie, \u003ca href=\"/A097942/b097942.txt\"\u003eTable of n, a(n) for n = 1..109\u003c/a\u003e (first 79 terms from T. D. Noe and terms n = 80..86 from Donovan Johnson)",
				"Wikipedia, \u003ca href=\"http://en.wikipedia.org/wiki/Highly_totient_number\"\u003eHighly totient number\u003c/a\u003e"
			],
			"example": [
				"a(4) = 8 since phi(x) = 8 has the solutions {15, 16, 20, 24, 30}, one more solution than a(3) = 4 for which phi(x) = 4 has solutions {5, 8, 10, 12}."
			],
			"maple": [
				"HighlyTotientNumbers := proc(n) # n \u003e 1 is search maximum",
				"local L, m, i, r; L := NULL; m := 0;",
				"for i from 1 to n do",
				"  r := nops(numtheory[invphi](i));",
				"  if r \u003e m then L := L,[i,r]; m := r fi",
				"od; [L] end:",
				"A097942_list := n -\u003e seq(s[1], s = HighlyTotientNumbers(n));",
				"A097942_list(500); # _Peter Luschny_, Sep 01 2012"
			],
			"mathematica": [
				"searchMax = 2000; phiAnsYldList = Table[0, {searchMax}]; Do[phiAns = EulerPhi[m]; If[phiAns \u003c= searchMax, phiAnsYldList[[phiAns]]++ ], {m, 1, searchMax^2}]; highlyTotientList = {1}; currHigh = 1; Do[If[phiAnsYldList[[n]] \u003e phiAnsYldList[[currHigh]], highlyTotientList = {highlyTotientList, n}; currHigh = n], {n, 2, searchMax}]; Flatten[highlyTotientList]"
			],
			"program": [
				"(Sage)",
				"def HighlyTotientNumbers(n) : # n \u003e 1 is search maximum.",
				"    R = {}",
				"    for i in (1..n^2) :",
				"        r = euler_phi(i)",
				"        if r \u003c= n :",
				"            R[r] = R[r] + 1 if r in R else 1",
				"    # print R.keys()   # A002202",
				"    # print R.values() # A058277",
				"    P = []; m = 1",
				"    for l in sorted(R.keys()) :",
				"        if R[l] \u003e m : m = R[l]; P.append((l,m))",
				"    # print [l[0] for l in P] # A097942",
				"    # print [l[1] for l in P] # A131934",
				"    return P",
				"A097942_list = lambda n: [s[0] for s in HighlyTotientNumbers(n)]",
				"A097942_list(500) # _Peter Luschny_, Sep 01 2012",
				"(PARI)",
				"{ A097942_list(n) = local(L, m, i, r);",
				"  m = 0;",
				"  for(i=1, n,",
				"\\\\ from _Max Alekseyev_, http://home.gwu.edu/~maxal/gpscripts/",
				"   r = numinvphi(i);",
				"   if(r \u003e m, print1(i,\", \"); m = r) );",
				"} \\\\ _Peter Luschny_, Sep 01 2012"
			],
			"xref": [
				"A subsequence of A007374.",
				"Cf. A000010, A005277, A014573, A004653, A105207, A105208."
			],
			"keyword": "nonn",
			"offset": "1,2",
			"author": "_Alonso del Arte_, Sep 05 2004",
			"ext": [
				"Edited and extended by _Robert G. Wilson v_, Sep 07 2004"
			],
			"references": 10,
			"revision": 43,
			"time": "2018-06-10T04:49:16-04:00",
			"created": "2004-09-22T03:00:00-04:00"
		}
	]
}