{
	"greeting": "Greetings from The On-Line Encyclopedia of Integer Sequences! http://oeis.org/",
	"query": "id:A097874",
	"count": 1,
	"start": 0,
	"results": [
		{
			"number": 97874,
			"data": "1,1,2,4,8,1,17,4,37,13,1,82,40,5,185,116,21,1,423,326,80,6,978,899,279",
			"name": "Duplicate of A097885.",
			"keyword": "dead",
			"offset": "0,3",
			"references": 0,
			"revision": 4,
			"time": "2007-11-10T03:00:00-05:00",
			"created": "2004-09-22T03:00:00-04:00"
		}
	]
}