{
	"greeting": "Greetings from The On-Line Encyclopedia of Integer Sequences! http://oeis.org/",
	"query": "id:A097078",
	"count": 1,
	"start": 0,
	"results": [
		{
			"number": 97078,
			"data": "5,2,3,5,2,1,7,0,0,0,1,7,9,9,9,2,6,6,8,0,0,5,3,4,4,0,4,8,0,6,1,0,9,7,4,1,0,1,7,2,1,3,9,8,4,8,8,5,3,1,5,7,2,7,1,7,7,7,9,6,5,7,6,6,2,6,8,4,0,9,1,5,2,1,1,9,6,6,3,8,5,5,9,1,8,0,5,2,5,6,4,1,0,2,5,9,7,2,4,9",
			"name": "Decimal expansion of positive real number x such that Dedekind eta(sqrt(-1)*x) is maximized.",
			"comment": [
				"A097079 gives the maximum itself. (A097078, A097079) are the coordinates of the maximum on the first graph on the linked World of Mathematics page."
			],
			"link": [
				"Stanislav Sykora, \u003ca href=\"/A097078/b097078.txt\"\u003eTable of n, a(n) for n = 0..2000\u003c/a\u003e",
				"S. Sykora, \u003ca href=\"https://oeis.org/wiki/File:OptimizationFunctions.txt\"\u003ePARI/GP scripts for optimization tasks\u003c/a\u003e",
				"Eric Weisstein's World of Mathematics, \u003ca href=\"http://mathworld.wolfram.com/DedekindEtaFunction.html\"\u003eDedekind Eta Function\u003c/a\u003e",
				"Wikipedia, \u003ca href=\"http://en.wikipedia.org/wiki/Dedekind_eta_function\"\u003eDedekind eta function\u003c/a\u003e"
			],
			"example": [
				"0.523521700017999266800534404806109741017213984885315727177796576626840915211966..."
			],
			"mathematica": [
				"FindMinimum[ 1 / DedekindEta[x*I], {x, .5235}, AccuracyGoal -\u003e 100, MaxIterations -\u003e 1000, WorkingPrecision -\u003e 100] (* _Ed Pegg Jr_, Jul 29 2004 *)"
			],
			"program": [
				"(PARI) See the link"
			],
			"xref": [
				"Cf. A097079 (eta(A097078*i))."
			],
			"keyword": "cons,nonn",
			"offset": "0,1",
			"author": "_Rick L. Shepherd_, Jul 24 2004",
			"ext": [
				"Edited by _Robert G. Wilson v_ and _Vladeta Jovovic_, Jul 28 2004"
			],
			"references": 3,
			"revision": 15,
			"time": "2015-12-01T20:18:05-05:00",
			"created": "2004-09-22T03:00:00-04:00"
		}
	]
}