{
	"greeting": "Greetings from The On-Line Encyclopedia of Integer Sequences! http://oeis.org/",
	"query": "id:A097520",
	"count": 1,
	"start": 0,
	"results": [
		{
			"number": 97520,
			"data": "2169,178478,48989176,1996813914,570623341222,36314872537968,505481300395601404,61159206938673444510,895430244208047130160458,1586309297171503774924202410720,191943424957750505912623737696642,340039485861577398992584799927541447384,4978518112499354698647829714167692967490852",
			"name": "Numbers of the form p^11 + 11^p for p prime.",
			"program": [
				"(MAGMA) [(p^11 + 11^p): p in PrimesUpTo(200)]; // _Vincenzo Librandi_, Feb 04 2011"
			],
			"xref": [
				"Cf. A097317, A097200, A097199, A097059, A097058."
			],
			"keyword": "nonn,easy",
			"offset": "1,1",
			"author": "_Parthasarathy Nambi_, Sep 19 2004",
			"references": 0,
			"revision": 8,
			"time": "2018-01-20T09:08:21-05:00",
			"created": "2004-09-22T03:00:00-04:00"
		}
	]
}