{
	"greeting": "Greetings from The On-Line Encyclopedia of Integer Sequences! http://oeis.org/",
	"query": "id:A097294",
	"count": 1,
	"start": 0,
	"results": [
		{
			"number": 97294,
			"data": "3,2,1,4,2,1,5,2,1,4,3,1,6,2,1,5,3,1,4,3,2,7,2,1,6,3,1,5,4,1,5,3,2,8,2,1,7,3,1,6,4,1,6,3,2,5,4,2,9,2,1,8,3,1,7,4,1,6,5,1,7,3,2,6,4,2,5,4,3,10,2,1,9,3,1,8,4,1,7,5,1,8,3,2,7,4,2,6,5,2,6,4,3,11,2,1,10,3,1,9,4,1,8,5",
			"name": "Contains exactly once every triple i,j,k such that i\u003ej\u003ek\u003e0.",
			"formula": [
				"Obtained by reversing triples in A097293."
			],
			"xref": [
				"Cf. A098293."
			],
			"keyword": "nonn",
			"offset": "1,1",
			"author": "_Clark Kimberling_, Aug 05 2004",
			"references": 0,
			"revision": 2,
			"time": "2012-03-30T18:57:05-04:00",
			"created": "2004-09-22T03:00:00-04:00"
		}
	]
}