{
	"greeting": "Greetings from The On-Line Encyclopedia of Integer Sequences! http://oeis.org/",
	"query": "id:A097649",
	"count": 1,
	"start": 0,
	"results": [
		{
			"number": 97649,
			"data": "1,11,101,1111,10291,100651,1004251,10165751,100064101,1000078501,10000222501,100062501601,1000062516001,10000062660001,100002441447211,1003922328562757,10000390625025601,100000002482366251",
			"name": "Duplicate of A072075.",
			"comment": [
				"Name was: a(n) is the smallest number m such that phi(m)=10^n."
			],
			"keyword": "dead",
			"offset": "0,2",
			"references": 1,
			"revision": 20,
			"time": "2019-08-08T06:39:07-04:00",
			"created": "2004-09-22T03:00:00-04:00"
		}
	]
}