{
	"greeting": "Greetings from The On-Line Encyclopedia of Integer Sequences! http://oeis.org/",
	"query": "id:A097799",
	"count": 1,
	"start": 0,
	"results": [
		{
			"number": 97799,
			"data": "1,2,3,5,7,14,20,27,37,49,85,111,143,184,234,374,585,727,899,1360,1664,2028,2985,4343,5218,6252,7474,8913,12591,14918,17639,24519,33836,39646,46377,54165,63162,85507,99276,115103,133276,154116,205308,272190",
			"name": "Number of partitions of the n-th deficient number into deficient numbers.",
			"link": [
				"Amiram Eldar, \u003ca href=\"/A097799/b097799.txt\"\u003eTable of n, a(n) for n = 1..10000\u003c/a\u003e",
				"Eric Weisstein's World of Mathematics, \u003ca href=\"http://mathworld.wolfram.com/DeficientNumber.html\"\u003eDeficient Number\u003c/a\u003e",
				"Eric Weisstein's World of Mathematics, \u003ca href=\"http://mathworld.wolfram.com/Partition.html\"\u003ePartition\u003c/a\u003e"
			],
			"mathematica": [
				"n = 60; d = Select[Range[n], DivisorSigma[1, #] \u003c 2 # \u0026]; CoefficientList[ Series[1/Product[1 - x^d[[i]], {i, 1, Length[d]}], {x, 0, n}], x][[d + 1]] (* _Amiram Eldar_, Aug 02 2019 *)"
			],
			"xref": [
				"Cf. A005100, A000041, A097797, A097800."
			],
			"keyword": "nonn",
			"offset": "1,2",
			"author": "_Reinhard Zumkeller_, Aug 25 2004",
			"references": 3,
			"revision": 6,
			"time": "2019-08-02T12:59:13-04:00",
			"created": "2004-09-22T03:00:00-04:00"
		}
	]
}