{
	"greeting": "Greetings from The On-Line Encyclopedia of Integer Sequences! http://oeis.org/",
	"query": "id:A097722",
	"count": 1,
	"start": 0,
	"results": [
		{
			"number": 97722,
			"data": "29,83,59,97,911,613,617,919,823,929,631,937,941,743,947,953,859,761,967,971,773,797,983,859,997,8101,9103,5107,9109,6113,9127,6131,9137,4139,1949,9151,9157,6163,8167,9173,8179,9181,8191,7193,6197,9199,7211",
			"name": "Greatest prime that differs from prime(n) in decimal representation by exactly one editing operation: deletion, insertion, or substitution.",
			"comment": [
				"a(n) = Max{p prime: LevenshteinDistance(p, A000040(n))=1};",
				"a(n) \u003e A097721(n)."
			],
			"link": [
				"Michael Gilleland, \u003ca href=\"http://www.merriampark.com/ld.htm\"\u003eLevenshtein Distance\u003c/a\u003e [It has been suggested that this algorithm gives incorrect results sometimes. - _N. J. A. Sloane_]"
			],
			"xref": [
				"Cf. A097720."
			],
			"keyword": "nonn,base",
			"offset": "1,1",
			"author": "_Reinhard Zumkeller_, Aug 23 2004",
			"references": 2,
			"revision": 7,
			"time": "2012-03-30T18:50:45-04:00",
			"created": "2004-09-22T03:00:00-04:00"
		}
	]
}