{
	"greeting": "Greetings from The On-Line Encyclopedia of Integer Sequences! http://oeis.org/",
	"query": "id:A097353",
	"count": 1,
	"start": 0,
	"results": [
		{
			"number": 97353,
			"data": "1,2,28,284,2849,28500,285008,2850083,28500834,285008350,2850083504,28500835049,285008350498,2850083504986,28500835049863,285008350498633,2850083504986335,28500835049863359,285008350498633597,2850083504986335973",
			"name": "Number of digits of the (10^n)-th tetranacci number (A000078(10^n)).",
			"comment": [
				"a(n)/10^n converges to 0.28500835..."
			],
			"link": [
				"Herman Jamke (hermanjamke(AT)fastmail.fm), May 01 2007, \u003ca href=\"/A097353/b097353.txt\"\u003eTable of n, a(n) for n = 0..25\u003c/a\u003e",
				"Tito Piezas III, \u003ca href=\"http://www.oocities.org/titus_piezas/Fibonacci.htm\"\u003eOn Fibonacci Numbers and Their Friends\u003c/a\u003e."
			],
			"formula": [
				"a(n) = floor(log_10(r) + (10^n-2)*log_10(x)) + 1 for n \u003e= 1, where x is the positive real root of the tetranacci limit equation x^4 - x^3 - x^2 - x - 1 = 0, x = 1.92756... and r is the positive real root of the tetranacci auxiliary equation 563r^4 - 20r^2 - 5r - 1 = 0, r = 0.293813... - Herman Jamke (hermanjamke(AT)fastmail.fm), May 01 2007"
			],
			"example": [
				"Let t(n) = A000078(n). Then we have t(1) = 0, t(10) = 56, t(100) = 2505471397838180985096739296, with respectively 1, 2, 28 and 284 digits."
			],
			"maple": [
				"# This Maple code will at least get the first few terms correctly!",
				"f:=proc(n) option remember; if n \u003c= 2 then RETURN(0); fi; if n = 3 then RETURN(1); fi; f(n-1) + f(n-2) + f(n-3) +f(n-4); end; for n from 0 to 4 do lprint(f(10^n), length(f(10^n))); od;"
			],
			"mathematica": [
				"a = b = c = 0; d = i = 1; Do[e = a + b + c + d; a = b; b = c; c = d; d = e; If[n == 10^i, Print[Length[IntegerDigits[e]]]; i++ ], {n, 4, 10^6}] (* _Ryan Propper_, Jul 22 2005 *)"
			],
			"program": [
				"(PARI) \\p 100 x=solve(x=1.9274,1.9276,x^4-x^3-x^2-x-1); r=solve(x=0.2937,0.2939,563*x^4-20*x^2-5*x-1); for(k=1,25,n=10^k;print1(floor( (log(r)+(n-2)*log(x))/log(10) )+1\",\")) \\\\ Herman Jamke (hermanjamke(AT)fastmail.fm), May 01 2007"
			],
			"keyword": "nonn,base",
			"offset": "0,2",
			"author": "_Michael Taktikos_, Sep 17 2004",
			"ext": [
				"2 more terms from _Ryan Propper_, Jul 22 2005",
				"More terms from Herman Jamke (hermanjamke(AT)fastmail.fm), May 01 2007"
			],
			"references": 1,
			"revision": 19,
			"time": "2019-12-07T08:19:39-05:00",
			"created": "2004-09-22T03:00:00-04:00"
		}
	]
}