{
	"greeting": "Greetings from The On-Line Encyclopedia of Integer Sequences! http://oeis.org/",
	"query": "id:A097419",
	"count": 1,
	"start": 0,
	"results": [
		{
			"number": 97419,
			"data": "2,6,66,8646,149497986,44699295486614406,3996054033999333969062944766851266,31936895685284700329548847429175178142518023225832967407199564754246",
			"name": "a(1) = 2, a(n) = 2*a(n-1)^2 - a(n-1) for n \u003e 1.",
			"comment": [
				"These numbers when factored are 2*3, 2*3*11, 2*3*11*131, 2*3*11*131*17291, 2*3*11*131*17291*298995971, 2*3*11*131*8779*10079*17291*298995971*1010341471, 2*3*11*29*59*131*241*8779*10079*17291*298995971*1010341471*2511683491*7716660340023314591, so a(n) is a prime multiple of a(n-1) for 2\u003c=n\u003c=6. 2,3,11,131,17291,298995971 are A090475 [Beginning with 2, a(n+1) is the least prime == -1 (mod (product a(i), i=1 to n)).]"
			],
			"xref": [
				"Cf. A090475."
			],
			"keyword": "nonn",
			"offset": "1,1",
			"author": "_Gerald McGarvey_, Aug 19 2004",
			"references": 2,
			"revision": 3,
			"time": "2012-03-31T14:11:11-04:00",
			"created": "2004-09-22T03:00:00-04:00"
		}
	]
}