{
	"greeting": "Greetings from The On-Line Encyclopedia of Integer Sequences! http://oeis.org/",
	"query": "id:A097970",
	"count": 1,
	"start": 0,
	"results": [
		{
			"number": 97970,
			"data": "1,4,6,16,22,39,103,163,240,1048,1974,2559,5880,14436,28338,32796,38079,56779,91215,111325,115863,138604",
			"name": "Numbers n such that 7*10^n + 3 is prime.",
			"comment": [
				"a(23) \u003e 2*10^5. - _Robert Price_, Aug 15 2015"
			],
			"link": [
				"Makoto Kamada, \u003ca href=\"https://stdkmd.net/nrr/7/70003.htm#prime\"\u003ePrime numbers of the form 700...003\u003c/a\u003e.",
				"Sabin Tabirca and Kieran Reynolds, \u003ca href=\"http://multimedia.ucc.ie/Staff/ST/articles/SNJ03_Tabirca1.ps\"\u003eLacunary Prime Numbers\u003c/a\u003e.",
				"\u003ca href=\"/index/Pri#Pri_rep\"\u003eIndex entries for primes involving repunits\u003c/a\u003e."
			],
			"formula": [
				"a(n) = A101129(n) + 1."
			],
			"example": [
				"For n = 1 we have 7*10^1+3 =7*10+3 = 73, which is prime."
			],
			"mathematica": [
				"Do[ If[ PrimeQ[ 7*10^n + 3], Print[ n ]], {n, 0, 10000}] (* _Robert G. Wilson v_, Jan 19 2005 *)",
				"Flatten[Position[Table[7 10^n+3,{n,100000}],_?PrimeQ]] (* _Harvey P. Dale_, Nov 01 2011 *)",
				"Select[Range[15000], PrimeQ[7 10^# + 3] \u0026] (* _Vincenzo Librandi_, Aug 16 2015 *)"
			],
			"program": [
				"(PARI) main(m)=select(n-\u003eisprime(7*10^n + 3),vector(m,i,i)) \\\\ _Anders Hellström_, Aug 15 2015",
				"(MAGMA) [n: n in [0..500] | IsPrime(7*10^n + 3)]; // _Vincenzo Librandi_, Aug 16 2015"
			],
			"xref": [
				"Cf. A101129."
			],
			"keyword": "more,nonn",
			"offset": "1,2",
			"author": "Julien Peter Benney (jpbenney(AT)ftml.net), Sep 07 2004",
			"ext": [
				"a(10)-a(13) from _Robert G. Wilson v_, Jan 19 2005",
				"a(14)-a(19) from Kamada data by _Robert Price_, Dec 14 2010",
				"a(20)-a(22) from _Robert Price_, Aug 15 2015"
			],
			"references": 2,
			"revision": 30,
			"time": "2019-01-17T13:44:06-05:00",
			"created": "2004-09-22T03:00:00-04:00"
		}
	]
}