{
	"greeting": "Greetings from The On-Line Encyclopedia of Integer Sequences! http://oeis.org/",
	"query": "id:A098735",
	"count": 1,
	"start": 0,
	"results": [
		{
			"number": 98735,
			"data": "2,10,14,10,55,91,7,17,19,11,253,13,13,29,31,17,17,703,19,41,43,23,1081,1,1,53,1,29,1711,1891,31,1,67,1,71,2701,37,1,79,41,3403,43,43,89,1,47,47,97,1,101,103,53,5671,109,1,113,1,59,59,61,61,1,127,1,131,67,67,137",
			"name": "Numerator of sum of all matrix elements M(i,j) = i^2 + j^2 (i,j = 1..n) divided by n!.",
			"comment": [
				"This is a highly irregular sequence with high points belonging to hexagonal numbers A000384(n) = n*(2n-1) or second hexagonal numbers A014105(n) = n*(2n+1). All other elements of this sequence are equal to 1, n, (n+1) or (2n+1).",
				"Numbers n such that a(n) = 1 are {24, 25, 27, 32, 34, 38, 45, 49, 55, 57, 62, 64, 76, 77, 80, 84, 85, 87, 91, 92, 93, 94, ...}. a(n) = n only iff n is prime such that 2n+1 is composite. Such primes (non-Sophie Germain primes) are listed in A053176(n) = {7, 13, 17, 19, 31, 37, 43, 47, 59, 61, 67, 71, 73, 79, 97, ...}. a(n) = n+1 for n = {1, 10, 12, 16, 22, 28, 40, 42, 46, 52, 58, 60, 66, 70, 72, 82, 88, 100, ...}, which coincides with one exception (4) with A109274(n) = {1, 4, 10, 12, 16, 22, 28, 40, 42, 46, 52, 58, 60, ...} Numbers n such that n+1 is prime, 2n+1 composite. a(n) = 2n+1 for n = {8, 9, 14, 15, 20, 21, 26, 33, 35, 39, 44, 48, 50, 51, 54, 56, 63, 65, 68, 69, 74, 75, 81, 86, 90, 95, 98, 99, ...} = A096784(n) Numbers n such that both n and n+1 are composite numbers that sum up to a prime. a(n) = n*(2n+1) for n = {2, 5, 11, 23, 29, 41, 53, 83, 89, 113, 131, 173, 179, 191, ...}, which coincides with one exception (3) with A005384(n) = {2, 3, 5, 11, 23, 29, 41, 53, 83, 89, 113, 131, 173, 179, 191, ...} Sophie Germain primes p: 2p+1 is also prime. a(n) = (n+1)*(2n+1) for n = 6k, where k = {1, 3, 5, 6, 13, 16, 23, 26, 33, 35, 38, 45, 51, 55, 56, 61, 63, 73, 83, 91, 96, 100, ...}. - _Alexander Adamchuk_, Nov 15 2006",
				"Numbers n such that a(n) = 1 are listed in A123608(n) = {24, 25, 27, 32, 34, 38, 45, 49, 55, 57, 62, 64, 76, 77, 80, 84, 85, 87, 91, 92, 93, 94, ...} Numbers n such that n, n+1 and 2n+1 are composite. - _Alexander Adamchuk_, Jan 05 2007"
			],
			"formula": [
				"a(n) = Numerator[1/n!*A098077(n)].",
				"a(n) = Numerator[ n*(n+1)*(2n+1)/3/(n-1)! ]. - _Alexander Adamchuk_, Nov 15 2006"
			],
			"example": [
				"1/n!*A098077(n) begins 2, 10, 14, 10, 55/12, 91/60, 7/18, 17/210, 19/1344, ... So a(6) = 91."
			],
			"mathematica": [
				"Numerator[Table[1/n!*Sum[Sum[(i^2+j^2), {i, 1, n}], {j, 1, n}], {n, 1, 100}]]",
				"Table[ Numerator[ n*(n+1)*(2n+1)/3/(n-1)! ], {n,1,100} ] - _Alexander Adamchuk_, Nov 15 2006"
			],
			"xref": [
				"Cf. A098077.",
				"Cf. A000384, A014105.",
				"Cf. A053176, A109274, A096784, A005384.",
				"Cf. A123608 = numbers n such that n, n+1 and 2n+1 are composite."
			],
			"keyword": "nonn",
			"offset": "1,1",
			"author": "_Alexander Adamchuk_, Oct 28 2004",
			"references": 1,
			"revision": 9,
			"time": "2012-12-29T02:14:24-05:00",
			"created": "2005-02-20T03:00:00-05:00"
		}
	]
}