{
	"greeting": "Greetings from The On-Line Encyclopedia of Integer Sequences! http://oeis.org/",
	"query": "id:A098842",
	"count": 1,
	"start": 0,
	"results": [
		{
			"number": 98842,
			"data": "7,5,5,4,5,5,5,4,5,5,5,5,4,5,5,5,5,4,5,5,5,4,5,5,5,5,4,5,5,5,5,4,5,5,5,4,5,5,5,5,4,5,5,5,4,5,5,5,5,4,5,5,5,5,4,5,5,5,4,5,5,5,5,4,5,5,5,5,4,5,5,5,4,5,5,5,5,4,5,5,5,5,4,5,5,5,4,5,5,5,5,4,5,5,5,5,4,5,5,5,4,5,5,5,5",
			"name": "Number of n-digit Fibonacci numbers.",
			"comment": [
				"a(1)=7 because the Fibonacci numbers having one digit are the first seven; then the next five have two digits, so a(2)=5."
			],
			"link": [
				"Reinhard Zumkeller, \u003ca href=\"/A098842/b098842.txt\"\u003eTable of n, a(n) for n = 1..1000\u003c/a\u003e",
				"Ron Knott, \u003ca href=\"http://www.maths.surrey.ac.uk/hosted-sites/R.Knott/Fibonacci/fibtable.html\"\u003eThe Fibonacci Numbers\u003c/a\u003e.",
				"Ron Knott, \u003ca href=\"http://www.maths.surrey.ac.uk/hosted-sites/R.Knott/Fibonacci/fibFormula.html\"\u003e[Number of digits in Fib(i)] : Calculator\u003c/a\u003e."
			],
			"mathematica": [
				"Join[{7},Rest[Length[#]\u0026/@Split[IntegerLength[Fibonacci[Range[510]]]]]] (* _Harvey P. Dale_, Jul 19 2020 *)"
			],
			"program": [
				"(Haskell)",
				"a098842 n = a098842_list !! (n-1)",
				"a098842_list = map length $ group a060384_list",
				"-- _Reinhard Zumkeller_, Mar 09 2013"
			],
			"xref": [
				"Essentially the same as A050815, which is the main entry for this sequence. Cf. A000045, A060384."
			],
			"keyword": "base,easy,nonn",
			"offset": "1,1",
			"author": "Alex Vinokur (alexvn(AT)barak-online.net), Nov 03 2004",
			"ext": [
				"Corrected by _Alexandre Wajnberg_, Mar 28 2005"
			],
			"references": 4,
			"revision": 12,
			"time": "2020-07-19T16:00:04-04:00",
			"created": "2005-02-20T03:00:00-05:00"
		}
	]
}