{
	"greeting": "Greetings from The On-Line Encyclopedia of Integer Sequences! http://oeis.org/",
	"query": "id:A098498",
	"count": 1,
	"start": 0,
	"results": [
		{
			"number": 98498,
			"data": "1,5,23,60,110,172,248,338,442,560,692,838,998,1172,1360,1562,1778,2008,2252,2510,2782,3068,3368,3682,4010,4352,4708,5078,5462,5860,6272,6698,7138,7592,8060,8542,9038,9548,10072,10610,11162,11728,12308,12902,13510",
			"name": "Number of squares on infinite half chessboard at \u003c=n knight moves from a fixed point on the edge.",
			"link": [
				"\u003ca href=\"/index/Rec#order_03\"\u003eIndex entries for linear recurrences with constant coefficients\u003c/a\u003e, signature (3,-3,1)."
			],
			"formula": [
				"a(n) = 7*n^2 - n + 2, for n\u003e3.",
				"a(n) = 3*a(n-1)-3*a(n-2)+a(n-3) for n\u003e6. G.f.: -(2*x^6 -x^5 -6*x^4 +5*x^3 +11*x^2 +2*x +1) / (x -1)^3. - _Colin Barker_, Jul 14 2013"
			],
			"example": [
				"5 squares are reachable after 1 move, from these you can reach 18 new squares more, so a(1)=5 and a(2)=23."
			],
			"xref": [
				"See A018836 (unbounded), A098499 (diagonal halfplane), A098500 (quadrant), A098501 (octant)."
			],
			"keyword": "nonn,easy",
			"offset": "0,2",
			"author": "_Ralf Stephan_, Sep 15 2004",
			"ext": [
				"More terms from _Colin Barker_, Jul 14 2013"
			],
			"references": 6,
			"revision": 9,
			"time": "2017-06-17T02:52:17-04:00",
			"created": "2004-09-22T03:00:00-04:00"
		}
	]
}