{
	"greeting": "Greetings from The On-Line Encyclopedia of Integer Sequences! http://oeis.org/",
	"query": "id:A098199",
	"count": 1,
	"start": 0,
	"results": [
		{
			"number": 98199,
			"data": "2,1,2,2,1,1,46,459,2,3,1,2,2,1,1,8,18,1,1,1,1,6,5,6,14,1,2,1,1,140,1,2,1,1,2,1,9,16,1,2,1,1,1,15,1,3,55,1,1,12,1,1,5,4,6,13,2,2,7,2,32,1,1,6,1,1,54,1,1,1,21,1,2,1,3,4,5,15,1,6,1,2,5,1,1,7,1,834,2,1,4,8,3,2,3,1,5",
			"name": "List of the partial quotients of the continued fraction for (Pi^4)/36~2.705808084277845, the limiting value of ratio A024916[n]/A002088[n]=SummatorySigma/SummatoryTotient.",
			"mathematica": [
				"\u003c\u003cNumberTheory`ContinuedFractions` cf=ContinuedFraction[(Pi^4)/36, 256]"
			],
			"xref": [
				"Cf. A024916, A002088, A098198."
			],
			"keyword": "cofr,nonn",
			"offset": "1,1",
			"author": "_Labos Elemer_, Sep 21 2004",
			"references": 0,
			"revision": 5,
			"time": "2013-10-15T22:32:34-04:00",
			"created": "2004-09-22T03:00:00-04:00"
		}
	]
}