{
	"greeting": "Greetings from The On-Line Encyclopedia of Integer Sequences! http://oeis.org/",
	"query": "id:A098675",
	"count": 1,
	"start": 0,
	"results": [
		{
			"number": 98675,
			"data": "41,241,1601,1609,2441,2969,3041,3449,3929,4001,4409,5009,6089,6521",
			"name": "Duplicate of A056213.",
			"keyword": "dead",
			"offset": "1,1",
			"references": 0,
			"revision": 3,
			"time": "2007-05-11T03:00:00-04:00",
			"created": "2004-09-22T03:00:00-04:00"
		}
	]
}