{
	"greeting": "Greetings from The On-Line Encyclopedia of Integer Sequences! http://oeis.org/",
	"query": "id:A098484",
	"count": 1,
	"start": 0,
	"results": [
		{
			"number": 98484,
			"data": "1,1,1,1,7,19,37,61,145,397,979,2107,4591,10915,26857,63649,146347,339751,808885,1936717,4588705,10803133,25559287,60893551,145231309,345462145,821110051,1955736379,4668132067,11146642903,26605635949",
			"name": "Expansion of 1/sqrt((1-x)^2-12x^4).",
			"comment": [
				"1/sqrt((1-x)^2-4rx^4) expands to sum{k=0..floor(n/2), binomial(n-2k,k)binomial(n-3k,k)r^k}."
			],
			"link": [
				"Vincenzo Librandi, \u003ca href=\"/A098484/b098484.txt\"\u003eTable of n, a(n) for n = 0..200\u003c/a\u003e"
			],
			"formula": [
				"a(n)=sum{k=0..floor(n/2), binomial(n-2k, k)binomial(n-3k, k)3^k}.",
				"D-finite with recurrence: n*a(n) = (2*n-1)*a(n-1) - (n-1)*a(n-2) + 12*(n-2)*a(n-4). - _Vaclav Kotesovec_, Jun 23 2014",
				"a(n) ~ sqrt(3) * (1+sqrt(1+8*sqrt(3)))^n / (sqrt(49+10*sqrt(3)-sqrt(397+884*sqrt(3))) * sqrt(Pi*n) * 2^(n-1)). - _Vaclav Kotesovec_, Jun 23 2014"
			],
			"mathematica": [
				"CoefficientList[Series[1/Sqrt[(1-x)^2-12*x^4], {x, 0, 20}], x] (* _Vaclav Kotesovec_, Jun 23 2014 *)"
			],
			"xref": [
				"Cf. A098481, A098482, A098483."
			],
			"keyword": "easy,nonn",
			"offset": "0,5",
			"author": "_Paul Barry_, Sep 10 2004",
			"references": 3,
			"revision": 12,
			"time": "2020-01-30T21:29:15-05:00",
			"created": "2004-09-22T03:00:00-04:00"
		}
	]
}