{
	"greeting": "Greetings from The On-Line Encyclopedia of Integer Sequences! http://oeis.org/",
	"query": "id:A098667",
	"count": 1,
	"start": 0,
	"results": [
		{
			"number": 98667,
			"data": "1,1,1,2,2,4,4,4,4,6,6,6,6,8,10,10,10,10,10,10,10,12,12,12,12,16,16,16,16,16,16,16,16,18,18,18,18,22,22,22,22,22,22,22,22,28,28,28,28,28,28,28,28,28,28,28,28,30,30,30,30,36,36,36,36,36,36,36,36,36,36,36,36,40",
			"name": "Max{m: A098666(n,k)=1 for 1\u003c=k\u003c=m\u003c=n}.",
			"comment": [
				"A098666(n,k)=1 for k\u003c=a(n), A098666(n,a(n)+1)\u003e1 for n\u003e1."
			],
			"keyword": "nonn",
			"offset": "1,4",
			"author": "_Reinhard Zumkeller_, Sep 20 2004",
			"references": 1,
			"revision": 3,
			"time": "2012-03-30T18:50:47-04:00",
			"created": "2004-09-22T03:00:00-04:00"
		}
	]
}