{
	"greeting": "Greetings from The On-Line Encyclopedia of Integer Sequences! http://oeis.org/",
	"query": "id:A098889",
	"count": 1,
	"start": 0,
	"results": [
		{
			"number": 98889,
			"data": "1,1,2,3,4,6,9,13,18,27,39,57,82,119,172,249,359,520,751,1085,1568,2265",
			"name": "Duplicate of A061481.",
			"keyword": "dead",
			"offset": "1,3",
			"references": 0,
			"revision": 2,
			"time": "2005-07-19T03:00:00-04:00",
			"created": "2005-02-20T03:00:00-05:00"
		}
	]
}