{
	"greeting": "Greetings from The On-Line Encyclopedia of Integer Sequences! http://oeis.org/",
	"query": "id:A098759",
	"count": 1,
	"start": 0,
	"results": [
		{
			"number": 98759,
			"data": "11,111,112,21,12,211,113,31,13,311,114,41,14,411,115,51,15,511,116,61,16,611,117,71,17,711,118,81,18,811,119,91,19,911,1101,101,102,201,103,301,104,401,105,501,106,601,107,701,108,801,109,901,1011,1102,202,203",
			"name": "Smallest available integer a(n) beginning with the last two reversed digits of a(n-1).",
			"comment": [
				"The pattern \"last two digits of a(n), period, first two digits of a(n+1)\" is palindromic.",
				"a(n) must be chosen so its rightmost digit is nonzero. - _Sam Alexander_, Jan 04 2005"
			],
			"keyword": "base,easy,nonn",
			"offset": "1,1",
			"author": "_Eric Angelini_, Oct 01 2004",
			"ext": [
				"More terms from _Sam Alexander_, Jan 04 2005"
			],
			"references": 0,
			"revision": 5,
			"time": "2013-10-09T14:20:20-04:00",
			"created": "2005-02-20T03:00:00-05:00"
		}
	]
}