{
	"greeting": "Greetings from The On-Line Encyclopedia of Integer Sequences! http://oeis.org/",
	"query": "id:A098003",
	"count": 1,
	"start": 0,
	"results": [
		{
			"number": 98003,
			"data": "1,3,4,2,7,8,6,11,12,9,15,16,5,19,20,14,23,24,17,27,28,13,31,32,22,35,36,25,39,40,18,43,44,30,47,48,33,51,52,10,55,56,38,59,60,41,63,64,29,67,68,46,71,72,49,75,76,34,79,80,54,83,84,57,87,88,26,91,92",
			"name": "Start with positive integers. On the m-th step, shift terms a(m+1) to a(2m-1) one position to the left, then move a(m) to position (2m-1). Sequence is limit of reordering.",
			"comment": [
				"An analysis of this sequence was provided by Keith Ramsay - see link."
			],
			"link": [
				"Ivan Neretin, \u003ca href=\"/A098003/b098003.txt\"\u003eTable of n, a(n) for n = 1..10000\u003c/a\u003e",
				"Keith Ramsay, \u003ca href=\"http://groups.google.com/group/sci.math/msg/d11ac58ab66884ed\"\u003eRecursively Rotated Permutation.\u003c/a\u003e Posting in newsgroup sci.math, Sep 10 2004",
				"\u003ca href=\"/index/Per#IntegerPermutation\"\u003eIndex entries for sequences that are permutations of the natural numbers\u003c/a\u003e"
			],
			"example": [
				"[1,2,3,4,5,6,...] -\u003e [1,3,2,4,5,6,...] -\u003e [1,3,4,5,2,6,...] -\u003e [1,3,4,2,6,7,...] -\u003e [1,3,4,2,7,5,...] -\u003e [1,3,4,2,7,8,...] -\u003e ..."
			],
			"mathematica": [
				"mx = 69; Take[Fold[Insert[Delete[#1, #2], #1[[#2]], 2 #2 - 1] \u0026, Range[2 mx], Range[mx]], mx] (* _Ivan Neretin_, Mar 05 2016 *)"
			],
			"xref": [
				"Cf. A098046 for inverse permutation, A098486 auxiliary sequence explaning the behavior of column 1, if the sequence is written in a 3-entries-per-line table."
			],
			"keyword": "nonn",
			"offset": "1,2",
			"author": "_Leroy Quet_, Sep 08 2004",
			"ext": [
				"More terms from _Hugo Pfoertner_, Sep 08 2004"
			],
			"references": 4,
			"revision": 21,
			"time": "2016-03-05T22:27:04-05:00",
			"created": "2004-09-22T03:00:00-04:00"
		}
	]
}