{
	"greeting": "Greetings from The On-Line Encyclopedia of Integer Sequences! http://oeis.org/",
	"query": "id:A098606",
	"count": 1,
	"start": 0,
	"results": [
		{
			"number": 98606,
			"data": "0,1,76,7032,889920,151876800,33953713920,9671337446400,3426840152064000,1480226878835712000,766252171508060160000,468506511112577236992000,334155981137427201392640000",
			"name": "Sum of all matrix elements M(i,j) = (i^2)/(i+j).",
			"formula": [
				"a(n) = (2*n)!*Sum[Sum[(i^2)/(i+j), {i, 1, n}], {j, 1, n}]"
			],
			"mathematica": [
				"Table[(2*n)!*Sum[Sum[(i^2)/(i+j), {i, 1, n}], {j, 1, n}], {n, 0, 15}]"
			],
			"keyword": "nonn",
			"offset": "0,3",
			"author": "_Alexander Adamchuk_, Oct 26 2004",
			"references": 0,
			"revision": 3,
			"time": "2012-03-31T13:20:25-04:00",
			"created": "2005-02-20T03:00:00-05:00"
		}
	]
}