{
	"greeting": "Greetings from The On-Line Encyclopedia of Integer Sequences! http://oeis.org/",
	"query": "id:A098624",
	"count": 1,
	"start": 0,
	"results": [
		{
			"number": 98624,
			"data": "1,0,1,2,15,84,750,6852,79639,1006184,14875218,241078100,4392257716,87279581232,1905609327583,45008114794874,1150897256534370,31580332783936416,928535967078634497,29090873853321687666,969132936087009709174,34198721664081728281400",
			"name": "Consider the family of multigraphs enriched by the species of derangements. Sequence gives number of those multigraphs with n labeled edges.",
			"reference": [
				"G. Paquin, Dénombrement de multigraphes enrichis, Mémoire, Math. Dept., Univ. Québec à Montréal, 2004."
			],
			"link": [
				"Andrew Howroyd, \u003ca href=\"/A098624/b098624.txt\"\u003eTable of n, a(n) for n = 0..200\u003c/a\u003e",
				"G. Paquin, \u003ca href=\"/A038205/a038205.pdf\"\u003eDénombrement de multigraphes enrichis\u003c/a\u003e, Mémoire, Math. Dept., Univ. Québec à Montréal, 2004. [Cached copy, with permission]"
			],
			"formula": [
				"E.g.f.: B(R(x)) where B(x) is the e.g.f. of A014500 and 1 + R(x) is the e.g.f. of A000166. - _Andrew Howroyd_, Jan 12 2021"
			],
			"program": [
				"(PARI) \\\\ R(n) is A000166 as e.g.f.; EnrichedGnSeq defined in A098620.",
				"R(n)={exp(-x + O(x*x^n))/(1-x)}",
				"EnrichedGnSeq(R(20)) \\\\ _Andrew Howroyd_, Jan 12 2021"
			],
			"xref": [
				"Cf. A000166, A014500, A098620, A098625, A098626, A098627."
			],
			"keyword": "nonn",
			"offset": "0,4",
			"author": "_N. J. A. Sloane_, Oct 26 2004",
			"ext": [
				"Terms a(14) and beyond from _Andrew Howroyd_, Jan 12 2021"
			],
			"references": 3,
			"revision": 13,
			"time": "2021-01-12T18:56:08-05:00",
			"created": "2005-02-20T03:00:00-05:00"
		}
	]
}