{
	"greeting": "Greetings from The On-Line Encyclopedia of Integer Sequences! http://oeis.org/",
	"query": "id:A098586",
	"count": 1,
	"start": 0,
	"results": [
		{
			"number": 98586,
			"data": "2,5,13,32,78,189,457,1104,2666,6437,15541,37520,90582,218685,527953,1274592,3077138,7428869,17934877,43298624,104532126,252362877,609257881,1470878640,3551015162,8572908965,20696833093,49966575152,120629983398,291226541949",
			"name": "a(n) = (1/2) * (5*P(n+1) + P(n) - 1), where P(k) are the Pell numbers A000129.",
			"link": [
				"Colin Barker, \u003ca href=\"/A098586/b098586.txt\"\u003eTable of n, a(n) for n = 0..1000\u003c/a\u003e",
				"Hermann Stamm-Wilbrandt, \u003ca href=\"/A098586/a098586.svg\"\u003e4 interlaced bisections\u003c/a\u003e",
				"\u003ca href=\"/index/Rec#order_03\"\u003eIndex entries for linear recurrences with constant coefficients\u003c/a\u003e, signature (3,-1,-1)."
			],
			"formula": [
				"a(n) = 3*a(n-1) - a(n-2) - a(n-3) with a(0)=2, a(1)=5, a(2)=13. - _Hermann Stamm-Wilbrandt_, Aug 26 2014",
				"G.f.: (2-x)/((1-x)*(1-2*x-x^2)). - _Robert Israel_, Aug 26 2014",
				"a(n) = 7*a(n-2) - 7*a(n-4) + a(n-6), for n\u003e5. - _Hermann Stamm-Wilbrandt_, Aug 27 2014",
				"a(2*n-1) = A006451(2*n), for n\u003e0. - _Hermann Stamm-Wilbrandt_, Aug 27 2014",
				"a(2*n) = A124124(2*n+2). - _Hermann Stamm-Wilbrandt_, Aug 27 2014",
				"a(n) = (-2+(5-3*sqrt(2))*(1-sqrt(2))^n + (1+sqrt(2))^n*(5+3*sqrt(2)))/4. - _Colin Barker_, Mar 16 2016"
			],
			"maple": [
				"A:= LREtools[REtoproc](a(n) = 3*a(n-1) - a(n-2) - a(n-3), a(n), {a(0)=2, a(1)=5, a(2)=13}):",
				"seq(A(n),n=0..100); # _Robert Israel_, Aug 26 2014"
			],
			"mathematica": [
				"LinearRecurrence[{3, -1, -1}, {2, 5, 13}, 28] (* _Hermann Stamm-Wilbrandt_, Aug 26 2014 *)",
				"CoefficientList[Series[(2-x)/((1-x)*(1-2*x-x^2)), {x,0,50}], x] (* _G. C. Greubel_, Feb 03 2018"
			],
			"program": [
				"(PARI) Vec((2-x)/((1-x)*(1-2*x-x^2)) + O(x^50)) \\\\ _Colin Barker_, Mar 16 2016",
				"(MAGMA) I:=[2,5,13]; [n le 3 select I[n] else 3*Self(n-1) - Self(n-2) - Self(n-3): n in [1..30]]; // _G. C. Greubel_, Feb 03 2018"
			],
			"xref": [
				"Cf. A006451, A124124."
			],
			"keyword": "nonn,easy",
			"offset": "0,1",
			"author": "_Creighton Dement_, Oct 03 2004",
			"ext": [
				"Formula supplied by _Thomas Baruchel_, Oct 03 2004",
				"More terms from _Emeric Deutsch_, Nov 17 2004"
			],
			"references": 6,
			"revision": 37,
			"time": "2018-02-03T13:41:35-05:00",
			"created": "2005-02-20T03:00:00-05:00"
		}
	]
}