{
	"greeting": "Greetings from The On-Line Encyclopedia of Integer Sequences! http://oeis.org/",
	"query": "id:A098564",
	"count": 1,
	"start": 0,
	"results": [
		{
			"number": 98564,
			"data": "10,15,21,28,35,36,45,55,56,66,78,84,91,105,126,136,153,165,171,190,220,231,253,276,286,300,325,330,351,364,378,406,435,455,462,465,495,496,528,560,561,595,630,666,680,703,715,741,780,792,816,820",
			"name": "Numbers that appear as binomial coefficients exactly 4 times.",
			"comment": [
				"Let f(k) be the sequence of numbers that appear as binomial coefficients exactly k times:",
				"f(1) = {2}.",
				"f(2) = A137905.",
				"f(3) = A000984 (central binomial coefficients) except for first 2 terms: {1,2}.",
				"f(4) = this sequence.",
				"f(5) appears to be empty.",
				"f(6) = A098565.",
				"f(7) appears to be empty.",
				"f(8) begins with 3003."
			],
			"link": [
				"T. D. Noe, \u003ca href=\"/A098564/b098564.txt\"\u003eTable of n, a(n) for n=1..1000\u003c/a\u003e"
			],
			"mathematica": [
				"binmax = 10^5; dm = 100; Clear[f]; f[m_] := f[m] = (Join[Table[Binomial[n, k], {n, 1, m}, {k, 1, n-1}], Table[Table[{Binomial[n, 1], Binomial[n, 2]}, {2}], {n, m+1, binmax}]] // Flatten // Tally // Select[#, #[[1]] \u003c= binmax \u0026\u0026 #[[2]] == 4\u0026]\u0026)[[All, 1]] // Sort; f[dm]; f[m = 2*dm]; While[f[m] != f[m-dm], Print[m]; m = m+dm]; f[m] (* _Jean-François Alcover_, Mar 10 2014 *)"
			],
			"xref": [
				"Cf. A000984, A098565, A137905."
			],
			"keyword": "nonn",
			"offset": "1,1",
			"author": "_Paul D. Hanna_, Oct 27 2004",
			"references": 3,
			"revision": 9,
			"time": "2014-03-10T15:21:15-04:00",
			"created": "2005-02-20T03:00:00-05:00"
		}
	]
}