{
	"greeting": "Greetings from The On-Line Encyclopedia of Integer Sequences! http://oeis.org/",
	"query": "id:A099053",
	"count": 1,
	"start": 0,
	"results": [
		{
			"number": 99053,
			"data": "1,1,2,2,3,3,4,3,3,4,4,4,5,4,4,3,4,4,5,5,6,5,5,5,4,5,4,5,5,5,5,4,5,5",
			"name": "a(n) is the smallest number of 1s and 2s that are needed to construct n using any number of +, -, *, ^ signs but not allowing concatenation of digits.",
			"comment": [
				"Subexpressions can be grouped as needed; equivalently, any number of parentheses can be used in the expression.",
				"Yet another definition of the complexity of a number.",
				"It can be assumed that no subexpression can be \u003c= 0. The only way to generate a negative value is to take a-b with a \u003c b; taking b-a instead gives the absolute value of this expression. For any further number generated using the negative value, the absolute value of that number is obtainable using the absolute value of the subexpression(s). Generating an intermediate zero is useless. - _Franklin T. Adams-Watters_, Jul 29 2011"
			],
			"link": [
				"\u003ca href=\"/index/Com#complexity\"\u003eIndex to sequences related to the complexity of n\u003c/a\u003e"
			],
			"example": [
				"1 = 1, so has complexity 1.",
				"2 = 2, so has complexity 1.",
				"3 = 1+2, so has complexity 2.",
				"4 = 2+2 = 2*2 = 2^2, so has complexity 2.",
				"5 = 2+1+2, so has complexity 3.",
				"...",
				"16 = 2^2^2, so has complexity 3."
			],
			"xref": [
				"Positions of records are given in A060274."
			],
			"keyword": "nonn,more",
			"offset": "1,3",
			"author": "Tim Peters (tim.one(AT)comcast.net), Nov 14 2004",
			"references": 2,
			"revision": 18,
			"time": "2018-02-07T12:28:00-05:00",
			"created": "2005-02-20T03:00:00-05:00"
		}
	]
}