{
	"greeting": "Greetings from The On-Line Encyclopedia of Integer Sequences! http://oeis.org/",
	"query": "id:A099096",
	"count": 1,
	"start": 0,
	"results": [
		{
			"number": 99096,
			"data": "1,0,2,0,-1,4,0,0,-4,8,0,0,1,-12,16,0,0,0,6,-32,32,0,0,0,-1,24,-80,64,0,0,0,0,-8,80,-192,128,0,0,0,0,1,-40,240,-448,256,0,0,0,0,0,10,-160,672,-1024,512,0,0,0,0,0,-1,60,-560,1792,-2304,1024,0,0,0,0,0",
			"name": "Riordan array (1,2-x).",
			"comment": [
				"Row sums are n+1 = Sum_{k=0..n} binomial(k,n-k)*2^(2k-n)*(-1)^(n-k). Diagonal sums are (-1)^n*A008346(n). The Riordan array (1,s+tx) defines T(n,k) = binomial(k,n-k)*s^k*(t/s)^(n-k). The row sums satisfy a(n) = s*a(n-1) + t*a(n-2) and the diagonal sums satisfy a(n) = s*a(n-2) + t*a(n-3).",
				"Triangle T(n,k), 0 \u003c= k \u003c= n, read by rows given by [0, -1/2, 1/2, 0, 0, 0, 0, ...] DELTA [2, 0, 0, 0, 0, ...] where DELTA is the operator defined in A084938. - _Philippe Deléham_, Nov 10 2008"
			],
			"formula": [
				"Number triangle T(n, k) = binomial(k, n-k)*2^k*(-1/2)^(n-k); columns have g.f. (2x-x^2)^k.",
				"G.f. of column k of matrix power T^m = (1 - (1-x)^(2^m))^k for k \u003e= 0, when including the leading zeros that appear above the diagonal. - _Paul D. Hanna_, Nov 15 2007",
				"T(n,k) = 2*T(n-1,k-1) - T(n-2,k-1), with T(0,0)=1, T(n,k)=0 if k \u003c 0 or if k \u003e n. - _Philippe Deléham_, Nov 25 2013",
				"G.f.: 1/(1-2*x*y+x^2*y). - _R. J. Mathar_, Aug 12 2015"
			],
			"example": [
				"Rows begin",
				"  1;",
				"  0,   2;",
				"  0,  -1,   4;",
				"  0,   0,  -4,   8;",
				"  0,   0,   1, -12,  16;",
				"  ..."
			],
			"program": [
				"(PARI) /* Matrix power T^m formula: [T^m](n,k) = */ {T(n,k,m=1)=polcoeff((1 - (1-x +x*O(x^n))^(2^m) )^k,n)} \\\\ _Paul D. Hanna_, Nov 15 2007"
			],
			"xref": [
				"Cf. A099089."
			],
			"keyword": "sign,easy,tabl",
			"offset": "0,3",
			"author": "_Paul Barry_, Sep 25 2004",
			"references": 0,
			"revision": 20,
			"time": "2020-01-25T01:42:12-05:00",
			"created": "2005-02-20T03:00:00-05:00"
		}
	]
}