{
	"greeting": "Greetings from The On-Line Encyclopedia of Integer Sequences! http://oeis.org/",
	"query": "id:A099002",
	"count": 1,
	"start": 0,
	"results": [
		{
			"number": 99002,
			"data": "1,8,5,6,7,0,8,6,1,6,2,9,0,1,3,6,0,9,9,0,8,3,9,6,6,7,8,9,5,1,2,4,5,2,2,5,1,3,8,4,6,0,3,2,7,7,1,6,1,1,9,5,9,8,2,7,9,4,8,1,8,8,6,0,8,6,7,8,6,0,4,5,0,0,8,6,7,1,6,9,6,1,3,2,2,1,9,0,7,4,6,2,7,2,8,3,4,7,1,2,5,6,5,4,9",
			"name": "Decimal expansion of Sum_{n\u003e0} Product_{m=1..n} 1/(Prime(m+1)-Prime(m)).",
			"example": [
				"1.85670861629013609908396678951245225138460327716119598279481886086..."
			],
			"mathematica": [
				"RealDigits[ Sum[ Product[1/(Prime[m + 1] - Prime[m]), {m, n}], {n, 160}], 10, 111][[1]] (* _Robert G. Wilson v_, Nov 09 2004 *)"
			],
			"keyword": "nonn,cons",
			"offset": "1,2",
			"author": "_Roger L. Bagula_, Nov 06 2004",
			"ext": [
				"Edited by _Robert G. Wilson v_, Nov 09 2004"
			],
			"references": 1,
			"revision": 6,
			"time": "2015-07-28T00:01:27-04:00",
			"created": "2005-02-20T03:00:00-05:00"
		}
	]
}