{
	"greeting": "Greetings from The On-Line Encyclopedia of Integer Sequences! http://oeis.org/",
	"query": "id:A099607",
	"count": 1,
	"start": 0,
	"results": [
		{
			"number": 99607,
			"data": "1,2,3,9,21,40,100,225,482,1119,2513,5565,12636,28376,63481,143118,321483,721413,1622729,3645740,8188668,18406009,41355654,92914375,208799157,469157625,1054150840,2368736000,5322460497,11959337226",
			"name": "Antidiagonal sums of triangle A099605, in which row n equals the inverse binomial transform of column n of the triangle A034870 of even-indexed rows of Pascal's triangle.",
			"formula": [
				"G.f.: (1+2*x+x^2-x^3)/(1-2*x^2-6*x^3-3*x^4+2*x^5+x^6)."
			],
			"program": [
				"(PARI) {a(n)=polcoeff((1+2*x+x^2-x^3)/(1-2*x^2-6*x^3-3*x^4+2*x^5+x^6)+x*O(x^n),n)}"
			],
			"xref": [
				"Cf. A099604, A099605, A034870."
			],
			"keyword": "nonn",
			"offset": "0,2",
			"author": "_Paul D. Hanna_, Oct 25 2004",
			"references": 1,
			"revision": 4,
			"time": "2012-03-30T18:36:43-04:00",
			"created": "2005-02-20T03:00:00-05:00"
		}
	]
}