{
	"greeting": "Greetings from The On-Line Encyclopedia of Integer Sequences! http://oeis.org/",
	"query": "id:A099954",
	"count": 1,
	"start": 0,
	"results": [
		{
			"number": 99954,
			"data": "19,22,31,41,59,107,193,199,227,467",
			"name": "Numbers n such that Fibonacci(n) is a semiprime and its reversal is a different semiprime.",
			"comment": [
				"a(11) \u003e 1000. [_Donovan Johnson_, Jun 06 2009]"
			],
			"example": [
				"F(19) = 4181 = 37 * 113, Reverse[F(19)] = 1814 = 2 * 907."
			],
			"maple": [
				"with(combinat): with(numtheory): rev:=proc(n) local nn: nn:=convert(n,base,10): add(nn[nops(nn)+1-j]*10^(j-1),j=1..nops(nn)) end: a:=proc(n): if rev(fibonacci(n))\u003c\u003efibonacci(n) and bigomega(fibonacci(n))=2 and bigomega(rev(fibonacci(n)))=2 then n else fi end: seq(a(n),n=1..200); # _Emeric Deutsch_, Jul 26 2006"
			],
			"mathematica": [
				"fspQ[n_]:=Module[{f=Fibonacci[n]},f!=IntegerReverse[f]\u0026\u0026PrimeOmega[f] == PrimeOmega[IntegerReverse[f]]==2]; Select[Range[470],fspQ] (* _Harvey P. Dale_, Jul 24 2016 *)"
			],
			"xref": [
				"Intersection of A000045 and A097393."
			],
			"keyword": "nonn,base,more",
			"offset": "1,1",
			"author": "_Jonathan Vos Post_ and _G. L. Honaker, Jr._, Nov 13 2004",
			"ext": [
				"More terms from _Emeric Deutsch_, Jul 26 2006",
				"a(10) from _Donovan Johnson_, Jun 06 2009"
			],
			"references": 1,
			"revision": 14,
			"time": "2016-07-24T09:30:48-04:00",
			"created": "2005-02-20T03:00:00-05:00"
		}
	]
}