{
	"greeting": "Greetings from The On-Line Encyclopedia of Integer Sequences! http://oeis.org/",
	"query": "id:A099228",
	"count": 1,
	"start": 0,
	"results": [
		{
			"number": 99228,
			"data": "2,5,7,23,47,61,79,167,223,359,439,503,509,727,839,997,1019,1087,1223,1367,1847,2207,2399,2741,3023,3719,3967,4093,4759,5039,5623,5927,6553,7919,8179,8647,10607,11447,13687,14159,14639,15619,16127,17159,17573",
			"name": "Primes of the form m^k-k, with m and k \u003e 1.",
			"comment": [
				"It appears that primes of this form are much more common than primes of the form m^k+k (A099227)."
			],
			"link": [
				"Vincenzo Librandi, \u003ca href=\"/A099228/b099228.txt\"\u003eTable of n, a(n) for n = 1..1000\u003c/a\u003e"
			],
			"mathematica": [
				"nLim=32000; lst={}; Do[k=2; While[n=m^k-k; n\u003c=nLim, AppendTo[lst, n]; k++ ], {m, 2, Sqrt[nLim]}]; Select[Union[lst], PrimeQ]"
			],
			"xref": [
				"Cf. A057897 (numbers of the form m^k-k, with m and k \u003e 1), A084746 (least k such that n^k-k is prime).",
				"Cf. A099227."
			],
			"keyword": "nonn",
			"offset": "1,1",
			"author": "_T. D. Noe_, Oct 06 2004",
			"references": 4,
			"revision": 10,
			"time": "2021-06-06T09:01:21-04:00",
			"created": "2005-02-20T03:00:00-05:00"
		}
	]
}