{
	"greeting": "Greetings from The On-Line Encyclopedia of Integer Sequences! http://oeis.org/",
	"query": "id:A099210",
	"count": 1,
	"start": 0,
	"results": [
		{
			"number": 99210,
			"data": "100000,4084101,503284375,6240321451,228669389707,919358226007,9138686662951,50787635527751,184267035634793,1422324234276593,3316864672715351,10194147150028951,26571041229338407,61478268295547399,163964318358625093,353206366482671393",
			"name": "a(n)=(P(n)*P(n+2))^5 with P(i)=i-th prime.",
			"example": [
				"100000=(2*5)^5"
			],
			"mathematica": [
				"(First[#]Last[#])^5\u0026/@Partition[Prime[Range[20]],3,1] (* _Harvey P. Dale_, May 26 2013 *)"
			],
			"keyword": "easy,nonn",
			"offset": "1,1",
			"author": "_Pierre CAMI_, Oct 06 2004",
			"ext": [
				"More terms from _Harvey P. Dale_, May 26 2013"
			],
			"references": 0,
			"revision": 5,
			"time": "2013-05-26T08:38:07-04:00",
			"created": "2005-02-20T03:00:00-05:00"
		}
	]
}