{
	"greeting": "Greetings from The On-Line Encyclopedia of Integer Sequences! http://oeis.org/",
	"query": "id:A099908",
	"count": 1,
	"start": 0,
	"results": [
		{
			"number": 99908,
			"data": "0,3,10,35,126,462,1716,2339,4627,2378,1332,4238,2198,5148,1260,57635,14740,85026,61732,64410,100509,163716,158172,171918,93876,309780,148969,444220,268280,370712,29792,532771,652200,938386,816466,907874",
			"name": "C(2n-1,n-1) mod n^4.",
			"comment": [
				"a(16843)=a(2124679)=1 meaning that 16843 and 2124679 are Wolstenholme primes A088164."
			],
			"link": [
				"Chai Wah Wu, \u003ca href=\"/A099908/b099908.txt\"\u003eTable of n, a(n) for n = 1..10000\u003c/a\u003e"
			],
			"example": [
				"a(11) =352716 mod 1461 =1332."
			],
			"mathematica": [
				"Table[Mod[Binomial[2n-1,n-1],n^4],{n,40}] (* _Harvey P. Dale_, Dec 12 2021 *)"
			],
			"program": [
				"(Python)",
				"from __future__ import division",
				"A099908_list, b = [], 1",
				"for n in range(1,10001):",
				"    A099908_list.append(b % n**4)",
				"    b = b*2*(2*n+1)//(n+1) # _Chai Wah Wu_, Jan 26 2016"
			],
			"xref": [
				"Cf. A088164, A088218, A099905, A099906, A099907."
			],
			"keyword": "nonn",
			"offset": "1,2",
			"author": "_Henry Bottomley_, Oct 29 2004",
			"references": 7,
			"revision": 8,
			"time": "2021-12-12T11:00:51-05:00",
			"created": "2005-02-20T03:00:00-05:00"
		}
	]
}