{
	"greeting": "Greetings from The On-Line Encyclopedia of Integer Sequences! http://oeis.org/",
	"query": "id:A099452",
	"count": 1,
	"start": 0,
	"results": [
		{
			"number": 99452,
			"data": "1,5,16,40,79,110,23,-520,-2336,-6995,-16574,-31075,-38848,9560,258631,1043950,2978719,6781640,12060848,13119125,-12022526,-124662155,-461573264,-1259138680,-2752822273,-4615067410,-4134056729,8360350360,58685747584,202130368445,528415922498",
			"name": "An Alexander sequence for the knot 7_7.",
			"comment": [
				"The denominator is a parameterization of the Alexander polynomial for the knot 7_7. 1/(1-5*x+9*x^2-5*x^3+x^4) is the image of the g.f. of A099450 under the modified Chebyshev transform A(x)-\u003e(1/(1+x^2)^2)A(x/(1+x^2))."
			],
			"link": [
				"Dror Bar-Natan, \u003ca href=\"http://katlas.org/wiki/Main_Page\"\u003eThe Rolfsen Knot Table\u003c/a\u003e",
				"\u003ca href=\"/index/Rec#order_04\"\u003eIndex entries for linear recurrences with constant coefficients\u003c/a\u003e, signature (5,-9,5,-1)."
			],
			"formula": [
				"G.f.: (1-x)*(1+x)*(1+x^2)/(1-5*x+9*x^2-5*x^3+x^4). - corrected by _R. J. Mathar_, Nov 24 2012",
				"a(n)=A099451(n)-A099451(n-2)."
			],
			"mathematica": [
				"LinearRecurrence[{5,-9,5,-1},{1,5,16,40,79},40] (* _Harvey P. Dale_, Apr 18 2019 *)"
			],
			"keyword": "easy,sign",
			"offset": "0,2",
			"author": "_Paul Barry_, Oct 16 2004",
			"references": 2,
			"revision": 12,
			"time": "2019-04-18T09:57:14-04:00",
			"created": "2005-02-20T03:00:00-05:00"
		}
	]
}