{
	"greeting": "Greetings from The On-Line Encyclopedia of Integer Sequences! http://oeis.org/",
	"query": "id:A099225",
	"count": 1,
	"start": 0,
	"results": [
		{
			"number": 99225,
			"data": "6,11,18,20,27,30,37,38,51,66,67,70,83,85,102,123,128,135,146,171,198,219,227,248,258,260,264,291,326,346,363,402,443,486,515,521,531,578,627,629,678,731,732,735,786,843,902,963,1003,1026,1029,1034,1091,1158",
			"name": "Numbers of the form m^k+k, with m and k \u003e 1.",
			"comment": [
				"For n=11, there are two representations: 2^3+3 and 3^2+2. All other numbers \u003c 10^16 of this form have a unique representation. The uniqueness question leads to a Pillai-like exponential Diophantine equation a^x-b^y = y-x for y \u003e x \u003e 1 and b \u003e a \u003e 1, which appears to have only one solution."
			],
			"link": [
				"Robert Israel, \u003ca href=\"/A099225/b099225.txt\"\u003eTable of n, a(n) for n = 1..10000\u003c/a\u003e"
			],
			"maple": [
				"N:= 2000: # for terms \u003c= N",
				"S:= {}:",
				"for k from 2 to floor(log[2](N)) do",
				"  S:= S union {seq(m^k+k, m=2..floor((N-k)^(1/k)))}",
				"od:",
				"sort(convert(S,list)); # _Robert Israel_, Apr 28 2019"
			],
			"mathematica": [
				"nLim=2000; lst={}; Do[k=2; While[n=m^k+k; n\u003c=nLim, AppendTo[lst, n]; k++ ], {m, 2, Sqrt[nLim]}]; Union[lst]"
			],
			"xref": [
				"Cf. A057897 (numbers of the form m^k-k, with m and k \u003e 1), A074981 (n such that there is no solution to Pillai's equation), A099226 (numbers that can be represented as both a^x+x and b^y-y, for some a, b, x, y \u003e 1)."
			],
			"keyword": "nonn",
			"offset": "1,1",
			"author": "_T. D. Noe_, Oct 06 2004",
			"references": 7,
			"revision": 11,
			"time": "2021-02-01T18:18:52-05:00",
			"created": "2005-02-20T03:00:00-05:00"
		}
	]
}