{
	"greeting": "Greetings from The On-Line Encyclopedia of Integer Sequences! http://oeis.org/",
	"query": "id:A099117",
	"count": 1,
	"start": 0,
	"results": [
		{
			"number": 99117,
			"data": "152,436381660,574954797841668608,388062759166540341977143692000,137515819873369461005150742745259538637500000,25797761881848486655895899589856317740988916476499759600000000",
			"name": "Number of rhombus tilings of a hexagon with side lengths 2n+3,2n-1,2n+3,2n+3,2n-1,2n+3 which contain the rhombus above and next to the center of the hexagon.",
			"link": [
				"M. Fulmek and C. Krattenthaler, \u003ca href=\"https://arxiv.org/abs/math/9909038\"\u003eThe number of rhombus tilings of a symmetric hexagon which contain a fixed rhombus on the symmetry axis, II\u003c/a\u003e, arXiv:math/9909038 [math.CO], 1999."
			],
			"mathematica": [
				"a[n_] := (1/3+2(6n^2+9n+2)/(n+1)^2 Binomial[2n, n]^3/Binomial[6n+4, 3n+2]) Product[(i+j+k-1)/(i+j+k-2), {i, 1, 2n+3}, {j, 1, 2n-1}, {k, 1, 2n+3}];",
				"Array[a, 6] (* _Jean-François Alcover_, Nov 18 2018, from PARI *)"
			],
			"program": [
				"(PARI) a(n)=(1/3+2*(6*n*n+9*n+2)/(n+1)^2*binomial(2*n,n)^3/binomial(6*n+4,3*n+2))*prod(i=1,2*n+3,prod(j=1,2*n-1,prod(k=1,2*n+3,(i+j+k-1)/(i+j+k-2))))"
			],
			"xref": [
				"Cf. A099112, A099113, A099114, A099115, A099116, A008793."
			],
			"keyword": "nonn",
			"offset": "1,1",
			"author": "_Ralf Stephan_, Oct 01 2004",
			"references": 5,
			"revision": 8,
			"time": "2018-11-18T07:50:24-05:00",
			"created": "2005-02-20T03:00:00-05:00"
		}
	]
}