{
	"greeting": "Greetings from The On-Line Encyclopedia of Integer Sequences! http://oeis.org/",
	"query": "id:A099733",
	"count": 1,
	"start": 0,
	"results": [
		{
			"number": 99733,
			"data": "0,4,12,0,24,8,12,0,52,8,12,0,4,8,0,56,72,40,60,0,52,24,92,48,28,96,312,40",
			"name": "a(n) is the number of active cells after a solid n X n square has reached a static state or constant population, closed and infinite loop in Conway's Game of Life.",
			"comment": [
				"Starting population for n is n^2.",
				"a(n)=0 for n={1,4,8,12,15,20,..?..}, meaning that after a particular, finite number of generations, the grid is forever empty.",
				"a(n) reaches a nonempty, single static state after a particular, finite number of generations for n={2,5,6,10,13,14,16,18,22,24,26,27,28,..?..}.",
				"a(n) enters a constant population, infinite, two-state and closed loop after a particular, finite number of generations for n={3,7,9,11,17,19,21,23,25,..?..}.",
				"For even generations \u003e 153, a(29)=128. For odd generations \u003e 153, a(29)=120. n=29 is the first value of a(n) for which the system enters a two-state loop with variable population after a particular, finite number of generations."
			],
			"link": [
				"Eric Weisstein's World of Mathematics, \u003ca href=\"https://mathworld.wolfram.com/GameofLife.html\"\u003eGame of Life\u003c/a\u003e"
			],
			"example": [
				"a(5)=24 because a 5 X 5 solid square placed on an otherwise empty grid at generation 0 in Conway's Game of Life will enter a static state at generation 11 with 24 cells forever alive/active/on."
			],
			"keyword": "nonn,more",
			"offset": "1,2",
			"author": "Joseph Biberstine (jrbibers(AT)indiana.edu), Nov 08 2004",
			"references": 2,
			"revision": 7,
			"time": "2020-08-04T13:38:28-04:00",
			"created": "2005-02-20T03:00:00-05:00"
		}
	]
}