{
	"greeting": "Greetings from The On-Line Encyclopedia of Integer Sequences! http://oeis.org/",
	"query": "id:A099472",
	"count": 1,
	"start": 0,
	"results": [
		{
			"number": 99472,
			"data": "1,2,3,4,5,9,14,17,18,20,21,35,41",
			"name": "Numbers n such that binomial(n,m) cannot be represented as the sum of three squares for any 0 \u003c= m \u003c= n.",
			"link": [
				"Andrew Granville and Yiliang Zhu, \u003ca href=\"http://www.dms.umontreal.ca/~andrew/PDF/YZhu.pdf\"\u003eRepresenting binomial coefficients as sums of squares\u003c/a\u003e, Amer. Math. Monthly, Vol. 97, No. 6 (1990), 486-493."
			],
			"mathematica": [
				"NoRepAs3Sqrs[n_] := Module[{e2}, e2=IntegerExponent[n, 2]; If[EvenQ[e2], 7==Mod[n/2^e2, 8], False]]; Select[Range[200], {}==Flatten[Position[Table[NoRepAs3Sqrs[Binomial[ #, m]], {m, #}], True]]\u0026]"
			],
			"xref": [
				"Cf. A004215 (sums of 4 but no fewer nonzero squares), A099473."
			],
			"keyword": "fini,full,nonn",
			"offset": "1,2",
			"author": "_T. D. Noe_, Oct 18 2004",
			"references": 1,
			"revision": 7,
			"time": "2017-10-01T10:01:48-04:00",
			"created": "2005-02-20T03:00:00-05:00"
		}
	]
}