{
	"greeting": "Greetings from The On-Line Encyclopedia of Integer Sequences! http://oeis.org/",
	"query": "id:A099941",
	"count": 1,
	"start": 0,
	"results": [
		{
			"number": 99941,
			"data": "4,6,26,666,443546,196733054106,38703894577874323459226,1497991455495209454913926565546156918884519066,2243978400736656089037771915607429213031952311714405870405411591378207718779971154117512346",
			"name": "a(0) = 4; for n\u003e0, a(n) = a(n-1)^2 - 10.",
			"link": [
				"A. V. Aho and N. J. A. Sloane, \u003ca href=\"https://www.fq.math.ca/Scanned/11-4/aho-a.pdf\"\u003eSome doubly exponential sequences\u003c/a\u003e, Fibonacci Quarterly, Vol. 11, No. 4 (1973), pp. 429-437, \u003ca href=\"http://neilsloane.com/doc/doubly.html\"\u003ealternative link\u003c/a\u003e."
			],
			"formula": [
				"a(n) ~ c^(2^n), where c = 2.25389493024591818564987473260518595497528199646373551430047151255211... . - _Vaclav Kotesovec_, May 21 2015"
			],
			"mathematica": [
				"RecurrenceTable[{a[n]==a[n-1]^2-10, a[0]==4},a,{n,0,10}] (* _Vaclav Kotesovec_, May 21 2015 *)"
			],
			"keyword": "nonn",
			"offset": "0,1",
			"author": "_N. J. A. Sloane_, Nov 12 2004",
			"references": 0,
			"revision": 8,
			"time": "2021-04-07T02:49:57-04:00",
			"created": "2005-02-20T03:00:00-05:00"
		}
	]
}