{
	"greeting": "Greetings from The On-Line Encyclopedia of Integer Sequences! http://oeis.org/",
	"query": "id:A099866",
	"count": 1,
	"start": 0,
	"results": [
		{
			"number": 99866,
			"data": "1,2,1,3,4,20,5,35,56,504,70,770,3960,1144,1001,45045,80080,1361360,204204,184756,67184,470288,323323,7436429,27457584,228813200,106234700,2868336900,356948592,10351509168,145568097675,45581929575,85801279200",
			"name": "Denominator of sum of all elements M(i,j,k) = i*j/k, (i,j,k = 1..n). a(n) = Denominator[Sum[Sum[Sum[i*j/k,{i,1,n}],{j,1,n}],{k,1,n}]].",
			"formula": [
				"a(n) = Denominator[Sum[Sum[Sum[i*j/k, {i, 1, n}], {j, 1, n}], {k, 1, n}]]",
				"a(n) = denominator of ((n^2+n)/2)^2*Sum(1/i, i=1..n). - _Vladeta Jovovic_, Oct 30 2004"
			],
			"example": [
				"Sum[M(i,j,k)] begins 1, 27/2, 66, 625/3, 2055/4, 21609/20, ... So a(2) = 2."
			],
			"mathematica": [
				"Table[ Denominator[ Sum[ i*j/k, {i, n}, {j, n}, {k, n}]], {n, 33}]"
			],
			"xref": [
				"Corresponding numerator is A099865",
				"Cf. A099865."
			],
			"keyword": "nonn",
			"offset": "1,2",
			"author": "_Alexander Adamchuk_, Oct 28 2004",
			"ext": [
				"More terms from _Robert G. Wilson v_, Nov 02 2004"
			],
			"references": 1,
			"revision": 6,
			"time": "2013-05-10T12:45:37-04:00",
			"created": "2005-02-20T03:00:00-05:00"
		}
	]
}