{
	"greeting": "Greetings from The On-Line Encyclopedia of Integer Sequences! http://oeis.org/",
	"query": "id:A099189",
	"count": 1,
	"start": 0,
	"results": [
		{
			"number": 99189,
			"data": "2,31,31,61,71,601,701,911,8501,9901",
			"name": "Smallest prime which is n times its reversal.",
			"mathematica": [
				"f[n_] := Block[{k = 1}, While[p = Prime[k]; p \u003c= n*FromDigits[ Reverse[ IntegerDigits[p]]], k++ ]; Prime[k]]; Table[ f[n], {n, 0, 9}]"
			],
			"keyword": "base,fini,full,nonn",
			"offset": "0,1",
			"author": "_Robert G. Wilson v_, Oct 01 2004",
			"references": 0,
			"revision": 3,
			"time": "2012-03-30T17:31:06-04:00",
			"created": "2005-02-20T03:00:00-05:00"
		}
	]
}