{
	"greeting": "Greetings from The On-Line Encyclopedia of Integer Sequences! http://oeis.org/",
	"query": "id:A099688",
	"count": 1,
	"start": 0,
	"results": [
		{
			"number": 99688,
			"data": "1,1,925,25766833",
			"name": "Consider the family of multigraphs enriched by the species of mod-6 sets. Sequence gives number of those multigraphs with 6n edges.",
			"reference": [
				"G. Paquin, Dénombrement de multigraphes enrichis, Mémoire, Math. Dept., Univ. Québec à Montréal, 2004."
			],
			"link": [
				"G. Paquin, \u003ca href=\"/A038205/a038205.pdf\"\u003eDénombrement de multigraphes enrichis\u003c/a\u003e, Mémoire, Math. Dept., Univ. Québec à Montréal, 2004. [Cached copy, with permission]"
			],
			"keyword": "nonn",
			"offset": "0,3",
			"author": "_N. J. A. Sloane_, Oct 26 2004",
			"references": 0,
			"revision": 9,
			"time": "2017-06-25T15:11:04-04:00",
			"created": "2005-02-20T03:00:00-05:00"
		}
	]
}