{
	"greeting": "Greetings from The On-Line Encyclopedia of Integer Sequences! http://oeis.org/",
	"query": "id:A099679",
	"count": 1,
	"start": 0,
	"results": [
		{
			"number": 99679,
			"data": "1,3,6,9,2,6,16,18,6,22,27,28,15,6,3,6,5,21,46,42,48,13,18,58,60,18,33,66,35,8,6,13,81,41,84,44,6,15,96,18,4,34,53,108,3,112,18,48,22,15,42,21,130,18,8,46,138,6,42,148,75,144,78,39,66,81,166,78,18,43,174,178",
			"name": "Least m such that repunit R_m is a multiple of A045572(n) (i.e., odd numbers not divisible by 5).",
			"link": [
				"Charles R Greathouse IV, \u003ca href=\"/A099679/b099679.txt\"\u003eTable of n, a(n) for n = 1..10000\u003c/a\u003e",
				"P. de Geest, \u003ca href=\"http://www.worldofnumbers.com/repunits.htm\"\u003eRepunits and their prime factors\u003c/a\u003e",
				"T. Granlund, \u003ca href=\"http://www.swox.com/gmp/fac10m.txt\"\u003eFactors of 10^n - 1\u003c/a\u003e",
				"M. Kamada, \u003ca href=\"https://stdkmd.net/nrr/repunit/\"\u003eFactorizations of 11...11(Repunits)\u003c/a\u003e",
				"Y. Koide, \u003ca href=\"http://www.h4.dion.ne.jp/~rep\"\u003eFactorization of Repunit Numbers\u003c/a\u003e",
				"P. Yiu, \u003ca href=\"http://math.fau.edu/yiu/RecreationalMathematics2003.pdf\"\u003eFactorization of Repunits R_n for n\u003c=50\u003c/a\u003e, Appendix Chap. 18.5 pp. 173/360 in 'Recreational Mathematics'."
			],
			"mathematica": [
				"f[n_] := Block[{k = 1}, While[ Mod[(10^k - 1)/9, n] != 0, k++ ]; k]; f /@ Select[ 2Range[ 90] - 1, Mod[ #, 5] != 0 \u0026] (* _Robert G. Wilson v_, Oct 27 2004 *)"
			],
			"program": [
				"(PARI) A(n)={ \\\\ Least m such that n | R_m",
				"    my(f=factor(n),s=1,t);",
				"    for(i=1,#f[,1],",
				"        if(f[i,1]==3,",
				"            t=3",
				"        ,",
				"            t=Mod(10,9*f[i,1]);",
				"            fordiv(f[i,1]-1,d,",
				"                if(t^d==1,t=d;break)",
				"            )",
				"        );",
				"        t*=f[i,1]^(f[i,2]-1);",
				"        s=lcm(s,t)",
				"    );",
				"    s",
				"};",
				"a(n)=A(10*(n\u003e\u003e2)+[-1, 1, 3, 7][n%4+1]) \\\\ Least m such that A045572(n) | R_m",
				"\\\\ _Charles R Greathouse IV_, Jul 31 2011"
			],
			"xref": [
				"Cf. A002275, A045572."
			],
			"keyword": "nonn,easy",
			"offset": "1,2",
			"author": "_Lekraj Beedassy_, Oct 26 2004",
			"ext": [
				"Corrected and extended by _Robert G. Wilson v_, Oct 27 2004"
			],
			"references": 5,
			"revision": 22,
			"time": "2019-01-17T13:44:06-05:00",
			"created": "2005-02-20T03:00:00-05:00"
		}
	]
}