{
	"greeting": "Greetings from The On-Line Encyclopedia of Integer Sequences! http://oeis.org/",
	"query": "id:A100493",
	"count": 1,
	"start": 0,
	"results": [
		{
			"number": 100493,
			"data": "5,8,12,14,19,21,28,30,34,36,44,46,48,52,54,62,66,69,74,77,79,84,88,93,99,103,109,113,115,117,122,125,127,129,141,147,152,156,158,161,163,165,172,177,179,187,189,191,194,196,206,210,212,215,221,225,234,236",
			"name": "a(n) = n + n-th semiprime.",
			"comment": [
				"This is the semiprime analog of A014688."
			],
			"link": [
				"Robert Israel, \u003ca href=\"/A100493/b100493.txt\"\u003eTable of n, a(n) for n = 1..10000\u003c/a\u003e",
				"Eric Weisstein, World of Mathematics, \u003ca href=\"http://mathworld.wolfram.com/Semiprime.html\"\u003eSemiprime.\u003c/a\u003e"
			],
			"formula": [
				"a(n) = n + A001358(n).",
				"a(n) ~ n log n / log log n. [_Charles R Greathouse IV_, Dec 28 2011]"
			],
			"example": [
				"a(7) = 7 + semiprime(7) = 7 + 21 = 28."
			],
			"maple": [
				"N:= 1000: # to use semiprimes \u003c= N",
				"Primes:= select(isprime, [2,seq(i,i=3..N,2)]):",
				"Semiprimes:= sort(convert(select(`\u003c=`,{seq(seq(Primes[i]*Primes[j],i=1..j),j=1..nops(Primes))},N),list)):",
				"seq(i+Semiprimes[i],i=1..nops(Semiprimes)); # _Robert Israel_, Dec 20 2015"
			],
			"xref": [
				"Cf. A001358, A014688, A100466, A100467, A100915, A100916."
			],
			"keyword": "easy,nonn",
			"offset": "1,1",
			"author": "_Jonathan Vos Post_, Nov 20 2004",
			"ext": [
				"Edited, corrected and extended by _Ray Chandler_, Nov 26 2004"
			],
			"references": 7,
			"revision": 18,
			"time": "2015-12-21T13:07:38-05:00",
			"created": "2005-02-20T03:00:00-05:00"
		}
	]
}