{
	"greeting": "Greetings from The On-Line Encyclopedia of Integer Sequences! http://oeis.org/",
	"query": "id:A100887",
	"count": 1,
	"start": 0,
	"results": [
		{
			"number": 100887,
			"data": "-1,2,1,0,4,4,5,12,17,26,46,72,115,190,305,492,800,1292,2089,3384,5473,8854,14330,23184,37511,60698,98209,158904,257116,416020,673133,1089156,1762289,2851442,4613734,7465176,12078907,19544086,31622993,51167076",
			"name": "Expansion of (-1+2x+2x^2)/((1+x+x^2)(1-x-x^2)).",
			"comment": [
				"This sequence was investigated in cooperation with Paul Barry. Generating floretion: - 0.5'i - 0.5'k - 0.5j' - 0.5'ii' + 0.5'jj' - 0.5'kk' + 0.5'ik' - 0.5'ki' (\"les\")."
			],
			"formula": [
				"a(n) = Fib(n+1)/2 - sqrt(3)cos(2Pi*n/3 + Pi/6); a(n) = a(n-2) + 2a(n-3) + a(n-4), a(0) = -1, a(1) = 2, a(2) = 1, a(3) = 0"
			],
			"mathematica": [
				"a[n_] := Fibonacci[n + 1]/2 - Sqrt[3]Cos[2Pi*n/3 + Pi/6]; Table[ a[n], {n, 0, 39}]",
				"a[0] = -1; a[1] = 2; a[2] = 1; a[3] = 0; a[n_] := a[n] = a[n - 2] + 2a[n - 3] + a[n - 4]; Table[ a[n], {n, 0, 39}]",
				"CoefficientList[ Series[(-1 + 2x + 2x^2)/((1 - x - x^2)(1 + x + x^2)), {x, 0, 39}], x] (* _Robert G. Wilson v_, Dec 02 2004 *)"
			],
			"program": [
				"(PARI) Vec((-1+2*x+2*x^2)/((1+x+x^2)*(1-x-x^2))+O(x^99)) \\\\ _Charles R Greathouse IV_, Sep 26 2012"
			],
			"xref": [
				"Cf. A100886, A100888, A100889, A100890."
			],
			"keyword": "sign,easy",
			"offset": "0,2",
			"author": "_Creighton Dement_, Nov 21 2004",
			"ext": [
				"Edited and extended by _Robert G. Wilson v_, Dec 02 2004"
			],
			"references": 2,
			"revision": 9,
			"time": "2015-07-30T01:28:06-04:00",
			"created": "2005-02-20T03:00:00-05:00"
		}
	]
}