{
	"greeting": "Greetings from The On-Line Encyclopedia of Integer Sequences! http://oeis.org/",
	"query": "id:A100865",
	"count": 1,
	"start": 0,
	"results": [
		{
			"number": 100865,
			"data": "1,4,74,8457,186282390,430917181166219,41151315877490090952542206046,13991468824374967392702752173757116934238293984253807017",
			"name": "Records in the continued fraction expansion A100864.",
			"comment": [
				"These terms are doubly exponential. The next term has 106 digits. Positions of these large partial quotients are given by A100866. _Hans Havermann_ has observed that the ratio of number-of-digits to position number is about 1.03, nearly equal to the reciprocal of Lochs constant."
			],
			"link": [
				"Dzmitry Badziahin, Jeffrey Shallit, \u003ca href=\"http://arxiv.org/abs/1505.00667\"\u003eAn Unusual Continued Fraction\u003c/a\u003e, arXiv:1505.00667 [math.NT], 2015."
			],
			"xref": [
				"Cf. A006519, A100338, A100863, A100864, A100866."
			],
			"keyword": "nonn",
			"offset": "1,2",
			"author": "_Paul D. Hanna_, Nov 21 2004",
			"references": 4,
			"revision": 13,
			"time": "2015-05-05T07:06:54-04:00",
			"created": "2005-02-20T03:00:00-05:00"
		}
	]
}