{
	"greeting": "Greetings from The On-Line Encyclopedia of Integer Sequences! http://oeis.org/",
	"query": "id:A100146",
	"count": 1,
	"start": 0,
	"results": [
		{
			"number": 100146,
			"data": "1,48,221,600,1265,2296,3773,5776,8385,11680,15741,20648,26481,33320,41245,50336,60673,72336,85405,99960,116081,133848,153341,174640,197825,222976,250173,279496,311025,344840,381021,419648",
			"name": "Structured great rhombicubeoctahedral numbers.",
			"link": [
				"Vincenzo Librandi, \u003ca href=\"/A100146/b100146.txt\"\u003eTable of n, a(n) for n = 1..5000\u003c/a\u003e"
			],
			"formula": [
				"a(n) = (1/6)*(80*n^3 - 102*n^2 + 28*n).",
				"a(n) = ((n-1)+1)*(5*(n-1)+3)*(8*(n-1)+1)/3; g.f.: x*(1 + 44*x + 35*x^2)/(1-x)^4. - _Jaume Oliver Lafont_, Sep 08 2009"
			],
			"program": [
				"(MAGMA) [((n-1)+1)*(5*(n-1)+3)*(8*(n-1)+1)/3: n in [1..40]]; // _Vincenzo Librandi_, Jul 19 2011"
			],
			"xref": [
				"Cf. A100145, A100147 for adjacent structured Archimedean solids; and A100145 for more on structured polyhedral numbers."
			],
			"keyword": "easy,nonn",
			"offset": "1,2",
			"author": "James A. Record (james.record(AT)gmail.com), Nov 07 2004",
			"references": 3,
			"revision": 11,
			"time": "2018-10-18T21:14:04-04:00",
			"created": "2005-02-20T03:00:00-05:00"
		}
	]
}