{
	"greeting": "Greetings from The On-Line Encyclopedia of Integer Sequences! http://oeis.org/",
	"query": "id:A100554",
	"count": 1,
	"start": 0,
	"results": [
		{
			"number": 100554,
			"data": "5,7,6,6,7,4,0,4,7,4,6,8,5,8,1,1,7,4,1,3,4,0,5,0,7,9,4,7,5,0,0,0,0,4,9,0,4,4,5,6,5,6,2,6,6,4,0,3,8,1,6,6,6,5,5,7,5,0,6,2,4,8,4,3,9,0,1,5,4,2,4,7,9,1,8,3,1,0,0,2,1,7,4,3,5,6,5,5,5,1,7,5,9,3,9,5,4,9,1,8,7,6,5,1,7",
			"name": "Decimal expansion of the fractional part of Sum_{n\u003e=1} cos((n + 1)*Pi)*zeta(2*n) = zeta(2) - zeta(4) + zeta(6) - zeta(8) + ..., where Zeta is the Riemann zeta function.",
			"comment": [
				"For odd upper bounds, the sum converges to the given value p in (0,1) with no fractional part function necessary. For even upper bounds, the sum converges to p+1.",
				"Decimal expansion of (psi(i)-psi(-i))/2/i-3/2 where psi is the digamma function. - _Benoit Cloitre_, Nov 28 2004"
			],
			"formula": [
				"Equals Pi*(coth(Pi))/2 -1 where Pi = A000796. - _R. J. Mathar_, Apr 01 2010",
				"Equals Sum_{k\u003e=2} 1/(k^2 + 1). - _Amiram Eldar_, Aug 15 2020"
			],
			"example": [
				"0.576674047468581174134050794750000490..."
			],
			"maple": [
				"evalf(Pi*coth(Pi)/2-1) ; # _R. J. Mathar_, Apr 01 2010"
			],
			"mathematica": [
				"N[FractionalPart[Sum[Cos[(n + 1)*Pi]*Zeta[2*n], {n, 1000}]], 140]",
				"RealDigits[Pi*Coth[Pi]/2 - 1, 10, 105] // First (* _Jean-François Alcover_, Jan 06 2014, after _R. J. Mathar_ *)"
			],
			"program": [
				"(PARI) (psi(I)-psi(-I))/2/I-3/2"
			],
			"xref": [
				"Cf. A000796."
			],
			"keyword": "cons,nonn",
			"offset": "0,1",
			"author": "Joseph Biberstine (jrbibers(AT)indiana.edu), Nov 27 2004",
			"references": 3,
			"revision": 23,
			"time": "2020-08-15T08:45:23-04:00",
			"created": "2005-02-20T03:00:00-05:00"
		}
	]
}