{
	"greeting": "Greetings from The On-Line Encyclopedia of Integer Sequences! http://oeis.org/",
	"query": "id:A100403",
	"count": 1,
	"start": 0,
	"results": [
		{
			"number": 100403,
			"data": "1,6,9,9,9,9,9,9,9,9,9,9,9,9,9,9,9,9,9,9,9,9,9,9,9,9,9,9,9,9,9,9,9,9,9,9,9,9,9,9,9,9,9,9,9,9,9,9,9,9,9,9,9,9,9,9,9,9,9,9,9,9,9,9,9,9,9,9,9,9,9,9,9,9,9,9,9,9,9,9,9,9,9,9,9,9,9,9,9,9,9,9,9,9,9,9,9,9,9,9,9,9,9,9,9",
			"name": "Digital root of 6^n.",
			"program": [
				"(PARI) f(n,m) = for(x=0,n,print1(droot(m^x)\",\")) droot(n) = \\ the digital root of a number. { local(x); x= n%9; if(x\u003e0,return(x),return(9)) }"
			],
			"keyword": "easy,nonn,base",
			"offset": "0,2",
			"author": "_Cino Hilliard_, Dec 31 2004",
			"references": 1,
			"revision": 5,
			"time": "2013-10-01T17:58:05-04:00",
			"created": "2005-02-20T03:00:00-05:00"
		}
	]
}