{
	"greeting": "Greetings from The On-Line Encyclopedia of Integer Sequences! http://oeis.org/",
	"query": "id:A100913",
	"count": 1,
	"start": 0,
	"results": [
		{
			"number": 100913,
			"data": "1,2,3,6,7,9,10,12,19,20,25,26,30,31,45,47,57,72,81,86,108,112,132,196,228,231,239,345,384,410,429,1687,2245,2519,2714,2816,3155,3956,4319,4917,5913,7854,8823,11650,14320,18143,23185,43834,46121,51488,51972",
			"name": "Numbers n such that (273*2^n-1)^2-2 is prime.",
			"link": [
				"S. Harvey, \u003ca href=\"http://harvey563.tripod.com/Carol_Kynea.txt\"\u003eCarol and Kynea Primes\u003c/a\u003e."
			],
			"program": [
				"(PARI) is(n)=ispseudoprime((273*2^n-1)^2-2) \\\\ _Charles R Greathouse IV_, Feb 19 2016"
			],
			"keyword": "nonn",
			"offset": "1,2",
			"author": "_Ray Chandler_, Nov 21 2004",
			"references": 0,
			"revision": 9,
			"time": "2016-02-19T08:44:11-05:00",
			"created": "2005-02-20T03:00:00-05:00"
		}
	]
}