{
	"greeting": "Greetings from The On-Line Encyclopedia of Integer Sequences! http://oeis.org/",
	"query": "id:A100920",
	"count": 1,
	"start": 0,
	"results": [
		{
			"number": 100920,
			"data": "1,5,11,19,30,43,61,77,99,120,145,172,206,233,263,302,346,386,428,477,517,568,631,675,744,794,863,926,989,1057,1142,1210,1275,1357,1444,1531,1608,1687,1782,1871,1943,2056,2140,2253,2367,2467,2596,2708,2814",
			"name": "Index of the last occurrence of n in A100798.",
			"xref": [
				"Cf. A100798, A100919."
			],
			"keyword": "easy,nonn",
			"offset": "1,2",
			"author": "_Ray Chandler_, Dec 08 2004",
			"references": 2,
			"revision": 3,
			"time": "2012-03-30T17:29:20-04:00",
			"created": "2005-02-20T03:00:00-05:00"
		}
	]
}