{
	"greeting": "Greetings from The On-Line Encyclopedia of Integer Sequences! http://oeis.org/",
	"query": "id:A100608",
	"count": 1,
	"start": 0,
	"results": [
		{
			"number": 100608,
			"data": "1,6,8,4,0,9,5,9,0,0,1,0,6,6,2,2,5,0,0,3,3,9,6,3,3,7,0,8,8,6,4,3,0,7,3,6,3,6,4,1,3,5,3,5,3,3,9,2,0,0,4,5,6,2,7,3,7,7,0,1,6,4,2,6,8,9,4,4,7,5,6,7,5,0,5,0,1,7,4,6,6,8,9,3,6,1,6,9,1,8,6,4,7,4,8,7,8,9,3,7,9,6,1,6,0",
			"name": "Decimal expansion of the constant whose continued fraction representation is [0!; 1!, 2!, 3!, 4!, 5!, ...] (through all nonnegative integers).",
			"link": [
				"Marek Wolf, \u003ca href=\"http://arxiv.org/abs/1003.4015\"\u003eContinued fractions constructed from prime numbers\u003c/a\u003e arXiv:1003.4015v2 [math.NT] Sep 26 2010"
			],
			"example": [
				"=1.684095900106622500339633708864307363641353533920045627377016426894475675050…"
			],
			"mathematica": [
				"RealDigits[ FromContinuedFraction[ Table[k!, {k, 0, 13}]], 10, 111][[1]]"
			],
			"xref": [
				"Cf. A000142."
			],
			"keyword": "cons,nonn",
			"offset": "1,2",
			"author": "Joseph Biberstine (jrbibers(AT)indiana.edu), Dec 01 2004",
			"references": 0,
			"revision": 13,
			"time": "2012-03-07T19:48:50-05:00",
			"created": "2005-02-20T03:00:00-05:00"
		}
	]
}