{
	"greeting": "Greetings from The On-Line Encyclopedia of Integer Sequences! http://oeis.org/",
	"query": "id:A100451",
	"count": 1,
	"start": 0,
	"results": [
		{
			"number": 100451,
			"data": "0,0,7,14,21,32,45,60,77,96,117,140,165,192,221,252,285,320,357,396,437,480,525,572,621,672,725,780,837,896,957,1020,1085,1152,1221,1292,1365,1440,1517,1596,1677,1760,1845,1932,2021,2112,2205,2300,2397,2496,2597,2700",
			"name": "a(n) = 0 for n \u003c= 2; for n \u003e= 3, a(n) = (n-2)*floor((n^2-2)/(n-2)).",
			"link": [
				"Vincenzo Librandi, \u003ca href=\"/A100451/b100451.txt\"\u003eTable of n, a(n) for n = 1..10000\u003c/a\u003e",
				"\u003ca href=\"/index/Rec#order_03\"\u003eIndex entries for linear recurrences with constant coefficients\u003c/a\u003e, signature (3, -3, 1)."
			],
			"formula": [
				"a(n) = (n-2)*(n+2), n \u003e= 5. - _R. J. Mathar_, Aug 17 2009",
				"a(n) = A028347(n), n \u003e= 5. - _R. J. Mathar_, Jul 31 2010"
			],
			"mathematica": [
				"Join[{0,0,7,14},Table[(n-2)(n+2),{n,5,60}]] (* or *) Join[{0,0,7,14}, LinearRecurrence[{3,-3,1},{21,32,45},60]] (* _Harvey P. Dale_, Oct 03 2011 *)"
			],
			"program": [
				"(MAGMA)  [0,0],[(n-2)*Floor((n^2-2)/(n-2)): n in [3..30]]; // _Vincenzo Librandi_, Oct 04 2011",
				"(PARI) a(n)=if(n\u003c3,0,(n^2-2)\\(n-2)*(n-2)) \\\\ _Charles R Greathouse IV_, Oct 16 2015"
			],
			"xref": [
				"Third row of array in A100452."
			],
			"keyword": "nonn,easy",
			"offset": "1,3",
			"author": "_N. J. A. Sloane_, Nov 22 2004",
			"ext": [
				"Factor in definition corrected by _R. J. Mathar_, Aug 17 2009"
			],
			"references": 4,
			"revision": 20,
			"time": "2018-11-22T02:16:23-05:00",
			"created": "2005-02-20T03:00:00-05:00"
		}
	]
}