{
	"greeting": "Greetings from The On-Line Encyclopedia of Integer Sequences! http://oeis.org/",
	"query": "id:A100911",
	"count": 1,
	"start": 0,
	"results": [
		{
			"number": 100911,
			"data": "0,1,4,6,15,21,25,70,129,399,511,856,9574,14479,17649,27054,28296,32796,38176",
			"name": "Numbers k such that (3*2^k - 1)^2 - 2 is prime.",
			"comment": [
				"Next term \u003e 100000.",
				"a(1)-a(12) have been proved with PARI's ECPP; all subsequent terms correspond to BPSW PRPs. - _Lucas A. Brown_, Mar 28 2021"
			],
			"link": [
				"S. Harvey, \u003ca href=\"http://harvey563.tripod.com/Carol_Kynea.txt\"\u003eCarol and Kynea Primes\u003c/a\u003e."
			],
			"program": [
				"(PARI) is(n)=ispseudoprime((3*2^n-1)^2-2) \\\\ _Charles R Greathouse IV_, Feb 19 2016"
			],
			"keyword": "nonn,more",
			"offset": "1,3",
			"author": "_Ray Chandler_, Nov 21 2004",
			"ext": [
				"a(1), a(14)-a(19) by _Lucas A. Brown_, Mar 28 2021"
			],
			"references": 0,
			"revision": 22,
			"time": "2021-03-29T01:12:43-04:00",
			"created": "2005-02-20T03:00:00-05:00"
		}
	]
}