{
	"greeting": "Greetings from The On-Line Encyclopedia of Integer Sequences! http://oeis.org/",
	"query": "id:A100914",
	"count": 1,
	"start": 0,
	"results": [
		{
			"number": 100914,
			"data": "6,8,15,19,30,33,50,54,61,85,190,225,270,295,323,456,616,778,1523,2921,3264,6780,8463,10915,11390,13304,13860,16625,17851,21816",
			"name": "Numbers n such that (273*2^n+1)^2-2 is prime.",
			"comment": [
				"a(31) \u003e 29391. - _J.W.L. (Jan) Eerland_, Dec 20 2021"
			],
			"link": [
				"S. Harvey, \u003ca href=\"http://harvey563.tripod.com/Carol_Kynea.txt\"\u003eCarol and Kynea Primes\u003c/a\u003e."
			],
			"mathematica": [
				"DeleteCases[ParallelTable[If[PrimeQ[(273*2^n+1)^2-2],n,a],{n,0,21816}],a] (* _J.W.L. (Jan) Eerland_, Dec 20 2021 *)"
			],
			"program": [
				"(PARI) is(n)=ispseudoprime((273*2^n+1)^2-2) \\\\ _Charles R Greathouse IV_, Feb 19 2016"
			],
			"keyword": "nonn,more",
			"offset": "1,1",
			"author": "_Ray Chandler_, Nov 21 2004",
			"ext": [
				"a(24) - a(30) from _J.W.L. (Jan) Eerland_, Dec 20 2021"
			],
			"references": 0,
			"revision": 15,
			"time": "2021-12-20T07:18:36-05:00",
			"created": "2005-02-20T03:00:00-05:00"
		}
	]
}