{
	"greeting": "Greetings from The On-Line Encyclopedia of Integer Sequences! http://oeis.org/",
	"query": "id:A100069",
	"count": 1,
	"start": 0,
	"results": [
		{
			"number": 100069,
			"data": "1,4,18,76,326,1384,5892,25036,106438,452344,1922588,8170936,34726940,147589264,627256088,2665837516,11329815878,48151714264,204644809932,869740430056,3696396920116,15709686864304,66766169526008,283756220309176,1205963937666076,5125346734404784",
			"name": "Sum(k=0..floor(n/2) binomial(n,k)*4^(n-2*k) ).",
			"comment": [
				"An inverse Chebyshev transform of x/(1-4x), where the Chebyshev transform of g(x) is ((1-x^2)/(1+x^2))g(x/(1+x^2)) and the inverse transform maps a g.f. A(x) to (1/sqrt(1-4x^2))A(xc(x^2)) where c(x) is the g.f. of the Catalan numbers A000108. In general, sum{k=0..floor(n/2), binomial(n,k)r^(n-2k)} has g.f. 2x/(sqrt(1-4x^2)(r*sqrt(1-4x^2)+2*x-r)). - corrected by _Vaclav Kotesovec_, Dec 06 2012",
				"Generally (for r\u003e1), a(n) ~ (r + 1/r)^n. - _Vaclav Kotesovec_, Dec 06 2012"
			],
			"link": [
				"Vincenzo Librandi, \u003ca href=\"/A100069/b100069.txt\"\u003eTable of n, a(n) for n = 0..1000\u003c/a\u003e"
			],
			"formula": [
				"G.f.: x/(sqrt(1-4*x^2)*(2*sqrt(1-4*x^2)+x-2)). - corrected by _Vaclav Kotesovec_, Dec 06 2012",
				"a(n)=sum{k=0..floor(n/2), binomial(n, k)4^(n-2k)}; a(n)=sum{k=0..n, binomial(n, (n-k)/2)(1+(-1)^(n-k)4^k/2}.",
				"Conjecture: +8*n*a(n) +2*(-19*n+4)*a(n-1) +(-15*n-2)*a(n-2) +8*(19*n-23)*a(n-3) +68*(-n+3)*a(n-4)=0. - _R. J. Mathar_, Nov 22 2012",
				"a(n) ~ 17^n/4^n. - _Vaclav Kotesovec_, Dec 06 2012"
			],
			"mathematica": [
				"CoefficientList[Series[x/(Sqrt[1-4*x^2]*(2*Sqrt[1-4*x^2]+x-2)), {x, 0, 20}], x] (* _Vaclav Kotesovec_, Dec 06 2012 *)"
			],
			"program": [
				"(PARI) x='x+O('x^66); Vec(x/(sqrt(1-4*x^2)*(2*sqrt(1-4*x^2)+x-2))) \\\\ _Joerg Arndt_, May 12 2013"
			],
			"xref": [
				"Cf. A027306, A100067, A100068."
			],
			"keyword": "easy,nonn",
			"offset": "0,2",
			"author": "_Paul Barry_, Nov 02 2004",
			"references": 3,
			"revision": 18,
			"time": "2013-05-12T04:44:31-04:00",
			"created": "2005-02-20T03:00:00-05:00"
		}
	]
}