{
	"greeting": "Greetings from The On-Line Encyclopedia of Integer Sequences! http://oeis.org/",
	"query": "id:A100699",
	"count": 1,
	"start": 0,
	"results": [
		{
			"number": 100699,
			"data": "0,1,0,0,0,0,1,0,0,0,1,1,0,0,1,2,0,0,0,2,1,1,1,1,1,0,2,2,1,1,2,2,0,1,2,5,1,0,2,4,2,1,3,4,3,0,3,5,3,1,1,6,2,2,2,6,3,1,3,5,5,0,4,4,4,3,4,7,3,3,4,9,4,1,4,7,5,3,6,7,5,0,5,9,4,3,5,9,3,4,7,11,5,2,7,9,7,2,8,10,7,3,8,10",
			"name": "Number of ways to partition n into two squarefree numbers that are not prime.",
			"comment": [
				"a(n) \u003c= A071068(n)."
			],
			"example": [
				"a(36) = #{1+35, 6+30, 10+26, 14+22, 15+21} = 5."
			],
			"xref": [
				"Cf. A000469, A061358, A005117."
			],
			"keyword": "nonn",
			"offset": "1,16",
			"author": "_Reinhard Zumkeller_, Dec 09 2004",
			"references": 0,
			"revision": 4,
			"time": "2012-03-30T18:50:48-04:00",
			"created": "2005-02-20T03:00:00-05:00"
		}
	]
}