{
	"greeting": "Greetings from The On-Line Encyclopedia of Integer Sequences! http://oeis.org/",
	"query": "id:A100019",
	"count": 1,
	"start": 0,
	"results": [
		{
			"number": 100019,
			"data": "0,3,28,117,336,775,1548,2793,4672,7371,11100,16093,22608,30927,41356,54225,69888,88723,111132,137541,168400,204183,245388,292537,346176,406875,475228,551853,637392,732511,837900,954273,1082368,1222947",
			"name": "a(n) = n^4 + n^3 + n^2.",
			"comment": [
				"a(n) are the numbers m such that: j^2 = j + m + sqrt(j*m) with corresponding numbers j given by  A002061(n+1), and with sqrt(j*m) = A027444(n) = n* A002061(n+1). - _Richard R. Forberg_, Sep 03 2013."
			],
			"link": [
				"Vincenzo Librandi, \u003ca href=\"/A100019/b100019.txt\"\u003eTable of n, a(n) for n = 0..1000\u003c/a\u003e"
			],
			"formula": [
				"From _Indranil Ghosh_, Apr 15 2017: (Start)",
				"G.f.: -x(3 + 13x + 7x^2 + x^3)/(x - 1)^5",
				"E.g.f.: exp(x)*x*(3 + 11x + 7x^2 + x^3)",
				"(End)"
			],
			"maple": [
				"A100019:=n-\u003en^4+n^3+n^2: seq(A100019(n), n=0..50); # _Wesley Ivan Hurt_, Apr 14 2017"
			],
			"mathematica": [
				"f[n_]:=n^4+n^3+n^2;Array[f,50,0] (* _Vladimir Joseph Stephan Orlovsky_, Apr 12 2011 *)"
			],
			"program": [
				"(MAGMA) [n^4+n^3+n^2: n in [0..50]]; // _Vincenzo Librandi_, Jun 09 2011",
				"(PARI) a(n) = n^4 + n^3 + n^2 \\\\ _Indranil Ghosh_, Apr 15 2017"
			],
			"xref": [
				"Cf. A000583, A002523, A091940, A071253, A059826, A027445, A053699."
			],
			"keyword": "nonn,easy",
			"offset": "0,2",
			"author": "Douglas Winston (douglas.winston(AT)srupc.com), Nov 19 2004",
			"references": 11,
			"revision": 26,
			"time": "2017-04-16T00:13:08-04:00",
			"created": "2005-02-20T03:00:00-05:00"
		}
	]
}