{
	"greeting": "Greetings from The On-Line Encyclopedia of Integer Sequences! http://oeis.org/",
	"query": "id:A100321",
	"count": 1,
	"start": 0,
	"results": [
		{
			"number": 100321,
			"data": "1,1,0,2,-3,8,-16,35,-72,150,-307,628,-1276,2587,-5228,10546,-21235,42704,-85784,172179,-345344,692286,-1387155,2778492,-5563748,11138443,-22294596,44617850,-89282067,178639160,-357399712,714995843,-1430309496,2861133222,-5723098483,11447543236",
			"name": "The trinomial transform (A027907) gives powers of 2, while the trinomial transform of this sequence shift one place left gives powers of 3.",
			"formula": [
				"G.f.: (1 + 3*x - 3*x^3) / (1 + 2*x - 2*x^2 - 3*x^3 + 2*x^4).",
				"2^n = Sum_{k=0..2*n} A027907(n, k)*a(k);",
				"3^n = Sum_{k=0..2*n} A027907(n, k)*a(k+1).",
				"a(n) = (1/3) [(-1)^n * (3*Fib(n-1) - 2^n) + 1 ]. - _Ralf Stephan_, May 15 2007"
			],
			"example": [
				"2^3 = 1*(1) + 3*(1) + 6*(0) + 7*(2) + 6*(-3) + 3*(8) + 1*(-16).",
				"3^3 = 1*(1) + 3*(0) + 6*(2) + 7*(-3) + 6*(8) + 3*(-16) + 1*(35)."
			],
			"program": [
				"(PARI) a(n)=polcoeff((1+3*x-3*x^3)/(1+2*x-2*x^2-3*x^3+2*x^4+x*O(x^n)),n)"
			],
			"xref": [
				"Cf. A027907."
			],
			"keyword": "sign",
			"offset": "0,4",
			"author": "_Paul D. Hanna_, Nov 15 2004",
			"references": 1,
			"revision": 7,
			"time": "2014-04-30T19:03:55-04:00",
			"created": "2005-02-20T03:00:00-05:00"
		}
	]
}