{
	"greeting": "Greetings from The On-Line Encyclopedia of Integer Sequences! http://oeis.org/",
	"query": "id:A101788",
	"count": 1,
	"start": 0,
	"results": [
		{
			"number": 101788,
			"data": "0,1,1,2,3,3,4,5,6,7,8,9,10,11,12,13,14,15,16,17,17,18,19,20,21,22,23,24,25,26,27,28,28,29,30,31,32,33,34,35,36,37,38,39,39,40,41,41,42,43,44,45,46,47,48,49,50,51,52,52,53,54,54,55,56,57,58,59,60,61",
			"name": "n - A101787.",
			"xref": [
				"Cf. A002515, A101787."
			],
			"keyword": "easy,nonn",
			"offset": "1,4",
			"author": "Douglas Stones (dssto1(AT)student.monash.edu.au), Dec 16 2004",
			"references": 1,
			"revision": 1,
			"time": "2005-02-20T03:00:00-05:00",
			"created": "2005-02-20T03:00:00-05:00"
		}
	]
}