{
	"greeting": "Greetings from The On-Line Encyclopedia of Integer Sequences! http://oeis.org/",
	"query": "id:A101221",
	"count": 1,
	"start": 0,
	"results": [
		{
			"number": 101221,
			"data": "1,1,2,1,1,1,3,2,1,1,40,1,1,10,10,10,7,17,4,11,15,10,11,54,24,8,11,2,18,2,6,4,58,3,14,15,1,3,13,16,1,37,4,4,8,11,80,2,37,58,55,34,15,59,26,1,32,42,47,56,47,4,57,62,27,18,14,17,12,47,19,16,39,9,71,13,6,6,25,10,1,1",
			"name": "Least k such that (10^k)*(P(n)#) - 1 is prime with P(i)= i-th prime and P(i)#= i-th primorial.",
			"example": [
				"(10^1)*2 -1 = 19 prime so k(1)=1.",
				"(10^1)*6 -1 = 59 prime so k(2)=1.",
				"(10^2)*30 -1 = 2999 prime so k(3)=2."
			],
			"program": [
				"(PARI) a(n) = {prd = prod(i=1, n, prime(i)); k = 1; while (!isprime(10^k*prd-1), k++); k;} \\\\ _Michel Marcus_, Aug 06 2014"
			],
			"xref": [
				"Cf. A002110."
			],
			"keyword": "nonn",
			"offset": "1,3",
			"author": "_Pierre CAMI_, Dec 15 2004",
			"ext": [
				"Corrected by _Michel Marcus_, Aug 06 2014"
			],
			"references": 0,
			"revision": 9,
			"time": "2014-08-06T09:20:24-04:00",
			"created": "2005-02-20T03:00:00-05:00"
		}
	]
}