{
	"greeting": "Greetings from The On-Line Encyclopedia of Integer Sequences! http://oeis.org/",
	"query": "id:A101373",
	"count": 1,
	"start": 0,
	"results": [
		{
			"number": 101373,
			"data": "1,2,3,4,5,6,7,8,9,10,11,13,15,19,20,22,25,28,31,34,41,42,46,52,58,59,69,74,77,83,93,99,116,130,138,140,156,165,166,167,173,192,200,218,219,223,241,242,271,276,292,304,331",
			"name": "Values A063741(A100827).",
			"link": [
				"T. D. Noe, \u003ca href=\"/A101373/b101373.txt\"\u003eTable of n, a(n) for n=1..176\u003c/a\u003e"
			],
			"keyword": "nonn",
			"offset": "1,2",
			"author": "_Alonso del Arte_, Jan 06 2005",
			"ext": [
				"More terms from _Robert G. Wilson v_, Jan 08 2005"
			],
			"references": 2,
			"revision": 5,
			"time": "2012-10-12T14:38:24-04:00",
			"created": "2005-02-20T03:00:00-05:00"
		}
	]
}