{
	"greeting": "Greetings from The On-Line Encyclopedia of Integer Sequences! http://oeis.org/",
	"query": "id:A101977",
	"count": 1,
	"start": 0,
	"results": [
		{
			"number": 101977,
			"data": "1,2,3,5,7,11,15,22,31,43,58,74,97,131,171,222,277,349,447,564,698,868,1074,1321,1601,1967,2398,2911,3513,4235,5083,6071,7242,8637,10229,12102,14293,16848,19802,23271,27276,31846,37132,43196,50191,58238,67425,77946",
			"name": "Number of products of distinct factorials not exceeding n!.",
			"comment": [
				"a(n) is the position of n! in A058295 (products of distinct factorials). a(n) \u003c A101976(n) for n \u003e 2 and a(n) \u003e A101978(n) for n \u003e 10."
			],
			"link": [
				"\u003ca href=\"/index/Fa#factorial\"\u003eIndex entries for sequences related to factorial numbers.\u003c/a\u003e"
			],
			"example": [
				"a(4) = 5 because 5 products of distinct factorials do not exceed 4!, namely, 1, 2, 6, 12 and 24."
			],
			"mathematica": [
				"d[k_] := (m=1; With[{p=With[{s=Subsets[Table[n!, {n, k}]]}, Sort[Table[Apply[Times, s[[n]]], {n, Length[s]}]]]}, While[p[[m]]\u003c=k!, m++ ]; Length[Union[Take[p, m-1]]]]);Table[d[k], {k, 19}]"
			],
			"xref": [
				"Cf. A000142, A058295, A101976, A101978."
			],
			"keyword": "nonn",
			"offset": "1,2",
			"author": "_Jonathan Sondow_, Dec 22 2004",
			"ext": [
				"a(20)-a(48) from _Donovan Johnson_, May 30 2012"
			],
			"references": 2,
			"revision": 9,
			"time": "2012-05-30T02:53:31-04:00",
			"created": "2005-02-20T03:00:00-05:00"
		}
	]
}