{
	"greeting": "Greetings from The On-Line Encyclopedia of Integer Sequences! http://oeis.org/",
	"query": "id:A101780",
	"count": 1,
	"start": 0,
	"results": [
		{
			"number": 101780,
			"data": "3,103,503,1103,1303,2003,2203,2503,2803,2903,3203,3803,4003,4603,4703,4903,5003,5303,5503,5903,6203,6703,6803,7103,7603,7703,8803,9103,9203,9403,9803,10103,10303,10903,11003",
			"name": "Primes of the form 100*n + 3.",
			"link": [
				"Vincenzo Librandi, \u003ca href=\"/A101780/b101780.txt\"\u003eTable of n, a(n) for n = 1..1000\u003c/a\u003e",
				"Chris K. Caldwell \u003ca href=\"http://primes.utm.edu/lists/small/100000.txt\"\u003eThe first 100,008 primes\u003c/a\u003e."
			],
			"mathematica": [
				"100*Select[Range[0, 200], PrimeQ[100# + 3] \u0026] + 3 (* _Stefan Steinerberger_, Feb 28 2006 *)",
				"Select[Table[100*n+3,{n,0,700}],PrimeQ] (* _Vincenzo Librandi_, Jul 19 2012 *)"
			],
			"program": [
				"(MAGMA) [a: n in [0..250]|IsPrime(a) where a is 100*n+3]; // _Vincenzo Librandi_, Jul 19 2012"
			],
			"keyword": "nonn,easy",
			"offset": "1,1",
			"author": "_Parthasarathy Nambi_, Jan 26 2005",
			"ext": [
				"More terms from _Stefan Steinerberger_, Feb 28 2006"
			],
			"references": 2,
			"revision": 10,
			"time": "2015-08-27T00:03:56-04:00",
			"created": "2005-02-20T03:00:00-05:00"
		}
	]
}