{
	"greeting": "Greetings from The On-Line Encyclopedia of Integer Sequences! http://oeis.org/",
	"query": "id:A101380",
	"count": 1,
	"start": 0,
	"results": [
		{
			"number": 101380,
			"data": "0,1,29,288,1540,5725,16821,41944,92688,186705,349525,616616,1035684,1669213,2597245,3920400,5763136,8277249,11645613,16086160,21856100,29256381,38636389,50398888,65005200,82980625,104920101,131494104,163454788,201642365,246991725",
			"name": "a(n) = n^2*(n+1)*(4*n^3 - 2*n^2 + n + 3)/12.",
			"reference": [
				"T. A. Gulliver, Sequences from Cubes of Integers, Int. Math. Journal, 4 (2003), 439-445."
			],
			"link": [
				"Vincenzo Librandi, \u003ca href=\"/A101380/b101380.txt\"\u003eTable of n, a(n) for n = 0..1000\u003c/a\u003e",
				"\u003ca href=\"/index/Rec#order_07\"\u003eIndex entries for linear recurrences with constant coefficients\u003c/a\u003e, signature (7,-21,35,-35,21,-7,1)."
			],
			"formula": [
				"G.f.: x*(1 + 22*x + 106*x^2 + 98*x^3 + 13*x^4)/(1 - x)^7. - _Ilya Gutkovskiy_, Feb 24 2017",
				"E.g.f.: x*(12 + 162*x + 408*x^2 + 279*x^3 + 62*x^4 + 4*x^5)*exp(x)/12. - _G. C. Greubel_, Mar 11 2021"
			],
			"maple": [
				"A101380:= n-\u003e n^2*(n+1)*(4*n^3-2*n^2+n+3)/12: seq(A101380(n), n=0..35); # _G. C. Greubel_, Mar 11 2021"
			],
			"mathematica": [
				"Table[n^2(n+1)(4n^3-2n^2+n+3)/12,{n,0,40}] (* or *) LinearRecurrence[{7,-21,35,-35,21,-7,1},{0,1,29,288,1540,5725,16821},40] (* _Harvey P. Dale_, Aug 10 2019 *)"
			],
			"program": [
				"(MAGMA) [n^2*(n+1)*(4*n^3-2*n^2+n+3)/12: n in [0..40]]; // _Vincenzo Librandi_, Jun 15 2011",
				"(PARI) a(n)=n^2*(n+1)*(4*n^3-2*n^2+n+3)/12 \\\\ _Charles R Greathouse IV_, Feb 24 2017",
				"[n^2*(n+1)*(4*n^3-2*n^2+n+3)/12 for n in (0..35)] # _G. C. Greubel_, Mar 11 2021"
			],
			"keyword": "nonn,easy",
			"offset": "0,3",
			"author": "_N. J. A. Sloane_, Jan 15 2005",
			"references": 1,
			"revision": 18,
			"time": "2021-03-12T04:02:26-05:00",
			"created": "2005-02-20T03:00:00-05:00"
		}
	]
}