{
	"greeting": "Greetings from The On-Line Encyclopedia of Integer Sequences! http://oeis.org/",
	"query": "id:A101217",
	"count": 1,
	"start": 0,
	"results": [
		{
			"number": 101217,
			"data": "1,113,321,11313,32113,1131313,3211313,113131313,321131313,11313131313,32113131313,1131313131313,3211313131313",
			"name": "Base-4 representation of positive integers whose base-2 run-length representation is the same as their base-4 representation.",
			"example": [
				"The base-2 run-length representation 11313 represents the base-2 number 101110111, which is 375 (base 10). But 375 = 11313 (base 4); thus 11313 is a term of the sequence."
			],
			"keyword": "nonn",
			"offset": "1,2",
			"author": "_John W. Layman_, Dec 14 2004",
			"references": 0,
			"revision": 2,
			"time": "2012-03-30T17:37:53-04:00",
			"created": "2005-02-20T03:00:00-05:00"
		}
	]
}