{
	"greeting": "Greetings from The On-Line Encyclopedia of Integer Sequences! http://oeis.org/",
	"query": "id:A101087",
	"count": 1,
	"start": 0,
	"results": [
		{
			"number": 101087,
			"data": "4,6,7,8,9,10,11,15,17,19,23,25,26,29,31,47,53,65,67,71,73,113,127,199,257,349,421,433,449,691,761,823,991,1237,1277,1399,1531,1571,3461,3697,4933,6199,7351",
			"name": "Indices of prime values of A077020 (also A001607).",
			"comment": [
				"There are only 9 composites numbers in the entire sequence, namely: 4, 6, 8, 9, 10, 15, 25, 26 and 65.",
				"If we are prepared to accept probable primes, then the sequence continues as follows: 9551, 9719, 11681, 12037, 14629, 14951, 19079, 20327, 22549, 30517, 51511, 52813, 60923, 73943, 79687, 91249, 115321, 117017, 169493, 172411, 174413, 237053, 285631, 318751, 327433 - _David Broadhurst_, May 23 2007"
			],
			"link": [
				"G. P. Michon, \u003ca href=\"http://www.numericana.com/answer/numbers.htm#m\"\u003eNever Back to -1\u003c/a\u003e."
			],
			"xref": [
				"Cf. A001607, A077020 (all values) and A101088 (prime values only). Similar to A001605 (Fibonacci primes), A000043 (Mersenne primes), A096650 (Pell primes), etc."
			],
			"keyword": "nonn",
			"offset": "1,1",
			"author": "_Gerard P. Michon_, Dec 01 2004",
			"references": 0,
			"revision": 4,
			"time": "2012-03-30T17:36:31-04:00",
			"created": "2005-02-20T03:00:00-05:00"
		}
	]
}