{
	"greeting": "Greetings from The On-Line Encyclopedia of Integer Sequences! http://oeis.org/",
	"query": "id:A101462",
	"count": 1,
	"start": 0,
	"results": [
		{
			"number": 101462,
			"data": "2,3,3,39,4,4,6,5,6,5,7,11,6,29,6,6,6,6,7,10,9,9,8,8,7,26,9,8,7,10,47,14,10,9,12,31,15,9,8,8,12,9,14,21,10,9,25,261,8,9,8,8,9,8,14,10,16,9,15,10,9,12,11,14,9,12,9,791,10,9,16,20,15,9,11,10,16,15,26,9,12,11,10",
			"name": "Smallest k such that 2^k-prime(n) is prime.",
			"comment": [
				"Conjecture: sequence is defined for all n. First unproved n: 286 Prime(286)=1871, up to date, tested up to k=40959, none 2^k-Prime(286) is prime.",
				"Primo was used for testing large primes."
			],
			"link": [
				"Lei Zhou, \u003ca href=\"http://www.bme.emory.edu/~lzhou/prime/\"\u003eBetween 2^n and primes\u003c/a\u003e."
			],
			"example": [
				"Prime(1)=2, 2^2-2 = 2 is prime",
				"Prime(2)=3, 2^3-3 = 5 is prime",
				"...",
				"Prime(68)=337, 2^791-337 is prime."
			],
			"mathematica": [
				" f[n_] := Block[{p = Prime@ n}, k = Ceiling@ Log2@ p; While[! PrimeQ[2^k - p], k++]; k]; Array[f, 83]"
			],
			"xref": [
				"Cf. A094076."
			],
			"keyword": "nonn",
			"offset": "1,1",
			"author": "_Lei Zhou_, Jan 20 2005",
			"references": 0,
			"revision": 5,
			"time": "2012-03-31T10:23:47-04:00",
			"created": "2005-02-20T03:00:00-05:00"
		}
	]
}