{
	"greeting": "Greetings from The On-Line Encyclopedia of Integer Sequences! http://oeis.org/",
	"query": "id:A101776",
	"count": 1,
	"start": 0,
	"results": [
		{
			"number": 101776,
			"data": "1,2,3,3,3,4,4,4,5,5,5,5,5,6,6,6,6,6,7,7,7,7,7,7,7,8,8,8,8,8,8,8,9,9,9,9,9,9,9,9,9,10,10,10,10,10,10,10,10,10,11,11,11,11,11,11,11,11,11,11,11,12,12,12,12,12,12,12,12,12,12,12,13,13,13,13,13,13,13,13,13,13,13",
			"name": "Smallest k such that k^2 is equal to the sum of n not-necessarily-distinct primes plus 1.",
			"comment": [
				"Pattern appears to be: one 1, one 2, three 3's, three 4's, ..., (2k+1) (2k+1)'s, (2k+1) (2k+2)'s.",
				"It appears that a(n) is also the number of pixels in C_{n}, a pixelated arc of circle x^2 + y^2 = n, defined as the set of the (x, y), ordered pairs of nonnegative integers, such that (x^2 + y^2 = n) or ((x^2 + y^2 \u003c n) and ((x+1)^2 + y^2 \u003e n or x^2 + (y+1)^2 \u003e n)). - _Luc Rousseau_, Dec 30 2019"
			],
			"link": [
				"Jinyuan Wang, \u003ca href=\"/A101776/b101776.txt\"\u003eTable of n, a(n) for n = 0..1000\u003c/a\u003e"
			],
			"formula": [
				"a(n) = sqrt(A100555(n)).",
				"a(n) = ceiling(sqrt(2*n+1)). - _Mohammad K. Azarian_, Jun 15 2016 [Proof: for any k \u003e 1 and 1 \u003c= m \u003c= 2*k, a(2*k^2-2*k+m) = 2*k because (2*k-1)^2 \u003c 2*(2*k^2-2*k+m) + 1 and (2*k)^2 = 2*(2*k^2-6*k+3*m+1) + 3*(4*k-2*m-1) + 1; a(2*k^2+m) = 2*k + 1 because (2*k)^2 \u003c 2*(2*k^2+m) + 1 and (2*k+1)^2 = 2*(2*k^2-4*k+3*m) + 3*(4*k-2*m) + 1. Therefore, a(n) = ceiling(sqrt(2*n+1)) for n \u003e= 5. Note that the formula is also correct for n \u003c 5, hence a(n) = ceiling(sqrt(2*n+1)). - _Jinyuan Wang_, Jan 28 2020]"
			],
			"mathematica": [
				"iMax[k_,n_]:=PrimePi[k^2-2*n+1]",
				"f[k_,n_]:=IntegerPartitions[k^2-1,{n},Table[Prime[i],{i,1,iMax[k,n]}]]",
				"a[n_]:=Module[{k=1},While[f[k,n]=={},k++];k]",
				"Table[a[n],{n,0,100}]",
				"(* _Luc Rousseau_, Dec 30 2019 *)"
			],
			"program": [
				"(PARI) a(n) = ceil(sqrt(2*n+1)); \\\\ _Jinyuan Wang_, Jan 28 2020"
			],
			"xref": [
				"Cf. A100555, A101777, A101778."
			],
			"keyword": "nonn",
			"offset": "0,2",
			"author": "_Ray Chandler_, Jan 10 2005",
			"references": 5,
			"revision": 24,
			"time": "2020-02-23T16:56:10-05:00",
			"created": "2005-02-20T03:00:00-05:00"
		}
	]
}