{
	"greeting": "Greetings from The On-Line Encyclopedia of Integer Sequences! http://oeis.org/",
	"query": "id:A101421",
	"count": 1,
	"start": 0,
	"results": [
		{
			"number": 101421,
			"data": "28,35,91,126,133,189,217,224,280,539,637,686,728,756,854,945,1001,1008,1064,1358,1456,1512,1547,1729,1736,1792,2198,2205,2240,2261,2331,2457,2709,2926,3059,3087,3402,3500,3528,3591,4123,4221,4312,4375,4914,4921",
			"name": "Numbers which are the sum of two positive cubes and divisible by 7.",
			"link": [
				"Vincenzo Librandi, \u003ca href=\"/A101421/b101421.txt\"\u003eTable of n, a(n) for n = 1..1000\u003c/a\u003e"
			],
			"mathematica": [
				"upto[n_] := Block[{t}, Union@ Reap[Do[If[Mod[t = x^3 + y^3, 7] == 0, Sow@t], {x, n^(1/3)}, {y, Min[x, (n - x^3)^(1/3)]}]][[2, 1]]]; upto[5000] (* _Giovanni Resta_, Jun 12 2020 *)"
			],
			"xref": [
				"Cf. A003325."
			],
			"keyword": "nonn",
			"offset": "1,1",
			"author": "Jun Mizuki (suzuki32(AT)sanken.osaka-u.ac.jp), Jan 17 2005",
			"ext": [
				"Changed offset from 0 to 1 by _Vincenzo Librandi_, May 08 2013"
			],
			"references": 7,
			"revision": 9,
			"time": "2020-06-13T00:51:14-04:00",
			"created": "2005-02-20T03:00:00-05:00"
		}
	]
}