{
	"greeting": "Greetings from The On-Line Encyclopedia of Integer Sequences! http://oeis.org/",
	"query": "id:A101210",
	"count": 1,
	"start": 0,
	"results": [
		{
			"number": 101210,
			"data": "1,3,4,5,8,11,12,13,14,15,16,17,23,33,37,39,68,73,76,79,85,90,97,117,157,160,180,252,253,368,376,378,381,421,429,534,644,652,657,742,743,746,839,890,1026,1329,1344,1345,1523,1526,1545,1546,1547,1550,1562",
			"name": "Charlie Chaplin numbers: Stage 1: the input is the sequence F(n) = 1,2,1,2,1,2,1,2,... of alternating 1's and 2s, starting with F(1)=1. Let m = 1. At each iteration take F(m) and add it to F(m+F(m)) then increment m by 1 and repeat. The numbers are the values of F(m) which are larger than all previous values.",
			"comment": [
				"Charlie Chaplin numbers are inspired by his comedy routine working on a conveyor belt. Which input functions give chaotic outputs? How does the output sequence grow?",
				"Comment from _David Wasserman_, Mar 11 2008: The sequence gives the record values of the system output. The record values that occur while computing the system output are given in A116587."
			],
			"link": [
				"David Wasserman and Paul Tek, \u003ca href=\"/A101210/b101210.txt\"\u003eTable of n, a(n) for n = 1..1000\u003c/a\u003e (first 79 terms from David Wasserman)"
			],
			"maple": [
				"A101210 := proc(nmax) local F, m,Fnew,Fnewidx,a ; F := [seq(2- (i mod 2),i=1..nmax)] ; m := 1: while m \u003c= nops(F) do if m+op(m,F) \u003c= nops(F) then Fnew := op(m,F)+op(m+op(m,F),F) ; Fnewidx := m+op(m,F) ; F := subsop(Fnewidx=Fnew,F) ; fi ; m := m+1 ; od: a := [1] ; for m from 2 to nops(F) do if op(m,F) \u003e op(-1,a) then a := [op(a),op(m,F)] ; fi ; od: a ; end: A101210(40000) ; # _R. J. Mathar_, Mar 12 2008"
			],
			"mathematica": [
				"max = 50000; chCh = Flatten[Table[{1, 2}, {max}]]; iter = 1; While[iter \u003c max/2, chCh[[iter + chCh[[iter]]]] += chCh[[iter]]; iter++]; currHigh=1; jter=2; While[jter \u003c= Length[chCh], If[chCh[[jter]] \u003e currHigh, currHigh = chCh[[jter]]; jter++, chCh = Drop[chCh, {jter}]]]; chCh = Drop[chCh, -1] (* _Alonso del Arte_, Dec 03 2011 *)"
			],
			"xref": [
				"Cf. A116587."
			],
			"keyword": "easy,nonn,obsc",
			"offset": "1,2",
			"author": "_Gordon Hamilton_, Dec 14 2004",
			"ext": [
				"More terms from _David Wasserman_, Mar 11 2008",
				"More terms from _R. J. Mathar_, Mar 12 2008"
			],
			"references": 2,
			"revision": 26,
			"time": "2015-08-08T21:19:12-04:00",
			"created": "2005-02-20T03:00:00-05:00"
		}
	]
}