{
	"greeting": "Greetings from The On-Line Encyclopedia of Integer Sequences! http://oeis.org/",
	"query": "id:A101299",
	"count": 1,
	"start": 0,
	"results": [
		{
			"number": 101299,
			"data": "3,4,6,7,10,11,15,16,18,20,21,22,24,25,26,27,28,29,30,31,34,35,37,38,42,50,52,53,64,65,66,70,77,79,83,91,105,113,116,126,127,128,130,132,133,135,138,141,144,150,152,157,159,161,164,168,189,198,224,225,231,241",
			"name": "Numbers n such that -1 + Sum_{x=1..n} phi(x) is a prime number.",
			"example": [
				"3 = phi(1)+phi(2)+phi(3)-1 ==\u003e 3, a prime, so 3 is a term.",
				"5 = phi(1)+phi(2)+phi(3)+phi(4)-1 ==\u003e 4, not a prime, so 5 is not a term."
			],
			"maple": [
				"with(numtheory): select(n-\u003e isprime(add(phi(x), x=1..n)-1), [$1..300])[]; # _Emeric Deutsch_, Jul 20 2005"
			],
			"program": [
				"(PARI) isok(n) = isprime(sum(k=1, n, eulerphi(k))-1); \\\\ _Michel Marcus_, Aug 21 2019"
			],
			"xref": [
				"Cf. A002088."
			],
			"keyword": "nonn,easy",
			"offset": "1,1",
			"author": "_Jorge Coveiro_, Dec 22 2004",
			"ext": [
				"More terms from _Emeric Deutsch_, Jul 20 2005",
				"Name edited by _Michel Marcus_, Aug 21 2019"
			],
			"references": 0,
			"revision": 15,
			"time": "2019-08-21T06:51:33-04:00",
			"created": "2005-02-20T03:00:00-05:00"
		}
	]
}