{
	"greeting": "Greetings from The On-Line Encyclopedia of Integer Sequences! http://oeis.org/",
	"query": "id:A101025",
	"count": 1,
	"start": 0,
	"results": [
		{
			"number": 101025,
			"data": "1,1,1,1,1,1,1,1,1,5,1,1,1,1,7,1,1,1,1,7,21,1,1,1,1,1,1,33,1,1,1,1,1,3,33,429,1,1,1,5,1,1,11,143,715,1,1,1,1,1,1,11,143,143,2431,1,1,1,1,1,1,1,13,13,221,4199,1,1,1,1,7,1,1,13,13,221,4199,29393,1,1,1,1,7,7,1,1,1",
			"name": "Table of denominators of coefficients of certain rational polynomials.",
			"formula": [
				"a(n, m)= denominator(R(n, x)[x^m]), m=0, ..., n, n=0, 1, ... with the rational polynomials R(n, x) defined in a A101024.",
				"a(n, m)= denominator(r(n, m)) with the rational triangle r(n, m) defined in A101024."
			],
			"xref": [
				"The table of numerators is given in A101024."
			],
			"keyword": "nonn,frac,tabl,easy",
			"offset": "0,10",
			"author": "_Wolfdieter Lang_, Nov 30 2004",
			"references": 1,
			"revision": 3,
			"time": "2012-10-12T14:40:22-04:00",
			"created": "2005-02-20T03:00:00-05:00"
		}
	]
}