{
	"greeting": "Greetings from The On-Line Encyclopedia of Integer Sequences! http://oeis.org/",
	"query": "id:A101252",
	"count": 1,
	"start": 0,
	"results": [
		{
			"number": 101252,
			"data": "35729,35731,35747,35753,35759,35771,35797,357103,357107,357109,357131,357139,357179,357197,357199,357211,357229,357239,357241,357263,357271,357281,357283,357293,357347,357349,357353,357359,357389,357421,357431",
			"name": "Primes that are a concatenation of 3, 5, 7 and a prime.",
			"link": [
				"Daniel Starodubtsev, \u003ca href=\"/A101252/b101252.txt\"\u003eTable of n, a(n) for n = 1..10000\u003c/a\u003e",
				"Peter Alfeld, \u003ca href=\"http://www.math.utah.edu/~alfeld/math/p10000.html\"\u003eThe 10,000 smallest prime numbers\u003c/a\u003e."
			],
			"example": [
				"35729 is member as it is concatenated from the primes 3,5,7 and 29."
			],
			"mathematica": [
				"Select[ Table[ FromDigits[ Flatten[ IntegerDigits /@ {3, 5, 7, Prime[n]}]], {n, 95}], PrimeQ[ # ] \u0026] (* _Robert G. Wilson v_, Dec 20 2004 *)"
			],
			"xref": [
				"Cf. A101218, A101219, A101249, A101250, A101251."
			],
			"keyword": "nonn,easy,base",
			"offset": "1,1",
			"author": "_Parthasarathy Nambi_, Dec 16 2004",
			"ext": [
				"Extended by _Ray Chandler_ and _Robert G. Wilson v_, Dec 22 2004"
			],
			"references": 6,
			"revision": 11,
			"time": "2020-01-24T12:26:01-05:00",
			"created": "2005-02-20T03:00:00-05:00"
		}
	]
}