{
	"greeting": "Greetings from The On-Line Encyclopedia of Integer Sequences! http://oeis.org/",
	"query": "id:A101955",
	"count": 1,
	"start": 0,
	"results": [
		{
			"number": 101955,
			"data": "0,222,317,426,3726,5226,8778,11382,15414,26381",
			"name": "Indices of primes in sequence defined by A(0) = 29, A(n) = 10*A(n-1) - 71 for n \u003e 0.",
			"comment": [
				"Numbers n such that (190*10^n + 71)/9 is prime.",
				"Numbers n such that digit 2 followed by n \u003e= 0 occurrences of digit 1 followed by digit 9 is prime.",
				"Numbers corresponding to terms \u003c= 426 are certified primes.",
				"a(11) \u003e 10^5. - Robert Price, Feb 06 2015"
			],
			"reference": [
				"Klaus Brockhaus and Walter Oberschelp, Zahlenfolgen mit homogenem Ziffernkern, MNU 59/8 (2006), pp. 462-467."
			],
			"link": [
				"Makoto Kamada, \u003ca href=\"https://stdkmd.net/nrr/2/21119.htm#prime\"\u003ePrime numbers of the form 211...119\u003c/a\u003e.",
				"\u003ca href=\"/index/Pri#Pri_rep\"\u003eIndex entries for primes involving repunits\u003c/a\u003e."
			],
			"formula": [
				"a(n) = A102950(n) - 1."
			],
			"example": [
				"29 is prime, hence 0 is a term."
			],
			"program": [
				"(PARI) a=29;for(n=0,1500,if(isprime(a),print1(n,\",\"));a=10*a-71)",
				"(PARI) for(n=0,1500,if(isprime((190*10^n+71)/9),print1(n,\",\")))"
			],
			"xref": [
				"Cf. A000533, A002275, A102950."
			],
			"keyword": "nonn,hard,more",
			"offset": "1,2",
			"author": "_Klaus Brockhaus_ and Walter Oberschelp (oberschelp(AT)informatik.rwth-aachen.de), Dec 23 2004",
			"ext": [
				"More terms from Herman Jamke (hermanjamke(AT)fastmail.fm), Jan 02 2008",
				"a(8)-a(10) derived from A102950 by _Robert Price_, Feb 06 2015"
			],
			"references": 1,
			"revision": 14,
			"time": "2019-01-17T13:44:06-05:00",
			"created": "2005-02-20T03:00:00-05:00"
		}
	]
}