{
	"greeting": "Greetings from The On-Line Encyclopedia of Integer Sequences! http://oeis.org/",
	"query": "id:A101513",
	"count": 1,
	"start": 0,
	"results": [
		{
			"number": 101513,
			"data": "1,2,3,4,6,8,9,10,12,14,5,7,15,16,18,20,21,22,24,25,26,11,13,27,28,30,32,33,34,35,36,38,39,40,42,44,17,19,45,46,48,49,50,51,52,23,54,55,56,57,58,60,62,63,64,29,31,65,66,68,69,70,72,74,75,76,37,77,78,80,81,82",
			"name": "a(1) = 1, a(2) = 2, a(3) = 3; triangle where n-th row has lowest n positive integers not yet in the sequence such that each integer has a prime divisor in common with at least one element of the (n-1)th row.",
			"comment": [
				"Is this a permutation of the positive integers?",
				"Conjectures from _N. J. A. Sloane_, Apr 22, 2005:",
				"\"Call a number \"postponed\" if it cannot be placed right away, that is, if it is relatively prime to the numbers in the previous row. Then I conjecture that:",
				"\"(1) a number n \u003e= 4 is postponed iff n is prime,",
				"\"(2) every number appears,",
				"\"(3) the primes appear in order,",
				"\"(4) 2p (p prime) will appear in one row and p will appear in the next row,",
				"\"(5) let c(i) = A018252(i) be the i-th nonprime and define a sequence k(n) [see A104655], n \u003e= 3, by k(3) = 4 and for n \u003e= 4, n*(n+1)/2 = pi( floor( c(k(n-1))/2 ) ) + k(n). Then the final term in row n, for n \u003e= 3, is c(k(n)) [A104656].\""
			],
			"link": [
				"Michael De Vlieger, \u003ca href=\"/A101513/b101513.txt\"\u003eTable of n, a(n) for n = 1..11628\u003c/a\u003e (rows 1 \u003c= n \u003c= 150)."
			],
			"example": [
				"Triangle begins:",
				"1",
				"2 3",
				"4 6 8",
				"9 10 12 14",
				"5 7 15 16 18",
				"20 21 22 24 25 26",
				"11 13 27 28 30 32 33",
				"...",
				"7 is in the 5th row because it does not occur earlier and 14 is in the 4th row."
			],
			"mathematica": [
				"f[w_List] := Block[{k = 4, m = {}}, Do[While[Nand[FreeQ[Join[w, m], k], AnyTrue[Last@ w, GCD[k, #] \u003e 1 \u0026]], k++]; AppendTo[m, k], {i, Length@ w + 1}]; m]; Nest[Append[#, f@ #] \u0026, Table[n + k - 1, {n, 2}, {k, n}], 10] // Flatten (* _Michael De Vlieger_, Sep 25 2017 *)"
			],
			"xref": [
				"Cf. the EKG sequence A064413. See also A104654, A104655, A104656."
			],
			"keyword": "nonn,tabl",
			"offset": "1,2",
			"author": "_Leroy Quet_, Jan 25 2005",
			"ext": [
				"More terms from _Joshua Zucker_, May 20 2006"
			],
			"references": 4,
			"revision": 13,
			"time": "2017-09-26T08:27:03-04:00",
			"created": "2005-02-20T03:00:00-05:00"
		}
	]
}