{
	"greeting": "Greetings from The On-Line Encyclopedia of Integer Sequences! http://oeis.org/",
	"query": "id:A102303",
	"count": 1,
	"start": 0,
	"results": [
		{
			"number": 102303,
			"data": "1,9,57,401,2801,19609,137257,960801,6725601,47079209,329554457,2306881201,16148168401,113037178809,791260251657,5538821761601,38771752331201,271402266318409,1899815864228857,13298711049602001,93090977347214001,651636841430498009",
			"name": "a(n) = (1/6) * (7^(n+1) - 3*(-1)^n + 2).",
			"link": [
				"\u003ca href=\"/index/Rec#order_03\"\u003eIndex entries for linear recurrences with constant coefficients\u003c/a\u003e, signature (7,1,-7)."
			],
			"formula": [
				"a(n) = Sum[7^i, {i, 0, n}] + 1 - Mod[Sum[7^i, {i, 0, n}], 2]",
				"From _Chai Wah Wu_, Mar 11 2021: (Start)",
				"a(n) = 7*a(n-1) + a(n-2) - 7*a(n-3) for n \u003e 2.",
				"G.f.: (-7*x^2 + 2*x + 1)/((x - 1)*(x + 1)*(7*x - 1)). (End)"
			],
			"mathematica": [
				"a = Table[Sum[7^i, {i, 0, n}] + 1 - Mod[Sum[7^i, {i, 0, n}], 2], {n, 0, 50}]"
			],
			"keyword": "nonn",
			"offset": "0,2",
			"author": "_Roger L. Bagula_, Mar 15 2005",
			"ext": [
				"Edited by _N. J. A. Sloane_, May 29 2007"
			],
			"references": 0,
			"revision": 11,
			"time": "2021-03-11T18:17:48-05:00",
			"created": "2005-04-09T03:00:00-04:00"
		}
	]
}