{
	"greeting": "Greetings from The On-Line Encyclopedia of Integer Sequences! http://oeis.org/",
	"query": "id:A102222",
	"count": 1,
	"start": 0,
	"results": [
		{
			"number": 102222,
			"data": "0,1,0,3,4,0,22,27,9,0,323,352,108,16,0,7906,8075,2200,300,25,0,290262,284616,72675,8800,675,36,0,14919430,14222838,3486546,395675,26950,1323,49,0,1022475715,954843520,227565408,24793216,1582700,68992,2352,64,0",
			"name": "Logarithm of triangular matrix A102220, which equals [2*I - A008459]^(-1).",
			"comment": [
				"Column 0 forms A102223."
			],
			"formula": [
				"T(n, k) = C(n, k)^2*A102223(n-k). T(n, 0) = A102223(n). T(n, n) = 0 for n\u003e=0. [A102222] = Sum_{m=1..inf} [A008459 - I]^m/m."
			],
			"example": [
				"Rows begin:",
				"[0],",
				"[1,0],",
				"[3,4,0],",
				"[22,27,9,0],",
				"[323,352,108,16,0],",
				"[7906,8075,2200,300,25,0],",
				"[290262,284616,72675,8800,675,36,0],...",
				"which equals the term-by-term product of column 0",
				"with the squared binomial coefficients (A008459):",
				"[(0)1^2],",
				"[(1)1^2,(0)1^2],",
				"[(3)1^2,(1)2^2,(0)1^2],",
				"[(22)1^2,(3)3^2,(1)3^2,(0)1^2],",
				"[(323)1^2,(22)4^2,(3)6^2,(1)4^2,(0)1^2],..."
			],
			"program": [
				"(PARI) {T(n,k)=if(n\u003ck|k\u003c0,0,sum(m=1,n, (matrix(n+1,n+1,i,j,binomial(i-1,j-1)^2-if(i==j,1,0))^m/m)[n+1,k+1]))}"
			],
			"xref": [
				"Cf. A008459, A102220, A102223."
			],
			"keyword": "nonn,tabl",
			"offset": "0,4",
			"author": "_Paul D. Hanna_, Dec 31 2004",
			"references": 4,
			"revision": 4,
			"time": "2012-03-30T18:36:44-04:00",
			"created": "2005-02-20T03:00:00-05:00"
		}
	]
}