{
	"greeting": "Greetings from The On-Line Encyclopedia of Integer Sequences! http://oeis.org/",
	"query": "id:A102504",
	"count": 1,
	"start": 0,
	"results": [
		{
			"number": 102504,
			"data": "2092,2131,2797,3433,4126,5524,5710,6817,8383,8815,9472,114613,116329,130213,206776,239389,282298,286642,306046,307180,311317,318310,341386,360733,366529,377005,425665,430597,460441,475642,475660,478078,490870",
			"name": "Values of n for which the concatenations 1nn1, 3nn3, 7nn7 and 9nn9 are all primes.",
			"example": [
				"E.g. n=2092 leads to 1209220921, 3209220923, 7209220927 and 9209220929, all of which are primes."
			],
			"mathematica": [
				"foQ[n_, o_] := Block[{id = IntegerDigits[n]}, PrimeQ[ FromDigits[ Join[{o}, id, id, {o}] ]]]; Select[ Range[500985], foQ[ #, 1] \u0026\u0026 foQ[ #, 3] \u0026\u0026 foQ[ #, 7] \u0026\u0026 foQ[ #, 9] \u0026] (* _Robert G. Wilson v_, Jan 14 2005 *)"
			],
			"xref": [
				"For full sequences of integers of form 1nn1 (A100846), 3nn3 (A100896), 7nn7 (A100897), 9nn9 (A102484). For primes in these sequences: 1nn1 (A102496, A102497), 3nn3 (A102498, A102499), 7nn7 (A102500, A102501), 9nn9 (A102502, A102503)."
			],
			"keyword": "easy,nonn,base",
			"offset": "1,1",
			"author": "Mark Hudson (mrmarkhudson(AT)hotmail.com), Jan 13 2005",
			"references": 1,
			"revision": 7,
			"time": "2015-03-14T16:48:38-04:00",
			"created": "2005-02-20T03:00:00-05:00"
		}
	]
}