{
	"greeting": "Greetings from The On-Line Encyclopedia of Integer Sequences! http://oeis.org/",
	"query": "id:A102888",
	"count": 1,
	"start": 0,
	"results": [
		{
			"number": 102888,
			"data": "4,2,2,1,5,7,7,3,3,1,1,5,8,2,6,6,2,7,0,2,3,3,6,5,9,1,6,6,2,3,8,5,0,7,5,8,1,2,3,4,0,7,9,7,0,6,9,7,6,2,9,0,4,3,9,3,5,7,3,7,5,9,5,0,8,6,5,7,8,7,4,6,9,8,3,8,5,5,4,9,6,3,7,7,9,0,7,9,8,1,6,7,4,2,4,4,6,9,0,1,1,4",
			"name": "Decimal expansion of volume of the Reuleaux tetrahedron.",
			"link": [
				"Vincenzo Librandi, \u003ca href=\"/A102888/b102888.txt\"\u003eTable of n, a(n) for n = 0..5000\u003c/a\u003e",
				"Eric Weisstein's World of Mathematics, \u003ca href=\"http://mathworld.wolfram.com/DefiniteIntegral.html\"\u003eDefinite Integral\u003c/a\u003e",
				"Eric Weisstein's World of Mathematics, \u003ca href=\"http://mathworld.wolfram.com/ReuleauxTetrahedron.html\"\u003eReuleaux Tetrahedron\u003c/a\u003e"
			],
			"formula": [
				"(8/3)*Pi - (27/4)*arccos(1/3) + sqrt(2)/4",
				"= (3*sqrt(2) - 49*Pi + 162*arctan(sqrt(2)))/12",
				"= (1/24)*(6*sqrt(2) + 16*Pi + 57*arccos(17/81) - 132*arctan(sqrt(2)))."
			],
			"example": [
				"0.422157733..."
			],
			"mathematica": [
				"RealDigits[8 Pi/3 - 27 ArcSec[3]/4 + Sqrt[2]/4, 10, 102][[1]] (* _Eric W. Weisstein_, Dec 15 2017 *)"
			],
			"program": [
				"(PARI) 8/3*Pi - (27/4)*acos(1/3) + sqrt(2)/4 \\\\ _Michel Marcus_, Dec 15 2017"
			],
			"keyword": "nonn,cons",
			"offset": "0,1",
			"author": "_Eric W. Weisstein_, Jan 16 2005",
			"references": 5,
			"revision": 20,
			"time": "2018-01-17T03:23:35-05:00",
			"created": "2005-02-20T03:00:00-05:00"
		}
	]
}