{
	"greeting": "Greetings from The On-Line Encyclopedia of Integer Sequences! http://oeis.org/",
	"query": "id:A102138",
	"count": 1,
	"start": 0,
	"results": [
		{
			"number": 102138,
			"data": "4,6,7,12,25,72,100,126,167,253,396,856,1013,1172,1413,2138,23926,28255",
			"name": "Iccanobirt prime indices (8 of 15): Indices of prime numbers in A102118.",
			"comment": [
				"No more terms through 5000.",
				"a(19) \u003e 50000. - _Robert Price_, Nov 09 2018"
			],
			"formula": [
				"A102118(a(n)) = A102158(n)."
			],
			"mathematica": [
				"a[n_] := a[n] = IntegerReverse[(a[n - 1] + a[n - 2] + a[n - 3])];",
				"a[0] = 0; a[1] = 0; a[2] = 1;",
				"Select[Range[0, 5000], PrimeQ[a[#]] \u0026] (* _Robert Price_, Apr 10 2020 *)"
			],
			"xref": [
				"Cf. A000040, A102118, A102131-A102145."
			],
			"keyword": "nonn,more,base",
			"offset": "1,1",
			"author": "_Jonathan Vos Post_ and _Ray Chandler_, Dec 31 2004",
			"ext": [
				"a(17)-a(18) from _Robert Price_, Nov 09 2018"
			],
			"references": 1,
			"revision": 12,
			"time": "2020-04-10T15:48:42-04:00",
			"created": "2005-02-20T03:00:00-05:00"
		}
	]
}