{
	"greeting": "Greetings from The On-Line Encyclopedia of Integer Sequences! http://oeis.org/",
	"query": "id:A102960",
	"count": 1,
	"start": 0,
	"results": [
		{
			"number": 102960,
			"data": "2,12,27,44,80,119,131,275,315,876,1307,10895,17105,60717",
			"name": "Numbers n such that 2*10^n + 8*R_n - 7 is prime, where R_n = 11...1 is the repunit (A002275) of length n.",
			"comment": [
				"Also numbers n such that (26*10^n-71)/9 is prime.",
				"a(15) \u003e 10^5. - _Robert Price_, Mar 16 2015"
			],
			"link": [
				"Makoto Kamada, \u003ca href=\"https://stdkmd.net/nrr/2/28881.htm#prime\"\u003ePrime numbers of the form 288...881\u003c/a\u003e.",
				"\u003ca href=\"/index/Pri#Pri_rep\"\u003eIndex entries for primes involving repunits\u003c/a\u003e."
			],
			"formula": [
				"a(n) = A101969(n) + 1."
			],
			"mathematica": [
				"Do[ If[ PrimeQ[(26*10^n - 71)/9], Print[n]], {n, 10000}]"
			],
			"xref": [
				"Cf. A002275, A101969."
			],
			"keyword": "more,nonn",
			"offset": "1,1",
			"author": "_Robert G. Wilson v_, Dec 17 2004",
			"ext": [
				"Addition of a(12)-a(13) from Kamada data by _Robert Price_, Dec 13 2010",
				"a(14) from _Robert Price_, Mar 16 2015",
				"Erroneous zero term deleted by _Robert Price_, Mar 17 2015"
			],
			"references": 1,
			"revision": 23,
			"time": "2019-01-17T13:44:07-05:00",
			"created": "2005-02-20T03:00:00-05:00"
		}
	]
}