{
	"greeting": "Greetings from The On-Line Encyclopedia of Integer Sequences! http://oeis.org/",
	"query": "id:A102433",
	"count": 1,
	"start": 0,
	"results": [
		{
			"number": 102433,
			"data": "1,4,12,40,132,472,1727,6452,24330,92404,352743,1352116,5200339,20058347,77558811,300540260,1166803176,4537567732,17672631983,68923264512,269128937327,1052049481983,4116715363924,16123801841703",
			"name": "Number of distinct polynomials of degree \u003c n and coefficients \u003e 0 with solutions k \u003e= 1 such that p(k) = n.",
			"formula": [
				"a(n) = A102431(n) + A102430(n, 1) - 1"
			],
			"example": [
				"a(2)=4 distinct polynomials: 2 (for all n), n+1, 2n (for n=1), n (for n=2)."
			],
			"xref": [
				"Cf. A102430, A102431, A102432, A102434."
			],
			"keyword": "easy,nonn",
			"offset": "1,2",
			"author": "_Marc LeBrun_, Jan 08 2005",
			"references": 4,
			"revision": 3,
			"time": "2012-03-30T17:38:11-04:00",
			"created": "2005-02-20T03:00:00-05:00"
		}
	]
}