{
	"greeting": "Greetings from The On-Line Encyclopedia of Integer Sequences! http://oeis.org/",
	"query": "id:A102601",
	"count": 1,
	"start": 0,
	"results": [
		{
			"number": 102601,
			"data": "2,3,3,3,5,3,29,109,9,3,35,19,5,123,31,37,189,47,97,23,113,11,509,3,33,25,55,21,85,123,35,7,211,357,239,3,1507,33,29,3,11,53,7,15,59,797,533,167,229,17,39,137,43,733,35,273,7,235,399,63,149,189,403,151,1021,303",
			"name": "a(n)= least k such that ((k+1)^n)*(k^n-1)-1 is prime.",
			"mathematica": [
				"f[n_] := Block[{k = 1}, While[ !PrimeQ[((k + 1)^n)*(k^n - 1) - 1], k += 2]; k]; Table[ f[n], {n, 66}] (* _Robert G. Wilson v_, Feb 10 2005 *)"
			],
			"keyword": "nonn",
			"offset": "1,1",
			"author": "_Pierre CAMI_, Jan 29 2005",
			"ext": [
				"More terms from _Robert G. Wilson v_, Feb 10 2005"
			],
			"references": 0,
			"revision": 7,
			"time": "2015-03-29T16:28:30-04:00",
			"created": "2005-02-20T03:00:00-05:00"
		}
	]
}