{
	"greeting": "Greetings from The On-Line Encyclopedia of Integer Sequences! http://oeis.org/",
	"query": "id:A102788",
	"count": 1,
	"start": 0,
	"results": [
		{
			"number": 102788,
			"data": "0,0,0,0,1,4,11,19,35,3,4,5,7,310,394,11,14,17,19,22,1653,27,31,35,0,46,4805,5300,5720,6275,0,79,85,90,0,107,112,121,129,137,147,154,0,175,34581,36029,1,1,241,55200,57676,265,274,1,307,321,336,347,357,370",
			"name": "Integer part of n#/((p-7)# 7#), where p=preceding prime to n.",
			"comment": [
				"0# = 1# = 2 by convention."
			],
			"formula": [
				"n# = product of primes \u003c= n. 0#=1#=2. n#/((p-r)# r#) is analogous to the number of combinations of n things taken r at a time: C(n, r) = n!/((n-r)! r!) where factorial ! is replaced by primorial # and n is replaced with the preceding prime to n."
			],
			"program": [
				"(PARI) c(n,r) = { local(p); forprime(p=2,n, print1(floor(primorial(p)/primorial(p-r)/primorial(r)+.0)\",\") ) } primorial(n) = \\ The product of primes \u003c= n using the pari primelimit. { local(p1,x); if(n==0||n==1,return(2)); p1=1; forprime(x=2,n,p1*=x); return(p1) }"
			],
			"keyword": "easy,nonn",
			"offset": "2,6",
			"author": "_Cino Hilliard_, Feb 25 2005",
			"references": 0,
			"revision": 5,
			"time": "2013-10-01T17:58:07-04:00",
			"created": "2005-04-09T03:00:00-04:00"
		}
	]
}