{
	"greeting": "Greetings from The On-Line Encyclopedia of Integer Sequences! http://oeis.org/",
	"query": "id:A102264",
	"count": 1,
	"start": 0,
	"results": [
		{
			"number": 102264,
			"data": "5,17,41,257,521,4481,9521,21929,72089",
			"name": "Smallest prime for which 2^n exactly divides the class number h(-4p).",
			"link": [
				"H. Cohn and J. C. Lagarias, \u003ca href=\"http://dx.doi.org/10.1090/S0025-5718-1983-0717716-8\"\u003eOn the existence of fields governing the 2-invariants of the classgroup of Q(sqrt{dp}) as p varies\u003c/a\u003e, Math. Comp. 41 (1983), 711-730.",
				"S. Louboutin, \u003ca href=\"http://dx.doi.org/10.1090/S0025-5718-1992-1134735-6\"\u003eL-functions and class numbers of imaginary quadratic fields and of quadratic extensions of an imaginary quadratic field\u003c/a\u003e, Math. Comp. 59 (1992) 213-230, Table 1"
			],
			"keyword": "nonn,more",
			"offset": "1,1",
			"author": "_N. J. A. Sloane_, Feb 19 2005",
			"references": 0,
			"revision": 8,
			"time": "2015-09-14T17:28:28-04:00",
			"created": "2005-02-20T03:00:00-05:00"
		}
	]
}