{
	"greeting": "Greetings from The On-Line Encyclopedia of Integer Sequences! http://oeis.org/",
	"query": "id:A102618",
	"count": 1,
	"start": 0,
	"results": [
		{
			"number": 102618,
			"data": "370,407,1332,2331,2960,3256,4921,5957,8029,8288,9990,10656,10989,12691,12913,13357,13949,14023,14911,16021,16354,17353,18648,18907,19684,19721,20683,22681,23680,24605,24901,26048,27343,30007,30303,32893,34965,35964,36001,36556,37259,39331,39368,39627",
			"name": "Numbers which are the sum of two positive cubes and divisible by 37.",
			"link": [
				"Robert Israel, \u003ca href=\"/A102618/b102618.txt\"\u003eTable of n, a(n) for n = 1..10000\u003c/a\u003e"
			],
			"maple": [
				"N:= 200000: # for terms \u003c= N",
				"G:= expand(add(x^(i^3),i=1..floor(N^(1/3)))^2):",
				"select(t -\u003e coeff(G,x,t) \u003e 0, [seq(i,i=37..N,37)]); # _Robert Israel_, Jun 12 2020"
			],
			"mathematica": [
				"upto[n_] := Block[{t}, Union@ Reap[ Do[If[ Mod[t = x^3 + y^3, 37] == 0, Sow@ t], {x, n^(1/3)}, {y, Min[x, (n - x^3)^(1/3) ]}]][[2, 1]]]; upto[40000] (* _Giovanni Resta_, Jun 12 2020 *)"
			],
			"xref": [
				"Cf. A003325.  Other sequences of the form \"sum of two positive cubes and divisible by ...\": A224484, A224485, A101421, A101852, A094447, A099178, A102619, A101806, A224483, A102658."
			],
			"keyword": "nonn",
			"offset": "1,1",
			"author": "Jun Mizuki (suzuki32(AT)sanken.osaka-u.ac.jp), Jan 31 2005",
			"ext": [
				"Corrected by _Robert Israel_, Jun 12 2020"
			],
			"references": 6,
			"revision": 10,
			"time": "2020-06-13T01:47:28-04:00",
			"created": "2005-02-20T03:00:00-05:00"
		}
	]
}