{
	"greeting": "Greetings from The On-Line Encyclopedia of Integer Sequences! http://oeis.org/",
	"query": "id:A102082",
	"count": 1,
	"start": 0,
	"results": [
		{
			"number": 102082,
			"data": "0,0,0,0,1,0,0,1,1,0,0,1,0,1,0,0,0,0,0,2,0,0,1,0,1,0,0,0,0,0,1,0,0,1",
			"name": "Number of times the n-th letter in an infinitely repeating English alphabet appears in the English word for the number n.",
			"example": [
				"a(5) = f i v e = 1 (letter 5 = e, which appears once in \"five\")",
				"a(20) = t w e n t y = 2",
				"a(34) = t h i r t y f o u r = 1 (letter 34 = letter 8 = h)",
				"a,b,c,...z,a,b",
				"1,2,3,...26,27,28"
			],
			"keyword": "nonn,word",
			"offset": "0,20",
			"author": "Jeremy Ballard (gtg056b(AT)prism.gatech.edu), Feb 13 2005",
			"references": 0,
			"revision": 6,
			"time": "2013-08-31T19:29:57-04:00",
			"created": "2005-02-20T03:00:00-05:00"
		}
	]
}