{
	"greeting": "Greetings from The On-Line Encyclopedia of Integer Sequences! http://oeis.org/",
	"query": "id:A102077",
	"count": 1,
	"start": 0,
	"results": [
		{
			"number": 102077,
			"data": "6,12,126,72,22,252,126,144,7182,2772,4554,1512,378,84,14322,2464,42,14364,342,792,1251558,191268,136206,21168,594,1188,33858,1368,1062,257796,128898,576,6407478,17388,295218,948024,79002,158004,89586,14256",
			"name": "Denominators of e.g.f. cosec(arctanh(x)).",
			"example": [
				"cosec(arctanh(x)) = 1/x - x/6 - 1/12*x^3/3! + 125/126x^5/5! +...",
				"cosech(arctan(x)) = 1/x + x/6 - 1/12*x^3/3! - 125/126x^5/5! +..."
			],
			"maple": [
				"G:=series(csc(arctanh(x)),x=0,92): seq(denom((2*n-1)!*coeff(G,x^(2*n-1))), n=1..45); # _Emeric Deutsch_, Feb 25 2005"
			],
			"xref": [
				"Numerators are in A102076. Probably differs from A102062."
			],
			"keyword": "nonn,frac",
			"offset": "1,1",
			"author": "_Ralf Stephan_, Dec 31 2004",
			"ext": [
				"More terms from _Emeric Deutsch_, Feb 25 2005"
			],
			"references": 1,
			"revision": 10,
			"time": "2019-08-18T13:53:40-04:00",
			"created": "2005-02-20T03:00:00-05:00"
		}
	]
}