{
	"greeting": "Greetings from The On-Line Encyclopedia of Integer Sequences! http://oeis.org/",
	"query": "id:A102340",
	"count": 1,
	"start": 0,
	"results": [
		{
			"number": 102340,
			"data": "2,10,14,31,32,34,35,49,52,73,74,79,80,92,95,97,113,116,118,125,127,128,134,136,139,142,148,149,155,160,169,172,178,185,196,205,211,217,224,227,238,245,251,260,262,263,265,272,281,283,284,287,296,298,304,305,311,322,323,325,326,335,343",
			"name": "Numbers k such that k3333 is prime.",
			"link": [
				"Harvey P. Dale, \u003ca href=\"/A102340/b102340.txt\"\u003eTable of n, a(n) for n = 1..1000\u003c/a\u003e"
			],
			"example": [
				"k=2 is in the sequence because  k3333 = 23333 is prime.",
				"k=73 is in the sequence because k3333 = 733333 is prime.",
				"k=125 is in the sequence because k3333 = 1253333 is prime."
			],
			"mathematica": [
				"Select[Range[500],PrimeQ[FromDigits[Join[IntegerDigits[#],{3,3,3,3}]]]\u0026] (* _Harvey P. Dale_, Jun 17 2014 *)"
			],
			"program": [
				"(MAGMA) [ n: n in [1..700] | IsPrime(Seqint([3,3,3,3] cat Intseq(n))) ]; // _Vincenzo Librandi_, Feb 04 2011"
			],
			"xref": [
				"Cf. A101472."
			],
			"keyword": "nonn,base",
			"offset": "1,1",
			"author": "_Parthasarathy Nambi_, Feb 20 2005",
			"references": 1,
			"revision": 14,
			"time": "2018-01-20T09:04:21-05:00",
			"created": "2005-02-23T03:00:00-05:00"
		}
	]
}