{
	"greeting": "Greetings from The On-Line Encyclopedia of Integer Sequences! http://oeis.org/",
	"query": "id:A102499",
	"count": 1,
	"start": 0,
	"results": [
		{
			"number": 102499,
			"data": "313133,323233,328283,329293,338383,343433,349493,350503,352523,356563,364643,367673,380803,383833,392923,394943,395953,397973,3100010003,3100310033,3102410243,3102510253,3102810283,3103910393,3104610463",
			"name": "Primes of the concatenated form 3nn3.",
			"example": [
				"313133 is prime and of the form 3nn3 for n=13.",
				"3100010003 is prime and of the form 3nn3 for n=1000."
			],
			"mathematica": [
				"mn[n_]:=Module[{idn=IntegerDigits[n]}, FromDigits[Join[{3},idn,idn,{3}]]]; Select[mn/@Range[1100],PrimeQ]  (* _Harvey P. Dale_, Feb 04 2011 *)"
			],
			"xref": [
				"Cf. A102896 for sequence of all numbers of form 3nn3. A102498 for the n values corresponding to the primes in this sequence."
			],
			"keyword": "easy,nonn,base",
			"offset": "1,1",
			"author": "Mark Hudson (mrmarkhudson(AT)hotmail.com), Jan 13 2005",
			"references": 3,
			"revision": 8,
			"time": "2013-11-21T12:48:37-05:00",
			"created": "2005-02-20T03:00:00-05:00"
		}
	]
}