{
	"greeting": "Greetings from The On-Line Encyclopedia of Integer Sequences! http://oeis.org/",
	"query": "id:A102286",
	"count": 1,
	"start": 0,
	"results": [
		{
			"number": 102286,
			"data": "1,2,7,24,96,418,1989,10216,56275,330424,2057672,13532060,93633021,679473694,5156626991,40824399712,336406367196,2879570703510,25557841113625,234822774979908,2230107923204443,21861817965483016,220940261740238140,2299258336094622008",
			"name": "Total number of odd blocks in all partitions of n-set.",
			"comment": [
				"a(n) is also the number of set partitions of {1,2,...,n+1} in which the element 1 is in an even size block. - _Geoffrey Critzer_, Apr 02 2013"
			],
			"link": [
				"Alois P. Heinz, \u003ca href=\"/A102286/b102286.txt\"\u003eTable of n, a(n) for n = 1..575\u003c/a\u003e"
			],
			"formula": [
				"E.g.f: sinh(x)*exp(exp(x)-1)."
			],
			"example": [
				"a(3)=7 because we have (123), (1)/23, 12/(3), 13/(2), (1)/(2)/(3); the odd blocks are shown between parentheses."
			],
			"maple": [
				"G:=sinh(x)*exp(exp(x)-1): Gser:=series(G,x=0,30): seq(n!*coeff(Gser,x^n),n=1..25); # _Emeric Deutsch_",
				"# second Maple program:",
				"with(combinat):",
				"b:= proc(n, i) option remember; `if`(n=0 or i=1, [1, n],",
				"       add((p-\u003e(p+[0, `if`(i::odd, j, 0)*p[1]]))(",
				"       b(n-i*j, i-1))*multinomial(n, n-i*j, i$j)/j!, j=0..n/i))",
				"    end:",
				"a:= n-\u003e b(n$2)[2]:",
				"seq(a(n), n=1..30);  # _Alois P. Heinz_, Sep 16 2015"
			],
			"mathematica": [
				"Range[0, nn]! CoefficientList[",
				"  D[Series[Exp[ (Cosh[x] - 1) + y Sinh[x]], {x, 0, nn}], y] /. y -\u003e 1, x] (* _Geoffrey Critzer_, Aug 28 2012 *)",
				"With[{nn=30},CoefficientList[Series[Sinh[x]Exp[Exp[x]-1],{x,0,nn}],x] Range[0,nn]!] (* _Harvey P. Dale_, Jul 03 2021 *)"
			],
			"xref": [
				"Cf. A005493, A000296."
			],
			"keyword": "easy,nonn",
			"offset": "1,2",
			"author": "_Vladeta Jovovic_, Feb 19 2005",
			"ext": [
				"More terms from _Emeric Deutsch_, Mar 04 2005"
			],
			"references": 4,
			"revision": 19,
			"time": "2021-07-03T11:12:27-04:00",
			"created": "2005-02-20T03:00:00-05:00"
		}
	]
}