{
	"greeting": "Greetings from The On-Line Encyclopedia of Integer Sequences! http://oeis.org/",
	"query": "id:A102758",
	"count": 1,
	"start": 0,
	"results": [
		{
			"number": 102758,
			"data": "8,10,11,22,37,59,64,71,77,82,85,89,94,98,103,109,116,119,130,134,142,145,151,154,158,166,173,178,184,215,229,236,247,250,253,259,275,298,299,301,310,316,317,323,346,347,364,380,385,389,401,406,422,425,449,460,464,467,470",
			"name": "Numbers k such that k3333333 is prime.",
			"link": [
				"Harvey P. Dale, \u003ca href=\"/A102758/b102758.txt\"\u003eTable of n, a(n) for n = 1..1000\u003c/a\u003e"
			],
			"example": [
				"If k=8, then k3333333 = 83333333 (prime).",
				"If k=71, then k3333333 = 713333333 (prime).",
				"If k=103, then k3333333 = 1033333333 (prime)."
			],
			"mathematica": [
				"Select[Range[500],PrimeQ[# 10^7+3333333]\u0026] (* _Harvey P. Dale_, Aug 28 2019 *)"
			],
			"program": [
				"(MAGMA) [ n: n in [1..700] | IsPrime(Seqint([3,3,3,3,3,3,3] cat Intseq(n))) ]; // _Vincenzo Librandi_, Feb 03 2011"
			],
			"keyword": "base,nonn",
			"offset": "1,1",
			"author": "_Parthasarathy Nambi_, Feb 25 2005",
			"references": 1,
			"revision": 12,
			"time": "2019-08-28T09:03:01-04:00",
			"created": "2005-04-09T03:00:00-04:00"
		}
	]
}