{
	"greeting": "Greetings from The On-Line Encyclopedia of Integer Sequences! http://oeis.org/",
	"query": "id:A102843",
	"count": 1,
	"start": 0,
	"results": [
		{
			"number": 102843,
			"data": "30,43,70,291,1141,2193,3475,12628,8945,15404,62785,29618,91533,95161,375041,73533,869960,329955,1119201,172167,2190654,252598,2712385,352813,5085549,6174631,6217121,3241215,10329301,935964,15084677",
			"name": "TrueSoFar terminating terms in other bases.",
			"comment": [
				"Suggested by Art Neuendorffer - These are the decimal representations of the stopping terms of the 'Truesofar' sequence in bases 2, 3, 4... Sequence is infinite. Related sequence A104285, number of terms in TrueSoFar sequence in other bases."
			],
			"example": [
				"For example, base 2 terminating term is 11110, which is 30 in decimal."
			],
			"xref": [
				"Cf. A102357 A104285."
			],
			"keyword": "nonn,base,easy",
			"offset": "2,1",
			"author": "Patrick Hamlyn (pathATmultipro.com.au) Feb 28 2005",
			"references": 0,
			"revision": 1,
			"time": "2005-04-09T03:00:00-04:00",
			"created": "2005-04-09T03:00:00-04:00"
		}
	]
}