{
	"greeting": "Greetings from The On-Line Encyclopedia of Integer Sequences! http://oeis.org/",
	"query": "id:A103224",
	"count": 1,
	"start": 0,
	"results": [
		{
			"number": 103224,
			"data": "1,2,4,8,8,8,36,32,36,16,100,32,80,72,32,128,160,72,324,64,144,200,484,128,200,160,324,288,520,64,900,512,400,320,288,288,936,648,320,256,1088,288,1764,800,288,968,2116,512,1764,400,640,640,2000,648,800,1152",
			"name": "Norm of the totient function phi(n) for Gaussian integers. See A103222 and A103223 for the real and imaginary parts.",
			"comment": [
				"See A103222 for definitions.",
				"Multiplicative because the totient function on Gaussian integers is multiplicative and the norm is completely multiplicative. - _Andrew Howroyd_, Aug 03 2018"
			],
			"link": [
				"Amiram Eldar, \u003ca href=\"/A103224/b103224.txt\"\u003eTable of n, a(n) for n = 1..10000\u003c/a\u003e (terms 1..1000 from T. D. Noe)"
			],
			"formula": [
				"a(n) = A103222(n)^2 + A103223(n)^2. - _Andrew Howroyd_, Aug 03 2018"
			],
			"mathematica": [
				"phi[z_] := Module[{f, k, prod}, If[Abs[z]==1, z, f=FactorInteger[z, GaussianIntegers-\u003eTrue]; If[Abs[f[[1, 1]]]==1, k=2; prod=f[[1, 1]], k=1; prod=1]; Do[prod=prod*(f[[i, 1]]-1)f[[i, 1]]^(f[[i, 2]]-1), {i, k, Length[f]}]; prod]]; Abs[Table[phi[n], {n, 100}]]^2"
			],
			"program": [
				"(PARI) \\\\ See A103222",
				"CEulerPhi(z)={my(f=factor(z,I)); prod(i=1, #f~, my([p,e]=f[i,]); if(norm(p)==1, p^e, (p-1)*p^(e-1)))}",
				"a(n)=norm(CEulerPhi(n)); \\\\ _Andrew Howroyd_, Aug 03 2018"
			],
			"xref": [
				"Cf. A103222, A103223, A103230."
			],
			"keyword": "nonn,mult",
			"offset": "1,2",
			"author": "_T. D. Noe_, Jan 26 2005",
			"references": 6,
			"revision": 20,
			"time": "2020-02-21T07:07:23-05:00",
			"created": "2005-02-20T03:00:00-05:00"
		}
	]
}