{
	"greeting": "Greetings from The On-Line Encyclopedia of Integer Sequences! http://oeis.org/",
	"query": "id:A103352",
	"count": 1,
	"start": 0,
	"results": [
		{
			"number": 103352,
			"data": "1,512,10077696,5159780352,10077696000000000,373248000000000,15061903105536000000000,7711694390034432000000000,4098310578334288576512000000000,4098310578334288576512000000000",
			"name": "Denominators of sum_{k=1..n} 1/k^9 = Zeta(9,n).",
			"comment": [
				"For the numerators, comments and a link reference see A103351."
			],
			"mathematica": [
				"s=0;lst={};Do[s+=n^1/n^10;AppendTo[lst,Denominator[s]],{n,3*4!}];lst (* _Vladimir Joseph Stephan Orlovsky_, Jan 24 2009 *)",
				"Table[ HarmonicNumber[n, 9] // Denominator, {n, 1, 10}] (* _Jean-François Alcover_, Dec 04 2013 *)"
			],
			"keyword": "nonn,frac,easy",
			"offset": "1,2",
			"author": "_Wolfdieter Lang_, Feb 15 2005",
			"references": 3,
			"revision": 11,
			"time": "2015-01-17T23:21:31-05:00",
			"created": "2005-02-20T03:00:00-05:00"
		}
	]
}