{
	"greeting": "Greetings from The On-Line Encyclopedia of Integer Sequences! http://oeis.org/",
	"query": "id:A103572",
	"count": 1,
	"start": 0,
	"results": [
		{
			"number": 103572,
			"data": "7,18,31,48,48,52,62,74,92,95,100,109,124,126,130,140,154,170,173,180,193,195,201,209,221,235,253,266,283,287,293,309,327,332,343,358,360,368,378,379,382,389,398,400,414,432,433,438,449,462,466,476,492,495",
			"name": "Sum of the (primes \u003e 5 modulo 19).",
			"comment": [
				"For Prime[q[ the sums of the primes \u003e 5 to a prime modulo form a sequence of sequences: a(n,q) = Sum[Mod[Prime[i+3],Prime[q]],{i,1,n}]"
			],
			"formula": [
				"a(n+1)-a(n) = A033633(n+4)."
			],
			"mathematica": [
				"a = Table[Sum[Mod[Prime[i + 3], 19], {i, 1, n}], {n, 1, 200}]"
			],
			"keyword": "nonn",
			"offset": "1,1",
			"author": "_Roger L. Bagula_, Mar 23 2005",
			"references": 0,
			"revision": 7,
			"time": "2014-03-12T16:36:45-04:00",
			"created": "2005-04-09T03:00:00-04:00"
		}
	]
}