{
	"greeting": "Greetings from The On-Line Encyclopedia of Integer Sequences! http://oeis.org/",
	"query": "id:A103679",
	"count": 1,
	"start": 0,
	"results": [
		{
			"number": 103679,
			"data": "0,1,2,3,4,5,7,8,9,10,11,12,13,14,15,16,17,18,19,21,22,24,25,26,27,28,29,33,34,35,36,38,39,40,41,42,44,45,46,47,48,49,50,51,52,54,56,57,59,60,61,62,63,64,66,67,68,69,70,72,73,75,76,77,78,79,80,82,83,84,85,87",
			"name": "Numbers m such that in binary representation m! doesn't contain 6!.",
			"comment": [
				"Complement of A103678: A103674(a(n))=0, A103674(A103678(n))=1.",
				"Last term is probably 802. No numbers between 803 and 500000 belong to the sequence. - _Giovanni Resta_, Apr 07 2013"
			],
			"link": [
				"\u003ca href=\"/index/Fa#factorial\"\u003eIndex entries for sequences related to factorial numbers\u003c/a\u003e",
				"\u003ca href=\"/index/Bi#binary\"\u003eIndex entries for sequences related to binary expansion of n\u003c/a\u003e"
			],
			"program": [
				"(PARI) is(n)=n=n!; while(n\u003e719, my(e=valuation(n, 2), e1=valuation((n\u003e\u003e=e)+1, 2)); n\u003e\u003e=e1; if(e\u003e3 \u0026\u0026 e1==1 \u0026\u0026 bitand(n, 31)==22, return(0))); 1 \\\\ _Charles R Greathouse IV_, Apr 07 2013"
			],
			"xref": [
				"Cf. A102730, A036603, A007088, A000142, A103677, A103681."
			],
			"keyword": "nonn,base",
			"offset": "1,3",
			"author": "_Reinhard Zumkeller_, Feb 12 2005",
			"references": 5,
			"revision": 17,
			"time": "2013-04-07T10:32:43-04:00",
			"created": "2005-02-20T03:00:00-05:00"
		}
	]
}