{
	"greeting": "Greetings from The On-Line Encyclopedia of Integer Sequences! http://oeis.org/",
	"query": "id:A103002",
	"count": 1,
	"start": 0,
	"results": [
		{
			"number": 103002,
			"data": "1,3,4,8,14,16,24,61,80,87,104,108,144,2157,3325,4122,20718,51163,140744",
			"name": "Numbers n such that 5*10^n - 7 is prime.",
			"comment": [
				"Also numbers n such that 4*10^n + 9*R_n - 6 is prime, where R_n = 11...1 is the repunit (A002275) of length n.",
				"a(20) \u003e 2*10^5. - _Robert Price_, Sep 15 2015"
			],
			"link": [
				"Makoto Kamada, \u003ca href=\"https://stdkmd.net/nrr/4/49993.htm#prime\"\u003ePrime numbers of the form 499...993\u003c/a\u003e.",
				"\u003ca href=\"/index/Pri#Pri_rep\"\u003eIndex entries for primes involving repunits\u003c/a\u003e."
			],
			"formula": [
				"a(n) = A101739(n) + 1."
			],
			"mathematica": [
				"Do[ If[ PrimeQ[5*10^n - 7], Print[n]], {n, 0, 10000}]"
			],
			"program": [
				"(PARI) is(n)=ispseudoprime(5*10^n-7) \\\\ _Charles R Greathouse IV_, Jun 06 2017"
			],
			"xref": [
				"Cf. A002275, A108837, A101739."
			],
			"keyword": "more,nonn",
			"offset": "1,2",
			"author": "_Robert G. Wilson v_, Jan 17 2005",
			"ext": [
				"Addition of a(17)-a(18) from Kamada data by _Robert Price_, Dec 10 2010",
				"a(19) from _Robert Price_, Sep 15 2015"
			],
			"references": 2,
			"revision": 20,
			"time": "2019-01-17T13:44:07-05:00",
			"created": "2005-02-20T03:00:00-05:00"
		}
	]
}