{
	"greeting": "Greetings from The On-Line Encyclopedia of Integer Sequences! http://oeis.org/",
	"query": "id:A103436",
	"count": 1,
	"start": 0,
	"results": [
		{
			"number": 103436,
			"data": "2,10,94,1330,25102,592210,16765774,553755730,20902816462,887654387410,41883261304654,2173850952162130,123085699242396622,7550010173496390610,498737656015015238734,35298805253912253800530",
			"name": "a(n) = Sum_{i\u003e=1} i^n*Fibonacci(i)/2^i.",
			"reference": [
				"A. T. Benjamin and J. J. Quinn, Proofs that really count: the art of combinatorial proof, M.A.A. 2003, p. 141."
			],
			"link": [
				"Amiram Eldar, \u003ca href=\"/A103436/b103436.txt\"\u003eTable of n, a(n) for n = 0..357\u003c/a\u003e",
				"Arthur T. Benjamin, Judson D. Neer, Daniel T. Otero and James A. Sellers, \u003ca href=\"https://www.fq.math.ca/Scanned/41-4/benjamin.pdf\"\u003eA probabilistic view of certain weighted Fibonacci sums\u003c/a\u003e, Fibonacci Quarterly, Vol. 41, No. 4 (2002), pp. 360-364."
			],
			"formula": [
				"a(n) = (PolyLog(-n, (1 + sqrt(5))/4) - PolyLog(-n, (1 - sqrt(5))/4))/sqrt(5). - _Vladimir Reshetnikov_, Jan 20 2011",
				"a(n) = 2 * A098799(n). - _Amiram Eldar_, Jun 16 2020"
			],
			"mathematica": [
				"a[n_] := Simplify[(PolyLog[-n, GoldenRatio/2] - PolyLog [-n, (1-GoldenRatio)/2]) / Sqrt[5]]; Array[a, 20, 0] (* _Amiram Eldar_, Jun 16 2020 *)"
			],
			"xref": [
				"Cf. A000045, A098799."
			],
			"keyword": "nonn",
			"offset": "0,1",
			"author": "_Ralf Stephan_, Feb 08 2005",
			"references": 2,
			"revision": 14,
			"time": "2020-06-16T03:01:26-04:00",
			"created": "2005-02-20T03:00:00-05:00"
		}
	]
}