{
	"greeting": "Greetings from The On-Line Encyclopedia of Integer Sequences! http://oeis.org/",
	"query": "id:A103749",
	"count": 1,
	"start": 0,
	"results": [
		{
			"number": 103749,
			"data": "0,1,1,-2,3,1,-8,13,-3,-26,55,-35,-72,217,-215,-146,795,-1079,-8,2677,-4827,2134,8047,-19835,16056,19873,-75599,87838,27507,-266543,414712,-93155,-854643,1777222,-1108889,-2377619,7040952,-6881111,-4915079,25878094,-34725237,-983015",
			"name": "Expansion of x*(1+2*x)/(1+x+x^2-2*x^3).",
			"comment": [
				"Insert n=3, p=2, q=-1 and r=1 in Kenyon's characteristic polynomial x^n-p*x^(n-1)+q*x+r=0 ."
			],
			"link": [
				"Richard Kenyon, \u003ca href=\"http://arXiv.org/abs/math.MG/9505210\"\u003eThe Construction of Self-Similar Tilings\u003c/a\u003e, arXiv:math.MG/9405210",
				"\u003ca href=\"/index/Rec#order_03\"\u003eIndex entries for linear recurrences with constant coefficients\u003c/a\u003e, signature (-1,-1,2)."
			],
			"formula": [
				"a(n) = -a(n-1)-a(n-2)+2*a(n-3) = A077975(n-1)+2*A077975(n-2)."
			],
			"mathematica": [
				"LinearRecurrence[{-1,-1,2},{0,1,1},50] (* _Harvey P. Dale_, Jul 23 2013 *)"
			],
			"xref": [
				"Cf. A099206."
			],
			"keyword": "sign,easy",
			"offset": "0,4",
			"author": "_Roger L. Bagula_, Mar 28 2005",
			"ext": [
				"Edited, replaced by signed variant by the Assoc. Eds. of the OEIS - Jul 31 2010"
			],
			"references": 0,
			"revision": 12,
			"time": "2015-06-13T00:51:46-04:00",
			"created": "2005-04-09T03:00:00-04:00"
		}
	]
}