{
	"greeting": "Greetings from The On-Line Encyclopedia of Integer Sequences! http://oeis.org/",
	"query": "id:A103182",
	"count": 1,
	"start": 0,
	"results": [
		{
			"number": 103182,
			"data": "2,7,11,20,25,29,52,65,70,101,110,133,200,205,205,250,254,290,425,502,520,641,650,700,785,925,1001,1010,1100,1258,1330,2000,2005,2050,2050,2225,2500,2504,2540,2900,3157,3445,4025,4250,5002,5020",
			"name": "Sliding numbers: numbers n of the form n = r+s where 1/r + 1/s = (r+s)/10^k for some k \u003e= 1.",
			"comment": [
				"Note that 1/20 + 1/50 = 0.70 --\u003e 70 is a \"sliding number\" though 0.70 is usually written 0.7 So any \"sliding number\" G produces an infinite chain of others : G*10, G*100, G*1000, etc. The first number in such a chain is called \"primitive\".",
				"Another characterization of the sliding numbers is numbers of the form a + 10^k/a where a | 10^k (k \u003e= 0). - _David W. Wilson_, Mar 09 2005",
				"The left-hand side is (a+b)/ab and we can cancel out (a+b), so we are looking for all (a+b) with a and b positive integers, such that a*b is a (nonnegative integral) power of 10, sorted by (a+b). It follows for example that for a given k, the smallest (a+b) with that k is 2*sqrt(10^k) (equality when k i even, unless we also require a!=b). - _Christopher Landauer_, Mar 10 2005"
			],
			"example": [
				"1/4 + 1/25 = 0.29 --\u003e 29 is a \"sliding number\"",
				"1/8 + 1/125 = 0.133 --\u003e 133 is a \"sliding number\"",
				"1/2 + 1/5 = 0.7 --\u003e 7 is a \"sliding number\""
			],
			"xref": [
				"Cf. A103183, A103184."
			],
			"keyword": "nonn",
			"offset": "1,1",
			"author": "_Eric Angelini_, Mar 09 2005",
			"ext": [
				"More terms from _Kerry Mitchell_, Mar 09 2005"
			],
			"references": 2,
			"revision": 9,
			"time": "2020-10-11T22:34:03-04:00",
			"created": "2005-04-09T03:00:00-04:00"
		}
	]
}