{
	"greeting": "Greetings from The On-Line Encyclopedia of Integer Sequences! http://oeis.org/",
	"query": "id:A103459",
	"count": 1,
	"start": 0,
	"results": [
		{
			"number": 103459,
			"data": "1,9,65,513,4097,32769,262145,2097153,16777217,134217729,1073741825,8589934593,68719476737,549755813889,4398046511105,35184372088833,281474976710657,2251799813685249,18014398509481985,144115188075855873",
			"name": "a(n) = 8^n + 1 - 0^n.",
			"comment": [
				"a(n)^3 is palindromic in base 8 (1_8, 1331_8, 1030301_8, 1003003001_8, ...)."
			],
			"link": [
				"G. C. Greubel, \u003ca href=\"/A103459/b103459.txt\"\u003eTable of n, a(n) for n = 0..1000\u003c/a\u003e",
				"Patrick De Geest, \u003ca href=\"http://www.worldofnumbers.com/index.html\"\u003eWorld!Of Numbers\u003c/a\u003e",
				"\u003ca href=\"/index/Rec#order_02\"\u003eIndex entries for linear recurrences with constant coefficients\u003c/a\u003e, signature (9,-8)."
			],
			"formula": [
				"G.f.: (1-8*x^2)/((1-x)*(1-8*x)).",
				"a(n) = Sum_{k=0..n} binomial(n, k)*0^(k(n-k))*8^k.",
				"a(n) = A062395(n), n \u003e 0. - _R. J. Mathar_, Aug 28 2008",
				"a(n) = 8*a(n-1) - 7, with a(1)=9. - _Vincenzo Librandi_, Dec 29 2010",
				"a(n) = 9*a(n-1) - 8*a(n-2); a(0)=1, a(1)=9, a(2)=65. - _Harvey P. Dale_, Oct 21 2011",
				"E.g.f.: -1 + exp(x) + exp(8*x). - _G. C. Greubel_, Jun 23 2021"
			],
			"mathematica": [
				"Join[{1},8^Range[20]+1] (* or *) Join[{1},LinearRecurrence[{9,-8},{9,65},20]] (* _Harvey P. Dale_, Oct 21 2011 *)"
			],
			"program": [
				"(MAGMA) [1] cat [8^n + 1: n in [1..30]]; // _G. C. Greubel_, Jun 23 2021",
				"(Sage) [1]+[8^n+1 for n in (1..30)] # _G. C. Greubel_, Jun 23 2021"
			],
			"xref": [
				"Cf. A046233, A062395."
			],
			"keyword": "easy,nonn",
			"offset": "0,2",
			"author": "_Paul Barry_, Feb 07 2005",
			"references": 2,
			"revision": 23,
			"time": "2021-06-24T07:17:46-04:00",
			"created": "2005-02-20T03:00:00-05:00"
		}
	]
}