{
	"greeting": "Greetings from The On-Line Encyclopedia of Integer Sequences! http://oeis.org/",
	"query": "id:A103325",
	"count": 1,
	"start": 0,
	"results": [
		{
			"number": 103325,
			"data": "32,1,243,1024,16807,161051,1889568,20511149,229345007,2535525376,28153056843,312079600999,3461619737632,38387392786601,425733547012443,4721411479245824,52361450147627807",
			"name": "Fifth powers of Lucas numbers.",
			"reference": [
				"Mohammad K. Azarian, Identities Involving Lucas or Fibonacci and Lucas Numbers as Binomial Sums, International Journal of Contemporary Mathematical Sciences, Vol. 7, No. 45, 2012, pp. 2221-2227."
			],
			"link": [
				"G. C. Greubel, \u003ca href=\"/A103325/b103325.txt\"\u003eTable of n, a(n) for n = 0..950\u003c/a\u003e",
				"\u003ca href=\"/index/Rec#order_06\"\u003eIndex entries for linear recurrences with constant coefficients\u003c/a\u003e, signature (8,40,-60,-40,8,1)."
			],
			"formula": [
				"a(n) = (A000032(n))^5 = A000032(n)*A099923(n).",
				"a(n) = L(5*n) + 5*(-1)^n*L(3*n) + 10*L(n), L(n) = A000032, the Lucas numbers.",
				"G.f.: (32-255*x-1045*x^2+960*x^3+235*x^4-x^5)/((1-x-x^2)*(1+4*x-x^2)* (1-11*x-x^2)). [T. Mansour, Australas. J. Comb. 30 (2004), 207] - _R. J. Mathar_, Oct 26 2008"
			],
			"mathematica": [
				"Table[LucasL[n]^5, {n,0,30}] (* or *) CoefficientList[Series[(32 - 255 x - 1045 x^2 + 960 x^3 + 235 x^4 - x^5)/((1-x-x^2)*(1+4*x-x^2)*(1-11*x- x^2)), {x, 0, 50}], x] (* _G. C. Greubel_, Dec 21 2017 *)"
			],
			"program": [
				"(MAGMA) [ Lucas(n)^5 : n in [0..120]]; // _Vincenzo Librandi_, Apr 14 2011",
				"(PARI) a(n)=(fibonacci(n-1)+fibonacci(n+1))^5 \\\\ _Charles R Greathouse IV_, Jun 11 2015",
				"(PARI) x='x+O('x^30); Vec((32-255*x-1045*x^2+960*x^3+235*x^4-x^5)/((1-x-x^2)*(1+4*x-x^2)* (1-11*x-x^2))) \\\\ _G. C. Greubel_, Dec 21 2017"
			],
			"xref": [
				"Fifth row of array A103325."
			],
			"keyword": "nonn,easy",
			"offset": "0,1",
			"author": "_Ralf Stephan_, Feb 03 2005",
			"references": 5,
			"revision": 20,
			"time": "2017-12-21T16:03:31-05:00",
			"created": "2005-02-20T03:00:00-05:00"
		}
	]
}