{
	"greeting": "Greetings from The On-Line Encyclopedia of Integer Sequences! http://oeis.org/",
	"query": "id:A103140",
	"count": 1,
	"start": 0,
	"results": [
		{
			"number": 103140,
			"data": "1,1,1,2,5,14,40,119,364,1145,3688,12139,40734,139071,482214",
			"name": "Number of 3-noncrossing restricted RNA structures with n vertices.",
			"link": [
				"Andrei Asinowski, Axel Bacher, Cyril Banderier, Bernhard Gittenberger, \u003ca href=\"https://lipn.univ-paris13.fr/~banderier/Papers/patterns2019.pdf\"\u003eAnalytic combinatorics of lattice paths with forbidden patterns, the vectorial kernel method, and generating functions for pushdown automata\u003c/a\u003e, Laboratoire d'Informatique de Paris Nord (LIPN 2019).",
				"Emma Y. Jin, Jing Qin and Christian M. Reidys, \u003ca href=\"https://arxiv.org/abs/0704.2518\"\u003eCombinatorics of RNA structures with pseudoknots\u003c/a\u003e, arXiv:0704.2518 [math.CO], 2007.",
				"Emma Y. Jin, Jing Qin and Christian M. Reidys, \u003ca href=\"https://doi.org/10.1007/s11538-007-9240-y\"\u003eCombinatorics of RNA structures with pseudoknots\u003c/a\u003e, Bulletin of Mathematical Biology Vol. 70 (2008) pp. 45-67. See Table 2 on page 62 for details."
			],
			"example": [
				"If n=10 then the number of 3-noncrossing restricted RNA structures is 1145."
			],
			"xref": [
				"Cf. A133365."
			],
			"keyword": "nonn,more",
			"offset": "1,4",
			"author": "_Parthasarathy Nambi_, Sep 07 2008",
			"references": 0,
			"revision": 9,
			"time": "2020-02-24T04:28:04-05:00",
			"created": "2005-04-09T03:00:00-04:00"
		}
	]
}