{
	"greeting": "Greetings from The On-Line Encyclopedia of Integer Sequences! http://oeis.org/",
	"query": "id:A103096",
	"count": 1,
	"start": 0,
	"results": [
		{
			"number": 103096,
			"data": "0,1,2,3,4,15,27,71,86,105,242,250,448,539,784,814,1025,1172,1353,3009,3175,3682,6993,7612,7780,9633,27109,27735,28767,61574",
			"name": "Numbers n such that 9*10^n + 3*R_n + 4 is prime, where R_n = 11...1 is the repunit (A002275) of length n.",
			"comment": [
				"Also numbers n such that (28*10^n+11)/3 is prime.",
				"a(31) \u003e 10^5. - _Robert Price_, Nov 07 2015"
			],
			"link": [
				"Makoto Kamada, \u003ca href=\"https://stdkmd.net/nrr/9/93337.htm#prime\"\u003ePrime numbers of the form 933...337\u003c/a\u003e.",
				"\u003ca href=\"/index/Pri#Pri_rep\"\u003eIndex entries for primes involving repunits\u003c/a\u003e."
			],
			"formula": [
				"a(n) = A101005(n-1) + 1, for n\u003e1."
			],
			"example": [
				"For n=0, (28*10^n+11)/3 = 13, which is prime."
			],
			"mathematica": [
				"Do[ If[ PrimeQ[(28*10^n + 11)/3], Print[n]], {n, 0, 10000}]"
			],
			"xref": [
				"Cf. A002275, A101005."
			],
			"keyword": "more,nonn",
			"offset": "1,3",
			"author": "_Robert G. Wilson v_, Jan 19 2005",
			"ext": [
				"a(26)-a(28) from Kamada data by _Robert Price_, Dec 14 2010",
				"Inserted a(1)=0 and added a(30) by _Robert Price_, Nov 07 2015"
			],
			"references": 1,
			"revision": 19,
			"time": "2019-01-17T13:44:07-05:00",
			"created": "2005-02-20T03:00:00-05:00"
		}
	]
}