{
	"greeting": "Greetings from The On-Line Encyclopedia of Integer Sequences! http://oeis.org/",
	"query": "id:A103850",
	"count": 1,
	"start": 0,
	"results": [
		{
			"number": 103850,
			"data": "2,3,5,7,11,89",
			"name": "Primes with digits not in all previous terms.",
			"comment": [
				"Finite sequence: there is no other term if a) sequence is increasing and b) each next term is minimal possible. If any condition is changed, sequence contains other terms but stay finite. E.g. 2,3,5,67,89,401 (6 terms, all 10 digits used!), or 2-term sequences 2,103456789 and 4,102356789 etc. What is the pair of two primes p1, p2 containing all 10 digits with the minimum sum p1+p2? Is the 23567 + 18049=41616 OK?"
			],
			"keyword": "fini,nonn,base",
			"offset": "1,1",
			"author": "_Zak Seidov_, Feb 18 2005",
			"references": 0,
			"revision": 3,
			"time": "2012-03-30T17:26:11-04:00",
			"created": "2005-02-20T03:00:00-05:00"
		}
	]
}