{
	"greeting": "Greetings from The On-Line Encyclopedia of Integer Sequences! http://oeis.org/",
	"query": "id:A103228",
	"count": 1,
	"start": 0,
	"results": [
		{
			"number": 103228,
			"data": "1,2,4,-4,4,8,8,-8,13,-16,12,-16,6,16,16,16,6,26,20,-56,32,24,24,-32,-36,-42,40,-32,8,-64,32,32,48,-54,32,-52,8,40,24,24,10,64,44,-48,52,48,48,64,57,-165,24,-114,10,80,48,-64,80,-92,60,-224,12,64,104,-64,-120,96,68,-134,96,-128,72,-104,12,-116,-144,-80,96",
			"name": "Real part of the sum of divisors function sigma(n) generalized for Gaussian integers.",
			"comment": [
				"See A103229 for the imaginary part and A103230 for the norm.",
				"See A102506 for a complete description. Note that sigma(n) is real iff n is in A004614."
			],
			"link": [
				"Amiram Eldar, \u003ca href=\"/A103228/b103228.txt\"\u003eTable of n, a(n) for n = 1..10000\u003c/a\u003e"
			],
			"mathematica": [
				"Re[Table[DivisorSigma[1, n, GaussianIntegers -\u003e True], {n, 100}]]"
			],
			"xref": [
				"Cf. A004614, A102506, A103229, A103230."
			],
			"keyword": "sign",
			"offset": "1,2",
			"author": "_T. D. Noe_, Jan 26 2005",
			"references": 18,
			"revision": 9,
			"time": "2020-02-10T06:14:05-05:00",
			"created": "2005-02-20T03:00:00-05:00"
		}
	]
}