{
	"greeting": "Greetings from The On-Line Encyclopedia of Integer Sequences! http://oeis.org/",
	"query": "id:A103961",
	"count": 1,
	"start": 0,
	"results": [
		{
			"number": 103961,
			"data": "2,1,1,1,2,1,1,2,1,1,2,1,4,3,1,1,2,2,1,2,1,1,3,1,3,2,1,3,3,1,1,2,2,1,2,1,1,2,3,1,2,1,3,3,1,4,3,2,1,2,1,1,2,1,1,2,1,3,3,2,4,5,2,1,3,1,3,2,1,1,2,3,7,3,1,1,2,2,1,3,4,1,2,1,3,5,1,7,8,1,1,2,3,3,2,1,1,3,1,1,5,5,3,5,2",
			"name": "Least k such that 2*n*k - 1 is a prime.",
			"comment": [
				"Question: Is the sequence unbounded (like A016014)? - _Dmitry Kamenetsky_, Oct 26 2016",
				"Answer: Yes. Essentially the same argument works. To get n such that a(n) \u003e K, take distinct odd primes p_k, k=1..K with p_k not dividing k, and take n such that n == (2*k)^(-1) mod p_k and 2*k*n-1 \u003e p_k for k=1..K. - _Robert Israel_, Oct 27 2016"
			],
			"link": [
				"Dmitry Kamenetsky, \u003ca href=\"/A103961/b103961.txt\"\u003eTable of n, a(n) for n = 1..10000\u003c/a\u003e"
			],
			"example": [
				"2*1*2-1 = 3, so a(1) = 2;",
				"2*5*2-1 = 19, so a(5) = 2."
			],
			"mathematica": [
				"Do[k = 1; cp = n*k - 1; While[ ! PrimeQ[cp], k++; cp = n*k - 1]; Print[k], {n, 2, 400, 2}]",
				"lkp[n_]:=Module[{k=1},While[!PrimeQ[2n*k-1],k++];k]; Array[lkp,120] (* _Harvey P. Dale_, Nov 13 2020 *)"
			],
			"program": [
				"(PARI) a(n) = {my(k=1); while (!isprime(2*n*k-1), k++); k;} \\\\ _Michel Marcus_, Oct 27 2016"
			],
			"xref": [
				"Cf. A016014."
			],
			"keyword": "easy,nonn",
			"offset": "1,1",
			"author": "_Lei Zhou_, Feb 23 2005",
			"references": 2,
			"revision": 18,
			"time": "2020-11-13T19:08:18-05:00",
			"created": "2005-04-09T03:00:00-04:00"
		}
	]
}