{
	"greeting": "Greetings from The On-Line Encyclopedia of Integer Sequences! http://oeis.org/",
	"query": "id:A103500",
	"count": 1,
	"start": 0,
	"results": [
		{
			"number": 103500,
			"data": "8,194,1610,8407,32002,98191,254286,596715,1267128,2506286,4646666,8239907,13945450,22784572,35977540,55368882,82940928,121737174,174853556,247158893,343382312,470183200,634503574,847118119,1117272006",
			"name": "(1/4)*number of non-degenerate isosceles triangles that can be formed from the points of an (n+1)X(n+1)X(n+1) lattice cube.",
			"xref": [
				"Cf. all triangles in lattice cube A103426; special triangles in lattice cube: A103427, A103428, A103429, A103499, A103501; A103158 tetrahedra in lattice cube."
			],
			"keyword": "nonn",
			"offset": "1,1",
			"author": "_Hugo Pfoertner_, Feb 08 2005",
			"references": 7,
			"revision": 2,
			"time": "2012-03-31T10:29:09-04:00",
			"created": "2005-02-20T03:00:00-05:00"
		}
	]
}