{
	"greeting": "Greetings from The On-Line Encyclopedia of Integer Sequences! http://oeis.org/",
	"query": "id:A103366",
	"count": 1,
	"start": 0,
	"results": [
		{
			"number": 103366,
			"data": "1,-3,12,-70,585,-6741,103068,-2023092,49615695,-1487006785,53477384268,-2272859942574,112699083156751,-6447858833644515,421601806346674320,-31242589674606301224,2604618355967848204587,-242686626407684239621113,25124942798118355122058980",
			"name": "Second column of triangle A103364, which equals the matrix inverse of the Narayana triangle (A001263).",
			"program": [
				"(PARI) a(n)=if(n\u003c2,0,(matrix(n,n,m,j,binomial(m-1,j-1)*binomial(m,j-1)/j)^-1)[n,2])"
			],
			"xref": [
				"Cf. A001263, A103364, A103366, A103367."
			],
			"keyword": "sign",
			"offset": "2,2",
			"author": "_Paul D. Hanna_, Feb 02 2005",
			"references": 4,
			"revision": 4,
			"time": "2012-03-30T18:36:45-04:00",
			"created": "2005-02-20T03:00:00-05:00"
		}
	]
}