{
	"greeting": "Greetings from The On-Line Encyclopedia of Integer Sequences! http://oeis.org/",
	"query": "id:A103690",
	"count": 1,
	"start": 0,
	"results": [
		{
			"number": 103690,
			"data": "1,2,4,9,12,27,64,72,108,256,625,640,810,1280,3125,7776,7500,8640,11520,18750,46656,117649,108864,118125,143360,196875,326592,823543,2097152,1882384,1959552,2240000,2800000,3919104,6588344,16777216,43046721",
			"name": "Triangle read by rows: T(n,k)=binomial(n,k-1)*k^(k-1)*(n+1-k)^(n-k) (1\u003c=k\u003c=n).",
			"reference": [
				"I. P. Goulden and D. M. Jackson, Combinatorial Enumeration, Wiley, N.Y., 1983,(p.27, Problem 1.2.6 (b))."
			],
			"formula": [
				"T(n, k)=binomial(n, k-1)*k^(k-1)*(n+1-k)^(n-k) (1\u003c=k\u003c=n)."
			],
			"maple": [
				"T:=proc(n,k) if k\u003c=n then binomial(n,k-1)*k^(k-1)*(n+1-k)^(n-k) else 0 fi end: for n from 1 to 9 do seq(T(n,k),k=1..n) od; # yields sequence in triangular form"
			],
			"xref": [
				"Row sums yield A053506. T(n, 1)=A000169(n). T(n, n)=A000312(n)."
			],
			"keyword": "nonn,tabl",
			"offset": "1,2",
			"author": "_Emeric Deutsch_, Mar 27 2005",
			"references": 0,
			"revision": 4,
			"time": "2012-03-30T17:36:01-04:00",
			"created": "2005-04-09T03:00:00-04:00"
		}
	]
}