{
	"greeting": "Greetings from The On-Line Encyclopedia of Integer Sequences! http://oeis.org/",
	"query": "id:A103980",
	"count": 1,
	"start": 0,
	"results": [
		{
			"number": 103980,
			"data": "1,1,3,45,35,4725,31185,945945,289575,310134825,3273645375,50414138775,5749711695,102776096548125,1494206326738125,92854250304440625,191898783962510625,107655217802968460625",
			"name": "Reduced denominators of x^(2n) in the series expansion of erf(x)^2 Pi/4 about 0.",
			"link": [
				"Eric Weisstein's World of Mathematics, \u003ca href=\"http://mathworld.wolfram.com/Erf.html\"\u003eErf\u003c/a\u003e"
			],
			"example": [
				"x^2 - (2*x^4)/3 + (14*x^6)/45 - (4*x^8)/35 + (166*x^10)/4725 + ..."
			],
			"xref": [
				"Cf. A103979."
			],
			"keyword": "nonn,frac",
			"offset": "0,3",
			"author": "_Eric W. Weisstein_, Feb 23 2005",
			"references": 1,
			"revision": 8,
			"time": "2019-11-02T13:26:07-04:00",
			"created": "2005-04-09T03:00:00-04:00"
		}
	]
}