{
	"greeting": "Greetings from The On-Line Encyclopedia of Integer Sequences! http://oeis.org/",
	"query": "id:A103354",
	"count": 1,
	"start": 0,
	"results": [
		{
			"number": 103354,
			"data": "1,1,2,2,3,4,4,5,6,7,8,8,9,10,11,12,13,14,15,16,16,17,18,19,20,21,22,23,24,25,26,27,28,29,30,31,32,32,33,34,35,36,37,38,39,40,41,42,43,44,45,46,47,48,49,50,51,52,53,54,55,56,57,58,59,60,61,62,63,64,64,65,66,67",
			"name": "a(n) = floor(x), where x is the solution to x = 2^(n-x).",
			"comment": [
				"Partial sums seem to be A006697(n-1) = A094913(n-1) + 1. - _M. F. Hasler_, Dec 14 2007 [Confirmed by Allouche and Shallit, 2016. - _N. J. A. Sloane_, Mar 24 2017]"
			],
			"link": [
				"Robert Israel, \u003ca href=\"/A103354/b103354.txt\"\u003eTable of n, a(n) for n = 1..10000\u003c/a\u003e",
				"J.-P. Allouche, J. Shallit, \u003ca href=\"http://arxiv.org/abs/1605.02361\"\u003eOn the subword complexity of the fixed point of a -\u003e aab, b -\u003e b, and generalizations\u003c/a\u003e, arXiv preprint arXiv:1605.02361 [math.CO], 2016."
			],
			"formula": [
				"a(n) is approximately n/(1+log_2(n)/n).",
				"a(n) = floor(LambertW(log(2)*2^n)/log(2)) = floor(n - log_2(n) + log_2(n)/(n log(2)) + O((log(n)/n)^2)) = floor(n - log_2(n) + 1.5*log_2(n)/n) at least for all n \u003c 10^7. - _M. F. Hasler_, Dec 14 2007"
			],
			"maple": [
				"A[1]:= 1;",
				"for n from 2 to 100 do",
				"  for x from A[n-1]  while x \u003c= 2^(n-x) do od;",
				"  A[n]:= x-1;",
				"od:",
				"seq(A[i],i=1..100); # _Robert Israel_, Dec 04 2016"
			],
			"mathematica": [
				"a[n_] := Floor[ FullSimplify[ ProductLog[ 2^n*Log[2]]/Log[2]]]; Table[a[n], {n, 1, 74}] (* _Jean-François Alcover_, Dec 13 2011, after _M. F. Hasler_ *)"
			],
			"program": [
				"(PARI) A103354(n)=floor(solve(X=1,log(n)*2,X-2^(n-X))+1e-9) \\\\ _M. F. Hasler_, Dec 14 2007",
				"(PARI) A103354(n)=floor(n-log(n)/log(2)*(1-1.5/n)) \\\\ _M. F. Hasler_, Dec 14 2007"
			],
			"xref": [
				"Cf. A006697 (partial sums), A094913."
			],
			"keyword": "nonn",
			"offset": "1,3",
			"author": "_N. J. A. Sloane_, Mar 21 2005",
			"ext": [
				"Edited by _M. F. Hasler_, Dec 14 2007"
			],
			"references": 9,
			"revision": 19,
			"time": "2017-08-20T17:19:47-04:00",
			"created": "2005-04-09T03:00:00-04:00"
		}
	]
}