{
	"greeting": "Greetings from The On-Line Encyclopedia of Integer Sequences! http://oeis.org/",
	"query": "id:A104322",
	"count": 1,
	"start": 0,
	"results": [
		{
			"number": 104322,
			"data": "1968317576156251382412167,43307474251528417328140960004019679,50002114913000482680947416324657463,4549929345118016447388754436186443986977,192100033191102976190109375189119224188132517,217081801216000000214921799213847192212776173",
			"name": "Primes which are the reverse concatenation of five consecutive cubes.",
			"example": [
				"The first term is 1968317576156251382412167 which is a prime and is the reverse concatenation of 12167,13824,15625,17576 and 19683 which are five consecutive cubes."
			],
			"mathematica": [
				"rcat[n_]:=FromDigits[Flatten[IntegerDigits/@Reverse[n]]]; Select[ rcat/@ Partition[Range[1000]^3,5,1],PrimeQ] (* _Harvey P. Dale_, Aug 24 2014 *)"
			],
			"keyword": "base,nonn",
			"offset": "1,1",
			"author": "_Shyam Sunder Gupta_, Apr 17 2005",
			"ext": [
				"More terms from _Harvey P. Dale_, Aug 24 2014"
			],
			"references": 0,
			"revision": 8,
			"time": "2014-08-24T09:09:26-04:00",
			"created": "2005-07-19T03:00:00-04:00"
		}
	]
}