{
	"greeting": "Greetings from The On-Line Encyclopedia of Integer Sequences! http://oeis.org/",
	"query": "id:A104590",
	"count": 1,
	"start": 0,
	"results": [
		{
			"number": 104590,
			"data": "560,191520,42058800,7864256400,1407126890400,257752421166240,50607986220311520,10995419195575214400,2692773804667509763200,747221542837742897724800,233698171655650029030743040,81472765051132560093387934080,31268587126068905034073041062400",
			"name": "Number of labeled non-planar non-projective-planar toroidal 2-connected K_{3,3}-subdivision-free graphs with n vertices.",
			"comment": [
				"By empirical evidence, the terms possess a curious prime factor behavior. E.g. 2^7*3^2*5*7*13*17*19 divides a(19)=81472765051132560093387934080."
			],
			"link": [
				"A. Gagarin, G. Labelle and P. Leroux, \u003ca href=\"https://arxiv.org/abs/math/0411356\"\u003eCharacterization and enumeration of toroidal K_{3,3}-subdivision-free graphs\u003c/a\u003e, arXiv:math/0411356 [math.CO], 2004."
			],
			"xref": [
				"Cf. A104591."
			],
			"keyword": "nonn",
			"offset": "8,1",
			"author": "_Valery A. Liskovets_, Mar 22 2005",
			"references": 1,
			"revision": 8,
			"time": "2017-07-28T13:26:40-04:00",
			"created": "2005-04-09T03:00:00-04:00"
		}
	]
}