{
	"greeting": "Greetings from The On-Line Encyclopedia of Integer Sequences! http://oeis.org/",
	"query": "id:A104571",
	"count": 1,
	"start": 0,
	"results": [
		{
			"number": 104571,
			"data": "1,4,1,5,4,1,8,5,4,1,9,8,5,4,1,12,9,8,5,4,1,13,12,9,8,5,4,1,16,13,12,9,8,5,4,1",
			"name": "Triangle T(n,k) = A042948(n-k+1) read by rows, 0\u003c=k\u003c=n.",
			"formula": [
				"The triangle is extracted from the product of lower triangular matrices (with the rest of the terms all zeros): G * R (or R * G); G = [1; 3, 1; 1, 3, 1; 3, 1, 3, 1;...]; R = [1; 1, 1; 1, 1, 1;...]."
			],
			"example": [
				"The first few rows are:",
				"1;",
				"4, 1;",
				"5, 4, 1;",
				"8, 5, 4, 1;",
				"9, 8, 5, 4, 1;",
				"..."
			],
			"xref": [
				"Cf. A042948, A035608 (row sums), A104570, A104569, A074377."
			],
			"keyword": "nonn,tabl,easy",
			"offset": "0,2",
			"author": "_Gary W. Adamson_, Mar 16 2005",
			"references": 0,
			"revision": 5,
			"time": "2012-03-30T17:25:11-04:00",
			"created": "2005-04-09T03:00:00-04:00"
		}
	]
}