{
	"greeting": "Greetings from The On-Line Encyclopedia of Integer Sequences! http://oeis.org/",
	"query": "id:A104637",
	"count": 1,
	"start": 0,
	"results": [
		{
			"number": 104637,
			"data": "1,0,0,0,0,0,0,0,1,1,0,0,1,1,1,0,0,1,1,0,0,0,1,1,0,1,1,1,1,0,1,0,0,0,1,0,0,1,1,0,0,1,0,0,0,0,1,2,2,2,1,1,2,1,1,2,2,1,1,2,2,1,1,0,0,0,0,0,1,1,0,0,1,0,0,1,1,0,2,2,1,2,1,1,1,2,2,1,2,2,2,1,2,1,1,1,1,1,1,1",
			"name": "Number of even digits in n-th prime.",
			"formula": [
				"a(n) = A196563(A000040(n)). - _Michel Marcus_, Oct 05 2013"
			],
			"xref": [
				"Number of odd digits in n-th prime gives A104638."
			],
			"keyword": "easy,nonn,base",
			"offset": "1,48",
			"author": "_Zak Seidov_, Mar 18 2005",
			"references": 1,
			"revision": 5,
			"time": "2013-10-05T11:54:47-04:00",
			"created": "2005-04-09T03:00:00-04:00"
		}
	]
}