{
	"greeting": "Greetings from The On-Line Encyclopedia of Integer Sequences! http://oeis.org/",
	"query": "id:A104643",
	"count": 1,
	"start": 0,
	"results": [
		{
			"number": 104643,
			"data": "1,25,600,13800,303600,6375600,127512000,2422728000,43609104000,741354768000,11861676288000,177925144320000,2490952020480000,32382376266240000,388588515194880000,4274473667143680000,42744736671436800000,384702630042931200000,3077621040343449600000",
			"name": "Number of arrangements that can be formed by taking n distinct things out of 25.",
			"link": [
				"G. C. Greubel, \u003ca href=\"/A104643/b104643.txt\"\u003eTable of n, a(n) for n = 0..25\u003c/a\u003e"
			],
			"formula": [
				"a(n) = 25! / (25 - n)!."
			],
			"example": [
				"a(3) = 25! / (25 - 3)! = 13800."
			],
			"mathematica": [
				"Table[n!*Binomial[25, n], {n, 0, 25}] (* _G. C. Greubel_, Sep 01 2018 *)"
			],
			"program": [
				"(PARI) a(n) = 25! / (25 - n)! ; \\\\ _Michel Marcus_, Aug 12 2013",
				"(MAGMA) [Factorial(n)*Binomial(25,n): n in [0..25]] // _G. C. Greubel_, Sep 01 2018"
			],
			"keyword": "nonn,fini",
			"offset": "0,2",
			"author": "Prashant Garg (prashant.garg1988(AT)yahoo.com), Feb 04 2008",
			"references": 1,
			"revision": 10,
			"time": "2018-09-01T17:42:52-04:00",
			"created": "2005-04-09T03:00:00-04:00"
		}
	]
}