{
	"greeting": "Greetings from The On-Line Encyclopedia of Integer Sequences! http://oeis.org/",
	"query": "id:A104379",
	"count": 1,
	"start": 0,
	"results": [
		{
			"number": 104379,
			"data": "0,1,2,3,1,11,21,31,2,12,22,26,3,13,99,33,1,101,201,301,11,111,211,311,21,121,221,31,2,102,202,12,112,212,22,122,26,264,3,103,307,13,113,99,836,33,1,1001,2001,3001,101,1101,2101,3101,201,1201,2201,301,1301,11,1011",
			"name": "a(n) = square root of digital reversal of A102859(n)^2.",
			"comment": [
				"The sequence is inverse to A102859."
			],
			"link": [
				"\u003ca href=\"/wiki/Index_to_OEIS:_Section_Sq#sqrev\"\u003eIndex entry for sequences related to reversing digits of squares\u003c/a\u003e"
			],
			"mathematica": [
				"r[n_] := FromDigits@ Reverse@ IntegerDigits@ n; Sqrt@ r[#^2] \u0026 /@ Select[Range[0, 1101], IntegerQ@ Sqrt@ r[#^2] \u0026] (* _Michael De Vlieger_, Sep 21 2015 *)"
			],
			"xref": [
				"Cf. A102859."
			],
			"keyword": "nonn,base",
			"offset": "1,3",
			"author": "_Zak Seidov_, Mar 03 2005",
			"ext": [
				"0 inserted, and name replaced with formula, by _Jon E. Schoenfield_, Sep 20 2015"
			],
			"references": 0,
			"revision": 13,
			"time": "2015-09-21T16:28:19-04:00",
			"created": "2005-04-09T03:00:00-04:00"
		}
	]
}