{
	"greeting": "Greetings from The On-Line Encyclopedia of Integer Sequences! http://oeis.org/",
	"query": "id:A104020",
	"count": 1,
	"start": 0,
	"results": [
		{
			"number": 104020,
			"data": "4,9,16,18,25,32,36,48,49,50,64,72,75,81,98,100,108,121,128,144,147,162,169,180,192,196,200,225,242,243,245,256,288,289,294,300,320,324,338,361,363,384,392,400,405,432,441,448,450,484,486,500,507,512,529,567",
			"name": "Numbers that can be represented as k^2*j, 0 \u003c j \u003c= k.",
			"mathematica": [
				"Take[ Union[ Flatten[ Table[ k^2*j, {k, 25}, {j, k - 1}]]], 56]"
			],
			"xref": [
				"Cf. A104021, A102354, A104022, A104024, A104026."
			],
			"keyword": "nonn",
			"offset": "1,1",
			"author": "_Leroy Quet_ and _Robert G. Wilson v_, Feb 24 2005",
			"references": 5,
			"revision": 12,
			"time": "2021-02-13T01:11:52-05:00",
			"created": "2005-04-09T03:00:00-04:00"
		}
	]
}