{
	"greeting": "Greetings from The On-Line Encyclopedia of Integer Sequences! http://oeis.org/",
	"query": "id:A104237",
	"count": 1,
	"start": 0,
	"results": [
		{
			"number": 104237,
			"data": "1,-2,5,-11,26,-53,104,-198,375,-700,1299,-2401,4432,-8167,15038,-27676,50925,-93686,172337,-316999,583078,-1072473,1972612,-3628226,6673379,-12274288,22575967,-41523709,76374044,-140473803,258371642",
			"name": "Expansion of (1 + x^2 - x^3 + 4*x^4 - 3*x^5 + 2*x^6)/((x^5 - x^4 + 2*x^3 + x + 1)*(x - 1)*(x + 1)^2).",
			"comment": [
				"A floretion-generated sequence involving tribonacci numbers. Formula for the g.f. provided by Alec Mihailovs. See sequence A104187 for the sequence generated without using a cyclic transformation (i-\u003ej, j-\u003ek, k-\u003ei), i.e. 1lesforrokseq (refer to FAMP Code)."
			],
			"link": [
				"Colin Barker, \u003ca href=\"/A104237/b104237.txt\"\u003eTable of n, a(n) for n = 0..1000\u003c/a\u003e",
				"\u003ca href=\"/index/Rec#order_08\"\u003eIndex entries for linear recurrences with constant coefficients\u003c/a\u003e, signature (-2,0,0,0,2,0,0,1)."
			],
			"formula": [
				"G.f.: (1 + x^2 - x^3 + 4*x^4 - 3*x^5 + 2*x^6)/((x^5 - x^4 + 2*x^3 + x + 1)*(x - 1)*(x + 1)^2).",
				"a(n) = -2*a(n-1) + 2*a(n-5) + a(n-8) for n\u003e7. - _Colin Barker_, May 21 2019"
			],
			"mathematica": [
				"LinearRecurrence[{-2,0,0,0,2,0,0,1},{1,-2,5,-11,26,-53,104,-198},40] (* _Harvey P. Dale_, May 07 2016 *)"
			],
			"program": [
				"Floretion Algebra Multiplication Program, FAMP Code: 1lesforcycrokseq[A*B} with A = - .5'ii' + .5'jj' + .5'kk' + .5e and B = + 'kj'. 1vesforcycrokseq[A*B] = A000004. ForType: 1A.",
				"(PARI) Vec((1 - x + x^2)*(1 + x + x^2 - x^3 + 2*x^4) / ((1 - x)*(1 + x)^2*(1 + x^2)*(1 + x - x^2 + x^3)) + O(x^40)) \\\\ _Colin Barker_, May 21 2019"
			],
			"xref": [
				"Cf. A104187."
			],
			"keyword": "sign,easy",
			"offset": "0,2",
			"author": "_Creighton Dement_, Apr 02 2005",
			"references": 1,
			"revision": 21,
			"time": "2019-05-21T10:20:38-04:00",
			"created": "2005-04-09T03:00:00-04:00"
		}
	]
}