{
	"greeting": "Greetings from The On-Line Encyclopedia of Integer Sequences! http://oeis.org/",
	"query": "id:A104604",
	"count": 1,
	"start": 0,
	"results": [
		{
			"number": 104604,
			"data": "3,22,54,106,188",
			"name": "From a mathematical riddle that I could not solve.",
			"link": [
				"Author?, \u003ca href=\"http://www.geocaching.com/seek/cache_details.aspx?guid=b15951ce-712d-41f7-9bd4-4fdfe7259fc8\"\u003eMathriddle\u003c/a\u003e"
			],
			"keyword": "nonn",
			"offset": "0,1",
			"author": "Hans-Peter Nussbaumer (hnussbaumer(AT)gmx.de), Apr 21 2005",
			"references": 0,
			"revision": 1,
			"time": "2005-07-19T03:00:00-04:00",
			"created": "2005-07-19T03:00:00-04:00"
		}
	]
}