{
	"greeting": "Greetings from The On-Line Encyclopedia of Integer Sequences! http://oeis.org/",
	"query": "id:A104542",
	"count": 1,
	"start": 0,
	"results": [
		{
			"number": 104542,
			"data": "5,7,5,5,4,2,7,1,4,4,6,1,1,7,7,4,5,2,4,3,1,1,0,6,4,0,5,4,9,2,8,6,3,8,3,3,5,6,7,4,5,6,6,1,5,1,7,9,7,9,9,5,3,9,5,2,9,2,4,7,5,8,1,9,3,5,9,5,4,5,2,1,3,8,3,6,2,3,6,4,0,7,8,1,9,0,1,6,3,1,0,0,5,4,8,5,8,9,4,7,2,3",
			"name": "Decimal expansion of lambda(5) in Li's criterion.",
			"link": [
				"E. Bombieri and J. C. Lagarias, \u003ca href=\"https://doi.org/10.1006/jnth.1999.2392\"\u003eComplements to Li's Criterion for the Riemann Hypothesis\u003c/a\u003e, J. Number Th. 77(2) (1999), 274-287.",
				"M. W. Coffey, \u003ca href=\"https://doi.org/10.1016/j.cam.2003.09.003\"\u003eRelations and positivity results for derivatives of the Riemann xi function\u003c/a\u003e, J. Comput. Appl. Math. 166(2) (2004), 525-534.",
				"Xian-Jin Li, \u003ca href=\"https://doi.org/10.1006/jnth.1997.2137\"\u003eThe positivity of a sequence of numbers and the Riemann hypothesis\u003c/a\u003e, J. Number Th. 65(2) (1997), 325-333.",
				"Eric Weisstein's World of Mathematics, \u003ca href=\"http://mathworld.wolfram.com/LisCriterion.html\"\u003eLi's Criterion\u003c/a\u003e.",
				"Eric Weisstein's World of Mathematics, \u003ca href=\"http://mathworld.wolfram.com/RiemannZetaFunctionZeros.html\"\u003eRiemann Zeta Function Zeros\u003c/a\u003e.",
				"Wikipedia, \u003ca href=\"https://en.wikipedia.org/wiki/Li%27s_criterion\"\u003eLi's criterion\u003c/a\u003e."
			],
			"formula": [
				"lambda(5) = 5*Pi^2/4 + 5*Pi^4/96 - 5*log(4)/2 - 5*log(Pi)/2 + 5*gamma/2 - 10*gamma^2 + 10*gamma^3 - 5*gamma^4+gamma^5 - 20*gamma(1) + 30*gamma*gamma(1) - 20*gamma^2*gamma(1) + 5*gamma^3*gamma(1) - 10*gamma(1)^2 + 5*gamma*gamma(1)^2 + 15*gamma(2) - 10*gamma*gamma(2) + 5/2*gamma^2*gamma(2) + 5/2*gamma(1)*gamma(2) - 10*gamma(3)/3 + 5/6*gamma*gamma(3) + 5*gamma(4)/24 - 35*zeta(3)/4 - 31*zeta(5)/32+1. - _Jean-François Alcover_, Jul 02 2014"
			],
			"example": [
				"0.575542714..."
			],
			"mathematica": [
				"lambda[n_] := Limit[D[s^(n - 1)*Log[xi[s]], {s, n}], s -\u003e 1]/(n - 1)!; RealDigits[N[lambda[5], 110]][[1]][[1 ;; 102]] (* _Jean-François Alcover_, Oct 31 2012, after _Eric W. Weisstein_, updated May 18 2016 *)",
				"RealDigits[With[{e = EulerGamma, g = StieltjesGamma}, 1 + 5 e/2 - 10 e^2 + 10 e^3 - 5 e^4 + e^5 + 5 Pi^2/4 + (5 Pi^4)/96 - 20 g[1] + 30 e g[1] - 20 e^2 g[1] + 5 e^3 g[1] - 10 g[1]^2 + 5 e g[1]^2 + 15 g[2] - 10 e g[2] + 5/2 e^2 g[2] + 5/2 g[1] g[2] - 10 g[3]/3 + 5/6 e g[3] + 5 g[4]/24 - Log[32] - 5 Log[Pi]/2 - 35 Zeta[3]/4 - 31 Zeta[5]/32], 10, 110][[1]] (* _Eric W. Weisstein_, Feb 08 2019 *)"
			],
			"xref": [
				"Cf. A074760 (lambda_1), A104539 (lambda_2), A104540 (lambda_3), A104541 (lambda_4).",
				"Cf. A306339 (lambda_6), A306340 (lambda_7), A306341 (lambda_8)."
			],
			"keyword": "nonn,cons",
			"offset": "0,1",
			"author": "_Eric W. Weisstein_, Mar 13 2005",
			"references": 15,
			"revision": 31,
			"time": "2019-11-18T01:35:28-05:00",
			"created": "2005-04-09T03:00:00-04:00"
		}
	]
}