{
	"greeting": "Greetings from The On-Line Encyclopedia of Integer Sequences! http://oeis.org/",
	"query": "id:A104159",
	"count": 1,
	"start": 0,
	"results": [
		{
			"number": 104159,
			"data": "4,20,1,16,6,17,8,12,9,14,5,19,2,15,3,18,7,11,10,13,4,20,1,16,6,17,8,12,9,14,5,19,2,15,3,18,7,11,10,13,4,20,1,16,6,17,8,12,9,14,5,19,2,15,3,18,7,11,10,13,4,20,1,16,6,17",
			"name": "Numbers on a Manchester or Log-End dartboard, as read in a standard, clockwise direction.",
			"comment": [
				"Sequence is periodic with period 20. - _Michel Marcus_, Jul 26 2013"
			],
			"link": [
				"K. S. Brown, \u003ca href=\"http://www.mathpages.com/home/kmath025.htm\"\u003eThe Dartboard Sequence\u003c/a\u003e",
				"Sven Silow, \u003ca href=\"http://www.thedartmart.com/dart_faq/Sect1/14.htm\"\u003eWhy this particular numbering scheme?\u003c/a\u003e",
				"\u003ca href=\"http://www.bdodarts.com/\"\u003eBritish Darts Oranization\u003c/a\u003e",
				"\u003ca href=\"/index/Rec#order_20\"\u003eIndex entries for linear recurrences with constant coefficients\u003c/a\u003e, signature (0, 0, 0, 0, 0, 0, 0, 0, 0, 0, 0, 0, 0, 0, 0, 0, 0, 0, 0, 1)."
			],
			"xref": [
				"Cf. A104158."
			],
			"keyword": "nonn",
			"offset": "0,1",
			"author": "Andrew G. West (WestA(AT)wlu.edu), Mar 09 2005",
			"references": 1,
			"revision": 7,
			"time": "2015-08-27T10:28:40-04:00",
			"created": "2005-04-09T03:00:00-04:00"
		}
	]
}