{
	"greeting": "Greetings from The On-Line Encyclopedia of Integer Sequences! http://oeis.org/",
	"query": "id:A104476",
	"count": 1,
	"start": 0,
	"results": [
		{
			"number": 104476,
			"data": "330,6336,61776,411840,2123550,9060480,33372768,109219968,324246780,886828800,2261413440,5427392256,12352970916,26829982080,55895796000,112183843200,217706770710,409800980160,750266946000,1339149240000,2335141487250,3985308138240",
			"name": "a(n) = binomial(n+7,7)*binomial(n+11,7).",
			"link": [
				"T. D. Noe, \u003ca href=\"/A104476/b104476.txt\"\u003eTable of n, a(n) for n = 0..1000\u003c/a\u003e"
			],
			"example": [
				"a(0): C(0+7,7)*C(0+11,7) = C(7,7)*C(11,7) = 1*330 = 330;",
				"a(7): C(7+7,7)*C(7+11,7) = C(14,7)*C(18,7) = 3432*31824 = 109219968."
			],
			"mathematica": [
				"f[n_] := Binomial[n + 7, 7]*Binomial[n + 11, 7]; Table[ f[n], {n, 0, 19}] (* _Robert G. Wilson v_, Apr 20 2005 *)"
			],
			"program": [
				"(PARI) vector(30, n, n--; binomial(n+7,7)*binomial(n+11,7)) \\\\ _Michel Marcus_, Jul 31 2015",
				"(MAGMA) [Binomial(n+7,7)*Binomial(n+11,7): n in [0..30]]; // _Vincenzo Librandi_, Jul 31 2015",
				"(Python)",
				"A104476_list, m = [], [3432, -1716, 660, 330, 330, 330, 330, 330, 330, 330, 330, 330, 330, 330, 330]",
				"for _ in range(10**2):",
				"    A104476_list.append(m[-1])",
				"    for i in range(14):",
				"        m[i+1] += m[i] # _Chai Wah Wu_, Dec 15 2015"
			],
			"keyword": "easy,nonn",
			"offset": "0,1",
			"author": "_Zerinvary Lajos_, Apr 18 2005",
			"ext": [
				"More terms from _Robert G. Wilson v_, Apr 20 2005"
			],
			"references": 1,
			"revision": 18,
			"time": "2015-12-18T00:40:35-05:00",
			"created": "2005-07-19T03:00:00-04:00"
		}
	]
}