{
	"greeting": "Greetings from The On-Line Encyclopedia of Integer Sequences! http://oeis.org/",
	"query": "id:A104167",
	"count": 1,
	"start": 0,
	"results": [
		{
			"number": 104167,
			"data": "1540,1720,2170,2440,5590,6040,7930,8344,8470,8920,23590,24490,25228,29080,31528,31780,33544,34390,35380,39970,40870,42490,42598,43480,44380,45955,46270,46810,46990,47908,48790,49960,51490,51625,52345,52570,53290,57070",
			"name": "Numbers which when multiplied by any repunit prime Rp give a Smith number.",
			"comment": [
				"Numbers in the sequence must have a digital root of 1.",
				"If the definition is modified, considering only repunits greater than 11, other numbers have the same property: 3304, 12070, 11080, 11620, 16030, 21340, 22330, 24130, 24220. - _Mauro Fiorentini_, Jul 16 2015"
			],
			"link": [
				"Giovanni Resta, \u003ca href=\"/A104167/b104167.txt\"\u003eTable of n, a(n) for n = 1..1000\u003c/a\u003e",
				"S. S. Gupta, \u003ca href=\"http://www.shyamsundergupta.com/smith.htm\"\u003eSmith Numbers\u003c/a\u003e.",
				"Sham Oltikar, and Keith Wayland, \u003ca href=\"http://www.jstor.org/stable/2690265\"\u003eConstruction of Smith Numbers\u003c/a\u003e, Mathematics Magazine, vol. 56(1), 1983, pp. 36-37.",
				"C. Rivera, \u003ca href=\"http://www.primepuzzles.net/puzzles/puzz_108.htm\"\u003eProblem 108: Methods for generating Smith numbers\u003c/a\u003e, PrimePuzzles.Net."
			],
			"example": [
				"1720 is a number in the sequence because 1720*Rp is always a Smith number, where Rp is a Repunit prime. Let Rp=11, so 1720*11=18920, which is a Smith number as the sum of digits of 18920 is 1+8+9+2+0 = 20 and the sum of digits of prime factors of 18920 (i.e., 2*2*2*5*11*43) is also 20 (i.e., 2+2+2+5+1+1+4+3)."
			],
			"xref": [
				"Cf. A006753, A004022."
			],
			"keyword": "base,nonn",
			"offset": "1,1",
			"author": "_Shyam Sunder Gupta_, Mar 10 2005",
			"references": 1,
			"revision": 24,
			"time": "2021-05-19T20:59:39-04:00",
			"created": "2005-04-09T03:00:00-04:00"
		}
	]
}