{
	"greeting": "Greetings from The On-Line Encyclopedia of Integer Sequences! http://oeis.org/",
	"query": "id:A105765",
	"count": 1,
	"start": 0,
	"results": [
		{
			"number": 105765,
			"data": "3,7,31,113,223,439,863,6553,641449337,18837477823,40276345611255837298559,58893004546665606516457357571,9774215601155945008361439560567878777",
			"name": "Prime Lucas 5-step numbers, A074048.",
			"link": [
				"Tony D. Noe and Jonathan Vos Post, \u003ca href=\"http://www.cs.uwaterloo.ca/journals/JIS/VOL8/Noe/noe5.html\"\u003ePrimes in Fibonacci n-step and Lucas n-step Sequences,\u003c/a\u003e J. of Integer Sequences, Vol. 8 (2005), Article 05.4.4",
				"Eric Weisstein's World of Mathematics, \u003ca href=\"http://mathworld.wolfram.com/Lucasn-StepNumber.html\"\u003eLucas n-Step Number\u003c/a\u003e"
			],
			"mathematica": [
				"a={-1, -1, -1, -1, 5}; lst={}; Do[s=Plus@@a; a=RotateLeft[a]; a[[ -1]]=s; If[PrimeQ[s], AppendTo[lst, s]], {n, 1000}]; lst"
			],
			"xref": [
				"Cf. A105764 (indices of prime Lucas 5-step numbers)."
			],
			"keyword": "nonn",
			"offset": "1,1",
			"author": "_T. D. Noe_, Apr 22 2005",
			"references": 1,
			"revision": 7,
			"time": "2012-06-14T01:27:11-04:00",
			"created": "2005-07-19T03:00:00-04:00"
		}
	]
}