{
	"greeting": "Greetings from The On-Line Encyclopedia of Integer Sequences! http://oeis.org/",
	"query": "id:A105401",
	"count": 1,
	"start": 0,
	"results": [
		{
			"number": 105401,
			"data": "1,2,3,12,30,180,395780,56,5339880,18448242120,1192281609186360,180180,393869810468558572779517216129800,2914872400440,2914872400440,180026486640,4193048661254917704240,2640766128,11832093494672880",
			"name": "a(n) = Final term of n-th row of A106394.",
			"comment": [
				"It's interesting that some terms are so much smaller than their neighbors, like row 8 (1 1 2 5 56) and row 26 (1 1 1 2 3 48 3952 76271067 17451826907684400). - _Joshua Zucker_, May 11 2006"
			],
			"xref": [
				"Cf. A106394."
			],
			"keyword": "easy,nonn",
			"offset": "1,2",
			"author": "_Leroy Quet_, May 01 2005",
			"ext": [
				"More terms from _Joshua Zucker_, May 11 2006"
			],
			"references": 0,
			"revision": 7,
			"time": "2014-04-09T10:14:37-04:00",
			"created": "2005-07-19T03:00:00-04:00"
		}
	]
}