{
	"greeting": "Greetings from The On-Line Encyclopedia of Integer Sequences! http://oeis.org/",
	"query": "id:A105569",
	"count": 1,
	"start": 0,
	"results": [
		{
			"number": 105569,
			"data": "1,1,2,0,3,3,2,2,0,1,2,0,0,-1,2,2,2,-3,2,2,4,-1,2,0,2,1,2,-1,2,-2,2,3,8,0,2,-1,4,0,2,3,4,-1,2,2,6,-4,2,3,6,4,2,-2,2,-2,2,4,4,-1,2,4,6,9,2,-1,0,-3,2,-4,6,0,2,3,12,9,2,-1,-6,-6,2,2,6,4,2,6,8,0,2,1,0,0,2,6,0,-6,2,5,8,0,2,3,4",
			"name": "Diagonal sums of A105567, as a number triangle.",
			"formula": [
				"a(n)=sum{k=0..floor(n/2), -mu(k(n-2k))}"
			],
			"keyword": "easy,sign",
			"offset": "0,3",
			"author": "_Paul Barry_, Apr 14 2005",
			"references": 1,
			"revision": 2,
			"time": "2012-03-30T18:59:06-04:00",
			"created": "2005-07-19T03:00:00-04:00"
		}
	]
}