{
	"greeting": "Greetings from The On-Line Encyclopedia of Integer Sequences! http://oeis.org/",
	"query": "id:A105471",
	"count": 1,
	"start": 0,
	"results": [
		{
			"number": 105471,
			"data": "0,1,1,2,3,5,8,13,21,34,55,89,44,33,77,10,87,97,84,81,65,46,11,57,68,25,93,18,11,29,40,69,9,78,87,65,52,17,69,86,55,41,96,37,33,70,3,73,76,49,25,74,99,73,72,45,17,62,79,41,20,61,81,42,23,65,88,53,41,94,35,29,64",
			"name": "a(n) = Fibonacci(n) mod 100.",
			"comment": [
				"a(n) = A105472(n)*10 + A003893(n);",
				"the sequence is periodic with period 300; all blocks of 60 successive terms contain 20 even and 40 odd numbers, see A003893."
			],
			"link": [
				"Vincenzo Librandi, \u003ca href=\"/A105471/b105471.txt\"\u003eTable of n, a(n) for n = 0..1000\u003c/a\u003e",
				"\u003ca href=\"/index/Rec#order_300\"\u003eIndex entries for linear recurrences with constant coefficients\u003c/a\u003e, order 300."
			],
			"formula": [
				"a(n) = (a(n-1) + a(n-2)) mod 100 for n\u003e1, a(0) = 0, a(1) = 1."
			],
			"mathematica": [
				"Mod[Fibonacci[Range[0,100]],100] (* _Harvey P. Dale_, Jun 12 2014 *)"
			],
			"program": [
				"(MAGMA) [Fibonacci(n) mod(100): n in [0..75]]; // _Vincenzo Librandi_, Jul 23 2014",
				"(Haskell)",
				"a105471 n = a105471_list !! n",
				"a105471_list = 0 : 1 :",
				"   zipWith ((flip mod 100 .) . (+)) a105471_list (tail a105471_list)",
				"-- _Reinhard Zumkeller_, Aug 06 2014",
				"(PARI) a(n)=fibonacci(n%300)%100 \\\\ _Charles R Greathouse IV_, Oct 07 2015"
			],
			"xref": [
				"Cf. A000045."
			],
			"keyword": "nonn,easy",
			"offset": "0,4",
			"author": "_Reinhard Zumkeller_, Apr 09 2005",
			"references": 5,
			"revision": 20,
			"time": "2018-01-06T14:31:47-05:00",
			"created": "2005-07-19T03:00:00-04:00"
		}
	]
}