{
	"greeting": "Greetings from The On-Line Encyclopedia of Integer Sequences! http://oeis.org/",
	"query": "id:A105008",
	"count": 1,
	"start": 0,
	"results": [
		{
			"number": 105008,
			"data": "263,277,269,863,367,547,661,211,199,409,971,719,199,997,967,877,773,383,587,653,863,223,991,101,137,401,103,881,449,449,491,677,367,163,631,821,773,347,353,383,331,821,919,193,443,433,557,727,271,823,449",
			"name": "Primes from merging of 3 successive digits in decimal expansion of exp(Pi).",
			"link": [
				"Vincenzo Librandi, \u003ca href=\"/A105008/b105008.txt\"\u003eTable of n, a(n) for n = 1..1000\u003c/a\u003e",
				"The first \u003ca href=\"http://www.worldwideschool.org/library/books/sci/math/MiscellaneousMathematicalConstants/chap28.html\"\u003e5,000 digits of exp(PI)\u003c/a\u003e as calculated by _Simon Plouffe_ at WorldWideSchool.org.",
				"Eric Weisstein, \u003ca href=\"http://mathworld.wolfram.com/ExponentialFunction.html\"\u003eExponential Functions \u003c/a\u003e"
			],
			"mathematica": [
				"Select[FromDigits/@Partition[RealDigits[Exp[Pi], 10, 500][[1]], 3, 1], #\u003e99\u0026\u0026PrimeQ[#]\u0026] (* _Vincenzo Librandi_, Apr 26 2013 *)"
			],
			"xref": [
				"Cf. A039661."
			],
			"keyword": "nonn,base",
			"offset": "1,1",
			"author": "Andrew G. West (WestA(AT)wlu.edu), Mar 31 2005",
			"ext": [
				"Changed offset from 0 to 1 by _Vincenzo Librandi_, Apr 26 2013"
			],
			"references": 1,
			"revision": 9,
			"time": "2013-04-28T01:14:35-04:00",
			"created": "2005-04-09T03:00:00-04:00"
		}
	]
}