{
	"greeting": "Greetings from The On-Line Encyclopedia of Integer Sequences! http://oeis.org/",
	"query": "id:A105924",
	"count": 1,
	"start": 0,
	"results": [
		{
			"number": 105924,
			"data": "1,0,0,0,0,0,0,0,15180,153824,2289144,26473920,230251896,1608892320",
			"name": "Hamming weight enumerator of an extremal [92, 46, 16] binary self-dual code.",
			"comment": [
				"The reference gives further terms."
			],
			"reference": [
				"K. Betsumiya, T. A. Gulliver, M. Harada and A. Munemasa, On type II codes over F_4, IEEE Trans. Inform. Theory, 47 (2001), 2242-2248."
			],
			"keyword": "nonn,more,fini",
			"offset": "0,9",
			"author": "_N. J. A. Sloane_, Apr 27 2005",
			"references": 0,
			"revision": 3,
			"time": "2012-03-30T16:50:12-04:00",
			"created": "2005-07-19T03:00:00-04:00"
		}
	]
}