{
	"greeting": "Greetings from The On-Line Encyclopedia of Integer Sequences! http://oeis.org/",
	"query": "id:A105727",
	"count": 1,
	"start": 0,
	"results": [
		{
			"number": 105727,
			"data": "4,2,7,3,6,6,4,0,6,8,3,2,3,0,4,2,2,7,8,6,8,5,7,4,3,2,1,2,8,5,5,8,3,6,8,2,1,4,3,1,4,3,3,7,7,9,0,9,3,6,1,8,2,5,1,9,6,4,1,2,9,4,4,4,6,5,7,3,7,3,3,8,0,0,5,9,5,6,7,9,6,7,7,6,7,0,3,0,6,1,4,7,8,1,7,5,9,0,7,5,7,5,9,2,8",
			"name": "Decimal expansion of sqrt(3)*Pi^2/4: area of the regular triangle with side Pi.",
			"formula": [
				"Equals sqrt(3)*Pi^2/4 = 4.273664068323042278685..."
			],
			"xref": [
				"Cf. A000796."
			],
			"keyword": "cons,nonn",
			"offset": "1,1",
			"author": "_Zak Seidov_, May 04 2005",
			"references": 0,
			"revision": 9,
			"time": "2021-04-11T04:05:17-04:00",
			"created": "2005-07-19T03:00:00-04:00"
		}
	]
}