{
	"greeting": "Greetings from The On-Line Encyclopedia of Integer Sequences! http://oeis.org/",
	"query": "id:A105877",
	"count": 1,
	"start": 0,
	"results": [
		{
			"number": 105877,
			"data": "2,11,17,19,37,53,59,73,79,97,113,131,137,139,151,157,173,179,193,197,233,239,257,277,293,311,317,331,353,359,373,397,419,431,433,439,479,491,499,557,571,577,593,599,613,617,619,653,659,673,677,719,751,757,773,797,811",
			"name": "Primes for which -5 is a primitive root.",
			"link": [
				"Vincenzo Librandi, \u003ca href=\"/A105877/b105877.txt\"\u003eTable of n, a(n) for n = 1..1000\u003c/a\u003e"
			],
			"mathematica": [
				"pr=-5; Select[Prime[Range[200]], MultiplicativeOrder[pr, # ] == #-1 \u0026]"
			],
			"keyword": "nonn",
			"offset": "1,1",
			"author": "_N. J. A. Sloane_, Apr 24 2005",
			"references": 2,
			"revision": 7,
			"time": "2014-03-30T09:36:45-04:00",
			"created": "2005-07-19T03:00:00-04:00"
		}
	]
}