{
	"greeting": "Greetings from The On-Line Encyclopedia of Integer Sequences! http://oeis.org/",
	"query": "id:A105199",
	"count": 1,
	"start": 0,
	"results": [
		{
			"number": 105199,
			"data": "1,1,0,7,1,4,8,7,1,7,7,9,4,0,9,0,5,0,3,0,1,7,0,6,5,4,6,0,1,7,8,5,3,7,0,4,0,0,7,0,0,4,7,6,4,5,4,0,1,4,3,2,6,4,6,6,7,6,5,3,9,2,0,7,4,3,3,7,1,0,3,3,8,9,7,7,3,6,2,7,9,4,0,1,3,4,1,7,1,2,8,6,8,6,1,7,0,6,4,1,4,3,4,5,4",
			"name": "Decimal expansion of arctan(2).",
			"comment": [
				"arctan(2) + A073000 = Pi/2.",
				"arctan(2) is the (minimal) central angle of a regular icosahedron, which is the platonic solid having 20 faces and 12 vertices. The (minimal) central angle is AOB, where A and B are any neighboring pair of vertices and O is the center. To evaluate AOB, it is helpful to start with 12 vertices: (0,c*t,d), (d,0,c*t), (c*t,d,0) where c=(1 or -1) and d=(1 or -1) and t is the golden ratio, (1+sqrt(5))/2. For neighboring vertices, one can select (t,1,0) and (0,t,1). - _Clark Kimberling_, Feb 10 2009",
				"Lesser interior angle (in radians) of a golden rhombus; i.e., either of the angles bisected by the longer diagonal. A137218 is the greater interior angle. - _Rick L. Shepherd_, Apr 10 2017"
			],
			"link": [
				"G. C. Greubel, \u003ca href=\"/A105199/b105199.txt\"\u003eTable of n, a(n) for n = 1..5000\u003c/a\u003e",
				"G. Boros, V. Moll, \u003ca href=\"http://www.mat.utfsm.cl/scientia/archivos/vol11/Art2.pdf\"\u003eSums of arctangents and some formulas of Ramanujan\u003c/a\u003e, Scientia Ser. A Math. Sci 11 (2005) 13-24 [\u003ca href=\"http://www.ams.org/mathscinet-getitem?mr=2196063\"\u003eMR2196063\u003c/a\u003e] eq. (2.11). [From _R. J. Mathar_, Apr 12 2010]",
				"Eric Weisstein's World of Mathematics, \u003ca href=\"http://mathworld.wolfram.com/GoldenRhombus.html\"\u003eGolden Rhombus\u003c/a\u003e"
			],
			"formula": [
				"Equals Sum_{k\u003e=1} arctan(8k/(4k^4+5)). [Boros and Moll, from _R. J. Mathar_, Apr 12 2010]",
				"Equals 2*A195693. - _Rick L. Shepherd_, Apr 10 2017"
			],
			"example": [
				"1.107148717794090503017065460..."
			],
			"mathematica": [
				"RealDigits[ArcTan[2], 10, 105][[1]] (* _Indranil Ghosh_, Apr 10 2017 *)"
			],
			"program": [
				"(PARI)",
				"default(realprecision, 120);",
				"atan(2) \\\\ _Rick L. Shepherd_, Apr 10 2017"
			],
			"xref": [
				"Cf. A195693.",
				"Cf. A137218 (larger interior angle of the golden rhombus)."
			],
			"keyword": "cons,nonn",
			"offset": "1,4",
			"author": "Bryan Jacobs (bryanjj(AT)gmail.com), Apr 12 2005",
			"ext": [
				"Offset corrected by _R. J. Mathar_, Apr 12 2010"
			],
			"references": 12,
			"revision": 34,
			"time": "2018-12-17T10:50:14-05:00",
			"created": "2005-07-19T03:00:00-04:00"
		}
	]
}