{
	"greeting": "Greetings from The On-Line Encyclopedia of Integer Sequences! http://oeis.org/",
	"query": "id:A105253",
	"count": 1,
	"start": 0,
	"results": [
		{
			"number": 105253,
			"data": "1,77,1848,24024,210210,1387386,7399392,33372768,131405274,462351890,1479526048,4365213216,12004336344,31040798712,76018282560,177375992640,396324483555,851617661895,1766318113560,3547314771000,6917263803450,13128684361650,24304341297600",
			"name": "a(n) = binomial(n+6,n)*binomial(n+10,n).",
			"link": [
				"T. D. Noe, \u003ca href=\"/A105253/b105253.txt\"\u003eTable of n, a(n) for n = 0..1000\u003c/a\u003e",
				"\u003ca href=\"/index/Rec#order_17\"\u003eIndex entries for linear recurrences with constant coefficients\u003c/a\u003e, signature (17,-136,680,-2380,6188,-12376,19448,-24310,24310,-19448,12376,-6188,2380,-680,136,-17,1)."
			],
			"formula": [
				"G.f.: -(210*x^6+1512*x^5+3150*x^4+2400*x^3+675*x^2+60*x+1)/(x-1)^17. [_Colin Barker_, Jan 21 2013]"
			],
			"example": [
				"a(0): C(0+6,0)*C(0+10,0) = C(6,0)*C(10,0) = 1*1 = 1;",
				"a(10): C(10+6,10)*C(10+10,10) = C(16,10)*(20,10) = 8008*184756 = 1479526048."
			],
			"mathematica": [
				"f[n_] := Binomial[n + 6, n]Binomial[n + 10, n]; Table[ f[n], {n, 0, 20}] (* _Robert G. Wilson v_, Apr 20 2005 *)"
			],
			"program": [
				"(MAGMA) [Binomial(n+6,n)*Binomial(n+10,n): n in [0..30]]; // _Vincenzo Librandi_, Jul 31 2015",
				"(Python)",
				"A105253_list, m = [], [8008, -22022, 23023, -11297, 2563, -209] + [1]*11",
				"for _ in range(10**2):",
				"    A105253_list.append(m[-1])",
				"    for i in range(16):",
				"        m[i+1] += m[i] # _Chai Wah Wu_, Jan 24 2016"
			],
			"keyword": "easy,nonn",
			"offset": "0,2",
			"author": "_Zerinvary Lajos_, Apr 14 2005",
			"ext": [
				"More terms from _Robert G. Wilson v_, Apr 20 2005"
			],
			"references": 1,
			"revision": 21,
			"time": "2016-01-24T22:16:15-05:00",
			"created": "2005-07-19T03:00:00-04:00"
		}
	]
}