{
	"greeting": "Greetings from The On-Line Encyclopedia of Integer Sequences! http://oeis.org/",
	"query": "id:A105723",
	"count": 1,
	"start": 0,
	"results": [
		{
			"number": 105723,
			"data": "0,4,8,28,80,244,728,2188,6560,19684,59048,177148,531440,1594324,4782968,14348908,43046720,129140164,387420488,1162261468,3486784400,10460353204,31381059608,94143178828,282429536480,847288609444,2541865828328,7625597484988",
			"name": "a(n) = 3^n - (-1)^n.",
			"link": [
				"Muniru A Asiru, \u003ca href=\"/A105723/b105723.txt\"\u003eTable of n, a(n) for n = 0..2000\u003c/a\u003e",
				"Dhroova Aiylam, Tanya Khovanova, \u003ca href=\"https://arxiv.org/abs/1711.01475\"\u003eWeighted Mediants and Fractals\u003c/a\u003e, arXiv:1711.01475 [math.NT], 2017. See p. 17.",
				"\u003ca href=\"/index/Rec#order_02\"\u003eIndex entries for linear recurrences with constant coefficients\u003c/a\u003e, signature (2,3)."
			],
			"formula": [
				"a(n) = A102345(n) - 2*(-1)^n; (a(n) + A102345(n))/2 = A000244(n);",
				"A007814(a(n)) = A085058(n-1) for n \u003e 0.",
				"E.g.f.: exp(3*x) - exp(-x). - _G. C. Greubel_, Nov 21 2018",
				"G.f.: 4*x/((1+x)*(1-3*x)). - _R. J. Mathar_, Mar 08 2021",
				"a(n) = 4*A015518(n). - _R. J. Mathar_, Mar 08 2021"
			],
			"mathematica": [
				"LinearRecurrence[{2, 3}, {0, 4}, 30] (* _Jean-François Alcover_, Nov 11 2018 *)",
				"Table[3^n - (-1)^n, {n, 0, 30}] (* _Vincenzo Librandi_, Nov 21 2018 *)"
			],
			"program": [
				"(PARI) a(n) = 3^n - (-1)^n; \\\\ _Michel Marcus_, Aug 18 2017",
				"(GAP) List([0..25],n-\u003e3^n-(-1)^n); # _Muniru A Asiru_, Nov 11 2018",
				"(MAGMA) [3^n-(-1)^n: n in [0..30]]; // _Vincenzo Librandi_, Nov 21 2018",
				"(Sage) [3^n - (-1)^n for n in range(30)] # _G. C. Greubel_, Nov 21 2018"
			],
			"xref": [
				"Cf. A000244, A102345.",
				"Cf. A007814, A085058."
			],
			"keyword": "nonn,easy",
			"offset": "0,2",
			"author": "_Reinhard Zumkeller_, Apr 18 2005",
			"ext": [
				"Corrected by _T. D. Noe_, Dec 11 2006"
			],
			"references": 9,
			"revision": 40,
			"time": "2021-03-08T13:25:28-05:00",
			"created": "2005-07-19T03:00:00-04:00"
		}
	]
}