{
	"greeting": "Greetings from The On-Line Encyclopedia of Integer Sequences! http://oeis.org/",
	"query": "id:A105429",
	"count": 1,
	"start": 0,
	"results": [
		{
			"number": 105429,
			"data": "8,77,98,1439,179848,2723643,3522548,6428805,805039212,37574751287,536098097002,927422715988",
			"name": "Numbers k such that square root of k contains the reverse of k as a string of digits to the immediate right of the decimal point (excluding leading zeros).",
			"comment": [
				"a(11) \u003e 2*10^11. If terms ending in 0 were allowed, then 3970 and 5490 would be terms, since sqrt(3970) = 63.00793... and sqrt(5490) = 74.0945... . - _Giovanni Resta_, Aug 08 2019",
				"a(13) \u003e 10^12. - _Mauro Simonato_, Sep 25 2021"
			],
			"example": [
				"a(5)=179848 because the square root of 179848 (whose reverse is 848971) = 424.08489716..."
			],
			"xref": [
				"Cf. A074841."
			],
			"keyword": "nonn,base,more",
			"offset": "1,1",
			"author": "_Gil Broussard_, Apr 08 2005",
			"ext": [
				"a(9)-a(10) from _Giovanni Resta_, Aug 08 2019",
				"a(11)-a(12) from _Mauro Simonato_, Sep 25 2021"
			],
			"references": 1,
			"revision": 23,
			"time": "2021-09-25T02:12:00-04:00",
			"created": "2005-04-09T03:00:00-04:00"
		}
	]
}