{
	"greeting": "Greetings from The On-Line Encyclopedia of Integer Sequences! http://oeis.org/",
	"query": "id:A105858",
	"count": 1,
	"start": 0,
	"results": [
		{
			"number": 105858,
			"data": "0,1,2,3,5,8,12,17,28,32,50,60,66,69,106,107,133,200,221,224,254,363,369,386,448,484,491,517,620,680,723,844,865,900,918,988,1030,1084,1221,1255,1260,1409,1446,1467,1513,1638,1737,1796,1840,1930,1975,2012,2036",
			"name": "Records in A104647.",
			"comment": [
				"a(n) = A104647(A105857(n))."
			],
			"keyword": "nonn",
			"offset": "0,3",
			"author": "_Reinhard Zumkeller_, Apr 23 2005",
			"references": 2,
			"revision": 3,
			"time": "2012-03-30T18:50:49-04:00",
			"created": "2005-07-19T03:00:00-04:00"
		}
	]
}