{
	"greeting": "Greetings from The On-Line Encyclopedia of Integer Sequences! http://oeis.org/",
	"query": "id:A105962",
	"count": 1,
	"start": 0,
	"results": [
		{
			"number": 105962,
			"data": "2,30,38,44,74,82,88,96,106,114,132,138,140,160,162,184,230,276,278,280,298,304,316,318,332,342,414,420,428,450,470,480,540,580,584,600,638,668,672,678,680,684,728,750,754,766,768,788,798,848,858,860,902,930",
			"name": "Numbers k such that prime(k^2) - k is prime.",
			"link": [
				"Jinyuan Wang, \u003ca href=\"/A105962/b105962.txt\"\u003eTable of n, a(n) for n = 1..500\u003c/a\u003e"
			],
			"mathematica": [
				"Select[Range[1000], PrimeQ[Prime[ #^2] - # ] \u0026]"
			],
			"program": [
				"(PARI) is(k) = isprime(prime(k^2)-k); \\\\ _Jinyuan Wang_, Apr 10 2020"
			],
			"xref": [
				"Cf. A064269 (prime(k) - k is prime), A130135 (prime(k^3) - k is prime)."
			],
			"keyword": "nonn",
			"offset": "1,1",
			"author": "_Tanya Khovanova_, Dec 26 2006",
			"references": 2,
			"revision": 6,
			"time": "2020-04-10T08:14:35-04:00",
			"created": "2005-07-19T03:00:00-04:00"
		}
	]
}