{
	"greeting": "Greetings from The On-Line Encyclopedia of Integer Sequences! http://oeis.org/",
	"query": "id:A105141",
	"count": 1,
	"start": 0,
	"results": [
		{
			"number": 105141,
			"data": "1,1,1,2,1,1,1,2,1,1,2,1,1,2,1,2,3,2,1,2,1,1,1,2,1,1,2,1,1,2,1,2,3,2,1,2,1,1,2,1,1,2,1,2,3,2,1,2,1,1,2,1,2,3,2,1,2,1,1,2,1,2,3,2,1,2,1,2,3,2,3,1,3,2,3,2,1,2,1,2,3,2,1,2,1,1,1,2,1,1,2,1,1,2,1,2,3,2,1,2,1,1,2,1,1",
			"name": "Triangle read by rows, based on the morphism f: 1-\u003e{1,2,1}, 2-\u003e{2,3,2}, 3-\u003e{3,1,3}. First row is 1. If current row is a,b,c,..., then the next row is a,b,c,...,f(a),f(b),f(c),...",
			"comment": [
				"3-symbol substitution tile called both ter dragon and fudge flake. This tile is the classic cyclotomic n=3.",
				"Row n contains (3^(n+1)-1)/2 symbols."
			],
			"link": [
				"F. M. Dekking, \u003ca href=\"http://dx.doi.org/10.1016/0001-8708(82)90066-4\"\u003eRecurrent sets\u003c/a\u003e, Advances in Mathematics, vol. 44, no. 1 (1982), 78-104; page 96, section 4.10."
			],
			"mathematica": [
				"s[n_] := n /. {1 -\u003e {1, 2, 1}, 2 -\u003e {2, 3, 2}, 3 -\u003e {3, 1, 3}}; t[a_] := Join[a, Flatten[s /@ a]]; Flatten[ NestList[t, {1}, 4]]"
			],
			"xref": [
				"Cf. A073058, A105202, A105203."
			],
			"keyword": "nonn,tabf",
			"offset": "0,4",
			"author": "_Roger L. Bagula_, Apr 09 2005",
			"references": 2,
			"revision": 8,
			"time": "2015-06-16T19:13:50-04:00",
			"created": "2005-07-19T03:00:00-04:00"
		}
	]
}