{
	"greeting": "Greetings from The On-Line Encyclopedia of Integer Sequences! http://oeis.org/",
	"query": "id:A105189",
	"count": 1,
	"start": 0,
	"results": [
		{
			"number": 105189,
			"data": "14,17,24,51,54,62,89,114,116,147,159,167,170,173,180,201,233,240,249,252,254,270,285,296,317,332,350,353,362,369,371,390,399,410,423,431,446,468,479,485,497,536,543,551,564,570,573,581,585,608,609,612,654,656,683",
			"name": "Numbers n such that the string k100000000001 is prime.",
			"link": [
				"Harvey P. Dale, \u003ca href=\"/A105189/b105189.txt\"\u003eTable of n, a(n) for n = 1..1000\u003c/a\u003e"
			],
			"example": [
				"k=14 is in the sequence because k100000000001 = 14100000000001 is prime.",
				"k=147 is in the sequence because k100000000001 = 147100000000001 is prime."
			],
			"mathematica": [
				"Select[Range[750],PrimeQ[#*10^12+100000000001]\u0026] (* _Harvey P. Dale_, Sep 22 2016 *)"
			],
			"program": [
				"(MAGMA) [ n: n in [1..700] | IsPrime(Seqint([1, 0, 0, 0, 0, 0, 0, 0, 0, 0, 0, 1] cat Intseq(n))) ]; // _Vincenzo Librandi_, Feb 03 2011"
			],
			"keyword": "base,nonn",
			"offset": "1,1",
			"author": "_Parthasarathy Nambi_, Apr 11 2005",
			"references": 1,
			"revision": 11,
			"time": "2018-01-20T15:03:16-05:00",
			"created": "2005-07-19T03:00:00-04:00"
		}
	]
}