{
	"greeting": "Greetings from The On-Line Encyclopedia of Integer Sequences! http://oeis.org/",
	"query": "id:A106118",
	"count": 1,
	"start": 0,
	"results": [
		{
			"number": 106118,
			"data": "2,3,5,7,13,17,19,23,29,31,37,41,43,47,53,59,61,67,71,73,79,83,89,97,103,107,109,113,127,131,137,139,149,151,157,163,167,173,179,181,191,193,197,199,211,223,227,229,233,239,241,251,257,263,269,271,277,281",
			"name": "Primes with maximal digit \u003e 1.",
			"formula": [
				"a(n) ~ n log n. - _Charles R Greathouse IV_, Jan 02 2013"
			],
			"mathematica": [
				"Select[Prime[Range[100]], Max[IntegerDigits[ # ]]\u003e1\u0026]"
			],
			"program": [
				"(PARI) is(p)=vecsort(digits(p),,12)[1]\u003e1 \u0026\u0026 isprime(p) \\\\ _Charles R Greathouse IV_, Jan 02 2013"
			],
			"keyword": "nonn,base",
			"offset": "1,1",
			"author": "_Zak Seidov_, May 07 2005",
			"references": 1,
			"revision": 11,
			"time": "2013-01-02T10:33:17-05:00",
			"created": "2005-07-19T03:00:00-04:00"
		}
	]
}