{
	"greeting": "Greetings from The On-Line Encyclopedia of Integer Sequences! http://oeis.org/",
	"query": "id:A106069",
	"count": 1,
	"start": 0,
	"results": [
		{
			"number": 106069,
			"data": "5,7,13,17,31,41,43,47,61,73,101,103,113,127,131,157,197,223,251,283,293,307,337,367,433,467,491,563,631,647,673,677,691,733,797,811,937,983,1097,1153,1217,1223,1231,1291,1303,1307,1361,1373",
			"name": "Primes p such that 3*p + 8 and 8*p + 3 are primes.",
			"link": [
				"Michael De Vlieger, \u003ca href=\"/A106069/b106069.txt\"\u003eTable of n, a(n) for n = 1..10000\u003c/a\u003e"
			],
			"mathematica": [
				"Select[Prime[Range[220]], PrimeQ[8#+3]\u0026\u0026PrimeQ[3#+8]\u0026]"
			],
			"program": [
				"(MAGMA) [p: p in PrimesUpTo(5000)|IsPrime(3*p+8) and IsPrime(8*p+3)] // _Vincenzo Librandi_, Jan 30 2011"
			],
			"keyword": "nonn",
			"offset": "1,1",
			"author": "_Zak Seidov_, May 07 2005",
			"references": 1,
			"revision": 11,
			"time": "2018-01-20T22:26:39-05:00",
			"created": "2005-07-19T03:00:00-04:00"
		}
	]
}