{
	"greeting": "Greetings from The On-Line Encyclopedia of Integer Sequences! http://oeis.org/",
	"query": "id:A106846",
	"count": 1,
	"start": 0,
	"results": [
		{
			"number": 106846,
			"data": "0,4,22,64,144,269,461,720,1072,1522,2092,2774,3626,4614,5776,7126,8694,10445,12461,14684,17204,19997,23077,26412,30156,34206,38600,43352,48532,54042,60072,66458,73338,80664,88450,96710,105638,114999",
			"name": "Sum {k + l*m \u003c= n} (k + l*m), with 0 \u003c= k,l,m \u003c= n.",
			"link": [
				"R. J. Mathar, \u003ca href=\"/A106846/b106846.txt\"\u003eTable of n, a(n) for n = 0..1000\u003c/a\u003e"
			],
			"maple": [
				"A106846 := proc(n)",
				"    local a,k,l,m ;",
				"    a := 0 ;",
				"    for k from 0 to n do",
				"        for l from 0 to n do",
				"            if l = 0 then",
				"                m := n ;",
				"            else",
				"                m := floor((n-k)/l) ;",
				"            end if;",
				"            if m \u003e=0 then",
				"                m := min(m,n) ;",
				"                a := a+(m+1)*k+l*m*(m+1)/2 ;",
				"            end if;",
				"        end do:",
				"    end do:",
				"    a ;",
				"end proc: # _R. J. Mathar_, Oct 17 2012"
			],
			"xref": [
				"Cf. A106633, A106634, A106847."
			],
			"keyword": "nonn",
			"offset": "0,2",
			"author": "_Ralf Stephan_, May 06 2005",
			"references": 4,
			"revision": 10,
			"time": "2012-10-17T08:55:11-04:00",
			"created": "2005-07-19T03:00:00-04:00"
		}
	]
}