{
	"greeting": "Greetings from The On-Line Encyclopedia of Integer Sequences! http://oeis.org/",
	"query": "id:A106068",
	"count": 1,
	"start": 0,
	"results": [
		{
			"number": 106068,
			"data": "5,11,19,31,41,59,89,109,151,179,181,229,241,331,349,389,439,509,521,599,661,719,769,839,881,929,1019,1039,1129,1229,1291,1409,1451,1481,1549,1669,1741,1759,1801,1811,2111,2131,2539,2621,2671,2699,2819,2879",
			"name": "Primes p such that 3p + 4 and 4p + 3 are primes.",
			"comment": [
				"Prime terms in A124855."
			],
			"link": [
				"Marius A. Burtea, \u003ca href=\"/A106068/b106068.txt\"\u003eTable of n, a(n) for n = 1..534\u003c/a\u003e"
			],
			"mathematica": [
				"Select[Prime[Range[450]], PrimeQ[4#+3]\u0026\u0026PrimeQ[3#+4]\u0026]"
			],
			"program": [
				"(MAGMA) [p: p in PrimesUpTo(5000)|IsPrime(3*p+4) and IsPrime(4*p+3)] // _Vincenzo Librandi_, Jan 30 2011",
				"(PARI) isok(p) = isprime(p) \u0026\u0026 isprime(3*p+4) \u0026\u0026 isprime(4*p+3); \\\\ _Michel Marcus_, Oct 12 2018"
			],
			"xref": [
				"Cf. A034936, A095278, A124855."
			],
			"keyword": "nonn",
			"offset": "1,1",
			"author": "_Zak Seidov_, May 07 2005",
			"ext": [
				"Extended by _Ray Chandler_, Mar 14 2007"
			],
			"references": 2,
			"revision": 16,
			"time": "2018-10-12T19:58:36-04:00",
			"created": "2005-07-19T03:00:00-04:00"
		}
	]
}