{
	"greeting": "Greetings from The On-Line Encyclopedia of Integer Sequences! http://oeis.org/",
	"query": "id:A106463",
	"count": 1,
	"start": 0,
	"results": [
		{
			"number": 106463,
			"data": "1,3,7,16,36,79,170,362,768,1629,3458,7344,15590,33039",
			"name": "Real parts of binomial transform of the Gaussian primes.",
			"reference": [
				"J. H. Conway and R. K. Guy, \"The Book of Numbers\", Springer-Verlag, 1996, p. 219"
			],
			"formula": [
				"Binomial transform of the positive Gaussian primes: (1, 1), (2, 1), (2, -1), (3, 0), (3, 2), (3, -2), (4, 1), (4, -1), (5, 2), (5, -2)...; extracting the real parts."
			],
			"example": [
				"a(3) = 7, the real part of (7,2) which is 1*(1,1) + 2*(2,1) + 1*(2,-1)."
			],
			"keyword": "nonn",
			"offset": "1,2",
			"author": "_Gary W. Adamson_, May 03 2005",
			"references": 0,
			"revision": 4,
			"time": "2012-03-30T17:25:12-04:00",
			"created": "2005-07-19T03:00:00-04:00"
		}
	]
}