{
	"greeting": "Greetings from The On-Line Encyclopedia of Integer Sequences! http://oeis.org/",
	"query": "id:A106228",
	"count": 1,
	"start": 0,
	"results": [
		{
			"number": 106228,
			"data": "1,1,2,6,21,80,322,1347,5798,25512,114236,518848,2384538,11068567,51817118,244370806,1159883685,5536508864,26560581688,127993221140,619280193640,3007251366000,14651743202152,71601107803904,350873710447210,1723795243004223",
			"name": "G.f. satisfies: A(x) = 1 + x*A(x)/(1 - x*A(x)^2).",
			"comment": [
				"Number of paths from (0,0) to (3n-3,0) that stay in the first quadrant (but may touch the horizontal axis), consisting of steps u=(2,1), U=(1,2), or d=(1,-1) and have no tripledescents (ddd). Example: a(3)=6 because we have udud, Uddud, udUdd, UddUdd, uudd and Ududd (the remaining four paths contain the string ddd: uUddd, UdUddd, Uuddd and UUdddd; see A027307). - _Emeric Deutsch_, Jun 08 2005",
				"a(n) = number of node-labeled ordered trees (A000108) on n vertices, each node labeled with a positive integer \u003c= its outdegree. A node is a non-root non-leaf vertex. Example. a(3)=6 counts the 5 ordered trees on 4 vertices with all labels 1 and the tree",
				".|.",
				"/ \\",
				"with its (one and only) node labeled 2. - _David Callan_, Jul 14 2006",
				"a(n) = number of Schroeder (n-1)-paths with no triple descents. Example: a(4)=21 counts all 22 Schroeder 3-paths (A006318) except UUUDDD. - _David Callan_, Jul 14 2006",
				"(1 + 2x + 6x^2 + ...)*(1 + x + 2x^2 + 6x^3) = (1 + 3x + 10x^2 + 37x^3 + ...), where A109081 = (1, 1, 3, 10, 37, ...). - _Gary W. Adamson_, Nov 15 2011",
				"a(n) = number of Motzkin paths of length 2n-1 with no downsteps in odd position. Example: a(3)=6 counts FFFFF, FFUDF, FUFDF, UDFFF, UDUDF, UFFDF with U an upstep (1,1), F a flatstep (1,0), and D a downstep (1,-1). - _David Callan_, May 20 2015",
				"Number of permutations of length n that avoid 4123, 4132, and 4213. - _Jay Pantone_, Oct 01 2015",
				"Conjecturally, the number of sequences (e(1), ..., e(n)), 0 \u003c= e(i) \u003c i, such that there is no triple i \u003c j \u003c k with e(i) \u003e e(j) and e(i) \u003c= e(k). [Martinez and Savage, 2.21] - _Eric M. Schmidt_, Jul 17 2017",
				"a(n) is the number of permutations of length n avoiding the partially ordered pattern (POP) {1\u003e3, 1\u003e4, 4\u003e2} of length 4. That is, the number of length n permutations having no subsequences of length 4 in which the first element is the largest and the fourth element is larger than the second element. - _Sergey Kitaev_, Dec 10 2020",
				"a(n) is the number of peakless Motzkin paths of length 2n that do not start with an up edge and where every pair of matching up and down edges occupies positions of the same parity. Equivalently, the number of RNA secondary structures on 2n vertices where the leftmost vertex is not matched and only vertices of the same parity can be matched. - _Alexander Burstein_, May 17 2021"
			],
			"reference": [
				"E. Barcucci, R. Pinzani and R. Sprugnoli, The Motzkin family, P.U.M.A. Ser. A, Vol. 2, 1991, No. 3-4, pp. 249-279."
			],
			"link": [
				"Jay Pantone, \u003ca href=\"/A106228/b106228.txt\"\u003eTable of n, a(n) for n = 0..500\u003c/a\u003e",
				"Michael H. Albert, Cheyne Homberger, Jay Pantone, Nathaniel Shar, and Vincent Vatter, \u003ca href=\"http://arxiv.org/abs/1510.00269\"\u003eGenerating Permutations with Restricted Containers\u003c/a\u003e, arXiv:1510.00269 [math.CO], 2015.",
				"Paul Barry, \u003ca href=\"http://dx.doi.org/10.1016/j.laa.2015.10.032\"\u003eRiordan arrays, generalized Narayana triangles, and series reversion\u003c/a\u003e, Linear Algebra and its Applications, 491 (2016) 343-385.",
				"N. R. Beaton, M. Bouvel, V. Guerrini, and S. Rinaldi, \u003ca href=\"https://doi.org/10.37236/7375\"\u003eSlicings of Parallelogram Polyominoes: Catalan, Schröder, Baxter, and Other Sequences\u003c/a\u003e, Electr. J. Combin. 26 (2019), P3.13. Also at \u003ca href=\"https://arxiv.org/abs/1511.04864\"\u003earXiv:1511.04854\u003c/a\u003e [math.CO], 2015-2019.",
				"Wlodzimierz Bryc, Raouf Fakhfakh, and Wojciech Mlotkowski, \u003ca href=\"https://arxiv.org/abs/1708.05343\"\u003eCauchy-Stieltjes families with polynomial variance functions and generalized orthogonality\u003c/a\u003e, arXiv:1708.05343 [math.PR], 2017-2019. Also in \u003ca href=\"http://www.math.uni.wroc.pl/~pms/publicationsArticleRef.php?nr=39.2\u0026amp;nrA=1\u0026amp;ppB=%20237\u0026amp;ppE=%20258\"\u003eProbability and Mathematical Statistics\u003c/a\u003e (2019), Vol. 39, No. 2, 237-258.",
				"Alexander Burstein and Louis W. Shapiro, \u003ca href=\"https://arxiv.org/abs/2112.11595\"\u003ePseudo-involutions in the Riordan group\u003c/a\u003e, arXiv:2112.11595 [math.CO], 2021.",
				"David Callan and Toufik Mansour, \u003ca href=\"https://doi.org/10.1515/puma-2015-0027\"\u003eEnumeration of small Wilf classes avoiding 1342 and two other 4-letter patterns\u003c/a\u003e, Pure Mathematics and Applications (2018) Vol. 27, No. 1, 62-97.",
				"Wenqin Cao, Emma Yu Jin, and Zhicong Lin, \u003ca href=\"https://doi.org/10.1016/j.dam.2019.01.035\"\u003eEnumeration of inversion sequences avoiding triples of relations\u003c/a\u003e, Discrete Applied Mathematics (2019); see also \u003ca href=\"http://www.emmayujin.at/Pubs/CaoJinLin19.pdf\"\u003eauthor's copy\u003c/a\u003e",
				"Emeric Deutsch, \u003ca href=\"http://www.jstor.org/stable/2589192\"\u003eProblem 10658\u003c/a\u003e, American Math. Monthly, 107, 2000, 368-370.",
				"Alice L. L. Gao and Sergey Kitaev, \u003ca href=\"https://arxiv.org/abs/1903.08946\"\u003eOn partially ordered patterns of length 4 and 5 in permutations\u003c/a\u003e, arXiv:1903.08946 [math.CO], 2019.",
				"Alice L. L. Gao and Sergey Kitaev, \u003ca href=\"https://doi.org/10.37236/8605\"\u003eOn partially ordered patterns of length 4 and 5 in permutations\u003c/a\u003e, The Electronic Journal of Combinatorics 26(3) (2019), P3.26.",
				"Nancy S. S. Gu, Nelson Y. Li, and Toufik Mansour, \u003ca href=\"http://dx.doi.org/10.1016/j.disc.2007.04.007\"\u003e2-Binary trees: bijections and related issues\u003c/a\u003e, Discr. Math., 308 (2008), 1209-1221.",
				"Megan A. Martinez and Carla D. Savage, \u003ca href=\"https://arxiv.org/abs/1609.08106\"\u003ePatterns in Inversion Sequences II: Inversion Sequences Avoiding Triples of Relations\u003c/a\u003e, arXiv:1609.08106 [math.CO], 2016.",
				"Arturo Merino and Torsten Mütze, \u003ca href=\"https://arxiv.org/abs/2103.09333\"\u003eCombinatorial generation via permutation languages. III. Rectangulations\u003c/a\u003e, arXiv:2103.09333 [math.CO], 2021.",
				"Chunyan Yan and Zhicong Lin, \u003ca href=\"https://arxiv.org/abs/1912.03674\"\u003eInversion sequences avoiding pairs of patterns\u003c/a\u003e, arXiv:1912.03674 [math.CO], 2019."
			],
			"formula": [
				"G.f.: A(x) = (1/x)*series_reversion[x/(1 + x*G001006(x))] and thus G.f. satisfies: A(x) = 1 + x*A(x)*G001006(x*A(x)) where G001006(x) is the g.f. of Motzkin numbers A001006.",
				"G.f.: 1 + x*exp( Sum_{n\u003e=1} A082759(n)*x^n/n ), where A082759(n) = Sum_{k=0..n} binomial(n,k)*trinomial(n,k). - _Paul D. Hanna_, Nov 02 2012",
				"a(n) = (1/n)sum(binomial(n, j+1)*b(n, j), j=0..n-1), where b(n, j) are the trinomial coefficients [b(n, j)=A027907(n, j)=coefficient of x^j in (1+x+x^2)^n]. - _Emeric Deutsch_, Jun 08 2005",
				"Given g.f. A(x), then B(x) = x*A(x) satisfies 0 = f(x, B(x)) where f(x, y) = y^3 - (1+y)*x*(y-x). - _Michael Somos_, Jun 18 2005",
				"a(n+1) = Sum[binomial(2n-2k,n-k)*binomial(n+k,n)/(n+1),{k,0,n}]. - _David Callan_, Aug 16 2006",
				"For n\u003e0: a(n) = 1/n*sum(binomial(n,j)*sum(binomial(j,i)*binomial(n-j,2*j-n-i-1)*2^(2*n-3*j+2*i+1),i=0..n-1), j=0..n); - _Vladimir Kruchinin_, Dec 26 2010",
				"a(n) = 1/(n+1)*sum(binomial(n+1,k)*binomial(n+k+1,n-k),k,0,n); - _Vladimir Kruchinin_, Feb 28 2010",
				"a(n) = upper left term in M^n, M = the production matrix:",
				"  1, 1",
				"  1, 1, 1",
				"  2, 2, 1, 1",
				"  3, 3, 2, 1, 1",
				"  4, 4, 3, 2, 1, 1",
				"  5, 5, 4, 3, 2, 1, 1",
				"  ...",
				"- _Gary W. Adamson_, Jul 08 2011",
				"D-finite with recurrence: 4*n*(2*n+1)*a(n) + 2*(6-5*n-10*n^2)*a(n-1) + 12*(-9*n^2+35*n-33)*a(n-2) - 2*(n-3)*(13*n-28)*a(n-3) - 15*(n-3)*(n-4)*a(n-4) = 0. - _R. J. Mathar_, Nov 14 2011",
				"From _Gary W. Adamson_, Nov 15 2011: (Start)",
				"a(n) is the sum of top row terms of Q^(n-1), where Q = the following infinite square production matrix:",
				"  1, 1, 0, 0, 0, ...",
				"  2, 1, 1, 0, 0, ...",
				"  3, 2, 1, 1, 0, ...",
				"  4, 3, 2, 1, 1, ...",
				"  5, 4, 3, 2, 1, ...",
				"  ... (End)",
				"a(n) = 3_F_2([-n, 1-n, n+1], [1, 3/2], 1/4). - _Peter Luschny_, Aug 02 2012",
				"A four-term recurrence equation is given in the Maple program. _Peter Luschny_, Aug 03 2012",
				"a(n) ~ 1/228*sqrt(114)*sqrt((32129+3933*sqrt(57))^(1/3) * ((32129+3933*sqrt(57))^(2/3) + 532 + 38*(32129+3933*sqrt(57))^(1/3))) / ((32129+3933*sqrt(57))^(1/3)) * (((1261+57*sqrt(57))^(2/3) + 112 + 10*(1261+57*sqrt(57))^(1/3)) / (6*(1261+57*sqrt(57))^(1/3)))^n / (sqrt(Pi)*n^(3/2)). - _Vaclav Kotesovec_, Sep 16 2013",
				"G.f. satisfies x*F(x)^3 - x*F(x)^2 + (x-1)*F(x) + 1 = 0. - _Jay Pantone_, Oct 01 2015",
				"G.f. satisfies A(-x*A(x)^3) = 1/A(x). - _Alexander Burstein_, Dec 05 2019"
			],
			"example": [
				"A = 1 + x*A + x^2*A^3 + x^3*A^5 + x^4*A^7 + x^5*A^9 + ...",
				"a(4) = 21 since the top row terms of Q^3 = (10, 7, 3, 1). - _Gary W. Adamson_, Nov 15 2011",
				"G.f. = 1 + x + 2*x^2 + 6*x^3 + 21*x^4 + 80*x^5 + 322*x^6 + 1347*x^7 + ..."
			],
			"maple": [
				"a := proc(n) option remember; if n\u003c2 then 1 elif n=2 then 2 else ((380*n^3-840*n^2+496*n-72)*a(n-1)+(76*n^3-282*n^2+302*n-84)*a(n-2)+(57*n^3-297*n^2+402*n-72)*a(n-3))/(76*n^3-54*n^2-46*n) fi end: seq(a(i),i=0..23); # _Peter Luschny_, Aug 03 2012"
			],
			"mathematica": [
				"Flatten[{1,Table[1/n*Sum[Binomial[n,k]*Binomial[n+k,n-k-1],{k,0,n-1}],{n,1,20}]}] (* _Vaclav Kotesovec_, Sep 16 2013 *)",
				"a[ n_] := If[ n \u003c 0, 0, HypergeometricPFQ[{-n, 1 - n, n + 1}, {1, 3/2}, 1/4]]; (* _Michael Somos_, May 27 2014 *)"
			],
			"program": [
				"(PARI) {a(n)=local(A=1+x+x*O(x^n));for(k=1,n,A=1+x*A/(1-x*A^2)); polcoeff(A,n)}",
				"(PARI) {a(n) = local(A); if( n\u003c0, 0, n++; A = (1 + x - sqrt(1 - 2*x - 3*x^2 + x * O(x^n))) / 2; polcoeff( serreverse( x^2 / A), n))}; /* _Michael Somos_, Jun 18 2005 */",
				"(Sage)",
				"from mpmath import mp",
				"mp.dps = 32; mp.pretty = True",
				"def A106228(n) : return int(mp.hyper([-n, 1-n, n+1], [1, 3/2], 1/4))",
				"[A106228(n) for n in (0..23)] # _Peter Luschny_, Aug 02 2012",
				"(PARI)  {a(n) = if( n\u003c1, n==0, polcoeff( serreverse( x /  (1 + 2*x + 2*x^2 + x^3) + x * O(x^n)), n))}; /* _Michael Somos_, Dec 31 2014 */"
			],
			"xref": [
				"Cf. A027907, A027307, A001006, A086246, A109081, A164965."
			],
			"keyword": "nonn,changed",
			"offset": "0,3",
			"author": "_Paul D. Hanna_, May 19 2005",
			"references": 15,
			"revision": 170,
			"time": "2022-01-09T09:59:23-05:00",
			"created": "2005-07-19T03:00:00-04:00"
		}
	]
}