{
	"greeting": "Greetings from The On-Line Encyclopedia of Integer Sequences! http://oeis.org/",
	"query": "id:A106278",
	"count": 1,
	"start": 0,
	"results": [
		{
			"number": 106278,
			"data": "1,0,0,0,0,0,0,1,2,1,0,0,0,2,3,0,2,3,1,0,1,0,0,1,1,1,1,0,1,3,1,2,3,1,1,0,0,1,1,1,1,1,1,3,1,0,1,1,1,0,0,0,0,1,0,0,2,1,0,0,3,3,1,0,1,0,0,0,1,1,1,2,1,2,0,2,0,1,1,0,1,2,0,0,2,2,1,1,2,0,0,2,1,2,2,2,1,0,0,0,0,0,0,1,0",
			"name": "Number of distinct zeros of x^5-x^4-x^3-x^2-x-1 mod prime(n).",
			"comment": [
				"This polynomial is the characteristic polynomial of the Fibonacci and Lucas 5-step sequences, A001591 and A074048. Similar polynomials are treated in Serre's paper. The discriminant of the polynomial is 9584=16*599 and 599 is the only prime for which the polynomial has 4 distinct zeros. The primes p yielding 5 distinct zeros, A106281, correspond to the periods of the sequences A001591(k) mod p and A074048(k) mod p having length less than p. The Lucas 5-step sequence mod p has one additional prime p for which the period is less than p: the 599 factor of the discriminant. For this prime, the Fibonacci 5-step sequence mod p has a period of p(p-1)."
			],
			"link": [
				"J.-P. Serre, \u003ca href=\"http://www.ams.org/bull/2003-40-04/S0273-0979-03-00992-3/S0273-0979-03-00992-3.pdf\"\u003eOn a theorem of Jordan\u003c/a\u003e, Bull. Amer. Math. Soc., 40 (No. 4, 2003), 429-440, see p. 433.",
				"Eric Weisstein's World of Mathematics, \u003ca href=\"http://mathworld.wolfram.com/Fibonaccin-StepNumber.html\"\u003eFibonacci n-Step\u003c/a\u003e"
			],
			"mathematica": [
				"Table[p=Prime[n]; cnt=0; Do[If[Mod[x^5-x^4-x^3-x^2-x-1, p]==0, cnt++ ], {x, 0, p-1}]; cnt, {n, 150}]"
			],
			"xref": [
				"Cf. A106298 (period of the Lucas 5-step sequences mod prime(n)), A106284 (prime moduli for which the polynomial is irreducible)."
			],
			"keyword": "nonn",
			"offset": "1,9",
			"author": "_T. D. Noe_, May 02 2005",
			"references": 3,
			"revision": 6,
			"time": "2012-03-30T17:22:35-04:00",
			"created": "2005-07-19T03:00:00-04:00"
		}
	]
}