{
	"greeting": "Greetings from The On-Line Encyclopedia of Integer Sequences! http://oeis.org/",
	"query": "id:A106160",
	"count": 1,
	"start": 0,
	"results": [
		{
			"number": 106160,
			"data": "2,2,2,4,4,4,4,4,6,6,6,8,6,8,8,8",
			"name": "Highest minimal Hamming distance of Hermitian Type IV self-dual codes over GF(2) X GF(2) and length 2n.",
			"link": [
				"K. Betsumiya, T. A. Gulliver and M. Harada, \u003ca href=\"http://dx.doi.org/10.1023/A:1022540524423\"\u003eExtremal self-dual codes over F_2 X F_2\u003c/a\u003e, Designs, Codes Crypt. 28 (2003), 171-186.",
				"K. Betsumiya and M. Harada, \u003ca href=\"http://dx.doi.org/10.1109/TIT.2003.822576\"\u003eOptimal self-dual codes over F_2 X F_2 with respect to the Hamming weight\u003c/a\u003e, IEEE Trans. Inform. Theory 50 (2004), 356-358.",
				"W. C. Huffman, \u003ca href=\"http://dx.doi.org/10.1016/j.ffa.2005.05.012\"\u003eOn the classification and enumeration of self-dual codes\u003c/a\u003e, Finite Fields Applic. 11 (2005), 451-490.",
				"G. Nebe, E. M. Rains and N. J. A. Sloane, \u003ca href=\"http://neilsloane.com/doc/cliff2.html\"\u003eSelf-Dual Codes and Invariant Theory\u003c/a\u003e, Springer, Berlin, 2006."
			],
			"keyword": "nonn,more",
			"offset": "1,1",
			"author": "_N. J. A. Sloane_, May 08 2005",
			"references": 1,
			"revision": 15,
			"time": "2015-03-06T09:13:48-05:00",
			"created": "2005-07-19T03:00:00-04:00"
		}
	]
}