{
	"greeting": "Greetings from The On-Line Encyclopedia of Integer Sequences! http://oeis.org/",
	"query": "id:A106323",
	"count": 1,
	"start": 0,
	"results": [
		{
			"number": 106323,
			"data": "12,13,33,102,103,112,113,122,1002,1003,1011,1012,1013,1021,1022,1031,1102,1103,1112,1113,1121,1122,1202,1212,2012,2022,3168,10002,10003,10011,10012,10013,10021,10022,10031,10102,10103,10111,10112,10113",
			"name": "Smaller of number pair whose squares are reversals of each other, with no leading zeros allowed.",
			"comment": [
				"For numbers whose squares are the reversal of a(n)^2, see A106324."
			],
			"example": [
				"33 is in the sequence because 33^2=1089 and we have 9801=99^2. Likewise,122^2=14884 and we have 48841=221^2."
			],
			"program": [
				"(PARI) isok(n) = {if (n % 10 == 0, return (0)); d = digits(n^2, 10); m = sum(k=0, #d-1, d[k+1]*10^(k)); if (! issquare(m), return (0)); return (n \u003c sqrtint(m));} \\\\ _Michel Marcus_, Jul 28 2013"
			],
			"xref": [
				"Cf. A035090; A035123.",
				"Half of A035123."
			],
			"keyword": "base,nonn",
			"offset": "1,1",
			"author": "_Lekraj Beedassy_, Apr 29 2005",
			"ext": [
				"Corrected and extended by _Joshua Zucker_, May 12 2006"
			],
			"references": 3,
			"revision": 10,
			"time": "2013-07-29T08:17:22-04:00",
			"created": "2005-07-19T03:00:00-04:00"
		}
	]
}