{
	"greeting": "Greetings from The On-Line Encyclopedia of Integer Sequences! http://oeis.org/",
	"query": "id:A106641",
	"count": 1,
	"start": 0,
	"results": [
		{
			"number": 106641,
			"data": "1,2,2,1,4,1,1,4,4,1,1,4,1,2,2,1,2,3,3,2,1,2,2,1,1,2,2,1,2,3,3,2,2,3,3,2,1,2,2,1,1,2,2,1,2,3,3,2,1,2,2,1,4,1,1,4,4,1,1,4,1,2,2,1,4,1,1,4,3,4,4,3,3,4,4,3,4,1,1,4,1,2,2,1,4,1,1,4,4,1,1,4,1,2,2,1,1,2,2,1,4,1,1,4,4",
			"name": "A four-symbol four-at-a-time substitution with an ordering change: q=0.",
			"comment": [
				"This substitution gives two border-like 90-degree fractals, one (q=0) of which appears to tile."
			],
			"formula": [
				"1-\u003e{3, 4, 4, 3}, 2-\u003eq*{3, 2, 2, 3} + (1 - q)*{2, 3, 3, 2}, 3-\u003e{1, 2, 2, 1}, 4-\u003eq*{1, 4, 4, 1} + (1 - q)*{4, 1, 1, 4}."
			],
			"mathematica": [
				"q = 0; s[1] = {3, 4, 4, 3}; s[2] = q*{3, 2, 2, 3} + (1 -q)*{2, 3, 3, 2}; s[3] = {1, 2, 2, 1}; s[4] = q*{1, 4, 4, 1} + (1 - q)*{4, 1, 1, 4}; t[a_] := Flatten[s /@ a] p[0] = {1}; p[1] = t[p[0]]; p[n_] := t[p[n - 1]] aa = p[4]"
			],
			"keyword": "nonn,uned",
			"offset": "0,2",
			"author": "_Roger L. Bagula_, May 12 2005",
			"references": 0,
			"revision": 9,
			"time": "2018-11-25T23:43:24-05:00",
			"created": "2005-07-19T03:00:00-04:00"
		}
	]
}