{
	"greeting": "Greetings from The On-Line Encyclopedia of Integer Sequences! http://oeis.org/",
	"query": "id:A106720",
	"count": 1,
	"start": 0,
	"results": [
		{
			"number": 106720,
			"data": "2089,2609,3299,3301,3307,4177,4201,4423,4441,4447,7129,12109,12479,14341,14347,14369,14387,25073,27109,27127,27143,32341,33409,34057,34253,34259,35227,35803,42227,59809,67213,67217,80221,101267,102107",
			"name": "Largest of six consecutive primes the sum of the digits of each of which is prime.",
			"link": [
				"Harvey P. Dale, \u003ca href=\"/A106720/b106720.txt\"\u003eTable of n, a(n) for n = 1..1000\u003c/a\u003e"
			],
			"example": [
				"a(1)=2089 is a term because this is Largest of six consecutive primes i.e. 2063,2069,2081,2083,2087 and 2089, whose sum of digits is prime i.e. 2+0+6+3=11, 2+0+6+9=17, 2+0+8+1=11, 2+0+8+3=13, 2+0+8+7=17 and 2+0+8+9=19."
			],
			"mathematica": [
				"idprQ[n_]:=PrimeQ[Total[IntegerDigits[n]]]; Transpose[Select[ Partition[ Prime[ Range[ 10000]],6,1],And@@idprQ/@#\u0026]][[6]] (* _Harvey P. Dale_, Dec 05 2014 *)"
			],
			"keyword": "base,nonn",
			"offset": "1,1",
			"author": "_Shyam Sunder Gupta_, May 14 2005",
			"ext": [
				"Definition clarified by _Harvey P. Dale_, Dec 05 2014"
			],
			"references": 1,
			"revision": 7,
			"time": "2014-12-05T11:01:02-05:00",
			"created": "2005-07-19T03:00:00-04:00"
		}
	]
}