{
	"greeting": "Greetings from The On-Line Encyclopedia of Integer Sequences! http://oeis.org/",
	"query": "id:A106640",
	"count": 1,
	"start": 0,
	"results": [
		{
			"number": 106640,
			"data": "1,1,4,11,36,117,393,1339,4630,16193,57201,203799,731602,2643903,9611748,35130195,129018798,475907913,1762457595,6550726731,24428808690,91377474411,342763939656,1289070060903,4859587760076,18360668311027,69514565858653,263693929034909",
			"name": "Row sums of A059346.",
			"comment": [
				"a(n) = p(n + 1) where p(x) is the unique degree-n polynomial such that p(k) = Catalan(k) for k = 0, 1, ..., n. - _Michael Somos_, Jan 05 2012",
				"Number of Dyck (n+1)-paths whose minimum ascent length is 1. - _David Scambler_, Aug 22 2012",
				"From _Alois P. Heinz_, Jun 29 2014: (Start)",
				"a(n) is the number of ordered rooted trees with n+2 nodes such that the minimal outdegree equals 1. a(2) = 4:",
				"   o    o      o      o",
				"   |    |     / \\    / \\",
				"   o    o    o   o  o   o",
				"   |   / \\   |          |",
				"   o  o   o  o          o",
				"   |",
				"   o",
				"(End)",
				"Number of non-crossing partitions of {1,2,..,n+1} that contain cyclical adjacencies. a(2) = 4, [12|3, 13|2, 1|23, 123]. - _Yuchun Ji_, Nov 13 2020"
			],
			"link": [
				"Alois P. Heinz, \u003ca href=\"/A106640/b106640.txt\"\u003eTable of n, a(n) for n = 0..1000\u003c/a\u003e"
			],
			"formula": [
				"G.f.: (sqrt( 1 - 2*x - 3*x^2 ) / (1 + x) - sqrt( 1 - 4*x )) / (2*x^2) = 2 / (sqrt( 1 - 2*x - 3*x^2 ) + (1 + x) * sqrt( 1 - 4*x )). - _Michael Somos_, Jan 05 2012",
				"a(n) = A000108(n+1) - A005043(n+1).",
				"a(n) ~ 2^(2*n+2) / (sqrt(Pi)*n^(3/2)). - _Vaclav Kotesovec_, Jan 21 2017",
				"a(n) = A000296(n+2) - A247494(n+1); i.e., remove the crossing partitions from the partitions with cyclical adjacencies. - _Yuchun Ji_, Nov 17 2020"
			],
			"example": [
				"1 + x + 4*x^2 + 11*x^3 + 36*x^4 + 117*x^5 + 393*x^6 + 1339*x^7 + 4630*x^8 + ...",
				"a(2) = 4 since p(x) = (x^2 - x + 2) / 2 interpolates p(0) = 1, p(1) = 1, p(2) = 2, and p(3) = 4. - _Michael Somos_, Jan 05 2012"
			],
			"maple": [
				"a:= proc(n) option remember; `if`(n\u003c3, [1, 1, 4][n+1],",
				"      ((30*n^3-44*n^2-22*n+24)*a(n-1)-(25*n^3-105*n^2+140*n-48)*a(n-2)",
				"       -6*(n-1)*(5*n-4)*(2*n-3)*a(n-3))/(n*(n+2)*(5*n-9)))",
				"    end:",
				"seq(a(n), n=0..30);  # _Alois P. Heinz_, Jun 29 2014"
			],
			"mathematica": [
				"max = 30; t = Table[Differences[Table[CatalanNumber[k], {k, 0, max}], n], {n, 0, max}]; a[n_] := Sum[t[[n-k+1, k]], {k, 1, n}]; Array[a, max] (* _Jean-François Alcover_, Jan 21 2017 *)"
			],
			"program": [
				"(PARI) {a(n) = if( n\u003c0, 0, n++; subst( polinterpolate( vector(n, k, binomial( 2*k - 2, k - 1) / k)), x, n + 1))} /* _Michael Somos_, Jan 05 2012 */",
				"(PARI) {a(n) = local(A); if( n\u003c0, 0, A = x * O(x^n); polcoeff( 2 / (sqrt( 1 - 2*x - 3*x^2 + A) + (1 + x) * sqrt( 1 - 4*x + A)) ,n))} /* _Michael Somos_, Jan 05 2012 */"
			],
			"xref": [
				"Cf. A000108, A005043, A244455, A000296, A247494."
			],
			"keyword": "nonn",
			"offset": "0,3",
			"author": "_Philippe Deléham_, May 26 2005",
			"ext": [
				"Typo in a(20) corrected and more terms from _Alois P. Heinz_, Jun 29 2014"
			],
			"references": 6,
			"revision": 45,
			"time": "2020-12-18T14:25:56-05:00",
			"created": "2005-07-19T03:00:00-04:00"
		}
	]
}