{
	"greeting": "Greetings from The On-Line Encyclopedia of Integer Sequences! http://oeis.org/",
	"query": "id:A106357",
	"count": 1,
	"start": 0,
	"results": [
		{
			"number": 106357,
			"data": "1,0,3,6,7,20,42,72,141,280,516,976,1853,3420,6361,11844,21819,40192,73942,135452,247828,452776,825252,1501998,2730159,4954890,8981360,16261568,29408708,53130154,95894384,172917788,311538169,560831286",
			"name": "Number of compositions of n with exactly 1 adjacent equal pair of parts.",
			"link": [
				"Alois P. Heinz, \u003ca href=\"/A106357/b106357.txt\"\u003eTable of n, a(n) for n = 2..1000\u003c/a\u003e",
				"A. Knopfmacher and H. Prodinger, \u003ca href=\"https://doi.org/10.1006/eujc.1998.0216\"\u003eOn Carlitz compositions\u003c/a\u003e, European Journal of Combinatorics, Vol. 19, 1998, pp. 579-589."
			],
			"formula": [
				"a(n) ~ c * d^n * n, where d = A241902 = 1.750241291718309031249738624639..., c = 0.04826600476992825168367... . - _Vaclav Kotesovec_, Sep 05 2014"
			],
			"maple": [
				"b:= proc(n, v) option remember; `if`(n=0, [1, 0],",
				"      add((p-\u003e `if`(i=v, [0, p[1]], p))(b(n-i, i)), i=1..n))",
				"    end:",
				"a:= n-\u003e b(n, 0)[2]:",
				"seq(a(n), n=2..45);  # _Alois P. Heinz_, May 09 2014"
			],
			"mathematica": [
				"b[n_, v_] := b[n, v] = If[n == 0, {1, 0}, Sum[Function[p, If[i == v, {0, p[[1]]}, p]][b[n - i, i]], {i, 1, n}]];",
				"a[n_] := b[n, 0][[2]];",
				"a /@ Range[2, 45] (* _Jean-François Alcover_, Nov 02 2020, after _Alois P. Heinz_ *)"
			],
			"xref": [
				"Column 1 of A106356. Cf. A003242.",
				"Cf. A241902."
			],
			"keyword": "nonn",
			"offset": "2,3",
			"author": "_Christian G. Bower_, Apr 29 2005",
			"ext": [
				"Replaced broken link, _Vaclav Kotesovec_, May 01 2014"
			],
			"references": 4,
			"revision": 15,
			"time": "2020-11-02T09:09:12-05:00",
			"created": "2005-07-19T03:00:00-04:00"
		}
	]
}