{
	"greeting": "Greetings from The On-Line Encyclopedia of Integer Sequences! http://oeis.org/",
	"query": "id:A106567",
	"count": 1,
	"start": 0,
	"results": [
		{
			"number": 106567,
			"data": "0,4,20,116,660,3764,21460,122356,697620,3977524,22678100,129300596,737215380,4203279284,23965257940,136639406836,779058065940,4441847957044,25325472048980,144394752073076,823275648561300,4693957251098804,26762888849739220",
			"name": "a(n) = 5*a(n-1) + 4*a(n-2), with a(0) = 4, a(1) = 4.",
			"link": [
				"Vincenzo Librandi, \u003ca href=\"/A106567/b106567.txt\"\u003eTable of n, a(n) for n = 0..1000\u003c/a\u003e",
				"\u003ca href=\"/index/Rec#order_02\"\u003eIndex entries for linear recurrences with constant coefficients\u003c/a\u003e, signature (5,4)."
			],
			"formula": [
				"a(n) = 4*A015537(n).",
				"From _Chai Wah Wu_, Mar 21 2018: (Start)",
				"a(n) = 5*a(n-1) + 4*a(n-2) for n \u003e 1.",
				"G.f.: 4*x/(1 - 5*x - 4*x^2). (End)",
				"a(n) = 4*(p^n - q^n)/(p - q), where 2*p = 5 + sqrt(41), 2*q = 5 - sqrt(41). - _G. C. Greubel_, Sep 06 2021"
			],
			"mathematica": [
				"CoefficientList[Series[4*x/(1-5*x-4*x^2), {x, 0, 30}], x] (* _Vincenzo Librandi_, Mar 22 2018 *)"
			],
			"program": [
				"(MAGMA)  I:=[0,4]; [n le 2 select I[n] else 5*Self(n-1) +4*Self(n-2): n in [1..30]]; // _Vincenzo Librandi_, Mar 22 2018",
				"(PARI) a(n) = (([0,4; 1,5]^n)*[0,1]~)[1]; \\\\ _Michel Marcus_, Mar 22 2018",
				"(Sage)",
				"def A106567_list(prec):",
				"    P.\u003cx\u003e = PowerSeriesRing(ZZ, prec)",
				"    return P( 4*x/(1-5*x-4*x^2) ).list()",
				"A106567_list(30) # _G. C. Greubel_, Sep 06 2021"
			],
			"xref": [
				"Cf. A015537."
			],
			"keyword": "nonn,easy,less",
			"offset": "0,2",
			"author": "_Roger L. Bagula_, May 30 2005",
			"ext": [
				"Edited by _N. J. A. Sloane_, Apr 30 2006",
				"New name after Chai Wah Wu, by _Bruno Berselli_, Mar 22 2018"
			],
			"references": 1,
			"revision": 25,
			"time": "2021-09-07T02:31:57-04:00",
			"created": "2005-07-19T03:00:00-04:00"
		}
	]
}