{
	"greeting": "Greetings from The On-Line Encyclopedia of Integer Sequences! http://oeis.org/",
	"query": "id:A106125",
	"count": 1,
	"start": 0,
	"results": [
		{
			"number": 106125,
			"data": "1,2,3,7,11,43,53,613367,613439,613451,613523,613549,613609,6384425461,6384425521,6384425569,6384425647",
			"name": "Numbers k such that k divides the k-th semiprime.",
			"comment": [
				"Note that except 1, all other term in the sequence will be primes.",
				"a(18) \u003e 10^12. - _Lucas A. Brown_, Oct 17 2020"
			],
			"example": [
				"a(4)=7 is a term because 7 divides the 7th semiprime (i.e., 21)."
			],
			"xref": [
				"Cf. A001358."
			],
			"keyword": "nonn,more",
			"offset": "1,2",
			"author": "_Shyam Sunder Gupta_, May 07 2005",
			"ext": [
				"a(14)-a(17) from _Donovan Johnson_, Sep 27 2010"
			],
			"references": 0,
			"revision": 13,
			"time": "2021-05-19T20:58:38-04:00",
			"created": "2005-07-19T03:00:00-04:00"
		}
	]
}