{
	"greeting": "Greetings from The On-Line Encyclopedia of Integer Sequences! http://oeis.org/",
	"query": "id:A106564",
	"count": 1,
	"start": 0,
	"results": [
		{
			"number": 106564,
			"data": "25,49,121,169,289,361,529,625,729,841,961,1225,1369,1681,1849,2209,2401,2601,2809,3025,3481,3721,3969,4225,4489,4761,5041,5329,5625,5929,6241,6889,7225,7569,7921,8281,8649,9025,9409,10201,10609,11449,11881",
			"name": "Perfect squares which are not the difference of two primes.",
			"comment": [
				"Squares in A269345; see also the Mathematica code. - _Waldemar Puszkarz_, Feb 27 2016",
				"It is conjectured (see A020483) that every even number is a difference of primes, and this is known to be true for even numbers \u003c 10^11.  If so,this sequence consists of the odd squares n such that n+2 is composite. - _Robert Israel_, Feb 28 2016"
			],
			"link": [
				"Robert Israel, \u003ca href=\"/A106564/b106564.txt\"\u003eTable of n, a(n) for n = 1..10000\u003c/a\u003e"
			],
			"formula": [
				"n^2 - A106546 with 0's removed."
			],
			"example": [
				"a(2)=49 because it is the second perfect square which is impossible to obtain subtracting a prime from another one.",
				"64 is not in the sequence because 64=67-3 (difference of two primes)."
			],
			"maple": [
				"remove(t -\u003e isprime(t+2), [seq(i^2, i=1..1000, 2)]); # _Robert Israel_, Feb 28 2016"
			],
			"mathematica": [
				"With[{lst=Union[(#[[2]]-#[[1]])\u0026/@Subsets[Prime[Range[2000]], {2}]]}, Select[Range[140]^2, !MemberQ[lst,#]\u0026]] (* _Harvey P. Dale_, Jan 04 2011 *)",
				"Select[Range[1,174,2]^2, !PrimeQ[#+2]\u0026]",
				"Select[Select[Range[30000], OddQ[#]\u0026\u0026 !PrimeQ[#]\u0026\u0026 !PrimeQ[#+2]\u0026], IntegerQ[Sqrt[#]]\u0026] (* _Waldemar Puszkarz_, Feb 27 2016 *)"
			],
			"program": [
				"(PARI) for(n=1, 174, n%2==1\u0026\u0026!isprime(n^2+2)\u0026\u0026print1(n^2, \", \")) \\\\ _Waldemar Puszkarz_, Feb 27 2016",
				"(MAGMA) [n^2: n in [1..150]| not IsPrime(n^2+2) and n mod 2 eq 1]; // _Vincenzo Librandi_, Feb 28 2016"
			],
			"xref": [
				"Cf. A020483, A106544-A106548, A106562-A106563, A106571, A106573-A106575, A106577."
			],
			"keyword": "easy,nonn",
			"offset": "1,1",
			"author": "_Alexandre Wajnberg_, May 09 2005",
			"ext": [
				"Extended by _Ray Chandler_, May 12 2005"
			],
			"references": 15,
			"revision": 26,
			"time": "2016-03-01T07:56:14-05:00",
			"created": "2005-07-19T03:00:00-04:00"
		}
	]
}