{
	"greeting": "Greetings from The On-Line Encyclopedia of Integer Sequences! http://oeis.org/",
	"query": "id:A107629",
	"count": 1,
	"start": 0,
	"results": [
		{
			"number": 107629,
			"data": "1,2,8,12,13,38,39,80,142,143,216,218,221,222,325,329,330,447,448,450,590,594,765,954,955,1156,1413,1418,1419,1658,1660,1661,1666,1667,1958,2259,2260,2590,2595,2940,3340,3342,3763,4209,4656,4657,4662,4663,4668",
			"name": "Consider the Gaussian primes a+bi of the first quadrant ordered as a sequence as in A103431. In A103431 and A103432 these primes are ordered first by their norm and if the norms are equal, by the size of the real part a. A prime p=1 mod 4 splits into two different Gaussian primes p = -i(a+bi)(b+ai) where a^2+b^2=p and these two primes have the same norm. Through this kind of ordering the primes have a well-defined index k in A103431. The present sequence depends on the index k of a Gaussian prime a + bi in A103431. Such an index k is a member of this sequence when an integer multiplier m exists such that m*norm(a+bi) lies in an interval of length 1 around the index k of a+bi in A103431: k-0.5 \u003c m*norm(a+bi) \u003c k + 0.5. Counting roughly the first 50000000 Gaussian primes of A103431, every integer \u003c 1600 appeared at least once as a multiplier.",
			"comment": [
				"As this property depends only on the norm, one could choose for example the Gaussian primes of the 4th quadrant and would get the same results. It is only necessary that no Gaussian primes are included which are multiples of each other and a unit (-1,i,-i). A107630 gives the squares of the norms, which are integers. A107631 gives the multipliers m. Sequence A107632-A107634 is a subsequence of the present sequence where the distance m*norm(a+bi) from index k is smaller than for all previous values, abs(m*norm(a+bi)-k) is minimal up to k."
			],
			"example": [
				"The Gaussian prime with index k=80 in sequence A103431 is 1+20i, norm(1+20i)=20.0249..., norm(1+20i)^2=401. With multiplier m = 4 4*norm(1+20i) = 80.0999375..., which is in the interval with length 1 around 80. So a(8)=80."
			],
			"xref": [
				"Cf. A103431, A103432, A107630, A107631, A107632, A107633, A107634."
			],
			"keyword": "nonn",
			"offset": "1,2",
			"author": "_Sven Simon_, May 18 2005",
			"references": 3,
			"revision": 9,
			"time": "2015-01-15T09:51:34-05:00",
			"created": "2005-07-19T03:00:00-04:00"
		}
	]
}