{
	"greeting": "Greetings from The On-Line Encyclopedia of Integer Sequences! http://oeis.org/",
	"query": "id:A107769",
	"count": 1,
	"start": 0,
	"results": [
		{
			"number": 107769,
			"data": "0,1,2,8,19,54,130,334,806,1995,4816,11746,28357,68748,165972,401388,969036,2341141,5652014,13649228,32952151,79563330,192082870,463752730,1119598130,2703006111,6525634012,15754412038,38034515209,91823775384,221682203880,535188986904,1292060510616,3119311948585",
			"name": "a(n) = (A001333(n+1) - 2*A005409(floor((n+3)/2)) - 1) / 4.",
			"comment": [
				"a(n) is the number of free polyominoes of width 2 and height n+1 which have no symmetry, i.e., rotations by 180 degrees, flips along the short or long axis  generate a different free polyomino. The three elements t, g+ and g- of sequences by Tasi et al. represent a domino in the short cross-section where either both, only the \"upper\" or only the \"lower\" square of the domino is occupied. E.g., a(3) = 8 represents 3 5-ominoes of shape the 2x4, 3 6-ominoes of shape 2x4, and 2 7-ominoes of shape 2x4. - _R. J. Mathar_, Jun 17 2020"
			],
			"link": [
				"G. C. Greubel, \u003ca href=\"/A107769/b107769.txt\"\u003eTable of n, a(n) for n = 0..1000\u003c/a\u003e",
				"Gy. Tasi and F. Mizukami, \u003ca href=\"https://dx.doi/10.1023/A:1019163812482\"\u003eQuantum algebraic-combinatoric study of the conformational properties of n-alkanes\u003c/a\u003e, J. Math. Chemistry, 25, 1999, 55-64 (see p. 63, eq 25).",
				"\u003ca href=\"/index/Rec#order_07\"\u003eIndex entries for linear recurrences with constant coefficients\u003c/a\u003e, signature (3,1,-7,3,-1,1,1)."
			],
			"formula": [
				"4*a(n) = Pell(n+3) - Pell(n+2) - 2*Pell(floor((n+4)/2)) + 1, with Pell(n) = A000129(n). - _Ralf Stephan_, Jun 02 2007",
				"G.f.: x*(1-x+x^2)/((1-x)*(1-2*x-x^2)*(1-2*x^2-x^4)). - _Colin Barker_, Apr 08 2013",
				"4*a(n) = A001333(n+2) -2*A135153(n+4) +1. - _R. J. Mathar_, Jun 17 2020",
				"From _G. C. Greubel_, May 24 2021: (Start)",
				"a(n) = (1/4)*(A001333(n+2) - 2*A000129(floor(n/2)+2) + 1).",
				"a(n) = (1/8)*(A002203(n+2) - 4*A000129(floor(n/2)+2) + 2). (End)"
			],
			"mathematica": [
				"Table[(LucasL[n+2, 2] -4*Fibonacci[Floor[n/2]+2, 2] +2)/8, {n,0,40}] (* _G. C. Greubel_, May 24 2021 *)"
			],
			"program": [
				"(Sage) [(lucas_number2(n+2,2,-1) -4*lucas_number1(2+(n//2),2,-1) +2)/8 for n in (0..40)] # _G. C. Greubel_, May 24 2021"
			],
			"xref": [
				"Cf. A000129, A001333, A002203, A005409, A126877, A135153."
			],
			"keyword": "nonn,easy",
			"offset": "0,3",
			"author": "_Emeric Deutsch_, Jun 12 2005",
			"ext": [
				"Entry revised by _N. J. A. Sloane_, Jul 29 2011"
			],
			"references": 4,
			"revision": 29,
			"time": "2021-05-25T01:37:12-04:00",
			"created": "2005-07-19T03:00:00-04:00"
		}
	]
}