{
	"greeting": "Greetings from The On-Line Encyclopedia of Integer Sequences! http://oeis.org/",
	"query": "id:A107922",
	"count": 1,
	"start": 0,
	"results": [
		{
			"number": 107922,
			"data": "3,13,17,18,19,21,20,19,21,23,26,27,26,27,30,42,48,137,51,52,53,54,63,73,88,90,101,110,123,113,140,115,118,121,110,123,128,133,149,48,137,113,140,133,149",
			"name": "Numbers k such that the sum of the terms of the continued fraction for the harmonic mean of k and the k-th prime is prime.",
			"link": [
				"Eric Weisstein's World of Mathematics, \u003ca href=\"http://mathworld.wolfram.com/ContinuedFraction.html\"\u003eContinued Fraction\u003c/a\u003e.",
				"Eric Weisstein's World of Mathematics, \u003ca href=\"http://mathworld.wolfram.com/HarmonicMean.html\"\u003eHarmonic Mean\u003c/a\u003e."
			],
			"xref": [
				"Cf. A107919 (sum of terms of continued fraction for the harmonic mean of n and n-th prime), A107923 (primes occurring in A107919)."
			],
			"keyword": "nonn",
			"offset": "1,1",
			"author": "_Zak Seidov_, May 28 2005",
			"references": 1,
			"revision": 9,
			"time": "2021-07-12T02:02:14-04:00",
			"created": "2005-07-19T03:00:00-04:00"
		}
	]
}