{
	"greeting": "Greetings from The On-Line Encyclopedia of Integer Sequences! http://oeis.org/",
	"query": "id:A107206",
	"count": 1,
	"start": 0,
	"results": [
		{
			"number": 107206,
			"data": "139,211,379,409,619,811,859,1051,1171,1201,1321,1459,1489,1609,1801,2179,2251,2281,2371,2539,2659,3019,3121,3169,3361,3529,3571,3769,3931,4099,4201,4651,5059,5419,5449,5641,5689,5779,5851,5881,6091",
			"name": "Primes of the form x^2 + 90y^2.",
			"comment": [
				"Discriminant = -360. See A107132 for more information."
			],
			"link": [
				"Vincenzo Librandi and Ray Chandler, \u003ca href=\"/A107206/b107206.txt\"\u003eTable of n, a(n) for n = 1..10000\u003c/a\u003e [First 1000 terms from Vincenzo Librandi]",
				"N. J. A. Sloane et al., \u003ca href=\"https://oeis.org/wiki/Binary_Quadratic_Forms_and_OEIS\"\u003eBinary Quadratic Forms and OEIS\u003c/a\u003e (Index to related sequences, programs, references)"
			],
			"mathematica": [
				"QuadPrimes2[1, 0, 90, 10000] (* see A106856 *)"
			],
			"program": [
				"(PARI) list(lim)=my(v=List(),w,t); for(x=1, sqrtint(lim\\1), w=x^2; for(y=1, sqrtint((lim-w)\\90), if(isprime(t=w+90*y^2), listput(v,t)))); Set(v) \\\\ _Charles R Greathouse IV_, Feb 10 2017"
			],
			"keyword": "nonn,easy",
			"offset": "1,1",
			"author": "_T. D. Noe_, May 13 2005",
			"references": 2,
			"revision": 18,
			"time": "2017-02-10T15:05:53-05:00",
			"created": "2005-07-19T03:00:00-04:00"
		}
	]
}