{
	"greeting": "Greetings from The On-Line Encyclopedia of Integer Sequences! http://oeis.org/",
	"query": "id:A107894",
	"count": 1,
	"start": 0,
	"results": [
		{
			"number": 107894,
			"data": "1,1,3,9,35,167,943,6379,48945,429651,4189865,45307601,535518109,6883110373,95435065935,1420468921893,22577620176887,381695573051099,6837601709298811,129375694813679215,2578070946813526485,53964818587883937807,1183805926540690127573",
			"name": "Sum over the products of factorials of parts in all partitions of n where the sum runs over the number of different parts only.",
			"link": [
				"Alois P. Heinz, \u003ca href=\"/A107894/b107894.txt\"\u003eTable of n, a(n) for n = 0..200\u003c/a\u003e"
			],
			"formula": [
				"a(n) ~ n! * (1 + 1/n + 3/n^2 + 12/n^3 + 65/n^4 + 443/n^5 + 3626/n^6 + 34811/n^7 + 384479/n^8 + 4806098/n^9 + 67109281/n^10), for coefficients see A256124. - _Vaclav Kotesovec_, Mar 15 2015"
			],
			"example": [
				"The partitions of 5 are 1+1+1+1+1, 1+1+1+2, 1+1+3, 1+2+2, 1+4, 2+3, 5, the corresponding products of factorials of parts are (when multiple parts are counted once only) 1!, 1!*2!, 1!*3!, 1!*2!, 1!*4!, 2!*3!, 5! and their sum is a(5) = 167."
			],
			"maple": [
				"b:= proc(n, i) option remember;",
				"      `if`(n=0 or i\u003c2, 1, b(n, i-1) +i!*add(b(n-i*j, i-1), j=1..n/i))",
				"    end:",
				"a:= n-\u003e b(n, n):",
				"seq(a(n), n=0..30); # _Alois P. Heinz_, Apr 04 2012"
			],
			"mathematica": [
				"Total[Times@@@(Union/@IntegerPartitions[#]!)]\u0026/@Range[20]  (* _Harvey P. Dale_, Feb 26 2011 *)",
				"b[n_, i_] := b[n, i] = If[n==0 || i\u003c2, 1, b[n, i-1] + i!*Sum[b[n-i*j, i-1], {j, 1, n/i}]]; a[n_] := b[n, n]; Table[a[n], {n, 0, 30}] (* _Jean-François Alcover_, Oct 29 2015, after _Alois P. Heinz_ *)"
			],
			"xref": [
				"Cf. A077365, A107895, A256124."
			],
			"keyword": "nonn",
			"offset": "0,3",
			"author": "_Thomas Wieder_, May 26 2005",
			"ext": [
				"a(0) inserted and more terms from _Alois P. Heinz_, Apr 04 2012"
			],
			"references": 3,
			"revision": 20,
			"time": "2015-10-29T07:09:12-04:00",
			"created": "2005-07-19T03:00:00-04:00"
		}
	]
}