{
	"greeting": "Greetings from The On-Line Encyclopedia of Integer Sequences! http://oeis.org/",
	"query": "id:A107919",
	"count": 1,
	"start": 0,
	"results": [
		{
			"number": 107919,
			"data": "4,6,7,16,14,16,21,21,28,26,25,32,29,36,33,34,37,47,41,43,41,48,89,52,58,53,53,60,57,59,68,63,66,75,69,75,74,78,75,110,78,83,88,102,85,92,100,349,111,104,97,101,103,109,104,119,115,119,111,119,112,126,127,124",
			"name": "Sum of terms of continued fraction for the harmonic mean of n and n-th prime.",
			"comment": [
				"Cf. A107918"
			],
			"link": [
				"Eric Weisstein's World of Mathematics, \u003ca href=\"http://mathworld.wolfram.com/ContinuedFraction.html\"\u003eContinued Fraction\u003c/a\u003e.",
				"Eric Weisstein's World of Mathematics, \u003ca href=\"http://mathworld.wolfram.com/HarmonicMean.html\"\u003eHarmonic Mean\u003c/a\u003e."
			],
			"example": [
				"a(10)=26 because 10th prime is 29, harmonic mean of 10 and 29 is 580/39 and continued fraction for 580/39 has terms {14,1,6,1,4} and sum of terms 26."
			],
			"mathematica": [
				"A107919[n_]:=PLus@@ContinuedFraction[HarmonicMean[{n, Prime[n]}]]"
			],
			"xref": [
				"Cf. A107918."
			],
			"keyword": "nonn",
			"offset": "1,1",
			"author": "_Zak Seidov_, May 28 2005",
			"references": 4,
			"revision": 5,
			"time": "2012-03-30T17:26:16-04:00",
			"created": "2005-07-19T03:00:00-04:00"
		}
	]
}