{
	"greeting": "Greetings from The On-Line Encyclopedia of Integer Sequences! http://oeis.org/",
	"query": "id:A107513",
	"count": 1,
	"start": 0,
	"results": [
		{
			"number": 107513,
			"data": "1,612,69192,3096108,75880080,1200854772,13577175768,117479955132,817605614880,4750742040452,23720309079912,104102585828172,408937561539504,1459118355905556,4786309424854008,14579158152013788,41583709699357248,111852394064751780",
			"name": "Coordination sequence for D_18 lattice",
			"keyword": "nonn",
			"offset": "0,2",
			"author": "_N. J. A. Sloane_, May 28 2005",
			"references": 0,
			"revision": 3,
			"time": "2012-03-30T16:50:15-04:00",
			"created": "2005-07-19T03:00:00-04:00"
		}
	]
}