{
	"greeting": "Greetings from The On-Line Encyclopedia of Integer Sequences! http://oeis.org/",
	"query": "id:A107515",
	"count": 1,
	"start": 0,
	"results": [
		{
			"number": 107515,
			"data": "1,760,105680,5802600,173706400,3335980632,45416596080,469222570440,3865485537600,26359226243000,153175255755792,776224339239720,3494649628001760,14191735033679640,52642318181020080,180240670086160008,574673195347190400,1719066064842900600",
			"name": "Coordination sequence for D_20 lattice",
			"keyword": "nonn",
			"offset": "0,2",
			"author": "_N. J. A. Sloane_, May 28 2005",
			"references": 0,
			"revision": 3,
			"time": "2012-03-30T16:50:15-04:00",
			"created": "2005-07-19T03:00:00-04:00"
		}
	]
}