{
	"greeting": "Greetings from The On-Line Encyclopedia of Integer Sequences! http://oeis.org/",
	"query": "id:A107915",
	"count": 1,
	"start": 0,
	"results": [
		{
			"number": 107915,
			"data": "1,35,490,4116,24696,116424,457380,1557270,4723719,13026013,33157124,78835120,176729280,376375104,766192176,1498581756,2828205765,5168991135,9177226366,15870391460,26794167400,44253495000,71627692500,113794603650,177694650315",
			"name": "a(n) = binomial(n+4,4)*binomial(n+5,4)*binomial(n+6,4)/75.",
			"comment": [
				"Kekulé numbers for certain benzenoids.",
				"Partial sums of A107917. - _Peter Bala_, Sep 21 2007"
			],
			"reference": [
				"S. J. Cyvin and I. Gutman, Kekulé structures in benzenoid hydrocarbons, Lecture Notes in Chemistry, No. 46, Springer, New York, 1988 (p. 229)."
			],
			"link": [
				"T. D. Noe, \u003ca href=\"/A107915/b107915.txt\"\u003eTable of n, a(n) for n = 0..1000\u003c/a\u003e",
				"Stefan Felsner, Eric Fusy, Marc Noy, and David Orden, \u003ca href=\"https://doi.org/10.1016/j.jcta.2010.03.017\"\u003eBijections for Baxter families and related objects\u003c/a\u003e, J. Combin. Theory Ser. A, 118(3):993-1020, 2011."
			],
			"formula": [
				"a(n) = C(n,n-2)*C(n+1,n-3)*C(n+2,n-4)/(5*3!), n\u003e=4. - _Zerinvary Lajos_, May 29 2007",
				"a(n-3) = 1/144*sum {1 \u003c= x_1, x_2, x_3 \u003c= n} x_1*x_2*x_3*(det V(x_1,x_2,x_3))^2 = 1/144*sum {1 \u003c= i,j,k \u003c= n} i*j*k*((i-j)(i-k)(j-k))^2, where V(x_1,x_2,x_3) is the Vandermonde matrix of order 3. - _Peter Bala_, Sep 21 2007",
				"G.f.: -(x^6+22*x^5+113*x^4+190*x^3+113*x^2+22*x+1)/(x-1)^13. - _Colin Barker_, Jun 06 2012"
			],
			"maple": [
				"a:=n-\u003e(1/75)*binomial(n+4,4)*binomial(n+5,4)*binomial(n+6,4): seq(a(n),n=0..27);",
				"seq(binomial(n,n-2)*binomial(n+1,n-3)*binomial(n+2,n-4)/(5*3!), n=4..22); # _Zerinvary Lajos_, May 29 2007"
			],
			"xref": [
				"Cf. A047819, A107917, A133708."
			],
			"keyword": "nonn,easy",
			"offset": "0,2",
			"author": "_Emeric Deutsch_, Jun 12 2005",
			"references": 7,
			"revision": 20,
			"time": "2021-04-20T08:38:57-04:00",
			"created": "2005-07-19T03:00:00-04:00"
		}
	]
}