{
	"greeting": "Greetings from The On-Line Encyclopedia of Integer Sequences! http://oeis.org/",
	"query": "id:A108790",
	"count": 1,
	"start": 0,
	"results": [
		{
			"number": 108790,
			"data": "2,1,5,2,1,1,3,1,4,3,1,3,1,3,1,2,2,2,2,1,1,1,1,4,2,2,2,2,1,4,1,5,4,1,4,1,4,1,4,1",
			"name": "Sequence of run lengths in A108788.",
			"xref": [
				"Cf. A108787, A108788, A108789."
			],
			"keyword": "nonn,easy",
			"offset": "1,1",
			"author": "_Philippe Deléham_, Jul 09 2005",
			"references": 2,
			"revision": 4,
			"time": "2013-09-08T13:30:44-04:00",
			"created": "2005-07-19T03:00:00-04:00"
		}
	]
}