{
	"greeting": "Greetings from The On-Line Encyclopedia of Integer Sequences! http://oeis.org/",
	"query": "id:A108982",
	"count": 1,
	"start": 0,
	"results": [
		{
			"number": 108982,
			"data": "1,6,29,146,729,3646,18229,91146,455729,2278646,11393229,56966146,284830729,1424153646,7120768229,35603841146,178019205729,890096028646,4450480143229,22252400716146,111262003580729,556310017903646",
			"name": "Inverse binomial of A003949.",
			"comment": [
				"Let A be the Hessenberg matrix of order n, defined by: A[1,j] = 1, A[i,i] = -3, A[i,i-1] = -1, and A[i,j] = 0 otherwise. Then, for n\u003e=1, a(n-1) = charpoly(A,2). - _Milan Janjic_, Jan 27 2010"
			],
			"link": [
				"G. C. Greubel, \u003ca href=\"/A108982/b108982.txt\"\u003eTable of n, a(n) for n = 0..1000\u003c/a\u003e",
				"\u003ca href=\"/index/Rec#order_02\"\u003eIndex entries for linear recurrences with constant coefficients\u003c/a\u003e, signature (4, 5)."
			],
			"formula": [
				"a(n) = 4*a(n-1) + 5*a(n-2), a(0) = 1, a(1) = 6.",
				"a(2n) = 5*a(2n-1) - 1 and a(2n+1) = 5*a(2n) + 1.",
				"a(n) = (7*5^n - (-1)^n)/6, with n\u003e=0. - _Paolo P. Lava_, Nov 19 2008",
				"From _G. C. Greubel_, Sep 25 2019: (Start)",
				"G.f.: (1 + 2*x)/((1+x)*(1-5*x)).",
				"E.g.f.: (7*exp(5*x) - exp(-x))/6. (End)"
			],
			"maple": [
				"seq((7*5^n - (-1)^n)/6, n=0..25); # _G. C. Greubel_, Sep 25 2019"
			],
			"mathematica": [
				"LinearRecurrence[{4,5},{1,6},30] (* _Harvey P. Dale_, Jul 07 2013 *)"
			],
			"program": [
				"(PARI) vector(26, n, (7*5^(n-1) + (-1)^n)/6) \\\\ _G. C. Greubel_, Sep 25 2019",
				"(MAGMA) [(7*5^n - (-1)^n)/6: n in [0..25]]; // _G. C. Greubel_, Sep 25 2019",
				"(Sage) [(7*5^n - (-1)^n)/6 for n in (0..25)] # _G. C. Greubel_, Sep 25 2019",
				"(GAP) List([0..25], n-\u003e (7*5^n - (-1)^n)/6); # _G. C. Greubel_, Sep 25 2019"
			],
			"keyword": "nonn",
			"offset": "0,2",
			"author": "_Philippe Deléham_, Jul 23 2005",
			"ext": [
				"Corrected and extended by _T. D. Noe_, Nov 07 2006"
			],
			"references": 1,
			"revision": 19,
			"time": "2019-09-25T20:32:51-04:00",
			"created": "2005-09-21T03:00:00-04:00"
		}
	]
}