{
	"greeting": "Greetings from The On-Line Encyclopedia of Integer Sequences! http://oeis.org/",
	"query": "id:A108796",
	"count": 1,
	"start": 0,
	"results": [
		{
			"number": 108796,
			"data": "0,0,1,1,3,4,7,9,16,21,33,46,68,95,140,187,266,372,507,683,948,1256,1692,2263,3003,3955,5248,6824,8921,11669,15058,19413,25128,32149,41129,52578,66740,84696,107389,135310,170277,214386,268151,335261,418896,521204",
			"name": "Number of pairs of partitions of n (into different parts) with empty intersection.",
			"comment": [
				"Counted as orderless pairs since intersection is commutative."
			],
			"link": [
				"Vaclav Kotesovec, \u003ca href=\"/A108796/b108796.txt\"\u003eTable of n, a(n) for n = 1..1050\u003c/a\u003e (terms 1..700 from Alois P. Heinz)"
			],
			"formula": [
				"a(n) = 1/2 * [(x*y)^n] Product_{j\u003e0} (1+x^j+y^j). - _Alois P. Heinz_, Mar 31 2017"
			],
			"example": [
				"Of the partitions of 12 into different parts, the partition (5+4+2+1) has an empty intersection with only (12) and (9+3)."
			],
			"mathematica": [
				"using DiscreteMath`Combinatorica`and ListPartitionsQ[n_Integer]:= Flatten[ Reverse /@ Table[(Range[m-1, 0, -1]+#1\u0026)/@ TransposePartition/@ Complement[Partitions[ n-m* (m-1)/2, m], Partitions[n-m*(m-1)/2, m-1]], {m, -1+Floor[1/2*(1+Sqrt[1+8*n])]}], 1]; Table[Plus@@Flatten[Outer[If[Intersection[Flatten[ #1], Flatten[ #2]]==={}, 1, 0]\u0026, ListPartitionsQ[k], ListPartitionsQ[k], 1]], {k, 48}]/2",
				"nmax = 50; p = 1; Do[p = Expand[p*(1 + x^j + y^j)]; p = Select[p, (Exponent[#, x] \u003c= nmax) \u0026\u0026 (Exponent[#, y] \u003c= nmax) \u0026], {j, 1, nmax}]; p = Select[p, Exponent[#, x] == Exponent[#, y] \u0026]; Table[Coefficient[p, x^n*y^n]/2, {n, 1, nmax}] (* _Vaclav Kotesovec_, Apr 07 2017 *)"
			],
			"xref": [
				"Column k=2 of A258280.",
				"Cf. A086737.",
				"Main diagonal of A284593 times (1/2)."
			],
			"keyword": "easy,nonn",
			"offset": "1,5",
			"author": "_Wouter Meeussen_, Jul 09 2005",
			"references": 5,
			"revision": 18,
			"time": "2018-05-26T02:56:57-04:00",
			"created": "2005-07-19T03:00:00-04:00"
		}
	]
}