{
	"greeting": "Greetings from The On-Line Encyclopedia of Integer Sequences! http://oeis.org/",
	"query": "id:A108801",
	"count": 1,
	"start": 0,
	"results": [
		{
			"number": 108801,
			"data": "2,4,10,38,368,29328,216591602",
			"name": "Erroneous version of A193675.",
			"comment": [
				"The OEIS policy is to include incorrect published sequences, giving a pointer to the correct version."
			],
			"keyword": "dead",
			"offset": "0,1",
			"author": "_N. J. A. Sloane_, Aug 02 2011",
			"references": 0,
			"revision": 10,
			"time": "2012-03-30T16:50:18-04:00",
			"created": "2005-07-19T03:00:00-04:00"
		}
	]
}