{
	"greeting": "Greetings from The On-Line Encyclopedia of Integer Sequences! http://oeis.org/",
	"query": "id:A108571",
	"count": 1,
	"start": 0,
	"results": [
		{
			"number": 108571,
			"data": "1,22,122,212,221,333,1333,3133,3313,3331,4444,14444,22333,23233,23323,23332,32233,32323,32332,33223,33232,33322,41444,44144,44414,44441,55555,122333,123233,123323,123332,132233,132323,132332,133223,133232,133322,155555",
			"name": "Any digit d in the sequence says: \"I am part of an integer in which you'll find d digits d\".",
			"comment": [
				"The sequence is finite. Last term: 999999999888888887777777666666555554444333221.",
				"Number of terms is 66712890763701234740813164553708284. - _Zak Seidov_, Jan 02 2007",
				"Fixed points of A139337. - _Reinhard Zumkeller_, Apr 14 2008",
				"Sequence contains squares (A181392) and cubes (A225886) but no higher powers, see Comments in A181392. - _Giovanni Resta_, May 19 2013"
			],
			"link": [
				"T. D. Noe, \u003ca href=\"/A108571/b108571.txt\"\u003eTable of n, a(n) for n=1..21056\u003c/a\u003e (terms \u003c 10^10)"
			],
			"example": [
				"23323 is in the sequence because it has two 2's and three 3's.",
				"23332 is in the sequence because it has two 2's and three 3's.",
				"23333 is not in the sequence because it has only one 2 and four 3's."
			],
			"program": [
				"(PARI) is(n)={ vecmin(n=vecsort(digits(n))) \u0026\u0026 #n==normlp(Set(n),1) \u0026\u0026 !for(i=1,#n, n[i+n[i]-1]==n[i] || return; i+n[i]\u003e#n || n[i+n[i]]\u003en[i] || return; n[i]\u003e1 \u0026\u0026 i+=n[i]-1)} \\\\ _M. F. Hasler_, Sep 22 2014",
				"(Python)",
				"def ok(n): s = str(n); return all(s.count(d) == int(d) for d in set(s))",
				"def aupto(limit): return [m for m in range(1, limit+1) if ok(m)]",
				"print(aupto(155555)) # _Michael S. Branicky_, Jan 22 2021"
			],
			"xref": [
				"Cf. A127007, A139337, A181392, A225886."
			],
			"keyword": "base,easy,fini,nonn",
			"offset": "1,2",
			"author": "_Eric Angelini_, Jul 05 2005",
			"references": 11,
			"revision": 36,
			"time": "2021-05-01T09:20:50-04:00",
			"created": "2005-07-19T03:00:00-04:00"
		}
	]
}