{
	"greeting": "Greetings from The On-Line Encyclopedia of Integer Sequences! http://oeis.org/",
	"query": "id:A108857",
	"count": 1,
	"start": 0,
	"results": [
		{
			"number": 108857,
			"data": "0,2,5,6,8,11,12,14,15,18,20,27,29,30,33,36,39,41,44,47,50,51,53,56,57,62,63,68,69,75,78,81,84,86,89,90,92,93,96,102,104,105,107,110,116,117,119,123,125,132,134,135,138,140,144,147,149,159,161,167,168,170,173",
			"name": "Numbers n such that 10*n + 131 is prime.",
			"link": [
				"Matthew House, \u003ca href=\"/A108857/b108857.txt\"\u003eTable of n, a(n) for n = 1..10000\u003c/a\u003e"
			],
			"formula": [
				"a(n) = A024912(n+6) - 13. - _Robert Israel_, Aug 09 2015"
			],
			"example": [
				"If n=0 then 10*n + 131 = 131 (prime).",
				"If n=33 then 10*n + 131 = 461 (prime)."
			],
			"maple": [
				"select(n -\u003e isprime(10*n+131), [$0..1000]); # _Robert Israel_, Aug 09 2015"
			],
			"program": [
				"(MAGMA) [n: n in [0..200] | IsPrime(10*n+131)]; // _Vincenzo Librandi_, Nov 13 2010",
				"(PARI) is(n)=isprime(10*n+131) \\\\ _Charles R Greathouse IV_, Jun 12 2017"
			],
			"xref": [
				"Cf. A024912."
			],
			"keyword": "nonn,easy",
			"offset": "1,2",
			"author": "_Parthasarathy Nambi_, Jul 11 2005",
			"references": 1,
			"revision": 24,
			"time": "2017-06-12T19:19:50-04:00",
			"created": "2005-07-19T03:00:00-04:00"
		}
	]
}