{
	"greeting": "Greetings from The On-Line Encyclopedia of Integer Sequences! http://oeis.org/",
	"query": "id:A108273",
	"count": 1,
	"start": 0,
	"results": [
		{
			"number": 108273,
			"data": "37,53,277,65557,4503599627370517",
			"name": "Consider primes p and q such that p = 2^k + 21 and q = 2^(k+1) + 21 for some k; sequence gives values of q.",
			"mathematica": [
				"Select[Partition[2^Range[100]+21,2,1],AllTrue[#,PrimeQ]\u0026][[All,2]] (* _Harvey P. Dale_, Jan 17 2021 *)"
			],
			"program": [
				"(PARI) g(m,n,b) = { for(x=0,n, y=m+b^x+b%2; z=m+b^(x+1)+b%2; if(isprime(y)\u0026isprime(z),print1(y\",\") ) ) }"
			],
			"xref": [
				"Cf. A108272."
			],
			"keyword": "nonn",
			"offset": "1,1",
			"author": "_Cino Hilliard_, Jun 29 2005",
			"references": 1,
			"revision": 13,
			"time": "2021-01-17T18:13:59-05:00",
			"created": "2005-07-19T03:00:00-04:00"
		}
	]
}