{
	"greeting": "Greetings from The On-Line Encyclopedia of Integer Sequences! http://oeis.org/",
	"query": "id:A108651",
	"count": 1,
	"start": 0,
	"results": [
		{
			"number": 108651,
			"data": "0,8,16,24,32,40,48,64,72,80,96,120,128,144,160,192,200,216,240,256,288,320,360,384,400,432,480,512,576,600,640,648,720,768,800,864,960,1000,1024,1080,1152,1200,1280,1296,1440,1536,1600,1728,1800,1920,1944,2000,2048",
			"name": "Multiples of 8 that are divisible by no prime \u003e 5.",
			"link": [
				"Harvey P. Dale, \u003ca href=\"/A108651/b108651.txt\"\u003eTable of n, a(n) for n = 0..700\u003c/a\u003e",
				"N. Heninger, E. M. Rains and N. J. A. Sloane, \u003ca href=\"http://arXiv.org/abs/math.NT/0509316\"\u003eOn the Integrality of n-th Roots of Generating Functions\u003c/a\u003e, J. Combinatorial Theory, Series A, 113 (2006), 1732-1745."
			],
			"mathematica": [
				"Select[8*Range[0,300],Max[FactorInteger[#][[All,1]]]\u003c6\u0026] (* _Harvey P. Dale_, Oct 10 2016 *)"
			],
			"keyword": "nonn",
			"offset": "0,2",
			"author": "_N. J. A. Sloane_ and _Nadia Heninger_, Jul 08 2005",
			"references": 1,
			"revision": 9,
			"time": "2016-10-10T14:20:10-04:00",
			"created": "2005-07-19T03:00:00-04:00"
		}
	]
}