{
	"greeting": "Greetings from The On-Line Encyclopedia of Integer Sequences! http://oeis.org/",
	"query": "id:A108654",
	"count": 1,
	"start": 0,
	"results": [
		{
			"number": 108654,
			"data": "3,4,6,7,9,15,27,40,72,134,170,204,237,240,285,288,592,613,1443,1524,2289,2292",
			"name": "Numbers k such that 10^k - 117 is prime.",
			"example": [
				"If k=3 then 10^k - 117 = 883 (prime).",
				"If k=40 then 10^k - 117 = 9999999999999999999999999999999999999883 (prime)."
			],
			"maple": [
				"a := proc (n) if isprime(10^n-117) = true then n else end if end proc; seq(a(n), n = 1 .. 1500); # _Emeric Deutsch_, Jul 09 2007"
			],
			"mathematica": [
				"Select[Range[3,2500],PrimeQ[10^#-117]\u0026]  (* _Harvey P. Dale_, Feb 18 2011 *)"
			],
			"program": [
				"(PARI) is(n)=ispseudoprime(10^n-117) \\\\ _Charles R Greathouse IV_, Jun 13 2017"
			],
			"keyword": "nonn,hard,more",
			"offset": "1,1",
			"author": "_Parthasarathy Nambi_, Jul 06 2005",
			"ext": [
				"More terms from _Emeric Deutsch_, Jul 09 2007",
				"More terms from _Harvey P. Dale_, Feb 18 2011"
			],
			"references": 0,
			"revision": 15,
			"time": "2019-02-26T05:03:19-05:00",
			"created": "2005-07-19T03:00:00-04:00"
		}
	]
}