{
	"greeting": "Greetings from The On-Line Encyclopedia of Integer Sequences! http://oeis.org/",
	"query": "id:A108133",
	"count": 1,
	"start": 0,
	"results": [
		{
			"number": 108133,
			"data": "1,2,2,3,3,3,2,3,3,1,2,2,3,3,3,1,2,2,3,3,3,1,2,2,3,3,3,2,3,3,1,2,2,3,3,3,1,2,2,3,3,3,1,2,2,3,3,3,3,1,2,2,3,3,3,1,2,2,3,3,3,2,3,3,1,2,2,3,3,3,1,2,2,3,3,3,1,2,2,3,3,3,2,3,3,1,2,2,3,3,3,1,2,2,3,3,3,1,2,2,3,3,3,2,3",
			"name": "Trajectory of 1 under the morphism 1-\u003e{2}, 2-\u003e{3}, 3-\u003e{1, 2, 2, 3, 3, 3}.",
			"comment": [
				"Three symbol Pisot substitution with characteristic polynomial x^3-3*x^2-2*x-1.",
				"Roots of polynomial are {{x -\u003e -0.313683 - 0.421053 *I}, {x -\u003e -0.313683 + 0.421053 *I}, {x -\u003e 3.62737}}"
			],
			"link": [
				"\u003ca href=\"/index/Fi#FIXEDPOINTS\"\u003eIndex entries for sequences that are fixed points of mappings\u003c/a\u003e"
			],
			"mathematica": [
				"s[1] = {2}; s[2] = {3}; s[3] = {1, 2, 2, 3, 3, 3}; t[a_] := Flatten[s /@ a]; p[0] = {1}; p[1] = t[p[0]]; p[n_] := t[p[n - 1]] aa = p[6]"
			],
			"keyword": "nonn",
			"offset": "0,2",
			"author": "_Roger L. Bagula_, Jun 04 2005",
			"ext": [
				"Edited by _N. J. A. Sloane_, Jun 12 2007"
			],
			"references": 0,
			"revision": 8,
			"time": "2016-10-02T10:21:26-04:00",
			"created": "2005-07-19T03:00:00-04:00"
		}
	]
}