{
	"greeting": "Greetings from The On-Line Encyclopedia of Integer Sequences! http://oeis.org/",
	"query": "id:A108006",
	"count": 1,
	"start": 0,
	"results": [
		{
			"number": 108006,
			"data": "1,4050,2849970,790732098,117804499650,10985102366482,704006117238450,33044308343827650,1189760087237806338,34040158662959356370,795788404903834834482,15548725810937163064770,258710283493654161327810,3723928950909732893697042,47000570744337894305898290",
			"name": "Coordination sequence for B_45 lattice",
			"keyword": "nonn",
			"offset": "0,2",
			"author": "_N. J. A. Sloane_, May 29 2005",
			"references": 0,
			"revision": 3,
			"time": "2012-03-30T16:50:16-04:00",
			"created": "2005-07-19T03:00:00-04:00"
		}
	]
}