{
	"greeting": "Greetings from The On-Line Encyclopedia of Integer Sequences! http://oeis.org/",
	"query": "id:A108877",
	"count": 1,
	"start": 0,
	"results": [
		{
			"number": 108877,
			"data": "204,310,1897,2015,2264,2877,3377,3731,4148,4701,5128",
			"name": "Location of restriction sites for the enzyme PfeI in PhiX174 DNA.",
			"link": [
				"Author?, \u003ca href=\"http://www.fermentas.com/techinfo/nucleicacids/sitesfx174.htm\"\u003ePhiX174 DNA Restriction Sites\u003c/a\u003e."
			],
			"xref": [
				"Cf. A101451."
			],
			"keyword": "fini,nonn",
			"offset": "1,1",
			"author": "_Parthasarathy Nambi_, Jul 14 2005",
			"references": 0,
			"revision": 2,
			"time": "2012-03-30T17:25:44-04:00",
			"created": "2005-07-19T03:00:00-04:00"
		}
	]
}