{
	"greeting": "Greetings from The On-Line Encyclopedia of Integer Sequences! http://oeis.org/",
	"query": "id:A108192",
	"count": 1,
	"start": 0,
	"results": [
		{
			"number": 108192,
			"data": "0,1,2,3,4,5,6,7,8,9,10,11,12,13,14,15,16,17,18,19,20,21,26,30,31,35,40,41,46,50,51,53,55,57,59,60,61,62,64,66,68,70,71,75,80,81,86,90,91,95,100,101,102,103,104,105,106,107,108,109,110,111,112,113,114,115,116",
			"name": "Numbers n such that n and the product of the digits of n have at least one digit in common.",
			"example": [
				"Product of digits of 26 is 12 (2*6=12); \"26\" and \"12\" share the digit \"2\"."
			],
			"keyword": "base,easy,nonn",
			"offset": "1,3",
			"author": "_Eric Angelini_, Jun 15 2005",
			"references": 0,
			"revision": 3,
			"time": "2012-03-31T13:46:52-04:00",
			"created": "2005-07-19T03:00:00-04:00"
		}
	]
}