{
	"greeting": "Greetings from The On-Line Encyclopedia of Integer Sequences! http://oeis.org/",
	"query": "id:A108030",
	"count": 1,
	"start": 0,
	"results": [
		{
			"number": 108030,
			"data": "0,20,30,42,44,50,60,62,78,98,102,110,120,128,144,158,162,170,174,180,182,188,194,198,210,240,242,252,258,260,264,272,294,302,314,348,350,368,380,392,404,408,432,450,462,470,482,492,498",
			"name": "Numbers k such that 151*k + 149 is prime.",
			"comment": [
				"149 and 151 are twin primes."
			],
			"link": [
				"Daniel Starodubtsev, \u003ca href=\"/A108030/b108030.txt\"\u003eTable of n, a(n) for n = 1..10000\u003c/a\u003e",
				"Chris Caldwell, \u003ca href=\"http://primes.utm.edu/lists/small/1ktwins.txt\"\u003eThe First 1,008 Twin Primes\u003c/a\u003e."
			],
			"example": [
				"If k=98 then 151*k + 149 = 14947 (prime)."
			],
			"mathematica": [
				"Select[Range[0, 500], PrimeQ[151*# + 149] \u0026] (* _Stefan Steinerberger_, Mar 03 2006 *)"
			],
			"program": [
				"(PARI) is(n)=isprime(151*n+149) \\\\ _Charles R Greathouse IV_, Jun 06 2017"
			],
			"keyword": "nonn,easy",
			"offset": "1,2",
			"author": "_Parthasarathy Nambi_, May 31 2005",
			"ext": [
				"More terms from _Stefan Steinerberger_, Mar 03 2006"
			],
			"references": 3,
			"revision": 18,
			"time": "2020-02-09T10:53:42-05:00",
			"created": "2005-07-19T03:00:00-04:00"
		}
	]
}