{
	"greeting": "Greetings from The On-Line Encyclopedia of Integer Sequences! http://oeis.org/",
	"query": "id:A109910",
	"count": 1,
	"start": 0,
	"results": [
		{
			"number": 109910,
			"data": "9,8,7,6,5,4,3,2,1,0,8,88,78,68,58,48,38,28,18,8,7,87,77,67,57,47,37,27,17,7,6,86,76,66,56,46,36,26,16,6,5,85,75,65,55,45,35,25,15,5,4,84,74,64,54,44,34,24,14,4,3,83,73,63,53,43,33,23,13,3,2",
			"name": "a(n) = 9's complement of digit reversal of n.",
			"link": [
				"Nathaniel Johnston, \u003ca href=\"/A109910/b109910.txt\"\u003eTable of n, a(n) for n = 0..10000\u003c/a\u003e"
			],
			"formula": [
				"a(n) = A061601(A004086(n)). - _Indranil Ghosh_, Jan 30 2017"
			],
			"example": [
				"a(17) = 28. Digit reversal of 17 = 71, 9's complement of 71 is 99-71 = 28."
			],
			"maple": [
				"R := proc(n) local nn, nnn: nn:=convert(n, base, 10): add(nn[nops(nn)+1-j]*10^(j-1), j=1..nops(nn)): end:",
				"A109910 := proc(n) return 10^length(max(R(n),1)) - R(n) - 1: end:",
				"seq(A109910(n),n=0..70); # _Nathaniel Johnston_, Apr 28 2011"
			],
			"mathematica": [
				"Table[10^If[# == 0, 1, IntegerLength@ #] - 1 - # \u0026@ FromDigits@ Reverse@ IntegerDigits@ n, {n, 0, 70}] (* _Michael De Vlieger_, Feb 01 2017 *)"
			],
			"program": [
				"(Python)",
				"def A109910(n):",
				"....x=int(str(n)[::-1])",
				"....return 10**len(str(x))-1-x # _Indranil Ghosh_, Jan 30 2017"
			],
			"xref": [
				"Cf. A004086, A061601, A109911."
			],
			"keyword": "base,easy,nonn,look",
			"offset": "0,1",
			"author": "_Amarnath Murthy_, Jul 16 2005",
			"references": 2,
			"revision": 19,
			"time": "2017-02-01T16:57:33-05:00",
			"created": "2005-07-19T03:00:00-04:00"
		}
	]
}