{
	"greeting": "Greetings from The On-Line Encyclopedia of Integer Sequences! http://oeis.org/",
	"query": "id:A109658",
	"count": 1,
	"start": 0,
	"results": [
		{
			"number": 109658,
			"data": "1,2,3,9,11,18,54,74,108,135,426,531,585,1361,3456,6771,7245,7392,11025,11957,21494,27063,41952,68494,72516,108742,128331",
			"name": "Numbers k such that the sum of the digits of k^sigma(k) is divisible by k.",
			"example": [
				"The sum of the digits of 531^sigma(531) is 9558 and 9558 is divisible by 531, so 531 is in the sequence."
			],
			"mathematica": [
				"Do[s = n^DivisorSigma[1, n]; k = Plus @@ IntegerDigits[s]; If[Mod[k, n] == 0, Print[n]], {n, 1, 10000}]",
				"Select[Range[150000],Divisible[Total[IntegerDigits[#^DivisorSigma[ 1,#]]],#]\u0026] (* _Harvey P. Dale_, Jul 19 2013 *)"
			],
			"keyword": "base,nonn,more",
			"offset": "1,2",
			"author": "_Ryan Propper_, Aug 06 2005",
			"ext": [
				"More terms from _Ryan Propper_, Oct 10 2005",
				"More terms from _Harvey P. Dale_, Jul 19 2013"
			],
			"references": 0,
			"revision": 12,
			"time": "2018-10-06T04:38:53-04:00",
			"created": "2005-09-21T03:00:00-04:00"
		}
	]
}