{
	"greeting": "Greetings from The On-Line Encyclopedia of Integer Sequences! http://oeis.org/",
	"query": "id:A109962",
	"count": 1,
	"start": 0,
	"results": [
		{
			"number": 109962,
			"data": "1,-1,1,4,-5,1,-22,30,-9,1,140,-200,72,-13,1,-969,1425,-570,130,-17,1,7084,-10626,4554,-1196,204,-21,1,-53820,81900,-36855,10647,-2142,294,-25,1,420732,-647280,302064,-93496,21080,-3472,400,-29,1,-3362260,5217300,-2504304,816816,-200277,37485,-5250,522",
			"name": "Inverse of Riordan array (1/(1-x), x/(1-x)^4), A109960.",
			"comment": [
				"Riordan array (g,f) where f/(1-f)^4=x and g=1/(1-f). First column is (-1)^n*A002293(n). Diagonal sums are A109963."
			],
			"link": [
				"Paul Drube, \u003ca href=\"https://arxiv.org/abs/2007.01892\"\u003eGeneralized Path Pairs and Fuss-Catalan Triangles\u003c/a\u003e, arXiv:2007.01892 [math.CO], 2020. See Figure 4 p. 8 (up to signs)."
			],
			"formula": [
				"Number triangle T(n, k)=(-1)^(n-k)*((4k+1)/(3n+k+1))*binomial(4n, n-k)."
			],
			"example": [
				"Rows begin",
				"1;",
				"-1,1;",
				"4,-5,1;",
				"-22,30,-9,1;",
				"140,-200,72,-13,1;",
				"-969,1425,-570,130,-17,1;"
			],
			"keyword": "easy,sign,tabl",
			"offset": "0,4",
			"author": "_Paul Barry_, Jul 06 2005",
			"references": 2,
			"revision": 8,
			"time": "2020-07-07T07:56:55-04:00",
			"created": "2005-07-19T03:00:00-04:00"
		}
	]
}