{
	"greeting": "Greetings from The On-Line Encyclopedia of Integer Sequences! http://oeis.org/",
	"query": "id:A109311",
	"count": 1,
	"start": 0,
	"results": [
		{
			"number": 109311,
			"data": "6,17,58,78,89,122,187,219,229,278,313,353,367,552,589,966,1162,1264,1530,1637,1745,1928,2343,2443,2540,2648,2789,3649,3778,3811,3900,4143,4191,5038,5228,5280,5426,5466,6169,6613,6718,7161,8225,9342,9607",
			"name": "Numbers n such that sum of n-th and (n+1)-st semiprimes is a square=q^2.",
			"formula": [
				"sp(n)+sp(n+1)=q^2, sp(n)=n-th semiprime."
			],
			"example": [
				"6 is ok because sp(6)=15, sp(7)=21, 15+21=36=6^2, sp(n)=A001358(n)=n-th semiprime."
			],
			"mathematica": [
				"Position[Partition[Select[Range[40000],PrimeOmega[#]==2\u0026],2,1],_?(IntegerQ[ Sqrt[Total[#]]]\u0026),1,Heads-\u003eFalse]//Flatten (* _Harvey P. Dale_, Jul 05 2018 *)"
			],
			"program": [
				"(PARI) lista(nn) = {vec = vector(nn, i, i); sp = select(i-\u003e(bigomega(i)==2), vec); for (i = 1, #sp-1, if (issquare(sp[i+1]+sp[i]), print1(i, \", \")););} \\\\ _Michel Marcus_, Oct 06 2013"
			],
			"xref": [
				"Values of q: A109312. Cf. A001358 = semiprimes, A092191 = numbers n such that sum of n-th and (n+1)-st semiprimes is a semiprime."
			],
			"keyword": "nonn",
			"offset": "1,1",
			"author": "_Zak Seidov_, Jun 27 2005",
			"ext": [
				"More terms from _Michel Marcus_, Oct 06 2013"
			],
			"references": 1,
			"revision": 8,
			"time": "2018-07-05T11:00:54-04:00",
			"created": "2005-07-19T03:00:00-04:00"
		}
	]
}