{
	"greeting": "Greetings from The On-Line Encyclopedia of Integer Sequences! http://oeis.org/",
	"query": "id:A109587",
	"count": 1,
	"start": 0,
	"results": [
		{
			"number": 109587,
			"data": "9,-216,4096,-1048576,64000000,-13492928512,1099511627776,-101559956668416,97656250000000000,-11384956040305711104,4722366482869645213696,-2822127947962858105470976,439804651110400000000000000,-73145782610367634657744257024",
			"name": "a(n)=[prime(n+2)-2*prime(n+1)-prime(n)]^(n+1), where prime(k) is the k-th prime.",
			"example": [
				"a(2)=-216 because (7-2*5-3)^3=(-6)^3=-216."
			],
			"maple": [
				"a:=n-\u003e(ithprime(n+2)-2*ithprime(n+1)-ithprime(n))^(n+1): seq(a(n),n=1..14);"
			],
			"mathematica": [
				"a = Table[Abs[(Prime[n + 2] - 2*Prime[n + 1] - Prime[n])^PrimePi[Prime[n + 1]]], {n, 1, 25}]"
			],
			"keyword": "sign",
			"offset": "1,1",
			"author": "_Roger L. Bagula_, Jun 29 2005",
			"references": 0,
			"revision": 2,
			"time": "2012-03-30T17:34:20-04:00",
			"created": "2005-07-19T03:00:00-04:00"
		}
	]
}