{
	"greeting": "Greetings from The On-Line Encyclopedia of Integer Sequences! http://oeis.org/",
	"query": "id:A109645",
	"count": 1,
	"start": 0,
	"results": [
		{
			"number": 109645,
			"data": "31,41,43,53,61,71,73,83,97,101,103,107,109,113,127,131,137,139,149,151,157,1511,163,167,1613,173,179,181,1811,191,193,197,199,1913,2011,2017,211,2111,2113,223,227,229,2213,2221,233,239,2311,241,2411,2417,2423",
			"name": "Primes whose decimal expansion has the form ij, where i and j are integers with j \u003c i.",
			"link": [
				"Robert Israel, \u003ca href=\"/A109645/b109645.txt\"\u003eTable of n, a(n) for n = 1..10000\u003c/a\u003e (first 126 terms from _R. J. Mathar_)"
			],
			"example": [
				"Primes pertaining to i=19 are 191, 193, 197, 199, 1913. (1911, 1915, 1917, etc. are composite.)",
				"For i=1 and 2 there are no such primes."
			],
			"maple": [
				"f:= proc(n) local R, d, t, tm;",
				"  R:= NULL;",
				"  for d from 1 to ilog10(n)+1 do",
				"    t:= 10^d*n + 10^(d-1)-1;",
				"    if d = ilog10(n)+1 then tm:= (10^d + 1)*n else tm:= 10^d*(n+1) fi;",
				"    do",
				"      t:= nextprime(t);",
				"      if t \u003e= tm then break fi;",
				"      R:= R, t;",
				"    od;",
				"  od;",
				"  R",
				"end proc:",
				"map(f, [$1..40]); # _Robert Israel_, Aug 04 2020"
			],
			"keyword": "base,look,nonn",
			"offset": "1,1",
			"author": "_Amarnath Murthy_, Aug 04 2005",
			"ext": [
				"More terms from _R. J. Mathar_, Feb 21 2008"
			],
			"references": 1,
			"revision": 17,
			"time": "2020-08-04T13:49:26-04:00",
			"created": "2005-09-21T03:00:00-04:00"
		}
	]
}