{
	"greeting": "Greetings from The On-Line Encyclopedia of Integer Sequences! http://oeis.org/",
	"query": "id:A109175",
	"count": 1,
	"start": 0,
	"results": [
		{
			"number": 109175,
			"data": "1,3,9,24,58,143,345,836,2018,4875,11769,28416,68602,165623,399849,965324,2330498,5626323,13583145,32792616,79168378,191129375,461427129,1113983636,2689394402,6492772443,15674939289,37842651024,91360241338",
			"name": "Minimum number of moves to solve the first Panex puzzle of order n of transferring a side tower to the center column.",
			"reference": [
				"Mark Manasse et al., The Panex puzzle, in Tribute to a Mathemagician, Peters, 2005, pp. 145-161."
			],
			"link": [
				"N. Baxter, \u003ca href=\"http://www.baxterweb.com/puzzles/panex/index.htm\"\u003ePanex Puzzle Resources\u003c/a\u003e."
			],
			"formula": [
				"for n\u003e=3: a(n) = ((7/4)*(-1 + sqrt(2)))*(1 + sqrt(2))^n + ((7/4)*(-1 - sqrt(2)))*(1 - sqrt(2))^n + ((-1)^n)/2 - 1."
			],
			"xref": [
				"Cf. A109224, A115185."
			],
			"keyword": "nonn",
			"offset": "1,2",
			"author": "_William Rex Marshall_, Aug 19 2005",
			"references": 2,
			"revision": 5,
			"time": "2012-03-30T18:39:49-04:00",
			"created": "2005-09-21T03:00:00-04:00"
		}
	]
}