{
	"greeting": "Greetings from The On-Line Encyclopedia of Integer Sequences! http://oeis.org/",
	"query": "id:A109161",
	"count": 1,
	"start": 0,
	"results": [
		{
			"number": 109161,
			"data": "5,15,16,27,28,29,41,42,43,44,57,58,59,60,61,75,76,77,78,79,80,95,96,97,98,99,100,101,117,118,119,120,121,122,123,124,141,142,143,144,145,146,147,148,149,167,168,169,170,171,172,173,174,175,176,195,196,197,198,199,200,201,202,203,204,205",
			"name": "Triangle read by rows: T(n, k) = n*(n+9) + k + 5, with T(0, 0) = 5 and T(1, 0) = 15.",
			"link": [
				"G. C. Greubel, \u003ca href=\"/A109161/b109161.txt\"\u003eRows n=0..100 of the triangle, flattened\u003c/a\u003e",
				"S. Helgason, \u003ca href=\"https://web.archive.org/web/20060913232213/http://ocw.mit.edu/NR/rdonlyres/Mathematics/18-755Fall-2004/12BE03CD-1B28-41C6-8D2A-85097D4EEB68/0/helgacentSTD.pdf\"\u003eA Centennial: Wilhelm Killing and the Exceptional Groups\u003c/a\u003e, Mathematical Intelligencer 12, no. 3 (1990). [See p. 3.]"
			],
			"formula": [
				"T(n, k) = n*(n+9) + k + 5, with T(0, 0) = 5 and T(1, 0) = 15."
			],
			"example": [
				"Triangle begins as:",
				"   5;",
				"  15, 16;",
				"  27, 28, 29;",
				"  41, 42, 43, 44;",
				"  57, 58, 59, 60, 61;",
				"  75, 76, 77, 78, 79, 80;"
			],
			"mathematica": [
				"T[n_, k_]:= If[n==0 \u0026\u0026 k==0, 5, If[k==0 \u0026\u0026 n==1, 15, n*(n+9) +k +5]];",
				"Table[T[n, k], {n, 0, 12}, {k, 0, n}]//Flatten"
			],
			"program": [
				"(Sage)",
				"@CachedFunction",
				"def T(n, k):",
				"    if (n==0 and k==0): return 5",
				"    elif (k==0 and n==1): return 15",
				"    else: return n*(n + 9) + k + 5",
				"flatten([[T(n,k) for k in (0..n)] for n in (0..12)]) # _G. C. Greubel_, Feb 05 2021"
			],
			"xref": [
				"Cf. A106373, A106374, A106403."
			],
			"keyword": "nonn,tabl,easy,less",
			"offset": "1,1",
			"author": "_Roger L. Bagula_, May 06 2007",
			"ext": [
				"More terms and edits by _G. C. Greubel_, Feb 05 2021"
			],
			"references": 3,
			"revision": 16,
			"time": "2021-02-06T08:51:57-05:00",
			"created": "2005-09-21T03:00:00-04:00"
		}
	]
}