{
	"greeting": "Greetings from The On-Line Encyclopedia of Integer Sequences! http://oeis.org/",
	"query": "id:A109462",
	"count": 1,
	"start": 0,
	"results": [
		{
			"number": 109462,
			"data": "2,3,5,11,43,803,2456315",
			"name": "Number of PN-equivalence classes of canalizing functions with n variables.",
			"comment": [
				"PN-equivalence allows complementing the individual variables."
			],
			"reference": [
				"D. E. Knuth, The Art of Computer Programming, Vol. 4, Section 7.1.1 (in preparation)."
			],
			"formula": [
				"For n\u003e1, a(n) = 2*A000616(n) - 1 because the only self-dual examples occur when the function is a projection onto a single variable."
			],
			"xref": [
				"See A102449 for definition and further references. Cf. A109460, A000616."
			],
			"keyword": "nonn",
			"offset": "0,1",
			"author": "_Don Knuth_, Aug 24 2005",
			"references": 3,
			"revision": 5,
			"time": "2015-08-08T23:58:50-04:00",
			"created": "2005-09-21T03:00:00-04:00"
		}
	]
}