{
	"greeting": "Greetings from The On-Line Encyclopedia of Integer Sequences! http://oeis.org/",
	"query": "id:A109218",
	"count": 1,
	"start": 0,
	"results": [
		{
			"number": 109218,
			"data": "3,23,28,34,47,86,92,107,632,723,754,772",
			"name": "Numbers k such that A109217(k) is prime.",
			"example": [
				"a(2) = 23 because A109217(23) = 1101111011111101111111 is prime."
			],
			"xref": [
				"Cf. A000037, A109217."
			],
			"keyword": "nonn,more",
			"offset": "1,1",
			"author": "_Jason Earls_, Jun 22 2005",
			"ext": [
				"Terms corrected by _Jinyuan Wang_, Mar 22 2020"
			],
			"references": 1,
			"revision": 7,
			"time": "2020-03-22T09:31:41-04:00",
			"created": "2005-07-19T03:00:00-04:00"
		}
	]
}