{
	"greeting": "Greetings from The On-Line Encyclopedia of Integer Sequences! http://oeis.org/",
	"query": "id:A109084",
	"count": 1,
	"start": 0,
	"results": [
		{
			"number": 109084,
			"data": "1,-1,-2,-5,-17,-63,-253,-1062,-4615,-20570,-93538,-432211,-2023567,-9578815,-45767162,-220431025,-1069079067,-5216655257,-25592441875,-126157044454,-624560659184,-3103962569509,-15480272621533,-77450458331100,-388627340240958,-1955249529839424",
			"name": "G.f. A(x) satisfies: A(x) = 1/G000041(x/A(x)) where G000041(x) is the g.f. of the partition numbers A000041.",
			"comment": [
				"Note: coefficient [x^n] A(x)^n = -A000203(n) (sum of divisors of n) for n\u003e0."
			],
			"link": [
				"Vaclav Kotesovec, \u003ca href=\"/A109084/b109084.txt\"\u003eTable of n, a(n) for n = 0..1000\u003c/a\u003e"
			],
			"formula": [
				"G.f.: A(x) = x/series_reversion(x*eta(x)). G.f.: A(x) = 1/G109085(x) where G109085(x) is g.f. of A109085.",
				"a(n) ~ -c * d^n / n^(3/2), where d = A270915 = 5.35270133348664268777241581416... and c = 0.146705445870000769931272287955221766131167... - _Vaclav Kotesovec_, May 13 2018"
			],
			"example": [
				"The initial terms [x^0] through [x^n] of n-th self-convolution",
				"are persistently small:",
				"A^0: 1;",
				"A^1: 1,-1;",
				"A^2: 1,-2,-3;",
				"A^3: 1,-3,-3,-4;",
				"A^4: 1,-4,-2,0,-7;",
				"A^5: 1,-5,0,5,0,-6;",
				"A^6: 1,-6,3,10,3,6,-12;",
				"A^7: 1,-7,7,14,0,7,0,-8;",
				"A^8: 1,-8,12,16,-10,0,-8,8,-15;",
				"A^9: 1,-9,18,15,-27,-9,-21,0,0,-13;"
			],
			"program": [
				"(PARI) a(n)=polcoeff(x/serreverse(x*eta(x+x*O(x^n))),n)"
			],
			"xref": [
				"Cf. A109085, A000041, A000203."
			],
			"keyword": "sign",
			"offset": "0,3",
			"author": "_Paul D. Hanna_, Jun 18 2005",
			"references": 4,
			"revision": 7,
			"time": "2018-05-13T07:45:08-04:00",
			"created": "2005-07-19T03:00:00-04:00"
		}
	]
}