{
	"greeting": "Greetings from The On-Line Encyclopedia of Integer Sequences! http://oeis.org/",
	"query": "id:A109092",
	"count": 1,
	"start": 0,
	"results": [
		{
			"number": 109092,
			"data": "1,6,53,619,8972,155067,3109269,70893872,1810283331,51151579619,1583934062306,53322541667501,1938521128765093,75673000809822670,3156390306304019025,140076451219218605087,6589244960448222899044,327461842184597424792623,17141751726301435708168665",
			"name": "Number of hierarchical orderings for n labeled elements with 2 possible classes A and B for levels l\u003e=2. Labeled analog of A104460.",
			"link": [
				"Alois P. Heinz, \u003ca href=\"/A109092/b109092.txt\"\u003eTable of n, a(n) for n = 1..140\u003c/a\u003e",
				"Robert Gill, \u003ca href=\"https://doi.org/10.1016/S0012-365X(97)00187-8\"\u003eThe number of elements in a generalized partition semilattice\u003c/a\u003e, Discrete mathematics 186.1-3 (1998): 125-134. See Example 2.",
				"Norihiro Nakashima, Shuhei Tsujie, \u003ca href=\"https://arxiv.org/abs/1904.09748\"\u003eEnumeration of Flats of the Extended Catalan and Shi Arrangements with Species\u003c/a\u003e, arXiv:1904.09748 [math.CO], 2019.",
				"N. J. A. Sloane and Thomas Wieder, \u003ca href=\"https://arxiv.org/abs/math/0307064\"\u003eThe Number of Hierarchical Orderings\u003c/a\u003e, arXiv:math/0307064 [math.CO], 2003; Order 21 (2004), 83-89."
			],
			"formula": [
				"G.f.: exp(-(exp(z)-1)/(-3+2*exp(z)))."
			],
			"example": [
				"Let | denote a separator among different hierarchies of the hierarchical ordering. Let : denote a separator between levels in a hierarchy.",
				"Furthermore, let a[1], a[2],... denote labeled elements.",
				"An element a[i] will be written as a[i,A] if it falls into class A and as a[i,B] if it falls into class B. Note that at level l=1 no classes appear.",
				"Then a(2) = 6 because a[1]a[2], a[1]|a[2], a[1]:a[2,A], a[2]:a[1,A], a[1]:a[2,B], a[2]:a[1,B]."
			],
			"maple": [
				"with(combstruct): A109092 := [T, {T=Set(Sequence(S,card\u003e=1)), S=Sequence(U,card\u003e=1), U=Set(Z,card\u003e=1)},labeled]; seq(count(A109092, size=j), j=1..20);"
			],
			"mathematica": [
				"With[{nn=20},CoefficientList[Series[Exp[-(Exp[x]-1)/(-3+2Exp[x])],{x,0,nn}],x] Range[0,nn]!] (* _Harvey P. Dale_, Sep 16 2016 *)"
			],
			"xref": [
				"Cf. A075729, A104460."
			],
			"keyword": "nonn",
			"offset": "1,2",
			"author": "_Thomas Wieder_, Jun 18 2005",
			"references": 3,
			"revision": 23,
			"time": "2019-05-30T16:58:02-04:00",
			"created": "2005-07-19T03:00:00-04:00"
		}
	]
}