{
	"greeting": "Greetings from The On-Line Encyclopedia of Integer Sequences! http://oeis.org/",
	"query": "id:A109634",
	"count": 1,
	"start": 0,
	"results": [
		{
			"number": 109634,
			"data": "0,1,4,16,56,188,608,1920,5952,18192,54976,164608,489088,1443776,4238336,12382208,36022272,104407296,301618176,868765696,2495715328,7152286720,20452548608,58369409024,166276481024,472876388352",
			"name": "Number of 1's that appear among all ternary strings of length n that contain no consecutive 1's.",
			"reference": [
				"Ralph P. Grimaldi, Ternary Strings with No Consecutive 1's, Ars Combin. 89 (2008), 321-343."
			],
			"formula": [
				"(sqrt(3)/18)*((1+sqrt(3))^n - (1-sqrt(3))^n)+(n/12)*((1+sqrt(3))^(n+1)+(1-sqrt(3))^(n+1))",
				"Conjecture: a(n)=A073388(n-1). [From _R. J. Mathar_, Aug 18 2008]"
			],
			"mathematica": [
				"f[n_] := Simplify[(2Sqrt[3] (-(1 - Sqrt[3])^n + (1 + Sqrt[3])^n) + 3n*((1 - Sqrt[3])^(1 + n) + (1 + Sqrt[3])^(1 + n)))/36]; Table[ f[n], {n, 0, 25}] (* _Robert G. Wilson v_ *)"
			],
			"keyword": "nonn",
			"offset": "0,3",
			"author": "Ralph P. Grimaldi (ralph.grimaldi(AT)rose-hulman.edu), Aug 03 2005",
			"ext": [
				"More terms from _Robert G. Wilson v_, Aug 05 2005"
			],
			"references": 0,
			"revision": 10,
			"time": "2013-10-31T12:17:28-04:00",
			"created": "2005-09-21T03:00:00-04:00"
		}
	]
}