{
	"greeting": "Greetings from The On-Line Encyclopedia of Integer Sequences! http://oeis.org/",
	"query": "id:A109687",
	"count": 1,
	"start": 0,
	"results": [
		{
			"number": 109687,
			"data": "11,22,63,24,405,96,2187,1408,124659,65610,4271211,38912,37614213,40507614,326836215,802816,10010754117,2496709818,23202182619,14417920,886805499321,76709256822,1474909801623,25165824,3922632451125",
			"name": "Smallest number ending with the digits of n that has exactly n prime factors (counted with multiplicity).",
			"example": [
				"a(5)=405 since 405=3*3*3*3*5 (5 factors) and ends with 5 and is the smallest such number"
			],
			"program": [
				"Program from _David Wasserman_, Sep 19 2008: (Start)",
				"(PARI) digitcount(n, base = 10) = local(d); if (n == 0, return(1)); d = 1 + floor(log(n)/log(base)); while (n \u003e= base^d, d++); while (n \u003c base^(d - 1), d--); d;",
				"{",
				"a(n) =",
				"local(r, num2, num5, d, M, pLeft, mainP, searchP, fixed, x, rNeeded, y, nextP);",
				"r = n;",
				"d = digitcount(n);",
				"while (num2 \u003c d \u0026\u0026 !(r%2),",
				"num2++;",
				"r = r/2",
				");",
				"while (num5 \u003c d \u0026\u0026 !(r%5),",
				"num5++;",
				"r = r/5",
				");",
				"M = 10^d/2^num2/5^num5;",
				"pLeft = n - num2 - num5;",
				"mainP = if (num2 == d, 2, 3);",
				"searchP = min(4, pLeft);",
				"fixed = 2^num2*5^num5;",
				"x = mainP^(pLeft - searchP);",
				"rNeeded = lift(Mod(r, M)/Mod(x, M));",
				"while (bigomega(rNeeded) != searchP,",
				"rNeeded += M",
				");",
				"y = fixed*x*rNeeded;",
				"if (mainP == 2,",
				"nextP = 3,",
				"nextP = if (num5 == d, 5, 7)",
				");",
				"while (searchP \u003c pLeft \u0026\u0026 fixed*x*nextP^(1 + searchP)/mainP \u003c y,",
				"searchP++;",
				"x /= mainP",
				");",
				"rNeeded = lift(Mod(r, M)/Mod(x, M));",
				"while (bigomega(rNeeded) != searchP,",
				"rNeeded += M",
				");",
				"return(fixed*x*rNeeded);",
				"} (End)"
			],
			"xref": [
				"Cf. A109665 [From _David Wasserman_, Sep 30 2008]"
			],
			"keyword": "base,nonn",
			"offset": "1,1",
			"author": "_Erich Friedman_, Aug 07 2005",
			"ext": [
				"More terms from _David Wasserman_, Sep 18 2008"
			],
			"references": 1,
			"revision": 5,
			"time": "2012-03-31T10:26:37-04:00",
			"created": "2005-09-21T03:00:00-04:00"
		}
	]
}