{
	"greeting": "Greetings from The On-Line Encyclopedia of Integer Sequences! http://oeis.org/",
	"query": "id:A109552",
	"count": 1,
	"start": 0,
	"results": [
		{
			"number": 109552,
			"data": "50,63,83,113,163,254,452,1019,4076",
			"name": "a(n) = floor(4076/(10-n)^2).",
			"comment": [
				"Undefined for n = 10."
			],
			"formula": [
				"a(n) = floor(4076/(10-n)^2)."
			],
			"mathematica": [
				"a = Table[4076/(10 - n)^2, {n, 1, 9}]",
				"Floor[a]"
			],
			"xref": [
				"Cf. A109553."
			],
			"keyword": "nonn,fini,full,less,dumb",
			"offset": "0,1",
			"author": "_Roger L. Bagula_, Jun 26 2005",
			"ext": [
				"Edited by _Joerg Arndt_, Oct 14 2018"
			],
			"references": 1,
			"revision": 9,
			"time": "2018-10-14T05:21:00-04:00",
			"created": "2005-07-19T03:00:00-04:00"
		}
	]
}