{
	"greeting": "Greetings from The On-Line Encyclopedia of Integer Sequences! http://oeis.org/",
	"query": "id:A109343",
	"count": 1,
	"start": 0,
	"results": [
		{
			"number": 109343,
			"data": "0,163,1304,2948,12511,29006,39789,44757,175506,232048,327955,765887,1429888",
			"name": "Numbers n such that frac((floor((Pi*(n))))^(1/3))=0.",
			"example": [
				"a(1)=163,floor(pi*163)=512 and 8^3=512"
			],
			"program": [
				"(PARI) g(n)=frac((floor((Pi*n)))^(1/3)) for(n=1,p,if(g(n)==0,print1(n,\",\")))"
			],
			"keyword": "nonn",
			"offset": "1,2",
			"author": "_Yalcin Aktar_, Aug 21 2005",
			"references": 0,
			"revision": 4,
			"time": "2012-03-31T14:45:57-04:00",
			"created": "2005-09-21T03:00:00-04:00"
		}
	]
}