{
	"greeting": "Greetings from The On-Line Encyclopedia of Integer Sequences! http://oeis.org/",
	"query": "id:A109750",
	"count": 1,
	"start": 0,
	"results": [
		{
			"number": 109750,
			"data": "66,78,120,4095,491536,523776",
			"name": "Admirable triangular numbers.",
			"comment": [
				"No further term between 523776 and 4050045000. - _R. J. Mathar_, Feb 11 2008"
			],
			"formula": [
				"A111592 INTERSECT A000217. - _R. J. Mathar_, Feb 11 2008"
			],
			"example": [
				"a(1)=66 because 11*(11+1)/2 = 66 and 1+2+3+11+22+33-6 = 66."
			],
			"xref": [
				"Cf. A111592."
			],
			"keyword": "more,nonn",
			"offset": "1,1",
			"author": "_Jason Earls_, Aug 11 2005",
			"references": 0,
			"revision": 5,
			"time": "2017-12-15T17:36:55-05:00",
			"created": "2005-09-21T03:00:00-04:00"
		}
	]
}