{
	"greeting": "Greetings from The On-Line Encyclopedia of Integer Sequences! http://oeis.org/",
	"query": "id:A109934",
	"count": 1,
	"start": 0,
	"results": [
		{
			"number": 109934,
			"data": "4,6,27,35,51,57,65,77,87,93,95,117,119,121,123,125,135,143,145,147,155,161,171,177,185,187,189,203,205,207,209,215,217,219,221,237,245,247,249,255,261,267,275,287,289,291,297,299,301,303,305,321,323,325,327",
			"name": "Composite numbers which are not the sum of two distinct primes.",
			"comment": [
				"Perhaps there are no even terms \u003e 6."
			],
			"link": [
				"T. D. Noe, \u003ca href=\"/A109934/b109934.txt\"\u003eTable of n, a(n) for n = 1..10000\u003c/a\u003e"
			],
			"mathematica": [
				"f[n_] := (p = 0; pn = PrimePi[n];",
				"Do[ If[n == Prime[i] + Prime[k], p = p + 1; If[p \u003e 2, Break[]]], {i, 1, pn},",
				"{k, i+1, pn}]; p );",
				"Select[Range[2, 400], ! PrimeQ[#] \u0026\u0026 f[#] == 0 \u0026 ] (* _Jean-François Alcover_, Mar 07 2011 *)"
			],
			"xref": [
				"Cf. A025583."
			],
			"keyword": "nonn",
			"offset": "1,1",
			"author": "_Amarnath Murthy_, Jul 19 2005",
			"references": 4,
			"revision": 10,
			"time": "2014-08-03T16:52:44-04:00",
			"created": "2005-07-19T03:00:00-04:00"
		}
	]
}