{
	"greeting": "Greetings from The On-Line Encyclopedia of Integer Sequences! http://oeis.org/",
	"query": "id:A109011",
	"count": 1,
	"start": 0,
	"results": [
		{
			"number": 109011,
			"data": "8,1,2,1,4,1,2,1,8,1,2,1,4,1,2,1,8,1,2,1,4,1,2,1,8,1,2,1,4,1,2,1,8,1,2,1,4,1,2,1,8,1,2,1,4,1,2,1,8,1,2,1,4,1,2,1,8,1,2,1,4,1,2,1,8,1,2,1,4,1,2,1,8,1,2,1,4,1,2,1,8,1,2,1,4,1,2,1,8,1,2,1,4,1,2,1,8,1,2,1,4",
			"name": "a(n) = gcd(n,8).",
			"link": [
				"\u003ca href=\"/index/Rec#order_08\"\u003eIndex entries for linear recurrences with constant coefficients\u003c/a\u003e, signature (0,0,0,0,0,0,0,1)."
			],
			"formula": [
				"a(n) = 1 + [2|n] + 2*[4|n] + 4*[8|n], where [x|y] = 1 when x divides y, 0 otherwise.",
				"a(n) = a(n-8).",
				"Multiplicative with a(p^e) = gcd(p^e, 8). - _David W. Wilson_, Jun 12 2005",
				"G.f.: ( -8 - x - 2*x^2 - x^3 - 4*x^4 - x^5 - 2*x^6 - x^7 ) / ( (x-1)*(1+x)*(x^2+1)*(x^4+1) ). - _R. J. Mathar_, Apr 04 2011",
				"Dirichlet g.f.: zeta(s)*(1 + 1/2^s + 2/4^s + 4/8^s). - _R. J. Mathar_, Apr 04 2011",
				"a(n) = 2^(-(101*m^7 - 2464*m^6 + 23786*m^ 5 -115360*m^4 + 293909*m^3 - 371056*m^2 + 186204*m - 15120)/5040) where m = (n mod 8). - _Luce ETIENNE_, Nov 18 2018"
			],
			"mathematica": [
				"a[n_]:= GCD[n,8]; Array[a, 100, 0] (* _Stefano Spezia_, Nov 19 2018 *)"
			],
			"program": [
				"(PARI) a(n) = gcd(n, 8) \\\\ _David A. Corneth_, Nov 19 2018"
			],
			"xref": [
				"Cf. A010877, A109004."
			],
			"keyword": "nonn,easy,mult",
			"offset": "0,1",
			"author": "_Mitch Harris_",
			"references": 5,
			"revision": 32,
			"time": "2019-02-12T04:41:09-05:00",
			"created": "2005-07-19T03:00:00-04:00"
		}
	]
}