{
	"greeting": "Greetings from The On-Line Encyclopedia of Integer Sequences! http://oeis.org/",
	"query": "id:A109880",
	"count": 1,
	"start": 0,
	"results": [
		{
			"number": 109880,
			"data": "1,7,19,91,127,721,919,14491,19441,113491,177877,194311,778771,1081801,1188811,1767169,1927207,1946491,7027291,9617671,16056847,74775169,74865061,96157747,129869461,164968921,167828761,180676081,189202267,757333297,762202981,792333757,1917766117,7116677191",
			"name": "Numbers n such that n and its digit reversal both are difference of successive cubes.",
			"comment": [
				"A subsequence of A109879."
			],
			"example": [
				"19 = 3^3-2^3 and 91 = 6^3-5^3."
			],
			"mathematica": [
				"okQ[x_]:=Module[{revx=FromDigits[Reverse[IntegerDigits[x]]]},And@@(And@@IntegerQ/@(n/.Solve[1+3n+3n^2==x,n])\u0026\u0026And@@IntegerQ/@(n/.Solve[1+3n+3n^2==revx,n]))] Select[Range[90000], okQ] - _Harvey P. Dale_, Aug 06 2007"
			],
			"xref": [
				"Cf. A109879."
			],
			"keyword": "base,nonn",
			"offset": "1,2",
			"author": "_Amarnath Murthy_, Jul 10 2005",
			"ext": [
				"More terms from _Harvey P. Dale_, Aug 06 2007",
				"23 more terms from _Donovan Johnson_, Feb 21 2008"
			],
			"references": 1,
			"revision": 6,
			"time": "2013-12-05T19:57:00-05:00",
			"created": "2005-07-19T03:00:00-04:00"
		}
	]
}