{
	"greeting": "Greetings from The On-Line Encyclopedia of Integer Sequences! http://oeis.org/",
	"query": "id:A109484",
	"count": 1,
	"start": 0,
	"results": [
		{
			"number": 109484,
			"data": "1,0,0,0,0,3472,43176,718704,7302603,53649456,273963144,748966224,-6551114640,-160183917936,-2262852226264,-25565623067152,-240487533289836,-1840197404024784,-10408152419469112,-19967067469286448,539881575330718208,10978531155684159696",
			"name": "G.f.: 4th root of weight enumerator of [64,39,10] extended BCH code (cf. A109483).",
			"link": [
				"N. Heninger, E. M. Rains and N. J. A. Sloane, \u003ca href=\"http://arXiv.org/abs/math.NT/0509316\"\u003eOn the Integrality of n-th Roots of Generating Functions\u003c/a\u003e, J. Combinatorial Theory, Series A, 113 (2006), 1732-1745."
			],
			"keyword": "sign",
			"offset": "0,6",
			"author": "_N. J. A. Sloane_ and _Nadia Heninger_, Aug 29 2005",
			"references": 1,
			"revision": 8,
			"time": "2021-07-03T21:18:22-04:00",
			"created": "2005-09-21T03:00:00-04:00"
		}
	]
}