{
	"greeting": "Greetings from The On-Line Encyclopedia of Integer Sequences! http://oeis.org/",
	"query": "id:A110161",
	"count": 1,
	"start": 0,
	"results": [
		{
			"number": 110161,
			"data": "0,1,0,0,0,-1,0,-1,0,0,0,1,0,1,0,0,0,-1,0,-1,0,0,0,1,0,1,0,0,0,-1,0,-1,0,0,0,1,0,1,0,0,0,-1,0,-1,0,0,0,1,0,1,0,0,0,-1,0,-1,0,0,0,1,0,1,0,0,0,-1,0,-1,0,0,0,1,0,1,0,0,0,-1,0,-1,0,0,0,1,0,1,0,0,0,-1,0,-1,0,0,0,1,0,1,0,0,0,-1,0,-1,0",
			"name": "Expansion of x(1-x^2)/(1-x^2+x^4).",
			"comment": [
				"Transform of A002605 by the Riordan array A102587. Denominator is the 12th cyclotomic polynomial."
			],
			"link": [
				"Antti Karttunen, \u003ca href=\"/A110161/b110161.txt\"\u003eTable of n, a(n) for n = 0..65537\u003c/a\u003e",
				"\u003ca href=\"/index/Rec#order_04\"\u003eIndex entries for linear recurrences with constant coefficients\u003c/a\u003e, signature (0,1,0,-1)."
			],
			"formula": [
				"Periodic of length 12: 0, 1, 0, 0, 0, -1, 0, -1, 0, 0, 0, 1. - _T. D. Noe_, Dec 12 2006",
				"a(n)=(1/12)*{[n mod 12]-[(n+1) mod 12]-[(n+4) mod 12]+[(n+5) mod 12]-[(n+6) mod 12]+[(n+7) mod 12]+[(n+10) mod 12]-[(n+11) mod 12]}, with n\u003e=0. - _Paolo P. Lava_, Jun 01 2007",
				"Euler transform of length 12 sequence [ 0, 0, 0, -1, 0, -1, 0, 0, 0, 0, 0, 1]. - _Michael Somos_, Jun 11 2007",
				"a(n) is multiplicative with a(2^e) = a(3^e) = 0^e, a(p^e) = 1 if p == 1, 11 (mod 12), a(p^e) = (-1)^e if p == 5, 7 (mod 12). - _Michael Somos_, Jun 11 2007",
				"G.f.: x * (1 - x^4) * (1 - x^6) / (1 - x^12). a(n) = a(-n) = -a(n + 6) for all n in Z. - _Michael Somos_, Jun 11 2007",
				"a(2*n - 1) = A010892(n). - _Michael Somos_, Jan 29 2015"
			],
			"mathematica": [
				"a[ n_] := JacobiSymbol[ 12, n]; (* _Michael Somos_, Jan 29 2015 *)",
				"LinearRecurrence[{0,1,0,-1},{0,1,0,0},110] (* _Harvey P. Dale_, Jul 11 2015 *)"
			],
			"program": [
				"(PARI) {a(n) = kronecker( 12, n)}; /* _Michael Somos_, Jun 11 2007 */"
			],
			"xref": [
				"Cf. A010892, A322796."
			],
			"keyword": "easy,sign,mult",
			"offset": "0,1",
			"author": "_Paul Barry_, Jul 14 2005",
			"ext": [
				"Corrected by _T. D. Noe_, Dec 12 2006"
			],
			"references": 11,
			"revision": 24,
			"time": "2019-09-28T22:18:20-04:00",
			"created": "2005-07-19T03:00:00-04:00"
		}
	]
}