{
	"greeting": "Greetings from The On-Line Encyclopedia of Integer Sequences! http://oeis.org/",
	"query": "id:A110368",
	"count": 1,
	"start": 0,
	"results": [
		{
			"number": 110368,
			"data": "10,19,199,37819,1429936399,2044718092315659619,4180872077042990313463432060226288599,17479691324597767931283328689425028720038746822457352536058485868000785419",
			"name": "Integers with mutual residues of 9.",
			"comment": [
				"This is the special case k=9 of sequences with exact mutual k-residues. In general, a(1)=k+1 and a(n)=min{m | m\u003ea(n-1), mod(m,a(i))=k, i=1,...,n-1}. k=1 gives Sylvester's sequence A000058 and k=2 Fermat sequence A000215."
			],
			"link": [
				"A. V. Aho and N. J. A. Sloane, \u003ca href=\"https://www.fq.math.ca/Scanned/11-4/aho-a.pdf\"\u003eSome doubly exponential sequences\u003c/a\u003e, Fibonacci Quarterly, Vol. 11, No. 4 (1973), pp. 429-437, \u003ca href=\"http://neilsloane.com/doc/doubly.html\"\u003ealternative link\u003c/a\u003e.",
				"Stanislav Drastich, \u003ca href=\"http://arxiv.org/abs/math/0202010\"\u003eRapid growth sequences\u003c/a\u003e, arXiv:math/0202010 [math.GM], 2002.",
				"S. W. Golomb, \u003ca href=\"http://www.jstor.org/stable/2311857\"\u003eOn certain nonlinear recurring sequences\u003c/a\u003e, Amer. Math. Monthly 70 (1963), 403-405.",
				"S. Mustonen, \u003ca href=\"http://www.survo.fi/papers/resseq.pdf\"\u003eOn integer sequences with mutual k-residues\u003c/a\u003e",
				"\u003ca href=\"/index/Aa#AHSL\"\u003eIndex entries for sequences of form a(n+1)=a(n)^2 + ...\u003c/a\u003e."
			],
			"formula": [
				"a(n) ~ c^(2^n), where c = 1.9324294501525084771045650938374200605001383645783351474944965038078432359... . - _Vaclav Kotesovec_, Dec 17 2014"
			],
			"mathematica": [
				"RecurrenceTable[{a[1]==10, a[n]==a[n-1]*(a[n-1]-9)+9}, a, {n, 1, 10}] (* _Vaclav Kotesovec_, Dec 17 2014 *)"
			],
			"xref": [
				"Column k=9 of A177888."
			],
			"keyword": "nonn",
			"offset": "1,1",
			"author": "_Seppo Mustonen_, Sep 04 2005",
			"references": 1,
			"revision": 20,
			"time": "2021-04-07T02:49:57-04:00",
			"created": "2005-09-21T03:00:00-04:00"
		}
	]
}