{
	"greeting": "Greetings from The On-Line Encyclopedia of Integer Sequences! http://oeis.org/",
	"query": "id:A110339",
	"count": 1,
	"start": 0,
	"results": [
		{
			"number": 110339,
			"data": "1,2,4,3,9,15,8,16,28,32,5,25,35,55,65,6,12,18,24,36,48,7,49,77,91,119,133,161,40,64,80,88,104,128,136,152,27,63,81,99,117,153,171,189,207,10,20,50,70,100,130,140,160,170,190,11,121,143,187,209,253,319,341,407,451,473,60,72,84,96,108,120,144,168,180,192,204,216,13,169",
			"name": "Triangular array read by rows: the n-th row contains the first n multiples of n not included earlier that are coprime to n-1 and n+1.",
			"example": [
				"1",
				"2 4",
				"3 9 15",
				"8 16 28 32",
				"5 25 35 55 65 (45 skipped as 45 is not coprime to 6).",
				"6 12 18 24 36 48",
				"..."
			],
			"xref": [
				"Cf. A110340, A110341."
			],
			"keyword": "easy,nonn,tabl",
			"offset": "1,2",
			"author": "_Amarnath Murthy_, Jul 20 2005",
			"ext": [
				"Corrected definition and more terms. - _David Wasserman_, Nov 19 2008"
			],
			"references": 2,
			"revision": 6,
			"time": "2013-12-05T19:57:01-05:00",
			"created": "2005-09-21T03:00:00-04:00"
		}
	]
}