{
	"greeting": "Greetings from The On-Line Encyclopedia of Integer Sequences! http://oeis.org/",
	"query": "id:A110714",
	"count": 1,
	"start": 0,
	"results": [
		{
			"number": 110714,
			"data": "2,23,91011,34353637,4344454647,646566676869,567891011,10541055105610571058105910601061,291292293294295296297298299,130131132133134135136137138139,811812813814815816817818819820821,216621672168216921702171217221732174217521762177,851852853854855856857858859860861862863,8485868788899091929394959697,285286287288289290291292293294295296297298299,746747748749750751752753754755756757758759760761",
			"name": "Beginning with 2, concatenation of n successive numbers such that every partial concatenation is a prime.",
			"comment": [
				"The first 16 terms begin respectively with 2,2,9,34,43,64,5,1054,291,130,811,2166,851,84,285,746."
			],
			"example": [
				"2,223,22391011,2239101134353637 are all primes."
			],
			"xref": [
				"Cf. A110715."
			],
			"keyword": "base,nonn",
			"offset": "1,1",
			"author": "_Amarnath Murthy_, Aug 05 2005",
			"ext": [
				"More terms from _David Wasserman_, Dec 12 2008"
			],
			"references": 7,
			"revision": 4,
			"time": "2013-12-05T19:57:03-05:00",
			"created": "2005-09-21T03:00:00-04:00"
		}
	]
}