{
	"greeting": "Greetings from The On-Line Encyclopedia of Integer Sequences! http://oeis.org/",
	"query": "id:A110954",
	"count": 1,
	"start": 0,
	"results": [
		{
			"number": 110954,
			"data": "1,3,11,29,73,191,479,1201,3011,7529,18839,47111,117779,294461,736159,1840429,4601099,11502779,28756957,71892397,179730997,449327503,1123318769,2808296923,7020742321,17551855831,43879639613,109699099033",
			"name": "a(1) = 1; a(n) = nextprime(2.5*a(n-1)) for n \u003e 1.",
			"example": [
				"a(6) = nextprime(2.5*a(5)) = nextprime(2.5*73) = nextprime(182.5) = 191."
			],
			"mathematica": [
				"\u003c\u003cNumberTheory`; p = 1; Print[p]; Do[p = NextPrime[p*2.5]; Print[p], {n, 2, 30}]"
			],
			"keyword": "nonn",
			"offset": "1,2",
			"author": "_Ryan Propper_, Sep 25 2005",
			"references": 0,
			"revision": 2,
			"time": "2013-10-02T15:12:49-04:00",
			"created": "2006-01-24T03:00:00-05:00"
		}
	]
}