{
	"greeting": "Greetings from The On-Line Encyclopedia of Integer Sequences! http://oeis.org/",
	"query": "id:A110703",
	"count": 1,
	"start": 0,
	"results": [
		{
			"number": 110703,
			"data": "3,15,27,30,42,75,90,105,135,147,165,243,252,270,273,315,363,375,378,420,462,495,507,612,660,675,693,735,750,780,810,855,858,867,945,1050,1083,1155,1170,1215,1287,1323,1365,1470,1485,1518,1587,1785,1815,1875,1950",
			"name": "Numbers S with two neighboring run sums (sum of positive integer runs) S = a+(a+1)+..+b=(b+1)+(b+2)...+c, 0\u003ca\u003cb\u003cc.",
			"comment": [
				"In other words, numbers n such that a list of consecutive numbers can be split into two parts in which their sums both equal n. - _A. D. Skovgaard_, May 22 2017",
				"If the two runs overlap in one number, the runs are Friends and their sums are A110701. The sums are the difference of two triangular numbers A000217.",
				"The subsequence where there is more than one possible splitting begins 105, 945, 1365, 2457, 2625, 3990, 5145, 8505, ... - _Jean-François Alcover_, May 22 2017",
				"a(n) seems to always be divisible by 3.- _A. D. Skovgaard_, May 22 2017. This is true. Sequence lists values of n = t(t+1)/2 - k(k+1)/2 = m(m+1)/2 - t(t+1)/2 with k \u003c t \u003c m. Since any triangular number must be of the form 3w or 3w+1, then there are two possibilities for n = 3w - k(k+1)/2 = m(m+1)/2 - 3w or n = 3w + 1 - k(k+1)/2 = m(m+1)/2 - 3w - 1. For first case, if k(k+1)/2 = 3u+1, there is no solution for m. Similarly for second case, if k(k+1)/2 = 3u, there is no solution for m. So always n must be divisible by 3. - _Altug Alkan_, May 22 2017"
			],
			"link": [
				"Ron Knott \u003ca href=\"http://www.maths.surrey.ac.uk/hosted-sites/R.Knott/runsums/\"\u003eRunsums\u003c/a\u003e",
				"T. Verhoeff, \u003ca href=\"https://cs.uwaterloo.ca/journals/JIS/trapzoid.html\"\u003eRectangular and Trapezoidal Arrangements\u003c/a\u003e, J. Integer Sequences, Vol. 2, 1999, #99.1.6."
			],
			"example": [
				"3 = 1+2 = 3, so 3 is a term.",
				"15 = 4+5+6 = 7+8 so 15 is a term.",
				"a(6) = 75 because 75 = 3+4+5+6+7+8+9+10+11+12 = 13+14+15+16+17."
			],
			"mathematica": [
				"Select[Range[1000], False =!= Reduce[# == Sum[k, {k, x, y}] == Sum[k, {k, y + 1, z}] \u0026\u0026 z \u003e= y \u003e= x \u003e 0, {x, y, z}, Integers] \u0026] (* _Giovanni Resta_, May 22 2017 *)"
			],
			"xref": [
				"Cf. A001227, A094550, A110701, A110702."
			],
			"keyword": "nonn",
			"offset": "1,1",
			"author": "_Ron Knott_, Aug 04 2005",
			"ext": [
				"Initial 3 added by _A. D. Skovgaard_, May 22 2017"
			],
			"references": 2,
			"revision": 19,
			"time": "2017-05-26T22:32:57-04:00",
			"created": "2005-09-21T03:00:00-04:00"
		}
	]
}