{
	"greeting": "Greetings from The On-Line Encyclopedia of Integer Sequences! http://oeis.org/",
	"query": "id:A110839",
	"count": 1,
	"start": 0,
	"results": [
		{
			"number": 110839,
			"data": "1,120,1820,8008,12870,8008,1820,120,1",
			"name": "Weight enumerator of [16,15,2] even weight code (the Reed-Muller code RM(3,4)).",
			"link": [
				"N. Heninger, E. M. Rains and N. J. A. Sloane, \u003ca href=\"http://arXiv.org/abs/math.NT/0509316\"\u003eOn the Integrality of n-th Roots of Generating Functions\u003c/a\u003e, J. Combinatorial Theory, Series A, 113 (2006), 1732-1745."
			],
			"example": [
				"x^16+120*x^14*y^2+1820*x^12*y^4+8008*x^10*y^6+12870*x^8*y^8+8008*x^6*y^10+1820*x^4*y^12+120*x^2*y^14+y^16"
			],
			"keyword": "nonn,fini,full",
			"offset": "0,2",
			"author": "_N. J. A. Sloane_ and _Nadia Heninger_, Aug 18 2005",
			"references": 2,
			"revision": 7,
			"time": "2012-03-30T18:54:36-04:00",
			"created": "2005-09-21T03:00:00-04:00"
		}
	]
}