{
	"greeting": "Greetings from The On-Line Encyclopedia of Integer Sequences! http://oeis.org/",
	"query": "id:A110751",
	"count": 1,
	"start": 0,
	"results": [
		{
			"number": 110751,
			"data": "1,2,3,4,5,6,7,8,9,11,22,33,44,55,66,77,88,99,101,111,121,131,141,151,161,171,181,191,202,212,222,232,242,252,262,272,282,292,303,313,323,333,343,353,363,373,383,393,404,414,424,434,444,454,464,474,484,494",
			"name": "Numbers n such that n and its digital reversal have the same prime divisors.",
			"comment": [
				"Contains the palindromes A002113 as a subsequence. 1089 and 2178 are the first two non-palindromic terms. Any number of concatenations of 1089 with itself or 2178 with itself gives a term; e.g. 10891089 etc. Hence there are infinitely many non-palindromic terms. They are given in A110819."
			],
			"link": [
				"Derek Orr, \u003ca href=\"/A110751/b110751.txt\"\u003eTable of n, a(n) for n = 1..1000\u003c/a\u003e"
			],
			"example": [
				"1089 = 3^2*11^2, 9801 = 3^4*11^2."
			],
			"mathematica": [
				"Select[ Range[ 500], First /@ FactorInteger[ # ] == First /@ FactorInteger[ FromDigits[ Reverse[ IntegerDigits[ # ]]]] \u0026] (* _Robert G. Wilson v_ *)"
			],
			"program": [
				"(PARI) is_A110751(n)={ local(r=eval(concat(vecextract(Vec(Str(n)),\"-1..1\")))); r==n || factor(r)[,1]==factor(n)[,1] } /* _M. F. Hasler_ */",
				"(Python)",
				"from sympy import primefactors",
				"A110751 = [n for n in range(1,10**5) if primefactors(n) == primefactors(int(str(n)[::-1]))] # _Chai Wah Wu_, Aug 14 2014"
			],
			"xref": [
				"Cf. A002113, A110819."
			],
			"keyword": "base,easy,nonn",
			"offset": "1,2",
			"author": "_Amarnath Murthy_, Aug 11 2005",
			"ext": [
				"Edited and extended by _Robert G. Wilson v_, Sep 21 2005",
				"Corrected comment, added PARI code. - _M. F. Hasler_, Nov 16 2008"
			],
			"references": 14,
			"revision": 18,
			"time": "2019-12-07T12:18:25-05:00",
			"created": "2005-09-21T03:00:00-04:00"
		}
	]
}