{
	"greeting": "Greetings from The On-Line Encyclopedia of Integer Sequences! http://oeis.org/",
	"query": "id:A110691",
	"count": 1,
	"start": 0,
	"results": [
		{
			"number": 110691,
			"data": "1,45,632,4825,25227,101822,340416,986094,2551725,6028099,13209768,27179087,53000311,98685900,176508416,304743564,509943033,829849833,1317083800,2043740853,3107066435,4636381354,6801456960,9822556250",
			"name": "Kekulé numbers for certain benzenoids.",
			"reference": [
				"S. J. Cyvin and I. Gutman, Kekulé structures in benzenoid hydrocarbons, Lecture Notes in Chemistry, No. 46, Springer, New York, 1988 (see p. 243, H*(4,4,n))."
			],
			"link": [
				"G. C. Greubel, \u003ca href=\"/A110691/b110691.txt\"\u003eTable of n, a(n) for n = 0..1000\u003c/a\u003e"
			],
			"formula": [
				"a(n) = (n+1)*(n+2)^3*(n+3)*(13*n^4 + 104*n^3 + 311*n^2 + 412*n + 210)/7!.",
				"G.f.: (x^6+35*x^5+227*x^4+410*x^3+227*x^2+35*x+1)/(1-x)^10. - _Alois P. Heinz_, Feb 27 2015"
			],
			"maple": [
				"a:=n-\u003e(n+1)*(n+2)^3*(n+3)*(13*n^4+104*n^3+311*n^2+412*n+210)/5040: seq(a(n),n=0..25);"
			],
			"mathematica": [
				"CoefficientList[Series[(x^6 + 35*x^5 + 227*x^4 + 410*x^3 + 227*x^2 + 35*x + 1)/(x - 1)^10, {x, 0, 50}], x] (* _G. C. Greubel_, Sep 06 2017 *)"
			],
			"program": [
				"(PARI) x='x+O('x^50); Vec((x^6+35*x^5+227*x^4+410*x^3+227*x^2+35*x+1)/(1-x)^10) \\\\ _G. C. Greubel_, Sep 06 2017"
			],
			"keyword": "nonn,easy",
			"offset": "0,2",
			"author": "_Emeric Deutsch_, Aug 03 2005",
			"references": 1,
			"revision": 10,
			"time": "2017-09-06T20:55:27-04:00",
			"created": "2005-09-21T03:00:00-04:00"
		}
	]
}