{
	"greeting": "Greetings from The On-Line Encyclopedia of Integer Sequences! http://oeis.org/",
	"query": "id:A110676",
	"count": 1,
	"start": 0,
	"results": [
		{
			"number": 110676,
			"data": "1,2,2,3,3,4,3,6,3,5,4,5,5,9,3,4,9,3,6,10,6,7,6,11,5,11,10,5,10,9,3,12,6,10,9,5,6,13,9,6,11,6,10,16,4,4,6,9,6,11,8,4,10,10,5,13,10,7,11,6,6,21,4,23,8,6,8,15,15,7,12,7,8,19,8,13,14,5,6,20,6,10,13,12,7,9,9,6,21",
			"name": "Number of prime factors with multiplicity of 1 + (n^(n+1)).",
			"comment": [
				"As also noticed by _T. D. Noe_, for odd n: 2 | a(n), for even n: (n+1)^2 | a(n). Coincidentally, a(74) includes 13 multidigit prime factors all of which end with the digit 1. There is no upper limit to this sequence, which rapidly becomes slow to compute. The derived sequences of n such that a(n) = k for any constant k \u003e 2 do not yet appear in the OEIS. For instance, a(n) = 3 for n = 4, 5, 7, 9, 15, 18, 31, ... Is each such derived sequence finite?"
			],
			"formula": [
				"a(1) = 1. For n\u003e1, a(n) = A001222(A110567(n)) = A001222(1 + A007778(n)) = A001222(1 + (n^(n+1)))."
			],
			"example": [
				"a(1) = 1 because 1+1^2 = 2 is prime (and the only such prime).",
				"a(2) = 2 because 1 + 2^3 = 9 = 3^2 which has (with multiplicity) two prime factors.",
				"a(3) = 2 because 1 + 3^4 = 82 = 2 * 41 (the last such semiprime?).",
				"a(4) = 3 because 1 + 4^5 = 1025 = 5^2 * 41 which has (with multiplicity) 3 prime factors.",
				"a(8) = 6 because 1 + 8^9 = 134217729 = 3^4 * 19 * 87211.",
				"a(14) = 9 because 1 + 14^15 = 155568095557812225 = 3^2 * 5^2 * 61 * 71 * 101 * 811 * 1948981.",
				"a(1000) \u003e 52."
			],
			"xref": [
				"Cf. A001222, A007778, A110567."
			],
			"keyword": "easy,nonn",
			"offset": "1,2",
			"author": "_Jonathan Vos Post_, Sep 14 2005",
			"references": 1,
			"revision": 6,
			"time": "2019-02-22T01:45:11-05:00",
			"created": "2005-09-21T03:00:00-04:00"
		}
	]
}