{
	"greeting": "Greetings from The On-Line Encyclopedia of Integer Sequences! http://oeis.org/",
	"query": "id:A110291",
	"count": 1,
	"start": 0,
	"results": [
		{
			"number": 110291,
			"data": "1,1,1,1,3,1,1,3,5,1,1,3,9,7,1,1,3,9,19,9,1,1,3,9,27,33,11,1,1,3,17,1,1,3,9,27,81,243,473,379,129,19,1,1,3,9,27,81,243,665,939,577,163,21,1,1,3,9,27,81,243,729,1611,1697,835,201,23,1",
			"name": "Riordan array (1/(1-x),x(1+2x)).",
			"comment": [
				"Row sums are A000975(n+1) (partial sums of Jacobsthal numbers A001045). Diagonal sums are A052947(n+1) (partial sums of Padovan-Jacobsthal numbers A052947). Inverse is A110292."
			],
			"example": [
				"Rows begin",
				"1;",
				"1,1;",
				"1,3,1;",
				"1,3,5,1;",
				"1,3,9,7,1;",
				"1,3,9,19,9,1;",
				"1,3,9,27,33,11,1;",
				"1,3,9,27,65,51,13,1;",
				"1,3,9,27,81,131,73,15,1;"
			],
			"keyword": "easy,nonn,tabl",
			"offset": "0,5",
			"author": "_Paul Barry_, Jul 18 2005",
			"references": 1,
			"revision": 2,
			"time": "2012-03-30T18:59:09-04:00",
			"created": "2005-07-19T03:00:00-04:00"
		}
	]
}