{
	"greeting": "Greetings from The On-Line Encyclopedia of Integer Sequences! http://oeis.org/",
	"query": "id:A110820",
	"count": 1,
	"start": 0,
	"results": [
		{
			"number": 110820,
			"data": "2,13,3418,52016149,153922786652714666,65688702911858084722486113974627712,5909264177593573284418890303826221282839645884512542540067398229418573",
			"name": "Denominator of Egyptian fraction for Euler's constant (or Euler-Mascheroni constant) gamma.",
			"reference": [
				"Mohammad K. Azarian, Sylvester's Sequence and the Infinite Egyptian Fraction Decomposition of 1, Problem 958, College Mathematics Journal, Vol. 42, No. 4, September 2011, p. 330. Solution published in Vol. 43, No. 4, September 2012, pp. 340-342."
			],
			"link": [
				"Eric Weisstein's World of Mathematics, \u003ca href=\"http://mathworld.wolfram.com/EgyptianFraction.html\"\u003eEgyptian Fraction\u003c/a\u003e"
			],
			"example": [
				"a(3) = ceiling(1/(0.5772156649... - 1/2 - 1/13)) = 3418."
			],
			"mathematica": [
				"a = {}; k = N[EulerGamma, 1000]; Do[s = Ceiling[1/k]; AppendTo[a, s]; k = k - 1/s, {n, 1, 10}]; a (* _Artur Jasinski_, Sep 22 2008 *)"
			],
			"keyword": "nonn,frac",
			"offset": "1,1",
			"author": "_Franz Vrabec_, Sep 16 2005",
			"ext": [
				"a(6) \u0026 a(7) from _Robert G. Wilson v_, Aug 03 2010"
			],
			"references": 25,
			"revision": 17,
			"time": "2020-07-19T11:51:44-04:00",
			"created": "2005-09-21T03:00:00-04:00"
		}
	]
}