{
	"greeting": "Greetings from The On-Line Encyclopedia of Integer Sequences! http://oeis.org/",
	"query": "id:A110431",
	"count": 1,
	"start": 0,
	"results": [
		{
			"number": 110431,
			"data": "6,55,550,5500,55000,550000,5500000,55000000,550000000,5500000000,55000000000,550000000000,5500000000000,55000000000000,550000000000000,5500000000000000,55000000000000000,550000000000000000,5500000000000000000",
			"name": "Average of positive multiples of 3 with n decimal digits, rounded down.",
			"comment": [
				"Subsidiary sequence: Average of positive multiples of k with n decimal digits, rounded down."
			],
			"formula": [
				"For n \u003e 1, a(n+1) = 10 * a(n)."
			],
			"example": [
				"a(2) = average {12,15,...96,99} = floor((12+99)/2) = 55."
			],
			"program": [
				"(PARI) a(n)=(11*10^(n-1)+1)\\2"
			],
			"xref": [
				"Cf. A110430."
			],
			"keyword": "nonn,base",
			"offset": "1,1",
			"author": "_Amarnath Murthy_, Aug 02 2005",
			"ext": [
				"Corrected and extended by _Joshua Zucker_, May 10 2006",
				"Formula and program from _Charles R Greathouse IV_, Aug 03 2010"
			],
			"references": 1,
			"revision": 8,
			"time": "2013-12-05T19:57:03-05:00",
			"created": "2005-09-21T03:00:00-04:00"
		}
	]
}