{
	"greeting": "Greetings from The On-Line Encyclopedia of Integer Sequences! http://oeis.org/",
	"query": "id:A110903",
	"count": 1,
	"start": 0,
	"results": [
		{
			"number": 110903,
			"data": "0,0,0,3,16,105,672,4935,39936,361935,3624960,39906405,478955520,6226885665,87177646080,1307672340975,20922779566080,355687393636575,6402373519933440,121645099754102925,2432902004460748800,51090942157960129425,1124000727695858073600",
			"name": "Difference between the factorial of n and the double factorial of n.",
			"link": [
				"Andrew Howroyd, \u003ca href=\"/A110903/b110903.txt\"\u003eTable of n, a(n) for n = 0..200\u003c/a\u003e"
			],
			"formula": [
				"a(n) = n! - n!!.",
				"a(n) = A000142(n) - A006882(n). - _Andrew Howroyd_, Jan 02 2020"
			],
			"example": [
				"a(7) = 7*6*5*4*3*2*1 - 7*5*3*1 = 4935."
			],
			"mathematica": [
				"Table[(n!-n!!), {n,0, 15}] - _Zerinvary Lajos_, Mar 21 2007"
			],
			"program": [
				"(PARI) a(n)={n! - if(n%2, n!/((n\\2)!*2^(n\\2)), (n/2)!*2^(n/2))} \\\\ _Andrew Howroyd_, Jan 02 2020"
			],
			"xref": [
				"Cf. A000142 (factorials), A006882 (double factorials)."
			],
			"keyword": "easy,nonn",
			"offset": "0,4",
			"author": "_Paolo P. Lava_, Sep 21 2005",
			"ext": [
				"Terms a(15) and beyond from _Andrew Howroyd_, Jan 02 2020"
			],
			"references": 3,
			"revision": 10,
			"time": "2020-01-02T21:53:30-05:00",
			"created": "2006-01-24T03:00:00-05:00"
		}
	]
}