{
	"greeting": "Greetings from The On-Line Encyclopedia of Integer Sequences! http://oeis.org/",
	"query": "id:A110408",
	"count": 1,
	"start": 0,
	"results": [
		{
			"number": 110408,
			"data": "11,0,0,0,0,3131313131313131313113,71717117,9191919191919119,0,32323223,0,9292929292929292929229,13131331,0,7373737373737373737373737373737373737373737337,0,14141414141414141414141414141414141414141414141414141414141414141414141414141414141414141414141414141441",
			"name": "Smallest prime which is the repeated reverse concatenation of n followed by n (ending in n), where n == 1,3,7 or 9 (mod 10), or 0 if no such prime exists.",
			"comment": [
				"Conjecture: a(n) is 0 iff n is a palindromic prime == 1,3,7 or 9 (mod 10) and/or n ==0 (mod 3). As rev(n) followed by n is == 0 (mod 11), hence every nonzero term contains at least two reverse concatenations of n followed by n.",
				"The larger numbers are probable primes. - _Joshua Zucker_, May 10 2006",
				"The Magma Calculator (http://magma.maths.usyd.edu.au/calc/) verified each of the nine nonzero terms as prime. - _Jon E. Schoenfield_, Aug 24 2009"
			],
			"xref": [
				"Cf. A110409."
			],
			"keyword": "base,easy,nonn",
			"offset": "0,1",
			"author": "_Amarnath Murthy_, Jul 30 2005",
			"ext": [
				"More terms from _Joshua Zucker_, May 10 2006",
				"Edited by _T. D. Noe_, Oct 30 2008"
			],
			"references": 2,
			"revision": 14,
			"time": "2019-07-06T14:20:27-04:00",
			"created": "2005-09-21T03:00:00-04:00"
		}
	]
}