{
	"greeting": "Greetings from The On-Line Encyclopedia of Integer Sequences! http://oeis.org/",
	"query": "id:A110791",
	"count": 1,
	"start": 0,
	"results": [
		{
			"number": 110791,
			"data": "1,1,1,15,5,87,4,27,5,168,27,478,70",
			"name": "Number of digits in A110790(n).",
			"comment": [
				"Next term is \u003e= 478. [From _David Wasserman_, Jan 06 2009]"
			],
			"example": [
				"3, 31, 313, 313111111111111111, ... are all prime."
			],
			"xref": [
				"Cf. A110774, A110775, A110776, A110777, A110778, A110779, A110780, A110781, A110782, A110783, A110788, A110789, A110790."
			],
			"keyword": "base,less,nonn",
			"offset": "1,4",
			"author": "_Amarnath Murthy_, Aug 13 2005",
			"ext": [
				"More terms from _David Wasserman_, Jan 06 2009",
				"Two more terms from _Sean A. Irvine_, Mar 22 2010"
			],
			"references": 3,
			"revision": 6,
			"time": "2013-12-05T19:57:04-05:00",
			"created": "2005-09-21T03:00:00-04:00"
		}
	]
}