{
	"greeting": "Greetings from The On-Line Encyclopedia of Integer Sequences! http://oeis.org/",
	"query": "id:A110810",
	"count": 1,
	"start": 0,
	"results": [
		{
			"number": 110810,
			"data": "3,4,9,19,40,92,220,513,1142,2436,5031,10164,20272,40258,80230,161458,329211,679921,1417373,2966192,6195952,12855389,26402016,53574712,107369761,212694661,417192840,812167806,1573409607,3041468738",
			"name": "Binomial transform of A000796.",
			"link": [
				"Vincenzo Librandi, \u003ca href=\"/A110810/b110810.txt\"\u003eTable of n, a(n) for n = 0..200\u003c/a\u003e"
			],
			"program": [
				"(MAGMA) m:=32; R:=RealField(m); a:=Intseq(Round(Pi(R)*10^m), 10); Reverse(~a); [ \u0026+[ Binomial(i-1, k-1)*a[k]: k in [1..i] ]: i in [1..m] ]; /* Klaus Brockhaus, Jun 15 2007 */"
			],
			"keyword": "nonn,base,less",
			"offset": "0,1",
			"author": "_Paul Curtz_, Jun 13 2007",
			"ext": [
				"Edited by _N. J. A. Sloane_, Jun 15 2007",
				"More terms from _Klaus Brockhaus_, Jun 15 2007"
			],
			"references": 1,
			"revision": 10,
			"time": "2012-03-30T18:51:51-04:00",
			"created": "2005-09-21T03:00:00-04:00"
		}
	]
}