{
	"greeting": "Greetings from The On-Line Encyclopedia of Integer Sequences! http://oeis.org/",
	"query": "id:A110477",
	"count": 1,
	"start": 0,
	"results": [
		{
			"number": 110477,
			"data": "1,4,16,40,110,182,336,480,750,1210,1540,2236,2912,3500,4400,5712,7242,8322,10260,12040,13552,16192,18584,21800,26000,29250,32004,35728,38860,43090,52576,57728,64328,69020,78960,84360,92796,101764,109720,119720",
			"name": "a(n) = Sum_{k=1..n} k*(prime(k) - k).",
			"link": [
				"G. C. Greubel, \u003ca href=\"/A110477/b110477.txt\"\u003eTable of n, a(n) for n = 1..5000\u003c/a\u003e"
			],
			"formula": [
				"a(n) = n*(n+1)*(3*prime(n) - 2*n - 1)/6."
			],
			"mathematica": [
				"Table[n*(n + 1)*(3*Prime[n] - 2*n - 1)/6, {n, 1, 50}] (* _G. C. Greubel_, Aug 28 2017 *)"
			],
			"program": [
				"(PARI) for(n=1,50, print1(n*(n+1)*(3*prime(n)-2*n-1)/6, \", \")) \\\\ _G. C. Greubel_, Aug 28 2017"
			],
			"xref": [
				"Cf. A000040, A000217, A000330."
			],
			"keyword": "nonn",
			"offset": "1,2",
			"author": "_Reinhard Zumkeller_, Sep 09 2005",
			"references": 1,
			"revision": 10,
			"time": "2017-08-29T22:50:28-04:00",
			"created": "2005-09-21T03:00:00-04:00"
		}
	]
}