{
	"greeting": "Greetings from The On-Line Encyclopedia of Integer Sequences! http://oeis.org/",
	"query": "id:A110721",
	"count": 1,
	"start": 0,
	"results": [
		{
			"number": 110721,
			"data": "5,523,523353637,52335363718192021,523353637181920217576777879,52335363718192021757677787967891011,5233536371819202175767778796789101171727374757677",
			"name": "Primes pertaining to A110720.",
			"xref": [
				"Cf. A110714, A110715, A110716, A110717, A110718, A110719, A110720."
			],
			"keyword": "base,hard,nonn",
			"offset": "1,1",
			"author": "_Amarnath Murthy_, Aug 05 2005",
			"ext": [
				"More terms from _Jon E. Schoenfield_, Jul 11 2010"
			],
			"references": 1,
			"revision": 4,
			"time": "2013-12-05T19:57:03-05:00",
			"created": "2005-09-21T03:00:00-04:00"
		}
	]
}