{
	"greeting": "Greetings from The On-Line Encyclopedia of Integer Sequences! http://oeis.org/",
	"query": "id:A111436",
	"count": 1,
	"start": 0,
	"results": [
		{
			"number": 111436,
			"data": "1,8,3,4,5,78,28,32,36,40,176,528,624,280,30,144,1088,432,1273,120,1869,440,3427,1632,2000,2080,1701,2268,10179,480,5270,2464,660,1632,4970,1044,222,2242,351,3120,5576,798,1032,5896,630,230,1081,8064,9261,9500",
			"name": "Least multiple of n such that every partial concatenation followed by a 1 is prime.",
			"example": [
				"11, 181, 183, 1834, 183451, etc. are all prime."
			],
			"mathematica": [
				"s = \"\"; Do[k = 1; While[ !PrimeQ[ToExpression[s \u003c\u003e ToString[k*n] \u003c\u003e \"1\"]], k++ ]; Print[k*n]; s = s \u003c\u003e ToString[k*n], {n, 1, 100}] (* _Ryan Propper_, Sep 21 2005 *)"
			],
			"keyword": "base,nonn",
			"offset": "1,2",
			"author": "_Amarnath Murthy_, Aug 03 2005",
			"ext": [
				"More terms from _Ryan Propper_, Sep 21 2005"
			],
			"references": 0,
			"revision": 6,
			"time": "2018-11-17T21:10:05-05:00",
			"created": "2005-09-21T03:00:00-04:00"
		}
	]
}