{
	"greeting": "Greetings from The On-Line Encyclopedia of Integer Sequences! http://oeis.org/",
	"query": "id:A111019",
	"count": 1,
	"start": 0,
	"results": [
		{
			"number": 111019,
			"data": "1,11,12,13,29,30,31,35,36,37,83,84,85,89,90,91,107,108,109,119,120,121,245,246,247,251,252,253,269,270,271,281,282,283,323,324,325,335,336,337,353,354,355,359,360,361,731,732,733,737,738,739,755",
			"name": "Indices of Catalan numbers that are == 1 mod 3 (cf. A000108).",
			"link": [
				"Robert Israel, \u003ca href=\"/A111019/b111019.txt\"\u003eTable of n, a(n) for n = 1..10000\u003c/a\u003e"
			],
			"formula": [
				"a(3k) = a(3k-1)+1 and a(3k+1) = a(3k-1)+2 for k \u003e= 1. - _Robert Israel_, Jun 30 2020"
			],
			"maple": [
				"filter:= proc(n) local L1, L2, L3;",
				"  L1:= convert(2*n, base, 3);",
				"  L2:= convert(n, base, 3);",
				"  L3:= convert(n-1, base, 3);",
				"  mul(binomial(L1[i], L2[i]), i=1..nops(L2)) - mul(binomial(L1[i], L3[i]), i=1..nops(L3)) mod 3 = 1",
				"end proc:",
				"select(filter, [$1..1000]); # _Robert Israel_, Jun 30 2020"
			],
			"mathematica": [
				"Flatten[Position[CatalanNumber[Range[1000]],_?(Mod[#,3]==1\u0026)]] (* _Harvey P. Dale_, Jun 19 2014 *)"
			],
			"xref": [
				"Cf. A000108, A111020."
			],
			"keyword": "nonn,look",
			"offset": "1,2",
			"author": "_Robert G. Wilson v_, Sep 09 2005",
			"references": 1,
			"revision": 10,
			"time": "2020-06-30T16:13:07-04:00",
			"created": "2006-01-24T03:00:00-05:00"
		}
	]
}