{
	"greeting": "Greetings from The On-Line Encyclopedia of Integer Sequences! http://oeis.org/",
	"query": "id:A111998",
	"count": 1,
	"start": 0,
	"results": [
		{
			"number": 111998,
			"data": "1,10,75,500,3135,18962,112125,653200,3766950,21571500,122920642,697994760,3953743250,22357130700,126273263510,712639689168,4019975635855,22671014908550,127846248597125,720994336613980",
			"name": "Tenth convolution of Schroeder's (second problem) numbers A001003(n), n\u003e=0.",
			"link": [
				"Vincenzo Librandi, \u003ca href=\"/A111998/b111998.txt\"\u003eTable of n, a(n) for n = 0..300\u003c/a\u003e"
			],
			"formula": [
				"G.f.: ((1+x-sqrt(1-6*x+x^2))/(4*x))^10.",
				"a(n) = (10/n)*Sum_{k=1,..,n} binomial(n,k)*binomial(n+k+9,k-1).",
				"a(n) = 10*hypergeom([1-n, n+11], [2], -1), n\u003e=1, a(0)=1.",
				"Contribution from _Vaclav Kotesovec_, Oct 18 2012: (Start)",
				"Recurrence: n*(n+10)*a(n) = (7*n^2+58*n+45)*a(n-1) - (7*n^2+40*n-18)*a(n-2) + (n-3)*(n+7)*a(n-3)",
				"a(n) ~ 5*sqrt(3*sqrt(2)-4)*(1970-1393*sqrt(2)) * (3+2*sqrt(2))^(n+10)/(64*sqrt(Pi)*n^(3/2))",
				"Generally, G.f. = ((1+x-sqrt(1-6*x+x^2))/(4*x))^k is asymptotic to a(n) ~ sqrt(3*sqrt(2)-4)*k*(1-1/sqrt(2))^(k-1) * (3+2*sqrt(2))^(n+k)/(4*sqrt(Pi)*n^(3/2)).",
				"(End)"
			],
			"mathematica": [
				"CoefficientList[Series[((1+x-Sqrt[1-6*x+x^2])/(4*x))^10, {x, 0, 20}], x] (* _Vaclav Kotesovec_, Oct 18 2012 *)"
			],
			"program": [
				"(PARI) x='x+O('x^50); Vec(((1+x-sqrt(1-6*x+x^2))/(4*x))^10) \\\\ _G. C. Greubel_, Mar 17 2017"
			],
			"xref": [
				"Cf. Tenth column of convolution triangle A011117."
			],
			"keyword": "nonn,easy",
			"offset": "0,2",
			"author": "_Wolfdieter Lang_, Sep 12 2005",
			"references": 1,
			"revision": 15,
			"time": "2017-03-17T21:59:14-04:00",
			"created": "2005-09-21T03:00:00-04:00"
		}
	]
}