{
	"greeting": "Greetings from The On-Line Encyclopedia of Integer Sequences! http://oeis.org/",
	"query": "id:A111779",
	"count": 1,
	"start": 0,
	"results": [
		{
			"number": 111779,
			"data": "1,30,651,12600,235494,4396140,83471850,1627358040,32754696975,682573101210,14749179169725,330654317994000,7691170398011100,185559161386599000,4641068950134516900,120256269348313098000",
			"name": "Sixth column (m=5) of unsigned triangle A111595.",
			"formula": [
				"E.g.f. (1/sqrt(1-x^2))*((x/(1-x))^5)/5!.",
				"a(n)=(n!/5!)*sum(binomial(2*k, k)*binomial(n-2*k-1, 4)/(4^k), k=0..floor((n-5)/2)), n\u003e=5.",
				"Conjecture: +(-n+5)*a(n) +5*n*a(n-1) +n*(n-1)^2*a(n-2)=0. - _R. J. Mathar_, Jun 08 2016"
			],
			"keyword": "nonn,easy",
			"offset": "5,2",
			"author": "_Wolfdieter Lang_, Aug 23 2005",
			"references": 0,
			"revision": 5,
			"time": "2016-06-08T15:48:38-04:00",
			"created": "2005-09-21T03:00:00-04:00"
		}
	]
}