{
	"greeting": "Greetings from The On-Line Encyclopedia of Integer Sequences! http://oeis.org/",
	"query": "id:A111484",
	"count": 1,
	"start": 0,
	"results": [
		{
			"number": 111484,
			"data": "0,1,6,10,66,91,190,406,496,666,861,946,990,1081,1891,4186,6441,8001,8646,8911,9180,10011,10440,14196,16110,19110,19900,40186,41041,41616,49141,64980,66066,69006,80601,81406,81810,84666,88410,90100,91806",
			"name": "Triangular numbers all of whose digits are nonprimes.",
			"program": [
				"(Perl) my $n = 0, $t = 0, $i = 0;",
				"for (; $n \u003c 6293912; $n++, $t += $n) {",
				" if ($t =~ m/^[014689]+$/) {",
				"  $i++;",
				"  print(\"$i $t\\n\");",
				" }",
				"} # _Charles R Greathouse IV_, Dec 17 2010"
			],
			"xref": [
				"Cf. A000217, A002808, A084984."
			],
			"keyword": "base,easy,nonn",
			"offset": "1,3",
			"author": "_Jonathan Vos Post_, Nov 15 2005",
			"references": 0,
			"revision": 8,
			"time": "2013-05-13T01:48:35-04:00",
			"created": "2006-01-24T03:00:00-05:00"
		}
	]
}