{
	"greeting": "Greetings from The On-Line Encyclopedia of Integer Sequences! http://oeis.org/",
	"query": "id:A111971",
	"count": 1,
	"start": 0,
	"results": [
		{
			"number": 111971,
			"data": "9,3,9,0,5,3,3,4,6,7,7,2,4,9,1,7,6,5,7,3,3,9,7,5,4,0,7,3,0,7,8,5,3,7,3,5,5,4,0,1,7,3,2,9,4,7,6,1,6,9,3,5,8,0,8,8,8,1,9,3,7,0,2,5,0,8,5,1,6,8,0,6,5,3,8,0,8,3,6,2,7,3,3,4,7,6,8,2,7,5,8,6,4,8,9,5,4,1,7,6,3,3",
			"name": "Decimal expansion of the height parameter of Graham's biggest little hexagon.",
			"link": [
				"Eric Weisstein's World of Mathematics, \u003ca href=\"http://mathworld.wolfram.com/GrahamsBiggestLittleHexagon.html\"\u003eGraham's Biggest Little Hexagon\u003c/a\u003e"
			],
			"example": [
				"0.939053346..."
			],
			"xref": [
				"Cf. A111969, A111970."
			],
			"keyword": "nonn,cons",
			"offset": "0,1",
			"author": "_Eric W. Weisstein_, Aug 23 2005",
			"references": 1,
			"revision": 5,
			"time": "2015-08-15T10:20:43-04:00",
			"created": "2005-09-21T03:00:00-04:00"
		}
	]
}