{
	"greeting": "Greetings from The On-Line Encyclopedia of Integer Sequences! http://oeis.org/",
	"query": "id:A111455",
	"count": 1,
	"start": 0,
	"results": [
		{
			"number": 111455,
			"data": "0,14,24,32,36,42,50,62,66,72,84,86,90,102,104,116,126,146,164,192,200,206,224,230,240,246,260,270,282,290,326,330,332,336,344,350,354,360,374,396,402,410,414,422,440,456,482,492,494,504,506,510,546,552,570",
			"name": "Numbers n such that 101*n + 97 is prime.",
			"comment": [
				"All the numbers in this sequence are even. 97 is the largest two digit prime and 101 is the smallest three digit prime."
			],
			"example": [
				"If n=240 then 101*n + 97 = 24337 (prime)."
			],
			"program": [
				"(MAGMA) [n: n in [0..1000000] |IsPrime(101*n+97)] - _Vincenzo Librandi_, Nov 13 2010",
				"(PARI) is(n)=isprime(101*n+97) \\\\ _Charles R Greathouse IV_, Jun 13 2017"
			],
			"xref": [
				"Cf. A101084."
			],
			"keyword": "nonn,easy",
			"offset": "1,2",
			"author": "_Parthasarathy Nambi_, Nov 14 2005",
			"references": 0,
			"revision": 10,
			"time": "2017-06-13T12:41:25-04:00",
			"created": "2006-01-24T03:00:00-05:00"
		}
	]
}