{
	"greeting": "Greetings from The On-Line Encyclopedia of Integer Sequences! http://oeis.org/",
	"query": "id:A111526",
	"count": 1,
	"start": 0,
	"results": [
		{
			"number": 111526,
			"data": "1,0,1,3,0,1,0,4,0,1,5,0,5,0,1,0,9,0,6,0,1,7,0,14,0,7,0,1,0,16,0,20,0,8,0,1,9,0,30,0,27,0,9,0,1,0,25,0,50,0,35,0,10,0,1,11,0,55,0,77,0,44,0,11,0,1,0,36,0,105,0,112,0,54,0,12,0,1,13,0,91,0,182,0,156,0,65,0,13,0,1,0",
			"name": "Number triangle T(n,k)=C((n+k)/2,k)(n+1)(1+(-1)^(n-k))/(2(k+1)); T(n,k)=(-1)^((n-k)/2)*A053120(n+1,k+1)/2^k; Riordan array ((1+x^2)/(1-x^2)^2,x/(1-x^2)).",
			"comment": [
				"A scaled Chebyshev triangle.",
				"Row sums are A001350(n+1). Diagonal sums are A033484, with interpolated zeros. Inverse is A111527."
			],
			"example": [
				"Triangle starts",
				"1;",
				"0,1;",
				"3,0,1;",
				"0,4,0,1;",
				"5,0,5,0,1;",
				"0,9,0,6,0,1;",
				"7,0,14,0,7,0,1;"
			],
			"xref": [
				"Cf. A110813."
			],
			"keyword": "easy,nonn,tabl",
			"offset": "0,4",
			"author": "_Paul Barry_, Aug 05 2005",
			"references": 1,
			"revision": 2,
			"time": "2012-03-30T18:59:09-04:00",
			"created": "2005-09-21T03:00:00-04:00"
		}
	]
}