{
	"greeting": "Greetings from The On-Line Encyclopedia of Integer Sequences! http://oeis.org/",
	"query": "id:A111079",
	"count": 1,
	"start": 0,
	"results": [
		{
			"number": 111079,
			"data": "1,1,1,1,1,2,1,3,2,5,1,48,1,13,10,21,1,136,1,165,26,89,1,2016,5,233,34,1131,1,26840,1,987,178,1597,65,139536,1,4181,466,47355,1,1269736,1,53133,10370,28657,1,4358592,13,825275,3194,364179,1,14927768,445",
			"name": "a(n) = gcd(F(n), product{k|n,k\u003cn} F(k)), where F(k) is k-th Fibonacci number.",
			"example": [
				"The proper divisors of 16 are 1, 2, 4, 8. So a(16) = gcd(F(16), F(1)*F(2)*F(4)*F(8)) = gcd(987, 1*1*3*21) = 21."
			],
			"maple": [
				"with(combinat): with(numtheory): a:=proc(n) local div: div:=divisors(n): gcd(fibonacci(n),product(fibonacci(div[j]),j=1..tau(n)-1)): end: seq(a(n),n=1..65); # _Emeric Deutsch_, Oct 12 2005"
			],
			"mathematica": [
				"f[n_] := GCD[Fibonacci[n], Times @@ Fibonacci /@ Most[Divisors[n]]]; Table[ f[n], {n, 55}] (* _Robert G. Wilson v_, Oct 12 2005 *)"
			],
			"xref": [
				"Cf. A000045."
			],
			"keyword": "nonn",
			"offset": "1,6",
			"author": "_Leroy Quet_, Oct 11 2005",
			"ext": [
				"More terms from _Robert G. Wilson v_ and _Emeric Deutsch_, Oct 12 2005"
			],
			"references": 0,
			"revision": 13,
			"time": "2019-08-15T07:27:45-04:00",
			"created": "2006-01-24T03:00:00-05:00"
		}
	]
}