{
	"greeting": "Greetings from The On-Line Encyclopedia of Integer Sequences! http://oeis.org/",
	"query": "id:A111608",
	"count": 1,
	"start": 0,
	"results": [
		{
			"number": 111608,
			"data": "1,1,3,4,5,6,7,4,3,5,11,4,13,14,10,8,17,3,19,20,21,22,23,12,25,13,9,28,29,10,31,16,22,17,35,24,37,38,39,20,41,21,43,44,15,46,47,40,49,25,34,52,53,36,55,28,57,29,59,60,61,62,21,32,65,55,67,68,46,70,71,12,73,37",
			"name": "Sixth column of A109626.",
			"formula": [
				"G.f.: Q(x)/(1-x^72)^2 where Q(x) is 142-degree polynomial: Q(x)=1+x+3x^2+4x^3+5x^4+6x^5+7x^6+4x^7+..."
			],
			"mathematica": [
				"f[n_] := f[n] = Block[{a}, a[0] = 1; a[l_] := a[l] = Block[{k = 1, s = Sum[ a[i]*x^i, {i, 0, l - 1}]}, While[ IntegerQ[ Last[ CoefficientList[ Series[(s + k*x^l)^(1/n), {x, 0, l}], x]]] != True, k++ ]; k]; Table[a[j], {j, 0, 128}]]; g[n_, m_] := f[n][[m]]; Table[g[n, 6 + 1], {n, 74}]"
			],
			"xref": [
				"Cf. A109626."
			],
			"keyword": "nonn",
			"offset": "1,3",
			"author": "_Paul D. Hanna_ and _Robert G. Wilson v_, Aug 01 2005",
			"references": 1,
			"revision": 4,
			"time": "2012-03-30T18:36:50-04:00",
			"created": "2005-09-21T03:00:00-04:00"
		}
	]
}