{
	"greeting": "Greetings from The On-Line Encyclopedia of Integer Sequences! http://oeis.org/",
	"query": "id:A111023",
	"count": 1,
	"start": 0,
	"results": [
		{
			"number": 111023,
			"data": "1,2,3,4,6,8,16,20,27,115,180,274,576,1111,2404,5127,8082,9514,12808,14752,15926,22670,37432,41988,53707,72595,92742",
			"name": "Integers n such that 9*10^n + 11 is a prime number.",
			"comment": [
				"See Kamada link - primecount.txt for terms, primesize.txt for discovery details including probable or proved primes - search on \"90w11\".",
				"a(28) \u003e 10^5. - _Robert Price_, Jan 28 2017"
			],
			"link": [
				"Makoto Kamada, \u003ca href=\"https://stdkmd.net/nrr/prime/\"\u003eList of near-repdigit-related prime numbers\u003c/a\u003e.",
				"\u003ca href=\"/index/Pri#Pri_rep\"\u003eIndex entries for primes involving repunits\u003c/a\u003e."
			],
			"example": [
				"n = 6 is a member because 9*10^6 + 11 = 9*1000000 + 11 = 9000011, which is prime."
			],
			"mathematica": [
				"Do[If[PrimeQ[9*10^n+11],Print[n]],{n,1,1300}] (* _Zak Seidov_, Sep 14 2006 *)"
			],
			"xref": [
				"Cf. A100275 = numbers n such that 9*10^n-11 is prime.",
				"Cf. A049054, A088274, A088275, A095688, A107083, A108049, A108050, A108052, A108054, A110980."
			],
			"keyword": "more,nonn",
			"offset": "1,2",
			"author": "Julien Peter Benney (jpbenney(AT)ftml.net), Oct 04 2005",
			"ext": [
				"Edited by _N. J. A. Sloane_, Apr 11 2008",
				"a(16)-a(22) from _Ray Chandler_, Dec 23 2010",
				"a(23)-a(27) from _Robert Price_, Jan 28 2017"
			],
			"references": 0,
			"revision": 20,
			"time": "2019-01-17T13:44:08-05:00",
			"created": "2006-01-24T03:00:00-05:00"
		}
	]
}