{
	"greeting": "Greetings from The On-Line Encyclopedia of Integer Sequences! http://oeis.org/",
	"query": "id:A111599",
	"count": 1,
	"start": 0,
	"results": [
		{
			"number": 111599,
			"data": "1,90,4950,217800,8494200,309188880,10821610800,371026656000,12614906304000,428906814336000,14668613050291200,506733905373696000,17735686688079360000,630299019222512640000,22780807409042242560000",
			"name": "Lah numbers: n!*binomial(n-1,8)/9!.",
			"reference": [
				"L. Comtet, Advanced Combinatorics, Reidel, 1974, p. 156.",
				"J. Riordan, An Introduction to Combinatorial Analysis, Wiley, 1958, p. 44."
			],
			"formula": [
				"E.g.f. ((x/(1-x))^9)/9!.",
				"a(n) = (n!/9!)*binomial(n-1, 9-1).",
				"If we define f(n,i,x) = Sum_{k=i..n} Sum_{j=i..k} binomial(k,j)*Stirling1(n,k)*Stirling2(j,i)*x^(k-j)), then a(n) = (-1)^(n-1)*f(n,9,-9), n \u003e= 9. - _Milan Janjic_, Mar 01 2009"
			],
			"maple": [
				"part_ZL:=[S,{S=Set(U,card=r),U=Sequence(Z,card\u003e=1)}, labeled]: seq(count(subs(r=9,part_ZL),size=m),m=9..23) ; # _Zerinvary Lajos_, Mar 09 2007"
			],
			"mathematica": [
				"Table[n!*Binomial[n-1, 8]/9!, {n, 9, 30}] (* _Wesley Ivan Hurt_, Dec 10 2013 *)"
			],
			"xref": [
				"Column 9 of unsigned A008297 and A111596. Column 8: A111598."
			],
			"keyword": "nonn,easy",
			"offset": "9,2",
			"author": "_Wolfdieter Lang_, Aug 23 2005",
			"references": 1,
			"revision": 15,
			"time": "2019-01-29T02:08:47-05:00",
			"created": "2005-09-21T03:00:00-04:00"
		}
	]
}