{
	"greeting": "Greetings from The On-Line Encyclopedia of Integer Sequences! http://oeis.org/",
	"query": "id:A112313",
	"count": 1,
	"start": 0,
	"results": [
		{
			"number": 112313,
			"data": "1,0,0,0,0,0,0,0,1,0,0,0,1,0,0,0,1,0,1,0,2,0,0,0,2,0,1,1,3,0,2,0,3,0,1,1,5,0,3,1,5,0,4,1,7,2,4,2,9,0,7,2,10,2,9,3,13,3,10,3,17,2,14,7,18,5,18,5,25,6,22,9,31,7,27,13,34,10,36,12,45,15,40,19,54,15,52,24,63,22,67,26",
			"name": "Number of partitions of n into products of 3 primes.",
			"link": [
				"Alois P. Heinz, \u003ca href=\"/A112313/b112313.txt\"\u003eTable of n, a(n) for n = 0..5000\u003c/a\u003e"
			],
			"example": [
				"a(32) = 3 since 32 = 20+12 = 12+12+8 = 8+8+8+8."
			],
			"xref": [
				"Cf. A014612, A000607, A101049, A112314, A112315, A112316."
			],
			"keyword": "nonn",
			"offset": "0,21",
			"author": "_Jonathan Vos Post_, Sep 02 2005",
			"ext": [
				"Extended by _Ray Chandler_, Sep 02 2005"
			],
			"references": 4,
			"revision": 9,
			"time": "2012-03-30T18:40:30-04:00",
			"created": "2005-09-21T03:00:00-04:00"
		}
	]
}