{
	"greeting": "Greetings from The On-Line Encyclopedia of Integer Sequences! http://oeis.org/",
	"query": "id:A112282",
	"count": 1,
	"start": 0,
	"results": [
		{
			"number": 112282,
			"data": "1,6,5,2,0,7,4,3,8,8,3,4,7,0,2,5,6,1,1,6,5,2,0,7,4,3,8,8,3,4,7,0,2,5,6,1,1,6,5,2,0,7,4,3,8,8,3,4,7,0,2,5,6,1,1,6,5,2,0,7,4,3,8,8,3,4,7,0,2,5,6,1,1,6,5,2,0,7,4,3,8,8,3,4,7,0,2,5,6,1,1,6,5,2,0,7,4,3,8,8,3,4,7,0,2",
			"name": "a(n) = (-1)^n*(2*n+1) (mod 9).",
			"formula": [
				"Period 18 sequence: [1, 6, 5, 2, 0, 7, 4, 3, 8, 8, 3, 4, 7, 0, 2, 5, 6, 1]."
			],
			"maple": [
				"seq(`mod`((-1)^n*(2*n+1), 9), n = 0..120); # _G. C. Greubel_, Nov 05 2019"
			],
			"mathematica": [
				"Table[Mod[(-1)^n*(2*n+1), 9], {n, 0, 120}] (* _G. C. Greubel_, Nov 05 2019 *)"
			],
			"program": [
				"(PARI) a(n)=((-1)^n*(2*n+1))%9",
				"(MAGMA) [(-1)^n*(2*n+1) mod 9 : n in [0..120]]; // _G. C. Greubel_, Nov 05 2019",
				"(Sage) [mod((-1)^n*(2*n+1), 9) for n in (0..120)] # _G. C. Greubel_, Nov 05 2019",
				"(GAP) List([0..120], n-\u003e (-1)^n*(2*n+1) mod 9 ); # _G. C. Greubel_, Nov 05 2019"
			],
			"xref": [
				"Cf. A112280."
			],
			"keyword": "nonn",
			"offset": "0,2",
			"author": "_Paul D. Hanna_, Sep 01 2005",
			"references": 1,
			"revision": 8,
			"time": "2019-11-05T05:57:25-05:00",
			"created": "2005-09-21T03:00:00-04:00"
		}
	]
}