{
	"greeting": "Greetings from The On-Line Encyclopedia of Integer Sequences! http://oeis.org/",
	"query": "id:A112280",
	"count": 1,
	"start": 0,
	"results": [
		{
			"number": 112280,
			"data": "1,6,0,5,0,0,2,0,0,0,0,0,0,0,0,7,0,0,0,0,0,4,0,0,0,0,0,0,3,0,0,0,0,0,0,0,8,0,0,0,0,0,0,0,0,8,0,0,0,0,0,0,0,0,0,3,0,0,0,0,0,0,0,0,0,0,4,0,0,0,0,0,0,0,0,0,0,0,7,0,0,0,0,0,0,0,0,0,0,0,0,0,0,0,0,0,0,0,0,0,0,0,0,0,0",
			"name": "Coefficients, read modulo 9, of the cube of q-series (q;q)_oo.",
			"comment": [
				"The cube-root of g.f. A(x) is an integer series (A112281)."
			],
			"link": [
				"G. C. Greubel, \u003ca href=\"/A112280/b112280.txt\"\u003eTable of n, a(n) for n = 0..1000\u003c/a\u003e"
			],
			"formula": [
				"G.f.: A(x) = Sum_{n\u003e=0} A112282(n) * x^(n*(n+1)/2) where A112282(n) = (-1)^n*(2*n+1) (mod 9)."
			],
			"example": [
				"A(x) = 1 + 6*x + 5*x^3 + 2*x^6 + 0*x^10 + 7*x^15 + 4*x^21 +... = (1 - 3*x + 5*x^3 - 7*x^6 + 9*x^10 - 11*x^15 +...) (mod 9).",
				"A(x)^(1/3) = 1 + 2*x - 4*x^2 + 15*x^3 - 60*x^4 + 268*x^5 -+...",
				"Notation: q-series (q;q)_oo = Product_{n\u003e=1} (1-q^n) = 1 + Sum_{n\u003e=1} (-1)^n*[q^(n*(3*n-1)/2) + q^(n*(3*n+1)/2)]."
			],
			"maple": [
				"seq(coeff(series( add(`mod`((-1)^n*(2*n+1),9)*x^(n*(n+1)/2), n = 0 .. 140), x, n+1), x, n), n = 0 .. 120); # _G. C. Greubel_, Nov 05 2019"
			],
			"mathematica": [
				"CoefficientList[Series[ Sum[Mod[(-1)^n*(2*n+1), 9]* x^(n(n+1)/2), {n, 0, 140}] , {x, 0, 120}], x] (* _G. C. Greubel_, Nov 05 2019 *)"
			],
			"program": [
				"(PARI) {a(n)=polcoeff(sum(k=0,sqrtint(2*n+1), (((-1)^k*(2*k+1))%9)*x^(k*(k+1)/2)+x*O(x^n)),n)}",
				"(MAGMA) R\u003cx\u003e:=PowerSeriesRing(Integers(), 120); Coefficients(R!( (\u0026+[((-1)^n*(2*n+1) mod 9)*x^Binomial(n+1,2): n in [0..140]]) )); // _G. C. Greubel_, Nov 05 2019",
				"(Sage) [ (sum(((-1)^n*(2*n+1)%9) *x^(n*(n+1)/2) for n in (0..140)) ).series(x,n+1).list()[n] for n in (0..120)]  # _G. C. Greubel_, Nov 05 2019"
			],
			"xref": [
				"Cf. A112281 (A(x)^(1/3)), A112282 (nonzero terms), A111983 (variant)."
			],
			"keyword": "nonn",
			"offset": "0,2",
			"author": "_Paul D. Hanna_, Sep 01 2005",
			"references": 3,
			"revision": 8,
			"time": "2019-11-05T07:24:00-05:00",
			"created": "2005-09-21T03:00:00-04:00"
		}
	]
}