{
	"greeting": "Greetings from The On-Line Encyclopedia of Integer Sequences! http://oeis.org/",
	"query": "id:A112928",
	"count": 1,
	"start": 0,
	"results": [
		{
			"number": 112928,
			"data": "3,5,13,19,61,73,101,109,151,181,193,199,229,241,271,313,349,353,421,433,523,601,661,811,829,883,1021,1033,1051,1063,1093,1153,1279,1321,1429,1451,1453,1489,1609,1621,1667,1669,1789,1873,1933,1951,1999,2029",
			"name": "Primes in sequence A112926.",
			"link": [
				"Michael De Vlieger, \u003ca href=\"/A112928/b112928.txt\"\u003eTable of n, a(n) for n = 1..10000\u003c/a\u003e"
			],
			"maple": [
				"with(numtheory): a:=proc(n) local p,B,j: p:=ithprime(n): B:={}: for j from p+1 to p+20 do if abs(mobius(j))\u003e0 then B:=B union {j} else B:=B fi od: B[1] end: A:=[seq(a(m),m=1..400)]: b:=proc(k) if isprime(A[k])=true then A[k] else fi end: seq(b(i),i=1..400); # _Emeric Deutsch_, Oct 14 2005"
			],
			"mathematica": [
				"With[{k = 120}, Select[Table[SelectFirst[Range[Prime@ n + 1, Prime@ n + k], SquareFreeQ], {n, 300}], PrimeQ]] (* _Michael De Vlieger_, Sep 11 2017 *)"
			],
			"xref": [
				"Cf. A061400, A112925, A112926, A112929, A112930."
			],
			"keyword": "nonn",
			"offset": "1,1",
			"author": "_Leroy Quet_, Oct 06 2005",
			"ext": [
				"More terms from _Emeric Deutsch_, Oct 14 2005"
			],
			"references": 6,
			"revision": 12,
			"time": "2017-09-11T19:48:02-04:00",
			"created": "2006-01-24T03:00:00-05:00"
		}
	]
}