{
	"greeting": "Greetings from The On-Line Encyclopedia of Integer Sequences! http://oeis.org/",
	"query": "id:A112704",
	"count": 1,
	"start": 0,
	"results": [
		{
			"number": 112704,
			"data": "1,11,211,5211,145211,4345211,136345211,4426345211,147426345211,5009426345211,172969426345211,6051569426345211,214063569426345211,7643063569426345211,275087063569426345211,9969932063569426345211",
			"name": "Partial sum of Catalan numbers A000108 multiplied by powers of 10.",
			"formula": [
				"a(n)=sum(C(k)*10^k, k=0..n), n\u003e=0, with C(n):=A000108(n).",
				"G.f.: c(10*x)/(1-x), where c(x):=(1-sqrt(1-4*x))/(2*x) is the o.g.f. of Catalan numbers A000108."
			],
			"xref": [
				"Eleventh column (m=10) of triangle A112705."
			],
			"keyword": "nonn,easy",
			"offset": "0,2",
			"author": "_Wolfdieter Lang_, Oct 31 2005",
			"references": 1,
			"revision": 3,
			"time": "2012-10-12T14:40:24-04:00",
			"created": "2006-01-24T03:00:00-05:00"
		}
	]
}