{
	"greeting": "Greetings from The On-Line Encyclopedia of Integer Sequences! http://oeis.org/",
	"query": "id:A112747",
	"count": 1,
	"start": 0,
	"results": [
		{
			"number": 112747,
			"data": "23,211,2111,23333,22121212121,2999999,29999999,21313131313131313,2777777777,23333333333,23333333333333333333333,2111111111111,2201201201201201201201201201201201201201,23131313131313131313131313131",
			"name": "Smallest prime of the form 2 followed by n copies of k.",
			"example": [
				"a(3) = 2111, 2 followed by three copies of 1."
			],
			"keyword": "base,nonn,dumb",
			"offset": "1,1",
			"author": "_Amarnath Murthy_, Jan 02 2006",
			"ext": [
				"More terms from _Jon E. Schoenfield_, May 27 2010"
			],
			"references": 0,
			"revision": 4,
			"time": "2013-12-05T19:57:06-05:00",
			"created": "2006-01-24T03:00:00-05:00"
		}
	]
}