{
	"greeting": "Greetings from The On-Line Encyclopedia of Integer Sequences! http://oeis.org/",
	"query": "id:A112326",
	"count": 1,
	"start": 0,
	"results": [
		{
			"number": 112326,
			"data": "2,6,4,20,16,8,70,60,40,16,252,224,168,96,32,924,840,672,448,224,64,3432,3168,2640,1920,1152,512,128,12870,12012,10296,7920,5280,2880,1152,256,48620,45760,40040,32032,22880,14080,7040,2560,512,184756,175032",
			"name": "Triangle read by rows: T(n,k)=2^k*binomial(2n-k,n-k), 1\u003c=k\u003c=n.",
			"comment": [
				"Row sums yield A068551.",
				"T(n,1) = binomial(2n,n) = A000984(n); T(n,n) = 2^n."
			],
			"reference": [
				"M. Eisen, Elementary Combinatorial Analysis, Gordon and Breach, 1969 (p. 150)."
			],
			"link": [
				"F. Ruskey, \u003ca href=\"https://doi.org/10.1137/0601007\"\u003eAverage shape of binary trees\u003c/a\u003e, SIAM J. Alg. Disc. Meth., 1, 1980, 43-50."
			],
			"example": [
				"Triangle starts:",
				"2;",
				"6,4;",
				"20,16,8;",
				"70,60,40,16;"
			],
			"maple": [
				"T:=proc(n,k) if k\u003c=n then 2^k*binomial(2*n-k,n-k) else 0 fi end: for n from 1 to 10 do seq(T(n,k),k=1..n) od; # yields sequence in triangular form"
			],
			"mathematica": [
				"Flatten[Table[2^k*Binomial[2n-k,n-k],{n,1,10},{k,1,n}]] (* _Stefano Spezia_, Sep 20 2019 *)"
			],
			"xref": [
				"Cf. A068551, A000984."
			],
			"keyword": "nonn,tabl",
			"offset": "1,1",
			"author": "_Emeric Deutsch_, Sep 04 2005",
			"references": 0,
			"revision": 7,
			"time": "2019-09-20T04:51:00-04:00",
			"created": "2005-09-21T03:00:00-04:00"
		}
	]
}