{
	"greeting": "Greetings from The On-Line Encyclopedia of Integer Sequences! http://oeis.org/",
	"query": "id:A112989",
	"count": 1,
	"start": 0,
	"results": [
		{
			"number": 112989,
			"data": "8,27,64,243,512,2048,6561,16384,59049,131072,524288,1594323,4194304,14348907,33554432,129140163,268435456,1073741824,3486784401,8589934592,31381059609,68719476736,274877906944,847288609443,2199023255552",
			"name": "Terms in A006899 which are closer to the next term than to the previous one.",
			"comment": [
				"Next terms are: 17592186044416, 68630377364883, 140737488355328, 562949953421312, 1853020188851841, 4503599627370496, 16677181699666569, 36028797018963968, 144115188075855872, 450283905890997363, 1152921504606846976. Is the sequence infinite? Cf. A006899 Numbers of the form 2^i or 3^j."
			],
			"formula": [
				"A006899(n) - A006899(n-1) \u003e A006899(n+1) - A006899(n)"
			],
			"mathematica": [
				"un=Union[Flatten[Table[{2^n, 3^n}, {n, 60}]]];Do[If[un[[i]]-un[[i-1]]\u003eun[[i+1]]-un[[i]], Print[un[[i]]]], {i, 2, Length[un]-1}]"
			],
			"xref": [
				"Cf. A006899."
			],
			"keyword": "nonn",
			"offset": "1,1",
			"author": "_Zak Seidov_, Jan 03 2006",
			"references": 0,
			"revision": 3,
			"time": "2012-03-30T17:26:19-04:00",
			"created": "2006-01-24T03:00:00-05:00"
		}
	]
}