{
	"greeting": "Greetings from The On-Line Encyclopedia of Integer Sequences! http://oeis.org/",
	"query": "id:A112729",
	"count": 1,
	"start": 0,
	"results": [
		{
			"number": 112729,
			"data": "312,85632,22013952,1443107438592,369435881766912,24211351590301335552,103986963299971520879061368832",
			"name": "Numbers of the form 2^(n+2)*3*(7*2^n-1) where 7*2^n-1 is prime.",
			"comment": [
				"This sequence is a subsequence of A011251 and A011774, namely if m is in the sequence then phi(m)+sigma(m)=3*m (see Comments line of A011251).",
				"Number of digits of all the 20 known terms of this sequence are respectively 3, 5, 8, 13, 15, 20, 30, 109, 11069, 13566, 14787, 15722, 20988, 25263, 40594, 42272, 101802, 104453, 107155 and 219110."
			],
			"example": [
				"103986963299971520879061368832 is in the sequence because 103986963299971520879061368832=2^(45+2)*3*(7*2^45-1) and 7*2^45-1 is prime."
			],
			"mathematica": [
				"Do[If[PrimeQ[7*2^n-1], Print[3*2^(n+2)*(7*2^n-1)]], {n, 177}]"
			],
			"xref": [
				"Cf. A001771. A011251, A011774."
			],
			"keyword": "easy,nonn",
			"offset": "1,1",
			"author": "_Farideh Firoozbakht_, Dec 01 2005",
			"references": 2,
			"revision": 5,
			"time": "2012-03-30T17:37:43-04:00",
			"created": "2006-01-24T03:00:00-05:00"
		}
	]
}