{
	"greeting": "Greetings from The On-Line Encyclopedia of Integer Sequences! http://oeis.org/",
	"query": "id:A113768",
	"count": 1,
	"start": 0,
	"results": [
		{
			"number": 113768,
			"data": "1,2,3,4,5,6,7,8,10,12,14,16,18,20,22,24,26,28,31,34,37,40,43,46,49,52,55,58,61,64,68,72,76,80,84,88,92,96,100,104,108,112,116,120,124,128,133,138,143,148,153,158,163,168,173,178,183,188,193,198,203,208,213,218,224,230,236,242,248,254,260",
			"name": "a(1) = 1, a(n+1) = a(n) + floor(a(n)^(1/3)).",
			"comment": [
				"First 17 terms identical to A079645 (Integer part of the cube root of n divides n). Replacing cube root by square root gives A033638."
			],
			"link": [
				"Robert Israel, \u003ca href=\"/A113768/b113768.txt\"\u003eTable of n, a(n) for n = 1..10000\u003c/a\u003e"
			],
			"formula": [
				"a(1) = 1, a(n+1) = a(n) + A048766(n)."
			],
			"maple": [
				"A[1]:= 1:",
				"for n from 1 to 100 do A[n+1] := A[n] + floor(A[n]^(1/3)) od:",
				"seq(A[i],i=1..100); # _Robert Israel_, Jul 28 2019"
			],
			"mathematica": [
				"NestList[#+Floor[Surd[#,+3]]\u0026,1,70] (* _Harvey P. Dale_, Jan 21 2013 *)"
			],
			"program": [
				"(MAGMA) [n le 1 select 1 else Self(n-1)+Floor(Self(n-1)^(1/3)): n in [1..75]]; // _Vincenzo Librandi_, Jul 29 2019"
			],
			"xref": [
				"Cf. A033638, A048766, A079645."
			],
			"keyword": "nonn,easy",
			"offset": "1,2",
			"author": "_Jonathan Vos Post_, Jan 19 2006",
			"ext": [
				"Corrected and extended by _Harvey P. Dale_, Jan 21 2013"
			],
			"references": 2,
			"revision": 12,
			"time": "2019-07-29T07:54:35-04:00",
			"created": "2006-01-24T03:00:00-05:00"
		}
	]
}