{
	"greeting": "Greetings from The On-Line Encyclopedia of Integer Sequences! http://oeis.org/",
	"query": "id:A113319",
	"count": 1,
	"start": 0,
	"results": [
		{
			"number": 113319,
			"data": "2,0,7,6,6,7,4,0,4,7,4,6,8,5,8,1,1,7,4,1,3,4,0,5,0,7,9,4,7,5,0,0,0,0,4,9,0,4,4,5,6,5,6,2,6,6,4,0,3,8,1,6,6,6,5,5,7,5,0,6,2,4,8,4,3,9,0,1,5,4,2,4,7,9,1,8,3,1,0,0,2,1,7,4,3,5,6,5,5,5,1,7,5,9,3,9,5,4,9,1,8,7,6,5,1",
			"name": "Decimal expansion of Sum_{k\u003e=0} 1/(k^2+1).",
			"comment": [
				"Known to be transcendental. After n=2 it is the same as A100554(n).",
				"Imaginary part of psi(I) (for the real part, see A248177). - _Stanislav Sykora_, Oct 03 2014"
			],
			"reference": [
				"Michel Waldschmidt, Elliptic functions and transcendance, Surveys in number theory, 143-188, Dev. Math., 17, Springer, New York, 2008."
			],
			"link": [
				"Ivan Panchenko, \u003ca href=\"/A113319/b113319.txt\"\u003eTable of n, a(n) for n = 1..1000\u003c/a\u003e",
				"Wikipedia, \u003ca href=\"http://en.wikipedia.org/wiki/Digamma_function\"\u003eDigamma function\u003c/a\u003e",
				"\u003ca href=\"/index/Tra#transcendental\"\u003eIndex entries for transcendental numbers\u003c/a\u003e"
			],
			"formula": [
				"Equals 1/2 + Pi / tanh(Pi) / 2.",
				"Equals 1+Integral_{x \u003e= 0} sin(x)/(exp(x)-1) dx. - _Robert FERREOL_, Jan 12 2016."
			],
			"example": [
				"2.076674047468581174134050794750000490445656266403816665575062484390..."
			],
			"mathematica": [
				"RealDigits[N[Im[PolyGamma[0,I]],105]][[1]]  (* _Vaclav Kotesovec_, Oct 03 2014 *)"
			],
			"program": [
				"(PARI) 1/2+Pi/tanh(Pi)/2",
				"(PARI) imag(psi(I)) \\\\ - _Stanislav Sykora_, Oct 03 2014"
			],
			"xref": [
				"Cf. A013661 (Sum_{i\u003e=1} 1/i^2), A232883 (Sum_{i\u003e=0} 1/(2*i^2+1)). - _Bruno Berselli_, Dec 02 2013",
				"Cf. A248177.",
				"Essentially the same as A100554 and A259171."
			],
			"keyword": "nonn,cons",
			"offset": "1,1",
			"author": "_Benoit Cloitre_, Jan 07 2006",
			"ext": [
				"Offset changed from 0 to 1 by _Bruno Berselli_, Dec 02 2013"
			],
			"references": 20,
			"revision": 40,
			"time": "2019-11-04T08:54:53-05:00",
			"created": "2006-01-24T03:00:00-05:00"
		}
	]
}