{
	"greeting": "Greetings from The On-Line Encyclopedia of Integer Sequences! http://oeis.org/",
	"query": "id:A113794",
	"count": 1,
	"start": 0,
	"results": [
		{
			"number": 113794,
			"data": "3,2,8,2,1,3,9,7,0,3,6,5,3,8,8,7,0,7,9,2,9,0,6,5,6,3,6,8,9,3,2,9,6,4,6,9,9,1,3,5,7,8,9,9,4,2,6,9,5,3,1,6,1,3,1,2,5,8,9,5,3,3,2,9,7,5,4,5,3,6,0,1,6,6,7,1,2,0,0,9,7,4,3,4,1,8,2,5,1,5,5,5,5,3,3,8,7,3,9,6,2,1,9,4,7",
			"name": "Decimal expansion of (cotangent of 1 degree)^2.",
			"example": [
				"3282.139703... = 1/A111493."
			],
			"maple": [
				"cot(Pi/180)^2; evalf(%) ; # _R. J. Mathar_, Apr 03 2011"
			],
			"xref": [
				"Cf. A073449, A019987."
			],
			"keyword": "cons,nonn",
			"offset": "4,1",
			"author": "_Mohammad K. Azarian_, Jan 21 2006",
			"ext": [
				"Offset changed by _Mohammad K. Azarian_, Dec 13 2008"
			],
			"references": 0,
			"revision": 10,
			"time": "2015-08-09T01:29:03-04:00",
			"created": "2006-01-24T03:00:00-05:00"
		}
	]
}