{
	"greeting": "Greetings from The On-Line Encyclopedia of Integer Sequences! http://oeis.org/",
	"query": "id:A113561",
	"count": 1,
	"start": 0,
	"results": [
		{
			"number": 113561,
			"data": "6,16,126,1016,100060,100026,1000006,10000016,100000026,10000000060,10000000076,100000000056,1000000000116,10000000000046,1000000000000065,1000000000000016,10000000000000016,100000000000000026,1000000000000000056",
			"name": "Least multiple of n in which the n-th digit from left is 6.",
			"example": [
				"a(4)= 10060, in which the fourth digit is 6."
			],
			"xref": [
				"Cf. A113556, A113557, A113558, A113559, A113560."
			],
			"keyword": "base,easy,nonn",
			"offset": "1,1",
			"author": "_Amarnath Murthy_, Nov 06 2005",
			"ext": [
				"Corrected and extended by _Joshua Zucker_, May 03 2006"
			],
			"references": 3,
			"revision": 4,
			"time": "2013-12-05T19:57:07-05:00",
			"created": "2006-01-24T03:00:00-05:00"
		}
	]
}