{
	"greeting": "Greetings from The On-Line Encyclopedia of Integer Sequences! http://oeis.org/",
	"query": "id:A113276",
	"count": 1,
	"start": 0,
	"results": [
		{
			"number": 113276,
			"data": "1,1,0,6,4,9,5,7,7,1,4",
			"name": "Decimal expansion of de Bruijn's constant.",
			"comment": [
				"From _Amiram Eldar_, Jun 22 2021: (Start)",
				"The minimal number c such that for any sequence of nonnegative numbers b(k) the following inequality always holds: Sum_{k\u003e=1} b(k) \u003c= c * Sum_{k\u003e=1} sqrt(Sum_{i\u003e=k} b(i)^2/k).",
				"Also called the Copson-de Bruijn constant after the British mathematician Edward Thomas Copson (1901-1980) and the Dutch mathematician Nicolaas Govert de Bruijn (1918-2012). (End)"
			],
			"reference": [
				"R. P. Boas and N. G. de Bruijn, Solution for problem 83, Wiskundige Opgaven met de Oplossingen, Vol. 20 (1957), pp. 2-4.",
				"N. G. de Bruijn, Asymptotic Methods in Analysis, New York: Dover, 1981. See p. 174.",
				"Steven R. Finch, Mathematical Constants, Cambridge University Press, 2003, pp. 217-219."
			],
			"link": [
				"E. T. Copson, \u003ca href=\"https://doi.org/10.1112/jlms/s1-2.1.9\"\u003eNote on Series of Positive Terms\u003c/a\u003e, J. London Math. Soc., Vol. 2 (1927), pp. 9-12.",
				"E. T. Copson, \u003ca href=\"https://doi.org/10.1112/jlms/s1-3.1.49\"\u003eNote on Series of Positive Terms\u003c/a\u003e, J. London Math. Soc., Vol. 3 (1928), pp. 49-51.",
				"Eric Weisstein's World of Mathematics, \u003ca href=\"http://mathworld.wolfram.com/deBruijnConstant.html\"\u003ede Bruijn Constant\u003c/a\u003e."
			],
			"example": [
				"1.1064957714..."
			],
			"keyword": "nonn,cons,hard,more",
			"offset": "1,4",
			"author": "_Eric W. Weisstein_, Oct 21 2005",
			"references": 0,
			"revision": 13,
			"time": "2021-06-22T12:30:52-04:00",
			"created": "2006-01-24T03:00:00-05:00"
		}
	]
}