{
	"greeting": "Greetings from The On-Line Encyclopedia of Integer Sequences! http://oeis.org/",
	"query": "id:A113815",
	"count": 1,
	"start": 0,
	"results": [
		{
			"number": 113815,
			"data": "2,2,4,7,0,6,5,3,6,7,3,7,9,4,0,5,1,4,4,5,3,0,1,3,1,6,7,1,5,0,5,6,3,0,7,1,5,8,3,3,4,9,6,4,0,1,1,3,4,0,0,3,2,3,2,9,6,2,3,9,5,8,6,8,1,5,4,3,6,2,5,5,6,7,5,6,5,0,5,4,7,5,4,1,7,8,7,7,8,1,4,0,9,8,5,1,0,7,8,9,9,9,0,1,2",
			"name": "Decimal expansion of (cotangent of 1 degree)^(1/5).",
			"link": [
				"G. C. Greubel, \u003ca href=\"/A113815/b113815.txt\"\u003eTable of n, a(n) for n = 1..5000\u003c/a\u003e"
			],
			"example": [
				"Equals (cot(Pi/180))^(1/5) = 2.247065367379405144530132...."
			],
			"mathematica": [
				"RealDigits[(Cot[Pi/180])^(1/5), 10, 50][[1]] (* _G. C. Greubel_, Jun 08 2017 *)",
				"RealDigits[Surd[Cot[1 Degree],5],10,120][[1]] (* _Harvey P. Dale_, Mar 09 2019 *)"
			],
			"program": [
				"(PARI) (1/tan(Pi/180))^(1/5) \\\\ _G. C. Greubel_, Jun 08 2017"
			],
			"xref": [
				"Cf. A073449; A019987."
			],
			"keyword": "cons,nonn",
			"offset": "1,1",
			"author": "_Mohammad K. Azarian_, Jan 22 2006",
			"references": 1,
			"revision": 9,
			"time": "2019-03-09T10:59:50-05:00",
			"created": "2006-01-24T03:00:00-05:00"
		}
	]
}