{
	"greeting": "Greetings from The On-Line Encyclopedia of Integer Sequences! http://oeis.org/",
	"query": "id:A113480",
	"count": 1,
	"start": 0,
	"results": [
		{
			"number": 113480,
			"data": "0,1,105,369,25521",
			"name": "Numbers n such that 17^n + 2 is prime.",
			"comment": [
				"Only numbers of the form 6k-5 and 6k-3 need be tested.",
				"No further terms \u003c 100000. - _Ray Chandler_, Jul 31 2011",
				"a(6) \u003e 2*10^5. - _Robert Price_, Oct 23 2014"
			],
			"link": [
				"Henri \u0026 Renaud Lifchitz, \u003ca href=\"http://www.primenumbers.net/prptop/searchform.php?form=17%5En%2B2\u0026amp;action=Search\"\u003ePRP Records\u003c/a\u003e."
			],
			"mathematica": [
				"Do[If[PrimeQ[17^n + 2], Print[n]], {n, 0, 2500}] (* _Stefan Steinerberger_, Jan 28 2006 *)",
				"Join[{0},",
				"Select[Flatten[Table[6 n - {5, 3}, {n, 5000}]], PrimeQ[17^# + 2] \u0026]] (* _Harvey P. Dale_, Feb 25 2021 *)"
			],
			"program": [
				"(PARI) g2(n)= { print1(0\",\"); forstep(x=1,n,6, if(ispseudoprime(17^x+2),print1(x\",\")); if(ispseudoprime(17^(x+2)+2),print1(x+2\",\")) ) }"
			],
			"keyword": "nonn",
			"offset": "1,3",
			"author": "_Cino Hilliard_, Jan 09 2006",
			"ext": [
				"25521 from _Ray Chandler_, Jul 30 2011"
			],
			"references": 8,
			"revision": 18,
			"time": "2021-02-25T19:39:26-05:00",
			"created": "2006-01-24T03:00:00-05:00"
		}
	]
}