{
	"greeting": "Greetings from The On-Line Encyclopedia of Integer Sequences! http://oeis.org/",
	"query": "id:A113781",
	"count": 1,
	"start": 0,
	"results": [
		{
			"number": 113781,
			"data": "1,21,63,502,4435,5229,5637,6822,8022,35683,98802,176481,210526,421052,442881,480249,529443,544435,640170,842104,920262,976482,7390422,21251221,28934019,36174255,36563587,51804709,59963997,60550457",
			"name": "Numbers k such that the representation of phi(k) is a cyclic permutation of that of k, in base 10.",
			"comment": [
				"This is a subsequence of A115921, which in turn is a subsequence of A082060. - _M. F. Hasler_, Nov 28 2007"
			],
			"example": [
				"phi(442881) = 288144."
			],
			"mathematica": [
				"lst = {}; Do[s = ToString@n; d = ToString@EulerPhi@n; If[StringLength@d == StringLength@n \u0026\u0026 {}!= StringPosition[s\u003c\u003es, d], AppendTo[lst, n]], {n, 10^6}]; lst",
				"lst = {}; Do[s = ToString(AT)n; d = ToString(AT)EulerPhi(AT)n; If[StringLength(AT)d == StringLength(AT)n \u0026\u0026 {}!= StringPosition[s\u003c\u003es, d], AppendTo[lst, n]], {n, 10^6}]; lst (* _M. F. Hasler_, Nov 28 2007 *)"
			],
			"xref": [
				"Cf. A000010, A115921, A082060."
			],
			"keyword": "base,nonn",
			"offset": "1,2",
			"author": "_Giovanni Resta_, Jan 26 2006",
			"ext": [
				"a(24)-a(30) from _Donovan Johnson_, Aug 27 2010"
			],
			"references": 2,
			"revision": 11,
			"time": "2021-07-22T07:52:39-04:00",
			"created": "2006-02-24T03:00:00-05:00"
		}
	]
}