{
	"greeting": "Greetings from The On-Line Encyclopedia of Integer Sequences! http://oeis.org/",
	"query": "id:A113331",
	"count": 1,
	"start": 0,
	"results": [
		{
			"number": 113331,
			"data": "1,6,72,900,11520,149904,1976400,26363232,355648320,4854292416,67114780416,941774874624,13451571452160,196362144456192,2945496714485760,45717104468689920,740282299231703040",
			"name": "a(n) = Sum_{k=0..n} 6^k*A111146(n,k).",
			"formula": [
				"G.f.: A(x) = 1/(1 - 6/5!*x*Sum(k\u003e=0} (k+5)!*x^k )."
			],
			"example": [
				"A(x) = (1 + 6*x + 72*x^2 + 900*x^3 + 11520*x^4 + 149904*x^5 +..)",
				"= 1/(1 - 6/5!*x*(5! + 6!*x + 7!*x^2 + 8!*x^3 + 9!*x^4 +..) )."
			],
			"program": [
				"(PARI) {a(n)=local(y=6,x=X+X*O(X^n)); polcoeff(1/(1 - y/(y-1)!*x*sum(k=0,n,(y-1+k)!*x^k)),n,X)}"
			],
			"xref": [
				"Cf. A111146, A113326, A113327 (y=2), A113328 (y=3), A113329 (y=4), A113330 (y=5)."
			],
			"keyword": "nonn",
			"offset": "0,2",
			"author": "_Philippe Deléham_ and _Paul D. Hanna_, Oct 26 2005",
			"references": 6,
			"revision": 6,
			"time": "2013-09-08T13:30:50-04:00",
			"created": "2006-01-24T03:00:00-05:00"
		}
	]
}