{
	"greeting": "Greetings from The On-Line Encyclopedia of Integer Sequences! http://oeis.org/",
	"query": "id:A113610",
	"count": 1,
	"start": 0,
	"results": [
		{
			"number": 113610,
			"data": "0,4,6,18,3,18,9,9,40,3,35,27,6,27,43,55,6,50,36,9,65,27,70,84,36,3,18,9,9,93,27,40,12,81,6,50,53,36,58,70,9,126,12,45,18,68,83,27,12,18,55,6,99,55,58,70,9,65,45,12,135,147,27,6,27,126,50,99,15,27,70,84,68,80,36",
			"name": "Sum of digits of all composite numbers between prime(n) and prime(n+1).",
			"comment": [
				"Conjecture: For n \u003e 9 if a(n) \u003e a(n+1) \u003c a(n+2) then prime(n) and prime(n+1) form a twin prime pair."
			],
			"example": [
				"2 '' 3 '4' 5 '6' 7 '8910' 11 '12' 13 '141516' 17 '18' 19 '202122' 23 '2425262728' 29,..."
			],
			"mathematica": [
				"Table[Total[Flatten[IntegerDigits/@Range[Prime[n]+1,Prime[n+1]-1]]],{n, 200}] # _Zak Seidov_, Nov 13 2009"
			],
			"xref": [
				"Cf. A175038 [_Zak Seidov_, Nov 13 2009]"
			],
			"keyword": "base,easy,nonn",
			"offset": "1,2",
			"author": "_Amarnath Murthy_, Nov 09 2005",
			"ext": [
				"More terms from Elizabeth A. Blickley (Elizabeth.Blickley(AT)gmail.com), Mar 10 2006"
			],
			"references": 1,
			"revision": 5,
			"time": "2013-12-05T19:57:07-05:00",
			"created": "2006-01-24T03:00:00-05:00"
		}
	]
}