{
	"greeting": "Greetings from The On-Line Encyclopedia of Integer Sequences! http://oeis.org/",
	"query": "id:A113289",
	"count": 1,
	"start": 0,
	"results": [
		{
			"number": 113289,
			"data": "1,-1,4,-15,36,-119,302,-911,2440,-7199,20186,-60359,177204,-546615,1683286,-5401759,17456128,-58447151,197925490,-691264279,2446636396,-8897012871,32811147054,-123933345455,474792813176,-1858243857599,7375013350282,-29840434526951",
			"name": "Row sums of triangle A113288.",
			"xref": [
				"Cf. A113287, A113288, A113290."
			],
			"keyword": "sign",
			"offset": "0,3",
			"author": "_Paul D. Hanna_, Oct 23 2005",
			"references": 1,
			"revision": 3,
			"time": "2012-03-30T18:36:51-04:00",
			"created": "2006-01-24T03:00:00-05:00"
		}
	]
}