{
	"greeting": "Greetings from The On-Line Encyclopedia of Integer Sequences! http://oeis.org/",
	"query": "id:A113461",
	"count": 1,
	"start": 0,
	"results": [
		{
			"number": 113461,
			"data": "0,1,2,6,6,30,150,1210230,32671170,224494620,1536160080,1482708889200",
			"name": "Common differences of arithmetic progressions in A113460.",
			"comment": [
				"Apart from the initial term, does this sequence coincide with A061558? Does A113460 coincide with A130791? - _N. J. A. Sloane_, Sep 22 2007",
				"Apart from the initial term, this sequence coincides with A061558 for at least the first 210 terms. - _David W. Wilson_, Sep 22 2007"
			],
			"link": [
				"\u003ca href=\"/index/Pri#primes_AP\"\u003eIndex entries for sequences related to primes in arithmetic progressions\u003c/a\u003e"
			],
			"xref": [
				"Cf. A113460, A113459, A127781."
			],
			"keyword": "hard,nonn",
			"offset": "1,3",
			"author": "_David Wasserman_, Jan 08 2006",
			"references": 4,
			"revision": 10,
			"time": "2012-03-30T18:35:45-04:00",
			"created": "2006-01-24T03:00:00-05:00"
		}
	]
}