{
	"greeting": "Greetings from The On-Line Encyclopedia of Integer Sequences! http://oeis.org/",
	"query": "id:A113218",
	"count": 1,
	"start": 0,
	"results": [
		{
			"number": 113218,
			"data": "0,1,2,3,4,5,6,7,8,9,11,10,13,12,15,14,17,16,20,18,22,19,24,21,26,23,29,25,31,27,33,28,35,30,38,32,40,34,42,36,44,37,47,39,49,41,51,43,53,45,56,46,58,48,60,50,62,52,65,54,67,55,69,57,71,59,74,61,76,63,78,64,80",
			"name": "Lexicographically earliest permutation of the natural numbers with alternating parities of digital roots in decimal representation.",
			"comment": [
				"inverse: A113220; A113219 = a(a(n));",
				"A113217(a(n)) = A000035(n)."
			],
			"link": [
				"\u003ca href=\"/index/Per#IntegerPermutation\"\u003eIndex entries for sequences that are permutations of the natural numbers\u003c/a\u003e",
				"Eric Weisstein's World of Mathematics, \u003ca href=\"http://mathworld.wolfram.com/DigitalRoot.html\"\u003eDigital Root\u003c/a\u003e"
			],
			"xref": [
				"Cf. A010888."
			],
			"keyword": "nonn,easy,base",
			"offset": "0,3",
			"author": "_Reinhard Zumkeller_, Oct 18 2005",
			"references": 5,
			"revision": 12,
			"time": "2015-04-04T21:49:03-04:00",
			"created": "2006-01-24T03:00:00-05:00"
		}
	]
}