{
	"greeting": "Greetings from The On-Line Encyclopedia of Integer Sequences! http://oeis.org/",
	"query": "id:A113877",
	"count": 1,
	"start": 0,
	"results": [
		{
			"number": 113877,
			"data": "256,1296,4096,6561,10000,38416,46656,50625,194481,234256,262144,390625,456976,531441,1000000,1048576,1185921,1336336,1500625,2085136,2313441,4477456,5764801,6765201,7529536,9150625,10077696,10556001,11316496,11390625,14776336",
			"name": "Semiprimes to semiprime powers.",
			"comment": [
				"This is the semiprime analog of A053810 (numbers of the form p^q where p and q are primes)."
			],
			"link": [
				"Charles R Greathouse IV, \u003ca href=\"/A113877/b113877.txt\"\u003eTable of n, a(n) for n = 1..10000\u003c/a\u003e"
			],
			"formula": [
				"{a(n)} = {a^b where a and b are elements of A001358}. {a(n)} = {(p*q)^(r*s) = (p^(r*s))*(q^r*s) for distinct primes p, q, r, s} UNION {(p*q)^(p*r) = (p^(p*r))*(q^(p*r)) for distinct primes p, q, r} UNION {(p*q)^(r*r) = (p^(r^2))*(q^(r^2)) for distinct primes p, q, r} UNION {(p*q)^(p*q)= (p^(p*q))*(q^(p*q)) for distinct primes p, q} UNION {(p^2)^(p^2) = p^(2*(p^2)) for prime p}.",
				"a(n) ~ (n log n/log log n)^4. - _Charles R Greathouse IV_, Jun 05 2013"
			],
			"example": [
				"a(1) = 256 = 4^4 = semiprime(1)^semiprime(1).",
				"a(2) = 1296 = 6^4 = semiprime(2)^semiprime(1).",
				"a(3) = 4096 = 4^6 = semiprime(1)^semiprime(2).",
				"a(4) = 6561 = 9^4 = semiprime(3)^semiprime(1).",
				"a(5) = 10000 = 10^4."
			],
			"mathematica": [
				"lim = 10^8; s = Select[Range[lim^(1/4)], Total[Transpose[FactorInteger[#]][[2]]] == 2 \u0026]; t = {}; j = 1; While[b = s[[j]]; i = 1; While[a = s[[i]]; e = a^b; If[e \u003c= lim, AppendTo[t, e]]; e \u003c lim \u0026\u0026 i \u003c Length[s], i++]; i \u003e 1, j++]; t = Union[t] (* _T. D. Noe_, Jun 05 2013 *)"
			],
			"program": [
				"(PARI) is(n)=my(b,e=ispower(n,,\u0026b),o); if(e==0,return(0)); o=bigomega(e); (o==2 \u0026\u0026 bigomega(b)==2) || (e%2==0 \u0026\u0026 o==3 \u0026\u0026 isprime(b)) \\\\ _Charles R Greathouse IV_, Jun 05 2013",
				"(PARI) list(lim)=my(v=List());for(e=4,log(lim\\=1+.5)\\log(4), if(bigomega(e)!=2, next); for(b=4,(lim+.5)^(1/e), if(bigomega(b)==2, listput(v,b^e)))); vecsort(Vec(v)) \\\\ _Charles R Greathouse IV_, Jun 05 2013"
			],
			"xref": [
				"Cf. A000040, A001358, A113854, A053810."
			],
			"keyword": "easy,nonn",
			"offset": "1,1",
			"author": "_Jonathan Vos Post_, Jan 27 2006",
			"ext": [
				"Terms corrected by _Charles R Greathouse IV_, Jun 05 2013"
			],
			"references": 9,
			"revision": 17,
			"time": "2015-07-11T10:32:25-04:00",
			"created": "2006-02-24T03:00:00-05:00"
		}
	]
}