{
	"greeting": "Greetings from The On-Line Encyclopedia of Integer Sequences! http://oeis.org/",
	"query": "id:A113821",
	"count": 1,
	"start": 0,
	"results": [
		{
			"number": 113821,
			"data": "1,2,3,5,6,7,4,12,13,14,9,11,15,17,19,10,18,20,21,22,23,25,26,27,28,29,30,31,8,24,40,41,42,43,44,45,33,35,37,39,46,47,49,51,53,34,38,50,54,55,56,57,58,59,60,61,62,63,65,66,67,69,70,71,72,73,36,52,68,74,75,76,77",
			"name": "Triangle where a(1,1)=1; and the n terms of row n are the smallest positive integers not occurring earlier in the sequence such that, for any given m (1 \u003c= m \u003c= n), a(n,m) and n have at least one 1-bit in the same position when they are written in binary.",
			"comment": [
				"Sequence is a permutation of the positive integers."
			],
			"link": [
				"Michael De Vlieger, \u003ca href=\"/A113821/b113821.txt\"\u003eTable of n, a(n) for n = 1..11325\u003c/a\u003e (Rows 1 \u003c= n \u003c= 150)."
			],
			"example": [
				"4 = 100 in binary. Among the positive integers not occurring among the first 3 rows of the sequence (4 = 100 in binary, 8 = 1000 in binary, 9 = 1001 in binary, etc...), [4,12,13,14] (which is [100,1100,1101,1110] in binary) are the lowest 4 positive integers that share at least one 1-bit with 4 when written in binary. So row 4 is [4,12,13,14].",
				"From _Michael De Vlieger_, Aug 16 2017: (Start)",
				"Triangle begins:",
				"   1",
				"   2   3",
				"   5   6   7",
				"   4  12  13  14",
				"   9  11  15  17  19",
				"  10  18  20  21  22  23",
				"  25  26  27  28  29  30  31",
				"   8  24  40  41  42  43  44  45",
				"  33  35  37  39  46  47  49  51  53",
				"  34  38  50  54  55  56  57  58  59  60",
				"  61  62  63  65  66  67  69  70  71  72  73",
				"  36  52  68  74  75  76  77  78  79  84  85  86",
				"  ...",
				"(End)"
			],
			"mathematica": [
				"Block[{a = {{1}}}, Do[a = Join[a, {Take[#, n]}] \u0026@ Select[Flatten@ Position[Array[BitAnd[n, #] \u0026, 120], k_ /; k \u003e 0], FreeQ[a, #] \u0026], {n, 2, 12}]; Flatten@ a] (* _Michael De Vlieger_, Aug 16 2017 *)"
			],
			"xref": [
				"Cf. A115630 (inverse), A115640 (fixed points), A115641 (cycles), A115642 (cycle lengths).",
				"Row sums are in A160969. - _Klaus Brockhaus_, May 31 2009"
			],
			"keyword": "easy,nonn,tabl",
			"offset": "1,2",
			"author": "_Leroy Quet_, Jan 23 2006",
			"ext": [
				"More terms from _Klaus Brockhaus_, Jan 29 2006"
			],
			"references": 7,
			"revision": 18,
			"time": "2017-08-17T05:42:14-04:00",
			"created": "2006-01-24T03:00:00-05:00"
		}
	]
}