{
	"greeting": "Greetings from The On-Line Encyclopedia of Integer Sequences! http://oeis.org/",
	"query": "id:A114883",
	"count": 1,
	"start": 0,
	"results": [
		{
			"number": 114883,
			"data": "1,2,4,3,12,7,5,24,17,10,6,60,38,27,13,8,84,71,45,32,16,9,144,110,93,59,42,19,11,180,161,123,104,66,47,22,14,264,218,195,149,126,80,57,28",
			"name": "Obtained from A114882 by deleting row 1 and dividing by 2.",
			"comment": [
				"A permutation of the natural numbers. Row 1 consists of those congruent to 1 mod 3. (One can then delete row 1 of A114883, leaving only numbers congruent to 0 or 2 mod 3 and then replace each by its rank, thus obtaining another permutation of the natural numbers.)",
				"Also numbers from the array A083140, without the first row, minus 1 divided by 2."
			],
			"example": [
				"Start with the northwest corner of A114881:",
				"  1  3  5  7   9",
				"  2  8 14 20  26",
				"  4 24 34 54  64",
				"  6 48 76 90 118",
				"Delete row 1, leaving all the even positive integers; divide them by 2:",
				"  1  4  7 10 13",
				"  2 12 17 27 32",
				"  3 24 38 45 59"
			],
			"xref": [
				"Cf. A083140, A114881."
			],
			"keyword": "nonn,tabl",
			"offset": "1,2",
			"author": "_Clark Kimberling_, Jan 03 2006",
			"references": 3,
			"revision": 12,
			"time": "2021-11-19T15:49:22-05:00",
			"created": "2006-01-24T03:00:00-05:00"
		}
	]
}