{
	"greeting": "Greetings from The On-Line Encyclopedia of Integer Sequences! http://oeis.org/",
	"query": "id:A114699",
	"count": 1,
	"start": 0,
	"results": [
		{
			"number": 114699,
			"data": "0,0,0,0,0,0,0,0,0,0,0,1,0,0,2,0,0,3,0,0,6,0,0,10,1,0,18,0,0,36,0,0,62,0,4,113,0,0,210,6,0,391,0,0,739,0,0,1365,2,20,2570,0,0,4854,37,4,9198,0,0,17544,0,0,33296,0,126,63550,0,0,121574,248,0,233016,0,0,447828,0",
			"name": "A000799(n) - A064355(n).",
			"comment": [
				"There was a suggestion that these were the same sequence, but they are not."
			],
			"formula": [
				"A000799(n) = A064355(n) just for: (1) n a power of 2. (2) n = p * 2^k, where p is a prime with p \u003e 2^{2^k - k}. (Including the case k=0. ) (3) n = 9. -Franklin T. Adams-Watters, Feb 14 2006"
			],
			"mathematica": [
				"f[n_] := Block[{d = Select[Divisors@n, OddQ@# \u0026]}, Floor[2^n/n] - Plus @@ (2^(n/d)*MoebiusMu@d)/n]; Array[f, 76] (* _Robert G. Wilson v_ *)"
			],
			"xref": [
				"Cf. A000799, A064355."
			],
			"keyword": "nonn",
			"offset": "0,15",
			"author": "Paul D. Hanna, Feb 20 2006",
			"ext": [
				"More terms from _Robert G. Wilson v_, Feb 20 2006"
			],
			"references": 0,
			"revision": 4,
			"time": "2013-10-31T12:17:36-04:00",
			"created": "2006-02-24T03:00:00-05:00"
		}
	]
}