{
	"greeting": "Greetings from The On-Line Encyclopedia of Integer Sequences! http://oeis.org/",
	"query": "id:A114519",
	"count": 1,
	"start": 0,
	"results": [
		{
			"number": 114519,
			"data": "2,3,5,5,7,7,11,7,13,17,11,19,13,23,11,11,29,31,19,13,37,13,41,43,47,19,17,53,29,31,59,61,67,71,17,73,23,79,43,83,19,89,97,29,101,103,107,31,109,23,113,61,127,131,137,139,73,41,149,151,157,37,83,163,19,167,47",
			"name": "a(n) = A008475(A114518(n)).",
			"link": [
				"Nathaniel Johnston, \u003ca href=\"/A114519/b114519.txt\"\u003eTable of n, a(n) for n = 1..10000\u003c/a\u003e"
			],
			"example": [
				"A114518(15) = 24 = 2^3 * 3 and 2^3 + 3 = 11 (which is prime). So a(15) = 11."
			],
			"mathematica": [
				"f[n_] := Plus @@ Power @@@ FactorInteger[n]; Select[f /@ Range[175], PrimeQ[ # ] \u0026] (* _Ray Chandler_, Dec 07 2005 *)"
			],
			"program": [
				"(PARI) A008475(n)=local(t);if(n\u003c1,0,t=factor(n);sum(k=1,matsize(t)[1],t[k,1]^t[k,2])); for(i=1,500,if(isprime(A008475(i)),print1(A008475(i),\",\"))) (Herrgesell)"
			],
			"xref": [
				"Cf. A008475, A114518."
			],
			"keyword": "nonn",
			"offset": "1,1",
			"author": "_Leroy Quet_, Dec 05 2005",
			"ext": [
				"Extended by _Ray Chandler_ and Lambert Herrgesell (zero815(AT)googlemail.com), Dec 07 2005"
			],
			"references": 4,
			"revision": 12,
			"time": "2019-10-11T16:27:40-04:00",
			"created": "2006-01-24T03:00:00-05:00"
		}
	]
}