{
	"greeting": "Greetings from The On-Line Encyclopedia of Integer Sequences! http://oeis.org/",
	"query": "id:A114931",
	"count": 1,
	"start": 0,
	"results": [
		{
			"number": 114931,
			"data": "10,20,40,50,80,210,420,630,711,831,840,2910,29910,40320,80640,98361,673140,865580,8656341,466760130,694602930,821412711,23465346510,40396039620,63130473930,234000006510,464205665820,2340653406510,2346599346510",
			"name": "Numbers n such that phi(n)=4*reversal(n).",
			"comment": [
				"If p=10^m-3 is prime then 30*p is in the sequence because phi(30*p)=phi(30)*phi(p)=8*(10^m-4)=4*(2*10^m-8)=4*reversal (3*10^m-9)=4*reversal(3*p)=4*reversal(30*p). Next term is greater than 55*10^7.",
				"Let f(m,n)=(78*10^(m+3)+210)*(10^(n*(m+4))-1)/(10^(m+4)-1)+7, if p=f(m,n) is prime then 30*p is a term of the sequence. - _Jahangeer Kholdi_, Nov 13 2013",
				"Also if p=(1/101)*(680*10000^n+27) is prime then 60*p is in the sequence. - _Jahangeer Kholdi_, Nov 13 2013",
				"a(30) \u003e 10^13. - _Giovanni Resta_, Aug 12 2019"
			],
			"example": [
				"20 is in the sequence because phi(20)=4*2=4*reversal(20)."
			],
			"mathematica": [
				"Do[If[EulerPhi[n]==4*FromDigits[Reverse[IntegerDigits[n]]], Print[n]], {n, 550000000}]"
			],
			"xref": [
				"Cf. A000010, A004086, A069215, A114930, A136538."
			],
			"keyword": "nonn,base,more",
			"offset": "1,1",
			"author": "_Farideh Firoozbakht_, Jan 29 2006",
			"ext": [
				"a(21)-a(27) from _Giovanni Resta_, Oct 28 2012",
				"a(28)-a(29) from _Giovanni Resta_, Aug 12 2019"
			],
			"references": 2,
			"revision": 20,
			"time": "2019-08-13T07:04:39-04:00",
			"created": "2006-02-24T03:00:00-05:00"
		}
	]
}