{
	"greeting": "Greetings from The On-Line Encyclopedia of Integer Sequences! http://oeis.org/",
	"query": "id:A114512",
	"count": 1,
	"start": 0,
	"results": [
		{
			"number": 114512,
			"data": "1,3,5,9,11,17,19,21,25,35,37,49,51,53,57,59,65,83,85,105,107,129,131,133,137,163,165,167,171,173,179,181,183,187,197,233,235,273,275,277,281,283,289,291,293,297,307,309,321,371,373,425,427,481,483,485,489",
			"name": "Number of terms in s(n), where s(n) is defined at sequence A114510.",
			"example": [
				"s(3), as defined at A114510, is {0,0,1,0,2,0,0,1,3}; so a(3) = 9."
			],
			"mathematica": [
				"s[0] = {0}; s[n_] := s[n] = Flatten[{s[n - 1], s[s[n - 1][[n]]], {n}}]; Table[Length[s[n]], {n, 0, 56}] (* _Ray Chandler_, Dec 05 2005 *)"
			],
			"xref": [
				"Cf. A114510."
			],
			"keyword": "easy,nonn",
			"offset": "0,2",
			"author": "_Leroy Quet_, Dec 03 2005",
			"ext": [
				"Extended by _Ray Chandler_, Dec 05 2005"
			],
			"references": 1,
			"revision": 9,
			"time": "2019-10-11T16:29:16-04:00",
			"created": "2006-01-24T03:00:00-05:00"
		}
	]
}