{
	"greeting": "Greetings from The On-Line Encyclopedia of Integer Sequences! http://oeis.org/",
	"query": "id:A114309",
	"count": 1,
	"start": 0,
	"results": [
		{
			"number": 114309,
			"data": "3,5,6,7,8,20,21,31,33,35,37,39,40,51,53,55,57,58,70,72,74,76,81,91,93,95,97,98,101,210,211,311,313,315,410,501,611,710,711,713,715,810,901,2011,2111,3111,3113,3115,3117,3119,3131,3133,3135,3137,3139,3151,3153",
			"name": "Lexicographically earliest sequence which has the property that it lists the position of the even digits in the concatenation of its terms.",
			"comment": [
				"A self-describing sequence. See the sequence as a succession of digits: then a(n) is the position of the even digits of the sequence.",
				"\"Lexicographically earliest\" refers to comparing sequences term by term, not the strings obtained by the concatenation. (This is not possible, since then the first term could be an arbitrarily long string of 1's.) In other words, term after term, the smallest possible value not leading to a contradiction is appended."
			],
			"example": [
				"We can't have a(1)=1 (since then the first digit would not be even) nor a(1)=2 (since then the first digit would be even), but a(1)=3 is possible.",
				"This implies that there follows another odd digit, a(2)=5, before the first even digit a(a(1))=a(3)=6.",
				"Then comes another odd digit, a(4)=7, since the second even digit occurs only in position a(2)=5, namely a(5)=8.",
				"______________________ 1 _________________ 2 _________________ 3 _ ...",
				"pos. 1 2 3 4 5 6 7 8 9 0 1 2 3 4 5 6 7 8 9 0 1 2 3 4 5 6 7 8 9 0 1 ...",
				"seq. 3,5,6,7,8,2 0,2 1,3 1,3 3,3 5,3 7,3 9,4 0,5 1,5 3,5 5,5 7,5 8,...",
				"The even digits of the sequence are between parentheses here:",
				"Sequence: 3,5,(6),7,(8),(2)(0),(2)1,31,33,35,37,39,(4)(0)...",
				"Positions of even digits: 3, 5, 6, 7, 8, 20, 21... = the sequence itself"
			],
			"keyword": "base,easy,nonn,nice",
			"offset": "1,1",
			"author": "_Eric Angelini_, Feb 05 2006",
			"ext": [
				"Edited by _M. F. Hasler_, Dec 06 2009",
				"Further edits by _N. J. A. Sloane_, Dec 19 2009",
				"More terms from _Jon E. Schoenfield_, May 05 2010"
			],
			"references": 1,
			"revision": 9,
			"time": "2015-04-04T10:01:56-04:00",
			"created": "2006-02-24T03:00:00-05:00"
		}
	]
}