{
	"greeting": "Greetings from The On-Line Encyclopedia of Integer Sequences! http://oeis.org/",
	"query": "id:A114034",
	"count": 1,
	"start": 0,
	"results": [
		{
			"number": 114034,
			"data": "1,2,11,12,21,111,22,112,121,211,1111,122,212,221,1112,1121,1211,2111,11111,222,1122,1212,1221,2112,2121,2211,11112,11121,11211,12111,21111,111111,1222,2122,2212,2221,11122,11212,11221,12112,12121,12211,21112,21121,21211,22111,111112,111121,111211,112111,112111,121111,211111,1111111",
			"name": "Let f(n) be the number of sequences of 1's and 2's which sum to n. Sequence contains the string of sequences.",
			"comment": [
				"Number of sequences of ones and twos that sum to n are Fibonacci(n+1). The maximum number of terms in a sequence is n. (111111 n times). Following is the triangle of the frequency of sequences of each size:",
				"1",
				"1 1",
				"0 2 1",
				"0 1 3 1",
				"0 0 3 4 1",
				"0 0 1 6 5 1",
				"...",
				"This is a vertical Pascal's triangle and the horizontal sum gives the Fibonacci numbers."
			],
			"link": [
				"N. Karimilla Bi, Amritanshu Prasad, P. Giftson Santhosh, \u003ca href=\"https://arxiv.org/abs/1702.06684\"\u003eResidues modulo powers of two in the Young-Fibonacci lattice\u003c/a\u003e, arXiv:1702.06684 [math.CO], 2017. See Figure 1."
			],
			"example": [
				"1: 1: f(1) = 1.",
				"2: 2,11: f(2) = 2.",
				"3: 12,21,111: f(3) = 3.",
				"4: 22,112,121,211,1111: f(4) = 5.",
				"5: 122,212,221,1112,1121,1211,2111,11111: f(5) = 8.",
				"..."
			],
			"keyword": "nonn,tabf",
			"offset": "1,2",
			"author": "_Amarnath Murthy_, Nov 13 2005",
			"ext": [
				"More terms from Terryjames Morris (trm5002(AT)psu.edu), Mar 09 2007"
			],
			"references": 0,
			"revision": 7,
			"time": "2017-03-02T02:31:08-05:00",
			"created": "2006-01-24T03:00:00-05:00"
		}
	]
}