{
	"greeting": "Greetings from The On-Line Encyclopedia of Integer Sequences! http://oeis.org/",
	"query": "id:A114712",
	"count": 1,
	"start": 0,
	"results": [
		{
			"number": 114712,
			"data": "1,1,1,1,1,1,3,1,7,1,14,2,1,26,10,1,46,35,1,79,100,5,1,133,254,35,1,221,595,161,1,364,1316,588,14,1,596,2788,1862,126,1,972,5714,5334,714,1,1581,11408,14190,3150,42,1,2567,22300,35652,11850,462,1,4163,42842",
			"name": "Triangle read by rows: T(n,k) = number of peakless Motzkin paths of length n and having k ascents (0\u003c=k\u003c=floor(n/3)).",
			"comment": [
				"A Motzkin path of length n is a lattice path from (0,0) to (n,0) consisting of U=(1,1), D=(1,-1) and H=(1,0) steps and never going below the x-axis. An ascent in a Motzkin path is a maximal sequence of consecutive U steps.",
				"Row n contains 1+floor(n/3) terms.",
				"Row sums yield the RNA secondary structure numbers (A004148).",
				"T(3n,n) = A000108(n) (the Catalan numbers).",
				"Sum(k*T(n,k),k=0..floor(n/3)) = A114713(n-3) (n\u003e=3)."
			],
			"link": [
				"I. L. Hofacker, P. Schuster and P. F. Stadler, \u003ca href=\"https://doi.org/10.1016/S0166-218X(98)00073-0\"\u003eCombinatorics of RNA secondary structures\u003c/a\u003e, Discrete Appl. Math., 88, 1998, 207-237.",
				"P. R. Stein and M. S. Waterman, \u003ca href=\"https://doi.org/10.1016/0012-365X(79)90033-5\"\u003eOn some new sequences generalizing the Catalan and Motzkin numbers\u003c/a\u003e, Discrete Math., 26 (1979), 261-272.",
				"M. Vauchassade de Chaumont and G. Viennot, \u003ca href=\"http://www.mat.univie.ac.at/~slc/opapers/s08viennot.html\"\u003ePolynômes orthogonaux et problèmes d'énumération en biologie moléculaire\u003c/a\u003e, Sem. Loth. Comb. B08l (1984) 79-86."
			],
			"formula": [
				"G.f.: G=G(t, z) satisfies G=1+zG+z^2*(tzG+G-1-zG)G."
			],
			"example": [
				"T(6,2)=2 because we have (U)HD(U)HD and (U)H(U)HDD (the ascents are shown between parentheses).",
				"Triangle begins:",
				"1;",
				"1;",
				"1;",
				"1,1;",
				"1,3;",
				"1,7;",
				"1,14,2;"
			],
			"maple": [
				"G:=(1+z^2-z-sqrt(1-z^2-2*z+z^4+2*z^3-4*z^3*t))/2/z^2/(z*t+1-z): Gser:=simplify(series(G,z=0,22)): P[0]:=1: for n from 1 to 18 do P[n]:=coeff(Gser,z^n) od: for n from 0 to 18 do seq(coeff(t*P[n],t^j),j=1..1+floor(n/3)) od; # yields sequence in triangular form"
			],
			"xref": [
				"Cf. A004148, A000108, A114713."
			],
			"keyword": "nonn,tabf",
			"offset": "0,7",
			"author": "_Emeric Deutsch_, Dec 27 2005",
			"references": 1,
			"revision": 8,
			"time": "2020-03-06T11:42:48-05:00",
			"created": "2006-01-24T03:00:00-05:00"
		}
	]
}