{
	"greeting": "Greetings from The On-Line Encyclopedia of Integer Sequences! http://oeis.org/",
	"query": "id:A114665",
	"count": 1,
	"start": 0,
	"results": [
		{
			"number": 114665,
			"data": "823766851,1203424471,1647646771,2539428211,4100784871,4492676371,5183970931,6326736151,6330402751,8251729531,8735517211,10570534171,11212271071",
			"name": "Primes with 48 as smallest positive primitive root.",
			"mathematica": [
				"(* first load *) \u003c\u003c NumberTheory`NumberTheoryFunctions` (* then *) t = {}; Do[ If[ PrimitiveRoot[ Prime@n] == 48, AppendTo[t, n]; Print@Prime@n], {n, 235000000}]; Prime@t"
			],
			"xref": [
				"Cf. A001122-A001126, A061323-A061335, A061730-A061741, A114657-A114686."
			],
			"keyword": "hard,more,nonn",
			"offset": "1,1",
			"author": "_Robert G. Wilson v_, Dec 21 2005",
			"ext": [
				"a(7)-a(13) from _Ray Chandler_, Jan 13 2006"
			],
			"references": 0,
			"revision": 4,
			"time": "2012-03-30T17:31:17-04:00",
			"created": "2006-01-24T03:00:00-05:00"
		}
	]
}