{
	"greeting": "Greetings from The On-Line Encyclopedia of Integer Sequences! http://oeis.org/",
	"query": "id:A114490",
	"count": 1,
	"start": 0,
	"results": [
		{
			"number": 114490,
			"data": "4,7,7,1,2,1,2,5,4,7,1,9,6,6,2,4,3,7,2,9,5,0,2,7,9,0,3,2,5,5,1,1,5,3,0,9,2,0,0,1,2,8,8,6,4,1,9,0,6,9,5,8,6,4,8,2,9,8,6,5,6,4,0,3,0,5,2,2,9,1,5,2,7,8,3,6,6,1,1,2,3,0,4,2,9,6,8,3,5,5,6,4,7,6",
			"name": "Decimal expansion of log_10(3).",
			"link": [
				"Vincenzo Librandi, \u003ca href=\"/A114490/b114490.txt\"\u003eTable of n, a(n) for n = 0..1000\u003c/a\u003e",
				"Eric Weisstein's World of Mathematics, \u003ca href=\"http://mathworld.wolfram.com/MotzkinNumber.html\"\u003eMotzkin Number\u003c/a\u003e",
				"\u003ca href=\"/index/Tra#transcendental\"\u003eIndex entries for transcendental numbers\u003c/a\u003e"
			],
			"example": [
				"0.477121254..."
			],
			"mathematica": [
				"RealDigits[Log[10, 3], 10, 100][[1]] (* _Vincenzo Librandi_, Sep 10 2013 *)"
			],
			"program": [
				"(PARI) log(3)/log(10) \\\\ _Michel Marcus_, Jan 25 2015"
			],
			"xref": [
				"Cf. A114473.",
				"Cf. decimal expansion of log_10(m): A007524 (m=2), this sequence, A114493 (m=4), A153268 (m=5), A153496 (m=6), A153620 (m=7), A153790 (m=8), A104139 (m=9),  A154182 (m=11), A154203 (m=12), A154368 (m=13), A154478 (m=14), A154580 (m=15), A154794 (m=16), A154860 (m=17), A154953 (m=18), A155062 (m=19), A155522 (m=20), A155677 (m=21), A155746 (m=22), A155830 (m=23), A155979 (m=24)."
			],
			"keyword": "nonn,cons",
			"offset": "0,1",
			"author": "_Eric W. Weisstein_, Dec 01 2005",
			"references": 24,
			"revision": 13,
			"time": "2020-08-04T01:17:39-04:00",
			"created": "2006-01-24T03:00:00-05:00"
		}
	]
}