{
	"greeting": "Greetings from The On-Line Encyclopedia of Integer Sequences! http://oeis.org/",
	"query": "id:A114523",
	"count": 1,
	"start": 0,
	"results": [
		{
			"number": 114523,
			"data": "1,-1,-1,1,1,1,-1,-1,-1,-1,1,1,1,-1,-1,-1,-1,1,1,1,1,1,-1,-1,-1,-1,1,1,1,1,1,-1,-1,-1,-1,-1,1,1,1,1,1,-1,-1,-1,-1,-1,1,1,1,1,1,-1,-1,-1,-1,-1,-1,1,1,1,1,1,1,-1,-1,-1,-1,-1,1,1,1,1,1,1,-1,-1,-1,-1,-1,-1,1,1,1,1,1,1,-1,-1,-1,-1,-1,-1,1,1,1,1,1,1,-1,-1,-1,-1",
			"name": "Sign of StieltjesGamma[n].",
			"link": [
				"Eric Weisstein's World of Mathematics, \u003ca href=\"http://mathworld.wolfram.com/StieltjesConstants.html\"\u003eStieltjes Constants\u003c/a\u003e"
			],
			"example": [
				"0.57722, -0.072816, -0.0096904, 0.0020538, 0.0023254, ..., so the first terms are 1,-1,-1,1,1,..."
			],
			"xref": [
				"Cf. A114524."
			],
			"keyword": "sign",
			"offset": "0,1",
			"author": "_Eric W. Weisstein_, Dec 06 2005",
			"references": 1,
			"revision": 10,
			"time": "2014-05-06T07:18:41-04:00",
			"created": "2006-01-24T03:00:00-05:00"
		}
	]
}