{
	"greeting": "Greetings from The On-Line Encyclopedia of Integer Sequences! http://oeis.org/",
	"query": "id:A115287",
	"count": 1,
	"start": 0,
	"results": [
		{
			"number": 115287,
			"data": "6,3,8,1,0,3,7,4,3,3,6,5,1,1,0,7,7,8,5,2,2,4,0,7,3,8,5,5,1,9,8,8,0,3,1,4,4,4,3,9,3,3,8,4,1,2,8,9,0,2,7,6,4,0,4,1,9,4,8,3,1,9,3,6,5,0,3,4,2,1,0,1,0,5,6,7,6,0,0,8,3,0,4,1,0,0,1,8,5,2,5,1,0,5,2,7,4,8,3,3,1,5,7,0,9",
			"name": "Decimal expansion of 1/(1+LambertW(1)).",
			"link": [
				"G. C. Greubel, \u003ca href=\"/A115287/b115287.txt\"\u003eTable of n, a(n) for n = 0..10000\u003c/a\u003e",
				"Cristina B. Corcino, Roberto B. Corcino and István Mező, \u003ca href=\"https://doi.org/10.1007/s00010-018-0559-2\"\u003eContinued fraction expansions for the Lambert W function\u003c/a\u003e, Aequationes mathematicae, Vol. 93, No. 2 (2019), pp. 485-49.",
				"Mathematics Stack Exchange, \u003ca href=\"https://math.stackexchange.com/questions/45745/interesting-integral-related-to-the-omega-constant-lambert-w-function\"\u003eInteresting integral related to the Omega Constant/Lambert W Function\u003c/a\u003e, 2011.",
				"Victor H. Moll, \u003ca href=\"https://www.experimentalmath.info/maa-course/Moll-MAA.pdf\"\u003eSome Questions in the Evaluation of Definite Integrals\u003c/a\u003e, MAA Short Course, San Antonio, TX, January 2006.",
				"Eric Weisstein's World of Mathematics, \u003ca href=\"http://mathworld.wolfram.com/OmegaConstant.html\"\u003eOmega Constant\u003c/a\u003e.",
				"Eric Weisstein's World of Mathematics, \u003ca href=\"http://mathworld.wolfram.com/DefiniteIntegral.html\"\u003eDefinite Integral\u003c/a\u003e."
			],
			"formula": [
				"Equals Integral_{x=-oo..oo} 1/(Pi^2 + (exp(x)-x)^2) dx (discovered by Victor Adamchik). - _Amiram Eldar_, Jul 04 2021"
			],
			"example": [
				"0.63810374336511077852..."
			],
			"mathematica": [
				"RealDigits[1/(1 + ProductLog[1]), 10, 105] // First (* _Jean-François Alcover_, Feb 07 2013 *)"
			],
			"program": [
				"(PARI) 1/(1 + lambertw(1)) \\\\ _G. C. Greubel_, Nov 05 2017"
			],
			"xref": [
				"Cf. A006153, A030178, A097172, A097173, A097174, A265953, A276231, A302399."
			],
			"keyword": "nonn,cons,easy",
			"offset": "0,1",
			"author": "_Eric W. Weisstein_, Jan 19 2006",
			"references": 2,
			"revision": 20,
			"time": "2021-07-04T03:15:04-04:00",
			"created": "2006-01-24T03:00:00-05:00"
		}
	]
}