{
	"greeting": "Greetings from The On-Line Encyclopedia of Integer Sequences! http://oeis.org/",
	"query": "id:A115702",
	"count": 1,
	"start": 0,
	"results": [
		{
			"number": 115702,
			"data": "6,21,36,45,55,66,120,210,231,253,406,465,561,630,666,820,990,3003,3240,4095,4950,5050,5151,5671,5995,6670,8001,20503,23653,24753,29403,31125,33153,37950,41041,43956,54615,57630,60726,63546,66066,73920",
			"name": "Triangular numbers whose digit reversal is the product of 2 palindromes greater than 1.",
			"example": [
				"8001=T(126) and 1008=4*252."
			],
			"xref": [
				"Cf. A115683."
			],
			"keyword": "nonn,base",
			"offset": "1,1",
			"author": "_Giovanni Resta_, Jan 31 2006",
			"references": 0,
			"revision": 2,
			"time": "2012-03-30T17:40:35-04:00",
			"created": "2006-02-24T03:00:00-05:00"
		}
	]
}