{
	"greeting": "Greetings from The On-Line Encyclopedia of Integer Sequences! http://oeis.org/",
	"query": "id:A115138",
	"count": 1,
	"start": 0,
	"results": [
		{
			"number": 115138,
			"data": "1,-1,1,15,113,783,5361,36879,255985,1794063,12689393,90505231,650379249,4705157135,34244198385,250572963855,1842382110705,13605619630095,100872203796465,750556607938575,5602962592235505,41952165966643215,314983352736153585",
			"name": "A sequence related to Catalan numbers A000108.",
			"comment": [
				"See also A115150, the third diagonal of triangle A113647 (called Y(2,1))."
			],
			"formula": [
				"(1-4*x)*(2*c(2*x)-1)/(1+x) with c(x) g.f. of A000108 (Catalan).",
				"a(n)= A113647(n, n-1), n\u003e=2.",
				"a(n)= b(n)-4*b(n-1) with b(n):=A062992(n), n\u003e=2; a(0)=1, a(1)=-1."
			],
			"example": [
				"15= a(3) = A062992(3) - 4*A062992(2) = 67 - 4*13."
			],
			"keyword": "sign,easy",
			"offset": "0,4",
			"author": "_Wolfdieter Lang_, Jan 13 2006",
			"references": 1,
			"revision": 3,
			"time": "2012-10-12T14:40:25-04:00",
			"created": "2006-01-24T03:00:00-05:00"
		}
	]
}