{
	"greeting": "Greetings from The On-Line Encyclopedia of Integer Sequences! http://oeis.org/",
	"query": "id:A115797",
	"count": 1,
	"start": 0,
	"results": [
		{
			"number": 115797,
			"data": "0,1,2,4,8,11,16,17,22,23,32,33,34,43,44,45,46,64,65,66,68,86,87,88,90,92,93,128,129,130,132,136,139,171,172,173,174,176,177,180,184,186,256,257,258,260,264,267,272,273,278,279,342,343,344,346,348,349,352",
			"name": "Integers i such that 3*i XOR 8*i = 11*i.",
			"comment": [
				"XOR is A003987."
			],
			"link": [
				"\u003ca href=\"/index/Con#CongruXOR\"\u003eIndex entries for sequences defined by congruent products under XOR\u003c/a\u003e"
			],
			"xref": [
				"Cf. A115798 shows this sequence in binary."
			],
			"keyword": "nonn",
			"offset": "0,3",
			"author": "_Antti Karttunen_, Feb 01 2006",
			"references": 1,
			"revision": 5,
			"time": "2012-03-31T13:21:10-04:00",
			"created": "2006-02-24T03:00:00-05:00"
		}
	]
}