{
	"greeting": "Greetings from The On-Line Encyclopedia of Integer Sequences! http://oeis.org/",
	"query": "id:A115161",
	"count": 1,
	"start": 0,
	"results": [
		{
			"number": 115161,
			"data": "13,35,40,41,50,51,59,76,77,112,124,139,149,150,157,165,168,175,176,178,182,183,189,193,197,205,208,215,224,229,241,243,249,273,288,305,306,314,329,332,366,373,383,397,412,413,418,420,429,438,453,455,457,461",
			"name": "Numbers that are not the sum of a triangular number, a nonnegative cube and a fourth power.",
			"comment": [
				"There are 15682461 such numbers up to 10^9, the last one in this range being 999999923."
			],
			"xref": [
				"Cf. A022552, A014158, A115159, A115160, A115162, A115163."
			],
			"keyword": "nonn",
			"offset": "1,1",
			"author": "_Giovanni Resta_, Jan 15 2006",
			"references": 4,
			"revision": 2,
			"time": "2012-03-30T17:40:34-04:00",
			"created": "2006-01-24T03:00:00-05:00"
		}
	]
}