{
	"greeting": "Greetings from The On-Line Encyclopedia of Integer Sequences! http://oeis.org/",
	"query": "id:A115464",
	"count": 1,
	"start": 0,
	"results": [
		{
			"number": 115464,
			"data": "1,363,5230110171,261673816513678364838549056,655010254318810176195604047856155787712898209939105520303339",
			"name": "Number of monic irreducible polynomials of degree n in GF(3)[x1,x2,x3,x4,x5].",
			"link": [
				"Max Alekseyev, \u003ca href=\"http://translate.google.com/translate?hl=en\u0026amp;sl=ru\u0026amp;tl=en\u0026amp;u=http%3A%2F%2Fdxdy.ru%2Ftopic1165.html\"\u003eFormula for the number of monic irreducible polynomials in a finite field\u003c/a\u003e",
				"Max Alekseyev, \u003ca href=\"http://home.gwu.edu/~maxal/gpscripts/\"\u003ePARI scripts for various problems\u003c/a\u003e",
				"J. von zur Gathen, K. Ziegler, \u003ca href=\"http://arxiv.org/abs/1407.2970\"\u003eSurvey on counting special types of polynomials\u003c/a\u003e, arXiv preprint arXiv:1407.2970, 2014",
				"Konstantin Ziegler, \u003ca href=\"http://hss.ulb.uni-bonn.de/2015/3981/3981.pdf\"\u003eCounting Classes of Special Polynomials\u003c/a\u003e, Doctoral Dissertation, University of Bonn, June 2014."
			],
			"xref": [
				"Cf. A115457-A115505."
			],
			"keyword": "nonn",
			"offset": "0,2",
			"author": "_Max Alekseyev_, Jan 16 2006",
			"references": 0,
			"revision": 15,
			"time": "2015-06-09T14:58:57-04:00",
			"created": "2006-02-24T03:00:00-05:00"
		}
	]
}