{
	"greeting": "Greetings from The On-Line Encyclopedia of Integer Sequences! http://oeis.org/",
	"query": "id:A115230",
	"count": 1,
	"start": 0,
	"results": [
		{
			"number": 115230,
			"data": "1,1,2,2,3,3,3,3,2,3,3,2,3,3,2,2,2,3,2,2,3,2,4,3,2,2,2,2,2,4,1,3,3,4,0,2,3,1,3,3,1,4,1,1,2,4,2,1,3,3,2,1,3,1,3,2,1,3,2,2,3,4,2,1,2,2,0,1,3,2,4,2,2,0,2,3,1,2,2,2,1,3,1,2,2,2,2,1,2,2,2,2,2,1,3,3,0,2,3,2,1,1,3,1,4",
			"name": "Let p = prime(n); a(n) = number of ways to write p = 2^i + q^j where i \u003e= 0, j \u003e= 1, q = odd prime.",
			"formula": [
				"a(n) = sum(A036987(k-1)*A000035(p-k)*A010055(p-k): 1\u003c=k\u003cp, p=prime(n)). [_Reinhard Zumkeller_, Apr 29 2010]"
			],
			"example": [
				"n=25: A000040(25) = 97 = 2^6+3*11 = 2^5+5*13 = 2^4+3^4 = 2^3+89^1 = 2^2+3*31 = 2^1+5*19 = 2^0+3*2^5, therefore a(25)=#{[16+81],[8+89]}=2."
			],
			"maple": [
				"From _Reinhard Zumkeller_, Apr 30 2010: (Start)",
				"A000035 := proc(n) n mod 2 ; end proc:",
				"A000108 := proc(n) binomial(2*n,n)/(n+1) ; end proc:",
				"A036987 := proc(n) A000108(n) mod 2 ; end proc:",
				"A010055 := proc(n) if n = 1 then 1; else numtheory[factorset](n) ; if nops(%) = 1 then 1; else 0; end if; end if: end proc:",
				"A115230 := proc(n) p := ithprime(n) ; add(A036987(k-1)*A000035(p-k)*A010055(p-k), k=1..p-1) ; end proc: seq(A115230(n),n=1..40) ; # _R. J. Mathar_, Apr 30 2010 (End)"
			],
			"mathematica": [
				"f[p_] := Length@ Table[q = p - 2^exp; If[ PrimeNu@ q == 1, {q}, Sequence @@ {}], {exp, 0, Floor@ Log2@ p}]; Table[ f[ Prime[ n]], {n, 105}] (* _Robert G. Wilson v_, Oct 05 2014 *)"
			],
			"xref": [
				"Cf. A115231-A115233, A000079, A061345."
			],
			"keyword": "nonn",
			"offset": "1,3",
			"author": "_Reinhard Zumkeller_, Jan 17 2006",
			"ext": [
				"Recomputed by _Charles R Greathouse IV_, _Ray Chandler_, _R. J. Mathar_, and _Reinhard Zumkeller_, Apr 29 2010; thanks to _Charles R Greathouse IV_, who pointed out that there were many errors in entries of A115230-A115233.",
				"Edited by _N. J. A. Sloane_, Apr 30 2010",
				"Formula corrected, thanks to _R. J. Mathar_ who found an error in it _Reinhard Zumkeller_, Apr 30 2010"
			],
			"references": 5,
			"revision": 18,
			"time": "2014-10-05T21:56:21-04:00",
			"created": "2006-01-24T03:00:00-05:00"
		}
	]
}