{
	"greeting": "Greetings from The On-Line Encyclopedia of Integer Sequences! http://oeis.org/",
	"query": "id:A115556",
	"count": 1,
	"start": 0,
	"results": [
		{
			"number": 115556,
			"data": "12857142857142857142857142857142857143,25714285714285714285714285714285714286,117391304347826086956521739130434782608695652173913043478261",
			"name": "Numbers whose square is the concatenation of two numbers 9*m and m.",
			"comment": [
				"a(4)=156521739130434782608695652173913043478260869565217391304348."
			],
			"xref": [
				"Cf. A009474, A102567, A106497, A115527 - A115555."
			],
			"keyword": "nonn,base,bref",
			"offset": "1,1",
			"author": "_Giovanni Resta_, Jan 25 2006",
			"ext": [
				"Definition modified by _Georg Fischer_, Jul 26 2019"
			],
			"references": 29,
			"revision": 18,
			"time": "2021-06-18T20:03:08-04:00",
			"created": "2006-02-24T03:00:00-05:00"
		}
	]
}