{
	"greeting": "Greetings from The On-Line Encyclopedia of Integer Sequences! http://oeis.org/",
	"query": "id:A115754",
	"count": 1,
	"start": 0,
	"results": [
		{
			"number": 115754,
			"data": "1,2,2,4,7,4,4,8,7,1,3,9,1,5,8,9,0,4,9,0,9,8,6,4,2,0,3,7,3,5,2,9,4,5,6,9,5,9,8,2,9,7,3,7,4,0,3,2,8,3,3,5,0,6,4,2,1,6,3,4,6,2,8,3,6,2,5,4,8,0,1,8,8,7,2,8,6,5,7,5,1,3,2,6,9,9,2,9,7,1,6,5,5,2,3,2,0,1,1",
			"name": "Decimal expansion of sqrt(3/2).",
			"comment": [
				"Coordinate of a control point for a degree-5 integration formula for 7 points over the unit circle. [Stroud \u0026 Secrest]",
				"Also real and imaginary part of sqrt(-3i). - _Alonso del Arte_, Dec 11 2012",
				"Area of the quadrilateral obtained when slicing a unit cube with a plane passing through opposite vertices and the middle of opposite edges. See CNRS link. - _Michel Marcus_, Mar 26 2016"
			],
			"link": [
				"Daniel Starodubtsev, \u003ca href=\"/A115754/b115754.txt\"\u003eTable of n, a(n) for n = 1..10000\u003c/a\u003e",
				"Ana Rechtman, \u003ca href=\"http://images.math.cnrs.fr/Mars-2016-3e-defi.html\"\u003eMars 2016, 3e défi\u003c/a\u003e, Images des Mathématiques, CNRS, 2016.",
				"A. H. Stroud, D. Secrest, \u003ca href=\"http://dx.doi.org/10.1090/S0025-5718-1963-0161473-0\"\u003eApproximate integration formulas for certain spherically symmetric regions\u003c/a\u003e, Math. Comp. 17 (82) (1963) 105."
			],
			"formula": [
				"Two times A187110.",
				"Equals Sum_{k\u003e=0} binomial(1/2, k)/2^k. - _Bruno Berselli_, Sep 11 2015",
				"From _Amiram Eldar_, Aug 02 2020: (Start)",
				"Equals Product_{k\u003e=0} (1 + (-1)^k/(6*k + 3)).",
				"Equals Sum_{k\u003e=0} binomial(2*k,k)/12^k.",
				"Equals 1 + Sum_{k\u003e=1} (2*k - 1)!!/((2*k)!! * 3^k). (End)",
				"Equals A010464/2. - _R. J. Mathar_, Feb 23 2021"
			],
			"example": [
				"1.2247448713915890490986420373529456959829737403283350642163..."
			],
			"mathematica": [
				"RealDigits[Sqrt[3/2], 10, 105][[1]] (* _Alonso del Arte_, Dec 11 2012 *)"
			],
			"keyword": "nonn,cons",
			"offset": "1,2",
			"author": "_Eric Desbiaux_, Jul 30 2008",
			"references": 9,
			"revision": 31,
			"time": "2021-02-23T10:55:00-05:00",
			"created": "2006-02-24T03:00:00-05:00"
		}
	]
}