{
	"greeting": "Greetings from The On-Line Encyclopedia of Integer Sequences! http://oeis.org/",
	"query": "id:A115334",
	"count": 1,
	"start": 0,
	"results": [
		{
			"number": 115334,
			"data": "1,2,4,5,7,10,14,17,19,20,25,32,34,40,47,49,52,55,62,67,77,82,89,94,95,104,110,115,119,124,130,140,154,157,164,172,185,209,214,215,220,227,229,242,259,272,280,287,292,305,307,314,319,320,322,325,329,349,362",
			"name": "Numbers n such that 3+2n and 3+4n are primes.",
			"link": [
				"Vincenzo Librandi, \u003ca href=\"/A115334/b115334.txt\"\u003eTable of n, a(n) for n = 1..1000\u003c/a\u003e"
			],
			"formula": [
				"a(n) = A206037(n)/2. - _Wesley Ivan Hurt_, Feb 06 2014"
			],
			"example": [
				"5 is in the sequence because 3 + 2*5 = 13 and 3 + 4*5 = 23 are both prime."
			],
			"mathematica": [
				"Do[If[PrimeQ[{3+2d,3+4d}]=={True,True},Print[d]],{d,100000}]",
				"Select[Range[400],And@@PrimeQ[{3+2#,3+4#}]\u0026] (* _Harvey P. Dale_, Sep 02 2013 *)"
			],
			"program": [
				"(MAGMA) [ n: n in [1..365] | IsPrime(3+2*n) and IsPrime(3+4*n) ]; \\\\ _Klaus Brockhaus_, May 14 2009"
			],
			"xref": [
				"Cf. A160394. [_Klaus Brockhaus_, May 14 2009]"
			],
			"keyword": "nonn",
			"offset": "1,2",
			"author": "_Zak Seidov_, Mar 06 2006",
			"references": 9,
			"revision": 18,
			"time": "2014-02-08T07:15:31-05:00",
			"created": "2006-02-24T03:00:00-05:00"
		}
	]
}