{
	"greeting": "Greetings from The On-Line Encyclopedia of Integer Sequences! http://oeis.org/",
	"query": "id:A115486",
	"count": 1,
	"start": 0,
	"results": [
		{
			"number": 115486,
			"data": "112,46023264,13298692239252000,63136448710941913967813221600,35264602300404231939621558472618564737091095360,16221242274790612130631690754624838965983557581384661093067826910160912",
			"name": "Number of monic irreducible polynomials of degree 3 in GF(7)[x1,...,xn].",
			"link": [
				"Max Alekseyev, \u003ca href=\"http://translate.google.com/translate?hl=en\u0026amp;sl=ru\u0026amp;tl=en\u0026amp;u=http%3A%2F%2Fdxdy.ru%2Ftopic1165.html\"\u003eFormula for the number of monic irreducible polynomials in a finite field\u003c/a\u003e",
				"Max Alekseyev, \u003ca href=\"http://home.gwu.edu/~maxal/gpscripts/\"\u003ePARI scripts for various problems\u003c/a\u003e"
			],
			"xref": [
				"Cf. A115457-A115505."
			],
			"keyword": "nonn",
			"offset": "1,1",
			"author": "_Max Alekseyev_, Jan 16 2006",
			"references": 0,
			"revision": 9,
			"time": "2014-07-23T12:20:56-04:00",
			"created": "2006-02-24T03:00:00-05:00"
		}
	]
}