{
	"greeting": "Greetings from The On-Line Encyclopedia of Integer Sequences! http://oeis.org/",
	"query": "id:A115813",
	"count": 1,
	"start": 0,
	"results": [
		{
			"number": 115813,
			"data": "0,1,2,4,8,9,13,16,17,18,26,32,33,34,36,52,64,65,66,68,72,73,104,105,109,128,129,130,132,136,137,141,144,145,146,205,208,209,210,218,256,257,258,260,264,265,269,272,273,274,282,288,289,290,292,410,416,417",
			"name": "Integers i such that 2*i XOR 5*i = 7*i.",
			"comment": [
				"XOR is A003987."
			],
			"link": [
				"\u003ca href=\"/index/Con#CongruXOR\"\u003eIndex entries for sequences defined by congruent products under XOR\u003c/a\u003e"
			],
			"mathematica": [
				"Select[Range[0,1000],BitXor[2#,5#]==7#\u0026] (* _Harvey P. Dale_, Aug 30 2015 *)"
			],
			"xref": [
				"Cf. A115814 shows this sequence in binary."
			],
			"keyword": "nonn",
			"offset": "0,3",
			"author": "_Antti Karttunen_, Feb 01 2006",
			"references": 1,
			"revision": 7,
			"time": "2015-08-30T11:44:49-04:00",
			"created": "2006-02-24T03:00:00-05:00"
		}
	]
}