{
	"greeting": "Greetings from The On-Line Encyclopedia of Integer Sequences! http://oeis.org/",
	"query": "id:A115582",
	"count": 1,
	"start": 0,
	"results": [
		{
			"number": 115582,
			"data": "1,1,1,1,1,1,1,1,1,1,2,1,1,2,1,1,2,1,1,2,1,1,2,1,1,2,1,1,2,1,1,2,1,1,2,1,1,2,2,1,1,3,3,1,1,3,3,1,1,3,3,1,1,3,3,1,1,2,2,1,1,3,3,1,1,3,3,1,1,2,2,1,1,3,3,1,1,3,3,1,1,3,3,1,1,2,2,1,1,3,3,1,1,3,3,1,1,3,3",
			"name": "Array read by rows: row n (\u003e= 1) gives the Betti numbers for the n-th element of the affine Weyl group of type C3_tilde (in Goresky's standard ordering).",
			"comment": [
				"There are infinitely many rows."
			],
			"link": [
				"Mark Goresky, \u003ca href=\"http://www.math.ias.edu/~goresky/tables.html\"\u003eTABLES OF KAZHDAN-LUSZTIG POLYNOMIALS\u003c/a\u003e"
			],
			"example": [
				"Array begins:",
				"1",
				"1 1",
				"1 1",
				"1 1",
				"1 1",
				"1 2 1",
				"1 2 1",
				"1 2 1",
				"1 2 1"
			],
			"xref": [
				"Cf. A115570-A115583."
			],
			"keyword": "nonn,tabf",
			"offset": "1,11",
			"author": "_Roger L. Bagula_, Mar 04 2006",
			"references": 1,
			"revision": 3,
			"time": "2014-03-12T16:41:38-04:00",
			"created": "2006-02-24T03:00:00-05:00"
		}
	]
}