{
	"greeting": "Greetings from The On-Line Encyclopedia of Integer Sequences! http://oeis.org/",
	"query": "id:A115268",
	"count": 1,
	"start": 0,
	"results": [
		{
			"number": 115268,
			"data": "1,1,1,1,2,1,1,2,2,1,2,2,3,2,2,2,3,3,3,3,2,2,4,4,4,4,4,2,2,4,5,5,5,5,4,2,3,4,6,6,8,6,6,4,3,3,5,6,7,9,9,7,6,5,3,3,6,7,8,10,12,10,8,7,6,3,3,6,8,9,11,13,13,11,9,8,6,3,4,6,9,10,14,14,16,14,14,10,9,6,4",
			"name": "Correlation triangle for floor((n+4)/4).",
			"comment": [
				"Row sums are A115269. Diagonal sums are A115270. T(2n,n) is A115271. T(2n,n)-T(2n,n-1) is 1,1,1,0,2,2,2,0,3,3,3,0,..."
			],
			"formula": [
				"G.f.: (1+x+x^2+x^3)(1+xy+x^2*y^2+x^3*y^3)/((1-x^4)^2*(1-x^4*y^4)^2*(1-x^2*y)); Number triangle T(n, k)=sum{j=0..n, [j\u003c=k]*floor((k-j+4)/4)*[j\u003c=n-k]*floor((n-k-j+4)/4)}."
			],
			"example": [
				"Triangle begins",
				"1;",
				"1,1;",
				"1,2,1;",
				"1,2,2,1;",
				"2,2,3,2,2;",
				"2,3,3,3,3,2;",
				"2,4,4,4,4,4,2;",
				"2,4,5,5,5,5,4,2;",
				"3,4,6,6,8,6,6,4,3;",
				"3,5,6,7,9,9,7,6,5,3;",
				"3,6,7,8,10,12,10,8,7,6,3;",
				"3,6,8,9,11,13,13,11,9,8,6,3;"
			],
			"keyword": "easy,nonn,tabl",
			"offset": "0,5",
			"author": "_Paul Barry_, Jan 18 2006",
			"references": 3,
			"revision": 3,
			"time": "2012-03-30T18:59:13-04:00",
			"created": "2006-01-24T03:00:00-05:00"
		}
	]
}