{
	"greeting": "Greetings from The On-Line Encyclopedia of Integer Sequences! http://oeis.org/",
	"query": "id:A115494",
	"count": 1,
	"start": 0,
	"results": [
		{
			"number": 115494,
			"data": "26089,350195076,5014632511504,76840878999044160,1218636270361615270144,19649765169602899793150976,319407871159354293976100245504,5212658494478146338184815901163520",
			"name": "Number of monic irreducible polynomials of degree 4 in GF(2^n)[x,y].",
			"link": [
				"Max Alekseyev, \u003ca href=\"http://translate.google.com/translate?hl=en\u0026amp;sl=ru\u0026amp;tl=en\u0026amp;u=http%3A%2F%2Fdxdy.ru%2Ftopic1165.html\"\u003eFormula for the number of monic irreducible polynomials in a finite field\u003c/a\u003e",
				"Max Alekseyev, \u003ca href=\"http://home.gwu.edu/~maxal/gpscripts/\"\u003ePARI scripts for various problems\u003c/a\u003e"
			],
			"xref": [
				"Cf. A115457-A115505."
			],
			"keyword": "nonn",
			"offset": "1,1",
			"author": "_Max Alekseyev_, Jan 16 2006",
			"references": 0,
			"revision": 9,
			"time": "2014-07-23T12:25:45-04:00",
			"created": "2006-02-24T03:00:00-05:00"
		}
	]
}