{
	"greeting": "Greetings from The On-Line Encyclopedia of Integer Sequences! http://oeis.org/",
	"query": "id:A115647",
	"count": 1,
	"start": 0,
	"results": [
		{
			"number": 115647,
			"data": "1,3,6,120,153,5886,40470,41041,40279800",
			"name": "Triangular numbers that are sums of distinct factorials.",
			"comment": [
				"Factorials 0! and 1! are not considered distinct.",
				"A115944(a(n)) \u003e 0; subsequence of A059590. - _Reinhard Zumkeller_, Feb 02 2006",
				"If there are any terms beyond 40279800 they must be larger than 48!. - _Jon E. Schoenfield_, Aug 04 2006"
			],
			"example": [
				"1 = T(1) = 1!.",
				"3 = T(2) = 2!+1!.",
				"6 = T(3) = 3!.",
				"120 = T(15) = 5!.",
				"153 = T(17) = 5!+4!+3!+2!+1!.",
				"5886 = T(108) = 7!+6!+5!+3!.",
				"40470 = T(284) = 8!+5!+4!+3!.",
				"41041 = T(286) = 8!+6!+1!.",
				"40279800 = T(8975) = 11!+9!+5!."
			],
			"mathematica": [
				"triQ[n_] := IntegerQ@Sqrt[8n+1]; fac=Reverse@Range[21]!; lst={}; Do[ n = Plus@@(fac*IntegerDigits[k, 2, 21]); If[triQ[n], AppendTo[lst, n]; Print[{n, k}]], {k, 2^21-1}]; Union@lst"
			],
			"xref": [
				"Cf. A025494."
			],
			"keyword": "nonn",
			"offset": "1,2",
			"author": "_Giovanni Resta_, Jan 27 2006",
			"references": 2,
			"revision": 9,
			"time": "2013-09-02T14:01:57-04:00",
			"created": "2006-02-24T03:00:00-05:00"
		}
	]
}