{
	"greeting": "Greetings from The On-Line Encyclopedia of Integer Sequences! http://oeis.org/",
	"query": "id:A116032",
	"count": 1,
	"start": 0,
	"results": [
		{
			"number": 116032,
			"data": "1,2,3,11,12,14,16,32,33,37,47,76,101,108,126,131,134,144,168,188,216,218,235,239,248,250,265,285,289,309,313,319,325,329,507,553,578,612,624,716,963,1037,1058,1147,1257,1406,1851,1887,1948,1961,2038,2196",
			"name": "Numbers k such that k + sigma(k) + phi(k) is a palindrome.",
			"example": [
				"1037 + sigma(1037) + phi(1037) = 3113."
			],
			"keyword": "nonn,base",
			"offset": "1,2",
			"author": "_Giovanni Resta_, Feb 13 2006",
			"references": 0,
			"revision": 6,
			"time": "2021-07-15T06:39:53-04:00",
			"created": "2006-02-24T03:00:00-05:00"
		}
	]
}