{
	"greeting": "Greetings from The On-Line Encyclopedia of Integer Sequences! http://oeis.org/",
	"query": "id:A116883",
	"count": 1,
	"start": 0,
	"results": [
		{
			"number": 116883,
			"data": "1,3,5,6,7,9,10,11,13,14,15,17,18,19,20,21,22,23,25,26,27,28,29,30,31,33,34,35,36,37,38,39,41,42,43,44,45,46,47,49,50,51,52,53,54,55,57,58,59,60,61,62,63,65,66,67,68,69,70,71,72,73,74,75,76,77,78,79,81,82,83",
			"name": "A number k is included iff (highest odd divisor of k)^2 \u003e= k.",
			"comment": [
				"Also k is included if (and only if) the highest power of 2 dividing k is \u003c= the largest odd divisor of k."
			],
			"example": [
				"20 = 4 * 5, where 4 is highest power of 2 dividing 20 and 5 is the largest odd number dividing 20. 4 is \u003c= 5 (and, not coincidentally, 5^2 \u003e= 20), so 20 is in the sequence."
			],
			"maple": [
				"isA116883 := proc(n) local dvs,hod,i ; dvs := convert(numtheory[divisors](n),list) ; for i from 1 to nops(dvs) do hod := op(-i,dvs) ; if hod mod 2 = 1 then RETURN(hod^2 \u003e= n) ; fi ; od ; end: for n from 1 to 200 do if isA116883(n) then printf(\"%d, \",n) ; fi ; od ; # _R. J. Mathar_, May 10 2007"
			],
			"mathematica": [
				"Select[Range[100],Last[Select[Divisors[#],OddQ]]^2\u003e=#\u0026] (* _Harvey P. Dale_, Nov 10 2013 *)"
			],
			"xref": [
				"Cf. A116882, A000265, A006519."
			],
			"keyword": "easy,nonn",
			"offset": "1,2",
			"author": "_Leroy Quet_, Feb 24 2006",
			"ext": [
				"More terms from _R. J. Mathar_, May 10 2007"
			],
			"references": 29,
			"revision": 19,
			"time": "2021-09-03T01:54:29-04:00",
			"created": "2006-02-24T03:00:00-05:00"
		}
	]
}