{
	"greeting": "Greetings from The On-Line Encyclopedia of Integer Sequences! http://oeis.org/",
	"query": "id:A116922",
	"count": 1,
	"start": 0,
	"results": [
		{
			"number": 116922,
			"data": "1,1,2,3,3,5,4,5,5,7,6,7,7,9,8,9,9,11,10,11,11,13,12,13,13,15,14,15,15,17,16,17,17,19,18,19,19,21,20,21,21,23,22,23,23,25,24,25,25,27,26,27,27,29,28,29,29,31,30,31,31,33,32,33,33,35,34,35,35,37,36,37,37,39,38",
			"name": "a(n) = smallest integer \u003e= n/2 which is coprime to n.",
			"comment": [
				"A116921(n) + a(n) = n.",
				"For n\u003e= 3, a(n) - A116921(n) is 1 if n is odd, is 2 if n is a multiple of 4 and is 4 if n is congruent to 2 (mod 4)."
			],
			"link": [
				"Harvey P. Dale, \u003ca href=\"/A116922/b116922.txt\"\u003eTable of n, a(n) for n = 1..1000\u003c/a\u003e",
				"\u003ca href=\"/index/Rec#order_05\"\u003eIndex entries for linear recurrences with constant coefficients\u003c/a\u003e, signature (1,0,0,1,-1)."
			],
			"formula": [
				"For n \u003e= 3, a(n) = (n+1)/2 if n is odd, a(n) = n/2 + 1 if n is a multiple of 4 and a(n) = n/2 + 2 if n is congruent to 2 (mod 4).",
				"G.f.: t*(1 + t^2 + t^3 - t^4 + 2*t^5 - 2*t^6)/((1-t)*(1-t^4)). - _Mamuka Jibladze_, Aug 22 2019"
			],
			"mathematica": [
				"cp[n_]:=Module[{k=Ceiling[n/2]},While[!CoprimeQ[n,k],k++];k]; Array[cp,80] (* _Harvey P. Dale_, Nov 06 2013 *)"
			],
			"program": [
				"(PARI) a(n) = {if(n%2, (n+1)/2, if(n==2, 1, n/2 + if(n%4, 2, 1)))} \\\\ _Andrew Howroyd_, Aug 22 2019"
			],
			"xref": [
				"Cf. A116921."
			],
			"keyword": "easy,nonn",
			"offset": "1,3",
			"author": "_Leroy Quet_, Feb 26 2006",
			"ext": [
				"More terms from Wyatt Lloyd (wal118(AT)psu.edu), Mar 25 2006"
			],
			"references": 3,
			"revision": 22,
			"time": "2019-09-06T18:25:49-04:00",
			"created": "2006-02-24T03:00:00-05:00"
		}
	]
}