{
	"greeting": "Greetings from The On-Line Encyclopedia of Integer Sequences! http://oeis.org/",
	"query": "id:A116561",
	"count": 1,
	"start": 0,
	"results": [
		{
			"number": 116561,
			"data": "0,1,4,4,18,7,7,18,79,79,359,140,140,359,1576,1576,7162,2793,2793,7162,31441,31441,142881,55720,55720,142881,627244,627244,2850458,1111607,1111607,2850458,12513439,12513439,56866279,22176420,22176420",
			"name": "Sequentially switched Markov of six determinant one matrices.",
			"comment": [
				"The recurrence means that these are 6 interlaced sequences (2 of them equal) of the type b(n) = 20*b(n-1) - b(n-2). The generating function shows a(n) can be written as a sum of 10 terms of A075843. - _R. J. Mathar_, Nov 26 2008"
			],
			"link": [
				"G. C. Greubel, \u003ca href=\"/A116561/b116561.txt\"\u003eTable of n, a(n) for n = 0..1000\u003c/a\u003e",
				"\u003ca href=\"/index/Rec#order_12\"\u003eIndex entries for linear recurrences with constant coefficients\u003c/a\u003e, signature (0,0,0,0,0,20,0,0,0,0,0,-1)."
			],
			"formula": [
				"From _R. J. Mathar_, Nov 26 2008: (Start)",
				"a(n) = 20*a(n-6) -a(n-12).",
				"G.f: x*(1 +4*x +4*x^2 +18*x^3 +7*x^4 +7*x^5 -2*x^6 -x^7 -x^8 -x^9) / (1-20*x^6+x^12). (End)"
			],
			"mathematica": [
				"LinearRecurrence[{0, 0, 0, 0, 0, 20, 0, 0, 0, 0, 0, -1}, {0, 1, 4, 4, 18, 7, 7, 18, 79, 79, 359, 140}, 37] (* _Ray Chandler_, Aug 11 2015 *)",
				"CoefficientList[Series[x *(1 + 4*x + 4*x^2 + 18*x^3 + 7*x^4 + 7*x^5 - 2*x^6 - x^7 - x^8 - x^9)/(1 - 20*x^6 + x^12), {x, 0, 50}], x] (* _G. C. Greubel_, Sep 20 2017 *)"
			],
			"program": [
				"(PARI) x=+O('x^50); Vec(x*(1 +4*x +4*x^2 +18*x^3 +7*x^4 +7*x^5 -2*x^6 -x^7 -x^8 -x^9) / (1-20*x^6+x^12)) \\\\ _G. C. Greubel_, Sep 20 2017"
			],
			"keyword": "nonn,obsc",
			"offset": "0,3",
			"author": "_Roger L. Bagula_, Mar 17 2006",
			"references": 1,
			"revision": 15,
			"time": "2017-09-21T04:30:03-04:00",
			"created": "2006-02-24T03:00:00-05:00"
		}
	]
}