{
	"greeting": "Greetings from The On-Line Encyclopedia of Integer Sequences! http://oeis.org/",
	"query": "id:A116063",
	"count": 1,
	"start": 0,
	"results": [
		{
			"number": 116063,
			"data": "22,33,55,77,111,1111,1133,1177,1199,3377,4411,4499,5533,5599,6611,6677,7711,7799,8899,9977,11111,11199,11333,11555,22233,22255,22299,22333,22999,33322,44222,44333,44411,44477,44999,55111,55222,55577",
			"name": "Semiprimes (A001358) made of nontrivial runs of identical digits.",
			"comment": [
				"A run of length 1 is trivial."
			],
			"example": [
				"44477 = 79*563"
			],
			"xref": [
				"Cf. A001358, A033023, A116062."
			],
			"keyword": "nonn,base",
			"offset": "1,1",
			"author": "_Giovanni Resta_, Feb 13 2006",
			"references": 1,
			"revision": 2,
			"time": "2012-03-30T17:40:36-04:00",
			"created": "2006-02-24T03:00:00-05:00"
		}
	]
}