{
	"greeting": "Greetings from The On-Line Encyclopedia of Integer Sequences! http://oeis.org/",
	"query": "id:A116194",
	"count": 1,
	"start": 0,
	"results": [
		{
			"number": 116194,
			"data": "1,2,10,47,550,802,570035,623387,1327222,4041011,8252210,164398539591831062,173868055738777586,339918283297349107,353476744122425611,846974882088186070,868300386379144450",
			"name": "Numbers k such that k concatenated with k+5 gives the product of two numbers which differ by 6.",
			"example": [
				"8252210//8252215 = 9084165 * 9084171, where // denotes",
				"concatenation."
			],
			"xref": [
				"Cf. A116187, A116193, A116195, A116208, A116325."
			],
			"keyword": "nonn,base",
			"offset": "1,2",
			"author": "_Giovanni Resta_, Feb 06 2006",
			"references": 5,
			"revision": 6,
			"time": "2021-07-19T22:58:50-04:00",
			"created": "2006-02-24T03:00:00-05:00"
		}
	]
}