{
	"greeting": "Greetings from The On-Line Encyclopedia of Integer Sequences! http://oeis.org/",
	"query": "id:A116816",
	"count": 1,
	"start": 0,
	"results": [
		{
			"number": 116816,
			"data": "1,2,6,21,75,260,869,2817,8920,27745,85113,258256,776717,2319093,6882432,20321017,59738793,174960544,510756501,1486819229,4317417984,12509488161,36175413601,104433440896,301022300573,866485007957",
			"name": "Number of permutations of length n which avoid the patterns 2314, 3124, 4312.",
			"link": [
				"D. Callan, T. Mansour, \u003ca href=\"http://arxiv.org/abs/1705.00933\"\u003eEnumeration of small Wilf classes avoiding 1324 and two other 4-letter patterns\u003c/a\u003e, arXiv:1705.00933 [math.CO] (2017), Table 2 No 154 and 155.",
				"Lara Pudwell, \u003ca href=\"http://faculty.valpo.edu/lpudwell/maple/webbook/bookmain.html\"\u003eSystematic Studies in Pattern Avoidance\u003c/a\u003e, 2005.",
				"\u003ca href=\"/index/Rec#order_06\"\u003eIndex entries for linear recurrences with constant coefficients\u003c/a\u003e, signature (8,-24,35,-28,12,-2)"
			],
			"formula": [
				"G.f.: A(x) = -{(2x^5-9x^4+14x^3-14x^2+6x-1)x}/{(x-1)(x^2-3x+1)(2x^3-4x^2+4x-1)}"
			],
			"keyword": "nonn,easy",
			"offset": "1,2",
			"author": "_Lara Pudwell_, Feb 26 2006",
			"references": 0,
			"revision": 10,
			"time": "2017-11-08T09:54:39-05:00",
			"created": "2006-02-24T03:00:00-05:00"
		}
	]
}