{
	"greeting": "Greetings from The On-Line Encyclopedia of Integer Sequences! http://oeis.org/",
	"query": "id:A116256",
	"count": 1,
	"start": 0,
	"results": [
		{
			"number": 116256,
			"data": "6,96,450,545,688,853,996,4379,5616,9996,72727,99996,346530,653465,999996,9090905,9999996,94117643,99999996,334665330,336032384,378253325,390977439,439928488,483516483,516483512,560071507",
			"name": "Numbers k such that k*(k+6) gives the concatenation of two numbers m and m-5.",
			"xref": [
				"Cf. A116125, A116242, A116255, A116257, A116262."
			],
			"keyword": "nonn,base",
			"offset": "1,1",
			"author": "_Giovanni Resta_, Feb 06 2006",
			"references": 5,
			"revision": 9,
			"time": "2021-07-18T02:54:53-04:00",
			"created": "2006-02-24T03:00:00-05:00"
		}
	]
}