{
	"greeting": "Greetings from The On-Line Encyclopedia of Integer Sequences! http://oeis.org/",
	"query": "id:A116844",
	"count": 1,
	"start": 0,
	"results": [
		{
			"number": 116844,
			"data": "1,1,2,5,14,41,116,302,715,1549,3106,5831,10352,17525,28484,44696,68021,100777,145810,206569,287186,392561,528452,701570,919679,1191701,1527826,1939627,2440180,3044189,3768116,4630316,5651177,6853265,8261474,9903181,11808406",
			"name": "Number of permutations of length n which avoid the patterns 231, 12345.",
			"comment": [
				"a(n) = number of Dyck n-paths (A000108) with \u003c=4 peaks. So a(n) is the sum of columns 1,2,3,4 in the Narayana triangle A001263. - _David Callan_, Jul 03 2006"
			],
			"link": [
				"Lara Pudwell, \u003ca href=\"http://faculty.valpo.edu/lpudwell/maple/webbook/bookmain.html\"\u003eSystematic Studies in Pattern Avoidance\u003c/a\u003e, 2005.",
				"\u003ca href=\"/index/Rec#order_07\"\u003eIndex entries for linear recurrences with constant coefficients\u003c/a\u003e, signature (7,-21,35,-35,21,-7,1)."
			],
			"formula": [
				"G.f.: -(4*x^6-8*x^5+21*x^4-23*x^3+16*x^2-6*x+1)/(x-1)^7.",
				"a(n) = (n^6 - 9n^5 + 43n^4 - 99n^3 + 172n^2 - 108n + 144)/144. - _Franklin T. Adams-Watters_, Sep 16 2006",
				"Equals A001263 * [1, 1, 1, 1, 0, 0, 0,...] - _Gary W. Adamson_, Nov 19 2007"
			],
			"keyword": "nonn,easy",
			"offset": "0,3",
			"author": "_Lara Pudwell_, Feb 26 2006",
			"ext": [
				"a(0)=1 prepended by _Alois P. Heinz_, Nov 28 2021"
			],
			"references": 1,
			"revision": 16,
			"time": "2021-11-28T22:01:09-05:00",
			"created": "2006-02-24T03:00:00-05:00"
		}
	]
}