{
	"greeting": "Greetings from The On-Line Encyclopedia of Integer Sequences! http://oeis.org/",
	"query": "id:A116199",
	"count": 1,
	"start": 0,
	"results": [
		{
			"number": 116199,
			"data": "1,2,2,3,2,1,2,4,3,2,2,2,2,2,2,5,2,2,2,2,4,2,2,1,3,2,4,1,2,2,2,6,2,2,4,9,2,2,4,1,2,2,2,2,2,2,2,2,3,6,2,2,2,1,4,2,4,2,2,2,2,2,6,7,4,2,2,2,2,4,2,4,2,2,6,2,4,2,2,2,5,2,2,2,4,2,2,2,2,2,2,2,4,2,2,1,2,6,2,9,2,2,2,2,4",
			"name": "a(n) = the number of positive divisors of n which are coprime to sigma(n) = A000203(n).",
			"comment": [
				"In the first 1000 terms, only 69 are odd. - _Harvey P. Dale_, Jul 16 2016"
			],
			"link": [
				"Harvey P. Dale, \u003ca href=\"/A116199/b116199.txt\"\u003eTable of n, a(n) for n = 1..1000\u003c/a\u003e"
			],
			"example": [
				"The sum of the positive divisors of 12 is 1+2+3+4+6+12 = 28. There are 2 positive divisors (1 and 3) of 12 which are coprime to 28. So a(12) = 2."
			],
			"maple": [
				"with(numtheory): a:=proc(n) local div,ct,j: div:=divisors(n): ct:=0: for j from 1 to tau(n) do if igcd(div[j],sigma(n))=1 then ct:=ct+1 else ct:=ct fi od: ct: end: seq(a(n),n=1..140); # _Emeric Deutsch_, May 05 2007"
			],
			"mathematica": [
				"pdc[n_]:=Module[{s=DivisorSigma[1,n]},Count[Divisors[n],_?(CoprimeQ[ #,s]\u0026)]]; Array[pdc,110] (* _Harvey P. Dale_, Jul 16 2016 *)"
			],
			"program": [
				"(PARI) a(n)=my(s=sigma(n));sumdiv(n,d,gcd(s,d)==1) \\\\ _Charles R Greathouse IV_, Feb 19 2013"
			],
			"xref": [
				"Cf. A128830."
			],
			"keyword": "nonn",
			"offset": "1,2",
			"author": "_Leroy Quet_, Apr 16 2007",
			"ext": [
				"More terms from _Emeric Deutsch_, May 05 2007"
			],
			"references": 2,
			"revision": 19,
			"time": "2020-01-01T21:52:57-05:00",
			"created": "2006-02-24T03:00:00-05:00"
		}
	]
}