{
	"greeting": "Greetings from The On-Line Encyclopedia of Integer Sequences! http://oeis.org/",
	"query": "id:A116033",
	"count": 1,
	"start": 0,
	"results": [
		{
			"number": 116033,
			"data": "1,5,10,11,14,15,20,23,24,28,29,34,35,38,39,40,42,44,46,48,52,56,57,59,60,62,65,66,68,69,74,75,76,82,85,87,92,95,97,102,106,109,114,118,119,120,122,124,126,133,136,137,139,143,145,146,148,149,152,153,156",
			"name": "sigma(n) plus the n-th prime is a prime.",
			"example": [
				"sigma(145)+p(145) = 1009 (prime)."
			],
			"xref": [
				"Cf. A116034."
			],
			"keyword": "nonn",
			"offset": "1,2",
			"author": "_Giovanni Resta_, Feb 13 2006",
			"references": 1,
			"revision": 2,
			"time": "2012-03-30T17:40:36-04:00",
			"created": "2006-02-24T03:00:00-05:00"
		}
	]
}