{
	"greeting": "Greetings from The On-Line Encyclopedia of Integer Sequences! http://oeis.org/",
	"query": "id:A116457",
	"count": 1,
	"start": 0,
	"results": [
		{
			"number": 116457,
			"data": "1,3,5,7,11,17,29,53,107,257,733,2503,10211,49739,285377,1909561,14736529,129812899,1293238351,14448382721,179668662139,2470072307533,37316454626819",
			"name": "a(1) = 1; a(n) = prime((a(n-1)+3)/2).",
			"mathematica": [
				"a[1]=1;a[n_]:=a[n]=Prime[(a[n-1]+3)/2];Table[a[n],{n,20}]",
				"NestList[Prime[(#+3)/2]\u0026,1,21] (* _Harvey P. Dale_, Apr 01 2019 *)"
			],
			"xref": [
				"Cf. A104296, A104298."
			],
			"keyword": "nonn",
			"offset": "1,2",
			"author": "_Zak Seidov_, Feb 16 2006",
			"ext": [
				"More terms from _Harvey P. Dale_, Apr 01 2019"
			],
			"references": 0,
			"revision": 4,
			"time": "2019-04-01T12:55:49-04:00",
			"created": "2006-02-24T03:00:00-05:00"
		}
	]
}