{
	"greeting": "Greetings from The On-Line Encyclopedia of Integer Sequences! http://oeis.org/",
	"query": "id:A116625",
	"count": 1,
	"start": 0,
	"results": [
		{
			"number": 116625,
			"data": "3,6,12,13,15,26,23,14,24,49,43,25,51,50,48,55,54,52,62,61,60,53,56,63,91,93,59,57,58,100,95,92,101,99,110,105,111,106,107,104,197,174,102,103,98,204,198,196,202,203,200,206,207,205,201,199,216,213,212",
			"name": "a(n) = A116624(n) XOR A116624(n+1).",
			"comment": [
				"XOR is A003987."
			],
			"link": [
				"Ivan Neretin, \u003ca href=\"/A116625/b116625.txt\"\u003eTable of n, a(n) for n = 1..10000\u003c/a\u003e"
			],
			"xref": [
				"Bisection of A116626. Complement of A116624?.",
				"Cf. A235262."
			],
			"keyword": "nonn",
			"offset": "1,1",
			"author": "_Paul D. Hanna_ and _Antti Karttunen_, Feb 21 2006",
			"references": 4,
			"revision": 10,
			"time": "2017-03-14T05:42:08-04:00",
			"created": "2006-02-24T03:00:00-05:00"
		}
	]
}