{
	"greeting": "Greetings from The On-Line Encyclopedia of Integer Sequences! http://oeis.org/",
	"query": "id:A116445",
	"count": 1,
	"start": 0,
	"results": [
		{
			"number": 116445,
			"data": "1,1,1,1,3,1,1,3,5,1,1,3,8,7,1,1,3,8,16,9,1,1,3,8,20,27,11,1,1,3,8,20,43,41,13,1,1,3,8,20,48,81,58,15,1,1,3,8,20,48,106,138,78,17,1,1,3,8,20,48,112,213,218,101,19,1",
			"name": "Triangle, row sums = Fibonacci numbers convolved with themselves.",
			"comment": [
				"First few rows of the array are:"
			],
			"formula": [
				"Create an array by rows: (binomial transforms of 1,0,0,0,...; 1,2,0,0,0...; 1,2,3,0,0,0...; etc.). Antidiagonals of the array become rows of the triangle."
			],
			"example": [
				"1, 1, 1, 1, 1, 1, 1, 1, 1, 1,...",
				"1, 3, 5, 7, 9, 11, 13, 15, 17,...",
				"1, 3, 8, 16, 27, 41, 58, 78, 101,...",
				"1, 3, 8, 20, 43, 81, 138, 218,...",
				"1, 3, 8, 20, 48, 106, 213,...",
				"1, 3, 8, 20, 48, 112, 249,...",
				"...",
				"Rows converge to A001792, binomial transform of (1,2,3...); and the first few rows of the triangle are:",
				"1",
				"1, 1;",
				"1, 3, 1;",
				"1, 3, 5, 1;",
				"1, 3, 8, 7, 1;",
				"1, 3, 8, 16, 9, 1;",
				"1, 3, 8, 20, 27, 22, 1;",
				"...",
				"Row sums are Fibonacci numbers convolved with themselves (A001629: 1, 2, 5, 10, 20, 38, 71, 130, 235, 420...).",
				"a(4), a(5), a(6) = 1, 3, 1 = antidiagonals of the array becoming row three of the triangle."
			],
			"xref": [
				"Cf. A001629, A104249."
			],
			"keyword": "nonn,tabl",
			"offset": "1,5",
			"author": "_Gary W. Adamson_, Feb 15 2006",
			"references": 0,
			"revision": 3,
			"time": "2012-03-30T17:25:12-04:00",
			"created": "2006-02-24T03:00:00-05:00"
		}
	]
}