{
	"greeting": "Greetings from The On-Line Encyclopedia of Integer Sequences! http://oeis.org/",
	"query": "id:A116069",
	"count": 1,
	"start": 0,
	"results": [
		{
			"number": 116069,
			"data": "1,2,3,4,5,6,7,8,9,10,22,30,31,33,41,50,51,52,55,70,72,73,75,77,87,88,91,92,95,200,222,332,333,430,633,644,654,733,861,862,872,887,986,6666,7655,7662,86540,86543,86550,86552,86553,86621,86622,86630,86631",
			"name": "n has nonincreasing digits and the n-th prime has nondecreasing digits.",
			"example": [
				"p(86543) = 1111189."
			],
			"xref": [
				"Cf. A116066, A116067, A116068."
			],
			"keyword": "nonn,base",
			"offset": "1,2",
			"author": "_Giovanni Resta_, Feb 13 2006",
			"references": 3,
			"revision": 4,
			"time": "2015-12-12T13:07:57-05:00",
			"created": "2006-02-24T03:00:00-05:00"
		}
	]
}