{
	"greeting": "Greetings from The On-Line Encyclopedia of Integer Sequences! http://oeis.org/",
	"query": "id:A116771",
	"count": 1,
	"start": 0,
	"results": [
		{
			"number": 116771,
			"data": "1,2,6,21,74,237,668,1667,3750,7743,14898,27033,46698,77369,123672,191639,288998,425499,613278,867261,1205610,1650213,2227220,2967627,3907910,5090711,6565578,8389761,10629066,13358769",
			"name": "Number of permutations of length n which avoid the patterns 1243, 4132, 4321.",
			"link": [
				"D. Callan, T. Mansour, \u003ca href=\"http://arxiv.org/abs/1705.00933\"\u003eEnumeration of small Wilf classes avoiding 1324 and two other 4-letter patterns\u003c/a\u003e, arXiv:1705.00933 [math.CO] (2017), Table 2 No 114.",
				"Lara Pudwell, \u003ca href=\"http://faculty.valpo.edu/lpudwell/maple/webbook/bookmain.html\"\u003eSystematic Studies in Pattern Avoidance\u003c/a\u003e, 2005.",
				"\u003ca href=\"/index/Rec#order_08\"\u003eIndex entries for linear recurrences with constant coefficients\u003c/a\u003e, signature (8,-28,56,-70,56,-28,8,-1)."
			],
			"formula": [
				"G.f.: A(x) = -{(x^9-3x^8+3x^7-4x^6+19x^5-32x^4+27x^3-18x^2+6x-1)x}/{(x-1)^8}",
				"For n \u003e= 4, a(n) = (5n^6 - 84n^5 + 860n^4 - 5610n^3 + 22535n^2 - 49566n + 45900)/180. - Franklin T. Adams-Watters, Sep 16 2006"
			],
			"keyword": "nonn,easy",
			"offset": "1,2",
			"author": "_Lara Pudwell_, Feb 26 2006",
			"references": 0,
			"revision": 10,
			"time": "2017-11-08T09:06:00-05:00",
			"created": "2006-02-24T03:00:00-05:00"
		}
	]
}