{
	"greeting": "Greetings from The On-Line Encyclopedia of Integer Sequences! http://oeis.org/",
	"query": "id:A117880",
	"count": 1,
	"start": 0,
	"results": [
		{
			"number": 117880,
			"data": "4,9,21,46,93,187,377,755,1513,3027,6059,12127,24257,48529,97059,194127,388257,776515,1553033,3106083,6212177,12424355,24848723,49697447,99394909,198789819,397579639,795159283,1590318573,3180637153",
			"name": "a(1) = 4; a(n) is smallest semiprime \u003e 2*a(n-1).",
			"comment": [
				"a(1)=4, a(n)=2*a(n-1)+k, where k is least positive integer chosen so that a(n) is the product of two primes. Corresponding k's are 1, 3, 4, 1, 1, 3, 1, 3, 1, 5, 9, 3, 15, 1, 9, 3, 1, 3, 17, 11, 1, 13, 1, 15, 1, 1, 5, 7, 7, 11, 5, 5, 15, 1, 3, 9, 9, 5, 7, 8, ... - _Zak Seidov_, Dec 24 2007"
			],
			"example": [
				"a(1)=4, then",
				"k=1, a(2)=2*4+1=9,",
				"k=3, a(3)=2*9+3=21,",
				"k=4, a(4)=2*21+4=46,",
				"k=1, a(5)=2*46+1=93,",
				"k=1, a(6)=2*93+1=187."
			],
			"mathematica": [
				"a=4;Do[Do[b=2a+n;If[2==Plus@@FactorInteger[b][[All,2]],Print[{b,n}];Break[]],{n,1000}];a=b,{40}] - _Zak Seidov_, Dec 24 2007"
			],
			"xref": [
				"Semiprime analog of A055496.",
				"Cf. A001358, A076656."
			],
			"keyword": "easy,nonn,less",
			"offset": "1,1",
			"author": "_Jonathan Vos Post_, May 04 2006",
			"ext": [
				"Edited by _N. J. A. Sloane_, Jul 01 2008 at the suggestion of _R. J. Mathar_"
			],
			"references": 0,
			"revision": 8,
			"time": "2015-07-11T10:59:19-04:00",
			"created": "2006-05-19T03:00:00-04:00"
		}
	]
}