{
	"greeting": "Greetings from The On-Line Encyclopedia of Integer Sequences! http://oeis.org/",
	"query": "id:A117444",
	"count": 1,
	"start": 0,
	"results": [
		{
			"number": 117444,
			"data": "0,1,2,-2,-1,0,1,2,-2,-1,0,1,2,-2,-1,0,1,2,-2,-1,0,1,2,-2,-1,0,1,2,-2,-1,0,1,2,-2,-1,0,1,2,-2,-1,0,1,2,-2,-1,0,1,2,-2,-1,0,1,2,-2,-1,0,1,2,-2,-1,0,1,2,-2,-1,0,1,2,-2,-1,0,1,2,-2,-1,0",
			"name": "Period 5: Repeat [0, 1, 2, -2, -1].",
			"comment": [
				"See the comments in A203571 concerning formulas of the n-th term of periodic sequences. - _M. F. Hasler_, Jan 13 2013"
			],
			"link": [
				"\u003ca href=\"/index/Rec\"\u003eIndex entries for linear recurrences with constant coefficients\u003c/a\u003e, signature (-1,-1,-1,-1)"
			],
			"formula": [
				"G.f.: x(1+3x+x^2)/(1+x+x^2+x^3+x^4) = x(1+2x^2-2x^3-x^4)/(1-x^5).",
				"a(n) = sum{k=0..5, L(k(k^2-n)/5)}/2, where L(j/p) is the Legendre symbol of j and p.",
				"a(n) = sqrt(2+2/sqrt(5))*sin(2*Pi*n/5)-sqrt(2-2/sqrt(5))*sin(4*Pi*n/5).",
				"a(n) = -(1/5)*{(n mod 5)+[(n+1) mod 5]-4*[(n+2) mod 5]+[(n+3) mod 5]+[(n+4) mod 5]}, with n\u003e=0. - _Paolo P. Lava_, Jun 11 2007",
				"a(n) = -2 + floor(23401/99999*10^(n+1)) mod 10. - _Hieronymus Fischer_, Jan 03 2013",
				"a(n) = -2 + floor(863/1562*5^(n+1)) mod 5. - _Hieronymus Fischer_, Jan 04 2013",
				"a(n) = 2 - ((2-n) mod 5). - _Wesley Ivan Hurt_, Jul 12 2014"
			],
			"maple": [
				"A117444:=n-\u003e2 - ((2-n) mod 5): seq(A117444(n), n=0..50); # _Wesley Ivan Hurt_, Jul 12 2014"
			],
			"mathematica": [
				"Table[2 - Mod[2 - n, 5], {n, 0, 50}] (* _Wesley Ivan Hurt_, Jul 12 2014 *)"
			],
			"program": [
				"(PARI) A117444(n)=4315*5^(n%5)\\1562%5-2  \\\\ _M. F. Hasler_, Jan 13 2013",
				"(PARI) A117444(n,p=[0,1,2,-2,-1])=p[n%#p+1] \\\\ _M. F. Hasler_, Jan 13 2013",
				"(MAGMA) [2-((2-n) mod 5) : n in [0..50]]; // _Wesley Ivan Hurt_, Jul 12 2014"
			],
			"xref": [
				"Cf. A061347."
			],
			"keyword": "easy,sign",
			"offset": "0,3",
			"author": "_Paul Barry_, Mar 16 2006",
			"ext": [
				"More terms from _Wesley Ivan Hurt_, Jul 12 2014"
			],
			"references": 9,
			"revision": 22,
			"time": "2016-06-16T23:27:30-04:00",
			"created": "2006-02-24T03:00:00-05:00"
		}
	]
}