{
	"greeting": "Greetings from The On-Line Encyclopedia of Integer Sequences! http://oeis.org/",
	"query": "id:A117526",
	"count": 1,
	"start": 0,
	"results": [
		{
			"number": 117526,
			"data": "3,10,9837,259441550133",
			"name": "Least number a(n) which is a product of n primes and such that Pi_n(a(n))/a(n) is maximum.",
			"comment": [
				"Pi_n(a(n))/a(n): 0.66667, 0.40000, 0.25801, 0.2145967653",
				"3=3, 10=2*5, 9837=3*3*1093 \u0026 259441550133=3*89*311*3124409.",
				"3 is the second prime, 10 is the fourth semiprime, 9837 is the 3-almost prime, and 259441550133 is the 4-almost prime."
			],
			"link": [
				"Eric Weisstein's World of Mathematics, \u003ca href=\"http://mathworld.wolfram.com/AlmostPrime.html\"\u003eAlmost Prime.\u003c/a\u003e",
				"Eric Weisstein's World of Mathematics, \u003ca href=\"http://mathworld.wolfram.com/PrimeFactor.html\"\u003ePrime Factor.\u003c/a\u003e"
			],
			"example": [
				"a(1)=3 because Pi(2)/2=1/2 \u003c Pi(3)/3=2/3 \u003e Pi(5)/5=3/5.",
				"a(2)=10 because Pi_2(9)/9=1/3 \u003c Pi_2(10)/10=2/5 \u003e Pi_2(14)/14=5/14; Pi_2(10)/10 = Pi_2(15)/15 but 10 \u003c 15."
			],
			"mathematica": [
				"AlmostPrimePi[k_Integer, n_] := Module[{a, i}, a[0] = 1; If[k == 1, PrimePi[n], Sum[PrimePi[n/Times @@ Prime[Array[a, k - 1]]] - a[k - 1] + 1, Evaluate[ Sequence @@ Table[{a[i], a[i - 1], PrimePi[(n/Times @@ Prime[Array[a, i - 1]])^(1/(k - i + 1))]}, {i, k - 1}]]]]]; (* _Eric W. Weisstein_, Feb 07 2006 *)",
				"fQ[n_] := Plus @@ Last /@ FactorInteger@n == 4; c = r = 0; Do[If[fQ@n, c++ ]; If[c/n \u003e r, Print[n]; r = c/n], {n, 10^6}]"
			],
			"xref": [
				"Cf. A006880, A066265, A109251, A114106, A114453."
			],
			"keyword": "nonn",
			"offset": "1,1",
			"author": "_Martin Raab_ and _Robert G. Wilson v_, Mar 25 2006",
			"ext": [
				"Comment edited and a(4) added by _Donovan Johnson_, Mar 10 2010"
			],
			"references": 1,
			"revision": 16,
			"time": "2013-11-20T14:54:26-05:00",
			"created": "2006-02-24T03:00:00-05:00"
		}
	]
}