{
	"greeting": "Greetings from The On-Line Encyclopedia of Integer Sequences! http://oeis.org/",
	"query": "id:A117201",
	"count": 1,
	"start": 0,
	"results": [
		{
			"number": 117201,
			"data": "1,0,0,1,1,1,1,0,1,0,1,-1,1,0,0,1,1,-1,1,1,0,0,1,2,1,0,0,1,1,1,1,0,0,0,1,3,1,0,0,0,1,1,1,1,1,0,1,-2,1,0,0,1,1,2,1,0,0,0,1,-1,1,0,1,1,1,1,1,1,0,0,1,-4,1,0,0,1,1,1,1,1,1",
			"name": "Row sums of number triangle A117200.",
			"keyword": "sign",
			"offset": "0,24",
			"author": "_Paul Barry_, Mar 02 2006",
			"references": 1,
			"revision": 3,
			"time": "2012-03-30T18:59:14-04:00",
			"created": "2006-02-24T03:00:00-05:00"
		}
	]
}