{
	"greeting": "Greetings from The On-Line Encyclopedia of Integer Sequences! http://oeis.org/",
	"query": "id:A117244",
	"count": 1,
	"start": 0,
	"results": [
		{
			"number": 117244,
			"data": "79,97,163,173,223,277,331,367,373,383,397,439,457,547,593,607,613,673,691,709,727,733,739,757,773,853,907,929,967,997,1013,1069,1087,1103,1123,1129,1171,1181,1213,1223,1237,1249,1307,1373,1423,1433,1447,1493",
			"name": "Single (or isolated or non-twin) primes (A007510) that are not Chen primes (A109611).",
			"link": [
				"Amiram Eldar, \u003ca href=\"/A117244/b117244.txt\"\u003eTable of n, a(n) for n = 1..10000\u003c/a\u003e"
			],
			"example": [
				"79 is single prime, but not Chen prime, since 79 -2 = 77 = 7*11 is composite, and 79 + 2 = 81 = 3^4 is neither prime nor semiprime."
			],
			"maple": [
				"isA001358 := proc(n) numtheory[bigomega](n) = 2 ; end proc: isA109611 := proc(n) if isprime(n) then isprime(n+2) or isA001358(n+2) ; else false; end if; end proc: isA007510 := proc(n) if isprime(n) then not isprime(n-2) and not isprime(n+2) ; else false; end if ; end proc: isA117244 := proc(n) isA007510(n) and not isA109611(n) ; end proc: for n from 1 to 4000 do if isA117244(n) then printf(\"%d,\",n) ; fi; end do ; # _R. J. Mathar_, Dec 09 2009"
			],
			"mathematica": [
				"Select[Range[1500], PrimeQ[#] \u0026\u0026 !PrimeQ[#-2] \u0026\u0026 PrimeOmega[#+2] \u003e 2 \u0026] (* _Amiram Eldar_, Oct 19 2021 *)"
			],
			"program": [
				"(PARI) isok(p) = isprime(p) \u0026\u0026 !isprime(p-2) \u0026\u0026 !isprime(p+2) \u0026\u0026 (bigomega(p+2) \u003e 2); \\\\ _Michel Marcus_, Oct 19 2021"
			],
			"xref": [
				"Cf. A007510, A109611."
			],
			"keyword": "nonn",
			"offset": "1,1",
			"author": "_Jani Melik_, Apr 22 2006",
			"ext": [
				"Terms beyond 397 from _R. J. Mathar_, Dec 09 2009",
				"Offset corrected by _Amiram Eldar_, Oct 19 2021"
			],
			"references": 1,
			"revision": 14,
			"time": "2021-10-19T21:32:48-04:00",
			"created": "2006-02-24T03:00:00-05:00"
		}
	]
}