{
	"greeting": "Greetings from The On-Line Encyclopedia of Integer Sequences! http://oeis.org/",
	"query": "id:A117130",
	"count": 1,
	"start": 0,
	"results": [
		{
			"number": 117130,
			"data": "0,0,0,1,7,37,197,1171",
			"name": "Maximal number of cycles in complete graph on n nodes that can be unknotted when the graph is embedded in three-dimensional Euclidean space.",
			"comment": [
				"For n \u003c= 6 all cycles can be unknotted and the terms agree with A002807."
			],
			"xref": [
				"Cf. A002807."
			],
			"keyword": "nonn,more",
			"offset": "0,5",
			"author": "_J. H. Conway_, Apr 29 2006",
			"references": 1,
			"revision": 5,
			"time": "2013-11-04T13:17:25-05:00",
			"created": "2006-02-24T03:00:00-05:00"
		}
	]
}