{
	"greeting": "Greetings from The On-Line Encyclopedia of Integer Sequences! http://oeis.org/",
	"query": "id:A117267",
	"count": 1,
	"start": 0,
	"results": [
		{
			"number": 117267,
			"data": "1,1,2,2,3,5,4,6,9,14,7,11,17,26,40,13,20,31,48,74,114,24,37,57,88,136,210,324,44,68,105,162,250,386,596,920,81,125,193,298,460,710,1096,1692,2612",
			"name": "Difference row triangle of A117189.",
			"comment": [
				"Leftmost column of the triangle = the tribonacci sequence A000073: (1, 1, 2, 4, 7, 13...); rightmost diagonal of the triangle = A117189, binomial transform of the tribonacci sequence: (1, 2, 5, 14, 40, 114...). Difference rows of A117267 generate the triangle A117268."
			],
			"formula": [
				"Take difference rows of A117189 (binomial transform of the tribonacci sequence, A000073); and reorient to a flush left format."
			],
			"example": [
				"Taking difference rows of A117189, we get:",
				"1, 2, 5, 14, 40, 114,...",
				"1, 3, 9, 26, 74,...",
				"2, 6, 17, 48,...",
				"4, 11, 3l,...",
				"7, 20,...",
				"23,...",
				"Reorient into the triangle:",
				"1,",
				"1, 2,",
				"2, 3, 5,",
				"4, 6, 9, 14,",
				"7, 11, 17, 26, 40,",
				"..."
			],
			"xref": [
				"Cf. A000073, A117268, A117189."
			],
			"keyword": "nonn,tabl",
			"offset": "1,3",
			"author": "_Gary W. Adamson_, Mar 05 2006",
			"references": 2,
			"revision": 4,
			"time": "2012-08-12T12:24:07-04:00",
			"created": "2006-02-24T03:00:00-05:00"
		}
	]
}