{
	"greeting": "Greetings from The On-Line Encyclopedia of Integer Sequences! http://oeis.org/",
	"query": "id:A117199",
	"count": 1,
	"start": 0,
	"results": [
		{
			"number": 117199,
			"data": "1,1,2,0,2,0,2,1,1,0,3,0,1,1,2,0,2,0,2,1,1,0,3,0,1,1,2,0,2,0,2,1,1,0,3,0,1,1,2,0,2,0,2,1,1,0,3,0,1,1,2,0,2,0,2,1,1,0,3,0,1,1,2,0,2,0,2,1,1,0,3,0,1,1,2,0,2,0,2,1,1,0,3,0,1,1,2,0,2,0,2,1,1,0,3,0,1,1,2,0,2,0,2,1,1",
			"name": "Expansion of 1/(1-x^2) + x/(1-x^3) + x^2/(1-x^4).",
			"comment": [
				"Periodic {1,1,2,0,2,0,2,1,1,0,3,0}. Diagonal sums of A117198."
			],
			"link": [
				"\u003ca href=\"/index/Rec#order_06\"\u003eIndex entries for linear recurrences with constant coefficients\u003c/a\u003e, signature (-1,-1,0,1,1,1)."
			],
			"formula": [
				"G.f.: (1+2x+4x^2+3x^3+3x^4)/(1+x+x^2-x^4-x^5-x^6)",
				"a(n)=(1/792)*{ - 53*[n mod 12] + 211*[(n + 1) mod 12] - 185*[(n + 2) mod 12] + 79*[(n + 3) mod 12] + 13*[(n + 4) mod 12] + 79*[(n + 5) mod 12] - 119*[(n + 6) mod 12] + 145*[(n + 7) mod 12] - 119*[(n + 8) mod 12] + 145*[(n + 9) mod 12] - 53*[(n + 10) mod 12] + 13*[(n + 11) mod 12]}, with n\u003e=0. - _Paolo P. Lava_, Jun 01 2007"
			],
			"mathematica": [
				"CoefficientList[ Series[1/(1 - x^2) + x/(1 - x^3) + x^2/(1 - x^4), {x, 0, 105}], x] (* _Robert G. Wilson v_, Mar 14 2006 *)",
				"LinearRecurrence[{-1,-1,0,1,1,1},{1,1,2,0,2,0},120] (* or *) PadRight[ {},120,{1,1,2,0,2,0,2,1,1,0,3,0}] (* _Harvey P. Dale_, Dec 22 2013 *)"
			],
			"keyword": "easy,nonn",
			"offset": "0,3",
			"author": "_Paul Barry_, Mar 02 2006",
			"ext": [
				"More terms from _Robert G. Wilson v_, Mar 14 2006"
			],
			"references": 1,
			"revision": 16,
			"time": "2015-07-31T20:51:44-04:00",
			"created": "2006-02-24T03:00:00-05:00"
		}
	]
}