{
	"greeting": "Greetings from The On-Line Encyclopedia of Integer Sequences! http://oeis.org/",
	"query": "id:A117760",
	"count": 1,
	"start": 0,
	"results": [
		{
			"number": 117760,
			"data": "1,1,1,2,3,5,8,13,21,33,53,85,136,218,349,559,895,1433,2295,3675,5885,9424,15091,24166,38698,61969,99234,158908,254467,407490,652533,1044932,1673299,2679533,4290863,6871162,11003117,17619812,28215439,45182718",
			"name": "Expansion of 1/(1 - x - x^3 - x^5 - x^7).",
			"comment": [
				"Number of compositions of n into parts 1, 3, 5, and 7. - _David Neil McGrath_, Aug 18 2014"
			],
			"link": [
				"Milan Janjic, \u003ca href=\"https://cs.uwaterloo.ca/journals/JIS/VOL19/Janjic/janjic73.html\"\u003eBinomial Coefficients and Enumeration of Restricted Words\u003c/a\u003e, Journal of Integer Sequences, 2016, Vol 19, #16.7.3"
			],
			"formula": [
				"a(n)=a(n-1)+a(n-3)+a(n-5)+a(n-7); a(0)=0, a(1)=1, a(2)=1, a(3)=1, a(4)=2, a(5)=3, a(6)=5."
			],
			"maple": [
				"a[0]:=0:a[1]:=1:a[2]:=1:a[3]:=1:a[4]:=2:a[5]:=3:a[6]:=5:for n from 7 to 45 do a[n]:=a[n-1]+a[n-3]+a[n-5]+a[n-7] od: seq(a[n],n=0..45);"
			],
			"mathematica": [
				"CoefficientList[ Series[1/(1 - x - x^3 - x^5 - x^7), {x, 0, 40}], x]"
			],
			"program": [
				"(PARI) Vec( 1/(1-x-x^3-x^5-x^7)+O(x^66) ) \\\\ _Joerg Arndt_, Aug 19 2014"
			],
			"keyword": "nonn",
			"offset": "0,4",
			"author": "_Roger L. Bagula_, Apr 14 2006",
			"ext": [
				"Edited and extended by _N. J. A. Sloane_, Apr 20 2006"
			],
			"references": 0,
			"revision": 18,
			"time": "2020-07-03T14:55:05-04:00",
			"created": "2006-02-24T03:00:00-05:00"
		}
	]
}