{
	"greeting": "Greetings from The On-Line Encyclopedia of Integer Sequences! http://oeis.org/",
	"query": "id:A117545",
	"count": 1,
	"start": 0,
	"results": [
		{
			"number": 117545,
			"data": "2,2,1,1,3,1,5,1,6,2,9,1,5,1,3,2,3,1,19,1,3,2,5,1,6,4,3,2,5,1,7,1,3,6,21,2,10,1,6,2,3,1,5,1,19,2,10,1,14,3,6,2,11,1,6,4,3,2,3,1,7,1,5,204,12,2,6,1,3,2,3,1,5,1,3,6,3,2,5,1,6,2,5,1,5,11,7,2,3,1,6,12,7,4,7,2,17,1,3",
			"name": "Least k such that Phi(k,n), the k-th cyclotomic polynomial evaluated at n, is prime.",
			"comment": [
				"Note that a(n)=1 iff n-1 is prime because Phi(1,x)=x-1. For n\u003c2048, we have the bound a(n)\u003c251. However, a(2048) is greater than 10000. Is a(n) defined for all n? For fixed n, there are many sequences listing the k that make Phi(k,n) prime: A000043, A028491, A004061, A004062, A004063, A004023, A005808, A016054, A006032, A006033, A006034, A006035."
			],
			"link": [
				"T. D. Noe, \u003ca href=\"/A117545/b117545.txt\"\u003eTable of n, a(n) for n = 1..2047\u003c/a\u003e"
			],
			"mathematica": [
				"Table[k=1; While[ !PrimeQ[Cyclotomic[k,n]], k++ ]; k, {n,100}]"
			],
			"xref": [
				"Cf. A117544 (least k such that Phi(n, k) is prime)."
			],
			"keyword": "nonn",
			"offset": "1,1",
			"author": "_T. D. Noe_, Mar 28 2006",
			"references": 5,
			"revision": 5,
			"time": "2014-04-15T02:34:19-04:00",
			"created": "2006-02-24T03:00:00-05:00"
		}
	]
}