{
	"greeting": "Greetings from The On-Line Encyclopedia of Integer Sequences! http://oeis.org/",
	"query": "id:A117794",
	"count": 1,
	"start": 0,
	"results": [
		{
			"number": 117794,
			"data": "0,6,66,120,276,378,630,780,1128,1326,1770,2016,2556,2850,3486,3828,4560,4950,5778,6216,7140,7626,8646,9180,10296,10878,12090,12720,14028,14706,16110,16836,18336,19110,20706,21528,23220,24090,25878,26796",
			"name": "Hexagonal numbers divisible by 6.",
			"comment": [
				"Intersection of A000384 and A008588. Their indices are given by A047238. - _Michel Marcus_, Feb 27 2014"
			],
			"link": [
				"Amiram Eldar, \u003ca href=\"/A117794/b117794.txt\"\u003eTable of n, a(n) for n = 1..10000\u003c/a\u003e",
				"\u003ca href=\"/index/Rec#order_05\"\u003eIndex entries for linear recurrences with constant coefficients\u003c/a\u003e, signature (1,2,-2,-1,1)."
			],
			"formula": [
				"a(n) = a(n-1)+2*a(n-2)-2*a(n-3)-a(n-4)+a(n-5), with a(1)=0, a(2)=6, a(3)=66, a(4)=120, a(5)=276. - _Harvey P. Dale_, Aug 19 2011",
				"a(n) = 3/2*(-1)^n(-4 n+(-1)^n*(6*n(2*n-5)+19)+5). - _Harvey P. Dale_, Aug 19 2011",
				"G.f.: 6*x^2*(1+10*x+7*x^2+6*x^3)/((1-x)^3*(1+x)^2). - _Harvey P. Dale_, Aug 19 2011"
			],
			"mathematica": [
				"Select[Table[n(2n-1),{n,0,250}],Divisible[#,6]\u0026] (* or *) LinearRecurrence[ {1,2,-2,-1,1},{0,6,66,120,276},84] (* _Harvey P. Dale_, Aug 19 2011 *)"
			],
			"program": [
				"(PARI) isok(n) = ispolygonal(n, 6) \u0026\u0026 !(n % 6); \\\\ _Michel Marcus_, Feb 27 2014"
			],
			"xref": [
				"Cf. A000384, A008588, A047238."
			],
			"keyword": "nonn,easy",
			"offset": "1,2",
			"author": "Luc Stevens (lms022(AT)yahoo.com), Apr 29 2006",
			"references": 1,
			"revision": 24,
			"time": "2021-03-22T05:47:30-04:00",
			"created": "2006-05-19T03:00:00-04:00"
		}
	]
}