{
	"greeting": "Greetings from The On-Line Encyclopedia of Integer Sequences! http://oeis.org/",
	"query": "id:A117734",
	"count": 1,
	"start": 0,
	"results": [
		{
			"number": 117734,
			"data": "0,1,5,2,26,6,186,18,1518,17070,14970,205050,177330,2873010,43515570,696699570,696219090,12540622290,12531433110,250812956310",
			"name": "Absolute difference between the n-th primorial and the n-th compositorial number.",
			"formula": [
				"a(n) = | A034386(n)-A049614(n)| ."
			],
			"mathematica": [
				"f[n_] := If[PrimeQ[n] == True, 1, n] cf[0] = 1; cf[n_Integer?Positive] := cf[n] = f[n]*cf[n - 1] g[n_] := If[PrimeQ[n] == True, n, 1] p[0] = 1; p[n_Integer?Positive] := p[n] = g[n]*p[n - 1] Table[Abs[ -cf[n] + p[n]], {n, 1, 20}]"
			],
			"xref": [
				"Cf. A034386, A117683."
			],
			"keyword": "nonn",
			"offset": "1,3",
			"author": "_Roger L. Bagula_, Apr 14 2006",
			"ext": [
				"Offset and A-number corrected; comment rewritten; information duplicating A117733 removed - The Assoc Eds of the OEIS, Oct 20 2010"
			],
			"references": 0,
			"revision": 5,
			"time": "2012-03-30T17:34:20-04:00",
			"created": "2006-02-24T03:00:00-05:00"
		}
	]
}