{
	"greeting": "Greetings from The On-Line Encyclopedia of Integer Sequences! http://oeis.org/",
	"query": "id:A117072",
	"count": 1,
	"start": 0,
	"results": [
		{
			"number": 117072,
			"data": "6,13,25,48,91,176,345,682,1355,2698,5383,10752,21489,42962,85907,171796,343573,687126,1374231,2748438,5496851,10993676,21987325,43974622,87949215,175898400,351796769,703593506,1407186979,2814373924,5628747813,11257495590",
			"name": "Number at end of segment n of A078783.",
			"comment": [
				"a(n) = A078783(3*n)."
			],
			"reference": [
				"N. J. A. Sloane and Allan Wilks, On sequences of Recaman type, paper in preparation, 2006."
			],
			"link": [
				"Reinhard Zumkeller, \u003ca href=\"/A117072/b117072.txt\"\u003eTable of n, a(n) for n = 1..3000\u003c/a\u003e"
			],
			"program": [
				"(Haskell)",
				"a117072 n = a117072_list !! (n-1)",
				"a117072_list = tSegments !! 2",
				"-- tSegments defined in A117070.  -- _Reinhard Zumkeller_, May 01 2015"
			],
			"xref": [
				"Cf. A078783, A117070, A117071."
			],
			"keyword": "nonn",
			"offset": "1,1",
			"author": "_N. J. A. Sloane_, Apr 17 2006",
			"references": 4,
			"revision": 11,
			"time": "2015-05-01T07:42:41-04:00",
			"created": "2006-02-24T03:00:00-05:00"
		}
	]
}