{
	"greeting": "Greetings from The On-Line Encyclopedia of Integer Sequences! http://oeis.org/",
	"query": "id:A117337",
	"count": 1,
	"start": 0,
	"results": [
		{
			"number": 117337,
			"data": "0,0,1,-4,24,-157,1176,-9853,91498,-933451,10386908,-125292129,1629597910,-22746009423,339288465552,-5388025686685,90782990910394,-1617895300046011,30412104692215604,-601422325704360009,12483373271662252222,-271375594220745999111",
			"name": "Column 2 of triangle A117335.",
			"xref": [
				"Cf. A117335 (triangle), A117336 (column 1), A117338 (row sums)."
			],
			"keyword": "sign",
			"offset": "0,4",
			"author": "_Paul D. Hanna_, Mar 09 2006",
			"references": 4,
			"revision": 4,
			"time": "2012-03-30T18:36:56-04:00",
			"created": "2006-02-24T03:00:00-05:00"
		}
	]
}