{
	"greeting": "Greetings from The On-Line Encyclopedia of Integer Sequences! http://oeis.org/",
	"query": "id:A118642",
	"count": 1,
	"start": 0,
	"results": [
		{
			"number": 118642,
			"data": "16,27,32,48,54,64,72,80,81,96,100,108,112,125,128,135,144,147,160,162,176,189,192,200,208,216,224,240,243,250",
			"name": "Two finite groups are conformal if they have the same number of elements of each order. A natural number n is said to be a conformal order if there exist two conformal groups of order n which are not isomorphic to each other. The sequence lists the conformal orders.",
			"comment": [
				"Since a(1)= 16 and p^3 is in the sequence for any odd prime p, by taking direct products with cyclic groups we see that n belongs to the sequence if either 16 or p^3 divides n for an odd prime p. However, 72 and 147, which are not of this form, both belong to the sequence. Also, every multiple of each term in the sequence is also a term of the sequence. Conformality of groups is an equivalence relation but there seem to be virtually no known conformality invariants other than group order."
			],
			"reference": [
				"F. J. Budden, The Fascination of Groups, Cambridge University Press, 1969."
			],
			"link": [
				"James McCarron, \u003ca href=\"/A118642/b118642.txt\"\u003eTable of n, a(n) for n = 1..312\u003c/a\u003e"
			],
			"example": [
				"a(2)= 27 because there exist two non-isomorphic groups of order 27 each of which has one element of order one and twenty-six elements of order three."
			],
			"keyword": "hard,more,nonn",
			"offset": "1,1",
			"author": "_Des MacHale_ and _Bob Heffernan_, May 10 2006",
			"references": 2,
			"revision": 14,
			"time": "2021-02-03T01:00:33-05:00",
			"created": "2006-05-19T03:00:00-04:00"
		}
	]
}