{
	"greeting": "Greetings from The On-Line Encyclopedia of Integer Sequences! http://oeis.org/",
	"query": "id:A118339",
	"count": 1,
	"start": 0,
	"results": [
		{
			"number": 118339,
			"data": "1,3,15,63,267,1107,4623,19071,78987,324543,1337511,5483235,22527315,92200455,377965479,1544925891,6322891707",
			"name": "Number of simple chains with n-1 edges strongly embedded in a simple cubic lattice.",
			"comment": [
				"Gaunt et al. also enumerate clusters with upper limits on the vertex degree."
			],
			"link": [
				"D. S. Gaunt, J. L. Martin et al., \u003ca href=\"http://dx.doi.org/10.1088/0305-4470/13/5/037\"\u003eRestricted valence site animals on the simple cubic lattice\u003c/a\u003e, J. Phys. A: Math. Gen. 13 (1980) 1791-1797"
			],
			"keyword": "nonn",
			"offset": "1,2",
			"author": "_R. J. Mathar_, May 14 2006",
			"references": 0,
			"revision": 4,
			"time": "2012-03-30T17:39:12-04:00",
			"created": "2006-05-19T03:00:00-04:00"
		}
	]
}