{
	"greeting": "Greetings from The On-Line Encyclopedia of Integer Sequences! http://oeis.org/",
	"query": "id:A118355",
	"count": 1,
	"start": 0,
	"results": [
		{
			"number": 118355,
			"data": "3,4,8,14,28,46,90,160,308,540,1032,1846,3502,6272,11852,21364,40234,72694,136564,247498,464070,842546,1577280,2868922,5364030,9769366,18245976,33272104,62086194,113326264,211304042,386039204,719319094,1315132086,2449100566",
			"name": "Number of self-avoiding walks on a honeycomb lattice with a one-dimensional impenetrable boundary.",
			"comment": [
				"Bennett-Wood and Owczarek (1996) compute up to a(48)."
			],
			"link": [
				"D. Bennett-Wood and A. L. Owczarek, \u003ca href=\"http://dx.doi.org/10.1088/0305-4470/29/16/004\"\u003eExact enumeration results for self-avoiding walks on the honeycomb lattice attached to a surface\u003c/a\u003e, J. Phys. A: Math. Gen., 29 (1996), 4755-4768. [See Table 1, p. 4761.]"
			],
			"example": [
				"a(1)=3 because there are 3 directions on the lattice for the first step.",
				"a(2)=4 because two of these 3 first steps are already \"repelled\" by the boundary and only the third has two choices to proceed."
			],
			"keyword": "nonn",
			"offset": "1,1",
			"author": "_R. J. Mathar_, May 14 2006",
			"ext": [
				"Terms a(26) to a(35) were copied from Table 1 (p. 4761) in Bennett-Wood and Owczarek (1996) by _Petros Hadjicostas_, Jan 05 2019"
			],
			"references": 1,
			"revision": 13,
			"time": "2019-01-06T03:41:20-05:00",
			"created": "2006-05-19T03:00:00-04:00"
		}
	]
}