{
	"greeting": "Greetings from The On-Line Encyclopedia of Integer Sequences! http://oeis.org/",
	"query": "id:A118335",
	"count": 1,
	"start": 0,
	"results": [
		{
			"number": 118335,
			"data": "3,6,8,12,14,20,20,24,30,32,42,44,44,48,54,60,62,72,72,74,84,84,90,104,104,104,108,110,116,140,132,138,140,150,152,162,168,168,174,180,182,200,194,200,200,216,228,228,230,236,240,242,260,258,264,270,272,282",
			"name": "a(n)= smallest multiple of (prime(n+1)-p(n)) which is \u003e= prime(n+1), where prime(m) is the m-th prime.",
			"comment": [
				"a(n) - A118336(n) = 2 *(prime(n+1) - prime(n)).",
				"a(n) - A113709(n) = prime(n+1) - prime(n), for n\u003e= 2.",
				"a(n)\u003ca(n-1) for n: 31,43,54,83,98,100,116,122,140,142,155,163,169,173,178,..., . - _Robert G. Wilson v_, Apr 27 2006"
			],
			"mathematica": [
				"f[n_] := Block[{m = Prime[n + 1] - Prime[n]}, k = Mod[m, Prime[n + 1]]; While[k \u003c Prime[n + 1], k += m]; k]; Array[f, 58] - _Robert G. Wilson v_, Apr 27 2006"
			],
			"xref": [
				"Cf. A113709, A118336."
			],
			"keyword": "nonn",
			"offset": "1,1",
			"author": "_Leroy Quet_, Apr 25 2006",
			"ext": [
				"More terms from _Robert G. Wilson v_, Apr 27 2006"
			],
			"references": 1,
			"revision": 12,
			"time": "2019-09-06T10:59:04-04:00",
			"created": "2006-02-24T03:00:00-05:00"
		}
	]
}