{
	"greeting": "Greetings from The On-Line Encyclopedia of Integer Sequences! http://oeis.org/",
	"query": "id:A118818",
	"count": 1,
	"start": 0,
	"results": [
		{
			"number": 118818,
			"data": "223,379,463,631,691,883,907,1051,1423,1447,1543,1723,1747,1783,1987,2143,2179,2347,2467,2591,2767,3259,3307,3511,3631,3691,3739,3823,3907,4219,4447,4507,4519,4639,4987,5023,5107,5119,5347,5683,5923",
			"name": "Primes p for which there are more primitive roots below p/2 than above p/2.",
			"comment": [
				"All terms are of the form 4*m + 3 (see A172480 and A172490). - _Emmanuel Vantieghem_, Nov 07 2016"
			],
			"link": [
				"Amiram Eldar, \u003ca href=\"/A118818/b118818.txt\"\u003eTable of n, a(n) for n = 1..1000\u003c/a\u003e"
			],
			"example": [
				"223 is a term because it has 38 primitive roots below 111.5, but 34 above 111.5."
			],
			"mathematica": [
				"q[n_] := PrimeQ[n] \u0026\u0026 Length[(p = PrimitiveRootList[n])] \u003e 2*Count[p, _?(# \u003e n/2 \u0026)]; Select[4*Range[0, 1500] + 3, q] (* _Amiram Eldar_, Oct 11 2021 *)"
			],
			"xref": [
				"Cf. A128859, A172480, A172490."
			],
			"keyword": "nonn",
			"offset": "1,1",
			"author": "_Don Reble_, Apr 20 2007",
			"references": 5,
			"revision": 15,
			"time": "2021-10-11T04:37:18-04:00",
			"created": "2006-09-29T03:00:00-04:00"
		}
	]
}