{
	"greeting": "Greetings from The On-Line Encyclopedia of Integer Sequences! http://oeis.org/",
	"query": "id:A118590",
	"count": 1,
	"start": 0,
	"results": [
		{
			"number": 118590,
			"data": "3,11,17,23,41,47,71,83,101,107,113,131,167,197,227,233,281,311,317,353,383,401,443,461,467,491,503,617,647,677,743,761,773,827,857,863,881,887,911,941,971,1013,1091,1097,1217,1283,1301,1307,1427,1433,1451,1487",
			"name": "Larger of two consecutive primes whose positive difference is a square.",
			"comment": [
				"Superset of A031935 and A031505. [From _R. J. Mathar_, Aug 08 2008]"
			],
			"link": [
				"T. D. Noe, \u003ca href=\"/A118590/b118590.txt\"\u003eTable of n, a(n) for n = 1..1000\u003c/a\u003e"
			],
			"example": [
				"7 and 11 are consecutive primes. 11-7 = 4 a square, so 11 is the second term in the table."
			],
			"mathematica": [
				"Select[Table[Prime[n], {n, 2, 237}], IntegerQ[Sqrt[# - Prime[PrimePi[# - 1]]]] \u0026] (* _Jayanta Basu_, Apr 23 2013 *)",
				"nn = 500; ps = Prime[Range[nn]]; t = {}; Do[If[IntegerQ[Sqrt[ps[[n]] - ps[[n-1]]]], AppendTo[t, ps[[n]]]], {n, 2, nn}]; t (* _T. D. Noe_, Apr 23 2013 *)",
				"Prime[#+1]\u0026/@Flatten[Position[Differences[Prime[Range[250]]],_?(IntegerQ[ Sqrt[#]]\u0026)]] (* _Harvey P. Dale_, May 08 2019 *)"
			],
			"program": [
				"(PARI) g(n) = for(x=2, n, if(issquare(prime(x)-prime(x-1)), print1(prime(x)\",\")))"
			],
			"keyword": "easy,nonn",
			"offset": "1,1",
			"author": "_Cino Hilliard_, May 07 2006",
			"references": 3,
			"revision": 12,
			"time": "2019-05-08T18:03:03-04:00",
			"created": "2006-05-19T03:00:00-04:00"
		}
	]
}