{
	"greeting": "Greetings from The On-Line Encyclopedia of Integer Sequences! http://oeis.org/",
	"query": "id:A118757",
	"count": 1,
	"start": 0,
	"results": [
		{
			"number": 118757,
			"data": "0,1,2,3,4,5,6,7,8,9,19,18,17,16,15,14,13,12,11,10,20,21,22,23,24,25,26,27,28,29,39,38,37,36,35,34,33,32,31,30,40,41,42,43,44,45,46,47,48,49,59,58,57,56,55,54,53,52,51,50,60,61,62,63,64,65,66,67,68,69,79,78,77",
			"name": "Permutation of the natural numbers such that the Levenshtein distance between decimal representations of successive terms is 1, and a(n+1) is the largest such m \u003c a(n) if it exists, or else the smallest such m \u003e a(n); a(0) = 0.",
			"comment": [
				"a(n) = A003100(n) for n \u003c= 100, a(100) = A003100(100) = 190, but a(101) = 180, A003100(101) = 191.",
				"A118763 is the lexicographically smallest permutation with LevenshteinDistance[Base10](a(n),a(n+1)) = 1. - _M. F. Hasler_, Sep 12 2018"
			],
			"link": [
				"R. Zumkeller, \u003ca href=\"/A118757/b118757.txt\"\u003eTable of n, a(n) for n = 0..30000\u003c/a\u003e",
				"Michael Gilleland, \u003ca href=\"http://people.cs.pitt.edu/~kirk/cs1501/Pruhs/Fall2006/Assignments/editdistance/Levenshtein%20Distance.htm\"\u003eLevenshtein Distance\u003c/a\u003e, 2006. [Broken link fixed by _M. F. Hasler_, Sep 12 2018, cf A118763]",
				"R. Zumkeller, \u003ca href=\"/A118757/a118757.txt\"\u003eValues of A118757 for n\u003c=1200\u003c/a\u003e",
				"\u003ca href=\"/index/Per#IntegerPermutation\"\u003eIndex entries for sequences that are permutations of the natural numbers\u003c/a\u003e"
			],
			"formula": [
				"a(n+1) = if U(n) is empty then Min(V(n)) else Max(U(n)), where the sets U and V are defined as: U(m) = {x \u003c a(m) : LD10(a(m),x) = 1 and a(k) \u003c\u003e x for 0 \u003c= k \u003c m}, V(m) = {x \u003e a(m) | LD10(a(m),x) = 1 and a(k) \u003c\u003e x for 0 \u003c= k \u003c m} with LD10 = Levenshtein distance in decimal representations of natural numbers.",
				"a(n) = A118758(n) (self-inverse) for n \u003c 100."
			],
			"xref": [
				"Cf. A118763.",
				"Iterated twice: A118759(n) := a(a(n)).",
				"Fixed points: A118761 = { n | n = a(n) }.",
				"Inverse: A118758.",
				"First difference: A118762(n) := a(n+1) - a(n)."
			],
			"keyword": "nonn,base,look",
			"offset": "0,3",
			"author": "_Reinhard Zumkeller_, May 01 2006",
			"ext": [
				"Correct definition and other edits by _M. F. Hasler_, Sep 12 2018"
			],
			"references": 10,
			"revision": 22,
			"time": "2018-09-14T05:00:32-04:00",
			"created": "2006-05-19T03:00:00-04:00"
		}
	]
}