{
	"greeting": "Greetings from The On-Line Encyclopedia of Integer Sequences! http://oeis.org/",
	"query": "id:A118326",
	"count": 1,
	"start": 0,
	"results": [
		{
			"number": 118326,
			"data": "2,2,22,50,70,29091,49606,174594,260086,1395138,8755202,13452935,34664211,89502392,490611832,1152519711,2034899286,2281723269,3511022987,12377674446,17495576384,21346545848,115293211710",
			"name": "Engel expansion of tanh(1).",
			"link": [
				"Simon Plouffe, \u003ca href=\"/A118326/b118326.txt\"\u003eTable of n, a(n) for n = 1..340\u003c/a\u003e",
				"Eric Weisstein's World of Mathematics, \u003ca href=\"http://mathworld.wolfram.com/EngelExpansion.html\"\u003eEngel Expansion\u003c/a\u003e",
				"\u003ca href=\"/index/El#Engel\"\u003eIndex entries for sequences related to Engel expansions\u003c/a\u003e"
			],
			"mathematica": [
				"EngelExp[A_,n_]:=Join[Array[1\u0026,Floor[A]],First@Transpose@NestList[{Ceiling[1/Expand[ #[[1]]#[[2]]-1]],Expand[ #[[1]]#[[2]]-1]}\u0026,{Ceiling[1/(A-Floor[A])],A-Floor[A]},n-1]]; EngelExp[N[Tanh[1],7! ],50] (* _Vladimir Joseph Stephan Orlovsky_, Jun 08 2009 *)"
			],
			"keyword": "nonn",
			"offset": "1,1",
			"author": "_Eric W. Weisstein_, Apr 23 2006",
			"references": 1,
			"revision": 15,
			"time": "2016-04-24T05:35:37-04:00",
			"created": "2006-02-24T03:00:00-05:00"
		}
	]
}