{
	"greeting": "Greetings from The On-Line Encyclopedia of Integer Sequences! http://oeis.org/",
	"query": "id:A118893",
	"count": 1,
	"start": 0,
	"results": [
		{
			"number": 118893,
			"data": "9,289,676,9801,12168,235225,332929,465125,1825201,11309769,384199201,592192225,4931691076,5425069448,13051463049,221322261601,443365544449,865363202001,8192480787001,11968683934832,13325427460801,15061377048201,28821995554248",
			"name": "Duplicate of A078326.",
			"keyword": "dead",
			"offset": "1,1",
			"author": "_Eric W. Weisstein_, May 04 2006",
			"references": 0,
			"revision": 19,
			"time": "2015-08-15T14:54:36-04:00",
			"created": "2006-05-19T03:00:00-04:00"
		}
	]
}