{
	"greeting": "Greetings from The On-Line Encyclopedia of Integer Sequences! http://oeis.org/",
	"query": "id:A118333",
	"count": 1,
	"start": 0,
	"results": [
		{
			"number": 118333,
			"data": "2,3,5,11,23,7,17,163,443,29,73,251,4027,2477,499,199,883,47,2671,308333,2099,859,510481,10429,514519,29629,51713,42337,5407,13841,151733,2448023843,3133033,89101,61613,19448653009,50136277,63259211",
			"name": "Largest prime factor of n!! + (n+1)!!.",
			"comment": [
				"First five terms coincide with A118332 because n!! + (n+1)!! is prime for n = 0, 1, 2, 3, 4. At n\u003e4, n!! + (n+1)!! is always composite."
			],
			"link": [
				"Harvey P. Dale, \u003ca href=\"/A118333/b118333.txt\"\u003eTable of n, a(n) for n = 0..100\u003c/a\u003e"
			],
			"mathematica": [
				"Table[FactorInteger[n!!+(n+1)!! ][[ -1,1]],{n,0,40}]",
				"FactorInteger[#][[-1,1]]\u0026/@(Total/@Partition[Range[0,40]!!,2,1]) (* _Harvey P. Dale_, Mar 22 2019 *)"
			],
			"xref": [
				"Cf. A118332."
			],
			"keyword": "nonn",
			"offset": "0,1",
			"author": "_Zak Seidov_, Apr 23 2006",
			"references": 2,
			"revision": 7,
			"time": "2019-03-22T17:20:08-04:00",
			"created": "2006-02-24T03:00:00-05:00"
		}
	]
}