{
	"greeting": "Greetings from The On-Line Encyclopedia of Integer Sequences! http://oeis.org/",
	"query": "id:A118014",
	"count": 1,
	"start": 0,
	"results": [
		{
			"number": 118014,
			"data": "0,1,6,16,33,56,88,125,172,227,291,363,445,533,633,743,861,989,1128,1275,1434,1601,1779,1967,2170,2376,2597,2827,3072,3324,3588,3859,4143,4439,4749,5070,5399,5738,6091,6458,6834,7221,7618,8027,8448,8884,9329,9783",
			"name": "Sum_{k=1..n} floor(n^2/k).",
			"comment": [
				"Sums of rows of triangle in A118013.",
				"a(n) = Sum(A118013(n,k): 1\u003c=k\u003c=n}.",
				"Generalized sequence: a(n)= Sum_{k=1..n} floor((k*t + n^2)/k) = t*n + Sum_{k=1..n} floor(n^2/k) = t*A000027(n)+ A118014(n). This sequence has t=0. [From _Ctibor O. Zizka_, Feb 14 2009]"
			],
			"formula": [
				"a(n) ~ (gamma + log(n)) * n^2, where gamma is the Euler-Mascheroni constant A001620. - _Vaclav Kotesovec_, Dec 22 2020"
			],
			"maple": [
				"Digits:=200; f:=n-\u003eadd(floor( n^2/k ),k=1..n );"
			],
			"xref": [
				"Cf. A006218, A069627."
			],
			"keyword": "nonn",
			"offset": "0,3",
			"author": "_Reinhard Zumkeller_, Apr 10 2006",
			"ext": [
				"Edited by _N. J. A. Sloane_, Oct 28 2008"
			],
			"references": 6,
			"revision": 8,
			"time": "2020-12-22T17:39:13-05:00",
			"created": "2006-02-24T03:00:00-05:00"
		}
	]
}