{
	"greeting": "Greetings from The On-Line Encyclopedia of Integer Sequences! http://oeis.org/",
	"query": "id:A118255",
	"count": 1,
	"start": 0,
	"results": [
		{
			"number": 118255,
			"data": "1,2,4,9,18,37,74,149,299,599,1198,2397,4794,9589,19179,38359,76718,153437,306874,613749,1227499,2454999,4909998,9819997,19639995,39279991,78559983,157119967,314239934,628479869,1256959738,2513919477,5027838955,10055677911",
			"name": "a(1)=1, then a(n)=2*a(n-1) if n is prime, a(n)=2*a(n-1)+1 if n not prime.",
			"comment": [
				"In base 2 a(n) is the concatenation for i=1 to n of A005171(i)."
			],
			"link": [
				"Michael S. Branicky, \u003ca href=\"/A118255/b118255.txt\"\u003eTable of n, a(n) for n = 1..3322\u003c/a\u003e (terms 1..1000 from Harvey P. Dale)"
			],
			"formula": [
				"a(n) = floor(k * 2^n) where k = 0.585317... = 1 - A051006. [_Charles R Greathouse IV_, Dec 27 2011]",
				"From _Ridouane Oudra_, Aug 26 2019: (Start)",
				"a(n) = 2^n - 1 - (1/2)*(pi(n) + Sum_{i=1..n} 2^(n-i)*pi(i)), where pi = A000720",
				"a(n) = A000225(n) - A072762(n). (End)"
			],
			"example": [
				"a(2) = 2*1 = 2 as 2 is prime;",
				"a(3) = 2*2 = 4 as 3 is prime;",
				"a(4) = 2*4+1 = 9 as 4 is composite;",
				"a(5) = 2*9 = 18 as 5 is prime."
			],
			"maple": [
				"f:=proc(n) option remember; if n=1 then RETURN(1); fi; if isprime(n) then 2*f(n-1) else 2*f(n-1)+1; fi; end; # _N. J. A. Sloane_"
			],
			"mathematica": [
				"nxt[{n_,a_}]:={n+1,If[PrimeQ[n+1],2a,2a+1]}; Transpose[NestList[nxt,{1,1},40]][[2]] (* _Harvey P. Dale_, Jan 22 2015 *)",
				"Array[FromDigits[#, 2] \u0026@ Array[Boole[! PrimeQ@ #] \u0026, #] \u0026, 34] (* _Michael De Vlieger_, Nov 01 2016 *)"
			],
			"program": [
				"(Python)",
				"from sympy import isprime, prime",
				"def a(n): return int(\"\".join(str(1-isprime(i)) for i in range(1, n+1)), 2)",
				"print([a(n) for n in range(1, 35)]) # _Michael S. Branicky_, Jan 10 2022",
				"(Python) # faster version for initial segment of sequence",
				"from sympy import isprime",
				"from itertools import count, islice",
				"def agen(): # generator of terms",
				"    an = 0",
				"    for k in count(1):",
				"        an = 2 * an + int(not isprime(k))",
				"        yield an",
				"print(list(islice(agen(), 34))) # _Michael S. Branicky_, Jan 10 2022"
			],
			"xref": [
				"Cf. A000225, A005171, A051006, A072762, A118256, A118257."
			],
			"keyword": "nonn,changed",
			"offset": "1,2",
			"author": "_Pierre CAMI_, Apr 19 2006",
			"ext": [
				"Corrected by _Omar E. Pol_, Nov 08 2007",
				"Corrections verified by _N. J. A. Sloane_, Nov 17 2007"
			],
			"references": 9,
			"revision": 47,
			"time": "2022-01-10T06:52:22-05:00",
			"created": "2006-02-24T03:00:00-05:00"
		}
	]
}