{
	"greeting": "Greetings from The On-Line Encyclopedia of Integer Sequences! http://oeis.org/",
	"query": "id:A118671",
	"count": 1,
	"start": 0,
	"results": [
		{
			"number": 118671,
			"data": "60,168,252,792,924,936,2448,2736,6624,6864,6930,9936,12528,18564,20748,23256,24570,26784,28152,31968,35424,37152,40176,40608,40950,65530,87516,91584,94392,96048,101952,102672,105408,106488,113832,115776",
			"name": "Primitive elements of A096490.",
			"comment": [
				"Members of A096490 that are not divisible by any smaller member of that sequence."
			],
			"keyword": "nonn",
			"offset": "1,1",
			"author": "_Franklin T. Adams-Watters_, May 19 2006",
			"references": 0,
			"revision": 2,
			"time": "2012-03-31T13:21:31-04:00",
			"created": "2006-05-19T03:00:00-04:00"
		}
	]
}