{
	"greeting": "Greetings from The On-Line Encyclopedia of Integer Sequences! http://oeis.org/",
	"query": "id:A119276",
	"count": 1,
	"start": 0,
	"results": [
		{
			"number": 119276,
			"data": "63693,64785,70455,90993,100107,104475,110103,110817,117957,122325,125055,134127,140343,167685,183183,228585,242235,242445,247527,252735,256095,262983,264243,281463,293685,298053,308133,310485,314475,320565",
			"name": "Values of n such that n^6 + 29450922301244534 is prime.",
			"link": [
				"Carlos Rivera, \u003ca href=\"http://www.primepuzzles.net/puzzles/puzz_275.htm\"\u003ePuzzle 275\u003c/a\u003e",
				"Eric Weisstein's World of Mathematics, \u003ca href=\"http://mathworld.wolfram.com/Prime-GeneratingPolynomial.html\"\u003ePrime-Generating Polynomial\u003c/a\u003e"
			],
			"mathematica": [
				"Select[Range[350000],PrimeQ[#^6+29450922301244534]\u0026] (* _Harvey P. Dale_, Mar 12 2016 *)"
			],
			"xref": [
				"Cf. A161998, A066386, A126893."
			],
			"keyword": "nonn",
			"offset": "1,1",
			"author": "_Eric W. Weisstein_, May 12 2006",
			"references": 3,
			"revision": 10,
			"time": "2016-03-12T10:50:23-05:00",
			"created": "2006-05-19T03:00:00-04:00"
		}
	]
}