{
	"greeting": "Greetings from The On-Line Encyclopedia of Integer Sequences! http://oeis.org/",
	"query": "id:A119789",
	"count": 1,
	"start": 0,
	"results": [
		{
			"number": 119789,
			"data": "0,0,0,0,0,0,1,1,1,2,2,2,2,3,4,3,3,3,4,5,6,4,4,4,5,6,7,8,5,5,5,6,7,8,9,10,6,6,6,7,8,9,10,11,12,7,7,7,8,9,10,11,12,13,14,8,8,8,9,10,11,12,13,14,15,16",
			"name": "Fibonacci Logarithms used to get a triangular array.",
			"comment": [
				"Sequence suggested by Fibonacci multiplication."
			],
			"formula": [
				"Definition of Fibonacci logarithm such that after Fibonacci[1],f[n]+2-\u003en: f[n_] = If[n == 0, 0, Floor[Log[Fibonacci[n]]/Log[GoldenRatio]]] a(n) = f[n]+f[m]."
			],
			"example": [
				"0",
				"0, 0",
				"0, 0, 0",
				"1, 1, 1, 2",
				"2, 2, 2, 3, 4",
				"3, 3, 3, 4, 5, 6"
			],
			"mathematica": [
				"f[n_] = If[n == 0, 0, Floor[Log[Fibonacci[n]]/Log[GoldenRatio]]] b = Table[Table[f[n] + f[m], {n, 0, m}], {m, 0, 10}] MatrixForm[b]"
			],
			"xref": [
				"Cf. A035517, A000045."
			],
			"keyword": "nonn,uned,tabl",
			"offset": "0,10",
			"author": "_Roger L. Bagula_, Jul 30 2006",
			"references": 0,
			"revision": 7,
			"time": "2017-01-20T18:51:13-05:00",
			"created": "2006-09-29T03:00:00-04:00"
		}
	]
}