{
	"greeting": "Greetings from The On-Line Encyclopedia of Integer Sequences! http://oeis.org/",
	"query": "id:A119768",
	"count": 1,
	"start": 0,
	"results": [
		{
			"number": 119768,
			"data": "3,5,17,19,71,73,107,109,881,883,1151,1153,2591,2593,3527,3529,4049,4051,15137,15139,20807,20809,34847,34849,46817,46819,69191,69193,83231,83233,103967,103969,112337,112339,139967,139969,149057,149059,176417",
			"name": "Twin prime pairs that sum to a power.",
			"comment": [
				"Since twin prime pairs greater than (3,5) occur as either (5,7) mod 12 or (11,1) mod 12, all sums of such twin primes are always divisible by 12. Thus all powers are divisible by 12. The first few terms in base 12 are: 15, 17, 5E, 61, 8E, 91, 615, 617, 7EE, 801, 15EE, 1601 and the corresponding powers are 30, 100, 160, 1030, 1400, 3000."
			],
			"link": [
				"Amiram Eldar, \u003ca href=\"/A119768/b119768.txt\"\u003eTable of n, a(n) for n = 1..10000\u003c/a\u003e"
			],
			"formula": [
				"If a(n) is the above sequence of twin primes, then a(2n-1),a(2n) is a twin prime pair and a(2n-1)+a(2n) is a power.",
				"a(2*n-1) = A270231(n), a(2*n) = A270231(n) + 2. - _Amiram Eldar_, Jan 05 2020"
			],
			"example": [
				"a(5) + a(6) = 71 + 73 = 144 = 12^2."
			],
			"maple": [
				"egcd := proc(n::nonnegint) local L; if n=0 or n=1 then n else L:=ifactors(n)[2]; L:=map(z-\u003ez[2],L); igcd(op(L)) fi end: L:=[]: for w to 1 do for x from 1 to 2*12^2 do s:=6*x; for r from 2 to 79 do t:=s^r; if egcd(s)=1 and andmap(isprime,[(t-2)/2,(t+2)/2]) then print((t-2)/2,(t+2)/2,t)); L:=[op(L),[(t-2)/2,(t+2)/2,t]]; fi; od od od; L:=sort(L,(a,b)-\u003ea[1]\u003cb[1]); map(z-\u003eop(z[1..2]),L);"
			],
			"mathematica": [
				"powQ[n_] := GCD @@ FactorInteger[n][[;; , 2]] \u003e 1; aQ[n_] := PrimeQ[n] \u0026\u0026 PrimeQ[n + 2] \u0026\u0026 powQ[2 n + 2]; s = Select[Range[10^4], aQ]; Union @ Join[s, s + 2] (* _Amiram Eldar_, Jan 05 2020 *)"
			],
			"program": [
				"(PARI) my(pp=3);forprime(p=5,180000,if(p-pp==2,if(ispower(p+pp),print1(pp,\", \",p,\", \")));pp=p) \\\\ _Hugo Pfoertner_, Jan 05 2020"
			],
			"xref": [
				"Cf. A001097, A001359, A006512, A069496, A270231, A330978, A330980."
			],
			"keyword": "easy,nonn,tabf",
			"offset": "1,1",
			"author": "_Walter Kehowski_, Jun 18 2006",
			"ext": [
				"a(1)-a(2) inserted by _Amiram Eldar_, Jan 05 2020"
			],
			"references": 4,
			"revision": 19,
			"time": "2020-01-05T14:18:01-05:00",
			"created": "2006-09-29T03:00:00-04:00"
		}
	]
}