{
	"greeting": "Greetings from The On-Line Encyclopedia of Integer Sequences! http://oeis.org/",
	"query": "id:A119981",
	"count": 1,
	"start": 0,
	"results": [
		{
			"number": 119981,
			"data": "1,1,1,1,1,1,1,0,1,1,1,1,1,1,0,1,0,1,1,0,1,1,1,0,1,1,0,1,0,0,1,1,1,1,1,1,0,0,0,0,1,1,0,1,1,0,0,1,1,0,1,0,1,1,0,1,0,1,1,0,1,1,1,1,0,0,0,1,0,0,0,0,0,1,1,0,1,0,1,0",
			"name": "a(n) = 1 iff number congruent to {2, 4} mod 6 is equal to prime minus 3, otherwise a(n)=0.",
			"comment": [
				"a(n) = 1 iff A047235(n) + 3 = A086801(n)."
			],
			"xref": [
				"Cf. A047235, A086801."
			],
			"keyword": "easy,nonn",
			"offset": "1,1",
			"author": "_Giovanni Teofilatto_, Aug 03 2006",
			"references": 1,
			"revision": 2,
			"time": "2012-03-30T18:40:03-04:00",
			"created": "2006-09-29T03:00:00-04:00"
		}
	]
}