{
	"greeting": "Greetings from The On-Line Encyclopedia of Integer Sequences! http://oeis.org/",
	"query": "id:A119779",
	"count": 1,
	"start": 0,
	"results": [
		{
			"number": 119779,
			"data": "2,311,38873,3681131,310248241,24563311309,1870358526653",
			"name": "64^n-th prime.",
			"link": [
				"UTM, \u003ca href=\"http://primes.utm.edu/nthprime/\"\u003eThe Nth Prime Page\u003c/a\u003e."
			],
			"mathematica": [
				"Prime[64^Range[0,6]] (* _Harvey P. Dale_, Jul 24 2021 *)"
			],
			"keyword": "nonn",
			"offset": "0,1",
			"author": "Jim Snow (jsnow(AT)mitre.org), Jun 22 2006",
			"references": 0,
			"revision": 3,
			"time": "2021-07-24T10:49:02-04:00",
			"created": "2006-09-29T03:00:00-04:00"
		}
	]
}