{
	"greeting": "Greetings from The On-Line Encyclopedia of Integer Sequences! http://oeis.org/",
	"query": "id:A119988",
	"count": 1,
	"start": 0,
	"results": [
		{
			"number": 119988,
			"data": "1,2,3,5,6,7,10,11,14,15,21,22,30,33,35,42,55,59,66,70,77,105,110,118,154,165,177,210,231,295,330,354,385,413,462,509,590,649,770,826,885,1018,1155,1239,1298,1527,1770,1947,2065,2310,2478,2545,3054,3245,3563",
			"name": "Divisors of 69371610.",
			"comment": [
				"69371610 = (2*3*5*7*11)*(59*509) = 11# * (13# + 1) = A002110(5)*A006862(6);",
				"a(A000005(69371610)) = a(128) = 69371610."
			],
			"link": [
				"R. Zumkeller, \u003ca href=\"/A119988/b119988.txt\"\u003eTable of n, a(n) for n = 1..128\u003c/a\u003e",
				"\u003ca href=\"/index/Di#divisors\"\u003eIndex entries for sequences related to divisors of numbers\u003c/a\u003e"
			],
			"mathematica": [
				"Divisors[69371610] (* _Wesley Ivan Hurt_, Oct 02 2021 *)"
			],
			"program": [
				"(PARI) divisors(69371610) \\\\ _Charles R Greathouse IV_, Jun 21 2017"
			],
			"keyword": "nonn,fini,easy,look",
			"offset": "1,2",
			"author": "_Reinhard Zumkeller_, Jun 18 2006",
			"references": 1,
			"revision": 15,
			"time": "2021-10-02T16:38:40-04:00",
			"created": "2006-09-29T03:00:00-04:00"
		}
	]
}