{
	"greeting": "Greetings from The On-Line Encyclopedia of Integer Sequences! http://oeis.org/",
	"query": "id:A119791",
	"count": 1,
	"start": 0,
	"results": [
		{
			"number": 119791,
			"data": "1,2,4,5,3,6,8,7,6,12,12,15,8,10,12,14,8,15,8,12,18,18,12,18,18,18,12,20,12,24,16,10,16,12,24,24,16,12,18,30,16,24,16,14,24,20,12,21,8,15,12,20,12,20,18,30,24,20,12,30,16,12,24,20,18,24,16,14,16,24,16,24,16,12",
			"name": "a(1) = 1, a(n) = number of divisors of n*a(n-1).",
			"comment": [
				"a(n)=A000005(n*a(n-1)) for n\u003e1, a(1)=1;",
				"see A119792 and A119793 for record values and where they occur: A119792(n)=a(A119793(n))."
			],
			"link": [
				"Ivan Neretin, \u003ca href=\"/A119791/b119791.txt\"\u003eTable of n, a(n) for n = 1..10000\u003c/a\u003e"
			],
			"mathematica": [
				"Fold[Append[#1, DivisorSigma[0, #1[[-1]]*#2]] \u0026, {1}, Range[2, 74]] (* _Ivan Neretin_, Sep 01 2016 *)"
			],
			"keyword": "nonn",
			"offset": "1,2",
			"author": "_Reinhard Zumkeller_, May 24 2006",
			"references": 4,
			"revision": 7,
			"time": "2016-09-01T03:52:30-04:00",
			"created": "2006-09-29T03:00:00-04:00"
		}
	]
}