{
	"greeting": "Greetings from The On-Line Encyclopedia of Integer Sequences! http://oeis.org/",
	"query": "id:A119231",
	"count": 1,
	"start": 0,
	"results": [
		{
			"number": 119231,
			"data": "3,11,12,36,116,132,1163,1332,13332,133332,1333332,3941747,11737707,13333332,133333332,1333333332,13333333332,133333333332,416381478667,1254414499811,1333333333332,4187521168132,11635005525283",
			"name": "Numbers k such that the k-th triangular number contains only digits {6,7,8}.",
			"link": [
				"G. Resta, \u003ca href=\"http://www.numbersaplenty.com/tr/tr678.html\"\u003eTridigital Triangular Numbers\u003c/a\u003e"
			],
			"xref": [
				"Cf. A000217, A119230. See A119034 for a table of cross-references."
			],
			"keyword": "nonn,base",
			"offset": "1,1",
			"author": "_Giovanni Resta_, May 10 2006",
			"references": 2,
			"revision": 7,
			"time": "2021-07-13T21:31:39-04:00",
			"created": "2006-05-19T03:00:00-04:00"
		}
	]
}