{
	"greeting": "Greetings from The On-Line Encyclopedia of Integer Sequences! http://oeis.org/",
	"query": "id:A119933",
	"count": 1,
	"start": 0,
	"results": [
		{
			"number": 119933,
			"data": "1,16,243,1792,56125,92016,5260591,28475392,290387673,445906000,59350089931,64786127616,11861260199893,4143106927792,3092227583175,22046047952896,6652851946041649,12011298089015952,4425675600220359715",
			"name": "Row sums of triangle A119932 (denominator triangle for certain rationals).",
			"formula": [
				"a(i)=sum( A119932(i,j),j=1..i),i\u003e=1."
			],
			"keyword": "nonn,easy",
			"offset": "1,2",
			"author": "_Wolfdieter Lang_, Jul 20 2006",
			"references": 2,
			"revision": 2,
			"time": "2012-03-31T13:20:12-04:00",
			"created": "2006-09-29T03:00:00-04:00"
		}
	]
}