{
	"greeting": "Greetings from The On-Line Encyclopedia of Integer Sequences! http://oeis.org/",
	"query": "id:A119979",
	"count": 1,
	"start": 0,
	"results": [
		{
			"number": 119979,
			"data": "1,1,3,1,3,3,2,5,6,5,11,9,6,9,3,9,3,9,19,9,9,7,14,17,23,21,9,9,20,17,5,1,3,9,23,33,15,13,3,9,21,9,40,13,3,9,43,33,30,25,3,9,36,29,18,9,57,3,9,33,54,17,33,1,3,9,44,17,42,65,21,9,2,5,33,13,31,51,68,17,15,51,56,5,33",
			"name": "a(n+1)=(2^a(n) mod n)+1, with a(0)=1.",
			"link": [
				"Harvey P. Dale, \u003ca href=\"/A119979/b119979.txt\"\u003eTable of n, a(n) for n = 0..1000\u003c/a\u003e"
			],
			"formula": [
				"a(n+1)=(2^a(n) mod n)+1, with a(0)=0."
			],
			"example": [
				"a(0)=1.",
				"a(1)=(2^1 mod 1)+1=(2 mod 1)+1=0+1=1.",
				"a(2)=(2^1 mod 2)+1=(2 mod 2)+1=0+1=1.",
				"a(3)=(2^1 mod 3)+1=(2 mod 3)+1=2+1=3.",
				"a(4)=(2^3 mod 4)+1=(8 mod 4)+1=0+1=1"
			],
			"maple": [
				"P:=proc(n) local i,j,k; j:=0;k:=1; for i from 1 by 1 to n do j:=(2^k mod i)+1; k:=j; print(j); od; end: P(100);"
			],
			"mathematica": [
				"nxt[{n_,a_}]:={n+1,PowerMod[2,a,n+1]+1}; NestList[nxt,{1,1},90][[All,2]] (* _Harvey P. Dale_, Dec 13 2018 *)"
			],
			"keyword": "easy,nonn",
			"offset": "0,3",
			"author": "_Paolo P. Lava_ and _Giorgio Balzarotti_, Aug 03 2006",
			"references": 1,
			"revision": 7,
			"time": "2018-12-13T19:41:32-05:00",
			"created": "2006-09-29T03:00:00-04:00"
		}
	]
}