{
	"greeting": "Greetings from The On-Line Encyclopedia of Integer Sequences! http://oeis.org/",
	"query": "id:A119694",
	"count": 1,
	"start": 0,
	"results": [
		{
			"number": 119694,
			"data": "0,1,2,10,42,210,1056,5577,30030,165308,923780,5231954,29953728,173095700,1008263880,5913855450,34898020290,207042729630,1234218400800,7388927397390,44406274641300,267807758800920,1620247684628040,9831059348368050,59810275503119232",
			"name": "a(n) = Fibonacci(n) * Catalan(n).",
			"link": [
				"Alois P. Heinz, \u003ca href=\"/A119694/b119694.txt\"\u003eTable of n, a(n) for n = 0..1000\u003c/a\u003e"
			],
			"formula": [
				"a(n) = A000045(n) * A000108(n). - _Alois P. Heinz_, Aug 12 2017"
			],
			"maple": [
				"seq(combinat[fibonacci](n)*(binomial(2*n, n)/(n+1)), n=0..27);",
				"# second Maple program:",
				"a:= proc(n) option remember; `if`(n\u003c2, n,",
				"      ((2*n-1)*(2*n*a(n-1)+(8*n-12)*a(n-2)))/(n*(n+1)))",
				"    end:",
				"seq(a(n), n=0..25);  # _Alois P. Heinz_, Aug 12 2017"
			],
			"mathematica": [
				"Table[Fibonacci[n]CatalanNumber[n],{n,0,30}] (* _Harvey P. Dale_, Aug 27 2017 *)"
			],
			"xref": [
				"Cf. A000045, A000108, A000984."
			],
			"keyword": "easy,nonn",
			"offset": "0,3",
			"author": "_Zerinvary Lajos_, Jun 09 2006",
			"ext": [
				"Name edited by _Alois P. Heinz_, Aug 12 2017"
			],
			"references": 1,
			"revision": 13,
			"time": "2017-08-27T18:27:46-04:00",
			"created": "2006-09-29T03:00:00-04:00"
		}
	]
}