{
	"greeting": "Greetings from The On-Line Encyclopedia of Integer Sequences! http://oeis.org/",
	"query": "id:A119037",
	"count": 1,
	"start": 0,
	"results": [
		{
			"number": 119037,
			"data": "1,10,10011,10440,41041,41001040,141044410,1010004040,4104044101,14041444410,114011410040100,440404440401100,1041401040044401,40114114410110140,14001400401400441011,1040410404040110411004140",
			"name": "Triangular numbers composed of digits {0,1,4}.",
			"link": [
				"G. Resta, \u003ca href=\"http://www.numbersaplenty.com/tr/tr014.html\"\u003eTridigital Triangular Numbers\u003c/a\u003e"
			],
			"mathematica": [
				"Rest[Select[FromDigits/@Tuples[{0, 1, 4}, 12], IntegerQ[(Sqrt[8 # + 1] - 1)/2] \u0026]] (* _Vincenzo Librandi_, Dec 18 2015 *)"
			],
			"program": [
				" (MAGMA) [t: n in [1..2*10^7] | Set(Intseq(t)) subset {0,1,4} where t is n*(n+1) div 2]; // _Vincenzo Librandi_, Dec 18 2015"
			],
			"xref": [
				"Cf. A000217, A058414, A119038. See A119033 for a table of cross-references."
			],
			"keyword": "nonn,base",
			"offset": "1,2",
			"author": "_Giovanni Resta_, May 10 2006",
			"references": 2,
			"revision": 7,
			"time": "2015-12-18T03:09:29-05:00",
			"created": "2006-05-19T03:00:00-04:00"
		}
	]
}