{
	"greeting": "Greetings from The On-Line Encyclopedia of Integer Sequences! http://oeis.org/",
	"query": "id:A120826",
	"count": 1,
	"start": 0,
	"results": [
		{
			"number": 120826,
			"data": "2,82,152",
			"name": "Primes with n consecutive digits ascending beginning with the digit eight.",
			"comment": [
				"Digits are in ascending order beginning with 8 and after 9 comes 0.",
				"The sequence \"Primes with n consecutive digits descending beginning with the digit eight\" has no terms."
			],
			"example": [
				"2 is a term since 89 is a prime."
			],
			"mathematica": [
				"fQ[n_] := PrimeQ@ FromDigits@ Mod[7+Range@n, 10]; lst = {}; Do[ If[fQ@n, AppendTo[lst, n]; Print@n], {n, 5000}]; lst"
			],
			"xref": [
				"Cf. A006055, A120819, A120820, A120821, A120822, A120823, A120824, A120825, A120827."
			],
			"keyword": "base,bref,hard,nonn",
			"offset": "1,1",
			"author": "_Robert G. Wilson v_, Jul 05 2006",
			"references": 8,
			"revision": 3,
			"time": "2012-03-30T17:31:20-04:00",
			"created": "2006-09-29T03:00:00-04:00"
		}
	]
}