{
	"greeting": "Greetings from The On-Line Encyclopedia of Integer Sequences! http://oeis.org/",
	"query": "id:A120226",
	"count": 1,
	"start": 0,
	"results": [
		{
			"number": 120226,
			"data": "1,3,7,9,13,15,25,27,37,39,43,49,57,67,69,79,93,97,99,105,127,135,153,163,169,175,177,189,193,207,219,235,253,265,267,273,277,279,303,307,309,343,345,363,405,417,427,435,475,483,487,499,517,553,559,567,573",
			"name": "Numbers n such that a+n and a*n+1 are prime, case a=4.",
			"comment": [
				"Prime numbers p such that 4+p and 4*p+1 are prime A106057. Case a=5 A120227.",
				"Except for 3, no terms == 3 or 5 (mod 7). - _Robert Israel_, Jul 26 2019"
			],
			"link": [
				"Robert Israel, \u003ca href=\"/A120226/b120226.txt\"\u003eTable of n, a(n) for n = 1..10000\u003c/a\u003e"
			],
			"maple": [
				"select(t -\u003e isprime(t+4) and isprime(4*t+1), [seq(i,i=1..1000,2)]); # _Robert Israel_, Jul 26 2019"
			],
			"mathematica": [
				"Reap[Do[Do[If[PrimeQ[{n+x, n*x+1}]=={True,True},Sow[x]],{x,1,1000,2}],{n,4,4}]][[2,1]]"
			],
			"xref": [
				"Cf. A092945, A106057 A085063, A120223, A120224, A120225, A120227."
			],
			"keyword": "nonn",
			"offset": "1,2",
			"author": "_Zak Seidov_, Jun 10 2006",
			"references": 4,
			"revision": 6,
			"time": "2019-07-26T16:43:53-04:00",
			"created": "2006-09-29T03:00:00-04:00"
		}
	]
}