{
	"greeting": "Greetings from The On-Line Encyclopedia of Integer Sequences! http://oeis.org/",
	"query": "id:A120701",
	"count": 1,
	"start": 0,
	"results": [
		{
			"number": 120701,
			"data": "2,6,9,12,15,18,21,25,28,31,34,37,40,43,47,50,53,56,59,62,65,69,72,75,78,81,84,87,91,94,97,100,103,106,109,113,116,119,122,125,128,131,135,138,141,144,147,150,153,157,160,163,166,169,172,175,179,182,185,188",
			"name": "Number of unit circles which fit touching a circle of radius n-1, i.e., with their centers on a circle of radius n.",
			"comment": [
				"Coincides with A022844 = floor(n*Pi) except at n=1, 25510582, ... (sequence A120702)."
			],
			"formula": [
				"a(n) = floor(Pi/arcsin(1/n))."
			],
			"mathematica": [
				"Table[Floor[Pi/ArcSin[1/n]], {n, 60}] (* _Indranil Ghosh_, Jul 21 2017 *)"
			],
			"program": [
				"(Python)",
				"from mpmath import mp, pi, asin",
				"mp.dps=100",
				"def a(n): return int(floor(pi/asin(1./n)))",
				"print([a(n) for n in range(1, 61)]) # _Indranil Ghosh_, Jul 21 2017"
			],
			"xref": [
				"Cf. A001116, A002486, A022844, A120702."
			],
			"keyword": "easy,nonn",
			"offset": "1,1",
			"author": "_Martin Fuller_, Jun 28 2006",
			"references": 1,
			"revision": 20,
			"time": "2021-04-24T09:38:19-04:00",
			"created": "2006-09-29T03:00:00-04:00"
		}
	]
}