{
	"greeting": "Greetings from The On-Line Encyclopedia of Integer Sequences! http://oeis.org/",
	"query": "id:A120089",
	"count": 1,
	"start": 0,
	"results": [
		{
			"number": 120089,
			"data": "144,900,3136,8100,17424,23716,33124,43264,54756,57600,93636,115600,139876,144400,166464,174724,207936,213444,244036,298116,304704,357604,414736,422500,476100,490000,541696,571536,640000,722500,746496,756900",
			"name": "Square perimeters of primitive Pythagorean triangles.",
			"comment": [
				"Square entries of A024364."
			],
			"link": [
				"Charlie Neder, \u003ca href=\"/A120089/b120089.txt\"\u003eTable of n, a(n) for n = 1..1000\u003c/a\u003e",
				"P. Yiu, \u003ca href=\"http://math.fau.edu/yiu/RecreationalMathematics2003.pdf\"\u003e\"Primitive Pythagorean triangles with square perimeters\" in 'Recreational Mathematics' Chap. 6.2 pp. 50/360\u003c/a\u003e"
			],
			"formula": [
				"a(n) = (2*u*v)^2, where u=sqrt(j/2) and v=sqrt(j+k) {for coprime pairs (j,k),j\u003ek with odd k such that pairs (u,v),u\u003cv are coprime with v odd}.",
				"a(n) = A024364(k) = A000290(j) for some k and j. - _R. J. Mathar_, Jun 08 2006"
			],
			"maple": [
				"isA024364 := proc(an) local r::integer,s::integer ; for r from floor((an/4)^(1/2)) to floor((an/2)^(1/2)) do for s from r-1 to 1 by -2 do if 2*r*(r+s) = an and gcd(r,s) \u003c 2 then RETURN(true) ; fi ; if 2*r*(r+s) \u003c an then break ; fi ; od ; od : RETURN(false) ; end : isA120089 := proc(an) RETURN( issqr(an) and isA024364(an)) ; end: for n from 2 to 1200 do if isA120089(n^2) then printf(\"%d,\",n^2) ; fi ; od ; # _R. J. Mathar_, Jun 08 2006"
			],
			"xref": [
				"Cf. A120090."
			],
			"keyword": "nonn",
			"offset": "1,1",
			"author": "_Lekraj Beedassy_, Jun 07 2006",
			"ext": [
				"Corrected and extended by _R. J. Mathar_, Jun 08 2006"
			],
			"references": 2,
			"revision": 12,
			"time": "2019-02-11T22:01:56-05:00",
			"created": "2006-09-29T03:00:00-04:00"
		}
	]
}