{
	"greeting": "Greetings from The On-Line Encyclopedia of Integer Sequences! http://oeis.org/",
	"query": "id:A120242",
	"count": 1,
	"start": 0,
	"results": [
		{
			"number": 120242,
			"data": "1,2,4,3,8,5,16,6,9,7,32,10,17,11,64,12,18,13,33,14,19,15,128,20,34,21,65,22,35,23,256,24,36,25,66,26,37,27,129,28,38,29,67,30,39,31,512,40,68,41,130,42,69,43,257,44,70,45,131,46,71,47,1024,48,72,49,132,50,73",
			"name": "Inverse permutation to permutation sequence A120241.",
			"comment": [
				"This sequence is a permutation of the positive integers."
			],
			"xref": [
				"Cf. A120241."
			],
			"keyword": "easy,nonn",
			"offset": "1,2",
			"author": "_Leroy Quet_, Jun 11 2006",
			"ext": [
				"Extended by _Ray Chandler_, Jun 19 2006"
			],
			"references": 1,
			"revision": 7,
			"time": "2014-04-09T10:15:02-04:00",
			"created": "2006-09-29T03:00:00-04:00"
		}
	]
}