{
	"greeting": "Greetings from The On-Line Encyclopedia of Integer Sequences! http://oeis.org/",
	"query": "id:A120421",
	"count": 1,
	"start": 0,
	"results": [
		{
			"number": 120421,
			"data": "1,2,3,6,10,20,36,72,135,272,528,1052,2080,4160,8244,16508,32896,65770,131328,262632,524744,1049600,2098176,4196200,8390620,16781312,33558291,67116944,134225920,268451240,536887296,1073774376,2147515424",
			"name": "Number of distinct ribbon Schur functions with n boxes; also the number of distinct multisets of partitions determined by all coarsenings of compositions of n.",
			"reference": [
				"Louis Billera, Hugh Thomas and Stephanie van Willigenburg \"Decomposable compositions, symmetric quasisymmetric functions and equality of ribbon Schur functions\" Adv. Math. 204: 204-240 (2006)."
			],
			"link": [
				"Louis Billera, Hugh Thomas and Stephanie van Willigenburg \u003ca href=\"http://arXiv.org/abs/math.CO/0405434\"\u003e\"Decomposable compositions, symmetric quasisymmetric functions and equality of ribbon Schur functions\"\u003c/a\u003e Adv. Math. 204: 204-240 (2006).",
				"M. Rubey, \u003ca href=\"http://arxiv.org/abs/1008.2501\"\u003eThe number of ribbon Schur functions\u003c/a\u003e [From Martin Rubey (martin.rubey(AT)math.uni-hannover.de), Aug 17 2010]"
			],
			"formula": [
				"Dirichlet G.f.: 2 C(s) S(s)/(C(s)+S(s)) where C(s)=Sum_{n\u003e0} 2^{n-1} n^{-s} and S(s)=Sum_{n\u003e0} 2^{floor(n/2)} n^{-s} [From Martin Rubey (martin.rubey(AT)math.uni-hannover.de), Aug 17 2010]"
			],
			"example": [
				"a(4)=6 as the multisets are {4}, {4,31}, {4,22}, {4,31,22,211}, {4,31,31,211} and {4,31,31,22,211,211,211,1111}"
			],
			"xref": [
				"Cf. A005418."
			],
			"keyword": "nonn",
			"offset": "1,2",
			"author": "Stephanie van Willigenburg (steph(AT)math.ubc.ca), Jul 09 2006",
			"ext": [
				"Corrected and extended by Martin Rubey (martin.rubey(AT)math.uni-hannover.de), Aug 17 2010"
			],
			"references": 0,
			"revision": 4,
			"time": "2010-08-27T03:00:00-04:00",
			"created": "2006-09-29T03:00:00-04:00"
		}
	]
}