{
	"greeting": "Greetings from The On-Line Encyclopedia of Integer Sequences! http://oeis.org/",
	"query": "id:A120448",
	"count": 1,
	"start": 0,
	"results": [
		{
			"number": 120448,
			"data": "0,3,17,14,92,60,316,175,814,495,2323,1402,6037,3113,12851,6200,24710,11851,46152,18123,72151,18007,74547,8970,40141",
			"name": "Number of isomers of polyhex hydrocarbons with C_(2v) symmetry with nineteen hexagons.",
			"comment": [
				"See Table 4 column 9 on page 615 of the paper by Caporossi and Hansen. Also the sequence starts for the hydrocarbon C_(54)H_(18)."
			],
			"reference": [
				"G. Caporossi and P. Hansen, \"Enumeration of Polyhex Hydrocarbons to h=21\", J. Chem. Inf. Comput. Sci., vol. 38 (1998) pp. 610-619."
			],
			"example": [
				"If the number of carbons is 56 then the number of isomers of polyhex hydrocarbons with C_(2v) symmetry with nineteen hexagons is 17 which is the third term in the sequence."
			],
			"xref": [
				"Cf. A018190."
			],
			"keyword": "nonn",
			"offset": "54,2",
			"author": "_Parthasarathy Nambi_, Aug 27 2006",
			"references": 0,
			"revision": 2,
			"time": "2012-03-30T17:25:49-04:00",
			"created": "2006-09-29T03:00:00-04:00"
		}
	]
}