{
	"greeting": "Greetings from The On-Line Encyclopedia of Integer Sequences! http://oeis.org/",
	"query": "id:A120477",
	"count": 1,
	"start": 0,
	"results": [
		{
			"number": 120477,
			"data": "1,6,22,63,155,343,702,1352,2480,4370,7445,12323,19894,31421,48675,74111,111099,164221,239656,345670,493243,696861,975518,1353971,1864315,2547941,3457972,4662273,6247169,8322010,11024775,14528914,19051697",
			"name": "Apply partial sum operator 5 times to partition numbers.",
			"comment": [
				"In general, if g.f. = 1/(1-x)^m * Product_{k\u003e=1} 1/(1-x^k), then a(n) ~ 2^(m/2 - 2) * 3^((m-1)/2) * n^(m/2 - 1) * exp(Pi*sqrt(2*n/3)) / Pi^m. - _Vaclav Kotesovec_, Oct 30 2015"
			],
			"link": [
				"Vaclav Kotesovec, \u003ca href=\"/A120477/b120477.txt\"\u003eTable of n, a(n) for n = 0..10000\u003c/a\u003e"
			],
			"formula": [
				"G.f.: 1/((1-x)^5*Product_{k\u003e=1} (1-x^k)). - _Emeric Deutsch_, Jul 24 2006",
				"a(n) ~ 9*sqrt(2)*n^(3/2) * exp(Pi*sqrt(2*n/3)) / Pi^5. - _Vaclav Kotesovec_, Oct 30 2015"
			],
			"maple": [
				"with(combinat): g:=1/(1-x)^5/product(1-x^k,k=1..50): gser:=series(g,x=0,40): seq(coeff(gser,x,n),n=0..37); # _Emeric Deutsch_, Jul 24 2006"
			],
			"mathematica": [
				"nmax = 50; CoefficientList[Series[1/((1-x)^5 * Product[1-x^k, {k, 1, nmax}]), {x, 0, nmax}], x] (* _Vaclav Kotesovec_, Oct 30 2015 *)"
			],
			"xref": [
				"Cf. A000041, A000070, A014153, A014160, A014161.",
				"Column k=6 of A292508."
			],
			"keyword": "nonn",
			"offset": "0,2",
			"author": "_Jonathan Vos Post_, Jul 21 2006",
			"ext": [
				"More terms from _Emeric Deutsch_, Jul 24 2006"
			],
			"references": 4,
			"revision": 14,
			"time": "2017-09-23T15:45:03-04:00",
			"created": "2006-09-29T03:00:00-04:00"
		}
	]
}