{
	"greeting": "Greetings from The On-Line Encyclopedia of Integer Sequences! http://oeis.org/",
	"query": "id:A120373",
	"count": 1,
	"start": 0,
	"results": [
		{
			"number": 120373,
			"data": "1,0,0,2982,214065,18303516,462306915,4398818490,16600354155,25759476488,16600354155,4398818490,462306915,18303516,214065,2982,0,0,1",
			"name": "Weight distribution of [72,36,16] doubly-even binary self-dual extended quadratic-residue (or QR) code.",
			"reference": [
				"F. J. MacWilliams and N. J. A. Sloane, The Theory of Error-Correcting Codes, Elsevier/North Holland, 1977, Chap. 16."
			],
			"link": [
				"C. J. Tjhai and Martin Tomlinson, \u003ca href=\"http://www.tech.plym.ac.uk/Research/fixed_and_mobile_communications/links/weightdistributions.htm\"\u003eWeight Distributions of Quadratic Residue and Quadratic Double Circulant Codes over GF(2)\u003c/a\u003e"
			],
			"example": [
				"The actual weight enumerator is x^72 + 2982*x^60*y^12 + 214065*x^56*y^16 + 18303516*x^52*y^20 + 462306915*x^48*y^24 + y^72 + 4398818490*x^44*y^28 + 16600354155*x^40*y^32 + 25759476488*x^36*y^36 + 16600354155*x^32*y^40 + 4398818490*x^28*y^44 + 462306915*x^24*y^48 + 18303516*x^20*y^52 + 214065*x^16*y^56 + 2982*x^12*y^60."
			],
			"xref": [
				"Cf. A018236."
			],
			"keyword": "nonn,fini,full",
			"offset": "0,4",
			"author": "_N. J. A. Sloane_, Mar 19 2009",
			"references": 5,
			"revision": 5,
			"time": "2012-03-30T16:50:26-04:00",
			"created": "2006-09-29T03:00:00-04:00"
		}
	]
}