{
	"greeting": "Greetings from The On-Line Encyclopedia of Integer Sequences! http://oeis.org/",
	"query": "id:A120450",
	"count": 1,
	"start": 0,
	"results": [
		{
			"number": 120450,
			"data": "0,0,1,1,1,2,2,2,2,2,2,3,3,4,3,3,3,5,4,4,4,4,4,4,6,3,5,4,4,4,6,5,5,5,5,7,5,6,6,6,6,7,5,6,7,6,7,9,8,8,6,7,7,8,7,9,6,10",
			"name": "Number of ways to express a prime p as 2*p1 + 3*p2, where p1, p2 are primes or 1.",
			"comment": [
				"It seems that every prime p \u003e 3 can be expressed as 2*p1 + 3*p2, where p1, p2 are primes or 1. I have tested it for the first 1500 primes (up to 12553) and it is true."
			],
			"example": [
				"a(11)=2 because we can write 31 (the 11th prime) as 2* 5 + 3* 7 OR 2* 11 + 3* 3",
				"a(12)=3 because we can write 37 (the 12th prime) as 2* 2 + 3* 11 OR 2* 11 + 3* 5 OR 2* 17 + 3* 1"
			],
			"keyword": "nonn",
			"offset": "1,6",
			"author": "_Vassilis Papadimitriou_, Jul 20 2006",
			"references": 1,
			"revision": 2,
			"time": "2013-10-12T15:30:55-04:00",
			"created": "2006-09-29T03:00:00-04:00"
		}
	]
}