{
	"greeting": "Greetings from The On-Line Encyclopedia of Integer Sequences! http://oeis.org/",
	"query": "id:A120740",
	"count": 1,
	"start": 0,
	"results": [
		{
			"number": 120740,
			"data": "0,4,5,9,14,18,23,27,32,36,41,45,50,54,59,63,68,72,77,81,86,90,95,99,104,108,113,117,122,126,131,135,140,144,149,153,158,162,167,171,176,180,185,189,194,198,203,207,212,216,221,225,230,234,239,243,248,252",
			"name": "Numbers n such that n = Sum_digits[k*abs(n-k)] for some k\u003e=0.",
			"comment": [
				"The first difference is eventually 2-periodic: 4, 1, 4, 5, 4, 5, 4, etc. The minimum numbers k associated to the first elements of the sequence are (n,k): (0,0), (4,2), (5,7), (9,3), (14,19), (18,33), (23,67), (27,69), etc."
			],
			"formula": [
				"a(n)=9/2*(n-1)+4*{1-[(n+2) mod (n+1)]+[n!^2 mod (n+1)]*[(n+1)!^2 mod (n+2)]}+Sum{j=0..n}{(-1)^j/2}.",
				"Conjecture: a(n) = (18*n-(-1)^n-35)/4 for n\u003e2. a(n) = a(n-1)+a(n-2)-a(n-3) for n\u003e5. G.f.: x^2*(4+x+4*x^3)/((1-x)^2*(1+x)). [Colin Barker, Apr 10 2012]"
			],
			"example": [
				"n = 36 -\u003e k = 279 -\u003e 279*abs(36-279)=279*243=67797 -\u003e 6+7+7+9+7 = 36"
			],
			"maple": [
				"P:=proc(n) local i, j, k, w; for i from 0 by 1 to n do for j from 0 by 1 to 100*n do w:=0; k:=j*abs(i-j); while k\u003e0 do w:=w+k-(trunc(k/10)*10); k:=trunc(k/10); od; if w=i then print(i); break; fi; od; od; end: P(100000);"
			],
			"xref": [
				"Cf. A130877."
			],
			"keyword": "nonn,base",
			"offset": "1,2",
			"author": "_Paolo P. Lava_ and _Giorgio Balzarotti_, Jul 26 2007",
			"references": 0,
			"revision": 7,
			"time": "2012-08-24T10:49:57-04:00",
			"created": "2006-09-29T03:00:00-04:00"
		}
	]
}