{
	"greeting": "Greetings from The On-Line Encyclopedia of Integer Sequences! http://oeis.org/",
	"query": "id:A121285",
	"count": 1,
	"start": 0,
	"results": [
		{
			"number": 121285,
			"data": "1,1,2,4,10,22,54,120,284,626,1438,3136,7044,15212,33596,71952,156856,333610,719886,1522224,3257972,6855476,14574772,30541264,64571400,134827252,283727564,590608960,1237926184,2569953496,5368225848,11118205088,23155034480,47856472218",
			"name": "a(0) = 1; for n\u003e0, a(n) = (n+3)*2^(n-2)-n*binomial(n-1, floor( (n-1)/2 ))-(n-1)*binomial(n-2,floor((n-2)/2)).",
			"link": [
				"A. Bernini, F. Disanto, R. Pinzani and S. Rinaldi, \u003ca href=\"https://cs.uwaterloo.ca/journals/JIS/VOL10/Rinaldi/rinaldi5.html\"\u003ePermutations defining convex permutominoes\u003c/a\u003e, J. Int. Seq. 10 (2007) # 07.9.7. [See S_{n+1}.]",
				"F. Disanto and S. Rinaldi, \u003ca href=\"http://puma.dimai.unifi.it/22_1/2-disanto_rinaldi.pdf\"\u003eSymmetric convex permutominoes and involutions\u003c/a\u003e, PU. M. A., Vol. 22 (2011), No. 1, pp. 39-60. - From _N. J. A. Sloane_, May 04 2012"
			],
			"formula": [
				"Conjecture: -(n-1)*(3*n^2-27*n+56)*a(n) +2*(n-5)*(3*n^2-12*n+5)*a(n-1) +4*(3*n^3-33*n^2+110*n-118)*a(n-2) -8*(n-3)*(3*n^2-21*n+32)*a(n-3)=0. - _R. J. Mathar_, Jan 04 2017"
			],
			"mathematica": [
				"Join[{1},Table[((n+3)2^(n-2))-(n Binomial[n-1,Floor[(n-1)/2]]) -((n-1)Binomial[n-2,Floor[(n-2)/2]]),{n,50}]] (* _Harvey P. Dale_, Mar 17 2011 *)"
			],
			"keyword": "nonn",
			"offset": "0,3",
			"author": "_N. J. A. Sloane_, Jul 28 2007",
			"references": 0,
			"revision": 16,
			"time": "2020-09-28T21:46:05-04:00",
			"created": "2006-09-29T03:00:00-04:00"
		}
	]
}