{
	"greeting": "Greetings from The On-Line Encyclopedia of Integer Sequences! http://oeis.org/",
	"query": "id:A121764",
	"count": 1,
	"start": 0,
	"results": [
		{
			"number": 121764,
			"data": "37,67,79,97,127,157,163,211,223,277,307,331,337,367,373,379,397,409,439,457,487,499,541,547,577,607,613,631,673,691,709,727,733,739,751,757,769,787,853,877,907,919,937,967,991,997,1009,1039,1069,1087,1117",
			"name": "Single (or isolated or non-twin) primes of form 6n + 1.",
			"comment": [
				"For the first 30000 terms a(n) \u003e A121762(n), see plot A121764(n) - A121762(n). But is it so for all n? - _Zak Seidov_, Apr 25 2015",
				"Subsequence of A002476. - _Michel Marcus_, Apr 26 2015"
			],
			"link": [
				"Zak Seidov, \u003ca href=\"/A121764/b121764.txt\"\u003eTable of n, a(n) for n = 1..10000\u003c/a\u003e",
				"Zak Seidov, \u003ca href=\"/A121764/a121764.jpg\"\u003ePlot of A121764(n) - A121762(n)\u003c/a\u003e"
			],
			"mathematica": [
				"Select[Table[6n + 1, {n, 200}], PrimeQ[#] \u0026\u0026 !PrimeQ[#-2] \u0026] (* _Ray Chandler_, Aug 22 2006 *)",
				"Select[Prime[Range[200]],Mod[#,6]==1\u0026\u0026NoneTrue[#+{2,-2},PrimeQ]\u0026] (* _Harvey P. Dale_, Jul 16 2021 *)"
			],
			"program": [
				"(PARI) {is(n)=n%6==1 \u0026\u0026 isprime(n) \u0026\u0026 !isprime(n-2)}; \\\\ _G. C. Greubel_, Feb 26 2019",
				"(MAGMA) [n: n in [1..1150] | (n mod 6 eq 1) and not IsPrime(n-2) and  IsPrime(n)]; // _G. C. Greubel_, Feb 26 2019",
				"(Sage) [n for n in (1..1150) if mod(n,6)==1 and not is_prime(n-2) and is_prime(n)] # _G. C. Greubel_, Feb 26 2019"
			],
			"xref": [
				"Cf. A007510, A121765, A002476, A121762, A038179, A007310, A038511."
			],
			"keyword": "nonn",
			"offset": "1,1",
			"author": "_Lekraj Beedassy_, Aug 20 2006",
			"ext": [
				"Extended by _Ray Chandler_, Aug 22 2006"
			],
			"references": 3,
			"revision": 47,
			"time": "2021-07-16T14:09:00-04:00",
			"created": "2006-09-29T03:00:00-04:00"
		}
	]
}