{
	"greeting": "Greetings from The On-Line Encyclopedia of Integer Sequences! http://oeis.org/",
	"query": "id:A121387",
	"count": 1,
	"start": 0,
	"results": [
		{
			"number": 121387,
			"data": "25,65,85,145,169,185,205,221,265,289,305,365,377,445,481,485,493,505,533,545,565,629,685,689,697,745,785,793,841,865,901,905,949,965,985,1037,1073,1145,1157,1165,1189,1205,1241,1261,1285,1313,1345,1369,1385,1405,1417",
			"name": "Semiprimes p*q with p and q primes of the form 4k+1 (A002144).",
			"comment": [
				"p and q can be the same. [_Harvey P. Dale_, Jan 15 2012]",
				"The terms are semiprimes of the form 4k + 1, and comprise only a portion of all such semiprimes, see A108181. - _Richard R. Forberg_, Aug 27 2013"
			],
			"link": [
				"T. D. Noe, \u003ca href=\"/A121387/b121387.txt\"\u003eTable of n, a(n) for n=1..1000\u003c/a\u003e"
			],
			"example": [
				"65 = 5 * 13. Note that 5 mod 4 = 1 and 13 mod 4 = 1, so the second term of A121387 is 65."
			],
			"mathematica": [
				"With[{prs=Select[Prime[Range[150]],Mod[#,4]==1\u0026]},Take[Union[Times @@@ Tuples[prs,2]],60]] (* _Harvey P. Dale_, Jan 15 2012 *)"
			],
			"xref": [
				"Fifth row of A121388.",
				"Cf. A107978 A080774 A108181. Union of A080109 and A131574."
			],
			"keyword": "easy,nonn",
			"offset": "1,1",
			"author": "_Alford Arnold_, Jul 26 2006, corrected Jun 24 2007",
			"ext": [
				"Better definition from T. D. Noe, Sep 25 2007"
			],
			"references": 7,
			"revision": 19,
			"time": "2013-09-17T19:59:21-04:00",
			"created": "2006-09-29T03:00:00-04:00"
		}
	]
}