{
	"greeting": "Greetings from The On-Line Encyclopedia of Integer Sequences! http://oeis.org/",
	"query": "id:A121972",
	"count": 1,
	"start": 0,
	"results": [
		{
			"number": 121972,
			"data": "1,14,216,2442,24611,223717,1894520,15169211,116213717,8588186640",
			"name": "Number of isomeric aza-benzenoids with five nitrogen atoms.",
			"reference": [
				"N. Trinajstich, Z. Jericevic, J. V. Knop, W. R. Muller and K. Szymanski, \"Computer generation of isomeric structures\", Pure and Appl. Chem., vol. 55 (1983) pp. 379-390."
			],
			"example": [
				"If n=5 then the number of isomeric aza-benzenoids with five nitrogen atoms is 24611. Here n is the number of hexagons."
			],
			"keyword": "nonn",
			"offset": "1,2",
			"author": "_Parthasarathy Nambi_, Sep 05 2006",
			"references": 0,
			"revision": 4,
			"time": "2012-03-30T17:25:49-04:00",
			"created": "2006-09-29T03:00:00-04:00"
		}
	]
}