{
	"greeting": "Greetings from The On-Line Encyclopedia of Integer Sequences! http://oeis.org/",
	"query": "id:A121345",
	"count": 1,
	"start": 0,
	"results": [
		{
			"number": 121345,
			"data": "0,1,2,9,36,170,832,4318,23164,128141,725806,4194923,24657628,147053105,888044678,5421873743,33423442196,207811667858,1301996110320,8213617403274,52138266933540,332834181990220",
			"name": "Number of osculating polygons of perimeter 2n on square lattice.",
			"link": [
				"I. Jensen, \u003ca href=\"/A121345/b121345.txt\"\u003eTable of n, a(n) for n = 1..44\u003c/a\u003e (from link below)",
				"I. Jensen, \u003ca href=\"http://www.ms.unimelb.edu.au/~iwan/polygons/series/square.perim.osculating.ser\"\u003eMore terms\u003c/a\u003e"
			],
			"keyword": "nonn",
			"offset": "1,3",
			"author": "_N. J. A. Sloane_, Aug 29 2006",
			"references": 1,
			"revision": 4,
			"time": "2012-03-30T16:50:30-04:00",
			"created": "2006-09-29T03:00:00-04:00"
		}
	]
}