{
	"greeting": "Greetings from The On-Line Encyclopedia of Integer Sequences! http://oeis.org/",
	"query": "id:A121798",
	"count": 1,
	"start": 0,
	"results": [
		{
			"number": 121798,
			"data": "0,28,408,1502,7821,31911,145162,616196,2706385,11640499,50598522,218517332,946752849,4093542243,17716803778,76627964684,331523693857,1434000301795,6203258085066,26832402306020,116067057052689",
			"name": "a(n)= 4*a(n-1) +13*a(n-2) -44*a(n-3) -57*a(n-4) +120*a(n-5) +63*a(n-6) -56*a(n-7) +6*a(n-8).",
			"link": [
				"\u003ca href=\"/index/Rec#order_08\"\u003eIndex entries for linear recurrences with constant coefficients\u003c/a\u003e, signature (4, 13, -44, -57, 120, 63, -56, 6)."
			],
			"formula": [
				"G.f.: x^2*(-28-296*x+494*x^2+2259*x^3-649*x^4-1829*x^5+281*x^6)/( (3*x-1) * (1+x) * (x^2-2*x-1) * (2*x^4-16*x^3+5*x^2+4*x-1)). [Oct 14 2009]"
			],
			"mathematica": [
				"M = {{0, 1, 1, 1, 1, 0, 0, 0, 1, 0, 0, 0}, {1, 0, 1, 1, 0, 1, 0, 0, 0, 1, 0, 0}, {1, 1, 0, 1, 0, 0, 0, 0, 0, 0, 1, 0}, {1, 1, 1, 0, 0, 0, 0, 1, 0, 0, 0, 1}, { 1, 0, 0, 0, 0, 1, 1, 1, 0, 0, 0, 0}, {0, 1, 0, 0, 1, 0, 1, 1, 0, 0, 0, 0}, {0, 0, 1, 0, 1, 1, 0, 1, 0, 0, 0, 0}, {0, 0, 0, 1, 1, 1, 1, 0, 0, 0, 0, 0}, {1, 0, 0, 0, 0, 0, 0, 0, 0, 1, 1, 01}, {0, 1, 0, 0, 0, 0, 0, 0, 1, 0, 1, 1}, {0, 0, 1, 0, 0, 0, 0, 0, 1, 1, 0, 1}, {0, 0, 0, 1, 0, 0, 0, 0, 1, 1, 1, 0}} v[1] = Table[Fibonacci[n], {n, 0, 11}] v[n_] := v[n] = M.v[n - 1] a = Table[Floor[v[n][[1]]], {n, 1, 50}] Det[M - x*IdentityMatrix[12]] Factor[%] aaa = Table[x /. NSolve[Det[M - x*IdentityMatrix[12]] == 0, x][[n]], {n, 1, 12}]",
				"LinearRecurrence[{4,13,-44,-57,120,63,-56,6},{0,28,408,1502,7821,31911,145162,616196},30] (* _Harvey P. Dale_, Feb 29 2012 *)"
			],
			"keyword": "nonn",
			"offset": "1,2",
			"author": "_Roger L. Bagula_, Aug 26 2006",
			"ext": [
				"Definition replaced by recurrence - The Assoc. Editors of the OEIS, Oct 14 2009"
			],
			"references": 0,
			"revision": 10,
			"time": "2015-07-31T20:35:16-04:00",
			"created": "2006-09-29T03:00:00-04:00"
		}
	]
}