{
	"greeting": "Greetings from The On-Line Encyclopedia of Integer Sequences! http://oeis.org/",
	"query": "id:A121096",
	"count": 1,
	"start": 0,
	"results": [
		{
			"number": 121096,
			"data": "1,1,4,11,41,138,502,1747,6165,21420",
			"name": "Isomers of polyenes attached to benzene (see Cyvin et al. for precise definition).",
			"link": [
				"B. N. Cyvin, E. Brendsdal, J. Brunvoll and S. J. Cyvin, \u003ca href=\"https://hrcak.srce.hr/176546\"\u003eIsomers of polyenes attached to benzene\u003c/a\u003e, Croatica Chemica Acta, 68 (1995), 63-73."
			],
			"keyword": "nonn",
			"offset": "0,3",
			"author": "_N. J. A. Sloane_, Aug 11 2006",
			"references": 1,
			"revision": 5,
			"time": "2019-07-25T13:23:49-04:00",
			"created": "2006-09-29T03:00:00-04:00"
		}
	]
}