{
	"greeting": "Greetings from The On-Line Encyclopedia of Integer Sequences! http://oeis.org/",
	"query": "id:A121089",
	"count": 1,
	"start": 0,
	"results": [
		{
			"number": 121089,
			"data": "9,24,169,1479,2964,3039,3299,4084,4474,5534,5574,6449,7359,7409,7529,10789,10879,10994,13819,14324,18574,19709,20329,20749,22179,24529,25089,25104,25229,25404,27714,27779,29849,30234,32369,33384,34799",
			"name": "Numbers n such that f(n), f(n+1) and f(n+2) are prime, f(m)=72*m^2+7.",
			"comment": [
				"Apparently there are no four subsequent numbers m with f(m) prime."
			],
			"link": [
				"Harvey P. Dale, \u003ca href=\"/A121089/b121089.txt\"\u003eTable of n, a(n) for n = 1..1000\u003c/a\u003e"
			],
			"mathematica": [
				"Reap[Do[If[PrimeQ[72*n^2+7]\u0026\u0026PrimeQ[72*(n+1)^2+7]\u0026\u0026PrimeQ[72*(n+2)^2+7],Sow[n]],{n,0,300000}]][[2,1]]",
				"Flatten[Position[Partition[Table[PrimeQ[72n^2+7],{n,35000}],3,1],{True,True,True}]] (* _Harvey P. Dale_, Aug 17 2014 *)"
			],
			"xref": [
				"Cf. A007522, A121068."
			],
			"keyword": "nonn",
			"offset": "1,1",
			"author": "_Zak Seidov_, Aug 11 2006",
			"references": 1,
			"revision": 4,
			"time": "2014-08-17T14:05:10-04:00",
			"created": "2006-09-29T03:00:00-04:00"
		}
	]
}