{
	"greeting": "Greetings from The On-Line Encyclopedia of Integer Sequences! http://oeis.org/",
	"query": "id:A121641",
	"count": 1,
	"start": 0,
	"results": [
		{
			"number": 121641,
			"data": "1,2,5,8,15,23,29,36,59,68,89,100,129,148,175,197,213,238,281,300,373,394,437,462,551,577,603,643,671,702,799,831,878,943,978,1081,1118,1199,1240,1341,1400,1517,1561,1611,1676,1765,1822,1915,1974,2147,2199,2275",
			"name": "a(0) = 1. a(n) = a(n-1) + (n-th integer from among those positive integers which are coprime to a(n-1)).",
			"program": [
				"(PARI) {m=51;print1(b=1,\",\");for(n=1,m,k=n;c=0;while(k\u003e0,c++;if(gcd(b,c)==1,k--));print1(a=b+c,\",\");b=a)} - (Klaus Brockhaus, Aug 14 2006)"
			],
			"xref": [
				"Cf. A121640, A121047."
			],
			"keyword": "nonn",
			"offset": "0,2",
			"author": "_Leroy Quet_, Aug 12 2006",
			"ext": [
				"More terms from _Klaus Brockhaus_, Aug 14 2006"
			],
			"references": 1,
			"revision": 7,
			"time": "2014-04-09T10:15:52-04:00",
			"created": "2006-09-29T03:00:00-04:00"
		}
	]
}