{
	"greeting": "Greetings from The On-Line Encyclopedia of Integer Sequences! http://oeis.org/",
	"query": "id:A121045",
	"count": 1,
	"start": 0,
	"results": [
		{
			"number": 121045,
			"data": "3,11,101,1013,10141,100153,1000193,10000763,100000673,1000000933,10000002713,100000005041,1000000010489,10000000003243",
			"name": "Least cluster prime greater than 10^n.",
			"comment": [
				"These numbers are useful for generating intermediate cluster primes because the best algorithm for generating cluster primes requires starting with a known cluster prime."
			],
			"xref": [
				"Cf. A038134 (cluster primes), A039506 (number of cluster primes \u003c 10^n), A121044."
			],
			"keyword": "nonn",
			"offset": "0,1",
			"author": "_T. D. Noe_, Jul 21 2006",
			"references": 2,
			"revision": 2,
			"time": "2012-03-30T17:22:43-04:00",
			"created": "2006-09-29T03:00:00-04:00"
		}
	]
}