{
	"greeting": "Greetings from The On-Line Encyclopedia of Integer Sequences! http://oeis.org/",
	"query": "id:A121456",
	"count": 1,
	"start": 0,
	"results": [
		{
			"number": 121456,
			"data": "1,-2,1,-4,6,-2,8,-8,1,-12,12,-4,14,-16,6,-16,18,-2,20,-24,8,-24,24,-8,31,-28,1,-32,30,-12,32,-32,12,-36,48,-4,38,-40,14,-48,42,-16,44,-48,6,-48,48,-16,57,-62,18,-56,54,-2,72,-64,20,-60,60,-24,62,-64,8,-64,84,-24,68,-72,24,-96,72,-8,74,-76,31,-80",
			"name": "Expansion of q*(psi(-q)psi(-q^3))^2 in powers of q where psi() is a Ramanujan theta function.",
			"comment": [
				"Ramanujan theta functions: f(q) := Prod_{k\u003e=1} (1-(-q)^k) (see A121373), phi(q) := theta_3(q) := Sum_{k=-oo..oo} q^(k^2) (A000122), psi(q) := Sum_{k=0..oo} q^(k*(k+1)/2) (A010054), chi(q) := Prod_{k\u003e=0} (1+q^(2k+1)) (A000700)."
			],
			"link": [
				"G. C. Greubel, \u003ca href=\"/A121456/b121456.txt\"\u003eTable of n, a(n) for n = 1..1000\u003c/a\u003e",
				"Michael Somos, \u003ca href=\"/A010815/a010815.txt\"\u003eIntroduction to Ramanujan theta functions\u003c/a\u003e",
				"Eric Weisstein's World of Mathematics, \u003ca href=\"http://mathworld.wolfram.com/RamanujanThetaFunctions.html\"\u003eRamanujan Theta Functions\u003c/a\u003e"
			],
			"formula": [
				"Expansion of (eta(q)eta(q^3)eta(q^4)eta(q^12))^2/(eta(q^2)eta(q^6))^2 in powers of q.",
				"Euler transform of period 12 sequence [ -2, 0, -4, -2, -2, 0, -2, -2, -4, 0, -2, -4, ...].",
				"Multiplicative with a(2^e) = -(2^e) if e\u003e0, a(3^e) = 1, a(p^e) = (p^(e+1)-1)/(p-1) if p\u003e3.",
				"a(3n)=a(n), a(4n+2)=-2a(2n+1).",
				"a(n) = (-1)^(n+1)*A111932(n)."
			],
			"mathematica": [
				"eta[q_]:= q^(1/24)*QPochhammer[q];  a[n_]:= SeriesCoefficient[(eta[q] *eta[q^3]*eta[q^4]*eta[q^12])^2/(eta[q^2]*eta[q^6])^2, {q, 0, n}]; Table[a[n], {n, 1, 50}] (* _G. C. Greubel_, Mar 07 2018 *)"
			],
			"program": [
				"(PARI) {a(n)=if(n\u003c1, 0, -(-1)^n*sumdiv(n,d,(n/d%2)*d*(d%3\u003e0)))}"
			],
			"keyword": "sign,mult",
			"offset": "1,2",
			"author": "_Michael Somos_, Jul 30 2006",
			"references": 1,
			"revision": 9,
			"time": "2021-03-12T22:24:44-05:00",
			"created": "2006-09-29T03:00:00-04:00"
		}
	]
}