{
	"greeting": "Greetings from The On-Line Encyclopedia of Integer Sequences! http://oeis.org/",
	"query": "id:A121122",
	"count": 1,
	"start": 0,
	"results": [
		{
			"number": 121122,
			"data": "0,2,14,106,801,6341,51632,431503,3678308,31873041,279902507,2485759768,22286120125,201441772806,1833727566167,16796110395426,154687931712684,1431579231342976,13306513476718812,124169476411774978,1162801650307216975,10924388061524347004",
			"name": "Related to enumeration of free catapolyoctagons (see Cyvin reference for precise definition).",
			"reference": [
				"S. J. Cyvin, B. N. Cyvin, and J. Brunvoll. Enumeration of tree-like octagonal systems: catapolyoctagons, ACH Models in Chem. 134 (1997), 55-70, Table IV ^qC_r."
			],
			"formula": [
				"a(n) = (A036758(n)-A036759(n))/2 [Cyvin eq. (48)] . - _R. J. Mathar_, Jul 31 2019"
			],
			"keyword": "nonn",
			"offset": "1,2",
			"author": "_N. J. A. Sloane_, Aug 13 2006",
			"references": 0,
			"revision": 10,
			"time": "2019-07-31T11:49:15-04:00",
			"created": "2006-09-29T03:00:00-04:00"
		}
	]
}