{
	"greeting": "Greetings from The On-Line Encyclopedia of Integer Sequences! http://oeis.org/",
	"query": "id:A121938",
	"count": 1,
	"start": 0,
	"results": [
		{
			"number": 121938,
			"data": "19,421,10039,95383574161,2384331073699,1925929944387235853055979210606894889560480247048440342330377620014353281101",
			"name": "Primes of the form (3^n + 5^n)/2^3 = A074606[n]/8.",
			"comment": [
				"Corresponding numbers n such that (3^n + 5^n)/8 is prime are listed in A122853[n] = {3,5,7,17,19,109,509,661,709,1231,...}. All these numbers are primes. - _Alexander Adamchuk_, Sep 14 2006",
				"The next term is too large to include. - _Alexander Adamchuk_, Sep 14 2006"
			],
			"formula": [
				"a(n) = (A122853(n)^3 + A122853(n)^5)/8. a(n) = A074606[A122853(n)]/8 = A081186[A122853(n)]/4. a(n) = A079773[A122853(n)]. - _Alexander Adamchuk_, Sep 14 2006"
			],
			"mathematica": [
				"Do[f=5^n+3^n;If[PrimeQ[f/2^3],Print[{n,f/2^3}]],{n,1,1231}] - _Alexander Adamchuk_, Sep 14 2006"
			],
			"xref": [
				"Cf. A074706, A122853, A081186, A079773, A121824, A121877, A005058, A005059, A121938, A109347."
			],
			"keyword": "nonn",
			"offset": "1,1",
			"author": "_Zak Seidov_, Sep 10 2006",
			"ext": [
				"More terms from _Alexander Adamchuk_, Sep 14 2006"
			],
			"references": 2,
			"revision": 4,
			"time": "2012-03-31T13:20:28-04:00",
			"created": "2006-09-29T03:00:00-04:00"
		}
	]
}