{
	"greeting": "Greetings from The On-Line Encyclopedia of Integer Sequences! http://oeis.org/",
	"query": "id:A122717",
	"count": 1,
	"start": 0,
	"results": [
		{
			"number": 122717,
			"data": "0,0,0,0,0,0,0,0,0,0,0,111696081881,1061169181691,0,118181010160181",
			"name": "Least prime P such that P is the least of bemirps of n digits and the bemirps are first of twin primes or 0 if no such primes exist.",
			"comment": [
				"Bemirps: primes that yield a different prime when turned upside down with reversals of both being two more different primes (see A048895)."
			],
			"link": [
				"Chris Caldwell, \u003ca href=\"http://primes.utm.edu/glossary/xpage/Bemirp.html\"\u003eBemirp\u003c/a\u003e [From _G. L. Honaker, Jr._, Oct 01 2009]"
			],
			"example": [
				"111696081881 and 111696081883 twin primes,",
				"111969081881 and 111969081883 twin primes,",
				"188180696111 and 188180696113 twin primes,",
				"188180969111 and 188180969113 twin primes,",
				"so the least bemirp 111696081881 = a(12)."
			],
			"xref": [
				"Cf. A048895."
			],
			"keyword": "base,nonn",
			"offset": "1,12",
			"author": "_Pierre CAMI_, Sep 23 2006, Sep 25 2006",
			"ext": [
				"Edited by _N. J. A. Sloane_, Oct 05 2009"
			],
			"references": 0,
			"revision": 9,
			"time": "2019-01-19T19:49:52-05:00",
			"created": "2006-09-29T03:00:00-04:00"
		}
	]
}