{
	"greeting": "Greetings from The On-Line Encyclopedia of Integer Sequences! http://oeis.org/",
	"query": "id:A122271",
	"count": 1,
	"start": 0,
	"results": [
		{
			"number": 122271,
			"data": "5,7,5,5,7,5,5,11,7,5,5,7,5,5,13,5,7,5,7,5,5,5,7,5,7,5,11,5,5,13,7,5,7,5,17",
			"name": "a(n) is the smallest prime whose cube divides the numerator of the Bernoulli number B(A122270(n)).",
			"link": [
				"The Bernoulli Number Page, \u003ca href=\"https://www.bernoulli.org/download/bn_factors.txt\"\u003eTable of factors of the numerators of Bernoulli numbers Bn in the range n = 2..10000\u003c/a\u003e, 2018.",
				"S. S. Wagstaff, Jr, \u003ca href=\"http://www.cerias.purdue.edu/homes/ssw/bernoulli/bnum\"\u003ePrime factors of the absolute values of Bernoulli numerators\u003c/a\u003e, 2018."
			],
			"example": [
				"a(1) = 5 because 5^3 divides numerator(B(A122270(1)) = numerator(B(250)), but 3^3 does not."
			],
			"xref": [
				"Cf. A000367, A090997, A090987, A122270, A122272, A122273."
			],
			"keyword": "nonn,more",
			"offset": "1,1",
			"author": "_Alexander Adamchuk_, Aug 28 2006",
			"ext": [
				"Various sections edited by _Petros Hadjicostas_, May 12 2020"
			],
			"references": 5,
			"revision": 24,
			"time": "2020-05-13T11:37:00-04:00",
			"created": "2006-09-29T03:00:00-04:00"
		}
	]
}