{
	"greeting": "Greetings from The On-Line Encyclopedia of Integer Sequences! http://oeis.org/",
	"query": "id:A122241",
	"count": 1,
	"start": 0,
	"results": [
		{
			"number": 122241,
			"data": "4,22,54,169,516,1841,6076,19256,66140,252691,888179,2900616",
			"name": "Iterates of A122237, starting from 4.",
			"program": [
				"(Scheme:) (define (A122241 n) (if (= 1 n) 4 (A122237 (A122241 (- n 1)))))"
			],
			"xref": [
				"A122242."
			],
			"keyword": "nonn",
			"offset": "1,1",
			"author": "_Antti Karttunen_, Sep 14 2006",
			"references": 5,
			"revision": 2,
			"time": "2012-03-31T13:21:11-04:00",
			"created": "2006-09-29T03:00:00-04:00"
		}
	]
}