{
	"greeting": "Greetings from The On-Line Encyclopedia of Integer Sequences! http://oeis.org/",
	"query": "id:A122706",
	"count": 1,
	"start": 0,
	"results": [
		{
			"number": 122706,
			"data": "23,7,11,29,79,29,509,53,467,1571,61,7,1553,31,1097,11,397,11,163,677,23,103,1723,11,1759,67,433,149,919,2879,293,9907,1103,1153,179,6199,2683,1877,4373,4679,953,2341,8069,3779,3691,28463,991,1061,2447,5471",
			"name": "Smallest prime p such that p^n is equal to the sum of 3 consecutive primes.",
			"comment": [
				"Corresponding numbers k such that a(n)^n = p(k) + p(k+1) + p(k+2) are given by A157197.",
				"It is not known if a(n) exists for all n."
			],
			"link": [
				"Robert G. Wilson v, \u003ca href=\"/A122706/b122706.txt\"\u003eTable of n, a(n) for n = 1..100\u003c/a\u003e"
			],
			"formula": [
				"For m = (p^n)/3 (not an integer), if q,r are largest primes and s,t are smallest primes such that q \u003c r \u003c m \u003c s \u003c t, then p^n must equal either q+r+s or r+s+t. - _Robert G. Wilson v_"
			],
			"example": [
				"a(1) = 23 because A070934(1) = p(3) + p(4) + p(5) = 5 + 7 + 11 = 23 is prime, but p(1) + p(2) + p(3) = 2 + 3 + 5 = 10 is composite and p(2) + p(3) + p(4) = 3 + 5 + 7 = 15 is composite.",
				"a(2) = 7 because A122654(1) = 7 is prime and p(6) + p(7) + p(8) = 13 + 17 + 19 = 49 = 7^2, but p(k) + p(k+1) + p(k+2) are not squares for 0 \u003c k \u003c 6."
			],
			"mathematica": [
				"PrevPrim[n_] := Block[{k = n - 1}, While[ !PrimeQ[k], k-- ]; k]; NextPrim[n_] := Block[{k = n + 1}, While[ !PrimeQ[k], k++ ]; k]; f[n_] := Block[{p = If[n \u003c 2, 5, 3]}, While[r = PrevPrim@ Floor[p^n/3]; q = PrevPrim@r; s = NextPrim@r; t = NextPrim@s; p^n != q + r + s \u0026\u0026 p^n != r + s + t, p = NextPrim@p]; p]; Array[f, 50] (* _Robert G. Wilson v_ *)"
			],
			"xref": [
				"Cf. A070934, A122654."
			],
			"keyword": "nonn",
			"offset": "1,1",
			"author": "_Alexander Adamchuk_, Sep 24 2006",
			"ext": [
				"a(5)-a(50) from _Robert G. Wilson v_, Sep 26 2006"
			],
			"references": 4,
			"revision": 15,
			"time": "2018-05-27T01:38:19-04:00",
			"created": "2006-09-29T03:00:00-04:00"
		}
	]
}