{
	"greeting": "Greetings from The On-Line Encyclopedia of Integer Sequences! http://oeis.org/",
	"query": "id:A122929",
	"count": 1,
	"start": 0,
	"results": [
		{
			"number": 122929,
			"data": "11,28,36,52,48,60,52,148,76,68,51,52,29,92,156,92,29,179,166,100,44,102,239,156,50,25,51,364,224,204,244,166,66,346,194,388,618,92,388,102,660,371,388,29,772,828,239,460,55,292,431,166,882,1060,532,155,68",
			"name": "Multiplicative order of 2 mod A141232(n).",
			"link": [
				"Amiram Eldar, \u003ca href=\"/A122929/b122929.txt\"\u003eTable of n, a(n) for n = 1..5197\u003c/a\u003e"
			],
			"program": [
				"(PARI) a137576(n)=my(t); sumdiv(2*n+1, d, eulerphi(d)/(t=znorder(Mod(2, d))))*t-t+1;",
				"lista(nn) = {forcomposite(n=1, nn, if ((n % 2) \u0026\u0026 (a137576((n-1)/2) == n), print1(znorder(Mod(2, n)), \", \");););} \\\\ _Michel Marcus_, Feb 09 2015"
			],
			"xref": [
				"Cf. A141232, A002326, A001262, A141216."
			],
			"keyword": "nonn",
			"offset": "1,1",
			"author": "_Vladimir Shevelev_, Jul 05 2008, Jul 12 2008, Jul 23 2008",
			"ext": [
				"More terms from _Michel Marcus_, Feb 09 2015"
			],
			"references": 4,
			"revision": 10,
			"time": "2019-06-24T17:58:42-04:00",
			"created": "2006-09-29T03:00:00-04:00"
		}
	]
}