{
	"greeting": "Greetings from The On-Line Encyclopedia of Integer Sequences! http://oeis.org/",
	"query": "id:A122081",
	"count": 1,
	"start": 0,
	"results": [
		{
			"number": 122081,
			"data": "1,1,3,14,115,2086,101791,14835870,6852422567,10338780759514,51804974736769271",
			"name": "Duplicate of A007140.",
			"keyword": "dead",
			"offset": "0,3",
			"references": 0,
			"revision": 6,
			"time": "2017-06-22T10:19:16-04:00",
			"created": "2006-12-06T03:00:00-05:00"
		}
	]
}