{
	"greeting": "Greetings from The On-Line Encyclopedia of Integer Sequences! http://oeis.org/",
	"query": "id:A122289",
	"count": 1,
	"start": 0,
	"results": [
		{
			"number": 122289,
			"data": "0,1,0,2,1,0,3,3,1,0,4,2,2,1,0,5,7,3,2,1,0,6,8,4,3,2,1,0,7,6,6,5,3,2,1,0,8,4,5,4,5,3,2,1,0,9,5,7,6,6,6,3,2,1,0,10,18,8,7,4,5,6,3,2,1,0,11,17,9,8,7,4,4,4,3,2,1,0,12,20,10,12,8,7,5,5,4,3,2,1,0,13,22,14,13,12",
			"name": "Signature permutations of FORK-transformations of Catalan automorphisms in table A122201.",
			"comment": [
				"Row n is the signature permutation of the Catalan automorphism which is obtained from the n-th automorphism in the table A122201 with the recursion scheme \"FORK\", or equivalently row n is obtained as FORK(FORK(n-th row of A089840)). See A122201 for the description of FORK. Each row occurs only once in this table. Inverses of these permutations can be found in table A122290."
			],
			"reference": [
				"A. Karttunen, paper in preparation, draft available by e-mail."
			],
			"link": [
				"\u003ca href=\"/index/Per#IntegerPermutationCatAuto\"\u003eIndex entries for signature-permutations of Catalan automorphisms\u003c/a\u003e"
			],
			"xref": [
				"The known rows of this table: row 0 (identity permutation): A001477, row 1: A122351, row 2: A122363. See also tables A089840, A122200, A122201-A122204, A122283-A122284, A122285-A122288."
			],
			"keyword": "nonn,tabl",
			"offset": "0,4",
			"author": "_Antti Karttunen_, Sep 01 2006",
			"references": 15,
			"revision": 8,
			"time": "2012-07-12T00:39:49-04:00",
			"created": "2006-09-29T03:00:00-04:00"
		}
	]
}