{
	"greeting": "Greetings from The On-Line Encyclopedia of Integer Sequences! http://oeis.org/",
	"query": "id:A122418",
	"count": 1,
	"start": 0,
	"results": [
		{
			"number": 122418,
			"data": "1,0,2,54,2534,186030,19794662,2885980734,552803552534,134687987183790,40686498089484422,14925683377452413214,6536580413039406774134,3368723388994026165415950,2018248855531992511720945382,1390953089533285777007059354494,1092714503596231472933813958469334",
			"name": "a(n) = Sum_{k=0..n} (k-1)^n*k!*Stirling2(n,k).",
			"link": [
				"G. C. Greubel, \u003ca href=\"/A122418/b122418.txt\"\u003eTable of n, a(n) for n = 0..229\u003c/a\u003e"
			],
			"formula": [
				"E.g.f.: Sum((exp((n-1)*x)-1)^n, n=0..infinity).",
				"a(n) ~ c * d^n * (n!)^2 / sqrt(n), where d = A317855 = (1+exp(1/r))*r^2 = 3.161088653865428813830172202588132491726382774188556341627278..., r = 0.8737024332396683304965683047207192982139922672025395099... is the root of the equation exp(1/r)/r + (1+exp(1/r))*LambertW(-exp(-1/r)/r) = 0, and c = 0.10430562057820038909699083625848223918044424242153125547162600916636313858475... . - _Vaclav Kotesovec_, May 07 2014"
			],
			"maple": [
				"A122418 := proc(n) sum((k-1)^n*k!*combinat[stirling2](n,k),k=0..n) ; end; for n from 0 to 16 do print(A122418(n)) ; od ; # _R. J. Mathar_, Feb 10 2007"
			],
			"mathematica": [
				"a[n_] := Sum[ (k-1)^n*k!*StirlingS2[n, k], {k, 0, n}]; Table[a[n], {n, 0, 16}] (* _Jean-François Alcover_, Mar 26 2013 *)"
			],
			"program": [
				"(PARI) for(n=0,50, print1(sum(k=0,n, (k-1)^n*k!*stirling(n,k,2)), \", \")) \\\\ _G. C. Greubel_, Nov 15 2017"
			],
			"xref": [
				"Cf. A122419, A122420, A122399."
			],
			"keyword": "easy,nonn",
			"offset": "0,3",
			"author": "_Vladeta Jovovic_, Sep 03 2006",
			"ext": [
				"More terms from _R. J. Mathar_, Feb 10 2007"
			],
			"references": 6,
			"revision": 18,
			"time": "2018-08-09T09:45:57-04:00",
			"created": "2006-09-29T03:00:00-04:00"
		}
	]
}