{
	"greeting": "Greetings from The On-Line Encyclopedia of Integer Sequences! http://oeis.org/",
	"query": "id:A122889",
	"count": 1,
	"start": 0,
	"results": [
		{
			"number": 122889,
			"data": "1,1,2,3,6,12,27,67,180,528,1676,5721,20924,81634,338322,1484209,6870492,33460830,170997842,914764494,5111445917,29773148141,180449216699,1136060712131,7418026238304,50163775035664",
			"name": "Antidiagonal sums of table A122888.",
			"comment": [
				"In table A122888, row n lists the coefficients of x^k, k=1..2^n, in the n-th self-composition of (x + x^2) for n\u003e=0."
			],
			"link": [
				"Paul D. Hanna, \u003ca href=\"/A122889/b122889.txt\"\u003eTable of n, a(n), n=0..100.\u003c/a\u003e"
			],
			"program": [
				"(PARI) {a(n)=local(F=x+x^2, G, RS); RS=0; for(k=0, n, G=x+x*O(x^n); for(i=1, n-k, G=subst(F, x, G)); RS+=polcoeff(G, k, x)); RS} \\\\ _Paul D. Hanna_, Nov 28 2009"
			],
			"xref": [
				"Cf. A122888."
			],
			"keyword": "nonn",
			"offset": "0,3",
			"author": "_Paul D. Hanna_, Sep 18 2006",
			"references": 6,
			"revision": 10,
			"time": "2018-03-03T23:50:58-05:00",
			"created": "2006-09-29T03:00:00-04:00"
		}
	]
}