{
	"greeting": "Greetings from The On-Line Encyclopedia of Integer Sequences! http://oeis.org/",
	"query": "id:A122299",
	"count": 1,
	"start": 0,
	"results": [
		{
			"number": 122299,
			"data": "0,1,1,5,12,38,107,316,915,2671,7771,22640,65922,191993,559112,1628281,4741905,13809541,40216516,117119750,341079507,993301748,2892722267,8424270271,24533405595,71446899736,208069745986,605946785585,1764655909392,5139082429553",
			"name": "Expansion of x * (1-x) / ( 1 - 2*x - 3*x^2 + x^3 ).",
			"comment": [
				"Essentially the same as A095310. - _Georg Fischer_, Oct 07 2018"
			],
			"link": [
				"Muniru A Asiru, \u003ca href=\"/A122299/b122299.txt\"\u003eTable of n, a(n) for n = 1..500\u003c/a\u003e",
				"\u003ca href=\"/index/Rec#order_03\"\u003eIndex entries for linear recurrences with constant coefficients\u003c/a\u003e, signature (2,3,-1)"
			],
			"formula": [
				"a(n)= +2*a(n-1) +3*a(n-2) -a(n-3)."
			],
			"maple": [
				"seq(coeff(series(x*(1-x)/(1-2*x-3*x^2+x^3),x,n+1), x, n), n = 0 .. 30); # _Muniru A Asiru_, Oct 07 2018"
			],
			"mathematica": [
				"CoefficientList[Series[x*(1-x)/(1-2*x-3*x^2+x^3), {x,0,30}], x] (* _G. C. Greubel_, Oct 08 2018 *)"
			],
			"program": [
				"(GAP) a:=[0,1,1];; for n in [4..30] do a[n]:=2*a[n-1]+3*a[n-2]-a[n-3]; od; a; # _Muniru A Asiru_, Oct 07 2018",
				"(MAGMA) I:=[0,1,1]; [n le 3 select I[n] else 2*Self(n-1)+3*Self(n-2)-Self(n-3): n in [1..30]]; // _Vincenzo Librandi_, Oct 08 2018",
				"(PARI) x='x+O('x^30); concat([0], Vec(x*(1-x)/(1-2*x-3*x^2+x^3))) \\\\ _G. C. Greubel_, Oct 08 2018"
			],
			"keyword": "nonn",
			"offset": "1,4",
			"author": "_Gary W. Adamson_ and _Roger L. Bagula_, Oct 19 2006",
			"references": 1,
			"revision": 25,
			"time": "2018-10-08T03:46:53-04:00",
			"created": "2006-12-06T03:00:00-05:00"
		}
	]
}