{
	"greeting": "Greetings from The On-Line Encyclopedia of Integer Sequences! http://oeis.org/",
	"query": "id:A122647",
	"count": 1,
	"start": 0,
	"results": [
		{
			"number": 122647,
			"data": "1,2,14,204,5104,195040,10570416,771171296,72871890176,8658173200896,1263326817241600,222078432102900736,46291130226003357696,11289508838355990634496,3184719803676823556888576,1028950134725811309304442880,377483869192551997938994315264,156057810922284533544621710639104",
			"name": "Number of permutations of length 2*n-1 with no local maxima or minima in even positions.",
			"link": [
				"Alois P. Heinz, \u003ca href=\"/A122647/b122647.txt\"\u003eTable of n, a(n) for n = 1..246\u003c/a\u003e",
				"Guo-Niu Han, \u003ca href=\"/A196265/a196265.pdf\"\u003eEnumeration of Standard Puzzles\u003c/a\u003e, 2011. [Cached copy]",
				"Guo-Niu Han, \u003ca href=\"https://arxiv.org/abs/2006.14070\"\u003eEnumeration of Standard Puzzles\u003c/a\u003e, arXiv:2006.14070 [math.CO], 2020.",
				"D. E. Knuth, \u003ca href=\"https://cs.stanford.edu/~knuth/papers/whirlpool.pdf\"\u003eWhirlpool Permutations\u003c/a\u003e, May 05 2020",
				"M. La Croix, \u003ca href=\"https://doi.org/10.1016/j.disc.2006.04.015\"\u003eA combinatorial proof of a result of Gessel and Greene\u003c/a\u003e, Discr. Math., 306 (2006), 2251-2256.",
				"Jiaxi Lu and Yuanzhe Ding, \u003ca href=\"https://arxiv.org/abs/2106.09471\"\u003eA skeleton model to enumerate standard puzzle sequences\u003c/a\u003e, arXiv:2106.09471 [math.CO], 2021."
			],
			"formula": [
				"a(n) = A113583(n)/2^(n-1)."
			],
			"maple": [
				"egf:= (x-\u003e1/(1-x*tanh(x))-1)(z/sqrt(2)):",
				"a:= n-\u003e (2*n)!/n*coeff(series(egf, z, 2*n+1), z, 2*n):",
				"seq(a(n), n=1..18);  # _Alois P. Heinz_, Oct 05 2021"
			],
			"xref": [
				"CF. A113583, A261683."
			],
			"keyword": "nonn",
			"offset": "1,2",
			"author": "_N. J. A. Sloane_, Sep 21 2006",
			"references": 3,
			"revision": 27,
			"time": "2021-10-05T18:34:05-04:00",
			"created": "2006-09-29T03:00:00-04:00"
		}
	]
}