{
	"greeting": "Greetings from The On-Line Encyclopedia of Integer Sequences! http://oeis.org/",
	"query": "id:A122386",
	"count": 1,
	"start": 0,
	"results": [
		{
			"number": 122386,
			"data": "1,2,2,2,2,4,4,2,2,3,3,5,8,9,2,2,11,5,4,8,3,6,16,4,4,18,3,6,9,3,22,5,5,11,5,5,11,6,22,10,6,4,14,18,6,20,36,5,5,8,12,22,41,6,8,4,33,18,26,9,18,21,3,3,22,52,27,29,26,6,16,6,58,59,4,11,39,12,19,3,3,66,15,6,69,19,71",
			"name": "A122385(A122385(n)).",
			"keyword": "nonn",
			"offset": "1,2",
			"author": "_Reinhard Zumkeller_, Sep 01 2006",
			"references": 1,
			"revision": 3,
			"time": "2012-03-30T18:50:55-04:00",
			"created": "2006-09-29T03:00:00-04:00"
		}
	]
}