{
	"greeting": "Greetings from The On-Line Encyclopedia of Integer Sequences! http://oeis.org/",
	"query": "id:A122484",
	"count": 1,
	"start": 0,
	"results": [
		{
			"number": 122484,
			"data": "1,7,19,67,124499,594959999,1349969999,57999659949,84936699999",
			"name": "Numbers n not ending in zero such that the sum of digits of n is \u003e= the sum of digits of n^4 (in base 10).",
			"comment": [
				"I've also found 498998999999, 7494994999999, 34999974999999 and some larger numbers, but not all values in between have been checked.",
				"One is likely to find an example of the form 5*10^n-m*10^floor[n/2]-1 or 7.5*10^n-m*10^floor[n/2]-1 for n\u003e12 within the first 10^(floor[n/2]-1) m's.",
				"Is this sequence finite? - _Charles R Greathouse IV_, Jan 12 2012",
				"This sequence is infinite: for N=7.5*10^n-40*10^[n/2]-1 one has A007953(N)=9n-2 and A007953(N^4) \u003c= 9n-2 for all n\u003e16, with equality for all even n\u003e16. - M. F. Hasler, Jan 14 2012"
			],
			"formula": [
				"A122484 = { n in A067251 | A007953(n) \u003e= A007953(n^4) }. - M. F. Hasler, Jan 14 2012"
			],
			"example": [
				"67 is in the list because 67 has a digital sum of 13 and 67^4 = 20151121 which also has a digital sum of 13.",
				"594959999 has a digital sum of 68 and 594959999^4 has a digital sum of 67, i.e. less than 68."
			],
			"program": [
				"(PARI) is_A122484(n)= n%10 \u0026\u0026 A007953(n) \u003e= A007953(n^4) \\\\ _M. F. Hasler_, Jan 14 2012"
			],
			"xref": [
				"Cf. A064210."
			],
			"keyword": "base,nonn",
			"offset": "1,2",
			"author": "_Martin Raab_, Sep 15 2006",
			"ext": [
				"a(8) and a(9) from _Martin Raab_, Oct 17 2008"
			],
			"references": 3,
			"revision": 12,
			"time": "2015-08-18T15:22:24-04:00",
			"created": "2006-09-29T03:00:00-04:00"
		}
	]
}