{
	"greeting": "Greetings from The On-Line Encyclopedia of Integer Sequences! http://oeis.org/",
	"query": "id:A122438",
	"count": 1,
	"start": 0,
	"results": [
		{
			"number": 122438,
			"data": "1,2,1,4,4,1,8,8,6,1,16,16,16,8,1,32,32,32,28,10,1,64,64,64,64,44,12,1,128,128,128,128,120,64,14,1,256,256,256,256,256,208,88,16,1,512,512,512,512,512,496,336,116,18,1,1024,1024,1024,1024,1024,1024,912,512,148",
			"name": "Riordan array (1/(1-2x), x(1+2x)).",
			"comment": [
				"Generalized Whitney triangle. Row sums are A045883(n+1). Diagonal sums are A122439."
			],
			"formula": [
				"Number triangle T(n,k)=sum{j=0..n-k, C(k,n-k-j)}*2^(n-k)."
			],
			"example": [
				"Number triangle begins",
				"1,",
				"2, 1,",
				"4, 4, 1,",
				"8, 8, 6, 1,",
				"16, 16, 16, 8, 1,",
				"32, 32, 32, 28, 10, 1,",
				"64, 64, 64, 64, 44, 12, 1"
			],
			"mathematica": [
				"T[n_, k_] := Sum[ Binomial[k, n - k - j]*2^(n - k), {j, 0, n - k}]; Table[ T[n, k], {n, 0, 10}, {k, 0, n}] // Flatten (* _Robert G. Wilson v_, Sep 14 2006 *)"
			],
			"xref": [
				"Cf. A004070."
			],
			"keyword": "easy,nonn,tabl",
			"offset": "0,2",
			"author": "_Paul Barry_, Sep 05 2006",
			"ext": [
				"More terms from _Robert G. Wilson v_, Sep 14 2006"
			],
			"references": 2,
			"revision": 6,
			"time": "2015-03-14T18:15:03-04:00",
			"created": "2006-09-29T03:00:00-04:00"
		}
	]
}