{
	"greeting": "Greetings from The On-Line Encyclopedia of Integer Sequences! http://oeis.org/",
	"query": "id:A122595",
	"count": 1,
	"start": 0,
	"results": [
		{
			"number": 122595,
			"data": "1,3,8,20,50,125,313,784,1964,4920,12325,30875,77344,193752,485362,1215865,3045825,7630000,19113672,47881056,119945321,300471235,752701000,1885567500,4723475586,11832629493,29641546393,74254101600",
			"name": "Expansion of x/(1 - 3*x + x^2 + x^3 - x^4).",
			"reference": [
				"Jay Kappraff, Beyond Measure, A Guided Tour Through Nature, Myth and Number, World Scientific, 2002."
			],
			"link": [
				"Vincenzo Librandi, \u003ca href=\"/A122595/b122595.txt\"\u003eTable of n, a(n) for n = 1..1000\u003c/a\u003e",
				"P. Steinbach, \u003ca href=\"http://www.jstor.org/stable/2691048\"\u003eGolden fields: a case for the heptagon\u003c/a\u003e, Math. Mag. 70 (1997), no. 1, 22-31.",
				"\u003ca href=\"/index/Rec#order_04\"\u003eIndex entries for linear recurrences with constant coefficients\u003c/a\u003e, signature (3,-1,-1,1)."
			],
			"formula": [
				"G.f.: x/(1 - 3*x + x^2 + x^3 - x^4).",
				"a(n) ~ 0.50556... * 2.505068...^n. - _Charles R Greathouse IV_, Aug 06 2012",
				"a(n) = 3*a(n-1) - a(n-2) - a(n-3) + a(n-4) for n\u003e4. - _Wesley Ivan Hurt_, Sep 18 2015"
			],
			"example": [
				"x + 3*x^2 + 8*x^3 + 20*x^4 + 50*x^5 + 125*x^6 + 313*x^7 + 784*x^8 + 1964*x^9 + ..."
			],
			"mathematica": [
				"nn = 30; CoefficientList[Series[x/(1 - 3*x + x^2 + x^3 - x^4), {x, 0, nn}], x]",
				"LinearRecurrence[{3,-1,-1,1},{1,3,8,20},40] (* _Harvey P. Dale_, Nov 09 2020 *)"
			],
			"program": [
				"(PARI) a(n)=polcoeff(x/(1-3*x+x^2+x^3-x^4)+O(x^(n+1)),n) \\\\ _Charles R Greathouse IV_, Aug 06 2012",
				"(MAGMA) I:=[1, 3, 8, 20]; [n le 4 select I[n] else 3*Self(n-1)-Self(n-2)-Self(n-3)+Self(n-4): n in [1..40]] // _Vincenzo Librandi_, Aug 07 2012"
			],
			"xref": [
				"Cf. A066170."
			],
			"keyword": "nonn,easy",
			"offset": "1,2",
			"author": "_Roger L. Bagula_ and _Gary W. Adamson_, Sep 19 2006",
			"ext": [
				"Edited by _N. J. A. Sloane_, Sep 21 2006; definition corrected Aug 06 2012"
			],
			"references": 2,
			"revision": 34,
			"time": "2020-11-09T13:48:20-05:00",
			"created": "2006-09-29T03:00:00-04:00"
		}
	]
}