{
	"greeting": "Greetings from The On-Line Encyclopedia of Integer Sequences! http://oeis.org/",
	"query": "id:A123593",
	"count": 1,
	"start": 0,
	"results": [
		{
			"number": 123593,
			"data": "1,2,2,-4,8,-16,34,-74,158,-328,668,-1344,2666,-5176,9786,-18080,33160,-62046,121924,-254864,559442,-1253358,2788712,-6050598,12678984,-25562296,49559770,-92527702,166783286,-291322324,495620212,-827188226,1368439702,-2276801082,3882595072",
			"name": "Inverse binomial transform of lucky numbers (A000959).",
			"link": [
				"N. J. A. Sloane, \u003ca href=\"/transforms.txt\"\u003eTransforms\u003c/a\u003e"
			],
			"keyword": "sign",
			"offset": "0,2",
			"author": "_N. J. A. Sloane_, Nov 27 2006",
			"references": 1,
			"revision": 4,
			"time": "2012-03-30T16:50:35-04:00",
			"created": "2006-12-06T03:00:00-05:00"
		}
	]
}