{
	"greeting": "Greetings from The On-Line Encyclopedia of Integer Sequences! http://oeis.org/",
	"query": "id:A123134",
	"count": 1,
	"start": 0,
	"results": [
		{
			"number": 123134,
			"data": "8,18,40,84,154,234,340,456,690,928,1178,1554,1804,2064,2538,3180,3658,4148,4824,5254,5840,6636,7470,8722,9894,10504,11124,11770,12426,14464,16764,18078,19180,20850,22648,23858,25748,27384,29058,31140,32578",
			"name": "a(n) = prime(n)*(prime(n+1) + 1).",
			"comment": [
				"All terms are even. - _Michel Marcus_, Apr 02 2017"
			],
			"link": [
				"G. C. Greubel, \u003ca href=\"/A123134/b123134.txt\"\u003eTable of n, a(n) for n = 1..1000\u003c/a\u003e",
				"A. Frank \u0026 P. Jacqueroux, \u003ca href=\"http://www.paulcooijmans.com/others/intcontest.pdf\"\u003eInternational Contest\u003c/a\u003e, 2001. Item 21"
			],
			"formula": [
				"a(n) = A000040(n)*A008864(n+1). - _Zak Seidov_, Apr 02 2017",
				"a(n) = A286624(n) - 1. - _Antti Karttunen_, Jul 06 2017"
			],
			"example": [
				"a(1) = 2*(3+1) = 8, a(2) = 3*(5+1) = 18, a(3) = 5*(7+1) = 40, ..."
			],
			"mathematica": [
				"a[n_]:=Prime[n](Prime[n+1]+1); Array[a, 80] (* _Giovanni Resta_, Apr 02 2017 *)",
				"#[[1]](#[[2]]+1)\u0026/@Partition[Prime[Range[50]],2,1] (* _Harvey P. Dale_, Jan 06 2019 *)"
			],
			"program": [
				"(PARI) for(n=1,100,print1(prime(n)*(prime(n+1)+1),\",\"))",
				"(Python)",
				"from sympy import prime",
				"def a(n): return prime(n) * (prime(n + 1) + 1) # _Indranil Ghosh_, Apr 02 2017",
				"(MAGMA) [NthPrime(n)*(NthPrime(n+1) +1): n in [1..40]]; // _G. C. Greubel_, Aug 04 2021"
			],
			"xref": [
				"Cf. A000040, A008864, A286624."
			],
			"keyword": "nonn",
			"offset": "1,1",
			"author": "Herman Jamke (hermanjamke(AT)fastmail.fm), Sep 30 2006",
			"references": 5,
			"revision": 28,
			"time": "2021-08-04T20:58:15-04:00",
			"created": "2006-10-09T03:00:00-04:00"
		}
	]
}