{
	"greeting": "Greetings from The On-Line Encyclopedia of Integer Sequences! http://oeis.org/",
	"query": "id:A123890",
	"count": 1,
	"start": 0,
	"results": [
		{
			"number": 123890,
			"data": "1,5,25,115,525,2385,10825,49120,222875,1011251,4588335,20818575,94459755,428590575,1944636420,8823364350,40034094615,181645987625,824179118751,3739533301365,16967318139775,76985511735170,349304997307275,1584895370489480",
			"name": "Expansion of g.f.: x/((1-x^2)^5 - 1 + x).",
			"link": [
				"G. C. Greubel, \u003ca href=\"/A123890/b123890.txt\"\u003eTable of n, a(n) for n = 0..1000\u003c/a\u003e",
				"A. Burstein and T. Mansour, \u003ca href=\"https://arxiv.org/abs/math/0112281\"\u003eWords restricted by 3-letter ...\u003c/a\u003e, arXiv:math/0112281 [math.CO], 2001.",
				"A. Burstein and T. Mansour, \u003ca href=\"https://doi.org/10.1007/s000260300000\"\u003eWords Restricted by 3-Letter Generalized Multipermutation Patterns\u003c/a\u003e, Annals. Combin., 7 (2003), 1-14.",
				"\u003ca href=\"/index/Rec#order_09\"\u003eIndex entries for linear recurrences with constant coefficients\u003c/a\u003e, signature (5,0,-10,0,10,0,-5,0,1)."
			],
			"maple": [
				"seq(coeff(series(1/(1-5*x+10*x^3-10*x^5+5*x^7-x^9), x, n+1), x, n), n = 0 .. 30); # _G. C. Greubel_, Aug 07 2019"
			],
			"mathematica": [
				"CoefficientList[Series[x/((1-x^2)^5 -1+x), {x,0,30}], x] (* _G. C. Greubel_, Aug 07 2019 *)"
			],
			"program": [
				"(PARI) my(x='x+O('x^30)); Vec(x/((1-x^2)^5 -1+x)) \\\\ _G. C. Greubel_, Aug 07 2019",
				"(MAGMA) R\u003cx\u003e:=PowerSeriesRing(Integers(), 30); Coefficients(R!( x/((1-x^2)^5 -1+x) )); // _G. C. Greubel_, Aug 07 2019",
				"(Sage)",
				"def A123890_list(prec):",
				"    P.\u003cx\u003e = PowerSeriesRing(ZZ, prec)",
				"    return P( x/((1-x^2)^5 -1+x) ).list()",
				"A123890_list(30) # _G. C. Greubel_, Aug 07 2019",
				"(GAP) a:=[1,5,25,115,525,2385,10825,49120,222875];; for n in [10..30] do a[n]:=5*a[n-1]-10*a[n-3] +10*a[n-5]-5*a[n-7]+a[n-9]; od; a; # _G. C. Greubel_, Aug 07 2019"
			],
			"keyword": "nonn,easy",
			"offset": "0,2",
			"author": "_N. J. A. Sloane_, Nov 20 2006",
			"references": 1,
			"revision": 16,
			"time": "2019-08-08T09:31:59-04:00",
			"created": "2006-12-06T03:00:00-05:00"
		}
	]
}