{
	"greeting": "Greetings from The On-Line Encyclopedia of Integer Sequences! http://oeis.org/",
	"query": "id:A123209",
	"count": 1,
	"start": 0,
	"results": [
		{
			"number": 123209,
			"data": "1,2,2,7,12,23,30,23,53,52,105,124,206,135,307,42,113",
			"name": "Number of polyhexes with 24 hexagons, D_(2h) symmetry and containing n carbon atoms.",
			"reference": [
				"G. Brinkmann, G. Caporossi and P. Hansen, \"A Survey and New Results on Computer Enumeration of Polyhex and Fusene Hydrocarbons\", J. Chem. Inf. Comput. Sci., vol. 43 (2003) 842-851. See Table 7 column 5 on page 848."
			],
			"example": [
				"If n=66 then the number of polyhexes with 24 hexagons with D_(2h) symmetry is 1.",
				"If n=68 then the number of polyhexes with 24 hexagons with D_(2h) symmetry is 2.",
				"If n=70 then the number of polyhexes with 24 hexagons with D_(2h) symmetry is 2.",
				"If n=72 then the number of polyhexes with 24 hexagons with D_(2h) symmetry is 7."
			],
			"xref": [
				"Cf. A122539, A121964, A122736, A123044, A123106, A123105, A123104, A123142."
			],
			"keyword": "nonn",
			"offset": "66,2",
			"author": "_Parthasarathy Nambi_, Oct 04 2006",
			"references": 13,
			"revision": 3,
			"time": "2012-03-30T17:25:50-04:00",
			"created": "2006-10-09T03:00:00-04:00"
		}
	]
}