{
	"greeting": "Greetings from The On-Line Encyclopedia of Integer Sequences! http://oeis.org/",
	"query": "id:A123716",
	"count": 1,
	"start": 0,
	"results": [
		{
			"number": 123716,
			"data": "0,1,2,3,4,8,6,7,5,9,22,20,21,10,14,19,16,17,18,15,11,12,13,23,64,62,63,24,54,61,57,58,59,55,25,26,27,37,60,53,56,38,42,51,44,45,46,47,48,49,50,43,52,39,28,29,40,30,31,32,41,33,34,35,36,65,196,194,195,66",
			"name": "Signature permutation of a Catalan automorphism: row 79361 of table A122204.",
			"comment": [
				"This is the signature-permutation of Catalan automorphism which is derived from nonrecursive Catalan automorphism *A123492 with the recursion schema ENIPS (defined in A122204)."
			],
			"link": [
				"\u003ca href=\"/index/Per#IntegerPermutationCatAuto\"\u003eIndex entries for signature-permutations of Catalan automorphisms\u003c/a\u003e"
			],
			"program": [
				"(Scheme function, destructive implementation of this automorphism acting on S-expressions:) (define *A123716! (!ENIPS *A123492!))"
			],
			"xref": [
				"Inverse: A123715. Row 79361 of A122204."
			],
			"keyword": "nonn",
			"offset": "0,3",
			"author": "_Antti Karttunen_, Oct 11 2006",
			"references": 6,
			"revision": 6,
			"time": "2012-03-31T13:21:12-04:00",
			"created": "2006-12-06T03:00:00-05:00"
		}
	]
}