{
	"greeting": "Greetings from The On-Line Encyclopedia of Integer Sequences! http://oeis.org/",
	"query": "id:A123737",
	"count": 1,
	"start": 0,
	"results": [
		{
			"number": 123737,
			"data": "-1,0,1,0,-1,0,-1,-2,-1,0,-1,0,1,0,-1,0,1,0,1,2,1,0,1,0,-1,0,1,0,-1,0,-1,-2,-1,0,-1,0,1,0,-1,0,-1,-2,-1,0,-1,-2,-1,-2,-3,-2,-1,-2,-1,0,-1,-2,-1,0,-1,0,1,0,-1,0,-1,-2,-1,0,-1,0,1,0,-1,0,1,0,1,2,1,0,1,0,-1,0,1,0,-1,0,-1,-2,-1,0,-1,0,1,0,-1,0,1,0",
			"name": "Partial sums of (-1)^floor(n*sqrt(2)).",
			"comment": [
				"Conjecture: A001652(n) is the index of the first occurrence of n in sequence A123737, A001108(n) is the index of the first occurrence of -n in sequence A123737. - _Vaclav Kotesovec_, Jun 02 2015"
			],
			"link": [
				"T. D. Noe, \u003ca href=\"/A123737/b123737.txt\"\u003eTable of n, a(n) for n = 1..10000\u003c/a\u003e",
				"Kevin O'Bryant, Bruce Reznick and Monika Serbinowska, \u003ca href=\"http://www.math.uiuc.edu/~reznick/ors.pdf\"\u003eAlmost alternating sums\u003c/a\u003e, Amer. Math. Monthly, Vol. 113 (October 2006), pp. 673-688."
			],
			"formula": [
				"O'Bryant, Reznick, \u0026 Serbinowska show that |a(n)| \u003c= k log n + 1, with k = 1/(2 log (1 + sqrt(2))), and further -a(n) \u003e k log n + 0.78 infinitely often. - _Charles R Greathouse IV_, Feb 07 2013"
			],
			"maple": [
				"ListTools:-PartialSums([seq((-1)^floor(n*sqrt(2)),n=1..100)]); # _Robert Israel_, Jun 02 2015"
			],
			"mathematica": [
				"Rest[FoldList[Plus,0,(-1)^Floor[Sqrt[2]*Range[120]]]]",
				"Accumulate[(-1)^Floor[Range[120]Sqrt[2]]] (* _Harvey P. Dale_, Jan 16 2012 *)",
				"(* The positions of the first occurrences of n and -n in this sequence: *) stab = Rest[FoldList[Plus,0,(-1)^Floor[Sqrt[2]*Range[1000000]]]]; Print[Table[FirstPosition[stab,n][[1]],{n,1,8}]]; Print[Table[FirstPosition[stab,-n][[1]],{n,1,8}]]; (* _Vaclav Kotesovec_, Jun 02 2015 *)"
			],
			"program": [
				"(PARI) a(n)=sum(i=1,n,(-1)^sqrtint(2*i^2)) \\\\ _Charles R Greathouse IV_, Feb 07 2013",
				"(MAGMA) [\u0026+[(-1)^Floor(j*Sqrt(2)): j in [1..n]]: n in [1..130]]; // _G. C. Greubel_, Sep 05 2019",
				"(Sage) [sum((-1)^floor(j*sqrt(2)) for j in (1..n)) for n in (1..130)] # _G. C. Greubel_, Sep 05 2019"
			],
			"xref": [
				"Cf. A123724 (sum for 2^(1/3)), A123738 (sum for Pi), A123739 (sum for e).",
				"Cf. A001652, A001951, A228639."
			],
			"keyword": "easy,sign",
			"offset": "1,8",
			"author": "_T. D. Noe_, Oct 11 2006",
			"references": 7,
			"revision": 28,
			"time": "2019-09-05T23:35:13-04:00",
			"created": "2006-12-06T03:00:00-05:00"
		}
	]
}