{
	"greeting": "Greetings from The On-Line Encyclopedia of Integer Sequences! http://oeis.org/",
	"query": "id:A123543",
	"count": 1,
	"start": 0,
	"results": [
		{
			"number": 123543,
			"data": "0,1,2,14,201,4704,160890,7538040,462869190,36055948320,3474195588360,405786523413600,56502317464777800,9248640671612865600,1758505909558569771600,384399253128691423022400",
			"name": "Number of connected labeled 2-regular pseudodigraphs (multiple arcs and loops allowed) of order n.",
			"reference": [
				"R. W. Robinson, Numerical implementation of graph counting algorithms, AGRC Grant, Math. Dept., Univ. Newcastle, Australia, 1982."
			],
			"link": [
				"R. W. Robinson, \u003ca href=\"/A123543/b123543.txt\"\u003eTable of n, a(n) for n = 0..48\u003c/a\u003e"
			],
			"formula": [
				"E.g.f.: log(1 + Sum_{k\u003e0} A000681(k)*x^k/k!). - _Andrew Howroyd_, Sep 09 2018"
			],
			"mathematica": [
				"m = 16;",
				"a681[n_] := n!*HypergeometricPFQ[{1/2, -n}, {}, -2]/2^n;",
				"egf = Log[1 + Sum[a681[k] x^k/k!, {k, 1, m}]];",
				"CoefficientList[egf + O[x]^m, x] Range[0, m-1]! (* _Jean-François Alcover_, Aug 26 2019 *)"
			],
			"program": [
				"(PARI) seq(n)={Vec(serlaplace(log(serlaplace(exp(x/2 + O(x*x^n))/sqrt(1-x + O(x*x^n))))), -(n+1))}; \\\\ _Andrew Howroyd_, Sep 09 2018"
			],
			"xref": [
				"Connected version of A000681.",
				"First column of A307804.",
				"Cf. A123544."
			],
			"keyword": "nonn",
			"offset": "0,3",
			"author": "_N. J. A. Sloane_, Nov 13 2006",
			"references": 4,
			"revision": 14,
			"time": "2019-08-26T08:37:01-04:00",
			"created": "2006-12-06T03:00:00-05:00"
		}
	]
}