{
	"greeting": "Greetings from The On-Line Encyclopedia of Integer Sequences! http://oeis.org/",
	"query": "id:A123674",
	"count": 1,
	"start": 0,
	"results": [
		{
			"number": 123674,
			"data": "0,1,2,2,4,2,3,2,4,2,2,2,3,3,1,2,4,0,3,4,4,3,3,3,0,1,1,0,2,1,1,1,3,2,3,2,2,0,1,2,2,3,0,0,4,4,3,2,5,4,4,0,0,0,1,1,4,5,2,4,3,3,0,1,1,2,5,0,1,1,4,3,1,0,1,1,3,2,3,0,2,4,2,1,2,2,3,0,7,2,4,4,2,2,2,3,5,0,3,1,1,1,3,3,2",
			"name": "a(n) = number of primes of the form 2^n - 3^k.",
			"comment": [
				"a(1) = 0 because there are no prime numbers of the form 2^1 - 3^k. a(2) = 1 because the only prime of the form 2^2 - 3^k is 2^2 - 3^0 = 3. a(3) = because there are two primes of the form 2^3 - 3^k: 2^3 - 3^0 = 7 and 2^3 - 3^1 = 5."
			],
			"link": [
				"G. C. Greubel, \u003ca href=\"/A123674/b123674.txt\"\u003eTable of n, a(n) for n = 1..1000\u003c/a\u003e"
			],
			"mathematica": [
				"Table[Length[Select[Range[0,Floor[Log[3,2^n]]],PrimeQ[2^n-3^# ]\u0026]],{n,1,200}]"
			],
			"keyword": "nonn",
			"offset": "1,3",
			"author": "_Alexander Adamchuk_, Nov 17 2006",
			"references": 1,
			"revision": 5,
			"time": "2017-10-18T14:19:51-04:00",
			"created": "2006-12-06T03:00:00-05:00"
		}
	]
}