{
	"greeting": "Greetings from The On-Line Encyclopedia of Integer Sequences! http://oeis.org/",
	"query": "id:A123042",
	"count": 1,
	"start": 0,
	"results": [
		{
			"number": 123042,
			"data": "1,3,2,6,4,3,9,2,8,6,7,4,5,12,3,4,10,9,7,2,8,1,6,14",
			"name": "Sequence gives k numbers from A123041.",
			"keyword": "nonn",
			"offset": "1,2",
			"author": "_Yasutoshi Kohmoto_, Sep 24 2006",
			"references": 1,
			"revision": 3,
			"time": "2016-04-19T01:16:09-04:00",
			"created": "2006-09-29T03:00:00-04:00"
		}
	]
}