{
	"greeting": "Greetings from The On-Line Encyclopedia of Integer Sequences! http://oeis.org/",
	"query": "id:A123148",
	"count": 1,
	"start": 0,
	"results": [
		{
			"number": 123148,
			"data": "-1,-2,1,-2,2,-1,-4,4,-2,1,-4,8,-6,2,-1,-8,12,-12,8,-2,1,-8,24,-24,16,-10,2,-1,-16,32,-48,40,-20,12,-2,1,-16,64,-80,80,-60,24,-14,2,-1,-32,80,-160,160,-120,84,-28,16,-2,1,-32,160,-240,320,-280,168,-112,32,-18,2,-1",
			"name": "Triangle read by rows: T(n,k) is the coefficient of x^k in the polynomial p[n,x] defined by p[0,x]=-1, p[1,x]=x-2, p[n,x]=-xp[n-1,x]+2p[n-2,x] for n\u003e=3 (0\u003c=k\u003c=n).",
			"comment": [
				"Row sums yield -1,-1,-1,... . Alternating row sums yield the Jacobsthal sequence (A001045) with changed signs."
			],
			"example": [
				"-1",
				"-2+x",
				"-2+2*x-x^2",
				"-4+4*x-2*x^2+x^3",
				"-4+8*x-6*x^2+2*x^3-x^4"
			],
			"maple": [
				"p[0]:=-1: p[1]:=x-2: for n from 2 to 10 do p[n]:=sort(expand(-x*p[n-1]+2*p[n-2])) od: for n from 0 to 10 do seq(coeff(p[n],x,k),k=0..n) od; # yields sequence in triangular form"
			],
			"mathematica": [
				"a = -1; b = 2; p[0, x] = -1; p[1, x] = x - 2; p[k_, x_] := p[k, x] = a*x*p[k - 1, x] + b*p[k - 2, x] w = Table[CoefficientList[p[n, x], x], {n, 0, 10}]; Flatten[w]"
			],
			"keyword": "sign,tabl",
			"offset": "0,2",
			"author": "_Roger L. Bagula_, Oct 01 2006",
			"ext": [
				"Edited by _N. J. A. Sloane_, Oct 29 2006"
			],
			"references": 0,
			"revision": 7,
			"time": "2014-03-12T16:37:00-04:00",
			"created": "2006-10-09T03:00:00-04:00"
		}
	]
}