{
	"greeting": "Greetings from The On-Line Encyclopedia of Integer Sequences! http://oeis.org/",
	"query": "id:A123253",
	"count": 1,
	"start": 0,
	"results": [
		{
			"number": 123253,
			"data": "0,1,128,2187,16384,78125,279936,823543,2097152,4782969,1,2,129,2188,16385,78126,279937,823544,2097153,4782970,128,129,256,2315,16512,78253,280064,823671,2097280,4783097,2187,2188,2315,4374,18571,80312,282123",
			"name": "Sum of 7th powers of digits of n.",
			"comment": [
				"Fixed points are listed in A124068 = row n=7 of A252648. - _M. F. Hasler_, Apr 12 2015"
			],
			"link": [
				"G. C. Greubel, \u003ca href=\"/A123253/b123253.txt\"\u003eTable of n, a(n) for n = 0..5000\u003c/a\u003e"
			],
			"maple": [
				"A123253 := proc(n)",
				"        add(d^7,d=convert(n,base,10)) ;",
				"end proc: # _R. J. Mathar_, Jan 16 2013"
			],
			"mathematica": [
				"Table[Sum[DigitCount[n][[i]] i^7, {i, 9}], {n, 0, 40}] (* _Bruno Berselli_, Feb 01 2013 *)"
			],
			"program": [
				"(MAGMA) [0] cat [\u0026+[d^7: d in Intseq(n)]: n in [1..40]]; // _Bruno Berselli_, Feb 01 2013",
				"(PARI) A123253(n)=sum(i=1,#n=digits(n),n[i]^7) \\\\ _M. F. Hasler_, Apr 12 2015"
			],
			"xref": [
				"Cf. A003132, A055012, A055013, A055014, A055015, A210840."
			],
			"keyword": "easy,nonn,base",
			"offset": "0,3",
			"author": "_Zerinvary Lajos_, Nov 06 2006",
			"references": 2,
			"revision": 15,
			"time": "2018-10-13T07:21:35-04:00",
			"created": "2006-12-06T03:00:00-05:00"
		}
	]
}