{
	"greeting": "Greetings from The On-Line Encyclopedia of Integer Sequences! http://oeis.org/",
	"query": "id:A123820",
	"count": 1,
	"start": 0,
	"results": [
		{
			"number": 123820,
			"data": "1,1,1,1,3,4,5,10,26,38,51,121,324,488,673,1808",
			"name": "Number of ways, counted up to symmetry, to build a contiguous building with n LEGO blocks of size 2 X 2 which is symmetric after a rotation by 90 degrees.",
			"xref": [
				"Cf. A112389, A123762 - A123827, A123829 - A123849."
			],
			"keyword": "nonn",
			"offset": "1,5",
			"author": "_Søren Eilers_, Oct 29 2006",
			"references": 0,
			"revision": 6,
			"time": "2013-10-09T14:20:53-04:00",
			"created": "2006-12-06T03:00:00-05:00"
		}
	]
}