{
	"greeting": "Greetings from The On-Line Encyclopedia of Integer Sequences! http://oeis.org/",
	"query": "id:A123157",
	"count": 1,
	"start": 0,
	"results": [
		{
			"number": 123157,
			"data": "4,9,7,13,4,16,19,10,16,13,16,19,16,22,13,19,16,13,25,10,19,13,31,19,22,4,16,19,19,25,19,16,31,16,7,13,25,28,34,31,10,19,22,25,28,19,16,31,22,16,28,16,22,10,25,31,19,19,31,31,25,34,28,25,40,22,22,25,16,13,22,28",
			"name": "Sum of digits of the squares of prime numbers.",
			"link": [
				"Albert Frank, \u003ca href=\"http://www.paulcooijmans.com/oth/intcont2003.html\"\u003eInternational Contest Of Logical Sequences\u003c/a\u003e, 2002 - 2003. Item 11",
				"Albert Frank, \u003ca href=\"http://www.paulcooijmans.com/oth/intcont2003ans.html\"\u003eSolutions of International Contest Of Logical Sequences\u003c/a\u003e, 2002 - 2003."
			],
			"maple": [
				"read(\"transforms\"):",
				"A123157 := proc(n)",
				"    digsum(ithprime(n)^2) ;",
				"end proc: # _R. J. Mathar_, Jul 05 2013"
			],
			"mathematica": [
				"Total[IntegerDigits[#]]\u0026/@(Prime[Range[80]]^2) (* _Harvey P. Dale_, Nov 04 2012 *)"
			],
			"program": [
				"(PARI) for(n=1,100,dp2=eval(Vec(Str(prime(n)^2)));print1(sum(i=1,length(dp2),dp2[i]),\",\"))"
			],
			"keyword": "nonn,base",
			"offset": "1,1",
			"author": "Herman Jamke (hermanjamke(AT)fastmail.fm), Oct 01 2006",
			"references": 12,
			"revision": 7,
			"time": "2013-07-05T04:40:55-04:00",
			"created": "2006-10-09T03:00:00-04:00"
		}
	]
}