{
	"greeting": "Greetings from The On-Line Encyclopedia of Integer Sequences! http://oeis.org/",
	"query": "id:A123408",
	"count": 1,
	"start": 0,
	"results": [
		{
			"number": 123408,
			"data": "1,2,3,7,13,35,88,303,1119,5479",
			"name": "Duplicate of A033995.",
			"keyword": "dead",
			"offset": "1,2",
			"references": 0,
			"revision": 13,
			"time": "2015-12-01T15:04:24-05:00",
			"created": "2006-12-06T03:00:00-05:00"
		}
	]
}