{
	"greeting": "Greetings from The On-Line Encyclopedia of Integer Sequences! http://oeis.org/",
	"query": "id:A123665",
	"count": 1,
	"start": 0,
	"results": [
		{
			"number": 123665,
			"data": "22,471260364628084305,6457022669043550542502557676,105149403852520725445003265581519105,41911381174488637014293971538580334000626",
			"name": "a(n) = Sum_{k=1..21} n^A001358(k).",
			"link": [
				"G. C. Greubel, \u003ca href=\"/A123665/b123665.txt\"\u003eTable of n, a(n) for n = 1..1000\u003c/a\u003e"
			],
			"formula": [
				"a(n) = 1 +n^4 +n^6 +n^9 +n^10 +n^14 +n^15 +n^21 +n^22 +n^25 +n^26 + n^33 +n^34 +n^35 +n^38 +n^39 +n^46 +n^49 +n^51 +n^55 +n^57 +n^58."
			],
			"mathematica": [
				"Table[1 + n^4 + n^6 + n^9 + n^10 + n^14 + n^15 + n^21 + n^22 + n^25 +",
				"  n^26 + n^33 + n^34 + n^35 + n^38 + n^39 + n^46 + n^49 + n^51 +",
				"  n^55 + n^57 + n^58, {n, 1, 50}] (* _G. C. Greubel_, Oct 26 2017 *)"
			],
			"program": [
				"(PARI) for(n=1,50, print1(1 + n^4 + n^6 + n^9 + n^10 + n^14 + n^15 + n^21 + n^22 + n^25 + n^26 + n^33 + n^34 + n^35 + n^38 + n^39 + n^46 + n^49 + n^51 + n^55 + n^57 + n^58, \", \")) \\\\ _G. C. Greubel_, Oct 26 2017",
				"(MAGMA) [1 + n^4 + n^6 + n^9 + n^10 + n^14 + n^15 + n^21 + n^22 + n^25 +",
				"n^26 + n^33 + n^34 + n^35 + n^38 + n^39 + n^46 + n^49 + n^51 + n^55 + n^57 + n^58: n in [1..50]]; // _G. C. Greubel_, Oct 26 2017"
			],
			"xref": [
				"Cf. A001358, A002523, A091940, A123177, A123656-A123665."
			],
			"keyword": "easy,nonn,less",
			"offset": "1,1",
			"author": "_Jonathan Vos Post_, Oct 04 2006",
			"ext": [
				"Better name from _Joerg Arndt_, May 23 2021"
			],
			"references": 2,
			"revision": 15,
			"time": "2021-05-23T03:15:00-04:00",
			"created": "2006-10-09T03:00:00-04:00"
		}
	]
}