{
	"greeting": "Greetings from The On-Line Encyclopedia of Integer Sequences! http://oeis.org/",
	"query": "id:A123024",
	"count": 1,
	"start": 0,
	"results": [
		{
			"number": 123024,
			"data": "1,1,2,2,4,8,12,28,60,112,284,652,1404,3776,9228,22028,62092,160448,414540,1216012,3302604,9092272,27622844,78446956,227652828,713772368,2110379772,6405093068,20668461340,63385346912,200011067244",
			"name": "a(n) = n!*b(n) where b(n) = (b(n-2) + b(n-3))/(n*(n-1)), b(0) = b(1) = b(2) = 1.",
			"reference": [
				"Richard Bronson, Schaum's Outline of Modern Introductory Differential Equations, MacGraw-Hill, New York,1973, page 107, solved problem 19.15."
			],
			"link": [
				"G. C. Greubel, \u003ca href=\"/A123024/b123024.txt\"\u003eTable of n, a(n) for n = 0..1000\u003c/a\u003e"
			],
			"formula": [
				"a(n) = n!*b(n) where b(n) = (b(n-2) + b(n-3))/(n*(n-1)), b(0) = b(1) = b(2) = 1.",
				"From _G. C. Greubel_, Jul 10 2021: (Start)",
				"D-finite with recurrence a(n) = a(n-1) + (n-2)*a(n-3), with a(0) = a(1) = 1, and a(2) = 2.",
				"E.g.f.: ( (AiryBi(1) - AiryBi'(1))*AiryAi(x+1) - (AiryAi(1) - AiryAi'(1))*AiryBi(x +1) )/( AiryAi'(1)*AiryBi(1) - AiryAi(1)*AiryBi'(1) ) which satisfies the differential equation y''(x) - (1+x)*y(x) = 0 with y(0) = y'(0) = 1. (End)"
			],
			"mathematica": [
				"b[n_]:= b[n]= If[n\u003c3, 1, (b[n-2] +b[n-3])/(n*(n-1))]; a[n_]:= n!*b[n];",
				"Table[a[n], {n, 0, 30}]"
			],
			"program": [
				"(MAGMA) I:=[1,1,2]; [n le 3 select I[n] else Self(n-2) + (n-3)*Self(n-3): n in [1..31]]; // _G. C. Greubel_, Jul 10 2021",
				"(Sage)",
				"def b(n): return 1 if (n\u003c3) else (b(n-2) + b(n-3))/(n*(n-1))",
				"[factorial(n)*b(n) for n in (0..30)] # _G. C. Greubel_, Jul 10 2021"
			],
			"keyword": "nonn",
			"offset": "0,3",
			"author": "_Roger L. Bagula_, Sep 24 2006",
			"ext": [
				"Edited by _G. C. Greubel_, Jul 10 2021"
			],
			"references": 1,
			"revision": 13,
			"time": "2021-08-05T07:54:56-04:00",
			"created": "2006-09-29T03:00:00-04:00"
		}
	]
}