{
	"greeting": "Greetings from The On-Line Encyclopedia of Integer Sequences! http://oeis.org/",
	"query": "id:A123572",
	"count": 1,
	"start": 0,
	"results": [
		{
			"number": 123572,
			"data": "0,3,5,6,6,8,9,9,10,10,10,12,13,13,14,14,14,15,15,15,15,17,18,18,19,19,19,20,20,20,20,21,21,21,21,21,23,24,24,25,25,25,26,26,26,26,27,27,27,27,27,28,28,28,28,28,28,30,31,31,32,32,32,33,33,33,33,34,34,34,34,34",
			"name": "The Kruskal-Macaulay function K_3(n).",
			"comment": [
				"Write n (uniquely) as n = C(n_t,t) + C(n_{t-1},t-1) + ... + C(n_v,v) where n_t \u003e n_{t-1} \u003e ... \u003e n_v \u003e= v \u003e= 1. Then K_t(n) = C(n_t,t-1) + C(n_{t-1},t-2) + ... + C(n_v,v-1)."
			],
			"reference": [
				"D. E. Knuth, The Art of Computer Programming, Vol. 4, Fascicle 3, Section 7.2.1.3, Table 3."
			],
			"maple": [
				"lowpol := proc(n,t) local x::integer ; x := floor( (n*factorial(t))^(1/t)) ; while binomial(x,t) \u003c= n do x := x+1 ; od ; RETURN(x-1) ; end: C := proc(n,t) local nresid,tresid,m,a ; nresid := n ; tresid := t ; a := [] ; while nresid \u003e 0 do m := lowpol(nresid,tresid) ; a := [op(a),m] ; nresid := nresid - binomial(m,tresid) ; tresid := tresid-1 ; od ; RETURN(a) ; end: K := proc(n,t) local a ; a := C(n,t) ; add( binomial(op(i,a),t-i),i=1..nops(a)) ; end: A123572 := proc(n) K(n,3) ; end: for n from 0 to 80 do printf(\"%d, \",A123572(n)) ; od ; # _R. J. Mathar_, May 18 2007"
			],
			"xref": [
				"For K_i(n), i=1, 2, 3, 4, 5 see A000012, A003057, A123572, A123573, A123574."
			],
			"keyword": "nonn,easy",
			"offset": "0,2",
			"author": "_N. J. A. Sloane_, Nov 12 2006",
			"ext": [
				"More terms from _R. J. Mathar_, May 18 2007"
			],
			"references": 3,
			"revision": 9,
			"time": "2015-08-12T02:08:45-04:00",
			"created": "2006-12-06T03:00:00-05:00"
		}
	]
}