{
	"greeting": "Greetings from The On-Line Encyclopedia of Integer Sequences! http://oeis.org/",
	"query": "id:A124759",
	"count": 1,
	"start": 0,
	"results": [
		{
			"number": 124759,
			"data": "0,0,0,1,0,2,2,2,0,3,4,3,3,4,3,3,0,4,6,4,6,6,4,4,4,6,6,5,4,5,4,4,0,5,8,5,9,8,5,5,8,9,8,7,5,6,5,5,5,8,9,7,8,8,6,6,5,7,7,6,5,6,5,5,0,6,10,6,12,10,6,6,12,12,10,9,6,7,6,6,10,12,12,10,10,10,8,8,6,8,8,7,6,7,6,6,6,10",
			"name": "Sum of products of consecutive terms for compositions in standard order.",
			"comment": [
				"The standard order of compositions is given by A066099."
			],
			"link": [
				"Alois P. Heinz, \u003ca href=\"/A124759/b124759.txt\"\u003eRows n = 0..14, flattened\u003c/a\u003e"
			],
			"formula": [
				"For a composition b(1),...,b(k), a(n) = Sum_{i=1}^{k-1} b(i) b(i+1)."
			],
			"example": [
				"Composition number 11 is 2,1,1; 2*1+1*1 = 3, so a(11) = 3.",
				"The table starts:",
				"0",
				"0",
				"0 1",
				"0 2 2 2"
			],
			"xref": [
				"Cf. A066099, A070939, A011782 (row lengths), A045618 (row sums)."
			],
			"keyword": "easy,nonn,tabf",
			"offset": "0,6",
			"author": "_Franklin T. Adams-Watters_, Nov 06 2006",
			"references": 1,
			"revision": 5,
			"time": "2013-07-24T18:56:28-04:00",
			"created": "2006-12-06T03:00:00-05:00"
		}
	]
}