{
	"greeting": "Greetings from The On-Line Encyclopedia of Integer Sequences! http://oeis.org/",
	"query": "id:A124564",
	"count": 1,
	"start": 0,
	"results": [
		{
			"number": 124564,
			"data": "1,1,5,35,317,3634,52199,928608,20282765,543008771,17866390922,725141498506,36439677332431,2274854774699772,176901777097180896,17172973623970540220,2084722855480792814909,316912193519759976734613",
			"name": "Row 4 of table A124560; also, the self-convolution 4th power equals A124554, which is row 4 of table A124550.",
			"comment": [
				"In table A124560, the g.f. of row n, R_n(y), simultaneously satisfies: R_n(y) = Sum_{k\u003e=0} y^k * [R_{n*k}(y)]^(n*k) for n\u003e=0."
			],
			"formula": [
				"G.f.: A(x) = Sum_{k\u003e=0} y^k * [R_{4k}(y)]^(4k), where R_n(x) is the g.f. of row n in table A124560."
			],
			"xref": [
				"Cf. A124560 (table); other rows: A124551, A124562, A124563, A124565, A124566."
			],
			"keyword": "nonn",
			"offset": "0,3",
			"author": "_Paul D. Hanna_, Nov 07 2006",
			"references": 6,
			"revision": 5,
			"time": "2015-03-14T11:57:22-04:00",
			"created": "2006-12-06T03:00:00-05:00"
		}
	]
}