{
	"greeting": "Greetings from The On-Line Encyclopedia of Integer Sequences! http://oeis.org/",
	"query": "id:A124262",
	"count": 1,
	"start": 0,
	"results": [
		{
			"number": 124262,
			"data": "2,19,181,1801,17989,179849,1798487,17984833,179848309,1798483067,17984830667,179848306667,1798483066669,17984830666651,179848306666507,1798483066665031,17984830666650269,179848306666502647",
			"name": "a(1) = 2; for n \u003e 1, a(n) is largest prime \u003c 10*a(n-1).",
			"link": [
				"Charles R Greathouse IV, \u003ca href=\"/A124262/b124262.txt\"\u003eTable of n, a(n) for n = 1..1000\u003c/a\u003e, extending and correcting a b-file from Artur Jasinski"
			],
			"mathematica": [
				"NestList[NextPrime[10 #, -1]\u0026, 2, 20] (* _Vincenzo Librandi_, Jun 28 2014 *)"
			],
			"program": [
				"(PARI) step(k)=precprime(10*k)",
				"t=1/5; vector(10,n,t=step(t)) \\\\ _Charles R Greathouse IV_, Sep 14 2015"
			],
			"xref": [
				"Cf. A006902, A040016, A120031-A120040, A126041."
			],
			"keyword": "nonn",
			"offset": "1,1",
			"author": "_Artur Jasinski_, Dec 16 2006",
			"references": 4,
			"revision": 16,
			"time": "2015-09-14T14:59:09-04:00",
			"created": "2007-01-12T03:00:00-05:00"
		}
	]
}