{
	"greeting": "Greetings from The On-Line Encyclopedia of Integer Sequences! http://oeis.org/",
	"query": "id:A124877",
	"count": 1,
	"start": 0,
	"results": [
		{
			"number": 124877,
			"data": "3,15,19,26,31,129,139,211,242,246,251,474,552,558,694,801,1001,1123,1313,1687,4168,4484,5611,6869",
			"name": "Numbers n such that A007408(n) is prime.",
			"example": [
				"a(1) = 3 since A007408(3)= 251 is the first prime number of sequence A007408,",
				"a(2) = 15 since A007408(15) = 56154295334575853 is the second prime number of sequence A007408."
			],
			"maple": [
				"select(isprime@A007408,[$1..200]);"
			],
			"program": [
				"(PARI) num=1;den=1;for(k=2,2000,k3=k^3;s=(num*k3+den)/(den*k3);num=numerator(s);den=denominator(s);if(isprime(num),print1(k\",\"))) - Herman Jamke (hermanjamke(AT)fastmail.fm), Jan 26 2008"
			],
			"xref": [
				"Cf. A007408.",
				"Cf. A125503. [From _Alexander Adamchuk_, Apr 26 2010]"
			],
			"keyword": "hard,more,nonn",
			"offset": "1,1",
			"author": "_M. F. Hasler_, Nov 11 2006",
			"ext": [
				"More terms from Herman Jamke (hermanjamke(AT)fastmail.fm), Jan 26 2008",
				"a(21)-a(24) from _Alexander Adamchuk_, Apr 26 2010"
			],
			"references": 3,
			"revision": 5,
			"time": "2012-03-31T13:48:24-04:00",
			"created": "2006-12-06T03:00:00-05:00"
		}
	]
}