{
	"greeting": "Greetings from The On-Line Encyclopedia of Integer Sequences! http://oeis.org/",
	"query": "id:A124983",
	"count": 1,
	"start": 0,
	"results": [
		{
			"number": 124983,
			"data": "1,9,45,49,81,117,121,153,245,261,333,361,369,405,441,477,529,549,605,637,657,729,801,833,873,909,961,981,1017,1053,1089,1233,1341,1377,1413,1421,1557,1573,1629,1737,1773,1805,1813,1849,2009,2057,2061,2097,2169",
			"name": "Nonprime numbers == 1 (mod 4) with a unique partition as a sum of 2 squares x^2 + y^2.",
			"comment": [
				"Intersection of A124982 and A125018. - _Michel Marcus_, Nov 02 2013"
			],
			"link": [
				"Amiram Eldar, \u003ca href=\"/A124983/b124983.txt\"\u003eTable of n, a(n) for n = 1..10000\u003c/a\u003e"
			],
			"mathematica": [
				"Select[4 * Range[0, 500] + 1, !PrimeQ[#] \u0026\u0026 Length @ PowersRepresentations[#, 2, 2] == 1 \u0026] (* _Amiram Eldar_, Mar 12 2020 *)"
			],
			"program": [
				"(PARI) isok(n)= {if (isprime(n) || (n % 4 != 1), return (0)); A000161(n) == 1;} \\\\ _Michel Marcus_, Nov 02 2013"
			],
			"xref": [
				"Cf. A000161, A002145, A124982, A125018, A125020."
			],
			"keyword": "nonn",
			"offset": "1,2",
			"author": "_Artur Jasinski_, Nov 16 2006",
			"ext": [
				"More terms from _Michel Marcus_, Nov 02 2013"
			],
			"references": 4,
			"revision": 11,
			"time": "2020-03-12T07:23:10-04:00",
			"created": "2006-12-06T03:00:00-05:00"
		}
	]
}