{
	"greeting": "Greetings from The On-Line Encyclopedia of Integer Sequences! http://oeis.org/",
	"query": "id:A124527",
	"count": 1,
	"start": 0,
	"results": [
		{
			"number": 124527,
			"data": "1,1,2,5,14,46,162,641,2656,12092,56956,290636,1523088,8559980,49163792,300514337,1870652672,12318376190,82394305842,580168452664,4141242464512,30992978322024,234765130286990,1858132080028884",
			"name": "Row sums of triangle A124526.",
			"link": [
				"Alois P. Heinz, \u003ca href=\"/A124527/b124527.txt\"\u003eTable of n, a(n) for n = 0..500\u003c/a\u003e"
			],
			"maple": [
				"b:= proc(n, k) option remember; `if`(k\u003c0 or k\u003en, 0,",
				"      `if`(n=0, 1, b(n-1, k-1) +(k+1)*(b(n-1, k) +b(n-1, k+1))))",
				"    end:",
				"a:= n-\u003e add(b(iquo(n, 2), k)*b(iquo(n+1, 2), k), k=0..n/2):",
				"seq(a(n), n=0..30);  # _Alois P. Heinz_, Apr 14 2014"
			],
			"mathematica": [
				"b[n_, k_] := b[n, k] = If[k \u003c 0 || k \u003e n, 0, If[n == 0, 1, b[n - 1, k - 1] + (k + 1) (b[n - 1, k] + b[n - 1, k + 1])]];",
				"a[n_] := Sum[b[Quotient[n, 2], k] b[Quotient[n + 1, 2], k], {k, 0, n/2}];",
				"a /@ Range[0, 30]",
				"(* Second program: *)",
				"S[n_, k_] = Sum[StirlingS2[n, i] Binomial[i, k], {i, 0, n}];",
				"T[n_, k_] := S[Floor[n/2], k] S[Floor[(n + 1)/2], k];",
				"a[n_] := Sum[T[n, k], {k, 0, Floor[n/2]}];",
				"a /@ Range[0, 30] (* _Jean-François Alcover_, Nov 02 2020, first program after _Alois P. Heinz_ *)"
			],
			"program": [
				"(PARI) {a(n)=sum(k=0,n\\2,(n\\2)!*((n+1)\\2)!*polcoeff(polcoeff(exp((1+y)*(exp(x+x*O(x^n))-1)),n\\2),k) *polcoeff(polcoeff(exp((1+y)*(exp(x+x*O(x^n))-1)),(n+1)\\2),k))}"
			],
			"xref": [
				"Cf. A124526; A124528, A124529."
			],
			"keyword": "nonn",
			"offset": "0,3",
			"author": "_Paul D. Hanna_, Nov 08 2006",
			"references": 4,
			"revision": 9,
			"time": "2020-11-02T09:09:38-05:00",
			"created": "2006-12-06T03:00:00-05:00"
		}
	]
}