{
	"greeting": "Greetings from The On-Line Encyclopedia of Integer Sequences! http://oeis.org/",
	"query": "id:A124041",
	"count": 1,
	"start": 0,
	"results": [
		{
			"number": 124041,
			"data": "9,39,165,219,249,309,414,534,639,765,1044,1065,1089,1155,1395,1509,1530,1554,1590,1884,2079,2115,2130,2310,2319,2430,2475,2709,2874,3060,3105,3354,3420,3684,3705,3780,3819,4104,4314,4554,4599,4659,4869,5160",
			"name": "Numbers k such that 2*k+1, 4*k+1 and 8*k+1 are primes.",
			"link": [
				"Amiram Eldar, \u003ca href=\"/A124041/b124041.txt\"\u003eTable of n, a(n) for n = 1..10000\u003c/a\u003e"
			],
			"mathematica": [
				"Select[3*Range[2000], And @@ PrimeQ /@ ({2, 4, 8}*# + 1) \u0026] (* _Ray Chandler_, Dec 06 2006 *)"
			],
			"xref": [
				"Cf. A005097, A123998, A124412-A124417."
			],
			"keyword": "nonn",
			"offset": "1,1",
			"author": "_Artur Jasinski_, Nov 02 2006",
			"references": 7,
			"revision": 9,
			"time": "2020-03-23T04:05:12-04:00",
			"created": "2006-12-06T03:00:00-05:00"
		}
	]
}