{
	"greeting": "Greetings from The On-Line Encyclopedia of Integer Sequences! http://oeis.org/",
	"query": "id:A124475",
	"count": 1,
	"start": 0,
	"results": [
		{
			"number": 124475,
			"data": "1,9,9,12,41,3,37,21,23,3,3,1,39,3,39,41,43,81,3,3,47,31,101,43,39,33,149,43,23,9,1,131,103,41,7,123,21,147,9,417,29,277,11,117,337,51,71,93,21,187,81,69,111,59,217,183,179,403,249,33,29,153,231,141,7,117,93,329,223,393",
			"name": "10*A124262(n-1)- A124262(n).",
			"xref": [
				"Cf. A126038, A124262."
			],
			"keyword": "nonn",
			"offset": "1,2",
			"author": "_Artur Jasinski_, Dec 17 2006, Dec 18 2006, Sep 18 2007",
			"references": 0,
			"revision": 3,
			"time": "2012-03-31T10:22:00-04:00",
			"created": "2007-01-12T03:00:00-05:00"
		}
	]
}