{
	"greeting": "Greetings from The On-Line Encyclopedia of Integer Sequences! http://oeis.org/",
	"query": "id:A124785",
	"count": 1,
	"start": 0,
	"results": [
		{
			"number": 124785,
			"data": "4,6,9,10,10,15,14,21,25,14,22,33,26,39,22,34,49,55,22,46,26,69,34,85,26,62,91,46,74,38,111,115,82,86,34,129,133,58,141,34,106,159,169,38,183,134,201,142,213,94,235,74,166,46,253,106,259,58,265,46,86,118,194",
			"name": "Semiprime sopfr of semiprimes A115585.",
			"comment": [
				"Cf. A001358 semiprimes, A001414 sopfr, A115585 Semiprimes with a semiprime sum of factors, A124786 Intersection of A115585 and A124785."
			],
			"formula": [
				"a(n)=sopfr(A115585(n))"
			],
			"example": [
				"a(3)=9 because A115585(3)=14=2*7=\u003e2+7=9=3*3,",
				"a(6)=15 because A115585(6)=26=2*13=\u003e2+13=15=3*5."
			],
			"xref": [
				"Cf. A001358, A001414, A115585, A124786."
			],
			"keyword": "nonn",
			"offset": "1,1",
			"author": "_Zak Seidov_, Nov 07 2006",
			"references": 2,
			"revision": 2,
			"time": "2012-03-30T17:26:22-04:00",
			"created": "2006-12-06T03:00:00-05:00"
		}
	]
}