{
	"greeting": "Greetings from The On-Line Encyclopedia of Integer Sequences! http://oeis.org/",
	"query": "id:A124990",
	"count": 1,
	"start": 0,
	"results": [
		{
			"number": 124990,
			"data": "13,28393,128758492789,73,193,37,457,8363172060732903211423577787181",
			"name": "Primes of the form 12k+1 generated recursively. Initial prime is 13. General term is a(n)=Min {p is prime; p divides Q^4-Q^2+1}, where Q is the product of previous terms in the sequence.",
			"comment": [
				"All prime divisors of Q^4 - Q^2 + 1 are congruent to 1 modulo 12."
			],
			"reference": [
				"K. Ireland and M. Rosen, A Classical Introduction to Modern Number Theory, Springer-Verlag, NY, Second Edition (1990), p. 63."
			],
			"link": [
				"N. Hobson, \u003ca href=\"http://www.qbyte.org/puzzles/\"\u003eHome page (listed in lieu of email address)\u003c/a\u003e"
			],
			"example": [
				"a(3) = 128758492789 is the smallest prime divisor of Q^4 - Q^2 + 1 = 18561733755472408508281 = 128758492789 * 144159296629, where Q = 13 * 28393."
			],
			"mathematica": [
				"a = {13}; q = 1;",
				"For[n = 2, n ≤ 8, n++,",
				"    q = q*Last[a];",
				"    AppendTo[a, Min[Select[FactorInteger[q^4 - q^2 + 1][[All, 1]],",
				"    Mod[#, 12] == 1 \u0026]]];",
				"    ];",
				"a  (* _Robert Price_, Jun 25 2015 *)"
			],
			"xref": [
				"Cf. A000945, A068228, A057204-A057208, A051308-A051335, A124984-A124993, A125037-A125045."
			],
			"keyword": "more,nonn",
			"offset": "1,1",
			"author": "Nick Hobson, Nov 18 2006",
			"ext": [
				"a(8) from _Robert Price_, Jun 25 2015"
			],
			"references": 2,
			"revision": 13,
			"time": "2015-06-26T11:23:08-04:00",
			"created": "2006-12-06T03:00:00-05:00"
		}
	]
}