{
	"greeting": "Greetings from The On-Line Encyclopedia of Integer Sequences! http://oeis.org/",
	"query": "id:A124068",
	"count": 1,
	"start": 0,
	"results": [
		{
			"number": 124068,
			"data": "0,1,1741725,4210818,9800817,9926315,14459929",
			"name": "Fixed points for operation of repeatedly replacing a number with the sum of the seventh power of its digits.",
			"comment": [
				"The sequence \"Fixed points for operation of repeatedly replacing a number by the sum of the sixth power of its digits\" has just 3 terms: 0, 1, and 548834.",
				"For a d-digit number n \u003e= 10^(d-1), the sum of 7th powers of its digits is \u003c= 9^7*d, therefore these numbers cannot exceed 41205040. - _M. F. Hasler_, Apr 12 2015"
			],
			"example": [
				"1741725 = 1^7 + 7^7 + 4^7 + 1^7 + 7^7 + 2^7 + 5^7."
			],
			"program": [
				"(PARI) isok(n) = my(d = digits(n)); sum(k=1, #d, d[k]^7) == n; \\\\ _Michel Marcus_, Feb 21 2015",
				"(PARI) for(n=0,41205040,A123253(n)==n\u0026\u0026print1(n\",\")) \\\\ _M. F. Hasler_, Apr 12 2015"
			],
			"xref": [
				"Cf. A046197, A052455, A052464, A124069, A226970, A003321."
			],
			"keyword": "base,fini,full,nonn",
			"offset": "1,3",
			"author": "_Sébastien Dumortier_, Nov 05 2006",
			"references": 9,
			"revision": 19,
			"time": "2017-03-31T21:05:33-04:00",
			"created": "2006-12-06T03:00:00-05:00"
		}
	]
}