{
	"greeting": "Greetings from The On-Line Encyclopedia of Integer Sequences! http://oeis.org/",
	"query": "id:A124621",
	"count": 1,
	"start": 0,
	"results": [
		{
			"number": 124621,
			"data": "0,2,6,10,102,494,794,1326,5242,5446,24602,87606,188558",
			"name": "Numbers k such that 5^k + 4 is prime.",
			"comment": [
				"a(13) \u003e 10^5. - _Robert Price_, Feb 03 2014",
				"a(14) \u003e 2*10^5. - _Tyler NeSmith_, May 04 2021"
			],
			"link": [
				"F. Firoozbakht, M. F. Hasler, \u003ca href=\"https://cs.uwaterloo.ca/journals/JIS/VOL13/Hasler/hasler2.html\"\u003eVariations on Euclid's formula for Perfect Numbers\u003c/a\u003e, JIS 13 (2010) #10.3.1"
			],
			"example": [
				"5^2 + 4 = 29 is prime, so 2 is a term."
			],
			"mathematica": [
				"Select[Range[0, 2000], PrimeQ[5^# + 4] \u0026] (* _Vincenzo Librandi_, Oct 01 2012 *)"
			],
			"program": [
				"(PARI) is(n)=ispseudoprime(5^n+4) \\\\ _Charles R Greathouse IV_, Feb 17 2017"
			],
			"xref": [
				"Cf. A059613."
			],
			"keyword": "nonn",
			"offset": "1,2",
			"author": "_Artur Jasinski_, Dec 21 2006",
			"ext": [
				"Added the first term 0 by _Vincenzo Librandi_, Oct 01 2012",
				"a(9) - a(10) from _Bruno Berselli_, Aug 12 2013",
				"a(11)-a(12) from _Robert Price_, Feb 03 2014",
				"a(13) from _Tyler NeSmith_, May 04 2021"
			],
			"references": 7,
			"revision": 22,
			"time": "2021-05-04T20:04:39-04:00",
			"created": "2007-01-12T03:00:00-05:00"
		}
	]
}