{
	"greeting": "Greetings from The On-Line Encyclopedia of Integer Sequences! http://oeis.org/",
	"query": "id:A124393",
	"count": 1,
	"start": 0,
	"results": [
		{
			"number": 124393,
			"data": "3,14759,15449,26089",
			"name": "Numbers whose shortest addition chains unavoidably contain 3.",
			"reference": [
				"For a comprehensive list of references see A003313."
			],
			"keyword": "nonn,more,hard",
			"offset": "1,1",
			"author": "_Max Alekseyev_, Dec 16 2006",
			"references": 0,
			"revision": 8,
			"time": "2012-03-30T17:26:58-04:00",
			"created": "2007-01-12T03:00:00-05:00"
		}
	]
}