{
	"greeting": "Greetings from The On-Line Encyclopedia of Integer Sequences! http://oeis.org/",
	"query": "id:A124636",
	"count": 1,
	"start": 0,
	"results": [
		{
			"number": 124636,
			"data": "1,0,3,4,7,12,24,28,55,76,111,160,238,304,447,588,784,1036,1379,1728",
			"name": "Poincaré series [or Poincare series] P(C_{3,2}(0); t).",
			"link": [
				"Dragomir Z. Djokovic, \u003ca href=\"http://arXiv.org/abs/math.AC/0609262\"\u003ePoincaré series [or Poincare series] of some pure and mixed trace algebras of two generic matrices\u003c/a\u003e. See Table 9."
			],
			"keyword": "nonn",
			"offset": "0,3",
			"author": "_N. J. A. Sloane_, Dec 21 2006",
			"references": 0,
			"revision": 6,
			"time": "2018-01-30T18:57:38-05:00",
			"created": "2007-01-12T03:00:00-05:00"
		}
	]
}