{
	"greeting": "Greetings from The On-Line Encyclopedia of Integer Sequences! http://oeis.org/",
	"query": "id:A125656",
	"count": 1,
	"start": 0,
	"results": [
		{
			"number": 125656,
			"data": "1,1,4,13,47,195,908,4674,26327,160825,1057575,7440520,55714863,442052441,3701932760,32610988520,301289654059,2911657603468,29363468538215,308365818949091,3365801354839753,38117461277764685",
			"name": "Column 3 of triangle A125653; also equals the eigensequence of the matrix cube of A125653.",
			"comment": [
				"Column k of triangle A125653 equals the eigensequence of matrix power A125653^k for k\u003e=0."
			],
			"formula": [
				"a(n) = A125653(n+3,3) = Sum_{k=0..n-1} [A125653^3](n-1,k)*a(k) for n\u003e0 with a(0)=1."
			],
			"xref": [
				"Cf. A125653 (triangle); rows: A125654, A125655, A125657; A125658 (row sums); A125659 (central terms)."
			],
			"keyword": "nonn",
			"offset": "0,3",
			"author": "_Paul D. Hanna_, Nov 30 2006",
			"references": 6,
			"revision": 3,
			"time": "2012-03-30T18:37:01-04:00",
			"created": "2006-12-06T03:00:00-05:00"
		}
	]
}