{
	"greeting": "Greetings from The On-Line Encyclopedia of Integer Sequences! http://oeis.org/",
	"query": "id:A125060",
	"count": 1,
	"start": 0,
	"results": [
		{
			"number": 125060,
			"data": "1,3,2,4,5,7,9,6,8,11,12,13,17,19,23,25,10,15,16,18,20,22,24,21,27,29,31,33,35,37,39,41,14,26,28,32,34,38,43,47,49,51,53,57,59,61,30,36,40,42,45,46,48,50,52,54,56,55,65,67,71,73,77,79,83,85,89,91,95,44,58,60",
			"name": "Irregular array where a(1)=1; run n of the sequence is the first a(n-1) integers from among those positive integers which are coprime to n and which do not occur earlier in the sequence {a(k)}.",
			"comment": [
				"This sequence is a permutation of the positive integers."
			],
			"example": [
				"The sequence grouped by runs, where run n, after the first 1, consists of a(n-1) terms:",
				"1,(3),(2,4,5),(7,9),(6,8,11,12),(13,17,19,23,25),(10,15,16,18,20,22,24),...",
				"a(5) is 5. So run 6 contains the first 5 positive integers which do not occur earlier in the sequence and which are coprime to 6, (13,17,19,23,25)."
			],
			"mathematica": [
				"f[l_List] := Block[{n = Length[l] + 1, fl = Flatten[l], c, k = 0, r = {}},c = fl[[n - 1]];While[c \u003e 0,k++;While[MemberQ[fl, k] || GCD[k, n] \u003e 1, k++ ];AppendTo[r, k];c--;];Append[l, r]];Nest[f, {{1}}, 12] // Flatten (* _Ray Chandler_, Feb 13 2007 *)"
			],
			"xref": [
				"Cf. A081964."
			],
			"keyword": "nonn",
			"offset": "1,2",
			"author": "_Leroy Quet_, Jan 08 2007",
			"ext": [
				"Extended by _Ray Chandler_, Feb 13 2007"
			],
			"references": 0,
			"revision": 11,
			"time": "2019-10-31T12:05:21-04:00",
			"created": "2007-01-12T03:00:00-05:00"
		}
	]
}