{
	"greeting": "Greetings from The On-Line Encyclopedia of Integer Sequences! http://oeis.org/",
	"query": "id:A125855",
	"count": 1,
	"start": 0,
	"results": [
		{
			"number": 125855,
			"data": "4,10,100,190,820,1480,1870,2080,3250,3460,5650,9430,13000,15640,15730,16060,18040,18910,19420,21010,22270,25300,31720,34840,43780,51340,55330,62980,67210,69490,72220,77260,79690,81040,82720,88810,97840",
			"name": "Numbers k such that k+1, k+3, k+7 and k+9 are all primes.",
			"comment": [
				"It seems that, with the exception of 4, all terms are multiples of 10. - _Emeric Deutsch_, Dec 24 2006",
				"In fact, all terms except 4 are congruent to 10 (mod 30). - _Franklin T. Adams-Watters_, Jun 05 2014",
				"For n \u003e 1: a(n) = 10*A007811(n-1). - _Reinhard Zumkeller_, Jul 18 2014 [Comment corrected by _Jens Kruse Andersen_, Jul 19 2014]"
			],
			"link": [
				"Reinhard Zumkeller, \u003ca href=\"/A125855/b125855.txt\"\u003eTable of n, a(n) for n = 1..1000\u003c/a\u003e"
			],
			"formula": [
				"a(n) = A007530(n) - 1. - _R. J. Mathar_, Jun 14 2017"
			],
			"example": [
				"For k = 10, the numbers 10 + 1 = 11, 10 + 3 = 13, 10 + 7 = 17, 10 + 9 = 19 are prime. - _Marius A. Burtea_, May 18 2019"
			],
			"maple": [
				"a:=proc(n): if isprime(n+1)=true and isprime(n+3)=true and isprime(n+7)=true and isprime(n+9)=true then n else fi end: seq(a(n),n=1..500000); # _Emeric Deutsch_, Dec 24 2006"
			],
			"mathematica": [
				"Do[If[(PrimeQ[x + 1]) \u0026\u0026 (PrimeQ[x + 3]) \u0026\u0026 (PrimeQ[x + 7]) \u0026\u0026 (PrimeQ[x + 9]), Print[x]], {x, 1, 10000}]",
				"(* Second program *)",
				"Select[Range[10^5], Times @@ Boole@ Map[PrimeQ, # + {1, 3, 7, 9}] == 1 \u0026] (* _Michael De Vlieger_, Jun 12 2017 *)",
				"Select[Range[100000],AllTrue[#+{1,3,7,9},PrimeQ]\u0026] (* The program uses the AllTrue function from Mathematica version 10 *) (* _Harvey P. Dale_, Mar 02 2018 *)"
			],
			"program": [
				"(Haskell)",
				"a125855 n = a125855_list !! (n-1)",
				"a125855_list = map (pred . head) $ filter (all (== 1) . map a010051') $",
				"   iterate (zipWith (+) [1, 1, 1, 1]) [1, 3, 7, 9]",
				"-- _Reinhard Zumkeller_, Jul 18 2014",
				"(MAGMA) [n:n in [1..100000]| IsPrime(n+1) and IsPrime(n+3) and IsPrime(n+7) and IsPrime(n+9)]; // _Marius A. Burtea_, May 18 2019",
				"(PARI) is(n) = my(v=[1, 3, 7, 9]); for(t=1, #v, if(!ispseudoprime(n+v[t]), return(0))); 1 \\\\ _Felix Fröhlich_, May 18 2019"
			],
			"xref": [
				"Cf. A007530, A057015, A125779, A125780.",
				"Cf. A010051, A245304 (subsequence), A007811."
			],
			"keyword": "nonn",
			"offset": "1,1",
			"author": "_Artur Jasinski_, Dec 12 2006",
			"ext": [
				"More terms from _Emeric Deutsch_, Dec 24 2006"
			],
			"references": 6,
			"revision": 34,
			"time": "2019-05-18T16:57:52-04:00",
			"created": "2007-01-12T03:00:00-05:00"
		}
	]
}