{
	"greeting": "Greetings from The On-Line Encyclopedia of Integer Sequences! http://oeis.org/",
	"query": "id:A125776",
	"count": 1,
	"start": 0,
	"results": [
		{
			"number": 125776,
			"data": "0,1,3,4,6,1,15,1,2,2,3,1,23,3,1,1,3,1,1,6,4,1,1,2,4,39,1,1,3,1,2,1,3,181,2,1,103,2,1,5,1,1,1,1,6,1,7,5,1,2,1,2,2,2,2,1,21,8,1,9,2,2,4,2,6,1,4,1,1,1,1,15,1,1,10,1,7,2,1,1,2,4,2,4,1,3,1,4,1,1,23,1,1,48,1,38,1,1,1",
			"name": "Continued fraction expansion of the Landau-Ramanujan constant (A064533).",
			"comment": [
				"Increasing PQ's: 0, 1, 3, 4, 6, 15, 23, 39, 181, 386, 3389, 62656, ..."
			],
			"link": [
				"Harry J. Smith, \u003ca href=\"/A125776/b125776.txt\"\u003eTable of n, a(n) for n = 1..9687\u003c/a\u003e"
			],
			"example": [
				"k=0.7642236535892206629906987... = 0 + 1/(1 + 1/(3 + 1/(4 + 1/(6 + ...)))). - _Harry J. Smith_, Apr 23 2009"
			],
			"mathematica": [
				"LandauRamanujan[n_] := N[Product[ ((1 - 2^(-2^k)) 4^(2^k) Zeta[2^k]/(Zeta[2^k, 1/4] - Zeta[2^k, 3/4]))^(2^(-k-1)), {k, n}]/Sqrt@2, 2^7]; ContinuedFraction@LandauRamanujan@8"
			],
			"xref": [
				"Cf. A064533."
			],
			"keyword": "cofr,nonn",
			"offset": "1,3",
			"author": "_Robert G. Wilson v_, Dec 07 2006",
			"references": 2,
			"revision": 12,
			"time": "2016-08-19T00:34:39-04:00",
			"created": "2007-01-12T03:00:00-05:00"
		}
	]
}