{
	"greeting": "Greetings from The On-Line Encyclopedia of Integer Sequences! http://oeis.org/",
	"query": "id:A125956",
	"count": 1,
	"start": 0,
	"results": [
		{
			"number": 125956,
			"data": "3,7,127,283,883,1523,4001",
			"name": "Numbers k such that (2^k + 9^k)/11 is prime.",
			"comment": [
				"All terms are primes. Note that first 3 terms (3, 7, 127} are primes of the form 2^q - 1, where q = {2, 3, 7) is prime too. Corresponding primes of the form (2^n + 9^n)/11 are {67, 434827, ...}.",
				"a(8) \u003e 10^5. - _Robert Price_, Dec 23 2012"
			],
			"mathematica": [
				"Do[p=Prime[n];f=(2^p+9^p)/11; If[PrimeQ[f], Print[{p, f}]], {n, 1, 100}]"
			],
			"program": [
				"(PARI) is(n)=ispseudoprime((2^n+9^n)/11) \\\\ _Charles R Greathouse IV_, Feb 20 2017"
			],
			"xref": [
				"Cf. A000978 = numbers n such that (2^n + 1)/3 is prime. Cf. A057469 = numbers n such that (2^n + 3^n)/5 is prime. Cf. A082387 = numbers n such that (2^n + 5^n)/7 is prime."
			],
			"keyword": "hard,more,nonn",
			"offset": "1,1",
			"author": "_Alexander Adamchuk_, Feb 06 2007",
			"ext": [
				"2 more terms from _Rick L. Shepherd_, Feb 14 2007",
				"a(7) from _Robert Price_, Dec 23 2012"
			],
			"references": 6,
			"revision": 12,
			"time": "2018-11-01T21:23:03-04:00",
			"created": "2007-05-11T03:00:00-04:00"
		}
	]
}