{
	"greeting": "Greetings from The On-Line Encyclopedia of Integer Sequences! http://oeis.org/",
	"query": "id:A125821",
	"count": 1,
	"start": 0,
	"results": [
		{
			"number": 125821,
			"data": "3,12,18,24,33,57,102,132,153,159,162,234,243,249,267,279,288,297,318,348,423,432,444,447,477,489,519,528,552,564,579,627,684,687,717,774,783,837,858,918,948,969,984,993",
			"name": "Numbers n for which 8n+5 and 8n+7 are twin primes.",
			"comment": [
				"Proof that all numbers in this sequence are divisible by 3 (Zak Seidov Apr 19 2008:",
				"if n=(3k+1), then 8n+7=8(3k+1)+7=3(5+8 k) (composite)",
				"if n=(3k+2), then 8n+5=8(3k+2)+5=3(7+8 k) (composite),",
				"so if we require that both 8n+5 and 8n+7 are primes, then n=3k, hence all terms in A125821 are multiples of 3. QED."
			],
			"link": [
				"Harvey P. Dale, \u003ca href=\"/A125821/b125821.txt\"\u003eTable of n, a(n) for n = 1..1000\u003c/a\u003e"
			],
			"mathematica": [
				"Do[If[PrimeQ[8n + 5] \u0026\u0026 PrimeQ[8n + 7], Print[n]], {n, 1, 1000}]",
				"Select[Range[3,6000,3],AllTrue[8#+{5,7},PrimeQ]\u0026] (* The program uses the AllTrue function from Mathematica version 10 *) (* _Harvey P. Dale_, Sep 14 2018 *)"
			],
			"xref": [
				"Cf. A001109.",
				"For a(n)/3 see A139404.",
				"Cf. A125822, A139402, A139404."
			],
			"keyword": "nonn",
			"offset": "1,1",
			"author": "_Artur Jasinski_, Dec 10 2006",
			"references": 7,
			"revision": 15,
			"time": "2018-09-14T19:28:55-04:00",
			"created": "2007-01-12T03:00:00-05:00"
		}
	]
}