{
	"greeting": "Greetings from The On-Line Encyclopedia of Integer Sequences! http://oeis.org/",
	"query": "id:A125515",
	"count": 1,
	"start": 0,
	"results": [
		{
			"number": 125515,
			"data": "2,7,37,263,2897,37663,640279,12165313,279802207,8114264027,251542184851,9307060839509,381589494419909,16408348260056111,771192368222637247,40873195515799774129,2411518535432186673637",
			"name": "Primes derived from A116516.",
			"comment": [
				"While calculating every possible C for such a sequence, the first \"split\" seems to be at C*193#, i.e. there appear to be two primes that simultaneously continue the sequence: floor[C*191# ]*193+30 and floor[C*191# ]*193+88."
			],
			"formula": [
				"Floor[C*p# ] where C=1.254196101578..."
			],
			"example": [
				"a(5)=2897 because the fifth prime is 11 and floor[11#*1.2541961...] = 2897 (2310*1.2541961... = 2897.19299...)."
			],
			"xref": [
				"Cf. A116516."
			],
			"keyword": "nonn",
			"offset": "1,1",
			"author": "_Martin Raab_, Jan 21 2007, Feb 02 2007",
			"references": 0,
			"revision": 2,
			"time": "2012-03-31T10:32:55-04:00",
			"created": "2007-05-11T03:00:00-04:00"
		}
	]
}