{
	"greeting": "Greetings from The On-Line Encyclopedia of Integer Sequences! http://oeis.org/",
	"query": "id:A125668",
	"count": 1,
	"start": 0,
	"results": [
		{
			"number": 125668,
			"data": "1,2,3,4,5,6,7,8,9,10,11,14,16,17,29,32,38,44,47,53,74,137,152,164,194,284,662",
			"name": "Numbers not expressible as the sum of a triangular number and an abundant number.",
			"link": [
				"Jason Earls and Jason Rogers, \"I Sin Every Number\", \u003ca href=\"https://www.amazon.com/Sid_Vicious-TRUE-Alan-Turing-ERROR_Cyberpunk/dp/1430306483/\"\u003eIf{Sid_Vicious == TRUE \u0026\u0026 Alan_Turing == TRUE, ERROR_Cyberpunk();}\u003c/a\u003e (title of book), Lulu Press, NY, 2007, p. 49."
			],
			"keyword": "easy,fini,nonn",
			"offset": "1,2",
			"author": "_Jason Earls_, Jan 29 2007",
			"references": 0,
			"revision": 7,
			"time": "2019-04-24T15:23:15-04:00",
			"created": "2007-05-11T03:00:00-04:00"
		}
	]
}