{
	"greeting": "Greetings from The On-Line Encyclopedia of Integer Sequences! http://oeis.org/",
	"query": "id:A125374",
	"count": 1,
	"start": 0,
	"results": [
		{
			"number": 125374,
			"data": "1,11,91,671,5551,46761,398065,3401871,29120743,249448001,2137362811,18315799997,156961741753,1345147895869,11527885950497,98794030243881,846666363905255,7255947727689297,62183631402541039,532915135391447739",
			"name": "Number of base 11 circular n-digit numbers with adjacent digits differing by 5 or less.",
			"comment": [
				"[Empirical] a(base,n)=a(base-1,n)+F(5) for base\u003e=5.int(n/2)+1 and F(d) is the largest coefficient in (1+x+...+x^(2d))^n"
			],
			"program": [
				"(S/R) stvar $[N]:(0..M-1) init $[]:=0 asgn $[]-\u003e{*} kill +[i in 0..N-1](($[i]`-$[(i+1)mod N]`\u003e5)+($[(i+1)mod N]`-$[i]`\u003e5))"
			],
			"keyword": "nonn,base",
			"offset": "0,2",
			"author": "_R. H. Hardin_, Dec 28 2006",
			"references": 0,
			"revision": 8,
			"time": "2012-03-31T12:35:02-04:00",
			"created": "2007-01-12T03:00:00-05:00"
		}
	]
}