{
	"greeting": "Greetings from The On-Line Encyclopedia of Integer Sequences! http://oeis.org/",
	"query": "id:A125863",
	"count": 1,
	"start": 0,
	"results": [
		{
			"number": 125863,
			"data": "1,4,22,178,2251,46663,1640572,100152049,10794383587,2079805452133,723492192295786,458149292979837523,531871667833026397222,1138955362720160687114704,4523369812874327770490887837",
			"name": "Column 3 of table A125860; also equals row sums of matrix power A097712^3.",
			"comment": [
				"Equals column 0 of matrix power A097712^4, where triangle A097712 satisfies recurrence: A097712(n,k) = A097712(n-1,k) + [A097712^2](n-1,k-1)."
			],
			"xref": [
				"Cf. A125860; A097712; other columns: A016121, A125862, A125864, A125865; A125861 (diagonal), A125859 (antidiagonal sums)."
			],
			"keyword": "nonn",
			"offset": "0,2",
			"author": "_Paul D. Hanna_, Dec 13 2006",
			"references": 6,
			"revision": 3,
			"time": "2012-03-30T18:37:02-04:00",
			"created": "2007-01-12T03:00:00-05:00"
		}
	]
}