{
	"greeting": "Greetings from The On-Line Encyclopedia of Integer Sequences! http://oeis.org/",
	"query": "id:A125379",
	"count": 1,
	"start": 0,
	"results": [
		{
			"number": 125379,
			"data": "1,16,146,1126,10006,90766,841412,7895904,74715854,710834734,6786655906,64943303298,622375932004,5970118647444,57303035279202,550227097897606,5284636214132958,50764242418318486,487691693453055908",
			"name": "Number of base 16 circular n-digit numbers with adjacent digits differing by 5 or less.",
			"comment": [
				"[Empirical] a(base,n)=a(base-1,n)+F(5) for base\u003e=5.int(n/2)+1 and F(d) is the largest coefficient in (1+x+...+x^(2d))^n"
			],
			"program": [
				"(S/R) stvar $[N]:(0..M-1) init $[]:=0 asgn $[]-\u003e{*} kill +[i in 0..N-1](($[i]`-$[(i+1)mod N]`\u003e5)+($[(i+1)mod N]`-$[i]`\u003e5))"
			],
			"keyword": "nonn,base",
			"offset": "0,2",
			"author": "_R. H. Hardin_, Dec 28 2006",
			"references": 0,
			"revision": 8,
			"time": "2012-03-31T12:35:02-04:00",
			"created": "2007-01-12T03:00:00-05:00"
		}
	]
}