{
	"greeting": "Greetings from The On-Line Encyclopedia of Integer Sequences! http://oeis.org/",
	"query": "id:A125377",
	"count": 1,
	"start": 0,
	"results": [
		{
			"number": 125377,
			"data": "1,14,124,944,8224,73164,663592,6079164,56025792,518098976,4800482504,44528550080,413300021488,3837488395352,35638247594192,331005480808464,3074553653662208,28559120705050336,265287361541008864",
			"name": "Number of base 14 circular n-digit numbers with adjacent digits differing by 5 or less.",
			"comment": [
				"[Empirical] a(base,n)=a(base-1,n)+F(5) for base\u003e=5.int(n/2)+1 and F(d) is the largest coefficient in (1+x+...+x^(2d))^n"
			],
			"program": [
				"(S/R) stvar $[N]:(0..M-1) init $[]:=0 asgn $[]-\u003e{*} kill +[i in 0..N-1](($[i]`-$[(i+1)mod N]`\u003e5)+($[(i+1)mod N]`-$[i]`\u003e5))"
			],
			"keyword": "nonn,base",
			"offset": "0,2",
			"author": "_R. H. Hardin_, Dec 28 2006",
			"references": 0,
			"revision": 8,
			"time": "2012-03-31T12:35:02-04:00",
			"created": "2007-01-12T03:00:00-05:00"
		}
	]
}