{
	"greeting": "Greetings from The On-Line Encyclopedia of Integer Sequences! http://oeis.org/",
	"query": "id:A125333",
	"count": 1,
	"start": 0,
	"results": [
		{
			"number": 125333,
			"data": "1,23,149,767,4621,28193,176297,1117041,7154253,46194005,300221819,1961587475,12873380521,84800014153,560377791731,3713279813807,24664451887709,164170230029821,1094761428071549,7312336791110657",
			"name": "Number of base 23 circular n-digit numbers with adjacent digits differing by 3 or less.",
			"comment": [
				"[Empirical] a(base,n)=a(base-1,n)+A025012(n+1) for base\u003e=3.int(n/2)+1"
			],
			"program": [
				"(S/R) stvar $[N]:(0..M-1) init $[]:=0 asgn $[]-\u003e{*} kill +[i in 0..N-1](($[i]`-$[(i+1)mod N]`\u003e3)+($[(i+1)mod N]`-$[i]`\u003e3))"
			],
			"keyword": "nonn,base",
			"offset": "0,2",
			"author": "_R. H. Hardin_, Dec 28 2006",
			"references": 0,
			"revision": 7,
			"time": "2012-03-31T12:35:01-04:00",
			"created": "2007-01-12T03:00:00-05:00"
		}
	]
}