{
	"greeting": "Greetings from The On-Line Encyclopedia of Integer Sequences! http://oeis.org/",
	"query": "id:A125367",
	"count": 1,
	"start": 0,
	"results": [
		{
			"number": 125367,
			"data": "1,30,250,1650,12770,100230,805906,6566814,54086114,449108706,3753661210,31540650842,266200099346,2255103585986,19164991781962,163321999341570,1395146780098946,11942807195629546,102422953911204100",
			"name": "Number of base 30 circular n-digit numbers with adjacent digits differing by 4 or less.",
			"comment": [
				"[Empirical] a(base,n)=a(base-1,n)+A025014(n+1) for base\u003e=4.int(n/2)+1"
			],
			"program": [
				"(S/R) stvar $[N]:(0..M-1) init $[]:=0 asgn $[]-\u003e{*} kill +[i in 0..N-1](($[i]`-$[(i+1)mod N]`\u003e4)+($[(i+1)mod N]`-$[i]`\u003e4))"
			],
			"keyword": "nonn,base",
			"offset": "0,2",
			"author": "_R. H. Hardin_, Dec 28 2006",
			"references": 0,
			"revision": 7,
			"time": "2012-03-31T12:35:02-04:00",
			"created": "2007-01-12T03:00:00-05:00"
		}
	]
}