{
	"greeting": "Greetings from The On-Line Encyclopedia of Integer Sequences! http://oeis.org/",
	"query": "id:A125547",
	"count": 1,
	"start": 0,
	"results": [
		{
			"number": 125547,
			"data": "1,12,17782,3359860178,80173083905265254,241867388512389264991124102,92239510661284205765199147022065188442,4446848187806762069273466271591426934850445380022534",
			"name": "Number of n X n arrays with entries in 1..12 in which adjacent entries differ by 9 or less (adjacent means in x or y directions).",
			"comment": [
				"[Empirical] a(base+1,n,diff) = a(base,n,diff)+F(n,diff) for base\u003e=2.diff.(n-1) and F(n,diff) = (n = 2, A063496(diff+1)) (n = 3, A068744(diff+1)) (n = 4, A068745(diff+1)) (n = 5, A068746(diff+1)) (n = 6, A068747(diff+1))"
			],
			"program": [
				"(S/R) stvar $[N][N]:(0.. M-1) init $[][]:=0 asgn $[][]-\u003e{*} kill +[i in 0.. N-2](+[j in 0.. N-1](($[i][j]`-$[i+1][j]`\u003e9)+($[i+1][j]`-$[i][j]`\u003e9)+($[j][i]`-$[j][i+1]`\u003e9)+($[j][i+1]`-$[j][i]`\u003e9)))"
			],
			"keyword": "nonn",
			"offset": "0,2",
			"author": "_R. H. Hardin_, Dec 31 2006",
			"references": 0,
			"revision": 6,
			"time": "2012-03-31T12:35:05-04:00",
			"created": "2007-01-12T03:00:00-05:00"
		}
	]
}