{
	"greeting": "Greetings from The On-Line Encyclopedia of Integer Sequences! http://oeis.org/",
	"query": "id:A125753",
	"count": 1,
	"start": 0,
	"results": [
		{
			"number": 125753,
			"data": "1,0,1,2,1,1,0,0,2,5,12,6,5,1,1,0,0,0,5,12,35,108,73,76,80,25,15,15,0,0,0,0,12,35,108,369,1285,1044,1475,2205,2643,983,1050,1208,958,0,0,0,0,0,35,108,369,1285,4655,17073,15980,26548,48766,79579,99860,45898,60433,89890,109424,84312,0,0,0,0,0,0,108,369,1285,4655,17073,63600,238591,245955,458397,948201,1857965,3160371,4153971,2217787,3402761,5855953,9067535,11402651,9170285,0,0,0,0,0,0,0,369,1285,4655,17073,63600,238591,901971,3426576,3807508,7710844,17354771,37983463",
			"name": "Triangle read by rows: T(n,k) (n\u003e=1) gives the number of n-indecomposable polyominoes with k cells (k \u003e= n).",
			"comment": [
				"A polyomino is called n-indecomposable if it cannot be partitioned (along cell boundaries) into two or more polyominoes each with at least n cells.",
				"Row n has 4n-3 terms of which the first n-1 are zero.",
				"For full lists of drawings of these polyominoes for n \u003c= 6, see the links in A125759."
			],
			"link": [
				"N. MacKinnon, \u003ca href=\"http://www.jstor.org/stable/3618845\"\u003eSome thoughts on polyomino tilings\u003c/a\u003e, Math. Gaz., 74 (1990), 31-33.",
				"Simone Rinaldi and D. G. Rogers, \u003ca href=\"http://www.jstor.org/stable/27821767\"\u003eIndecomposability: polyominoes and polyomino tilings\u003c/a\u003e, The Mathematical Gazette 92.524 (2008): 193-204."
			],
			"example": [
				"Triangle begins:",
				"1",
				"0,1,2,1,1",
				"0,0,2,5,12,6,5,1,1",
				"0,0,0,5,12,35,108,73,76,80,25,15,15",
				"0,0,0,0,12,35,108,369,1285,1044,1475,2205,2643,983,1050,1208,958",
				"0,0,0,0,0,35,108,369,1285,4655,17073,15980,26548,48766,79579,99860,45898,60433,89890,109424,84312",
				"0,0,0,0,0,0,108,369,1285,4655,17073,63600,238591,245955,458397,948201,1857965,3160371,4153971,2217787,3402761,5855953,9067535,11402651,9170285",
				"0,0,0,0,0,0,0,369,1285,4655,17073,63600,238591,901971,3426576,3807508,7710844,17354771,37983463,..."
			],
			"xref": [
				"Row sums give A125709. Cf. A125759, A125761, A126742, A126743."
			],
			"keyword": "nonn,tabf",
			"offset": "1,4",
			"author": "_David Applegate_ and _N. J. A. Sloane_, Feb 04 2007, Feb 14 2007",
			"ext": [
				"Rows 5, 6, 7 and 8 from _David Applegate_, Feb 16 2007"
			],
			"references": 5,
			"revision": 9,
			"time": "2019-01-23T20:00:53-05:00",
			"created": "2007-05-11T03:00:00-04:00"
		}
	]
}