{
	"greeting": "Greetings from The On-Line Encyclopedia of Integer Sequences! http://oeis.org/",
	"query": "id:A125997",
	"count": 1,
	"start": 0,
	"results": [
		{
			"number": 125997,
			"data": "9,25,73,89,521,537,585,601,2057,2073,2121,2137,2569,2585,2633,2649,4105,4121,4169,4185,4617,4633,4681,4697,6153,6169,6217,6233,6665,6681,6729,6745,8201,8217,8265,8281,8713,8729,8777,8793,10249,10265",
			"name": "A106486-encodings of combinatorial games equivalent to game {0|1}.",
			"comment": [
				"These are codes for games which belong to the same equivalence class as the game {0|1} (game 1/2)."
			],
			"link": [
				"A. Karttunen, \u003ca href=\"/A126000/a126000.scm.txt\"\u003eScheme-program for computing this sequence.\u003c/a\u003e"
			],
			"example": [
				"Game {0|1} is encoded as 2^(2*0) + 2^(1+2*1) = 9, thus 9 is the first term of this sequence. Also 25 (= 2^(2*2) + 2^(2*0) + 2^(1+2*1)) belongs into this sequence, as it encodes game {-1,0|1}, where, as the option -1 is dominated by option 0, the former can be deleted, resulting the same game {0|1}."
			],
			"xref": [
				"Row 7 of A126000."
			],
			"keyword": "nonn",
			"offset": "1,1",
			"author": "_Antti Karttunen_, Dec 18 2006",
			"references": 1,
			"revision": 4,
			"time": "2012-03-31T13:21:13-04:00",
			"created": "2007-01-12T03:00:00-05:00"
		}
	]
}