{
	"greeting": "Greetings from The On-Line Encyclopedia of Integer Sequences! http://oeis.org/",
	"query": "id:A125968",
	"count": 1,
	"start": 0,
	"results": [
		{
			"number": 125968,
			"data": "7,9,20,40,49,56,59,74,77,114,125,140,146,170,180,192,214,295,301,339,344,349,387,397,416,431,435,447,455,462,482,499,506,525,564,566,582,600,611,625,634,642,676,679,691,699,700,716,719,740,769,780,792,807,819",
			"name": "Numbers k for which k^11+k^10-1 is prime.",
			"link": [
				"Amiram Eldar, \u003ca href=\"/A125968/b125968.txt\"\u003eTable of n, a(n) for n = 1..10000\u003c/a\u003e"
			],
			"mathematica": [
				"Do[If[PrimeQ[x^11 + x^10 - 1], Print[x]], {x, 1, 400}]"
			],
			"program": [
				"(PARI) is(n)=isprime(n^11+n^10-1) \\\\ _Charles R Greathouse IV_, May 15 2013"
			],
			"xref": [
				"Cf. A000040, A045546, A125881-A125885, A125965-A125973."
			],
			"keyword": "nonn",
			"offset": "1,1",
			"author": "_Artur Jasinski_, Dec 14 2006",
			"ext": [
				"More terms from _Amiram Eldar_, Mar 18 2020"
			],
			"references": 1,
			"revision": 9,
			"time": "2020-03-18T07:30:44-04:00",
			"created": "2007-01-12T03:00:00-05:00"
		}
	]
}