{
	"greeting": "Greetings from The On-Line Encyclopedia of Integer Sequences! http://oeis.org/",
	"query": "id:A125833",
	"count": 1,
	"start": 0,
	"results": [
		{
			"number": 125833,
			"data": "0,3,18,93,468,2343,11718,58593,292968,1464843,7324218,36621093,183105468,915527343,4577636718,22888183593,114440917968,572204589843,2861022949218,14305114746093,71525573730468,357627868652343",
			"name": "Numbers whose base 5 representation is 333333.......3.",
			"link": [
				"G. C. Greubel, \u003ca href=\"/A125833/b125833.txt\"\u003eTable of n, a(n) for n = 0..1000\u003c/a\u003e",
				"\u003ca href=\"/index/Rec#order_02\"\u003eIndex entries for linear recurrences with constant coefficients\u003c/a\u003e, signature (6,-5)."
			],
			"formula": [
				"a(n) = 3*(5^n -1)/4.",
				"a(n) = 5*a(n-1) +3 for n\u003e0, a(0)=0. - _Vincenzo Librandi_, Sep 30 2010",
				"From _G. C. Greubel_, Aug 03 2019: (Start)",
				"a(n) = 3*A003463(n).",
				"G.f.: 3*x/((1-x)*(1-5*x)).",
				"E.g.f.: 3*(exp(5*x) - exp(x))/4. (End)"
			],
			"example": [
				"Base 5.................decimal",
				"0.........................0",
				"3.........................3",
				"33.......................18",
				"333......................93",
				"3333....................468",
				"33333..................2343",
				"333333................11718",
				"3333333...............58593",
				"33333333.............292968, etc."
			],
			"maple": [
				"seq(3*(5^n-1)/4, n=0..30);"
			],
			"mathematica": [
				"Table[FromDigits[PadRight[{},n,3],5],{n,0,30}] (* or *) LinearRecurrence[ {6,-5},{0,3},30] (* _Harvey P. Dale_, Sep 23 2016 *)",
				"3*(5^Range[0,30] -1)/4 (* _G. C. Greubel_, Aug 03 2019 *)"
			],
			"program": [
				"(PARI) vector(30, n, n--; 3*(5^n -1)/4) \\\\ _G. C. Greubel_, Aug 03 2019",
				"(MAGMA) [3*(5^n -1)/4: n in [0..30]]; // _G. C. Greubel_, Aug 03 2019",
				"(Sage) [3*(5^n -1)/4 for n in (0..30)] # _G. C. Greubel_, Aug 03 2019",
				"(GAP) List([0..30], n-\u003e 3*(5^n -1)/4); _G. C. Greubel_, Aug 03 2019"
			],
			"xref": [
				"Cf. A003463."
			],
			"keyword": "nonn,easy",
			"offset": "0,2",
			"author": "_Zerinvary Lajos_, Feb 03 2007",
			"references": 5,
			"revision": 17,
			"time": "2019-08-03T02:55:06-04:00",
			"created": "2007-05-11T03:00:00-04:00"
		}
	]
}