{
	"greeting": "Greetings from The On-Line Encyclopedia of Integer Sequences! http://oeis.org/",
	"query": "id:A125614",
	"count": 1,
	"start": 0,
	"results": [
		{
			"number": 125614,
			"data": "3,12,27,48,46,48,139,106,229,286,276,239,469,477,627,698,574,914,823,1003,1350,1612,1713,1485,1721,2007,2172,2339,2500,3190,2977,3733,3234,4155,4306,3688,5023,4848,5529,4791,6356,6517,5655,7051,7452,7964,8845",
			"name": "(Sum of the squares of the quadratic residues of prime(n)) / prime(n).",
			"comment": [
				"Always an integer for primes \u003e 5."
			],
			"reference": [
				"D. M. Burton, Elementary Number Theory, McGraw-Hill, Sixth Edition (2007), p. 185."
			],
			"link": [
				"N. Hobson, \u003ca href=\"/A125614/b125614.txt\"\u003eTable of n, a(n) for n = 4..1003\u003c/a\u003e",
				"N. Hobson, \u003ca href=\"http://www.qbyte.org/puzzles/\"\u003eHome page (listed in lieu of email address)\u003c/a\u003e"
			],
			"formula": [
				"a(n) = A125613(n)/prime(n)."
			],
			"example": [
				"The quadratic residues of 7=prime(4) are 1, 2 and 4. Hence a(4) = (1^2 + 2^2 + 4^2)/7 = 3."
			],
			"program": [
				"(PARI) vector(47, m, p=prime(m+3); t=1; for(i=2, (p-1)/2, t+=((i^2)%p)^2); t/p)"
			],
			"xref": [
				"Cf. A076409, A076410, A125613-A125618."
			],
			"keyword": "easy,nonn",
			"offset": "4,1",
			"author": "Nick Hobson, Nov 30 2006",
			"references": 1,
			"revision": 6,
			"time": "2020-02-22T15:00:37-05:00",
			"created": "2006-12-06T03:00:00-05:00"
		}
	]
}