{
	"greeting": "Greetings from The On-Line Encyclopedia of Integer Sequences! http://oeis.org/",
	"query": "id:A126995",
	"count": 1,
	"start": 0,
	"results": [
		{
			"number": 126995,
			"data": "1,10,35,165,286,680,969,1771,3654,4495,7770,10660,12341,16215,23426,32509,35990,47905,57155,62196,79079,91881,113564,147440,166650,176851,198485,209934,234136,333375,366145,419220,437989,540274,562475,632710,708561,762355",
			"name": "a(n) = binomial(prime(n+2), 3).",
			"link": [
				"Vincenzo Librandi, \u003ca href=\"/A126995/b126995.txt\"\u003eTable of n, a(n) for n = 0..1000\u003c/a\u003e"
			],
			"formula": [
				"a(n) ~ (n log n)^3 / 6. - _Charles R Greathouse IV_, May 10 2017"
			],
			"mathematica": [
				"Table[Binomial[Prime[n + 2], Prime[2]], {n, 1, 40}]",
				"Table[Binomial[Prime[n], 3], {n, 3, 40}] (* _Vincenzo Librandi_, May 10 2017 *)"
			],
			"program": [
				"(MAGMA) [Binomial(NthPrime(n), 3): n in [3..40]]; // _Vincenzo Librandi_, May 10 2017",
				"(PARI) a(n)=binomial(prime(n+2),3) \\\\ _Charles R Greathouse IV_, May 10 2017",
				"(Sage) [binomial(nth_prime(n+2), 3) for n in (1..40)] # _G. C. Greubel_, May 29 2019"
			],
			"xref": [
				"Cf. A008837, A058077, A125550, A126993, A126994, A126996, A126997, A126998."
			],
			"keyword": "nonn,easy",
			"offset": "0,2",
			"author": "_Artur Jasinski_, Jan 01 2007",
			"ext": [
				"Missing n=0 term added by _N. J. A. Sloane_, May 17 2020"
			],
			"references": 7,
			"revision": 19,
			"time": "2021-11-29T14:07:59-05:00",
			"created": "2007-01-12T03:00:00-05:00"
		}
	]
}