{
	"greeting": "Greetings from The On-Line Encyclopedia of Integer Sequences! http://oeis.org/",
	"query": "id:A126260",
	"count": 1,
	"start": 0,
	"results": [
		{
			"number": 126260,
			"data": "1,1,2,1,2,3,1,2,4,1,2,3,4,5,1,2,6,1,2,3,4,5,6,7,1,2,4,6,8,1,2,3,6,9,1,2,4,10,1,2,3,4,5,6,7,8,9,10,11,1,2,6,12,1,2,3,4,5,6,7,8,9,10,11,12,13,1,2,4,6,14,1,2,3,15,1,2,4,6,8,10,12,14,16,1,2,3,4,5,6,7,8,9,10,11,12",
			"name": "Irregular triangle read by rows where row n contains the positive integers k, k\u003c=n, where every positive integer \u003c=k and coprime to k is also coprime to n.",
			"comment": [
				"The first term of each row is 1. The second term of each row, except for row 1, is 2. The last term of row n is n."
			],
			"link": [
				"Michael De Vlieger, \u003ca href=\"/A126260/b126260.txt\"\u003eTable of n, a(n) for n = 1..12325\u003c/a\u003e (rows 1 \u003c= n \u003c= 300)."
			],
			"example": [
				"Table begins:",
				"1",
				"1,2",
				"1,2,3",
				"1,2,4",
				"1,2,3,4,5",
				"1,2,6",
				"...",
				"Row 10 is (1,2,4,10) because the positive integers \u003c=1 and coprime to 1 are {1}, for 2 they are {1}, for 4 they are {1,3}, for 10 they are {1,3,7, 9}; and 1,1,1,3,1,3,7,9 are each coprime to 10."
			],
			"mathematica": [
				"f[n_] := Select[Range[n], GCD[ #, n] == 1 \u0026];g[n_] := Select[Range[n], Times @@ GCD[f[ # ], n] == 1 \u0026];Flatten@Table[g[n], {n, 17}] (* _Ray Chandler_, Dec 24 2006 *)",
				"Table[Select[Range@ n, Function[k, AllTrue[Select[Range@ k, CoprimeQ[#, k] \u0026], CoprimeQ[#, n] \u0026]]], {n, 17}] // Flatten (* _Michael De Vlieger_, Aug 21 2017 *)"
			],
			"keyword": "nonn,tabf",
			"offset": "1,3",
			"author": "_Leroy Quet_, Dec 22 2006",
			"ext": [
				"Extended by _Ray Chandler_, Dec 24 2006"
			],
			"references": 6,
			"revision": 13,
			"time": "2019-10-10T13:55:16-04:00",
			"created": "2007-01-12T03:00:00-05:00"
		}
	]
}