{
	"greeting": "Greetings from The On-Line Encyclopedia of Integer Sequences! http://oeis.org/",
	"query": "id:A126487",
	"count": 1,
	"start": 0,
	"results": [
		{
			"number": 126487,
			"data": "1,19,121,791,5217,34587,230033,1533159,10233063,68367029,457062389,3057032825,20453043685,136869404619,916044100681,6131521065627,41043887722493,274756556545945,1839334652522085,12313523619477007",
			"name": "Number of base 19 n-digit numbers with adjacent digits differing by three or less.",
			"comment": [
				"[Empirical] a(base,n)=a(base-1,n)+7^(n-1) for base\u003e=3n-2; a(base,n)=a(base-1,n)+7^(n-1)-2 when base=3n-3."
			],
			"formula": [
				"G.f.: (1+8*x-64*x^2-36*x^3+236*x^4+91*x^5-231*x^6-80*x^7+63*x^8+18*x^9) / (1-11*x+24*x^2+48*x^3-96*x^4-77*x^5+96*x^6+49*x^7-27*x^8-9*x^9) (conjectured). - _Colin Barker_, Jul 18 2017"
			],
			"program": [
				"(S/R) stvar $[N]:(0..M-1) init $[]:=0 asgn $[]-\u003e{*} kill +[i in 0..N-2](($[i]`-$[i+1]`\u003e3)+($[i+1]`-$[i]`\u003e3))"
			],
			"xref": [
				"Cf. Base 19 differing by two or less A126406, one or less A126373."
			],
			"keyword": "nonn,base",
			"offset": "0,2",
			"author": "_R. H. Hardin_, Dec 27 2006",
			"references": 2,
			"revision": 9,
			"time": "2017-07-18T12:26:00-04:00",
			"created": "2007-01-12T03:00:00-05:00"
		}
	]
}