{
	"greeting": "Greetings from The On-Line Encyclopedia of Integer Sequences! http://oeis.org/",
	"query": "id:A126026",
	"count": 1,
	"start": 0,
	"results": [
		{
			"number": 126026,
			"data": "0,1,2,4,5,8,10,13,17,20,24,28,33,38,43,49,55,61,68,75,82,90,97,106,114,123,133,142,152,162,173,184,195,207,219,231,244,257,270,284,297,312,326,341,357,372,388,404,421,438,455,473,491,509,528,547,566",
			"name": "Conjectured upper bound on area of the convex hull of any edge-to-edge connected system of regular unit hexagons (n-polyhexes).",
			"comment": [
				"Kurz proved the polyomino equivalent of this conjecture as A122133 and abstracts: \"In this article we prove a conjecture of Bezdek, Brass and Harborth concerning the maximum volume of the convex hull of any facet-to-facet connected system of n unit hypercubes in the d-dimensional Euclidean space. For d=2 we enumerate the extremal polyominoes and determine the set of possible areas of the convex hull for each n.\""
			],
			"link": [
				"Colin Barker, \u003ca href=\"/A126026/b126026.txt\"\u003eTable of n, a(n) for n = 0..1000\u003c/a\u003e",
				"Sascha Kurz, \u003ca href=\"http://arXiv.org/abs/math.CO/0702786\"\u003eConvex hulls of polyominoes\u003c/a\u003e, arXiv:math/0702786 [math.CO], Feb 26 2007. See conjecture 2, p. 12.",
				"Eric Weisstein's World of Mathematics, \u003ca href=\"http://mathworld.wolfram.com/Polyhex.html\"\u003ePolyhex.\u003c/a\u003e",
				"\u003ca href=\"/index/Rec#order_20\"\u003eIndex entries for linear recurrences with constant coefficients\u003c/a\u003e, signature (2,-1,0,0,0,0,0,0,0,0,0,0,0,0,0,0,0,1,-2,1)."
			],
			"formula": [
				"a(n) = floor((n^2 + 14*n/3 + 1)/6).",
				"G.f.: x*(1 +x^2)*(1 -x^3 +2*x^4 -x^6 +x^7 +x^11 -x^13 +x^14 +x^15 -x^16) / ((1 -x)^3*(1 +x)*(1 -x +x^2)*(1 +x +x^2)*(1 -x^3 +x^6)*(1 +x^3 +x^6)). - _Colin Barker_, Oct 13 2016"
			],
			"example": [
				"a(10) = 24 because floor((10^2 + 14*10/3 + 1)/6) = floor(24.6111111) = 24."
			],
			"mathematica": [
				"Table[Floor[(n^2+14n/3+1)/6],{n,0,80}] (* _Harvey P. Dale_, Apr 11 2012 *)"
			],
			"program": [
				"(PARI) concat(0, Vec(x*(1 +x^2)*(1 -x^3 +2*x^4 -x^6 +x^7 +x^11 -x^13 +x^14 +x^15 -x^16) / ((1 -x)^3*(1 +x)*(1 -x +x^2)*(1 +x +x^2)*(1 -x^3 +x^6)*(1 +x^3 +x^6)) + O(x^50))) \\\\ _Colin Barker_, Oct 13 2016",
				"(PARI) a(n) = (n^2 + 14*n/3 + 1)\\6 \\\\ _Charles R Greathouse IV_, Oct 13 2016"
			],
			"xref": [
				"Cf. A000228, A036359, A002216, A005963, A001998, A018190, A001207, A057973, A122133."
			],
			"keyword": "easy,nonn",
			"offset": "0,3",
			"author": "_Jonathan Vos Post_, Feb 27 2007",
			"ext": [
				"More terms from _Harvey P. Dale_, Apr 11 2012",
				"Offset changed to 0 by _Colin Barker_, Oct 13 2016"
			],
			"references": 1,
			"revision": 22,
			"time": "2016-10-13T13:02:43-04:00",
			"created": "2007-05-11T03:00:00-04:00"
		}
	]
}