{
	"greeting": "Greetings from The On-Line Encyclopedia of Integer Sequences! http://oeis.org/",
	"query": "id:A126799",
	"count": 1,
	"start": 0,
	"results": [
		{
			"number": 126799,
			"data": "1,1,1,1,3,1,1,1,6,1,1,5,5,10,1,1,1,45,5,15,1,1,63,7,35,35,21,1,1,1,14,7,70,14,28,1,1,3,1,42,21,378,42,36,1,1,1,30,5,14175,21,210,30,45,1,1,33,11,2750,110,231,231,330,165,55,1,1,1,198,11,3630,11,462,33,1485,55,66,1",
			"name": "Triangle read by rows, 1 \u003c= m \u003c= n: t(n,m) = gcd(s(n,m), S(n,m)), where s(n,m) is an unsigned Stirling number of the first kind and S(n,m) is a Stirling number of the second kind.",
			"link": [
				"Robert Israel, \u003ca href=\"/A126799/b126799.txt\"\u003eTable of n, a(n) for n = 1..10011\u003c/a\u003e (rows 1 to 141, flattened)"
			],
			"example": [
				"Triangle starts:",
				"  1;",
				"  1,  1;",
				"  1,  3,  1;",
				"  1,  1,  6,  1;",
				"  1,  5,  5, 10,  1;",
				"  1,  1, 45,  5, 15,  1;"
			],
			"maple": [
				"with(combinat): T:=(n,k)-\u003egcd(abs(stirling1(n,k)),stirling2(n,k)): for n from 1 to 13 do seq(T(n,k),k=1..n) od; # yields sequence in triangular form - _Emeric Deutsch_, Feb 25 2007"
			],
			"xref": [
				"Cf. A008275, A008277, A128266 (row sums)."
			],
			"keyword": "nonn,tabl",
			"offset": "1,5",
			"author": "_Leroy Quet_, Feb 21 2007",
			"ext": [
				"More terms from _Emeric Deutsch_, Feb 25 2007"
			],
			"references": 1,
			"revision": 15,
			"time": "2019-08-02T19:24:50-04:00",
			"created": "2007-05-11T03:00:00-04:00"
		}
	]
}