{
	"greeting": "Greetings from The On-Line Encyclopedia of Integer Sequences! http://oeis.org/",
	"query": "id:A126668",
	"count": 1,
	"start": 0,
	"results": [
		{
			"number": 126668,
			"data": "3,5,7,27,31,160",
			"name": "A036983 + A036984.",
			"reference": [
				"P. J. Olver, Classical Invariant Theory, Cambridge Univ. Press, p. 40."
			],
			"keyword": "nonn,more",
			"offset": "2,1",
			"author": "_N. J. A. Sloane_, based on a suggestion from _Roger L. Bagula_, Jan 13, 2007",
			"references": 2,
			"revision": 5,
			"time": "2018-09-24T19:04:33-04:00",
			"created": "2007-05-11T03:00:00-04:00"
		}
	]
}