{
	"greeting": "Greetings from The On-Line Encyclopedia of Integer Sequences! http://oeis.org/",
	"query": "id:A126677",
	"count": 1,
	"start": 0,
	"results": [
		{
			"number": 126677,
			"data": "1,10,850,624750,4228932750,284539511151000,205915553429755680000,1731646846567530390960000000,182269815381165453023977392960000000,257732232581979345367168654620866388480000000,5235508937551175000760375514558779305187938734080000000,1628187052306629700637438618898904208447222949912051474432000000000",
			"name": "Product_{i=4..n} |Stirling_1(i,4)|.",
			"xref": [
				"Partial products of A000454."
			],
			"keyword": "nonn",
			"offset": "4,2",
			"author": "_N. J. A. Sloane_, Feb 13 2007",
			"references": 0,
			"revision": 3,
			"time": "2012-03-30T16:50:37-04:00",
			"created": "2007-05-11T03:00:00-04:00"
		}
	]
}