{
	"greeting": "Greetings from The On-Line Encyclopedia of Integer Sequences! http://oeis.org/",
	"query": "id:A126530",
	"count": 1,
	"start": 0,
	"results": [
		{
			"number": 126530,
			"data": "1,9,69,541,4231,33101,258953,2025831,15848391,123984439,969949627,7588067405,59362636295,464403174075,3633098554089,28422297349753,222352070721709,1739494972761653,13608340819322255,106460175369651261",
			"name": "Number of base 9 n-digit numbers with adjacent digits differing by five or less.",
			"comment": [
				"[Empirical] a(base,n)=a(base-1,n)+11^(n-1) for base\u003e=5n-4; a(base,n)=a(base-1,n)+11^(n-1)-2 when base=5n-5."
			],
			"formula": [
				"Conjectures from _Colin Barker_, Jun 01 2017: (Start)",
				"G.f.: (1 + 2*x - x^2 - x^3) / ((1 + x)*(1 - 8*x + x^2 + 3*x^3)).",
				"a(n) = 7*a(n-1) + 7*a(n-2) - 4*a(n-3) - 3*a(n-4) for n\u003e3.",
				"(End)"
			],
			"program": [
				"(S/R) stvar $[N]:(0..M-1) init $[]:=0 asgn $[]-\u003e{*} kill +[i in 0..N-2](($[i]`-$[i+1]`\u003e5)+($[i+1]`-$[i]`\u003e5))"
			],
			"xref": [
				"Cf. Base 9 differing by four or less A126504, three or less A126477, two or less A126396, one or less A126363."
			],
			"keyword": "nonn,base",
			"offset": "0,2",
			"author": "_R. H. Hardin_, Dec 28 2006",
			"references": 0,
			"revision": 11,
			"time": "2017-06-01T12:06:46-04:00",
			"created": "2007-01-12T03:00:00-05:00"
		}
	]
}