{
	"greeting": "Greetings from The On-Line Encyclopedia of Integer Sequences! http://oeis.org/",
	"query": "id:A126576",
	"count": 1,
	"start": 0,
	"results": [
		{
			"number": 126576,
			"data": "1,6,60,140,630,31416,34580,91080,1093950,58549260,6702696,61910940,2379795600,1197892080,21742542360,21741799002768,143830236550,2559047531040,38886283310,333903908520,24063048428483064",
			"name": "a(n) = denominator of the sum of reciprocals of the terms in n-th row of triangle A126571.",
			"example": [
				"Row 4 of triangle A126571 is (4,7,5,7).",
				"So a(4) is the denominator of 1/4 +1/7 +1/5 + 1/7 = 103/84."
			],
			"mathematica": [
				"f[m_, n_] := Block[{k = 0, c = n},While[c \u003e 0,k++;While[GCD[k, m] \u003e 1, k++ ];c--;];k];Table[Denominator@Sum[1/f[m, n], {m, n}], {n, 22}] (* _Ray Chandler_, Dec 29 2006 *)"
			],
			"xref": [
				"Cf. A126571, A126575."
			],
			"keyword": "frac,nonn",
			"offset": "1,2",
			"author": "_Leroy Quet_, Dec 28 2006",
			"ext": [
				"Extended by _Ray Chandler_, Dec 29 2006"
			],
			"references": 1,
			"revision": 10,
			"time": "2019-10-10T13:46:48-04:00",
			"created": "2007-01-12T03:00:00-05:00"
		}
	]
}