{
	"greeting": "Greetings from The On-Line Encyclopedia of Integer Sequences! http://oeis.org/",
	"query": "id:A126065",
	"count": 1,
	"start": 0,
	"results": [
		{
			"number": 126065,
			"data": "1,1,1,1,4,1,1,9,13,1,1,16,61,41,1,1,25,181,381,131,1,1,36,421,1821,2332,428,1,1,49,841,6105,17557,14337,1429,1,1,64,1513,16465,83029,167449,89497,4861,1,1,81,2521,38281,296326,1100902,1604098,569794,16795,1",
			"name": "Triangle of numbers read by rows: T(n,k) = number of permutations sigma of (1,2,...,n) with n - {length of longest increasing subsequence in sigma} = k (0\u003c=k\u003c=n-1).",
			"comment": [
				"T(n,k) is the number of permutations in S_n with Ulam distance from the identity equal to k.",
				"Mirror image of triangle in A047874."
			],
			"reference": [
				"P. Diaconis, Group Representations in Probability and Statistics, IMS, 1988; see p. 112.",
				"See A047874 for further references, etc."
			],
			"link": [
				"Alois P. Heinz, \u003ca href=\"/A126065/b126065.txt\"\u003eRows n = 1..60, flattened\u003c/a\u003e",
				"E. Irurozki, \u003ca href=\"http://www.sc.ehu.es/ccwbayes/members/ekhine/thesis_irurozki.pdf\"\u003eSampling and learning distance-based probability models for permutation spaces\u003c/a\u003e, PhD Dissertation, Department of Computer Science and Artificial Intelligence of the University of the Basque Country, 2015.",
				"E. Irurozki, B. Calvo, J. Ceberio, and J. A. Lozano, \u003ca href=\"http://www.sc.ehu.es/ccwbayes/members/ekhine/papers/Irurozki_et_al.pdf\"\u003eMallows model under the Ulam distance: a feasible combinatorial approach\u003c/a\u003e, 2014.",
				"Ekhine Irurozki, B. Calvo, J. A. Lozano, \u003ca href=\"http://dx.doi.org/10.18637/jss.v071.i12\"\u003ePerMallows: An R Package for Mallows and Generalized Mallows Models\u003c/a\u003e, Journal of Statistical Software, August 2016, Volume 71, Issue 12. doi: 10.18637/jss.v071.i12"
			],
			"example": [
				"Triangle T(n,k) begins:",
				"1;",
				"1,   1;",
				"1,   4,    1;",
				"1,  13,    9,    1;",
				"1,  41,   61,   16,   1;",
				"1, 131,  381,  181,  25,  1;",
				"1, 428, 2332, 1821, 421, 36, 1;"
			],
			"xref": [
				"T(2n,n) gives A267433."
			],
			"keyword": "nonn,tabl",
			"offset": "1,5",
			"author": "_N. J. A. Sloane_, Mar 01 2007",
			"references": 3,
			"revision": 26,
			"time": "2020-09-28T21:47:22-04:00",
			"created": "2007-05-11T03:00:00-04:00"
		}
	]
}