{
	"greeting": "Greetings from The On-Line Encyclopedia of Integer Sequences! http://oeis.org/",
	"query": "id:A126742",
	"count": 1,
	"start": 0,
	"results": [
		{
			"number": 126742,
			"data": "0,2,13,284,13375,660690,51941832",
			"name": "Number of n-indecomposable polyominoes with at least 2n cells.",
			"comment": [
				"A polyomino is called n-indecomposable if it cannot be partitioned (along cell boundaries) into two or more polyominoes each with at least n cells.",
				"For full lists of drawings of these polyominoes for n \u003c= 6, see the links in A125759."
			],
			"link": [
				"N. MacKinnon, \u003ca href=\"http://www.jstor.org/stable/3618845\"\u003eSome thoughts on polyomino tilings\u003c/a\u003e, Math. Gaz., 74 (1990), 31-33.",
				"Simone Rinaldi and D. G. Rogers, \u003ca href=\"http://www.jstor.org/stable/27821767\"\u003eIndecomposability: polyominoes and polyomino tilings\u003c/a\u003e, The Mathematical Gazette 92.524 (2008): 193-204."
			],
			"example": [
				"The five 2-indecomposable polyominoes:",
				"...................X.",
				"XX..XXX..XX..XXX..XXX",
				"..........X...X....X.",
				"Only the last two have \u003e= 4 cells, so a(2) = 2."
			],
			"xref": [
				"Row sums of A126743. Cf. A000105, A125759, A125761, A125709, A125753."
			],
			"keyword": "nonn,more",
			"offset": "1,2",
			"author": "_David Applegate_ and _N. J. A. Sloane_, Feb 01 2007",
			"ext": [
				"a(4) and a(5) from Peter Pleasants, Feb 13 2007",
				"a(6) and a(7) from _David Applegate_, Feb 16 2007"
			],
			"references": 5,
			"revision": 9,
			"time": "2019-01-23T20:01:07-05:00",
			"created": "2007-05-11T03:00:00-04:00"
		}
	]
}