{
	"greeting": "Greetings from The On-Line Encyclopedia of Integer Sequences! http://oeis.org/",
	"query": "id:A126831",
	"count": 1,
	"start": 0,
	"results": [
		{
			"number": 126831,
			"data": "1,2163,252,715,456,513,752,1374,81,2178,984,846,1817,1635,1188,799,612,243,1982,177,1422,441,1284,702,1195,132,729,1865,1299,2106,1313,1224,837,621,1740,1053,965,546,801,1062,573,864,689,1533,1944,1989,75,144,264,1938",
			"name": "Ramanujan numbers (A000594) read mod 2187.",
			"reference": [
				"H. P. F. Swinnerton-Dyer, On l-adic representations and congruences for coefficients, of modular forms, pp. 1-55 of Modular Functions of One Variable III (Antwerp 1972), Lect. Notes Math., 350, 1973."
			],
			"mathematica": [
				"Mod[RamanujanTau[Range[50]],2187] (* _Harvey P. Dale_, Jan 15 2022 *)"
			],
			"xref": [
				"Cf. A000594."
			],
			"keyword": "nonn,changed",
			"offset": "1,2",
			"author": "_N. J. A. Sloane_, Feb 25 2007",
			"references": 0,
			"revision": 5,
			"time": "2022-01-15T13:56:04-05:00",
			"created": "2007-05-11T03:00:00-04:00"
		}
	]
}