{
	"greeting": "Greetings from The On-Line Encyclopedia of Integer Sequences! http://oeis.org/",
	"query": "id:A126756",
	"count": 1,
	"start": 0,
	"results": [
		{
			"number": 126756,
			"data": "0,0,0,0,1,1,8,36,269,2418,29216,458445,9373692,249530113",
			"name": "Number of biconnected triangle-free graphs on n nodes with chromatic number 3.",
			"comment": [
				"It is possible that the definition should say \"connected\" rather than \"biconnected\". Should be rechecked! - _Max Alekseyev_ and _Brendan McKay_, Jun 17 2008"
			],
			"link": [
				"Keith M. Briggs, \u003ca href=\"http://keithbriggs.info/cgt.html\"\u003eCombinatorial Graph Theory\u003c/a\u003e"
			],
			"keyword": "nonn,more",
			"offset": "1,7",
			"author": "_N. J. A. Sloane_, Feb 18 2007",
			"references": 0,
			"revision": 8,
			"time": "2015-07-22T04:07:17-04:00",
			"created": "2007-05-11T03:00:00-04:00"
		}
	]
}