{
	"greeting": "Greetings from The On-Line Encyclopedia of Integer Sequences! http://oeis.org/",
	"query": "id:A126901",
	"count": 1,
	"start": 0,
	"results": [
		{
			"number": 126901,
			"data": "1,20,200,1300,6180,23100,71720,192700,461800,1009380,2046200,3896420,7038700,12156300,20197080,32444300,50599120,76875700,114109800,165881780,236654900,331929820,458416200,624222300,839063480,1114490500,1464138520,1903997700",
			"name": "Coordination sequence for 8-dimensional cyclotomic lattice Z[zeta_20].",
			"link": [
				"M. Beck and S. Hosten, \u003ca href=\"http://arxiv.org/abs/math/0508136\"\u003eCyclotomic polytopes and growth series of cyclotomic lattices\u003c/a\u003e, arXiv math.CO/0508136"
			],
			"formula": [
				"G.f.: (x^4+6*x^3+16*x^2+6*x+1)^2/(1-x)^8."
			],
			"mathematica": [
				"CoefficientList[Series[(x^4+6x^3+16x^2+6x+1)^2/(1-x)^8,{x,0,40}],x] (* _Harvey P. Dale_, Jun 23 2013 *)"
			],
			"keyword": "nonn",
			"offset": "0,2",
			"author": "_N. J. A. Sloane_, Mar 17 2007",
			"references": 0,
			"revision": 7,
			"time": "2014-03-14T16:42:45-04:00",
			"created": "2007-05-11T03:00:00-04:00"
		}
	]
}