{
	"greeting": "Greetings from The On-Line Encyclopedia of Integer Sequences! http://oeis.org/",
	"query": "id:A126407",
	"count": 1,
	"start": 0,
	"results": [
		{
			"number": 126407,
			"data": "1,20,94,450,2168,10486,50848,247024,1201730,5852530,28526860,139144760,679090456,3315836420,16196773236,79141717426,386812618952,1891013450430,9246370600422,45218609940844,221167392509842",
			"name": "Number of base 20 n-digit numbers with adjacent digits differing by two or less.",
			"comment": [
				"[Empirical] a(base,n)=a(base-1,n)+5^(n-1) for base\u003e=2n-1; a(base,n)=a(base-1,n)+5^(n-1)-2 when base=2n-2"
			],
			"program": [
				"(S/R) stvar $[N]:(0..M-1) init $[]:=0 asgn $[]-\u003e{*} kill +[i in 0..N-2](($[i]`-$[i+1]`\u003e2)+($[i+1]`-$[i]`\u003e2))"
			],
			"xref": [
				"Cf. Base 20 differing by one or less A126374."
			],
			"keyword": "nonn,base",
			"offset": "0,2",
			"author": "_R. H. Hardin_, Dec 28 2006",
			"references": 3,
			"revision": 5,
			"time": "2012-03-31T12:35:05-04:00",
			"created": "2007-01-12T03:00:00-05:00"
		}
	]
}