{
	"greeting": "Greetings from The On-Line Encyclopedia of Integer Sequences! http://oeis.org/",
	"query": "id:A126116",
	"count": 1,
	"start": 0,
	"results": [
		{
			"number": 126116,
			"data": "1,1,1,1,3,5,7,11,19,31,49,79,129,209,337,545,883,1429,2311,3739,6051,9791,15841,25631,41473,67105,108577,175681,284259,459941,744199,1204139,1948339,3152479,5100817,8253295,13354113,21607409,34961521",
			"name": "a(n) = a(n-1) + a(n-3) + a(n-4), with a(0)=a(1)=a(2)=a(3)=1.",
			"comment": [
				"This sequence has the same growth rate as the Fibonacci sequence, since x^4 - x^3 - x - 1 has the real roots phi and -1/phi.",
				"The Ca1 sums, see A180662 for the definition of these sums, of triangle A035607 equal the terms of this sequence without the first term. - _Johannes W. Meijer_, Aug 05 2011"
			],
			"reference": [
				"S. Wolfram, A New Kind of Science. Champaign, IL: Wolfram Media, pp. 82-92, 2002"
			],
			"link": [
				"Seiichi Manyama, \u003ca href=\"/A126116/b126116.txt\"\u003eTable of n, a(n) for n = 0..4786\u003c/a\u003e",
				"K. T. Atanassov, D. R. Deford, A. G. Shannon, \u003ca href=\"http://www.fq.math.ca/Papers1/52-5/Atanassov.pdf\"\u003ePulsated Fibonacci recurrences\u003c/a\u003e, Fibonacci Quarterly, Vol. 52, No. 5, Dec. 2014, pp. 22-27.",
				"Kelley L. Ross, \u003ca href=\"http://www.friesian.com/golden.htm\"\u003eThe Golden Ratio and The Fibonacci Numbers\u003c/a\u003e",
				"Eric Weisstein's World of Mathematics, \u003ca href=\"http://mathworld.wolfram.com/GoldenRatio.html\"\u003eMathWorld: Golden Ratio\u003c/a\u003e",
				"Wikipedia, \u003ca href=\"http://en.wikipedia.org/wiki/Golden_ratio\"\u003eGolden Ratio\u003c/a\u003e",
				"\u003ca href=\"/index/Rec#order_04\"\u003eIndex entries for linear recurrences with constant coefficients\u003c/a\u003e, signature (1,0,1,1). [From _R. J. Mathar_, Jul 22 2010]"
			],
			"formula": [
				"From _R. J. Mathar_, Jul 22 2010: (Start)",
				"G.f.: (1-x)*(1+x+x^2)/((1-x-x^2)*(1+x^2)).",
				"a(n) = ( (-1)^floor(n/2) * A010684(n) + 2*A000032(n))/5.",
				"a(2*n) = A061646(n). (End)",
				"From _Johannes W. Meijer_, Aug 05 2011: (Start)",
				"a(n) = F(n-1) + A070550(n-4) with F(n) = A000045(n).",
				"a(n) = F(n-1) + F(floor((n-4)/2) + 1)*F(ceiling((n-4)/2) + 2). (End)",
				"a(n) = (1/5)*((sqrt(5)-1)*(1/2*(1+sqrt(5)))^n - (1+sqrt(5))*(1/2*(1-sqrt(5)))^n + sin((Pi*n)/2) - 3*cos((Pi*n)/2)). - _Harvey P. Dale_, Nov 08 2011",
				"(-1)^n * a(-n) = a(n) = F(n) - A070550(n - 6). - _Michael Somos_, Feb 05 2012",
				"a(n)^2 + 3*a(n-2)^2 + 6*a(n-5)^2 + 3*a(n-7)^2 = a(n-8)^2 + 3*a(n-6)^2 + 6*a(n-3)^2 + 3*a(n-1)^2. - _Greg Dresden_, Jul 07 2021"
			],
			"example": [
				"G.f. = 1 + x + x^2 + x^3 + 3*x^4 + 5*x^5 + 7*x^6 + 11*x^7 + 19*x^8 + 31*x^9 + ..."
			],
			"maple": [
				"# From _R. J. Mathar_, Jul 22 2010: (Start)",
				"A010684 := proc(n) 1+2*(n mod 2) ; end proc:",
				"A000032 := proc(n) coeftayl((2-x)/(1-x-x^2),x=0,n) ; end proc:",
				"A126116 := proc(n) ((-1)^floor(n/2)*A010684(n)+2*A000032(n))/5 ; end proc: seq(A126116(n),n=0..80) ; # (End)",
				"with(combinat): A126116 := proc(n): fibonacci(n-1) + fibonacci(floor((n-4)/2)+1)* fibonacci(ceil((n-4)/2)+2) end: seq(A126116(n), n=0..38); # _Johannes W. Meijer_, Aug 05 2011"
			],
			"mathematica": [
				"LinearRecurrence[{1,0,1,1},{1,1,1,1},50] (* _Harvey P. Dale_, Nov 08 2011 *)"
			],
			"program": [
				"(PARI) Vec((x-1)*(1+x+x^2)/((x^2+x-1)*(x^2+1)) + O(x^50)) \\\\ _Altug Alkan_, Dec 25 2015",
				"(MAGMA) [n le 4 select 1 else Self(n-1) + Self(n-3) + Self(n-4): n in [1..50]]; // _Vincenzo Librandi_, Dec 25 2015",
				"(Sage) ((1-x)*(1+x+x^2)/((1-x-x^2)*(1+x^2))).series(x, 50).coefficients(x, sparse=False) # _G. C. Greubel_, Jul 15 2019",
				"(GAP) a:=[1,1,1,1];; for n in [5..50] do a[n]:=a[n-1]+a[n-3]+a[n-4]; od; a; # _G. C. Greubel_, Jul 15 2019"
			],
			"xref": [
				"Cf. Fibonacci numbers A000045; Lucas numbers A000032; tribonacci numbers A000213; tetranacci numbers A000288; pentanacci numbers A000322; hexanacci numbers A000383; 7th-order Fibonacci numbers A060455; octanacci numbers A079262; 9th-order Fibonacci sequence A127193; 10th-order Fibonacci sequence A127194; 11th-order Fibonacci sequence A127624, A128429."
			],
			"keyword": "nonn",
			"offset": "0,5",
			"author": "Luis A Restrepo (luisiii(AT)mac.com), Mar 05 2007",
			"ext": [
				"Edited by _Don Reble_, Mar 09 2007"
			],
			"references": 6,
			"revision": 56,
			"time": "2021-07-21T08:45:46-04:00",
			"created": "2007-05-11T03:00:00-04:00"
		}
	]
}