{
	"greeting": "Greetings from The On-Line Encyclopedia of Integer Sequences! http://oeis.org/",
	"query": "id:A126121",
	"count": 1,
	"start": 0,
	"results": [
		{
			"number": 126121,
			"data": "1,5,31,255,2577,31245,439695,7072695,127699425,2562270165,56484554175,1358576240175,35374065613425,992016072172125,29792674421484975,954480422711190375,32479589325536978625,1170329273010701929125,44502357662442514209375,1781390379962467540641375",
			"name": "Numerators of sequence of fractions with e.g.f. sqrt(1+x)/(1-x)^2.",
			"comment": [
				"Denominators are successive powers of 2."
			],
			"link": [
				"G. C. Greubel, \u003ca href=\"/A126121/b126121.txt\"\u003eTable of n, a(n) for n = 0..400\u003c/a\u003e"
			],
			"formula": [
				"E.g.f.: 1/G(0) where G(k) = 1 - 4*x/(1 + x/(1 - x - (2*k+1)/( 2*k+1 - 4*(k+1)*x/G(k+1)))); (continued fraction, 3rd kind, 4-step). - _Sergei N. Gladkovskii_, Jul 28 2012",
				"From _Benedict W. J. Irwin_, May 19 2016: (Start)",
				"E.g.f.: sqrt(1+2*x)/(1-2*x)^2.",
				"a(n) = (-1)^(n+1)*2^(n-1)*(n-3/2)!*2F1(2,-n;(3/2)-n;-1)/sqrt(Pi).",
				"(End)",
				"D-finite with recurrence a(n) -5*a(n-1) -2*(2*n-1)*(n-1)*a(n-2)=0. - _R. J. Mathar_, Feb 08 2021"
			],
			"example": [
				"The fractions are 1, 5/2, 31/4, 255/8, 2577/16, 31245/32, 439695/64, ..."
			],
			"mathematica": [
				"With[{nn=20},Numerator[CoefficientList[Series[Sqrt[1+x]/(1-x)^2,{x, 0, nn}], x] Range[0,nn]!]] (* _Harvey P. Dale_, Jan 29 2016 *)"
			],
			"program": [
				"(PARI) x='x+O('x^25); Vec(serlaplace(sqrt(1+2*x)/(1-2*x)^2)) \\\\ _G. C. Greubel_, May 25 2017"
			],
			"xref": [
				"Cf. A003148, A001174, A126115, A126119."
			],
			"keyword": "nonn,frac",
			"offset": "0,2",
			"author": "_N. J. A. Sloane_, Mar 22 2007",
			"references": 1,
			"revision": 26,
			"time": "2021-02-08T07:15:22-05:00",
			"created": "2007-05-11T03:00:00-04:00"
		}
	]
}