{
	"greeting": "Greetings from The On-Line Encyclopedia of Integer Sequences! http://oeis.org/",
	"query": "id:A126767",
	"count": 1,
	"start": 0,
	"results": [
		{
			"number": 126767,
			"data": "52,28,33,63,73,23,56,89",
			"name": "Map the sentence \"What is the next number in this sequence?\" to numbers by translating each letter to its position in the alphabet (a -\u003e 1, b -\u003e 2, ..., z -\u003e 26) and then adding the numbers corresponding to the letters in each word.",
			"link": [
				"P. Bogg, \u003ca href=\"http://answers.yahoo.com/question/index?qid=20070215040851AAtJxmz\"\u003eAnswers.yahoo.com\u003c/a\u003e",
				"K. Kay, \u003ca href=\"http://www.askmehelpdesk.com/mathematics/puzzling-number-sequence-63685.html\"\u003eAsk Me Help Desk\u003c/a\u003e Feb 17, 2007."
			],
			"example": [
				"What -\u003e 23 + 8 + 1 + 20 = 52",
				"is -\u003e 9 + 19 = 28",
				"...",
				"this -\u003e 20 + 8 + 9 + 19 = 56",
				"sequence -\u003e 19 + 5 + 17 +21 +5 + 14 + 3 + 5 = 89."
			],
			"keyword": "nonn,dumb,fini,full",
			"offset": "1,1",
			"author": "James R FitzSimons (cherry(AT)getnet.net) and Troy (bassist555774(AT)yahoo.com), Feb 16 2007",
			"ext": [
				"Explanation sent by _R. J. Mathar_, Feb 25 2007"
			],
			"references": 0,
			"revision": 3,
			"time": "2012-03-30T17:39:18-04:00",
			"created": "2007-05-11T03:00:00-04:00"
		}
	]
}