{
	"greeting": "Greetings from The On-Line Encyclopedia of Integer Sequences! http://oeis.org/",
	"query": "id:A126271",
	"count": 1,
	"start": 0,
	"results": [
		{
			"number": 126271,
			"data": "32,32,16,32,32,32,32,32,32,16,32,32,32,16,32,32,32,32,32,32,32,32,32,32,32,32,16,16,32,32,32",
			"name": "a(n) = order of Galois group of the polynomial P(x) + n if P(x) + n (after dividing by the gcd of its coefficients) is irreducible, otherwise a(n) = 0, where P(x) = 128*x^8 - 256*x^6 + 160*x^4 - 32*x^2 + 1.",
			"comment": [
				"P(x) = T_8(x) is the degree 8 Chebyshev polynomial of the first kind."
			],
			"link": [
				"Eric Weisstein's World of Mathematics, \u003ca href=\"http://mathworld.wolfram.com/ChebyshevPolynomialoftheFirstKind.html\"\u003eChebyshev Polynomial of the First Kind\u003c/a\u003e"
			],
			"program": [
				"(MAGMA) Q:=RationalField(); R\u003cx\u003e:=PolynomialRing(Q); f:=128*x^8 - 256*x^6 + 160*x^4 - 32*x^2 + 0; for n in {0 .. 30} do f:=f+1; Order(GaloisGroup(f)); end for; /* _N. J. A. Sloane_ */"
			],
			"xref": [
				"Cf. A124827, A126270."
			],
			"keyword": "nonn",
			"offset": "0,1",
			"author": "_Artur Jasinski_, Dec 23 2006",
			"ext": [
				"Edited by _N. J. A. Sloane_, Dec 28 2007"
			],
			"references": 1,
			"revision": 5,
			"time": "2012-03-31T10:22:01-04:00",
			"created": "2007-01-12T03:00:00-05:00"
		}
	]
}