{
	"greeting": "Greetings from The On-Line Encyclopedia of Integer Sequences! http://oeis.org/",
	"query": "id:A126346",
	"count": 1,
	"start": 0,
	"results": [
		{
			"number": 126346,
			"data": "1,3,31,455,8151,176532,4531668,135220955,4579929955,173363631308",
			"name": "Row sums of triangle A126343.",
			"xref": [
				"Cf. A126343."
			],
			"keyword": "more,nonn",
			"offset": "1,2",
			"author": "_Paul D. Hanna_, Dec 25 2006",
			"references": 1,
			"revision": 3,
			"time": "2012-03-30T18:37:02-04:00",
			"created": "2007-01-12T03:00:00-05:00"
		}
	]
}