{
	"greeting": "Greetings from The On-Line Encyclopedia of Integer Sequences! http://oeis.org/",
	"query": "id:A127134",
	"count": 1,
	"start": 0,
	"results": [
		{
			"number": 127134,
			"data": "1,2,18,284,6680,211398,8439235,407247048,23056215138,1498169721930,109876657252604,8976437481923520,808257688877060396,79516093326076500590,8485004019719253675540,976009472808194554659440",
			"name": "Central terms of triangle A127126; a(n) = A127126(2n,n).",
			"comment": [
				"a(n) is divisible by (n+1): a(n)/(n+1) = A127135(n)."
			],
			"link": [
				"G. C. Greubel, \u003ca href=\"/A127134/b127134.txt\"\u003eTable of n, a(n) for n = 0..50\u003c/a\u003e"
			],
			"mathematica": [
				"T[n_, k_]:= T[n, k]= If[k==n, 1, Coefficient[(1 +x*Sum[x^(r-k-1)*Sum[T[r, c], {c,k+1,r}], {r,k+1,n}] +x^(n+1))^(k+1), x, n-k]]; Table[T[2*n, n], {n,0,20}] (* _G. C. Greubel_, Jan 28 2020 *)"
			],
			"xref": [
				"Cf. A127126, A127127, A127128, A127129, A127130, A127131, A127132, A127133, A127135."
			],
			"keyword": "nonn",
			"offset": "0,2",
			"author": "_Paul D. Hanna_, Jan 05 2007",
			"references": 7,
			"revision": 6,
			"time": "2020-01-28T15:19:06-05:00",
			"created": "2007-01-12T03:00:00-05:00"
		}
	]
}