{
	"greeting": "Greetings from The On-Line Encyclopedia of Integer Sequences! http://oeis.org/",
	"query": "id:A127104",
	"count": 1,
	"start": 0,
	"results": [
		{
			"number": 127104,
			"data": "1,3,21,903,2667,7077,113799,114681,304311,389193,898779,932799,4893357,6099429,8131683,8776257,14452473,38350263,38647497,40647747,49427511,99583113,118465473,128794323,131158041,152643813",
			"name": "Numbers n such that n^2 divides 4^n-1.",
			"comment": [
				"a(n) is a subset of A014945(n) = {1, 3, 9, 21, 27, 63, 81, 147, 171, 189, 243, 441, 513, 567, 657, 729, ...} Numbers n such that n divides 4^n-1.",
				"3 divides a(n) for n\u003e1. 7 divides a(n) for n\u003e2. 43 divides a(n) for n = {4,8,9,10,12,13,16,...}. 127 divides a(n) for n = {5,8,11,14,15,17,...}. Prime factors of a(n) in order of their appearance in a(n) are {3,7,43,127,337,5419,431,1033,5419,2287,3049,9719,...}. - _Alexander Adamchuk_, Jan 11 2007"
			],
			"mathematica": [
				"Select[Range[30000], IntegerQ[(PowerMod[4, #, #^2 ]-1)/#^2 ]\u0026]"
			],
			"xref": [
				"Cf. A127100, A127101, A127102, A127103, A127105, A127106, A127107, A127092. Cf. A014945 = numbers n such that n divides 4^n-1."
			],
			"keyword": "nonn",
			"offset": "1,2",
			"author": "_Alexander Adamchuk_, Jan 05 2007",
			"ext": [
				"More terms from _Ryan Propper_ and _Alexander Adamchuk_, Jan 05 2007"
			],
			"references": 27,
			"revision": 9,
			"time": "2013-10-03T09:35:32-04:00",
			"created": "2007-01-12T03:00:00-05:00"
		}
	]
}