{
	"greeting": "Greetings from The On-Line Encyclopedia of Integer Sequences! http://oeis.org/",
	"query": "id:A127658",
	"count": 1,
	"start": 0,
	"results": [
		{
			"number": 127658,
			"data": "900,1352,1728,2880,2916,3000,3750,4356,5292,6480,6760,8100,8640,9464,9900,10404,10648,11700,12000,12096,13500,14580,14872,15300,15552,15876,16000,16200,16224,17100,17836,18252,19008,19044,20160,20412,20700",
			"name": "Exponential aspiring numbers.",
			"comment": [
				"Exponential aspiring numbers are those integers whose exponential aliquot sequences end in an e-perfect number, but that are not e-perfect numbers themselves."
			],
			"reference": [
				"Hagis, Peter Jr.; Some Results Concerning Exponential Divisors, Internat. J. Math. \u0026 Math. Sci., Vol. 11, No. 2, (1988), pp. 343-350."
			],
			"link": [
				"J. O. M. Pedersen, \u003ca href=\"http://amicable.homepage.dk/tables.htm\"\u003eTables of Aliquot Cycles\u003c/a\u003e [Broken link]",
				"J. O. M. Pedersen, \u003ca href=\"http://web.archive.org/web/20140502102524/http://amicable.homepage.dk/tables.htm\"\u003eTables of Aliquot Cycles\u003c/a\u003e [Via Internet Archive Wayback-Machine]",
				"J. O. M. Pedersen, \u003ca href=\"/A063990/a063990.pdf\"\u003eTables of Aliquot Cycles\u003c/a\u003e [Cached copy, pdf file only]"
			],
			"example": [
				"a(5)=2916 because the fifth non-e-perfect number whose exponential aliquot sequence ends in an e-perfect number is 2916."
			],
			"mathematica": [
				"ExponentialDivisors[1]={1};ExponentialDivisors[n_]:=Module[{}, {pr,pows}=Transpose@FactorInteger[n]; divpowers=Distribute[Divisors[pows],List];Sort[Times@@(pr^Transpose[divpowers])]];se[n_]:=Plus@@ExponentialDivisors[n]-n;g[n_] := If[n \u003e 0, se[n], 0];eTrajectory[n_] := Most[NestWhileList[g, n, UnsameQ, All]];Select[Range[25000],ExponentialPerfectNumberQ[Last[eTrajectory[ # ]]] \u0026\u0026 !ExponentialPerfectNumberQ[ # ]\u0026]"
			],
			"xref": [
				"Cf. A127656, A127657, A127659, A127660, A054979."
			],
			"keyword": "nonn",
			"offset": "1,1",
			"author": "_Ant King_, Jan 25 2007",
			"references": 4,
			"revision": 8,
			"time": "2018-03-17T04:09:04-04:00",
			"created": "2007-05-11T03:00:00-04:00"
		}
	]
}