{
	"greeting": "Greetings from The On-Line Encyclopedia of Integer Sequences! http://oeis.org/",
	"query": "id:A127188",
	"count": 1,
	"start": 0,
	"results": [
		{
			"number": 127188,
			"data": "1,1,0,0,0,1,-3,18,-121,1044,-11112,142419,-2164506,38488964,-791648701,18649007091,-498838420314,15036512507141,-507331242588268,19044960439970134,-791159753019542794",
			"name": "Nearest integer to (2*n+1)*Bernoulli(2*n).",
			"link": [
				"N. J. A. Sloane, \u003ca href=\"/A127188/b127188.txt\"\u003eTable of n, a(n) for n = 0..200\u003c/a\u003e"
			],
			"xref": [
				"Cf. A050925/A050932, A127187."
			],
			"keyword": "sign",
			"offset": "0,7",
			"author": "_N. J. A. Sloane_, Mar 26 2007",
			"references": 11,
			"revision": 4,
			"time": "2012-03-30T16:50:40-04:00",
			"created": "2007-05-11T03:00:00-04:00"
		}
	]
}