{
	"greeting": "Greetings from The On-Line Encyclopedia of Integer Sequences! http://oeis.org/",
	"query": "id:A127805",
	"count": 1,
	"start": 0,
	"results": [
		{
			"number": 127805,
			"data": "1,0,11,0,-11,111,0,11,-111,1111,0,0,0,-1111,11111,0,-11,111,0,-11111,111111,0,0,0,0,0,-111111,1111111,0,11,-111,1111,0,0,-1111111,11111111,0,0,0,0,0,0,0,-11111111,111111111",
			"name": "Inverse of number triangle A(n,k) = 1/((10*10^n-1)/9) if k \u003c= n \u003c= 2k, 0 otherwise.",
			"comment": [
				"Row sums are A127806."
			],
			"example": [
				"Triangle begins",
				"  1;",
				"  0, 11;",
				"  0, -11, 111;",
				"  0, 11, -111, 1111;",
				"  0, 0, 0, -1111, 11111;",
				"  0, -11, 111, 0, -11111, 111111;",
				"  0, 0, 0, 0, 0, -111111, 1111111;",
				"  0, 11, -111, 1111, 0, 0, -1111111, 11111111;",
				"  0, 0, 0, 0, 0, 0, 0, -11111111, 111111111;",
				"  0, 0, 0, -1111, 11111, 0, 0, 0, -111111111, 1111111111;",
				"  0, 0, 0, 0, 0, 0, 0, 0, 0, -1111111111, 11111111111;",
				"Triangle is inverse of",
				"  1;",
				"  0, 1/11;",
				"  0, 1/111, 1/111;",
				"  0, 0, 1/1111, 1/1111;",
				"  0, 0, 1/11111, 1/11111, 1/11111;",
				"  0, 0, 0, 1/111111, 1/111111, 1/111111;",
				"  0, 0, 0, 1/1111111, 1/1111111, 1/1111111, 1/1111111;",
				"  0, 0, 0, 0, 1/11111111, 1/11111111, 1/11111111, 1/11111111;",
				"  0, 0, 0, 0, 1/111111111, 1/111111111, 1/111111111, 1/111111111, 1/111111111;"
			],
			"keyword": "sign,tabl",
			"offset": "0,3",
			"author": "_Paul Barry_, Jan 29 2007",
			"references": 1,
			"revision": 5,
			"time": "2018-09-29T18:45:08-04:00",
			"created": "2007-05-11T03:00:00-04:00"
		}
	]
}