{
	"greeting": "Greetings from The On-Line Encyclopedia of Integer Sequences! http://oeis.org/",
	"query": "id:A127765",
	"count": 1,
	"start": 0,
	"results": [
		{
			"number": 127765,
			"data": "1,7,25,64,137,258,444,714,1086,1586,2236,3063,4096,5364,6899,8736,10909,13455,16414,19826,23734,28181,33212,38876,45221,52297,60158,68856,78447,88988,100537,113155,126903,141845,158045,175570,194487",
			"name": "Integer part of Gauss's Arithmetic-Geometric Mean M(2,n^4).",
			"formula": [
				"a(n) ~ Pi*n^4/(8*log(n) + 2*log(2)). - _Vaclav Kotesovec_, May 09 2016"
			],
			"mathematica": [
				"Table[Floor[ArithmeticGeometricMean[2, n^4]], {n, 1, 100}]"
			],
			"xref": [
				"Cf. A127758, A127759, A127760, A127761, A127762, A127763, A127764, A127766."
			],
			"keyword": "nonn",
			"offset": "1,2",
			"author": "_Artur Jasinski_, Jan 28 2007",
			"references": 4,
			"revision": 11,
			"time": "2020-07-26T09:07:00-04:00",
			"created": "2007-05-11T03:00:00-04:00"
		}
	]
}