{
	"greeting": "Greetings from The On-Line Encyclopedia of Integer Sequences! http://oeis.org/",
	"query": "id:A127970",
	"count": 1,
	"start": 0,
	"results": [
		{
			"number": 127970,
			"data": "1,1,1,1,0,1,1,0,0,1,1,0,1,0,1,1,0,0,0,1,1,1,0,1,0,0,0,1,1,0,0,0,0,0,0,1,1,0,1,0,1,0,0,0,1,1,0,0,0,1,0,0,0,1,1,1,0,1,0,0,0,1,0",
			"name": "Number triangle A127967 modulo 2.",
			"comment": [
				"Row sums are A127971."
			],
			"example": [
				"Triangle begins",
				"1,",
				"1, 1,",
				"1, 0, 1,",
				"1, 0, 0, 1,",
				"1, 0, 1, 0, 1,",
				"1, 0, 0, 0, 1, 1,",
				"1, 0, 1, 0, 0, 0, 1,",
				"1, 0, 0, 0, 0, 0, 0, 1,",
				"1, 0, 1, 0, 1, 0, 0, 0, 1,",
				"1, 0, 0, 0, 1, 0, 0, 0, 1, 1,",
				"1, 0, 1, 0, 0, 0, 1, 0, 1, 0, 1,",
				"1, 0, 0, 0, 0, 0, 0, 0, 1, 0, 0, 1,",
				"1, 0, 1, 0, 1, 0, 0, 0, 0, 0, 1, 0, 1"
			],
			"keyword": "nonn,tabl",
			"offset": "0,1",
			"author": "_Paul Barry_, Feb 09 2007",
			"references": 1,
			"revision": 2,
			"time": "2012-03-30T18:59:19-04:00",
			"created": "2007-05-11T03:00:00-04:00"
		}
	]
}