{
	"greeting": "Greetings from The On-Line Encyclopedia of Integer Sequences! http://oeis.org/",
	"query": "id:A127777",
	"count": 1,
	"start": 0,
	"results": [
		{
			"number": 127777,
			"data": "1,3,6,6,12,18,10,20,30,40,15,30,45,60,75,21,42,63,84,105,126,28,56,84,112,140,168,196,36,72,108,144,180,216,252,288,45,90,135,180,225,270,315,360,405,55,110,165,220,275,330,385,440,495,550,66,132,198",
			"name": "A127773 * A002260 as infinite lower triangular matrices.",
			"comment": [
				"Triangular number transform of A002260.",
				"Swapped order of the factors: A002260 * A127773 = A127778."
			],
			"link": [
				"Harvey P. Dale, \u003ca href=\"/A127777/b127777.txt\"\u003eTable of n, a(n) for n = 1..1000\u003c/a\u003e"
			],
			"formula": [
				"T(n,k) = k*binomial(n+1,n-1) = Sum_{i=1..k} i*binomial(k,i)*binomial(n+2-k,n-i), 1 \u003c= k \u003c= n. - _Mircea Merca_, Apr 11 2012"
			],
			"example": [
				"First few rows of the triangle:",
				"   1;",
				"   3,  6;",
				"   6, 12, 18;",
				"  10, 20, 30, 40;",
				"  15, 30, 45, 60, 75;",
				"  ..."
			],
			"maple": [
				"T(n,k):=piecewise(k\u003c=n,k*binomial(n+1,n-1),n\u003ck,0) # _Mircea Merca_, Apr 11 2012"
			],
			"mathematica": [
				"Table[k*Binomial[n+1,n-1],{n,20},{k,n}]//Flatten (* _Harvey P. Dale_, Oct 26 2016 *)"
			],
			"xref": [
				"Cf. A000217, A127773, A000537 (row sums), A127778."
			],
			"keyword": "nonn,tabl,easy",
			"offset": "1,2",
			"author": "_Gary W. Adamson_, Jan 28 2007",
			"ext": [
				"More terms from _Harvey P. Dale_, Oct 26 2016"
			],
			"references": 4,
			"revision": 12,
			"time": "2021-06-18T08:40:50-04:00",
			"created": "2007-05-11T03:00:00-04:00"
		}
	]
}