{
	"greeting": "Greetings from The On-Line Encyclopedia of Integer Sequences! http://oeis.org/",
	"query": "id:A127507",
	"count": 1,
	"start": 0,
	"results": [
		{
			"number": 127507,
			"data": "1,-1,-1,-1,-1,-1,0,0,0,0,-1,-1,-1,-1,-1,1,1,1,1,1,1,-1,-1,-1,-1,-1,-1,-1,0,0,0,0,0,0,0,0,0,0,0,0,0,0,0,0,0,1,1,1,1,1,1,1,1,1,1",
			"name": "Triangle read by rows: T(n,k) = mu(n) where 1\u003c=k\u003c=n and mu=A008683.",
			"comment": [
				"Row sums are A055615(n)."
			],
			"formula": [
				"T = M * Q, as infinite lower triangular matrices; M = mu(n) in the main diagonal and the rest zeros, Q = (1; 1, 1; 1, 1, 1;...)."
			],
			"example": [
				"First few rows of the triangle are:",
				"1;",
				"-1, -1;",
				"-1, -1, -1;",
				"0, 0, 0, 0;",
				"-1, -1, -1, -1, -1;",
				"1, 1, 1, 1, 1, 1;",
				"..."
			],
			"xref": [
				"Cf. A008683, A055615."
			],
			"keyword": "tabl,easy,sign",
			"offset": "1,1",
			"author": "_Gary W. Adamson_, Jan 17 2007",
			"references": 1,
			"revision": 8,
			"time": "2012-03-30T17:25:15-04:00",
			"created": "2007-05-11T03:00:00-04:00"
		}
	]
}