{
	"greeting": "Greetings from The On-Line Encyclopedia of Integer Sequences! http://oeis.org/",
	"query": "id:A127573",
	"count": 1,
	"start": 0,
	"results": [
		{
			"number": 127573,
			"data": "1,1,6,1,0,12,1,6,0,28,1,0,0,0,30,1,6,12,0,0,72,1,0,0,0,0,0,56,1,6,0,28,0,0,120",
			"name": "Triangle read by rows, row sums = A001001, right border = n*sigma(n).",
			"comment": [
				"Right border = n*sigma(n), A064987; row sums = A001001: (1, 7, 13, 35, 31, 91,...)"
			],
			"formula": [
				"The matrix product A127093 * M, where M = an infinite diagonal matrix with sigma(n), A000203, in the main diagonal."
			],
			"example": [
				"First few rows of the triangle are:",
				"1;",
				"1, 6;",
				"1, 0, 12;",
				"1, 6, 0, 28;",
				"1, 0, 0, 0, 30;",
				"..."
			],
			"xref": [
				"Cf. A064987, A127093, A001001, A000203."
			],
			"keyword": "nonn,tabl,more",
			"offset": "1,3",
			"author": "_Gary W. Adamson_, Jan 19 2007",
			"references": 1,
			"revision": 4,
			"time": "2019-08-11T01:22:07-04:00",
			"created": "2007-05-11T03:00:00-04:00"
		}
	]
}