{
	"greeting": "Greetings from The On-Line Encyclopedia of Integer Sequences! http://oeis.org/",
	"query": "id:A127194",
	"count": 1,
	"start": 0,
	"results": [
		{
			"number": 127194,
			"data": "1,1,1,1,1,1,1,1,1,1,10,19,37,73,145,289,577,1153,2305,4609,9217,18424,36829,73621,147169,294193,588097,1175617,2350081,4697857,9391105,18772993,37527562,75018295,149962969,299778769,599263345,1197938593",
			"name": "A 10th-order Fibonacci sequence.",
			"comment": [
				"10th-order Fibonacci constant = 1.999018633..."
			],
			"link": [
				"Robert Price, \u003ca href=\"/A127194/b127194.txt\"\u003eTable of n, a(n) for n = 1..1000\u003c/a\u003e",
				"E. S. Croot, \u003ca href=\"http://people.math.gatech.edu/~ecroot/recurrence_notes2.pdf\"\u003eNotes on Linear Recurrence Sequences\u003c/a\u003e",
				"M. A. Lerma, \u003ca href=\"http://www.math.northwestern.edu/~mlerma/problem_solving/results/recurrences.pdf\"\u003eRecurrence Relations\u003c/a\u003e",
				"\u003ca href=\"/index/Rec#order_10\"\u003eIndex entries for linear recurrences with constant coefficients\u003c/a\u003e, signature (1,1,1,1,1,1,1,1,1,1)."
			],
			"formula": [
				"O.g.f.: x*(-1+x^2+2*x^3+3*x^4+4*x^5+5*x^6+6*x^7+7*x^8+8*x^9) / (-1+x+x^2+x^3+x^4+x^5+x^6+x^7+x^8+x^9+x^10). - _R. J. Mathar_, Nov 23 2007"
			],
			"mathematica": [
				"With[{t=Table[1,{10}]},LinearRecurrence[t,t,40]] (* _Harvey P. Dale_, Nov 12 2013 *)"
			],
			"program": [
				"(PARI) a(n)=([0,1,0,0,0,0,0,0,0,0; 0,0,1,0,0,0,0,0,0,0; 0,0,0,1,0,0,0,0,0,0; 0,0,0,0,1,0,0,0,0,0; 0,0,0,0,0,1,0,0,0,0; 0,0,0,0,0,0,1,0,0,0; 0,0,0,0,0,0,0,1,0,0; 0,0,0,0,0,0,0,0,1,0; 0,0,0,0,0,0,0,0,0,1; 1,1,1,1,1,1,1,1,1,1]^(n-1)*[1;1;1;1;1;1;1;1;1;1])[1,1] \\\\ _Charles R Greathouse IV_, Jun 15 2015"
			],
			"xref": [
				"Cf. Fibonacci numbers A000045, tribonacci numbers A000213, tetranacci numbers A000288, pentanacci numbers A000322, hexanacci numbers A000383, heptanacci numbers A060455, octanacci numbers A123526, 9th-order Fibonacci sequence A127193.",
				"Cf. A257073, A257074."
			],
			"keyword": "nice,nonn,easy",
			"offset": "1,11",
			"author": "Luis A Restrepo (luisiii(AT)hotmail.com), Jan 11 2007",
			"references": 9,
			"revision": 30,
			"time": "2021-02-02T22:43:35-05:00",
			"created": "2007-01-12T03:00:00-05:00"
		}
	]
}