{
	"greeting": "Greetings from The On-Line Encyclopedia of Integer Sequences! http://oeis.org/",
	"query": "id:A127368",
	"count": 1,
	"start": 0,
	"results": [
		{
			"number": 127368,
			"data": "1,1,0,1,2,0,1,0,3,0,1,2,3,4,0,1,0,0,0,5,0,1,2,3,4,5,6,0,1,0,3,0,5,0,7,0,1,2,0,4,5,0,7,8,0,1,0,3,0,0,0,7,0,9,0,1,2,3,4,5,6,7,8,9,10,0,1,0,0,0,5,0,7,0,0,0,11,0,1,2,3,4,5,6,7,8,9,10,11,12,0",
			"name": "Relative prime triangle, read by rows.",
			"comment": [
				"Row sums = A023896, (reduced residue system mod n): (1, 1, 3, 4, 10, 6, 21, ...). - _Gary W. Adamson_, Aug 27 2008"
			],
			"formula": [
				"T(n,k) = k if a relative prime of n; 0 otherwise. Replace the \"1's\" of A054521 with their corresponding column numbers; leaving the zeros.",
				"Equals A054521 * A127648 as infinite lower triangular matrices. - _Gary W. Adamson_, Aug 27 2008"
			],
			"example": [
				"Row 4 = (1, 0, 3, 0) since 1 and 3 are relative primes of 4.",
				"First few rows of the triangle are:",
				"  1;",
				"  1, 0;",
				"  1, 2, 0;",
				"  1, 0, 3, 0;",
				"  1, 2, 3, 4, 0;",
				"  1, 0, 0, 0, 5, 0;",
				"  1, 2, 3, 4, 5, 6, 0;",
				"  ..."
			],
			"program": [
				"(PARI)",
				"T127368(n,k)={gcd(n,k)==1 \u0026 return(k)}",
				"A127368(n)=T127368( t=(sqrt(8*n)+1)\\2, n-binomial(t, 2)) \\\\ _M. F. Hasler_, Mar 02 2012"
			],
			"xref": [
				"Cf. A054521, A023896."
			],
			"keyword": "nonn,easy,tabl",
			"offset": "1,5",
			"author": "_Gary W. Adamson_, Jan 11 2007",
			"ext": [
				"Corrected at the suggestion of _Kevin Ryde_ by _Alois P. Heinz_, Mar 02 2012"
			],
			"references": 7,
			"revision": 21,
			"time": "2021-07-31T02:04:46-04:00",
			"created": "2007-01-12T03:00:00-05:00"
		}
	]
}