{
	"greeting": "Greetings from The On-Line Encyclopedia of Integer Sequences! http://oeis.org/",
	"query": "id:A127425",
	"count": 1,
	"start": 0,
	"results": [
		{
			"number": 127425,
			"data": "0,0,29,12528,14927013,44632974375,289553896419667,3621335176611561472,79763800168579144103361,2886490238072828615188093125,162510049064391484117789761805165,13624190843866457706897020192739557376,1640800492737366435568874082163705520197134",
			"name": "Floor((n*(n+1)^3/8)^n)-(n!)^4.",
			"comment": [
				"Theorem: (n*(n+1)^3/8)^n \u003e (n!)^4 for n \u003e 1."
			],
			"reference": [
				"D. S. Mitrinovic, Analytic Inequalities, Springer-Verlag, 1970; p. 193, 3.1.17."
			],
			"example": [
				"(n*(n+1)^3/8)^n - (n!)^4 gives 0, 0, 473/16, 12528, 238832209/16, 44632974375, 1186012759734957321/4096, ..."
			],
			"keyword": "nonn",
			"offset": "0,3",
			"author": "_N. J. A. Sloane_, Apr 02 2007",
			"references": 1,
			"revision": 3,
			"time": "2012-03-30T16:50:40-04:00",
			"created": "2007-05-11T03:00:00-04:00"
		}
	]
}