{
	"greeting": "Greetings from The On-Line Encyclopedia of Integer Sequences! http://oeis.org/",
	"query": "id:A127221",
	"count": 1,
	"start": 0,
	"results": [
		{
			"number": 127221,
			"data": "2,12,56,240,992,3648,14464,57088,224768,883712,3471360,13651968,53682176,211075072,829915136,3263102976,12830244864,50447253504,198353354752,779904614400,3066503888896,12057176965120,47407572189184,186401664532480,732912043425792",
			"name": "a(n) = 2^n*pentanacci(n) or (2^n)*A023424(n-1).",
			"link": [
				"G. C. Greubel, \u003ca href=\"/A127221/b127221.txt\"\u003eTable of n, a(n) for n = 1..1000\u003c/a\u003e",
				"\u003ca href=\"/index/Rec\"\u003eIndex entries for linear recurrences with constant coefficients\u003c/a\u003e, signature (2,4,8,16,32)."
			],
			"formula": [
				"a(n) = Trace of matrix [({{2,2,2,2,0},{2,0,0,0,0},{0,2,0,0,0),{0,0,2,0,0},{0,0,0,2,0})^n].",
				"a(n) = 2^n * Trace of matrix [({{1,1,1,1,1},{1,0,0,0,0},{0,1,0,0,0},{0,0,1,0,0},{0,0,0,1,0)^n].",
				"G.f.: -2*x*(1 +4*x +12*x^2 +32*x^3 +80*x^4)/(-1 +2*x +4*x^2 +8*x^3 +16*x^4 +32*x^5). - Maksym Voznyy (voznyy(AT)mail.ru), Aug 11 2009",
				"a(n) = 2*a(n-1)+4*a(n-2)+8*a(n-3)+16*a(n-4)+32*a(n-5). - _Colin Barker_, Sep 02 2013"
			],
			"mathematica": [
				"Table[Tr[MatrixPower[2*{{1, 1, 1, 1, 1}, {1, 0, 0, 0, 0}, {0, 1, 0, 0, 0}, {0, 0, 1, 0, 0}, {0, 0, 0, 1, 0}}, x]], {x, 1, 20}]",
				"LinearRecurrence[{2, 4, 8, 16, 32}, {2, 12, 56, 240, 992}, 50] (* _G. C. Greubel_, Dec 19 2017 *)"
			],
			"program": [
				"(PARI) x='x+O('x^30); Vec(-2*x*(1 +4*x +12*x^2 +32*x^3 +80*x^4)/(-1 +2*x +4*x^2 +8*x^3 +16*x^4 +32*x^5)) \\\\ _G. C. Greubel_, Dec 19 2017",
				"(MAGMA) I:=[2, 12, 56, 240, 992]; [n le 5 select I[n] else 2*Self(n-1) + 4*Self(n-2) + 8*Self(n-3) + 16*Self(n-4) + 32*Self(n-5): n in [1..30]]; // _G. C. Greubel_, Dec 19 2017"
			],
			"xref": [
				"Cf. A087131, A127210, A127211, A127212, A127213, A127214, A127216, A001648, A127220, A127222.",
				"Cf. A023424, A074048."
			],
			"keyword": "nonn,easy",
			"offset": "1,1",
			"author": "_Artur Jasinski_, Jan 09 2007",
			"ext": [
				"G.f. proposed by Maksym Voznyy checked and corrected by _R. J. Mathar_, Sep 16 2009",
				"Definition corrected by _R. J. Mathar_, Sep 17 2009",
				"More terms from _Colin Barker_, Sep 02 2013"
			],
			"references": 3,
			"revision": 14,
			"time": "2017-12-19T02:21:00-05:00",
			"created": "2007-01-12T03:00:00-05:00"
		}
	]
}