{
	"greeting": "Greetings from The On-Line Encyclopedia of Integer Sequences! http://oeis.org/",
	"query": "id:A127170",
	"count": 1,
	"start": 0,
	"results": [
		{
			"number": 127170,
			"data": "1,2,1,2,0,1,3,2,0,1,2,0,0,0,1,4,2,2,0,0,1,2,0,0,0,0,0,1,4,3,0,2,0,0,0,1,3,0,2,0,0,0,0,0,1,4,2,0,0,2,0,0,0,0,1,2,0,0,0,0,0,0,0,0,0,1,6,4,3,2,0,2,0,0,0,0,0,1,2,0,0,0,0,0,0,0,0,0,0,0,1,4,2,0,0,0,0,2,0,0,0,0,0,0,1",
			"name": "Triangle, square of A051731.",
			"comment": [
				"Nonzero terms in every column = d(n), A000005: (1, 2, 2, 3, 2, 4, 2, 4,...). Row sums = A007425: (1, 3, 3, 6, 3, 9, 3, 10,...). A127170 * [1, 0, 0, 0,...] = A000005: (1, 2, 2, 3, 2, 4,...) A127170 * [1, 2, 3,...] = A007429: (1, 4, 10, 4, 16,...).",
				"Eigensequence of the triangle = A007557; i.e., sequence A007557 shifts to the left upon multiplication by A127170. - _Gary W. Adamson_, Apr 27 2009",
				"T(n,k) is also the number of divisors of n that are divisible by k, with n\u003e=1 and 1\u003c=k\u003c=n (see also A195050). - _Omar E. Pol_, Mar 30 2015"
			],
			"formula": [
				"Square of A051731 A000005, d(n); in every column k, interspersed with (k-1) zeros.",
				"T(n,k) = A000005(n/k), if k divides n, otherwise 0, with n\u003e=1 and 1\u003c=k\u003c=n. - _Omar E. Pol_, Apr 01 2015"
			],
			"example": [
				"First 10 rows of the triangle are:",
				"1;",
				"2, 1;",
				"2, 0, 1;",
				"3, 2, 0, 1;",
				"2, 0, 0, 0, 1;",
				"4, 2, 2, 0, 0, 1;",
				"2, 0, 0, 0, 0, 0, 1;",
				"4, 3, 0, 2, 0, 0, 0, 1;",
				"3, 0, 2, 0, 0, 0, 0, 0, 1;",
				"4, 2, 0, 0, 2, 0, 0, 0, 0, 1;",
				"..."
			],
			"program": [
				"(PARI) tabl(nn) = {m = matrix(nn, nn, n, k, if ((n % k) == 0, 1, 0)); m = m^2; for (n=1, nn, for (k=1, n, print1(m[n, k], \", \");); print(););} \\\\ _Michel Marcus_, Apr 01 2015"
			],
			"xref": [
				"Cf. A051731, A000005, A007425, A126988, A007429, A127170.",
				"Cf. A007557. - _Gary W. Adamson_, Apr 27 2009"
			],
			"keyword": "nonn,tabl",
			"offset": "1,2",
			"author": "_Gary W. Adamson_, Jan 06 2007",
			"ext": [
				"8 terms taken from Example section and then corrected in Data section by _Omar E. Pol_, Mar 30 2015",
				"Extended beyond a(21) by _Omar E. Pol_, Apr 01 2015"
			],
			"references": 9,
			"revision": 27,
			"time": "2015-08-10T00:02:09-04:00",
			"created": "2007-01-12T03:00:00-05:00"
		}
	]
}