{
	"greeting": "Greetings from The On-Line Encyclopedia of Integer Sequences! http://oeis.org/",
	"query": "id:A128882",
	"count": 1,
	"start": 0,
	"results": [
		{
			"number": 128882,
			"data": "0,0,1,2,7,14,47,104,383,944,3839,10394,46079,135134,645119,2027024,10321919,34459424,185794559,654729074,3715891199,13749310574,81749606399,316234143224,1961990553599,7905853580624,51011754393599",
			"name": "a(n) = n!! - 1.",
			"comment": [
				"n divides a(n-1) and a(n+1) for n = {1, 2, 8, 11, 16, 19, 23, 31, 32, 43, 64, 67, 71, ...} which include all powers of 2 except 2^2 and some odd primes of the form 4k+3 belonging to A002145.",
				"p^2 divides a(p-1) for odd prime p = 71.",
				"p^2 divides a(p+1) for odd prime p = 23.",
				"a(n) is prime for n = {3, 4, 6, 8, 16, 26, 64, 82, 90, 118, 194, 214, ...} = A007749; A007749(n) = 2*A091415(n-1) for n \u003e 1. Corresponding primes of the form n!! - 1 are listed in A117141, cf. also A093173."
			],
			"link": [
				"Eric Weisstein's World of Mathematics, \u003ca href=\"http://mathworld.wolfram.com/DoubleFactorial.html\"\u003eDouble Factorial\u003c/a\u003e"
			],
			"formula": [
				"a(n) = A006882(n) - 1."
			],
			"mathematica": [
				"Table[ n!! - 1, {n,0,35} ]"
			],
			"xref": [
				"Cf. A006882, A002145, A117141, A093173, A007749, A091415."
			],
			"keyword": "nonn",
			"offset": "0,4",
			"author": "_Alexander Adamchuk_, Apr 18 2007",
			"references": 2,
			"revision": 12,
			"time": "2021-06-08T02:33:32-04:00",
			"created": "2007-05-11T03:00:00-04:00"
		}
	]
}