{
	"greeting": "Greetings from The On-Line Encyclopedia of Integer Sequences! http://oeis.org/",
	"query": "id:A128224",
	"count": 1,
	"start": 0,
	"results": [
		{
			"number": 128224,
			"data": "1,3,2,5,7,3,7,15,13,4,9,26,34,21,5,11,40,70,65,31,6,13,57,125,155,111,43,7,15,77,203,315,301,175,57,8,17,100,308,574,686,532,260,73,9,19,126,444,966,1386,876,369,91,10",
			"name": "Duplicate of A125026.",
			"comment": [
				"Row sums = A099035: (1, 5, 15, 39, 95, 223, 511, 1151,...)"
			],
			"reference": [
				"A007318 * A127899 (unsigned) as infinite lower triangular matrices."
			],
			"example": [
				"First few rows of the triangle are:",
				"1;",
				"3, 2;",
				"5, 7, 3;",
				"7, 15, 13, 4;",
				"9, 26, 34, 21, 5;",
				"11, 40, 70, 65, 31, 6;",
				"13, 57, 125, 155, 111, 43, 7;",
				"..."
			],
			"xref": [
				"Cf. A007318, A127899, A099035."
			],
			"keyword": "nonn,tabl,dead",
			"offset": "1,2",
			"author": "_Gary W. Adamson_, Feb 19 2007",
			"references": 0,
			"revision": 4,
			"time": "2015-07-16T07:04:45-04:00",
			"created": "2007-05-11T03:00:00-04:00"
		}
	]
}