{
	"greeting": "Greetings from The On-Line Encyclopedia of Integer Sequences! http://oeis.org/",
	"query": "id:A128313",
	"count": 1,
	"start": 0,
	"results": [
		{
			"number": 128313,
			"data": "1,-2,1,0,-2,1,0,2,-3,1,0,-4,6,-4,1,0,6,-11,10,-5,1,0,-6,15,-20,15,-6,1,0,4,-18,34,-35,21,-7,1,0,-6,27,-56,70,-56,28,-8,0,12,-42,88,-127,126,-84,36,-9,1",
			"name": "Moebius transform of A007318 (signed).",
			"comment": [
				"Row sums = mu(n), A008683: (1, -1, -1, 0, -1, 1,...)"
			],
			"formula": [
				"A054525 * A007318 (signed, by columns: +, -, +,...)."
			],
			"example": [
				"First few rows of the triangle are:",
				"1;",
				"-2, 1;",
				"0, -2, 1;",
				"0, 2, -3, 1;",
				"0, -4, 6, -4, 1;",
				"0, 6, -11, 10, -5, 1;",
				"..."
			],
			"xref": [
				"Cf. A054525, A007318, A008683."
			],
			"keyword": "tabl,sign",
			"offset": "1,2",
			"author": "_Gary W. Adamson_, Feb 25 2007",
			"references": 2,
			"revision": 2,
			"time": "2012-03-30T17:25:19-04:00",
			"created": "2007-05-11T03:00:00-04:00"
		}
	]
}