{
	"greeting": "Greetings from The On-Line Encyclopedia of Integer Sequences! http://oeis.org/",
	"query": "id:A128026",
	"count": 1,
	"start": 0,
	"results": [
		{
			"number": 128026,
			"data": "2,3,5,37,599,38393,51431",
			"name": "Numbers n such that (10^n - 3^n)/7 is prime.",
			"comment": [
				"All terms are primes.",
				"No other terms \u003c 100000."
			],
			"mathematica": [
				"k=7; Select[ Prime[ Range[1,200] ], PrimeQ[ ((k+3)^# - 3^#)/k ]\u0026 ]"
			],
			"program": [
				"(PARI) forprime(p=2,1e4,if(ispseudoprime((10^p-3^p)/7),print1(p\", \"))) \\\\ _Charles R Greathouse IV_, Jun 05 2011"
			],
			"xref": [
				"Cf. A028491 = numbers n such that (3^n - 1)/2 is prime.",
				"Cf. A057468 = numbers n such that 3^n - 2^n is prime.",
				"Cf. A059801 = numbers n such that 4^n - 3^n is prime.",
				"Cf. A121877 = numbers n such that (5^n - 3^n)/2 is a prime.",
				"Cf. A128024, A128025, A128027, A128028, A128029, A128030, A128031, A128032."
			],
			"keyword": "hard,nonn",
			"offset": "1,1",
			"author": "_Alexander Adamchuk_, Feb 11 2007",
			"ext": [
				"a(6)-a(7) from _Robert Price_, Jun 04 2011"
			],
			"references": 29,
			"revision": 11,
			"time": "2015-03-02T02:42:45-05:00",
			"created": "2007-05-11T03:00:00-04:00"
		}
	]
}