{
	"greeting": "Greetings from The On-Line Encyclopedia of Integer Sequences! http://oeis.org/",
	"query": "id:A128025",
	"count": 1,
	"start": 0,
	"results": [
		{
			"number": 128025,
			"data": "2,3,7,19,31,67,89,9227,43891",
			"name": "Numbers k such that (8^k - 3^k)/5 is prime.",
			"comment": [
				"All terms are primes.",
				"Verified the first 8 terms in sequence. Also, the next number in the sequence, if one exists is \u003e 43691. - _Robert Price_, Mar 16 2010",
				"a(10) \u003e 10^5. - _Robert Price_, Jul 27 2011"
			],
			"mathematica": [
				"k=5; Select[ Prime[ Range[1,200] ], PrimeQ[ ((k+3)^# - 3^#)/k ]\u0026 ]"
			],
			"program": [
				"(PARI) is(n)=isprime((8^n-3^n)/5) \\\\ _Charles R Greathouse IV_, Feb 17 2017"
			],
			"xref": [
				"Cf. A028491 = numbers n such that (3^n - 1)/2 is prime. Cf. A057468 = numbers n such that 3^n - 2^n is prime. Cf. A059801 = numbers n such that 4^n - 3^n is prime. Cf. A121877 = numbers n such that (5^n - 3^n)/2 is a prime. Cf. A128024, A128026, A128027, A128028, A128029, A128030, A128031, A128032."
			],
			"keyword": "hard,more,nonn",
			"offset": "1,1",
			"author": "_Alexander Adamchuk_, Feb 11 2007",
			"ext": [
				"9227 from _Farideh Firoozbakht_, Apr 08 2007",
				"a(9)=43891 from _Robert Price_, Jul 27 2011"
			],
			"references": 28,
			"revision": 15,
			"time": "2018-11-01T21:22:48-04:00",
			"created": "2007-05-11T03:00:00-04:00"
		}
	]
}