{
	"greeting": "Greetings from The On-Line Encyclopedia of Integer Sequences! http://oeis.org/",
	"query": "id:A128245",
	"count": 1,
	"start": 0,
	"results": [
		{
			"number": 128245,
			"data": "6,9,12,18,21,22,35,36,42,45,51,65,69,78,82,88,96,102,111,125,126,135,138,161,162,165,166,172,189,198,209,232,249,255,256,261,275,291,292,305,312,316,329,335,336,345,348,352,366,371,382,396,399,408,429,432",
			"name": "Smallest of three consecutive composite numbers whose sum is prime.",
			"comment": [
				"If n is a member of this sequence, either n+1 or n+2 is prime. This suggests that the density of the sequence is roughly kn/log^2 n for some k. Counts up to 10^9 suggest k is about 5.26. - _Charles R Greathouse IV_, Sep 11 2009"
			],
			"link": [
				"Harvey P. Dale, \u003ca href=\"/A128245/b128245.txt\"\u003eTable of n, a(n) for n = 1..1000\u003c/a\u003e"
			],
			"formula": [
				"By Rosser's theorem, a(2n) \u003e n log n. - _Charles R Greathouse IV_, Sep 11 2009"
			],
			"example": [
				"6 + 8 + 9 = 23 = A060328(1);",
				"9 + 10 + 12 = 31 = A060328(2);",
				"12 + 14 + 15 = 41 = A060328(3);",
				"18 + 20 + 21 = 59 = A060328(4)."
			],
			"mathematica": [
				"CompositeNext[n_]:=Module[{k=n+1},While[PrimeQ[k],k++ ];k]; lst={};Do[p=n+CompositeNext[n]+CompositeNext[CompositeNext[n]];If[ !PrimeQ[n]\u0026\u0026PrimeQ[p],AppendTo[lst,n]],{n,2,5!}];lst (* _Vladimir Joseph Stephan Orlovsky_, Jun 15 2009 *)",
				"Select[Partition[Select[Range[500],CompositeQ],3,1],PrimeQ[Total[#]]\u0026][[All,1]] (* Requires Mathematica version 10 or later *) (* _Harvey P. Dale_, Jul 24 2019 *)"
			],
			"program": [
				"(PARI) test(n)={my(b=a+1,c);b+=isprime(b);c=b+1;c+=isprime(c);isprime(a+b+c)};for(n=4,1e3,if(!isprime(n)\u0026\u0026test(n),print1(n\",\"))) \\\\ _Charles R Greathouse IV_, Sep 11 2009"
			],
			"xref": [
				"Cf. A060328."
			],
			"keyword": "nonn",
			"offset": "1,1",
			"author": "_Zak Seidov_, May 03 2007",
			"references": 1,
			"revision": 15,
			"time": "2019-07-24T16:52:17-04:00",
			"created": "2007-05-11T03:00:00-04:00"
		}
	]
}