{
	"greeting": "Greetings from The On-Line Encyclopedia of Integer Sequences! http://oeis.org/",
	"query": "id:A128811",
	"count": 1,
	"start": 0,
	"results": [
		{
			"number": 128811,
			"data": "1,4,35,240,3003,26880,415701,4435200,79676025,968647680,19535112675,263472168960,5837993287875,85816649318400,2058476433304725,32567418416332800,836589039864843825,14112547980410880000",
			"name": "A113551(n)/A006882(n).",
			"comment": [
				"a(n) is to A001700 as n!! is to n!."
			],
			"formula": [
				"a(n) = n * (n+2) * ... * ((3*n)-2) / n!!."
			],
			"example": [
				"a(1) = (1)/(1) = 1.",
				"a(2) = (2*4)/(2) = 4.",
				"a(3) = (3*5*7)/(3*1) = 35.",
				"a(4) = (4*6*8*10)/(4*2) = 240.",
				"a(5) = (5*7*9*11*13)/(5*3*1) = 3003.",
				"a(6) = (6*8*10*12*14*16)/(6*4*2) = 26880."
			],
			"xref": [
				"Cf. A001700, A006882, A113551."
			],
			"keyword": "easy,nonn",
			"offset": "1,2",
			"author": "_Jonathan Vos Post_, Apr 10 2007",
			"ext": [
				"Corrected and extended by _Klaus Brockhaus_, Apr 15 2007"
			],
			"references": 0,
			"revision": 4,
			"time": "2012-03-30T18:40:42-04:00",
			"created": "2007-05-11T03:00:00-04:00"
		}
	]
}