{
	"greeting": "Greetings from The On-Line Encyclopedia of Integer Sequences! http://oeis.org/",
	"query": "id:A128516",
	"count": 1,
	"start": 0,
	"results": [
		{
			"number": 128516,
			"data": "1,4,10,24,51,100,190,340,585,984,1606,2564,4022,6188,9382,14044,20746,30308,43836,62784,89153,125588,175542,243656,335988,460388,627178,849676,1145024,1535416,2049200,2722544,3601681,4745208,6227276,8141656",
			"name": "McKay-Thompson series of class 14C for the Monster group with a(0) = 4.",
			"comment": [
				"Ramanujan theta functions: f(q) (see A121373), phi(q) (A000122), psi(q) (A010054), chi(q) (A000700)."
			],
			"link": [
				"Seiichi Manyama, \u003ca href=\"/A128516/b128516.txt\"\u003eTable of n, a(n) for n = -1..10000\u003c/a\u003e",
				"Vaclav Kotesovec, \u003ca href=\"http://arxiv.org/abs/1509.08708\"\u003eA method of finding the asymptotics of q-series based on the convolution of generating functions\u003c/a\u003e, arXiv:1509.08708 [math.CO], Sep 30 2015",
				"Michael Somos, \u003ca href=\"/A010815/a010815.txt\"\u003eIntroduction to Ramanujan theta functions\u003c/a\u003e",
				"Eric Weisstein's World of Mathematics, \u003ca href=\"http://mathworld.wolfram.com/RamanujanThetaFunctions.html\"\u003eRamanujan Theta Functions\u003c/a\u003e"
			],
			"formula": [
				"Expansion of q^(-1) * (chi(-q^7) / chi(-q))^4 in powers of q where chi() is a Ramanujan theta function.",
				"Expansion of (eta(q^2) * eta(q^7) / (eta(q) * eta(q^14)))^4 in powers of q.",
				"Euler transform of period 14 sequence [ 4, 0, 4, 0, 4, 0, 0, 0, 4, 0, 4, 0, 4, 0, ...].",
				"G.f. is a period 1 Fourier series which satisfies f(-1 / (14 t)) = f(t) where q = exp(2 Pi i t).",
				"G.f. A(x) satisfies 0 = f(A(x), A(x^2), A(x^4)) where f(u, v, w) = (u^2 - v) * (w^2 - v) - u*w * (8*(1 + v^2) - 16*v).",
				"G.f. A(x) satisfies 0 = f(A(x), A(x^2)) where f(u, v) = (u*v + 1) * (u + v) * (u - v)^2 - u*v * (u - 1) * (v - 1) * (u*v - 8*(u+v) + 1).",
				"G.f.: (1/x) * (Product_{k\u003e0} P(x^k))^-4 where P(x) = x^6 - x^5 + x^4 - x^3 + x^2 - x + 1 is the 14th cyclotomic polynomial.",
				"a(n) = A058504(n) unless n = 0.",
				"a(n) ~ exp(2*Pi*sqrt(2*n/7)) / (2^(3/4) * 7^(1/4) * n^(3/4)). - _Vaclav Kotesovec_, Oct 14 2015"
			],
			"example": [
				"G.f. = 1/q + 4 + 10*q + 24*q^2 + 51*q^3 + 100*q^4 + 190*q^5 + 340*q^6 + ..."
			],
			"mathematica": [
				"a[ n_] := SeriesCoefficient[ 1/q (QPochhammer[ -q, q] / QPochhammer[ -q^7, q^7])^4, {q, 0, n}]; (* _Michael Somos_, Apr 26 2015 *)",
				"a[ n_] := SeriesCoefficient[ 1/q (QPochhammer[ q^2] QPochhammer[ q^7] / (QPochhammer[ q] QPochhammer[ q^14]))^4, {q, 0, n}]; (* _Michael Somos_, Apr 26 2015 *)",
				"nmax=60; CoefficientList[Series[Product[((1+x^k) / (1+x^(7*k)))^4,{k,1,nmax}],{x,0,nmax}],x] (* _Vaclav Kotesovec_, Oct 14 2015 *)"
			],
			"program": [
				"(PARI) {a(n) = my(A); if( n\u003c-1, 0, n++; A = x * O(x^n); polcoeff( (eta(x^2 + A) * eta(x^7 + A) / (eta(x + A) * eta(x^14 + A)))^4, n))};"
			],
			"xref": [
				"Cf. A058504."
			],
			"keyword": "nonn",
			"offset": "-1,2",
			"author": "_Michael Somos_, Mar 06 2007",
			"references": 2,
			"revision": 17,
			"time": "2021-03-12T22:24:44-05:00",
			"created": "2007-05-11T03:00:00-04:00"
		}
	]
}