{
	"greeting": "Greetings from The On-Line Encyclopedia of Integer Sequences! http://oeis.org/",
	"query": "id:A128458",
	"count": 1,
	"start": 0,
	"results": [
		{
			"number": 128458,
			"data": "1,2,3,7,12,17,19,51,65,550,1460,1641,7035,18002,20963,21163,42563,94906,148048",
			"name": "Numbers k such that 15^k - 2 is a prime.",
			"comment": [
				"a(20) \u003e 2*10^5. - _Robert Price_, Jun 23 2015"
			],
			"mathematica": [
				"Do[ f = 15^n - 2; If[ PrimeQ[ f ], Print[ {n, f} ] ], {n,1,1000} ]",
				"Do[If[PrimeQ[15^n - 2], Print[n]], {n, 10^4}] (* _Ryan Propper_, Jun 06 2007 *)"
			],
			"xref": [
				"Cf. A084714 (smallest prime of the form (2n-1)^k - 2).",
				"Cf. A128472 (smallest prime of the form (2n-1)^k - 2 for k \u003e (2n-1)).",
				"Cf. A014224, A109080, A090669, A128455, A128457, A128459, A128460, A128461."
			],
			"keyword": "nonn,hard,more",
			"offset": "1,2",
			"author": "_Alexander Adamchuk_, Mar 14 2007",
			"ext": [
				"550 from _Stefan Steinerberger_, May 05 2007",
				"3 more terms from _Ryan Propper_, Jun 06 2007",
				"a(14)-a(19) from _Robert Price_, Jun 23 2015"
			],
			"references": 13,
			"revision": 19,
			"time": "2021-06-11T08:45:19-04:00",
			"created": "2007-05-11T03:00:00-04:00"
		}
	]
}