{
	"greeting": "Greetings from The On-Line Encyclopedia of Integer Sequences! http://oeis.org/",
	"query": "id:A128703",
	"count": 1,
	"start": 0,
	"results": [
		{
			"number": 128703,
			"data": "10,15,35,50,55,65,75,85,95,115,145,155,175,185,205,215,235,250,265,275,295,305,325,335,355,365,375,395,415,425,445,475,485,505,515,535,545,565,575,635,655,685,695,725,745,755,775,785,815,835,865,875,895,905",
			"name": "Numbers of the form 5^k*p, where 1 \u003c= k \u003c= 5 and p is a prime different from 5.",
			"comment": [
				"Auxiliary sequence for A128704 which gives the number of groups of order a(n)."
			],
			"link": [
				"Klaus Brockhaus, \u003ca href=\"/A128703/b128703.txt\"\u003eTable of n, a(n) for n=1..10000\u003c/a\u003e"
			],
			"example": [
				"375 = 5^3*3 is a term."
			],
			"mathematica": [
				"With[{upto=1000},Select[Union[Flatten[5^Range[5] #\u0026/@Drop[Prime[ Range[ PrimePi[ Ceiling[upto/5]]]],{3}]]],#\u003c=upto\u0026]] (* _Harvey P. Dale_, Jul 27 2011 *)"
			],
			"program": [
				"(MAGMA) [ n: n in [1..910] | #t eq 2 and ((t[1, 1] lt 5 and t[1, 2] eq 1 and t[2, 1] eq 5 and t[2, 2] le 5) or (t[1, 1] eq 5 and t[1, 2] le 5 and t[2, 2] eq 1)) where t is Factorization(n) ];"
			],
			"xref": [
				"Cf. A128704, A000351 (powers of 5)."
			],
			"keyword": "nonn",
			"offset": "1,1",
			"author": "_Klaus Brockhaus_, Mar 26 2007",
			"references": 2,
			"revision": 8,
			"time": "2013-11-21T12:49:03-05:00",
			"created": "2007-05-11T03:00:00-04:00"
		}
	]
}