{
	"greeting": "Greetings from The On-Line Encyclopedia of Integer Sequences! http://oeis.org/",
	"query": "id:A128421",
	"count": 1,
	"start": 0,
	"results": [
		{
			"number": 128421,
			"data": "2,3,4,5,6,8,20,56,101,108,141,202,265,364,401,1035,1588,3062,4191,4579",
			"name": "Numbers n such that p(n)# + p(n+1)# +1 is prime, where p(n)# is the product of first n primes (A002110).",
			"xref": [
				"Cf. A002110, A014545, A128420."
			],
			"keyword": "nonn",
			"offset": "1,1",
			"author": "_Pierre CAMI_, Mar 02 2007",
			"ext": [
				"Corrected by _Emeric Deutsch_, Mar 06 2007",
				"Edited by _Ray Chandler_, Mar 13 2007"
			],
			"references": 7,
			"revision": 5,
			"time": "2012-03-31T13:22:05-04:00",
			"created": "2007-05-11T03:00:00-04:00"
		}
	]
}