{
	"greeting": "Greetings from The On-Line Encyclopedia of Integer Sequences! http://oeis.org/",
	"query": "id:A128022",
	"count": 1,
	"start": 0,
	"results": [
		{
			"number": 128022,
			"data": "1,2,3,8,15,30,63,128,252,510,1012,2028,4056,8120,16230,32464,64923,129852,259711,519420,1038828,2077658,4155318,8310648,16621300,33242586,66485178,132970348,265940701,531881400,1063762799,2127525600",
			"name": "a(1)=1, a(n) = the multiple of n which is \u003e= (sum{k=1 to n-1} a(k)) and is \u003c (n + sum{k=1 to n-1} a(k)).",
			"link": [
				"Michael De Vlieger, \u003ca href=\"/A128022/b128022.txt\"\u003eTable of n, a(n) for n = 1..3322\u003c/a\u003e"
			],
			"formula": [
				"a(1)=1, a(n) = n * ceiling(sum{k=1 to n-1} a(k) /n)."
			],
			"mathematica": [
				"f[l_List] := Block[{n = Length[l] + 1}, Append[l, n*(Ceiling[Plus @@ l/n])]]; Nest[f, {1}, 33] (* _Ray Chandler_, Feb 12 2007 *)",
				"Fold[Append[#1, #2 Ceiling@ Total[#1/#2]] \u0026, {1}, Range[2, 32]] (* _Michael De Vlieger_, Oct 11 2017 *)"
			],
			"xref": [
				"Cf. A128020, A128023."
			],
			"keyword": "easy,nonn",
			"offset": "1,2",
			"author": "_Leroy Quet_, Feb 11 2007",
			"ext": [
				"Extended by _Ray Chandler_, Feb 12 2007"
			],
			"references": 4,
			"revision": 10,
			"time": "2017-10-11T21:58:00-04:00",
			"created": "2007-05-11T03:00:00-04:00"
		}
	]
}