{
	"greeting": "Greetings from The On-Line Encyclopedia of Integer Sequences! http://oeis.org/",
	"query": "id:A128659",
	"count": 1,
	"start": 0,
	"results": [
		{
			"number": 128659,
			"data": "3,4,5,6,7,9,13,14,20,30,40,44,86,101,135,152,171,205,4404",
			"name": "Numbers n such that p(n+1)#-p(n)#-p(n-1)#-1 is prime where p(i)#=product of first i primes=A002110(i).",
			"mathematica": [
				"Flatten[Position[Partition[Rest[FoldList[Times,1,Prime[Range[210]]]],3,1],_?(PrimeQ[#[[3]]-#[[2]]-#[[1]]-1]\u0026),{1},Heads-\u003eFalse]]+1 (* This generates the first 18 terms of the sequence.  To generate the 19th term, change the Range constant to 4410, but it will take a very long time to run. *) (* _Harvey P. Dale_, Apr 23 2014 *)"
			],
			"xref": [
				"Cf. A002110, A128420, A128421, A128657, A128658, A128660, A128661, A128662."
			],
			"keyword": "nonn,more",
			"offset": "1,1",
			"author": "_Pierre CAMI_, Mar 19 2007",
			"references": 5,
			"revision": 9,
			"time": "2014-04-24T13:10:34-04:00",
			"created": "2007-05-11T03:00:00-04:00"
		}
	]
}