{
	"greeting": "Greetings from The On-Line Encyclopedia of Integer Sequences! http://oeis.org/",
	"query": "id:A128033",
	"count": 1,
	"start": 0,
	"results": [
		{
			"number": 128033,
			"data": "0,2,13,0,3,2,0,2,3,0,7,2,0,2,3,0,73,2,0,5,3,0,3,2,0,2,3,0,3,3,0,2,5,0,3,2,0,2,401,0,3,2,0,5,5,0,3,2,0",
			"name": "Least number k\u003e0 such that ((n+3)^k - 3^k)/n is prime, or 0 if no such prime exists.",
			"comment": [
				"All positive terms are primes.",
				"a(50)-a(67) = {7, 0, 79, 2, 0, 2, 109, 0, 5, 5, 0, 2, 5, 0, 131, 2, 0, 2}. a(69)-a(121) = {0, 3, 19, 0, 2, 5, 0, 11, 2, 0, 13, 7, 0, 3, 2, 0, 3, 11, 0, 3, 19, 0, 2, 3, 0, 11, 2, 0, 2, 3, 0, 17, 2, 0, 2, 3, 0, 5, 2, 0, 3, 31, 0, 17, 5, 0, 47, 31, 0, 3, 3, 0, 2}.",
				"a(49) \u003e 10000. - _Jinyuan Wang_, Nov 28 2020"
			],
			"formula": [
				"a(3*n) = 0."
			],
			"program": [
				"(PARI) a(n) = my(p=2); if(n%3, while(!ispseudoprime(((n+3)^p-3^p)/n), p=nextprime(p+1)); p, 0); \\\\ _Jinyuan Wang_, Nov 28 2020"
			],
			"xref": [
				"Cf. A128049 (least number k\u003e0 such that abs((3^k - (3-n)^k)/n) is prime), A028491, A121877, A128024, A128025, A128026, A128027, A128028, A128029, A128030, A128031, A128032."
			],
			"keyword": "nonn,hard,more",
			"offset": "0,2",
			"author": "_Alexander Adamchuk_, Feb 11 2007",
			"references": 1,
			"revision": 8,
			"time": "2020-11-29T01:03:34-05:00",
			"created": "2007-05-11T03:00:00-04:00"
		}
	]
}