{
	"greeting": "Greetings from The On-Line Encyclopedia of Integer Sequences! http://oeis.org/",
	"query": "id:A129890",
	"count": 1,
	"start": 0,
	"results": [
		{
			"number": 129890,
			"data": "1,5,33,279,2895,35685,509985,8294895,151335135,3061162125,68000295825,1645756410375,43105900812975,1214871076343925,36659590336994625,1179297174137457375,40288002704636061375,1456700757237661060125",
			"name": "a(n) = (2*n+2)!! - (2*n+1)!!.",
			"comment": [
				"Previous name was: Difference between the double factorial of the n-th nonnegative even number and the double factorial of the n-th nonnegative odd number.",
				"In other words, a(n) = b(2n+2)-b(2n+1), where b = A006882. - _N. J. A. Sloane_, Dec 14 2011 [Corrected _Peter Luschny_, Dec 01 2014]",
				"a(n) is the number of linear chord diagrams on 2n+2 vertices with one marked chord such that none of the remaining n chords are contained within the marked chord, see [Young]. - _Donovan Young_, Aug 11 2020"
			],
			"link": [
				"Selden Crary, Richard Diehl Martinez, Michael Saunders, \u003ca href=\"https://arxiv.org/abs/1707.00705\"\u003eThe Nu Class of Low-Degree-Truncated Rational Multifunctions. Ib. Integrals of Matern-correlation functions for all odd-half-integer class parameters\u003c/a\u003e, arXiv:1707.00705 [stat.ME], 2017, Table 2.",
				"Alexander Kreinin, \u003ca href=\"https://www.researchgate.net/profile/Alexander_Kreinin/publication/294260037\"\u003eInteger Sequences and Laplace Continued Fraction\u003c/a\u003e, Preprint 2016.",
				"Alexander Kreinin, \u003ca href=\"https://cs.uwaterloo.ca/journals/JIS/VOL19/Kreinin/kreinin4.html\"\u003eInteger Sequences Connected to the Laplace Continued Fraction and Ramanujan's Identity\u003c/a\u003e, Journal of Integer Sequences, 19 (2016), #16.6.2.",
				"N. Ochiumi, \u003ca href=\"http://infoshako.sk.tsukuba.ac.jp/~hachi/COS/cos2011/abst/ochiumi.pdf\"\u003eOn the total sum of number of nodes covering a given number of leaves in an unordered binary tree\u003c/a\u003e",
				"Donovan Young, \u003ca href=\"https://arxiv.org/abs/2007.13868\"\u003eA critical quartet for queuing couples\u003c/a\u003e, arXiv:2007.13868 [math.CO], 2020."
			],
			"formula": [
				"E.g.f.: 2/((1-2*x)^2)-1/[(1-2*x)*sqrt(1-2*x)]. - _Sergei N. Gladkovskii_, Dec 04 2011",
				"a(n) = (2n+1)*a(n-1) + A000165(n). - _Philippe Deléham_, Oct 28 2013"
			],
			"example": [
				"2!! - 1!! =  2 -  1 =  1;",
				"4!! - 3!! =  8 -  3 =  5;",
				"6!! - 5!! = 48 - 15 = 33."
			],
			"maple": [
				"seq(doublefactorial(2*n+2)-doublefactorial(2*n+1),n=0..9); # _Peter Luschny_, Dec 01 2014"
			],
			"mathematica": [
				"a[n_] := (2n+2)!! - (2n+1)!!;",
				"Table[a[n], {n, 0, 17}] (* _Jean-François Alcover_, Jul 30 2018 *)"
			],
			"xref": [
				"Cf. A006882, A122649, A202212, A336599."
			],
			"keyword": "easy,nonn",
			"offset": "0,2",
			"author": "_Paolo P. Lava_ and _Giorgio Balzarotti_, Jun 04 2007",
			"ext": [
				"New name from _Peter Luschny_, Dec 01 2014"
			],
			"references": 12,
			"revision": 55,
			"time": "2020-08-11T07:20:48-04:00",
			"created": "2007-11-10T03:00:00-05:00"
		}
	]
}