{
	"greeting": "Greetings from The On-Line Encyclopedia of Integer Sequences! http://oeis.org/",
	"query": "id:A129232",
	"count": 1,
	"start": 0,
	"results": [
		{
			"number": 129232,
			"data": "0,1,2,5,7,12,15,21,26,33,40,48,56,66,75,87,97,111,122,137,150,166,181,198,214,233,250,271,289,312,331,355,376,401,424,450,474,502,527,557,583,614,642,674,704,737,769,803,836,872,906,944,979,1018,1055,1095",
			"name": "a(n)=Floor(n*r)+Floor((n-2)*r)+Floor((n-4)*r)+...+Floor(k*r), where r = 2^(1/2) and k=0 if n is even, k=1 if n is odd.",
			"formula": [
				"a(n) = sum(A129231(k): k=0,1,...,n)."
			],
			"xref": [
				"Cf. A129231."
			],
			"keyword": "nonn",
			"offset": "0,3",
			"author": "_Clark Kimberling_, Apr 04 2007",
			"references": 1,
			"revision": 2,
			"time": "2012-03-30T18:57:10-04:00",
			"created": "2007-05-11T03:00:00-04:00"
		}
	]
}