{
	"greeting": "Greetings from The On-Line Encyclopedia of Integer Sequences! http://oeis.org/",
	"query": "id:A129461",
	"count": 1,
	"start": 0,
	"results": [
		{
			"number": 129461,
			"data": "1,28,908,37896,2036592,138517632,11692594944,1202885199360,148407122764800,21652192199577600,3690199478509977600,726862474705593139200,163918208008013340672000",
			"name": "Fourth column (m=3) of triangle A129065.",
			"comment": [
				"See A129065 for the M. Bruschi et al. reference."
			],
			"formula": [
				"a(n)=A129065(n+3,3),n\u003e=0."
			],
			"xref": [
				"Cf. A129460 (m=2)."
			],
			"keyword": "nonn,easy",
			"offset": "0,2",
			"author": "_Wolfdieter Lang_ May 04 2007",
			"references": 2,
			"revision": 2,
			"time": "2012-03-31T13:20:13-04:00",
			"created": "2007-11-10T03:00:00-05:00"
		}
	]
}