{
	"greeting": "Greetings from The On-Line Encyclopedia of Integer Sequences! http://oeis.org/",
	"query": "id:A129507",
	"count": 1,
	"start": 0,
	"results": [
		{
			"number": 129507,
			"data": "0,0,0,4,-4,0,8,-16,12,20,-80,116,-4,-376,884,-764,-1308,5816,-9128,648,32008,-79608,73100,122020,-574044,937456,-97748,-3366892,8659492,-8276056,-13301640,65261640,-109501476,14857740,395316672,-1042421076,1028105156,1582877768,-8052459580",
			"name": "G.f.: (1+x+x^2-sqrt(1+2x+3x^2-2x^3+x^4))*2.",
			"comment": [
				"Expansion related to the asymptotic mean of the mean square error of a wireless channel.",
				"On page 11 of Tulino and Verdu is equation (1.17) F(x,z) = (sqrt(x(1+sqrt(z))^2+1) - sqrt(x(1-sqrt(z))^2+1))^2. G.f. is F(x,x). - _Michael Somos_, Mar 18 2014"
			],
			"link": [
				"A. M. Tulino and S. Verdu, \u003ca href=\"http://dx.doi.org/10.1561/0100000001\"\u003eRandom Matrix Theory and Wireless Communications\u003c/a\u003e, Foundations and Trends in Communications and Information Theory, 1 (2004), 1-182."
			],
			"formula": [
				"G.f.: (sqrt(x(1+sqrt(x))^2+1)-sqrt(x(1-sqrt(x))^2+1))^2.",
				"G.f.: 2+2x+2x^2-2*sqrt(1+2x+3x^2-2x^3+x^4).",
				"D-finite with recurrence: n*a(n) +(2*n-3)*a(n-1) +3*(n-3)*a(n-2) +(9-2*n)*a(n-3) +(n-6)*a(n-4)=0 if n\u003e5. - _R. J. Mathar_, Nov 05 2012",
				"Conjecture: g.f.: 4*q^2*(1 - 1/G(0)) where G(k) =  1 + q/(1 + q^2 / G(k+1) ).  - _Joerg Arndt_, Jul 17 2013",
				"a(n) = A129509(n)*4.",
				"G.f.: 4 * (1 + x - (1 + x / (1 + x^2 / (1 + x / (1 + x^2 / ...))))). (continued fraction convergence is three power series terms per iteration) - _Michael Somos_, Mar 19 2014",
				"G.f.: 4*x * (1 - 1 / (1 - x + x^2 + x / (1 - x + x^2 + x / ...))). (continued fraction convergence is one power series term per iteration) - _Michael Somos_, Mar 18 2014",
				"0 = a(n)*(a(n+1) -5*a(n+2) +12*a(n+3) +11*a(n+4) +7*a(n+5)) + a(n+1)*(a(n+1) -2*a(n+2) -22*a(n+3) -21*a(n+4) -11*a(n+5)) + a(n+2)*(3*a(n+2) +17*a(n+3) +22*a(n+4) +12*a(n+5)) + a(n+3)*(-3*a(n+3) -2*a(n+4) +5*a(n+5)) + a(n+4)*(-a(n+4) +a(n+5)) if n\u003e1. - _Michael Somos_, Mar 18 2014"
			],
			"example": [
				"G.f. = 4*x^3 - 4*x^4 + 8*x^6 - 16*x^7 + 12*x^8 + 20*x^9 - 80*x^10 + 116*x^11 + ..."
			],
			"mathematica": [
				"a[ n_] := SeriesCoefficient[ 2 (1 + x + x^2 - Sqrt[1 + 2*x + 3*x^2 - 2*x^3 + x^4]), {x, 0, n}]; (* _Michael Somos_, Mar 18 2014 *)"
			],
			"program": [
				"(PARI) x='x+O('x^66); Vec( 2+2*x+2*x^2-2*sqrt(1+2*x+3*x^2-2*x^3+x^4) ) \\\\ _Joerg Arndt_, Jul 17 2013"
			],
			"xref": [
				"Cf. A129509."
			],
			"keyword": "sign",
			"offset": "0,4",
			"author": "_Paul Barry_, Apr 18 2007",
			"references": 1,
			"revision": 26,
			"time": "2020-01-30T21:29:16-05:00",
			"created": "2007-05-11T03:00:00-04:00"
		}
	]
}