{
	"greeting": "Greetings from The On-Line Encyclopedia of Integer Sequences! http://oeis.org/",
	"query": "id:A129832",
	"count": 1,
	"start": 0,
	"results": [
		{
			"number": 129832,
			"data": "1,2,3,5,6,9,10,11,13,18,19,22,25,26,27,29,37,38,50,53,54,58,59,61,67,74,81,83,101,106,107,118,121,122,125,131,134,139,149,162,163,166,169,173,179,181,197,202,211,214,227,242,243,250,262,269,278,293",
			"name": "Integers n such that the n-th cyclotomic polynomial Phi(n) is irreducible over GF(2).",
			"formula": [
				"This sequence consists of 1, 2 and numbers having primitive root 2 (that is, numbers that are powers of primes p in sequence A001122, or twice powers of p). - _T. D. Noe_, Jan 03 2008"
			],
			"example": [
				"7 is absent from the list as Phi(7) == (x^3 + x + 1)*(x^3 + x^2 + 1) (mod 2)."
			],
			"mathematica": [
				"Select[Range[300], Transpose[Rest[FactorList[Cyclotomic[#, x], Modulus -\u003e 2]]][[2]] == {1} \u0026] (* _T. D. Noe_, Mar 03 2014 *)"
			],
			"program": [
				"(PARI) for(x=1,200,if(polisirreducible(Mod(1,2)*polcyclo(x)),print1(x\",\")))"
			],
			"keyword": "easy,nonn",
			"offset": "1,2",
			"author": "_Phil Carmody_, May 21 2007",
			"references": 1,
			"revision": 11,
			"time": "2014-03-04T03:12:27-05:00",
			"created": "2007-11-10T03:00:00-05:00"
		}
	]
}