{
	"greeting": "Greetings from The On-Line Encyclopedia of Integer Sequences! http://oeis.org/",
	"query": "id:A129253",
	"count": 1,
	"start": 0,
	"results": [
		{
			"number": 129253,
			"data": "0,0,0,1,1,1,1,2,2,2,2,3,3,3,3,4,4,4,4,5,5,5,5,6,6,6,7,8,8,8,8,9,9,9,9,10,10,10,10,11,11,11,11,12,12,12,12,13,13,13,13,14,14,15,15,16,16,16,16,17,17,17,17,18,18,18,18,19,19,19,19,20,20,20,20,21,21,21,21,22,23",
			"name": "Number of numbers not greater than n having at least one divisor p^e with p\u003c=e, p prime.",
			"comment": [
				"a(1) = 1, a(n+1) = if A129251(n+1)\u003e0 then a(n-1)+1 else a(n-1)."
			],
			"link": [
				"R. Zumkeller, \u003ca href=\"/A129253/b129253.txt\"\u003eTable of n, a(n) for n = 1..10000\u003c/a\u003e"
			],
			"keyword": "nonn",
			"offset": "1,8",
			"author": "_Reinhard Zumkeller_, Apr 07 2007",
			"references": 1,
			"revision": 4,
			"time": "2012-03-30T18:50:58-04:00",
			"created": "2007-05-11T03:00:00-04:00"
		}
	]
}