{
	"greeting": "Greetings from The On-Line Encyclopedia of Integer Sequences! http://oeis.org/",
	"query": "id:A129337",
	"count": 1,
	"start": 0,
	"results": [
		{
			"number": 129337,
			"data": "1,3,3,5,5,7,7,7,9,9,9,9,11,11,11,11,13,13,13,13,13,15,15,15,15",
			"name": "Maximal possible degree of a Chebyshev-type quadrature formula with n nodes, in the case of the constant weight function on [ -1,1].",
			"comment": [
				"These are the results reported in reference [1]. Spherical designs in 3 dimensions (cf. A007828) also project to Chebyshev-type quadrature rules for the constant weight function on [ -1,1] (see reference [2]), but apparently this yields a smaller maximum degree for any given n."
			],
			"link": [
				"Klaus-Jurgen Forster, Georg-Peter Ostermeyer, \u003ca href=\"http://dx.doi.org/10.1090/S0025-5718-1986-0829628-2\"\u003eOn Weighted Chebyshev-Type Quadrature Formulas\u003c/a\u003e,Mathematics of Computation, Vol. 46, No. 174. (Apr., 1986), pp. 591-599. Table 1, p. 596.",
				"Greg Kuperberg, \u003ca href=\"http://dx.doi.org/10.1137/040615584\"\u003eNumerical Cubature from Archimedes' Hat-box Theorem\u003c/a\u003e, SIAM J. Numer. Anal. 44 (2006), no. 3, 908--935."
			],
			"xref": [
				"Cf. A007828."
			],
			"keyword": "more,nonn",
			"offset": "1,2",
			"author": "_Paul Leopardi_, May 28 2007",
			"references": 0,
			"revision": 7,
			"time": "2015-01-02T20:47:14-05:00",
			"created": "2007-11-10T03:00:00-05:00"
		}
	]
}