{
	"greeting": "Greetings from The On-Line Encyclopedia of Integer Sequences! http://oeis.org/",
	"query": "id:A129535",
	"count": 1,
	"start": 0,
	"results": [
		{
			"number": 129535,
			"data": "2,6,22,106,630,4394,35078,315258,3149494,34620010,415222566,5395737242,75516784982,1132471183626,18115911832390,307919970965434,5541804787940598,105282261866132138,2105441434230129254,44210612765653749210,972564180363044943766",
			"name": "Number of permutations of 1,...,n with at least one pair of adjacent consecutive entries (i.e., of the form k(k+1) or (k+1)k), n \u003e= 2.",
			"comment": [
				"Column 1 of A129534. a(n) = n! - A002464(n).",
				"Column k=2 of A322481."
			],
			"reference": [
				"R. P. Stanley, Enumerative Combinatorics, Cambridge, Vol. 2, 1999; see Problem 6.40."
			],
			"link": [
				"Alois P. Heinz, \u003ca href=\"/A129535/b129535.txt\"\u003eTable of n, a(n) for n = 2..450\u003c/a\u003e"
			],
			"formula": [
				"G.f.: E(x) - E(x(1-x)/(1+x)), where E(x) = Sum_{n\u003e=0} n!*x^n.",
				"a(n) = n! - Sum_{k=1..n} ((-1)^(n-k)*k!*Sum_{i=0..n-k} binomial(i+k-1, k-1)*binomial(k, n-i-k)), n \u003e 0. - _Vladimir Kruchinin_, Sep 08 2010"
			],
			"example": [
				"a(4)=22 because 3142 and 2413 are the only permutations of 1,2,3,4 with no adjacent consecutive entries."
			],
			"maple": [
				"E:=x-\u003esum(n!*x^n,n=0..35): G:=E(x)-E(x*(1-x)/(1+x)): Gser:=series(G,x=0,30): seq(coeff(Gser,x,n),n=2..23);"
			],
			"xref": [
				"Cf. A002464, A129534, A322481."
			],
			"keyword": "nonn",
			"offset": "2,1",
			"author": "_Emeric Deutsch_, May 05 2007",
			"references": 3,
			"revision": 12,
			"time": "2018-12-12T11:11:10-05:00",
			"created": "2007-05-11T03:00:00-04:00"
		}
	]
}