{
	"greeting": "Greetings from The On-Line Encyclopedia of Integer Sequences! http://oeis.org/",
	"query": "id:A129240",
	"count": 1,
	"start": 0,
	"results": [
		{
			"number": 129240,
			"data": "1,2,2,4,0,3,6,5,0,4,9,0,3,0,5,12,9,4,4,0,6,16,0,3,0,5,0,7,20,14,4,9,0,6,0,8,25,0,8,0,5,0,7,0,9,30,20,4,9,6,6,0,8,0,10",
			"name": "A128174 * A129234.",
			"comment": [
				"Left border = A002620 starting (1, 2, 4, 6, 9, 12, 16,...)."
			],
			"formula": [
				"A128174 * A129234 as infinite lower triangular matrices."
			],
			"example": [
				"First few rows of the triangle are:",
				"1;",
				"2, 2;",
				"4, 0, 3;",
				"6, 5, 0, 4;",
				"9, 0, 3, 0, 5;",
				"12, 9, 4, 4, 0, 6;",
				"16, 0, 3, 0, 5, 0, 7;",
				"..."
			],
			"xref": [
				"Cf. A128174, A129234, A002620."
			],
			"keyword": "nonn,tabl",
			"offset": "1,2",
			"author": "_Gary W. Adamson_, Apr 05 2007",
			"references": 0,
			"revision": 2,
			"time": "2012-03-30T17:25:20-04:00",
			"created": "2007-05-11T03:00:00-04:00"
		}
	]
}