{
	"greeting": "Greetings from The On-Line Encyclopedia of Integer Sequences! http://oeis.org/",
	"query": "id:A129098",
	"count": 1,
	"start": 0,
	"results": [
		{
			"number": 129098,
			"data": "1,5,23,135,1119,14319,300015,10636463,652217135,70382845743,13551477257519,4706105734658351,2973879284783561007,3444999327807280048431,7362415635261959807011119,29188908702092573515760044335",
			"name": "a(n) = A129095(2^n + 2^(n-1) - 1) for n\u003e=1.",
			"comment": [
				"b(n)=A129095(n) obeys the recurrence: b(n) = b(n/2) (n even), b(n) = 2*b(n-1) + b(n-2) (n odd \u003e1), with b(1) = 1."
			],
			"mathematica": [
				"Block[{e = 18, s}, s = Nest[Append[#1, If[EvenQ[#2], #1[[#2/2]], 2 #1[[-1]] + #1[[-2]] ] ] \u0026 @@ {#, Length@ # + 1} \u0026, {1}, 2^e]; Array[s[[2^# + 2^(# - 1) - 1]] \u0026, e - 1]] (* _Michael De Vlieger_, Mar 10 2020 *)"
			],
			"program": [
				"(PARI)"
			],
			"xref": [
				"Cf. A129095, A129096, A129097, A129099."
			],
			"keyword": "easy,nonn",
			"offset": "1,2",
			"author": "_Paul D. Hanna_, Apr 11 2007",
			"ext": [
				"a(16) from _Michael De Vlieger_, Mar 10 2020."
			],
			"references": 4,
			"revision": 8,
			"time": "2020-03-10T15:32:48-04:00",
			"created": "2007-05-11T03:00:00-04:00"
		}
	]
}