{
	"greeting": "Greetings from The On-Line Encyclopedia of Integer Sequences! http://oeis.org/",
	"query": "id:A129264",
	"count": 1,
	"start": 0,
	"results": [
		{
			"number": 129264,
			"data": "1,2,1,2,1,1,3,2,1,1,3,2,1,1,1,3,2,2,1,1,1,3,2,2,1,1,1,1,4,3,2,2,1,1,1,1,4,3,2,2,1,1,1,1,1,4,3,2,2,2,1,1,1,1,1,4,3,2,2,2,1,1,1,1,1,1,4,3,3,2,2,2,1,1,1,1,1,1,1",
			"name": "A000012 * A115361.",
			"comment": [
				"Triangle read by rows, A000012 * A115361; where A000012 = an infinite lower triangular matrix with all 1's: [1; 1,1; 1,1,1;...] and A115361 = the ruler function triangle.",
				"The operation A000012 * A115361 takes partial sums of A115361 column terms starting from the top. [_Gary W. Adamson_, Nov 27 2009]",
				"Eigensequence of the triangle = A089067: (1, 3, 5, 13, 23, 51, 97, 207, ...). [_Gary W. Adamson_, Nov 27 2009]",
				"Row sums = A005187: (1, 3, 4, 7, 8, 10, 11, 15,...)",
				"Left column = A070939 starting (1, 2, 2, 3, 3, 3, 3, 4, 4, 4,...)."
			],
			"formula": [
				"A000012 * A115361 as infinite lower triangular matrices."
			],
			"example": [
				"First few rows of the triangle are:",
				"1;",
				"2, 1;",
				"2, 1, 1;",
				"3, 2, 1, 1;",
				"3, 2, 1, 1, 1;",
				"3, 2, 2, 1, 1, 1;",
				"3, 2, 2, 1, 1, 1, 1;",
				"4, 3, 2, 2, 1, 1, 1, 1;",
				"4, 3, 2, 2, 1, 1, 1, 1, 1;",
				"4, 3, 2, 2, 2, 1, 1, 1, 1, 1;",
				"4, 3, 2, 2, 2, 1, 1, 1, 1, 1, 1;",
				"4, 3, 3, 2, 2, 2, 1, 1, 1, 1, 1, 1;",
				"..."
			],
			"xref": [
				"Cf. A000012, A115361, A129265, A070939, A005187, A089067."
			],
			"keyword": "nonn,tabl",
			"offset": "1,2",
			"author": "_Gary W. Adamson_, Apr 06 2007",
			"references": 1,
			"revision": 8,
			"time": "2019-04-21T04:56:48-04:00",
			"created": "2007-05-11T03:00:00-04:00"
		}
	]
}