{
	"greeting": "Greetings from The On-Line Encyclopedia of Integer Sequences! http://oeis.org/",
	"query": "id:A129209",
	"count": 1,
	"start": 0,
	"results": [
		{
			"number": 129209,
			"data": "1,3,31,5283,-113279,21166249443,-518493692732129,189797666150873887683,-249563579992463717493803519,2960896329211804542556804051252803,-115038188620995226180802686473825513089249",
			"name": "Fourth sequence in solution to congruent number 5 problem.",
			"comment": [
				"Let W(n)=A129206(n), X(n)=A129207(n), Y(n)=A129208(n), Z(n)=A129209(n).",
				"These four sequences correspond to the four Jacobi theta functions or Weierstrass sigma functions."
			],
			"reference": [
				"J. V. Uspensky and M. A. Heaslet, Elementary Number Theory, McGraw-Hill, 1939. See p. 427."
			],
			"link": [
				"Seiichi Manyama, \u003ca href=\"/A129209/b129209.txt\"\u003eTable of n, a(n) for n = 0..49\u003c/a\u003e"
			],
			"formula": [
				"Right triangle with sides |10*Y(n)*W(n) / (X(n)*Z(n))|, |X(n)*Z(n) / (Y(n)*W(n))|, |2*Y(2*n) / W(2*n)| has area 5.",
				"Z(2*n) = Z(n)^4 -50* W(n)^4.",
				"a(n+2) * a(n-2) = -144*a(n+1) * a(n-1) +2257 * a(n)^2. a(-n) = a(n)."
			],
			"program": [
				"(PARI) {a(n) = n=abs(n); if( n\u003c1, 1, if(n\u003c4, [3, 31, 5283][n], (-144 * a(n-1) * a(n-3) + 2257* a(n-2)^2 ) / a(n-4) ))};"
			],
			"keyword": "sign",
			"offset": "0,2",
			"author": "_Michael Somos_, Apr 03 2007, Apr 17 2007",
			"references": 4,
			"revision": 10,
			"time": "2018-05-28T11:37:22-04:00",
			"created": "2007-05-11T03:00:00-04:00"
		}
	]
}