{
	"greeting": "Greetings from The On-Line Encyclopedia of Integer Sequences! http://oeis.org/",
	"query": "id:A129681",
	"count": 1,
	"start": 0,
	"results": [
		{
			"number": 129681,
			"data": "1,4,-2,0,-2,-1,1,4,-2,-1,0,-2,1,6,-2,0,-2,-1,0,-2,1,2,-2,-1,1,4,-2,0,-2,-1,1,4,-2,-1,0,-2,1,2,-2,-1,1,6,-2,0,-2,-1,0,-2,1,4,-2,0,-2,-1,1,4,-2,-1,0,-2,1,6,-2,0,-2,-1,0,-2,1,2,-2,-1,1,6,-2,0,-2,-1,0,-2,1,4,-2,0,-2,-1,1,4,-2,-1,0,-2,1,2,-2,-1,1,4,-2",
			"name": "Distance sequence of A129677: A129677(n)-n.",
			"comment": [
				"The numbers in this sequence seem to be in the range of [ -2,6], but they are never 3 nor 5 (tested up to 10^4). The relative density of the values {-2,-1,0,1,2,4,6} asymptotically is {8,4,4,4,1,2,1}."
			],
			"xref": [
				"Distance of A129677, Cf. A129678, A129679, A129680 and A000069."
			],
			"keyword": "sign",
			"offset": "1,2",
			"author": "Ferenc Adorjan (fadorjan(AT)freemail.hu or ferencadorjan(AT)gmail.com), May 01 2007",
			"references": 4,
			"revision": 6,
			"time": "2019-08-05T14:37:09-04:00",
			"created": "2007-05-11T03:00:00-04:00"
		}
	]
}