{
	"greeting": "Greetings from The On-Line Encyclopedia of Integer Sequences! http://oeis.org/",
	"query": "id:A129581",
	"count": 1,
	"start": 0,
	"results": [
		{
			"number": 129581,
			"data": "1,1,4,35,728,26464,1866256,251518352,66296210432,34496477587456,35641657548953344,73354596197458024448,301272202649664088951808,2471648811030427594714599424,40527680937730480229320939012096",
			"name": "Number of labeled prime graphs with respect to the Cartesian multiplication of graphs.",
			"link": [
				"Ji Li, \u003ca href=\"http://arXiv.org/abs/0705.0038\"\u003ePrime graphs and exponential Composition of Species\u003c/a\u003e, arXiv:0705.0038",
				"Ji Li, \u003ca href=\"http://dx.doi.org/10.1016/j.jcta.2008.02.008\"\u003ePrime graphs and exponential composition of species\u003c/a\u003e, J. Combin. Theory A 115 (2008) 1374-1401"
			],
			"formula": [
				"Let D(P) be the exponential Dirichlet generating series for the species of prime graphs and let D(C) be the exponential Dirichlet generating series for the species of connected graphs. We have D(P)=log D(C)"
			],
			"example": [
				"Almost all connected graphs are prime graphs with respect to Cartesian product of graphs. So instead of giving an example of prime graph, we give here an example of a connected nonprime graph on vertices {1,2,3,4}:",
				"1 --- 4",
				"| ... |",
				"2 --- 3",
				"The above graph is not prime since it is the Cartesian product of two line graphs of order 2."
			],
			"xref": [
				"Cf. This is the logarithmic of A001187. Unlabeled prime graphs is given by A129582."
			],
			"keyword": "easy,nonn",
			"offset": "1,3",
			"author": "Ji Li (vieplivee(AT)hotmail.com), May 04 2007",
			"references": 0,
			"revision": 7,
			"time": "2011-04-20T13:34:36-04:00",
			"created": "2007-05-11T03:00:00-04:00"
		}
	]
}