{
	"greeting": "Greetings from The On-Line Encyclopedia of Integer Sequences! http://oeis.org/",
	"query": "id:A130258",
	"count": 1,
	"start": 0,
	"results": [
		{
			"number": 130258,
			"data": "0,0,2,5,8,11,15,19,23,27,31,35,39,43,48,53,58,63,68,73,78,83,88,93,98,103,108,113,118,123,128,133,138,143,148,154,160,166,172,178,184,190,196,202,208,214,220,226,232,238,244,250,256,262,268,274,280,286,292",
			"name": "Partial sums of the 'upper' odd Fibonacci Inverse A130256.",
			"link": [
				"G. C. Greubel, \u003ca href=\"/A130258/b130258.txt\"\u003eTable of n, a(n) for n = 0..2500\u003c/a\u003e"
			],
			"formula": [
				"a(n) = n*A130256(n) - A001906(A130256(n) -1).",
				"a(n) = n*A130256(n) - Fib(2*A130256(n)-2) - 1.",
				"G.f.: g(x) = x/(1-x)^2*Sum_{k\u003e=0} x^Fib(2*k-1)."
			],
			"mathematica": [
				"Table[Sum[Ceiling[1/2*(1 + Log[GoldenRatio, (Sqrt[5]*k - 1)])], {k,2,n}], {n, 0, 50}] (* _G. C. Greubel_, Sep 13 2018 *)"
			],
			"program": [
				"(PARI) for(n=0, 50, print1(if(n==0, 0, if(n==1, 0, sum(k=2, n, ceil( (1/2)*(1 + log(sqrt(5)*k - 1)/log((1+sqrt(5))/2)))))), \", \")) \\\\ _G. C. Greubel_, Sep 13 2018",
				"(MAGMA) [0,0] cat [(\u0026+[Ceiling((1/2)*(1 + Log(Sqrt(5)*k-1)/Log((1+Sqrt(5))/2))): k in [2..n]]): n in [2..50]]; // _G. C. Greubel_, Sep 13 2018"
			],
			"xref": [
				"Cf. A000045, A001519, A001906, A130234, A130235, A130236, A130255, A130257, A104162. Lucas inverse: A130241 - A130248."
			],
			"keyword": "nonn",
			"offset": "0,3",
			"author": "_Hieronymus Fischer_, May 24 2007",
			"references": 5,
			"revision": 5,
			"time": "2018-09-13T02:58:44-04:00",
			"created": "2007-11-10T03:00:00-05:00"
		}
	]
}