{
	"greeting": "Greetings from The On-Line Encyclopedia of Integer Sequences! http://oeis.org/",
	"query": "id:A130587",
	"count": 1,
	"start": 0,
	"results": [
		{
			"number": 130587,
			"data": "1,2,4,9,20,44,96,209,456,998,2188,4797,10508,22998,50300,109925,239888,522294,1133548,2450853,5277428,11317522,24175780,51455011,109151272,230849188,486943160,1024797729,2152642748,4514814294,9457734492,19793953547",
			"name": "Binomial transform of A130008.",
			"keyword": "nonn",
			"offset": "0,2",
			"author": "_Paul Curtz_, Jun 16 2007",
			"ext": [
				"Corrected and extended by _R. J. Mathar_, Feb 11 2016"
			],
			"references": 0,
			"revision": 6,
			"time": "2016-02-11T08:00:41-05:00",
			"created": "2007-11-10T03:00:00-05:00"
		}
	]
}