{
	"greeting": "Greetings from The On-Line Encyclopedia of Integer Sequences! http://oeis.org/",
	"query": "id:A130977",
	"count": 1,
	"start": 0,
	"results": [
		{
			"number": 130977,
			"data": "1,6,66,876,12786,197796,3183156,52718616,892401426,15368638836,268388185596,4741271556456,84573471344916,1521119577791976,27554494253636136,502257203287150896,9205363627419463506",
			"name": "G.f.: 5/(2 + 3*sqrt(1-20*x)).",
			"comment": [
				"Number of walks of length 2n on the 6-regular tree beginning and ending at some fixed vertex. Hankel transform is A135349. - _Philippe Deléham_, Feb 25 2009"
			],
			"link": [
				"Vincenzo Librandi, \u003ca href=\"/A130977/b130977.txt\"\u003eTable of n, a(n) for n = 0..200\u003c/a\u003e"
			],
			"formula": [
				"a(n) = Sum_{k=0..n} A039599(n,k)*5^(n-k). - _Philippe Deléham_, Aug 25 2007",
				"From _Gary W. Adamson_, Jul 22 2011: (Start)",
				"a(n) = upper left term in M^n, M = an infinite square production matrix as follows:",
				"  6, 6, 0, 0, 0, 0, ...",
				"  5, 5, 5, 0, 0, 0, ...",
				"  5, 5, 5, 5, 0, 0, ...",
				"  5, 5, 5, 5, 5, 0, ...",
				"  5, 5, 5, 5, 5, 5, ...",
				"  ... (End)",
				"D-finite with recurrence: n*a(n) = 2*(28*n-15)*a(n-1) - 360*(2*n-3)*a(n-2). - _Vaclav Kotesovec_, Oct 20 2012",
				"a(n) ~ 3*2^(2*n-3)*5^(n+1)/(sqrt(Pi)*n^(3/2)). - _Vaclav Kotesovec_, Oct 20 2012"
			],
			"mathematica": [
				"CoefficientList[Series[5/(2+3*Sqrt[1-20*x]), {x, 0, 20}], x] (* _Vaclav Kotesovec_, Oct 20 2012 *)"
			],
			"xref": [
				"Column k=6 of A183135."
			],
			"keyword": "nonn",
			"offset": "0,2",
			"author": "_Philippe Deléham_, Aug 23 2007",
			"ext": [
				"More terms from _Olivier Gérard_, Sep 22 2007"
			],
			"references": 6,
			"revision": 24,
			"time": "2021-06-05T02:23:09-04:00",
			"created": "2007-11-10T03:00:00-05:00"
		}
	]
}