{
	"greeting": "Greetings from The On-Line Encyclopedia of Integer Sequences! http://oeis.org/",
	"query": "id:A130671",
	"count": 1,
	"start": 0,
	"results": [
		{
			"number": 130671,
			"data": "1,1,1,1,2,1,1,3,3,1,1,4,7,4,1,1,5,13,13,5,1,1,6,21,30,21,6,1,1,7,31,57,57,31,7,1,1,8,43,96,123,96,43,8,1,1,9,57,149,231,231,149,57,9,1,1,10,73,218,395,478,395,218,73,10,1",
			"name": "Triangular sequence based on Pascal's triangle: t(n,m) = 2*binomial(m, n) - (1 + n*(m - n)).",
			"comment": [
				"Suggested by _Gary W. Adamson_ from a previous submission. Very close to (but slightly smaller at 7th row) A086617."
			],
			"formula": [
				"t(n,m) = 2*binomial[m, n] - (1 + n*(m - n))."
			],
			"example": [
				"{1},",
				"{1, 1},",
				"{1, 2, 1},",
				"{1, 3, 3, 1},",
				"{1, 4, 7, 4, 1},",
				"{1, 5, 13, 13, 5, 1},",
				"{1, 6, 21, 30, 21, 6, 1},",
				"{1, 7, 31, 57, 57, 31, 7, 1}"
			],
			"mathematica": [
				"Table[Table[2*Binomial[m, n] - (1 + n*(m - n)), {n, 0, m}], {m, 0, 10}] Flatten[%]"
			],
			"xref": [
				"Cf. A086617."
			],
			"keyword": "nonn,tabl",
			"offset": "1,5",
			"author": "_Roger L. Bagula_ and _Gary W. Adamson_, Jun 27 2007",
			"references": 0,
			"revision": 7,
			"time": "2015-08-09T01:38:36-04:00",
			"created": "2007-11-10T03:00:00-05:00"
		}
	]
}