{
	"greeting": "Greetings from The On-Line Encyclopedia of Integer Sequences! http://oeis.org/",
	"query": "id:A130109",
	"count": 1,
	"start": 0,
	"results": [
		{
			"number": 130109,
			"data": "1,3,2,7,4,5,6,10,8,17,9,16,11,14,12,13,15,21,18,31,19,30,20,29,22,27,23,26,24,25,28,36,32,49,33,48,34,47,35,46,37,44,38,43,39,42,40,41,45,55,50,71,51,70,52,69,53,68,54,67,56,65,57,64,58,63,59,62,60,61,66,78",
			"name": "Rearrangement of natural numbers such that each two terms sum up to a perfect square.",
			"example": [
				"1+3=4, 2+7=9, 4+5=9, 6+10=16, 8+17=25."
			],
			"mathematica": [
				"s={};ra=Range[2000]; Do[su=ra[[1]]; c=2;While[ !IntegerQ[Sqrt[su+ra[[c]]]],c++ ];rac=ra[[c]]; s=Join[s,{ra[[1]],rac}];ra=Complement[ra,{ra[[1]],rac}],{133}];s"
			],
			"xref": [
				"Cf. A130108, A130110, A130111."
			],
			"keyword": "nonn",
			"offset": "1,2",
			"author": "_Zak Seidov_, May 08 2007",
			"references": 3,
			"revision": 2,
			"time": "2012-03-30T17:26:23-04:00",
			"created": "2007-05-11T03:00:00-04:00"
		}
	]
}