{
	"greeting": "Greetings from The On-Line Encyclopedia of Integer Sequences! http://oeis.org/",
	"query": "id:A130422",
	"count": 1,
	"start": 0,
	"results": [
		{
			"number": 130422,
			"data": "1,137243,2517961,117741349,369940993,19049924867,30861256333,1087115897989,38969560049629",
			"name": "Numbers n such that 4^n == 3 (mod n).",
			"comment": [
				"No other terms below 10^15.",
				"222775558403218644781528238995676668723498240827403019 belongs to this sequence. - _Max Alekseyev_, Jul 03 2014"
			],
			"link": [
				"M. Miller, \u003ca href=\"http://ajc.maths.uq.edu.au/pdf/3/ajc-v3-p151.pdf\"\u003eDigraph covering and its application to two optimization problems for digraphs\u003c/a\u003e, Australasian Journal of Combinatorics, 3 (1991), pp. 151-164."
			],
			"program": [
				"(PARI) for (n=1,10^33, if ( Mod(4,n)^n==3, print1(n,\", \"))); /* _Joerg Arndt_, Jun 09 2012 */"
			],
			"xref": [
				"Cf. A130421."
			],
			"keyword": "nonn,more",
			"offset": "1,2",
			"author": "_Jon E. Schoenfield_, May 26 2007",
			"ext": [
				"a(6) from _Jon E. Schoenfield_, Sep 30 2013",
				"a(7) from _Jared Polzer_, Oct 03 2013",
				"a(8)-a(9) from _Max Alekseyev_, Jul 03 2014"
			],
			"references": 4,
			"revision": 25,
			"time": "2014-07-03T15:52:49-04:00",
			"created": "2007-11-10T03:00:00-05:00"
		}
	]
}