{
	"greeting": "Greetings from The On-Line Encyclopedia of Integer Sequences! http://oeis.org/",
	"query": "id:A130886",
	"count": 1,
	"start": 0,
	"results": [
		{
			"number": 130886,
			"data": "1,11,99,427,1253,2931,5911,10739,18057,28603,43211,62811,88429,121187,162303,213091,274961,349419,438067,542603,664821,806611,969959,1156947,1369753,1610651,1882011,2186299,2526077,2904003",
			"name": "4n^4 + 3n^3 + 2n^2 + n + 1.",
			"link": [
				"Vincenzo Librandi, \u003ca href=\"/A130886/b130886.txt\"\u003eTable of n, a(n) for n = 0..1000\u003c/a\u003e"
			],
			"formula": [
				"G.f.: (1 + 6*x + 54*x^2 + 32*x^3 + 3*x^4)/(1 - x)^5. - _Vincenzo Librandi_, Feb 12 2013"
			],
			"mathematica": [
				"CoefficientList[Series[(1 + 6 x + 54 x^2 + 32 x^3 + 3 x^4)/(1 - x)^5, {x, 0, 35}], x] (* _Vincenzo Librandi_, Feb 12 2013 *)"
			],
			"program": [
				"(MAGMA) [4*n^4+3*n^3+2*n^2+n+1: n in [0..40]]; // _Vincenzo Librandi_, Feb 12 2013"
			],
			"xref": [
				"Cf. A084849, A056109, A056105."
			],
			"keyword": "nonn,easy",
			"offset": "0,2",
			"author": "_Mohammad K. Azarian_, Jul 26 2007",
			"references": 1,
			"revision": 10,
			"time": "2013-06-22T16:06:02-04:00",
			"created": "2007-11-10T03:00:00-05:00"
		}
	]
}