{
	"greeting": "Greetings from The On-Line Encyclopedia of Integer Sequences! http://oeis.org/",
	"query": "id:A130242",
	"count": 1,
	"start": 0,
	"results": [
		{
			"number": 130242,
			"data": "0,0,0,2,3,4,4,4,5,5,5,5,6,6,6,6,6,6,6,7,7,7,7,7,7,7,7,7,7,7,8,8,8,8,8,8,8,8,8,8,8,8,8,8,8,8,8,8,9,9,9,9,9,9,9,9,9,9,9,9,9,9,9,9,9,9,9,9,9,9,9,9,9,9,9,9,9,10,10,10,10,10,10,10,10,10,10,10,10,10,10,10,10,10,10,10",
			"name": "Minimal index k of a Lucas number such that Lucas(k)\u003e=n (the 'upper' Lucas (A000032) Inverse).",
			"comment": [
				"Inverse of the Lucas sequence (A000032), nearly, since a(Lucas(n))=n except for n=1 (see A130241 and A130247 for other versions). For n\u003e=2, a(n+1) is equal to the partial sum of the Lucas indicator sequence (see A102460)."
			],
			"link": [
				"G. C. Greubel, \u003ca href=\"/A130242/b130242.txt\"\u003eTable of n, a(n) for n = 0..5000\u003c/a\u003e"
			],
			"formula": [
				"a(n) = ceiling(log_phi((n+sqrt(n^2-4))/2))=ceiling(arccosh(n/2)/log(phi)) where phi=(1+sqrt(5))/2.",
				"a(n) = A130241(n-1) + 1 = A130245(n-1) for n\u003e=3.",
				"G.f.: x/(1-x)*(2x^2+sum{k\u003e=2, x^Lucas(k)}).",
				"a(n) = ceiling(log_phi(n-1/2)) for n\u003e=3, where phi is the golden ratio."
			],
			"example": [
				"a(10)=5, since Lucas(5)=11\u003e=10 but Lucas(4)=7\u003c10."
			],
			"mathematica": [
				"Join[{0, 0, 0}, Table[Ceiling[Log[GoldenRatio, n + 1/2]], {n, 2, 50}]] (* _G. C. Greubel_, Dec 24 2017 *)"
			],
			"xref": [
				"For partial sums see A130244.",
				"Other related sequences: A000032, A130241, A130245, A130247, A130250, A130256, A130260.",
				"Indicator sequence A102460.",
				"Fibonacci inverse see A130233 - A130240, A104162."
			],
			"keyword": "nonn",
			"offset": "0,4",
			"author": "_Hieronymus Fischer_, May 19 2007, Jul 02 2007",
			"references": 10,
			"revision": 13,
			"time": "2017-12-25T04:06:09-05:00",
			"created": "2007-11-10T03:00:00-05:00"
		}
	]
}