{
	"greeting": "Greetings from The On-Line Encyclopedia of Integer Sequences! http://oeis.org/",
	"query": "id:A130888",
	"count": 1,
	"start": 0,
	"results": [
		{
			"number": 130888,
			"data": "1,1,3,1,0,7,1,3,0,15,1,0,0,0,31,1,3,7,0,0,63,1,0,0,0,0,0,127,1,3,0,15,0,0,0,255",
			"name": "Triangle read by rows, A051731(n,k) dot (1, 3, 7, 15,...) with like numbers of terms.",
			"comment": [
				"Row sums = A130887: (1, 4, 8, 19, 32, 74, 128, 274, 519, 1058,...)."
			],
			"formula": [
				"Triangle read by rows, dot product of each row of A051731 and the same number of terms in the series (1, 3, 7, 15,...).",
				"G.f.: Sum_{k\u003e0} (2^k-1)*(x*y)^k/(1-x^k). [From _Vladeta Jovovic_, Dec 02 2008]"
			],
			"example": [
				"First few rows of the triangle are:",
				"1;",
				"1, 3;",
				"1, 0, 7;",
				"1, 3, 0, 15;",
				"1, 0, 0, 0, 31;",
				"1, 3, 7, 0, 0, 63;",
				"...",
				"Row 4 = (1, 3, 0, 15) = (1, 1, 0, 1) dot (1, 3, 7, 15); where (1, 1, 0, 1) = row 4 of A051731."
			],
			"xref": [
				"Cf. A051731, A130887."
			],
			"keyword": "nonn,tabl",
			"offset": "1,3",
			"author": "_Gary W. Adamson_, Jun 07 2007",
			"references": 0,
			"revision": 4,
			"time": "2013-06-14T10:41:13-04:00",
			"created": "2007-11-10T03:00:00-05:00"
		}
	]
}