{
	"greeting": "Greetings from The On-Line Encyclopedia of Integer Sequences! http://oeis.org/",
	"query": "id:A130763",
	"count": 1,
	"start": 0,
	"results": [
		{
			"number": 130763,
			"data": "6,8,10,14,15,16,21,22,26,27,33,34,35,38,39,46,51,55,57,58,62,64,65,69,74,77,81,82,85,86,87,91,93,94,95,106,111,115,118,119,122,123,125,129,133,134,141,142,143,145,146,155,158,159,161,166,177,178,183,185,187",
			"name": "Natural numbers such that d(n)!+ 1 is a square, where d(n) is the number of divisors of n, A000005.",
			"comment": [
				"It is generally assumed that the Diophantine equation n! + 1 = m^2 can only be solved for n = 4,5,7. - _Stefan Steinerberger_, Aug 21 2007"
			],
			"mathematica": [
				"Select[Range[1000], IntegerQ[Sqrt[Length[Divisors[ # ]]! + 1]] \u0026] (* _Stefan Steinerberger_, Aug 21 2007 *)"
			],
			"xref": [
				"Cf. A000005."
			],
			"keyword": "nonn",
			"offset": "1,1",
			"author": "_Giovanni Teofilatto_, Aug 17 2007",
			"ext": [
				"More terms from _Stefan Steinerberger_, Aug 21 2007"
			],
			"references": 1,
			"revision": 13,
			"time": "2019-04-14T02:07:18-04:00",
			"created": "2007-11-10T03:00:00-05:00"
		}
	]
}