{
	"greeting": "Greetings from The On-Line Encyclopedia of Integer Sequences! http://oeis.org/",
	"query": "id:A130632",
	"count": 1,
	"start": 0,
	"results": [
		{
			"number": 130632,
			"data": "0,0,0,0,1,1,1,0,0,1,3,3,1,0,0,2,3,3,3,1,0,1,5,4,0,0,1,3,5,5,3,1,0,0,4,6,1,0,3,5,5,5,3,0,1,1,7,6,2,1,1,3,5,3,3,3,0,1,9,9,1,1,0,2,3,5,3,1,3,5,9,9,1,1,0,1,3,5,7,4,0,1,9,7,0,0,3,5,9,7,1,1,0,0,7,9,3,0,2,6,5,5,5,0,3",
			"name": "Number of natural numbers between d(n) and d(n+1), where d(n) denotes the number of divisors of n.",
			"link": [
				"Antti Karttunen, \u003ca href=\"/A130632/b130632.txt\"\u003eTable of n, a(n) for n = 1..20000\u003c/a\u003e"
			],
			"formula": [
				"a(n) = max(0, |A051950(n+1)| - 1). - _R. J. Mathar_, Jun 28 2010"
			],
			"maple": [
				"A051950 := proc(n) if n = 0 then 1; else numtheory[tau](n+1)-numtheory[tau](n) ; end if; end proc:",
				"A130632 := proc(n) local g ; g := abs(A051950(n)) ; max(0,g-1) ; end proc:",
				"seq(A130632(n),n=1..80) ;",
				"# _R. J. Mathar_, Jun 28 2010"
			],
			"program": [
				"(PARI) a(n) = max(0, abs(numdiv(n+1)-numdiv(n))-1); \\\\ _Michel Marcus_, Aug 24 2015"
			],
			"xref": [
				"Cf. A000005, A051950."
			],
			"keyword": "nonn",
			"offset": "1,11",
			"author": "_Giovanni Teofilatto_, Aug 11 2007",
			"ext": [
				"More terms from _R. J. Mathar_, Jun 28 2010",
				"Extended up to a(105) by _Antti Karttunen_, Oct 07 2017"
			],
			"references": 1,
			"revision": 18,
			"time": "2017-10-07T07:30:03-04:00",
			"created": "2007-11-10T03:00:00-05:00"
		}
	]
}