{
	"greeting": "Greetings from The On-Line Encyclopedia of Integer Sequences! http://oeis.org/",
	"query": "id:A130989",
	"count": 1,
	"start": 0,
	"results": [
		{
			"number": 130989,
			"data": "0,1,2,3,4,5,7,8,6,9,10,13,11,12,17,18,20,21,22,16,14,15,19,23,24,25,26,27,35,36,33,28,29,34,31,32,30,45,46,49,50,48,54,55,57,58,59,61,64,62,63,44,47,42,37,38,43,40,41,39,53,51,56,60,52,65,66,68,69,67,70,71",
			"name": "Signature permutation of a Catalan automorphism: row 9 of A122288.",
			"comment": [
				"Derived from automorphism *A130349 with recursion scheme KROF."
			],
			"link": [
				"A. Karttunen, \u003ca href=\"/A130989/b130989.txt\"\u003eTable of n, a(n) for n = 0..2055\u003c/a\u003e",
				"\u003ca href=\"/index/Per#IntegerPermutationCatAuto\"\u003eIndex entries for signature-permutations of Catalan automorphisms\u003c/a\u003e"
			],
			"xref": [
				"Inverse: A130990."
			],
			"keyword": "nonn",
			"offset": "0,3",
			"author": "_Antti Karttunen_, Jun 20 2007",
			"references": 3,
			"revision": 5,
			"time": "2012-03-31T13:21:16-04:00",
			"created": "2007-11-10T03:00:00-05:00"
		}
	]
}