{
	"greeting": "Greetings from The On-Line Encyclopedia of Integer Sequences! http://oeis.org/",
	"query": "id:A130215",
	"count": 1,
	"start": 0,
	"results": [
		{
			"number": 130215,
			"data": "0,168,58800,20176632,6920642400,2373780746568,814206798896400,279272932041230232,95790615690280324800,32856181181767119892968,11269670145346128902694000,3865496859853722261079883832,1325865422929826735882591047200,454771840064930570410054065439368",
			"name": "Order of modular group of degree 7^(n-1)+1.",
			"reference": [
				"E. Mathieu, Memoire sur le nombre de valeurs que peut acquerir une fonction quand on y permute ses variables de toutes les manieres possibles, Journ. de math. (2) 5 (1860), 9-42 (see p. 39)."
			],
			"link": [
				"\u003ca href=\"/index/Rec\"\u003eIndex entries for linear recurrences with constant coefficients\u003c/a\u003e, signature (350,-2401)."
			],
			"formula": [
				"a(n) = (7^(n-1))*(7^(2n-2)-1)/2.",
				"a(n) = 350*a(n-1)-2401*a(n-2). G.f.: 168*x^2 / ((7*x-1)*(343*x-1)). - _Colin Barker_, Sep 02 2013"
			],
			"mathematica": [
				"Table[7^(x - 1) (7^(2 x - 2) - 1)/2, {x, 1, 15}]"
			],
			"xref": [
				"Cf. A120689."
			],
			"keyword": "nonn,easy",
			"offset": "1,2",
			"author": "_Artur Jasinski_, Aug 04 2007",
			"ext": [
				"More terms from _Colin Barker_, Sep 02 2013"
			],
			"references": 0,
			"revision": 10,
			"time": "2015-06-13T00:52:22-04:00",
			"created": "2007-11-10T03:00:00-05:00"
		}
	]
}