{
	"greeting": "Greetings from The On-Line Encyclopedia of Integer Sequences! http://oeis.org/",
	"query": "id:A131936",
	"count": 1,
	"start": 0,
	"results": [
		{
			"number": 131936,
			"data": "1,3,12,30,148,387,1981",
			"name": "Partial sums of A006226.",
			"xref": [
				"Cf. A006226."
			],
			"keyword": "nonn",
			"offset": "1,2",
			"author": "_Jonathan Vos Post_, Oct 05 2007",
			"references": 0,
			"revision": 3,
			"time": "2012-03-30T18:40:43-04:00",
			"created": "2007-11-10T03:00:00-05:00"
		}
	]
}