{
	"greeting": "Greetings from The On-Line Encyclopedia of Integer Sequences! http://oeis.org/",
	"query": "id:A131003",
	"count": 1,
	"start": 0,
	"results": [
		{
			"number": 131003,
			"data": "0,1,3,2,8,7,5,4,6,22,21,18,17,20,13,12,10,9,11,15,19,16,14,64,63,59,58,62,50,49,46,45,48,55,61,57,54,36,35,32,31,34,27,26,24,23,25,29,33,30,28,41,40,52,60,56,43,47,44,53,38,51,37,39,42,196,195,190,189,194",
			"name": "Signature permutation of a Catalan automorphism: row 18 of A122288.",
			"comment": [
				"Derived from automorphism *A130363 with recursion scheme KROF."
			],
			"link": [
				"A. Karttunen, \u003ca href=\"/A131003/b131003.txt\"\u003eTable of n, a(n) for n = 0..2055\u003c/a\u003e",
				"\u003ca href=\"/index/Per#IntegerPermutationCatAuto\"\u003eIndex entries for signature-permutations of Catalan automorphisms\u003c/a\u003e"
			],
			"xref": [
				"Inverse: A131004."
			],
			"keyword": "nonn",
			"offset": "0,3",
			"author": "_Antti Karttunen_, Jun 20 2007",
			"references": 3,
			"revision": 5,
			"time": "2012-03-31T13:21:16-04:00",
			"created": "2007-11-10T03:00:00-05:00"
		}
	]
}