{
	"greeting": "Greetings from The On-Line Encyclopedia of Integer Sequences! http://oeis.org/",
	"query": "id:A131309",
	"count": 1,
	"start": 0,
	"results": [
		{
			"number": 131309,
			"data": "1,1,1,0,1,1,0,1,1,0,1,0,1,1,0,1,1,0,1,0,1,1,0,1,1,0,1,0,1,1,0,1,0",
			"name": "Rabbit-like sequence for phi^2.",
			"comment": [
				"Ratio of 1's to 0's tends to phi^2, by way of example, in the subset of 8 terms (1, 1, 0, 1, 1, 0, 1, 0), there are five 1's and three 0's. Subsets have A001906: (1, 3, 8, 21,...); terms; being partial sums of A027941: (1, 4, 12, 33,...). After 33 total terms, there (1 + 3 + 8) zeros and (1 + 2 + 5 + 13) = 21 ones; with the ratio of ones to zeros tending to phi^2 = 2.618..."
			],
			"formula": [
				"Substitution rules T =\u003e 2T = t; t =\u003e T + t; are derived directly from the matrix generator [2,1; 1,0] (eigenvalue phi^2). Then substitute 1 for T and 0 for t."
			],
			"example": [
				"By rows, we get:",
				"1;",
				"1, 1, 0;",
				"1, 1, 0, 1, 1, 0, 1, 0;",
				"...",
				"Then append n-th row to the end of (n-1)-th row, forming a continuous string."
			],
			"xref": [
				"Cf. A027941, A001906."
			],
			"keyword": "nonn",
			"offset": "0,1",
			"author": "_Gary W. Adamson_, Jun 27 2007",
			"references": 0,
			"revision": 2,
			"time": "2012-03-30T17:25:21-04:00",
			"created": "2007-11-10T03:00:00-05:00"
		}
	]
}