{
	"greeting": "Greetings from The On-Line Encyclopedia of Integer Sequences! http://oeis.org/",
	"query": "id:A131545",
	"count": 1,
	"start": 0,
	"results": [
		{
			"number": 131545,
			"data": "4,23,32,215,1261,538,4797,17612,32311,375482,512959,1847532,8295710,8885853,80798025",
			"name": "Least k such that 3^k has exactly n consecutive 8's in its decimal representation.",
			"comment": [
				"No more terms \u003c 10^8. - _Bert Dobbelaere_, Mar 20 2019"
			],
			"example": [
				"a(3)=32 because 3^32 (i.e., 1853020188851841) is the smallest power of 3 to contain a run of 3 consecutive eights in its decimal form."
			],
			"mathematica": [
				"a = \"\"; Do[ a = StringJoin[a, \"8\"]; b = StringJoin[a, \"8\"]; k = 1; While[ StringPosition[ ToString[3^k], a] == {} || StringPosition[ ToString[3^k], b] != {}, k++ ]; Print[k], {n, 1, 10} ]"
			],
			"xref": [
				"Cf. A195269, A131552, A131551, A131550, A131549, A131548, A131547, A131546, A131544."
			],
			"keyword": "more,nonn,base",
			"offset": "1,1",
			"author": "_Shyam Sunder Gupta_, Aug 26 2007",
			"ext": [
				"a(11)-a(14) from _Lars Blomberg_, Feb 02 2013",
				"a(15) from _Bert Dobbelaere_, Mar 20 2019"
			],
			"references": 9,
			"revision": 16,
			"time": "2019-03-24T08:07:48-04:00",
			"created": "2007-11-10T03:00:00-05:00"
		}
	]
}