{
	"greeting": "Greetings from The On-Line Encyclopedia of Integer Sequences! http://oeis.org/",
	"query": "id:A131160",
	"count": 1,
	"start": 0,
	"results": [
		{
			"number": 131160,
			"data": "0,1,3,2,8,7,6,4,5,22,21,20,18,17,19,16,14,9,10,15,11,13,12,64,63,62,59,58,61,57,55,49,50,54,48,45,46,60,56,53,47,44,51,42,37,23,24,38,25,27,26,52,43,39,28,29,41,33,36,35,40,30,34,32,31,196,195,194,190,189",
			"name": "Signature permutation of a Catalan automorphism: row 21 of A122286.",
			"comment": [
				"Derived from automorphism *A130360 with recursion scheme SPINE."
			],
			"link": [
				"A. Karttunen, \u003ca href=\"/A131160/b131160.txt\"\u003eTable of n, a(n) for n = 0..2055\u003c/a\u003e",
				"\u003ca href=\"/index/Per#IntegerPermutationCatAuto\"\u003eIndex entries for signature-permutations of Catalan automorphisms\u003c/a\u003e"
			],
			"xref": [
				"Inverse: A131159."
			],
			"keyword": "nonn",
			"offset": "0,3",
			"author": "_Antti Karttunen_, Jun 20 2007",
			"references": 3,
			"revision": 5,
			"time": "2012-03-31T13:21:17-04:00",
			"created": "2007-11-10T03:00:00-05:00"
		}
	]
}