{
	"greeting": "Greetings from The On-Line Encyclopedia of Integer Sequences! http://oeis.org/",
	"query": "id:A131764",
	"count": 1,
	"start": 0,
	"results": [
		{
			"number": 131764,
			"data": "1,2,3,10,30,102,335,1170,4080,14560,52377,190650,698870,2581110,9586395,35791358,134215680,505290270,1908866960,7233629130,27487764474,104715392730,399822314775,1529755308210,5864061663920,22517998136832,86607683851185,333599972392960,1286742745883790,4969489243995030,19215358392200893,74382032555280450,288230376084602880",
			"name": "Inverse Euler transform of central binomial coefficients A000984.",
			"comment": [
				"This is the sequence of dimensions of a free Lie algebra on some specific set of generators."
			],
			"link": [
				"Seiichi Manyama, \u003ca href=\"/A131764/b131764.txt\"\u003eTable of n, a(n) for n = 0..1000\u003c/a\u003e",
				"N. J. A. Sloane, \u003ca href=\"/transforms.txt\"\u003eTransforms\u003c/a\u003e"
			],
			"formula": [
				"a(n) = (1/n) * Sum_{d|n} moebius(n/d)*2^(2*d-1) for n \u003e 0, a(0) = 1.",
				"a(n) ~ 2^(2*n-1) / n. - _Vaclav Kotesovec_, Oct 09 2019"
			],
			"example": [
				"2*x + 3*x^2 + 10*x^3 + 30*x^4 + 102*x^5 + 335*x^6 + 1170*x^7 + 4080*x^8 + ...",
				"(1-x)^(-2)*(1-x^2)^(-3)*(1-x^3)^(-10)*(1-x^4)^(-30)*(1-x^5)^(-102) = 1 + 2*x + 6*x^2 + 20*x^3 + 70*x^4 + 252*x^5 + ... ."
			],
			"mathematica": [
				"a[n_] := (1/n)*DivisorSum[n, MoebiusMu[n/#]*2^(2*#-1)\u0026]; Table[a[n], {n, 1, 32}] (* _Jean-François Alcover_, Feb 20 2017 *)"
			],
			"program": [
				"(MuPAD) a(n):=proc(n) begin 1/n*_plus(moebius(n/d)*2^(2*d-1)$d in divisors(n)) end;",
				"(PARI) a(n)=sumdiv(n,d,1/n*moebius(n/d)*2^(d*2-1)); /* _Joerg Arndt_, Jul 06 2011 */",
				"(PARI) {a(n) = local(A); if( n\u003c1, 0, A = sqrt(1 - 4*x + x * O(x^n)); for( k=1, n-1, A *= (1 - x^k + x * O(x^n))^ polcoeff( A, k)); -polcoeff( A, n))} /* _Michael Somos_, Apr 01 2012 */"
			],
			"xref": [
				"Cf. A022553, A000984, A000108."
			],
			"keyword": "nonn",
			"offset": "0,2",
			"author": "_F. Chapoton_, Oct 04 2007",
			"ext": [
				"More explicit definition from _Michael Somos_, Apr 01 2012. - _N. J. A. Sloane_, Feb 20 2017"
			],
			"references": 1,
			"revision": 49,
			"time": "2019-10-09T02:53:23-04:00",
			"created": "2007-11-10T03:00:00-05:00"
		}
	]
}