{
	"greeting": "Greetings from The On-Line Encyclopedia of Integer Sequences! http://oeis.org/",
	"query": "id:A131114",
	"count": 1,
	"start": 0,
	"results": [
		{
			"number": 131114,
			"data": "1,6,1,6,12,1,6,18,18,1,6,24,36,24,1,6,30,60,60,30,1,6,36,90,120,90,36,1,6,42,126,210,210,126,42,1,6,48,168,336,420,336,168,48,1,6,54,216,504,756,756,504,216,54,1",
			"name": "T(n,k) = 6*binomial(n,k) - 5*I(n,k), where I is the identity matrix; triangle T read by rows (n \u003e= 0 and 0 \u003c= k \u003c= n).",
			"comment": [
				"Row sums give A048488."
			],
			"link": [
				"G. C. Greubel, \u003ca href=\"/A131114/b131114.txt\"\u003eRows n = 0..100 of triangle, flattened\u003c/a\u003e"
			],
			"formula": [
				"T(n,k) = 6*A007318(n,k) - 5*I(n,k), where A007318 = Pascal's triangle and I = Identity matrix.",
				"Bivariate o.g.f.: Sum_{n,k\u003e=0} T(n,k)*x^n*y^k = (1 + 5*x - x*y)/((1 - x*y)*(1 - x - x*y))."
			],
			"example": [
				"Triangle T(n,k) (with rows n \u003e= 0 and columns k = 0..n) begins:",
				"  1;",
				"  6,  1;",
				"  6, 12,  1;",
				"  6, 18, 18,   1;",
				"  6, 24, 36,  24,  1;",
				"  6, 30, 60,  60, 30,  1;",
				"  6, 36, 90, 120, 90, 36, 1;",
				"  ..."
			],
			"maple": [
				"seq(seq(`if`(k=n, 1, 6*binomial(n,k)), k=0..n), n=0..10); # _G. C. Greubel_, Nov 18 2019"
			],
			"mathematica": [
				"Table[If[k==n, 1, 6*Binomial[n, k]], {n,0,10}, {k,0,n}]//Flatten (* _G. C. Greubel_, Nov 18 2019 *)"
			],
			"program": [
				"(PARI) T(n,k) = if(k==n, 1, 6*binomial(n,k)); \\\\ _G. C. Greubel_, Nov 18 2019",
				"(MAGMA) [k eq n select 1 else 6*Binomial(n,k): k in [0..n], n in [0..10]]; // _G. C. Greubel_, Nov 18 2019",
				"(Sage)",
				"def T(n, k):",
				"    if (k==n): return 1",
				"    else: return 6*binomial(n, k)",
				"[[T(n, k) for k in (0..n)] for n in (0..10)] # _G. C. Greubel_, Nov 18 2019",
				"(GAP)",
				"T:= function(n,k)",
				"    if k=n then return 1;",
				"    else return 6*Binomial(n,k);",
				"    fi;  end;",
				"Flat(List([0..10], n-\u003e List([0..n], k-\u003e T(n,k) ))); # _G. C. Greubel_, Nov 18 2019"
			],
			"xref": [
				"Cf. A007318, A048488, A131110, A131111, A131112, A131113, A131115."
			],
			"keyword": "nonn,tabl,easy,less",
			"offset": "0,2",
			"author": "_Gary W. Adamson_, Jun 15 2007",
			"references": 5,
			"revision": 26,
			"time": "2021-02-21T04:06:54-05:00",
			"created": "2007-11-10T03:00:00-05:00"
		}
	]
}