{
	"greeting": "Greetings from The On-Line Encyclopedia of Integer Sequences! http://oeis.org/",
	"query": "id:A131369",
	"count": 1,
	"start": 0,
	"results": [
		{
			"number": 131369,
			"data": "5,4,5,4,3,4,5,4,5,0,5,4,5,4,3,4,5,4,5,0,5,4,5,4,3,4,5,4,5,0,5,4,5,4,3,4,5,4,5,0,5,4,5,4,3,4,5,4,5,0,5,4,5,4,3,4,5,4,5,0,5,4,5,4,3,4,5,4,5,0,5,4,5,4,3,4,5,4,5,0,5,4,5,4,3,4,5,4,5,0,5,4,5,4,3,4,5,4,5,0,5,4,5,4,3",
			"name": "Period 10: repeat [5, 4, 5, 4, 3, 4, 5, 4, 5, 0].",
			"comment": [
				"Differences: [-1, 1, -1, -1, 1, 1, -1, 1, -5, 5]."
			],
			"link": [
				"\u003ca href=\"/index/Rec#order_10\"\u003eIndex entries for linear recurrences with constant coefficients\u003c/a\u003e, signature (0,0,0,0,0,0,0,0,0,1)."
			],
			"formula": [
				"a(n) = (1/75)*{-31*(n mod 10)+44*[(n+1) mod 10]-[(n+2) mod 10]+14*[(n+3) mod 10]-[(n+4) mod 10]-[(n+5) mod 10]+14*[(n+6) mod 10]+14*[(n+7) mod 10]-[(n+8) mod 10]+14*[(n+9) mod 10]}, with n\u003e=0. - _Paolo P. Lava_, Oct 24 2007",
				"From _Wesley Ivan Hurt_, Aug 29 2015: (Start)",
				"G.f.: (5+4*x+5*x^2+4*x^3+3*x^4+4*x^5+5*x^6+4*x^7+5*x^8)/(1-x^10).",
				"a(n) = a(n-10), n\u003e9.",
				"a(n) = (9+(-1)^n)/2+((-1)^n-3)*(floor((n+1)/5)-floor(n/5)). (End)"
			],
			"maple": [
				"A131369:=n-\u003e[5, 4, 5, 4, 3, 4, 5, 4, 5, 0][(n mod 10)+1]: seq(A131369(n), n=0..100); # _Wesley Ivan Hurt_, Aug 29 2015"
			],
			"mathematica": [
				"CoefficientList[Series[(5 + 4 x + 5 x^2 + 4 x^3 + 3 x^4 + 4 x^5 + 5 x^6 + 4 x^7 + 5 x^8)/(1 - x^10), {x, 0, 100}], x] (* or *) LinearRecurrence[{0, 0, 0, 0, 0, 0, 0, 0, 0, 1}, {5, 4, 5, 4, 3, 4, 5, 4, 5, 0}, 100] (* _Wesley Ivan Hurt_, Aug 29 2015 *)"
			],
			"program": [
				"(MAGMA) I:=[5, 4, 5, 4, 3, 4, 5, 4, 5, 0]; [n le 10 select I[n] else Self(n-10): n in [1..100]]; // _Wesley Ivan Hurt_, Aug 29 2015"
			],
			"keyword": "nonn,easy",
			"offset": "0,1",
			"author": "_Paul Curtz_, Sep 30 2007",
			"references": 1,
			"revision": 8,
			"time": "2015-08-30T17:35:10-04:00",
			"created": "2007-11-10T03:00:00-05:00"
		}
	]
}