{
	"greeting": "Greetings from The On-Line Encyclopedia of Integer Sequences! http://oeis.org/",
	"query": "id:A131176",
	"count": 1,
	"start": 0,
	"results": [
		{
			"number": 131176,
			"data": "-1,-1,2,23,101,311,776,1679,3275,5903,9998,16103,24881,37127,53780,75935,104855,141983,188954,247607,319997,408407,515360,643631,796259,976559,1188134,1434887,1721033,2051111,2429996,2862911,3355439,3913535,4543538,5252183,6046613,6934391",
			"name": "a(n) = (n^5-n-10)/10.",
			"link": [
				"\u003ca href=\"/index/Rec#order_06\"\u003eIndex entries for linear recurrences with constant coefficients\u003c/a\u003e, signature (6,-15,20,-15,6,-1)."
			],
			"formula": [
				"a(n) = ((n^5 - n - 1) - 9)/10.",
				"G.f.: (-1+5*x-7*x^2+16*x^3-2*x^4+x^5)/(-1+x)^6. - _R. J. Mathar_, Nov 14 2007"
			],
			"mathematica": [
				"Table[((n^5 - n - 1) - 9)/10, {n, 0, 100}]"
			],
			"xref": [
				"Cf. A126426, A134327."
			],
			"keyword": "sign,easy",
			"offset": "0,3",
			"author": "_Artur Jasinski_, Oct 20 2007",
			"references": 1,
			"revision": 10,
			"time": "2021-05-27T13:09:43-04:00",
			"created": "2007-11-10T03:00:00-05:00"
		}
	]
}