{
	"greeting": "Greetings from The On-Line Encyclopedia of Integer Sequences! http://oeis.org/",
	"query": "id:A131856",
	"count": 1,
	"start": 0,
	"results": [
		{
			"number": 131856,
			"data": "2,7,22,32,37,42,47,52,62,67,82,87,97,107,112,117,122,127,162,167,182,227,242,247,262,292,302,322,327,342,352,357,362,367,372,382,422,482,487,502,512,517,522,527,532,542,552,557,572,577,587,592,597,602,607",
			"name": "Numbers m such that z(m)=(0,1) with z as defined in A131851.",
			"comment": [
				"Intersection of A131854 and A131857: A131851(a(n))=0, A131852(a(n))=1."
			],
			"link": [
				"Seiichi Manyama, \u003ca href=\"/A131856/b131856.txt\"\u003eTable of n, a(n) for n = 1..10000\u003c/a\u003e"
			],
			"xref": [
				"Cf. A131851, A131853, A131858, A131860."
			],
			"keyword": "nonn",
			"offset": "1,1",
			"author": "_Reinhard Zumkeller_, Jul 22 2007",
			"references": 7,
			"revision": 6,
			"time": "2019-12-28T07:46:28-05:00",
			"created": "2007-11-10T03:00:00-05:00"
		}
	]
}