{
	"greeting": "Greetings from The On-Line Encyclopedia of Integer Sequences! http://oeis.org/",
	"query": "id:A131304",
	"count": 1,
	"start": 0,
	"results": [
		{
			"number": 131304,
			"data": "1,3,1,5,5,1,7,3,3,1,9,13,5,3,1,11,15,7,5,3,1,13,11,11,9,5,3,1,15,7,9,7,9,5,3,1,17,9,13,11,11,11,5,3,1,19,33,15,137,9,11,5,3,1",
			"name": "2*A089840 - A000012.",
			"formula": [
				"2*A089840(deleting the right border of zeros) - A000012"
			],
			"example": [
				"First few rows of the triangle are:",
				"1;",
				"3, 1;",
				"5, 5, 1;",
				"7, 3, 3, 1;",
				"9, 13, 5, 3, 1;",
				"11, 15, 7, 5, 3, 1;",
				"13, 11, 11 9, 5, 3, 1;",
				"..."
			],
			"xref": [
				"Cf. A089840, A131302, A131303, A122203, A122204."
			],
			"keyword": "nonn,tabl",
			"offset": "1,2",
			"author": "_Gary W. Adamson_, Jun 27 2007",
			"references": 1,
			"revision": 2,
			"time": "2012-03-30T17:25:21-04:00",
			"created": "2007-11-10T03:00:00-05:00"
		}
	]
}