{
	"greeting": "Greetings from The On-Line Encyclopedia of Integer Sequences! http://oeis.org/",
	"query": "id:A131173",
	"count": 1,
	"start": 0,
	"results": [
		{
			"number": 131173,
			"data": "0,1,2,3,4,5,6,8,7,9,10,11,12,13,14,15,19,21,22,16,20,17,18,23,24,25,27,26,28,29,30,31,32,33,34,35,36,37,38,39,40,41,51,52,56,58,59,60,62,63,64,42,43,53,57,61,44,54,45,46,47,55,48,49,50,65,66,67,68,69,70,71",
			"name": "Signature permutation of a self-inverse Catalan automorphism: row 7 of A122285 and A122286.",
			"comment": [
				"Derived from automorphism *A122282 with recursion scheme SPINE or ENIPS."
			],
			"link": [
				"A. Karttunen, \u003ca href=\"/A131173/b131173.txt\"\u003eTable of n, a(n) for n = 0..2055\u003c/a\u003e",
				"\u003ca href=\"/index/Per#IntegerPermutationCatAuto\"\u003eIndex entries for signature-permutations of Catalan automorphisms\u003c/a\u003e"
			],
			"program": [
				"(Destructive Scheme implementation of this automorphism, which acts on S-expressions, i.e. list-structures:)",
				"(define (*A131173! s) (cond ((pair? s) (*A069770! (car s)) (if (pair? (cdr s)) (*A131173! (cddr s))))) s)"
			],
			"keyword": "nonn",
			"offset": "0,3",
			"author": "_Antti Karttunen_, Jun 20 2007",
			"references": 5,
			"revision": 5,
			"time": "2012-03-31T13:21:17-04:00",
			"created": "2007-11-10T03:00:00-05:00"
		}
	]
}