{
	"greeting": "Greetings from The On-Line Encyclopedia of Integer Sequences! http://oeis.org/",
	"query": "id:A131195",
	"count": 1,
	"start": 0,
	"results": [
		{
			"number": 131195,
			"data": "1,4,8,9,15,21,25,35,49,65,77,85,91,115,119,121,143,161,169,187,203,209,221,247,253,287,289,319,323,341,361,391,403,437,451,473,481,493,517,527,529,583,589,611,629,649,667,689,697,703,713,731,767,779,799,817",
			"name": "Nonprime record values of Euler's totient function (A000010): 1 and composite n such that phi(n) is greater than all smaller composites.",
			"comment": [
				"Since phi(p) = p - 1, allowing prime numbers in this sequence would make it A006005, the primes with a 1 replacing the initial 2.",
				"Number of terms \u003c 10^k, k=1,2,3,...: 4, 13, 61, 310, 1628, 9029, 51207, 295132, ..., . _Robert G. Wilson v_, Feb 19 2019"
			],
			"link": [
				"Robert G. Wilson v, \u003ca href=\"/A131195/b131195.txt\"\u003eTable of n, a(n) for n = 1..10000\u003c/a\u003e"
			],
			"example": [
				"a(3) = 8 because phi(8) = 4, which is greater than phi(4) = phi(6) = 2. (phi(5) = 4 and phi(7) = 6 are ignored because 5 and 7 are prime)."
			],
			"mathematica": [
				"htcList = {1}; i = 4; currMax = 1; searchMax = 1000; While[i \u003c searchMax, If[Not[PrimeQ[i]] \u0026\u0026 EulerPhi[i] \u003e currMax, htcList = {htcList, i}; currMax = EulerPhi[i]]; i++ ]; Flatten[htcList]"
			],
			"xref": [
				"Cf. A000010, A000040, A006005."
			],
			"keyword": "easy,nonn",
			"offset": "1,2",
			"author": "_Alonso del Arte_, Oct 20 2007",
			"references": 1,
			"revision": 15,
			"time": "2019-03-26T20:01:45-04:00",
			"created": "2007-11-10T03:00:00-05:00"
		}
	]
}