{
	"greeting": "Greetings from The On-Line Encyclopedia of Integer Sequences! http://oeis.org/",
	"query": "id:A131909",
	"count": 1,
	"start": 0,
	"results": [
		{
			"number": 131909,
			"data": "1,1,1,1,1,2,2,1,2,3,3,2,3,3,5,5,3,5,5,6,8,8,5,8,8,10,11,14,14,8,13,13,16,18,21,25,25,14,22,21,26,29,34,39,46,46,25,39,36,43,47,55,63,73,85,85,46,71,64,75,79,90,102,118,136,158,158,85,131,117,135,139,154,169",
			"name": "Triangle, read by rows, where T(n,k) = T(n-1,k-2) + T(n-1,k-1) for n\u003e=k\u003e1, with T(0,0)=1 and T(n,0) = T(n+1,1) = T(n-1,n-1) for n\u003e0.",
			"comment": [
				"A119262(n) is the number of B-trees of order infinity with n leaves."
			],
			"formula": [
				"Row sums equal powers of 2. T(n,0) = A119262(n+1) for n\u003e=0, where g.f. G(x) of A119262 satisfies: G(x) = x + G(x^2/(1-x))."
			],
			"example": [
				"Triangle begins:",
				"1;",
				"1, 1;",
				"1, 1, 2;",
				"2, 1, 2, 3;",
				"3, 2, 3, 3, 5;",
				"5, 3, 5, 5, 6, 8;",
				"8, 5, 8, 8, 10, 11, 14;",
				"14, 8, 13, 13, 16, 18, 21, 25;",
				"25, 14, 22, 21, 26, 29, 34, 39, 46;",
				"46, 25, 39, 36, 43, 47, 55, 63, 73, 85;",
				"85, 46, 71, 64, 75, 79, 90, 102, 118, 136, 158;",
				"158, 85, 131, 117, 135, 139, 154, 169, 192, 220, 254, 294; ...",
				"Illustrate T(n,k) = T(n-1,k-2) + T(n-1,k-1):",
				"T(5,3) = T(4,1) + T(4,2) = 2 + 3 = 5;",
				"T(6,4) = T(5,2) + T(5,3) = 5 + 5 = 10;",
				"T(8,3) = T(7,1) + T(7,2) = 8 +13 = 21."
			],
			"program": [
				"(PARI) T(n,k)=if(k\u003c0 || n\u003ck,0,if(n==0 \u0026\u0026 k==0,1,if(k==0,T(n-1,n-1),T(n-1,k-2)+T(n-1,k-1))))"
			],
			"xref": [
				"Cf. A119262 (columns 0, 1 and main diagonal); A131910 (central terms)."
			],
			"keyword": "nonn,tabl",
			"offset": "0,6",
			"author": "_Paul D. Hanna_, Jul 26 2007",
			"references": 1,
			"revision": 7,
			"time": "2017-06-14T00:31:45-04:00",
			"created": "2007-11-10T03:00:00-05:00"
		}
	]
}