{
	"greeting": "Greetings from The On-Line Encyclopedia of Integer Sequences! http://oeis.org/",
	"query": "id:A131573",
	"count": 1,
	"start": 0,
	"results": [
		{
			"number": 131573,
			"data": "149,298,334,472,667,745,882,1054,1055,1056,1057,1058,1490,1491,1492,1493,1825,1826,1827,2108,2109,2356,2357,2581,2582,2788,2789,2980,2981,3161,3162,3332,3333,3334,3335,3336,3337,3338,3339,3340,3341,3342,3343",
			"name": "Numbers whose square starts with 3 identical digits.",
			"example": [
				"149^2 = 22201."
			],
			"mathematica": [
				"Select[Range[10, 5000], Length[Union[Take[IntegerDigits[ #^2], 3]]] == 1 \u0026]"
			],
			"keyword": "base,nonn",
			"offset": "1,1",
			"author": "_Tanya Khovanova_, Aug 28 2007",
			"references": 6,
			"revision": 3,
			"time": "2012-03-30T18:49:09-04:00",
			"created": "2007-11-10T03:00:00-05:00"
		}
	]
}