{
	"greeting": "Greetings from The On-Line Encyclopedia of Integer Sequences! http://oeis.org/",
	"query": "id:A131368",
	"count": 1,
	"start": 0,
	"results": [
		{
			"number": 131368,
			"data": "4,9,10,21,22,25,26,33,34,35,38,39,46,49,51,55,57,58,65,69,74,77,82,85,86,87,91,93,94,95,106,111,115,118,119,121,122,123,133,134,141,142,143,145,146,155,158,159,161,166,169,177,178,183,185,187,194,201,202,203",
			"name": "Coprime semiprimes: a(n-1) and a(n) are the closest coprime semiprimes.",
			"comment": [
				"The slowest increasing sequence of semiprimes with coprime neighbor terms."
			],
			"formula": [
				"gcd(a(n-1),a(n))=1."
			],
			"program": [
				"(PARI) lista(nn) = {my(vsp = select((x-\u003e(bigomega(x) == 2)), vector(nn, k, k)), i = 1, last); while (i \u003c= #vsp, print1(vsp[i], \", \"); last = vsp[i]; while(gcd(vsp[i], last) != 1, i++; if (i\u003e#vsp, break)););} \\\\ _Michel Marcus_, Jun 25 2019"
			],
			"xref": [
				"Cf. A051884, A061766, A107621, A109412.",
				"Subsequence of A131368 (semiprimes)."
			],
			"keyword": "nonn",
			"offset": "1,1",
			"author": "_Zak Seidov_, Sep 30 2007",
			"references": 2,
			"revision": 7,
			"time": "2019-06-25T10:10:19-04:00",
			"created": "2007-11-10T03:00:00-05:00"
		}
	]
}