{
	"greeting": "Greetings from The On-Line Encyclopedia of Integer Sequences! http://oeis.org/",
	"query": "id:A132239",
	"count": 1,
	"start": 0,
	"results": [
		{
			"number": 132239,
			"data": "17,19,47,79,107,109,137,139,167,197,199,227,229,257,317,347,349,379,409,439,467,499,557,587,617,619,647,677,709,739,769,797,827,829,857,859,887,919,947,977,1009,1039,1069,1097,1129,1187",
			"name": "Primes congruent to {17, 19} mod 30.",
			"link": [
				"Vincenzo Librandi, \u003ca href=\"/A132239/b132239.txt\"\u003eTable of n, a(n) for n = 1..1000\u003c/a\u003e",
				"C. K. Caldwell, \u003ca href=\"http://primes.utm.edu\"\u003eThe Prime Pages\u003c/a\u003e.",
				"Omar E. Pol, \u003ca href=\"http://www.polprimos.com\"\u003eDeterminacion geometrica de los numeros primos y perfectos\u003c/a\u003e."
			],
			"mathematica": [
				"Select[Prime[Range[1000]],MemberQ[{17,19},Mod[#,30]]\u0026] (* _Vincenzo Librandi_, Aug 14 2012 *)"
			],
			"program": [
				"(MAGMA) [ p: p in PrimesUpTo(1300) | p mod 30 in {17, 19} ]; // _Vincenzo Librandi_, Aug 14 2012"
			],
			"xref": [
				"Cf. A000040, A001097, A001359, A006512, A039949."
			],
			"keyword": "easy,nonn",
			"offset": "1,1",
			"author": "_Omar E. Pol_, Aug 15 2007",
			"references": 1,
			"revision": 10,
			"time": "2014-03-11T01:34:09-04:00",
			"created": "2007-11-10T03:00:00-05:00"
		}
	]
}