{
	"greeting": "Greetings from The On-Line Encyclopedia of Integer Sequences! http://oeis.org/",
	"query": "id:A132577",
	"count": 1,
	"start": 0,
	"results": [
		{
			"number": 132577,
			"data": "1,2,3,4,5,6,7,8,9,10,12,22,27,29,31,33,37,41,48,50,52,56,58,60,63,67,69,71,77,84,86,88,92,96,102,107,126,142,147,150,164,183,188,194,197,200,206,212,219,222,228,231,234,237,240,248,261,264,267,270,279,282",
			"name": "Record values in A132575.",
			"comment": [
				"a(n)=A132575(A132578(n)) and A132575(m)\u003ca(n) for m \u003c A132578(n);"
			],
			"link": [
				"R. Zumkeller, \u003ca href=\"/A132577/b132577.txt\"\u003eTable of n, a(n) for n = 1..10000\u003c/a\u003e"
			],
			"xref": [
				"Cf. A132603, A132599."
			],
			"keyword": "nonn",
			"offset": "1,2",
			"author": "_Reinhard Zumkeller_, Aug 24 2007",
			"references": 5,
			"revision": 5,
			"time": "2012-03-30T18:50:58-04:00",
			"created": "2007-11-10T03:00:00-05:00"
		}
	]
}