{
	"greeting": "Greetings from The On-Line Encyclopedia of Integer Sequences! http://oeis.org/",
	"query": "id:A132807",
	"count": 1,
	"start": 0,
	"results": [
		{
			"number": 132807,
			"data": "1,2,5,12,29,73,195,556,1685,5373",
			"name": "A000108(n) + A000079(n) - 1.",
			"formula": [
				"a(n) = C(n) + 2^n - 1."
			],
			"example": [
				"a(3) = 12 = C(3) + 2^3 - 1 = 5 + 8 = 1."
			],
			"xref": [
				"Cf. A000108, A000079."
			],
			"keyword": "nonn",
			"offset": "0,2",
			"author": "_Gary W. Adamson_, Aug 31 2007",
			"references": 0,
			"revision": 2,
			"time": "2012-03-30T17:25:24-04:00",
			"created": "2007-11-10T03:00:00-05:00"
		}
	]
}