{
	"greeting": "Greetings from The On-Line Encyclopedia of Integer Sequences! http://oeis.org/",
	"query": "id:A132231",
	"count": 1,
	"start": 0,
	"results": [
		{
			"number": 132231,
			"data": "7,37,67,97,127,157,277,307,337,367,397,457,487,547,577,607,727,757,787,877,907,937,967,997,1087,1117,1237,1297,1327,1447,1567,1597,1627,1657,1747,1777,1867,1987,2017,2137,2287,2347,2377,2437,2467,2557,2617,2647",
			"name": "Primes congruent to 7 (mod 30).",
			"comment": [
				"Primes ending in 7 with (SOD-1)/3 integer where SOD is sum of digits. - _Ki Punches_, Feb 07 2009",
				"Intersection of A030432 and A002476. - _Ray Chandler_, Apr 07 2009",
				"Only from 4927 on, there are more composite numbers than primes in {7+30k}, see A227869. - _M. F. Hasler_, Nov 02 2013",
				"Terms are non-twin primes A007510, except for 7. - _Jonathan Sondow_, Oct 27 2017"
			],
			"link": [
				"Reinhard Zumkeller, \u003ca href=\"/A132231/b132231.txt\"\u003eTable of n, a(n) for n = 1..1000\u003c/a\u003e",
				"C. K. Caldwell, \u003ca href=\"http://primes.utm.edu\"\u003eThe Prime Pages\u003c/a\u003e",
				"Omar E. Pol, \u003ca href=\"http://www.polprimos.com/imagenes/cribade30columnas.jpg\"\u003ePrime numbers in a sieve with 30 columns\u003c/a\u003e",
				"Omar E. Pol, \u003ca href=\"http://www.polprimos.com\"\u003eSobre el patrón de los números primos\u003c/a\u003e"
			],
			"formula": [
				"a(n) = A158573(n)*30 + 7. - _Ray Chandler_, Apr 07 2009",
				"a(n) = A211890(4,n-1) for n \u003c= 5. - _Reinhard Zumkeller_, Jul 13 2012"
			],
			"mathematica": [
				"Select[30*Range[0,100]+7,PrimeQ] (* _Harvey P. Dale_, Feb 01 2012 *)",
				"Select[Prime[Range[1000]],MemberQ[{7},Mod[#,30]]\u0026] (* _Vincenzo Librandi_, Aug 14 2012 *)"
			],
			"program": [
				"(Haskell)",
				"a132231 n = a132231_list !! (n-1)",
				"a132231_list = [x | k \u003c- [0..], let x = 30 * k + 7, a010051' x == 1]",
				"-- _Reinhard Zumkeller_, Jul 13 2012",
				"(MAGMA) [p: p in PrimesUpTo(3000) | p mod 30 eq 7 ]; // _Vincenzo Librandi_, Aug 14 2012",
				"(PARI) forstep(p=7,1999,30,isprime(p)\u0026\u0026print1(p\",\")) \\\\ _M. F. Hasler_, Nov 02 2013"
			],
			"xref": [
				"Cf. A007510, A007528, A010051, A068229, A117047, A129807, A039949, A132230-A132236, A214360."
			],
			"keyword": "nonn,easy",
			"offset": "1,1",
			"author": "_Omar E. Pol_, Aug 15 2007",
			"ext": [
				"Extended by _Ray Chandler_, Apr 07 2009"
			],
			"references": 15,
			"revision": 45,
			"time": "2019-11-30T04:54:17-05:00",
			"created": "2007-11-10T03:00:00-05:00"
		}
	]
}