{
	"greeting": "Greetings from The On-Line Encyclopedia of Integer Sequences! http://oeis.org/",
	"query": "id:A132362",
	"count": 1,
	"start": 0,
	"results": [
		{
			"number": 132362,
			"data": "0,406,120,528,105,136,1,300,435,378,171,10,66,276,496,15,91,351,595,78,153,28,210,231,3,190,55,21,465,561,630,45,36,325,253,6",
			"name": "A 6 X 6 magic square using triangular numbers, read by rows.",
			"comment": [
				"The magic sum is 1295."
			],
			"link": [
				"Ivars Peterson, \u003ca href=\"http://mathtourist.blogspot.fr/2007/11/triangular-numbers-and-magic-squares.html\"\u003eTriangular Numbers and Magic Squares\u003c/a\u003e, The Mathematical Tourist, 2007."
			],
			"example": [
				"The magic square is:",
				"    0  406  120  528  105  136",
				"    1  300  435  378  171   10",
				"   66  276  496   15   91  351",
				"  595   78  153   28  210  231",
				"    3  190   55   21  465  561",
				"  630   45   36  325  253    6"
			],
			"xref": [
				"Cf. A000217, A132648, A256627."
			],
			"keyword": "fini,full,nonn,tabl",
			"offset": "1,2",
			"author": "_Parthasarathy Nambi_, Nov 08 2007",
			"references": 2,
			"revision": 11,
			"time": "2015-04-14T11:09:34-04:00",
			"created": "2007-12-09T03:00:00-05:00"
		}
	]
}