{
	"greeting": "Greetings from The On-Line Encyclopedia of Integer Sequences! http://oeis.org/",
	"query": "id:A132628",
	"count": 1,
	"start": 0,
	"results": [
		{
			"number": 132628,
			"data": "1,6,10,11,15,19,20,22,24,30,31,33,35,42,51,52,60,62,66,68,71,79,87,90,100,101,102,103,104,105,109,110,112,114,118,120,123,124,130,132,136,138,141,143,145,147,150,153,160,161,165,167,168,174,177,190,194,198",
			"name": "Numbers n for which the sum of their digits divides sigma(n).",
			"link": [
				"Harvey P. Dale, \u003ca href=\"/A132628/b132628.txt\"\u003eTable of n, a(n) for n = 1..1000\u003c/a\u003e"
			],
			"example": [
				"n=147 -\u003e sigma(n)=1+3+7+21+49+147=228 Sum_digits(n)=1+4+7=12 -\u003e 228/12 = 19",
				"n=177 -\u003e sigma(n)=1+3+59+177=240 Sum_digits(n)=1+7+7=15 -\u003e 240/15 = 16"
			],
			"maple": [
				"with(numtheory); P:=proc(n) local a,i,j,k,w; for i from 1 by 1 to n do w:=0; k:=i; while k\u003e0 do w:=w+k-(trunc(k/10)*10); k:=trunc(k/10); od; j:=sigma(i)/w; if trunc(j)=j then print(i,j); fi; od; end: P(200)"
			],
			"mathematica": [
				"Select[Range[200],Divisible[DivisorSigma[1,#],Total[IntegerDigits[#]]]\u0026] (* _Harvey P. Dale_, Dec 06 2012 *)"
			],
			"xref": [
				"Cf. A007691, A054030, A132629."
			],
			"keyword": "nonn,base,easy",
			"offset": "1,2",
			"author": "_Paolo P. Lava_ and _Giorgio Balzarotti_, Aug 24 2007",
			"references": 3,
			"revision": 7,
			"time": "2012-12-06T18:27:00-05:00",
			"created": "2007-11-10T03:00:00-05:00"
		}
	]
}