{
	"greeting": "Greetings from The On-Line Encyclopedia of Integer Sequences! http://oeis.org/",
	"query": "id:A132905",
	"count": 1,
	"start": 0,
	"results": [
		{
			"number": 132905,
			"data": "235711,3571113,57111317,711131719,1113171923,1317192329,1719232931,1923293137,2329313741,2931374143,3137414347,3741434753,4143475359,4347535961,4753596167,5359616771,5961677173,6167717379,6771737983",
			"name": "Numbers formed by concatenating 5 consecutive prime numbers.",
			"xref": [
				"Prime numbers: A000040. Cf. A007795, A045533, A059932, A091762."
			],
			"keyword": "easy,nonn,base",
			"offset": "1,1",
			"author": "_Omar E. Pol_, Sep 04 2007",
			"references": 1,
			"revision": 2,
			"time": "2012-03-30T17:33:49-04:00",
			"created": "2007-11-10T03:00:00-05:00"
		}
	]
}