{
	"greeting": "Greetings from The On-Line Encyclopedia of Integer Sequences! http://oeis.org/",
	"query": "id:A132658",
	"count": 1,
	"start": 0,
	"results": [
		{
			"number": 132658,
			"data": "0,0,1,3,6,11,21,42,63,105,210,441,903,1806,2709,4515,9030,18963,38829,77658,116487,194145,388290,815409,1669647,3339294,5008941,8348235,16696470,35062587,71794821,143589642,215384463,358974105,717948210",
			"name": "a(6n+k) = 3a(6n+k-1)-3a(6n+k-2)+2a(6n+k-3), k = 0, 1, 3, 4, 5; a(6n+2) = 3a(6n+1)-3a(6n). a(0) = a(1) = 0, a(2) = 1.",
			"comment": [
				"The third differences are 0, 0, 1, 3, 6, -11, 21, 42, 63, 105, 210, -441, ..., equal to the original sequence if each 6th term is negated."
			],
			"maple": [
				"A132658 := proc(n)",
				"    option remember;",
				"    if n \u003c=1 then",
				"        0;",
				"    elif n = 2 then",
				"        1;",
				"    elif modp(n,6) = 2 then",
				"        3*procname(n-1)-3*procname(n-2);",
				"    else",
				"        3*procname(n-1)-3*procname(n-2)+2*procname(n-3) ;",
				"    end if;",
				"end proc:",
				"seq(A132658(n),n=0..80) ; # _R. J. Mathar_, Aug 07 2017"
			],
			"xref": [
				"Cf. A024495."
			],
			"keyword": "nonn",
			"offset": "0,4",
			"author": "_Paul Curtz_, Nov 15 2007",
			"ext": [
				"Edited by _R. J. Mathar_, Jul 07 2008"
			],
			"references": 3,
			"revision": 6,
			"time": "2017-08-07T12:18:44-04:00",
			"created": "2007-12-09T03:00:00-05:00"
		}
	]
}