{
	"greeting": "Greetings from The On-Line Encyclopedia of Integer Sequences! http://oeis.org/",
	"query": "id:A132964",
	"count": 1,
	"start": 0,
	"results": [
		{
			"number": 132964,
			"data": "1,3,1,10,6,1,33,29,9,1,109,126,57,12,1,360,516,306,94,15,1,1189,2034,1491,600,140,18,1,3927,7807,6813,3385,1035,195,21,1,12970,29382,29737,17568,6630,1638,259,24,1,42837,108923,125406,85826,38493,11739,2436,332,27,1",
			"name": "Convolution triangle of A006190.",
			"comment": [
				"As a Riordan array, this is (1/(1-3x-x^2),x/(1-3x-x^2)).",
				"T(n,k) is the number of words of length n over {0,1,2,3,4} having k letters 4 and avoiding runs of odd length for the letter 0. - _Milan Janjic_, Jan 14 2017"
			],
			"link": [
				"Milan Janjić, \u003ca href=\"https://cs.uwaterloo.ca/journals/JIS/VOL21/Janjic/janjic93.html\"\u003eWords and Linear Recurrences\u003c/a\u003e, J. Int. Seq. 21 (2018), #18.1.4."
			],
			"formula": [
				"Sum_{k=0..n} T(n,k) = A001076(n+1).",
				"Sum_{k=0..floor(n/2)} T(n-k,k) = A007482(n).",
				"T(n,k) = 3*T(n-1,k) + T(n-1,k-1) + T(n-2,k), T(0,0)=1, T(n,k)=0 if k\u003c0 or k\u003en. - _Philippe Deléham_, Dec 08 2013"
			],
			"example": [
				"Triangle begins:",
				"      1;",
				"      3,      1;",
				"     10,      6,      1;",
				"     33,     29,      9,     1;",
				"    109,    126,     57,    12,     1;",
				"    360,    516,    306,    94,    15,     1;",
				"   1189,   2034,   1491,   600,   140,    18,    1;",
				"   3927,   7807,   6813,  3385,  1035,   195,   21,   1;",
				"  12970,  29382,  29737, 17568,  6630,  1638,  259,  24,  1;",
				"  42837, 108923, 125406, 85826, 38493, 11739, 2436, 332, 27, 1;",
				"  ..."
			],
			"xref": [
				"Cf. A006190, A037027, A054456, A112906."
			],
			"keyword": "easy,nonn,tabl",
			"offset": "0,2",
			"author": "_Philippe Deléham_, Nov 24 2007",
			"references": 0,
			"revision": 35,
			"time": "2018-04-25T19:32:00-04:00",
			"created": "2007-12-09T03:00:00-05:00"
		}
	]
}