{
	"greeting": "Greetings from The On-Line Encyclopedia of Integer Sequences! http://oeis.org/",
	"query": "id:A132154",
	"count": 1,
	"start": 0,
	"results": [
		{
			"number": 132154,
			"data": "1,2,3,4,5,7,8,10,12,15,16,17,21,27,30,32,37,46,48,54,58,64,69,80,85,98,107,112,127,138,153,179,205,219,230,257,281,306,330,361,367,379,403,427,466,477,524,571,595,619,645,689,713,737,761,806,828,875,894,963,986,1031",
			"name": "Where records occur in A006511.",
			"link": [
				"Donovan Johnson, \u003ca href=\"/A132154/b132154.txt\"\u003eTable of n, a(n) for n = 1..500\u003c/a\u003e"
			],
			"xref": [
				"Cf. A000010, A006511, A036913, A036912."
			],
			"keyword": "nonn",
			"offset": "1,2",
			"author": "_N. J. A. Sloane_, Nov 05 2007",
			"references": 4,
			"revision": 6,
			"time": "2012-03-30T16:50:43-04:00",
			"created": "2007-11-10T03:00:00-05:00"
		}
	]
}