{
	"greeting": "Greetings from The On-Line Encyclopedia of Integer Sequences! http://oeis.org/",
	"query": "id:A132434",
	"count": 1,
	"start": 0,
	"results": [
		{
			"number": 132434,
			"data": "104,1064,8744,70184,561704,4493864,35951144,287609384,2300875304,18407002664,147256021544,1178048172584,9424385380904,75395083047464,603160664379944,4825285315039784,38602282520318504,308818260162548264,2470546081300386344",
			"name": "a(n) = A132433(n) - 33.",
			"reference": [
				"V. Reeben, The highly composite numbers by Srinivasa Ramanujan and the fundamental constants of physics. J. Madras Univ., Sect. B, 51 (Ramanujan's 100th birthday issue, with a Table of h.c.n.'s up to 10^102), (1988) 88-146."
			],
			"link": [
				"Colin Barker, \u003ca href=\"/A132434/b132434.txt\"\u003eTable of n, a(n) for n = 3..1000\u003c/a\u003e",
				"\u003ca href=\"/index/Rec#order_02\"\u003eIndex entries for linear recurrences with constant coefficients\u003c/a\u003e, signature (9,-8)."
			],
			"formula": [
				"From _Colin Barker_, May 12 2017: (Start)",
				"G.f.: 8*x^3*(13 + 16*x) / ((1 - x)*(1 - 8*x)).",
				"a(n) = (15*8^n - 1856) / 56 for n\u003e2.",
				"a(n) = 9*a(n-1) - 8*a(n-2) for n\u003e4.",
				"(End)"
			],
			"program": [
				"(PARI) Vec(8*x^3*(13 + 16*x) / ((1 - x)*(1 - 8*x)) + O(x^30)) \\\\ _Colin Barker_, May 12 2017"
			],
			"keyword": "nonn,easy",
			"offset": "3,1",
			"author": "Vello Reeben (reeben(AT)ut.ee), Aug 25 2007",
			"references": 2,
			"revision": 6,
			"time": "2017-05-12T18:23:26-04:00",
			"created": "2007-11-10T03:00:00-05:00"
		}
	]
}