{
	"greeting": "Greetings from The On-Line Encyclopedia of Integer Sequences! http://oeis.org/",
	"query": "id:A132227",
	"count": 1,
	"start": 0,
	"results": [
		{
			"number": 132227,
			"data": "1,4,10,16,28,34,46,52,64,82,88,106,118,124,136,154,172,178,196,208,214,232,244,262,286,298,304,316,322,334,376,388,406,412,442,448,466,484,496,514",
			"name": "a(n) = 3*prime(n) - 5.",
			"example": [
				"a(3) = 3*prime(3) - 5 = 3*5 - 5 = 15 - 5 = 10."
			],
			"maple": [
				"seq(3*ithprime(n)-5,n=1..40); # _Emeric Deutsch_, Aug 22 2007"
			],
			"xref": [
				"Cf. A000040."
			],
			"keyword": "nonn",
			"offset": "1,2",
			"author": "_Gary W. Adamson_, Aug 14 2007",
			"ext": [
				"More terms from _Emeric Deutsch_, Aug 22 2007"
			],
			"references": 0,
			"revision": 7,
			"time": "2019-03-17T02:05:53-04:00",
			"created": "2007-11-10T03:00:00-05:00"
		}
	]
}