{
	"greeting": "Greetings from The On-Line Encyclopedia of Integer Sequences! http://oeis.org/",
	"query": "id:A132871",
	"count": 1,
	"start": 0,
	"results": [
		{
			"number": 132871,
			"data": "1,2,11,187,8773,839646,133300339,31291905772,10122557147385,4300934246160076,2317558708205485081,1541860131242384674128,1239881178206743212010765,1184508936070261192267164198,1325258287136553589782331922050,1715621657359292790451015326356731,2543410864718645478299008219865041201,4279628364701395837326264606420611392952",
			"name": "Row sums of triangle A132870.",
			"comment": [
				"Triangle T=A132870 obeys: the g.f. of row n of T^n = (y + n^2)^n for n\u003e=0."
			],
			"link": [
				"Paul D. Hanna, \u003ca href=\"/A132871/b132871.txt\"\u003eTable of n, a(n) for n = 0..29\u003c/a\u003e"
			],
			"program": [
				"(PARI) {a(n)=local(M=Mat(1),N,L);for(i=1,n,N=M; M=matrix(#N+1,#N+1,r,c,if(r\u003e=c,if(r\u003c=#N,(N^(#N))[r,c], polcoeff((x+(#M)^2)^(#M),c-1)))); L=sum(i=1,#M,-(M^0-M)^i/i);M=sum(i=0,#M,(L/#N)^i/i!);); sum(k=0,n,M[n+1,k+1])}"
			],
			"xref": [
				"Cf. A132870 (triangle), columns: A132872, A132873."
			],
			"keyword": "nonn,fini,full",
			"offset": "0,2",
			"author": "_Paul D. Hanna_, Sep 29 2007",
			"references": 5,
			"revision": 10,
			"time": "2017-11-19T17:00:49-05:00",
			"created": "2007-11-10T03:00:00-05:00"
		}
	]
}