{
	"greeting": "Greetings from The On-Line Encyclopedia of Integer Sequences! http://oeis.org/",
	"query": "id:A132716",
	"count": 1,
	"start": 0,
	"results": [
		{
			"number": 132716,
			"data": "8,2,7,6,0,5,7,0,4,0,7,7,8,5,5,7,4,5,9,9,8,1,9,5,5,6,9,5,3,7,0,7,4,6,8,2,5,7,9,1,9,0,1,5,7,8,5,0,3,7,3,5,3,3,4,8,7,8,7,0,1,8,9,1,0,6,2,6,3,3,4,7,6,9,7,9,7,7,9,8,2,4,6,8,5,9,1,7,7,4,3,8,4,5,1,6,0,4,6,9,7,1,5,7,8",
			"name": "Decimal expansion of 26/Pi.",
			"example": [
				"8.276057040778557...",
				"26/Pi = 8.276057040778557459981955695370746825791901578503735334878701891062633476979779824685917743845160469... - _Vladimir Joseph Stephan Orlovsky_, Dec 03 2009"
			],
			"mathematica": [
				"RealDigits[N[26/Pi,6! ]] (* _Vladimir Joseph Stephan Orlovsky_, Dec 03 2009 *)"
			],
			"xref": [
				"Cf. A049541, A060294, A089491, A088538, A086201, A132696-A132699, A132701, A132702."
			],
			"keyword": "cons,easy,nonn",
			"offset": "1,1",
			"author": "_Omar E. Pol_, Aug 31 2007",
			"ext": [
				"More terms from _Vladimir Joseph Stephan Orlovsky_, Dec 03 2009"
			],
			"references": 0,
			"revision": 7,
			"time": "2015-01-24T00:26:23-05:00",
			"created": "2007-11-10T03:00:00-05:00"
		}
	]
}