{
	"greeting": "Greetings from The On-Line Encyclopedia of Integer Sequences! http://oeis.org/",
	"query": "id:A132566",
	"count": 1,
	"start": 0,
	"results": [
		{
			"number": 132566,
			"data": "2,70,13943,1634912156,23780194149064693342,1252143198528230664289645010929331374833,1725408578551607860063606310942734709880455681578121767456755930716544419218463",
			"name": "Egyptian fraction representation for the cube root of 92.",
			"comment": [
				"Fractional part of 92^(1/3) = 1/2 + 1/70 + 1/13943 + ... Generated with Perl's Math::BigFloat module. Number of digits in terms is as follows: 1, 2, 5, 10, 20, 40, 79, 158, 315, ..."
			],
			"example": [
				"Cube root of 92 = 4.5143574354740013794450627026645871414575551937731..."
			],
			"keyword": "frac,nonn",
			"offset": "1,1",
			"author": "Jonathan Wellons (wellons(AT)gmail.com), Aug 23 2007",
			"references": 0,
			"revision": 1,
			"time": "2007-11-10T03:00:00-05:00",
			"created": "2007-11-10T03:00:00-05:00"
		}
	]
}