{
	"greeting": "Greetings from The On-Line Encyclopedia of Integer Sequences! http://oeis.org/",
	"query": "id:A132518",
	"count": 1,
	"start": 0,
	"results": [
		{
			"number": 132518,
			"data": "2,295,121509,28414982629,915041338304523179427,1386623736191019266300366627636945542649716,6446116500843701512046516409183843572531161805187162774630123547457086476783935961128",
			"name": "Egyptian fraction representation for the cube root of 43.",
			"comment": [
				"Fractional part of 43^(1/3) = 1/2 + 1/295 + 1/121509 + ... Generated with Perl's Math::BigFloat module. Number of digits in terms is as follows: 1, 3, 6, 11, 21, 43, 85, 170, 340, ..."
			],
			"example": [
				"Cube root of 43 = 3.5033980603867241706143337581891297372487567869154..."
			],
			"keyword": "frac,nonn",
			"offset": "1,1",
			"author": "Jonathan Wellons (wellons(AT)gmail.com), Aug 23 2007",
			"references": 0,
			"revision": 1,
			"time": "2007-11-10T03:00:00-05:00",
			"created": "2007-11-10T03:00:00-05:00"
		}
	]
}