{
	"greeting": "Greetings from The On-Line Encyclopedia of Integer Sequences! http://oeis.org/",
	"query": "id:A132932",
	"count": 1,
	"start": 0,
	"results": [
		{
			"number": 132932,
			"data": "4,46,468,4689,468910,46891012,4689101214,468910121415,46891012141516,4689101214151618,468910121415161820,46891012141516182021,4689101214151618202122,468910121415161820212224",
			"name": "Concatenation of first n composite numbers.",
			"program": [
				"(PARI) lista(nn) = {s = \"\"; forcomposite(n=1, nn, s = concat(s, Str(n)); print1(eval(s), \", \"););} \\\\ _Michel Marcus_, Nov 06 2015"
			],
			"xref": [
				"Composite numbers: A002808. Cf. A007908, A019518."
			],
			"keyword": "easy,nonn,base",
			"offset": "1,1",
			"author": "_Omar E. Pol_, Sep 12 2007",
			"ext": [
				"Edited by _Charles R Greathouse IV_, Apr 28 2010",
				"Offset set to 1 by _Michel Marcus_, Nov 06 2015"
			],
			"references": 2,
			"revision": 7,
			"time": "2015-11-06T01:59:42-05:00",
			"created": "2007-11-10T03:00:00-05:00"
		}
	]
}