{
	"greeting": "Greetings from The On-Line Encyclopedia of Integer Sequences! http://oeis.org/",
	"query": "id:A132556",
	"count": 1,
	"start": 0,
	"results": [
		{
			"number": 132556,
			"data": "3,90,26997,5832713646,36248264458504926876,5970421377544265288488109215980711239956,44925429090769885874863264668169787292181994292792086268774699647394946013665717",
			"name": "Egyptian fraction representation for the cube root of 82.",
			"comment": [
				"Fractional part of 82^(1/3) = 1/3 + 1/90 + 1/26997 + ... Generated with Perl's Math::BigFloat module. Number of digits in terms is as follows: 1, 2, 5, 10, 20, 40, 80, 160, 320, ..."
			],
			"example": [
				"Cube root of 82 = 4.3444814857686119017223505460545759271936042538089..."
			],
			"keyword": "frac,nonn",
			"offset": "1,1",
			"author": "Jonathan Wellons (wellons(AT)gmail.com), Aug 23 2007",
			"references": 0,
			"revision": 1,
			"time": "2007-11-10T03:00:00-05:00",
			"created": "2007-11-10T03:00:00-05:00"
		}
	]
}