{
	"greeting": "Greetings from The On-Line Encyclopedia of Integer Sequences! http://oeis.org/",
	"query": "id:A132504",
	"count": 1,
	"start": 0,
	"results": [
		{
			"number": 132504,
			"data": "14,1126,6460360,92740914018479272,20336022737839231997936820457353487,1767846730690673988860498627164059593406174064914539750899721960715454",
			"name": "Egyptian fraction representation for the cube root of 29.",
			"comment": [
				"Fractional part of 29^(1/3) = 1/14 + 1/1126 + 1/6460360 + ... Generated with Perl's Math::BigFloat module. Number of digits in terms is as follows: 2, 4, 7, 17, 35, 70, 139, 278, ..."
			],
			"example": [
				"Cube root of 29 = 3.0723168256858472933126379821055974855027832388761..."
			],
			"keyword": "frac,nonn",
			"offset": "1,1",
			"author": "Jonathan Wellons (wellons(AT)gmail.com), Aug 23 2007",
			"references": 0,
			"revision": 1,
			"time": "2007-11-10T03:00:00-05:00",
			"created": "2007-11-10T03:00:00-05:00"
		}
	]
}