{
	"greeting": "Greetings from The On-Line Encyclopedia of Integer Sequences! http://oeis.org/",
	"query": "id:A132539",
	"count": 1,
	"start": 0,
	"results": [
		{
			"number": 132539,
			"data": "49,3149,29245552,3017416820941535,37120422950490992307449773886421,9716461235897282786624637443254229797173980868613492789838214393",
			"name": "Egyptian fraction representation for the cube root of 65.",
			"comment": [
				"Fractional part of 65^(1/3) = 1/49 + 1/3149 + 1/29245552 + ... Generated with Perl's Math::BigFloat module. Number of digits in terms is as follows: 2, 4, 8, 16, 32, 64, 129, 258, ..."
			],
			"example": [
				"Cube root of 65 = 4.0207257585890579760865445144314887598069866440105..."
			],
			"keyword": "frac,nonn",
			"offset": "1,1",
			"author": "Jonathan Wellons (wellons(AT)gmail.com), Aug 23 2007",
			"references": 0,
			"revision": 1,
			"time": "2007-11-10T03:00:00-05:00",
			"created": "2007-11-10T03:00:00-05:00"
		}
	]
}