{
	"greeting": "Greetings from The On-Line Encyclopedia of Integer Sequences! http://oeis.org/",
	"query": "id:A132712",
	"count": 1,
	"start": 0,
	"results": [
		{
			"number": 132712,
			"data": "7,0,0,2,8,1,7,4,9,6,0,4,3,3,9,4,7,7,3,8,3,0,8,8,5,5,8,8,3,9,0,6,3,1,9,2,9,5,1,6,2,2,4,4,1,2,5,8,0,0,8,3,7,4,4,8,9,7,3,6,3,1,3,8,5,9,1,4,5,9,0,9,5,9,0,5,9,6,7,5,4,3,9,6,5,0,0,7,3,2,1,7,1,5,1,3,5,7,8,2,0,6,7,2,0",
			"name": "Decimal expansion of 22/Pi.",
			"example": [
				"22/Pi=7.002817496043394773830885588390631929516224412580083744897363138591459095... - _Vladimir Joseph Stephan Orlovsky_, Dec 03 2009"
			],
			"mathematica": [
				"RealDigits[N[22/Pi,6! ]] (* _Vladimir Joseph Stephan Orlovsky_, Dec 03 2009 *)"
			],
			"xref": [
				"Cf. A049541, A060294, A089491, A088538, A086201, A132696 through A132699, A132701, A132702."
			],
			"keyword": "cons,easy,nonn",
			"offset": "1,1",
			"author": "_Omar E. Pol_, Aug 31 2007",
			"ext": [
				"More terms from _Vladimir Joseph Stephan Orlovsky_, Dec 03 2009"
			],
			"references": 0,
			"revision": 8,
			"time": "2014-03-24T02:02:04-04:00",
			"created": "2007-11-10T03:00:00-05:00"
		}
	]
}