{
	"greeting": "Greetings from The On-Line Encyclopedia of Integer Sequences! http://oeis.org/",
	"query": "id:A132216",
	"count": 1,
	"start": 0,
	"results": [
		{
			"number": 132216,
			"data": "815730977,124097929967680577,6115597639891380737,144086718355753024097,524320466699664691937,3377940044732998170977,10094089678769799935777,30706777728209453204417,58310148000746221725857",
			"name": "Primes that are sums of eighth powers of two distinct primes.",
			"comment": [
				"These primes exist because the polynomial x^8 + y^8 is irreducible over Z. Note that 2^8 + n^8 can be prime for composite n beginning 21, 55, 69, 77, 87, 117."
			],
			"formula": [
				"Primes in A132215. {A001016(A000040(i)) + A001016(A000040(j)) for i \u003e j and are elements of A000040}."
			],
			"example": [
				"a(1) = 2^8 + 13^8 = 256 + 815730721 = 815730977, which is prime.",
				"a(2) = 2^8 + 137^8 = 124097929967680577, which is prime.",
				"a(3) = 2^8 + 223^8 = 6115597639891380737, which is prime.",
				"a(4) = 2^8 + 331^8 = 144086718355753024097, which is prime.",
				"a(5) = 2^8 + 389^8 = 524320466699664691937, which is prime.",
				"a(6) = 2^8 + 491^8 = 3377940044732998170977, which is prime.",
				"a(7) = 2^8 + 563^8 = 10094089678769799935777, which is prime."
			],
			"xref": [
				"Cf. A000040, A001016, A050997, A120398, A122616, A130873, A130555, A132214, A132215."
			],
			"keyword": "easy,nonn",
			"offset": "1,1",
			"author": "_Jonathan Vos Post_, Aug 13 2007",
			"ext": [
				"More terms from _Jon E. Schoenfield_, Jul 16 2010"
			],
			"references": 4,
			"revision": 5,
			"time": "2013-08-31T19:33:47-04:00",
			"created": "2007-11-10T03:00:00-05:00"
		}
	]
}