{
	"greeting": "Greetings from The On-Line Encyclopedia of Integer Sequences! http://oeis.org/",
	"query": "id:A133485",
	"count": 1,
	"start": 0,
	"results": [
		{
			"number": 133485,
			"data": "0,1,2,10,29,265,449,682",
			"name": "Integers n such that the polynomial x^(2n+2)+x+1 is primitive and irreducible over GF(2).",
			"comment": [
				"An integer n\u003e1 belongs to this sequence iff A100730(n)=2^(2n+3)-2.",
				"Also, an integer n belongs to this sequence iff 2n+2 belongs to A073639.",
				"The polynomial x^(2n+2)+x+1 in the definition can be replaced by its reciprocal x^(2n+2)+x^(2n+1)+1.",
				"(2*a(n)+2) is a subsequence of A002475. - _Manfred Scheucher_, Aug 17 2015",
				"a(9) \u003e= (A002475(29)-2)/2 = 5098."
			],
			"maple": [
				"select(n -\u003e (Irreduc(x^(2*n+2)+x+1) mod 2) and (Primitive(x^(2*n+2)+x+1) mod 2), [$0..500]); # _Robert Israel_, Aug 17 2015"
			],
			"program": [
				"(PARI) polisprimitive(poli)=np = 2^poldegree(poli)-1; if (type((x^np-1)/poli) != \"t_POL\", return (0)); forstep(k=np-1, 1, -1, if (type((x^k-1)/poli) == \"t_POL\", return (0));); return(1);",
				"lista(nn) = {for (n=0, nn, poli = Mod(1,2)*(x^(2*n+2)+x+1); if (polisirreducible(poli) \u0026\u0026 polisprimitive(poli), print1(n, \", \")););} \\\\ _Michel Marcus_, May 27 2013",
				"(Sage)",
				"def is_primitive(p):",
				"    d = 2^(p.degree())-1",
				"    if not p.divides(x^d-1): return False",
				"    for k in (d//q for q in d.prime_factors()):",
				"        if p.divides(x^k-1): return False",
				"    return True",
				"P.\u003cx\u003e = GF(2)[]",
				"for n in range(1,1000):",
				"    p = x^(2*n+2)+x+1",
				"    if p.is_irreducible() and is_primitive(p):",
				"        print(n)",
				"# Modification of the A002475 Script by Ruperto Corso",
				"# _Manfred Scheucher_, Aug 17 2015"
			],
			"xref": [
				"Cf. A002475, A073639, A100730."
			],
			"keyword": "nonn,more,hard",
			"offset": "1,3",
			"author": "_Max Alekseyev_, Dec 02 2007, Feb 15 2008",
			"ext": [
				"a(2)=1 inserted by _Michel Marcus_, May 29 2013"
			],
			"references": 0,
			"revision": 37,
			"time": "2020-03-14T17:23:52-04:00",
			"created": "2007-12-09T03:00:00-05:00"
		}
	]
}