{
	"greeting": "Greetings from The On-Line Encyclopedia of Integer Sequences! http://oeis.org/",
	"query": "id:A133292",
	"count": 1,
	"start": 0,
	"results": [
		{
			"number": 133292,
			"data": "1,1,2,4,7,2,7,4,2,1,1,2,4,7,2,7,4,2,1,1,2,4,7,2,7,4,2,1,1,2,4,7,2,7,4,2,1,1,2,4,7,2,7,4,2,1,1,2,4,7,2,7,4,2,1,1,2,4,7,2,7,4,2,1,1,2,4,7,2,7,4,2,1,1,2,4,7,2,7,4,2,1,1,2,4,7,2,7,4,2,1,1,2,4,7,2,7,4,2,1,1,2,4,7,2",
			"name": "Period 9: repeat [1, 1, 2, 4, 7, 2, 7, 4, 2].",
			"comment": [
				"For n\u003e0, digital roots of centered 10-gonal numbers (A062786). - _Colin Barker_, Jan 30 2015",
				"For n\u003e0, also the digital roots of central polygonal numbers (the Lazy Caterer's sequence) A000124. - _Peter M. Chema_, Sep 17 2016"
			],
			"link": [
				"Colin Barker, \u003ca href=\"/A133292/b133292.txt\"\u003eTable of n, a(n) for n = 0..1000\u003c/a\u003e",
				"\u003ca href=\"/index/Rec#order_09\"\u003eIndex entries for linear recurrences with constant coefficients\u003c/a\u003e, signature (0,0,0,0,0,0,0,0,1)."
			],
			"formula": [
				"a(n) = (1/54)*{11*(n mod 9)+17*[(n+1) mod 9]+23*[(n+2) mod 9]-25*[(n+3) mod 9]+35*[(n+4) mod 9]-13*[(n+5) mod 9]-7*[(n+6) mod 9]-[(n+7) mod 9]+5*[(n+8) mod 9]}, with n\u003e=0. - _Paolo P. Lava_, Oct 24 2007",
				"G.f.: -(2*x^8+4*x^7+7*x^6+2*x^5+7*x^4+4*x^3+2*x^2+x+1) / ((x-1)*(x^2+x+1)*(x^6+x^3+1)). - _Colin Barker_, Apr 04 2015"
			],
			"mathematica": [
				"PadRight[{},111,{1,1,2,4,7,2,7,4,2}] (* _Harvey P. Dale_, Apr 29 2012 *)"
			],
			"program": [
				"(PARI) a(n)=[1,1,2,4,7,2,7,4,2][n%9+1] \\\\ _Charles R Greathouse IV_, Jun 02 2011",
				"(PARI) Vec(-(2*x^8+4*x^7+7*x^6+2*x^5+7*x^4+4*x^3+2*x^2+x+1)/((x-1)*(x^2+x+1)*(x^6+x^3+1)) + O(x^100)) \\\\ _Colin Barker_, Apr 04 2015"
			],
			"xref": [
				"Cf. A000124, A062786."
			],
			"keyword": "nonn,easy,less",
			"offset": "0,3",
			"author": "_Paul Curtz_, Oct 17 2007",
			"references": 3,
			"revision": 30,
			"time": "2020-04-27T02:00:17-04:00",
			"created": "2007-11-10T03:00:00-05:00"
		}
	]
}