{
	"greeting": "Greetings from The On-Line Encyclopedia of Integer Sequences! http://oeis.org/",
	"query": "id:A133810",
	"count": 1,
	"start": 0,
	"results": [
		{
			"number": 133810,
			"data": "1,2,3,4,5,6,7,8,9,11,13,15,16,17,18,19,23,25,27,29,30,31,32,35,36,37,41,43,47,49,53,54,59,61,64,67,71,73,75,77,79,81,83,89,97,101,103,105,107,108,109,113,121,125,127,128,131,137,139,143,149,150,151,157,162",
			"name": "Numbers that are primally tight and have weakly ascending powers.",
			"comment": [
				"All numbers of the form p_1^k1*p_2^k2*...*p_n^k_n, where k1 \u003c= k2 \u003c= ... \u003c= k_n and the p_i are n successive primes."
			],
			"link": [
				"Reinhard Zumkeller, \u003ca href=\"/A133810/b133810.txt\"\u003eTable of n, a(n) for n = 1..10000\u003c/a\u003e"
			],
			"program": [
				"(Haskell)",
				"a133810 n = a133810_list !! (n-1)",
				"a133810_list = 1 : filter f [2..] where",
				"   f x = (and $ zipWith (\u003c=) eps $ tail eps) \u0026\u0026",
				"         (all (== 1) $ zipWith (-) (tail ips) ips)",
				"     where ips = map a049084 $ a027748_row x",
				"           eps = a124010_row x",
				"-- _Reinhard Zumkeller_, Nov 07 2012"
			],
			"xref": [
				"Cf. A025487, A087980, A073491, A133808-A133813.",
				"Cf. A124010, A027748, A049084."
			],
			"keyword": "nonn",
			"offset": "1,2",
			"author": "_Olivier Gérard_, Sep 23, 2007",
			"references": 5,
			"revision": 9,
			"time": "2013-07-13T12:03:30-04:00",
			"created": "2007-11-10T03:00:00-05:00"
		}
	]
}