{
	"greeting": "Greetings from The On-Line Encyclopedia of Integer Sequences! http://oeis.org/",
	"query": "id:A133538",
	"count": 1,
	"start": 0,
	"results": [
		{
			"number": 133538,
			"data": "2315,80312,901668,20310714,82235688,473087190,1304210412,4298697186,20654701756,44762490420,122444491244,289686151014,466572884988,778441731570,1681334260300,3663362624656,5631394320840,9203454441344,15155831763714,20142518677488",
			"name": "Sum of seventh powers of two consecutive primes.",
			"link": [
				"Muniru A Asiru, \u003ca href=\"/A133538/b133538.txt\"\u003eTable of n, a(n) for n = 1..4000\u003c/a\u003e"
			],
			"formula": [
				"a(n) = A092759(n) + A092759(n+1). - _Michel Marcus_, Nov 09 2013"
			],
			"example": [
				"a(1)=2315 because 2^7 + 3^7 = 2315."
			],
			"maple": [
				"seq(add(ithprime(n+k)^7,k=0..1),n=1..20); # _Muniru A Asiru_, Aug 22 2018"
			],
			"mathematica": [
				"e = 7; Table[Prime[n]^e + Prime[n + 1]^e, {n, 1, 100}]",
				"Total/@Partition[Prime[Range[20]]^7,2,1] (* _Harvey P. Dale_, Oct 16 2014 *)"
			],
			"program": [
				"(PARI) a(n) = prime(n)^7 + prime(n+1)^7; \\\\ _Michel Marcus_, Aug 22 2018",
				"(MAGMA) [NthPrime(n)^7 + NthPrime(n+1)^7: n in [1..25]]; // _Vincenzo Librandi_, Aug 23 2018"
			],
			"xref": [
				"Cf. A034963, A133524, A133525, A133526, A133527, A133528, A133529, A133530, A133531, A133532, A069484, A133534, A133535, A133536, A133537."
			],
			"keyword": "nonn",
			"offset": "1,1",
			"author": "_Artur Jasinski_, Sep 14 2007",
			"references": 14,
			"revision": 22,
			"time": "2018-08-24T02:06:57-04:00",
			"created": "2007-11-10T03:00:00-05:00"
		}
	]
}