{
	"greeting": "Greetings from The On-Line Encyclopedia of Integer Sequences! http://oeis.org/",
	"query": "id:A133577",
	"count": 1,
	"start": 0,
	"results": [
		{
			"number": 133577,
			"data": "1,2,12,32,152,472,1992,6712,26632,93752,360072,1297592,4898312,17874232,66857352,245599672,914173192,3370169912,12511901832,46213600952,171332619272,633468628792,2346794821512,8681481109432",
			"name": "a(n) = a(n-1) + 10*a(n-2) for n \u003e= 2, a(0)=1, a(1)=2.",
			"link": [
				"\u003ca href=\"/index/Rec#order_02\"\u003eIndex entries for linear recurrences with constant coefficients\u003c/a\u003e, signature (1,10)."
			],
			"formula": [
				"G.f.: (1+x)/(1-x-10*x^2).",
				"a(n) = Sum_{k=0..n+1} A122950(n+1,k)*9^(n+1-k). - _Philippe Deléham_, Jan 08 2008",
				"a(n) = (1/2)*((1/2)-(1/2)*sqrt(41))^n+(3/82)*sqrt(41)*((1/2)+(1/2)*sqrt(41))^n-(3/82)*sqrt(41)*((1/2)-(1 /2)*sqrt(41))^n+(1/2)*((1/2)+(1/2)*sqrt(41))^n, with n \u003e= 0. - _Paolo P. Lava_, Nov 18 2008"
			],
			"mathematica": [
				"LinearRecurrence[{1, 10}, {1, 2}, 24] (* or *)",
				"CoefficientList[Series[(1 + x)/(1 - x - 10 x^2), {x, 0, 23}], x] (* _Michael De Vlieger_, Jul 20 2017 *)"
			],
			"keyword": "easy,nonn",
			"offset": "0,2",
			"author": "_Philippe Deléham_, Jan 03 2008",
			"references": 4,
			"revision": 28,
			"time": "2017-07-22T11:09:20-04:00",
			"created": "2008-06-29T03:00:00-04:00"
		}
	]
}