{
	"greeting": "Greetings from The On-Line Encyclopedia of Integer Sequences! http://oeis.org/",
	"query": "id:A133475",
	"count": 1,
	"start": 0,
	"results": [
		{
			"number": 133475,
			"data": "-4,-3,-1,0,1,3,5,11,15,28,47,55,81,549,1799,8361",
			"name": "Integers n such that n^3 + n^2 - 9*n + 16 is a square.",
			"comment": [
				"The set of x values of integral points on the elliptic curve y^2 = x^3 + x^2 - 9*x + 16."
			],
			"example": [
				"0^3 + (-5)^2 + (-9) = 4^2, 1^3 + (-4)^2 + (-8) = 3^2, 3^3 + (-2)^2 + (-6) = 5^2"
			],
			"mathematica": [
				"ok[x_] := Reduce[{y^2 == x^3 + x^2 - 9*x + 16, y \u003e= 0}, y, Integers] =!= False; Select[Table[x, {x, -4, 10000}], ok ] (* _Jean-François Alcover_, Sep 07 2011 *)"
			],
			"program": [
				"(MAGMA) P\u003cn\u003e := PolynomialRing(Integers()); {x: x in Sort([ p[1] : p in IntegralPoints(EllipticCurve(n^3 + n^2 - 9*n + 16)) ])};",
				"(Sage) EllipticCurve([0,1,0,-9,16]).integral_points()",
				"(PARI) is(n)=issquare(n^3+n^2-9*n+16) \\\\ _Charles R Greathouse IV_, Sep 06 2016"
			],
			"xref": [
				"Cf. A117950, A132411, A132414, A002522, A028872."
			],
			"keyword": "sign,full,fini",
			"offset": "1,1",
			"author": "_Mohamed Bouhamida_, Nov 29 2007",
			"ext": [
				"Edited by _Max Alekseyev_, Nov 13 2009"
			],
			"references": 0,
			"revision": 15,
			"time": "2020-02-15T10:52:27-05:00",
			"created": "2007-12-09T03:00:00-05:00"
		}
	]
}