{
	"greeting": "Greetings from The On-Line Encyclopedia of Integer Sequences! http://oeis.org/",
	"query": "id:A133470",
	"count": 1,
	"start": 0,
	"results": [
		{
			"number": 133470,
			"data": "2,5,9,17,29,49,81,135,225,371,614,1013,1672,2757,4548,7499,12365,20388,33615,55423,91378,150659,248395,409536,675212,1113237,1835419,3026095,4989189,8225783,13562025,22360001,36865410,60780788,100210579,165219314,272400598,449112661",
			"name": "Numbers k \u003e 1 for which floor(b(k)) = floor(b(k-1)), where b(m) = Sum_{j=1..m} (j/(j+2)).",
			"comment": [
				"I conjecture that lim_{n-\u003einfinity} a(n)/a(n-1) = sqrt(e). For integers not in the sequence, b(m) = 1 + b(m-1)."
			],
			"example": [
				"floor(b(1)) = floor(1/3) = 0;",
				"floor(b(2)) = floor(1/3 + 2/4) = 0;",
				"hence 2 is a term."
			],
			"program": [
				"(PARI) A=0;for(n=1,1000000,B=A;A=B+(n/(n+2));if(floor(A)-floor(B)-1,print1(n,\", \")))"
			],
			"keyword": "easy,nonn",
			"offset": "1,1",
			"author": "Philippe LALLOUET (philip.lallouet(AT)orange.fr), Nov 28 2007",
			"ext": [
				"More terms from _Hugo Pfoertner_, Jul 04 2021"
			],
			"references": 0,
			"revision": 18,
			"time": "2021-07-05T09:11:08-04:00",
			"created": "2007-12-09T03:00:00-05:00"
		}
	]
}