{
	"greeting": "Greetings from The On-Line Encyclopedia of Integer Sequences! http://oeis.org/",
	"query": "id:A133009",
	"count": 1,
	"start": 0,
	"results": [
		{
			"number": 133009,
			"data": "0,0,0,1,0,1,1,0,1,2,1,1,2,1,1,4,1,2,3,1,3,3,2,4,3,2,3,5,2,5,5,0,5,6,3,5,5,3,4,8,4,4,6,5,5,7,6,4,7,6,5,9,5,7,8,4,7,10,7,5,10,5,5,16,5,6,11,5,9,11,8,8,10,8,8,13,7,11,12,4,12,12,8,13,10,9,11,12,10,12,12",
			"name": "One defining property of the sequences {A, B} = {A000069, A001969} is that they are the unique pair of sets complementary with respect to the nonnegative integers such that q(n) = |{x : x, y in A, x \u003c y, x + y = n}| = |{x : x, y in B, x \u003c y, x + y = n}| for all n \u003e= 0. The present sequence gives the values of q(n).",
			"link": [
				"David W. Wilson, \u003ca href=\"/A133009/b133009.txt\"\u003eTable of n, a(n) for n = 0..10000\u003c/a\u003e",
				"C. Sándor, \u003ca href=\"http://math.colgate.edu/~integers/e18/e18.Abstract.html\"\u003ePartitions of natural numbers and their representation functions\u003c/a\u003e, INTEGERS 4 (2004), #A18.",
				"Jeffrey Shallit, \u003ca href=\"https://arxiv.org/abs/2112.13627\"\u003eAdditive Number Theory via Automata and Logic\u003c/a\u003e, arXiv:2112.13627 [math.NT], 2021."
			],
			"xref": [
				"Cf. A000028, A000379, A000069, A001969, A133008."
			],
			"keyword": "nonn",
			"offset": "0,10",
			"author": "_David W. Wilson_, Dec 21 2007",
			"references": 5,
			"revision": 14,
			"time": "2021-12-27T22:36:27-05:00",
			"created": "2008-06-29T03:00:00-04:00"
		}
	]
}