{
	"greeting": "Greetings from The On-Line Encyclopedia of Integer Sequences! http://oeis.org/",
	"query": "id:A133086",
	"count": 1,
	"start": 0,
	"results": [
		{
			"number": 133086,
			"data": "1,4,10,26,64,152,352,800,1792,3968,8704,18944,40960,88064,188416,401408,851968,1802240,3801088,7995392,16777216,35127296,73400320,153092096,318767104,662700032,1375731712,2852126720,5905580032,12213813248,25232932864",
			"name": "Row sums of triangle A133085.",
			"link": [
				"G. C. Greubel, \u003ca href=\"/A133086/b133086.txt\"\u003eTable of n, a(n) for n = 0..1000\u003c/a\u003e",
				"\u003ca href=\"/index/Rec#order_02\"\u003eIndex entries for linear recurrences with constant coefficients\u003c/a\u003e, signature (4,-4)."
			],
			"formula": [
				"Binomial transform of A114753: (1, 3, 3, 7, 5, 11, 7, 15,...).",
				"For n\u003e1, a(n) = 2^n +3*n*2^(n-2). - _R. J. Mathar_, Apr 04 2012"
			],
			"example": [
				"a(3) = 26 = sum of row 3 of triangle A133085: (12 + 8, + 5 + 1).",
				"a(3) = 26 = (1, 3, 3, 1) dot (1, 3, 3, 7) = (1 + 9 + 9 + 7)."
			],
			"mathematica": [
				"Join[{1, 4}, Table[2^n + 3*n*2^(n - 2), {n, 2, 50}]] (* _G. C. Greubel_, Oct 21 2017 *)",
				"LinearRecurrence[{4,-4},{1,4,10,26},40] (* _Harvey P. Dale_, Jul 19 2020 *)"
			],
			"program": [
				"(PARI) concat([1,4], for(n=2,50, print1(2^n + 3*n*2^(n-2), \", \"))) \\\\ _G. C. Greubel_, Oct 21 2017",
				"(MAGMA) [1,4] cat [2^n+3*n*2^(n-2): n in [2..30]]; // _Vincenzo Librandi_, Oct 21 2017"
			],
			"xref": [
				"Cf. A133085, A114753, A133080."
			],
			"keyword": "nonn",
			"offset": "0,2",
			"author": "_Gary W. Adamson_, Sep 08 2007",
			"references": 2,
			"revision": 15,
			"time": "2020-07-19T13:47:39-04:00",
			"created": "2007-11-10T03:00:00-05:00"
		}
	]
}