{
	"greeting": "Greetings from The On-Line Encyclopedia of Integer Sequences! http://oeis.org/",
	"query": "id:A133114",
	"count": 1,
	"start": 0,
	"results": [
		{
			"number": 133114,
			"data": "1,1,1,2,1,1,2,2,3,1,3,2,7,3,1,3,3,13,7,5,1,4,3,22,13,16,5,1,4,4,34,22,40,16,7,1,5,4,50,34,86,40,29,7,1,5,5,70,50,166,86,91,29,9,1",
			"name": "A000012 * A007318 * A133080.",
			"comment": [
				"Row sums = 2^n"
			],
			"formula": [
				"A000012(signed) * A007318 * A133080 as infinite lower triangular matrices, where A000012(signed) = [1; -1,1; 1,-1,1; -1,1,-1,1;...)."
			],
			"example": [
				"First few rows of the triangle are:",
				"1;",
				"1, 1;",
				"2, 1, 1;",
				"2, 2, 3, 1;",
				"3, 2, 7, 3, 1;",
				"3, 3, 13, 7, 5, 1;",
				"4, 3, 22, 13, 16, 5, 1;",
				"4, 4, 34, 22, 40, 16, 7, 1;",
				"..."
			],
			"xref": [
				"Cf. A000012, A133080, A007318."
			],
			"keyword": "nonn,tabl",
			"offset": "1,4",
			"author": "_Gary W. Adamson_, Sep 14 2007",
			"references": 1,
			"revision": 2,
			"time": "2012-03-30T17:25:25-04:00",
			"created": "2007-11-10T03:00:00-05:00"
		}
	]
}