{
	"greeting": "Greetings from The On-Line Encyclopedia of Integer Sequences! http://oeis.org/",
	"query": "id:A133515",
	"count": 1,
	"start": 0,
	"results": [
		{
			"number": 133515,
			"data": "1,11,291,28661,10982565,16031828359,89373230342147,1904212088591018521,155026375803222057878889,48225130114674924906540348115,57322477811272486520770053115140403,260351257812272076026660518356378279922077",
			"name": "Number of n X n binary matrices with every 1 vertically or horizontally adjacent to some 0.",
			"comment": [
				"Number of dominating sets in the grid graph P_n X P_n. - _Andrew Howroyd_, May 10 2017"
			],
			"link": [
				"ZhaoYang Liang, \u003ca href=\"/A133515/b133515.txt\"\u003eTable of n, a(n) for n = 1..15\u003c/a\u003e",
				"Eric Weisstein's World of Mathematics, \u003ca href=\"http://mathworld.wolfram.com/DominatingSet.html\"\u003eDominating Set\u003c/a\u003e",
				"Eric Weisstein's World of Mathematics, \u003ca href=\"http://mathworld.wolfram.com/GridGraph.html\"\u003eGrid Graph\u003c/a\u003e",
				"Wikipedia, \u003ca href=\"https://en.wikipedia.org/wiki/Dominating_set\"\u003eDominating set\u003c/a\u003e"
			],
			"xref": [
				"Main diagonal of A218354."
			],
			"keyword": "nonn",
			"offset": "1,2",
			"author": "_R. H. Hardin_, Dec 24 2007",
			"ext": [
				"a(12) from _Andrew Howroyd_, May 10 2017"
			],
			"references": 7,
			"revision": 25,
			"time": "2018-08-26T01:03:49-04:00",
			"created": "2008-06-29T03:00:00-04:00"
		}
	]
}