{
	"greeting": "Greetings from The On-Line Encyclopedia of Integer Sequences! http://oeis.org/",
	"query": "id:A133939",
	"count": 1,
	"start": 0,
	"results": [
		{
			"number": 133939,
			"data": "0,1,2,6,40,440,5952,97104,1888640,42480000,1082119680,30814080000,970187827200,33461288899584,1254539018571776,50803163905751040,2209862882578300928,102761280728930287616,5087062588875762696192,267101579060996713611264",
			"name": "E.g.f. satisfies: A(x) = x*(tan(tan(A(x)))+1).",
			"link": [
				"Alois P. Heinz, \u003ca href=\"/A133939/b133939.txt\"\u003eTable of n, a(n) for n = 0..200\u003c/a\u003e"
			],
			"formula": [
				"a(n) ~ n^(n-1) * (cos(s))^(3/2) * sqrt(s/(-2*r + 2*s + r*sin(2*s))) / (exp(n) * (2*r^2-2*r*s+s^2)^(1/4) * r^(n-3/4)), where r = 0.3331897707672964894... and s = 0.6497639144980735763... are roots of the system of equations r*(sec(s)*sec(tan(s)))^2 = 1, s = r + r*tan(tan(s)). - _Vaclav Kotesovec_, Jul 16 2014"
			],
			"maple": [
				"A:= proc(n) option remember; if n=0 then 0 else convert(series(x*",
				"       (tan(tan(A(n-1)))+1), x=0, n+1), polynom) fi",
				"    end:",
				"a:= n-\u003e coeff(A(n), x, n)*n!:",
				"seq(a(n), n=0..23);"
			],
			"mathematica": [
				"CoefficientList[InverseSeries[Series[x/(1 + Tan[Tan[x]]),{x,0,20}],x],x] * Range[0,20]! (* _Vaclav Kotesovec_, Jul 16 2014 *)"
			],
			"keyword": "nonn",
			"offset": "0,3",
			"author": "_Alois P. Heinz_, Aug 27 2008",
			"references": 1,
			"revision": 13,
			"time": "2015-09-18T17:52:06-04:00",
			"created": "2007-11-10T03:00:00-05:00"
		}
	]
}