{
	"greeting": "Greetings from The On-Line Encyclopedia of Integer Sequences! http://oeis.org/",
	"query": "id:A133984",
	"count": 1,
	"start": 0,
	"results": [
		{
			"number": 133984,
			"data": "0,1,2,9,72,845,12972,244741,5468176,141111693,4129615540,135127313101,4888457921688,193733261456605,8346805786382364,388432439875807125,19417284993350451232,1037672210204182995277,59035412382992193993732",
			"name": "E.g.f. satisfies: A(x) = x*(tan(exp(A(x))-1)+1).",
			"link": [
				"Alois P. Heinz, \u003ca href=\"/A133984/b133984.txt\"\u003eTable of n, a(n) for n = 0..100\u003c/a\u003e"
			],
			"formula": [
				"a(n) ~ n^(n-1) * sqrt(r*s/(r+2*exp(s)*(s-r))) / (exp(n) * r^n), where r = 0.2898872767597687473... and s = 0.5719846912143595905... are roots of the system of equations s+r*tan(1-exp(s)) = r, exp(s)*r = (cos(1-exp(s)))^2. - _Vaclav Kotesovec_, Jul 16 2014"
			],
			"maple": [
				"A:= proc(n) option remember; if n=0 then 0 else convert (series (x* (tan (exp(A(n-1))-1)+1), x=0, n+1), polynom) fi end: a:= n-\u003e coeff (A(n), x, n)*n!: seq (a(n), n=0..22);"
			],
			"mathematica": [
				"CoefficientList[InverseSeries[Series[-(x/(-1 + Tan[1 - E^x])),{x,0,20}],x],x] * Range[0,20]! (* _Vaclav Kotesovec_, Jul 16 2014 *)"
			],
			"keyword": "nonn",
			"offset": "0,3",
			"author": "_Alois P. Heinz_, Aug 27 2008",
			"references": 1,
			"revision": 8,
			"time": "2014-07-16T16:01:05-04:00",
			"created": "2007-11-10T03:00:00-05:00"
		}
	]
}