{
	"greeting": "Greetings from The On-Line Encyclopedia of Integer Sequences! http://oeis.org/",
	"query": "id:A134731",
	"count": 1,
	"start": 0,
	"results": [
		{
			"number": 134731,
			"data": "3,7,3,1,1,2,7,8,1,9,1,1,3,1,0,7,1,5,2,4,2,8,7,2,1,4,7,4,8,3,6,4,7,2,3,0,5,8,4,3,0,0,9,2,1,3,6,9,3,9,5,1,6,1,8,9,7,0,0,1,9,6,4,2,6,9,0,1,3,7,4,4,9,5,6,2,1,1,1",
			"name": "Successive digits of Mersenne primes A000668(n).",
			"comment": [
				"See A169684, A169681, A169685 for the digits of M(11)..M(13) separately. - _M. F. Hasler_, Jan 09 2013"
			],
			"example": [
				"Concatenate 3, 7, 31, 127, 8191, ..."
			],
			"xref": [
				"Cf. A007376, A033308, A000668."
			],
			"keyword": "easy,nonn,base",
			"offset": "1,1",
			"author": "_Omar E. Pol_, Nov 10 2007",
			"references": 1,
			"revision": 5,
			"time": "2013-01-10T07:08:29-05:00",
			"created": "2007-12-09T03:00:00-05:00"
		}
	]
}