{
	"greeting": "Greetings from The On-Line Encyclopedia of Integer Sequences! http://oeis.org/",
	"query": "id:A134508",
	"count": 1,
	"start": 0,
	"results": [
		{
			"number": 134508,
			"data": "1,2,5,11,22,42,77,138,243,423,730,1252,2137,3634,6161,10419,17582,29614,49797,83610,140191,234767,392690,656136,1095217,1826402,3043037,5065883,8426758,14006898,23265725,38618922,64062987,106206519,175972426",
			"name": "Row sums of triangle A134507.",
			"link": [
				"\u003ca href=\"/index/Rec#order_06\"\u003eIndex entries for linear recurrences with constant coefficients\u003c/a\u003e, signature (4,-4,-2,4,0,-1)."
			],
			"formula": [
				"a(n) = A000071(n+2) + A029907(n) - n. [Corrected by _Charles R Greathouse IV_, Feb 13 2018]"
			],
			"example": [
				"a(4) = 11 = sum of row 4 terms of triangle A134507 = (4 + 5 + 1 + 1).",
				"a(4) = 11 = A000071(6) + A029907(4) - 4 = (7 + 8 - 4)."
			],
			"program": [
				"(PARI) a(n)=fibonacci(n+2) + ((n+4)*fibonacci(n)+2*n*fibonacci(n-1))/5 - n - 1 \\\\ _Charles R Greathouse IV_, Feb 13 2018"
			],
			"xref": [
				"Cf. A134507, A000071, A029907."
			],
			"keyword": "nonn,easy",
			"offset": "1,2",
			"author": "_Gary W. Adamson_, Oct 28 2007",
			"ext": [
				"More terms from _Charles R Greathouse IV_, Feb 13 2018"
			],
			"references": 1,
			"revision": 4,
			"time": "2018-02-13T15:54:03-05:00",
			"created": "2007-11-10T03:00:00-05:00"
		}
	]
}