{
	"greeting": "Greetings from The On-Line Encyclopedia of Integer Sequences! http://oeis.org/",
	"query": "id:A134812",
	"count": 1,
	"start": 0,
	"results": [
		{
			"number": 134812,
			"data": "0,1,-1,1,2,-2,8,4,8,40,32,112,224,352,896,1600,3200,6784,12800,26368,52736,103936,210944,418816,837632,1681408,3350528,6713344,13426688,26828800,53706752,107364352,214728704,429555712,858914816,1718026240,3436052480,6871711744,13744209920",
			"name": "a(n) = 2a(n-2) + 4a(n-3), n \u003e= 3.",
			"link": [
				"Joshua Zucker, Feb 23 2008, \u003ca href=\"/A134812/b134812.txt\"\u003eTable of n, a(n) for n = 0..60\u003c/a\u003e",
				"\u003ca href=\"/index/Rec#order_03\"\u003eIndex entries for linear recurrences with constant coefficients\u003c/a\u003e, signature (0,2,4)."
			],
			"formula": [
				"G.f. x*(-1 + x + x^2) / ( (2*x-1)*(2*x^2 + 2*x + 1) ). - _R. J. Mathar_, Aug 11 2012",
				"20*a(n) = 2^n - 6*A078069(n), n\u003e0. - _R. J. Mathar_, Aug 11 2012"
			],
			"xref": [
				"Cf. A134654."
			],
			"keyword": "sign,easy",
			"offset": "0,5",
			"author": "_Paul Curtz_, Jan 28 2008",
			"ext": [
				"More terms from _Joshua Zucker_, Feb 23 2008"
			],
			"references": 2,
			"revision": 10,
			"time": "2015-06-13T00:52:33-04:00",
			"created": "2008-06-29T03:00:00-04:00"
		}
	]
}