{
	"greeting": "Greetings from The On-Line Encyclopedia of Integer Sequences! http://oeis.org/",
	"query": "id:A134804",
	"count": 1,
	"start": 0,
	"results": [
		{
			"number": 134804,
			"data": "0,1,3,6,1,6,3,1,0,0,1,3,6,1,6,3,1,0,0,1,3,6,1,6,3,1,0,0,1,3,6,1,6,3,1,0,0,1,3,6,1,6,3,1,0,0,1,3,6,1,6,3,1,0,0,1,3,6,1,6,3,1,0,0,1,3,6,1,6,3,1,0,0,1,3,6,1,6,3,1,0,0,1,3,6,1,6,3,1,0,0,1,3,6,1,6,3,1,0,0,1,3,6,1,6",
			"name": "Remainder of triangular number A000217(n) modulo 9.",
			"comment": [
				"Periodic with period 9 since A000217(n+9) = A000217(n)+9(n+5) .",
				"From Jacobsthal numbers A001045, A156060 = 0,1,1,3,5,2,3,7,4,0,8, = b(n). a(n)=A156060(n)*A156060(n+1) mod 9. Same transform (a(n)*a(n+1) mod 9 or b(n)*b(n+1) mod 9) in A157742, A158012, A158068, A158090. - _Paul Curtz_, Mar 25 2009"
			],
			"link": [
				"\u003ca href=\"/index/Rec#order_09\"\u003eIndex entries for linear recurrences with constant coefficients\u003c/a\u003e, signature (0, 0, 0, 0, 0, 0, 0, 0, 1)."
			],
			"formula": [
				"a(n) = A010878(A000217(n)) = A010878(A055263(n)) = a(n-9).",
				"O.g.f.: (-2x+2)/[3(x^2+x+1)]+(-3+3x^5)/(x^6+x^3+1)-7/[3(x-1)].",
				"a(n) = (1/108)*{7*(n mod 9)+19*[(n+1) mod 9]+31*[(n+2) mod 9]+43*[(n+3) mod 9]-53*[(n+4) mod 9]+67*[(n+5) mod 9]-29*[(n+6) mod 9]-17*[(n+7) mod 9]-5*[(n+8) mod 9]}, with n\u003e=0. - _Paolo P. Lava_, Jan 30 2008"
			],
			"mathematica": [
				"LinearRecurrence[{0, 0, 0, 0, 0, 0, 0, 0, 1},{0, 1, 3, 6, 1, 6, 3, 1, 0},105] (* _Ray Chandler_, Aug 26 2015 *)"
			],
			"keyword": "easy,nonn",
			"offset": "0,3",
			"author": "_R. J. Mathar_, Jan 28 2008",
			"references": 0,
			"revision": 13,
			"time": "2018-04-23T09:31:39-04:00",
			"created": "2008-06-29T03:00:00-04:00"
		}
	]
}