{
	"greeting": "Greetings from The On-Line Encyclopedia of Integer Sequences! http://oeis.org/",
	"query": "id:A134225",
	"count": 1,
	"start": 0,
	"results": [
		{
			"number": 134225,
			"data": "1,3,1,2,5,1,3,2,7,1,4,3,2,9,1,5,4,3,2,11,1,6,5,4,3,2,13,1,7,6,5,4,3,2,15,1,8,7,6,5,4,3,2,17,1,9,8,7,6,5,4,3,2,19,1",
			"name": "A007436 + A134082 - A000012 as infinite lower triangular matrices; where A000012 = (1; 1,1; 1,1,1;...).",
			"comment": [
				"Row sums = A034856: (1, 4, 8, 13, 19, 26,...)."
			],
			"example": [
				"First few rows of the triangle are:",
				"1;",
				"3,1;",
				"2, 5, 1;",
				"3, 2, 7, 1;",
				"4, 3, 2, 9, 1;",
				"5, 4, 3, 2, 11, 1;",
				"6, 5, 4, 3, 2, 13, 1;",
				"7, 6, 5, 4, 3, 2, 15, 1;",
				"..."
			],
			"xref": [
				"Cf. A007436, A134082, A034856."
			],
			"keyword": "nonn,tabl",
			"offset": "1,2",
			"author": "_Gary W. Adamson_, Oct 14 2007",
			"references": 1,
			"revision": 2,
			"time": "2012-03-30T17:25:26-04:00",
			"created": "2007-11-10T03:00:00-05:00"
		}
	]
}