{
	"greeting": "Greetings from The On-Line Encyclopedia of Integer Sequences! http://oeis.org/",
	"query": "id:A134202",
	"count": 1,
	"start": 0,
	"results": [
		{
			"number": 134202,
			"data": "1,5,13,14,14,14,14,14,14,14,14,14,14,14,14,14,14,14,14,14,14,14,14,14,14,14,14,14,14,14,14,14,14,14,14,14,14,14,14,14,14,14,14,14,14,14,14,14,14,14,14,14,14,14,14,14,14,14,14,14,14,14,14,14,14,14",
			"name": "Number of rigid Hv-groups of order n.",
			"reference": [
				"R. Bayon and N. Lygeros, Hyperstructures and Automorphism Groups, submitted.",
				"Th. Vougiouklis, The fundamental relation in hyperrings: The general hyperfield, Fourth Int. Congress Algebraic Hyperstructures and Appl. (AHA), 1991, pp. 203-211."
			],
			"formula": [
				"a(1)=1, a(2)=5, a(3)=13, a(n)=14 for n\u003e3.",
				"G.f.: -x*(1+4*x+8*x^2+x^3)/(-1+x). - _R. J. Mathar_, Nov 14 2007"
			],
			"mathematica": [
				"PadRight[{1,5,13},120,{14}] (* _Harvey P. Dale_, Aug 22 2019 *)"
			],
			"xref": [
				"Cf. A108089, A132590, A134201."
			],
			"keyword": "nonn",
			"offset": "1,2",
			"author": "Roman Bayon (roman.bayon(AT)gmail.com), Oct 14 2007",
			"references": 2,
			"revision": 11,
			"time": "2019-08-22T17:52:42-04:00",
			"created": "2007-11-10T03:00:00-05:00"
		}
	]
}