{
	"greeting": "Greetings from The On-Line Encyclopedia of Integer Sequences! http://oeis.org/",
	"query": "id:A134905",
	"count": 1,
	"start": 0,
	"results": [
		{
			"number": 134905,
			"data": "0,0,2,8,13,7,3,2,5,17,29,20,8,5,7,21,44,38,16,8,9,22,53,59,28,12,10,21,56,80,46,18,12,20,53,97,70,28,14,18,48,105,98,43,19,18,41,103,127,65,26,19,35,94,149,94,36,21,31,81",
			"name": "a(n) = floor(n*exp(-sin n)).",
			"link": [
				"Vincenzo Librandi, \u003ca href=\"/A134905/b134905.txt\"\u003eTable of n, a(n) for n = 1..1000\u003c/a\u003e"
			],
			"mathematica": [
				"Table[Floor[n*Exp[- Sin[n]]], {n, 70}] (* _Vincenzo Librandi_, Feb 18 2013 *)"
			],
			"program": [
				"(MAGMA) [Floor(n*Exp(-Sin(n))): n in [1..60]]; // _Vincenzo Librandi_, Feb 18 2013"
			],
			"xref": [
				"Cf. A134890; A134891; A134892; A134902; A134903; A134904."
			],
			"keyword": "nonn,easy",
			"offset": "1,3",
			"author": "_Mohammad K. Azarian_, Nov 14 2007",
			"ext": [
				"Offset corrected by _Mohammad K. Azarian_, Nov 19 2008"
			],
			"references": 9,
			"revision": 10,
			"time": "2015-08-09T01:57:25-04:00",
			"created": "2007-12-09T03:00:00-05:00"
		}
	]
}