{
	"greeting": "Greetings from The On-Line Encyclopedia of Integer Sequences! http://oeis.org/",
	"query": "id:A134866",
	"count": 1,
	"start": 0,
	"results": [
		{
			"number": 134866,
			"data": "1,1,1,1,3,1,1,1,1,1,1,3,4,3,1,1,1,1,1,1,1,3,1,7,1,3,1,1,1,4,1,1,4,1,1,1,3,1,3,6,3,1,3,1,1,1,1,1,1,1,1,1,1,1,1,3,4,7,1,12,1,7,4,3,1",
			"name": "Triangle, antidiagonals of an array formed by A051731 * A127093(transform).",
			"comment": [
				"Row sums = A094471: (1, 2, 5, 4, 12, 6,...)."
			],
			"formula": [
				"Triangle, antidiagonals of an array formed by A051731 * A127093(transform)."
			],
			"example": [
				"First few rows of the array are:",
				"1, 1, 1, 1, 1, 1, 1,...",
				"1, 3, 1, 3, 1, 3, 1,...",
				"1, 1, 4, 1, 1, 4, 1,...",
				"1, 3, 1, 7, 1, 3, 1,...",
				"1, 1, 1, 1, 6, 1, 1,...",
				"...",
				"First few rows of the triangle are:",
				"1;",
				"1, 1;",
				"1, 3, 1;",
				"1, 1, 1, 1;",
				"1, 3, 4, 3, 1;",
				"1, 1, 1, 1, 1, 1;",
				"1, 3, 1, 7, 1, 3, 1;",
				"1, 1, 4, 1, 1, 4, 1, 1;",
				"1, 3, 1, 3, 6, 3, 1, 3, 1;",
				"..."
			],
			"xref": [
				"Cf. A051731, A127093, A094471."
			],
			"keyword": "nonn,tabl",
			"offset": "1,5",
			"author": "_Gary W. Adamson_, Nov 14 2007",
			"references": 1,
			"revision": 3,
			"time": "2012-03-30T17:25:26-04:00",
			"created": "2007-12-09T03:00:00-05:00"
		}
	]
}