{
	"greeting": "Greetings from The On-Line Encyclopedia of Integer Sequences! http://oeis.org/",
	"query": "id:A134499",
	"count": 1,
	"start": 0,
	"results": [
		{
			"number": 134499,
			"data": "1,21,610,17711,514229,14930352,433494437,12586269025,365435296162,10610209857723,308061521170129,8944394323791464,259695496911122585,7540113804746346429,218922995834555169026,6356306993006846248183",
			"name": "a(n) = Fibonacci(7*n+1).",
			"link": [
				"\u003ca href=\"/index/Rec\"\u003eIndex entries for linear recurrences with constant coefficients\u003c/a\u003e, signature (29,1)."
			],
			"formula": [
				"G.f. ( -1+8*x ) / ( -1+29*x+x^2 ). - _R. J. Mathar_, Apr 17 2011",
				"2*a(n) = Fibonacci(7*n) + Lucas(7*n). - _Bruno Berselli_, Oct 13 2017"
			],
			"mathematica": [
				"Table[Fibonacci[7 n + 1], {n, 0, 30}]"
			],
			"program": [
				"(MAGMA) [Fibonacci(7*n+1): n in [0..100]]; // _Vincenzo Librandi_, Apr 16 2011",
				"(PARI) a(n)=fibonacci(7*n+1) \\\\ _Charles R Greathouse IV_, Jun 11 2015"
			],
			"xref": [
				"Cf. A000032, A000045, A134498, A134500, A134501, A134502, A134503, A134504."
			],
			"keyword": "nonn,easy",
			"offset": "0,2",
			"author": "_Artur Jasinski_, Oct 28 2007",
			"ext": [
				"Offset corrected by _Vincenzo Librandi_, Apr 16 2011"
			],
			"references": 5,
			"revision": 18,
			"time": "2017-10-15T07:58:37-04:00",
			"created": "2007-11-10T03:00:00-05:00"
		}
	]
}