{
	"greeting": "Greetings from The On-Line Encyclopedia of Integer Sequences! http://oeis.org/",
	"query": "id:A134656",
	"count": 1,
	"start": 0,
	"results": [
		{
			"number": 134656,
			"data": "2,10453,129341,157519,555097",
			"name": "Corresponding GCD values in A116894.",
			"formula": [
				"a(n) = gcd(A116894(n)! + 1, A116894(n)^A116894(n) + 1)"
			],
			"program": [
				"(PARI) for(n = 1, 10^9, x = gcd(n! + 1, n^n + 1); if(x != 1 \u0026\u0026 x != 2*n + 1, print1(x, \", \")))"
			],
			"xref": [
				"Cf. A116894."
			],
			"keyword": "hard,more,nonn",
			"offset": "1,1",
			"author": "_Ryan Propper_, Feb 01 2008",
			"references": 0,
			"revision": 2,
			"time": "2013-09-24T09:21:41-04:00",
			"created": "2008-06-29T03:00:00-04:00"
		}
	]
}