{
	"greeting": "Greetings from The On-Line Encyclopedia of Integer Sequences! http://oeis.org/",
	"query": "id:A134904",
	"count": 1,
	"start": 0,
	"results": [
		{
			"number": 134904,
			"data": "1,1,3,9,14,8,4,3,6,18,30,21,9,6,8,22,45,39,17,9,10,23,54,60,29,13,11,22,57,81,47,19,13,21,54,98,71,29,15,19,49,106,99,44,20,19,42,104,128,66,27,20,36,95,150,95,37,22,32",
			"name": "Ceiling(n*exp(-sin(n))).",
			"link": [
				"Vincenzo Librandi, \u003ca href=\"/A134904/b134904.txt\"\u003eTable of n, a(n) for n = 1..1000\u003c/a\u003e"
			],
			"mathematica": [
				"Table[Ceiling[n Exp[-Sin[n]]], {n, 60}] (* _Vincenzo Librandi_, Feb 18 2013 *)"
			],
			"program": [
				"(MAGMA) [Ceiling(n*Exp(-Sin(n))): n in [1..60]]; // _Vincenzo Librandi_, Feb 18 2013"
			],
			"xref": [
				"Cf. A134890, A134891, A134892, A134902, A134903."
			],
			"keyword": "nonn,easy",
			"offset": "1,3",
			"author": "_Mohammad K. Azarian_, Nov 14 2007",
			"references": 10,
			"revision": 9,
			"time": "2013-06-22T16:06:04-04:00",
			"created": "2007-12-09T03:00:00-05:00"
		}
	]
}