{
	"greeting": "Greetings from The On-Line Encyclopedia of Integer Sequences! http://oeis.org/",
	"query": "id:A134117",
	"count": 1,
	"start": 0,
	"results": [
		{
			"number": 134117,
			"data": "9551,12853,14107,15823,18803,22193,22307,22817,24281,27143,28351,29881,32261,40387,42863,45083,45197,46771,46957,47981,50461,57601,60041,60457,62423,65993,66301,68171,69073,69557,71597,72577,72823,73783",
			"name": "Primes p such that q-p = 36, where q is the next prime after p.",
			"link": [
				"Charles R Greathouse IV, \u003ca href=\"/A134117/b134117.txt\"\u003eTable of n, a(n) for n = 1..10000\u003c/a\u003e",
				"\u003ca href=\"/index/Pri#gaps\"\u003eIndex entries for primes, gaps between\u003c/a\u003e"
			],
			"formula": [
				"a(n) \u003e\u003e n log^2 n. - _Charles R Greathouse IV_, Sep 14 2015"
			],
			"mathematica": [
				"Select[Partition[Prime[Range[10000]],2,1],#[[2]]-#[[1]]==36\u0026][[All,1]] (* _Harvey P. Dale_, Aug 27 2019 *)"
			],
			"program": [
				"(PARI) is(n)=nextprime(n+1)==n+36 \u0026\u0026 isprime(n) \\\\ _Charles R Greathouse IV_, Sep 14 2015"
			],
			"xref": [
				"Cf. A134116, A134118."
			],
			"keyword": "nonn",
			"offset": "1,1",
			"author": "_Rick L. Shepherd_, Oct 08 2007",
			"references": 7,
			"revision": 14,
			"time": "2019-08-27T13:42:58-04:00",
			"created": "2007-11-10T03:00:00-05:00"
		}
	]
}