{
	"greeting": "Greetings from The On-Line Encyclopedia of Integer Sequences! http://oeis.org/",
	"query": "id:A134381",
	"count": 1,
	"start": 0,
	"results": [
		{
			"number": 134381,
			"data": "1,2,5,15,52,205,921,4766,28685,201159,1630840,15071725,156331161,1794763970,22548418541,307236496071,4507944378004,70813851019717,1185225078743601,21049903662123422,395303080572770549,7825181077750155999,162835332607069248760",
			"name": "Row sums of triangle A134380.",
			"link": [
				"Vaclav Kotesovec, \u003ca href=\"/A134381/b134381.txt\"\u003eTable of n, a(n) for n = 0..150\u003c/a\u003e"
			],
			"formula": [
				"Binomial transform of A051295.",
				"G.f.: (1 + x/((1-x)*S(0) -x))/(1-x), where S(k)= 1 - (k+1)*x/(1 - x - (k+1)*x/S(k+1)); (continued fraction). - _Sergei N. Gladkovskii_, Feb 05 2015",
				"a(n) ~ exp(1) * (n-1)!. - _Vaclav Kotesovec_, Feb 06 2015"
			],
			"example": [
				"a(3) = 15 = (1, 3, 3, 1) dot (1, 1, 2, 5) = (1, + 3 + 6 + 5), where A051295 = 1, 1, 2, 5, 15, 54, 235,...)"
			],
			"mathematica": [
				"max = 20; Clear[g]; g[max + 2] = 1; g[k_] := g[k] = 1 - (k+1)*x/(1 - x - (k+1)*x/g[k+1]; gf = (1 + x/((1-x)*g[0] -x))/(1-x); CoefficientList[Series[gf, {x, 0, max}], x] (* _Vaclav Kotesovec_, Feb 06 2015, after _Sergei N. Gladkovskii_ *)"
			],
			"xref": [
				"Cf. A134380, A051295."
			],
			"keyword": "nonn",
			"offset": "0,2",
			"author": "_Gary W. Adamson_, Oct 22 2007",
			"ext": [
				"More terms from _Vaclav Kotesovec_, Feb 06 2015"
			],
			"references": 2,
			"revision": 12,
			"time": "2015-02-06T14:26:10-05:00",
			"created": "2007-11-10T03:00:00-05:00"
		}
	]
}