{
	"greeting": "Greetings from The On-Line Encyclopedia of Integer Sequences! http://oeis.org/",
	"query": "id:A134120",
	"count": 1,
	"start": 0,
	"results": [
		{
			"number": 134120,
			"data": "16141,34981,38501,39251,45439,52391,58789,61169,68821,75437,78737,78989,81239,81569,82657,84871,88547,96601,97729,104417,105277,108301,116047,116747,117991,119447,120431,121081,122401,125821,126781,126989",
			"name": "Primes p such that q-p = 42, where q is the next prime after p.",
			"link": [
				"Charles R Greathouse IV, \u003ca href=\"/A134120/b134120.txt\"\u003eTable of n, a(n) for n = 1..10000\u003c/a\u003e",
				"\u003ca href=\"/index/Pri#gaps\"\u003eIndex entries for primes, gaps between\u003c/a\u003e"
			],
			"mathematica": [
				"Select[Partition[Prime[Range[12000]],2,1],#[[2]]-#[[1]]==42\u0026][[All,1]] (* _Harvey P. Dale_, Aug 24 2019 *)"
			],
			"xref": [
				"Cf. A126721, A134121."
			],
			"keyword": "nonn",
			"offset": "1,1",
			"author": "_Rick L. Shepherd_, Oct 08 2007",
			"references": 6,
			"revision": 12,
			"time": "2019-08-24T14:24:44-04:00",
			"created": "2007-11-10T03:00:00-05:00"
		}
	]
}