{
	"greeting": "Greetings from The On-Line Encyclopedia of Integer Sequences! http://oeis.org/",
	"query": "id:A134404",
	"count": 1,
	"start": 0,
	"results": [
		{
			"number": 134404,
			"data": "0,0,1,0,0,1,1,1,0,0,1,1,2,1,1,0,0,1,1,2,3,2,1,1,0,0,1,1,2,3,5,3,2,1,1,0,0,1,1,2,3,5,8,5,3,2,1,1,0,0,1,1,2,3,5,8,13,8,5,3,2,1,1,0,0,1,1,2,3,5,8,13,21,13,8,5,3,2,1,1,0,0,1,1,2,3,5,8,13,21,34,21,13,8,5",
			"name": "Triangle read by rows in which row n contains Fib(0), ..., Fib(n-1), Fib(n), Fib(n-1), ..., Fib(0).",
			"example": [
				"Triangle begins:",
				"0",
				"0 1 0",
				"0 1 1 1 0",
				"0 1 1 2 1 1 0",
				"0 1 1 2 3 2 1 1 0",
				"0 1 1 2 3 5 3 2 1 1 0",
				"0 1 1 2 3 5 8 5 3 2 1 1 0",
				"0 1 1 2 3 5 8 13 8 5 3 2 1 1 0",
				"0 1 1 2 3 5 8 13 21 13 8 5 3 2 1 1 0",
				"0 1 1 2 3 5 8 13 21 34 21 13 8 5 3 2 1 1 0",
				"0 1 1 2 3 5 8 13 21 34 55 34 21 13 8 5 3 2 1 1 0",
				"0 1 1 2 3 5 8 13 21 34 55 89 55 34 21 13 8 5 3 2 1 1 0"
			],
			"xref": [
				"Cf. A094102."
			],
			"keyword": "nonn,tabf",
			"offset": "0,13",
			"author": "_N. J. A. Sloane_, Apr 07 2008",
			"references": 1,
			"revision": 4,
			"time": "2012-03-30T16:50:46-04:00",
			"created": "2007-11-10T03:00:00-05:00"
		}
	]
}