{
	"greeting": "Greetings from The On-Line Encyclopedia of Integer Sequences! http://oeis.org/",
	"query": "id:A134794",
	"count": 1,
	"start": 0,
	"results": [
		{
			"number": 134794,
			"data": "4,68,91012,14151618,2021222425,262728303233,34353638394042,4445464849505152,545556575860626364,65666869707274757677,7880818284858687889091",
			"name": "Concatenation of next n composite numbers.",
			"link": [
				"Harvey P. Dale, \u003ca href=\"/A134794/b134794.txt\"\u003eTable of n, a(n) for n = 1..200\u003c/a\u003e"
			],
			"mathematica": [
				"cc[x_]:=FromDigits[Flatten[IntegerDigits/@x]]; Module[{nn= 100,cmps,tr,len},cmps = Select[Range[nn],CompositeQ];len=Length[cmps];tr = Floor[ (Sqrt[1+8 len]-1)/2];cc/@TakeList[cmps,Range[tr]]] (* _Harvey P. Dale_, Sep 26 2021 *)"
			],
			"xref": [
				"Cf. A053067, A133013. Composite numbers: A002808."
			],
			"keyword": "base,easy,nonn",
			"offset": "1,1",
			"author": "_Omar E. Pol_, Nov 26 2007",
			"references": 1,
			"revision": 7,
			"time": "2021-09-26T16:50:42-04:00",
			"created": "2007-12-09T03:00:00-05:00"
		}
	]
}