{
	"greeting": "Greetings from The On-Line Encyclopedia of Integer Sequences! http://oeis.org/",
	"query": "id:A134981",
	"count": 1,
	"start": 0,
	"results": [
		{
			"number": 134981,
			"data": "1,0,2,10,135,2288,53795,1625958,61408620,2823039912,154822101975,9964508664900,742498325393077,63327680888719284,6122351446047588778,665295048647712247030,80666327472879792796515,10842875860595742916865856,1606496634499026283898516527",
			"name": "a(n) = A000110(n)*A000166(n).",
			"formula": [
				"E.g.f.: A(x) = Sum_{n\u003e=0} exp(-1-n*x)/(n!*(1-n*x))."
			],
			"xref": [
				"Cf. A064312."
			],
			"keyword": "easy,nonn",
			"offset": "0,3",
			"author": "_Vladeta Jovovic_, Feb 04 2008",
			"ext": [
				"More terms from _Olaf Voß_, Feb 10 2008"
			],
			"references": 0,
			"revision": 4,
			"time": "2013-10-12T15:18:07-04:00",
			"created": "2008-06-29T03:00:00-04:00"
		}
	]
}