{
	"greeting": "Greetings from The On-Line Encyclopedia of Integer Sequences! http://oeis.org/",
	"query": "id:A134373",
	"count": 1,
	"start": 0,
	"results": [
		{
			"number": 134373,
			"data": "1,8,13824,373248000,65548320768000,47784725839872000000,109903340320478724096000000,662559760549147780765974528000000,9159226129831418921308831875072000000000",
			"name": "a(n) = ((2n)!)^3.",
			"link": [
				"Christian Elsholtz, \u003ca href=\"https://arxiv.org/abs/1604.06903\"\u003eGolomb’s Conjecture on Prime Gaps\u003c/a\u003e, arXiv:1604.06903 [math.NT], 2016.",
				"Christian Elsholtz, \u003ca href=\"http://www.jstor.org/stable/10.4169/amer.math.monthly.124.4.365\"\u003eGolomb’s Conjecture on Prime Gaps\u003c/a\u003e, The American Mathematical Monthly 124.4 (2017): 365-368."
			],
			"mathematica": [
				"Table[((2n)!)^(3), {n, 0, 10}]",
				"((2*Range[0, 10])!)^3 (* _Harvey P. Dale_, Jul 25 2016 *)"
			],
			"xref": [
				"Cf. A000142, A001044, A000442, A036740, A010050, A134366, A134367, A134368, A134369, A134371, A134373, A134374, A134375."
			],
			"keyword": "nonn",
			"offset": "0,2",
			"author": "_Artur Jasinski_, Oct 22 2007",
			"ext": [
				"Definition corrected by _Harvey P. Dale_, Jul 25 2016"
			],
			"references": 4,
			"revision": 9,
			"time": "2017-10-03T05:43:01-04:00",
			"created": "2007-11-10T03:00:00-05:00"
		}
	]
}