{
	"greeting": "Greetings from The On-Line Encyclopedia of Integer Sequences! http://oeis.org/",
	"query": "id:A134502",
	"count": 1,
	"start": 0,
	"results": [
		{
			"number": 134502,
			"data": "3,89,2584,75025,2178309,63245986,1836311903,53316291173,1548008755920,44945570212853,1304969544928657,37889062373143906,1100087778366101931,31940434634990099905,927372692193078999176,26925748508234281076009",
			"name": "a(n) = Fibonacci(7n + 4).",
			"link": [
				"\u003ca href=\"/index/Rec\"\u003eIndex entries for linear recurrences with constant coefficients\u003c/a\u003e, signature (29,1)"
			],
			"formula": [
				"From _R. J. Mathar_, Jul 04 2011: (Start)",
				"G.f.: (-3-2*x) / (-1 + 29*x + x^2).",
				"a(n) = 2*A049667(n) + 3*A049667(n+1). (End)",
				"a(n) = A000045(A017029(n)). - _Michel Marcus_, Nov 07 2013"
			],
			"mathematica": [
				"Table[Fibonacci[7n+4], {n, 0, 30}]"
			],
			"program": [
				"(MAGMA) [Fibonacci(7*n +4): n in [0..100]]; // _Vincenzo Librandi_, Apr 17 2011",
				"(PARI) a(n)=fibonacci(7*n+4) \\\\ _Charles R Greathouse IV_, Jun 11 2015"
			],
			"xref": [
				"Cf. A000045, A001906, A001519, A033887, A015448, A014445, A033888, A033889, A033890, A033891, A102312, A099100, A134490-A134495, A103134, A134497 - A134504."
			],
			"keyword": "nonn,easy",
			"offset": "1,1",
			"author": "_Artur Jasinski_, Oct 28 2007",
			"ext": [
				"Offset changed from 1 to 0 by _Vincenzo Librandi_, Apr 17 2011"
			],
			"references": 6,
			"revision": 19,
			"time": "2018-09-01T15:31:37-04:00",
			"created": "2007-11-10T03:00:00-05:00"
		}
	]
}