{
	"greeting": "Greetings from The On-Line Encyclopedia of Integer Sequences! http://oeis.org/",
	"query": "id:A134220",
	"count": 1,
	"start": 0,
	"results": [
		{
			"number": 134220,
			"data": "2,3,4,5,10,16,18,19,22,25,26,27,30,31,33,35,38,40,41,43,48,49,50,52,54,55,56,71,72,76,79,81,82,91,92,94,97,98,99,105,106,107,112,117,119,120,122,125,126,127,131,132,134,136,138,142,143,144,150,151,152,154,156",
			"name": "Values n for which integer solutions of Mordell curve y^2=x^3+n have a single value of x (or equivalently of nonnegative y).",
			"comment": [
				"Union of A179145 and A179146."
			],
			"formula": [
				"Numbers n such that A134108(n) = Floor((A081119(n)+1)/2) = 1."
			],
			"xref": [
				"Cf. A134108, A134221, A134222, A134223."
			],
			"keyword": "nonn",
			"offset": "1,1",
			"author": "_Artur Jasinski_, Oct 14 2007, Oct 16 2007",
			"ext": [
				"Edited and extended by _Ray Chandler_, Jul 12 2010"
			],
			"references": 3,
			"revision": 4,
			"time": "2012-03-31T10:22:05-04:00",
			"created": "2007-11-10T03:00:00-05:00"
		}
	]
}