{
	"greeting": "Greetings from The On-Line Encyclopedia of Integer Sequences! http://oeis.org/",
	"query": "id:A134369",
	"count": 1,
	"start": 0,
	"results": [
		{
			"number": 134369,
			"data": "1,36,1728000,645241282560000,6292383221978976013516800000,4045146997974190235742848547815424000000000000,363046466970952735968096996065196818096105852014637875200000000000000",
			"name": "a(n) = ((2n+1)!)^(n+1).",
			"formula": [
				"a(n) ~ 2^(2*(n+1)^2) * exp(13/24 - 2*n*(n+1)) * n^((n+1)*(4*n+3)/2) * Pi^((n+1)/2). - _Vaclav Kotesovec_, Oct 26 2017"
			],
			"mathematica": [
				"Table[((2n+1)!)^(n + 1), {n, 0, 10}]"
			],
			"xref": [
				"Cf. A000142, A001044, A000442, A036740, A134366, A134367, A134368, A134370, A134371, A134374, A134375."
			],
			"keyword": "nonn",
			"offset": "0,2",
			"author": "_Artur Jasinski_, Oct 22 2007",
			"references": 10,
			"revision": 6,
			"time": "2017-10-26T15:53:46-04:00",
			"created": "2007-11-10T03:00:00-05:00"
		}
	]
}