{
	"greeting": "Greetings from The On-Line Encyclopedia of Integer Sequences! http://oeis.org/",
	"query": "id:A134076",
	"count": 1,
	"start": 0,
	"results": [
		{
			"number": 134076,
			"data": "17,31,41,61,73,103,277,281,349,421,521,593,661,997,1069,1321,1367,1439,1499,1571,1669,2357,2399,2411,2887,3019,3119,3457,3467,3917,4049,4091,4211,4241,4297,4337,4441,4691,4721,5077,5231,5261,5393,5591,5813,6101",
			"name": "Primes p mentioned in A134075.",
			"xref": [
				"Cf. A134075."
			],
			"keyword": "easy,nonn",
			"offset": "1,1",
			"author": "_Enoch Haga_, Oct 06 2007",
			"ext": [
				"Edited and corrected by _N. J. A. Sloane_, Oct 21, 2007"
			],
			"references": 1,
			"revision": 4,
			"time": "2012-03-31T10:32:41-04:00",
			"created": "2007-11-10T03:00:00-05:00"
		}
	]
}