{
	"greeting": "Greetings from The On-Line Encyclopedia of Integer Sequences! http://oeis.org/",
	"query": "id:A134121",
	"count": 1,
	"start": 0,
	"results": [
		{
			"number": 134121,
			"data": "15683,36389,37907,76163,92507,108587,109673,124853,138683,138977,140009,140477,183203,186959,203669,225383,226697,229037,232259,242819,242927,244043,245339,271289,273653,275837,279353,280139,282617,285377",
			"name": "Primes p such that q-p = 44, where q is the next prime after p.",
			"link": [
				"Charles R Greathouse IV, \u003ca href=\"/A134121/b134121.txt\"\u003eTable of n, a(n) for n = 1..10000\u003c/a\u003e",
				"\u003ca href=\"/index/Pri#gaps\"\u003eIndex entries for primes, gaps between\u003c/a\u003e"
			],
			"program": [
				"(PARI) is(n)=nextprime(n+1)==n+44 \u0026\u0026 isprime(n) \\\\ _Charles R Greathouse IV_, Sep 14 2015"
			],
			"xref": [
				"Cf. A134120, A134122."
			],
			"keyword": "nonn",
			"offset": "1,1",
			"author": "_Rick L. Shepherd_, Oct 08 2007",
			"references": 6,
			"revision": 12,
			"time": "2015-09-14T15:52:01-04:00",
			"created": "2007-11-10T03:00:00-05:00"
		}
	]
}