{
	"greeting": "Greetings from The On-Line Encyclopedia of Integer Sequences! http://oeis.org/",
	"query": "id:A135978",
	"count": 1,
	"start": 0,
	"results": [
		{
			"number": 135978,
			"data": "11,23,37,41,59,67,83,97,101,103,109,131,137,139,149,167,197,199,227,241,269,271,281,293,347,373,379,421,457,487,523,727,809,881,971,983,997,1061,1063",
			"name": "Primes p such that 2^p-1 has exactly 2 prime factors.",
			"comment": [
				"a(40)\u003e=1277. - _Amiram Eldar_, Sep 29 2018"
			],
			"mathematica": [
				"k = {}; Do[If[ ! PrimeQ[2^Prime[n] - 1], c = FactorInteger[2^Prime[n] - 1]; d = Length[c]; If[d == 2, AppendTo[k, Prime[n]]]], {n, 1, 40}]; k"
			],
			"xref": [
				"Cf. A000225, A065341, A054723, A134852, A135975, A135976, A135977."
			],
			"keyword": "nonn,more",
			"offset": "1,1",
			"author": "_Artur Jasinski_, Dec 09 2007",
			"ext": [
				"a(17)-a(37) from _Arkadiusz Wesolowski_, Jan 26 2012",
				"a(38)-a(39) from _Amiram Eldar_, Sep 29 2018"
			],
			"references": 6,
			"revision": 11,
			"time": "2018-09-29T09:48:12-04:00",
			"created": "2008-06-29T03:00:00-04:00"
		}
	]
}