{
	"greeting": "Greetings from The On-Line Encyclopedia of Integer Sequences! http://oeis.org/",
	"query": "id:A135048",
	"count": 1,
	"start": 0,
	"results": [
		{
			"number": 135048,
			"data": "2,6,11,30,32,64,1346,1349,1367,10715,12253,26886,733412,733420,733533,734596,6363182,6363183,6363289,7437658,503193257,503193259,503279746,504057767,1346029458",
			"name": "Indices of primes with digit product=3.",
			"comment": [
				"The corresponding primes are in A107689."
			],
			"formula": [
				"a(n)=primepi(A107689(n))."
			],
			"xref": [
				"Cf. A107611, A107612, A107689."
			],
			"keyword": "nonn,base",
			"offset": "1,1",
			"author": "_Zak Seidov_, Feb 11 2008",
			"references": 0,
			"revision": 2,
			"time": "2012-03-30T17:26:24-04:00",
			"created": "2008-06-29T03:00:00-04:00"
		}
	]
}