{
	"greeting": "Greetings from The On-Line Encyclopedia of Integer Sequences! http://oeis.org/",
	"query": "id:A135215",
	"count": 1,
	"start": 0,
	"results": [
		{
			"number": 135215,
			"data": "0,1,3,4,6,7,10,10,12,13,15",
			"name": "Maximal number of zero digits in square of number with n digits and without zero digits.",
			"mathematica": [
				"(*For a(7) *) mx = 0; Do[Do[Do[Do[Do[Do[Do[k = 10^6b + 10^5q + 10^4r + 10^3p + 10^2s + 10n + m; w = IntegerDigits[k^2]; ile = 0; Do[If[w[[t]] == 0, ile = ile + 1; If[ile \u003e mx, mx = ile]], {t, 1, Length[w]}], {m, 1, 9}], {n, 1, 9}], {s, 1, 9}], {p, 1, 9}], {r, 1, 9}], {q, 1, 9}], {b, 1, 9}]; mx"
			],
			"xref": [
				"Cf. A134843, A134844, A134845, A134846, A134847, A134848, A134849."
			],
			"keyword": "nonn,base",
			"offset": "1,3",
			"author": "_Artur Jasinski_, Nov 23 2007",
			"ext": [
				"a(8)-a(11) from _Lars Blomberg_, Jun 26 2011"
			],
			"references": 5,
			"revision": 5,
			"time": "2012-03-31T10:28:28-04:00",
			"created": "2007-12-09T03:00:00-05:00"
		}
	]
}