{
	"greeting": "Greetings from The On-Line Encyclopedia of Integer Sequences! http://oeis.org/",
	"query": "id:A135084",
	"count": 1,
	"start": 0,
	"results": [
		{
			"number": 135084,
			"data": "1,5,877,1382958545,10293358946226376485095653,8250771700405624889912456724304738028450190134337110943817172961",
			"name": "a(n) = A000110(2^n-1).",
			"comment": [
				"Number of set partitions of all nonempty subsets of a set, Bell(2^n-1)."
			],
			"link": [
				"Amiram Eldar, \u003ca href=\"/A135084/b135084.txt\"\u003eTable of n, a(n) for n = 1..9\u003c/a\u003e"
			],
			"formula": [
				"a(n) = Sum_{k=1..2^n-1} Stirling2(2^n-1,k) = Bell(2^n-1), where Stirling2(n, k) is the Stirling number of the second kind and Bell(n) is the Bell number."
			],
			"example": [
				"Let S={1,2,3,...,n} be a set of n elements and let",
				"SU be the set of all nonempty subsets of S. The number of elements of SU is |SU| = 2^n-1. Now form all possible set partitions from SU where the empty set is excluded. This gives a set W and its number of elements is |W| = Sum_{k=1..2^n-1} Stirling2(2^n-1,k).",
				"For S={1,2} we have SU = { {1}, {2}, {1,2} } and W =",
				"{",
				"{{1}, {2}, {1, 2}},",
				"{{1, 2}, {{1}, {2}}},",
				"{{2}, {{1}, {1, 2}}},",
				"{{1}, {{2}, {1, 2}}},",
				"{{{1}, {2}, {1, 2}}}",
				"}",
				"and |W| = 5."
			],
			"maple": [
				"ZahlDerMengenAusMengeDerZerlegungenEinerMenge:=proc() local n,nend,arg,k,w; nend:=5; for n from 1 to nend do arg:=2^n-1; w[n]:=sum((stirling2(arg,k)), k=1..arg); od; print(w[1],w[2],w[3],w[4],w[5],w[6],w[7],w[8],w[9],w[10]); end proc;"
			],
			"mathematica": [
				"BellB[2^Range[6]-1] (* _Harvey P. Dale_, Jul 22 2012 *)"
			],
			"xref": [
				"Cf. A000079, A000110, A008277, A077585, A135085."
			],
			"keyword": "nonn",
			"offset": "1,2",
			"author": "_Thomas Wieder_, Nov 18 2007",
			"references": 3,
			"revision": 13,
			"time": "2019-11-23T04:11:32-05:00",
			"created": "2007-12-09T03:00:00-05:00"
		}
	]
}