{
	"greeting": "Greetings from The On-Line Encyclopedia of Integer Sequences! http://oeis.org/",
	"query": "id:A135665",
	"count": 1,
	"start": 0,
	"results": [
		{
			"number": 135665,
			"data": "0,0,0,0,0,1,1,1,1,1,1,1,1,2,2,2,2,2,2,2,2,2,2,3,3,3,3,3,3,3,3,3,3,3,3,3,4,4,4,4,4,4,4,4,4,4,4,4,4,4,4,5,5,5,5,5,5,5,5,5,5,5,5,5,5,5,5,5,5,6,6,6,6,6,6,6,6,6",
			"name": "a(n) = floor(sqrt(n) - n^(1/5)).",
			"link": [
				"Vincenzo Librandi, \u003ca href=\"/A135665/b135665.txt\"\u003eTable of n, a(n) for n = 1..1000\u003c/a\u003e"
			],
			"mathematica": [
				"Table[Floor[n^(1/2) - n^(1/5)], {n, 100}] (* _Vincenzo Librandi_, Feb 18 2013 *)"
			],
			"program": [
				"(MAGMA) [Floor(n^(1/2)-n^(1/5)): n in [1..100]]; // _Vincenzo Librandi_, Feb 18 2013"
			],
			"xref": [
				"Cf. A000196, A048766, A134914, A135660, A135661, A135662, A135663, A135664."
			],
			"keyword": "nonn,easy",
			"offset": "1,14",
			"author": "_Mohammad K. Azarian_, Nov 25 2007",
			"ext": [
				"Offset corrected by _Mohammad K. Azarian_, Nov 19 2008"
			],
			"references": 11,
			"revision": 14,
			"time": "2015-08-09T02:14:40-04:00",
			"created": "2007-12-09T03:00:00-05:00"
		}
	]
}