{
	"greeting": "Greetings from The On-Line Encyclopedia of Integer Sequences! http://oeis.org/",
	"query": "id:A135585",
	"count": 1,
	"start": 0,
	"results": [
		{
			"number": 135585,
			"data": "0,0,0,0,0,0,0,1,1,1,1,2,2,3,4,5,5,5,5,6,6,7,8,9,9,10,11,12,13,14,15,16,16,16,16,17,17,18,19,20,20,21,22,23,24,25,26,27,27,28,29,30,31,32,33,34,35,36,37,38,39,40,41,41,41,41,41,42",
			"name": "a(n) = Sum_{i=1..n} (floor(S2(i)/3) mod 2), where S2(i) = A000120(i).",
			"comment": [
				"Sequence A115384 is a(n) = Sum_{i=1..n} (floor(S2(n)*1/1) mod 2) = Sum_{i=1..n} (S2(n) mod 2)."
			],
			"link": [
				"G. C. Greubel, \u003ca href=\"/A135585/b135585.txt\"\u003eTable of n, a(n) for n = 0..1000\u003c/a\u003e"
			],
			"maple": [
				"A000120 := proc(n) local i ; add(i,i=convert(n,base,2)) : end: A135585 := proc(n) add(floor(A000120(i)/3) mod 2,i=1..n) ; end: seq(A135585(n),n=0..80) ; # _R. J. Mathar_, Apr 22 2008"
			],
			"mathematica": [
				"f[n_] := n - Sum[Floor[n/2^k], {k, 1, Infinity}]; Table[Sum[Mod[Floor[f[i]/3], 2], {i,1,n}], {n,0,25}] (* _G. C. Greubel_, Oct 20 2016 *)"
			],
			"program": [
				"(PARI) a(n) = sum(i=1, n, hammingweight(i)\\3 % 2); \\\\ _Michel Marcus_, Sep 19 2015"
			],
			"xref": [
				"Cf. A115384, A010060."
			],
			"keyword": "easy,nonn,base",
			"offset": "0,12",
			"author": "_Ctibor O. Zizka_, Feb 25 2008",
			"ext": [
				"Definition corrected by _R. J. Mathar_, Apr 22 2008"
			],
			"references": 2,
			"revision": 19,
			"time": "2016-10-20T12:55:07-04:00",
			"created": "2008-06-29T03:00:00-04:00"
		}
	]
}