{
	"greeting": "Greetings from The On-Line Encyclopedia of Integer Sequences! http://oeis.org/",
	"query": "id:A135409",
	"count": 1,
	"start": 0,
	"results": [
		{
			"number": 135409,
			"data": "0,244,939,38842,399158,3185054,8997888,89003533,380705305,0,120958456566,909738914355,10691161155707,215413743487843,1146359095715014,11741086634604569,186260344930883645,586697640742217928,22434377949474656108,86030233471862779595",
			"name": "Sum of all n-digit Keith numbers.",
			"comment": [
				"There are no 1-digit and 10-digit Keith numbers."
			],
			"link": [
				"_Jason Earls_ and Eric Weisstein's World of Mathematics, \u003ca href=\"http://mathworld.wolfram.com/KeithNumber.html\"\u003eKeith Number\u003c/a\u003e."
			],
			"example": [
				"Sum of all 2-digit Keith numbers is 244.",
				"Sum of all 3-digit Keith numbers is 939.",
				"Sum of all 4-digit Keith numbers is 38842."
			],
			"xref": [
				"Cf. A007629."
			],
			"keyword": "nonn,base",
			"offset": "1,2",
			"author": "_Parthasarathy Nambi_, Dec 10 2007",
			"ext": [
				"Extended by _T. D. Noe_, Mar 15 2011"
			],
			"references": 0,
			"revision": 8,
			"time": "2017-12-15T17:44:31-05:00",
			"created": "2008-06-29T03:00:00-04:00"
		}
	]
}