{
	"greeting": "Greetings from The On-Line Encyclopedia of Integer Sequences! http://oeis.org/",
	"query": "id:A135553",
	"count": 1,
	"start": 0,
	"results": [
		{
			"number": 135553,
			"data": "1,3,5,7,9,15,21,25,35,45,49,63,75,105,147,175,225,245,315,441,525,735,1225,1575,2205,3675,11025",
			"name": "Divisors of 11025.",
			"link": [
				"\u003ca href=\"/index/Di#divisors\"\u003eIndex entries for sequences related to divisors of numbers\u003c/a\u003e"
			],
			"mathematica": [
				"Divisors[11025] (* _G. C. Greubel_, Oct 18 2016 *)"
			],
			"program": [
				"(PARI) divisors(11025) \\\\ _Charles R Greathouse IV_, Jun 21 2017"
			],
			"xref": [
				"Cf. A018286."
			],
			"keyword": "nonn,fini,full,easy",
			"offset": "1,2",
			"author": "Richard Spiers (richard.spiers(AT)blueyonder.co.uk), Feb 28 2008",
			"references": 1,
			"revision": 12,
			"time": "2017-06-22T00:00:16-04:00",
			"created": "2008-06-29T03:00:00-04:00"
		}
	]
}