{
	"greeting": "Greetings from The On-Line Encyclopedia of Integer Sequences! http://oeis.org/",
	"query": "id:A135689",
	"count": 1,
	"start": 0,
	"results": [
		{
			"number": 135689,
			"data": "0,1,-1,-2,1,2,2,1,-1,1,-2,-1,-2,-5,-1,-2,1,1,-1,0,2,4,1,-1,2,5,5,4,1,2,2,5,-1,-5,-1,0,1,-2,0,0,-2,0,-4,-5,-1,-3,1,-1,-2,1,-5,-3,-5,-8,-4,-7,-1,-1,-2,-1,-2,1,-5,-6,1,1,5,2,1,7,0,4,-1,-5,2,1,0,-1,0,3,2,0,0,0,4,6,5,3,1,5,3,4,-1,-5,1,3,2,-2,-1,1,5",
			"name": "a(n) = a(n-2) - (a(floor(n/2)) - a(abs(floor(n/2) - 1))) if (n mod 2 = 0), otherwise a(n-1) - (a(abs(floor(n/2) - 2)) - a(abs(floor(n/2) - 3))).",
			"link": [
				"G. C. Greubel, \u003ca href=\"/A135689/b135689.txt\"\u003eTable of n, a(n) for n = 0..1000\u003c/a\u003e"
			],
			"formula": [
				"a(n) = a(n-2) - (a(floor(n/2)) - a(abs(floor(n/2) - 1))) if (n mod 2 = 0), otherwise a(n-1) - (a(abs(floor(n/2) - 2)) - a(abs(floor(n/2) - 3)))."
			],
			"mathematica": [
				"a[n_]:= a[n] = If[n\u003c2, n, If[n\u003c4, 1-n, If[Mod[n, 2]==0, a[n-2] - (a[Floor[n/2]] - a[Abs[Floor[n/2] -1]]), a[n-1] - (a[Abs[Floor[n/2] -2]] - a[Abs[Floor[n/2] - 3]])] ]]; Table[a[n], {n, 0, 110}]"
			],
			"program": [
				"(Sage)",
				"def a(n): # A135689",
				"    if (n\u003c4): return [0, 1, -1, -2][n]",
				"    elif ((n%2)==0): return a(n-2) - (a((n//2)) - a(abs((n//2) - 1)))",
				"    else: return a(n-1) - (a(abs((n//2) - 2)) - a(abs((n//2) - 3)))",
				"[a(n) for n in (0..110)] # _G. C. Greubel_, Nov 26 2021"
			],
			"xref": [
				"Cf. A135690, A135692."
			],
			"keyword": "sign,easy,less",
			"offset": "0,4",
			"author": "_Roger L. Bagula_, Feb 19 2008",
			"ext": [
				"Edited by _N. J. A. Sloane_, Mar 03 2008"
			],
			"references": 4,
			"revision": 16,
			"time": "2021-11-28T04:05:37-05:00",
			"created": "2008-06-29T03:00:00-04:00"
		}
	]
}