{
	"greeting": "Greetings from The On-Line Encyclopedia of Integer Sequences! http://oeis.org/",
	"query": "id:A135795",
	"count": 1,
	"start": 0,
	"results": [
		{
			"number": 135795,
			"data": "1768,1796,1808,1836,1864,1892,1904,1932,1960,1988,2016,2044,2072,2112,2140,2168,2196,2208,2236,2264,2292,2304,2332,2360,2388,2416,2444,2472,2512,2540,2568,2596,2608,2636,2664,2692,2704,2732,2760,2788,2816,2844,2872,2912,2940,2968,2996,3008,3036",
			"name": "Years in which there are five Mondays in the month of February.",
			"link": [
				"\u003ca href=\"/index/Ca#calendar\"\u003eIndex entries for sequences related to calendars\u003c/a\u003e"
			],
			"mathematica": [
				"(* First do *) Needs[\"Calendar`\"] (* then *) fQ[y_] := Mod[y, 4] == 0 \u0026\u0026 Mod[y, 400]!=0 \u0026\u0026 DayOfWeek[{y, 2, 1}] == Monday; Select[Range[1750, 3051], fQ@# \u0026] (* _Robert G. Wilson v_, Jun 11 2010 *)",
				"Select[Range[1768,3036,4],LeapYearQ[{#}]\u0026\u0026 DayName[{#,2,1}]==Monday\u0026] (* _Harvey P. Dale_, Aug 01 2017 *)"
			],
			"xref": [
				"Cf. A119406, A143994, A141039, A143995, A141287."
			],
			"keyword": "nonn",
			"offset": "1,1",
			"author": "_J. Lowell_, Mar 03 2008",
			"ext": [
				"More terms from _R. J. Mathar_, Mar 29 2010",
				"Corrected by _Harvey P. Dale_, Aug 01 2017"
			],
			"references": 9,
			"revision": 19,
			"time": "2017-08-02T11:56:21-04:00",
			"created": "2008-06-29T03:00:00-04:00"
		}
	]
}