{
	"greeting": "Greetings from The On-Line Encyclopedia of Integer Sequences! http://oeis.org/",
	"query": "id:A135484",
	"count": 1,
	"start": 0,
	"results": [
		{
			"number": 135484,
			"data": "1,9,252,16636,48844761,13109538777,232643623525984,144347831699381856,8863082467484200477785,100000008863082467484200477785,192043424966613562971631041769596",
			"name": "a(n) = Sum_{i=1..n} i^prime(i), where prime(i) denotes i-th prime number.",
			"link": [
				"G. C. Greubel, \u003ca href=\"/A135484/b135484.txt\"\u003eTable of n, a(n) for n = 1..75\u003c/a\u003e"
			],
			"mathematica": [
				"f[n_] := Sum[i^Prime@i, {i, n}]; Array[f, 12] (* _Robert G. Wilson v_, Feb 12 2008 *)"
			],
			"program": [
				"(PARI) a(n) = sum(k=1, n, k^prime(k)); \\\\ _Michel Marcus_, Oct 15 2016"
			],
			"xref": [
				"Cf. A000040, A087480."
			],
			"keyword": "nonn",
			"offset": "1,2",
			"author": "_Ctibor O. Zizka_, Feb 07 2008",
			"ext": [
				"Edited and extended by _Robert G. Wilson v_, Feb 12 2008"
			],
			"references": 2,
			"revision": 10,
			"time": "2016-10-15T03:23:40-04:00",
			"created": "2008-06-29T03:00:00-04:00"
		}
	]
}