{
	"greeting": "Greetings from The On-Line Encyclopedia of Integer Sequences! http://oeis.org/",
	"query": "id:A135329",
	"count": 1,
	"start": 0,
	"results": [
		{
			"number": 135329,
			"data": "1,1,2,5,13,1,36,6,106,25,1,327,94,8,1045,342,42,1,3433,1230,189,10,11529,4411,792,63,1,39414,15840,3192,328,12,136733,57074,12569,1547,88,1,480180,206522,48787,6878,519,14,1703807,750693,187680,29427,2715,117",
			"name": "Triangle read by rows: T(n,k) is the number of Dyck paths of semilength n having k DDUU's starting at level 2.",
			"comment": [
				"Each of rows 0, 1, 2, 3 contains one entry. Row n (n \u003e= 4) contains floor(n/2) entries. Column 0 is A135335. - _Emeric Deutsch_, Dec 13 2007"
			],
			"link": [
				"A. Sapounakis, I. Tasoulas and P. Tsikouras, \u003ca href=\"http://dx.doi.org/10.1016/j.disc.2007.03.005\"\u003eCounting strings in Dyck paths\u003c/a\u003e, Discrete Math., 307 (2007), 2909-2924."
			],
			"formula": [
				"G.f.: [1+(1-t)z^2*C^2]C/[1+(1-t)(1-z)z^2*C^3], where C=[1-sqrt(1-4z)]/(2z) is the g.f. of the Catalan numbers (A000108). - _Emeric Deutsch_, Dec 13 2007"
			],
			"example": [
				"Triangle begins:",
				"1",
				"1",
				"2",
				"5",
				"13 1",
				"36 6",
				"106 25 1",
				"327 94 8",
				"1045 342 42 1",
				"3433 1230 189 10",
				"...",
				"T(5,1)=6 because we have UDUU(DDUU)DD, UU(DDUU)DDUD, UU(DDUU)DUDD, UU(DDUU)UDDD, UUDU(DDUU)DD and UUUD(DDUU)DD (the DDUU's starting at level 2 are shown between parentheses)."
			],
			"maple": [
				"G:=C*(1+(1-t)*z^2*C^2)/(1+(1-t)*(1-z)*z^2*C^3): C:=((1-sqrt(1-4*z))*1/2)/z: Gser:=simplify(series(G,z=0,20)): for n from 0 to 16 do P[n]:=sort(coeff(Gser, z,n)) end do: 1; 1; for n from 2 to 16 do seq(coeff(P[n],t,j),j=0..floor((n-2)*1/2)) end do; # yields sequence in triangular form; _Emeric Deutsch_, Dec 13 2007"
			],
			"xref": [
				"Cf. A000108, A135335."
			],
			"keyword": "nonn,tabf",
			"offset": "0,3",
			"author": "_N. J. A. Sloane_, Dec 07 2007",
			"ext": [
				"Edited and extended by _Emeric Deutsch_, Dec 13 2007"
			],
			"references": 1,
			"revision": 10,
			"time": "2017-04-01T20:31:02-04:00",
			"created": "2007-12-09T03:00:00-05:00"
		}
	]
}