{
	"greeting": "Greetings from The On-Line Encyclopedia of Integer Sequences! http://oeis.org/",
	"query": "id:A136047",
	"count": 1,
	"start": 0,
	"results": [
		{
			"number": 136047,
			"data": "1,3,12,16,41,47,96,104,185,195,316,328,497,511,736,752,1041,1059,1420,1440,1881,1903,2432,2456,3081,3107,3836,3864,4705,4735,5696,5728,6817,6851,8076,8112,9481,9519,11040,11080,12761,12803,14652,14696,16721",
			"name": "a(1)=1, a(n)=a(n-1)+n if n even, a(n)=a(n-1)+ n^2 if n is odd.",
			"comment": [
				"The only prime terms are 3, 41, 47. The semiprime terms are A136048: 185 = 5*37, 497 = 7*71, 511 = 7*73, 1041 = 3*347, 1059 = 3*353, 1903 = 11*173, 3107 = 13*239, 4705 = 5*941, 4735 = 5*947, 6817 = 17*401, 9481 = 19*499, 12761 = 7*1823, 16721 = 23*727, 33379 = 29*1151, 48961 = 11*4451, 49027 = 11*4457, 68857 = 37*1861, 80561 = 13*6197, 80639 = 13*6203, 93521 = 41*2281. Cf. A001082/A135370: a(1) = 1, then if n even/odd a(n) = n+a(n-1), if n odd/even a(n) = 2*n+a(n-1)."
			],
			"link": [
				"\u003ca href=\"/index/Rec\"\u003eIndex entries for linear recurrences with constant coefficients\u003c/a\u003e, signature (1,3,-3,-3,3,1,-1)."
			],
			"formula": [
				"a(n)=(1/12)(1 + n)(2n^2+7n-3) if n is odd, a(n)=(1/12)n(2n^2+3n+4) if n is even; a(n)=(-3 + 3*(-1)^n + 8*n + 12*n^2 - 6*(-1)^n*n^2 + 4*n^3)/24; a(1)=1 then a(n)=a(n-1)+n^(if n is even then 1 else 2), or a(n)=a(n-1)+n^(1+mod(n,2)), or a(n)=a(n-1)+n^((3-(-1)^n)/2)).",
				"a(n)=a(n-1)+3a(n-2)-3a(n-3)-3a(n-4)+3a(n-5)+a(n-6)-a(n-7). G.f.: x*(1+2*x+6*x^2-2*x^3+x^4)/((1+x)^3*(x-1)^4). [From _R. J. Mathar_, Feb 22 2009]"
			],
			"mathematica": [
				"a[1]=1;a[n_]:=a[n]=a[n-1]+n^(1+Mod[n,2]);Table[a[n],{n,100}]",
				"nxt[{n_,a_}]:={n+1,If[OddQ[n],a+n+1,a+(n+1)^2]}; Transpose[NestList[nxt,{1,1},50]][[2]] (* _Harvey P. Dale_, Oct 11 2015 *)"
			],
			"xref": [
				"Cf. A001082, A135370, A136048."
			],
			"keyword": "nonn,easy",
			"offset": "1,2",
			"author": "_Zak Seidov_, Dec 12 2007",
			"references": 31,
			"revision": 14,
			"time": "2015-10-11T10:31:27-04:00",
			"created": "2008-06-29T03:00:00-04:00"
		}
	]
}