{
	"greeting": "Greetings from The On-Line Encyclopedia of Integer Sequences! http://oeis.org/",
	"query": "id:A136253",
	"count": 1,
	"start": 0,
	"results": [
		{
			"number": 136253,
			"data": "1,2,4,12,24,720,5040",
			"name": "Highly composite numbers which are divisible by all smaller highly composite numbers.",
			"comment": [
				"Subsequence of A181806. [_Matthew Vandermast_, May 20 2012]"
			],
			"xref": [
				"Cf. A002182, A106037."
			],
			"keyword": "fini,full,nonn",
			"offset": "1,2",
			"author": "_J. Lowell_, Mar 17 2008",
			"references": 2,
			"revision": 8,
			"time": "2012-05-20T13:03:48-04:00",
			"created": "2008-06-29T03:00:00-04:00"
		}
	]
}