{
	"greeting": "Greetings from The On-Line Encyclopedia of Integer Sequences! http://oeis.org/",
	"query": "id:A136049",
	"count": 1,
	"start": 0,
	"results": [
		{
			"number": 136049,
			"data": "2,1,1,1,1,0,2,0,2,0,2,1,2,2,1,1,1,1,1,2,0,1,2,2,1,0,1,3,1,0,3,2,1,1,4,0,3,1,2,3,1,2,2,2,5,1,3,1,1,1,4,2,1,1,2,3,4,4,2,2,2,4,4,5,2,3,2,3,2,3,1,1,5,3,2,2,2,3,2,2,6,4,1,2,3,4,1,3,1,3,3,2,3,4,2,5,2,3,5,3,4,2,2,4,2",
			"name": "a(n)=number of primes p such that (p,p+2) is a pair of twin primes with n^2 + n \u003c p \u003c n^2+3*n+2.",
			"link": [
				"Pierre CAMI, \u003ca href=\"/A136049/b136049.txt\"\u003eTable of n, a(n) for n = 1..5000\u003c/a\u003e"
			],
			"example": [
				"For n=1 we can take p = 3 and p = 5, with twin primes (3 5) and (5 7) and 3 and 5 are \u003e 2 and \u003c 6 so a(1)=2"
			],
			"keyword": "nonn",
			"offset": "1,1",
			"author": "_Pierre CAMI_, Dec 12 2007; corrected Jan 24 2008",
			"ext": [
				"Verified by _Don Reble_, Jun 22 2008, including the b-file."
			],
			"references": 1,
			"revision": 7,
			"time": "2017-10-19T03:15:08-04:00",
			"created": "2008-06-29T03:00:00-04:00"
		}
	]
}