{
	"greeting": "Greetings from The On-Line Encyclopedia of Integer Sequences! http://oeis.org/",
	"query": "id:A136559",
	"count": 1,
	"start": 0,
	"results": [
		{
			"number": 136559,
			"data": "2,0,88,0,285088,0,112173964160,0,6667221644498203136,0,66605167708510907980664608768,0,120169056821375322042225614651624227643392,0,41233460218449924405779202537032142206549563511026450432,0,2796406262888046560966728498782777223041570797904775508376399120263413760",
			"name": "G.f.: A(x) = Sum_{n\u003e=0} arctanh( 2^(2n+1)*x )^(2n+1) / (2n+1)!; a power series in x with integer coefficients.",
			"comment": [
				"2^n divides a(n) for n \u003e= 0."
			],
			"link": [
				"G. C. Greubel, \u003ca href=\"/A136559/b136559.txt\"\u003eTable of n, a(n) for n = 1..49\u003c/a\u003e"
			],
			"example": [
				"G.f.: A(x) = 2*x + 88*x^3 + 285088*x^5 + 112173964160*x^7 + ..."
			],
			"mathematica": [
				"Rest@With[{m=30}, CoefficientList[Series[Sum[ArcTanh[2^(2*j+1)*x]^(2*j+1)/(2*j + 1)!, {j,0,m+2}], {x,0,m}], x]] (* _G. C. Greubel_, Mar 15 2021 *)"
			],
			"program": [
				"(PARI) {a(n)=polcoeff(sum(k=0,n\\2,atanh(2^(2*k+1)*x +x*O(x^n))^(2*k+1)/(2*k+1)!),n)}",
				"(Magma)",
				"m:=30;",
				"R\u003cx\u003e:=PowerSeriesRing(Rationals(), 30);",
				"Coefficients(R!( (\u0026+[Argtanh(2^(2*j+1)*x)^(2*j+1)/Factorial(2*j+1): j in [0..m+2]]) )); // _G. C. Greubel_, Mar 15 2021"
			],
			"xref": [
				"Cf. A136558."
			],
			"keyword": "nonn",
			"offset": "1,1",
			"author": "_Paul D. Hanna_, Jan 10 2008",
			"references": 3,
			"revision": 15,
			"time": "2021-03-16T04:59:25-04:00",
			"created": "2008-06-29T03:00:00-04:00"
		}
	]
}