{
	"greeting": "Greetings from The On-Line Encyclopedia of Integer Sequences! http://oeis.org/",
	"query": "id:A136569",
	"count": 1,
	"start": 0,
	"results": [
		{
			"number": 136569,
			"data": "1,3,6,10,21,36,61,96,156,232,357,522,768,1092,1563,2174,3039,4164,5695,7686,10362,13792,18333,24138,31706,41316,53712,69348,89319,114396,146114,185724,235482,297252,374316,469578,587646,732888,911961,1131250",
			"name": "McKay-Thompson series of class 19A for the Monster group with a(0) = 3.",
			"link": [
				"Vaclav Kotesovec, \u003ca href=\"/A136569/b136569.txt\"\u003eTable of n, a(n) for n = -1..10000\u003c/a\u003e",
				"K. Bringmann and H. Swisher, \u003ca href=\"http://dx.doi.org/10.1090/S0002-9939-07-08735-7\"\u003eOn a conjecture of Koike on identities between Thompson series and Roger-Ramanujan functions\u003c/a\u003e, Proc. Amer. Math. Soc. 135 (2007), 2317-2326. See page 2325 (A.5)",
				"\u003ca href=\"/index/Mat#McKay_Thompson\"\u003eIndex entries for McKay-Thompson series for Monster simple group\u003c/a\u003e"
			],
			"formula": [
				"G.f.: x^(-1) * ( G(x) * G(x^19) + x^4 * H(x) * H(x^19) )^3 where G() is g.f. of A003114 and H() is g.f. of A003106.",
				"a(n) ~ exp(4*Pi*sqrt(n/19)) / (sqrt(2)*19^(1/4)*n^(3/4)). - _Vaclav Kotesovec_, Sep 07 2017"
			],
			"example": [
				"1/q + 3 + 6*q + 10*q^2 + 21*q^3 + 36*q^4 + 61*q^5 + 96*q^6 + 156*q^7 + ..."
			],
			"mathematica": [
				"QP = QPochhammer; G[x_] := 1/(QP[x, x^5]*QP[x^4, x^5]); H[x_] := 1/(QP[x^2, x^5]*QP[x^3, x^5]); s = (G[x]*G[x^19] + x^4*H[x]*H[x^19])^3 + O[x]^40; CoefficientList[s, x] (* _Jean-François Alcover_, Nov 15 2015 *)"
			],
			"program": [
				"(PARI) {a(n) = local(A, A1, A2); if( n\u003c-1, 0, n = 2*n + 2 ; A = x^3 * O(x^n) ; A1 = ( eta(x + A) * eta(x^19 + A) / eta(x^2 + A) / eta(x^38 + A) )^2; A2 = -subst(A1, x, -x); A = ( x^4 / A1 / A2 - (A1 + A2) / 4 / x )^3; polcoeff( A, n ))}"
			],
			"xref": [
				"Cf. A058549(n) = a(n) unless n=0."
			],
			"keyword": "nonn",
			"offset": "-1,2",
			"author": "_Michael Somos_, Jan 07 2008",
			"references": 3,
			"revision": 14,
			"time": "2017-09-07T08:30:37-04:00",
			"created": "2008-06-29T03:00:00-04:00"
		}
	]
}