{
	"greeting": "Greetings from The On-Line Encyclopedia of Integer Sequences! http://oeis.org/",
	"query": "id:A136060",
	"count": 1,
	"start": 0,
	"results": [
		{
			"number": 136060,
			"data": "3,7,13,31,37,43,61,73,103,163,211,223,241,271,307,313,331,367,397,421,463,523,541,577,643,727,757,853,877,883,937,1051,1087,1093,1153,1237,1291,1303,1381,1423,1471,1597,1693,1723,1777,1951,1993,2131,2161,2203",
			"name": "Daughter primes of order 11.",
			"comment": [
				"For smallest daughter primes of order n see A136019 (also definition). For daughter primes of order 1 see A088878. For daughter primes of order 2 see A136051. For daughter primes of order 3 see A136052. For daughter primes of order 4 see A136053. For daughter primes of order 5 see A136054. For daughter primes of order 6 see A136055. For daughter primes of order 7 see A136056. For daughter primes of order 8 see A136057. For daughter primes of order 9 see A136058. For daughter primes of order 10 see A136059."
			],
			"link": [
				"Amiram Eldar, \u003ca href=\"/A136060/b136060.txt\"\u003eTable of n, a(n) for n = 1..10000\u003c/a\u003e"
			],
			"mathematica": [
				"n = 11; a = {}; Do[If[PrimeQ[(Prime[k] + 2n)/(2n + 1)], AppendTo[a, (Prime[k] + 2n)/(2n + 1)]], {k, 1, 1500}]; a"
			],
			"xref": [
				"Cf. A088878, A091180, A136019, A136020, A136051, A136052, A136053, A136054, A136055, A136056, A136057, A136058, A136059."
			],
			"keyword": "nonn",
			"offset": "1,1",
			"author": "_Artur Jasinski_, Dec 12 2007",
			"references": 10,
			"revision": 7,
			"time": "2020-03-15T05:07:36-04:00",
			"created": "2008-06-29T03:00:00-04:00"
		}
	]
}