{
	"greeting": "Greetings from The On-Line Encyclopedia of Integer Sequences! http://oeis.org/",
	"query": "id:A136149",
	"count": 1,
	"start": 0,
	"results": [
		{
			"number": 136149,
			"data": "1,2,3,5,6,7,10,11,12,15,16,18,23,26,28,40,44,45,48,51,54,59,67,74,76,91,97,105,107,112,124,125,126,130,136,150,153,154,156,160,161,167,177,180,192,193,201,209,215,216,218,220,221,230,232,243,258,261,263,264",
			"name": "Values n such that the sequences a(k+1)=sopfr(n a(k)) finish with a fixed point. Here sopfr=A001414 and a(1)=1.",
			"comment": [
				"Position of the 1's in the sequence A136148."
			],
			"xref": [
				"Cf. A136148, A136147, A136140."
			],
			"keyword": "nonn",
			"offset": "0,2",
			"author": "_Carlos Alves_, Dec 16 2007",
			"references": 0,
			"revision": 2,
			"time": "2013-09-24T00:41:43-04:00",
			"created": "2008-06-29T03:00:00-04:00"
		}
	]
}