{
	"greeting": "Greetings from The On-Line Encyclopedia of Integer Sequences! http://oeis.org/",
	"query": "id:A136628",
	"count": 1,
	"start": 0,
	"results": [
		{
			"number": 136628,
			"data": "0,1,1,3,9,29,105,390,1528,6119,25140,104936,444637,1905331,8246619,35988793,158199975,699788234,3112679085,13913394416,62465305846,281551756181,1273583739390,5779693081500,26306751243309",
			"name": "Number of unlabeled PQ-trees with n leaves.",
			"comment": [
				"A PQ-tree is a rooted tree with P-type internal nodes that have at least 3 children that are reversibly ordered (the reverse of the order is equivalent to the order) and Q-type internal nodes that have at least 2 unordered children."
			],
			"reference": [
				"F. Bergeron, G. Labelle and P. Leroux, Combinatorial Species and Tree-Like Structures, Cambridge, 1998, p. 242 (3.3.91)."
			],
			"link": [
				"Christian G. Bower, \u003ca href=\"/A136628/b136628.txt\"\u003eTable of n, a(n) for n = 0..511\u003c/a\u003e",
				"\u003ca href=\"/transforms_pari.txt\"\u003eTransforms in PARI\u003c/a\u003e",
				"\u003ca href=\"/index/Ro#rooted\"\u003eIndex entries for sequences related to rooted trees\u003c/a\u003e"
			],
			"formula": [
				"G.f. satisfies: A(x) = x + (2-A(x)^2)/(2-2A(x)^2) + (1+A(x))*A(x^2)/(2-2A(x^2)) + exp(Sum_{i\u003e=1} A(x^i)/i) - (A(x)^2+A(x^2))/2 - 2A(x) - 2."
			],
			"program": [
				"(PARI) read(\"transforms_pari.txt\"); {pqu(A) = A = trv_chain(A)+trv_euler(A)-trv_euler_2(A)-2*A; A[1]=0; A} {apqu(n) = local(SX,SY); SY = SX = [0,1]; for(i=1,n,SY=concat(SY,0);SX=concat(SX,0);SY=SX+pqu(SY)); SY} A136628(n) = apqu(min(1,n-1))[n+1]"
			],
			"keyword": "nonn",
			"offset": "0,4",
			"author": "_Christian G. Bower_, Jan 14 2008",
			"references": 1,
			"revision": 10,
			"time": "2018-02-19T03:36:41-05:00",
			"created": "2008-06-29T03:00:00-04:00"
		}
	]
}