{
	"greeting": "Greetings from The On-Line Encyclopedia of Integer Sequences! http://oeis.org/",
	"query": "id:A136788",
	"count": 1,
	"start": 0,
	"results": [
		{
			"number": 136788,
			"data": "1,1,1,1,2,1,1,2,4,1,1,2,6,7,1,1,2,6,17,11,1,1,2,6,22,41,16,1,1,2,6,22,76,86,22,1,1,2,6,22,90,226,162,29,1,1,2,6,22,90,352,582,281,37,1",
			"name": "Triangle read by rows: A000012 * A107131.",
			"comment": [
				"Row sums = A086615: (1, 2, 4, 8, 17, 38,...). A136787 = A107131 * A000012"
			],
			"formula": [
				"A000012 * A107131 as infinite lower triangular matrices."
			],
			"example": [
				"First few rows of the triangle are:",
				"1;",
				"1, 1;",
				"1, 2, 1;",
				"1, 2, 4, 1;",
				"1, 2, 6, 7, 1;",
				"1, 2, 6, 17, 11, 1;",
				"1, 2, 6, 22, 41, 16, 1;",
				"1, 2, 6, 22, 76, 86, 22, 1;",
				"..."
			],
			"xref": [
				"Cf. A086615, A136787."
			],
			"keyword": "nonn,tabl",
			"offset": "0,5",
			"author": "_Gary W. Adamson_, Jan 21 2008",
			"references": 2,
			"revision": 2,
			"time": "2012-03-30T17:25:27-04:00",
			"created": "2008-06-29T03:00:00-04:00"
		}
	]
}