{
	"greeting": "Greetings from The On-Line Encyclopedia of Integer Sequences! http://oeis.org/",
	"query": "id:A136938",
	"count": 1,
	"start": 0,
	"results": [
		{
			"number": 136938,
			"data": "0,6,60,600,6000,8066,60000,60666,80660,550506,555566,600000,603066,606660,806600,5505060,5555660,6000000,6030660,6066600,8066000,55050600,55556600,60000000,60306600,60553006,60666000,80660000,80830306,550506000,553655006,555005006,555566000,600000000,603066000,605530060,606660000,806600000",
			"name": "Numbers k such that k and k^2 use only the digits 0, 3, 5, 6 and 8.",
			"comment": [
				"Generated with DrScheme."
			],
			"link": [
				"Jonathan Wellons, \u003ca href=\"/A136938/b136938.txt\"\u003eTable of n, a(n) for n = 1..199\u003c/a\u003e",
				"J. Wellons, \u003ca href=\"http://jonathanwellons.com/shared-digits/\"\u003eTables of Shared Digits\u003c/a\u003e"
			],
			"example": [
				"603065805603656^2 = 363688365888386608530560566336."
			],
			"keyword": "base,nonn",
			"offset": "1,2",
			"author": "Jonathan Wellons (wellons(AT)gmail.com), Jan 22 2008",
			"references": 1,
			"revision": 6,
			"time": "2021-07-05T20:20:18-04:00",
			"created": "2008-06-29T03:00:00-04:00"
		}
	]
}