{
	"greeting": "Greetings from The On-Line Encyclopedia of Integer Sequences! http://oeis.org/",
	"query": "id:A136051",
	"count": 1,
	"start": 0,
	"results": [
		{
			"number": 136051,
			"data": "3,7,13,31,37,43,67,109,127,139,151,163,199,211,241,277,307,349,367,373,433,457,463,547,571,601,613,661,673,709,727,739,787,811,823,853,919,967,991,1021,1087,1117,1129,1171,1231,1291,1297,1399,1471,1483,1549",
			"name": "Primes p such that 5*p-4 is also prime.",
			"comment": [
				"Previous name: Daughter primes of order 2.",
				"For daughter primes of order 1 see A088878. For smallest daughter primes of order n see A136019 (also definition)."
			],
			"link": [
				"Amiram Eldar, \u003ca href=\"/A136051/b136051.txt\"\u003eTable of n, a(n) for n = 1..10000\u003c/a\u003e"
			],
			"mathematica": [
				"n = 2; a = {}; Do[If[PrimeQ[(Prime[k] + 2n)/(2n + 1)], AppendTo[a, (Prime[k] + 2n)/(2n + 1)]], {k, 1, 1500}]; a",
				"(* Second program: *)",
				"Select[Prime@ Range@ 250, PrimeQ[5 # - 4] \u0026] (* _Michael De Vlieger_, Aug 04 2017 *)"
			],
			"program": [
				"(PARI) lista(nn) = forprime(p=2, nn, if (isprime(5*p-4), print1(p, \", \")))"
			],
			"xref": [
				"Cf. A088878, A091180, A136019, A136020, A136052, A136053, A136054, A136055, A136056, A136057, A136058, A136059, A136060."
			],
			"keyword": "nonn",
			"offset": "1,1",
			"author": "_Artur Jasinski_, Dec 12 2007",
			"ext": [
				"New name from _Michel Marcus_, Aug 04 2017"
			],
			"references": 11,
			"revision": 13,
			"time": "2020-03-15T05:08:08-04:00",
			"created": "2008-06-29T03:00:00-04:00"
		}
	]
}