{
	"greeting": "Greetings from The On-Line Encyclopedia of Integer Sequences! http://oeis.org/",
	"query": "id:A136692",
	"count": 1,
	"start": 0,
	"results": [
		{
			"number": 136692,
			"data": "1,1,2,1,4,4,4,3,4,1,2,2,4,2,3,4,4,3,4,1,4,4,3,4,1,1,1,2,1,4,4,4,3,4,1,2,2,4,2,3,4,4,3,4,1,4,4,3,4,1,2,2,4,2,3,3,3,1,3,2,4,4,3,4,1,3,3,1,3,2,3,3,1,3,2,1,1,2,1,4,4,4,3,4,1,2,2,4,2,3,4,4,3,4,1,4,4,3,4,1",
			"name": "Final nonzero digit of n! in base 5.",
			"example": [
				"6! = 720 decimal = 10340 quinary, so a(6) = 4."
			],
			"mathematica": [
				"Table[Module[{sp=Split[IntegerDigits[n!,5]]},If[sp[[-1,-1]]==0,sp[[-2, -1]], sp[[-1,-1]]]],{n,0,100}] (* _Harvey P. Dale_, Oct 26 2016 *)"
			],
			"xref": [
				"Cf. A000142, A136690, A136691, A136693, A136694, A136695, A136696, A008904, A136697, A136698, A136699, A136700, A136701, A136702."
			],
			"keyword": "base,easy,nonn",
			"offset": "0,3",
			"author": "_Carl R. White_, Jan 16 2008",
			"references": 14,
			"revision": 4,
			"time": "2016-10-26T17:14:43-04:00",
			"created": "2008-06-29T03:00:00-04:00"
		}
	]
}