{
	"greeting": "Greetings from The On-Line Encyclopedia of Integer Sequences! http://oeis.org/",
	"query": "id:A136264",
	"count": 1,
	"start": 0,
	"results": [
		{
			"number": 136264,
			"data": "1,0,-16,-64,-160,-320,-560,-896,-1344,-1920,-2640,-3520,-4576,-5824,-7280,-8960,-10880,-13056,-15504,-18240,-21280,-24640,-28336,-32384,-36800,-41600,-46800,-52416,-58464,-64960,-71920,-79360,-87296,-95744,-104720,-114240,-124320,-134976,-146224,-158080",
			"name": "Expansion of (1+x)^2*(x^2-6*x+1)/(x-1)^4.",
			"comment": [
				"Inverse z-transform of the magnetization polynomial for the Ising model.",
				"This polynomial is the eighth power of the spontaneous magnetization for a two-dimensional square lattice."
			],
			"reference": [
				"Terrel L. Hill, Statistical Mechanics: Principles and Selected Applications, Dover, New York, 1956, page 331"
			],
			"link": [
				"M. R. Sepanski, \u003ca href=\"http://www.combinatorics.org/ojs/index.php/eljc/article/view/v21i1p32\"\u003eOn Divisibility of Convolutions of Central Binomial Coefficients\u003c/a\u003e, Electronic Journal of Combinatorics, 21 (1) 2014, #P1.32.",
				"\u003ca href=\"/index/Rec#order_04\"\u003eIndex entries for linear recurrences with constant coefficients\u003c/a\u003e, signature (4,-6,4,-1)."
			],
			"formula": [
				"a(n) = 8n(1-n^2)/3, n\u003e0. [_R. J. Mathar_, Mar 09 2009]"
			],
			"mathematica": [
				"CoefficientList[Series[(1+x)^2(x^2-6x+1)/(x-1)^4,{x,0,40}],x] (* or *) LinearRecurrence[{4,-6,4,-1},{1,0,-16,-64,-160},40] (* _Harvey P. Dale_, Mar 15 2020 *)"
			],
			"program": [
				"(PARI) Vec((1+x)^2*(x^2-6*x+1)/(x-1)^4 + O(x^100)) \\\\ _Altug Alkan_, Oct 26 2015"
			],
			"xref": [
				"Essentially the same as A102860. Cf. A115046."
			],
			"keyword": "sign,easy",
			"offset": "0,3",
			"author": "_Roger L. Bagula_, Apr 07 2008",
			"references": 3,
			"revision": 21,
			"time": "2020-03-15T12:57:35-04:00",
			"created": "2008-06-29T03:00:00-04:00"
		}
	]
}