{
	"greeting": "Greetings from The On-Line Encyclopedia of Integer Sequences! http://oeis.org/",
	"query": "id:A136133",
	"count": 1,
	"start": 0,
	"results": [
		{
			"number": 136133,
			"data": "0,1,6,3,125,5,9,743,7105,59,925,500,943,2118,41214,8415,1138949,39515,7440381,11166954,18857978,254,584522,467664,312408461,34395742156,218280,375035124,4990290103,28025,2667653736605,913550,199539368422",
			"name": "Integer log of harmonic numbers.",
			"comment": [
				"The integer log of a fraction p/q is A001414(p) - A001414(q).",
				"Similar to A136121 or A136122: apply integer log (sopfr, or A001414) to the fractions in the harmonic numbers sequence (A001008/A002805)."
			],
			"mathematica": [
				"sopfr = Function[x, Plus @@ Map[Times @@ # \u0026, FactorInteger[x]]]; sopfr /@ HarmonicNumber[Range[40]]"
			],
			"xref": [
				"Cf. A136121, A136122, A001008, A002805."
			],
			"keyword": "easy,nonn",
			"offset": "0,3",
			"author": "_Carlos Alves_, Dec 16 2007",
			"references": 1,
			"revision": 3,
			"time": "2013-09-24T00:41:43-04:00",
			"created": "2008-06-29T03:00:00-04:00"
		}
	]
}