{
	"greeting": "Greetings from The On-Line Encyclopedia of Integer Sequences! http://oeis.org/",
	"query": "id:A136333",
	"count": 1,
	"start": 0,
	"results": [
		{
			"number": 136333,
			"data": "1,3,7,9,11,13,17,19,31,33,37,39,71,73,77,79,91,93,97,99,111,113,117,119,131,133,137,139,171,173,177,179,191,193,197,199,311,313,317,319,331,333,337,339,371,373,377,379,391,393,397,399,711,713,717,719,731",
			"name": "Numbers containing only digits coprime to 10 in their decimal representation.",
			"comment": [
				"Numbers containing digits 1,3,7,9 only, or, numbers written in base 4 (cf. A007090) with digits mapped by: 0-\u003e1, 1-\u003e3, 2-\u003e7 and 3-\u003e9. - _Reinhard Zumkeller_, Jul 17 2014"
			],
			"link": [
				"Reinhard Zumkeller, \u003ca href=\"/A136333/b136333.txt\"\u003eTable of n, a(n) for n = 1..10000\u003c/a\u003e",
				"\u003ca href=\"/index/Ar#10-automatic\"\u003eIndex entries for 10-automatic sequences\u003c/a\u003e."
			],
			"mathematica": [
				"fQ[n_] := Block[{s = {1, 3, 7, 9}}, Union[Join[s, IntegerDigits@ n]] == s]; Select[ Range@ 1000, fQ] (* or *)",
				"depth = 3; FromDigits@# \u0026 /@ FlattenAt[ Table[ Tuples[{1, 3, 7, 9}, n], {n, depth}], {#} \u0026 /@ Range[depth]] (* _Robert G. Wilson v_, Jul 02 2014 *)"
			],
			"program": [
				"(Haskell)",
				"import Data.List (intersect)",
				"a136333 n = a136333_list !! (n-1)",
				"a136333_list = filter (null . intersect \"024568\" . show) [1..]",
				"-- _Reinhard Zumkeller_, Jul 17 2014"
			],
			"xref": [
				"Cf. A091633 (primes), A245193."
			],
			"keyword": "nonn,base,easy",
			"offset": "1,2",
			"author": "_Reinhard Zumkeller_, Mar 26 2008",
			"references": 8,
			"revision": 18,
			"time": "2017-02-13T02:08:08-05:00",
			"created": "2008-06-29T03:00:00-04:00"
		}
	]
}