{
	"greeting": "Greetings from The On-Line Encyclopedia of Integer Sequences! http://oeis.org/",
	"query": "id:A136593",
	"count": 1,
	"start": 0,
	"results": [
		{
			"number": 136593,
			"data": "1,6,-25,-135,1834,-3668,-110692,1339020,-1181664,-164709864,2206092096,395662176,-463716547776,7029335571840,8900411569920,-2265668505227520,38689597829053440,92447263589921280,-17785648201625856000,338957966532455424000",
			"name": "Column 3 of triangle A136590.",
			"formula": [
				"E.g.f.: A(x) = log(1 + x + x^2)^3 / 3!."
			],
			"example": [
				"E.g.f.: A(x) = 1*x^3/3! + 6*x^4/4! - 25*x^5/5! - 135*x^6/6! + 1834*x^7/7! -..."
			],
			"program": [
				"(PARI) a(n)=(n+3)!*polcoeff(log(1+x+x^2 +x*O(x^(n+3)))^3/3!,n+3)"
			],
			"xref": [
				"Cf. A136590, A136591, A136592, A136594."
			],
			"keyword": "sign",
			"offset": "3,2",
			"author": "_Paul D. Hanna_, Jan 10 2008",
			"references": 4,
			"revision": 2,
			"time": "2012-03-30T18:37:09-04:00",
			"created": "2008-06-29T03:00:00-04:00"
		}
	]
}