{
	"greeting": "Greetings from The On-Line Encyclopedia of Integer Sequences! http://oeis.org/",
	"query": "id:A136995",
	"count": 1,
	"start": 0,
	"results": [
		{
			"number": 136995,
			"data": "1,2,4,11,12,14,21,46,96,114,119,121,129,162,212,264,469,642,964,1292,1619,1642,2161,2629,4114,4119,4921,4946,4962,4964,6421,6642,9962,11142,14142,14661,16421,21662,22196,26292,41142,44121,44662,46119,46292,49261,49264,49411,49661,49696,64119,64142,64196,122462,126969,149229,164162,216614",
			"name": "Numbers k such that k and k^2 use only the digits 1, 2, 4, 6 and 9.",
			"comment": [
				"Generated with DrScheme."
			],
			"link": [
				"Jonathan Wellons, \u003ca href=\"/A136995/b136995.txt\"\u003eTable of n, a(n) for n = 1..995\u003c/a\u003e",
				"J. Wellons, \u003ca href=\"http://jonathanwellons.com/shared-digits/\"\u003eTables of Shared Digits\u003c/a\u003e"
			],
			"example": [
				"249291921696121^2 = 62146462222944924161466446641."
			],
			"keyword": "base,nonn",
			"offset": "1,2",
			"author": "Jonathan Wellons (wellons(AT)gmail.com), Jan 22 2008",
			"references": 1,
			"revision": 6,
			"time": "2021-07-05T12:02:35-04:00",
			"created": "2008-06-29T03:00:00-04:00"
		}
	]
}