{
	"greeting": "Greetings from The On-Line Encyclopedia of Integer Sequences! http://oeis.org/",
	"query": "id:A137914",
	"count": 1,
	"start": 0,
	"results": [
		{
			"number": 137914,
			"data": "1,2,3,0,9,5,9,4,1,7,3,4,0,7,7,4,6,8,2,1,3,4,9,2,9,1,7,8,2,4,7,9,8,7,3,7,5,7,1,0,3,4,0,0,0,9,3,5,5,0,9,4,8,3,9,0,5,5,5,4,8,3,3,3,6,6,3,9,9,2,3,1,4,4,7,8,2,5,6,0,8,7,8,5,3,2,5,1,6,2,0,1,7,0,8,6,0,9,2,1,1,3,8,9,4",
			"name": "Decimal expansion of arccos(1/3).",
			"comment": [
				"Dihedral angle in radians of regular tetrahedron.",
				"Arccos(1/3) is the central angle of a cube, made by the center and two neighboring vertices. - _Clark Kimberling_, Feb 10 2009",
				"Also the complementary tetrahedral angle, Pi-A156546, and therefore related to the magic angle (Pi-2*A195696). - _Stanislav Sykora_, Jan 23 2014",
				"Polar angle (or apex angle) of the cone that subtends exactly one third of the full solid angle. - _Stanislav Sykora_, Feb 20 2014",
				"Also the acute angle in the rhombi and isosceles trapezoids in the trapezo-rhombic dodecahedron. - _Eric W. Weisstein_, Jan 09 2019"
			],
			"link": [
				"G. C. Greubel, \u003ca href=\"/A137914/b137914.txt\"\u003eTable of n, a(n) for n = 1..10000\u003c/a\u003e",
				"Steven R. Finch, \u003ca href=\"http://arxiv.org/abs/2001.00578\"\u003eErrata and Addenda to Mathematical Constants\u003c/a\u003e, p. 58.",
				"Jackson, Frank and Weisstein, Eric W., \u003ca href=\"http://mathworld.wolfram.com/Tetrahedron.html\"\u003eTetrahedron\u003c/a\u003e",
				"Eric Weisstein's World of Mathematics, \u003ca href=\"http://mathworld.wolfram.com/DihedralAngle.html\"\u003eDihedral Angle\u003c/a\u003e",
				"Eric Weisstein's World of Mathematics, \u003ca href=\"http://mathworld.wolfram.com/Trapezo-RhombicDodecahedron.html\"\u003eTrapezo-Rhombic Dodecahedron\u003c/a\u003e"
			],
			"formula": [
				"arccos(1/3) = arctan(2*sqrt(2)) = 2*arcsin(sqrt(3)/3) = arcsin(2*sqrt(2)/3)."
			],
			"example": [
				"1.2309594173407746821349291782479873757103400093550948390555483336639923144..."
			],
			"mathematica": [
				"RealDigits[ArcCos[1/3], 10, 120][[1]] (* _Harvey P. Dale_, Jul 06 2018 *)",
				"RealDigits[ArcSec[3], 10, 120][[1]] (* _Eric W. Weisstein_, Jan 09 2019 *)"
			],
			"program": [
				"(PARI) acos(1/3)",
				"(MAGMA) SetDefaultRealField(RealField(100)); Arccos(1/3); // _G. C. Greubel_, Aug 20 2018"
			],
			"xref": [
				"Cf. A137915 (same in degrees), A019670, A195696, A238238, Platonic solids dihedral angles: A156546 (octahedron), A019669 (cube), A236367 (icosahedron), A137218 (dodecahedron)."
			],
			"keyword": "cons,nonn",
			"offset": "1,2",
			"author": "_Rick L. Shepherd_, Feb 22 2008",
			"references": 12,
			"revision": 35,
			"time": "2020-01-17T03:40:56-05:00",
			"created": "2008-06-29T03:00:00-04:00"
		}
	]
}