{
	"greeting": "Greetings from The On-Line Encyclopedia of Integer Sequences! http://oeis.org/",
	"query": "id:A137843",
	"count": 1,
	"start": 0,
	"results": [
		{
			"number": 137843,
			"data": "1,2,1,1,2,1,4,1,2,1,1,2,1,5,1,2,1,1,2,1,4,1,2,1,1,2,1,1,2,1,1,2,1,4,1,2,1,1,2,1,5,1,2,1,1,2,1,4,1,2,1,1,2,1,7,1,2,1,1,2,1,4,1,2,1,1,2,1,5,1,2,1,1,2,1,4,1,2,1,1,2,1,1,2,1,1,2,1,4,1,2,1,1,2,1,5,1,2,1,1,2,1,4,1,2,1,1,2,1",
			"name": "Define S(1) = {1}, S(n+1) = S(n) U S(n) if a(n) is even, S(n+1) = S(n) U (n+1) U S(n) if a(n) is odd. Sequence {a(n), n \u003e= 1} is limit as n approaches infinity of S(n). (U represents concatenation.).",
			"link": [
				"Antti Karttunen, \u003ca href=\"/A137843/b137843.txt\"\u003eTable of n, a(n) for n = 1..27995, up to the stage S(15)\u003c/a\u003e"
			],
			"example": [
				"S(1) = {1}.",
				"S(2) = {1,2,1}, because a(1) = 1, which is odd.",
				"S(3) = {1,2,1,1,2,1}, because a(2) = 2, which is even.",
				"S(4) = {1,2,1,1,2,1,4,1,2,1,1,2,1}, as a(3) is odd.",
				"S(5) = {1,2,1,1,2,1,4,1,2,1,1,2,1,5,1,2,1,1,2,1,4,1,2,1,1,2,1}, as a(4) is odd.",
				"Etc."
			],
			"program": [
				"(Scheme, with memoization-macro definec)",
				"(definec (A137843 n) (if (= 1 n) n (let ((k (let loop ((j 1)) (if (\u003e= (A291753 j) n) j (loop (+ 1 j)))))) (cond ((= (+ 1 (A291753 (- k 1))) n) (if (odd? (A137843 (- k 1))) k 1)) (else (A137843 (- n (+ (A291753 (- k 1)) (A000035 (A137843 (- k 1)))))))))))",
				"(definec (A291753 n) (if (= 1 n) 1 (+ (* 2 (A291753 (- n 1))) (A000035 (A137843 (- n 1))))))",
				"(define (A000035 n) (modulo n 2))",
				";; _Antti Karttunen_, Aug 31 2017"
			],
			"xref": [
				"Cf. A096055, A137844 (variants of the same theme).",
				"Cf. A291753 (the length of stage n)."
			],
			"keyword": "easy,nonn",
			"offset": "1,2",
			"author": "_Leroy Quet_, Feb 13 2008",
			"ext": [
				"More terms from _Antti Karttunen_, Aug 31 2017"
			],
			"references": 4,
			"revision": 13,
			"time": "2017-08-31T23:02:57-04:00",
			"created": "2008-06-29T03:00:00-04:00"
		}
	]
}