{
	"greeting": "Greetings from The On-Line Encyclopedia of Integer Sequences! http://oeis.org/",
	"query": "id:A137386",
	"count": 1,
	"start": 0,
	"results": [
		{
			"number": 137386,
			"data": "0,1,3,6,8,9,10,11,13,16,18,19,30,31,33,36,38,39,60,61,63,66,68,69,80,81,83,86,88,89,90,91,93,96,98,99,100,101,103,106,108,109,110,111,113,116,118,119,130,131,133,136,138,139,160,161,163,166,168,169",
			"name": "Numbers that when mirrored vertically are still valid characters. Only applies when numbers are scribed in Arabic numerals.",
			"comment": [
				"Equivalently, numbers that are composed only of the digits 0, 1, 3, 6, 8 and 9. - _Andrew Howroyd_, Jan 03 2020"
			],
			"link": [
				"Andrew Howroyd, \u003ca href=\"/A137386/b137386.txt\"\u003eTable of n, a(n) for n = 1..1000\u003c/a\u003e"
			],
			"program": [
				"(PARI) a(n)={my(v=[0,1,3,6,8,9]); fromdigits([v[1+d] | d\u003c-digits(n-1,#v)])} \\\\ _Andrew Howroyd_, Jan 03 2020"
			],
			"keyword": "nonn,base",
			"offset": "1,3",
			"author": "Adam Risi (ajrisi(AT)gmail.com), Apr 09 2008",
			"ext": [
				"Terms a(39) and beyond from _Andrew Howroyd_, Jan 03 2020"
			],
			"references": 1,
			"revision": 4,
			"time": "2020-01-03T21:17:27-05:00",
			"created": "2008-06-29T03:00:00-04:00"
		}
	]
}