{
	"greeting": "Greetings from The On-Line Encyclopedia of Integer Sequences! http://oeis.org/",
	"query": "id:A137084",
	"count": 1,
	"start": 0,
	"results": [
		{
			"number": 137084,
			"data": "3,5,23,27,73,77,235,523,527,577,723,773,5223,5723,5773,5777,7227,27527,57927,72335,75723,97773,232227,232335,239227,239573,522235,597773,727527,757227,2322235,2357527,5232335,5723227,5775777,7597523,23522235,23922235,23923335,27797977,57755723,59377923,59799277,72755723,229255223,235357977",
			"name": "Numbers k such that k and k^2 use only the digits 2, 3, 5, 7 and 9.",
			"comment": [
				"Generated with DrScheme."
			],
			"link": [
				"Jonathan Wellons, \u003ca href=\"/A137084/b137084.txt\"\u003eTable of n, a(n) for n = 1..180\u003c/a\u003e",
				"J. Wellons, \u003ca href=\"http://jonathanwellons.com/shared-digits/\"\u003eTables of Shared Digits\u003c/a\u003e"
			],
			"example": [
				"279272793757923^2 = 77993293333355395752325273929."
			],
			"keyword": "base,nonn",
			"offset": "1,1",
			"author": "Jonathan Wellons (wellons(AT)gmail.com), Jan 22 2008",
			"references": 1,
			"revision": 7,
			"time": "2021-07-05T11:07:47-04:00",
			"created": "2008-06-29T03:00:00-04:00"
		}
	]
}