{
	"greeting": "Greetings from The On-Line Encyclopedia of Integer Sequences! http://oeis.org/",
	"query": "id:A137106",
	"count": 1,
	"start": 0,
	"results": [
		{
			"number": 137106,
			"data": "2,22,28,88,278,472,478,2878",
			"name": "Numbers k such that k and k^2 use only the digits 2, 4, 7 and 8.",
			"comment": [
				"Generated with DrScheme.",
				"No further terms up to 20 billion. - _Harvey P. Dale_, Dec 15 2011"
			],
			"link": [
				"J. Wellons, \u003ca href=\"http://jonathanwellons.com/shared-digits/\"\u003eTables of Shared Digits\u003c/a\u003e"
			],
			"example": [
				"2878^2 = 8282884."
			],
			"mathematica": [
				"oksQ[n_]:=Module[{idn2=Union[IntegerDigits[n^2]]},And@@Table[MemberQ[{2,4,7,8}, idn2[[i]]],{i,Length[idn2]}]]; Select[FromDigits/@Flatten[ Table[ Tuples[ {2,4,7,8},n],{n,9}],1],oksQ] (* _Harvey P. Dale_, Dec 15 2011 *)"
			],
			"keyword": "base,nonn",
			"offset": "1,1",
			"author": "Jonathan Wellons (wellons(AT)gmail.com), Jan 22 2008",
			"references": 0,
			"revision": 8,
			"time": "2021-07-05T10:46:06-04:00",
			"created": "2008-06-29T03:00:00-04:00"
		}
	]
}