{
	"greeting": "Greetings from The On-Line Encyclopedia of Integer Sequences! http://oeis.org/",
	"query": "id:A137543",
	"count": 1,
	"start": 0,
	"results": [
		{
			"number": 137543,
			"data": "1,2,6,23,104,534,3060,19445,136976,1072110,9344781,90711178,977610989,11627993555,151488021053",
			"name": "Number of permutations in S_n avoiding {bar 1}3245 (i.e., every occurrence of 3245 is contained in an occurrence of a 13245).",
			"comment": [
				"From _Lara Pudwell_, Oct 23 2008: (Start)",
				"A permutation p avoids a pattern q if it has no subsequence that is order-isomorphic to q. For example, p avoids the pattern 132 if it has no subsequence abc with a \u003c c \u003c b.",
				"Barred pattern avoidance considers permutations that avoid a pattern except in a special case. Given a barred pattern q, we may form two patterns, q1 = the sequence of unbarred letters of q and q2 = the sequence of all letters of q.",
				"A permutation p avoids barred pattern q if every instance of q1 in p is embedded in a copy of q2 in p. In other words, p avoids q1, except in the special case that a copy of q1 is a subsequence of a copy of q2.",
				"For example, if q = 5{bar 1}32{bar 4}, then q1 = 532 and q2 = 51324. p avoids q if every for decreasing subsequence acd of length 3 in p, one can find letters b and e so that the subsequence abcde of p has b \u003c d \u003c c \u003c e \u003c a. (End)"
			],
			"link": [
				"Lara Pudwell, \u003ca href=\"http://faculty.valpo.edu/lpudwell/papers/pudwell_thesis.pdf\"\u003eEnumeration Schemes for Pattern-Avoiding Words and Permutations\u003c/a\u003e, Ph. D. Dissertation, Math. Dept., Rutgers University, May 2008.",
				"L. Pudwell, \u003ca href=\"http://www.emis.de/journals/EJC/Volume_17/Abstracts/v17i1r29.html\"\u003eEnumeration schemes for permutations avoiding barred patterns\u003c/a\u003e, El. J. Combinat. 17 (1) (2010) R29."
			],
			"example": [
				"See example in A137546."
			],
			"keyword": "nonn,more",
			"offset": "1,2",
			"author": "_Lara Pudwell_, Apr 25 2008",
			"ext": [
				"a(8)-(15) from _Lars Blomberg_, Jun 05 2018"
			],
			"references": 1,
			"revision": 15,
			"time": "2018-06-10T08:19:26-04:00",
			"created": "2008-06-29T03:00:00-04:00"
		}
	]
}