{
	"greeting": "Greetings from The On-Line Encyclopedia of Integer Sequences! http://oeis.org/",
	"query": "id:A137844",
	"count": 1,
	"start": 0,
	"results": [
		{
			"number": 137844,
			"data": "1,1,1,2,1,1,1,3,1,1,1,2,1,1,1,1,1,1,2,1,1,1,3,1,1,1,2,1,1,1,5,1,1,1,2,1,1,1,3,1,1,1,2,1,1,1,1,1,1,2,1,1,1,3,1,1,1,2,1,1,1,6,1,1,1,2,1,1,1,3,1,1,1,2,1,1,1,1,1,1,2,1,1,1,3,1,1,1,2,1,1,1,5,1,1,1,2,1,1,1,3,1,1,1,2,1,1,1,1,1,1,2,1,1,1,3,1,1,1,2,1,1,1",
			"name": "Define S(1) = {1}, S(n+1) = S(n) U S(n) if a(n) is even, S(n+1) = S(n) U n U S(n) if a(n) is odd. Sequence {a(n), n \u003e= 1} is limit as n approaches infinity of S(n). (U represents concatenation.).",
			"link": [
				"Antti Karttunen, \u003ca href=\"/A137844/b137844.txt\"\u003eTable of n, a(n) for n = 1..31739, up to the stage S(15)\u003c/a\u003e"
			],
			"example": [
				"S(1) = {1}.",
				"S(2) = {1,1,1}, because a(1) = 1, which is odd.",
				"S(3) = {1,1,1,2,1,1,1}, because a(2) = 1, which is odd.",
				"S(4) = {1,1,1,2,1,1,1,3,1,1,1,2,1,1,1}.",
				"S(5) = {1,1,1,2,1,1,1,3,1,1,1,2,1,1,1,1,1,1,2,1,1,1,3,1,1,1,2,1,1,1}, because a(4) = 2, which is even.",
				"Etc."
			],
			"mathematica": [
				"Fold[Flatten@ Join[#1, If[OddQ[#1[[#2]]], {#2}, {}], #1] \u0026, {1}, Range@ 6] (* _Michael De Vlieger_, Oct 18 2017 *)"
			],
			"program": [
				"(Scheme, with memoization-macro definec)",
				"(definec (A137844 n) (if (= 1 n) n (let ((k (let loop ((j 1)) (if (\u003e= (A291754 j) n) j (loop (+ 1 j)))))) (cond ((= (+ 1 (A291754 (- k 1))) n) (if (odd? (A137844 (- k 1))) (- k 1) 1)) (else (A137844 (- n (+ (A291754 (- k 1)) (A000035 (A137844 (- k 1)))))))))))",
				"(definec (A291754 n) (if (= 1 n) 1 (+ (* 2 (A291754 (- n 1))) (A000035 (A137844 (- n 1))))))",
				"(define (A000035 n) (modulo n 2))",
				";; _Antti Karttunen_, Aug 31 2017"
			],
			"xref": [
				"Cf. A137843, A291754 (the length of stage n)."
			],
			"keyword": "easy,nonn",
			"offset": "1,4",
			"author": "_Leroy Quet_, Feb 13 2008",
			"ext": [
				"Data section filled up to the length of stage S(7) by _Antti Karttunen_, Aug 31 2017"
			],
			"references": 3,
			"revision": 20,
			"time": "2017-10-21T22:05:24-04:00",
			"created": "2008-06-29T03:00:00-04:00"
		}
	]
}