{
	"greeting": "Greetings from The On-Line Encyclopedia of Integer Sequences! http://oeis.org/",
	"query": "id:A137429",
	"count": 1,
	"start": 0,
	"results": [
		{
			"number": 137429,
			"data": "1,-4,6,-4,-4,16,-24,16,16,-64,96,-64,-64,256,-384,256,256,-1024,1536,-1024,-1024,4096,-6144,4096,4096,-16384,24576,-16384,-16384,65536,-98304,65536,65536,-262144,393216,-262144,-262144,1048576,-1572864,1048576,1048576,-4194304,6291456",
			"name": "a(n) = -2*a(n-1) - 2*a(n-2), with a(0)=1 and a(1)=-4.",
			"link": [
				"\u003ca href=\"/index/Rec#order_02\"\u003eIndex entries for linear recurrences with constant coefficients\u003c/a\u003e, signature (-2,-2)."
			],
			"formula": [
				"For n \u003e= 4, a(n) = -4*a(n-4).",
				"a(n) = (-1)^n*A137444(n) = A108520(n) - 2*A108520(n-1).",
				"G.f.: (1-2*x)/(1 + 2*x + 2*x^2).",
				"a(n) = (1/2 + 3*i/2)*(-1 + i)^n + (1/2 - 3*i/2)*(-1 - i)^n, n \u003e= 0, where i=sqrt(-1). - _Taras Goy_, Apr 20 2019"
			],
			"mathematica": [
				"LinearRecurrence[{-2,-2},{1,-4},50] (* _Harvey P. Dale_, Mar 26 2013 *)"
			],
			"xref": [
				"Cf. A108520, A137444."
			],
			"keyword": "sign,easy",
			"offset": "0,2",
			"author": "_Paul Curtz_, Apr 17 2008",
			"references": 3,
			"revision": 18,
			"time": "2019-04-21T02:18:24-04:00",
			"created": "2008-06-29T03:00:00-04:00"
		}
	]
}