{
	"greeting": "Greetings from The On-Line Encyclopedia of Integer Sequences! http://oeis.org/",
	"query": "id:A137075",
	"count": 1,
	"start": 0,
	"results": [
		{
			"number": 137075,
			"data": "2,3,7,27,223,473,4943,49777,222327,273393,477277,499423,499473,973393,2733943,4932923,4993443,4994777,4997927,49342927,49924277,49972927,49993443,49994223,49994777,97339223,492942927,494342927,497332327,497794473,497993923,499293443,499932923,499947327,499972927,499979277,499979327",
			"name": "Numbers k such that k and k^2 use only the digits 2, 3, 4, 7 and 9.",
			"comment": [
				"Generated with DrScheme."
			],
			"link": [
				"Jonathan Wellons, \u003ca href=\"/A137075/b137075.txt\"\u003eTable of n, a(n) for n = 1..200\u003c/a\u003e",
				"J. Wellons, \u003ca href=\"http://jonathanwellons.com/shared-digits/\"\u003eTables of Shared Digits\u003c/a\u003e"
			],
			"example": [
				"497242372972927^2 = 247249977479747443472274947329."
			],
			"keyword": "base,nonn",
			"offset": "1,1",
			"author": "Jonathan Wellons (wellons(AT)gmail.com), Jan 22 2008",
			"references": 1,
			"revision": 7,
			"time": "2021-07-05T11:13:31-04:00",
			"created": "2008-06-29T03:00:00-04:00"
		}
	]
}