{
	"greeting": "Greetings from The On-Line Encyclopedia of Integer Sequences! http://oeis.org/",
	"query": "id:A137210",
	"count": 1,
	"start": 0,
	"results": [
		{
			"number": 137210,
			"data": "1,84,252,12717,177744,189264,143747328",
			"name": "Numbers n such that abundance(n) = abundance(sigma(n)).",
			"example": [
				"abundance(84) = sigma(84) - 2(84) = 56 = abundance(224) = abundance(sigma(84)), so 84 is a term in the sequence."
			],
			"mathematica": [
				"abund[n_] := DivisorSigma[1,n]-2n; l = {}; For[i = 1, i \u003c= 10^6, i++, If[abund[i] == abund[DivisorSigma[1, i]], l = Append[l, i]]]; l"
			],
			"keyword": "nonn",
			"offset": "1,2",
			"author": "_Joseph L. Pe_, Mar 05 2008",
			"ext": [
				"a(7) from _Donovan Johnson_, Apr 27 2008"
			],
			"references": 0,
			"revision": 3,
			"time": "2014-02-11T19:05:43-05:00",
			"created": "2008-06-29T03:00:00-04:00"
		}
	]
}