{
	"greeting": "Greetings from The On-Line Encyclopedia of Integer Sequences! http://oeis.org/",
	"query": "id:A137012",
	"count": 1,
	"start": 0,
	"results": [
		{
			"number": 137012,
			"data": "1,5,11,15,1515",
			"name": "Numbers k such that k and k^2 use only the digits 1, 2, 5 and 9.",
			"comment": [
				"Generated with DrScheme."
			],
			"link": [
				"J. Wellons, \u003ca href=\"http://jonathanwellons.com/shared-digits/\"\u003eTables of Shared Digits\u003c/a\u003e"
			],
			"example": [
				"1515^2 = 2295225."
			],
			"keyword": "base,nonn",
			"offset": "1,2",
			"author": "Jonathan Wellons (wellons(AT)gmail.com), Jan 22 2008",
			"references": 0,
			"revision": 4,
			"time": "2021-07-05T12:01:54-04:00",
			"created": "2008-06-29T03:00:00-04:00"
		}
	]
}