{
	"greeting": "Greetings from The On-Line Encyclopedia of Integer Sequences! http://oeis.org/",
	"query": "id:A137107",
	"count": 1,
	"start": 0,
	"results": [
		{
			"number": 137107,
			"data": "2,7,22,27,28,88,222,278,288,472,478,882,972,2788,2878,4722,4778,4788,8788,8882,28772,28788,49272,49277,49472,49722,49777,49778,49788,49827,88277,88472,88878,99722,278788,278978,279272,287972,299788,477278,478277,492222,492878,497788,499472,499478,887288,887972,888228,942222,942278,999472",
			"name": "Numbers k such that k and k^2 use only the digits 2, 4, 7, 8 and 9.",
			"comment": [
				"Generated with DrScheme."
			],
			"link": [
				"Jonathan Wellons, \u003ca href=\"/A137107/b137107.txt\"\u003eTable of n, a(n) for n = 1..633\u003c/a\u003e",
				"J. Wellons, \u003ca href=\"http://jonathanwellons.com/shared-digits/\"\u003eTables of Shared Digits\u003c/a\u003e"
			],
			"example": [
				"492792849479827^2 = 242844792498447429944479949929."
			],
			"keyword": "base,nonn",
			"offset": "1,1",
			"author": "Jonathan Wellons (wellons(AT)gmail.com), Jan 22 2008",
			"references": 1,
			"revision": 6,
			"time": "2021-07-05T10:46:09-04:00",
			"created": "2008-06-29T03:00:00-04:00"
		}
	]
}