{
	"greeting": "Greetings from The On-Line Encyclopedia of Integer Sequences! http://oeis.org/",
	"query": "id:A137264",
	"count": 1,
	"start": 0,
	"results": [
		{
			"number": 137264,
			"data": "1,2,2,1,2,1,2,1,0,2,0,1,2,1,0,0,2,0,1,2,0,1,0,2,1,2,1,2,1,2,1,0,2,1,2,0,0,1,0,0,2,1,2,1,2,0,0,1,2,1,0,2,1,0,0,0,2,0,1,2,1,2,1,2,1,2,0,1,2,1,0,2,0,0,1,0,2,1,2,1,2,1,2,0,1,0,2,1,2,1,0,2,1,2,1,0,0,2,0,0,1,0",
			"name": "Prime number gaps read modulo 3.",
			"comment": [
				"Conjecture: The only digit that is repeated in the sequence is 0 except for n=2 and n=3 where 2 repeats. So 1 may be followed by 2 or 0; 2 may be followed by 1 or 0; 0 may be followed by 0 or 1 or 2. this has been confirmed for the first million prime gaps.",
				"The conjecture is true, because any three numbers whose differences are (1, 1) or (2, 2) will form a complete residue system modulo 3, and hence one of them will be a multiple of 3. - _Karl W. Heuer_, Mar 16 2016",
				"See comments at A269364. - _Antti Karttunen_, Mar 17 2016"
			],
			"link": [
				"Terence Tao, \u003ca href=\"https://terrytao.wordpress.com/2016/03/14/biases-between-consecutive-primes/\"\u003eBiases between consecutive primes\u003c/a\u003e, blog entry March 14, 2016"
			],
			"mathematica": [
				"n=1000;(*The length of the list*) Mod[Differences[Table[Prime[i], {i, n}]], 3]"
			],
			"program": [
				"(Scheme) (define (A137264 n) (modulo (A001223 n) 3)) ;; _Antti Karttunen_, Mar 16 2016"
			],
			"xref": [
				"Cf. A001223.",
				"Cf. also A269364, A270189, A270190, A270191, A270192."
			],
			"keyword": "easy,nonn",
			"offset": "1,2",
			"author": "Noel H. Patson (n.patson(AT)cqu.edu.au), Mar 12 2008",
			"references": 11,
			"revision": 14,
			"time": "2016-03-20T12:53:01-04:00",
			"created": "2008-06-29T03:00:00-04:00"
		}
	]
}