{
	"greeting": "Greetings from The On-Line Encyclopedia of Integer Sequences! http://oeis.org/",
	"query": "id:A137420",
	"count": 1,
	"start": 0,
	"results": [
		{
			"number": 137420,
			"data": "0,1,3,1,1,1,1,1,1,2,4,7,2,1,2,1,1,1,2,1,14,1,1,2,4,1,120,1,3,1,4,1,2,6,1,1,5,1,1,5,2,1,11,2,409,1,1,7,3,2,1,11,142,1,3,1,44,1,1,27,1,3,1,1,100,1,39,14,2,16,1,1,11,1,2,29,2,1,1,1,3,4,1,1,1,12,1,1,118,7,9,1,1,6",
			"name": "Continued fraction expansion of sum(n=1..infinity,(-1)^(n+1)/n^n) = integral(x=0..1) x^(x) dx.",
			"comment": [
				"Cf. A083648 for decimal expansion."
			],
			"link": [
				"Wikipedia, \u003ca href=\"http://en.wikipedia.org/wiki/Sophomore%27s_dream\"\u003eSophomore's dream\u003c/a\u003e."
			],
			"maple": [
				"sd1 := proc(n) local i, tren; tren := 0: for i from 1 to n do tren := (-1)^(i+1)*(1/i^(i)) + tren: od; RETURN(tren); end: numtheory[cfrac] (sd1(300),150,'quotients');"
			],
			"keyword": "nonn,cofr",
			"offset": "1,3",
			"author": "_Jani Melik_, Apr 16 2008",
			"references": 1,
			"revision": 2,
			"time": "2012-03-31T10:24:25-04:00",
			"created": "2008-06-29T03:00:00-04:00"
		}
	]
}