{
	"greeting": "Greetings from The On-Line Encyclopedia of Integer Sequences! http://oeis.org/",
	"query": "id:A137912",
	"count": 1,
	"start": 0,
	"results": [
		{
			"number": 137912,
			"data": "1,2,3,4,5,4,6,7,8,5,9,10,11,5,12,13,14,7,16,17,18,8,19,6,20,21,22,9,23,24,25,26,27,6,28,29,7,30,31,11,32,33,34,35,36,12,37,38,39,40,41,8,13,42,43,44,45,46,47,14,48,49,50,7,51,52,15,53,54,55,9,56,57,58,16,59,60",
			"name": "Greatest of at least two consecutive numbers whose product is A045619(n).",
			"comment": [
				"A045619(n) = A000142(A137911(n))/A000142(a(n)-1) for n\u003e1."
			],
			"link": [
				"R. Zumkeller, \u003ca href=\"/A137912/b137912.txt\"\u003eTable of n, a(n) for n = 1..5000\u003c/a\u003e"
			],
			"xref": [
				"Cf. A000142, A045619, A137911."
			],
			"keyword": "nonn",
			"offset": "1,2",
			"author": "_Reinhard Zumkeller_, Feb 27 2008",
			"references": 5,
			"revision": 7,
			"time": "2020-04-26T22:47:40-04:00",
			"created": "2008-06-29T03:00:00-04:00"
		}
	]
}