{
	"greeting": "Greetings from The On-Line Encyclopedia of Integer Sequences! http://oeis.org/",
	"query": "id:A137755",
	"count": 1,
	"start": 0,
	"results": [
		{
			"number": 137755,
			"data": "5,7,7,9,31,9,11,49,49,11,13,71,209,71,13,15,97,351,351,97,15,17,127,545,1471,545,127,17,19,161,799,2561,2561,799,161,19,21,199,1121,4159,10625,4159,1121,199,21",
			"name": "Nontrivial numerators (left to right) of Leibniz's harmonic-like triangle.",
			"example": [
				"1/1; --\u003e",
				"1/2, 1/2;  --\u003e",
				"1/3, 5/6, 1/3; --\u003e 5",
				"1/4, 7/12, 7/12, 1/4; --\u003e 7 7",
				"1/5, 9/20, 31/30, 9/20, 1/5; --\u003e 9 31 9"
			],
			"xref": [
				"Cf. A003506; A007622; A046201; A046204; A046205; A046206; A046208; A046212; A137752; A137753; A137754."
			],
			"keyword": "frac,nonn,tabl",
			"offset": "1,1",
			"author": "_Mohammad K. Azarian_, Feb 10 2008",
			"references": 14,
			"revision": 7,
			"time": "2013-06-22T16:06:10-04:00",
			"created": "2008-06-29T03:00:00-04:00"
		}
	]
}