{
	"greeting": "Greetings from The On-Line Encyclopedia of Integer Sequences! http://oeis.org/",
	"query": "id:A137472",
	"count": 1,
	"start": 0,
	"results": [
		{
			"number": 137472,
			"data": "2,3,29,41,71,191,239,701,2309,2531,4229,5261,6491,6971,8009,10559,11279,11393,11789,12203,12329,14519,17021,18041,18719,20369,23561,23633,28499,33329,34499,37409,38453,41051,41843,42359,44159",
			"name": "Primes p such that p^3 +- (p+1) are primes.",
			"link": [
				"Vincenzo Librandi, \u003ca href=\"/A137472/b137472.txt\"\u003eTable of n, a(n) for n = 1..1000\u003c/a\u003e"
			],
			"example": [
				"2^3 +- 3 -\u003e ( 5,11) (primes);",
				"3^3 +- 4 -\u003e (23,31) (primes)."
			],
			"maple": [
				"a:=proc(n): if isprime(ithprime(n)^3+ithprime(n)+1)=true and isprime(ithprime(n)^3-ithprime(n)-1)=true then ithprime(n) else end if end proc: seq(a(n),n= 1..4000); # _Emeric Deutsch_, Apr 29 2008"
			],
			"mathematica": [
				"Select[Prime[Range[900]],PrimeQ[ #^3-(#+1)]\u0026\u0026PrimeQ[ #^3+(#+1)]\u0026]"
			],
			"keyword": "nonn,easy",
			"offset": "1,1",
			"author": "_Vladimir Joseph Stephan Orlovsky_, Apr 21 2008",
			"ext": [
				"More terms from _Stefan Steinerberger_ and _Emeric Deutsch_, Apr 26 2008"
			],
			"references": 1,
			"revision": 11,
			"time": "2019-02-06T02:20:32-05:00",
			"created": "2008-06-29T03:00:00-04:00"
		}
	]
}