{
	"greeting": "Greetings from The On-Line Encyclopedia of Integer Sequences! http://oeis.org/",
	"query": "id:A137976",
	"count": 1,
	"start": 0,
	"results": [
		{
			"number": 137976,
			"data": "3,13,34,144,377,1597,4181,17711,46368,196418,514229,2178309,5702887,24157817",
			"name": "Fibonacci numbers (A000045) not in A103311.",
			"comment": [
				"Sequence of last digits: a(2n-1) mod 10 = a(2n) mod 10 = A130893(n). - _Paul Curtz_, May 07 2008"
			],
			"keyword": "nonn",
			"offset": "1,1",
			"author": "_Paul Curtz_, May 01 2008",
			"ext": [
				"Edited by _N. J. A. Sloane_, May 08 2008"
			],
			"references": 1,
			"revision": 5,
			"time": "2012-03-30T18:51:57-04:00",
			"created": "2008-06-29T03:00:00-04:00"
		}
	]
}