{
	"greeting": "Greetings from The On-Line Encyclopedia of Integer Sequences! http://oeis.org/",
	"query": "id:A138762",
	"count": 1,
	"start": 0,
	"results": [
		{
			"number": 138762,
			"data": "13008,8861225070,13000005000,38318210940,51451234488,64352692512,68484878220",
			"name": "Average of twin primes k such that k = p1^3 + p2^2, where p1 and p2 are consecutive primes, and p1 \u003c p2.",
			"example": [
				"Numbers 13007 and 13009 are twin primes. Their average 13008 equals 23^3 + 29^2, where 23 and 29 are consecutive primes. Thus, 13008 is in this sequence. - _Tanya Khovanova_, Jul 21 2021"
			],
			"mathematica": [
				"a={};Do[p1=Prime[n];p2=Prime[n+1];pp=p1^3+p2^2;If[PrimeQ[pp-1]\u0026\u0026PrimeQ[pp+1],AppendTo[a,pp]],{n,16^3}];Print[a];"
			],
			"keyword": "nonn,more",
			"offset": "1,1",
			"author": "_Vladimir Joseph Stephan Orlovsky_, May 15 2008",
			"references": 0,
			"revision": 9,
			"time": "2021-08-14T20:05:37-04:00",
			"created": "2008-06-29T03:00:00-04:00"
		}
	]
}