{
	"greeting": "Greetings from The On-Line Encyclopedia of Integer Sequences! http://oeis.org/",
	"query": "id:A138062",
	"count": 1,
	"start": 0,
	"results": [
		{
			"number": 138062,
			"data": "419,521,809,1049,1151,1721,1931,1949,2027,2111,2309,2591,2729,2999,3119,3359,3371,3389,3557,3581,3821,4229,4241,4271,4337,4421,4481,4547,5021,5879,6089,6131,6299,6449,6689,6761,6779,6791,6947,7307,7331,7349,7559",
			"name": "Prime number n, lesser of twin primes, both isolated from neighboring primes by more than +- 6.",
			"link": [
				"Harvey P. Dale, \u003ca href=\"/A138062/b138062.txt\"\u003eTable of n, a(n) for n = 1..1000\u003c/a\u003e"
			],
			"example": [
				"419,421 = twin primes -- isolation +- 6 (or more)",
				"419-2 = 417 (3*139) 421+2 = 423 (3*3*47)",
				"419-4 = 415 (5*83) 421+4 = 425 (5*5*17)",
				"419-6 = 413 (7*59) 421+6 = 427 (7*61)"
			],
			"mathematica": [
				"q=6;s=\"\";For[i=1,i\u003c10^2*5,n=Prime[i];m=n+2;If[PrimeQ[m],a=0;For[j=2,j\u003c=q,If[PrimeQ[n-j]||PrimeQ[m+j],a=1;Break[]];j=j+2];If[a==0,s=s\u003c\u003eToString[n]\u003c\u003e\",\"]];i++ ];Print[s]",
				"tp6Q[b_]:=Module[{d=Differences[b]},d[[2]]==2\u0026\u0026d[[1]]\u003e6\u0026\u0026d[[3]]\u003e6]; Transpose[ Select[Partition[Prime[Range[1000]],4,1],tp6Q]][[2]] (* _Harvey P. Dale_, Jan 10 2015 *)"
			],
			"keyword": "nonn",
			"offset": "1,1",
			"author": "_Vladimir Joseph Stephan Orlovsky_, May 02 2008",
			"ext": [
				"Definition corrected by and more terms from _Harvey P. Dale_, Jan 10 2015"
			],
			"references": 1,
			"revision": 6,
			"time": "2015-01-10T13:50:13-05:00",
			"created": "2008-06-29T03:00:00-04:00"
		}
	]
}