{
	"greeting": "Greetings from The On-Line Encyclopedia of Integer Sequences! http://oeis.org/",
	"query": "id:A138846",
	"count": 1,
	"start": 0,
	"results": [
		{
			"number": 138846,
			"data": "1,2,1,4,2,1,8,4,2,1,5,8,4,2,1,3,5,8,4,2,1,6,3,5,8,4,2,1,12,6,3,5,8,4,2,1,24,12,6,3,5,8,4,2,1,17,26,13,20,10,5,8,4,2,1,11,17,26,13,20,10,5,8,4,2,1",
			"name": "Triangle read by rows: T(n,k) = A092892(n-k) if k \u003c= n, 0 otherwise.",
			"comment": [
				"A Collatz triangle.",
				"T(n,n) is first occurrence of 1 in n steps, ordered on lowest starting value."
			],
			"link": [
				"Eric Weisstein's World of Mathematics, \u003ca href=\"http://mathworld.wolfram.com/CollatzProblem.html\"\u003eCollatz Problem.\u003c/a\u003e"
			],
			"example": [
				"Triangle begins",
				"   1;",
				"   2,  1;",
				"   4,  2,  1;",
				"   8,  4,  2,  1;",
				"   5,  8,  4,  2,  1;",
				"   3,  5,  8,  4,  2,  1;",
				"   6,  3,  5,  8,  4,  2,  1;",
				"  12,  6,  3,  5,  8,  4,  2,  1;",
				"  24, 12,  6,  3,  5,  8,  4,  2,  1;",
				"  17, 26, 13, 20, 10,  5,  8,  4,  2,  1;",
				"  11, 17, 26, 13, 20, 10,  5,  8,  4,  2,  1;"
			],
			"keyword": "easy,nonn,tabl",
			"offset": "0,2",
			"author": "_Paul Barry_, Mar 31 2008, Apr 02 2008",
			"references": 1,
			"revision": 5,
			"time": "2018-09-29T18:46:31-04:00",
			"created": "2008-06-29T03:00:00-04:00"
		}
	]
}