{
	"greeting": "Greetings from The On-Line Encyclopedia of Integer Sequences! http://oeis.org/",
	"query": "id:A138974",
	"count": 1,
	"start": 0,
	"results": [
		{
			"number": 138974,
			"data": "3,43,433,3343,3433,33343,333433,334333,343333,3333433,3433333,34333333,333334333,3334333333,33333333343,333333343333,3333333333433,3433333333333,33333333433333,3333333333333343,43333333333333333,3333333333333334333,3333334333333333333",
			"name": "Primes consisting of only 3's and at most one 4 in base 10.",
			"comment": [
				"The 4 may not be the least significant digit. - _Alonso del Arte_, Dec 15 2009"
			],
			"link": [
				"T. D. Noe, \u003ca href=\"/A138974/b138974.txt\"\u003eTable of n, a(n) for n = 1..590\u003c/a\u003e (terms with up to 300 digits)"
			],
			"mathematica": [
				"Select[Union[{3}, Flatten[Table[FromDigits[Flatten[{Table[3, {j - 1}], 4, Table[3, {i - j}]}]], {i, 2, 25}, {j, 1, i}]]], PrimeQ]",
				"Join[{3},Table[Select[FromDigits/@Permutations[Join[{4},Table[3,n]]], PrimeQ],{n,20}]//Flatten]//Sort (* _Harvey P. Dale_, Apr 17 2017 *)"
			],
			"keyword": "nonn,base",
			"offset": "1,1",
			"author": "_Lekraj Beedassy_, Apr 05 2008",
			"ext": [
				"a(1), a(22-37) from _Alonso del Arte_ Dec 15 2009"
			],
			"references": 3,
			"revision": 12,
			"time": "2017-04-17T09:22:25-04:00",
			"created": "2008-06-29T03:00:00-04:00"
		}
	]
}