{
	"greeting": "Greetings from The On-Line Encyclopedia of Integer Sequences! http://oeis.org/",
	"query": "id:A138990",
	"count": 1,
	"start": 0,
	"results": [
		{
			"number": 138990,
			"data": "1,4,9,23,42,67,83,101,125,199,262,335,367,393,492,593,704,807,873,990,817,950,1101,1353,2039,2624,2371,1494,1431,1640,2927,2368,2875,2667,3570,3348,3625,3918,4531,3816,4831,4543,9357,4819,4131,6611,5735,10483",
			"name": "a(n) = Frobenius number for 4 successive primes = F[p(n),p(n+1),p(n+2),p(n+3)].",
			"comment": [
				"For Frobenius numbers for 2 successive primes see A037165",
				"For Frobenius numbers for 3 successive primes see A138989",
				"For Frobenius numbers for 4 successive primes see A138990",
				"For Frobenius numbers for 5 successive primes see A138991",
				"For Frobenius numbers for 6 successive primes see A138992",
				"For Frobenius numbers for 7 successive primes see A138993",
				"For Frobenius numbers for 8 successive primes see A138994"
			],
			"link": [
				"Harvey P. Dale, \u003ca href=\"/A138990/b138990.txt\"\u003eTable of n, a(n) for n = 1..1000\u003c/a\u003e"
			],
			"example": [
				"a(3)=23 because 23 is the largest number k such that equation 7*x_1+11*x_2+13*x_3+17*x+4 = k has no solution for any nonnegative x_i (in other words for every k\u003e23 there exists one or more solutions)"
			],
			"mathematica": [
				"Table[FrobeniusNumber[{Prime[n],Prime[n + 1], Prime[n + 2], Prime[n + 3]}], {n, 1, 100}]",
				"FrobeniusNumber/@Partition[Prime[Range[60]],4,1] (* _Harvey P. Dale_, Nov 23 2014 *)"
			],
			"xref": [
				"Cf. A028387, A037165, A079326, A138985, A138986, A138987, A138988, A138989, A138990, A138991, A138992, A138993, A138994."
			],
			"keyword": "nonn",
			"offset": "1,2",
			"author": "_Artur Jasinski_, Apr 05 2008",
			"ext": [
				"Definition corrected by _Harvey P. Dale_, Aug 15 2014"
			],
			"references": 11,
			"revision": 9,
			"time": "2016-04-10T16:46:34-04:00",
			"created": "2008-06-29T03:00:00-04:00"
		}
	]
}