{
	"greeting": "Greetings from The On-Line Encyclopedia of Integer Sequences! http://oeis.org/",
	"query": "id:A138447",
	"count": 1,
	"start": 0,
	"results": [
		{
			"number": 138447,
			"data": "5,60,1300,9800,147620,402220,2011440,3920460,12336280,49568540,73958560,213810420,395841880,526780100,898267760,1847029860,3515044180,4293364220,7538198140,10675023240,12611185080,20257287440,27245030540",
			"name": "a(n) = ((n-th prime)^6-(n-th prime^2))/12.",
			"mathematica": [
				"a = {}; Do[p = Prime[n]; AppendTo[a, (p^6 - p^2)/12, {n, 1, 50}]; a"
			],
			"program": [
				"(PARI) forprime(p=2,1e3,print1((p^6-p^2)/12\", \")) \\\\ _Charles R Greathouse IV_, Jul 15 2011"
			],
			"keyword": "nonn,easy",
			"offset": "1,1",
			"author": "_Artur Jasinski_, Mar 19 2008",
			"references": 2,
			"revision": 5,
			"time": "2013-05-13T01:48:47-04:00",
			"created": "2008-06-29T03:00:00-04:00"
		}
	]
}