{
	"greeting": "Greetings from The On-Line Encyclopedia of Integer Sequences! http://oeis.org/",
	"query": "id:A138845",
	"count": 1,
	"start": 0,
	"results": [
		{
			"number": 138845,
			"data": "1,10,115,201,1015,1029,10029,100021",
			"name": "First gap of length at least n in A137292, lower end.",
			"example": [
				"First few terms of A137292 are 1,3,4,5,7,8,10,13,14,15,17,... . The first gap of length 1 is between 1 and 3, hence a(1) = 1; the first gap of length 2 is between 10 and 13, hence a(2) = 10."
			],
			"xref": [
				"Cf. A137292, A138662."
			],
			"keyword": "nonn,base",
			"offset": "1,2",
			"author": "_Klaus Brockhaus_, Mar 31 2008",
			"references": 3,
			"revision": 2,
			"time": "2012-03-30T17:27:55-04:00",
			"created": "2008-06-29T03:00:00-04:00"
		}
	]
}