{
	"greeting": "Greetings from The On-Line Encyclopedia of Integer Sequences! http://oeis.org/",
	"query": "id:A138394",
	"count": 1,
	"start": 0,
	"results": [
		{
			"number": 138394,
			"data": "1,2,3,4,6,8,9,10,16,20,24,30,48,60,64,72,80,84,100,108,126,162,189,192,224,384,448,512,576,672,11520",
			"name": "Smallest number with a(n) divisors is in A134865.",
			"comment": [
				"The indices of elements of A005179 that belong to A134865. Sorted version of the sequence A140752. - _Max Alekseyev_, May 26 2008"
			],
			"formula": [
				"a(n) = A000005(A140753(n)) - _Max Alekseyev_, May 26 2008"
			],
			"example": [
				"8 is in this sequence because the smallest number with 8 divisors (24) is a member of A134865."
			],
			"xref": [
				"Cf. A000005, A005179, A134865, A140752, A140753."
			],
			"keyword": "more,nonn",
			"offset": "1,2",
			"author": "_J. Lowell_, May 08 2008",
			"ext": [
				"a(31)=11520 from _Ray Chandler_, Jun 30 2008"
			],
			"references": 3,
			"revision": 6,
			"time": "2012-03-30T19:00:37-04:00",
			"created": "2008-06-29T03:00:00-04:00"
		}
	]
}