{
	"greeting": "Greetings from The On-Line Encyclopedia of Integer Sequences! http://oeis.org/",
	"query": "id:A138940",
	"count": 1,
	"start": 0,
	"results": [
		{
			"number": 138940,
			"data": "2,4,10,12,14,19,23,24,36,38,39,48,62,93,106,120,134,150,196,317,320,385,586,597,654,738,945,1031,1172,1282,1404,1426,1452,1521,1752,1812,1836,1844,1862,2134,2232,2264,2667,3750,3903,3927,4274,4354,5877,6022",
			"name": "Indices n such that A019328(n) = Phi(n,10) is prime, where Phi is a cyclotomic polynomial.",
			"comment": [
				"Unique period primes (A040017) are often of the form Phi(k,10) or Phi(k,-10).",
				"Terms of this sequence which are the square of a prime, a(n)=p^2, are such that A252491(p) is prime. Apart from a(2)=2^2, there is no such term up to 26570. - _M. F. Hasler_, Jan 09 2015"
			],
			"link": [
				"Ray Chandler, \u003ca href=\"/A138940/b138940.txt\"\u003eTable of n, a(n) for n = 1..102\u003c/a\u003e (first 50 terms from Robert Price, terms 92-93 from Serge Batalov, others from Kamada link)",
				"Chris Caldwell, \u003ca href=\"http://primes.utm.edu/glossary/page.php?sort=UniquePrime\"\u003eUnique Primes\u003c/a\u003e.",
				"Makoto Kamada, \u003ca href=\"https://stdkmd.net/nrr/repunit/phin10.htm\"\u003eFactorizations of Phi_n(10)\u003c/a\u003e (including prime members up to 200000).",
				"\u003ca href=\"/index/Cy#CyclotomicPolynomialsValuesAtX\"\u003eIndex entries for cyclotomic polynomials, values at X\u003c/a\u003e"
			],
			"mathematica": [
				"Select[Range[1000], PrimeQ[Cyclotomic[#, 10]] \u0026] (* _T. D. Noe_, Mar 03 2012 *)"
			],
			"program": [
				"(PARI) for( i=1,999, isprime( polcyclo(i,10)) \u0026\u0026\u0026 print1( i\",\")) /* for PARI \u003c 2.4.2 use ...subst(polcyclo(i,x),x,10)... */"
			],
			"xref": [
				"Cf. A019328, A040017, A085035, A252491.",
				"Cf. Subsequence of A007498, contains A004023."
			],
			"keyword": "nonn",
			"offset": "1,1",
			"author": "_M. F. Hasler_, Apr 03 2008",
			"ext": [
				"a(28)-a(43) from _Robert Price_, Mar 03 2012",
				"a(44)-a(50) from _Robert Price_, Apr 14 2012",
				"a(51)-a(91) from _Ray Chandler_, Maksym Voznyy et al. (cf. Phi_n(10) link), ca. 2009",
				"a(92)-a(93) from _Serge Batalov_, Mar 28 2015"
			],
			"references": 25,
			"revision": 56,
			"time": "2019-01-17T13:44:08-05:00",
			"created": "2008-06-29T03:00:00-04:00"
		}
	]
}