{
	"greeting": "Greetings from The On-Line Encyclopedia of Integer Sequences! http://oeis.org/",
	"query": "id:A138243",
	"count": 1,
	"start": 0,
	"results": [
		{
			"number": 138243,
			"data": "1,2,1,2,3,1,1,1,1,1,2,3,5,1,1,1,1,1,1,1,1,2,3,1,7,1,1,1,1,1,1,1,1,1,1,1,2,3,5,1,1,1,1,1,1,1,1,1,1,1,1,1,1,1,1,2,3,1,1,11,1,1,1,1,1,1,1,1,1,1,1,1,1,1,1,1,1,1,2,3,5,7,1,13,1,1,1,1,1,1,1,1,1,1,1,1,1,1,1,1,1,1,1,1,1",
			"name": "Triangle read by rows: Row products give A027642.",
			"comment": [
				"Except for the first column, the n-th prime number appears in every A006093(n)-th row, beginning at the A000040(n)-th row, in the n-th column."
			],
			"link": [
				"Michel Marcus, \u003ca href=\"/A138243/b138243.txt\"\u003eRows n=0..100 of triangle, flattened\u003c/a\u003e"
			],
			"formula": [
				"T(n,k) = A000040(k) if A027642(n) mod A000040(k) = 0, 1 otherwise."
			],
			"example": [
				"Row products of the first few rows are:",
				"1 = 1",
				"2*1 = 2",
				"2*3*1 = 6",
				"1*1*1*1 = 1",
				"2*3*5*1*1 = 30",
				"1*1*1*1*1*1 = 1",
				"2*3*1*7*1*1*1 = 42",
				"1*1*1*1*1*1*1*1 = 1",
				"2*3*5*1*1*1*1*1*1 = 30"
			],
			"maple": [
				"T:= (n, k)-\u003e (p-\u003e `if`(irem(denom(bernoulli(n)), p)=0, p, 1))(ithprime(k)):",
				"seq(seq(T(n, k), k=1..n+1), n=0..20);  # _Alois P. Heinz_, Aug 27 2017"
			],
			"mathematica": [
				"Table[With[{p = Prime@ k}, p Boole[Divisible[Denominator@ BernoulliB[n - 1], p]]] /. 0 -\u003e 1, {n, 14}, {k, n}] // Flatten (* _Michael De Vlieger_, Aug 27 2017 *)"
			],
			"program": [
				"(PARI) tabl(nn) = {for (n=0, nn, dbn = denominator(bernfrac(n)); for (k=1, n+1, if (! (dbn % prime(k)), w = prime(k), w = 1); print1(w, \", \"); ); print; ); } \\\\ _Michel Marcus_, Aug 27 2017"
			],
			"xref": [
				"Cf. A006093, A027642."
			],
			"keyword": "nonn,tabl",
			"offset": "0,2",
			"author": "_Mats Granvik_, Mar 08 2008",
			"ext": [
				"Offset corrected by _Alois P. Heinz_, Aug 27 2017"
			],
			"references": 3,
			"revision": 20,
			"time": "2017-08-28T08:10:33-04:00",
			"created": "2008-06-29T03:00:00-04:00"
		}
	]
}