{
	"greeting": "Greetings from The On-Line Encyclopedia of Integer Sequences! http://oeis.org/",
	"query": "id:A138550",
	"count": 1,
	"start": 0,
	"results": [
		{
			"number": 138550,
			"data": "1,0,1,1,5,16,75,366,2016,11936,75678,507575,3575693,26289408,200709665,1584482382,12888498820,107698656192,922140333952,8072379904752,72108967554160,656190909218560,6074106708205200,57118680813847840",
			"name": "Central moment sequence of t^2 coefficient in det(tI-A) for random matrix A in USp(6).",
			"comment": [
				"Let the random variable X be the coefficient of t^2 in the characteristic polynomial det(tI-A) of a random matrix in USp(6) (6x6 complex matrices that are unitary and symplectic). Then a(n) = E[(X-1)^n] is the n-th central moment of X since E[X]=1 (see A138549).",
				"Dimension of space of invariant tensors in second fundamental representation of Sp(6). - _Bruce Westbury_, Dec 05 2014"
			],
			"link": [
				"Kiran S. Kedlaya and Andrew V. Sutherland, \u003ca href=\"http://arxiv.org/abs/0803.4462\"\u003eHyperelliptic curves, L-polynomials and random matrices\u003c/a\u003e, arXiv:0803.4462 [math.NT], 2008-2010."
			],
			"formula": [
				"a(n) = Sum_{k=0..n}Binomial(n,k)(-1)^{n-k}*A138549(k)."
			],
			"example": [
				"a(4) = 5 because E[(X-1)^4] = 5 for X the t^2 coeff of det(tI-A) in USp(6)."
			],
			"program": [
				"(Lie) p_tensor(n,[0,1,0],C3)|[0,0,0]"
			],
			"xref": [
				"Cf. A138540, A138549, A251591."
			],
			"keyword": "nonn",
			"offset": "0,5",
			"author": "_Andrew V. Sutherland_, Mar 24 2008",
			"references": 2,
			"revision": 23,
			"time": "2014-12-05T15:10:00-05:00",
			"created": "2008-06-29T03:00:00-04:00"
		}
	]
}