{
	"greeting": "Greetings from The On-Line Encyclopedia of Integer Sequences! http://oeis.org/",
	"query": "id:A138676",
	"count": 1,
	"start": 0,
	"results": [
		{
			"number": 138676,
			"data": "1,2,3,4,7,4,9,6,3,12,6,30,5,1,4,43,10,7,36,57,54,31,60,45,88,27,7,21,34,98,1,120,128,62,128,133,5,84,44,22,128,112,128,172,128,67,210,105,128",
			"name": "a(n) = prime(n)^7 mod prime(n-1).",
			"comment": [
				"Related sequences type prime(n)^k mod prime(n-1) (k=1,2,3,4)",
				"prime(n) mod prime(n-1) is given in A001223",
				"prime(n)^2 mod prime(n-1) is given in A038702",
				"prime(n)^3 mod prime(n-1) is given in A138672",
				"prime(n)^4 mod prime(n-1) is given in A138673",
				"prime(n)^5 mod prime(n-1) is given in A138674",
				"prime(n)^6 mod prime(n-1) is given in A138675",
				"prime(n)^7 mod prime(n-1) is given in A138676",
				"prime(n)^8 mod prime(n-1) is given in A138677",
				"prime(n)^9 mod prime(n-1) is given in A138678",
				"prime(n)^10 mod prime(n-1) is given in A138679",
				"prime(n)^11 mod prime(n-1) is given in A138680",
				"prime(n)^12 mod prime(n-1) is given in A138681",
				"a(n) = 128 if prime(n-1) and prime(n) are twin primes and prime(n-1)\u003e128. - _Robert Israel_, Feb 12 2020"
			],
			"link": [
				"Robert Israel, \u003ca href=\"/A138676/b138676.txt\"\u003eTable of n, a(n) for n = 2..10000\u003c/a\u003e"
			],
			"example": [
				"a(1)=1 because 3^7 = 1 mod 2",
				"a(2)=2 because 5^7 = 2 mod 3"
			],
			"maple": [
				"seq(ithprime(n)\u0026^7 mod ithprime(n-1),n=2..100); # _Robert Israel_, Feb 12 2020"
			],
			"mathematica": [
				"Table[Mod[Prime[n]^7, Prime[n - 1]], {n, 2, 50}]",
				"(* The following program is more efficient because it only generates each prime once, but it is less easy to understand: *)",
				"PowerMod[Last[#],7,First[#]]\u0026/@Partition[Prime[Range[60]],2,1] (* _Harvey P. Dale_, Sep 02 2016 *)"
			],
			"program": [
				"(MAGMA) [NthPrime(n)^7 mod NthPrime(n-1): n in [2..50]];  // Bruno Berselli, May 23 2011"
			],
			"xref": [
				"Cf. A001223, A038702, A138672, A138673, A138674, A138675, A138676, A138677, A138678, A138679, A138680, A138681."
			],
			"keyword": "nonn,look",
			"offset": "2,2",
			"author": "_Artur Jasinski_, Mar 26 2008",
			"references": 10,
			"revision": 17,
			"time": "2020-02-12T14:08:04-05:00",
			"created": "2008-06-29T03:00:00-04:00"
		}
	]
}