{
	"greeting": "Greetings from The On-Line Encyclopedia of Integer Sequences! http://oeis.org/",
	"query": "id:A139445",
	"count": 1,
	"start": 0,
	"results": [
		{
			"number": 139445,
			"data": "3,4,5,10,11,13,41,55,66,94,104,325,363,424,672,734,818,1044,1389,1595,1728,2870,3149,3922,5352,9431,11586,13991,17507",
			"name": "Numbers n such that primorial(n)/2 + 32 is prime.",
			"comment": [
				"a(30)\u003e25000. - _Robert Price_, Dec 28 2016"
			],
			"mathematica": [
				"k = 1/2; a = {}; Do[k = k*Prime[n]; If[PrimeQ[k + 32], Print[n]; AppendTo[a, n]], {n, 325}]; a"
			],
			"xref": [
				"Cf. A067026, A067027, A139439-A139457, A103514."
			],
			"keyword": "nonn,more",
			"offset": "1,1",
			"author": "_Artur Jasinski_, Apr 21 2008",
			"ext": [
				"a(13)-a(22) from _Ray Chandler_, Jun 16 2013",
				"a(23)-a(29) from _Robert Price_, Dec 28 2016"
			],
			"references": 5,
			"revision": 9,
			"time": "2016-12-29T02:31:53-05:00",
			"created": "2008-06-29T03:00:00-04:00"
		}
	]
}