{
	"greeting": "Greetings from The On-Line Encyclopedia of Integer Sequences! http://oeis.org/",
	"query": "id:A139349",
	"count": 1,
	"start": 0,
	"results": [
		{
			"number": 139349,
			"data": "2,1,1,7,7,4,2,4,0,0,6,3,6,6,1,4,4,4,0,8,7,2,8,0,4,0,4,0,9,3,7,1,3,0,2,1,3,3,0,7,1,8,5,3,5,5,3,6,4,1,7,4,0,6,1,7,5,4,3,5,6,5,6,6,7,8,9,4,6,1,6,1,8,5,2,9,6,3,3,7,1,6,9,2,4,2,6,8,3,7,9,4,9,2,4,6,5,3,3,1,8,7,3,3,6",
			"name": "Decimal expansion of negated secant of the golden ratio. That is, the decimal expansion of -sec((1+sqrt(5))/2).",
			"comment": [
				"By the Lindemann-Weierstrass theorem, this constant is transcendental. - _Charles R Greathouse IV_, May 13 2019"
			],
			"link": [
				"\u003ca href=\"/index/Tra#transcendental\"\u003eIndex entries for transcendental numbers\u003c/a\u003e"
			],
			"example": [
				"sec(A001622) = -21.1774240063661444087..."
			],
			"mathematica": [
				"RealDigits[-Sec[GoldenRatio],10,120][[1]] (* _Harvey P. Dale_, Dec 08 2011 *)"
			],
			"program": [
				"(PARI) -1/cos((sqrt(5)+1)/2) \\\\ _Charles R Greathouse IV_, May 13 2019"
			],
			"xref": [
				"Cf. A001622, A094214, A104457, A098317, A002390, A139339, A139340, A139341, A139342, A139345, A139346, A139347, A139348."
			],
			"keyword": "nonn,cons",
			"offset": "2,1",
			"author": "_Mohammad K. Azarian_, Apr 15 2008",
			"ext": [
				"Offset corrected by _Mohammad K. Azarian_, Dec 13 2008",
				"Sign in definition added by _R. J. Mathar_, Feb 05 2009"
			],
			"references": 4,
			"revision": 17,
			"time": "2019-05-14T21:26:56-04:00",
			"created": "2008-06-29T03:00:00-04:00"
		}
	]
}