{
	"greeting": "Greetings from The On-Line Encyclopedia of Integer Sequences! http://oeis.org/",
	"query": "id:A139300",
	"count": 1,
	"start": 0,
	"results": [
		{
			"number": 139300,
			"data": "4,1024,288230376151711744",
			"name": "2^(2p - 1)/8, where p is a Mersenne prime A000668(n).",
			"formula": [
				"a(n) = 2^(2*A000668(n)-1)/8 = A139294(n)/8."
			],
			"keyword": "bref,nonn",
			"offset": "1,1",
			"author": "_Omar E. Pol_, Apr 13 2008",
			"references": 3,
			"revision": 4,
			"time": "2012-03-30T17:33:55-04:00",
			"created": "2008-06-29T03:00:00-04:00"
		}
	]
}