{
	"greeting": "Greetings from The On-Line Encyclopedia of Integer Sequences! http://oeis.org/",
	"query": "id:A139962",
	"count": 1,
	"start": 0,
	"results": [
		{
			"number": 139962,
			"data": "23,71,167,311,431,479,503,719,743,839,887,911,983,1031,1151,1319,1367,1439,1559,1847,2063,2111,2207,2351,2543,2591,2663,2879,2927,2999,3023,3167,3191,3359,3407,3767,4007,4391,4583,4703,4799,4919",
			"name": "Primes of the form 23x^2+22xy+23y^2.",
			"comment": [
				"Discriminant=-1632. See A139827 for more information."
			],
			"link": [
				"Vincenzo Librandi and Ray Chandler, \u003ca href=\"/A139962/b139962.txt\"\u003eTable of n, a(n) for n = 1..10000\u003c/a\u003e [First 1000 terms from Vincenzo Librandi]",
				"N. J. A. Sloane et al., \u003ca href=\"https://oeis.org/wiki/Binary_Quadratic_Forms_and_OEIS\"\u003eBinary Quadratic Forms and OEIS\u003c/a\u003e (Index to related sequences, programs, references)"
			],
			"formula": [
				"The primes are congruent to {23, 71, 95, 143, 167, 215, 311, 335} (mod 408)."
			],
			"mathematica": [
				"Union[QuadPrimes2[23, 22, 23, 10000], QuadPrimes2[23, -22, 23, 10000]] (* see A106856 *)"
			],
			"program": [
				"(MAGMA) [ p: p in PrimesUpTo(5000) | p mod 408 in [23, 71, 95, 143, 167, 215, 311, 335]]; // _Vincenzo Librandi_, Aug 02 2012"
			],
			"keyword": "nonn,easy",
			"offset": "1,1",
			"author": "_T. D. Noe_, May 02 2008",
			"references": 2,
			"revision": 16,
			"time": "2014-08-05T14:16:31-04:00",
			"created": "2008-06-29T03:00:00-04:00"
		}
	]
}