{
	"greeting": "Greetings from The On-Line Encyclopedia of Integer Sequences! http://oeis.org/",
	"query": "id:A139644",
	"count": 1,
	"start": 0,
	"results": [
		{
			"number": 139644,
			"data": "109,421,541,709,1009,1129,1201,1381,1429,1549,1621,1789,1801,2221,2269,2389,2521,2689,3049,3061,3109,3229,3301,3361,3469,3529,3889,4201,4561,4621,4729,4789,4909,5209,5569,5581,5749,5821,5881,6301",
			"name": "Primes of the form x^2 + 105*y^2.",
			"comment": [
				"Discriminant=-420. See A139643 for more information.",
				"The primes are congruent to {1, 109, 121, 169, 289, 361} (mod 420)."
			],
			"link": [
				"Vincenzo Librandi and Ray Chandler, \u003ca href=\"/A139644/b139644.txt\"\u003eTable of n, a(n) for n = 1..10000\u003c/a\u003e (first 1000 terms from Vincenzo Librandi).",
				"N. J. A. Sloane et al., \u003ca href=\"https://oeis.org/wiki/Binary_Quadratic_Forms_and_OEIS\"\u003eBinary Quadratic Forms and OEIS\u003c/a\u003e (Index to related sequences, programs, references)"
			],
			"mathematica": [
				"QuadPrimes2[1, 0, 105, 10000] (* see A106856 *)"
			],
			"program": [
				"(MAGMA) [ p: p in PrimesUpTo(7000) | p mod 420 in {1, 109, 121, 169, 289, 361}]; // _Vincenzo Librandi_, Jul 28 2012",
				"(MAGMA) k:=105; [p: p in PrimesUpTo(7000) | NormEquation(k, p) eq true]; // _Bruno Berselli_, Jun 01 2016"
			],
			"keyword": "nonn,easy",
			"offset": "1,1",
			"author": "_T. D. Noe_, Apr 29 2008",
			"references": 3,
			"revision": 20,
			"time": "2016-06-01T12:34:21-04:00",
			"created": "2008-06-29T03:00:00-04:00"
		}
	]
}