{
	"greeting": "Greetings from The On-Line Encyclopedia of Integer Sequences! http://oeis.org/",
	"query": "id:A139536",
	"count": 1,
	"start": 0,
	"results": [
		{
			"number": 139536,
			"data": "101,1009,10007,100003,1000003,100000037,100000007,1000000007,100000000019,100000000003,10000000000037,100000000000031,1000000000000037,10000000000000061,100000000000000013",
			"name": "Smallest prime starting with 1 and followed by a string of n 0's.",
			"comment": [
				"Not the same as A139535 though most entries match. (First dissimilarity occurs for n=19: A139535(19)=1000000000000000000409; A139536(19)=10000000000000000000139.)"
			],
			"link": [
				"Harvey P. Dale, \u003ca href=\"/A139536/b139536.txt\"\u003eTable of n, a(n) for n = 1..997\u003c/a\u003e"
			],
			"mathematica": [
				"Table[Module[{k=1},While[CompositeQ[10^IntegerLength[k] FromDigits[ PadRight[ {1},n,0]]+k],k+=2];10^IntegerLength[k] FromDigits[ PadRight[ {1},n,0]]+k],{n,2,20}] (* _Harvey P. Dale_, Aug 07 2021 *)"
			],
			"keyword": "nonn,base",
			"offset": "1,1",
			"author": "_Lekraj Beedassy_, Apr 25 2008",
			"references": 2,
			"revision": 9,
			"time": "2021-08-07T13:24:23-04:00",
			"created": "2008-06-29T03:00:00-04:00"
		}
	]
}