{
	"greeting": "Greetings from The On-Line Encyclopedia of Integer Sequences! http://oeis.org/",
	"query": "id:A139807",
	"count": 1,
	"start": 0,
	"results": [
		{
			"number": 139807,
			"data": "1,2,2,3,3,5,4,8,7,11,11,17,16,25,24,35,35,50,49,70,69,94,96,129,129,172,174,227,232,298,303,389,396,498,513,639,655,814,834,1025,1057,1287,1326,1610,1657,1995,2063,2469,2548,3039,3138,3720,3851,4539,4696,5523",
			"name": "Number of distinct values of Product_{p is a part of P} (p-1) when P ranges over all partitions of n.",
			"link": [
				"Max Alekseyev, \u003ca href=\"/A139807/a139807.txt\"\u003eProof of the conjecture\u003c/a\u003e"
			],
			"formula": [
				"Conjecture: G.f. is x/(1-x)+((1-x^12)/((1-x^2)*(1-x^5)))*(1/Product_{k\u003e0} (1-x^(prime(k)+1))), i.e. a(n) = 1 + number of partitions of n into parts of the form p+1, p a prime, excluding 12 and including 2 and 5. Added May 28 2008: The conjecture is correct! See the link. - _Max Alekseyev_"
			],
			"maple": [
				"A139807 := proc(n) local g,i,p ; g := (1-x^12)/(1-x^2)/(1-x^5) ; for i from 1 do p := ithprime(i) ; if p \u003e n then break ; fi ; g := taylor(g/(1-x^(p+1)),x=0,n+1) ; od: coeftayl( g+1/(1-x),x=0,n) ; end: seq(A139807(n),n=1..80) ; # _R. J. Mathar_, May 29 2008"
			],
			"xref": [
				"Cf. A034891."
			],
			"keyword": "nonn",
			"offset": "1,2",
			"author": "_Vladeta Jovovic_, May 23 2008",
			"ext": [
				"More terms from _R. J. Mathar_, May 29 2008"
			],
			"references": 1,
			"revision": 9,
			"time": "2015-10-03T23:26:46-04:00",
			"created": "2008-06-29T03:00:00-04:00"
		}
	]
}