{
	"greeting": "Greetings from The On-Line Encyclopedia of Integer Sequences! http://oeis.org/",
	"query": "id:A139656",
	"count": 1,
	"start": 0,
	"results": [
		{
			"number": 139656,
			"data": "313,337,433,601,673,937,1153,1249,1297,1609,1777,1873,1993,2089,2161,2473,2521,2617,2713,2833,2857,3121,3169,3433,3457,3769,3793,4057,4177,4273,4657,4729,4801,4969,4993,5113,5209,5281,5521,5641,5737",
			"name": "Primes of the form x^2 + 312*y^2.",
			"comment": [
				"Discriminant=-1248. See A139643 for more information.",
				"The primes are congruent to {1, 25, 49, 121, 217, 289} (mod 312)."
			],
			"link": [
				"Vincenzo Librandi and Ray Chandler, \u003ca href=\"/A139656/b139656.txt\"\u003eTable of n, a(n) for n = 1..10000\u003c/a\u003e (first 1000 terms from Vincenzo Librandi).",
				"N. J. A. Sloane et al., \u003ca href=\"https://oeis.org/wiki/Binary_Quadratic_Forms_and_OEIS\"\u003eBinary Quadratic Forms and OEIS\u003c/a\u003e (Index to related sequences, programs, references)"
			],
			"mathematica": [
				"QuadPrimes2[1, 0, 312, 10000] (* see A106856 *)"
			],
			"program": [
				"(MAGMA) [ p: p in PrimesUpTo(7000) | p mod 312 in {1, 25, 49, 121, 217, 289}]; // _Vincenzo Librandi_, Jul 29 2012",
				"(MAGMA) k:=312; [p: p in PrimesUpTo(6000) | NormEquation(k, p) eq true]; // _Bruno Berselli_, Jun 01 2016"
			],
			"keyword": "nonn,easy",
			"offset": "1,1",
			"author": "_T. D. Noe_, Apr 29 2008",
			"references": 2,
			"revision": 21,
			"time": "2016-06-01T12:33:36-04:00",
			"created": "2008-06-29T03:00:00-04:00"
		}
	]
}