{
	"greeting": "Greetings from The On-Line Encyclopedia of Integer Sequences! http://oeis.org/",
	"query": "id:A139688",
	"count": 1,
	"start": 0,
	"results": [
		{
			"number": 139688,
			"data": "1,4,40,1216,123776,44030464,56185705472,261929007759360,4520504755804536832",
			"name": "Half the number of n X n binary matrices with row sum i equal to column sum i, i in 1..n.",
			"keyword": "nonn",
			"offset": "1,2",
			"author": "_R. H. Hardin_, Jun 13 2008",
			"references": 0,
			"revision": 4,
			"time": "2012-03-31T12:35:07-04:00",
			"created": "2008-06-29T03:00:00-04:00"
		}
	]
}