{
	"greeting": "Greetings from The On-Line Encyclopedia of Integer Sequences! http://oeis.org/",
	"query": "id:A139311",
	"count": 1,
	"start": 0,
	"results": [
		{
			"number": 139311,
			"data": "11,2,141,5,51,60,21,127,129,24,19,54,8,57,25,9,16,4,56,53,7,10,73,574,47,607,6,48,20,87,3,8808,90,96,31,537,15,84,219,121,97,22,45,226,52,35,223,55,111,63,112,531,13,49,113,80,119,17,1193,2120,161,2235,123,561",
			"name": "First differences of A139310.",
			"reference": [
				"E. Angelini, \"Jeux de suites\", in Dossier Pour La Science, pp. 32-35, Volume 59 (Jeux math'), April/June 2008, Paris."
			],
			"link": [
				"J. Schoenfield, \u003ca href=\"/A139311/b139311.txt\"\u003eTable of n, a(n) for n = 1..1000\u003c/a\u003e"
			],
			"keyword": "nonn",
			"offset": "1,1",
			"author": "_N. J. A. Sloane_, Jun 08 2008",
			"ext": [
				"More terms from _Jon E. Schoenfield_, May 23 2010"
			],
			"references": 2,
			"revision": 6,
			"time": "2013-08-31T19:33:48-04:00",
			"created": "2008-06-29T03:00:00-04:00"
		}
	]
}