{
	"greeting": "Greetings from The On-Line Encyclopedia of Integer Sequences! http://oeis.org/",
	"query": "id:A139663",
	"count": 1,
	"start": 0,
	"results": [
		{
			"number": 139663,
			"data": "521,569,601,641,809,881,1049,1249,1361,1481,1609,1889,2081,2089,2129,2161,2441,2521,2609,2729,3041,3121,3169,3329,3449,3761,3769,3929,4001,4241,4289,4481,4729,4801,4889,4969,5009,5209,5281,5521,5641",
			"name": "Primes of the form x^2 + 520*y^2.",
			"comment": [
				"Discriminant = -2080. See A139643 for more information.",
				"The primes are congruent to {1, 9, 49, 81, 121, 129, 209, 289, 321, 329, 361, 441} (mod 520)."
			],
			"link": [
				"Vincenzo Librandi and Ray Chandler, \u003ca href=\"/A139663/b139663.txt\"\u003eTable of n, a(n) for n = 1..10000\u003c/a\u003e (first 1000 terms from Vincenzo Librandi).",
				"N. J. A. Sloane et al., \u003ca href=\"https://oeis.org/wiki/Binary_Quadratic_Forms_and_OEIS\"\u003eBinary Quadratic Forms and OEIS\u003c/a\u003e (Index to related sequences, programs, references)"
			],
			"mathematica": [
				"QuadPrimes2[1, 0, 520, 10000] (* see A106856 *)"
			],
			"program": [
				"(MAGMA) [ p: p in PrimesUpTo(7000) | p mod 520 in {1, 9, 49, 81, 121, 129, 209, 289, 321, 329, 361, 441}]; // _Vincenzo Librandi_, Jul 29 2012",
				"(MAGMA) k:=520; [p: p in PrimesUpTo(6000) | NormEquation(k, p) eq true]; // _Bruno Berselli_, Jun 01 2016"
			],
			"keyword": "nonn,easy",
			"offset": "1,1",
			"author": "_T. D. Noe_, Apr 29 2008",
			"references": 2,
			"revision": 19,
			"time": "2016-06-01T12:34:00-04:00",
			"created": "2008-06-29T03:00:00-04:00"
		}
	]
}