{
	"greeting": "Greetings from The On-Line Encyclopedia of Integer Sequences! http://oeis.org/",
	"query": "id:A139106",
	"count": 1,
	"start": 0,
	"results": [
		{
			"number": 139106,
			"data": "10,100101,100101011101,100101011101011101,1001010111010111010111011111,100101011101011101011101111101011111,100101011101011101011101111101011111011101,1001010111010111010111011111010111110111010111011111,100101011101011101011101111101011111011101011101111101111101,1001010111010111010111011111010111110111010111011111011111010111110111,100101011101011101011101111101011111011101011101111101111101011111011101011111,1001010111010111010111011111010111110111010111011111011111010111110111010111110111011111",
			"name": "Bisection of A139101.",
			"formula": [
				"a(n) = A139101(2n). - _R. J. Mathar_, Apr 25 2008"
			],
			"maple": [
				"A139101 := proc(n) option remember ; local a,p; if n = 1 then RETURN(1); else a := 10*A139101(n-1) ; for p from ithprime(n-1)+1 to ithprime(n)-1 do a := 10*a+1 ; od: fi ; RETURN(a) ; end: A139106 := proc(n) A139101(2*n) ; end: seq(A139106(n),n=1..12) ; # _R. J. Mathar_, Apr 25 2008"
			],
			"xref": [
				"Cf. A139101."
			],
			"keyword": "easy,nonn,base,less",
			"offset": "1,1",
			"author": "_Omar E. Pol_, Apr 08 2008",
			"ext": [
				"More terms from _R. J. Mathar_, Apr 25 2008"
			],
			"references": 1,
			"revision": 7,
			"time": "2015-10-03T23:15:03-04:00",
			"created": "2008-06-29T03:00:00-04:00"
		}
	]
}