{
	"greeting": "Greetings from The On-Line Encyclopedia of Integer Sequences! http://oeis.org/",
	"query": "id:A139824",
	"count": 1,
	"start": 0,
	"results": [
		{
			"number": 139824,
			"data": "1,7,7,7,2,0,8,0,1,6,1,1,9,6,9,1,6,2,6,2,3,1,1,2,5,1,9,7,2,4,4,0,3,5,3,3,1,2,3,8,0,0,6,4,1,2,5,1,1,2,6,3,1,2,3,3,2,2,9,0,6,6,6,3,2,1,6,2,0,0,5,5,8,7,8,9,7,5,2,3,4,5,6,7,6,6,4,2,8,5,4,1,7,8,9,6,5,9,4,7,5,0,4,5,1",
			"name": "Decimal expansion of constant c = Sum_{n\u003e=0} C(1/2^n, n)*2^n.",
			"formula": [
				"c = Sum_{n\u003e=0} log(1 + 2/2^n)^n/n! ."
			],
			"example": [
				"c = 1.77720801611969162623112519724403533123800641251126312332290666...",
				"c = 1 + (1/2)*2 - (3/32)*2^2 + (35/1024)*2^3 - (7285/524288)*2^4 +...",
				"c = 1 + log(2) + log(3/2)^2/2! + log(5/4)^3/3! + log(9/8)^4/4! +...",
				"The formulas for this constant illustrate the identity:",
				"Sum_{n\u003e=0} log(1 + q^n*x)^n*y^n/n! = Sum_{n\u003e=0} binomial(q^n*y, n)*x^n."
			],
			"program": [
				"(PARI) a(n)=local(c=sum(m=0,n+2,log(1+2/2^m)^m/m!));floor(c*10^n)%10"
			],
			"xref": [
				"Cf. A139823, A139825."
			],
			"keyword": "cons,nonn",
			"offset": "1,2",
			"author": "_Paul D. Hanna_, May 01 2008",
			"references": 2,
			"revision": 2,
			"time": "2012-03-30T18:37:10-04:00",
			"created": "2008-06-29T03:00:00-04:00"
		}
	]
}