{
	"greeting": "Greetings from The On-Line Encyclopedia of Integer Sequences! http://oeis.org/",
	"query": "id:A139875",
	"count": 1,
	"start": 0,
	"results": [
		{
			"number": 139875,
			"data": "43,67,163,211,331,379,499,547,571,739,883,907,1051,1171,1579,1723,1747,2011,2083,2179,2251,2347,2683,2731,2851,3019,3067,3187,3259,3571,3691,3739,3907,3931,4027,4099,4243,4363,4603,5107,5419,5443",
			"name": "Primes of the form 4x^2 + 4xy + 43y^2.",
			"comment": [
				"Discriminant = -672. See A139827 for more information."
			],
			"link": [
				"Vincenzo Librandi and Ray Chandler, \u003ca href=\"/A139875/b139875.txt\"\u003eTable of n, a(n) for n = 1..10000\u003c/a\u003e [First 1000 terms from Vincenzo Librandi]",
				"N. J. A. Sloane et al., \u003ca href=\"https://oeis.org/wiki/Binary_Quadratic_Forms_and_OEIS\"\u003eBinary Quadratic Forms and OEIS\u003c/a\u003e (Index to related sequences, programs, references)"
			],
			"formula": [
				"The primes are congruent to {43, 67, 163} (mod 168)."
			],
			"mathematica": [
				"QuadPrimes2[4, -4, 43, 10000] (* see A106856 *)"
			],
			"program": [
				"(MAGMA) [ p: p in PrimesUpTo(6000) | p mod 168 in {43, 67, 163}]; // _Vincenzo Librandi_, Jul 30 2012"
			],
			"keyword": "nonn,easy",
			"offset": "1,1",
			"author": "_T. D. Noe_, May 02 2008",
			"references": 1,
			"revision": 18,
			"time": "2017-05-22T11:42:13-04:00",
			"created": "2008-06-29T03:00:00-04:00"
		}
	]
}