{
	"greeting": "Greetings from The On-Line Encyclopedia of Integer Sequences! http://oeis.org/",
	"query": "id:A139867",
	"count": 1,
	"start": 0,
	"results": [
		{
			"number": 139867,
			"data": "2,83,107,167,227,263,347,503,563,743,827,887,1163,1187,1223,1283,1427,1487,1583,1667,1823,1847,2063,2087,2207,2243,2543,2903,3167,3203,3407,3467,3527,3803,3863,3923,4127,4463,4523,4583,4703,4787",
			"name": "Primes of the form 2x^2 + 2xy + 83y^2.",
			"comment": [
				"Discriminant = -660. See A139827 for more information."
			],
			"link": [
				"Vincenzo Librandi and Ray Chandler, \u003ca href=\"/A139867/b139867.txt\"\u003eTable of n, a(n) for n = 1..10000\u003c/a\u003e [First 1000 terms from Vincenzo Librandi]",
				"N. J. A. Sloane et al., \u003ca href=\"https://oeis.org/wiki/Binary_Quadratic_Forms_and_OEIS\"\u003eBinary Quadratic Forms and OEIS\u003c/a\u003e (Index to related sequences, programs, references)"
			],
			"formula": [
				"The primes are congruent to {2, 83, 107, 167, 227, 263, 347, 503, 527, 563, 623} (mod 660)."
			],
			"mathematica": [
				"QuadPrimes2[2, -2, 83, 10000] (* see A106856 *)"
			],
			"program": [
				"(MAGMA) [ p: p in PrimesUpTo(5000) | p mod 660 in {2, 83, 107, 167, 227, 263, 347, 503, 527, 563, 623}]; // _Vincenzo Librandi_, Jul 30 2012"
			],
			"keyword": "nonn,easy",
			"offset": "1,1",
			"author": "_T. D. Noe_, May 02 2008",
			"references": 2,
			"revision": 18,
			"time": "2017-03-07T15:49:54-05:00",
			"created": "2008-06-29T03:00:00-04:00"
		}
	]
}