{
	"greeting": "Greetings from The On-Line Encyclopedia of Integer Sequences! http://oeis.org/",
	"query": "id:A139054",
	"count": 1,
	"start": 0,
	"results": [
		{
			"number": 139054,
			"data": "2,3,5,7,11,13,17,19,101,103,107,109,1009,1013,1019,1021,10007,10009,10037,10039,100003,100019,100043,100049,1000003,1000033,1000037,1000039,10000019,10000079,10000103,10000121,100000007,100000037,100000039,100000049",
			"name": "Array read by rows: row n lists the first 4 primes with n digits.",
			"comment": [
				"First differs from A000040 at a(9). - _Omar E. Pol_, Feb 13 2014"
			],
			"formula": [
				"a(4n-3) = A003617(n). - _Omar E. Pol_, Feb 13 2014"
			],
			"xref": [
				"Cf. A000040, A003617, A073914, A139052, A139053."
			],
			"keyword": "base,nonn,tabf",
			"offset": "1,1",
			"author": "_Omar E. Pol_, Apr 08 2008",
			"ext": [
				"More terms from _Michel Marcus_, Feb 13 2014"
			],
			"references": 2,
			"revision": 14,
			"time": "2014-02-17T23:41:20-05:00",
			"created": "2008-06-29T03:00:00-04:00"
		}
	]
}