{
	"greeting": "Greetings from The On-Line Encyclopedia of Integer Sequences! http://oeis.org/",
	"query": "id:A139534",
	"count": 1,
	"start": 0,
	"results": [
		{
			"number": 139534,
			"data": "0,1,5,11,21,23,25,26,33,35,36,43,53,61,70,71,86,88,110,113,116,123,135,138,163,166,168,175,176,180,186,193,196,208,225,226,235,243,253,268,273,278,281,310,333,355,373,376,386,410,413,435,438,453,455,460,478",
			"name": "Numbers k such that numbers 24*k + 17 and 24*k + 19 are twin primes.",
			"link": [
				"Amiram Eldar, \u003ca href=\"/A139534/b139534.txt\"\u003eTable of n, a(n) for n = 1..10000\u003c/a\u003e"
			],
			"mathematica": [
				"a = {}; Do[If[PrimeQ[24 n + 17] \u0026\u0026 PrimeQ[24 n + 19], AppendTo[a, n]], {n, 0, 2000}]; a"
			],
			"program": [
				"(MAGMA) [k:k in [0..500]|IsPrime(24*k + 17) and IsPrime(24*k + 19)]; // _Marius A. Burtea_, Dec 31 2019"
			],
			"xref": [
				"Cf. A137920, A139404, A139533."
			],
			"keyword": "nonn",
			"offset": "1,3",
			"author": "_Artur Jasinski_, Apr 25 2008",
			"references": 2,
			"revision": 11,
			"time": "2019-12-31T08:20:34-05:00",
			"created": "2008-06-29T03:00:00-04:00"
		}
	]
}