{
	"greeting": "Greetings from The On-Line Encyclopedia of Integer Sequences! http://oeis.org/",
	"query": "id:A139109",
	"count": 1,
	"start": 0,
	"results": [
		{
			"number": 139109,
			"data": "10,10010,10010101110,10010101110101110,10010101110101110101110,1001010111010111010111011111010,10010101110101110101110111110101111101110,10010101110101110101110111110101111101110,10010101110101110101110111110101111101110101110,10010101110101110101110111110101111101110101110111110111110,1001010111010111010111011111010111110111010111011111011111010111110",
			"name": "Bisection of A139103.",
			"link": [
				"Omar E. Pol, \u003ca href=\"http://polprimos.com\"\u003eDeterminacion geometrica de los numeros primos y perfectos\u003c/a\u003e."
			],
			"xref": [
				"Cf. A139103."
			],
			"keyword": "easy,nonn",
			"offset": "1,1",
			"author": "_Omar E. Pol_, Apr 08 2008",
			"ext": [
				"More terms from _R. J. Mathar_, May 22 2008"
			],
			"references": 0,
			"revision": 4,
			"time": "2014-03-11T01:34:11-04:00",
			"created": "2008-06-29T03:00:00-04:00"
		}
	]
}