{
	"greeting": "Greetings from The On-Line Encyclopedia of Integer Sequences! http://oeis.org/",
	"query": "id:A139771",
	"count": 1,
	"start": 0,
	"results": [
		{
			"number": 139771,
			"data": "1,2,6,60,20160,23543886643200,41101884684637603112076605638990269409595309948928000000",
			"name": "Exponents of prime factorization are factorial numbers in descending order.",
			"formula": [
				"a(n) = 2^(n!) * 3^((n-1)!) * 5^((n-2)!) * ... * p(n+1)^(0!);"
			],
			"example": [
				"a(4) = (2^6)(3^2)(5)(7) = 20160"
			],
			"program": [
				"J Program",
				"*/ @ (p: ^ (!@|.)) @ i."
			],
			"keyword": "easy,nonn",
			"offset": "1,2",
			"author": "Dan Brown (dbrown(AT)certicom.com), May 20 2008",
			"references": 0,
			"revision": 1,
			"time": "2008-06-29T03:00:00-04:00",
			"created": "2008-06-29T03:00:00-04:00"
		}
	]
}