{
	"greeting": "Greetings from The On-Line Encyclopedia of Integer Sequences! http://oeis.org/",
	"query": "id:A139522",
	"count": 1,
	"start": 0,
	"results": [
		{
			"number": 139522,
			"data": "2,7,23,149,9967,27514363,217357018990141,1606507138380520696666019221,25278175600230973831063754126661264411663401021548343,2658247789993020763205588174060503375422404932907883834101966812060033051648561545028435381434723862291",
			"name": "Denominators of an Egyptian fraction for log(2), using only prime numbers and allowing repetitions.",
			"comment": [
				"Good approximation up to 800 decimal digits."
			],
			"maple": [
				"P:=proc(n) local a,i; a:=evalf(ln(2),100); for i from 1 by 1 to n do if 1/ithprime(i)\u003ca then a:=a-1/ithprime(i); print(a); print(ithprime(i)); fi; od; end: P(100000);"
			],
			"xref": [
				"Cf. A139514-A139521, A139523."
			],
			"keyword": "easy,nonn,frac",
			"offset": "0,1",
			"author": "_Paolo P. Lava_ and _Giorgio Balzarotti_, Apr 28 2008",
			"references": 2,
			"revision": 5,
			"time": "2015-06-29T02:08:51-04:00",
			"created": "2008-06-29T03:00:00-04:00"
		}
	]
}