{
	"greeting": "Greetings from The On-Line Encyclopedia of Integer Sequences! http://oeis.org/",
	"query": "id:A140063",
	"count": 1,
	"start": 0,
	"results": [
		{
			"number": 140063,
			"data": "1,4,14,31,55,86,124,169,221,280,346,419,499,586,680,781,889,1004,1126,1255,1391,1534,1684,1841,2005,2176,2354,2539,2731,2930,3136,3349,3569,3796,4030,4271,4519,4774,5036",
			"name": "Binomial transform of [1, 3, 7, 0, 0, 0, ...].",
			"link": [
				"Derek Kinsella, \u003ca href=\"http://www.90thkilmacudscouts.com/maths/circles_lines_soln.html\"\u003ePlane division by lines and circles\u003c/a\u003e",
				"\u003ca href=\"/index/Rec#order_03\"\u003eIndex entries for linear recurrences with constant coefficients\u003c/a\u003e, signature (3,-3,1)."
			],
			"formula": [
				"A007318 * [1, 3, 7, 0, 0, 0, ...].",
				"O.g.f.: x*(1 + x + 5x^2)/(1-x)^3. - _R. J. Mathar_, May 06 2008",
				"a(n) = 7*n^2/2 - 15*n/2 + 5 = 3*a(n-1) - 3*a(n-2) + a(n-3). - _R. J. Mathar_, Jul 31 2009",
				"a(n) = a(n-1) + 7*n - 11 (with a(1)=1). - _Vincenzo Librandi_, Nov 24 2010"
			],
			"example": [
				"a(4) = 31 = (1, 3, 3, 1) dot (1, 3, 7, 0) = (1 + 9 + 21 + 0)."
			],
			"mathematica": [
				"s = 1; lst = {s}; Do[s += n + 2; AppendTo[lst, s], {n, 1, 265, 7}]; lst # _Zerinvary Lajos_, Jul 11 2009"
			],
			"program": [
				"(PARI) a(n)=n*(7*n-15)/2+5 \\\\ _Charles R Greathouse IV_, Jun 17 2017"
			],
			"keyword": "nonn,easy",
			"offset": "1,2",
			"author": "_Gary W. Adamson_, May 03 2008",
			"ext": [
				"More terms from _R. J. Mathar_, May 06 2008"
			],
			"references": 2,
			"revision": 22,
			"time": "2018-11-23T22:14:26-05:00",
			"created": "2008-06-29T03:00:00-04:00"
		}
	]
}