{
	"greeting": "Greetings from The On-Line Encyclopedia of Integer Sequences! http://oeis.org/",
	"query": "id:A140511",
	"count": 1,
	"start": 0,
	"results": [
		{
			"number": 140511,
			"data": "7,16,30,67,93,154,192,279,436,499,705,862,948,1131,1434,1771,1894,2280,2557,2704,3162,3489,4009,4755,5152,5358,5779,5997,6448,8130,8649,9454,9735,11176,11479,12406,13368,14031,15054,16111,16476,18337,18723,19504",
			"name": "a(n) = ((prime(n))^2 + prime(n+1))/2.",
			"link": [
				"G. C. Greubel, \u003ca href=\"/A140511/b140511.txt\"\u003eTable of n, a(n) for n = 2..1000\u003c/a\u003e"
			],
			"mathematica": [
				"(#[[1]]^2+#[[2]])/2\u0026/@Partition[Prime[Range[2,50]],2,1] (* _Harvey P. Dale_, Oct 15 2015 *)"
			],
			"program": [
				"(PARI) for(n=2,50, print1(((prime(n))^2 + prime(n+1))/2, \", \")) \\\\ _G. C. Greubel_, Feb 23 2017"
			],
			"keyword": "nonn",
			"offset": "2,1",
			"author": "_Alexander R. Povolotsky_, Jun 30 2008",
			"ext": [
				"More terms from _Harvey P. Dale_, Oct 15 2015"
			],
			"references": 2,
			"revision": 7,
			"time": "2017-02-23T22:36:54-05:00",
			"created": "2009-01-09T03:00:00-05:00"
		}
	]
}