{
	"greeting": "Greetings from The On-Line Encyclopedia of Integer Sequences! http://oeis.org/",
	"query": "id:A140386",
	"count": 1,
	"start": 0,
	"results": [
		{
			"number": 140386,
			"data": "5,23,29,43,107,109,137,163,197,199,227,229,317,347,359",
			"name": "Erroneous version of A000040.",
			"comment": [
				"Original definition: Primes of the form ((x+y)/3+2)/(x-y), where x=prime and y=composite. The current sequence is largely incorrect because many values are missing; for example x=17 with y=16 contributes 13, x=23 with y=22 contributes 17, x=53 with y=52 contributes 37 etc. - _R. J. Mathar_, Apr 25 2010",
				"All primes up to 100,000 are members. 835 is not a member. - _Charles R Greathouse IV_, Nov 25 2014"
			],
			"program": [
				"(PARI) is(n)=forprime(x=5,,my(y=(3*n*x-x-6)/(3*n+1));if(denominator(y)==1 \u0026\u0026 !isprime(y), return(isprime(n)))) \\\\ may loop forever if not a member; _Charles R Greathouse IV_, Nov 25 2014"
			],
			"keyword": "dead",
			"offset": "1,1",
			"author": "_Juri-Stepan Gerasimov_, Aug 28 2008",
			"references": 0,
			"revision": 10,
			"time": "2014-11-25T17:29:20-05:00",
			"created": "2008-06-29T03:00:00-04:00"
		}
	]
}