{
	"greeting": "Greetings from The On-Line Encyclopedia of Integer Sequences! http://oeis.org/",
	"query": "id:A140619",
	"count": 1,
	"start": 0,
	"results": [
		{
			"number": 140619,
			"data": "19,43,139,211,283,307,523,547,571,739,787,811,1051,1459,1531,1579,1627,1723,1867,1987,2131,2251,2371,2659,2683,2851,3163,3187,3307,3571,3643,3691,3739,3907,4003,4099,4219,4243,4363,4483,4507,5011",
			"name": "Primes of the form 19x^2+4xy+28y^2.",
			"comment": [
				"Discriminant=-2112. Also primes of the form 19x^2+10xy+43y^2.",
				"In base 12, the sequence is 17, 37, E7, 157, 1E7, 217, 377, 397, 3E7, 517, 557, 577, 737, X17, X77, XE7, E37, EE7, 10E7, 1197, 1297, 1377, 1457, 1657, 1677, 1797, 19E7, 1X17, 1XE7, 2097, 2137, 2177, 21E7, 2317, 2397, 2457, 2537, 2557, 2637, 2717, 2737, 2X97, where X is for 10 and E is for 11. Moreover, the discriminant is -1280. - _Walter Kehowski_, Jun 01 2008"
			],
			"link": [
				"Vincenzo Librandi and Ray Chandler, \u003ca href=\"/A140619/b140619.txt\"\u003eTable of n, a(n) for n = 1..10000\u003c/a\u003e [First 1000 terms from Vincenzo Librandi]",
				"N. J. A. Sloane et al., \u003ca href=\"https://oeis.org/wiki/Binary_Quadratic_Forms_and_OEIS\"\u003eBinary Quadratic Forms and OEIS\u003c/a\u003e (Index to related sequences, programs, references)"
			],
			"mathematica": [
				"Union[QuadPrimes2[19, 4, 28, 10000], QuadPrimes2[19, -4, 28, 10000]] (* see A106856 *)"
			],
			"xref": [
				"Cf. A140633."
			],
			"keyword": "nonn,easy",
			"offset": "1,1",
			"author": "_T. D. Noe_, May 19 2008",
			"references": 2,
			"revision": 22,
			"time": "2014-08-05T14:16:31-04:00",
			"created": "2008-06-29T03:00:00-04:00"
		}
	]
}