{
	"greeting": "Greetings from The On-Line Encyclopedia of Integer Sequences! http://oeis.org/",
	"query": "id:A140245",
	"count": 1,
	"start": 0,
	"results": [
		{
			"number": 140245,
			"data": "1,0,4,4,7,7,5,1,2,1,8,5,9,2,9,9,2,3,8,7,8,7,7,1,0,3,4,7,9,9,1,2,7,1,6,6,0,0,5,1,3,1,5,9,7,6,2,4,5,5,6,6,1,6,4,7,6,0,5,0,1,1,8,0,0,8,8,5,1,2,9,3,5,8,0,7,2,7,4,5,1,5,6,7,4,5,8,9,0,9,7,9,3,3,3,5,7,1,8,3,2,5,8,5,8",
			"name": "Decimal expansion of 180*arccos(-1/4)/Pi.",
			"comment": [
				"Angle in degrees of the obtuse angle of the obtuse scalene triangle with sides of lengths 2, 3 and 4, the scalene triangle with least integer side lengths.",
				"A140241 + A140243 + A140245 = 180."
			],
			"formula": [
				"180*arccos(-1/4)/Pi = 180*A140244/Pi."
			],
			"example": [
				"104.477512185929923878771034799127166005131597624556616476050118008851293580..."
			],
			"program": [
				"(PARI) 180*acos(-1/4)/Pi"
			],
			"xref": [
				"Cf. A140239, A140240, A140241, A140242, A140243, A140244, A140246, A140247, A140248, A140249."
			],
			"keyword": "cons,nonn",
			"offset": "3,3",
			"author": "_Rick L. Shepherd_, May 14 2008",
			"references": 11,
			"revision": 3,
			"time": "2012-03-30T17:36:44-04:00",
			"created": "2008-06-29T03:00:00-04:00"
		}
	]
}