{
	"greeting": "Greetings from The On-Line Encyclopedia of Integer Sequences! http://oeis.org/",
	"query": "id:A140436",
	"count": 1,
	"start": 0,
	"results": [
		{
			"number": 140436,
			"data": "1,1,1,2,2,2,2,3,3,4,5,5,6,7,8,9,12,12,15,16,19,21,25,27,30,33,36,40,45,49,58,63,72,79,91,100,114,127,147,163,183,204,229,252,281,311,343,378,418,469,517,571,633,692,763,830,918,999,1087,1189",
			"name": "a(n) is the maximum number of partitions of n with the same product.",
			"link": [
				"Giovanni Resta, \u003ca href=\"/A140436/b140436.txt\"\u003eTable of n, a(n) for n = 1..100\u003c/a\u003e"
			],
			"example": [
				"There are two pairs of partitions of 6 that give the same product: the partitions {1,1,2,2} and {1,1,4} have product 4 and the partitions {2,2,2} and {2,4} have product 8. You can't find three different partitions of 6 that give the same product. Hence a(6) = 2."
			],
			"mathematica": [
				"Table[Max[Transpose[Tally[Times @@@ IntegerPartitions[n]]][[2]]], {n, 60}]"
			],
			"program": [
				"(Haskell)",
				"import Data.List (sort, group)",
				"a140436 n = a140436_list !! (n-1)",
				"a140436_list = map (maximum . map length . group . sort . map product) $",
				"                   tail pss where",
				"   pss = [] : map p [1..]",
				"   p u = [u] : [v : ps | v \u003c- [1..u], ps \u003c- pss !! (u - v), v \u003c= head ps]",
				"-- _Reinhard Zumkeller_, Oct 10 2013"
			],
			"xref": [
				"Cf. A034891, A212721."
			],
			"keyword": "nice,nonn",
			"offset": "1,4",
			"author": "_Tanya Khovanova_, Jun 20 2008",
			"references": 10,
			"revision": 6,
			"time": "2016-05-12T13:35:23-04:00",
			"created": "2008-06-29T03:00:00-04:00"
		}
	]
}