{
	"greeting": "Greetings from The On-Line Encyclopedia of Integer Sequences! http://oeis.org/",
	"query": "id:A140534",
	"count": 1,
	"start": 0,
	"results": [
		{
			"number": 140534,
			"data": "11,199,409,431,619,641,829,1039,1061,1249,1459,1481,1669,1879,1901,2089,2111,2531,2719,2741,3371,3559,3581,3769,4001,4211,4421,5051,5261,5449,5471,5659,5869,6079,6101,6311,6521,6709,7129,7151,7549,7759,8179",
			"name": "Primes congruent to 11 or 199 mod 210.",
			"link": [
				"Vincenzo Librandi, \u003ca href=\"/A140534/b140534.txt\"\u003eTable of n, a(n) for n = 1..1000\u003c/a\u003e"
			],
			"formula": [
				"a(n) ~ 24 n log n."
			],
			"mathematica": [
				"Select[Prime[Range[1100]],MemberQ[{11,199},Mod[#,210]]\u0026] (* _Harvey P. Dale_, Jun 15 2011 *)"
			],
			"program": [
				"(MAGMA)[p: p in PrimesUpTo(9000)|p mod 210 in {11,199}] // _Vincenzo Librandi_, Dec 18 2010]"
			],
			"xref": [
				"Cf. A000040."
			],
			"keyword": "nonn,easy",
			"offset": "1,1",
			"author": "_Juri-Stepan Gerasimov_, Jul 28 2008",
			"ext": [
				"Formula from _Charles R Greathouse IV_, Mar 25 2010"
			],
			"references": 1,
			"revision": 16,
			"time": "2014-02-15T13:20:58-05:00",
			"created": "2009-01-09T03:00:00-05:00"
		}
	]
}