{
	"greeting": "Greetings from The On-Line Encyclopedia of Integer Sequences! http://oeis.org/",
	"query": "id:A140343",
	"count": 1,
	"start": 0,
	"results": [
		{
			"number": 140343,
			"data": "0,0,0,0,1,4,9,14,14,0,-41,-122,-243,-364,-364,0,1093,3280,6561,9842,9842,0,-29525,-88574,-177147,-265720,-265720,0,797161,2391484,4782969,7174454,7174454,0,-21523361,-64570082,-129140163,-193710244,-193710244,0,581130733",
			"name": "a(n)=4a(n-1)-7a(n-2)+6a(n-3)-3a(n-4), n\u003e4.",
			"comment": [
				"This is the main sequence representing the degenerate case of sequences which equal their sixth differences, where, besides the generic a(n)=6a(n-1)-15a(n-2)+20a(n-3)-15a(n-4)+6a(n-5), cf. A135356, there is also a shorter recurrence. Another sequence of this kind is A134581."
			],
			"link": [
				"\u003ca href=\"/index/Rec#order_04\"\u003eIndex entries for linear recurrences with constant coefficients\u003c/a\u003e, signature (4,-7,6,-3)."
			],
			"formula": [
				"O.g.f.: x^4/((x^2-x+1)(3x^2-3x+1)). - _R. J. Mathar_, Jul 10 2008"
			],
			"mathematica": [
				"Join[{0},LinearRecurrence[{4,-7,6,-3},{0,0,0,1},40]] (* _Harvey P. Dale_, Mar 11 2015 *)"
			],
			"xref": [
				"Cf. A135356."
			],
			"keyword": "sign,easy",
			"offset": "0,6",
			"author": "_Paul Curtz_, May 29 2008",
			"ext": [
				"Edited and corrected by _R. J. Mathar_, Jul 10 2008"
			],
			"references": 6,
			"revision": 11,
			"time": "2015-06-13T00:52:38-04:00",
			"created": "2008-06-29T03:00:00-04:00"
		}
	]
}