{
	"greeting": "Greetings from The On-Line Encyclopedia of Integer Sequences! http://oeis.org/",
	"query": "id:A140563",
	"count": 1,
	"start": 0,
	"results": [
		{
			"number": 140563,
			"data": "2,7,11,13,17,19,31,37,43,47,53,61,67,73,79,83,97,103,107,109,127,131,137,139,149,151,157,163,167,179,181,193,197,199,211,223,227,229,241,251,257,263,271,277,281,283,307,313,317,331,337,347,349,353,367,373",
			"name": "Primes p such that p + 38 is not a prime.",
			"mathematica": [
				"Select[Prime[Range[100]],!PrimeQ[#+38]\u0026] (* _Harvey P. Dale_, Feb 02 2019 *)"
			],
			"program": [
				"(MAGMA) [p: p in PrimesUpTo(1000)|not IsPrime(p+38)] // _Vincenzo Librandi_, Dec 18 2010"
			],
			"keyword": "nonn",
			"offset": "1,1",
			"author": "_Juri-Stepan Gerasimov_, Jul 03 2008",
			"ext": [
				"Corrected (19, 349 inserted) by _R. J. Mathar_, Apr 25 2010"
			],
			"references": 0,
			"revision": 13,
			"time": "2019-02-02T12:29:07-05:00",
			"created": "2009-01-09T03:00:00-05:00"
		}
	]
}