{
	"greeting": "Greetings from The On-Line Encyclopedia of Integer Sequences! http://oeis.org/",
	"query": "id:A140258",
	"count": 1,
	"start": 0,
	"results": [
		{
			"number": 140258,
			"data": "2,6,1926,2471058,38259378,41218326,600917778,114130755846,600929334,28312987734,342397209654,722113254,15559317470256498,84332966140854,20543988255894,1314244621926,600935058,6739452314987202",
			"name": "Minimal multiples from A016089 of primes from A129729.",
			"comment": [
				"A016089 lists numbers n such that n divide n-th Lucas number A000032(n) while A129729 lists all possible prime divisors of elements of A016089 in the increasing order. This sequence lists minimal multiples from A016089 of primes from A129729."
			],
			"formula": [
				"a(n) = min { A016089(m) : A129729(n)|A016089(m) }"
			],
			"keyword": "nonn",
			"offset": "1,1",
			"author": "_Max Alekseyev_, May 16 2008",
			"references": 2,
			"revision": 3,
			"time": "2012-03-30T17:27:01-04:00",
			"created": "2008-06-29T03:00:00-04:00"
		}
	]
}