{
	"greeting": "Greetings from The On-Line Encyclopedia of Integer Sequences! http://oeis.org/",
	"query": "id:A140822",
	"count": 1,
	"start": 0,
	"results": [
		{
			"number": 140822,
			"data": "1,1,1,1,2,1,1,3,3,1,1,4,6,4,1,1,5,5,5,5,1,1,6,15,20,15,6,1,1,7,7,7,7,7,7,1,1,8,28,8,70,8,28,8,1,1,9,9,84,9,9,84,9,9,1,1,10,45,10,45,252,45,10,45,10,1",
			"name": "Triangle T(n,m) = binomial(n,gcd(n,m)) read by rows, 0\u003c=m\u003c=n.",
			"comment": [
				"Row sums are 1, 2, 4, 8, 16, 22, 64, 44, 160, 224, 474,..."
			],
			"formula": [
				"T(n,m) = A007318(n,A109004(n,m))."
			],
			"example": [
				"1;",
				"1, 1;",
				"1, 2, 1;",
				"1, 3, 3, 1;",
				"1, 4, 6, 4, 1;",
				"1, 5, 5, 5, 5, 1;",
				"1, 6, 15, 20, 15, 6, 1;",
				"1, 7, 7, 7, 7, 7, 7, 1;",
				"1, 8, 28, 8, 70, 8, 28, 8, 1;",
				"1, 9, 9, 84, 9, 9, 84, 9, 9, 1;",
				"1, 10, 45, 10, 45, 252, 45, 10, 45, 10, 1;"
			],
			"mathematica": [
				"a = Table[Table[Binomial[n, GCD[n, m]], {m, 0, n}], {n, 0, 10}]; Flatten[a]"
			],
			"keyword": "nonn,easy,tabl",
			"offset": "0,5",
			"author": "_Roger L. Bagula_ and _Gary W. Adamson_, Jul 16 2008",
			"ext": [
				"Offset corrected by _R. J. Mathar_, Nov 07 2011"
			],
			"references": 0,
			"revision": 10,
			"time": "2021-07-08T11:20:53-04:00",
			"created": "2009-01-09T03:00:00-05:00"
		}
	]
}