{
	"greeting": "Greetings from The On-Line Encyclopedia of Integer Sequences! http://oeis.org/",
	"query": "id:A140341",
	"count": 1,
	"start": 0,
	"results": [
		{
			"number": 140341,
			"data": "1,4,4,5,5,5,5,8,8,8,8,8,8,8,8,9,9,9,9,9,9,9,9,9,9,9,9,9,9,9,9,10,10,10,10,10,10,10,10,10,10,10,10,10,10,10,10,10,10,10,10,10,10,10,10,10,10,10,10,10,10,10,10,11,11,11,11,11,11,11,11,11,11,11,11,11,11,11,11,11",
			"name": "The number of bits needed to write the universal code for an Elias delta coding, the simplest asymptotically optimal code.",
			"comment": [
				"A129972 is the number of bits for Elias gamma coding 1, 3, 3, 5 and A130233 is the number of bits for Fibonacci coding of integers 2, 3, 4, 4, 5, But Elias gamma and Fibonacci coding are not asymptotically optimal."
			],
			"reference": [
				"David Salomon, Variable-length Codes for Data Compression, Springer Verlag, 2007, 191 pp."
			],
			"link": [
				"Indranil Ghosh, \u003ca href=\"/A140341/b140341.txt\"\u003eTable of n, a(n) for n = 1..10000\u003c/a\u003e",
				"Debra A. Lelewer and Daniel S. Hirschberg, \u003ca href=\"http://www.ics.uci.edu/~dan/pubs/DataCompression.html\"\u003eData Compression\u003c/a\u003e. See Section 3, \u003ca href=\"http://www.ics.uci.edu/~dan/pubs/DC-Sec3.html\"\u003eElias Delta\u003c/a\u003e.",
				"Hugh E. Williams and Justin Zobel, \u003ca href=\"http://citeseerx.ist.psu.edu/viewdoc/summary?doi=10.1.1.18.3782\"\u003eCompressing integers for fast file access\u003c/a\u003e, The Computer Journal 42 (1999), pp. 193-201."
			],
			"example": [
				"The Elias Delta Code for 10 is '11000010', having 8 bits. So, a(10) = 8. - _Indranil Ghosh_, Jan 17 2017"
			],
			"program": [
				"(PARI) a(n)=my(b=log(n+.5)\\log(2));b+log(b+1.5)\\log(2)*2+1 \\\\ _Charles R Greathouse IV_, Mar 21 2012"
			],
			"xref": [
				"Cf. A281150 - _Indranil Ghosh_, Jan 17 2017"
			],
			"keyword": "nonn,easy",
			"offset": "1,2",
			"author": "David A. Scott (biject.bwts(AT)gmail.com), May 29 2008",
			"references": 2,
			"revision": 12,
			"time": "2017-01-17T13:04:25-05:00",
			"created": "2008-06-29T03:00:00-04:00"
		}
	]
}