{
	"greeting": "Greetings from The On-Line Encyclopedia of Integer Sequences! http://oeis.org/",
	"query": "id:A141525",
	"count": 1,
	"start": 0,
	"results": [
		{
			"number": 141525,
			"data": "0,1,1,1,1,1,2,2,3,4,4,4,8,8,8,16,24,24,40,40,64,80,80,80,160,160,160,320,480,480,800,800,1280,1600,1600,1600,3200,3200,3200,6400,9600,9600,16000,16000,25600,32000,32000,32000,64000,64000,64000,128000,192000,192000,320000,320000,512000,640000,640000,640000,1280000",
			"name": "a(n) = a(n-2) + a(n-3) if n == 0 (mod 3), a(n-1) + a(n-4) if n == 0 (mod 4), otherwise a(n-2) with a(0) = 0 and a(1) = a(2) = a(3) = 1.",
			"comment": [
				"Lim_{n -\u003e infinity} \u003ca(n+1)/a(n)\u003e = 1.324717957244746, where \u003c\u003e is the expectation value."
			],
			"reference": [
				"."
			],
			"link": [
				"G. C. Greubel, \u003ca href=\"/A141525/b141525.txt\"\u003eTable of n, a(n) for n = 0..500\u003c/a\u003e"
			],
			"mathematica": [
				"a[n_]:= a[n]= If[n==0, 0, If[n\u003c4, 1, If[Mod[n, 3]==0, a[n-2] + a[n-3], If[Mod[n, 4] ==0, a[n-1] + a[n-4], a[n-1] ]]]];",
				"Table[a[n], {n, 0, 65}] (* modified by _G. C. Greubel_, Mar 29 2021 *)"
			],
			"program": [
				"(Magma)",
				"function a(n)",
				"  if n eq 0 then return 0;",
				"  elif n lt 4 then return 1;",
				"  elif (n mod 3) eq 0 then return a(n-2) + a(n-3);",
				"  elif (n mod 4) eq 0 then return a(n-1) + a(n-4);",
				"  else return a(n-1);",
				"  end if; return a;",
				"end function;",
				"[a(n): n in [0..65]]; // _G. C. Greubel_, Mar 29 2021",
				"(Sage)",
				"@CachedFunction",
				"def a(n):",
				"    if (n==0): return 0",
				"    elif (n\u003c4): return 1",
				"    elif (n%3==0): return a(n-2) + a(n-3)",
				"    elif (n%4==0): return a(n-1) + a(n-4)",
				"    else: return a(n-1)",
				"[a(n) for n in (0..65)] # _G. C. Greubel_, Mar 29 2021"
			],
			"keyword": "nonn",
			"offset": "0,7",
			"author": "_Roger L. Bagula_, Aug 11 2008",
			"ext": [
				"Edited by _G. C. Greubel_, Mar 29 2021"
			],
			"references": 1,
			"revision": 12,
			"time": "2021-03-30T05:21:00-04:00",
			"created": "2009-01-09T03:00:00-05:00"
		}
	]
}