{
	"greeting": "Greetings from The On-Line Encyclopedia of Integer Sequences! http://oeis.org/",
	"query": "id:A141758",
	"count": 1,
	"start": 0,
	"results": [
		{
			"number": 141758,
			"data": "1,2,12,24,36,72,240,480,720,1440,4320,6720,13440,20160,21600,40320,60480,64800,120960,194400,241920,302400,423360,483840,604800,846720,907200,1814400,2721600,3628800,5443200,6350400,7257600,10644480,10886400,12700800,18144000",
			"name": "Elements n of A141586 with property that A100762(n) = n.",
			"link": [
				"David Applegate and N. J. A. Sloane, \u003ca href=\"/A141758/b141758.txt\"\u003eTable of n, a(n) for n = 1..66\u003c/a\u003e"
			],
			"keyword": "nonn",
			"offset": "1,2",
			"author": "_David Applegate_ and _N. J. A. Sloane_, Sep 16 2008",
			"references": 2,
			"revision": 5,
			"time": "2014-01-21T12:30:21-05:00",
			"created": "2009-01-09T03:00:00-05:00"
		}
	]
}