{
	"greeting": "Greetings from The On-Line Encyclopedia of Integer Sequences! http://oeis.org/",
	"query": "id:A141112",
	"count": 1,
	"start": 0,
	"results": [
		{
			"number": 141112,
			"data": "2,5,7,13,37,47,67,73,83,97,137,163,167,193,197,223,227,293,307,317,353,383,397,457,463,487,557,577,587,593,613,617,643,683,733,743,773,787,827,853,863,877,947,967,977,983,1033,1087,1097,1103,1123,1163,1217,1237,1307,1367,1373",
			"name": "Primes of the form 2*x^2+5*x*y-5*y^2 (as well as of the form 7*x^2+11*x*y+2*y^2).",
			"comment": [
				"Both have discriminant = 65. Class = 2. Binary quadratic forms a*x^2+b*x*y+c*y^2 have discriminant d=b^2-4ac and gcd(a,b,c)=1."
			],
			"reference": [
				"Z. I. Borevich and I. R. Shafarevich, Number Theory. Academic Press, NY, 1966.",
				"D. B. Zagier, Zetafunktionen und quadratische Körper, Springer, 1981."
			],
			"link": [
				"Juan Arias-de-Reyna, \u003ca href=\"/A141112/b141112.txt\"\u003eTable of n, a(n) for n = 1..10000\u003c/a\u003e",
				"Peter Luschny, \u003ca href=\"https://oeis.org/wiki/User:Peter_Luschny/BinaryQuadraticForms#Implementation\"\u003eBinary Quadratic Forms\u003c/a\u003e",
				"N. J. A. Sloane et al., \u003ca href=\"https://oeis.org/wiki/Binary_Quadratic_Forms_and_OEIS\"\u003eBinary Quadratic Forms and OEIS\u003c/a\u003e (Index to related sequences, programs, references)"
			],
			"example": [
				"a(4)=37 because we can write 37=2*6^2+5*6*7-5*7^2 (or 37=7*1^2+11*1*2+2*2^2)"
			],
			"mathematica": [
				"Select[Prime[Range[250]], # == 5 || # == 13 || MatchQ[Mod[#, 65], Alternatives[2, 7, 8, 18, 28, 32, 33, 37, 47, 57, 58, 63]]\u0026] (* _Jean-François Alcover_, Oct 28 2016 *)"
			],
			"program": [
				"(Sage) # uses[binaryQF]",
				"# The function binaryQF is defined in the link 'Binary Quadratic Forms'.",
				"Q = binaryQF([2, 5, -5])",
				"print(Q.represented_positives(1373, 'prime')) # _Peter Luschny_, Aug 12 2021"
			],
			"xref": [
				"Cf. A141111."
			],
			"keyword": "nonn",
			"offset": "1,1",
			"author": "Laura Caballero Fernandez, Lourdes Calvo Moguer, Maria Josefa Cano Marquez, Oscar Jesus Falcon Ganfornina and Sergio Garrido Morales (oscfalgan(AT)yahoo.es), Jun 04 2008, Jun 05 2008",
			"references": 45,
			"revision": 23,
			"time": "2021-08-12T23:55:16-04:00",
			"created": "2008-06-29T03:00:00-04:00"
		}
	]
}