{
	"greeting": "Greetings from The On-Line Encyclopedia of Integer Sequences! http://oeis.org/",
	"query": "id:A141185",
	"count": 1,
	"start": 0,
	"results": [
		{
			"number": 141185,
			"data": "1,2,862,6688,40086,67138,133998,169986,279816,481020,521860,843376,1063156,1137456,1337152,1784610,2176660,2307082,2794248,3275662,3395830,3948472,4334320,4964242,5718550,6402580,6652620,7068780,7352178,7715292,9493110,10098576,10825182",
			"name": "a(n) = prime(prime(prime(prime(prime(prime(n)-1)-1)-1)-1)-1)-1, where prime(n) is the n-th prime.",
			"maple": [
				"p:=ithprime: seq(p(p(p(p(p(p(n)-1)-1)-1)-1)-1)-1, n=1..28); \\\\ _Juri-Stepan Gerasimov_, Oct 25 2009"
			],
			"mathematica": [
				"Table[Prime[Prime[Prime[Prime[Prime[Prime[n - 1] - 1] - 1] - 1] - 1] - 1] - 1, {n, 2, 50}] (* _Vincenzo Librandi_, Apr 05 2015 *)"
			],
			"xref": [
				"Cf. A141139. [From _Juri-Stepan Gerasimov_, Oct 25 2009]"
			],
			"keyword": "nonn",
			"offset": "1,2",
			"author": "_Juri-Stepan Gerasimov_ Jul 31 2008",
			"ext": [
				"More terms from _R. J. Mathar_, Sep 13 2008"
			],
			"references": 1,
			"revision": 15,
			"time": "2015-04-06T22:15:05-04:00",
			"created": "2009-01-09T03:00:00-05:00"
		}
	]
}