{
	"greeting": "Greetings from The On-Line Encyclopedia of Integer Sequences! http://oeis.org/",
	"query": "id:A141414",
	"count": 1,
	"start": 0,
	"results": [
		{
			"number": 141414,
			"data": "1,3,5,7,13,41,113,311,1821,10267,74587,1015453,12550793",
			"name": "Least k for which A140361(n) = k.",
			"link": [
				"\u003ca href=\"/index/Com#complexity\"\u003eIndex to sequences related to the complexity of n\u003c/a\u003e"
			],
			"example": [
				"a(1) = 3: 3 can be written as 2+1, requiring 1 operation",
				"a(2) = 5: 5 = (2+1)+2, the lowest number requiring 2 operations",
				"a(3) = 7: ((2+2)+1)+2, the lowest number requiring 3 operations",
				"a(4) = 13: (2+1)*3+2+2 (Note: 3 = 2+1 reused)",
				"a(5) = 41: (2+1)*2*6+3+2 (3 = 2+1 reused, 6 = 3*2 reused)",
				"a(6) = 113: ((2+1)*3+3+1)*9-4",
				"a(7) = 311: ((2+1)*3*3+1)*(9+2)+3",
				"a(8) = 1821: (2+(2+1))*(3+(2+2)*4)*19+16",
				"a(9) = 10267: (1+(2+(2+1))*(3*3))*(5*45-2)+9",
				"a(10) = 74587: (2+1)*(((2*(3*3)*9-2)-3)*157+160)+160"
			],
			"xref": [
				"Cf. A217032."
			],
			"keyword": "hard,more,nonn",
			"offset": "0,2",
			"author": "_Leonid Broukhis_, Aug 04 2008",
			"ext": [
				"Comment removed and three new entries added by Jeffrey Wang (jeffreyw(AT)stanford.edu), Oct 10 2009",
				"a(11)-a(12) from _Gil Dogon_, Apr 25 2013"
			],
			"references": 6,
			"revision": 12,
			"time": "2019-09-11T22:48:00-04:00",
			"created": "2009-01-09T03:00:00-05:00"
		}
	]
}