{
	"greeting": "Greetings from The On-Line Encyclopedia of Integer Sequences! http://oeis.org/",
	"query": "id:A141844",
	"count": 1,
	"start": 0,
	"results": [
		{
			"number": 141844,
			"data": "1,6,27,113,458,1839,7365,29470,117891,471577,1886322,7545303,30181229,120724934,482899755,1931599041,7726396186,30905584767,123622339093,494489356398,1977957425619,7911829702505,31647318810050,126589275240231,506357100960957",
			"name": "Expansion of (1+x)*(1+x^2)/((1-x)^2*(1+x+x^2)*(1-4*x)).",
			"comment": [
				"Old name was: a(n) = 4*a(n-1) + A042968(n), with a(0) = 1, where A042968 = \"not divisible by 4\": (1, 2, 3, 5, 6, 7, 9, 10, 11, ...).  After the correction of a(13) the definition could be simplified. - _N. J. A. Sloane_, Aug 23 2018"
			],
			"link": [
				"Michael De Vlieger, \u003ca href=\"/A141844/b141844.txt\"\u003eTable of n, a(n) for n = 0..1660\u003c/a\u003e",
				"\u003ca href=\"/index/Rec#order_05\"\u003eIndex entries for linear recurrences with constant coefficients\u003c/a\u003e, signature (5, -4, 1, -5, 4)."
			],
			"formula": [
				"a(n) = 5*a(n-1) - 4*a(n-2) + a(n-3) - 5*a(n-4) + 4*a(n-5) for n\u003e4. - _Colin Barker_, Jun 26 2017"
			],
			"example": [
				"a(3) = 4*a(2) + A042968(3) = 4*27 + 5 = 113.",
				"a(13) = 4*a(12) + A042968(13) = 4*30181229 + 18 = 120724934."
			],
			"mathematica": [
				"CoefficientList[Series[(1 + x) (1 + x^2) / ((1 - x)^2 (1 + x + x^2) (1 - 4 x)), {x, 0, 40}], x] (* _Vincenzo Librandi_, Jun 28 2017 *)",
				"Nest[Append[#, Block[{k = #[[-1, -1]] + 1}, While[Mod[k, 4] == 0, k++]; {4 #[[-1, 1]] + k, k}]] \u0026, {{1, 1}}, 24][[All, 1]] (* _Michael De Vlieger_, Jun 30 2018 *)",
				"LinearRecurrence[{5, -4, 1, -5, 4}, {1, 6, 27, 113, 458}, 25] (* _Robert G. Wilson v_, Jul 28 2018 *)"
			],
			"program": [
				"(PARI) Vec((1 + x)*(1 + x^2) / ((1 - x)^2*(1 - 4*x)*(1 + x + x^2)) + O(x^30)) \\\\ _Colin Barker_, Jun 26 2017",
				"(MAGMA) I:=[1,6,27,113,458]; [n le 5 select I[n] else 5*Self(n-1)-4*Self(n-2)+Self(n-3)-5*Self(n-4)+4*Self(n-5): n in [1..30]]; // _Vincenzo Librandi_, Jun 28 2017, Jul 28 2018"
			],
			"xref": [
				"Cf. A042968."
			],
			"keyword": "nonn",
			"offset": "0,2",
			"author": "_Gary W. Adamson_, Jul 11 2008",
			"ext": [
				"Corrected by _Charlie Neder_, Jun 22 2018",
				"Edited by _N. J. A. Sloane_, Aug 23 2018, merging old entry A288571 with this one."
			],
			"references": 1,
			"revision": 42,
			"time": "2018-09-26T02:50:22-04:00",
			"created": "2009-01-09T03:00:00-05:00"
		}
	]
}