{
	"greeting": "Greetings from The On-Line Encyclopedia of Integer Sequences! http://oeis.org/",
	"query": "id:A141420",
	"count": 1,
	"start": 0,
	"results": [
		{
			"number": 141420,
			"data": "1,2,4,6,12,24,32,64,96,128,192,256,384,576,768,1152,1440,2880,5760",
			"name": "Numbers that occur at least once in the differences between consecutive terms of A020697.",
			"example": [
				"64 qualifies because 320 - 256 = 64 and 320 is the term after 256 in A020697."
			],
			"xref": [
				"Cf. A020697."
			],
			"keyword": "nonn,more",
			"offset": "1,2",
			"author": "_J. Lowell_, Aug 05 2008",
			"ext": [
				"a(9)-a(19) from _R. J. Mathar_, Jan 23 2009"
			],
			"references": 0,
			"revision": 9,
			"time": "2021-06-19T04:51:12-04:00",
			"created": "2009-01-09T03:00:00-05:00"
		}
	]
}