{
	"greeting": "Greetings from The On-Line Encyclopedia of Integer Sequences! http://oeis.org/",
	"query": "id:A141079",
	"count": 1,
	"start": 0,
	"results": [
		{
			"number": 141079,
			"data": "1,2,12,24,12,24,56,78,48,42,184,24,152,46,260,48,102,304,110,126,60,276,250,630,24,12,24,1272,72,1156,294,476,24,676,580,374,60,286,740,644,24,1206,12,1520,1942,1880,2302,24,896,498,884,932,1124,72,1100,48",
			"name": "a(n)=abs(p(n)*p(n+3)-p(n+1)*p(n+2)), where p(n)=n-th prime.",
			"link": [
				"Harvey P. Dale, \u003ca href=\"/A141079/b141079.txt\"\u003eTable of n, a(n) for n = 1..1000\u003c/a\u003e"
			],
			"example": [
				"If n=1, then a(1)=abs(p(1)*p(4)-p(2)*p(3))=abs(2*7-3*5)=abs(14-15)=1.",
				"If n=2, then a(2)=abs(p(2)*p(5)-p(3)*p(4))=abs(3*11-5*7)=abs(33-35)=2.",
				"If n=5, then a(5)=abs(p(5)*p(8)-p(6)*p(7))=abs(11*19-13*17)=abs(209-221)=12, etc."
			],
			"maple": [
				"p:=ithprime: seq(abs(p(n)*p(n+3)-p(n+1)*p(n+2)),n=1..60); # _Emeric Deutsch_, Aug 27 2008"
			],
			"mathematica": [
				"Abs[#[[1]]*#[[4]]-#[[2]]#[[3]]]\u0026/@Partition[Prime[Range[60]],4,1] (* _Harvey P. Dale_, May 14 2019 *)"
			],
			"keyword": "nonn",
			"offset": "1,2",
			"author": "_Juri-Stepan Gerasimov_, Aug 05 2008",
			"ext": [
				"Corrected and extended by _Emeric Deutsch_, Aug 27 2008"
			],
			"references": 1,
			"revision": 10,
			"time": "2019-05-14T10:01:19-04:00",
			"created": "2009-01-09T03:00:00-05:00"
		}
	]
}