{
	"greeting": "Greetings from The On-Line Encyclopedia of Integer Sequences! http://oeis.org/",
	"query": "id:A141319",
	"count": 1,
	"start": 0,
	"results": [
		{
			"number": 141319,
			"data": "2,3,8,46,252,1558,9800,64115,428546,2921527,20220128,141746372,1004278856,7180301580,51739691584,375370204876,2739615168344,20100885190508,148179065429664,1096966770610372,8151826588836472,60787793832205004,454719634089674432",
			"name": "INVERTi transform of A141318.",
			"comment": [
				"Number of generators of degree n of the primitive Lie algebra of the Hopf algebra of 2-colored planar binary trees."
			],
			"link": [
				"Alois P. Heinz, \u003ca href=\"/A141319/b141319.txt\"\u003eTable of n, a(n) for n = 1..1000\u003c/a\u003e",
				"J.-C. Novelli and J.-Y. Thibon, \u003ca href=\"https://arxiv.org/abs/0806.3682\"\u003eFree quasi-symmetric functions and descent algebras for wreath products and noncommutative multi-symmetric functions\u003c/a\u003e, arXiv:0806.3682 [math.CO], 2008."
			],
			"maple": [
				"with(numtheory):",
				"b:= proc(n) option remember;",
				"      `if`(n=0, 1, add(add((2^d)*binomial(2*d-2,d-1),",
				"                   d=divisors(j)) *b(n-j), j=1..n)/n)",
				"    end:",
				"a:= proc(n) option remember;",
				"      `if`(n\u003c1, -1, -add(a(n-i) *b(i), i=1..n))",
				"    end:",
				"seq(a(n), n=1..30);  # _Alois P. Heinz_, Jan 27 2012"
			],
			"mathematica": [
				"b[n_] := b[n] = If[n==0, 1, Sum[Sum[2^d*Binomial[2*d-2, d-1], {d, Divisors[ j]}]*b[n-j], {j, 1, n}]/n]; a[n_] := a[n] = If[n\u003c1, -1, -Sum[a[n-i]* b[i], {i, 1, n}]]; Table[a[n], {n, 1, 30}] (* _Jean-François Alcover_, Feb 24 2016, after _Alois P. Heinz_ *)"
			],
			"xref": [
				"Cf. A025225, A141318."
			],
			"keyword": "nonn",
			"offset": "1,1",
			"author": "Jean-Yves Thibon (jyt(AT)univ-mlv.fr), Jun 26 2008",
			"references": 1,
			"revision": 23,
			"time": "2016-11-06T04:45:08-05:00",
			"created": "2008-06-29T03:00:00-04:00"
		}
	]
}