{
	"greeting": "Greetings from The On-Line Encyclopedia of Integer Sequences! http://oeis.org/",
	"query": "id:A141413",
	"count": 1,
	"start": 0,
	"results": [
		{
			"number": 141413,
			"data": "0,-1,1,-3,9,-27,81,-243,729,-2187,6561,-19683,59049,-177147,531441,-1594323,4782969,-14348907,43046721,-129140163,387420489,-1162261467,3486784401,-10460353203,31381059609,-94143178827,282429536481,-847288609443",
			"name": "Inverse binomial transform of A140962.",
			"link": [
				"Vincenzo Librandi, \u003ca href=\"/A141413/b141413.txt\"\u003eTable of n, a(n) for n = 0..1000\u003c/a\u003e",
				"\u003ca href=\"/index/Rec#order_01\"\u003eIndex entries for linear recurrences with constant coefficients\u003c/a\u003e, signature (-3)."
			],
			"formula": [
				"a(n) = (-1)^n*A133494(n-1), n\u003e0.",
				"G.f.: (-x)*(1 + 2*x)/(1+3*x). - _R. J. Mathar_, Nov 11 2008",
				"G.f.: x^2/( Q(0)+ 2*x)- x where Q(k) =  1 - x/(x*(k+1) - 1 )/Q(k+1) ; (recursively defined continued fraction). - _Sergei N. Gladkovskii_, Feb 24 2013",
				"E.g.f.: (exp(-3*x) - (1 + 6*x))/9. - _Wolfdieter Lang_, Apr 19 2017",
				"a(n) = (-3)^(n-2) for n \u003e= 2, with a(0) = 0 and a(1) = -1. - _G. C. Greubel_, Mar 30 2021"
			],
			"maple": [
				"A141413:= n-\u003e `if`(n\u003c2, -n, (-3)^(n-2)); seq(A141413(n), n=0..30); # _G. C. Greubel_, Mar 30 2021"
			],
			"mathematica": [
				"CoefficientList[Series[-x(1+2x)/(1+3x), {x, 0, 30}], x] (* _Vincenzo Librandi_, Feb 24 2013 *)",
				"Join[{0, -1},LinearRecurrence[{-3},{1},26]] (* _Ray Chandler_, Aug 12 2015 *)"
			],
			"program": [
				"(Magma) [0,-1] cat [(-3)^(n-2): n in [2..30]]; // _G. C. Greubel_, Mar 30 2021",
				"(Sage) [-n if n\u003c2 else (-3)^(n-2) for n in (0..30)] # _G. C. Greubel_, Mar 30 2021"
			],
			"xref": [
				"Cf. A285066 (alternating row sums, starting here with n \u003e= 2). - _Wolfdieter Lang_, Apr 23 2017",
				"Cf. A000244, A133494."
			],
			"keyword": "sign,easy",
			"offset": "0,4",
			"author": "_Paul Curtz_, Aug 04 2008",
			"ext": [
				"Edited and extended by _R. J. Mathar_, Nov 11 2008"
			],
			"references": 6,
			"revision": 24,
			"time": "2021-03-31T01:28:16-04:00",
			"created": "2009-01-09T03:00:00-05:00"
		}
	]
}