{
	"greeting": "Greetings from The On-Line Encyclopedia of Integer Sequences! http://oeis.org/",
	"query": "id:A141889",
	"count": 1,
	"start": 0,
	"results": [
		{
			"number": 141889,
			"data": "67,109,151,193,277,487,571,613,739,823,907,991,1033,1117,1201,1327,1453,1579,1621,1663,1747,1789,1831,1873,1999,2083,2251,2293,2377,2503,2671,2713,2797,3049,3217,3259,3301,3343,3469,3511,3637,3847,3889,3931,4057",
			"name": "Primes congruent to 4 mod 21.",
			"link": [
				"Vincenzo Librandi, \u003ca href=\"/A141889/b141889.txt\"\u003eTable of n, a(n) for n = 1..1000\u003c/a\u003e"
			],
			"formula": [
				"a(n) ~ 12n log n. - _Charles R Greathouse IV_, Jul 03 2016"
			],
			"mathematica": [
				"Select[Range[4,5000,21],PrimeQ] (* _Vladimir Joseph Stephan Orlovsky_, Apr 03 2011*)"
			],
			"program": [
				"(MAGMA) [p: p in PrimesUpTo(6000) | p mod 21 eq 4 ]; // _Vincenzo Librandi_, Aug 16 2012",
				"(PARI) is(n)=isprime(n) \u0026\u0026 n%21==4 \\\\ _Charles R Greathouse IV_, Jul 03 2016"
			],
			"xref": [
				"Cf. A000040, A124826."
			],
			"keyword": "nonn,easy",
			"offset": "1,1",
			"author": "_N. J. A. Sloane_, Jul 11 2008",
			"references": 1,
			"revision": 11,
			"time": "2016-07-03T00:43:01-04:00",
			"created": "2009-01-09T03:00:00-05:00"
		}
	]
}