{
	"greeting": "Greetings from The On-Line Encyclopedia of Integer Sequences! http://oeis.org/",
	"query": "id:A141599",
	"count": 1,
	"start": 0,
	"results": [
		{
			"number": 141599,
			"data": "1,2,4,24,288,3856,89328,2755968,103653120",
			"name": "Number of difference sets for permutations of [2n] with distinct differences.",
			"comment": [
				"Number of all-interval rows for systems with 2n notes in the octave (2n-edo).",
				"As determined by direct enumeration up to n=6, a(n) is the number of circular permutations of the integers from 0 to 2n-1 in which all \"stepping-on\" sequences terminate and one is complete. For example, 07531642 is one of the 24 such permutations for n=4, as starting at 1 and moving to the right by the number of steps indicated gives the complete sequence 1, 6, 3, 4, 5, 2, 7, 0. - _Ian Duff_, Oct 07 2018",
				"No permutations of the integers from 0 to 2n can generate such a complete sequence. - _Ian Duff_, Dec 25 2018"
			],
			"link": [
				"Zackary Baker, \u003ca href=\"https://pubs.lib.umn.edu/index.php/mjum/article/view/4154\"\u003eProperties and Calculations of Constructive Orderings of Z/nZ\u003c/a\u003e, Minnesota J. of Undergrad. Math. (2018-2019) Vol. 4, No. 1, see p. 9.",
				"E. N. Gilbert, \u003ca href=\"http://www.jstor.org/stable/2027267\"\u003eLatin squares which contain no repeated digrams\u003c/a\u003e, SIAM Rev. 7 1965 189--198. MR0179095 (31 #3346). Mentions this sequence. - _N. J. A. Sloane_, Mar 15 2014",
				"Milan Gustar, \u003ca href=\"http://www.uvnitr.cz/music_theory/rady.html\"\u003eMore information\u003c/a\u003e",
				"Milan Gustar, \u003ca href=\"http://www.uvnitr.cz/downloads.html\"\u003ePrograms and data\u003c/a\u003e"
			],
			"mathematica": [
				"A141599[n_] := With[{s = Join[{1}, #[[ ;; n - 1]], {2 n}, #[[n ;;]]] \u0026 /@ Permutations@Range[2, 2 n - 1], mcts = Mod[Differences@Ordering@#, 2 n] \u0026}, Count[mcts /@ s, _?DuplicateFreeQ, 1]]; (* _Leo C. Stein_, Nov 26 2016 *)"
			],
			"xref": [
				"See A141598 for further details. Cf. also A067601, A155914, A238838."
			],
			"keyword": "nonn,hard,more",
			"offset": "1,2",
			"author": "Milan Gustar (artech(AT)noise.cz), Sep 03 2008",
			"ext": [
				"Edited by _N. J. A. Sloane_, Mar 15 2014",
				"a(9) from _David V. Feldman_, Apr 09 2018",
				"Definition corrected by _Zack Baker_, Jul 04 2018"
			],
			"references": 6,
			"revision": 54,
			"time": "2021-11-02T12:21:44-04:00",
			"created": "2009-01-09T03:00:00-05:00"
		}
	]
}