{
	"greeting": "Greetings from The On-Line Encyclopedia of Integer Sequences! http://oeis.org/",
	"query": "id:A141925",
	"count": 1,
	"start": 0,
	"results": [
		{
			"number": 141925,
			"data": "67,113,251,389,619,757,941,1033,1171,1217,1447,1493,1723,1861,1907,1999,2137,2459,2551,2689,3011,3517,3701,3793,3931,4253,4391,4483,4621,4759,4943,5081,5449,6047,6277,6323,6553,6599,6691,6737,6829,6967,7013,7151",
			"name": "Primes congruent to 21 mod 23.",
			"link": [
				"Vincenzo Librandi, \u003ca href=\"/A141925/b141925.txt\"\u003eTable of n, a(n) for n = 1..1000\u003c/a\u003e"
			],
			"formula": [
				"a(n) ~ 22n log n. - _Charles R Greathouse IV_, Jul 02 2016"
			],
			"mathematica": [
				"Select[Range[21,20000,23],PrimeQ] (* _Vladimir Joseph Stephan Orlovsky_, May 18 2011 *)"
			],
			"program": [
				"(MAGMA) [p: p in PrimesUpTo(9000) | p mod 23 eq 21 ]; // _Vincenzo Librandi_, Aug 16 2012",
				"(PARI) is(n)=isprime(n) \u0026\u0026 n%23==21 \\\\ _Charles R Greathouse IV_, Jul 02 2016"
			],
			"xref": [
				"Cf. A000040, A141926."
			],
			"keyword": "nonn,easy",
			"offset": "1,1",
			"author": "_N. J. A. Sloane_, Jul 11 2008",
			"references": 4,
			"revision": 11,
			"time": "2016-07-02T00:47:08-04:00",
			"created": "2009-01-09T03:00:00-05:00"
		}
	]
}