{
	"greeting": "Greetings from The On-Line Encyclopedia of Integer Sequences! http://oeis.org/",
	"query": "id:A141055",
	"count": 1,
	"start": 0,
	"results": [
		{
			"number": 141055,
			"data": "-1,-2,-60,-120,-5040,-10080,-302400,-604800,-39916800,-79833600,-217945728000,-435891456000,-2615348736000,-5230697472000,-2667655710720000,-5335311421440000,-4257578514309120000,-8515157028618240000,-2810001819444019200000",
			"name": "The n-th differences of the row A141045(n,.).",
			"comment": [
				"Can be thought of as the second sequence of a family: the first is A091137, the third starts 1, 2, 84, 168."
			],
			"formula": [
				"a(n+1) = a(n)*A027760(n+3)."
			],
			"example": [
				"The first differences of A141045(2,.) are 11-(-19)=30 and -19-11 = -30. The 2nd difference is a(2)= -30-30= -60."
			],
			"mathematica": [
				"a[n_] := a[n] = a[n-1]*If[OddQ[n], 2, Denominator[BernoulliB[n+2]]]; a[0]=-1; Table[a[n], {n, 0, 18}] (* _Jean-François Alcover_, Dec 17 2014 *)"
			],
			"program": [
				"(PARI) a(n)=if(n,my(pr=a(n-1));fordiv(n+2,d,if(isprime(d+1),pr*=d+1));pr,-1) \\\\ _Charles R Greathouse IV_, Jul 08 2011"
			],
			"keyword": "sign",
			"offset": "0,2",
			"author": "_Paul Curtz_, Aug 01 2008",
			"ext": [
				"Edited and extended by _R. J. Mathar_, Aug 12 2008"
			],
			"references": 1,
			"revision": 11,
			"time": "2014-12-17T06:24:17-05:00",
			"created": "2009-01-09T03:00:00-05:00"
		}
	]
}