{
	"greeting": "Greetings from The On-Line Encyclopedia of Integer Sequences! http://oeis.org/",
	"query": "id:A142229",
	"count": 1,
	"start": 0,
	"results": [
		{
			"number": 142229,
			"data": "73,401,647,811,1303,1549,1877,2287,2861,3271,3517,4091,4337,4583,4993,5813,6469,6551,6961,7043,7207,7699,8191,8273,8929,9011,9257,9421,9749,10159,10487,10651,10733,10979,11471,11717,12373,12619,13931,14177,14341",
			"name": "Primes congruent to 32 mod 41.",
			"link": [
				"Vincenzo Librandi, \u003ca href=\"/A142229/b142229.txt\"\u003eTable of n, a(n) for n = 1..1000\u003c/a\u003e"
			],
			"formula": [
				"a(n) ~ 40n log n. - _Charles R Greathouse IV_, Jul 03 2016"
			],
			"mathematica": [
				"Select[Prime[Range[5000]],MemberQ[{32},Mod[#,41]]\u0026] (* _Vincenzo Librandi_, Aug 24 2012 *)",
				"Select[Range[32,15000,41],PrimeQ] (* _Harvey P. Dale_, Nov 17 2013 *)"
			],
			"program": [
				"(MAGMA) [p: p in PrimesUpTo(17000) | p mod 41 eq 32 ]; // _Vincenzo Librandi_, Aug 24 2012",
				"(PARI) is(n)=isprime(n) \u0026\u0026 n%41==32 \\\\ _Charles R Greathouse IV_, Jul 03 2016"
			],
			"xref": [
				"Cf. A000040."
			],
			"keyword": "nonn,easy",
			"offset": "1,1",
			"author": "_N. J. A. Sloane_, Jul 11 2008",
			"references": 1,
			"revision": 10,
			"time": "2016-07-03T01:13:04-04:00",
			"created": "2009-01-09T03:00:00-05:00"
		}
	]
}