{
	"greeting": "Greetings from The On-Line Encyclopedia of Integer Sequences! http://oeis.org/",
	"query": "id:A142369",
	"count": 1,
	"start": 0,
	"results": [
		{
			"number": 142369,
			"data": "347,911,1193,1381,1663,2039,2791,3167,3449,3637,3919,4013,4201,4483,5987,6269,6551,6833,7867,8243,8431,8713,8807,9277,9371,10499,10687,10781,11251,11909,12097,12379,12473,13037,13789,13883,14071,14447,15199,16139,16421",
			"name": "Primes congruent to 18 mod 47.",
			"link": [
				"Vincenzo Librandi, \u003ca href=\"/A142369/b142369.txt\"\u003eTable of n, a(n) for n = 1..1000\u003c/a\u003e"
			],
			"formula": [
				"a(n) ~ 46n log n. - _Charles R Greathouse IV_, Jul 03 2016"
			],
			"mathematica": [
				"Select[Prime[Range[2500]],MemberQ[{18},Mod[#,47]]\u0026] (* _Vincenzo Librandi_, Aug 27 2012 *)",
				"Select[Range[18,17000,47],PrimeQ] (* _Harvey P. Dale_, Mar 06 2016 *)"
			],
			"program": [
				"(MAGMA) [p: p in PrimesUpTo(18000) | p mod 47 eq 18]; // _Vincenzo Librandi_, Aug 27 2012",
				"(PARI) is(n)=isprime(n) \u0026\u0026 n%47==18 \\\\ _Charles R Greathouse IV_, Jul 03 2016"
			],
			"xref": [
				"Cf. A000040."
			],
			"keyword": "nonn,easy",
			"offset": "1,1",
			"author": "_N. J. A. Sloane_, Jul 11 2008",
			"references": 2,
			"revision": 10,
			"time": "2016-07-03T19:52:48-04:00",
			"created": "2009-01-09T03:00:00-05:00"
		}
	]
}