{
	"greeting": "Greetings from The On-Line Encyclopedia of Integer Sequences! http://oeis.org/",
	"query": "id:A142437",
	"count": 1,
	"start": 0,
	"results": [
		{
			"number": 142437,
			"data": "223,419,811,1301,1399,1693,1889,1987,2281,2477,3163,3359,3457,3947,4241,4339,5417,5711,6299,6397,6691,7573,7867,8161,9043,9239,9337,9533,9631,10513,10709,11003,11689,12277,12473,13159,13649,14629,14923,15217,15413",
			"name": "Primes congruent to 27 mod 49.",
			"link": [
				"Vincenzo Librandi, \u003ca href=\"/A142437/b142437.txt\"\u003eTable of n, a(n) for n = 1..1000\u003c/a\u003e"
			],
			"formula": [
				"a(n) ~ 42n log n. - _Charles R Greathouse IV_, Jul 03 2016"
			],
			"mathematica": [
				"Select[Prime[Range[2500]], MemberQ[{27}, Mod[#, 49]] \u0026] (* _Vincenzo Librandi_, Aug 28 2012 *)"
			],
			"program": [
				"(MAGMA) [p: p in PrimesUpTo(17000) | p mod 49 eq 27]; // _Vincenzo Librandi_, Aug 28 2012",
				"(PARI) is(n)=isprime(n) \u0026\u0026 n%49==27 \\\\ _Charles R Greathouse IV_, Jul 03 2016"
			],
			"xref": [
				"Cf. A000040."
			],
			"keyword": "nonn,easy",
			"offset": "1,1",
			"author": "_N. J. A. Sloane_, Jul 11 2008",
			"references": 1,
			"revision": 10,
			"time": "2016-07-03T20:42:23-04:00",
			"created": "2009-01-09T03:00:00-05:00"
		}
	]
}