{
	"greeting": "Greetings from The On-Line Encyclopedia of Integer Sequences! http://oeis.org/",
	"query": "id:A142341",
	"count": 1,
	"start": 0,
	"results": [
		{
			"number": 142341,
			"data": "2,5,7,17,23,59,61,83,131,137,157,241,257,293,367,467,479,557,569,571,587,787,823,853,859,971,1093,1217,1499,1523,1553,1559,1571,1579,1699,1733,1789,1831,1847,1907,1999,2011,2081,2113,2129,2239,2293,2393,2423",
			"name": "Primes of the form (p(n)+r(n))/11, where p(n)=n-th prime and r(n)=n-th nonprime.",
			"link": [
				"Harvey P. Dale, \u003ca href=\"/A142341/b142341.txt\"\u003eTable of n, a(n) for n = 1..1000\u003c/a\u003e"
			],
			"example": [
				"If n=6, then (p(6)+r(6))/11=(13+9)/11=2=a(1).",
				"If n=12, then (p(12)+r(12))/11=(37+18)/11=5=a(2).",
				"If n=16, then (p(16)+r(16))/11=(53+24)/11=7=a(3).",
				"If n=34, then (p(34)+r(34))/11=(139+48)/11=17=a(4).",
				"If n=44, then (p(44)+r(44))/11=(193+60)/11=23=a(5), etc."
			],
			"maple": [
				"A141468 := proc(n) option remember ; if n = 1 then 0; else for a from procname(n-1)+1 do if not isprime(a) then RETURN(a) ; fi; od: fi: end: A000040 := proc(n) ithprime(n) ; end: for n from 1 to 6000 do c := A000040(n)+A141468(n) ; if c mod 11 = 0 then if isprime(c/11) then printf(\"%d,\",c/11) ; fi; fi; od: # _R. J. Mathar_, Nov 03 2008"
			],
			"mathematica": [
				"Module[{nn=50000,pr,np,len},pr=Select[Range[nn],PrimeQ];np=Complement[ Range[0,nn],pr];len=Min[Length[pr],Length[np]];Select[Total[#]/11\u0026/@ Thread[ {Take[pr,len],Take[np,len]}],PrimeQ]] (* _Harvey P. Dale_, Jun 27 2020 *)"
			],
			"xref": [
				"Cf. A000040, A141468."
			],
			"keyword": "nonn",
			"offset": "1,1",
			"author": "_Juri-Stepan Gerasimov_, Sep 19 2008",
			"ext": [
				"3 replaced by 5, 241 and 257 inserted and extended by _R. J. Mathar_, Nov 03 2008"
			],
			"references": 1,
			"revision": 9,
			"time": "2020-06-27T19:27:29-04:00",
			"created": "2009-01-09T03:00:00-05:00"
		}
	]
}