{
	"greeting": "Greetings from The On-Line Encyclopedia of Integer Sequences! http://oeis.org/",
	"query": "id:A142308",
	"count": 1,
	"start": 0,
	"results": [
		{
			"number": 142308,
			"data": "37,257,389,433,521,653,829,1049,1093,1181,1489,1621,1709,1753,1973,2017,2237,2281,2633,2677,2897,3469,3557,3733,3821,4129,4217,4261,4349,4481,4657,4789,4877,5009,5273,5449,5581,5669,5801,6197,6329,6373,6637,6857",
			"name": "Primes congruent to 37 mod 44.",
			"link": [
				"Vincenzo Librandi, \u003ca href=\"/A142308/b142308.txt\"\u003eTable of n, a(n) for n = 1..1000\u003c/a\u003e"
			],
			"formula": [
				"a(n) ~ 20n log n. - _Charles R Greathouse IV_, Jul 03 2016"
			],
			"mathematica": [
				"Select[Prime[Range[2500]],MemberQ[{37},Mod[#,44]]\u0026] (* _Vincenzo Librandi_, Aug 25 2012 *)"
			],
			"program": [
				"(MAGMA) [p: p in PrimesUpTo(8000) | p mod 44 eq 37]; // _Vincenzo Librandi_, Aug 25 2012",
				"(PARI) is(n)=isprime(n) \u0026\u0026 n%44==37 \\\\ _Charles R Greathouse IV_, Jul 03 2016"
			],
			"xref": [
				"Cf. A000040."
			],
			"keyword": "nonn,easy",
			"offset": "1,1",
			"author": "_N. J. A. Sloane_, Jul 11 2008",
			"references": 1,
			"revision": 8,
			"time": "2016-07-03T01:32:31-04:00",
			"created": "2009-01-09T03:00:00-05:00"
		}
	]
}