{
	"greeting": "Greetings from The On-Line Encyclopedia of Integer Sequences! http://oeis.org/",
	"query": "id:A142873",
	"count": 1,
	"start": 0,
	"results": [
		{
			"number": 142873,
			"data": "1,3,12,48,210,947,4510,22406,116506",
			"name": "A bisection of A142866.",
			"keyword": "nonn",
			"offset": "0,2",
			"author": "_N. J. A. Sloane_, Oct 03 2008",
			"references": 1,
			"revision": 3,
			"time": "2012-03-30T16:50:58-04:00",
			"created": "2009-01-09T03:00:00-05:00"
		}
	]
}