{
	"greeting": "Greetings from The On-Line Encyclopedia of Integer Sequences! http://oeis.org/",
	"query": "id:A142515",
	"count": 1,
	"start": 0,
	"results": [
		{
			"number": 142515,
			"data": "17,173,277,433,641,797,953,1109,1213,1733,1889,1993,2357,2617,3137,3449,3709,3761,3917,4021,4073,4177,4229,4801,4957,5009,5113,5477,5581,5737,6101,6257,6361,6569,6673,6829,7193,7297,7349,7817,8233,8389,8597,8753",
			"name": "Primes congruent to 17 mod 52.",
			"link": [
				"Vincenzo Librandi, \u003ca href=\"/A142515/b142515.txt\"\u003eTable of n, a(n) for n = 1..1000\u003c/a\u003e"
			],
			"formula": [
				"a(n) ~ 24n log n. - _Charles R Greathouse IV_, Jul 03 2016"
			],
			"mathematica": [
				"Select[Prime[Range[1300]], MemberQ[{17}, Mod[#, 52]] \u0026] (* _Vincenzo Librandi_, Aug 29 2012 *)"
			],
			"program": [
				"(MAGMA) [p: p in PrimesUpTo(9000) | p mod 52 eq 17]; // _Vincenzo Librandi_, Aug 29 2012",
				"(PARI) is(n)=isprime(n) \u0026\u0026 n%52==17 \\\\ _Charles R Greathouse IV_, Jul 03 2016"
			],
			"xref": [
				"Cf. A000040."
			],
			"keyword": "nonn,easy",
			"offset": "1,1",
			"author": "_N. J. A. Sloane_, Jul 11 2008",
			"references": 1,
			"revision": 8,
			"time": "2016-07-03T21:56:36-04:00",
			"created": "2009-01-09T03:00:00-05:00"
		}
	]
}