{
	"greeting": "Greetings from The On-Line Encyclopedia of Integer Sequences! http://oeis.org/",
	"query": "id:A142358",
	"count": 1,
	"start": 0,
	"results": [
		{
			"number": 142358,
			"data": "7,101,383,571,853,947,1229,1511,1699,2357,3109,3203,3391,3673,3767,4049,4519,4801,5647,5741,6211,6869,7057,7151,7433,7621,8467,9689,10159,10253,10723,11287,12227,12697,12791,12979,14107,14389,15329,16363,16927,17021",
			"name": "Primes congruent to 7 mod 47.",
			"link": [
				"Vincenzo Librandi, \u003ca href=\"/A142358/b142358.txt\"\u003eTable of n, a(n) for n = 1..1000\u003c/a\u003e"
			],
			"formula": [
				"a(n) ~ 46n log n. - _Charles R Greathouse IV_, Jul 03 2016"
			],
			"mathematica": [
				"Select[Prime[Range[2500]],MemberQ[{7},Mod[#,47]]\u0026] (* _Vincenzo Librandi_, Aug 26 2012 *)"
			],
			"program": [
				"(MAGMA) [p: p in PrimesUpTo(18000) | p mod 47 eq 7]; // _Vincenzo Librandi_, Aug 26 2012",
				"(PARI) is(n)=isprime(n) \u0026\u0026 n%47==7 \\\\ _Charles R Greathouse IV_, Jul 03 2016"
			],
			"xref": [
				"Cf. A000040."
			],
			"keyword": "nonn,easy",
			"offset": "1,1",
			"author": "_N. J. A. Sloane_, Jul 11 2008",
			"references": 1,
			"revision": 8,
			"time": "2016-07-03T19:50:26-04:00",
			"created": "2009-01-09T03:00:00-05:00"
		}
	]
}