{
	"greeting": "Greetings from The On-Line Encyclopedia of Integer Sequences! http://oeis.org/",
	"query": "id:A142653",
	"count": 1,
	"start": 0,
	"results": [
		{
			"number": 142653,
			"data": "29,197,421,701,757,1093,1373,1429,1597,1709,1877,1933,2213,2269,2381,2437,2549,3109,3221,3389,3557,3613,4229,4397,4621,4733,4789,4957,5237,5573,5741,6133,6301,6469,6581,6637,6917,7253,7309,7477,7589,7757,8093,8317",
			"name": "Primes congruent to 29 mod 56.",
			"link": [
				"Vincenzo Librandi, \u003ca href=\"/A142653/b142653.txt\"\u003eTable of n, a(n) for n = 1..1000\u003c/a\u003e"
			],
			"mathematica": [
				"Select[Prime[Range[1300]], MemberQ[{29}, Mod[#, 56]] \u0026] (* _Vincenzo Librandi_, Sep 01 2012 *)"
			],
			"program": [
				"(MAGMA) [p: p in PrimesUpTo(10000) | p mod 56 eq 29 ]; // _Vincenzo Librandi_, Sep 01 2012"
			],
			"xref": [
				"Cf. A000040."
			],
			"keyword": "nonn,easy",
			"offset": "1,1",
			"author": "_N. J. A. Sloane_, Jul 11 2008",
			"references": 1,
			"revision": 6,
			"time": "2012-09-01T07:09:02-04:00",
			"created": "2009-01-09T03:00:00-05:00"
		}
	]
}