{
	"greeting": "Greetings from The On-Line Encyclopedia of Integer Sequences! http://oeis.org/",
	"query": "id:A142008",
	"count": 1,
	"start": 0,
	"results": [
		{
			"number": 142008,
			"data": "97,283,593,1151,1213,1399,1523,1709,2081,2143,2267,2887,3011,3259,3631,4003,4127,4561,4871,4933,5119,5801,5987,6173,6359,6421,6607,6793,6917,7103,7351,7537,7723,8219,8467,8839,8963,9397,9521,9769,10079,10141,10513",
			"name": "Primes congruent to 4 mod 31.",
			"link": [
				"Vincenzo Librandi, \u003ca href=\"/A142008/b142008.txt\"\u003eTable of n, a(n) for n = 1..1000\u003c/a\u003e"
			],
			"formula": [
				"a(n) ~ 30n log n. - _Charles R Greathouse IV_, Jul 03 2016"
			],
			"mathematica": [
				"Select[Range[4,20000,31],PrimeQ] (* _Vladimir Joseph Stephan Orlovsky_, Apr 20 2011 *)",
				"Select[Prime[Range[1500]],Mod[#,31]==4\u0026] (* _Harvey P. Dale_, Sep 21 2021 *)"
			],
			"program": [
				"(MAGMA) [ p: p in PrimesUpTo(30000) | p mod 31 eq 4 ]; // _Vincenzo Librandi_, Apr 20 2011",
				"(PARI) is(n)=isprime(n) \u0026\u0026 n%31==4 \\\\ _Charles R Greathouse IV_, Jul 03 2016"
			],
			"xref": [
				"Cf. A000040, A142005, A142006."
			],
			"keyword": "nonn,easy",
			"offset": "1,1",
			"author": "_N. J. A. Sloane_, Jul 11 2008",
			"references": 1,
			"revision": 18,
			"time": "2021-09-21T12:54:45-04:00",
			"created": "2009-01-09T03:00:00-05:00"
		}
	]
}