{
	"greeting": "Greetings from The On-Line Encyclopedia of Integer Sequences! http://oeis.org/",
	"query": "id:A142786",
	"count": 1,
	"start": 0,
	"results": [
		{
			"number": 142786,
			"data": "7,67,127,307,367,487,547,607,727,787,907,967,1087,1327,1447,1567,1627,1747,1867,1987,2287,2347,2467,2647,2707,2767,2887,3067,3187,3307,3547,3607,3727,3847,3907,3967,4027,4327,4447,4507,4567,4987,5107,5167,5227",
			"name": "Primes congruent to 7 mod 60.",
			"comment": [
				"Comment from _Joshua S.M. Weiner_, Oct 12 2012 (Start)",
				"Intersection of A068229 and A141882. Subsequence of A132231.",
				"Congruence classes of primes mod 60: A088955 (1), (this sequence 7),  A117047 (11), A142787 (13), A142788 (17), A142789 (19), A142790 (23), A142791 (29), A142792 (31), A142793 (37), A142794 (41), A142795 (43), A142796 (47), A142797 (49), A142798 (53), A142799 (59). (End)"
			],
			"link": [
				"Vincenzo Librandi, \u003ca href=\"/A142786/b142786.txt\"\u003eTable of n, a(n) for n = 1..1000\u003c/a\u003e"
			],
			"mathematica": [
				"Select[Prime[Range[1000]], Mod[#, 60] == 7 \u0026] (* _T. D. Noe_, Oct 12 2012 *)",
				"Select[Range[7,5300,60],PrimeQ] (* _Harvey P. Dale_, Nov 21 2018 *)"
			],
			"program": [
				"(MAGMA) [p: p in PrimesUpTo(6000) | p mod 60 eq 7 ]; // _Vincenzo Librandi_, Sep 04 2012"
			],
			"xref": [
				"Cf. A000040, A142322."
			],
			"keyword": "nonn,easy",
			"offset": "1,1",
			"author": "_N. J. A. Sloane_, Jul 11 2008",
			"references": 1,
			"revision": 16,
			"time": "2018-11-21T13:49:51-05:00",
			"created": "2009-01-09T03:00:00-05:00"
		}
	]
}