{
	"greeting": "Greetings from The On-Line Encyclopedia of Integer Sequences! http://oeis.org/",
	"query": "id:A142685",
	"count": 1,
	"start": 0,
	"results": [
		{
			"number": 142685,
			"data": "89,317,431,659,773,887,1229,1571,1913,2027,2141,2711,2939,3167,3623,3851,4079,4421,4649,4877,5333,5903,6131,6359,6473,6701,7043,7499,7727,7841,8069,8297,8753,8867,9209,9323,9437,9551,10007,10463,10691,11261,11489",
			"name": "Primes congruent to 32 mod 57.",
			"link": [
				"Vincenzo Librandi, \u003ca href=\"/A142685/b142685.txt\"\u003eTable of n, a(n) for n = 1..1000\u003c/a\u003e"
			],
			"mathematica": [
				"Select[Prime[Range[2300]], MemberQ[{32}, Mod[#, 57]] \u0026] (* _Vincenzo Librandi_, Sep 02 2012 *)"
			],
			"program": [
				"(MAGMA) [p: p in PrimesUpTo(12000) | p mod 57 eq 32 ]; // _Vincenzo Librandi_, Sep 02 2012"
			],
			"xref": [
				"Cf. A000040."
			],
			"keyword": "nonn,easy",
			"offset": "1,1",
			"author": "_N. J. A. Sloane_, Jul 11 2008",
			"references": 1,
			"revision": 6,
			"time": "2012-09-02T03:58:05-04:00",
			"created": "2009-01-09T03:00:00-05:00"
		}
	]
}