{
	"greeting": "Greetings from The On-Line Encyclopedia of Integer Sequences! http://oeis.org/",
	"query": "id:A142447",
	"count": 1,
	"start": 0,
	"results": [
		{
			"number": 142447,
			"data": "137,431,823,1019,1117,1607,1901,1999,2293,3371,3469,4057,4253,4547,5233,5527,5821,6311,6703,6899,6997,7193,7487,7879,8369,8467,8663,8761,9349,9643,9839,10133,10427,11113,11701,11897,12289,12583,13171,13367,13759",
			"name": "Primes congruent to 39 mod 49.",
			"link": [
				"Harvey P. Dale, \u003ca href=\"/A142447/b142447.txt\"\u003eTable of n, a(n) for n = 1..1000\u003c/a\u003e"
			],
			"formula": [
				"a(n) ~ 42n log n. - _Charles R Greathouse IV_, Jul 03 2016"
			],
			"mathematica": [
				"Select[Prime[Range[1700]],Mod[#,49]==39\u0026]  (* _Harvey P. Dale_, Apr 01 2011 *)",
				"Select[Prime[Range[2500]], MemberQ[{39}, Mod[#, 49]] \u0026] (* _Vincenzo Librandi_, Aug 28 2012 *)"
			],
			"program": [
				"(MAGMA) [p: p in PrimesUpTo(17000) | p mod 49 eq 39]; // _Vincenzo Librandi_, Aug 28 2012",
				"(PARI) is(n)=isprime(n) \u0026\u0026 n%49==39 \\\\ _Charles R Greathouse IV_, Jul 03 2016"
			],
			"xref": [
				"Cf. A000040."
			],
			"keyword": "nonn,easy",
			"offset": "1,1",
			"author": "_N. J. A. Sloane_, Jul 11 2008",
			"references": 1,
			"revision": 17,
			"time": "2016-07-03T20:43:04-04:00",
			"created": "2009-01-09T03:00:00-05:00"
		}
	]
}