{
	"greeting": "Greetings from The On-Line Encyclopedia of Integer Sequences! http://oeis.org/",
	"query": "id:A142729",
	"count": 1,
	"start": 0,
	"results": [
		{
			"number": 142729,
			"data": "2,61,179,769,887,1123,1831,1949,2539,2657,3011,3719,4073,4663,5843,6079,6197,6551,9029,9619,9973,10091,10799,11743,12097,12451,12569,12923,13159,13513,14221,14929,15401,15991,16699,17053,17761,18233,18587,19531,20357",
			"name": "Primes congruent to 2 mod 59.",
			"link": [
				"Vincenzo Librandi, \u003ca href=\"/A142729/b142729.txt\"\u003eTable of n, a(n) for n = 1..1000\u003c/a\u003e"
			],
			"formula": [
				"a(n) ~ 58n log n. - _Charles R Greathouse IV_, Jul 02 2016"
			],
			"mathematica": [
				"Select[Prime[Range[2600]], MemberQ[{2}, Mod[#, 59]] \u0026] (* _Vincenzo Librandi_, Sep 02 2012 *)",
				"Select[Range[2,21000,59],PrimeQ] (* _Harvey P. Dale_, Jul 19 2018 *)"
			],
			"program": [
				"(MAGMA) [p: p in PrimesUpTo(21000) | p mod 59 eq 2 ]; // _Vincenzo Librandi_, Sep 02 2012",
				"(PARI) is(n)=isprime(n) \u0026\u0026 n%59==2 \\\\ _Charles R Greathouse IV_, Jul 02 2016"
			],
			"xref": [
				"Cf. A000040."
			],
			"keyword": "nonn,easy",
			"offset": "1,1",
			"author": "_N. J. A. Sloane_, Jul 11 2008",
			"references": 3,
			"revision": 10,
			"time": "2018-07-19T20:12:33-04:00",
			"created": "2009-01-09T03:00:00-05:00"
		}
	]
}