{
	"greeting": "Greetings from The On-Line Encyclopedia of Integer Sequences! http://oeis.org/",
	"query": "id:A142553",
	"count": 1,
	"start": 0,
	"results": [
		{
			"number": 142553,
			"data": "23,659,977,1613,1931,2143,3203,3733,4051,4157,4793,5323,5641,6277,6701,7019,7549,7867,8291,8609,8821,10093,10729,11047,11471,11789,12107,12637,12743,13591,13697,14969,15287,15817,15923,16453,18043,18149,18679,19421",
			"name": "Primes congruent to 23 mod 53.",
			"link": [
				"Vincenzo Librandi, \u003ca href=\"/A142553/b142553.txt\"\u003eTable of n, a(n) for n = 1..1000\u003c/a\u003e"
			],
			"formula": [
				"a(n) ~ 52n log n. - _Charles R Greathouse IV_, Jul 03 2016"
			],
			"mathematica": [
				"Select[Prime[Range[2600]], MemberQ[{23}, Mod[#, 53]] \u0026] (* _Vincenzo Librandi_, Aug 30 2012 *)",
				"Select[Range[23,20000,53],PrimeQ] (* _Harvey P. Dale_, Mar 16 2016 *)"
			],
			"program": [
				"(MAGMA) [p: p in PrimesUpTo(20000) | p mod 53 eq 23]; // _Vincenzo Librandi_, Aug 30 2012",
				"(PARI) is(n)=isprime(n) \u0026\u0026 n%53==23 \\\\ _Charles R Greathouse IV_, Jul 03 2016"
			],
			"xref": [
				"Cf. A000040."
			],
			"keyword": "nonn,easy",
			"offset": "1,1",
			"author": "_N. J. A. Sloane_, Jul 11 2008",
			"references": 2,
			"revision": 10,
			"time": "2016-07-03T00:25:29-04:00",
			"created": "2009-01-09T03:00:00-05:00"
		}
	]
}