{
	"greeting": "Greetings from The On-Line Encyclopedia of Integer Sequences! http://oeis.org/",
	"query": "id:A142172",
	"count": 1,
	"start": 0,
	"results": [
		{
			"number": 142172,
			"data": "61,139,373,607,919,997,1153,1231,1543,1621,1699,1777,1933,2011,2089,2557,2713,2791,3181,3259,3571,3727,4273,4507,4663,5209,5443,5521,6067,6301,6379,6691,7159,7237,7393,7549,8017,8329,8563,8641,8719,9109,9187,9343",
			"name": "Primes congruent to 22 mod 39.",
			"link": [
				"Vincenzo Librandi, \u003ca href=\"/A142172/b142172.txt\"\u003eTable of n, a(n) for n = 1..1000\u003c/a\u003e"
			],
			"formula": [
				"a(n) ~ 24n log n. - _Charles R Greathouse IV_, Jul 03 2016"
			],
			"mathematica": [
				"Select[Prime[Range[3000]],MemberQ[{22},Mod[#,39]]\u0026] (* _Vincenzo Librandi_, Aug 20 2012 *)",
				"Select[Range[22,10000,39],PrimeQ] (* _Harvey P. Dale_, Aug 01 2014 *)"
			],
			"program": [
				"(MAGMA) [p: p in PrimesUpTo(10000) | p mod 39 eq 22 ]; // _Vincenzo Librandi_, Aug 20 2012",
				"(PARI) is(n)=isprime(n) \u0026\u0026 n%39==22 \\\\ _Charles R Greathouse IV_, Jul 03 2016"
			],
			"xref": [
				"Cf. A000040."
			],
			"keyword": "nonn,easy",
			"offset": "1,1",
			"author": "_N. J. A. Sloane_, Jul 11 2008",
			"references": 1,
			"revision": 10,
			"time": "2016-07-03T01:07:03-04:00",
			"created": "2009-01-09T03:00:00-05:00"
		}
	]
}