{
	"greeting": "Greetings from The On-Line Encyclopedia of Integer Sequences! http://oeis.org/",
	"query": "id:A142730",
	"count": 1,
	"start": 0,
	"results": [
		{
			"number": 142730,
			"data": "3,239,593,829,947,1301,2953,3307,3779,4133,4723,5077,5431,5903,6257,7673,8263,8971,9679,10151,10859,11213,12157,12511,12983,13219,13337,13691,14281,14753,15107,15461,16759,17231,17467,17939,19001,19237,19709,20063,20771",
			"name": "Primes congruent to 3 mod 59.",
			"comment": [
				"Primes congruent to 3 mod 118. - Vladimir Joseph Stephan Orlovsky, Jul 14 2011."
			],
			"link": [
				"Vincenzo Librandi, \u003ca href=\"/A142730/b142730.txt\"\u003eTable of n, a(n) for n = 1..1000\u003c/a\u003e"
			],
			"formula": [
				"a(n) ~ 58n log n. - _Charles R Greathouse IV_, Jul 02 2016"
			],
			"mathematica": [
				"Select[Range[3, 30000, 118], PrimeQ] (* _Vladimir Joseph Stephan Orlovsky_, Jul 14 2011 *)",
				"Select[Prime[Range[2600]], MemberQ[{3}, Mod[#, 59]] \u0026] (* _Vincenzo Librandi_, Sep 02 2012 *)"
			],
			"program": [
				"(MAGMA) [p: p in PrimesUpTo(21000) | p mod 59 eq 3 ]; // _Vincenzo Librandi_, Sep 02 2012",
				"(PARI) is(n)=isprime(n) \u0026\u0026 n%59==3 \\\\ _Charles R Greathouse IV_, Jul 02 2016"
			],
			"xref": [
				"Cf. A000040, A142322."
			],
			"keyword": "nonn,easy",
			"offset": "1,1",
			"author": "_N. J. A. Sloane_, Jul 11 2008",
			"references": 3,
			"revision": 12,
			"time": "2016-07-02T00:55:11-04:00",
			"created": "2009-01-09T03:00:00-05:00"
		}
	]
}