{
	"greeting": "Greetings from The On-Line Encyclopedia of Integer Sequences! http://oeis.org/",
	"query": "id:A142079",
	"count": 1,
	"start": 0,
	"results": [
		{
			"number": 142079,
			"data": "109,179,389,599,739,809,1019,1229,1439,1579,1789,1999,2069,2699,2909,3049,3119,3259,3329,3469,3539,3889,4099,4519,4729,4799,5009,5569,5639,5779,5849,6199,6269,6619,6689,6829,6899,7039,7109,7459,7529,7669,7879,7949",
			"name": "Primes congruent to 4 mod 35.",
			"link": [
				"Vincenzo Librandi, \u003ca href=\"/A142079/b142079.txt\"\u003eTable of n, a(n) for n = 1..1000\u003c/a\u003e"
			],
			"mathematica": [
				"Select[Range[4, 20000, 35], PrimeQ] (* _Vladimir Joseph Stephan Orlovsky_, Jul 02 2011 *)",
				"Select[Prime[Range[3000]],MemberQ[{4},Mod[#,35]]\u0026] (* _Vincenzo Librandi_, Aug 18 2012 *)"
			],
			"program": [
				"(PARI) select(n-\u003en%35==4,primes(1000)) \\\\ _Charles R Greathouse IV_, Jul 02, 2011",
				"(MAGMA) [p: p in PrimesUpTo(9000) | p mod 35 eq 4 ]; // _Vincenzo Librandi_, Aug 18 2012"
			],
			"xref": [
				"Cf. A000040."
			],
			"keyword": "nonn,easy",
			"offset": "1,1",
			"author": "_N. J. A. Sloane_, Jul 11 2008",
			"references": 1,
			"revision": 12,
			"time": "2013-11-21T13:07:23-05:00",
			"created": "2009-01-09T03:00:00-05:00"
		}
	]
}