{
	"greeting": "Greetings from The On-Line Encyclopedia of Integer Sequences! http://oeis.org/",
	"query": "id:A142135",
	"count": 1,
	"start": 0,
	"results": [
		{
			"number": 142135,
			"data": "137,211,359,433,877,1321,1543,1913,1987,2357,2579,2801,3023,3319,3467,3541,3911,4133,4651,4799,5021,6131,6353,6427,6871,7019,7537,7759,7907,8573,8647,9091,9239,9461,10867,11311,11681,11903,12347,12421,12569,12791",
			"name": "Primes congruent to 26 mod 37.",
			"link": [
				"Vincenzo Librandi, \u003ca href=\"/A142135/b142135.txt\"\u003eTable of n, a(n) for n = 1..1000\u003c/a\u003e"
			],
			"formula": [
				"a(n) ~ 36n log n. - _Charles R Greathouse IV_, Jul 02 2016"
			],
			"mathematica": [
				"Select[Range[26,30000,37],PrimeQ] (* _Vladimir Joseph Stephan Orlovsky_, May 12 2011 *)",
				"Select[Prime[Range[5000]],MemberQ[{26},Mod[#,37]]\u0026] (* _Vincenzo Librandi_, Aug 19 2012 *)"
			],
			"program": [
				"(MAGMA) [p: p in PrimesUpTo(15000) | p mod 37 eq 26 ]; // _Vincenzo Librandi_, Aug 19 2012",
				"(PARI) is(n)=isprime(n) \u0026\u0026 n%37==26 \\\\ _Charles R Greathouse IV_, Jul 02 2016"
			],
			"xref": [
				"Cf. A000040, A142132, A142133, A142134."
			],
			"keyword": "nonn,easy",
			"offset": "1,1",
			"author": "_N. J. A. Sloane_, Jul 11 2008",
			"references": 3,
			"revision": 11,
			"time": "2016-07-02T00:54:39-04:00",
			"created": "2009-01-09T03:00:00-05:00"
		}
	]
}