{
	"greeting": "Greetings from The On-Line Encyclopedia of Integer Sequences! http://oeis.org/",
	"query": "id:A143574",
	"count": 1,
	"start": 0,
	"results": [
		{
			"number": 143574,
			"data": "0,1,1,0,4,5,0,0,4,9,10,0,0,13,0,0,16,17,9,0,20,0,0,0,0,50,26,0,0,29,0,0,16,0,34,0,36,37,0,0,40,41,0,0,0,45,0,0,0,49,75,0,52,53,0,0,0,0,58,0,0,61,0,0,64,130,0,0,68,0,0,0,36,73,74,0,0,0,0,0,80,81,82,0,0,170,0,0,0",
			"name": "Sum of all distinct squares occurring when partitioning n into two squares.",
			"comment": [
				"For n \u003e 0: a(n) = 0 iff A000161(n) = 0: a(A022544(n)) = 0;",
				"A143575 gives numbers m such that a(m) = m."
			],
			"link": [
				"R. Zumkeller, \u003ca href=\"/A143574/b143574.txt\"\u003eTable of n, a(n) for n = 0..10000\u003c/a\u003e"
			],
			"formula": [
				"a(n) = SUM(k*A010052(k)*A010052(n-k): 1\u003c=k\u003c=n). [From _Reinhard Zumkeller_, Sep 27 2008]"
			],
			"example": [
				"A000161(25)=#{5^2+0^2,4^2+3^2}=2: a(25)=25+0+16+9=50;",
				"A000161(26)=#{5^2+1^2}=1: a(16)=25+1=26;",
				"A000161(49)=#{7^2+0^2}=1: a(49)=49+0=49;",
				"A000161(50)=#{7^2+1^2,5^2+5^2}=2: a(50)=49+1+25=75;",
				"A000161(2600)=#{50^2+10^2,46^2+22^2,38^2+34^2}=3:",
				"a(2600)=2500+100+2116+484+1444+1156=7800;",
				"A000161(2601)=#{51^2+0^2,45^2+24^2}=2:",
				"a(2601)=2601+0+12025+576=5202;",
				"A000161(2602)=#{51^2+1^2}=1: a(26002)=2601+1=2602."
			],
			"xref": [
				"A002654. [From _Reinhard Zumkeller_, Sep 27 2008]"
			],
			"keyword": "nonn",
			"offset": "0,5",
			"author": "_Reinhard Zumkeller_, Aug 24 2008",
			"references": 4,
			"revision": 4,
			"time": "2012-03-30T18:51:00-04:00",
			"created": "2009-01-09T03:00:00-05:00"
		}
	]
}