{
	"greeting": "Greetings from The On-Line Encyclopedia of Integer Sequences! http://oeis.org/",
	"query": "id:A143725",
	"count": 1,
	"start": 0,
	"results": [
		{
			"number": 143725,
			"data": "114478,1448516,16306649,99694693,473864807,1479135833,3117091975,3935668832,2627619810,711868010,49305639,182200",
			"name": "Numbers of non-orientable triangulated surfaces with 12 vertices and genus n.",
			"comment": [
				"A108239 is the total number of orientable and non-orientable triangulated surfaces with 12 vertices and genus n. Table 4, p.9 of Sulanke and F. H. Lutz."
			],
			"link": [
				"T. Sulanke and F. H. Lutz, \u003ca href=\"http://arxiv.org/PS_cache/math/pdf/0610/0610022v3.pdf\"\u003eIsomorphism free lexicographic enumeration of triangulated surfaces and 3-manifolds\u003c/a\u003e, May 21, 2007."
			],
			"xref": [
				"Cf. A108239."
			],
			"keyword": "nonn",
			"offset": "1,1",
			"author": "_Jonathan Vos Post_, Aug 29 2008",
			"references": 0,
			"revision": 2,
			"time": "2012-03-30T18:40:49-04:00",
			"created": "2009-01-09T03:00:00-05:00"
		}
	]
}