{
	"greeting": "Greetings from The On-Line Encyclopedia of Integer Sequences! http://oeis.org/",
	"query": "id:A143400",
	"count": 1,
	"start": 0,
	"results": [
		{
			"number": 143400,
			"data": "0,0,0,0,0,1,45,1190,24150,416451,6427575,91549480,1227283200,15695180501,193333245105,2310273772170,26927270656650,307413790470151,3449088814306635,38132767214613260,416342920938136500,4497187699884973401,48129773048982636165",
			"name": "Expansion of x^k/Product_{t=k..2k} (1-tx) for k=5.",
			"comment": [
				"a(n) is also the number of forests of 5 labeled rooted trees of height at most 1 with n labels, where any root may contain \u003e= 1 labels."
			],
			"link": [
				"Alois P. Heinz, \u003ca href=\"/A143400/b143400.txt\"\u003eTable of n, a(n) for n = 0..300\u003c/a\u003e",
				"\u003ca href=\"/index/Ro#rooted\"\u003eIndex entries for sequences related to rooted trees\u003c/a\u003e",
				"\u003ca href=\"/index/Rec#order_06\"\u003eIndex entries for linear recurrences with constant coefficients\u003c/a\u003e, signature (45, -835, 8175, -44524, 127860, -151200)."
			],
			"formula": [
				"G.f.: x^5/((1-5x)(1-6x)(1-7x)(1-8x)(1-9x)(1-10x)).",
				"E.g.f.: exp(5*x)*((exp(x)-1)^5)/5!."
			],
			"maple": [
				"a := proc(k::nonnegint) local M; M := Matrix(k+1, (i,j)-\u003e if (i=j-1) then 1 elif j=1 then [seq(-1* coeff(product(1-t*x, t=k..2*k), x,u), u=1..k+1)][i] else 0 fi); p-\u003e (M^p)[1,k+1] end(5); seq(a(n), n=0..30);"
			],
			"mathematica": [
				"CoefficientList[Series[x^5/((1-5x)(1-6x)(1-7x)(1-8x)(1-9x)(1-10x)),{x,0,30}],x] (* or *) LinearRecurrence[{45,-835,8175,-44524,127860,-151200},{0,0,0,0,0,1},30] (* _Harvey P. Dale_, Aug 30 2018 *)"
			],
			"xref": [
				"5th column of A143395."
			],
			"keyword": "nonn",
			"offset": "0,7",
			"author": "_Alois P. Heinz_, Aug 12 2008",
			"references": 2,
			"revision": 17,
			"time": "2018-08-30T19:59:52-04:00",
			"created": "2009-01-09T03:00:00-05:00"
		}
	]
}