{
	"greeting": "Greetings from The On-Line Encyclopedia of Integer Sequences! http://oeis.org/",
	"query": "id:A143542",
	"count": 1,
	"start": 0,
	"results": [
		{
			"number": 143542,
			"data": "0,0,1,0,1,1,0,1,0,0,0,1,1,0,1,0,2,1,0,0,0,0,1,1,0,1,0,1,0,1,0,0,0,0,0,0,0,1,1,0,0,0,0,0,0,0,2,1,0,1,0,0,0,0,0,0,1,1,0,1,0,1,0,0,0,1",
			"name": "Triangle read by rows, A051731 * A143541 as infinite lower triangular matrices; 1\u003c=k\u003c=n.",
			"comment": [
				"Row sums = A066328: (0, 1, 2, 1, 3, 3, 4,...)",
				"Prime rows = first n terms of A010051, the characteristic function of the primes."
			],
			"formula": [
				"Triangle read by rows, A051731 * A143541 as infinite lower triangular matrices; 1\u003c=k\u003c=n. A051731 = the inverse Mobius transform."
			],
			"example": [
				"First few rows of the triangle =",
				"0;",
				"0, 1;",
				"0, 1, 1;",
				"0, 1, 0, 0;",
				"0, 1, 1, 0, 1;",
				"0, 2, 1, 0, 0, 0;",
				"0, 1, 1, 0, 1, 0, 1;",
				"..."
			],
			"xref": [
				"Cf. A143541, A051731, A010051."
			],
			"keyword": "nonn,tabl",
			"offset": "1,17",
			"author": "_Gary W. Adamson_, Aug 23 2008",
			"references": 1,
			"revision": 2,
			"time": "2012-03-30T17:25:32-04:00",
			"created": "2009-01-09T03:00:00-05:00"
		}
	]
}