{
	"greeting": "Greetings from The On-Line Encyclopedia of Integer Sequences! http://oeis.org/",
	"query": "id:A143851",
	"count": 1,
	"start": 0,
	"results": [
		{
			"number": 143851,
			"data": "2,13,167,2239,439867,724031017,1990127567,54892225873",
			"name": "Primes p that divide the sum of their residues modulo all smaller primes (=A024934(p)).",
			"comment": [
				"Also, primes p such that p divides A024924(p). The prime terms of A065132."
			],
			"example": [
				"13 is congruent to 1,1,3,6 and 2, modulo 2,3,5,7 and 11 respectively. 1+1+3+6+2=13, which is a multiple of the original number, 13. So the original number, is in the sequence."
			],
			"mathematica": [
				"For[n = 1, n \u003c 1000001, n++, p = Prime[n]; m = Mod[Sum[Mod[p, Prime[i]], {i, 1, n - 1}], p]; If[m == 0, Print[p]]]"
			],
			"xref": [
				"Cf. A065132"
			],
			"keyword": "more,nonn",
			"offset": "1,1",
			"author": "_Neil Fernandez_, Sep 03 2008",
			"ext": [
				"a(6)-a(8) from _Max Alekseyev_, Feb 10 2012"
			],
			"references": 3,
			"revision": 13,
			"time": "2012-03-31T23:01:14-04:00",
			"created": "2009-01-09T03:00:00-05:00"
		}
	]
}