{
	"greeting": "Greetings from The On-Line Encyclopedia of Integer Sequences! http://oeis.org/",
	"query": "id:A143973",
	"count": 1,
	"start": 0,
	"results": [
		{
			"number": 143973,
			"data": "2,4,1,4,1,2,5,1,1,3,4,1,1,1,1,3,1,2,4,3,2,2,1,4,1,1,2,2,3,2,1,1,2,1,1,1,2,3,2,4,1,2,2,2,1,1,4,1,1,3,1,2,1,2,3,2,3,2,2,1,2,1,3,1,1,4,1,3,1,2,1,1,3,1,1,1,1,1,1,1,3,1,1,5,1,2,1",
			"name": "Distances between multiples of 3 in A000010.",
			"comment": [
				"Inspired by the question: is n == 1 mod phi(n) for n composite?"
			],
			"link": [
				"Amiram Eldar, \u003ca href=\"/A143973/b143973.txt\"\u003eTable of n, a(n) for n = 1..10000\u003c/a\u003e"
			],
			"formula": [
				"a(1) = 2 since the first two numbers k such that 3 | phi(k) are 7 and 9, and 9 - 7 = 2."
			],
			"mathematica": [
				"Differences @ Position[EulerPhi[Range[200]], _?(Divisible[#, 3] \u0026)] // Flatten (* _Amiram Eldar_, Feb 29 2020 *)"
			],
			"xref": [
				"Cf. A000010, A008585, A066498."
			],
			"keyword": "nonn",
			"offset": "1,1",
			"author": "J. Perry (johnandruth(AT)jrperry.orangehome.co.uk), Sep 06 2008",
			"ext": [
				"Offset corrected and more terms added by _Amiram Eldar_, Feb 29 2020"
			],
			"references": 1,
			"revision": 8,
			"time": "2020-02-29T03:33:20-05:00",
			"created": "2009-01-09T03:00:00-05:00"
		}
	]
}