{
	"greeting": "Greetings from The On-Line Encyclopedia of Integer Sequences! http://oeis.org/",
	"query": "id:A143828",
	"count": 1,
	"start": 0,
	"results": [
		{
			"number": 143828,
			"data": "89,359,809,1439,4409,8999,10889,12959,20249,23039,35999,47609,51839,56249,65609,75689,98009,116639,123209,129959,136889,143999,151289,158759,166409,234089,272249,282239,302759,313289,334889,404009,416159",
			"name": "Primes of the form 10*k^2 - 1.",
			"link": [
				"Vincenzo Librandi, \u003ca href=\"/A143828/b143828.txt\"\u003eTable of n, a(n) for n = 1..5000\u003c/a\u003e"
			],
			"mathematica": [
				"p = 10; a = {}; Do[k = p x^2 - 1; If[PrimeQ[k], AppendTo[a, k]], {x, 1, 1000}]; a",
				"Select[Table[10n^2-1,{n,1,800}],PrimeQ] (* _Vincenzo Librandi_, Dec 07 2011 *)"
			],
			"program": [
				"(MAGMA) [a: n in [1..400] | IsPrime(a) where a is 10*n^2-1]; // _Vincenzo Librandi_, Dec 07 2011"
			],
			"xref": [
				"Cf. A066436, A066049, A090686, A090684, A143826, A143827."
			],
			"keyword": "nonn,easy",
			"offset": "1,1",
			"author": "_Artur Jasinski_, Sep 02 2008",
			"references": 8,
			"revision": 9,
			"time": "2018-11-24T04:44:35-05:00",
			"created": "2009-01-09T03:00:00-05:00"
		}
	]
}