{
	"greeting": "Greetings from The On-Line Encyclopedia of Integer Sequences! http://oeis.org/",
	"query": "id:A143074",
	"count": 1,
	"start": 0,
	"results": [
		{
			"number": 143074,
			"data": "1,3,2,9,2,3,2,33,2,-27,2,699,2,-5457,2,929601,2,-3202287,2,221930589,2,-4722116517,2,968383680843,2,-14717667114147,2,2093660879252679,2,-86125672563201177,2,129848163681107302017,2,-868320396104950823607,2,209390615747646519456969",
			"name": "Numerator of Euler(n,2).",
			"link": [
				"Vincenzo Librandi, \u003ca href=\"/A143074/b143074.txt\"\u003eTable of n, a(n) for n = 0..200\u003c/a\u003e",
				"Vladimir Shevelev, \u003ca href=\"https://arxiv.org/abs/1708.08096\"\u003eOn a Luschny question\u003c/a\u003e, arXiv:1708.08096 [math.NT], 2017.",
				"Vladimir Shevelev, \u003ca href=\"http://list.seqfan.eu/pipermail/seqfan/2017-September/017929.html\"\u003eA formula for numerator of Euler(n,k)\u003c/a\u003e, Wed Sep 06 2017."
			],
			"formula": [
				"For even n, a(n) = 2 - delta(n,0), where delta is the Kronecker symbol;",
				"for n==1 (mod 4), a(n) = 2*A006519(n+1) - A002425((n+1)/2);",
				"for n==3 (mod 4), a(n) = 2*A006519(n+1) + A002425((n+1)/2). - _Vladimir Shevelev_, Sep 04 2017"
			],
			"example": [
				"By the formula, we have a(1) = 2*2 - 1 = 3, a(3) = 2*4 + 1 = 9, a(5) = 2*2 - 1 = 3, a(7) = 2*8 + 17 = 33, a(9) = 2*2 - 31 = -27, etc. - _Vladimir Shevelev_, Sep 04 2017"
			],
			"mathematica": [
				"Numerator[EulerE[Range[0,40],2]] (* _Vincenzo Librandi_, May 03 2012 *)"
			],
			"xref": [
				"For denominators see A006519.",
				"Cf. A002425, A157805, A157808, A157812, A157827, A157835, A157856, A157864, A157875, A157886, A157907."
			],
			"keyword": "sign,frac",
			"offset": "0,2",
			"author": "_N. J. A. Sloane_, Nov 10 2009",
			"references": 6,
			"revision": 14,
			"time": "2017-09-18T11:22:36-04:00",
			"created": "2009-01-09T03:00:00-05:00"
		}
	]
}