{
	"greeting": "Greetings from The On-Line Encyclopedia of Integer Sequences! http://oeis.org/",
	"query": "id:A143033",
	"count": 1,
	"start": 0,
	"results": [
		{
			"number": 143033,
			"data": "63,191,319,447,575,703,831,959,1087,1215,1343,1454,1471,1599,1727,1855,1983,2111,2239,2367,2495,2623,2751,2879,2912,3007,3135,3263,3391,3519,3647,3775,3903,4031,4159,4287,4415,4543,4671,4799,4927,5055,5183,5311",
			"name": "A sequence of asymptotic density zeta(7) - 1, where zeta is the Riemann zeta function.",
			"comment": [
				"Made up of a collection of mutually exclusive residue classes modulo multiples of factorials. A set of such sequences with entries for each zeta(k) - 1 partitions the integers. See the linked paper for their construction."
			],
			"link": [
				"Amiram Eldar, \u003ca href=\"/A143033/b143033.txt\"\u003eTable of n, a(n) for n = 1..10000\u003c/a\u003e",
				"William J. Keith, \u003ca href=\"https://www.emis.de/journals/INTEGERS/papers/k19/k19.Abstract.html\"\u003eSequences of Density zeta(K) - 1\u003c/a\u003e, INTEGERS, Vol. 10 (2010), Article #A19, pp. 233-241. Also \u003ca href=\"http://arxiv.org/abs/0905.3765\"\u003earXiv preprint\u003c/a\u003e, arXiv:0905.3765 [math.NT], 2009 and \u003ca href=\"http://www.math.drexel.edu/~keith/ZetaKMinusOne.pdf\"\u003eauthor's copy\u003c/a\u003e."
			],
			"mathematica": [
				"f[n_] := Module[{k = n - 1, m = 2, r}, While[{k, r} = QuotientRemainder[k, m]; r != 0, m++]; IntegerExponent[k + 1, m] + 2]; Select[Range[5300], f[#] == 7 \u0026] (* _Amiram Eldar_, Feb 15 2021 after _Kevin Ryde_ at A161189 *)"
			],
			"xref": [
				"Cf. A143028, A143029, A143030, A143031, A143032, A143034, A143035, A143036, A161189, A339013."
			],
			"keyword": "nonn",
			"offset": "1,1",
			"author": "_William J. Keith_, Jul 18 2008",
			"references": 10,
			"revision": 7,
			"time": "2021-02-15T02:33:30-05:00",
			"created": "2009-01-09T03:00:00-05:00"
		}
	]
}