{
	"greeting": "Greetings from The On-Line Encyclopedia of Integer Sequences! http://oeis.org/",
	"query": "id:A143607",
	"count": 1,
	"start": 0,
	"results": [
		{
			"number": 143607,
			"data": "1,3,4,7,10,17,24,41,58,99,140,239,338,577,816,1393,1970,3363,4756,8119,11482,19601,27720,47321,66922,114243,161564,275807,390050,665857,941664,1607521,2273378,3880899,5488420,9369319,13250218,22619537,31988856,54608393",
			"name": "Numerators of principal and intermediate convergents to 2^(1/2).",
			"comment": [
				"Sequence is essentially A082766 (by omitting two terms A082766(0) and A082766(2)). - _L. Edson Jeffery_, Apr 04 2011",
				"a(n) = A119016(n+2) for n\u003e=2. - _Georg Fischer_, Oct 07 2018"
			],
			"reference": [
				"Serge Lang, Introduction to Diophantine Approximations, Addison-Wesley, New York, 1966."
			],
			"link": [
				"Colin Barker, \u003ca href=\"/A143607/b143607.txt\"\u003eTable of n, a(n) for n = 1..1000\u003c/a\u003e",
				"Clark Kimberling, \u003ca href=\"https://doi.org/10.1007/s000170050020\"\u003eBest lower and upper approximates to irrational numbers\u003c/a\u003e, Elemente der Mathematik, 52 (1997) 122-126.",
				"\u003ca href=\"/index/Rec#order_04\"\u003eIndex entries for linear recurrences with constant coefficients\u003c/a\u003e, signature (0,2,0,1)."
			],
			"formula": [
				"From _Colin Barker_, Jul 28 2017: (Start)",
				"G.f.: x*(1 + x)*(1 + 2*x + x^3) / (1 - 2*x^2 - x^4).",
				"a(n) = 2*a(n-2) + a(n-4) for n\u003e5.",
				"(End)"
			],
			"example": [
				"The principal and intermediate convergents to 2^(1/2) begin with 1/1, 3/2 4/3, 7/5, 10/7, ..."
			],
			"maple": [
				"seq(coeff(series(x*(1+x)*(1+2*x+x^3)/(1-2*x^2-x^4),x,n+1), x, n), n = 1 .. 40); # _Muniru A Asiru_, Oct 07 2018"
			],
			"mathematica": [
				"CoefficientList[Series[(1 + x)*(1 + 2*x + x^3) / (1 - 2*x^2 - x^4), {x, 0, 50}], x] (* or *)",
				"LinearRecurrence[{0, 2, 0, 1}, {1, 3, 4, 7, 10}, 40] (* _Stefano Spezia_, Oct 08 2018; signature amended by _Georg Fischer_, Apr 02 2019 *)"
			],
			"program": [
				"(PARI) Vec(x*(1 + x)*(1 + 2*x + x^3) / (1 - 2*x^2 - x^4) + O(x^60)) \\\\ _Colin Barker_, Jul 28 2017",
				"(GAP) a:=[1,3,4,7,10];; for n in [6..40] do a[n]:=2*a[n-2]+a[n-4]; od; a; # _Muniru A Asiru_, Oct 07 2018"
			],
			"xref": [
				"Cf. A002965 (denominators), A082766, A119016."
			],
			"keyword": "nonn,frac,easy",
			"offset": "1,2",
			"author": "_Clark Kimberling_, Aug 27 2008",
			"references": 6,
			"revision": 35,
			"time": "2019-04-02T17:07:49-04:00",
			"created": "2009-01-09T03:00:00-05:00"
		}
	]
}