{
	"greeting": "Greetings from The On-Line Encyclopedia of Integer Sequences! http://oeis.org/",
	"query": "id:A143096",
	"count": 1,
	"start": 0,
	"results": [
		{
			"number": 143096,
			"data": "1,4,5,9,17,33,65,129,257,513,1025,2049,4097,8193,16385,32769,65537,131073,262145,524289,1048577,2097153,4194305,8388609,16777217,33554433,67108865,134217729,268435457,536870913,1073741825,2147483649,4294967297,8589934593",
			"name": "a(n) = 2*a(n-1)-1, with a(1)=1, a(2)=4, a(3)=5.",
			"link": [
				"Vincenzo Librandi, \u003ca href=\"/A143096/b143096.txt\"\u003eTable of n, a(n) for n = 1..2000\u003c/a\u003e",
				"\u003ca href=\"/index/Rec#order_02\"\u003eIndex entries for linear recurrences with constant coefficients\u003c/a\u003e, signature (3,-2)."
			],
			"formula": [
				"Binomial transform of 0, 1, 2, -4, 9, -13, 20, -26, 35, ... (offset 0).",
				"O.g.f.: x*(1+x-5*x^2+2*x^3)/((1-x)*(1-2*x)). a(n) = 1+2^(n-1), n\u003e2. - R. J. Mathar, Jul 31 2008",
				"a(n) = A048578(n-2), n\u003e=3. - R. J. Mathar, Aug 10 2008"
			],
			"example": [
				"a(4) = 9 = 2*a(3) - 1 = 2*5 - 1.",
				"a(4) = 9 = (1, 3, 3, 1) dot (1, 3, -2, 5) = (1 + 9 - 6 + 5)."
			],
			"mathematica": [
				"Join[{1,4},NestList[2#-1\u0026,5,40]] (* or *) Join[{1,4},LinearRecurrence[ {3,-2},{5,9},40]] (* _Harvey P. Dale_, Feb 18 2014 *)"
			],
			"xref": [
				"Cf. A065190."
			],
			"keyword": "nonn,easy",
			"offset": "1,2",
			"author": "_Gary W. Adamson_ \u0026 _Roger L. Bagula_, Jul 23 2008",
			"references": 1,
			"revision": 17,
			"time": "2017-06-18T02:24:17-04:00",
			"created": "2009-01-09T03:00:00-05:00"
		}
	]
}