{
	"greeting": "Greetings from The On-Line Encyclopedia of Integer Sequences! http://oeis.org/",
	"query": "id:A143896",
	"count": 1,
	"start": 0,
	"results": [
		{
			"number": 143896,
			"data": "1,2,3,4,6,8,9,10,12,14,16,18,20,24,25,28,30,32,36,40,42,44,48,54,56,60,64,66,70,72,80,81,84,90,96,100,108,112,120,126,132,140,144,150,156,160,162,168,176,180,192,196,208,210,216,225,240,252,256,264,270,272,280",
			"name": "Numbers that are among the d smallest numbers with d divisors.",
			"link": [
				"Ivan Neretin, \u003ca href=\"/A143896/b143896.txt\"\u003eTable of n, a(n) for n = 1..8000\u003c/a\u003e"
			],
			"example": [
				"15 does not qualify because it has 4 divisors and the 4 smallest numbers with 4 divisors are 6, 8, 10 and 14."
			],
			"mathematica": [
				"ds[n_] := ds[n] = DivisorSigma[0, n]; fQ[n_] := Block[{d = ds@n}, MemberQ[ Select[ Range@n, Take[ DivisorSigma[0, # ] == d \u0026], d], n]]; Select[ Range@ 299, fQ@# \u0026] (* _Robert G. Wilson v_, Sep 09 2008 *)"
			],
			"xref": [
				"Cf. A007416."
			],
			"keyword": "nonn",
			"offset": "1,2",
			"author": "_J. Lowell_, Sep 04 2008",
			"ext": [
				"More terms from _Robert G. Wilson v_, Sep 09 2008"
			],
			"references": 1,
			"revision": 10,
			"time": "2016-10-16T18:13:09-04:00",
			"created": "2009-01-09T03:00:00-05:00"
		}
	]
}