{
	"greeting": "Greetings from The On-Line Encyclopedia of Integer Sequences! http://oeis.org/",
	"query": "id:A143984",
	"count": 1,
	"start": 0,
	"results": [
		{
			"number": 143984,
			"data": "0,3,-1,6,12,95,8643,74666874,5575141774264376,31082205803147712138788845611867,966103517589229313003894215813508352493573272034098666228778215",
			"name": "a(0) = 0; thereafter, a(n+1) = (a(n) - 2)^2 - n.",
			"comment": [
				"The next term has 126 digits. - _Harvey P. Dale_, Jul 12 2018"
			],
			"mathematica": [
				"lst={};a=0;Do[AppendTo[lst,a=a^2-n];a=a-2,{n,0,11}];lst",
				"nxt[{n_,a_}]:={n+1,(a-2)^2-n-1}; NestList[nxt,{0,0},10][[All,2]] (* _Harvey P. Dale_, Jul 12 2018 *)"
			],
			"xref": [
				"Cf. A143985."
			],
			"keyword": "sign",
			"offset": "0,2",
			"author": "_Vladimir Joseph Stephan Orlovsky_, Sep 06 2008",
			"ext": [
				"Edited by _N. J. A. Sloane_, Sep 14 2008"
			],
			"references": 0,
			"revision": 6,
			"time": "2018-07-12T19:02:15-04:00",
			"created": "2009-01-09T03:00:00-05:00"
		}
	]
}