{
	"greeting": "Greetings from The On-Line Encyclopedia of Integer Sequences! http://oeis.org/",
	"query": "id:A143093",
	"count": 1,
	"start": 0,
	"results": [
		{
			"number": 143093,
			"data": "1,3,6,17,51,155,492",
			"name": "Arises in counting relative Milnor rings in K-theory.",
			"comment": [
				"Column 2 of Marshall table, p. 443. A143094 is the analogous enumeration, column 3 of Marshall table, if we view the K-structures just as graded rings."
			],
			"reference": [
				"Ido Efrat, Valuations, orderings and Milnor K-theory, Mathematical Surveys and Monographs, vol. 124, American Mathematical Society, 2006.",
				"Murray Marshall, Book Review: Valuations, orderings and Milnor K-theory, by Ido Efrat, Bulletin of the American Mathematical Society, Vol. 45 (July 2008) No. 3, pp. 439-444."
			],
			"formula": [
				"a(n) = the number of nonisomorphic elementary types K_*(F)/S with |F^X/S| = 2^n, if we view the K-structures as graded rings with distinguished element."
			],
			"xref": [
				"Cf. A143094."
			],
			"keyword": "more,nonn",
			"offset": "0,2",
			"author": "_Jonathan Vos Post_, Jul 23 2008",
			"references": 1,
			"revision": 14,
			"time": "2014-04-03T22:05:56-04:00",
			"created": "2009-01-09T03:00:00-05:00"
		}
	]
}