{
	"greeting": "Greetings from The On-Line Encyclopedia of Integer Sequences! http://oeis.org/",
	"query": "id:A143181",
	"count": 1,
	"start": 0,
	"results": [
		{
			"number": 143181,
			"data": "1,1,7,135,549,7209,1741,4197,172434,2638147",
			"name": "Sequence of a(n) such that : define p(0)=2 the first prime, then p(n+1)=least prime p of the form a(n)*p(n)*(a(n)*p(n)+1)-1 with a twin prime p+2.",
			"example": [
				"1*2*(1*2+1)-1=5, 7 twin prime so a(1)=1",
				"1*5*(1*5+1)-1=29, 31 twin prime so a(2)=1"
			],
			"xref": [
				"Cf. A120393."
			],
			"keyword": "more,nonn",
			"offset": "1,3",
			"author": "_Pierre CAMI_, Jul 28 2008",
			"references": 1,
			"revision": 4,
			"time": "2012-03-31T13:22:05-04:00",
			"created": "2009-01-09T03:00:00-05:00"
		}
	]
}