{
	"greeting": "Greetings from The On-Line Encyclopedia of Integer Sequences! http://oeis.org/",
	"query": "id:A143650",
	"count": 1,
	"start": 0,
	"results": [
		{
			"number": 143650,
			"data": "4,56,80,4032,4960,21760,157248,1024128,39940992,2354688,91832832,655452160",
			"name": "Numbers m,n such that UnitaryPhi(n)=UnitaryPhi(m)=3/4*(m*n)^(1/2), m\u003c=n; sequence gives values of m.",
			"xref": [
				"Cf. A047994, A143649 (values of n)."
			],
			"keyword": "nonn,more",
			"offset": "1,1",
			"author": "_Yasutoshi Kohmoto_, Nov 04 2008",
			"ext": [
				"Removed the pair (m,n) = (4805,5445). - _R. J. Mathar_, Sep 04 2018"
			],
			"references": 1,
			"revision": 13,
			"time": "2018-09-04T10:04:45-04:00",
			"created": "2009-01-09T03:00:00-05:00"
		}
	]
}