{
	"greeting": "Greetings from The On-Line Encyclopedia of Integer Sequences! http://oeis.org/",
	"query": "id:A144245",
	"count": 1,
	"start": 0,
	"results": [
		{
			"number": 144245,
			"data": "17,73,89,6553,6569,4782961,4782977,3486784393,3486784409,31381059601,1350851717672992097,984770902183611232889,381520424476945831628649898801,969773729787523602876821942164080815560169",
			"name": "Prime numbers of the form 9^k +- 8.",
			"link": [
				"Harvey P. Dale, \u003ca href=\"/A144245/b144245.txt\"\u003eTable of n, a(n) for n = 1..20\u003c/a\u003e"
			],
			"mathematica": [
				"Select[Union[Flatten[#+{8,-8}\u0026/@(9^Range[100])]],PrimeQ] (* _Harvey P. Dale_, Oct 24 2012 *)"
			],
			"xref": [
				"Cf. A000040, A000668, A144231, A144232, A144233, A144234, A144236, A144242"
			],
			"keyword": "nonn",
			"offset": "1,1",
			"author": "_Reikku Kulon_, Sep 15 2008",
			"ext": [
				"One additional term from _Harvey P. Dale_, Oct 24 2012"
			],
			"references": 4,
			"revision": 4,
			"time": "2012-10-24T11:49:17-04:00",
			"created": "2009-01-09T03:00:00-05:00"
		}
	]
}