{
	"greeting": "Greetings from The On-Line Encyclopedia of Integer Sequences! http://oeis.org/",
	"query": "id:A144565",
	"count": 1,
	"start": 0,
	"results": [
		{
			"number": 144565,
			"data": "12,30,35,57,110,130,170,190,230,290,310,370,410,430,447,453,459,561,567,671,730,779,783,789,897,1010,1030,1070,1090,1113,1127,1131,1137,1139,1149,1510,1570,1630,1670,1730,1790,1810,1910,1930,1970,1990,2110",
			"name": "a(n) is the smallest composite number \u003e a(n-1) that contains the n-th prime as a substring.",
			"formula": [
				"a(n) \u003c= 10*n. [_Reinhard Zumkeller_, May 16 2010]"
			],
			"example": [
				"S = 12,30,35,57,110,130,170,190,230,290,310,370,410,430,447,...",
				"p = .2.3...5..7.11..13..17..19..23..29..31..37..41..43...47..."
			],
			"xref": [
				"Cf. A169798.",
				"Cf. A177981, A177982. [_Reinhard Zumkeller_, May 16 2010]"
			],
			"keyword": "nonn,base",
			"offset": "1,1",
			"author": "_Eric Angelini_, May 01 2010",
			"ext": [
				"Typo in example corrected by _D. S. McNeil_, May 16 2010",
				"Corrected and extended by _D. S. McNeil_ and _Reinhard Zumkeller_, May 16 2010"
			],
			"references": 5,
			"revision": 9,
			"time": "2020-12-15T09:10:11-05:00",
			"created": "2009-01-09T03:00:00-05:00"
		}
	]
}