{
	"greeting": "Greetings from The On-Line Encyclopedia of Integer Sequences! http://oeis.org/",
	"query": "id:A144293",
	"count": 1,
	"start": 0,
	"results": [
		{
			"number": 144293,
			"data": "1,1,2,5,5,13,29,877,23,53,4639,22619,2423,27644437,1800937,1101959,43486067,255755771,5006399,222527,4326209287,188633,574631,13369534669,1204457631577,171659,11759883224809,2479031,171572636187431,3516743833",
			"name": "Largest prime factor of n-th Bell number A000110(n) (or 1 if A000110(n) = 1).",
			"comment": [
				"From _David Pasino_, Dec 03 2008: (Start)",
				"The number of refinements of a partition is the product of the Bell numbers of the cell sizes.",
				"The number of encoarsements is the Bell number of the number of cells.",
				"For these to be equal, a Bell number has to be a product of Bell numbers.",
				"This happens if there are n-1 single-element cells and 1 n-element cell.",
				"Does it ever happen otherwise? (End)"
			],
			"link": [
				"Amiram Eldar, \u003ca href=\"/A144293/b144293.txt\"\u003eTable of n, a(n) for n = 0..104\u003c/a\u003e (terms 0..70 from T. D. Noe)",
				"Simon Plouffe, \u003ca href=\"http://plouffe.fr/simon/constants/factors_of_bell_numbers.txt\"\u003eFactors of Bell numbers\u003c/a\u003e [_David Pasino_, Dec 03 2008]",
				"Prime-Numbers.org, \u003ca href=\"http://www.prime-numbers.org/\"\u003ePrime number checker up to 10000000000\u003c/a\u003e [_David Pasino_, Dec 03 2008]"
			],
			"mathematica": [
				"Join[{1}, Table[FactorInteger[BellB[n]][[-1, 1]], {n, 40}]] (* _Vincenzo Librandi_, Jan 04 2017 *)"
			],
			"program": [
				"(MAGMA) [1,1] cat [Maximum(PrimeDivisors(Bell(n))): n in [2..30]]; // _Vincenzo Librandi_, Jan 04 2017"
			],
			"keyword": "nonn",
			"offset": "0,3",
			"author": "_N. J. A. Sloane_, Dec 03 2008",
			"ext": [
				"a(15)-a(20) from _David Pasino_, Dec 03 2008",
				"a(21) onwards from _N. J. A. Sloane_, Dec 04 2008",
				"Corrected by _David Pasino_, Dec 14 2008"
			],
			"references": 4,
			"revision": 24,
			"time": "2021-02-23T11:56:09-05:00",
			"created": "2009-01-09T03:00:00-05:00"
		}
	]
}