{
	"greeting": "Greetings from The On-Line Encyclopedia of Integer Sequences! http://oeis.org/",
	"query": "id:A144777",
	"count": 1,
	"start": 0,
	"results": [
		{
			"number": 144777,
			"data": "18,27,36,45,54,63,72,81,90,1089,1098,1179,1188,1197,1269,1278,1287,1296,1359,1368,1377,1386,1395,1449,1458,1467,1476,1485,1494,1539,1548,1557,1566,1575,1584,1593,1629,1638,1647,1656,1665,1674,1683,1692,1719",
			"name": "Integers having decimal digital mean equal to zero.",
			"comment": [
				"Define the digital mean of n in base b, dm(b, n), to be sigma(i in [1, d]: d_i * 2 - (b - 1)) / (2 * d), where d is the number of digits in the base b representation of n and d_i the individual digits.",
				"a(n) is the subset of multiples of nine for which sigma(i in [1, d]: d_i * 2 - 9) = 0; that is, two times the sum of the digits is equal to nine times the number of digits."
			],
			"xref": [
				"Cf. A007953, A008591"
			],
			"keyword": "base,easy,nonn",
			"offset": "1,1",
			"author": "_Reikku Kulon_, Sep 21 2008",
			"references": 8,
			"revision": 2,
			"time": "2012-03-31T10:28:53-04:00",
			"created": "2009-01-09T03:00:00-05:00"
		}
	]
}