{
	"greeting": "Greetings from The On-Line Encyclopedia of Integer Sequences! http://oeis.org/",
	"query": "id:A144685",
	"count": 1,
	"start": 0,
	"results": [
		{
			"number": 144685,
			"data": "4,9,20,45,100,222,488,1069,2324,5034,10840,23266,49704,105884,224720,475773,1004212,2115186",
			"name": "Size of acyclic domain of size n based on the alternating scheme.",
			"reference": [
				"B. Monjardet, Acyclic domains of linear orders: a survey, in \"The Mathematics of Preference, Choice and Order: Essays in Honor of Peter Fishburn\", edited by Steven Brams, William V. Gehrlein and Fred S. Roberts, Springer, 2009, pp. 139-160."
			],
			"link": [
				"A. Galambos and V. Reiner, \u003ca href=\"https://www.kellogg.northwestern.edu/research/math/seminars/200405/Galambos06205.pdf\"\u003eAcyclic sets of linear orders via the Bruhat order\u003c/a\u003e, Social Choice and Welfare, 30 (No. 2, 2008), 245-264."
			],
			"formula": [
				"Montrachet gives the following formula, attributed to Galambos and Reiner: if n mod 2 = 0 and n \u003e 2 then a(n) = 2^(n-3)*(n+3)-binomial(n-2,n/2-1)*(n-3/2), otherwise if n \u003e 1 then a(n) = 2^(n-3)*(n+3)-binomial(n-1,(n-1)/2)*(n-1)/2. [Corrected by Jan Volec (janvolec(AT)jikos.cz), Oct 26 2009]",
				"a(n) ~ n*2^(n-3). - _Clayton Thomas_, Aug 19 2019"
			],
			"keyword": "nonn,more",
			"offset": "3,1",
			"author": "_N. J. A. Sloane_ Feb 07 2009",
			"references": 1,
			"revision": 13,
			"time": "2019-08-19T15:32:03-04:00",
			"created": "2009-02-27T03:00:00-05:00"
		}
	]
}