{
	"greeting": "Greetings from The On-Line Encyclopedia of Integer Sequences! http://oeis.org/",
	"query": "id:A144442",
	"count": 1,
	"start": 0,
	"results": [
		{
			"number": 144442,
			"data": "1,1,1,1,17,1,1,118,118,1,1,729,2681,729,1,1,4400,41745,41745,4400,1,1,26431,555240,1349245,555240,26431,1,1,158622,6816846,33456685,33456685,6816846,158622,1,1,951773,80034743,715321156,1411926995,715321156",
			"name": "Triangle read by rows: T(n,1)=T(n,n)=1 and T(n,k) = (1+5n-5k)*T(n-1,k-1) +(5k-4)*T(n-1,k) + 5*T(n-2,k-1) while 1\u003ck\u003cn.",
			"comment": [
				"Row sums are: s(n) = 1, 2, 19, 238, 4141, 92292, 2512589, 80864308, 3004542341, 126595099862,.. with s(n) +(8-5n)*s(n-1) -5*s(n-2)=0."
			],
			"example": [
				"1;",
				"1, 1;",
				"1, 17, 1;",
				"1, 118, 118, 1;",
				"1, 729, 2681, 729, 1;",
				"1, 4400, 41745, 41745, 4400, 1;",
				"1, 26431, 555240, 1349245, 555240, 26431, 1;",
				"1, 158622, 6816846, 33456685, 33456685, 6816846, 158622, 1;",
				"1, 951773, 80034743, 715321156, 1411926995, 715321156, 80034743, 951773, 1;",
				"1, 5710684, 915439111, 13960299759, 48416100376, 48416100376, 13960299759, 915439111, 5710684, 1;"
			],
			"mathematica": [
				"Clear[A, m, n, j, k] m = j = 5; A[n_, 1] := 1; A[n_, n_] := 1; A[n_, k_] := (m*n - m*k + 1)A[n - 1, k - 1] + (m*k - (m - 1))A[n - 1, k] + j*A[n - 2, k - 1]; a = Table[A[n, k], {n, 10}, {k, n}]; Flatten[a]"
			],
			"keyword": "nonn,tabl",
			"offset": "1,5",
			"author": "_Roger L. Bagula_ and _Gary W. Adamson_, Oct 05 2008",
			"references": 0,
			"revision": 5,
			"time": "2013-09-13T12:07:20-04:00",
			"created": "2009-01-09T03:00:00-05:00"
		}
	]
}