{
	"greeting": "Greetings from The On-Line Encyclopedia of Integer Sequences! http://oeis.org/",
	"query": "id:A144964",
	"count": 1,
	"start": 0,
	"results": [
		{
			"number": 144964,
			"data": "1,3,31,16383,4398046511103,5444517870735015415413993718908291383295",
			"name": "Number of groves of degree n.",
			"comment": [
				"Let Y_n be the set of trees of degree n. A nonempty subset of Y_n is called a grove. The set of all groves of degree n is denoted by Y_n. a(n) for n\u003c= 7 given by rightmost column of Table 1, p. 3, of Bruno and Yasaki: The arithmetic of the natural numbers N can be extended to arithmetic operations on planar binary trees. This gives rise to a noncommutative arithmetic theory. In this exposition, we describe this arithmetree, first defined by Loday and investigate prime trees."
			],
			"link": [
				"Adriano Bruno, Dan Yasaki, \u003ca href=\"http://arxiv.org/abs/0809.4448\"\u003eThe arithmetic of trees\u003c/a\u003e, arXiv:0809.4448 [math.CO]",
				"J.-L. Loday, \u003ca href=\"http://dx.doi.org/10.1016/S0021-8693(02)00510-0\"\u003eArithmetree\u003c/a\u003e, J. Algebra 258 (2002), no. 1, 275-309."
			],
			"xref": [
				"Cf. A000108."
			],
			"keyword": "nonn",
			"offset": "1,2",
			"author": "_Jonathan Vos Post_, Sep 27 2008",
			"references": 0,
			"revision": 10,
			"time": "2018-04-28T17:01:08-04:00",
			"created": "2009-01-09T03:00:00-05:00"
		}
	]
}