{
	"greeting": "Greetings from The On-Line Encyclopedia of Integer Sequences! http://oeis.org/",
	"query": "id:A144496",
	"count": 1,
	"start": 0,
	"results": [
		{
			"number": 144496,
			"data": "7,37,229,1633,13219,119917,1205857,13318249,160305343,2088846709,29297613277,440110297777,7050173910619,119970793032253,2161243124917849,41091937905633337,822320410135133047,17277401903869659589,380267691288777510613,8749454854573455141889",
			"name": "Row 3 of array in A144502.",
			"link": [
				"Alois P. Heinz, \u003ca href=\"/A144496/b144496.txt\"\u003eTable of n, a(n) for n = 0..200\u003c/a\u003e"
			],
			"formula": [
				"E.g.f.: exp(x)*(7-5*x+x^2)/(1-x)^5.",
				"a(n) ~ n! * n^4 * exp(1)/8. - _Vaclav Kotesovec_, Oct 08 2013"
			],
			"mathematica": [
				"CoefficientList[Series[E^x*(7-5*x+x^2)/(1-x)^5, {x, 0, 20}], x]* Range[0, 20]! (* _Vaclav Kotesovec_, Oct 08 2013 *)"
			],
			"keyword": "nonn",
			"offset": "0,1",
			"author": "_David Applegate_ and _N. J. A. Sloane_, Dec 13 2008",
			"references": 2,
			"revision": 7,
			"time": "2013-10-08T21:23:37-04:00",
			"created": "2009-01-09T03:00:00-05:00"
		}
	]
}