{
	"greeting": "Greetings from The On-Line Encyclopedia of Integer Sequences! http://oeis.org/",
	"query": "id:A144717",
	"count": 1,
	"start": 0,
	"results": [
		{
			"number": 144717,
			"data": "1,2,3,5,7,8,9,11,12,14,17,20,24,30,34,44,72,85,86,92,115,122,125,132,142,150,161,162,181,186,198,224,248,252,282,283,290,307,319,321,344,350,376,445,476,567,623,676,682,704,741,749,786,803,806,893,1014,1046",
			"name": "a(n) = smallest positive integer \u003e a(n-1) such that 2*a(1)*a(2)*...*a(n) + 1 is prime.",
			"link": [
				"Jon E. Schoenfield, \u003ca href=\"/A144717/b144717.txt\"\u003eTable of n, a(n) for n = 1..505\u003c/a\u003e (lists all terms \u003c 10^5)"
			],
			"example": [
				"a(1)=1 because a(0) is not defined and 2*1 + 1 = 3 is prime;",
				"a(2)=2 because 2*1*2 + 1 = 5 is prime;",
				"a(3)=3 because 2*1*2*3 + 1 = 13 is prime;",
				"a(4) is not 4 because 2*1*2*3*4 + 1 = 49 is not prime, but a(4)=5 works because 2*1*2*3*5 + 1 = 61 is prime."
			],
			"mathematica": [
				"k = 2; a = {}; Do[If[PrimeQ[k n + 1], k = k n; AppendTo[a, n]], {n, 1, 3000}]; a (* _Artur Jasinski_ *)",
				"nxt[{p_,a_}]:=Module[{k=a+1,c},While[!PrimeQ[p*k+1],k++];{p*k,k}]; NestList[ nxt,{2,1},60][[All,2]] (* _Harvey P. Dale_, Aug 18 2021 *)"
			],
			"xref": [
				"Cf. A046966, A046972, A144718, A144722, A144723, A144724, A144725, A144726, A144727, A144728, A144729, A144730, A144731."
			],
			"keyword": "nonn,nice",
			"offset": "1,2",
			"author": "_Artur Jasinski_, Sep 19 2008",
			"ext": [
				"Edited by _N. J. A. Sloane_, Sep 21 2017 following suggestions from Richard C. Schroeppel"
			],
			"references": 13,
			"revision": 23,
			"time": "2021-08-18T20:00:35-04:00",
			"created": "2009-01-09T03:00:00-05:00"
		}
	]
}