{
	"greeting": "Greetings from The On-Line Encyclopedia of Integer Sequences! http://oeis.org/",
	"query": "id:A144608",
	"count": 1,
	"start": 0,
	"results": [
		{
			"number": 144608,
			"data": "0,0,1,0,1,0,1,0,1,0,1,0,1,0,1,0,1,0,1,0,1,0,0,1,0,1,0,1,0,1,0,1,0,1,0,1,0,1,0,1,0,1,0,0,1,0,1,0,1,0,1,0,1,0,1,0,1,0,1,0,1,0,1,0,0,1,0,1,0,1,0,1,0,1,0,1,0,1,0,1,0,1,0,1,0,0,1,0,1,0,1,0,1,0,1,0,1,0,1,0,1,0,1,0,1",
			"name": "Christoffel word of slope 10/11.",
			"xref": [
				"See A144595 for further details."
			],
			"keyword": "nonn",
			"offset": "0,1",
			"author": "_N. J. A. Sloane_, Jan 13 2009",
			"references": 1,
			"revision": 2,
			"time": "2012-03-30T16:51:00-04:00",
			"created": "2009-02-27T03:00:00-05:00"
		}
	]
}