{
	"greeting": "Greetings from The On-Line Encyclopedia of Integer Sequences! http://oeis.org/",
	"query": "id:A144756",
	"count": 1,
	"start": 0,
	"results": [
		{
			"number": 144756,
			"data": "1,3,33,627,16929,592515,25478145,1299385395,76663738305,5136470466435,385235284982625,31974528653557875,2909682107473766625,288058528639902895875,30822262564469609858625",
			"name": "Partial products of successive terms of A017101; a(0)=1 .",
			"formula": [
				"a(n) = Sum_{k=0..n} A132393(n,k)*3^k*8^(n-k).",
				"a(n) = (-5)^n*sum_{k=0..n} (8/5)^k*s(n+1,n+1-k), where s(n,k) are the Stirling numbers of the first kind, A048994. - _Mircea Merca_, May 03 2012",
				"G.f.: 2/G(0), where G(k)= 1 + 1/(1 - 2*x*(8*k+3)/(2*x*(8*k+3) - 1 + 16*x*(k+1)/G(k+1))); (continued fraction). - _Sergei N. Gladkovskii_, May 30 2013",
				"a(n) +(-8*n+5)*a(n-1)=0. - _R. J. Mathar_, Sep 04 2016",
				"From _Ilya Gutkovskiy_, Mar 23 2017: (Start)",
				"E.g.f.: 1/(1 - 8*x)^(3/8).",
				"a(n) ~ sqrt(2*Pi)*8^n*n^n/(exp(n)*n^(1/8)*Gamma(3/8)). (End)"
			],
			"example": [
				"a(0)=1, a(1)=3, a(2)=3*11=33, a(3)=3*11*19=627, a(4)=3*11*19*27=16929, ..."
			],
			"mathematica": [
				"s=1;lst={s};Do[s+=n*s;AppendTo[lst, s], {n, 2, 5!, 8}];lst (* _Vladimir Joseph Stephan Orlovsky_, Nov 08 2008 *)",
				"Join[{1},FoldList[Times,8Range[0,20]+3]] (* _Harvey P. Dale_, Aug 11 2019 *)"
			],
			"xref": [
				"Cf. A001710, A001147, A032031, A008545, A047056, A011781, A144739."
			],
			"keyword": "nonn,easy",
			"offset": "0,2",
			"author": "_Philippe Deléham_, Sep 20 2008",
			"ext": [
				"a(11) corrected by _Ilya Gutkovskiy_, Mar 23 2017"
			],
			"references": 3,
			"revision": 22,
			"time": "2019-08-11T16:44:14-04:00",
			"created": "2009-01-09T03:00:00-05:00"
		}
	]
}