{
	"greeting": "Greetings from The On-Line Encyclopedia of Integer Sequences! http://oeis.org/",
	"query": "id:A144284",
	"count": 1,
	"start": 0,
	"results": [
		{
			"number": 144284,
			"data": "1,4,1,36,4,1,504,36,16,4,1,9576,504,144,36,16,4,1,229824,9576,2016,1296,504,144,64,36,16,4,1,6664896,229824,38304,18144,9576,2016,1296,576,504,144,64,36,16,4,1,226606464,6664896,919296,344736,254016,229824,38304,18144",
			"name": "Partition number array, called M32hat(-4)= 'M32(-4)/M3'= 'A144267/A036040', related to A011801(n,m)= |S2(-4;n,m)| (generalized Stirling triangle).",
			"comment": [
				"Each partition of n, ordered as in Abramowitz-Stegun (A-St order; for the reference see A134278), is mapped to a nonnegative integer a(n,k) =: M32hat(-4;n,k) with the k-th partition of n in A-St order.",
				"The sequence of row lengths is A000041 (partition numbers) [1, 2, 3, 5, 7, 11, 15, 22, 30, 42,...].",
				"If M32hat(-4;n,k) is summed over those k with fixed number of parts m one obtains triangle S2hat(-4):= A144285(n,m)."
			],
			"link": [
				"W. Lang, \u003ca href=\"/A144284/a144284.txt\"\u003eFirst 10 rows of the array and more.\u003c/a\u003e",
				"W. Lang, \u003ca href=\"http://www.cs.uwaterloo.ca/journals/JIS/VOL12/Lang/lang.html\"\u003eCombinatorial Interpretation of Generalized Stirling Numbers\u003c/a\u003e, J. Int. Seqs. Vol. 12 (2009) 09.3.3."
			],
			"formula": [
				"a(n,k)= product(|S2(-4,j,1)|^e(n,k,j),j=1..n) with |S2(-4,n,1)|= A008546(n-1) = (5*n-6)(!^5) (5-factorials) for n\u003e=2 and 1 if n=1 and the exponent e(n,k,j) of j in the k-th partition of n in the A-St ordering of the partitions of n.",
				"Formally a(n,k)= 'M32(-4)/M3' = 'A144267/A036040' (elementwise division of arrays)."
			],
			"example": [
				"a(4,3)= 16 = |S2(-4,2,1)|^2. The relevant partition of 4 is (2^2)."
			],
			"xref": [
				"A144279 (M32hat(-3) array). A144341 (M32hat(-5) array)"
			],
			"keyword": "nonn,easy,tabf",
			"offset": "1,2",
			"author": "_Wolfdieter Lang_ Oct 09 2008",
			"references": 4,
			"revision": 9,
			"time": "2019-08-29T16:42:58-04:00",
			"created": "2009-01-09T03:00:00-05:00"
		}
	]
}