{
	"greeting": "Greetings from The On-Line Encyclopedia of Integer Sequences! http://oeis.org/",
	"query": "id:A144816",
	"count": 1,
	"start": 0,
	"results": [
		{
			"number": 144816,
			"data": "1,2,2,8,4,8,16,16,16,16,128,32,64,32,128,256,256,128,128,256,256,1024,512,1024,256,1024,512,1024,2048,2048,2048,2048,2048,2048,2048,2048,32768,4096,8192,4096,16384,4096,8192,4096,32768,65536,65536,16384",
			"name": "Denominators of triangle T(n,k), n\u003e=0, 0\u003c=k\u003c=n, read by rows: T(n,k) is the coefficient of x^(2*k+1) in polynomial t_n(x), used to define continuous and n times differentiable sigmoidal transfer functions.",
			"link": [
				"Alois P. Heinz, \u003ca href=\"/A144816/b144816.txt\"\u003eRows n = 0..44, flattened\u003c/a\u003e"
			],
			"example": [
				"Triangle begins:",
				"    1;",
				"    2,  2;",
				"    8,  4,  8;",
				"   16, 16, 16, 16;",
				"  128, 32, 64, 32, 128;",
				"  ..."
			],
			"maple": [
				"# Function T(n,k) defined in A144815.",
				"seq(seq(denom(T(n,k)), k=0..n), n=0..10);"
			],
			"mathematica": [
				"row[n_] := Module[{f, a, eq}, f = Function[x, Sum[a[2*k+1]*x^(2*k+1), {k, 0, n}]]; eq = Table[Derivative[k][f][1] == If[k == 0, 1, 0], {k, 0, n}]; Table[a[2*k+1], {k, 0, n}] /. Solve[eq] // First]; Table[row[n] // Denominator, {n, 0, 10}] // Flatten (* _Jean-François Alcover_, Feb 03 2014 *)"
			],
			"xref": [
				"See A144815 for more information on T(n,k).",
				"Diagonal and column k=0 gives A046161.",
				"Column k=1 gives A101926(n-1) = 2^A101925(n-1) = 2^(A005187(n-1)+1)."
			],
			"keyword": "frac,nonn,tabl,look",
			"offset": "0,2",
			"author": "_Alois P. Heinz_, Sep 21 2008",
			"references": 3,
			"revision": 22,
			"time": "2020-10-23T09:31:31-04:00",
			"created": "2009-01-09T03:00:00-05:00"
		}
	]
}