{
	"greeting": "Greetings from The On-Line Encyclopedia of Integer Sequences! http://oeis.org/",
	"query": "id:A144966",
	"count": 1,
	"start": 0,
	"results": [
		{
			"number": 144966,
			"data": "1,-2,1,-3,1,1,0,0,0,1,-5,-2,1,0,1,6,0,0,0,0,1,-7,-3,0,1,0,0,1,0,0,-2,0,0,0,0,1,0,0,0,0,1,0,0,0,1,10,0,0,0,0,0,0,0,0,1,-11,-5,-3,-2,0,1,0,0,0,0,1,0,0,0,0,0,0,0,0,0,0,0,1,-13,6,0,0,0,0,1,0,0,0,0,0,1,14,0,0,0,-2,0",
			"name": "Square array T(n,k) read by antidiagonals up. A055615 interleaved with k-1 zeros in each column. Redheffer type matrix.",
			"comment": [
				"Determinant of this array appears to be the triangular numbers. The number of permutations that contribute to the result of the zero corner determinant that give the natural numbers, appears to be given by A002033."
			],
			"example": [
				"Determinant of:",
				"1",
				"is equal to 1.",
				"Determinant of:",
				"1,1",
				"-2,0",
				"is equal to 2.",
				"Determinant of:",
				"1,1,1",
				"-2,1,0",
				"-3,0,0",
				"is equal to 3.",
				"Determinant of:",
				"1,1,1,1",
				"-2,1,0,0",
				"-3,0,1,0",
				"0,-2,0,0",
				"is equal to 4.",
				"Determinant of:",
				"1,1,1,1,1",
				"-2,1,0,0,0",
				"-3,0,1,0,0",
				"0,-2,0,1,0",
				"-5,0,0,0,0",
				"is equal to 5.",
				"Determinant of:",
				"1,1,1,1,1,1",
				"-2,1,0,0,0,0",
				"-3,0,1,0,0,0",
				"0,-2,0,1,0,0",
				"-5,0,0,0,1,0",
				"6,-3,-2,0,0,0",
				"is equal to 6."
			],
			"program": [
				"(Excel) =if(mod(row(); column())=0; lookup(row()/column(); A000027; A055615); if(row()=1; 1; 0))"
			],
			"xref": [
				"Cf. A143104, A143142."
			],
			"keyword": "sign,tabl",
			"offset": "1,2",
			"author": "_Mats Granvik_, Sep 27 2008",
			"references": 0,
			"revision": 3,
			"time": "2016-04-25T11:45:53-04:00",
			"created": "2009-01-09T03:00:00-05:00"
		}
	]
}