{
	"greeting": "Greetings from The On-Line Encyclopedia of Integer Sequences! http://oeis.org/",
	"query": "id:A144260",
	"count": 1,
	"start": 0,
	"results": [
		{
			"number": 144260,
			"data": "1,1,1,4,2,1,1,1,16,1,8,1,1,4,1,16,2,1,256,1,1,1,128,4,1,1,1,1",
			"name": "Number of symmetric n X n binary matrices with each element equal to one minus the sum of its horizontal and vertical neighbors, modulo two.",
			"comment": [
				"A075462 is a(n) without the symmetry restriction."
			],
			"keyword": "nonn",
			"offset": "1,4",
			"author": "_R. H. Hardin_, Sep 16 2008",
			"references": 1,
			"revision": 3,
			"time": "2012-03-31T12:35:07-04:00",
			"created": "2009-01-09T03:00:00-05:00"
		}
	]
}