{
	"greeting": "Greetings from The On-Line Encyclopedia of Integer Sequences! http://oeis.org/",
	"query": "id:A145932",
	"count": 1,
	"start": 0,
	"results": [
		{
			"number": 145932,
			"data": "1,1,1,5,20,85,428,3123,34838,454719,8335296,187056538,6169076015,247329264689,14010937295624,978281276679416,99281241941019762,12290336204514423117",
			"name": "Number of n X n binary arrays symmetric under 180 degree rotation with all ones connected only in a tee 1,1 1,2 1,3 2,2 in any orientation.",
			"example": [
				"Maximal 8 X 8 example",
				".1.1.1.0.0.1.1.1",
				".0.1.0.0.0.0.1.0",
				".0.0.0.1.1.1.0.1",
				".1.0.0.0.1.0.1.1",
				".1.1.0.1.0.0.0.1",
				".1.0.1.1.1.0.0.0",
				".0.1.0.0.0.0.1.0",
				".1.1.1.0.0.1.1.1"
			],
			"keyword": "nonn",
			"offset": "1,4",
			"author": "_R. H. Hardin_, Oct 25 2008",
			"references": 0,
			"revision": 3,
			"time": "2012-03-31T12:35:08-04:00",
			"created": "2009-01-09T03:00:00-05:00"
		}
	]
}