{
	"greeting": "Greetings from The On-Line Encyclopedia of Integer Sequences! http://oeis.org/",
	"query": "id:A145543",
	"count": 1,
	"start": 0,
	"results": [
		{
			"number": 145543,
			"data": "1,4,9,31,71,244,559,1921,4401,15124,34649,119071,272791,937444,2147679,7380481,16908641,58106404,133121449,457470751,1048062951,3601659604,8251382159,28355806081,64962994321,223244789044,511452572409,1757602506271,4026657584951",
			"name": "Denominators in continued fraction expansion of sqrt(3/5).",
			"comment": [
				"A145542/a(n) tends to sqrt(3/5)."
			],
			"formula": [
				"Use the partial quotients of the continued fraction expansion of sqrt(3/5) as recursive operation multipliers, given a(1) = 1, a(2) = 4.",
				"Empirical G.f.: x*(1+4*x+x^2-x^3)/(1-8*x^2+x^4). - _Colin Barker_, Jan 04 2012"
			],
			"example": [
				"Since the partial quotients of CF sqrt(3/5)= [1, 3, 2, 3, 2, 3,...] denominators are 1, 4, 9, 31, 71, 244, 559,...; given a(1) = 1, a(2) = 4."
			],
			"mathematica": [
				"Rest @ Denominator @ Convergents [Sqrt[3/5], 30] (* _Amiram Eldar_, Feb 26 2020 *)"
			],
			"xref": [
				"Cf. A145542."
			],
			"keyword": "nonn,easy",
			"offset": "1,2",
			"author": "_Gary W. Adamson_, Oct 12 2008",
			"ext": [
				"More terms from _Amiram Eldar_, Feb 26 2020"
			],
			"references": 1,
			"revision": 19,
			"time": "2020-02-26T15:51:40-05:00",
			"created": "2009-01-09T03:00:00-05:00"
		}
	]
}