{
	"greeting": "Greetings from The On-Line Encyclopedia of Integer Sequences! http://oeis.org/",
	"query": "id:A145261",
	"count": 1,
	"start": 0,
	"results": [
		{
			"number": 145261,
			"data": "1,81,53217,283593393,12258075782601,4297629494449269153,12221263772988733500680961,281892642133040615422671776068833,52738993750936114896985550720064788375625",
			"name": "1/10 of the number of 10-colorings of an n X n array symmetric about main diagonal.",
			"keyword": "nonn",
			"offset": "1,2",
			"author": "_R. H. Hardin_, Oct 05 2008",
			"references": 0,
			"revision": 3,
			"time": "2012-03-31T12:35:08-04:00",
			"created": "2009-01-09T03:00:00-05:00"
		}
	]
}