{
	"greeting": "Greetings from The On-Line Encyclopedia of Integer Sequences! http://oeis.org/",
	"query": "id:A145161",
	"count": 1,
	"start": 0,
	"results": [
		{
			"number": 145161,
			"data": "1,3,15,118,1287,17547,279742,5006016,98012094,2064544861,46251043536,1092948858498,27078465176915,700154717998512,18825830520559743,524889708138232101,15140268414007624623,450944670503507069127",
			"name": "G.f. A(x) satisfies A(x/A(x)) = 1/(1-x)^3.",
			"formula": [
				"Self-convolution cube of A145160."
			],
			"program": [
				"(PARI) {a(n)=local(A=1+x+x*O(x^n));for(n=0,n,B=serreverse(x/A);A=1/(1-B)^3);polcoeff(A,n)}"
			],
			"xref": [
				"Cf. A145160."
			],
			"keyword": "nonn",
			"offset": "0,2",
			"author": "_Paul D. Hanna_, Oct 03 2008",
			"references": 2,
			"revision": 2,
			"time": "2012-03-30T18:37:15-04:00",
			"created": "2009-01-09T03:00:00-05:00"
		}
	]
}