{
	"greeting": "Greetings from The On-Line Encyclopedia of Integer Sequences! http://oeis.org/",
	"query": "id:A145811",
	"count": 1,
	"start": 0,
	"results": [
		{
			"number": 145811,
			"data": "0,0,1,0,2,0,4,4,7,4,9,8,13,12,19,16,22,20,29,28,37,30",
			"name": "1/2 of the number of islands of ones fitting in an n X n array symmetric under horizontal and vertical reflection with all ones connected only either three adjacent vertically or three adjacent horizontally.",
			"example": [
				"8 X 8 example with 8 islands",
				".1.1.1.0.0.1.1.1",
				".0.0.0.0.0.0.0.0",
				".1.1.1.0.0.1.1.1",
				".0.0.0.0.0.0.0.0",
				".0.0.0.0.0.0.0.0",
				".1.1.1.0.0.1.1.1",
				".0.0.0.0.0.0.0.0",
				".1.1.1.0.0.1.1.1"
			],
			"keyword": "nonn",
			"offset": "1,5",
			"author": "_R. H. Hardin_, Oct 20 2008",
			"references": 0,
			"revision": 3,
			"time": "2012-03-31T12:35:08-04:00",
			"created": "2009-01-09T03:00:00-05:00"
		}
	]
}