{
	"greeting": "Greetings from The On-Line Encyclopedia of Integer Sequences! http://oeis.org/",
	"query": "id:A145558",
	"count": 1,
	"start": 0,
	"results": [
		{
			"number": 145558,
			"data": "1,6,15,420,36,1386,36036,40040,6126120,2116296,255816,267711444,3346393050,1745944200,6850263420,14440355289360,1604483921040,3800093497200,2671465728531600,534293145706320,952435607563440,941958815880242160,362291852261631600",
			"name": "Denominators of partial sums of a certain alternating series of inverse central binomial coefficients.",
			"comment": [
				"See A145557 for the numerators, references and a W. Lang link."
			],
			"formula": [
				"a(n)=(1/2)*denominator(r(n)), with the rationals (in lowest terms) r(n):=sum(((-1)^(k+1))/(k*binomial(2*k,k)),k=1..n)."
			],
			"example": [
				"Rationals r(n) (in lowest terms): [1/2, 5/12, 13/30, 361/840, 31/72, 1193/2772, 31021/72072,...]."
			],
			"xref": [
				"A145375/A145556."
			],
			"keyword": "nonn,easy",
			"offset": "1,2",
			"author": "_Wolfdieter Lang_ Oct 17 2008",
			"references": 5,
			"revision": 3,
			"time": "2012-03-31T13:20:16-04:00",
			"created": "2009-01-09T03:00:00-05:00"
		}
	]
}