{
	"greeting": "Greetings from The On-Line Encyclopedia of Integer Sequences! http://oeis.org/",
	"query": "id:A145701",
	"count": 1,
	"start": 0,
	"results": [
		{
			"number": 145701,
			"data": "3,11,17,59,71,179,311,419,881,1151,2111,2591,3119,3527,4049,5099,15137,20807,21011,21839,24419,30011,34847,37811,41759,44699,46817,60899,68819,69191,83231,83639,86111,100799,103967,112337,135719,143111",
			"name": "Lesser p of twin primes (p,q) such that there exists an integer between sqrt(2p) and sqrt(2q)",
			"comment": [
				"The n-th prime p_n is in the sequence iff A145236(n) = A145236(n+1)."
			],
			"link": [
				"Harvey P. Dale, \u003ca href=\"/A145701/b145701.txt\"\u003eTable of n, a(n) for n = 1..500\u003c/a\u003e"
			],
			"mathematica": [
				"okQ[n_]:=Last[n]-First[n]==2\u0026\u0026Floor[Sqrt[2Last[n]]]\u003eSqrt[2First[n]]; Transpose[Select[Partition[Prime[Range[13300]],2,1],okQ]][[1]] (* _Harvey P. Dale_, Oct 26 2011 *)"
			],
			"xref": [
				"Cf. A001359, A006512, A145236."
			],
			"keyword": "nonn",
			"offset": "1,1",
			"author": "_Vladimir Shevelev_, Oct 16 2008",
			"ext": [
				"Extended by _R. J. Mathar_, Aug 02 2010"
			],
			"references": 3,
			"revision": 11,
			"time": "2013-11-21T12:49:27-05:00",
			"created": "2009-01-09T03:00:00-05:00"
		}
	]
}