{
	"greeting": "Greetings from The On-Line Encyclopedia of Integer Sequences! http://oeis.org/",
	"query": "id:A145114",
	"count": 1,
	"start": 0,
	"results": [
		{
			"number": 145114,
			"data": "1,2,4,8,16,32,64,128,255,507,1007,1999,3967,7871,15615,30976,61446,121886,241774,479582,951294,1886974,3742973,7424501,14727117,29212461,57945341,114939389,227991805,452240638,897056776,1779386436,3529560412,7001175484",
			"name": "Numbers of length n binary words with fewer than 6 0-digits between any pair of consecutive 1-digits.",
			"link": [
				"Vincenzo Librandi, \u003ca href=\"/A145114/b145114.txt\"\u003eTable of n, a(n) for n = 0..1000\u003c/a\u003e"
			],
			"formula": [
				"G.f.: (1-x+x^7)/(1-3*x+2*x^2+x^7-x^8)."
			],
			"example": [
				"a(8) = 255 = 2^8-1, because 10000001 is the only binary word of length 8 with not less than 6 0-digits between any pair of consecutive 1-digits."
			],
			"maple": [
				"a:= n-\u003e (Matrix([[2, 1$7]]). Matrix(8, (i, j)-\u003e if i=j-1 then 1 elif j=1 then [3, -2, 0$4, -1, 1][i] else 0 fi)^n)[1, 2]: seq(a(n), n=0..35);"
			],
			"mathematica": [
				"CoefficientList[Series[(1 - x + x^7) / (1 - 3 x + 2 x^2 + x^7 - x^8), {x, 0, 40}], x] (* _Vincenzo Librandi_, Jun 06 2013 *)"
			],
			"xref": [
				"6th column of A145111."
			],
			"keyword": "nonn,easy",
			"offset": "0,2",
			"author": "_Alois P. Heinz_, Oct 02 2008",
			"references": 2,
			"revision": 6,
			"time": "2013-06-06T06:38:27-04:00",
			"created": "2009-01-09T03:00:00-05:00"
		}
	]
}