{
	"greeting": "Greetings from The On-Line Encyclopedia of Integer Sequences! http://oeis.org/",
	"query": "id:A145193",
	"count": 1,
	"start": 0,
	"results": [
		{
			"number": 145193,
			"data": "2,2,2,3,2,3,2,3,3,2,3,2,3,3,3,3,2,2,3,4,4,3,2,4,2,3,3,3,4,2,4,2,2,4,3,4,3,2,3,2,5,3,3,3,2,4,2,4,3,4,3,2,3,5,3,3,5,2,3,3,3,3,3,4,3,3,3,3,4,2,5,2,3,3,3,4,2,3,5,3,3,3,3,3,3",
			"name": "Omega(6n-1) + Omega(6n+1).",
			"link": [
				"Charles R Greathouse IV, \u003ca href=\"/A145193/b145193.txt\"\u003eTable of n, a(n) for n = 1..10000\u003c/a\u003e"
			],
			"formula": [
				"a(n) = A001222(6n-1) + A001222(6n+1). - _Michel Marcus_, Sep 04 2013"
			],
			"example": [
				"For n=1, Omega(6n-1) + Omega(6n+1) = Omega(5) + Omega(7) = 1+1 = 2, so a(1)=2."
			],
			"mathematica": [
				"For[x=6, x\u003c601, x+=6,S=0;T=0;For[k=1, k\u003c Length[FactorInteger[x-1]]+1,k++,S+= FactorInteger[x-1][[k]][[2]]];For[m=1, m\u003cLength[FactorInteger[x+1]]+1,m++,T+= FactorInteger[x+1][[m]][[2]]]; Print[x/6,\" \",S+T]]",
				"Table[Total[PrimeOmega/@(6n+{1,-1})],{n,60}] (* _Harvey P. Dale_, May 22 2013 *)"
			],
			"program": [
				"(PARI) a(n) = bigomega(6*n-1) + bigomega(6*n+1); \\\\ _Michel Marcus_, Sep 04 2013"
			],
			"xref": [
				"Cf. A145194."
			],
			"keyword": "nonn,easy",
			"offset": "1,1",
			"author": "_Arran Fernandez_, Oct 03 2008",
			"ext": [
				"More terms from _Michel Marcus_, Sep 04 2013"
			],
			"references": 3,
			"revision": 8,
			"time": "2013-09-04T12:58:00-04:00",
			"created": "2009-01-09T03:00:00-05:00"
		}
	]
}