{
	"greeting": "Greetings from The On-Line Encyclopedia of Integer Sequences! http://oeis.org/",
	"query": "id:A145171",
	"count": 1,
	"start": 0,
	"results": [
		{
			"number": 145171,
			"data": "1,1,1,1,2,0,1,0,0,1,1,1,1,1,1,1,2,0,0,0,0,1,0,0,2,0,0,0,1,1,1,2,2,2,0,0,1,2,0,1,2,0,1,2,0,1,0,0,0,0,0,0,0,0,1,1,1,1,0,0,0,0,0,0,1,1",
			"name": "Triangle read by rows: left half of trinomial triangle (A027907) modulo 3.",
			"xref": [
				"Cf. A027907, A111808"
			],
			"keyword": "nonn,tabl",
			"offset": "1,5",
			"author": "_Reikku Kulon_, Oct 03 2008",
			"references": 0,
			"revision": 2,
			"time": "2012-03-31T10:28:54-04:00",
			"created": "2009-01-09T03:00:00-05:00"
		}
	]
}