{
	"greeting": "Greetings from The On-Line Encyclopedia of Integer Sequences! http://oeis.org/",
	"query": "id:A145428",
	"count": 1,
	"start": 0,
	"results": [
		{
			"number": 145428,
			"data": "1,0,2,5,5,1,9,7,4,5,6,9,3,6,8,7,1,4,0,2,3,7,6,3,1,3,0,3,0,5,6,8,6,2,2,9,2,9,1,3,6,2,6,4,9,9,2,3,7,0,9,6,2,3,0,2,2,7,9,5,3,9,7,4,1,5,5,2,4,9,2,7,2,4,5,0,5,4,1,5,5,3,4,7,3,6,4,9,9,9,5,2,8",
			"name": "Decimal expansion of sum_{n=1..inf} 3^n*(n!)^2/(2n)!.",
			"reference": [
				"Alexander Apelblat, Tables of Integrals and Series, Harri Deutsch, (1996), 4.1.34"
			],
			"formula": [
				"3+10*A019694*A020760."
			],
			"example": [
				"10.255197456936871..."
			],
			"maple": [
				"4/3*Pi*3^(1/2)+3 ;"
			],
			"keyword": "cons,easy,nonn",
			"offset": "2,3",
			"author": "_R. J. Mathar_, Feb 08 2009",
			"references": 0,
			"revision": 2,
			"time": "2012-03-30T17:39:44-04:00",
			"created": "2009-02-27T03:00:00-05:00"
		}
	]
}