{
	"greeting": "Greetings from The On-Line Encyclopedia of Integer Sequences! http://oeis.org/",
	"query": "id:A146116",
	"count": 1,
	"start": 0,
	"results": [
		{
			"number": 146116,
			"data": "1,1,2,5,15,0,21,19,6,9,15,22,11,15,16,7,7,2,21,1,12,15,11,24,7,13,18,23,1,22,23,9,0,1,13,22,5,7,18,15,11,10,19,19,22,1,1,22,1,25,12,7,13,8,3,25,2,23,15,10,23,13,24,19,7,8,11,15,14,25,25,12,7,23,24,17,13,2,19,13,16",
			"name": "Bell numbers (A000110) read mod 26.",
			"link": [
				"G. C. Greubel, \u003ca href=\"/A146116/b146116.txt\"\u003eTable of n, a(n) for n = 0..10000\u003c/a\u003e",
				"W. F. Lunnon, P. A. B. Pleasants, and N. M. Stephens, \u003ca href=\"http://matwbn.icm.edu.pl/ksiazki/aa/aa35/aa3511.pdf\"\u003eArithmetic properties of Bell numbers to a composite modulus I\u003c/a\u003e, Acta Arithmetica 35 (1979), pp. 1-16."
			],
			"formula": [
				"a(n+75718776648063) = a(n). - _G. C. Greubel_, Feb 02 2016"
			],
			"mathematica": [
				"Mod[BellB[Range[0, 100]], 26] (* _G. C. Greubel_, Feb 02 2016 *)"
			],
			"program": [
				"(MAGMA) [Bell(n) mod 26: n in [0..100]]; // _G. C. Greubel_, Feb 02 2016"
			],
			"xref": [
				"Cf. A000110, A146113, A146114, A146115, A146117, A146118, A146119."
			],
			"keyword": "nonn",
			"offset": "0,3",
			"author": "_N. J. A. Sloane_, Feb 07 2009",
			"references": 10,
			"revision": 8,
			"time": "2016-02-03T16:00:55-05:00",
			"created": "2009-02-27T03:00:00-05:00"
		}
	]
}