{
	"greeting": "Greetings from The On-Line Encyclopedia of Integer Sequences! http://oeis.org/",
	"query": "id:A146998",
	"count": 1,
	"start": 0,
	"results": [
		{
			"number": 146998,
			"data": "1,1,1,1,1,3,8,23,61,183,609,3021,17551,122559,936997,8112490,77983308,921842339,13073413646,221502161483,4341535999765,98829117614873,2578684019463460,79032276911025441",
			"name": "Number of n X n binary arrays symmetric about main diagonal with all ones connected only in a 00100-00100-11111 pattern in any orientation.",
			"example": [
				"Maximal 8 X 8 example",
				".0.1.1.1.1.1.0.0",
				".1.0.0.1.0.0.0.0",
				".1.0.0.1.0.0.0.1",
				".1.1.1.0.0.0.0.1",
				".1.0.0.0.0.1.1.1",
				".1.0.0.0.1.0.0.1",
				".0.0.0.0.1.0.0.1",
				".0.0.1.1.1.1.1.0"
			],
			"keyword": "nonn",
			"offset": "1,6",
			"author": "_R. H. Hardin_, Nov 04 2008",
			"references": 0,
			"revision": 4,
			"time": "2012-03-31T12:35:14-04:00",
			"created": "2009-01-09T03:00:00-05:00"
		}
	]
}