{
	"greeting": "Greetings from The On-Line Encyclopedia of Integer Sequences! http://oeis.org/",
	"query": "id:A146194",
	"count": 1,
	"start": 0,
	"results": [
		{
			"number": 146194,
			"data": "1,1,1,1,1,1,13,33,61,131,505,1541,6387,29305,198459,1139657,7455433,47764793,415936701,3457440839,39284046163,428565300485,6364187322071",
			"name": "Number of n X n binary arrays symmetric under 90 degree rotation with all ones connected only in a 101-111-100 pattern in any orientation.",
			"example": [
				"Maximal 8 X 8 example",
				".0.0.0.0.0.0.1.0",
				".1.1.1.0.1.1.1.0",
				".0.1.0.0.1.0.1.0",
				".0.1.1.0.0.0.0.0",
				".0.0.0.0.0.1.1.0",
				".0.1.0.1.0.0.1.0",
				".0.1.1.1.0.1.1.1",
				".0.1.0.0.0.0.0.0"
			],
			"keyword": "nonn",
			"offset": "1,7",
			"author": "_R. H. Hardin_, Oct 27 2008",
			"references": 0,
			"revision": 4,
			"time": "2012-03-31T12:35:09-04:00",
			"created": "2009-01-09T03:00:00-05:00"
		}
	]
}