{
	"greeting": "Greetings from The On-Line Encyclopedia of Integer Sequences! http://oeis.org/",
	"query": "id:A146271",
	"count": 1,
	"start": 0,
	"results": [
		{
			"number": 146271,
			"data": "1,1,1,1,5,17,56,271,962,4903,45104,358857,4309512,55284185,919547239,17250892544,432277811298,11665546694793,439099597024204",
			"name": "Number of n X n binary arrays symmetric under 180 degree rotation with all ones connected only in a 110-111-110 pattern in any orientation.",
			"example": [
				"Maximal 8 X 8 example",
				".0.0.0.0.0.1.1.1",
				".0.0.0.0.0.1.1.1",
				".0.1.1.1.0.0.1.0",
				".0.1.1.1.0.1.0.0",
				".0.0.1.0.1.1.1.0",
				".0.1.0.0.1.1.1.0",
				".1.1.1.0.0.0.0.0",
				".1.1.1.0.0.0.0.0"
			],
			"keyword": "nonn",
			"offset": "1,5",
			"author": "_R. H. Hardin_",
			"references": 0,
			"revision": 4,
			"time": "2012-03-31T12:35:09-04:00",
			"created": "2009-01-09T03:00:00-05:00"
		}
	]
}