{
	"greeting": "Greetings from The On-Line Encyclopedia of Integer Sequences! http://oeis.org/",
	"query": "id:A146797",
	"count": 1,
	"start": 0,
	"results": [
		{
			"number": 146797,
			"data": "1,1,1,1,1,1,5,15,37,67,105,399,1261,4027,19513,89607,517461,2695467,14080529,92973015,632822045",
			"name": "Number of n X n binary arrays symmetric under 90 degree rotation with all ones connected only in a 0110-0100-1111 pattern in any orientation.",
			"example": [
				"Maximal 8 X 8 example",
				".1.0.0.0.1.1.1.1",
				".1.0.1.0.0.1.0.0",
				".1.1.1.0.0.1.1.0",
				".1.0.0.0.0.0.0.0",
				".0.0.0.0.0.0.0.1",
				".0.1.1.0.0.1.1.1",
				".0.0.1.0.0.1.0.1",
				".1.1.1.1.0.0.0.1"
			],
			"keyword": "nonn",
			"offset": "1,7",
			"author": "_R. H. Hardin_, Nov 04 2008",
			"references": 0,
			"revision": 4,
			"time": "2012-03-31T12:35:13-04:00",
			"created": "2009-01-09T03:00:00-05:00"
		}
	]
}