{
	"greeting": "Greetings from The On-Line Encyclopedia of Integer Sequences! http://oeis.org/",
	"query": "id:A146607",
	"count": 1,
	"start": 0,
	"results": [
		{
			"number": 146607,
			"data": "1,1,1,1,1,1,1,1,1,1,1,1,3,3,9,9,19,19,59,59,237,237,1193,1193,6925,6925,46535,46535,385115,385115",
			"name": "Number of n X n binary arrays symmetric about the diagonal and under 90 degree rotation with all ones connected only in a 1000-1111-0001 pattern in any orientation.",
			"example": [
				"Maximal 13 X 13 example",
				".0.0.0.1.1.0.0.0.1.1.0.0.0",
				".0.0.0.0.1.0.0.0.1.0.0.0.0",
				".0.0.0.0.1.0.0.0.1.0.0.0.0",
				".1.0.0.0.1.1.0.1.1.0.0.0.1",
				".1.1.1.1.0.0.0.0.0.1.1.1.1",
				".0.0.0.1.0.0.0.0.0.1.0.0.0",
				".0.0.0.0.0.0.0.0.0.0.0.0.0",
				".0.0.0.1.0.0.0.0.0.1.0.0.0",
				".1.1.1.1.0.0.0.0.0.1.1.1.1",
				".1.0.0.0.1.1.0.1.1.0.0.0.1",
				".0.0.0.0.1.0.0.0.1.0.0.0.0",
				".0.0.0.0.1.0.0.0.1.0.0.0.0",
				".0.0.0.1.1.0.0.0.1.1.0.0.0"
			],
			"keyword": "nonn",
			"offset": "1,13",
			"author": "_R. H. Hardin_, Nov 04 2008",
			"references": 0,
			"revision": 4,
			"time": "2012-03-31T12:35:11-04:00",
			"created": "2009-01-09T03:00:00-05:00"
		}
	]
}