{
	"greeting": "Greetings from The On-Line Encyclopedia of Integer Sequences! http://oeis.org/",
	"query": "id:A146501",
	"count": 1,
	"start": 0,
	"results": [
		{
			"number": 146501,
			"data": "4,8,7,5,1,2,4,8,7,5,1,2,4,8,7,5,1,2,4,8,7,5,1,2,4,8,7,5,1,2,4,8,7,5,1,2,4,8,7,5,1,2,4,8,7,5,1,2,4,8,7,5,1,2,4,8,7,5,1,2,4,8,7,5,1,2,4,8,7,5,1,2,4,8,7,5,1,2,4,8,7,5,1,2,4,8,7,5,1,2,4,8,7,5,1,2,4,8,7,5,1,2",
			"name": "Period 6: 4,8,7,5,1,2.",
			"comment": [
				"Consider second diagonal of array A070366 (1,5,7,8,4,2,) and differences:b(n)=4,-1,7,5,19,29,67,125=A000079+((-1)^n)*3=A140657(n-1). a(n)=b(n) mod 9. Also reversal A070366(n+4).",
				"1,2,4,5,7,8 particular order.",
				"Differences are period 6: 4,-1,-2,-4,1,2=A132954(n+2). Note principal diagonal of array a(n) and successive differences is 4,-1,7,5,19,29=b(n),upon.",
				"Terms of the simple continued fraction of 481/(sqrt(548587)-624). Decimal expansion of 488/1001. [From _Paolo P. Lava_, Feb 17 2009]"
			],
			"link": [
				"\u003ca href=\"/index/Rec#order_04\"\u003eIndex entries for linear recurrences with constant coefficients\u003c/a\u003e, signature (1,0,-1,1)."
			],
			"formula": [
				"a(n)=(1/30)*{-(n mod 6)+4*[(n+1) mod 6]+29*[(n+2) mod 6]+19*[(n+3) mod 6]+14*[(n+4) mod 6]-11*[(n+5) mod 6]}, with n\u003e=0 [From _Paolo P. Lava_, Nov 06 2008]",
				"G.f.: (4+4*x-x^2+2*x^3)/((1-x)*(1+x)*(1-x+x^2)) [From _Jaume Oliver Lafont_, Aug 30 2009]"
			],
			"mathematica": [
				"LinearRecurrence[{1,0,-1,1},{4,8,7,5},102] (* _Ray Chandler_, Jul 15 2015 *)"
			],
			"xref": [
				"Cf. A029898, A141425, A141430, A146322"
			],
			"keyword": "nonn,easy",
			"offset": "0,1",
			"author": "_Paul Curtz_, Oct 30 2008",
			"ext": [
				"Extended by _Ray Chandler_, Jul 15 2015"
			],
			"references": 6,
			"revision": 21,
			"time": "2018-11-16T22:42:07-05:00",
			"created": "2009-01-09T03:00:00-05:00"
		}
	]
}