{
	"greeting": "Greetings from The On-Line Encyclopedia of Integer Sequences! http://oeis.org/",
	"query": "id:A146697",
	"count": 1,
	"start": 0,
	"results": [
		{
			"number": 146697,
			"data": "1,1,1,1,5,17,57,245,1399,8039,58749,512869,6687103,97819251,1920614851,41357859019",
			"name": "Number of n X n binary arrays symmetric under 180 degree rotation with all ones connected only in a 1100-1100-0111 pattern in any orientation.",
			"example": [
				"Maximal 8 X 8 example",
				".0.1.1.0.0.0.0.0",
				".1.1.1.0.0.0.1.1",
				".1.0.0.0.0.0.1.1",
				".1.0.0.0.1.1.1.0",
				".0.1.1.1.0.0.0.1",
				".1.1.0.0.0.0.0.1",
				".1.1.0.0.0.1.1.1",
				".0.0.0.0.0.1.1.0"
			],
			"keyword": "nonn",
			"offset": "1,5",
			"author": "_R. H. Hardin_, Nov 04 2008",
			"references": 0,
			"revision": 4,
			"time": "2012-03-31T12:35:12-04:00",
			"created": "2009-01-09T03:00:00-05:00"
		}
	]
}