{
	"greeting": "Greetings from The On-Line Encyclopedia of Integer Sequences! http://oeis.org/",
	"query": "id:A146362",
	"count": 1,
	"start": 0,
	"results": [
		{
			"number": 146362,
			"data": "521,617,709,1433,1597,2549,2909,3581,3821,4013,4649,5501,5693,5813,6197,7853,8093,8573,9281,9677,10597,10973,11273,13109,13613,15413,15641,15737,16001,16477,17093,20261,22637,24697,26717,32413,35537,38177,43717,46649,47681",
			"name": "Primes p such that continued fraction of (1 + sqrt(p))/2 has period 17 : primes in A146340.",
			"link": [
				"Amiram Eldar, \u003ca href=\"/A146362/b146362.txt\"\u003eTable of n, a(n) for n = 1..2000\u003c/a\u003e"
			],
			"mathematica": [
				"Select[Range[2*10^4], PrimeQ[#] \u0026\u0026 Length[ContinuedFraction[(1+Sqrt[#])/2][[2]]] == 17 \u0026] (* _Amiram Eldar_, Mar 30 2020 *)"
			],
			"xref": [
				"Cf. A000290, A050950-A050969, A078370, A146326-A146345, A146348-A146360."
			],
			"keyword": "nonn",
			"offset": "1,1",
			"author": "_Artur Jasinski_, Oct 30 2008",
			"ext": [
				"Period length in definition corrected, 2579, 5003 removed, 5813 inserted by _R. J. Mathar_, Sep 06 2009",
				"More terms from _Amiram Eldar_, Mar 30 2020"
			],
			"references": 4,
			"revision": 13,
			"time": "2020-03-30T05:37:10-04:00",
			"created": "2009-01-09T03:00:00-05:00"
		}
	]
}