{
	"greeting": "Greetings from The On-Line Encyclopedia of Integer Sequences! http://oeis.org/",
	"query": "id:A146216",
	"count": 1,
	"start": 0,
	"results": [
		{
			"number": 146216,
			"data": "1,1,5,17,45,317,5736,99087,2137142,81606063,5341611544,471313494449,60737322268763,12198817353925669",
			"name": "Number of n X n binary arrays with all ones connected only in a 101-111-010 pattern in any orientation.",
			"example": [
				"Maximal 8 X 8 example",
				".0.1.0.1.0.1.0.1",
				".0.1.1.1.0.1.1.1",
				".0.0.1.0.0.0.1.0",
				".1.1.0.0.0.0.0.0",
				".0.1.1.0.0.0.0.0",
				".1.1.0.1.1.0.1.1",
				".0.0.1.1.0.1.1.0",
				".0.0.0.1.1.0.1.1"
			],
			"keyword": "nonn",
			"offset": "1,3",
			"author": "_R. H. Hardin_",
			"references": 0,
			"revision": 4,
			"time": "2012-03-31T12:35:09-04:00",
			"created": "2009-01-09T03:00:00-05:00"
		}
	]
}