{
	"greeting": "Greetings from The On-Line Encyclopedia of Integer Sequences! http://oeis.org/",
	"query": "id:A146328",
	"count": 1,
	"start": 0,
	"results": [
		{
			"number": 146328,
			"data": "17,37,61,65,101,145,185,197,257,317,325,401,461,485,557,577,677,773,785,901,985,1025,1129,1157,1297,1429,1445,1601,1765,1877,1901,1937,2117,2285,2305,2501,2705,2873,2917,3077,3137,3281,3293,3341,3365,3601,3845,4045,4097,4357,4597,4625,4901",
			"name": "Numbers k such that the continued fraction of (1 + sqrt(k))/2 has period 3.",
			"comment": [
				"For primes in this sequence see A146348."
			],
			"link": [
				"Amiram Eldar, \u003ca href=\"/A146328/b146328.txt\"\u003eTable of n, a(n) for n = 1..10000\u003c/a\u003e"
			],
			"example": [
				"a(1) = 3 because continued fraction of (1+sqrt(17))/2 = 2, 1, 1, 3, 1, 1, 3, ... has period (1,1,3) length 3."
			],
			"maple": [
				"A146326 := proc(n) if not issqr(n) then numtheory[cfrac]( (1+sqrt(n))/2, 'periodic','quotients') ; nops(%[2]) ; else 0 ; fi; end: isA146328 := proc(n) RETURN(A146326(n) = 3) ; end: for n from 2 to 1801 do if isA146328(n) then printf(\"%d,\",n) ; fi; od: # _R. J. Mathar_, Sep 06 2009"
			],
			"mathematica": [
				"okQ[n_] := Module[{cf = ContinuedFraction[(1 + Sqrt[n])/2]}, Length[cf] \u003e 1 \u0026\u0026 Length[cf[[2]]] == 3]; Select[Range[5000], okQ]"
			],
			"xref": [
				"Cf. A000290, A078370, A146326-A146345, A146348-A146360."
			],
			"keyword": "nonn",
			"offset": "1,1",
			"author": "_Artur Jasinski_, Oct 30 2008",
			"ext": [
				"803 removed by _R. J. Mathar_, Sep 06 2009",
				"Extended by _T. D. Noe_, Mar 09 2011"
			],
			"references": 3,
			"revision": 22,
			"time": "2020-03-31T03:04:44-04:00",
			"created": "2009-01-09T03:00:00-05:00"
		}
	]
}