{
	"greeting": "Greetings from The On-Line Encyclopedia of Integer Sequences! http://oeis.org/",
	"query": "id:A146849",
	"count": 1,
	"start": 0,
	"results": [
		{
			"number": 146849,
			"data": "1,1,1,1,1,1,1,1,17,17,53,53,349,349,3775,3775,72823,72823,2211763,2211763,82363675,82363675",
			"name": "Number of n X n binary arrays symmetric under horizontal and vertical reflection with all ones connected only in a 1100-1111-0001 pattern in any orientation.",
			"example": [
				"Maximal 9 X 9 example",
				".0.0.0.0.0.0.0.0.0",
				".1.0.0.0.0.0.0.0.1",
				".1.1.1.1.0.1.1.1.1",
				".0.0.1.1.0.1.1.0.0",
				".0.0.0.0.0.0.0.0.0",
				".0.0.1.1.0.1.1.0.0",
				".1.1.1.1.0.1.1.1.1",
				".1.0.0.0.0.0.0.0.1",
				".0.0.0.0.0.0.0.0.0"
			],
			"keyword": "nonn",
			"offset": "1,9",
			"author": "_R. H. Hardin_, Nov 04 2008",
			"references": 0,
			"revision": 4,
			"time": "2012-03-31T12:35:14-04:00",
			"created": "2009-01-09T03:00:00-05:00"
		}
	]
}