{
	"greeting": "Greetings from The On-Line Encyclopedia of Integer Sequences! http://oeis.org/",
	"query": "id:A146235",
	"count": 1,
	"start": 0,
	"results": [
		{
			"number": 146235,
			"data": "1,1,1,1,5,17,37,167,1407,11143,90213,1212859,22145521,452553163,11809473343,424547990571,19424907241691,1100794820702881,80980732651220757,7763187679043412101,948623501056895583231",
			"name": "Number of n X n binary arrays symmetric about main diagonal with all ones connected only in a 110-111-001 pattern in any orientation.",
			"example": [
				"Maximal 8 X 8 example",
				".0.0.1.1.0.1.1.0",
				".0.0.1.1.0.0.1.1",
				".1.1.0.1.1.0.1.1",
				".1.1.1.0.0.1.0.0",
				".0.0.1.0.0.1.1.1",
				".1.0.0.1.1.0.1.1",
				".1.1.1.0.1.1.0.0",
				".0.1.1.0.1.1.0.0"
			],
			"keyword": "nonn",
			"offset": "1,5",
			"author": "_R. H. Hardin_",
			"references": 0,
			"revision": 4,
			"time": "2012-03-31T12:35:09-04:00",
			"created": "2009-01-09T03:00:00-05:00"
		}
	]
}