{
	"greeting": "Greetings from The On-Line Encyclopedia of Integer Sequences! http://oeis.org/",
	"query": "id:A146423",
	"count": 1,
	"start": 0,
	"results": [
		{
			"number": 146423,
			"data": "1,1,1,1,1,1,1,1,29,29,229,229,1773,1773,39925,39925,1086663,1086663,55544427,55544427,4442151653,4442151653",
			"name": "Number of n X n binary arrays symmetric under horizontal and vertical reflection with all ones connected only in a 1010-1111 pattern in any orientation.",
			"example": [
				"Maximal 9 X 9 example",
				".1.1.1.1.0.1.1.1.1",
				".1.0.1.0.0.0.1.0.1",
				".0.1.0.1.0.1.0.1.0",
				".1.1.1.1.0.1.1.1.1",
				".0.0.0.0.0.0.0.0.0",
				".1.1.1.1.0.1.1.1.1",
				".0.1.0.1.0.1.0.1.0",
				".1.0.1.0.0.0.1.0.1",
				".1.1.1.1.0.1.1.1.1"
			],
			"keyword": "nonn",
			"offset": "1,9",
			"author": "_R. H. Hardin_",
			"references": 0,
			"revision": 4,
			"time": "2012-03-31T12:35:10-04:00",
			"created": "2009-01-09T03:00:00-05:00"
		}
	]
}