{
	"greeting": "Greetings from The On-Line Encyclopedia of Integer Sequences! http://oeis.org/",
	"query": "id:A146758",
	"count": 1,
	"start": 0,
	"results": [
		{
			"number": 146758,
			"data": "7,97,983,9941,99839,999983,9998239,99999989,999950881,9999999929,99999999833,999999999989,9999999999863,99999999999971,999999961946087,9999999999999917,99999999989350667,999999999999999989",
			"name": "Last prime subtrahend at 10^n in A146757.",
			"example": [
				"A(2)=97 because 97 is the 15th and last prime difference under 10^2."
			],
			"maple": [
				"A146758 := proc(n) local p: p:=10^n: do p:=prevprime(p): if(isprime(ceil(evalf(sqrt(p)))^2-p))then return p: fi: od: end: seq(A146758(n),n=1..14); # _Nathaniel Johnston_, Oct 01 2011"
			],
			"program": [
				"(UBASIC) 10 'sq less pr are prime 20 N=1:O=1:C=1 30 A=3:S=sqrt(N):if N\u003e10^3 then print N,C-1:stop 40 B=N\\A 50 if B*A=N then 100 60 A=A+2 70 if A\u003c=S then 40 80 R=O^2:Q=R-N 90 if N\u003cR and N=prmdiv(N) and Q=prmdiv(Q) then if Q\u003e1 print R;N;Q;C:N=N+2:C=C+1:goto 30 100 N=N+2:if N\u003cR then 30:else O=O+1:goto 80"
			],
			"xref": [
				"Cf. A146757, A146759, A146760."
			],
			"keyword": "more,nonn",
			"offset": "1,1",
			"author": "_Enoch Haga_, Nov 02 2008",
			"ext": [
				"a(8)-a(18) from _Nathaniel Johnston_, Oct 01 2011"
			],
			"references": 2,
			"revision": 8,
			"time": "2019-05-04T21:08:07-04:00",
			"created": "2009-01-09T03:00:00-05:00"
		}
	]
}