{
	"greeting": "Greetings from The On-Line Encyclopedia of Integer Sequences! http://oeis.org/",
	"query": "id:A146464",
	"count": 1,
	"start": 0,
	"results": [
		{
			"number": 146464,
			"data": "1,1,1,1,1,7,21,55,263,1645,13423,126629,1447199,21743065,415978809,9965909653,303132585251,11591760284391,555704916934105,33613901189599473,2574475177790739409",
			"name": "Number of n X n binary arrays symmetric about main diagonal with all ones connected only in a 1100-0111-0100 pattern in any orientation.",
			"example": [
				"Maximal 8 X 8 example",
				".0.0.0.0.1.1.0.0",
				".0.0.1.1.1.0.0.0",
				".0.1.0.0.1.0.0.1",
				".0.1.0.0.0.1.1.1",
				".1.1.1.0.0.0.1.0",
				".1.0.0.1.0.0.1.0",
				".0.0.0.1.1.1.0.0",
				".0.0.1.1.0.0.0.0"
			],
			"keyword": "nonn",
			"offset": "1,6",
			"author": "_R. H. Hardin_",
			"references": 0,
			"revision": 4,
			"time": "2012-03-31T12:35:10-04:00",
			"created": "2009-01-09T03:00:00-05:00"
		}
	]
}