{
	"greeting": "Greetings from The On-Line Encyclopedia of Integer Sequences! http://oeis.org/",
	"query": "id:A146612",
	"count": 1,
	"start": 0,
	"results": [
		{
			"number": 146612,
			"data": "1,1,1,1,1,1,1,1,17,17,53,53,329,329,4465,4465,97649,97649,2836795,2836795,117091945,117091945",
			"name": "Number of n X n binary arrays symmetric under horizontal and vertical reflection with all ones connected only in a 1000-1111-0110 pattern in any orientation.",
			"example": [
				"Maximal 9 X 9 example",
				".0.0.0.0.0.0.0.0.0",
				".0.0.0.1.0.1.0.0.0",
				".1.1.1.1.0.1.1.1.1",
				".0.1.1.0.0.0.1.1.0",
				".0.0.0.0.0.0.0.0.0",
				".0.1.1.0.0.0.1.1.0",
				".1.1.1.1.0.1.1.1.1",
				".0.0.0.1.0.1.0.0.0",
				".0.0.0.0.0.0.0.0.0"
			],
			"keyword": "nonn",
			"offset": "1,9",
			"author": "_R. H. Hardin_, Nov 04 2008",
			"references": 0,
			"revision": 4,
			"time": "2012-03-31T12:35:11-04:00",
			"created": "2009-01-09T03:00:00-05:00"
		}
	]
}