{
	"greeting": "Greetings from The On-Line Encyclopedia of Integer Sequences! http://oeis.org/",
	"query": "id:A146086",
	"count": 1,
	"start": 0,
	"results": [
		{
			"number": 146086,
			"data": "3,11,45,197,903,4271,20625,100937,498123,2470931,12295605,61300877,305972943,1528270391,7636568985,38168496017,190799433363,953868026651,4768952712765,23843601302357,119214519727383,596062138283711,2980279310358945,14901302408615897",
			"name": "Number of n-digit numbers with each digit odd where the digits 1 and 3 occur an even number of times.",
			"comment": [
				"Let M = [3,1,1,0; 1,3,0,1; 1,0,3,1; 0,1,1,3] be a 4 x 4 matrix. Then a(n) = [M^n]_ (0,1); n = 1,2,3,.... - _Philippe Deléham_, Aug 24 2020",
				"With a(0) = 1, binomial transform of the sequence 1,2,6,20,72,272, ... (see A063376). - _Philippe Deléham_, Aug 24 2020"
			],
			"link": [
				"Vincenzo Librandi, \u003ca href=\"/A146086/b146086.txt\"\u003eTable of n, a(n) for n = 1..200\u003c/a\u003e",
				"\u003ca href=\"/index/Rec#order_03\"\u003eIndex entries for linear recurrences with constant coefficients\u003c/a\u003e, signature (9,-23,15)."
			],
			"formula": [
				"a(n) = (5^n+2*3^n+1)/4.",
				"From _Colin Barker_, Dec 31 2013: (Start)",
				"a(n) = 9*a(n-1)-23*a(n-2)+15*a(n-3).",
				"G.f.: -x*(15*x^2-16*x+3) / ((x-1)*(3*x-1)*(5*x-1)). (End)",
				"E.g.f.: exp(3*x)*(cosh(x))^2 - 1. - _G. C. Greubel_, Jan 31 2016"
			],
			"example": [
				"For n=2 the a(2)=11 numbers are 11, 33, 55, 57, 59, 75, 77, 79, 95, 97, 99."
			],
			"mathematica": [
				"Table[(5^n + 2 3^n + 1)/4, {n, 1, 30}] (* _Vincenzo Librandi_, Dec 31 2013 *)",
				"LinearRecurrence[{9,-23,15},{3,11,45},30] (* _Harvey P. Dale_, Dec 15 2014 *)"
			],
			"program": [
				"(PARI) a(n)=(5^n+2*3^n+1)/4; \\\\ _Michel Marcus_, Aug 22 2013",
				"(MAGMA) [(5^n+2*3^n+1)/4: n in [1..30]]; // _Vincenzo Librandi_, Dec 31 2013"
			],
			"xref": [
				"Cf. A063376, A122983."
			],
			"keyword": "base,easy,nonn",
			"offset": "1,1",
			"author": "_Jake Foster_, Oct 27 2008",
			"ext": [
				"More terms from _Colin Barker_, Dec 31 2013"
			],
			"references": 1,
			"revision": 30,
			"time": "2020-08-24T00:56:31-04:00",
			"created": "2009-01-09T03:00:00-05:00"
		}
	]
}