{
	"greeting": "Greetings from The On-Line Encyclopedia of Integer Sequences! http://oeis.org/",
	"query": "id:A146332",
	"count": 1,
	"start": 0,
	"results": [
		{
			"number": 146332,
			"data": "89,109,113,137,373,389,509,653,685,797,853,925,949,997,1009,1105,1145,1165,1261,1493,1997,2309,2621,2677,2885,2941,3133,3277,3445,3653,3797,4325,4505,4745,4825,4973,5353,5429,5765,6305,6437,6845,7085,7373,7817,7873",
			"name": "Numbers k such that the continued fraction of (1 + sqrt(k))/2 has period 7.",
			"comment": [
				"For primes in this sequence see A146352."
			],
			"link": [
				"Amiram Eldar, \u003ca href=\"/A146332/b146332.txt\"\u003eTable of n, a(n) for n = 1..10000\u003c/a\u003e"
			],
			"example": [
				"a(4) = 137 because continued fraction of (1+sqrt(137))/2 = 6, 2, 1, 5, 5, 1, 2, 11, 2, 1, 5, 5, 1, 2, 11, 2, 1, 5, 5, 1, 2, 11 ... has period (2, 1, 5, 5, 1, 2, 11) length 7."
			],
			"maple": [
				"A146326 := proc(n) if not issqr(n) then numtheory[cfrac]( (1+sqrt(n))/2, 'periodic','quotients') ; nops(%[2]) ; else 0 ; fi; end: isA146332 := proc(n) RETURN(A146326(n) = 7) ; end: for n from 2 to 1100 do if isA146332(n) then printf(\"%d,\",n) ; fi; od: # _R. J. Mathar_, Sep 06 2009"
			],
			"mathematica": [
				"Select[Range[10^4], !IntegerQ @ Sqrt[#] \u0026\u0026 Length[ContinuedFraction[(1 + Sqrt[#])/2][[2]]] == 7 \u0026]  (* _Amiram Eldar_, Mar 31 2020 *)"
			],
			"xref": [
				"Cf. A000290, A078370, A146326-A146345, A146348-A146360."
			],
			"keyword": "nonn",
			"offset": "1,1",
			"author": "_Artur Jasinski_, Oct 30 2008",
			"ext": [
				"997 added by _R. J. Mathar_, Sep 06 2009",
				"More terms from _Amiram Eldar_, Mar 31 2020"
			],
			"references": 3,
			"revision": 19,
			"time": "2020-03-31T03:03:16-04:00",
			"created": "2009-01-09T03:00:00-05:00"
		}
	]
}