{
	"greeting": "Greetings from The On-Line Encyclopedia of Integer Sequences! http://oeis.org/",
	"query": "id:A146757",
	"count": 1,
	"start": 0,
	"results": [
		{
			"number": 146757,
			"data": "2,15,68,363,2084,13567,95164,705036,5444255,43211106,351904307,2921904565",
			"name": "Number of primes p \u003c 10^n such that s - p is prime, where s is the next square greater than p.",
			"comment": [
				"The number of primes p in the range 2 \u003c= p \u003c= 10^n for which The distance to the next larger square (A068527(p)) is also a prime. - R. J. Mathar, Sep 26 2011"
			],
			"example": [
				"A(2) = 15 because at 10^2 there are 15 primes that, subtracted from the next higher value square, produce prime differences: {2, 7, 11, 13, 23, 29, 31, 47, 53, 59, 61, 79, 83, 89, 97}."
			],
			"mathematica": [
				"Table[Length[Select[Prime[Range[PrimePi[10^n]]], PrimeQ[Ceiling[Sqrt[#]]^2 - #] \u0026]], {n, 6}] (* _T. D. Noe_, Mar 31 2013 *)"
			],
			"program": [
				"(UBASIC) 10 'sq less pr are prime 20 N=1:O=1:C=1 30 A=3:S=sqrt(N):if N\u003e10^3 then print N,C-1:stop 40 B=N\\A 50 if B*A=N then 100 60 A=A+2 70 if A\u003c=S then 40 80 R=O^2:Q=R-N 90 if N\u003cR and N=prmdiv(N) and Q=prmdiv(Q) then if Q\u003e1 print R;N;Q;C:N=N+2:C=C+1:goto 30 100 N=N+2:if N\u003cR then 30:else O=O+1:goto 80"
			],
			"xref": [
				"Cf. A146315, A146758, A146759, A146760."
			],
			"keyword": "more,nonn",
			"offset": "1,1",
			"author": "_Enoch Haga_, Nov 02 2008",
			"ext": [
				"Name clarified by _T. D. Noe_, Mar 31 2013",
				"a(8)-a(12) from _Chai Wah Wu_, Jun 22 2019"
			],
			"references": 3,
			"revision": 13,
			"time": "2019-06-22T10:51:47-04:00",
			"created": "2009-01-09T03:00:00-05:00"
		}
	]
}