{
	"greeting": "Greetings from The On-Line Encyclopedia of Integer Sequences! http://oeis.org/",
	"query": "id:A147988",
	"count": 1,
	"start": 0,
	"results": [
		{
			"number": 147988,
			"data": "1,1,0,1,0,1,0,1,0,4,0,4,0,1,0,1,0,11,0,45,0,88,0,88,0,45,0,11,0,1,0,1,0,26,0,293,0,1896,0,7866,0,22122,0,43488,0,60753,0,60753,0,43488,0,22122,0,7866,0,1896,0,293,0,26,0,1,0,1,0,57,0,1512,0,24858,0,284578,0",
			"name": "Coefficients of denominator polynomials Q(n,x) associated with reciprocation.",
			"comment": [
				"1. Q(n,1)=A073834(n) for n\u003e=1.",
				"2. For n\u003e=3, Q(n)=Q(n,x)=i*T(n,i*x), where T(n) is the polynomial at A147986.",
				"Thus all the zeros of Q(n,x), for n\u003e=2, are nonreal."
			],
			"link": [
				"Clark Kimberling, \u003ca href=\"https://cs.uwaterloo.ca/journals/JIS/VOL12/Kimberling/kimberling56.html\"\u003ePolynomials associated with reciprocation\u003c/a\u003e, Journal of Integer Sequences 12 (2009, Article 09.3.4) 1-11."
			],
			"formula": [
				"The basic idea is to iterate the reciprocation-sum mapping x/y -\u003e x/y+y/x.",
				"Let x be an indeterminate, P(1)=x, Q(1)=1 and for n\u003e1, define P(n)=P(n-1)^2+Q(n-1)^2 and Q(n)=P(n-1)*Q(n-1), so that P(n)/Q(n)=P(n-1)/Q(n-1)-Q(n-1)/P(n-1)."
			],
			"example": [
				"Q(1) = 1",
				"Q(2) = x",
				"Q(3) = x^3+x",
				"Q(4) = x^7+4*x^5+4*x^3+1",
				"so that, as an array, the sequence begins with:",
				"1",
				"1 0",
				"1 0 1 0",
				"1 0 4 0 4 0 1"
			],
			"xref": [
				"Cf. A147985, A147986, A147987, A147989, A147990, A147991, A147992, A147993."
			],
			"keyword": "nonn,tabf",
			"offset": "1,10",
			"author": "_Clark Kimberling_, Nov 24 2008",
			"references": 5,
			"revision": 13,
			"time": "2015-07-01T02:08:58-04:00",
			"created": "2009-01-09T03:00:00-05:00"
		}
	]
}