{
	"greeting": "Greetings from The On-Line Encyclopedia of Integer Sequences! http://oeis.org/",
	"query": "id:A147240",
	"count": 1,
	"start": 0,
	"results": [
		{
			"number": 147240,
			"data": "1,1,1,1,1,1,19,31,655,1339,18309,48007,1442201,4567021,367217353,1460020323,228615404039,1133359885719,280150745688529,1717585325345099,785288102542995777,5945777223826707809",
			"name": "Number of n X n binary arrays symmetric under horizontal reflection with all ones connected only in a 1101-0111-0010 pattern in any orientation.",
			"example": [
				"Maximal 8 X 8 example",
				".1.1.0.0.0.0.1.1",
				".0.1.1.0.0.1.1.0",
				".1.1.0.0.0.0.1.1",
				".1.0.0.0.0.0.0.1",
				".0.0.1.0.0.1.0.0",
				".0.1.1.0.0.1.1.0",
				".1.1.0.0.0.0.1.1",
				".0.1.1.0.0.1.1.0"
			],
			"keyword": "nonn",
			"offset": "1,7",
			"author": "_R. H. Hardin_, Nov 04 2008",
			"references": 0,
			"revision": 4,
			"time": "2012-03-31T12:35:16-04:00",
			"created": "2009-01-09T03:00:00-05:00"
		}
	]
}