{
	"greeting": "Greetings from The On-Line Encyclopedia of Integer Sequences! http://oeis.org/",
	"query": "id:A147757",
	"count": 1,
	"start": 0,
	"results": [
		{
			"number": 147757,
			"data": "1,11,101,1001,10101,101101,1011101,10111101,101111101,1011111101,10111111101,101111111101,1011111111101,10111111111101,101111111111101,1011111111111101,10111111111111101,101111111111111101",
			"name": "Palindromes formed from the reflected decimal expansion of the concatenation of 1, 0 and infinite digits 1.",
			"comment": [
				"a(n) is also A147758(n) written in base 2.",
				"a(A016789(n)) is divisible by 3 for n \u003e 0. - _Altug Alkan_, Dec 06 2015"
			],
			"link": [
				"\u003ca href=\"/index/Rec#order_02\"\u003eIndex entries for linear recurrences with constant coefficients\u003c/a\u003e, signature (11,-10)."
			],
			"formula": [
				"G.f.: x+11*x^2+101*x^3-91*x^4*(-11+10*x) / ( (10*x-1)*(x-1) ). - _R. J. Mathar_, Aug 24 2011",
				"a(n) = 11*a(n-1) - 10*a(n-2) for n\u003e2. _Wesley Ivan Hurt_, Dec 06 2015"
			],
			"example": [
				"n .... Successive digits of a(n)",
				"1 ............. ( 1 )",
				"2 ............ ( 1 1 )",
				"3 ........... ( 1 0 1 )",
				"4 .......... ( 1 0 0 1 )",
				"5 ......... ( 1 0 1 0 1 )",
				"6 ........ ( 1 0 1 1 0 1 )",
				"7 ....... ( 1 0 1 1 1 0 1 )",
				"8 ...... ( 1 0 1 1 1 1 0 1 )",
				"9 ..... ( 1 0 1 1 1 1 1 0 1 )",
				"10 ... ( 1 0 1 1 1 1 1 1 0 1 )"
			],
			"mathematica": [
				"f[n_] := Block[{w = {1, 0}}, Which[n == 1, w = {1}, n == 2, w = {1, 1}, n == 3, AppendTo[w, 1], n \u003e= 4, w = Join[w, Table[1, {n - 4}], Reverse@ w]]; FromDigits@ w]; Array[f, 19] (* _Michael De Vlieger_, Dec 05 2015 *)",
				"LinearRecurrence[{11,-10},{1,11,101,1001,10101},20] (* _Harvey P. Dale_, Aug 02 2017 *)"
			],
			"program": [
				"(PARI) Vec( x+11*x^2+101*x^3 -91*x^4*(-11+10*x) / ( (10*x-1)*(x-1) ) + O(x^30)) \\\\ _Michel Marcus_, Dec 05 2015"
			],
			"xref": [
				"Cf. A000533, A016789, A135577, A138120, A138144, A138145, A138146, A138721, A138826, A147758.",
				"Cf. A144564 (a bisection)."
			],
			"keyword": "base,easy,nonn",
			"offset": "1,2",
			"author": "_Omar E. Pol_, Nov 11 2008",
			"references": 6,
			"revision": 23,
			"time": "2017-08-02T10:09:41-04:00",
			"created": "2009-01-09T03:00:00-05:00"
		}
	]
}