{
	"greeting": "Greetings from The On-Line Encyclopedia of Integer Sequences! http://oeis.org/",
	"query": "id:A147907",
	"count": 1,
	"start": 0,
	"results": [
		{
			"number": 147907,
			"data": "1,2,6,16,54,232,936,3880,23002,127008,751100,4670780,29781390,193211704,1334448490,9604883174",
			"name": "Number of permutations of floor(i*9/8), i=0..n-1, with all sums of 2 through 4 adjacent terms respectively unique.",
			"keyword": "nonn",
			"offset": "1,2",
			"author": "_R. H. Hardin_, Nov 17 2008",
			"references": 0,
			"revision": 5,
			"time": "2021-04-07T19:39:09-04:00",
			"created": "2009-01-09T03:00:00-05:00"
		}
	]
}