{
	"greeting": "Greetings from The On-Line Encyclopedia of Integer Sequences! http://oeis.org/",
	"query": "id:A147177",
	"count": 1,
	"start": 0,
	"results": [
		{
			"number": 147177,
			"data": "1,1,1,1,1,5,25,93,439,1973,9767,71707,630927,7316817,94092203,1666775933",
			"name": "Number of n X n binary arrays symmetric under 180 degree rotation with all ones connected only in a 1000-1111-0010-0010 pattern in any orientation.",
			"example": [
				"Maximal 8 X 8 example",
				".0.0.1.0.0.0.1.0",
				".1.1.1.0.1.1.1.0",
				".0.0.1.0.0.0.1.0",
				".0.0.1.1.0.0.1.1",
				".1.1.0.0.1.1.0.0",
				".0.1.0.0.0.1.0.0",
				".0.1.1.1.0.1.1.1",
				".0.1.0.0.0.1.0.0"
			],
			"keyword": "nonn",
			"offset": "1,6",
			"author": "_R. H. Hardin_, Nov 04 2008",
			"references": 0,
			"revision": 4,
			"time": "2012-03-31T12:35:15-04:00",
			"created": "2009-01-09T03:00:00-05:00"
		}
	]
}