{
	"greeting": "Greetings from The On-Line Encyclopedia of Integer Sequences! http://oeis.org/",
	"query": "id:A147391",
	"count": 1,
	"start": 0,
	"results": [
		{
			"number": 147391,
			"data": "1,1,1,1,1,9,13,37,78,329,1384,8131,38082,266677,1697877",
			"name": "Number of n X n binary arrays symmetric under 180 degree rotation with all ones connected only in a 10001-11111-00100 pattern in any orientation.",
			"example": [
				"Maximal 8 X 8 example",
				".0.1.1.0.0.1.0.0",
				".0.1.0.1.1.1.1.1",
				".1.1.0.1.0.0.0.1",
				".0.1.0.0.0.1.1.0",
				".0.1.1.0.0.0.1.0",
				".1.0.0.0.1.0.1.1",
				".1.1.1.1.1.0.1.0",
				".0.0.1.0.0.1.1.0"
			],
			"keyword": "nonn",
			"offset": "1,6",
			"author": "_R. H. Hardin_",
			"references": 0,
			"revision": 4,
			"time": "2012-03-31T12:35:16-04:00",
			"created": "2009-01-09T03:00:00-05:00"
		}
	]
}