{
	"greeting": "Greetings from The On-Line Encyclopedia of Integer Sequences! http://oeis.org/",
	"query": "id:A147125",
	"count": 1,
	"start": 0,
	"results": [
		{
			"number": 147125,
			"data": "1,1,1,1,1,1,1,1,9,9,33,33,105,105,641,641,8787,8787,211111,211111,4653287",
			"name": "Number of n X n binary arrays symmetric under horizontal and vertical reflection with all ones connected only in a 1000-1000-1111-1000 pattern in any orientation.",
			"example": [
				"Maximal 9 X 9 example",
				".1.0.0.0.0.0.0.0.1",
				".1.0.0.0.0.0.0.0.1",
				".1.1.1.1.0.1.1.1.1",
				".1.0.0.0.0.0.0.0.1",
				".0.0.0.0.0.0.0.0.0",
				".1.0.0.0.0.0.0.0.1",
				".1.1.1.1.0.1.1.1.1",
				".1.0.0.0.0.0.0.0.1",
				".1.0.0.0.0.0.0.0.1"
			],
			"keyword": "nonn",
			"offset": "1,9",
			"author": "_R. H. Hardin_, Nov 04 2008",
			"references": 0,
			"revision": 4,
			"time": "2012-03-31T12:35:15-04:00",
			"created": "2009-01-09T03:00:00-05:00"
		}
	]
}