{
	"greeting": "Greetings from The On-Line Encyclopedia of Integer Sequences! http://oeis.org/",
	"query": "id:A147206",
	"count": 1,
	"start": 0,
	"results": [
		{
			"number": 147206,
			"data": "1,1,1,1,1,1,1,1,1,1,1,1,5,5,17,17,37,37,97,97,589,589",
			"name": "Number of n X n binary arrays symmetric about the diagonal and under 90 degree rotation with all ones connected only in a 1100-0101-0111 pattern in any orientation.",
			"example": [
				"Maximal 13 X 13 example",
				".0.0.0.1.1.0.0.0.1.1.0.0.0",
				".0.0.0.1.0.0.0.0.0.1.0.0.0",
				".0.0.0.1.1.1.0.1.1.1.0.0.0",
				".1.1.1.0.0.1.0.1.0.0.1.1.1",
				".1.0.1.0.0.0.0.0.0.0.1.0.1",
				".0.0.1.1.0.0.0.0.0.1.1.0.0",
				".0.0.0.0.0.0.0.0.0.0.0.0.0",
				".0.0.1.1.0.0.0.0.0.1.1.0.0",
				".1.0.1.0.0.0.0.0.0.0.1.0.1",
				".1.1.1.0.0.1.0.1.0.0.1.1.1",
				".0.0.0.1.1.1.0.1.1.1.0.0.0",
				".0.0.0.1.0.0.0.0.0.1.0.0.0",
				".0.0.0.1.1.0.0.0.1.1.0.0.0"
			],
			"keyword": "nonn",
			"offset": "1,13",
			"author": "_R. H. Hardin_, Nov 04 2008",
			"references": 0,
			"revision": 4,
			"time": "2012-03-31T12:35:15-04:00",
			"created": "2009-01-09T03:00:00-05:00"
		}
	]
}