{
	"greeting": "Greetings from The On-Line Encyclopedia of Integer Sequences! http://oeis.org/",
	"query": "id:A147658",
	"count": 1,
	"start": 0,
	"results": [
		{
			"number": 147658,
			"data": "1,3,2,-3,-4,3,6,-3,-8,3,10,-3,-12,3,14,-3,-16,3,18,-3,-20,3,22,-3,-24,3,26,-3,-28,3,30,-3,-32,3,34,-3,-36,3,38,-3,-40,3,42,-3,-44,3,46,-3,-48,3,50,-3,-52,3,54,-3,-56,3,58,-3,-60,3,62,-3,-64",
			"name": "(1, 2, -4, 6, -8,...) interleaved with (3, -3, 3, -3, 3,...).",
			"comment": [
				"POLYMOTZKINT A147657 = [1,2,3,...].",
				"POLYMOTZKINTINV operation on [1,3,5,7,...], such that POLYMOTZKINT A147658 = [1,3,5,7,...].",
				"Cf. A005717 for an example of the POLYMOTZKINT operation."
			],
			"link": [
				"\u003ca href=\"/index/Rec#order_04\"\u003eIndex entries for linear recurrences with constant coefficients\u003c/a\u003e, signature (0,-2,0,-1)."
			],
			"formula": [
				"a(1) = 1; a(2*k) = (-1)^(k-1)*3; a(2*k+1) = (-1)^(k-1)*2*k for k \u003e= 1. - _Georg Fischer_, Nov 02 2021"
			],
			"maple": [
				"with(ListTools): Flatten([1, seq([(-1)^(k-1)*3, (-1)^(k-1)*2*k], k=1..32)]); # _Georg Fischer_, Nov 02 2021"
			],
			"xref": [
				"Cf. A005717, A147657."
			],
			"keyword": "easy,sign",
			"offset": "1,2",
			"author": "_Gary W. Adamson_, Nov 09 2008",
			"ext": [
				"a(25) ff. corrected by _Georg Fischer_, Nov 02 2021"
			],
			"references": 3,
			"revision": 12,
			"time": "2021-11-03T06:06:59-04:00",
			"created": "2009-01-09T03:00:00-05:00"
		}
	]
}