{
	"greeting": "Greetings from The On-Line Encyclopedia of Integer Sequences! http://oeis.org/",
	"query": "id:A147927",
	"count": 1,
	"start": 0,
	"results": [
		{
			"number": 147927,
			"data": "1,2,6,16,54,260,1236,6360,34730,192782,1393166,9882056,75731318,596396100,4939024062,49565770888",
			"name": "Number of permutations of floor(i*6/5), i=0..n-1, with all sums of two and three adjacent terms respectively unique.",
			"keyword": "nonn",
			"offset": "1,2",
			"author": "_R. H. Hardin_, Nov 17 2008",
			"references": 0,
			"revision": 5,
			"time": "2021-04-07T19:17:18-04:00",
			"created": "2009-01-09T03:00:00-05:00"
		}
	]
}