{
	"greeting": "Greetings from The On-Line Encyclopedia of Integer Sequences! http://oeis.org/",
	"query": "id:A147901",
	"count": 1,
	"start": 0,
	"results": [
		{
			"number": 147901,
			"data": "1,2,6,16,74,368,1924,10496,65446,426596,3097668,23660988,200784060,1772606976,16992756584,168890555040",
			"name": "Number of permutations of floor(i*5/2), i=0..n-1, with all sums of 2 through 4 adjacent terms respectively unique.",
			"keyword": "nonn",
			"offset": "1,2",
			"author": "_R. H. Hardin_, Nov 17 2008",
			"references": 0,
			"revision": 5,
			"time": "2021-04-07T19:39:49-04:00",
			"created": "2009-01-09T03:00:00-05:00"
		}
	]
}