{
	"greeting": "Greetings from The On-Line Encyclopedia of Integer Sequences! http://oeis.org/",
	"query": "id:A147635",
	"count": 1,
	"start": 0,
	"results": [
		{
			"number": 147635,
			"data": "1,0,0,0,0,0,42672,877824,2353310,877824,42672,0,0,0,0,0,1",
			"name": "Weight distribution of [128,22,48] extended binary primitive BCH (or XBCH) code.",
			"comment": [
				"Taken from the Terada-Asatani-Koumoto web site."
			],
			"link": [
				"M. Terada, J. Asatani and T. Koumoto, \u003ca href=\"http://isec.ec.okayama-u.ac.jp/home/kusaka/wd/index.html\"\u003eWeight Distribution\u003c/a\u003e"
			],
			"example": [
				"The weight distribution is:",
				"i A_i",
				"0 1",
				"48 42672",
				"56 877824",
				"64 2353310",
				"72 877824",
				"80 42672",
				"128 1"
			],
			"keyword": "nonn,fini,full",
			"offset": "0,7",
			"author": "_N. J. A. Sloane_, May 01 2009",
			"references": 0,
			"revision": 3,
			"time": "2020-03-10T12:45:31-04:00",
			"created": "2010-06-01T03:00:00-04:00"
		}
	]
}