{
	"greeting": "Greetings from The On-Line Encyclopedia of Integer Sequences! http://oeis.org/",
	"query": "id:A147742",
	"count": 1,
	"start": 0,
	"results": [
		{
			"number": 147742,
			"data": "1,2,6,24,120,720,4608,35104,314876,2945156,32435238,381940958,4765565464,65551559472",
			"name": "Number of permutations of 2..n+1 with all sums of 2 through 3 adjacent terms squared respectively unique.",
			"keyword": "nonn",
			"offset": "1,2",
			"author": "_R. H. Hardin_, Nov 11 2008",
			"references": 0,
			"revision": 5,
			"time": "2021-04-07T19:36:37-04:00",
			"created": "2009-01-09T03:00:00-05:00"
		}
	]
}