{
	"greeting": "Greetings from The On-Line Encyclopedia of Integer Sequences! http://oeis.org/",
	"query": "id:A147217",
	"count": 1,
	"start": 0,
	"results": [
		{
			"number": 147217,
			"data": "1,1,1,17,49,237,2821,72631,1759597,48580733,2684705291,263944603423",
			"name": "Number of n X n binary arrays with all ones connected only in a 1100-0111-0101 pattern in any orientation.",
			"example": [
				"Maximal 8 X 8 example",
				".0.1.0.1.0.0.0.0",
				".0.1.1.1.0.0.1.1",
				".1.1.0.0.0.0.1.0",
				".0.0.0.0.0.1.1.1",
				".0.0.0.0.0.1.0.0",
				".0.0.1.1.0.0.1.1",
				".1.1.1.0.1.1.1.0",
				".1.0.1.0.1.0.1.0"
			],
			"keyword": "nonn",
			"offset": "1,4",
			"author": "_R. H. Hardin_, Nov 04 2008",
			"references": 0,
			"revision": 4,
			"time": "2012-03-31T12:35:16-04:00",
			"created": "2009-01-09T03:00:00-05:00"
		}
	]
}