{
	"greeting": "Greetings from The On-Line Encyclopedia of Integer Sequences! http://oeis.org/",
	"query": "id:A147070",
	"count": 1,
	"start": 0,
	"results": [
		{
			"number": 147070,
			"data": "1,1,1,1,1,1,3,9,19,61,211,741,3813,22505,147447,1175399,10583799,109540847,1364336983,19785643957,336137809321,6744593577357,157257981066897",
			"name": "Number of n X n binary arrays symmetric about main diagonal with all ones connected only in a 10000-11111-00001 pattern in any orientation.",
			"example": [
				"Maximal 8 X 8 example",
				".0.0.0.0.1.1.0.0",
				".0.0.0.0.0.1.0.0",
				".0.0.0.0.0.1.0.0",
				".0.0.0.0.0.1.0.0",
				".1.0.0.0.0.1.1.0",
				".1.1.1.1.1.0.0.0",
				".0.0.0.0.1.0.0.0",
				".0.0.0.0.0.0.0.0"
			],
			"keyword": "nonn",
			"offset": "1,7",
			"author": "_R. H. Hardin_, Nov 04 2008",
			"references": 0,
			"revision": 4,
			"time": "2012-03-31T12:35:15-04:00",
			"created": "2009-01-09T03:00:00-05:00"
		}
	]
}