{
	"greeting": "Greetings from The On-Line Encyclopedia of Integer Sequences! http://oeis.org/",
	"query": "id:A147424",
	"count": 1,
	"start": 0,
	"results": [
		{
			"number": 147424,
			"data": "1,1,1,1,1,1,5,13,31,123,397,1299,7415,48549,328016,2805259,26286523,261135019,3222276941,47592701035,811402107260,16468821744235,385847309545373",
			"name": "Number of n X n binary arrays symmetric about main diagonal with all ones connected only in a 10101-11111 pattern in any orientation.",
			"example": [
				"Maximal 8 X 8 example",
				".0.0.0.0.0.0.0.0",
				".0.0.0.0.0.0.1.1",
				".0.0.0.0.0.0.0.1",
				".0.0.0.0.0.0.1.1",
				".0.0.0.0.0.0.0.1",
				".0.0.0.0.0.0.1.1",
				".0.1.0.1.0.1.0.0",
				".0.1.1.1.1.1.0.0"
			],
			"keyword": "nonn",
			"offset": "1,7",
			"author": "_R. H. Hardin_",
			"references": 0,
			"revision": 4,
			"time": "2012-03-31T12:35:17-04:00",
			"created": "2009-01-09T03:00:00-05:00"
		}
	]
}