{
	"greeting": "Greetings from The On-Line Encyclopedia of Integer Sequences! http://oeis.org/",
	"query": "id:A147243",
	"count": 1,
	"start": 0,
	"results": [
		{
			"number": 147243,
			"data": "1,1,1,1,1,1,3,5,11,21,39,109,383,1291,5187,19147,85163,418695,2523925,15886439,116954773,866328129",
			"name": "Number of n X n binary arrays symmetric about both diagonal and antidiagonal with all ones connected only in a 1101-0111-0010 pattern in any orientation.",
			"example": [
				"Maximal 8 X 8 example",
				".0.1.1.0.1.0.0.0",
				".1.0.1.1.1.0.0.0",
				".1.1.0.1.0.0.0.0",
				".0.1.1.0.0.0.1.1",
				".1.1.0.0.0.1.1.0",
				".0.0.0.0.1.0.1.1",
				".0.0.0.1.1.1.0.1",
				".0.0.0.1.0.1.1.0"
			],
			"keyword": "nonn",
			"offset": "1,7",
			"author": "_R. H. Hardin_, Nov 04 2008",
			"references": 0,
			"revision": 4,
			"time": "2012-03-31T12:35:16-04:00",
			"created": "2009-01-09T03:00:00-05:00"
		}
	]
}