{
	"greeting": "Greetings from The On-Line Encyclopedia of Integer Sequences! http://oeis.org/",
	"query": "id:A147516",
	"count": 1,
	"start": 0,
	"results": [
		{
			"number": 147516,
			"data": "1,3,9,15,27,45,81,105,135,225,243,315,405,675,729,945,1155,1215,1575,2025,2187,2835,3375,3465,3645,4725,6075,6561,8505,10125,10395,10935,11025,14175,15015,17325,18225,19683,23625,25515,30375,31185,32805",
			"name": "List giving least odd integer of each prime signature.",
			"comment": [
				"All numbers of the form 3^k2*5^k3*...*p_n^k_n, where k2 \u003e= k3 \u003e= ... \u003e= k_n, sorted."
			],
			"link": [
				"Ray Chandler, \u003ca href=\"/A147516/b147516.txt\"\u003eTable of n, a(n) for n = 1..10000\u003c/a\u003e",
				"David Ryan, \u003ca href=\"https://arxiv.org/abs/1603.08904\"\u003eMathematical Harmony Analysis\u003c/a\u003e, arXiv preprint arXiv:1603.08904 [cs.SD], 2016-2017."
			],
			"formula": [
				"Sum_{n\u003e=1} 1/a(n) = Product_{n\u003e=2} 1/(1 - 1/A070826(n)) = 1.6241170949... - _Amiram Eldar_, Oct 20 2020"
			],
			"mathematica": [
				"PrimeExponents[n_] := FactorInteger[n][[All, 2]]; lpe = {}; A147516 = {1}; Do[pe = PrimeExponents[n] // Sort; If[FreeQ[lpe, pe], AppendTo[lpe, pe]; AppendTo[A147516, n]], {n, 3, 40000, 2}]; A147516 (* _Jean-François Alcover_, Jan 27 2015, after _Robert G. Wilson v_ *)"
			],
			"program": [
				"(PARI) is(n)=my(k=oo, t); forprime(p=3,, t=valuation(n, p); if(t\u003ek, return(0), k=t); if(k, n/=p^k, return(n==1))) \\\\ _Charles R Greathouse IV_, Aug 20 2015"
			],
			"xref": [
				"Cf. A025487, A070826."
			],
			"keyword": "nonn",
			"offset": "1,2",
			"author": "_Will Nicholes_, Nov 05 2008",
			"ext": [
				"Edited and extended by _Ray Chandler_, Jul 29 2010"
			],
			"references": 7,
			"revision": 33,
			"time": "2021-06-19T03:31:23-04:00",
			"created": "2009-01-09T03:00:00-05:00"
		}
	]
}