{
	"greeting": "Greetings from The On-Line Encyclopedia of Integer Sequences! http://oeis.org/",
	"query": "id:A147270",
	"count": 1,
	"start": 0,
	"results": [
		{
			"number": 147270,
			"data": "1,1,1,1,1,1,1,1,183,351,3185,7397,80251,204181,3751343,10958987,859595115,3088432553,597934255811,2680671785861",
			"name": "Number of n X n binary arrays symmetric under horizontal reflection with all ones connected only in a 1000-1000-1111-0001 pattern in any orientation.",
			"example": [
				"Maximal 9 X 9 example",
				".0.0.0.1.0.1.0.0.0",
				".1.1.1.1.0.1.1.1.1",
				".1.0.0.0.0.0.0.0.1",
				".1.0.0.0.0.0.0.0.1",
				".0.0.0.0.0.0.0.0.0",
				".1.0.0.0.0.0.0.0.1",
				".1.0.0.0.0.0.0.0.1",
				".1.1.1.1.0.1.1.1.1",
				".0.0.0.1.0.1.0.0.0"
			],
			"keyword": "nonn",
			"offset": "1,9",
			"author": "_R. H. Hardin_, Nov 04 2008",
			"references": 0,
			"revision": 4,
			"time": "2012-03-31T12:35:16-04:00",
			"created": "2009-01-09T03:00:00-05:00"
		}
	]
}