{
	"greeting": "Greetings from The On-Line Encyclopedia of Integer Sequences! http://oeis.org/",
	"query": "id:A147937",
	"count": 1,
	"start": 0,
	"results": [
		{
			"number": 147937,
			"data": "1,2,6,24,74,368,2214,10892,69096,539954,3553936,28970266,277928108,2211165332,22140514554,252424615916",
			"name": "Number of permutations of floor(i*7/3), i=0..n-1, with all sums of 2 through 4 adjacent terms respectively unique.",
			"keyword": "nonn",
			"offset": "1,2",
			"author": "_R. H. Hardin_, Nov 17 2008",
			"references": 0,
			"revision": 5,
			"time": "2021-04-07T19:18:44-04:00",
			"created": "2009-01-09T03:00:00-05:00"
		}
	]
}