{
	"greeting": "Greetings from The On-Line Encyclopedia of Integer Sequences! http://oeis.org/",
	"query": "id:A147030",
	"count": 1,
	"start": 0,
	"results": [
		{
			"number": 147030,
			"data": "1,1,1,1,1,3,13,31,77,387,2257,17627,156913,1449769,17078273,269362403,5270658519,128747962057,3752690933565,128409913359645,5451255918471683",
			"name": "Number of n X n binary arrays symmetric about main diagonal with all ones connected only in a 0100-0100-1111-0010 pattern in any orientation.",
			"example": [
				"Maximal 8 X 8 example",
				".0.0.0.0.0.0.0.0",
				".0.0.0.0.0.0.0.0",
				".0.0.0.0.0.0.1.0",
				".0.0.0.0.1.1.1.0",
				".0.0.0.1.0.0.1.1",
				".0.0.0.1.0.0.1.0",
				".0.0.1.1.1.1.0.0",
				".0.0.0.0.1.0.0.0"
			],
			"keyword": "nonn",
			"offset": "1,6",
			"author": "_R. H. Hardin_, Nov 04 2008",
			"references": 0,
			"revision": 4,
			"time": "2012-03-31T12:35:14-04:00",
			"created": "2009-01-09T03:00:00-05:00"
		}
	]
}