{
	"greeting": "Greetings from The On-Line Encyclopedia of Integer Sequences! http://oeis.org/",
	"query": "id:A147321",
	"count": 1,
	"start": 0,
	"results": [
		{
			"number": 147321,
			"data": "1,1,1,1,1,1,3,7,16,39,109,339,1359,6341,32204,186717,1250465,9543435,82560858,815884422,9279731421,121699162939,1834559945393,31585819621707",
			"name": "Number of n X n binary arrays symmetric about main diagonal with all ones connected only in a 00100-00100-00100-11111 pattern in any orientation.",
			"example": [
				"Maximal 8 X 8 example",
				".0.0.0.0.0.0.0.0",
				".0.0.0.0.0.0.0.1",
				".0.0.0.0.0.0.0.1",
				".0.0.0.0.1.1.1.1",
				".0.0.0.1.0.0.0.1",
				".0.0.0.1.0.0.0.1",
				".0.0.0.1.0.0.0.0",
				".0.1.1.1.1.1.0.0"
			],
			"keyword": "nonn",
			"offset": "1,7",
			"author": "_R. H. Hardin_",
			"references": 0,
			"revision": 4,
			"time": "2012-03-31T12:35:16-04:00",
			"created": "2009-01-09T03:00:00-05:00"
		}
	]
}