{
	"greeting": "Greetings from The On-Line Encyclopedia of Integer Sequences! http://oeis.org/",
	"query": "id:A147003",
	"count": 1,
	"start": 0,
	"results": [
		{
			"number": 147003,
			"data": "1,1,1,1,7,21,77,479,3600,33995,482862,8547925,199841936,6379998757,265761442757,14715360146745",
			"name": "Number of n X n binary arrays with all ones connected only in a 00100-11111-00100 pattern in any orientation.",
			"example": [
				"Maximal 8 X 8 example",
				".0.0.1.0.0.0.1.0",
				".1.1.1.1.1.0.1.0",
				".0.0.1.0.0.1.1.1",
				".0.1.0.0.0.0.1.0",
				".0.1.0.0.0.0.1.0",
				".1.1.1.0.0.1.0.0",
				".0.1.0.1.1.1.1.1",
				".0.1.0.0.0.1.0.0"
			],
			"keyword": "nonn",
			"offset": "1,5",
			"author": "_R. H. Hardin_, Nov 04 2008",
			"references": 0,
			"revision": 4,
			"time": "2012-03-31T12:35:14-04:00",
			"created": "2009-01-09T03:00:00-05:00"
		}
	]
}