{
	"greeting": "Greetings from The On-Line Encyclopedia of Integer Sequences! http://oeis.org/",
	"query": "id:A148163",
	"count": 1,
	"start": 0,
	"results": [
		{
			"number": 148163,
			"data": "1,1,2,4,11,31,91,283,901,2904,9521,31808,107236,364364,1251636,4333312,15077986,52788201,185909398,657386742,2333476922,8317496562,29746811372,106682779598,383721471229,1383920063898,5002364671105,18120720841491,65780485710789,239235254890321,871545199855827,3180392395993126",
			"name": "Number of walks within N^3 (the first octant of Z^3) starting at (0,0,0) and consisting of n steps taken from {(-1, -1, 1), (-1, 1, 1), (0, 1, -1), (1, 0, 0)}",
			"link": [
				"A. Bostan and M. Kauers, 2008. Automatic Classification of Restricted Lattice Walks, \u003ca href=\"http://arxiv.org/abs/0811.2899\"\u003eArXiv 0811.2899\u003c/a\u003e."
			],
			"mathematica": [
				"aux[i_Integer, j_Integer, k_Integer, n_Integer] := Which[Min[i, j, k, n] \u003c 0 || Max[i, j, k] \u003e n, 0, n == 0, KroneckerDelta[i, j, k, n], True, aux[i, j, k, n] = aux[-1 + i, j, k, -1 + n] + aux[i, -1 + j, 1 + k, -1 + n] + aux[1 + i, -1 + j, -1 + k, -1 + n] + aux[1 + i, 1 + j, -1 + k, -1 + n]]; Table[Sum[aux[i, j, k, n], {i, 0, n}, {j, 0, n}, {k, 0, n}], {n, 0, 10}]"
			],
			"keyword": "nonn,walk",
			"offset": "0,3",
			"author": "_Manuel Kauers_, Nov 18 2008",
			"references": 0,
			"revision": 2,
			"time": "2012-03-30T18:54:03-04:00",
			"created": "2009-01-09T03:00:00-05:00"
		}
	]
}