{
	"greeting": "Greetings from The On-Line Encyclopedia of Integer Sequences! http://oeis.org/",
	"query": "id:A149461",
	"count": 1,
	"start": 0,
	"results": [
		{
			"number": 149461,
			"data": "1,1,4,13,51,195,817,3432,14911,65235,290915,1307274,5937716,27149739,125023447,578769694,2693341575,12586059554,59046681200,277963746827,1312588575963,6215451532217,29507007004207,140401812189147,669478104046067,3198467824446743,15308052743597454,73385800384796322",
			"name": "Number of walks within N^3 (the first octant of Z^3) starting at (0,0,0) and consisting of n steps taken from {(-1, -1, 0), (-1, 0, 1), (0, 1, -1), (1, 0, 1), (1, 1, -1)}",
			"link": [
				"A. Bostan and M. Kauers, 2008. Automatic Classification of Restricted Lattice Walks, \u003ca href=\"http://arxiv.org/abs/0811.2899\"\u003eArXiv 0811.2899\u003c/a\u003e."
			],
			"mathematica": [
				"aux[i_Integer, j_Integer, k_Integer, n_Integer] := Which[Min[i, j, k, n] \u003c 0 || Max[i, j, k] \u003e n, 0, n == 0, KroneckerDelta[i, j, k, n], True, aux[i, j, k, n] = aux[-1 + i, -1 + j, 1 + k, -1 + n] + aux[-1 + i, j, -1 + k, -1 + n] + aux[i, -1 + j, 1 + k, -1 + n] + aux[1 + i, j, -1 + k, -1 + n] + aux[1 + i, 1 + j, k, -1 + n]]; Table[Sum[aux[i, j, k, n], {i, 0, n}, {j, 0, n}, {k, 0, n}], {n, 0, 10}]"
			],
			"keyword": "nonn,walk",
			"offset": "0,3",
			"author": "_Manuel Kauers_, Nov 18 2008",
			"references": 0,
			"revision": 2,
			"time": "2012-03-30T18:54:13-04:00",
			"created": "2009-01-09T03:00:00-05:00"
		}
	]
}