{
	"greeting": "Greetings from The On-Line Encyclopedia of Integer Sequences! http://oeis.org/",
	"query": "id:A150363",
	"count": 1,
	"start": 0,
	"results": [
		{
			"number": 150363,
			"data": "1,2,7,23,92,360,1515,6394,27766,121701,541389,2427628,10994962,50085884,229825960,1059427008,4909468718,22840737450,106677011512,499928196409,2349932755977,11077508816333,52349546603423,247976809550402,1177163181636024,5599152334827215,26681459217085335,127359498900974016",
			"name": "Number of walks within N^3 (the first octant of Z^3) starting at (0,0,0) and consisting of n steps taken from {(-1, -1, 0), (-1, 1, 1), (0, 0, -1), (1, 0, 0), (1, 1, 0)}",
			"link": [
				"A. Bostan and M. Kauers, 2008. Automatic Classification of Restricted Lattice Walks, \u003ca href=\"http://arxiv.org/abs/0811.2899\"\u003eArXiv 0811.2899\u003c/a\u003e."
			],
			"mathematica": [
				"aux[i_Integer, j_Integer, k_Integer, n_Integer] := Which[Min[i, j, k, n] \u003c 0 || Max[i, j, k] \u003e n, 0, n == 0, KroneckerDelta[i, j, k, n], True, aux[i, j, k, n] = aux[-1 + i, -1 + j, k, -1 + n] + aux[-1 + i, j, k, -1 + n] + aux[i, j, 1 + k, -1 + n] + aux[1 + i, -1 + j, -1 + k, -1 + n] + aux[1 + i, 1 + j, k, -1 + n]]; Table[Sum[aux[i, j, k, n], {i, 0, n}, {j, 0, n}, {k, 0, n}], {n, 0, 10}]"
			],
			"keyword": "nonn,walk",
			"offset": "0,2",
			"author": "_Manuel Kauers_, Nov 18 2008",
			"references": 0,
			"revision": 2,
			"time": "2012-03-30T18:54:20-04:00",
			"created": "2009-01-09T03:00:00-05:00"
		}
	]
}