{
	"greeting": "Greetings from The On-Line Encyclopedia of Integer Sequences! http://oeis.org/",
	"query": "id:A150629",
	"count": 1,
	"start": 0,
	"results": [
		{
			"number": 150629,
			"data": "1,2,7,27,115,494,2199,9999,45977,213553,1001518,4728343,22440120,106995630,512350724,2461339951,11857180503,57274958341,277281579581,1344921183407,6535047490259,31805222581625,155007158817484,756405069981852,3695465159418088,18073604576901871,88477876035516269",
			"name": "Number of walks within N^3 (the first octant of Z^3) starting at (0,0,0) and consisting of n steps taken from {(-1, -1, 0), (-1, 1, 1), (0, 1, 1), (1, 0, -1), (1, 0, 1)}",
			"link": [
				"A. Bostan and M. Kauers, 2008. Automatic Classification of Restricted Lattice Walks, \u003ca href=\"http://arxiv.org/abs/0811.2899\"\u003eArXiv 0811.2899\u003c/a\u003e."
			],
			"mathematica": [
				"aux[i_Integer, j_Integer, k_Integer, n_Integer] := Which[Min[i, j, k, n] \u003c 0 || Max[i, j, k] \u003e n, 0, n == 0, KroneckerDelta[i, j, k, n], True, aux[i, j, k, n] = aux[-1 + i, j, -1 + k, -1 + n] + aux[-1 + i, j, 1 + k, -1 + n] + aux[i, -1 + j, -1 + k, -1 + n] + aux[1 + i, -1 + j, -1 + k, -1 + n] + aux[1 + i, 1 + j, k, -1 + n]]; Table[Sum[aux[i, j, k, n], {i, 0, n}, {j, 0, n}, {k, 0, n}], {n, 0, 10}]"
			],
			"keyword": "nonn,walk",
			"offset": "0,2",
			"author": "_Manuel Kauers_, Nov 18 2008",
			"references": 0,
			"revision": 2,
			"time": "2012-03-30T18:54:22-04:00",
			"created": "2009-01-09T03:00:00-05:00"
		}
	]
}