{
	"greeting": "Greetings from The On-Line Encyclopedia of Integer Sequences! http://oeis.org/",
	"query": "id:A151783",
	"count": 1,
	"start": 0,
	"results": [
		{
			"number": 151783,
			"data": "1,1,4,1,4,4,16,1,4,4,16,4,16,16,64,1,4,4,16,4,16,16,64,4,16,16,64,16,64,64,256,1,4,4,16,4,16,16,64,4,16,16,64,16,64,64,256,4,16,16,64,16,64,64,256,16,64,64,256,64,256,256,1024,1,4,4,16,4,16,16,64,4,16,16,64,16,64",
			"name": "a(n) = 4^{wt(n)-1}.",
			"example": [
				"From _Omar E. Pol_, Jul 21 2009: (Start)",
				"If written as a triangle:",
				"1;",
				"1,4;",
				"1,4,4,16;",
				"1,4,4,16,4,16,16,64;",
				"1,4,4,16,4,16,16,64,4,16,16,64,16,64,64,256;",
				"1,4,4,16,4,16,16,64,4,16,16,64,16,64,64,256,4,16,16,64,16,64,64,256,16,64,...",
				"(End)"
			],
			"xref": [
				"Cf. A048896, A147610, A151780.",
				"Cf. A000302, A102376. [From _Omar E. Pol_, Jul 21 2009]",
				"A102376 is a very similar sequence."
			],
			"keyword": "nonn",
			"offset": "1,3",
			"author": "_N. J. A. Sloane_, Jun 25 2009",
			"references": 3,
			"revision": 8,
			"time": "2018-08-04T03:23:11-04:00",
			"created": "2010-06-01T03:00:00-04:00"
		}
	]
}