{
	"greeting": "Greetings from The On-Line Encyclopedia of Integer Sequences! http://oeis.org/",
	"query": "id:A151597",
	"count": 1,
	"start": 0,
	"results": [
		{
			"number": 151597,
			"data": "0,36,606,4744,30850,186924,1092966,6248976,35154954,195310900,1074216814,5859372696,31738278546,170898434364,915527340150,4882812495904,25939941401626,137329101557316,724792480462974,3814697265618600,20027160644524194,104904174804679756",
			"name": "Number of permutations of 4 indistinguishable copies of 1..n arranged in a circle with exactly 2 adjacent element pairs in decreasing order.",
			"link": [
				"Andrew Howroyd, \u003ca href=\"/A151597/b151597.txt\"\u003eTable of n, a(n) for n = 1..500\u003c/a\u003e",
				"\u003ca href=\"/index/Rec#order_05\"\u003eIndex entries for linear recurrences with constant coefficients\u003c/a\u003e, signature (13,-58,106,-85,25)."
			],
			"formula": [
				"a(n) = n*(2*5^n - 16*n) for n \u003e 1. - _Andrew Howroyd_, May 04 2020",
				"From _Colin Barker_, Jul 16 2020: (Start)",
				"G.f.: 2*x^2*(18 + 69*x - 523*x^2 + 255*x^3 - 75*x^4) / ((1 - x)^3*(1 - 5*x)^2).",
				"a(n) = 13*a(n-1) - 58*a(n-2) + 106*a(n-3) - 85*a(n-4) + 25*a(n-5) for n\u003e6.",
				"(End)"
			],
			"program": [
				"(MAGMA) [0] cat [ n*(2*5^n - 16*n) : n in [2..30]]; // _Wesley Ivan Hurt_, Jul 16 2020",
				"(PARI) a(n) = if(n \u003c= 1, 0, n*(2*5^n - 16*n)) \\\\ _Andrew Howroyd_, May 04 2020",
				"(PARI) concat(0, Vec(2*x^2*(18 + 69*x - 523*x^2 + 255*x^3 - 75*x^4) / ((1 - x)^3*(1 - 5*x)^2) + O(x^40))) \\\\ _Colin Barker_, Jul 16 2020"
			],
			"xref": [
				"Cf. A151583."
			],
			"keyword": "nonn,easy",
			"offset": "1,2",
			"author": "_R. H. Hardin_, May 21 2009",
			"ext": [
				"Terms a(9) and beyond from _Andrew Howroyd_, May 04 2020"
			],
			"references": 2,
			"revision": 13,
			"time": "2020-07-17T13:03:21-04:00",
			"created": "2010-06-01T03:00:00-04:00"
		}
	]
}