{
	"greeting": "Greetings from The On-Line Encyclopedia of Integer Sequences! http://oeis.org/",
	"query": "id:A151885",
	"count": 1,
	"start": 0,
	"results": [
		{
			"number": 151885,
			"data": "0,1,3,5,11,5,15,17,39,5,15,25,55,17,51,61,139,5,15,25,55,25,75,85,195,17,51,85,187,61,183,217,495,5,15,25,55,25,75,85,195,25,75,125,275,85,255,305,695,17,51,85,187,85,255,289,663",
			"name": "Similar to the original toothpick sequence A139250, except that the rule is now: a toothpick changes state if its midpoint is adjacent to exactly one ON toothpick.",
			"comment": [
				"In the original toothpick sequence A139250, a toothpick simply turned ON (and stayed ON) if its midpoint was adjacent to exactly one ON toothpick.",
				"Related to A139250 in the same way that A079315 is related to A147562."
			],
			"link": [
				"Nathaniel Johnston, \u003ca href=\"/A151885/b151885.txt\"\u003eTable of n, a(n) for n = 0..925\u003c/a\u003e",
				"David Applegate, Omar E. Pol and N. J. A. Sloane, \u003ca href=\"/A000695/a000695_1.pdf\"\u003eThe Toothpick Sequence and Other Sequences from Cellular Automata\u003c/a\u003e, Congressus Numerantium, Vol. 206 (2010), 157-191. [There is a typo in Theorem 6: (13) should read u(n) = 4.3^(wt(n-1)-1) for n \u003e= 2.]",
				"Nathaniel Johnston, \u003ca href=\"/A151885/a151885.c.txt\"\u003eC program for computing terms of A151885-A151888\u003c/a\u003e",
				"N. J. A. Sloane, \u003ca href=\"/wiki/Catalog_of_Toothpick_and_CA_Sequences_in_OEIS\"\u003eCatalog of Toothpick and Cellular Automata Sequences in the OEIS\u003c/a\u003e",
				"N. J. A. Sloane, \u003ca href=\"/A151885/a151885.pdf\"\u003eIllustration of first 8 generations\u003c/a\u003e"
			],
			"formula": [
				"a(n) = a(n-1) + A151888(n)."
			],
			"xref": [
				"Cf. A151886-A151888, A139250, A139251, A147562, A079314, A079315."
			],
			"keyword": "nonn",
			"offset": "0,3",
			"author": "_N. J. A. Sloane_, Jul 23 2009",
			"ext": [
				"Terms after a(8) from _Nathaniel Johnston_, Apr 02 2011"
			],
			"references": 4,
			"revision": 11,
			"time": "2021-02-24T02:48:18-05:00",
			"created": "2010-06-01T03:00:00-04:00"
		}
	]
}