{
	"greeting": "Greetings from The On-Line Encyclopedia of Integer Sequences! http://oeis.org/",
	"query": "id:A151685",
	"count": 1,
	"start": 0,
	"results": [
		{
			"number": 151685,
			"data": "3,7,5,7,17,17,7,7,17,17,19,41,51,31,9,7,17,17,19,41,51,31,21,41,51,55,101,143,113,49,11,7,17,17,19,41,51,31,21,41,51,55,101,143,113,49,23,41,51,55,101,143,113,73,103,143,161,257,387,369,211,71,13,7,17,17,19,41,51",
			"name": "a(n) = sum_{k \u003e= 0} bin2(wt(n+k),k+1), where bin2(i,j) = A013609(i,j), wt(i) = A000120(i).",
			"comment": [
				"Or, a(n) = sum_{k \u003e= 0} 2^wt(k) * binomial(wt(n+k),k)."
			],
			"link": [
				"David Applegate, Omar E. Pol and N. J. A. Sloane, \u003ca href=\"/A000695/a000695_1.pdf\"\u003eThe Toothpick Sequence and Other Sequences from Cellular Automata\u003c/a\u003e, Congressus Numerantium, Vol. 206 (2010), 157-191. [There is a typo in Theorem 6: (13) should read u(n) = 4.3^(wt(n-1)-1) for n \u003e= 2.]",
				"N. J. A. Sloane, \u003ca href=\"/wiki/Catalog_of_Toothpick_and_CA_Sequences_in_OEIS\"\u003eCatalog of Toothpick and Cellular Automata Sequences in the OEIS\u003c/a\u003e"
			],
			"formula": [
				"G.f.: Prod_{ k \u003e= 0 } (1 + 2*x^(2^k-1) + x^(2^k))."
			],
			"example": [
				"Contribution from _Omar E. Pol_, Jun 09 2009: (Start)",
				"Triangle begins:",
				".3;",
				".7,5;",
				".7,17,17,7;",
				".7,17,17,19,41,51,31,9;",
				".7,17,17,19,41,51,31,21,41,51,55,101,143,113,49,11;",
				".7,17,17,19,41,51,31,21,41,51,55,101,143,113,49,23,41,51,55,101,143,113,...",
				"(End)"
			],
			"maple": [
				"bin2:=proc(n,k) option remember; if k\u003c0 or k\u003en then 0",
				"elif k=0 then 1 else 2*bin2(n-1,k-1)+bin2(n-1,k); fi; end;",
				"wt := proc(n) local w,m,i;",
				"w := 0; m := n; while m \u003e 0 do i := m mod 2; w := w+i; m := (m-i)/2; od; w; end:",
				"f:=n-\u003eadd( bin2(wt(n+k),k),k=0..120 );",
				"# or:",
				"f := n-\u003eadd( 2^k*binomial(wt(n+k),k),k=0..20 );"
			],
			"xref": [
				"For generating functions of the form Prod_{k\u003e=c} (1+a*x^(2^k-1)+b*x^2^k)) for the following values of (a,b,c) see: (1,1,0) A160573, (1,1,1) A151552, (1,1,2) A151692, (2,1,0) A151685, (2,1,1) A151691, (1,2,0) A151688 and A152980, (1,2,1) A151550, (2,2,0) A151693, (2,2,1) A151694",
				"Cf. A151689, A151691.",
				"Cf. A000079. [From _Omar E. Pol_, Jun 09 2009]"
			],
			"keyword": "nonn",
			"offset": "0,1",
			"author": "_N. J. A. Sloane_, Jun 01 2009",
			"references": 11,
			"revision": 7,
			"time": "2021-02-24T02:48:18-05:00",
			"created": "2010-06-01T03:00:00-04:00"
		}
	]
}