{
	"greeting": "Greetings from The On-Line Encyclopedia of Integer Sequences! http://oeis.org/",
	"query": "id:A151677",
	"count": 1,
	"start": 0,
	"results": [
		{
			"number": 151677,
			"data": "2,3,4,6,11,3,6,10,11,19,6,6,11,8,14,15,11,19,15,26,36,3,6,10,11,19,8,12,21,19,33,21,11,19,15,26,36,19,33,32,49,76,8,6,11,8,14,15,11,19,15,26,36,8,14,17,23,40,16,26,38,42,73,28,11,19,15,26,36,19,33,32,49,76,17,26,38",
			"name": "a(n) = sum_{k \u003e= 0} binomial(3*wt(n+k),k), where wt() = A000120().",
			"comment": [
				"Suggested by Hagen von Eitzen's formula for A160573."
			],
			"keyword": "nonn",
			"offset": "0,1",
			"author": "_N. J. A. Sloane_, Jun 01 2009",
			"references": 0,
			"revision": 2,
			"time": "2012-03-30T16:51:03-04:00",
			"created": "2010-06-01T03:00:00-04:00"
		}
	]
}