{
	"greeting": "Greetings from The On-Line Encyclopedia of Integer Sequences! http://oeis.org/",
	"query": "id:A151527",
	"count": 1,
	"start": 0,
	"results": [
		{
			"number": 151527,
			"data": "1,2,3,6,12,26,57,130,297,694,1622,3810,8966,21092,49732,116952,275695,647788,1525610,3581170,8424478,19757082,46425561",
			"name": "Number of 2-sided strip polyrects with n cells.",
			"link": [
				"Ed Pegg, Jr., \u003ca href=\"http://demonstrations.wolfram.com/PolyformExplorer/\"\u003eIllustrations of polyforms\u003c/a\u003e",
				"Eric Weisstein's World of Mathematics, \u003ca href=\"http://mathworld.wolfram.com/Polyrect.html\"\u003ePolyrect\u003c/a\u003e"
			],
			"keyword": "nonn,hard,more",
			"offset": "1,2",
			"author": "_Ed Pegg Jr_, May 13 2009",
			"ext": [
				"a(15)-a(23) from _Joseph Myers_, Nov 22 2010"
			],
			"references": 4,
			"revision": 8,
			"time": "2013-10-02T16:25:26-04:00",
			"created": "2010-06-01T03:00:00-04:00"
		}
	]
}