{
	"greeting": "Greetings from The On-Line Encyclopedia of Integer Sequences! http://oeis.org/",
	"query": "id:A151626",
	"count": 1,
	"start": 0,
	"results": [
		{
			"number": 151626,
			"data": "0,0,1,603,47290,1822014,49258935,1086859301,21147576440,379269758400,6441229796061,105398150289775,1680774708581766,26324724399068626,407112461900381715,6239897666881158537,95036195852840662820,1440959515956284422196,21778829725476446172249",
			"name": "Number of permutations of 2 indistinguishable copies of 1..n with exactly 4 adjacent element pairs in decreasing order.",
			"link": [
				"Andrew Howroyd, \u003ca href=\"/A151626/b151626.txt\"\u003eTable of n, a(n) for n = 1..200\u003c/a\u003e"
			],
			"formula": [
				"a(n) = 15^n - (2*n + 1)*10^n + binomial(2*n+1, 2)*6^n - binomial(2*n+1, 3)*3^n + binomial(2*n+1, 4). - _Andrew Howroyd_, May 07 2020"
			],
			"program": [
				"(PARI) a(n) = {15^n - (2*n + 1)*10^n + binomial(2*n+1, 2)*6^n - binomial(2*n+1, 3)*3^n + binomial(2*n+1, 4) } \\\\ _Andrew Howroyd_, May 07 2020"
			],
			"xref": [
				"Column k=4 of A154283."
			],
			"keyword": "nonn",
			"offset": "1,4",
			"author": "_R. H. Hardin_, May 29 2009",
			"ext": [
				"Terms a(12) and beyond from _Andrew Howroyd_, May 07 2020"
			],
			"references": 2,
			"revision": 6,
			"time": "2020-05-07T22:15:48-04:00",
			"created": "2010-06-01T03:00:00-04:00"
		}
	]
}