{
	"greeting": "Greetings from The On-Line Encyclopedia of Integer Sequences! http://oeis.org/",
	"query": "id:A152052",
	"count": 1,
	"start": 0,
	"results": [
		{
			"number": 152052,
			"data": "2,9,41,203,1216,8144,58622,440258,3424680,27409999,224373161,1870585459,15834656003,135779962760,1177207270204",
			"name": "Number of cousin primes \u003c 10^n.",
			"comment": [
				"The convention here is that only the lower member of a cousin prime pair be less than the selected bound 10^n.",
				"Cousin primes, like twin primes, can be approximated by the Hardy-Littlewood formula for the number of twin primes \u003c n. For example, the number of cousin primes \u003c 10^12 = 1870585459 while Hardy-Littlewood gives 1870559867. The sum of cousin primes \u003c 10^6 divided by 4 also approximates the number of cousin primes \u003c 10^12 with 1844802199. These two methods are asymptotic to the true value as n -\u003e infinity."
			],
			"link": [
				"Cino Hilliard, \u003ca href=\"http://groups.google.com/group/sumprimes/web/sum-of-cousin-primes--10-n\"\u003eGcc Sum Cousin primes\u003c/a\u003e [broken link]"
			],
			"formula": [
				"A cousin prime pair is a pair of primes that differ by 4."
			],
			"example": [
				"(3,7) and (7,11) are cousin primes \u003c 10 since 7 \u003c 10. So 2 is the first entry in the sequence."
			],
			"xref": [
				"Variant of A080840. [_R. J. Mathar_, Nov 27 2008]",
				"Cf. A152127, A333587."
			],
			"keyword": "nonn,hard,more",
			"offset": "1,1",
			"author": "_Cino Hilliard_, Nov 22 2008",
			"ext": [
				"a(13)-a(15) from _Martin Ehrenstein_, Sep 03 2021"
			],
			"references": 3,
			"revision": 28,
			"time": "2021-10-08T07:41:15-04:00",
			"created": "2009-01-09T03:00:00-05:00"
		}
	]
}