{
	"greeting": "Greetings from The On-Line Encyclopedia of Integer Sequences! http://oeis.org/",
	"query": "id:A152981",
	"count": 1,
	"start": 0,
	"results": [
		{
			"number": 152981,
			"data": "1,1,3,7,13,32,72,128,360,1008,3836,9408,15512,66960,252720,785148,1137960,3340800,13072776,42465024,69530400,238761600,678562560,2412043920,5270534880,10943277120,44922182340,117229255200,209990825568,623486730240,1698651339840,7019676332760,18578092462280",
			"name": "Sum of divisors of Motzkin number A001006(n).",
			"link": [
				"Amiram Eldar, \u003ca href=\"/A152981/b152981.txt\"\u003eTable of n, a(n) for n = 0..200\u003c/a\u003e"
			],
			"formula": [
				"a(n) = sigma(A001006(n)) = A000203(A001006(n))."
			],
			"maple": [
				"A152981 := proc(n) numtheory[sigma](A001006(n)) ; end proc:",
				"seq(A152981(n),n=0..40) ; # _R. J. Mathar_, Jul 08 2011"
			],
			"mathematica": [
				"mot[0] = 1; mot[n_] := mot[n] = mot[n - 1] + Sum[mot[k] * mot[n - 2 - k], {k, 0, n - 2}]; Table[DivisorSigma[1, mot[n]], {n, 0, 32}] (* _Amiram Eldar_, Nov 26 2019 *)"
			],
			"xref": [
				"Cf. A000005, A000203, A001006, A152761."
			],
			"keyword": "nonn",
			"offset": "0,3",
			"author": "_Omar E. Pol_, Dec 20 2008",
			"references": 3,
			"revision": 13,
			"time": "2019-11-26T04:18:52-05:00",
			"created": "2009-01-09T03:00:00-05:00"
		}
	]
}