{
	"greeting": "Greetings from The On-Line Encyclopedia of Integer Sequences! http://oeis.org/",
	"query": "id:A152715",
	"count": 1,
	"start": 0,
	"results": [
		{
			"number": 152715,
			"data": "277,337,349,373,853,1093,1109,1117,1237,1297,1301,1303,1361,1367,1373,1381,1399,1429,1489,1493,1621,1861,1873,1877,1879,2389,3413,3541,4177,4357,4373,4421,4423,4441,4447,4549,4561,4567,4597,4933,4951,4957,5077,5189,5197,5209,5233,5237",
			"name": "Primes in A065049 which are not in A139370.",
			"comment": [
				"In the notation of A139370, a prime p is in the sequence iff e(p)\u003eo(p) and e(p)-o(p)== 4 or 5 (mod 6). [_Vladimir Shevelev_, Dec 12 2008]"
			],
			"mathematica": [
				"aQ[n_] := PrimeQ[n] \u0026\u0026 EvenQ[Count[IntegerDigits[n, 2], 1]] == OddQ[Mod[n, 3]] \u0026\u0026 Module[{d = Reverse[IntegerDigits[n, 2]]}, Total@d[[1;; -1;; 2]] \u003e= Total@d[[2;; -1;; 2]]]; Select[Range[5300], aQ] (* _Amiram Eldar_, Dec 15 2018 *)"
			],
			"program": [
				"(PARI) isokp(p) = (p\u003e2) \u0026\u0026 isprime(p) \u0026\u0026 ((hammingweight(p) % 2) != ((p % 3) % 2)); \\\\ A065049",
				"isok0(n) = {my(irb = Vec(select(x-\u003e(x%2), Vecrev(binary(n)), 1))); #select(x-\u003e(x%2), irb) \u003c #irb/2;} \\\\ A139370",
				"isok(p) = isokp(p) \u0026\u0026 !isok0(p); \\\\ _Michel Marcus_, Dec 15 2018"
			],
			"xref": [
				"Cf. A065049, A139370."
			],
			"keyword": "nonn",
			"offset": "1,1",
			"author": "_Vladimir Shevelev_, Dec 11 2008, Dec 12 2008",
			"ext": [
				"Missing 853 and more terms from _Michel Marcus_, Dec 15 2018"
			],
			"references": 1,
			"revision": 8,
			"time": "2018-12-15T20:44:28-05:00",
			"created": "2009-01-09T03:00:00-05:00"
		}
	]
}