{
	"greeting": "Greetings from The On-Line Encyclopedia of Integer Sequences! http://oeis.org/",
	"query": "id:A152529",
	"count": 1,
	"start": 0,
	"results": [
		{
			"number": 152529,
			"data": "3,17,29,74,98,167,241,313,490,580,734,899,1069,1307,1528,1885,2065,2339,2695,2911,3391,3892,4349,4844,5249,5453,5882,6752,7211,8503,8899,9998,10271,11470,12071,12865,13849,14687,15388,16823",
			"name": "a(n) = (p(n)*p(n+2) - 3*p(n+1))/2, where p(n) is the n-th odd prime.",
			"formula": [
				"a(n) = A152528(n+1)/2."
			],
			"maple": [
				"A152529 := proc(n)",
				"    j := n+1 ;",
				"    ithprime(j)*ithprime(j+2)-3*ithprime(j+1) ;",
				"    %/2 ;",
				"end proc: # _R. J. Mathar_, Jul 28 2015"
			],
			"xref": [
				"Cf. A065091, A111071, A152527, A152528, A152530, A152531, A152532."
			],
			"keyword": "easy,nonn",
			"offset": "1,1",
			"author": "_Omar E. Pol_, Dec 06 2008",
			"references": 6,
			"revision": 4,
			"time": "2015-07-28T04:11:29-04:00",
			"created": "2009-01-09T03:00:00-05:00"
		}
	]
}