{
	"greeting": "Greetings from The On-Line Encyclopedia of Integer Sequences! http://oeis.org/",
	"query": "id:A152706",
	"count": 1,
	"start": 0,
	"results": [
		{
			"number": 152706,
			"data": "1,2,6,24,120,720,5040,40320,362880,3450240,35586720,392603904,4661572896,59467264256,806769095216,11726586620032",
			"name": "Number of permutations of floor(i*8/5), i=0..n-1, with all sums of 8 adjacent terms unique.",
			"keyword": "nonn",
			"offset": "1,2",
			"author": "_R. H. Hardin_, Dec 11 2008",
			"references": 0,
			"revision": 5,
			"time": "2021-04-07T19:55:59-04:00",
			"created": "2009-01-09T03:00:00-05:00"
		}
	]
}