{
	"greeting": "Greetings from The On-Line Encyclopedia of Integer Sequences! http://oeis.org/",
	"query": "id:A152168",
	"count": 1,
	"start": 0,
	"results": [
		{
			"number": 152168,
			"data": "1,1,2,10,80,661,5802,54725,558704,6178565,73840164,950331113,13121175977,193618002604,3042570732326,50747501675076,895651186352884,16679929313440954,326936145826028780,6728526339596831313,145085354333183129464,3271200076443827203823",
			"name": "Number of binary digits in (n!)!.",
			"link": [
				"Jon E. Schoenfield, \u003ca href=\"/A152168/b152168.txt\"\u003eTable of n, a(n) for n = 0..30\u003c/a\u003e",
				"\u003ca href=\"/index/Fa#factorial\"\u003eIndex entries for sequences related to factorial numbers\u003c/a\u003e"
			],
			"example": [
				"(3!)! = 6! = 720 has ten binary digits (1011010000), so a(3) = 10."
			],
			"program": [
				"(PARI) a(n) = length(binary(n!!)) \\\\ _Michel Marcus_, Jun 02 2013"
			],
			"xref": [
				"Cf. A000197, A072831."
			],
			"keyword": "base,nonn",
			"offset": "0,3",
			"author": "_Jon E. Schoenfield_, Nov 27 2008",
			"references": 3,
			"revision": 16,
			"time": "2021-10-27T21:52:54-04:00",
			"created": "2009-01-09T03:00:00-05:00"
		}
	]
}