{
	"greeting": "Greetings from The On-Line Encyclopedia of Integer Sequences! http://oeis.org/",
	"query": "id:A152590",
	"count": 1,
	"start": 0,
	"results": [
		{
			"number": 152590,
			"data": "3,7,0,0,4,3,9,7,1,8,1,4,1,0,9,2,1,6,0,3,9,6,8,1,2,6,5,4,2,5,6,6,9,4,7,3,3,6,2,8,4,3,6,4,0,1,7,9,1,0,3,7,3,6,9,5,3,8,4,6,3,5,2,5,8,4,2,8,5,5,1,8,6,6,3,3,0,2,5,3,0,0,1,4,7,3,7,6,5,3,0,2,8,1,1,5,4,8,9",
			"name": "Decimal expansion of log_2(13).",
			"link": [
				"Vincenzo Librandi, \u003ca href=\"/A152590/b152590.txt\"\u003eTable of n, a(n) for n = 1..1000\u003c/a\u003e",
				"\u003ca href=\"/index/Tra#transcendental\"\u003eIndex entries for transcendental numbers\u003c/a\u003e"
			],
			"example": [
				"3.7004397181410921603968126542566947336284364017910373695384..."
			],
			"mathematica": [
				"RealDigits[Log[2, 13], 10, 100][[1]] (* _Vincenzo Librandi_, Aug 29 2013 *)"
			],
			"program": [
				"(PARI) log(13)/log(2) \\\\ _Charles R Greathouse IV_, Aug 06 2020"
			],
			"xref": [
				"Cf. decimal expansion of log_2(m): A020857 (m=3), A020858 (m=5), A020859 (m=6), A020860 (m=7), A020861 (m=9), A020862 (m=10), A020863 (m=11), A020864 (m=12), this sequence, A154462 (m=14), A154540 (m=15), A154847 (m=17), A154905 (m=18), A154995 (m=19), A155172 (m=20), A155536 (m=21), A155693 (m=22), A155793 (m=23), A155921 (m=24)."
			],
			"keyword": "nonn,cons",
			"offset": "1,1",
			"author": "_N. J. A. Sloane_, Oct 28 2009",
			"references": 17,
			"revision": 9,
			"time": "2020-08-06T14:18:34-04:00",
			"created": "2010-06-01T03:00:00-04:00"
		}
	]
}