{
	"greeting": "Greetings from The On-Line Encyclopedia of Integer Sequences! http://oeis.org/",
	"query": "id:A152579",
	"count": 1,
	"start": 0,
	"results": [
		{
			"number": 152579,
			"data": "51,351,851,1551,2451,3551,4851,6351,8051,9951,12051,14351,16851,19551,22451,25551,28851,32351,36051,39951,44051,48351,52851,57551,62451,67551,72851,78351,84051,89951,96051,102351,108851,115551,122451,129551,136851,144351,152051,159951",
			"name": "a(n) = (10*n+3)*(10*n+17).",
			"link": [
				"Vincenzo Librandi, \u003ca href=\"/A152579/b152579.txt\"\u003eTable of n, a(n) for n = 0..10000\u003c/a\u003e",
				"\u003ca href=\"/index/Rec#order_03\"\u003eIndex entries for linear recurrences with constant coefficients\u003c/a\u003e, signature (3,-3,1)."
			],
			"formula": [
				"a(n) = 100*n*(n+2) + 51 = 100*A005563(n) + 51 = 100*(n+1)^2 - 49 = A017270(n+1) - 49.",
				"a(n) = 2*a(n-2) - a(n-2) + 200.",
				"a(n) = 50*A056220(n+1) + 1.",
				"a(n+1) - a(n) = 200*n+300 = 100*A144396(n+1).",
				"G.f.: ( -51 - 198*x + 49*x^2 ) / (x-1)^3. - _R. J. Mathar_, Jul 01 2011"
			],
			"program": [
				"(MAGMA) [(10*n+3)*(10*n+17): n in [0..40]]; // _Vincenzo Librandi_, Jul 28 2011",
				"(PARI) a(n)=100*n*(n+2)+51 \\\\ _Charles R Greathouse IV_, Jul 28 2011"
			],
			"xref": [
				"Cf. A017305 (10n+3), A017353 (10n+7), A152161."
			],
			"keyword": "nonn,easy",
			"offset": "0,1",
			"author": "_Paul Curtz_, Dec 08 2008",
			"references": 1,
			"revision": 26,
			"time": "2018-10-20T11:51:39-04:00",
			"created": "2009-01-09T03:00:00-05:00"
		}
	]
}