{
	"greeting": "Greetings from The On-Line Encyclopedia of Integer Sequences! http://oeis.org/",
	"query": "id:A152014",
	"count": 1,
	"start": 0,
	"results": [
		{
			"number": 152014,
			"data": "0,8,28,204,1406,9538,70474,535578,4192024,33619380,274890230,2294771254",
			"name": "Number of n-digit primes whose reversal is a different prime.",
			"comment": [
				"All terms are even."
			],
			"example": [
				"a(1)=0 because there are no 1-digit terms in A006567.",
				"a(2)=8 because there are eight 2-digit terms in A006567: 13,17,31,37,71,73,79,97."
			],
			"mathematica": [
				"Do[c = 0; p = NextPrime[10^(n - 1) - 1]; n1 = PrimePi[p]; n2 = PrimePi[NextPrime[10^n, -1]] - n1 + 1; Do[id = IntegerDigits[p]; i1 = id[[1]]; If[OddQ[i1] \u0026\u0026 i1 != 5, p1 = FromDigits[ Reverse[id]]; If[p1 != p, If[PrimeQ[p1], c++ ]]]; p = NextPrime[p], {n2}]; Print[{n, c}], {n, 1, 9}];"
			],
			"xref": [
				"Cf. A006567."
			],
			"keyword": "more,nonn,base",
			"offset": "1,2",
			"author": "_Zak Seidov_, Nov 19 2008",
			"ext": [
				"a(10)-a(11) from _Donovan Johnson_, Nov 01 2010",
				"a(12) from _Lars Blomberg_, Jun 28 2021"
			],
			"references": 2,
			"revision": 12,
			"time": "2021-06-28T10:49:40-04:00",
			"created": "2009-01-09T03:00:00-05:00"
		}
	]
}