{
	"greeting": "Greetings from The On-Line Encyclopedia of Integer Sequences! http://oeis.org/",
	"query": "id:A152796",
	"count": 1,
	"start": 0,
	"results": [
		{
			"number": 152796,
			"data": "1,1,3,11,59,507,7291,179835,7735931,587692667,79670024827,19448385018491,8618086780869243,6982072994177981051,10407899725137769634427,28707447266050669790599803",
			"name": "Column 0 of triangle A152795.",
			"xref": [
				"Cf. A152795; A152797."
			],
			"keyword": "nonn",
			"offset": "0,3",
			"author": "_Paul D. Hanna_, Dec 19 2008",
			"references": 2,
			"revision": 2,
			"time": "2012-03-30T18:37:15-04:00",
			"created": "2009-01-09T03:00:00-05:00"
		}
	]
}