{
	"greeting": "Greetings from The On-Line Encyclopedia of Integer Sequences! http://oeis.org/",
	"query": "id:A152843",
	"count": 1,
	"start": 0,
	"results": [
		{
			"number": 152843,
			"data": "0,1,4,10,13,19,25,40,43,55,64,85,88,94,115,118,124,139,145,178,208,214,220,244,253,295,319,325,328,340,358,370,379,403,454,475,505,508,514,523,550,610,613,643,703,718,724,739,748,754,778,790,799,865,904,943",
			"name": "Numbers n such that both 2n+3 and 4n+7 are prime.",
			"comment": [
				"Or, numbers n such that 2n+3 is a Sophie Germain prime. [_Klaus Brockhaus_, Dec 22 2008]"
			],
			"link": [
				"Vincenzo Librandi, \u003ca href=\"/A152843/b152843.txt\"\u003eTable of n, a(n) for n = 1..1000\u003c/a\u003e"
			],
			"example": [
				"For n = 10, 2*n+3 = 23 is prime and 4*n+7 = 47 is prime. 23 = A005384(5)."
			],
			"mathematica": [
				"Join[{0}, Select[Range[1000], PrimeQ[2*#+3] \u0026\u0026 PrimeQ[4*#+7] \u0026]] (* _Vincenzo Librandi_, Aug 30 2012 *)",
				"Select[Range[0,1000],AllTrue[{2#+3,4#+7},PrimeQ]\u0026] (* The program uses the AllTrue function from Mathematica version 10 *) (* _Harvey P. Dale_, Aug 07 2015 *)"
			],
			"program": [
				"(MAGMA) [ n: n in [0..1000] | IsPrime(2*n+3) and IsPrime(4*n+7) ];"
			],
			"xref": [
				"Cf. A067076 (2n+3 is prime), A089986 (4n+7 is prime), A005384 (Sophie Germain primes)."
			],
			"keyword": "nonn,easy",
			"offset": "1,3",
			"author": "_Vincenzo Librandi_, Dec 14 2008",
			"ext": [
				"Edited and extended by _Klaus Brockhaus_, Dec 22 2008"
			],
			"references": 2,
			"revision": 9,
			"time": "2015-08-07T17:09:57-04:00",
			"created": "2009-01-09T03:00:00-05:00"
		}
	]
}