{
	"greeting": "Greetings from The On-Line Encyclopedia of Integer Sequences! http://oeis.org/",
	"query": "id:A152365",
	"count": 1,
	"start": 0,
	"results": [
		{
			"number": 152365,
			"data": "1,2,6,24,120,720,4608,33984,288144,2623296,25738160,286187056,3468902852,44081906430,594869073736,8691649361022",
			"name": "Number of permutations of floor(i*9/4), i=0..n-1, with all sums of 5 adjacent terms unique.",
			"keyword": "nonn",
			"offset": "1,2",
			"author": "_R. H. Hardin_, Dec 02 2008",
			"references": 0,
			"revision": 5,
			"time": "2021-04-07T20:11:29-04:00",
			"created": "2009-01-09T03:00:00-05:00"
		}
	]
}