{
	"greeting": "Greetings from The On-Line Encyclopedia of Integer Sequences! http://oeis.org/",
	"query": "id:A152941",
	"count": 1,
	"start": 0,
	"results": [
		{
			"number": 152941,
			"data": "385,595,665,935,1155,1235,1309,1463,1495,1729,1855,1955,2065,2261,2465,2665,2795,2821,3045,3059,3115,3145,3289,3451,3619,3655,3857,4123,4277,4389,4403,4433,4669,4697,4745,4807,4879,4935,4945,5015,5083,5117,5285",
			"name": "Odd squarefree numbers n such that the cyclotomic polynomial Phi(n,x) has height 3.",
			"comment": [
				"The height of a polynomial is the maximum of the absolute value of its coefficients. Subsequence of A154430."
			],
			"link": [
				"T. D. Noe, \u003ca href=\"/A152941/b152941.txt\"\u003eTable of n, a(n) for n = 1..1000\u003c/a\u003e"
			],
			"program": [
				"(PARI) is(n)=issquarefree(n) \u0026\u0026 n%2 \u0026\u0026 vecmax(abs(Vec(polcyclo(n))))==3 \\\\ _Charles R Greathouse IV_, Nov 05 2017"
			],
			"xref": [
				"Cf. A152955, A152940, A152942, A152943."
			],
			"keyword": "nonn",
			"offset": "1,1",
			"author": "_T. D. Noe_, Dec 16 2008, Jan 09 2008",
			"references": 7,
			"revision": 6,
			"time": "2017-11-05T13:18:56-05:00",
			"created": "2009-01-09T03:00:00-05:00"
		}
	]
}