{
	"greeting": "Greetings from The On-Line Encyclopedia of Integer Sequences! http://oeis.org/",
	"query": "id:A152728",
	"count": 1,
	"start": 0,
	"results": [
		{
			"number": 152728,
			"data": "0,0,0,1,7,19,38,68,110,165,237,327,436,568,724,905,1115,1355,1626,1932,2274,2653,3073,3535,4040,4592,5192,5841,6543,7299,8110,8980,9910,10901,11957,13079,14268,15528,16860,18265,19747,21307,22946,24668,26474",
			"name": "a(n) + a(n+1) + a(n+2) = n^3.",
			"comment": [
				"The differences between the terms are (1) a(3*k) - a(3*k-1) = 9*k*(k-1)+1; (2) otherwise, a(n) - a(n-1) = (n-2)*(n-1). - _J. M. Bergot_, Jul 10 2013",
				"Second differences give A047266. - _J. M. Bergot_, Dec 01 2014"
			],
			"link": [
				"G. C. Greubel, \u003ca href=\"/A152728/b152728.txt\"\u003eTable of n, a(n) for n = 0..5000\u003c/a\u003e",
				"\u003ca href=\"/index/Rec#order_06\"\u003eIndex entries for linear recurrences with constant coefficients\u003c/a\u003e, signature (3,-3,2,-3,3,-1)."
			],
			"formula": [
				"From _R. J. Mathar_, Aug 15 2010: (Start)",
				"a(n) = ( (n-1)*(n^2-2*n-1) - A057078(n))/3.",
				"G.f.: x^3*(1+4*x+x^2) / ( (1+x+x^2)*(x-1)^4 ). (End)",
				"a(n) = 3*a(n-1) - 3*a(n-2) + 2*a(n-3) - 3*a(n-4) + 3*a(n-5) - a(n-5). - _Charles R Greathouse IV_, Jul 10 2013",
				"a(3n) = n*(9n^2-9n+1), a(3n+1) = n*(9n^2-2), a(3n+2) = n*(9n^2+9n+1). - _Ralf Stephan_, Jul 12 2013",
				"a(n) = ceiling((n^3 - 3*n^2 + n)/3). - _Robert Israel_, Dec 01 2014"
			],
			"maple": [
				"seq(ceil((n^3 - 3*n^2 + n)/3), n=0..100); # _Robert Israel_, Dec 01 2014"
			],
			"mathematica": [
				"k0=k1=0;lst={k0,k1};Do[kt=k1;k1=n^3-k1-k0;k0=kt;AppendTo[lst,k1],{n,1,4!}];lst",
				"LinearRecurrence[{3,-3,2,-3,3,-1}, {0,0,0,1,7,19}, 50] (* _G. C. Greubel_, Sep 01 2018 *)"
			],
			"program": [
				"(PARI) x='x+O('x^50); concat([0,0,0], Vec(x^3*(1+4*x+x^2)/((1+x+x^2)*(x -1)^4 ))) \\\\ _G. C. Greubel_, Sep 01 2018",
				"(MAGMA) m:=50; R\u003cx\u003e:=PowerSeriesRing(Integers(), m); [0,0,0] cat Coefficients(R!(x^3*(1+4*x+x^2)/((1+x+x^2)*(x-1)^4))); // _G. C. Greubel_, Sep 01 2018"
			],
			"xref": [
				"Cf. A000578, A047266."
			],
			"keyword": "nonn,easy",
			"offset": "0,5",
			"author": "_Vladimir Joseph Stephan Orlovsky_, Dec 11 2008",
			"references": 6,
			"revision": 31,
			"time": "2018-09-02T03:18:41-04:00",
			"created": "2009-01-09T03:00:00-05:00"
		}
	]
}