{
	"greeting": "Greetings from The On-Line Encyclopedia of Integer Sequences! http://oeis.org/",
	"query": "id:A152304",
	"count": 1,
	"start": 0,
	"results": [
		{
			"number": 152304,
			"data": "1,0,1,3,5,8,5,5,2,1,0,2,0,2,2,7,9,2,8,7,5,6,7,6,3,6,8,2,2,7,9,2,4,5,5,9,2,3,7,5,4,2,5,0,2,9,5,0,0,7,6,8,7,8,2,5,8,5,0,3,5,2,7,4,3,2,6,9,7,8,3,1,9,9,3,1",
			"name": "Marsaglia-Zaman type binet solution rationalized: f(n)=(11/20 - Sqrt[512]/20)^n/3 + (2/3)*(11/20 + Sqrt[512]/20)^n; a(n)=Mod[Floor[f(n)],10].",
			"comment": [
				"The binet solution came from Mathematica:",
				"f[n_Integer] = Module[{a}, a[n] /. RSolve[{a[n] == a[n - 1] + a[n - 2] + a[n - 1]/10,a[0] == 1, a[1] == 1}, a[n], n][[1]] // FullSimplify].",
				"I used coefficients{1/2,2/3} on the golden ration like roots to get my function."
			],
			"reference": [
				"Ivars Peterson, The Jungles of Randomness, 1998, John Wiley and Sons, Inc., page 207"
			],
			"formula": [
				"f(n)=(11/20 - Sqrt[512]/20)^n/3 + (2/3)*(11/20 + Sqrt[512]/20)^n;",
				"a(n)=Mod[Floor[f(n)],10]."
			],
			"mathematica": [
				"g[n_] := (11/20 - Sqrt[512]/20)^n/3 + (2/3)*(11/20 + Sqrt[512]/20)^n;",
				"Table[Mod[Floor[FullSimplify[Expand[g[n]]]], 10], {n, 0, 76}]"
			],
			"keyword": "nonn",
			"offset": "0,4",
			"author": "_Roger L. Bagula_, Dec 02 2008",
			"references": 0,
			"revision": 2,
			"time": "2012-03-30T17:34:28-04:00",
			"created": "2009-01-09T03:00:00-05:00"
		}
	]
}