{
	"greeting": "Greetings from The On-Line Encyclopedia of Integer Sequences! http://oeis.org/",
	"query": "id:A153885",
	"count": 1,
	"start": 0,
	"results": [
		{
			"number": 153885,
			"data": "1,16,197,2208,23705,249008,2585533,26677056,274286449,2814636880,28851289589,295557057504,3026686834313,30989122956272,317251444075885,3247664850794112,33244802412228577,340304612398804624,3483430456059387941,35656915165420734240",
			"name": "a(n) = ((8 + sqrt(5))^n - (8 - sqrt(5))^n)/(2*sqrt(5)).",
			"comment": [
				"Sixth binomial transform of A048879.",
				"lim_{n -\u003e infinity} a(n)/a(n-1) = 8 + sqrt(5) = 10.236067977499789696...."
			],
			"link": [
				"G. C. Greubel, \u003ca href=\"/A153885/b153885.txt\"\u003eTable of n, a(n) for n = 1..1000\u003c/a\u003e",
				"\u003ca href=\"/index/Rec#order_02\"\u003eIndex entries for linear recurrences with constant coefficients\u003c/a\u003e, signature (16, -59)."
			],
			"formula": [
				"From _Philippe Deléham_, Jan 03 2009: (Start)",
				"a(n) = 16*a(n-1) - 59*a(n-2) for n\u003e1, with a(0)=0, a(1)=1.",
				"G.f.: x/(1 - 16*x + 59*x^2). (End)"
			],
			"mathematica": [
				"Join[{a=1,b=16},Table[c=16*b-59*a;a=b;b=c,{n,40}]] (* _Vladimir Joseph Stephan Orlovsky_, Feb 08 2011*)",
				"LinearRecurrence[{16, -59}, {1, 16}, 25] (* or *) Table[((8 + sqrt(5))^n - (8 - sqrt(5))^n)/(2*sqrt(5)) , {n,1,25}] (* _G. C. Greubel_, Aug 31 2016 *)"
			],
			"program": [
				"(MAGMA) Z\u003cx\u003e:= PolynomialRing(Integers()); N\u003cr\u003e:=NumberField(x^2-5); S:=[ ((8+r)^n-(8-r)^n)/(2*r): n in [1..18] ]; [ Integers()!S[j]: j in [1..#S] ]; # _Klaus Brockhaus_, Jan 04 2009",
				"(MAGMA) I:=[1,16]; [n le 2 select I[n] else 16*Self(n-1)-59*Self(n-2): n in [1..30]]; // _Vincenzo Librandi_, Sep 01 2016"
			],
			"xref": [
				"Cf. A002163 (decimal expansion of sqrt(5)), A048879."
			],
			"keyword": "nonn",
			"offset": "1,2",
			"author": "Al Hakanson (hawkuu(AT)gmail.com), Jan 03 2009",
			"ext": [
				"Extended beyond a(7) by _Klaus Brockhaus_, Jan 04 2009",
				"Edited by _Klaus Brockhaus_, Oct 11 2009"
			],
			"references": 1,
			"revision": 13,
			"time": "2016-09-01T03:33:42-04:00",
			"created": "2009-01-09T03:00:00-05:00"
		}
	]
}