{
	"greeting": "Greetings from The On-Line Encyclopedia of Integer Sequences! http://oeis.org/",
	"query": "id:A153848",
	"count": 1,
	"start": 0,
	"results": [
		{
			"number": 153848,
			"data": "21,2121,212121,21212121,2121212121,212121212121,21212121212121,2121212121212121,212121212121212121,21212121212121212121,2121212121212121212121,212121212121212121212121,21212121212121212121212121,2121212121212121212121212121",
			"name": "Repeat 21.",
			"link": [
				"\u003ca href=\"/index/Rec\"\u003eIndex entries for linear recurrences with constant coefficients\u003c/a\u003e, signature (101,-100)."
			],
			"formula": [
				"a(n) = (10^(2*n)-1)*21/99."
			],
			"maple": [
				"a:= n-\u003e parse(cat(21$n)):",
				"seq(a(n), n=1..20);  # _Alois P. Heinz_, Jun 16 2021"
			],
			"program": [
				"(PARI) g2(n) = (10^(2*n)-1)*1*21/99 for(x=1,25,print1(g2(x),\",\"))"
			],
			"xref": [
				"Cf. A177090."
			],
			"keyword": "nonn,easy",
			"offset": "1,1",
			"author": "_Cino Hilliard_, Jan 02 2009",
			"references": 1,
			"revision": 10,
			"time": "2021-06-16T16:02:24-04:00",
			"created": "2009-01-09T03:00:00-05:00"
		}
	]
}