{
	"greeting": "Greetings from The On-Line Encyclopedia of Integer Sequences! http://oeis.org/",
	"query": "id:A153436",
	"count": 1,
	"start": 0,
	"results": [
		{
			"number": 153436,
			"data": "2,2,2,2,4,2,10,4,3,2,6,3,4,21,12,2,30,3,5,47,31,34,27,2,31,2,50,5,20,23,89,29,179,11,2,16,41,96,75,22,55,10,209,46,38,17,34,7,61,121,119,2,68,148,2,164,216,65,527,11,175,354,442,201,54,230,97,433,3",
			"name": "a(n) is the least k such that k^n*(k^n+1)-1 is prime.",
			"link": [
				"Pierre CAMI, \u003ca href=\"/A153436/b153436.txt\"\u003eTable of n, a(n) for n = 1..500\u003c/a\u003e"
			],
			"program": [
				"(PARI) a(n) = {my(k=1); while (! isprime(k^n*(k^n+1)-1), k++); k;}"
			],
			"xref": [
				"Cf. A101406, A153436, A153438."
			],
			"keyword": "nonn",
			"offset": "1,1",
			"author": "_Pierre CAMI_, Dec 26 2008",
			"ext": [
				"Name corrected by _Michel Marcus_, Sep 24 2019"
			],
			"references": 6,
			"revision": 14,
			"time": "2019-09-26T08:02:19-04:00",
			"created": "2009-01-09T03:00:00-05:00"
		}
	]
}