{
	"greeting": "Greetings from The On-Line Encyclopedia of Integer Sequences! http://oeis.org/",
	"query": "id:A153540",
	"count": 1,
	"start": 0,
	"results": [
		{
			"number": 153540,
			"data": "1,2,8,64,848,9949,294074,15816643,1445464075,209860060542",
			"name": "Number of planar n X n X n binary triangular grids with no more than 6 ones in any 5 X 5 X 5 subtriangle.",
			"keyword": "nonn",
			"offset": "0,2",
			"author": "_R. H. Hardin_, Jan 01 2009",
			"references": 0,
			"revision": 7,
			"time": "2021-04-28T00:05:09-04:00",
			"created": "2009-01-09T03:00:00-05:00"
		}
	]
}