{
	"greeting": "Greetings from The On-Line Encyclopedia of Integer Sequences! http://oeis.org/",
	"query": "id:A153547",
	"count": 1,
	"start": 0,
	"results": [
		{
			"number": 153547,
			"data": "1,2,8,64,1024,32752,2094318,267741217,68425489881,34951218056523,35683071768444747,72814594044725557801,296982615602547349380149,2421028643025223909552306905",
			"name": "Number of planar n X n X n binary triangular grids with no more than 13 ones in any 5 X 5 X 5 subtriangle.",
			"keyword": "nonn",
			"offset": "0,2",
			"author": "_R. H. Hardin_, Jan 01 2009",
			"references": 0,
			"revision": 5,
			"time": "2021-04-28T00:06:36-04:00",
			"created": "2009-01-09T03:00:00-05:00"
		}
	]
}