{
	"greeting": "Greetings from The On-Line Encyclopedia of Integer Sequences! http://oeis.org/",
	"query": "id:A153722",
	"count": 1,
	"start": 0,
	"results": [
		{
			"number": 153722,
			"data": "7,3,38,318,78,83,265,185,73351,356362",
			"name": "Greatest number m such that the fractional part of (Pi-2)^A153718(n) \u003c= 1/m.",
			"formula": [
				"a(n) = floor(1/fract((Pi-2)^A153718(n))), where fract(x) = x-floor(x)."
			],
			"example": [
				"a(3) = 38 since 1/39 \u003c fract((Pi-2)^A153718(3)) = fract((Pi-2)^23) = 0.02600... \u003c= 1/38."
			],
			"mathematica": [
				"A153718 = {1, 2, 23, 24, 35, 41, 65, 182, 72506, 107346};",
				"Table[Floor[1/FractionalPart[(Pi - 2)^A153718[[n]]]], {n, 1,",
				"Length[A153718]}] (* _Robert Price_, May 10 2019 *)"
			],
			"xref": [
				"Cf. A153662, A153670, A153678, A153686, A153694, A153702, A153710, A153718, A154130."
			],
			"keyword": "nonn,more",
			"offset": "1,1",
			"author": "_Hieronymus Fischer_, Jan 06 2009",
			"references": 7,
			"revision": 9,
			"time": "2019-05-11T01:44:36-04:00",
			"created": "2009-01-09T03:00:00-05:00"
		}
	]
}