{
	"greeting": "Greetings from The On-Line Encyclopedia of Integer Sequences! http://oeis.org/",
	"query": "id:A153468",
	"count": 1,
	"start": 0,
	"results": [
		{
			"number": 153468,
			"data": "1,12,324,19764,2727756,852196788,602756140068,965229960414132,3499562183624643780,28727144381588600187612,533909545388896809071238444,22466716989986988610061264294004,2140465899840618529308907998923768676",
			"name": "1/5 of the number of 5-colorings of a planar n X n X n triangular grid.",
			"xref": [
				"5th row of A182797/5."
			],
			"keyword": "nonn",
			"offset": "1,2",
			"author": "_R. H. Hardin_, Dec 27 2008",
			"ext": [
				"a(10)-a(11) from _Alois P. Heinz_, Dec 03 2010",
				"a(12)-a(13) from _Alois P. Heinz_, Jul 21 2011"
			],
			"references": 1,
			"revision": 11,
			"time": "2021-04-07T19:45:43-04:00",
			"created": "2009-01-09T03:00:00-05:00"
		}
	]
}