{
	"greeting": "Greetings from The On-Line Encyclopedia of Integer Sequences! http://oeis.org/",
	"query": "id:A153447",
	"count": 1,
	"start": 0,
	"results": [
		{
			"number": 153447,
			"data": "1,2,4,9,19,49,131,424,1652",
			"name": "Duplicate of A076893.",
			"comment": [
				"Duplicate of A076893. [From _R. J. Mathar_, Jan 03 2009]"
			],
			"reference": [
				"A. Evnin. An elementary Introduction to Matroids, Mathematical Education, 2(33), 2005, 2-33"
			],
			"link": [
				"A. Evnin, \u003ca href=\"http://www.lib.susu.ac.ru/ftd?base=SUSU\u0026amp;key=000305409\u0026amp;dtype=F\u0026amp;etype=.pdf\"\u003eAn elementary Introduction to Matroids\u003c/a\u003e"
			],
			"xref": [
				"Cf. A034343"
			],
			"keyword": "dead",
			"offset": "1,2",
			"author": "_Alexander Evnin_, Dec 26 2008",
			"references": 0,
			"revision": 11,
			"time": "2013-09-10T05:26:24-04:00",
			"created": "2009-01-09T03:00:00-05:00"
		}
	]
}