{
	"greeting": "Greetings from The On-Line Encyclopedia of Integer Sequences! http://oeis.org/",
	"query": "id:A153330",
	"count": 1,
	"start": 0,
	"results": [
		{
			"number": 153330,
			"data": "1,6,-5,3,3,8,-13,16,-13,8,-5,0,8,0,-13,8,8,0,-13,0,8,0,-5,13,-13,101,-93,0,0,88,-101,21,-13,0,8,0,0,13,-26,101,-101,21,-13,0,0,88,-93,13,0,0,-13,0,101,0,-93,13,-13,13,-13,0,88,0,-101,21,0,0,-13,0,0,88,-80,93",
			"name": "Differences in adjacent elements of the sequence quantifying the steps needed for n to converge to 1 in the Collatz Conjecture.",
			"comment": [
				"Collatz Conjecture: Starting with any positive integer n and continually halving it when even and tripling and adding 1 to it when odd, n will always converge to 1. A006577 is the number of iterations required to turn n into 1.",
				"The sequence may be of interest because showing that all of its elements are finite is tantamount to proving the Collatz Conjecture. However there is no obvious reason to believe that demonstrating the property for this sequence would be any simpler than showing it for A006577!"
			],
			"link": [
				"Ian Kent, \u003ca href=\"/A153330/b153330.txt\"\u003eTable of n, a(n) for n = 1..10000\u003c/a\u003e"
			],
			"formula": [
				"a(n)=A006577(n+1)-A006577(n) for n\u003e0."
			],
			"mathematica": [
				"Differences[Table[Length[NestWhileList[If[EvenQ[#],#/2,3#+1]\u0026,n,#\u003e1\u0026]], {n,80}]] (* _Harvey P. Dale_, Oct 10 2011 *)"
			],
			"keyword": "easy,sign",
			"offset": "1,2",
			"author": "_Ian Kent_, Dec 23 2008",
			"references": 2,
			"revision": 10,
			"time": "2013-11-21T12:49:29-05:00",
			"created": "2009-01-09T03:00:00-05:00"
		}
	]
}