{
	"greeting": "Greetings from The On-Line Encyclopedia of Integer Sequences! http://oeis.org/",
	"query": "id:A153599",
	"count": 1,
	"start": 0,
	"results": [
		{
			"number": 153599,
			"data": "1,16,195,2144,22409,227760,2277211,22542016,221762385,2173135184,21242657459,207321273120,2021338264921,19694814578416,191815399094475,1867662696228224,18181863794888609,176982396248296080,1722624648484532131,16766068204606453216",
			"name": "a(n) = ((8 + sqrt(3))^n - (8 - sqrt(3))^n)/(2*sqrt(3)).",
			"comment": [
				"lim_{n -\u003e infinity} a(n)/a(n-1) = 8 + sqrt(3) = 9.73205080756887729...."
			],
			"link": [
				"G. C. Greubel, \u003ca href=\"/A153599/b153599.txt\"\u003eTable of n, a(n) for n = 1..1000\u003c/a\u003e",
				"\u003ca href=\"/index/Rec#order_02\"\u003eIndex entries for linear recurrences with constant coefficients\u003c/a\u003e, signature (16, -61)."
			],
			"formula": [
				"G.f.: x/(1 - 16*x + 61*x^2). - _Klaus Brockhaus_, Dec 31 2008, (corrected Oct 11 2009)",
				"a(n) = 16*a(n-1) - 61*a(n-2) for n\u003e1; a(0)=0, a(1)=1. - _Philippe Deléham_, Jan 01 2009"
			],
			"mathematica": [
				"Join[{a=1,b=16},Table[c=16*b-61*a;a=b;b=c,{n,40}]] (* _Vladimir Joseph Stephan Orlovsky_, Feb 08 2011*)",
				"Simplify/@Table[c=Sqrt[3];((8+c)^n-(8-c)^n)/(2c),{n,20}] (* or *) LinearRecurrence[{16,-61},{1,16},20] (* _Harvey P. Dale_, Sep 24 2012 *)"
			],
			"program": [
				"(MAGMA) Z\u003cx\u003e:= PolynomialRing(Integers()); N\u003cr\u003e:=NumberField(x^2-3); S:=[ ((8+r)^n-(8-r)^n)/(2*r): n in [1..18] ]; [ Integers()!S[j]: j in [1..#S] ]; // _Klaus Brockhaus_, Dec 31 2008",
				"(MAGMA)  I:=[1,16]; [n le 2 select I[n] else 16*Self(n-1)-61*Self(n-2): n in [1..25]]; // _Vincenzo Librandi_, Aug 23 2016"
			],
			"xref": [
				"Cf. A002194 (decimal expansion of sqrt(3))."
			],
			"keyword": "nonn",
			"offset": "1,2",
			"author": "Al Hakanson (hawkuu(AT)gmail.com), Dec 29 2008",
			"ext": [
				"Extended beyond a(7) by _Klaus Brockhaus_, Dec 31 2008",
				"Edited by _Klaus Brockhaus_, Oct 11 2009"
			],
			"references": 1,
			"revision": 19,
			"time": "2016-08-23T03:58:02-04:00",
			"created": "2009-01-09T03:00:00-05:00"
		}
	]
}