{
	"greeting": "Greetings from The On-Line Encyclopedia of Integer Sequences! http://oeis.org/",
	"query": "id:A153424",
	"count": 1,
	"start": 0,
	"results": [
		{
			"number": 153424,
			"data": "223,227,233,241,251,263,277,293,311,331,353,431,461,563,601,641,683,727,773,821,977,1033,1091,1151,1213,1277,1481,1553,1627,1861,2027,2113,2383,2477,2671,3083,3191,3301,3413,3527,3643,3761,3881,4003,4127,4253",
			"name": "Primes of the form n^2+3n+223",
			"link": [
				"Vincenzo Librandi, \u003ca href=\"/A153424/b153424.txt\"\u003eTable of n, a(n) for n = 1..1000\u003c/a\u003e"
			],
			"mathematica": [
				"Table[n^2+3*n+223,{n,0,70}],PrimeQ] (* _Vincenzo Librandi_, Jul 14 2012"
			],
			"program": [
				"(MAGMA) [a: n in [0..50] | IsPrime(a) where a is n^2+3*n+223 ]; // _Vincenzo Librandi_, Jul 14 2012"
			],
			"xref": [
				"Cf. A153423."
			],
			"keyword": "nonn,easy",
			"offset": "1,1",
			"author": "_Vincenzo Librandi_, Dec 26 2008",
			"references": 1,
			"revision": 5,
			"time": "2012-07-14T10:46:05-04:00",
			"created": "2009-01-09T03:00:00-05:00"
		}
	]
}