{
	"greeting": "Greetings from The On-Line Encyclopedia of Integer Sequences! http://oeis.org/",
	"query": "id:A153203",
	"count": 1,
	"start": 0,
	"results": [
		{
			"number": 153203,
			"data": "8,2,7,0,8,7,4,7,5,3,4,6,9,1,6,1,5,0,3,0,3,7,5,1,4,8,3,6,4,5,5,6,8,6,1,8,8,6,7,6,8,7,3,6,0,1,6,9,5,8,1,0,2,3,3,1,6,7,6,4,4,5,2,6,6,5,0,4,4,2,9,6,1,8,9,2,0,0,7,5,7,3,0,9,6,2,4,0,9,6,2,5,2,5,0,8,4,9,7",
			"name": "Decimal expansion of log_7(5).",
			"link": [
				"Vincenzo Librandi, \u003ca href=\"/A153203/b153203.txt\"\u003eTable of n, a(n) for n = 0..1000\u003c/a\u003e"
			],
			"example": [
				".82708747534691615030375148364556861886768736016958102331676..."
			],
			"mathematica": [
				"RealDigits[Log[7, 5], 10, 100][[1]] (* _Vincenzo Librandi_, Aug 31 2013 *)"
			],
			"program": [
				"(PARI) default(realprecision, 100); log(5)/log(7) \\\\ _G. C. Greubel_, Sep 02 2018",
				"(MAGMA) SetDefaultRealField(RealField(100)); Log(5)/Log(7); // _G. C. Greubel_, Sep 02 2018"
			],
			"xref": [
				"Cf. decimal expansion of log_7(m): A152713 (m=2), A152945 (m=3), A153103 (m=4), this sequence, A153463 (m=6), A153755 (m=8), A113211 (m=9), A154158 (m=10), A154179 (m=11), A154200 (m=12), A154294 (m=13), A154467 (m=14), A154572 (m=15), A154793 (m=16), A154857 (m=17), A154912 (m=18), A155059 (m=19), A155496 (m=20), A155591 (m=21), A155735 (m=22), A155824 (m=23), A155964 (m=24)."
			],
			"keyword": "nonn,cons",
			"offset": "0,1",
			"author": "_N. J. A. Sloane_, Oct 30 2009",
			"references": 22,
			"revision": 14,
			"time": "2018-09-02T23:59:43-04:00",
			"created": "2009-01-09T03:00:00-05:00"
		}
	]
}