{
	"greeting": "Greetings from The On-Line Encyclopedia of Integer Sequences! http://oeis.org/",
	"query": "id:A153527",
	"count": 1,
	"start": 0,
	"results": [
		{
			"number": 153527,
			"data": "1,2,7,22,56,295,2298,20666,194155,2700996,51521837,1239525245,36497293583,1416042960537,72342354105238,4760390278139941,400064661916351750",
			"name": "Number of planar n X n X n binary triangular grids with no more than 2 ones in any 4 X 4 X 4 subtriangle.",
			"keyword": "nonn",
			"offset": "0,2",
			"author": "_R. H. Hardin_, Jan 01 2009",
			"references": 0,
			"revision": 5,
			"time": "2021-04-28T00:02:40-04:00",
			"created": "2009-01-09T03:00:00-05:00"
		}
	]
}