{
	"greeting": "Greetings from The On-Line Encyclopedia of Integer Sequences! http://oeis.org/",
	"query": "id:A153284",
	"count": 1,
	"start": 0,
	"results": [
		{
			"number": 153284,
			"data": "1,1,3,1,3,1,3,1,3,1,3,1,3,1,3,1,3,1,3,1,3,1,3,1,3,1,3,1,3,1,3,1,3,1,3,1,3,1,3,1,3,1,3,1,3,1,3,1,3,1,3,1,3,1,3,1,3,1,3,1,3,1,3,1,3,1,3,1,3,1",
			"name": "a(n) = n + Sum_{j=1..n-1} (-1)^j * a(j) for n \u003e= 2, a(1) = 1.",
			"comment": [
				"Row sums of triangle A153860. - _Gary W. Adamson_, Jan 03 2009",
				"1 followed by interleaving of A000012 and A010701. - _Klaus Brockhaus_, Jan 04 2009"
			],
			"link": [
				"\u003ca href=\"/index/Rec#order_02\"\u003eIndex entries for linear recurrences with constant coefficients\u003c/a\u003e, signature (0,1)."
			],
			"formula": [
				"a(n)=1 if n is 1 or even; a(n)=3 if n is odd other than 1.",
				"G.f.: x*(1 + x + 2*x^2)/((1+x)*(1-x)). - _Klaus Brockhaus_, Jan 04 2009 and Oct 15 2009"
			],
			"example": [
				"a(1)=1, a(2)=2-a(1)=2-1=1, a(3)=3+a(2)-a(1)=3+1-1=3, a(4)=4-a(3)+a(2)-a(1)=4-3+1-1=1, a(5)=5+1-3+1-1=3, a(6)=6-3+1-3+1-1=1, a(7)=7+1-3+1-3+1-1, etc."
			],
			"program": [
				"(MAGMA) S:=[ 1 ]; for n in [2..105] do Append(~S, n + \u0026+[ (-1)^j*S[j]: j in [1..n-1] ]); end for; S; // _Klaus Brockhaus_, Jan 04 2009"
			],
			"xref": [
				"Equals A010684 with the addition of the leading term of 1",
				"The first sequence of a family that includes A153285 and A153286",
				"Cf. A153860.",
				"Cf. A000012 (all 1's sequence), A010701 (all 3's sequence). - _Klaus Brockhaus_, Jan 04 2009"
			],
			"keyword": "easy,nonn",
			"offset": "1,3",
			"author": "_Walter Carlini_, Dec 23 2008",
			"references": 6,
			"revision": 22,
			"time": "2020-12-03T02:06:27-05:00",
			"created": "2009-01-09T03:00:00-05:00"
		}
	]
}