{
	"greeting": "Greetings from The On-Line Encyclopedia of Integer Sequences! http://oeis.org/",
	"query": "id:A153881",
	"count": 1,
	"start": 0,
	"results": [
		{
			"number": 153881,
			"data": "1,-1,-1,-1,-1,-1,-1,-1,-1,-1,-1,-1,-1,-1,-1,-1,-1,-1,-1,-1,-1,-1,-1,-1,-1,-1,-1,-1,-1,-1,-1,-1,-1,-1,-1,-1,-1,-1,-1,-1,-1,-1,-1,-1,-1,-1,-1,-1,-1,-1,-1,-1,-1,-1,-1,-1,-1,-1,-1,-1,-1,-1,-1,-1,-1,-1,-1,-1,-1,-1",
			"name": "1 followed by -1, -1, -1, ... .",
			"comment": [
				"Dirichlet inverse of A074206."
			],
			"link": [
				"\u003ca href=\"/index/Rec#order_01\"\u003eIndex entries for linear recurrences with constant coefficients\u003c/a\u003e, signature (1)."
			],
			"formula": [
				"a(n) = 2*(binomial(2*(n-1), n-1) mod 2) - 1, with n \u003e= 1. - _Paolo P. Lava_, Jan 22 2009",
				"G.f: x*(1-2*x)/(1-x). - _Mats Granvik_, Mar 09 2009, rewritten _R. J. Mathar_, Mar 31 2010",
				"a(n) = (-1)^A000040(n). - _Juri-Stepan Gerasimov_, Sep 10 2009",
				"G.f.: x / (1 + x / (1 - 2*x)). - _Michael Somos_, Apr 02 2012",
				"From _Wesley Ivan Hurt_, Jun 20 2014: (Start)",
				"a(1) = 1; a(n) = -1, n \u003e 1.",
				"a(n) = 1 - 2*sign(n-1) = 1 - 2*A057427(n-1).",
				"a(n) = (-1)^sign(1-n) = (-1)^A057427(1-n).",
				"a(n) = 2*floor(1/n)-1 = 2*A063524(n)-1. (End)",
				"Dirichlet g.f.: 2 - zeta(s). - _Álvar Ibeas_, Dec 30 2018"
			],
			"maple": [
				"A153881:=n-\u003e`if`(n=1, 1, -1); seq(A153881(n), n=1..100); # _Wesley Ivan Hurt_, Jun 20 2014"
			],
			"mathematica": [
				"Table[1 - 2 Sign[n - 1], {n, 100}] (* _Wesley Ivan Hurt_, Jun 20 2014 *)"
			],
			"program": [
				"(MAGMA) [1 - 2*Sign(n-1) : n in [1..100]]; // _Wesley Ivan Hurt_, Jun 20 2014",
				"(PARI) a(n)=if(n\u003e1,-1,1) \\\\ _Charles R Greathouse IV_, Sep 24 2015"
			],
			"xref": [
				"If prefixed by initial 0, we get A134824."
			],
			"keyword": "sign,easy",
			"offset": "1,1",
			"author": "_Mats Granvik_, Jan 03 2009",
			"ext": [
				"Edited by _Charles R Greathouse IV_, Mar 18 2010"
			],
			"references": 28,
			"revision": 39,
			"time": "2018-12-31T15:50:01-05:00",
			"created": "2009-01-09T03:00:00-05:00"
		}
	]
}