{
	"greeting": "Greetings from The On-Line Encyclopedia of Integer Sequences! http://oeis.org/",
	"query": "id:A154557",
	"count": 1,
	"start": 0,
	"results": [
		{
			"number": 154557,
			"data": "0,1,0,1,1,0,-1,2,1,0,3,-3,3,1,0,-15,12,-6,4,1,0,105,-75,30,-10,5,1,0,-945,630,-225,60,-15,6,1,0,10395,-6615,2205,-525,105,-21,7,1,0,-135135,83160,-26460,5880,-1050,168,-28,8,1,0,2027025,-1216215,374220,-79380",
			"name": "Production array of A122848, read by row.",
			"link": [
				"E. Deutsch, L. Ferrari and S. Rinaldi, \u003ca href=\"http://arxiv.org/abs/math/0702638\"\u003eProduction Matrices and Riordan arrays\u003c/a\u003e, arXiv:math/0702638 [math.CO], 2007.",
				"E. Deutsch, L. Ferrari and S. Rinaldi, \u003ca href=\"https://doi.org/10.1016/j.aam.2004.05.002\"\u003eProduction Matrices\u003c/a\u003e, Advances in Applied Mathematics, 34 (2005) pp. 101-122."
			],
			"example": [
				"Array starts",
				"  0, 1,",
				"  0, 1, 1,",
				"  0, -1, 2, 1,",
				"  0, 3, -3, 3, 1,",
				"  0, -15, 12, -6, 4, 1,",
				"  0, 105, -75, 30, -10, 5, 1,",
				"  0, -945, 630, -225, 60, -15, 6, 1,",
				"  0, 10395, -6615, 2205, -525, 105, -21, 7, 1,",
				"  0, -135135, 83160, -26460, 5880, -1050, 168, -28, 8, 1",
				"  0, 2027025, -1216215, 374220, -79380, 13230, -1890, 252, -36, 9, 1",
				"Square of this array is",
				"  0, 1, 1,",
				"  0, 0, 3, 1,",
				"  0, 0, 0, 5, 1,",
				"  0, 0, 0, 0, 7, 1,",
				"  0, 0, 0, 0, 0, 9, 1,",
				"  0, 0, 0, 0, 0, 0, 11, 1,",
				"  0, 0, 0, 0, 0, 0, 0, 13, 1,",
				"  0, 0, 0, 0, 0, 0, 0, 0, 15, 1,",
				"  0, 0, 0, 0, 0, 0, 0, 0, 0, 17, 1"
			],
			"xref": [
				"Cf. A113278, A122848, A132382, A001147."
			],
			"keyword": "sign,tabf",
			"offset": "0,8",
			"author": "_Paul Barry_, Jan 11 2009",
			"references": 0,
			"revision": 11,
			"time": "2019-04-02T05:43:53-04:00",
			"created": "2009-02-27T03:00:00-05:00"
		}
	]
}