{
	"greeting": "Greetings from The On-Line Encyclopedia of Integer Sequences! http://oeis.org/",
	"query": "id:A154552",
	"count": 1,
	"start": 0,
	"results": [
		{
			"number": 154552,
			"data": "3,5,29,509,997,1399,1627,3307,4217,5477,5689,6569,6599,7369,7393,7841,8191,8861,10067,11311,11801,13859,14401,15859,16987,17851,18211,20593,21101,24169,25013,25339,25621,26209,28019,28409,28439,32009,35677",
			"name": "Greater of two consecutive primes, p \u003c q, such that both p*q+p-q and p*q-p+q are prime numbers.",
			"comment": [
				"3*5-2=13; 3*5+2=17, 23*29-6=661; 23*29+6=673..."
			],
			"link": [
				"Robert Israel, \u003ca href=\"/A154552/b154552.txt\"\u003eTable of n, a(n) for n = 1..10000\u003c/a\u003e"
			],
			"maple": [
				"p:= 1: q:= 2: Res:= NULL:",
				"while q \u003c 100000 do",
				"  p:= q; q:= nextprime(q);",
				"  if isprime(p*q+p-q) and isprime(p*q+q-p) then",
				"    Res:= Res, q;",
				"  fi",
				"od:",
				"Res; # _Robert Israel_, May 10 2017"
			],
			"mathematica": [
				"lst={};Do[pp=Prime[n-1];p=Prime[n];d=p-pp;If[PrimeQ[pp*p-d]\u0026\u0026PrimeQ[pp*p+d],AppendTo[lst,p]],{n,2,8!}];lst",
				"pqpQ[{p_,q_}]:=Module[{pq=p*q},And@@PrimeQ[{pq+p-q,pq-p+q}]]; Transpose[ Select[Partition[Prime[Range[4000]],2,1],pqpQ]][[2]] (* _Harvey P. Dale_, May 20 2012 *)"
			],
			"program": [
				"(PARI) is(n)=my(p); isprime(n) \u0026\u0026 isprime((p=precprime(n-1))*n+p-n) \u0026\u0026 isprime(p*n-p+n) \\\\ _Charles R Greathouse IV_, May 10 2017"
			],
			"xref": [
				"Cf. A138111, A138170, A154550, A154551."
			],
			"keyword": "nonn",
			"offset": "1,1",
			"author": "_Vladimir Joseph Stephan Orlovsky_, Jan 11 2009",
			"ext": [
				"Edited by _Omar E. Pol_, Jan 12 2009"
			],
			"references": 2,
			"revision": 15,
			"time": "2019-11-24T09:58:47-05:00",
			"created": "2009-02-27T03:00:00-05:00"
		}
	]
}