{
	"greeting": "Greetings from The On-Line Encyclopedia of Integer Sequences! http://oeis.org/",
	"query": "id:A154549",
	"count": 1,
	"start": 0,
	"results": [
		{
			"number": 154549,
			"data": "111111,222222,333333,444444,555555,666666,777777,888888,999999,1111110,1222221,1333332,1444443,1555554,1666665,1777776,1888887,1999998,2111109,2222220,2333331,2444442,2555553,2666664,2777775,2888886",
			"name": "a(n) = 111111*n.",
			"comment": [
				"This sequence was described by Magnitsky, Leontiy Filippovich (1669-1739), author of \"The Russian Mathematical Encyclopedia\" (1703) and other books. See the Kvant link. Magnitsky wrote it as a(n) = 143n*777. - _Oleg Zyakun_, Feb 28 2009"
			],
			"link": [
				"Vincenzo Librandi, \u003ca href=\"/A154549/b154549.txt\"\u003eTable of n, a(n) for n = 1..1000\u003c/a\u003e",
				"A. Zhukov, \u003ca href=\"http://kvant.mccme.ru/pdf/1998/06/kv0698kaleid.pdf\"\u003eWonderful sequences.\u003c/a\u003e Kvant 6, 1998. (in Russian)",
				"\u003ca href=\"/index/Rec#order_02\"\u003eIndex entries for linear recurrences with constant coefficients\u003c/a\u003e, signature (2,-1)."
			],
			"formula": [
				"G.f.: 111111*x/(1-x)^2. - _Vincenzo Librandi_, Feb 29 2012"
			],
			"mathematica": [
				"LinearRecurrence[{2, -1}, {111111, 222222}, 20] (* _Vincenzo Librandi_, Feb 28 2012 *)",
				"111111Range[30] (* _Harvey P. Dale_, Aug 11 2016 *)"
			],
			"program": [
				"(PARI) a(n)=111111*n \\\\ _Charles R Greathouse IV_, Jan 11 2012"
			],
			"keyword": "nonn,easy",
			"offset": "1,1",
			"author": "_Vincenzo Librandi_, Jan 11 2009",
			"references": 2,
			"revision": 34,
			"time": "2018-08-31T15:57:58-04:00",
			"created": "2009-02-27T03:00:00-05:00"
		}
	]
}