{
	"greeting": "Greetings from The On-Line Encyclopedia of Integer Sequences! http://oeis.org/",
	"query": "id:A154570",
	"count": 1,
	"start": 0,
	"results": [
		{
			"number": 154570,
			"data": "1,3,-4,2,-6,-2,-14,-18,-46,-82,-174,-338,-686,-1362,-2734,-5458,-10926,-21842,-43694,-87378,-174766,-349522,-699054,-1398098,-2796206,-5592402,-11184814,-22369618,-44739246,-89478482,-178956974,-357913938,-715827886",
			"name": "The main diagonal of the successive differences of A154127.",
			"formula": [
				"a(n) = a(n-1) + 2*a(n-2), n\u003e0.",
				"a(n+2) = 2*(-1)^(n+1)*A140966(n).",
				"a(n+5) = -2*A083582(n).",
				"a(2n+1) = 3 - A078008(2n) = 3 - A047849(n).",
				"a(2n+2) = -4 - A078008(2n+1) = -4 - A020988(n).",
				"G.f.: (1+2*x-9*x^2)/((1+x)*(1-2*x)). - _R. J. Mathar_, Feb 25 2009",
				"a(n)=(1/3)*(10*(-1)^n - 2^n)+(9/2)*(C(2*n,n) mod 2), with n\u003e=0. - _Paolo P. Lava_, Mar 02 2009"
			],
			"mathematica": [
				"f[n_]:=2/(n+1);x=6;Table[x=f[x];Numerator[x],{n,0,5!}](*Absolute Values*) (* _Vladimir Joseph Stephan Orlovsky_, Mar 12 2010 *)"
			],
			"keyword": "sign",
			"offset": "0,2",
			"author": "_Paul Curtz_, Jan 12 2009",
			"ext": [
				"Edited and extended by _R. J. Mathar_, Feb 25 2009"
			],
			"references": 4,
			"revision": 11,
			"time": "2015-02-10T04:02:32-05:00",
			"created": "2009-02-27T03:00:00-05:00"
		}
	]
}