{
	"greeting": "Greetings from The On-Line Encyclopedia of Integer Sequences! http://oeis.org/",
	"query": "id:A154787",
	"count": 1,
	"start": 0,
	"results": [
		{
			"number": 154787,
			"data": "0,0,0,4,5,6,7,16,18,20,22,36,26,28,45,32,51,72,19,60,84,66,69,120,100,78,135,84,87,180,62,160,198,68,175,216,148,190,273,160,164,336,172,176,405,184,188,336,147,300,408,260,265,432,330,392,570",
			"name": "a(n) = A061357(n)*n = A154786(n)/2.",
			"xref": [
				"Cf. A061357, A154720, A154724, A154725, A154726, A154786."
			],
			"keyword": "nonn",
			"offset": "1,4",
			"author": "_Omar E. Pol_, Jan 20 2009",
			"references": 1,
			"revision": 2,
			"time": "2012-03-30T17:33:59-04:00",
			"created": "2009-02-27T03:00:00-05:00"
		}
	]
}