{
	"greeting": "Greetings from The On-Line Encyclopedia of Integer Sequences! http://oeis.org/",
	"query": "id:A154689",
	"count": 1,
	"start": 0,
	"results": [
		{
			"number": 154689,
			"data": "5,7,10,13,14,18,19,26,31,38,39,43,50,55,61,62,69,72,73,78,84,86,91,95,96,98,103,108,109,110,115,119,122,123,129,133,136,138,139,145,146,151,153,159,181,182,187,190,193,199,205,206,209,213,217,218,219,221,229",
			"name": "Numbers n such that sigma_0(n-sigma_0(n))= sigma_0(n).",
			"comment": [
				"If n is a term, then n - d(n) is in A175304. Indeed, if N = n - d(n), then d(N) = d(n). Now d(N+d(N)) = d(N+d(n)) = d(n) = d(N). - _Vladimir Shevelev_, Jul 29 2015",
				"Numbers n such that A000005(n-A000005(n)) = A000005(n). - Typo fixed by _Ivan N. Ianakiev_, Oct 08 2016"
			],
			"link": [
				"Harvey P. Dale, \u003ca href=\"/A154689/b154689.txt\"\u003eTable of n, a(n) for n = 1..1000\u003c/a\u003e",
				"J.-M. de Koninck, F. Luca, \u003ca href=\"http://www.cs.uwaterloo.ca/journals/JIS/VOL11/DeKoninck/dekoninck47.html\"\u003ePositive integers n such that sigma(phi(n))=sigma(n)\u003c/a\u003e, J. Int. Seq. vol 11 (2008), #08.1.5. [From _R. J. Mathar_, Jan 15 2009]"
			],
			"maple": [
				"A000005 := proc(n) numtheory[tau](n) ; end: for n from 1 to 1000 do a05 := A000005(n) ; if A000005(n-a05) = a05 then printf(\"%d,\",n) ; fi; od: # _R. J. Mathar_, Jan 15 2009"
			],
			"mathematica": [
				"snQ[n_]:=Module[{nd=DivisorSigma[0,n]},DivisorSigma[0,n-nd]==nd]; Select[ Range[300],snQ] (* _Harvey P. Dale_, Nov 10 2011 *)"
			],
			"program": [
				"(PARI) is(n)=my(d=numdiv(n));numdiv(n-d)==d \\\\ _Charles R Greathouse IV_, Feb 04 2013"
			],
			"xref": [
				"Cf. A000005, A006512 (a subsequence)."
			],
			"keyword": "easy,nonn",
			"offset": "1,1",
			"author": "_Ctibor O. Zizka_, Jan 14 2009",
			"ext": [
				"Extended by _R. J. Mathar_, Jan 15 2009"
			],
			"references": 2,
			"revision": 27,
			"time": "2016-10-14T08:12:04-04:00",
			"created": "2009-02-27T03:00:00-05:00"
		}
	]
}