{
	"greeting": "Greetings from The On-Line Encyclopedia of Integer Sequences! http://oeis.org/",
	"query": "id:A154692",
	"count": 1,
	"start": 0,
	"results": [
		{
			"number": 154692,
			"data": "2,5,5,13,24,13,35,90,90,35,97,312,432,312,97,275,1050,1800,1800,1050,275,793,3492,7020,8640,7020,3492,793,2315,11550,26460,37800,37800,26460,11550,2315,6817,38064,97776,157248,181440,157248,97776,38064",
			"name": "Triangle T(n,m) = (2^(n-m)*3^m + 2^m*3^(n-m))*binomial(n, m) read by rows, 0 \u003c= m \u003c= n.",
			"comment": [
				"Row sums are A020729."
			],
			"link": [
				"A. Lakhtakia, R. Messier, V. K. Varadan, V. V. Varadan, \u003ca href=\"http://dx.doi.org/10.1103/PhysRevA.34.2501\"\u003eUse of combinatorial algebra for diffusion on fractals\u003c/a\u003e, Physical Review A, volume 34, Number 3 (1986) p. 2502, Fig. 3."
			],
			"formula": [
				"T(n,m) = A013620(n,m) + A013620(m,n). - _R. J. Mathar_, Oct 24 2011"
			],
			"example": [
				"Triangle begins",
				"     2;",
				"     5,     5;",
				"    13,    24,    13;",
				"    35,    90,    90,     35;",
				"    97,   312,   432,    312,     97;",
				"   275,  1050,  1800,   1800,   1050,    275;",
				"   793,  3492,  7020,   8640,   7020,   3492,   793;",
				"  2315, 11550, 26460,  37800,  37800,  26460, 11550,  2315;",
				"  6817, 38064, 97776, 157248, 181440, 157248, 97776, 38064, 6817;"
			],
			"maple": [
				"A154692 := proc(n,m)",
				"        (2^(n-m)*3^m+2^m*3^(n-m))*binomial(n,m) ;",
				"end proc:",
				"seq(seq(A154692(n,m),m=0..n),n=0..10) ; # _R. J. Mathar_, Oct 24 2011"
			],
			"mathematica": [
				"Clear[t, p, q, n, m]; p = 2; q = 3;",
				"t[n_, m_] = (p^(n - m)*q^m + p^m*q^(n - m))*Binomial[n, m];",
				"Table[Table[t[n, m], {m, 0, n}], {n, 0, 10}];",
				"Flatten[%]"
			],
			"keyword": "nonn,tabl,easy",
			"offset": "0,1",
			"author": "_Roger L. Bagula_ and _Gary W. Adamson_, Jan 14 2009",
			"references": 6,
			"revision": 17,
			"time": "2019-05-09T01:08:50-04:00",
			"created": "2009-02-27T03:00:00-05:00"
		}
	]
}