{
	"greeting": "Greetings from The On-Line Encyclopedia of Integer Sequences! http://oeis.org/",
	"query": "id:A154691",
	"count": 1,
	"start": 0,
	"results": [
		{
			"number": 154691,
			"data": "1,3,7,13,23,39,65,107,175,285,463,751,1217,1971,3191,5165,8359,13527,21889,35419,57311,92733,150047,242783,392833,635619,1028455,1664077,2692535,4356615,7049153,11405771,18454927,29860701,48315631,78176335",
			"name": "Expansion of (1+x+x^2) / ((1-x-x^2)*(1-x)).",
			"link": [
				"Vincenzo Librandi, \u003ca href=\"/A154691/b154691.txt\"\u003eTable of n, a(n) for n = 0..1000\u003c/a\u003e",
				"\u003ca href=\"/index/Rec#order_03\"\u003eIndex entries for linear recurrences with constant coefficients\u003c/a\u003e, signature (2,0,-1)."
			],
			"formula": [
				"a(n+1) - a(n) = A006355(n+3) = A055389(n+3).",
				"a(n) = A066629(n-1) + A066629(n).",
				"a(n) = A006355(n+4) - 3 = A078642(n+1) - 3.",
				"a(n+1) = a(n) + 2*A000045(n+2). - _Reinhard Zumkeller_, Nov 17 2013",
				"From _Colin Barker_, Feb 01 2017: (Start)",
				"a(n) = -3 + (2^(1-n)*((1-r)^n*(-2+r) + (1+r)^n*(2+r))) / r where r=sqrt(5).",
				"a(n) = 2*a(n-1) - a(n-3) for n\u003e2.",
				"(End)",
				"a(n) = 2*Fibonacci(n+3) - 3. - _Greg Dresden_, Oct 10 2020"
			],
			"maple": [
				"A154691 := proc(n) coeftayl( (1+x+x^2)/(1-x-x^2)/(1-x),x=0,n) ; end proc:"
			],
			"mathematica": [
				"Fibonacci[Range[3, 5! ]]*2-3 (* _Vladimir Joseph Stephan Orlovsky_, Mar 19 2010 *)",
				"CoefficientList[Series[(1 + x + x^2)/((1 - x - x^2)(1 - x)), {x, 0, 40}], x] (* _Vincenzo Librandi_, Dec 18 2012 *)"
			],
			"program": [
				"(Haskell)",
				"a154691 n = a154691_list !! n",
				"a154691_list = 1 : zipWith (+)",
				"                   a154691_list (drop 2 $ map (* 2) a000045_list)",
				"-- _Reinhard Zumkeller_, Nov 17 2013",
				"(PARI) Vec((1+x+x^2) / ((1-x-x^2)*(1-x)) + O(x^60)) \\\\ _Colin Barker_, Feb 01 2017"
			],
			"xref": [
				"Cf. A000045, A006355, A055389, A066629, A078642.",
				"Cf. A001595, A166863."
			],
			"keyword": "easy,nonn",
			"offset": "0,2",
			"author": "_R. J. Mathar_, Jan 14 2009",
			"references": 5,
			"revision": 27,
			"time": "2020-10-11T05:55:29-04:00",
			"created": "2009-02-27T03:00:00-05:00"
		}
	]
}