{
	"greeting": "Greetings from The On-Line Encyclopedia of Integer Sequences! http://oeis.org/",
	"query": "id:A154998",
	"count": 1,
	"start": 0,
	"results": [
		{
			"number": 154998,
			"data": "3,2001907169",
			"name": "Primes p such that p^2 divides A048861((p-1)/2).",
			"comment": [
				"No other terms below 10^11."
			],
			"formula": [
				"Elements of A125854 congruent to 1 or 3 modulo 8, i.e., primes p such that p == 1 or 3 (mod 8) and 2^(p-1) == 1+p (mod p^2)."
			],
			"program": [
				"(PARI) { forprime(p=3,10^11, if(Mod((p-1)/2,p^2)^((p-1)/2)==1, print(p);)) }"
			],
			"xref": [
				"A048861,A121999,A125854"
			],
			"keyword": "bref,hard,more,nonn",
			"offset": "1,1",
			"author": "_Max Alekseyev_, Jan 18 2009",
			"ext": [
				"Edited by _Max Alekseyev_, Oct 13 2009"
			],
			"references": 1,
			"revision": 3,
			"time": "2012-03-30T17:27:02-04:00",
			"created": "2009-02-27T03:00:00-05:00"
		}
	]
}