{
	"greeting": "Greetings from The On-Line Encyclopedia of Integer Sequences! http://oeis.org/",
	"query": "id:A154248",
	"count": 1,
	"start": 0,
	"results": [
		{
			"number": 154248,
			"data": "1,14,154,1568,15484,150920,1462552,14137088,136492048,1317130976,12707167648,122580846080,1182430803904,11405635719296,110016806306176,1061198588076032,10236074368205056,98734700455677440",
			"name": "a(n) = ( (7 + sqrt(7))^n - (7 - sqrt(7))^n )/(2*sqrt(7)).",
			"comment": [
				"Lim_{n -\u003e infinity} a(n)/a(n-1) = 7 + sqrt(7) = 9.6457513110...."
			],
			"link": [
				"G. C. Greubel, \u003ca href=\"/A154248/b154248.txt\"\u003eTable of n, a(n) for n = 1..750\u003c/a\u003e",
				"\u003ca href=\"/index/Rec#order_02\"\u003eIndex entries for linear recurrences with constant coefficients\u003c/a\u003e, signature (14,-42)."
			],
			"formula": [
				"From _Philippe Deléham_, Jan 06 2009: (Start)",
				"a(n) = 14*a(n-1) - 42*a(n-2) for n\u003e1, with a(0)=0, a(1)=1.",
				"G.f.: x/(1 - 14x + 42x^2). (End)",
				"E.g.f.: (1/sqrt(7))*exp(7*x)*sinh(sqrt(7)*x). - _G. C. Greubel_, Sep 08 2016"
			],
			"maple": [
				"a:= n-\u003e (\u003c\u003c0|1\u003e, \u003c-42|14\u003e\u003e^n)[1, 2]:",
				"seq(a(n), n=0..25);  # _Alois P. Heinz_, Dec 22 2013"
			],
			"mathematica": [
				"Join[{a=1,b=14},Table[c=14*b-42*a;a=b;b=c,{n,60}]] (* _Vladimir Joseph Stephan Orlovsky_, Feb 01 2011 *)",
				"LinearRecurrence[{14,-42},{1,14},25] (* or *) Table[( (7 + sqrt(7))^n - (7 - sqrt(7))^n )/(2*sqrt(7)), {n,1,25}] (* _G. C. Greubel_, Sep 08 2016 *)"
			],
			"program": [
				"(MAGMA) Z\u003cx\u003e:=PolynomialRing(Integers()); N\u003cr\u003e:=NumberField(x^2-7); S:=[ ((7+r)^n-(7-r)^n)/(2*r): n in [1..18] ]; [ Integers()!S[j]: j in [1..#S] ]; // _Klaus Brockhaus_, Jan 07 2009"
			],
			"xref": [
				"Cf. A010465 (decimal expansion of square root of 7)."
			],
			"keyword": "nonn,easy",
			"offset": "1,2",
			"author": "Al Hakanson (hawkuu(AT)gmail.com), Jan 05 2009",
			"ext": [
				"Extended beyond a(7) by _Klaus Brockhaus_, Jan 07 2009",
				"Edited by _Klaus Brockhaus_, Oct 06 2009"
			],
			"references": 1,
			"revision": 20,
			"time": "2017-01-02T01:57:39-05:00",
			"created": "2009-01-09T03:00:00-05:00"
		}
	]
}