{
	"greeting": "Greetings from The On-Line Encyclopedia of Integer Sequences! http://oeis.org/",
	"query": "id:A154430",
	"count": 1,
	"start": 0,
	"results": [
		{
			"number": 154430,
			"data": "105,165,195,255,273,285,345,357,385,429,455,555,561,595,609,615,627,645,665,705,715,759,777,795,805,897,935,957,969,987,1001,1005,1015,1023,1045,1065,1085,1095,1105,1131,1155,1185,1221,1235,1239,1245,1265",
			"name": "Odd squarefree numbers n such that the cyclotomic polynomial Phi(n,x) has height \u003e 1.",
			"comment": [
				"The height of a polynomial is the maximum of the absolute value of its coefficients. Different from A118678, which excludes terms that are a multiple of smaller terms."
			],
			"link": [
				"T. D. Noe, \u003ca href=\"/A154430/b154430.txt\"\u003eTable of n, a(n) for n = 1..1000\u003c/a\u003e"
			],
			"mathematica": [
				"Select[Range[2000], OddQ[#] \u0026\u0026 SquareFreeQ[#] \u0026\u0026 Max[ Abs[ CoefficientList[ Cyclotomic[#, x], x]]] \u003e 1\u0026] (* _Jean-François Alcover_, Nov 14 2016 *)"
			],
			"program": [
				"(PARI) is(n)=issquarefree(n) \u0026\u0026 n%2 \u0026\u0026 vecmax(abs(Vec(polcyclo(n))))\u003e1 \\\\ _Charles R Greathouse IV_, Nov 05 2017"
			],
			"xref": [
				"Cf. A013590, A117318, A117223, A152940, A152941, A152942, A152943, A152955."
			],
			"keyword": "nonn",
			"offset": "1,1",
			"author": "_T. D. Noe_, Jan 09 2009",
			"references": 8,
			"revision": 9,
			"time": "2017-11-05T13:20:52-05:00",
			"created": "2009-02-27T03:00:00-05:00"
		}
	]
}