{
	"greeting": "Greetings from The On-Line Encyclopedia of Integer Sequences! http://oeis.org/",
	"query": "id:A154834",
	"count": 1,
	"start": 0,
	"results": [
		{
			"number": 154834,
			"data": "3,13,31,139,181,211,229,271,523,619,751,853,1063,1483,1699,2791,3361,3463,3541,3769,4051,4201,4801,4861,4903,5521,5689,5701,6163,6211,6763,6823,6949,7621,8059,8269,8389,8419,8563,8689,8713,9001,9103,9319,10303",
			"name": "Primes p such that p^5-2 is also prime.",
			"comment": [
				"Primes in A154833.",
				"Solutions of the equation n' + (n^5-2)' = 2, where n' is the arithmetic derivative of n. [_Paolo P. Lava_, Nov 09 2012]"
			],
			"link": [
				"Harvey P. Dale, \u003ca href=\"/A154834/b154834.txt\"\u003eTable of n, a(n) for n = 1..1000\u003c/a\u003e"
			],
			"example": [
				"3^5-2=241 prime, 13^5-2=371291 prime,..."
			],
			"mathematica": [
				"lst={};Do[p=n^5-2;If[PrimeQ[p],If[PrimeQ[n],AppendTo[lst,n]]],{n,0,7!}];lst",
				"Select[Prime[Range[1300]],PrimeQ[#^5-2]\u0026] (* _Harvey P. Dale_, Feb 09 2019 *)"
			],
			"xref": [
				"Cf. A028870, A038599, A154831, A154832, A154833."
			],
			"keyword": "nonn",
			"offset": "1,1",
			"author": "_Vladimir Joseph Stephan Orlovsky_, Jan 15 2009",
			"references": 9,
			"revision": 12,
			"time": "2019-02-09T15:05:00-05:00",
			"created": "2009-02-27T03:00:00-05:00"
		}
	]
}