{
	"greeting": "Greetings from The On-Line Encyclopedia of Integer Sequences! http://oeis.org/",
	"query": "id:A154527",
	"count": 1,
	"start": 0,
	"results": [
		{
			"number": 154527,
			"data": "8,4,1,6,7,1,8,8,5,7,9,3,3,5,9,5,1,4,1,6,4,1,6,4,4,8,1,1,4,4,9,1,3,0,6,6,6,0,6,6,9,2,9,5,6,9,2,8,4,7,3,1,9,0,5,6,7,4,7,1,2,7,3,5,5,5,2,9,3,1,3,1,7,8,2,1,7,1,8,1,5,6,9,0,5,5,5,4,8,6,8,3,4,5,6,2,8,0,7",
			"name": "Decimal expansion of log_23 (14).",
			"link": [
				"Vincenzo Librandi, \u003ca href=\"/A154527/b154527.txt\"\u003eTable of n, a(n) for n = 0..1000\u003c/a\u003e"
			],
			"example": [
				".84167188579335951416416448114491306660669295692847319056747..."
			],
			"mathematica": [
				"RealDigits[Log[23, 14], 10, 100][[1]] (* _Vincenzo Librandi_, Sep 09 2013 *)"
			],
			"xref": [
				"Cf. decimal expansion of log_23(m): A152882 (m=2), A153099 (m=3), A153163 (m=4), A153457 (m=5), A153613 (m=6), A153735 (m=7), A154006 (m=8), A154102 (m=9),  A154173 (m=10), A154194 (m=11), A154215 (m=12), A154460 (m=13), this sequence, A154719 (m=15), A154845 (m=16), A154903 (m=17), A154993 (m=18), A155166 (m=19), A155534 (m=20), A155691 (m=21), A155791 (m=22), A156030 (m=24)."
			],
			"keyword": "nonn,cons",
			"offset": "0,1",
			"author": "_N. J. A. Sloane_, Oct 30 2009",
			"references": 22,
			"revision": 7,
			"time": "2013-09-09T14:41:03-04:00",
			"created": "2009-02-27T03:00:00-05:00"
		}
	]
}