{
	"greeting": "Greetings from The On-Line Encyclopedia of Integer Sequences! http://oeis.org/",
	"query": "id:A154460",
	"count": 1,
	"start": 0,
	"results": [
		{
			"number": 154460,
			"data": "8,1,8,0,3,6,7,0,5,1,6,4,6,6,1,9,5,5,6,5,3,1,9,1,0,0,9,9,8,5,3,5,5,3,4,3,1,6,6,3,9,6,7,5,8,6,6,6,5,0,9,5,7,4,3,1,6,3,5,9,5,0,1,1,2,1,8,1,3,0,4,3,6,6,2,1,5,3,9,2,9,2,2,9,8,3,7,4,3,5,4,9,2,6,8,4,5,6,4",
			"name": "Decimal expansion of log_23 (13).",
			"link": [
				"Vincenzo Librandi, \u003ca href=\"/A154460/b154460.txt\"\u003eTable of n, a(n) for n = 0..1000\u003c/a\u003e"
			],
			"example": [
				".81803670516466195565319100998535534316639675866650957431635..."
			],
			"mathematica": [
				"RealDigits[Log[23, 13], 10, 100][[1]] (* _Vincenzo Librandi_, Sep 09 2013 *)"
			],
			"xref": [
				"Cf. decimal expansion of log_23(m): A152882 (m=2), A153099 (m=3), A153163 (m=4), A153457 (m=5), A153613 (m=6), A153735 (m=7), A154006 (m=8), A154102 (m=9),  A154173 (m=10), A154194 (m=11), A154215 (m=12), this sequence, A154527 (m=14), A154719 (m=15), A154845 (m=16), A154903 (m=17), A154993 (m=18), A155166 (m=19), A155534 (m=20), A155691 (m=21), A155791 (m=22), A156030 (m=24)."
			],
			"keyword": "nonn,cons",
			"offset": "0,1",
			"author": "_N. J. A. Sloane_, Oct 30 2009",
			"references": 22,
			"revision": 6,
			"time": "2013-09-09T14:41:21-04:00",
			"created": "2010-06-01T03:00:00-04:00"
		}
	]
}