{
	"greeting": "Greetings from The On-Line Encyclopedia of Integer Sequences! http://oeis.org/",
	"query": "id:A154321",
	"count": 1,
	"start": 0,
	"results": [
		{
			"number": 154321,
			"data": "3,5,7,13,23,167,233,277,283,383,547,607,727,733,823,1087,1427,1597,1823,2297,3253,3313,3533,3593,3863,4027,4133,4363,6257,6737,7477,7577,7907,9043,9227,11317,11497,11833,11867,12373,12503,12637,12743,13367",
			"name": "Primes p such that p, p^2 + 2p - 4 and p^2 + 8p - 4 are prime.",
			"link": [
				"Vincenzo Librandi, \u003ca href=\"/A154321/b154321.txt\"\u003eTable of n, a(n) for n = 1..1000\u003c/a\u003e"
			],
			"example": [
				"For p = 3, p^2 + 2p - 4 = 11, p^2 + 8p - 4 = 29;",
				"for p = 7, p^2 + 2p - 4 = 59, p^2 + 8p - 4 = 101;",
				"for p = 607, p^2 + 2p - 4 = 369659, p^2 + 8p - 4 = 373301."
			],
			"maple": [
				"a:= proc(n) if isprime(n) and isprime(n^2+2*n-4) and isprime(n^2+8*n-4) then n end if end proc: seq(a(n), n = 2 .. 15000); # _Emeric Deutsch_, Jan 20 2009"
			],
			"mathematica": [
				"Select[Prime[Range[7000]], And@@PrimeQ/@{#^2 + 2 # - 4, #^2 + 8 # - 4}\u0026] (* _Vincenzo Librandi_, Apr 18 2013 *)",
				"Select[Prime[Range[2000]],AllTrue[#^2-4+{2#,8#},PrimeQ]\u0026] (* The program uses the AllTrue function from Mathematica version 10 *) (* _Harvey P. Dale_, Apr 29 2018 *)"
			],
			"program": [
				"(MAGMA) [p: p in PrimesUpTo(13500) | IsPrime(p^2+2*p-4) and IsPrime(p^2+8*p-4)]; // _Vincenzo Librandi_, Apr 18 2013"
			],
			"xref": [
				"Cf. A154319, A154320."
			],
			"keyword": "nonn,easy",
			"offset": "1,1",
			"author": "_Vincenzo Librandi_, Jan 07 2009",
			"ext": [
				"Corrected and extended by _Emeric Deutsch_, Jan 20 2009"
			],
			"references": 3,
			"revision": 17,
			"time": "2019-01-12T20:13:06-05:00",
			"created": "2009-02-27T03:00:00-05:00"
		}
	]
}