{
	"greeting": "Greetings from The On-Line Encyclopedia of Integer Sequences! http://oeis.org/",
	"query": "id:A154738",
	"count": 1,
	"start": 0,
	"results": [
		{
			"number": 154738,
			"data": "1,6,3,0,0,0,0,0,0,0,0,0,0,0,0,0,0,0,0,0,0,0,0,0,0,0,0,0,0,0,0,2,3,2,1,6,7,7,7,9,4,2,4,5,3,3,4,1,0,6,7,9,7,8,4,9,3,0,3,6,4,7,9,7,9,5,9,9,5,5,2,6,0,3,9,5,8,8,8,2,2,4,8,2,5,7,2,5,6,5,5,1,3,5,3,1,3,6,7,2,0,5,3,4,3",
			"name": "Decimal expansion of (log(640320^3 + 744)/Pi)^2.",
			"comment": [
				"A well-known real number that is very close to the integer 163."
			],
			"mathematica": [
				"RealDigits[(Log[640320^3+744]/Pi)^2,10,120][[1]] (* _Harvey P. Dale_, Jan 06 2012 *)"
			],
			"keyword": "nonn,cons",
			"offset": "3,2",
			"author": "Kousaka Hideaki (kousaka(AT)d6.dion.ne.jp), Jan 14 2009",
			"ext": [
				"More terms from _Klaus Brockhaus_, Jan 15 2009"
			],
			"references": 0,
			"revision": 10,
			"time": "2019-05-18T18:02:49-04:00",
			"created": "2009-02-27T03:00:00-05:00"
		}
	]
}