{
	"greeting": "Greetings from The On-Line Encyclopedia of Integer Sequences! http://oeis.org/",
	"query": "id:A155219",
	"count": 1,
	"start": 0,
	"results": [
		{
			"number": 155219,
			"data": "1,4,10,45,176,1305,10079,117352,1561149,29980210,704867467,22571926686,912535595499,49246939684046,3416075823339525,312263317852780140",
			"name": "Number of ways to place zero or more nonadjacent 0,0 1,0 2,0 polyhexes in any orientation on a planar nXnXn triangular grid.",
			"example": [
				"Maximal 13 X 13 X 13 example",
				"...............1",
				"..............1.0",
				".............1.0.1",
				"............0.0.0.1",
				"...........1.1.1.0.1",
				"..........0.0.0.0.0.0",
				".........1.0.1.1.1.0.1",
				"........1.0.0.0.0.0.1.0",
				".......1.0.1.1.1.0.1.0.1",
				"......0.0.0.0.0.0.0.0.0.1",
				".....1.0.1.1.1.0.1.1.1.0.1",
				"....1.0.0.0.0.0.0.0.0.0.0.0",
				"...1.0.1.1.1.0.1.1.1.0.1.1.1"
			],
			"keyword": "nonn,more,hard",
			"offset": "2,2",
			"author": "_R. H. Hardin_ Jan 22 2009",
			"references": 1,
			"revision": 5,
			"time": "2020-05-19T02:19:54-04:00",
			"created": "2009-02-27T03:00:00-05:00"
		}
	]
}