{
	"greeting": "Greetings from The On-Line Encyclopedia of Integer Sequences! http://oeis.org/",
	"query": "id:A155084",
	"count": 1,
	"start": 0,
	"results": [
		{
			"number": 155084,
			"data": "1,2,8,32,132,552,2328,9872,42020,179336,766888,3284272,14081224,60426576,259490736,1114965792,4792924356,20611174920,88662405768,381494338032,1641837542232,7067257125744,30425523536592",
			"name": "A Catalan transform of [x^n](1/(1-2x-2x^2)) (A002605).",
			"comment": [
				"Hankel transform is 4^n."
			],
			"link": [
				"Paul Barry and Aoife Hennessy, \u003ca href=\"https://cs.uwaterloo.ca/journals/JIS/VOL15/Barry2/barry190r.html\"\u003eGeneralized Narayana Polynomials, Riordan Arrays, and Lattice Paths\u003c/a\u003e, Journal of Integer Sequences, Vol. 15, 2012, #12.4.8. [_N. J. A. Sloane_, Oct 08 2012]"
			],
			"formula": [
				"G.f.: 1/(1-2x*c(x)-2(x*c(x))^2), where c(x) is the g.f. of A000108.",
				"G.f.: 1/(1-2x-4x^2/(1-2x-x^2/(1-2x-x^2/(1-2x-x^2/(1-..... (continued fraction).",
				"a(n) = Sum_{k=0..n} (k/(2n-k))*binomial(2n-k, n-k)*A002605(k), a(0) = 1.",
				"a(n) = Sum_{0\u003c=k\u003c=n} A039599(n,k)*A108411(k). [_Philippe Deléham_, Nov 15 2009]",
				"Apparently 3*n*a(n) +6*(3-4*n)*a(n-1) +4*(11*n-18)*a(n-2) +8*(2*n-3)*a(n-3)=0. - _R. J. Mathar_, Oct 25 2012"
			],
			"xref": [
				"Cf. A000108, A002605, A101850, A039599, A108411."
			],
			"keyword": "easy,nonn",
			"offset": "0,2",
			"author": "_Paul Barry_, Jan 19 2009",
			"references": 1,
			"revision": 18,
			"time": "2019-01-25T03:26:08-05:00",
			"created": "2009-02-27T03:00:00-05:00"
		}
	]
}