{
	"greeting": "Greetings from The On-Line Encyclopedia of Integer Sequences! http://oeis.org/",
	"query": "id:A155859",
	"count": 1,
	"start": 0,
	"results": [
		{
			"number": 155859,
			"data": "4,38,377,3766,37655,376544,3765433,37654322,376543211,3765432100,37654320989,376543209878,3765432098767,37654320987656,376543209876545,3765432098765434,37654320987654323,376543209876543212,3765432098765432101,37654320987654320990",
			"name": "a(n) = (1/162)*(61*10^n + 18*n + 20).",
			"comment": [
				"First prime: a(19) = 3765432098765432101. Next prime: a(271) = 3*10^270 + 765432098*(10^(9*29)-1)*10^9/(10^9-1) + 765432129. - _Bruno Berselli_, Oct 15 2013"
			],
			"link": [
				"G. C. Greubel, \u003ca href=\"/A155859/b155859.txt\"\u003eTable of n, a(n) for n = 1..1000\u003c/a\u003e",
				"\u003ca href=\"/index/Rec#order_03\"\u003eIndex entries for linear recurrences with constant coefficients\u003c/a\u003e, signature (12,-21,10)."
			],
			"formula": [
				"from _Bruno Berselli_, Oct 15 2013: (Start)",
				"G.f.: x*(4 -10*x +5*x^2)/((1-10*x)*(1-x)^2).",
				"a(n) = 12*a(n-1) -21*a(n-2) +10*a(n-3). (End)",
				"E.g.f.: (1/162)*(-81 + 2*(10 + 9*x)*exp(x) + 61*exp(10*x)). - _G. C. Greubel_, Jun 04 2021"
			],
			"mathematica": [
				"Table[(1/162)*(61*10^n +18*n +20), {n, 20}] (* _Bruno Berselli_, Oct 15 2013 *)"
			],
			"program": [
				"(PARI) a(n) = (1/162)*(61*10^n + 18*n + 20); \\\\ _Michel Marcus_, Oct 15 2013",
				"(MAGMA) [(1/162)*(61*10^n+18*n+20): n in [1..20]]; // _Bruno Berselli_, Oct 15 2013",
				"(Sage) [1/162)*(61*10^n +18*n +20) for n in (1..20)] # _G. C. Greubel_, Jun 04 2021"
			],
			"keyword": "nonn,easy",
			"offset": "1,1",
			"author": "_Zak Seidov_, Jan 29 2009",
			"references": 1,
			"revision": 18,
			"time": "2021-06-04T22:49:09-04:00",
			"created": "2009-02-27T03:00:00-05:00"
		}
	]
}