{
	"greeting": "Greetings from The On-Line Encyclopedia of Integer Sequences! http://oeis.org/",
	"query": "id:A155588",
	"count": 1,
	"start": 0,
	"results": [
		{
			"number": 155588,
			"data": "1,6,28,132,640,3156,15688,78252,390880,1953636,9766648,48830172,244144720,1220711316,6103532008,30517610892,152587956160,762939584196,3814697527768,19073486852412,95367432689200,476837160300276",
			"name": "a(n) = 5^n + 2^n - 1^n.",
			"link": [
				"\u003ca href=\"/index/Rec\"\u003eIndex entries for linear recurrences with constant coefficients\u003c/a\u003e, signature (8,-17,10)."
			],
			"formula": [
				"G.f.: 1/(1-5*x)+1/(1-2*x)-1/(1-x).",
				"E.g.f.: e^(5*x)+e^(2*x)-e^x.",
				"a(n) = 7*a(n-1)-10*a(n-2)-4 with a(0)=1, a(1)=6. - _Vincenzo Librandi_, Jul 21 2010"
			],
			"program": [
				"(PARI) a(n)=5^n+2^n-1 \\\\ _Charles R Greathouse IV_, Sep 24 2015"
			],
			"xref": [
				"Cf. A074501, A074600, A005057, A005056, A099393."
			],
			"keyword": "nonn,easy",
			"offset": "0,2",
			"author": "_Mohammad K. Azarian_, Jan 24 2009",
			"references": 29,
			"revision": 18,
			"time": "2018-04-06T16:55:30-04:00",
			"created": "2009-02-27T03:00:00-05:00"
		}
	]
}