{
	"greeting": "Greetings from The On-Line Encyclopedia of Integer Sequences! http://oeis.org/",
	"query": "id:A155477",
	"count": 1,
	"start": 0,
	"results": [
		{
			"number": 155477,
			"data": "43,79507,147008443,271818611107,502592611936843,929293739471222707,1718264124282290785243,3177070365797955661914307,5874403106360420018879553643,10861771343660416614908294685907,20083415214428110320965436874242043",
			"name": "a(n) = 43^(2*n+1).",
			"comment": [
				"43*a(n) is a square, hence also a(n)^3+(6*a(n))^3+(11*a(n))^3 = 36*43*a(n)^3 is a square."
			],
			"link": [
				"Vincenzo Librandi, \u003ca href=\"/A155477/b155477.txt\"\u003eTable of n, a(n) for n = 0..100\u003c/a\u003e",
				"\u003ca href=\"/index/Rec#order_01\"\u003eIndex entries for linear recurrences with constant coefficients\u003c/a\u003e, signature (1849)."
			],
			"formula": [
				"G.f.: 43/(1-1849*x). - _Bruno Berselli_, Feb 26 2012"
			],
			"mathematica": [
				"43^(2 Range[0, 11] + 1) (* _Harvey P. Dale_, Oct 03 2011 *)",
				"Table[43^(2 n + 1), {n, 0, 20}] (* _Vincenzo Librandi_, Oct 01 2015 *)"
			],
			"program": [
				"(MAGMA) [43^(2*n+1): n in [0..15]]; // _Vincenzo Librandi_, Oct 01 2015",
				"(PARI) vector(20, n, n--; 43^(2*n+1)) \\\\ _Altug Alkan_, Oct 01 2015"
			],
			"xref": [
				"Bisection of A009987 (powers of 43)."
			],
			"keyword": "nonn,easy",
			"offset": "0,1",
			"author": "_Vincenzo Librandi_, Jan 23 2009",
			"ext": [
				"More terms from _Harvey P. Dale_, Oct 03 2011",
				"Offset from 1 to 0 by _Vincenzo Librandi_, Feb 26 2012"
			],
			"references": 2,
			"revision": 33,
			"time": "2015-10-02T03:34:31-04:00",
			"created": "2009-02-27T03:00:00-05:00"
		}
	]
}