{
	"greeting": "Greetings from The On-Line Encyclopedia of Integer Sequences! http://oeis.org/",
	"query": "id:A155647",
	"count": 1,
	"start": 0,
	"results": [
		{
			"number": 155647,
			"data": "1,14,116,944,7856,66824,578096,5062904,44726336,397498184,3547250576,31743856664,284606318816,2554926522344,22955156619056,206361317079224,1855841298759296,16694108359111304,150196195253667536",
			"name": "9^n+6^n-1^n",
			"link": [
				"\u003ca href=\"/index/Rec\"\u003eIndex entries for linear recurrences with constant coefficients\u003c/a\u003e, signature (16,-69,54)."
			],
			"formula": [
				"G.f.: 1/(1-9*x)+1/(1-6*x)-1/(1-x). E.g.f.: e^(9*x)+e^(6*x)-e^x.",
				"a(n)=15*a(n-1)-54*a(n-2)-40 with a(0)=1, a(1)=14 - _Vincenzo Librandi_, Jul 21 2010",
				"a(0)=1, a(1)=14, a(2)=116, a(n)=16*a(n-1)-69*a(n-2)+54*a(n-3). - _Harvey P. Dale_, Dec 04 2012"
			],
			"mathematica": [
				"Table[9^n+6^n-1,{n,0,30}] (* or *) LinearRecurrence[{16,-69,54},{1,14,116},30] (* _Harvey P. Dale_, Dec 04 2012 *)"
			],
			"program": [
				"(PARI) a(n)=9^n+6^n-1 \\\\ _Charles R Greathouse IV_, Sep 24 2015"
			],
			"xref": [
				"Cf. A155628, A155629, A155630, A155631, A155632, A155633, A155634, A155635, A155636, A155637, A155638, A155639, A155640, A155641, A155642, A155643, A155644, A155645, A155646."
			],
			"keyword": "nonn,easy",
			"offset": "0,2",
			"author": "_Mohammad K. Azarian_, Jan 31 2009",
			"references": 21,
			"revision": 17,
			"time": "2015-09-24T11:33:38-04:00",
			"created": "2009-02-27T03:00:00-05:00"
		}
	]
}