{
	"greeting": "Greetings from The On-Line Encyclopedia of Integer Sequences! http://oeis.org/",
	"query": "id:A155135",
	"count": 1,
	"start": 0,
	"results": [
		{
			"number": 155135,
			"data": "-28,-27,-24,-19,-12,-3,0,8,21,36,53,72,93,116,141,168,197,228,261,296,333,372,413,456,501,548,597,648,701,756,813,872,933,996,1061,1128,1197,1268,1341,1416,1493,1572,1653,1736,1821,1908,1997,2088,2181,2276,2373",
			"name": "Integers n such that n^3+28*n^2 is a square.",
			"comment": [
				"Values x of solutions (x, y) to the Diophantine equation x^3+28*x^2 = y^2. Corresponding values y are in A155137.",
				"Agrees with A155136 except for insertion of zero after a(6) = 3."
			],
			"link": [
				"Vincenzo Librandi, \u003ca href=\"/A155135/b155135.txt\"\u003eTable of n, a(n) for n = 1..1000\u003c/a\u003e"
			],
			"formula": [
				"G.f.: -(28-57*x+27*x^2+8*x^6-11*x^7+3*x^9)/(1-x)^3."
			],
			"example": [
				"For n = -19, n^3+28*n^2 = -6859+10108 = 3249 = 57^2 is a square.",
				"For n = 0, n^3+28*n^2 = 0^3+28*0^2 = 0 = 0^2 is a square.",
				"For n = 21; n^3+28*n^2 = 9261+12348 = 21609 = 147^2 is a square."
			],
			"mathematica": [
				"CoefficientList[Series[-(28-57*x+27*x^2+8*x^6-11*x^7+3*x^9)/(1-x)^3,{x,0,60}],x] (* _Vincenzo Librandi_, Feb 22 2012 *)"
			],
			"program": [
				"(MAGMA) [ n: n in [ -30..2400] | IsSquare(n^3+28*n^2) ];"
			],
			"xref": [
				"Cf. A155136, A155137, A153642."
			],
			"keyword": "sign",
			"offset": "1,1",
			"author": "_Klaus Brockhaus_, Jan 21 2009",
			"references": 4,
			"revision": 6,
			"time": "2014-08-03T14:26:18-04:00",
			"created": "2009-02-27T03:00:00-05:00"
		}
	]
}