{
	"greeting": "Greetings from The On-Line Encyclopedia of Integer Sequences! http://oeis.org/",
	"query": "id:A155889",
	"count": 1,
	"start": 0,
	"results": [
		{
			"number": 155889,
			"data": "1,0,8,4,8,0,6,5,5,0,3,5,5,7,9,3,6,8,2,9,4,4,6,5,0,9,3,7,3,2,8,0,9,7,4,8,9,0,6,4,8,7,3,9,3,2,7,6,7,5,1,2,3,0,2,4,7,9,7,7,8,3,8,7,6,5,2,7,0,4,2,0,4,5,3,8,0,4,7,0,7,6,2,3,5,1,7,5,5,8,5,7,8,3,2,0,8,3,3",
			"name": "Decimal expansion of log_18 (23).",
			"link": [
				"Vincenzo Librandi, \u003ca href=\"/A155889/b155889.txt\"\u003eTable of n, a(n) for n = 1..1000\u003c/a\u003e"
			],
			"example": [
				"1.0848065503557936829446509373280974890648739327675123024797..."
			],
			"mathematica": [
				"RealDigits[Log[18, 23], 10, 100][[1]] (* _Vincenzo Librandi_, Sep 05 2013 *)"
			],
			"xref": [
				"Cf. decimal expansion of log_18(m): A152812 (m=2), A153021 (m=3), A153113 (m=4), A153444 (m=5), A153608 (m=6), A153628 (m=7), A153870 (m=8), A154017 (m=9),  A154168 (m=10), A154189 (m=11), A154210 (m=12), A154400 (m=13), A154490 (m=14), A154688 (m=15), A154830 (m=16), A154898 (m=17), A155094 (m=19), A155530 (m=20), A155685 (m=21), A155784 (m=22), this sequence, A155995 (m=24)."
			],
			"keyword": "nonn,cons",
			"offset": "1,3",
			"author": "_N. J. A. Sloane_, Oct 30 2009",
			"references": 22,
			"revision": 5,
			"time": "2013-09-05T03:32:57-04:00",
			"created": "2010-06-01T03:00:00-04:00"
		}
	]
}