{
	"greeting": "Greetings from The On-Line Encyclopedia of Integer Sequences! http://oeis.org/",
	"query": "id:A155995",
	"count": 1,
	"start": 0,
	"results": [
		{
			"number": 155995,
			"data": "1,0,9,9,5,3,1,1,6,6,4,2,0,3,2,8,6,1,1,8,3,9,2,1,0,4,1,2,2,7,6,3,0,7,6,5,4,4,2,0,4,4,4,8,2,5,0,4,7,6,7,6,4,1,4,9,4,6,6,1,2,2,5,1,7,8,7,2,8,2,2,6,4,3,5,7,9,7,3,8,6,2,1,2,6,6,3,9,1,0,3,7,0,0,3,5,2,8,1",
			"name": "Decimal expansion of log_18 (24).",
			"link": [
				"Vincenzo Librandi, \u003ca href=\"/A155995/b155995.txt\"\u003eTable of n, a(n) for n = 1..1000\u003c/a\u003e"
			],
			"example": [
				"1.0995311664203286118392104122763076544204448250476764149466..."
			],
			"mathematica": [
				"RealDigits[Log[18, 24], 10, 100][[1]] (* _Vincenzo Librandi_, Sep 05 2013 *)"
			],
			"xref": [
				"Cf. decimal expansion of log_18(m): A152812 (m=2), A153021 (m=3), A153113 (m=4), A153444 (m=5), A153608 (m=6), A153628 (m=7), A153870 (m=8), A154017 (m=9),  A154168 (m=10), A154189 (m=11), A154210 (m=12), A154400 (m=13), A154490 (m=14), A154688 (m=15), A154830 (m=16), A154898 (m=17), A155094 (m=19), A155530 (m=20), A155685 (m=21), A155784 (m=22), A155889 (m=23), this sequence."
			],
			"keyword": "nonn,cons",
			"offset": "1,3",
			"author": "_N. J. A. Sloane_, Oct 30 2009",
			"references": 22,
			"revision": 5,
			"time": "2013-09-05T03:32:51-04:00",
			"created": "2010-06-01T03:00:00-04:00"
		}
	]
}