{
	"greeting": "Greetings from The On-Line Encyclopedia of Integer Sequences! http://oeis.org/",
	"query": "id:A155003",
	"count": 1,
	"start": 0,
	"results": [
		{
			"number": 155003,
			"data": "2,6,8,0,1,4,3,8,5,9,2,4,6,3,7,5,3,4,4,8,5,0,5,6,6,6,2,0,2,1,9,1,9,5,1,3,0,4,6,6,1,4,2,8,4,2,6,9,4,3,5,3,2,2,1,8,3,6,8,8,8,5,5,6,5,1,7,9,4,0,8,7,1,7,3,5,0,2,9,3,0,9,8,7,7,2,7,4,4,7,6,8,4,9,7,5,5,7,3",
			"name": "Decimal expansion of log_3 (19).",
			"link": [
				"Vincenzo Librandi, \u003ca href=\"/A155003/b155003.txt\"\u003eTable of n, a(n) for n = 1..1000\u003c/a\u003e"
			],
			"example": [
				"2.6801438592463753448505666202191951304661428426943532218368..."
			],
			"mathematica": [
				"RealDigits[Log[3, 19], 10, 120][[1]] (* _Vincenzo Librandi_, Aug 29 2013 *)"
			],
			"keyword": "nonn,cons",
			"offset": "1,1",
			"author": "_N. J. A. Sloane_, Oct 30 2009",
			"references": 2,
			"revision": 5,
			"time": "2013-08-29T07:14:12-04:00",
			"created": "2010-06-01T03:00:00-04:00"
		}
	]
}