{
	"greeting": "Greetings from The On-Line Encyclopedia of Integer Sequences! http://oeis.org/",
	"query": "id:A155583",
	"count": 1,
	"start": 0,
	"results": [
		{
			"number": 155583,
			"data": "1,1,2,6,12,28,36,36,216,216,720,1512,1512,2520,12096,12096,12096,10080,60480,108864,108864,54432,604800,604800,1088640,544320,326592",
			"name": "The sequence is a factorization of a designed multi-bifurcative triangle sequence: t(n,m)=A155582(n,m); f(n, m) = If[m \u003c= Floor[n/2], f(m, 1)*f(n - m, 1)*t(n, m)].",
			"comment": [
				"Row sums are:",
				"{1, 1, 2, 6, 40, 72, 1152, 5544, 46368, 332640, 3169152,...}."
			],
			"formula": [
				"t(n,m)=A155582(n,m); f(n, m) = If[m \u003c= Floor[n/2], f(m, 1)*f(n - m, 1)*t(n, m)]."
			],
			"example": [
				"Factor sequence is:",
				"{1},",
				"{1},",
				"{2},",
				"{6},",
				"{12, 28},",
				"{36, 36},",
				"{216, 216, 720},",
				"{1512, 1512, 2520},",
				"{12096, 12096, 12096, 10080},",
				"{60480, 108864, 108864, 54432}, {604800, 604800, 1088640, 544320, 326592}"
			],
			"mathematica": [
				"Clear[t, a, b, c, n, m, f, x];",
				"a[0] = 1; a[n_] := a[n] = ((4*n - 2)/(n + 1))*a[n - 1];",
				"b[0] = 1; b[n_] := b[n] = If[IntegerQ[((3*n - 2)/(n + 1))*b[n - 1]], ((3*n - 2)/(n + 1))*b[n - 1], If[IntegerQ[((4*n - 2)/( n + 1))*b[n - 1]], ((4*n - 2)/(n + 1))*b[n - 1], n*b[n - 1]]]",
				"c[0] = 1; c[n_] := c[n] = If[IntegerQ[((6*n - 4)/(n + 1))*c[n - 1]], ((6*n - 4)/(n + 1))*c[n - 1], If[IntegerQ[((4*n - 2)/(n + 1))*c[n - 1]], ((4*n - 2)/(n + 1))* c[n - 1], n*c[n - 1]]];",
				"t[n_, m_] := t[n, m] = If[IntegerQ[a[n]/(a[m]*a[n - m])], a[n]/(a[m]*a[n - m]), If[IntegerQ[b[n]/(b[m]*b[ n - m])], b[n]/(b[ m]*b[n - m]), If[IntegerQ[c[n]/(c[m]* c[n - m])], c[n]/(c[m]*c[n - m]), Binomial[n, m]]]];",
				"f[0, 1] = 1; f[1, 1] = 1; f[2, 1] = 2;",
				"f[n_, m_] := f[n, m] = If[m \u003c= Floor[n/2], f[m, 1]*f[n - m, 1]*t[n, m]];",
				"a = Join[{{1}}, {{1}}, Table[Table[f[n, m], {m, 1, Floor[n/2]}], {n, 2, 10}]];",
				"Flatten[%]"
			],
			"xref": [
				"Cf. A155582"
			],
			"keyword": "nonn,uned",
			"offset": "0,3",
			"author": "_Roger L. Bagula_, Jan 24 2009",
			"references": 0,
			"revision": 6,
			"time": "2013-01-06T09:57:47-05:00",
			"created": "2009-02-27T03:00:00-05:00"
		}
	]
}