{
	"greeting": "Greetings from The On-Line Encyclopedia of Integer Sequences! http://oeis.org/",
	"query": "id:A155119",
	"count": 1,
	"start": 0,
	"results": [
		{
			"number": 155119,
			"data": "1,4,24,140,820,4800,28100,164500,963000,5637500,33002500,193200000,1131012500,6621062500,38760375000,226907187500,1328337812500,7776225000000,45522814062500,266495195312500,1560090046875000,9132926210937500",
			"name": "a(n) = 5*a(n-1) + 5*a(n-2), n \u003e 2, a(0)=1, a(1)=4, a(2)=24.",
			"link": [
				"G. C. Greubel, \u003ca href=\"/A155119/b155119.txt\"\u003eTable of n, a(n) for n = 0..1000\u003c/a\u003e",
				"\u003ca href=\"/index/Rec#order_02\"\u003eIndex entries for linear recurrences with constant coefficients\u003c/a\u003e, signature (5,5)."
			],
			"formula": [
				"G.f.: (1 - x - x^2) / (1 - 5*x - 5*x^2).",
				"a(n) = (14/15) * sqrt(5) * ((5/2 + (3/2)*sqrt(5))^(n-1) - (5/2 - (3/2)*sqrt(5))^(n-1)) + 2 * ((5/2 + (3/2)*sqrt(5))^(n-1) + (5/2 - (3/2)*sqrt(5))^(n-1)) + (1/5)*(C(2*n,n) mod 2), with n \u003e= 0. - _Paolo P. Lava_, Jan 26 2009",
				"a(n) = (1/5)*[n=0] - 4*(sqrt(5)*i)^(n-2)*ChebyshevU(n, -sqrt(5)*i/2). - _G. C. Greubel_, Mar 25 2021"
			],
			"mathematica": [
				"With[{m=5}, LinearRecurrence[{m, m}, {1, m-1, m^2-1}, 30]] (* _G. C. Greubel_, Mar 25 2021 *)"
			],
			"program": [
				"(Magma) m:=5; [1] cat [n le 2 select (m-1)*(m*n-(m-1)) else m*(Self(n-1) + Self(n-2)): n in [1..30]]; // _G. C. Greubel_, Mar 25 2021",
				"(Sage) m=5; [1]+[-(m-1)*(sqrt(m)*i)^(n-2)*chebyshev_U(n, -sqrt(m)*i/2) for n in (1..30)] # _G. C. Greubel_, Mar 25 2021"
			],
			"xref": [
				"Sequences of the form a(n) = m*(a(n-1) + a(n-2)) with a(0)=1, a(1) = m-1, a(2) = m^2 -1: A155020 (m=2), A155116 (m=3), A155117 (m=4), this sequence (m=5), A155127 (m=6), A155130 (m=7), A155132 (m=8), A155144 (m=9), A155157 (m=10)."
			],
			"keyword": "nonn",
			"offset": "0,2",
			"author": "_Philippe Deléham_, Jan 20 2009",
			"ext": [
				"a(20) corrected and a(21) from _Sean A. Irvine_, May 19 2019"
			],
			"references": 10,
			"revision": 14,
			"time": "2021-03-25T21:19:41-04:00",
			"created": "2009-02-27T03:00:00-05:00"
		}
	]
}