{
	"greeting": "Greetings from The On-Line Encyclopedia of Integer Sequences! http://oeis.org/",
	"query": "id:A155351",
	"count": 1,
	"start": 0,
	"results": [
		{
			"number": 155351,
			"data": "1,7,19,43,186,784,3370,18899,119653,885804,7733006,76760124",
			"name": "Number of ways to place zero or more nonadjacent 0,0 1,0 2,1 3,2 4,3 5,4 6,4 polyhexes in any orientation on a planar nXnXn triangular grid.",
			"example": [
				"Maximal 10 X 10 X 10 example",
				"............1",
				"...........1.0",
				"..........0.1.0",
				".........0.0.1.0",
				"........0.0.0.1.0",
				".......0.1.1.0.1.0",
				"......0.1.0.0.1.0.0",
				".....0.1.0.0.0.0.0.1",
				"....0.1.0.1.1.1.1.1.0",
				"...1.1.0.1.0.0.0.0.0.0"
			],
			"keyword": "nonn",
			"offset": "6,2",
			"author": "_R. H. Hardin_ Jan 22 2009",
			"references": 0,
			"revision": 3,
			"time": "2012-03-31T12:35:23-04:00",
			"created": "2009-02-27T03:00:00-05:00"
		}
	]
}