{
	"greeting": "Greetings from The On-Line Encyclopedia of Integer Sequences! http://oeis.org/",
	"query": "id:A155246",
	"count": 1,
	"start": 0,
	"results": [
		{
			"number": 155246,
			"data": "1,7,19,52,214,1321,8505,68818,699514,8734297,133231510,2556155829,60226747541,1749017832742",
			"name": "Number of ways to place zero or more nonadjacent 0,0 1,0 2,1 3,1 4,2 polyhexes in any orientation on a planar nXnXn triangular grid.",
			"example": [
				"Maximal 11 X 11 X 11 example",
				".............1",
				"............0.1",
				"...........0.1.0",
				"..........1.0.1.0",
				".........1.0.1.0.0",
				"........0.1.0.0.0.0",
				".......0.1.0.0.0.0.0",
				"......0.0.1.0.0.1.1.0",
				".....1.0.0.0.1.0.0.1.1",
				"....0.1.1.0.0.1.1.0.0.1",
				"...0.0.0.1.1.0.0.1.1.0.0"
			],
			"keyword": "nonn",
			"offset": "4,2",
			"author": "_R. H. Hardin_ Jan 22 2009",
			"references": 0,
			"revision": 3,
			"time": "2012-03-31T12:35:22-04:00",
			"created": "2009-02-27T03:00:00-05:00"
		}
	]
}