{
	"greeting": "Greetings from The On-Line Encyclopedia of Integer Sequences! http://oeis.org/",
	"query": "id:A155260",
	"count": 1,
	"start": 0,
	"results": [
		{
			"number": 155260,
			"data": "1,7,25,55,130,1405,16466,116148,894657,15191483,400416491,9046002744,215811308360,8089887873673,451390921829837",
			"name": "Number of ways to place zero or more nonadjacent 1,0 1,1 2,1 2,2 3,1 4,2 polyhexes in any orientation on a planar nXnXn triangular grid.",
			"comment": [
				"Same series for 0,0 1,0 1,1 2,0 3,1 3,2 polyhexes."
			],
			"example": [
				"Maximal 11 X 11 X 11 example",
				".............0",
				"............1.1",
				"...........0.1.1",
				"..........1.1.0.0",
				".........0.0.0.1.1",
				"........1.0.1.0.1.1",
				".......1.1.1.0.1.0.0",
				"......0.1.0.0.0.1.0.1",
				".....1.0.0.1.1.0.0.1.0",
				"....1.1.1.0.0.1.1.0.1.1",
				"...0.1.0.1.0.1.1.0.1.1.0"
			],
			"keyword": "nonn",
			"offset": "3,2",
			"author": "_R. H. Hardin_ Jan 22 2009",
			"references": 0,
			"revision": 3,
			"time": "2012-03-31T12:35:22-04:00",
			"created": "2009-02-27T03:00:00-05:00"
		}
	]
}