{
	"greeting": "Greetings from The On-Line Encyclopedia of Integer Sequences! http://oeis.org/",
	"query": "id:A156779",
	"count": 1,
	"start": 0,
	"results": [
		{
			"number": 156779,
			"data": "0,2,5,7,10,17,17,24,22,29,28,50,41,60,56,65,58,92,77,111,99,107,100,167,110,143,122,165,129,214,160,225,193,220,187,285,197,276,243,325,238,390,281,393,354,383,328,536,345,457,391,476,381,573,419,563,463",
			"name": "Sum( d | n, sp(d)), where sp(d) = A034387(d) = sum of primes \u003c= d.",
			"program": [
				"(PARI) vector(80,n,sumdiv(n,d,sum(i=1,primepi(d),prime(i))))"
			],
			"keyword": "nonn",
			"offset": "1,2",
			"author": "_M. F. Hasler_, Feb 21 2009",
			"references": 0,
			"revision": 3,
			"time": "2012-07-14T11:32:24-04:00",
			"created": "2009-02-27T03:00:00-05:00"
		}
	]
}