{
	"greeting": "Greetings from The On-Line Encyclopedia of Integer Sequences! http://oeis.org/",
	"query": "id:A156465",
	"count": 1,
	"start": 0,
	"results": [
		{
			"number": 156465,
			"data": "1,0,0,3,7,36,201,9522,78762,5281910,225908440,34459271550,1556654915420",
			"name": "Number of n X n arrays of squares of integers, symmetric under 90 degree rotation, with all rows summing to 16.",
			"keyword": "nonn",
			"offset": "1,4",
			"author": "_R. H. Hardin_ Feb 09 2009",
			"references": 0,
			"revision": 4,
			"time": "2015-12-18T18:17:16-05:00",
			"created": "2009-02-27T03:00:00-05:00"
		}
	]
}