{
	"greeting": "Greetings from The On-Line Encyclopedia of Integer Sequences! http://oeis.org/",
	"query": "id:A156232",
	"count": 1,
	"start": 0,
	"results": [
		{
			"number": 156232,
			"data": "0,4,4,16,24,64,112,256,480,1024,1984,4096,8064,16384,32512,65536,130560,262144,523264,1048576,2095104,4194304,8384512,16777216,33546240,67108864,134201344,268435456,536838144,1073741824,2147418112",
			"name": "a(n) is the number of induced subgraphs with odd number of edges in the cycle graph C(n).",
			"comment": [
				"Essentially the same sequence (see A204696) appears in the Cusick-Stanica paper."
			],
			"link": [
				"G. C. Greubel, \u003ca href=\"/A156232/b156232.txt\"\u003eTable of n, a(n) for n = 2..1000\u003c/a\u003e",
				"Thomas W. Cusick, and Pantelimon Stanica, \u003ca href=\"http://dx.doi.org/10.1016/S0012-365X(02)00354-0\"\u003eFast evaluation, weights and nonlinearity of rotation-symmetric functions\u003c/a\u003e, Discrete Math. 258 (2002), no. 1-3, 289-301.",
				"\u003ca href=\"/index/Rec#order_03\"\u003eIndex entries for linear recurrences with constant coefficients\u003c/a\u003e, signature (2, 2, -4)."
			],
			"formula": [
				"a(n) = 2^(n-1) - 2^(n/2) if n is even, 2^(n-1) otherwise.",
				"G.f.: 4*x^3*(1-x)/((1-2*x)*(1-2*x^2)). a(n)=2*a(n-1)+2*a(n-2)-4*a(n-3). - _R. J. Mathar_, Feb 10 2009",
				"E.g.f.: 2*(exp(2*x) - cosh(sqrt(2)*x)). - _G. C. Greubel_, Aug 26 2015"
			],
			"mathematica": [
				"RecurrenceTable[{a[n]== 2*a[n-1]  + 2*a[n-2] - 4*a[n-3], a[0]==0, a[1]==4, a[2]==4}, a, {n,0,50}] (* _G. C. Greubel_, Aug 26 2015 *)",
				"LinearRecurrence[{2, 2, -4}, {0, 4, 4}, 40] (* _Vincenzo Librandi_, Aug 27 2015 *)"
			],
			"program": [
				"(PARI) Vec(4*x^3*(1-x)/((1-2*x)*(1-2*x^2)) + O(x^40)) \\\\ _Michel Marcus_, Aug 26 2015"
			],
			"xref": [
				"Cf. A000749, A032085."
			],
			"keyword": "nonn",
			"offset": "2,2",
			"author": "Alessandro Cosentino (cosenal(AT)gmail.com), Feb 06 2009",
			"ext": [
				"More terms from _R. J. Mathar_, Feb 10 2009"
			],
			"references": 3,
			"revision": 30,
			"time": "2016-02-04T06:33:53-05:00",
			"created": "2009-02-27T03:00:00-05:00"
		}
	]
}