{
	"greeting": "Greetings from The On-Line Encyclopedia of Integer Sequences! http://oeis.org/",
	"query": "id:A156513",
	"count": 1,
	"start": 0,
	"results": [
		{
			"number": 156513,
			"data": "3,4,174,272,48562,360468,211236822,5909410784,14595969900224",
			"name": "Number of n X n arrays of squares of integers, symmetric about both diagonal and antidiagonal, with all rows summing to 50.",
			"keyword": "nonn",
			"offset": "2,1",
			"author": "_R. H. Hardin_ Feb 09 2009",
			"references": 0,
			"revision": 4,
			"time": "2015-12-18T18:17:17-05:00",
			"created": "2009-02-27T03:00:00-05:00"
		}
	]
}