{
	"greeting": "Greetings from The On-Line Encyclopedia of Integer Sequences! http://oeis.org/",
	"query": "id:A156683",
	"count": 1,
	"start": 0,
	"results": [
		{
			"number": 156683,
			"data": "12,15,20,21,24,28,33,35,36,39,40,44,45,48,51,52,55,56,57,60,63,65,68,69,72,75,76,77,80,84,85,87,88,91,92,93,95,96,99,100,104,105,108,111,112,115,116,117,119,120,123,124,129,132,133,135,136,140,141,143,144",
			"name": "Integers that can occur as either leg in more than one primitive Pythagorean triple",
			"comment": [
				"This is also the sequence of non-singly-even numbers that contain more than one distinct prime factor.",
				"Integers n such that A024361(n)\u003e1; subsequence of both A024355 and A042965. - _Ray Chandler_, Feb 03 2020"
			],
			"reference": [
				"Beiler, Albert H.: Recreations In The Theory Of Numbers, Chapter XIV, The Eternal Triangle, Dover Publications Inc., New York, 1964, pp. 104-134."
			],
			"link": [
				"Charles R Greathouse IV, \u003ca href=\"/A156683/b156683.txt\"\u003eTable of n, a(n) for n = 1..10000\u003c/a\u003e",
				"Ron Knott, \u003ca href=\"http://www.maths.surrey.ac.uk/hosted-sites/R.Knott/Pythag/pythag.html\"\u003eRight-angled Triangles and Pythagoras' Theorem\u003c/a\u003e"
			],
			"example": [
				"As 15 is the second integer that can occur as either leg in more than one primitive Pythagorean triangle - (8,15,17) and (15,112,113) - then a(2)=15."
			],
			"mathematica": [
				"PrimitiveRightTriangleLegs[1]:=0;PrimitiveRightTriangleLegs[n_Integer?Positive]:=Module[{f=Transpose[FactorInteger[n]][[1]]},If[Mod[n,4]==2,0,2^(Length[f]-1)]];Select[Range[150],PrimitiveRightTriangleLegs[ # ]\u003e1 \u0026]"
			],
			"program": [
				"(PARI) is(n)=n%4!=2 \u0026\u0026 !isprimepower(n) \u0026\u0026 n\u003e1 \\\\ _Charles R Greathouse IV_, Jun 17 2013"
			],
			"xref": [
				"Cf. A024355, A024361, A042965."
			],
			"keyword": "easy,nice,nonn",
			"offset": "1,1",
			"author": "_Ant King_, Feb 17 2009",
			"references": 2,
			"revision": 13,
			"time": "2020-02-03T16:55:12-05:00",
			"created": "2009-02-27T03:00:00-05:00"
		}
	]
}