{
	"greeting": "Greetings from The On-Line Encyclopedia of Integer Sequences! http://oeis.org/",
	"query": "id:A156288",
	"count": 1,
	"start": 0,
	"results": [
		{
			"number": 156288,
			"data": "5,8,10,11,14,15,17,20,23,24,25,26,29,30,31,32,35,37,38,40,41,44,45,47,48,50,52,53,55,56,59,60,62,63,65,66,68,70,71,73,74,75,76,77,80,81,82,83,85,86,87,89,90,92,94,95,98,99,100,101,102,103,104,105,107,108,110",
			"name": "Numbers n such that 4*n-5 is not a prime number.",
			"link": [
				"Vincenzo Librandi, \u003ca href=\"/A156288/b156288.txt\"\u003eTable of n, a(n) for n = 1..1000\u003c/a\u003e"
			],
			"mathematica": [
				"Select[Range[2, 150], !PrimeQ[4 # - 5]\u0026] (* _Vincenzo Librandi_, Apr 06 2013 *)"
			],
			"program": [
				"(MAGMA) [n: n in [2..150] | not IsPrime(4*n-5)]; // _Vincenzo Librandi_, Apr 06 2013"
			],
			"xref": [
				"Cf. A156287."
			],
			"keyword": "nonn,easy",
			"offset": "1,1",
			"author": "_Vincenzo Librandi_, Feb 07 2009",
			"references": 3,
			"revision": 6,
			"time": "2013-04-06T12:23:27-04:00",
			"created": "2009-02-27T03:00:00-05:00"
		}
	]
}