{
	"greeting": "Greetings from The On-Line Encyclopedia of Integer Sequences! http://oeis.org/",
	"query": "id:A156469",
	"count": 1,
	"start": 0,
	"results": [
		{
			"number": 156469,
			"data": "1,4,54,112,5414,21624,2133044,23029656,5468265896,163052061000,97305384072800",
			"name": "Number of n X n arrays of squares of integers, symmetric about both diagonal and antidiagonal, with all rows summing to 18.",
			"keyword": "nonn",
			"offset": "2,2",
			"author": "_R. H. Hardin_ Feb 09 2009",
			"references": 0,
			"revision": 4,
			"time": "2015-12-18T18:17:16-05:00",
			"created": "2009-02-27T03:00:00-05:00"
		}
	]
}