{
	"greeting": "Greetings from The On-Line Encyclopedia of Integer Sequences! http://oeis.org/",
	"query": "id:A156638",
	"count": 1,
	"start": 0,
	"results": [
		{
			"number": 156638,
			"data": "4,5,13,14,22,23,31,32,40,41,49,50,58,59,67,68,76,77,85,86,94,95,103,104,112,113,121,122,130,131,139,140,148,149,157,158,166,167,175,176,184,185,193,194,202,203,211,212,220,221,229,230,238,239,247,248,256",
			"name": "Numbers n such that n^2 + 2 == 0 (mod 9).",
			"comment": [
				"From _Artur Jasinski_, Apr 30 2010: (Start)",
				"Numbers congruent to 4 or 5 mod 9.",
				"Numbers which are not the sum of 3 cubes.",
				"Complement to A060464. (End)",
				"Numbers n such that A010888(n^2) = 7. - _V.J. Pohjola_, Aug 18 2012."
			],
			"reference": [
				"Henri Cohen, Number Theory Volume I: Tools and Diophantine Equations. Springer Verlag (2007) p. 380. - _Artur Jasinski_, Apr 30 2010"
			],
			"link": [
				"Vincenzo Librandi, \u003ca href=\"/A156638/b156638.txt\"\u003eTable of n, a(n) for n = 1..1000\u003c/a\u003e",
				"Andrew Sutherland, \u003ca href=\"https://drive.google.com/file/d/1qzD__dviONTqHQH7DBFmsQ0MdCa7ePRg/view\"\u003eSums of three cubes\u003c/a\u003e, Slides of a talk given May 07 2020 on the Number Theory Web.",
				"\u003ca href=\"/index/Rec#order_03\"\u003eIndex entries for linear recurrences with constant coefficients\u003c/a\u003e, signature (1,1,-1)."
			],
			"formula": [
				"For n \u003e 2, a(n) = a(n-2) + 9.",
				"G.f.: x*(4*x^2 + x + 4)/(x^3 - x^2 - x + 1). - _Alexander R. Povolotsky_, Feb 15 2009",
				"From _R. J. Mathar_, Feb 19 2009: (Start)",
				"a(n) = a(n-1) + a(n-2) - a(n-3), n\u003e3.",
				"a(n) = 9*n/2 - 9/4 - 7*(-1)^n/4.",
				"G.f.: x*(4 + x + 4*x^2)/((1 + x)*(1 - x)^2). (End)",
				"a(n) = -a(-n+1). - _Bruno Berselli_, Jan 08 2012"
			],
			"maple": [
				"A156638:=n-\u003e9*n/2 - 9/4 - 7*(-1)^n/4: seq(A156638(n), n=1..80); # _Wesley Ivan Hurt_, Aug 16 2015"
			],
			"mathematica": [
				"LinearRecurrence[{1, 1, -1}, {4, 5, 13}, 50] (* _Vincenzo Librandi_, Mar 01 2012 *)",
				"intDigSum[n_] := Total[IntegerDigits[n]]; A156638 = {}; Do[If[Nest[intDigSum, n^2, k] == 7, AppendTo[a, n]], {n, 10^5}]; A156638 (* _V.J. Pohjola_, Aug 18 2012 *)",
				"Flatten[Table[9n - {5, 4}, {n, 30}]] (* _Alonso del Arte_, Aug 09 2015 *)"
			],
			"program": [
				"(MAGMA) [9*n/2 - 9/4 - 7*(-1)^n/4 : n in [1..80]]; // _Wesley Ivan Hurt_, Aug 16 2015"
			],
			"xref": [
				"Cf. A060464, A010888, A334521, A334522."
			],
			"keyword": "nonn,easy",
			"offset": "1,1",
			"author": "_Vincenzo Librandi_, Feb 12 2009",
			"references": 8,
			"revision": 40,
			"time": "2020-05-08T04:18:15-04:00",
			"created": "2009-02-27T03:00:00-05:00"
		}
	]
}