{
	"greeting": "Greetings from The On-Line Encyclopedia of Integer Sequences! http://oeis.org/",
	"query": "id:A156110",
	"count": 1,
	"start": 0,
	"results": [
		{
			"number": 156110,
			"data": "11,29,41,79,109,139,179,211,239,349,431,449,491,569,601,701,739,751,809,811,839,911,919,991,1021,1031,1051,1091,1231,1289,1301,1381,1409,1471,1481,1549,1759,1861,1931,2011,2069,2081,2221,2269,2339,2459,2521",
			"name": "Primes p such that p+18 and p+72 are both prime.",
			"comment": [
				"A153418 INTERSECT A156105. [_Bruno Berselli_, Nov 01 2012]"
			],
			"link": [
				"Vincenzo Librandi, \u003ca href=\"/A156110/b156110.txt\"\u003eTable of n, a(n) for n = 1..1000\u003c/a\u003e"
			],
			"mathematica": [
				"Select[Prime[Range[3000]], And @@ PrimeQ[{# + 18, # + 72}]\u0026] (* _Vincenzo Librandi_, Oct 31 2012 *)"
			],
			"program": [
				"(MAGMA) [p: p in PrimesUpTo(3000)|IsPrime(p + 18) and IsPrime (p + 72)]; // _Vincenzo Librandi_, Oct 31 2012"
			],
			"xref": [
				"Cf. A153418, A156105."
			],
			"keyword": "nonn,easy",
			"offset": "1,1",
			"author": "_Vincenzo Librandi_, Feb 08 2009",
			"references": 1,
			"revision": 9,
			"time": "2012-11-01T02:40:38-04:00",
			"created": "2009-02-27T03:00:00-05:00"
		}
	]
}