{
	"greeting": "Greetings from The On-Line Encyclopedia of Integer Sequences! http://oeis.org/",
	"query": "id:A156611",
	"count": 1,
	"start": 0,
	"results": [
		{
			"number": 156611,
			"data": "2,5,11,17,29,41,53,67,83,101,127,149,173,199,227,257,293,331,367,409,449,491,541,587,641,691,743,797,853,911,971,1033,1097,1163,1231,1301,1373,1447,1523,1601,1693,1777,1861,1949,2039,2129,2221,2333,2437,2539,2647,2749,2857,2963,3079,3191,3307,3433,3557,3677",
			"name": "a(1) = 2, a(n+1) is smallest prime \u003e= a(n)+2*n.",
			"link": [
				"Charles R Greathouse IV, \u003ca href=\"/A156611/b156611.txt\"\u003eTable of n, a(n) for n = 1..10000\u003c/a\u003e"
			],
			"example": [
				"2, 5(\u003e4=2+2*1), 11(\u003e9=5+2*2), 17(\u003e16=11+2*3), 29(\u003e26+17+2*4), 41(\u003e39=29+2*5), 53(=53=41+2*6), 67(=67=53+2*7), 83(=83=67+2*8), 101(=101=83+2*9), etc."
			],
			"program": [
				"(PARI) a=vector(10000);a[1]=2;for(n=1,#a-1,a[n+1]=nextprime(a[n]+2*n)) \\\\ _Charles R Greathouse IV_, May 26 2011"
			],
			"xref": [
				"Cf. A007918."
			],
			"keyword": "nonn",
			"offset": "1,1",
			"author": "_Juri-Stepan Gerasimov_, Feb 11 2009",
			"ext": [
				"a(42) corrected by _Charles R Greathouse IV_, May 26 2011"
			],
			"references": 1,
			"revision": 10,
			"time": "2015-02-13T02:04:16-05:00",
			"created": "2009-02-27T03:00:00-05:00"
		}
	]
}