{
	"greeting": "Greetings from The On-Line Encyclopedia of Integer Sequences! http://oeis.org/",
	"query": "id:A156750",
	"count": 1,
	"start": 0,
	"results": [
		{
			"number": 156750,
			"data": "1,2,15,243,69282,36600664305,6435072487994269232829,364103502021384610224777078613738432189483892",
			"name": "Greedy Egyptian fraction for Pi/2",
			"link": [
				"Wikipedia, \u003ca href=\"http://en.wikipedia.org/wiki/Greedy_algorithm_for_Egyptian_fractions\"\u003eGreedy algorithm for Egyptian fractions\u003c/a\u003e"
			],
			"formula": [
				"Sum(n\u003e=0,1/a(n))=Pi/2"
			],
			"program": [
				"(PARI) x=Pi/2; for (k=0, 7, d=ceil(1/x); x=x-1/d; print(d,\", \"))"
			],
			"xref": [
				"Cf. A001466, A156269, A156736."
			],
			"keyword": "nonn",
			"offset": "0,2",
			"author": "_Jaume Oliver Lafont_, Feb 14 2009",
			"references": 1,
			"revision": 2,
			"time": "2012-03-30T17:23:26-04:00",
			"created": "2009-02-27T03:00:00-05:00"
		}
	]
}