{
	"greeting": "Greetings from The On-Line Encyclopedia of Integer Sequences! http://oeis.org/",
	"query": "id:A156438",
	"count": 1,
	"start": 0,
	"results": [
		{
			"number": 156438,
			"data": "2,0,22,7,232,270,9312,40416,1578064,10491480,534495232,4186295040,266388662656,2380048630848,182963339479264,1839487795001024,166774503916789696,1865501254974930048,195842622547532763968",
			"name": "Number of n X n arrays of squares of integers, symmetric about both diagonal and antidiagonal, with all rows summing to 5.",
			"keyword": "nonn",
			"offset": "2,1",
			"author": "_R. H. Hardin_ Feb 09 2009",
			"references": 0,
			"revision": 4,
			"time": "2015-12-18T18:17:16-05:00",
			"created": "2009-02-27T03:00:00-05:00"
		}
	]
}