{
	"greeting": "Greetings from The On-Line Encyclopedia of Integer Sequences! http://oeis.org/",
	"query": "id:A156377",
	"count": 1,
	"start": 0,
	"results": [
		{
			"number": 156377,
			"data": "1,-7,-15,1001,4065,-514087,-3125295,559451081,4534099905,-1044682551367,-10583199850575,2980654783566761,36234719616266145,-12060793477105158247,-171055019182265094255,65695455336100321500041,1064846988389856127270785",
			"name": "Numerator of Euler(n, 1/16).",
			"link": [
				"T. D. Noe, \u003ca href=\"/A156377/b156377.txt\"\u003eTable of n, a(n) for n = 0..100\u003c/a\u003e"
			],
			"formula": [
				"G.f.: conjecture T(0)/(1+7*x), where T(k) = 1 - 64*x^2*(k+1)^2/(64*x^2*(k+1)^2 + (1+7*x)^2/T(k+1) ); (continued fraction). - _Sergei N. Gladkovskii_, Nov 12 2013",
				"a(n) = (-8)^n*skp(n, 7/8), where skp(n,x) are the Swiss-Knife polynomials A153641. - _Peter Luschny_, Apr 19 2014"
			],
			"xref": [
				"For denominators see A001025."
			],
			"keyword": "sign,frac",
			"offset": "0,2",
			"author": "_N. J. A. Sloane_, Nov 07 2009",
			"references": 1,
			"revision": 10,
			"time": "2014-04-19T14:41:40-04:00",
			"created": "2010-06-01T03:00:00-04:00"
		}
	]
}