{
	"greeting": "Greetings from The On-Line Encyclopedia of Integer Sequences! http://oeis.org/",
	"query": "id:A156634",
	"count": 1,
	"start": 0,
	"results": [
		{
			"number": 156634,
			"data": "1,9,324,729,104976,236196,34012224,76527504,11019960576,24794911296,3570467226624,8033551259904,1156831381426176,2602870608208896,374813367582081024,843330077059682304,121439531096594251776",
			"name": "Denominator of Euler(n, 1/18).",
			"link": [
				"Vincenzo Librandi, \u003ca href=\"/A156634/b156634.txt\"\u003eTable of n, a(n) for n = 0..200\u003c/a\u003e"
			],
			"mathematica": [
				"Denominator[EulerE[Range[0, 30], 1/18]] (* _Vincenzo Librandi_, Sep 12 2016 *)"
			],
			"xref": [
				"For numerators see A156633."
			],
			"keyword": "nonn,frac",
			"offset": "0,2",
			"author": "_N. J. A. Sloane_, Nov 07 2009",
			"references": 4,
			"revision": 6,
			"time": "2016-09-12T02:57:31-04:00",
			"created": "2010-06-01T03:00:00-04:00"
		}
	]
}