{
	"greeting": "Greetings from The On-Line Encyclopedia of Integer Sequences! http://oeis.org/",
	"query": "id:A156181",
	"count": 1,
	"start": 0,
	"results": [
		{
			"number": 156181,
			"data": "1,3,13,65,403,2669,18759,136477,1020373,7785741,60395165,474817833,3775005799,30298719855,245167429681,1997854542163,16381233095985,135050690760831,1118800428892925,9308791880014333,77755512086256649",
			"name": "Number of solutions to e(1)*1 + e(2)*2 + ... + e(n)*n = e(-1)*1 + e(-2)*2 + ... + e(-n)*n, where e(j) are from {-1,0,1}, j=-n,...,n.",
			"comment": [
				"a(n) = coefficient of x^(n*(n+1)) in the polynomial Product_{k=1..n} (1 + x^k + x^(2*k))^2, and is the maximal such coefficient as well."
			],
			"link": [
				"Ray Chandler, \u003ca href=\"/A156181/b156181.txt\"\u003eTable of n, a(n) for n = 0..1052\u003c/a\u003e (terms \u003c 10^1000)",
				"Steven R. Finch, \u003ca href=\"/A000980/a000980.pdf\"\u003eSignum equations and extremal coefficients\u003c/a\u003e, February 7, 2009. [Cached copy, with permission of the author]"
			],
			"mathematica": [
				"Table[Coefficient[Expand[Product[(1 + x^k + x^(2*k))^2, {k, 1, n}]],x, n*(n + 1)], {n, 0, 20}]"
			],
			"xref": [
				"Cf. A007576, A047653, A063865."
			],
			"keyword": "nonn",
			"offset": "0,2",
			"author": "_Steven Finch_, Feb 05 2009",
			"references": 2,
			"revision": 18,
			"time": "2017-07-01T07:35:37-04:00",
			"created": "2009-02-27T03:00:00-05:00"
		}
	]
}