{
	"greeting": "Greetings from The On-Line Encyclopedia of Integer Sequences! http://oeis.org/",
	"query": "id:A156525",
	"count": 1,
	"start": 0,
	"results": [
		{
			"number": 156525,
			"data": "1,2,24,552,39012,11870808,25684597626,1292153534554332",
			"name": "Number of n X n arrays of squares of integers, symmetric about main diagonal, with all rows summing to 81.",
			"example": [
				"From Neven Juric, Mar 01 2010: To illustrate a(3) =24:",
				"{(0,0,81),(0,81,0),(81,0,0)}",
				"{(0,81,0),(81,0,0),(0,0,81)}",
				"{(1,16,64),(16,49,16),(64,16,1)}",
				"{(1,16,64),(16,64,1),(64,1,16)}",
				"{(1,64,16),(64,1,16),(16,16,49)}",
				"{(1,64,16),(64,16,1),(16,1,64)}",
				"{(9,36,36),(36,9,36),(36,36,9)}",
				"{(9,36,36),(36,36,9),(36,9,36)}",
				"{(16,1,64),(1,64,16),(64,16,1)}",
				"{(16,16,49),(16,49,16),(49,16,16)}",
				"{(16,49,16),(49,16,16),(16,16,49)}",
				"{(16,64,1),(64,1,16),(1,16,64)}",
				"{(36,9,36),(9,36,36),(36,36,9)}",
				"{(36,36,9),(36,9,36),(9,36,36)}",
				"{(49,16,16),(16,1,64),(16,64,1)},",
				"{(49,16,16),(16,16,49),(16,49,16)}",
				"{(49,16,16),(16,49,16),(16,16,49)}",
				"{(49,16,16),(16,64,1),(16,1,64)}",
				"{(64,1,16),(1,16,64),(16,64,1)}",
				"{(64,1,16),(1,64,16),(16,16,49)}",
				"{(64,16,1),(16,1,64),(1,64,16)}",
				"{(64,16,1),(16,49,16),(1,16,64)}",
				"{(81,0,0),(0,0,81),(0,81,0)}",
				"{(81,0,0),(0,81,0),(0,0,81)}"
			],
			"keyword": "nonn",
			"offset": "1,2",
			"author": "_R. H. Hardin_ Feb 09 2009",
			"references": 0,
			"revision": 5,
			"time": "2015-12-18T18:17:18-05:00",
			"created": "2009-02-27T03:00:00-05:00"
		}
	]
}