{
	"greeting": "Greetings from The On-Line Encyclopedia of Integer Sequences! http://oeis.org/",
	"query": "id:A156467",
	"count": 1,
	"start": 0,
	"results": [
		{
			"number": 156467,
			"data": "2,2,44,76,1804,8172,1022492,7436362,4686068520,71763897760,74820160016800",
			"name": "Number of n X n arrays of squares of integers, symmetric about both diagonal and antidiagonal, with all rows summing to 17.",
			"keyword": "nonn",
			"offset": "2,1",
			"author": "_R. H. Hardin_ Feb 09 2009",
			"references": 0,
			"revision": 4,
			"time": "2015-12-18T18:17:16-05:00",
			"created": "2009-02-27T03:00:00-05:00"
		}
	]
}