{
	"greeting": "Greetings from The On-Line Encyclopedia of Integer Sequences! http://oeis.org/",
	"query": "id:A156493",
	"count": 1,
	"start": 0,
	"results": [
		{
			"number": 156493,
			"data": "1,0,2,6,72,804,78655,960648,232585695,21668424870",
			"name": "Number of n X n arrays of squares of integers, symmetric under 90 degree rotation, with all rows summing to 32.",
			"keyword": "nonn",
			"offset": "2,3",
			"author": "_R. H. Hardin_ Feb 09 2009",
			"references": 0,
			"revision": 4,
			"time": "2015-12-18T18:17:17-05:00",
			"created": "2009-02-27T03:00:00-05:00"
		}
	]
}