{
	"greeting": "Greetings from The On-Line Encyclopedia of Integer Sequences! http://oeis.org/",
	"query": "id:A156658",
	"count": 1,
	"start": 0,
	"results": [
		{
			"number": 156658,
			"data": "2,3,5,7,11,23,29,41,47,53,59,83,89,107,113,131,167,173,179,191,227,233,239,251,263,281,293,347,359,383,419,431,443,467,479,491,503,509,563,587,593,641,653,659,683,719,743,761,809,839,863,887,911,953,983,1013",
			"name": "Primes p such that also 2*p+1 or (p-1)/2 is prime.",
			"comment": [
				"Union of A005384 and A005385;",
				"The intersection of A005384 and A005385 is given by A059455.",
				"A156660(a(n)) + A156659(a(n)) \u003e 0;",
				"primes occurring in Cunningham chains of the first kind.",
				"A156876 gives the number of these numbers \u003c= n. [_Reinhard Zumkeller_, Feb 18 2009]"
			],
			"link": [
				"Robert Price, \u003ca href=\"/A156658/b156658.txt\"\u003eTable of n, a(n) for n = 1..14198\u003c/a\u003e",
				"Wikipedia, \u003ca href=\"http://en.wikipedia.org/wiki/Sophie_Germain_prime\"\u003eSophie Germain prime\u003c/a\u003e",
				"Wikipedia, \u003ca href=\"http://en.wikipedia.org/wiki/Safe_prime\"\u003eSafe prime\u003c/a\u003e",
				"Wikipedia, \u003ca href=\"http://en.wikipedia.org/wiki/Cunningham_chain\"\u003eCunningham chain\u003c/a\u003e"
			],
			"maple": [
				"select(t -\u003e isprime(t) and (isprime(2*t+1) or isprime((t-1)/2)), [2,seq(p,p=3..10000,2)]); # _Robert Israel_, May 03 2016"
			],
			"mathematica": [
				"Select[Prime@ Range@ 180, PrimeQ[2 # + 1] || PrimeQ[(# - 1)/2] \u0026] (* _Michael De Vlieger_, Apr 06 2016 *)"
			],
			"program": [
				"(PARI) lista(nn) = {forprime(p=2, nn, if (isprime(2*p+1) || isprime((p-1)/2), print1(p, \", \")););} \\\\ _Michel Marcus_, Apr 06 2016"
			],
			"xref": [
				"Cf. A005384, A005385, A059500, A156659, A156660, A156876."
			],
			"keyword": "nonn",
			"offset": "1,1",
			"author": "_Reinhard Zumkeller_, Feb 13 2009",
			"references": 3,
			"revision": 21,
			"time": "2020-07-22T11:39:23-04:00",
			"created": "2009-02-27T03:00:00-05:00"
		}
	]
}