{
	"greeting": "Greetings from The On-Line Encyclopedia of Integer Sequences! http://oeis.org/",
	"query": "id:A157863",
	"count": 1,
	"start": 0,
	"results": [
		{
			"number": 157863,
			"data": "103708801,414777601,933206401,1658995201,2592144001,3732652801,5080521601,6635750401,8398339201,10368288001,12545596801,14930265601,17522294401,20321683201,23328432001,26542540801,29964009601,33592838401",
			"name": "a(n) = 103680000*n^2 + 28800*n + 1.",
			"comment": [
				"The identity (103680000*n^2 + 28800*n + 1)^2 - (3600*n^2 + n)*(1728000*n + 240)^2 = 1 can be written as a(n)^2 - A157861(n)*A157862(n)^2 = 1. - _Vincenzo Librandi_, Jan 25 2012"
			],
			"link": [
				"Vincenzo Librandi, \u003ca href=\"/A157863/b157863.txt\"\u003eTable of n, a(n) for n = 1..10000\u003c/a\u003e",
				"Vincenzo Librandi, \u003ca href=\"http://mathforum.org/kb/message.jspa?messageID=5785989\u0026amp;tstart=0\"\u003eX^2-AY^2=1\u003c/a\u003e",
				"\u003ca href=\"/index/Rec#order_03\"\u003eIndex entries for linear recurrences with constant coefficients\u003c/a\u003e, signature (3,-3,1)."
			],
			"formula": [
				"a(n) = 3*a(n-1) - 3*a(n-2) + a(n-3). - _Vincenzo Librandi_, Jan 25 2012",
				"G.f.: x*(-x^2 - 103651198*x - 103708801)/(x-1)^3. - _Vincenzo Librandi_, Jan 25 2012"
			],
			"mathematica": [
				"LinearRecurrence[{3,-3,1},{103708801,414777601,933206401},40] (* _Vincenzo Librandi_, Jan 25 2012 *)",
				"Table[103680000*n^2+28800*n+1,{n,20}] (* _Harvey P. Dale_, May 27 2020 *)"
			],
			"program": [
				"(MAGMA) I:=[103708801, 414777601, 933206401]; [n le 3 select I[n] else 3*Self(n-1)-3*Self(n-2)+1*Self(n-3): n in [1..40]]; // _Vincenzo Librandi_, Jan 25 2012",
				"(PARI) for(n=1, 22, print1(103680000*n^2 + 28800*n + 1\", \")); \\\\ _Vincenzo Librandi_, Jan 25 2012"
			],
			"xref": [
				"Cf. A157861, A157862."
			],
			"keyword": "nonn,easy",
			"offset": "1,1",
			"author": "_Vincenzo Librandi_, Mar 08 2009",
			"references": 3,
			"revision": 21,
			"time": "2020-05-27T11:44:19-04:00",
			"created": "2010-06-01T03:00:00-04:00"
		}
	]
}