{
	"greeting": "Greetings from The On-Line Encyclopedia of Integer Sequences! http://oeis.org/",
	"query": "id:A157111",
	"count": 1,
	"start": 0,
	"results": [
		{
			"number": 157111,
			"data": "30996,168838,306680,444522,582364,720206,858048,995890,1133732,1271574,1409416,1547258,1685100,1822942,1960784,2098626,2236468,2374310,2512152,2649994,2787836,2925678,3063520,3201362,3339204,3477046",
			"name": "a(n) = 137842*n - 106846.",
			"comment": [
				"The identity (5651522*n^2 - 8761372*n + 3395619)^2 - (1681*n^2 - 2606*n + 1010)*(137842*n - 106846)^2 = 1 can be written as A157112(n)^2 - A157110(n)*a(n)^2 = 1. - _Vincenzo Librandi_, Jan 25 2012"
			],
			"link": [
				"Vincenzo Librandi, \u003ca href=\"/A157111/b157111.txt\"\u003eTable of n, a(n) for n = 1..10000\u003c/a\u003e",
				"\u003ca href=\"/index/Rec#order_02\"\u003eIndex entries for linear recurrences with constant coefficients\u003c/a\u003e, signature (2,-1)."
			],
			"formula": [
				"a(n) = 2*a(n-1) - a(n-2). - _Vincenzo Librandi_, Jan 25 2012",
				"G.f.: x*(106846*x + 30996)/(x-1)^2. - _Vincenzo Librandi_, Jan 25 2012"
			],
			"mathematica": [
				"LinearRecurrence[{2,-1},{30996,168838},40] (* _Vincenzo Librandi_, Jan 25 2012 *)"
			],
			"program": [
				"(PARI) a(n)=137842*n-106846 \\\\ _Charles R Greathouse IV_, Dec 28 2011",
				"(MAGMA) I:=[30996, 168838]; [n le 2 select I[n] else 2*Self(n-1)-Self(n-2): n in [1..50]]; // _Vincenzo Librandi_, Jan 25 2012"
			],
			"xref": [
				"Cf. A157110, A157112."
			],
			"keyword": "nonn,easy",
			"offset": "1,1",
			"author": "_Vincenzo Librandi_, Feb 23 2009",
			"references": 4,
			"revision": 21,
			"time": "2018-08-19T02:24:36-04:00",
			"created": "2009-02-27T03:00:00-05:00"
		}
	]
}