{
	"greeting": "Greetings from The On-Line Encyclopedia of Integer Sequences! http://oeis.org/",
	"query": "id:A157439",
	"count": 1,
	"start": 0,
	"results": [
		{
			"number": 157439,
			"data": "2,2,3,2,2,3,2,2,2,3,2,2,3,2,2,2,3,2,2,2,3,3,2,2,2,3,2,2,3,2,2,3,2,2,3,2,2,2,3,2,2,2,3,3,2,2,2,3,2",
			"name": "A090822 without every 1,1,2.",
			"comment": [
				"This has a very complicated structure and - despite appearances - is not periodic. - _N. J. A. Sloane_, Mar 02 2009"
			],
			"xref": [
				"A094915."
			],
			"keyword": "nonn",
			"offset": "0,1",
			"author": "_Paul Curtz_, Mar 01 2009",
			"references": 0,
			"revision": 3,
			"time": "2013-05-01T21:05:53-04:00",
			"created": "2010-06-01T03:00:00-04:00"
		}
	]
}