{
	"greeting": "Greetings from The On-Line Encyclopedia of Integer Sequences! http://oeis.org/",
	"query": "id:A157104",
	"count": 1,
	"start": 0,
	"results": [
		{
			"number": 157104,
			"data": "0,1,1,4,1,5,1,6,7,1,16,1,9,8,1,21,1,24,10,13,1,10,15,32,1,31,1,14,19,12,60,1,21,16,1,41,1,48,39,25,1,14,45,20,56,1,16,22,31,1,92,1,33,51,18,61,1,72,26,59,1,1,39,55,80,18,71,1,43,1,124,22,45,32,1,123,20,96,34,49",
			"name": "Arithmetic derivative of cubefree numbers.",
			"comment": [
				"a(n) = A003415(A004709(n))."
			],
			"link": [
				"Reinhard Zumkeller, \u003ca href=\"/A157104/b157104.txt\"\u003eTable of n, a(n) for n = 1..10000\u003c/a\u003e"
			],
			"mathematica": [
				"Reap[Do[f = FactorInteger[n]; If[n == 1, Sow[0], If[And @@ (# \u003c= 2 \u0026 ) /@ f[[All, 2]], Sow[Total[n*(f[[All, 2]]/f[[All, 1]])]]]], {n, 1, 100}]][[2, 1]] (* _Jean-François Alcover_, May 16 2013 *)"
			],
			"program": [
				"(Haskell)",
				"a157104 = a003415 . a004709  -- _Reinhard Zumkeller_, May 24 2013"
			],
			"xref": [
				"Cf. A068328, A068720."
			],
			"keyword": "nonn",
			"offset": "1,4",
			"author": "_Reinhard Zumkeller_, Feb 23 2009",
			"references": 1,
			"revision": 10,
			"time": "2017-05-05T10:56:38-04:00",
			"created": "2009-02-27T03:00:00-05:00"
		}
	]
}