{
	"greeting": "Greetings from The On-Line Encyclopedia of Integer Sequences! http://oeis.org/",
	"query": "id:A157556",
	"count": 1,
	"start": 0,
	"results": [
		{
			"number": 157556,
			"data": "1,3,18,3010,166725,8371713,307008163,8869151172,244109996040,6625340217595,174712060895757,4452494561526960,108958868923534266,2551477805087525055,57187304932168982070,1233918981730653994884",
			"name": "Half the number of length n integer sequences with sum zero and sum of squares 1152.",
			"link": [
				"R. H. Hardin, \u003ca href=\"/A157556/b157556.txt\"\u003eTable of n, a(n) for n=2..50\u003c/a\u003e"
			],
			"formula": [
				"[cache enabling] count(n,s,ss)-\u003ecount(n,t,tt) where t=s mod n, q=(t-s)/n, tt=ss+2*q*s+n*q^2; count(n,t,tt)=sum[i^2\u003c=tt]{ count(n-1,t-i,tt-i^2) }. a(n)=count(n,0,1152)/2."
			],
			"keyword": "nonn",
			"offset": "2,2",
			"author": "_R. H. Hardin_ Mar 02 2009",
			"references": 1,
			"revision": 4,
			"time": "2012-03-31T12:35:25-04:00",
			"created": "2010-06-01T03:00:00-04:00"
		}
	]
}