{
	"greeting": "Greetings from The On-Line Encyclopedia of Integer Sequences! http://oeis.org/",
	"query": "id:A157544",
	"count": 1,
	"start": 0,
	"results": [
		{
			"number": 157544,
			"data": "1,3,18,770,20805,522753,9593507,138576324,1907158560,25880343115,341234146077,4348150676532,53202598238062,622919366722485,6980872709154870,75312434538456228,787522030868617855",
			"name": "Half the number of length n integer sequences with sum zero and sum of squares 288.",
			"link": [
				"R. H. Hardin, \u003ca href=\"/A157544/b157544.txt\"\u003eTable of n, a(n) for n=2..50\u003c/a\u003e"
			],
			"formula": [
				"[cache enabling] count(n,s,ss)-\u003ecount(n,t,tt) where t=s mod n, q=(t-s)/n, tt=ss+2*q*s+n*q^2; count(n,t,tt)=sum[i^2\u003c=tt]{ count(n-1,t-i,tt-i^2) }. a(n)=count(n,0,288)/2."
			],
			"keyword": "nonn",
			"offset": "2,2",
			"author": "_R. H. Hardin_ Mar 02 2009",
			"references": 1,
			"revision": 4,
			"time": "2012-03-31T12:35:25-04:00",
			"created": "2010-06-01T03:00:00-04:00"
		}
	]
}