{
	"greeting": "Greetings from The On-Line Encyclopedia of Integer Sequences! http://oeis.org/",
	"query": "id:A157045",
	"count": 1,
	"start": 0,
	"results": [
		{
			"number": 157045,
			"data": "1,1,0,1,1,0,1,1,1,0,1,1,2,0,0,1,1,2,2,0,0,1,1,2,3,2,0,0,1,1,2,3,4,1,0,0,1,1,2,3,5,4,1,0,0,1,1,2,3,5,6,5,0,0,0,1,1,2,3,5,7,8,4,0,0,0,1,1,2,3,5,7,10,9,4,0,0,0,1,1,2,3,5,7,11,12,11,3,0,0,0,1,1,2,3,5,7,11,14,16,11",
			"name": "Triangular table: number of partitions of n into exactly n-k parts, each \u003c= n-k. Same as A157044 but with rows reversed.",
			"comment": [
				"See A157044. Rows approach the partition numbers."
			],
			"reference": [
				"George E. Andrews, The Theory of Partitions, Addison-Wesley, Reading, Mass., 1976 (Theorem 1.5)."
			],
			"mathematica": [
				"Table[T[n-1,n-k,n-k+2]-T[n-1,n-k-1,n-k+2],{n,1,9},{k,1,n}] with T[n,a,b] as defined in A047993."
			],
			"xref": [
				"Cf. A000041, A157044, A157046, A047993"
			],
			"keyword": "nonn,tabl",
			"offset": "1,13",
			"author": "_Wouter Meeussen_, Feb 22 2009",
			"references": 1,
			"revision": 3,
			"time": "2012-03-30T18:37:44-04:00",
			"created": "2009-02-27T03:00:00-05:00"
		}
	]
}