{
	"greeting": "Greetings from The On-Line Encyclopedia of Integer Sequences! http://oeis.org/",
	"query": "id:A157243",
	"count": 1,
	"start": 0,
	"results": [
		{
			"number": 157243,
			"data": "1,1,1,1,3,1,1,6,6,1,1,10,336,10,1,1,15,825,825,15,1,1,21,1716,197676,1716,21,1,1,28,3185,512050,512050,3185,28,1,1,36,5440,1163800,294296640,1163800,5440,36,1,1,45,8721,2395575,778076145,778076145,2395575,8721,45,1",
			"name": "Triangle T(n, k) = A001263(n*f(n,k) + 1, f(n,k) + 1), where f(n, k) = k if k \u003c= floor(n/2) otherwise n-k, read by rows.",
			"link": [
				"G. C. Greubel, \u003ca href=\"/A157243/b157243.txt\"\u003eRows n = 0..50 of the triangle, flattened\u003c/a\u003e"
			],
			"formula": [
				"T(n, k) = A001263(n*f(n,k) + 1, f(n,k) + 1), where f(n, k) = k if k \u003c= floor(n/2) otherwise n-k.",
				"T(n, n-k) = T(n, k)).",
				"T(n, 1) = A000217(n). - _G. C. Greubel_, Jan 11 2022"
			],
			"example": [
				"Triangle begins as:",
				"  1;",
				"  1,  1;",
				"  1,  3,    1;",
				"  1,  6,    6,       1;",
				"  1, 10,  336,      10,         1;",
				"  1, 15,  825,     825,        15,         1;",
				"  1, 21, 1716,  197676,      1716,        21,       1;",
				"  1, 28, 3185,  512050,    512050,      3185,      28,    1;",
				"  1, 36, 5440, 1163800, 294296640,   1163800,    5440,   36,  1;",
				"  1, 45, 8721, 2395575, 778076145, 778076145, 2395575, 8721, 45, 1;"
			],
			"mathematica": [
				"f[n_, k_]:= If[k\u003c=Floor[n/2], k, n-k];",
				"A001263[n_, k_]:= Binomial[n-1,k-1]*Binomial[n,k]/(n-k+1);",
				"T[n_, k_]:= A001263[n*f[n,k] +1, f[n,k] +1];",
				"Table[T[n, k], {n,0,12}, {k,0,n}]//Flatten (* modified by _G. C. Greubel_, Jan 11 2022 *)"
			],
			"program": [
				"(MAGMA)",
				"f:= func\u003c n,k | k le Floor(n/2) select k else n-k \u003e;",
				"A001263:= func\u003c n,k | Binomial(n-1,k-1)*Binomial(n,k)/(n-k+1) \u003e;",
				"[A001263(n*f(n,k)+1, f(n,k)+1): k in [0..n], n in [0..12]]; // _G. C. Greubel_, Jan 11 2022",
				"(Sage)",
				"def f(n,k): return k if (k \u003c= (n//2)) else n-k",
				"def A001263(n,k): return binomial(n-1,k-1)*binomial(n,k)/(n-k+1)",
				"flatten([[A001263(n*f(n,k)+1, f(n,k)+1) for k in (0..n)] for n in (0..12)]) # _G. C. Greubel_, Jan 11 2022"
			],
			"xref": [
				"Cf. A000217, A001263, A157219, A157221."
			],
			"keyword": "nonn,tabl,changed",
			"offset": "0,5",
			"author": "_Roger L. Bagula_, Feb 25 2009",
			"ext": [
				"Edited by _G. C. Greubel_, Jan 11 2022"
			],
			"references": 0,
			"revision": 8,
			"time": "2022-01-11T02:18:28-05:00",
			"created": "2009-02-27T03:00:00-05:00"
		}
	]
}