{
	"greeting": "Greetings from The On-Line Encyclopedia of Integer Sequences! http://oeis.org/",
	"query": "id:A157635",
	"count": 1,
	"start": 0,
	"results": [
		{
			"number": 157635,
			"data": "1,1,1,1,2,1,1,6,6,1,1,12,16,12,1,1,20,30,30,20,1,1,30,48,54,48,30,1,1,42,70,84,84,70,42,1,1,56,96,120,128,120,96,56,1,1,72,126,162,180,180,162,126,72,1,1,90,160,210,240,250,240,210,160,90,1",
			"name": "Triangle read by rows: T(n,m) = 1 if n*m*(n-m) = 0, and n*m*(n-m) otherwise.",
			"comment": [
				"Row sums are: {1, 2, 4, 14, 42, 102, 212, 394, 674, 1082, 1652, ...}."
			],
			"link": [
				"G. C. Greubel, \u003ca href=\"/A157635/b157635.txt\"\u003eRows n = 0..100 of triangle, flattened\u003c/a\u003e"
			],
			"formula": [
				"T(n,m) = 1 if n*m*(n - m) = 0, and n*m*(n - m) otherwise."
			],
			"example": [
				"Triangle begins as:",
				"   1;",
				"   1,  1;",
				"   1,  2,  1;",
				"   1,  6,  6,  1;",
				"   1, 12, 16, 12,  1;",
				"   1, 20, 30, 30, 20,  1;",
				"   1, 30, 48, 54, 48, 30, 1;"
			],
			"mathematica": [
				"Table[If[n*m*(n-m)==0, 1, n*m*(n-m)], {n, 0, 10}, {m, 0, n}]//Flatten (* modified by _G. C. Greubel_, Apr 09 2019 *)"
			],
			"program": [
				"(PARI) {T(n,k) = if(n*k*(n-k)==0, 1, n*k*(n-k))}; \\\\ _G. C. Greubel_, Apr 09 2019",
				"(MAGMA) [[n*k*(n-k) eq 0 select 1 else n*k*(n-k): k in [0..n]]: n in [0..10]]; // _G. C. Greubel_, Apr 09 2019",
				"(Sage)",
				"@CachedFunction",
				"def T(n, k):",
				"   if (n*k*(n-k)==0): return 1",
				"   else: return n*k*(n-k)",
				"[[T(n, k) for k in (0..n)] for n in (0..10)] # _G. C. Greubel_, Apr 09 2019"
			],
			"keyword": "nonn,tabl",
			"offset": "0,5",
			"author": "_Roger L. Bagula_, Mar 03 2009",
			"ext": [
				"Edited by _G. C. Greubel_, Apr 09 2019"
			],
			"references": 2,
			"revision": 6,
			"time": "2019-04-10T03:02:32-04:00",
			"created": "2010-06-01T03:00:00-04:00"
		}
	]
}