{
	"greeting": "Greetings from The On-Line Encyclopedia of Integer Sequences! http://oeis.org/",
	"query": "id:A157607",
	"count": 1,
	"start": 0,
	"results": [
		{
			"number": 157607,
			"data": "1,-23,-108,27071,115452,-26283503,-334107828,429767291407,1819979438652,-753195762286673,-15947239121614548,16134359976852888461,204964136984698941852,-122537696939827090505243,-3632221560088486903716468,20044840607136139913098439999",
			"name": "Numerator of Euler(n, 4/31).",
			"xref": [
				"For denominators see A157499."
			],
			"keyword": "sign,frac",
			"offset": "0,2",
			"author": "_N. J. A. Sloane_, Nov 07 2009",
			"references": 0,
			"revision": 2,
			"time": "2012-03-30T16:51:17-04:00",
			"created": "2010-06-01T03:00:00-04:00"
		}
	]
}