{
	"greeting": "Greetings from The On-Line Encyclopedia of Integer Sequences! http://oeis.org/",
	"query": "id:A157468",
	"count": 1,
	"start": 0,
	"results": [
		{
			"number": 157468,
			"data": "3,5,13,19,23,53,73,83,89,109,149,179,223,229,239,263,269,283,313,349,383,419,439,443,463,569,593,643,653,673,739,859,863,919,929,1009,1069,1093,1123,1289,1319,1373,1409,1429,1433,1439,1459",
			"name": "Primes of the form sqrt(p-1)-1, where p is a prime.",
			"link": [
				"Alois P. Heinz, \u003ca href=\"/A157468/b157468.txt\"\u003eTable of n, a(n) for n = 1..10000\u003c/a\u003e"
			],
			"example": [
				"3 is in the sequence because 3 = sqrt(17 - 1) - 1, where 17 is prime.",
				"5 is in the sequence because 5 = sqrt(37 - 1) - 1, where 37 is prime."
			],
			"mathematica": [
				"Select[Sqrt[#-1]-1\u0026/@Prime[Range[200000]],PrimeQ]  (* _Harvey P. Dale_, May 19 2012 *)"
			],
			"xref": [
				"Cf. A070155, A127435, A127436, A157467.",
				"Column k=1 of A238048 and A238086."
			],
			"keyword": "nonn",
			"offset": "1,1",
			"author": "_Vladimir Joseph Stephan Orlovsky_, Mar 01 2009",
			"references": 8,
			"revision": 30,
			"time": "2018-09-28T10:15:34-04:00",
			"created": "2010-06-01T03:00:00-04:00"
		}
	]
}