{
	"greeting": "Greetings from The On-Line Encyclopedia of Integer Sequences! http://oeis.org/",
	"query": "id:A157942",
	"count": 1,
	"start": 0,
	"results": [
		{
			"number": 157942,
			"data": "4,6,8,9,12,15,18,21,24,25,30,35,40,45,49,56,63,70,77,84,91,98,105,112,119,121,132,143,154,165,169,182,195,208,221,234,247,260,273,286,289,306,323,340,357,361,380,399,418,437,456,475,494,513,529,552,575,598",
			"name": "Numbers n divisible by the largest prime \u003c= sqrt(n), A007917(A000196(n)).",
			"comment": [
				"Includes squares of primes (A001248; exactly the cases where we have \"=\" in the definition) and products of pairs of consecutive primes (A006094) as subsequences."
			],
			"mathematica": [
				"Select[Range[4,599],IntegerQ[#/Prime[PrimePi[Sqrt[#]]]]\u0026] (* _Jayanta Basu_, May 03 2013 *)"
			],
			"program": [
				"(PARI) for( n=4,999, n % precprime(sqrtint(n)) | print1(n\",\"))"
			],
			"keyword": "nonn",
			"offset": "1,1",
			"author": "_M. F. Hasler_, Mar 09 2009",
			"references": 5,
			"revision": 6,
			"time": "2013-05-03T14:26:16-04:00",
			"created": "2010-06-01T03:00:00-04:00"
		}
	]
}