{
	"greeting": "Greetings from The On-Line Encyclopedia of Integer Sequences! http://oeis.org/",
	"query": "id:A157156",
	"count": 1,
	"start": 0,
	"results": [
		{
			"number": 157156,
			"data": "1,1,1,1,7,1,1,43,43,1,1,259,806,259,1,1,1555,11720,11720,1555,1,1,9331,151215,338770,151215,9331,1,1,55987,1828221,7892635,7892635,1828221,55987,1,1,335923,21286168,162474781,304389070,162474781,21286168,335923,1",
			"name": "Triangle T(n, k, m) = (m*(n-k) + 1)*T(n-1, k-1, m) + (m*k + 1)*T(n-1, k, m) - m*k*(n-k)*T(n-2, k-1, m) with T(n, 0, m) = T(n, n, m) = 1 and m = 5, read by rows.",
			"link": [
				"G. C. Greubel, \u003ca href=\"/A157156/b157156.txt\"\u003eRows n = 0..50 of the triangle, flattened\u003c/a\u003e"
			],
			"formula": [
				"T(n, k, m) = (m*(n-k) + 1)*T(n-1, k-1, m) + (m*k + 1)*T(n-1, k, m) - m*k*(n-k)*T(n-2, k-1, m) with T(n, 0, m) = T(n, n, m) = 1 and m = 5.",
				"T(n, n-k, m) = T(n, k, m).",
				"T(n, 1, 5) = A003464(n). - _G. C. Greubel_, Jan 10 2022"
			],
			"example": [
				"Triangle begins as:",
				"  1;",
				"  1,      1;",
				"  1,      7,        1;",
				"  1,     43,       43,         1;",
				"  1,    259,      806,       259,         1;",
				"  1,   1555,    11720,     11720,      1555,         1;",
				"  1,   9331,   151215,    338770,    151215,      9331,        1;",
				"  1,  55987,  1828221,   7892635,   7892635,   1828221,    55987,      1;",
				"  1, 335923, 21286168, 162474781, 304389070, 162474781, 21286168, 335923, 1;"
			],
			"mathematica": [
				"T[n_, k_, m_]:= T[n, k, m]= If[k==0 || k==n, 1, (m*(n-k)+1)*T[n-1,k-1,m] + (m*k+1)*T[n-1,k,m] - m*k*(n-k)*T[n-2,k-1,m]];",
				"Table[T[n,k,5], {n,0,10}, {k,0,n}]//Flatten (* modified by _G. C. Greubel_, Jan 10 2022 *)"
			],
			"program": [
				"(Sage)",
				"@CachedFunction",
				"def T(n,k,m):  # A157156",
				"    if (k==0 or k==n): return 1",
				"    else: return (m*(n-k) +1)*T(n-1,k-1,m) + (m*k+1)*T(n-1,k,m) - m*k*(n-k)*T(n-2,k-1,m)",
				"flatten([[T(n,k,5) for k in (0..n)] for n in (0..20)]) # _G. C. Greubel_, Jan 10 2022"
			],
			"xref": [
				"Cf. A007318 (m=0), A157152 (m=1), A157153 (m=2), A157154 (m=3), A157155 (m=4), A157156 (m=5).",
				"Cf. A157147, A157148, A157149, A157150, A157151, A157207, A157208, A157209, A157210, A157211, A157212, A157268, A157272, A157273, A157274, A157275.",
				"Cf. A003464."
			],
			"keyword": "nonn,tabl,changed",
			"offset": "0,5",
			"author": "_Roger L. Bagula_, Feb 24 2009",
			"ext": [
				"Edited by _G. C. Greubel_, Jan 10 2022"
			],
			"references": 0,
			"revision": 6,
			"time": "2022-01-10T16:42:58-05:00",
			"created": "2009-02-27T03:00:00-05:00"
		}
	]
}