{
	"greeting": "Greetings from The On-Line Encyclopedia of Integer Sequences! http://oeis.org/",
	"query": "id:A158511",
	"count": 1,
	"start": 0,
	"results": [
		{
			"number": 158511,
			"data": "1,-1,0,0,1,-1,0,1,-1,0,1,-1,0,0,0,0,1,-1,0,0,0,0,1,-1,0,0,1,-1,1,-1,0,0,0,1,-1,0,2,-1,-1,0,1,3,-2,-1,-1,0,1,-1,0,0,0,0,2,-1,-1,1,-1,0,1,-1,0,0,0,0,1,4,-2,-1,-1,-1,1,-1,0,0,0,1,-1,0,2,-1,-1,0,1,2,-2,-1,0,0,1,-1,0",
			"name": "a(n) = A158504(n) - n.",
			"keyword": "sign",
			"offset": "1,37",
			"author": "_Paul Curtz_, Mar 20 2009",
			"ext": [
				"Edited by _N. J. A. Sloane_, Apr 07 2009",
				"More terms from _R. J. Mathar_, Apr 16 2009"
			],
			"references": 0,
			"revision": 4,
			"time": "2013-05-01T21:06:46-04:00",
			"created": "2010-06-01T03:00:00-04:00"
		}
	]
}