{
	"greeting": "Greetings from The On-Line Encyclopedia of Integer Sequences! http://oeis.org/",
	"query": "id:A158527",
	"count": 1,
	"start": 0,
	"results": [
		{
			"number": 158527,
			"data": "139,5997,78414,553810,2677065,10009839,31098172,84004164,203427495,451263505,931565514,1811000022,3346004389,5917977555,10077955320,16602342664,26561396547,41402273589,63048577990,94018466010",
			"name": "Sum of squares of consecutive positive noncubes.",
			"formula": [
				"a(n)=(1/2)*n*(1 + n)*(1 + 9*n + 27*n^2 + 42*n^3 + 36*n^4 + 18*n^5 + 6*n^6)"
			],
			"example": [
				"a(1)=139=2^2+...+7^2, a(2)=9^2+...+26^2."
			],
			"xref": [
				"Cf. A048396 Sum of consecutive noncubes."
			],
			"keyword": "nonn",
			"offset": "1,1",
			"author": "_Zak Seidov_, Mar 20 2009",
			"references": 1,
			"revision": 2,
			"time": "2012-03-30T17:26:29-04:00",
			"created": "2010-06-01T03:00:00-04:00"
		}
	]
}