{
	"greeting": "Greetings from The On-Line Encyclopedia of Integer Sequences! http://oeis.org/",
	"query": "id:A158338",
	"count": 1,
	"start": 0,
	"results": [
		{
			"number": 158338,
			"data": "6,15,16,21,27,33,35,51,57,65,77,87,93,105,111,135,141,143,155,161,165,177,183,185,189,201,203,215,231,237,245,267,275,285,287,321,335,341,345,357,371,375,377,393,413,425,429,437,447,453,465,471",
			"name": "Composite numbers k such that k - number of divisors of k = prime.",
			"comment": [
				"Subsequence of A067531. - _Michel Marcus_, Dec 22 2014"
			],
			"link": [
				"Amiram Eldar, \u003ca href=\"/A158338/b158338.txt\"\u003eTable of n, a(n) for n = 1..10000\u003c/a\u003e"
			],
			"example": [
				"6 is composite and has 4 divisors (1, 2, 3, 6); 6 - 4 = 2, which is prime, so 6 is in the sequence.",
				"15 is composite and has 4 divisors (1, 3, 5, 15); 15 - 4 = 11, which is prime, so 15 is in the sequence.",
				"16 is composite and has 5 divisors (1, 2, 4, 8, 16); 16 - 5 = 11, which is prime, so 16 is in the sequence."
			],
			"mathematica": [
				"Select[Range[500], CompositeQ[#] \u0026\u0026 PrimeQ[# - DivisorSigma[0, #]] \u0026] (* _Amiram Eldar_, Jul 16 2019 *)"
			],
			"program": [
				"(MAGMA) [k:k in [1..500]|not IsPrime(k) and IsPrime(k-#Divisors(k))]; // _Marius A. Burtea_, Jul 16 2019"
			],
			"xref": [
				"Cf. A000005, A000040, A002808, A035004, A067531."
			],
			"keyword": "nonn",
			"offset": "1,1",
			"author": "_Juri-Stepan Gerasimov_, Mar 16 2009, Nov 14 2009",
			"ext": [
				"Extended by _R. J. Mathar_, May 19 2010"
			],
			"references": 1,
			"revision": 15,
			"time": "2019-07-16T10:46:49-04:00",
			"created": "2010-06-01T03:00:00-04:00"
		}
	]
}