{
	"greeting": "Greetings from The On-Line Encyclopedia of Integer Sequences! http://oeis.org/",
	"query": "id:A158589",
	"count": 1,
	"start": 0,
	"results": [
		{
			"number": 158589,
			"data": "306,1278,2898,5166,8082,11646,15858,20718,26226,32382,39186,46638,54738,63486,72882,82926,93618,104958,116946,129582,142866,156798,171378,186606,202482,219006,236178,253998,272466,291582,311346,331758",
			"name": "a(n) = 324*n^2 - 18.",
			"comment": [
				"The identity (36*n^2 - 1)^2 - (324*n^2 - 18)*(2*n)^2 = 1 can be written as A136017(n)^2 - a(n)* A005843(n)^2 = 1."
			],
			"link": [
				"Vincenzo Librandi, \u003ca href=\"/A158589/b158589.txt\"\u003eTable of n, a(n) for n = 1..10000\u003c/a\u003e",
				"Vincenzo Librandi, \u003ca href=\"http://mathforum.org/kb/message.jspa?messageID=5785989\u0026amp;tstart=0\"\u003eX^2-AY^2=1\u003c/a\u003e",
				"\u003ca href=\"/index/Rec#order_03\"\u003eIndex entries for linear recurrences with constant coefficients\u003c/a\u003e, signature (3,-3,1)."
			],
			"formula": [
				"G.f.: -18*x*(17 + 20*x - x^2)/(x-1)^3. - _Vincenzo Librandi_, Feb 16 2012",
				"a(n) = 3*a(n-1) - 3*a(n-2) + a(n-3). - _Vincenzo Librandi_, Feb 16 2012"
			],
			"mathematica": [
				"LinearRecurrence[{3, -3, 1}, {306, 1278, 2898}, 40] (* _Vincenzo Librandi_, Feb 16 2012 *)",
				"324*Range[40]^2-18 (* _Harvey P. Dale_, Jul 25 2019 *)"
			],
			"program": [
				"(MAGMA) I:=[306, 1278, 2898]; [n le 3 select I[n] else 3*Self(n-1)-3*Self(n-2)+1*Self(n-3): n in [1..40]]; // _Vincenzo Librandi_, Feb 16 2012",
				"(PARI) for(n=1, 40, print1(324*n^2 - 18\", \")); \\\\ _Vincenzo Librandi_, Feb 16 2012"
			],
			"xref": [
				"Cf. A005843, A136017."
			],
			"keyword": "nonn,easy",
			"offset": "1,1",
			"author": "_Vincenzo Librandi_, Mar 22 2009",
			"ext": [
				"Comment rewritten by _R. J. Mathar_, Oct 28 2009"
			],
			"references": 1,
			"revision": 20,
			"time": "2019-07-25T21:02:49-04:00",
			"created": "2010-06-01T03:00:00-04:00"
		}
	]
}