{
	"greeting": "Greetings from The On-Line Encyclopedia of Integer Sequences! http://oeis.org/",
	"query": "id:A158005",
	"count": 1,
	"start": 0,
	"results": [
		{
			"number": 158005,
			"data": "1,17,207,2279,24553,268521,3042210,36153510,454208895,6059942223,86030083110,1299647574882,20865826165777,355277740280849,6399391841784282,121623163346687166,2432739049821421911,51089720946192154791,1123991502048375026337",
			"name": "Numbers of pattern-matching permutations of (1234) for the permutations of {1, 2, ..., n} on n = 4, 5, 6, ... elements.",
			"comment": [
				"Same series for 1243 1432 2134 2143 4123 3214 3412 2341 3421 4321 4312. - _R. H. Hardin_, Mar 15 2009"
			],
			"link": [
				"Alois P. Heinz, \u003ca href=\"/A158005/b158005.txt\"\u003eTable of n, a(n) for n = 4..170\u003c/a\u003e",
				"Eric Weisstein's World of Mathematics, \u003ca href=\"http://mathworld.wolfram.com/PermutationPattern.html\"\u003ePermutation Pattern\u003c/a\u003e"
			],
			"formula": [
				"a(n) = A214152(n,4) = A000142(n) - A005802(n) = A000142(n) - A214015(n,3). - _Alois P. Heinz_, Jul 05 2012"
			],
			"maple": [
				"h:= proc(l) local n; n:=nops(l); add(i, i=l)!/mul(mul(1+l[i]-j",
				"      +add(`if`(l[k]\u003e=j, 1, 0), k=i+1..n), j=1..l[i]), i=1..n)",
				"    end:",
				"g:= proc(n, i, l)",
				"      `if`(n=0 or i=1, h([l[], 1$n])^2, `if`(i\u003c1, 0,",
				"       add(g(n-i*j, i-1, [l[], i$j]), j=0..n/i)))",
				"    end:",
				"a:= n-\u003e n! -g(n, 3, []):",
				"seq(a(n), n=4..30);  # _Alois P. Heinz_, Jul 05 2012",
				"# second Maple program",
				"a:= proc(n) option remember; `if`(n\u003c3, 0, `if`(n=4, 1,",
				"      ((13-11*n-40*n^2+10*n^3+n^4)*a(n-1) -(10*n^2-9*n-31)*(n-1)^2*a(n-2)",
				"       +9*(n-1)^2*(n-2)^2*a(n-3)) / ((n-4)*(n+2)^2)))",
				"    end:",
				"seq(a(n), n=4..30);  # _Alois P. Heinz_, Sep 26 2012"
			],
			"mathematica": [
				"a[2] = a[3] = 0; a[4] = 1; a[n_] := a[n] = (1/((n-4)*(n+2)^2))* (9*(n-2)^2*a[n-3]*(n-1)^2 - (10*n^2 - 9*n - 31)*a[n-2]*(n-1)^2 + (n^4 + 10*n^3 - 40*n^2 - 11*n + 13)*a[n-1]); Table[a[n], {n, 4, 22}] (* _Jean-François Alcover_, Oct 22 2012, after _Alois P. Heinz_ *)"
			],
			"xref": [
				"Cf. A000142, A005802, A214015, A214152."
			],
			"keyword": "nonn",
			"offset": "4,2",
			"author": "_Eric W. Weisstein_, Mar 11 2009",
			"ext": [
				"More terms from _R. H. Hardin_, Mar 15 2009",
				"Two more terms from _Vladeta Jovovic_, Aug 17 2009",
				"Corrected a(19)-a(20) and extended by _Alois P. Heinz_, Jul 05 2012"
			],
			"references": 142,
			"revision": 25,
			"time": "2018-04-19T17:16:19-04:00",
			"created": "2010-06-01T03:00:00-04:00"
		}
	]
}