{
	"greeting": "Greetings from The On-Line Encyclopedia of Integer Sequences! http://oeis.org/",
	"query": "id:A158190",
	"count": 1,
	"start": 0,
	"results": [
		{
			"number": 158190,
			"data": "12,15,22,25,27,32,33,35,42,45,52,55,57,62,63,65,72,75,77,82,85,87,92,93,95,102,105,112,115,117,122,123,125,132,133,135,142,143,145,147,152,153,155,162,165,172,175,177,182,183,185,187,192,195,202,203,205,207",
			"name": "Nonprime numbers with final digit prime.",
			"comment": [
				"Prime digits are 2, 3, 5 or 7."
			],
			"formula": [
				"a(n) ~ 2.5n"
			],
			"xref": [
				"Cf. A141468."
			],
			"keyword": "nonn,base,less",
			"offset": "1,1",
			"author": "_Juri-Stepan Gerasimov_, Mar 13 2009",
			"ext": [
				"Entries checked by _R. J. Mathar_, May 19 2010"
			],
			"references": 0,
			"revision": 8,
			"time": "2016-06-14T04:20:18-04:00",
			"created": "2010-06-01T03:00:00-04:00"
		}
	]
}