{
	"greeting": "Greetings from The On-Line Encyclopedia of Integer Sequences! http://oeis.org/",
	"query": "id:A158925",
	"count": 1,
	"start": 0,
	"results": [
		{
			"number": 158925,
			"data": "0,0,0,0,0,1,1,1,1,2,1,2,2,3,3,3,3,3,4,4,3,4,4,4,5,4,5,5,5,4,4,5,6,6,5,5,7,7,8,7,7,7,7,7,8,8,8,8,7,8,9,8,7,7,6,6,7,7,7,8,7,7,8,8,9,9,10,10,10,9,9,10,10,9,9,9,9,10,10,11,11,11,11,11,11,11,11,11,10,11,10,11,11,11",
			"name": "Accumulated excess or deficit of prime powers in (1, A158924(n)].",
			"comment": [
				"Partial sums of A158924.",
				"First term \u003c 0: a(9503) = -1. - _Sidney Cadot_, Sep 23 2015"
			],
			"link": [
				"Daniel Forgues, \u003ca href=\"/A158925/b158925.txt\"\u003eTable of n, a(n) for n=1..9696\u003c/a\u003e"
			],
			"xref": [
				"Cf. A158924, \"Number of prime powers - 1 in interval (A158923(n-1), A158923(n)] expressing the excess or deficit relative to the asymptotic average of 1.\""
			],
			"keyword": "sign",
			"offset": "1,10",
			"author": "_Daniel Forgues_, Mar 31 2009",
			"ext": [
				"Corrected and edited by _Daniel Forgues_, Apr 22 2009"
			],
			"references": 3,
			"revision": 13,
			"time": "2016-02-23T13:18:23-05:00",
			"created": "2010-06-01T03:00:00-04:00"
		}
	]
}