{
	"greeting": "Greetings from The On-Line Encyclopedia of Integer Sequences! http://oeis.org/",
	"query": "id:A158090",
	"count": 1,
	"start": 0,
	"results": [
		{
			"number": 158090,
			"data": "0,6,0,6,0,0,3,3,0,0,6,0,6,0,0,3,3,0,0,6,0,6,0,0,3,3,0,0,6,0,6,0,0,3,3,0,0,6,0,6,0,0,3,3,0,0,6,0,6,0,0,3,3,0,0,6,0,6,0,0,3,3,0,0,6,0,6,0,0,3,3,0,0,6,0,6,0,0,3,3,0,0,6,0,6,0,0,3,3,0,0,6,0,6,0,0,3,3,0,0,6,0,6,0,0",
			"name": "Period 9: repeat [0, 6, 0, 6, 0, 0, 3, 3, 0].",
			"comment": [
				"Also the continued fraction expansion of 6+sqrt(3970)/10 (dropping a(0)).",
				"Also the decimal expansion of 6733370/111111111."
			],
			"link": [
				"\u003ca href=\"/index/Rec\"\u003eIndex entries for linear recurrences with constant coefficients\u003c/a\u003e, signature (0,0,0,0,0,0,0,0,1)."
			],
			"formula": [
				"a(n) = ( A061037(n)*A061037(n+1) ) mod 9.",
				"a(n) = a(n-9). G.f.: -3*x*(2+2*x^2+x^5+x^6)/((x-1)*(1+x+x^2)*(x^6+x^3+1)).",
				"a(n)=(1/28)*{(n mod 9)+7*[(n+1) mod 9]+[(n+2) mod 9]-5*[(n+3) mod 9]+[(n+4) mod 9]+13*[(n+5) mod 9]-11*[(n+6) mod 9]+13*[(n+7) mod 9]-11*[(n+8) mod 9]}, with n\u003e=0 [_Paolo P. Lava_, Mar 16 2009]"
			],
			"xref": [
				"Cf. A157742, A158012, A158068."
			],
			"keyword": "nonn,easy",
			"offset": "0,2",
			"author": "_Paul Curtz_, Mar 12 2009",
			"ext": [
				"A-number in the formula corrected by _R. J. Mathar_, Sep 11 2009"
			],
			"references": 3,
			"revision": 11,
			"time": "2020-04-27T02:02:26-04:00",
			"created": "2010-06-01T03:00:00-04:00"
		}
	]
}