{
	"greeting": "Greetings from The On-Line Encyclopedia of Integer Sequences! http://oeis.org/",
	"query": "id:A158251",
	"count": 1,
	"start": 0,
	"results": [
		{
			"number": 158251,
			"data": "1,5,7,9,10,14,15,19,21,23,25,29,30,32,34,36,37,41,43,45,47,49,50,54,55,59,61,63,64,68,69,71,73,75,77,81,82,86,88,90,91,95,96,100,102,104,106,108,109,113,114,116,118,122,123,127,129,131,132,136,137,141,143,145",
			"name": "a(n)=S(S(n)) where S=A054353 gives the partial sums of Kolakoski sequence.",
			"formula": [
				"a(n) = sum(k=1,n,(1/2)*(3+(-1)^k)*A000002(k)) = (3/2)*A054353(n)+(1/2)*A074272(n)."
			],
			"xref": [
				"Cf. A000002, A054353, A074272"
			],
			"keyword": "nonn",
			"offset": "1,2",
			"author": "_Benoit Cloitre_, Mar 15 2009",
			"references": 0,
			"revision": 6,
			"time": "2020-03-21T16:38:17-04:00",
			"created": "2010-06-01T03:00:00-04:00"
		}
	]
}