{
	"greeting": "Greetings from The On-Line Encyclopedia of Integer Sequences! http://oeis.org/",
	"query": "id:A158651",
	"count": 1,
	"start": 0,
	"results": [
		{
			"number": 158651,
			"data": "1,24,784,343184,729237344,13089822163800,1659110130720710584,1635069460917798701270872,12308784500036123518164726610224,721833220650131890343295654587745095696,330596986686626406483380599328509951896788808144",
			"name": "Number of directed Hamiltonian paths on the n X n king graph.",
			"comment": [
				"Number of open directed king's tours on the n X n board."
			],
			"link": [
				"Ville H. Pettersson, \u003ca href=\"http://www.combinatorics.org/ojs/index.php/eljc/article/view/v21i4p7\"\u003eEnumerating Hamiltonian Cycles\u003c/a\u003e, The Electronic Journal of Combinatorics, Volume 21, Issue 4, 2014.",
				"Eric Weisstein's World of Mathematics, \u003ca href=\"http://mathworld.wolfram.com/HamiltonianPath.html\"\u003eHamiltonian Path\u003c/a\u003e",
				"Eric Weisstein's World of Mathematics, \u003ca href=\"http://mathworld.wolfram.com/KingGraph.html\"\u003eKing Graph\u003c/a\u003e",
				"\u003ca href=\"/index/Gra#graphs\"\u003eIndex entries for sequences related to graphs, Hamiltonian\u003c/a\u003e"
			],
			"xref": [
				"Cf. A003763, A096969, A137891, A140521."
			],
			"keyword": "nonn,more",
			"offset": "1,2",
			"author": "_Eric W. Weisstein_, Mar 23 2009",
			"ext": [
				"a(5) from _Max Alekseyev_, May 03 2009",
				"a(6)-a(11) from _Andrew Howroyd_, Nov 15 2015"
			],
			"references": 9,
			"revision": 27,
			"time": "2016-03-08T03:14:08-05:00",
			"created": "2010-06-01T03:00:00-04:00"
		}
	]
}