{
	"greeting": "Greetings from The On-Line Encyclopedia of Integer Sequences! http://oeis.org/",
	"query": "id:A158783",
	"count": 1,
	"start": 0,
	"results": [
		{
			"number": 158783,
			"data": "1,48,2302,110304,5280780,252595008,12071752584,576412983936,27498818692752,1310720689509120,62419614359968224,2969927075488292352,141183268107518731968,6705518619349180118016,318194128757965158633600",
			"name": "a(n) = Hermite(n, 24).",
			"comment": [
				"The first negative term is a(304). - _Georg Fischer_, Feb 16 2019"
			],
			"link": [
				"G. C. Greubel, \u003ca href=\"/A158783/b158783.txt\"\u003eTable of n, a(n) for n = 0..650\u003c/a\u003e"
			],
			"formula": [
				"From _G. C. Greubel_, Jul 13 2018: (Start)",
				"E.g.f.: exp(48*x - x^2).",
				"a(n) = 48*a(n-1) - 2*(n-1)*a(n-2). (End)"
			],
			"mathematica": [
				"HermiteH[Range[0,20],24] (* _Harvey P. Dale_, Aug 10 2011 *)",
				"With[{nmax = 50}, CoefficientList[Series[Exp[48*x - x^2], {x, 0, nmax}], x]*Range[0, nmax]!] (* _G. C. Greubel_, Jul 13 2018 *)"
			],
			"program": [
				"(MAGMA) m:=30; R\u003cx\u003e:=PowerSeriesRing(Rationals(), m); b:=Coefficients(R!(Exp(48*x - x^2))); [Factorial(n-1)*b[n]: n in [1..m]]; // _G. C. Greubel_, Jul 13 2018",
				"(PARI) x='x+O('x^30); Vec(serlaplace(exp(48*x - x^2))) \\\\ _G. C. Greubel_, Jul 13 2018",
				"(PARI) for(n=0,30, print1(polhermite(n, 24), \", \")) \\\\ _G. C. Greubel_, Jul 13 2018"
			],
			"keyword": "sign",
			"offset": "0,2",
			"author": "_N. J. A. Sloane_, Nov 11 2009",
			"references": 1,
			"revision": 13,
			"time": "2019-02-16T06:42:25-05:00",
			"created": "2010-06-01T03:00:00-04:00"
		}
	]
}