{
	"greeting": "Greetings from The On-Line Encyclopedia of Integer Sequences! http://oeis.org/",
	"query": "id:A159465",
	"count": 1,
	"start": 0,
	"results": [
		{
			"number": 159465,
			"data": "3,8,15,26,39,54,71,90,111,134,161,190,221,254,289,326,365,406,449,494,541,592,645,700,757,816,877,940,1005,1072,1141,1212,1285,1360,1437,1516,1599,1684,1771,1860,1951,2044,2139,2236,2335,2436,2539,2644,2751",
			"name": "Sums of odd numbers, omitting squares.",
			"comment": [
				"Partial sums of A088828."
			],
			"link": [
				"G. C. Greubel, \u003ca href=\"/A159465/b159465.txt\"\u003eTable of n, a(n) for n = 1..5000\u003c/a\u003e"
			],
			"formula": [
				"a(n) = (n+S)^2 - (4*S^3-S)/3 where S = ceiling(round(sqrt(2*n-1))/2)."
			],
			"example": [
				"a(5) = 3 + 5 + 7 + 11 + 13 = 39."
			],
			"mathematica": [
				"s = Select[Range[1, 200, 2], EvenQ[DivisorSigma[1, #] - 2 #] \u0026]; Accumulate[s] (* _Vladimir Joseph Stephan Orlovsky_, Apr 15 2011 *)"
			],
			"program": [
				"(MAGMA) S:=[ n: n in [1..108 by 2] | IsEven(SumOfDivisors(n)-2*n) ]; [ n eq 1 select S[1] else Self(n-1)+S[n]: n in [1..#S] ]; // _Klaus Brockhaus_, Apr 15 2009"
			],
			"xref": [
				"Cf. A088828."
			],
			"keyword": "nonn,easy",
			"offset": "1,1",
			"author": "_Gerald Hillier_, Apr 13 2009",
			"ext": [
				"More terms from _Klaus Brockhaus_ and _R. J. Mathar_, Apr 16 2009",
				"Name and comment swapped by _Michel Marcus_, Mar 31 2020"
			],
			"references": 1,
			"revision": 22,
			"time": "2020-03-31T10:52:28-04:00",
			"created": "2010-06-01T03:00:00-04:00"
		}
	]
}