{
	"greeting": "Greetings from The On-Line Encyclopedia of Integer Sequences! http://oeis.org/",
	"query": "id:A159547",
	"count": 1,
	"start": 0,
	"results": [
		{
			"number": 159547,
			"data": "2,5,10,17,26,37,50,65,82,2,3,5,10,17,26,37,50,65,82,5,5,9,13,17,26,37,50,65,82,10,10,13,19,25,31,37,50,65,82,17,17,17,25,33,41,49,57,65,82,26,26,26,31,41,51,61,71,81,91,37,37,37,37,49,61,73,85,97,109",
			"name": "Smallest number b such that the number whose digits are n in base b is a skinny number.",
			"comment": [
				"I assume that \"the number whose digits are n in base b\" means the number Sum c_i b^i, where the decimal expansion of n is Sum c_i 10^i. - _N. J. A. Sloane_, Jun 19 2021"
			],
			"formula": [
				"a(n) \u003c= 10 iff n is in A061909."
			],
			"example": [
				"a(10) = 2 because 10^2 = 100 in all bases \u003e= 2.",
				"a(14) = 17 because 14_16 = 20_10, so the square is 400_10 = (1,9,0)_16, but digitsum((1,9,0)_16) = 10 != digitsum((1,4)_16)^2; while in base 17, 14_17 = 21_10, so the square is 441_10 = (1,8,16)_17 and digitsum((1,8,16)_17) = 25 = digitsum((1,4)_17)^2."
			],
			"program": [
				"(PARI) a(n) = my(d=digits(n), s); s=vecsum(d); for(b=1+vecmax(d), oo, if(s^2==sumdigits(fromdigits(d, b)^2, b), return(b))); \\\\ _Jinyuan Wang_, Jun 19 2021"
			],
			"xref": [
				"Cf. A061909."
			],
			"keyword": "nonn,base",
			"offset": "1,1",
			"author": "_J. Lowell_, Apr 14 2009",
			"ext": [
				"More terms from _Jinyuan Wang_, Jun 19 2021"
			],
			"references": 0,
			"revision": 20,
			"time": "2021-06-19T13:02:53-04:00",
			"created": "2010-06-01T03:00:00-04:00"
		}
	]
}