{
	"greeting": "Greetings from The On-Line Encyclopedia of Integer Sequences! http://oeis.org/",
	"query": "id:A159029",
	"count": 1,
	"start": 0,
	"results": [
		{
			"number": 159029,
			"data": "1,-7,563,-1197,86723,-164787,74801381,-18522777,1139843843,-1951123167,1298700326833,-187876029957,972149024030033,-19896949323147,1350728831401523,-897215933098737,-1246115140314506189,-721449189755468727,18942287537297864987519",
			"name": "Numerator of Bernoulli(n, -9/10).",
			"link": [
				"Vincenzo Librandi, \u003ca href=\"/A159029/b159029.txt\"\u003eTable of n, a(n) for n = 0..250\u003c/a\u003e"
			],
			"mathematica": [
				"Table[Numerator[BernoulliB[n, -9/10]], {n, 0, 50}] (* _Vincenzo Librandi_, Mar 17 2014 *)"
			],
			"xref": [
				"For denominators see A158994."
			],
			"keyword": "sign,frac",
			"offset": "0,2",
			"author": "_N. J. A. Sloane_, Nov 08 2009",
			"references": 1,
			"revision": 6,
			"time": "2014-03-18T03:53:50-04:00",
			"created": "2010-06-01T03:00:00-04:00"
		}
	]
}