{
	"greeting": "Greetings from The On-Line Encyclopedia of Integer Sequences! http://oeis.org/",
	"query": "id:A159740",
	"count": 1,
	"start": 0,
	"results": [
		{
			"number": 159740,
			"data": "18,270,3600,45000,540000,6300000,72000000,810000000,9000000000,99000000000,1080000000000,11700000000000,126000000000000,1350000000000000,14400000000000000,153000000000000000",
			"name": "Number of permutations of 9 indistinguishable copies of 1..n arranged in a circle with exactly 1 local maximum.",
			"link": [
				"R. H. Hardin, \u003ca href=\"/A159740/b159740.txt\"\u003eTable of n, a(n) for n=2..100\u003c/a\u003e",
				"\u003ca href=\"/index/Rec#order_02\"\u003eIndex entries for linear recurrences with constant coefficients\u003c/a\u003e, signature (20,-100)."
			],
			"formula": [
				"a(n) = (copies*n)*(copies+1)^(n-2).",
				"From _G. C. Greubel_, Jun 01 2018: (Start)",
				"a(n) = 9*n*10^(n-2).",
				"G.f.: x^2*(18-90*x)/(1-20*x+100*x^2).",
				"E.g.f.: 9*x*exp(10*x)/10. (End)"
			],
			"mathematica": [
				"LinearRecurrence[{20,-100}, {18,270}, 30] (* or *) Table[9*n*10^(n-2), {n,2,30}] (* _G. C. Greubel_, Jun 01 2018 *)"
			],
			"program": [
				"(PARI) m=30; v=concat([18, 270], vector(m-2)); for(n=3, m, v[n]=20*v[n-1] -100*v[n-2]); v \\\\ _G. C. Greubel_, Jun 01 2018",
				"(MAGMA) I:=[18, 270]; [n le 2 select I[n] else 20*Self(n-1) - 100*Self(n-2): n in [1..10]]; // _G. C. Greubel_, Jun 01 2018"
			],
			"keyword": "nonn",
			"offset": "2,1",
			"author": "_R. H. Hardin_, Apr 20 2009",
			"references": 1,
			"revision": 9,
			"time": "2018-06-01T21:44:26-04:00",
			"created": "2010-06-01T03:00:00-04:00"
		}
	]
}