{
	"greeting": "Greetings from The On-Line Encyclopedia of Integer Sequences! http://oeis.org/",
	"query": "id:A159733",
	"count": 1,
	"start": 0,
	"results": [
		{
			"number": 159733,
			"data": "10,90,720,5400,38880,272160,1866240,12597120,83980800,554273280,3627970560,23581808640,152374763520,979552051200,6269133127680,39965723688960,253899891671040,1608032647249920,10155995666841600",
			"name": "Number of permutations of 5 indistinguishable copies of 1..n arranged in a circle with exactly 1 local maximum.",
			"link": [
				"R. H. Hardin, \u003ca href=\"/A159733/b159733.txt\"\u003eTable of n, a(n) for n = 2..100\u003c/a\u003e",
				"\u003ca href=\"/index/Rec#order_02\"\u003eIndex entries for linear recurrences with constant coefficients\u003c/a\u003e, signature (12,-36)."
			],
			"formula": [
				"a(n) = (copies*n)*(copies+1)^(n-2) where copies=5.",
				"From _Colin Barker_, Mar 24 2018: (Start)",
				"G.f.: 10*x^2*(1 - 3*x) / (1 - 6*x)^2.",
				"a(n) = 12*a(n-1) - 36*a(n-2) for n\u003e3. (End)",
				"From _G. C. Greubel_, Jun 01 2018: (Start)",
				"a(n) = 5*n*6^(n-2).",
				"E.g.f.: 5*x*exp(6*x)/6. (End)"
			],
			"mathematica": [
				"LinearRecurrence[{12,-36}, {10,90}, 30] (* or *) Table[5*n*6^(n-2), {n,2,30}] (* _G. C. Greubel_, Jun 01 2018 *)"
			],
			"program": [
				"(PARI) for(n=2,30, print1(5*n*6^(n-2), \", \")) \\\\ _G. C. Greubel_, Jun 01 2018",
				"(MAGMA) [5*n*6^(n-2): n in [2..30]]; // _G. C. Greubel_, Jun 01 2018"
			],
			"keyword": "nonn",
			"offset": "2,1",
			"author": "_R. H. Hardin_, Apr 20 2009",
			"references": 2,
			"revision": 18,
			"time": "2018-06-06T16:14:46-04:00",
			"created": "2010-06-01T03:00:00-04:00"
		}
	]
}