{
	"greeting": "Greetings from The On-Line Encyclopedia of Integer Sequences! http://oeis.org/",
	"query": "id:A159847",
	"count": 1,
	"start": 0,
	"results": [
		{
			"number": 159847,
			"data": "1,1,1,2,1,2,1,1,1,1,3,7,1,4,1,22,14,15,1,1,3",
			"name": "The number of non-isomorphic n-node graphs with the maximal number of edges, and containing no three-cycles or four-cycles.",
			"comment": [
				"The Moore graphs are unique examples of these graphs for their orders. Thus the fiftieth term in this sequence is 1.",
				"Two additional values of this sequence determined: a(24)=1 and a(32)=1. [_Michael Codish_, Apr 09 2013]"
			],
			"reference": [
				"D. K. Garnick and N. A. Nieuwejaar, Non-isomorphic Extremal Graphs without Three-Cycles or Four-Cycles, Journal of Combinatorial Mathematics and Combinatorial Computing, 12(1992), 33-56."
			],
			"link": [
				"J Backelin, \u003ca href=\"http://arxiv.org/abs/1511.08128\"\u003eSizes of the extremal girth 5 graphs of orders from 40 to 49\u003c/a\u003e, arXiv preprint arXiv:1511.08128 [math.CO], 2015.",
				"Michael Codish, Alice Miller, Patrick Prosser, Peter J. Stuckey, \u003ca href=\"http://www.cs.bgu.ac.il/~mcodish/Papers/Pages/ijcai2013.html\"\u003eBreaking Symmetries in Graph Representation\u003c/a\u003e, IJCAI 2013.",
				"Alice Miller and Michael Codish, \u003ca href=\"https://arxiv.org/abs/1708.06576\"\u003eGraphs with girth at least 5 with orders between 20 and 32\u003c/a\u003e, arXiv:1708.06576 [math.CO], 2017."
			],
			"xref": [
				"Cf. A006856."
			],
			"keyword": "hard,nonn,more",
			"offset": "1,4",
			"author": "David Garnick (dgarnick(AT)gmail.com), Apr 23 2009",
			"references": 2,
			"revision": 20,
			"time": "2017-12-20T03:24:06-05:00",
			"created": "2010-06-01T03:00:00-04:00"
		}
	]
}