{
	"greeting": "Greetings from The On-Line Encyclopedia of Integer Sequences! http://oeis.org/",
	"query": "id:A159382",
	"count": 1,
	"start": 0,
	"results": [
		{
			"number": 159382,
			"data": "202,128052,243381128,155584902392,42611862628566",
			"name": "Number of n X n arrays of squares of integers with every (n-3)X(n-3) subblock summing to 10",
			"keyword": "nonn",
			"offset": "5,1",
			"author": "_R. H. Hardin_ Apr 11 2009",
			"references": 0,
			"revision": 4,
			"time": "2015-12-18T18:17:19-05:00",
			"created": "2010-06-01T03:00:00-04:00"
		}
	]
}