{
	"greeting": "Greetings from The On-Line Encyclopedia of Integer Sequences! http://oeis.org/",
	"query": "id:A159489",
	"count": 1,
	"start": 0,
	"results": [
		{
			"number": 159489,
			"data": "1,-5,13,55,-2851,-3245,427363,473935,-61949131,-123108821,44665749215,49265523175,-889173917551201,-28014998053757,1297189933409461,21455729885490175,-96521711874559753547,-21286177612465196453,168569517408863607520801",
			"name": "Numerator of Bernoulli(n, 1/12).",
			"link": [
				"Vincenzo Librandi, \u003ca href=\"/A159489/b159489.txt\"\u003eTable of n, a(n) for n = 0..250\u003c/a\u003e"
			],
			"mathematica": [
				"Numerator[BernoulliB[Range[0,30],1/12]] (* _Harvey P. Dale_, Oct 22 2011 *)"
			],
			"program": [
				"(PARI) for(n=0,30, print1(numerator(sum(k=0,n, binomial(n,k)* bernfrac(n-k)*(1/12)^k)), \", \")) \\\\ _G. C. Greubel_, Jul 09 2018",
				"(PARI) a(n) = numerator(subst(bernpol(n, x), x, 1/12)); \\\\ _Michel Marcus_, Jul 10 2018",
				"(MAGMA) [Numerator((\u0026+[Binomial(n,k)*Bernoulli(n-k)*(1/12)^k: k in [0..n]])): n in [0..30]]; // _G. C. Greubel_, Jul 09 2018"
			],
			"xref": [
				"For denominators see A159490."
			],
			"keyword": "sign,frac",
			"offset": "0,2",
			"author": "_N. J. A. Sloane_, Nov 08 2009",
			"references": 2,
			"revision": 13,
			"time": "2018-07-10T06:03:44-04:00",
			"created": "2010-06-01T03:00:00-04:00"
		}
	]
}