{
	"greeting": "Greetings from The On-Line Encyclopedia of Integer Sequences! http://oeis.org/",
	"query": "id:A159127",
	"count": 1,
	"start": 0,
	"results": [
		{
			"number": 159127,
			"data": "1,37,891,18042,337138,6078572,108365293,1938295834,35109616512,648055261057",
			"name": "Number of permutations of 1..n containing the relative rank sequence { 154326 } at any spacing.",
			"comment": [
				"Same series for 623451"
			],
			"link": [
				"Eric Weisstein's World of Mathematics, \u003ca href=\"http://mathworld.wolfram.com/PermutationPattern.html\"\u003ePermutation Pattern\u003c/a\u003e"
			],
			"xref": [
				"A056986 A158005 A158423"
			],
			"keyword": "nonn",
			"offset": "6,2",
			"author": "_R. H. Hardin_ Apr 05 2009",
			"references": 0,
			"revision": 3,
			"time": "2012-03-31T12:35:26-04:00",
			"created": "2010-06-01T03:00:00-04:00"
		}
	]
}