{
	"greeting": "Greetings from The On-Line Encyclopedia of Integer Sequences! http://oeis.org/",
	"query": "id:A159207",
	"count": 1,
	"start": 0,
	"results": [
		{
			"number": 159207,
			"data": "540,4128,19028,64440,278516,945816,2788452,10699008,34672388,103376592,390361412,1299118848,4097433060",
			"name": "Number of n X n arrays of squares of integers with every 3X3 subblock summing to 7",
			"keyword": "nonn",
			"offset": "3,1",
			"author": "_R. H. Hardin_ Apr 06 2009",
			"references": 0,
			"revision": 4,
			"time": "2015-12-18T18:17:18-05:00",
			"created": "2010-06-01T03:00:00-04:00"
		}
	]
}