{
	"greeting": "Greetings from The On-Line Encyclopedia of Integer Sequences! http://oeis.org/",
	"query": "id:A159783",
	"count": 1,
	"start": 0,
	"results": [
		{
			"number": 159783,
			"data": "1,4,192,221184,10192158720,28179280429056000,6544446260541338419200000,170229151878929266676890337280000000,637613431509979741286846928045094207488000000000",
			"name": "Hankel transform of ordered Bell numbers A000670. a(n)=det(A000670(i+j-1)), i,j=1,2..n.",
			"link": [
				"Todd Silvestri, \u003ca href=\"/A159783/b159783.txt\"\u003eTable of n, a(n) for n = 1..30\u003c/a\u003e"
			],
			"formula": [
				"a(n) = 2^((n-1)*n/2)*G(n+1)*G(n+2)=2^((n-1)*n/2)*A000178(n-1)*A000178(n), where G(n)=product(Gamma(k), k=1..n). - _Todd Silvestri_, Nov 15 2014",
				"a(n) ~ 2^((n^2 + n + 1)/2) * n^(n^2 + n + 1/3) * Pi^(n + 1/2) / (A^2 * exp(3*n^2/2 + n - 1/6)), where A = A074962 = 1.2824271291... is the Glaisher-Kinkelin constant. - _Vaclav Kotesovec_, Jul 10 2015"
			],
			"mathematica": [
				"a[n_Integer/;n\u003e=1]:=2^((n-1) n/2) BarnesG[n+1] BarnesG[n+2] (* _Todd Silvestri_, Nov 15 2014 *)",
				"a[n_] := Table[HurwitzLerchPhi[1/2, 1-i-j, 0]/2, {i, n}, {j, n}] // Det;",
				"Array[a, 10] (* _Jean-François Alcover_, Mar 30 2016 *)"
			],
			"keyword": "nonn",
			"offset": "1,2",
			"author": "_Karol A. Penson_, Apr 22 2009",
			"references": 1,
			"revision": 12,
			"time": "2016-03-30T04:27:45-04:00",
			"created": "2010-06-01T03:00:00-04:00"
		}
	]
}