{
	"greeting": "Greetings from The On-Line Encyclopedia of Integer Sequences! http://oeis.org/",
	"query": "id:A159184",
	"count": 1,
	"start": 0,
	"results": [
		{
			"number": 159184,
			"data": "1,50,1584,41322,977960,22010480,483532996,10531009973,229621534324",
			"name": "Number of permutations of 1..n containing the relative rank sequence { 2574136 } at any spacing.",
			"comment": [
				"Same series (among rank sequences with inversion = reversal) for 3724615"
			],
			"link": [
				"Eric Weisstein's World of Mathematics, \u003ca href=\"http://mathworld.wolfram.com/PermutationPattern.html\"\u003ePermutation Pattern\u003c/a\u003e"
			],
			"xref": [
				"A056986 A158005 A158423"
			],
			"keyword": "nonn",
			"offset": "7,2",
			"author": "_R. H. Hardin_ Apr 05 2009",
			"references": 0,
			"revision": 3,
			"time": "2012-03-31T12:35:27-04:00",
			"created": "2010-06-01T03:00:00-04:00"
		}
	]
}