{
	"greeting": "Greetings from The On-Line Encyclopedia of Integer Sequences! http://oeis.org/",
	"query": "id:A159363",
	"count": 1,
	"start": 0,
	"results": [
		{
			"number": 159363,
			"data": "12,336,9688,184000,1969212,14039088,75099360,324796176,1192537500,3844187424,11144826264,29583574384,72891000364,168494340000,368541092736,768025638240,1533632745708,2948331631152,5478589599000",
			"name": "Number of n X n arrays of squares of integers summing to 6.",
			"link": [
				"R. H. Hardin, \u003ca href=\"/A159363/b159363.txt\"\u003eTable of n, a(n) for n=2..100\u003c/a\u003e"
			],
			"formula": [
				"Empirical G.f.: -4*x^2*(1+x)*(3 + 42*x + 1522*x^2 + 18686*x^3 + 42654*x^4 + 18686*x^5 + 1522*x^6 + 42*x^7 + 3*x^8)/(-1+x)^13. - _Vaclav Kotesovec_, Nov 30 2012"
			],
			"keyword": "nonn",
			"offset": "2,1",
			"author": "_R. H. Hardin_, Apr 11 2009",
			"references": 1,
			"revision": 11,
			"time": "2012-11-30T15:35:18-05:00",
			"created": "2010-06-01T03:00:00-04:00"
		}
	]
}