{
	"greeting": "Greetings from The On-Line Encyclopedia of Integer Sequences! http://oeis.org/",
	"query": "id:A159267",
	"count": 1,
	"start": 0,
	"results": [
		{
			"number": 159267,
			"data": "1,2,2,4,4,5,6,5,7,9,8,11,12,9,1,15,15,17,10,11,19,18,22,17,0,21,13,20,26,26,16,27,32,33,29,35,36,30,29,33,16,37,32,28,31,38,46,47,39,34,49,43,44,26,18,53,32,39,46,59,56,58,40,63,47,49,57,33,10,26,66,61,55,22",
			"name": "Largest m\u003c=n such that 2^n+3^m is prime, 0 if no such m exists.",
			"comment": [
				"Note: a(n)=0 means either there is no such m, or 2^n+1 is a Fermat prime, A019434. However, no such prime is known for n\u003e16 and a(n)\u003e0 for all n \u003c 25. Thus a(n)=0 will practically always mean that there's no such m."
			],
			"program": [
				"(PARI) A159267(n)=forstep(m=n,1,-1,ispseudoprime(2^n+3^m) \u0026 return(m))"
			],
			"keyword": "nonn",
			"offset": "1,2",
			"author": "_M. F. Hasler_, Apr 07 2009",
			"references": 2,
			"revision": 3,
			"time": "2012-07-14T11:32:24-04:00",
			"created": "2010-06-01T03:00:00-04:00"
		}
	]
}