{
	"greeting": "Greetings from The On-Line Encyclopedia of Integer Sequences! http://oeis.org/",
	"query": "id:A159657",
	"count": 1,
	"start": 0,
	"results": [
		{
			"number": 159657,
			"data": "1,1,-199,-599,118801,598001,-118202999,-835804199,164648394401,1501935112801,-294865174808999,-3298735400410999,645404649179386801,8562369610165784401,-1669489718256239898199,-25644124626720436220999,4982825030141999258376001",
			"name": "Numerator of Hermite(n, 1/20).",
			"link": [
				"Vincenzo Librandi, \u003ca href=\"/A159657/b159657.txt\"\u003eTable of n, a(n) for n = 0..200\u003c/a\u003e",
				"DLMF \u003ca href=\"https://dlmf.nist.gov/18.9\"\u003eDigital library of mathematical functions\u003c/a\u003e, Table 18.9.1 for H_n(x)"
			],
			"formula": [
				"D-finite with recurrence a(n) -a(n-1) +200*(n-1)*a(n-2)=0. [DLMF] - _R. J. Mathar_, Feb 16 2014",
				"From _G. C. Greubel_, Jul 09 2018: (Start)",
				"a(n) = 10^n * Hermite(n, 1/20).",
				"E.g.f.: exp(x - 100*x^2).",
				"a(n) = numerator(Sum_{k=0..floor(n/2)} (-1)^k*n!*(1/10)^(n-2*k)/(k!*(n-2*k)!)). (End)"
			],
			"example": [
				"Numerator of 1, 1/10, -199/100, -599/1000, 118801/10000, 598001/100000,..."
			],
			"maple": [
				"A159657 := proc(n)",
				"        orthopoly[H](n,1/20) ;",
				"        numer(%) ;",
				"end proc: # _R. J. Mathar_, Feb 16 2014"
			],
			"mathematica": [
				"Numerator[Table[HermiteH[n, 1/20], {n, 0, 30}]] (* _Vladimir Joseph Stephan Orlovsky_, Jun 16 2011 *)",
				"Table[10^n*HermiteH[n, 1/20], {n,0,30}] (* _G. C. Greubel_, Jul 09 2018 *)"
			],
			"program": [
				"(PARI) a(n)=numerator(polhermite(n,1/20)) \\\\ _Charles R Greathouse IV_, Jan 29 2016",
				"(MAGMA) [Numerator((\u0026+[(-1)^k*Factorial(n)*(1/10)^(n-2*k)/( Factorial(k) *Factorial(n-2*k)): k in [0..Floor(n/2)]])): n in [0..30]]; // _G. C. Greubel_, Jul 09 2018"
			],
			"xref": [
				"Cf. A011557 (denominators)."
			],
			"keyword": "sign,frac",
			"offset": "0,3",
			"author": "_N. J. A. Sloane_, Nov 12 2009",
			"references": 2,
			"revision": 21,
			"time": "2021-02-06T08:35:47-05:00",
			"created": "2010-06-01T03:00:00-04:00"
		}
	]
}