{
	"greeting": "Greetings from The On-Line Encyclopedia of Integer Sequences! http://oeis.org/",
	"query": "id:A159617",
	"count": 1,
	"start": 0,
	"results": [
		{
			"number": 159617,
			"data": "1,7,64,560,4936,43456,382656,3369408,29668864,261244928,2300355072,20255449088,178356473856,1570492542976,13828748541952,121767076888576,1072202663100416,9441127931576320,83132508142305280,732011467286249472",
			"name": "G.f.: (1-x)/(1-8*x-8*x^2+8*x^3).",
			"comment": [
				"Number of tilings of a 2xn board with squares of 2 colors and dominoes of 2 colors if n\u003e2. The number of tilings is 6 if n=1, and 56 if n=2."
			],
			"link": [
				"Vincenzo Librandi, \u003ca href=\"/A159617/b159617.txt\"\u003eTable of n, a(n) for n = 0..1000\u003c/a\u003e",
				"M. Katz, C. Stenson, \u003ca href=\"http://www.cs.uwaterloo.ca/journals/JIS/VOL12/Stenson/stenson8.html\"\u003eTiling a 2xn-board with squares and dominoes\u003c/a\u003e, J. Int. Seq. 12 (2009) # 09.2.2.",
				"\u003ca href=\"/index/Rec#order_03\"\u003eIndex entries for linear recurrences with constant coefficients\u003c/a\u003e, signature (8,8,-8)."
			],
			"formula": [
				"a(n) = 8*a(n-1) + 8*a(n-2) - 8*a(n-3) for n\u003e2. - _Colin Barker_, Jul 05 2020"
			],
			"mathematica": [
				"CoefficientList[Series[(1 - x)/(1 - 8 x - 8 x^2 + 8 x^3), {x, 0, 40}], x] (* _Vincenzo Librandi_, Dec 11 2012 *)"
			],
			"program": [
				"(PARI) Vec((1 - x) / (1 - 8*x - 8*x^2 + 8*x^3) + O(x^25)) \\\\ _Colin Barker_, Jul 05 2020"
			],
			"xref": [
				"Cf. A030186, A102436, A159616."
			],
			"keyword": "nonn,easy",
			"offset": "0,2",
			"author": "_R. J. Mathar_, Apr 17 2009",
			"references": 2,
			"revision": 17,
			"time": "2020-07-05T13:43:13-04:00",
			"created": "2010-06-01T03:00:00-04:00"
		}
	]
}