{
	"greeting": "Greetings from The On-Line Encyclopedia of Integer Sequences! http://oeis.org/",
	"query": "id:A160262",
	"count": 1,
	"start": 0,
	"results": [
		{
			"number": 160262,
			"data": "1,9,2,6,5,3,8,7,9,3,3,4,6,2,4,3,3,8,3,7,5,0,2,8,8,1,9,7,6,3,9,9,7,5,1,0,5,2,0,9,7,4,4,5,9,2,3,0,8,1,6,0,2,8,6,2,0,9,9,8,2,8,0,3,4,2,5,3,4,2,1,1,0,6,7,8,1,4,8,8,5,1,3,8,2,3,0,6,6,4,7,0,9,3,8",
			"name": "a(n)=c-th digit of A000796(n) where c=n-th composite.",
			"comment": [
				"A000796 is the decimal expansion of Pi."
			],
			"xref": [
				"Cf. A000796, A002808, A090201."
			],
			"keyword": "nonn,base",
			"offset": "1,2",
			"author": "Vladislav-Stepan Malakhovsky and _Juri-Stepan Gerasimov_, May 07 2009",
			"references": 0,
			"revision": 2,
			"time": "2012-03-31T21:03:15-04:00",
			"created": "2010-06-01T03:00:00-04:00"
		}
	]
}