{
	"greeting": "Greetings from The On-Line Encyclopedia of Integer Sequences! http://oeis.org/",
	"query": "id:A160622",
	"count": 1,
	"start": 0,
	"results": [
		{
			"number": 160622,
			"data": "1,1,2,3,8,15,144,420,5760,4536,403200,1995840,6220800,259459200,1341204480,46702656000,1394852659200,11115232128000,376610217984000,96543730483200,128047474114560000,1277273554292736000",
			"name": "Denominator of Laguerre(n, 1).",
			"link": [
				"G. C. Greubel, \u003ca href=\"/A160622/b160622.txt\"\u003eTable of n, a(n) for n = 0..450\u003c/a\u003e"
			],
			"formula": [
				"Denominators of coefficients in expansion of exp(-x/(1 - x))/(1 - x). - _Ilya Gutkovskiy_, Aug 29 2018"
			],
			"example": [
				"1, 0, -1/2, -2/3, -5/8, -7/15, -37/144, -17/420, 887/5760, 1405/4536, 168919/403200, 958271/1995840, ... = A160621/A160622."
			],
			"mathematica": [
				"Denominator[Table[LaguerreL[n,1], {n, 0, 50}]] (* _G. C. Greubel_, May 06 2018 *)"
			],
			"program": [
				"(PARI) for(n=0,30, print1(denominator(sum(k=0,n, binomial(n,k)*((-1)^k/k!))), \", \")) \\\\ _G. C. Greubel_, May 06 2018",
				"(MAGMA) [Denominator((\u0026+[Binomial(n,k)*((-1)^k/Factorial(k)): k in [0..n]])): n in [0..30]]; // _G. C. Greubel_, May 06 2018"
			],
			"xref": [
				"For numerators see A160621.",
				"Cf. A009940."
			],
			"keyword": "nonn,frac",
			"offset": "0,3",
			"author": "_N. J. A. Sloane_, Nov 14 2009",
			"references": 2,
			"revision": 10,
			"time": "2018-08-29T18:13:42-04:00",
			"created": "2010-06-01T03:00:00-04:00"
		}
	]
}