{
	"greeting": "Greetings from The On-Line Encyclopedia of Integer Sequences! http://oeis.org/",
	"query": "id:A160015",
	"count": 1,
	"start": 0,
	"results": [
		{
			"number": 160015,
			"data": "2,3,4,5,6,7,8,9,10,22,23,30,40,50,60,70,80,90,200,311,330,331,400,500,600,700,800,900,1000,1111,2000,4000,4001,5000,6000,7000,8000,9000,10000,11111,20000,30000,50000,50001,60000,70000,80000,90000,100000",
			"name": "a(n) = smallest positive number having no digits in common with n and greater than any earlier term.",
			"comment": [
				"Sequence is finite: the last index is \u003c= 123456788. a(123456789) cannot exist, since a number cannot contain all 0's. - _Dmitry Kamenetsky_, Jun 16 2009",
				"What is the last term? - _Robert G. Wilson v_, May 27 2009",
				"The last index is indeed n = 123456788 and the last a(n) = 9(10^12362882) + 999. - _Robert G. Wilson v_, Jun 07 2010"
			],
			"link": [
				"Dmitry Kamenetsky, \u003ca href=\"/A160015/b160015.txt\"\u003eTable of n, a(n) for n = 1..10000\u003c/a\u003e",
				"Dmitry Kamenetsky, \u003ca href=\"/A160015/a160015.java\"\u003eJava program\u003c/a\u003e"
			],
			"example": [
				"a(10)=22 because 22 is the smallest number \u003e a(9) that doesn't contain 0 or 1."
			],
			"mathematica": [
				"f[Infinity, _] = Infinity; f[_, Range[0, 9] | Range[1, 9]] = Infinity; f[x_Integer, z_Integer] := f[IntegerDigits[1 + x], Union@IntegerDigits@z]; f[x_List, z_List] := Module[{n = Length@x, k = Flatten@ Position[x, Alternatives @@ z, 1, 1], low = Min@ Complement[ Range[0, 9], z]}, If[k == {}, FromDigits@x, k = First@k; f[10^(n - k) + FromDigits@ Flatten@ {Take[x, k], ConstantArray[low, n - k]} // IntegerDigits, z]]]; a[0] = 1; a[n_] := f[a[n - 1], n]; Array[a, 100] (* the function f(x,z) is from Bobby R. Treat (drbob(at)bigfoot.com) *) (* or *) k = 1; NestList[(k++; f[ #, k]) \u0026, 2, 99] (* _Robert G. Wilson v_, Jun 07 2010 *)"
			],
			"xref": [
				"Cf. A096779."
			],
			"keyword": "nonn,base,fini",
			"offset": "1,1",
			"author": "_Rodolfo Kurchan_, Apr 29 2009",
			"ext": [
				"a(43)-a(90) from _Dmitry Kamenetsky_, May 03 2009",
				"Incorrect b-file and Mathematica program deleted by _N. J. A. Sloane_, Jun 13 2009"
			],
			"references": 2,
			"revision": 18,
			"time": "2015-08-02T17:15:34-04:00",
			"created": "2010-06-01T03:00:00-04:00"
		}
	]
}