{
	"greeting": "Greetings from The On-Line Encyclopedia of Integer Sequences! http://oeis.org/",
	"query": "id:A160823",
	"count": 1,
	"start": 0,
	"results": [
		{
			"number": 160823,
			"data": "1,1,3,5,13,27,69,161,415,1033,2701,6983,18521,49041,131723,354493,962381,2620675,7178285,19724513,54430023,150641937,418294813,1164528399,3250685297,9094701729,25501672595,71649158709,201687341901",
			"name": "A transform of the large Schroeder numbers.",
			"comment": [
				"Hankel transform is A060656(n+1)."
			],
			"link": [
				"G. C. Greubel, \u003ca href=\"/A160823/b160823.txt\"\u003eTable of n, a(n) for n = 0..1000\u003c/a\u003e"
			],
			"formula": [
				"G.f.: 1/(1-x-2x^2/(1-x^2/(1-x-2x^2/(1-x^2/(1-x-2x^2/(1-x^2/(1-...))))))) (continued fraction);",
				"G.f.: (1-x-x^2-sqrt(1-2*x-5*x^2+6*x^3+x^4))/(2*x^2*(1-x)).",
				"a(n) = Sum_{k=0..floor(n/2)} C(n-k,k)*A006318(k).",
				"Conjecture: (n+2)*a(n) -3*(n+1)*a(n-1) +3(2-n)*a(n-2) +(11*n-20)*a(n-3) +(11-5*n)*a(n-4) + (4-n)*a(n-5)=0. - _R. J. Mathar_, Nov 16 2011",
				"a(n) ~ sqrt((-36 + 63*sqrt(2) + sqrt(8666 - 4936*sqrt(2)))/8) * ((1 + sqrt(13 + 8*sqrt(2)))/2)^n / (sqrt(Pi) * n^(3/2)). - _Vaclav Kotesovec_, May 01 2018"
			],
			"example": [
				"G.f. = 1 + x + 3*x^2 + 5*x^3 + 13*x^4 + 27*x^5 + 69*x^6 + 161*x^7 + ..."
			],
			"mathematica": [
				"CoefficientList[Series[(1-x-x^2-Sqrt[1-2*x-5*x^2+6*x^3+x^4])/(2*x^2*(1- x)), {x, 0, 50}], x] (* _G. C. Greubel_, Apr 30 2018 *)"
			],
			"program": [
				"(PARI) x='x+O('x^50); Vec((1-x-x^2-sqrt(1-2*x-5*x^2+6*x^3+x^4))/(2*x^2*(1-x))) \\\\ _G. C. Greubel_, Apr 30 2018",
				"(MAGMA) m:=30; R\u003cx\u003e:=PowerSeriesRing(Rationals(), m); Coefficients(R!((1-x-x^2-Sqrt(1-2*x-5*x^2+6*x^3+x^4))/(2*x^2*(1-x)))); // _G. C. Greubel_, Apr 30 2018"
			],
			"keyword": "easy,nonn",
			"offset": "0,3",
			"author": "_Paul Barry_, May 27 2009",
			"references": 2,
			"revision": 11,
			"time": "2018-05-01T07:47:40-04:00",
			"created": "2010-06-01T03:00:00-04:00"
		}
	]
}