{
	"greeting": "Greetings from The On-Line Encyclopedia of Integer Sequences! http://oeis.org/",
	"query": "id:A160578",
	"count": 1,
	"start": 0,
	"results": [
		{
			"number": 160578,
			"data": "1,7,3,7,3,7,8,6,7,5,9,8,6,9,9,2,5,8,7,2,8,2,8,4,5,2,4,6,1,3,0,1,4,4,9,3,2,0,2,8,6,1,8,2,7,6,4,3,8,4,5,2,9,9,8,2,7,3,0,6,1,6,0,3,8,6,9,0,5,3,9,2,7,5,8,3,4,5,7,1,6,9,9,9,2,3,3,5,2,2,1,9,2,4,3,1,2,4,3,0,8,5,4,4,8",
			"name": "Decimal expansion of (473+168*sqrt(2))/409.",
			"comment": [
				"Equals lim_{n -\u003e infinity} b(n)/b(n-1) for n mod 3 = {1, 2}, b = A129641.",
				"Equals lim_{n -\u003e infinity} b(n)/b(n-1) for n mod 3 = {0, 2}, b = A160577."
			],
			"link": [
				"G. C. Greubel, \u003ca href=\"/A160578/b160578.txt\"\u003eTable of n, a(n) for n = 1..10000\u003c/a\u003e"
			],
			"formula": [
				"Equals (42+8*sqrt(2))/(42-8*sqrt(2))."
			],
			"example": [
				"(473+168*sqrt(2))/409 = 1.73737867598699258728..."
			],
			"mathematica": [
				"RealDigits[(473+168Sqrt[2])/409,10,120][[1]] (* _Harvey P. Dale_, Mar 05 2015 *)"
			],
			"program": [
				"(PARI) (473 +168*sqrt(2))/409 \\\\ _G. C. Greubel_, Apr 08 2018",
				"(MAGMA) (473 +168*Sqrt(2))/409; // _G. C. Greubel_, Apr 08 2018"
			],
			"xref": [
				"Cf. A129641, A160577, A002193 (decimal expansion of sqrt(2)), A160579 (decimal expansion of (204819+83570*sqrt(2))/409^2)."
			],
			"keyword": "cons,nonn",
			"offset": "1,2",
			"author": "_Klaus Brockhaus_, Jun 08 2009",
			"references": 4,
			"revision": 12,
			"time": "2018-04-09T09:43:02-04:00",
			"created": "2010-06-01T03:00:00-04:00"
		}
	]
}