{
	"greeting": "Greetings from The On-Line Encyclopedia of Integer Sequences! http://oeis.org/",
	"query": "id:A160884",
	"count": 1,
	"start": 0,
	"results": [
		{
			"number": 160884,
			"data": "3,15,121,1271,15233",
			"name": "Regular coverings having dihedral voltage groups: see Kwak-Lee reference in A160870 for precise definition.",
			"keyword": "nonn",
			"offset": "1,1",
			"author": "_N. J. A. Sloane_, Nov 15 2009",
			"references": 0,
			"revision": 2,
			"time": "2012-03-30T16:51:24-04:00",
			"created": "2010-06-01T03:00:00-04:00"
		}
	]
}