{
	"greeting": "Greetings from The On-Line Encyclopedia of Integer Sequences! http://oeis.org/",
	"query": "id:A160661",
	"count": 1,
	"start": 0,
	"results": [
		{
			"number": 160661,
			"data": "15,16,21,22,26,31,32,36,74,75,79,81,82,86,91,92,96,123,127,128,133,137,138,223,227,228,233,237,238,623,627,628,633,637,638,1300,1813,1814,1818,1819,1841,1842,1846,1851,1852,1856,1861,1862,1866,2300,2813,2814",
			"name": "Numbers that have a \"t\" in the middle of their names.",
			"example": [
				"In the spelling of the name of each term, with spaces and hyphens omitted, each name has an odd number of letters, and the middle letter is \"t\"; e.g.,",
				"    15 =             fifTeen",
				"    16 =             sixTeen",
				"    21 =            twenTyone",
				"    22 =            twenTytwo",
				"    31 =            thirTysix",
				"    74 =           sevenTyfour",
				"    81 =            eighTyone",
				"    91 =            nineTytwo",
				"   123 =      onehundredTwentythree",
				"  1300 =     onethousandThreehundred",
				"  1813 = onethousandeighThundredthirteen"
			],
			"mathematica": [
				"ok[n_] := Block[{s = StringReplace[ IntegerName[n, \"Words\"], \", \" | \" \" | \"\\[Hyphen]\" -\u003e \"\"], k}, k = StringLength[s]; OddQ[k] \u0026\u0026 StringTake[s, {(k + 1)/2}] == \"t\"]; Select[Range[3000], ok] (* _Giovanni Resta_, Jul 30 2019 *)"
			],
			"keyword": "nonn,word",
			"offset": "1,1",
			"author": "_Claudio Meller_, May 22 2009",
			"ext": [
				"Corrected, edited, and extended by _Jon E. Schoenfield_, Jul 29 2019"
			],
			"references": 4,
			"revision": 22,
			"time": "2019-07-30T10:15:00-04:00",
			"created": "2010-06-01T03:00:00-04:00"
		}
	]
}