{
	"greeting": "Greetings from The On-Line Encyclopedia of Integer Sequences! http://oeis.org/",
	"query": "id:A160208",
	"count": 1,
	"start": 0,
	"results": [
		{
			"number": 160208,
			"data": "2,9,5,3,0,5,1,1,6,4,6,1,0,0,9,8,2,1,0,4,1,4,0,5,5,7,5,8,4,1,7,5,7,7,5,4,7,4,9,9,1,7,5,1,6,8,6,1,2,3,2,2,6,4,4,6,2,4,7,9,7,6,1,9,9,4,0,4,8,9,3,7,8,4,5,0,2,3,7,2,5,5,8,4,8,4,9,7,8,3,7,8,7,4,7,6,1,4,2,7,4,3,0,9,0",
			"name": "Decimal expansion of (1208787 +678878*sqrt(2))/857^2.",
			"comment": [
				"Equals lim_{n -\u003e infinity} b(n)/b(n-1) for n mod 3 = 0, b = A129857.",
				"Equals lim_{n -\u003e infinity} b(n)/b(n-1) for n mod 3 = 1, b = A160206."
			],
			"link": [
				"G. C. Greubel, \u003ca href=\"/A160208/b160208.txt\"\u003eTable of n, a(n) for n = 1..10000\u003c/a\u003e"
			],
			"formula": [
				"Equals (1394 +487*sqrt(2))/(1394 -487*sqrt(2));",
				"Equals (3+2*sqrt(2))*(42-5*sqrt(2))^2/(42+5*sqrt(2))^2."
			],
			"example": [
				"(1208787 +678878*sqrt(2))/857^2 = 2.95305116461009821041..."
			],
			"mathematica": [
				"RealDigits[(1208787+678878Sqrt[2])/857^2,10,120][[1]] (* _Harvey P. Dale_, Nov 09 2012 *)"
			],
			"program": [
				"(PARI) (1208787 +678878*sqrt(2))/857^2 \\\\ _G. C. Greubel_, Apr 08 2018",
				"(MAGMA) (1208787 +678878*Sqrt(2))/857^2; // _G. C. Greubel_, Apr 08 2018"
			],
			"xref": [
				"Cf. A129857, A160206, A002193 (decimal expansion of sqrt(2)), A160207 (decimal expansion of (907+210*sqrt(2))/857)."
			],
			"keyword": "cons,nonn",
			"offset": "1,1",
			"author": "_Klaus Brockhaus_, May 18 2009",
			"references": 4,
			"revision": 12,
			"time": "2018-04-09T09:48:28-04:00",
			"created": "2010-06-01T03:00:00-04:00"
		}
	]
}