{
	"greeting": "Greetings from The On-Line Encyclopedia of Integer Sequences! http://oeis.org/",
	"query": "id:A160037",
	"count": 1,
	"start": 0,
	"results": [
		{
			"number": 160037,
			"data": "1,22,-766,-71852,1291756,387678632,455454904,-2897569732112,-67731764516464,27485598501757792,1366665517848891424,-313503339879296788672,-25688724347766786430784,4137398162538582528602752,508464530227059095129500544,-61218248179429894157699148032",
			"name": "Numerator of Hermite(n, 11/25).",
			"link": [
				"G. C. Greubel, \u003ca href=\"/A160037/b160037.txt\"\u003eTable of n, a(n) for n = 0..380\u003c/a\u003e"
			],
			"formula": [
				"From _G. C. Greubel_, Jul 17 2018: (Start)",
				"a(n) = 25^n * Hermite(n, 11/25).",
				"E.g.f.: exp(22*x - 625*x^2).",
				"a(n) = numerator(Sum_{k=0..floor(n/2)} (-1)^k*n!*(22/25)^(n-2*k)/(k!*(n-2*k)!)). (End)"
			],
			"example": [
				"Numerators of 1, 22/25, -766/625, -71852/15625, 1291756/390625, ..."
			],
			"maple": [
				"seq(coeff(series(factorial(n)*exp(22*x-625*x^2), x,n+1),x,n),n=0..15); # _Muniru A Asiru_, Jul 17 2018"
			],
			"mathematica": [
				"Numerator[HermiteH[Range[0,20],11/25]] (* _Harvey P. Dale_, Dec 27 2011 *)",
				"Table[25^n* HermiteH[n, 11/25], {n, 0, 30}] (* _G. C. Greubel_, Jul 17 2018 *)"
			],
			"program": [
				"(PARI) a(n)=numerator(polhermite(n, 11/25)) \\\\ _Charles R Greathouse IV_, Jan 29 2016",
				"(PARI) x='x+O('x^30); Vec(serlaplace(exp(22*x - 625*x^2))) \\\\ _G. C. Greubel_, Jul 17 2018",
				"(MAGMA) [Numerator((\u0026+[(-1)^k*Factorial(n)*(22/25)^(n-2*k)/( Factorial(k) *Factorial(n-2*k)): k in [0..Floor(n/2)]])): n in [0..30]]; // _G. C. Greubel_, Jul 17 2018",
				"(GAP) List(List([0..15],n-\u003eSum([0..Int(n/2)],k-\u003e(-1)^k*Factorial(n)*(22/25)^(n-2*k)/(Factorial(k)*Factorial(n-2*k)))),NumeratorRat); # _Muniru A Asiru_, Jul 17 2018"
			],
			"xref": [
				"Cf. A009969 (denominators)."
			],
			"keyword": "sign,frac",
			"offset": "0,2",
			"author": "_N. J. A. Sloane_, Nov 12 2009",
			"references": 1,
			"revision": 17,
			"time": "2018-07-17T09:27:45-04:00",
			"created": "2010-06-01T03:00:00-04:00"
		}
	]
}