{
	"greeting": "Greetings from The On-Line Encyclopedia of Integer Sequences! http://oeis.org/",
	"query": "id:A160428",
	"count": 1,
	"start": 0,
	"results": [
		{
			"number": 160428,
			"data": "0,8,64,120,512,568,960,1352,4096,4152,4544,4936,7680,8072,10816,13560,32768,32824,33216,33608,36352,36744,39488,42232,61440,61832,64576,67320,86528,89272,108480,127688,262144",
			"name": "Number of ON cells at n-th stage of three-dimensional version of the cellular automaton A160410, using cubes.",
			"link": [
				"David Applegate, Omar E. Pol and N. J. A. Sloane, \u003ca href=\"/A000695/a000695_1.pdf\"\u003eThe Toothpick Sequence and Other Sequences from Cellular Automata\u003c/a\u003e, Congressus Numerantium, Vol. 206 (2010), 157-191. [There is a typo in Theorem 6: (13) should read u(n) = 4.3^(wt(n-1)-1) for n \u003e= 2.]",
				"N. J. A. Sloane, \u003ca href=\"/wiki/Catalog_of_Toothpick_and_CA_Sequences_in_OEIS\"\u003eCatalog of Toothpick and Cellular Automata Sequences in the OEIS\u003c/a\u003e",
				"\u003ca href=\"/index/Ce#cell\"\u003eIndex entries for sequences related to cellular automata\u003c/a\u003e"
			],
			"formula": [
				"a(n) = 8 * Sum_{k=0..n-1} 7^A000120(k)",
				"a(n) = 8 + 56 * Sum_{k=1..n-1} A151785(k) for n \u003e= 1"
			],
			"xref": [
				"Cf. A139250, A160119, 160379, A160410, A160429, A161340, A161342."
			],
			"keyword": "nonn",
			"offset": "0,2",
			"author": "_Omar E. Pol_, Jun 01 2009",
			"ext": [
				"Formulas and more terms from _Nathaniel Johnston_, Nov 13 2010"
			],
			"references": 6,
			"revision": 11,
			"time": "2021-02-24T02:48:18-05:00",
			"created": "2010-06-01T03:00:00-04:00"
		}
	]
}