{
	"greeting": "Greetings from The On-Line Encyclopedia of Integer Sequences! http://oeis.org/",
	"query": "id:A160940",
	"count": 1,
	"start": 0,
	"results": [
		{
			"number": 160940,
			"data": "2,10,95,86,2063,26338,1796701,37907460,1121781743,624173160,301508365839,448445587666,90026771795043,1998858898554,406702125332939256247,78594656763841284,186966120412500951787",
			"name": "Row sums of triangle defined in A083809.",
			"example": [
				"Fourth row is 5, 11, 23, 47, so a(4) = 86."
			],
			"program": [
				"(MAGMA) f:=function(n) m:=1; while not IsPrime(m*n+1) do m+:=1; end while; return m*n+1; end function; [ \u0026+[ k eq 1 select f(j) else f(Self(k-1)): k in [1..j] ]: j in [1..17] ];"
			],
			"xref": [
				"Cf. A083809, A083810."
			],
			"keyword": "nonn",
			"offset": "1,1",
			"author": "_Klaus Brockhaus_, May 30 2009",
			"references": 1,
			"revision": 2,
			"time": "2012-03-30T17:28:01-04:00",
			"created": "2010-06-01T03:00:00-04:00"
		}
	]
}