{
	"greeting": "Greetings from The On-Line Encyclopedia of Integer Sequences! http://oeis.org/",
	"query": "id:A160122",
	"count": 1,
	"start": 0,
	"results": [
		{
			"number": 160122,
			"data": "2,2,6,2,6,6,14,6,6,6,14,10,14,18,34,18,6,6,14,10,14,18,34,22,14,18,34,34,38,46,78,54,14,6,14,10,14,18,34,22,14,18,34,34,38,46,78,58,22,18,34,34,38,50,86,78,50,46,78,90,94,114,186,154,46,6,14",
			"name": "a(n) = A160121(n+1)*2/3.",
			"link": [
				"David Applegate, Omar E. Pol and N. J. A. Sloane, \u003ca href=\"/A000695/a000695_1.pdf\"\u003eThe Toothpick Sequence and Other Sequences from Cellular Automata\u003c/a\u003e, Congressus Numerantium, Vol. 206 (2010), 157-191. [There is a typo in Theorem 6: (13) should read u(n) = 4.3^(wt(n-1)-1) for n \u003e= 2.]",
				"N. J. A. Sloane, \u003ca href=\"/wiki/Catalog_of_Toothpick_and_CA_Sequences_in_OEIS\"\u003eCatalog of Toothpick and Cellular Automata Sequences in the OEIS\u003c/a\u003e"
			],
			"xref": [
				"Y-toothpick sequence: A160120. Cf. A160121, A160123.",
				"Cf. A139250, A139251. [From _Omar E. Pol_, Jun 16 2009]"
			],
			"keyword": "nonn",
			"offset": "1,1",
			"author": "_Omar E. Pol_, May 02 2009",
			"ext": [
				"More terms from _Omar E. Pol_, Jun 16 2009"
			],
			"references": 1,
			"revision": 9,
			"time": "2021-02-24T02:48:18-05:00",
			"created": "2010-06-01T03:00:00-04:00"
		}
	]
}