{
	"greeting": "Greetings from The On-Line Encyclopedia of Integer Sequences! http://oeis.org/",
	"query": "id:A160833",
	"count": 1,
	"start": 0,
	"results": [
		{
			"number": 160833,
			"data": "1,69,1031,6889,29473,95389,255263,595281,1251025,2423605,4398087,7564217,12439441,19694221,30179647,44957345,65331681,92884261,129510727,177459849,239374913,318337405,417912991,542199793,695878961",
			"name": "G.f.: (1+62*x+569*x^2+1086*x^3+521*x^4+56*x^5+x^6)/(1-x)^7.",
			"comment": [
				"Source: the De Loera et al. article and the Haws website listed in A160747."
			],
			"link": [
				"Vincenzo Librandi, \u003ca href=\"/A160833/b160833.txt\"\u003eTable of n, a(n) for n = 0..10000\u003c/a\u003e",
				"\u003ca href=\"/index/Rec#order_07\"\u003eIndex entries for linear recurrences with constant coefficients\u003c/a\u003e, signature (7,-21,35,-35,21,-7,1)."
			],
			"formula": [
				"a(n) = 1+n*(n+1)*(287*n^4+619*n^3+1021*n^2+689*n+444)/90. - _R. J. Mathar_, Sep 17 2011"
			],
			"mathematica": [
				"Table[1+n*(n+1)*(287*n^4+619*n^3+1021*n^2+689*n+444)/90, {n,0,30}] (* or *) LinearRecurrence[{7,-21,35,-35,21,-7,1}, {1, 69, 1031, 6889, 29473, 95389, 255263}, 30] (* _G. C. Greubel_, Apr 28 2018 *)"
			],
			"program": [
				"(MAGMA) [1+n*(n+1)*(287*n^4+619*n^3+1021*n^2+689*n+444)/90: n in [0..30]]; // _Vincenzo Librandi_, Sep 18 2011",
				"(PARI) for(n=0, 30, print1(1+n*(n+1)*(287*n^4+619*n^3+1021*n^2+689*n +444)/90, \", \")) \\\\ _G. C. Greubel_, Apr 28 2018"
			],
			"keyword": "nonn",
			"offset": "0,2",
			"author": "_N. J. A. Sloane_, Nov 18 2009",
			"references": 1,
			"revision": 10,
			"time": "2018-04-28T19:51:26-04:00",
			"created": "2010-06-01T03:00:00-04:00"
		}
	]
}