{
	"greeting": "Greetings from The On-Line Encyclopedia of Integer Sequences! http://oeis.org/",
	"query": "id:A160815",
	"count": 1,
	"start": 0,
	"results": [
		{
			"number": 160815,
			"data": "1,69,1024,6777,28773,92589,246688,573329,1201633,2322805,4207512,7225417,11866869,18766749,28730472,42762145,62094881,88223269,122938000,168362649,226992613,301736205,395957904,513523761,658848961",
			"name": "Expansion of (1+62*x+562*x^2+1023*x^3+458*x^4+49*x^5+x^6)/(1-x)^7.",
			"comment": [
				"Source: the De Loera et al. article and the Haws website listed in A160747."
			],
			"link": [
				"Vincenzo Librandi, \u003ca href=\"/A160815/b160815.txt\"\u003eTable of n, a(n) for n = 0..10000\u003c/a\u003e",
				"\u003ca href=\"/index/Rec#order_07\"\u003eIndex entries for linear recurrences with constant coefficients\u003c/a\u003e, signature (7,-21,35,-35,21,-7,1)."
			],
			"formula": [
				"a(n) = 539*n^6/180 +151*n^5/15 +335*n^4/18 +19*n^3 +2231*n^2/180 +74*n/15 +1. - _R. J. Mathar_, Sep 11 2011"
			],
			"mathematica": [
				"CoefficientList[Series[(1+62*x+562*x^2+1023*x^3+458*x^4+49*x^5+x^6)/(1-x)^7, {x, 0, 50}], x] (* _G. C. Greubel_, Apr 26 2018 *)",
				"LinearRecurrence[{7,-21,35,-35,21,-7,1},{1,69,1024,6777,28773,92589,246688},30] (* _Harvey P. Dale_, Sep 16 2019 *)"
			],
			"program": [
				"(MAGMA) [539*n^6/180 +151*n^5/15 +335*n^4/18 +19*n^3 +2231*n^2/180 +74*n/15 +1: n in [0..30]]; // _Vincenzo Librandi_, Sep 18 2011",
				"(PARI) x='x+O('x^30); Vec((1+62*x+562*x^2+1023*x^3+458*x^4+49*x^5 + x^6)/(1-x)^7) \\\\ _G. C. Greubel_, Apr 26 2018"
			],
			"keyword": "nonn",
			"offset": "0,2",
			"author": "_N. J. A. Sloane_, Nov 18 2009",
			"references": 1,
			"revision": 14,
			"time": "2019-09-16T11:12:23-04:00",
			"created": "2010-06-01T03:00:00-04:00"
		}
	]
}