{
	"greeting": "Greetings from The On-Line Encyclopedia of Integer Sequences! http://oeis.org/",
	"query": "id:A160871",
	"count": 1,
	"start": 0,
	"results": [
		{
			"number": 160871,
			"data": "1,63,7987,7987616,24875000437,193466859054994",
			"name": "Column 6 of array in A057004.",
			"reference": [
				"J. H. Kwak and J. Lee, Enumeration of graph coverings, surface branched coverings and related group theory, in Combinatorial and Computational Mathematics (Pohang, 2000), ed. S. Hong et al., World Scientific, Singapore 2001, pp. 97-161."
			],
			"keyword": "nonn",
			"offset": "1,2",
			"author": "_N. J. A. Sloane_, Nov 15 2009",
			"references": 1,
			"revision": 2,
			"time": "2012-03-30T16:51:24-04:00",
			"created": "2010-06-01T03:00:00-04:00"
		}
	]
}