{
	"greeting": "Greetings from The On-Line Encyclopedia of Integer Sequences! http://oeis.org/",
	"query": "id:A160718",
	"count": 1,
	"start": 0,
	"results": [
		{
			"number": 160718,
			"data": "1,2,3,4,5,7,9,10,11,13,15,17,20,25,29,30,31,33,35,37,40,45,49,51,54,59,64,70,80,93,101,102,103,105,107,109,112,117,121,123,126,131,136,142,152,165,173,175,178,183,188,194,204,217,226,232,242,256,271,292",
			"name": "a(n) = A160406(n+2)/2.",
			"link": [
				"David Applegate, Omar E. Pol and N. J. A. Sloane, \u003ca href=\"/A000695/a000695_1.pdf\"\u003eThe Toothpick Sequence and Other Sequences from Cellular Automata\u003c/a\u003e, Congressus Numerantium, Vol. 206 (2010), 157-191. [There is a typo in Theorem 6: (13) should read u(n) = 4.3^(wt(n-1)-1) for n \u003e= 2.]",
				"N. J. A. Sloane, \u003ca href=\"/wiki/Catalog_of_Toothpick_and_CA_Sequences_in_OEIS\"\u003eCatalog of Toothpick and Cellular Automata Sequences in the OEIS\u003c/a\u003e"
			],
			"formula": [
				"a(n) = A160719(n) + 1 = -a(n-1) + n + (A139250(n+1) + 5)/4 for n \u003e 0. - _Jinyuan Wang_, Mar 04 2020"
			],
			"xref": [
				"Cf. A139250, A152998, A153000, A160406, A160407, A160719."
			],
			"keyword": "nonn",
			"offset": "0,2",
			"author": "_Omar E. Pol_, Jun 10 2009",
			"ext": [
				"More terms from _Jinyuan Wang_, Mar 04 2020"
			],
			"references": 1,
			"revision": 12,
			"time": "2021-02-24T02:48:18-05:00",
			"created": "2010-06-01T03:00:00-04:00"
		}
	]
}