{
	"greeting": "Greetings from The On-Line Encyclopedia of Integer Sequences! http://oeis.org/",
	"query": "id:A160554",
	"count": 1,
	"start": 0,
	"results": [
		{
			"number": 160554,
			"data": "1,13,97,541,2497,50273,182309,4256087,13247651,38903687,543392719,15986775377,41148884933,1330667437997,1728533404931,23966754421349,603184673218147,22925161516659191,4561425357186553,2045955360223686629",
			"name": "Numerator of Laguerre(n, -12).",
			"link": [
				"G. C. Greubel, \u003ca href=\"/A160554/b160554.txt\"\u003eTable of n, a(n) for n = 0..500\u003c/a\u003e"
			],
			"mathematica": [
				"Table[LaguerreL[n, -12] // Numerator, {n, 0, 19}] (* _Jean-François Alcover_, Jul 01 2017 *)"
			],
			"program": [
				"(PARI) for(n=0,30, print1(numerator(sum(k=0,n, binomial(n,k)*(12^k/k!))), \", \")) \\\\ _G. C. Greubel_, May 14 2018",
				"(MAGMA) [Numerator((\u0026+[Binomial(n,k)*(12^k/Factorial(k)): k in [0..n]])): n in [0..30]]; // _G. C. Greubel_, May 14 2018"
			],
			"xref": [
				"For denominators see A160555."
			],
			"keyword": "nonn,frac",
			"offset": "0,2",
			"author": "_N. J. A. Sloane_, Nov 14 2009",
			"references": 2,
			"revision": 10,
			"time": "2018-05-16T03:50:07-04:00",
			"created": "2010-06-01T03:00:00-04:00"
		}
	]
}