{
	"greeting": "Greetings from The On-Line Encyclopedia of Integer Sequences! http://oeis.org/",
	"query": "id:A160127",
	"count": 1,
	"start": 0,
	"results": [
		{
			"number": 160127,
			"data": "0,0,1,1,0,2,5,3,0,2,4,2,2,10,15,7,0,2,4,2,2,10,14,6,2,8,10,6,14,36,39,15,0,2,4,2,2,10,14,6,2,8,10,6,14,36,38,14,2,8,10,6,14,34,34,14",
			"name": "First differences of A160126.",
			"link": [
				"David Applegate, Omar E. Pol and N. J. A. Sloane, \u003ca href=\"/A000695/a000695_1.pdf\"\u003eThe Toothpick Sequence and Other Sequences from Cellular Automata\u003c/a\u003e, Congressus Numerantium, Vol. 206 (2010), 157-191. [There is a typo in Theorem 6: (13) should read u(n) = 4.3^(wt(n-1)-1) for n \u003e= 2.]",
				"N. J. A. Sloane, \u003ca href=\"/wiki/Catalog_of_Toothpick_and_CA_Sequences_in_OEIS\"\u003eCatalog of Toothpick and Cellular Automata Sequences in the OEIS\u003c/a\u003e"
			],
			"xref": [
				"Toothpick sequence: A139250.",
				"Cf. A159786, A159787, A159788, A159789, A160124, A160125, A160126."
			],
			"keyword": "nonn",
			"offset": "1,6",
			"author": "_Omar E. Pol_, May 03 2009",
			"ext": [
				"More terms from _Colin Barker_, Apr 19 2015"
			],
			"references": 3,
			"revision": 10,
			"time": "2021-02-24T02:48:18-05:00",
			"created": "2010-06-01T03:00:00-04:00"
		}
	]
}