{
	"greeting": "Greetings from The On-Line Encyclopedia of Integer Sequences! http://oeis.org/",
	"query": "id:A161112",
	"count": 1,
	"start": 0,
	"results": [
		{
			"number": 161112,
			"data": "0,0,0,0,0,0,0,0,0,0,1,1,1,1,1,1,1,1,1,1,1,1,1,1,1,1,1,1,1,1,1,1,2,1,1,2,1,1,2,1,1,2,1,2,3,2,3,4,3,4,5,4,5,6,5,6,7,6,7,8,7,8,9,8,9,11,9,10,11,10,11,13,11,12,13,12,14,16,14,15,16,15,17,19,17,18,19,18,20,22,20,21,22,21,23,25,23,24,26,24",
			"name": "Number of partitions of n into nonzero triangular numbers where every part appears at least 11 times",
			"link": [
				"R. H. Hardin, \u003ca href=\"/A161112/b161112.txt\"\u003eTable of n, a(n) for n=1..1000\u003c/a\u003e"
			],
			"keyword": "nonn",
			"offset": "1,33",
			"author": "_R. H. Hardin_ Jun 02 2009",
			"references": 1,
			"revision": 4,
			"time": "2012-03-31T12:35:30-04:00",
			"created": "2010-06-01T03:00:00-04:00"
		}
	]
}