{
	"greeting": "Greetings from The On-Line Encyclopedia of Integer Sequences! http://oeis.org/",
	"query": "id:A161676",
	"count": 1,
	"start": 0,
	"results": [
		{
			"number": 161676,
			"data": "2,89,127,607,2203,2281,3217,4253,9689,9941,11213,19937,21701,23209,44497,86243,216091,756839,859433,1257787,1398269,2976221,3021377,6972593,13466917",
			"name": "Isolated primes p such that 2^p-1 is also a prime number.",
			"formula": [
				"A000043 INTERSECT A007510."
			],
			"example": [
				"For the isolated prime p=2= A007510(1), p^2-1=3 is prime, which adds p=2 to the sequence."
			],
			"maple": [
				"MP := [2, 3, 5, 7, 13, 17, 19, 31, 61, 89, 107, 127, 521, 607, 1279, 2203, 2281, 3217, 4253, 4423, 9689, 9941, 11213, 19937, 21701, 23209, 44497, 86243, 110503, 132049, 216091, 756839, 859433, 1257787, 1398269, 2976221, 3021377, 6972593, 13466917]:",
				"n := 0: for j to 39 do if `and`(isprime(MP[j]-2) = false, isprime(MP[j]+2) = false) then n := n+1; a[n] := MP[j] else end if end do:",
				"seq(a[n], n = 1 .. 25); # _Emeric Deutsch_, Jun 20 2009"
			],
			"xref": [
				"Cf. A000043, A007510."
			],
			"keyword": "nonn",
			"offset": "1,1",
			"author": "Vladislav-Stepan Malakhovsky \u0026 _Juri-Stepan Gerasimov_, Jun 16 2009",
			"ext": [
				"More terms from _Emeric Deutsch_, Jun 20 2009",
				"Definition rephrased by _R. J. Mathar_, Sep 23 2009"
			],
			"references": 0,
			"revision": 6,
			"time": "2019-02-21T23:10:58-05:00",
			"created": "2010-06-01T03:00:00-04:00"
		}
	]
}