{
	"greeting": "Greetings from The On-Line Encyclopedia of Integer Sequences! http://oeis.org/",
	"query": "id:A161034",
	"count": 1,
	"start": 0,
	"results": [
		{
			"number": 161034,
			"data": "0,0,0,0,0,0,0,0,0,1,1,1,1,1,1,1,1,1,1,2,1,2,1,2,1,2,1,2,1,4,2,4,4,5,4,7,5,7,7,9,8,11,10,12,12,14,13,16,15,19,17,20,19,22,22,24,23,26,25,31,29,33,33,37,39,43,43,48,49,57,56,63,63,70,74,79,81,88,90,103,102,111,114,123,130,138,142,153",
			"name": "Number of partitions of n into Fibonacci numbers where every part appears at least 10 times",
			"link": [
				"R. H. Hardin, \u003ca href=\"/A161034/b161034.txt\"\u003eTable of n, a(n) for n=1..1000\u003c/a\u003e"
			],
			"keyword": "nonn",
			"offset": "1,20",
			"author": "_R. H. Hardin_ Jun 02 2009",
			"references": 1,
			"revision": 4,
			"time": "2012-03-31T12:35:29-04:00",
			"created": "2010-06-01T03:00:00-04:00"
		}
	]
}