{
	"greeting": "Greetings from The On-Line Encyclopedia of Integer Sequences! http://oeis.org/",
	"query": "id:A161475",
	"count": 1,
	"start": 0,
	"results": [
		{
			"number": 161475,
			"data": "1,14,104,545,2260,7889,24087,66013,165425,384320,836604,1720774,3366951,6301715,11333950,19664205,33018831,53808313,85306779,131846699,199019426,293868698,425060810,603012233,839953393,1149906518",
			"name": "Number of reduced words of length n in the Weyl group A_14.",
			"comment": [
				"Computed with MAGMA using commands similar to those used to compute A161409."
			],
			"reference": [
				"J. E. Humphreys, Reflection Groups and Coxeter Groups, Cambridge, 1990. See under Poincaré polynomial.",
				"N. Bourbaki, Groupes et alg. de Lie, Chap. 4, 5, 6. (The group is defined in Planche I.)"
			],
			"formula": [
				"G.f. for A_m is the polynomial Prod_{k=1..m}(1-x^(k+1))/(1-x). Only finitely many terms are nonzero. This is a row of the triangle in A008302."
			],
			"keyword": "nonn",
			"offset": "0,2",
			"author": "_John Cannon_ and _N. J. A. Sloane_, Nov 30 2009",
			"references": 0,
			"revision": 5,
			"time": "2015-07-19T10:34:25-04:00",
			"created": "2010-06-01T03:00:00-04:00"
		}
	]
}