{
	"greeting": "Greetings from The On-Line Encyclopedia of Integer Sequences! http://oeis.org/",
	"query": "id:A161731",
	"count": 1,
	"start": 0,
	"results": [
		{
			"number": 161731,
			"data": "1,5,26,138,740,3988,21544,116520,630544,3413072,18476960,100032672,541583936,2932214080,15875537536,85953303168,465368899840,2519604954368,13641675037184,73858930936320,399887996969984",
			"name": "Expansion of (1-3*x)/(1-8*x+14*x^2).",
			"comment": [
				"Fourth binomial transform of A016116.",
				"Inverse binomial transform of A161734. Binomial transform of A086351. - _R. J. Mathar_, Jun 18 2009"
			],
			"link": [
				"Vincenzo Librandi, \u003ca href=\"/A161731/b161731.txt\"\u003eTable of n, a(n) for n = 0..1000\u003c/a\u003e",
				"\u003ca href=\"/index/Rec\"\u003eIndex entries for linear recurrences with constant coefficients\u003c/a\u003e, signature (8,-14)."
			],
			"formula": [
				"a(n) = ((2+sqrt(2))*(4+sqrt(2))^n+(2-sqrt(2))*(4-sqrt(2))^n)/4.",
				"a(n)=8*a(n-1)-14*a(n-2). - _R. J. Mathar_, Jun 18 2009",
				"a(n) = A081180(n+1) -3*A081180(n). - _R. J. Mathar_, Jul 19 2012"
			],
			"program": [
				"(PARI) F=nfinit(x^2-2); for(n=0, 20, print1(nfeltdiv(F, ((2+x)*(4+x)^n+(2-x)*(4-x)^n), 4)[1], \",\")) \\\\ _Klaus Brockhaus_, Jun 19 2009",
				"(MAGMA)[Floor(((2+Sqrt(2))*(4+Sqrt(2))^n+(2-Sqrt(2))*(4-Sqrt(2))^n)/4): n in [0..30]]; // _Vincenzo Librandi_, Aug 18 2011"
			],
			"xref": [
				"Cf. A016116, A086351, A161734."
			],
			"keyword": "nonn,easy",
			"offset": "0,2",
			"author": "Al Hakanson (hawkuu(AT)gmail.com), Jun 17 2009",
			"ext": [
				"Extended by _R. J. Mathar_ and _Klaus Brockhaus_, Jun 18 2009",
				"Edited by _Klaus Brockhaus_, Jul 05 2009"
			],
			"references": 6,
			"revision": 13,
			"time": "2016-08-19T00:30:48-04:00",
			"created": "2010-06-01T03:00:00-04:00"
		}
	]
}