{
	"greeting": "Greetings from The On-Line Encyclopedia of Integer Sequences! http://oeis.org/",
	"query": "id:A161383",
	"count": 1,
	"start": 0,
	"results": [
		{
			"number": 161383,
			"data": "1,2,3,4,5,6,7,8,9,11,22,24,27,29,33,36,38,42,44,47,49,55,63,66,68,72,74,77,79,83,86,88,92,94,97,99,101,111,116,118,121,131,141,151,161,171,181,191,202,203,204,206,208,212,213,214,222,223,224,226,228,232,233",
			"name": "Spanish name for number and its reverse have the same number of letters.",
			"comment": [
				"29 is in sequence because 29 (\"veintinueve\") and 92 (\"Noventa y dos\") each have 11 letters in Spanish.",
				"Obviously includes all palindromes (A002113)."
			],
			"link": [
				"Álvar Ibeas, \u003ca href=\"/A161383/b161383.txt\"\u003eTable of n, a(n) for n = 1..10000\u003c/a\u003e"
			],
			"xref": [
				"Cf. A107322."
			],
			"keyword": "nonn,word,base",
			"offset": "1,2",
			"author": "_Claudio Meller_, Jun 08 2009",
			"references": 1,
			"revision": 8,
			"time": "2020-09-20T09:32:01-04:00",
			"created": "2010-06-01T03:00:00-04:00"
		}
	]
}