{
	"greeting": "Greetings from The On-Line Encyclopedia of Integer Sequences! http://oeis.org/",
	"query": "id:A161426",
	"count": 1,
	"start": 0,
	"results": [
		{
			"number": 161426,
			"data": "0,1,4,7,14,19,26,35,52,63,70",
			"name": "Y-toothpick sequence starting at the outside corner of an infinite triangle-shaped polygon as the sieve of A160120 after 2^k rounds.",
			"comment": [
				"The sequence gives the number of Y-toothpicks after n rounds. A161427 (the first differences) gives the number added at the n-th round.",
				"See the entries A160120, A139250 and A153006 for more information."
			],
			"link": [
				"David Applegate, Omar E. Pol and N. J. A. Sloane, \u003ca href=\"/A000695/a000695_1.pdf\"\u003eThe Toothpick Sequence and Other Sequences from Cellular Automata\u003c/a\u003e, Congressus Numerantium, Vol. 206 (2010), 157-191. [There is a typo in Theorem 6: (13) should read u(n) = 4.3^(wt(n-1)-1) for n \u003e= 2.]",
				"N. J. A. Sloane, \u003ca href=\"/wiki/Catalog_of_Toothpick_and_CA_Sequences_in_OEIS\"\u003eCatalog of Toothpick and Cellular Automata Sequences in the OEIS\u003c/a\u003e",
				"David Applegate, \u003ca href=\"/A139250/a139250.anim.html\"\u003eThe movie version\u003c/a\u003e"
			],
			"xref": [
				"Cf. A000079, A139250, A153006, A160120, A161427, A161830."
			],
			"keyword": "more,nonn",
			"offset": "0,3",
			"author": "_Omar E. Pol_ and _David Applegate_, Jun 20 2009",
			"references": 2,
			"revision": 8,
			"time": "2021-02-24T02:48:18-05:00",
			"created": "2010-06-01T03:00:00-04:00"
		}
	]
}