{
	"greeting": "Greetings from The On-Line Encyclopedia of Integer Sequences! http://oeis.org/",
	"query": "id:A161461",
	"count": 1,
	"start": 0,
	"results": [
		{
			"number": 161461,
			"data": "1,12,77,351,1274,3914,10569,25728,57486,119483,233389,431886,762007,1288587,2097472,3298033,5024460,7435284,10710609,15046642,20647290,27712842,36426054,46936280,59342609,73677240,89890517,107839121",
			"name": "Number of reduced words of length n in the Weyl group A_12.",
			"comment": [
				"Computed with MAGMA using commands similar to those used to compute A161409."
			],
			"reference": [
				"J. E. Humphreys, Reflection Groups and Coxeter Groups, Cambridge, 1990. See under Poincaré polynomial.",
				"N. Bourbaki, Groupes et alg. de Lie, Chap. 4, 5, 6. (The group is defined in Planche I.)"
			],
			"formula": [
				"G.f. for A_m is the polynomial Prod_{k=1..m}(1-x^(k+1))/(1-x). Only finitely many terms are nonzero. This is a row of the triangle in A008302."
			],
			"keyword": "nonn",
			"offset": "0,2",
			"author": "_John Cannon_ and _N. J. A. Sloane_, Nov 30 2009",
			"references": 0,
			"revision": 5,
			"time": "2015-07-19T10:34:45-04:00",
			"created": "2010-06-01T03:00:00-04:00"
		}
	]
}