{
	"greeting": "Greetings from The On-Line Encyclopedia of Integer Sequences! http://oeis.org/",
	"query": "id:A161329",
	"count": 1,
	"start": 0,
	"results": [
		{
			"number": 161329,
			"data": "1,3,5,7,13,11,17,15,21,23,25,27,33,27,25,15,25,35,41,55,53,59,61,59,65,63,57,47,37,47,65,71,97,95,105,95,89,83,81,87,93,79,73,79,89,107,113,119,113,115,117,135,125,127,129,135,153,135",
			"name": "First differences of A161328.",
			"comment": [
				"Number of E-Toothpicks added to the E-Toothpick structure at the n-th round."
			],
			"link": [
				"David Applegate, \u003ca href=\"/A139250/a139250.anim.html\"\u003eThe movie version\u003c/a\u003e",
				"David Applegate, Omar E. Pol and N. J. A. Sloane, \u003ca href=\"/A000695/a000695_1.pdf\"\u003eThe Toothpick Sequence and Other Sequences from Cellular Automata\u003c/a\u003e, Congressus Numerantium, Vol. 206 (2010), 157-191. [There is a typo in Theorem 6: (13) should read u(n) = 4.3^(wt(n-1)-1) for n \u003e= 2.]",
				"N. J. A. Sloane, \u003ca href=\"/wiki/Catalog_of_Toothpick_and_CA_Sequences_in_OEIS\"\u003eCatalog of Toothpick and Cellular Automata Sequences in the OEIS\u003c/a\u003e"
			],
			"xref": [
				"Cf. A139251, A160121, A160173, A161328, A161331."
			],
			"keyword": "nonn",
			"offset": "1,2",
			"author": "_Omar E. Pol_, Jun 07 2009",
			"ext": [
				"a(8) corrected and more terms added by _R. J. Mathar_, Jan 21 2010"
			],
			"references": 9,
			"revision": 12,
			"time": "2021-02-24T02:48:18-05:00",
			"created": "2010-06-01T03:00:00-04:00"
		}
	]
}