{
	"greeting": "Greetings from The On-Line Encyclopedia of Integer Sequences! http://oeis.org/",
	"query": "id:A161780",
	"count": 1,
	"start": 0,
	"results": [
		{
			"number": 161780,
			"data": "1,-2,1,-2,1,1,1,0,0,1,-2,-2,1,0,1,4,0,0,0,0,1,-2,-2,0,1,0,0,1,0,0,-2,0,0,0,0,1,1,1,0,0,1,0,0,0,1,4,0,0,0,0,0,0,0,0,1,-2,-2,-2,-2,0,1,0,0,0,0,1,-2,0,0,0,0,0,0,0,0,0,0,1,-2,4,0,0,0,0,1,0,0,0,0,0,1,4,0,1",
			"name": "Square array read by antidiagonals up. Redheffer type matrix. A007427 interleaved with k-1 zeros in the columns.",
			"comment": [
				"The determinant of this matrix is A006218."
			],
			"example": [
				"Table begins:",
				"..1..1..1..1..1..1..1..1",
				".-2..1..0..0..0..0..0..0",
				".-2..0..1..0..0..0..0..0",
				"..1.-2..0..1..0..0..0..0",
				".-2..0..0..0..1..0..0..0",
				"..4.-2.-2..0..0..1..0..0",
				".-2..0..0..0..0..0..1..0",
				"..0..1..0.-2..0..0..0..1"
			],
			"program": [
				"(Excel): =if(row()=1;1;if(mod(row();column())=0;1*lookup(row()/column();A000027;A007427);0))"
			],
			"xref": [
				"Cf. A007427, A006218, A002321."
			],
			"keyword": "sign,tabl",
			"offset": "1,2",
			"author": "_Mats Granvik_, Jun 19 2009",
			"references": 0,
			"revision": 3,
			"time": "2016-04-25T11:45:53-04:00",
			"created": "2010-06-01T03:00:00-04:00"
		}
	]
}