{
	"greeting": "Greetings from The On-Line Encyclopedia of Integer Sequences! http://oeis.org/",
	"query": "id:A161938",
	"count": 1,
	"start": 0,
	"results": [
		{
			"number": 161938,
			"data": "3,8,26,88,300,1024,3496,11936,40752,139136,475040,1621888,5537472,18906112,64549504,220385792,752444160,2569005056,8771131904,29946517504,102243806208,349082189824,1191841146880,4069200207872",
			"name": "a(n) = ((3+sqrt(2))*(2+sqrt(2))^n + (3-sqrt(2))*(2-sqrt(2))^n)/2.",
			"comment": [
				"Second binomial transform of A162255."
			],
			"link": [
				"G. C. Greubel, \u003ca href=\"/A161938/b161938.txt\"\u003eTable of n, a(n) for n = 0..1000\u003c/a\u003e"
			],
			"formula": [
				"a(n) = 4*a(n-1) - 2*a(n-2) for n\u003e1; a(0) = 3; a(1) = 8.",
				"G.f.: (3-4*x)/(1-4*x+2*x^2).",
				"From _G. C. Greubel_, Sep 28 2018: (start)",
				"a(2*n) = 2^(n-1) * (Q(2*n +1) + 2*Q(2*n)), Q(m) = Pell-Lucas numbers = A002203(m).",
				"a(2*n+1) = 2^(n-1) * (P(2*n+2) + 2*P(2*n+1)), P(m) = Pell numbers = A000129(m). (End)"
			],
			"maple": [
				"seq(coeff(series((3-4*x)/(1-4*x+2*x^2),x,n+1), x, n), n = 0..25); # _Muniru A Asiru_, Sep 28 2018"
			],
			"mathematica": [
				"CoefficientList[Series[(3-4*x)/(1-4*x+2*x^2), {x,0,50}], x] (* _G. C. Greubel_, Sep 28 2018 *)"
			],
			"program": [
				"(MAGMA) Z\u003cx\u003e:=PolynomialRing(Integers()); N\u003cr\u003e:=NumberField(x^2-2); S:=[ ((3+r)*(2+r)^n+(3-r)*(2-r)^n)/2: n in [0..23] ]; [ Integers()!S[j]: j in [1..#S] ]; // _Klaus Brockhaus_, Jul 01 2009",
				"(MAGMA) I:=[3,8]; [n le 2 select I[n] else 4*Self(n-1) - 2*Self(n-2): n in [1..30]]; // _G. C. Greubel_, Sep 28 2018",
				"(PARI) x='x+O('x^50); Vec((3-4*x)/(1-4*x+2*x^2)) \\\\ _G. C. Greubel_, Sep 28 2018",
				"(GAP) a:=[3,8];; for n in [3..25] do a[n]:=4*a[n-1]-2*a[n-2]; od; a; # _Muniru A Asiru_, Sep 28 2018"
			],
			"xref": [
				"Cf. A162255, A135532, A083878."
			],
			"keyword": "nonn",
			"offset": "0,1",
			"author": "Al Hakanson (hawkuu(AT)gmail.com), Jun 22 2009, Jun 29 2009",
			"ext": [
				"Edited and extended beyond a(5) by _Klaus Brockhaus_, Jul 01 2009"
			],
			"references": 2,
			"revision": 14,
			"time": "2020-01-13T09:35:55-05:00",
			"created": "2010-06-01T03:00:00-04:00"
		}
	]
}