{
	"greeting": "Greetings from The On-Line Encyclopedia of Integer Sequences! http://oeis.org/",
	"query": "id:A161641",
	"count": 1,
	"start": 0,
	"results": [
		{
			"number": 161641,
			"data": "0,1,2,3,8,9,10,11,12,13,14,15,16,17,18,19,24,25,26,27,32,33,34,35,40,41,42,43,44,45,46,47,48,49,50,51,56,57,58,59,60,61,62,63,64,65,66,67,72,73,74,75,76,77,78,79,80,81,82,83,88,89,90,91,96,97,98,99,104,105,106,107,108",
			"name": "Positions n such that A010060(n) + A010060(n+4) = 1.",
			"comment": [
				"Also union of all numbers of the form A131323(n)-k, k=0, 1, 2, or 3."
			],
			"link": [
				"G. C. Greubel, \u003ca href=\"/A161641/b161641.txt\"\u003eTable of n, a(n) for n = 1..10000\u003c/a\u003e"
			],
			"formula": [
				"A001477 \\ A161627."
			],
			"mathematica": [
				"tm[0] = 0; tm[n_?EvenQ] := tm[n] = tm[n/2]; tm[n_] := tm[n] = 1 - tm[(n - 1)/2]; Reap[For[n = 0, n \u003c= 16000, n++, If[tm[n] + tm[n + 4] == 1, Sow[n]]]][[2, 1]] (* _G. C. Greubel_, Jan 01 2018 *)"
			],
			"program": [
				"(PARI) is(n)=hammingweight(n)%2!=hammingweight(n+4)%2 \\\\ _Charles R Greathouse IV_, Aug 20 2013"
			],
			"xref": [
				"Cf. A161639, A161627, A161579, A161580, A079523, A131323, A036554, A010060, A121539, A079523, A081706."
			],
			"keyword": "nonn",
			"offset": "1,3",
			"author": "_Vladimir Shevelev_, Jun 15 2009",
			"ext": [
				"More terms from _R. J. Mathar_, Aug 17 2009"
			],
			"references": 9,
			"revision": 8,
			"time": "2018-01-01T21:24:19-05:00",
			"created": "2010-06-01T03:00:00-04:00"
		}
	]
}