{
	"greeting": "Greetings from The On-Line Encyclopedia of Integer Sequences! http://oeis.org/",
	"query": "id:A161176",
	"count": 1,
	"start": 0,
	"results": [
		{
			"number": 161176,
			"data": "107,101,103,113,131,157,191,233,283,341,407,481,563,653,751,857,971,1093,1223,1361,1507,1661,1823,1993,2171,2357,2551,2753,2963,3181,3407,3641,3883,4133,4391,4657,4931,5213,5503,5801,6107",
			"name": "4n^2-10n+107.",
			"comment": [
				"Northwest corner values of Ulam spiral with 101 at center."
			],
			"link": [
				"\u003ca href=\"/index/Rec#order_03\"\u003eIndex entries for linear recurrences with constant coefficients\u003c/a\u003e, signature (3,-3,1)."
			],
			"formula": [
				"a(n)=3*a(n-1)-3*a(n-2)+a(n-3). G.f.: -(107-220*x+121*x^2)/(x-1)^3. - _R. J. Mathar_, Jul 24 2009"
			],
			"mathematica": [
				"LinearRecurrence[{3,-3,1},{107,101,103},50] (* _Harvey P. Dale_, Jun 05 2012 *)"
			],
			"program": [
				"(PARI) a(n)=4*n^2-10*n+107 \\\\ _Charles R Greathouse IV_, Jun 17 2017"
			],
			"keyword": "nonn,easy",
			"offset": "0,1",
			"author": "Milton L. Brown (miltbrown(AT)earthlink.net), Jun 05 2009, Jul 21 2009",
			"references": 0,
			"revision": 11,
			"time": "2017-06-17T03:26:05-04:00",
			"created": "2010-06-01T03:00:00-04:00"
		}
	]
}