{
	"greeting": "Greetings from The On-Line Encyclopedia of Integer Sequences! http://oeis.org/",
	"query": "id:A161658",
	"count": 1,
	"start": 0,
	"results": [
		{
			"number": 161658,
			"data": "0,2,3,4,5,6,7,6,8,10,11,12,13,14,14,16,17,18,19,18,20,22,23,24,24,26,27,27,29,30,31,30,32,34,34,36,37,38,38,40,41,42,43,42,45,46,47,45,48,48,50,51,53,52,54,56,56,58,59,60,61,62,63,60,64,66,67,66,68,69,71,70,73,74,75,75,76,78",
			"name": "a(n) = the largest multiple of {the sum of the prime-factorization exponents of n} that is \u003c= n.",
			"link": [
				"Robert Israel, \u003ca href=\"/A161658/b161658.txt\"\u003eTable of n, a(n) for n = 1..10000\u003c/a\u003e"
			],
			"formula": [
				"a(n) = n - (n mod A001222(n)), n \u003e= 1. - _R. J. Mathar_, Jul 08 2011"
			],
			"maple": [
				"A161658 := proc(n) if n = 1 then 0; else e := numtheory[bigomega](n) ; n - (n mod e) ; end if; end proc: # _R. J. Mathar_, Jul 08 2011"
			],
			"xref": [
				"Cf. A161659."
			],
			"keyword": "nonn",
			"offset": "1,2",
			"author": "_Leroy Quet_, Jun 15 2009",
			"references": 2,
			"revision": 15,
			"time": "2019-11-22T02:31:02-05:00",
			"created": "2010-06-01T03:00:00-04:00"
		}
	]
}