{
	"greeting": "Greetings from The On-Line Encyclopedia of Integer Sequences! http://oeis.org/",
	"query": "id:A161638",
	"count": 1,
	"start": 0,
	"results": [
		{
			"number": 161638,
			"data": "1,1,2,2,1,1,2,3,2,2,1,1,2,2,3,3,2,2,4,3,1,1,2,2,3,3,2,2,3,2,1,1,2,3,3,2,3,4,4,3,2,2,4,3,1,1,2,2,2,4,2,3,5,3,3,3,2,2,4,4,3,3,1,1,2,3,2,3,4,3,2,2,3,3,4,3,2,2,1,1,2,3,2,3,3,3,2",
			"name": "The largest number of steps in Euclid's algorithm applied to A157807(n) and A157813(n).",
			"comment": [
				"The sequence of fractions is ordered as follows: 1/1, 2/1, 1/2, 1/3, 3/1, 4/1, 3/2, 2/3, 1/4, 1/5, 5/1,..."
			],
			"link": [
				"Anonymous, \u003ca href=\"http://eom.springer.de/E/e036320.htm\"\u003eEuclidean algorithm\u003c/a\u003e, Springer's Encyclopedia of Maths.",
				"Eric W. Weisstein, \u003ca href=\"http://mathworld.wolfram.com/EuclideanAlgorithm.html\"\u003eEuclidean algorithm\u003c/a\u003e, MathWorld.",
				"Wikipedia, \u003ca href=\"http://en.wikipedia.org/wiki/Euclid\u0026#39;s_algorithm\"\u003eEuclid's algorithm\u003c/a\u003e"
			],
			"example": [
				"a(8) = 3 because the algorithm applied to the pair (2,3) needs the steps 2 = 3 x 0 + 2 then 3 = 2 x 1 + 1 and 2 = 1 x 2 + 0."
			],
			"program": [
				"(Python)",
				"from fractions import gcd",
				"def euclid_steps(a, b):",
				"..if b == 0:",
				"....return 0",
				"..else:",
				"....return 1 + euclid_steps(b, a % b)",
				"for s in range(2, 100, 2):",
				"..for i in range(1, s):",
				"....if gcd(i, s - i) != 1: continue",
				"....print(euclid_steps(i, s - i))",
				"..for i in range(s, 0, -1):",
				"....if gcd(i, s + 1 - i) != 1: continue",
				"....print(euclid_steps(i, s + 1 - i))",
				"# _Hiroaki Yamanouchi_, Oct 06 2014"
			],
			"keyword": "nonn,easy",
			"offset": "1,3",
			"author": "_Yalcin Aktar_, Jun 15 2009",
			"ext": [
				"Partially edited by _R. J. Mathar_, Sep 23 2009",
				"a(1) prepended and a(12)-a(87) added by _Hiroaki Yamanouchi_, Oct 06 2014"
			],
			"references": 0,
			"revision": 17,
			"time": "2016-01-30T16:27:18-05:00",
			"created": "2010-06-01T03:00:00-04:00"
		}
	]
}