{
	"greeting": "Greetings from The On-Line Encyclopedia of Integer Sequences! http://oeis.org/",
	"query": "id:A161283",
	"count": 1,
	"start": 0,
	"results": [
		{
			"number": 161283,
			"data": "0,0,0,0,1,1,1,1,1,2,1,2,1,2,2,3,3,4,4,6,5,6,6,8,9,9,9,11,11,15,13,16,15,18,21,22,22,25,25,35,32,39,37,44,50,53,56,63,66,79,76,88,89,103,112,121,124,137,144,167,167,185,191,212,230,245,256,278,292,331,335,370,383,418,451",
			"name": "Number of partitions of n into numbers not divisible by 3 where every part appears at least 5 times",
			"link": [
				"R. H. Hardin, \u003ca href=\"/A161283/b161283.txt\"\u003eTable of n, a(n) for n=1..1000\u003c/a\u003e"
			],
			"keyword": "nonn",
			"offset": "1,10",
			"author": "_R. H. Hardin_ Jun 06 2009",
			"references": 1,
			"revision": 4,
			"time": "2012-03-31T12:35:30-04:00",
			"created": "2010-06-01T03:00:00-04:00"
		}
	]
}