{
	"greeting": "Greetings from The On-Line Encyclopedia of Integer Sequences! http://oeis.org/",
	"query": "id:A161202",
	"count": 1,
	"start": 0,
	"results": [
		{
			"number": 161202,
			"data": "1,-5,15,-5,-5,-3,-5,-5,-45,-55,-143,-195,-1105,-1615,-4845,-7429,-185725,-294975,-950475,-1550775,-10235115,-17058525,-57378675,-97294275,-1329688425,-2287064091,-7916760315,-13781027215",
			"name": "Numerators in expansion of (1-x)^(5/2)",
			"formula": [
				"a(n) = numer((15/(15-46*n+36*n^2-8*n^3))*binomial(2*n,n)/(4^n))"
			],
			"mathematica": [
				"Numerator[CoefficientList[Series[(1-x)^(5/2),{x,0,30}],x]] (* _Harvey P. Dale_, Aug 22 2011 *)"
			],
			"xref": [
				"Cf. A002596 [1-x)^(1/2)] and A161200 [1-x)^(3/2)].",
				"Cf. A161201 numerators in expansion of (1-x)^(-7/2).",
				"A161198 triangle related to the series expansions of (1-x)^((-1-2*n)/2) for all values of n.",
				"A046161 gives the denominators of the series expansions of (1-x)^(5/2)."
			],
			"keyword": "easy,sign,frac",
			"offset": "0,2",
			"author": "_Johannes W. Meijer_, Jun 08 2009",
			"references": 5,
			"revision": 8,
			"time": "2013-11-21T12:49:38-05:00",
			"created": "2010-06-01T03:00:00-04:00"
		}
	]
}