{
	"greeting": "Greetings from The On-Line Encyclopedia of Integer Sequences! http://oeis.org/",
	"query": "id:A161352",
	"count": 1,
	"start": 0,
	"results": [
		{
			"number": 161352,
			"data": "4,8,12,16,20,24,28,32,36,12,25,38,51,64,77,90,103,116,129,24,38,52,66,80,94,108,122,136,150,36,51,66,81,96,111,126,141,156,171,48,64,80,96,112,128,144,160,176,192,60,77,94,111,128,145,162,179,196,213,72,90,108",
			"name": "a(n) = n + Reverse(n) + sum digital(n)+ product of the digits(n)",
			"comment": [
				"a(1)= 1+1+1+1 =4 ; a(12)=12+21+3+2 = 38"
			],
			"keyword": "nonn,base",
			"offset": "1,1",
			"author": "_Claudio Meller_, Jun 07 2009",
			"references": 0,
			"revision": 2,
			"time": "2012-03-31T14:00:42-04:00",
			"created": "2010-06-01T03:00:00-04:00"
		}
	]
}