{
	"greeting": "Greetings from The On-Line Encyclopedia of Integer Sequences! http://oeis.org/",
	"query": "id:A162808",
	"count": 1,
	"start": 0,
	"results": [
		{
			"number": 162808,
			"data": "1,22,462,9471,194040,3973200,81355890,1665833400,34109413800,698420207100,14300767404000,292820775324000,5995762611069000,122768506573020000,2513793020863740000,51472120400410710000",
			"name": "Number of reduced words of length n in Coxeter group on 22 generators S_i with relations (S_i)^2 = (S_i S_j)^3 = I.",
			"comment": [
				"The initial terms coincide with those of A170741, although the two sequences are eventually different.",
				"Computed with MAGMA using commands similar to those used to compute A154638."
			],
			"link": [
				"\u003ca href=\"/index/Rec#order_03\"\u003eIndex entries for linear recurrences with constant coefficients\u003c/a\u003e, signature (20, 20, -210)."
			],
			"formula": [
				"G.f.: (t^3 + 2*t^2 + 2*t + 1)/(210*t^3 - 20*t^2 - 20*t + 1)"
			],
			"mathematica": [
				"coxG[{3,210,-20}] (* The coxG program is at A169452 *) (* _Harvey P. Dale_, Mar 09 2018 *)"
			],
			"keyword": "nonn",
			"offset": "0,2",
			"author": "_John Cannon_ and _N. J. A. Sloane_, Dec 03 2009",
			"references": 0,
			"revision": 7,
			"time": "2018-03-09T19:51:16-05:00",
			"created": "2010-06-01T03:00:00-04:00"
		}
	]
}