{
	"greeting": "Greetings from The On-Line Encyclopedia of Integer Sequences! http://oeis.org/",
	"query": "id:A162704",
	"count": 1,
	"start": 0,
	"results": [
		{
			"number": 162704,
			"data": "5,8,12,18,42,48,54,86,87,92,93,102,105,108,109,111,123,124,130,134,135,136,162,177,180,246,258,282,294,303,372,402,426,434,450,456,468,470,492,504,528,542,564,576,582,588,774,812,816,828,846,852,862,866",
			"name": "Numbers that are the sum of two reversed consecutive primes.",
			"comment": [
				"Subsequence of A162706.",
				"Numbers of the form A004087(j)+A004087(j+1), any j. - R. J. Mathar, Jul 11 2009"
			],
			"example": [
				"109 is in the list because is the sum of R(47)+R(53)=74+35=109."
			],
			"keyword": "nonn,base",
			"offset": "1,1",
			"author": "_Claudio Meller_, Jul 11 2009",
			"ext": [
				"4 removed, keyword:base added by _R. J. Mathar_, Jul 13 2009"
			],
			"references": 1,
			"revision": 10,
			"time": "2014-08-20T10:51:47-04:00",
			"created": "2010-06-01T03:00:00-04:00"
		}
	]
}