{
	"greeting": "Greetings from The On-Line Encyclopedia of Integer Sequences! http://oeis.org/",
	"query": "id:A162230",
	"count": 1,
	"start": 0,
	"results": [
		{
			"number": 162230,
			"data": "1,6,45,250,1,9286,35411,794376,72865,34403018,9885773,1500022495,1,28700208851,1,2352056093102,1,102340463411217,1,3123368686057682,1,132116164569671440,402070508232683666,5528252581301500133",
			"name": "Greatest integer equal to the sum of the n-th powers of its base-7 digits (written in base 10).",
			"link": [
				"Joseph Myers, \u003ca href=\"/A162230/b162230.txt\"\u003eTable of n, a(n) for n=0..214\u003c/a\u003e"
			],
			"xref": [
				"Cf. A162228, A162229, A033839. In other bases: A162218 (base 3), A162221 (base 4), A162224 (base 5), A162227 (base 6), A162233 (base 8), A162236 (base 9), A046761 (base 10)."
			],
			"keyword": "base,nonn",
			"offset": "0,2",
			"author": "_Joseph Myers_, Jun 28 2009",
			"references": 11,
			"revision": 3,
			"time": "2012-03-30T17:28:42-04:00",
			"created": "2010-06-01T03:00:00-04:00"
		}
	]
}