{
	"greeting": "Greetings from The On-Line Encyclopedia of Integer Sequences! http://oeis.org/",
	"query": "id:A162942",
	"count": 1,
	"start": 0,
	"results": [
		{
			"number": 162942,
			"data": "0,49,147,294,490,735,1029,1372,1764,2205,2695,3234,3822,4459,5145,5880,6664,7497,8379,9310,10290,11319,12397,13524,14700,15925,17199,18522,19894,21315,22785,24304,25872,27489,29155,30870,32634,34447,36309",
			"name": "Binomial[n + 1, 2]*7^2 .",
			"comment": [
				"Number of n permutations (n\u003e=2) of 8 objects r, s, t, u, v, z, x, y with repetition allowed, containing n-2 u's."
			],
			"link": [
				"\u003ca href=\"/index/Rec#order_03\"\u003eIndex entries for linear recurrences with constant coefficients\u003c/a\u003e, signature (3,-3,1)."
			],
			"formula": [
				"a(n) = A027469(n+2). - _R. J. Mathar_, Jul 18 2009",
				"G.f.: -49*x / (x-1)^3 . - _R. J. Mathar_, May 02 2014"
			],
			"example": [
				"If n=2 then n-2=zero (0) u, a(1)=49 because we have sr, tr, vr, zr, xr, yr, rs, rt, rv, rz, rx, ry, ss, st, sv, sz, sx, sy, ts, tt, tv, tz, tx, ty, vs, vt, vv, vz, vx, vy, zs, zt, zv, zz, zx, zy, xs, xt, xv, xz, xx, xy, ys, yt, yv, yz, yx, yy. if n=3 then n-2=one (1) u, a(2)= 147 \u003e\u003e ssu, stu, etc... if n=4 then n-2=two (2) u, a(2)= 294 \u003e\u003e ssuu, stuu,..txuu,etc... if n=5 then n-2=three (3) u, a(3)=490,\u003e\u003e rsuuu, stuuu,...rxuuu, etc.., if n=6 etc..."
			],
			"mathematica": [
				"Table[Binomial[n + 1, 2]*7^2, {n, 0, 58}]"
			],
			"program": [
				"(PARI) a(n)=49*binomial(n+1,2) \\\\ _Charles R Greathouse IV_, May 02 2014"
			],
			"xref": [
				"Cf. A046092, A027468, A035008, A123296, A162940."
			],
			"keyword": "nonn,easy",
			"offset": "0,2",
			"author": "_Zerinvary Lajos_, Jul 18 2009",
			"references": 0,
			"revision": 10,
			"time": "2017-06-17T00:25:54-04:00",
			"created": "2010-06-01T03:00:00-04:00"
		}
	]
}