{
	"greeting": "Greetings from The On-Line Encyclopedia of Integer Sequences! http://oeis.org/",
	"query": "id:A162235",
	"count": 1,
	"start": 0,
	"results": [
		{
			"number": 162235,
			"data": "1,1,1,1,1,1,1,1,1,3,3,2,2,3,3,5,5,4,3,3,3,4,7,7,5,5,5,9,9,6,5,5,11,11,7,13,13,7,7,7,8,9,9,9,9,15,15,17,17,9,9,10,10,10,19,19,10,21,21,12,12,23,23,12,12,13,13,13,13,13,25,25,13,14,14,15,15,27,27,29,29,18,16,31",
			"name": "Corresponding exponents for A162234.",
			"link": [
				"Joseph Myers, \u003ca href=\"/A162235/b162235.txt\"\u003eTable of n, a(n) for n=1..506\u003c/a\u003e"
			],
			"xref": [
				"Cf. A162234, A033841, A162236. In other bases: A162217 (base 3), A162220 (base 4), A162223 (base 5), A162226 (base 6), A162229 (base 7), A162232 (base 8), A046074 (base 10)."
			],
			"keyword": "base,nonn",
			"offset": "1,10",
			"author": "_Joseph Myers_, Jun 28 2009",
			"references": 11,
			"revision": 3,
			"time": "2012-03-30T17:28:42-04:00",
			"created": "2010-06-01T03:00:00-04:00"
		}
	]
}