{
	"greeting": "Greetings from The On-Line Encyclopedia of Integer Sequences! http://oeis.org/",
	"query": "id:A162870",
	"count": 1,
	"start": 0,
	"results": [
		{
			"number": 162870,
			"data": "919,1999,2647,2663,2969,3511,3833,3943,4751,6857,9127,10313,11287,11719,12041,12583,13033,13337,13879,14249,14633,15497,15607,16903,18089,18199,18251,18521,19751,20249,20359,20681,21751,21977,22409",
			"name": "Primes p such that p-1 and p+1 each contain at least one cubed prime in their prime factorization.",
			"comment": [
				"The selection criterion is that p-1 and p+1 are in the subsequence 8=2^3, 24=2^3*3, 27=3^3, 40=2^3*5, 54=2*3^3,... of cubeful numbers (A046099) which actually display at least one cube in their standard prime factorization (A176297).",
				"So at least one of the e_i in p-1=product p_i^e_i, and at least one of the e_j in p+1=product p_j^e_j must equal 3. This is more restrictive than being cubeful, so the sequence becomes a subsequence of A086708."
			],
			"link": [
				"Robert Israel, \u003ca href=\"/A162870/b162870.txt\"\u003eTable of n, a(n) for n = 1..10000\u003c/a\u003e"
			],
			"example": [
				"271 is not in the sequence although 271 - 1 = 2*3^3*5 contains a third cube in the prime factorization, because 271 + 1 = 2^4*17 does not.",
				"919 is in the sequence because 919 - 1 = 2*3^3*17 contains a third cube in the prime factorization and so does 919 + 1 = 2^3*5*23."
			],
			"maple": [
				"isA162870 := proc(n)",
				"    if isprime(n) then",
				"        isA176297(n-1) and isA176297(n+1) ;",
				"    else",
				"        false;",
				"    end if;",
				"end proc:",
				"for n from 1 to 40000 do",
				"    if isA162870(n) then",
				"        printf(\"%d,\",n) ;",
				"    end if;",
				"end do: # _R. J. Mathar_, Dec 08 2015",
				"N:= 10^6: # to get all terms \u003c N, where N is even",
				"V:= Vector(N/2):",
				"for i from 1 do",
				"  p:= ithprime(i);",
				"  if p^3 \u003e N+1 then break fi;",
				"  if p = 2 then inds:= 4*[seq(i,i=1..floor(N/8),2)]",
				"  else inds:= p^3*select(t -\u003e t mod p \u003c\u003e 0, [$1..floor(N/2/p^3)])",
				"  fi;",
				"  V[inds]:= 1;",
				"od:",
				"select(t -\u003e V[(t-1)/2] = 1 and V[(t+1)/2] = 1 and isprime(t), [seq(t,t=3..N,2)]); # _Robert Israel_, Dec 08 2015"
			],
			"mathematica": [
				"f[n_]:=Module[{a=m=0},Do[If[FactorInteger[n][[m,2]]==3,a=1],{m,Length[FactorInteger[n]]}]; a]; lst={};Do[p=Prime[n];If[f[p-1]==1\u0026\u0026f[p+1]==1,AppendTo[lst,p]], {n,7!}];lst"
			],
			"xref": [
				"Cf. A089189, A089194."
			],
			"keyword": "nonn",
			"offset": "1,1",
			"author": "_Vladimir Joseph Stephan Orlovsky_, Jul 15 2009",
			"ext": [
				"Role of cubefree numbers clarified by _R. J. Mathar_, Jul 31 2007"
			],
			"references": 7,
			"revision": 14,
			"time": "2015-12-08T13:42:31-05:00",
			"created": "2010-06-01T03:00:00-04:00"
		}
	]
}