{
	"greeting": "Greetings from The On-Line Encyclopedia of Integer Sequences! http://oeis.org/",
	"query": "id:A162989",
	"count": 1,
	"start": 0,
	"results": [
		{
			"number": 162989,
			"data": "69497,416501,474497,632501,960497,1068497,1226501,1402871,1464101,1635497,1716497,1919429,1986497,2114249,2144501,2283497,2645189,3120497,3174497,3232751,3305501,3332501,3525497,3637169,3998537",
			"name": "Lesser of twin primes p such that none of p-1, p+1 and p+3 are cubefree.",
			"link": [
				"Robert Israel, \u003ca href=\"/A162989/b162989.txt\"\u003eTable of n, a(n) for n = 1..1000\u003c/a\u003e"
			],
			"example": [
				"p=69497 and p+2=69499 are twin primes, also:",
				"p-1=69496=2^3*7*17*73",
				"p+1=69498=2*3^5*11*13",
				"p+3=69500=2^2*5^3*139."
			],
			"maple": [
				"cf:= proc(n) local F;",
				"    F:= ifactors(n)[2];",
				"    max(map(t-\u003et[2],F))\u003e=3",
				"end proc:",
				"select(t -\u003e isprime(t) and isprime(t+2) and cf(t-1) and cf(t+1) and cf(t+3), [seq(i,i=5..10^7,6)]); # _Robert Israel_, Nov 24 2020"
			],
			"mathematica": [
				"f[m_]:=Max[Last/@FactorInteger[m]]\u003e=3;",
				"S={};Do[If[PrimeQ[p=6x-1]\u0026\u0026PrimeQ[p+2]\u0026\u0026",
				"f[p-1]==f[p+1]==f[p+3]==True,AppendTo[S,p]],{x,1,10^6}];S"
			],
			"xref": [
				"Cf. A046099.",
				"See A162874 for another version."
			],
			"keyword": "nonn",
			"offset": "1,1",
			"author": "_Zak Seidov_, Jul 19 2009",
			"ext": [
				"Definition clarified by _Robert Israel_, Nov 24 2020"
			],
			"references": 2,
			"revision": 6,
			"time": "2020-11-24T16:38:58-05:00",
			"created": "2010-06-01T03:00:00-04:00"
		}
	]
}