{
	"greeting": "Greetings from The On-Line Encyclopedia of Integer Sequences! http://oeis.org/",
	"query": "id:A162570",
	"count": 1,
	"start": 0,
	"results": [
		{
			"number": 162570,
			"data": "1,2,3,4,6,7,15",
			"name": "Positive integers n such that the polynomial P(n,t) = t^{2^{n-1}} * (t+1)^{2^{n-1}-1} + 1 of GF(2)[t] is irreducible, where GF(2) = {0,1} is the binary finite field with two elements.",
			"example": [
				"For n=1 the polynomial P(1,t)=t+1 is irreducible in GF(2)[t]. For n=3 the polynomial P(3,t)=t^4(t+1)^3+1 = t^7+t^6+t^5+t^4+1 is irreducible in GF(2)[t]."
			],
			"program": [
				"(PARI) isok(n) = polisirreducible(Mod(1,2)*(t^(2^(n-1))*(t+1)^(2^(n-1)-1)+1)); \\\\ _Michel Marcus_, Aug 14 2013"
			],
			"keyword": "nonn,hard,more",
			"offset": "1,2",
			"author": "_Luis H. Gallardo_, Jul 06 2009",
			"references": 4,
			"revision": 10,
			"time": "2013-08-14T14:00:55-04:00",
			"created": "2010-06-01T03:00:00-04:00"
		}
	]
}