{
	"greeting": "Greetings from The On-Line Encyclopedia of Integer Sequences! http://oeis.org/",
	"query": "id:A162033",
	"count": 1,
	"start": 0,
	"results": [
		{
			"number": 162033,
			"data": "12062839548612627177590,16806092138771527945440553,21426543407547768431255510566,25593279760991200204777303175565,28710773607479112857974893233396825",
			"name": "Number of n X n symmetric binary arrays with rows, considered as binary numbers, in nondecreasing order, and all but the outermost 7 rows or columns zero",
			"link": [
				"R. H. Hardin, \u003ca href=\"/A162033/b162033.txt\"\u003eTable of n, a(n) for n=14..19\u003c/a\u003e"
			],
			"keyword": "nonn",
			"offset": "14,1",
			"author": "_R. H. Hardin_ Jun 25 2009",
			"references": 1,
			"revision": 5,
			"time": "2015-12-18T18:17:21-05:00",
			"created": "2010-06-01T03:00:00-04:00"
		}
	]
}