{
	"greeting": "Greetings from The On-Line Encyclopedia of Integer Sequences! http://oeis.org/",
	"query": "id:A162674",
	"count": 1,
	"start": 0,
	"results": [
		{
			"number": 162674,
			"data": "0,1,97,956,4780,16745,46921,112672,241536,474585,870265,1508716,2496572,3972241,6111665,9134560,13311136,18969297,26502321,36377020,49142380,65438681,86007097,111699776,143490400,182485225,229934601",
			"name": "Number of different fixed (possibly) disconnected tetrominoes bounded (not necessarily tightly) by an n X n square.",
			"comment": [
				"Fixed quasi-tetrominoes."
			],
			"link": [
				"\u003ca href=\"/index/Rec#order_07\"\u003eIndex entries for linear recurrences with constant coefficients\u003c/a\u003e, signature (7,-21,35,-35,21,-7,1)."
			],
			"formula": [
				"a(n) = n*(n-1)*(8*n^4-16*n^3-9*n^2+17*n+8)/12.",
				"G.f.: x^2*(1+90*x+298*x^2+90*x^3+x^4)/(1-x)^7. [_Colin Barker_, Apr 25 2012]"
			],
			"example": [
				"a(2)=1: the (connected) square tetromino."
			],
			"xref": [
				"Cf. A162673, A162675, A162676, A162677, A094171 (free quasi-tetrominoes)."
			],
			"keyword": "nonn,easy",
			"offset": "1,3",
			"author": "_David Bevan_, Jul 27 2009",
			"references": 5,
			"revision": 17,
			"time": "2021-11-20T11:34:36-05:00",
			"created": "2010-06-01T03:00:00-04:00"
		}
	]
}