{
	"greeting": "Greetings from The On-Line Encyclopedia of Integer Sequences! http://oeis.org/",
	"query": "id:A162541",
	"count": 1,
	"start": 0,
	"results": [
		{
			"number": 162541,
			"data": "7,37,139,163,181,241,313,337,349,379,409,421,541,571,607,631,751,859,877,919,937",
			"name": "Primes p such that a splitting of the cyclic group Zp of a prime order p by the perfect 3-shift code {+-1,+-2,+-3} exist.",
			"comment": [
				"This list is computed by S. Saidi : Semicroses and quadratic forms, EuropeanJ.Combinatorics, vol.16, pp.191-196, 1995"
			],
			"reference": [
				"S. Saidi : Semicroses and quadratic forms, European J. Combinatorics, vol.16, pp.191-196, 1995"
			],
			"keyword": "nonn",
			"offset": "1,1",
			"author": "_Ctibor O. Zizka_, Jul 05 2009",
			"references": 0,
			"revision": 2,
			"time": "2012-03-30T17:35:35-04:00",
			"created": "2010-06-01T03:00:00-04:00"
		}
	]
}