{
	"greeting": "Greetings from The On-Line Encyclopedia of Integer Sequences! http://oeis.org/",
	"query": "id:A163029",
	"count": 1,
	"start": 0,
	"results": [
		{
			"number": 163029,
			"data": "6,28,144,730,3692,18666,94384,477264,2413346,12203374,61707810,312032874,1577831334,7978491800,40344192708,204005208738,1031576601204,5216289773894,26376789637884,133377373911160,674438554337506",
			"name": "Number of n X 3 binary arrays with all 1's connected and a path of 1's from top row to bottom row.",
			"link": [
				"R. H. Hardin, \u003ca href=\"/A163029/b163029.txt\"\u003eTable of n, a(n) for n = 1..100\u003c/a\u003e",
				"Chaim Goodman-Strauss, \u003ca href=\"/A163029/a163029.pdf\"\u003eNotes on the number of m × n binary arrays with all 1’s connected and a path of 1’s from top row to bottom row\u003c/a\u003e (May 21 2020)",
				"Chaim Goodman-Strauss, \u003ca href=\"/A163029/a163029.nb\"\u003eMma notebook to accompany the above document\u003c/a\u003e"
			],
			"formula": [
				"a(n) = 7*a(n-1) - 11*a(n-2) + 6*a(n-3) + a(n-4) - 7*a(n-5) + a(n-6). [Conjectured by _R. J. Mathar_, Aug 11 2009]",
				"Proof from _Peter Kagey_, May 08 2019: Scanning from top to bottom, there are 6 possible intermediate states that the bottom row can be in. The transitions between these states define a 6 X 6 transition matrix whose characteristic polynomial agrees with the characteristic polynomial of the above recurrence. QED",
				"For an alternative proof see the Goodman-Strauss links. - _N. J. A. Sloane_, May 22 2020"
			],
			"xref": [
				"Cf. A001333 ((n-1) X 2 arrays).",
				"Cf. also A163030, A163031, A163032, A163033, A163034, A163035, A163036."
			],
			"keyword": "nonn",
			"offset": "1,1",
			"author": "_R. H. Hardin_, Jul 20 2009",
			"references": 8,
			"revision": 38,
			"time": "2020-05-22T00:08:51-04:00",
			"created": "2010-06-01T03:00:00-04:00"
		}
	]
}