{
	"greeting": "Greetings from The On-Line Encyclopedia of Integer Sequences! http://oeis.org/",
	"query": "id:A163957",
	"count": 1,
	"start": 0,
	"results": [
		{
			"number": 163957,
			"data": "1,12,132,1452,15972,175692,1932546,21257280,233822160,2571956640,28290564720,311185670400,3422926421970,37650915208500,414146038003500,4555452101075700,50108275682741100,551172361422635700",
			"name": "Number of reduced words of length n in Coxeter group on 12 generators S_i with relations (S_i)^2 = (S_i S_j)^6 = I.",
			"comment": [
				"The initial terms coincide with those of A003954, although the two sequences are eventually different.",
				"Computed with MAGMA using commands similar to those used to compute A154638."
			],
			"link": [
				"G. C. Greubel, \u003ca href=\"/A163957/b163957.txt\"\u003eTable of n, a(n) for n = 0..955\u003c/a\u003e",
				"\u003ca href=\"/index/Rec#order_06\"\u003eIndex entries for linear recurrences with constant coefficients\u003c/a\u003e, signature (10,10,10,10,10,-55)."
			],
			"formula": [
				"G.f.: (t^6 + 2*t^5 + 2*t^4 + 2*t^3 + 2*t^2 + 2*t + 1)/(55*t^6 - 10*t^5 - 10*t^4 - 10*t^3 - 10*t^2 - 10*t + 1).",
				"a(n) = -55*a(n-6) + 10*Sum_{k=1..5} a(n-k). - _Wesley Ivan Hurt_, May 11 2021"
			],
			"maple": [
				"seq(coeff(series((1+t)*(1-t^6)/(1-11*t+65*t^6-55*t^7), t, n+1), t, n), n = 0 .. 30); # _G. C. Greubel_, Aug 10 2019"
			],
			"mathematica": [
				"CoefficientList[Series[(1+t)*(1-t^6)/(1-11*t+65*t^6-55*t^7), {t,0,30}], t] (* _G. C. Greubel_, Aug 13 2017 *)",
				"coxG[{6, 55, -10}] (* The coxG program is at A169452 *) (* _G. C. Greubel_, Aug 10 2019 *)"
			],
			"program": [
				"(PARI) my(t='t+O('t^30)); Vec((1+t)*(1-t^6)/(1-11*t+65*t^6-55*t^7)) \\\\ _G. C. Greubel_, Aug 13 2017",
				"(MAGMA) R\u003ct\u003e:=PowerSeriesRing(Integers(), 30); Coefficients(R!( (1+t)*(1-t^6)/(1-11*t+65*t^6-55*t^7) )); // _G. C. Greubel_, Aug 10 2019",
				"(Sage)",
				"def A163957_list(prec):",
				"    P.\u003ct\u003e = PowerSeriesRing(ZZ, prec)",
				"    return P((1+t)*(1-t^6)/(1-11*t+65*t^6-55*t^7)).list()",
				"A163957_list(30) # _G. C. Greubel_, Aug 10 2019",
				"(GAP) a:=[12,132,1452,15972,175692,1932546];; for n in [7..30] do a[n]:=10*(a[n-1] +a[n-2]+a[n-3]+a[n-4]+a[n-5]) -55*a[n-6]; od; Concatenation([1], a); # _G. C. Greubel_, Aug 10 2019"
			],
			"keyword": "nonn",
			"offset": "0,2",
			"author": "_John Cannon_ and _N. J. A. Sloane_, Dec 03 2009",
			"references": 1,
			"revision": 19,
			"time": "2021-05-11T10:17:25-04:00",
			"created": "2010-06-01T03:00:00-04:00"
		}
	]
}