{
	"greeting": "Greetings from The On-Line Encyclopedia of Integer Sequences! http://oeis.org/",
	"query": "id:A163584",
	"count": 1,
	"start": 0,
	"results": [
		{
			"number": 163584,
			"data": "0,1,0,0,1,0,0,1,0,0,1,0,0,0,1,0,0,1,0,0,1,0,0,1,0,0,1,0,0,1,0,0,1,0,0,0,1,0,0,1,0,0,1,0,0,1,0,0,1,0,0,1,0,0,1,0,0,0,1,0,0,1,0,0,1,0,0,1,0,0,1,0,0,1,0,0",
			"name": "Number of singularities of tan(x) in integer intervals starting with (0,1).",
			"formula": [
				"For n\u003e0, a(A062389(n)) = 1. - _Michel Marcus_, Aug 07 2013"
			],
			"example": [
				"a(0) = 0 because tan(x) has no singularities in the interval (0,1).",
				"a(1) = 1 because tan(x) has one singularity in the interval (1,2)."
			],
			"xref": [
				"Cf. A163581."
			],
			"keyword": "nonn",
			"offset": "0,1",
			"author": "_A. Timothy Royappa_, Jul 31 2009",
			"ext": [
				"More terms from _Michel Marcus_, Aug 07 2013"
			],
			"references": 1,
			"revision": 11,
			"time": "2020-03-31T10:52:47-04:00",
			"created": "2010-06-01T03:00:00-04:00"
		}
	]
}