{
	"greeting": "Greetings from The On-Line Encyclopedia of Integer Sequences! http://oeis.org/",
	"query": "id:A163418",
	"count": 1,
	"start": 0,
	"results": [
		{
			"number": 163418,
			"data": "3,7,13,31,43,73,211,241,421,463,1123,1723,2551,2971,4831,5701,6163,8011,8191,9901,11131,12433,14281,17293,19183,20023,23563,24181,28393,30103,31153,35911,37831,43891,46441,53593,60271,77563,83233,86143",
			"name": "Primes of the form ((p-1)/2)^2+((p+1)/2), where p is prime.",
			"comment": [
				"Subsequence of A002383. - _Charles R Greathouse IV_, Aug 11 2009"
			],
			"link": [
				"G. C. Greubel, \u003ca href=\"/A163418/b163418.txt\"\u003eTable of n, a(n) for n = 1..1500\u003c/a\u003e"
			],
			"example": [
				"((3-1)/2)^2+((3+1)/2)=1+2=3;",
				"((5-1)/2)^2+((5+1)/2)=4+3=7;",
				"((7-1)/2)^2+((7+1)/2)=9+4=13,.."
			],
			"mathematica": [
				"f[n_]:=((p-1)/2)^2+((p+1)/2); lst={};Do[p=Prime[n];If[PrimeQ[f[p]],AppendTo[lst,f[p]]],{n,6!}];lst",
				"Select[((#-1)/2)^2+((#+1)/2)\u0026/@Prime[Range[200]],PrimeQ] (* _Harvey P. Dale_, Aug 06 2012 *)"
			],
			"program": [
				"(PARI) forprime(p=3,10^3,if(isprime(q=((p-1)/2)^2+(p+1)/2),print1(q,\", \"))) \\\\ _Derek Orr_, Apr 30 2015"
			],
			"xref": [
				"Cf. A162652."
			],
			"keyword": "nonn,easy",
			"offset": "1,1",
			"author": "_Vladimir Joseph Stephan Orlovsky_, Jul 27 2009",
			"references": 13,
			"revision": 17,
			"time": "2016-12-22T23:15:57-05:00",
			"created": "2010-06-01T03:00:00-04:00"
		}
	]
}