{
	"greeting": "Greetings from The On-Line Encyclopedia of Integer Sequences! http://oeis.org/",
	"query": "id:A163173",
	"count": 1,
	"start": 0,
	"results": [
		{
			"number": 163173,
			"data": "4,6,6,10,9,14,10,14,22,15,10,26,21,22,34,14,15,38,26,46,14,33,34,21,22,38,58,39,62,25,26,46,21,74,51,22,82,33,34,57,86,58,35,26,62,94,38,39,69,106,74,46,33,118,34,22,122,35,82,51,86,87,38,134,39,55,93,94,142,57,26",
			"name": "The n-th product of three primes divided by its central prime factor.",
			"comment": [
				"All entries are in A001358."
			],
			"formula": [
				"a(n) = A014612(n)/A162361(n)."
			],
			"example": [
				"a(1)=2*2*2/2=4. a(2)=2*2*3/2=6. a(3)=2*3*3/3=6. a(4)=2*2*5/2=10. a(5)=3*3*3/3 = 9."
			],
			"xref": [
				"Cf. A014612, A162361."
			],
			"keyword": "nonn",
			"offset": "1,1",
			"author": "_Juri-Stepan Gerasimov_, Jul 22 2009",
			"ext": [
				"a(57) corrected by _R. J. Mathar_, Jul 25 2009"
			],
			"references": 0,
			"revision": 3,
			"time": "2012-03-30T18:52:34-04:00",
			"created": "2010-06-01T03:00:00-04:00"
		}
	]
}