{
	"greeting": "Greetings from The On-Line Encyclopedia of Integer Sequences! http://oeis.org/",
	"query": "id:A163708",
	"count": 1,
	"start": 0,
	"results": [
		{
			"number": 163708,
			"data": "1,29,298,2223,13930,76848,405512,2108910,10760604,53366061",
			"name": "Number of nX6 binary arrays with all 1s connected, a path of 1s from left column to lower right corner, and no 1 having more than two 1s adjacent",
			"example": [
				"All solutions for n=2",
				"...0.0.0.0.0.0...0.0.0.0.0.1...1.0.0.0.0.0...1.0.0.0.0.1...1.1.0.0.0.0",
				"...1.1.1.1.1.1...1.1.1.1.1.1...1.1.1.1.1.1...1.1.1.1.1.1...0.1.1.1.1.1",
				"------",
				"...1.1.0.0.0.1...1.1.1.0.0.0...1.1.1.0.0.1...1.1.1.0.0.0...1.1.1.0.0.1",
				"...0.1.1.1.1.1...0.0.1.1.1.1...0.0.1.1.1.1...1.0.1.1.1.1...1.0.1.1.1.1",
				"------",
				"...1.1.1.1.0.0...1.1.1.1.0.1...1.1.1.1.0.0...1.1.1.1.0.1...1.1.1.1.1.0",
				"...0.0.0.1.1.1...0.0.0.1.1.1...1.0.0.1.1.1...1.0.0.1.1.1...0.0.0.0.1.1",
				"------",
				"...1.1.1.1.1.0...1.1.1.1.1.1...1.1.1.1.1.1...0.0.0.1.1.1...1.0.0.1.1.1",
				"...1.0.0.0.1.1...0.0.0.0.0.1...1.0.0.0.0.1...1.1.1.1.0.1...1.1.1.1.0.1",
				"------",
				"...0.0.1.1.1.0...1.0.1.1.1.0...0.0.1.1.1.1...1.0.1.1.1.1...0.1.1.1.0.0",
				"...1.1.1.0.1.1...1.1.1.0.1.1...1.1.1.0.0.1...1.1.1.0.0.1...1.1.0.1.1.1",
				"------",
				"...0.1.1.1.0.1...0.1.1.1.1.0...0.1.1.1.1.1...1.1.0.1.1.1",
				"...1.1.0.1.1.1...1.1.0.0.1.1...1.1.0.0.0.1...0.1.1.1.0.1"
			],
			"keyword": "nonn",
			"offset": "1,2",
			"author": "_R. H. Hardin_ Aug 03 2009",
			"references": 0,
			"revision": 3,
			"time": "2012-03-31T12:35:32-04:00",
			"created": "2010-06-01T03:00:00-04:00"
		}
	]
}