{
	"greeting": "Greetings from The On-Line Encyclopedia of Integer Sequences! http://oeis.org/",
	"query": "id:A163984",
	"count": 1,
	"start": 0,
	"results": [
		{
			"number": 163984,
			"data": "1,1,-2,4,-3,5,-4,-2,3,7,-9,11,-7,-3,-2,16,-13,15,-17,3,5,13,-20,-2,11,-5,-3,25,-27,29,-26,4,7,-13,-2,36,-19,-7,-7,37,-39,41,-35,-3,17,25,-44,-2,5,9,-5,43,-49,3,-5,15,11,31,-54,56,-31,-27,-2,8,-3,61,-53,7,-17,67,-69,71,-37,-25,5,-11,3,71,-76,-2,39,43,-77,7,29,-15",
			"name": "First differences of A056737.",
			"link": [
				"Omar E. Pol, \u003ca href=\"http://www.polprimos.com/imagenespub/polprdipi.jpg\"\u003eIllustration: Divisors and pi(x)\u003c/a\u003e"
			],
			"maple": [
				"A033676 := proc(n) local a, d; a := 0 ; for d in numtheory[divisors](n) do if d^2 \u003c= n then a := max(a, d) ; fi; od: a; end:",
				"A033677 := proc(n) local a, d; a := n ; for d in numtheory[divisors](n) do if d^2 \u003e= n then a := min(a, d) ; fi; od: a; end proc:",
				"A056737 := proc(n) A033677(n)-A033676(n) ; end proc:",
				"[seq(A056737(n),n=1..120)] ;",
				"DIFF(%) ;"
			],
			"xref": [
				"Cf. A033676, A033677, A056737, A147861, A163100, A163280, A163990."
			],
			"keyword": "easy,sign",
			"offset": "1,3",
			"author": "_Omar E. Pol_, Aug 12 2009",
			"references": 0,
			"revision": 6,
			"time": "2014-03-11T01:34:15-04:00",
			"created": "2010-06-01T03:00:00-04:00"
		}
	]
}