{
	"greeting": "Greetings from The On-Line Encyclopedia of Integer Sequences! http://oeis.org/",
	"query": "id:A163133",
	"count": 1,
	"start": 0,
	"results": [
		{
			"number": 163133,
			"data": "1,1,1,4,11,42,196,988,5314,30724,189962,1244264,8583042,62112639,469917193,3707053139,30421506639,259182853643,2288352779166,20904648990227,197305045507448,1921509079008868,19285642292478101",
			"name": "G.f. A(x) equals the composition of functions x*(1 + a(n)*x^n); let F_1(x) = x, F_{n+1}(x) = x*(1 + a(n)*F_n(x)^n), then A(x) = limit F_n(x): A(x) = ...o x*(1+a(n)*x^n) o...o x*(1+a(2)*x^2) o x*(1+a(1)*x).",
			"example": [
				"G.f.: A(x) = x + x^2 + x^3 + 4*x^4 + 11*x^5 + 42*x^6 + 196*x^7 +...",
				"A(x) = ...o x*(1+11*x^5) o x*(1+4*x^4) o x*(1+x^3) o x*(1+x^2) o x*(1+x)."
			],
			"program": [
				"(PARI) {a(n)=local(F=x); if(n\u003c1, 0, for(k=2, n, F=subst(x+a(k-1)*x^k +x*O(x^n),x,F); ); return(polcoeff(F, n)))}"
			],
			"xref": [
				"Cf. A119472 (variant)."
			],
			"keyword": "nonn",
			"offset": "1,4",
			"author": "_Paul D. Hanna_, Aug 10 2009",
			"references": 0,
			"revision": 2,
			"time": "2012-03-30T18:37:17-04:00",
			"created": "2010-06-01T03:00:00-04:00"
		}
	]
}