{
	"greeting": "Greetings from The On-Line Encyclopedia of Integer Sequences! http://oeis.org/",
	"query": "id:A163091",
	"count": 1,
	"start": 0,
	"results": [
		{
			"number": 163091,
			"data": "1,15,210,2940,41055,573300,8005725,111793500,1561106820,21799608285,304414090890,4250899269435,59360407871310,828920611657320,11575213262103855,161638593827703720,2257153663002754425,31519345335542489880,440142444293996873520,6146237150764726493205",
			"name": "Number of reduced words of length n in Coxeter group on 15 generators S_i with relations (S_i)^2 = (S_i S_j)^4 = I.",
			"comment": [
				"The initial terms coincide with those of A170734, although the two sequences are eventually different.",
				"Computed with MAGMA using commands similar to those used to compute A154638."
			],
			"link": [
				"\u003ca href=\"/index/Rec#order_04\"\u003eIndex entries for linear recurrences with constant coefficients\u003c/a\u003e, signature (13,13,13,-91)."
			],
			"formula": [
				"G.f.: (t^4 + 2*t^3 + 2*t^2 + 2*t + 1)/(91*t^4 - 13*t^3 - 13*t^2 - 13*t + 1)."
			],
			"mathematica": [
				"CoefficientList[Series[(t^4 + 2 t^3 + 2 t^2 + 2 t + 1)/(91 t^4 - 13 t^3 - 13 t^2 - 13 t + 1), {t, 0, 20}], t] (* _Jinyuan Wang_, Mar 22 2020 *)"
			],
			"xref": [
				"Cf. A170734."
			],
			"keyword": "nonn",
			"offset": "0,2",
			"author": "_John Cannon_ and _N. J. A. Sloane_, Dec 03 2009",
			"ext": [
				"More terms from _Jinyuan Wang_, Mar 22 2020"
			],
			"references": 0,
			"revision": 9,
			"time": "2020-03-23T06:48:28-04:00",
			"created": "2010-06-01T03:00:00-04:00"
		}
	]
}