{
	"greeting": "Greetings from The On-Line Encyclopedia of Integer Sequences! http://oeis.org/",
	"query": "id:A163090",
	"count": 1,
	"start": 0,
	"results": [
		{
			"number": 163090,
			"data": "1,14,182,2366,30667,397488,5152056,66777984,865538310,11218616136,145409328792,1884713116104,24428580744204,316629386210592,4103970233205024,53193330778861728,689461735481280216,8936411345795737440,115828687266480560736,1501305644372339725920",
			"name": "Number of reduced words of length n in Coxeter group on 14 generators S_i with relations (S_i)^2 = (S_i S_j)^4 = I.",
			"comment": [
				"The initial terms coincide with those of A170733, although the two sequences are eventually different.",
				"Computed with MAGMA using commands similar to those used to compute A154638."
			],
			"link": [
				"\u003ca href=\"/index/Rec#order_04\"\u003eIndex entries for linear recurrences with constant coefficients\u003c/a\u003e, signature (12,12,12,-78)."
			],
			"formula": [
				"G.f.: (t^4 + 2*t^3 + 2*t^2 + 2*t + 1)/(78*t^4 - 12*t^3 - 12*t^2 - 12*t + 1)."
			],
			"mathematica": [
				"CoefficientList[ Series[(t^4 + 2 t^3 + 2 t^2 + 2 t + 1)/(78 t^4 - 12 t^3 - 12 t^2 - 12 t + 1), {t, 0, 20}], t] (* _Jinyuan Wang_, Mar 22 2020 *)"
			],
			"keyword": "nonn",
			"offset": "0,2",
			"author": "_John Cannon_ and _N. J. A. Sloane_, Dec 03 2009",
			"ext": [
				"More terms from _Jinyuan Wang_, Mar 22 2020"
			],
			"references": 0,
			"revision": 9,
			"time": "2020-03-22T23:43:46-04:00",
			"created": "2010-06-01T03:00:00-04:00"
		}
	]
}