{
	"greeting": "Greetings from The On-Line Encyclopedia of Integer Sequences! http://oeis.org/",
	"query": "id:A163123",
	"count": 1,
	"start": 0,
	"results": [
		{
			"number": 163123,
			"data": "0,0,2,0,4,2,7,3,10,4,8,9,15,7,19,14,11,9,9",
			"name": "a(n) = number of integral positive unordered pairs (x,y) such that x^2+n*y=z^2 and n*x+y^2=w^2.",
			"comment": [
				"Solutions (x,y) and (y,x) count only once."
			],
			"example": [
				"Example:",
				"a(6)=2 since the system of two equations",
				"1. x^2+6y=z^2",
				"2. 6x+y^2=w^2",
				"has the following 2 solutions:",
				"s1. (x,y)=(2,2) yielding 2^2+6*2=16=4^2 and 6*2+2^2=16=4^2.",
				"s2. (x,y)=(22,32) yielding 22^2+6*32=26^2 and 6*22+32^2=34^2.",
				"There are no solutions for n= 1, 2, 4."
			],
			"keyword": "nonn",
			"offset": "1,3",
			"author": "_Carmine Suriano_, Jul 21 2009",
			"references": 0,
			"revision": 7,
			"time": "2013-07-25T04:36:53-04:00",
			"created": "2010-06-01T03:00:00-04:00"
		}
	]
}