{
	"greeting": "Greetings from The On-Line Encyclopedia of Integer Sequences! http://oeis.org/",
	"query": "id:A163807",
	"count": 1,
	"start": 0,
	"results": [
		{
			"number": 163807,
			"data": "1,2,3,4,5,6,7,8,9,12,13,10,11,14,15,16,17,24,25,20,21,28,29,18,19,26,27,22,23,30,31,32,33,48,49,40,41,56,57,36,37,52,53,44,45,60,61,34,35,50,51,42,43,58,59,38,39,54,55,46,47,62,63,64,65,96,97,80,81,112,113,72",
			"name": "Reverse the order of inner digits (all digits but the first and last) of n written in binary. a(n) = the decimal value of the result.",
			"comment": [
				"This is a self-inverse permutation of the positive integers."
			],
			"example": [
				"18 in binary is 10010. The inner digits are 001. Reverse these, leaving the first digit (a 1) and the last digit (a 0) untouched, and we have 11000. a(18) is the decimal equivalent of 11000, which is 24."
			],
			"keyword": "base,nonn",
			"offset": "1,2",
			"author": "_Leroy Quet_, Aug 04 2009",
			"ext": [
				"More terms from _R. J. Mathar_, Sep 27 2009"
			],
			"references": 0,
			"revision": 7,
			"time": "2014-03-11T01:32:44-04:00",
			"created": "2010-06-01T03:00:00-04:00"
		}
	]
}