{
	"greeting": "Greetings from The On-Line Encyclopedia of Integer Sequences! http://oeis.org/",
	"query": "id:A164990",
	"count": 1,
	"start": 0,
	"results": [
		{
			"number": 164990,
			"data": "1,2,4,10,22,52,114,260,564,1256,2698,5908,12588,27224,57620,123432,259816,552400,1157466,2446004,5105532,10735352,22334524,46766200,97021272,202431152,418935364,871425160,1799558584",
			"name": "Number of square involutions of n.",
			"reference": [
				"F. Disanto, A. Frosini, S. Rinaldi, Square Involutions, Proceedings of Permutation Patterns, July 13-17, 2009, Florence.",
				"T. Mansour, S. Severini, Grid polygons from permutations and their enumeration by the kernel method, 19th Conference on Formal Power Series and Algebraic Combinatorics, Tianjin, China, July 2-6, 2007."
			],
			"link": [
				"G. C. Greubel, \u003ca href=\"/A164990/b164990.txt\"\u003eTable of n, a(n) for n = 1..1000\u003c/a\u003e",
				"F. Disanto, A. Frosini, S. Rinaldi, \u003ca href=\"https://cs.uwaterloo.ca/journals/JIS/VOL14/Rinaldi/square.html\"\u003eSquare involutions\u003c/a\u003e, J. Int. Seq. 14 (2011) # 11.3.5.",
				"T. Mansour, S. Severini, \u003ca href=\"https://arxiv.org/abs/math/0603225\"\u003eGrid polygons from permutations and their enumeration by the kernel method\u003c/a\u003e, arXiv:math/0603225 [math.CO], 2006."
			],
			"formula": [
				"a(n) = (n+2)*2^(n-3) - (n-2)*C(n-3,(n-3)/2), n \u003e 1.",
				"G.f.: x*(1-x)^2/(1-2*x)^2 - x^3/((1-2*x)*sqrt(1-4*x^2)).",
				"(n-3)*(n-8)*a(n) + 2*(-n^2 + 10*n - 20)*a(n-1) + 4*(-n^2 + 12*n - 31)*a(n-2) + 8*(n-4)*(n-7)*a(n-3) = 0.- _R. J. Mathar_, Jul 24 2012"
			],
			"example": [
				"a(5)=22, in fact the 22 square involutions of 5 are given by all the involutions of 5, which are 26, minus 14325, 15342, 52341, 42315 which are not square."
			],
			"mathematica": [
				"Rest[CoefficientList[Series[x(1-x)^2/(1-2x)^2 - x^3/((1-2x) Sqrt[1-4x^2]), {x, 0, 29}], x]] (* _Michael De Vlieger_, Nov 25 2018 *)"
			],
			"program": [
				"(PARI) my(x='x+O('x^30)); Vec(x*(1-x)^2/(1-2*x)^2 - x^3/((1-2*x)*sqrt(1- 4*x^2))) \\\\ _G. C. Greubel_, Nov 25 2018",
				"(MAGMA) m:=30; R\u003cx\u003e:=PowerSeriesRing(Rationals(), m); Coefficients(R!( x*(1-x)^2/(1-2*x)^2 - x^3/((1-2*x)*Sqrt(1-4*x^2)) )); // _G. C. Greubel_, Nov 25 2018",
				"(Sage) s=(x*(1-x)^2/(1-2*x)^2 -x^3/((1-2*x)*sqrt(1-4*x^2))).series(x, 30);  a= s.coefficients(x, sparse=False); a[1:] # _G. C. Greubel_, Nov 25 2018"
			],
			"xref": [
				"Cf. A128652."
			],
			"keyword": "easy,nonn",
			"offset": "1,2",
			"author": "Simone Rinaldi (rinaldi(AT)unisi.it), Sep 04 2009",
			"references": 1,
			"revision": 23,
			"time": "2018-11-26T04:00:11-05:00",
			"created": "2010-06-01T03:00:00-04:00"
		}
	]
}