{
	"greeting": "Greetings from The On-Line Encyclopedia of Integer Sequences! http://oeis.org/",
	"query": "id:A164180",
	"count": 1,
	"start": 0,
	"results": [
		{
			"number": 164180,
			"data": "1,2,4,8,16,30,57,110,211,404,775,1490,2862,5500,10580,20364,39213,75554,145672,281024,542460,1047758,2024991,3916068,7577829,14672662,28427692,55111534,106908332,207514372,403042840,783284266,1523180257,2963774124",
			"name": "Number of binary strings of length n with equal numbers of 00000 and 00011 substrings.",
			"link": [
				"R. H. Hardin and Alois P. Heinz, \u003ca href=\"/A164180/b164180.txt\"\u003eTable of n, a(n) for n = 0..1000\u003c/a\u003e (first 501 terms from R. H. Hardin)"
			],
			"keyword": "nonn",
			"offset": "0,2",
			"author": "_R. H. Hardin_, Aug 11 2009",
			"references": 1,
			"revision": 8,
			"time": "2014-08-29T07:34:37-04:00",
			"created": "2010-06-01T03:00:00-04:00"
		}
	]
}