{
	"greeting": "Greetings from The On-Line Encyclopedia of Integer Sequences! http://oeis.org/",
	"query": "id:A164359",
	"count": 1,
	"start": 0,
	"results": [
		{
			"number": 164359,
			"data": "1,3,3,2,3,3,2,3,3,2,3,3,2,3,3,2,3,3,2,3,3,2,3,3,2,3,3,2,3,3,2,3,3,2,3,3,2,3,3,2,3,3,2,3,3,2,3,3,2,3,3,2,3,3,2,3,3,2,3,3,2,3,3,2,3,3,2,3,3,2,3,3,2,3,3,2,3,3,2,3,3,2,3,3,2,3,3,2,3,3,2,3,3,2,3,3,2,3,3,2,3,3,2,3,3",
			"name": "Expansion of (1 - x^2)^3 / ((1 - x)^3 * (1 - x^3)) in powers of x.",
			"link": [
				"G. C. Greubel, \u003ca href=\"/A164359/b164359.txt\"\u003eTable of n, a(n) for n = 0..1000\u003c/a\u003e",
				"\u003ca href=\"/index/Rec#order_03\"\u003eIndex entries for linear recurrences with constant coefficients\u003c/a\u003e, signature (0,0,1)."
			],
			"formula": [
				"Euler transform of length 3 sequence [ 3, -3, 1].",
				"Moebius transform is length 3 sequence [ 3, 0, -1].",
				"a(-n) = a(n) for all n in Z. a(n+3) = a(n) unless n=0 or n=-3. a(3*n) = 2 unless n=0. a(3*n + 1) = a(3*n + 2) = 3.",
				"G.f.: -1 + (1/3) * ( 8 / (1 - x) - (2 + x) / (1 + x + x^2) ).",
				"a(n) = A244893(n) if n\u003e1. - _Michael Somos_, Apr 17 2015"
			],
			"example": [
				"G.f. = 1 + 3*x + 3*x^2 + 2*x^3 + 3*x^4 + 3*x^5 + 2*x^6 + 3*x^7 + 3*x^8 + 2*x^9 + ..."
			],
			"mathematica": [
				"a[ n_] := -Boole[n == 0] + 2 + KroneckerSymbol[ 9, n]; (* _Michael Somos_, Apr 17 2015 *)",
				"CoefficientList[Series[(1-x^2)^3/((1-x)^3*(1-x^3)),{x,0,120}],x] (* or *) LinearRecurrence[{0,0,1},{1,3,3,2},120] (* or *) PadRight[{1},120,{2,3,3}] (* _Harvey P. Dale_, Aug 16 2021 *)"
			],
			"program": [
				"(PARI) {a(n) = -(n==0) + 2 + kronecker(9, n)};"
			],
			"xref": [
				"Cf. A244893."
			],
			"keyword": "nonn,easy",
			"offset": "0,2",
			"author": "_Michael Somos_, Aug 13 2009",
			"references": 4,
			"revision": 17,
			"time": "2021-08-16T13:40:41-04:00",
			"created": "2010-06-01T03:00:00-04:00"
		}
	]
}