{
	"greeting": "Greetings from The On-Line Encyclopedia of Integer Sequences! http://oeis.org/",
	"query": "id:A164835",
	"count": 1,
	"start": 0,
	"results": [
		{
			"number": 164835,
			"data": "1,14,182,2366,30758,399854,5198102,67575326,878479147,11420227728,148462945176,1930018088544,25090232567400,326172989788464,4240248430609464,55123223921595648,716601837188495622",
			"name": "Number of reduced words of length n in Coxeter group on 14 generators S_i with relations (S_i)^2 = (S_i S_j)^8 = I.",
			"comment": [
				"The initial terms coincide with those of A170733, although the two sequences are eventually different.",
				"Computed with MAGMA using commands similar to those used to compute A154638."
			],
			"link": [
				"\u003ca href=\"/index/Rec#order_08\"\u003eIndex entries for linear recurrences with constant coefficients\u003c/a\u003e, signature (12, 12, 12, 12, 12, 12, 12, -78)."
			],
			"formula": [
				"G.f. (t^8 + 2*t^7 + 2*t^6 + 2*t^5 + 2*t^4 + 2*t^3 + 2*t^2 + 2*t + 1)/(78*t^8 -",
				"12*t^7 - 12*t^6 - 12*t^5 - 12*t^4 - 12*t^3 - 12*t^2 - 12*t + 1)"
			],
			"mathematica": [
				"coxG[{8,78,-12}] (* The coxG program is at A169452 *) (* _Harvey P. Dale_, May 26 2017 *)"
			],
			"keyword": "nonn",
			"offset": "0,2",
			"author": "_John Cannon_ and _N. J. A. Sloane_, Dec 03 2009",
			"references": 0,
			"revision": 8,
			"time": "2017-05-26T11:25:04-04:00",
			"created": "2010-06-01T03:00:00-04:00"
		}
	]
}