{
	"greeting": "Greetings from The On-Line Encyclopedia of Integer Sequences! http://oeis.org/",
	"query": "id:A164328",
	"count": 1,
	"start": 0,
	"results": [
		{
			"number": 164328,
			"data": "7,11,271,1033,18289,133733,1045493,11939237,103333333,1342313221,10300335833,145933933339,1332523411733,11653733331833",
			"name": "a(n) is the smallest n-digit prime term of A158594 and zero if there is no such number.",
			"comment": [
				"It seems that for all n, a(n)\u003e0.",
				"A164327(n) gives us smallest n-digit term of A158594. So A164328(n)\u003e=A164327(n)."
			],
			"example": [
				"a(5)=18289 so all the seven numbers 18289, 318289, 138289, 183289, 182389,",
				"182839 \u0026 182893 are primes."
			],
			"mathematica": [
				"pp[n_, k_] := Catch[Block[{d = IntegerDigits@n}, Do[If[! PrimeQ[ FromDigits[ Insert[d, k, i]]], Throw[False]], {i, 1+Length@d}]; True]]; a[n_] := Catch[ Block[{p = NextPrime[10^(n-1)]}, While[p \u003c 10^n, If[pp[p, 3], Throw@p, p = NextPrime@p]]; 0]]; a /@ Range[8] (* _Giovanni Resta_, Aug 13 2013 *)"
			],
			"xref": [
				"Cf. A158594, A164327, A164329, A228148-A228150."
			],
			"keyword": "base,hard,more,nonn",
			"offset": "1,1",
			"author": "_Farideh Firoozbakht_, Sep 22 2009",
			"ext": [
				"a(11)-a(13) from _Donovan Johnson_, Apr 14 2010",
				"a(14) from _Giovanni Resta_, Aug 11 2013"
			],
			"references": 5,
			"revision": 8,
			"time": "2013-08-13T08:42:01-04:00",
			"created": "2010-06-01T03:00:00-04:00"
		}
	]
}