{
	"greeting": "Greetings from The On-Line Encyclopedia of Integer Sequences! http://oeis.org/",
	"query": "id:A164217",
	"count": 1,
	"start": 0,
	"results": [
		{
			"number": 164217,
			"data": "1,2,4,8,16,30,56,106,200,379,722,1381,2648,5088,9794,18876,36424,70369,136109,263578,511032,991967,1927705,3750247,7303548,14237722,27781668,54258377,106058790,207481678,406208416,795862250,1560383032,3061357577",
			"name": "Number of binary strings of length n with equal numbers of 00010 and 01011 substrings.",
			"link": [
				"Alois P. Heinz, \u003ca href=\"/A164217/b164217.txt\"\u003eTable of n, a(n) for n = 0..1000\u003c/a\u003e (first 501 terms from R. H. Hardin)"
			],
			"keyword": "nonn",
			"offset": "0,2",
			"author": "_R. H. Hardin_, Aug 11 2009",
			"references": 1,
			"revision": 8,
			"time": "2018-03-12T20:21:32-04:00",
			"created": "2010-06-01T03:00:00-04:00"
		}
	]
}