{
	"greeting": "Greetings from The On-Line Encyclopedia of Integer Sequences! http://oeis.org/",
	"query": "id:A164770",
	"count": 1,
	"start": 0,
	"results": [
		{
			"number": 164770,
			"data": "145,152,179,190,251,3182,3190,3199,3245,3290,3335,3362,3380,3470,3479,3496,3550,3649,3650,3749,3821,4001,4010,4100,4495,4496,4540,4550,4585,4595,4639,4649,4810,4820,4910,4990,5701,5710,5755,5800,5900,6350,6404",
			"name": "Numbers k with the property that the average digit of k^2 is 2.",
			"comment": [
				"There are 6368 such k's \u003c 10^7: see link to 15217.html."
			],
			"link": [
				"Harvey P. Dale, \u003ca href=\"/A164770/b164770.txt\"\u003eTable of n, a(n) for n = 1..2500\u003c/a\u003e",
				"Zak Seidov, \u003ca href=\"http://zak08.livejournal.com/15217.html\"\u003eAverage digit of n^2 is 2.\u003c/a\u003e",
				"Zak Seidov, \u003ca href=\"http://zak08.livejournal.com/14963.html\"\u003eCase with trailing zeros.\u003c/a\u003e"
			],
			"example": [
				"145 is a term because 145^2 = 21025 and (2 + 1 + 0 + 2 + 5)/5 = 2."
			],
			"mathematica": [
				"Select[Range[6500],Mean[IntegerDigits[#^2]]==2\u0026] (* _Harvey P. Dale_, May 10 2021 *)"
			],
			"program": [
				"(PARI) dsum(n)={my(s=0);while(n\u003e9,s+=n%10;n\\=10);s+n};for(n=1,1e6,if(dsum(n^2)/#Str(n^2)==2,print1(n\",\")))"
			],
			"keyword": "base,nonn,easy",
			"offset": "1,1",
			"author": "_Zak Seidov_, Aug 26 2009",
			"ext": [
				"Program by _Charles R Greathouse IV_, Nov 01 2009",
				"Edited by _Charles R Greathouse IV_, Mar 23 2010"
			],
			"references": 9,
			"revision": 10,
			"time": "2021-09-29T00:42:33-04:00",
			"created": "2010-06-01T03:00:00-04:00"
		}
	]
}