{
	"greeting": "Greetings from The On-Line Encyclopedia of Integer Sequences! http://oeis.org/",
	"query": "id:A164629",
	"count": 1,
	"start": 0,
	"results": [
		{
			"number": 164629,
			"data": "1,3,0,2,1,1,1,3,4,2,3,0,4,1,2,0,2,4,2,2,3,1,4,4,3,1,1,4,0,2,0,4,0,2,1,2,1,1,1,0,3,3,1,3,3,0,4,0,0,4,0,2,4,1,0,2,2,3,0,1,1,0,4,3,4,2,2,2,1,4,4,2,1,2,1,1,4,4,3,2,2,2,1,0,3,1,2,4,1,0",
			"name": "Expansion of phi (golden ratio) in base 5.",
			"mathematica": [
				"RealDigits[(1 + Sqrt[5])/2, 5, 90]",
				"RealDigits[GoldenRatio,5,120][[1]] (* _Harvey P. Dale_, Jan 19 2021 *)"
			],
			"program": [
				"(PARI) default(realprecision, 1000); x=(1+sqrt(5))/2;",
				"for(n=1, 100, d=floor(x); x=(x-d)*5; print1(d, \", \")); \\\\ _Jinyuan Wang_, Mar 21 2020"
			],
			"xref": [
				"Cf. A001622, A004714."
			],
			"keyword": "nonn,base,cons",
			"offset": "1,2",
			"author": "Keith Rarick, Dan McCandless (kr(AT)xph.us), Aug 18 2009",
			"references": 3,
			"revision": 7,
			"time": "2021-01-19T19:09:51-05:00",
			"created": "2010-06-01T03:00:00-04:00"
		}
	]
}