{
	"greeting": "Greetings from The On-Line Encyclopedia of Integer Sequences! http://oeis.org/",
	"query": "id:A164463",
	"count": 1,
	"start": 0,
	"results": [
		{
			"number": 164463,
			"data": "13,20,31,50,82,134,217,350,565,914,1480,2396,3877,6272,10147,16418,26566,42986,69553,112538,182089,294626,476716,771344,1248061,2019404,3267463,5286866,8554330,13841198,22395529,36236726,58632253,94868978",
			"name": "Number of binary strings of length n with no substrings equal to 0001 0100 or 0110",
			"link": [
				"R. H. Hardin, \u003ca href=\"/A164463/b164463.txt\"\u003eTable of n, a(n) for n=4..500\u003c/a\u003e",
				"\u003ca href=\"/index/Rec\"\u003eIndex entries for linear recurrences with constant coefficients\u003c/a\u003e, signature (2,-1,0,1)."
			],
			"formula": [
				"G.f. -x^4*(13-6*x+4*x^2+8*x^3) / ( (x^2-x+1)*(x^2+x-1) ). - R. J. Mathar, Jan 19 2011"
			],
			"keyword": "nonn",
			"offset": "4,1",
			"author": "_R. H. Hardin_ Aug 14 2009",
			"references": 1,
			"revision": 9,
			"time": "2015-06-13T00:53:15-04:00",
			"created": "2010-06-01T03:00:00-04:00"
		}
	]
}