{
	"greeting": "Greetings from The On-Line Encyclopedia of Integer Sequences! http://oeis.org/",
	"query": "id:A164235",
	"count": 1,
	"start": 0,
	"results": [
		{
			"number": 164235,
			"data": "1,2,4,8,16,30,56,104,195,370,706,1352,2588,4952,9477,18157,34854,67040,129191,249346,481877,932352,1806008,3502388,6800114,13218020,25721341,50103831,97694970,190666603,372442573,728131340,1424656550,2789619644",
			"name": "Number of binary strings of length n with equal numbers of 00100 and 00110 substrings",
			"link": [
				"R. H. Hardin, \u003ca href=\"/A164235/b164235.txt\"\u003eTable of n, a(n) for n=0..500\u003c/a\u003e"
			],
			"keyword": "nonn",
			"offset": "0,2",
			"author": "_R. H. Hardin_ Aug 11 2009",
			"references": 1,
			"revision": 4,
			"time": "2012-03-31T12:35:34-04:00",
			"created": "2010-06-01T03:00:00-04:00"
		}
	]
}