{
	"greeting": "Greetings from The On-Line Encyclopedia of Integer Sequences! http://oeis.org/",
	"query": "id:A164731",
	"count": 1,
	"start": 0,
	"results": [
		{
			"number": 164731,
			"data": "1,0,1,1,3,3,1,4,3,8,3,16,5,27,8,46,9,73,11,110,16,162,25,231,37,318,58,429,88,572,132,747,192,963,269,1229,372,1551,500,1939,662,2401,864,2948,1115,3586,1421,4330,1792,5194,2240,6191,2764,7338,3382,8650,4105",
			"name": "Number of cycles of n-digit numbers (including fixed points) under the Kaprekar map A151949.",
			"link": [
				"Joseph Myers, \u003ca href=\"/A164731/b164731.txt\"\u003eTable of n, a(n) for n=1..70\u003c/a\u003e",
				"H. Hanslik, E. Hetmaniok, I. Sobstyl, et al., \u003ca href=\"http://yadda.icm.edu.pl/baztech/element/bwmeta1.element.baztech-aeb2e2a6-99ca-4268-8f6b-a947b9c04da9\"\u003eOrbits of the Kaprekar's transformations-some introductory facts\u003c/a\u003e, Zeszyty Naukowe Politechniki Śląskiej, Seria: Matematyka Stosowana z. 5, Nr kol. 1945; 2015.",
				"\u003ca href=\"/index/K#Kaprekar_map\"\u003eIndex entries for the Kaprekar map\u003c/a\u003e"
			],
			"xref": [
				"Cf. A151949, A164716, A164732, A164733, A164734, A164735, A164736.",
				"In other bases: A004526 (base 2, adjusted to start 1, 0, 0, 1, 1, ...), A165006 (base 3), A165025 (base 4), A165045 (base 5), A165064 (base 6), A165084 (base 7), A165103 (base 8), A165123 (base 9). [_Joseph Myers_, Sep 05 2009]"
			],
			"keyword": "base,nonn",
			"offset": "1,5",
			"author": "_Joseph Myers_, Aug 23 2009",
			"references": 13,
			"revision": 14,
			"time": "2017-06-02T00:44:08-04:00",
			"created": "2010-06-01T03:00:00-04:00"
		}
	]
}