{
	"greeting": "Greetings from The On-Line Encyclopedia of Integer Sequences! http://oeis.org/",
	"query": "id:A164415",
	"count": 1,
	"start": 0,
	"results": [
		{
			"number": 164415,
			"data": "1,2,4,8,13,22,38,65,112,193,332,572,985,1696,2921,5030,8662,14917,25688,44237,76180,131188,225917,389048,669973,1153750,1986854,3421529,5892160,10146793,17473628,30091052,51819313,89237200,153673937,264639398,455731222",
			"name": "Number of binary strings of length n with no substrings equal to 0000, 0001, or 1100.",
			"link": [
				"Alois P. Heinz, \u003ca href=\"/A164415/b164415.txt\"\u003eTable of n, a(n) for n = 0..2000\u003c/a\u003e (first 500 terms from R. H. Hardin)",
				"\u003ca href=\"/index/Rec#order_04\"\u003eIndex entries for linear recurrences with constant coefficients\u003c/a\u003e, signature (1, 1, 1, -1)."
			],
			"formula": [
				"G.f.: -(x+1)*(x^5-x^2-1)/(x^4-x^3-x^2-x+1). - _R. J. Mathar_, Nov 28 2011"
			],
			"keyword": "nonn,easy",
			"offset": "0,2",
			"author": "_R. H. Hardin_, Aug 14 2009",
			"ext": [
				"Edited by _Alois P. Heinz_, Oct 12 2017"
			],
			"references": 2,
			"revision": 16,
			"time": "2017-10-12T14:55:52-04:00",
			"created": "2010-06-01T03:00:00-04:00"
		}
	]
}