{
	"greeting": "Greetings from The On-Line Encyclopedia of Integer Sequences! http://oeis.org/",
	"query": "id:A164947",
	"count": 1,
	"start": 0,
	"results": [
		{
			"number": 164947,
			"data": "1,2,3,4,5,6,7,10,12,16,20,21,35,56,78,84,97,125,138,184,189,300,418,437,550",
			"name": "Numbers n such that A004090(n)/A060384(n) is an integer.",
			"comment": [
				"No further terms between 550 and 12000. [_R. J. Mathar_, Sep 27 2009]",
				"No further terms up to 50000. - _Michel Marcus_, Apr 28 2018"
			],
			"program": [
				"(PARI) isok(n) = my(f=fibonacci(n), d=digits(f)); !(vecsum(d) % #d); \\\\ _Michel Marcus_, Apr 28 2018"
			],
			"xref": [
				"Cf. A004090, A060384."
			],
			"keyword": "nonn,base,more",
			"offset": "1,2",
			"author": "_Ctibor O. Zizka_, Sep 01 2009",
			"ext": [
				"14 more terms from _R. J. Mathar_, Sep 27 2009"
			],
			"references": 1,
			"revision": 12,
			"time": "2018-04-28T03:14:05-04:00",
			"created": "2010-06-01T03:00:00-04:00"
		}
	]
}