{
	"greeting": "Greetings from The On-Line Encyclopedia of Integer Sequences! http://oeis.org/",
	"query": "id:A164663",
	"count": 1,
	"start": 0,
	"results": [
		{
			"number": 164663,
			"data": "1,3,5,5,11,9,17,11,25,15,31,21,35,25,49,23,55,29,53,39,71,41,77,43,79,47,97,53,95,73,89,63,115,51,165,73,131,77,135,71,141,103,125,105,163,89,169,81,161,101,193,109,181,119,197,121,261,111,203,139,179,143,239,95",
			"name": "Row sums of triangle A164659 (denominators of coefficients from int(T(n,x),x), with T(n,x) Chebyshev polynomials of the first kind).",
			"comment": [
				"The row sums of the rational triangle A164658/A164659 give A164660/A164661."
			],
			"link": [
				"\u003ca href=\"/index/Ch#Cheby\"\u003eIndex entries for sequences related to Chebyshev polynomials.\u003c/a\u003e"
			],
			"formula": [
				"a(n) = Sum_{m=1..n+1} A164659(n,m), n\u003e=0."
			],
			"xref": [
				"Row sums of numerator triangle A164658 gives A164662."
			],
			"keyword": "nonn,easy",
			"offset": "0,2",
			"author": "_Wolfdieter Lang_, Oct 16 2009",
			"references": 2,
			"revision": 8,
			"time": "2021-03-06T01:32:13-05:00",
			"created": "2010-06-01T03:00:00-04:00"
		}
	]
}