{
	"greeting": "Greetings from The On-Line Encyclopedia of Integer Sequences! http://oeis.org/",
	"query": "id:A165384",
	"count": 1,
	"start": 0,
	"results": [
		{
			"number": 165384,
			"data": "481,18912,196082,1357468,7051772,30346872,113675050,385459632,1210822319,3585582454,10137294012",
			"name": "Number of slanted nX7 (i=1..n)X(j=i..7+i-1) 1..4 arrays with all 1s connected, all 2s connected, all 3s connected, all 4s connected, 1 in the upper left corner, 2 in the upper right corner, 3 in the lower left corner, 4 in the lower right corner, and with no element having more than 3 neighbors with the same value",
			"example": [
				"One solution for n=6",
				"...1.1.2.2.2.2.2..........",
				".....1.1.2.3.2.2.2........",
				".......1.3.3.2.3.2.2......",
				".........3.3.2.3.3.4.4....",
				"...........3.3.3.3.3.4.4..",
				".............3.4.4.4.4.4.4"
			],
			"keyword": "nonn",
			"offset": "2,1",
			"author": "_R. H. Hardin_ Sep 17 2009",
			"references": 0,
			"revision": 3,
			"time": "2012-03-31T12:35:35-04:00",
			"created": "2010-06-01T03:00:00-04:00"
		}
	]
}