{
	"greeting": "Greetings from The On-Line Encyclopedia of Integer Sequences! http://oeis.org/",
	"query": "id:A165117",
	"count": 1,
	"start": 0,
	"results": [
		{
			"number": 165117,
			"data": "16,48,320,400,2256,3712,3856,5168,5312,5456,34960,40080,42240,49520,55360,183696,250592,308992,322096,323392,388992,419888,440192,446096,448688,454592,505792,511696,512992,3496800,3916640,31596672,35193008",
			"name": "Consider the base-9 Kaprekar map n-\u003eK(n) defined in A165110. Sequence gives numbers belonging to cycles of length greater than 1",
			"comment": [
				"Initial terms in base 9: 17, 53, 385, 484, 3076, 5074, 5254, 7072, 7252, 7432."
			],
			"link": [
				"Joseph Myers, \u003ca href=\"/A165117/b165117.txt\"\u003eTable of n, a(n) for n=1..7548\u003c/a\u003e",
				"\u003ca href=\"/index/K#Kaprekar_map\"\u003eIndex entries for the Kaprekar map\u003c/a\u003e"
			],
			"xref": [
				"Cf. A165110, A165118, A165114, A165115, A165119, A165121, A165128.",
				"In other bases: Empty (base 2), A165000 (base 3), A165019 (base 4), A165039 (base 5), A165058 (base 6), A165078 (base 7), A165097 (base 8), A099010 (base 10)."
			],
			"keyword": "base,nonn",
			"offset": "1,1",
			"author": "_Joseph Myers_, Sep 04 2009",
			"references": 14,
			"revision": 4,
			"time": "2012-03-30T17:28:44-04:00",
			"created": "2010-06-01T03:00:00-04:00"
		}
	]
}