{
	"greeting": "Greetings from The On-Line Encyclopedia of Integer Sequences! http://oeis.org/",
	"query": "id:A165578",
	"count": 1,
	"start": 0,
	"results": [
		{
			"number": 165578,
			"data": "0,1,0,1,2,3,2,1,0,1,0,1,2,1,2,3,4,5,4,5,6,5,4,3,2,3,4,5,4,3,2,1,0,1,0,-1,0,1,0,-1,-2,-3,-2,-1,0,1,2,1,2,3,2,3,2,3,2,3,4,5,6,5,6,7,8,7,8,7,6,5,6,5,6,7,6,5,4,5,6,5,6,5,6,7,8,9,8,9,8,7,6,5,4,5,4,3,4,5,4,5,4",
			"name": "Partial sums of A011627.",
			"comment": [
				"Period 229."
			],
			"link": [
				"A. Karttunen, \u003ca href=\"/A165578/b165578.txt\"\u003eTable of n, a(n) for n = 0..229\u003c/a\u003e"
			],
			"formula": [
				"a(n) = -(a(n-1) + a(n-2) + ... + a(n-228)) = a(n-229). - _Charles R Greathouse IV_, Feb 11 2013"
			],
			"program": [
				"(PARI) a(n)=sum(k=1,n%229,kronecker(k,229)) \\\\ _Charles R Greathouse IV_, Feb 11 2013"
			],
			"xref": [
				"Similar sequences: A165575-A165579, A165472, A165477, A165482, A165582, A165587, A165592, A165597."
			],
			"keyword": "sign,easy",
			"offset": "0,5",
			"author": "_Antti Karttunen_, Sep 22 2009",
			"references": 2,
			"revision": 5,
			"time": "2013-02-11T14:32:43-05:00",
			"created": "2010-06-01T03:00:00-04:00"
		}
	]
}