{
	"greeting": "Greetings from The On-Line Encyclopedia of Integer Sequences! http://oeis.org/",
	"query": "id:A165969",
	"count": 1,
	"start": 0,
	"results": [
		{
			"number": 165969,
			"data": "3,16,5,90,36,14,576,252,128,54,4200,1920,1080,600,264,34560,16200,9600,5940,3456,1560,317520,151200,92400,60480,39312,23520,10800,3225600,1552320,967680,655200,451584,302400,184320,85680,35925120,17418240,11007360,7620480,5443200,3870720,2643840,1632960,766080",
			"name": "Triangle read by rows: T(n,m) = A094310(n,m)*A120070(n+1,m), 1 \u003c= m \u003c= n.",
			"comment": [
				"The second array mentioned in the comment in A129326."
			],
			"example": [
				"Triangle begins",
				"        3;",
				"       16,       5;",
				"       90,      36,     14;",
				"      576,     252,    128,     54;",
				"     4200,    1920,   1080,    600,    264;",
				"    34560,   16200,   9600,   5940,   3456,   1560;",
				"   317520,  151200,  92400,  60480,  39312,  23520,  10800;",
				"  3225600, 1552320, 967680, 655200, 451584, 302400, 184320, 85680;"
			],
			"maple": [
				"A120070 := proc(n, m) n^2-m^2 ; end proc:",
				"A094310 := proc(n,m) n!/m ; end proc:",
				"A165969 := proc(n,m) A094310(n,m)*A120070(n+1,m) ; end proc: # _R. J. Mathar_, Jan 23 2011"
			],
			"xref": [
				"Cf. A077012, A079210."
			],
			"keyword": "nonn,tabl,easy",
			"offset": "1,1",
			"author": "_Paul Curtz_, Oct 02 2009",
			"references": 1,
			"revision": 10,
			"time": "2019-01-12T20:45:04-05:00",
			"created": "2010-06-01T03:00:00-04:00"
		}
	]
}