{
	"greeting": "Greetings from The On-Line Encyclopedia of Integer Sequences! http://oeis.org/",
	"query": "id:A165703",
	"count": 1,
	"start": 0,
	"results": [
		{
			"number": 165703,
			"data": "1,47,2162,99452,4574792,210440432,9680259872,445291954112,20483429889152,942237774899911,43342937645346180,1993775131683637965,91713656057342175900,4218828178632902248860,194066096216890962690720",
			"name": "Number of reduced words of length n in Coxeter group on 47 generators S_i with relations (S_i)^2 = (S_i S_j)^9 = I.",
			"comment": [
				"The initial terms coincide with those of A170766, although the two sequences are eventually different.",
				"Computed with MAGMA using commands similar to those used to compute A154638."
			],
			"link": [
				"\u003ca href=\"/index/Rec#order_09\"\u003eIndex entries for linear recurrences with constant coefficients\u003c/a\u003e, signature (45, 45, 45, 45, 45, 45, 45, 45, -1035)."
			],
			"formula": [
				"G.f. (t^9 + 2*t^8 + 2*t^7 + 2*t^6 + 2*t^5 + 2*t^4 + 2*t^3 + 2*t^2 + 2*t +",
				"1)/(1035*t^9 - 45*t^8 - 45*t^7 - 45*t^6 - 45*t^5 - 45*t^4 - 45*t^3 -",
				"45*t^2 - 45*t + 1)"
			],
			"mathematica": [
				"coxG[{9,1035,-45}] (* The coxG program is at A169452 *) (* _Harvey P. Dale_, Feb 25 2015 *)"
			],
			"keyword": "nonn",
			"offset": "0,2",
			"author": "_John Cannon_ and _N. J. A. Sloane_, Dec 03 2009",
			"references": 0,
			"revision": 8,
			"time": "2016-11-23T22:18:51-05:00",
			"created": "2010-06-01T03:00:00-04:00"
		}
	]
}