{
	"greeting": "Greetings from The On-Line Encyclopedia of Integer Sequences! http://oeis.org/",
	"query": "id:A165986",
	"count": 1,
	"start": 0,
	"results": [
		{
			"number": 165986,
			"data": "6,14,26,38,74,86,134,158,194,206,218,254,326,386,446,458,554,614,626,698,758,794,878,914,926,974,998,1226,1286,1346,1478,1514,1538,1646,1706,1718,1754,1766,1814,1874,1934,2018,2174,2186,2426,2558,2594,2606",
			"name": "Even semiprimes n such that (the largest prime factor of n) + 4 is prime.",
			"comment": [
				"Also numbers n of the form 2p such that p and p+4 are prime.",
				"n is congruent to 2 modulo 3 for n \u003e 6."
			],
			"link": [
				"Harvey P. Dale, \u003ca href=\"/A165986/b165986.txt\"\u003eTable of n, a(n) for n = 1..1000\u003c/a\u003e"
			],
			"formula": [
				"a(n) = 2*A023200(n). - _R. J. Mathar_, Jun 23 2011"
			],
			"mathematica": [
				"Select[Range[2,3000,2],PrimeOmega[#]==2\u0026\u0026PrimeQ[FactorInteger[#][[-1,1]]+4]\u0026] (* _Harvey P. Dale_, Mar 09 2021 *)"
			],
			"program": [
				"(MAGMA) [ 2*p: p in PrimesUpTo(1500) | IsPrime(p+4) ]; // _Klaus Brockhaus_, Jun 26 2011",
				"(PARI) forprime(p=2,1e3,if(isprime(p+4),print1(p+p\", \"))) \\\\ _Charles R Greathouse IV_, Jun 26 2011"
			],
			"keyword": "nonn,easy",
			"offset": "1,1",
			"author": "_Giovanni Teofilatto_, Oct 03 2009, Jun 26 2011",
			"ext": [
				"Definition clarified by _Harvey P. Dale_, Jul 14 2021"
			],
			"references": 2,
			"revision": 21,
			"time": "2021-07-14T16:51:04-04:00",
			"created": "2010-06-01T03:00:00-04:00"
		}
	]
}