{
	"greeting": "Greetings from The On-Line Encyclopedia of Integer Sequences! http://oeis.org/",
	"query": "id:A165118",
	"count": 1,
	"start": 0,
	"results": [
		{
			"number": 165118,
			"data": "2,2,2,2,3,3,3,3,3,3,5,5,5,5,5,14,14,14,14,14,14,14,14,14,14,14,14,14,14,2,2,4,4,4,4,12,12,12,12,12,12,12,12,12,12,12,12,5,5,4,5,5,4,4,5,4,6,6,6,6,6,6,6,6,2,6,6,2,6,2,2,6,6,6,4,6,4,6,4,6,4,6,11,11,11,11,11,11,11",
			"name": "Length of cycle mentioned in A165117",
			"link": [
				"Joseph Myers, \u003ca href=\"/A165118/b165118.txt\"\u003eTable of n, a(n) for n=1..7548\u003c/a\u003e",
				"\u003ca href=\"/index/K#Kaprekar_map\"\u003eIndex entries for the Kaprekar map\u003c/a\u003e"
			],
			"xref": [
				"Cf. A165110, A165117, A165116, A165120, A165122, A165129.",
				"In other bases: Empty (base 2), A165001 (base 3), A165020 (base 4), A165040 (base 5), A165059 (base 6), A165079 (base 7), A165098 (base 8), A164715 (base 10)."
			],
			"keyword": "base,nonn",
			"offset": "1,1",
			"author": "_Joseph Myers_, Sep 04 2009",
			"references": 12,
			"revision": 4,
			"time": "2012-03-30T17:28:44-04:00",
			"created": "2010-06-01T03:00:00-04:00"
		}
	]
}