{
	"greeting": "Greetings from The On-Line Encyclopedia of Integer Sequences! http://oeis.org/",
	"query": "id:A165790",
	"count": 1,
	"start": 0,
	"results": [
		{
			"number": 165790,
			"data": "1,10,3,36,5,54,7,136,9,150,55,156,91,238,15,528,17,594,57,300,21,154,253,792,275,598,27,924,87,990,31,2080,33,2210,455,2124,333,1330,741,2600,1189,2394,215,308,45,1978,893,2160,931,550,51,2236,689,1134,495",
			"name": "a(n) = the smallest positive multiple, k, of n that when written in binary, and leading 0's of k are ignored, contains the reversal of the digits of binary n.",
			"comment": [
				"a(2n-1) = A161980(2n-1), for all n\u003e=1."
			],
			"xref": [
				"Cf. A161980."
			],
			"keyword": "base,nonn",
			"offset": "1,2",
			"author": "_Leroy Quet_, Sep 26 2009",
			"ext": [
				"Extended by _Ray Chandler_, Mar 12 2010"
			],
			"references": 0,
			"revision": 7,
			"time": "2014-03-11T01:32:48-04:00",
			"created": "2010-06-01T03:00:00-04:00"
		}
	]
}