{
	"greeting": "Greetings from The On-Line Encyclopedia of Integer Sequences! http://oeis.org/",
	"query": "id:A165016",
	"count": 1,
	"start": 0,
	"results": [
		{
			"number": 165016,
			"data": "0,30,201,2550,3369,3873,14565,54441,62625,64641,171990,234405,254865,873129,954261,1004193,1036929,1044993,3755685,4083345,4165185,11140950,13978281,15285909,16075425,16399953,16599681,16730625,16762881",
			"name": "List of fixed points of the base-4 Kaprekar map A165012",
			"comment": [
				"Initial terms in base 4: 0, 132, 3021, 213312, 310221, 330201, 3203211, 31102221, 33102201, 33302001."
			],
			"link": [
				"Joseph Myers, \u003ca href=\"/A165016/b165016.txt\"\u003eTable of n, a(n) for n=1..7138\u003c/a\u003e",
				"\u003ca href=\"/index/K#Kaprekar_map\"\u003eIndex entries for the Kaprekar map\u003c/a\u003e"
			],
			"xref": [
				"Cf. A165012, A165017, A165019, A165027.",
				"In other bases: A163205 (base 2), A164997 (base 3), A165036 (base 5), A165055 (base 6), A165075 (base 7), A165094 (base 8), A165114 (base 9), A099009 (base 10)."
			],
			"keyword": "base,nonn",
			"offset": "1,2",
			"author": "_Joseph Myers_, Sep 04 2009",
			"references": 17,
			"revision": 4,
			"time": "2012-03-30T17:28:43-04:00",
			"created": "2010-06-01T03:00:00-04:00"
		}
	]
}