{
	"greeting": "Greetings from The On-Line Encyclopedia of Integer Sequences! http://oeis.org/",
	"query": "id:A165350",
	"count": 1,
	"start": 0,
	"results": [
		{
			"number": 165350,
			"data": "13,23,43,53,67,71,73,79,83,97,101,103,113,137,149,157,163,167,173,179,181,193,197,211,223,233,241,257,263,269,271,277,283,293,311,313,331,349,353,373,379,383,401,409,419,421,431,433,443,457,463,467,499",
			"name": "Primes p such that floor((p^2-1)/4)+p is not prime.",
			"link": [
				"Vincenzo Librandi, \u003ca href=\"/A165350/b165350.txt\"\u003eTable of n, a(n) for n = 1..1000\u003c/a\u003e"
			],
			"mathematica": [
				"Select[Prime[Range[2, 200]], ! PrimeQ[(#^2 - 1) / 4 + #]\u0026] (* _Vincenzo Librandi_, Sep 12 2013 *)"
			],
			"program": [
				"(MAGMA) [p: p in PrimesUpTo(500)| not IsPrime(Floor((p^2-1)/4)+p)]; // _Vincenzo Librandi_, Sep 12 2013"
			],
			"xref": [
				"Cf. A163419, A163420."
			],
			"keyword": "nonn,easy",
			"offset": "1,1",
			"author": "_Vincenzo Librandi_, Sep 16 2009",
			"ext": [
				"Edited (but not checked) by _N. J. A. Sloane_, Sep 25 2009"
			],
			"references": 2,
			"revision": 16,
			"time": "2013-09-12T10:21:37-04:00",
			"created": "2010-06-01T03:00:00-04:00"
		}
	]
}