{
	"greeting": "Greetings from The On-Line Encyclopedia of Integer Sequences! http://oeis.org/",
	"query": "id:A165805",
	"count": 1,
	"start": 0,
	"results": [
		{
			"number": 165805,
			"data": "2,3,4,5,6,7,10,11,14,15,22,23,46,47,94,95",
			"name": "Integers that start a trajectory x -\u003e A008619(x) which contains only primes until terminating at 2 or 3.",
			"comment": [
				"Starting from n, the trajectory of repeated application of x -\u003e x - ceiling(x/2), as represented by A008619, is monitored until it reaches 2 or 3. If the trajectory (ignoring the initial n) contains only primes, n is added to the sequence.",
				"We are essentially requiring a chain of safe primes A005385 down to 2 or 3, in search of reverse Cunningham chains of the first type.",
				"There are no more terms between 95 and 10000000. - _R. J. Mathar_, Sep 29 2009",
				"No more terms between 95 and 1500000000 (i.e., 1.5*10^9). - _Owen Whitby_, Oct 16 2009",
				"There are no terms larger than 95, which can be seen by following the chains up from 2 and 3. The only primes that go to 2 or 3 via the map x -\u003e x - ceiling(x/2) are 5 and 7. The only prime that goes to 5 or 7 via that map is 11. The only prime that goes to 11 is 23, the only prime that goes to 23 is 47, and no prime number maps to 47 (since 95 is not prime). Thus the only numbers that can produce prime chains in this way are numbers x such that x-ceiling(x/2) is in {1,2,3,5,7,11,23,47}. - _Nathaniel Johnston_, Nov 22 2010"
			],
			"example": [
				"The trajectories of starting with numbers from 91 to 96 are",
				"  91 -\u003e 45 -\u003e 22 -\u003e 11 -\u003e 5 -\u003e 2",
				"  92 -\u003e 46 -\u003e 23 -\u003e 11 -\u003e 5 -\u003e 2",
				"  93 -\u003e 46 -\u003e 23 -\u003e 11 -\u003e 5 -\u003e 2",
				"  94 -\u003e 47 -\u003e 23 -\u003e 11 -\u003e 5 -\u003e 2",
				"  95 -\u003e 47 -\u003e 23 -\u003e 11 -\u003e 5 -\u003e 2",
				"  96 -\u003e 48 -\u003e 24 -\u003e 12 -\u003e 6 -\u003e 3",
				"The trajectories starting at 91 to 93 and 96 contain composites 45, 46 or 48 and their initial numbers do not qualify for the sequence. The trajectories starting at 94 and 95 contain only primes (47, 23, 11, 5, 2) and their two initial integers 94 and 95 are added to the sequence."
			],
			"mathematica": [
				"f[n_]:=Module[{k=n},While[k\u003e3,k=k-Ceiling[k/2];If[ !PrimeQ[k],Break[]]]; PrimeQ[k]]; lst={};Do[If[f[n],AppendTo[lst,n]],{n,7!}];lst"
			],
			"xref": [
				"Cf. A008619, A165801, A165802, A165803."
			],
			"keyword": "nonn,fini,full",
			"offset": "1,1",
			"author": "_Vladimir Joseph Stephan Orlovsky_, Sep 28 2009",
			"ext": [
				"Edited by _R. J. Mathar_, Sep 29 2009"
			],
			"references": 0,
			"revision": 14,
			"time": "2019-11-25T00:58:52-05:00",
			"created": "2010-06-01T03:00:00-04:00"
		}
	]
}