{
	"greeting": "Greetings from The On-Line Encyclopedia of Integer Sequences! http://oeis.org/",
	"query": "id:A166812",
	"count": 1,
	"start": 0,
	"results": [
		{
			"number": 166812,
			"data": "6,34,118,328,790,1714,3430,6433,11438,19446,31822,50386,77518,116278,170542,245155,346102,480698,657798,888028,1184038,1560778,2035798,2629573,3365854,4272046,5379614,6724518,8347678,10295470,12620254,15380935,18643558,22481938",
			"name": "Number of n X 7 1..2 arrays containing at least one of each value, all equal values connected, rows considered as a single number in nondecreasing order, and columns considered as a single number in nondecreasing order.",
			"link": [
				"G. C. Greubel, \u003ca href=\"/A166812/b166812.txt\"\u003eTable of n, a(n) for n = 1..1000\u003c/a\u003e"
			],
			"formula": [
				"a(n) = A000580(n+7)-2. - _Alois P. Heinz_, May 31 2012",
				"From _G. C. Greubel_, May 24 2016: (Start)",
				"G.f.: 1/(1 - x)^8 - 2/(1-x).",
				"E.g.f.: (1/7!)*(-5040 + 35280*x + 52920*x^2 + 29400*x^3 + 7350*x^4 + 882*x^5 + 49*x^6 + x^7)*exp(x). (End)"
			],
			"example": [
				"Some solutions for n=4",
				"...1.1.1.1.2.2.2...1.1.1.1.2.2.2...1.1.1.1.1.1.1...1.1.1.1.1.1.2",
				"...1.1.1.2.2.2.2...1.1.2.2.2.2.2...1.1.1.1.2.2.2...1.1.1.1.1.1.2",
				"...1.2.2.2.2.2.2...1.1.2.2.2.2.2...1.1.2.2.2.2.2...1.1.1.2.2.2.2",
				"...1.2.2.2.2.2.2...1.2.2.2.2.2.2...1.2.2.2.2.2.2...1.2.2.2.2.2.2",
				"------",
				"...1.1.1.1.1.1.2...1.1.1.1.1.1.2...1.1.1.1.1.2.2...1.1.1.1.1.2.2",
				"...1.1.1.2.2.2.2...1.1.1.1.1.2.2...1.1.1.1.1.2.2...1.1.1.2.2.2.2",
				"...1.1.2.2.2.2.2...1.2.2.2.2.2.2...1.1.1.2.2.2.2...1.2.2.2.2.2.2",
				"...2.2.2.2.2.2.2...2.2.2.2.2.2.2...1.1.1.2.2.2.2...2.2.2.2.2.2.2"
			],
			"maple": [
				"a:= n-\u003e binomial(n+7,7)-2:",
				"seq(a(n), n=1..50);  # _Alois P. Heinz_, May 31 2012"
			],
			"mathematica": [
				"Table[Binomial[n+7,7] -2, {n, 1, 100}] (* _G. C. Greubel_, May 24 2016 *)"
			],
			"keyword": "nonn",
			"offset": "1,1",
			"author": "_R. H. Hardin_, Oct 21 2009",
			"references": 3,
			"revision": 11,
			"time": "2016-05-24T20:26:20-04:00",
			"created": "2010-06-01T03:00:00-04:00"
		}
	]
}