{
	"greeting": "Greetings from The On-Line Encyclopedia of Integer Sequences! http://oeis.org/",
	"query": "id:A166601",
	"count": 1,
	"start": 0,
	"results": [
		{
			"number": 166601,
			"data": "1,20,380,7220,137180,2606420,49521980,940917620,17877434780,339671260820,6453753955580,122621325156020,2329805177964190,44266298381316000,841059669244935600,15980133715652476800",
			"name": "Number of reduced words of length n in Coxeter group on 20 generators S_i with relations (S_i)^2 = (S_i S_j)^12 = I.",
			"comment": [
				"The initial terms coincide with those of A170739, although the two sequences are eventually different.",
				"Computed with MAGMA using commands similar to those used to compute A154638."
			],
			"link": [
				"G. C. Greubel, \u003ca href=\"/A166601/b166601.txt\"\u003eTable of n, a(n) for n = 0..500\u003c/a\u003e",
				"\u003ca href=\"/index/Rec#order_12\"\u003eIndex entries for linear recurrences with constant coefficients\u003c/a\u003e, signature (18, 18, 18, 18, 18, 18, 18, 18, 18, 18, 18, -171)."
			],
			"formula": [
				"G.f.: (t^12 + 2*t^11 + 2*t^10 + 2*t^9 + 2*t^8 + 2*t^7 + 2*t^6 + 2*t^5 + 2*t^4 + 2*t^3 + 2*t^2 + 2*t + 1)/(171*t^12 - 18*t^11 - 18*t^10 - 18*t^9 -18*t^8 -18*t^7 - 18*t^6 - 18*t^5 - 18*t^4 - 18*t^3 - 18*t^2 -18*t + 1)."
			],
			"mathematica": [
				"CoefficientList[Series[(t^12 + 2*t^11 + 2*t^10 + 2*t^9 + 2*t^8 + 2*t^7 + 2*t^6 + 2*t^5 + 2*t^4 + 2*t^3 + 2*t^2 + 2*t + 1)/(171*t^12 - 18*t^11 - 18*t^10 - 18*t^9 - 18*t^8 - 18*t^7 - 18*t^6 - 18*t^5 - 18*t^4 - 18*t^3 - 18*t^2 - 18*t + 1), {t, 0, 50}], t] (* _G. C. Greubel_, May 18 2016 *)"
			],
			"keyword": "nonn",
			"offset": "0,2",
			"author": "_John Cannon_ and _N. J. A. Sloane_, Dec 03 2009",
			"references": 1,
			"revision": 12,
			"time": "2016-11-24T09:39:05-05:00",
			"created": "2010-06-01T03:00:00-04:00"
		}
	]
}