{
	"greeting": "Greetings from The On-Line Encyclopedia of Integer Sequences! http://oeis.org/",
	"query": "id:A166707",
	"count": 1,
	"start": 0,
	"results": [
		{
			"number": 166707,
			"data": "1,11,21,121,131,231,241,1331,441,1441,1451,2541,2551,2651,2751,14641,14651,4851,4861,15851,5061,15961,15971,27951,17161,28061,9261,29161,29171,30261,30271,161051,30471,161161,31571,53361,53371,53471,53571",
			"name": "Totally multiplicative sequence with a(p) = a(p-1) + 10 for prime p.",
			"formula": [
				"Multiplicative with a(p^e) = (a(p-1)+10)^e. If n = Product p(k)^e(k) then a(n) = Product (a(p(k)-1)+10)^e(k)."
			],
			"keyword": "nonn,mult",
			"offset": "1,2",
			"author": "_Jaroslav Krizek_, Oct 18 2009",
			"references": 0,
			"revision": 4,
			"time": "2012-03-30T19:00:17-04:00",
			"created": "2010-06-01T03:00:00-04:00"
		}
	]
}