{
	"greeting": "Greetings from The On-Line Encyclopedia of Integer Sequences! http://oeis.org/",
	"query": "id:A166804",
	"count": 1,
	"start": 0,
	"results": [
		{
			"number": 166804,
			"data": "0,90,8868,141180,1151013,6470252,28530284",
			"name": "Number of nX3 1..6 arrays containing at least one of each value, all equal values connected, rows considered as a single number in nondecreasing order, and columns considered as a single number in nondecreasing order.",
			"example": [
				"Some solutions for n=3",
				"...2.3.5...1.1.2...1.2.3...1.3.4...2.4.5...1.2.5...1.3.5...2.3.3...1.1.6",
				"...4.1.5...3.6.5...1.2.6...1.6.4...3.4.4...3.4.6...1.6.6...3.3.5...2.3.5",
				"...6.1.5...6.6.4...5.4.4...5.2.2...3.6.1...4.4.6...4.6.2...4.1.6...4.4.4",
				"------",
				"...1.2.4...1.3.3...1.1.5...1.3.4...2.2.3...2.3.5...1.2.5...1.1.3...2.6.6",
				"...2.2.4...2.2.2...3.3.6...2.2.2...2.5.4...2.6.1...3.3.4...4.6.2...4.1.3",
				"...5.6.3...6.4.5...3.4.2...5.5.6...6.5.1...4.6.1...3.6.6...6.6.5...5.3.3"
			],
			"keyword": "nonn",
			"offset": "1,2",
			"author": "_R. H. Hardin_ Oct 21 2009",
			"references": 0,
			"revision": 3,
			"time": "2012-03-31T12:35:36-04:00",
			"created": "2010-06-01T03:00:00-04:00"
		}
	]
}