{
	"greeting": "Greetings from The On-Line Encyclopedia of Integer Sequences! http://oeis.org/",
	"query": "id:A166527",
	"count": 1,
	"start": 0,
	"results": [
		{
			"number": 166527,
			"data": "1,2,3,4,6,7,8,9,10,11,15,16,17,18,19,20,21,22,24,26,28,29,30,32,33,35,36,37,39,43,45,46,47,48,49,50,51,52,53,54,55,56,60,62,66,67,68,69,70,71,72,73,74,75,76,77,78,79,81,83,87,89,91,92,93,95,98,99,102,104,105",
			"name": "Complement of A076537.",
			"keyword": "nonn",
			"offset": "1,2",
			"author": "_Paul Curtz_, Oct 16 2009",
			"references": 0,
			"revision": 2,
			"time": "2012-03-30T18:52:04-04:00",
			"created": "2010-06-01T03:00:00-04:00"
		}
	]
}