{
	"greeting": "Greetings from The On-Line Encyclopedia of Integer Sequences! http://oeis.org/",
	"query": "id:A166660",
	"count": 1,
	"start": 0,
	"results": [
		{
			"number": 166660,
			"data": "1,5,7,25,11,35,15,125,49,55,23,175,27,75,77,625,35,245,39,275,105,115,47,875,121,135,343,375,59,385,63,3125,161,175,165,1225,75,195,189,1375,83,525,87,575,539,235,95,4375,225,605",
			"name": "Totally multiplicative sequence with a(p) = 2p+1 for prime p.",
			"link": [
				"G. C. Greubel, \u003ca href=\"/A166660/b166660.txt\"\u003eTable of n, a(n) for n = 1..10000\u003c/a\u003e"
			],
			"formula": [
				"Multiplicative with a(p^e) = (2p+1)^e. If n = Product p(k)^e(k) then a(n) = Product (2*p(k)+1)^e(k)."
			],
			"mathematica": [
				"a[1] = 1; a[n_] := (fi = FactorInteger[n]; Times @@ ((2*fi[[All, 1]] + 1)^fi[[All, 2]]) ); Table[a[n], {n, 1, 100}](* _G. C. Greubel_, May 21 2016 *)"
			],
			"keyword": "nonn,mult",
			"offset": "1,2",
			"author": "_Jaroslav Krizek_, Oct 18 2009",
			"references": 2,
			"revision": 7,
			"time": "2016-05-21T22:34:54-04:00",
			"created": "2010-06-01T03:00:00-04:00"
		}
	]
}