{
	"greeting": "Greetings from The On-Line Encyclopedia of Integer Sequences! http://oeis.org/",
	"query": "id:A166621",
	"count": 1,
	"start": 0,
	"results": [
		{
			"number": 166621,
			"data": "5,15,15,25,25,35,35,45,45,55,55,65,65,75,75,85,85,95,95,105,105,115,115,125,125,135,135,145,145,155,155,165,165,175,175,185,185,195,195,205,205,215,215,225,225,235,235,245,245,255,255,265,265,275,275,285",
			"name": "a(n) = 10*n - a(n-1), with n\u003e1, a(1)=5.",
			"link": [
				"Vincenzo Librandi, \u003ca href=\"/A166621/b166621.txt\"\u003eTable of n, a(n) for n = 1..1000\u003c/a\u003e",
				"\u003ca href=\"/index/Rec#order_03\"\u003eIndex entries for linear recurrences with constant coefficients\u003c/a\u003e, signature (1,1,-1)."
			],
			"formula": [
				"a(n) = (5/2)*(2*n + (-1)^n + 1). - _Paolo P. Lava_, Nov 10 2009",
				"From _Vincenzo Librandi_, Sep 15 2013: (Start)",
				"G.f.: -x*(-5-10*x+5*x^2)/((1+x)*(x-1)^2).",
				"a(n) = a(n-1) + a(n-2) - a(n-3). (End)",
				"E.g.f.: 5*((1+x)*cosh(x) + x*sinh(x) - 1). - _G. C. Greubel_, May 18 2016"
			],
			"mathematica": [
				"RecurrenceTable[{a[1]==5, a[n]==10n-a[n-1]}, a, {n, 60}] (* or *) CoefficientList[Series[-(- 5 - 10 x + 5 x^2) /((1 + x) (x - 1)^2), {x, 0, 60}], x] (* _Vincenzo Librandi_, Sep 15 2013 *)"
			],
			"program": [
				"(MAGMA) [n le 1 select (n+4) else 10*n-Self(n-1): n in [1..70] ]; // _Vincenzo Librandi_, Sep 15 2013"
			],
			"keyword": "nonn,easy",
			"offset": "1,1",
			"author": "_Vincenzo Librandi_, Oct 18 2009",
			"references": 1,
			"revision": 15,
			"time": "2016-05-18T23:11:14-04:00",
			"created": "2010-06-01T03:00:00-04:00"
		}
	]
}