{
	"greeting": "Greetings from The On-Line Encyclopedia of Integer Sequences! http://oeis.org/",
	"query": "id:A166424",
	"count": 1,
	"start": 0,
	"results": [
		{
			"number": 166424,
			"data": "1,30,870,25230,731670,21218430,615334470,17844699630,517496289270,15007392388830,435214379276070,12621216999005595,366015292971149640,10614443496162974160,307818861388715654040,8926746980272446665760",
			"name": "Number of reduced words of length n in Coxeter group on 30 generators S_i with relations (S_i)^2 = (S_i S_j)^11 = I.",
			"comment": [
				"The initial terms coincide with those of A170749, although the two sequences are eventually different.",
				"Computed with MAGMA using commands similar to those used to compute A154638."
			],
			"link": [
				"G. C. Greubel, \u003ca href=\"/A166424/b166424.txt\"\u003eTable of n, a(n) for n = 0..500\u003c/a\u003e",
				"\u003ca href=\"/index/Rec#order_11\"\u003eIndex entries for linear recurrences with constant coefficients\u003c/a\u003e, signature (28, 28, 28, 28, 28, 28, 28, 28, 28, 28, -406)."
			],
			"formula": [
				"G.f.: (t^11 + 2*t^10 + 2*t^9 + 2*t^8 + 2*t^7 + 2*t^6 + 2*t^5 + 2*t^4 + 2*t^3 + 2*t^2 + 2*t + 1)/(406*t^11 - 28*t^10 - 28*t^9 - 28*t^8 - 28*t^7 - 28*t^6 - 28*t^5 - 28*t^4 - 28*t^3 - 28*t^2 - 28*t + 1)."
			],
			"mathematica": [
				"CoefficientList[Series[(t^11 + 2*t^10 + 2*t^9 + 2*t^8 + 2*t^7 + 2*t^6 + 2*t^5 + 2*t^4 + 2*t^3 + 2*t^2 + 2*t + 1)/(406*t^11 - 28*t^10 - 28*t^9 - 28*t^8 - 28*t^7 - 28*t^6 - 28*t^5 - 28*t^4 - 28*t^3 - 28*t^2 - 28*t + 1 ), {t, 0, 50}], t] (* _G. C. Greubel_, May 13 2016 *)",
				"coxG[{11,406,-28}] (* The coxG program is at A169452 *) (* _Harvey P. Dale_, Oct 12 2016 *)"
			],
			"keyword": "nonn",
			"offset": "0,2",
			"author": "_John Cannon_ and _N. J. A. Sloane_, Dec 03 2009",
			"references": 1,
			"revision": 12,
			"time": "2016-11-24T09:26:46-05:00",
			"created": "2010-06-01T03:00:00-04:00"
		}
	]
}