{
	"greeting": "Greetings from The On-Line Encyclopedia of Integer Sequences! http://oeis.org/",
	"query": "id:A166485",
	"count": 1,
	"start": 0,
	"results": [
		{
			"number": 166485,
			"data": "863588,9356792,9882356,21892504,29293016,30010216,31814152,32227352,33380728,36080924,37499776,42080392,45957428,46395592,46611352,47369144,48049576,49617608,54062264,56478776,60498812,71970344,72488168,72687544,76058056",
			"name": "Weird numbers that are the sum of 2 weird numbers.",
			"comment": [
				"No term in this sequence \u003c 2*10^9 is 2 times a weird number. The two summands are distinct. - _Donovan Johnson_, Oct 06 2012"
			],
			"link": [
				"Donovan Johnson, \u003ca href=\"/A166485/b166485.txt\"\u003eTable of n, a(n) for n = 1..1000\u003c/a\u003e"
			],
			"example": [
				"Sums and summands are all weird numbers.",
				"863588 = 343876 + 519712.",
				"9356792 = 343876 + 9012916.",
				"9882356 = 338572 + 9543784.",
				"21892504 = 8134208 + 13758296.",
				"29293016 = 1229152 + 28063864.",
				"30010216 = 113072 + 29897144.",
				"31814152 = 388076 + 31426076.",
				"32227352 = 555616 + 31671736.",
				"33380728 = 2189024 + 31191704.",
				"36080924 = 343876 + 35737048.",
				"37499776 = 9356792 + 28142984.",
				"42080392 = 4632896 + 37447496.",
				"45957428 = 338572 + 45618856.",
				"46395592 = 4960448 + 41435144.",
				"46611352 = 388076 + 46223276.",
				"47369144 = 11140408 + 36228736.",
				"48049576 = 4559552 + 43490024.",
				"49617608 = 1188256 + 48429352.",
				"54062264 = 13086016 + 40976248.",
				"56478776 = 786208 + 55692568.",
				"60498812 = 343876 + 60154936.",
				"71970344 = 1229152 + 70741192.",
				"72488168 = 343876 + 72144292.",
				"72687544 = 113072 + 72574472.",
				"76058056 = 2189024 + 73869032."
			],
			"xref": [
				"Cf. A006037, A005101, A005835."
			],
			"keyword": "nonn",
			"offset": "1,1",
			"author": "_Donovan Johnson_, Oct 15 2009",
			"references": 1,
			"revision": 5,
			"time": "2012-10-06T16:03:03-04:00",
			"created": "2010-06-01T03:00:00-04:00"
		}
	]
}