{
	"greeting": "Greetings from The On-Line Encyclopedia of Integer Sequences! http://oeis.org/",
	"query": "id:A167794",
	"count": 1,
	"start": 0,
	"results": [
		{
			"number": 167794,
			"data": "11,13,17,41,59,61,79,83,89,103,107,109,113,121,127,131,137,151,157,169,179,199,223,227,229,233,251,257,271,277,289,347,367,373,397,401,419,443,449,467,487,491,521,563,569,587,593,613,641,659,661,683,709,733",
			"name": "Numbers with primitive root 6.",
			"link": [
				"Vincenzo Librandi, \u003ca href=\"/A167794/b167794.txt\"\u003eTable of n, a(n) for n = 1..1000\u003c/a\u003e"
			],
			"maple": [
				"A167794 := proc(n)",
				"    option remember;",
				"    if n =1 then",
				"        11;",
				"    else",
				"        for a from procname(n-1)+1 do",
				"            if numtheory[order](6,a) = numtheory[phi](a) then",
				"                return a;",
				"            end if;",
				"        end do:",
				"    end if;",
				"end proc:",
				"seq(A167794(n),n=1..80) ; # _R. J. Mathar_, Sep 15 2021"
			],
			"mathematica": [
				"pr=6; Select[Range[2,2000], MultiplicativeOrder[pr,# ] == EulerPhi[ # ] \u0026]"
			],
			"xref": [
				"Cf. A019336 (primes with primitive root 6). Subseq. of A033948."
			],
			"keyword": "nonn",
			"offset": "1,1",
			"author": "_T. D. Noe_, Nov 12 2009",
			"references": 20,
			"revision": 7,
			"time": "2021-09-15T07:18:57-04:00",
			"created": "2010-06-01T03:00:00-04:00"
		}
	]
}