{
	"greeting": "Greetings from The On-Line Encyclopedia of Integer Sequences! http://oeis.org/",
	"query": "id:A167838",
	"count": 1,
	"start": 0,
	"results": [
		{
			"number": 167838,
			"data": "2,211,293,631,787,797,839,1249,1259,1399,1409,1471,1511,1637,1709,1801,1811,1847,1889,2039,2053,2099,2179,2503,2521,2579,2633,2647,2767,2777,2819,2927,2939,3109,3137,3271,3433,3571,3593,3659,3779,3833,3863,3967",
			"name": "Four-times-isolated primes: primes p such that neither p+-2, p+-4, p+-6 nor p+-8 is prime.",
			"comment": [
				"2 together with (A137871: prime numbers isolated from neighboring primes by more than 8)."
			],
			"link": [
				"Robert Israel, \u003ca href=\"/A167838/b167838.txt\"\u003eTable of n, a(n) for n = 1..10000\u003c/a\u003e"
			],
			"example": [
				"a(1)=2 (-6,-4,-2,0,4,6,8,10 are nonprimes); a(2)=211 (203,205,207,209,213,215,217,219 are nonprimes)."
			],
			"maple": [
				"Primes:= select(isprime, {2,seq(i,i=3..10000,2)}):",
				"S:=Primes minus `union`(seq(map(`+`,Primes, i),i=[-2,2,-4,4,-6,6,-8,8])):",
				"sort(convert(S,list)); # _Robert Israel_, Jun 19 2016"
			],
			"xref": [
				"Cf. A137871, A167771."
			],
			"keyword": "nonn",
			"offset": "1,1",
			"author": "_Juri-Stepan Gerasimov_, Nov 13 2009",
			"ext": [
				"Corrected by _Robert Israel_, Jun 19 2016"
			],
			"references": 1,
			"revision": 10,
			"time": "2016-06-19T21:43:02-04:00",
			"created": "2010-06-01T03:00:00-04:00"
		}
	]
}