{
	"greeting": "Greetings from The On-Line Encyclopedia of Integer Sequences! http://oeis.org/",
	"query": "id:A167215",
	"count": 1,
	"start": 0,
	"results": [
		{
			"number": 167215,
			"data": "2,61,211,271,277,283,601,613,631,643,661,691,829,853,883,2011,2017,2029,2083,2089,2143,2161,2203,2221,2239,2251,2269,2281,2287,2293,2341,2347,2371,2383,2389,2467,2551,2683,2719,2731,2749,2767,2791,2803,2851",
			"name": "Primes such that their reversal + 1 is also prime",
			"comment": [
				"61 is prime and 16+1 = 17 is also a prime"
			],
			"link": [
				"Jens Kruse Andersen, \u003ca href=\"/A167215/b167215.txt\"\u003eTable of n, a(n) for n = 1..10000\u003c/a\u003e"
			],
			"mathematica": [
				"Select[Prime[Range[500]], PrimeQ[IntegerReverse[#] + 1] \u0026] (* _Vincenzo Librandi_, Feb 25 2020 *)"
			],
			"program": [
				"(MAGMA) [p: p in PrimesUpTo(3000) | IsPrime((Seqint(Reverse(Intseq(p)))) + 1)]; // _Vincenzo Librandi_, Feb 25 2020"
			],
			"xref": [
				"Cf. A007500."
			],
			"keyword": "base,nonn",
			"offset": "1,1",
			"author": "_Claudio Meller_, Oct 30 2009",
			"references": 2,
			"revision": 10,
			"time": "2020-02-25T20:00:58-05:00",
			"created": "2010-06-01T03:00:00-04:00"
		}
	]
}