{
	"greeting": "Greetings from The On-Line Encyclopedia of Integer Sequences! http://oeis.org/",
	"query": "id:A167817",
	"count": 1,
	"start": 0,
	"results": [
		{
			"number": 167817,
			"data": "1,3,3,3,1,3,3,3,1,3,3,3,1,3,3,3,1,3,3,3,1,3,3,3,1,3,3,3,1,3,3,3,1,3,3,3,1,3,3,3,1,3,3,3,1,3,3,3,1,3,3,3,1,3,3,3,1,3,3,3,1,3,3,3,1,3,3,3,1,3,3,3,1,3,3,3,1,3,3,3,1,3,3,3,1,3,3,3,1,3,3,3,1,3,3,3,1,3,3,3,1,3,3,3,1",
			"name": "Period 4: repeat [1, 3, 3, 3].",
			"comment": [
				"Denominator of x(n) = x(n-1) + x(n-2), x(0)=0, x(1)=1/3; numerator = A167816(n).",
				"Continued fraction expansion of (33 + sqrt(2805))/66. - _Klaus Brockhaus_, May 06 2010"
			],
			"link": [
				"\u003ca href=\"/index/Rec#order_04\"\u003eIndex entries for linear recurrences with constant coefficients\u003c/a\u003e, signature (0,0,0,1)."
			],
			"formula": [
				"a(n) = 3 - 2 * 0^(n mod 4).",
				"a(n) = (1/12)*{11*(n mod 4) + 5*[(n+1) mod 4] + 5*[(n+2) mod 4] - [(n+3) mod 4]}. - _Paolo P. Lava_, Nov 17 2009",
				"a(n) = (1/2)*(5 - I^n - (-1)^n - (-I)^n). - _Paolo P. Lava_, May 04 2010",
				"G.f.: (1 + 3*x + 3*x^2 + 3*x^3)/(1-x^4). - _Klaus Brockhaus_, May 06 2010",
				"a(n) = 5/2 - cos(Pi*n/2) - (-1)^n/2. - _R. J. Mathar_, Oct 08 2011",
				"E.g.f.: -cos(x) + 3*sinh(x) + 2*cosh(x). - _Ilya Gutkovskiy_, Jun 27 2016",
				"a(n) = a(n-4) for n\u003e3. - _Wesley Ivan Hurt_, Jul 09 2016"
			],
			"maple": [
				"seq(op([1, 3, 3, 3]), n=0..50); # _Wesley Ivan Hurt_, Jul 09 2016"
			],
			"mathematica": [
				"Denominator[LinearRecurrence[{1,1},{0,1/3},110]] (* or *) PadRight[{},110,{1,3,3,3}] (* _Harvey P. Dale_, Dec 07 2014 *)",
				"LinearRecurrence[{0, 0, 0, 1},{1, 3, 3, 3},105] (* _Ray Chandler_, Aug 03 2015 *)"
			],
			"program": [
				"(MAGMA) \u0026cat[[1, 3, 3, 3]: n in [0..50]]; // _Vincenzo Librandi_, Dec 28 2010"
			],
			"xref": [
				"Cf. A130196.",
				"Cf. A177344 (decimal expansion of (33+sqrt(2805))/66). - _Klaus Brockhaus_, May 06 2010"
			],
			"keyword": "frac,nonn,easy",
			"offset": "0,2",
			"author": "_Reinhard Zumkeller_, Nov 13 2009",
			"ext": [
				"Definition corrected by _D. S. McNeil_, May 09 2010"
			],
			"references": 3,
			"revision": 29,
			"time": "2016-07-10T01:50:29-04:00",
			"created": "2010-06-01T03:00:00-04:00"
		}
	]
}