{
	"greeting": "Greetings from The On-Line Encyclopedia of Integer Sequences! http://oeis.org/",
	"query": "id:A167301",
	"count": 1,
	"start": 0,
	"results": [
		{
			"number": 167301,
			"data": "1,0,9,0,27,0,45,0,81,0,81,0,99,0,243,0,135,0,153,0,405,0,189,0,729,0,729,0,243,0,261,0,729,0,1215,0,315,0,891,0,351,0,369,0,2187,0,405,0,2025,0",
			"name": "Totally multiplicative sequence with a(p) = 9*(p-2) for prime p.",
			"link": [
				"G. C. Greubel, \u003ca href=\"/A167301/b167301.txt\"\u003eTable of n, a(n) for n = 1..1000\u003c/a\u003e"
			],
			"formula": [
				"Multiplicative with a(p^e) = (9*(p-2))^e. If n = Product p(k)^e(k) then a(n) = Product (9*(p(k)-2))^e(k). a(2k) = 0 for k \u003e= 1. a(n) = A165830(n) * A166586(n) = 9^bigomega(n) * A166586(n) = 9^A001222(n) * A166586(n)."
			],
			"mathematica": [
				"a[1] = 1; a[n_] := (fi = FactorInteger[n]; Times @@ ((fi[[All, 1]] - 2)^fi[[All, 2]])); Table[a[n]*9^PrimeOmega[n], {n, 1, 100}] (* _G. C. Greubel_, Jun 07 2016 *)"
			],
			"keyword": "nonn,mult",
			"offset": "1,3",
			"author": "_Jaroslav Krizek_, Nov 01 2009",
			"references": 1,
			"revision": 8,
			"time": "2016-06-08T07:51:07-04:00",
			"created": "2010-06-01T03:00:00-04:00"
		}
	]
}