{
	"greeting": "Greetings from The On-Line Encyclopedia of Integer Sequences! http://oeis.org/",
	"query": "id:A167641",
	"count": 1,
	"start": 0,
	"results": [
		{
			"number": 167641,
			"data": "1,44,1892,81356,3498308,150427244,6468371492,278139974156,11960018888708,514280812214444,22114074925221092,950905221784506956,40888924536733799108,1758223755079553361644,75603621468420794549746",
			"name": "Number of reduced words of length n in Coxeter group on 44 generators S_i with relations (S_i)^2 = (S_i S_j)^14 = I.",
			"comment": [
				"The initial terms coincide with those of A170763, although the two sequences are eventually different.",
				"Computed with MAGMA using commands similar to those used to compute A154638."
			],
			"link": [
				"G. C. Greubel, \u003ca href=\"/A167641/b167641.txt\"\u003eTable of n, a(n) for n = 0..500\u003c/a\u003e",
				"\u003ca href=\"/index/Rec#order_14\"\u003eIndex entries for linear recurrences with constant coefficients\u003c/a\u003e, signature (42, 42, 42, 42, 42, 42, 42, 42, 42, 42, 42, 42, 42, -903)."
			],
			"formula": [
				"G.f.: (t^14 + 2*t^13 + 2*t^12 + 2*t^11 + 2*t^10 + 2*t^9 + 2*t^8 + 2*t^7 + 2*t^6 + 2*t^5 + 2*t^4 + 2*t^3 + 2*t^2 + 2*t + 1)/(903*t^14 - 42*t^13 - 42*t^12 - 42*t^11 - 42*t^10 - 42*t^9 - 42*t^8 - 42*t^7 - 42*t^6 - 42*t^5 - 42*t^4 - 42*t^3 - 42*t^2 - 42*t + 1)."
			],
			"mathematica": [
				"coxG[{14,903,-42}] (* The coxG program is at A169452 *) (* _Harvey P. Dale_, Feb 08 2015 *)",
				"CoefficientList[Series[(t^14 + 2*t^13 + 2*t^12 + 2*t^11 + 2*t^10 + 2*t^9 + 2*t^8 + 2*t^7 + 2*t^6 + 2*t^5 + 2*t^4 + 2*t^3 + 2*t^2 + 2*t + 1)/ (903*t^14 - 42*t^13 - 42*t^12 - 42*t^11 - 42*t^10 - 42*t^9 - 42*t^8 - 42*t^7 - 42*t^6 - 42*t^5 - 42*t^4 - 42*t^3 - 42*t^2 - 42*t + 1), {t, 0, 50}], t] (* _G. C. Greubel_, Jun 17 2016 *)"
			],
			"keyword": "nonn",
			"offset": "0,2",
			"author": "_John Cannon_ and _N. J. A. Sloane_, Dec 03 2009",
			"references": 1,
			"revision": 11,
			"time": "2016-11-24T10:55:44-05:00",
			"created": "2010-06-01T03:00:00-04:00"
		}
	]
}