{
	"greeting": "Greetings from The On-Line Encyclopedia of Integer Sequences! http://oeis.org/",
	"query": "id:A167386",
	"count": 1,
	"start": 0,
	"results": [
		{
			"number": 167386,
			"data": "1,-1,-2,10,-25,49,-84,132,-195,275,-374,494,-637,805,-1000,1224,-1479,1767,-2090,2450,-2849,3289,-3772,4300,-4875,5499,-6174,6902,-7685,8525,-9424,10384,-11407,12495,-13650,14874,-16169,17537,-18980,20500,-22099,23779",
			"name": "a(n) = (-1)^n*n*(n+1)*(2*n-5)/6.",
			"link": [
				"Vincenzo Librandi, \u003ca href=\"/A167386/b167386.txt\"\u003eTable of n, a(n) for n = 1..10000\u003c/a\u003e",
				"\u003ca href=\"/index/Rec\"\u003eIndex entries for linear recurrences with constant coefficients\u003c/a\u003e, signature (-4,-6,-4,-1)."
			],
			"formula": [
				"a(n) = -4*a(n-1) - 6*a(n-2) - 4*a(n-3) - a(n-4).",
				"G.f.: x*(1+3*x)/(1+x)^4."
			],
			"mathematica": [
				"Table[n (-1)^n*(n + 1) (2*n - 5)/6, {n, 60}] (* _Vladimir Joseph Stephan Orlovsky_, Jul 08 2011 *)"
			],
			"program": [
				"(PARI) a(n)=(-1)^n*n*(n+1)*(2*n-5)/6 \\\\ _Charles R Greathouse IV_, Aug 24 2011",
				"(MAGMA) [(-1)^n*n*(n+1)*(2*n-5)/6: n in [1..50]]; // _Vincenzo Librandi_, Aug 25 2011"
			],
			"keyword": "sign,easy",
			"offset": "1,3",
			"author": "_Jamel Ghanouchi_, Nov 02 2009",
			"ext": [
				"Note that for a sequence in which every other term is zero, the OEIS policy is to omit those zeros. - _N. J. A. Sloane_, Nov 08 2009",
				"Zeros removed by skipping even-indexed polynomials - _R. J. Mathar_, Nov 12 2009"
			],
			"references": 1,
			"revision": 26,
			"time": "2018-11-09T22:57:44-05:00",
			"created": "2010-06-01T03:00:00-04:00"
		}
	]
}