{
	"greeting": "Greetings from The On-Line Encyclopedia of Integer Sequences! http://oeis.org/",
	"query": "id:A167517",
	"count": 1,
	"start": 0,
	"results": [
		{
			"number": 167517,
			"data": "353359367,193319491951,334733593361,344934573461,346734693491,732173317333,902990419043,104591046310477,133091331313327,141591417314177,146571466914683,150131501715031,154431545115461",
			"name": "Emirps (A007500) which are concatenation of three consecutive primes (A030469).",
			"comment": [
				"A subsequence of A007500, A030469, A132903."
			],
			"formula": [
				"A167517 = A007500 n A030469 = A007500 n A132903 (where \"n\" means intersection)."
			],
			"program": [
				"(PARI) for(i=1,9999, isprime(eval(p=Str(prime(i),prime(i+1),prime(i+2)))) \u0026 isprime(eval(concat(vecextract(Vec(p),\"-1..1\"))))\u0026 print1(p,\", \"))"
			],
			"keyword": "base,nonn",
			"offset": "1,1",
			"author": "Jonathan vos Post and _M. F. Hasler_, Nov 10 2009",
			"references": 4,
			"revision": 3,
			"time": "2012-07-14T11:32:32-04:00",
			"created": "2010-06-01T03:00:00-04:00"
		}
	]
}