{
	"greeting": "Greetings from The On-Line Encyclopedia of Integer Sequences! http://oeis.org/",
	"query": "id:A167297",
	"count": 1,
	"start": 0,
	"results": [
		{
			"number": 167297,
			"data": "1,0,5,0,15,0,25,0,25,0,45,0,55,0,75,0,75,0,85,0,125,0,105,0,225,0,125,0,135,0,145,0,225,0,375,0,175,0,275,0,195,0,205,0,375,0,225,0,625,0",
			"name": "Totally multiplicative sequence with a(p) = 5*(p-2) for prime p.",
			"link": [
				"G. C. Greubel, \u003ca href=\"/A167297/b167297.txt\"\u003eTable of n, a(n) for n = 1..1000\u003c/a\u003e"
			],
			"formula": [
				"Multiplicative with a(p^e) = (5*(p-2))^e. If n = Product p(k)^e(k) then a(n) = Product (5*(p(k)-2))^e(k). a(2k) = 0 for k \u003e= 1. a(n) = A165826(n) * A166586(n) = 5^bigomega(n) * A166586(n) = 5^A001222(n) * A166586(n)."
			],
			"mathematica": [
				"a[1] = 1; a[n_] := (fi = FactorInteger[n]; Times @@ ((fi[[All, 1]] - 2)^fi[[All, 2]])); Table[a[n]*5^PrimeOmega[n], {n, 1, 100}] (* _G. C. Greubel_, Jun 07 2016 *)"
			],
			"keyword": "nonn,mult",
			"offset": "1,3",
			"author": "_Jaroslav Krizek_, Nov 01 2009",
			"references": 1,
			"revision": 8,
			"time": "2016-06-08T07:52:34-04:00",
			"created": "2010-06-01T03:00:00-04:00"
		}
	]
}