{
	"greeting": "Greetings from The On-Line Encyclopedia of Integer Sequences! http://oeis.org/",
	"query": "id:A167278",
	"count": 1,
	"start": 0,
	"results": [
		{
			"number": 167278,
			"data": "3,29,41,53,59,71,83,89,97,101,127,131,137,163,167,173,179,223,227,239,257,263,269,281,307,311,331,337,347,359,367,373,379,383,389,397,401,409,419,443,449,457,461,479,487,491,499,503,509,521,547,557,563,569",
			"name": "Smallest prime\u003en-th single (or isolated or non-twin) prime.",
			"xref": [
				"Cf. A000040, A007510."
			],
			"keyword": "nonn",
			"offset": "1,1",
			"author": "_Juri-Stepan Gerasimov_, Nov 01 2009",
			"ext": [
				"Corrected (229 replaced by 227) by _R. J. Mathar_, May 21 2010"
			],
			"references": 0,
			"revision": 4,
			"time": "2012-07-12T00:39:51-04:00",
			"created": "2010-06-01T03:00:00-04:00"
		}
	]
}