{
	"greeting": "Greetings from The On-Line Encyclopedia of Integer Sequences! http://oeis.org/",
	"query": "id:A167100",
	"count": 1,
	"start": 0,
	"results": [
		{
			"number": 167100,
			"data": "1,47,2162,99452,4574792,210440432,9680259872,445291954112,20483429889152,942237774900992,43342937645445632,1993775131690499072,91713656057762957312,4218828178657096035271,194066096218226417572740",
			"name": "Number of reduced words of length n in Coxeter group on 47 generators S_i with relations (S_i)^2 = (S_i S_j)^13 = I.",
			"comment": [
				"The initial terms coincide with those of A170766, although the two sequences are eventually different.",
				"Computed with MAGMA using commands similar to those used to compute A154638."
			],
			"link": [
				"G. C. Greubel, \u003ca href=\"/A167100/b167100.txt\"\u003eTable of n, a(n) for n = 0..500\u003c/a\u003e",
				"\u003ca href=\"/index/Rec#order_13\"\u003eIndex entries for linear recurrences with constant coefficients\u003c/a\u003e, signature (45, 45, 45, 45, 45, 45, 45, 45, 45, 45, 45, 45, -1035)."
			],
			"formula": [
				"G.f.: (t^13 + 2*t^12 + 2*t^11 + 2*t^10 + 2*t^9 + 2*t^8 + 2*t^7 + 2*t^6 + 2*t^5 + 2*t^4 + 2*t^3 + 2*t^2 + 2*t + 1)/(1035*t^13 - 45*t^12 - 45*t^11 - 45*t^10 - 45*t^9 - 45*t^8 - 45*t^7 - 45*t^6 - 45*t^5 - 45*t^4 - 45*t^3 - 45*t^2 - 45*t + 1)."
			],
			"mathematica": [
				"CoefficientList[Series[(t^13 + 2*t^12 + 2*t^11 + 2*t^10 + 2*t^9 + 2*t^8 + 2*t^7 + 2*t^6 + 2*t^5 + 2*t^4 + 2*t^3 + 2*t^2 + 2*t + 1)/(1035*t^13 - 45*t^12 - 45*t^11 - 45*t^10 - 45*t^9 - 45*t^8 - 45*t^7 - 45*t^6 - 45*t^5 - 45*t^4 - 45*t^3 - 45*t^2 - 45*t + 1), {t, 0, 50}], t] (* _G. C. Greubel_, Jun 02 2016 *)",
				"coxG[{13,1035,-45}] (* The coxG program is at A169452 *) (* _Harvey P. Dale_, Aug 07 2021 *)"
			],
			"keyword": "nonn",
			"offset": "0,2",
			"author": "_John Cannon_ and _N. J. A. Sloane_, Dec 03 2009",
			"references": 1,
			"revision": 12,
			"time": "2021-08-07T13:56:36-04:00",
			"created": "2010-06-01T03:00:00-04:00"
		}
	]
}