{
	"greeting": "Greetings from The On-Line Encyclopedia of Integer Sequences! http://oeis.org/",
	"query": "id:A167241",
	"count": 1,
	"start": 0,
	"results": [
		{
			"number": 167241,
			"data": "1,34,153,1156,4361,16182,44561,115784",
			"name": "Number of ways to partition a 4*n X 2 grid into 8 connected equal-area regions",
			"example": [
				"Some solutions for n=4",
				"...1.1...1.1...1.1...1.1...1.1...1.1...1.1...1.2...1.1...1.1...1.1...1.1...1.1",
				"...2.1...2.1...1.2...1.1...2.1...1.2...1.2...1.2...1.2...1.1...1.2...1.2...2.1",
				"...2.1...2.1...1.2...2.2...2.1...1.2...1.2...1.2...1.2...2.2...1.2...1.2...2.1",
				"...2.2...2.2...2.2...3.2...2.3...2.2...3.2...1.2...2.2...2.3...2.2...3.2...2.3",
				"...3.3...3.3...3.3...3.2...2.3...3.3...3.2...3.4...3.3...2.3...3.3...3.2...2.3",
				"...3.4...3.3...3.4...3.3...3.3...4.3...3.3...3.4...3.4...3.3...4.3...3.3...3.3",
				"...3.4...4.4...3.4...4.4...4.4...4.3...4.4...3.4...3.4...4.4...4.3...4.4...4.4",
				"...5.4...5.4...4.4...4.5...4.4...4.4...5.4...3.4...5.4...4.5...4.5...4.4...4.5",
				"...5.4...5.4...5.5...4.5...5.5...5.5...5.4...5.6...5.4...4.5...4.5...5.5...4.5",
				"...5.5...5.5...6.5...5.5...5.6...5.5...5.6...5.6...5.5...5.5...6.5...6.5...5.5",
				"...6.6...6.6...6.5...6.6...5.6...6.7...5.6...5.6...6.6...6.6...6.5...6.5...6.6",
				"...6.7...6.6...6.7...6.7...6.6...6.7...7.6...5.6...6.6...6.7...6.7...6.7...6.6",
				"...6.7...7.7...6.7...6.7...7.7...6.7...7.6...7.7...7.7...6.7...6.7...6.7...7.7",
				"...8.7...7.8...8.7...8.7...7.8...6.7...7.7...7.7...7.7...8.7...8.7...7.7...7.8",
				"...8.7...7.8...8.7...8.7...7.8...8.8...8.8...8.8...8.8...8.7...8.7...8.8...7.8",
				"...8.8...8.8...8.8...8.8...8.8...8.8...8.8...8.8...8.8...8.8...8.8...8.8...8.8"
			],
			"keyword": "nonn",
			"offset": "1,2",
			"author": "_R. H. Hardin_ Oct 31 2009",
			"references": 0,
			"revision": 3,
			"time": "2012-03-31T12:35:36-04:00",
			"created": "2010-06-01T03:00:00-04:00"
		}
	]
}