{
	"greeting": "Greetings from The On-Line Encyclopedia of Integer Sequences! http://oeis.org/",
	"query": "id:A167677",
	"count": 1,
	"start": 0,
	"results": [
		{
			"number": 167677,
			"data": "2,2,1,1,2,1,2,1,2,2,22,22,21,21,22,21,22,21,22,22,12,12,11,11,12,11,12,11,12,12,12,12,11,11,12,11,12,11,12,12,22,22,21,21,22,21,22,21,22,22,12,12,11,11,12,11,12,11,12,12,22,22,21,21,22,21,22,21,22,22,12,12,11",
			"name": "Replace prime digits with 1 and nonprime digits with 2.",
			"mathematica": [
				"Table[FromDigits[If[PrimeQ[ # ],1,2]\u0026/@IntegerDigits[n]],{n,0,200}]"
			],
			"xref": [
				"Cf. A065031, A167678, A167679."
			],
			"keyword": "base,nonn",
			"offset": "0,1",
			"author": "_Zak Seidov_, Nov 09 2009",
			"references": 2,
			"revision": 6,
			"time": "2017-03-31T20:37:15-04:00",
			"created": "2010-06-01T03:00:00-04:00"
		}
	]
}