{
	"greeting": "Greetings from The On-Line Encyclopedia of Integer Sequences! http://oeis.org/",
	"query": "id:A167627",
	"count": 1,
	"start": 0,
	"results": [
		{
			"number": 167627,
			"data": "163,1163,3163,6163,10163,12163,13163,19163,21163,25163,28163,39163,40163,48163,52163,54163,55163,57163,69163,70163,76163,78163,81163,82163,84163,90163,91163,106163,112163,115163,117163,118163,120163",
			"name": "Prime numbers ending in the prime number 163.",
			"link": [
				"Vincenzo Librandi, \u003ca href=\"/A167627/b167627.txt\"\u003eTable of n, a(n) for n = 1..2000\u003c/a\u003e"
			],
			"mathematica": [
				"Select[Prime@Range[ 200000], Mod[#, 1000]==163 \u0026] (* _Vincenzo Librandi_, Jul 07 2014 *)"
			],
			"program": [
				"(MAGMA) [n: n in PrimesUpTo(160000) | n mod 1000 eq 163]; // _Vincenzo Librandi_, Jul 07 2014"
			],
			"xref": [
				"Cf. similar sequences listed in A244763."
			],
			"keyword": "base,nonn",
			"offset": "1,1",
			"author": "_Mark A. Thomas_, Nov 07 2009",
			"references": 2,
			"revision": 5,
			"time": "2014-07-07T18:06:27-04:00",
			"created": "2010-06-01T03:00:00-04:00"
		}
	]
}