{
	"greeting": "Greetings from The On-Line Encyclopedia of Integer Sequences! http://oeis.org/",
	"query": "id:A168731",
	"count": 1,
	"start": 0,
	"results": [
		{
			"number": 168731,
			"data": "1,6,30,150,750,3750,18750,93750,468750,2343750,11718750,58593750,292968750,1464843750,7324218750,36621093750,183105468750,915527343750,4577636718735,22888183593600,114440917967640,572204589836400",
			"name": "Number of reduced words of length n in Coxeter group on 6 generators S_i with relations (S_i)^2 = (S_i S_j)^18 = I.",
			"comment": [
				"The initial terms coincide with those of A003948, although the two sequences are eventually different.",
				"First disagreement at index 18: a(18) = 4577636718735, A003948(18) = 4577636718750. - _Klaus Brockhaus_, Mar 27 2011",
				"Computed with MAGMA using commands similar to those used to compute A154638."
			],
			"link": [
				"G. C. Greubel, \u003ca href=\"/A168731/b168731.txt\"\u003eTable of n, a(n) for n = 0..500\u003c/a\u003e",
				"\u003ca href=\"/index/Rec#order_18\"\u003eIndex entries for linear recurrences with constant coefficients\u003c/a\u003e, signature (4, 4, 4, 4, 4, 4, 4, 4, 4, 4, 4, 4, 4, 4, 4, 4, 4, -10)."
			],
			"formula": [
				"G.f.: (t^18 + 2*t^17 + 2*t^16 + 2*t^15 + 2*t^14 + 2*t^13 + 2*t^12 + 2*t^11 + 2*t^10 + 2*t^9 + 2*t^8 + 2*t^7 + 2*t^6 + 2*t^5 + 2*t^4 + 2*t^3 + 2*t^2 + 2*t + 1)/(10*t^18 - 4*t^17 - 4*t^16 - 4*t^15 - 4*t^14 - 4*t^13 - 4*t^12 - 4*t^11 - 4*t^10 - 4*t^9 - 4*t^8 - 4*t^7 - 4*t^6 - 4*t^5 - 4*t^4 - 4*t^3 - 4*t^2 - 4*t + 1)."
			],
			"mathematica": [
				"CoefficientList[Series[(t^18 + 2*t^17 + 2*t^16 + 2*t^15 + 2*t^14 + 2*t^13 + 2*t^12 + 2*t^11 + 2*t^10 + 2*t^9 + 2*t^8 + 2*t^7 + 2*t^6 + 2*t^5 + 2*t^4 + 2*t^3 + 2*t^2 + 2*t + 1)/(10*t^18 - 4*t^17 - 4*t^16 - 4*t^15 - 4*t^14 - 4*t^13 - 4*t^12 - 4*t^11 - 4*t^10 - 4*t^9 - 4*t^8 - 4*t^7 - 4*t^6 - 4*t^5 - 4*t^4 - 4*t^3 - 4*t^2 - 4*t + 1), {t,0,50}], t] (* _G. C. Greubel_, Aug 06 2016 *)"
			],
			"xref": [
				"Cf. A003948 (G.f.: (1+x)/(1-5*x))."
			],
			"keyword": "nonn,easy",
			"offset": "0,2",
			"author": "_John Cannon_ and _N. J. A. Sloane_, Dec 03 2009",
			"references": 1,
			"revision": 12,
			"time": "2016-11-24T13:50:34-05:00",
			"created": "2010-06-01T03:00:00-04:00"
		}
	]
}