{
	"greeting": "Greetings from The On-Line Encyclopedia of Integer Sequences! http://oeis.org/",
	"query": "id:A168386",
	"count": 1,
	"start": 0,
	"results": [
		{
			"number": 168386,
			"data": "0,0,1,1,12,8,112,71,1472,1269,17408,14904,270336,204147,4199424,4143285,87834624,72462870,1797783552,1411253955,40414740480,36183623805,937430876160,845972658090,26095323709440,24311657884500,707908274749440,869872809558375",
			"name": "Arithmetic derivative of the double factorial of n.",
			"link": [
				"Alois P. Heinz, \u003ca href=\"/A168386/b168386.txt\"\u003eTable of n, a(n) for n = 0..800\u003c/a\u003e"
			],
			"formula": [
				"a(n) = A003415(A006882(n)). - _R. J. Mathar_, Nov 26 2009"
			],
			"maple": [
				"A003415 := proc(n) local pfs ; if n \u003c= 1 then 0 ; else pfs := ifactors(n)[2] ; n*add(op(2,p)/op(1,p),p=pfs) ; fi; end proc:",
				"A168386 := proc(n) A003415(doublefactorial(n)) ; end proc:",
				"seq(A168386(n),n=0..80) ; # _R. J. Mathar_, Nov 26 2009",
				"# second Maple program:",
				"d:= n-\u003e n*add(i[2]/i[1], i=ifactors(n)[2]):",
				"a:= proc(n) option remember;",
				"      `if`(n\u003c2, 0, a(n-2)*n+doublefactorial(n-2)*d(n))",
				"    end:",
				"seq(a(n), n=0..40);  # _Alois P. Heinz_, Jun 06 2015"
			],
			"mathematica": [
				"d[n_] := n*Total[#2/#1\u0026 @@@ FactorInteger[n]];",
				"a[0] = a[1] = 0; a[n_] := d[n!!];",
				"Table[a[n], {n, 0, 40}] (* _Jean-François Alcover_, May 18 2018 *)"
			],
			"xref": [
				"Cf. A003415, A068311."
			],
			"keyword": "easy,nonn",
			"offset": "0,5",
			"author": "_Paolo P. Lava_ and _Giorgio Balzarotti_, Nov 24 2009",
			"ext": [
				"Program replaced by a structured program - _R. J. Mathar_, Nov 26 2009"
			],
			"references": 2,
			"revision": 14,
			"time": "2018-05-18T08:40:21-04:00",
			"created": "2010-06-01T03:00:00-04:00"
		}
	]
}