{
	"greeting": "Greetings from The On-Line Encyclopedia of Integer Sequences! http://oeis.org/",
	"query": "id:A168160",
	"count": 1,
	"start": 0,
	"results": [
		{
			"number": 168160,
			"data": "0,2,2,7,8,9,9,19,21,23,24,26,27,28,28,47,50,53,55,58,60,62,63,66,68,70,71,73,74,75,75,111,115,119,122,126,129,132,134,138,141,144,146,149,151,153,154,158,161,164,166,169,171,173,174,177,179,181,182,184,185,186",
			"name": "Number of 0's in the matrix whose lines are the binary expansion of the numbers 1,...,n.",
			"comment": [
				"The matrix is to be taken of minimal size, i.e., have n lines and the number of columns needed to write n in base 2 in the last line, A070939(n). Otherwise said, there is no zero column.",
				"The number of zeros in the last line of the matrix is given by A023416(n).",
				"One has a(n)=a(n-1) iff n = 2^k-1 for some k."
			],
			"formula": [
				"A168160(n)=n*A070939(n)-A000788(n)."
			],
			"example": [
				"a(4)=7 is the number of zeros in the matrix",
				"[001] /* = 1 in binary */",
				"[010] /* = 2 in binary */",
				"[011] /* = 3 in binary */",
				"[100] /* = 4 in binary */"
			],
			"program": [
				"(PARI) A168160(n)=n*#binary(n)-sum(i=1,n,norml2(binary(i)))"
			],
			"xref": [
				"Cf. A059015."
			],
			"keyword": "base,nonn",
			"offset": "1,2",
			"author": "_M. F. Hasler_, Nov 22 2009",
			"references": 1,
			"revision": 3,
			"time": "2012-07-14T11:32:32-04:00",
			"created": "2010-06-01T03:00:00-04:00"
		}
	]
}