{
	"greeting": "Greetings from The On-Line Encyclopedia of Integer Sequences! http://oeis.org/",
	"query": "id:A168063",
	"count": 1,
	"start": 0,
	"results": [
		{
			"number": 168063,
			"data": "1,3,5,6,9,12,15,18,21,30,39,42,45,60,69,72,81,99,102,105,108,111,129,138,150,165,180,192,195,198,225,228,231,240,270,279,282,309,312,315,348,351,381,399,420,432,441,459,462,465,489,501,522,570,600,615,618",
			"name": "Numbers n such that exactly two of {n-2, n-1, n+1, n+2} are primes.",
			"comment": [
				"Essentially the same as A014574 U A087679. - _Charles R Greathouse IV_, May 25, 2011"
			],
			"link": [
				"G. C. Greubel, \u003ca href=\"/A168063/b168063.txt\"\u003eTable of n, a(n) for n = 1..1000\u003c/a\u003e"
			],
			"mathematica": [
				"Select[Range[700],Count[#+{-2,-1,1,2},_?PrimeQ]==2\u0026] (* _Harvey P. Dale_, Jan 24 2014 *)"
			],
			"keyword": "nonn,easy",
			"offset": "1,2",
			"author": "_Juri-Stepan Gerasimov_, Nov 18 2009",
			"ext": [
				"Corrected (105 inserted, 609 removed) by _R. J. Mathar_, Jun 04 2010"
			],
			"references": 2,
			"revision": 15,
			"time": "2016-07-08T20:21:29-04:00",
			"created": "2010-06-01T03:00:00-04:00"
		}
	]
}