{
	"greeting": "Greetings from The On-Line Encyclopedia of Integer Sequences! http://oeis.org/",
	"query": "id:A168878",
	"count": 1,
	"start": 0,
	"results": [
		{
			"number": 168878,
			"data": "1,9,72,576,4608,36864,294912,2359296,18874368,150994944,1207959552,9663676416,77309411328,618475290624,4947802324992,39582418599936,316659348799488,2533274790395904,20266198323167232,162129586585337856",
			"name": "Number of reduced words of length n in Coxeter group on 9 generators S_i with relations (S_i)^2 = (S_i S_j)^21 = I.",
			"comment": [
				"The initial terms coincide with those of A003951, although the two sequences are eventually different.",
				"First disagreement at index 21: a(21) = 10376293541461622748, A003951(21) = 10376293541461622784. - Klaus Brockhaus, Apr 05 2011",
				"Computed with MAGMA using commands similar to those used to compute A154638."
			],
			"link": [
				"\u003ca href=\"/index/Rec#order_21\"\u003eIndex entries for linear recurrences with constant coefficients\u003c/a\u003e, signature (7, 7, 7, 7, 7, 7, 7, 7, 7, 7, 7, 7, 7, 7, 7, 7, 7, 7, 7, 7, -28)."
			],
			"formula": [
				"G.f.: (t^21 + 2*t^20 + 2*t^19 + 2*t^18 + 2*t^17 + 2*t^16 + 2*t^15 + 2*t^14 + 2*t^13 + 2*t^12 + 2*t^11 + 2*t^10 + 2*t^9 + 2*t^8 + 2*t^7 + 2*t^6 + 2*t^5 + 2*t^4 + 2*t^3 + 2*t^2 + 2*t + 1)/(28*t^21 - 7*t^20 - 7*t^19 - 7*t^18 - 7*t^17 - 7*t^16 - 7*t^15 - 7*t^14 - 7*t^13 - 7*t^12 - 7*t^11 - 7*t^10 - 7*t^9 - 7*t^8 - 7*t^7 - 7*t^6 - 7*t^5 - 7*t^4 - 7*t^3 - 7*t^2 - 7*t + 1)."
			],
			"mathematica": [
				"coxG[{21,28,-7}] (* The coxG program is at A169452 *) (* _Harvey P. Dale_, May 08 2019 *)"
			],
			"xref": [
				"Cf. A003951 (G.f.: (1+x)/(1-8*x))."
			],
			"keyword": "nonn",
			"offset": "0,2",
			"author": "_John Cannon_ and _N. J. A. Sloane_, Dec 03 2009",
			"references": 0,
			"revision": 10,
			"time": "2019-05-08T13:57:10-04:00",
			"created": "2010-06-01T03:00:00-04:00"
		}
	]
}