{
	"greeting": "Greetings from The On-Line Encyclopedia of Integer Sequences! http://oeis.org/",
	"query": "id:A168190",
	"count": 1,
	"start": 0,
	"results": [
		{
			"number": 168190,
			"data": "0,1,2052,265734,8388640,122070375,1088391276,6920643772,34359738624,141214768605,500000000500,1569214189026,4458050224992,11649042562339,28346956189020,64873168947000,140737488357376,291311118617337,578415690716004,1106657459536510",
			"name": "a(n) = n^3*(n^9 + 1)/2.",
			"link": [
				"Vincenzo Librandi and T. D. Noe, \u003ca href=\"/A168190/b168190.txt\"\u003eTable of n, a(n) for n = 0..1000\u003c/a\u003e (first 332 terms from Vincenzo Librandi)"
			],
			"mathematica": [
				"Table[n^3*(n^9+1)/2, {n,0,50}] (* _G. C. Greubel_, Jul 15 2016 *)"
			],
			"program": [
				"(MAGMA) [n^3*(n^9+1)/2: n in [0..50]]; // _Vincenzo Librandi_, Apr 25 2011"
			],
			"keyword": "nonn",
			"offset": "0,3",
			"author": "_N. J. A. Sloane_, Dec 11 2009",
			"references": 1,
			"revision": 15,
			"time": "2018-09-02T03:32:05-04:00",
			"created": "2010-06-01T03:00:00-04:00"
		}
	]
}