{
	"greeting": "Greetings from The On-Line Encyclopedia of Integer Sequences! http://oeis.org/",
	"query": "id:A168482",
	"count": 1,
	"start": 0,
	"results": [
		{
			"number": 168482,
			"data": "1,6,108,5888,1107456,768540672,2038400811008,21012301788217344,848380447466572480512,134688875052459668084359168,84279244669071810947388769566720",
			"name": "G.f.: Sum_{n\u003e=0} [(n+1)(n+2)/2]*2^(n^2)*(1 + 2^n*x)^n*x^n.",
			"comment": [
				"This sequence illustrates the identity:",
				"Sum_{n\u003e=0} [(n+1)(n+2)/2]*q^(n^2)*G(q^n*x)^n*x^n = Sum_{n\u003e=0} c(n)*x^n",
				"where c(n) = [x^n] 1/(1 - q^n*x*G(x))^3."
			],
			"formula": [
				"a(n) = [x^n] 1/(1 - 2^n*x*(1+x))^3.",
				"a(n) = Sum_{k=0..[n/2]} [(n-k+1)(n-k+1)/2]*C(n-k,k)*2^(n(n-k)).",
				"a(n) ~ n^2 * 2^(n^2 - 1). - _Vaclav Kotesovec_, Oct 07 2020"
			],
			"example": [
				"G.f.: A(x) = 1 + 6*x + 108*x^2 + 5888*x^3 + 1107456*x^4 +..."
			],
			"mathematica": [
				"Table[Sum[(n - k + 1)*(n - k + 2)/2 * Binomial[n - k, k]*2^(n*(n - k)), {k, 0, n/2}], {n, 0, 15}] (* _Vaclav Kotesovec_, Oct 07 2020 *)"
			],
			"program": [
				"(PARI) {a(n)=polcoeff(sum(m=0,n,(m+1)*(m+2)/2*(1+2^m*x)^m*2^(m^2)*x^m)+x*O(x^n),n)}",
				"(PARI) {a(n)=polcoeff(1/(1-2^n*x*(1+x)+x*O(x^n))^3,n)}",
				"(PARI) {a(n)=sum(k=0,n\\2,(n-k+1)*(n-k+2)/2*binomial(n-k,k)*2^(n*(n-k)))}"
			],
			"xref": [
				"Cf. A168480, A168481."
			],
			"keyword": "nonn",
			"offset": "0,2",
			"author": "_Paul D. Hanna_, Nov 26 2009",
			"references": 2,
			"revision": 5,
			"time": "2020-10-07T08:33:07-04:00",
			"created": "2010-06-01T03:00:00-04:00"
		}
	]
}