{
	"greeting": "Greetings from The On-Line Encyclopedia of Integer Sequences! http://oeis.org/",
	"query": "id:A168153",
	"count": 1,
	"start": 0,
	"results": [
		{
			"number": 168153,
			"data": "0,1,1026,88578,2097160,24414075,181398546,988663396,4294967328,15690529845,50000000050,142655835366,371504185416,896080197103,2024782584930,4324877929800,8796093022336,17135948153961,32134205039778,58245129449290,102400000000200",
			"name": "a(n) = n^2*(n^9 + 1)/2.",
			"link": [
				"T. D. Noe, \u003ca href=\"/A168153/b168153.txt\"\u003eTable of n, a(n) for n = 0..1000\u003c/a\u003e",
				"\u003ca href=\"/index/Rec#order_12\"\u003eIndex entries for linear recurrences with constant coefficients\u003c/a\u003e, signature (12,-66,220,-495,792,-924,792,-495,220,-66,12,-1)."
			],
			"formula": [
				"G.f.: x*(1 + 1014*x + 76332*x^2 + 1101720*x^3 + 4869078*x^4 + 7862124*x^5 + 4869036*x^6 + 1101768*x^7 + 76305*x^8 + 1022*x^9)/(1-x)^12. - _Vincenzo Librandi_, Jul 15 2016"
			],
			"mathematica": [
				"Table[n^2*(n^9 + 1)/2, {n,0,50}] (* _G. C. Greubel_, Jul 15 2016 *)"
			],
			"program": [
				"(MAGMA) [n^2*(n^9+1)/2: n in [0..25]]; // _Vincenzo Librandi_, Jul 15 2016"
			],
			"keyword": "nonn,easy",
			"offset": "0,3",
			"author": "_N. J. A. Sloane_, Dec 11 2009",
			"references": 3,
			"revision": 12,
			"time": "2016-07-15T02:47:49-04:00",
			"created": "2010-06-01T03:00:00-04:00"
		}
	]
}