{
	"greeting": "Greetings from The On-Line Encyclopedia of Integer Sequences! http://oeis.org/",
	"query": "id:A168610",
	"count": 1,
	"start": 0,
	"results": [
		{
			"number": 168610,
			"data": "6,8,14,32,86,248,734,2192,6566,19688,59054,177152,531446,1594328,4782974,14348912,43046726,129140168,387420494,1162261472,3486784406,10460353208,31381059614,94143178832,282429536486,847288609448",
			"name": "a(n) = 3^n + 5.",
			"link": [
				"Vincenzo Librandi, \u003ca href=\"/A168610/b168610.txt\"\u003eTable of n, a(n) for n = 0..1000\u003c/a\u003e",
				"\u003ca href=\"/index/Rec#order_02\"\u003eIndex entries for linear recurrences with constant coefficients\u003c/a\u003e, signature (4,-3)."
			],
			"formula": [
				"a(n) = 3*a(n-1) - 10 with a(0)=6.",
				"G.f.: 2*(3 - 8*x)/((1-x)*(1-3*x)). - _Vincenzo Librandi_, Jul 06 2012",
				"a(n) = 4*a(n-1) -3*a(n-2). - _Vincenzo Librandi_, Jul 06 2012",
				"a(n) = 2*A115098(n)+2. - _Bruno Berselli_, Jul 06 2012",
				"E.g.f.: exp(3*x) + 5*exp(x). - _G. C. Greubel_, Jul 27 2016"
			],
			"mathematica": [
				"CoefficientList[Series[2*(3-8*x)/((1-x)*(1-3*x)),{x,0,40}],x] (* _Vincenzo Librandi_, Jul 06 2012 *)",
				"LinearRecurrence[{4,-3}, {6, 8}, 25] (* _G. C. Greubel_, Jul 27 2016 *)"
			],
			"program": [
				"(MAGMA) I:=[6, 8]; [n le 2 select I[n] else 4*Self(n-1)-3*Self(n-2): n in [1..30]]; // _Vincenzo Librandi_, Jul 06 2012",
				"(PARI) a(n)=3^n+5 \\\\ _Charles R Greathouse IV_, Oct 07 2015"
			],
			"xref": [
				"Cf. A168613."
			],
			"keyword": "nonn,easy",
			"offset": "0,1",
			"author": "_Vincenzo Librandi_, Dec 01 2009",
			"ext": [
				"Formula and examples edited to use correct offset by _Jon E. Schoenfield_, Jun 19 2010"
			],
			"references": 5,
			"revision": 25,
			"time": "2016-07-27T19:22:06-04:00",
			"created": "2010-06-01T03:00:00-04:00"
		}
	]
}