{
	"greeting": "Greetings from The On-Line Encyclopedia of Integer Sequences! http://oeis.org/",
	"query": "id:A168322",
	"count": 1,
	"start": 0,
	"results": [
		{
			"number": 168322,
			"data": "3,5,5,7,7,17,13,23,17,31,19,47,23,61,29,67,31,83,37,103,41,107,43,113,67,127,83,137,97,139,101,149,103,157,107,167,109,173,127,179,137,193,149,199,151,227,163,229,179,233,181,239,193,241,197,263,199,271,239",
			"name": "a(1)=3,a(2)=5; a(n+1)=smallest prime number \u003e a(n-1) such that the sum of any three consecutive terms is a prime.",
			"mathematica": [
				"a=3;b=5;lst={a,b};Do[Do[If[PrimeQ[q]\u0026\u0026PrimeQ[a+b+q],c=q;Break[]],{q,a+2,9!,2}];AppendTo[lst,c];a=b;b=c,{n,6!}];lst"
			],
			"xref": [
				"Cf. A062391"
			],
			"keyword": "nonn",
			"offset": "1,1",
			"author": "_Vladimir Joseph Stephan Orlovsky_, Nov 22 2009",
			"references": 1,
			"revision": 2,
			"time": "2012-03-31T12:38:27-04:00",
			"created": "2010-06-01T03:00:00-04:00"
		}
	]
}