{
	"greeting": "Greetings from The On-Line Encyclopedia of Integer Sequences! http://oeis.org/",
	"query": "id:A168690",
	"count": 1,
	"start": 0,
	"results": [
		{
			"number": 168690,
			"data": "1,13,156,1872,22464,269568,3234816,38817792,465813504,5589762048,67077144576,804925734912,9659108818944,115909305827328,1390911669927936,16690940039135232,200291280469622784",
			"name": "Number of reduced words of length n in Coxeter group on 13 generators S_i with relations (S_i)^2 = (S_i S_j)^17 = I.",
			"comment": [
				"The initial terms coincide with those of A170732, although the two sequences are eventually different.",
				"First disagreement at index 17: a(17) = 2403495365635473330, A170732(17) = 2403495365635473408. - _Klaus Brockhaus_, Mar 30 2011",
				"Computed with MAGMA using commands similar to those used to compute A154638."
			],
			"link": [
				"G. C. Greubel, \u003ca href=\"/A168690/b168690.txt\"\u003eTable of n, a(n) for n = 0..500\u003c/a\u003e",
				"\u003ca href=\"/index/Rec#order_17\"\u003eIndex entries for linear recurrences with constant coefficients\u003c/a\u003e, signature (11, 11, 11, 11, 11, 11, 11, 11, 11, 11, 11, 11, 11, 11, 11, 11, -66)."
			],
			"formula": [
				"G.f.: (t^17 + 2*t^16 + 2*t^15 + 2*t^14 + 2*t^13 + 2*t^12 + 2*t^11 + 2*t^10 + 2*t^9 + 2*t^8 + 2*t^7 + 2*t^6 + 2*t^5 + 2*t^4 + 2*t^3 + 2*t^2 + 2*t + 1)/ (66*t^17 - 11*t^16 - 11*t^15 - 11*t^14 - 11*t^13 - 11*t^12 - 11*t^11 - 11*t^10 - 11*t^9 - 11*t^8 - 11*t^7 - 11*t^6 - 11*t^5 - 11*t^4 - 11*t^3 - 11*t^2 - 11*t + 1)."
			],
			"mathematica": [
				"CoefficientList[Series[(t^17 + 2*t^16 + 2*t^15 + 2*t^14 + 2*t^13 + 2*t^12 + 2*t^11 + 2*t^10 + 2*t^9 + 2*t^8 + 2*t^7 + 2*t^6 + 2*t^5 + 2*t^4 + 2*t^3 + 2*t^2 + 2*t + 1)/(66*t^17 - 11*t^16 - 11*t^15 - 11*t^14 - 11*t^13 - 11*t^12 - 11*t^11 - 11*t^10 - 11*t^9 - 11*t^8 - 11*t^7 - 11*t^6 - 11*t^5 - 11*t^4 - 11*t^3 - 11*t^2 - 11*t + 1), {t,0,50}], t] (* _G. C. Greubel_, Aug 03 2016 *)"
			],
			"xref": [
				"Cf. A170732 (G.f.: (1+x)/(1-12*x))."
			],
			"keyword": "nonn",
			"offset": "0,2",
			"author": "_John Cannon_ and _N. J. A. Sloane_, Dec 03 2009",
			"references": 1,
			"revision": 14,
			"time": "2016-11-24T13:02:31-05:00",
			"created": "2010-06-01T03:00:00-04:00"
		}
	]
}