{
	"greeting": "Greetings from The On-Line Encyclopedia of Integer Sequences! http://oeis.org/",
	"query": "id:A168767",
	"count": 1,
	"start": 0,
	"results": [
		{
			"number": 168767,
			"data": "1,42,1722,70602,2894682,118681962,4865960442,199504378122,8179679503002,335366859623082,13750041244546362,563751691026400842,23113819332082434522,947666592615379815402,38854330297230572431482",
			"name": "Number of reduced words of length n in Coxeter group on 42 generators S_i with relations (S_i)^2 = (S_i S_j)^18 = I.",
			"comment": [
				"The initial terms coincide with those of A170761, although the two sequences are eventually different.",
				"First disagreement at index 18: a(18) = 109793051235032559584557006941, A170761(18) = 109793051235032559584557007802. - _Klaus Brockhaus_, Mar 26 2011",
				"Computed with MAGMA using commands similar to those used to compute A154638."
			],
			"link": [
				"G. C. Greubel, \u003ca href=\"/A168767/b168767.txt\"\u003eTable of n, a(n) for n = 0..500\u003c/a\u003e",
				"\u003ca href=\"/index/Rec#order_18\"\u003eIndex entries for linear recurrences with constant coefficients\u003c/a\u003e, signature (40, 40, 40, 40, 40, 40, 40, 40, 40, 40, 40, 40, 40, 40, 40, 40, 40, -820)."
			],
			"formula": [
				"G.f.: (t^18 + 2*t^17 + 2*t^16 + 2*t^15 + 2*t^14 + 2*t^13 + 2*t^12 + 2*t^11 + 2*t^10 + 2*t^9 + 2*t^8 + 2*t^7 + 2*t^6 + 2*t^5 + 2*t^4 + 2*t^3 + 2*t^2 + 2*t + 1)/(820*t^18 - 40*t^17 - 40*t^16 - 40*t^15 - 40*t^14 - 40*t^13 - 40*t^12 - 40*t^11 - 40*t^10 - 40*t^9 - 40*t^8 - 40*t^7 - 40*t^6 - 40*t^5 - 40*t^4 - 40*t^3 - 40*t^2 - 40*t + 1)."
			],
			"mathematica": [
				"With[{num=Total[2t^Range[17]]+t^18+1,den=Total[-40 t^Range[17]]+ 820t^18+ 1},CoefficientList[Series[num/den,{t,0,20}],t]] (* _Harvey P. Dale_, Oct 25 2011 *)",
				"CoefficientList[Series[(t^18 + 2*t^17 + 2*t^16 + 2*t^15 + 2*t^14 + 2*t^13 + 2*t^12 + 2*t^11 + 2*t^10 + 2*t^9 + 2*t^8 + 2*t^7 + 2*t^6 + 2*t^5 + 2*t^4 + 2*t^3 + 2*t^2 + 2*t + 1)/(820*t^18 - 40*t^17 - 40*t^16 - 40*t^15 - 40*t^14 - 40*t^13 - 40*t^12 - 40*t^11 - 40*t^10 - 40*t^9 - 40*t^8 - 40*t^7 - 40*t^6 - 40*t^5 - 40*t^4 - 40*t^3 - 40*t^2 - 40*t + 1), {t, 0, 50}], t] (* _G. C. Greubel_, Aug 11 2016 *)"
			],
			"xref": [
				"Cf. A170761 (G.f.: (1+x)/(1-41*x))."
			],
			"keyword": "nonn,easy",
			"offset": "0,2",
			"author": "_John Cannon_ and _N. J. A. Sloane_, Dec 03 2009",
			"references": 1,
			"revision": 17,
			"time": "2016-11-24T14:02:18-05:00",
			"created": "2010-06-01T03:00:00-04:00"
		}
	]
}