{
	"greeting": "Greetings from The On-Line Encyclopedia of Integer Sequences! http://oeis.org/",
	"query": "id:A169865",
	"count": 1,
	"start": 0,
	"results": [
		{
			"number": 169865,
			"data": "2,5,7,9,11,14,16,18,20,22,24,27,29,31,33,35,37,39,41,44,46",
			"name": "The sequence T of a pair S, T generalizing Golomb's sequence A001462 and the pair A093848, A169863. See Comments for definition.",
			"comment": [
				"S is built with the rules [1] that you cannot insert any integer between two \"touching\" runs (run 1,3 is followed by 4,6,8,10,12; there is no integer between 3 and 4) and [2] that S and T share no integer."
			],
			"xref": [
				"Cf. A169864, A001462, A093848, A169863."
			],
			"keyword": "nonn,more",
			"offset": "1,1",
			"author": "_N. J. A. Sloane_, Jun 27 2010, following a posting from Eric Angelini to the Sequence Fans Mailing List, Jun 22, 2010",
			"references": 3,
			"revision": 3,
			"time": "2012-03-30T16:51:45-04:00",
			"created": "2010-07-11T03:00:00-04:00"
		}
	]
}