{
	"greeting": "Greetings from The On-Line Encyclopedia of Integer Sequences! http://oeis.org/",
	"query": "id:A169658",
	"count": 1,
	"start": 0,
	"results": [
		{
			"number": 169658,
			"data": "1,1,1,1,2,1,1,-96,-96,1,1,-98,9602,-98,1,1,129780,-365400,-365400,129780,1,1,-12701092,14791142,23637602,14791142,-12701092,1,1,1219277248,-677310144,-1522967040,-1522967040,-677310144,1219277248,1",
			"name": "Triangle, read by rows, defined by T(n, k) = b(n, k) + b(n, n-k+1) - (b(n,1) + b(n,n)) + 1, where b(n, k) = (-1)^n*(n!/k!)^2 *binomial(n-1, k-1).",
			"comment": [
				"Row sums are: {1, 2, 4, -190, 9408, -471238, 27817704, -1961999870, 163293385984, -15674630045398, ...}."
			],
			"link": [
				"G. C. Greubel, \u003ca href=\"/A169658/b169658.txt\"\u003eRows n = 1..100 of triangle, flattened\u003c/a\u003e"
			],
			"formula": [
				"T(n, k) = b(n, k) + b(n, n-k+1) - b(n, n) - b(n, 1) + 1, where b(n, k) = (-1)^n*(n!/m!)^2 *binomial(n-1, k-1), where 1 \u003c= k \u003c= n, n \u003e= 1."
			],
			"example": [
				"Triangle begins as:",
				"  1;",
				"  1,         1;",
				"  1,         2,        1;",
				"  1,       -96,      -96,        1;",
				"  1,       -98,     9602,      -98,        1;",
				"  1,    129780,  -365400,  -365400,   129780,         1;",
				"  1, -12701092, 14791142, 23637602, 14791142, -12701092, 1;"
			],
			"mathematica": [
				"L[n_, m_] = (-1)^n*(n!/m!)^2*Binomial[n-1, m-1];",
				"t[n_, m_] = L[n, m] + L[n, n-m+1];",
				"Table[t[n, m] - t[n, 1] + 1, {n, 1, 10}, {m, 1, n}]//Flatten"
			],
			"program": [
				"(PARI) b(n, k) = (-1)^n*(n!/k!)^2 *binomial(n-1, k-1);",
				"t(n, k) = b(n, k) + b(n, n-k+1);",
				"for(n=1, 10, for(k=1, n, print1(t(n,k) - t(n,1) + 1, \", \"))) \\\\ _G. C. Greubel_, May 20 2019",
				"(MAGMA)",
				"b:= func\u003c n,k | (-1)^n*(Factorial(n)/Factorial(k))^2*Binomial(n-1, k-1) \u003e;",
				"[[b(n, k) +b(n, n-k+1) -b(n,1) -b(n,n) +1: k in [1..n]]: n in [1..10]]; // _G. C. Greubel_, May 20 2019",
				"(Sage)",
				"def b(n, k): return (-1)^n*factorial(n-k)^2*binomial(n,k)^2*binomial(n-1, k-1)",
				"def t(n, k): return b(n, k) + b(n, n-k+1)",
				"[[t(n,k) - t(n,1) + 1 for k in (1..n)] for n in (1..10)] # _G. C. Greubel_, May 20 2019"
			],
			"xref": [
				"Cf. A008297."
			],
			"keyword": "sign,tabl",
			"offset": "1,5",
			"author": "_Roger L. Bagula_, Apr 05 2010",
			"ext": [
				"Edited by _G. C. Greubel_, May 20 2019"
			],
			"references": 1,
			"revision": 7,
			"time": "2019-05-21T02:29:47-04:00",
			"created": "2010-06-01T03:00:00-04:00"
		}
	]
}