{
	"greeting": "Greetings from The On-Line Encyclopedia of Integer Sequences! http://oeis.org/",
	"query": "id:A170771",
	"count": 1,
	"start": 0,
	"results": [
		{
			"number": 170771,
			"data": "4,0,16,0,16,0,0,0,32,16,32,16,0,0,16,0,64,32,16,32,0,0,48,16,0,0,96,0,16,16,0,32,48,0,64,0,80,32,32,0,128,64,0,64,208,32,112,32,0,0,240,0,160,48,128,96,32,0,144,32,0,96,96,16,208,64,0,64,288,0,32,48",
			"name": "Expansion of 2 * ( phi(q) * phi(q^7) * phi(q^9) * phi(q^63) + phi(-q) * phi(-q^7) * phi(-q^9) * phi(-q^63) + 4 * q^4 * f(-q^6)^2 * f(-q^42)^2 ) in powers of q^2 where phi(), psi(), and f() are Ramanujan theta functions.",
			"comment": [
				"Ramanujan theta functions: f(q) (see A121373), phi(q) (A000122), psi(q) (A010054), chi(q) (A000700)."
			],
			"reference": [
				"Bruce C. Berndt, Ramanujan's Notebooks, Part IV, Springer-Verlag, 1984; see Entry 27, pp. 170-171. This is the left side of (27.1)."
			],
			"link": [
				"G. C. Greubel, \u003ca href=\"/A170771/b170771.txt\"\u003eTable of n, a(n) for n = 0..1000\u003c/a\u003e",
				"Michael Somos, \u003ca href=\"/A010815/a010815.txt\"\u003eIntroduction to Ramanujan theta functions\u003c/a\u003e",
				"Michael Somos, \u003ca href=\"/A170773/a170773.txt\"\u003eNotes on Entry 27 of Chapter 25 of Ramanujan's Notebooks, Part IV\u003c/a\u003e",
				"Eric Weisstein's World of Mathematics, \u003ca href=\"http://mathworld.wolfram.com/RamanujanThetaFunctions.html\"\u003eRamanujan Theta Functions\u003c/a\u003e"
			],
			"example": [
				"G.f. = 4 + 16*x^2 + 16*x^4 + 32*x^8 + 16*x^9 + 32*x^10 + 16*x^11 + ...",
				"G.f. = 4 + 16*q^4 + 16*q^8 + 32*q^16 + 16*q^18 + 32*q^20 + 16*q^22 + 16*q^28 + 64*q^32 + ..."
			],
			"mathematica": [
				"QP = QPochhammer; f[q_] := QPochhammer[-q, -q]; p[q_] := EllipticTheta[3, 0, q]; u[q_] := (1/2)*q^(-1/8)*EllipticTheta[2, 0, Sqrt[q]]; a[n_] := SeriesCoefficient[2*(p[q]*p[q^7]*p[q^9]*p[q^63] + p[-q]*p[-q^7]*p[-q^9]*p[-q^63] + 4*q^4*f[-q^6]^2*f[-q^42]^2 ), {q, 0, n}]; Table[a[n], {n, 0, 100}][[ ;; ;; 2]] (* _G. C. Greubel_, Dec 05 2017 *)"
			],
			"xref": [
				"Cf. A170770, A170772, A170773."
			],
			"keyword": "nonn",
			"offset": "0,1",
			"author": "_Michael Somos_, Dec 10 2009",
			"references": 3,
			"revision": 15,
			"time": "2021-03-12T22:24:46-05:00",
			"created": "2010-06-01T03:00:00-04:00"
		}
	]
}