{
	"greeting": "Greetings from The On-Line Encyclopedia of Integer Sequences! http://oeis.org/",
	"query": "id:A170414",
	"count": 1,
	"start": 0,
	"results": [
		{
			"number": 170414,
			"data": "1,21,420,8400,168000,3360000,67200000,1344000000,26880000000,537600000000,10752000000000,215040000000000,4300800000000000,86016000000000000,1720320000000000000,34406400000000000000",
			"name": "Number of reduced words of length n in Coxeter group on 21 generators S_i with relations (S_i)^2 = (S_i S_j)^44 = I.",
			"comment": [
				"The initial terms coincide with those of A170740, although the two sequences are eventually different.",
				"Computed with MAGMA using commands similar to those used to compute A154638."
			],
			"link": [
				"Vincenzo Librandi, \u003ca href=\"/A170414/b170414.txt\"\u003eTable of n, a(n) for n = 0..200\u003c/a\u003e",
				"\u003ca href=\"/index/Rec#order_44\"\u003eIndex entries for linear recurrences with constant coefficients\u003c/a\u003e, signature (19, 19, 19, 19, 19, 19, 19, 19, 19, 19, 19, 19, 19, 19, 19, 19, 19, 19, 19, 19, 19, 19, 19, 19, 19, 19, 19, 19, 19, 19, 19, 19, 19, 19, 19, 19, 19, 19, 19, 19, 19, 19, 19, -190)."
			],
			"formula": [
				"G.f. (t^44 + 2*t^43 + 2*t^42 + 2*t^41 + 2*t^40 + 2*t^39 + 2*t^38 + 2*t^37 +",
				"2*t^36 + 2*t^35 + 2*t^34 + 2*t^33 + 2*t^32 + 2*t^31 + 2*t^30 + 2*t^29 +",
				"2*t^28 + 2*t^27 + 2*t^26 + 2*t^25 + 2*t^24 + 2*t^23 + 2*t^22 + 2*t^21 +",
				"2*t^20 + 2*t^19 + 2*t^18 + 2*t^17 + 2*t^16 + 2*t^15 + 2*t^14 + 2*t^13 +",
				"2*t^12 + 2*t^11 + 2*t^10 + 2*t^9 + 2*t^8 + 2*t^7 + 2*t^6 + 2*t^5 + 2*t^4",
				"+ 2*t^3 + 2*t^2 + 2*t + 1)/(190*t^44 - 19*t^43 - 19*t^42 - 19*t^41 -",
				"19*t^40 - 19*t^39 - 19*t^38 - 19*t^37 - 19*t^36 - 19*t^35 - 19*t^34 -",
				"19*t^33 - 19*t^32 - 19*t^31 - 19*t^30 - 19*t^29 - 19*t^28 - 19*t^27 -",
				"19*t^26 - 19*t^25 - 19*t^24 - 19*t^23 - 19*t^22 - 19*t^21 - 19*t^20 -",
				"19*t^19 - 19*t^18 - 19*t^17 - 19*t^16 - 19*t^15 - 19*t^14 - 19*t^13 -",
				"19*t^12 - 19*t^11 - 19*t^10 - 19*t^9 - 19*t^8 - 19*t^7 - 19*t^6 - 19*t^5",
				"- 19*t^4 - 19*t^3 - 19*t^2 - 19*t + 1)"
			],
			"mathematica": [
				"With[{num=Total[2t^Range[43]]+t^44+1,den=Total[-19 t^Range[43]]+190t^44+ 1},CoefficientList[Series[num/den,{t,0,20}],t]] (* _Harvey P. Dale_, Jul 20 2014 *)"
			],
			"keyword": "nonn",
			"offset": "0,2",
			"author": "_John Cannon_ and _N. J. A. Sloane_, Dec 03 2009",
			"references": 1,
			"revision": 12,
			"time": "2016-11-21T17:25:30-05:00",
			"created": "2010-06-01T03:00:00-04:00"
		}
	]
}