{
	"greeting": "Greetings from The On-Line Encyclopedia of Integer Sequences! http://oeis.org/",
	"query": "id:A170856",
	"count": 1,
	"start": 0,
	"results": [
		{
			"number": 170856,
			"data": "0,1,3,11,3,11,39,31,3,11,39,31,39,139,171,71,3,11,39,31,39,139,171,71,39,139,171,179,495,791,555,151,3,11,39,31,39,139,171,71,39,139,171,179,495,791,555,151,39,139,171,179,495,791,555,259,495,791,879,1843,3363,3247",
			"name": "a(0) = 0, a(1) = 1; a(2^i + j) = 2a(j) + 3a(j + 1) for 0 \u003c= j \u003c 2^i.",
			"link": [
				"Robert Israel, \u003ca href=\"/A170856/b170856.txt\"\u003eTable of n, a(n) for n = 0..10000\u003c/a\u003e",
				"David Applegate, Omar E. Pol and N. J. A. Sloane, \u003ca href=\"/A000695/a000695_1.pdf\"\u003eThe Toothpick Sequence and Other Sequences from Cellular Automata\u003c/a\u003e, Congressus Numerantium, Vol. 206 (2010), 157-191. [There is a typo in Theorem 6: (13) should read u(n) = 4.3^(wt(n-1)-1) for n \u003e= 2.]",
				"N. J. A. Sloane, \u003ca href=\"/wiki/Catalog_of_Toothpick_and_CA_Sequences_in_OEIS\"\u003eCatalog of Toothpick and Cellular Automata Sequences in the OEIS\u003c/a\u003e"
			],
			"maple": [
				"f:= proc(n) option remember; local j;",
				"   j:= n - 2^ilog2(n);",
				"   2*procname(j)+3*procname(j+1);",
				"end proc:",
				"f(0):= 0: f(1):= 1:",
				"map(f, [$0..100]); # _Robert Israel_, Jun 12 2018"
			],
			"mathematica": [
				"f[n_] := f[n] = With[{j = n - 2^Floor@Log[2, n]}, 2 f[j] + 3 f[j+1]];",
				"f[0] = 0; f[1] = 1;",
				"f /@ Range[0, 100] (* _Jean-François Alcover_, Aug 31 2020, after _Robert Israel_ *)"
			],
			"keyword": "nonn,look",
			"offset": "0,3",
			"author": "_N. J. A. Sloane_, Jan 02 2010",
			"references": 1,
			"revision": 13,
			"time": "2021-02-24T02:48:19-05:00",
			"created": "2010-06-01T03:00:00-04:00"
		}
	]
}