{
	"greeting": "Greetings from The On-Line Encyclopedia of Integer Sequences! http://oeis.org/",
	"query": "id:A170963",
	"count": 1,
	"start": 0,
	"results": [
		{
			"number": 170963,
			"data": "1,0,0,1,0,0,0,1,0,0,1,1,0,0,1,1,0,0,2,1,0,1,2,1,0,1,3,1,0,2,3,1,0,3,4,1,1,4,4,1,1,5,5,0,2,7,4,0,3,8,4,0,5,9,3,1,6,10,3,1,9,10,2,2,10,10,2,3,13,10,1,5,14,9,1,7,16,8,1,9,16,7,1,11,18,5,2,14,16,4,3,16,16,3,5,18,14",
			"name": "Expansion of Product_{i=1..m} (1 + x^(4*i-1)) for m = 10.",
			"comment": [
				"Product_{i=1..m} (1 + x^(4*i-1)) is the Poincaré polynomial for both Sp(2m) and O(2m+1)."
			],
			"reference": [
				"H. Weyl, The Classical Groups, Princeton, 1946, see p. 238."
			],
			"link": [
				"Nathaniel Johnston, \u003ca href=\"/A170963/b170963.txt\"\u003eTable of n, a(n) for n = 0..210\u003c/a\u003e (full sequence)"
			],
			"formula": [
				"a(n) = a(210-n). - _Rick L. Shepherd_, Mar 01 2013"
			],
			"xref": [
				"Cf. A000700, A147599, A169975, A170956-A170965."
			],
			"keyword": "nonn,fini,full,easy",
			"offset": "0,19",
			"author": "_N. J. A. Sloane_, Aug 29 2010",
			"references": 1,
			"revision": 13,
			"time": "2021-01-05T02:39:57-05:00",
			"created": "2010-09-12T03:00:00-04:00"
		}
	]
}