{
	"greeting": "Greetings from The On-Line Encyclopedia of Integer Sequences! http://oeis.org/",
	"query": "id:A170918",
	"count": 1,
	"start": 0,
	"results": [
		{
			"number": 170918,
			"data": "1,-1,7,-14,54,-1112,6574,-48488,1143731,-14813072,16252211,-3500388967,125127865048,-158589803803,33133618166566,-30512906279732,4378989933312913,-330336346477870319,1981395373839282068,-251479418962683770473,79893293800974935213,-31493610597939643431532",
			"name": "Write tan x = Product_{n\u003e=1} (1 + g_n x^n); a(n) = numerator(g_n).",
			"link": [
				"Giedrius Alkauskas, \u003ca href=\"http://arxiv.org/abs/0801.0805\"\u003eOne curious proof of Fermat's little theorem\u003c/a\u003e, arXiv:0801.0805 [math.NT], 2008.",
				"Giedrius Alkauskas, \u003ca href=\"https://www.jstor.org/stable/40391097\"\u003eA curious proof of Fermat's little theorem\u003c/a\u003e, Amer. Math. Monthly 116(4) (2009), 362-364.",
				"Giedrius Alkauskas, \u003ca href=\"https://arxiv.org/abs/1609.09842\"\u003eAlgebraic functions with Fermat property, eigenvalues of transfer operator and Riemann zeros, and other open problems\u003c/a\u003e, arXiv:1609.09842 [math.NT], 2016.",
				"H. Gingold, H. W. Gould, and Michael E. Mays, \u003ca href=\"https://www.researchgate.net/publication/268023169_Power_product_expansions\"\u003ePower Product Expansions\u003c/a\u003e, Utilitas Mathematica 34 (1988), 143-161.",
				"H. Gingold and A. Knopfmacher, \u003ca href=\"http://dx.doi.org/10.4153/CJM-1995-062-9\"\u003eAnalytic properties of power product expansions\u003c/a\u003e, Canad. J. Math. 47 (1995), 1219-1239.",
				"Wolfdieter Lang, \u003ca href=\"/A157162/a157162.txt\"\u003eRecurrences for the general problem\u003c/a\u003e."
			],
			"example": [
				"1, -1, 7/3, -14/3, 54/5, -1112/45, 6574/105, -48488/315, 1143731/2835, ..."
			],
			"maple": [
				"t1:=tan(x);",
				"L:=100;",
				"t0:=series(t1,x,L):",
				"g:=[]; M:=40; t2:=t0:",
				"for n from 1 to M do",
				"t3:=coeff(t2,x,n); t2:=series(t2/(1+t3*x^n),x,L); g:=[op(g),t3];",
				"od:",
				"g;",
				"g1:=map(numer,g);",
				"g2:=map(denom,g);"
			],
			"xref": [
				"Cf. A170919 (denominators), A170910-A170917."
			],
			"keyword": "sign,frac",
			"offset": "1,3",
			"author": "_N. J. A. Sloane_, Jan 30 2010",
			"references": 1,
			"revision": 10,
			"time": "2021-01-05T02:41:05-05:00",
			"created": "2010-06-01T03:00:00-04:00"
		}
	]
}