{
	"greeting": "Greetings from The On-Line Encyclopedia of Integer Sequences! http://oeis.org/",
	"query": "id:A170685",
	"count": 1,
	"start": 0,
	"results": [
		{
			"number": 170685,
			"data": "1,4,12,36,108,324,972,2916,8748,26244,78732,236196,708588,2125764,6377292,19131876,57395628,172186884,516560652,1549681956,4649045868,13947137604,41841412812,125524238436,376572715308,1129718145924",
			"name": "Number of reduced words of length n in Coxeter group on 4 generators S_i with relations (S_i)^2 = (S_i S_j)^50 = I.",
			"comment": [
				"The initial terms coincide with those of A003946, although the two sequences are eventually different.",
				"Computed with MAGMA using commands similar to those used to compute A154638.",
				"About the initial comment, first disagreement is at index 50 and the difference is 6.  - _Vincenzo Librandi_, Dec 09 2012"
			],
			"link": [
				"Vincenzo Librandi, \u003ca href=\"/A170685/b170685.txt\"\u003eTable of n, a(n) for n = 0..200\u003c/a\u003e",
				"\u003ca href=\"/index/Rec#order_50\"\u003eIndex entries for linear recurrences with constant coefficients\u003c/a\u003e, signature (2, 2, 2, 2, 2, 2, 2, 2, 2, 2, 2, 2, 2, 2, 2, 2, 2, 2, 2, 2, 2, 2, 2, 2, 2, 2, 2, 2, 2, 2, 2, 2, 2, 2, 2, 2, 2, 2, 2, 2, 2, 2, 2, 2, 2, 2, 2, 2, 2, -3)."
			],
			"formula": [
				"G.f. (t^50 + 2*t^49 + 2*t^48 + 2*t^47 + 2*t^46 + 2*t^45 + 2*t^44 + 2*t^43 +",
				"2*t^42 + 2*t^41 + 2*t^40 + 2*t^39 + 2*t^38 + 2*t^37 + 2*t^36 + 2*t^35 +",
				"2*t^34 + 2*t^33 + 2*t^32 + 2*t^31 + 2*t^30 + 2*t^29 + 2*t^28 + 2*t^27 +",
				"2*t^26 + 2*t^25 + 2*t^24 + 2*t^23 + 2*t^22 + 2*t^21 + 2*t^20 + 2*t^19 +",
				"2*t^18 + 2*t^17 + 2*t^16 + 2*t^15 + 2*t^14 + 2*t^13 + 2*t^12 + 2*t^11 +",
				"2*t^10 + 2*t^9 + 2*t^8 + 2*t^7 + 2*t^6 + 2*t^5 + 2*t^4 + 2*t^3 + 2*t^2 +",
				"2*t + 1)/(3*t^50 - 2*t^49 - 2*t^48 - 2*t^47 - 2*t^46 - 2*t^45 - 2*t^44 -",
				"2*t^43 - 2*t^42 - 2*t^41 - 2*t^40 - 2*t^39 - 2*t^38 - 2*t^37 - 2*t^36 -",
				"2*t^35 - 2*t^34 - 2*t^33 - 2*t^32 - 2*t^31 - 2*t^30 - 2*t^29 - 2*t^28 -",
				"2*t^27 - 2*t^26 - 2*t^25 - 2*t^24 - 2*t^23 - 2*t^22 - 2*t^21 - 2*t^20 -",
				"2*t^19 - 2*t^18 - 2*t^17 - 2*t^16 - 2*t^15 - 2*t^14 - 2*t^13 - 2*t^12 -",
				"2*t^11 - 2*t^10 - 2*t^9 - 2*t^8 - 2*t^7 - 2*t^6 - 2*t^5 - 2*t^4 - 2*t^3",
				"- 2*t^2 - 2*t + 1)."
			],
			"mathematica": [
				"With[{num = Total[2 t^Range[49]] + t^50 + 1, den = Total[-2 t^Range[49]] + 3 t^50 + 1}, CoefficientList[Series[num/den, {t, 0, 40}], t]] (* _Vincenzo Librandi_, Dec 09 2012 *)"
			],
			"keyword": "nonn",
			"offset": "0,2",
			"author": "_John Cannon_ and _N. J. A. Sloane_, Dec 03 2009",
			"references": 1,
			"revision": 10,
			"time": "2016-11-21T10:36:10-05:00",
			"created": "2010-06-01T03:00:00-04:00"
		}
	]
}