{
	"greeting": "Greetings from The On-Line Encyclopedia of Integer Sequences! http://oeis.org/",
	"query": "id:A171382",
	"count": 1,
	"start": 0,
	"results": [
		{
			"number": 171382,
			"data": "3,-1,5,3,13,19,45,83,173,339,685,1363,2733,5459,10925,21843,43693,87379,174765,349523,699053,1398099,2796205,5592403,11184813,22369619,44739245,89478483,178956973,357913939,715827885,1431655763,2863311533",
			"name": "a(n) = (2*2^n+7*(-1)^n)/3.",
			"comment": [
				"a(n) = A155980(n+2).",
				"a(n) = A135351(n+3)-A135351(n+2).",
				"Second binomial transform of a signed version of A005032 preceded by 3.",
				"Inverse binomial transform of A008776 preceded by 3."
			],
			"link": [
				"\u003ca href=\"/index/Rec#order_02\"\u003eIndex entries for linear recurrences with constant coefficients\u003c/a\u003e, signature (1,2)."
			],
			"formula": [
				"a(n) = a(n-1)+2*a(n-2) for n \u003e 1; a(0) = 3, a(1) = -1.",
				"a(n) = 2^n-a(n-1) for n \u003e 0; a(0) = 3.",
				"G.f.: (3-4*x)/((1+x)*(1-2*x))."
			],
			"mathematica": [
				"Nest[Append[#,Last[#]+2#[[-2]]]\u0026,{3,-1},40]  (* _Harvey P. Dale_, Apr 07 2011 *)"
			],
			"program": [
				"(MAGMA) [ (2*2^n+7*(-1)^n)/3: n in [0..32] ];"
			],
			"xref": [
				"Cf. A155980 (First differences of A135351), A135351 ((2^n+3-7*(-1)^n+3*0^n)/6), A005032 (7*3^n), A008776 (2*3^n)."
			],
			"keyword": "sign,easy",
			"offset": "0,1",
			"author": "_Klaus Brockhaus_, Dec 07 2009",
			"references": 3,
			"revision": 8,
			"time": "2021-01-21T15:47:11-05:00",
			"created": "2010-06-01T03:00:00-04:00"
		}
	]
}