{
	"greeting": "Greetings from The On-Line Encyclopedia of Integer Sequences! http://oeis.org/",
	"query": "id:A171939",
	"count": 1,
	"start": 0,
	"results": [
		{
			"number": 171939,
			"data": "1,2,7370,4,142,7,422,40,26",
			"name": "Position in A171922 at which n first appears, or 0 if n never appears.",
			"link": [
				"Hugo van der Sanden, \u003ca href=\"/A171939/a171939.txt\"\u003eTable of n, a(n) for n = 1..200, with -1 if n has not yet been found\u003c/a\u003e"
			],
			"keyword": "nonn,more",
			"offset": "1,2",
			"author": "_Hugo van der Sanden_, Oct 23 2010, Oct 24 2010",
			"references": 2,
			"revision": 3,
			"time": "2012-03-30T17:28:13-04:00",
			"created": "2010-11-10T03:00:00-05:00"
		}
	]
}