{
	"greeting": "Greetings from The On-Line Encyclopedia of Integer Sequences! http://oeis.org/",
	"query": "id:A171581",
	"count": 1,
	"start": 0,
	"results": [
		{
			"number": 171581,
			"data": "1,2,3,4,6,8,9,10,12,14,15,16,18,20,21,22,24,25,26,27,28,30,32,33,34,35,36,38,39,40,42,44,45,46,48,49,50,51,52,54,55,56,57,58,60,62,63,64,65,66,68,69,70,72,74,75,76,77,78,80,81,82,84,85,86,87,88,90,91,92,93,94",
			"name": "The natural numbers without primes \u003e 3.",
			"comment": [
				"1, 2, 3 and the composites A002808."
			],
			"mathematica": [
				"With[{nn=100},Join[{1,2,3},Complement[Range[4,nn],Prime[Range[ PrimePi[ nn]]]]]] (* _Harvey P. Dale_, Nov 18 2013 *)"
			],
			"program": [
				"(PARI) is(n)=if(n\u003c5,n\u003e0,!isprime(n)) \\\\ _Charles R Greathouse IV_, Nov 13 2015"
			],
			"keyword": "nonn,easy,less",
			"offset": "1,2",
			"author": "_Juri-Stepan Gerasimov_, Dec 12 2009, Dec 15 2009",
			"references": 3,
			"revision": 6,
			"time": "2015-11-13T11:08:12-05:00",
			"created": "2010-06-01T03:00:00-04:00"
		}
	]
}