{
	"greeting": "Greetings from The On-Line Encyclopedia of Integer Sequences! http://oeis.org/",
	"query": "id:A171721",
	"count": 1,
	"start": 0,
	"results": [
		{
			"number": 171721,
			"data": "1,1,3,2,3,7,17,17,7,15,116,122,116,15,31,627,1262,1262,627,31,63,2990,12433,15108,12433,2990,63,127,13309,107151,201973,201973,107151,13309,127,255,56936,830628,2612184,3321914,2612184,830628,56936,255,511",
			"name": "Coefficient expansion of: f(t,y)=((1 + y)/y - Exp[t/2])/(-1 + y*Exp[t])",
			"comment": [
				"Row sums are:",
				"2, 8, 48, 384, 3840, 46080, 645120, 10321920, 185794560, 3715891200,..."
			],
			"formula": [
				"f(t,y)=((1 + y)/y - Exp[t/2])/(-1 + y*Exp[t])"
			],
			"example": [
				"{1, 1},",
				"{3, 2, 3},",
				"{7, 17, 17, 7},",
				"{15, 116, 122, 116, 15},",
				"{31, 627, 1262, 1262, 627, 31}, {63, 2990, 12433, 15108, 12433, 2990, 63},",
				"{127, 13309, 107151, 201973, 201973, 107151, 13309, 127},",
				"{255, 56936, 830628, 2612184, 3321914, 2612184, 830628, 56936, 255},",
				"{511, 237863, 5979980, 30947132, 55731794, 55731794, 30947132, 5979980, 237863, 511},",
				"{1023, 979298, 40909331, 336803864, 900995822, 1156512524, 900995822, 336803864, 40909331, 979298, 1023}"
			],
			"mathematica": [
				"f[t_, y_] = ((1 + y)/y - Exp[t/2])/(-1 + y*Exp[t]);",
				"a = Table[ CoefficientList[FullSimplify[ExpandAll[(-1 + y)^(n + 1)*(-2)^n*n!*SeriesCoefficient[ Series[f[t, y], {t, 0, 30}], n]]], y], {n, 1, 10}]",
				"Flatten[a]"
			],
			"keyword": "nonn,uned",
			"offset": "1,3",
			"author": "_Roger L. Bagula_, Dec 16 2009",
			"references": 0,
			"revision": 2,
			"time": "2012-03-30T17:34:36-04:00",
			"created": "2010-06-01T03:00:00-04:00"
		}
	]
}