{
	"greeting": "Greetings from The On-Line Encyclopedia of Integer Sequences! http://oeis.org/",
	"query": "id:A171023",
	"count": 1,
	"start": 0,
	"results": [
		{
			"number": 171023,
			"data": "2,3,0,7,11,13,17,19,23,29,31,37,41,43,47,3,9,61,67,71,73,79,83,89,97,151,153,157,159,113,127,131,137,139,149,101,107,163,167,173,179,181,191,193,197,199,211,223,227,229,233,239,241,201,207,263,269",
			"name": "In the sequence of prime numbers, replace all the '5' digits with '0' and vice versa.",
			"link": [
				"Vincenzo Librandi, \u003ca href=\"/A171023/b171023.txt\"\u003eTable of n, a(n) for n = 1..1000\u003c/a\u003e"
			],
			"mathematica": [
				"FromDigits[IntegerDigits[#]/.{5-\u003ep, 0-\u003eq}/.{p-\u003e0, q-\u003e5}]\u0026/@Prime[Range[100]] (* _Vincenzo Librandi_, Apr 07 2013 *)"
			],
			"program": [
				"(PARI) a(n)=my(v=[5,1,2,3,4,0,6,7,8,9]);subst(Pol(apply(k-\u003ev[k+1], digits(prime(n)))),'x,10) \\\\ _Charles R Greathouse IV_, Jul 16 2013"
			],
			"keyword": "nonn,base,easy",
			"offset": "1,1",
			"author": "_N. J. A. Sloane_ and _Vincenzo Librandi_, Sep 04 2010",
			"references": 3,
			"revision": 10,
			"time": "2017-03-31T20:28:49-04:00",
			"created": "2010-09-12T03:00:00-04:00"
		}
	]
}