{
	"greeting": "Greetings from The On-Line Encyclopedia of Integer Sequences! http://oeis.org/",
	"query": "id:A171368",
	"count": 1,
	"start": 0,
	"results": [
		{
			"number": 171368,
			"data": "1,0,0,1,0,0,0,1,0,0,2,0,1,0,0,0,5,0,1,0,0,5,0,9,0,1,0,0,0,21,0,14,0,1,0,0,14,0,56,0,20,0,1,0,0,0,84,0,120,0,27,0,1,0,0,42,0,300,0,225,0,35,0,1,0,0,0,330,0,825,0,385,0,44,0,1,0,0",
			"name": "Another version of A126216.",
			"comment": [
				"Expansion of the first column of the triangle T_(0,x), T_(x,y) defined in A039599; T_(0,0)= A053121, T_(0,1)= A089942, T_(0,2)= A126093, T_(0,3)= A126970."
			],
			"formula": [
				"Sum_{k, 0\u003c=k\u003c=n} T(n,k)*x^k = A099323(n+1), A126120(n), A005043(n), A000957(n+1), A117641(n) for x = -1, 0, 1, 2, 3 respectively."
			],
			"example": [
				"Triangle begins : 1 ; 0,0 ; 1,0,0 ; 0,1,0,0 ; 2,0,1,0,0 ; 0,5,0,1,0,0 ; 5,0,9,0,1,0,0 ; ..."
			],
			"xref": [
				"Cf. A000108, A001003,"
			],
			"keyword": "nonn,tabl",
			"offset": "0,11",
			"author": "_Philippe Deléham_, Dec 06 2009",
			"references": 2,
			"revision": 3,
			"time": "2013-09-08T13:31:52-04:00",
			"created": "2010-06-01T03:00:00-04:00"
		}
	]
}