{
	"greeting": "Greetings from The On-Line Encyclopedia of Integer Sequences! http://oeis.org/",
	"query": "id:A171210",
	"count": 1,
	"start": 0,
	"results": [
		{
			"number": 171210,
			"data": "1,1,16,624,47552,6804576,1849952000,975746615040,1013611906401280,2090459909088346368,8592166589474459877376,70508055994868618069409792,1156194054760373598022278840320,37902377449956182566891283844956160",
			"name": "G.f. satisfies: A(x) = 1 + x*A(2x)^8.",
			"program": [
				"(PARI) {a(n)=local(A=1+x+x*O(x^n)); for(i=0, n, A=1+x*subst(A, x, 2*x)^8); polcoeff(A, n)}"
			],
			"xref": [
				"Cf. A135867, A171200-A171209, A171211."
			],
			"keyword": "nonn",
			"offset": "0,3",
			"author": "_Paul D. Hanna_, Dec 05 2009",
			"references": 3,
			"revision": 2,
			"time": "2012-03-30T18:37:20-04:00",
			"created": "2010-06-01T03:00:00-04:00"
		}
	]
}