{
	"greeting": "Greetings from The On-Line Encyclopedia of Integer Sequences! http://oeis.org/",
	"query": "id:A171665",
	"count": 1,
	"start": 0,
	"results": [
		{
			"number": 171665,
			"data": "44,75,98,104,116,135,147,171,189,230,231,242,243,244,285,296,332,344,374,375,387,429,434,507,548,603,604,609,645,663,664,724,735,741,776,782,805,819,844,874,902,903,908,931,963,969,986,1001,1015,1022,1029",
			"name": "Numbers n such that n and n+1 have same number of divisors, and that number of divisors is larger than 4.",
			"link": [
				"Harvey P. Dale, \u003ca href=\"/A171665/b171665.txt\"\u003eTable of n, a(n) for n = 1..2000\u003c/a\u003e"
			],
			"mathematica": [
				"f[n_]:=Length[Divisors[n]]; lst={};Do[If[f[n]==f[n+1]\u0026\u0026f[n]\u003e4,AppendTo[lst,n]],{n,7!}];lst",
				"Position[Partition[DivisorSigma[0,Range[1100]],2,1],_?(#[[1]] == #[[2]]\u003e 4\u0026),{1},Heads-\u003eFalse]//Flatten (* _Harvey P. Dale_, Sep 30 2016 *)"
			],
			"xref": [
				"Cf. A005237"
			],
			"keyword": "nonn",
			"offset": "1,1",
			"author": "_Vladimir Joseph Stephan Orlovsky_, Dec 14 2009",
			"references": 2,
			"revision": 7,
			"time": "2016-09-30T11:51:21-04:00",
			"created": "2010-06-01T03:00:00-04:00"
		}
	]
}