{
	"greeting": "Greetings from The On-Line Encyclopedia of Integer Sequences! http://oeis.org/",
	"query": "id:A171498",
	"count": 1,
	"start": 0,
	"results": [
		{
			"number": 171498,
			"data": "3,11,35,107,323,971,2915,8747,26243,78731,236195,708587,2125763,6377291,19131875,57395627,172186883,516560651,1549681955,4649045867,13947137603,41841412811,125524238435,376572715307,1129718145923",
			"name": "4*3^n-1.",
			"comment": [
				"Binomial transform of A171497.",
				"Inverse binomial transform of A171499."
			],
			"link": [
				"\u003ca href=\"/index/Rec\"\u003eIndex entries for linear recurrences with constant coefficients\u003c/a\u003e, signature (4,-3)"
			],
			"formula": [
				"a(n) = 3*a(n-1)+2 for n \u003e 0; a(0) = 3.",
				"G.f.: (3-x)/((1-x)*(1-3*x)).",
				"a(n) = A036543(n) + 2. - _Philippe Deléham_, Apr 13 2013"
			],
			"mathematica": [
				"NestList[3#+2\u0026,3,30]  (* _Harvey P. Dale_, Feb 25 2011 *)"
			],
			"program": [
				"(PARI) {m=25; v=concat([3], vector(m-1)); for(n=2, m, v[n]=3*v[n-1]+2); v}"
			],
			"xref": [
				"Cf. A010703, A171497, A171499."
			],
			"keyword": "nonn,easy",
			"offset": "0,1",
			"author": "_Klaus Brockhaus_, Dec 10 2009",
			"references": 12,
			"revision": 12,
			"time": "2015-06-13T00:53:26-04:00",
			"created": "2010-06-01T03:00:00-04:00"
		}
	]
}