{
	"greeting": "Greetings from The On-Line Encyclopedia of Integer Sequences! http://oeis.org/",
	"query": "id:A171627",
	"count": 1,
	"start": 0,
	"results": [
		{
			"number": 171627,
			"data": "4,3,3,3,2,2,2,2,2,2,2,2,2,2,2,2,2,2,2,2,2,2,2,2,2,2,2,2,2,2,2,2,2,2,2,2,2,2,2,2,2,2,2,2,2,2,2,2,2,2",
			"name": "Ceiling(n-th composite/n).",
			"comment": [
				"Ceiling(A002808(n)/A000027(n)). Numerators of (A002808(n)/A000027(n)) in A171527(n), denominators of (A002808(n)/A000027(n)) in A171528(n)."
			],
			"formula": [
				"a(n) = A171623(n) + 1 for n \u003e= 8."
			],
			"mathematica": [
				"Module[{nn=80,prpi,comps},prpi=PrimePi[nn];comps=Complement[Rest[ Range[nn+prpi+1]],Prime[Range[prpi]]];Ceiling[Last[#]/First[#]]\u0026/@ Thread[{Range[nn],comps}]] (* _Harvey P. Dale_, Jun 03 2012 *)"
			],
			"keyword": "nonn",
			"offset": "1,1",
			"author": "_Jaroslav Krizek_, Dec 13 2009",
			"references": 0,
			"revision": 4,
			"time": "2012-06-03T14:31:20-04:00",
			"created": "2010-06-01T03:00:00-04:00"
		}
	]
}