{
	"greeting": "Greetings from The On-Line Encyclopedia of Integer Sequences! http://oeis.org/",
	"query": "id:A171076",
	"count": 1,
	"start": 0,
	"results": [
		{
			"number": 171076,
			"data": "2,20,188,1222,6872,35954,180070",
			"name": "Total number of balls in room in variant of the tennis ball problem (cf. A171074);",
			"comment": [
				"Apparently equals A051133(n) - A090288(n-1) after 1st term.",
				"Note that A051133 yields the totals of all C(2n, n) ball sets and A005893 and A090288 are the respective totals of impossible combinations given the rules."
			],
			"reference": [
				"David Scambler, Just for fun, more tennis balls, Posting to the Sequence Fans Mailing List, Aug 25 2010."
			],
			"keyword": "nonn",
			"offset": "1,1",
			"author": "_N. J. A. Sloane_, Sep 06 2010",
			"references": 1,
			"revision": 2,
			"time": "2012-03-30T16:51:55-04:00",
			"created": "2010-09-12T03:00:00-04:00"
		}
	]
}