{
	"greeting": "Greetings from The On-Line Encyclopedia of Integer Sequences! http://oeis.org/",
	"query": "id:A171097",
	"count": 1,
	"start": 0,
	"results": [
		{
			"number": 171097,
			"data": "5,7,8,9,11,12,14,17,18,21,23,24,25,29,34,37,42,46,51,52,55,56,61,67,68,70,77,86,89,90,103,104,106,122,127,128,130,133,137,142,154,157,170,171,172,178,209,211,212,241,242,243,244,245,247,248,251,252,257,259,260",
			"name": "Solutions to the equation M(n) = -2 (M = Mertens's function A002321).",
			"link": [
				"Seiichi Manyama, \u003ca href=\"/A171097/b171097.txt\"\u003eTable of n, a(n) for n = 1..10000\u003c/a\u003e",
				"Eric Weisstein's World of Mathematics, \u003ca href=\"http://mathworld.wolfram.com/MertensFunction.html\"\u003eMertens Function\u003c/a\u003e"
			],
			"xref": [
				"Cf. A002321."
			],
			"keyword": "nonn",
			"offset": "1,1",
			"author": "Neven Juric (neven.juric(AT)apis-it.hr), Sep 10 2010",
			"ext": [
				"More terms from _Seiichi Manyama_, Jan 03 2019"
			],
			"references": 2,
			"revision": 11,
			"time": "2019-01-03T03:11:31-05:00",
			"created": "2010-10-02T03:00:00-04:00"
		}
	]
}