{
	"greeting": "Greetings from The On-Line Encyclopedia of Integer Sequences! http://oeis.org/",
	"query": "id:A171047",
	"count": 1,
	"start": 0,
	"results": [
		{
			"number": 171047,
			"data": "2,3,5,7,11,13,17,19,23,29,31,37,41,43,47,53,59,81,87,71,73,79,63,69,97,101,103,107,109,113,127,131,137,139,149,151,157,183,187,173,179,161,191,193,197,199,211,223,227,229,233,239,241,251,257,283",
			"name": "In the sequence of prime numbers, replace all the '8' digits with '6' and vice versa.",
			"link": [
				"Vincenzo Librandi, \u003ca href=\"/A171047/b171047.txt\"\u003eTable of n, a(n) for n = 1..1000\u003c/a\u003e"
			],
			"mathematica": [
				"FromDigits[IntegerDigits[#]/.{8-\u003ep,6-\u003eq}/.{p-\u003e6,q-\u003e8}]\u0026/@ Prime[ Range[ 70]] (* _Harvey P. Dale_, Jul 20 2011 *)"
			],
			"program": [
				"(PARI) a(n)=my(v=[0,1,2,3,4,5,8,7,6,9]);subst(Pol(apply(k-\u003ev[k+1], digits(prime(n)))),'x,10) \\\\ _Charles R Greathouse IV_, Jul 31 2013"
			],
			"keyword": "nonn,base,easy",
			"offset": "1,1",
			"author": "_N. J. A. Sloane_ and _Vincenzo Librandi_, Sep 04 2010.",
			"references": 3,
			"revision": 12,
			"time": "2017-03-31T00:51:33-04:00",
			"created": "2010-09-12T03:00:00-04:00"
		}
	]
}