{
	"greeting": "Greetings from The On-Line Encyclopedia of Integer Sequences! http://oeis.org/",
	"query": "id:A171298",
	"count": 1,
	"start": 0,
	"results": [
		{
			"number": 171298,
			"data": "24,576,13796,329748,7902520,189191462,4527423333,108407732334",
			"name": "Number of 1..24 integer arrays v[1..n] of length n with all autocorrelation values sum(i){v[i]*v[i-k]} distinct for k in 0..n-1",
			"comment": [
				"column 24 of A171275."
			],
			"keyword": "nonn",
			"offset": "1,1",
			"author": "_R. H. Hardin_ Dec 06 2009",
			"references": 0,
			"revision": 3,
			"time": "2012-03-31T12:35:37-04:00",
			"created": "2010-06-01T03:00:00-04:00"
		}
	]
}