{
	"greeting": "Greetings from The On-Line Encyclopedia of Integer Sequences! http://oeis.org/",
	"query": "id:A171847",
	"count": 1,
	"start": 0,
	"results": [
		{
			"number": 171847,
			"data": "0,0,0,2,7,22,68,198,563,1578,4367,11980,32648,88500,238886,642598,1723629,4612170,12316357,32832302,87390763,232305470,616812557,1636084020,4335770052,11480937084,30379110906,80332372838,212300488377",
			"name": "Total area under all peakless Motzkin paths of length n (n\u003e=0).",
			"formula": [
				"a(n) = Sum_{k\u003e=0} k*A171846(n,k).",
				"G.f.: z^2*(g^2 -1)/((1+z+z^2)(1-3z+z^2)), where g=g(z) satisfies g = 1 + zg + z^2*g(g - 1)."
			],
			"example": [
				"a(4)=7 because the areas under the paths HHHH, HUHD, UHHD and UHDH are 0, 2, 3 and 2, respectively."
			],
			"maple": [
				"g := ((1-z+z^2-sqrt(1-2*z-z^2-2*z^3+z^4))*1/2)/z^2: G := z^2*(g^2-1)/((1+z+z^2)*(1-3*z+z^2)): Gser := series(G, z = 0, 35): seq(coeff(Gser, z, n), n = 0 .. 30);"
			],
			"xref": [
				"Cf. A004148, A171846."
			],
			"keyword": "nonn",
			"offset": "0,4",
			"author": "_Emeric Deutsch_, Feb 08 2010",
			"references": 1,
			"revision": 8,
			"time": "2017-07-20T01:55:56-04:00",
			"created": "2010-06-01T03:00:00-04:00"
		}
	]
}