{
	"greeting": "Greetings from The On-Line Encyclopedia of Integer Sequences! http://oeis.org/",
	"query": "id:A171117",
	"count": 1,
	"start": 0,
	"results": [
		{
			"number": 171117,
			"data": "1,0,1,4,105,2576,122129",
			"name": "Gromov-Witten numbers (see Brugalle and Mikhalkin for precise definition).",
			"link": [
				"Erwan Brugalle and Grigory Mikhalkin, \u003ca href=\"http://arxiv.org/abs/0706.0083\"\u003eEnumeration of curves via floor diagrams\u003c/a\u003e, arXiv:0706.0083."
			],
			"keyword": "nonn",
			"offset": "1,4",
			"author": "_N. J. A. Sloane_, Sep 27 2010",
			"references": 0,
			"revision": 4,
			"time": "2013-12-19T14:30:08-05:00",
			"created": "2010-10-02T03:00:00-04:00"
		}
	]
}