{
	"greeting": "Greetings from The On-Line Encyclopedia of Integer Sequences! http://oeis.org/",
	"query": "id:A171664",
	"count": 1,
	"start": 0,
	"results": [
		{
			"number": 171664,
			"data": "4,6,9,14,18,21,27,57,69,77,141,155,161,194,261,381,428,551,579,620,626,671,672,704,720,755,1007,1349,1506,1529,1611,1659,1707,1710,1814,1982,1986,1994,2036,2037,2157,2429,2651,2714,2771,2783,2966,3039,3044,3101",
			"name": "Numbers k such that (Product_{d|k} d) - k - 1 and (Product_{d|k} d) + k + 1 are primes.",
			"example": [
				"Divisors of 6: 1,2,3,6. As 6*3*2*1 = 36, 36 - 6 - 1 = 29 is prime, and 36 + 6 + 1 = 43 is prime, 6 is a term."
			],
			"mathematica": [
				"f[n_]:=PrimeQ[Times@@Divisors[n]-n-1]\u0026\u0026PrimeQ[Times@@Divisors[n]+n+1]; lst={};Do[If[f[n],AppendTo[lst,n]],{n,7!}];lst",
				"Select[Range[3200],AllTrue[Times@@Divisors[#]+{(#+1),(-#-1)},PrimeQ]\u0026] (* _Harvey P. Dale_, Aug 30 2021 *)"
			],
			"xref": [
				"Cf. A118369."
			],
			"keyword": "nonn",
			"offset": "1,1",
			"author": "_Vladimir Joseph Stephan Orlovsky_, Dec 14 2009",
			"references": 0,
			"revision": 10,
			"time": "2021-08-30T12:15:28-04:00",
			"created": "2010-06-01T03:00:00-04:00"
		}
	]
}