{
	"greeting": "Greetings from The On-Line Encyclopedia of Integer Sequences! http://oeis.org/",
	"query": "id:A172270",
	"count": 1,
	"start": 0,
	"results": [
		{
			"number": 172270,
			"data": "0,1,2,3,4,5,6,7,8,9,10,11,12,14,15,16,17,18,19,20,21,22,23,24,25,27,28,29,30,31,32,33,34,35,36,37,38,39,41,42,43,44,45,46,47,48,49,50,51,52,54,55,56,57,58,59,60,61,62,63,64,65,66,68,69,70,71,72,73,74,75,76,77",
			"name": "a(n) = floor(n*(sqrt(11)-sqrt(5))).",
			"link": [
				"Vincenzo Librandi, \u003ca href=\"/A172270/b172270.txt\"\u003eTable of n, a(n) for n = 0..1000\u003c/a\u003e"
			],
			"mathematica": [
				"With[{c=Sqrt[11]-Sqrt[5]},Floor[c*Range[0,80]]] (* _Harvey P. Dale_, Apr 24 2013 *)"
			],
			"program": [
				"(MAGMA) [Floor(n*(Sqrt(11)-Sqrt(5))): n in [0..80]]; // _Vincenzo Librandi_, Aug 01 2013",
				"(PARI) a(n) = floor(n*(sqrt(11)-sqrt(5))) \\\\ _Charles R Greathouse IV_, Jul 01 2016"
			],
			"xref": [
				"Cf. A172264, A172266-A172269, A172272-A172278."
			],
			"keyword": "nonn,easy",
			"offset": "0,3",
			"author": "_Vincenzo Librandi_, Jan 30 2010",
			"ext": [
				"Checked by _Michael B. Porter_, Jun 16 2010"
			],
			"references": 13,
			"revision": 12,
			"time": "2016-07-01T21:13:05-04:00",
			"created": "2010-06-01T03:00:00-04:00"
		}
	]
}