{
	"greeting": "Greetings from The On-Line Encyclopedia of Integer Sequences! http://oeis.org/",
	"query": "id:A172149",
	"count": 1,
	"start": 0,
	"results": [
		{
			"number": 172149,
			"data": "2,16,384,23808,3486720",
			"name": "Number of chirotopes resulting from realizable uniform oriented matroids of rank 3 over a ground set of n elements.",
			"comment": [
				"The above numbers were obtained from random sprinkling of points into S^2."
			],
			"reference": [
				"J. Brunnemann and D. Rideout, \"Oriented matroids—combinatorial structures underlying loop quantum gravity\", Class.Quant.Grav. 27, 205008 (2010).",
				"J. Brunnemann and D. Rideout, \"Properties of the Volume Operator in Loop Quantum Gravity II: Detailed Presentation\", Class.Quant.Grav. 25 065002 (2008)."
			],
			"xref": [
				"A172144"
			],
			"keyword": "nonn,more",
			"offset": "3,1",
			"author": "Johannes Brunnemann (jbrunnem(AT)math.upb.de) and _David Rideout_, Nov 19 2010",
			"references": 0,
			"revision": 7,
			"time": "2013-10-07T11:40:16-04:00",
			"created": "2010-11-12T14:21:58-05:00"
		}
	]
}