{
	"greeting": "Greetings from The On-Line Encyclopedia of Integer Sequences! http://oeis.org/",
	"query": "id:A172468",
	"count": 1,
	"start": 0,
	"results": [
		{
			"number": 172468,
			"data": "50,59,111,120,181,242,251,303,312,373,434,495,504,556,565,626,687,696,748,757,818,879,940,949,1001,1010,1071,1132,1141,1193,1202,1254,1263,1324,1385,1394,1446,1455,1516,1577,1638,1647,1699,1708,1769,1830,1839",
			"name": "Numbers such that A166986(n)/2-A167389(n) = 1.",
			"comment": [
				"It is conjectured that the successive differences of this sequence, A172470, are limited to three numbers: 9, 52 and 61 where it is noted that 61-52 = 9, (52+2)/9 = 6, (61+2)/9 = 7 and we have lcm(9,52,61) = 28548 = 13^4 - 13 and 6+7=13"
			],
			"link": [
				"Stephen Crowley, \u003ca href=\"http://vixra.org/abs/1203.0004\"\u003eA Mysterious Three Term Integer Sequence Related to a Lambert W Function Solution to a Certain Transcendental Equation\u003c/a\u003e"
			],
			"maple": [
				"[ListTools[SearchAll](1, [seq(round(evalf(floor((n+2)/ln(2))-2-(argument(exp(-(ln(2)+LambertW(n, -ln(sqrt(2))))/ln(2)))*ln(2)+Im(LambertW(n,-ln(sqrt(2)))))/(2*Pi*ln(2)))), n = 1 .. 10000)])]"
			],
			"xref": [
				"Cf. A166986, A167389."
			],
			"keyword": "hard,nonn",
			"offset": "1,1",
			"author": "_Stephen Crowley_, Feb 03 2010",
			"references": 1,
			"revision": 17,
			"time": "2012-03-30T17:30:05-04:00",
			"created": "2010-06-01T03:00:00-04:00"
		}
	]
}