{
	"greeting": "Greetings from The On-Line Encyclopedia of Integer Sequences! http://oeis.org/",
	"query": "id:A172342",
	"count": 1,
	"start": 0,
	"results": [
		{
			"number": 172342,
			"data": "1,1,1,1,5,1,1,26,26,1,1,135,702,135,1,1,701,18927,18927,701,1,1,3640,510328,2649780,510328,3640,1,1,18901,13759928,370988828,370988828,13759928,18901,1,1,98145,371007729,51941082060,269708877956",
			"name": "Triangle t(n,k) read by rows: fibonomial ratios c(n)/(c(k)*c(n-k)) where c are partial products of a generalized Fibonacci sequence with multiplier m=5.",
			"comment": [
				"Start from the generalized Fibonacci sequence A052918 and its partial products c(n) = 1, 1, 5, 130, 17550, 12302550, 44781282000,... Then t(n,k) = c(n)/(c(k)*c(n-k)).",
				"Row sums are 1, 2, 7, 54, 974, 39258, 3677718, 769535316, 374333253826, 406720191959532,..."
			],
			"example": [
				"1;",
				"1, 1;",
				"1, 5, 1;",
				"1, 26, 26, 1;",
				"1, 135, 702, 135, 1;",
				"1, 701, 18927, 18927, 701, 1;",
				"1, 3640, 510328, 2649780, 510328, 3640, 1;",
				"1, 18901, 13759928, 370988828, 370988828, 13759928, 18901, 1;",
				"1, 98145, 371007729, 51941082060, 269708877956, 51941082060, 371007729, 98145, 1;"
			],
			"mathematica": [
				"Clear[f, c, a, t];",
				"f[0, a_] := 0; f[1, a_] := 1;",
				"f[n_, a_] := f[n, a] = a*f[n - 1, a] + f[n - 2, a];",
				"c[n_, a_] := If[n == 0, 1, Product[f[i, a], {i, 1, n}]];",
				"t[n_, m_, a_] := c[n, a]/(c[m, a]*c[n - m, a]);",
				"Table[Table[Table[t[n, m, a], {m, 0, n}], {n, 0, 10}], {a, 1, 10}];",
				"Table[Flatten[Table[Table[t[n, m, a], {m, 0, n}], {n, 0, 10}]], {a, 1, 10}]"
			],
			"xref": [
				"Cf. A010048 (m=1), A099927 (m=2), A172339 (m=3), A172343 (m=6)."
			],
			"keyword": "nonn,tabl,easy",
			"offset": "0,5",
			"author": "_Roger L. Bagula_, Feb 01 2010",
			"references": 2,
			"revision": 5,
			"time": "2012-07-05T11:38:05-04:00",
			"created": "2010-06-01T03:00:00-04:00"
		}
	]
}