{
	"greeting": "Greetings from The On-Line Encyclopedia of Integer Sequences! http://oeis.org/",
	"query": "id:A172859",
	"count": 1,
	"start": 0,
	"results": [
		{
			"number": 172859,
			"data": "0,3,432,571189,3422583180,74885351406570,5074214421358248075,936518400276375286684035,424497177203869984956631226568,433946937800667955296084195110940225",
			"name": "Number of n X n 0..5 arrays with row sums 8 and column sums 8",
			"link": [
				"R. H. Hardin, \u003ca href=\"/A172859/b172859.txt\"\u003eTable of n, a(n) for n=1..17\u003c/a\u003e"
			],
			"keyword": "nonn",
			"offset": "1,2",
			"author": "_R. H. Hardin_ Feb 06 2010",
			"references": 1,
			"revision": 4,
			"time": "2012-03-31T12:35:41-04:00",
			"created": "2010-06-01T03:00:00-04:00"
		}
	]
}