{
	"greeting": "Greetings from The On-Line Encyclopedia of Integer Sequences! http://oeis.org/",
	"query": "id:A172462",
	"count": 1,
	"start": 0,
	"results": [
		{
			"number": 172462,
			"data": "59,60,61,72,93,102,103,108,109,123,144,149,150,151,161,162,163,171,207,213,236,237,257,258,264,265,266,267,268,276,291,312,313,318,333,334,348,357,389,390,391,396,401,402,408,417,422,423,424,434,435,436,446",
			"name": "Numbers k such that 2k-3, 2k-1, 2k+1 and 2k+3 are composite.",
			"comment": [
				"Almost all numbers are in this sequence, by the Prime Number Theorem."
			],
			"example": [
				"a(1)=59 because 2*59-1=117, 2*59+1=119, 2*59-3=115 and 2*59+3=121 are all composite."
			],
			"maple": [
				"a := proc (n): if isprime(2*n-3) = false and isprime(2*n-1) = false and isprime(2*n+1) = false and isprime(2*n+3) = false then n else end if end proc: seq(a(n), n = 1 .. 500); # _Emeric Deutsch_, Feb 15 2010"
			],
			"xref": [
				"Cf. A104278."
			],
			"keyword": "nonn,easy,less",
			"offset": "1,1",
			"author": "_Juri-Stepan Gerasimov_, Feb 03 2010",
			"ext": [
				"Corrected and extended by _Emeric Deutsch_, Feb 15 2010",
				"Comment from _Charles R Greathouse IV_, Mar 25 2010"
			],
			"references": 0,
			"revision": 6,
			"time": "2019-01-21T23:17:08-05:00",
			"created": "2010-06-01T03:00:00-04:00"
		}
	]
}