{
	"greeting": "Greetings from The On-Line Encyclopedia of Integer Sequences! http://oeis.org/",
	"query": "id:A172372",
	"count": 1,
	"start": 0,
	"results": [
		{
			"number": 172372,
			"data": "3,6,2,6,16,18,22,28,15,3,5,21,46,13,58,60,33,35,8,13,41,44,96,4,34,53,108,112,42,130,8,46,148,75,78,81,166,43,178,180,95,192,98,99,30,222,113,228,232,7,30,50,256,262,268,5,69,28,141,146,153,155,312,79,110",
			"name": "Least number k such that the n-th prime not dividing 10 (A004139(n)) divides the repunit (10^k-1)/9.",
			"comment": [
				"If p is a odd prime different from 5, then p divides an infinite number of terms of the sequence of repunits {1, 11, 111, 1111, ... }. The proof is elementary: let p be such a prime. If p = 3, then 3 divides (10^3-1)/9 = 111. Otherwise, take k = (10^p - 1)/9; by the Fermat theorem, 10^(p-1) == 1 (mod p), so p divides (10^(p-1)-1); since p is relatively prime to 9, it divides k. Trivially, if p divides any k digit repunit, it divides the k*m digit repunit as well.",
				"Essentially the same as A002371. - _T. D. Noe_, Apr 11 2012"
			],
			"reference": [
				"David Wells, The Factors of the Repunits 11 through R_40, The Penguin Dictionary of Curious and Interesting Numbers, p. 219 Penguin 1986.",
				"D. Wells, The Penguin Dictionary of Curious and Interesting Numbers, Penguin Books 1997.",
				"David Wells, Curious and Interesting Numbers (Revised), Penguin Books, page 114."
			],
			"link": [
				"Project Euler, \u003ca href=\"https://projecteuler.net/problem=129\"\u003eProblem 129: Repunit divisibility\u003c/a\u003e",
				"S. S. Wagstaff, Jr., \u003ca href=\"http://homes.cerias.purdue.edu/~ssw/cun/index.html\"\u003eThe Cunningham Project\u003c/a\u003e",
				"Eric Weisstein's World of Mathematics, \u003ca href=\"http://mathworld.wolfram.com/Repunit.html\"\u003eRepunit\u003c/a\u003e."
			],
			"example": [
				"3 divides 111, but not 1 or 11, so a(1) = 3.",
				"7 divides 111111 but not 1, 11, 111, 1111, or 11111, so a(2) = 6."
			],
			"program": [
				"(PARI) a(n) = {k=1; p = if(n\u003e1, prime(n+2), 3); while((10^k-1)/9 % p, k++); k;} \\\\ _Michel Marcus_, May 25 2014"
			],
			"xref": [
				"Cf. A002275 (repunits), A002371 (period of decimal expansion of 1/prime(n)), A004139 (odd primes excluding 5), A095250 (11111111... (n times) mod n)."
			],
			"keyword": "nonn",
			"offset": "1,1",
			"author": "_Michel Lagneau_, Feb 01 2010",
			"ext": [
				"Corrected and edited by _Michel Lagneau_, Apr 25 2010",
				"Term 6 between terms 44 and 96 doesn't belong to the sequence. The same for term 43 between terms 43 and 178. Corrected and edited by _Krzysztof Wojtas_, May 25 2014"
			],
			"references": 0,
			"revision": 34,
			"time": "2020-02-21T20:29:51-05:00",
			"created": "2010-06-01T03:00:00-04:00"
		}
	]
}