{
	"greeting": "Greetings from The On-Line Encyclopedia of Integer Sequences! http://oeis.org/",
	"query": "id:A172193",
	"count": 1,
	"start": 0,
	"results": [
		{
			"number": 172193,
			"data": "1,37,83,139,205,281,367,463,569,685,811,947,1093,1249,1415,1591,1777,1973,2179,2395,2621,2857,3103,3359,3625,3901,4187,4483,4789,5105,5431,5767,6113,6469,6835,7211,7597,7993,8399,8815,9241,9677,10123,10579",
			"name": "5*n^2+31*n+1.",
			"link": [
				"Vincenzo Librandi, \u003ca href=\"/A172193/b172193.txt\"\u003eTable of n, a(n) for n = 0..1000\u003c/a\u003e",
				"\u003ca href=\"/index/Rec#order_03\"\u003eIndex entries for linear recurrences with constant coefficients\u003c/a\u003e, signature (3,-3,1)."
			],
			"formula": [
				"G.f.: (1+34*x-25*x^2)/(1-x)^3.",
				"a(n) = 3*a(n-1)-3*a(n-2)+a(n-3). - _Vincenzo Librandi_, Apr 07 2013"
			],
			"mathematica": [
				"CoefficientList[Series[(1 + 34 x - 25 x^2)/(1-x)^3, {x, 0, 60}], x] (* _Vincenzo Librandi_, Apr 07 2013 *)"
			],
			"program": [
				"(MAGMA) [ 5*n^2+31*n+1: n in [0..50] ];",
				"(PARI) a(n)=5*n^2+31*n+1 \\\\ _Charles R Greathouse IV_, Jun 17 2017"
			],
			"xref": [
				"Cf. A172043 (5*n^2-n+1)."
			],
			"keyword": "nonn,easy",
			"offset": "0,2",
			"author": "_Vincenzo Librandi_, Jan 29 2010",
			"ext": [
				"Replaced definition with formula. - _N. J. A. Sloane_, Mar 03 2010"
			],
			"references": 1,
			"revision": 17,
			"time": "2017-06-17T03:24:51-04:00",
			"created": "2010-06-01T03:00:00-04:00"
		}
	]
}