{
	"greeting": "Greetings from The On-Line Encyclopedia of Integer Sequences! http://oeis.org/",
	"query": "id:A172321",
	"count": 1,
	"start": 0,
	"results": [
		{
			"number": 172321,
			"data": "5,7,10,13,14,18,19,26,31,38,39,43,50,55,61,62,69,72,73,78,84,86,91,95,96,98,103,108,109,110,115,119,122,123,129,133,136,138,139,145,146,151,153,159,181,182,187,190,193,199,205",
			"name": "Duplicate of A154689.",
			"comment": [
				"Numbers n such that d(n)=d(n-d(n))."
			],
			"mathematica": [
				"sndQ[n_]:=Module[{dn=DivisorSigma[0,n]},dn==DivisorSigma[0,n-dn]]; Select[ Range[250],sndQ] (* _Harvey P. Dale_, Mar 05 2014 *)"
			],
			"program": [
				"(PARI) for(n=3,1000,if(numdiv(n)==numdiv(n-numdiv(n)),print1(n,\", \")))"
			],
			"keyword": "nonn,dead",
			"offset": "1,1",
			"author": "_Juri-Stepan Gerasimov_, Nov 20 2010",
			"references": 0,
			"revision": 29,
			"time": "2016-10-09T05:47:48-04:00",
			"created": "2010-11-12T14:22:02-05:00"
		}
	]
}