{
	"greeting": "Greetings from The On-Line Encyclopedia of Integer Sequences! http://oeis.org/",
	"query": "id:A172744",
	"count": 1,
	"start": 0,
	"results": [
		{
			"number": 172744,
			"data": "1,3139,19546975,79089365395,455886376926451,3065961180872817781,22406966527952120859529,176369571737525105395211155,1469748355306450464225368161315,12810903082325592313645532408260249",
			"name": "Number of n X 9 0..3 arrays with row sums 9 and column sums n",
			"link": [
				"R. H. Hardin, \u003ca href=\"/A172744/b172744.txt\"\u003eTable of n, a(n) for n=1..26\u003c/a\u003e"
			],
			"keyword": "nonn",
			"offset": "1,2",
			"author": "_R. H. Hardin_ Feb 06 2010",
			"references": 1,
			"revision": 4,
			"time": "2012-03-31T12:35:41-04:00",
			"created": "2010-06-01T03:00:00-04:00"
		}
	]
}