{
	"greeting": "Greetings from The On-Line Encyclopedia of Integer Sequences! http://oeis.org/",
	"query": "id:A172565",
	"count": 1,
	"start": 0,
	"results": [
		{
			"number": 172565,
			"data": "0,0,0,0,0,0,1,369398958888960000,2343976695927269878444049332219968000,27470008383944006158001488120005460494368265540960000000,960689698603154580472955204587017348140176811923434228399447157783872000000",
			"name": "Number of 3*n X n 0..1 arrays with row sums 7 and column sums 21",
			"link": [
				"R. H. Hardin, \u003ca href=\"/A172565/b172565.txt\"\u003eTable of n, a(n) for n=1..12\u003c/a\u003e"
			],
			"keyword": "nonn",
			"offset": "1,8",
			"author": "_R. H. Hardin_ Feb 06 2010",
			"references": 1,
			"revision": 4,
			"time": "2012-03-31T12:35:40-04:00",
			"created": "2010-06-01T03:00:00-04:00"
		}
	]
}