{
	"greeting": "Greetings from The On-Line Encyclopedia of Integer Sequences! http://oeis.org/",
	"query": "id:A172411",
	"count": 1,
	"start": 0,
	"results": [
		{
			"number": 172411,
			"data": "1,2,5,10",
			"name": "Numbers n such that 2^n+9 and 2^n+27 are prime.",
			"comment": [
				"No further terms between 10 and 5000. - _R. J. Mathar_, Feb 07 2010",
				"No further terms to 100000. Expected number of remaining terms: (zeta(2) - 1 - 1/4 - ... - 1/100000^2)/log^2 2 ~= 0.00002. - _Charles R Greathouse IV_, Mar 25 2010"
			],
			"formula": [
				"A057196 INTERSECT A157007 - _R. J. Mathar_, Feb 07 2010"
			],
			"example": [
				"a(1)=1 because 2^1+3^2=11 and 2^1+3^3=29 are prime."
			],
			"mathematica": [
				"Select[Range[10],AllTrue[2^#+{9,27},PrimeQ]\u0026] (* The program uses the AllTrue function from Mathematica version 10 *) (* _Harvey P. Dale_, May 28 2016 *)"
			],
			"program": [
				"(PARI) is(n)=isprime(2^n+9) \u0026\u0026 isprime(2^n+27) \\\\ _Charles R Greathouse IV_, Sep 06 2016"
			],
			"keyword": "nonn,less",
			"offset": "1,2",
			"author": "_Juri-Stepan Gerasimov_, Feb 02 2010",
			"references": 0,
			"revision": 10,
			"time": "2016-09-06T03:04:11-04:00",
			"created": "2010-06-01T03:00:00-04:00"
		}
	]
}