{
	"greeting": "Greetings from The On-Line Encyclopedia of Integer Sequences! http://oeis.org/",
	"query": "id:A172448",
	"count": 1,
	"start": 0,
	"results": [
		{
			"number": 172448,
			"data": "1,2,8,33,344,1054,1764,2474,3184,3894,4604,5314,6024,6734,7444,8154,8864,9574,10284,10994,11704,12414,13124,13834,14544,15254,15964,16674,17384,18094,18804,19514,20224,20934,21644,22354,23064,23774,24484",
			"name": "a(1) = 1, and for each n \u003e=2, a(n) is the smallest number such that 1/cos(a(n)) \u003c 1/cos(k) for all k \u003c n, so that 1/cos(a(1)) \u003e 1/cos(a(2)) \u003e ... \u003e 1/cos(a(n)) \u003e ...",
			"reference": [
				"J.-M. De Koninck, Ces nombres qui nous fascinent, Entry 83, p. 29, Ellipses, Paris 2008. Also Entry 137, p. 47."
			],
			"link": [
				"Amiram Eldar, \u003ca href=\"/A172448/b172448.txt\"\u003eTable of n, a(n) for n = 1..89\u003c/a\u003e",
				"Eric Weisstein's World of Mathematics, \u003ca href=\"http://mathworld.wolfram.com/Pi.html\"\u003ePi\u003c/a\u003e."
			],
			"example": [
				"1/cos(1) = 1.8508157...,  1/cos(2) = -2.402997962...,  1/cos(8) = -6.8728506..."
			],
			"maple": [
				"a:= evalf(1/ cos(1)); for n from 2 to 10000000 do; if a \u003e evalf(1/cos(n)) then a:= evalf(1/cos(n)); print(n); else fi ; od;"
			],
			"mathematica": [
				"am = 2; s = {}; Do[a = 1/Cos[n]; If[a \u003c am, am = a; AppendTo[s, n]], {n, 1, 10^4}]; s (* _Amiram Eldar_, Aug 16 2019 *)"
			],
			"xref": [
				"Cf. A172446."
			],
			"keyword": "nonn",
			"offset": "1,2",
			"author": "_Michel Lagneau_, Feb 03 2010",
			"references": 2,
			"revision": 16,
			"time": "2019-08-16T22:52:34-04:00",
			"created": "2010-06-01T03:00:00-04:00"
		}
	]
}