{
	"greeting": "Greetings from The On-Line Encyclopedia of Integer Sequences! http://oeis.org/",
	"query": "id:A172807",
	"count": 1,
	"start": 0,
	"results": [
		{
			"number": 172807,
			"data": "0,0,0,2008,514790020,753889607031060,4778708254823045056395,116674060299842227684197102400,9827935578168069077212412672403655680,2590181620730810991347647340464728300573016800",
			"name": "Number of n X n 0..4 arrays with row sums 13 and column sums 13",
			"link": [
				"R. H. Hardin, \u003ca href=\"/A172807/b172807.txt\"\u003eTable of n, a(n) for n=1..11\u003c/a\u003e"
			],
			"keyword": "nonn",
			"offset": "1,4",
			"author": "_R. H. Hardin_ Feb 06 2010",
			"references": 1,
			"revision": 4,
			"time": "2012-03-31T12:35:41-04:00",
			"created": "2010-06-01T03:00:00-04:00"
		}
	]
}