{
	"greeting": "Greetings from The On-Line Encyclopedia of Integer Sequences! http://oeis.org/",
	"query": "id:A172222",
	"count": 1,
	"start": 0,
	"results": [
		{
			"number": 172222,
			"data": "1,70,406,1168,2948,6576,13122,23808,40168,63996,97344,142516,202072,278828,375856,496484,644296,823132,1037088,1290516,1588024,1934476,2334992,2794948,3319976",
			"name": "Number of ways to place 4 nonattacking zebras on a 4 X n board.",
			"comment": [
				"Zebra is a (fairy chess) leaper [2,3]."
			],
			"link": [
				"Vincenzo Librandi, \u003ca href=\"/A172222/b172222.txt\"\u003eTable of n, a(n) for n = 1..1000\u003c/a\u003e",
				"V. Kotesovec, \u003ca href=\"https://oeis.org/wiki/User:Vaclav_Kotesovec\"\u003eNumber of ways of placing non-attacking queens and kings on boards of various sizes\u003c/a\u003e",
				"Eric Weisstein's World of Mathematics, \u003ca href=\"http://mathworld.wolfram.com/ZebraGraph.html.html\"\u003eZebra Graph\u003c/a\u003e",
				"Wikipedia, \u003ca href=\"https://en.wikipedia.org/wiki/Zebra_(chess)\"\u003eZebra (chess)\u003c/a\u003e"
			],
			"formula": [
				"a(n) = 4*(8*n^4 - 48*n^3 + 202*n^2 - 471*n + 507)/3, n\u003e=9.",
				"G.f.: -x * (4*x^12 -6*x^11 -2*x^10 -52*x^9 +160*x^8 -88*x^7 +2*x^6 -195*x^5 +473*x^4 -172*x^3 +66*x^2 +65*x +1) / (x-1)^5. - _Vaclav Kotesovec_, Mar 25 2010"
			],
			"mathematica": [
				"CoefficientList[Series[-(4 x^12 - 6 x^11 - 2 x^10 - 52 x^9 + 160 x^8 - 88 x^7 + 2 x^6 - 195 x^5 + 473 x^4 - 172 x^3 + 66 x^2 + 65 x + 1) / (x - 1)^5, {x, 0, 50}], x] (* _Vincenzo Librandi_, May 28 2013 *)"
			],
			"xref": [
				"Cf. A172139, A061990, A172221."
			],
			"keyword": "nonn,easy",
			"offset": "1,2",
			"author": "_Vaclav Kotesovec_, Jan 29 2010",
			"references": 3,
			"revision": 17,
			"time": "2018-02-20T14:20:39-05:00",
			"created": "2010-06-01T03:00:00-04:00"
		}
	]
}