{
	"greeting": "Greetings from The On-Line Encyclopedia of Integer Sequences! http://oeis.org/",
	"query": "id:A172821",
	"count": 1,
	"start": 0,
	"results": [
		{
			"number": 172821,
			"data": "1,51,3391,261331,21107931,1825913781,165824491281,15611242525971,1511084106275011,149563116897254161,15076390343931567861,1543079518763428325461,159985421854875339469501",
			"name": "Number of n X 5 0..4 arrays with row sums 5 and column sums n",
			"link": [
				"R. H. Hardin, \u003ca href=\"/A172821/b172821.txt\"\u003eTable of n, a(n) for n=1..95\u003c/a\u003e"
			],
			"keyword": "nonn",
			"offset": "1,2",
			"author": "_R. H. Hardin_ Feb 06 2010",
			"references": 1,
			"revision": 4,
			"time": "2012-03-31T12:35:41-04:00",
			"created": "2010-06-01T03:00:00-04:00"
		}
	]
}