{
	"greeting": "Greetings from The On-Line Encyclopedia of Integer Sequences! http://oeis.org/",
	"query": "id:A173649",
	"count": 1,
	"start": 0,
	"results": [
		{
			"number": 173649,
			"data": "3,31,31830988618379067153776752674502872406891",
			"name": "Primes found in decimal expansion of 1/Pi.",
			"comment": [
				"Primes found in A049541.",
				"The next prime a(4) = 31830988618….32476310351 has 1153 digits."
			],
			"example": [
				"1/Pi = 0.3183098861837906715377675... so a(1)=3 ; a(2)=31."
			],
			"maple": [
				"Digits := 100; n0 := evalf(1/Pi); for i from 1 to 500 do x := trunc(10^i*n0): if isprime(x) then printf(`%d, `, x): fi: od:"
			],
			"xref": [
				"Cf. A000796, A049541."
			],
			"keyword": "nonn,base,bref",
			"offset": "1,1",
			"author": "_Michel Lagneau_, Nov 24 2010",
			"references": 0,
			"revision": 13,
			"time": "2013-11-03T08:05:16-05:00",
			"created": "2010-11-12T14:22:39-05:00"
		}
	]
}