{
	"greeting": "Greetings from The On-Line Encyclopedia of Integer Sequences! http://oeis.org/",
	"query": "id:A173944",
	"count": 1,
	"start": 0,
	"results": [
		{
			"number": 173944,
			"data": "1,3,4,6,16,18,20,28,30,36,40,42,44,56,60,63,66,84,88,92,126,132,138,162,184,188,236,240,270,272,276,282,304,332,354,376,408,428,450,472,496,498,500,504,564,567,592,594,642,656",
			"name": "Numbers n such that bigomega(lambda(n)) = lambda(bigomega(n)), where bigomega is the number of prime divisors of n (counted with multiplicity) and lambda is the Carmichael function.",
			"link": [
				"Amiram Eldar, \u003ca href=\"/A173944/b173944.txt\"\u003eTable of n, a(n) for n = 1..10000\u003c/a\u003e"
			],
			"formula": [
				"A001222(A002322(n))=A002322(A001222(n))."
			],
			"example": [
				"236 is in the sequence because bigomega(lambda(236)) = bigomega(58) = 2 ,",
				"  lambda(bigomega(236)) = lambda(3) = 2."
			],
			"maple": [
				"with(numtheory): for n from 1 to 700 do:if bigomega(lambda(n))=lambda(bigomega(n))then",
				"  printf(`%d, `,n):else fi:od:"
			],
			"mathematica": [
				"aQ[n_] := PrimeOmega[CarmichaelLambda[n]] == CarmichaelLambda[PrimeOmega[n]]; Select[Range[700], aQ] (* _Amiram Eldar_, Aug 30 2019*)"
			],
			"xref": [
				"Cf. A001222 A002322."
			],
			"keyword": "nonn",
			"offset": "1,2",
			"author": "_Michel Lagneau_, Nov 26 2010",
			"references": 1,
			"revision": 11,
			"time": "2019-08-30T04:18:16-04:00",
			"created": "2010-11-12T14:23:13-05:00"
		}
	]
}