{
	"greeting": "Greetings from The On-Line Encyclopedia of Integer Sequences! http://oeis.org/",
	"query": "id:A173510",
	"count": 1,
	"start": 0,
	"results": [
		{
			"number": 173510,
			"data": "2,1,3,3,5,6,8,10,13,17,22,28,36,46,59,76,97,125,160,205,263,337,432,553,709,908,1163,1490,1908,2444,3130,4009,5135,6577,8424,10789,13819,17699,22669,29034,37186,47627,61000,78127,100064,128159,164144,210231,269260,344861,441691",
			"name": "a(n) = a(n-1) + a(n-2) - floor( a(n-1)/2 ).",
			"comment": [
				"The limiting ratio a(n+1)/a(n)is:1.2807764064"
			],
			"mathematica": [
				"l[0] = 2; l[1] = 1;",
				"l[n_] := l[n] = l[n - 1] + l[n - 2] - Floor[l[n - 1]/2]",
				"Table[l[n], {n, 0, 30}]",
				"RecurrenceTable[{a[0]==2,a[1]==1,a[n]==a[n-1]+a[n-2]-Floor[a[n-1]/2]},a,{n,50}] (* _Harvey P. Dale_, Sep 03 2013 *)"
			],
			"program": [
				"(Maxima) A173510[n] := block(",
				"        if equal(n,0) then return(2) ,",
				"        if equal(n,1) then return(1)",
				"        else",
				"        return(ev(A173510[n-1]+A173510[n-2]-floor(A173510[n-1]/2)))",
				")$ /* R. J. Mathar, Mar 11 2012 */"
			],
			"xref": [
				"Cf. A000032."
			],
			"keyword": "nonn",
			"offset": "0,1",
			"author": "_Roger L. Bagula_, Nov 23 2010",
			"references": 2,
			"revision": 11,
			"time": "2014-03-12T16:37:13-04:00",
			"created": "2010-11-12T14:22:28-05:00"
		}
	]
}