{
	"greeting": "Greetings from The On-Line Encyclopedia of Integer Sequences! http://oeis.org/",
	"query": "id:A173908",
	"count": 1,
	"start": 0,
	"results": [
		{
			"number": 173908,
			"data": "1,-1,1,0,0,0,1,-1,2,-2,3,-2,3,-2,4,-3,6,-5,9,-7,12,-9,16,-12,22,-17,31,-24,43,-33,59,-45,81,-63,113,-88,156,-121,215,-168,298,-233,412,-323,570,-448,788,-621,1090,-861,1507,-1193,2084,-1654,2882,-2293",
			"name": "Expansion of 1/(1 + x - x^3 - x^4 - x^8 - x^12 - x^13 - x^17 - x^21 - x^22 - x^26 - x^30 - x^31 + x^33 + x^34).",
			"comment": [
				"This polynomial is what I call a bi-Salem polynomial because it has two roots bigger than 1 (one positive and one negative)."
			],
			"link": [
				"G. C. Greubel, \u003ca href=\"/A173908/b173908.txt\"\u003eTable of n, a(n) for n = 0..1000\u003c/a\u003e",
				"\u003ca href=\"/index/Rec#order_34\"\u003eIndex entries for linear recurrences with constant coefficients\u003c/a\u003e, signature (1,0,1,1,0,0,0,1,0,0,0,1,1,0,0,0,1,0,0,0,1,1,0,0,0,1,0,0,0,1,1,0,-1,-1)."
			],
			"formula": [
				"a(n) = a(n-1) + (n-3) + a(n-4) + a(n-8) + a(n-12) + a(n-13) + a(n-17) + a(n-21) + a(n-22) + a(n-26) + a(n-30) + a(n-31) - a(n-33) - a(n-34). - _Franck Maminirina Ramaharo_, Nov 02 2018"
			],
			"maple": [
				"seq(coeff(series(1/(1+x-x^3-x^4-x^8-x^12-x^13-x^17-x^21-x^22-x^26-x^30-x^31+ x^33+x^34), x, n+1), x, n), n = 0..60); # _G. C. Greubel_, Dec 15 2019"
			],
			"mathematica": [
				"CoefficientList[Series[1/(1+x-x^3-x^4-x^8-x^12-x^13-x^17-x^21-x^22-x^26-x^30 - x^31+x^33+x^34), {x, 0, 60}], x]"
			],
			"program": [
				"(PARI) x='x+O('x^60); Vec(1/(1+x-x^3-x^4-x^8-x^12-x^13-x^17-x^21-x^22-x^26 - x^30-x^31+x^33+x^34)) \\\\ _G. C. Greubel_, Nov 03 2018",
				"(MAGMA) m:=60; R\u003cx\u003e:=PowerSeriesRing(Integers(), m); Coefficients(R!(1/(1+x-x^3 -x^4-x^8-x^12-x^13-x^17-x^21-x^22-x^26-x^30-x^31+x^33+x^34))); // _G. C. Greubel_, Nov 03 2018",
				"(Sage)",
				"def A173908_list(prec):",
				"    P.\u003cx\u003e = PowerSeriesRing(ZZ, prec)",
				"    return P( 1/(1+x-x^3-x^4-x^8-x^12-x^13-x^17-x^21-x^22-x^26-x^30 - x^31+x^33+x^34) ).list()",
				"A173908_list(30) # _G. C. Greubel_, Dec 15 2019"
			],
			"xref": [
				"Cf. A029826, A117791, A143419, A143438, A143472, A143619, A143644, A147663, A173908, A173911, A173924, A173925, A174522, A175740, A175772, A175773, A175782, A181600, A204631, A225391, A225393, A225394, A225482, A225499."
			],
			"keyword": "sign,easy",
			"offset": "0,9",
			"author": "_Roger L. Bagula_, Nov 26 2010",
			"references": 23,
			"revision": 22,
			"time": "2019-12-15T21:57:32-05:00",
			"created": "2010-11-12T14:23:10-05:00"
		}
	]
}