{
	"greeting": "Greetings from The On-Line Encyclopedia of Integer Sequences! http://oeis.org/",
	"query": "id:A173489",
	"count": 1,
	"start": 0,
	"results": [
		{
			"number": 173489,
			"data": "1,2,4,10,32,133,706,4542,33770,284519,2694100,28292286,324935676,4052477864,54679031852,793359552994,12294933375782,202713354823112,3547535843321377,65667058958304601,1280634899889213903",
			"name": "Partial sums of A000140.",
			"formula": [
				"a(n) = Sum_{i=1..n} A000140(i).",
				"a(n) ~ 6 * n^(n-1) / exp(n). - _Vaclav Kotesovec_, Oct 27 2016"
			],
			"mathematica": [
				"f[n_] := Max@ CoefficientList[ Expand@ Product[ Sum[x^i, {i, 0, j}], {j, n - 1}], x]; Accumulate@ Array[f, 21]"
			],
			"xref": [
				"Cf. A000140."
			],
			"keyword": "easy,nonn",
			"offset": "1,2",
			"author": "_Jonathan Vos Post_, Feb 19 2010",
			"ext": [
				"a(15) corrected by _Georg Fischer_, Aug 28 2020"
			],
			"references": 0,
			"revision": 13,
			"time": "2020-08-28T06:16:49-04:00",
			"created": "2010-06-01T03:00:00-04:00"
		}
	]
}