{
	"greeting": "Greetings from The On-Line Encyclopedia of Integer Sequences! http://oeis.org/",
	"query": "id:A173914",
	"count": 1,
	"start": 0,
	"results": [
		{
			"number": 173914,
			"data": "5,911,999138804001546121",
			"name": "Primes of the form R(n!-1), where R is the digit reversal.",
			"comment": [
				"The next term is too large to include.",
				"Values of n are 3, 5, 19, 254, 266, ... [_Charles R Greathouse IV_, Feb 15 2011]"
			],
			"example": [
				"n=5 -\u003e 5!-1 = 120-1=119 -\u003e R(119)=911 that is prime"
			],
			"maple": [
				"P:=proc(i) local a,b,k,n,v; v:=array(1..10000); for n from 1 by 1 to i do a:=1; k:=n!-1; while k\u003e0 do v[a]:=k-(trunc(k/10)*10); k:=trunc(k/10); a:=a+1; od; k:=0; for b from a-1 by -1 to 1 do k:=k+v[b]*10^(a-1-b); od; if isprime(k) then print(k); fi; od; end: P(2000);"
			],
			"xref": [
				"Cf. A173913, A173915, A173916."
			],
			"keyword": "nonn,bref,base",
			"offset": "1,1",
			"author": "_Paolo P. Lava_ and _Giorgio Balzarotti_, Mar 02 2010",
			"references": 2,
			"revision": 10,
			"time": "2013-05-13T01:49:14-04:00",
			"created": "2010-06-01T03:00:00-04:00"
		}
	]
}