{
	"greeting": "Greetings from The On-Line Encyclopedia of Integer Sequences! http://oeis.org/",
	"query": "id:A173194",
	"count": 1,
	"start": 0,
	"results": [
		{
			"number": 173194,
			"data": "0,0,9408,384199200,54471499791360,20405558846592060000,16793517249722147195701440,26730228454204365035835498694848,75019085697452515216001640927169855488,346154755746154620929434271983392498083891520",
			"name": "a(n) = -sin^2 (2*n*arccos n) = - sin^2 (2*n*arcsin n).",
			"link": [
				"Seiichi Manyama, \u003ca href=\"/A173194/b173194.txt\"\u003eTable of n, a(n) for n = 0..107\u003c/a\u003e",
				"Wikipedia, \u003ca href=\"https://en.wikipedia.org/wiki/Chebyshev_polynomials\"\u003eChebyshev polynomials\u003c/a\u003e."
			],
			"formula": [
				"4*a(n) = ( (n+sqrt(n^2-1))^(2*n) - (n-sqrt(n^2-1))^(2*n) )^2. - _Artur Jasinski_, Feb 17 2010",
				"From _Seiichi Manyama_, Jan 05 2019: (Start)",
				"a(n) = (n^2-1) * n^2 * (Sum_{k=0..n-1} binomial(2*n,2*k+1)*(n^2-1)^(n-1-k)*n^(2*k))^2.",
				"For n \u003e 0, a(n) = (n^2-1) * U_{2*n-1}(n)^2 where U_{n}(x) is a Chebyshev polynomial of the second kind. (End)",
				"a(n) ~ 2^(4*n - 2) * n^(4*n). - _Vaclav Kotesovec_, Jan 05 2019"
			],
			"maple": [
				"A173194 := proc(n) ((n+sqrt(n^2-1))^(2*n)-(n-sqrt(n^2-1))^(2*n))^2 ; expand(%/4) ; simplify(%) ; end proc: # _R. J. Mathar_, Feb 26 2011"
			],
			"mathematica": [
				"Round[Table[ -N[Sin[2 n ArcSin[n]], 100]^2, {n, 0, 15}]] (* _Artur Jasinski_ *)",
				"Table[FullSimplify[(-1/2 (x - Sqrt[ -1 + x^2])^(2 x) + 1/2 (x + Sqrt[ -1 + x^2])^(2 x))^2], {x, 0, 7}] (* _Artur Jasinski_, Feb 17 2010 *)",
				"Table[(n^2-1)*ChebyshevU[2*n-1, n]^2, {n, 0, 20}] (* _Vaclav Kotesovec_, Jan 05 2019 *)"
			],
			"program": [
				"(PARI) {a(n) = (n^2-1)*n^2*(sum(k=0, n-1, binomial(2*n, 2*k+1)*(n^2-1)^(n-1-k)*n^(2*k)))^2} \\\\ _Seiichi Manyama_, Jan 05 2019",
				"(PARI) {a(n) = (n^2-1)*polchebyshev(2*n-1, 2, n)^2} \\\\ _Seiichi Manyama_, Jan 05 2019"
			],
			"xref": [
				"Cf. A132592, A146311, A146312, A146313, A173115, A173116 A173121, A173127, A173128, A173129, A173130, A173131, A173133, A173134, A173148, A173151, A173170, A173171, A173174, A173175, A173176."
			],
			"keyword": "nonn",
			"offset": "0,3",
			"author": "_Artur Jasinski_, Feb 12 2010",
			"ext": [
				"a(9) from _Seiichi Manyama_, Jan 05 2019"
			],
			"references": 2,
			"revision": 35,
			"time": "2019-01-05T13:21:45-05:00",
			"created": "2010-06-01T03:00:00-04:00"
		}
	]
}