{
	"greeting": "Greetings from The On-Line Encyclopedia of Integer Sequences! http://oeis.org/",
	"query": "id:A173180",
	"count": 1,
	"start": 0,
	"results": [
		{
			"number": 173180,
			"data": "4,6,8,14,18,20,24,26,28,32,40,42,50,58,62,68,72,100,104,120,122,140,150,174,184,192,210,234,240,260,266,278,288,300,306,326,346,366,404,432,444,460,464,466,470,484,488,512,516,526,538,556,562,564,570,584",
			"name": "Numbers k such that k^5-k^4-k^3-k^2-k-1 is prime.",
			"comment": [
				"All terms are even. - _Robert Israel_, Apr 11 2019"
			],
			"link": [
				"Robert Israel, \u003ca href=\"/A173180/b173180.txt\"\u003eTable of n, a(n) for n = 1..10000\u003c/a\u003e"
			],
			"formula": [
				"{k: A125083(k) in A000040}. [_R. J. Mathar_, Feb 13 2010]"
			],
			"maple": [
				"filter:= k -\u003e isprime( k^5-k^4-k^3-k^2-k-1):",
				"select(filter, 2*[$1..500]); # _Robert Israel_, Apr 11 2019"
			],
			"mathematica": [
				"f[n_]:=n^5-n^4-n^3-n^2-n-1;Select[Range[7! ],PrimeQ[f[ #1]]\u0026]"
			],
			"xref": [
				"Cf. A002328, A008864, A162294, A173179"
			],
			"keyword": "nonn",
			"offset": "1,1",
			"author": "_Vladimir Joseph Stephan Orlovsky_, Feb 11 2010",
			"references": 1,
			"revision": 7,
			"time": "2019-04-11T20:57:51-04:00",
			"created": "2010-06-01T03:00:00-04:00"
		}
	]
}