{
	"greeting": "Greetings from The On-Line Encyclopedia of Integer Sequences! http://oeis.org/",
	"query": "id:A174915",
	"count": 1,
	"start": 0,
	"results": [
		{
			"number": 174915,
			"data": "3,5,11,41,59,101,179,191,269,311,431,521,599,821,881,1019,1061,1151,1229,1301,1451,1481,1619,1721,1949,2081,2111,2141,2729,2999,3299,3821,4001,4091,4259,4421,4799,4931,5009,5519,5639,5849,6131,6359,6689,6701",
			"name": "Numbers p such that p, q=p+2 and p+2*q are all primes.",
			"comment": [
				"Subsequence of A175914."
			],
			"link": [
				"Zak Seidov, \u003ca href=\"/A174915/b174915.txt\"\u003eTable of n, a(n) for n = 1..1000\u003c/a\u003e"
			],
			"mathematica": [
				"lst={};Do[p1=Prime[n];p2=p1+2;If[PrimeQ[p2]\u0026\u0026PrimeQ[p1+2*p2],AppendTo[lst,p1]],{n,7!}];lst",
				"Reap[Do[p = Prime[m]; If[PrimeQ[p + 2 ] \u0026\u0026 PrimeQ[3 p + 4], Sow[p]], {m, 10^3}]][[2, 1]](* _Zak Seidov_, Oct 14 2012 *)",
				"Transpose[Select[Partition[Prime[Range[1000]],2,1],#[[2]]-#[[1]]==2 \u0026\u0026 PrimeQ[ #[[1]]+2#[[2]]]\u0026]][[1]] (* _Harvey P. Dale_, Jan 28 2015 *)"
			],
			"program": [
				"(PARI) forprime(p=2,7000,q=p+2;if(isprime(q)\u0026\u0026 isprime(p+2*q),print1(p,\", \")))",
				"(MAGMA) [p: p in PrimesUpTo(7000) | IsPrime(p+2) and IsPrime(3*p+4)]; // _Vincenzo Librandi_, Jan 29 2015"
			],
			"xref": [
				"Cf. A001359, A174913, A175914."
			],
			"keyword": "nonn",
			"offset": "1,1",
			"author": "_Vladimir Joseph Stephan Orlovsky_, Apr 02 2010",
			"ext": [
				"Definition and comment corrected by _Zak Seidov_, Dec 06 2010"
			],
			"references": 8,
			"revision": 18,
			"time": "2015-01-29T09:20:49-05:00",
			"created": "2010-06-01T03:00:00-04:00"
		}
	]
}