{
	"greeting": "Greetings from The On-Line Encyclopedia of Integer Sequences! http://oeis.org/",
	"query": "id:A174178",
	"count": 1,
	"start": 0,
	"results": [
		{
			"number": 174178,
			"data": "0,1,4,24,43,94,193,204,379,405,675,3811,10239,26809",
			"name": "Numbers n such that 10^n+2*n+1 is prime.",
			"comment": [
				"a(15) \u003e 10^5. - _Robert Price_, Mar 13 2015"
			],
			"mathematica": [
				"Select[Range[0,5000], PrimeQ[(10^# + 2*# + 1)] \u0026] (* _Vincenzo Librandi_, Oct 05 2012 *)"
			],
			"program": [
				"(MAGMA) [n: n in [0..400] | IsPrime(10^n+2*n+1)];",
				"(PARI) is(n)=ispseudoprime(10^n+2*n+1) \\\\ _Charles R Greathouse IV_, Jun 06 2017"
			],
			"xref": [
				"Cf. A173840 (associated primes)."
			],
			"keyword": "nonn,hard,more",
			"offset": "1,3",
			"author": "_Vincenzo Librandi_, Mar 11 2010",
			"ext": [
				"a(10)-a(12) from _Vincenzo Librandi_, Oct 05 2012",
				"Prepended a(1)=0 and added a(13)-a(14) by _Robert Price_, Mar 13 2015"
			],
			"references": 2,
			"revision": 19,
			"time": "2017-06-06T14:28:26-04:00",
			"created": "2010-06-01T03:00:00-04:00"
		}
	]
}