{
	"greeting": "Greetings from The On-Line Encyclopedia of Integer Sequences! http://oeis.org/",
	"query": "id:A174861",
	"count": 1,
	"start": 0,
	"results": [
		{
			"number": 174861,
			"data": "1,1,1,1,-5,1,1,-11,-11,1,1,-311,505,-311,1,1,1561,-1919,-1919,1561,1,1,-97919,257761,-324719,257761,-97919,1,1,3517921,-8013599,4475521,4475521,-8013599,3517921,1,1,-204382079,539844481,-608549759,545811841",
			"name": "A symmetrical triangular sequence:t(n,m)=n!*(StirlingS1[n, m] + StirlingS1[n, n - m] - (StirlingS1[n, 0] + StirlingS1[n, n]) + 1) - n! + 1",
			"comment": [
				"Row sums are:",
				"{1, 2, -3, -20, -115, -714, -5033, -40312, -362871, -3628790, -39916789,...}."
			],
			"formula": [
				"t(n,m)=n!*(StirlingS1[n, m] + StirlingS1[n, n - m] - (StirlingS1[n, 0] + StirlingS1[n, n]) + 1) - n! + 1"
			],
			"example": [
				"{1},",
				"{1, 1},",
				"{1, -5, 1},",
				"{1, -11, -11, 1},",
				"{1, -311, 505, -311, 1},",
				"{1, 1561, -1919, -1919, 1561, 1},",
				"{1, -97919, 257761, -324719, 257761, -97919, 1},",
				"{1, 3517921, -8013599, 4475521, 4475521, -8013599, 3517921, 1},",
				"{1, -204382079, 539844481, -608549759, 545811841, -608549759, 539844481, -204382079, 1},",
				"{1, 14617895041, -39568072319, 41218450561, -16270087679, -16270087679, 41218450561, -39568072319, 14617895041, 1},",
				"{1, -1316985868799, 3728392416001, -4289789548799, 2855691417601, -1954656748799, 2855691417601, -4289789548799, 3728392416001, -1316985868799, 1}"
			],
			"mathematica": [
				"t[n_, m_] = n!*(StirlingS1[n, m] + StirlingS1[n, n - m] - (StirlingS1[ n, 0] + StirlingS1[n, n]) + 1) - n! + 1;",
				"Table[Table[t[n, m], {m, 0, n}], {n, 0, 10}];",
				"Flatten[%]"
			],
			"keyword": "sign,tabl,uned",
			"offset": "0,5",
			"author": "_Roger L. Bagula_, Mar 31 2010",
			"references": 0,
			"revision": 2,
			"time": "2012-03-30T17:34:39-04:00",
			"created": "2010-06-01T03:00:00-04:00"
		}
	]
}