{
	"greeting": "Greetings from The On-Line Encyclopedia of Integer Sequences! http://oeis.org/",
	"query": "id:A174304",
	"count": 1,
	"start": 0,
	"results": [
		{
			"number": 174304,
			"data": "0,15,-19684,4294967295,298023223876953124,10314424798490535546171949055,-256923577521058878088611477224235621321608",
			"name": "Values of the family of polynomials y=x^n-1 at point x = discriminant of y",
			"reference": [
				"Mohammad K. Azarian, On the Hyperfactorial Function, Hypertriangular Function, and the Discriminants of Certain Polynomials, International Journal of Pure and Applied Mathematics, Vol. 36, No. 2, 2007, pp. 251-257.  Mathematical Reviews, MR2312537.  Zentralblatt MATH, Zbl 1133.11012."
			],
			"mathematica": [
				"Clear[x]; s = {}; Do[d = Discriminant[x^n - 1, x]; AppendTo[s, d^n - 1], {n, 1, 10}]; s (*Artur Jasinski*)"
			],
			"xref": [
				"A174304-A174313"
			],
			"keyword": "sign",
			"offset": "1,2",
			"author": "_Artur Jasinski_, Mar 15 2010",
			"references": 8,
			"revision": 5,
			"time": "2013-06-25T11:20:06-04:00",
			"created": "2010-06-01T03:00:00-04:00"
		}
	]
}