{
	"greeting": "Greetings from The On-Line Encyclopedia of Integer Sequences! http://oeis.org/",
	"query": "id:A174214",
	"count": 1,
	"start": 0,
	"results": [
		{
			"number": 174214,
			"data": "14,16,17,18,19,20,26,28,29,30,31,32,33,34,35,36,37,38,39,52,53,54,55,60,62,64,65,66,67,68,69,70,71,72,73,74,75,76,77,78,79,80,81,82,83,84,85,86,87,88,89,90,91,92,93,124,125,126,127,128,129,130,131,132,133,134",
			"name": "a(n) = a(n-1)+1, if the previous term a(n-1) and n-1-(-1)^n are coprime, else a(n)=2*n-4.",
			"link": [
				"V. Shevelev, \u003ca href=\"http://arXiv.org/abs/0912.4006\"\u003eTheorems on twin primes-dual case\u003c/a\u003e, arXiv:0912.4006 [math.GM], 2009-2014."
			],
			"maple": [
				"A174214 := proc(n) option remember ; if n = 9 then 14 ; elif gcd(procname(n-1),n-1-(-1)^n) = 1 then procname(n-1)+1 ; else 2*n-4 ; end if; end proc:",
				"seq(A174214(n),n=9..100) ; # _R. J. Mathar_, Mar 16 2010"
			],
			"mathematica": [
				"a[n_] := a[n] = Which[n==9, 14, CoprimeQ[a[n-1], n-1-(-1)^n], a[n-1]+1, True, 2n-4]; Table[a[n], {n, 9, 100}] (* _Jean-François Alcover_, Feb 02 2016 *)"
			],
			"xref": [
				"Cf. A166945, A167495."
			],
			"keyword": "nonn,easy",
			"offset": "9,1",
			"author": "_Vladimir Shevelev_, Mar 12 2010",
			"ext": [
				"a(15) corrected and sequence extended by _R. J. Mathar_, Mar 16 2010",
				"a(15) corrected and a(35)-a(74) added by _John W. Layman_, Mar 16 2010"
			],
			"references": 5,
			"revision": 10,
			"time": "2016-02-02T03:35:21-05:00",
			"created": "2010-06-01T03:00:00-04:00"
		}
	]
}