{
	"greeting": "Greetings from The On-Line Encyclopedia of Integer Sequences! http://oeis.org/",
	"query": "id:A174609",
	"count": 1,
	"start": 0,
	"results": [
		{
			"number": 174609,
			"data": "3,1,1,5,2,7,9,2,6,6,4,8,3,5,0,2,3,1,4,1,0,9,9,1,1,4,6,7,5,1,6,8,2,2,2,6,5,0,4,8,0,2,0,7,5,9,8,8,7,6,6,9,5,4,5,7,1,2,3,3,9,3,1,2,2,4,3,6,2,4,9,7,9,8,7,1,8,7,7,2,7,9,0,1,4,8,0,5,3,9,1,3,6,0,2,3,6,6,2,8,4,5,8,3,8",
			"name": "Decimal expansion 2+(1/log(Phi))*sum(k\u003e=3,log(((2^k-1)*Phi^2+2*Phi)/((2^k-1)*Phi^2-2)))=3.1152... where Phi=(1+sqrt(5))/2.",
			"link": [
				"Brigitte Vallée, \u003ca href=\"http://www.numdam.org/item?id=JTNB_2000__12_2_531_0\"\u003eDigits and continuants in Euclidean algorithms. Ergodic vs tauberian theorems\u003c/a\u003e, Journal de théorie des nombres de Bordeaux 12 (2000), 519-558."
			],
			"mathematica": [
				"digits = 105; $MaxExtraPrecision = digits + 5; NSum[ Log[ (GoldenRatio^2*(2^k - 1) + 2*GoldenRatio)/((2^k - 1)*GoldenRatio^2 - 2)], {k, 3, Infinity}, NSumTerms -\u003e digits, WorkingPrecision -\u003e digits + 5]/Log[GoldenRatio] + 2 // RealDigits[#, 10, digits]\u0026 // First (* _Jean-François Alcover_, Mar 04 2013 *)"
			],
			"keyword": "cons,nonn",
			"offset": "1,1",
			"author": "_Benoit Cloitre_, Mar 23 2010",
			"references": 0,
			"revision": 13,
			"time": "2015-07-29T13:50:41-04:00",
			"created": "2010-06-01T03:00:00-04:00"
		}
	]
}