{
	"greeting": "Greetings from The On-Line Encyclopedia of Integer Sequences! http://oeis.org/",
	"query": "id:A174447",
	"count": 1,
	"start": 0,
	"results": [
		{
			"number": 174447,
			"data": "1,1,1,1,2,1,1,3,3,1,1,3,4,3,1,1,3,6,6,3,1,1,4,9,11,9,4,1,1,4,12,19,19,12,4,1,1,5,15,29,37,29,15,5,1,1,5,19,43,65,65,43,19,5,1,1,6,23,61,107,128,107,61,23,6,1,1,6,28,84,167,233,233,167,84,28,6,1",
			"name": "Triangle T(n, k, q) = ceiling(binomial(n, k)/f(n, q)) with T(0, 0) = 1, f(n, q) = 1 + tanh((n-1)/q), and q = 4, read by rows.",
			"link": [
				"G. C. Greubel, \u003ca href=\"/A174447/b174447.txt\"\u003eRows n = 0..50 of the triangle, flattened\u003c/a\u003e"
			],
			"formula": [
				"T(n, k, q) = ceiling(binomial(n, k)/f(n, q)) with T(0, 0) = 1, f(n, q) = 1 + tanh((n-1)/q), and q = 4."
			],
			"example": [
				"Triangle begins as:",
				"  1;",
				"  1, 1;",
				"  1, 2,  1;",
				"  1, 3,  3,  1;",
				"  1, 3,  4,  3,   1;",
				"  1, 3,  6,  6,   3,   1;",
				"  1, 4,  9, 11,   9,   4,   1;",
				"  1, 4, 12, 19,  19,  12,   4,  1;",
				"  1, 5, 15, 29,  37,  29,  15,  5,  1;",
				"  1, 5, 19, 43,  65,  65,  43, 19,  5, 1;",
				"  1, 6, 23, 61, 107, 128, 107, 61, 23, 6, 1;"
			],
			"mathematica": [
				"f[n_, q_]= 1 + Tanh[(n-1)/q];",
				"T[n_, k_, q_]= If[n==0, 1, Ceiling[Binomial[n, k]/f[n, q]]];",
				"Table[T[n,k,4], {n,0,12}, {k,0,n}]//Flatten"
			],
			"program": [
				"(MAGMA)",
				"T:= func\u003c n,k,q | n eq 0 select 1 else Ceiling(Binomial(n,k)/(1 + Tanh((n-1)/q))) \u003e;",
				"[T(n,k,4): k in [0..n], n in [0..12]]; // _G. C. Greubel_, Aug 05 2021",
				"(Sage)",
				"def T(n, k, q): return 1 if (n==0) else ceil(binomial(n, k)/(1 + tanh((n-1)/q)))",
				"flatten([[T(n,k,4) for k in (0..n)] for n in (0..12)]) # _G. C. Greubel_, Aug 05 2021"
			],
			"xref": [
				"Cf. A174446 (q=1), this sequence (q=4), A174448 (q=12)."
			],
			"keyword": "nonn,tabl",
			"offset": "0,5",
			"author": "_Roger L. Bagula_, Mar 20 2010",
			"ext": [
				"Edited by _G. C. Greubel_, Aug 05 2021"
			],
			"references": 3,
			"revision": 5,
			"time": "2021-08-05T15:17:23-04:00",
			"created": "2010-06-01T03:00:00-04:00"
		}
	]
}