{
	"greeting": "Greetings from The On-Line Encyclopedia of Integer Sequences! http://oeis.org/",
	"query": "id:A174853",
	"count": 1,
	"start": 0,
	"results": [
		{
			"number": 174853,
			"data": "0,7,672,64505,6191808,594349063,57051318240,5476332201977,525670840071552,50458924314667015,4843531063367961888,464928523159009674233,44628294692201560764480",
			"name": "y-values in the solution to x^2-47*y^2=1.",
			"comment": [
				"The corresponding values of x of this Pell equation are in A174755."
			],
			"link": [
				"Vincenzo Librandi, \u003ca href=\"/A174853/b174853.txt\"\u003eTable of n, a(n) for n = 1..200\u003c/a\u003e",
				"\u003ca href=\"/index/Rec\"\u003eIndex entries for linear recurrences with constant coefficients\u003c/a\u003e, signature (96,-1)."
			],
			"formula": [
				"a(n) = 96*a(n-1)-a(n-2) with a(1)=0, a(2)=7.",
				"G.f.: 7*x^2/(1-96*x+x^2)."
			],
			"mathematica": [
				"LinearRecurrence[{96,-1},{0,7},30]"
			],
			"program": [
				"(MAGMA) I:=[0, 7]; [n le 2 select I[n] else 96*Self(n-1)-Self(n-2): n in [1..20]];"
			],
			"xref": [
				"Cf. A174755."
			],
			"keyword": "nonn,easy",
			"offset": "1,2",
			"author": "_Vincenzo Librandi_, Apr 15 2010",
			"references": 2,
			"revision": 16,
			"time": "2015-06-13T00:53:30-04:00",
			"created": "2010-06-01T03:00:00-04:00"
		}
	]
}