{
	"greeting": "Greetings from The On-Line Encyclopedia of Integer Sequences! http://oeis.org/",
	"query": "id:A174444",
	"count": 1,
	"start": 0,
	"results": [
		{
			"number": 174444,
			"data": "1,1,1,1,1,1,1,1,4,4,4,4,5,1,1,1,12,12,12,12,8,8,8,8,55,28,28,28,30,1,1,1,28,28,28,28,24,24,24,24,116,124,124,124,16,16,16,16,162,252,252,252,56,56,56,56,461,60,60,60,1,1,1,1,60,60,60,60,56,56",
			"name": "Consider the cellular automaton defined by rule 22 in a finite, circular universe of width n.  Then a single live cell eventually becomes an oscillator of period a(n).",
			"link": [
				"Alois P. Heinz, \u003ca href=\"/A174444/b174444.txt\"\u003eTable of n, a(n) for n = 1..184\u003c/a\u003e"
			],
			"example": [
				"For n=9, start with a 9-cell wide grid, and assume that the edges wrap around.  In generation 0, the pattern is 000010000",
				"The progression is",
				"000010000",
				"000111000",
				"001000100",
				"011101110",
				"100000001",
				"010000010",
				"111000111",
				"000101000",
				"001101100",
				"010000010",
				"At which point the pattern becomes an oscillator of period 4.  Thus, a(9)=4."
			],
			"keyword": "nonn",
			"offset": "1,9",
			"author": "_Ben Branman_, Nov 28 2010",
			"ext": [
				"More terms from _Alois P. Heinz_, Jan 17 2011"
			],
			"references": 1,
			"revision": 14,
			"time": "2015-06-28T15:28:18-04:00",
			"created": "2010-11-12T14:23:28-05:00"
		}
	]
}