{
	"greeting": "Greetings from The On-Line Encyclopedia of Integer Sequences! http://oeis.org/",
	"query": "id:A174355",
	"count": 1,
	"start": 0,
	"results": [
		{
			"number": 174355,
			"data": "53,57,153,249,279,329,333,339,347,381,399,431,471,489,641,647,711,821,851,923,959,987,1169,1239,1313,1383,1479,1547,1563,1589,1611,1653,1677,1709,1773,1863,1887,1973,2031,2067",
			"name": "Natural numbers n such that the concatenations n//1331 and 1331//n are prime numbers.",
			"comment": [
				"See comments and references for A173836, A174213.",
				"Intersection of A173579 and A174213. - _Michel Marcus_, Aug 27 2013"
			],
			"reference": [
				"Marcus du Sautoy: Die Musik der Primzahlen. Auf den Spuren des groessten Raetsels der Mathematik, Beck, Muenchen 2004"
			],
			"link": [
				"Harvey P. Dale, \u003ca href=\"/A174355/b174355.txt\"\u003eTable of n, a(n) for n = 1..1000\u003c/a\u003e"
			],
			"example": [
				"531331 = prime(43928), 133153 = prime(12427), 53 is smallest term of sequence."
			],
			"mathematica": [
				"Select[Range[2100],AllTrue[{#*10^4+1331,1331*10^IntegerLength[#]+#},PrimeQ]\u0026] (* The program uses the AllTrue function from Mathematica version 10 *) (* _Harvey P. Dale_, Aug 21 2015 *)"
			],
			"program": [
				"(PARI) isok(n) = isprime(n*10^4 + 1331) \u0026\u0026 isprime(1331*10^(length(Str(n))) + n); \\\\ _Michel Marcus_, Aug 27 2013"
			],
			"xref": [
				"Cf. A168327, A168417, A173836, A174213, A174260."
			],
			"keyword": "base,nonn",
			"offset": "1,1",
			"author": "Eva-Maria Zschorn (e-m.zschorn(AT)zaschendorf.km3.de), Mar 17 2010",
			"references": 5,
			"revision": 9,
			"time": "2015-08-21T11:16:53-04:00",
			"created": "2010-06-01T03:00:00-04:00"
		}
	]
}