{
	"greeting": "Greetings from The On-Line Encyclopedia of Integer Sequences! http://oeis.org/",
	"query": "id:A174760",
	"count": 1,
	"start": 0,
	"results": [
		{
			"number": 174760,
			"data": "1,19603,768555217,30131975818099,1181354243155834177,46316174427035658925363,1815871933405005800671947601,71193074974760482994108718719443",
			"name": "x-values in the solution to x^2-58*y^2=1.",
			"comment": [
				"The corresponding values of y of this Pell equation are in A175016."
			],
			"link": [
				"Vincenzo Librandi, \u003ca href=\"/A174760/b174760.txt\"\u003eTable of n, a(n) for n = 1..200\u003c/a\u003e",
				"\u003ca href=\"/index/Rec\"\u003eIndex entries for linear recurrences with constant coefficients\u003c/a\u003e, signature (39206,-1)."
			],
			"formula": [
				"a(n) = 39206*a(n-1)-a(n-2) with a(1)=1, a(2)=19603.",
				"G.f.: x*(1-19603*x)/(1-39206*x+x^2)."
			],
			"mathematica": [
				"LinearRecurrence[{39206,-1},{1,19603},30]"
			],
			"program": [
				"(MAGMA) I:=[1, 19603]; [n le 2 select I[n] else 39206*Self(n-1)-Self(n-2): n in [1..20]];"
			],
			"xref": [
				"Cf. A175016."
			],
			"keyword": "nonn,easy",
			"offset": "1,2",
			"author": "_Vincenzo Librandi_, Apr 13 2010",
			"references": 2,
			"revision": 9,
			"time": "2015-06-13T00:53:30-04:00",
			"created": "2010-06-01T03:00:00-04:00"
		}
	]
}