{
	"greeting": "Greetings from The On-Line Encyclopedia of Integer Sequences! http://oeis.org/",
	"query": "id:A174656",
	"count": 1,
	"start": 0,
	"results": [
		{
			"number": 174656,
			"data": "0,0,1,0,1,0,1,1,1,1,0,2,0,1,1,1,1,0,1,0,1,0,0,1,1,0,1,1,0,2,0,2,1,2,2,1,3,0,3,1,2,2,1,2,0,2,0,1,2,0,1,2,0,1,1,1,2,1,2,1,3,1,1,3,1,2,1,2,1,1,1,0,2,1,0,2,1,0,2,0,3,1,2,3,1,4,0,4,2,3,3,1,4,0,3,1,2,2,0,2,1,1,0,1,1",
			"name": "a(n) counts strict partitions of n into powers of 3^t, 5^f and 7^s with positive exponents t, f and s.",
			"comment": [
				"The sequence is symmetric over several ranges: a(n) = a(2271-n) for n \u003e 84; a(n) = a(16545-n) for n \u003e 920; a(n) = a(68660-n) for n \u003e 9611. (Quote from _Don Reble_:  \"It's symmetric because 2271 = 3^1 + 3^2 + 3^3 + 3^4 + 3^5 + 3^6 + 5^1 + 5^2 + 5^3 + 5^4 + 7^1 + 7^2 + 7^3. That is, all powers less than 2187 (=3^7) contribute. So for any partition of n, with (2271-2187) \u003c n \u003c 2187, there's a complementary partition for 2271-n.\")"
			],
			"link": [
				"Fausto A. C. Cariboni, \u003ca href=\"/A174656/b174656.txt\"\u003eTable of n, a(n) for n = 1..10000\u003c/a\u003e"
			],
			"example": [
				"a(100)=2 since 100 = 3 + 3^2 + 3^3 + 5 + 7 + 7^2 and 100 = 3 + 3^2 + 3^4 + 7."
			],
			"mathematica": [
				"n=512;it=Rest@ CoefficientList[Series[ Product[1+x^(3^k),{k,Ceiling[Log[3,n]]}]* Product[1+x^(5^k),{k,Ceiling[Log[5,n]]}]* Product[1+x^(7^k),{k,Ceiling[Log[7,n]]}], {x,0,n}],x]"
			],
			"keyword": "nonn",
			"offset": "1,12",
			"author": "_Wouter Meeussen_, Mar 25 2010",
			"references": 2,
			"revision": 15,
			"time": "2020-12-14T19:50:26-05:00",
			"created": "2010-06-01T03:00:00-04:00"
		}
	]
}