{
	"greeting": "Greetings from The On-Line Encyclopedia of Integer Sequences! http://oeis.org/",
	"query": "id:A175862",
	"count": 1,
	"start": 0,
	"results": [
		{
			"number": 175862,
			"data": "1,2,1,2,2,1,1,0,0,2,2,1,1,0,0,2,2,2,2,1,1,1,1,0,0,1,1,2,2,1,1,0,0,1,1,1,1,0,0,2,2,2,2,1,1,1,1,1,1,1,1,1,1,0,0,1,1,2,2,1",
			"name": "a(n) = frequency of values n in A175856(m), where A175856(m): a(m) = m for m = noncomposites, a(m) = previous term - 1 for m = composites.",
			"comment": [
				"a(n) \u003e= 1 for such n that A175860(n) = 1, a(n) \u003e= 1 if A175856(m) = n for any m. a(n) = 0 for such n that A175860(n) = 0, a(n) = 0 if A175856(m) = n has no solution for any m."
			],
			"xref": [
				"Cf. A175856, A175857, A175858, A175859, A175860, A175861."
			],
			"keyword": "nonn",
			"offset": "1,2",
			"author": "_Jaroslav Krizek_, Sep 29 2010",
			"ext": [
				"Corrected by _Jaroslav Krizek_, Oct 01 2010"
			],
			"references": 6,
			"revision": 2,
			"time": "2012-03-30T19:00:24-04:00",
			"created": "2010-10-02T03:00:00-04:00"
		}
	]
}