{
	"greeting": "Greetings from The On-Line Encyclopedia of Integer Sequences! http://oeis.org/",
	"query": "id:A175801",
	"count": 1,
	"start": 0,
	"results": [
		{
			"number": 175801,
			"data": "0,0,0,0,1,1,1,1,1,1,1,1,1,1,1,1,1,1,1,1,1,1,1,1,1,0,0,0,0,0,0,2,0,0,0,2,0,2,2,2,2,2,2,2,2,2,0,0,0,0,0,0,2,2,0,2,0,2,0,2,2,2,0,0,0,0,0,0,0,0,0,0,0,2,0,2,0,0,0,0,0,0,0,0,0,0,0,0,2,0,0,0,0,2,0,0,0,0,0,0,0,0,0,0,2,0,0",
			"name": "Number of real zeros of the polynomial whose coefficients are the decimal digits of prime(n).",
			"comment": [
				"a(n) is the number of real zeros of the polynomial Sum_{k\u003e=0} d(k) x^k",
				"  where d(k) are the digits of the decimal expansion of prime(n) = Sum_{k\u003e=0} 10^k*d(k)."
			],
			"example": [
				"a(167) = 2 because prime(167) = 991 =\u003e P(167,x) = 1 + 9*x + 9*x^2 has 2 real-valued roots, -0.8726779962... and -0.1273220038..."
			],
			"maple": [
				"A175801 := proc(n) d := convert(ithprime(n),base,10) ; P := add( op(i,d)*x^(i-1),i=1..nops(d)) ; [fsolve(P,x,real)] ; nops(%) ; end proc:",
				"seq(A175801(n),n=1..45) ; # _R. J. Mathar_, Dec 06 2010"
			],
			"xref": [
				"Cf. A173667."
			],
			"keyword": "nonn,base",
			"offset": "1,32",
			"author": "_Michel Lagneau_, Dec 04 2010",
			"references": 1,
			"revision": 12,
			"time": "2019-05-12T02:23:00-04:00",
			"created": "2010-11-12T14:24:37-05:00"
		}
	]
}