{
	"greeting": "Greetings from The On-Line Encyclopedia of Integer Sequences! http://oeis.org/",
	"query": "id:A175724",
	"count": 1,
	"start": 0,
	"results": [
		{
			"number": 175724,
			"data": "0,0,0,0,1,3,6,10,15,21,29,39,51,65,81,99,120,144,171,201,234,270,310,354,402,454,510,570,635,705,780,860,945,1035,1131,1233,1341,1455,1575,1701,1834,1974,2121,2275,2436,2604,2780,2964,3156,3356",
			"name": "Partial sums of floor(n^2/12).",
			"comment": [
				"Partial sums of A008724."
			],
			"link": [
				"Vincenzo Librandi, \u003ca href=\"/A175724/b175724.txt\"\u003eTable of n, a(n) for n = 0..10000\u003c/a\u003e",
				"\u003ca href=\"/index/Rec#order_09\"\u003eIndex entries for linear recurrences with constant coefficients\u003c/a\u003e, signature (3,-3,1,0,0,1,-3,3,-1).",
				"Mircea Merca, \u003ca href=\"http://www.cs.uwaterloo.ca/journals/JIS/VOL14/Merca/merca3.html\"\u003eInequalities and Identities Involving Sums of Integer Functions\u003c/a\u003e J. Integer Sequences, Vol. 14 (2011), Article 11.9.1."
			],
			"formula": [
				"a(n) = round((2*n^3 + 3*n^2 - 18*n)/72).",
				"a(n) = a(n-6) + (n-2)*(n-3)/2, n\u003e5.",
				"a(n) = 3*a(n-1) -3*a(n-2) +a(n-3) +a(n-6) -3*a(n-7) +3*a(n-8) -a(n-9), n\u003e8.",
				"G.f.: x^4/((x+1)*(x^2+x+1)*(x^2-x+1)*(x-1)^4)."
			],
			"maple": [
				"A175724 := proc(n) add( floor(i^2/12) ,i=0..n) ; end proc:"
			],
			"mathematica": [
				"Accumulate[Floor[Range[0, 49]^2/12]]"
			],
			"program": [
				"(MAGMA) [ \u0026+[ Floor(j^2/12): j in [0..n] ]: n in [0..60] ];",
				"(PARI) vector(61, n, round((2*(n-1)^3 +3*(n-1)^2 -18*(n-1))/72) ) \\\\ _G. C. Greubel_, Dec 05 2019",
				"(Sage) [round((2*n^3 +3*n^2 -18*n)/72) for n in (0..60)] # _G. C. Greubel_, Dec 05 2019"
			],
			"xref": [
				"Cf. A008724."
			],
			"keyword": "nonn,easy",
			"offset": "0,6",
			"author": "_Mircea Merca_, Aug 18 2010",
			"references": 1,
			"revision": 41,
			"time": "2019-12-05T17:15:30-05:00",
			"created": "2010-08-27T03:00:00-04:00"
		}
	]
}