{
	"greeting": "Greetings from The On-Line Encyclopedia of Integer Sequences! http://oeis.org/",
	"query": "id:A175725",
	"count": 1,
	"start": 0,
	"results": [
		{
			"number": 175725,
			"data": "4,5,3,4,6,4,5,6,5,8,8,10,9,10,11,10,10,12,11,14,11,17,15,16,18,16,17,18,17,20,11,17,15,16,18,16,17,18,17,20,12,18,16,17,19,17,18,19,18,21,12,18,16,17,19,17,18,19,18,21,13,19,17,18,20,18,19,20,19,22,14,20,18",
			"name": "Number of characters in the Polish name of n, including spaces and hyphens.",
			"mathematica": [
				"t = {\"zero\", \"jeden\", \"dwa\", \"trzy\", \"cztery\", \"piec\", \"szesc\", \"siedem\", \"osiem\", \"dziewiec\", \"dziesiec\", \"jedenascie\", \"dwanascie\", \"trzynascie\", \"czternascie\", \"pietnascie\", \"szesnascie\", \"siedemnascie\", \"osiemnascie\", \"dziewietnascie\", \"dwadziescia\", \"dwadziescia jeden\", \"dwadziescia dwa\", \"dwadziescia trzy\", \"dwadziescia cztery\", \"dwadziescia piec\", \"dwadziescia szesc\", \"dwadziescia siedem\", \"dwadziescia osiem\", \"dwadziescia dziewiec\", \"trzydziesci\", \"trzydziesci jeden\", \"trzydziesci dwa\", \"trzydziesci trzy\", \"trzydziesci cztery\", \"trzydziesci piec\", \"trzydziesci szesc\", \"trzydziesci siedem\", \"trzydziesci osiem\",",
				"\"trzydziesci dziewiec\", \"czterdziesci\", \"czterdziesci jeden\", \"czterdziesci dwa\", \"czterdziesci trzy\", \"czterdziesci cztery\", \"czterdziesci piec\", \"czterdziesci szesc\", \"czterdziesci siedem\", \"czterdziesci osiem\", \"czterdziesci dziewiec\", \"piecdziesiat\", \"piecdziesiat jeden\", \"piecdziesiat dwa\", \"piecdziesiat trzy\", \"piecdziesiat cztery\", \"piecdziesiat piec\", \"piecdziesiat szesc\", \"piecdziesiat siedem\", \"piecdziesiat osiem\", \"piecdziesiat dziewiec\", \"szescdziesiat\", \"szescdziesiat jeden\", \"szescdziesiat dwa\", \"szescdziesiat trzy\", \"szescdziesiat cztery\", \"szescdziesiat piec\", \"szescdziesiat szesc\", \"szescdziesiat siedem\", \"szescdziesiat osiem\", \"szescdziesiat dziewiec\", \"siedemdziesiat\", \"siedemdziesiat jeden\", \"siedemdziesiat dwa\", \"siedemdziesiat trzy\", \"siedemdziesiat cztery\", \"siedemdziesiat piec\", \"siedemdziesiat szesc\", \"siedemdziesiat siedem\", \"siedemdziesiat osiem\", \"siedemdziesiat dziewiec\", \"osiemdziesiat\",",
				"\"osiemdziesiat jeden\", \"osiemdziesiat dwa\", \"osiemdziesiat trzy\", \"osiemdziesiat cztery\", \"osiemdziesiat piec\", \"osiemdziesiat szesc\", \"osiemdziesiat siedem\", \"osiemdziesiat osiem\", \"osiemdziesiat dziewiec\", \"dziewiecdziesiat\", \"dziewiecdziesiat jeden\", \"dziewiecdziesiat dwa\", \"dziewiecdziesiat trzy\", \"dziewiecdziesiat cztery\", \"dziewiecdziesiat piec\", \"dziewiecdziesiat szesc\", \"dziewiecdziesiat siedem\", \"dziewiecdziesiat osiem\", \"dziewiecdziesiat dziewiec\", \"sto\"}; Table[ StringLength[t[[n]]], {n, 1, Length[t]}] (* Artur Jasinski *)"
			],
			"xref": [
				"Cf. A005589, A052360, A008962"
			],
			"keyword": "nonn,word",
			"offset": "0,1",
			"author": "_Artur Jasinski_, Aug 18 2010",
			"ext": [
				"Values re-calculated by R. Chandler - _R. J. Mathar_, Oct 17 2010"
			],
			"references": 0,
			"revision": 7,
			"time": "2013-01-18T17:41:03-05:00",
			"created": "2010-08-27T03:00:00-04:00"
		}
	]
}