{
	"greeting": "Greetings from The On-Line Encyclopedia of Integer Sequences! http://oeis.org/",
	"query": "id:A175129",
	"count": 1,
	"start": 0,
	"results": [
		{
			"number": 175129,
			"data": "1,3,9,27,729,531441,282429536481,79766443076872509863361,6362685441135942358474828762538534230890216321",
			"name": "a(0)=1, a(1)=3; for n\u003e=2, a(n) = 3^A042950(n-2).",
			"xref": [
				"Cf. A042950, A167182, A172489, A173260."
			],
			"keyword": "nonn",
			"offset": "0,2",
			"author": "_Giovanni Teofilatto_, Feb 17 2010",
			"ext": [
				"Revised by _N. J. A. Sloane_, Jun 20 2021"
			],
			"references": 3,
			"revision": 11,
			"time": "2021-06-20T13:19:40-04:00",
			"created": "2010-06-01T03:00:00-04:00"
		}
	]
}