{
	"greeting": "Greetings from The On-Line Encyclopedia of Integer Sequences! http://oeis.org/",
	"query": "id:A175927",
	"count": 1,
	"start": 0,
	"results": [
		{
			"number": 175927,
			"data": "1,2,11,20,40,68,92,212,236,253,266,321,328,452,582",
			"name": "Duplicate of A116990.",
			"keyword": "dead",
			"offset": "1,2",
			"author": "_Zak Seidov_, Oct 19 2010",
			"references": 0,
			"revision": 17,
			"time": "2015-03-25T14:04:29-04:00",
			"created": "2010-11-10T03:00:00-05:00"
		}
	]
}