{
	"greeting": "Greetings from The On-Line Encyclopedia of Integer Sequences! http://oeis.org/",
	"query": "id:A175709",
	"count": 1,
	"start": 0,
	"results": [
		{
			"number": 175709,
			"data": "4,6,9,14,21,26,34,39,46,49,51,69,74,86,91,94,106,111,119,129,134,141,146,159,161,166,169,194,201,206,214,219,221,226,249,254,259,274,289,291,299,301,309,314,321,326,329,334,339,346,371,381,386,391",
			"name": "Products of 2 primes of the form 5*k-+2.",
			"xref": [
				"Cf. A001358, A176551."
			],
			"keyword": "nonn",
			"offset": "1,1",
			"author": "_Juri-Stepan Gerasimov_, Aug 10 2010",
			"ext": [
				"Definition corrected and 5 terms removed by _R. J. Mathar_, Aug 13 2010"
			],
			"references": 0,
			"revision": 3,
			"time": "2012-03-30T18:52:40-04:00",
			"created": "2010-08-27T03:00:00-04:00"
		}
	]
}