{
	"greeting": "Greetings from The On-Line Encyclopedia of Integer Sequences! http://oeis.org/",
	"query": "id:A175401",
	"count": 1,
	"start": 0,
	"results": [
		{
			"number": 175401,
			"data": "0,1,2,3,4,5,6,7,8,9,1,1,1,1,1,1,1,1,1,1,1,2,4,8,1,9,1,1,1,9,1,3,9,1,8,1,1,1,1,1,1,4,1,1,1,1,1,1,1,1,1",
			"name": "Sequence of resulting numbers after 4th step of iteration defined in A175398.",
			"comment": [
				"See A175398, A175399, A175400, A175402, A175403, A175405. [_Jaroslav Krizek_, May 05 2010]"
			],
			"example": [
				"For n = 29: a(29) = 9 because for the number 29 there are 4 steps of defined iteration: {2^9 = 512}, {(5^1)^2 = 25}, {2^5 = 32}, {3^2 = 9} and 4th step of iteration ending with number 9."
			],
			"keyword": "nonn",
			"offset": "0,3",
			"author": "_Jaroslav Krizek_, May 01 2010",
			"references": 6,
			"revision": 4,
			"time": "2015-03-14T11:45:13-04:00",
			"created": "2010-06-01T03:00:00-04:00"
		}
	]
}