{
	"greeting": "Greetings from The On-Line Encyclopedia of Integer Sequences! http://oeis.org/",
	"query": "id:A175544",
	"count": 1,
	"start": 0,
	"results": [
		{
			"number": 175544,
			"data": "1,3,7,15,21,31,45,63,73,93,107,127,153,189,219,255,273,313,341,381,403,443,471,511,561,633,693,765,819,891,951,1023,1057,1137,1193,1273,1317,1397,1453,1533,1571,1651,1707,1787,1831,1911,1967,2047,2145,2289,2409",
			"name": "Positive integers that, when written in binary, are palindromes with a middle run of 1's.",
			"comment": [
				"All powers of two minus one are members. - _Robert G. Wilson v_, Jun 27 2010"
			],
			"mathematica": [
				"fQ[n_] := Block[{id = IntegerDigits[n, 2]}, id == Reverse@ id \u0026\u0026 id[[ Ceiling[ Floor[ Log[2, n] + 1]/2] ]] == 1]; Select[ Range@ 2552, fQ@# \u0026] (* _Robert G. Wilson v_, Jun 27 2010 *)"
			],
			"xref": [
				"Cf. A006995, A175543."
			],
			"keyword": "base,nonn",
			"offset": "1,2",
			"author": "_Leroy Quet_, Jun 23 2010",
			"ext": [
				"a(10)-a(51) from _Robert G. Wilson v_, Jun 27 2010"
			],
			"references": 1,
			"revision": 9,
			"time": "2015-08-02T16:51:33-04:00",
			"created": "2010-07-11T03:00:00-04:00"
		}
	]
}