{
	"greeting": "Greetings from The On-Line Encyclopedia of Integer Sequences! http://oeis.org/",
	"query": "id:A175464",
	"count": 1,
	"start": 0,
	"results": [
		{
			"number": 175464,
			"data": "1111,3513,3514,9013,11109,11110,11111,11112,11113,14357,14572,20524,22635,30205,33518,35129,35130,35131,35132,35133,35134,35135,35136,35137,35138,35139,35140,35141,35142,39003,39549,40154,42616,46081",
			"name": "Numbers n with property that n^2 contains \"1234\" as a substring.",
			"comment": [
				"Corresponding squares: 1234_321, 1234_1169, 1234_8196, 8_1234_169, 1234_09881, 1234_32100, 1234_54321, 1234_76544, 1234_98769, 206_1234_49."
			],
			"mathematica": [
				"s={};Do[If[ !StringFreeQ[ToString[k^2],\"1234\"],AppendTo[s,k]],{k,0,100000}]"
			],
			"xref": [
				"Cf. A178314 Numbers n with property that n^2 contains \"123\" as a substring."
			],
			"keyword": "base,nonn",
			"offset": "1,1",
			"author": "_Zak Seidov_, May 24 2010",
			"references": 1,
			"revision": 5,
			"time": "2013-10-15T10:08:23-04:00",
			"created": "2010-06-01T03:00:00-04:00"
		}
	]
}