{
	"greeting": "Greetings from The On-Line Encyclopedia of Integer Sequences! http://oeis.org/",
	"query": "id:A175891",
	"count": 1,
	"start": 0,
	"results": [
		{
			"number": 175891,
			"data": "1,1,5,29,185,1226,8553,61642,455337,3429002,26229691,203237747,1591820564,12582288455,100241042348,804090987555,6488942266564,52644171729304,429123506792664,3512829202462126,28866426741057006,238031465396515626,1969001793889730276",
			"name": "Number of lattice paths from (0,0) to (n,n) using steps S={(k,0),(0,k)|0\u003ck\u003c=4} which never go above the line y=x.",
			"link": [
				"Alois P. Heinz, \u003ca href=\"/A175891/b175891.txt\"\u003eTable of n, a(n) for n = 0..1000\u003c/a\u003e"
			],
			"formula": [
				"a(n) ~ c * d^n / n^(3/2), where d = 8.84734830841870961487278801886633962039798... is the real root of the equation 4 + 4*d - 8*d^2 - 8*d^3 + d^4 = 0 and c = 0.31736815701423989167651891084531024477617724724822148387263881713... - _Vaclav Kotesovec_, May 30 2017"
			],
			"maple": [
				"b:= proc(x, y) option remember; `if`(y\u003ex or y\u003c0, 0,",
				"      `if`(x=0, 1, add(b(x-j, y)+b(x, y-j), j=1..4)))",
				"    end:",
				"a:= n-\u003e b(n$2):",
				"seq(a(n), n=0..35);  # _Alois P. Heinz_, May 16 2017"
			],
			"mathematica": [
				"b[x_, y_] := b[x, y] = If[y \u003e x || y \u003c 0, 0, If[x == 0, 1, Sum[b[x - j, y] + b[x, y - j], {j, 1, 4}]]];",
				"a[n_] := b[n, n];",
				"a /@ Range[0, 35] (* _Jean-François Alcover_, Nov 11 2020, after _Alois P. Heinz_ *)"
			],
			"xref": [
				"Cf. A000103, A122951, A175883, A286918."
			],
			"keyword": "nonn",
			"offset": "0,3",
			"author": "_Eric Werley_, Dec 05 2010",
			"references": 2,
			"revision": 17,
			"time": "2020-11-11T08:44:13-05:00",
			"created": "2010-11-12T14:24:49-05:00"
		}
	]
}