{
	"greeting": "Greetings from The On-Line Encyclopedia of Integer Sequences! http://oeis.org/",
	"query": "id:A175591",
	"count": 1,
	"start": 0,
	"results": [
		{
			"number": 175591,
			"data": "0,2,1,6,0,6,5,6,14,6,4,24,6,2,6,13,28,2,27,30,6,1,32,12,6,60,30,36,6,28,36,40,29,72,6,10,93,6,62,36,48,9,78,84,32,6,28,52,39,132,6,112,6,34,96,90,7,60,80,6,48,134,6,45,28,108,6,61,102,160,38,48,72,22,26,6,225,28,6",
			"name": "a(n) = (sigma(n-th Zumkeller number)/2) - (n-th Zumkeller number).",
			"link": [
				"Chai Wah Wu, \u003ca href=\"/A175591/b175591.txt\"\u003eTable of n, a(n) for n = 1..10000\u003c/a\u003e"
			],
			"formula": [
				"a(n) = A175582(n) - A083207(n)."
			],
			"program": [
				"(Python)",
				"from sympy import divisors",
				"import numpy as np",
				"A175591 = []",
				"for n in range(1,10**6):",
				"....d = divisors(n)",
				"....s = sum(d)",
				"....if not s % 2 and 2*n \u003c= s:",
				"........d.remove(n)",
				"........s2, ld = int(s/2-n), len(d)",
				"........z = np.zeros((ld+1,s2+1),dtype=int)",
				"........for i in range(1,ld+1):",
				"............y = min(d[i-1],s2+1)",
				"............z[i,range(y)] = z[i-1,range(y)]",
				"............z[i,range(y,s2+1)] = np.maximum(z[i-1,range(y,s2+1)],z[i-1,range(0,s2+1-y)]+y)",
				"............if z[i,s2] == s2:",
				"................A175591.append(s2)",
				"................break",
				"# _Chai Wah Wu_, Aug 20 2014"
			],
			"xref": [
				"Cf. A083207, A175582."
			],
			"keyword": "nonn",
			"offset": "1,2",
			"author": "Vladislav-Stepan Malakhovsky and _Juri-Stepan Gerasimov_, Jul 19 2010",
			"ext": [
				"Inserted a(45) and corrected a(73) by _Chai Wah Wu_, Aug 20 2014",
				"Name edited by _Ivan N. Ianakiev_, Jan 18 2020"
			],
			"references": 1,
			"revision": 12,
			"time": "2020-01-21T00:32:39-05:00",
			"created": "2010-07-31T03:00:00-04:00"
		}
	]
}