{
	"greeting": "Greetings from The On-Line Encyclopedia of Integer Sequences! http://oeis.org/",
	"query": "id:A175664",
	"count": 1,
	"start": 0,
	"results": [
		{
			"number": 175664,
			"data": "10,14,25,26,38,39,55,62,69,86,91,95,115,119,122,123,133,145,146,159,187,205,206,209,213,217,218,219,221,253,278,291,295,299,302,303,305,309,323,327,339,362,365,381,386,395,398,407,411,415,417,451,458,473",
			"name": "Greater of twin semiprimes.",
			"comment": [
				"Semiprimes m such that m-4 is also semiprime."
			],
			"link": [
				"Harvey P. Dale, \u003ca href=\"/A175664/b175664.txt\"\u003eTable of n, a(n) for n = 1..1000\u003c/a\u003e"
			],
			"formula": [
				"a(n) = 4 + A175648(n). - _R. J. Mathar_, Aug 07 2010"
			],
			"example": [
				"a(1)=10 because 10 (semiprime) - 4 = 6 (semiprime);",
				"a(2)=14 because 14 (semiprime) - 4 = 10 (semiprime)."
			],
			"maple": [
				"A175664 := proc(n) option remember; if n = 1 then 10; else for a from procname(n-1)+1 do if numtheory[bigomega](a) = 2 and numtheory[bigomega](a-4) = 2 then return a; end if; end do: end if; end proc: seq(A175664(n),n=1..100) ; # _R. J. Mathar_, Aug 07 2010"
			],
			"mathematica": [
				"SequencePosition[Table[If[PrimeOmega[n]==2,1,0],{n,500}],{1,_,_,_,1}][[All,2]] (* Requires Mathematica version 10 or later *) (* _Harvey P. Dale_, Dec 16 2017 *)"
			],
			"xref": [
				"Cf. A006512 (greater of twin primes), A175612 (list of twin semiprimes), A175648 (lesser of twin semiprimes)."
			],
			"keyword": "nonn",
			"offset": "1,1",
			"author": "_Juri-Stepan Gerasimov_, Aug 04 2010",
			"ext": [
				"Corrected (313 removed) by _R. J. Mathar_, Aug 07 2010"
			],
			"references": 2,
			"revision": 12,
			"time": "2019-03-08T03:30:30-05:00",
			"created": "2010-08-27T03:00:00-04:00"
		}
	]
}