{
	"greeting": "Greetings from The On-Line Encyclopedia of Integer Sequences! http://oeis.org/",
	"query": "id:A176911",
	"count": 1,
	"start": 0,
	"results": [
		{
			"number": 176911,
			"data": "399,561,651,957,1173,2919,3009,3441,3567,3657,3783,4233,4539,7347,8445,9093,9741,12747,13827,14745,14817,17913,18471,19767,21351,23727,25761,25995,26553,26697,28407,34113,34743,35697,36543,36579,38145,40161",
			"name": "Numbers that are the product of 3 distinct primes a,b and c, such that a+b+c, a^2+b^2+c^2 and a^3+b^3+c^3 are prime numbers.",
			"comment": [
				"399=3*7*19; 3+7+19=29; 3^2+7^2+19^2=419; 3^3+7^3+19^3=7229,.."
			],
			"mathematica": [
				"lst={};Do[If[l[n]=={1,1,1},a=f[n][[1]];b=f[n][[2]];c=f[n][[3]];If[PrimeQ[a+b+c]\u0026\u0026PrimeQ[a^2+b^2+c^2]\u0026\u0026PrimeQ[a^3+b^3+c^3],AppendTo[lst,n]]],{n,9!}];lst"
			],
			"xref": [
				"Cf. A006881, A014574, A176875, A176876, A176877, A176878, A176879"
			],
			"keyword": "nonn",
			"offset": "1,1",
			"author": "_Vladimir Joseph Stephan Orlovsky_, Apr 28 2010",
			"references": 0,
			"revision": 2,
			"time": "2012-03-31T12:38:36-04:00",
			"created": "2010-06-01T03:00:00-04:00"
		}
	]
}