{
	"greeting": "Greetings from The On-Line Encyclopedia of Integer Sequences! http://oeis.org/",
	"query": "id:A176147",
	"count": 1,
	"start": 0,
	"results": [
		{
			"number": 176147,
			"data": "1,4,27,16,3125,7776,823543,64,729,10000000,285311670611,248832,302875106592253,20661046784,2562890625,256,827240261886336764177,1889568,1978419655660313589123979,1280000000,16679880978201",
			"name": "a(n) = n^sopf(n), where sopf(n) is the sum of the distinct primes dividing n (A008472).",
			"link": [
				"T. D. Noe, \u003ca href=\"/A176147/b176147.txt\"\u003eTable of n, a(n) for n = 1..100\u003c/a\u003e"
			],
			"formula": [
				"a(n) = n^A008472(n)."
			],
			"example": [
				"a(1) = 1^0 = 1;",
				"a(2) = 2^2 = 4;",
				"a(3) = 3^3 = 27;",
				"a(4) = 4^2 = 16."
			],
			"mathematica": [
				"Table[n^Total[Transpose[FactorInteger[n]][[1]]], {n, 20}]"
			],
			"xref": [
				"Cf. A008472."
			],
			"keyword": "nonn",
			"offset": "1,2",
			"author": "_Michel Lagneau_, Apr 10 2010",
			"references": 1,
			"revision": 7,
			"time": "2012-07-10T12:22:43-04:00",
			"created": "2010-06-01T03:00:00-04:00"
		}
	]
}