{
	"greeting": "Greetings from The On-Line Encyclopedia of Integer Sequences! http://oeis.org/",
	"query": "id:A176960",
	"count": 1,
	"start": 0,
	"results": [
		{
			"number": 176960,
			"data": "5,7,467,4373,5987,11933,13463,13907,14747,19843,20407,22307,24677,36563,37693,40213,41603,42397,43003,44203,56747,58963,66047,66173,87407,91033,98597,98873,101183,115523,122323,124703,126107,139333",
			"name": "Primes p such that p^2 - 8, p^2 - 6 and p^2 - 2 are prime.",
			"comment": [
				"[In French: \"avorteurs de quadruplets\".]",
				"p*p is the lonely composite number in quadruplet (10k+1, 10k+3, 10k+7, 10k+9). Necessary: p^2 = 10k + 9."
			],
			"program": [
				"(MAGMA) [p: p in PrimesUpTo(1000000)| IsPrime(p^2-8) and IsPrime(p^2-6) and IsPrime (p^2-2)] // _Vincenzo Librandi_, Aug 06 2010"
			],
			"keyword": "nonn",
			"offset": "1,1",
			"author": "Alain MAROT (marot.alain(AT)orange.fr), Apr 29 2010",
			"ext": [
				"Corrected (5 inserted) and extended by _Vincenzo Librandi_, Aug 06 2010"
			],
			"references": 0,
			"revision": 7,
			"time": "2018-01-20T22:29:55-05:00",
			"created": "2010-06-01T03:00:00-04:00"
		}
	]
}