{
	"greeting": "Greetings from The On-Line Encyclopedia of Integer Sequences! http://oeis.org/",
	"query": "id:A176444",
	"count": 1,
	"start": 0,
	"results": [
		{
			"number": 176444,
			"data": "7,0,9,8,6,1,0,8,4,3,0,8,9,3,1,6,3,1,9,4,1,2,8,7,1,6,4,5,5,7,7,7,2,9,1,0,1,4,5,4,9,1,1,9,1,9,8,5,9,9,1,5,4,4,0,6,2,6,0,2,6,7,3,6,5,5,5,1,8,6,5,6,0,2,6,7,0,3,2,2,1,0,0,9,5,2,2,9,0,0,2,1,3,9,1,1,3,1,6,8,6,9,8,1,8",
			"name": "Decimal expansion of (35+sqrt(1295))/10.",
			"comment": [
				"Continued fraction expansion of (35+sqrt(1295))/10 is A010730."
			],
			"example": [
				"(35+sqrt(1295))/10 = 7.09861084308931631941..."
			],
			"xref": [
				"Cf. A176445 (decimal expansion of sqrt(1295)), A010730 (repeat 7, 10)."
			],
			"keyword": "cons,nonn",
			"offset": "1,1",
			"author": "_Klaus Brockhaus_, Apr 19 2010",
			"references": 1,
			"revision": 2,
			"time": "2012-03-30T17:28:09-04:00",
			"created": "2010-06-01T03:00:00-04:00"
		}
	]
}