{
	"greeting": "Greetings from The On-Line Encyclopedia of Integer Sequences! http://oeis.org/",
	"query": "id:A176450",
	"count": 1,
	"start": 0,
	"results": [
		{
			"number": 176450,
			"data": "1,2,4,7,14,21,54,73,187,345,768,955,4989,5620,12347,30326,84807,92518,544421,572016,2390850,3811427,6182184,6546907",
			"name": "Number of distinct cycles in the glass worms (or vers de verres) game with n glasses that are not equivalent as sets.",
			"xref": [
				"Cf. A151986, A151987, A176336."
			],
			"keyword": "more,nonn",
			"offset": "1,2",
			"author": "_Dennis Hou_, Apr 18 2010",
			"ext": [
				"a(9)-a(24) from _Joseph Myers_, Nov 13 2010"
			],
			"references": 2,
			"revision": 9,
			"time": "2014-12-19T04:46:32-05:00",
			"created": "2010-06-01T03:00:00-04:00"
		}
	]
}