{
	"greeting": "Greetings from The On-Line Encyclopedia of Integer Sequences! http://oeis.org/",
	"query": "id:A176710",
	"count": 1,
	"start": 0,
	"results": [
		{
			"number": 176710,
			"data": "1,2,12,24,144,288,1728,3456,20736,41472,248832,497664,2985984,5971968,35831808,71663616,429981696,859963392,5159780352,10319560704,61917364224",
			"name": "Mix A001021, 2*A001021.",
			"comment": [
				"Divides A091137. See A165313."
			],
			"link": [
				"\u003ca href=\"/index/Rec\"\u003eIndex entries for linear recurrences with constant coefficients\u003c/a\u003e, signature (0,12).",
				"\u003ca href=\"/index/Di#divseq\"\u003eIndex to divisibility sequences\u003c/a\u003e"
			],
			"formula": [
				"a(n)= +12*a(n-2). G.f.: ( -1-2*x ) / ( -1+12*x^2 ). [From _R. J. Mathar_, Apr 26 2010]",
				"a(n)=(1/12)*[3-1*(-1)^n]*{12^(1/2)*n*12^[(1/4)*(-1)^n]*108^(1/4)}, with n\u003e=0 [From _Paolo P. Lava_, May 21 2010]"
			],
			"keyword": "nonn,easy",
			"offset": "0,2",
			"author": "_Paul Curtz_, Apr 24 2010",
			"references": 0,
			"revision": 14,
			"time": "2016-04-30T18:26:37-04:00",
			"created": "2010-06-01T03:00:00-04:00"
		}
	]
}