{
	"greeting": "Greetings from The On-Line Encyclopedia of Integer Sequences! http://oeis.org/",
	"query": "id:A176168",
	"count": 1,
	"start": 0,
	"results": [
		{
			"number": 176168,
			"data": "1,2,5,5,13,17,17,20,29,36,37,37,37,37,41,45,45,56,56,58,58,58,62,62,62,62,77,77,81,81,88,89,89,89,89,89,89,89,89,89,106,106,107,107,109,113,120,121,125,125,125,125,128,128,128,132,132,132,132,144,145,148,148,148",
			"name": "Length of shortest series s(1..a(n))\u003e0, with s(1)=1 and |s(i+1)-s(i)|=i and no value s(i) repeated, containing all the values 1..n",
			"comment": [
				"A series of finite versions of an infinite problem suggested on the Sequence Fans Mailing List"
			],
			"link": [
				"R. H. Hardin, \u003ca href=\"/A176168/b176168.txt\"\u003eTable of n, a(n) for n=1..80\u003c/a\u003e",
				"R. H. Hardin, \u003ca href=\"/A176168/a176168.txt\"\u003eShortest series s(1..a(n)), n=1..80\u003c/a\u003e"
			],
			"example": [
				"a(5)=13 because the shortest series s() containing 1..5 is: 1 2 4 7 3 8 14 21 29 38 28 17 5"
			],
			"xref": [
				"For encoded series see A176169"
			],
			"keyword": "nonn",
			"offset": "1,2",
			"author": "_R. H. Hardin_ Apr 10 2010",
			"references": 2,
			"revision": 4,
			"time": "2012-03-31T12:35:42-04:00",
			"created": "2010-06-01T03:00:00-04:00"
		}
	]
}