{
	"greeting": "Greetings from The On-Line Encyclopedia of Integer Sequences! http://oeis.org/",
	"query": "id:A176997",
	"count": 1,
	"start": 0,
	"results": [
		{
			"number": 176997,
			"data": "1,3,5,7,11,13,17,19,23,29,31,37,41,43,47,53,59,61,67,71,73,79,83,89,97,101,103,107,109,113,127,131,137,139,149,151,157,163,167,173,179,181,191,193,197,199,211,223,227,229,233,239,241,251,257,263,269,271,277,281,283,293,307,311,313,317,331",
			"name": "Integers n such that 2^(n-1) == 1 (mod n).",
			"comment": [
				"Old definition was: Odd integers n such that 2^(n-1) == 4^(n-1) == 8^(n-1) == ... == k^(n-1) (mod n), where k = A062383(n). Dividing 2^(n-1) == 4^(n-1) (mod n) by 2^(n-1), we get 1 == 2^(n-1) (mod n), implying the current definition. - _Max Alekseyev_, Sep 22 2016",
				"The union of {1}, the odd primes, and the Fermat pseudoprimes, i.e., {1} U A065091 U A001567. Also, the union of A006005 and A001567 (conjectured by _Alois P. Heinz_, Dec 10 2010). - _Max Alekseyev_, Sep 22 2016"
			],
			"link": [
				"Seiichi Manyama, \u003ca href=\"/A176997/b176997.txt\"\u003eTable of n, a(n) for n = 1..10000\u003c/a\u003e"
			],
			"example": [
				"5 is in the sequence because 2^(5-1) == 4^(5-1) == 8^(5-1) == 1 (mod 5)."
			],
			"mathematica": [
				"m = 1; Join[Select[Range[m], Divisible[2^(# - 1) - m, #] \u0026],",
				"Select[Range[m + 1, 10^3], PowerMod[2, # - 1, #] == m \u0026]] (* _Robert Price_, Oct 12 2018 *)"
			],
			"program": [
				"(PARI) isok(n) = Mod(2, n)^(n-1) == 1; \\\\ _Michel Marcus_, Sep 23 2016"
			],
			"xref": [
				"The odd terms of A015919.",
				"Odd integers n such that 2^n == 2^k (mod n): this sequence (k=1), A173572 (k=2), A276967 (k=3), A033984 (k=4), A276968 (k=5), A215610 (k=6), A276969 (k=7), A215611 (k=8), A276970 (k=9), A215612 (k=10), A276971 (k=11), A215613 (k=12).",
				"Cf. A000079, A062173, A062175, A176817."
			],
			"keyword": "nonn",
			"offset": "1,2",
			"author": "_Juri-Stepan Gerasimov_, Dec 08 2010",
			"ext": [
				"Edited by _Max Alekseyev_, Sep 22 2016"
			],
			"references": 10,
			"revision": 22,
			"time": "2018-10-12T14:58:14-04:00",
			"created": "2010-11-12T14:25:20-05:00"
		}
	]
}