{
	"greeting": "Greetings from The On-Line Encyclopedia of Integer Sequences! http://oeis.org/",
	"query": "id:A176423",
	"count": 1,
	"start": 0,
	"results": [
		{
			"number": 176423,
			"data": "3,6,9,10,12,14,15,16,18,20,21,22,24,25,26,27,28,30,32,33,34,35,36,38,39,40,42,44,45,46,48,49,50,51,52,54,55,56,57,58,60,62,63,64,65,66,68,69,70,72,74,75,76,77,78,80,81,82,84,85,86,87,88,90,91,92,93,94,95,96,98,99,100",
			"name": "Numbers that are the sum of at least three distinct positive integers in arithmetic progression.",
			"link": [
				"Ray Chandler, \u003ca href=\"/A176423/b176423.txt\"\u003eTable of n, a(n) for n = 1..10000\u003c/a\u003e",
				"\u003ca href=\"http://apmeplorraine.fr/old/modules/probleme/PB47.pdf\"\u003eLe Petit Vert\u003c/a\u003e (French)"
			],
			"keyword": "nonn",
			"offset": "1,1",
			"author": "Christian Amet (chr.amet(AT)infonie.fr), Apr 17 2010",
			"ext": [
				"Extended by _Ray Chandler_, Mar 23 2016"
			],
			"references": 1,
			"revision": 10,
			"time": "2021-10-02T06:03:44-04:00",
			"created": "2010-06-01T03:00:00-04:00"
		}
	]
}