{
	"greeting": "Greetings from The On-Line Encyclopedia of Integer Sequences! http://oeis.org/",
	"query": "id:A176527",
	"count": 1,
	"start": 0,
	"results": [
		{
			"number": 176527,
			"data": "1,2,5,21,166,2277,49901,1675904,84239935,6231045077,668949067432,103005162942955,22511886374045653,6918461813753405930,2965189776573865320121,1759287329824925168339697,1435531006280642249195752862,1601571709194974043628781397985,2430449338115875591262479128994073",
			"name": "Partial sums of A006058.",
			"comment": [
				"Partial sums of number of connected labeled topologies with n points. The subsequence of primes in this partial sum begins: 2, 5, and then what?"
			],
			"formula": [
				"a(n) = Sum_{i=0..n} A006058(i) = Sum_{i=0..n} Sum_{k=0..i-1} C(i, k)*A000798(k) (for i\u003e=1)."
			],
			"mathematica": [
				"Cases[Import[\"https://oeis.org/A006058/b006058.txt\", \"Table\"], {_, _}][[All, 2]] // Accumulate (* _Jean-François Alcover_, Jan 01 2020 *)"
			],
			"xref": [
				"Cf. A000798, A006058."
			],
			"keyword": "nonn",
			"offset": "0,2",
			"author": "_Jonathan Vos Post_, Apr 19 2010",
			"ext": [
				"a(16)-a(18) from _Jinyuan Wang_, Feb 23 2020"
			],
			"references": 0,
			"revision": 10,
			"time": "2020-02-23T08:38:00-05:00",
			"created": "2010-06-01T03:00:00-04:00"
		}
	]
}