{
	"greeting": "Greetings from The On-Line Encyclopedia of Integer Sequences! http://oeis.org/",
	"query": "id:A176206",
	"count": 1,
	"start": 0,
	"results": [
		{
			"number": 176206,
			"data": "1,2,1,3,2,1,1,4,3,2,2,1,1,1,5,4,3,3,2,2,2,1,1,1,1,1,6,5,4,4,3,3,3,2,2,2,2,2,1,1,1,1,1,1,1,7,6,5,5,4,4,4,3,3,3,3,3,2,2,2,2,2,2,2,1,1,1,1,1,1,1,1,1,1,1,8,7,6,6,5,5,5,4,4,4,4,4,3,3,3,3,3,3,3",
			"name": "Irregular triangle T(n,k) (n \u003e= 1, k \u003e= 1) read by rows: row n has length A000070(n-1) and every column k gives the positive integers.",
			"comment": [
				"The original definition was: An irregular table: Row n begins with n, counts down to 1 and repeats the intermediate numbers as often as given by the partition numbers.",
				"Row n contains a decreasing sequence where n-k+1 is repeated A000041(k) times, k = 0..n-1.",
				"From _Omar E. Pol_, Nov 23 2020: (Start)",
				"Row n lists in nonincreasing order the first A000070(n-1) terms of A336811.",
				"In other words: row n lists in nonincreasing order the terms from the first n rows of triangle A336811.",
				"Conjecture: all divisors of all terms in row n are also all parts of all partitions of n.",
				"For more information see the example and A336811 which contains the most elementary conjecture about the correspondence divisors/partitions.",
				"Row sums give A014153.",
				"A338156 lists the divisors of every term of this sequence.",
				"The n-th row of A340581 lists in nonincreasing order the terms of the first n rows of this triangle.",
				"For a regular triangle with the same row sums see A141157. (End)",
				"From _Omar E. Pol_, Jul 31 2021: (Start)",
				"The number of k's in row n is equal to A000041(n-k), 1 \u003c= k \u003c= n.",
				"The number of terms \u003e= k in row n is equal to A000070(n-k), 1 \u003c= k \u003c= n.",
				"The number of k's in the first n rows (or in the first A014153(n-1) terms of the sequence) is equal to A000070(n-k), 1 \u003c= k \u003c= n.",
				"The number of terms \u003e= k in the first n rows (or in the first A014153(n-1) terms of the sequence) is equal to A014153(n-k), 1 \u003c= k \u003c= n. (End)"
			],
			"example": [
				"The table begins:",
				"1;",
				"2, 1;",
				"3, 2, 1, 1;",
				"4, 3, 2, 2, 1, 1, 1;",
				"5, 4, 3, 3, 2, 2, 2, 1, 1, 1, 1, 1;",
				"6, 5, 4, 4, 3, 3, 3, 2, 2, 2, 2, 2, 1, 1, 1, 1, 1, 1, 1;",
				"7, 6, 5, 5, 4, 4, 4, 3, 3, 3, 3, 3, 2, 2, 2, 2, 2, 2, 2, 1, 1, 1, ...",
				"...",
				"Extended by _Omar E. Pol_, Nov 23 2020",
				"From _Omar E. Pol_, Jan 25 2020: (Start)",
				"For n = 5, by definition the length of row 5 is A000070(5-1) = A000070(4) = 12, so the row 5 of triangle has 12 terms. Since every column lists the positive integers A000027 so the row 5 is [5, 4, 3, 3, 2, 2, 2, 1, 1, 1, 1, 1].",
				"Then we have that the divisors of the numbers of the 5th row are:",
				".",
				"5th row of triangle -----\u003e 5  4  3  3  2  2  2  1  1  1  1  1",
				"                           1  2  1  1  1  1  1",
				"                              1",
				".",
				"There are twelve 1's, four 2's, two 3's, one 4 and one 5.",
				"In total there are 12 + 4 + 2 + 1 + 1 = 20 divisors.",
				"On the other hand the partitions of 5 are as shown below:",
				".",
				".      5",
				".      3  2",
				".      4  1",
				".      2  2  1",
				".      3  1  1",
				".      2  1  1  1",
				".      1  1  1  1  1",
				".",
				"There are twelve 1's, four 2's, two 3's, one 4 and one 5, as shown also in the 5th row of triangle A066633.",
				"In total there are 12 + 4 + 2 + 1 + 1 = A006128(5) = 20 parts.",
				"Finally in accordance with the conjecture we can see that all divisors of all numbers in the 5th row of the triangle are the same positive integers as all parts of all partitions of 5. (End)"
			],
			"xref": [
				"Cf. A000027 (columns), A000070 (row lengths), A338156 (divisors), A340061 (mirror).",
				"Cf. A000041, A006128, A014153, A027750, A066633, A141157, A176207, A336811, A338156, A340581."
			],
			"keyword": "easy,nonn,tabf",
			"offset": "1,2",
			"author": "_Alford Arnold_, Apr 11 2010",
			"ext": [
				"New name, changed offset, edited and more terms from _Omar E. Pol_, Nov 22 2020"
			],
			"references": 25,
			"revision": 92,
			"time": "2021-08-01T03:47:57-04:00",
			"created": "2010-06-01T03:00:00-04:00"
		}
	]
}