{
	"greeting": "Greetings from The On-Line Encyclopedia of Integer Sequences! http://oeis.org/",
	"query": "id:A176940",
	"count": 1,
	"start": 0,
	"results": [
		{
			"number": 176940,
			"data": "2,941,500346412961",
			"name": "Primes of the form 29^k + 10^k.",
			"comment": [
				"If 29^k + 10^k is prime and k \u003e 0, then k must be of the form 2^t. Because 29^k + 10^k is divisible by 29^m + 10^m, where m = A006519(k) and k \u003e 0. Thus a(4) \u003e 29^2^16 + 10^2^16. - _Jinyuan Wang_, May 30 2020"
			],
			"program": [
				"(MAGMA) [ a: n in [0..1500] | IsPrime(a) where a is 29^n+10^n ]"
			],
			"keyword": "nonn,bref",
			"offset": "1,1",
			"author": "_Vincenzo Librandi_, Apr 29 2010",
			"references": 1,
			"revision": 6,
			"time": "2020-05-30T23:31:21-04:00",
			"created": "2010-06-01T03:00:00-04:00"
		}
	]
}