{
	"greeting": "Greetings from The On-Line Encyclopedia of Integer Sequences! http://oeis.org/",
	"query": "id:A176772",
	"count": 1,
	"start": 0,
	"results": [
		{
			"number": 176772,
			"data": "1,2197,13,4826809,28561,169,2197,28561,169,10604499373,51185893014090757,371293,13,51185893014090757,815730721,169,62748517,137858491849,2197,1461920290375446110677,2197,23298085122481",
			"name": "Smallest power of 13 whose decimal expansion contains n.",
			"comment": [
				"This is to 13 as A176763 is to 3 and as A030001 is to 2."
			],
			"formula": [
				"a(n) = MIN{A001022(i) such that n in decimal representation is a substring of A001022(i)}."
			],
			"example": [
				"a(1) = 1 because 13^0 = 1 has \"1\" as a substring (not a proper substring, though).",
				"a(2) = 2197 because 13^3 = 2197 has \"2\" as a substring.",
				"a(3) = 13 because 13^1 = 13 has \"3\" as a substring."
			],
			"xref": [
				"Cf. A001022, A030001, A176763, A176764-A176773."
			],
			"keyword": "base,easy,nonn",
			"offset": "1,2",
			"author": "_Jonathan Vos Post_, Apr 25 2010",
			"ext": [
				"More terms from _Sean A. Irvine_ and _Jon E. Schoenfield_, May 05 2010"
			],
			"references": 0,
			"revision": 4,
			"time": "2013-08-31T19:33:54-04:00",
			"created": "2010-06-01T03:00:00-04:00"
		}
	]
}