{
	"greeting": "Greetings from The On-Line Encyclopedia of Integer Sequences! http://oeis.org/",
	"query": "id:A176217",
	"count": 1,
	"start": 0,
	"results": [
		{
			"number": 176217,
			"data": "4,1,3,8,0,8,9,9,3,5,2,9,9,3,9,5,0,7,7,4,7,6,4,2,7,8,4,7,0,3,8,0,2,8,1,7,2,4,3,2,0,1,1,3,1,8,7,3,0,7,0,1,1,1,2,1,7,3,5,6,8,8,3,8,4,6,8,5,9,1,5,1,7,8,8,9,6,7,9,4,4,4,5,5,8,1,7,7,0,8,2,9,6,8,2,1,6,8,9,8,0,0,0,5,6",
			"name": "Decimal expansion of (14+4*sqrt(14))/7.",
			"comment": [
				"Continued fraction expansion of (14+4*sqrt(14))/7 is A010712."
			],
			"link": [
				"Daniel Starodubtsev, \u003ca href=\"/A176217/b176217.txt\"\u003eTable of n, a(n) for n = 1..10000\u003c/a\u003e"
			],
			"example": [
				"(14+4*sqrt(14))/7 = 4.13808993529939507747..."
			],
			"mathematica": [
				"RealDigits[(14+4Sqrt[14])/7,10,120][[1]] (* _Harvey P. Dale_, Jan 24 2015 *)"
			],
			"xref": [
				"Cf. A010471 (decimal expansion of sqrt(14)), A010712 (repeat 4, 7)."
			],
			"keyword": "cons,nonn",
			"offset": "1,1",
			"author": "_Klaus Brockhaus_, Apr 12 2010",
			"references": 2,
			"revision": 7,
			"time": "2020-02-26T12:33:44-05:00",
			"created": "2010-06-01T03:00:00-04:00"
		}
	]
}