{
	"greeting": "Greetings from The On-Line Encyclopedia of Integer Sequences! http://oeis.org/",
	"query": "id:A177660",
	"count": 1,
	"start": 0,
	"results": [
		{
			"number": 177660,
			"data": "1,70,34650,62484750,297230343314,3080473154954302,61234390521656478875",
			"name": "Number of permutations of 4 copies of 1..n avoiding adjacent step pattern up, down, down, down, up, up",
			"keyword": "nonn",
			"offset": "1,2",
			"author": "_R. H. Hardin_ May 10 2010",
			"references": 0,
			"revision": 3,
			"time": "2012-03-31T12:35:44-04:00",
			"created": "2010-06-01T03:00:00-04:00"
		}
	]
}