{
	"greeting": "Greetings from The On-Line Encyclopedia of Integer Sequences! http://oeis.org/",
	"query": "id:A177108",
	"count": 1,
	"start": 0,
	"results": [
		{
			"number": 177108,
			"data": "28,388,3988,39988,399988,3999988,39999988,399999988,3999999988,39999999988,399999999988,3999999999988,39999999999988,399999999999988,3999999999999988,39999999999999988,399999999999999988",
			"name": "a(n) = 4*(10^n-3).",
			"link": [
				"Vincenzo Librandi, \u003ca href=\"/A177108/b177108.txt\"\u003eTable of n, a(n) for n = 1..200\u003c/a\u003e",
				"\u003ca href=\"/index/Rec#order_02\"\u003eIndex entries for linear recurrences with constant coefficients\u003c/a\u003e, signature (11,-10)."
			],
			"formula": [
				"G.f.: 4*x*(7+20*x) / ( (10*x-1)*(x-1) ). a(n)=4*A173833(n). - R. J. Mathar, Jan 06 2011",
				"a(n) = a(n-1) +36*10^(n-1) = 10*a(n-1) +108 = 11*a(n-1) -10*a(n-2). - _Vincenzo Librandi_, Jul 15 2012"
			],
			"mathematica": [
				"CoefficientList[Series[4*(7+20*x)/((10*x-1)*(x-1)),{x,0,40}],x] (* _Vincenzo Librandi_, Jul 15 2012 *)",
				"4(10^Range[20]-3) (* or *) LinearRecurrence[{11,-10},{28,388},20] (* _Harvey P. Dale_, Sep 25 2012 *)"
			],
			"program": [
				"(MAGMA) [4*(10^n-3): n in [1..20]]; // _Vincenzo Librandi_, Jul 15 2012"
			],
			"keyword": "nonn,easy",
			"offset": "1,1",
			"author": "_Vincenzo Librandi_, Nov 15 2010",
			"references": 1,
			"revision": 19,
			"time": "2017-06-17T03:56:14-04:00",
			"created": "2010-11-12T14:25:39-05:00"
		}
	]
}