{
	"greeting": "Greetings from The On-Line Encyclopedia of Integer Sequences! http://oeis.org/",
	"query": "id:A177706",
	"count": 1,
	"start": 0,
	"results": [
		{
			"number": 177706,
			"data": "1,1,1,1,2,1,1,1,1,2,1,1,1,1,2,1,1,1,1,2,1,1,1,1,2,1,1,1,1,2,1,1,1,1,2,1,1,1,1,2,1,1,1,1,2,1,1,1,1,2,1,1,1,1,2,1,1,1,1,2,1,1,1,1,2,1,1,1,1,2,1,1,1,1,2,1,1,1,1,2,1,1,1,1,2,1,1,1,1,2,1,1,1,1,2,1,1,1,1,2,1,1,1,1,2",
			"name": "Period 5: repeat [1, 1, 1, 1, 2].",
			"comment": [
				"Continued fraction expansion of (5+sqrt(65))/8.",
				"Decimal expansion of 3704/33333.",
				"a(n) = A130782(n+3)."
			],
			"link": [
				"\u003ca href=\"/index/Rec#order_05\"\u003eIndex entries for linear recurrences with constant coefficients\u003c/a\u003e, signature (0,0,0,0,1)."
			],
			"formula": [
				"a(n) = a(n-5) for n \u003e 4; a(0) = 1, a(1) = 1, a(2) = 1, a(3) = 1, a(4) = 2.",
				"G.f.: (1+x+x^2+x^3+2*x^4)/(1-x^5).",
				"a(n) = 2-((n+1)^4 mod 5). - _Paolo P. Lava_, Jul 02 2010",
				"a(n+4) = A198517(n+2) + A198517(n+1) + A198517(n). - _Bruno Berselli_, Nov 02 2011",
				"a(n) = floor((n+1)*6/5) - floor((n)*6/5). - _Hailey R. Olafson_, Jul 23 2014",
				"a(n) = (2/5)*(3 + cos(4*(n-4)*Pi/5) + cos(2*(n+1)*Pi/5)). - _Wesley Ivan Hurt_, Oct 05 2018"
			],
			"maple": [
				"A177706:=n-\u003efloor(6*(n+1)/5)-floor(6*n/5): seq(A177706(n), n=0..100); # _Wesley Ivan Hurt_, Jul 24 2014"
			],
			"mathematica": [
				"Table[Floor[6 (n + 1)/5] - Floor[6 n/5], {n, 0, 100}] (* _Wesley Ivan Hurt_, Jul 24 2014 *)"
			],
			"program": [
				"(MAGMA) \u0026cat[ [1, 1, 1, 1, 2]: k in [1..21] ];"
			],
			"xref": [
				"Cf. A130782 (repeat 1, 1, 2, 1, 1), A177707 (decimal expansion of (5+sqrt(65))/8)."
			],
			"keyword": "nonn,cofr,easy",
			"offset": "0,5",
			"author": "_Klaus Brockhaus_, May 11 2010",
			"references": 4,
			"revision": 21,
			"time": "2021-02-16T17:50:03-05:00",
			"created": "2010-06-01T03:00:00-04:00"
		}
	]
}