{
	"greeting": "Greetings from The On-Line Encyclopedia of Integer Sequences! http://oeis.org/",
	"query": "id:A177295",
	"count": 1,
	"start": 0,
	"results": [
		{
			"number": 177295,
			"data": "1,1,20,1680,369600,168168000,137225088000,67280653440000,22859094527068800,6325233865588881600",
			"name": "Number of permutations of 3 copies of 1..n with all adjacent differences \u003c= 5 in absolute value.",
			"comment": [
				"a(n) = (3n)!/6^n for n\u003c=6."
			],
			"xref": [
				"Cf. A014606."
			],
			"keyword": "nonn",
			"offset": "0,3",
			"author": "_R. H. Hardin_, May 06 2010",
			"references": 0,
			"revision": 5,
			"time": "2016-01-25T15:49:21-05:00",
			"created": "2010-06-01T03:00:00-04:00"
		}
	]
}