{
	"greeting": "Greetings from The On-Line Encyclopedia of Integer Sequences! http://oeis.org/",
	"query": "id:A177148",
	"count": 1,
	"start": 0,
	"results": [
		{
			"number": 177148,
			"data": "0,0,5,2,4,4,2,3,3,1,1,5,2,4,4,2,3,3,1,2,5,2,4,4,2,3,3,1,2,5,2,4,4,2,3,3,1,2,5,2,4,4,2,3,3,1,2,5,2,2,4,2,3,3,1,2,5,2,2,3,2,3,3,1,2,5,2,2,3,2,3,3,1,2,5,2,2,3,2,2,3,1,2,5,2,2,3,2,2,4,1,2,5,2,2,3,2,2,4,2,1,5,2,4,4",
			"name": "a(n) = number of squares of summations of digits before reaching the end of the cycle.",
			"comment": [
				"a(n) is the number of times you form the square of the sum of the digits before reaching the last number of the cycle. According to the computations with Maple program, this last number belong to the set {1,81,100,169,256}, and a(n) \u003c = 5.",
				"Example : 4 -\u003e 16 -\u003e (1+6)^2 = 49 -\u003e (4+9)^2 = 169 -\u003e (1+6+9)^2 = 256, and 256 is the last number of the list because 256 -\u003e (2+5+6)^2 = 169 belong to the list."
			],
			"example": [
				"0 is in the sequence twice because 0-\u003e0 and 1 -\u003e 1 ;",
				"5 is in the sequence because : 5 -\u003e 25 -\u003e 49 -\u003e 169 -\u003e 256, last number because 256 -\u003e 169."
			],
			"maple": [
				"A177148 := proc(n)",
				"        local traj ,a,m,c;",
				"        traj := n ;",
				"        c := [n] ;",
				"        while true do",
				"                traj := A118881(traj) ;",
				"                if member(traj,c) then",
				"                        return nops(c)-1 ;",
				"                end if;",
				"                c := [op(c),traj] ;",
				"        end do:",
				"end proc: # _R. J. Mathar_, Jul 08 2012"
			],
			"xref": [
				"Cf. A118881."
			],
			"keyword": "nonn,base",
			"offset": "0,3",
			"author": "_Michel Lagneau_, May 03 2010",
			"references": 5,
			"revision": 4,
			"time": "2012-07-08T13:04:34-04:00",
			"created": "2010-06-01T03:00:00-04:00"
		}
	]
}