{
	"greeting": "Greetings from The On-Line Encyclopedia of Integer Sequences! http://oeis.org/",
	"query": "id:A177649",
	"count": 1,
	"start": 0,
	"results": [
		{
			"number": 177649,
			"data": "1,70,31830,50395146,205822250572,1808558575291438,30242498188745996934",
			"name": "Number of permutations of 4 copies of 1..n avoiding adjacent step pattern up, down, down, up, down",
			"keyword": "nonn",
			"offset": "1,2",
			"author": "_R. H. Hardin_ May 10 2010",
			"references": 0,
			"revision": 3,
			"time": "2012-03-31T12:35:44-04:00",
			"created": "2010-06-01T03:00:00-04:00"
		}
	]
}