{
	"greeting": "Greetings from The On-Line Encyclopedia of Integer Sequences! http://oeis.org/",
	"query": "id:A177141",
	"count": 1,
	"start": 0,
	"results": [
		{
			"number": 177141,
			"data": "53,593,599993,5999993,59999993,599999999993,599999999999999993,599999999999999999999999999993,5999999999999999999999999999999999999999993,599999999999999999999999999999999999999999999993",
			"name": "Primes of the form (6*10^n-7)",
			"comment": [
				"The next term -- a(11) -- has 97 digits. - _Harvey P. Dale_, Nov 15 2021"
			],
			"mathematica": [
				"able[10 FromDigits[PadRight[{5},n,9]]+3,{n,50}],PrimeQ] (* _Harvey P. Dale_, Nov 15 2021 *)"
			],
			"program": [
				"(MAGMA) [a: n in [0..250]|IsPrime(a) where a is 6*10^n-7]"
			],
			"keyword": "nonn",
			"offset": "1,1",
			"author": "_Vincenzo Librandi_, Dec 10 2010",
			"references": 0,
			"revision": 8,
			"time": "2021-11-15T19:16:58-05:00",
			"created": "2010-11-12T14:25:43-05:00"
		}
	]
}