{
	"greeting": "Greetings from The On-Line Encyclopedia of Integer Sequences! http://oeis.org/",
	"query": "id:A177570",
	"count": 1,
	"start": 0,
	"results": [
		{
			"number": 177570,
			"data": "1,6,86,2147,86337,5048158,404763879,42661639277,5720539614420,951006841725136",
			"name": "Number of permutations of 2 copies of 1..n avoiding adjacent step pattern up, down, up, down, up",
			"keyword": "nonn",
			"offset": "1,2",
			"author": "_R. H. Hardin_ May 10 2010",
			"references": 0,
			"revision": 3,
			"time": "2012-03-31T12:35:44-04:00",
			"created": "2010-06-01T03:00:00-04:00"
		}
	]
}