{
	"greeting": "Greetings from The On-Line Encyclopedia of Integer Sequences! http://oeis.org/",
	"query": "id:A177482",
	"count": 1,
	"start": 0,
	"results": [
		{
			"number": 177482,
			"data": "1,1,2,6,20,80,360,1888,11168,75168,560960,4632320,41627520,405993472,4256566784,47855992320,573443425280,7304885964800,98493107742720,1402190308089856,21008850635694080,330557870033510400,5448181151148032000,93883859983130624000",
			"name": "Suppose e\u003cf, e\u003ch, g\u003cf and g\u003ch. To avoid fegh means not to have four consecutive letters such that the second and the third letters are less than the first and the fourth letters.",
			"link": [
				"Alois P. Heinz, \u003ca href=\"/A177482/b177482.txt\"\u003eTable of n, a(n) for n = 0..100\u003c/a\u003e",
				"S. Kitaev, \u003ca href=\"https://doi.org/10.1016/j.dam.2006.09.011\"\u003eIntroduction to partially ordered patterns\u003c/a\u003e, Discrete Applied Mathematics 155 (2007), 929-944."
			],
			"keyword": "nonn",
			"offset": "0,3",
			"author": "Signy Olafsdottir (signy06(AT)ru.is), May 09 2010",
			"ext": [
				"a(0)=1, a(10)-a(23) from _Alois P. Heinz_, Mar 10 2020"
			],
			"references": 4,
			"revision": 10,
			"time": "2020-03-10T19:27:29-04:00",
			"created": "2010-06-01T03:00:00-04:00"
		}
	]
}