{
	"greeting": "Greetings from The On-Line Encyclopedia of Integer Sequences! http://oeis.org/",
	"query": "id:A177238",
	"count": 1,
	"start": 0,
	"results": [
		{
			"number": 177238,
			"data": "2,10,42,174,718,3014,12726,54054,230046,980402,4177266,17789230,75680138,321616186,1365165694,5788182178,24514575654,103720434558,438421398326,1851566492994,7813337317842,32946701361962,138832416613530",
			"name": "Number of n-step self-avoiding walks on square lattice plus number of n-step self-avoiding walks on hexagonal [ =triangular ] lattice.",
			"comment": [
				"a(0) = 2 is the only prime in the sequence. (By symmetry in both lattices, we are adding two sequences with even terms if n\u003e0.)  a(n) is semiprime for a(1) = 10 = 2 * 5, a(4) = 718 = 2 * 359, a(9) = 980402 = 2 * 490201. The Jensen table linked from A001334 should allow extension through a(40)."
			],
			"formula": [
				"a(n) = A001334(n) + A001411(n)."
			],
			"example": [
				"n\\Triangle | Square | Sum",
				"0          1     1     2",
				"1          6     4     10",
				"2          30    12    42",
				"3          138   36    174",
				"4          618   100   718",
				"5          2730  284   3014",
				"6          11946 780   12726"
			],
			"xref": [
				"Cf. A001334, A001411."
			],
			"keyword": "nonn,walk",
			"offset": "0,1",
			"author": "_Jonathan Vos Post_, Dec 11 2010",
			"references": 0,
			"revision": 12,
			"time": "2012-03-30T18:40:52-04:00",
			"created": "2010-11-12T14:25:47-05:00"
		}
	]
}