{
	"greeting": "Greetings from The On-Line Encyclopedia of Integer Sequences! http://oeis.org/",
	"query": "id:A177002",
	"count": 1,
	"start": 0,
	"results": [
		{
			"number": 177002,
			"data": "1,2,4,2,1,2,4,2,1,2,4,2,1,2,4,2,1,2,4,2,1,2,4,2,1,2,4,2,1,2,4,2,1,2,4,2,1,2,4,2,1,2,4,2,1,2,4,2,1,2,4,2,1,2,4,2,1,2,4,2,1,2,4,2,1,2,4,2,1,2,4,2,1,2,4,2,1,2,4,2,1,2,4,2,1,2",
			"name": "Period 4: repeat [1, 2, 4, 2].",
			"comment": [
				"Also the decimal expansion of 138/1111 and the continued fractions of (5+3*sqrt(10))/10 or (6*sqrt(10)-10)/13. - _R. J. Mathar_, Dec 13 2010"
			],
			"link": [
				"\u003ca href=\"/index/Rec#order_04\"\u003eIndex entries for linear recurrences with constant coefficients\u003c/a\u003e, signature (0,0,0,1)."
			],
			"formula": [
				"a(n) = | A174882(n+1) / A174882(n) |.",
				"G.f.: (1+2*x+4*x^2+2*x^3)/((1-x)*(1+x)*(x^2+1)). - _R. J. Mathar_, Dec 13 2010",
				"a(n) = 2+(1+(-1)^n)*(1-3*I^n)/4. - _Bruno Berselli_, Mar 15 2011",
				"a(n) = a(n-1) * a(n-3) / a(n-2) for n\u003e2. - _Bruno Berselli_, Feb 04 2013",
				"From _Wesley Ivan Hurt_, Jul 09 2016: (Start)",
				"a(n) = a(n-4) for n\u003e3.",
				"a(n) = (9 + cos(n*Pi) - 6*cos(n*Pi/2))/4. (End)"
			],
			"maple": [
				"seq(op([1, 2, 4, 2]), n=0..50); # _Wesley Ivan Hurt_, Jul 09 2016"
			],
			"mathematica": [
				"PadRight[{}, 100, {1, 2, 4, 2}] (* _Wesley Ivan Hurt_, Jul 09 2016 *)"
			],
			"program": [
				"(MAGMA) \u0026cat [[1, 2, 4, 2]^^30]; // _Wesley Ivan Hurt_, Jul 09 2016"
			],
			"xref": [
				"Cf. A174882."
			],
			"keyword": "nonn,easy",
			"offset": "0,2",
			"author": "_Paul Curtz_, Dec 08 2010",
			"references": 2,
			"revision": 26,
			"time": "2016-07-10T01:50:14-04:00",
			"created": "2010-11-12T14:25:20-05:00"
		}
	]
}