{
	"greeting": "Greetings from The On-Line Encyclopedia of Integer Sequences! http://oeis.org/",
	"query": "id:A177680",
	"count": 1,
	"start": 0,
	"results": [
		{
			"number": 177680,
			"data": "1,5,110,135,355,425,555,565,975,1045,1755,5530,6935,7355,8925,9240,9555,10640,10850,11730,11830,12045,12350,12460,13130,13445,13655,14590,15540,17050,19245,20795,22330,22825,26070,26910,28075,30585,30805",
			"name": "Numbers n such that 6n and 12n are both the average of twin prime pairs.",
			"comment": [
				"Conjecture: all terms but the first term are multiples of 5. - _Harvey P. Dale_, Sep 26 2017"
			],
			"link": [
				"Harvey P. Dale, \u003ca href=\"/A177680/b177680.txt\"\u003eTable of n, a(n) for n = 1..1000\u003c/a\u003e"
			],
			"formula": [
				"a(n)=A066388(n)/6."
			],
			"example": [
				"a(1)=1 because 6*1-1=5, 6*1+1=7, 12*1-1=11 and 12*1+1=13 are all twin primes."
			],
			"mathematica": [
				"Select[Range[31000],AllTrue[Flatten[{6*#+{1,-1},12*#+{1,-1}}],PrimeQ]\u0026] (* The program uses the AllTrue function from Mathematica version 10 *) (* _Harvey P. Dale_, Sep 26 2017 *)"
			],
			"xref": [
				"Cf. A014574."
			],
			"keyword": "nonn",
			"offset": "1,2",
			"author": "_Juri-Stepan Gerasimov_, May 10 2010",
			"ext": [
				"Corrected (13590 removed, 13655 and 14590 inserted, 22725 replaced by 22825) by _R. J. Mathar_, May 15 2010"
			],
			"references": 1,
			"revision": 11,
			"time": "2017-09-26T15:22:27-04:00",
			"created": "2010-06-01T03:00:00-04:00"
		}
	]
}