{
	"greeting": "Greetings from The On-Line Encyclopedia of Integer Sequences! http://oeis.org/",
	"query": "id:A177964",
	"count": 1,
	"start": 0,
	"results": [
		{
			"number": 177964,
			"data": "2,13,17,28,32,43,47,58,62,73,77,88,92,103,107,118,122,133,137,148,152,163,167,178,182,193,197,208,212,223,227,238,242,253,257,268,272,283,287,298,302,313,317,328,332,343,347,358,362,373,377,388,392,403,407,418,422",
			"name": "Indices m for which A177961(m) = 4.",
			"comment": [
				"Note that 4 is the smallest value of A177961."
			],
			"link": [
				"\u003ca href=\"/index/Rec#order_03\"\u003eIndex entries for linear recurrences with constant coefficients\u003c/a\u003e, signature (1,1,-1)."
			],
			"formula": [
				"a(n+2) = a(n)+15.",
				"a(n) == (-1)^n (mod 3).",
				"a(n) = 15*(n/2-1/4)+7*(-1)^n/4. - _R. J. Mathar_, Oct 25 2010",
				"n such that n == 2 or -2 (mod 15). - _Robert Israel_, Jul 31 2015"
			],
			"maple": [
				"seq(seq(15*i+j, j=[2,13]),i=0..100); # _Robert Israel_, Jul 31 2015"
			],
			"mathematica": [
				"Table[15 (n/2 - 1/4) + 7 (-1)^n/4, {n, 60}] (* _Vincenzo Librandi_, Aug 01 2015 *)"
			],
			"program": [
				"(MAGMA) [15*(n/2-1/4)+7*(-1)^n/4: n in [1..60]]; // _Vincenzo Librandi_, Aug 01 2015"
			],
			"xref": [
				"Cf. A177961."
			],
			"keyword": "nonn,easy",
			"offset": "1,1",
			"author": "_Vladimir Shevelev_, May 16 2010",
			"ext": [
				"More terms from _R. J. Mathar_, Oct 25 2010"
			],
			"references": 3,
			"revision": 20,
			"time": "2015-08-01T05:59:46-04:00",
			"created": "2010-06-01T03:00:00-04:00"
		}
	]
}