{
	"greeting": "Greetings from The On-Line Encyclopedia of Integer Sequences! http://oeis.org/",
	"query": "id:A177641",
	"count": 1,
	"start": 0,
	"results": [
		{
			"number": 177641,
			"data": "1,70,34650,59789280,266337847482,2554877633330088,46673357620120575102,1485635287258589886509256",
			"name": "Number of permutations of 4 copies of 1..n avoiding adjacent step pattern up, down, down, down.",
			"keyword": "nonn",
			"offset": "1,2",
			"author": "_R. H. Hardin_, May 10 2010",
			"ext": [
				"a(8) from _Alois P. Heinz_, Nov 02 2013"
			],
			"references": 0,
			"revision": 6,
			"time": "2013-11-02T19:40:47-04:00",
			"created": "2010-06-01T03:00:00-04:00"
		}
	]
}