{
	"greeting": "Greetings from The On-Line Encyclopedia of Integer Sequences! http://oeis.org/",
	"query": "id:A177263",
	"count": 1,
	"start": 0,
	"results": [
		{
			"number": 177263,
			"data": "1,0,2,1,1,4,4,5,5,10,18,22,23,23,34,96,114,118,119,119,154,600,696,714,718,719,719,874,4320,4920,5016,5034,5038,5039,5039,5914,35280,39600,40200,40296,40314,40318,40319,40319,46234,322560,357840,362160,362760",
			"name": "Triangle read by rows: T(n,k) is the number of permutations of {1,2,...,n} having k as the last entry in the first block (1\u003c=k\u003c=n). A block of a permutation is a maximal sequence of consecutive integers which appear in consecutive positions. For example, the permutation 45123867 has 4 blocks: 45, 123, 8, and 67.",
			"comment": [
				"Sum of entries in row n is n!.",
				"Mirror image of A177264.",
				"T(n,1)=A094304(n)."
			],
			"reference": [
				"A. N. Myers, Counting permutations by their rigid patterns, J. Combin. Theory, A 99 (2002), 345-357."
			],
			"formula": [
				"T(n,k)=(n-1)!-(n-k-1)! if k\u003c=n-1; T(n,n)=0!+1!+...+(n-1)!."
			],
			"example": [
				"T(4,2)=5 because we have 12-4-3, 2-1-34, 2-1-4-3, 2-4-1-3, and 2-4-3-1 (the blocks are separated by dashes).",
				"Triangle starts:",
				"1;",
				"0,2;",
				"1,1,4;",
				"4,5,5,10;",
				"18,22,23,23,34;"
			],
			"maple": [
				"T := proc (n, k) if k \u003c= n-1 then factorial(n-1)-factorial(n-k-1) elif k = n then sum(factorial(j), j = 0 .. n-1) else 0 end if end proc: for n to 10 do seq(T(n, k), k = 1 .. n) end do; # yields sequence in triangular form"
			],
			"xref": [
				"Cf. A094304, A177264."
			],
			"keyword": "nonn,tabl",
			"offset": "1,3",
			"author": "_Emeric Deutsch_, May 16 2010",
			"references": 1,
			"revision": 2,
			"time": "2012-03-30T17:36:24-04:00",
			"created": "2010-06-01T03:00:00-04:00"
		}
	]
}