{
	"greeting": "Greetings from The On-Line Encyclopedia of Integer Sequences! http://oeis.org/",
	"query": "id:A177998",
	"count": 1,
	"start": 0,
	"results": [
		{
			"number": 177998,
			"data": "0,0,907,9007,90007,900007,8000009,40000003,700000001,9000000001,40000000003,700000000009,8000000000009,70000000000009,940000000000007,9000000000000007,70000000000000003,200000000000000003",
			"name": "The n-digit prime with the largest number of zero decimal digits, the largest of these if there are more than one. Zero if no such prime exists.",
			"comment": [
				"The largest number of zero digits in the n-digit prime is n-2, because leading zeros are ignored and the last digit is \u003e0 for primes."
			],
			"example": [
				"3-digit primes with one zero are 101, 103, 107,.., 907. The largest of these is 907, which defines a(3)."
			],
			"xref": [
				"Cf. A037053, A069675, A109902."
			],
			"keyword": "nonn,base",
			"offset": "1,3",
			"author": "_Lekraj Beedassy_, May 17 2010",
			"references": 0,
			"revision": 4,
			"time": "2012-03-31T10:26:16-04:00",
			"created": "2010-06-01T03:00:00-04:00"
		}
	]
}