{
	"greeting": "Greetings from The On-Line Encyclopedia of Integer Sequences! http://oeis.org/",
	"query": "id:A177606",
	"count": 1,
	"start": 0,
	"results": [
		{
			"number": 177606,
			"data": "1,1,20,1680,369600,167262000,135190246573,177591503329934,354324970027942152",
			"name": "Number of permutations of 3 copies of 1..n avoiding adjacent step pattern up, down, down, down, down.",
			"xref": [
				"Cf. A014606."
			],
			"keyword": "nonn",
			"offset": "0,3",
			"author": "_R. H. Hardin_, May 10 2010",
			"references": 0,
			"revision": 5,
			"time": "2016-01-25T15:53:21-05:00",
			"created": "2010-06-01T03:00:00-04:00"
		}
	]
}