{
	"greeting": "Greetings from The On-Line Encyclopedia of Integer Sequences! http://oeis.org/",
	"query": "id:A177062",
	"count": 1,
	"start": 0,
	"results": [
		{
			"number": 177062,
			"data": "1,2,1,3,2,2,2,4,3,3,2,3,3,3,3,5,4,4,4,4,3,3,2,4,4,4,5,4,4,4,4,6,5,5,4,5,4,4,4,5,6,3,3,4,4,2,3,5,5,4,4,5,5,6,5,5,5,5,5,5,5,5,5,7,6,6,5,6,5,5,5,6,5,5,5,4,4,4,4",
			"name": "Length of the longest common substring in binary representations of n and n^2.",
			"link": [
				"Robert Israel, \u003ca href=\"/A177062/b177062.txt\"\u003eTable of n, a(n) for n = 1..10000\u003c/a\u003e"
			],
			"maple": [
				"f:= n -\u003e length(StringTools:-LongestCommonSubString(convert(convert(n,binary),string),convert(convert(n^2,binary),string))):",
				"map(f, [$ 1..100]); # _Robert Israel_, Sep 13 2016"
			],
			"mathematica": [
				"longestRun[pairs_] := Split[pairs, Equal @@ #1 \u0026\u0026 Equal @@ #2 \u0026] // Sort[#, Length[#1] \u003c Length[#2] \u0026] \u0026 // Last; a[n_] := (bits1 = IntegerDigits[n, 2]; bits2 = IntegerDigits[n^2, 2]; longestRun /@ ListConvolve[ Reverse[bits1], bits2, {1, -1}, -1, List, List] // Sort[#, Length[#1] \u003c Length[#2] \u0026] \u0026 // Last // Length); a /@ Range[79] (* _Jean-François Alcover_, Jun 05 2013 *)",
				"Table[Length[LongestCommonSubsequence[IntegerDigits[n^2, 2], IntegerDigits[ n, 2]]], {n, 1, 100}] (* _Vladimir Reshetnikov_, Apr 26 2016 *)"
			],
			"program": [
				"(Haskell)",
				"import Data.List",
				"toBinary 0 = []",
				"toBinary n = toBinary (n `div` 2) ++ [odd n]",
				"lcstr xs ys = maximum . concat $ [f xs' ys | xs' \u003c- tails xs] ++ [f xs ys' | ys' \u003c- drop 1 $ tails ys] where f xs ys = scanl g 0 $ zip xs ys; g z (x, y) = if x == y then z + 1 else 0",
				"a = [lcstr (toBinary $ n) (toBinary $ n^2) | n \u003c- [1..]]"
			],
			"xref": [
				"Cf. A276692"
			],
			"keyword": "base,easy,nonn",
			"offset": "1,2",
			"author": "_Vladimir Reshetnikov_, May 02 2010",
			"references": 2,
			"revision": 19,
			"time": "2019-03-31T09:30:48-04:00",
			"created": "2010-06-01T03:00:00-04:00"
		}
	]
}