{
	"greeting": "Greetings from The On-Line Encyclopedia of Integer Sequences! http://oeis.org/",
	"query": "id:A177798",
	"count": 1,
	"start": 0,
	"results": [
		{
			"number": 177798,
			"data": "2,7,167,199,6271,12227,168713,579907,5937157,6829751,8059943,66858173,167857663,661416709,2322857987,12012698381,14641587607,26304771553,49671709081,1244930533403,1922085626009",
			"name": "First primes of record chains of consecutive primes such that all of them are odious (A027697)",
			"comment": [
				"The corresponding record lengths are: 1,3,6,9,11,15, etc. (A177800)."
			],
			"program": [
				"(PARI) back(p,k)=while(k--,p=precprime(p-1));precprime(p-1)",
				"r=s=0;forprime(p=2,1e9,if(hammingweight(p)%2,s++,if(s\u003er,r=s;print1(back(p,r)\", \"));s=0)) \\\\ _Charles R Greathouse IV_, Mar 29 2013"
			],
			"xref": [
				"Cf. A177748 (evil version), A000069, A001969, A027697, A027699, A177800."
			],
			"keyword": "nonn,base,more",
			"offset": "1,1",
			"author": "_Vladimir Shevelev_, Dec 12 2010",
			"ext": [
				"More terms from _D. S. McNeil_, Dec 12 2010",
				"a(20)-a(21) from _Amiram Eldar_, Dec 09 2020"
			],
			"references": 3,
			"revision": 14,
			"time": "2020-12-09T01:12:07-05:00",
			"created": "2010-11-12T14:26:06-05:00"
		}
	]
}