{
	"greeting": "Greetings from The On-Line Encyclopedia of Integer Sequences! http://oeis.org/",
	"query": "id:A178531",
	"count": 1,
	"start": 0,
	"results": [
		{
			"number": 178531,
			"data": "2,3,4,5,6,7,11,57,61,70,127,223,237,240,310,467,651,1935,2333,3457,4456,6048,11289,12150,24693,28437,31123,32909,52041,58225,68297",
			"name": "Numbers n such that 10^n - 93 is prime.",
			"comment": [
				"The next term, if it exists, is \u003e 100000.",
				"See Kamada link - primecount.txt for terms, primesize.txt for discovery details including probable or proved primes - search on \"99907\"."
			],
			"link": [
				"Makoto Kamada, \u003ca href=\"https://stdkmd.net/nrr/prime/\"\u003eList of near-repdigit-related prime numbers\u003c/a\u003e.",
				"\u003ca href=\"/index/Pri#Pri_rep\"\u003eIndex entries for primes involving repunits\u003c/a\u003e."
			],
			"example": [
				"10^3 - 93 = 907 which is a prime number."
			],
			"mathematica": [
				"m=1000; For[n=1, n\u003cm, If[PrimeQ[10^n-93], Print[n]]; n++ ]"
			],
			"program": [
				"(PARI) is(n)=ispseudoprime(10^n-93) \\\\ _Charles R Greathouse IV_, Jun 13 2017"
			],
			"xref": [
				"Cf. A108330, A108328."
			],
			"keyword": "more,nonn",
			"offset": "1,1",
			"author": "_Robert Price_, Dec 23 2010",
			"ext": [
				"a(29-31)=52041,58225,68297 from _Robert Price_, May 29 2011"
			],
			"references": 0,
			"revision": 14,
			"time": "2019-01-17T13:44:08-05:00",
			"created": "2010-11-12T14:27:12-05:00"
		}
	]
}