{
	"greeting": "Greetings from The On-Line Encyclopedia of Integer Sequences! http://oeis.org/",
	"query": "id:A178187",
	"count": 1,
	"start": 0,
	"results": [
		{
			"number": 178187,
			"data": "1,28,2269,551368,401947273,879058686052,5767504039187173,113521782003321126160,6703347705514109178621841,1187477935988707898665323267628,631074461779774914374598062671491949",
			"name": "Numerators of sum (1/3)^((k^2+3k)/2) from k=1 to n.",
			"comment": [
				"Series of the kind m^((k^2+3k)/2) from k=1 to n was studied by Bernoulli and Euler."
			],
			"link": [
				"Vincenzo Librandi, \u003ca href=\"/A178187/b178187.txt\"\u003eTable of n, a(n) for n = 1..60\u003c/a\u003e"
			],
			"mathematica": [
				"aa = {}; m = 1/3; sum = 0; Do[sum = sum + m^((n + 3) n/2); AppendTo[aa, Numerator[sum]], {n, 1, 20}]; aa (*Artur Jasinski*)",
				"Accumulate[Table[(1/3)^((k^2+3k)/2),{k,20}]]//Numerator (* _Harvey P. Dale_, May 29 2020 *)"
			],
			"program": [
				"(PARI) a(n) = numerator(sum(k=1, n, (1/3)^((k^2+3*k)/2))); \\\\ _Michel Marcus_, Sep 09 2013"
			],
			"xref": [
				"Cf. A178184-A178193.",
				"Cf. A217628 (denominators)."
			],
			"keyword": "frac,nonn",
			"offset": "1,2",
			"author": "_Artur Jasinski_, May 21 2010",
			"references": 1,
			"revision": 10,
			"time": "2020-05-29T17:20:58-04:00",
			"created": "2010-06-01T03:00:00-04:00"
		}
	]
}