{
	"greeting": "Greetings from The On-Line Encyclopedia of Integer Sequences! http://oeis.org/",
	"query": "id:A178976",
	"count": 1,
	"start": 0,
	"results": [
		{
			"number": 178976,
			"data": "0,0,0,1,1,1,2,4,4,4,5,5,5,6,8,11,11,12,12,12,14,14,14,16,18,20,22,24,26,29,29,29,30,31,32,35,35,35,37,38,40,43,43,45,46,50,51,52,55,55,57,57,59,61,63,65,69,69,74,74,74,76,77,78,81,82,82,86,89,91,93,96,99,100,104,105,106,107,108,112,113,115,115,117,121,122,122,124,124,125,126,131,133,134,137,139,141,146,148,150",
			"name": "Number of collinear triples in graph of preceding terms",
			"comment": [
				"a(n) is the number of 3-element subsets (i\u003cj\u003ck) of (0,...,n-1) such that both i,j,k and a(i),a(j),a(k) are arithmetic progressions (including the case a(i)=a(j)=a(k)). That is, k-j=j-i\u003e0 and a(k)-a(j)=a(j)-a(i).",
				"The sequence appears to grow faster than n but slower than n^(1+c) for any positive c."
			],
			"example": [
				"For n=7, the triples (0,1,2),(0,3,6),(2,4,6),(3,4,5) satisfy the stated conditions, so a(7)=4"
			],
			"keyword": "nonn,easy",
			"offset": "0,7",
			"author": "_Alex Abercrombie_, Jan 06 2011",
			"references": 1,
			"revision": 10,
			"time": "2012-03-31T10:23:46-04:00",
			"created": "2010-11-12T14:28:17-05:00"
		}
	]
}