{
	"greeting": "Greetings from The On-Line Encyclopedia of Integer Sequences! http://oeis.org/",
	"query": "id:A178521",
	"count": 1,
	"start": 0,
	"results": [
		{
			"number": 178521,
			"data": "0,0,3,7,17,35,70,134,251,461,835,1495,2652,4668,8163,14195,24565,42331,72674,124354,212155,360985,612743,1037807,1754232,2959800,4985475,8384479,14080601,23614931,39556030,66181310,110608187,184670693,308030923,513334855",
			"name": "The cost of all leaves in the Fibonacci tree of order n.",
			"comment": [
				"A Fibonacci tree of order n (n\u003e=2) is a complete binary tree whose left subtree is the Fibonacci tree of order n-1 and whose right subtree is the Fibonacci tree of order n-2; each of the Fibonacci trees of order 0 and 1 is defined as a single node. In a Fibonacci tree the cost of a left (right) edge is defined to be 1 (2). The cost of a leaf of a Fibonacci tree is defined to be the sum of the costs of the edges that form the path from the root to this leaf."
			],
			"reference": [
				"D. E. Knuth, The Art of Computer Programming, Vol. 3, 2nd edition, Addison-Wesley, Reading, MA, 1998, p. 417."
			],
			"link": [
				"Colin Barker, \u003ca href=\"/A178521/b178521.txt\"\u003eTable of n, a(n) for n = 0..1000\u003c/a\u003e",
				"Y. Horibe, \u003ca href=\"http://www.fq.math.ca/Scanned/20-2/horibe.pdf\"\u003eAn entropy view of Fibonacci trees\u003c/a\u003e, Fibonacci Quarterly, 20, No. 2, 1982, 168-178.",
				"\u003ca href=\"/index/Rec#order_04\"\u003eIndex entries for linear recurrences with constant coefficients\u003c/a\u003e, signature (2,1,-2,-1)."
			],
			"formula": [
				"a(n) = n*F(n+1) - F(n), where F(k) = A000045(k).",
				"G.f.: x^2*(x+3)/(x^2+x-1)^2. - _Colin Barker_, Nov 11 2012",
				"a(n) = Sum_{k=1..n-1} F(k) * L(n-k+1) where F(n) = A000045(n), L(n) = A000032(n). - _Gary Detlefs_, Dec 29 2012",
				"a(n) = (n-1)*F(n) + n*F(n-1). - _Bruno Berselli_, Dec 06 2013",
				"a(0) = 0, a(n) = A023607(n-1) + A099920(n-1). - _Collin Berman_, Dec 12 2016",
				"a(n) = 2*a(n-1) + a(n-2) - 2*a(n-3) - a(n-4). - _Wesley Ivan Hurt_, Dec 14 2016",
				"a(n) = (n+1)*F(n+1) - F(n+2). - _Bruno Berselli_, Jul 26 2017",
				"a(n) = (2^(-1-n)*(2*sqrt(5)*((1-sqrt(5))^n - (1+sqrt(5))^n) + (-(1-sqrt(5))^n*(-5+sqrt(5)) + (1+sqrt(5))^n*(5+sqrt(5)))*n))/5. - _Colin Barker_, Jul 26 2017"
			],
			"maple": [
				"with(combinat); seq(n*fibonacci(n+1)-fibonacci(n), n = 0 .. 35);"
			],
			"mathematica": [
				"Table[n Fibonacci[n + 1] - Fibonacci[n], {n, 0, 40}]  (* _Harvey P. Dale_, Apr 21 2011 *)",
				"Table[(n - 1) Fibonacci[n] + n Fibonacci[n - 1], {n, 0, 40}] (* _Bruno Berselli_, Dec 06 2013 *)"
			],
			"program": [
				"(PARI) concat(vector(2), Vec(x^2*(x+3)/(x^2+x-1)^2 + O(x^50))) \\\\ _Colin Barker_, Jul 26 2017"
			],
			"xref": [
				"Cf. A000045, A136376."
			],
			"keyword": "nonn,easy",
			"offset": "0,3",
			"author": "_Emeric Deutsch_, Jun 14 2010",
			"references": 3,
			"revision": 41,
			"time": "2017-07-27T04:53:59-04:00",
			"created": "2010-07-11T03:00:00-04:00"
		}
	]
}