{
	"greeting": "Greetings from The On-Line Encyclopedia of Integer Sequences! http://oeis.org/",
	"query": "id:A178520",
	"count": 1,
	"start": 0,
	"results": [
		{
			"number": 178520,
			"data": "1,1,1,4,11,32,98,309,998,3285,10981,37178,127227,439369,1529280,5359314,18894435,66967086,238473876,852825314,3061529014,11028596473,39853923390,144435373636,524837483375,1911763716717,6979451843306",
			"name": "Number of ordered trees with n edges and with no vertex of outdegree 2 that have two leaves as their two children.",
			"comment": [
				"Empirical: for n \u003e= 3, a(n) is the number of Dyck n-paths avoiding UUUDDD. E.g., of the 5 Dyck 3-paths UUUDDD is avoided so a(3)=4. - _David Scambler_, Mar 24 2011"
			],
			"link": [
				"G. C. Greubel, \u003ca href=\"/A178520/b178520.txt\"\u003eTable of n, a(n) for n = 0..1000\u003c/a\u003e"
			],
			"formula": [
				"a(n) = A178519(n,0).",
				"G.f.: G=G(z) satisfies (G+z^2)*(1-z*G)=1.",
				"a(n) ~ sqrt((1+r)*(1-r+r^2)*(1-5*r^3)) / (4*sqrt(Pi)*n^(3/2)*r^(n+1)), where r = 0.2587353940253970315668... is the root of the equation (1+r^3)^2 = 4*r. - _Vaclav Kotesovec_, Mar 21 2014",
				"Conjecture D-finite with recurrence: (n+1)*a(n) +(n+2)*a(n-1) +(n+9)*a(n-2) +(-82*n+203)*a(n-3) +5*(2*n-9)*a(n-4) +21*(2*n-11)*a(n-5) +(n-8)*a(n-6) +5*(n-9)*a(n-7) +21*(n-10)*a(n-8)=0. - _R. J. Mathar_, Jan 28 2020"
			],
			"example": [
				"a(3)=4 because among the 5 ordered trees with 3 edges only -\u003c has a forbidden vertex (the root)."
			],
			"maple": [
				"eq := z*G^2-(1-z^3)*G+1-z^2; G := RootOf(eq, G): Gser := series(G, z = 0, 30): seq(coeff(Gser, z, n), n = 0 .. 27);"
			],
			"mathematica": [
				"CoefficientList[Series[(1-x^3-Sqrt[1-4*x+2*x^3+x^6])/(2*x),{x,0,20}],x] (* _Vaclav Kotesovec_, Mar 21 2014 *)"
			],
			"program": [
				"(PARI) x='x+O('x^50); Vec((1-x^3-sqrt(1-4*x+2*x^3+x^6))/(2*x)) \\\\ _G. C. Greubel_, Mar 24 2017"
			],
			"xref": [
				"Cf. A178519."
			],
			"keyword": "nonn",
			"offset": "0,4",
			"author": "_Emeric Deutsch_, May 31 2010",
			"references": 2,
			"revision": 17,
			"time": "2020-01-30T21:29:16-05:00",
			"created": "2010-07-11T03:00:00-04:00"
		}
	]
}