{
	"greeting": "Greetings from The On-Line Encyclopedia of Integer Sequences! http://oeis.org/",
	"query": "id:A178584",
	"count": 1,
	"start": 0,
	"results": [
		{
			"number": 178584,
			"data": "10321,11731,12841,10781,14081,13591,16481,17491,32563,31873,31193,31393,32783,34583,70327,72047,71257,70667,76387,76487,77797,90089,92369,90989,95279,95479,1023601,1013321,1055321,1130711,1040821",
			"name": "Smallest emirp corresponding to the prime of A178583.",
			"example": [
				"a(4)= 10781 belongs to the emirp pair (10781, 18701) whose average is the palindromic prime 14741 = A178581(4) which is also the arithmetic mean of the other emirp pair (13751, 15731)."
			],
			"keyword": "nonn,base",
			"offset": "1,1",
			"author": "_Lekraj Beedassy_, May 29 2010",
			"ext": [
				"Extended by _Ray Chandler_, Jul 05 2010"
			],
			"references": 1,
			"revision": 3,
			"time": "2012-03-31T10:26:16-04:00",
			"created": "2010-07-11T03:00:00-04:00"
		}
	]
}