{
	"greeting": "Greetings from The On-Line Encyclopedia of Integer Sequences! http://oeis.org/",
	"query": "id:A178383",
	"count": 1,
	"start": 0,
	"results": [
		{
			"number": 178383,
			"data": "5,23,167,257,293,797,887,953,1013,1283,1307,1667,1913,2003,2333,2897,2927,3533,4013,4877,4943,5087,5147,5417,5483,6173,6473,6803,6827,6917,7127,7187,7523,7547,7673,7853,7877,8147,8447,8513,9623,9857,10037",
			"name": "Primes p such that q*p+-Mod(p,q) are primes, for q=3.",
			"comment": [
				"3*5=15+-2-\u003eprimes,.."
			],
			"link": [
				"Harvey P. Dale, \u003ca href=\"/A178383/b178383.txt\"\u003eTable of n, a(n) for n = 1..1000\u003c/a\u003e"
			],
			"mathematica": [
				"q=3;lst={};Do[p=Prime[n];If[PrimeQ[q*p-Mod[p,q]]\u0026\u0026PrimeQ[q*p+Mod[p,q]],AppendTo[lst,p]],{n,7!}];lst",
				"Select[Prime[Range[1300]],AllTrue[3#+{Mod[#,3],-Mod[#,3]},PrimeQ]\u0026] (* The program uses the AllTrue function from Mathematica version 10 *) (* _Harvey P. Dale_, Sep 01 2017 *)"
			],
			"xref": [
				"Cf. A000040"
			],
			"keyword": "nonn",
			"offset": "1,1",
			"author": "_Vladimir Joseph Stephan Orlovsky_, May 26 2010",
			"references": 5,
			"revision": 4,
			"time": "2017-09-01T11:51:21-04:00",
			"created": "2010-07-11T03:00:00-04:00"
		}
	]
}