{
	"greeting": "Greetings from The On-Line Encyclopedia of Integer Sequences! http://oeis.org/",
	"query": "id:A178170",
	"count": 1,
	"start": 0,
	"results": [
		{
			"number": 178170,
			"data": "1,2,4,8,16,5,32,10,3,6,20,64,12,40,21,24,128,13,42,80,48,26,256,84,160,52,96,85,17,168,53,512,104,320,192,34,170,106,11,336,208,68,1024,384,22,35,640,340,212,7,69,136,44,672,416,70,14,341,213,113,768,2048,1280",
			"name": "The product of the numbers in the Collatz trajectory of a(n) is the n-th largest such product.",
			"comment": [
				"That is, a(n) is the number k such that A178168(k) = A178169(n).",
				"The sequence is easy to compute by generating the Collatz tree while keeping track of the products at the leaves of the tree. At each step, extend the tree at the leaf having the smallest product."
			],
			"link": [
				"T. D. Noe, \u003ca href=\"/A178170/b178170.txt\"\u003eTable of n, a(n) for n=1..1000\u003c/a\u003e"
			],
			"keyword": "nonn",
			"offset": "1,2",
			"author": "_T. D. Noe_, May 21 2010",
			"references": 2,
			"revision": 6,
			"time": "2012-03-30T17:22:56-04:00",
			"created": "2010-06-01T03:00:00-04:00"
		}
	]
}