{
	"greeting": "Greetings from The On-Line Encyclopedia of Integer Sequences! http://oeis.org/",
	"query": "id:A178317",
	"count": 1,
	"start": 0,
	"results": [
		{
			"number": 178317,
			"data": "2,3,5,11,13,23,31,53,83,101,103,113,131,181,251,311,313,331,383,521,811,823,853,881,883,1013,1021,1031,1033,1051,1103,1123,1153,1181,1223,1231,1283,1301,1303,1381,1531,1553,1583,1801,1811,1831,2003,2011,2053",
			"name": "Primes with the property that if the digits are written digital clock style and the number is reflected across a horizontal line through the middle of the number, the result is still prime.",
			"example": [
				"For example when 251 is reflected it becomes 521 which is also a prime, but a different one."
			],
			"xref": [
				"Cf. A018847."
			],
			"keyword": "nonn,base",
			"offset": "1,1",
			"author": "_David Nacin_, May 24 2010",
			"references": 1,
			"revision": 2,
			"time": "2012-03-31T10:26:32-04:00",
			"created": "2010-06-01T03:00:00-04:00"
		}
	]
}