{
	"greeting": "Greetings from The On-Line Encyclopedia of Integer Sequences! http://oeis.org/",
	"query": "id:A178070",
	"count": 1,
	"start": 0,
	"results": [
		{
			"number": 178070,
			"data": "11,17,41,73,101,137,251,257,271,353,401,449,641,751,1201,1409,1601,3541,4001,4801,5051,9091,10753,15361,16001,19841,21001,21401,24001,25601,27961,37501,40961,43201,60101,62501,65537,69857,76001,76801,160001,162251,163841,307201,453377,524801,544001,670001,952001,976193,980801",
			"name": "Primes dividing repunits R(10^n) for some n.",
			"comment": [
				"Repunits are the numbers consisting entirely of 1's. The number represented by R(10^n) contains 10^n digits with all 1's. E.g., R(10^1) = 1111111111.",
				"A prime p is here if the multiplicative order of 10 (mod p) is of the form 2^i*5^j, with i and j nonnegative."
			],
			"link": [
				"Dario Alejandro Alpern, \u003ca href=\"http://alpertron.com.ar/glpxm1.pl\"\u003eKnown prime factors of Googolplexplex - 1\u003c/a\u003e",
				"Project Euler, \u003ca href=\"http://projecteuler.net/index.php?section=problems\u0026amp;id=133\"\u003eProblem 133: Repunit nonfactors\u003c/a\u003e",
				"Robert P. Munafo, \u003ca href=\"http://mrob.com/pub/math/numbers-22.html#lp2_e008_37\"\u003eNotable Properties of Specific Numbers\u003c/a\u003e"
			],
			"example": [
				"17 divides R(10^4), so is in the sequence. - _Phil Carmody_, May 26 2011",
				"Note that R(10^n) == 1 mod 3 for all n, so 3 is not a member. - _N. J. A. Sloane_, Jun 18 2014"
			],
			"mathematica": [
				"Select[Prime[Range[4, 100000]], Complement[First /@ FactorInteger[MultiplicativeOrder[10, #]], {2, 5}] == {} \u0026] (* _T. D. Noe_, May 26 2011 *)"
			],
			"program": [
				"(PARI) g=10^30;forprime(p=7,1000000,z=znorder(Mod(10,p));if(gcd(z,g)==z,print1(p\", \"))) \\\\ _Phil Carmody_, May 26 2011",
				"(PARI) upTo(lim)=my(v=List(),g=10^(log(lim)\\log(2))); forprime(p=7,lim,if(g%znorder(Mod(10,p))==0, listput(v,p))); Vec(v) \\\\ _Charles R Greathouse IV_, May 26 2011"
			],
			"xref": [
				"Cf. A227246."
			],
			"keyword": "nonn",
			"offset": "1,1",
			"author": "_Shashank Sharma_, May 19 2010, Aug 04 2010",
			"ext": [
				"Arbitrary limit removed and sequence extended by _Phil Carmody_, May 26 2011"
			],
			"references": 3,
			"revision": 23,
			"time": "2020-02-21T20:03:25-05:00",
			"created": "2010-06-01T03:00:00-04:00"
		}
	]
}