{
	"greeting": "Greetings from The On-Line Encyclopedia of Integer Sequences! http://oeis.org/",
	"query": "id:A178279",
	"count": 1,
	"start": 0,
	"results": [
		{
			"number": 178279,
			"data": "0,0,0,0,0,0,21121,309728,2357916,12504960,52122450,182296032,560069316",
			"name": "Number of collinear point 7-tuples in an n X n .. X n 5-dimensional cubical grid",
			"xref": [
				"Three collinear points in an n X n grid A000938 ; n X n X n grid A157882"
			],
			"keyword": "nonn",
			"offset": "1,7",
			"author": "_R. H. Hardin_, suggested by R. J. Mathar in the Sequence Fans Mailing List, May 24 2010",
			"references": 0,
			"revision": 3,
			"time": "2012-03-31T12:35:44-04:00",
			"created": "2010-06-01T03:00:00-04:00"
		}
	]
}