{
	"greeting": "Greetings from The On-Line Encyclopedia of Integer Sequences! http://oeis.org/",
	"query": "id:A178853",
	"count": 1,
	"start": 0,
	"results": [
		{
			"number": 178853,
			"data": "1,2,3,2,4,5,5,4,2,9,5,12,6,13,5,12,2,9,16,3,10,17,1,8,15,22,2,9,16,23,30,5,12,19,26,33,3,10,17,24,31,38,2,9,16,23,30,37,44,1,8,15,22,29,36,43,50,57,5,12,19,26,33,40,47,54,61,68,6,13,20,27,34,41,48,55,62,69,76",
			"name": "\"Josephus problem\": n persons stand in a circle and eliminate every seventh person counting clockwise until only person a(n) is remaining.",
			"reference": [
				"L. Euler, Observationes circa novum et singulare progressionum genus. In: Novi Comment. Akadem. Petropol. Vol.20 (1775) [From Roland Schroeder (florola(AT)gmx.de), Jul 13 2010]"
			],
			"link": [
				"Eric Weisstein's World of Mathematics, \u003ca href=\"http://mathworld.wolfram.com/JosephusProblem.html\"\u003e Josephus Problem.\u003c/a\u003e [From _Robert G. Wilson v_, Jul 31 2010]",
				"\u003ca href=\"/index/J#Josephus\"\u003eIndex entries for sequences related to the Josephus Problem\u003c/a\u003e"
			],
			"mathematica": [
				"(* First do *) Needs[\"Combinatorica`\"] (* then *) f[n_] := Last@ InversePermutation@ Josephus[n, 7]; Array[f, 79] (* _Robert G. Wilson v_, Jul 31 2010 *)"
			],
			"program": [
				"(Other) DERIVE - program R(x) := VECTOR(y, y, 1, x) g(v, k) := VECTOR(ELEMENT(v, n), n, 1, IF(k = DIMENSION(v), DIMENSION(v) - 1, MOD(k, DIMENSION(v)))) f(v, k) := VECTOR(ELEMENT(v, n), n, IF(k = DIMENSION(v), DIMENSION(v) + 1, MOD(k, DIMENSION(v)) + 1), DIMENSION(v)) H(v, k) := APPEND(f(v, k), g(v, k)) i(v, k) := DELETE_ELEMENT(H(v, k), DIMENSION(v)) j(v, k) := ITERATES(i(w, k), w, v, DIMENSION(v) - 1) jo(x, k) := ITERATE(i(w, k), w, R(x), x - 1) VECTOR((jo(x, 7))sub1, x, 1, 100)"
			],
			"keyword": "nonn",
			"offset": "1,2",
			"author": "Roland Schroeder (florola(AT)gmx.de), Jun 18 2010",
			"ext": [
				"Several other versions of this sequence are already in the OEIS. - _N. J. A. Sloane_, Jun 24 2010",
				"a(29) onwards from _Robert G. Wilson v_, Jul 31 2010"
			],
			"references": 2,
			"revision": 10,
			"time": "2020-06-23T19:23:27-04:00",
			"created": "2010-07-11T03:00:00-04:00"
		}
	]
}