{
	"greeting": "Greetings from The On-Line Encyclopedia of Integer Sequences! http://oeis.org/",
	"query": "id:A178826",
	"count": 1,
	"start": 0,
	"results": [
		{
			"number": 178826,
			"data": "0,5,43,309,2176,15248,106752,747285,5231019,36617157,256320128,1794240928,12559686528,87917805733,615424640171,4307972481237,30155807368704,211090651580976,1477634561066880,10343441927468213,72404093492277547,506828654445942885,3547800581121600256,24834604067851201856,173842228474958413056",
			"name": "Partial sums of floor(7^n/9).",
			"link": [
				"Vincenzo Librandi, \u003ca href=\"/A178826/b178826.txt\"\u003eTable of n, a(n) for n = 1..1000\u003c/a\u003e",
				"Mircea Merca, \u003ca href=\"http://www.cs.uwaterloo.ca/journals/JIS/VOL14/Merca/merca3.html\"\u003eInequalities and Identities Involving Sums of Integer Functions\u003c/a\u003e J. Integer Sequences, Vol. 14 (2011), Article 11.9.1.",
				"\u003ca href=\"/index/Rec#order_05\"\u003eIndex entries for linear recurrences with constant coefficients\u003c/a\u003e, signature (8,-7,1,-8,7)."
			],
			"formula": [
				"a(n) = round((7*7^n - 24*n - 16)/54).",
				"a(n) = floor((7*7^n - 24*n - 7)/54).",
				"a(n) = ceiling((7*7^n - 24*n - 25)/54).",
				"a(n) = round((7*7^n - 24*n - 7)/54).",
				"a(n) = a(n-3) + (19*7^(n-2) - 4)/3, n \u003e 3.",
				"a(n) = 8*a(n-1) - 7*a(n-2) + a(n-3) - 8*a(n-4) + 7*a(n-5), n \u003e 5.",
				"G.f.: x^2*(5+3*x) / ( (1-7*x)*(1+x+x^2)*(1-x)^2 )."
			],
			"example": [
				"a(4) = 0 + 5 + 38 + 266 = 309."
			],
			"maple": [
				"A178826 := proc(n) add( floor(7^i/9),i=0..n) ; end proc:"
			],
			"mathematica": [
				"CoefficientList[Series[x(5+3x)/((1-7x)(1+x+x^2)(1-x)^2), {x, 0, 50}],x] (* _Vincenzo Librandi_, Mar 26 2014 *)"
			],
			"program": [
				"(MAGMA) [Floor((7*7^n-24*n-7)/54): n in [1..30]]; // _Vincenzo Librandi_, Jun 21 2011",
				"(MAGMA) [\u0026+[Floor(7^k/9): k in [1..n]]: n in [1..25]]; // _Bruno Berselli_, Apr 26 2011",
				"(PARI) my(x='x+O('x^30)); concat([0], Vec(x*(5+3*x)/((1-7*x)*(1-x)*(1-x^3)))) \\\\ _G. C. Greubel_, Jan 22 2019",
				"(Sage) (x*(5+3*x)/((1-7*x)*(1-x)*(1-x^3))).series(x, 30).coefficients(x, sparse=False) # _G. C. Greubel_, Jan 22 2019",
				"(GAP) a:=[0,5,43,309,2176];; for n in [6..30] do a[n]:=8*a[n-1]-7*a[n-2]+a[n-3]-8*a[n-4]+7*a[n-5]; od; a; # _G. C. Greubel_, Jan 22 2019"
			],
			"keyword": "nonn,less",
			"offset": "1,2",
			"author": "_Mircea Merca_, Dec 27 2010",
			"references": 2,
			"revision": 37,
			"time": "2019-07-04T03:39:01-04:00",
			"created": "2010-11-12T14:27:46-05:00"
		}
	]
}