{
	"greeting": "Greetings from The On-Line Encyclopedia of Integer Sequences! http://oeis.org/",
	"query": "id:A178652",
	"count": 1,
	"start": 0,
	"results": [
		{
			"number": 178652,
			"data": "173,233,1193,16553,262313,67109033,1073741993,4611686018427388073,73786976294838206633,19807040628566084398385987753,1361129467683753853853498429727072845993",
			"name": "Primes of the form 4^k + 13^2.",
			"comment": [
				"Necessarily k is odd, 4^2 + 13^2 a multiple of 5."
			],
			"example": [
				"a(1) = 4^1 + 13^2 = 173.",
				"a(2) = 4^3 + 13^2 = 233.",
				"a(11) = 4^65 + 13^2 = 1361129467683753853853498429727072845993.",
				"a(12) = 4^99 + 13^2 = 401734511064747568885490523085290650630550748445698208825513."
			],
			"mathematica": [
				"Select[4^Range[0,70]+13^2,PrimeQ] (* _Harvey P. Dale_, Mar 05 2015 *)"
			],
			"program": [
				"(PARI) forstep(n=1,999,2,if(ispseudoprime(t=4^n+169),print1(t\", \"))) \\\\ _Charles R Greathouse IV_, Aug 27 2013"
			],
			"xref": [
				"Cf. A176969, A176978, A177833."
			],
			"keyword": "nonn",
			"offset": "1,1",
			"author": "Eva-Maria Zschorn (e-m.zschorn(AT)zaschendorf.km3.de), Jun 01 2010",
			"ext": [
				"New name from _Charles R Greathouse IV_, Aug 27 2013"
			],
			"references": 1,
			"revision": 8,
			"time": "2015-03-05T12:21:19-05:00",
			"created": "2010-07-11T03:00:00-04:00"
		}
	]
}