{
	"greeting": "Greetings from The On-Line Encyclopedia of Integer Sequences! http://oeis.org/",
	"query": "id:A178657",
	"count": 1,
	"start": 0,
	"results": [
		{
			"number": 178657,
			"data": "1,1,3,1,15,15,1,1,43,161,105,10,1,96,855,1680,855,96,1,1,185,3191,13387,17655,7623,945,21,1,323,9570,72254,188188,188188,72254,9570,323,1,1,525,24675,302359,1345605,2499861,2036125,715725,99414,4410,36,1,808",
			"name": "Irregular triangle: the coefficient [x^k] of the polynomial (1-x)^(2*n-1) * Sum_{s\u003e=0} A001263(n+2*s,2*s+1)*x^s in row n \u003e= 1 and column k \u003e= 0.",
			"comment": [
				"Row sums are 1, 4, 32, 320, 3584, 43008, 540672, 7028736, 93716480, 1274544128, ... (see A151403, A052704).",
				"The sequence is the Narayana number analog of A034839."
			],
			"example": [
				"1;",
				"1, 3;",
				"1, 15, 15, 1;",
				"1, 43, 161, 105, 10;",
				"1, 96, 855, 1680, 855, 96, 1;",
				"1, 185, 3191, 13387, 17655, 7623, 945, 21;",
				"1, 323, 9570, 72254, 188188, 188188, 72254, 9570, 323, 1;",
				"1, 525, 24675, 302359, 1345605, 2499861, 2036125, 715725, 99414, 4410, 36;",
				"1, 808, 56896, 1055320, 7329975, 22338816, 32152848, 22338816, 7329975, 1055320, 56896, 808, 1;"
			],
			"maple": [
				"A001263 := proc(n,k) if n \u003c=0 or k \u003c=0 then 0 ; elif k \u003e n then 0 ; else binomial(n-1,k-1)*binomial(n,k-1)/k ; end if; end proc:",
				"A178657 := proc(n,k) (1-x)^(2*n-1)*add(A001263(n+2*l,2*l+1)*x^l,l=0..20) ; expand(%) ; coeftayl(%,x=0,k) ; end proc: # _R. J. Mathar_, Aug 30 2011"
			],
			"mathematica": [
				"p[x_, n_] = (1 - x)^(2*n - 1)*Sum[(Binomial[2*k + n, 2*k] Binomial[ 2*k + n, 1 + 2*k]/(2*k + n))*x^k, {k, 0, Infinity}];",
				"Table[CoefficientList[FullSimplify[ExpandAll[p[x, n]]], x], {n, 2, 10}];",
				"Flatten[%]"
			],
			"xref": [
				"Cf. A001263, A034839."
			],
			"keyword": "nonn,tabf",
			"offset": "1,3",
			"author": "_Roger L. Bagula_, Jun 01 2010",
			"references": 1,
			"revision": 7,
			"time": "2019-03-24T22:58:45-04:00",
			"created": "2010-07-11T03:00:00-04:00"
		}
	]
}