{
	"greeting": "Greetings from The On-Line Encyclopedia of Integer Sequences! http://oeis.org/",
	"query": "id:A178705",
	"count": 1,
	"start": 0,
	"results": [
		{
			"number": 178705,
			"data": "49,91,121,133,169,175,217,231,247,259,301,325,341,343,361,385,403,427,435,451,469,475,481,511,529,553,559,561,589,595,637,645,651,671,679,703,715,721,763,775,781,793,805,817,841,847,861,871,889,891,925,931,949,961,973,1001,1015,1027,1035,1045",
			"name": "Odd composite numbers q such that there exists a, 2\u003c=a\u003c=q-2, such that a^d == 1 mod q where d = A000265(q-1). Thus q is a strong pseudoprime in base a.",
			"comment": [
				"Odd composite numbers q such that gcd(A000010(q), A000265(q-1)) \u003e 1. - _Robert Israel_, Dec 20 2017"
			],
			"link": [
				"Robert Israel, \u003ca href=\"/A178705/b178705.txt\"\u003eTable of n, a(n) for n = 1..10000\u003c/a\u003e"
			],
			"formula": [
				"a^d == 1 mod q"
			],
			"example": [
				"18^3 == 1 mod 49"
			],
			"maple": [
				"filter:= proc(n)",
				"  if isprime(n) then return false fi;",
				"  igcd((n-1)/2^padic:-ordp(n-1,2), numtheory:-phi(n)) \u003e 1",
				"end proc:",
				"select(filter, [seq(i,i=9..2000,2)]); # _Robert Israel_, Dec 20 2017"
			],
			"mathematica": [
				"filterQ[n_] := If[PrimeQ[n], False, GCD[(n-1)/2^IntegerExponent[n-1, 2], EulerPhi[n]] \u003e 1];",
				"Select[Range[9, 2000, 2], filterQ] (* _Jean-François Alcover_, Sep 25 2020, after _Robert Israel_ *)"
			],
			"xref": [
				"Cf. A000010, A000265."
			],
			"keyword": "nonn",
			"offset": "1,1",
			"author": "_Karsten Meyer_, Dec 26 2010",
			"ext": [
				"Corrected by _Robert Israel_, Dec 20 2017"
			],
			"references": 1,
			"revision": 15,
			"time": "2020-09-25T05:39:26-04:00",
			"created": "2010-11-12T14:27:35-05:00"
		}
	]
}