{
	"greeting": "Greetings from The On-Line Encyclopedia of Integer Sequences! http://oeis.org/",
	"query": "id:A178885",
	"count": 1,
	"start": 0,
	"results": [
		{
			"number": 178885,
			"data": "0,0,1,3,3,-1,-1,15,31,-1,-65,-1,255,255,-513,-1025,1023,4095,-1,-12289,-8193,32767,49151,-65537,-196609,65535,655359,262143,-1835009,-2097153,4194303,9437183,-6291457,-33554433,-4194305,100663295,83886079,-251658241",
			"name": "Partial sums of Berstel sequence (A007420).",
			"comment": [
				"The subsequence of unique primes begins 3, 31, -12289, -65537. What is the next prime in the sequence?",
				"The next prime in the sequence is -113249697660929, followed by 289815643220546158591. - _Harvey P. Dale_, May 15 2016"
			],
			"link": [
				"Harvey P. Dale, \u003ca href=\"/A178885/b178885.txt\"\u003eTable of n, a(n) for n = 0..1000\u003c/a\u003e",
				"\u003ca href=\"/index/Rec\"\u003eIndex entries for linear recurrences with constant coefficients\u003c/a\u003e, signature (3,-6,8,-4)."
			],
			"formula": [
				"a(n) = SUM[i=0..n] A007420(i) = SUM[i=0..n] a(n+1)=2*a(i)-4*a(i-1)+4*a(i-2).",
				"G.f.: -x^2*(256*x^11-512*x^10+384*x^9-192*x^8+64*x^7-1) / ((x-1)*(4*x^3-4*x^2+2*x-1)). - _Colin Barker_, Apr 20 2013"
			],
			"example": [
				"a(8) = 0 + 0 + 1 + 2 + 0 + -4 + 0 + 16 + 16 = 31 is prime."
			],
			"mathematica": [
				"LinearRecurrence[{3,-6,8,-4},{0,0,1,3},50] (* _Harvey P. Dale_, May 15 2016 *)"
			],
			"xref": [
				"Cf. A007420."
			],
			"keyword": "easy,sign",
			"offset": "0,4",
			"author": "_Jonathan Vos Post_, Dec 28 2010",
			"ext": [
				"Corrected by _Harvey P. Dale_, May 15 2016"
			],
			"references": 1,
			"revision": 20,
			"time": "2016-05-15T09:18:32-04:00",
			"created": "2010-11-12T14:27:50-05:00"
		}
	]
}