{
	"greeting": "Greetings from The On-Line Encyclopedia of Integer Sequences! http://oeis.org/",
	"query": "id:A178316",
	"count": 1,
	"start": 0,
	"results": [
		{
			"number": 178316,
			"data": "2,5,11,19,61,101,109,151,181,199,601,619,659,661,1019,1021,1061,1091,1109,1129,1151,1181,1201,1229,1259,1291,1511,1559,1601,1609,1621,1669,1699,1811,1901,1999,6011,6091,6101,6199,6211,6221,6229,6521,6551,6569",
			"name": "Primes with the property that their digital rotation is still prime.",
			"comment": [
				"This means if written as in a digital clock and rotated 180 degrees around the center the result is also prime (possibly a different prime)."
			],
			"reference": [
				"Guy, R. K., Unsolved Problems in Number Theory, p 15 This sequence is related to the palindromic primes with symmetries as in Guy's book."
			],
			"link": [
				"Seiichi Manyama, \u003ca href=\"/A178316/b178316.txt\"\u003eTable of n, a(n) for n = 1..10000\u003c/a\u003e"
			],
			"example": [
				"For example 1259 becomes 6521 under such a rotation."
			],
			"xref": [
				"Cf. A007500, A055387, A018847."
			],
			"keyword": "nonn,base",
			"offset": "1,1",
			"author": "_David Nacin_, May 24 2010",
			"references": 2,
			"revision": 6,
			"time": "2016-10-31T10:50:54-04:00",
			"created": "2010-06-01T03:00:00-04:00"
		}
	]
}