{
	"greeting": "Greetings from The On-Line Encyclopedia of Integer Sequences! http://oeis.org/",
	"query": "id:A178467",
	"count": 1,
	"start": 0,
	"results": [
		{
			"number": 178467,
			"data": "0,3,6,9,28,30,18,35,32,36,50,66,72,91,154,120,96,187,144,190,100,147,176,184,288,275,208,270,224,261,180,248,288,297,442,420,324,407,342,390,320,410,462,473,660,630,506,611,528,588,450,561,624,636,864,825,672,798,696,767,480,610,682,693,960,910,726,871,748,828,560,710,792,803,1110,1050,836,1001,858,948,560,810,820,830,1176,1105,860,1044",
			"name": "a(n) = n * (number of letters in n in Italian).",
			"comment": [
				"a(0) and a(3) are the only such that a(k)=k*k."
			],
			"formula": [
				"a(n)=A001477(n)*A026858(n)."
			],
			"example": [
				"a(5)=30 since 5=\"cinque\" has 6 letters in Italian and 5*6=30."
			],
			"xref": [
				"Cf. A001477, A026858."
			],
			"keyword": "nonn,word",
			"offset": "0,2",
			"author": "_Carmine Suriano_, Dec 23 2010",
			"ext": [
				"Edited by _N. J. A. Sloane_, Dec 23 2010"
			],
			"references": 1,
			"revision": 11,
			"time": "2013-07-18T08:48:29-04:00",
			"created": "2010-11-12T14:27:09-05:00"
		}
	]
}