{
	"greeting": "Greetings from The On-Line Encyclopedia of Integer Sequences! http://oeis.org/",
	"query": "id:A178002",
	"count": 1,
	"start": 0,
	"results": [
		{
			"number": 178002,
			"data": "7,47,449,4447,44449,444449,7444441,74444449,444444443,4444444447,44444444441,444444444443,5444444444443,84444444444449,494444444444441,8444444444444443,74444444444444441,494444444444444447",
			"name": "Largest n-digit prime with the most digits equal to 4.",
			"comment": [
				"Select first for most 4's, then take the largest."
			],
			"xref": [
				"Cf. A037061, A105980, A099658"
			],
			"keyword": "nonn,base",
			"offset": "1,1",
			"author": "_Lekraj Beedassy_, May 17 2010",
			"references": 0,
			"revision": 5,
			"time": "2012-03-31T10:26:16-04:00",
			"created": "2010-06-01T03:00:00-04:00"
		}
	]
}