{
	"greeting": "Greetings from The On-Line Encyclopedia of Integer Sequences! http://oeis.org/",
	"query": "id:A179721",
	"count": 1,
	"start": 0,
	"results": [
		{
			"number": 179721,
			"data": "0,180,2520,25200,211680,1839600,17186400,168168000,1676875200,16972355400",
			"name": "Number of permutations of 1..n with the sequence of sums of 4 adjacent elements having exactly 2 maxima",
			"keyword": "nonn",
			"offset": "5,2",
			"author": "_R. H. Hardin_ Jul 25 2010",
			"references": 0,
			"revision": 3,
			"time": "2012-03-31T12:35:45-04:00",
			"created": "2010-07-31T03:00:00-04:00"
		}
	]
}