{
	"greeting": "Greetings from The On-Line Encyclopedia of Integer Sequences! http://oeis.org/",
	"query": "id:A179705",
	"count": 1,
	"start": 0,
	"results": [
		{
			"number": 179705,
			"data": "3456,16000,17496,43904,170368,273375,281216,625000,628864,750141,877952,1557376,2109375,2910897,3121792,3813248,4804839,6483584,6588344,8821888,10176896,10744731,13289344,15000633,19056256",
			"name": "Numbers of the form p^7*q^3 where p and q are distinct primes.",
			"link": [
				"T. D. Noe, \u003ca href=\"/A179705/b179705.txt\"\u003eTable of n, a(n) for n = 1..1000\u003c/a\u003e",
				"Will Nicholes, \u003ca href=\"http://willnicholes.com/math/primesiglist.htm\"\u003ePrime Signatures\u003c/a\u003e"
			],
			"formula": [
				"Sum_{n\u003e=1} 1/a(n) = P(3)*P(7) - P(10) = A085541 * A085967 - P(10) = 0.000454..., where P is the prime zeta function. - _Amiram Eldar_, Jul 06 2020"
			],
			"mathematica": [
				"f[n_]:=Sort[Last/@FactorInteger[n]]=={3,7}; Select[Range[100000],f]",
				"With[{nn=25},Take[Union[#[[1]]^7 #[[2]]^3\u0026/@(Flatten[{#,Reverse[ #]}\u0026/@ Subsets[ Prime[Range[nn]],{2}],1])],nn]] (* _Harvey P. Dale_, Jan 01 2016 *)"
			],
			"program": [
				"(PARI) list(lim)=my(v=List(),t);forprime(p=2, (lim\\8)^(1/7), t=p^7;forprime(q=2, (lim\\t)^(1/3), if(p==q, next);listput(v,t*q^3))); vecsort(Vec(v)) \\\\ _Charles R Greathouse IV_, Jul 24 2011"
			],
			"xref": [
				"Cf. A085541, A085967."
			],
			"keyword": "nonn",
			"offset": "1,1",
			"author": "_Vladimir Joseph Stephan Orlovsky_, Jul 24 2010",
			"references": 3,
			"revision": 15,
			"time": "2020-07-06T02:40:14-04:00",
			"created": "2010-07-31T03:00:00-04:00"
		}
	]
}