{
	"greeting": "Greetings from The On-Line Encyclopedia of Integer Sequences! http://oeis.org/",
	"query": "id:A179416",
	"count": 1,
	"start": 0,
	"results": [
		{
			"number": 179416,
			"data": "1,1,0,1,0,0,0,1,1,0,0,0,1,0,1,1,1,1,1,0,1,0,0,0,1,1,0,0,0,1,0,1,1,1,1,1,1,1,0,0,0,1,0,0,0,0,0,0,1,1,0,1,1,0,1,0,0,0,0,1,0,0,0,1,0,1,0,1,1,1,1,1,0,1,0,1,1,0,1,0,1,0,0,1,0,0,1,0,0,0,0,0,1,0,0,0,1,1,0,1,0,0",
			"name": "a(n)=1 if (n modulo 65536)+1 is a quadratic residue of 65537, 0 otherwise.",
			"comment": [
				"This sequence gives essentially the same information as A165471, but in contrast to it (and A165472), the period of this sequence is explicitly defined as 65536 (instead of 65537), so that in essence the zeros at A165471(k*65537) are silently skipped. Several derived sequences to be computed."
			],
			"link": [
				"A. Karttunen, \u003ca href=\"/A179416/b179416.txt\"\u003eTable of n, a(n) for n = 0..65535\u003c/a\u003e"
			],
			"formula": [
				"a(n) = 1 if A165471(1+(n%65536))=+1, otherwise 0. Period 65536."
			],
			"program": [
				"(MIT Scheme:)",
				"(define (A179416 n) (1+halved (A165471 (1+ (modulo n 65536)))))",
				"(define (1+halved n) (floor-\u003eexact (/ (1+ n) 2)))",
				"(Sage)",
				"def A179416_list(n) :  # for n \u003c= 65536",
				"    Q = quadratic_residues(65537)",
				"    return [int(i in Q) for i in (1..n)]",
				"A179416_list(102) # _Peter Luschny_, Aug 08 2012"
			],
			"keyword": "nonn",
			"offset": "0,1",
			"author": "_Antti Karttunen_, Jul 27 2010",
			"references": 1,
			"revision": 7,
			"time": "2012-08-09T06:25:48-04:00",
			"created": "2010-07-31T03:00:00-04:00"
		}
	]
}