{
	"greeting": "Greetings from The On-Line Encyclopedia of Integer Sequences! http://oeis.org/",
	"query": "id:A179869",
	"count": 1,
	"start": 0,
	"results": [
		{
			"number": 179869,
			"data": "2,4,3,6,5,10,7,14,8,10,9,12,11,22,13,26,15,18,16,18,17,34",
			"name": "Jumping to the multiples or from previous first multiples and returning to the next number not used yet.",
			"comment": [
				"2 go to 4 and return to next number = 3, 3 go to 6 and return to next number = 5, 5 go to 10 and return to next number = 7, 7 go to 14 and return to next number = 8, 8 go to 10 (hit by previous multiple of 2) and return to next number = 9, 9 go to 12 (hit by previous multiple of 3) and return to next number = 11, and so on."
			],
			"xref": [
				"Cf. A000040"
			],
			"keyword": "easy,nonn",
			"offset": "0,1",
			"author": "_Odimar Fabeny_, Jul 30 2010",
			"references": 1,
			"revision": 5,
			"time": "2013-02-24T13:03:22-05:00",
			"created": "2010-07-31T03:00:00-04:00"
		}
	]
}