{
	"greeting": "Greetings from The On-Line Encyclopedia of Integer Sequences! http://oeis.org/",
	"query": "id:A179219",
	"count": 1,
	"start": 0,
	"results": [
		{
			"number": 179219,
			"data": "0,2,4,9,8,10,11,49,45,29,289,1372,91125",
			"name": "Iterative mapping: a(1)=0, a(n)=A095904(a(n-1)).",
			"comment": [
				"a(14) is greater than 10^10 and of the form (p^14)(q^2) where p and q are distinct primes."
			],
			"link": [
				"Will Nicholes, \u003ca href=\"http://willnicholes.com/math/primesigmap.htm\"\u003eIterative mapping of prime signatures\u003c/a\u003e."
			],
			"xref": [
				"Cf. A095904, A179220."
			],
			"keyword": "nonn",
			"offset": "1,2",
			"author": "_Will Nicholes_, Jul 10 2010",
			"references": 1,
			"revision": 2,
			"time": "2012-03-31T14:41:48-04:00",
			"created": "2010-07-11T03:00:00-04:00"
		}
	]
}