{
	"greeting": "Greetings from The On-Line Encyclopedia of Integer Sequences! http://oeis.org/",
	"query": "id:A179444",
	"count": 1,
	"start": 0,
	"results": [
		{
			"number": 179444,
			"data": "81,91,121,141,161,201,221,261,301,321,341,351,361,381,391,441,451,481,501,511,551,561,581,621,651,681,721,741,771,781,801,841,851,861,871,901,921,931,951,961,981,1001,1041,1081,1101,1111,1121,1141,1161,1191,1211,1221,1241,1251,1261,1281,1331",
			"name": "Composite numbers m of the form m = 10k + 1 where k is also composite.",
			"comment": [
				"Corresponding values of k in A179443."
			],
			"link": [
				"Robert Israel, \u003ca href=\"/A179444/b179444.txt\"\u003eTable of n, a(n) for n = 1..10000\u003c/a\u003e"
			],
			"maple": [
				"select(t -\u003e not isprime((t-1)/10) and not isprime(t), [seq(i,i=21..10001,10)]); # _Robert Israel_, Jun 11 2019"
			],
			"mathematica": [
				"Select[10#+1\u0026/@Select[Range[100],!PrimeQ[#]\u0026],!PrimeQ[#]\u0026] (* _Harvey P. Dale_, Dec 01 2013 *)"
			],
			"keyword": "nonn",
			"offset": "1,1",
			"author": "_Jaroslav Krizek_, Jul 14 2010",
			"ext": [
				"More terms from _Robert Israel_, Jun 11 2019"
			],
			"references": 2,
			"revision": 8,
			"time": "2019-06-11T19:56:08-04:00",
			"created": "2010-07-31T03:00:00-04:00"
		}
	]
}