{
	"greeting": "Greetings from The On-Line Encyclopedia of Integer Sequences! http://oeis.org/",
	"query": "id:A179302",
	"count": 1,
	"start": 0,
	"results": [
		{
			"number": 179302,
			"data": "0,1,2,3,4,5,10,11,12,18,19,20,29,30,31,32,36,37,39,43,55,56,61,62,65,72,77,104,142,154,169,191,197,200,229,258,267,276,375,407,408,411,412,437,440,456,539,597,607,621,629,653,660,663,724,742,743,759,760,768",
			"name": "Indices of primes occurring in A034050.",
			"link": [
				"Dmitry Kamenetsky, \u003ca href=\"/A179302/b179302.txt\"\u003eTable of n, a(n) for n = 0..1000\u003c/a\u003e"
			],
			"mathematica": [
				"Flatten[Position[Sort[Flatten[Table[FromDigits/@Permutations[Join[{3},PadRight[{},n,1]]],{n,0,50}]]],_?PrimeQ]]-1 (* _Harvey P. Dale_, Jul 16 2012 *)"
			],
			"xref": [
				"Cf. A034050, A107689, A179303."
			],
			"keyword": "nonn",
			"offset": "0,3",
			"author": "_Dmitry Kamenetsky_, Jul 10 2010",
			"references": 2,
			"revision": 7,
			"time": "2016-08-28T18:23:42-04:00",
			"created": "2010-07-11T03:00:00-04:00"
		}
	]
}