{
	"greeting": "Greetings from The On-Line Encyclopedia of Integer Sequences! http://oeis.org/",
	"query": "id:A179752",
	"count": 1,
	"start": 0,
	"results": [
		{
			"number": 179752,
			"data": "0,1,1,2,1,2,2,2,3,1,2,2,2,3,2,2,2,2,3,3,3,3,4,1,2,2,2,3,2,2,2,2,3,3,3,3,4,2,2,2,2,3,2,2,2,2,3,3,3,3,4,3,3,3,3,3,3,3,3,4,4,4,4,4,5,1,2,2,2,3,2,2,2,2,3,3,3,3,4,2,2,2,2,3,2,2,2,2,3,3,3,3,4,3,3,3,3,3,3,3,3,4",
			"name": "Maximum depth of parenthesizations encoded by A014486, or correspondingly, maximum height for the equivalent general trees.",
			"comment": [
				"Each integer n appears first at position given by A014138."
			],
			"link": [
				"A. Karttunen, \u003ca href=\"/A179752/b179752.txt\"\u003eTable of n, a(n) for n = 0..2055\u003c/a\u003e"
			],
			"example": [
				"The terms A014486[1..8] encode the following rooted plane general trees:",
				".1.......2.......3.......4.......5.......6.......7.......8.",
				"...........................................................",
				".........................................................o.",
				".........................................................|.",
				".................o.................o...o.......o...o.....o.",
				".................|.................|...|........\\./......|.",
				".o.....o...o.....o.....o.o.o...o...o...o...o.....o.......o.",
				".|......\\./......|......\\|/.....\\./.....\\./......|.......|.",
				".*.......*.......*.......*.......*.......*.......*.......*.",
				"and the corresponding parenthesizations:",
				".().....()()....(())...()()()..()(())..(())()..(()())..((()))",
				"thus a(1)=1, a(2)=1, a(3)=2, a(4)=1, a(5)=2, a(6)=2, a(7)=2, a(8)=3."
			],
			"xref": [
				"Cf. A179751, A126303, A126304, A080237, A085197."
			],
			"keyword": "nonn",
			"offset": "0,4",
			"author": "_Antti Karttunen_, Aug 03 2010",
			"references": 6,
			"revision": 3,
			"time": "2012-03-31T13:21:20-04:00",
			"created": "2010-08-27T03:00:00-04:00"
		}
	]
}