{
	"greeting": "Greetings from The On-Line Encyclopedia of Integer Sequences! http://oeis.org/",
	"query": "id:A179999",
	"count": 1,
	"start": 0,
	"results": [
		{
			"number": 179999,
			"data": "1,2,2,4,6,8,10,14,18,24,30,40,50,66,82,108,134,176,218,286,354,464,574,752,930,1218,1506,1972,2438,3192,3946,5166,6386,8360,10334,13528,16722,21890,27058,35420,43782,57312,70842,92734,114626,150048",
			"name": "Length of the n-th term in the modified Look and Say sequence A110393.",
			"comment": [
				"The average multiplicative growth from the n-th term to the (n+1)-st term is sqrt(phi) = 1.272..., where phi = (1+sqrt(5))/2 is the golden ratio, see A139339."
			],
			"link": [
				"Colin Barker, \u003ca href=\"/A179999/b179999.txt\"\u003eTable of n, a(n) for n = 1..1000\u003c/a\u003e",
				"N. Johnston, \u003ca href=\"http://www.nathanieljohnston.com/2011/01/further-variants-of-the-look-and-say-sequence/\"\u003eFurther Variants of the “Look-and-Say” Sequence\u003c/a\u003e",
				"\u003ca href=\"/index/Rec#order_05\"\u003eIndex entries for linear recurrences with constant coefficients\u003c/a\u003e, signature (1,1,-1,1,-1)."
			],
			"formula": [
				"a(n) = length(A110393(n)).",
				"From _Colin Barker_, Aug 10 2019: (Start)",
				"G.f.: x*(1 + x)*(1 + x - x^2)*(1 - x + x^2) / ((1 - x)*(1 - x^2 - x^4)).",
				"a(n) = a(n-1) + a(n-2) - a(n-3) + a(n-4) - a(n-5) for n\u003e6.",
				"(End)",
				"From _A.H.M. Smeets_, Aug 10 2019 (Start)",
				"Lim_{n -\u003e inf} a(n+1)/a(n) = (1+phi)/2 = (3+sqrt(5)/4 = A239798 for odd n.",
				"Lim_{n -\u003e inf} a(n+1)/a(n) = 2/phi = 4/(1+sqrt(5)) = A134972 for even n.",
				"Lim_{n -\u003e inf} a(n+2)/a(n) = (1+phi)/phi = phi = A001622. (End)",
				"For odd n \u003e 1, a(n) = 4*Fibonacci((n + 1)/2) - 2. For even n, a(n) = 2*Fibonacci(n/2 + 2) - 2. - _Ehren Metcalfe_, Aug 10 2019"
			],
			"example": [
				"The 6th term in A110393 is 21112211, so a(6) = 8."
			],
			"mathematica": [
				"CoefficientList[Series[((1+x) (-1-x+x^2) (1-x+x^2))/((1-x) (-1+x^2+x^4)),{x,0,99}],x] (* _Peter J. C. Moses_, Jun 23 2013 *)"
			],
			"program": [
				"(PARI) Vec(x*(1 + x)*(1 + x - x^2)*(1 - x + x^2) / ((1 - x)*(1 - x^2 - x^4)) + O(x^50)) \\\\ _Colin Barker_, Aug 10 2019"
			],
			"xref": [
				"Cf. A005341, A049194, A098596, A110393.",
				"Cf. A001622, A134972, A139339, A239798."
			],
			"keyword": "nonn,base,easy",
			"offset": "1,2",
			"author": "_Nathaniel Johnston_, Jan 13 2011",
			"references": 2,
			"revision": 36,
			"time": "2019-08-23T14:37:09-04:00",
			"created": "2010-11-12T14:29:23-05:00"
		}
	]
}