{
	"greeting": "Greetings from The On-Line Encyclopedia of Integer Sequences! http://oeis.org/",
	"query": "id:A179685",
	"count": 1,
	"start": 0,
	"results": [
		{
			"number": 179685,
			"data": "1,0,1,1,5,16,80,436,2891,22248,198774,2029140,23310386,296407466,4109654354,61348443380,976111067870,16423368282336,290404344321126,5370042566624118,103427555919931446",
			"name": "The dimension of the space of invariant tensors in the n-th tensor power of the adjoint representation of the exceptional Lie algebra F4.",
			"comment": [
				"This is known to satisfy a linear recurrence relation with polynomial coefficients. The limit of a(n+1)/a(n) is 52."
			],
			"example": [
				"The n-th tensor power is the trivial representation for n=0 and is the adjoint representation for n=1. For n=2 every invariant tensor is a scalar multiple of a Killing form."
			],
			"keyword": "nonn",
			"offset": "0,5",
			"author": "_Bruce Westbury_, Jul 24 2010",
			"references": 0,
			"revision": 5,
			"time": "2015-02-17T20:56:40-05:00",
			"created": "2010-07-31T03:00:00-04:00"
		}
	]
}