{
	"greeting": "Greetings from The On-Line Encyclopedia of Integer Sequences! http://oeis.org/",
	"query": "id:A179778",
	"count": 1,
	"start": 0,
	"results": [
		{
			"number": 179778,
			"data": "1,4,4,5,2,5,3,6,2,1,1,4,2,1,1,4,2,1,1,4,2,5,2,1,6,8,1,4,5,3,2,5,2,2,5,2,1,4,4,5,2,1,1,4,2,1,1,4,2,2,5,2,5,4,4,1,1,1,1,1,1,1,1,1,1,1,1,1,1,1,1,1,1,1,1,1,1,1,1,1,1,1,1,1,1,1,1,1,1,1,1,1,1,1,1,1,1,1,1,1,1,1",
			"name": "First differences of A179777.",
			"link": [
				"A. Karttunen, \u003ca href=\"/A179778/b179778.txt\"\u003eTable of n, a(n) for n = 1..150\u003c/a\u003e"
			],
			"formula": [
				"a(n) = A179777(n+1)-A179777(n)."
			],
			"xref": [
				"Cf. A179779, and also A179773, A179833."
			],
			"keyword": "nonn",
			"offset": "1,2",
			"author": "_Antti Karttunen_, Aug 03 2010",
			"references": 4,
			"revision": 3,
			"time": "2012-03-31T13:21:20-04:00",
			"created": "2010-08-27T03:00:00-04:00"
		}
	]
}