{
	"greeting": "Greetings from The On-Line Encyclopedia of Integer Sequences! http://oeis.org/",
	"query": "id:A179554",
	"count": 1,
	"start": 0,
	"results": [
		{
			"number": 179554,
			"data": "1,1,1,1,1,1,2,5,29,1241,3642581,80305336110269,93845241317908146817718208193,1831028415236189172750287983272896126569309241020364043033034",
			"name": "a(n) = ( ( a(n-1) * a(n-5) )^2 + ( a(n-2) * a(n-3)^2 * a(n-4) )^2 ) / a(n-6), a(1) = ... = a(6) = 1.",
			"comment": [
				"Similar to Somos-6 sequence but the recurrence is not bilinear.",
				"log( log( a(n))) ~ n * log(c) where c = 2.0810189966245... is largest root of 0 = x^4 - x^3 - 2*x^2 - x + 1 according to Hone."
			],
			"link": [
				"G. C. Greubel, \u003ca href=\"/A179554/b179554.txt\"\u003eTable of n, a(n) for n = 1..17\u003c/a\u003e",
				"A. P. Fordy and R. J. Marsh, \u003ca href=\"http://arxiv.org/abs/0904.0200\"\u003eCluster Mutation-Periodic Quivers and Associated Laurent Sequences\u003c/a\u003e, arXiv:0904.0200 [math.CO], 2009-2011.",
				"A. N. W. Hone, \u003ca href=\"http://arxiv.org/abs/math/0702280\"\u003eLaurent Polynomials and Superintegrable Maps\u003c/a\u003e, arXiv:math/0702280 [math.NT], 2007."
			],
			"formula": [
				"a(n) = a(7 - n)."
			],
			"mathematica": [
				"a[1] = a[2] = a[3] = a[4] = a[5] = a[6] = 1; a[n_ /; n \u003c 1] := a[7 - n];",
				"a[n_ /; n \u003e 6] := a[n] = ((a[n - 1] a[n - 5])^2 + (a[n - 2] a[n - 3]^2 a[n - 4])^2)/ a[n - 6];"
			],
			"program": [
				"(MAGMA) I:=[1,1,1,1,1,1]; [n le 6 select I[n] else ((Self(n-1)*Self(n-5) )^2 + (Self(n-2)*Self(n-3)^2*Self(n-4))^2 )/Self(n-6): n in [1..20]]; // _G. C. Greubel_, Aug 14 2018"
			],
			"keyword": "nonn",
			"offset": "1,7",
			"author": "_Michael Somos_, Jan 08 2011",
			"references": 6,
			"revision": 14,
			"time": "2018-08-15T12:39:46-04:00",
			"created": "2010-11-12T14:28:59-05:00"
		}
	]
}