{
	"greeting": "Greetings from The On-Line Encyclopedia of Integer Sequences! http://oeis.org/",
	"query": "id:A179787",
	"count": 1,
	"start": 0,
	"results": [
		{
			"number": 179787,
			"data": "2,1,2,4,6,1,4,4,2,6,3,16,18,2,3,8,20,1,6,28,30,7,16,10,18,18,2,8,42,8,11,18,42,20,4,52,20,3,28,26,10,30,15,10,22,12,8,28,12,18,18,28,78,1,8,38,14,42,9,88,4,22,23,28,48,42,18,100,34,3,52,50,22,20,9,112,38,22,23,38",
			"name": "Let the operation \u003c+\u003e be defined by x\u003c+\u003ey = A038502(x+y). a(n) is the period length in the track of the iterated application x\u003c+\u003e(x\u003c+\u003e....(x\u003c+\u003e1)) for x = A001651(n-1).",
			"comment": [
				"The symbol \u003c+\u003e removes powers of three of the sum of the two operands.",
				"The process of starting with 1, adding some constant number x =A001651(n-1) and reducing it iteratively with this operation defines a track 1, x\u003c+\u003e1, x\u003c+\u003e(x\u003c+\u003e1),... which enters a cycle.",
				"The period of this cycle specifies a(n).",
				"Similar iterated reductions can be defined for power bases m other than 3."
			],
			"example": [
				"For n=5 we take x=A001651(4)=7. The iteration yields 1, 7\u003c+\u003e1=8, 7\u003c+\u003e8=5, 7\u003c+\u003e5=4, 7\u003c+\u003e4=11, 7\u003c+\u003e11=2, 7\u003c+\u003e2=1.",
				"We have reached the 1 of the beginning and therefore a cycle of length a(5)=6."
			],
			"maple": [
				"A038502 := proc(n) a := 1; for p in ifactors(n)[2] do if op(1,p) \u003c\u003e 3 then a := a*op(1,p)^op(2,p) ; end if; end do; a ; end proc:",
				"A179787aux := proc(x,y) local xtrack,xitr,xpos ; xtrack := [y] ; while true do xitr := A038502(op(-1,xtrack)+x) ;",
				"if not member(xitr, xtrack,'xpos') then xtrack := [op(xtrack),xitr] ; else return 1+nops(xtrack)-xpos ; end if; end do: end proc:",
				"A001651 := proc(n) option remember; if n \u003c=2 then n; else procname(n-2)+3 ; end if; end proc:",
				"A179787 := proc(n) A179787aux(A001651(n),1) ; end proc: seq(A179787(n),n=1..80) ; # _R. J. Mathar_, Nov 04 2010"
			],
			"xref": [
				"Cf. A179382, A179480, A179686, A179738."
			],
			"keyword": "nonn",
			"offset": "1,1",
			"author": "_Vladimir Shevelev_, Jul 27 2010",
			"ext": [
				"a(22) corrected, definition tightened removing new terminology, sequence extended beyond a(55) by _R. J. Mathar_, Nov 04 2010"
			],
			"references": 2,
			"revision": 7,
			"time": "2019-05-10T22:15:43-04:00",
			"created": "2010-07-31T03:00:00-04:00"
		}
	]
}