{
	"greeting": "Greetings from The On-Line Encyclopedia of Integer Sequences! http://oeis.org/",
	"query": "id:A179591",
	"count": 1,
	"start": 0,
	"results": [
		{
			"number": 179591,
			"data": "1,6,5,7,9,7,4,9,7,5,2,9,8,8,1,9,7,0,4,6,0,9,4,0,4,6,3,4,4,3,6,3,2,2,4,6,1,8,1,0,2,6,3,6,0,9,6,1,1,7,6,5,5,1,8,1,8,7,4,7,4,4,0,5,7,2,7,5,9,4,3,4,8,4,5,8,2,6,9,3,5,7,3,8,2,0,3,5,8,2,7,9,0,0,1,9,1,2,0,4,8,2,6,8,1",
			"name": "Decimal expansion of the surface area of pentagonal cupola with edge length 1.",
			"comment": [
				"Pentagonal cupola: 15 vertices, 25 edges, and 12 faces."
			],
			"link": [
				"Wolfram Alpha, \u003ca href=\"http://www.wolframalpha.com/input/?i=Johnson+solid+5\"\u003eJohnson solid 5\u003c/a\u003e"
			],
			"formula": [
				"Digits of (20+sqrt(10*(80+31*sqrt(5)+sqrt(2175+930*sqrt(5)))))/4."
			],
			"example": [
				"16.5797497529881970460940463443632246181026360961176551818747440..."
			],
			"mathematica": [
				"RealDigits[N[(20+Sqrt[10*(80+31*Sqrt[5]+Sqrt[2175+930*Sqrt[5]])])/4,200]]"
			],
			"xref": [
				"Cf. A001622, A010527, A102208, A179290, A179292, A179294, A179449, A179450, A179451, A179452, A179552, A179553, A019881, A179587, A179588, A179589, A179590."
			],
			"keyword": "nonn,cons,easy",
			"offset": "2,2",
			"author": "_Vladimir Joseph Stephan Orlovsky_, Jul 19 2010",
			"references": 5,
			"revision": 4,
			"time": "2012-03-31T12:38:37-04:00",
			"created": "2010-07-31T03:00:00-04:00"
		}
	]
}