{
	"greeting": "Greetings from The On-Line Encyclopedia of Integer Sequences! http://oeis.org/",
	"query": "id:A179904",
	"count": 1,
	"start": 0,
	"results": [
		{
			"number": 179904,
			"data": "1,3,7,16,32,57,93,142,206,287,387,508,652,821,1017,1242,1498,1787,2111,2472,2872,3313,3797,4326,4902,5527,6203,6932,7716,8557,9457,10418,11442,12531,13687,14912,16208,17577,19021,20542,22142,23823,25587",
			"name": "a(n) = A056520(n)+1 for n\u003e0, a(0)=1.",
			"comment": [
				"Original name: (1,3,5,7,9,..) = A005408 convolved with (1,0,2,3,4,..) = 1 followed by A087156."
			],
			"link": [
				"Vincenzo Librandi, \u003ca href=\"/A179904/b179904.txt\"\u003eTable of n, a(n) for n = 0..10000\u003c/a\u003e",
				"\u003ca href=\"/index/Rec#order_04\"\u003eIndex entries for linear recurrences with constant coefficients\u003c/a\u003e, signature (4,-6,4,-1)."
			],
			"formula": [
				"From _Bruno Berselli_, Aug 26 2011: (Start)",
				"G.f.: (1 + x)*(1 - 2*x + 3*x^2 - x^3)/(1 - x)^4.",
				"a(n) = (1/6)*(2*n^3 + 3*n^2 + n + 12) for n\u003e0, a(0)=1. (End)",
				"a(n) = A153056(n) for n \u003e 0. - _Georg Fischer_, Oct 24 2018"
			],
			"example": [
				"a(3) = 16 = 1 + A056250(3) = (1 + 15).",
				"a(4) = 32 = (9, 7, 5, 3, 1) dot (1, 0, 2, 3, 4) = (9 + 0 + 10 + 9 + 4)."
			],
			"mathematica": [
				"LinearRecurrence[{4,-6,4,-1},{1,3,7,16,32},50] (* _Harvey P. Dale_, Apr 25 2020 *)"
			],
			"xref": [
				"Cf. A056520, A153056."
			],
			"keyword": "nonn,easy",
			"offset": "0,2",
			"author": "_Gary W. Adamson_, Jul 31 2010",
			"ext": [
				"More terms and a(20) added by _Bruno Berselli_, Aug 26 2011"
			],
			"references": 1,
			"revision": 29,
			"time": "2020-04-25T15:51:06-04:00",
			"created": "2010-08-27T03:00:00-04:00"
		}
	]
}