{
	"greeting": "Greetings from The On-Line Encyclopedia of Integer Sequences! http://oeis.org/",
	"query": "id:A179538",
	"count": 1,
	"start": 0,
	"results": [
		{
			"number": 179538,
			"data": "3,5,7,11,13,19,23,29,37,47,53,59,61,67,71,79,83,101,103,107,121,131,139,149,163,167,173,179,181,191,197,199,211,227,239,263,269,271,293,311,317,347,349,359,367,373,379,383,389,419,421,443,461,463,467,479",
			"name": "Numbers 2n+1 for which A003558(n), n\u003e=1, are record values of A003558.",
			"comment": [
				"Conjecture. All terms are primes except for a finite set of squares of primes.",
				"All terms from a(1) to a(5000) are primes except for a(21) = 121 = 11^2, supporting V. Shevelev's conjecture. [_John W. Layman_, Jul 22 2010]"
			],
			"link": [
				"Amiram Eldar, \u003ca href=\"/A179538/b179538.txt\"\u003eTable of n, a(n) for n = 1..10000\u003c/a\u003e"
			],
			"mathematica": [
				"s = {}; am = 0; Do[a = Min[MultiplicativeOrder[2, n, {-1, 1}]]; If[a \u003e am, am = a; AppendTo[s, n]], {n, 3, 480, 2}]; s (* _Amiram Eldar_, Sep 13 2019 *)"
			],
			"xref": [
				"Cf. A003558, A139099, A179383, A179481."
			],
			"keyword": "nonn",
			"offset": "1,1",
			"author": "_Vladimir Shevelev_, Jul 18 2010",
			"ext": [
				"a(31)-a(56) from _John W. Layman_, Jul 22 2010"
			],
			"references": 1,
			"revision": 9,
			"time": "2019-09-13T08:04:37-04:00",
			"created": "2010-07-31T03:00:00-04:00"
		}
	]
}