{
	"greeting": "Greetings from The On-Line Encyclopedia of Integer Sequences! http://oeis.org/",
	"query": "id:A179931",
	"count": 1,
	"start": 0,
	"results": [
		{
			"number": 179931,
			"data": "1,1,2,7,2,2,2,5,13,2,2,14,2,2,4,31,2,13,2,42,4,2,2,10,31,2,20,14,2,4,2,21,4,2,4,91,2,10,4,10,2,4,2,42,26,2,2,62,57,93,4,14,2,20,4,10,20,10,2,84,2,2,26,127,4,4,2,42,4,4,2,65,2,2,62,14,4,4,2,62,121,2,2,28,4,2,20,10,2,26,4,42,4,2,4,42,2,57,26,217",
			"name": "a(n) = gcd(sigma(n), sigma_2(n)).",
			"comment": [
				"A006530(a(n)) = A082066(n). - _Reinhard Zumkeller_, Jul 10 2011, the latter A-number corrected by _Antti Karttunen_, May 22 2017.",
				"Not multiplicative: a(2)*a(19) \u003c\u003e a(38). - _R. J. Mathar_, Oct 08 2011"
			],
			"link": [
				"Reinhard Zumkeller, \u003ca href=\"/A179931/b179931.txt\"\u003eTable of n, a(n) for n = 1..10000\u003c/a\u003e"
			],
			"maple": [
				"A179931 := proc(n) igcd( numtheory[sigma](n), numtheory[sigma][2](n)) ; end proc:",
				"seq(A179931(n),n=1..100) ;"
			],
			"mathematica": [
				"Table[GCD @@ Map[DivisorSigma[#, n] \u0026, {1, 2}], {n, 100}] (* _Michael De Vlieger_, May 22 2017 *)"
			],
			"program": [
				"(PARI) a(n)=gcd(sigma(n),sigma(n,2)) \\\\ _Charles R Greathouse IV_, Feb 14 2013"
			],
			"xref": [
				"Cf. A179930, A000203, A001157, A082066, A009194."
			],
			"keyword": "nonn",
			"offset": "1,3",
			"author": "_N. J. A. Sloane_, Jul 09 2011, following a suggestion from _R. J. Mathar_",
			"references": 7,
			"revision": 31,
			"time": "2019-08-02T21:32:22-04:00",
			"created": "2011-07-09T13:36:33-04:00"
		}
	]
}