{
	"greeting": "Greetings from The On-Line Encyclopedia of Integer Sequences! http://oeis.org/",
	"query": "id:A179929",
	"count": 1,
	"start": 0,
	"results": [
		{
			"number": 179929,
			"data": "1,2,2,-6,-30,42,882,954,-39870,-203958,2300562,29677914,-120958110,-4657703958,-7059175758,807984602874,6667870853250,-145556787011958,-2827006784652078,21703953751815834,1108558810703202210",
			"name": "a(n) = 2^n*A(n, -1/2), A(n, x) the Eulerian polynomials.",
			"link": [
				"Stanislav Sykora, \u003ca href=\"/A179929/b179929.txt\"\u003eTable of n, a(n) for n = 0..199\u003c/a\u003e",
				"OEIS Wiki, \u003ca href=\"http://oeis.org/wiki/Eulerian_polynomials\"\u003e Eulerian polynomials\u003c/a\u003e"
			],
			"formula": [
				"From _Philippe Deléham_, Dec 22 2011: (Start)",
				"a(n) = Sum_{k, 0\u003c=k\u003c=n} A123125(n,k)*(-1)^(n-k)*2^k",
				"a(n) = Sum_{k, 0\u003c=k\u003c=n} A173018(n,k)*2^(n-k)*(-1)^k. (End)",
				"From _Peter Bala_, Mar 12 2013: (Start)",
				"E.g.f.: 3/(1 + 2exp(-3x)) = 1 + 2x + 2x^2/2! - 6x^3/3! - 30x^4/4! + ....",
				"Recurrence equation: a(n+1) = 3a(n) - Sum_{k=0..n} binomial(n,k) a(k)a(n-k).",
				"(-1)^n*a(n) are the coefficients of a delta operator associated with a sequence of polynomials of binomial type - see A195205. (End)",
				"a(n) ~ n! * 2*3^(n+1)/(Pi^2+(log(2))^2)^(n/2+1) * (Pi*sin(n*arctan(Pi/log(2))) - log(2)*cos(n*arctan(Pi/log(2)))). - _Vaclav Kotesovec_, Oct 09 2013",
				"From _Stanislav Sykora_, May 15 2014: (Start)",
				"a(n) = -2*A212846(n) for n \u003e 0.",
				"a(n) = -3^(n+1)*Li(-n, -1/2), with Li(-n, x) = Sum_{k\u003e=0} ((k^n)*(x^k)) the polylogarithm.",
				"a(n) = Sum_{k=0..n} 3^(n-k)*(-1)^k*k!*S(n+1, k+1), S(m, l) the Stirling number of second kind. (End)"
			],
			"mathematica": [
				"a[n_] := Sum[3^(n-k) (-1)^k k! StirlingS2[n+1, k+1], {k, 0, n}];",
				"Table[a[n], {n, 0, 20}] (* _Jean-François Alcover_, Jun 17 2019 *)"
			],
			"program": [
				"(PARI) A179929(n) = {local(s,k,term);",
				"  term = 3^n;s = term*stirling(n+1,1,2);",
				"  for (k=1,n,term *= -k/3;s += term*stirling(n+1,k+1,2););",
				"return(s);} // - _Stanislav Sykora_, May 15 2014"
			],
			"xref": [
				"Cf. A000629 = 2^n*A(n, 1/2).",
				"Cf. A212846, A123125, A173018, A195205."
			],
			"keyword": "sign",
			"offset": "0,2",
			"author": "_Peter Luschny_, Aug 03 2010",
			"references": 3,
			"revision": 31,
			"time": "2019-06-26T10:05:55-04:00",
			"created": "2010-08-27T03:00:00-04:00"
		}
	]
}