{
	"greeting": "Greetings from The On-Line Encyclopedia of Integer Sequences! http://oeis.org/",
	"query": "id:A180841",
	"count": 1,
	"start": 0,
	"results": [
		{
			"number": 180841,
			"data": "1,1,19,596,37423,3746117,545626043,109162526742,28754907355070",
			"name": "Number of nX3 arrays containing 3 indistinguishable copies of 1..n with lexicographical ordering of rows strictly increasing and columns strictly decreasing",
			"comment": [
				"Column 3 of A180843"
			],
			"example": [
				"All solutions for 3X3",
				"..1..1..1....2..1..1....2..1..1....2..1..1....2..1..1....2..1..1....2..1..1",
				"..3..2..2....2..2..1....2..3..1....2..3..1....2..3..1....2..3..2....2..3..2",
				"..3..3..2....3..3..3....2..3..3....3..3..2....3..2..3....3..3..1....3..1..3",
				"...",
				"..2..1..1....2..1..1....2..1..1....2..1..1....2..2..1....2..2..1....2..2..1",
				"..2..3..3....3..2..1....3..2..1....3..2..2....3..1..1....3..1..1....3..1..2",
				"..3..2..1....3..3..2....3..2..3....3..3..1....3..3..2....3..2..3....3..3..1",
				"...",
				"..2..2..1....2..2..1....2..2..1....2..2..2....3..1..1",
				"..3..1..2....3..1..3....3..2..1....3..1..1....3..2..1",
				"..3..1..3....3..2..1....3..3..1....3..3..1....3..2..2"
			],
			"keyword": "nonn",
			"offset": "1,3",
			"author": "_R. H. Hardin_ Sep 20 2010",
			"references": 0,
			"revision": 2,
			"time": "2012-03-31T12:35:48-04:00",
			"created": "2010-10-02T03:00:00-04:00"
		}
	]
}