{
	"greeting": "Greetings from The On-Line Encyclopedia of Integer Sequences! http://oeis.org/",
	"query": "id:A180293",
	"count": 1,
	"start": 0,
	"results": [
		{
			"number": 180293,
			"data": "1,50,195,392,672,1080,1650,2420,3432,4732,6370,8400,10880,13872,17442,21660,26600,32340,38962,46552,55200,65000,76050,88452,102312,117740,134850,153760,174592,197472,222530,249900,279720,312132,347282,385320",
			"name": "Number of arrangements of n indistinguishable balls in n boxes with the maximum number of balls in any box equal to n-3.",
			"link": [
				"R. H. Hardin, \u003ca href=\"/A180293/b180293.txt\"\u003eTable of n, a(n) for n=4..59\u003c/a\u003e"
			],
			"formula": [
				"Empirical: a(n) = n*binomial(n+1, n-2) for n\u003e6."
			],
			"xref": [
				"(n-3)rd entry in rows of A180281."
			],
			"keyword": "nonn",
			"offset": "4,2",
			"author": "_R. H. Hardin_, formula from _Robert Gerbicz_ in the Sequence Fans Mailing List, Aug 24 2010",
			"references": 1,
			"revision": 10,
			"time": "2014-04-10T09:14:34-04:00",
			"created": "2010-08-27T03:00:00-04:00"
		}
	]
}