{
	"greeting": "Greetings from The On-Line Encyclopedia of Integer Sequences! http://oeis.org/",
	"query": "id:A180110",
	"count": 1,
	"start": 0,
	"results": [
		{
			"number": 180110,
			"data": "2,51,70,101,122,145,318,333,344,369,402,453,456,485,496,573,578,719,782,809,852,977,1062,1141,1264,1279,1400,1451,1470,1539,1582,1671,1678,1683,1720,1755,1766,1779,1780,1795,1888,1899,1942,1979,2006,2061,2078",
			"name": "Numbers m such that A180076(m-2) \u003c A180076(m-1) \u003c A180076(m).",
			"comment": [
				"A180076(a(n)) = 9*A180076(a(n)-2)+4 = 3*(3*A180076(a(n)-2)+1)+1."
			],
			"link": [
				"Reinhard Zumkeller, \u003ca href=\"/A180110/b180110.txt\"\u003eTable of n, a(n) for n = 1..750\u003c/a\u003e"
			],
			"example": [
				"a(1)=2: A180076(0..2) = (0,1,4);",
				"a(2)=51: A180076(49..51) = (15,46,139);",
				"a(39)=a(38)+1=1780: A180076(1777..1780) = (494,1483,4450,13331)."
			],
			"program": [
				"(Haskell)",
				"import Data.List (elemIndices)",
				"a180110 n = a180110_list !! (n-1)",
				"a180110_list = map (+ 2) $ elemIndices True $ zipWith (\u0026\u0026) zs (tail zs)",
				"   where zs = zipWith (\u003c) a180076_list (tail a180076_list)",
				"-- _Reinhard Zumkeller_, Feb 19 2013"
			],
			"keyword": "nonn,base",
			"offset": "1,1",
			"author": "_Reinhard Zumkeller_, Aug 14 2010",
			"references": 2,
			"revision": 12,
			"time": "2014-03-13T16:35:29-04:00",
			"created": "2010-08-27T03:00:00-04:00"
		}
	]
}