{
	"greeting": "Greetings from The On-Line Encyclopedia of Integer Sequences! http://oeis.org/",
	"query": "id:A180648",
	"count": 1,
	"start": 0,
	"results": [
		{
			"number": 180648,
			"data": "1,2,3,4,5,6,7,8,9,10,12,14,17,18,25,29,32,33,34,35,39,40,44,45,47,48,50,52,56,58,60,65,66,70,72,78,81,83,84,87,89,90,94,104,105,107,112,115,116,123,130,140,144,156,161,162,164,165,166,168,174,176,178,180,181",
			"name": "Numbers n such that 1 + phi(n)^4 is a prime. Phi is Euler's totient function.",
			"comment": [
				"The sequence appears to be infinite, but I have no proof."
			],
			"example": [
				"a(20) = 35 since 1 + phi(35)^4 = 1 + 24^4 = 331777 is prime."
			],
			"xref": [
				"Cf. A000010."
			],
			"keyword": "nonn",
			"offset": "1,2",
			"author": "_Carmine Suriano_, Sep 14 2010",
			"references": 0,
			"revision": 6,
			"time": "2017-04-02T21:16:56-04:00",
			"created": "2010-10-02T03:00:00-04:00"
		}
	]
}