{
	"greeting": "Greetings from The On-Line Encyclopedia of Integer Sequences! http://oeis.org/",
	"query": "id:A180217",
	"count": 1,
	"start": 0,
	"results": [
		{
			"number": 180217,
			"data": "4,3,3,4,5,2,3,4,5,3,4,2,3,4,5,3,5,2,4,5,2,4,5,3,2,3,4,5,2,3,4,5,3,4,3,4,2,4,5,3,5,2,5,2,3,4,4,4,5,2,3,5,2,5,3,5,3,4,2,3,4,3,4,5,2,3,4,2,5,2,3,5,4,2,4,5,3,2,3,2,5,2,5,2,4,5,3,2,3,4,5,5,4,5,4,5,3,3,4,2,4,3",
			"name": "a(n) = (n-th prime modulo 3) + (n-th prime modulo 4).",
			"comment": [
				"a(n) = 2 iff prime(n) == 1 (mod 12); a(n) = 2 for prime(n) = 13, 37, 61, 73, 97, 109, ... (A068228).",
				"a(n) = 5 iff prime(n) == 11 (mod 12); a(n) = 5 for prime(n) = 11, 23, 47, 59, 71, 83, ... (A068231).",
				"For n \u003e 2, a(n) = 3 iff prime(n) == 5 (mod 12); a(n) = 3 for prime(n) = 5, 17, 29, 41, 53, 89, ... (A040117).",
				"For n \u003e 2, a(n) = 4 iff prime(n) == 7 (mod 12); a(n) = 4 for prime(n) = 7, 19, 31, 43, 67, 79, ... (A068229)."
			],
			"mathematica": [
				"Mod[#,3]+Mod[#,4]\u0026/@Prime[Range[110]] (* _Harvey P. Dale_, Nov 09 2011 *)"
			],
			"program": [
				"(MAGMA) A180217:=func\u003c n | p mod 3 + p mod 4 where p is NthPrime(n) \u003e; [ A180217(n): n in [1..105] ]; // _Klaus Brockhaus_, Jan 18 2011"
			],
			"xref": [
				"Equals A039701 + A039702.",
				"Cf. A068228, A068231, A040117, A068229, A039710."
			],
			"keyword": "nonn",
			"offset": "1,1",
			"author": "_Zak Seidov_, Jan 16 2011",
			"references": 1,
			"revision": 20,
			"time": "2018-05-07T03:47:55-04:00",
			"created": "2010-11-12T14:29:35-05:00"
		}
	]
}