{
	"greeting": "Greetings from The On-Line Encyclopedia of Integer Sequences! http://oeis.org/",
	"query": "id:A180093",
	"count": 1,
	"start": 0,
	"results": [
		{
			"number": 180093,
			"data": "1,12,40,147,252,528,690,1155",
			"name": "Arises in calculating the maximum gap in (inverse) cyclotomic polynomials.",
			"comment": [
				"2nd column of table on p.4 of Hong, the first column of which are the first 8 odd primes. The maximum gap, g(f), is the maximum of the differences (gaps) between two consecutive exponents occurring in f where f = Phi_n or f = Psi_n."
			],
			"link": [
				"Hoon Hong, Eunjeong Lee, Hyang-Sook Lee, Cheol-Min Park, \u003ca href=\"http://arxiv.org/abs/1101.4255\"\u003eMaximum Gap in (Inverse) Cyclotomic Polynomial\u003c/a\u003e, arXiv:1101.4255 [math.NT], 2011.",
				"\u003ca href=\"http://oeis.org/index/Cy#CYCLOTOMICPOLYNOMIALS\"\u003eIndex entries for sequences related to cyclotomic polynomials\u003c/a\u003e"
			],
			"keyword": "nonn,more",
			"offset": "1,2",
			"author": "_Jonathan Vos Post_, Jan 24 2011",
			"references": 1,
			"revision": 38,
			"time": "2017-04-18T15:35:53-04:00",
			"created": "2010-11-12T14:29:31-05:00"
		}
	]
}