{
	"greeting": "Greetings from The On-Line Encyclopedia of Integer Sequences! http://oeis.org/",
	"query": "id:A180382",
	"count": 1,
	"start": 0,
	"results": [
		{
			"number": 180382,
			"data": "5,17,94,188,1229,585,2997,3247,3863,1050,8888,4394,20766,5504,1702,1672,15071,4805,36513,21449,13170,3054,26623,14500,13753,2927,3063,2868,25908,17044,159220,113391,87499,14314,16108,16108,172824,26451,16834",
			"name": "Number of increasing sequences of n integers x(1),...,x(n) with values in 1..5*n such that x(j) divides x(k) iff j divides k",
			"comment": [
				"Column 5 of A180378"
			],
			"link": [
				"R. H. Hardin, \u003ca href=\"/A180382/b180382.txt\"\u003eTable of n, a(n) for n=1..99\u003c/a\u003e"
			],
			"keyword": "nonn",
			"offset": "1,1",
			"author": "_R. H. Hardin_ Sep 01 2010",
			"references": 1,
			"revision": 4,
			"time": "2012-03-31T12:35:46-04:00",
			"created": "2010-09-12T03:00:00-04:00"
		}
	]
}