{
	"greeting": "Greetings from The On-Line Encyclopedia of Integer Sequences! http://oeis.org/",
	"query": "id:A180020",
	"count": 1,
	"start": 0,
	"results": [
		{
			"number": 180020,
			"data": "0,0,3,4,7,7,9,10,12,14,14,17,17,19,21,22,23,25,26,28,29,31,32,34,35,36,38,39,41,42,44,45,46,48,49,51,53,53,55,57,58,60,60,63,64,65,67,68,69,71,73,74,75,77,78,80,81,83,84,85,87,88,90,91,93,94,96,97,98,100,101",
			"name": "Numbers k such that the relation 1 - d!/((d-i)!d^i) \u003e 1/2 holds for integers d \u003e 2 between i-1 and n+i-1.",
			"comment": [
				"The expression is the \"birthday problem\" probability out of d equally possible birthdays, while i is the smallest integer for which the relation holds given d, and k is the number of values of d for which the relation holds given i."
			],
			"link": [
				"P. Diaconis and F. Mosteller, \u003ca href=\"https://www.stat.berkeley.edu/~aldous/157/Papers/diaconis_mosteller.pdf\"\u003eMethods of studying coincidences\u003c/a\u003e, J. Amer. Statist. Assoc. 84 (1989), pp. 853-861."
			],
			"xref": [
				"Equals the first order difference of A180005 plus one."
			],
			"keyword": "nonn",
			"offset": "1,3",
			"author": "Mario O. Bourgoin (mob(AT)brandeis.edu), Aug 06 2010",
			"references": 0,
			"revision": 14,
			"time": "2021-12-11T05:03:22-05:00",
			"created": "2010-08-27T03:00:00-04:00"
		}
	]
}