{
	"greeting": "Greetings from The On-Line Encyclopedia of Integer Sequences! http://oeis.org/",
	"query": "id:A180053",
	"count": 1,
	"start": 0,
	"results": [
		{
			"number": 180053,
			"data": "1,101,101101,101202101,101303303101,101404606404101,101506011010505101,101607517021515606101,101709124538537121707101,101810833663075658828808101,101912644496738734487636909101,102014557141235473222124546010101",
			"name": "a(1)=1, a(2)=101, a(n) = 1001*a(n-1) for n \u003e 2.",
			"link": [
				"\u003ca href=\"/index/Rec#order_01\"\u003eIndex entries for linear recurrences with constant coefficients\u003c/a\u003e, signature (1001)."
			],
			"formula": [
				"a(n) = 101*1001^(n-2) + (900/1001)*(binomial(2*(n-1),n-1) mod 2), with n \u003e= 1. - _Paolo P. Lava_, Aug 26 2010",
				"G.f.: x(1-900*x)/(1-1001*x). - _Philippe Deléham_, Oct 08 2011."
			],
			"example": [
				"In a column:",
				"                1",
				"              101",
				"           101101",
				"        101202101",
				"     101303303101",
				"  101404606404101"
			],
			"program": [
				"(PARI) a(n)=max(101*1001^(n-2),1) \\\\ _Charles R Greathouse IV_, Oct 08 2011"
			],
			"xref": [
				"Cf. A093645."
			],
			"keyword": "nonn,easy",
			"offset": "1,2",
			"author": "_Mark Dols_, Aug 08 2010",
			"references": 0,
			"revision": 21,
			"time": "2020-01-25T01:28:52-05:00",
			"created": "2010-08-27T03:00:00-04:00"
		}
	]
}