{
	"greeting": "Greetings from The On-Line Encyclopedia of Integer Sequences! http://oeis.org/",
	"query": "id:A180388",
	"count": 1,
	"start": 0,
	"results": [
		{
			"number": 180388,
			"data": "0,0,0,0,2,24,228,2088,19732,197890,2131060,24729108,309027560,4148115048,59611031304,913915160628,14897443573244,257369478424890,4698494631208500,90393611677083892,1828153614233855024,38778554791649355232,860921156414834534368",
			"name": "Number of permutations of 1..n with number of rises (p(i+1)\u003ep(i)) different from number of rises in the inverse permutation.",
			"link": [
				"Vaclav Kotesovec, \u003ca href=\"/A180388/b180388.txt\"\u003eTable of n, a(n) for n = 0..200\u003c/a\u003e"
			],
			"xref": [
				"a(n) + A180389(n) = n! = A000142(n)."
			],
			"keyword": "nonn",
			"offset": "0,5",
			"author": "_Leroy Quet_, _D. S. McNeil_ and _R. H. Hardin_ in the Sequence Fans Mailing List Sep 01 2010",
			"ext": [
				"More terms from _Vaclav Kotesovec_, Jun 10 2015",
				"a(0)=0 prepended by _Alois P. Heinz_, Jun 10 2015"
			],
			"references": 2,
			"revision": 14,
			"time": "2015-06-10T14:13:45-04:00",
			"created": "2010-09-12T03:00:00-04:00"
		}
	]
}