{
	"greeting": "Greetings from The On-Line Encyclopedia of Integer Sequences! http://oeis.org/",
	"query": "id:A180083",
	"count": 1,
	"start": 0,
	"results": [
		{
			"number": 180083,
			"data": "0,1,2,3,4,5,6,7,8,9,19,299,3999999999999999999999999999999999",
			"name": "Smallest n such that digit sum of n \u003e previous term.",
			"comment": [
				"a(14) has 444444444444444444444444444444445 digits and is too large to include. - _Arkadiusz Wesolowski_, Feb 17 2011"
			],
			"example": [
				"8 is followed by 9 because 9 is the lowest number with a digit sum \u003e 8.",
				"9 is followed by 19 because 19 is the lowest number with a digit sum (1 + 9 = 10) \u003e 9."
			],
			"mathematica": [
				"f[s_List] := Block[{k = prev = s[[ -1]]}, While[ prev \u003e= Plus @@ IntegerDigits@ k, k++ ]; Append[s, k]]; Nest[ f, {0}, 11] (* _Robert G. Wilson v_, Aug 15 2010 *)"
			],
			"xref": [
				"Cf. A006050. - _Robert G. Wilson v_, Aug 15 2010"
			],
			"keyword": "more,nonn,base",
			"offset": "1,3",
			"author": "_Dominick Cancilla_, Aug 09 2010",
			"ext": [
				"a(13) from _Robert G. Wilson v_, Aug 15 2010"
			],
			"references": 1,
			"revision": 10,
			"time": "2015-07-14T00:17:04-04:00",
			"created": "2010-08-27T03:00:00-04:00"
		}
	]
}