{
	"greeting": "Greetings from The On-Line Encyclopedia of Integer Sequences! http://oeis.org/",
	"query": "id:A180822",
	"count": 1,
	"start": 0,
	"results": [
		{
			"number": 180822,
			"data": "0,0,0,1,18,602,13198,258821,3339823,35591489,290017026,2017329742,11651785764,59635283471,266728654773,1087436395076,4003448283180,13715992117054,43384915194642,129627173525396,363261462194622",
			"name": "Number of distinct solutions of sum{i=1..10}(x(2i-1)*x(2i)) = 0 (mod n), with x() only in 2..n-2",
			"comment": [
				"Column 10 of A180823"
			],
			"link": [
				"R. H. Hardin, \u003ca href=\"/A180822/b180822.txt\"\u003eTable of n, a(n) for n=1..183\u003c/a\u003e"
			],
			"example": [
				"Solutions for sum of products of 10 2..3 pairs = 0 (mod 5) are",
				"(2*2 + 2*2 + 2*2 + 2*2 + 2*2 + 2*2 + 2*2 + 2*2 + 2*2 + 2*2)",
				"(2*2 + 2*2 + 2*2 + 2*2 + 2*2 + 2*2 + 2*2 + 2*2 + 2*2 + 3*3)",
				"(2*2 + 2*2 + 2*2 + 2*2 + 2*2 + 2*2 + 2*2 + 2*2 + 3*3 + 3*3)",
				"(2*2 + 2*2 + 2*2 + 2*2 + 2*2 + 2*2 + 2*2 + 3*3 + 3*3 + 3*3)",
				"(2*2 + 2*2 + 2*2 + 2*2 + 2*2 + 2*2 + 3*3 + 3*3 + 3*3 + 3*3)",
				"(2*2 + 2*2 + 2*2 + 2*2 + 2*2 + 2*3 + 2*3 + 2*3 + 2*3 + 2*3)",
				"(2*2 + 2*2 + 2*2 + 2*2 + 2*3 + 2*3 + 2*3 + 2*3 + 2*3 + 3*3)",
				"(2*2 + 2*2 + 2*2 + 2*2 + 2*2 + 3*3 + 3*3 + 3*3 + 3*3 + 3*3)",
				"(2*2 + 2*2 + 2*2 + 2*2 + 3*3 + 3*3 + 3*3 + 3*3 + 3*3 + 3*3)",
				"(2*2 + 2*2 + 2*2 + 2*3 + 2*3 + 2*3 + 2*3 + 2*3 + 3*3 + 3*3)",
				"(2*2 + 2*2 + 2*2 + 3*3 + 3*3 + 3*3 + 3*3 + 3*3 + 3*3 + 3*3)",
				"(2*2 + 2*2 + 2*3 + 2*3 + 2*3 + 2*3 + 2*3 + 3*3 + 3*3 + 3*3)",
				"(2*2 + 2*2 + 3*3 + 3*3 + 3*3 + 3*3 + 3*3 + 3*3 + 3*3 + 3*3)",
				"(2*2 + 2*3 + 2*3 + 2*3 + 2*3 + 2*3 + 3*3 + 3*3 + 3*3 + 3*3)",
				"(2*2 + 3*3 + 3*3 + 3*3 + 3*3 + 3*3 + 3*3 + 3*3 + 3*3 + 3*3)",
				"(2*3 + 2*3 + 2*3 + 2*3 + 2*3 + 2*3 + 2*3 + 2*3 + 2*3 + 2*3)",
				"(2*3 + 2*3 + 2*3 + 2*3 + 2*3 + 3*3 + 3*3 + 3*3 + 3*3 + 3*3)",
				"(3*3 + 3*3 + 3*3 + 3*3 + 3*3 + 3*3 + 3*3 + 3*3 + 3*3 + 3*3)"
			],
			"keyword": "nonn",
			"offset": "1,5",
			"author": "_R. H. Hardin_ Sep 20 2010",
			"references": 1,
			"revision": 3,
			"time": "2012-03-31T12:35:46-04:00",
			"created": "2010-10-02T03:00:00-04:00"
		}
	]
}