{
	"greeting": "Greetings from The On-Line Encyclopedia of Integer Sequences! http://oeis.org/",
	"query": "id:A180894",
	"count": 1,
	"start": 0,
	"results": [
		{
			"number": 180894,
			"data": "1,0,2,6,30,180,1260,9720,83100,765456,7666722,82008890,943538544,11524375162,150143430468,2065180190206,30086424947400,460533014625124",
			"name": "Number of permutations of 6..n+5 with no element greater than or equal to the sum of its neighbors",
			"keyword": "nonn",
			"offset": "1,3",
			"author": "_R. H. Hardin_ Sep 23 2010",
			"references": 0,
			"revision": 2,
			"time": "2012-03-31T12:35:48-04:00",
			"created": "2010-10-02T03:00:00-04:00"
		}
	]
}