{
	"greeting": "Greetings from The On-Line Encyclopedia of Integer Sequences! http://oeis.org/",
	"query": "id:A180077",
	"count": 1,
	"start": 0,
	"results": [
		{
			"number": 180077,
			"data": "0,1,3,5,2,7,11,4,9,13,6,19,15,23,27,49,8,21,17,12,25,29,37,43,33,10,47,58,14,99,56,62,31,39,20,45,35,16,93,127,24,60,106,28,75,143,50,64,71,79,41,95,22,68,129,18,164,148,120,112,141,26,110,108,30,89,77,38,91,52",
			"name": "Inverse permutation to A180076.",
			"comment": [
				"A180079(n) = a(a(n));",
				"a(A180078(n)) = A180078(a(n)) = A180076(n)."
			],
			"link": [
				"Reinhard Zumkeller, \u003ca href=\"/A180077/b180077.txt\"\u003eTable of n, a(n) for n = 0..10000\u003c/a\u003e",
				"\u003ca href=\"/index/Per#IntegerPermutation\"\u003eIndex entries for sequences that are permutations of the natural numbers\u003c/a\u003e"
			],
			"program": [
				"(Haskell)",
				"import Data.List (elemIndex); import Data.Maybe (fromJust)",
				"a180077 = fromJust . (`elemIndex` a180076_list)",
				"-- _Reinhard Zumkeller_, Mar 13 2014"
			],
			"keyword": "nonn",
			"offset": "0,3",
			"author": "_Reinhard Zumkeller_, Aug 14 2010",
			"references": 4,
			"revision": 8,
			"time": "2014-08-11T22:45:44-04:00",
			"created": "2010-08-27T03:00:00-04:00"
		}
	]
}