{
	"greeting": "Greetings from The On-Line Encyclopedia of Integer Sequences! http://oeis.org/",
	"query": "id:A180408",
	"count": 1,
	"start": 0,
	"results": [
		{
			"number": 180408,
			"data": "123456789,23456789,13456789,12456789,12356789,12346789,12345789,12345689,12345679,12345678,23456789,23456789,3456789,2456789,2356789,2346789,2345789,2345689,2345679,2345678,13456789,3456789,13456789,1456789,1356789,1346789,1345789",
			"name": "Nonzero digits not used in n.",
			"formula": [
				"a(n) = 123456789 after removing any digits that appear in n. If n uses all digits, then a(n) = 0."
			],
			"example": [
				"a(13) = 123456789 without 1 and 3 = 2456789.",
				"a(123456789) = 0 (by definition)."
			],
			"mathematica": [
				"newn[n_]:=FromDigits[Complement[Range[9],IntegerDigits[n]]]; Table[newn[i],{i,50}] (* _Harvey P. Dale_, Nov 21 2010 *)"
			],
			"keyword": "easy,nonn,base",
			"offset": "0,1",
			"author": "_Dominick Cancilla_, Sep 02 2010",
			"ext": [
				"More terms from _Harvey P. Dale_, Nov 21 2010"
			],
			"references": 0,
			"revision": 11,
			"time": "2014-03-24T02:29:16-04:00",
			"created": "2010-09-12T03:00:00-04:00"
		}
	]
}