{
	"greeting": "Greetings from The On-Line Encyclopedia of Integer Sequences! http://oeis.org/",
	"query": "id:A180900",
	"count": 1,
	"start": 0,
	"results": [
		{
			"number": 180900,
			"data": "1,5,35,265,2100,17075,141246,1182719,9994086,85049639,727865758,6257933219,54010196582,467657712902,4060558796894,35341693437365,308249001184768,2693524485431382,23575195919671458,206647076624751357",
			"name": "Number of sequences of n integers p(i) i=0..n-1 with 0 \u003c= p(i) \u003c= 4*i and |p(i) - p(i-1)| \u003c= 4.",
			"comment": [
				"Paths down an n-high rectangular-grid right triangle with interior neighbor fanout 2*4 + 1.",
				"Column 4 of A180906.",
				"Alternatively, this sequence corresponds to the number of nonnegative walks with n steps {-4,-3,-2,-1,0,1,2,3,4} starting at the origin, ending at any altitude, and not going below the x-axis. - _David Nguyen_, Dec 01 2016"
			],
			"link": [
				"R. H. Hardin, \u003ca href=\"/A180900/b180900.txt\"\u003eTable of n, a(n) for n=1..100\u003c/a\u003e",
				"C. Banderier, C. Krattenthaler, A. Krinik, D. Kruchinin, V. Kruchinin, D. Nguyen, and M. Wallner, \u003ca href=\"https://arxiv.org/abs/1609.06473\"\u003eExplicit formulas for enumeration of lattice paths: basketball and the kernel method\u003c/a\u003e, arXiv:1609.06473 [math.CO], 2016."
			],
			"keyword": "nonn",
			"offset": "1,2",
			"author": "_R. H. Hardin_, Sep 23 2010",
			"references": 1,
			"revision": 20,
			"time": "2017-03-12T16:42:01-04:00",
			"created": "2010-10-02T03:00:00-04:00"
		}
	]
}