{
	"greeting": "Greetings from The On-Line Encyclopedia of Integer Sequences! http://oeis.org/",
	"query": "id:A180527",
	"count": 1,
	"start": 0,
	"results": [
		{
			"number": 180527,
			"data": "13,17,43,47,109,113,139,149,157,163,167,179,199,317,347,409,419,439,443,457,463,467,479,499,613,617,643,647,1019,1049,1093,1109,1117,1123,1163,1193,1213,1229,1249,1259,1283,1289,1297,1319,1327,1373,1427,1429",
			"name": "Primes that become a different prime under the mapping 1 \u003c=\u003e 4.",
			"link": [
				"\u003ca href=\"/index/Pri#primes\"\u003eIndex to Primes\u003c/a\u003e, Primes that become a different prime under some mapping."
			],
			"mathematica": [
				"fQ[n_] := Block[{id = IntegerDigits@n}, (MemberQ[id, 1] || MemberQ[id, 4]) \u0026\u0026 PrimeQ[ FromDigits[ id /. {1 -\u003e 4, 4 -\u003e 1}] ]]; Select[ Prime@ Range@ 250, fQ]"
			],
			"xref": [
				"Cf. A171020, A175791, A180517 thru A180559, A175789, A180560, A180561."
			],
			"keyword": "base,nonn",
			"offset": "1,1",
			"author": "_Zak Seidov_ and _Robert G. Wilson v_, Sep 09 2010",
			"references": 0,
			"revision": 6,
			"time": "2012-03-30T17:31:30-04:00",
			"created": "2010-10-02T03:00:00-04:00"
		}
	]
}