{
	"greeting": "Greetings from The On-Line Encyclopedia of Integer Sequences! http://oeis.org/",
	"query": "id:A180372",
	"count": 1,
	"start": 0,
	"results": [
		{
			"number": 180372,
			"data": "1,56,6720,1290240,392232960",
			"name": "1/9 the number of triangular nXnXn arrays of integers in 1..9 with no element or any of its neighbors having the same value",
			"keyword": "nonn",
			"offset": "1,2",
			"author": "_R. H. Hardin_ Sep 01 2010",
			"references": 0,
			"revision": 3,
			"time": "2012-03-31T12:35:46-04:00",
			"created": "2010-09-12T03:00:00-04:00"
		}
	]
}