{
	"greeting": "Greetings from The On-Line Encyclopedia of Integer Sequences! http://oeis.org/",
	"query": "id:A181706",
	"count": 1,
	"start": 0,
	"results": [
		{
			"number": 181706,
			"data": "1504,30592,8353792,2146926592,34357510144,549746900992,8796057370624,140737345748992,9223372000347553792,2361183240850707054592,9671406556879650002305024,154742504910523000781012992",
			"name": "Numbers of the form 2^(t-1)*(2^t-17), where 2^t-17 is prime.",
			"comment": [
				"All entries are near-perfect numbers (A181595). The proof follows as in A181705, but this time the abundance is 16."
			],
			"xref": [
				"Cf. A059611, A181595, A181701, A000396, A181703, A181704, A181705."
			],
			"keyword": "nonn",
			"offset": "1,1",
			"author": "_Vladimir Shevelev_, Nov 06 2010",
			"references": 1,
			"revision": 7,
			"time": "2012-03-30T18:52:59-04:00",
			"created": "2010-11-10T03:00:00-05:00"
		}
	]
}