{
	"greeting": "Greetings from The On-Line Encyclopedia of Integer Sequences! http://oeis.org/",
	"query": "id:A181005",
	"count": 1,
	"start": 0,
	"results": [
		{
			"number": 181005,
			"data": "0,0,1,2,61,3686,652374,338047350,527266113211,2545622222227666",
			"name": "Number of (n+1)xn binary matrices with rows and columns each in strictly increasing order as binary numbers and each row and column having an even number of 1s",
			"comment": [
				"Subdiagonal 1 of A181004"
			],
			"example": [
				"All solutions for 5X4",
				"..0..0..0..0....0..0..0..0",
				"..0..0..1..1....0..0..1..1",
				"..0..1..0..1....0..1..0..1",
				"..1..0..1..0....1..0..0..1",
				"..1..1..0..0....1..1..1..1"
			],
			"keyword": "nonn",
			"offset": "1,4",
			"author": "_R. H. Hardin_ Sep 30 2010",
			"references": 0,
			"revision": 2,
			"time": "2012-03-31T12:35:49-04:00",
			"created": "2010-10-02T03:00:00-04:00"
		}
	]
}