{
	"greeting": "Greetings from The On-Line Encyclopedia of Integer Sequences! http://oeis.org/",
	"query": "id:A181891",
	"count": 1,
	"start": 0,
	"results": [
		{
			"number": 181891,
			"data": "0,1,10,11,100,101,110,111,1000,1001,1100,1101,10000,10001,10100,10101,11000,11001,11100,11101,100000,100001,101100,101101,110000,110001,111100,111101,1000000,1000001,1010000,1010001,1100000,1100001,1110000,1110001",
			"name": "Numbers n such that n is the substring identical to the least significant bits of its base 2 representation.",
			"comment": [
				"Terms with odd index, that is, a(1), a(3), a(5), ... are all multiples of 10. Each even-index term is one more than its predecessor, so that a(2n) = a(2n-1) + 1. [_Douglas Latimer_, Apr 26 2013]"
			],
			"link": [
				"Douglas Latimer, \u003ca href=\"/A181891/b181891.txt\"\u003eTable of n, a(n) for n = 1..850\u003c/a\u003e"
			],
			"example": [
				"The number 11 is represented in the binary system by the string \"1011\". 11 is a two-digit number, so we consider the 2 least significant bits, which are \"11\", identical to the string of digits used to represent the number 11. Thus 11 is in the sequence."
			],
			"mathematica": [
				"fQ[n_] := Module[{d = IntegerDigits[n], len}, len = Length[d]; d == Take[IntegerDigits[n, 2], -len]]; Select[Range[0, 1000000], fQ] (* _T. D. Noe_, Apr 03 2012 *)"
			],
			"program": [
				"(PARI) {for(vv=0,200,bvv=binary(vv);",
				"ll=length(bvv);texp=0;btod=0;",
				"forstep(i=ll,1,-1,btod=btod+bvv[i]*10^texp;texp++);",
				"bigb=binary(btod);lbb=length(bigb);swsq=1;",
				"forstep(j=ll,1,-1,if(bvv[j]!=bigb[lbb],swsq=0);lbb--);",
				"if(swsq==1,print(btod)))}"
			],
			"xref": [
				"This is a subsequence of A038102. Sequence A181929 has similar definition."
			],
			"keyword": "nonn,base,easy",
			"offset": "1,3",
			"author": "_Douglas Latimer_, Mar 30 2012",
			"references": 2,
			"revision": 31,
			"time": "2018-01-15T15:34:27-05:00",
			"created": "2012-04-03T18:53:51-04:00"
		}
	]
}