{
	"greeting": "Greetings from The On-Line Encyclopedia of Integer Sequences! http://oeis.org/",
	"query": "id:A181193",
	"count": 1,
	"start": 0,
	"results": [
		{
			"number": 181193,
			"data": "1,42,3532,352184,36372976,3777546912,392658046912,40820345224064,4243729567634176,441184342397471232,45866192670977108992,4768319236090599225344,495721734753595527294976",
			"name": "Number of n X 6 matrices containing a permutation of 1..n*6 in increasing order rowwise, columnwise, diagonally and (downwards) antidiagonally.",
			"comment": [
				"Column 6 of A181196."
			],
			"link": [
				"R. H. Hardin, \u003ca href=\"/A181193/b181193.txt\"\u003eTable of n, a(n) for n=1..100\u003c/a\u003e"
			],
			"formula": [
				"Empirical: a(n) = 120*a(n-1) - 1672*a(n-2) + 544*a(n-3) - 6672*a(n-4) + 256*a(n-5).",
				"Empirical g.f.: x*(1 - 78*x + 164*x^2 - 1976*x^3 + 224*x^4) / ((1 - 16*x)*(1 - 104*x + 4*x^2)*(1 + 4*x^2)). - _Colin Barker_, Feb 27 2018"
			],
			"example": [
				"Some solutions for 4 X 6:",
				"..1..2..3..4..5..6....1..2..3..4..5..6....1..2..3..4..5..6....1..2..3..4..5..6",
				"..7..8..9.10.11.12....7..8..9.10.11.12....7..8..9.10.11.12....7..8..9.10.11.12",
				".13.14.15.16.17.18...13.14.15.17.19.20...13.14.15.17.19.21...13.14.15.17.19.22",
				".19.20.21.22.23.24...16.18.21.22.23.24...16.18.20.22.23.24...16.18.20.21.23.24"
			],
			"xref": [
				"Cf. A181196."
			],
			"keyword": "nonn",
			"offset": "1,2",
			"author": "_R. H. Hardin_, Oct 10 2010",
			"references": 2,
			"revision": 7,
			"time": "2018-02-27T05:29:38-05:00",
			"created": "2010-10-20T03:00:00-04:00"
		}
	]
}