{
	"greeting": "Greetings from The On-Line Encyclopedia of Integer Sequences! http://oeis.org/",
	"query": "id:A181633",
	"count": 1,
	"start": 0,
	"results": [
		{
			"number": 181633,
			"data": "1,1,2,2,4,1,1,4,3,3,5,2,2,5,7,1,4,4,1,7,6,3,3,6,8,2,5,5,2,8,10,1,7,4,4,7,1,10,9,3,6,6,3,9,11,2,8,5,5,8,2,11,13,1,10,4,7,7,4,10,1,13,12,3,9,6,6,9,3,12,14,2,11,5,8,8,5,11,2,14,16,1,13,4,10,7,7,10,4,13,1,16,15,3,12,6,9,9,6,12,3,15",
			"name": "Irregular triangle read by rows, where row n contains the pairs [q,q'] of all compositions n=q+q' with q,q'\u003e0 and q == q' (mod 3).",
			"comment": [
				"If (s,t) is a pair in the sequence, then (s+3u,t-3u) is also a pair in the sequence for any integer u such that both s+3u \u003e 0 and t-3u \u003e 0."
			],
			"formula": [
				"i) If n is even, n=2k, then its pairs are: (k+3p,k-3p), where p is an integer such that both k+3p \u003e 0 and k-3p \u003e 0. ii) If n is odd, n=2k+1, then its pairs are (k+3p+2,k-3p-1), where p is an integer such that both k+3p+2 \u003e 0 and k-3p-1 \u003e 0."
			],
			"example": [
				"The table starts with rows of even length at n=2 as:",
				"(1,1)",
				"(empty)",
				"(2,2)",
				"(4,1),(1,4)",
				"(3,3)",
				"(5,2),(2,5)"
			],
			"maple": [
				"A181633_row := proc(n)",
				"    local L,a,b;",
				"    L := [] ;",
				"    for a from n-1 to 1 by -1 do",
				"        b := n-a ;",
				"        if modp(a,3) = modp(b,3) then",
				"            L := [op(L),a,b] ;",
				"        end if;",
				"    end do:",
				"    L ;",
				"end proc: # _R. J. Mathar_, May 14 2016"
			],
			"mathematica": [
				"Table[Select[Transpose@{#, n - #}, Mod[First@ #, 3] == Mod[Last@ #, 3] \u0026] \u0026@ Reverse@ Range[1, n - 1], {n, 18}] // Flatten (* _Michael De Vlieger_, May 15 2016 *)"
			],
			"xref": [
				"Cf. A181634 (where q and q' may be zero), A008611 (half of the row lengths)."
			],
			"keyword": "nonn,tabf,easy",
			"offset": "2,3",
			"author": "Florentin Smarandache (smarand(AT)unm.edu), Nov 03 2010",
			"ext": [
				"Edited by _R. J. Mathar_, May 14 2016"
			],
			"references": 1,
			"revision": 17,
			"time": "2016-05-15T11:39:30-04:00",
			"created": "2010-11-10T03:00:00-05:00"
		}
	]
}