{
	"greeting": "Greetings from The On-Line Encyclopedia of Integer Sequences! http://oeis.org/",
	"query": "id:A181254",
	"count": 1,
	"start": 0,
	"results": [
		{
			"number": 181254,
			"data": "126,746,3190,10818,41374,133850,386406,1297322,3873790,10724850",
			"name": "Number of (n+2)X(k+2) binary matrices with every 3X3 block having exactly four 1's",
			"comment": [
				"Diagonal of A181262"
			],
			"example": [
				"Some solutions for 4X4",
				"..1..1..0..1....1..0..0..0....1..1..1..1....0..0..1..1....1..0..0..0",
				"..1..0..0..0....0..0..1..0....0..0..1..0....1..0..0..1....1..0..1..1",
				"..0..1..0..1....0..1..1..1....0..0..0..0....1..0..1..0....0..1..0..1",
				"..1..0..1..1....1..0..0..0....1..1..1..1....0..0..1..1....1..0..0..0"
			],
			"keyword": "nonn",
			"offset": "1,1",
			"author": "_R. H. Hardin_ Oct 10 2010",
			"references": 0,
			"revision": 2,
			"time": "2012-03-31T12:35:49-04:00",
			"created": "2010-10-20T03:00:00-04:00"
		}
	]
}