{
	"greeting": "Greetings from The On-Line Encyclopedia of Integer Sequences! http://oeis.org/",
	"query": "id:A181704",
	"count": 1,
	"start": 0,
	"results": [
		{
			"number": 181704,
			"data": "12,88,1888,32128,521728,8378368,34359083008,549753192448,2251799645913088,9223372026117357568,2361183241263023915008,2596148429267413634121263069790208,2722258935367507707522529418717050175488",
			"name": "Numbers m=2^(t-1)*(2^t-5), where 2^t-5 is prime.",
			"comment": [
				"All these numbers are in A181595 because their abundance is 4, a proper divisor of m."
			],
			"mathematica": [
				"Rest[2^(#-1) (2^#-5)\u0026/@(Round[N[Log[#+5]/Log[2]]]\u0026/@Select[Table[2^t-5,{t,120}],PrimeQ])] [From Harvey P. Dale, Dec. 16, 2010]"
			],
			"xref": [
				"Cf. A059608, A156560, A181595, A181701, A000396, A181703, A045769"
			],
			"keyword": "nonn",
			"offset": "1,1",
			"author": "_Vladimir Shevelev_, Nov 06 2010",
			"ext": [
				"571728 replaced by 521728 - _R. J. Mathar_, Dec 05 2010"
			],
			"references": 3,
			"revision": 8,
			"time": "2012-03-30T18:52:59-04:00",
			"created": "2010-11-10T03:00:00-05:00"
		}
	]
}