{
	"greeting": "Greetings from The On-Line Encyclopedia of Integer Sequences! http://oeis.org/",
	"query": "id:A181281",
	"count": 1,
	"start": 0,
	"results": [
		{
			"number": 181281,
			"data": "1,2,1,2,2,1,6,3,8,3,8,1,6,11,1,6,11,16,2,7,12,17,22,3,8,13,18,23,28,3,8,13,18,23,28,33,1,6,11,16,21,26,31,36,41,46,4,9,14,19,24,29,34,39,44,49,54,1,6,11,16,21,26,31,36,41,46,51,56,61,66,71,3,8,13,18,23,28,33,38",
			"name": "A version of Josephus problem: a(n) is the surviving integer under the following elimination process. Arrange 1,2,3,...,n in a circle, increasing clockwise. Starting with i=1, delete the integer 4 places clockwise from i. Repeat, counting 4 places from the next undeleted integer, until only one integer remains.",
			"reference": [
				"Paul Weisenhorn, Josephus und seine Folgen, MNU Journal (Der mathematische und naturwissenschaftliche Unterricht), 59 (2006), 18-19."
			],
			"link": [
				"\u003ca href=\"/index/J#Josephus\"\u003eIndex entries for sequences related to the Josephus Problem\u003c/a\u003e"
			],
			"formula": [
				"a(n) = (a(n-1) + 4) mod n + 1 if n\u003e1, a(1) = 1."
			],
			"example": [
				"a(7) = 6: (^1,2,3,4,5,6,7) -\u003e (1,2,3,4,^6,7) -\u003e (1,2,^4,6,7) -\u003e (1,^4,6,7) -\u003e (1,^6,7) -\u003e (^1,6) -\u003e (^6).",
				"a(14) = 11 =\u003e a(15) = (a(14)+4) mod 15 + 1 = 1."
			],
			"maple": [
				"a:= proc(n) option remember;",
				"      `if` (n=1, 1, (a(n-1)+4) mod n +1)",
				"    end:",
				"seq (a(n), n=1..100);"
			],
			"mathematica": [
				"a[1] = 1; a[n_] := a[n] = Mod[a[n-1]+4, n]+1; Table[a[n], {n, 1, 80}] (* _Jean-François Alcover_, Oct 18 2013 *)"
			],
			"xref": [
				"Cf. A006257, A054995, A088333."
			],
			"keyword": "nonn",
			"offset": "1,2",
			"author": "_Paul Weisenhorn_, Oct 10 2010",
			"ext": [
				"Edited by _Alois P. Heinz_, Sep 06 2011"
			],
			"references": 5,
			"revision": 20,
			"time": "2020-06-23T18:35:36-04:00",
			"created": "2010-10-20T03:00:00-04:00"
		}
	]
}