{
	"greeting": "Greetings from The On-Line Encyclopedia of Integer Sequences! http://oeis.org/",
	"query": "id:A181950",
	"count": 1,
	"start": 0,
	"results": [
		{
			"number": 181950,
			"data": "1,1,4,19,91,571,4096,38599,370399,3771751,40020916,486887611,6457566259,97397627419,1566407932636,25622476773391,416792928270751,7346982309720079,141863542111338124,2968348473040595971,65223378275792128771,1460499016109864574691,32600807940657384926884",
			"name": "Weighted sum of all cyclic subgroups of the Alternating Group A_n.",
			"comment": [
				"Sum of the order of all cyclic subgroups of Alt_n.",
				"Each permutation is counted as many times as it appears in a cyclic subgroup.",
				"a(7) = 2^12 is remarkable as a power of 2."
			],
			"link": [
				"Andrew Howroyd, \u003ca href=\"/A181950/b181950.txt\"\u003eTable of n, a(n) for n = 1..50\u003c/a\u003e"
			],
			"formula": [
				"a(n) = Sum_{k=1..A051593(n)} k*A303728(n, k). - _Andrew Howroyd_, Jul 03 2018"
			],
			"example": [
				"a(5) = 1*1 + 2*15 + 3*10 + 5*6 = 1 + 30 +30 +30 = 91."
			],
			"program": [
				"(PARI) \\\\ permcount is number of permutations of given type.",
				"permcount(v) = {my(m=1,s=0,k=0,t); for(i=1,#v,t=v[i]; k=if(i\u003e1\u0026\u0026t==v[i-1],k+1,1); m*=t*k;s+=t); s!/m}",
				"a(n)={my(s=0); forpart(p=n, if(sum(i=1,#p,p[i]-1)%2==0, my(d=lcm(Vec(p))); s+=d*permcount(p)/eulerphi(d))); s} \\\\ _Andrew Howroyd_, Jul 03 2018"
			],
			"xref": [
				"Cf. A051593, A051636, A303728."
			],
			"keyword": "nonn",
			"offset": "1,3",
			"author": "_Olivier Gérard_, Apr 03 2012",
			"ext": [
				"Terms a(9) and beyond from _Andrew Howroyd_, Jul 03 2018"
			],
			"references": 3,
			"revision": 13,
			"time": "2018-07-03T16:57:15-04:00",
			"created": "2012-04-05T03:01:54-04:00"
		}
	]
}