{
	"greeting": "Greetings from The On-Line Encyclopedia of Integer Sequences! http://oeis.org/",
	"query": "id:A181031",
	"count": 1,
	"start": 0,
	"results": [
		{
			"number": 181031,
			"data": "1,1,1,1,2,1,1,3,3,1,1,5,7,5,1,1,8,17,17,8,1,1,13,41,63,41,13,1,1,21,99,227,227,99,21,1,1,34,239,827,1234,827,239,34,1,1,55,577,2999,6743,6743,2999,577,55,1,1,89,1393,10897,36787,55447,36787,10897,1393,89,1,1,144",
			"name": "Array read by antidiagonals: T(n,k) = number of n X k binary matrices with no initial bit string in any row or column divisible by 4.",
			"comment": [
				"A089980 is essentially the same array (see the Comments by _Steve Butler_ in A006506). - _N. J. A. Sloane_, Jan 27 2015"
			],
			"link": [
				"R. H. Hardin, \u003ca href=\"/A181031/b181031.txt\"\u003eTable of n, a(n) for n=1..1057\u003c/a\u003e"
			],
			"example": [
				"Table starts",
				".1..1....1......1.......1.........1...........1............1..............1",
				".1..2....3......5.......8........13..........21...........34.............55",
				".1..3....7.....17......41........99.........239..........577...........1393",
				".1..5...17.....63.....227.......827........2999........10897..........39561",
				".1..8...41....227....1234......6743.......36787.......200798........1095851",
				".1.13...99....827....6743.....55447......454385......3729091.......30584687",
				".1.21..239...2999...36787....454385.....5598861.....69050253......851302029",
				".1.34..577..10897..200798...3729091....69050253...1280128950....23720149995",
				".1.55.1393..39561.1095851..30584687...851302029..23720149995...660647962955",
				".1.89.3363.143677.5980913.250916131.10496827403.439621976195.18403310404291",
				"Some solutions for 5X5",
				"..1..1..1..1..1....1..1..1..1..1....1..1..1..1..1....1..1..1..1..1",
				"..1..0..1..0..1....1..0..1..0..1....1..0..1..0..1....1..0..1..0..1",
				"..1..1..0..1..0....1..1..0..1..0....1..1..0..1..0....1..1..0..1..0",
				"..1..0..1..0..1....1..0..1..0..1....1..0..1..0..1....1..0..1..0..1",
				"..1..1..0..1..0....1..1..0..1..1....1..1..1..1..0....1..1..1..1..1"
			],
			"xref": [
				"Cf. A089980."
			],
			"keyword": "nonn,tabl",
			"offset": "1,5",
			"author": "_R. H. Hardin_, Sep 30 2010",
			"references": 8,
			"revision": 10,
			"time": "2017-06-06T17:35:19-04:00",
			"created": "2010-10-02T03:00:00-04:00"
		}
	]
}