{
	"greeting": "Greetings from The On-Line Encyclopedia of Integer Sequences! http://oeis.org/",
	"query": "id:A181205",
	"count": 1,
	"start": 0,
	"results": [
		{
			"number": 181205,
			"data": "1,1,9,229,32000,19114420,53786626921,690427159718433,40891433857372174697,11135886394033736561250816,13961976233873461322297385441657",
			"name": "Number of n X n matrices containing a permutation of 1..n*n moving each element at most to a neighboring position.",
			"formula": [
				"a(n) = A287152(n,n^2)."
			],
			"example": [
				"All solutions for 2X2",
				"..1..2....1..2....1..4....2..1....2..1....2..4....3..1....3..2....3..4",
				"..3..4....4..3....3..2....3..4....4..3....1..3....4..2....1..4....1..2"
			],
			"mathematica": [
				"A181206 = Cases[Import[\"https://oeis.org/A181206/b181206.txt\", \"Table\"], {_, _}][[All, 2]];",
				"a[n_] := A181206[[2 n^2 - 2 n + 1]];",
				"Table[a[n], {n, 1, 10}] (* _Jean-François Alcover_, Sep 23 2019 *)"
			],
			"xref": [
				"Main diagonal of A181206.",
				"Cf. A287152."
			],
			"keyword": "nonn",
			"offset": "0,3",
			"author": "_R. H. Hardin_, Oct 10 2010",
			"ext": [
				"a(0) and a(10) from _Alois P. Heinz_, May 20 2017"
			],
			"references": 2,
			"revision": 13,
			"time": "2019-09-23T06:27:14-04:00",
			"created": "2010-10-20T03:00:00-04:00"
		}
	]
}