{
	"greeting": "Greetings from The On-Line Encyclopedia of Integer Sequences! http://oeis.org/",
	"query": "id:A181816",
	"count": 1,
	"start": 0,
	"results": [
		{
			"number": 181816,
			"data": "1,1,1,2,1,2,1,2,12,1,4,2,12,1,4,2,12,1,4,24,2,360,8,12,1,4,24,2,360,8,12,1,4,24,2,360,8,144,12,1,48,4,720,16,24,2,360,8,144,12,1",
			"name": "a(n) is the smallest integer that, upon multiplying any divisor of A025487(n), produces a member of A025487.",
			"comment": [
				"All terms also belong to A181818. Each member of A181818 appears infinitely often. a(A025487(m)) = a(A025487(n)) iff A025487(m) and A025487(n) have the same odd part (cf. A000265)."
			],
			"link": [
				"Amiram Eldar, \u003ca href=\"/A181816/b181816.txt\"\u003eTable of n, a(n) for n = 1..10000\u003c/a\u003e"
			],
			"formula": [
				"If A025487(n) = Product p(i)^e(i), then a(n) = Product A002110(i-1)^e(i); i.e., a(n) = A181811(A025487(n)).",
				"a(n) = A181817(n)/A025487(n)."
			],
			"example": [
				"For any divisor d of 6 (d = 1, 2, 3, 6), 2*d (2, 4, 6, 12) is always a member of A025487. 2 is the smallest number with this relationship to 6; therefore, since 6 = A025487(4), a(4) = 2."
			],
			"xref": [
				"Cf. A000265, A025487, A181811, A181817, A181818."
			],
			"keyword": "nonn",
			"offset": "1,4",
			"author": "_Matthew Vandermast_, Nov 30 2010",
			"references": 4,
			"revision": 16,
			"time": "2019-07-07T13:36:18-04:00",
			"created": "2010-11-13T14:07:27-05:00"
		}
	]
}