{
	"greeting": "Greetings from The On-Line Encyclopedia of Integer Sequences! http://oeis.org/",
	"query": "id:A181266",
	"count": 1,
	"start": 0,
	"results": [
		{
			"number": 181266,
			"data": "2,4,1,8,2,0,16,11,0,0,32,44,6,0,0,64,188,87,4,0,0,128,752,730,111,1,0,0,256,3056,6236,1793,66,0,0,0,512,12224,49400,32124,2607,24,0,0,0,1024,49088,398032,513260,108161,2575,5,0,0,0,2048,196352,3162528,8397376",
			"name": "T(n,k)=Number of nXk binary matrices M with rows in strictly increasing order and rows of M*Mtranspose (mod 2) in strictly increasing order",
			"comment": [
				"Table starts",
				".2.4..8..16...32.....64.......128........256.........512.........1024",
				".1.2.11..44..188....752......3056......12224.......49088.......196352",
				".0.0..6..87..730...6236.....49400.....398032.....3162528.....25293504",
				".0.0..4.111.1793..32124....513260....8397376...133979600...2151884352",
				".0.0..1..66.2607.108161...3610319..120854852..3883975540.125298805600",
				".0.0..0..24.2575.256746..17946611.1225897310.79509209528.............",
				".0.0..0...5.1790.428573..63961223.9014442178.........................",
				".0.0..0...1..896.520349.167427191....................................",
				".0.0..0...0..296.480849..............................................",
				".0.0..0...0...55....................................................."
			],
			"link": [
				"R. H. Hardin, \u003ca href=\"/A181266/b181266.txt\"\u003eTable of n, a(n) for n=1..108\u003c/a\u003e"
			],
			"keyword": "nonn,tabl",
			"offset": "1,1",
			"author": "_R. H. Hardin_ Oct 10 2010",
			"references": 8,
			"revision": 3,
			"time": "2012-03-31T12:35:49-04:00",
			"created": "2010-10-20T03:00:00-04:00"
		}
	]
}