{
	"greeting": "Greetings from The On-Line Encyclopedia of Integer Sequences! http://oeis.org/",
	"query": "id:A181174",
	"count": 1,
	"start": 0,
	"results": [
		{
			"number": 181174,
			"data": "1,2,24,320,11264,688128,90177536,22817013760,11751030521856,11997870882291712,24607668363952390144,100719222642454151823360,825394103341888069030641664,13520781109074923362448234774528",
			"name": "The \"Row2\" sums of the powers-of-2 triangle A000079",
			"comment": [
				"The a(n) represent the \"Row2\" sums, see A180662, of the powers-of-2 triangle A000079. This sequence is related to the Jacobsthal and triangular numbers."
			],
			"formula": [
				"a(n) = 2^(n*(n+1)/2)*(2^(n+1)+(-1)^n)/3.",
				"a(n) = A001045(n+1)*2^A000217(n)."
			],
			"mathematica": [
				"f[k_] := (2^k) (-1)^(k + 1)",
				"t[n_] := Table[f[k], {k, 1, n}]",
				"a[n_] := SymmetricPolynomial[n - 1, t[n]]",
				"Table[a[n], {n, 1, 22}]    (* A181174 signed *)",
				"(* _Clark Kimberling_, Dec 30 2011 *)"
			],
			"keyword": "easy,nonn",
			"offset": "0,2",
			"author": "_Johannes W. Meijer_, Oct 10 2010",
			"references": 3,
			"revision": 6,
			"time": "2014-08-03T14:27:19-04:00",
			"created": "2010-10-20T03:00:00-04:00"
		}
	]
}