{
	"greeting": "Greetings from The On-Line Encyclopedia of Integer Sequences! http://oeis.org/",
	"query": "id:A182191",
	"count": 1,
	"start": 0,
	"results": [
		{
			"number": 182191,
			"data": "-1,5,43,265,1559,9101,53059,309265,1802543,10506005,61233499,356895001,2080136519,12123924125,70663408243,411856525345,2400475743839,13990997937701,81545511882379,475282073356585,2770146928257143,16145599496186285,94103450048860579",
			"name": "a(n) = 6*a(n-1) - a(n-2) + 12 with n\u003e1, a(0)=-1, a(1)=5.",
			"comment": [
				"If p is a prime of the form 8*r +/- 3 then a(p) == 1 (mod p); if p is a prime of the form 8*r +/- 1 then a(p) == 5 (mod p)."
			],
			"link": [
				"Bruno Berselli, \u003ca href=\"/A182191/b182191.txt\"\u003eTable of n, a(n) for n = 0..100\u003c/a\u003e",
				"\u003ca href=\"/index/Rec#order_03\"\u003eIndex entries for linear recurrences with constant coefficients\u003c/a\u003e, signature (7,-7,1)."
			],
			"formula": [
				"G.f.: -(1-12*x-x^2)/((1-x)*(1-6*x+x^2)). - _Bruno Berselli_, May 15 2012",
				"a(n) = 2*A038723(n) - 3. -_Bruno Berselli_, May 16 2012",
				"a(n) = -3 + (1/4)*( (4+sqrt(2))*(3+2*sqrt(2))^n + (4-sqrt(2))*(3-2*sqrt(2))^n ). - _Colin Barker_, Mar 05 2016",
				"From _G. C. Greubel_, May 24 2021: (Start)",
				"a(n) = A000129(2*n+2) - 2*A000129(2*n) - 3.",
				"a(n) = A000129(2*n) + A002203(2*n) - 3. (End)"
			],
			"mathematica": [
				"m = 19;n = 1; c = 0;",
				"list3 = Reap[While[c \u003c 22, t = 6 n - m + 12; Sow[t];m = n; n = t;c++]][[2,1]]",
				"Table[LucasL[2*n, 2] +Fibonacci[2*n, 2] -3, {n, 0, 40}] (* _G. C. Greubel_, May 24 2021 *)"
			],
			"program": [
				"(MAGMA) I:=[-1,5]; [n le 2 select I[n] else 6*Self(n-1)-Self(n-2)+12: n in [1..19]]; // _Bruno Berselli_, May 15 2012",
				"(Sage) [lucas_number1(2*n+2,2,-1) - 2*lucas_number1(2*n,2,-1) -3 for n in (0..40)] # _G. C. Greubel_, May 24 2021"
			],
			"xref": [
				"Cf. A000129, A002203, A038723."
			],
			"keyword": "sign,easy",
			"offset": "0,2",
			"author": "_Kenneth J Ramsey_, Apr 17 2012",
			"references": 3,
			"revision": 35,
			"time": "2021-05-24T07:48:24-04:00",
			"created": "2012-05-16T06:19:33-04:00"
		}
	]
}