{
	"greeting": "Greetings from The On-Line Encyclopedia of Integer Sequences! http://oeis.org/",
	"query": "id:A182726",
	"count": 1,
	"start": 0,
	"results": [
		{
			"number": 182726,
			"data": "0,0,1,3,7,15,30,58,108,196,348,605,1034,1740,2887,4730",
			"name": "Bisection of A005291.",
			"xref": [
				"A005291, A182712, A182722, A182725"
			],
			"keyword": "nonn,more",
			"offset": "1,4",
			"author": "_Omar E. Pol_, Dec 02 2010",
			"references": 1,
			"revision": 4,
			"time": "2012-03-30T17:34:04-04:00",
			"created": "2010-11-27T17:24:30-05:00"
		}
	]
}