{
	"greeting": "Greetings from The On-Line Encyclopedia of Integer Sequences! http://oeis.org/",
	"query": "id:A182940",
	"count": 1,
	"start": 0,
	"results": [
		{
			"number": 182940,
			"data": "1,2,4,3,6,12,8,24,9,18,36,16,48,5,10,15,20,30,60,72,40,120,45,90,180,80,240,360,7,14,21,28,35,42,70,84,105,140,210,420,144,720,56,168,280,840",
			"name": "List of divisors of the sequence A094348 in their order of occurrence.",
			"comment": [
				"Read A094348 term-by-term, compute the divisors of each term, write down any divisors not seen before."
			],
			"example": [
				"1    [1]",
				"2    [2]",
				"4    [4]",
				"6    [3, 6]",
				"12   [12]",
				"24   [8, 24]",
				"36   [9, 18, 36]",
				"48   [16, 48]",
				"60   [5, 10, 15, 20, 30, 60]",
				"72   [72]",
				"120  [40, 120]",
				"180  [45, 90, 180]",
				"240  [80, 240]",
				"360  [360]",
				"420  [7, 14, 21, 28, 35, 42, 70, 84, 105, 140, 210, 420]",
				"720  [144, 720]",
				"840  [56, 168, 280, 840]",
				"1260 [63, 126, 252, 315, 630, 1260]",
				"1680 [112, 336, 560, 1680]",
				"2520 [504, 2520]",
				"5040 [1008, 5040]"
			],
			"maple": [
				"concat := (a,h)-\u003e[op(a),op(sort(convert(h,list)))];",
				"DivisorsInOrder := proc(S) local A, H, T, s;",
				"T := {}; A := [];",
				"for s in S do",
				"   H := numtheory[divisors](s) minus T:",
				"   if H \u003c\u003e {} then",
				"      A := concat(A, H);",
				"      T := T union H",
				"   fi",
				"od;",
				"A end:",
				"A182940 := DivisorsInOrder(A094348);"
			],
			"xref": [
				"Cf. A094348, A096179."
			],
			"keyword": "nonn",
			"offset": "1,2",
			"author": "Peter Luschny, Jan 04 2011",
			"references": 1,
			"revision": 7,
			"time": "2017-06-28T20:29:11-04:00",
			"created": "2010-12-13T20:53:31-05:00"
		}
	]
}