{
	"greeting": "Greetings from The On-Line Encyclopedia of Integer Sequences! http://oeis.org/",
	"query": "id:A182947",
	"count": 1,
	"start": 0,
	"results": [
		{
			"number": 182947,
			"data": "1,1,2,9,76,1134,33464,1951187",
			"name": "Number of complete sphere stacks on a triangular base with side length n.",
			"comment": [
				"Start with a layer of spheres closely packed in an equilateral triangle of side n \u003e= 1. Add spheres by resting them in any of the hollows between three touching spheres in the layer below. Continue until no more sites are available.",
				"a(n) is the number of distinct complete stacks that can be built."
			],
			"example": [
				"For n=3 there are two complete stacks, so a(3)=2.",
				".",
				"  3 layers, 10 spheres        2 layers, 7 spheres",
				".",
				"            1                          1",
				"           / \\                        / \\",
				"          / 2 \\                      /   \\",
				"         1-----1                    1-----1",
				"        / \\ 3 / \\                  / \\ 2 / \\",
				"       / 2 \\ / 2 \\                /   \\ /   \\",
				"      1-----1-----1              1-----1-----1"
			],
			"xref": [
				"Cf. A182948 = spheres on a rhombic base."
			],
			"keyword": "nonn,more",
			"offset": "1,3",
			"author": "_David Scambler_, Dec 14 2010",
			"references": 1,
			"revision": 16,
			"time": "2021-04-20T02:41:43-04:00",
			"created": "2010-12-14T22:37:06-05:00"
		}
	]
}