{
	"greeting": "Greetings from The On-Line Encyclopedia of Integer Sequences! http://oeis.org/",
	"query": "id:A182857",
	"count": 1,
	"start": 0,
	"results": [
		{
			"number": 182857,
			"data": "1,3,4,6,12,60,2520,1286485200,35933692027611398678865941374040400000",
			"name": "Smallest number that requires exactly n iterations to reach a fixed point under the x -\u003e A181819(x) map.",
			"comment": [
				"a(9) has 296 digits.",
				"Related to Levine's sequence (A011784): A011784(n) = A001222(a(n)) = A001221(a(n+1)) = A051903(a(n+2)) = A071625(a(n+2)). Also see A182858.",
				"Values of n where A182850(n) increases to a record.",
				"The multiplicity of prime(k) in a(n+1) is the k-th largest prime index of a(n), which is A296150(a(n),k). - _Gus Wiseman_, May 13 2018"
			],
			"link": [
				"Gus Wiseman, \u003ca href=\"/A182857/b182857.txt\"\u003eTable of n, a(n) for n = 0..9\u003c/a\u003e"
			],
			"formula": [
				"For n \u003e 0, a(n) = A181819(a(n+1)). For n \u003e 1, a(n) = A181821(a(n-1))."
			],
			"example": [
				"From _Gus Wiseman_, May 13 2018: (Start)",
				"Like A001462 the following sequence of multisets whose Heinz numbers belong to this sequence is a run-length describing sequence, as the number of k's in row n + 1 is equal to the k-th term of row n.",
				"{2}",
				"{1,1}",
				"{1,2}",
				"{1,1,2}",
				"{1,1,2,3}",
				"{1,1,1,2,2,3,4}",
				"{1,1,1,1,2,2,2,3,3,4,4,5,6,7}",
				"{1,1,1,1,1,1,1,2,2,2,2,2,2,3,3,3,3,3,4,4,4,4,5,5,5,5,6,6,6,7,7,7,8,8,9,9,10,10,11,12,13,14}",
				"(End)"
			],
			"mathematica": [
				"Prepend[Function[m,Times@@Prime/@m]/@NestList[Join@@Table[Table[i,{Reverse[#][[i]]}],{i,Length[#]}]\u0026,{2},8],1] (* _Gus Wiseman_, May 13 2018 *)"
			],
			"xref": [
				"Cf. A001462, A007755, A007916, A009287, A012257, A112798, A181819, A182850-A182858, A296150, A304455, A304464, A304465."
			],
			"keyword": "nonn",
			"offset": "0,2",
			"author": "_Matthew Vandermast_, Jan 05 2011",
			"references": 41,
			"revision": 27,
			"time": "2018-05-19T19:20:45-04:00",
			"created": "2010-12-08T23:00:14-05:00"
		}
	]
}