{
	"greeting": "Greetings from The On-Line Encyclopedia of Integer Sequences! http://oeis.org/",
	"query": "id:A182798",
	"count": 1,
	"start": 0,
	"results": [
		{
			"number": 182798,
			"data": "4,24,192,2112,32640,718080,22665216,1031276544,67849629696,6468240187392,894839431299072,179851071814434816,52561241074964496384,22351071118387029737472,13837189739906569661841408",
			"name": "Number of 4-colorings of the Triangle Graph of order n.",
			"comment": [
				"The Triangle Graph of order n has n rows with k vertices in row k. Each vertex is connected to the neighbors in the same row and up to two vertices in each of the neighboring rows. The Graph has A000217(n) vertices and 3*A000217(n-1) edges altogether."
			],
			"link": [
				"Eric Weisstein's World of Mathematics, \u003ca href=\"http://mathworld.wolfram.com/TriangleGraph.html\"\u003eTriangle Graph\u003c/a\u003e",
				"Wikipedia, \u003ca href=\"https://en.wikipedia.org/wiki/Chromatic_polynomial\"\u003eChromatic polynomial\u003c/a\u003e"
			],
			"formula": [
				"a(n) = 4 * A153467(n)."
			],
			"xref": [
				"4th row of A182797. Cf. A178435, A182788, A182789, A182790, A182791, A182792, A182793, A182794, A182795, A182796."
			],
			"keyword": "nonn",
			"offset": "1,1",
			"author": "_Alois P. Heinz_, Dec 02 2010",
			"ext": [
				"a(15) from _Alois P. Heinz_, Mar 11 2016"
			],
			"references": 12,
			"revision": 17,
			"time": "2017-02-09T17:30:56-05:00",
			"created": "2010-12-02T16:23:27-05:00"
		}
	]
}