{
	"greeting": "Greetings from The On-Line Encyclopedia of Integer Sequences! http://oeis.org/",
	"query": "id:A182527",
	"count": 1,
	"start": 0,
	"results": [
		{
			"number": 182527,
			"data": "8,7,5,6,6,4,0,5,8,4,0,6,8,2,1,2,3,6,5,7,7,0,0,9,4,3,9,1,7,2,0,7,8,9,0,0,2,7,7,3,7,4,4,8,6,2,7,5,3,3,4,7,1,9,4,8,3,8,6,4,6,3,4,1,5,1,3,8,1,7,2,9,7,0,5,1,6,2,1,7,2,9,7,4,4,8,8,5,0,2,0,1,6,7,7,8,8,7,8,9,5,9,9,8,1",
			"name": "Decimal expansion of | log_gamma(phi) |, where gamma is the Euler-Mascheroni constant and phi is the golden ratio.",
			"link": [
				"G. C. Greubel, \u003ca href=\"/A182527/b182527.txt\"\u003eTable of n, a(n) for n = 0..10000\u003c/a\u003e"
			],
			"formula": [
				"Equals |Log(A001622)/Log(A001620)|"
			],
			"example": [
				"0.87566405840682123657700943917207890027737448627533..."
			],
			"mathematica": [
				"RealDigits[ N[Log[GoldenRatio]/Log[EulerGamma], 105]] [[1]]"
			],
			"program": [
				"(PARI) default(realprecision, 100); phi=(1+sqrt(5))/2; -log(phi)/log(Euler) \\\\ _G. C. Greubel_, Sep 01 2018",
				"(MAGMA) SetDefaultRealField(RealField(100)); R:= RealField(); phi:=(1+Sqrt(5))/2; -Log(phi)/Log(EulerGamma(R)); // _G. C. Greubel_, Sep 01 2018"
			],
			"xref": [
				"Cf. A001620, A001622"
			],
			"keyword": "nonn,cons",
			"offset": "0,1",
			"author": "_Volker Werner_, May 03 2012",
			"references": 2,
			"revision": 8,
			"time": "2018-09-01T17:42:11-04:00",
			"created": "2012-05-04T13:01:12-04:00"
		}
	]
}