{
	"greeting": "Greetings from The On-Line Encyclopedia of Integer Sequences! http://oeis.org/",
	"query": "id:A182863",
	"count": 1,
	"start": 0,
	"results": [
		{
			"number": 182863,
			"data": "1,2,6,12,30,60,210,360,420,1260,2310,2520,4620,13860,27720,30030,60060,75600,138600,180180,360360,510510,831600,900900,1021020,1801800,3063060,6126120,9699690,10810800,15315300,19399380,30630600,37837800",
			"name": "Members m of A025487 such that, if k appears in m's prime signature, k-1 appears at least as often as k (for any integer k \u003e 1).",
			"comment": [
				"Members m of A025487 such that A181819(m) is also a member of A025487.",
				"If prime signatures are considered as partitions, these are the members of A025487 whose prime signature is conjugate to the prime signature of a member of A181818."
			],
			"link": [
				"Amiram Eldar, \u003ca href=\"/A182863/b182863.txt\"\u003eTable of n, a(n) for n = 1..1444\u003c/a\u003e",
				"Eric Weisstein's World of Mathematics, \u003ca href=\"http://mathworld.wolfram.com/ConjugatePartition.html\"\u003eConjugate Partition \u003c/a\u003e"
			],
			"example": [
				"The prime signature of 360360 = 2^3*3^2*5*7*11*13 is (3,2,1,1,1,1). 2 appears as many times as 3 in 360360's prime signature, and 1 appears more times than 2. Since 360360 is also a member of A025487, it is a member of this sequence."
			],
			"xref": [
				"Intersection of A025487 and A179983; also subsequence of A129912 and A181826.",
				"Includes all members of A182862."
			],
			"keyword": "nonn",
			"offset": "1,2",
			"author": "_Matthew Vandermast_, Jan 14 2011",
			"references": 6,
			"revision": 16,
			"time": "2019-07-21T07:44:23-04:00",
			"created": "2010-12-08T23:00:14-05:00"
		}
	]
}