{
	"greeting": "Greetings from The On-Line Encyclopedia of Integer Sequences! http://oeis.org/",
	"query": "id:A182676",
	"count": 1,
	"start": 0,
	"results": [
		{
			"number": 182676,
			"data": "0,88,999,9994,99995,999994,9999994,99999994,999999998,9999999995,99999999998,999999999998,9999999999998,99999999999998,999999999999995,9999999999999998,99999999999999998,999999999999999987,9999999999999999995",
			"name": "a(n) is the largest n-digit number with exactly 8 divisors, a(n) = 0 if no such number exists.",
			"comment": [
				"a(n) = the largest n-digit number of the form p^7, p^3*q or p*q*r (p, q, r = distinct primes), a(n) = 0 if no such number exists."
			],
			"formula": [
				"a(n) = max {10^(n-1) \u003c= k \u003c 10^n : A000005(k)=8} if set is nonempty, else a(n) = 0."
			],
			"maple": [
				"with (numtheory):",
				"a:= proc(n) local k;",
				"     if n\u003c2 then 0",
				"   else for k from 10^n-1 while tau(k)\u003c\u003e8 by -1",
				"        do od; k",
				"     fi",
				"    end:",
				"seq (a(n), n=1..20);"
			],
			"program": [
				"(PARI) a(n)=forstep(k=10^n-1,10^(n-1),-1,numdiv(k)==8 \u0026 return(k)) \\\\ _M. F. Hasler_, Nov 27 2010"
			],
			"xref": [
				"Cf. A000005, A182675."
			],
			"keyword": "nonn,base",
			"offset": "1,2",
			"author": "_Jaroslav Krizek_, Nov 27 2010",
			"ext": [
				"Edited by _Alois P. Heinz_, Nov 27 2010",
				"Given terms double-checked with given PARI code by _M. F. Hasler_, Nov 27 2010"
			],
			"references": 1,
			"revision": 16,
			"time": "2021-02-07T07:03:15-05:00",
			"created": "2010-11-27T15:18:07-05:00"
		}
	]
}