{
	"greeting": "Greetings from The On-Line Encyclopedia of Integer Sequences! http://oeis.org/",
	"query": "id:A182049",
	"count": 1,
	"start": 0,
	"results": [
		{
			"number": 182049,
			"data": "0,1,2,3,4,5,6,7,8,9,10,11,12,13,14,15,16,17,18,19,20,21,22,24,25,26,28,29,30,32,38,41",
			"name": "Numbers m such that m! is not pandigital in decimal representation.",
			"comment": [
				"A137580(a(n)) \u003c 10.",
				"Conjecture: sequence is finite and a(32) = 41 is the last term.",
				"a(33) \u003e 100000 if it exists. - _Chai Wah Wu_, Jan 27 2019"
			],
			"link": [
				"Eric Weisstein's World of Mathematics, \u003ca href=\"http://mathworld.wolfram.com/PandigitalNumber.html\"\u003ePandigital Number\u003c/a\u003e",
				"Wikipedia, \u003ca href=\"http://en.wikipedia.org/wiki/Pandigital_number\"\u003ePandigital number\u003c/a\u003e",
				"\u003ca href=\"/index/Fa#factorial\"\u003eIndex entries for sequences related to factorial numbers\u003c/a\u003e."
			],
			"example": [
				"20! = 2432902008176640000 -\u003e 0000000122234466789 with missing 5, therefore A137580(20) = 9, a(21)=20;",
				"21! = 51090942171709440000 -\u003e 00000001112444577999 with missing {3,6,8}, therefore A137580(21) = 7, a(22)=21;",
				"22! = 1124000727777607680000 -\u003e 0000000011224667777778 with missing {5,7,9}, therefore A137580(22) = 7, a(23)=22;",
				"23! = 25852016738884976640000 -\u003e 00000122344556667788889 pandigital, A137580(23) = 10, 23 is not a term;",
				"24! = 620448401733239439360000 -\u003e 000000122333334444667899 with missing 5, therefore A137580(24) = 9, a(24)=24;",
				"25! = 15511210043330985984000000 -\u003e 00000000011112333445558899 with missing {6,7}, therefore A137580(24) = 8, a(25)=25."
			],
			"program": [
				"(Haskell)",
				"a182049 n = a182049_list !! (n-1)",
				"a182049_list = filter ((\u003c 10) . a137580) [0..]",
				"(PARI) for(n=0,999,#Set(digits(n!))\u003c10\u0026\u0026print1(n\",\"))"
			],
			"xref": [
				"Cf. A137580."
			],
			"keyword": "nonn,base",
			"offset": "1,3",
			"author": "_Reinhard Zumkeller_, Apr 08 2012",
			"references": 3,
			"revision": 12,
			"time": "2019-01-28T01:51:18-05:00",
			"created": "2012-04-08T09:15:40-04:00"
		}
	]
}