{
	"greeting": "Greetings from The On-Line Encyclopedia of Integer Sequences! http://oeis.org/",
	"query": "id:A182335",
	"count": 1,
	"start": 0,
	"results": [
		{
			"number": 182335,
			"data": "1,2,27,6097,31863051,5224775238844,34790236871289428139",
			"name": "Number of lower triangular n X n arrays colored with integers 0 upwards introduced in row major order, with no element equal to any horizontal, vertical or antidiagonal neighbor",
			"example": [
				"Some solutions for n=4",
				"..0........0........0........0........0........0........0........0",
				"..1.2......1.2......1.2......1.0......1.2......1.2......1.2......1.0",
				"..0.1.3....3.1.0....3.0.1....2.3.4....3.4.1....0.1.3....3.4.1....2.3.4",
				"..2.4.2.3..4.3.1.0..4.5.6.1..4.0.1.5..0.5.4.6..3.0.2.1..5.6.3.5..4.1.0.5"
			],
			"keyword": "nonn",
			"offset": "1,2",
			"author": "_R. H. Hardin_ Apr 25 2012",
			"references": 0,
			"revision": 5,
			"time": "2015-12-18T18:17:27-05:00",
			"created": "2012-04-25T12:45:48-04:00"
		}
	]
}