{
	"greeting": "Greetings from The On-Line Encyclopedia of Integer Sequences! http://oeis.org/",
	"query": "id:A182354",
	"count": 1,
	"start": 0,
	"results": [
		{
			"number": 182354,
			"data": "3,5,11,67,163,10243,22531,7516192771,43980465111043,142788163609707759784588649053552643,2637188343637273091841153207596203638787",
			"name": "Primes of the form n*2^n + 3.",
			"comment": [
				"These are similar to the Woodall primes, A050918, which are primes of the form n*2^n - 1."
			],
			"example": [
				"3 = 0*2^0 + 3; 5 = 1*2^1 + 3; 11 = 2*2^2 + 3; 67 = 4*2^4 + 3"
			],
			"maple": [
				"#choose N large, then S is the desired set",
				"f:=n-\u003en*2^n + 3:",
				"S:={}:",
				"for n from 0 to N do if(isprime(f(n))) then S:=S union {f(n)}: fi: od"
			],
			"xref": [
				"Cf. A050918, A182352, A182353."
			],
			"keyword": "nonn",
			"offset": "1,1",
			"author": "_Patrick Devlin_, Apr 25 2012",
			"references": 1,
			"revision": 7,
			"time": "2012-04-26T12:16:23-04:00",
			"created": "2012-04-26T12:16:01-04:00"
		}
	]
}