{
	"greeting": "Greetings from The On-Line Encyclopedia of Integer Sequences! http://oeis.org/",
	"query": "id:A182311",
	"count": 1,
	"start": 0,
	"results": [
		{
			"number": 182311,
			"data": "18,196,222,246,258,282,318,354,366,402,426,438,474,498,534,582,606,618,642,654,678,762,786,822,834,894,906,942,978,1002,1038,1074,1086,1146,1158,1182,1194,1266,1338,1362,1374,1398,1434,1446,1506,1542,1578,1614",
			"name": "Numbers k such that k is equal to the sum of the proper divisors of k that are greater than k^(1/3).",
			"comment": [
				"On a suggestion of _Manuel Valdivia_.",
				"Is 407715 the only odd term in this sequence?",
				"407715 is the only odd term \u003c 10^11. - _Donovan Johnson_, Apr 25 2012"
			],
			"link": [
				"Amiram Eldar, \u003ca href=\"/A182311/b182311.txt\"\u003eTable of n, a(n) for n = 1..10000\u003c/a\u003e"
			],
			"mathematica": [
				"d3[n_] := Total[Select[Most[Divisors[n]], # \u003e n^(1/3) \u0026]]; Select[Range[2, 2000], # == d3[#] \u0026] (* _T. D. Noe_, Apr 24 2012 *)"
			],
			"xref": [
				"Cf. A182286."
			],
			"keyword": "nonn",
			"offset": "1,1",
			"author": "_Claudio Meller_, Apr 24 2012",
			"references": 3,
			"revision": 24,
			"time": "2020-03-21T18:54:28-04:00",
			"created": "2012-04-25T12:26:34-04:00"
		}
	]
}