{
	"greeting": "Greetings from The On-Line Encyclopedia of Integer Sequences! http://oeis.org/",
	"query": "id:A182040",
	"count": 1,
	"start": 0,
	"results": [
		{
			"number": 182040,
			"data": "100012,100013,100014,100015,100016,100017,100018,100019,100021,100022,100031,100033,100041,100044,100051,100055,100061,100066,100071,100077,100081,100088,100091,100099,100102,100103,100104,100105,100106,100107,100108,100109,100112",
			"name": "Integers whose decimal representation consists of three distinct digits, one appearing once, one appearing twice, and one appearing three times.",
			"comment": [
				"There are 38880 terms, including 41 squares (A182098) and 3640 primes (A182092). - _Zak Seidov_, Apr 12 2012",
				"This is the subsequence of A218556 consisting of terms with indices n = 254, ..., 39133. The number of terms is 38880 = A218566(10,3), the starting index is 254 = 1 + A218566(10,1) + A218566(10,2) + 1. - _M. F. Hasler_, Nov 02 2012"
			],
			"link": [
				"Charles R Greathouse IV, \u003ca href=\"/A182040/b182040.txt\"\u003eTable of n, a(n) for n = 1..38880\u003c/a\u003e (complete sequence)"
			],
			"mathematica": [
				"t = Select[Range[100000, 999999], Sort[Transpose[Tally[IntegerDigits[#]]][[2]]] == {1, 2, 3} \u0026]; Take[t, 32] (* _T. D. Noe_, Apr 11 2012 *)"
			],
			"program": [
				"(PARI) is(n)=n=vecsort(eval(Vec(Str(n))));vecsort(apply(k-\u003esum(i=1, #n,n[i]==k),vecsort(n,,8)))==[1,2,3] \\\\ _Charles R Greathouse IV_, Apr 11 2012"
			],
			"xref": [
				"Cf. A071925, A181986 (digitally balanced numbers: ternary numbers which have the same number of 0's as 1's as 2's), A182051 (primes with a majority of one digit)."
			],
			"keyword": "nonn,base,fini,full,easy",
			"offset": "1,1",
			"author": "_Jonathan Vos Post_, Apr 09 2012",
			"references": 6,
			"revision": 36,
			"time": "2014-08-03T14:01:27-04:00",
			"created": "2012-04-11T12:48:31-04:00"
		}
	]
}