{
	"greeting": "Greetings from The On-Line Encyclopedia of Integer Sequences! http://oeis.org/",
	"query": "id:A182301",
	"count": 1,
	"start": 0,
	"results": [
		{
			"number": 182301,
			"data": "6,10,12,14,15,18,20,21,24,28,30,35,40,42,45,48,50,54,56,60,63,70,72,75,80,84,90,96,98,105,108,112,120,126,135,140,143,147,150,160,162,168,175,180,187,189,192,200,209,210,221,224,240,245,247,250,252,253,270",
			"name": "Composite numbers that are not perfect powers and whose prime factors have an equal number of digits in decimal representation.",
			"link": [
				"Arkadiusz Wesolowski, \u003ca href=\"/A182301/b182301.txt\"\u003eTable of n, a(n) for n = 1..10000\u003c/a\u003e"
			],
			"example": [
				"30 = 2*3*5 belongs to this sequence, since its prime factors all have one digit and 30 is not a perfect power."
			],
			"mathematica": [
				"lst1 = {}; lst2 = {}; r = 270; Do[b = IntegerDigits[FactorInteger[n]]; If[! PrimeQ[n] \u0026\u0026 Length[b[[-1, 1]]] == Length[b[[1, 1]]], AppendTo[lst1, n]], {n, 4, r}]; lst2 = Complement[lst1, Union[Flatten[Table[n^i, {i, 2, Log[2, r]}, {n, 2, r^(1/i)}]]]]; lst2"
			],
			"xref": [
				"Subsequence of A199009."
			],
			"keyword": "base,nonn",
			"offset": "1,1",
			"author": "_Arkadiusz Wesolowski_, Apr 23 2012",
			"references": 2,
			"revision": 7,
			"time": "2012-04-30T13:52:40-04:00",
			"created": "2012-04-30T13:52:40-04:00"
		}
	]
}