{
	"greeting": "Greetings from The On-Line Encyclopedia of Integer Sequences! http://oeis.org/",
	"query": "id:A182660",
	"count": 1,
	"start": 0,
	"results": [
		{
			"number": 182660,
			"data": "0,0,0,0,1,0,0,0,2,0,0,0,0,0,0,0,3,0,0,0,0,0,0,0,0,0,0,0,0,0,0,0,4,0,0,0,0,0,0,0,0,0,0,0,0,0,0,0,0,0,0,0,0,0,0,0,0,0,0,0,0,0,0,0,5,0,0,0,0,0,0,0,0,0,0,0,0,0,0,0,0,0,0,0,0,0,0,0,0,0,0,0,0,0,0,0,0,0,0,0,0",
			"name": "a(2^(k+1)) = k; 0 everywhere else.",
			"comment": [
				"A surjection N-\u003eN designed to spite a guesser who is trying to guess whether it's a surjection, using the following naive guessing method: Guess that (n0,...,nk) is a subsequence of a surjection iff it contains every natural less than log_2(k+1).",
				"This sequence causes the would-be guesser to change his mind infinitely often.",
				"a(0)=0. Assume a(0),...,a(n) have been defined.",
				"If the above guesser guesses that (a(0),...,a(n)) IS the beginning of a surjective sequence, then let a(n+1)=0. Otherwise let a(n+1) be the least number not in (a(0),...,a(n))."
			],
			"link": [
				"Antti Karttunen, \u003ca href=\"/A182660/b182660.txt\"\u003eTable of n, a(n) for n = 0..65537\u003c/a\u003e",
				"S. Alexander, \u003ca href=\"http://arxiv.org/abs/1011.6626\"\u003eOn Guessing Whether A Sequence Has A Certain Property\u003c/a\u003e, arXiv:1011.6626  [math.LO], 2010-2012.",
				"S. Alexander, \u003ca href=\"https://cs.uwaterloo.ca/journals/JIS/VOL14/Alexander/alex2.html\"\u003eOn Guessing Whether A Sequence Has A Certain Property\u003c/a\u003e, J. Int. Seq. 14 (2011) # 11.4.4."
			],
			"program": [
				"(MAGMA) [ exists(t){ k: k in [1..Ceiling(Log(n+1))] | n eq 2^(k+1) } select t else 0: n in [0..100] ];",
				"(PARI) A182660(n) = if(n\u003c2,0,my(p = 0, k = isprimepower(n,\u0026p)); if(2==p,k-1,0)); \\\\ _Antti Karttunen_, Jul 22 2018"
			],
			"xref": [
				"Cf. A082691, A135416, A209229."
			],
			"keyword": "nonn",
			"offset": "0,9",
			"author": "_Sam Alexander_, Nov 27 2010",
			"references": 2,
			"revision": 28,
			"time": "2018-07-22T22:55:13-04:00",
			"created": "2010-11-26T23:33:51-05:00"
		}
	]
}