{
	"greeting": "Greetings from The On-Line Encyclopedia of Integer Sequences! http://oeis.org/",
	"query": "id:A183355",
	"count": 1,
	"start": 0,
	"results": [
		{
			"number": 183355,
			"data": "12,144,432,1296,3888,11664,34992,104976,314928,944784,2834352,8503056,25509168,76527504,229582512,688747536,2066242608,6198727824,18596183472,55788550416,167365651248,502096953744,1506290861232,4518872583696",
			"name": "One quarter the number of nX3 1..4 arrays with no two neighbors of any element equal to each other",
			"comment": [
				"Column 3 of A183362"
			],
			"link": [
				"R. H. Hardin, \u003ca href=\"/A183355/b183355.txt\"\u003eTable of n, a(n) for n = 1..200\u003c/a\u003e"
			],
			"formula": [
				"Empirical: a(n)=3*a(n-1) for n\u003e2"
			],
			"example": [
				"Some solutions for 5X3 with a(1,1)=1",
				"..1..1..4....1..1..2....1..4..2....1..2..4....1..1..4....1..3..3....1..2..4",
				"..4..2..2....2..4..3....1..3..2....4..2..1....3..2..4....2..4..1....1..2..4",
				"..3..3..1....2..4..3....2..3..4....4..3..3....3..2..1....2..4..1....3..3..1",
				"..2..4..4....1..1..2....2..1..4....2..1..4....4..4..3....1..3..2....2..4..1",
				"..1..1..3....4..3..2....4..1..3....3..1..4....2..1..3....1..3..2....1..4..2"
			],
			"keyword": "nonn",
			"offset": "1,1",
			"author": "_R. H. Hardin_ Jan 04 2011",
			"references": 1,
			"revision": 5,
			"time": "2012-03-31T12:35:50-04:00",
			"created": "2011-01-04T03:01:55-05:00"
		}
	]
}