{
	"greeting": "Greetings from The On-Line Encyclopedia of Integer Sequences! http://oeis.org/",
	"query": "id:A183229",
	"count": 1,
	"start": 0,
	"results": [
		{
			"number": 183229,
			"data": "1,1,1,10,17,126,3862,12741,110609,1929430,167593826,845443941,11064102326,178820437901,7538334414717,1483432379403435,10962589471724049,189591619730952006,3827839859607324106",
			"name": " G.f.: Sum_{n\u003e=0} a(n)*x^n/n!^2 = Product_{n\u003e=1} (1 + x^n/n!^2).",
			"example": [
				" G.f.: A(x) = 1 + x + x^2/2!^2 + 10*x^3/3!^2 + 17*x^4/4!^2 +...",
				"A(x) = (1 + x)*(1 + x^2/2!^2)*(1 + x^3/3!^2)*(1 + x^4/4!^2)*..."
			],
			"program": [
				" (PARI) {a(n)=n!^2*polcoeff(prod(k=1, n, 1+x^k/k!^2 +x*O(x^n)), n)}"
			],
			"xref": [
				" Cf. A183230, A007837."
			],
			"keyword": "nonn",
			"offset": "0,4",
			"author": "_Paul D. Hanna_, Jan 04 2011",
			"references": 4,
			"revision": 5,
			"time": "2012-03-30T18:37:23-04:00",
			"created": "2011-01-02T01:09:12-05:00"
		}
	]
}