{
	"greeting": "Greetings from The On-Line Encyclopedia of Integer Sequences! http://oeis.org/",
	"query": "id:A183461",
	"count": 1,
	"start": 0,
	"results": [
		{
			"number": 183461,
			"data": "3,19,69,199,1577,6125,20625,153353,622193,2445793,16246733,68704747,294587103,1786187735,7815231605,35323362355,200851434261,903548912739,4218720642855,22940107065767,105479993585991,502480038340453",
			"name": "Number of (n+4)X8 binary arrays with every 1 having exactly three king-move neighbors equal to 1 but with no 2X2 blocks of 1s",
			"comment": [
				"Column 4 of A183465"
			],
			"link": [
				"R. H. Hardin, \u003ca href=\"/A183461/b183461.txt\"\u003eTable of n, a(n) for n = 1..164\u003c/a\u003e"
			],
			"example": [
				"Some solutions for 7X8",
				"..0..0..0..0..1..0..0..0....0..0..0..0..0..0..0..0....0..0..1..0..0..0..0..0",
				"..0..0..0..1..1..1..0..0....0..0..1..1..1..0..0..0....0..1..1..1..0..0..0..0",
				"..0..0..1..0..0..0..1..0....0..1..0..1..0..1..0..0....1..0..0..0..1..0..0..0",
				"..0..1..1..0..0..1..1..0....1..1..0..0..0..1..1..0....1..1..0..1..1..0..0..0",
				"..0..1..0..0..0..1..0..0....0..1..0..1..0..1..0..0....1..0..0..0..1..0..0..0",
				"..0..0..1..1..1..0..0..0....0..0..1..1..1..0..0..0....0..1..1..1..0..0..0..0",
				"..0..0..0..1..0..0..0..0....0..0..0..0..0..0..0..0....0..0..1..0..0..0..0..0"
			],
			"keyword": "nonn",
			"offset": "1,1",
			"author": "_R. H. Hardin_ Jan 05 2011",
			"references": 1,
			"revision": 5,
			"time": "2012-03-31T12:35:51-04:00",
			"created": "2011-01-05T05:45:09-05:00"
		}
	]
}