{
	"greeting": "Greetings from The On-Line Encyclopedia of Integer Sequences! http://oeis.org/",
	"query": "id:A183942",
	"count": 1,
	"start": 0,
	"results": [
		{
			"number": 183942,
			"data": "1,1,15,57,1033,6259,80851,844829,10894795,130817901,1781556515,23640849007,329173058411,4518115025537,63025886167079",
			"name": "Number of strings of n numbers x(i) in -7..7 with sums of x(i) and of x(i)*x(i+1) both zero",
			"comment": [
				"Column 7 of A183944"
			],
			"example": [
				"Some solutions for n=4",
				".-3....0....1...-7....0....2...-4....1...-6...-4....1....0....4....6....0....3",
				".-6...-1....0....0...-2....0....0....0....0....1....2...-4...-1....0....6....0",
				"..6....0....0....0....0....0....4...-1....6....2...-2....0...-2....0....0....0",
				"..3....1...-1....7....2...-2....0....0....0....1...-1....4...-1...-6...-6...-3"
			],
			"keyword": "nonn",
			"offset": "1,3",
			"author": "_R. H. Hardin_ Jan 08 2011",
			"references": 0,
			"revision": 4,
			"time": "2012-03-31T12:35:55-04:00",
			"created": "2011-01-08T10:34:25-05:00"
		}
	]
}