{
	"greeting": "Greetings from The On-Line Encyclopedia of Integer Sequences! http://oeis.org/",
	"query": "id:A183636",
	"count": 1,
	"start": 0,
	"results": [
		{
			"number": 183636,
			"data": "452,952,2300,6136,17612,53512,170300,563416,1926572,6776872,24422300,89839096,336216332,1276265032,4900898300,18994385176,74156470892,291175781992,1148379038300,4544596313656,18031730594252,71687168111752",
			"name": "Number of (n+1) X 4 0..3 arrays with every 2 X 2 subblock summing to 6.",
			"comment": [
				"Column 3 of A183642."
			],
			"link": [
				"R. H. Hardin, \u003ca href=\"/A183636/b183636.txt\"\u003eTable of n, a(n) for n = 1..200\u003c/a\u003e"
			],
			"formula": [
				"Empirical: a(n) = 10*a(n-1) - 35*a(n-2) + 50*a(n-3) - 24*a(n-4).",
				"Conjectures from _Colin Barker_, Mar 31 2018: (Start)",
				"G.f.: 4*x*(113 - 892*x + 2150*x^2 - 1536*x^3) / ((1 - x)*(1 - 2*x)*(1 - 3*x)*(1 - 4*x)).",
				"a(n) = 110 + 25*2^(2+n) + 14*3^(1+n) + 4^(1+n).",
				"(End)"
			],
			"example": [
				"Some solutions for 3 X 4:",
				"  0 2 0 3     0 3 1 3     1 2 0 2     2 0 1 0     0 3 0 3",
				"  3 1 3 0     3 0 2 0     1 2 2 2     2 2 3 2     1 2 1 2",
				"  1 1 1 2     0 3 1 3     1 2 0 2     1 1 0 1     0 3 0 3"
			],
			"xref": [
				"Cf. A183642."
			],
			"keyword": "nonn",
			"offset": "1,1",
			"author": "_R. H. Hardin_, Jan 06 2011",
			"references": 1,
			"revision": 10,
			"time": "2018-03-31T14:41:14-04:00",
			"created": "2011-01-06T07:24:15-05:00"
		}
	]
}