{
	"greeting": "Greetings from The On-Line Encyclopedia of Integer Sequences! http://oeis.org/",
	"query": "id:A183484",
	"count": 1,
	"start": 0,
	"results": [
		{
			"number": 183484,
			"data": "1,28,281,17260,9580528,2596400089",
			"name": "Number of n X n 0..3 arrays with every element equal to either the sum mod 4 of its vertical neighbors or the sum mod 4 of its horizontal neighbors",
			"comment": [
				"Diagonal of A183492"
			],
			"example": [
				"Some solutions for 3X3",
				"..2..3..0....0..0..0....0..0..0....0..3..3....2..2..0....0..3..3....3..3..0",
				"..2..3..0....2..1..2....3..2..2....0..2..2....1..1..0....0..0..0....0..0..0",
				"..0..0..0....2..1..2....3..2..2....0..1..1....2..2..0....1..1..0....2..2..0"
			],
			"keyword": "nonn",
			"offset": "1,2",
			"author": "_R. H. Hardin_ Jan 05 2011",
			"references": 0,
			"revision": 6,
			"time": "2015-12-18T18:17:32-05:00",
			"created": "2011-01-05T07:37:40-05:00"
		}
	]
}