{
	"greeting": "Greetings from The On-Line Encyclopedia of Integer Sequences! http://oeis.org/",
	"query": "id:A183309",
	"count": 1,
	"start": 0,
	"results": [
		{
			"number": 183309,
			"data": "13,35,452,5700,94217,1447110,22504107,348871589,5406312318,83828453334,1300167830235,20168484726903,312884691407215,4853992391306949,75303212625271575,1168225180318165057,18123347504407854750",
			"name": "Half the number of nX8 binary arrays with no element equal to a strict majority of its horizontal and vertical neighbors",
			"comment": [
				"Column 8 of A183312"
			],
			"link": [
				"R. H. Hardin, \u003ca href=\"/A183309/b183309.txt\"\u003eTable of n, a(n) for n = 1..200\u003c/a\u003e"
			],
			"example": [
				"Some solutions with a(1,1)=0 for 8X4",
				"..0..1..0..0....0..0..1..0....0..1..1..0....0..0..1..1....0..1..1..0",
				"..1..0..1..1....1..1..0..1....1..0..0..1....1..1..0..0....1..0..0..1",
				"..1..0..1..0....0..0..0..1....0..0..1..0....0..0..1..1....0..1..0..1",
				"..0..1..0..1....1..1..1..0....1..1..0..1....1..1..0..0....1..0..1..0",
				"..1..0..1..0....0..0..1..0....0..1..1..0....0..0..1..1....1..0..0..1",
				"..1..0..0..1....1..0..0..1....1..0..1..0....1..1..0..0....0..1..1..0",
				"..0..1..0..0....0..1..1..0....0..1..0..1....0..1..0..1....1..1..0..1",
				"..1..0..1..1....1..0..0..1....1..0..1..0....0..1..0..1....0..0..1..0"
			],
			"keyword": "nonn",
			"offset": "1,1",
			"author": "_R. H. Hardin_ Jan 03 2011",
			"references": 1,
			"revision": 5,
			"time": "2012-03-31T12:35:50-04:00",
			"created": "2011-01-03T17:53:00-05:00"
		}
	]
}