{
	"greeting": "Greetings from The On-Line Encyclopedia of Integer Sequences! http://oeis.org/",
	"query": "id:A183008",
	"count": 1,
	"start": 0,
	"results": [
		{
			"number": 183008,
			"data": "24,48,72,120,168,264,360,528,720,1008,1344,1848,2424,3240,4224,5544,7128,9240,11760,15048,19008,24048,30120,37800,46992,58464,72240,89232,109560,134496,164208,200376",
			"name": "a(n) = 24*p(n) = 24*A000041(n).",
			"comment": [
				"a(n) is also the area of one of the faces of the rectangular cuboid which is a three-dimensional version of the shell model of partitions of n. The areas of the other faces are A008606(n)=24*n and A066186(n)=n*p(n), where p(n) is the number of partitions of n. See A135010 for more information."
			],
			"example": [
				"For n=6 the a(6)=264 because the number of partitions of 6 is p(6)=A000041(6)=11, so a(6)=24*11=264."
			],
			"xref": [
				"Cf. A000041, A008606, A018253, A066186, A135010, A138121, A138011."
			],
			"keyword": "nonn,easy",
			"offset": "1,1",
			"author": "_Omar E. Pol_, Jan 22 2011",
			"references": 1,
			"revision": 5,
			"time": "2012-03-30T17:34:05-04:00",
			"created": "2010-12-17T14:42:10-05:00"
		}
	]
}