{
	"greeting": "Greetings from The On-Line Encyclopedia of Integer Sequences! http://oeis.org/",
	"query": "id:A183675",
	"count": 1,
	"start": 0,
	"results": [
		{
			"number": 183675,
			"data": "2080,10088,54496,316232,1931680,12267368,80331616,539328392,3696942880,25792417448,182701863136,1311449598152,9524204728480,69887478820328,517576834025056,3864851916885512,29073925027240480,220170830778612008",
			"name": "Number of (n+1) X 3 0..7 arrays with every 2 X 2 subblock summing to 14.",
			"comment": [
				"Column 2 of A183680."
			],
			"link": [
				"R. H. Hardin, \u003ca href=\"/A183675/b183675.txt\"\u003eTable of n, a(n) for n = 1..200\u003c/a\u003e"
			],
			"formula": [
				"Empirical: a(n) = 36*a(n-1) - 546*a(n-2) + 4536*a(n-3) - 22449*a(n-4) + 67284*a(n-5) - 118124*a(n-6) + 109584*a(n-7) - 40320*a(n-8).",
				"Empirical g.f.: 8*x*(260 - 8099*x + 103376*x^2 - 696557*x^3 + 2654612*x^4 - 5661188*x^5 + 6161616*x^6 - 2580480*x^7) / ((1 - x)*(1 - 2*x)*(1 - 3*x)*(1 - 4*x)*(1 - 5*x)*(1 - 6*x)*(1 - 7*x)*(1 - 8*x)). - _Colin Barker_, Apr 03 2018"
			],
			"example": [
				"Some solutions for 5 X 3:",
				"..6..0..7....0..6..0....6..0..3....6..4..5....4..1..6....4..6..2....4..2..5",
				"..5..3..4....2..6..2....3..5..6....2..2..3....6..3..4....0..4..2....7..1..6",
				"..4..2..5....0..6..0....3..3..0....5..5..4....0..5..2....7..3..5....2..4..3",
				"..1..7..0....2..6..2....1..7..4....3..1..4....3..6..1....0..4..2....1..7..0",
				"..2..4..3....2..4..2....3..3..0....6..4..5....2..3..4....4..6..2....1..5..2"
			],
			"xref": [
				"Cf. A183680."
			],
			"keyword": "nonn",
			"offset": "1,1",
			"author": "_R. H. Hardin_, Jan 06 2011",
			"references": 1,
			"revision": 8,
			"time": "2018-04-03T09:15:05-04:00",
			"created": "2011-01-06T09:10:39-05:00"
		}
	]
}