{
	"greeting": "Greetings from The On-Line Encyclopedia of Integer Sequences! http://oeis.org/",
	"query": "id:A183979",
	"count": 1,
	"start": 0,
	"results": [
		{
			"number": 183979,
			"data": "6,8,11,17,27,47,83,155,291,563,1091,2147,4227,8387,16643,33155,66051,131843,263171,525827,1050627,2100227,4198403,8394755,16785411,33566723,67125251,134242307,268468227,536920067,1073807363,2147581955,4295098371",
			"name": "1/4 the number of (n+1) X 3 binary arrays with all 2 X 2 subblock sums the same.",
			"comment": [
				"Column 2 of A183986."
			],
			"link": [
				"R. H. Hardin, \u003ca href=\"/A183979/b183979.txt\"\u003eTable of n, a(n) for n = 1..200\u003c/a\u003e"
			],
			"formula": [
				"Empirical: a(n) = 3*a(n-1) - 6*a(n-3) + 4*a(n-4).",
				"Conjectures from _Colin Barker_, Apr 07 2018: (Start)",
				"G.f.: x*(6 - 10*x - 13*x^2 + 20*x^3) / ((1 - x)*(1 - 2*x)*(1 - 2*x^2)).",
				"a(n) = (3*2^(n/2) + 2^n + 6) / 2 for n even.",
				"a(n) = 2^(n-1) + 2^((n+1)/2) + 3 for n odd.",
				"(End)"
			],
			"example": [
				"Some solutions for 5 X 3.",
				"..1..0..1....1..0..1....1..0..1....1..0..1....0..1..0....1..0..1....1..0..1",
				"..0..1..0....1..1..1....0..1..0....0..0..0....0..1..0....1..0..1....1..0..1",
				"..0..1..0....0..1..0....0..1..0....1..0..1....1..0..1....0..1..0....0..1..0",
				"..0..1..0....1..1..1....1..0..1....0..0..0....1..0..1....0..1..0....1..0..1",
				"..0..1..0....0..1..0....0..1..0....1..0..1....1..0..1....0..1..0....0..1..0"
			],
			"xref": [
				"Cf. A183986."
			],
			"keyword": "nonn",
			"offset": "1,1",
			"author": "_R. H. Hardin_, Jan 08 2011",
			"references": 1,
			"revision": 15,
			"time": "2021-05-25T05:07:41-04:00",
			"created": "2011-01-08T15:47:38-05:00"
		}
	]
}