{
	"greeting": "Greetings from The On-Line Encyclopedia of Integer Sequences! http://oeis.org/",
	"query": "id:A183457",
	"count": 1,
	"start": 0,
	"results": [
		{
			"number": 183457,
			"data": "1,3,32,199,8702,248303,15282749,2019698992,349874591303",
			"name": "Number of (n+4)X(n+4) binary arrays with every 1 having exactly three king-move neighbors equal to 1 but with no 2X2 blocks of 1s",
			"comment": [
				"Diagonal of A183465"
			],
			"example": [
				"Some solutions for 7X7",
				"..0..0..0..1..0..0..0....0..0..0..1..0..0..0....0..0..0..0..1..0..0",
				"..0..0..1..1..1..0..0....0..0..1..1..1..0..0....0..0..0..1..1..1..0",
				"..0..1..0..0..0..1..0....0..1..0..0..0..1..0....0..0..1..0..0..0..1",
				"..1..1..0..0..1..1..0....1..1..0..0..0..1..1....0..1..1..0..0..1..1",
				"..1..0..0..0..1..0..0....0..1..0..0..0..1..0....0..0..1..0..0..0..1",
				"..0..1..1..1..0..0..0....0..0..1..1..1..0..0....0..0..0..1..1..1..0",
				"..0..0..1..0..0..0..0....0..0..0..1..0..0..0....0..0..0..0..1..0..0"
			],
			"keyword": "nonn",
			"offset": "1,2",
			"author": "_R. H. Hardin_ Jan 05 2011",
			"references": 0,
			"revision": 5,
			"time": "2012-03-31T12:35:51-04:00",
			"created": "2011-01-05T05:45:09-05:00"
		}
	]
}