{
	"greeting": "Greetings from The On-Line Encyclopedia of Integer Sequences! http://oeis.org/",
	"query": "id:A183138",
	"count": 1,
	"start": 0,
	"results": [
		{
			"number": 183138,
			"data": "0,0,0,1,1,1,2,2,2,2,3,3,3,4,4,4,4,5,5,5,6,6,6,7,7,7,7,8,8,8,9,9,9,9,10,10,10,11,11,11,12,12,12,12,13,13,13,14,14,14,14,15,15,15,16,16,16,16,17,17,17,18,18,18,19,19,19,19,20,20,20",
			"name": "a(n) = floor(n/(2+sqrt(2))).",
			"comment": [
				"A083051(n) = 2*n+1 + floor(n*sqrt(2)) is the location of the least k for which a(k)=n."
			],
			"link": [
				"G. C. Greubel, \u003ca href=\"/A183138/b183138.txt\"\u003eTable of n, a(n) for n = 1..10000\u003c/a\u003e"
			],
			"formula": [
				"a(n) = floor(n/(2+sqrt(2)))."
			],
			"mathematica": [
				"With[{c=2+Sqrt[2]},Table[Floor[n/c],{n,80}]] (* _Harvey P. Dale_, Jun 21 2017 *)"
			],
			"program": [
				"(PARI) for(n=1,100, print1(floor(n/(2+sqrt(2))), \", \")) \\\\ _G. C. Greubel_ Apr 10 2018",
				"(MAGMA) [Floor(n/(2+Sqrt(2))): n in [1..100]]; // _G. C. Greubel_, Apr 10 2018"
			],
			"xref": [
				"Cf. A183140. Beatty sequence of A268682."
			],
			"keyword": "nonn",
			"offset": "1,7",
			"author": "_Clark Kimberling_, Dec 26 2010",
			"references": 2,
			"revision": 13,
			"time": "2019-05-22T03:05:21-04:00",
			"created": "2010-12-26T17:33:45-05:00"
		}
	]
}