{
	"greeting": "Greetings from The On-Line Encyclopedia of Integer Sequences! http://oeis.org/",
	"query": "id:A183001",
	"count": 1,
	"start": 0,
	"results": [
		{
			"number": 183001,
			"data": "8,0,7,7,6,0,8,7,1,3,0,6,2,4,9,0,2,2,9,2,6,3,8,0,0,7,4,6,1,5,1,6,9,6",
			"name": "Decimal expansion of the integer c^4 where c = 299792458 (exactly) is the speed of light in vacuum (m/s).",
			"comment": [
				"Also decimal expansion of the product of Newtonian constant of gravitation and Planck force. - _Omar E. Pol_, Sep 29 2013"
			],
			"formula": [
				"A070058 * A228817. - _Omar E. Pol_, Mar 15 2014"
			],
			"example": [
				"c^4 = 299792458^4 = 8077608713062490229263800746151696 [meter^4/second^4]."
			],
			"xref": [
				"Cf. A003678, A070058, A182990, A182999, A183000, A228817, A228818."
			],
			"keyword": "cons,nonn,fini,full",
			"offset": "34,1",
			"author": "_Omar E. Pol_, Jan 17 2011",
			"references": 7,
			"revision": 18,
			"time": "2014-03-17T01:44:05-04:00",
			"created": "2010-12-17T14:41:18-05:00"
		}
	]
}