{
	"greeting": "Greetings from The On-Line Encyclopedia of Integer Sequences! http://oeis.org/",
	"query": "id:A183361",
	"count": 1,
	"start": 0,
	"results": [
		{
			"number": 183361,
			"data": "8748,589824,314928,435600,802944,1679616,3852288,9437184,23003136,47775744,95551488,191102976,389283840,807469056,1695744000,3588489216,7596343296,16057958400,33888927744,71430045696,150473539584",
			"name": "One quarter the number of nX9 1..4 arrays with no two neighbors of any element equal to each other",
			"comment": [
				"Column 9 of A183362"
			],
			"link": [
				"R. H. Hardin, \u003ca href=\"/A183361/b183361.txt\"\u003eTable of n, a(n) for n = 1..26\u003c/a\u003e"
			],
			"example": [
				"Some solutions for 5X9 with a(1,1)=1",
				"..1..1..2..3..3..1..2..3..4....1..1..2..4..4..2..2..3..1",
				"..2..4..4..1..2..4..4..1..1....2..4..3..3..1..1..4..3..2",
				"..2..3..3..1..2..3..3..2..2....2..4..1..2..2..3..4..1..2",
				"..4..1..2..4..4..1..1..4..3....3..3..1..4..4..3..2..1..3",
				"..3..1..2..3..3..2..2..4..1....4..2..2..3..1..1..2..4..4"
			],
			"keyword": "nonn",
			"offset": "1,1",
			"author": "_R. H. Hardin_ Jan 04 2011",
			"references": 1,
			"revision": 5,
			"time": "2012-03-31T12:35:50-04:00",
			"created": "2011-01-04T03:01:55-05:00"
		}
	]
}