{
	"greeting": "Greetings from The On-Line Encyclopedia of Integer Sequences! http://oeis.org/",
	"query": "id:A183279",
	"count": 1,
	"start": 0,
	"results": [
		{
			"number": 183279,
			"data": "1,4,24,216,2808,51840,1347192,49029624,2490765552,176234338656,17339959771992,2369745054644616,449436884224900104,118209416642307619200,43093920857777993195064",
			"name": "Half the number of nXnXn triangular binary arrays with no array-nonaligned 2X2X2 subtriangle being all zero or all one",
			"link": [
				"R. H. Hardin, \u003ca href=\"/A183279/b183279.txt\"\u003eTable of n, a(n) for n = 1..23\u003c/a\u003e"
			],
			"example": [
				"Some solutions for 6X6X6 with a(1,1)=0",
				".......0............0............0............0............0............0",
				"......0.0..........1.0..........0.1..........1.0..........1.0..........0.1",
				".....0.1.0........1.0.0........1.0.1........1.0.1........0.0.1........1.0.0",
				"....1.0.0.1......1.0.1.0......1.1.1.0......1.0.1.0......1.1.0.0......1.0.1.0",
				"...0.0.1.0.1....1.0.1.0.1....1.0.0.0.1....0.1.1.1.0....0.0.1.1.0....1.0.1.1.0",
				"..1.1.1.1.1.1..1.1.1.1.1.0..1.0.1.1.0.1..1.1.0.0.1.1..0.1.1.0.0.1..0.1.0.0.0.0"
			],
			"keyword": "nonn",
			"offset": "1,2",
			"author": "_R. H. Hardin_ Jan 03 2011",
			"references": 1,
			"revision": 5,
			"time": "2012-03-31T12:35:50-04:00",
			"created": "2011-01-03T13:01:15-05:00"
		}
	]
}