{
	"greeting": "Greetings from The On-Line Encyclopedia of Integer Sequences! http://oeis.org/",
	"query": "id:A183855",
	"count": 1,
	"start": 0,
	"results": [
		{
			"number": 183855,
			"data": "1,3,5,7,8,9,11,12,13,15,16,17,19,20,21,22,23,25,26,27,28,29,31,32,33,34,35,37,38,39,40,41,42,43,45,46,47,48,49,50,51,53,54,55,56,57,58,59,61,62,63,64,65,66,67,68,69,71,72,73,74,75,76,77,78,79,81,82,83,84,85,86,87,88,89,91,92,93,94,95",
			"name": "n+floor(sqrt(3n-3)); complement of A128422.",
			"xref": [
				"Cf. A128422."
			],
			"keyword": "nonn,easy",
			"offset": "1,2",
			"author": "_Clark Kimberling_, Jan 07 2011",
			"references": 0,
			"revision": 8,
			"time": "2012-03-30T18:57:12-04:00",
			"created": "2011-01-07T14:54:49-05:00"
		}
	]
}