{
	"greeting": "Greetings from The On-Line Encyclopedia of Integer Sequences! http://oeis.org/",
	"query": "id:A183672",
	"count": 1,
	"start": 0,
	"results": [
		{
			"number": 183672,
			"data": "231,1225,1225,6951,5215,6951,41209,24745,24745,41209,251991,126223,100935,126223,251991,1577065,678265,451801,451801,678265,1577065,10049991,3791935,2163831,1803007,2163831,3791935,10049991,64979929",
			"name": "T(n,k)=Number of (n+1)X(k+1) 0..6 arrays with every 2X2 subblock summing to 12",
			"comment": [
				"Table starts",
				"........231......1225......6951.....41209....251991...1577065..10049991",
				".......1225......5215.....24745....126223....678265...3791935..21874825",
				".......6951.....24745....100935....451801...2163831..10914505..57370215",
				"......41209....126223....451801...1803007...7794409..35840623.173139001",
				".....251991....678265...2163831...7794409..30722151.129866905.580718871",
				"....1577065...3791935..10914505..35840623.129866905",
				"...10049991..21874825..57370215.173139001",
				"...64979929.129463663.311907001",
				"..425156151.782782105",
				".2809324105"
			],
			"link": [
				"R. H. Hardin, \u003ca href=\"/A183672/b183672.txt\"\u003eTable of n, a(n) for n = 1..60\u003c/a\u003e"
			],
			"formula": [
				"Empirical, for every row and column: a(n)=28*a(n-1)-322*a(n-2)+1960*a(n-3)-6769*a(n-4)+13132*a(n-5)-13068*a(n-6)+5040*a(n-7)",
				"The coefficient of a(n-i) is -s(8,8-i), s() being the Stirling number of the first kind, via D. S. McNeil and M. F. Hasler in the Sequence Fans Mailing List.",
				"For a 0..z array with 2X2 blocks summing to 2z, the coefficients are -s(z+2,z+2-i)"
			],
			"example": [
				"Some solutions for 4X3",
				"..4..1..5....5..2..5....2..2..1....6..2..4....3..1..5....5..1..5....0..6..1",
				"..6..1..5....2..3..2....3..5..4....2..2..4....3..5..1....6..0..6....3..3..2",
				"..3..2..4....4..3..4....4..0..3....4..4..2....4..0..6....3..3..3....0..6..1",
				"..5..2..4....1..4..1....2..6..3....3..1..5....6..2..4....1..5..1....3..3..2"
			],
			"keyword": "nonn,tabl",
			"offset": "1,1",
			"author": "_R. H. Hardin_ Jan 06 2011",
			"references": 10,
			"revision": 7,
			"time": "2012-03-31T12:35:53-04:00",
			"created": "2011-01-06T08:26:29-05:00"
		}
	]
}