{
	"greeting": "Greetings from The On-Line Encyclopedia of Integer Sequences! http://oeis.org/",
	"query": "id:A183425",
	"count": 1,
	"start": 0,
	"results": [
		{
			"number": 183425,
			"data": "3,9,32,129,513,2048,8193,32769,131072,524289,2097153,8388608,33554433,134217729,536870912,2147483649,8589934593,34359738368,137438953473,549755813889,2199023255552,8796093022209,35184372088833,140737488355328",
			"name": "Half the number of n X 2 0..2 arrays with no element equal its row sum plus its column sum mod 3.",
			"comment": [
				"Column 2 of A183429."
			],
			"link": [
				"R. H. Hardin, \u003ca href=\"/A183425/b183425.txt\"\u003eTable of n, a(n) for n = 1..200\u003c/a\u003e"
			],
			"formula": [
				"Empirical: a(n)=4*a(n-1) + a(n-3) - 4*a(n-4).",
				"Empirical g.f.: x*(3 - 3*x - 4*x^2 - 2*x^3) / ((1 - x)*(1 - 4*x)*(1 + x + x^2)). - _Colin Barker_, Mar 29 2018"
			],
			"example": [
				"Some solutions for 4 X 2:",
				"..1..2....2..2....0..1....2..1....0..2....1..1....0..0....2..1....1..1....0..2",
				"..0..2....2..2....0..1....1..2....0..0....1..2....0..1....0..1....1..2....1..0",
				"..1..2....2..2....0..1....1..2....1..2....0..2....0..0....2..2....2..2....0..0",
				"..1..1....2..2....0..1....2..1....1..0....1..2....1..0....2..1....2..1....1..2"
			],
			"xref": [
				"Cf. A183429."
			],
			"keyword": "nonn",
			"offset": "1,1",
			"author": "_R. H. Hardin_, Jan 04 2011",
			"references": 1,
			"revision": 9,
			"time": "2018-03-29T05:30:49-04:00",
			"created": "2011-01-04T17:13:18-05:00"
		}
	]
}