{
	"greeting": "Greetings from The On-Line Encyclopedia of Integer Sequences! http://oeis.org/",
	"query": "id:A184435",
	"count": 1,
	"start": 0,
	"results": [
		{
			"number": 184435,
			"data": "1,1,2,5,19,51,130,359,946,2333,5818,14088,33135,76611,173464,384457,837012,1790715,3766901,7802712,15923697,32039816,63611885,124689752,241431996,462031599,874300348,1636607223,3031814449,5560277156",
			"name": "Number of strings of numbers x(i=1..n) in 0..3 with sum i*x(i)^2 equal to n*9",
			"comment": [
				"Column 3 of A184441"
			],
			"link": [
				"R. H. Hardin, \u003ca href=\"/A184435/b184435.txt\"\u003eTable of n, a(n) for n = 1..149\u003c/a\u003e"
			],
			"example": [
				"Some solutions for n=5",
				"..0....1....3....2....2....3....0....1....2....3....3....1....2....2....1....0",
				"..0....0....0....1....1....0....3....2....0....0....0....2....2....3....2....1",
				"..0....1....0....1....1....0....1....3....0....2....3....0....2....1....0....3",
				"..0....3....2....2....3....3....1....1....3....1....1....3....2....0....2....2",
				"..3....1....2....2....0....0....2....1....1....2....1....0....1....2....2....0"
			],
			"keyword": "nonn",
			"offset": "1,3",
			"author": "_R. H. Hardin_ Jan 14 2011",
			"references": 1,
			"revision": 5,
			"time": "2012-03-31T12:35:59-04:00",
			"created": "2011-01-14T17:37:06-05:00"
		}
	]
}