{
	"greeting": "Greetings from The On-Line Encyclopedia of Integer Sequences! http://oeis.org/",
	"query": "id:A184848",
	"count": 1,
	"start": 0,
	"results": [
		{
			"number": 184848,
			"data": "1,1,1,1,1,2,1,1,2,2,1,1,2,2,3,1,1,2,2,3,4,1,1,2,2,6,7,5,1,1,2,2,3,10,13,6,1,1,2,2,3,13,17,25,8,1,1,2,2,6,8,33,45,54,10,1,1,2,2,3,16,33,113,153,122,12,1,1,2,2,3,19,76,183,433,561,253,15,1,1,2,2,15,34,76,388,1136",
			"name": "T(n,k)=Number of strings of numbers x(i=1..n) in 0..k with sum i*x(i)^4 equal to n*k^4",
			"comment": [
				"Table starts",
				"..1...1...1....1....1.....1.....1.....1......1......1......1......1......1",
				"..1...1...1....1....1.....1.....1.....1......1......1......1......1......1",
				"..2...2...2....2....2.....2.....2.....2......2......2......2......2......2",
				"..2...2...2....2....2.....2.....2.....2......2......2......2......2......2",
				"..3...3...6....3....3.....6.....3.....3.....15......3......6......6......6",
				"..4...7..10...13....8....16....19....34.....54.....22.....31.....55.....55",
				"..5..13..17...33...33....76....76...137....138....196....240....398....287",
				"..6..25..45..113..183...388...476...810...1300...1671...2367...3609...3980",
				"..8..54.153..433.1136..2152..3627..6367..10682..22301..26183..38093..52046",
				".10.122.561.2358.5506.13887.30780.66564.128755.203637.338413.552675.897445"
			],
			"link": [
				"R. H. Hardin, \u003ca href=\"/A184848/b184848.txt\"\u003eTable of n, a(n) for n = 1..264\u003c/a\u003e"
			],
			"example": [
				"All solutions for n=6 k=5",
				"..5....5....5....0....5....0....0....1",
				"..4....1....0....5....5....0....3....4",
				"..2....3....0....0....5....0....4....2",
				"..4....2....0....5....0....0....1....2",
				"..1....4....5....0....0....0....4....5",
				"..4....4....0....0....0....5....4....0"
			],
			"xref": [
				"Column 1 is A000009"
			],
			"keyword": "nonn,tabl",
			"offset": "1,6",
			"author": "_R. H. Hardin_ Jan 23 2011",
			"references": 13,
			"revision": 5,
			"time": "2012-03-31T12:36:01-04:00",
			"created": "2011-01-23T10:37:40-05:00"
		}
	]
}