{
	"greeting": "Greetings from The On-Line Encyclopedia of Integer Sequences! http://oeis.org/",
	"query": "id:A184044",
	"count": 1,
	"start": 0,
	"results": [
		{
			"number": 184044,
			"data": "81,87,97,117,153,225,361,633,1161,2217,4297,8457,16713,33225,66121,131913,263241,525897,1050697,2100297,4198473,8394825,16785481,33566793,67125321,134242377,268468297,536920137,1073807433,2147582025,4295098441",
			"name": "1/9 the number of (n+1) X 6 0..2 arrays with all 2 X 2 subblocks having the same four values.",
			"comment": [
				"Column 5 of A184048."
			],
			"link": [
				"R. H. Hardin, \u003ca href=\"/A184044/b184044.txt\"\u003eTable of n, a(n) for n = 1..200\u003c/a\u003e"
			],
			"formula": [
				"Empirical: a(n) = 3*a(n-1) - 6*a(n-3) + 4*a(n-4).",
				"Conjectures from _Colin Barker_, Apr 10 2018: (Start)",
				"G.f.: x*(81 - 156*x - 164*x^2 + 312*x^3) / ((1 - x)*(1 - 2*x)*(1 - 2*x^2)).",
				"a(n) = 3*2^(n/2) + 2^(n+1) + 73 for n even.",
				"a(n) = 2^(n+1) + 2^((n+3)/2) + 73 for n odd.",
				"(End)"
			],
			"example": [
				"Some solutions for 5 X 6:",
				"..2..0..1..0..2..1....2..1..2..0..2..0....0..2..1..0..1..0....1..2..1..0..1..0",
				"..1..1..2..1..1..0....2..0..2..1..2..1....1..0..0..2..0..2....2..0..2..2..2..2",
				"..2..0..1..0..2..1....2..1..2..0..2..0....0..2..1..0..1..0....1..2..1..0..1..0",
				"..1..1..2..1..1..0....2..0..2..1..2..1....1..0..0..2..0..2....2..0..2..2..2..2",
				"..2..0..1..0..2..1....2..1..2..0..2..0....0..2..1..0..1..0....1..2..1..0..1..0"
			],
			"xref": [
				"Cf. A184048."
			],
			"keyword": "nonn",
			"offset": "1,1",
			"author": "_R. H. Hardin_, Jan 08 2011",
			"references": 1,
			"revision": 8,
			"time": "2018-04-10T11:52:01-04:00",
			"created": "2011-01-08T19:36:23-05:00"
		}
	]
}