{
	"greeting": "Greetings from The On-Line Encyclopedia of Integer Sequences! http://oeis.org/",
	"query": "id:A184988",
	"count": 1,
	"start": 0,
	"results": [
		{
			"number": 184988,
			"data": "0,1,4,9,6,5,6,9,6,8,1,121,44,9,9,22,6,9,4,6,4,44,484,9,7,6,676,9,8,8,9,9,4,9,11,22,9,9,444,5,6,8,7,9,9,202,11,22,4,4,5,6,7,9,9,5,313,9,33,8,6,7,44,969,9,22,6,44,6,7,9,5,8,9,7,6,77,929",
			"name": "Largest palindromic substring of n^2.",
			"comment": [
				"Leading 0's are not allowed, so a(103) = 9, not 060. - _Robert Israel_, Nov 05 2020"
			],
			"link": [
				"Robert Israel, \u003ca href=\"/A184988/b184988.txt\"\u003eTable of n, a(n) for n = 0..10000\u003c/a\u003e"
			],
			"formula": [
				"a(n) = A047813(A000290(n))."
			],
			"example": [
				"a(15) = largest palindromic substring of 15^2 = largest palindromic substring of 225 = 22."
			],
			"maple": [
				"g:= proc(S) S[1] \u003c\u003e \"0\" and S = StringTools:-Reverse(S) end proc:",
				"f:= proc(n) local S,d,l,i,Q;",
				"  S:= sprintf(\"%d\",n^2);",
				"  d:= length(S);",
				"  for l from d to 1 by -1 do",
				"    Q:= select(g, [seq(S[i..i+l-1],i=1..d+1-l)]);",
				"    if Q \u003c\u003e [] then return op(sscanf(max(Q),\"%d\")) fi",
				"  od;",
				"end proc:",
				"f(0):= 0:",
				"map(f, [$0..200]); # _Robert Israel_, Nov 05 2020"
			],
			"xref": [
				"Cf. A000290, A002113, A047813."
			],
			"keyword": "nonn,base,easy,look",
			"offset": "0,3",
			"author": "_Jonathan Vos Post_, Mar 27 2011",
			"references": 1,
			"revision": 13,
			"time": "2020-11-05T15:39:45-05:00",
			"created": "2011-03-29T13:32:42-04:00"
		}
	]
}