{
	"greeting": "Greetings from The On-Line Encyclopedia of Integer Sequences! http://oeis.org/",
	"query": "id:A184309",
	"count": 1,
	"start": 0,
	"results": [
		{
			"number": 184309,
			"data": "1,5,18,65,167,410,819,1516,3278,5370,9033,15333,22188,31688,55054,67901,96992,147435,184996,238461,357370,415171,542970,750963,877365,1067583,1516301,1638832,2032842,2752685,3012300,3525544,4790656,5068331,6072275",
			"name": "Number of strings of numbers x(i=1..8) in 0..n with sum i^3*x(i)^2 equal to 512*n^2",
			"comment": [
				"Row 8 of A184303"
			],
			"link": [
				"R. H. Hardin, \u003ca href=\"/A184309/b184309.txt\"\u003eTable of n, a(n) for n = 1..36\u003c/a\u003e"
			],
			"example": [
				"Some solutions for n=5",
				"..3....4....2....1....1....2....4....3....2....1....2....3....0....5....4....5",
				"..4....5....4....4....0....2....5....1....4....0....4....5....5....1....0....3",
				"..1....3....4....3....1....2....0....1....2....5....4....3....2....3....2....1",
				"..4....2....3....0....4....5....3....5....5....0....5....5....1....0....1....5",
				"..1....3....5....4....3....4....4....1....0....5....2....1....4....5....3....3",
				"..2....2....0....2....0....2....5....3....2....5....3....0....2....2....2....2",
				"..5....4....1....2....5....0....0....5....4....3....0....5....2....1....5....5",
				"..2....3....4....4....2....4....3....1....3....1....4....2....4....4....2....1"
			],
			"keyword": "nonn",
			"offset": "1,2",
			"author": "_R. H. Hardin_ Jan 10 2011",
			"references": 1,
			"revision": 5,
			"time": "2012-03-31T12:35:59-04:00",
			"created": "2011-01-10T22:32:44-05:00"
		}
	]
}