{
	"greeting": "Greetings from The On-Line Encyclopedia of Integer Sequences! http://oeis.org/",
	"query": "id:A184555",
	"count": 1,
	"start": 0,
	"results": [
		{
			"number": 184555,
			"data": "50,5736,3436266,12900566348,276510402290782,35245029137091490532,26246732217663407375879655,115019923806287297509943176811916,2957519612846906106776158316962863659667",
			"name": "Number of (n+1)X(n+1) 0..2 arrays with no 2X2 subblock summing to less than 4",
			"comment": [
				"Diagonal of A184564"
			],
			"example": [
				"Some solutions for 3X3",
				"..2..2..2....1..2..0....2..0..2....2..0..2....1..2..2....2..2..0....2..1..2",
				"..2..2..2....2..1..1....1..2..2....1..2..1....2..1..1....2..1..2....2..2..2",
				"..2..0..1....0..2..2....0..2..2....0..2..1....0..1..2....2..1..1....1..2..0"
			],
			"keyword": "nonn",
			"offset": "1,1",
			"author": "_R. H. Hardin_ Jan 17 2011",
			"references": 0,
			"revision": 5,
			"time": "2012-03-31T12:36:00-04:00",
			"created": "2011-01-17T10:10:06-05:00"
		}
	]
}