{
	"greeting": "Greetings from The On-Line Encyclopedia of Integer Sequences! http://oeis.org/",
	"query": "id:A184410",
	"count": 1,
	"start": 0,
	"results": [
		{
			"number": 184410,
			"data": "3,5,8,11,12,15,16,20,21,25,26,27,31,32,33,38,39,40,44,46,47,48,52,54,55,57,61,63,64,66,69,71,73,74,76,79,81,83,85,87,90,92,94,96,98,100,102,104,106,108,110,112,114,116,119,121,123,125,127,129",
			"name": "Ranks of (odd i)+j/r when all i+j/r are ranked; r=sqrt(2), i\u003e=0, j\u003e=0.  Complement of A184411.",
			"example": [
				"Writing (i,j) for i+j/r, the first 7 in the ranking are (0,0), (0,1), (1,0), (0,2), (1,1), (2,0), (0,3); the ranks where i is odd are 3,5 and the ranks where i is even are 1,2,4,6,7."
			],
			"xref": [
				"Cf. A184397, A184411, A184412, A184413, A184414, A184415, A184416."
			],
			"keyword": "nonn",
			"offset": "1,1",
			"author": "_Clark Kimberling_, Jan 13 2011",
			"references": 2,
			"revision": 6,
			"time": "2012-03-30T18:57:13-04:00",
			"created": "2011-01-13T15:07:47-05:00"
		}
	]
}