{
	"greeting": "Greetings from The On-Line Encyclopedia of Integer Sequences! http://oeis.org/",
	"query": "id:A184704",
	"count": 1,
	"start": 0,
	"results": [
		{
			"number": 184704,
			"data": "2,7,14,28,46,74,107,154,208,278,357,456,565,697,841,1011,1195,1408,1636,1897,2175,2488,2820,3191,3582,4015,4470,4970,5494,6066,6663,7312,7988,8718,9477,10294,11141,12049,12989,13993,15031,16136,17276,18487,19735",
			"name": "Number of strings of numbers x(i=1..4) in 0..n with sum i*x(i) equal to n*4.",
			"comment": [
				"Row 4 of A184703."
			],
			"link": [
				"R. H. Hardin, \u003ca href=\"/A184704/b184704.txt\"\u003eTable of n, a(n) for n = 1..200\u003c/a\u003e"
			],
			"formula": [
				"Empirical: a(n) = a(n-1) + a(n-2) - 2*a(n-5) + a(n-8) + a(n-9) - a(n-10).",
				"Empirical g.f.: x*(2 + 5*x + 5*x^2 + 7*x^3 + 4*x^4 + 4*x^5 + x^6 + x^7 + x^8 - x^9) / ((1 - x)^4*(1 + x)^2*(1 + x^2)*(1 + x + x^2)). - _Colin Barker_, Apr 14 2018"
			],
			"example": [
				"All solutions for n=3:",
				"..0....3....3....1....2....2....2....2....1....1....3....0....0....0",
				"..1....0....3....0....1....3....0....2....2....1....1....2....0....3",
				"..2....3....1....1....0....0....2....2....1....3....1....0....0....2",
				"..1....0....0....2....2....1....1....0....1....0....1....2....3....0"
			],
			"xref": [
				"Cf. A184703."
			],
			"keyword": "nonn",
			"offset": "1,1",
			"author": "_R. H. Hardin_, Jan 20 2011",
			"references": 1,
			"revision": 9,
			"time": "2018-04-14T13:11:29-04:00",
			"created": "2011-01-20T07:56:35-05:00"
		}
	]
}