{
	"greeting": "Greetings from The On-Line Encyclopedia of Integer Sequences! http://oeis.org/",
	"query": "id:A184027",
	"count": 1,
	"start": 0,
	"results": [
		{
			"number": 184027,
			"data": "25538,35771,53948,94469,177386,374381,829724,1994441,4970738,13142141,35742788,101630489",
			"name": "1/8 the number of (n+1)X8 0..3 arrays with all 2X2 subblock sums the same",
			"comment": [
				"Column 7 of A184029"
			],
			"example": [
				"Some solutions for 4X8",
				"..0..2..2..1..3..0..3..0....2..2..0..0..0..1..1..0....2..0..2..2..0..1..2..1",
				"..3..0..1..1..0..2..0..2....1..1..3..3..3..2..2..3....0..3..0..1..2..2..0..2",
				"..0..2..2..1..3..0..3..0....2..2..0..0..0..1..1..0....2..0..2..2..0..1..2..1",
				"..3..0..1..1..0..2..0..2....1..1..3..3..3..2..2..3....1..2..1..0..3..1..1..1"
			],
			"keyword": "nonn",
			"offset": "1,1",
			"author": "_R. H. Hardin_ Jan 08 2011",
			"references": 0,
			"revision": 4,
			"time": "2012-03-31T12:35:56-04:00",
			"created": "2011-01-08T17:23:44-05:00"
		}
	]
}