{
	"greeting": "Greetings from The On-Line Encyclopedia of Integer Sequences! http://oeis.org/",
	"query": "id:A184409",
	"count": 1,
	"start": 0,
	"results": [
		{
			"number": 184409,
			"data": "0,0,0,0,0,0,0,2,6,6,6,6,6,8,12,22,42,42,42,42,42,42,42,46,58,68,72,72,72,100,148,150,186,186,186,186,186,186,186,190,202,210,210,210,210,214,226,254,314,356,360,360,360,360,360,368,396,524,708,652,628,676,764,710,762,762,762,762,762,762,762,766",
			"name": "Total number of missing toothpicks in the holes in the toothpick structure of A182840.",
			"comment": [
				"Each connected group of unoccupied lines in the hexagonal structure enclosed by toothpicks counts as a hole."
			],
			"link": [
				"Olaf Voß, \u003ca href=\"/A184409/b184409.txt\"\u003eTable of n, a(n) for n = 0..625\u003c/a\u003e",
				"N. J. A. Sloane, \u003ca href=\"/wiki/Catalog_of_Toothpick_and_CA_Sequences_in_OEIS\"\u003eCatalog of Toothpick and Cellular Automata Sequences in the OEIS\u003c/a\u003e",
				"Olaf Voß, \u003ca href=\"/wiki/Toothpick_structures_on_hexagonal_net\"\u003eToothpick structures on hexagonal net\u003c/a\u003e",
				"\u003ca href=\"/index/To#toothpick\"\u003eIndex entries for sequences related to toothpick sequences\u003c/a\u003e"
			],
			"example": [
				"Structure after step 8:",
				"      \\_/",
				"    \\_/ \\_/",
				"  \\_/ \\_/ \\_/",
				"\\_/  _/ \\_  \\_/",
				"/ \\_/ \\_/ \\_/ \\",
				"\\_/ \\_/ \\_/ \\_/",
				"/ \\ / \\_/ \\ / \\",
				"\\_/ \\_/ \\_/ \\_/",
				"/ \\_/ \\_/ \\_/ \\",
				"\\_/ \\_/ \\_/ \\_/",
				"/ \\_  \\_/  _/ \\",
				"  / \\_/ \\_/ \\",
				"    / \\_/ \\",
				"      / \\",
				"There are 6 holes in this structure, in each 1 toothpick is missing, so a(8)=6."
			],
			"xref": [
				"For number of holes see A184408."
			],
			"keyword": "nonn",
			"offset": "0,8",
			"author": "_Olaf Voß_, Jan 13 2011",
			"references": 2,
			"revision": 24,
			"time": "2019-07-20T14:21:53-04:00",
			"created": "2011-01-13T05:18:24-05:00"
		}
	]
}