{
	"greeting": "Greetings from The On-Line Encyclopedia of Integer Sequences! http://oeis.org/",
	"query": "id:A184559",
	"count": 1,
	"start": 0,
	"results": [
		{
			"number": 184559,
			"data": "14180,1486258,134840527,12900566348,1214657950233,115000791536877,10868641315040295,1027803541995894568,97176104485641628222,9188347231740579769607,868772129294612664475944",
			"name": "Number of (n+1)X5 0..2 arrays with no 2X2 subblock summing to less than 4",
			"comment": [
				"Column 4 of A184564"
			],
			"link": [
				"R. H. Hardin, \u003ca href=\"/A184559/b184559.txt\"\u003eTable of n, a(n) for n = 1..200\u003c/a\u003e"
			],
			"example": [
				"Some solutions for 3X5",
				"..0..1..1..1..2....0..0..2..2..0....0..1..0..1..2....0..1..0..2..2",
				"..2..1..1..2..1....2..2..1..2..0....1..2..2..1..2....1..2..2..1..2",
				"..1..0..2..1..0....1..2..1..2..1....0..2..2..0..1....2..0..1..1..2"
			],
			"keyword": "nonn",
			"offset": "1,1",
			"author": "_R. H. Hardin_ Jan 17 2011",
			"references": 1,
			"revision": 5,
			"time": "2012-03-31T12:36:00-04:00",
			"created": "2011-01-17T10:10:06-05:00"
		}
	]
}