{
	"greeting": "Greetings from The On-Line Encyclopedia of Integer Sequences! http://oeis.org/",
	"query": "id:A184351",
	"count": 1,
	"start": 0,
	"results": [
		{
			"number": 184351,
			"data": "1,2,2,3,3,4,7,8,12,18,29,40,60,80,105,135,167,208,258,317,387,466,555,647,749,864,988,1133,1294,1477,1678,1899,2145,2405,2690,2998,3338,3701,4097,4519,4975,5464,5982,6546,7156,7805,8495,9228,10004,10830,11695",
			"name": "Number of strings of numbers x(i=1..5) in 0..n with sum i^4*x(i) equal to 625*n",
			"comment": [
				"Row 5 of A184348"
			],
			"link": [
				"R. H. Hardin, \u003ca href=\"/A184351/b184351.txt\"\u003eTable of n, a(n) for n = 1..200\u003c/a\u003e"
			],
			"example": [
				"All solutions for n=5",
				"..0....0....0",
				"..4....2....0",
				"..2....1....0",
				"..4....2....0",
				"..3....4....5"
			],
			"keyword": "nonn",
			"offset": "1,2",
			"author": "_R. H. Hardin_ Jan 11 2011",
			"references": 1,
			"revision": 5,
			"time": "2012-03-31T12:35:59-04:00",
			"created": "2011-01-11T17:15:16-05:00"
		}
	]
}