{
	"greeting": "Greetings from The On-Line Encyclopedia of Integer Sequences! http://oeis.org/",
	"query": "id:A184136",
	"count": 1,
	"start": 0,
	"results": [
		{
			"number": 184136,
			"data": "45,10704,9681099,15270848022,25325301730396,36743249714104252,44958654878873680385,46774077148795239899357,42097203428804324322199398,33324660689209130394508546845,23530205707929325443339255048671",
			"name": "Number of nX8 0..2 arrays with rows and columns in nondecreasing order",
			"comment": [
				"Column 8 of A184137"
			],
			"link": [
				"R. H. Hardin, \u003ca href=\"/A184136/b184136.txt\"\u003eTable of n, a(n) for n = 1..27\u003c/a\u003e"
			],
			"example": [
				"Some solutions for 3X8",
				"..0..0..0..0..0..1..1..2....0..0..0..0..0..1..1..1....0..0..0..0..0..1..1..1",
				"..0..0..0..0..2..2..2..1....0..0..0..0..2..0..2..2....0..0..0..1..2..1..2..2",
				"..0..0..1..1..1..2..2..2....0..0..1..1..1..1..0..0....0..0..0..2..0..2..1..1"
			],
			"keyword": "nonn",
			"offset": "1,1",
			"author": "_R. H. Hardin_ Jan 09 2011",
			"references": 1,
			"revision": 5,
			"time": "2012-03-31T12:35:56-04:00",
			"created": "2011-01-09T18:04:08-05:00"
		}
	]
}