{
	"greeting": "Greetings from The On-Line Encyclopedia of Integer Sequences! http://oeis.org/",
	"query": "id:A184028",
	"count": 1,
	"start": 0,
	"results": [
		{
			"number": 184028,
			"data": "89044,117321,165929,271176,477919,950430,1994441,4552710",
			"name": "1/8 the number of (n+1)X9 0..3 arrays with all 2X2 subblock sums the same",
			"comment": [
				"Column 8 of A184029"
			],
			"example": [
				"Some solutions for 4X9",
				"..0..3..2..1..2..3..2..1..1....0..2..2..1..2..2..1..2..0",
				"..2..0..0..2..0..0..0..2..1....2..1..0..2..0..1..1..1..2",
				"..0..3..2..1..2..3..2..1..1....1..1..3..0..3..1..2..1..1",
				"..2..0..0..2..0..0..0..2..1....2..1..0..2..0..1..1..1..2"
			],
			"keyword": "nonn",
			"offset": "1,1",
			"author": "_R. H. Hardin_ Jan 08 2011",
			"references": 0,
			"revision": 4,
			"time": "2012-03-31T12:35:56-04:00",
			"created": "2011-01-08T17:23:44-05:00"
		}
	]
}