{
	"greeting": "Greetings from The On-Line Encyclopedia of Integer Sequences! http://oeis.org/",
	"query": "id:A184214",
	"count": 1,
	"start": 0,
	"results": [
		{
			"number": 184214,
			"data": "7189899,16373312263,25009565161353,45067897172765323,76537880222228869035,133077056896640920382417,229331305285207502562599550,396580709395010561685287409609",
			"name": "Number of (n+1)X7 0..3 arrays with every 2X2 subblock sum greater than 6",
			"comment": [
				"Column 6 of A184217"
			],
			"link": [
				"R. H. Hardin, \u003ca href=\"/A184214/b184214.txt\"\u003eTable of n, a(n) for n = 1..69\u003c/a\u003e"
			],
			"example": [
				"Some solutions for 3X7",
				"..0..2..0..2..2..3..3....0..2..0..2..2..2..2....0..2..0..2..2..1..3",
				"..3..2..3..2..1..3..2....3..2..3..3..2..3..0....3..2..3..2..3..2..3",
				"..2..0..2..3..1..2..3....2..0..2..1..1..1..3....2..0..3..0..2..2..0"
			],
			"keyword": "nonn",
			"offset": "1,1",
			"author": "_R. H. Hardin_ Jan 10 2011",
			"references": 1,
			"revision": 5,
			"time": "2012-03-31T12:35:57-04:00",
			"created": "2011-01-10T08:20:06-05:00"
		}
	]
}