{
	"greeting": "Greetings from The On-Line Encyclopedia of Integer Sequences! http://oeis.org/",
	"query": "id:A184897",
	"count": 1,
	"start": 0,
	"results": [
		{
			"number": 184897,
			"data": "1,56,43792,50098048,67507119680,99694514343424,156121609461801984,254663020429855285248,428056704465033002591232,736257531679856764456919040,1289628692490437108622739390464",
			"name": "a(n) = (8^n/n!^2) * Product_{k=0..n-1} (16k+1)*(16k+7).",
			"link": [
				"Vincenzo Librandi, \u003ca href=\"/A184897/b184897.txt\"\u003eTable of n, a(n) for n = 0..100\u003c/a\u003e"
			],
			"formula": [
				"Self-convolution yields Sum_{k=0..n} a(n-k)*a(k) = A184898(n) where A184898(n) = C(2n,n) * (8^n/n!^2)*Product_{k=0..n-1} (8k+1)*(8k+7)."
			],
			"example": [
				"G.f.: A(x) = 1 + 56*x + 43792*x^2 + 50098048*x^3 +...",
				"A(x)^2 = 1 + 112*x + 90720*x^2 + 105100800*x^3 +...+ A184898(n)*x^n +..."
			],
			"mathematica": [
				"FullSimplify[Table[2^(11*n) * Gamma[n+1/16] * Gamma[n+7/16] / (Gamma[n+1]^2 * Gamma[1/16] * Gamma[7/16]), {n, 0, 15}]] (* _Vaclav Kotesovec_, Jul 03 2014 *)"
			],
			"program": [
				"(PARI) {a(n)=(8^n/n!^2)*prod(k=0,n-1,(16*k+1)*(16*k+7))}"
			],
			"xref": [
				"Cf. A184898; variants: A184424, A178529, A184891, A092870, A184895."
			],
			"keyword": "nonn",
			"offset": "0,2",
			"author": "_Paul D. Hanna_, Jan 25 2011",
			"references": 6,
			"revision": 13,
			"time": "2014-07-04T03:01:05-04:00",
			"created": "2011-01-25T00:49:19-05:00"
		}
	]
}