{
	"greeting": "Greetings from The On-Line Encyclopedia of Integer Sequences! http://oeis.org/",
	"query": "id:A184896",
	"count": 1,
	"start": 0,
	"results": [
		{
			"number": 184896,
			"data": "1,84,45864,35672000,32445913500,32247604076688,33935228690034672,37165308416775931392,41919854708375196052500,48365506771435816732770000,56812832722107710740048677120,67715433011522917282547695380480",
			"name": "a(n) = C(2n,n) * (7^n/n!^2) * Product_{k=0..n-1} (7k+1)*(7k+6).",
			"formula": [
				"Self-convolution of A184895, where A184895(n) = (7^n/n!^2) * Product_{k=0..n-1} (14k+1)*(14k+6).",
				"a(n) ~ sin(Pi/7) * 2^(2*n) * 7^(3*n) / (Pi*n)^(3/2). - _Vaclav Kotesovec_, Oct 23 2020"
			],
			"example": [
				"G.f.: A(x) = 1 + 84*x + 45864*x^2 + 35672000*x^3 +...",
				"A(x)^(1/2) = 1 + 42*x + 22050*x^2 + 16909900*x^3 +...+ A184895(n)*x^n +..."
			],
			"program": [
				"(PARI) {a(n)=(2*n)!/n!^2*(7^n/n!^2)*prod(k=0,n-1,(7*k+1)*(7*k+6))}"
			],
			"xref": [
				"Cf. A184895; variants: A184423, A008977, A184892, A001421, A184898."
			],
			"keyword": "nonn",
			"offset": "0,2",
			"author": "_Paul D. Hanna_, Jan 25 2011",
			"references": 6,
			"revision": 10,
			"time": "2020-10-23T06:32:48-04:00",
			"created": "2011-01-25T00:49:19-05:00"
		}
	]
}