{
	"greeting": "Greetings from The On-Line Encyclopedia of Integer Sequences! http://oeis.org/",
	"query": "id:A185501",
	"count": 1,
	"start": 0,
	"results": [
		{
			"number": 185501,
			"data": "1107,30775,511253,10355969,195165583,3784477987,72577946431,1400254209765,26934983956119,519085872480091,9991604236031191,192473062350309415,3705736421701914691,71373052403445647521",
			"name": "Number of (n+1)X5 0..2 arrays with every 2X2 subblock diagonal sum less antidiagonal sum equal to some horizontal or vertical neighbor 2X2 subblock diagonal sum less antidiagonal sum",
			"comment": [
				"Column 4 of A185504"
			],
			"link": [
				"R. H. Hardin, \u003ca href=\"/A185501/b185501.txt\"\u003eTable of n, a(n) for n = 1..31\u003c/a\u003e"
			],
			"example": [
				"Some solutions for 3X5",
				"..2..1..1..0..0....0..0..2..0..0....1..1..1..0..2....0..0..2..2..0",
				"..1..1..1..0..0....2..1..2..1..0....1..1..2..0..1....1..0..1..1..0",
				"..0..1..1..1..2....2..1..2..2..0....0..0..2..0..1....1..0..1..1..1"
			],
			"keyword": "nonn",
			"offset": "1,1",
			"author": "_R. H. Hardin_ Jan 29 2011",
			"references": 1,
			"revision": 5,
			"time": "2012-03-31T12:36:02-04:00",
			"created": "2011-01-29T11:04:02-05:00"
		}
	]
}