{
	"greeting": "Greetings from The On-Line Encyclopedia of Integer Sequences! http://oeis.org/",
	"query": "id:A185184",
	"count": 1,
	"start": 0,
	"results": [
		{
			"number": 185184,
			"data": "1,0,2,1,1,0,0,3,0,2,1,1,0,2,1,1,1,0,0,0,4,0,0,3,1,0,2,0,2,0,2,1,1,1,0,0,3,1,0,2,1,1,1,0,2,1,1,1,1,0,0,0,0,5,0,0,0,4,1,0,0,3,0,2,0,0,3,1,1,0,2,0,0,3,0,2,0,2,1,0,2,1,0,2,0,2,1,1,1,1,0,0,0,4,1,0,0,3,1,1,0,2,0,2,1,0,2,1,1,1,1,0,0,3,1,1,0,2,1,1,1,1,0,2,1,1,1,1,1,0,0,0,0,0",
			"name": "Steps of the Hare in each tied Hare and Tortoise race of length n.",
			"comment": [
				"When the Hare bothers to move it only ever just catches up to the Tortoise.",
				"This is an intermediate sequence between A030302 and A066099: omit the 0's from this sequence and we obtain A066099; map nonzero terms in this sequence to 1 and we obtain A030302."
			],
			"link": [
				"Jason Kimberley, \u003ca href=\"/wiki/User:Jason_Kimberley/A185184\"\u003eBits, flows, and compositions\u003c/a\u003e"
			],
			"formula": [
				"a(i) = A030302(i) + number of consecutive 0 terms immediately preceding A030302(i)."
			],
			"example": [
				"The table begins:",
				"1;",
				"0 2, 1 1;",
				"0 0 3, 0 2 1, 1 0 2, 1 1 1;",
				"0 0 0 4, 0 0 3 1, 0 2 0 2, 0 2 1 1, 1 0 0 3, 1 0 2 1, 1 1 0 2, 1 1 1 1;",
				"0 0 0 0 5, 0 0 0 4 1, 0 0 3 0 2, 0 0 3 1 1, 0 2 0 0 3, 0 2 0 2 1, 0 2 1 0 2, 0 2 1 1 1, 1 0 0 0 4, 1 0 0 3 1, 1 0 2 0 2, 1 0 2 1 1, 1 1 0 0 3, 1 1 0 2 1, 1 1 1 0 2, 1 1 1 1 1;",
				"Mapping between sequences:",
				"A030302: 110111001011101111000100110101011110011011110111110000100011",
				"A185184:  10211003021102111000400310202021110031021110211110000500041",
				"A066099:  1 211  3 211 2111   4  31 2 2 2111  31 2111 21111    5   41"
			],
			"keyword": "nonn,easy,tabf",
			"offset": "1,3",
			"author": "_Jason Kimberley_, Feb 27 2012",
			"references": 1,
			"revision": 16,
			"time": "2020-04-08T00:08:14-04:00",
			"created": "2012-05-26T12:51:06-04:00"
		}
	]
}