{
	"greeting": "Greetings from The On-Line Encyclopedia of Integer Sequences! http://oeis.org/",
	"query": "id:A185203",
	"count": 1,
	"start": 0,
	"results": [
		{
			"number": 185203,
			"data": "0,0,0,0,0,0,0,0,0,0,0,0,0,0,0,0,0,0,0,0,0,0,1,1,11,550,806174,2585947720,9802278927562,42709859521915286,214798119408798346811,1251607430636395979871600,8463468717232507491862780325,66406919318277846825588474735084",
			"name": "Number of disconnected 10-regular graphs with n nodes.",
			"link": [
				"Jason Kimberley, \u003ca href=\"/wiki/User:Jason_Kimberley/D_k-reg_girth_ge_g_index\"\u003eIndex of sequences counting disconnected k-regular simple graphs with girth at least g\u003c/a\u003e"
			],
			"xref": [
				"10-regular simple graphs: A014382 (connected), this sequence (disconnected).",
				"Disconnected regular simple graphs: A068932 (any degree), A068933 (triangular array), specified degree k: A165652 (k=2), A165653 (k=3), A033483 (k=4), A165655 (k=5), A165656 (k=6), A165877 (k=7), A165878 (k=8), A185293 (k=9), this sequence (k=10), A185213 (k=11)."
			],
			"keyword": "nonn,hard",
			"offset": "0,25",
			"author": "_Jason Kimberley_, Jan 26 2012",
			"ext": [
				"Terms a(29) and beyond from _Andrew Howroyd_, May 20 2020"
			],
			"references": 9,
			"revision": 22,
			"time": "2020-05-20T12:43:02-04:00",
			"created": "2012-01-29T13:57:50-05:00"
		}
	]
}