{
	"greeting": "Greetings from The On-Line Encyclopedia of Integer Sequences! http://oeis.org/",
	"query": "id:A185141",
	"count": 1,
	"start": 0,
	"results": [
		{
			"number": 185141,
			"data": "1,1,16,46656,110075314176,619173642240000000000,19408409961765342806016000000000000,6823819180249038753817675898369448345600000000000000,48789725533845219197010193096946682961355723304326670581760000000000000000",
			"name": "a(n) = (n!)^(2*n).",
			"comment": [
				"a(n) is the number of \"templates\", or ways of placing a single digit within an n^2*n^2 Sudoku puzzle so that all rows, columns, and n*n blocks have exactly one copy of the digit.",
				"a(n) is the number of preference profiles in a stable marriage problem with n men and n women. - _Tanya Khovanova_ and MIT PRIMES STEP Senior group, Mar 31, 2021."
			],
			"link": [
				"Michael De Vlieger, \u003ca href=\"/A185141/b185141.txt\"\u003eTable of n, a(n) for n = 0..22\u003c/a\u003e",
				"Matvey Borodin, Eric Chen, Aidan Duncan, Tanya Khovanova, Boyan Litchev, Jiahe Liu, Veronika Moroz, Matthew Qian, Rohith Raghavan, Garima Rastogi, and Michael Voigt, \u003ca href=\"https://arxiv.org/abs/2108.02654\"\u003eThe Stable Matching Problem and Sudoku\u003c/a\u003e, arXiv:2108.02654 [math.HO], 2021.",
				"G. Dahl, \u003ca href=\"https://doi.org/10.1016/j.laa.2008.12.023\"\u003ePermutation matrices related to Sudoku\u003c/a\u003e, Linear Algebra and its Applications, 430 (2001), 2457-2463.",
				"sudopedia.org, \u003ca href=\"http://sudopedia.org/wiki/Template\"\u003eTemplate\u003c/a\u003e"
			],
			"formula": [
				"a(n) ~ n^(n*(2*n+1)) * 2^n * Pi^n / exp(2*n^2 - 1/6). - _Vaclav Kotesovec_, Feb 19 2015",
				"Equals 2*n-th power of A000142."
			],
			"mathematica": [
				"Table[(n!)^(2 n), {n, 0, 7}] (* _T. D. Noe_, Jan 24 2012 *)"
			],
			"program": [
				"(PARI) for(n=0,5, print1((n!)^(2*n), \", \")) \\\\ _G. C. Greubel_, Jun 23 2017"
			],
			"xref": [
				"Cf. A000142."
			],
			"keyword": "nonn,easy",
			"offset": "0,3",
			"author": "_David Eppstein_, Jan 23 2012",
			"references": 35,
			"revision": 26,
			"time": "2021-12-22T02:54:34-05:00",
			"created": "2012-01-24T13:06:58-05:00"
		}
	]
}