{
	"greeting": "Greetings from The On-Line Encyclopedia of Integer Sequences! http://oeis.org/",
	"query": "id:A185602",
	"count": 1,
	"start": 0,
	"results": [
		{
			"number": 185602,
			"data": "3,5,7,8,10,11,13,14,16,17,19,20,21,23,24,25,27,28,29,31,32,33,34,36,37,38,39,41,42,43,45,46,47,48,50,51,52,53,55,56,57,58,60,61,62,63,64,66,67,68,69,70,72,73,74,75,76,78,79,80,81,82,84,85,86,87,88,90,91,92,93,94,96,97,98,99,100,102,103,104,105,106,107,109,110,111,112,113,114,116,117,118,119,120,121,123,124,125,126,127,128,130,131,132,133,134,135,137,138,139,140,141,142,143,145",
			"name": "Numbers not of the form floor(n^(3/2))-floor(n^(1/2))-n; complement of A185601.",
			"link": [
				"G. C. Greubel, \u003ca href=\"/A185602/b185602.txt\"\u003eTable of n, a(n) for n = 1..5000\u003c/a\u003e"
			],
			"mathematica": [
				"f[n_]=Floor[n^(3/2)]-Floor[n^(1/2)]-n;",
				"Table[f[n],{n,3,80}]  (* A185601 *)",
				"t2=Complement[Range[150], Table[f[n],{n,1,80}]];t2  (* A185602 *)"
			],
			"xref": [
				"Cf. A185599, A185600, A185601."
			],
			"keyword": "nonn,easy",
			"offset": "1,1",
			"author": "_Clark Kimberling_, Jan 31 2011",
			"references": 4,
			"revision": 11,
			"time": "2017-07-09T17:08:04-04:00",
			"created": "2011-01-31T17:34:22-05:00"
		}
	]
}