{
	"greeting": "Greetings from The On-Line Encyclopedia of Integer Sequences! http://oeis.org/",
	"query": "id:A185117",
	"count": 1,
	"start": 0,
	"results": [
		{
			"number": 185117,
			"data": "1,0,0,0,0,0,0,1,1,1,1,1,1,1,1,1,1,1,1,1,1,1,1,1,1,1,1,1,1,1,1,1,1,1,1,1,1,1,1,1,1,1,1,1,1,1,1,1,1,1,1,1,1,1,1,1,1,1,1,1,1,1,1,1,1,1,1,1,1,1,1,1,1,1,1,1,1,1,1,1,1,1,1,1,1,1,1,1,1,1,1,1,1,1,1,1,1,1,1,1,1,1",
			"name": "Number of connected 2-regular simple graphs on n vertices with girth at least 7.",
			"link": [
				"Jason Kimberley, \u003ca href=\"/wiki/User:Jason_Kimberley/C_girth_ge_7\"\u003eConnected regular graphs with girth at least 7\u003c/a\u003e",
				"Jason Kimberley, \u003ca href=\"/wiki/User:Jason_Kimberley/C_k-reg_girth_ge_g_index\"\u003eIndex of sequences counting connected k-regular simple graphs with girth at least g\u003c/a\u003e"
			],
			"formula": [
				"a(0)=1; for 0\u003cn\u003c7 a(n)=0; for n\u003e=7 , a(n)=1.",
				"This sequence is the inverse Euler transformation of A185327."
			],
			"example": [
				"The null graph is vacuously 2-regular and, being acyclic, has infinite girth.",
				"There are no 2-regular simple graphs with 1 or 2 vertices.",
				"The n-cycle has girth n."
			],
			"xref": [
				"2-regular simple graphs with girth at least 7: this sequence (connected), A185227 (disconnected), A185327 (not necessarily connected).",
				"Connected k-regular simple graphs with girth at least 7: A186727 (any k), A186717 (triangle); specific k: this sequence (k=2), A014375 (k=3).",
				"Connected 2-regular simple graphs with girth at least g: A179184 (g=3), A185114 (g=4), A185115 (g=5), A185116 (g=6), this sequence (g=7), A185118 (g=8), A185119 (g=9).",
				"Connected 2-regular simple graphs with girth exactly g: A185013 (g=3), A185014 (g=4), A185015 (g=5), A185016 (g=6), A185017 (g=7), A185018 (g=8)."
			],
			"keyword": "nonn,easy",
			"offset": "0",
			"author": "_Jason Kimberley_, Jan 28 2011",
			"references": 13,
			"revision": 16,
			"time": "2014-05-01T02:36:25-04:00",
			"created": "2011-01-25T22:12:35-05:00"
		}
	]
}