{
	"greeting": "Greetings from The On-Line Encyclopedia of Integer Sequences! http://oeis.org/",
	"query": "id:A185960",
	"count": 1,
	"start": 0,
	"results": [
		{
			"number": 185960,
			"data": "1,36,126144,236736,934902,3447632,11877300,67885860,163704304,1317560094,1483434161,5178258504,8025266717,12097787616,16631037162,25248156920,110341933344,145437730020,718690577744",
			"name": "Positive numbers equal to the sum of the cubes of their first k divisors for some k.",
			"comment": [
				"2665757000703, 18382539143800, 21465141915672, 34176701510281, 44733530333520 and 82841336110520 are also terms. - _Donovan Johnson_, Jan 21 2014"
			],
			"reference": [
				"Arie Groeneveld, Posting to Sequence Fans Mailing List, Feb 06, 2011"
			],
			"program": [
				"(PARI) for(n=1, 67885860, nd=numdiv(n); if(nd\u003c\u003e2, d=divisors(n); s=0; for(j=1, nd, s=s+d[j]^3; if(s\u003e=n, if(s==n, print1(n \", \")); next(2))))) \\\\ _Donovan Johnson_, Jan 21 2014"
			],
			"xref": [
				"Cf. A185584, A185961."
			],
			"keyword": "nonn,more",
			"offset": "1,2",
			"author": "_N. J. A. Sloane_, Feb 07 2011",
			"ext": [
				"a(7)-a(13) from _Donovan Johnson_, Feb 07 2011",
				"a(14)-a(17) from _Donovan Johnson_, Feb 08 2011",
				"a(18)-a(19) from _Donovan Johnson_, Jan 21 2014"
			],
			"references": 2,
			"revision": 15,
			"time": "2014-01-21T22:54:22-05:00",
			"created": "2011-02-07T13:49:48-05:00"
		}
	]
}