{
	"greeting": "Greetings from The On-Line Encyclopedia of Integer Sequences! http://oeis.org/",
	"query": "id:A185532",
	"count": 1,
	"start": 0,
	"results": [
		{
			"number": 185532,
			"data": "915702,30631134,989438596,30654215226,978050637454,31056846439654,981555541329694,31129923319285058,986788018195669218,31261059190076491058,990735792319754562254,31398037364368755881486",
			"name": "Number of (n+2) X 9 binary arrays with each 3 X 3 subblock nonsingular.",
			"comment": [
				"Column 7 of A185534."
			],
			"link": [
				"R. H. Hardin, \u003ca href=\"/A185532/b185532.txt\"\u003eTable of n, a(n) for n = 1..38\u003c/a\u003e"
			],
			"example": [
				"Some solutions for 4 X 9",
				"..0..0..1..0..0..1..0..1..0....0..0..1..0..0..1..1..1..1",
				"..0..1..0..1..1..0..1..1..0....0..1..1..0..1..0..1..0..0",
				"..1..0..0..1..0..0..1..0..1....1..0..0..1..0..1..0..0..1",
				"..0..0..1..1..1..1..0..1..0....0..0..1..0..0..1..1..1..0"
			],
			"xref": [
				"Cf. A185534."
			],
			"keyword": "nonn",
			"offset": "1,1",
			"author": "_R. H. Hardin_, Jan 30 2011",
			"references": 1,
			"revision": 8,
			"time": "2021-10-01T18:17:07-04:00",
			"created": "2011-01-30T06:27:17-05:00"
		}
	]
}