{
	"greeting": "Greetings from The On-Line Encyclopedia of Integer Sequences! http://oeis.org/",
	"query": "id:A186564",
	"count": 1,
	"start": 0,
	"results": [
		{
			"number": 186564,
			"data": "12122,2617,4807,11557,21007,23389,27391,33445,44263,68269,104335,154693,256359,394253,582367,921109,1404439,2088925,3277999,5032037,7564615,11783853,18099679,27341557,42334903,65029501,98641359,152194629",
			"name": "Number of (n+2) X 7 0..2 arrays with every 3 X 3 subblock commuting with each horizontal and vertical neighbor 3 X 3 subblock.",
			"comment": [
				"Column 5 of A186568."
			],
			"link": [
				"R. H. Hardin, \u003ca href=\"/A186564/b186564.txt\"\u003eTable of n, a(n) for n = 1..200\u003c/a\u003e"
			],
			"formula": [
				"Empirical: a(n) = 2*a(n-1)-a(n-2)+2*a(n-3)-4*a(n-4)+2*a(n-5)+2*a(n-6)-2*a(n-7) for n\u003e13.",
				"G.f.: x*(12122 - 21627*x + 11695*x^2 - 19684*x^3 + 45954*x^4 - 30458*x^5 - 31744*x^6 + 15662*x^7 + 14520*x^8 - 3552*x^9 - 10944*x^10 + 16928*x^12) / ((1 - x)*(1 - x - 2*x^3 + 2*x^4 - 2*x^6)) (conjectured). - _Colin Barker_, Jan 18 2018"
			],
			"example": [
				"Some solutions for 4 X 7",
				"..0..0..0..0..0..0..2....0..0..0..0..0..2..0....2..0..0..0..0..2..2",
				"..0..0..0..0..0..0..2....0..0..0..0..0..0..0....0..0..0..0..0..0..0",
				"..0..0..0..0..0..0..2....0..0..0..0..0..0..0....0..0..0..0..0..0..0",
				"..0..1..0..0..0..0..2....1..2..0..0..0..0..2....0..2..0..0..0..0..0"
			],
			"keyword": "nonn",
			"offset": "1,1",
			"author": "_R. H. Hardin_ Feb 23 2011",
			"references": 1,
			"revision": 8,
			"time": "2018-01-18T09:50:59-05:00",
			"created": "2011-02-23T20:08:35-05:00"
		}
	]
}