{
	"greeting": "Greetings from The On-Line Encyclopedia of Integer Sequences! http://oeis.org/",
	"query": "id:A186416",
	"count": 1,
	"start": 0,
	"results": [
		{
			"number": 186416,
			"data": "1,2,48,2500,192080,18670176,2125170432,270968717448,37634544090000,5588044012339360,875419364366134016,143310129125665075392,24338673855047938317568,4264316875814353400000000,767401591466550107174400000,141345980472409642279275210000,26569505644587874058090478570000",
			"name": "a(n) = binomial(2n,n)^4/(n+1)^3.",
			"formula": [
				"G.f.: 4F3(1/2,1/2,1/2,1/2;2,2,2;256*x), where nFm(...;..;.) denotes a generalized hypergeometric series.",
				"a(n) = (A000108(n))^3*A000984(n). - _R. J. Mathar_, Feb 23 2011"
			],
			"maple": [
				"A186416 := proc(n) binomial(2*n,n)^4/(n+1)^3 ; end proc: # _R. J. Mathar_, Feb 23 2011"
			],
			"mathematica": [
				"Table[Binomial[2n,n]^4/(n+1)^3,{n,0,40}]"
			],
			"program": [
				"(Maxima) makelist(binomial(2*n,n)^4/(n+1)^3,n,0,40);"
			],
			"xref": [
				"Cf. A000108, A002894, A000888, A002897, A186414, A186415."
			],
			"keyword": "easy,nonn",
			"offset": "0,2",
			"author": "_Emanuele Munarini_, Feb 21 2011",
			"references": 4,
			"revision": 12,
			"time": "2019-01-22T22:57:15-05:00",
			"created": "2011-02-21T05:59:25-05:00"
		}
	]
}