{
	"greeting": "Greetings from The On-Line Encyclopedia of Integer Sequences! http://oeis.org/",
	"query": "id:A186849",
	"count": 1,
	"start": 0,
	"results": [
		{
			"number": 186849,
			"data": "52378,1514138,50707346,1675514684,58406620364,2065646009310,73006349720400,2594103702923620,92296881933749596,3283815163241221908,116881968695751606560,4160746958216316764578,148113678875510444112726",
			"name": "Number of (n+1) X 9 binary arrays with no 2 X 2 subblock diagonal sum less antidiagonal sum equal to any horizontal or vertical neighbor 2 X 2 subblock diagonal sum less antidiagonal sum.",
			"comment": [
				"Column 8 of A186850."
			],
			"link": [
				"R. H. Hardin, \u003ca href=\"/A186849/b186849.txt\"\u003eTable of n, a(n) for n = 1..43\u003c/a\u003e"
			],
			"example": [
				"Some solutions for 3 X 9",
				"..0..0..0..0..1..1..0..1..1....1..0..0..0..1..0..0..1..1",
				"..0..1..1..0..1..0..1..0..0....0..0..0..1..1..1..0..1..0",
				"..0..0..1..0..0..1..0..1..0....0..0..1..0..1..1..1..1..1"
			],
			"xref": [
				"Cf. A186850."
			],
			"keyword": "nonn",
			"offset": "1,1",
			"author": "_R. H. Hardin_ Feb 27 2011",
			"references": 1,
			"revision": 7,
			"time": "2021-05-04T14:22:09-04:00",
			"created": "2011-02-27T18:30:35-05:00"
		}
	]
}