{
	"greeting": "Greetings from The On-Line Encyclopedia of Integer Sequences! http://oeis.org/",
	"query": "id:A186650",
	"count": 1,
	"start": 0,
	"results": [
		{
			"number": 186650,
			"data": "1,4,9,29,100,317,1007,3146,10016,31712,100204,316799,1002314,3169309,10022310,31693094",
			"name": "Total number of n-digit numbers requiring 2 positive biquadrates in their representation as sum of biquadrates.",
			"comment": [
				"A102831(n) + a(n) + A186652(n) + A186654(n) + A186656(n) + A186658(n) + A186660(n) + A186662(n) + A186664(n) + A186666(n) + A186668(n) + A186670(n) + A186672(n) + A186674(n) + A186676(n) + A186678(n) + A186681(n) + A186683(n) + A186685(n) = A052268(n), for n\u003e1."
			],
			"link": [
				"Eric Weisstein's World of Mathematics, \u003ca href=\"http://mathworld.wolfram.com/WaringsProblem.html\"\u003eWaring's Problem.\u003c/a\u003e"
			],
			"formula": [
				"a(n) = A186649(n)-A186649(n-1)."
			],
			"maple": [
				"isbiquadrate:=proc(n) type(root(n,4),posint); end:",
				"isA003336:=proc(n) local x,y4; if isbiquadrate(n) then false; else for x from 1 do y4:=n-x^4; if y4\u003cx^4 then return false; elif isbiquadrate(y4) then return true; fi; od; fi; end:",
				"a:=proc(n) local i,k; i:=0; for k from 10^(n-1) to 10^n-1 do if isA003336(k) then i:=i+1; fi; od: return(i); end: for n from 1 do print(a(n)); od;"
			],
			"xref": [
				"Cf. A003336, A186649."
			],
			"keyword": "nonn,base,more",
			"offset": "1,2",
			"author": "_Martin Renner_, Feb 25 2011",
			"ext": [
				"a(6) from _Martin Renner_, Feb 26 2011",
				"a(7)-a(16) from _Giovanni Resta_, Apr 29 2016"
			],
			"references": 17,
			"revision": 19,
			"time": "2016-04-29T05:13:27-04:00",
			"created": "2011-02-25T09:37:35-05:00"
		}
	]
}