{
	"greeting": "Greetings from The On-Line Encyclopedia of Integer Sequences! http://oeis.org/",
	"query": "id:A186393",
	"count": 1,
	"start": 0,
	"results": [
		{
			"number": 186393,
			"data": "1559,2683,4133,10048,11400,12727,12800,13572,14223,14443,14514,14680,14913,15536,15619,16538,16557,17334,19043,20452,20465,20522,21162,21663,22440,22832,23055,23144,23214,23460,24833,25139,25278,25980,26207,26257,26702,26747,27536,27878,28448,28671,29180,29873,30212,30232",
			"name": "Numbers n such that there is 1 prime between 100*n and 100*n+99.",
			"comment": [
				"There are 40 possible prime patterns for centuries having 1 prime. - _Tim Johannes Ohrtmann_, Aug 27 2015"
			],
			"link": [
				"T. D. Noe, \u003ca href=\"/A186393/b186393.txt\"\u003eTable of n, a(n) for n = 1..1000\u003c/a\u003e"
			],
			"example": [
				"1559 is in this sequence because there is 1 prime between 155900 and 155999 (155921)."
			],
			"mathematica": [
				"Select[Range[31000],PrimePi[100 #+99]-PrimePi[100 #]==1\u0026] (* _Harvey P. Dale_, Dec 16 2011 *)"
			],
			"program": [
				"(PARI) isA186393(n)=my(k=nextprime(100*n)); n=100*(n+1); k\u003cn\u0026nextprime(k+1)\u003en \\\\ _Charles R Greathouse IV_, Feb 21 2011"
			],
			"xref": [
				"Cf. A038822 (number of primes between 100n and 100n + 99), A186311 (first occurrences).",
				"Cf. A181098 (no primes), A186394-A186408 (2 to 16 primes), A186509 (17 primes)."
			],
			"keyword": "nonn",
			"offset": "1,1",
			"author": "_Tim Johannes Ohrtmann_, Feb 20 2011",
			"ext": [
				"a(4)-a(46) from _Charles R Greathouse IV_, Feb 21 2011"
			],
			"references": 22,
			"revision": 29,
			"time": "2015-08-27T10:45:58-04:00",
			"created": "2011-02-20T17:23:06-05:00"
		}
	]
}