{
	"greeting": "Greetings from The On-Line Encyclopedia of Integer Sequences! http://oeis.org/",
	"query": "id:A186821",
	"count": 1,
	"start": 0,
	"results": [
		{
			"number": 186821,
			"data": "70767,1190637,18829218,315843055,5634207241,99751773733,1783799078413,32322581577916,584495537657334,10594536209194545,192625016377623752,3500057158418808686,63637200466766220870,1157907423273867982529",
			"name": "Half the number of (n+2)X7 binary arrays with each 3X3 subblock having sum 4 or 5",
			"comment": [
				"Column 5 of A186825"
			],
			"link": [
				"R. H. Hardin, \u003ca href=\"/A186821/b186821.txt\"\u003eTable of n, a(n) for n = 1..95\u003c/a\u003e"
			],
			"example": [
				"Some solutions for 4X7 with a(1,1)=0",
				"..0..0..1..0..0..1..0....0..0..1..0..1..0..0....0..0..1..0..0..0..1",
				"..0..1..0..0..1..0..0....0..1..0..0..1..1..0....0..1..1..1..1..1..0",
				"..0..1..1..0..1..1..0....0..1..1..1..0..1..1....0..1..0..0..1..0..0",
				"..1..0..1..0..0..1..1....1..0..0..1..0..0..0....0..1..0..0..1..0..0"
			],
			"keyword": "nonn",
			"offset": "1,1",
			"author": "_R. H. Hardin_ Feb 27 2011",
			"references": 1,
			"revision": 5,
			"time": "2012-03-31T12:36:06-04:00",
			"created": "2011-02-27T12:25:25-05:00"
		}
	]
}