{
	"greeting": "Greetings from The On-Line Encyclopedia of Integer Sequences! http://oeis.org/",
	"query": "id:A186559",
	"count": 1,
	"start": 0,
	"results": [
		{
			"number": 186559,
			"data": "19683,173,1399,8983,21007,29935,47719,82783,168391,441199,1129591,2679679,6669991,15566383,34790167,83037151,194778055,446546575,1070609527,2528845759,5841194023,13884206959,32712096727,75846181663",
			"name": "Number of (n+2)X(n+2) 0..2 arrays with every 3X3 subblock commuting with each horizontal and vertical neighbor 3X3 subblock",
			"comment": [
				"Diagonal of A186568"
			],
			"link": [
				"R. H. Hardin, \u003ca href=\"/A186559/b186559.txt\"\u003eTable of n, a(n) for n = 1..26\u003c/a\u003e"
			],
			"example": [
				"Some solutions for 4X4",
				"..0..0..0..0....0..0..0..0....2..1..1..2....0..1..0..0....0..0..0..0",
				"..0..0..0..0....0..0..0..0....1..2..1..1....0..0..1..0....1..0..0..0",
				"..1..0..0..0....0..0..0..0....1..1..2..1....1..0..0..1....2..1..0..0",
				"..2..0..0..0....1..1..1..1....2..1..1..2....0..1..0..0....1..2..1..0"
			],
			"keyword": "nonn",
			"offset": "1,1",
			"author": "_R. H. Hardin_ Feb 23 2011",
			"references": 1,
			"revision": 6,
			"time": "2012-03-31T12:36:05-04:00",
			"created": "2011-02-23T20:08:35-05:00"
		}
	]
}