{
	"greeting": "Greetings from The On-Line Encyclopedia of Integer Sequences! http://oeis.org/",
	"query": "id:A186931",
	"count": 1,
	"start": 0,
	"results": [
		{
			"number": 186931,
			"data": "0,104,1840,59720,3026432,264604776,35582947920,8132915749352,2989994168957168",
			"name": "Number of (n+1) X (n+1) binary arrays with every 2 X 2 subblock trace equal to exactly one or two horizontal and vertical neighbor 2 X 2 subblock traces.",
			"comment": [
				"Diagonal of A186939."
			],
			"example": [
				"Some solutions for 4 X 4",
				"..1..1..1..1....1..0..0..0....0..0..1..0....0..1..0..1....1..0..1..0",
				"..1..1..0..0....1..0..0..1....1..0..0..0....0..0..0..1....1..0..1..1",
				"..1..1..0..0....1..0..0..1....1..0..0..1....1..0..0..0....1..1..1..1",
				"..1..1..0..0....0..0..0..1....1..0..0..1....0..0..1..1....1..1..0..1"
			],
			"xref": [
				"Cf. A186939."
			],
			"keyword": "nonn",
			"offset": "1,2",
			"author": "_R. H. Hardin_ Mar 01 2011",
			"references": 0,
			"revision": 8,
			"time": "2021-05-10T01:08:22-04:00",
			"created": "2011-03-01T06:34:41-05:00"
		}
	]
}