{
	"greeting": "Greetings from The On-Line Encyclopedia of Integer Sequences! http://oeis.org/",
	"query": "id:A186935",
	"count": 1,
	"start": 0,
	"results": [
		{
			"number": 186935,
			"data": "344,6848,46960,400192,3026432,25314744,199197496,1627815216,12959411184,105094646680,841526384968,6794773877768,54572082394368,439857772138872,3537187036922272,28484975285666720,229175684311650976",
			"name": "Number of (n+1)X6 binary arrays with every 2X2 subblock trace equal to exactly one or two horizontal and vertical neighbor 2X2 subblock traces",
			"comment": [
				"Column 5 of A186939"
			],
			"link": [
				"R. H. Hardin, \u003ca href=\"/A186935/b186935.txt\"\u003eTable of n, a(n) for n = 1..200\u003c/a\u003e"
			],
			"example": [
				"Some solutions for 4X6",
				"..1..1..0..1..1..1....0..0..0..0..1..1....1..0..1..1..1..1....1..1..1..0..0..0",
				"..1..1..0..1..1..1....0..0..1..1..1..1....0..0..1..0..1..1....1..1..1..1..1..1",
				"..1..1..0..0..1..1....0..0..1..1..0..1....1..0..0..0..1..0....1..1..0..0..1..1",
				"..0..1..0..0..1..0....1..0..1..1..0..1....1..0..1..0..0..0....0..1..1..1..1..1"
			],
			"keyword": "nonn",
			"offset": "1,1",
			"author": "_R. H. Hardin_ Mar 01 2011",
			"references": 1,
			"revision": 5,
			"time": "2012-03-31T12:36:06-04:00",
			"created": "2011-03-01T06:34:41-05:00"
		}
	]
}