{
	"greeting": "Greetings from The On-Line Encyclopedia of Integer Sequences! http://oeis.org/",
	"query": "id:A186049",
	"count": 1,
	"start": 0,
	"results": [
		{
			"number": 186049,
			"data": "2588842,240280270,21790214094,1642063770394,137706977983060,11449128594687024,936496872238986044,77511953226639748246,6406893092233533908442,528930411882010842895740",
			"name": "Number of (n+2)X8 binary arrays with each 3X3 subblock singular",
			"comment": [
				"Column 6 of A186052"
			],
			"link": [
				"R. H. Hardin, \u003ca href=\"/A186049/b186049.txt\"\u003eTable of n, a(n) for n = 1..48\u003c/a\u003e"
			],
			"example": [
				"Some solutions for 4X8",
				"..0..0..0..0..1..0..1..1....0..0..0..0..0..0..0..0....0..0..0..0..0..0..0..0",
				"..0..0..0..0..0..0..1..0....0..0..0..0..1..1..0..1....0..0..0..0..0..0..1..1",
				"..0..0..0..1..0..0..0..0....0..0..0..0..1..1..0..1....0..0..0..1..1..0..1..1",
				"..0..0..0..1..0..0..0..0....0..0..0..1..0..1..0..0....0..0..0..0..1..0..0..1"
			],
			"keyword": "nonn",
			"offset": "1,1",
			"author": "_R. H. Hardin_ Feb 11 2011",
			"references": 1,
			"revision": 5,
			"time": "2012-03-31T12:36:04-04:00",
			"created": "2011-02-11T11:31:46-05:00"
		}
	]
}