{
	"greeting": "Greetings from The On-Line Encyclopedia of Integer Sequences! http://oeis.org/",
	"query": "id:A187675",
	"count": 1,
	"start": 0,
	"results": [
		{
			"number": 187675,
			"data": "9136352,1292583020,184351404608,26257519475028,3739210796619416,532523771629995532,75840322054047845954,10800899342885484556064,1538224290587862925230372,219068281015870859530254112",
			"name": "Number of (n+2)X4 0..3 arrays with no 2X2 subblock sum equal to any diagonal or antidiagonal neighbor 2X2 subblock sum",
			"comment": [
				"Column 2 of A187676"
			],
			"link": [
				"R. H. Hardin, \u003ca href=\"/A187675/b187675.txt\"\u003eTable of n, a(n) for n = 1..55\u003c/a\u003e"
			],
			"example": [
				"Some solutions for 6X4",
				"..0..0..0..0....0..0..0..0....0..0..0..0....0..0..0..0....0..0..0..0",
				"..0..0..0..0....0..0..0..0....0..0..0..0....0..0..0..0....0..0..0..0",
				"..0..2..0..2....0..2..0..2....0..2..0..2....0..2..0..2....0..2..0..2",
				"..1..0..2..0....1..0..2..2....2..0..2..2....1..0..2..2....2..0..2..0",
				"..1..3..1..2....2..3..0..1....0..0..3..1....2..2..0..1....2..2..3..1",
				"..2..1..1..0....3..3..2..3....0..0..1..1....2..3..1..1....3..2..3..2"
			],
			"keyword": "nonn",
			"offset": "1,1",
			"author": "_R. H. Hardin_ Mar 12 2011",
			"references": 1,
			"revision": 5,
			"time": "2012-03-31T12:36:09-04:00",
			"created": "2011-03-12T11:37:59-05:00"
		}
	]
}