{
	"greeting": "Greetings from The On-Line Encyclopedia of Integer Sequences! http://oeis.org/",
	"query": "id:A187819",
	"count": 1,
	"start": 0,
	"results": [
		{
			"number": 187819,
			"data": "3,7,13,19,307,619,2089,7297,75571,76103,98897",
			"name": "Numbers n such that (9^n + 8^n)/17 is prime.",
			"comment": [
				"All terms are prime.",
				"a(12) \u003e 10^5"
			],
			"mathematica": [
				"Select[ Prime[ Range[1, 100000] ], PrimeQ[ (9^# + 8^#)/17 ]\u0026 ]"
			],
			"program": [
				"(PARI) is(n)=isprime((9^n+8^n)/17) \\\\ _Charles R Greathouse IV_, Feb 17 2017"
			],
			"xref": [
				"cf. A181141, A128339, A057175, A125956"
			],
			"keyword": "more,hard,nonn",
			"offset": "1,1",
			"author": "_Robert Price_, Dec 26 2012",
			"references": 15,
			"revision": 9,
			"time": "2017-02-17T12:10:30-05:00",
			"created": "2012-12-27T01:39:22-05:00"
		}
	]
}