{
	"greeting": "Greetings from The On-Line Encyclopedia of Integer Sequences! http://oeis.org/",
	"query": "id:A187727",
	"count": 1,
	"start": 0,
	"results": [
		{
			"number": 187727,
			"data": "10558,186672,3588249,76931991,1628541369,35118814718,755272970945,16272953514081,350521453843471,7551605957045594,162681410006587121,3504701107120896836,75502389868040885049,1626562602643478820132",
			"name": "Number of (n+1)X8 binary arrays with no 2X2 subblock commuting with any of its horizontal and vertical 2X2 subblock neighbors",
			"comment": [
				"Column 7 of A187729"
			],
			"link": [
				"R. H. Hardin, \u003ca href=\"/A187727/b187727.txt\"\u003eTable of n, a(n) for n = 1..200\u003c/a\u003e"
			],
			"example": [
				"Some solutions for 3X8",
				"..1..1..0..1..1..0..0..0....0..1..1..1..1..1..1..1....1..1..0..1..0..0..1..1",
				"..0..0..0..1..1..0..1..1....1..1..1..0..0..1..1..0....0..1..1..1..1..1..1..1",
				"..0..1..1..0..1..1..0..1....0..0..1..1..1..0..0..0....1..0..1..0..0..1..0..0"
			],
			"keyword": "nonn",
			"offset": "1,1",
			"author": "_R. H. Hardin_ Mar 13 2011",
			"references": 1,
			"revision": 5,
			"time": "2012-03-31T12:36:09-04:00",
			"created": "2011-03-13T11:41:09-04:00"
		}
	]
}