{
	"greeting": "Greetings from The On-Line Encyclopedia of Integer Sequences! http://oeis.org/",
	"query": "id:A187934",
	"count": 1,
	"start": 0,
	"results": [
		{
			"number": 187934,
			"data": "304,704,7616,50802,435194,3394156,27734942,222519352,1806824700,14613188788,118539179458,960617285450,7792028797892,63191254464846,512612165552564,4158105409259042,33732198233141518,273646099830762238",
			"name": "Number of (n+2)X5 binary arrays with every 2X2 subblock sum equal to some diagonal or antidiagonal neighbor 2X2 subblock sum",
			"comment": [
				"Column 3 of A187940"
			],
			"link": [
				"R. H. Hardin, \u003ca href=\"/A187934/b187934.txt\"\u003eTable of n, a(n) for n = 1..200\u003c/a\u003e"
			],
			"example": [
				"Some solutions for 4X5",
				"..1..0..1..0..1....0..1..0..0..0....0..0..1..0..1....1..0..1..0..1",
				"..1..0..1..0..1....1..0..1..0..1....1..0..0..1..0....1..1..1..0..1",
				"..0..1..0..1..0....0..1..0..0..0....0..0..1..0..1....0..1..0..1..0",
				"..0..1..0..1..0....1..0..1..1..0....0..1..0..1..0....1..1..1..1..0"
			],
			"keyword": "nonn",
			"offset": "1,1",
			"author": "_R. H. Hardin_ Mar 16 2011",
			"references": 1,
			"revision": 5,
			"time": "2012-03-31T12:36:09-04:00",
			"created": "2011-03-16T12:56:24-04:00"
		}
	]
}