{
	"greeting": "Greetings from The On-Line Encyclopedia of Integer Sequences! http://oeis.org/",
	"query": "id:A187374",
	"count": 1,
	"start": 0,
	"results": [
		{
			"number": 187374,
			"data": "578832,16360280,468071656,14036056356,454513218192,14787300483772,487561661150044,16472150536557064,557389824509298392,18948884362536727766,650214578145168937032,22324403465508068603572",
			"name": "Half the number of (n+2) X 4 0..3 arrays with each 3 X 3 subblock having sum 13 or 14.",
			"comment": [
				"Column 2 of A187376."
			],
			"link": [
				"R. H. Hardin, \u003ca href=\"/A187374/b187374.txt\"\u003eTable of n, a(n) for n = 1..140\u003c/a\u003e"
			],
			"example": [
				"Some solutions for 6 X 4",
				"..0..0..0..0....0..0..0..0....0..0..0..2....0..0..0..2....0..0..0..2",
				"..2..2..2..3....2..2..2..2....2..2..2..0....2..2..2..3....2..2..2..0",
				"..2..2..3..1....3..2..2..3....3..2..3..2....2..2..3..0....3..2..2..3",
				"..1..0..0..1....0..0..0..1....0..0..0..3....0..0..1..0....0..0..1..2",
				"..0..3..2..2....1..3..2..1....2..2..2..0....2..1..3..3....2..0..3..1",
				"..3..2..3..1....2..2..3..2....3..3..2..2....1..2..3..1....2..3..3..0"
			],
			"xref": [
				"Cf. A187376."
			],
			"keyword": "nonn",
			"offset": "1,1",
			"author": "_R. H. Hardin_ Mar 09 2011",
			"references": 1,
			"revision": 7,
			"time": "2021-05-03T15:01:42-04:00",
			"created": "2011-03-09T07:43:19-05:00"
		}
	]
}