{
	"greeting": "Greetings from The On-Line Encyclopedia of Integer Sequences! http://oeis.org/",
	"query": "id:A187541",
	"count": 1,
	"start": 0,
	"results": [
		{
			"number": 187541,
			"data": "0,4,1,12,16,20,3,28,32,36,5,44,48,52,7,60,64,68,9,76,80,84,11,92,96,100,13,108,112,116,15,124,128,132,17,140,144,148,19,156,160,164,21,172,176,180,23,188,192,196,25,204,208,212,27,220,224,228,29,236,240,244,31,252",
			"name": "a(4n+2) = 2n+1, otherwise a(n) = 4n.",
			"link": [
				"\u003ca href=\"/index/Rec#order_08\"\u003eIndex entries for linear recurrences with constant coefficients\u003c/a\u003e, signature (0,0,0,2,0,0,0,-1)."
			],
			"formula": [
				"a(n) = 2*a(n-4) - a(n-8) for n\u003e7.",
				"G.f.: x*(4+x+12*x^2+16*x^3+12*x^4+x^5+4*x^6)/(1-x^4)^2; a(n) = (n/8)*(32 -7*(1+(-1)^n)*(1-i^n)) where i=sqrt(-1). - _Bruno Berselli_, Mar 15 2011",
				"From _Paul Curtz_, Mar 22 2011: (Start)",
				"A060819(n)*a(n) = 0,4,1,36,16,100, = 0,4, followed by A061038(n+2).",
				"a(n) = a(n-4) + period 4: repeat [16, 16, 2, 16]. Note that a(n) = 4*n/(period 4: repeat [1, 1, 8, 1]), Hence 16's = A010855. (End)",
				"a(n) = 16*n/(11+7*(I^(2*n)-I^(-n)-I^n)). - _Wesley Ivan Hurt_, Jul 05 2016"
			],
			"maple": [
				"A187541:=n-\u003e16*n/(11+7*(I^(2*n)-I^(-n)-I^n)): seq(A187541(n), n=0..100); # _Wesley Ivan Hurt_, Jul 05 2016"
			],
			"mathematica": [
				"Table[16n/(11+7*(I^(2*n)-I^(-n)-I^n)), {n, 0, 80}] (* _Wesley Ivan Hurt_, Jul 05 2016 *)"
			],
			"xref": [
				"Cf. A008586, A010855, A060819, A061038."
			],
			"keyword": "nonn,easy",
			"offset": "0,2",
			"author": "_Paul Curtz_, Mar 11 2011",
			"ext": [
				"Edited by _N. J. A. Sloane_, Mar 15 2011"
			],
			"references": 1,
			"revision": 23,
			"time": "2016-07-06T00:49:21-04:00",
			"created": "2011-03-11T04:42:39-05:00"
		}
	]
}