{
	"greeting": "Greetings from The On-Line Encyclopedia of Integer Sequences! http://oeis.org/",
	"query": "id:A187909",
	"count": 1,
	"start": 0,
	"results": [
		{
			"number": 187909,
			"data": "1,2,3,5,7,8,10,11,12,14,15,16,18,19,21,22,23,25,26,28,29,31,32,33,35,37,38,40,41,42,44,45,47,48,49,51,52,54,56,57,58,59,61,63,64,65,67,68,70,71,72,74,75,77,78,80,81,82,84,85,86,88,89,91,92,93,95,97,98,100,101,102,104,105,107,108,109,111,112,114,116,117,118,119",
			"name": "Rank transform of the sequence floor((-1+sqrt(5))n/2); complement of A187910.",
			"comment": [
				"See A187224."
			],
			"mathematica": [
				"r=(-1+5^(1/2))/2;",
				"seqA = Table[Floor[r*n], {n, 1, 220}] (*A005206*)",
				"seqB = Table[n, {n, 1, 220}];  (*A000027*)",
				"jointRank[{seqA_,",
				"   seqB_}] := {Flatten@Position[#1, {_, 1}],",
				"    Flatten@Position[#1, {_, 2}]} \u0026[",
				"  Sort@Flatten[{{#1, 1} \u0026 /@ seqA, {#1, 2} \u0026 /@ seqB}, 1]];",
				"limseqU =",
				" FixedPoint[jointRank[{seqA, #1[[1]]}] \u0026,",
				"   jointRank[{seqA, seqB}]][[1]] (*A187909*)",
				"Complement[Range[Length[seqA]], limseqU]  (*A187910*)",
				"(*by _Peter J. C. Moses_, Mar 15 2011*)"
			],
			"xref": [
				"Cf. A187224, A187910."
			],
			"keyword": "nonn",
			"offset": "1,2",
			"author": "_Clark Kimberling_, Mar 15 2011",
			"references": 2,
			"revision": 5,
			"time": "2016-12-04T19:46:25-05:00",
			"created": "2011-03-15T16:20:50-04:00"
		}
	]
}