{
	"greeting": "Greetings from The On-Line Encyclopedia of Integer Sequences! http://oeis.org/",
	"query": "id:A187654",
	"count": 1,
	"start": 0,
	"results": [
		{
			"number": 187654,
			"data": "1,2,14,262,7740,305536,15061692,890220752,61347750704,4829414749504,427559293150976,42047904926171552,4547772798257998256,536504774914535869664,68557641564333466819744,9433619169586732241895776",
			"name": "Binomial cumulative sums of the (signless) central Stirling numbers of the first kind (A187646).",
			"link": [
				"Vincenzo Librandi, \u003ca href=\"/A187654/b187654.txt\"\u003eTable of n, a(n) for n = 0..100\u003c/a\u003e"
			],
			"formula": [
				"a(n) = Sum_{k=0..n} binomial(n,k)*s(2k,k).",
				"a(n) ~ exp((2*c-1)/(8*c^2)) * abs(Stirling1(2*n,n)) ~ 2^(3*n-1) * n^n * exp((2*c-1)/(8*c^2)-n) * c^(2*n) / (sqrt(Pi*n*(c-1)) * (2*c-1)^n), where c = -LambertW(-1,-exp(-1/2)/2) = 1.7564312086261696769827376166... - _Vaclav Kotesovec_, May 21 2014"
			],
			"maple": [
				"seq(sum(binomial(n,k)*abs(combinat[stirling1](2*k,k)),k=0..n),n=0..12);"
			],
			"mathematica": [
				"Table[Sum[Binomial[n, k]Abs[StirlingS1[2k, k]], {k, 0, n}], {n, 0, 15}]"
			],
			"program": [
				"(Maxima) makelist(sum(binomial(n,k)*abs(stirling1(2*k,k)),k,0,n),n,0,12);",
				"(PARI) a(n) = sum(k=0, n, binomial(n, k)*abs(stirling(2*k, k, 1))); \\\\ _Michel Marcus_, Aug 03 2021"
			],
			"xref": [
				"Cf. A187646."
			],
			"keyword": "nonn,easy",
			"offset": "0,2",
			"author": "_Emanuele Munarini_, Mar 12 2011",
			"references": 1,
			"revision": 18,
			"time": "2021-08-03T01:53:01-04:00",
			"created": "2011-03-29T13:14:36-04:00"
		}
	]
}