{
	"greeting": "Greetings from The On-Line Encyclopedia of Integer Sequences! http://oeis.org/",
	"query": "id:A187400",
	"count": 1,
	"start": 0,
	"results": [
		{
			"number": 187400,
			"data": "15,35,51,65,77,91,115,123,141,161,185,187,201,209,219,221,235,259,267,301,305,321,339,341,355,365,377,381,403,413,427,437,451,453,481,485,497,501,537,545,589,649,667,681,689,699,717,721,723,737,745,749,763,789,835,843,849,893,901,905",
			"name": "Semiprimes with a semiprime average of the two factors.",
			"comment": [
				"The definition is similar to A115585, but considering the arithmetic mean, not the sum of the factors.",
				"Even semiprimes, A100484, are not in the sequence, because (with the exception of 4) the average of their factors is not an integer."
			],
			"link": [
				"Alois P. Heinz, \u003ca href=\"/A187400/b187400.txt\"\u003eTable of n, a(n) for n = 1..1000\u003c/a\u003e"
			],
			"example": [
				"The semiprime 187=11*17 is in the sequence, because the average (11+17)/2=14 = 2*7 is semiprime.",
				"The semiprime 267=3*89 is in the sequence because the average (3+89)/2=46=2*23 is semiprime."
			],
			"mathematica": [
				"semiPrimeQ[n_] := Total[FactorInteger[n]][[2]] == 2; Reap[Do[{p, e} = Transpose[FactorInteger[n]]; If[Total[e] == 2 \u0026\u0026 semiPrimeQ[Total[p]/2], Sow[n]], {n, 1000}]][[2, 1]]"
			],
			"program": [
				"(PARI)sopf(n)= { local(f, s=0); f=factor(n); for(i=1, matsize(f)[1], s+=f[i, 1]); return(s) }",
				"averg(n)={local(s); s=sopf(n)/omega(n);return(s)}",
				"{  for (n=4, 10^3, m=averg(n);if(bigomega(n)==2,if(m==floor(m)\u0026\u0026bigomega(m)==2,print1(n, \", \")))) }",
				"// Antonio Roldán, Oct 15 2012",
				"(PARI) list(lim)=my(v=List()); forprime(p=3,lim\\3, forprime(q=3,min(p-2,lim\\p), if(bigomega((p+q)/2)==2, listput(v,p*q)))); Set(v) \\\\ _Charles R Greathouse IV_, Oct 16 2014"
			],
			"xref": [
				"Cf. A001358."
			],
			"keyword": "nonn",
			"offset": "1,1",
			"author": "_Antonio Roldán_, Mar 09 2011",
			"references": 1,
			"revision": 19,
			"time": "2014-10-16T21:10:38-04:00",
			"created": "2011-03-09T12:26:04-05:00"
		}
	]
}