{
	"greeting": "Greetings from The On-Line Encyclopedia of Integer Sequences! http://oeis.org/",
	"query": "id:A187764",
	"count": 1,
	"start": 0,
	"results": [
		{
			"number": 187764,
			"data": "1,1,3,11,45,198,919,4445,22215,114000,597790,3191070,17289023,94845796,525838005,2941748627,16585870501,94147448172,537592229784,3085816136840,17795391949590,103051160368120,598997937352830,3493575551891610,20438727738501275,119911429466179978",
			"name": "Number of uud-avoiding rooted non-crossing trees of n+1 vertices with the root 1.",
			"link": [
				"Y. Sun and Z. Wang, \u003ca href=\"http://dx.doi.org/10.1007/s00373-010-0950-9\"\u003eConsecutive pattern avoidances in non-crossing trees\u003c/a\u003e, Graph. Combinat. 26 (2010) 815-832."
			],
			"formula": [
				"G.f.: (3-sqrt(5-4*C(x)))/2, where C(x) is the generating function of the Catalan numbers.",
				"a(n) = Sum_(k=1..n, (C(2*k-2,k-1)*Sum_(i=k..n, i*C(i-1,k-1) * C(2*n-i-1,n-1))) /k)/n, n\u003e0, a(0)=1. - _Vladimir Kruchinin_, Jan 23 2013",
				"D-finite with recurrence 2*n*(2*n+1)*a(n) +3*(-27*n^2+47*n-16)*a(n-1) +30*(17*n^2-63*n+56)*a(n-2) -500*(2*n-5)*(n-3)*a(n-3)=0. - _R. J. Mathar_, Jan 24 2013",
				"a(n) = Sum_{k=1..n} binomial(2*k-2,k-1)*binomial(2*n,n-k)/n, a(0)=1. - _Vladimir Kruchinin_, Apr 28 2016",
				"a(n) = Catalan(n)*hypergeom([1/2, 1-n], [n+2], -4) for n\u003e=1. - _Peter Luschny_, Apr 28 2016",
				"G.f.: A=A(x) satisfies 0 = -x*A^4 + 6*x*A^3 + (-11*x - 1)*A^2 + (6*x + 3)*A + (-x - 2). - _Joerg Arndt_, Apr 29 2016",
				"G.f.: A(x) = F(G(x)), where F(x) = 1 + x*C(x), G(x) = x*C(x)^2, and C(x) is the Catalan generating function. - _Alexander Burstein_, Nov 10 2021"
			],
			"maple": [
				"a := n -\u003e `if`(n=0,1,hypergeom([1/2, 1-n], [n+2], -4)*binomial(2*n,n)/(n+1)):",
				"seq(simplify(a(n)), n=0..25); # _Peter Luschny_, Apr 28 2016"
			],
			"mathematica": [
				"a[n_] := Sum[Binomial[2k-2, k-1] Binomial[2n, n-k]/n, {k, 1, n}]; a[0] = 1;",
				"Table[a[n], {n, 0, 25}] (* _Jean-François Alcover_, Jun 23 2019, after _Vladimir Kruchinin_ *)"
			],
			"program": [
				"(PARI)",
				"N = 66;  x = 'x + O('x^N);",
				"C=(1-sqrt(1-4*x))/(2*x);",
				"gf = (3-sqrt(5-4*C))/2;",
				"v = Vec(gf)",
				"/* _Joerg Arndt_, Jan 04 2013 */",
				"(Maxima)",
				"a(n):=if n=0 then 1 else sum((binomial(2*k-2,k-1) * sum(i*binomial(i-1,k-1) * binomial(2*n-i-1,n-1),i,k,n)) / k, k, 1, n) / n; /* _Vladimir Kruchinin_, Jan 23 2013 */",
				"a(n):=if n=0 then 1 else sum(binomial(2*k-2,k-1)*binomial(2*n,n-k),k,1,n)/n; /*  _Vladimir Kruchinin_, Apr 28 2016 */"
			],
			"xref": [
				"Cf. A000108 (Catalan numbers)."
			],
			"keyword": "nonn",
			"offset": "0,3",
			"author": "_R. J. Mathar_, Jan 04 2013",
			"references": 0,
			"revision": 54,
			"time": "2021-11-11T11:06:15-05:00",
			"created": "2013-01-04T14:08:31-05:00"
		}
	]
}