{
	"greeting": "Greetings from The On-Line Encyclopedia of Integer Sequences! http://oeis.org/",
	"query": "id:A187562",
	"count": 1,
	"start": 0,
	"results": [
		{
			"number": 187562,
			"data": "0,1,3,1,3,1,3,7,3,11,9,3,3,3,3,9,5,3,1,11,9,1,9,5,7,5,3,9,7,11,3,21,23,1,11,1,3,1,9,3,5,15,5,1,3,9,3,13,3,7,3,5,13,21,9,21,9,21,21,5,3,21,3,3,9,11,15,1,11,1,3",
			"name": "Least k \u003e= 0 such that prime(n)*(prime(n)-k)+1 is prime.",
			"link": [
				"Pierre CAMI, \u003ca href=\"/A187562/b187562.txt\"\u003eTable of n, a(n) for n = 1..25000\u003c/a\u003e"
			],
			"maple": [
				"A187562 := proc(n) local p,k; p := ithprime(n) ; for k from 0 do if isprime( p*(p-k)+1 ) then return k; end if;  end do: end proc: # _R. J. Mathar_, Mar 13 2011"
			],
			"mathematica": [
				"Table[k = 0; While[! PrimeQ[Prime[n]*(Prime[n] - k) + 1], k++]; k, {n, 100}]"
			],
			"keyword": "nonn",
			"offset": "1,3",
			"author": "_Pierre CAMI_, Mar 13 2011",
			"references": 1,
			"revision": 10,
			"time": "2019-01-29T01:51:34-05:00",
			"created": "2011-03-11T12:12:23-05:00"
		}
	]
}