{
	"greeting": "Greetings from The On-Line Encyclopedia of Integer Sequences! http://oeis.org/",
	"query": "id:A187922",
	"count": 1,
	"start": 0,
	"results": [
		{
			"number": 187922,
			"data": "6,7,9,18,19,21,33,34,36,66,67,69,71,73,75,101,102,104,106,108,113,114,115,117,121,123,125,127,133,134,172,173,175,177,179,181,183,186,188,189,190,194,224,225,227,229,231,233,236,238,240,242,244,246,287,288,290,292,294,296,298,300,302,304,339,340,342,344,346,348,350",
			"name": "Positions k of addition steps in Recamán's sequence where A005132(k-1)-k = A005132(m) for some 0 \u003c m \u003c k.",
			"comment": [
				"Subsequence of A057165; A005132(a(n)-1) - a(n) = A005132(A187943(n));",
				"A005132(a(n)) = A005132(a(n)-1) + a(n);",
				"See A187921 for the other positions of addition steps in A005132."
			],
			"link": [
				"Rémy Sigrist, \u003ca href=\"/A187922/b187922.txt\"\u003eTable of n, a(n) for n = 1..25000\u003c/a\u003e",
				"Rémy Sigrist, \u003ca href=\"/A187922/a187922.txt\"\u003eC++ program for A187943\u003c/a\u003e",
				"\u003ca href=\"/index/Rea#Recaman\"\u003eIndex entries for sequences related to Recamán's sequence\u003c/a\u003e"
			],
			"example": [
				"a(5) = 19: A005132(19-1) = 43 and 43-19\u003e0, but the term 24=43-19 is already in A005132, therefore A005132(19)=43+19=62; A187943(5)=15 and A005132(15)=24."
			],
			"program": [
				"(Haskell)",
				"import Data.Set (Set, singleton, member, insert)",
				"a187922 n = a187922_list !! (n-1)",
				"a187922_list = r (singleton 0) 1 0 where",
				"   r :: Set Integer -\u003e Integer -\u003e Integer -\u003e [Integer]",
				"   r s n x | x \u003c= n           = r (insert (x+n) s) (n+1) (x+n)",
				"           | (x-n) `member` s = n : r (insert (x+n) s) (n+1) (x+n)",
				"           | otherwise        = r (insert (x-n) s) (n+1) (x-n)",
				"(C++) See Links section."
			],
			"xref": [
				"Cf. A005132, A057165, A187921, A187943, A333548, A333552."
			],
			"keyword": "nonn",
			"offset": "1,1",
			"author": "_Reinhard Zumkeller_, Mar 17 2011",
			"ext": [
				"Added condition \"0 \u003c m\" to definition. See A333552. - _N. J. A. Sloane_, May 04 2020"
			],
			"references": 8,
			"revision": 25,
			"time": "2020-05-06T11:21:33-04:00",
			"created": "2011-03-28T21:46:08-04:00"
		}
	]
}