{
	"greeting": "Greetings from The On-Line Encyclopedia of Integer Sequences! http://oeis.org/",
	"query": "id:A187033",
	"count": 1,
	"start": 0,
	"results": [
		{
			"number": 187033,
			"data": "2,3,6,14,24,40,48,51,54,57,60,120,440,450,1246,1824,2280,8802,12720,29019,36720,37245,55428,74822",
			"name": "Places n where the infinitary phi-function A064380(n) divides the infinitary sigma-function A049417(n).",
			"comment": [
				"It is the infinitary analog of A020492."
			],
			"xref": [
				"Cf. A020492, A049417, A064380"
			],
			"keyword": "nonn,more",
			"offset": "1,1",
			"author": "_Vladimir Shevelev_, Mar 02 2011",
			"ext": [
				"a(19)-a(24) from _Amiram Eldar_, Apr 06 2019"
			],
			"references": 0,
			"revision": 13,
			"time": "2019-04-06T04:13:51-04:00",
			"created": "2011-03-02T07:12:11-05:00"
		}
	]
}