{
	"greeting": "Greetings from The On-Line Encyclopedia of Integer Sequences! http://oeis.org/",
	"query": "id:A187657",
	"count": 1,
	"start": 0,
	"results": [
		{
			"number": 187657,
			"data": "1,2,16,222,4416,114660,3676814,140408338,6222858240,314006546124,17774855765140,1115507717954432,76871991664546170,5770732305836768712,468750121409142448386,40964179307489016777630,3832326196169482368117760",
			"name": "Binomial convolution of the central Stirling numbers of the second kind.",
			"formula": [
				"a(n) = Sum_{k=0..n} binomial(n,k) * S(2k,k) * S(2n-2k,n-k).",
				"Limit n-\u003einfinity (a(n)/n!)^(1/n) = -4/(LambertW(-2*exp(-2))*(2+LambertW(-2*exp(-2)))) = 6.17655460948348... . - _Vaclav Kotesovec_, Jun 01 2015"
			],
			"maple": [
				"seq(sum(binomial(n, k) *combinat[stirling2](2*k, k) *combinat[stirling2](2*(n-k), n-k), k=0..n), n=0..12);"
			],
			"mathematica": [
				"Table[Sum[Binomial[n, k]StirlingS2[2k, k]StirlingS2[2n - 2k, n - k], {k, 0, n}], {n, 0, 16}]"
			],
			"program": [
				"(Maxima) makelist(sum(binomial(n,k)*stirling2(2*k,k)*stirling2(2*n-2*k, n-k),k,0,n),n,0,12);"
			],
			"keyword": "nonn,easy",
			"offset": "0,2",
			"author": "_Emanuele Munarini_, Mar 12 2011",
			"references": 2,
			"revision": 9,
			"time": "2021-11-25T10:46:51-05:00",
			"created": "2011-03-12T09:54:27-05:00"
		}
	]
}