{
	"greeting": "Greetings from The On-Line Encyclopedia of Integer Sequences! http://oeis.org/",
	"query": "id:A187095",
	"count": 1,
	"start": 0,
	"results": [
		{
			"number": 187095,
			"data": "39,291,2158,10083,22178,60483,108291,129382,235138,266403,288291,311043,367491,410691,524163,561478,608158,662691,1563843,1713717,2007363,3126058,3512163,3573778",
			"name": "Numbers n such that n and n+1 are terms in A187086.",
			"xref": [
				"Cf. A187086."
			],
			"keyword": "nonn",
			"offset": "1,1",
			"author": "_Zak Seidov_, Mar 04 2011",
			"references": 0,
			"revision": 5,
			"time": "2012-03-30T17:26:37-04:00",
			"created": "2011-03-04T11:56:51-05:00"
		}
	]
}