{
	"greeting": "Greetings from The On-Line Encyclopedia of Integer Sequences! http://oeis.org/",
	"query": "id:A187398",
	"count": 1,
	"start": 0,
	"results": [
		{
			"number": 187398,
			"data": "248,264,324,384,396,432,624,648,672,728,735,784,824,864,936,1236,1248,1296,1326,1362,1368,1395,1632,1692,1764,1824,1926,1935,1962,2048,2064,2136,2184,2196,2248,2304,2316,2328,2340,2346,2364,2376,2384,2394,2408,2436,2448,2460,2480,2488,2496,2540,2568,2584,2604,2634,2640,2648,2664,2688,2730,2736,2744,2784,2824,2832,2840,2848,2856,2864,2916,2934,2964,2984,3024,3048,3096,3126,3162,3168",
			"name": "Numbers divisible by at least three of their digits, all different and \u003e1.",
			"comment": [
				"Asymptotic density 19/63 = 0.301.... - _Charles R Greathouse IV_, Mar 11 2011"
			],
			"link": [
				"Amiram Eldar, \u003ca href=\"/A187398/b187398.txt\"\u003eTable of n, a(n) for n = 1..10000\u003c/a\u003e"
			],
			"mathematica": [
				"numdig = 3; Select[Range[3168], Length[(u = Union[Select[IntegerDigits[#], #1 \u003e 1 \u0026]])] \u003e= numdig \u0026\u0026 Plus @@ (Boole@Divisible[#, u]) \u003e= numdig \u0026] (* _Amiram Eldar_, Aug 30 2020 *)"
			],
			"xref": [
				"Subsequence of A187516 (numbers divisible by at least two of their digits, different and \u003e1)."
			],
			"keyword": "nonn,base",
			"offset": "1,1",
			"author": "_Zak Seidov_, Mar 10 2011",
			"references": 9,
			"revision": 24,
			"time": "2020-08-30T04:23:31-04:00",
			"created": "2011-03-09T09:29:28-05:00"
		}
	]
}