{
	"greeting": "Greetings from The On-Line Encyclopedia of Integer Sequences! http://oeis.org/",
	"query": "id:A187771",
	"count": 1,
	"start": 0,
	"results": [
		{
			"number": 187771,
			"data": "245180,612408,639198,1698862,1721182,5154168,7824284,15817596,20441848,25969788,27688078,28404862,35860609,67149432,77378782,91397838,96462862,179302264,191550135,289772221,306901244,311657084,392802179,441839706,572673855,652117774,988918364",
			"name": "Numbers whose sum of divisors is the cube of the sum of its prime divisors.",
			"comment": [
				"This sequence and A187824 and A187761 are winners in the contest held at the 2013 AMS/MAA Joint Mathematics Meetings. - _T. D. Noe_, Jan 14 2013",
				"The identity sigma(k) = (sopf(k))^m only occurs for m = 3 (this sequence) in the given range, however it is likely that it also occurs for other powers m in higher numbers.",
				"The smallest k such that sigma(k) = sopf(k)^m, for m=4,5,6 are 1056331752 (A221262), 213556659624 (A221263) and 45770980141656, respectively. - _Giovanni Resta_, Jan 07 2013",
				"Prime divisors are taken without multiplicity. - _Harvey P. Dale_, Dec 17 2016"
			],
			"reference": [
				"T. M. Apostol, Introduction to Analytic Number Theory, Springer-Verlag, 1976, page 38."
			],
			"link": [
				"Donovan Johnson and Robert Gerbicz, \u003ca href=\"/A187771/b187771.txt\"\u003eTable of n, a(n) for n = 1..1105\u003c/a\u003e (first 100 terms from _Donovan Johnson_)",
				"W. Sierpinski, \u003ca href=\"http://matwbn.icm.edu.pl/ksiazki/mon/mon42/mon4204.pdf\"\u003eNumber Of Divisors And Their Sum\u003c/a\u003e, Elementary theory of numbers, Warszawa, 1964."
			],
			"formula": [
				"a(n) = k if sigma(k) = (sopf(k))^3, where sigma(k) = A000203(k) and sopf(k) = A008472(k)."
			],
			"example": [
				"a(13) = 35860609 = 41 * 71 * 97 * 127, then sigma(35860609) = 37933056 = (41 + 71 + 97 + 127)^3."
			],
			"mathematica": [
				"d[n_]:= If[Plus@@Divisors[n]-Power[Plus@@Select[Divisors[n], PrimeQ], 3]==0, n]; Select[Range[2,10^9], #==d[#]\u0026]",
				"Select[Range[2, 10^9],DivisorSigma[1,#]==Total[FactorInteger[#][[All, 1]]]^3\u0026] (* _Harvey P. Dale_, Dec 17 2016 *)"
			],
			"program": [
				"(PARI) is(n)=my(f=factor(n));sum(i=1,#f~,f[i,1])^3==sigma(n) \\\\ _Charles R Greathouse IV_, Jun 29 2013"
			],
			"xref": [
				"Cf. A000203, A008472, A020477, A070222.",
				"Cf. A221262 (sigma(k)=sopf(k)^4), A221263 (sigma(k)=sopf(k)^5)."
			],
			"keyword": "nonn,nice",
			"offset": "1,1",
			"author": "_Manuel Valdivia_, Jan 04 2013",
			"references": 5,
			"revision": 41,
			"time": "2021-09-09T12:25:13-04:00",
			"created": "2013-01-05T01:11:24-05:00"
		}
	]
}