{
	"greeting": "Greetings from The On-Line Encyclopedia of Integer Sequences! http://oeis.org/",
	"query": "id:A188732",
	"count": 1,
	"start": 0,
	"results": [
		{
			"number": 188732,
			"data": "2,1,3,5,0,4,1,6,1,2,6,5,1,1,0,9,0,6,5,6,8,8,2,8,7,1,2,2,6,2,6,5,1,6,9,0,2,2,6,1,3,8,4,1,8,9,4,4,1,4,2,7,2,1,6,6,9,6,2,0,7,2,9,3,3,6,5,1,3,0,9,3,1,4,8,9,4,5,4,5,0,9,0,7,0,9,0,5,5,0,8,7,1,1,1,6,7,4,8,2,5,3,0,1,5,0,2,7,2,4,5,2,9,0,1,2,1,8,7,4,6,9,1,0,7,5,7,0,5,8",
			"name": "Decimal expansion of (5+sqrt(61))/6.",
			"comment": [
				"Decimal expansion of shape of a (5/3)-extension rectangle; see A188640 for definitions of shape and r-extension rectangle.  Briefly, shape=length/width, and an r-extension rectangle is composed of two rectangles of shape r.",
				"The continued fractions of the constant are 2, 7, 2, 2, 7, 2, 2, 7, 2, 2, 7, 2, 2,..."
			],
			"link": [
				"G. C. Greubel, \u003ca href=\"/A188732/b188732.txt\"\u003eTable of n, a(n) for n = 1..10000\u003c/a\u003e"
			],
			"example": [
				"2.1350416126511090656882871226265169022613841894414272166962..."
			],
			"maple": [
				"evalf((5+sqrt(61))/6,140); # _Muniru A Asiru_, Nov 01 2018"
			],
			"mathematica": [
				"RealDigits[(5 + Sqrt[61])/6, 10, 111][[1]] (* _Robert G. Wilson v_, Aug 18 2011 *)"
			],
			"program": [
				"(PARI) (sqrt(61)+5)/16 \\\\ _Charles R Greathouse IV_, Apr 25 2016",
				"(MAGMA) SetDefaultRealField(RealField(100)); (5+Sqrt(61))/6; // _G. C. Greubel_, Nov 01 2018"
			],
			"xref": [
				"Cf. A188640."
			],
			"keyword": "nonn,cons",
			"offset": "1,1",
			"author": "_Clark Kimberling_, Apr 10 2011",
			"references": 1,
			"revision": 22,
			"time": "2018-11-01T11:41:32-04:00",
			"created": "2011-04-12T14:06:28-04:00"
		}
	]
}