{
	"greeting": "Greetings from The On-Line Encyclopedia of Integer Sequences! http://oeis.org/",
	"query": "id:A188515",
	"count": 1,
	"start": 0,
	"results": [
		{
			"number": 188515,
			"data": "2,16,229,6760,342240,32470385,5593606875,1811059364020,1103649329789000,1283030748540574429,2858394905740312536937,12271770983630246007920447,101822638806356395388304091003,1636793382556126237888634491914956",
			"name": "Number of n X n binary arrays without the pattern 1 1 0 diagonally, vertically or horizontally",
			"comment": [
				"Diagonal of A188523"
			],
			"example": [
				"Some solutions for 3X3",
				"..0..1..0....0..0..1....1..1..1....0..0..0....0..0..0....1..0..1....1..1..1",
				"..1..1..1....0..1..0....0..0..1....0..0..0....0..0..0....0..1..0....0..0..1",
				"..0..1..1....1..0..1....0..0..1....0..0..1....0..1..1....1..1..1....1..0..1"
			],
			"keyword": "nonn",
			"offset": "1,1",
			"author": "_R. H. Hardin_ Apr 02 2011",
			"references": 0,
			"revision": 6,
			"time": "2015-12-18T18:17:36-05:00",
			"created": "2011-04-02T15:02:34-04:00"
		}
	]
}