{
	"greeting": "Greetings from The On-Line Encyclopedia of Integer Sequences! http://oeis.org/",
	"query": "id:A188643",
	"count": 1,
	"start": 0,
	"results": [
		{
			"number": 188643,
			"data": "10,13,14,16,17,18,19,20,21,22,23,25,26,27,28,29,30,31,32,33,34,35,37,38,39,40,41,42,43,44,45,46,47,48,49,50,51,52,53,54,55,56,57,58,59,60,61,62,63,64,65,66,67,68,69,70,71,72,73,74,75,76,77,78,79,80,81,82,83,84,85,86,87,88,89,90,91,92,93,94,95,96,97,98,99",
			"name": "Numbers which are not a multiple of the product of their digits.",
			"comment": [
				"Complement of A007602; A188642(a(n)) = 0; A011540 is a subsequence."
			],
			"link": [
				"Reinhard Zumkeller, \u003ca href=\"/A188643/b188643.txt\"\u003eTable of n, a(n) for n = 1..10000\u003c/a\u003e"
			],
			"mathematica": [
				"t={};Do[p=Times@@IntegerDigits[n];If[p==0,AppendTo[t,n], If[!IntegerQ[n/p],AppendTo[t,n]]],{n,99}];t (* _Jayanta Basu_, May 05 2013 *)",
				"nmpQ[n_]:=Module[{idn=IntegerDigits[n],pr},pr=If[MemberQ[idn,0],Pi, Times@@ idn];Mod[n,pr]!=0]; Select[Range[100],nmpQ] (* _Harvey P. Dale_, Oct 13 2018 *)"
			],
			"program": [
				"(Haskell)",
				"import Data.List (elemIndices)",
				"a188643 n = a188643_list !! (n-1)",
				"a188643_list = map succ $ elemIndices 0 $ map a188642 [1..]"
			],
			"xref": [
				"Cf. A065877."
			],
			"keyword": "nonn,base",
			"offset": "1,1",
			"author": "_Reinhard Zumkeller_, Apr 07 2011",
			"references": 6,
			"revision": 13,
			"time": "2018-10-13T15:35:01-04:00",
			"created": "2011-04-09T14:53:20-04:00"
		}
	]
}