{
	"greeting": "Greetings from The On-Line Encyclopedia of Integer Sequences! http://oeis.org/",
	"query": "id:A188920",
	"count": 1,
	"start": 0,
	"results": [
		{
			"number": 188920,
			"data": "1,1,2,4,7,13,22,38,63,105,169,274,434,686,1069,1660,2548,3897,5906,8911,13352,19917,29532,43605,64056,93715,136499,198059,286233,412199,591455,845851,1205687,1713286,2427177,3428611,4829563,6784550,9505840,13284849",
			"name": "a(n) is the limiting term of the n-th column of the triangle in A188919.",
			"link": [
				"A. M. Baxter, \u003ca href=\"https://pdfs.semanticscholar.org/2c5d/79e361d3aecb25c380402144177ad7cd9dc8.pdf\"\u003eAlgorithms for Permutation Statistics\u003c/a\u003e, Ph. D. Dissertation, Rutgers University, May 2011",
				"Andrew M. Baxter and Lara K. Pudwell, \u003ca href=\"http://arxiv.org/abs/1108.2642\"\u003eEnumeration schemes for dashed patterns\u003c/a\u003e, arXiv preprint arXiv:1108.2642, 2011"
			],
			"mathematica": [
				"b[u_, o_] := b[u, o] = Expand[If[u + o == 0, 1, Sum[b[u - j, o + j - 1]*x^(o + j - 1), {j, 1, u}] + Sum[If[u == 0, b[u + j - 1, o - j]*x^(o - j), 0], {j, 1, o}]]];",
				"T[n_] := Function[p, Table[Coefficient[p, x, i], {i, 0, Exponent[p, x]}]][ b[0, n]];",
				"Take[T[40], 40] (* _Jean-François Alcover_, Sep 15 2018, after _Alois P. Heinz_ in A188919 *)"
			],
			"keyword": "nonn",
			"offset": "0,3",
			"author": "_N. J. A. Sloane_, Apr 13 2011",
			"ext": [
				"More terms from _Andrew Baxter_, May 17 2011",
				"a(30)-a(39) from _Alois P. Heinz_, Nov 14 2015"
			],
			"references": 2,
			"revision": 23,
			"time": "2018-09-15T17:56:34-04:00",
			"created": "2011-04-13T14:57:27-04:00"
		}
	]
}