{
	"greeting": "Greetings from The On-Line Encyclopedia of Integer Sequences! http://oeis.org/",
	"query": "id:A188809",
	"count": 1,
	"start": 0,
	"results": [
		{
			"number": 188809,
			"data": "2,3,5,7,13,17,29,31,43,47,59,67,71,79,83,97,103,107,127,157,163,269,271,359,383,439,457,463,487,509,547,569,571,607,643,659,683,701,709,751,769,863,907,929,983,1087,1217,1303,1427,1487,2069,2371,2609,2671",
			"name": "Rigidly-deletable primes under the rule that leading zeros are disallowed.",
			"comment": [
				"Rigidly-deletable primes are deletable primes where the choice of digit to delete is unique (all other choices give nonprime numbers)."
			],
			"link": [
				"Arkadiusz Wesolowski, \u003ca href=\"/A188809/b188809.txt\"\u003eTable of n, a(n) for n = 1..10000\u003c/a\u003e",
				"Chris Caldwell, The Prime Glossary, \u003ca href=\"http://primes.utm.edu/glossary/xpage/DeletablePrime.html\"\u003eDeletable prime\u003c/a\u003e",
				"Carlos Rivera, \u003ca href=\"http://www.primepuzzles.net/puzzles/puzz_138.htm\"\u003ePuzzle 138. Deletable primes\u003c/a\u003e, The Prime Puzzles and Problems Connection."
			],
			"example": [
				"103 is a member since removing a digit will either give 03 which has a leading zero, or give one of the numbers 13 or 10. 2017 is not a member since removing a digit will either give 017 which has a leading zero, or give one of the numbers 217, 207, or 201, which are all composite. - _Arkadiusz Wesolowski_, Nov 27 2021"
			],
			"mathematica": [
				"lst1 = {}; Do[If[PrimeQ[n], p = n; Label[begin]; lst2 = {}; Do[i = IntegerDigits[p]; c = FromDigits@Drop[i, {d}]; If[Length[i] - 1 == IntegerLength[c], AppendTo[lst2, c]], {d, IntegerLength@p}]; t = Select[lst2, PrimeQ[#] \u0026]; If[Length[t] == 1, p = FromDigits[t]; Goto[begin]]; If[IntegerLength[p] == 1, AppendTo[lst1, n]]], {n, 2671}]; lst1 (* _Arkadiusz Wesolowski_, Feb 22 2013 *)"
			],
			"xref": [
				"Cf. A080608 (deletable primes)."
			],
			"keyword": "nonn,base",
			"offset": "1,1",
			"author": "_Arkadiusz Wesolowski_, Apr 11 2011",
			"ext": [
				"Name clarified by _Arkadiusz Wesolowski_, Nov 27 2021"
			],
			"references": 2,
			"revision": 25,
			"time": "2021-12-28T17:23:56-05:00",
			"created": "2011-04-14T14:27:39-04:00"
		}
	]
}