{
	"greeting": "Greetings from The On-Line Encyclopedia of Integer Sequences! http://oeis.org/",
	"query": "id:A188031",
	"count": 1,
	"start": 0,
	"results": [
		{
			"number": 188031,
			"data": "1,1,0,1,1,1,1,0,1,1,0,1,1,1,1,0,1,1,1,1,0,1,1,0,1,1,1,1,0,1,1,1,1,1,1,1,0,1,1,1,1,0,1,1,0,1,1,1,1,0,1,1,1,1,0,1,1,0,1,1,1,1,0,1,1,1,1,1,1,1,0,1,1,1,1,0,1,1,0,1,1,1,1,0,1,1,1,1,1,1,1,0,1,1,1,1,0,1,1,0,1,1,1,1,0,1,1,1,1,0,1,1,0,1,1,1,1,0,1,1,1,1,1,1,1,0,1,1,1,1,0",
			"name": "[nr]-[nr-kr]-[kr], where r=(1+sqrt(5))/2, k=11, [ ]=floor.",
			"comment": [
				"See A188014."
			],
			"formula": [
				"a(n)=[nr]-[nr-11r]-[11r], where r=(1+sqrt(5))/2."
			],
			"mathematica": [
				"r=(1+5^(1/2))/2; k=11;",
				"t=Table[Floor[n*r]-Floor[(n-k)*r]-Floor[k*r],{n,1,220}]   (*A188031*)",
				"Flatten[Position[t,0]]  (*A188032*)",
				"Flatten[Position[t,1]]  (*A188033*)"
			],
			"xref": [
				"Cf. A188014, A188032, A188033."
			],
			"keyword": "nonn",
			"offset": "1",
			"author": "_Clark Kimberling_, Mar 19 2011",
			"references": 3,
			"revision": 4,
			"time": "2012-03-30T18:57:22-04:00",
			"created": "2011-03-19T09:52:34-04:00"
		}
	]
}