{
	"greeting": "Greetings from The On-Line Encyclopedia of Integer Sequences! http://oeis.org/",
	"query": "id:A188659",
	"count": 1,
	"start": 0,
	"results": [
		{
			"number": 188659,
			"data": "1,2,1,9,8,0,3,9,0,2,7,1,8,5,5,6,9,6,6,0,0,5,6,4,4,8,2,1,8,0,4,5,5,6,3,9,7,9,1,2,7,5,4,1,8,9,2,1,9,9,1,9,2,8,1,5,1,6,9,9,4,1,6,0,8,8,5,1,8,6,7,2,6,4,1,2,4,4,4,8,3,9,1,1,7,6,6,9,7,7,0,2,1,8,7,8,6,4,0,1,6,7,2,2,3,8,0,5,1,6,4,8,2,0,7,9,8,2,1,3,2,2,8,6,3,5,5,8,6,8",
			"name": "Decimal expansion of (1+sqrt(26))/5.",
			"comment": [
				"Decimal expansion of the shape of a (2/5)-extension rectangle; see A188640 for definitions of shape and r-extension rectangle.  Briefly, shape=length/width, and an r-extension rectangle is composed of two rectangles of shape 1/r when r\u003c1.",
				"The continued fraction of the constant is 1, 4, 1, 1, 4, 1, 1, 4, 1, 1, 4, 1, 1, 4, 1, 1, 4, 1, 1, 4..."
			],
			"example": [
				"1.219803902718556966005644821804556397912754189219919281516994..."
			],
			"mathematica": [
				"RealDigits[(1 + Sqrt[26])/5, 10, 111][[1]] (* _Robert G. Wilson v_, Aug 18 2011 *)"
			],
			"xref": [
				"Cf. A188640, A188658, A188729, A188730, A010481."
			],
			"keyword": "nonn,cons",
			"offset": "1,2",
			"author": "_Clark Kimberling_, Apr 09 2011",
			"references": 4,
			"revision": 17,
			"time": "2013-10-31T12:17:47-04:00",
			"created": "2011-04-09T00:07:54-04:00"
		}
	]
}