{
	"greeting": "Greetings from The On-Line Encyclopedia of Integer Sequences! http://oeis.org/",
	"query": "id:A188234",
	"count": 1,
	"start": 0,
	"results": [
		{
			"number": 188234,
			"data": "1,8,40,234,1317,7435,41748,234413,1316060,7395049,41601836,234385104,1322693568,7477225191,42343586740,240215460615,1365117760484,7771029244519,44310379612078,253062451888388,1447507286439975",
			"name": "Number of nondecreasing arrangements of n numbers in -(n+5)..(n+5) with sum zero and not more than two numbers equal",
			"comment": [
				"Column 7 of A188236"
			],
			"link": [
				"R. H. Hardin, \u003ca href=\"/A188234/b188234.txt\"\u003eTable of n, a(n) for n = 1..25\u003c/a\u003e"
			],
			"example": [
				"Some solutions for n=4",
				".-8...-6...-8...-9...-6...-4...-8...-8...-5...-6...-7...-4...-6...-8...-4...-7",
				"..2...-2...-5...-1...-1...-4...-2....0...-3...-5...-4...-2....0...-6...-3...-5",
				"..3....4....5....4...-1....3....2....2....4....4....5...-1....1....5....1....6",
				"..3....4....8....6....8....5....8....6....4....7....6....7....5....9....6....6"
			],
			"keyword": "nonn",
			"offset": "1,2",
			"author": "_R. H. Hardin_ Mar 24 2011",
			"references": 1,
			"revision": 5,
			"time": "2012-03-31T12:36:11-04:00",
			"created": "2011-03-24T19:26:03-04:00"
		}
	]
}