{
	"greeting": "Greetings from The On-Line Encyclopedia of Integer Sequences! http://oeis.org/",
	"query": "id:A188789",
	"count": 1,
	"start": 0,
	"results": [
		{
			"number": 188789,
			"data": "0,4224,174720,1141248,3974784,10183872,21725776,41004288,70869216,114616384,175987632,259170816,368799808,509954496,688160784,909390592,1180061856,1507038528,1897630576,2359593984,2901130752,3530888896",
			"name": "Number of 6-step self-avoiding walks on an n X n X n X n 4-cube summed over all starting positions.",
			"comment": [
				"Row 6 of A188784."
			],
			"link": [
				"R. H. Hardin, \u003ca href=\"/A188789/b188789.txt\"\u003eTable of n, a(n) for n = 1..43\u003c/a\u003e"
			],
			"formula": [
				"Empirical: a(n) = 18584*n^4 - 82552*n^3 + 119616*n^2 - 64320*n + 9984 for n\u003e4.",
				"Conjectures from _Colin Barker_, Apr 29 2018: (Start)",
				"G.f.: 16*x^2*(264 + 9600*x + 19368*x^2 - 1656*x^3 - 228*x^4 + 697*x^5 - 137*x^6 - 32*x^7) / (1 - x)^5.",
				"a(n) = 5*a(n-1) - 10*a(n-2) + 10*a(n-3) - 5*a(n-4) + a(n-5) for n\u003e8.",
				"(End)"
			],
			"xref": [
				"Cf. A188784."
			],
			"keyword": "nonn",
			"offset": "1,2",
			"author": "_R. H. Hardin_, Apr 10 2011",
			"references": 1,
			"revision": 9,
			"time": "2018-04-30T11:19:10-04:00",
			"created": "2011-04-10T07:36:16-04:00"
		}
	]
}