{
	"greeting": "Greetings from The On-Line Encyclopedia of Integer Sequences! http://oeis.org/",
	"query": "id:A188985",
	"count": 1,
	"start": 0,
	"results": [
		{
			"number": 188985,
			"data": "2,16,295,10812,852448,144733702,55080396536,46897992282392,90347796732080200,391616769266718212264,3836378499038367303867568,84709934712009857654653118434,4225407805631534612606491862152228",
			"name": "Number of n X n binary arrays without the pattern 0 0 1 antidiagonally or horizontally",
			"comment": [
				"Diagonal of A188992"
			],
			"link": [
				"R. H. Hardin, \u003ca href=\"/A188985/b188985.txt\"\u003eTable of n, a(n) for n = 1..18\u003c/a\u003e"
			],
			"example": [
				"Some solutions for 3X3",
				"..1..0..1....0..1..1....1..0..0....1..1..1....1..0..1....0..1..1....0..1..1",
				"..1..0..1....1..1..0....1..1..0....1..0..1....0..1..0....0..1..1....0..0..0",
				"..0..1..0....0..1..1....1..0..0....0..1..0....1..0..1....1..1..0....0..0..0"
			],
			"keyword": "nonn",
			"offset": "1,1",
			"author": "_R. H. Hardin_ Apr 15 2011",
			"references": 1,
			"revision": 7,
			"time": "2015-12-18T18:17:37-05:00",
			"created": "2011-04-15T05:13:01-04:00"
		}
	]
}