{
	"greeting": "Greetings from The On-Line Encyclopedia of Integer Sequences! http://oeis.org/",
	"query": "id:A188447",
	"count": 1,
	"start": 0,
	"results": [
		{
			"number": 188447,
			"data": "1,0,0,0,205,250735,425677958,1184910460297,5319037255069867,37061043058189077109,385952934535384722609921,5808709067366205646755198576,122705633165265276505954301866183,3547341635706102198376777462145800378,137294155514669462885867305539515979061866",
			"name": "Number of (5*n) X n binary arrays with nonzero rows in decreasing order and 5 ones in every column.",
			"link": [
				"Andrew Howroyd, \u003ca href=\"/A188447/b188447.txt\"\u003eTable of n, a(n) for n = 0..40\u003c/a\u003e"
			],
			"example": [
				"Some solutions for 20 X 4:",
				"  1 1 1 1     1 1 1 0     1 1 1 1     1 1 1 0     1 1 0 1",
				"  1 1 1 0     1 1 0 1     1 1 0 1     1 1 0 1     1 0 1 1",
				"  1 1 0 1     1 0 1 1     1 1 0 0     1 0 1 1     1 0 1 0",
				"  1 0 1 1     1 0 1 0     1 0 1 0     1 0 1 0     1 0 0 1",
				"  1 0 0 0     1 0 0 1     1 0 0 1     1 0 0 0     1 0 0 0",
				"  0 1 1 0     0 1 1 0     0 1 1 0     0 1 1 1     0 1 1 1",
				"  0 1 0 1     0 1 0 1     0 1 0 1     0 1 1 0     0 1 1 0",
				"  0 0 1 1     0 1 0 0     0 0 1 1     0 1 0 1     0 1 0 1",
				"  0 0 0 0     0 0 1 1     0 0 1 0     0 0 0 1     0 1 0 0",
				"  0 0 0 0     0 0 0 0     0 0 0 0     0 0 0 0     0 0 1 0",
				"  0 0 0 0     0 0 0 0     0 0 0 0     0 0 0 0     0 0 0 0",
				"  0 0 0 0     0 0 0 0     0 0 0 0     0 0 0 0     0 0 0 0",
				"  0 0 0 0     0 0 0 0     0 0 0 0     0 0 0 0     0 0 0 0",
				"  0 0 0 0     0 0 0 0     0 0 0 0     0 0 0 0     0 0 0 0",
				"  0 0 0 0     0 0 0 0     0 0 0 0     0 0 0 0     0 0 0 0",
				"  0 0 0 0     0 0 0 0     0 0 0 0     0 0 0 0     0 0 0 0",
				"  0 0 0 0     0 0 0 0     0 0 0 0     0 0 0 0     0 0 0 0",
				"  0 0 0 0     0 0 0 0     0 0 0 0     0 0 0 0     0 0 0 0",
				"  0 0 0 0     0 0 0 0     0 0 0 0     0 0 0 0     0 0 0 0",
				"  0 0 0 0     0 0 0 0     0 0 0 0     0 0 0 0     0 0 0 0"
			],
			"xref": [
				"Row 5 of A188445."
			],
			"keyword": "nonn",
			"offset": "0,5",
			"author": "_R. H. Hardin_, Mar 31 2011",
			"ext": [
				"a(0)=1 prepended and terms a(9) and beyond from _Andrew Howroyd_, Dec 15 2018"
			],
			"references": 2,
			"revision": 14,
			"time": "2018-12-17T02:29:55-05:00",
			"created": "2011-03-31T18:54:39-04:00"
		}
	]
}