{
	"greeting": "Greetings from The On-Line Encyclopedia of Integer Sequences! http://oeis.org/",
	"query": "id:A188233",
	"count": 1,
	"start": 0,
	"results": [
		{
			"number": 188233,
			"data": "1,7,31,172,903,4859,26123,141519,769915,4209720,23118268,127495912,705885128,3922515554,21871461990,122341995397,686381562245,3861568338064,21781724157952,123162942539680,698010289536681",
			"name": "Number of nondecreasing arrangements of n numbers in -(n+4)..(n+4) with sum zero and not more than two numbers equal",
			"comment": [
				"Column 6 of A188236"
			],
			"link": [
				"R. H. Hardin, \u003ca href=\"/A188233/b188233.txt\"\u003eTable of n, a(n) for n = 1..27\u003c/a\u003e"
			],
			"example": [
				"Some solutions for n=4",
				".-7...-3...-4...-6...-5...-7...-3...-4...-8...-8...-3...-6...-7...-8...-8...-6",
				".-5...-1...-2...-2...-5....1...-3...-4...-3...-3...-2....0...-4...-5...-6...-5",
				"..5....1....1....1....4....2....1....0....3....5....2....0....4....6....7....4",
				"..7....3....5....7....6....4....5....8....8....6....3....6....7....7....7....7"
			],
			"keyword": "nonn",
			"offset": "1,2",
			"author": "_R. H. Hardin_ Mar 24 2011",
			"references": 1,
			"revision": 5,
			"time": "2012-03-31T12:36:11-04:00",
			"created": "2011-03-24T19:25:05-04:00"
		}
	]
}