{
	"greeting": "Greetings from The On-Line Encyclopedia of Integer Sequences! http://oeis.org/",
	"query": "id:A188665",
	"count": 1,
	"start": 0,
	"results": [
		{
			"number": 188665,
			"data": "2,7,71,109,1321,1453,1621,1951,2719,3373,3853,4639,5791,6427,6733,9619,10837,11699,13933,15391,16927,18517,20173,23743,25633,28927,29599,33151,40813,43291,44959,47533,55711,56671,58579,70783,80671,84127,88813",
			"name": "Primes of the form n^2+number of divisors of n^2.",
			"link": [
				"Robert Israel, \u003ca href=\"/A188665/b188665.txt\"\u003eTable of n, a(n) for n = 1..10000\u003c/a\u003e"
			],
			"formula": [
				"a(n) = A188539(n)^2 + A000005(A188539(n)^2)."
			],
			"example": [
				"a(5)=1321 because 36^2+A000005(36^2)=1321."
			],
			"maple": [
				"select(isprime, map(n -\u003e n^2 + numtheory:-tau(n^2), [1, seq(i, i=2..1000, 2)])); # _Robert Israel_, Apr 11 2018"
			],
			"mathematica": [
				"Select[Table[n^2+DivisorSigma[0,n^2],{n,300}],PrimeQ] (* _Harvey P. Dale_, Oct 20 2016 *)"
			],
			"xref": [
				"Cf. A000005, A188539."
			],
			"keyword": "nonn",
			"offset": "1,1",
			"author": "_Juri-Stepan Gerasimov_, Apr 07 2011",
			"ext": [
				"Edited by _Robert Israel_, Apr 11 2018"
			],
			"references": 2,
			"revision": 12,
			"time": "2018-04-12T02:40:36-04:00",
			"created": "2011-04-07T20:41:37-04:00"
		}
	]
}