{
	"greeting": "Greetings from The On-Line Encyclopedia of Integer Sequences! http://oeis.org/",
	"query": "id:A188026",
	"count": 1,
	"start": 0,
	"results": [
		{
			"number": 188026,
			"data": "8,21,42,55,76,97,110,131,144,165,186,199,220,241,254,275,288,309,330,343,364,377,398,419,432,453,474,487,508,521,542,563,576,597,618,631,652,665,686,707,720,741,754,775,796,809,830,851,864,885,898,919,940,953,974,987,1008,1029,1042,1063,1084,1097,1118,1131,1152,1173,1186,1207,1228,1241,1262",
			"name": "Positions of 0 in the zero-one sequence given by z(n)=[nr]-[nr-8r]-[8r], where r=(1+sqrt(5))/2, [ ]=floor, n\u003e=1.",
			"comment": [
				"See A188014."
			],
			"mathematica": [
				"r=(1+5^(1/2))/2; k=8;",
				"t=Table[Floor[n*r]-Floor[(n-k)*r]-Floor[k*r],{n,1,220}]   Flatten[Position[t,0]]  (*A188026*)",
				"Flatten[Position[t,1]]  (* complement of A188026 *)"
			],
			"xref": [
				"A188014."
			],
			"keyword": "nonn",
			"offset": "1,1",
			"author": "_Clark Kimberling_, Mar 19 2011",
			"references": 1,
			"revision": 4,
			"time": "2012-03-30T18:57:22-04:00",
			"created": "2011-03-19T09:52:34-04:00"
		}
	]
}