{
	"greeting": "Greetings from The On-Line Encyclopedia of Integer Sequences! http://oeis.org/",
	"query": "id:A188139",
	"count": 1,
	"start": 0,
	"results": [
		{
			"number": 188139,
			"data": "1,1,1,3,1,1,4,2,1,1,8,3,2,1,1,11,6,3,2,1,1,11,6,3,2,1,1,19,8,5,3,2,1,126,13,7,5,3,2,1,1,41,18,12,7,5,3,2,1,1,56,28,16,11,7,5,3,2,1,1",
			"name": "Triangle by rows, A027293 * A129372 as infinite lower triangular matrices",
			"comment": [
				"Row sums = A066897: (1, 2, 5, 8, 15, 24, 39,...), total number of odd parts in all partitions of n.",
				"Apparently T(n,k) is the number of (2*k)'s in all the partitions of (n+k), k\u003e=1, e.g. T(7,3) = number of 6's in partitions of 10 = A024790(10). [_David Scambler_, May 24 2012]"
			],
			"formula": [
				"A027293 * A129372 as infinite lower triangular matrices."
			],
			"example": [
				"First few rows of the triangle =",
				".",
				"1,",
				"1, 1",
				"3, 1, 1",
				"4, 2, 1, 1",
				"8, 3, 2, 1, 1",
				"11, 6, 3, 2, 1, 1",
				"19, 8, 5, 3, 2, 1, 1",
				"26, 13, 7, 5, 3, 2, 1, 1",
				"41, 18, 12, 7, 5, 3, 2, 1, 1",
				"56, 28, 16, 11, 7, 5, 3, 2, 1, 1",
				"83, 38, 24, 15, 11, 7, 5, 3, 2, 1, 1",
				"112, 55, 33, 23, 15, 11, 7, 5, 3, 2, 1, 1",
				"160, 74, 47, 31, 22, 15, 11, 7, 5, 3, 2, 1, 1,",
				"..."
			],
			"mathematica": [
				"Table[Count[Flatten[IntegerPartitions[n+k]], 2*k], {n,1,15}, {k,",
				"1,n}](* _David Scambler_, May 24 2012 *)"
			],
			"xref": [
				"Cf. A027293, A129372."
			],
			"keyword": "nonn,tabl",
			"offset": "1,4",
			"author": "_Gary W. Adamson_, Mar 21 2011",
			"references": 0,
			"revision": 13,
			"time": "2012-05-24T11:55:23-04:00",
			"created": "2011-03-29T13:34:40-04:00"
		}
	]
}