{
	"greeting": "Greetings from The On-Line Encyclopedia of Integer Sequences! http://oeis.org/",
	"query": "id:A188052",
	"count": 1,
	"start": 0,
	"results": [
		{
			"number": 188052,
			"data": "0,7,8,10,11,17,18,21,30,33,37,38,40,51,54,61,77,79,83,86,88,96,110,119,123,130,153,157,170,173,178,179,194,197,207,211,214,219,232,240,247,251,256,282,290,344,362,365,399,409,439,444,452,455,467,488,493,496,500,506,514,520,538,541,549,555,574,575,581,597",
			"name": "Stanley Sequence S(0,7).",
			"comment": [
				"See A185256."
			],
			"link": [
				"Alois P. Heinz, \u003ca href=\"/A188052/b188052.txt\"\u003eTable of n, a(n) for n = 1..2000\u003c/a\u003e",
				"P. Erdos, V. Lev, G. Rauzy, C. Sandor, A. Sarkozy, \u003ca href=\"http://www.math.haifa.ac.il/~seva/Papers/greeda.dvi\"\u003eGreedy algorithm, arithmetic progressions, subset sums and divisibility\u003c/a\u003e, Discrete Mathematics 200 (1999), pp. 119-135. See Table 4."
			],
			"xref": [
				"Cf. A185256."
			],
			"keyword": "nonn",
			"offset": "1,2",
			"author": "_N. J. A. Sloane_, Mar 19 2011",
			"references": 3,
			"revision": 10,
			"time": "2017-03-08T10:28:13-05:00",
			"created": "2011-03-19T15:39:54-04:00"
		}
	]
}