{
	"greeting": "Greetings from The On-Line Encyclopedia of Integer Sequences! http://oeis.org/",
	"query": "id:A189394",
	"count": 1,
	"start": 0,
	"results": [
		{
			"number": 189394,
			"data": "1,2,6,12,60,360,1260,2520,5040,55440,277200,720720,3603600,61261200,2205403200,293318625600,6746328388800,195643523275200",
			"name": "Highly composite numbers whose number of divisors is also a highly composite number.",
			"comment": [
				"Both n and d(n) are highly composite numbers.",
				"It is extremely likely that this sequence is complete. The highly composite numbers have a very special form. The number of divisors of a large HCN has a high power of 2 in its factorization -- which is not the form of an HCN. - _T. D. Noe_, Apr 21 2011"
			],
			"link": [
				"A. Flammenkamp, \u003ca href=\"http://wwwhomes.uni-bielefeld.de/achim/highly.txt\"\u003eHighly composite numbers\u003c/a\u003e"
			],
			"example": [
				"d(60) = 12; both 60 and 12 are highly composite numbers"
			],
			"mathematica": [
				"(* First run program at A002182 *) Select[A002182, MemberQ[A002182, DivisorSigma[0, #]] \u0026] (* _Alonso del Arte_, Apr 21 2011 *)"
			],
			"xref": [
				"Cf. A002182, A002183, A141320."
			],
			"keyword": "nonn,more",
			"offset": "1,2",
			"author": "_Krzysztof Ostrowski_, Apr 21 2011",
			"ext": [
				"Typo in a(15) corrected by _Ben Beer_, Jul 20 2016"
			],
			"references": 3,
			"revision": 18,
			"time": "2016-07-20T14:27:18-04:00",
			"created": "2011-04-21T16:12:58-04:00"
		}
	]
}