{
	"greeting": "Greetings from The On-Line Encyclopedia of Integer Sequences! http://oeis.org/",
	"query": "id:A189494",
	"count": 1,
	"start": 0,
	"results": [
		{
			"number": 189494,
			"data": "20,148,1088,9394,85480,787412,7250142,67449574,630466648,5926141678,55929815964,529724228140,5032227826544,47929965246944,457554555905322,4376712118553570,41939283915535994,402511337790992824",
			"name": "Number of arrangements of n+1 nonzero numbers x(i) in -5..5 with the sum of floor(x(i)/x(i+1)) equal to zero",
			"comment": [
				"Column 5 of A189498"
			],
			"link": [
				"R. H. Hardin, \u003ca href=\"/A189494/b189494.txt\"\u003eTable of n, a(n) for n = 1..139\u003c/a\u003e"
			],
			"example": [
				"Some solutions for n=6",
				".-2....1....1....1....2...-4...-2...-4...-3....1...-4...-2...-3...-3....2...-2",
				".-5...-5...-4...-5...-5...-5...-5...-5...-4...-4...-4...-5...-4...-5...-4...-4",
				".-1...-2....4...-1...-3...-5...-5...-3....4...-1....2...-4....4...-4...-2...-1",
				".-3...-2....5...-4....3....4...-1....3...-3....1....4....2...-3....3....5....3",
				"..1...-5....1....5...-4....2....5....1...-2....4....3....5...-4....3...-3...-4",
				".-1...-3...-2...-3...-3....3...-2...-5...-1....5....3....3...-1....4...-5....4",
				"..4....1....1....4...-3...-4....1....4...-2...-4...-4....4....2....5...-2...-5"
			],
			"keyword": "nonn",
			"offset": "1,1",
			"author": "_R. H. Hardin_ Apr 23 2011",
			"references": 1,
			"revision": 5,
			"time": "2012-03-31T12:36:15-04:00",
			"created": "2011-04-23T04:51:01-04:00"
		}
	]
}