{
	"greeting": "Greetings from The On-Line Encyclopedia of Integer Sequences! http://oeis.org/",
	"query": "id:A189706",
	"count": 1,
	"start": 0,
	"results": [
		{
			"number": 189706,
			"data": "0,1,1,0,0,1,0,0,1,0,1,1,0,1,1,0,0,1,0,1,1,0,1,1,0,0,1,0,1,1,0,0,1,0,0,1,0,1,1,0,0,1,0,0,1,0,1,1,0,1,1,0,0,1,0,1,1,0,0,1,0,0,1,0,1,1,0,0,1,0,0,1,0,1,1,0,1,1,0,0,1,0,1,1,0,0,1,0,0,1,0,1,1,0,1,1,0,0,1,0,1,1,0,1,1,0,0,1,0,1,1,0,0,1,0,0,1,0,1,1,0,1",
			"name": "Fixed point of the morphism 0-\u003e011, 1-\u003e001.",
			"link": [
				"\u003ca href=\"/index/Ar#3-automatic\"\u003eIndex entries for 3-automatic sequences\u003c/a\u003e.",
				"\u003ca href=\"/index/Fi#FIXEDPOINTS\"\u003eIndex entries for sequences that are fixed points of mappings\u003c/a\u003e"
			],
			"formula": [
				"a(3k-2)=0, a(3k-1)=1-a(k), a(3k)=1 for k\u003e=1, a(0)=0."
			],
			"example": [
				"0-\u003e011-\u003e011001001-\u003e..."
			],
			"mathematica": [
				"t = Nest[Flatten[# /. {0-\u003e{0,1,1}, 1-\u003e{0,0,1}}] \u0026, {0}, 5] (* A189706 *)",
				"f[n_] := t[[n]]",
				"Flatten[Position[t, 0]] (* A189707 *)",
				"Flatten[Position[t, 1]] (* A189708 *)",
				"s[n_] := Sum[f[i], {i, 1, n}]; s[0] = 0;",
				"Table[s[n], {n, 1, 120}] (* A189709 *)"
			],
			"program": [
				"(PARI) a(n) = n--; my(ret=0); while([n,r]=divrem(n,3);r==1, ret++); (ret+r\u003e\u003e1)%2; \\\\ _Kevin Ryde_, Jun 02 2021"
			],
			"xref": [
				"Cf. A189628, A189707, A189708, A189709.",
				"Cf. A321090, A321091, A321093, A321095, A321097."
			],
			"keyword": "nonn",
			"offset": "1",
			"author": "_Clark Kimberling_, Apr 25 2011",
			"references": 12,
			"revision": 28,
			"time": "2021-06-08T02:30:16-04:00",
			"created": "2011-04-25T21:29:18-04:00"
		}
	]
}