{
	"greeting": "Greetings from The On-Line Encyclopedia of Integer Sequences! http://oeis.org/",
	"query": "id:A189283",
	"count": 1,
	"start": 0,
	"results": [
		{
			"number": 189283,
			"data": "1,1,2,6,24,114,628,4062,30360,255186,2414292,25350954,292378968,3673917102,49928069188,729534877758,11403682481112,189862332575658,3354017704180052,62654508729565554,1233924707891272728,25550498290562247438",
			"name": "Number of permutations p of 1,2,...,n satisfying p(i+4)-p(i)\u003c\u003e4 for all 1\u003c=i\u003c=n-4.",
			"comment": [
				"a(n) is also number of ways to place n nonattacking pieces rook + semi-leaper[4,4] on an n X n chessboard."
			],
			"link": [
				"Vaclav Kotesovec, \u003ca href=\"/A189283/b189283.txt\"\u003eTable of n, a(n) for n = 0..27\u003c/a\u003e (Updated Jan 19 2019)",
				"V. Kotesovec, \u003ca href=\"https://oeis.org/wiki/User:Vaclav_Kotesovec\"\u003eNumber of ways of placing non-attacking queens, kings, bishops and knights\u003c/a\u003e (in English and Czech)",
				"Vaclav Kotesovec, \u003ca href=\"/A189283/a189283.txt\"\u003eMathematica program for this sequence\u003c/a\u003e"
			],
			"formula": [
				"Asymptotic (V. Kotesovec, Mar 2011): a(n)/n! ~ (1 + 7/n + 12/n^2)/e."
			],
			"xref": [
				"Cf. A000255, A189281, A189282, A189255."
			],
			"keyword": "nonn,hard",
			"offset": "0,3",
			"author": "_Vaclav Kotesovec_, Apr 19 2011",
			"ext": [
				"Terms a(26)-a(27) from _Vaclav Kotesovec_, Apr 20 2012"
			],
			"references": 4,
			"revision": 20,
			"time": "2019-01-19T12:33:37-05:00",
			"created": "2011-04-21T17:07:51-04:00"
		}
	]
}