{
	"greeting": "Greetings from The On-Line Encyclopedia of Integer Sequences! http://oeis.org/",
	"query": "id:A189778",
	"count": 1,
	"start": 0,
	"results": [
		{
			"number": 189778,
			"data": "181,32761,5929741,530389481,44835555921,3292640179737,256681706358532,19742364192283882,1563337091301143920,122856570846133660189,9713292881930768378666,764499527960618934733556",
			"name": "Number of nX8 binary arrays without the pattern 1 0 0 1 diagonally, vertically or horizontally",
			"comment": [
				"Column 8 of A189779"
			],
			"link": [
				"R. H. Hardin, \u003ca href=\"/A189778/b189778.txt\"\u003eTable of n, a(n) for n = 1..36\u003c/a\u003e"
			],
			"example": [
				"Some solutions for 5X8",
				"..0..0..0..0..0..0..0..0....0..0..0..0..0..0..0..0....0..0..0..0..0..0..0..0",
				"..1..0..0..0..0..0..0..0....1..0..0..0..0..0..0..0....1..0..0..0..0..0..0..0",
				"..0..1..1..1..0..0..0..0....1..0..1..1..0..0..0..0....0..1..1..0..0..0..0..0",
				"..0..0..0..0..0..0..0..0....0..0..1..0..0..0..0..0....1..1..1..0..0..0..0..0",
				"..0..0..0..0..0..1..1..1....1..1..0..0..0..0..0..1....0..1..1..1..1..1..0..0"
			],
			"keyword": "nonn",
			"offset": "1,1",
			"author": "_R. H. Hardin_ Apr 27 2011",
			"references": 1,
			"revision": 5,
			"time": "2012-03-31T12:36:16-04:00",
			"created": "2011-04-27T09:47:59-04:00"
		}
	]
}