{
	"greeting": "Greetings from The On-Line Encyclopedia of Integer Sequences! http://oeis.org/",
	"query": "id:A189408",
	"count": 1,
	"start": 0,
	"results": [
		{
			"number": 189408,
			"data": "1181895,43730115,416690995,1880394945",
			"name": "Least k where Phi(k) has height greater than k^n, where Phi(k) is the k-th cyclotomic polynomial and the height is the largest absolute value of the coefficients.",
			"comment": [
				"Arnold \u0026 Monagan compute this sequence to demonstrate their fast algorithm for computing cyclotomic polynomials.",
				"This sequence is infinite because (the supremum of) A160338 grows exponentially."
			],
			"link": [
				"Andrew Arnold and Michael Monagan, \u003ca href=\"http://www.cecm.sfu.ca/~ada26/cyclotomic/PDFs/highperf.pdf\"\u003eA high-performance algorithm for calculating cyclotomic polynomials\u003c/a\u003e, PASCO 2010. \u003ca href=\"http://dx.doi.org/10.1145/1837210.1837228\"\u003edoi:10.1145/1837210.1837228\u003c/a\u003e",
				"Andrew Arnold and Michael Monagan, A fast recursive algorithm for computing cyclotomic polynomials, ACM Commun. Comput. Algebra 44:3/4 (2010), pp. 89-90. \u003ca href=\"http://dx.doi.org/10.1145/1940475.1940479\"\u003edoi:10.1145/1940475.1940479\u003c/a\u003e",
				"Andrew Arnold, Michael Monagan, \u003ca href=\"http://dx.doi.org/10.1090/S0025-5718-2011-02467-1\"\u003eCalculating cyclotomic polynomials\u003c/a\u003e, Mathematics of Computation 80 (276) (2011) 2359-2379 \u003ca href=\"http://www.cecm.sfu.ca/~ada26/cyclotomic/PDFs/CalcCycloPolysApr2010.pdf\"\u003epreprint\u003c/a\u003e.",
				"Andrew Arnold and Michael Monagan, \u003ca href=\"http://www.cecm.sfu.ca/~ada26/cyclotomic/\"\u003eCyclotomic Polynomials\u003c/a\u003e"
			],
			"xref": [
				"Subsequence of A160340. Cf. A160338, A108975."
			],
			"keyword": "nonn,hard,more",
			"offset": "1,1",
			"author": "_Charles R Greathouse IV_, Apr 21 2011",
			"references": 0,
			"revision": 9,
			"time": "2014-09-03T19:33:30-04:00",
			"created": "2011-04-21T13:20:46-04:00"
		}
	]
}