{
	"greeting": "Greetings from The On-Line Encyclopedia of Integer Sequences! http://oeis.org/",
	"query": "id:A189057",
	"count": 1,
	"start": 0,
	"results": [
		{
			"number": 189057,
			"data": "2,57,175,357,381,543,777,903,2379,3027,6807,25823,47047,74333,82621,136213,153425,163471,194873,230547,257799,259555,265111,269545,285439,289009,302403,305305,311395,354365,416005,484169,569245,718333,755885,781501,1012505",
			"name": "Numbers n for which phi(n)=sigma(n'), where phi is the Euler totient function, sigma is the sum of divisors and n' the arithmetic derivative of n.",
			"link": [
				"Donovan Johnson, \u003ca href=\"/A189057/b189057.txt\"\u003eTable of n, a(n) for n = 1..300\u003c/a\u003e"
			],
			"example": [
				"phi(57)=36. 57'=22 and sigma(22)=36",
				"phi(1012505)=725760. 1012505'=310156 and sigma(310156)=725760"
			],
			"maple": [
				"with(numtheory);",
				"P:=proc(i)",
				"local f, n, p, pfs;",
				"for n from 1 by 1 to i do",
				"    pfs:=ifactors(n)[2];",
				"    f:=n*add(op(2, p)/op(1, p), p=pfs);",
				"    if phi(n)=sigma(f) then print(n); fi;",
				"od;",
				"end:",
				"P(1000000)"
			],
			"xref": [
				"Cf. A000010, A000203, A003415, A166374, A190402, A190403."
			],
			"keyword": "nonn",
			"offset": "1,1",
			"author": "_Paolo P. Lava_, May 17 2011",
			"references": 2,
			"revision": 23,
			"time": "2012-03-30T18:53:49-04:00",
			"created": "2011-05-17T06:20:46-04:00"
		}
	]
}