{
	"greeting": "Greetings from The On-Line Encyclopedia of Integer Sequences! http://oeis.org/",
	"query": "id:A189512",
	"count": 1,
	"start": 0,
	"results": [
		{
			"number": 189512,
			"data": "2,5,8,11,14,17,20,23,26,30,32,35,38,41,44,47,50,53,56,60,63,65,68,71,74,77,80,83,87,90,93,95,98,101,104,107,110,113,117,120,123,126,128,131,134,137,140,143,147,150,153,156,159,161,164,167,170,174,177,180,183,186,189,191,194,197,200,204,207,210,213,216,219,222,224,227,230,234,237,240,243,246,249",
			"name": "n+[ns/r]+[nt/r]; r=1, s=e/3, t=3/e.",
			"comment": [
				"This is one of three sequences that partition the positive integers.  In general, suppose that r, s, t are positive real numbers for which the sets {i/r: i\u003e=1}, {j/s: j\u003e=1}, {k/t: k\u003e=1} are pairwise disjoint.  Let a(n) be the rank of n/r when all the numbers in the three sets are jointly ranked.  Define b(n) and c(n) as the ranks of n/s and n/t.  It is easy to prove that",
				"a(n)=n+[ns/r]+[nt/r],",
				"b(n)=n+[nr/s]+[nt/s],",
				"c(n)=n+[nr/t]+[ns/t], where []=floor.",
				"Taking r=1, s=e/3, t=3/e gives",
				"a=A189512, b=A189513, c=A189514."
			],
			"mathematica": [
				"r=1; s=E/3; t=3/E;",
				"a[n_] := n + Floor[n*s/r] + Floor[n*t/r];",
				"b[n_] := n + Floor[n*r/s] + Floor[n*t/s];",
				"c[n_] := n + Floor[n*r/t] + Floor[n*s/t];",
				"Table[a[n], {n, 1, 120}]  (*A189512*)",
				"Table[b[n], {n, 1, 120}]  (*A189513*)",
				"Table[c[n], {n, 1, 120}]  (*A189514*)"
			],
			"xref": [
				"Cf. A189513, A189514."
			],
			"keyword": "nonn",
			"offset": "1,1",
			"author": "_Clark Kimberling_, Apr 23 2011",
			"references": 3,
			"revision": 6,
			"time": "2012-03-30T18:57:24-04:00",
			"created": "2011-04-23T13:40:55-04:00"
		}
	]
}