{
	"greeting": "Greetings from The On-Line Encyclopedia of Integer Sequences! http://oeis.org/",
	"query": "id:A189941",
	"count": 1,
	"start": 0,
	"results": [
		{
			"number": 189941,
			"data": "186,258,322,338,3866,4326,4775,18830,19122,27586,34330,34538,41626,46762,49858,49922,54298,55810,70510,82122,86938,89102,101042,101706,106442,110510,112910,118586,120822,129722,133430,134714,150742,157362,158235,163410",
			"name": "Numbers n such that n''' = n''+ 1 where n'' and n''' are respectively the second and the third arithmetic derivative of n.",
			"comment": [
				"The second arithmetic derivative of a(n) is a Giuga's number A007850 (solution of n'=n+1)."
			],
			"link": [
				"Donovan Johnson, \u003ca href=\"/A189941/b189941.txt\"\u003eTable of n, a(n) for n = 1..673\u003c/a\u003e"
			],
			"example": [
				"186'= 161; 186\"=161' = 30; 186\"'=30'= 31-\u003e 186'''= 186\" +1 -\u003e a(1)=186."
			],
			"maple": [
				"Using Porter's code from A003415 der:=n-\u003en*add(op(2,p)/op(1,p),p=ifactors(n)[2])",
				"for i from 1 to n do a:=der(der(der(i)))-der(der(i))-1: if a=0 then j:=j+1; A[j]:=i: end if od"
			],
			"xref": [
				"Cf. A003415, A007850."
			],
			"keyword": "nonn",
			"offset": "1,1",
			"author": "_Giorgio Balzarotti_, May 01 2011",
			"references": 1,
			"revision": 9,
			"time": "2012-03-31T10:28:21-04:00",
			"created": "2011-05-03T14:21:06-04:00"
		}
	]
}