{
	"greeting": "Greetings from The On-Line Encyclopedia of Integer Sequences! http://oeis.org/",
	"query": "id:A189832",
	"count": 1,
	"start": 0,
	"results": [
		{
			"number": 189832,
			"data": "1,0,2,4,11,30,83,232,655,1860,5312,15236,43863,126672,366802,1064624,3096347,9021696,26328470,76946524,225172981,659711646,1934891191,5680457960,16691655761,49087826580,144470474228,425491536172,1253971031195,3697850012310",
			"name": "Expansion of 2/((x+3)*sqrt(-3*x^2-2*x+1)+3*x^2+2*x-1).",
			"link": [
				"G. C. Greubel, \u003ca href=\"/A189832/b189832.txt\"\u003eTable of n, a(n) for n = 0..1000\u003c/a\u003e"
			],
			"formula": [
				"a(n) = Sum_{k=1..(n+1)} (Sum_{j=k..(n+1)} binomial(-k+2*j-1,j-1)*(-1)^(n+1-j)*binomial(n+1,j)))*(1-(-1)^k)/2*(-1)^((k-1)/2)).",
				"D-finite with recurrence: 6*n*a(n) +2*(-2*n+1)*a(n-1) +(-29*n+30)*a(n-2) +(-33*n+47)*a(n-3) +(-17*n+32)*a(n-4) +3*(-n+3)*a(n-5)=0. - _R. J. Mathar_, Jan 25 2020"
			],
			"mathematica": [
				"CoefficientList[Series[2/((x+3)Sqrt[-3 x^2-2x+1]+3x^2+2x-1),{x,0,40}],x] (* _Harvey P. Dale_, Aug 10 2013 *)"
			],
			"program": [
				"(Maxima) a(n):=sum((sum(binomial(-k+2*j-1,j-1)*(-1)^(n+1-j)* binomial(n+1,j),j,k,n+1))*(1-(-1)^k)/2*(-1)^((k-1)/2),k,1,n+1);",
				"(PARI) x='x+O('x^30); Vec(2/((x+3)*sqrt(-3*x^2-2*x+1)+3*x^2+2*x-1)) \\\\ _G. C. Greubel_, Jan 14 2018",
				"(MAGMA) /* Expansion */ Q:=Rationals(); R\u003cx\u003e:=PowerSeriesRing(Q,30); R!(2/((x+3)*Sqrt(-3*x^2-2*x+1)+3*x^2+2*x-1)); // _G. C. Greubel_, Jan 14 2018"
			],
			"keyword": "nonn",
			"offset": "0,3",
			"author": "_Vladimir Kruchinin_, May 03 2011",
			"ext": [
				"More terms from _Harvey P. Dale_, Aug 10 2013"
			],
			"references": 1,
			"revision": 20,
			"time": "2020-01-30T21:29:16-05:00",
			"created": "2011-05-13T21:48:14-04:00"
		}
	]
}