{
	"greeting": "Greetings from The On-Line Encyclopedia of Integer Sequences! http://oeis.org/",
	"query": "id:A190631",
	"count": 1,
	"start": 0,
	"results": [
		{
			"number": 190631,
			"data": "1,1,2,7,34,193,1540,18231,316852,8478040,322171328",
			"name": "Half the number of n X n symmetric binary matrices with no element equal to a strict majority of its king- and knight-move neighbors",
			"example": [
				"Some solutions for n=4 with a(1,1)=0",
				"..0..0..0..0....0..1..0..0....0..1..0..0....0..0..1..0....0..1..0..1",
				"..0..1..1..1....1..1..0..1....1..1..1..1....0..1..1..0....1..1..0..1",
				"..0..1..1..0....0..0..1..0....0..1..0..0....1..1..1..0....0..0..0..0",
				"..0..1..0..0....0..1..0..1....0..1..0..1....0..0..0..0....1..1..0..1"
			],
			"keyword": "nonn",
			"offset": "1,3",
			"author": "_R. H. Hardin_ May 14 2011",
			"references": 0,
			"revision": 5,
			"time": "2015-12-18T18:17:39-05:00",
			"created": "2011-05-14T21:24:01-04:00"
		}
	]
}