{
	"greeting": "Greetings from The On-Line Encyclopedia of Integer Sequences! http://oeis.org/",
	"query": "id:A190725",
	"count": 1,
	"start": 0,
	"results": [
		{
			"number": 190725,
			"data": "1,3,14,69,355,1872,10037,54459,298138,1643565,9111191,50739120,283635481,1590648819,8945090870,50423423685,284831065723,1611918320688,9137141645645,51869777201595,294843392318146,1677980087882013,9559901907126959",
			"name": "Diagonal sums of Riordan matrix A118384.",
			"link": [
				"Vincenzo Librandi, \u003ca href=\"/A190725/b190725.txt\"\u003eTable of n, a(n) for n = 0..200\u003c/a\u003e"
			],
			"formula": [
				"a(n) = (3*sum((-1)^k*F(2k+1)*d(n-k),k=0..n)-(-1)^n*F(2n+2))/2, where d(n) = central Delannoy number (A001850) and F(n) = Fibonacci number (A000045).",
				"G.f.: (3+3*x-sqrt(1-6*x+x^2))/(2*(1+3*x+x^2)*sqrt(1-6*x+x^2)).",
				"Recurrence: (n^2+11*n+30)*a(n+6)-(3*n^2+29*n+70)*a(n+5)-(17*n^2+177*n+458)*a(n+4)-34*(n+4)*a(n+3)+(17*n^2+95*n+130)*a(n+2)+(3*n^2+19*n+30)*a(n+1)-(n^2+5*n+6)*a(n)=0.",
				"conjecture: n*(2*n-3)*a(n) +(-6*n^2+15*n-8)*a(n-1) +2*(-16*n^2+32*n-11)*a(n-2) +(-6*n^2+9*n-2)*a(n-3) +(2*n-1)*(n-2)*a(n-4) =0. - _R. J. Mathar_, Jul 24 2012",
				"a(n) ~ sqrt(24+17*sqrt(2))*(3+2*sqrt(2))^n/(6*sqrt(Pi*n)). - _Vaclav Kotesovec_, Oct 24 2012"
			],
			"mathematica": [
				"CoefficientList[Series[(3+3x-Sqrt[1-6x+x^2])/(2(1+3x+x^2)Sqrt[1-6x+x^2]),{x,0,100}],x]"
			],
			"program": [
				"(PARI) x='x+O('x^50); Vec((3+3*x-sqrt(1-6*x+x^2))/(2*(1+3*x+x^2)*sqrt(1-6*x+x^2))) \\\\ _G. C. Greubel_, Mar 26 2017"
			],
			"xref": [
				"Cf. A000045, A001850, A118384."
			],
			"keyword": "nonn",
			"offset": "0,2",
			"author": "_Emanuele Munarini_, May 17 2011",
			"references": 1,
			"revision": 16,
			"time": "2017-03-27T03:53:56-04:00",
			"created": "2011-05-21T13:54:47-04:00"
		}
	]
}