{
	"greeting": "Greetings from The On-Line Encyclopedia of Integer Sequences! http://oeis.org/",
	"query": "id:A190792",
	"count": 1,
	"start": 0,
	"results": [
		{
			"number": 190792,
			"data": "17,19,29,31,41,59,61,67,71,127,227,229,269,271,347,431,607,641,1009,1091,1277,1279,1289,1291,1427,1447,1487,1597,1601,1607,1609,1657,1777,1861,1987,2129,2131,2339,2371,2377,2381,2539,2677,2687,2707,2789,2791",
			"name": "Primes p=prime(i) such that prime(i+3)-prime(i)=12.",
			"comment": [
				"Minimal distance between prime(i) and prime(i+3) is 12 if all three consecutive prime gaps are different.",
				"There are 6 possible consecutive prime gap configurations:",
				"{2,4,6}, {2,6,4}, {4,2,6}, {4,6,2}, {6,2,4}, and {6,4,2}.",
				"Least prime quartets with such gap configurations are:",
				"{17,19,23,29}-\u003e{2,4,6}",
				"{29,31,37,41}-\u003e{2,6,4}",
				"{67,71,73,79}-\u003e{4,2,6}",
				"{19,23,29,31}-\u003e{4,6,2}",
				"{1601,1607,1609,1613}-\u003e{6,2,4}",
				"{31,37,41,43}-\u003e{6,4,2}."
			],
			"link": [
				"Charles R Greathouse IV, \u003ca href=\"/A190792/b190792.txt\"\u003eTable of n, a(n) for n = 1..10000\u003c/a\u003e"
			],
			"mathematica": [
				"p = Prime[Range[1000]]; First /@ Select[Partition[p, 4, 1], Last[#] - First[#] == 12 \u0026] (* _T. D. Noe_, May 23 2011 *)"
			],
			"program": [
				"(MAGMA) [NthPrime(i): i in [2..60000] | NthPrime(i+3)-NthPrime(i) eq 12];  // Bruno Berselli, May 20 2011",
				"(PARI) is(n)=if(!isprime(n), return(0)); my(p=nextprime(n+1),q); if(p-n\u003e6, return(0)); q=nextprime(p+1); q-n\u003c11 \u0026\u0026 nextprime(q+1)-n==12 \\\\ _Charles R Greathouse IV_, Sep 14 2015"
			],
			"xref": [
				"Cf. A078847."
			],
			"keyword": "nonn,easy",
			"offset": "1,1",
			"author": "_Zak Seidov_, May 20 2011",
			"references": 3,
			"revision": 18,
			"time": "2015-09-14T16:12:39-04:00",
			"created": "2011-05-20T10:09:42-04:00"
		}
	]
}