{
	"greeting": "Greetings from The On-Line Encyclopedia of Integer Sequences! http://oeis.org/",
	"query": "id:A190822",
	"count": 1,
	"start": 0,
	"results": [
		{
			"number": 190822,
			"data": "1,1,2,4,7,14,27,53,104,208,415,836,1690,3434,7004,14342,29460,60707,125443,259883,539689,1123226,2342493,4894590,10245321,21481047,45108768,94863801,199772929,421245065,889331420,1879723964,3977402460,8424718846",
			"name": "G.f. satisfies: A(x) = Product_{n\u003e=1} (1+x^n)*(1+x^(2n)*A(x)).",
			"formula": [
				"G.f. satisfies: A(x) = 1 + Sum_{n\u003e=1} x^(n*(n+1)/2)*Product_{k=1..n} (1+x^k*A(x))/(1-x^k) due to a Lebesgue identity."
			],
			"example": [
				"G.f.: A(x) = 1 + x + 2*x^2 + 4*x^3 + 7*x^4 + 14*x^5 + 27*x^6 +...",
				"G.f.: A(x) = (1+x)*(1+x^2*A(x))* (1+x^2)*(1+x^4*A(x))* (1+x^3)*(1+x^6*A(x))*...",
				"G.f.: A(x) = 1 + x*(1+x*A(x))/(1-x) + x^3*(1+x*A(x))*(1+x^2*A(x))/((1-x)*(1-x^2)) + x^6*(1+x*A(x))*(1+x^2*A(x))*(1+x^3*A(x))/((1-x)*(1-x^2)*(1-x^3)) +..."
			],
			"program": [
				"(PARI) {a(n)=local(A=1+x);for(i=1,n,A=prod(m=1,n,(1+x^m)*(1+x^(2*m)*A+x*O(x^n))));polcoeff(A,n)}",
				"(PARI) {a(n)=local(A=1+x);for(i=1,n,A=1+sum(m=1,sqrtint(2*n),x^(m*(m+1)/2)*prod(k=1,m,(1+A*x^k)/(1-x^k+x*O(x^n)))));polcoeff(A,n)}"
			],
			"xref": [
				"Cf. A145267."
			],
			"keyword": "nonn",
			"offset": "0,3",
			"author": "_Paul D. Hanna_, May 21 2011",
			"references": 3,
			"revision": 6,
			"time": "2012-03-30T18:37:26-04:00",
			"created": "2011-05-22T02:19:09-04:00"
		}
	]
}