{
	"greeting": "Greetings from The On-Line Encyclopedia of Integer Sequences! http://oeis.org/",
	"query": "id:A190777",
	"count": 1,
	"start": 0,
	"results": [
		{
			"number": 190777,
			"data": "2,6,9,12,16,19,23,26,29,30,33,36,40,43,46,47,50,53,57,60,64,67,70,71,74,77,81,84,87,88,91,94,98,101,105,108,111,112,115,118,122,125,128,129,132,135,139,142,146,149,152,156,159,163,166,169,170,173,176,180,183,186,187,190,193,197,200,204,207,210,211,214,217,221,224",
			"name": "Positions of 1 in A190775.",
			"comment": [
				"See A190775."
			],
			"mathematica": [
				"(See A190775.)"
			],
			"xref": [
				"Cf. A190775."
			],
			"keyword": "nonn",
			"offset": "1,1",
			"author": "_Clark Kimberling_, May 19 2011",
			"references": 1,
			"revision": 4,
			"time": "2012-03-30T18:57:29-04:00",
			"created": "2011-05-25T17:53:33-04:00"
		}
	]
}