{
	"greeting": "Greetings from The On-Line Encyclopedia of Integer Sequences! http://oeis.org/",
	"query": "id:A190850",
	"count": 1,
	"start": 0,
	"results": [
		{
			"number": 190850,
			"data": "1,2,3,4,5,7,8,10,11,14,15,16,19,20,22,23,27,28,29,31,32,39,40,41,43,44,46,47,55,56,58,59,63,64,65,68,75,79,80,82,83,86,87,88,91,92,94,95,107,111,112,115,116,118,119,122,123,127,128,130,131,136,137,140,155,159,160,163,164,166,167,171,172,173,175,176,183,184,187",
			"name": "Integers in (1+A190807)/3; contains A190807 as a proper subsequence.",
			"comment": [
				"See A190803."
			],
			"mathematica": [
				"(See A190807.)"
			],
			"xref": [
				"Cf. A190803, A190807, A190849."
			],
			"keyword": "nonn",
			"offset": "1,2",
			"author": "_Clark Kimberling_, May 25 2011",
			"references": 3,
			"revision": 4,
			"time": "2012-03-30T18:57:29-04:00",
			"created": "2011-05-25T17:58:50-04:00"
		}
	]
}