{
	"greeting": "Greetings from The On-Line Encyclopedia of Integer Sequences! http://oeis.org/",
	"query": "id:A190883",
	"count": 1,
	"start": 0,
	"results": [
		{
			"number": 190883,
			"data": "2,6,10,14,19,23,27,31,35,36,40,44,48,52,57,61,65,69,74,78,82,86,91,95,99,103,107,108,112,116,120,124,129,133,137,141,146,150,154,158,163,167,171,175,179,180,184,188,192,196,201,205,209,213,218,222,226,230,235,239,243,247,251,252,256,260,264,268,273,277,281,285",
			"name": "Positions of 1 in A189480.",
			"comment": [
				"A sequence in a 4-way partition of the natural numbers. See A189480."
			],
			"mathematica": [
				"(See A189480.)"
			],
			"xref": [
				"Cf. A189480."
			],
			"keyword": "nonn",
			"offset": "1,1",
			"author": "_Clark Kimberling_, May 23 2011",
			"references": 2,
			"revision": 5,
			"time": "2012-03-30T18:57:29-04:00",
			"created": "2011-05-25T17:54:19-04:00"
		}
	]
}