{
	"greeting": "Greetings from The On-Line Encyclopedia of Integer Sequences! http://oeis.org/",
	"query": "id:A190727",
	"count": 1,
	"start": 0,
	"results": [
		{
			"number": 190727,
			"data": "0,1,2,3,4,5,6,7,8,0,2,4,6,8,10,12,14,16,18,1,4,7,10,13,16,19,22,25,28,2,6,10,14,18,22,26,30,34,38,3,8,13,18,23,28,33,38,43,48,4,10,16,22,28,34,40,46,52,58,5,12,19,26,33,40,47,54,61,68,6,14,22,30,38,46,54,62",
			"name": "Product of (digits of n each incremented by 1) - 2.",
			"comment": [
				"Number of numbers in range 1 to n-1 whose decimal expansion is, term-by-term, dominated by n."
			],
			"example": [
				"a(23) = 10 since all the numbers 22, 21, 20, 13, 12, 11, 10, 3, 2, 1 count."
			],
			"mathematica": [
				"f[n_]:=Module[{idnp=IntegerDigits[n]+1},Times@@idnp-2]; Array[f,80](* _Harvey P. Dale_, May 24 2011 *)"
			],
			"program": [
				"(PARI) a(n) = vecprod(apply(x-\u003ex+1, digits(n))) - 2; \\\\ _Michel Marcus_, Oct 06 2021"
			],
			"xref": [
				"Equals A089898(n)-2."
			],
			"keyword": "nonn,base",
			"offset": "1,3",
			"author": "_N. J. A. Sloane_, May 17 2011",
			"references": 0,
			"revision": 22,
			"time": "2021-10-06T12:35:34-04:00",
			"created": "2011-05-17T15:23:59-04:00"
		}
	]
}