{
	"greeting": "Greetings from The On-Line Encyclopedia of Integer Sequences! http://oeis.org/",
	"query": "id:A190005",
	"count": 1,
	"start": 0,
	"results": [
		{
			"number": 190005,
			"data": "0,1,6,46,336,2476,18216,134056,986496,7259536,53422176,393128416,2892992256,21289237696,156665348736,1152884469376,8483960303616,62432606515456,459435242128896,3380937517927936,24879977528856576,183089240352418816,1347335217403078656",
			"name": "a(n) = 6*a(n-1) + 10*a(n-2), with a(0)=0, a(1)=1.",
			"link": [
				"G. C. Greubel, \u003ca href=\"/A190005/b190005.txt\"\u003eTable of n, a(n) for n = 0..1000\u003c/a\u003e",
				"\u003ca href=\"/index/Rec#order_02\"\u003eIndex entries for linear recurrences with constant coefficients\u003c/a\u003e, signature (6,10)."
			],
			"formula": [
				"a(n) = sqrt(19)*((3+sqrt(19))^n - (3-sqrt(19))^n)/38. -  _Paolo P. Lava_, Jun 06 2011",
				"G.f.: x/(1 - 6*x - 10*x^2). - _R. J. Mathar_, Nov 20 2011"
			],
			"mathematica": [
				"LinearRecurrence[{6,10}, {0,1}, 50]",
				"CoefficientList[Series[x/(1-6*x-10*x^2), {x, 0, 50}], x] (* _G. C. Greubel_, Jan 11 2018 *)"
			],
			"program": [
				"(PARI) x='x+O('x^30); concat([0], Vec(x/(1-6*x-10*x^2))) \\\\ _G. C. Greubel_, Jan 11 2018",
				"(MAGMA) I:=[0,1]; [n le 2 select I[n] else 6*Self(n-1) + 10*Self(n-2): n in [1..30]]; \\\\ _G. C. Greubel_, Jan 11 2018"
			],
			"keyword": "nonn,easy",
			"offset": "0,3",
			"author": "_Vladimir Joseph Stephan Orlovsky_, May 24 2011",
			"references": 2,
			"revision": 23,
			"time": "2018-01-11T19:46:45-05:00",
			"created": "2011-05-24T16:13:10-04:00"
		}
	]
}