{
	"greeting": "Greetings from The On-Line Encyclopedia of Integer Sequences! http://oeis.org/",
	"query": "id:A190769",
	"count": 1,
	"start": 0,
	"results": [
		{
			"number": 190769,
			"data": "1,4,7,11,14,18,21,24,25,28,31,35,38,41,42,45,48,52,55,59,62,65,66,69,72,76,79,82,83,86,89,93,96,100,103,106,110,113,117,120,123,124,127,130,134,137,140,141,144,147,151,154,158,161,164,165,168,171,175,178,181,182,185,188,192,195,199,202,205,209,212,216,219,222",
			"name": "Positions of 2 in A190766.",
			"comment": [
				"See A190766."
			],
			"mathematica": [
				"(See A190766.)"
			],
			"xref": [
				"Cf. A190766."
			],
			"keyword": "nonn",
			"offset": "1,2",
			"author": "_Clark Kimberling_, May 19 2011",
			"references": 1,
			"revision": 4,
			"time": "2012-03-30T18:57:29-04:00",
			"created": "2011-05-25T17:51:05-04:00"
		}
	]
}