{
	"greeting": "Greetings from The On-Line Encyclopedia of Integer Sequences! http://oeis.org/",
	"query": "id:A190419",
	"count": 1,
	"start": 0,
	"results": [
		{
			"number": 190419,
			"data": "56,728,17472,768768,62270208,9278260992,2542243511808,1281290729951232,1187756506664792064,2025124843863470469120,6350791510355843391160320,36631365431732504680212725760,388622155865250142152376807587840",
			"name": "Number of (n+2)X(n+2) symmetric binary matrices without the pattern 1 1 1 diagonally",
			"link": [
				"R. H. Hardin, \u003ca href=\"/A190419/b190419.txt\"\u003eTable of n, a(n) for n = 1..62\u003c/a\u003e"
			],
			"example": [
				"Some solutions for n=2",
				"..1..0..1..0....1..1..1..0....1..1..0..1....0..1..1..0....1..0..0..1",
				"..0..0..0..0....1..1..0..1....1..0..0..0....1..1..0..0....0..1..0..1",
				"..1..0..0..1....1..0..0..1....0..0..0..1....1..0..0..0....0..0..0..1",
				"..0..0..1..0....0..1..1..0....1..0..1..0....0..0..0..1....1..1..1..1"
			],
			"keyword": "nonn",
			"offset": "1,1",
			"author": "_R. H. Hardin_ May 10 2011",
			"references": 1,
			"revision": 7,
			"time": "2012-03-31T12:36:19-04:00",
			"created": "2011-05-10T10:56:13-04:00"
		}
	]
}