{
	"greeting": "Greetings from The On-Line Encyclopedia of Integer Sequences! http://oeis.org/",
	"query": "id:A190669",
	"count": 1,
	"start": 0,
	"results": [
		{
			"number": 190669,
			"data": "1,0,0,1,1,0,0,1,1,0,0,1,1,0,1,1,0,0,1,1,0,0,1,1,0,0,1,0,0,1,1,0,0,1,1,0,0,1,1,0,0,1,0,0,1,1,0,0,1,1,0,0,1,1,0,1,1,0,0,1,1,0,0,1,1,0,0,1,1,0,1,1,0,0,1,1,0,0,1,1,0,0,1,0,0,1,1,0,0,1,1,0,0,1,1,0,0,1,0,0,1,1,0,0,1,1,0,0,1,1,0,1,1,0,0,1,1,0,0,1,1,0,0,1,1,0,1,1,0,0,1,1",
			"name": "a(n) = [(b*n+c)*r] - b*[n*r] - [c*r], where (r,b,c)=(sqrt(3),2,0) and [ ] = floor.",
			"comment": [
				"Write a(n) = [(b*n+c)*r] - b*[n*r] - [c*r]. If r\u003e0 and b and c are integers satisfying b \u003e= 2 and 0 \u003c= c \u003c= b-1, then 0 \u003c= a(n) \u003c= b. The positions of 0 in the sequence a are of interest, as are the position sequences for 1,2,...,b. These b+1 position sequences comprise a partition of the positive integers.",
				"Examples:",
				"(golden ratio,2,1):  A190427-A190430",
				"(sqrt(2),2,0):  A197879, A120243, A120749",
				"(sqrt(2),2,1):  A190483-A190486",
				"(sqrt(2),3,0):  A190487-A190490",
				"(sqrt(2),3,1):  A190491-A190495",
				"(sqrt(2),3,2):  A190496-A190500",
				"(sqrt(2),4,c):  A190544-A190566",
				"(sqrt(3),2,0):  A190669-A190671"
			],
			"link": [
				"G. C. Greubel, \u003ca href=\"/A190669/b190669.txt\"\u003eTable of n, a(n) for n = 1..10000\u003c/a\u003e"
			],
			"formula": [
				"a(n) = floor(2*n*sqrt(3)) - 2*floor(n*sqrt(3))."
			],
			"mathematica": [
				"r = Sqrt[3]; b = 2; c = 0;",
				"f[n_] := Floor[(b*n + c)*r] - b*Floor[n*r] - Floor[c*r];",
				"t = Table[f[n], {n, 1, 200}] (* A190669 *)",
				"Flatten[Position[t, 0]]      (* A190670 *)",
				"Flatten[Position[t, 1]]      (* A190671 *)"
			],
			"program": [
				"(PARI) for(n=1,100, print1(floor(2*n*sqrt(3)) - 2*floor(n*sqrt(3)), \", \")) \\\\ _G. C. Greubel_, Apr 20 2018",
				"(MAGMA) [Floor(2*n*Sqrt(3)) - 2*Floor(n*Sqrt(3)): n in [1..100]]; // _G. C. Greubel_, Apr 20 2018"
			],
			"xref": [
				"Cf. A190670, A190671."
			],
			"keyword": "nonn",
			"offset": "1",
			"author": "_Clark Kimberling_, May 16 2011",
			"references": 4,
			"revision": 19,
			"time": "2019-09-10T10:31:25-04:00",
			"created": "2011-05-18T23:47:54-04:00"
		}
	]
}