{
	"greeting": "Greetings from The On-Line Encyclopedia of Integer Sequences! http://oeis.org/",
	"query": "id:A190869",
	"count": 1,
	"start": 0,
	"results": [
		{
			"number": 190869,
			"data": "0,1,10,98,960,9404,92120,902392,8839680,86592016,848240800,8309223968,81395758080,797339132864,7810599812480,76511319859072,749491998965760,7341897349939456,71919989501463040,704516100314751488,6901321024144588800,67604178040816385024",
			"name": "a(n) = 10*a(n-1) - 2*a(n-2), a(0)=0, a(1)=1.",
			"comment": [
				"a(n+1) equals the number of words of length n over {0,1,2,3,4,5,6,7,8,9} avoiding 01 and 02. - _Milan Janjic_, Dec 17 2015"
			],
			"link": [
				"Robert Israel, \u003ca href=\"/A190869/b190869.txt\"\u003eTable of n, a(n) for n = 0..990\u003c/a\u003e",
				"\u003ca href=\"/index/Rec#order_02\"\u003eIndex entries for linear recurrences with constant coefficients\u003c/a\u003e, signature (10, -2)."
			],
			"formula": [
				"a(n) = ((5+sqrt(23))^n-(5-sqrt(23))^n)/(2*sqrt(23)).",
				"G.f.: x/(1-10*x+2*x^2). - _Robert Israel_, Dec 17 2015"
			],
			"maple": [
				"f:= gfun:-rectoproc({a(n) = 10*a(n-1) - 2*a(n-2), a(0)=0, a(1)=1},a(n),remember):",
				"map(f, [$0..50]); # _Robert Israel_, Dec 17 2015"
			],
			"mathematica": [
				"LinearRecurrence[{10, -2}, {0, 1}, 50] (* _T. D. Noe_, May 23 2011 *)"
			],
			"program": [
				"(MAGMA) I:=[0,1]; [n le 2 select I[n] else 10*Self(n-1)-2*Self(n-2): n in [1..30]]; // _Vincenzo Librandi_, Dec 17 2015",
				"(PARI) concat(0, Vec(x/(1-10*x+2*x^2) + O(x^100))) \\\\ _Altug Alkan_, Dec 17 2015"
			],
			"keyword": "nonn,easy",
			"offset": "0,3",
			"author": "_Rolf Pleisch_, May 22 2011",
			"ext": [
				"Corrected and extended by _T. D. Noe_, May 23 2011"
			],
			"references": 4,
			"revision": 37,
			"time": "2016-04-11T14:58:39-04:00",
			"created": "2011-05-23T20:32:08-04:00"
		}
	]
}