{
	"greeting": "Greetings from The On-Line Encyclopedia of Integer Sequences! http://oeis.org/",
	"query": "id:A190572",
	"count": 1,
	"start": 0,
	"results": [
		{
			"number": 190572,
			"data": "6,8,9,10,10,11,11,12,12,13,14,14,15,15,16,16,16,17,18,19,20,20,21,22,22,22,22,23,23,24,24,24,25,25,26,26,26,26,27,27,27,28,28,28,29,29,29,29,30,30,30,31,31,31,31,32,32,33,33,34,34,34,34,35,35,35",
			"name": "A189685/2",
			"formula": [
				"a(n) = A189683(2n)/2"
			],
			"keyword": "nonn",
			"offset": "1,1",
			"author": "_Jonathan Sondow_, May 12 2011",
			"references": 0,
			"revision": 4,
			"time": "2012-03-30T19:00:09-04:00",
			"created": "2011-05-13T21:26:52-04:00"
		}
	]
}