{
	"greeting": "Greetings from The On-Line Encyclopedia of Integer Sequences! http://oeis.org/",
	"query": "id:A190697",
	"count": 1,
	"start": 0,
	"results": [
		{
			"number": 190697,
			"data": "4,8,12,15,19,23,27,30,34,38,45,49,53,56,60,64,68,71,75,79,83,86,90,94,101,105,109,112,116,120,124,127,131,135,139,142,146,150,157,161,165,168,172,176,180,183,187,191,198,202,206,209,213,217,221,224,228,232,236,239,243,247,254,258,262,265,269,273,277,280,284,288",
			"name": "Positions of 3 in A190693.",
			"comment": [
				"See A190693."
			],
			"mathematica": [
				"(See A190693.)"
			],
			"xref": [
				"Cf. A190693."
			],
			"keyword": "nonn",
			"offset": "1,1",
			"author": "_Clark Kimberling_, May 17 2011",
			"references": 2,
			"revision": 8,
			"time": "2020-06-04T08:16:58-04:00",
			"created": "2011-05-18T23:40:04-04:00"
		}
	]
}