{
	"greeting": "Greetings from The On-Line Encyclopedia of Integer Sequences! http://oeis.org/",
	"query": "id:A190505",
	"count": 1,
	"start": 0,
	"results": [
		{
			"number": 190505,
			"data": "3,8,13,18,22,27,32,37,41,46,51,56,60,65,70,75,79,84,89,94,99,103,108,113,118,122,127,132,137,141,146,151,156,160,165,170,175,180,184,189,194,199,203,208,213,218,222,227,232,237,241,246,251,256,261,265,270,275,280,284,289,294,299,303,308,313,318,322,327,332,337",
			"name": "n+[nr/s]+[nt/s]+[nu/s];  r=golden ratio, s=r+1, t=r+2, u=r+3.",
			"comment": [
				"See A190504."
			],
			"mathematica": [
				"(See A190504.)",
				"Module[{r=GoldenRatio,s,t,u},s=r+1;t=r+2;u=r+3;Table[n+Floor[(n r)/s]+ Floor[(n t)/s]+Floor[(n u)/s],{n,80}]] (* _Harvey P. Dale_, Aug 09 2013 *)"
			],
			"xref": [
				"Cf. A190504."
			],
			"keyword": "nonn",
			"offset": "1,1",
			"author": "_Clark Kimberling_, May 11 2011",
			"references": 1,
			"revision": 7,
			"time": "2013-08-09T16:42:43-04:00",
			"created": "2011-05-11T15:07:00-04:00"
		}
	]
}