{
	"greeting": "Greetings from The On-Line Encyclopedia of Integer Sequences! http://oeis.org/",
	"query": "id:A190191",
	"count": 1,
	"start": 0,
	"results": [
		{
			"number": 190191,
			"data": "1,1,0,1,0,0,1,0,1,0,1,1,0,1,0,0,0,1,1,0,1,0,0,1,1,1,0,1,0,0,1,0,1,0,1,1,0,1,0,0,1,1,1,0,1,0,0,1,0,1,0,1,1,0,1,0,0,0,1,1,0,1,0,0,1,1,1,0,1,1,0,1,0,0,0,1,1,0,1,0,0,1,1,1,0,1,0,0,1,0,1,0,1,1,0,1,0,0,0,1,1,0,1,0,0,1,0,1",
			"name": "a(n) = [n*u+n*v]-[n*u]-[n*v], where u=sqrt(2), v=1/u, and []=floor.",
			"link": [
				"G. C. Greubel, \u003ca href=\"/A190191/b190191.txt\"\u003eTable of n, a(n) for n = 1..10000\u003c/a\u003e"
			],
			"mathematica": [
				"u = 2^(1/2); v = 1/u;",
				"f[n_] := Floor[n*u + n*v] - Floor[n*u] - Floor[n*v]",
				"t = Table[f[n], {n, 1, 120}] (* A190191 *)",
				"Flatten[Position[t, 0]]      (* A190192 *)",
				"Flatten[Position[t, 1]]      (* A190193 *)"
			],
			"program": [
				"(PARI) for(n=1,30, print1(floor(n*(sqrt(2) + 1/sqrt(2))) - floor(n*sqrt(2)) - floor(n/sqrt(2)), \", \")) \\\\ _G. C. Greubel_, Dec 28 2017",
				"(MAGMA) [Floor(n*(Sqrt(2) + 1/Sqrt(2))) - Floor(n*Sqrt(2)) - Floor(n/Sqrt(2)): n in [1..30]]; // _G. C. Greubel_, Dec 28 2017"
			],
			"xref": [
				"Cf. A190192, A190193."
			],
			"keyword": "nonn",
			"offset": "1",
			"author": "_Clark Kimberling_, May 05 2011",
			"references": 4,
			"revision": 9,
			"time": "2017-12-30T03:30:53-05:00",
			"created": "2011-05-06T00:38:22-04:00"
		}
	]
}