{
	"greeting": "Greetings from The On-Line Encyclopedia of Integer Sequences! http://oeis.org/",
	"query": "id:A190844",
	"count": 1,
	"start": 0,
	"results": [
		{
			"number": 190844,
			"data": "1,3,5,9,11,15,17,19,27,29,33,35,43,45,51,53,57,59,65,67,75,81,87,89,99,101,105,107,113,115,129,131,135,139,153,159,161,171,173,177,179,195,197,201,203,209,211,225,227,235,243,257,259,261,267,269,297,299,303,305,315,317,321,323,339,341,345,347,353,355,387,389,393",
			"name": "Integers in A190804/3; contains A190804 as a proper subsequence.",
			"comment": [
				"See A190804."
			],
			"mathematica": [
				"(* See A190804. *)"
			],
			"xref": [
				"Cf. A190804."
			],
			"keyword": "nonn",
			"offset": "1,2",
			"author": "_Clark Kimberling_, May 25 2011",
			"ext": [
				"Definition corrected by _Georg Fischer_, Sep 02 2021"
			],
			"references": 2,
			"revision": 8,
			"time": "2021-09-02T07:21:48-04:00",
			"created": "2011-05-25T17:55:56-04:00"
		}
	]
}