{
	"greeting": "Greetings from The On-Line Encyclopedia of Integer Sequences! http://oeis.org/",
	"query": "id:A190639",
	"count": 1,
	"start": 0,
	"results": [
		{
			"number": 190639,
			"data": "473267,726760,1773439,1808828,1919128,2131583,2165420,2339971,2390652,2518488,2802591,2844914,2982584,2996184,3183263,3193175,3250986,3418185,3428241,3633472,3909324,3953449,4280455,4303819,4373399,4658285,4728653,4978360,5165402,5254365",
			"name": "Centuries whose prime pattern repeats in the next century.",
			"comment": [
				"Alternate definition: Numbers x such that for all N in [100x,100x+99], N is prime iff N+100 is prime.",
				"Contains in particular the first of two consecutive prime-free centuries, i.e., N such that there is no prime in [100 N,100 (N+2)], cf. A181098.",
				"x belongs to this sequence if and only if the primality character of (100 * x) + k is the same as (100 * (x+1)) + k for all k = 0..99. - _V. Raman_, Dec 09 2012"
			],
			"link": [
				"Donovan Johnson, \u003ca href=\"/A190639/b190639.txt\"\u003eTable of n, a(n) for n = 1..1000\u003c/a\u003e",
				"J. K. Andersen, in reply to R. Wood, \u003ca href=\"http://groups.yahoo.com/group/primenumbers/message/22717\"\u003eRe: First repetition of prime pattern within \"centuries\"\u003c/a\u003e, Yahoo group \"primenumbers\", May 15, 2011.",
				"Jens Kruse Andersen, Phil Carmody, Maximilian Hasler, \u003ca href=\"/A190639/a190639.txt\"\u003eFirst repetition of prime pattern within \"centuries\"\u003c/a\u003e, digest of 11 messages in primenumbers Yahoo group, May 15, 2011."
			],
			"formula": [
				"a(n) ~ n. In particular there are x - 200x/log x + O(x/log^2 x) members of this sequence below x. - _Charles R Greathouse IV_, Dec 09 2012",
				"a(n) = A219996(n) - 1. - _V. Raman_, Dec 09 2012"
			],
			"example": [
				"The first value refers to two consecutive prime-free centuries (cf. A181098); the second value is such that 100*a(2)+17 and 100*a(2)+117 are the only primes between 100*a(2) and 100*(a(2)+2). See the link for more examples."
			],
			"xref": [
				"Cf. A181098.",
				"Cf. A219996 (upper century)."
			],
			"keyword": "nonn,base",
			"offset": "1,1",
			"author": "_M. F. Hasler_, May 15 2011",
			"ext": [
				"a(1)-a(5) computed by J. K. Andersen, May 15 2011",
				"a(6)-a(30) from _Donovan Johnson_, May 15 2011"
			],
			"references": 11,
			"revision": 31,
			"time": "2019-11-12T09:24:34-05:00",
			"created": "2011-05-15T10:47:34-04:00"
		}
	]
}