{
	"greeting": "Greetings from The On-Line Encyclopedia of Integer Sequences! http://oeis.org/",
	"query": "id:A191359",
	"count": 1,
	"start": 0,
	"results": [
		{
			"number": 191359,
			"data": "2,6,1,1,8,8,2,4,9,2,6,4,0,0,7,2,5,4,2,8,8,4,9,2,7,0,1,3,5,2,7,1,6,5,0,5,5,0,7,2,4,0,9,6,2,7,5,2,4,0,1,0,8,0,6,3,3,4,9,7,9,3,4,4,0,7,1,5,7,4,0,0,8,3",
			"name": "Continued fraction using the decimal digits of Pi.",
			"formula": [
				"1/(3+1/(1+1/(4+1/(1+1/(5+1/(9+1/(2+1/(6+1/(5+1/(3+1/(5+1/(8+1/(9+1/(7+1/(9+1/(3+1/(2+1/...))))))))))))))))). [corrected by _John M. Campbell_, Aug 25 2011]",
				"Equals 1/A094964. - _R. J. Mathar_, Jun 04 2011"
			],
			"example": [
				"0.2611882.. = 1/3.82865...."
			],
			"xref": [
				"Cf. A000796, A094964."
			],
			"keyword": "nonn,cons,base",
			"offset": "0,1",
			"author": "_Fabrice Auzanneau_, Jun 04 2011",
			"references": 0,
			"revision": 25,
			"time": "2019-05-17T14:29:57-04:00",
			"created": "2011-06-08T18:29:37-04:00"
		}
	]
}