{
	"greeting": "Greetings from The On-Line Encyclopedia of Integer Sequences! http://oeis.org/",
	"query": "id:A191716",
	"count": 1,
	"start": 0,
	"results": [
		{
			"number": 191716,
			"data": "1,0,2,3,0,3,0,19,0,5,40,0,73,0,7,0,492,0,217,0,11,1260,0,3225,0,540,0,15,0,24096,0,14968,0,1234,0,22,72576,0,232156,0,55594,0,2524,0,30,0,1922148,0,1524823,0,176800,0,4987,0,42,6652800,0,24999984,0,7758160,0,496680,0,9120,0,56,0,227963280,0,216975032,0,32769481,0,1277331,0,16399,0,77",
			"name": "a(n,k) equals (1/n!) multiplied by the count of permutations with cycle length k  in all products u v u^-1 v^-1 over all permutations u and v of length n.",
			"comment": [
				"Row sums equal n! by definition."
			],
			"link": [
				"R. Stanley, \u003ca href=\"http://www-math.mit.edu/~rstan/transparencies/hooks.pdf\"\u003eHook Lengths and Contents slides 26 \u0026 27\u003c/a\u003e"
			],
			"example": [
				"1;",
				"0, 2;",
				"3, 0, 3;",
				"0, 19, 0, 5;",
				"40, 0, 73, 0, 7;",
				"0, 492, 0, 217, 0, 11;",
				"1260, 0, 3225, 0, 540, 0, 15;",
				"0, 24096, 0, 14968, 0, 1234, 0, 22;"
			],
			"mathematica": [
				"(*slow:*)",
				"Table[Rest@CoefficientList[Apply[Plus,Flatten[Outer[ q^Length[ ToCycles[#1[[#2]][[InversePermutation[#1]]][[InversePermutation[#2]]]]] \u0026, Permutations[w], Permutations[w], 1]]],q]/w!,{w,4}]//Expand;",
				"(*fast:*)",
				"content[(p_)?PartitionQ]:= Block[{le= Max[p], ferr =(PadLeft[1+ 0*Range[#1], Max[p]]\u0026) /@ p}, DeleteCases[ MapIndexed[-le+ Range[le,1,-1]- #1- Tr[#2]\u0026, 0*ferr]*ferr,0,-1]+ le];",
				"Table[Rest@ CoefficientList[ Apply[Plus, Apply[Times, q + Flatten[content[#]]] \u0026 /@ Partitions[ k ]] , q], {k, 12}]"
			],
			"xref": [
				"Cf. A191714"
			],
			"keyword": "nonn,tabl",
			"offset": "1,3",
			"author": "_Wouter Meeussen_, Jun 12 2011",
			"references": 0,
			"revision": 8,
			"time": "2012-03-30T18:37:45-04:00",
			"created": "2011-07-04T19:22:00-04:00"
		}
	]
}