{
	"greeting": "Greetings from The On-Line Encyclopedia of Integer Sequences! http://oeis.org/",
	"query": "id:A191676",
	"count": 1,
	"start": 0,
	"results": [
		{
			"number": 191676,
			"data": "14,33,39,60,64,84,95,110,138,150,155,174,189,217,248,258,259,272,315,324,360,368,390,399,405,410,430,473,504,530,539,564,584,624,663,670,732,754,770,819,852,854,869,885,897,915,1005,1008,1024,1053,1056,1065,1104,1110,1120,1139,1155,1248,1278,1292,1360,1378,1422",
			"name": "Numbers N such that N=(a+b)*c=a*b+c for some a,b,c\u003e1.",
			"comment": [
				"Without imposing c\u003e1, there would be the trivial decomposition a=c=1, b=N-1, for any N.",
				"One has a\u003ec, b\u003ec, since, e.g., a\u003c=c would imply N = ab+c \u003c= c(b+1) \u003c c(b+a) = N. Therefore one can impose the restriction 1 \u003c c \u003c b \u003c= a."
			],
			"link": [
				"Robert Israel, \u003ca href=\"/A191676/b191676.txt\"\u003eTable of n, a(n) for n = 1..10000\u003c/a\u003e",
				"Claudio Meller, \u003ca href=\"http://list.seqfan.eu/pipermail/seqfan/2011-June/014955.html\"\u003eposting on SeqFan mailing list\u003c/a\u003e, June 9, 2011."
			],
			"maple": [
				"N:= 10^4: # for terms \u003c= N",
				"Res:= NULL:",
				"for a from 3 to N/3 do",
				"   for b from 3 to a while a*b \u003c N do",
				"     c:= a*b/(a+b-1);",
				"     if c::posint and c\u003e1 then",
				"       v:= (a+b)*c;",
				"       if v\u003c=N then Res:= Res, v fi",
				"     fi",
				"od od:",
				"sort(convert({Res},list)); # _Robert Israel_, Nov 06 2019"
			],
			"mathematica": [
				"mx = 1424; lmt = Floor[9 Sqrt[mx]/2]; lst = {}; Do[ If[a*b + c == (a + b) c \u003c mx, AppendTo[lst, a*b + c]], {a, 2, lmt}, {b, a + 1, lmt}, {c, 2, a - 1}]; Sort@ lst (* _Robert G. Wilson v_, Jun 17 2011 *)"
			],
			"program": [
				"(PARI) is_A191676(N)={fordiv(N,c,c*c\u003eN \u0026 return; c\u003e1 \u0026 fordiv(N-c,a,a*a\u003eN-c \u0026 break; a\u003ec \u0026 (a+(N-c)/a)*c==N \u0026 return(1)))}"
			],
			"keyword": "nonn",
			"offset": "1,1",
			"author": "_M. F. Hasler_, based on suggestion of _Claudio Meller_ (cf. link), Jun 10 2011",
			"references": 3,
			"revision": 16,
			"time": "2019-11-07T05:27:24-05:00",
			"created": "2011-06-10T12:48:11-04:00"
		}
	]
}