{
	"greeting": "Greetings from The On-Line Encyclopedia of Integer Sequences! http://oeis.org/",
	"query": "id:A191081",
	"count": 1,
	"start": 0,
	"results": [
		{
			"number": 191081,
			"data": "3,7,17,29,37,41,43,47,53,59,61,71,103,107,109,113,127,137,139,149,157,173,191,193,197,199,211,227,229,233,251,271,293,307,311,331,349,353,359,373,379,401,409,419,443,449,461,463,491,503,509,521,577,587",
			"name": "Primes that are not squares mod 79.",
			"link": [
				"Vincenzo Librandi, \u003ca href=\"/A191081/b191081.txt\"\u003eTable of n, a(n) for n = 1..1000\u003c/a\u003e"
			],
			"mathematica": [
				"Select[Prime[Range[200]], JacobiSymbol[#,79]==-1\u0026]"
			],
			"program": [
				"(MAGMA) [p: p in PrimesUpTo(587) | JacobiSymbol(p, 79) eq -1]; // _Vincenzo Librandi_, Sep 11 2012"
			],
			"keyword": "nonn,easy",
			"offset": "1,1",
			"author": "_T. D. Noe_, May 25 2011",
			"references": 1,
			"revision": 7,
			"time": "2012-09-11T04:59:01-04:00",
			"created": "2011-05-25T12:53:35-04:00"
		}
	]
}