{
	"greeting": "Greetings from The On-Line Encyclopedia of Integer Sequences! http://oeis.org/",
	"query": "id:A191510",
	"count": 1,
	"start": 0,
	"results": [
		{
			"number": 191510,
			"data": "1,9,648,360000,1518750000,48243443062500,11480517255997440000,20400479323264014247526400,270090559531318533654528000000000,26599911685677709861296622500000000000000,19464564507161243794359748945629699456000000000000",
			"name": "Product of terms in n-th row of A132818.",
			"comment": [
				"Lim_{n -\u003e inf} (a(n)*a(n+2))/a(n+1)^2 = e^2.  Like A168510, this limit is asymptotic from above."
			],
			"link": [
				"H. J. Brothers and J. A. Knox, \u003ca href=\"http://www.brotherstechnology.com/docs/mi_paper1.pdf\"\u003eNew closed-form approximations to the logarithmic constant e\u003c/a\u003e, Math. Intelligencer, Vol. 20, No. 4, (1998), 25-29."
			],
			"formula": [
				"a(n)=product[product[((k + 1)/(k - 1))^k, {k, 2, j}], {j, 1, n}].",
				"a(n) ~ A^4 * exp(n^2 + 2*n + 5/6) / (n^(2/3) * 2^(2*n+1) * Pi^(n+1)), where A = A074962 = 1.2824271291... is the Glaisher-Kinkelin constant. - _Vaclav Kotesovec_, Jul 11 2015"
			],
			"example": [
				"For n=3, row 3 of A132818 = {6,18,6} and a(3)=648."
			],
			"mathematica": [
				"Table[Product[Product[((k + 1)/(k - 1))^k, {k, 2, j}], {j, 1, n}], {n, 1, 11}]",
				"Table[(n + 1)^n * Hyperfactorial[n]^2 / (2^n * BarnesG[n+2]^2), {n, 1, 12}] (* _Vaclav Kotesovec_, Jul 11 2015 *)"
			],
			"xref": [
				"Cf. A132818, A002457. Related to e as in the cases of A168510 and A001142."
			],
			"keyword": "easy,nonn,nice",
			"offset": "1,2",
			"author": "_Harlan J. Brothers_, Jun 04 2011",
			"references": 0,
			"revision": 23,
			"time": "2016-04-16T11:35:10-04:00",
			"created": "2011-06-07T17:08:39-04:00"
		}
	]
}