{
	"greeting": "Greetings from The On-Line Encyclopedia of Integer Sequences! http://oeis.org/",
	"query": "id:A191798",
	"count": 1,
	"start": 0,
	"results": [
		{
			"number": 191798,
			"data": "0,2,58,2474,180480,19895936,3105348340,652948189204,177662757810868,60772232945639507,25533219938917963508,12921764841857675170314,7754002391777621430686566",
			"name": "Number of essentially different ways of arranging numbers 1 through 2*n around a circle so that the sums of each pair of adjacent numbers are neither all prime nor all composite.",
			"comment": [
				"Finding a pattern, recurrence relation or explicit formula for this sequence would allow us to find terms in A191374 using terms from A051252, or vice versa."
			],
			"formula": [
				"For n\u003e1, a(n) = (2*n-1)!/2 - A051252(n) - A191374(n)."
			],
			"example": [
				"a(2) = 2 since the arrangements 1,3,2,4 and 1,3,4,2 both satisfy the condition."
			],
			"xref": [
				"Cf. A051252, A191374."
			],
			"keyword": "nonn,more",
			"offset": "1,2",
			"author": "_Bennett Gardiner_, Jun 16 2011",
			"ext": [
				"a(7) corrected, a(8)-a(13) added by _Max Alekseyev_, Aug 19 2013"
			],
			"references": 0,
			"revision": 12,
			"time": "2017-03-30T23:35:50-04:00",
			"created": "2011-06-21T13:00:59-04:00"
		}
	]
}