{
	"greeting": "Greetings from The On-Line Encyclopedia of Integer Sequences! http://oeis.org/",
	"query": "id:A191601",
	"count": 1,
	"start": 0,
	"results": [
		{
			"number": 191601,
			"data": "2,7,41,428,7588,235992,12750773,1196790145,195443817921,55484180929526,27388366928551712,23507551792998353446,35081808543792928475951,91032423727427789694636918,410722028606679785606473590135",
			"name": "Number of n X n symmetric binary matrices with each 1 adjacent to no more than 2 horizontally, vertically or diagonally neighboring 1s",
			"link": [
				"R. H. Hardin, \u003ca href=\"/A191601/b191601.txt\"\u003eTable of n, a(n) for n = 1..17\u003c/a\u003e"
			],
			"example": [
				"Some solutions for n=4",
				"..0..1..1..0....1..0..1..1....1..0..0..0....0..0..0..1....1..0..0..1",
				"..1..1..0..0....0..0..0..0....0..0..0..1....0..0..0..1....0..0..0..0",
				"..1..0..0..0....1..0..1..0....0..0..0..1....0..0..1..0....0..0..0..1",
				"..0..0..0..1....1..0..0..0....0..1..1..1....1..1..0..0....1..0..1..1"
			],
			"keyword": "nonn",
			"offset": "1,1",
			"author": "_R. H. Hardin_ Jun 08 2011",
			"references": 1,
			"revision": 6,
			"time": "2015-12-18T18:17:40-05:00",
			"created": "2011-06-08T08:49:56-04:00"
		}
	]
}