{
	"greeting": "Greetings from The On-Line Encyclopedia of Integer Sequences! http://oeis.org/",
	"query": "id:A191105",
	"count": 1,
	"start": 0,
	"results": [
		{
			"number": 191105,
			"data": "1,4,8,11,15,18,22,25,26,29,32,33,36,40,43,47,50,54,57,61,64,65,68,71,72,75,79,82,86,89,93,96,97,100,103,104,107,111,114,118,121,125,128,132,135,136,139,142,143,146,150,153,157,160,164,167,168,171,174,175,178,182,185,189,192,196,199,203,206,207,210,213,214,217",
			"name": "Positions of 2 in A190893.",
			"comment": [
				"See A190893."
			],
			"mathematica": [
				"(See A190893.)"
			],
			"xref": [
				"Cf. A190893."
			],
			"keyword": "nonn",
			"offset": "1,2",
			"author": "_Clark Kimberling_, May 26 2011",
			"references": 3,
			"revision": 4,
			"time": "2012-03-30T18:57:29-04:00",
			"created": "2011-05-26T12:28:04-04:00"
		}
	]
}