{
	"greeting": "Greetings from The On-Line Encyclopedia of Integer Sequences! http://oeis.org/",
	"query": "id:A191242",
	"count": 1,
	"start": 0,
	"results": [
		{
			"number": 191242,
			"data": "1,1,3,12,50,224,1054,5121,25509,129591,668811,3496740,18481512,98585788,530068840,2869725800,15630429306,85589391884,470905310206,2601941245750,14432082902820,80328808797750,448527122885700,2511672193514250",
			"name": "Reversion of x-x^2-x^3-2*x^4",
			"comment": [
				"For the reversion of x - a*x^2 - b*x^3 - c*x^4 (a!=0, b!=0, c!=0) we have",
				"a(n) = sum(k=1,n-1, (sum(j=0..k, a^(-n+3*k-j+1)*b^(n-3*k+2*j-1)*c^(k-j)*binomial(j,n-3*k+2*j-1)*binomial(k,j)))*binomial(n+k-1,n-1))/n, n\u003e1, a(1)=1."
			],
			"link": [
				"Vincenzo Librandi, \u003ca href=\"/A191242/b191242.txt\"\u003eTable of n, a(n) for n = 1..200\u003c/a\u003e",
				"Vladimir Kruchinin, \u003ca href=\"http://arxiv.org/abs/1211.3244\"\u003eThe method for obtaining expressions for coefficients of reverse generating functions\u003c/a\u003e, arXiv:1211.3244 [math.CO], 2012."
			],
			"formula": [
				"a(n) = sum(k=1..n-1, (sum(j=0..k, binomial(j,n-3*k+2*j-1)*2^(k-j)*binomial(k,j)))*binomial(n+k-1,n-1))/n, n\u003e1, a(1)=1."
			],
			"mathematica": [
				"a[1] = 1; a[n_] := Sum[Sum[Binomial[j, n - 3k + 2j - 1]*2^(k - j)* Binomial[k, j], {j, 0, k}]*Binomial[n + k - 1, n - 1], {k, 1, n - 1}]/n;",
				"Array[a, 24] (* _Jean-François Alcover_, Jul 23 2018 *)"
			],
			"program": [
				"(Maxima)",
				"a(n):=sum((sum(binomial(j,n-3*k+2*j-1)*2^(k-j)*binomial(k,j),j,0,k))*binomial(n+k-1,n-1),k,1,n-1)/n;",
				"(PARI) x='x+O('x^66); /* that many terms */",
				"Vec(serreverse(x-x^2-x^3-2*x^4)) /* show terms */ /* _Joerg Arndt_, May 28 2011 */",
				"(MAGMA) [\u0026+[Binomial(i,n-3*k+2*i-1)*2^(k-i)*Binomial(k,i)*Binomial(n+k-1,n-1)/n: k in [0..25], i in [0..n]]: n in [1..25]]; // _Vincenzo Librandi_, Jul 23 2018"
			],
			"keyword": "nonn",
			"offset": "1,3",
			"author": "_Vladimir Kruchinin_, May 28 2011",
			"references": 1,
			"revision": 21,
			"time": "2018-07-23T02:43:30-04:00",
			"created": "2011-06-02T14:10:38-04:00"
		}
	]
}