{
	"greeting": "Greetings from The On-Line Encyclopedia of Integer Sequences! http://oeis.org/",
	"query": "id:A192662",
	"count": 1,
	"start": 0,
	"results": [
		{
			"number": 192662,
			"data": "1,1,3,15,82,518,3652,28123,233733,2075597,19542826,193908574,2017519282,21921326573,247882099197,2908534759303,35322473621014,443010881207381,5726889928765906,76175517383629544,1040964231177762308,14594191539892866665",
			"name": " Floor-Sqrt transform of (signless) central Stirling numbers of the first kind (A187646).",
			"formula": [
				" a(n) = floor(sqrt(|stirling1(2*n,n)|))."
			],
			"mathematica": [
				" Table[Floor[Sqrt[Abs[StirlingS1[2n,n]]]],{n,0,100}]"
			],
			"program": [
				" (Maxima) makelist(floor(sqrt(abs(stirling1(2*n,n)))),n,0,24);"
			],
			"keyword": "nonn",
			"offset": "0,3",
			"author": "_Emanuele Munarini_, Jul 07 2011",
			"references": 0,
			"revision": 4,
			"time": "2012-03-30T18:55:30-04:00",
			"created": "2011-07-11T08:04:45-04:00"
		}
	]
}