{
	"greeting": "Greetings from The On-Line Encyclopedia of Integer Sequences! http://oeis.org/",
	"query": "id:A192538",
	"count": 1,
	"start": 0,
	"results": [
		{
			"number": 192538,
			"data": "1,3,17,27,545,563,867,1395,1433,1577,2187,580793,585363,592433,593507,620195,624945,632267,633377,891075,921153,950907,1481427,1489217,1500795,1502513,1624913,1649195",
			"name": "(A192537)/2.",
			"comment": [
				"See A192537."
			],
			"mathematica": [
				"(See A192537.)"
			],
			"xref": [
				"Cf. A192476, A192537."
			],
			"keyword": "nonn",
			"offset": "1,2",
			"author": "_Clark Kimberling_, Jul 04 2011",
			"references": 1,
			"revision": 4,
			"time": "2012-03-30T18:57:35-04:00",
			"created": "2011-07-05T12:59:36-04:00"
		}
	]
}