{
	"greeting": "Greetings from The On-Line Encyclopedia of Integer Sequences! http://oeis.org/",
	"query": "id:A192121",
	"count": 1,
	"start": 0,
	"results": [
		{
			"number": 192121,
			"data": "0,4,6,7,32,48,56,60,62,63,256,384,448,480,496,504,508,510,511,2048,3072,3584,3840,3968,4032,4064,4080,4088,4092,4094,4095,16384,24576,28672,30720,31744,32256,32512,32640,32704,32736,32752,32760,32764,32766,32767",
			"name": "Monotonic ordering of nonnegative differences 8^i - 2^j, for 40 \u003e= i \u003e= 0, j \u003e= 0.",
			"link": [
				"Nathaniel Johnston, \u003ca href=\"/A192121/b192121.txt\"\u003eTable of n, a(n) for n = 1..2461\u003c/a\u003e [truncated to 8^40-1 by _Georg Fischer_, Nov 16 2021]"
			],
			"maple": [
				"A192121:={}: for i from 0 to 5 do for j from 0 to 3*i do A192121 := A192121 union {8^i-2^j}: od: od: op(A192121); # _Nathaniel Johnston_, Jun 23 2011"
			],
			"mathematica": [
				"c = 8; d = 2; t[i_, j_] := c^i - d^j;",
				"u = Table[t[i, j], {i, 0, 40}, {j, 0, i*Log[d, c]}];",
				"v = Union[Flatten[u ]]"
			],
			"xref": [
				"Cf. A192110, A192120."
			],
			"keyword": "nonn,easy,fini",
			"offset": "1,2",
			"author": "_Clark Kimberling_, Jun 23 2011",
			"references": 4,
			"revision": 14,
			"time": "2021-11-16T13:34:01-05:00",
			"created": "2011-06-23T20:42:11-04:00"
		}
	]
}