{
	"greeting": "Greetings from The On-Line Encyclopedia of Integer Sequences! http://oeis.org/",
	"query": "id:A192983",
	"count": 1,
	"start": 0,
	"results": [
		{
			"number": 192983,
			"data": "1,4,24,264,5640,151200,5722920,282868992,18371308032,1504791561600,148978034686800,18007146260231040,2528615024682544512,426310052282058252672,81830910530970671616000,18305445786667543107072000,4570435510076312321728158720",
			"name": "a(n) is the number of pairs (g, h) of elements of the symmetric group S_n such that g and h have conjugates that commute.",
			"comment": [
				"a(n) / n!^2 is the probability that two permutation in S_n, chosen independently and uniformly at random, have conjugates that commute.",
				"Apparently n | a(n), and, for  n\u003e1,  n*(n-1) | a(n). - Alexander R. Povolotsky, Sep 30 2011"
			],
			"link": [
				"Simon R. Blackburn, John R. Britnell, and Mark Wildon, \u003ca href=\"http://arxiv.org/abs/1108.1784\"\u003eThe probability that a pair of elements of a finite group are conjugate\u003c/a\u003e, arXiv:1108.1784, 2011",
				"J. R. Britnell and M. Wildon, \u003ca href=\"http://dx.doi.org/10.1515/JGT.2009.013\"\u003eCommuting elements in conjugacy classes: an application of Hall's Marriage Theorem to group theory\u003c/a\u003e, J. Group Theory, 12 (2009), 795-802.",
				"Mark Wildon, \u003ca href=\"http://www.ma.rhul.ac.uk/~uvah099/other.html#ConjugacyProbability\"\u003eHaskell source code\u003c/a\u003e for computing values of the sequence."
			],
			"example": [
				"For n = 3 the probability that two elements of S_3 have conjugates that commute is a(3)/3!^2 = 2/3. Proof: only the transpositions and three cycles fail to have conjugates that commute; the probability of choosing one permutation from each of these classes is 2*1/2*1/3 = 1/3."
			],
			"program": [
				"(Haskell) See links for code."
			],
			"xref": [
				"Cf. A087132 (the sum of squares of the sizes of the conjugacy classes of S_n)."
			],
			"keyword": "nonn",
			"offset": "1,2",
			"author": "_Mark Wildon_, Aug 03 2011",
			"references": 1,
			"revision": 41,
			"time": "2015-04-21T12:42:43-04:00",
			"created": "2011-08-05T12:11:38-04:00"
		}
	]
}