{
	"greeting": "Greetings from The On-Line Encyclopedia of Integer Sequences! http://oeis.org/",
	"query": "id:A192076",
	"count": 1,
	"start": 0,
	"results": [
		{
			"number": 192076,
			"data": "0,0,0,0,400,8064,112824,1382400,15998985,180558848",
			"name": "Number of fixed proper tree 4-dimensional polycubes.",
			"reference": [
				"Gadi Aleksandrowicz and Gill Barequet, Parallel Enumeration of Lattice Animals, in Frontiers in Algorithmics and Algorithmic Aspects in Information and Management, Lecture Notes in Computer Science, 2011, Volume 6681/2011, 90-99, DOI: 10.1007/978-3-642-21204-8_13."
			],
			"keyword": "nonn",
			"offset": "1,5",
			"author": "_N. J. A. Sloane_, Jun 23 2011",
			"references": 0,
			"revision": 5,
			"time": "2012-03-30T16:52:02-04:00",
			"created": "2011-06-23T00:08:47-04:00"
		}
	]
}