{
	"greeting": "Greetings from The On-Line Encyclopedia of Integer Sequences! http://oeis.org/",
	"query": "id:A193535",
	"count": 1,
	"start": 0,
	"results": [
		{
			"number": 193535,
			"data": "2,3,1,0,4,9,0,6,0,1,8,6,6,4,8,4,3,6,4,7,2,4,1,0,7,0,7,1,5,2,7,2,5,5,2,2,6,9,1,8,3,3,3,7,8,1,2,0,0,8,5,0,8,4,7,0,6,8,9,3,3,3,6,4,9,7,7,9,7,8,7,3,9,8,9,8,9,8,2,3,8,5,3,5,2,8,7,7,7,5,6,6,5,4,7,2,8",
			"name": "Decimal expansion of log(2)/3.",
			"comment": [
				"This number is involved as an addend or subtrahend in the closed forms of certain series of reciprocals of integers (see for example A113476)."
			],
			"reference": [
				"L. B. W. Jolley, Summation of Series, Dover (1961).",
				"Murray R. Spiegel, Seymour Lipschutz, John Liu. Mathematical Handbook of Formulas and Tables, 3rd Ed. Schaum's Outline Series. New York: McGraw-Hill (2009): p. 135, equations 21.16 and 21.18."
			],
			"link": [
				"\u003ca href=\"/index/Tra#transcendental\"\u003eIndex entries for transcendental numbers\u003c/a\u003e"
			],
			"formula": [
				"Equals lim_{n-\u003einfinity} [Sum_{i = 1..n} i^2/(n^3 + i^3)]. - [Jolley eq 292, p.52]",
				"Equals Sum_{n\u003e=1} (-1)^(n-1)/(n*2^n*binomial(2*n, n)). - _Arkadiusz Wesolowski_, Jan 20 2013",
				"From _Amiram Eldar_, Aug 05 2020: (Start)",
				"Equals Integral_{x=1..oo} 1/(x^4 + x) dx.",
				"Equals Integral_{x=0..oo} 1/(exp(2*x) + 3) dx. (End)"
			],
			"example": [
				"0.231049060186648..."
			],
			"mathematica": [
				"RealDigits[(Log[2]/3), 10, 100][[1]]"
			],
			"program": [
				"(PARI) log(2)/3 \\\\ _Charles R Greathouse IV_, Jul 29 2011"
			],
			"xref": [
				"Cf. A113476."
			],
			"keyword": "nonn,cons",
			"offset": "0,1",
			"author": "_Alonso del Arte_, Jul 29 2011",
			"references": 2,
			"revision": 24,
			"time": "2020-08-05T08:20:52-04:00",
			"created": "2011-07-29T22:15:57-04:00"
		}
	]
}