{
	"greeting": "Greetings from The On-Line Encyclopedia of Integer Sequences! http://oeis.org/",
	"query": "id:A193355",
	"count": 1,
	"start": 0,
	"results": [
		{
			"number": 193355,
			"data": "6,5,0,6,4,5,1,4,2,2,8,4,2,8,6,5,0,4,2,7,6,6,1,8,8,0,3,3,9,0,5,9,5,4,0,7,2,0,8,7,2,6,1,4,5,0,0,0,2,9,2,2,0,1,0,5,5,2,2,5,5,0,7,3,2,4,3,0,9,1,9,3,4,0,6,6,3,2,4,5,5,9,7,3,6,4,6,0,5,4,7,1,1,3,2,4,0,8,4",
			"name": "Decimal expansion of Pi/(2 + 2*sqrt(2)).",
			"comment": [
				"This is the first of the three angles (in radians) of a unique triangle that is right angled and where the angles are in a harmonic progression: Pi/(2+2*sqrt(2)) (this sequence), Pi/(2+sqrt(2)) (A193373), Pi/2 (A019669). The angles (in degrees) are approximately 37.279, 52.721, 90. The common difference between the denominators of the harmonic progression is sqrt(2)."
			],
			"link": [
				"G. C. Greubel, \u003ca href=\"/A193355/b193355.txt\"\u003eTable of n, a(n) for n = 0..10000\u003c/a\u003e"
			],
			"formula": [
				"Equals Pi/(2+2*sqrt(2)).",
				"Equals Integral_{x=0..Pi/2} cos(x)^2/(1 + sin(x)^2) dx = Integral_{x=0..Pi/2} sin(x)^2/(1 + cos(x)^2) dx. - _Amiram Eldar_, Aug 16 2020"
			],
			"example": [
				"0.6506451422..."
			],
			"maple": [
				"evalf(Pi/(2+2*sqrt(2)),120); # _Muniru A Asiru_, Sep 30 2018"
			],
			"mathematica": [
				"N[Pi/(2 + 2*Sqrt[2]), 100]",
				"Realdigits[Pi/(2 + 2*Sqrt[2]), 10, 100][[1]] (* _G. C. Greubel_, Sep 29 2018 *)"
			],
			"program": [
				"(PARI) default(realprecision,100); Pi/(2+2*sqrt(2))",
				"(MAGMA) SetDefaultRealField(RealField(100)); R:= RealField(); Pi(R)/(2 + 2*Sqrt(2)); // _G. C. Greubel_, Sep 29 2018"
			],
			"keyword": "easy,nonn,cons",
			"offset": "0,1",
			"author": "_Frank M Jackson_, Jul 24 2011",
			"references": 2,
			"revision": 27,
			"time": "2020-08-16T11:33:36-04:00",
			"created": "2011-07-24T18:53:43-04:00"
		}
	]
}