{
	"greeting": "Greetings from The On-Line Encyclopedia of Integer Sequences! http://oeis.org/",
	"query": "id:A193125",
	"count": 1,
	"start": 0,
	"results": [
		{
			"number": 193125,
			"data": "0,0,0,2,12,87,815,11086,261042",
			"name": "Number of molecular topological index-nonunique connected simple graphs on n nodes.",
			"link": [
				"Eric Weisstein's World of Mathematics, \u003ca href=\"http://mathworld.wolfram.com/MolecularTopologicalIndex.html\"\u003eMolecular Topological Index\u003c/a\u003e"
			],
			"example": [
				"The paw graph and square graph C_4 both have MTI = 48, while all other 4-node connected simple graphs have unique MTI values, so a(4) = 2."
			],
			"keyword": "nonn,hard,more",
			"offset": "1,4",
			"author": "_Eric W. Weisstein_, Jul 16 2011",
			"references": 0,
			"revision": 6,
			"time": "2012-03-30T17:35:12-04:00",
			"created": "2011-07-16T10:34:07-04:00"
		}
	]
}