{
	"greeting": "Greetings from The On-Line Encyclopedia of Integer Sequences! http://oeis.org/",
	"query": "id:A193478",
	"count": 1,
	"start": 0,
	"results": [
		{
			"number": 193478,
			"data": "1,1,5,95,9959,6270119,28519938719,1045680030158399,349874346597600908159,1178635679994967168072291199,44013684086180240167822552866892799,19826711369458419136710617483545735797772799,116690731684609551482643899854886684445978037938815999",
			"name": " G.f. A(x) satisfies: 1/(1-x) = Sum_{n\u003e=0} A(x)^n/G(n), where A(x) = Sum_{n\u003e=1} a(n)*x^n/G(n), and G(n) = Product_{k=0..n} k! is the Barnes G-function (A000178).",
			"link": [
				" Eric Weisstein's World of Mathematics, \u003ca href=\"http://mathworld.wolfram.com/BarnesG-Function.html\"\u003eBarnes G-Function\u003c/a\u003e."
			],
			"example": [
				" A(x) = x + x^2/(1!*2!) + 5*x^3/(1!*2!*3!) + 95*x^4/(1!*2!*3!*4!) + 9959*x^5/(1!*2!*3!*4!*5!) + 6270119*x^6/(1!*2!*3!*4!*5!*6!) +...+ a(n)*x^n/G(n) +...",
				"where",
				"1/(1-x) = 1 + A(x) + A(x)^2/(1!*2!) + A(x)^3/(1!*2!*3!) + A(x)^4/(1!*2!*3!*4!) + A(x)^5/(1!*2!*3!*4!*5!) + A(x)^6/(1!*2!*3!*4!*5!*6!) +...+  A(x)^n/G(n) +...",
				"and G(n) = 0!*1!*2!*3!*...*(n-1)!*n!."
			],
			"program": [
				" (PARI) {a(n)=local(A=sum(m=1,n-1,a(m)*x^m/prod(k=0,m,k!))+O(x^(n+2)));",
				"prod(k=0,n,k!)*polcoeff(1/(1-x)-sum(m=0,n,A^m/prod(k=0,m,k!)),n)}"
			],
			"xref": [
				" Cf. A193479, A193440."
			],
			"keyword": "nonn",
			"offset": "1,3",
			"author": "_Paul D. Hanna_, Jul 27 2011",
			"references": 1,
			"revision": 6,
			"time": "2012-03-30T18:37:28-04:00",
			"created": "2011-07-28T02:00:46-04:00"
		}
	]
}