{
	"greeting": "Greetings from The On-Line Encyclopedia of Integer Sequences! http://oeis.org/",
	"query": "id:A193812",
	"count": 1,
	"start": 0,
	"results": [
		{
			"number": 193812,
			"data": "8,307,28645,7557081,6251248141,18554336578573,227380925067925105",
			"name": "Number of n X n symmetric 0..7 arrays with no element equal to the difference mod 8 of any two of its horizontal and vertical neighbors",
			"example": [
				"Some solutions for 4X4",
				"..4..4..2..7....4..6..4..0....4..6..0..7....4..6..4..4....4..4..2..7",
				"..4..4..7..7....6..4..6..5....6..4..0..6....6..4..7..7....4..4..4..4",
				"..2..7..2..4....4..6..5..7....0..0..7..4....4..7..7..4....2..4..7..6",
				"..7..7..4..7....0..5..7..3....7..6..4..7....4..7..4..2....7..4..6..3"
			],
			"keyword": "nonn",
			"offset": "1,1",
			"author": "_R. H. Hardin_ Aug 05 2011",
			"references": 0,
			"revision": 5,
			"time": "2015-12-18T18:17:43-05:00",
			"created": "2011-08-05T18:47:34-04:00"
		}
	]
}