{
	"greeting": "Greetings from The On-Line Encyclopedia of Integer Sequences! http://oeis.org/",
	"query": "id:A193526",
	"count": 1,
	"start": 0,
	"results": [
		{
			"number": 193526,
			"data": "0,2,0,2,0,0,0,2,0,0,0,0,0,0,14,2,0,0,0,0,12,0,0,0,0,0,0,0,0,12,0,2,16,0,24,0,0,0,30,0,0,24,0,0,14,0,0,0,0,0,36,0,0,0,30,0,24,0,0,12,0,0,12,2,26,30,0,0,28,16,0,0,0,0,14,0,26,26,0,0",
			"name": "Sum of even divisors of sopf(n).",
			"comment": [
				"Sopf(n) is the sum of the distinct primes dividing n (A008472)."
			],
			"link": [
				"Antti Karttunen, \u003ca href=\"/A193526/b193526.txt\"\u003eTable of n, a(n) for n = 1..20000\u003c/a\u003e"
			],
			"formula": [
				"a(1) = 0; for n \u003e 1, a(n) = A146076(A008472(n))). - _Antti Karttunen_, Dec 23 2018"
			],
			"mathematica": [
				"Table[Total[Select[Divisors[Plus @@ First[Transpose[FactorInteger[n]]]], EvenQ[#] \u0026]], {n, 100}]"
			],
			"program": [
				"(PARI)",
				"A008472(n) = vecsum(factor(n)[, 1]); \\\\ From A008472",
				"A146076(n) = if (n%2, 0, 2*sigma(n/2)); \\\\ From A146076",
				"A193526(n) = if(1==n,0,A146076(A008472(n))); \\\\ _Antti Karttunen_, Dec 23 2018"
			],
			"xref": [
				"Cf. A008472, A146076, A193525."
			],
			"keyword": "nonn",
			"offset": "1,2",
			"author": "_Michel Lagneau_, Jul 29 2011",
			"references": 1,
			"revision": 10,
			"time": "2018-12-23T16:13:20-05:00",
			"created": "2011-07-29T21:08:45-04:00"
		}
	]
}