{
	"greeting": "Greetings from The On-Line Encyclopedia of Integer Sequences! http://oeis.org/",
	"query": "id:A193531",
	"count": 1,
	"start": 0,
	"results": [
		{
			"number": 193531,
			"data": "2,0,0,2,0,0,0,0,0,0,6,0,0,0,0,2,0,0,2,4,0,0,0,0,2,0,0,0,4,0,4,0,0,0,0,0,0,0,0,0,0,0,0,0,2,0,0,0,0,0,0,0,0,0,0,0,0,0,4,0,0,0,0,2,0,0,0,0,0,0,2,0,0,0,0,0,0,0,4,0,2,0,0,0,0,0",
			"name": "Number of integer solutions to the quartic elliptic curve y^2 = 5*x^4 - 4*n.",
			"comment": [
				"The quintic x^5+n*x+m is reducible into cubic and quadratic factors if and only a(n) != 0."
			],
			"example": [
				"We have following parametrization: (X^3 - d*X^2 + (d^2 - e)*X + (2*d*e - d^3))*(X^2 + d*X + e) =  -d^3*e + 2*d*e^2 + (-d^4 + 3*d^2*e - e^2)*X + X^5.",
				"Solving the equation (-d^4 + 3*d^2*e - e^2) = n for e we have e=(3*d^2 +/-sqrt(5*d^4 - 4*n))/2. So 5*d^4 - 4*n must be a perfect square (then y^2=5*x^4-4*n has at least one integer solution)."
			],
			"program": [
				"(MAGMA) [IntegralQuarticPoints([5,0,0,0,-4*n]) : n in [1..55]];"
			],
			"xref": [
				"Cf. A193524, A193528."
			],
			"keyword": "nonn",
			"offset": "1,1",
			"author": "_Artur Jasinski_, Jul 29 2011",
			"references": 5,
			"revision": 18,
			"time": "2014-05-05T12:55:22-04:00",
			"created": "2011-10-07T17:56:46-04:00"
		}
	]
}