{
	"greeting": "Greetings from The On-Line Encyclopedia of Integer Sequences! http://oeis.org/",
	"query": "id:A193274",
	"count": 1,
	"start": 0,
	"results": [
		{
			"number": 193274,
			"data": "0,0,1,10,105,1326,20503,384126,8567730,223587231,6725042325,230228283165,8877197732406,382107434701266,18221275474580181,956287167902779240,54916689705422813731,3433293323775503064306,232614384749689991763561,17010440815323680947084096",
			"name": "a(n) = binomial(Bell(n), 2) where B(n) = Bell numbers A000110(n).",
			"link": [
				"Alois P. Heinz, \u003ca href=\"/A193274/b193274.txt\"\u003eTable of n, a(n) for n = 0..300\u003c/a\u003e",
				"Frank Ruskey and Jennifer Woodcock, \u003ca href=\"http://dx.doi.org/10.1007/978-3-642-25011-8_23\"\u003eThe Rand and block distances of pairs of set partitions\u003c/a\u003e, in International Workshop on Combinatorial Algorithms, Victoria, 2011. LNCS.",
				"Frank Ruskey, Jennifer Woodcock and Yuji Yamauchi, \u003ca href=\"http://dx.doi.org/10.1016/j.jda.2012.04.003\"\u003eCounting and computing the Rand and block distances of pairs of set partitions\u003c/a\u003e, Journal of Discrete Algorithms, Volume 16, October 2012, Pages 236-248. - From _N. J. A. Sloane_, Oct 03 2012"
			],
			"maple": [
				"a:= n-\u003e binomial(combinat[bell](n), 2):",
				"seq(a(n), n=0..20);  # _Alois P. Heinz_, Aug 28 2011"
			],
			"mathematica": [
				"a[n_] := With[{b = BellB[n]}, b*(b-1)/2]; Table[a[n], {n, 0, 19}] (* _Jean-François Alcover_, Mar 18 2014 *)"
			],
			"program": [
				"(MAGMA) [Binomial(Bell(n),2): n in [0..20]]; // _Vincenzo Librandi_, Feb 17 2018"
			],
			"xref": [
				"Row sums of A193297."
			],
			"keyword": "nonn",
			"offset": "0,4",
			"author": "_N. J. A. Sloane_, Aug 26 2011",
			"references": 3,
			"revision": 40,
			"time": "2018-02-26T09:17:41-05:00",
			"created": "2011-08-26T15:49:02-04:00"
		}
	]
}