{
	"greeting": "Greetings from The On-Line Encyclopedia of Integer Sequences! http://oeis.org/",
	"query": "id:A193694",
	"count": 1,
	"start": 0,
	"results": [
		{
			"number": 193694,
			"data": "0,0,0,0,0,1,1,0,0,0,4,3,4,6,4,5,4,2,2,6,2,0,0,0,13,9,16,24,9,17,13,16,21,21,20,21,24,13,20,17,19,23,16,19,16,13,14,20,13,10,11,24,23,21,14,12,21,10,4,3,24,11,3,0,0,0,41,27,53,80,24,54,40,59,80,66,75,86,99,27",
			"name": "Triangle T(n,k), n\u003e=0, 1\u003c=k\u003c=C(n), read by rows: T(n,k) = number of elements incomparable to the k-th path in the poset of Dyck paths of semilength n ordered by inclusion.",
			"link": [
				"Alois P. Heinz, \u003ca href=\"/A193694/b193694.txt\"\u003eRows n = 0..9, flattened\u003c/a\u003e"
			],
			"example": [
				"Dyck paths of semilength n=3 listed in lexicographic order:",
				".                                               /\\",
				".                  /\\      /\\        /\\/\\      /  \\",
				".     /\\/\\/\\    /\\/  \\    /  \\/\\    /    \\    /    \\",
				".     101010    101100    110010    110100    111000",
				". k = (1)       (2)       (3)       (4)       (5)",
				".",
				"Only paths (2) and (3) are incomparable, thus row 3 = [0, 1, 1, 0, 0].",
				"Triangle begins:",
				"0;",
				"0;",
				"0,  0;",
				"0,  1, 1,  0,  0;",
				"0,  4, 3,  4,  6, 4,  5,  4,  2,  2,  6,  2,  0,  0;",
				"0, 13, 9, 16, 24, 9, 17, 13, 16, 21, 21, 20, 21, 24, 13, 20, 17, 19, ..."
			],
			"maple": [
				"d:= proc(n, l) local m; m:= nops(l);",
				"      `if`(n=m, [l], [seq(d(n, [l[], j])[],",
				"                     j=`if`(m=0, 1, max(m+1, l[-1]))..n)])",
				"    end:",
				"le:= proc(x, y) local i;",
				"       for i to nops(x) do if x[i]\u003ey[i] then return false fi od; true",
				"     end:",
				"T:= proc(n) option remember; local l;",
				"      l:= d(n, []);",
				"      seq(add(`if`(le(l[i], l[j]) or le(l[j], l[i]), 0, 1),",
				"            i=1..nops(l)), j=1..nops(l))",
				"    end:",
				"seq(T(n), n=0..6);"
			],
			"xref": [
				"Row lengths give A000108.",
				"Cf. A193691, A193692, A193693."
			],
			"keyword": "nonn,look,tabf",
			"offset": "0,11",
			"author": "_Alois P. Heinz_, Aug 02 2011",
			"references": 4,
			"revision": 14,
			"time": "2015-02-26T16:14:39-05:00",
			"created": "2011-08-03T03:56:54-04:00"
		}
	]
}