{
	"greeting": "Greetings from The On-Line Encyclopedia of Integer Sequences! http://oeis.org/",
	"query": "id:A193333",
	"count": 1,
	"start": 0,
	"results": [
		{
			"number": 193333,
			"data": "1,3,21,244,4056,88770,2426553,79893084,3085719033,137035475333,6888543200172,387050951446488,24058512516152880,1640162160152393778,121746052707050425113,9778208522585460239036,845181303653928350311539,78247854362736258482850285",
			"name": "G.f.: 1 = Sum_{n\u003e=0} a(n)*x^n / Product_{k=1..n+1} (1+k*x)^3.",
			"comment": [
				"Compare to the g.f. for factorials: 1 = Sum_{n\u003e=0} n!*x^n/Product_{k=1..n+1} (1+k*x)."
			],
			"example": [
				"1 = 1/(1+x)^3 + 3*x/((1+x)^3*(1+2*x)^3) + 21*x^2/((1+x)^3*(1+2*x)^3*(1+3*x)^3) + 244*x^3/((1+x)^3*(1+2*x)^3*(1+3*x)^3*(1+4*x)^3) +..."
			],
			"program": [
				"(PARI) {a(n)=if(n==0, 1, polcoeff(1-sum(k=0, n-1, a(k)*x^k/prod(j=1, k+1, 1+j*x+x*O(x^n))^3), n))}"
			],
			"xref": [
				"Cf. A118804, A215529."
			],
			"keyword": "nonn",
			"offset": "0,2",
			"author": "_Paul D. Hanna_, Jul 23 2011",
			"references": 3,
			"revision": 10,
			"time": "2012-08-15T00:37:45-04:00",
			"created": "2011-07-23T03:11:31-04:00"
		}
	]
}