{
	"greeting": "Greetings from The On-Line Encyclopedia of Integer Sequences! http://oeis.org/",
	"query": "id:A193430",
	"count": 1,
	"start": 0,
	"results": [
		{
			"number": 193430,
			"data": "23,6911,5944066965503999",
			"name": "Primes p such that p+1 is in A055462.",
			"comment": [
				"Prime numbers that are one less than the product of first n superfactorials.",
				"The next term, if it exists, has more than 75,000 digits.",
				"Subsequence of A238265."
			],
			"formula": [
				"a(n) are the prime values of 1! * (1! * 2!) * (1! * 2! * 3!) * (1! * 2! * 3! * ... * n!) - 1"
			],
			"example": [
				"23 is a term because 23 = 1! * (1! * 2!) * (1! * 2! * 3!) - 1."
			],
			"program": [
				"(PARI) t=1;k=1;for(n=2,100,t*=n!;k*=t;if(ispseudoprime(k-1),print1(k-1\", \"))) \\\\ _Charles R Greathouse IV_, Jul 28 2011"
			],
			"xref": [
				"Cf. A005462, A000040."
			],
			"keyword": "nonn,bref,hard",
			"offset": "1,1",
			"author": "_Kausthub Gudipati_, Jul 28 2011",
			"references": 1,
			"revision": 28,
			"time": "2014-03-02T02:55:53-05:00",
			"created": "2011-07-28T14:16:35-04:00"
		}
	]
}