{
	"greeting": "Greetings from The On-Line Encyclopedia of Integer Sequences! http://oeis.org/",
	"query": "id:A193806",
	"count": 1,
	"start": 0,
	"results": [
		{
			"number": 193806,
			"data": "1,5,350,157814,2992166,68999566966858",
			"name": "Numbers k such that Fibonacci(k) in base 3 ends with k in base 3.",
			"comment": [
				"No more terms \u003c 9*10^18. - _Lars Blomberg_, Jan 04 2019"
			],
			"example": [
				"350 = (1,1,0,2,2,2) in base 3;",
				"F(350) = (1,2,1,2,2,0,...1,1,0,2,2,2) in base 3."
			],
			"mathematica": [
				"fibo[n_,b_]:={au=Fibonacci[n],ab=Floor[Log[b,n]]+1,Mod[au,b^ab]==n}//Last;Select[Range[500000],fibo[#,3]\u0026]"
			],
			"xref": [
				"Cf. A000045 (Fibonacci), A007089 (numbers in base 3)."
			],
			"keyword": "nonn,more",
			"offset": "1,2",
			"author": "_José María Grau Ribas_, Aug 05 2011",
			"ext": [
				"a(5) from _Alois P. Heinz_, Aug 05 2011",
				"a(6) from _Lars Blomberg_, Jan 04 2019"
			],
			"references": 1,
			"revision": 20,
			"time": "2019-01-04T13:58:06-05:00",
			"created": "2011-08-06T14:28:21-04:00"
		}
	]
}