{
	"greeting": "Greetings from The On-Line Encyclopedia of Integer Sequences! http://oeis.org/",
	"query": "id:A193277",
	"count": 1,
	"start": 0,
	"results": [
		{
			"number": 193277,
			"data": "1,-3,2,0,1,-9,32,-56,48,-16,0,1,-27,339,-2625,14016,-54647,160663,-362460,631828,-848736,866640,-653248,343744,-112896,17408,0,1,-81,3204,-82476,1553454,-22823259,272286183,-2711405961,22990179324",
			"name": "Triangle T(n,k), n\u003e=1, 0\u003c=k\u003c=(3+3^n)/2, read by rows: row n gives the coefficients of the chromatic polynomial of the Sierpinski graph S_n, highest powers first.",
			"comment": [
				"The Sierpinski graph S_n has (3+3^n)/2 vertices and 3^n edges. The chromatic polynomial of S_n has (3+3^n)/2+1 coefficients."
			],
			"link": [
				"Alois P. Heinz, \u003ca href=\"/A193277/b193277.txt\"\u003eRows n = 1..7, flattened\u003c/a\u003e",
				"Eric Weisstein's World of Mathematics, \u003ca href=\"http://mathworld.wolfram.com/SierpinskiGraph.html\"\u003eSierpinski Graph\u003c/a\u003e",
				"Eric Weisstein's World of Mathematics, \u003ca href=\"http://mathworld.wolfram.com/ChromaticPolynomial.html\"\u003eChromatic Polynomial\u003c/a\u003e",
				"Wikipedia, \u003ca href=\"https://en.wikipedia.org/wiki/Chromatic_polynomial\"\u003eChromatic Polynomial\u003c/a\u003e"
			],
			"example": [
				"3 example graphs:                        o",
				".                                       / \\",
				".                                      o---o",
				".                                     / \\ / \\",
				".                       o            o---o---o",
				".                      / \\          / \\     / \\",
				".            o        o---o        o---o   o---o",
				".           / \\      / \\ / \\      / \\ / \\ / \\ / \\",
				".          o---o    o---o---o    o---o---o---o---o",
				"Graph:      S_1        S_2              S_3",
				"Vertices:    3          6                15",
				"Edges:       3          9                27",
				"The Sierpinski graph S_1 is equal to the cycle graph C_3 with chromatic polynomial q^3 -3*q^2 +2*q =\u003e [1, -3, 2, 0].",
				"Triangle T(n,k) begins:",
				"1,    -3,       2,           0;",
				"1,    -9,      32,         -56,           48,              -16,  ...",
				"1,   -27,     339,       -2625,        14016,           -54647,  ...",
				"1,   -81,    3204,      -82476,      1553454,        -22823259,  ...",
				"1,  -243,   29295,    -2336013,    138604878,      -6526886841,  ...",
				"1,  -729,  265032,   -64069056,  11585834028,   -1671710903793,  ...",
				"1, -2187, 2389419, -1738877625, 948268049436, -413339609377179,  ..."
			],
			"xref": [
				"Cf. A000244, A067771, A185442, A193233."
			],
			"keyword": "sign,tabf,look,hard",
			"offset": "1,2",
			"author": "_Alois P. Heinz_, Jul 20 2011",
			"references": 4,
			"revision": 16,
			"time": "2017-02-08T19:46:11-05:00",
			"created": "2011-07-20T14:54:29-04:00"
		}
	]
}