{
	"greeting": "Greetings from The On-Line Encyclopedia of Integer Sequences! http://oeis.org/",
	"query": "id:A193012",
	"count": 1,
	"start": 0,
	"results": [
		{
			"number": 193012,
			"data": "7,0,5,8,4,5,4,7,0,4,5,7,2,3,4,3,9,3,7,3,7,8,0,8,7,5,3,5,0,2,0,3,9,3,8,7,5,3,0,4,3,1,8,8,8,8,8,7,3,4,5,0,0,1,8,4,7,1,7,3,7,3,9,7,9,6,7,2,0,9,7,7,0,0,2,2,9,0,3,5,1,3,1,6,4,6,9,6,1,8,8,3,1,6,8,5,4,1,3,3",
			"name": "Decimal expansion of the coefficient of x in the reduction of sin(x) by x^2-\u003ex+1.",
			"comment": [
				"Reduction of a function f(x) by a substitution q(x)-\u003es(x) is introduced at A193010."
			],
			"example": [
				"0.705845470457234393737808753502039387530431888887345001..."
			],
			"mathematica": [
				"f[x_] := Sin[x]; r[n_] := Fibonacci[n];",
				"c[n_] := SeriesCoefficient[Series[f[x], {x, 0, n}], n]",
				"u0 = N[Sum[c[n]*r[n - 1], {n, 0, 200}], 100]",
				"RealDigits[u0, 10]  (* A193011 *)",
				"u1 = N[Sum[c[n]*r[n], {n, 0, 200}], 100]",
				"RealDigits[u1, 10]  (* A193012 *)"
			],
			"xref": [
				"Cf. A193010, A192232, A193011."
			],
			"keyword": "nonn,cons",
			"offset": "0,1",
			"author": "_Clark Kimberling_, Jul 14 2011",
			"references": 3,
			"revision": 9,
			"time": "2012-03-30T18:57:37-04:00",
			"created": "2011-07-14T19:48:05-04:00"
		}
	]
}