{
	"greeting": "Greetings from The On-Line Encyclopedia of Integer Sequences! http://oeis.org/",
	"query": "id:A194445",
	"count": 1,
	"start": 0,
	"results": [
		{
			"number": 194445,
			"data": "0,1,2,4,4,4,8,11,8,4,8,16,24,12,20,25,16,4,8,16,24,28,36,42,44,20,24,40,64,32,44,53,32,4,8,16,24,28,36,44,52,42,48,60,100,68,84,83,84,28,24,44,72,84,104,116,132,54,56,92,144,72,92,109,64,4",
			"name": "Number of toothpicks or D-toothpicks added at n-th stage to the structure of A194444.",
			"comment": [
				"Essentially the first differences of A194444.",
				"First differs from A220525 at a(13). - _Omar E. Pol_, Mar 23 2013"
			],
			"link": [
				"N. J. A. Sloane, \u003ca href=\"/wiki/Catalog_of_Toothpick_and_CA_Sequences_in_OEIS\"\u003eCatalog of Toothpick and Cellular Automata Sequences in the OEIS\u003c/a\u003e",
				"\u003ca href=\"/index/To#toothpick\"\u003eIndex entries for sequences related to toothpick sequences\u003c/a\u003e"
			],
			"formula": [
				"It appears that a(2^k+1) = 4, if k \u003e= 1.",
				"a(n) = A194435(n)/4. - _Omar E. Pol_, Mar 23 2013"
			],
			"example": [
				"Contribution from _Omar E. Pol_, Dec 05 2012 (Start):",
				"Triangle begins:",
				"0;",
				"1;",
				"2;",
				"4,4;",
				"4,8,11,8;",
				"4,8,16,24,12,20,25,16;",
				"4,8,16,24,28,36,42,44,20,24,40,64,32,44,53,32;",
				"(End)"
			],
			"xref": [
				"Row lengths give 1 together with A011782. Right border gives 0 together with A000079.",
				"Cf. A139250, A139251, A172311, A182635, A182839, A194271, A194433, A194435, A194441, A194443, A194444, A212009."
			],
			"keyword": "nonn,tabf",
			"offset": "0,3",
			"author": "_Omar E. Pol_, Aug 24 2011",
			"ext": [
				"More terms from _Omar E. Pol_, Mar 23 2013"
			],
			"references": 9,
			"revision": 32,
			"time": "2013-03-24T13:47:30-04:00",
			"created": "2011-08-24T15:00:58-04:00"
		}
	]
}