{
	"greeting": "Greetings from The On-Line Encyclopedia of Integer Sequences! http://oeis.org/",
	"query": "id:A194859",
	"count": 1,
	"start": 0,
	"results": [
		{
			"number": 194859,
			"data": "1,2,1,3,2,1,3,2,1,4,3,2,5,1,4,3,6,2,5,1,4,7,3,6,2,5,1,4,7,3,6,2,5,1,8,4,7,3,6,2,9,5,1,8,4,7,3,10,6,2,9,5,1,8,4,7,3,10,6,2,9,5,1,8,4,11,7,3,10,6,2,9,5,12,1,8,4,11,7,3,10,6,13,2,9,5,12,1,8,4,11,7,14,3",
			"name": "Triangular array (and fractal sequence):  row n is the permutation of (1,2,...,n) obtained from the increasing ordering of fractional parts {e}, {2e}, ..., {ne}.",
			"comment": [
				"See A194832 for a general discussion."
			],
			"example": [
				"First nine rows:",
				"1",
				"2 1",
				"3 2 1",
				"3 2 1 4",
				"3 2 5 1 4",
				"3 6 2 5 1 4",
				"7 3 6 2 5 1 4",
				"7 3 6 2 5 1 8 4",
				"7 3 6 2 9 5 1 8 4"
			],
			"mathematica": [
				"r = E;",
				"t[n_] := Table[FractionalPart[k*r], {k, 1, n}];",
				"f = Flatten[Table[Flatten[(Position[t[n], #1] \u0026) /@",
				"Sort[t[n], Less]], {n, 1, 20}]]  (* A194859 *)",
				"TableForm[Table[Flatten[(Position[t[n], #1] \u0026) /@",
				"Sort[t[n], Less]], {n, 1, 15}]]",
				"row[n_] := Position[f, n];",
				"u = TableForm[Table[row[n], {n, 1, 20}]]",
				"g[n_, k_] := Part[row[n], k];",
				"p = Flatten[Table[g[k, n - k + 1], {n, 1, 13},",
				"{k, 1, n}]]  (* A194860 *)",
				"q[n_] := Position[p, n]; Flatten[Table[q[n],",
				"{n, 1, 80}]]  (* A194861 *)"
			],
			"xref": [
				"Cf. A194832, A194860, A194861."
			],
			"keyword": "nonn,tabl",
			"offset": "1,2",
			"author": "_Clark Kimberling_, Sep 04 2011",
			"references": 4,
			"revision": 5,
			"time": "2012-03-30T18:57:44-04:00",
			"created": "2011-09-04T18:06:28-04:00"
		}
	]
}