{
	"greeting": "Greetings from The On-Line Encyclopedia of Integer Sequences! http://oeis.org/",
	"query": "id:A194329",
	"count": 1,
	"start": 0,
	"results": [
		{
			"number": 194329,
			"data": "1,1,1,1,1,1,1,1,1,1,1,2,1,0,1,1,1,1,2,1,0,1,1,1,1,1,1,1,1,1,2,0,2,0,1,1,1,1,1,2,1,1,0,2,0,1,1,1,1,1,1,2,0,2,0,1,1,1,1,1,1,1,1,1,1,1,1,1,1,1,2,0,1,1,1,1,1,1,1,1,1,1,1,1,2,1,1,0,1,1,1,0,1,1,2,1,1,1,1,1",
			"name": "Triangular array:  g(n,k)=number of fractional parts (i*r) in interval [(k-1)/n, k/n], for 1\u003c=i\u003c=n, 1\u003c=k\u003c=n, r=2-sqrt(3).",
			"comment": [
				"See A194285."
			],
			"example": [
				"First eleven rows:",
				"1",
				"1..1",
				"1..1..1",
				"1..1..1..1",
				"1..2..1..0..1",
				"1..1..1..2..1..0",
				"1..1..1..1..1..1..1",
				"1..1..2..0..2..0..1..1",
				"1..1..1..2..1..1..0..2..0",
				"1..1..1..1..1..1..2..0..2..0",
				"1..1..1..1..1..1..1..1..1..1..1"
			],
			"mathematica": [
				"r = 2-Sqrt[3];",
				"f[n_, k_, i_] := If[(k - 1)/n \u003c= FractionalPart[i*r] \u003c k/n, 1, 0]",
				"g[n_, k_] := Sum[f[n, k, i], {i, 1, n}]",
				"TableForm[Table[g[n, k], {n, 1, 14}, {k, 1, n}]]",
				"Flatten[%]    (* A194329 *)"
			],
			"xref": [
				"Cf. A194285."
			],
			"keyword": "nonn,tabl",
			"offset": "1,12",
			"author": "_Clark Kimberling_, Aug 22 2011",
			"references": 2,
			"revision": 5,
			"time": "2012-03-30T18:57:43-04:00",
			"created": "2011-08-22T16:19:39-04:00"
		}
	]
}