{
	"greeting": "Greetings from The On-Line Encyclopedia of Integer Sequences! http://oeis.org/",
	"query": "id:A194737",
	"count": 1,
	"start": 0,
	"results": [
		{
			"number": 194737,
			"data": "0,1,0,2,0,3,6,2,6,1,6,11,4,10,2,9,0,8,16,5,14,2,12,22,8,19,4,16,0,13,26,8,22,3,18,33,12,28,6,23,40,16,34,9,28,2,22,42,14,35,6,28,50,19,42,10,34,1,26,51,16,42,6,33,60,22,50,11,40,69,28,58,16,47,4,36",
			"name": "Number of k such that {-k*sqrt(2)} \u003e {-n*sqrt(2)}, where { } = fractional part.",
			"link": [
				"G. C. Greubel, \u003ca href=\"/A194737/b194737.txt\"\u003eTable of n, a(n) for n = 1..5000\u003c/a\u003e"
			],
			"mathematica": [
				"r = -Sqrt[2]; p[x_] := FractionalPart[x];",
				"u[n_, k_] := If[p[k*r] \u003c= p[n*r], 1, 0]",
				"v[n_, k_] := If[p[k*r] \u003e p[n*r], 1, 0]",
				"s[n_] := Sum[u[n, k], {k, 1, n}]",
				"t[n_] := Sum[v[n, k], {k, 1, n}]",
				"Table[s[n], {n, 1, 100}]   (* A194736 *)",
				"Table[t[n], {n, 1, 100}]   (* A194737 *)"
			],
			"xref": [
				"Cf. A194736, A194738."
			],
			"keyword": "nonn",
			"offset": "1,4",
			"author": "_Clark Kimberling_, Sep 02 2011",
			"references": 3,
			"revision": 9,
			"time": "2018-06-07T06:43:21-04:00",
			"created": "2011-09-02T17:46:45-04:00"
		}
	]
}