{
	"greeting": "Greetings from The On-Line Encyclopedia of Integer Sequences! http://oeis.org/",
	"query": "id:A194385",
	"count": 1,
	"start": 0,
	"results": [
		{
			"number": 194385,
			"data": "6,12,18,24,30,36,228,234,240,246,252,258,264,456,462,468,474,480,486,492,684,690,696,702,708,714,720",
			"name": "Numbers m such that Sum_{k=1..m} (\u003c1/2 + k*r\u003e - \u003ck*r\u003e) = 0, where r=sqrt(10) and \u003c \u003e denotes fractional part.",
			"comment": [
				"See A194368."
			],
			"mathematica": [
				"r = Sqrt[10]; c = 1/2;",
				"x[n_] := Sum[FractionalPart[k*r], {k, 1, n}]",
				"y[n_] := Sum[FractionalPart[c + k*r], {k, 1, n}]",
				"t1 = Table[If[y[n] \u003c x[n], 1, 0], {n, 1, 300}];",
				"Flatten[Position[t1, 1]]  (* empty *)",
				"t2 = Table[If[y[n] == x[n], 1, 0], {n, 1, 800}];",
				"Flatten[Position[t2, 1]]     (* A194385 *)",
				"t3 = Table[If[y[n] \u003e x[n], 1, 0], {n, 1, 100}];",
				"Flatten[Position[t3, 1]]     (* A194386 *)"
			],
			"xref": [
				"Cf. A010467, A194368, A194386."
			],
			"keyword": "nonn",
			"offset": "1,1",
			"author": "_Clark Kimberling_, Aug 23 2011",
			"references": 3,
			"revision": 10,
			"time": "2021-02-15T02:20:44-05:00",
			"created": "2011-08-23T15:46:26-04:00"
		}
	]
}