{
	"greeting": "Greetings from The On-Line Encyclopedia of Integer Sequences! http://oeis.org/",
	"query": "id:A194260",
	"count": 1,
	"start": 0,
	"results": [
		{
			"number": 194260,
			"data": "-1,-1,-1,-1,-1,-1,-2,-3,-4,-5,-6,-7,-7,-8,-9,-10,-11,-12,-13,-13,-14,-14,-14,-15,-15,-15,-15,-15,-15,-15,-15,-15,-16,-16,-16,-16,-16,-17,-18,-18,-18,-18,-18,-17,-17,-16,-16,-16,-16,-16,-16,-16,-16,-15,-15,-14,-14,-14,-14,-13,-13,-13,-12,-12,-12,-12,-11,-11,-10,-10,-10,-10,-9,-9,-9,-9,-9,-8,-7,-7,-7,-8,-8,-8,-8,-7,-7,-7,-7,-6,-5,-4,-4,-4,-3,-3,-4,-4,-4,-4,-4,-3,-3,-3,-3,-3,-3,-3,-3,-2,-2,-2,-2,-2,0,1",
			"name": "A194259(n) - n, where A194259(n) is the number of distinct prime factors of p(1)*p(2)*...*p(n) and p(n) is the n-th partition number.",
			"comment": [
				"Schinzel and Wirsing proved that a(n) \u003e C*log n - n, for any positive constant C \u003c 1/log 2 and all large n. In fact, it appears that a(n) \u003e 0 for all n \u003e 115.",
				"It also appears that a(n) \u003e= a(n-1), for all n \u003e 97, so that some prime factor of p(n) does not divide p(1)*p(2)*...*p(n-1)."
			],
			"link": [
				"Alois P. Heinz and Giovanni Resta, \u003ca href=\"/A194260/b194260.txt\"\u003eTable of n, a(n) for n = 1..10000\u003c/a\u003e (first 2000 terms from Alois P. Heinz)",
				"A. Schinzel and E. Wirsing, \u003ca href=\"http://dx.doi.org/10.1007/BF02837831\"\u003eMultiplicative properties of the partition function\u003c/a\u003e, Proc. Indian Acad. Sci., Math. Sci. (Ramanujan Birth Centenary Volume), 97 (1987), 297-303."
			],
			"formula": [
				"a(n) = A001221(product(k=1..n, A000041(k))) - n."
			],
			"example": [
				"p(1)*p(2)*...*p(8) = 1*2*3*5*7*11*15*22 = 2^2 * 3^2 * 5^2 * 7 * 11^2, so a(8) = 5 - 8 = -3."
			],
			"maple": [
				"with(combinat): with(numtheory):",
				"b:= proc(n) option remember;",
				"      `if`(n=1, {}, b(n-1) union factorset(numbpart(n)))",
				"    end:",
				"a:= n-\u003e nops(b(n)) -n:",
				"seq(a(n), n=1..116); # _Alois P. Heinz_, Aug 20 2011"
			],
			"mathematica": [
				"a[n_] := PrimeNu[Product[PartitionsP[k], {k, 1, n}]] - n; Table[a[n], {n, 1, 116}] (* _Jean-François Alcover_, Jan 28 2014 *)"
			],
			"xref": [
				"Cf. A000041, A001221, A087175, A194259."
			],
			"keyword": "sign",
			"offset": "1,7",
			"author": "_Jonathan Sondow_, Aug 20 2011",
			"references": 5,
			"revision": 24,
			"time": "2015-05-30T22:11:22-04:00",
			"created": "2011-08-20T22:40:30-04:00"
		}
	]
}