{
	"greeting": "Greetings from The On-Line Encyclopedia of Integer Sequences! http://oeis.org/",
	"query": "id:A194324",
	"count": 1,
	"start": 0,
	"results": [
		{
			"number": 194324,
			"data": "2,2,2,2,3,3,4,4,4,4,6,6,6,8,6,11,10,11,11,11,10,19,18,18,19,18,19,17,33,32,31,32,32,32,32,32,56,58,57,57,57,56,57,56,58,103,102,102,103,102,102,103,103,102,102,186,186,188,184,188,186,185,187,186,186",
			"name": "Triangular array:  g(n,k)=number of fractional parts (i*sqrt(1/2)) in interval [(k-1)/n, k/n], for 1\u003c=i\u003c=2^n, 1\u003c=k\u003c=n.",
			"comment": [
				"See A194285."
			],
			"example": [
				"First eight rows:",
				"2",
				"2...2",
				"2...3...3",
				"4...4...4...4",
				"6...6...6...8...6",
				"11..10..11..11..11..10",
				"19..18..18..19..18..19..17",
				"33..32..31..32..32..32..32..32"
			],
			"mathematica": [
				"r = Sqrt[1/2];",
				"f[n_, k_, i_] := If[(k - 1)/n \u003c= FractionalPart[i*r] \u003c k/n, 1, 0]",
				"g[n_, k_] := Sum[f[n, k, i], {i, 1, 2^n}]",
				"TableForm[Table[g[n, k], {n, 1, 14}, {k, 1, n}]]",
				"Flatten[%]    (* A194324 *)"
			],
			"xref": [
				"Cf. A194285."
			],
			"keyword": "nonn,tabl",
			"offset": "1,1",
			"author": "_Clark Kimberling_, Aug 22 2011",
			"references": 2,
			"revision": 5,
			"time": "2012-03-30T18:57:43-04:00",
			"created": "2011-08-22T16:20:57-04:00"
		}
	]
}