{
	"greeting": "Greetings from The On-Line Encyclopedia of Integer Sequences! http://oeis.org/",
	"query": "id:A194161",
	"count": 1,
	"start": 0,
	"results": [
		{
			"number": 194161,
			"data": "0,1,1,2,2,2,3,3,4,4,5,6,6,7,7,8,8,8,9,9,10,10,11,12,12,13,13,14,14,14,15,15,16,16,16,17,18,18,19,19,20,21,21,22,22,22,23,24,24,25,25,25,26,27,27,28,28,28,29,30,30,30,31,31,32,32,33,33,34,35,35,36,36",
			"name": "a(n) = [Sum_{k=1..n} (k*r)], where [ ]=floor, ( )=fractional part, and r=sqrt(2).",
			"link": [
				"G. C. Greubel, \u003ca href=\"/A194161/b194161.txt\"\u003eTable of n, a(n) for n = 1..5000\u003c/a\u003e"
			],
			"formula": [
				"a(n) = [n(n+1)r] - Sum_{k=1..n} [k*r], where [ ]=floor and r=sqrt(2)."
			],
			"mathematica": [
				"r = Sqrt[2];",
				"a[n_] := Floor[Sum[FractionalPart[k*r], {k, 1, n}]]",
				"Table[a[n], {n, 1, 90}]   (* A194161 *)",
				"s[n_] := Sum[a[k], {k, 1, n}]",
				"Table[s[n], {n, 1, 100}]  (* A194162 *)"
			],
			"program": [
				"(PARI) a(n) = floor(sum(k=1, n, frac(k*sqrt(2)))); \\\\ _Michel Marcus_, Nov 06 2017"
			],
			"xref": [
				"Cf. A194162."
			],
			"keyword": "nonn",
			"offset": "1,4",
			"author": "_Clark Kimberling_, Aug 18 2011",
			"references": 3,
			"revision": 15,
			"time": "2017-11-08T02:32:31-05:00",
			"created": "2011-08-18T15:02:44-04:00"
		}
	]
}