{
	"greeting": "Greetings from The On-Line Encyclopedia of Integer Sequences! http://oeis.org/",
	"query": "id:A194808",
	"count": 1,
	"start": 0,
	"results": [
		{
			"number": 194808,
			"data": "3,0,2,1,3,2,4,4,1,1,3,4,1,1,3,1,3,2,4,2,4,4,1,4,1,1,3,2,4,2,4,4,1,4,1,1,3,1,3,2,4,4,1,1,3,1,3,1,3,4,1,4,1,2,4,1,3,4,1,4,1,1,3,2,4,2,4,1,3,4,1,1,3,4,1,1,3,1,3,1,3,4,1,2,4,4,1,1",
			"name": "Twin primes modulo 5.",
			"formula": [
				"a(n) = A001097(n) mod 5."
			],
			"mathematica": [
				"Mod[Select[Prime[Range[300]], PrimeQ[# - 2] || PrimeQ[# + 2] \u0026], 5] (* _T. D. Noe_, May 21 2012 *)",
				"Mod[Union[Flatten[Select[Partition[Prime[Range[300]],2,1],#[[2]]-#[[1]] == 2\u0026]]],5] (* _Harvey P. Dale_, Apr 25 2018 *)"
			],
			"keyword": "nonn",
			"offset": "1,1",
			"author": "_Jiri Mazurek_, May 17 2012",
			"references": 0,
			"revision": 30,
			"time": "2018-04-25T10:19:08-04:00",
			"created": "2012-05-21T16:58:37-04:00"
		}
	]
}