{
	"greeting": "Greetings from The On-Line Encyclopedia of Integer Sequences! http://oeis.org/",
	"query": "id:A194871",
	"count": 1,
	"start": 0,
	"results": [
		{
			"number": 194871,
			"data": "1,1,2,3,1,2,3,1,4,2,5,3,1,4,2,5,3,1,6,4,2,7,5,3,1,6,4,2,7,5,3,1,8,6,4,2,9,7,5,3,1,8,6,4,2,9,7,5,3,1,10,8,6,4,2,9,7,5,3,1,10,8,6,4,2,11,9,7,5,3,12,1,10,8,6,4,2,11,9,7,5,3,12,1,10,8,6,4,13,2,11,9,7,5",
			"name": "Triangular array (and fractal sequence):  row n is the permutation of (1,2,...,n) obtained from the increasing ordering of fractional parts {r}, {2r}, ..., {nr}, where r=sqrt(6).",
			"comment": [
				"See A194832 for a general discussion."
			],
			"example": [
				"First nine rows:",
				"1",
				"1 2",
				"3 1 2",
				"3 1 4 2",
				"5 3 1 4 2",
				"5 3 1 6 4 2",
				"7 5 3 1 6 4 2",
				"7 5 3 1 8 6 4 2",
				"9 7 5 3 1 8 6 4 2"
			],
			"mathematica": [
				"r = Sqrt[6];",
				"t[n_] := Table[FractionalPart[k*r], {k, 1, n}];",
				"f = Flatten[Table[Flatten[(Position[t[n], #1] \u0026) /@",
				"Sort[t[n], Less]], {n, 1, 20}]]   (* A194871 *)",
				"TableForm[Table[Flatten[(Position[t[n], #1] \u0026) /@",
				"Sort[t[n], Less]], {n, 1, 15}]]",
				"row[n_] := Position[f, n];",
				"u = TableForm[Table[row[n], {n, 1, 20}]]",
				"g[n_, k_] := Part[row[n], k];",
				"p = Flatten[Table[g[k, n - k + 1], {n, 1, 13},",
				" {k, 1, n}]]   (* A194872 *)",
				"q[n_] := Position[p, n]; Flatten[",
				"Table[q[n], {n, 1, 80}]]   (* A194873 *)"
			],
			"xref": [
				"Cf. A194832, A194872, A194873."
			],
			"keyword": "nonn,tabl",
			"offset": "1,3",
			"author": "_Clark Kimberling_, Sep 04 2011",
			"references": 4,
			"revision": 5,
			"time": "2012-03-30T18:57:44-04:00",
			"created": "2011-09-04T18:03:42-04:00"
		}
	]
}