{
	"greeting": "Greetings from The On-Line Encyclopedia of Integer Sequences! http://oeis.org/",
	"query": "id:A194818",
	"count": 1,
	"start": 0,
	"results": [
		{
			"number": 194818,
			"data": "1,1,2,2,2,2,3,4,4,5,6,7,7,8,8,8,8,9,9,9,9,10,11,11,12,13,14,14,15,15,15,15,16,16,16,17,18,19,19,20,21,22,22,23,23,23,23,24,24,24,25,26,27,27,28,28,28,28,29,29,29,29,30,31,31,32,33,34,34,35,35,35,35",
			"name": "Number of integers k in [1,n] such that {n*r+k*r} \u003e {n*r-k*r}, where { } = fractional part and r=sqrt(3).",
			"mathematica": [
				"r = Sqrt[3]; p[x_] := FractionalPart[x];",
				"u[n_, k_] := If[p[n*r + k*r] \u003c= p[n*r - k*r], 1, 0]",
				"v[n_, k_] := If[p[n*r + k*r] \u003e p[n*r - k*r], 1, 0]",
				"s[n_] := Sum[u[n, k], {k, 1, n}]",
				"t[n_] := Sum[v[n, k], {k, 1, n}]",
				"Table[s[n], {n, 1, 100}]   (* A194817 *)",
				"Table[t[n], {n, 1, 100}]   (* A194818 *)"
			],
			"xref": [
				"Cf. A194817, A194813."
			],
			"keyword": "nonn",
			"offset": "1,3",
			"author": "_Clark Kimberling_, Sep 03 2011",
			"references": 2,
			"revision": 5,
			"time": "2012-03-30T18:57:44-04:00",
			"created": "2011-09-03T23:59:57-04:00"
		}
	]
}