{
	"greeting": "Greetings from The On-Line Encyclopedia of Integer Sequences! http://oeis.org/",
	"query": "id:A194003",
	"count": 1,
	"start": 0,
	"results": [
		{
			"number": 194003,
			"data": "0,1,1,3,1,3,2,3,3,2,2,3,3,2,3,3,2,3,2,3,2,3,2,4,3,3,2,6,2,4,3,3,2,2,2,4,3,3,2,4,6,3,2,2,4,3,3,2,3,3,2,2,2,2,3,3,2,5,2,3,2,4,4,4,3,6,2,5,2,2,2,5,2,5,4,4,3,4,3,5,4,2,3,4,2,4",
			"name": "Number of prime factors of n^8 + 1, counted with multiplicity.",
			"comment": [
				"This is to A193330 as A002523(n) = n^4+1 is to A002522(n) = n^2 + 1, and as A060890(n) = n^8+1 is to A002522(n) = n^2 + 1. a(n) = 1 when n^8+1 is prime, iff n is in {1, 2, 4} unless there is a larger Fermat prime than 65537."
			],
			"link": [
				"Amiram Eldar, \u003ca href=\"/A194003/b194003.txt\"\u003eTable of n, a(n) for n = 0..10000\u003c/a\u003e"
			],
			"formula": [
				"a(n) = A001222(A060890(n)) = bigomega(n^8+1) or Omega(n^8+1)"
			],
			"example": [
				"a(10) = 2 because 10^8 + 1 = 100000001 = 17 * 5882353 has 2 prime factors.",
				"a(40) = 6 because 40^8 + 1 = 6553600000001 = 17^2 * 113 * 337 * 641 * 929 has 6 prime factors (with multiplicity) and is the smallest example not squarefree."
			],
			"mathematica": [
				"Join[{0}, Table[Total[Transpose[FactorInteger[n^8 + 1]][[2]]], {n, 50}]]",
				"PrimeOmega[Range[0,90]^8+1] (* _Harvey P. Dale_, May 27 2018 *)"
			],
			"program": [
				"(PARI) a(n) = bigomega(n^8+1); \\\\ _Michel Marcus_, Feb 09 2020",
				"(MAGMA) [0] cat [\u0026+[p[2]: p in Factorization(n^8+1)]:n in [1..90]]; // _Marius A. Burtea_, Feb 09 2020"
			],
			"xref": [
				"Cf. A001222, A060890, A002523, A193432, A193562, A193929."
			],
			"keyword": "nonn,easy",
			"offset": "0,4",
			"author": "_Jonathan Vos Post_, Aug 10 2011",
			"references": 2,
			"revision": 17,
			"time": "2020-02-09T08:40:41-05:00",
			"created": "2011-08-10T20:25:30-04:00"
		}
	]
}