{
	"greeting": "Greetings from The On-Line Encyclopedia of Integer Sequences! http://oeis.org/",
	"query": "id:A194159",
	"count": 1,
	"start": 0,
	"results": [
		{
			"number": 194159,
			"data": "8,3,2,8,8,3,2,4,4,0,3,3,9,1,2,9,8,2,4,5,0,2,5,6,6,4,3,1,3,6,1,4,2,2,9,4,2,2,7,3,2,1,5,1,9,9,4,0,9,0,5,0,3,2,4,5,1,5,4,2,2,4,0,8,9,2,5,7,6,0,6,4,8,3,9,8,5,4,5,9,9,3,4,0,8,9,1,1,6,9,2,5,6,6,8,0,5,5,8,1,8,2,1,4,9,5,1,3",
			"name": "Constant associated with the product of the first n nonzero even-indexed Fibonacci numbers.",
			"comment": [
				"The a(n) = product(F(2*i), i=1..n) is asymptotic to C2*phi^(n*(n+1))/sqrt(5)^n where phi = (1+sqrt(5))/2 and F(n) = A000045(n), see A194157. The decimal expansion of the constant C2 is given above."
			],
			"reference": [
				"Ronald L. Graham, Donald E. Knuth and Oren Patashnik, Concrete Mathematics, 6th printing with corrections. Addison-Wesley, Reading, MA, p. 478 and p. 571, 1990."
			],
			"link": [
				"Eric Weisstein, \u003ca href=\"http://mathworld.wolfram.com/Fibonorial.html\"\u003eFibonorial\u003c/a\u003e Mathworld."
			],
			"formula": [
				"C2 = product((1-alpha^(2*k)), k\u003e=1)) with alpha = (-1/phi^2) and phi = (1+sqrt(5))/2.",
				"C2 = sum((-1)^binomial(n+1,2)*alpha^A152749(n), n\u003e=0)",
				"C2 = A062073/A194160"
			],
			"example": [
				"C2 = 0.83288324403391298245025664…"
			],
			"mathematica": [
				"digits = 108; NProduct[1 - GoldenRatio^(-4*k), {k, 1, Infinity}, WorkingPrecision -\u003e digits+10, NProductFactors -\u003e 200] // RealDigits[#, 10, digits]\u0026 // First (* _Jean-François Alcover_, Feb 14 2013, from 1st formula *)",
				"RealDigits[QPochhammer[1/GoldenRatio^4], 10, 100][[1]] (* _Vladimir Reshetnikov_, Sep 15 2016 *)"
			],
			"xref": [
				"Cf. A003266 and A062073; A194158 and A194160; A194157 and A194159."
			],
			"keyword": "nonn,cons,easy",
			"offset": "0,1",
			"author": "_Johannes W. Meijer_, Aug 21 2011",
			"references": 6,
			"revision": 13,
			"time": "2016-09-16T10:23:04-04:00",
			"created": "2011-08-22T04:32:34-04:00"
		}
	]
}