{
	"greeting": "Greetings from The On-Line Encyclopedia of Integer Sequences! http://oeis.org/",
	"query": "id:A194569",
	"count": 1,
	"start": 0,
	"results": [
		{
			"number": 194569,
			"data": "1,4,25,232,3182,65372,1988549,90079152,6068358966,607621801869,90481144660781,20030966609918016,6592839659614699902,3226130598077418710561,2346968934938492776129480",
			"name": "Number of lower triangles of an n X n 0..1 array with new values introduced in row major order 0..1 and no element equal to more than two horizontal or vertical neighbors",
			"comment": [
				"Column 1 of A194576"
			],
			"link": [
				"R. H. Hardin, \u003ca href=\"/A194569/b194569.txt\"\u003eTable of n, a(n) for n = 1..19\u003c/a\u003e"
			],
			"example": [
				"Some solutions for 3X3",
				"..0......0......0......0......0......0......0......0......0......0......0",
				"..0.1....0.1....1.1....1.0....0.0....0.1....1.1....1.0....0.1....0.0....1.1",
				"..1.1.0..0.1.0..1.0.1..1.1.0..1.0.1..0.1.1..1.0.0..1.0.1..0.0.0..1.1.1..0.1.0"
			],
			"keyword": "nonn",
			"offset": "1,2",
			"author": "_R. H. Hardin_ Aug 29 2011",
			"references": 1,
			"revision": 7,
			"time": "2015-12-18T18:17:44-05:00",
			"created": "2011-08-29T08:33:44-04:00"
		}
	]
}