{
	"greeting": "Greetings from The On-Line Encyclopedia of Integer Sequences! http://oeis.org/",
	"query": "id:A194672",
	"count": 1,
	"start": 0,
	"results": [
		{
			"number": 194672,
			"data": "1,1,1,1,2,1,1,3,3,1,1,5,10,4,1,1,6,36,35,5,1,1,9,310,4630,218,6,1",
			"name": "Triangle read by rows: number of genlex Gray paths on subcubes that use a certain restricted set of transformations.",
			"comment": [
				"See Knuth Vol. 4A page 737 for precise definition."
			],
			"reference": [
				"D. E. Knuth, The Art of Computer Programming, vol. 4A, Combinatorial Algorithms, Section 7.2.1.3 (p. 737)."
			],
			"example": [
				"Triangle begins:",
				"1",
				"1 1",
				"1 2 1",
				"1 3 3 1",
				"1 5 10 4 1",
				"1 6 36 35 5 1",
				"1 9 310 4630 218 6 1",
				"..."
			],
			"xref": [
				"Cf. A194673."
			],
			"keyword": "nonn,tabl,more",
			"offset": "0,5",
			"author": "_N. J. A. Sloane_, Sep 01 2011",
			"references": 1,
			"revision": 9,
			"time": "2012-03-30T16:52:03-04:00",
			"created": "2011-09-01T10:01:09-04:00"
		}
	]
}