{
	"greeting": "Greetings from The On-Line Encyclopedia of Integer Sequences! http://oeis.org/",
	"query": "id:A194913",
	"count": 1,
	"start": 0,
	"results": [
		{
			"number": 194913,
			"data": "1,2,3,4,5,6,10,7,8,9,14,11,15,12,13,19,16,20,17,21,18,25,22,26,23,27,24,28,32,36,29,33,30,34,31,35,40,44,37,41,45,38,42,39,43,49,53,46,50,54,47,51,55,48,52,59,63,56,60,64,57,61,65,58,62,66,70,74,78",
			"name": "Inverse permutation of A194912; every positive integer occurs exactly once.",
			"comment": [
				"A194913 is not equal to A194843."
			],
			"mathematica": [
				"(See A194911.)"
			],
			"xref": [
				"Cf. A194911, A194912."
			],
			"keyword": "nonn",
			"offset": "1,2",
			"author": "_Clark Kimberling_, Sep 05 2011",
			"references": 4,
			"revision": 5,
			"time": "2012-03-30T18:57:44-04:00",
			"created": "2011-09-05T23:22:12-04:00"
		}
	]
}