{
	"greeting": "Greetings from The On-Line Encyclopedia of Integer Sequences! http://oeis.org/",
	"query": "id:A194730",
	"count": 1,
	"start": 0,
	"results": [
		{
			"number": 194730,
			"data": "1,1,19,442,11395,312814,8960878,264735892,8006545891,246643289830,7711583225338,244082045341036,7805301802531534,251791585570781452,8183989442287618300,267755464909548758440,8810802978165549384355,291414010749705281701270",
			"name": "Number of 10-ary words either empty or beginning with the first character of the alphabet, that can be built by inserting n doublets into the initially empty word.",
			"link": [
				"Alois P. Heinz, \u003ca href=\"/A194730/b194730.txt\"\u003eTable of n, a(n) for n = 0..200\u003c/a\u003e"
			],
			"formula": [
				"G.f.: 9/10 + 9/(5*(8+10*sqrt(1-36*x))).",
				"a(0) = 1, a(n) = 1/n * Sum_{j=0..n-1} C(2*n,j)*(n-j)*9^j for n\u003e0.",
				"a(n) ~ 9 * 36^n / (64 * sqrt(Pi) * n^(3/2)). - _Vaclav Kotesovec_, Sep 07 2014"
			],
			"example": [
				"a(2) = 19: aaaa, aabb, aacc, aadd, aaee, aaff, aagg, aahh, aaii, aajj, abba, acca, adda, aeea, affa, agga, ahha, aiia, ajja (with 10-ary alphabet {a,b,c,d,e,f,g,h,i,j})."
			],
			"maple": [
				"a:= n-\u003e `if`(n=0, 1, add(binomial (2*n, j) *(n-j) *9^j, j=0..n-1) /n):",
				"seq(a(n), n=0..20);"
			],
			"xref": [
				"Column k=10 of A183134."
			],
			"keyword": "nonn",
			"offset": "0,3",
			"author": "_Alois P. Heinz_, Sep 02 2011",
			"references": 4,
			"revision": 10,
			"time": "2015-07-13T19:04:28-04:00",
			"created": "2011-09-02T21:05:36-04:00"
		}
	]
}