{
	"greeting": "Greetings from The On-Line Encyclopedia of Integer Sequences! http://oeis.org/",
	"query": "id:A194566",
	"count": 1,
	"start": 0,
	"results": [
		{
			"number": 194566,
			"data": "1,1267650600228229401496703205377,515377520732011332304111729993850674198810727377,1606938044259505653062694103672199063651968615055494942823377",
			"name": "Centered cube numbers: (n+1)^100+n^100.",
			"comment": [
				"Can never be prime, and after a(0) must have at least 3 prime factors, as a(n) = (2*n^4 + 4*n^3 + 6*n^2 + 4*n + 1) * p_16(n) * p_80(n)."
			],
			"link": [
				"Alois P. Heinz, \u003ca href=\"/A194566/b194566.txt\"\u003eTable of n, a(n) for n = 0..1000\u003c/a\u003e"
			],
			"formula": [
				"a(n) = (n+1)^100 + n^100."
			],
			"maple": [
				"a:= n-\u003e (n+1)^100 +n^100: seq (a(n), n=0..20);"
			],
			"mathematica": [
				"Total/@Partition[Range[0,5]^100,2,1] (* _Harvey P. Dale_, Aug 10 2013 *)"
			],
			"xref": [
				"Cf. A036085-A036102, A100267, A154535, A100266, A152913, A194155, A194185, A194216, A194553."
			],
			"keyword": "nonn,easy",
			"offset": "0,2",
			"author": "_Jonathan Vos Post_, Aug 29 2011",
			"references": 1,
			"revision": 12,
			"time": "2013-08-10T11:53:27-04:00",
			"created": "2011-09-08T18:34:01-04:00"
		}
	]
}