{
	"greeting": "Greetings from The On-Line Encyclopedia of Integer Sequences! http://oeis.org/",
	"query": "id:A194578",
	"count": 1,
	"start": 0,
	"results": [
		{
			"number": 194578,
			"data": "1,3,43,68,93,228,612,1903,32292,44868,252072,36564198,55862807,134735264",
			"name": "Numbers n such that the sum of the first k divisors of n^2+1 is equal to n for some k.",
			"comment": [
				"No further at least up to 10^7.",
				"No other terms up to 10^8. - _Michel Marcus_, Jan 17 2014",
				"a(15) \u003e 2.5*10^8. - _Giovanni Resta_, Apr 14 2017"
			],
			"example": [
				"The divisors of 43^2 + 1 are {1, 2, 5, 10, 25, 37, 50, 74, 185, 370, 925, 1850} and 1+2+5+10 + 25 = 43, hence 43 is in the list."
			],
			"mathematica": [
				"Select[Range[10000000], MemberQ[Accumulate[Divisors[#^2+1]], #]\u0026]"
			],
			"xref": [
				"Cf. A185584."
			],
			"keyword": "nonn",
			"offset": "1,2",
			"author": "_Michel Lagneau_, Aug 29 2011",
			"ext": [
				"a(12)-a(13) from _Michel Marcus_, Jan 17 2014",
				"a(14) from _Giovanni Resta_, Apr 14 2017"
			],
			"references": 0,
			"revision": 14,
			"time": "2017-04-14T12:18:08-04:00",
			"created": "2011-08-29T13:59:31-04:00"
		}
	]
}