{
	"greeting": "Greetings from The On-Line Encyclopedia of Integer Sequences! http://oeis.org/",
	"query": "id:A194330",
	"count": 1,
	"start": 0,
	"results": [
		{
			"number": 194330,
			"data": "2,2,2,2,3,1,2,2,2,2,2,2,2,2,2,2,2,2,2,2,2,1,3,2,2,2,2,2,2,2,3,2,2,1,2,2,2,2,2,2,3,1,2,3,1,3,1,3,2,2,2,2,1,3,1,2,2,2,3,1,2,3,1,2,3,1,2,3,1,2,3,2,2,2,1,3,2,1,2,2,2,2,2,2,2,2,2,2,2,2,2,1,2,2,3,2,2,2,3",
			"name": "Triangular array:  g(n,k)=number of fractional parts (i*r) in interval [(k-1)/n, k/n], for 1\u003c=i\u003c=2n, 1\u003c=k\u003c=n, r=2-sqrt(3).",
			"comment": [
				"See A194285."
			],
			"example": [
				"First nine rows:",
				"2",
				"2..2",
				"2..3..1",
				"2..2..2..2",
				"2..2..2..2..2",
				"2..2..2..2..2..2",
				"1..3..2..2..2..2..2",
				"2..2..3..2..2..1..2..2",
				"2..2..2..2..3..1..2..3..1"
			],
			"mathematica": [
				"r = 2-Sqrt[3];",
				"f[n_, k_, i_] := If[(k - 1)/n \u003c= FractionalPart[i*r] \u003c k/n, 1, 0]",
				"g[n_, k_] := Sum[f[n, k, i], {i, 1, 2n}]",
				"TableForm[Table[g[n, k], {n, 1, 14}, {k, 1, n}]]",
				"Flatten[%]    (* A194330 *)"
			],
			"xref": [
				"Cf. A194285."
			],
			"keyword": "nonn,tabl",
			"offset": "1,1",
			"author": "_Clark Kimberling_, Aug 22 2011",
			"references": 2,
			"revision": 5,
			"time": "2012-03-30T18:57:43-04:00",
			"created": "2011-08-22T16:19:26-04:00"
		}
	]
}