{
	"greeting": "Greetings from The On-Line Encyclopedia of Integer Sequences! http://oeis.org/",
	"query": "id:A194041",
	"count": 1,
	"start": 0,
	"results": [
		{
			"number": 194041,
			"data": "3,9,15,21,25,33,37,43,51,63,67,69,73,75,87,93,99,105,111,115,127,135,141,151,159,163,169,171,189,195,201,205,211,223,231,235,237,241,259,261,267,273,283,285,289,297,303,307,321,327,339,349,357,361,385,393",
			"name": "Lucky numbers which are also unhappy numbers.",
			"comment": [
				"An unhappy number is a number that is not happy (A007770) i.e., a number n such that iterating this sum-of-squared-digits map starting with n never reaches the number 1. Many asymptotic properties of the prime numbers are shared by the lucky numbers."
			],
			"link": [
				"Nathaniel Johnston, \u003ca href=\"/A194041/b194041.txt\"\u003eTable of n, a(n) for n = 1..1000\u003c/a\u003e",
				"Eric W. Weisstein, \u003ca href=\"http://mathworld.wolfram.com/UnhappyNumber.html\"\u003eUnhappy Number\u003c/a\u003e",
				"Eric W. Weisstein, \u003ca href=\"http://mathworld.wolfram.com/LuckyNumber.html\"\u003eLucky Number\u003c/a\u003e"
			],
			"formula": [
				"A000959 INTERSECTION A031177. {k such that k is in A000959 and k is not in A007770}."
			],
			"xref": [
				"Cf. A000959, A007770, A031177."
			],
			"keyword": "nonn,easy",
			"offset": "1,1",
			"author": "_Jonathan Vos Post_, Aug 12 2011",
			"references": 1,
			"revision": 11,
			"time": "2012-03-30T18:40:59-04:00",
			"created": "2011-08-15T19:17:03-04:00"
		}
	]
}