{
	"greeting": "Greetings from The On-Line Encyclopedia of Integer Sequences! http://oeis.org/",
	"query": "id:A194254",
	"count": 1,
	"start": 0,
	"results": [
		{
			"number": 194254,
			"data": "0,1,2,4,6,9,12,16,20,25,30,36,42,48,55,63,72,81,91,101,112,123,135,147,159,171,184,198,212,227,243,260,277,295,313,332,351,370,389,409,429,450,472,494,517,540,564,588,613,638,664,690,717,744,771,799",
			"name": "Partial sums of A194253.",
			"mathematica": [
				"r = Sqrt[12];",
				"a[n_] := Floor[Sum[FractionalPart[k*r], {k, 1, n}]]",
				"Table[a[n], {n, 1, 90}]    (* A194253 *)",
				"s[n_] := Sum[a[k], {k, 1, n}]",
				"Table[s[n], {n, 1, 100}]   (* A194254 *)"
			],
			"xref": [
				"Cf. A194253."
			],
			"keyword": "nonn",
			"offset": "1,3",
			"author": "_Clark Kimberling_, Aug 20 2011",
			"references": 2,
			"revision": 5,
			"time": "2012-03-30T18:57:42-04:00",
			"created": "2011-08-20T14:59:41-04:00"
		}
	]
}