{
	"greeting": "Greetings from The On-Line Encyclopedia of Integer Sequences! http://oeis.org/",
	"query": "id:A194119",
	"count": 1,
	"start": 0,
	"results": [
		{
			"number": 194119,
			"data": "2,5,5,11,10,11,21,21,21,21,36,42,42,42,36,57,78,84,84,78,57,85,135,162,168,162,135,85,121,220,297,330,330,297,220,121,166,341,517,627,660,627,517,341,166,221,507,858,1144,1287,1287,1144,858,507,221",
			"name": "Triangular array:  T(n,k)=C(n+3,k)+C(n+3,k+3), 0\u003c=k\u003c=n.",
			"example": [
				"Northwest corner:",
				"2",
				"5...5",
				"11...10...11",
				"21...21...21...21",
				"36...42...42...36",
				"57...78...84...84...78...56"
			],
			"mathematica": [
				"T[n_, k_] := Binomial[n + 3, k] + Binomial[n + 3, k + 3]",
				"Flatten[Table[T[n, k], {n, 0, 10}, {k, 0, n}]]",
				"   (* A194119 as a sequence *)",
				"TableForm[Table[T[n, k], {n, 0, 10}, {k, 0, n}]]",
				" (* A194119 as an array *)"
			],
			"xref": [
				"Cf. A007318, A194118, A194120."
			],
			"keyword": "nonn,tabl",
			"offset": "0,1",
			"author": "_Clark Kimberling_, Aug 16 2011",
			"references": 4,
			"revision": 5,
			"time": "2012-03-30T18:57:40-04:00",
			"created": "2011-08-17T17:24:55-04:00"
		}
	]
}