{
	"greeting": "Greetings from The On-Line Encyclopedia of Integer Sequences! http://oeis.org/",
	"query": "id:A195124",
	"count": 1,
	"start": 0,
	"results": [
		{
			"number": 195124,
			"data": "0,1,2,2,3,4,4,5,6,6,7,8,8,9,9,10,11,11,12,13,13,14,15,15,16,17,17,18,18,19,20,20,21,22,22,23,24,24,25,25,26,27,27,28,29,29,30,31,31,32,33,33,34,34,35,36,36,37,38,38,39,40,40,41,42,42,43,43,44,45,45",
			"name": "2n-floor(n*e/2).",
			"link": [
				"Ivan Panchenko, \u003ca href=\"/A195124/b195124.txt\"\u003eTable of n, a(n) for n = 0..10000\u003c/a\u003e"
			],
			"mathematica": [
				"Table[2n-Floor[n*E/2],{n,0,100}] (* _Harvey P. Dale_, Aug 15 2015 *)"
			],
			"keyword": "nonn",
			"offset": "0,3",
			"author": "_Clark Kimberling_, Sep 09 2011",
			"ext": [
				"Offset corrected by _Ivan Panchenko_, Nov 10 2013"
			],
			"references": 1,
			"revision": 11,
			"time": "2015-08-15T17:02:25-04:00",
			"created": "2011-09-09T17:24:45-04:00"
		}
	]
}