{
	"greeting": "Greetings from The On-Line Encyclopedia of Integer Sequences! http://oeis.org/",
	"query": "id:A195810",
	"count": 1,
	"start": 0,
	"results": [
		{
			"number": 195810,
			"data": "1250,5754,353073,14774206,461490870,136644951,302307431550,6347782194286,12139568762399,4159327027119583,129785024254373690,58866692131428799,28110275546239432420",
			"name": "Smallest possible largest number of a 4 by n average array where repetitions are not allowed with diagonals.",
			"comment": [
				"Here, an average array is an array with positive integers such that each number is the average of the numbers in its horizontally, vertically and diagonally adjacent cells."
			],
			"link": [
				"Erich Friedman, \u003ca href=\"https://erich-friedman.github.io/mathmagic/0399.html\"\u003eProblem of the month March 1999\u003c/a\u003e"
			],
			"keyword": "nonn",
			"offset": "3,1",
			"author": "_Kausthub Gudipati_, Sep 24 2011",
			"references": 0,
			"revision": 8,
			"time": "2020-08-13T14:02:28-04:00",
			"created": "2011-09-24T12:55:22-04:00"
		}
	]
}