{
	"greeting": "Greetings from The On-Line Encyclopedia of Integer Sequences! http://oeis.org/",
	"query": "id:A195619",
	"count": 1,
	"start": 0,
	"results": [
		{
			"number": 195619,
			"data": "16,1040,68640,4529184,298857520,19720067120,1301225572416,85861167712320,5665535843440720,373839504499375184,24667741761115321440,1627697116729111839840,107403341962360266108016,7086992872399048451289200",
			"name": "Denominators a(n) of Pythagorean approximations b(n)/a(n) to 4.",
			"comment": [
				"See A195500 for a discussion and references."
			],
			"link": [
				"Colin Barker, \u003ca href=\"/A195619/b195619.txt\"\u003eTable of n, a(n) for n = 1..549\u003c/a\u003e",
				"\u003ca href=\"/index/Rec#order_03\"\u003eIndex entries for linear recurrences with constant coefficients\u003c/a\u003e, signature (65,65,-1)."
			],
			"formula": [
				"a(n) = 65*a(n-1)+65*a(n-2)-a(n-3). G.f.: 16*x / ((x+1)*(x^2-66*x+1)). - _Colin Barker_, Jun 03 2015",
				"a(n) = (-8*(-1)^n-(-4+sqrt(17))*(33+8*sqrt(17))^(-n)+(4+sqrt(17))*(33+8*sqrt(17))^n)/34. - _Colin Barker_, Mar 03 2016"
			],
			"mathematica": [
				"r = 4; z = 20;",
				"p[{f_, n_}] := (#1[[2]]/#1[[",
				"      1]] \u0026)[({2 #1[[1]] #1[[2]], #1[[1]]^2 - #1[[",
				"         2]]^2} \u0026)[({Numerator[#1], Denominator[#1]} \u0026)[",
				"     Array[FromContinuedFraction[",
				"        ContinuedFraction[(#1 + Sqrt[1 + #1^2] \u0026)[f], #1]] \u0026, {n}]]]];",
				"{a, b} = ({Denominator[#1], Numerator[#1]} \u0026)[",
				"  p[{r, z}]]  (* A195619, A195620 *)",
				"Sqrt[a^2 + b^2] (* A078988 *)",
				"(* _Peter J. C. Moses_, Sep 02 2011 *)"
			],
			"program": [
				"(PARI) Vec(16*x/((x+1)*(x^2-66*x+1)) + O(x^20)) \\\\ _Colin Barker_, Jun 03 2015"
			],
			"xref": [
				"Cf. A195500, A195620, A078988."
			],
			"keyword": "nonn,easy",
			"offset": "1,1",
			"author": "_Clark Kimberling_, Sep 22 2011",
			"references": 4,
			"revision": 23,
			"time": "2016-03-03T11:28:44-05:00",
			"created": "2011-09-22T15:45:19-04:00"
		}
	]
}