{
	"greeting": "Greetings from The On-Line Encyclopedia of Integer Sequences! http://oeis.org/",
	"query": "id:A195858",
	"count": 1,
	"start": 0,
	"results": [
		{
			"number": 195858,
			"data": "1,12,35,83,183,391,823,1719,3575,7415,15351,31735,65527,135159,278519,573431,1179639,2424823,4980727,10223607,20971511,42991607,88080375,180355063,369098743,754974711,1543503863,3154116599,6442450935,13153337335,26843545591",
			"name": "a(n) = T(10, n), array T given by A047858.",
			"link": [
				"Vincenzo Librandi, \u003ca href=\"/A195858/b195858.txt\"\u003eTable of n, a(n) for n = 0..3000\u003c/a\u003e",
				"\u003ca href=\"/index/Rec#order_03\"\u003eIndex entries for linear recurrences with constant coefficients\u003c/a\u003e, signature (5,-8,4)."
			],
			"formula": [
				"a(n) = 2^(n-1)*(n+20)-9.",
				"a(0)=1, a(1)=12, a(2)=35, a(n) = 5*a(n-1)-8*a(n-2)+4*a(n-3).",
				"G.f.: (1+7*x-17*x^2) / ((1-x)*(1-2*x)^2). - _Colin Barker_, Aug 24 2016"
			],
			"mathematica": [
				"LinearRecurrence[{5,-8,4},{1,12,35},40] (* _Harvey P. Dale_, Jul 24 2019 *)"
			],
			"program": [
				"(MAGMA) [2^(n-1)*(n+20)-9: n in [0..30]]; // _Vincenzo Librandi_, Sep 28 2011",
				"(PARI) Vec((1+7*x-17*x^2)/((1-x)*(1-2*x)^2) + O(x^40)) \\\\ _Colin Barker_, Aug 24 2016"
			],
			"xref": [
				"Cf. A047858."
			],
			"keyword": "nonn,easy",
			"offset": "0,2",
			"author": "_Vincenzo Librandi_, Sep 28 2011",
			"references": 1,
			"revision": 20,
			"time": "2019-08-02T21:28:21-04:00",
			"created": "2011-09-28T11:26:59-04:00"
		}
	]
}