{
	"greeting": "Greetings from The On-Line Encyclopedia of Integer Sequences! http://oeis.org/",
	"query": "id:A195412",
	"count": 1,
	"start": 0,
	"results": [
		{
			"number": 195412,
			"data": "3,2,6,8,5,0,5,3,9,8,0,7,1,2,0,6,3,7,7,1,0,0,2,1,3,3,3,6,8,5,3,8,6,5,8,9,3,3,0,4,0,5,7,8,5,6,4,9,3,4,6,0,1,3,3,6,0,9,8,0,3,4,6,4,6,2,9,0,5,1,3,6,7,8,6,1,7,0,4,5,2,8,9,0,5,2,8,9,7,5,7,9,2,6,9,2,9,9,2,7",
			"name": "Decimal expansion of shortest length, (A), of segment from side AB through centroid to side AC in right triangle ABC with sidelengths (a,b,c)=(5,12,13).",
			"comment": [
				"See A195304 for definitions and a general discussion."
			],
			"example": [
				"(A)=3.268505398071206377100213336853865893304057..."
			],
			"mathematica": [
				"a = 5; b = 12; h = 2 a/3; k = b/3;",
				"f[t_] := (t - a)^2 + ((t - a)^2) ((a*k - b*t)/(a*h - a*t))^2",
				"s = NSolve[D[f[t], t] == 0, t, 150]",
				"f1 = (f[t])^(1/2) /. Part[s, 4]",
				"RealDigits[%, 10, 100] (* (A) A195412 *)",
				"f[t_] := (t - a)^2 + ((t - a)^2) (k/(h - t))^2",
				"s = NSolve[D[f[t], t] == 0, t, 150]",
				"f2 = (f[t])^(1/2) /. Part[s, 4]",
				"RealDigits[%, 10, 100] (* (B) A195413 *)",
				"f[t_] := (b*t/a)^2 + ((b*t/a)^2) ((a*h - a*t)/(b*t - a*k))^2",
				"s = NSolve[D[f[t], t] == 0, t, 150]",
				"f3 = (f[t])^(1/2) /. Part[s, 1]",
				"RealDigits[%, 10, 100] (* (C) A195414 *)",
				"c = Sqrt[a^2 + b^2]; (f1 + f2 + f3)/(a + b + c)",
				"RealDigits[%, 10, 100] (* Philo(ABC,G) A195424 *)"
			],
			"xref": [
				"Cf. A195413, A195414, A195424."
			],
			"keyword": "nonn,cons",
			"offset": "1,1",
			"author": "_Clark Kimberling_, Sep 18 2011",
			"references": 5,
			"revision": 5,
			"time": "2012-03-30T18:57:45-04:00",
			"created": "2011-09-18T22:54:28-04:00"
		}
	]
}