{
	"greeting": "Greetings from The On-Line Encyclopedia of Integer Sequences! http://oeis.org/",
	"query": "id:A195043",
	"count": 1,
	"start": 0,
	"results": [
		{
			"number": 195043,
			"data": "0,1,11,23,44,67,99,133,176,221,275,331,396,463,539,617,704,793,891,991,1100,1211,1331,1453,1584,1717,1859,2003,2156,2311,2475,2641,2816,2993,3179,3367,3564,3763,3971,4181,4400,4621,4851,5083,5324,5567",
			"name": "Concentric 11-gonal numbers.",
			"comment": [
				"Also concentric hendecagonal numbers. A033584 and A069173 interleaved.",
				"Partial sums of A175885. - _Reinhard Zumkeller_, Jan 07 2012"
			],
			"link": [
				"Vincenzo Librandi, \u003ca href=\"/A195043/b195043.txt\"\u003eTable of n, a(n) for n = 0..10000\u003c/a\u003e",
				"\u003ca href=\"/index/Rec#order_04\"\u003eIndex entries for linear recurrences with constant coefficients\u003c/a\u003e, signature (2,0,-2,1)."
			],
			"formula": [
				"a(n) = 11*n^2/4 + 7*((-1)^n - 1)/8.",
				"a(n) = -a(n-1) + A069125(n). - _Vincenzo Librandi_, Sep 30 2011",
				"From _Colin Barker_, Sep 15 2013: (Start)",
				"a(n) = 2*a(n-1) - 2*a(n-3) + a(n-4).",
				"G.f.: -x*(x^2+9*x+1) / ((x-1)^3*(x+1)). (End)"
			],
			"mathematica": [
				"LinearRecurrence[{2,0,-2,1},{0,1,11,23},50] (* _Harvey P. Dale_, May 20 2019 *)"
			],
			"program": [
				"(MAGMA) [11*n^2/4+7*((-1)^n-1)/8: n in [0..50]]; // _Vincenzo Librandi_, Sep 30 2011",
				"(Haskell)",
				"a195043 n = a195043_list !! n",
				"a195043_list = scanl (+) 0 a175885_list",
				"-- _Reinhard Zumkeller_, Jan 07 2012",
				"(PARI) Vec(-x*(x^2+9*x+1)/((x-1)^3*(x+1)) + O(x^100)) \\\\ _Colin Barker_, Sep 15 2013"
			],
			"xref": [
				"Column 11 of A195040.",
				"Cf. A032527, A032528, A195042, A195142, A195143, A195045."
			],
			"keyword": "nonn,easy",
			"offset": "0,3",
			"author": "_Omar E. Pol_, Sep 27 2011",
			"references": 7,
			"revision": 31,
			"time": "2019-05-20T17:51:45-04:00",
			"created": "2011-09-28T18:24:51-04:00"
		}
	]
}