{
	"greeting": "Greetings from The On-Line Encyclopedia of Integer Sequences! http://oeis.org/",
	"query": "id:A195013",
	"count": 1,
	"start": 0,
	"results": [
		{
			"number": 195013,
			"data": "2,3,4,6,6,9,8,12,10,15,12,18,14,21,16,24,18,27,20,30,22,33,24,36,26,39,28,42,30,45,32,48,34,51,36,54,38,57,40,60,42,63,44,66,46,69,48,72,50,75,52,78,54,81,56,84,58,87,60,90,62,93,64,96,66,99,68,102",
			"name": "Multiples of 2 and of 3 interleaved: a(2n-1) = 2n, a(2n) = 3n.",
			"comment": [
				"First differences of A195014."
			],
			"link": [
				"Reinhard Zumkeller, \u003ca href=\"/A195013/b195013.txt\"\u003eTable of n, a(n) for n = 1..10000\u003c/a\u003e",
				"D. H. Bailey, J. M. Borwein, and J. S. Kimberley, \u003ca href=\"http://www.davidhbailey.com/dhbpapers/poisson-res.pdf\"\u003eDiscovery of large Poisson polynomials using the MPFUN-MPFR arbitrary precision software\u003c/a\u003e, Preprint 2015.",
				"\u003ca href=\"/index/Rec#order_04\"\u003eIndex entries for linear recurrences with constant coefficients\u003c/a\u003e, signature (0,2,0,-1)."
			],
			"formula": [
				"Pair(2*n, 3*n).",
				"From _Bruno Berselli_, Sep 26 2011: (Start)",
				"G.f.: x*(2+3*x)/(1-x^2)^2.",
				"a(n) = (5*n+(n-2)*(-1)^n+2)/4.",
				"a(n) = 2*a(n-2) - a(n-4) = a(n-2) + A010693(n-1).",
				"a(n)+a(-n) = A010673(n).",
				"a(n)-a(-n) = A106832(n). (End)"
			],
			"program": [
				"(MAGMA) \u0026cat[[2*n,3*n]: n in [1..34]]; // Bruno Berselli, Sep 25 2011",
				"(Haskell)",
				"import Data.List (transpose)",
				"a195013 n = a195013_list !! (n-1)",
				"a195013_list = concat $ transpose [[2, 4 ..], [3, 6 ..]]",
				"-- _Reinhard Zumkeller_, Apr 06 2015",
				"(PARI) a(n)=(5*n+(n-2)*(-1)^n+2)/4 \\\\ _Charles R Greathouse IV_, Sep 24 2015"
			],
			"xref": [
				"Cf. A005843, A008585, A195014, A195019.",
				"Cf. A111712 (partial sums)."
			],
			"keyword": "nonn,easy",
			"offset": "1,1",
			"author": "_Omar E. Pol_, Sep 09 2011",
			"references": 13,
			"revision": 27,
			"time": "2020-10-13T03:26:56-04:00",
			"created": "2011-09-25T18:19:37-04:00"
		}
	]
}