{
	"greeting": "Greetings from The On-Line Encyclopedia of Integer Sequences! http://oeis.org/",
	"query": "id:A195876",
	"count": 1,
	"start": 0,
	"results": [
		{
			"number": 195876,
			"data": "2,48,7,35,32,32,154,33,16,78,66,320,39,187,16,21,63,112,546,48,230,170,95,459,70,336,45,217,322,126,608,51,85,247,416,77,369,774,522,279,112,640,65,240,407,286,115,143,551,793,190,559,221,448,735,65",
			"name": "Positive integers b for which there is a primitive (-1/2)-Pythagorean triple (a,b,c) satisfying a\u003c=b.",
			"comment": [
				"See A195770 for definitions of k-Pythagorean triple, primitive k-Pythagorean triple, and lists of related sequences."
			],
			"mathematica": [
				"(See A195872.)"
			],
			"xref": [
				"Cf. A195770, A195872, A195876."
			],
			"keyword": "nonn",
			"offset": "1,1",
			"author": "_Clark Kimberling_, Sep 25 2011",
			"references": 4,
			"revision": 5,
			"time": "2012-03-30T18:57:48-04:00",
			"created": "2011-09-25T18:28:39-04:00"
		}
	]
}