{
	"greeting": "Greetings from The On-Line Encyclopedia of Integer Sequences! http://oeis.org/",
	"query": "id:A195781",
	"count": 1,
	"start": 0,
	"results": [
		{
			"number": 195781,
			"data": "1,4,4,6,4,4,1,3,3,2,2,4,8,1,3,5,1,8,4,1,9,9,9,6,6,8,4,2,4,7,5,8,8,0,4,1,6,5,2,5,4,1,4,5,0,7,9,1,7,7,4,8,8,2,0,5,7,2,3,5,8,1,7,7,0,3,8,1,8,5,9,3,5,7,1,5,5,3,7,7,4,0,6,9,0,3,0,6,8,1,8,3,5,7,7,0,5,2,0,3",
			"name": "Decimal expansion of arctan(8).",
			"formula": [
				"Equals arccot(1/8) = arcsin(8/sqrt(65)) = arccos(1/sqrt(65)). - _Amiram Eldar_, May 24 2021",
				"Equals arctan(1) + arctan(1/2) + arctan(1/5). - _Amiram Eldar_, Jan 11 2022"
			],
			"example": [
				"arctan(8) = 1.4464413322481351841999668424758804165254145079..."
			],
			"mathematica": [
				"r = 8;",
				"N[ArcTan[r], 100]",
				"RealDigits[%][[1]]"
			],
			"xref": [
				"Cf. A195782, A195783, A195784."
			],
			"keyword": "nonn,cons,changed",
			"offset": "1,2",
			"author": "_Clark Kimberling_, Sep 24 2011",
			"references": 4,
			"revision": 15,
			"time": "2022-01-11T05:48:19-05:00",
			"created": "2011-09-24T17:33:07-04:00"
		}
	]
}