{
	"greeting": "Greetings from The On-Line Encyclopedia of Integer Sequences! http://oeis.org/",
	"query": "id:A195611",
	"count": 1,
	"start": 0,
	"results": [
		{
			"number": 195611,
			"data": "3,481,2079,12797,1968639,8522241,52441603,8067484641,34924139039,214905676797,33060550087679,143119113262081,880683411072003,135482126191826401,586502091223866399,3609040403667391997,555205720073554501119",
			"name": "Numerators b(n) of Pythagorean approximations b(n)/a(n) to 4/5.",
			"comment": [
				"See A195500 for discussion and list of related sequences; see A195580 for Mathematica program."
			],
			"xref": [
				"Cf. A195500, A195580, A195612."
			],
			"keyword": "nonn",
			"offset": "1,1",
			"author": "_Clark Kimberling_, Sep 21 2011",
			"references": 3,
			"revision": 6,
			"time": "2012-03-30T18:57:48-04:00",
			"created": "2011-09-21T16:40:13-04:00"
		}
	]
}