{
	"greeting": "Greetings from The On-Line Encyclopedia of Integer Sequences! http://oeis.org/",
	"query": "id:A195666",
	"count": 1,
	"start": 0,
	"results": [
		{
			"number": 195666,
			"data": "17,52,88,99,147,175,210,224,250,252,300,320,360,384,405,432,486",
			"name": "Numbers whose sum of prime factors is 17.",
			"comment": [
				"Row 17 of A064364.",
				"Prime factors counted with multiplicity. - _Harvey P. Dale_, Apr 03 2019"
			],
			"mathematica": [
				"Select[Range[1000], Total[Times @@ Transpose[FactorInteger[#]]] == 17 \u0026] (* _T. D. Noe_, Sep 22 2011 *)"
			],
			"keyword": "nonn,full,fini",
			"offset": "1,1",
			"author": "_Kausthub Gudipati_, Sep 22 2011",
			"references": 0,
			"revision": 14,
			"time": "2019-04-03T18:24:17-04:00",
			"created": "2011-09-22T12:17:21-04:00"
		}
	]
}