{
	"greeting": "Greetings from The On-Line Encyclopedia of Integer Sequences! http://oeis.org/",
	"query": "id:A195463",
	"count": 1,
	"start": 0,
	"results": [
		{
			"number": 195463,
			"data": "11,23,71,263,1031,4103,16391,65543,262151,1048583,4194311,16777223,67108871,268435463,1073741831,4294967303,17179869191,68719476743,274877906951,1099511627783,4398046511111,17592186044423,70368744177671,281474976710663",
			"name": "a(n) = 4^(n+1) + 7.",
			"comment": [
				"These are the even terms of A168415. Since the odd terms of A168415 are divisible by three the primes of this sequence are the same as A104066."
			],
			"link": [
				"Vincenzo Librandi, \u003ca href=\"/A195463/b195463.txt\"\u003eTable of n, a(n) for n = 0..1000\u003c/a\u003e",
				"\u003ca href=\"/index/Rec\"\u003eIndex entries for linear recurrences with constant coefficients\u003c/a\u003e, signature (5,-4)."
			],
			"formula": [
				"a(n) = 4^(n+1) + 7.",
				"From _Alexander R. Povolotsky_, Sep 19 2011: (Start)",
				"G.f.: (11 - 32*x)/(1 - 5*x + 4*x^2).",
				"a(n+1) = 4*a(n) - 21. (End)",
				"a(n) = A188165(2n+2) - 2. - _Bruno Berselli_, Sep 26 2011"
			],
			"program": [
				"(PARI) a(n)=4^(n+1)+7 \\\\ _Charles R Greathouse IV_, Sep 19 2011",
				"(MAGMA) [4^(n+1) + 7: n in [0..30]]; // _Vincenzo Librandi_, Sep 30 2011"
			],
			"xref": [
				"Cf. A168415, A104066."
			],
			"keyword": "nonn,easy",
			"offset": "0,1",
			"author": "_Brad Clardy_, Sep 19 2011",
			"references": 1,
			"revision": 25,
			"time": "2018-11-17T19:09:58-05:00",
			"created": "2011-09-20T13:31:52-04:00"
		}
	]
}