{
	"greeting": "Greetings from The On-Line Encyclopedia of Integer Sequences! http://oeis.org/",
	"query": "id:A195052",
	"count": 1,
	"start": 0,
	"results": [
		{
			"number": 195052,
			"data": "1,1,1,2,2,2,1,1,2,1,1,2,1,2,1,1,2,1,4,1,1,2,2,3,1,2,1,2,2,1,1,2,2,2,1,1,1,1,4,2,1,2,1,2,2,1,3,1,3,2,1,2,2,4,1,2,1,2,2,1,4,1,1,2,1,1,1,2,2,2,2,2,2,3,2,1,1,1,2,2,2,2,2,4,1,1",
			"name": "Number of divisors of 24*n - 1 divided by 2.",
			"comment": [
				"It appears that this sequence has the same parity as the spt function A092269 (See A195053). - Omar E. Pol, Jan 30 2012"
			],
			"link": [
				"G. E. Andrews, F. G. Garvan, and J. Liang, \u003ca href=\"http://www.math.psu.edu/andrews/pdf/289.pdf\"\u003eSelf-conjugate vector partitions and the parity of the spt-function\u003c/a\u003e"
			],
			"formula": [
				"a(n) = A000005(A183010(n))/2 = A195051(n)/2."
			],
			"xref": [
				"Cf. A000005, A092269, A134517, A183010, A183011, A195051, A195053."
			],
			"keyword": "nonn,easy",
			"offset": "1,4",
			"author": "_Omar E. Pol_, Jan 13 2012",
			"references": 2,
			"revision": 15,
			"time": "2012-03-30T17:34:06-04:00",
			"created": "2012-01-14T14:38:26-05:00"
		}
	]
}