{
	"greeting": "Greetings from The On-Line Encyclopedia of Integer Sequences! http://oeis.org/",
	"query": "id:A195120",
	"count": 1,
	"start": 0,
	"results": [
		{
			"number": 195120,
			"data": "0,1,1,1,2,2,2,2,3,3,3,3,4,4,4,5,5,5,5,6,6,6,6,7,7,7,7,8,8,8,9,9,9,9,10,10,10,10,11,11,11,11,12,12,12,13,13,13,13,14,14,14,14,15,15,15,16,16,16,16,17,17,17,17,18,18,18,18,19,19,19,20,20,20,20,21,21,21",
			"name": "a(n) = 2*n - floor(n*sqrt(3)).",
			"link": [
				"Vincenzo Librandi, \u003ca href=\"/A195120/b195120.txt\"\u003eTable of n, a(n) for n = 0..10000\u003c/a\u003e"
			],
			"program": [
				"(MAGMA) [2*n-Floor(n*Sqrt(3)): n in [0..70]]; // _Vincenzo Librandi_, Sep 12 2011"
			],
			"keyword": "nonn",
			"offset": "0,5",
			"author": "_Clark Kimberling_, Sep 09 2011",
			"references": 2,
			"revision": 10,
			"time": "2018-11-11T22:54:21-05:00",
			"created": "2011-09-09T17:24:08-04:00"
		}
	]
}