{
	"greeting": "Greetings from The On-Line Encyclopedia of Integer Sequences! http://oeis.org/",
	"query": "id:A195524",
	"count": 1,
	"start": 0,
	"results": [
		{
			"number": 195524,
			"data": "6247,860017,23663523,286168923,2106810049,11131321791,46387885537,161770028369,491117662815,1334411256817,3311007744155,7616624997827,16434220066785,33565300493927,65367853464305,122110269851089",
			"name": "Number of lower triangles of a 6X6 -n..n array with all row and column sums zero",
			"comment": [
				"Row 6 of A195522"
			],
			"link": [
				"R. H. Hardin, \u003ca href=\"/A195524/b195524.txt\"\u003eTable of n, a(n) for n = 1..37\u003c/a\u003e"
			],
			"formula": [
				"Empirical: a(n) = (7389349/90720)*n^10 + (7389349/18144)*n^9 + (836251/864)*n^8 + (4318165/3024)*n^7 + (6254923/4320)*n^6 + (4563293/4320)*n^5 + (10247161/18144)*n^4 + (249983/1134)*n^3 + (21959/360)*n^2 + (3469/315)*n + 1"
			],
			"example": [
				"Some solutions for n=4",
				"..0............0............0............0............0............0",
				"..2-2.........-1.1.........-1.1.........-4.4..........0.0..........0.0",
				"..3-4.1.......-1.3-2.......-1-3.4........1-2.1........0-1.1.......-2.1.1",
				".-1.3-4.2.....-2.4.2-4......2-3.2-1......1.3.0-4.....-2.2.3-3.....-2.4.0-2",
				".-1.3-1-2.1....1-4.4.2-3....3.4-3-3-1...-2-1.1.3-1...-1-1.0.1.1....1-1-2.0.2",
				".-3.0.4.0-1.0..3-4-4.2.3.0.-3.1-3.4.1.0..4-4-2.1.1.0..3.0-4.2-1.0..3-4.1.2-2.0"
			],
			"keyword": "nonn",
			"offset": "1,1",
			"author": "_R. H. Hardin_ Sep 20 2011",
			"references": 1,
			"revision": 5,
			"time": "2012-03-31T12:36:24-04:00",
			"created": "2011-09-20T04:18:27-04:00"
		}
	]
}