{
	"greeting": "Greetings from The On-Line Encyclopedia of Integer Sequences! http://oeis.org/",
	"query": "id:A196637",
	"count": 1,
	"start": 0,
	"results": [
		{
			"number": 196637,
			"data": "1,2,21,327,17518,2166536,665532327,513774394191,988444898540533,4764558471777983273",
			"name": "Number of n X n 0..4 arrays with each element x equal to the number of its horizontal and vertical neighbors equal to 1,4,2,0,3 for x=0,1,2,3,4",
			"comment": [
				"Every 0 is next to 0 1's, every 1 is next to 1 4's, every 2 is next to 2 2's, every 3 is next to 3 0's, every 4 is next to 4 3's",
				"Diagonal of A196641"
			],
			"example": [
				"Some solutions for n=4",
				"..2..2..2..2....0..0..0..0....0..0..3..0....0..0..3..0....0..3..0..0",
				"..2..0..0..2....0..3..3..0....0..0..0..0....0..0..0..3....0..0..3..0",
				"..2..2..2..2....0..0..0..3....3..0..0..0....0..0..0..0....0..0..2..2",
				"..0..0..0..0....0..3..0..0....0..0..3..0....0..0..0..0....0..0..2..2"
			],
			"keyword": "nonn",
			"offset": "1,2",
			"author": "_R. H. Hardin_ Oct 04 2011",
			"references": 0,
			"revision": 6,
			"time": "2015-12-18T18:17:48-05:00",
			"created": "2011-10-04T18:58:32-04:00"
		}
	]
}