{
	"greeting": "Greetings from The On-Line Encyclopedia of Integer Sequences! http://oeis.org/",
	"query": "id:A196366",
	"count": 1,
	"start": 0,
	"results": [
		{
			"number": 196366,
			"data": "5,14,16,16,64,21,69,30,150,80,55,32,272,33,35,57,130,205,70,430,119,96,624,266,77,413,854,352,160,65,91,185,117,693,78,102,198,560,319,80,682,85,286,455,336,145,385,221,110,112,208,448,285,510,799,176",
			"name": "Positive integers b for which there is a primitive (-5/2)-Pythagorean triple (a,b,c) satisfying a\u003c=b.",
			"comment": [
				"See A195770 for definitions of k-Pythagorean triple, primitive k-Pythagorean triple, and lists of related sequences."
			],
			"mathematica": [
				"(See A196362.)"
			],
			"xref": [
				"Cf. A195770, A196362, A196365, A196367, A196364."
			],
			"keyword": "nonn",
			"offset": "1,1",
			"author": "_Clark Kimberling_, Oct 01 2011",
			"references": 6,
			"revision": 5,
			"time": "2012-03-30T18:57:49-04:00",
			"created": "2011-10-01T20:18:00-04:00"
		}
	]
}