{
	"greeting": "Greetings from The On-Line Encyclopedia of Integer Sequences! http://oeis.org/",
	"query": "id:A196200",
	"count": 1,
	"start": 0,
	"results": [
		{
			"number": 196200,
			"data": "39270,53130,71610,78540,82110,106260,108570,117810,122430,143220,157080,159390,164010,164220,212520,214830,217140,235620,244860,246330,247170,286440,293370,314160,318780,325710,328020,328440,353430,367290,425040,429660,434280",
			"name": "Numbers k such that Euler phi(Dedekind psi(k)) \u003e k.",
			"comment": [
				"Counterexamples to a conjecture by Sandor."
			],
			"link": [
				"Amiram Eldar, \u003ca href=\"/A196200/b196200.txt\"\u003eTable of n, a(n) for n = 1..10000\u003c/a\u003e (terms 1..66 from Indranil Ghosh)",
				"Jozsef Sandor, \u003ca href=\"http://www.emis.de/journals/JIPAM/article546.html?sid=546\"\u003eOn the Composition of Some Arithmetic Functions, II\u003c/a\u003e, Journal of Inequalities in Pure and Applied Mathematics (JIPAM), Volume 6, Issue 3, Article 73, 2005."
			],
			"mathematica": [
				"Select[Range[39270, 434280], EulerPhi[# * Sum[MoebiusMu[d]^2 / d, {d, Divisors[#]}]] \u003e # \u0026] (* _Indranil Ghosh_, Mar 11 2017 *)"
			],
			"program": [
				"(PARI) a(m) = {for (n=1, m, if (eulerphi(n * sumdiv( n, d, moebius(d)^2 / d)) \u003e n, print1(n, \", \")););}"
			],
			"xref": [
				"Cf. A000010, A001615."
			],
			"keyword": "nonn",
			"offset": "1,1",
			"author": "_Michel Marcus_, Dec 21 2012",
			"references": 1,
			"revision": 31,
			"time": "2020-01-30T06:39:51-05:00",
			"created": "2012-12-22T14:57:25-05:00"
		}
	]
}