{
	"greeting": "Greetings from The On-Line Encyclopedia of Integer Sequences! http://oeis.org/",
	"query": "id:A196097",
	"count": 1,
	"start": 0,
	"results": [
		{
			"number": 196097,
			"data": "1,8,32,120,448,1672",
			"name": "Boundary of an n-ball in Novikov's hyperbolic triangular discretization of complex analysis.",
			"comment": [
				"One can discretize complex analysis by finding equivalents of the Cauchy-Riemann operator on various tilings of the complex plane. One of the solutions explored by Novikov is a plane of negative curvature analog to the Lobatchevskii plane made from triangles of alternative colors (black and white). a(n) gives the first terms of the length of the boundary of after n iterations.",
				"Terms have been computed by Novikov and Mike Boyle."
			],
			"reference": [
				"S.P. Novikov, New discretization of Complex Analysis: the Euclidean and Hyperbolic Planes, Proceedings of the Steklov Mathematical Institute of Mathematics, 273 (2011), 238-251. See pp248-250."
			],
			"keyword": "nonn",
			"offset": "0,2",
			"author": "_Olivier Gérard_, Oct 27 2011",
			"references": 1,
			"revision": 13,
			"time": "2012-03-30T17:20:22-04:00",
			"created": "2011-10-28T12:40:08-04:00"
		}
	]
}