{
	"greeting": "Greetings from The On-Line Encyclopedia of Integer Sequences! http://oeis.org/",
	"query": "id:A196144",
	"count": 1,
	"start": 0,
	"results": [
		{
			"number": 196144,
			"data": "12,62,85,346,1031,2599,7486,22292,61689,177057,510032,1448637,4132242,11862868,33916712,96889032,277372934,794009775,2271276412,6499360165,18601549495,53231495224,152336019308,435981877255,1247751132201",
			"name": "Number of nX6 0..4 arrays with each element x equal to the number its horizontal and vertical neighbors equal to 3,0,4,1,2 for x=0,1,2,3,4",
			"comment": [
				"Every 0 is next to 0 3's, every 1 is next to 1 0's, every 2 is next to 2 4's, every 3 is next to 3 1's, every 4 is next to 4 2's",
				"Column 6 of A196146"
			],
			"link": [
				"R. H. Hardin, \u003ca href=\"/A196144/b196144.txt\"\u003eTable of n, a(n) for n = 1..200\u003c/a\u003e"
			],
			"example": [
				"Some solutions for n=4",
				".1.1.3.1.0.0...1.1.0.0.0.0...0.0.1.1.0.0...0.0.0.0.0.1",
				".0.0.1.1.0.0...0.1.1.1.1.1...1.1.3.3.1.1...1.1.1.1.1.1",
				".0.0.1.1.0.0...1.1.1.1.1.1...3.1.1.1.1.1...3.1.1.1.1.0",
				".0.0.1.3.1.1...1.0.0.0.0.0...1.0.0.0.0.0...1.0.0.0.1.1"
			],
			"keyword": "nonn",
			"offset": "1,1",
			"author": "_R. H. Hardin_ Sep 28 2011",
			"references": 1,
			"revision": 5,
			"time": "2012-03-31T12:36:25-04:00",
			"created": "2011-09-28T08:28:33-04:00"
		}
	]
}