{
	"greeting": "Greetings from The On-Line Encyclopedia of Integer Sequences! http://oeis.org/",
	"query": "id:A196190",
	"count": 1,
	"start": 0,
	"results": [
		{
			"number": 196190,
			"data": "1,3,11,29,49,91,419,429,715,5135,12597,30039,68495,111419,766935,5272635,5892945,10855403,11475735,34427183,200476075,879640007,879640035,5987618721,9464300527,13456046341,33028477461,85307470993",
			"name": "Odd numbers n such that A196189(n) is odd.",
			"comment": [
				"No more terms up to 10000.",
				"a(29) \u003e 10^11. - _Robert Price_, Sep 26 2012"
			],
			"xref": [
				"Cf. A196189, A217092."
			],
			"keyword": "nonn,more",
			"offset": "1,2",
			"author": "_Franklin T. Adams-Watters_, Sep 28 2011",
			"ext": [
				"a(11)-a(28) from _Robert Price_, Sep 26 2012"
			],
			"references": 1,
			"revision": 11,
			"time": "2012-09-26T18:04:51-04:00",
			"created": "2011-09-28T17:02:00-04:00"
		}
	]
}