{
	"greeting": "Greetings from The On-Line Encyclopedia of Integer Sequences! http://oeis.org/",
	"query": "id:A196355",
	"count": 1,
	"start": 0,
	"results": [
		{
			"number": 196355,
			"data": "4,6,8,8,8,10,11,12,12,12,12,13,13,14,14,15,16,16,16,17,18,20,20,21,22,24,24,24,24,24,24,26,26,27,28,28,28,29,30,30,30,31,32,32,32,33,34,35,36,36,36,36,38,39,39,40,40,40,40,40,42,42,42,43,44,44,44,45",
			"name": "Positive integers a for which there is a (1/8)-Pythagorean triple (a,b,c) satisfying a\u003c=b.",
			"comment": [
				"See A195770 for definitions of k-Pythagorean triple, primitive k-Pythagorean triple, and lists of related sequences."
			],
			"mathematica": [
				"z8 = 900; z9 = 250; z7 = 200;",
				"k = 1/8; c[a_, b_] := Sqrt[a^2 + b^2 + k*a*b];",
				"d[a_, b_] := If[IntegerQ[c[a, b]], {a, b, c[a, b]}, 0]",
				"t[a_] := Table[d[a, b], {b, a, z8}]",
				"u[n_] := Delete[t[n], Position[t[n], 0]]",
				"Table[u[n], {n, 1, 15}]",
				"t = Table[u[n], {n, 1, z8}];",
				"Flatten[Position[t, {}]]",
				"u = Flatten[Delete[t, Position[t, {}]]];",
				"x[n_] := u[[3 n - 2]];",
				"Table[x[n], {n, 1, z7}]  (* A196355 *)",
				"y[n_] := u[[3 n - 1]];",
				"Table[y[n], {n, 1, z7}]  (* A196356 *)",
				"z[n_] := u[[3 n]];",
				"Table[z[n], {n, 1, z7}]  (* A196357 *)",
				"x1[n_] := If[GCD[x[n], y[n], z[n]] == 1, x[n], 0]",
				"y1[n_] := If[GCD[x[n], y[n], z[n]] == 1, y[n], 0]",
				"z1[n_] := If[GCD[x[n], y[n], z[n]] == 1, z[n], 0]",
				"f = Table[x1[n], {n, 1, z9}];",
				"x2 = Delete[f, Position[f, 0]]  (* A196358 *)",
				"g = Table[y1[n], {n, 1, z9}];",
				"y2 = Delete[g, Position[g, 0]]  (* A196359 *)",
				"h = Table[z1[n], {n, 1, z9}];",
				"z2 = Delete[h, Position[h, 0]]  (* A196360 *)"
			],
			"xref": [
				"Cf. A195770, A196356, A196357, A196358."
			],
			"keyword": "nonn",
			"offset": "1,1",
			"author": "_Clark Kimberling_, Oct 01 2011",
			"references": 7,
			"revision": 8,
			"time": "2012-03-30T18:57:49-04:00",
			"created": "2011-10-01T20:20:12-04:00"
		}
	]
}