{
	"greeting": "Greetings from The On-Line Encyclopedia of Integer Sequences! http://oeis.org/",
	"query": "id:A196521",
	"count": 1,
	"start": 0,
	"results": [
		{
			"number": 196521,
			"data": "4,3,8,8,2,4,5,7,3,1,1,7,4,7,5,6,5,4,9,0,7,0,4,4,7,8,5,0,9,0,7,8,7,4,3,7,0,1,1,5,4,2,2,8,2,6,6,3,6,4,8,8,2,8,1,8,3,3,9,6,1,4,3,3,3,0,2,5,7,2,9,0,5,8,6",
			"name": "Decimal expansion of Pi/4-log(2)/2.",
			"reference": [
				"L. B. W. Jolley, Summation of series, Dover Publications Inc., New York, 1961, p. 14 (eq. 72)."
			],
			"link": [
				"Jean-Paul Allouche and Jeffrey Shallit, \u003ca href=\"https://doi.org/10.1007/BFb0097122\"\u003eSums of digits and the Hurwitz zeta function\u003c/a\u003e, in: K. Nagasaka and E. Fouvry (eds.), Analytic Number Theory, Lecture Notes in Mathematics, Vol. 1434, Springer, Berlin, Heidelberg, 1990, pp. 19-30."
			],
			"formula": [
				"Equals 1 - 1/2 - 1/3 + 1/4 + 1/5 - ....",
				"Equals Sum_{n\u003e=0} 2/((4*n+2)*(4*n+3)). - _Peter Luschny_, Dec 06 2013",
				"Equals Sum_{n\u003e=1} (-1)^(n+1)/((2*n-1)*(2*n)). - _Robert FERREOL_, Dec 14 2015",
				"Equals Integral_{x=0..1} (arctan(x)) dx = Integral_{x=0..Pi/4} (x / cos(x)^2) dx = Integral_{x=0..1/sqrt(2)} (arcsin(x)/(1-x^2)^(3/2)) dx. - _Robert FERREOL_, Dec 14 2015",
				"Equals Integral_{x\u003e=0} (exp(x) - 1)/(exp(2*x) + 1) dx. - _Peter Bala_, Nov 01 2019",
				"From _Bernard Schott_, Sep 07 2020: (Start)",
				"Equals Sum_{n\u003e=1} (-1)^(n*(n-1)/2) / n [compare with A231902 formula].",
				"Equals Sum_{n\u003e=0} (8*n+5) / (4*(n+1)*(2*n+1)*(4*n+1)*(4*n+3)). (End)",
				"Equals Sum_{k\u003e=1} A033264(k)/(k*(k+1)) (Allouche and Shallit, 1990). - _Amiram Eldar_, Jun 01 2021"
			],
			"example": [
				"0.438824573117475654907044785090787437011542282663648828183396143330257..."
			],
			"maple": [
				"Digits:=100; evalf(Pi/4-log(2)/2); # _Wesley Ivan Hurt_, Dec 06 2013"
			],
			"mathematica": [
				"RealDigits[Pi/4 - Log[2]/2, 10, 100] (* _Wesley Ivan Hurt_, Dec 06 2013 *)"
			],
			"program": [
				"(PARI) Pi/4-log(2)/2 \\\\ _Altug Alkan_, Dec 14 2015"
			],
			"xref": [
				"Cf. A003881, A016655 (10*log(2)/2)), A033264.",
				"Cf. A231902 (Pi/4+log(2)/2)."
			],
			"keyword": "nonn,cons,easy",
			"offset": "0,1",
			"author": "_R. J. Mathar_, Oct 03 2011",
			"references": 3,
			"revision": 50,
			"time": "2021-06-01T02:15:23-04:00",
			"created": "2011-10-03T12:52:00-04:00"
		}
	]
}