{
	"greeting": "Greetings from The On-Line Encyclopedia of Integer Sequences! http://oeis.org/",
	"query": "id:A196402",
	"count": 1,
	"start": 0,
	"results": [
		{
			"number": 196402,
			"data": "1,4,5,3,6,7,3,6,6,6,4,6,1,0,4,1,6,1,8,6,8,4,3,4,3,5,6,8,1,2,7,3,4,0,0,6,4,4,5,9,5,8,8,0,6,1,9,2,1,7,4,2,7,6,2,5,6,3,4,2,4,5,1,1,3,4,3,4,1,5,8,0,3,6,1,6,5,2,4,5,9,9,3,9,8,5,4,6,5,2,6,4,3,0,8,0,5,7,3,4",
			"name": "Decimal expansion of the least positive number x satisfying e^(-x)=2*cos(x).",
			"example": [
				"x=1.45367366646104161868434356812734006445958806..."
			],
			"mathematica": [
				"Plot[{E^(-x), Cos[x], 2 Cos[x], 3 Cos[x], 4 Cos[x]}, {x, 0, Pi/2}]",
				"t = x /. FindRoot[E^(-x) == Cos[x], {x, 1, 1.6}, WorkingPrecision -\u003e 100];",
				"RealDigits[t]  (* A196401 *)",
				"t = x /. FindRoot[E^(-x) == 2 Cos[x], {x, 1, 1.6}, WorkingPrecision -\u003e 100]; RealDigits[t]  (* A196402 *)",
				"t = x /. FindRoot[E^(-x) == 3 Cos[x], {x, 1, 1.6}, WorkingPrecision -\u003e 100]; RealDigits[t]  (* A196403 *)",
				"t = x /. FindRoot[E^(-x) == 4 Cos[x], {x, 1, 1.6}, WorkingPrecision -\u003e 100]; RealDigits[t]  (* A196404 *)",
				"t = x /. FindRoot[E^(-x) == 5 Cos[x], {x, 1, 1.6}, WorkingPrecision -\u003e 100]; RealDigits[t]  (* A196405 *)",
				"t = x /. FindRoot[E^(-x) == 6 Cos[x], {x, 1, 1.6}, WorkingPrecision -\u003e 100]; RealDigits[t]  (* A196406 *)"
			],
			"xref": [
				"Cf. A196401."
			],
			"keyword": "nonn,cons",
			"offset": "1,2",
			"author": "_Clark Kimberling_, Oct 02 2011",
			"references": 6,
			"revision": 6,
			"time": "2012-03-30T18:57:50-04:00",
			"created": "2011-10-02T21:14:08-04:00"
		}
	]
}