{
	"greeting": "Greetings from The On-Line Encyclopedia of Integer Sequences! http://oeis.org/",
	"query": "id:A196722",
	"count": 1,
	"start": 0,
	"results": [
		{
			"number": 196722,
			"data": "1,2,4,7,11,16,23,30,38,47,58,69,83,96,111,128,144,161,181,200,223,246,269,292,319,344,371,398,429,458,496,527,559,594,629,668,708,745,784,825,870,911,962,1005,1052,1102,1149,1196,1248,1297,1349,1402,1457,1510",
			"name": "Number of subsets of {1..n} (including empty set) such that the pairwise LCMs of elements are not distinct.",
			"comment": [
				"All pairwise LCMs of each subset are equal if there are any."
			],
			"link": [
				"Alois P. Heinz, \u003ca href=\"/A196722/b196722.txt\"\u003eTable of n, a(n) for n = 0..1000\u003c/a\u003e"
			],
			"example": [
				"A(6) = 23: {}, {1}, {2}, {3}, {4}, {5}, {6}, {1,2}, {1,3}, {1,4}, {1,5}, {1,6}, {2,3}, {2,4}, {2,5}, {2,6}, {3,4}, {3,5}, {3,6}, {4,5}, {4,6}, {5,6}, {2,3,6}."
			],
			"maple": [
				"b:= proc(n, s) local sn, m;",
				"      m:= nops(s);",
				"      sn:= [s[], n];",
				"      `if`(n\u003c1, 1, b(n-1, s) +`if`(1 \u003e= nops(({seq(seq(",
				"           ilcm(sn[i], sn[j]), j=i+1..m+1), i=1..m)})), b(n-1, sn), 0))",
				"    end:",
				"a:= proc(n) option remember;",
				"      b(n-1, [n]) +`if`(n=0, 0, a(n-1))",
				"    end:",
				"seq(a(n), n=0..50);"
			],
			"mathematica": [
				"b[n_, s_] := b[n, s] = Module[{sn, m}, m = Length[s]; sn = Append[s, n]; If[n\u003c1, 1, b[n-1, s] + If[1 \u003e= Length @ Union @ Flatten @ Table[ LCM[ sn[[i]], sn[[j]]], {i, 1, m}, {j, i+1, m+1}], b[n-1, sn], 0]]];",
				"a[n_] := a[n] = b[n-1, {n}] + If[n == 0, 0, a[n-1]];",
				"Table[a[n], {n, 0, 60}] (* _Jean-François Alcover_, Apr 12 2017, translated from Maple *)"
			],
			"xref": [
				"Cf. A143823, A196719, A196720, A196721, A196723, A196724."
			],
			"keyword": "nonn",
			"offset": "0,2",
			"author": "_Alois P. Heinz_, Oct 05 2011",
			"references": 6,
			"revision": 12,
			"time": "2017-04-12T15:21:42-04:00",
			"created": "2011-10-07T12:13:53-04:00"
		}
	]
}