{
	"greeting": "Greetings from The On-Line Encyclopedia of Integer Sequences! http://oeis.org/",
	"query": "id:A196096",
	"count": 1,
	"start": 0,
	"results": [
		{
			"number": 196096,
			"data": "0,0,0,0,1,0,0,0,0,0,0,0,1,2,1,0,0,0,0,0,0,0,1,0,0,0,0,0,0,0,0,1,0,0,0,0,1,1,1,2,3,2,1,1,1,0,0,0,0,1,0,0,0,0,0,0,0,0,1,0,0,0,0,0,0,0,1,2,1,0,0,0,0,0,0,0,1,0,0,0,0,0,0,0,0,1",
			"name": "Occurrences of '11' in base 3 expansion of n.",
			"comment": [
				"Occurrences of '11' in A007089(n). This is to base 3 and A007089 as A014081 is to base 2 A007088.",
				"First occurrence of k\u003e0 = 4, 13, 40, 121, 364, ..., = A003462(k). (* _Robert G. Wilson v_, Sep 27 2011 *)"
			],
			"link": [
				"T. D. Noe, \u003ca href=\"/A196096/b196096.txt\"\u003eTable of n, a(n) for n = 0..1000\u003c/a\u003e"
			],
			"example": [
				"a(4) = 1 because 4 in base 3 is \"11\" which has one instance of \"11\".",
				"a(13) = 2 because the number 13 in base 3 is \"111\" which has two substrings of \"11\"."
			],
			"maple": [
				"A196096 := proc(n)",
				"        local a,dgs3 ;",
				"        a := 0 ;",
				"        dgs3 := convert(n,base,3) ;",
				"        for i from 1 to nops(dgs3)-1 do",
				"                if op(i,dgs3)=1 and op(i+1,dgs3)=1 then",
				"                        a := a+1 ;",
				"                end if;",
				"        end do;",
				"        a ;",
				"end proc:",
				"seq(A196096(n),n=0..80) ; # _R. J. Mathar_, Sep 28 2011"
			],
			"mathematica": [
				"f[n_] := Count[ Partition[ IntegerDigits[ n, 3], 2, 1], {1, 1}]; Array[f, 100, 0] (* _Robert G. Wilson v_, Sep 27 2011 *)"
			],
			"xref": [
				"Cf. A007089, A014081."
			],
			"keyword": "easy,nonn",
			"offset": "0,14",
			"author": "_Jonathan Vos Post_, Sep 27 2011",
			"references": 2,
			"revision": 16,
			"time": "2013-11-29T21:20:27-05:00",
			"created": "2011-09-28T15:50:28-04:00"
		}
	]
}