{
	"greeting": "Greetings from The On-Line Encyclopedia of Integer Sequences! http://oeis.org/",
	"query": "id:A196594",
	"count": 1,
	"start": 0,
	"results": [
		{
			"number": 196594,
			"data": "4,4,6,6,7,8,8,9,10,10",
			"name": "Maximum number of floors with 4 elevators and s stops.",
			"reference": [
				"David Rhee and Jerry Lo, Mathematical Wizardy for A Gardener, pp. 165-173."
			],
			"link": [
				"Erich Friedman, \u003ca href=\"https://erich-friedman.github.io/mathmagic/1109.html\"\u003eProblem of the month November 2009\u003c/a\u003e"
			],
			"keyword": "nonn,more",
			"offset": "1,1",
			"author": "_Kausthub Gudipati_, Oct 04 2011",
			"references": 0,
			"revision": 11,
			"time": "2020-08-13T14:02:28-04:00",
			"created": "2011-10-17T14:53:41-04:00"
		}
	]
}