{
	"greeting": "Greetings from The On-Line Encyclopedia of Integer Sequences! http://oeis.org/",
	"query": "id:A196357",
	"count": 1,
	"start": 0,
	"results": [
		{
			"number": 196357,
			"data": "11,29,14,22,64,133,193,19,33,58,287,28,449,47,781,106,28,44,128,154,87,55,266,131,386,38,42,66,116,192,574,56,898,71,77,94,313,133,145,212,399,451,56,88,256,579,308,82,57,99,174,861,73,77,84,70,98,110",
			"name": "Positive integers c for which there is a (1/8)-Pythagorean triple (a,b,c) satisfying a\u003c=b.",
			"comment": [
				"See A195770 for definitions of k-Pythagorean triple, primitive k-Pythagorean triple, and lists of related sequences."
			],
			"mathematica": [
				"(See A196355.)"
			],
			"xref": [
				"Cf. A195770, A196355, A196356, A196358, A196360."
			],
			"keyword": "nonn",
			"offset": "1,1",
			"author": "_Clark Kimberling_, Oct 01 2011",
			"references": 4,
			"revision": 5,
			"time": "2012-03-30T18:57:49-04:00",
			"created": "2011-10-01T20:19:49-04:00"
		}
	]
}