{
	"greeting": "Greetings from The On-Line Encyclopedia of Integer Sequences! http://oeis.org/",
	"query": "id:A196731",
	"count": 1,
	"start": 0,
	"results": [
		{
			"number": 196731,
			"data": "1,11,132,1584,19008,228096,2737152,32845824,394149888,4729798656,56757583872,681091006464,8173092077568,98077104930816,1176925259169792,14123103110037504,169477237320450048",
			"name": "Expansion of (1-x)/(1-12*x).",
			"link": [
				"\u003ca href=\"/index/Rec#order_01\"\u003eIndex entries for linear recurrences with constant coefficients\u003c/a\u003e, signature (12)."
			],
			"formula": [
				"a(n) = Sum_{k=0..n} A193722(n,k)*9^(n-k).",
				"a(n+1) = 12*a(n) for n \u003e 0. - _M. F. Hasler_, Oct 05 2011"
			],
			"mathematica": [
				"Join[{1},NestList[12#\u0026,11,20]] (* _Harvey P. Dale_, Sep 19 2018 *)"
			],
			"program": [
				"(PARI) a(n)=if(n,11*12^n--,1) \\\\ _Charles R Greathouse IV_, Oct 05 2011",
				"(PARI) a(n)=(11+!n)*12^(n-1)  \\\\ _M. F. Hasler_, Oct 05 2011"
			],
			"xref": [
				"Cf. A025192, A002001, A005054, A052934, A055272, A055274, A055276, A055276."
			],
			"keyword": "nonn,easy",
			"offset": "0,2",
			"author": "_Philippe Deléham_, Oct 05 2011",
			"references": 2,
			"revision": 18,
			"time": "2021-01-27T10:13:17-05:00",
			"created": "2011-10-05T22:46:09-04:00"
		}
	]
}