{
	"greeting": "Greetings from The On-Line Encyclopedia of Integer Sequences! http://oeis.org/",
	"query": "id:A197254",
	"count": 1,
	"start": 0,
	"results": [
		{
			"number": 197254,
			"data": "0,1,5,7,0,6,8,4,9,5,3,1,6,2,0,0,6,5,0,5,8,1,7,7,0,3,0,2,0,8,5,2,6,0,3,6,3,9,0,0,4,1,7,7,4,8,8,0,0,3,1,2,6,3,1,0,8,5,0,9,0,7,6,7,8,4,2,7,2,2,6,1,5,7,2,8,2,6,5,4,9,2,5,7,5,8,5,7,0,8,2,0,4,1,2,7,0,4,4,9,0",
			"name": "Decimal expansion of least x\u003e0 having sin(x)=(sin 8x)^2.",
			"comment": [
				"The Mathematica program includes a graph.  See A197133 for a guide to least x\u003e0 satisfying sin(b*x)=(sin(c*x))^2 for selected b and c."
			],
			"example": [
				"x=0.0157068495316200650581770302085260363..."
			],
			"mathematica": [
				"b = 1; c = 8; f[x_] := Sin[x]",
				"t = x /. FindRoot[f[b*x] == f[c*x]^2, {x, .01, .1}, WorkingPrecision -\u003e 100]",
				"RealDigits[t] (* A197254 *)",
				"Plot[{f[b*x], f[c*x]^2}, {x, 0, 0.05}]"
			],
			"xref": [
				"Cf. A197133."
			],
			"keyword": "nonn,cons",
			"offset": "0,3",
			"author": "_Clark Kimberling_, Oct 12 2011",
			"references": 2,
			"revision": 8,
			"time": "2013-01-22T05:26:46-05:00",
			"created": "2011-10-12T16:24:46-04:00"
		}
	]
}