{
	"greeting": "Greetings from The On-Line Encyclopedia of Integer Sequences! http://oeis.org/",
	"query": "id:A197807",
	"count": 1,
	"start": 0,
	"results": [
		{
			"number": 197807,
			"data": "1,1,3,0,6,1,9,0,7,2,7,7,6,3,9,4,9,6,1,2,8,8,6,5,0,0,5,8,9,4,5,4,0,6,8,7,0,2,7,8,6,0,8,7,8,8,9,6,9,4,2,4,3,8,5,4,2,0,9,1,2,5,6,4,6,8,5,8,7,7,4,5,8,3,3,4,1,9,9,5,8,5,0,5,3,0,9,6,7,8,3,5,6,7,0,6,5,8,5",
			"name": "Decimal expansion of x\u003e0 having x^2=3*cos(x).",
			"comment": [
				"See A197737 for a guide to related sequences.  The Mathematica program includes a graph."
			],
			"example": [
				"x=1.13061907277639496128865005894540687027860878..."
			],
			"mathematica": [
				"a = 1; b = 0; c = 3;",
				"f[x_] := a*x^2 + b*x; g[x_] := c*Cos[x]",
				"Plot[{f[x], g[x]}, {x, -1.5, 1.5}]",
				"r1 = x /. FindRoot[f[x] == g[x], {x, 1.1, 1.2}, WorkingPrecision -\u003e 110]",
				"RealDigits[r1] (* A197807 *)"
			],
			"xref": [
				"Cf. A197737."
			],
			"keyword": "nonn,cons",
			"offset": "1,3",
			"author": "_Clark Kimberling_, Oct 20 2011",
			"references": 3,
			"revision": 5,
			"time": "2012-03-30T18:57:53-04:00",
			"created": "2011-10-20T20:38:21-04:00"
		}
	]
}