{
	"greeting": "Greetings from The On-Line Encyclopedia of Integer Sequences! http://oeis.org/",
	"query": "id:A197571",
	"count": 1,
	"start": 0,
	"results": [
		{
			"number": 197571,
			"data": "2,7,5,1,5,5,8,5,5,0,7,9,9,8,7,5,1,3,7,7,0,9,8,5,8,2,0,9,0,2,1,3,7,9,7,2,2,0,8,2,9,6,6,3,1,4,4,8,2,5,9,1,7,9,4,0,3,3,8,1,4,8,3,7,7,4,2,8,3,1,1,3,6,0,2,5,8,1,1,1,1,1,6,0,0,0,7,8,3,7,4,1,4,9,6,5,4,9,3",
			"name": "Decimal expansion of least x \u003e 0 having cos(x) = cos(3*Pi*x)^2.",
			"comment": [
				"The Mathematica program includes a graph. See A197476 for a guide for the least x \u003e 0 satisfying cos(b*x) = cos(c*x)^2 for selected b and c."
			],
			"example": [
				"x=0.275155855079987513770985820902137972..."
			],
			"mathematica": [
				"b = 1; c = 3*Pi; f[x_] := Sin[x]",
				"t = x /. FindRoot[f[b*x] == f[c*x]^2, {x, .27, .28}, WorkingPrecision -\u003e 200]",
				"RealDigits[t] (* A197571 *)",
				"Plot[{f[b*x], f[c*x]^2}, {x, 0, .5}]"
			],
			"xref": [
				"Cf. A197133."
			],
			"keyword": "nonn,cons",
			"offset": "0,1",
			"author": "_Clark Kimberling_, Oct 16 2011",
			"references": 2,
			"revision": 10,
			"time": "2021-04-10T23:59:37-04:00",
			"created": "2011-10-16T22:48:21-04:00"
		}
	]
}