{
	"greeting": "Greetings from The On-Line Encyclopedia of Integer Sequences! http://oeis.org/",
	"query": "id:A197422",
	"count": 1,
	"start": 0,
	"results": [
		{
			"number": 197422,
			"data": "1103,9281,10949,12157,26921,48757,61949,87407,92459,95923,124087,162859,198811,289417,363809,467183,530983,754981,792307,830677,1124051,1537373,1662307,1706251,1830401,2023183,2507963,2534879,3358099,3616721,3912901,3929707",
			"name": "Primes of the form sum_{j=1..n} (-1)^j *prime(j)*prime(j+1).",
			"comment": [
				"We select primes in the alternating partial sums of A006094 (which start -6, 9, -26, 51, -92, 129, -194, 243,...).",
				"The corresponding values of n are 14, 32, 34, 36, 50, 64, 70, 80,..."
			],
			"link": [
				"Harvey P. Dale, \u003ca href=\"/A197422/b197422.txt\"\u003eTable of n, a(n) for n = 1..1000\u003c/a\u003e"
			],
			"example": [
				"For n = 14, a(1) = 1103 = - 2*3 + 3*5 - 5*7 + ....+ 43*47 where 43 = prime(14) and 47 = prime(15)."
			],
			"maple": [
				"p:=0:for n from 1 to 500 do:p:=p+((-1)^n)* ithprime(n)*ithprime(n+1):if type(p,prime)=true then printf(`%d, `,p): else fi:od:"
			],
			"mathematica": [
				"Select[Accumulate[Times@@@Partition[Riffle[Times@@@Partition[ Prime[ Range[ 500]],2,1],{-1,1},{2,-1,2}],2]],PrimeQ] (* _Harvey P. Dale_, Feb 17 2015 *)"
			],
			"xref": [
				"Cf. A197421."
			],
			"keyword": "nonn",
			"offset": "1,1",
			"author": "_Michel Lagneau_, Oct 14 2011",
			"references": 1,
			"revision": 10,
			"time": "2015-02-17T10:46:53-05:00",
			"created": "2011-10-14T19:05:31-04:00"
		}
	]
}