{
	"greeting": "Greetings from The On-Line Encyclopedia of Integer Sequences! http://oeis.org/",
	"query": "id:A197835",
	"count": 1,
	"start": 0,
	"results": [
		{
			"number": 197835,
			"data": "3,7,0,4,4,9,4,4,4,1,4,8,2,7,9,8,5,5,1,4,3,8,9,5,5,1,3,0,6,3,6,4,4,2,7,7,7,7,3,3,3,5,9,4,6,2,6,7,4,6,8,3,6,5,1,4,3,0,8,1,8,1,7,8,4,3,4,4,4,4,6,0,1,2,4,0,8,0,8,2,3,6,2,5,7,6,5,5,7,3,5,5,0,9,0,9,9,9,4",
			"name": "Decimal expansion of least x\u003e0 satisfying f(x)=m/2, where m is the maximal value of f(x)=(cos(x))^2+(sin(3*Pi*x))^2.",
			"comment": [
				"For a discussion and guide to related sequences, see A197739."
			],
			"example": [
				"x=0.37044944414827985514389551306364427777..."
			],
			"mathematica": [
				"(See the program at A197833.)"
			],
			"xref": [
				"Cf. A197739, A197833."
			],
			"keyword": "nonn,cons",
			"offset": "0,1",
			"author": "_Clark Kimberling_, Oct 19 2011",
			"references": 2,
			"revision": 5,
			"time": "2012-03-30T18:57:53-04:00",
			"created": "2011-10-19T17:49:04-04:00"
		}
	]
}