{
	"greeting": "Greetings from The On-Line Encyclopedia of Integer Sequences! http://oeis.org/",
	"query": "id:A197215",
	"count": 1,
	"start": 0,
	"results": [
		{
			"number": 197215,
			"data": "1,37,479,5982,84893,1130812,15034832,202026037,2712108937,36354079627,487366238398,6535360303819,87635492801648,1175117242216066,15757048234536205,211285700462837436,2833150080279284040",
			"name": "Number of nX6 0..4 arrays with each element x equal to the number its horizontal and vertical neighbors equal to 4,3,2,1,0 for x=0,1,2,3,4",
			"comment": [
				"Every 0 is next to 0 4's, every 1 is next to 1 3's, every 2 is next to 2 2's, every 3 is next to 3 1's, every 4 is next to 4 0's",
				"Column 6 of A197217"
			],
			"link": [
				"R. H. Hardin, \u003ca href=\"/A197215/b197215.txt\"\u003eTable of n, a(n) for n = 1..210\u003c/a\u003e"
			],
			"example": [
				"Some solutions for n=4",
				"..0..0..2..2..0..0....0..0..2..2..0..0....0..0..0..1..3..1....0..0..2..2..2..0",
				"..1..0..2..2..0..0....0..1..2..2..0..1....1..3..1..0..1..1....2..2..2..0..2..2",
				"..3..1..0..0..0..0....1..3..0..0..1..3....0..1..0..1..1..3....2..0..0..0..0..2",
				"..1..0..0..0..0..0....0..1..0..0..0..1....0..0..1..3..1..1....2..2..2..2..2..2"
			],
			"keyword": "nonn",
			"offset": "1,2",
			"author": "_R. H. Hardin_ Oct 11 2011",
			"references": 1,
			"revision": 5,
			"time": "2012-03-31T12:36:29-04:00",
			"created": "2011-10-11T14:57:34-04:00"
		}
	]
}