{
	"greeting": "Greetings from The On-Line Encyclopedia of Integer Sequences! http://oeis.org/",
	"query": "id:A197902",
	"count": 1,
	"start": 0,
	"results": [
		{
			"number": 197902,
			"data": "1,4,10,54,453,2632,38088,648219,13492068,444723130",
			"name": "Number of nXnXn 0..6 triangular arrays with each element x equal to the number its neighbors equal to 4,0,1,4,1,0,1 for x=0,1,2,3,4,5,6",
			"comment": [
				"Every 0 is next to 0 4's, every 1 is next to 1 0's, every 2 is next to 2 1's, every 3 is next to 3 4's, every 4 is next to 4 1's, every 5 is next to 5 0's, every 6 is next to 6 1's"
			],
			"example": [
				"Some solutions with all values from 0 to 6 for 8X8X8",
				".........0................0................0................0",
				"........1.1..............1.1..............0.0..............0.0",
				".......1.6.1............1.6.1............0.2.1............0.5.0",
				"......0.1.1.0..........0.1.1.0..........1.1.4.1..........0.0.2.1",
				".....1.1.4.2.0........0.2.4.1.1........1.4.3.1.0........0.2.1.4.1",
				"....1.4.3.1.0.0......0.0.1.3.4.1......0.2.1.4.1.1......1.1.4.3.1.0",
				"...0.2.1.4.2.5.0....0.5.2.4.1.2.0....0.5.0.2.1.6.1....1.6.1.1.4.2.0",
				"..0.0.0.1.1.0.0.0..0.0.0.1.1.0.0.0..0.0.0.0.0.1.1.0..0.1.1.0.1.1.0.0"
			],
			"keyword": "nonn",
			"offset": "1,2",
			"author": "_R. H. Hardin_ Oct 19 2011",
			"references": 0,
			"revision": 4,
			"time": "2012-03-31T12:36:31-04:00",
			"created": "2011-10-19T01:01:14-04:00"
		}
	]
}