{
	"greeting": "Greetings from The On-Line Encyclopedia of Integer Sequences! http://oeis.org/",
	"query": "id:A197668",
	"count": 1,
	"start": 0,
	"results": [
		{
			"number": 197668,
			"data": "5,71,546,5005,44323,403960,3675345,33272751,301565202,2734015025,24796812073,224875172500,2039110071283,18490725428895,167679905896100,1520586052304877,13789181642921163,125044668702632018",
			"name": "Number of nX4 0..4 arrays with each element x equal to the number its horizontal and vertical neighbors equal to 4,0,1,0,1 for x=0,1,2,3,4",
			"comment": [
				"Every 0 is next to 0 4's, every 1 is next to 1 0's, every 2 is next to 2 1's, every 3 is next to 3 0's, every 4 is next to 4 1's",
				"Column 4 of A197672"
			],
			"link": [
				"R. H. Hardin, \u003ca href=\"/A197668/b197668.txt\"\u003eTable of n, a(n) for n = 1..210\u003c/a\u003e"
			],
			"example": [
				"Some solutions containing all values 0 to 4 for n=5",
				"..0..0..0..1....0..2..1..0....1..0..1..2....0..2..1..0....0..1..1..0",
				"..0..3..0..1....0..1..4..1....2..1..4..1....0..1..4..1....1..4..1..2",
				"..1..1..0..1....0..2..1..2....0..2..1..0....2..1..1..1....2..1..0..1",
				"..1..4..1..2....3..0..0..0....3..0..2..0....1..0..0..0....0..3..0..1",
				"..0..1..1..0....0..3..0..0....0..0..1..1....1..0..3..0....0..0..0..1"
			],
			"keyword": "nonn",
			"offset": "1,1",
			"author": "_R. H. Hardin_ Oct 17 2011",
			"references": 1,
			"revision": 5,
			"time": "2012-03-31T12:36:30-04:00",
			"created": "2011-10-17T07:36:16-04:00"
		}
	]
}