{
	"greeting": "Greetings from The On-Line Encyclopedia of Integer Sequences! http://oeis.org/",
	"query": "id:A197044",
	"count": 1,
	"start": 0,
	"results": [
		{
			"number": 197044,
			"data": "5,203,4080,79785,1563352,31096170,621506173,12367566377,246209727883,4904183446578,97655063600656,1944656969992804,38726607687532464,771192417913040813,15357390085688256362,305826177600042178901",
			"name": "Number of nX5 0..4 arrays with each element x equal to the number its horizontal and vertical neighbors equal to 4,2,0,1,3 for x=0,1,2,3,4",
			"comment": [
				"Every 0 is next to 0 4's, every 1 is next to 1 2's, every 2 is next to 2 0's, every 3 is next to 3 1's, every 4 is next to 4 3's",
				"Column 5 of A197047"
			],
			"link": [
				"R. H. Hardin, \u003ca href=\"/A197044/b197044.txt\"\u003eTable of n, a(n) for n = 1..200\u003c/a\u003e"
			],
			"example": [
				"Some solutions for n=4",
				"..0..0..1..0..2....2..0..2..1..0....1..0..0..2..0....0..0..1..2..0",
				"..2..2..2..0..0....0..0..0..0..0....2..0..0..1..0....0..1..0..0..2",
				"..0..0..0..0..0....1..2..0..1..2....0..2..1..0..2....0..2..1..0..2",
				"..0..2..2..0..0....0..2..0..0..0....0..2..0..0..1....0..0..0..0..0"
			],
			"keyword": "nonn",
			"offset": "1,1",
			"author": "_R. H. Hardin_ Oct 08 2011",
			"references": 2,
			"revision": 5,
			"time": "2012-03-31T12:36:28-04:00",
			"created": "2011-10-08T19:55:04-04:00"
		}
	]
}