{
	"greeting": "Greetings from The On-Line Encyclopedia of Integer Sequences! http://oeis.org/",
	"query": "id:A197760",
	"count": 1,
	"start": 0,
	"results": [
		{
			"number": 197760,
			"data": "6,4,3,1,7,1,9,7,5,4,2,1,1,8,4,1,5,9,5,6,6,6,5,6,2,5,7,5,3,5,8,0,2,6,8,0,3,3,9,6,3,8,0,6,4,7,3,5,2,2,4,7,1,7,5,2,8,3,7,6,6,2,3,2,0,3,6,7,7,8,1,3,2,4,7,1,1,9,2,0,8,8,3,4,6,0,0,1,8,9,6,4,0,8,1,6,1,0,4",
			"name": "Decimal expansion of least x\u003e0 satisfying f(x)=m/2, where m is the maximal value of f(x)=(cos(x))^2+(sin(4x))^2.",
			"comment": [
				"For a discussion and guide to related sequences, see A197739."
			],
			"example": [
				"x=0.6431719754211841595666562575358026803396..."
			],
			"mathematica": [
				"(See the program at A197758.)"
			],
			"xref": [
				"Cf. A197739"
			],
			"keyword": "nonn,cons",
			"offset": "0,1",
			"author": "_Clark Kimberling_, Oct 19 2011",
			"references": 2,
			"revision": 6,
			"time": "2012-03-30T18:57:53-04:00",
			"created": "2011-10-19T17:51:34-04:00"
		}
	]
}