{
	"greeting": "Greetings from The On-Line Encyclopedia of Integer Sequences! http://oeis.org/",
	"query": "id:A197253",
	"count": 1,
	"start": 0,
	"results": [
		{
			"number": 197253,
			"data": "2,0,5,4,8,0,4,2,1,7,1,7,7,4,3,1,8,7,0,3,5,4,1,8,4,5,3,8,4,5,8,4,8,0,0,4,4,1,0,6,7,0,2,5,7,5,2,5,4,4,4,1,2,1,3,4,8,7,1,8,9,6,7,4,2,9,1,0,3,1,2,3,5,6,2,4,4,0,2,2,3,5,8,2,1,1,7,0,4,5,6,7,9,1,4,5,3,6,3,7",
			"name": "Decimal expansion of least x\u003e0 having sin x = (sin 7x)^2.",
			"comment": [
				"The Mathematica program includes a graph.  See A197133 for a guide to least x\u003e0 satisfying sin(b*x)=(sin(c*x))^2 for selected b and c."
			],
			"example": [
				"0.0205480421717743187035418453845848004410..."
			],
			"mathematica": [
				"b = 1; c = 7; f[x_] := Sin[x]",
				"t = x /. FindRoot[f[b*x] == f[c*x]^2, {x, .01, .1}, WorkingPrecision -\u003e 100]",
				"RealDigits[t] (* A197253 *)",
				"Plot[{f[b*x], f[c*x]^2}, {x, 0, Pi}]"
			],
			"program": [
				"(PARI) solve(x=.01,.03,sin(x)-sin(7*x)^2) \\\\ _Charles R Greathouse IV_, Dec 28 2011"
			],
			"xref": [
				"Cf. A197133."
			],
			"keyword": "nonn,cons",
			"offset": "-1,1",
			"author": "_Clark Kimberling_, Oct 12 2011",
			"references": 2,
			"revision": 12,
			"time": "2018-08-04T04:12:36-04:00",
			"created": "2011-10-12T16:24:37-04:00"
		}
	]
}