{
	"greeting": "Greetings from The On-Line Encyclopedia of Integer Sequences! http://oeis.org/",
	"query": "id:A197195",
	"count": 1,
	"start": 0,
	"results": [
		{
			"number": 197195,
			"data": "1,5,25,314,7363,350711,33176391,6258308430,2359068239358,1774609159901861",
			"name": "Number of n X n 0..4 arrays with each element x equal to the number of its horizontal and vertical neighbors equal to 4,1,3,2,0 for x=0,1,2,3,4",
			"comment": [
				"Every 0 is next to 0 4's, every 1 is next to 1 1's, every 2 is next to 2 3's, every 3 is next to 3 2's, every 4 is next to 4 0's",
				"Diagonal of A197199"
			],
			"example": [
				"Some solutions for n=4",
				"..0..0..0..1....0..0..0..1....1..1..0..0....0..1..1..0....0..0..1..0",
				"..1..1..0..1....0..0..0..1....0..0..0..0....1..0..0..0....1..0..1..0",
				"..0..0..1..0....1..1..0..0....1..1..0..0....1..0..1..0....1..0..0..1",
				"..0..0..1..0....0..0..1..1....0..0..0..0....0..0..1..0....0..0..0..1"
			],
			"keyword": "nonn",
			"offset": "1,2",
			"author": "_R. H. Hardin_ Oct 11 2011",
			"references": 0,
			"revision": 6,
			"time": "2015-12-18T18:17:49-05:00",
			"created": "2011-10-11T12:44:31-04:00"
		}
	]
}