{
	"greeting": "Greetings from The On-Line Encyclopedia of Integer Sequences! http://oeis.org/",
	"query": "id:A198568",
	"count": 1,
	"start": 0,
	"results": [
		{
			"number": 198568,
			"data": "2,1,1,0,0,2,1,9,8,8,4,5,7,5,4,0,1,0,5,8,4,4,9,9,4,5,5,5,2,8,4,5,6,3,2,6,5,1,4,7,7,3,6,6,8,1,4,4,0,4,3,8,2,5,6,4,8,6,1,4,9,9,4,1,4,6,2,5,2,8,5,8,7,4,0,3,3,2,4,3,2,0,5,2,9,6,9,3,6,2,7,8,6,0,8,4,7,7,3",
			"name": "Decimal expansion of x\u003e0 satisfying 2*x^2-3x=3*sin(x).",
			"comment": [
				"See A198414 for a guide to related sequences.  The Mathematica program includes a graph."
			],
			"example": [
				"x=2.110021988457540105844994555284563265147736..."
			],
			"mathematica": [
				"a = 2; b = -3; c = 3;",
				"f[x_] := a*x^2 + b*x; g[x_] := c*Sin[x]",
				"Plot[{f[x], g[x]}, {x, -.2, 2.4}]",
				"r = x /. FindRoot[f[x] == g[x], {x, 2.11, 2.12}, WorkingPrecision -\u003e 110]",
				"RealDigits[r] (* A198568 *)"
			],
			"xref": [
				"Cf. A198414."
			],
			"keyword": "nonn,cons",
			"offset": "1,1",
			"author": "_Clark Kimberling_, Oct 27 2011",
			"references": 2,
			"revision": 6,
			"time": "2012-03-30T18:57:54-04:00",
			"created": "2011-10-27T22:12:47-04:00"
		}
	]
}