{
	"greeting": "Greetings from The On-Line Encyclopedia of Integer Sequences! http://oeis.org/",
	"query": "id:A198405",
	"count": 1,
	"start": 0,
	"results": [
		{
			"number": 198405,
			"data": "2,17,377,11473,375273,12456897,414711897,13814539697,460231956937,15333001667233,510833776539193,17018936996199057,567002973887727017,18890274083549781377,629348476275500726297,20967377362990867086193",
			"name": "Number of 2n X 2 0..4 arrays with values 0..4 introduced in row major order and each element equal to exactly one horizontal and vertical neighbor.",
			"comment": [
				"Column 1 of A198408."
			],
			"link": [
				"R. H. Hardin, \u003ca href=\"/A198405/b198405.txt\"\u003eTable of n, a(n) for n = 1..200\u003c/a\u003e"
			],
			"formula": [
				"Empirical: a(n) = 51*a(n-1) - 691*a(n-2) + 3601*a(n-3) - 7056*a(n-4) + 4096*a(n-5).",
				"Conjectures from _Colin Barker_, Mar 02 2018: (Start)",
				"G.f.: x*(2 - 85*x + 892*x^2 - 3209*x^3 + 3552*x^4) / ((1 - x)*(1 - 9*x + 16*x^2)*(1 - 41*x + 256*x^2)).",
				"a(n) = (2^(-8-n)*(-1752*(9-sqrt(17))^n*(-51+5*sqrt(17)) + 1752*(9+sqrt(17))^n*(51+5*sqrt(17)) + 17*(73*2^(9+n) + (365-17*sqrt(73))*(41-3*sqrt(73))^n + (41+3*sqrt(73))^n*(365+17*sqrt(73))))) / 3723.",
				"(End)"
			],
			"example": [
				"Some solutions for n=3:",
				"..0..0....0..0....0..1....0..0....0..0....0..0....0..0....0..1....0..0....0..1",
				"..1..2....1..2....0..1....1..1....1..1....1..2....1..1....0..1....1..1....0..1",
				"..1..2....1..2....2..3....2..3....2..3....1..2....2..2....2..2....0..0....2..3",
				"..3..3....0..0....2..3....2..3....2..3....2..0....3..3....0..0....2..2....2..3",
				"..4..0....3..2....1..0....3..0....4..4....2..0....4..4....1..3....0..0....4..4",
				"..4..0....3..2....1..0....3..0....2..2....1..1....2..2....1..3....1..1....3..3"
			],
			"xref": [
				"Cf. A198408."
			],
			"keyword": "nonn",
			"offset": "1,1",
			"author": "_R. H. Hardin_, Oct 24 2011",
			"references": 2,
			"revision": 9,
			"time": "2018-03-02T06:27:10-05:00",
			"created": "2011-10-24T14:38:29-04:00"
		}
	]
}