{
	"greeting": "Greetings from The On-Line Encyclopedia of Integer Sequences! http://oeis.org/",
	"query": "id:A198477",
	"count": 1,
	"start": 0,
	"results": [
		{
			"number": 198477,
			"data": "2,12,12,76,252,76,492,6104,6104,492,3212,153222,636636,153222,3212,21036,3935188,72691500,72691500,3935188,21036,137932,101884208,8603604942",
			"name": "T(n,k)=Number of 2nX2k 0..2 arrays with values 0..2 introduced in row major order and each element equal to an odd number of horizontal and vertical neighbors",
			"comment": [
				"Table starts",
				".....2......12.......76......492.......3212.....21036.137932",
				"....12.....252.....6104...153222....3935188.101884208",
				"....76....6104...636636.72691500.8603604942",
				"...492..153222.72691500",
				"..3212.3935188",
				".21036"
			],
			"example": [
				"Some solutions for n=4 k=3",
				"..0..0..0..0..1..1....0..0..0..0..0..1....0..0..0..0..0..0....0..0..0..0..0..0",
				"..1..0..0..1..0..0....1..0..0..0..2..1....1..0..0..0..0..1....1..0..0..0..0..2",
				"..1..0..0..1..2..2....1..0..1..0..2..0....1..0..1..2..0..1....1..0..2..2..0..2",
				"..0..0..0..0..1..0....0..1..1..1..0..0....0..1..1..2..2..0....0..2..0..0..2..0",
				"..1..1..2..2..1..0....0..2..2..2..1..0....0..0..1..2..1..0....0..2..1..1..2..0",
				"..2..2..0..0..2..2....1..1..2..1..1..1....0..2..2..1..1..1....1..1..0..0..0..1",
				"..0..1..2..1..0..0....0..2..0..2..0..2....1..0..1..2..0..0....0..2..1..0..2..1",
				"..0..1..2..1..2..2....0..2..0..2..0..2....1..0..1..2..1..1....0..2..1..2..2..2"
			],
			"keyword": "nonn,tabl",
			"offset": "1,1",
			"author": "_R. H. Hardin_ Oct 25 2011",
			"references": 3,
			"revision": 4,
			"time": "2012-03-31T12:36:34-04:00",
			"created": "2011-10-25T12:28:35-04:00"
		}
	]
}