{
	"greeting": "Greetings from The On-Line Encyclopedia of Integer Sequences! http://oeis.org/",
	"query": "id:A198400",
	"count": 1,
	"start": 0,
	"results": [
		{
			"number": 198400,
			"data": "1,0,80,970,9960,99950,999940,9999930,99999920,999999910,9999999900,99999999890,999999999880,9999999999870,99999999999860,999999999999850,9999999999999840,99999999999999830,999999999999999820",
			"name": "10^n-10*n.",
			"link": [
				"Vincenzo Librandi, \u003ca href=\"/A198400/b198400.txt\"\u003eTable of n, a(n) for n = 0..1000\u003c/a\u003e",
				"\u003ca href=\"/index/Rec#order_03\"\u003eIndex entries for linear recurrences with constant coefficients\u003c/a\u003e, signature (12,-21,10)."
			],
			"formula": [
				"a(n) = 12*a(n-1)-21*a(n-2)+10*a(n-3) for n\u003e2.",
				"G.f.: (1-12*x+101*x^2)/((1-10*x)*(1-x)^2). - _Vincenzo Librandi_, Jul 06 2012"
			],
			"mathematica": [
				"CoefficientList[Series[(1-12*x+101*x^2)/((1-10*x)*(1-x)^2),{x,0,40}],x] (* _Vincenzo Librandi_, Jul 06 2012 *)"
			],
			"program": [
				"(MAGMA) [10^n-10*n: n in [0..25]];",
				"(PARI) a(n)=10^n-10*n \\\\ _Charles R Greathouse IV_, Jul 06 2017"
			],
			"xref": [
				"Cf. A005803, A107583, A107584, A107585."
			],
			"keyword": "nonn,easy",
			"offset": "0,3",
			"author": "_Vincenzo Librandi_, Oct 26 2011",
			"references": 2,
			"revision": 19,
			"time": "2017-07-06T01:31:40-04:00",
			"created": "2011-10-26T12:32:13-04:00"
		}
	]
}