{
	"greeting": "Greetings from The On-Line Encyclopedia of Integer Sequences! http://oeis.org/",
	"query": "id:A198348",
	"count": 1,
	"start": 0,
	"results": [
		{
			"number": 198348,
			"data": "7,4,3,1,4,1,8,4,7,6,1,2,8,7,2,4,2,2,0,8,0,4,3,0,6,9,5,5,5,9,9,6,8,2,9,7,9,0,5,0,5,0,9,0,0,3,0,3,1,8,4,0,3,0,2,9,8,3,8,9,8,5,6,8,4,4,3,7,3,5,6,1,1,5,8,9,4,2,2,8,2,7,6,9,8,9,5,8,8,9,8,6,2,0,3,5,5,5,9",
			"name": "Decimal expansion of x\u003e0 having 4*x^2=3*cos(x).",
			"comment": [
				"See A197737 for a guide to related sequences.  The Mathematica program includes a graph."
			],
			"example": [
				"x=0.7431418476128724220804306955599..."
			],
			"mathematica": [
				"a = 4; b = 0; c = 3;",
				"f[x_] := a*x^2 + b*x; g[x_] := c*Cos[x]",
				"Plot[{f[x], g[x]}, {x, -1, 1}]",
				"r = x /. FindRoot[f[x] == g[x], {x, .74, .75}, WorkingPrecision -\u003e 110]",
				"RealDigits[r] (* A198348 *)"
			],
			"xref": [
				"Cf. A197737."
			],
			"keyword": "nonn,cons",
			"offset": "0,1",
			"author": "_Clark Kimberling_, Oct 23 2011",
			"references": 2,
			"revision": 5,
			"time": "2012-03-30T18:57:54-04:00",
			"created": "2011-10-23T21:57:36-04:00"
		}
	]
}