{
	"greeting": "Greetings from The On-Line Encyclopedia of Integer Sequences! http://oeis.org/",
	"query": "id:A198578",
	"count": 1,
	"start": 0,
	"results": [
		{
			"number": 198578,
			"data": "2,4,1,3,5,4,7,7,4,2,1,1,6,9,0,9,7,6,6,0,1,4,3,0,9,2,8,4,2,1,1,6,2,3,7,3,0,0,2,6,0,3,6,5,3,7,8,7,8,5,0,7,7,7,0,3,8,2,8,3,1,1,0,5,7,6,4,0,2,8,1,5,4,2,1,7,3,2,7,1,3,9,4,3,6,4,0,2,3,3,4,1,9,6,9,5,0,5,2",
			"name": "Decimal expansion of x\u003e0 satisfying 2*x^2-4x=3*sin(x).",
			"comment": [
				"See A198414 for a guide to related sequences.  The Mathematica program includes a graph."
			],
			"example": [
				"x=2.41354774211690976601430928421162373002603..."
			],
			"mathematica": [
				"a = 2; b = -4; c = 3;",
				"f[x_] := a*x^2 + b*x; g[x_] := c*Sin[x]",
				"Plot[{f[x], g[x]}, {x, -.2, 2.5}]",
				"r = x /. FindRoot[f[x] == g[x], {x, 2.4, 2.5}, WorkingPrecision -\u003e 110]",
				"RealDigits[r] (* A198578 *)"
			],
			"xref": [
				"Cf. A198414."
			],
			"keyword": "nonn,cons",
			"offset": "1,1",
			"author": "_Clark Kimberling_, Oct 27 2011",
			"references": 2,
			"revision": 6,
			"time": "2012-03-30T18:57:54-04:00",
			"created": "2011-10-27T22:19:11-04:00"
		}
	]
}