{
	"greeting": "Greetings from The On-Line Encyclopedia of Integer Sequences! http://oeis.org/",
	"query": "id:A198704",
	"count": 1,
	"start": 0,
	"results": [
		{
			"number": 198704,
			"data": "2,76,3893,322230,30407251,3075124662,316137386807,32741782389619,3397146912481247,352742075116393899,36634081239038426907,3804936727099857364455,395201634386514861187551",
			"name": "Number of nX4 0..4 arrays with values 0..4 introduced in row major order and each element equal to at least one horizontal or vertical neighbor",
			"comment": [
				"Column 4 of A198708"
			],
			"link": [
				"R. H. Hardin, \u003ca href=\"/A198704/b198704.txt\"\u003eTable of n, a(n) for n = 1..124\u003c/a\u003e"
			],
			"example": [
				"Some solutions with all values 0 to 4 for n=3",
				"..0..0..1..1....0..0..1..1....0..0..1..1....0..0..1..2....0..1..1..2",
				"..2..0..3..4....2..2..3..3....2..2..3..3....3..1..1..2....0..3..1..2",
				"..2..0..3..4....4..4..3..3....3..3..4..4....3..3..4..4....3..3..4..4"
			],
			"keyword": "nonn",
			"offset": "1,1",
			"author": "_R. H. Hardin_ Oct 29 2011",
			"references": 1,
			"revision": 5,
			"time": "2012-03-31T12:36:34-04:00",
			"created": "2011-10-29T06:15:05-04:00"
		}
	]
}