{
	"greeting": "Greetings from The On-Line Encyclopedia of Integer Sequences! http://oeis.org/",
	"query": "id:A198722",
	"count": 1,
	"start": 0,
	"results": [
		{
			"number": 198722,
			"data": "203,7817980,846047363854,96356630422085931,10996875674843226590993,1255145613308486512244031328",
			"name": "Number of nX7 0..6 arrays with values 0..6 introduced in row major order and no element equal to any horizontal or vertical neighbor",
			"comment": [
				"Column 7 of A198723"
			],
			"example": [
				"Some solutions with all values 0 to 6 for n=3",
				"..0..1..0..2..3..4..5....0..1..0..2..1..3..0....0..1..0..2..0..1..3",
				"..1..0..1..0..2..6..4....1..0..1..0..4..0..2....1..0..1..0..4..5..1",
				"..0..1..0..3..6..0..2....0..1..0..3..5..3..6....0..1..0..3..6..1..2"
			],
			"keyword": "nonn",
			"offset": "1,1",
			"author": "_R. H. Hardin_ Oct 29 2011",
			"references": 1,
			"revision": 4,
			"time": "2012-03-31T12:36:35-04:00",
			"created": "2011-10-29T06:57:34-04:00"
		}
	]
}