{
	"greeting": "Greetings from The On-Line Encyclopedia of Integer Sequences! http://oeis.org/",
	"query": "id:A198077",
	"count": 1,
	"start": 0,
	"results": [
		{
			"number": 198077,
			"data": "1,5,37,353,4315,64535,1140539,23256804,537441241,13880477010,396218076727,12386985584176,420923890579262,15447592770126360,608903758014263549,25656487848259583960,1150788495459483630200,54745172171004903538414",
			"name": "Round((n+1/3)^n).",
			"link": [
				"Vincenzo Librandi, \u003ca href=\"/A198077/b198077.txt\"\u003eTable of n, a(n) for n = 1..300\u003c/a\u003e"
			],
			"program": [
				"(MAGMA) [Round((n+1/3)^n): n in [1..20]]"
			],
			"xref": [
				"Cf. A014056."
			],
			"keyword": "nonn",
			"offset": "1,2",
			"author": "_Vincenzo Librandi_, Oct 21 2011",
			"references": 1,
			"revision": 7,
			"time": "2012-03-30T18:38:24-04:00",
			"created": "2011-10-21T11:10:48-04:00"
		}
	]
}