{
	"greeting": "Greetings from The On-Line Encyclopedia of Integer Sequences! http://oeis.org/",
	"query": "id:A198883",
	"count": 1,
	"start": 0,
	"results": [
		{
			"number": 198883,
			"data": "5,0,2,6,3,0,1,8,3,5,2,3,6,8,1,8,9,7,0,4,3,8,6,9,2,1,6,0,0,9,3,5,3,8,7,5,3,1,7,9,7,6,9,8,2,3,1,6,6,8,7,8,2,3,5,4,5,9,9,1,4,4,5,8,7,2,1,4,4,5,8,9,3,0,4,1,4,0,4,8,8,4,9,3,2,8,5,4,0,0,6,8,5,9,1,2,0,2,1",
			"name": "Decimal expansion of x\u003e0 satisfying 2*x^2-4*cos(x)=-3.",
			"comment": [
				"See A198755 for a guide to related sequences.  The Mathematica program includes a graph."
			],
			"example": [
				"x=0.5026301835236818970438692160093538753179..."
			],
			"mathematica": [
				"a = 2; b = -4; c = -3;",
				"f[x_] := a*x^2 + b*Cos[x]; g[x_] := c",
				"Plot[{f[x], g[x]}, {x, -2, 2}, {AxesOrigin -\u003e {0, 0}}]",
				"r = x /. FindRoot[f[x] == g[x], {x, .5, .51}, WorkingPrecision -\u003e 110]",
				"RealDigits[r] (* A198883 *)"
			],
			"xref": [
				"Cf. A198755."
			],
			"keyword": "nonn,cons",
			"offset": "0,1",
			"author": "_Clark Kimberling_, Oct 31 2011",
			"references": 2,
			"revision": 5,
			"time": "2012-03-30T18:57:56-04:00",
			"created": "2011-10-31T17:39:41-04:00"
		}
	]
}