{
	"greeting": "Greetings from The On-Line Encyclopedia of Integer Sequences! http://oeis.org/",
	"query": "id:A198547",
	"count": 1,
	"start": 0,
	"results": [
		{
			"number": 198547,
			"data": "1,2,5,6,7,7,6,8,9,5,9,6,1,2,7,1,7,3,0,4,4,1,8,9,1,1,5,1,2,6,5,6,7,1,8,6,8,6,7,1,2,7,1,7,8,6,2,1,0,4,6,3,3,2,4,6,2,1,8,6,5,9,0,3,4,3,3,6,9,4,8,7,3,8,0,3,2,5,4,8,4,3,7,5,0,7,6,0,9,2,1,3,6,9,6,0,5,0,9",
			"name": "Decimal expansion of x\u003e0 having 2*x^2-x=2*sin(x).",
			"comment": [
				"See A198414 for a guide to related sequences.  The Mathematica program includes a graph."
			],
			"example": [
				"x=1.2567768959612717304418911512656718686..."
			],
			"mathematica": [
				"a = 2; b = -1; c = 2;",
				"f[x_] := a*x^2 + b*x; g[x_] := c*Sin[x]",
				"Plot[{f[x], g[x]}, {x, -.1, 1.5}]",
				"r = x /. FindRoot[f[x] == g[x], {x, 1.25, 1.26}, WorkingPrecision -\u003e 110]",
				"RealDigits[r] (* A198547 *)"
			],
			"xref": [
				"Cf. A198414."
			],
			"keyword": "nonn,cons",
			"offset": "1,2",
			"author": "_Clark Kimberling_, Oct 26 2011",
			"references": 2,
			"revision": 5,
			"time": "2012-03-30T18:57:54-04:00",
			"created": "2011-10-26T20:15:33-04:00"
		}
	]
}