{
	"greeting": "Greetings from The On-Line Encyclopedia of Integer Sequences! http://oeis.org/",
	"query": "id:A198748",
	"count": 1,
	"start": 0,
	"results": [
		{
			"number": 198748,
			"data": "5,9,4,7,3,0,0,2,9,2,2,8,2,2,7,8,3,1,5,0,1,1,1,5,0,8,4,2,6,0,7,9,7,7,1,1,8,3,6,3,3,1,5,8,8,4,1,4,9,3,4,4,9,9,6,7,6,2,9,0,9,5,0,6,2,1,8,1,7,2,9,3,0,6,1,3,8,8,2,5,5,1,1,9,0,3,2,7,0,3,5,0,4,5,0,4,6,6,2",
			"name": "Decimal expansion of the least x\u003e0 that gives the absolute minimum of f(x)+f(2x)+f(3x), where f(x)=sin(x)-cos(x).",
			"comment": [
				"See A198745 for a guide to related sequences."
			],
			"example": [
				"x=5.94730029228227831501115084260797711836331...",
				"min=-4.05824487647797618374998236242336948409..."
			],
			"mathematica": [
				"f[t_] := Sin[t] - Cos[t]",
				"n = 3; s[t_] := Sum[f[k*t], {k, 1, n}]",
				"x = N[Minimize[s[t], t], 110]; u = Part[x, 1]",
				"v = t /. Part[x, 2]",
				"RealDigits[u]  (* A198747 *)",
				"RealDigits[v]  (* A198748 *)",
				"Plot[s[t], {t, -2 Pi, 2 Pi}, PlotRange -\u003e {-4.1, 3}]"
			],
			"xref": [
				"Cf. A198745."
			],
			"keyword": "nonn,cons",
			"offset": "1,1",
			"author": "_Clark Kimberling_, Oct 29 2011",
			"references": 3,
			"revision": 5,
			"time": "2012-03-30T18:57:56-04:00",
			"created": "2011-10-29T18:13:34-04:00"
		}
	]
}