{
	"greeting": "Greetings from The On-Line Encyclopedia of Integer Sequences! http://oeis.org/",
	"query": "id:A198409",
	"count": 1,
	"start": 0,
	"results": [
		{
			"number": 198409,
			"data": "1,3,5,7,10,13,15,23,24,26,30,35,39,42,45,47,51,54,62,69,70,72,83,84,88,97,98,102,107,114,115,124,126,129,136,141,142,143,156,157,167,169,172,177,181,188,191,201,205,208,214,218,229,230,237,244,249,253",
			"name": "Positions in sequences A198384, A198385 and A198386 to indicate triples of squares in arithmetic progression, that are not multiples of earlier triples.",
			"comment": [
				"A198435(n) = A198384(a(n)); A198439(n) = A198388(a(n));",
				"A198436(n) = A198385(a(n)); A198440(n) = A198389(a(n));",
				"A198437(n) = A198386(a(n)); A198441(n) = A198390(a(n));",
				"A198438(n) = A198387(a(n))."
			],
			"link": [
				"Ray Chandler, \u003ca href=\"/A198409/b198409.txt\"\u003eTable of n, a(n) for n = 1..10000\u003c/a\u003e",
				"Reinhard Zumkeller, \u003ca href=\"/A198435/a198435.txt\"\u003eTable of initial values\u003c/a\u003e"
			],
			"formula": [
				"A008966(A050873(A198439(n),A050873(A198440(n),A050873(A198441(n))))) = 1."
			],
			"mathematica": [
				"wmax = 1000;",
				"triples[w_] := Reap[Module[{u, v}, For[u = 1, u \u003c w, u++, If[IntegerQ[v = Sqrt[(u^2 + w^2)/2]], Sow[{u^2, v^2, w^2}]]]]][[2]];",
				"tt = Flatten[DeleteCases[triples /@ Range[wmax], {}], 2];",
				"Position[tt, t_List /; SquareFreeQ[GCD@@t]] // Flatten (* _Jean-François Alcover_, Oct 24 2021 *)"
			],
			"program": [
				"(Haskell)",
				"import Data.List (elemIndices)",
				"a198409 n = a198409_list !! (n-1)",
				"a198409_list = map (+ 1) $ elemIndices 1 $ map a008966 $",
				"   zipWith gcd a198384_list $ zipWith gcd a198385_list a198386_list"
			],
			"keyword": "nonn",
			"offset": "1,2",
			"author": "_Reinhard Zumkeller_, Oct 25 2011",
			"references": 15,
			"revision": 16,
			"time": "2021-10-24T12:33:58-04:00",
			"created": "2011-10-25T17:34:10-04:00"
		}
	]
}