{
	"greeting": "Greetings from The On-Line Encyclopedia of Integer Sequences! http://oeis.org/",
	"query": "id:A199069",
	"count": 1,
	"start": 0,
	"results": [
		{
			"number": 199069,
			"data": "1,5,8,1,1,2,1,9,7,2,2,0,7,4,1,1,9,1,8,3,1,2,8,8,3,1,1,8,0,2,8,2,2,7,3,5,8,5,0,3,1,0,2,9,7,9,7,6,8,8,0,2,5,6,3,6,4,2,6,9,0,6,4,4,0,3,4,9,9,2,6,0,8,5,5,3,0,2,1,8,2,3,8,5,5,6,6,5,7,3,9,3,9,0,9,9,8,4,8",
			"name": "Decimal expansion of x\u003c0 satisfying 2*x^2+2*sin(x)=3.",
			"comment": [
				"See A198866 for a guide to related sequences.  The Mathematica program includes a graph."
			],
			"example": [
				"negative: -1.58112197220741191831288311802822735850...",
				"positive:  0.86107767473955299024198236567037763109430..."
			],
			"mathematica": [
				"a = 2; b = 2; c = 3;",
				"f[x_] := a*x^2 + b*Sin[x]; g[x_] := c",
				"Plot[{f[x], g[x]}, {x, -2, 2}, {AxesOrigin -\u003e {0, 0}}]",
				"r = x /. FindRoot[f[x] == g[x], {x, -1.6, -1.5}, WorkingPrecision -\u003e 110]",
				"RealDigits[r](* A199069 *)",
				"r = x /. FindRoot[f[x] == g[x], {x, .86, .87}, WorkingPrecision -\u003e 110]",
				"RealDigits[r] (* A199070 *)"
			],
			"xref": [
				"Cf. A198866."
			],
			"keyword": "nonn,cons",
			"offset": "1,2",
			"author": "_Clark Kimberling_, Nov 02 2011",
			"references": 3,
			"revision": 5,
			"time": "2012-03-30T18:57:57-04:00",
			"created": "2011-11-03T17:38:18-04:00"
		}
	]
}