{
	"greeting": "Greetings from The On-Line Encyclopedia of Integer Sequences! http://oeis.org/",
	"query": "id:A199245",
	"count": 1,
	"start": 0,
	"results": [
		{
			"number": 199245,
			"data": "19,288,2080,134821,3190670,27337776,2013526831,52332203186",
			"name": "Number of nX7 0..2 arrays with values 0..2 introduced in row major order, the number of instances of each value within one of each other, and every element equal to zero or two horizontal or vertical neighbors",
			"comment": [
				"Column 7 of A199246"
			],
			"example": [
				"Some solutions for n=4",
				"..0..1..0..1..0..0..2....0..1..0..2..0..2..1....0..1..0..2..0..1..2",
				"..2..0..1..2..0..0..1....1..0..1..0..2..1..2....1..0..2..0..1..2..0",
				"..0..2..0..1..1..2..2....0..2..0..2..1..2..1....0..1..0..1..2..0..2",
				"..1..0..2..1..1..2..2....2..0..1..0..2..1..2....1..2..1..2..1..2..0"
			],
			"keyword": "nonn",
			"offset": "1,1",
			"author": "_R. H. Hardin_ Nov 04 2011",
			"references": 0,
			"revision": 4,
			"time": "2012-03-31T12:36:36-04:00",
			"created": "2011-11-04T05:37:04-04:00"
		}
	]
}