{
	"greeting": "Greetings from The On-Line Encyclopedia of Integer Sequences! http://oeis.org/",
	"query": "id:A199650",
	"count": 1,
	"start": 0,
	"results": [
		{
			"number": 199650,
			"data": "5,113,2584,59212,1357484,31120632,713445976,16355879648,374961537040,8596061907680,197066293538400,4517780870646656,103570953858672192,2374383085485820032,54433167085958461312,1247890324488906825728",
			"name": "Number of nX3 0..2 arrays with values 0..2 introduced in row major order and each element equal to no more than two horizontal and vertical neighbors",
			"comment": [
				"Column 3 of A199655"
			],
			"link": [
				"R. H. Hardin, \u003ca href=\"/A199650/b199650.txt\"\u003eTable of n, a(n) for n = 1..200\u003c/a\u003e"
			],
			"formula": [
				"Empirical: a(n) = 21*a(n-1) +44*a(n-2) +8*a(n-3) -96*a(n-4) -364*a(n-5) -264*a(n-6) +256*a(n-7) +288*a(n-8) +64*a(n-9) for n\u003e10"
			],
			"example": [
				"Some solutions for n=4",
				"..0..0..1....0..0..1....0..1..1....0..1..0....0..0..1....0..0..1....0..1..2",
				"..1..0..1....1..0..2....0..2..2....1..0..1....1..1..1....2..2..0....1..0..1",
				"..0..2..2....1..2..0....1..0..0....0..0..2....1..0..2....2..1..0....1..1..0",
				"..1..2..2....0..0..2....2..2..2....2..2..0....1..0..0....2..0..0....0..0..2"
			],
			"keyword": "nonn",
			"offset": "1,1",
			"author": "_R. H. Hardin_ Nov 08 2011",
			"references": 1,
			"revision": 5,
			"time": "2012-03-31T12:36:36-04:00",
			"created": "2011-11-08T18:02:39-05:00"
		}
	]
}