{
	"greeting": "Greetings from The On-Line Encyclopedia of Integer Sequences! http://oeis.org/",
	"query": "id:A199100",
	"count": 1,
	"start": 0,
	"results": [
		{
			"number": 199100,
			"data": "105,113010,40210161,115707966228,123022787797053,46438726281827509",
			"name": "Number of nX7 0..2 arrays with values 0..2 introduced in row major order, the number of instances of each value within one of each other, and every element equal to two or fewer horizontal or vertical neighbors",
			"comment": [
				"Column 7 of A199101"
			],
			"example": [
				"Some solutions for n=3",
				"..0..1..1..0..2..2..0....0..1..2..1..1..2..2....0..1..2..2..0..1..0",
				"..0..1..1..2..1..1..1....0..1..1..2..2..0..0....0..1..1..0..2..1..2",
				"..0..0..0..2..2..2..2....0..0..0..1..2..1..2....0..0..1..2..2..1..2"
			],
			"keyword": "nonn",
			"offset": "1,1",
			"author": "_R. H. Hardin_ Nov 02 2011",
			"references": 0,
			"revision": 4,
			"time": "2012-03-31T12:36:35-04:00",
			"created": "2011-11-02T18:37:43-04:00"
		}
	]
}