{
	"greeting": "Greetings from The On-Line Encyclopedia of Integer Sequences! http://oeis.org/",
	"query": "id:A199143",
	"count": 1,
	"start": 0,
	"results": [
		{
			"number": 199143,
			"data": "1,3,13,65,393,2539,16866,113432,766473,5188597,35148945,238173743,1614066774,10938730576,74134306725,502428413393,3405102418833,23077383280435,156402287318610,1059984943413152,7183834447992225",
			"name": "Number of nX2 0..3 arrays with values 0..3 introduced in row major order and each element equal to one or two horizontal and vertical neighbors",
			"comment": [
				"Column 2 of A199149"
			],
			"link": [
				"R. H. Hardin, \u003ca href=\"/A199143/b199143.txt\"\u003eTable of n, a(n) for n = 1..200\u003c/a\u003e"
			],
			"formula": [
				"Empirical: a(n) = 7*a(n-1) +2*a(n-2) -16*a(n-3) -49*a(n-4) -35*a(n-5) +56*a(n-6) +54*a(n-7) +45*a(n-8) -27*a(n-9) for n\u003e11"
			],
			"example": [
				"Some solutions for n=4",
				"..0..0....0..0....0..0....0..0....0..1....0..1....0..0....0..1....0..1....0..0",
				"..0..1....0..0....1..2....1..0....0..1....0..1....1..0....0..1....0..1....0..1",
				"..1..1....1..1....1..2....1..0....1..1....0..1....1..0....1..2....0..0....0..1",
				"..0..0....0..0....1..1....1..1....2..2....1..1....1..0....1..2....1..1....0..1"
			],
			"keyword": "nonn",
			"offset": "1,2",
			"author": "_R. H. Hardin_ Nov 03 2011",
			"references": 1,
			"revision": 5,
			"time": "2012-03-31T12:36:35-04:00",
			"created": "2011-11-03T09:51:50-04:00"
		}
	]
}