{
	"greeting": "Greetings from The On-Line Encyclopedia of Integer Sequences! http://oeis.org/",
	"query": "id:A199210",
	"count": 1,
	"start": 0,
	"results": [
		{
			"number": 199210,
			"data": "4,15,59,235,939,3755,15019,60075,240299,961195,3844779,15379115,61516459,246065835,984263339,3937053355,15748213419,62992853675,251971414699,1007885658795,4031542635179,16126170540715,64504682162859",
			"name": "a(n) = (11*4^n+1)/3.",
			"link": [
				"Vincenzo Librandi, \u003ca href=\"/A199210/b199210.txt\"\u003eTable of n, a(n) for n = 0..1000\u003c/a\u003e",
				"\u003ca href=\"/index/Rec#order_02\"\u003eIndex entries for linear recurrences with constant coefficients\u003c/a\u003e, signature (5,-4)."
			],
			"formula": [
				"a(n) = 4*a(n-1)-1.",
				"a(n) = 5*a(n-1)-4*a(n-2).",
				"G.f.: (4-5*x)/((1-x)*(1-4*x)).  - _Bruno Berselli_, Nov 04 2011"
			],
			"program": [
				"(MAGMA) [(11*4^n+1)/3: n in [0..30]];"
			],
			"keyword": "nonn,easy",
			"offset": "0,1",
			"author": "_Vincenzo Librandi_, Nov 04 2011",
			"references": 1,
			"revision": 13,
			"time": "2015-10-22T10:44:31-04:00",
			"created": "2011-11-05T01:26:37-04:00"
		}
	]
}