{
	"greeting": "Greetings from The On-Line Encyclopedia of Integer Sequences! http://oeis.org/",
	"query": "id:A199627",
	"count": 1,
	"start": 0,
	"results": [
		{
			"number": 199627,
			"data": "1,2,1,1,2,2,4,7,8,9,12,15,16,17,20,23,24,25,28,31,32,33,36,39,40,41,44,47,48,49,52,55,56,57,60,63,64,65,68,71,72,73,76,79,80,81,84,87,88,89,92,95,96,97,100,103,104,105,108,111",
			"name": "G.f.: (1+x)^(2*g)*(1+x^3)^(3*g)/((1-x^2)*(1-x^4))-x^(2*g)*(1+x)^4/((1-x^2)*(1-x^4)) for g=1.",
			"comment": [
				"Expansion of a Poincaré series [or Poincare series] for space of moduli M_2 of stable bundles."
			],
			"link": [
				"Georg Fischer, \u003ca href=\"/A199627/b199627.txt\"\u003eTable of n, a(n) for n = 0..999\u003c/a\u003e",
				"Bott, Raoul, \u003ca href=\"http://dx.doi.org/10.1090/S0273-0979-1982-15038-8\"\u003eLectures on Morse theory, old and new\u003c/a\u003e, Bull. Amer. Math. Soc. 7 (1982), no. 2, 331-358; reprinted in Vol. 48 (October, 2011). See Eq. (4.30).",
				"\u003ca href=\"/index/Rec#order_04\"\u003eIndex entries for linear recurrences with constant coefficients\u003c/a\u003e, signature (2,-2,2,-1)."
			],
			"formula": [
				"a(n) = A047538(n-3) for n \u003e= 6. - _Georg Fischer_, Oct 28 2018",
				"From _Colin Barker_, Nov 05 2019: (Start)",
				"G.f.: (1 + x)^2*(1 - 2*x + 2*x^2 - x^3 - x^4 + 3*x^5 - 2*x^6 + x^7) / ((1 - x)^2*(1 + x^2)).",
				"a(n) = 2*a(n-1) - 2*a(n-2) + 2*a(n-3) - a(n-4) for n\u003e9.",
				"a(n) = (-16 + (-i)^(1+n) + i^(1+n) + 4*n) / 2 for n\u003e5, where i=sqrt(-1).",
				"(End)"
			],
			"maple": [
				"f:=g-\u003e(1+x)^(2*g)*(1+x^3)^(3*g)/((1-x^2)*(1-x^4))-x^(2*g)*(1+x)^4/((1-x^2)*(1-x^4));",
				"s:=g-\u003eseriestolist(series(f(g),x,60));",
				"s(1);"
			],
			"program": [
				"(MAGMA) g:=1; m:=60; R\u003cx\u003e:=PowerSeriesRing(Integers(), m); Coefficients(R!((1+x)^(2*g)*(1+x^3)^(3*g)/((1-x^2)*(1-x^4))-x^(2*g)*(1+x)^4/((1-x^2)*(1-x^4))));  // _Bruno Berselli_, Nov 08 2011",
				"(PARI) Vec((1 + x)^2*(1 - 2*x + 2*x^2 - x^3 - x^4 + 3*x^5 - 2*x^6 + x^7) / ((1 - x)^2*(1 + x^2)) + O(x^70)) \\\\ _Colin Barker_, Nov 05 2019"
			],
			"xref": [
				"Cf. A047538."
			],
			"keyword": "nonn,easy",
			"offset": "0,2",
			"author": "_N. J. A. Sloane_, Nov 08 2011",
			"references": 1,
			"revision": 28,
			"time": "2019-11-05T06:32:37-05:00",
			"created": "2011-11-08T15:24:48-05:00"
		}
	]
}