{
	"greeting": "Greetings from The On-Line Encyclopedia of Integer Sequences! http://oeis.org/",
	"query": "id:A199555",
	"count": 1,
	"start": 0,
	"results": [
		{
			"number": 199555,
			"data": "8,57,449,3585,28673,229377,1835009,14680065,117440513,939524097,7516192769,60129542145,481036337153,3848290697217,30786325577729,246290604621825,1970324836974593,15762598695796737,126100789566373889",
			"name": "7*8^n+1.",
			"link": [
				"Vincenzo Librandi, \u003ca href=\"/A199555/b199555.txt\"\u003eTable of n, a(n) for n = 0..1000\u003c/a\u003e",
				"\u003ca href=\"/index/Rec\"\u003eIndex entries for linear recurrences with constant coefficients\u003c/a\u003e, signature (9,-8)."
			],
			"formula": [
				"a(n) = 8*a(n-1)-7.",
				"a(n) = 9*a(n-1)-8*a(n-2).",
				"G.f.: (8-15*x)/((1-x)*(1-8*x))."
			],
			"program": [
				"(MAGMA) [7*8^n+1: n in [0..30]];"
			],
			"keyword": "nonn,easy",
			"offset": "0,1",
			"author": "_Vincenzo Librandi_, Nov 08 2011",
			"references": 2,
			"revision": 9,
			"time": "2015-06-13T00:54:06-04:00",
			"created": "2011-11-08T10:17:34-05:00"
		}
	]
}