{
	"greeting": "Greetings from The On-Line Encyclopedia of Integer Sequences! http://oeis.org/",
	"query": "id:A199448",
	"count": 1,
	"start": 0,
	"results": [
		{
			"number": 199448,
			"data": "7,4,9,5,2,8,8,3,2,5,0,9,1,1,5,4,7,8,6,4,9,5,3,7,8,3,1,0,3,3,4,6,3,1,7,1,3,6,5,2,4,9,8,5,0,3,1,1,3,0,4,2,5,7,6,8,4,2,6,4,2,7,0,0,4,6,5,2,3,5,5,0,0,5,3,2,7,0,3,9,9,2,0,8,6,6,1,6,5,7,0,7,0,3,7,6,8,8,1",
			"name": "Decimal expansion of x\u003e0 satisfying 3*x^2+x*sin(x)=3*cos(x).",
			"comment": [
				"See A199370 for a guide to related sequences.  The Mathematica program includes a graph."
			],
			"example": [
				"x=0.74952883250911547864953783103346317136524985031130..."
			],
			"mathematica": [
				"a = 3; b = 1; c = 3;",
				"f[x_] := a*x^2 + b*x*Sin[x]; g[x_] := c*Cos[x]",
				"Plot[{f[x], g[x]}, {x, -Pi, Pi}, {AxesOrigin -\u003e {0, 0}}]",
				"r = x /. FindRoot[f[x] == g[x], {x, .74, .75}, WorkingPrecision -\u003e 110]",
				"RealDigits[r] (* A199448 *)"
			],
			"xref": [
				"Cf. A199429."
			],
			"keyword": "nonn,cons",
			"offset": "0,1",
			"author": "_Clark Kimberling_, Nov 06 2011",
			"references": 2,
			"revision": 5,
			"time": "2012-03-30T18:57:57-04:00",
			"created": "2011-11-06T21:40:06-05:00"
		}
	]
}