{
	"greeting": "Greetings from The On-Line Encyclopedia of Integer Sequences! http://oeis.org/",
	"query": "id:A199917",
	"count": 1,
	"start": 0,
	"results": [
		{
			"number": 199917,
			"data": "0,1,0,-1,0,-7,0,-23,0,-5947,0,-140759,0,-8265391,0,133286519,0,1088222737541,0,4970981405216383,0,7294918534710727,0,-32299178524632916333,0,-944164720798082858723567,0,2252653730296347607326319,0,1968938229271096381309083587",
			"name": "Numerators of A(x) where A(x) satisfies A(A(x)) = (2-2*cos(x))/x.",
			"link": [
				"Dmitry Kruchinin, Vladimir Kruchinin, \u003ca href=\"http://arxiv.org/abs/1302.1986\"\u003eMethod for solving an iterative functional equation $A^{2^n}(x)=F(x)$\u003c/a\u003e, arXiv:1302.1986"
			],
			"formula": [
				"a(n) = numerator(T(n,1)); T(n,m) = if n=m then 1 else 1/2*(((-1)^m*2^m*((-1)^(n+m)+1)*sum(j=1..m, ((sum(i=0..(j-1)/2,(j-2*i)^(n+m) *C(j,i))) *C(m,j) *(-1)^((n+m)/2+m-j))/2^j))/(n+m)! -sum(i=m+1..n-1, T(n,i) *T(i,m)))."
			],
			"example": [
				"x - 1/24*x^3 - 7/5760*x^5 - 23/193536*x^7 - 5947/464486400*x^9 + ..."
			],
			"keyword": "sign",
			"offset": "0,6",
			"author": "_Vladimir Kruchinin_, Nov 12 2011",
			"references": 0,
			"revision": 12,
			"time": "2013-02-11T02:11:21-05:00",
			"created": "2011-11-13T10:47:47-05:00"
		}
	]
}