{
	"greeting": "Greetings from The On-Line Encyclopedia of Integer Sequences! http://oeis.org/",
	"query": "id:A199234",
	"count": 1,
	"start": 0,
	"results": [
		{
			"number": 199234,
			"data": "0,31,1162,233185,16467051,410003607,88764401434,6694765030353,173658860616275,39468698299166073,3071783011857585339",
			"name": "Number of nX5 0..2 arrays with values 0..2 introduced in row major order, the number of instances of each value within one of each other, and every element equal to at least one horizontal or vertical neighbor",
			"comment": [
				"Column 5 of A199237"
			],
			"example": [
				"Some solutions for n=4",
				"..0..0..0..1..1....0..1..2..1..1....0..0..1..1..1....0..1..0..1..2",
				"..0..1..1..2..1....0..1..2..2..2....0..2..1..0..2....0..1..0..1..2",
				"..2..1..1..2..2....0..1..1..1..2....2..2..0..0..2....0..0..2..2..2",
				"..2..2..2..0..0....0..0..0..0..2....1..1..1..2..2....0..1..1..2..2"
			],
			"keyword": "nonn",
			"offset": "1,2",
			"author": "_R. H. Hardin_ Nov 04 2011",
			"references": 0,
			"revision": 4,
			"time": "2012-03-31T12:36:35-04:00",
			"created": "2011-11-04T05:23:30-04:00"
		}
	]
}