{
	"greeting": "Greetings from The On-Line Encyclopedia of Integer Sequences! http://oeis.org/",
	"query": "id:A199601",
	"count": 1,
	"start": 0,
	"results": [
		{
			"number": 199601,
			"data": "2,3,0,6,4,7,8,3,4,7,1,0,4,8,0,2,6,8,7,7,0,5,9,0,6,4,3,9,6,6,9,2,0,9,2,4,6,6,5,8,7,8,6,5,4,2,2,7,8,7,0,3,5,8,3,1,2,8,1,4,4,5,4,6,8,0,1,3,9,1,8,3,1,5,7,4,3,0,8,2,4,7,9,5,1,8,9,0,3,4,5,1,0,4,7,2,4,8,6",
			"name": "Decimal expansion of x\u003e0 satisfying x^2+2*x*cos(x)=3*sin(x).",
			"comment": [
				"See A199597 for a guide to related sequences.  The Mathematica program includes a graph."
			],
			"example": [
				"x=2.3064783471048026877059064396692092466587..."
			],
			"mathematica": [
				"a = 1; b = 2; c = 3;",
				"f[x_] := a*x^2 + b*x*Cos[x]; g[x_] := c*Sin[x]",
				"Plot[{f[x], g[x]}, {x, -Pi, Pi}, {AxesOrigin -\u003e {0, 0}}]",
				"r = x /. FindRoot[f[x] == g[x], {x, 2.3, 2.4}, WorkingPrecision -\u003e 110]",
				"RealDigits[r]  (* A199601 *)"
			],
			"xref": [
				"Cf. A199597."
			],
			"keyword": "nonn,cons",
			"offset": "1,1",
			"author": "_Clark Kimberling_, Nov 08 2011",
			"references": 2,
			"revision": 5,
			"time": "2012-03-30T18:57:57-04:00",
			"created": "2011-11-08T18:19:31-05:00"
		}
	]
}