{
	"greeting": "Greetings from The On-Line Encyclopedia of Integer Sequences! http://oeis.org/",
	"query": "id:A199142",
	"count": 1,
	"start": 0,
	"results": [
		{
			"number": 199142,
			"data": "0,1,1,2,3,6,11,23,47,102,221,492,1099,2485,5637,12858,29391,67354,154539,355003,816035,1876862,4318201,9937840,22874731,52659593,121237417,279141170,642732027,1479959118,3407837387,7847200511",
			"name": "Number of n X 1 0..3 arrays with values 0..3 introduced in row major order and each element equal to one or two horizontal and vertical neighbors.",
			"comment": [
				"Column 1 of A199149."
			],
			"link": [
				"R. H. Hardin, \u003ca href=\"/A199142/b199142.txt\"\u003eTable of n, a(n) for n = 1..200\u003c/a\u003e"
			],
			"formula": [
				"Empirical: a(n) = 3*a(n-1) + a(n-2) - 7*a(n-3) + a(n-4) + 3*a(n-5) for n\u003e6.",
				"Empirical g.f.: x^2*(1 - 2*x - 2*x^2 + 3*x^3 + x^4) / ((1 - x)*(1 - x - x^2)*(1 - x - 3*x^2)). - _Colin Barker_, Feb 22 2018"
			],
			"example": [
				"Some solutions for n=8:",
				"..0....0....0....0....0....0....0....0....0....0....0....0....0....0....0....0",
				"..0....0....0....0....0....0....0....0....0....0....0....0....0....0....0....0",
				"..1....0....0....1....1....1....0....1....1....0....1....0....0....0....1....0",
				"..1....1....0....1....1....1....1....1....1....0....1....0....0....0....1....0",
				"..2....1....1....1....1....0....1....2....1....0....2....1....0....1....1....0",
				"..2....1....1....0....2....0....0....2....1....1....2....1....0....1....1....0",
				"..2....0....0....0....2....1....0....1....0....1....3....1....0....2....2....1",
				"..2....0....0....0....2....1....0....1....0....1....3....1....0....2....2....1"
			],
			"xref": [
				"Cf. A199149."
			],
			"keyword": "nonn",
			"offset": "1,4",
			"author": "_R. H. Hardin_, Nov 03 2011",
			"references": 3,
			"revision": 8,
			"time": "2018-02-22T12:57:30-05:00",
			"created": "2011-11-03T09:51:05-04:00"
		}
	]
}