{
	"greeting": "Greetings from The On-Line Encyclopedia of Integer Sequences! http://oeis.org/",
	"query": "id:A199017",
	"count": 1,
	"start": 0,
	"results": [
		{
			"number": 199017,
			"data": "1,1,1,2,2,2,3,3,3,4,4,5,5,6,7,7,8,9,10,11,12,13,14,14,16,16,17,19,20,22,23,25,26,27,29,30,31,34,35,38,40,41,45,45,48,51,52,57,60,62,66,68,71,75,78,83,86,93,97,100,107,109,115,120,124,132,138",
			"name": "Number of partitions of n into distinct terms of (1,2)-Ulam sequence, cf. A002858.",
			"link": [
				"Eric Weisstein's World of Mathematics, \u003ca href=\"http://mathworld.wolfram.com/UlamSequence.html\"\u003eUlam Sequence\u003c/a\u003e",
				"Wikipedia, \u003ca href=\"http://en.wikipedia.org/wiki/Ulam_number\"\u003eUlam number\u003c/a\u003e",
				"\u003ca href=\"/index/U#Ulam_num\"\u003eIndex entries for Ulam numbers\u003c/a\u003e"
			],
			"example": [
				"The first terms of A002858 are 1, 2, 3, 4, 6, 8, 11, 13, 16, 18, ...",
				"a(10) = #{8+2, 6+4, 6+3+1, 4+3+2+1} = 4;",
				"a(11) = #{11, 8+3, 8+2+1, 6+4+1, 6+3+2} = 5;",
				"a(12) = #{11+1, 8+4, 8+3+1, 6+4+2, 6+3+2+1} = 5."
			],
			"program": [
				"(Haskell)",
				"a199017 = p a002858_list where",
				"   p _  0 = 1",
				"   p (u:us) m | m \u003c u = 0",
				"              | otherwise = p us (m - u) + p us m"
			],
			"xref": [
				"Cf. A000586; A199016, A199119, A199121, A199123."
			],
			"keyword": "nonn",
			"offset": "0,4",
			"author": "_Reinhard Zumkeller_, Nov 03 2011",
			"references": 7,
			"revision": 5,
			"time": "2012-03-30T18:51:11-04:00",
			"created": "2011-11-03T21:43:25-04:00"
		}
	]
}