{
	"greeting": "Greetings from The On-Line Encyclopedia of Integer Sequences! http://oeis.org/",
	"query": "id:A199134",
	"count": 1,
	"start": 0,
	"results": [
		{
			"number": 199134,
			"data": "4,5,10,11,13,15,20,21,26,27,29,31,34,38,40,42,43,49,50,54,56,58,59,64,67,69,71,75,77,78,80,85,86,90,91,95,99,101,102,104,108,111,113,116,117,120,123,128,129,132,133,136,141,143,144,146,151,152,154,156,160",
			"name": "Indices of Greedy Queens (see A065188) below main diagonal.",
			"comment": [
				"The word \"below\" in the definition is somewhat ambiguous. More precisely, this is the list of n such that A065188(n) \u003c n. - _N. J. A. Sloane_, Aug 18 2016",
				"For Greedy Queens that do not attack along antidiagonals, the analogous sequence of indices is A026352."
			],
			"link": [
				"N. J. A. Sloane, \u003ca href=\"/A199134/b199134.txt\"\u003eTable of n, a(n) for n = 1..19098\u003c/a\u003e"
			],
			"example": [
				"Greedy Queens take positions (1,1) (2,3) (3,5) (4,2) (5,4) (6,9) ... and the 4th and 5th are below the main diagonal, so a(1)=4 and a(2)=5."
			],
			"mathematica": [
				"\u003c\u003cDiscreteMath`Combinatorica`;",
				"base2=Table[{i,j},{i,0,256},{j,Floor[i/2],2i}];",
				"base3=DeleteCases[base2,{k_,l_}/;Or[l\u003c-2+Floor[k/GoldenRatio],l\u003e2+Floor[k*GoldenRatio],And[l\u003e3+Floor[k/GoldenRatio],l\u003cFloor[k*GoldenRatio]]],2 ];",
				"standardQueens=Backtrack[base3,(And[UnsameQ@@ First /@ #,UnsameQ@@ Last/@ #,UnsameQ@@ Subtract@@@ #,UnsameQ@@ Plus@@@ #])\u0026,True\u0026,One];",
				"Position[Subtract@@@ standardQueens,_?Positive]//Flatten"
			],
			"xref": [
				"Cf. A065188, A026352, A275893 (another version).",
				"A275884 is the complementary sequence.",
				"For runs see A275885, A275886."
			],
			"keyword": "nonn",
			"offset": "1,1",
			"author": "_Wouter Meeussen_, Nov 04 2011",
			"references": 12,
			"revision": 29,
			"time": "2016-12-10T17:00:34-05:00",
			"created": "2011-11-05T01:42:22-04:00"
		}
	]
}