{
	"greeting": "Greetings from The On-Line Encyclopedia of Integer Sequences! http://oeis.org/",
	"query": "id:A199684",
	"count": 1,
	"start": 0,
	"results": [
		{
			"number": 199684,
			"data": "5,41,401,4001,40001,400001,4000001,40000001,400000001,4000000001,40000000001,400000000001,4000000000001,40000000000001,400000000000001,4000000000000001,40000000000000001,400000000000000001,4000000000000000001",
			"name": "4*10^n+1.",
			"link": [
				"Vincenzo Librandi, \u003ca href=\"/A199684/b199684.txt\"\u003eTable of n, a(n) for n = 0..1000\u003c/a\u003e",
				"\u003ca href=\"/index/Rec#order_02\"\u003eIndex entries for linear recurrences with constant coefficients\u003c/a\u003e, signature (11,-10)."
			],
			"formula": [
				"a(n) = 10*a(n-1)-9.",
				"a(n) = 11*a(n-1)-10*a(n-2).",
				"G.f.: (5-14*x)/((1-x)*(1-10*x))."
			],
			"program": [
				"(MAGMA) [4*10^n+1: n in [0..30]];"
			],
			"keyword": "nonn,easy",
			"offset": "0,1",
			"author": "_Vincenzo Librandi_, Nov 09 2011",
			"references": 3,
			"revision": 10,
			"time": "2017-06-17T03:56:16-04:00",
			"created": "2011-11-09T02:42:41-05:00"
		}
	]
}