{
	"greeting": "Greetings from The On-Line Encyclopedia of Integer Sequences! http://oeis.org/",
	"query": "id:A199736",
	"count": 1,
	"start": 0,
	"results": [
		{
			"number": 199736,
			"data": "1,5,1,9,5,1,4,9,2,6,4,7,0,4,0,1,2,2,1,5,8,5,7,0,5,1,6,2,0,9,8,1,4,8,9,9,0,5,5,6,3,3,9,8,8,6,8,9,3,4,3,5,6,3,8,8,5,1,9,2,1,5,1,6,1,7,9,8,1,3,3,8,5,2,1,7,2,7,8,9,7,2,6,8,0,2,0,5,3,1,2,0,1,8,1,2,1,6,3",
			"name": "Decimal expansion of greatest x satisfying x^2-4*x*cos(x)=2*sin(x).",
			"comment": [
				"See A199597 for a guide to related sequences.  The Mathematica program includes a graph."
			],
			"example": [
				"least: -3.69221424543584046112101682937268753850...",
				"greatest:  1.519514926470401221585705162098148990..."
			],
			"mathematica": [
				"a = 1; b = -4; c = 2;",
				"f[x_] := a*x^2 + b*x*Cos[x]; g[x_] := c*Sin[x]",
				"Plot[{f[x], g[x]}, {x, -4, 2}, {AxesOrigin -\u003e {0, 0}}]",
				"r = x /. FindRoot[f[x] == g[x], {x, -3.7, -3.6}, WorkingPrecision -\u003e 110]",
				"RealDigits[r]   (* A199735 least root *)",
				"r = x /. FindRoot[f[x] == g[x], {x, 1.5, 1.6}, WorkingPrecision -\u003e 110]",
				"RealDigits[r]   (* A199736 greatest root *)"
			],
			"xref": [
				"Cf. A199597."
			],
			"keyword": "nonn,cons",
			"offset": "1,2",
			"author": "_Clark Kimberling_, Nov 09 2011",
			"references": 3,
			"revision": 5,
			"time": "2012-03-30T18:57:58-04:00",
			"created": "2011-11-09T18:16:43-05:00"
		}
	]
}