{
	"greeting": "Greetings from The On-Line Encyclopedia of Integer Sequences! http://oeis.org/",
	"query": "id:A199885",
	"count": 1,
	"start": 0,
	"results": [
		{
			"number": 199885,
			"data": "0,1,1,6,10,23,49,106,215,444,906,1849,3759,7621,15402,31091,62676,126206,253860,510204,1024665,2056608,4125625,8272436,16580967,33223336,66550937,133278720,266857006,534220745,1069297319,2140037990,4282507048,8569103770",
			"name": "Number of compositions of n such that the greatest part is not divisible by the number of parts.",
			"link": [
				"Alois P. Heinz, \u003ca href=\"/A199885/b199885.txt\"\u003eTable of n, a(n) for n = 1..250\u003c/a\u003e"
			],
			"formula": [
				"G.f.: Sum_{n\u003e0} (2^(n-1)*x^n-Sum_{d|n} ((x^(n+1)-x)^d-(x^n-x)^d)/(x-1)^d).",
				"a(n) = A000079(n-1) - A171632(n)."
			],
			"example": [
				"a(4) = 6: [1,1,1,1], [1,1,2], [1,2,1], [1,3], [2,1,1], [3,1]."
			],
			"maple": [
				"b:= proc(n, t, g) option remember; `if`(n=0, `if`(irem(g, t)=0, 0, 1), add(b(n-i, t+1, max(i, g)), i=1..n)) end: a:= n-\u003e b(n, 0, 0): seq(a(n), n=1..40);"
			],
			"mathematica": [
				"b[n_, t_, g_] := b[n, t, g] = If[n == 0, If[Mod[g, t] == 0, 0, 1], Sum [b[n-i, t+1, Max[i, g]], {i, 1, n}]]; a[n_] := b[n, 0, 0]; Table[a[n], {n, 1, 40}] (* _Jean-François Alcover_, Nov 05 2014, after _Alois P. Heinz_ *)"
			],
			"xref": [
				"Cf. A000079, A171632, A200727."
			],
			"keyword": "nonn",
			"offset": "1,4",
			"author": "_Alois P. Heinz_, Nov 11 2011",
			"references": 2,
			"revision": 15,
			"time": "2014-11-16T15:05:17-05:00",
			"created": "2011-11-13T13:38:59-05:00"
		}
	]
}