{
	"greeting": "Greetings from The On-Line Encyclopedia of Integer Sequences! http://oeis.org/",
	"query": "id:A199471",
	"count": 1,
	"start": 0,
	"results": [
		{
			"number": 199471,
			"data": "7,9,6,4,3,0,4,1,6,7,9,6,3,4,3,0,7,9,6,9,6,3,5,9,0,0,2,2,9,6,5,8,8,1,1,8,0,2,1,2,7,0,7,5,2,2,7,0,7,1,0,8,5,5,1,7,3,5,2,0,8,9,5,9,9,2,9,7,7,8,0,5,4,9,8,6,0,9,3,1,0,3,9,6,6,9,6,1,4,5,4,8,1,7,2,9,7,8,1",
			"name": "Decimal expansion of x\u003e0 satisfying 2*x^2-x*sin(x)=cos(x).",
			"comment": [
				"See A199429 for a guide to related sequences.  The Mathematica program includes a graph."
			],
			"example": [
				"x=0.796430416796343079696359002296588118021270..."
			],
			"mathematica": [
				"a = 2; b = -1; c = 1;",
				"f[x_] := a*x^2 + b*x*Sin[x]; g[x_] := c*Cos[x]",
				"Plot[{f[x], g[x]}, {x, -Pi, Pi}, {AxesOrigin -\u003e {0, 0}}]",
				"r = x /. FindRoot[f[x] == g[x], {x, .79, .80}, WorkingPrecision -\u003e 110]",
				"RealDigits[r]  (* A199471 *)"
			],
			"xref": [
				"Cf. A199429."
			],
			"keyword": "nonn,cons",
			"offset": "0,1",
			"author": "_Clark Kimberling_, Nov 07 2011",
			"references": 2,
			"revision": 7,
			"time": "2012-03-30T18:57:57-04:00",
			"created": "2011-11-07T17:46:41-05:00"
		}
	]
}