{
	"greeting": "Greetings from The On-Line Encyclopedia of Integer Sequences! http://oeis.org/",
	"query": "id:A199104",
	"count": 1,
	"start": 0,
	"results": [
		{
			"number": 199104,
			"data": "1,1,3,9,28,88,284,931,3109,10532,36162,125546,440201,1556519,5544715,19879791,71685522,259809731,945913555,3457947627,12687782600,46709518473,172484216742,638712762962,2371241532557,8824154454401,32909438791706,122984173008460",
			"name": "G.f. satisfies: A(x) = exp( Sum(n\u003e=1} A(x^n)/(1-x)^n * x^n/n ).",
			"example": [
				"G.f.: A(x) = 1 + x + 3*x^2 + 9*x^3 + 28*x^4 + 88*x^5 + 284*x^6 + 931*x^7 +...",
				"where",
				"log(A(x)) = A(x)/(1-x)*x + A(x^2)/(1-x)^2*x^2/2 + A(x^3)/(1-x)^3*x^3/3 +..."
			],
			"program": [
				"(PARI) {a(n)=local(A=1+x);for(i=1,n,A=exp(sum(m=1,n,(1-x)^-m*x^m/m*subst(A,x,x^m+x*O(x^n)))));polcoeff(A,n)}"
			],
			"xref": [
				"Cf. A199103."
			],
			"keyword": "nonn",
			"offset": "0,3",
			"author": "_Paul D. Hanna_, Nov 03 2011",
			"references": 1,
			"revision": 7,
			"time": "2012-03-30T18:37:32-04:00",
			"created": "2011-11-03T11:21:04-04:00"
		}
	]
}