{
	"greeting": "Greetings from The On-Line Encyclopedia of Integer Sequences! http://oeis.org/",
	"query": "id:A199546",
	"count": 1,
	"start": 0,
	"results": [
		{
			"number": 199546,
			"data": "144,144,288,360,360,360,720,720,720,720,1800,3456,8640,8640,8640,8640,17280,17280,21600,43200,43200,207360,207360,518400,518400,1036800,12441600",
			"name": "Sorted number of edges of distinct solutions in the mix of regular convex polyhedra.",
			"comment": [
				"Sorted column 2 of Table 1 of the Cunningham reference."
			],
			"link": [
				"Gabe Cunningham, \u003ca href=\"http://arxiv.org/abs/1111.1312\"\u003eMixing Convex Polytopes\u003c/a\u003e, arXiv:1111.1312v1 [math.CO], Nov 5, 2011."
			],
			"example": [
				"a(1) = 144 because the mix of the tetrahedron {3,3} and the octahedron {3,4} has 24 vertices, 144 edges, 96 facets, and the size of the automorphism group (which is also the number of flags) is 576."
			],
			"xref": [
				"Cf. A053016, A199545."
			],
			"keyword": "nonn,fini,full",
			"offset": "1,1",
			"author": "_Jonathan Vos Post_, Nov 07 2011",
			"references": 5,
			"revision": 11,
			"time": "2020-02-15T03:47:36-05:00",
			"created": "2011-11-09T17:46:05-05:00"
		}
	]
}