{
	"greeting": "Greetings from The On-Line Encyclopedia of Integer Sequences! http://oeis.org/",
	"query": "id:A200498",
	"count": 1,
	"start": 0,
	"results": [
		{
			"number": 200498,
			"data": "1,3,1,5,3,8,1,9,3,1,8,4,0,0,9,1,9,5,4,9,5,2,3,1,4,0,8,2,6,8,7,1,0,5,5,7,9,8,3,3,0,3,0,8,0,7,4,3,8,8,4,2,4,2,2,0,8,2,0,0,7,7,6,6,0,3,9,9,0,5,4,0,6,4,7,9,8,5,8,7,4,4,6,3,7,5,7,6,2,0,8,4,2,6,7,7,0,9,7",
			"name": "Decimal expansion of least x\u003e0 satisfying 2*x^2-2*x+3=tan(x).",
			"comment": [
				"See A200338 for a guide to related sequences.  The Mathematica program includes a graph."
			],
			"example": [
				"x=1.31538193184009195495231408268710557983303080..."
			],
			"mathematica": [
				"a = 2; b = -2; c = 3;",
				"f[x_] := a*x^2 + b*x + c; g[x_] := Tan[x]",
				"Plot[{f[x], g[x]}, {x, -.1, Pi/2}, {AxesOrigin -\u003e {0, 0}}]",
				"r = x /. FindRoot[f[x] == g[x], {x, 1.3, 1.4}, WorkingPrecision -\u003e 110]",
				"RealDigits[r]     (* A200498 *)"
			],
			"xref": [
				"Cf. A200338."
			],
			"keyword": "nonn,cons",
			"offset": "1,2",
			"author": "_Clark Kimberling_, Nov 19 2011",
			"references": 2,
			"revision": 5,
			"time": "2012-03-30T18:58:01-04:00",
			"created": "2011-11-19T18:52:43-05:00"
		}
	]
}