{
	"greeting": "Greetings from The On-Line Encyclopedia of Integer Sequences! http://oeis.org/",
	"query": "id:A200313",
	"count": 1,
	"start": 0,
	"results": [
		{
			"number": 200313,
			"data": "1,1,70,28000,33833800,91842150400,471920698849600,4105733038511104000,55918460253906250000000,1124922893768186370457600000,31962429471680921191680301600000,1237813985055170041194334820761600000,63474917512551971525535771981021376000000",
			"name": "E.g.f. satisfies: A(x) = exp(x^3*A(x)^3/3!).",
			"link": [
				"G. C. Greubel, \u003ca href=\"/A200313/b200313.txt\"\u003eTable of n, a(n) for n = 0..100\u003c/a\u003e"
			],
			"formula": [
				"a(n) = (3*n+1)^(n-1) * (3*n)!/(n!*(3!)^n).",
				"E.g.f.: (1/x)*Series_Reversion( x*exp(-x^3/3!) ).",
				"Powers of e.g.f.: define a(n,m) by A(x)^m = Sum_{n\u003e=0} a(n,m)*x^(3*n)/(3*n)!",
				"then a(n,m) = m*(3*n+m)^(n-1) * (3*n)!/(n!*(3!)^n)."
			],
			"example": [
				"E.g.f.: A(x) = 1 + x^3/3! + 70*x^6/6! + 28000*x^9/9! + 33833800*x^12/12! + ...",
				"where log(A(x)) = x^3*A(x)^3/3! and",
				"A(x)^3 = 1 + 3*x^3/3! + 270*x^6/6! + 120960*x^9/9! + 155925000*x^12/12! + ..."
			],
			"mathematica": [
				"Table[(3*n + 1)^(n - 1)*(3*n)!/(n!*(3!)^n), {n, 0, 30}] (* _G. C. Greubel_, Jul 27 2018 *)"
			],
			"program": [
				"(PARI) {a(n)=(3*n)!*polcoeff(1/x*serreverse(x*(exp(-x^3/3!+x*O(x^(3*n))))),3*n)}",
				"(PARI) {a(n)=(3*n+1)^(n-1)*(3*n)!/(n!*(3!)^n)}",
				"(MAGMA) [(3*n+1)^(n-1)*Factorial(3*n)/(6^n*Factorial(n)): n in [0..30]]; // _G. C. Greubel_, Jul 27 2018",
				"(GAP) List([0..10],n-\u003e(3*n+1)^(n-1)*Factorial(3*n)/(Factorial(n)*Factorial(3)^n)); # _Muniru A Asiru_, Jul 28 2018"
			],
			"xref": [
				"Cf. A025035, A034941, A200314, A200315."
			],
			"keyword": "nonn",
			"offset": "0,3",
			"author": "_Paul D. Hanna_, Nov 15 2011",
			"references": 3,
			"revision": 24,
			"time": "2018-07-30T00:35:53-04:00",
			"created": "2011-11-16T11:06:01-05:00"
		}
	]
}