{
	"greeting": "Greetings from The On-Line Encyclopedia of Integer Sequences! http://oeis.org/",
	"query": "id:A200350",
	"count": 1,
	"start": 0,
	"results": [
		{
			"number": 200350,
			"data": "1,4,3,5,9,2,8,9,0,2,3,3,8,6,4,1,2,9,9,0,3,2,0,3,2,4,4,8,3,2,2,1,4,2,5,7,2,2,7,2,1,7,1,9,3,6,9,9,6,8,5,8,1,8,7,0,3,5,0,7,5,4,2,2,8,7,5,0,8,2,0,8,2,4,6,0,9,8,1,5,0,1,0,4,2,1,0,4,5,9,8,2,1,7,3,3,2,6,1",
			"name": "Decimal expansion of least x\u003e0 satisfying x^2+3x+1=tan(x).",
			"comment": [
				"See A200338 for a guide to related sequences.  The Mathematica program includes a graph."
			],
			"example": [
				"x=1.4359289023386412990320324483221425722721719..."
			],
			"mathematica": [
				"a = 1; b = 3; c = 1;",
				"f[x_] := a*x^2 + b*x + c; g[x_] := Tan[x]",
				"Plot[{f[x], g[x]}, {x, -.1, Pi/2}, {AxesOrigin -\u003e {0, 0}}]",
				"r = x /. FindRoot[f[x] == g[x], {x, 1.4, 1.5}, WorkingPrecision -\u003e 110]",
				"RealDigits[r]   (* A200350 *)"
			],
			"xref": [
				"Cf. A200338."
			],
			"keyword": "nonn,cons",
			"offset": "1,2",
			"author": "_Clark Kimberling_, Nov 16 2011",
			"references": 2,
			"revision": 5,
			"time": "2012-03-30T18:58:00-04:00",
			"created": "2011-11-16T19:51:33-05:00"
		}
	]
}