{
	"greeting": "Greetings from The On-Line Encyclopedia of Integer Sequences! http://oeis.org/",
	"query": "id:A200286",
	"count": 1,
	"start": 0,
	"results": [
		{
			"number": 200286,
			"data": "5,8,8,8,5,1,7,4,2,6,7,5,0,4,1,1,7,9,9,9,9,6,5,9,7,1,4,6,4,4,8,4,8,0,3,8,1,8,0,1,6,1,3,7,1,7,0,6,1,7,3,1,0,3,1,5,9,4,8,7,4,1,6,6,3,8,7,9,2,3,6,2,6,0,5,0,4,2,8,3,7,4,8,0,4,0,8,0,9,8,6,0,4,9,9,8,2,2,7",
			"name": "Decimal expansion of least x satisfying 4*x^2 - cos(x) = sin(x).",
			"comment": [
				"See A199949 for a guide to related sequences.  The Mathematica program includes a graph."
			],
			"link": [
				"G. C. Greubel, \u003ca href=\"/A200286/b200286.txt\"\u003eTable of n, a(n) for n = 0..10000\u003c/a\u003e"
			],
			"example": [
				"least x: -0.37540364996113984869295773583715442...",
				"greatest x: 0.588851742675041179999659714644848..."
			],
			"mathematica": [
				"a = 4; b = -1; c = 1;",
				"f[x_] := a*x^2 + b*Cos[x]; g[x_] := c*Sin[x]",
				"Plot[{f[x], g[x]}, {x, -1, 1}, {AxesOrigin -\u003e {0, 0}}]",
				"r = x /. FindRoot[f[x] == g[x], {x, -.38, -.37}, WorkingPrecision -\u003e 110]",
				"RealDigits[r]   (* A200285 *)",
				"r = x /. FindRoot[f[x] == g[x], {x, .58, .59}, WorkingPrecision -\u003e 110]",
				"RealDigits[r]   (* A200286 *)"
			],
			"program": [
				"(PARI) a=4; b=-1; c=1; solve(x=0, 1, a*x^2 + b*cos(x) - c*sin(x)) \\\\ _G. C. Greubel_, Jul 07 2018"
			],
			"xref": [
				"Cf. A199949."
			],
			"keyword": "nonn,cons",
			"offset": "0,1",
			"author": "_Clark Kimberling_, Nov 15 2011",
			"references": 3,
			"revision": 9,
			"time": "2018-07-08T21:27:50-04:00",
			"created": "2011-11-15T17:44:52-05:00"
		}
	]
}