{
	"greeting": "Greetings from The On-Line Encyclopedia of Integer Sequences! http://oeis.org/",
	"query": "id:A200772",
	"count": 1,
	"start": 0,
	"results": [
		{
			"number": 200772,
			"data": "2,5,13,31,77,217,553,1438,3849,9634,24872,65658,165619,425229,1108871,2787741,7090082,18273124,45935694,116433625,297919225,747625324,1886048964,4791865798,11998842755,30184656867,76352766306,190890209361",
			"name": "Number of nX3 0..2 arrays with every row and column running average nondecreasing rightwards and downwards, and the number of instances of each value within one of each other",
			"comment": [
				"Column 3 of A200777"
			],
			"link": [
				"R. H. Hardin, \u003ca href=\"/A200772/b200772.txt\"\u003eTable of n, a(n) for n = 1..99\u003c/a\u003e"
			],
			"example": [
				"Some solutions for n=4",
				"..0..0..0....0..1..1....0..0..1....0..0..1....0..0..1....0..1..1....0..0..2",
				"..0..2..2....0..2..1....0..0..2....0..1..1....0..1..2....0..1..1....0..0..2",
				"..1..1..2....0..2..1....1..2..2....0..2..1....0..1..2....0..2..2....1..1..2",
				"..1..1..2....0..2..2....1..1..2....2..2..2....1..2..2....0..2..2....1..1..2"
			],
			"keyword": "nonn",
			"offset": "1,1",
			"author": "_R. H. Hardin_ Nov 22 2011",
			"references": 1,
			"revision": 5,
			"time": "2012-03-31T12:36:40-04:00",
			"created": "2011-11-22T09:21:57-05:00"
		}
	]
}