{
	"greeting": "Greetings from The On-Line Encyclopedia of Integer Sequences! http://oeis.org/",
	"query": "id:A200387",
	"count": 1,
	"start": 0,
	"results": [
		{
			"number": 200387,
			"data": "1,4,5,8,1,0,6,6,4,1,5,9,8,3,3,2,8,4,5,9,7,3,6,8,0,6,2,6,6,1,4,5,1,9,4,7,2,5,8,4,0,6,7,6,4,9,5,0,5,2,9,3,7,8,5,0,8,4,3,9,5,3,5,2,0,7,2,9,8,1,4,4,4,4,2,6,8,2,2,0,5,8,1,2,3,3,9,5,1,1,5,4,5,9,1,7,5,4,0",
			"name": "Decimal expansion of least x\u003e0 satisfying 3*x^2+x+1=tan(x).",
			"comment": [
				"See A200338 for a guide to related sequences.  The Mathematica program includes a graph."
			],
			"example": [
				"x=1.458106641598332845973680626614519472584067649..."
			],
			"mathematica": [
				"a = 3; b = 1; c = 1;",
				"f[x_] := a*x^2 + b*x + c; g[x_] := Tan[x]",
				"Plot[{f[x], g[x]}, {x, -.1, Pi/2}, {AxesOrigin -\u003e {0, 0}}]",
				"r = x /. FindRoot[f[x] == g[x], {x, 1.4, 1.5}, WorkingPrecision -\u003e 110]",
				"RealDigits[r]   (* A200387 *)"
			],
			"xref": [
				"Cf. A200338."
			],
			"keyword": "nonn,cons",
			"offset": "1,2",
			"author": "_Clark Kimberling_, Nov 17 2011",
			"references": 2,
			"revision": 5,
			"time": "2012-03-30T18:58:00-04:00",
			"created": "2011-11-17T17:38:20-05:00"
		}
	]
}