{
	"greeting": "Greetings from The On-Line Encyclopedia of Integer Sequences! http://oeis.org/",
	"query": "id:A200700",
	"count": 1,
	"start": 0,
	"results": [
		{
			"number": 200700,
			"data": "3,5,4,8,2,2,8,6,5,9,8,5,9,9,0,7,5,7,7,7,6,5,2,8,8,7,1,9,5,0,1,3,6,8,4,3,4,1,5,2,4,2,4,1,9,2,4,5,4,3,8,1,1,1,8,2,2,3,5,1,3,5,5,8,6,8,2,5,8,8,9,5,3,2,5,9,3,4,8,8,7,1,6,3,5,5,1,4,4,0,2,0,7,1,0,3,0,0,2",
			"name": "Decimal expansion of least x\u003e0 satisfying 1-5*x^2=tan(x).",
			"comment": [
				"See A200614 for a guide to related sequences.  The Mathematica program includes a graph."
			],
			"example": [
				"x=0.3548228659859907577765288719501368434152424..."
			],
			"mathematica": [
				"a = -5; c = 1;",
				"f[x_] := a*x^2 + c; g[x_] := Tan[x]",
				"Plot[{f[x], g[x]}, {x, -.1, Pi/2}, {AxesOrigin -\u003e {0, 0}}]",
				"r = x /. FindRoot[f[x] == g[x], {x, .3, .4}, WorkingPrecision -\u003e 110]",
				"RealDigits[r]   (* A200700 *)"
			],
			"xref": [
				"Cf. A200338."
			],
			"keyword": "nonn,cons",
			"offset": "0,1",
			"author": "_Clark Kimberling_, Nov 21 2011",
			"references": 2,
			"revision": 5,
			"time": "2012-03-30T18:58:01-04:00",
			"created": "2011-11-21T16:24:30-05:00"
		}
	]
}