{
	"greeting": "Greetings from The On-Line Encyclopedia of Integer Sequences! http://oeis.org/",
	"query": "id:A200127",
	"count": 1,
	"start": 0,
	"results": [
		{
			"number": 200127,
			"data": "1,4,6,5,2,3,5,3,8,6,1,4,2,6,3,1,8,5,6,9,4,5,9,2,6,8,3,0,5,7,2,6,9,4,9,2,6,9,0,0,7,8,8,8,6,2,5,1,9,6,6,4,6,8,7,8,7,8,3,9,7,1,6,8,3,1,4,1,7,3,5,2,9,3,5,6,5,7,7,2,4,5,6,1,7,8,8,7,7,2,4,7,3,1,0,3,9,9,1",
			"name": "Decimal expansion of greatest x satisfying 2*x^2 - 3*cos(x) = 4*sin(x).",
			"comment": [
				"See A199949 for a guide to related sequences.  The Mathematica program includes a graph."
			],
			"link": [
				"G. C. Greubel, \u003ca href=\"/A200127/b200127.txt\"\u003eTable of n, a(n) for n = 1..10000\u003c/a\u003e"
			],
			"example": [
				"least x: -0.530633047496848880166804175671064100...",
				"greatest x: 1.4652353861426318569459268305726949..."
			],
			"mathematica": [
				"a = 2; b = -3; c = 4;",
				"f[x_] := a*x^2 + b*Cos[x]; g[x_] := c*Sin[x]",
				"Plot[{f[x], g[x]}, {x, -3, 3}, {AxesOrigin -\u003e {0, 0}}]",
				"r = x /. FindRoot[f[x] == g[x], {x, -.54, -.53}, WorkingPrecision -\u003e 110]",
				"RealDigits[r]  (* A200126 *)",
				"r = x /. FindRoot[f[x] == g[x], {x, 1.46, 1.47}, WorkingPrecision -\u003e 110]",
				"RealDigits[r]  (* A200127 *)"
			],
			"program": [
				"(PARI) a=2; b=-3; c=4; solve(x=1, 2, a*x^2 + b*cos(x) - c*sin(x)) \\\\ _G. C. Greubel_, Jul 01 2018"
			],
			"xref": [
				"Cf. A199949."
			],
			"keyword": "nonn,cons",
			"offset": "1,2",
			"author": "_Clark Kimberling_, Nov 14 2011",
			"references": 3,
			"revision": 9,
			"time": "2018-07-02T01:49:37-04:00",
			"created": "2011-11-14T19:18:14-05:00"
		}
	]
}