{
	"greeting": "Greetings from The On-Line Encyclopedia of Integer Sequences! http://oeis.org/",
	"query": "id:A200033",
	"count": 1,
	"start": 0,
	"results": [
		{
			"number": 200033,
			"data": "0,6,14,84,264,1450,5268,25070,102854,460146,1954930,8681238,37537698,165783402,725328338,3201189116",
			"name": "Number of -3..3 arrays x(0..n-1) of n elements with sum zero and with zeroth through n-1st differences all nonzero",
			"comment": [
				"Column 3 of A200038"
			],
			"example": [
				"Some solutions for n=6",
				".-2...-2....3....2...-2...-1...-1...-3....2....3...-1...-2....3....2....1...-3",
				"..2...-1...-1...-1....3...-3...-3....3...-2...-2....3...-3...-1....1...-2....3",
				"..3....2....1...-3....2....3....2...-2....2....3...-2...-1...-2...-3....3....2",
				".-2...-3....2....2...-3....1....1....2...-3...-2....3....2....2....2...-2...-1",
				"..1....3...-2...-2....3...-3....2...-1...-2...-3...-1....3...-3...-3....2....2",
				".-2....1...-3....2...-3....3...-1....1....3....1...-2....1....1....1...-2...-3"
			],
			"keyword": "nonn",
			"offset": "1,2",
			"author": "_R. H. Hardin_ Nov 12 2011",
			"references": 0,
			"revision": 4,
			"time": "2012-03-31T12:36:37-04:00",
			"created": "2011-11-12T19:33:33-05:00"
		}
	]
}