{
	"greeting": "Greetings from The On-Line Encyclopedia of Integer Sequences! http://oeis.org/",
	"query": "id:A200587",
	"count": 1,
	"start": 0,
	"results": [
		{
			"number": 200587,
			"data": "1,4,4,3,3,9,6,3,5,7,5,0,5,4,8,4,4,2,5,0,0,5,6,8,8,1,4,7,9,5,2,5,1,6,6,1,1,1,7,7,5,5,3,9,1,2,4,6,1,6,6,5,7,3,7,2,8,2,4,5,4,8,3,8,3,1,4,1,5,3,2,3,4,4,3,5,3,5,6,1,8,0,4,2,0,3,2,2,4,3,9,6,7,6,0,9,8,2,9",
			"name": "Decimal expansion of least x\u003e0 satisfying 3*x^2-x+3=tan(x).",
			"comment": [
				"See A200338 for a guide to related sequences.  The Mathematica program includes a graph."
			],
			"example": [
				"x=1.4433963575054844250056881479525166111775539..."
			],
			"mathematica": [
				"a = 3; b = -1; c = 3;",
				"f[x_] := a*x^2 + b*x + c; g[x_] := Tan[x]",
				"Plot[{f[x], g[x]}, {x, -.1, Pi/2}, {AxesOrigin -\u003e {0, 0}}]",
				"r = x /. FindRoot[f[x] == g[x], {x, 1.4, 1.5}, WorkingPrecision -\u003e 110]",
				"RealDigits[r]   (* A200587 *)"
			],
			"xref": [
				"Cf. A200338."
			],
			"keyword": "nonn,cons",
			"offset": "1,2",
			"author": "_Clark Kimberling_, Nov 19 2011",
			"references": 2,
			"revision": 5,
			"time": "2012-03-30T18:58:01-04:00",
			"created": "2011-11-19T18:54:02-05:00"
		}
	]
}