{
	"greeting": "Greetings from The On-Line Encyclopedia of Integer Sequences! http://oeis.org/",
	"query": "id:A200485",
	"count": 1,
	"start": 0,
	"results": [
		{
			"number": 200485,
			"data": "2,6,6,0,8,4,5,5,4,1,1,2,8,5,2,7,2,1,7,8,8,6,4,2,1,4,4,2,7,8,3,5,9,0,7,1,3,2,5,7,8,0,4,3,5,9,4,7,6,9,1,4,3,9,2,3,7,2,1,2,9,3,8,1,9,4,9,7,7,3,7,7,2,1,3,4,5,7,4,5,4,2,8,4,2,2,1,2,3,2,7,8,8,2,5,4,3,7,4",
			"name": "Decimal expansion of least x\u003e0 satisfying x^2-3x+1=tan(x).",
			"comment": [
				"See A200338 for a guide to related sequences.  The Mathematica program includes a graph."
			],
			"example": [
				"x=0.266084554112852721788642144278359071325780..."
			],
			"mathematica": [
				"a = 1; b = -3; c = 1;",
				"f[x_] := a*x^2 + b*x + c; g[x_] := Tan[x]",
				"Plot[{f[x], g[x]}, {x, -.1, Pi/2}, {AxesOrigin -\u003e {0, 0}}]",
				"r = x /. FindRoot[f[x] == g[x], {x, .26, .27}, WorkingPrecision -\u003e 110]",
				"RealDigits[r]   (* A200485 *)"
			],
			"xref": [
				"Cf. A200338."
			],
			"keyword": "nonn,cons",
			"offset": "0,1",
			"author": "_Clark Kimberling_, Nov 18 2011",
			"references": 2,
			"revision": 5,
			"time": "2012-03-30T18:58:01-04:00",
			"created": "2011-11-18T17:41:46-05:00"
		}
	]
}