{
	"greeting": "Greetings from The On-Line Encyclopedia of Integer Sequences! http://oeis.org/",
	"query": "id:A201766",
	"count": 1,
	"start": 0,
	"results": [
		{
			"number": 201766,
			"data": "1,7,6,9,6,0,1,1,0,0,1,9,9,3,5,7,6,8,9,1,8,6,5,9,6,7,7,4,7,1,0,6,7,8,5,1,9,9,3,5,1,5,9,4,7,9,1,3,4,5,7,5,9,2,4,5,1,3,4,1,4,7,4,3,8,1,3,3,3,1,5,0,8,9,2,9,8,9,2,9,1,0,0,7,5,8,9,1,5,3,9,3,7,6,1,9,9,2,7",
			"name": "Decimal expansion of the greatest x satisfying -x^2+9=e^x.",
			"comment": [
				"See A201741 for a guide to related sequences.  The Mathematica program includes a graph."
			],
			"example": [
				"least:  -2.9916206301281875052379602922929380380...",
				"greatest:  1.76960110019935768918659677471067851..."
			],
			"mathematica": [
				"a = -1; b = 0; c = 9;",
				"f[x_] := a*x^2 + b*x + c; g[x_] := E^x",
				"Plot[{f[x], g[x]}, {x, -3, 3}, {AxesOrigin -\u003e {0, 0}}]",
				"r = x /. FindRoot[f[x] == g[x], {x, -2.9, -3.0}, WorkingPrecision -\u003e 110]",
				"RealDigits[r]    (* A201765 *)",
				"r = x /. FindRoot[f[x] == g[x], {x, 1.7, 1.8}, WorkingPrecision -\u003e 110]",
				"RealDigits[r]    (* A201766 *)"
			],
			"xref": [
				"Cf. A201741."
			],
			"keyword": "nonn,cons",
			"offset": "1,2",
			"author": "_Clark Kimberling_, Dec 05 2011",
			"references": 3,
			"revision": 5,
			"time": "2012-03-30T18:58:03-04:00",
			"created": "2011-12-05T21:28:07-05:00"
		}
	]
}