{
	"greeting": "Greetings from The On-Line Encyclopedia of Integer Sequences! http://oeis.org/",
	"query": "id:A201356",
	"count": 1,
	"start": 0,
	"results": [
		{
			"number": 201356,
			"data": "2,3,4,5,15,23,53,57,75,233,464,671,1431,2021,5861,6056,9063,14801",
			"name": "Numbers k such that (2^k + k + 1)*2^k + 1 is prime.",
			"example": [
				"4 is in the sequence because (2^4 + 4 + 1)*2^4 + 1 = 337 is prime."
			],
			"mathematica": [
				"lst={};Do[If[PrimeQ[(2^n + n+1)*2^n+1],AppendTo[lst,n]],{n,10000}];lst",
				"Select[Range[9100],PrimeQ[(2^#+#+1)2^#+1]\u0026] (* _Harvey P. Dale_, Dec 10 2011 *)"
			],
			"program": [
				"(PARI) is(n)=ispseudoprime((2^n+n+1)\u003c\u003cn+1) \\\\ _Charles R Greathouse IV_, Feb 17 2017",
				"(Python)",
				"from sympy import isprime",
				"def afind(limit, startk=1):",
				"    pow2 = 2**startk",
				"    for k in range(startk, limit+1):",
				"        if isprime((pow2 + k + 1)*pow2 + 1):",
				"            print(k, end=\", \")",
				"        pow2 *= 2",
				"afind(2100) # _Michael S. Branicky_, Jan 12 2022"
			],
			"xref": [
				"Cf. A201357, A201358, A201359, A201360, A201361, A201362, A201363."
			],
			"keyword": "nonn,hard,more,changed",
			"offset": "1,1",
			"author": "_Michel Lagneau_, Nov 30 2011",
			"ext": [
				"a(18) from _Michael S. Branicky_, Jan 12 2022"
			],
			"references": 7,
			"revision": 15,
			"time": "2022-01-12T17:53:25-05:00",
			"created": "2011-11-30T12:45:55-05:00"
		}
	]
}