{
	"greeting": "Greetings from The On-Line Encyclopedia of Integer Sequences! http://oeis.org/",
	"query": "id:A201661",
	"count": 1,
	"start": 0,
	"results": [
		{
			"number": 201661,
			"data": "1,4,1,8,3,5,5,6,1,8,5,4,4,9,4,2,6,5,6,3,3,5,3,0,6,2,3,6,8,7,2,0,8,1,9,1,9,3,3,6,0,8,6,0,7,1,9,4,4,2,3,1,8,8,8,4,1,9,9,5,2,7,3,9,8,4,1,1,0,9,3,7,8,2,6,9,7,4,6,2,0,7,9,6,9,2,0,3,5,0,8,7,4,1,3,1,5,5,1",
			"name": "Decimal expansion of least x satisfying x^2 - 1 = csc(x) and 0\u003cx\u003cPi.",
			"comment": [
				"See A201564 for a guide to related sequences.  The Mathematica program includes a graph."
			],
			"link": [
				"G. C. Greubel, \u003ca href=\"/A201661/b201661.txt\"\u003eTable of n, a(n) for n = 1..10000\u003c/a\u003e"
			],
			"example": [
				"least:  1.4183556185449426563353062368720819193360860...",
				"greatest:  3.0179424745361512278525720832771672528942..."
			],
			"mathematica": [
				"a = 1; c = -1;",
				"f[x_] := a*x^2 + c; g[x_] := Csc[x]",
				"Plot[{f[x], g[x]}, {x, 0, Pi}, {AxesOrigin -\u003e {0, 0}}]",
				"r = x /. FindRoot[f[x] == g[x], {x, 1.4, 1.5}, WorkingPrecision -\u003e 110]",
				"RealDigits[r]     (* A201661 *)",
				"r = x /. FindRoot[f[x] == g[x], {x, 3.0, 3.14}, WorkingPrecision -\u003e 110]",
				"RealDigits[r]     (* A201663 *)"
			],
			"program": [
				"(PARI) a=1; c=-1; solve(x=1, 2, a*x^2 + c - 1/sin(x)) \\\\ _G. C. Greubel_, Sep 11 2018"
			],
			"xref": [
				"Cf. A201564."
			],
			"keyword": "nonn,cons",
			"offset": "1,2",
			"author": "_Clark Kimberling_, Dec 04 2011",
			"references": 3,
			"revision": 10,
			"time": "2018-09-12T01:33:10-04:00",
			"created": "2011-12-04T18:40:54-05:00"
		}
	]
}