{
	"greeting": "Greetings from The On-Line Encyclopedia of Integer Sequences! http://oeis.org/",
	"query": "id:A201392",
	"count": 1,
	"start": 0,
	"results": [
		{
			"number": 201392,
			"data": "4,9424,19735330,18131486831,214888479967271",
			"name": "Number of nX7 0..3 arrays with rows and columns lexicographically nondecreasing and the instance counts of every value within one of each other",
			"comment": [
				"Column 7 of A201393"
			],
			"example": [
				"Some solutions for n=3",
				"..0..0..0..1..1..2..2....0..0..0..2..3..3..3....0..0..0..1..1..2..3",
				"..0..0..3..1..2..0..3....0..0..3..2..1..2..3....0..0..1..2..3..3..1",
				"..1..1..2..3..3..3..2....0..2..1..1..1..1..2....1..1..3..2..2..3..2"
			],
			"keyword": "nonn",
			"offset": "1,1",
			"author": "_R. H. Hardin_ Nov 30 2011",
			"references": 0,
			"revision": 4,
			"time": "2012-03-31T12:36:44-04:00",
			"created": "2011-11-30T20:25:23-05:00"
		}
	]
}