{
	"greeting": "Greetings from The On-Line Encyclopedia of Integer Sequences! http://oeis.org/",
	"query": "id:A201756",
	"count": 1,
	"start": 0,
	"results": [
		{
			"number": 201756,
			"data": "1,0,5,8,0,0,6,4,0,1,0,9,0,6,3,6,3,0,8,6,2,1,3,8,7,4,4,6,1,2,3,1,6,1,3,5,1,4,3,2,6,8,2,8,8,6,3,5,8,9,4,8,6,6,0,5,4,4,5,9,4,4,3,0,2,2,7,5,3,2,7,6,6,3,5,8,3,0,9,3,6,6,4,1,6,0,6,8,5,0,9,8,0,5,5,8,0,0,9",
			"name": "Decimal expansion of the greatest x satisfying -x^2+4=e^x.",
			"comment": [
				"See A201741 for a guide to related sequences.  The Mathematica program includes a graph."
			],
			"example": [
				"least:  -1.96463559748886450762265969211097...",
				"greatest:  1.058006401090636308621387446123..."
			],
			"mathematica": [
				"a = -1; b = 0; c = 4;",
				"f[x_] := a*x^2 + b*x + c; g[x_] := E^x",
				"Plot[{f[x], g[x]}, {x, -3, 2}, {AxesOrigin -\u003e {0, 0}}]",
				"r = x /. FindRoot[f[x] == g[x], {x, -2.0, -1.9}, WorkingPrecision -\u003e 110]",
				"RealDigits[r]    (* A201755 *)",
				"r = x /. FindRoot[f[x] == g[x], {x, 1.0, 1.1}, WorkingPrecision -\u003e 110]",
				"RealDigits[r]    (* A201756 *)"
			],
			"xref": [
				"Cf. A201741."
			],
			"keyword": "nonn,cons",
			"offset": "1,3",
			"author": "_Clark Kimberling_, Dec 05 2011",
			"references": 3,
			"revision": 5,
			"time": "2012-03-30T18:58:02-04:00",
			"created": "2011-12-05T21:29:40-05:00"
		}
	]
}