{
	"greeting": "Greetings from The On-Line Encyclopedia of Integer Sequences! http://oeis.org/",
	"query": "id:A201670",
	"count": 1,
	"start": 0,
	"results": [
		{
			"number": 201670,
			"data": "7,1,1,5,3,3,8,8,8,3,6,7,1,5,1,4,9,9,2,4,6,7,9,6,3,0,7,4,2,8,2,1,2,5,5,6,7,7,2,7,9,9,2,0,5,9,3,7,5,3,9,0,7,5,8,0,6,0,8,8,5,4,9,8,9,2,8,4,1,5,5,0,8,2,3,4,4,8,5,4,3,7,4,6,3,2,1,8,4,5,9,7,9,8,6,8,3,4,3",
			"name": "Decimal expansion of least x satisfying 5*x^2 - 1 = csc(x) and 0\u003cx\u003cPi.",
			"comment": [
				"See A201564 for a guide to related sequences.  The Mathematica program includes a graph."
			],
			"link": [
				"G. C. Greubel, \u003ca href=\"/A201670/b201670.txt\"\u003eTable of n, a(n) for n = 0..10000\u003c/a\u003e"
			],
			"example": [
				"least:  0.711533888367151499246796307428212556772...",
				"greatest:  3.120622993086918805141273424623066002..."
			],
			"mathematica": [
				"a = 5; c = -1;",
				"f[x_] := a*x^2 + c; g[x_] := Csc[x]",
				"Plot[{f[x], g[x]}, {x, 0, Pi}, {AxesOrigin -\u003e {0, 0}}]",
				"r = x /. FindRoot[f[x] == g[x], {x, .7, .8}, WorkingPrecision -\u003e 110]",
				"RealDigits[r]     (* A201670 *)",
				"r = x /. FindRoot[f[x] == g[x], {x, 3.0, 3.14}, WorkingPrecision -\u003e 110]",
				"RealDigits[r]     (* A201671 *)"
			],
			"program": [
				"(PARI) a=5; c=-1; solve(x=0.5, 1, a*x^2 + c - 1/sin(x)) \\\\ _G. C. Greubel_, Sep 11 2018"
			],
			"xref": [
				"Cf. A201564."
			],
			"keyword": "nonn,cons",
			"offset": "0,1",
			"author": "_Clark Kimberling_, Dec 04 2011",
			"references": 3,
			"revision": 9,
			"time": "2018-09-12T01:34:13-04:00",
			"created": "2011-12-04T18:38:04-05:00"
		}
	]
}