{
	"greeting": "Greetings from The On-Line Encyclopedia of Integer Sequences! http://oeis.org/",
	"query": "id:A201154",
	"count": 1,
	"start": 0,
	"results": [
		{
			"number": 201154,
			"data": "87,1634,28452,432048,6002677,77316192,938925282,10844322561,120031503310,1282802588833,13328322040209,135365873507224,1349536402322995,13250844417224841",
			"name": "Number of nX7 0..2 arrays with every diagonal, row and column running average nondecreasing rightwards and downwards and diagonally",
			"comment": [
				"Column 7 of A201155"
			],
			"example": [
				"Some solutions for n=3",
				"..0..0..0..0..0..0..0....0..0..0..0..0..0..0....0..0..0..1..1..1..1",
				"..0..1..2..1..1..1..2....0..0..2..1..1..2..2....0..0..0..1..1..1..2",
				"..1..2..2..2..2..2..2....0..0..2..2..1..2..2....0..2..1..1..1..2..2"
			],
			"keyword": "nonn",
			"offset": "1,1",
			"author": "_R. H. Hardin_ Nov 27 2011",
			"references": 0,
			"revision": 4,
			"time": "2012-03-31T12:36:43-04:00",
			"created": "2011-11-27T14:01:12-05:00"
		}
	]
}