{
	"greeting": "Greetings from The On-Line Encyclopedia of Integer Sequences! http://oeis.org/",
	"query": "id:A201131",
	"count": 1,
	"start": 0,
	"results": [
		{
			"number": 201131,
			"data": "3,1,11,1,5,19,9,1,11,15,9,69,27,21,77,85,53,1,5,201,9,43,93,403,45,87,17,63,45,15,23,9,17,273,51,31,111,277,45,39,51,229,9,109,29,357,81,1,237,33,137,169,137,847,75,367,57,87,285,25,105,177,113,1",
			"name": "Least k such that (5^n - k)*5^n + 1 is a prime number.",
			"mathematica": [
				"Table[k = 0; While[!PrimeQ[(5^n - k)*5^n + 1], k++]; k, {n, 85}]"
			],
			"xref": [
				"Cf. A200923, A200923."
			],
			"keyword": "nonn",
			"offset": "1,1",
			"author": "_Michel Lagneau_, Nov 27 2011",
			"references": 1,
			"revision": 6,
			"time": "2012-03-30T18:36:00-04:00",
			"created": "2011-11-28T13:08:27-05:00"
		}
	]
}