{
	"greeting": "Greetings from The On-Line Encyclopedia of Integer Sequences! http://oeis.org/",
	"query": "id:A201185",
	"count": 1,
	"start": 0,
	"results": [
		{
			"number": 201185,
			"data": "11,193,5107,15383,23629,48017,109379,823547,928561,1164629,2953129,5630503,9065207,17222629,25071043,28137757,31444879,60305879,65757521,67645183,79734379,90845129,108067747,113359943,142424923,152023477",
			"name": "Primes of the form 7n^3+4.",
			"link": [
				"Vincenzo Librandi, \u003ca href=\"/A201185/b201185.txt\"\u003eTable of n, a(n) for n = 1..2000\u003c/a\u003e"
			],
			"maple": [
				"A201185:=n-\u003e`if`(isprime(7*n^3+4), 7*n^3+4, NULL): seq(A201185(n), n=1..500); # _Wesley Ivan Hurt_, Apr 23 2017"
			],
			"mathematica": [
				"Select[Table[7n^3+4,{n,0,6000}],PrimeQ]"
			],
			"program": [
				"(MAGMA) [a: n in [0..400] | IsPrime(a) where a is 7*n^3+4]"
			],
			"keyword": "nonn,easy",
			"offset": "1,1",
			"author": "_Vincenzo Librandi_, Nov 29 2011",
			"references": 1,
			"revision": 8,
			"time": "2017-04-24T00:53:27-04:00",
			"created": "2011-11-29T11:54:08-05:00"
		}
	]
}