{
	"greeting": "Greetings from The On-Line Encyclopedia of Integer Sequences! http://oeis.org/",
	"query": "id:A201348",
	"count": 1,
	"start": 0,
	"results": [
		{
			"number": 201348,
			"data": "2,8,18,47,118,273,585,1174,2228,4030,6992,11697,18950,29839,45807,68736,101044,145796,206830,288899,397830,540701,726037,964026,1266756,1648474,2125868,2718373,3448502,4342203,5429243,6743620,8324004,10214208",
			"name": "Number of n X 3 0..1 arrays with rows and columns lexicographically nondecreasing and every element equal to at least one horizontal or vertical neighbor.",
			"comment": [
				"Column 3 of A201353."
			],
			"link": [
				"R. H. Hardin, \u003ca href=\"/A201348/b201348.txt\"\u003eTable of n, a(n) for n = 1..210\u003c/a\u003e"
			],
			"formula": [
				"Empirical: a(n) = (1/5040)*n^7 - (1/720)*n^6 + (37/720)*n^5 - (53/144)*n^4 + (239/90)*n^3 - (2927/360)*n^2 + (1931/140)*n - 4 for n\u003e1.",
				"Conjectures from _Colin Barker_, May 22 2018: (Start)",
				"G.f.: x*(2 - 8*x + 10*x^2 + 15*x^3 - 62*x^4 + 85*x^5 - 59*x^6 + 20*x^7 - 2*x^8) / (1 - x)^8.",
				"a(n) = 8*a(n-1) - 28*a(n-2) + 56*a(n-3) - 70*a(n-4) + 56*a(n-5) - 28*a(n-6) + 8*a(n-7) - a(n-8) for n\u003e9.",
				"(End)"
			],
			"example": [
				"Some solutions for n=10:",
				"..0..0..1....0..0..0....0..0..1....0..0..1....0..0..0....0..0..1....0..0..1",
				"..0..0..1....0..1..1....0..1..1....0..0..1....0..1..1....0..0..1....0..0..1",
				"..0..1..0....1..0..0....0..1..1....0..0..1....0..1..1....0..1..0....0..1..0",
				"..0..1..0....1..0..0....1..1..0....0..0..1....0..1..1....0..1..0....0..1..0",
				"..0..1..1....1..0..0....1..1..0....0..1..0....0..1..1....0..1..1....0..1..1",
				"..0..1..1....1..0..0....1..1..1....0..1..0....0..1..1....1..0..1....0..1..1",
				"..1..0..1....1..0..1....1..1..1....0..1..0....0..1..1....1..0..1....0..1..1",
				"..1..0..1....1..0..1....1..1..1....0..1..1....0..1..1....1..0..1....0..1..1",
				"..1..0..1....1..0..1....1..1..1....1..0..0....1..0..0....1..1..0....1..0..0",
				"..1..1..1....1..1..1....1..1..1....1..1..0....1..0..0....1..1..0....1..0..0"
			],
			"xref": [
				"Cf. A201353."
			],
			"keyword": "nonn",
			"offset": "1,1",
			"author": "_R. H. Hardin_, Nov 30 2011",
			"references": 1,
			"revision": 8,
			"time": "2018-05-22T05:42:07-04:00",
			"created": "2011-11-30T08:12:54-05:00"
		}
	]
}