{
	"greeting": "Greetings from The On-Line Encyclopedia of Integer Sequences! http://oeis.org/",
	"query": "id:A201499",
	"count": 1,
	"start": 0,
	"results": [
		{
			"number": 201499,
			"data": "2,2,6,8,40,58,338,526,3334,5448,36168,61108,417920,723354,5054148,8908546,63260780,113093022,813360930,1470597342,10685501398,19499227828,142885700222,262754984020,1939096937920,3589093760726,26647143177214",
			"name": "Number of n X n 0..1 arrays with every row and column running average nondecreasing rightwards and downwards, and the number of instances of each value within one of each other",
			"comment": [
				"Diagonal of A201503"
			],
			"link": [
				"R. H. Hardin, \u003ca href=\"/A201499/b201499.txt\"\u003eTable of n, a(n) for n = 1..39\u003c/a\u003e"
			],
			"example": [
				"Some solutions for n=4",
				"..0..0..0..1....0..0..0..0....0..0..0..1....0..0..0..1....0..0..0..0",
				"..0..0..0..1....0..0..1..1....0..0..1..1....0..0..0..1....0..0..0..1",
				"..0..1..1..1....0..1..1..1....0..0..1..1....0..0..1..1....0..1..1..1",
				"..0..1..1..1....0..1..1..1....0..1..1..1....1..1..1..1....1..1..1..1"
			],
			"keyword": "nonn",
			"offset": "1,1",
			"author": "_R. H. Hardin_ Dec 02 2011",
			"references": 1,
			"revision": 7,
			"time": "2015-12-18T18:17:55-05:00",
			"created": "2011-12-02T06:43:48-05:00"
		}
	]
}