{
	"greeting": "Greetings from The On-Line Encyclopedia of Integer Sequences! http://oeis.org/",
	"query": "id:A201462",
	"count": 1,
	"start": 0,
	"results": [
		{
			"number": 201462,
			"data": "3,6,9,11,12,15,18,21,22,24,27,30,33,36,39,42,44,45,48,51,54,55,57,60,63,66,69,72,75,77,78,81,84,87,88,90,93,96,99,102,105,108,111,114,117,120,123,126,129,132,135,138,141,144,147,148,150,153,156,159",
			"name": "Numbers that are not coprime to their 9's complement.",
			"comment": [
				"All multiples of 3 are in this sequence. Multiples of 11 are in this sequence if they have an even number of digits or if they are also multiples of 3."
			],
			"link": [
				"Reinhard Zumkeller, \u003ca href=\"/A201462/b201462.txt\"\u003eTable of n, a(n) for n = 1..10000\u003c/a\u003e"
			],
			"example": [
				"22 is in the sequence because its 9's complement is 77 and gcd(22, 77) = 11 \u003e 1."
			],
			"mathematica": [
				"(* First run the program for A061601 to define nineComplement *) Select[Range[200], GCD[#, nineComplement[#]] \u003e 1 \u0026]"
			],
			"program": [
				"(MAGMA) [n: n in [3..159] | Gcd(10^#Intseq(n)-1,n) gt 1]; // Bruno Berselli, Dec 02 2011",
				"(Haskell)",
				"a201462 n = a201462_list !! (n-1)",
				"a201462_list = [x | x \u003c- [1..], gcd x (a061601 x) \u003e 1]",
				"-- _Reinhard Zumkeller_, Dec 03 2011"
			],
			"xref": [
				"Cf. A061601 (9's complement of n), A192817 (complement)."
			],
			"keyword": "nonn,easy,base",
			"offset": "1,1",
			"author": "_Alonso del Arte_, Dec 01 2011",
			"references": 2,
			"revision": 17,
			"time": "2013-07-13T12:04:19-04:00",
			"created": "2011-12-02T17:58:37-05:00"
		}
	]
}