{
	"greeting": "Greetings from The On-Line Encyclopedia of Integer Sequences! http://oeis.org/",
	"query": "id:A201112",
	"count": 1,
	"start": 0,
	"results": [
		{
			"number": 201112,
			"data": "193,3001,8233,12289,17497,24001,81001,139969,164617,331777,472393,585337,786433,1029001,1215673,1908169,2654209,3573049,5184001,8232001,10125001,10956793,13722889,14739001,15804073,16355329,17496001,24000001",
			"name": "Primes of the form 3n^3+1.",
			"link": [
				"Vincenzo Librandi, \u003ca href=\"/A201112/b201112.txt\"\u003eTable of n, a(n) for n = 1..3400\u003c/a\u003e"
			],
			"mathematica": [
				"Select[Table[3n^3+1,{n,0,5000}],PrimeQ]"
			],
			"program": [
				"(MAGMA) [a: n in [0..300] | IsPrime(a) where a is 3*n^3+1]"
			],
			"keyword": "nonn,easy",
			"offset": "1,1",
			"author": "_Vincenzo Librandi_, Nov 27 2011",
			"references": 1,
			"revision": 5,
			"time": "2012-03-30T18:38:26-04:00",
			"created": "2011-11-27T10:35:34-05:00"
		}
	]
}