{
	"greeting": "Greetings from The On-Line Encyclopedia of Integer Sequences! http://oeis.org/",
	"query": "id:A201915",
	"count": 1,
	"start": 0,
	"results": [
		{
			"number": 201915,
			"data": "1,6,11,14,15,23,42,62,69,77,30,46,51,55,71,60,78,92,123,143,167,114,135,158,177,203,209,239,132,140,182,188,195,249,287,299,120,174,184,190,267,295,319,323,359,204,220,224,246,284,286,334,415,451,503",
			"name": "Each row of triangle T(n,k) has a sorted list of n values such that sigma(T(n,k)) = A007368(n).",
			"comment": [
				"The first and last terms of each row are given in A184393 and A184394.",
				"Note that the integers in the 10th row have sigma(n)=504 (A180164(1)) and thus include A002025(1) and A002046(1). - _Michel Marcus_, Oct 22 2013"
			],
			"link": [
				"T. D. Noe, \u003ca href=\"/A201915/b201915.txt\"\u003eRows n = 1..100 of triangle, flattened\u003c/a\u003e"
			],
			"example": [
				"Triangle:",
				"1",
				"6,    11",
				"14,   15,  23",
				"42,   62,  69,  77",
				"30,   46,  51,  55,  71",
				"60,   78,  92, 123, 143, 167",
				"114, 135, 158, 177, 203, 209, 239",
				"132, 140, 182, 188, 195, 249, 287, 299",
				"120, 174, 184, 190, 267, 295, 319, 323, 359",
				"204, 220, 224, 246, 284, 286, 334, 415, 451, 503"
			],
			"keyword": "nonn,tabl",
			"offset": "1,2",
			"author": "_T. D. Noe_, Jan 24 2012",
			"references": 5,
			"revision": 10,
			"time": "2013-10-22T18:47:28-04:00",
			"created": "2012-01-24T12:38:02-05:00"
		}
	]
}