{
	"greeting": "Greetings from The On-Line Encyclopedia of Integer Sequences! http://oeis.org/",
	"query": "id:A201299",
	"count": 1,
	"start": 0,
	"results": [
		{
			"number": 201299,
			"data": "2,1,0,0,9,2,9,3,7,7,0,2,7,2,8,5,9,4,0,8,0,0,3,7,3,7,5,5,6,7,9,3,5,5,5,9,3,6,3,8,9,4,5,2,6,3,7,8,9,2,3,2,7,2,8,1,6,4,9,2,6,2,0,0,3,1,1,9,1,5,1,7,9,5,7,4,0,9,6,4,5,6,9,1,6,5,2,2,7,4,1,0,0,1,3,7,9,9,5,7,5,7,7",
			"name": "Decimal expansion of x satisfying x^2 - 5 = cot(x) and 0 \u003c x \u003c Pi.",
			"comment": [
				"See A201280 for a guide to related sequences. The Mathematica program includes a graph."
			],
			"example": [
				"2.10092937702728594080037375567935559363..."
			],
			"mathematica": [
				"a = 1; c = -5;",
				"f[x_] := a*x^2 + c; g[x_] := Cot[x]",
				"Plot[{f[x], g[x]}, {x, 0, Pi}, {AxesOrigin -\u003e {0, 0}}]",
				"r = x /. FindRoot[f[x] == g[x], {x, 2.0, 2.1}, WorkingPrecision -\u003e 110]",
				"RealDigits[r]   (* A201299 *)"
			],
			"xref": [
				"Cf. A201280."
			],
			"keyword": "nonn,cons",
			"offset": "1,1",
			"author": "_Clark Kimberling_, Nov 29 2011",
			"ext": [
				"a(94) onwards corrected by _Georg Fischer_, Aug 03 2021"
			],
			"references": 2,
			"revision": 10,
			"time": "2021-08-03T13:49:51-04:00",
			"created": "2011-11-30T11:20:53-05:00"
		}
	]
}