{
	"greeting": "Greetings from The On-Line Encyclopedia of Integer Sequences! http://oeis.org/",
	"query": "id:A201245",
	"count": 1,
	"start": 0,
	"results": [
		{
			"number": 201245,
			"data": "0,0,29,661,6285,35378,143787,468529,1301351,3202970,7170593,14872997,28969129,53527866,94568255,160741233,264175507,421511954,655152581,994751765,1478979173,2157585442,3093803379,4367119121,6076449375,8343762538,11318183177",
			"name": "Number of ways to place 4 non-attacking ferses on an n X n board.",
			"comment": [
				"Fers is a leaper [1,1]."
			],
			"link": [
				"Vincenzo Librandi, \u003ca href=\"/A201245/b201245.txt\"\u003eTable of n, a(n) for n = 1..1000\u003c/a\u003e",
				"V. Kotesovec, \u003ca href=\"https://oeis.org/wiki/User:Vaclav_Kotesovec\"\u003eNon-attacking chess pieces\u003c/a\u003e, 6ed, p.415"
			],
			"formula": [
				"a(n) = (n^8 - 30n^6 + 48n^5 + 299n^4 - 912n^3 - 462n^2 + 4368n - 4200)/24, n\u003e=3.",
				"G.f.: -x^3*(2*x^8 - 55*x^7 + 230*x^6 - 254*x^5 - 225*x^4 + 173*x^3 + 1380*x^2 + 400*x + 29)/(x-1)^9."
			],
			"mathematica": [
				"CoefficientList[Series[- x^2 (2 x^8 - 55 x^7 + 230 x^6 - 254 x^5 - 225 x^4 + 173 x^3 + 1380 x^2 + 400 x + 29)/(x-1)^9, {x, 0, 40}], x] (* _Vincenzo Librandi_, Apr 30 2013 *)"
			],
			"xref": [
				"Cf. A172127, A201243, A201244, A201246, A201247, A201248."
			],
			"keyword": "nonn,easy",
			"offset": "1,3",
			"author": "_Vaclav Kotesovec_, Nov 28 2011",
			"references": 7,
			"revision": 17,
			"time": "2015-09-12T11:00:28-04:00",
			"created": "2011-11-28T17:38:41-05:00"
		}
	]
}