{
	"greeting": "Greetings from The On-Line Encyclopedia of Integer Sequences! http://oeis.org/",
	"query": "id:A201710",
	"count": 1,
	"start": 0,
	"results": [
		{
			"number": 201710,
			"data": "3,13,43,163,643,1213,1693,3613,4003,6763,9613,10243,12253,13693,18493,21163,22093,27043,30253,44893,49003,72253,82813,96043,100003,102013,112363,114493,141613,153763,156253,169003,179563,196003,228013",
			"name": "Primes of the form 10n^2 + 3.",
			"link": [
				"Vincenzo Librandi, \u003ca href=\"/A201710/b201710.txt\"\u003eTable of n, a(n) for n = 1..5000\u003c/a\u003e"
			],
			"mathematica": [
				"Select[Table[10n^2+3,{n,0,800}],PrimeQ]"
			],
			"program": [
				"(MAGMA) [a: n in [0..300] | IsPrime(a) where a is 10*n^2+3];"
			],
			"keyword": "nonn,easy",
			"offset": "1,1",
			"author": "_Vincenzo Librandi_, Dec 04 2011",
			"references": 1,
			"revision": 5,
			"time": "2012-03-30T18:38:26-04:00",
			"created": "2011-12-04T15:07:58-05:00"
		}
	]
}