{
	"greeting": "Greetings from The On-Line Encyclopedia of Integer Sequences! http://oeis.org/",
	"query": "id:A201812",
	"count": 1,
	"start": 0,
	"results": [
		{
			"number": 201812,
			"data": "19,61,151,313,571,949,1471,2161,3043,4141,5479,7081,8971,11173,13711,16609,19891,23581,27703,32281,37339,42901,48991,55633,62851,70669,79111,88201,97963,108421,119599,131521,144211,157693,171991,187129,203131",
			"name": "Number of arrays of 4 integers in -n..n with sum zero and equal numbers of elements greater than zero and less than zero.",
			"comment": [
				"Row 4 of A201811."
			],
			"link": [
				"R. H. Hardin, \u003ca href=\"/A201812/b201812.txt\"\u003eTable of n, a(n) for n = 1..210\u003c/a\u003e"
			],
			"formula": [
				"Empirical: a(n) = 4*n^3 + 14*n + 1.",
				"Conjectures from _Colin Barker_, May 25 2018: (Start)",
				"G.f.: x*(19 - 15*x + 21*x^2 - x^3) / (1 - x)^4.",
				"a(n) = 4*a(n-1) - 6*a(n-2) + 4*a(n-3) - a(n-4) for n\u003e4.",
				"(End)"
			],
			"example": [
				"Some solutions for n=21:",
				"  -6  15  -3  -8 -13   1  13  16  15 -15   3 -21  -6   8 -11   1",
				"   9 -12   8   9   9  21  -2 -18  13   9  -7  12   3  20 -18  18",
				"   4 -18  16 -17 -13 -14 -13   9 -20  21 -16  19 -11  -7  21 -15",
				"  -7  15 -21  16  17  -8   2  -7  -8 -15  20 -10  14 -21   8  -4"
			],
			"xref": [
				"Cf. A201811."
			],
			"keyword": "nonn",
			"offset": "1,1",
			"author": "_R. H. Hardin_, Dec 05 2011",
			"references": 1,
			"revision": 10,
			"time": "2018-05-25T08:56:37-04:00",
			"created": "2011-12-05T14:06:52-05:00"
		}
	]
}