{
	"greeting": "Greetings from The On-Line Encyclopedia of Integer Sequences! http://oeis.org/",
	"query": "id:A201318",
	"count": 1,
	"start": 0,
	"results": [
		{
			"number": 201318,
			"data": "2,6,6,1,1,0,3,4,3,8,5,8,4,5,7,3,1,3,5,5,1,7,4,2,4,4,5,0,0,6,0,0,4,6,1,1,7,9,7,2,5,4,8,7,0,2,3,2,1,9,2,5,4,2,2,6,3,2,4,5,3,5,6,2,9,5,0,0,7,0,6,8,9,3,8,0,5,6,5,2,3,1,9,8,7,2,1,3,1,2,6,5,9,9,0,5,5,1,0",
			"name": "Decimal expansion of x satisfying x^2 - 9 = cot(x) and 0 \u003c x \u003c Pi.",
			"comment": [
				"See A201280 for a guide to related sequences. The Mathematica program includes a graph."
			],
			"example": [
				"x=2.6611034385845731355174244500600..."
			],
			"mathematica": [
				"a = 1; c = -9;",
				"f[x_] := a*x^2 + c; g[x_] := Cot[x]",
				"Plot[{f[x], g[x]}, {x, 0, Pi}, {AxesOrigin -\u003e {0, 0}}]",
				"r = x /. FindRoot[f[x] == g[x], {x, 2.6, 2.7}, WorkingPrecision -\u003e 110]",
				"RealDigits[r]   (* A201318 *)"
			],
			"xref": [
				"Cf. A201280."
			],
			"keyword": "nonn,cons",
			"offset": "1,1",
			"author": "_Clark Kimberling_, Nov 30 2011",
			"references": 2,
			"revision": 8,
			"time": "2021-04-10T20:59:23-04:00",
			"created": "2011-12-01T10:20:11-05:00"
		}
	]
}