{
	"greeting": "Greetings from The On-Line Encyclopedia of Integer Sequences! http://oeis.org/",
	"query": "id:A201150",
	"count": 1,
	"start": 0,
	"results": [
		{
			"number": 201150,
			"data": "11,56,235,860,2910,9287,28452,84473,244933,697065,1954865,5417604,14870436,40495840,109564073,294830410,789790546,2107673769,5606720691,14874608710,39372687032,104018286133,274358183769,722650263970",
			"name": "Number of nX3 0..2 arrays with every diagonal, row and column running average nondecreasing rightwards and downwards and diagonally",
			"comment": [
				"Column 3 of A201155"
			],
			"link": [
				"R. H. Hardin, \u003ca href=\"/A201150/b201150.txt\"\u003eTable of n, a(n) for n = 1..111\u003c/a\u003e"
			],
			"example": [
				"Some solutions for n=8",
				"..0..1..1....0..0..2....0..0..0....0..0..0....0..0..1....0..0..0....0..0..2",
				"..0..1..1....0..2..2....0..0..1....0..0..0....0..0..1....0..1..2....0..2..2",
				"..0..1..1....1..1..2....0..0..1....0..0..0....0..0..1....1..2..2....0..1..2",
				"..0..1..2....1..1..2....0..0..1....0..0..0....0..0..1....2..2..2....0..1..2",
				"..0..1..2....1..2..2....1..1..2....0..1..1....0..2..1....1..2..2....0..1..2",
				"..0..1..2....2..2..2....1..2..2....0..1..2....1..2..2....1..2..2....0..1..2",
				"..2..2..2....1..2..2....2..2..2....0..2..2....1..1..2....1..2..2....1..1..2",
				"..1..2..2....2..2..2....1..2..2....1..1..2....1..2..2....2..2..2....1..1..2"
			],
			"keyword": "nonn",
			"offset": "1,1",
			"author": "_R. H. Hardin_ Nov 27 2011",
			"references": 1,
			"revision": 5,
			"time": "2012-03-31T12:36:43-04:00",
			"created": "2011-11-27T13:59:03-05:00"
		}
	]
}