{
	"greeting": "Greetings from The On-Line Encyclopedia of Integer Sequences! http://oeis.org/",
	"query": "id:A201020",
	"count": 1,
	"start": 0,
	"results": [
		{
			"number": 201020,
			"data": "6,16,28,32,44,48,68,74,82,84,86,116,123,128,132,144,147,148,161,168,174,182,184,186,213,218,224,228,231,238,242,244,246,264,267,272,276,282,288,289,298,312,321,328,344,368,374,377,378,382,386,387,414,417,418,422",
			"name": "Composite numbers whose multiplicative digital root is 6.",
			"comment": [
				"Complement of A201019 with respect to A034053."
			],
			"link": [
				"Harvey P. Dale, \u003ca href=\"/A201020/b201020.txt\"\u003eTable of n, a(n) for n = 1..1000\u003c/a\u003e"
			],
			"example": [
				"Number 128 is in sequence because 1*2*8=16, 1*6=6."
			],
			"mathematica": [
				"mdr6Q[n_]:=CompositeQ[n]\u0026\u0026NestWhile[Times@@IntegerDigits[#]\u0026,n,#\u003e9\u0026] ==6; Select[Range[500],mdr6Q] (* _Harvey P. Dale_, May 30 2015 *)"
			],
			"xref": [
				"Cf. A201019 (primes whose multiplicative digital root is 6), A034053 (numbers whose multiplicative digital root is 6)."
			],
			"keyword": "nonn,base",
			"offset": "1,1",
			"author": "_Jaroslav Krizek_, Nov 25 2011",
			"references": 3,
			"revision": 10,
			"time": "2015-05-30T08:35:23-04:00",
			"created": "2011-11-26T19:33:30-05:00"
		}
	]
}