{
	"greeting": "Greetings from The On-Line Encyclopedia of Integer Sequences! http://oeis.org/",
	"query": "id:A201346",
	"count": 1,
	"start": 0,
	"results": [
		{
			"number": 201346,
			"data": "0,4,18,191,4860,310036,53350918,26097731070,37211940860240,157260419809121989",
			"name": "Number of n X n 0..1 arrays with rows and columns lexicographically nondecreasing and every element equal to at least one horizontal or vertical neighbor",
			"comment": [
				"Diagonal of A201353"
			],
			"example": [
				"Some solutions for n=5",
				"..0..0..0..0..1....0..0..0..1..1....0..0..0..1..1....0..0..0..0..1",
				"..0..0..0..1..1....0..0..1..0..0....0..0..0..1..1....0..0..1..1..1",
				"..0..1..1..0..0....0..0..1..0..0....0..0..1..1..1....0..1..0..1..1",
				"..1..0..1..0..0....0..0..1..0..0....0..0..1..1..1....1..1..0..1..0",
				"..1..0..1..1..1....0..0..1..0..0....0..1..1..0..0....1..1..0..1..0"
			],
			"keyword": "nonn",
			"offset": "1,2",
			"author": "_R. H. Hardin_ Nov 30 2011",
			"references": 0,
			"revision": 6,
			"time": "2015-12-18T18:17:55-05:00",
			"created": "2011-11-30T08:11:00-05:00"
		}
	]
}