{
	"greeting": "Greetings from The On-Line Encyclopedia of Integer Sequences! http://oeis.org/",
	"query": "id:A201911",
	"count": 1,
	"start": 0,
	"results": [
		{
			"number": 201911,
			"data": "1,1,1,2,4,3,0,1,7,5,2,3,10,4,6,9,8,1,7,10,5,9,11,12,6,3,8,4,2,1,7,15,3,4,11,9,12,16,10,2,14,13,6,8,5,1,7,11,1,7,3,21,9,17,4,5,12,15,13,22,16,20,2,14,6,19,18,11,8,10,1,7,20,24,23,16,25",
			"name": "Irregular triangle of 7^k mod prime(n).",
			"comment": [
				"Except for the fourth row, the first term of each row is 1. Many sequences are in this one: starting at A036132 (mod 71) and A070404 (mod 11)."
			],
			"link": [
				"T. D. Noe, \u003ca href=\"/A201911/b201911.txt\"\u003eRows n = 1..60, flattened\u003c/a\u003e"
			],
			"example": [
				"The first 9 rows are:",
				"  1",
				"  1",
				"  1, 2,  4,  3",
				"  0",
				"  1, 7,  5,  2, 3, 10,  4,  6,  9,  8",
				"  1, 7, 10,  5, 9, 11, 12,  6,  3,  8,  4,  2",
				"  1, 7, 15,  3, 4, 11,  9, 12, 16, 10,  2, 14, 13,  6, 8,  5",
				"  1, 7, 11",
				"  1, 7,  3, 21, 9, 17,  4,  5, 12, 15, 13, 22, 16, 20, 2, 14, 6, 19, 18, 11, 8, 10"
			],
			"mathematica": [
				"nn = 10; p = 7; t = p^Range[0,Prime[nn]]; Flatten[Table[If[Mod[n, p] == 0, {0}, tm = Mod[t, n]; len = Position[tm, 1, 1, 2][[-1,1]]; Take[tm, len-1]], {n, Prime[Range[nn]]}]]"
			],
			"program": [
				"(GAP) P:=Filtered([1..350],IsPrime);;",
				"R:=List([1..Length(P)],n-\u003eOrderMod(7,P[n]));;",
				"Flat(Concatenation([1,1,1,2,4,3,0],List([5..10],n-\u003eList([0..R[n]-1],k-\u003ePowerMod(7,k,P[n]))))); # _Muniru A Asiru_, Feb 01 2019"
			],
			"xref": [
				"Cf. A201908 (2^k), A201909 (3^k), A201910 (5^k).",
				"Cf. A070404 (11), A070405 (13), A070407 (17), A070409 (23), A070413 (29), A070415 (31), A070420 (37), A070422 (39), A070424 (41), A070425 (43), A070429 (47), A036132 (71)."
			],
			"keyword": "nonn,tabf",
			"offset": "1,4",
			"author": "_T. D. Noe_, Dec 07 2011",
			"references": 8,
			"revision": 14,
			"time": "2019-02-02T06:42:37-05:00",
			"created": "2011-12-11T00:11:57-05:00"
		}
	]
}