{
	"greeting": "Greetings from The On-Line Encyclopedia of Integer Sequences! http://oeis.org/",
	"query": "id:A201284",
	"count": 1,
	"start": 0,
	"results": [
		{
			"number": 201284,
			"data": "1,9,5,9,2,9,8,9,9,2,6,5,4,6,2,6,3,2,1,8,1,1,5,5,3,5,3,8,3,4,7,7,4,0,8,3,6,0,2,9,6,9,6,9,5,4,0,1,3,5,8,3,3,8,6,6,5,2,7,3,8,6,1,2,6,7,2,9,6,6,1,9,1,1,9,7,4,9,7,1,4,2,2,7,4,2,0,3,9,8,9,4,6,8,0,0,5,3,1",
			"name": "Decimal expansion of x satisfying x^2 + 5 = cot(x) and 0 \u003c x \u003c Pi.",
			"comment": [
				"See A201280 for a guide to related sequences. The Mathematica program includes a graph."
			],
			"example": [
				"x=0.1959298992654626321811553538347740836029..."
			],
			"mathematica": [
				"a = 1; c = 5;",
				"f[x_] := a*x^2 + c; g[x_] := Cot[x]",
				"Plot[{f[x], g[x]}, {x, 0, Pi/2}, {AxesOrigin -\u003e {0, 0}}]",
				"r = x /. FindRoot[f[x] == g[x], {x, .1, .2}, WorkingPrecision -\u003e 110]",
				"RealDigits[r]   (* A201284 *)"
			],
			"xref": [
				"Cf. A201280."
			],
			"keyword": "nonn,cons",
			"offset": "0,2",
			"author": "_Clark Kimberling_, Nov 29 2011",
			"references": 2,
			"revision": 9,
			"time": "2021-04-10T21:34:32-04:00",
			"created": "2011-11-30T11:18:06-05:00"
		}
	]
}