{
	"greeting": "Greetings from The On-Line Encyclopedia of Integer Sequences! http://oeis.org/",
	"query": "id:A202259",
	"count": 1,
	"start": 0,
	"results": [
		{
			"number": 202259,
			"data": "0,1,4,6,8,9,10,12,14,15,16,18,40,42,44,45,46,48,49,60,62,63,64,65,66,68,69,80,81,82,84,85,86,87,88,90,91,92,93,94,95,96,98,99,100,102,104,105,106,108,120,121,122,123,124,125,126,128,129,140,141,142",
			"name": "Right-truncatable nonprimes: every prefix is nonprime number.",
			"comment": [
				"Supersequence of A202260, A202265. - _Barry Carter_, Sep 16 2016"
			],
			"link": [
				"Robert Israel, \u003ca href=\"/A202259/b202259.txt\"\u003eTable of n, a(n) for n = 1..10000\u003c/a\u003e",
				"Barry Carter, \u003ca href=\"https://github.com/barrycarter/bcapps/blob/master/QUORA/A202259.b.txt.bz2\"\u003eTable of n, a(n) for n=1..23498959\u003c/a\u003e (bz2 compressed)",
				"Barry Carter, \u003ca href=\"https://github.com/barrycarter/bcapps/blob/master/QUORA/A202259.m\"\u003eMathematica package\u003c/a\u003e"
			],
			"maple": [
				"filter:= proc(n) option remember; not isprime(n) and procname(floor(n/10)) end proc:",
				"for i from 0 to 9 do filter(i):= not isprime(i) od:",
				"select(filter, [$0..1000]); # _Robert Israel_, Nov 01 2016"
			],
			"xref": [
				"Cf. A012883 (right-truncatable noncomposites), A024770 (right-truncatable primes), A202260 (right-truncatable composites)."
			],
			"keyword": "nonn,base",
			"offset": "1,3",
			"author": "_Jaroslav Krizek_, Dec 25 2011",
			"references": 9,
			"revision": 22,
			"time": "2016-11-02T03:47:49-04:00",
			"created": "2011-12-26T14:06:39-05:00"
		}
	]
}