{
	"greeting": "Greetings from The On-Line Encyclopedia of Integer Sequences! http://oeis.org/",
	"query": "id:A202981",
	"count": 1,
	"start": 0,
	"results": [
		{
			"number": 202981,
			"data": "1,9,1233,595202,2075667829,54374200726981,9811910575029966643,12034608427204532840940835,102201977619119405092991507364893,6015924965468985859548914234181730364514",
			"name": "Number of n X n 0..2 arrays with every nonzero element less than or equal to some NW, E or S neighbor",
			"comment": [
				"Diagonal of A202988"
			],
			"example": [
				"Some solutions for n=3",
				"..1..2..2....0..1..2....1..0..0....2..2..2....2..1..0....1..1..0....0..2..0",
				"..1..2..2....2..2..2....2..2..1....1..1..2....2..2..0....1..1..1....2..2..2",
				"..1..1..1....2..2..2....0..2..2....1..1..1....0..0..2....1..1..1....1..1..0"
			],
			"keyword": "nonn",
			"offset": "1,2",
			"author": "_R. H. Hardin_ Dec 26 2011",
			"references": 0,
			"revision": 6,
			"time": "2015-12-18T18:17:57-05:00",
			"created": "2011-12-26T20:43:39-05:00"
		}
	]
}