{
	"greeting": "Greetings from The On-Line Encyclopedia of Integer Sequences! http://oeis.org/",
	"query": "id:A202497",
	"count": 1,
	"start": 0,
	"results": [
		{
			"number": 202497,
			"data": "1,0,8,8,5,7,5,5,2,8,7,8,5,4,5,0,5,5,3,9,7,3,7,9,1,5,2,2,1,6,5,6,4,0,7,3,9,9,4,4,4,5,9,7,4,9,8,9,8,8,5,0,0,3,4,9,0,5,1,7,3,2,1,3,6,7,0,4,2,0,4,7,1,9,5,6,0,9,2,3,1,7,5,9,3,4,6,3,6,0,3,2,2,5,1,0,1,3,7",
			"name": "Decimal expansion of x satisfying x=e^(-2x-2).",
			"comment": [
				"See A202348 for a guide to related sequences.  The Mathematica program includes a graph."
			],
			"example": [
				"x=0.1088575528785450553973791522165640739944..."
			],
			"mathematica": [
				"u = -2; v = -2;",
				"f[x_] := x; g[x_] := E^(u*x + v)",
				"Plot[{f[x], g[x]}, {x, -1, 1}, {AxesOrigin -\u003e {0, 0}}]",
				"r = x /. FindRoot[f[x] == g[x], {x, .1, .2}, WorkingPrecision -\u003e 110]",
				"RealDigits[r]    (* A202497 *)",
				"RealDigits[ ProductLog[2/E^2]/2, 10, 99] // First (* _Jean-François Alcover_, Feb 27 2013 *)"
			],
			"xref": [
				"Cf. A202348."
			],
			"keyword": "nonn,cons",
			"offset": "0,3",
			"author": "_Clark Kimberling_, Dec 20 2011",
			"references": 2,
			"revision": 8,
			"time": "2013-02-27T05:27:05-05:00",
			"created": "2011-12-20T20:51:17-05:00"
		}
	]
}