{
	"greeting": "Greetings from The On-Line Encyclopedia of Integer Sequences! http://oeis.org/",
	"query": "id:A202565",
	"count": 1,
	"start": 0,
	"results": [
		{
			"number": 202565,
			"data": "1,56,5451,534106,52336901,5128482156,502538914351,49243685124206,4825378603257801,472837859434140256,46333284845942487251,4540189077042929610306,444892196265361159322701,43594895044928350684014356,4271854822206713005874084151",
			"name": "Indices of decagonal numbers which are also pentagonal.",
			"comment": [
				"As n increases, this sequence is approximately geometric with common ratio r = lim(n-\u003eInfinity,  a(n)/a(n-1)) = (sqrt(3)+sqrt(2))^4 = 49+20*sqrt(6)."
			],
			"link": [
				"\u003ca href=\"/index/Rec\"\u003eIndex entries for linear recurrences with constant coefficients\u003c/a\u003e, signature (99,-99,1)."
			],
			"formula": [
				"G.f.: x*(1-43*x+6*x^2) / ((1-x)*(1-98*x+x^2)).",
				"a(n) = 98*a(n-1)-a(n-2)-36.",
				"a(n) = 99*a(n-1)-99*a(n-2)+a(n-3).",
				"a(n) = 1/48*(5*sqrt(3)*((sqrt(3)+sqrt(2))^(4n-3)+(sqrt(3)-sqrt(2))^(4n-3))+18).",
				"a(n) = ceiling(5/48*sqrt(3)*(sqrt(3)+sqrt(2))^(4n-3))."
			],
			"example": [
				"The second decagonal number that is also pentagonal is A001107(56) = 12376. Hence a(2)=56."
			],
			"mathematica": [
				"LinearRecurrence[{99, -99, 1}, {1, 56, 5451}, 15]"
			],
			"xref": [
				"Cf. A202563, A202564, A000326, A001107."
			],
			"keyword": "nonn,easy",
			"offset": "1,2",
			"author": "_Ant King_, Dec 22 2011",
			"references": 2,
			"revision": 11,
			"time": "2015-06-13T00:54:08-04:00",
			"created": "2011-12-24T17:02:49-05:00"
		}
	]
}