{
	"greeting": "Greetings from The On-Line Encyclopedia of Integer Sequences! http://oeis.org/",
	"query": "id:A202522",
	"count": 1,
	"start": 0,
	"results": [
		{
			"number": 202522,
			"data": "15,30,1134,17010,364864500,547296750,390769879500,976924698750,58468943220187500,17540682966056250,3234019037547375000,1397904728979852843750,1054020165650809044187500,10163765883061372926093750,3396527282801449604442009375000,2547395462101087203331507031250",
			"name": "Denominator of the coefficient of [x^(2n)] of the Taylor series log(cosec(x)*arcsinh(x))= x^4/15 -x^6/30 +25*x^8/1134 -269*x^10/17010 +4401359*x^12/364864500-...",
			"xref": [
				"Cf. A012859 (numerators)."
			],
			"keyword": "nonn,frac",
			"offset": "2,1",
			"author": "_R. J. Mathar_, Dec 20 2011",
			"references": 1,
			"revision": 5,
			"time": "2012-03-30T17:40:30-04:00",
			"created": "2011-12-20T14:55:00-05:00"
		}
	]
}