{
	"greeting": "Greetings from The On-Line Encyclopedia of Integer Sequences! http://oeis.org/",
	"query": "id:A202983",
	"count": 1,
	"start": 0,
	"results": [
		{
			"number": 202983,
			"data": "1,63,1233,16854,239196,3557168,52328419,764541713,11194473148,164061008324,2403403907914,35204470177631,515704944067269,7554581118847553,110665921163215772,1621126629146201847",
			"name": "Number of nX3 0..2 arrays with every nonzero element less than or equal to some NW, E or S neighbor",
			"comment": [
				"Column 3 of A202988"
			],
			"link": [
				"R. H. Hardin, \u003ca href=\"/A202983/b202983.txt\"\u003eTable of n, a(n) for n = 1..210\u003c/a\u003e"
			],
			"formula": [
				"Empirical: a(n) = 27*a(n-1) -271*a(n-2) +1899*a(n-3) -11048*a(n-4) +44346*a(n-5) -113218*a(n-6) +201165*a(n-7) -291398*a(n-8) +360023*a(n-9) -334000*a(n-10) +199528*a(n-11) -66264*a(n-12) +9212*a(n-13)"
			],
			"example": [
				"Some solutions for n=4",
				"..1..1..0....0..0..0....0..1..0....2..2..2....2..2..2....0..2..1....0..1..1",
				"..2..2..0....2..1..0....2..1..1....2..2..2....0..2..2....2..2..2....1..1..1",
				"..0..2..0....2..2..0....2..2..0....1..0..1....0..1..2....2..2..2....0..1..1",
				"..2..2..2....1..1..2....0..1..0....1..1..0....0..0..0....1..1..1....0..1..1"
			],
			"keyword": "nonn",
			"offset": "1,2",
			"author": "_R. H. Hardin_ Dec 26 2011",
			"references": 1,
			"revision": 5,
			"time": "2012-03-31T12:36:54-04:00",
			"created": "2011-12-26T20:48:19-05:00"
		}
	]
}