{
	"greeting": "Greetings from The On-Line Encyclopedia of Integer Sequences! http://oeis.org/",
	"query": "id:A202280",
	"count": 1,
	"start": 0,
	"results": [
		{
			"number": 202280,
			"data": "0,140634693,486075138127903440,1680019594496931198149880507,5806645138782932871709060110684609120,20069484831126506853711147766546649419638369093,69366081749442007616768328339033006654521310003044446320",
			"name": "y-values in the solutions to x^2 - 151*y^2 = 1.",
			"reference": [
				"A. H. Beiler, Recreations in the Theory of Numbers, Dover, NY, 1996, p. 248."
			],
			"link": [
				"\u003ca href=\"/index/Rec#order_02\"\u003eIndex entries for linear recurrences with constant coefficients\u003c/a\u003e, signature (3456296080, -1)."
			],
			"formula": [
				"a(n) = 3456296080*a(n-1) - a(n-2) with a(1) = 0 and a(2) = 140634693.",
				"G.f.: 140634693*x^2/(1 - 3456296080*x + x^2)."
			],
			"mathematica": [
				"LinearRecurrence[{3456296080, -1}, {0, 140634693}, 7]"
			],
			"xref": [
				"Cf. A041277, A082394."
			],
			"keyword": "nonn,easy",
			"offset": "1,2",
			"author": "_Arkadiusz Wesolowski_, Dec 15 2011",
			"references": 0,
			"revision": 11,
			"time": "2015-08-01T09:59:34-04:00",
			"created": "2011-12-15T15:15:57-05:00"
		}
	]
}