{
	"greeting": "Greetings from The On-Line Encyclopedia of Integer Sequences! http://oeis.org/",
	"query": "id:A202191",
	"count": 1,
	"start": 0,
	"results": [
		{
			"number": 202191,
			"data": "1,1,1,1,2,1,2,3,3,1,3,6,6,4,1,4,11,13,10,5,1,6,18,27,24,15,6,1,9,30,51,55,40,21,7,1,13,50,94,116,100,62,28,8,1,19,81,171,234,231,168,91,36,9,1,28,130,303,460,505,420,266,128,45,10,1,41,208",
			"name": "Triangle T(n,m) = coefficient of x^n in expansion of [x/(1-x-x^3)]^m = sum(n\u003e=m, T(n,m) x^n).",
			"comment": [
				"The matrix inverse starts",
				"1;",
				"-1,1;",
				"1,-2,1;",
				"-2,3,-3,1;",
				"5,-6,6,-4,1;",
				"-11,15,-13,10,-5,1;",
				"24,-36,33,-24,15,-6,1;",
				"-57,84,-84,63,-40,21,-7,1;",
				"141,-204,208,-168,110,-62,28,-8,1. - _R. J. Mathar_, Mar 15 2013"
			],
			"formula": [
				"T(n,m)=sum(k=0..n-m, binomial(k,(n-m-k)/2)*binomial(m+k-1,m-1)*((-1)^(n-m-k)+1))/2."
			],
			"example": [
				"1",
				"1, 1,",
				"1, 2, 1,",
				"2, 3, 3, 1,",
				"3, 6, 6, 4, 1,",
				"4, 11, 13, 10, 5, 1,",
				"6, 18, 27, 24, 15, 6, 1"
			],
			"maple": [
				"A202191 := proc(n,k)",
				"    (x/(1-x-x^3))^k ;",
				"    coeftayl(%,x=0,n) ;",
				"end proc: # _R. J. Mathar_, Mar 15 2013"
			],
			"program": [
				"(Maxima)",
				"T(n,m):=sum(binomial(k,(n-m-k)/2)*binomial(m+k-1,m-1)*((-1)^(n-m-k)+1),k,0,n-m)/2;"
			],
			"keyword": "nonn,tabl",
			"offset": "1,5",
			"author": "_Vladimir Kruchinin_, Dec 14 2011",
			"references": 1,
			"revision": 10,
			"time": "2015-08-09T01:06:53-04:00",
			"created": "2011-12-15T12:06:57-05:00"
		}
	]
}