{
	"greeting": "Greetings from The On-Line Encyclopedia of Integer Sequences! http://oeis.org/",
	"query": "id:A202278",
	"count": 1,
	"start": 0,
	"results": [
		{
			"number": 202278,
			"data": "0,1,2,3,5,8,13,21,34,55,89",
			"name": "Right-truncatable Fibonacci numbers: every prefix is Fibonacci number.",
			"comment": [
				"This sequence is finite with 11 terms.",
				"n such that both n and floor(n/10) are Fibonacci numbers. - _Eric M. Schmidt_, Feb 18 2013",
				"First 11 terms of A096275, A132634, A132636. Also 11 consecutive terms in A024595, A025109. - _Omar E. Pol_, Feb 19 2013"
			],
			"xref": [
				"Cf. A000045 (Fibonacci numbers)."
			],
			"keyword": "nonn,fini,full,base",
			"offset": "1,3",
			"author": "_Jaroslav Krizek_, Dec 25 2011",
			"references": 0,
			"revision": 19,
			"time": "2013-02-19T12:37:54-05:00",
			"created": "2012-01-04T17:09:33-05:00"
		}
	]
}