{
	"greeting": "Greetings from The On-Line Encyclopedia of Integer Sequences! http://oeis.org/",
	"query": "id:A202646",
	"count": 1,
	"start": 0,
	"results": [
		{
			"number": 202646,
			"data": "25526,224940,2443538,27264078,304200608,3423531924,38841628112,440204384164,4991946563700,56832465909314,646275853203400,7346916109114702,83673041654762546,952266920996706060",
			"name": "Number of (n+2)X9 binary arrays avoiding patterns 000 and 111 in rows, columns and nw-to-se diagonals",
			"comment": [
				"Column 7 of A202647"
			],
			"link": [
				"R. H. Hardin, \u003ca href=\"/A202646/b202646.txt\"\u003eTable of n, a(n) for n = 1..210\u003c/a\u003e"
			],
			"example": [
				"Some solutions for n=1",
				"..1..1..0..1..0..0..1..0..1....1..1..0..0..1..0..0..1..0",
				"..1..0..0..1..0..1..0..1..0....1..0..1..1..0..0..1..0..1",
				"..0..1..1..0..1..1..0..1..0....0..0..1..0..1..1..0..1..1"
			],
			"keyword": "nonn",
			"offset": "1,1",
			"author": "_R. H. Hardin_ Dec 22 2011",
			"references": 1,
			"revision": 5,
			"time": "2012-03-31T12:36:49-04:00",
			"created": "2011-12-22T06:15:03-05:00"
		}
	]
}