{
	"greeting": "Greetings from The On-Line Encyclopedia of Integer Sequences! http://oeis.org/",
	"query": "id:A202455",
	"count": 1,
	"start": 0,
	"results": [
		{
			"number": 202455,
			"data": "729,1194,1876,2835,4137,5854,8064,10851,14305,18522,23604,29659,36801,45150,54832,65979,78729,93226,109620,128067,148729,171774,197376,225715,256977,291354,329044,370251,415185,464062,517104,574539,636601,703530",
			"name": "Number of (n+2) X 4 binary arrays with consecutive windows of three bits considered as a binary number nondecreasing in every row and column.",
			"comment": [
				"Column 2 of A202461."
			],
			"link": [
				"R. H. Hardin, \u003ca href=\"/A202455/b202455.txt\"\u003eTable of n, a(n) for n = 1..210\u003c/a\u003e"
			],
			"formula": [
				"Empirical: a(n) = (1/4)*n^4 + (15/2)*n^3 + (229/4)*n^2 + 237*n + 427.",
				"Conjectures from _Colin Barker_, May 31 2018: (Start)",
				"G.f.: x*(729 - 2451*x + 3196*x^2 - 1895*x^3 + 427*x^4) / (1 - x)^5.",
				"a(n) = 5*a(n-1) - 10*a(n-2) + 10*a(n-3) - 5*a(n-4) + a(n-5) for n\u003e5.",
				"(End)"
			],
			"example": [
				"Some solutions for n=4:",
				"..0..0..0..0....0..0..0..0....0..1..0..0....0..0..0..0....0..0..0..0",
				"..0..1..1..1....0..0..0..0....0..1..0..0....0..0..0..0....0..0..1..0",
				"..0..1..1..1....0..0..0..0....0..1..0..0....0..0..0..0....0..0..1..0",
				"..1..1..1..1....0..1..0..1....0..1..1..0....0..0..0..0....0..1..1..0",
				"..1..1..1..1....0..0..1..1....0..1..0..0....0..0..1..0....0..1..1..1",
				"..0..1..1..1....0..0..1..1....1..1..1..1....0..0..0..1....1..1..1..1"
			],
			"xref": [
				"Cf. A202461."
			],
			"keyword": "nonn",
			"offset": "1,1",
			"author": "_R. H. Hardin_, Dec 19 2011",
			"references": 1,
			"revision": 11,
			"time": "2018-06-01T07:54:34-04:00",
			"created": "2011-12-19T11:01:43-05:00"
		}
	]
}