{
	"greeting": "Greetings from The On-Line Encyclopedia of Integer Sequences! http://oeis.org/",
	"query": "id:A202627",
	"count": 1,
	"start": 0,
	"results": [
		{
			"number": 202627,
			"data": "0,11,22,0,4,7775",
			"name": "Order of Fibonacci group F(n,5) (or 0 if the group is infinite).",
			"comment": [
				"A column of the array described in A202624. See that entry for references."
			],
			"xref": [
				"Cf. A202624."
			],
			"keyword": "nonn,more",
			"offset": "1,2",
			"author": "_N. J. A. Sloane_, Dec 30 2011",
			"references": 1,
			"revision": 5,
			"time": "2012-03-30T16:52:08-04:00",
			"created": "2011-12-30T23:37:35-05:00"
		}
	]
}