{
	"greeting": "Greetings from The On-Line Encyclopedia of Integer Sequences! http://oeis.org/",
	"query": "id:A203791",
	"count": 1,
	"start": 0,
	"results": [
		{
			"number": 203791,
			"data": "5488,142192,3784288,101071600,2700695728,72168659104,1928524187248,51534966781936,1377142783787488,36800688925407472,983406168592794928,26279064902536667680,702242139855909029488,18765660986075071030384",
			"name": "Number of (n+1) X 4 0..3 arrays with every 2 X 2 subblock having equal diagonal elements or equal antidiagonal elements.",
			"comment": [
				"Column 3 of A203796."
			],
			"link": [
				"R. H. Hardin, \u003ca href=\"/A203791/b203791.txt\"\u003eTable of n, a(n) for n = 1..210\u003c/a\u003e"
			],
			"formula": [
				"Empirical: a(n) = 31*a(n-1) -117*a(n-2) +72*a(n-3).",
				"Empirical g.f.: 16*x*(343 - 1746*x + 1152*x^2) / (1 - 31*x + 117*x^2 - 72*x^3). - _Colin Barker_, Jun 05 2018"
			],
			"example": [
				"Some solutions for n=4:",
				"..0..0..1..2....1..0..3..3....3..2..3..0....1..3..2..2....1..1..1..3",
				"..0..3..0..1....3..1..0..3....1..3..1..3....0..1..3..2....3..1..2..1",
				"..1..0..1..2....2..3..1..0....2..1..2..1....1..0..1..3....0..3..1..1",
				"..1..1..0..1....3..2..3..1....0..2..2..2....2..1..1..1....3..1..0..1",
				"..1..0..3..0....1..3..2..3....0..0..2..0....0..2..1..0....1..0..2..0"
			],
			"xref": [
				"Cf. A203796."
			],
			"keyword": "nonn",
			"offset": "1,1",
			"author": "_R. H. Hardin_, Jan 05 2012",
			"references": 1,
			"revision": 8,
			"time": "2018-06-05T08:18:53-04:00",
			"created": "2012-01-05T21:18:59-05:00"
		}
	]
}