{
	"greeting": "Greetings from The On-Line Encyclopedia of Integer Sequences! http://oeis.org/",
	"query": "id:A203352",
	"count": 1,
	"start": 0,
	"results": [
		{
			"number": 203352,
			"data": "6032,53354,403624,3056040,23451600,179906536,1376241620,10535519936,80677265034,617694879242,4729619887676,36214315667508,277281869263340,2123094465259698,16256129560983932,124469811916675344",
			"name": "Number of (n+2)X7 binary arrays avoiding patterns 010 and 101 in rows, columns and nw-to-se diagonals",
			"comment": [
				"Column 5 of A203355"
			],
			"link": [
				"R. H. Hardin, \u003ca href=\"/A203352/b203352.txt\"\u003eTable of n, a(n) for n = 1..210\u003c/a\u003e"
			],
			"example": [
				"Some solutions for n=2",
				"..1..1..1..0..0..0..0....1..0..0..1..1..0..0....1..0..0..1..1..0..0",
				"..1..1..1..1..1..1..0....1..0..0..1..1..1..0....0..1..1..1..1..0..0",
				"..0..1..1..1..1..1..1....1..0..0..0..1..1..0....0..1..1..1..1..0..0",
				"..0..0..0..0..0..0..1....0..0..0..0..0..0..1....0..1..1..1..0..0..0"
			],
			"keyword": "nonn",
			"offset": "1,1",
			"author": "_R. H. Hardin_ Dec 31 2011",
			"references": 1,
			"revision": 5,
			"time": "2012-03-31T12:36:56-04:00",
			"created": "2011-12-31T17:58:12-05:00"
		}
	]
}