{
	"greeting": "Greetings from The On-Line Encyclopedia of Integer Sequences! http://oeis.org/",
	"query": "id:A203182",
	"count": 1,
	"start": 0,
	"results": [
		{
			"number": 203182,
			"data": "3,18913,24733,29633,32429,42719,45751,46103,61409,117991,149351,171529,174019,176017,223099,294893,326369,363691,421727,423503,434237,472631,658579,678077,686423,706841,735901,770059,771629,906949,936827,937571,1073447,1256029",
			"name": "Primes p such that A008472(p-1) = A008472(p+1), where A008472 = sum of distinct primes dividing n.",
			"comment": [
				"Conjecture: the sequence is infinite."
			],
			"link": [
				"Donovan Johnson, \u003ca href=\"/A203182/b203182.txt\"\u003eTable of n, a(n) for n = 1..2000\u003c/a\u003e"
			],
			"example": [
				"18913 is in the sequence because:",
				"sum of the distinct prime divisors of 18912 = 2+3+197 = 202;",
				"sum of the distinct prime divisors of 18914 = 2+7+193 = 202."
			],
			"maple": [
				"with(numtheory):for n from 1 to 100000 do:p:=ithprime(n):p1:=p-1: p2:=p+1:t1:=ifactors(p1)[2]; t11 := sum(t1[i][1], i=1..nops(t1)):t2:=ifactors(p2)[2]; t22 := sum(t2[i][1], i=1..nops(t2)):if t11=t22 then printf(`%d, `,p):else fi:od:"
			],
			"mathematica": [
				"Select[Prime[Range[100000]],Total[Transpose[FactorInteger[#-1]][[1]]] == Total[Transpose[FactorInteger[#+1]][[1]]]\u0026] (* _Harvey P. Dale_, Sep 22 2013 *)"
			],
			"xref": [
				"Cf. A008472, A190680, A086711."
			],
			"keyword": "nonn",
			"offset": "1,1",
			"author": "_Michel Lagneau_, Dec 30 2011",
			"references": 2,
			"revision": 11,
			"time": "2013-09-22T14:51:13-04:00",
			"created": "2012-01-04T20:43:57-05:00"
		}
	]
}