{
	"greeting": "Greetings from The On-Line Encyclopedia of Integer Sequences! http://oeis.org/",
	"query": "id:A203342",
	"count": 1,
	"start": 0,
	"results": [
		{
			"number": 203342,
			"data": "1,95,9555,503409,23912553,1288066857,72606563663,4048732987777,224803736954347,12536125586656167,701080855015785026,39228019277755257087,2195365093327710655400,122904723679862273403598",
			"name": "Number of nX4 0..4 arrays with every nonzero element less than or equal to at least two horizontal and vertical neighbors",
			"comment": [
				"Column 4 of A203346"
			],
			"link": [
				"R. H. Hardin, \u003ca href=\"/A203342/b203342.txt\"\u003eTable of n, a(n) for n = 1..210\u003c/a\u003e"
			],
			"example": [
				"Some solutions for n=5",
				"..1..4..4..0....4..4..0..0....4..4..1..0....4..4..1..0....2..4..4..2",
				"..3..4..4..1....4..4..3..2....4..4..2..1....4..4..3..0....2..4..4..2",
				"..3..3..1..1....2..3..4..4....1..4..2..1....4..2..3..0....0..3..0..0",
				"..0..0..2..2....3..4..4..4....2..4..4..4....4..4..4..0....1..4..4..4",
				"..0..0..2..2....3..4..4..3....2..3..4..4....1..4..4..0....1..4..4..4"
			],
			"keyword": "nonn",
			"offset": "1,2",
			"author": "_R. H. Hardin_ Dec 31 2011",
			"references": 1,
			"revision": 5,
			"time": "2012-03-31T12:36:56-04:00",
			"created": "2011-12-31T17:33:05-05:00"
		}
	]
}