{
	"greeting": "Greetings from The On-Line Encyclopedia of Integer Sequences! http://oeis.org/",
	"query": "id:A203168",
	"count": 1,
	"start": 0,
	"results": [
		{
			"number": 203168,
			"data": "4,6,7,8,10,12,15,16,21,24,25,29,35,41,42,45,47,51,53,54,56,57,58,60,61,63,64,66,68,69,74,79,82,84,87,89,92,94,96,98,99,104,108,113,115,116,121,125,126,134,136,138,141,144,148,149,150,154,157,158,160",
			"name": "Positions of 1 in the continued fraction expansion of Pi.",
			"comment": [
				"In the Gauss-Kuzmin distribution, 1 appears with probability log_2(4/3) = 41.5037...%. Thus the n-th appearance of 1 in the continued fraction of a real number chosen uniformly from [0, 1) will be, with probability 1, n / (log_2(4/3)) + O(sqrt(n)). Does this sequence have the same asymptotic? - _Charles R Greathouse IV_, Dec 30 2011"
			],
			"link": [
				"T. D. Noe, \u003ca href=\"/A203168/b203168.txt\"\u003eTable of n, a(n) for n = 1..1000\u003c/a\u003e",
				"Eric Weisstein's World of Mathematics, \u003ca href=\"http://mathworld.wolfram.com/PiContinuedFraction.html\"\u003ePi Continued Fraction\u003c/a\u003e",
				"\u003ca href=\"/index/Con#confC\"\u003eIndex entries for continued fractions for constants\u003c/a\u003e",
				"\u003ca href=\"/index/Ph#Pi314\"\u003eIndex entries for sequences related to the number Pi\u003c/a\u003e"
			],
			"formula": [
				"A001203(a(n)) = 1."
			],
			"mathematica": [
				"Flatten[Position[ContinuedFraction[Pi, 160], 1]]"
			],
			"program": [
				"(PARI) v=contfrac(Pi);for(i=1,#v,if(v[i]==1,print1(i\", \"))) \\\\ _Charles R Greathouse IV_, Dec 30 2011"
			],
			"xref": [
				"Cf. A001203, A033089, A000796."
			],
			"keyword": "nonn,nice",
			"offset": "1,1",
			"author": "_Ben Branman_, Dec 29 2011",
			"references": 1,
			"revision": 23,
			"time": "2019-12-06T21:43:55-05:00",
			"created": "2011-12-30T20:59:23-05:00"
		}
	]
}