{
	"greeting": "Greetings from The On-Line Encyclopedia of Integer Sequences! http://oeis.org/",
	"query": "id:A203822",
	"count": 1,
	"start": 0,
	"results": [
		{
			"number": 203822,
			"data": "104976,12002256,1372257936,157025515248,17968205387664,2056114528873776,235282648691687184,26923572225438510384,3080884822612993693584,352547994011441340096432,40342335152950317584529936",
			"name": "Number of (n+1) X 5 0..3 arrays with no 2 X 2 subblock having equal diagonal elements or equal antidiagonal elements.",
			"comment": [
				"Column 4 of A203826."
			],
			"link": [
				"R. H. Hardin, \u003ca href=\"/A203822/b203822.txt\"\u003eTable of n, a(n) for n = 1..210\u003c/a\u003e"
			],
			"formula": [
				"Empirical: a(n) = 117*a(n-1) -34398*a(n-3) +86436*a(n-4).",
				"Empirical g.f.: 11664*x*(9 - 24*x - 2744*x^2 + 7056*x^3) / ((1 - 117*x + 294*x^2)*(1 - 294*x^2)). - _Colin Barker_, Jun 05 2018"
			],
			"example": [
				"Some solutions for n=4:",
				"..0..1..0..3..3....1..0..0..0..0....1..2..0..1..0....3..3..3..2..1",
				"..2..2..2..1..1....3..2..2..1..1....0..2..3..1..2....0..1..0..2..0",
				"..3..0..3..3..2....1..0..3..3..2....1..2..0..0..2....3..2..3..3..3",
				"..1..0..1..1..0....1..0..1..0..0....0..3..3..3..2....0..0..0..0..1",
				"..2..2..2..2..3....1..0..1..2..1....0..1..1..0..2....2..3..2..2..2"
			],
			"xref": [
				"Cf. A203826."
			],
			"keyword": "nonn",
			"offset": "1,1",
			"author": "_R. H. Hardin_, Jan 06 2012",
			"references": 1,
			"revision": 8,
			"time": "2018-06-05T08:18:45-04:00",
			"created": "2012-01-06T11:19:26-05:00"
		}
	]
}