{
	"greeting": "Greetings from The On-Line Encyclopedia of Integer Sequences! http://oeis.org/",
	"query": "id:A203669",
	"count": 1,
	"start": 0,
	"results": [
		{
			"number": 203669,
			"data": "8749285,1447373824,150678768765,10106160753534,469214921553966,16249513382398064,438625288948634323,9625199918804866359,176543812149077636943,2775220642087352961325,38080738704427686340367",
			"name": "Number of (n+1)X6 0..6 arrays with column and row pair sums b(i,j)=a(i,j)+a(i,j-1) and c(i,j)=a(i,j)+a(i-1,j) nondecreasing in column and row directions, respectively",
			"comment": [
				"Column 5 of A203672"
			],
			"link": [
				"R. H. Hardin, \u003ca href=\"/A203669/b203669.txt\"\u003eTable of n, a(n) for n = 1..28\u003c/a\u003e"
			],
			"example": [
				"Some solutions for n=4",
				"..2..6..2..3..2..2....3..3..3..1..5..1....3..6..3..6..3..3....4..4..2..2..5..5",
				"..6..2..6..5..6..6....3..3..3..5..2..6....6..3..6..3..6..6....4..4..6..6..6..6",
				"..2..6..5..6..6..6....2..4..5..3..6..4....3..6..3..6..6..6....6..6..6..6..6..6",
				"..3..5..6..6..6..6....1..5..4..6..4..6....6..3..6..6..6..6....6..6..6..6..6..6",
				"..6..5..6..6..6..6....6..5..6..4..6..4....3..6..6..6..6..6....6..6..6..6..6..6"
			],
			"keyword": "nonn",
			"offset": "1,1",
			"author": "_R. H. Hardin_ Jan 04 2012",
			"references": 1,
			"revision": 5,
			"time": "2012-03-31T12:36:57-04:00",
			"created": "2012-01-04T16:45:24-05:00"
		}
	]
}