{
	"greeting": "Greetings from The On-Line Encyclopedia of Integer Sequences! http://oeis.org/",
	"query": "id:A203005",
	"count": 1,
	"start": 0,
	"results": [
		{
			"number": 203005,
			"data": "1,-1,1,-6,1,1,-15,47,-1,1,-40,270,-488,1,1,-165,1738,-5866,5829,-1,1,-1074,15695,-80060,156495,-74674,1,1,-9039,181581,-1360515,4552003,-5997165,997295,-1,1,-86700,2566036,-28081556",
			"name": "Array:  row n shows the coefficients of the characteristic polynomial of the n-th principal submatrix of A115255 (in square format); by antidiagonals.",
			"comment": [
				"Let p(n)=p(n,x) be the characteristic polynomial of the n-th principal submatrix. The zeros of p(n) are positive, and they interlace the zeros of p(n+1)."
			],
			"link": [
				"S.-G. Hwang, \u003ca href=\"http://matrix.skku.ac.kr/Series-E/Monthly-E.pdf\"\u003eCauchy's interlace theorem for eigenvalues of Hermitian matrices\u003c/a\u003e, American Mathematical Monthly 111 (2004) 157-159.",
				"A. Mercer and P. Mercer, \u003ca href=\"http://dx.doi.org/10.1155/S016117120000257X\"\u003eCauchy's interlace theorem and lower bounds for the spectral radius\u003c/a\u003e, International Journal of Mathematics and Mathematical Sciences 23, no. 8 (2000) 563-566."
			],
			"example": [
				"Top of the array:",
				"1...-1",
				"1...-6....1",
				"1...-15...47....-1",
				"1...-40...270...-488...1"
			],
			"mathematica": [
				"f[k_] := Binomial[2 k - 2, k - 1];",
				"U[n_] := NestList[Most[Prepend[#, 0]] \u0026, #, Length[#] - 1] \u0026[Table[f[k], {k, 1, n}]];",
				"L[n_] := Transpose[U[n]];",
				"F[n_] := CharacteristicPolynomial[L[n].U[n], x];",
				"c[n_] := CoefficientList[F[n], x]",
				"TableForm[Flatten[Table[F[n], {n, 1, 10}]]]",
				"Table[c[n], {n, 1, 12}]",
				"Flatten[%]",
				"TableForm[Table[c[n], {n, 1, 10}]]"
			],
			"xref": [
				"Cf. A115255, A202605."
			],
			"keyword": "tabl,sign",
			"offset": "1,4",
			"author": "_Clark Kimberling_, Dec 27 2011",
			"references": 2,
			"revision": 13,
			"time": "2017-10-02T09:59:05-04:00",
			"created": "2011-12-31T15:36:18-05:00"
		}
	]
}