{
	"greeting": "Greetings from The On-Line Encyclopedia of Integer Sequences! http://oeis.org/",
	"query": "id:A203651",
	"count": 1,
	"start": 0,
	"results": [
		{
			"number": 203651,
			"data": "729,28057,1116249,44577561,1780968921,71156938905,2843024036697,113591039131161,4538450923550937,181330649884558233,7244939996157320793,289466538539290446105,11565434217440894223321,462088880162456091840153",
			"name": "1/25 the number of (n+1) X 4 0..4 arrays with every 2 X 2 subblock having equal diagonal elements or equal antidiagonal elements.",
			"comment": [
				"Column 3 of A203656."
			],
			"link": [
				"R. H. Hardin, \u003ca href=\"/A203651/b203651.txt\"\u003eTable of n, a(n) for n = 1..210\u003c/a\u003e"
			],
			"formula": [
				"Empirical: a(n) = 45*a(n-1) -204*a(n-2) +96*a(n-3).",
				"Empirical g.f.: x*(729 - 4748*x + 2400*x^2) / (1 - 45*x + 204*x^2 - 96*x^3). - _Colin Barker_, Jun 04 2018"
			],
			"example": [
				"Some solutions for n=4:",
				"..4..1..0..1....2..0..1..4....3..0..4..4....4..3..4..4....2..4..3..3",
				"..1..0..4..0....3..2..0..1....2..3..0..4....0..4..0..4....2..2..4..3",
				"..3..1..0..4....0..3..2..0....4..2..3..0....0..0..1..0....1..2..2..4",
				"..0..3..1..0....1..0..3..2....0..4..2..3....2..0..0..4....2..2..2..2",
				"..0..0..3..1....4..1..0..3....0..0..4..2....2..2..0..0....4..2..1..2"
			],
			"xref": [
				"Cf. A203656."
			],
			"keyword": "nonn",
			"offset": "1,1",
			"author": "_R. H. Hardin_, Jan 04 2012",
			"references": 1,
			"revision": 9,
			"time": "2018-06-04T12:20:28-04:00",
			"created": "2012-01-04T11:43:00-05:00"
		}
	]
}