{
	"greeting": "Greetings from The On-Line Encyclopedia of Integer Sequences! http://oeis.org/",
	"query": "id:A203486",
	"count": 1,
	"start": 0,
	"results": [
		{
			"number": 203486,
			"data": "12,80,624,3760,25002,171068,1107888,7411872,50469114,335270710,2266967088,15497479060,104719636176,715192200880,4919017621164,33647413101184,231673960276602,1602349695229334,11054192845643568",
			"name": "Number of nX3 0..2 arrays with row sums equal and column sums unequal to adjacent columns",
			"comment": [
				"Column 3 of A203491"
			],
			"link": [
				"R. H. Hardin, \u003ca href=\"/A203486/b203486.txt\"\u003eTable of n, a(n) for n = 1..106\u003c/a\u003e"
			],
			"example": [
				"Some solutions for n=5",
				"..0..0..1....1..2..2....1..1..0....2..1..0....2..1..2....1..1..0....1..0..2",
				"..0..1..0....2..1..2....1..1..0....2..1..0....1..2..2....0..1..1....2..1..0",
				"..0..1..0....2..2..1....1..1..0....2..1..0....1..2..2....2..0..0....2..0..1",
				"..0..1..0....2..1..2....0..0..2....0..1..2....1..2..2....0..2..0....2..0..1",
				"..1..0..0....2..1..2....2..0..0....0..1..2....1..2..2....2..0..0....2..1..0"
			],
			"keyword": "nonn",
			"offset": "1,1",
			"author": "_R. H. Hardin_ Jan 02 2012",
			"references": 1,
			"revision": 5,
			"time": "2012-03-31T12:36:57-04:00",
			"created": "2012-01-02T11:28:42-05:00"
		}
	]
}