{
	"greeting": "Greetings from The On-Line Encyclopedia of Integer Sequences! http://oeis.org/",
	"query": "id:A203730",
	"count": 1,
	"start": 0,
	"results": [
		{
			"number": 203730,
			"data": "216000,19071424,1754118528,161916229056,14950234495680,1380434809882752,127463146627838400,11769375979053945792,1086731469961775989632,100343917224754801007040,9265307946968320001885376",
			"name": "Number of (n+1) X 4 0..7 arrays with every 2 X 2 subblock having equal diagonal elements or equal antidiagonal elements.",
			"comment": [
				"Column 3 of A203732."
			],
			"link": [
				"R. H. Hardin, \u003ca href=\"/A203730/b203730.txt\"\u003eTable of n, a(n) for n = 1..168\u003c/a\u003e"
			],
			"formula": [
				"Empirical: a(n) = 99*a(n-1) -609*a(n-2) -588*a(n-3).",
				"Empirical g.f.: 64*x*(3375 - 36134*x - 37632*x^2) / (1 - 99*x + 609*x^2 + 588*x^3). - _Colin Barker_, Jun 04 2018"
			],
			"example": [
				"Some solutions for n=4:",
				"..2..3..7..4....3..2..0..1....4..0..7..0....1..5..1..7....1..5..7..2",
				"..4..2..3..7....0..3..2..0....1..4..0..4....3..1..2..1....0..1..5..7",
				"..6..4..2..3....7..0..3..2....2..1..4..4....4..3..1..1....1..7..1..5",
				"..6..6..4..2....1..7..0..3....7..2..1..4....3..1..4..1....1..1..1..1",
				"..1..6..6..4....5..1..7..0....2..3..2..1....5..3..1..7....4..1..0..1"
			],
			"xref": [
				"Cf. A203732."
			],
			"keyword": "nonn",
			"offset": "1,1",
			"author": "_R. H. Hardin_, Jan 05 2012",
			"references": 1,
			"revision": 8,
			"time": "2018-06-04T14:44:48-04:00",
			"created": "2012-01-05T07:31:13-05:00"
		}
	]
}