{
	"greeting": "Greetings from The On-Line Encyclopedia of Integer Sequences! http://oeis.org/",
	"query": "id:A203880",
	"count": 1,
	"start": 0,
	"results": [
		{
			"number": 203880,
			"data": "637,8281,107653,1399489,18193357,236513641,3074677333,39970805329,519620469277,6755066100601,87815859307813,1141606171001569,14840880223020397,192931442899265161,2508108757690447093",
			"name": "Number of (n+1)X2 0..6 arrays with every 2X2 subblock having equal diagonal elements or equal antidiagonal elements",
			"comment": [
				"Column 1 of A203887"
			],
			"link": [
				"R. H. Hardin, \u003ca href=\"/A203880/b203880.txt\"\u003eTable of n, a(n) for n = 1..210\u003c/a\u003e"
			],
			"formula": [
				"Empirical: a(n) = 49*13^n"
			],
			"example": [
				"Some solutions for n=4",
				"..5..3....1..0....4..1....0..5....1..3....1..4....2..5....4..5....6..0....2..1",
				"..0..5....1..1....5..4....2..0....6..1....3..1....1..2....3..4....3..6....1..2",
				"..6..0....0..1....2..5....0..1....4..6....0..3....1..1....4..4....3..3....0..1",
				"..5..6....3..0....2..2....2..0....2..4....5..0....2..1....1..4....4..3....3..0",
				"..5..5....1..3....4..2....6..2....1..2....3..5....0..2....0..1....1..4....0..5"
			],
			"keyword": "nonn",
			"offset": "1,1",
			"author": "_R. H. Hardin_ Jan 07 2012",
			"references": 1,
			"revision": 5,
			"time": "2012-03-31T12:36:58-04:00",
			"created": "2012-01-07T11:01:25-05:00"
		}
	]
}