{
	"greeting": "Greetings from The On-Line Encyclopedia of Integer Sequences! http://oeis.org/",
	"query": "id:A203498",
	"count": 1,
	"start": 0,
	"results": [
		{
			"number": 203498,
			"data": "1,2,44,12,2316,56,86756,7548,2745504,14216,8303228,27440,26755926552,17777912,337554780656,166149231952,41032825702988,10165065032,19445273523788,559223251080,52853093762480872,2217608618621076,3130076262074284420,9840817961344",
			"name": "Row sums of triangle A203484.",
			"comment": [
				"Conjecture. If prime p==1 (mod 3), then a((p-1)/3)==2 (mod p); if prime p==2 mod 3, then a(2*p-1)/3)==2 (mod p)."
			],
			"xref": [
				"Cf. A202941, A202917, A203269, A203278, A203484, A178473."
			],
			"keyword": "nonn",
			"offset": "0,2",
			"author": "_Vladimir Shevelev_ and _Peter J. C. Moses_, Jan 02 2012",
			"references": 1,
			"revision": 6,
			"time": "2014-05-01T02:44:24-04:00",
			"created": "2012-01-11T15:39:37-05:00"
		}
	]
}