{
	"greeting": "Greetings from The On-Line Encyclopedia of Integer Sequences! http://oeis.org/",
	"query": "id:A203884",
	"count": 1,
	"start": 0,
	"results": [
		{
			"number": 203884,
			"data": "18193357,6601376089,2880436707253,1337957259758497,632382967906147549,300614697430789927465,143131084226139999444805,68183470583835920750899441,32485295368125261340573143277",
			"name": "Number of (n+1) X 6 0..6 arrays with every 2 X 2 subblock having equal diagonal elements or equal antidiagonal elements.",
			"comment": [
				"All terms == 49 (mod 294). - _Robert Israel_, Jul 09 2019"
			],
			"link": [
				"R. H. Hardin, \u003ca href=\"/A203884/b203884.txt\"\u003eTable of n, a(n) for n = 1..193\u003c/a\u003e",
				"Robert Israel, \u003ca href=\"/A203884/a203884.pdf\"\u003eMaple-assisted proof of empirical formula\u003c/a\u003e"
			],
			"formula": [
				"Empirical: a(n) = 565*a(n-1) -26916*a(n-2) -8476092*a(n-3) +587809224*a(n-4) -6796290096*a(n-5) -158295697632*a(n-6) +2605874815296*a(n-7) -2681418764160*a(n-8) -55173588410880*a(n-9) +65536012915200*a(n-10) +108491436288000*a(n-11) -105573943296000*a(n-12).",
				"Empirical formula verified: see link. - _Robert Israel_, Jul 09 2019"
			],
			"example": [
				"Some solutions for n=4",
				"..2..3..3..6..6..5....0..5..2..5..0..1....5..3..0..6..4..5....6..5..6..3..0..2",
				"..4..2..3..3..6..6....2..0..5..3..5..0....2..5..3..0..6..4....2..6..5..6..3..0",
				"..2..6..2..3..3..6....3..2..0..5..5..5....2..2..5..3..0..6....5..2..6..6..6..3",
				"..6..3..6..2..3..3....3..3..2..0..5..0....2..2..2..5..3..0....4..5..2..6..1..6",
				"..6..6..4..6..2..3....4..3..3..2..0..1....3..2..4..2..5..3....0..4..5..2..6..3"
			],
			"xref": [
				"Column 5 of A203887."
			],
			"keyword": "nonn",
			"offset": "1,1",
			"author": "_R. H. Hardin_, Jan 07 2012",
			"references": 1,
			"revision": 10,
			"time": "2019-07-09T19:09:09-04:00",
			"created": "2012-01-07T11:05:12-05:00"
		}
	]
}