{
	"greeting": "Greetings from The On-Line Encyclopedia of Integer Sequences! http://oeis.org/",
	"query": "id:A203077",
	"count": 1,
	"start": 0,
	"results": [
		{
			"number": 203077,
			"data": "1,8,9,2,11,10,5,12,3,4,7,6,13,14,17,16,15,18,19,22,21,20,25,30,27,24,23,26,29,28,31,32,35,38,33,34,37,36,39,42,41,40,45,44,43,46,47,50,49,48,51,52,53,54,55,56,57,58,59,60,63,62,61,66,67,64,65",
			"name": "Alternating-parity rearrangement of natural numbers: a(n) is the smallest number such that a(n-1)^2 + a(n)^2 is odd and composite.",
			"comment": [
				"The maximum between a(n) and the n-th integer appears to be +-6. In the first 10k terms, the distribution of differences, from -6 to 6 is: 27, 140, 1350, 7002, 1282, 168, 31. Therefore I conjecture that Lim_{n-\u003einfinity} a(n) = n."
			],
			"example": [
				"1^2 + 8^2 = 65 composite, 8^2 + 9^2 = 145 composite, 9^2 + 2^2 = 85 composite."
			],
			"mathematica": [
				"f[s_List] := Block[{k = If[ OddQ[ s[[-1]]], 2, 3], m = s[[-1]]}, While[a = k^2 + m^2; MemberQ[s, k] || PrimeQ[a] || EvenQ[a], k += 2]; Append[s, k]]; Nest[f, {1}, 70] (* _Robert G. Wilson v_, Jan 02 2012 *)"
			],
			"xref": [
				"Cf. A203069."
			],
			"keyword": "nonn",
			"offset": "1,2",
			"author": "_Zak Seidov_, Dec 29 2011",
			"references": 0,
			"revision": 15,
			"time": "2018-10-30T10:31:02-04:00",
			"created": "2012-01-11T14:18:14-05:00"
		}
	]
}