{
	"greeting": "Greetings from The On-Line Encyclopedia of Integer Sequences! http://oeis.org/",
	"query": "id:A204597",
	"count": 1,
	"start": 0,
	"results": [
		{
			"number": 204597,
			"data": "1,2,2,3,2,3,3,5,4,14",
			"name": "Number of connected non-isomorphic well-covered circulant graphs on n nodes (including the complete graph).",
			"reference": [
				"Brown, Jason; and Hoshino, Richard; Well-covered circulant graphs. Discrete Math. 311 (2011), no. 4, 244-251."
			],
			"xref": [
				"Cf. A204596."
			],
			"keyword": "nonn,more",
			"offset": "3,2",
			"author": "_N. J. A. Sloane_, Jan 17 2012",
			"references": 1,
			"revision": 5,
			"time": "2012-03-30T16:52:08-04:00",
			"created": "2012-01-17T00:33:50-05:00"
		}
	]
}