{
	"greeting": "Greetings from The On-Line Encyclopedia of Integer Sequences! http://oeis.org/",
	"query": "id:A204629",
	"count": 1,
	"start": 0,
	"results": [
		{
			"number": 204629,
			"data": "3145728,9076721064,26194503047262,75595484720747496,218163372078770313246,629604521519860258105194,1816995451072561641887723586,5243724206237325303462055283538",
			"name": "Number of (n+1)X8 0..2 arrays with every 2X2 subblock having unequal diagonal elements or unequal antidiagonal elements, and new values 0..2 introduced in row major order",
			"comment": [
				"Column 7 of A204630"
			],
			"link": [
				"R. H. Hardin, \u003ca href=\"/A204629/b204629.txt\"\u003eTable of n, a(n) for n = 1..210\u003c/a\u003e"
			],
			"example": [
				"Some solutions for n=3",
				"..0..0..0..0..0..0..0..0....0..1..1..0..1..2..1..2....0..0..0..1..1..0..2..1",
				"..0..1..2..2..1..0..2..0....0..1..2..1..2..0..0..1....0..1..0..2..0..0..2..1",
				"..1..2..2..1..1..2..2..1....0..2..0..1..2..0..1..1....0..2..0..2..1..0..1..0",
				"..0..2..1..0..2..0..2..2....0..2..1..1..2..0..0..1....0..2..1..0..0..2..2..1"
			],
			"keyword": "nonn",
			"offset": "1,1",
			"author": "_R. H. Hardin_ Jan 17 2012",
			"references": 1,
			"revision": 5,
			"time": "2012-03-31T12:37:02-04:00",
			"created": "2012-01-17T15:47:24-05:00"
		}
	]
}