{
	"greeting": "Greetings from The On-Line Encyclopedia of Integer Sequences! http://oeis.org/",
	"query": "id:A204648",
	"count": 1,
	"start": 0,
	"results": [
		{
			"number": 204648,
			"data": "80,137,284,571,1076,1918,3261,5329,8408,12867,19162,27859,39640,55328,75895,102489,136444,179309,232860,299131,380428,479362,598865,742225,913104,1115575,1354142,1633779,1959952,2338660,2776459,3280505,3858580",
			"name": "Number of (n+1) X 6 0..1 arrays with column and row pair sums b(i,j)=a(i,j)+a(i,j-1) and c(i,j)=a(i,j)+a(i-1,j) nondecreasing in column and row directions, respectively.",
			"comment": [
				"Column 5 of A204651."
			],
			"link": [
				"R. H. Hardin, \u003ca href=\"/A204648/b204648.txt\"\u003eTable of n, a(n) for n = 1..210\u003c/a\u003e"
			],
			"formula": [
				"Empirical: a(n) = 6*a(n-1) -14*a(n-2) +14*a(n-3) -14*a(n-5) +14*a(n-6) -6*a(n-7) +a(n-8) for n\u003e11.",
				"Conjectures from _Colin Barker_, Jun 08 2018: (Start)",
				"G.f.: x*(80 - 343*x + 582*x^2 - 335*x^3 - 292*x^4 + 600*x^5 - 379*x^6 + 89*x^7 - 4*x^8 + 8*x^9 - 4*x^10) / ((1 - x)^7*(1 + x)).",
				"a(n) = (-10080 + 43776*n + 15308*n^2 + 2970*n^3 + 620*n^4 + 54*n^5 + 2*n^6)/1440 for n\u003e3 and even.",
				"a(n) = (-10890 + 43776*n + 15308*n^2 + 2970*n^3 + 620*n^4 + 54*n^5 + 2*n^6)/1440 for n\u003e3 and odd.",
				"(End)"
			],
			"example": [
				"Some solutions for n=5:",
				"..1..0..1..0..1..0....0..0..0..0..0..1....0..0..0..0..0..0....0..1..1..1..1..1",
				"..0..1..0..1..0..1....0..0..0..0..0..1....0..0..0..0..1..1....1..1..1..1..1..1",
				"..1..0..1..0..1..1....0..0..0..0..1..1....0..0..1..1..1..1....1..1..1..1..1..1",
				"..0..1..0..1..1..1....0..0..0..0..1..1....0..0..1..1..1..1....1..1..1..1..1..1",
				"..1..0..1..1..1..1....0..0..0..1..1..1....0..0..1..1..1..1....1..1..1..1..1..1",
				"..0..1..1..1..1..1....0..0..1..1..1..1....0..0..1..1..1..1....1..1..1..1..1..1"
			],
			"xref": [
				"Cf. A204651."
			],
			"keyword": "nonn",
			"offset": "1,1",
			"author": "_R. H. Hardin_, Jan 17 2012",
			"references": 1,
			"revision": 8,
			"time": "2018-06-08T13:51:18-04:00",
			"created": "2012-01-17T19:09:20-05:00"
		}
	]
}