{
	"greeting": "Greetings from The On-Line Encyclopedia of Integer Sequences! http://oeis.org/",
	"query": "id:A204481",
	"count": 1,
	"start": 0,
	"results": [
		{
			"number": 204481,
			"data": "24718,29959,9290,11364,11338,18410,47369,133889,481694,1808046,6765672,25621498,97131639,368034455,1395284106,5289949408,20055106670,76034602906,288269180957,1092909631093,4143534785206,15709333424602",
			"name": "Number of (n+2)X8 0..3 arrays with every 3X3 subblock having three equal elements in a row horizontally, vertically or nw-to-se diagonally exactly three ways, and new values 0..3 introduced in row major order",
			"comment": [
				"Column 6 of A204483"
			],
			"link": [
				"R. H. Hardin, \u003ca href=\"/A204481/b204481.txt\"\u003eTable of n, a(n) for n = 1..210\u003c/a\u003e"
			],
			"formula": [
				"Empirical: a(n) = 4*a(n-1) +a(n-2) -2*a(n-3) -19*a(n-4) -4*a(n-5) +21*a(n-6) +24*a(n-7) +3*a(n-8) -18*a(n-9) -9*a(n-10) for n\u003e13"
			],
			"example": [
				"Some solutions for n=3",
				"..0..0..1..1..2..1..1..3....0..1..1..0..1..0..2..1....0..1..0..0..2..2..1..1",
				"..0..0..1..1..2..1..1..1....0..1..1..0..1..0..2..1....0..1..0..0..2..2..2..2",
				"..0..0..1..1..2..1..1..3....0..1..1..0..1..0..2..1....0..1..0..0..2..2..0..2",
				"..0..0..1..1..2..1..1..3....0..1..1..0..1..0..2..1....0..0..0..0..2..2..0..2",
				"..0..0..1..1..2..1..1..3....0..1..1..0..1..0..2..1....1..3..0..0..2..2..0..2"
			],
			"keyword": "nonn",
			"offset": "1,1",
			"author": "_R. H. Hardin_ Jan 15 2012",
			"references": 1,
			"revision": 5,
			"time": "2012-03-31T12:37:02-04:00",
			"created": "2012-01-15T17:07:44-05:00"
		}
	]
}