{
	"greeting": "Greetings from The On-Line Encyclopedia of Integer Sequences! http://oeis.org/",
	"query": "id:A204658",
	"count": 1,
	"start": 0,
	"results": [
		{
			"number": 204658,
			"data": "3,4,6,8,12,20,40,48,60,62,70,84,88,168,240,258,372,760,932,1010,2110,2464,2490,2702,3180,4744,6024,8858,9060,10322,13382,15778,19322,22372,22928,25344,28050,40604,42282,45884,52428,58250,81220,93612,108650",
			"name": "Numbers n such that n!10-1 is prime.",
			"comment": [
				"n!10 = product( n-10k, 0 \u003c= k \u003c n/10 ).",
				"See also links in A156165.",
				"a(1)-a(40) are proved prime by deterministic tests of pfgw. - _Robert Price_, Jun 11 2012",
				"a(41) \u003e 50000. - _Robert Price_, Jun 11 2012"
			],
			"link": [
				"Ken Davis, \u003ca href=\"http://mfprimes.free-dc.org\"\u003eStatus of Search for Multifactorial Primes\u003c/a\u003e.",
				"Ken Davis, \u003ca href=\"http://mfprimes.free-dc.org/mfdata/f10m.html\"\u003eResults for n!10-1.\u003c/a\u003e"
			],
			"mathematica": [
				"MultiFactorial[n_, k_] := If[n \u003c 1, 1, n*MultiFactorial[n - k, k]];",
				"Select[Range[1000], PrimeQ[MultiFactorial[#, 10] - 1] \u0026 ] (* _Robert Price_, Apr 19 2019 *)"
			],
			"program": [
				"(PARI) for(n=0,9999,isprime(prod(i=0,(n-2)\\10,n-10*i)-1)\u0026 print1(n\",\"))"
			],
			"xref": [
				"Cf. A204657, A204659, A204660, A204661, A204662, A204663, A204664, A156165, A156167, A085150, A085148, A085146, A037083, A080778, A002981."
			],
			"keyword": "nonn,hard",
			"offset": "1,1",
			"author": "_M. F. Hasler_, Jan 17 2012",
			"ext": [
				"a(26)-a(40) from _Robert Price_, Jun 11 2012",
				"a(41)-a(45) from Ken Davis link entered by _Robert Price_, Apr 19 2019"
			],
			"references": 8,
			"revision": 25,
			"time": "2019-11-12T11:34:32-05:00",
			"created": "2012-01-17T23:14:09-05:00"
		}
	]
}