{
	"greeting": "Greetings from The On-Line Encyclopedia of Integer Sequences! http://oeis.org/",
	"query": "id:A204436",
	"count": 1,
	"start": 0,
	"results": [
		{
			"number": 204436,
			"data": "1,1,1,2,6,16,80,384,1728,12096,82080,525312,4783104,41886720,349056000,3891456000,41803776000,429981696000,5667397632000,72153317376000,883878137856000,13437405757440000,197840194965504000,2813727217287168000,48450827875516416000",
			"name": "Permanent of the n-th principal submatrix of A204435.",
			"comment": [
				"Also the number of permutations pi in S_n such that pi(i) + i != 0 (mod 3) for all i. - _Peter Kagey_, Jan 25 2021"
			],
			"mathematica": [
				"f[i_, j_] := Mod[(i + j)^2, 3];",
				"m[n_] := Table[f[i, j], {i, 1, n}, {j, 1, n}]",
				"TableForm[m[8]] (* 8x8 principal submatrix *)",
				"Flatten[Table[f[i, n + 1 - i],",
				"  {n, 1, 14}, {i, 1, n}]]       (* A204435 *)",
				"Join[{1},Table[Permanent[m[n]], {n, 1, 22}]]   (* A204436 *)"
			],
			"xref": [
				"Cf. A204235."
			],
			"keyword": "nonn",
			"offset": "0,4",
			"author": "_Clark Kimberling_, Jan 15 2012",
			"ext": [
				"a(0) and a(23)-a(24) from _Pontus von Brömssen_, Jan 29 2021"
			],
			"references": 3,
			"revision": 20,
			"time": "2021-01-31T10:24:24-05:00",
			"created": "2012-01-15T20:51:10-05:00"
		}
	]
}