{
	"greeting": "Greetings from The On-Line Encyclopedia of Integer Sequences! http://oeis.org/",
	"query": "id:A204784",
	"count": 1,
	"start": 0,
	"results": [
		{
			"number": 204784,
			"data": "3871,13555,44641,180069,688431,2831919,11333145,46809649,190964841,791496341,3264483283,13586735979,56476461657,236142767631,987919418993,4150817865787,17465593473337,73745244701555,311975289448169",
			"name": "Number of (n+1)X2 0..7 arrays with the permanents of all 2X2 subblocks equal and nonzero",
			"comment": [
				"Column 1 of A204791"
			],
			"link": [
				"R. H. Hardin, \u003ca href=\"/A204784/b204784.txt\"\u003eTable of n, a(n) for n = 1..210\u003c/a\u003e"
			],
			"example": [
				"Some solutions for n=4",
				"..0..1....3..7....7..2....3..2....0..3....7..4....5..4....1..7....4..5....2..1",
				"..1..3....4..4....3..4....0..1....3..4....6..4....4..4....6..3....1..6....5..7",
				"..0..1....6..4....4..6....3..7....0..3....4..6....2..7....1..7....4..5....2..1",
				"..1..0....7..2....1..7....0..1....3..5....4..7....4..4....6..3....1..6....7..6",
				"..7..1....6..4....4..6....3..3....0..3....4..6....7..2....5..5....4..5....2..1"
			],
			"keyword": "nonn",
			"offset": "1,1",
			"author": "_R. H. Hardin_ Jan 19 2012",
			"references": 1,
			"revision": 5,
			"time": "2012-03-31T12:37:03-04:00",
			"created": "2012-01-19T07:54:38-05:00"
		}
	]
}