{
	"greeting": "Greetings from The On-Line Encyclopedia of Integer Sequences! http://oeis.org/",
	"query": "id:A204293",
	"count": 1,
	"start": 0,
	"results": [
		{
			"number": 204293,
			"data": "1,0,0,1,0,1,0,0,0,0,1,0,2,0,1,0,0,0,0,0,0,1,0,3,0,3,0,1,0,0,0,0,0,0,0,0,1,0,4,0,6,0,4,0,1,0,0,0,0,0,0,0,0,0,0,1,0,5,0,10,0,10,0,5,0,1,0,0,0,0,0,0,0,0,0,0,0,0,1,0,6,0,15,0,20",
			"name": "Pascal's triangle interspersed with rows of zeros, and the rows of Pascal's triangle are interspersed with zeros.",
			"comment": [
				"Auxiliary array for computing Losanitsch's triangle A034851;",
				"T(n, k) + T(n, k + 2) = T(n + 2, k + 2) for k \u003c n - 1."
			],
			"link": [
				"Reinhard Zumkeller, \u003ca href=\"/A204293/b204293.txt\"\u003eRows n=0..100 of triangle, flattened\u003c/a\u003e",
				"S. M. Losanitsch, \u003ca href=\"/A000602/a000602_1.pdf\"\u003eDie Isomerie-Arten bei den Homologen der Paraffin-Reihe\u003c/a\u003e, Chem. Ber. 30 (1897), 1917-1926. (Annotated scanned copy)",
				"N. J. A. Sloane, \u003ca href=\"/classic.html#LOSS\"\u003eClassic Sequences: Losanitsch's Triangle\u003c/a\u003e",
				"Eric Weisstein's World of Mathematics, \u003ca href=\"http://mathworld.wolfram.com/LosanitschsTriangle.html\"\u003eLosanitsch's Triangle\u003c/a\u003e",
				"\u003ca href=\"/index/Pas#Pascal\"\u003eIndex entries for triangles and arrays related to Pascal's triangle\u003c/a\u003e"
			],
			"formula": [
				"T(n, k) = (1 - n mod 2) * (1 - k mod 2) * binomial(floor(n/2),floor(k/2))."
			],
			"mathematica": [
				"t[n_?EvenQ, k_?EvenQ] := Binomial[n/2, k/2]; t[_, _] = 0; Flatten[Table[t[n, k], {n, 0, 12}, {k, 0, n}]] (* _Jean-François Alcover_, Feb 07 2012 *)"
			],
			"program": [
				"(Haskell)",
				"a204293 n k = a204293_tabl !! n !! k",
				"a204293_row n = a204293_tabl !! n",
				"a204293_tabl = [1] : [0,0] : f [1] [0,0] where",
				"   f xs ys = xs' : f ys xs' where",
				"     xs' = zipWith (+) ([0,0] ++ xs) (xs ++ [0,0])"
			],
			"xref": [
				"Cf. A077957 (row sums), A126869 (central terms); A108044, A007318."
			],
			"keyword": "nonn,tabl",
			"offset": "0,13",
			"author": "_Reinhard Zumkeller_, Jan 14 2012",
			"ext": [
				"Formula for T(n,k) corrected by _Peter Bala_, Jul 06 2015"
			],
			"references": 6,
			"revision": 20,
			"time": "2018-03-16T17:03:01-04:00",
			"created": "2012-01-15T14:49:32-05:00"
		}
	]
}