{
	"greeting": "Greetings from The On-Line Encyclopedia of Integer Sequences! http://oeis.org/",
	"query": "id:A204888",
	"count": 1,
	"start": 0,
	"results": [
		{
			"number": 204888,
			"data": "12188762,3254488094,903927237183,214490839140374,54207812128671655,13752971461490455159,3440854841508866322669,865571456966588050609608,217822622513813915869955662,54748276696335921093975563763",
			"name": "Number of (n+2)X6 0..2 arrays with every 3X3 subblock having three equal elements in a row horizontally, vertically or nw-to-se diagonally, and new values 0..2 introduced in row major order",
			"comment": [
				"Column 4 of A204889"
			],
			"link": [
				"R. H. Hardin, \u003ca href=\"/A204888/b204888.txt\"\u003eTable of n, a(n) for n = 1..12\u003c/a\u003e"
			],
			"example": [
				"Some solutions for n=3",
				"..0..1..0..2..1..2....0..0..1..2..1..2....0..0..0..0..1..0....0..0..0..0..0..0",
				"..2..1..1..0..1..1....2..1..2..1..1..0....0..2..2..1..0..2....0..0..1..1..1..0",
				"..0..0..0..0..0..0....2..2..2..2..2..2....0..2..0..0..0..0....1..2..2..1..0..1",
				"..0..0..0..1..2..0....1..1..1..0..0..0....2..2..2..2..0..1....1..1..1..1..0..0",
				"..1..2..2..0..0..1....0..1..1..1..0..2....0..0..2..2..2..0....0..1..1..0..0..1"
			],
			"keyword": "nonn",
			"offset": "1,1",
			"author": "_R. H. Hardin_ Jan 20 2012",
			"references": 1,
			"revision": 5,
			"time": "2012-03-31T12:37:03-04:00",
			"created": "2012-01-20T09:47:36-05:00"
		}
	]
}