{
	"greeting": "Greetings from The On-Line Encyclopedia of Integer Sequences! http://oeis.org/",
	"query": "id:A204508",
	"count": 1,
	"start": 0,
	"results": [
		{
			"number": 204508,
			"data": "87869,3673007,161927101,5365887358,199470888113,7516738565045,274248095468364,10121490546012798,374371466363609988,13797306292659460828,509068239825303085594,18788577874435647057728",
			"name": "Number of (n+2)X5 0..2 arrays with every 3X3 subblock having three equal elements in a row horizontally, vertically, diagonally or antidiagonally at least two different ways, and new values 0..2 introduced in row major order",
			"comment": [
				"Column 3 of A204511"
			],
			"link": [
				"R. H. Hardin, \u003ca href=\"/A204508/b204508.txt\"\u003eTable of n, a(n) for n = 1..210\u003c/a\u003e"
			],
			"example": [
				"Some solutions for n=3",
				"..0..0..0..0..1....0..0..0..0..0....0..0..1..0..2....0..1..0..2..1",
				"..2..0..2..0..2....0..0..0..0..0....1..0..0..0..1....2..2..2..2..0",
				"..1..0..2..0..0....0..0..1..1..1....2..0..0..0..0....2..2..2..2..2",
				"..2..2..2..2..2....0..2..2..2..0....2..0..0..0..2....0..0..0..2..0",
				"..2..1..2..2..0....0..0..0..0..0....1..0..0..1..0....2..2..0..2..0"
			],
			"keyword": "nonn",
			"offset": "1,1",
			"author": "_R. H. Hardin_ Jan 15 2012",
			"references": 1,
			"revision": 5,
			"time": "2012-03-31T12:37:02-04:00",
			"created": "2012-01-15T20:00:21-05:00"
		}
	]
}