{
	"greeting": "Greetings from The On-Line Encyclopedia of Integer Sequences! http://oeis.org/",
	"query": "id:A204448",
	"count": 1,
	"start": 0,
	"results": [
		{
			"number": 204448,
			"data": "0,1,3,9,24,140,792,4752,27072,230832,1991952,17927568,155644416,1780206336,20695108608,248341303296,2898196070400,41713375334400,610011772416000,9150176586240000,134163172454400000,2329812142295040000",
			"name": "Permanent of the n-th principal submatrix of A204447.",
			"mathematica": [
				"f[i_, j_] :=",
				" Floor[(i + j + 5)/4] - Floor[(i + j + 2)/4];",
				"m[n_] := Table[f[i, j], {i, 1, n}, {j, 1, n}]",
				"TableForm[m[8]] (* 8x8 principal submatrix *)",
				"Flatten[Table[f[i, n + 1 - i],",
				"  {n, 1, 14}, {i, 1, n}]]     (* A204447 *)",
				"Permanent[m_] :=",
				"  With[{a = Array[x, Length[m]]},",
				"   Coefficient[Times @@ (m.a), Times @@ a]];",
				"Table[Permanent[m[n]], {n, 1, 22}]    (* A204448 *)"
			],
			"xref": [
				"Cf. A204247, A204435."
			],
			"keyword": "nonn",
			"offset": "1,3",
			"author": "_Clark Kimberling_, Jan 15 2012",
			"references": 4,
			"revision": 6,
			"time": "2012-07-12T00:39:59-04:00",
			"created": "2012-01-15T20:48:54-05:00"
		}
	]
}