{
	"greeting": "Greetings from The On-Line Encyclopedia of Integer Sequences! http://oeis.org/",
	"query": "id:A204135",
	"count": 1,
	"start": 0,
	"results": [
		{
			"number": 204135,
			"data": "1,-1,2,-4,1,8,-28,17,-1,64,-384,424,-80,1,1024,-10624,19400,-7700,401,-1,32768,-598016,1748224,-1225536,161618,-2084,1,2097152,-68550656,319410176,-363159040,95891872",
			"name": "Array:  row n shows the coefficients of the characteristic polynomial of the n-th principal submatrix of the Delannoy matrix (A008288).",
			"comment": [
				"Let p(n)=p(n,x) be the characteristic polynomial of the n-th principal submatrix.  The zeros of p(n) are real, and they interlace the zeros of p(n+1).  See A202605 and A204016 for guides to related sequences."
			],
			"reference": [
				"(For references regarding interlacing roots, see A202605.)"
			],
			"example": [
				"Top of the array:",
				"1....-1",
				"2....-4.....1",
				"8....-28....17....-1",
				"64...-384...424...-80...1",
				"The interlacing of zeros is illustrated by these zeros (truncated):",
				"p(1):  1",
				"p(2): .58, 3.41",
				"p(3): .36, 1.44, 15.19",
				"p(4): .21, .87, 4.53, 74.3",
				"p(5): .12, .59, 2.14, 17.22, 380.91"
			],
			"mathematica": [
				"f[i_, 1] := 1; f[1, j_] := 1;",
				"f[i_, j_] := f[i, j - 1] + f[i - 1, j - 1] + f[i - 1, j]",
				"m[n_] := Table[f[i, j], {i, 1, n}, {j, 1, n}]",
				"TableForm[m[8]] (* 8x8 principal submatrix *)",
				"Flatten[Table[f[i, n + 1 - i],",
				"  {n, 1, 15}, {i, 1, n}]]  (*  Delannoy, A008288 *)",
				"p[n_] := CharacteristicPolynomial[m[n], x];",
				"c[n_] := CoefficientList[p[n], x]",
				"TableForm[Flatten[Table[p[n], {n, 1, 10}]]]",
				"Table[c[n], {n, 1, 8}]",
				"Flatten[%]                 (* 204135 *)",
				"TableForm[Table[c[n], {n, 1, 6}]]"
			],
			"xref": [
				"Cf. A008288, A202605, A204016."
			],
			"keyword": "tabl,sign",
			"offset": "1,3",
			"author": "_Clark Kimberling_, Jan 12 2012",
			"references": 1,
			"revision": 6,
			"time": "2012-07-12T00:39:58-04:00",
			"created": "2012-01-12T20:24:26-05:00"
		}
	]
}