{
	"greeting": "Greetings from The On-Line Encyclopedia of Integer Sequences! http://oeis.org/",
	"query": "id:A205632",
	"count": 1,
	"start": 0,
	"results": [
		{
			"number": 205632,
			"data": "352512,4211904,75419136,1819019544,50032728864,1476599815224,44843430265344,1382078906899128,42879337322182320,1335447125119528872",
			"name": "Number of 8X(n+1) 0..2 arrays with every 2X2 subblock in a row having an equal number of equal diagonal or equal antidiagonal elements, adjacent rows differing in this number, and new values 0..2 introduced in row major order",
			"comment": [
				"Row 7 of A205626"
			],
			"example": [
				"Some solutions for n=4",
				"..0..0..0..1..2....0..0..0..0..1....0..1..1..1..1....0..0..0..1..0",
				"..2..2..2..1..2....0..2..0..1..1....0..0..1..0..1....2..1..2..1..0",
				"..2..1..2..2..0....0..1..0..2..2....1..2..2..2..2....0..2..2..2..1",
				"..0..0..0..1..1....1..1..1..0..2....1..1..2..0..2....1..1..0..0..0",
				"..0..2..0..0..1....2..2..2..0..1....0..0..2..1..1....2..1..1..0..1",
				"..0..1..1..2..1....0..2..0..0..0....1..0..0..2..1....2..0..2..2..2",
				"..1..1..2..2..2....0..1..1..2..1....1..2..1..2..0....0..0..0..2..1",
				"..0..0..0..1..0....0..0..1..1..1....1..1..0..1..2....1..1..1..2..0"
			],
			"keyword": "nonn",
			"offset": "1,1",
			"author": "_R. H. Hardin_ Jan 29 2012",
			"references": 0,
			"revision": 4,
			"time": "2012-03-31T12:37:07-04:00",
			"created": "2012-01-29T17:24:02-05:00"
		}
	]
}