{
	"greeting": "Greetings from The On-Line Encyclopedia of Integer Sequences! http://oeis.org/",
	"query": "id:A205738",
	"count": 1,
	"start": 0,
	"results": [
		{
			"number": 205738,
			"data": "360,978,3888,17532,80916,376314,1756446,8212662,38432652,179925948,842504430,3945403368,18476947170,86532335682,405257580870,1897955537136,8888775949212,41629230515718,194964278279712,913086294849486",
			"name": "Number of 3X(n+1) 0..2 arrays with every 2 X 2 subblock having the same number of clockwise edge increases as its horizontal neighbors and no 2 X 2 subblock having the same number of counterclockwise edge increases as its vertical neighbors.",
			"comment": [
				"Row 2 of A205736."
			],
			"link": [
				"R. H. Hardin, \u003ca href=\"/A205738/b205738.txt\"\u003eTable of n, a(n) for n = 1..210\u003c/a\u003e"
			],
			"formula": [
				"Empirical: a(n) = 6*a(n-1) -2*a(n-2) -21*a(n-3) +a(n-4) +25*a(n-5) +14*a(n-6) -4*a(n-8) -2*a(n-9) for n\u003e13."
			],
			"example": [
				"Some solutions for n=4:",
				"..1..1..2..1..0....0..0..0..2..0....2..1..1..0..1....2..2..1..2..1",
				"..0..2..1..2..1....1..2..0..2..0....0..1..2..0..1....0..2..1..2..0",
				"..0..1..1..1..1....0..0..1..0..1....0..2..1..1..0....1..0..2..1..1"
			],
			"keyword": "nonn",
			"offset": "1,1",
			"author": "_R. H. Hardin_, Jan 30 2012",
			"references": 1,
			"revision": 7,
			"time": "2015-10-09T22:34:13-04:00",
			"created": "2012-01-30T14:43:54-05:00"
		}
	]
}