{
	"greeting": "Greetings from The On-Line Encyclopedia of Integer Sequences! http://oeis.org/",
	"query": "id:A205924",
	"count": 1,
	"start": 0,
	"results": [
		{
			"number": 205924,
			"data": "215294,4085161,22176946,535691452,2853968414,88272553560,454195592550,16886828676263,84210499905622,3496356219518227,17017031345808388,751139677139537584,3586967937464808168,164035122758416628806",
			"name": "Number of (n+1)X7 0..3 arrays with the number of clockwise edge increases in every 2X2 subblock equal to one, and every 2X2 determinant nonzero",
			"comment": [
				"Column 6 of A205926"
			],
			"link": [
				"R. H. Hardin, \u003ca href=\"/A205924/b205924.txt\"\u003eTable of n, a(n) for n = 1..210\u003c/a\u003e"
			],
			"example": [
				"Some solutions for n=4",
				"..0..1..3..2..0..2..3....3..0..3..1..3..2..3....1..0..1..1..3..1..3",
				"..1..1..1..2..2..2..2....3..3..3..3..3..3..3....1..1..1..2..3..3..3",
				"..3..1..2..2..1..2..3....0..1..3..1..3..1..2....0..1..2..2..2..3..2",
				"..1..1..1..2..2..2..2....1..1..1..1..1..1..1....1..1..1..2..3..3..0",
				"..2..0..1..1..2..3..1....3..0..1..3..0..1..2....3..1..2..2..2..3..3"
			],
			"keyword": "nonn",
			"offset": "1,1",
			"author": "_R. H. Hardin_ Feb 01 2012",
			"references": 1,
			"revision": 5,
			"time": "2012-03-31T12:37:07-04:00",
			"created": "2012-02-01T18:41:03-05:00"
		}
	]
}