{
	"greeting": "Greetings from The On-Line Encyclopedia of Integer Sequences! http://oeis.org/",
	"query": "id:A205771",
	"count": 1,
	"start": 0,
	"results": [
		{
			"number": 205771,
			"data": "3,11,251,2441406251,56843418860808014869689941406251,49303806576313237838233035330174139354575402194313937798142433166503906251",
			"name": "Primes of the form 2*5^n+1.",
			"link": [
				"Vincenzo Librandi, \u003ca href=\"/A205771/b205771.txt\"\u003eTable of n, a(n) for n = 1..9\u003c/a\u003e"
			],
			"mathematica": [
				"Select[2*5^Range[0, 500] + 1, PrimeQ]"
			],
			"xref": [
				"Cf. A058934"
			],
			"keyword": "nonn",
			"offset": "1,1",
			"author": "_Vladimir Joseph Stephan Orlovsky_, Jan 31 2012",
			"references": 3,
			"revision": 10,
			"time": "2012-03-30T18:52:15-04:00",
			"created": "2012-01-31T12:38:52-05:00"
		}
	]
}