{
	"greeting": "Greetings from The On-Line Encyclopedia of Integer Sequences! http://oeis.org/",
	"query": "id:A205009",
	"count": 1,
	"start": 0,
	"results": [
		{
			"number": 205009,
			"data": "1,3,5,3,2,5,6,9,5,10,28,21,15,6,27,9,8,5,4,27,21,28,7,21,10,15,18,21,14,27,66,9,28,8,23,40,38,28,36,33,13,21,120,28,40,49,22,21,23,10,18,44,27,18,45,21,28,14,189,27",
			"name": "Least k such that n divides the k-th difference between distinct central binomials coefficients.",
			"comment": [
				"The ordering of the differences between distinct central binomials coefficients is given by A205008.  For a guide to related sequences, see A204892."
			],
			"mathematica": [
				"(See the program at A205010.)"
			],
			"xref": [
				"Cf. A205010, A204892."
			],
			"keyword": "nonn",
			"offset": "1,2",
			"author": "_Clark Kimberling_, Jan 22 2012",
			"references": 1,
			"revision": 6,
			"time": "2013-02-27T09:44:10-05:00",
			"created": "2012-01-23T00:55:54-05:00"
		}
	]
}