{
	"greeting": "Greetings from The On-Line Encyclopedia of Integer Sequences! http://oeis.org/",
	"query": "id:A205645",
	"count": 1,
	"start": 0,
	"results": [
		{
			"number": 205645,
			"data": "3,64,3658004,1023090941561683953759580,2684673506279593406254437209960379084,382103603974564085117495134243710834769544696954218618882023686506660",
			"name": "Number of nilpotent loops of order 2*prime(n) up to isotopism.",
			"comment": [
				"Table 5, p. 20, of Clavier. oddprime(n) = A065091(n) = A000040(n-1)."
			],
			"reference": [
				"L. Clavier, About the autotopisms of abelian groups, 2012.",
				"D. Daly and P. Vojtěchovský, Enumeration of nilpotent loops via cohomology, J. Algebra, 322(11):4080-4098, 2009.",
				"H.O. Pflugfelder, Quasigroups and Loops: Introduction, 1990.",
				"J. D. Phillips and P. Vojtěchovský, The varieties of loops of bolmoufang type, Algebra Universalis, 54(3):259-271, 2005."
			],
			"link": [
				"Lucien Clavier, \u003ca href=\"http://arxiv.org/abs/1201.5659\"\u003eEnumeration of nilpotent loops up to isotopy\u003c/a\u003e, arXiv:1201.5659v1 [math.GR], Jan 26, 2012."
			],
			"example": [
				"a(4) = 3658004 because prime(4) = 7 and there are 3658004 nilpotent loops of order 2*7 = 14."
			],
			"xref": [
				"Cf. A000040, A057771, A065091."
			],
			"keyword": "nonn",
			"offset": "2,1",
			"author": "_Jonathan Vos Post_, Jan 29 2012",
			"references": 0,
			"revision": 11,
			"time": "2020-02-11T07:44:37-05:00",
			"created": "2012-01-30T17:07:53-05:00"
		}
	]
}