{
	"greeting": "Greetings from The On-Line Encyclopedia of Integer Sequences! http://oeis.org/",
	"query": "id:A205372",
	"count": 1,
	"start": 0,
	"results": [
		{
			"number": 205372,
			"data": "6,6,9,12,9,12,18,12,15,26,15,18,30,18,21,34,21,30,34,26,30,26,50,30,34,30,39,34,50,34,76,50,39,60,39,42,76,42,45,86,45,60,64,50,60,50,56,60,64,56,60,56,129,60,64,60,69,64,93,64,76,134,69,76,69,72,76",
			"name": "Least s(k) such that n divides s(k)-s(j) for some j\u003ck, where s=A024675.",
			"comment": [
				"For a guide to related sequences, see A204892.",
				"a(n) \u003e= n+4, with equality if and only if n+4 is in A024675."
			],
			"link": [
				"Robert Israel, \u003ca href=\"/A205372/b205372.txt\"\u003eTable of n, a(n) for n = 1..10000\u003c/a\u003e"
			],
			"maple": [
				"N:= 200: # for terms before the first \u003e the greatest prime \u003c= N",
				"P:= select(isprime, [seq(i,i=3..N,2)]):",
				"S:= (P[1..-2]+P[2..-1])/2:",
				"f:= proc(n) local T,R,i;",
				"   T:= S mod n;",
				"   R:= {}:",
				"   for i from 1 to nops(T)-1 do",
				"     R:= R union {T[i]};",
				"     if member(T[i+1],R) then return S[i+1] fi;",
				"   od;",
				"   FAIL",
				"end proc:",
				"Res:= NULL:",
				"for n from 1 do",
				"  v:= f(n);",
				"  if v = FAIL then break fi;",
				"  Res:= Res, v",
				"od:",
				"Res; # _Robert Israel_, Sep 09 2020"
			],
			"mathematica": [
				"(See the program at A205153.)"
			],
			"xref": [
				"Cf. A024675, A205153, A204892."
			],
			"keyword": "nonn",
			"offset": "1,1",
			"author": "_Clark Kimberling_, Jan 26 2012",
			"references": 3,
			"revision": 11,
			"time": "2020-09-10T03:02:16-04:00",
			"created": "2012-01-26T18:30:24-05:00"
		}
	]
}