{
	"greeting": "Greetings from The On-Line Encyclopedia of Integer Sequences! http://oeis.org/",
	"query": "id:A205245",
	"count": 1,
	"start": 0,
	"results": [
		{
			"number": 205245,
			"data": "4143102,225349124,18384097800,1253758820754,98979850888752,7109556887269900,555164681243665142",
			"name": "Number of (n+1)X8 0..2 arrays with the number of rightwards and downwards edge increases in each 2X2 subblock differing from the number in each of its horizontal and vertical neighbors",
			"comment": [
				"Column 7 of A205246"
			],
			"example": [
				"Some solutions for n=4",
				"..0..0..0..2..1..0..0..2....1..1..2..1..1..2..2..0....1..2..1..0..2..2..1..1",
				"..0..0..1..2..0..1..2..1....1..0..2..0..1..2..0..1....2..2..1..1..0..0..1..2",
				"..1..0..2..2..2..2..0..1....0..1..2..1..0..0..2..2....2..0..1..1..1..2..1..1",
				"..1..0..1..2..1..2..0..1....2..2..2..1..1..1..2..1....0..1..2..0..0..0..0..2",
				"..1..1..2..2..2..1..1..2....1..2..2..2..2..1..2..2....1..2..0..0..1..2..1..2"
			],
			"keyword": "nonn",
			"offset": "1,1",
			"author": "_R. H. Hardin_ Jan 24 2012",
			"references": 0,
			"revision": 4,
			"time": "2012-03-31T12:37:05-04:00",
			"created": "2012-01-24T08:09:20-05:00"
		}
	]
}