{
	"greeting": "Greetings from The On-Line Encyclopedia of Integer Sequences! http://oeis.org/",
	"query": "id:A205391",
	"count": 1,
	"start": 0,
	"results": [
		{
			"number": 205391,
			"data": "2,1,3,8,5,56,1,4,1,159,114,28,7,24,106,2,2,1350,66,320,16,57,4016,14,1,869,17,12,4,53,8398,1,38,1,49,675,657,33,121,160,3,8,1337220,542,540,2008,110642,7,35,128",
			"name": "(1/n)*A205390(n).",
			"comment": [
				"For a guide to related sequences, see A204892."
			],
			"mathematica": [
				"(See the program at A205386.)"
			],
			"xref": [
				"Cf. A205386, A204892."
			],
			"keyword": "nonn",
			"offset": "1,1",
			"author": "_Clark Kimberling_, Jan 27 2012",
			"references": 2,
			"revision": 5,
			"time": "2012-03-30T18:58:11-04:00",
			"created": "2012-01-27T19:02:48-05:00"
		}
	]
}