{
	"greeting": "Greetings from The On-Line Encyclopedia of Integer Sequences! http://oeis.org/",
	"query": "id:A206160",
	"count": 1,
	"start": 0,
	"results": [
		{
			"number": 206160,
			"data": "3,9,0,9,0,0,1,7,8,4,2,1,1,6,6,8,1,7,9,6,2,1,7,9,2,9,9,8,4,2,7,1,6,0,8,1,8,8,6,5,3,9,5,3,8,3,8,3,8,3,1,7,3,6,6,3,0,4,9,9,4,3,0,7,9,4,1,4,2,4,4,8",
			"name": "Decimal expansion of the Fresnel Integral int_{x=0..infinity} x*sin(x^3) dx",
			"comment": [
				"The imaginary part associated with A205885.",
				"The integral int_{x=0..infinity} x^2*sin(x^3)dx = 1/3 by elementary substitution."
			],
			"link": [
				"Wikipedia, \u003ca href=\"http://en.wikipedia.org/wiki/Fresnel_integral\"\u003eFresnel Integral\u003c/a\u003e"
			],
			"formula": [
				"Equals A205885 times A002194."
			],
			"example": [
				"0.3909001784211668179621792998..."
			],
			"maple": [
				"evalf(sqrt(3)*GAMMA(2/3)/6) ;"
			],
			"xref": [
				"Cf. A204068."
			],
			"keyword": "nonn,cons,easy",
			"offset": "0,1",
			"author": "_R. J. Mathar_, Jan 10 2013",
			"references": 1,
			"revision": 7,
			"time": "2013-01-10T06:44:40-05:00",
			"created": "2013-01-10T06:44:40-05:00"
		}
	]
}