{
	"greeting": "Greetings from The On-Line Encyclopedia of Integer Sequences! http://oeis.org/",
	"query": "id:A206026",
	"count": 1,
	"start": 0,
	"results": [
		{
			"number": 206026,
			"data": "1,12,24,72,72,168,240,336,360,504,576,720,720,720,720,1440,1440,1440,1440,1440,1440,2880,2880,2880,2880,2880,2880,2880,2880,4320,4320,4320,4320,4320,4320,5760,5760,8640,8640,8640,8640,8640,8640,8640,8640,8640,8640",
			"name": "a(n) = smallest number m such that sigma(k) = m has at least n positive solutions k.",
			"comment": [
				"Sequence of numbers from A145899."
			],
			"example": [
				"a(6) = 168 because 168 is the smallest value of sigma(k) for n=6 positive integers k such that sigma(k) = 168 has solution; k = 60, 78, 92, 123, 143, 167."
			],
			"xref": [
				"Cf. A085790, A000203, A145899, A206027."
			],
			"keyword": "nonn",
			"offset": "1,2",
			"author": "_Jaroslav Krizek_, Feb 03 2012",
			"references": 1,
			"revision": 8,
			"time": "2012-03-30T19:00:28-04:00",
			"created": "2012-02-06T19:08:03-05:00"
		}
	]
}