{
	"greeting": "Greetings from The On-Line Encyclopedia of Integer Sequences! http://oeis.org/",
	"query": "id:A206784",
	"count": 1,
	"start": 0,
	"results": [
		{
			"number": 206784,
			"data": "54,2916,61003,1165366,17515482,248652016,3210775788,40009922008,476334876958,5542093365196,62879423961226,702454161467961,7727332842269952,84083787760092394,905578254568069211",
			"name": "Number of nX7 0..1 arrays avoiding 0 0 1 horizontally and 0 1 1 vertically",
			"comment": [
				"Column 7 of A206785"
			],
			"link": [
				"R. H. Hardin, \u003ca href=\"/A206784/b206784.txt\"\u003eTable of n, a(n) for n = 1..210\u003c/a\u003e"
			],
			"example": [
				"Some solutions for n=4",
				"..1..0..1..1..1..0..0....1..0..1..1..0..1..0....1..1..1..1..1..1..1",
				"..0..1..0..1..1..0..1....1..0..1..0..1..1..0....0..1..1..1..1..0..1",
				"..0..0..0..0..0..0..0....0..1..0..0..0..0..0....1..1..1..1..1..1..1",
				"..0..0..0..0..0..0..0....0..0..0..0..0..0..0....0..1..1..1..1..0..1"
			],
			"keyword": "nonn",
			"offset": "1,1",
			"author": "_R. H. Hardin_ Feb 12 2012",
			"references": 1,
			"revision": 5,
			"time": "2012-03-31T12:37:12-04:00",
			"created": "2012-02-12T12:39:56-05:00"
		}
	]
}