{
	"greeting": "Greetings from The On-Line Encyclopedia of Integer Sequences! http://oeis.org/",
	"query": "id:A206860",
	"count": 1,
	"start": 0,
	"results": [
		{
			"number": 206860,
			"data": "191,36481,3425501,314918295,31208037240,3092914364659,303316860005399,29725367062521082,2918687692387968133,286698257332823360369,28152247554788869997756,2763985738207647315882808",
			"name": "Number of nX5 0..2 arrays avoiding the pattern z z+1 z in any row, column, diagonal or antidiagonal",
			"comment": [
				"Column 5 of A206863"
			],
			"link": [
				"R. H. Hardin, \u003ca href=\"/A206860/b206860.txt\"\u003eTable of n, a(n) for n = 1..210\u003c/a\u003e"
			],
			"example": [
				"Some solutions for n=4",
				"..0..2..2..0..0....1..2..2..1..2....1..0..0..0..0....1..2..2..1..1",
				"..1..0..1..1..2....0..1..1..2..2....1..2..2..0..0....1..1..0..1..2",
				"..2..2..1..2..2....1..0..1..2..0....2..0..0..2..1....1..2..0..1..2",
				"..2..1..2..2..2....1..1..2..0..2....2..1..1..1..1....1..2..0..0..1"
			],
			"keyword": "nonn",
			"offset": "1,1",
			"author": "_R. H. Hardin_ Feb 13 2012",
			"references": 1,
			"revision": 5,
			"time": "2012-03-31T12:37:14-04:00",
			"created": "2012-02-13T10:37:59-05:00"
		}
	]
}