{
	"greeting": "Greetings from The On-Line Encyclopedia of Integer Sequences! http://oeis.org/",
	"query": "id:A206881",
	"count": 1,
	"start": 0,
	"results": [
		{
			"number": 206881,
			"data": "37,1369,22412,321393,5179587,87541530,1455584860,23905464739,393067971811,6480684234921,106874325247350,1761571690252448,29031364788581620,478487481722152310,7886646984790650669",
			"name": "Number of nX6 0..1 arrays avoiding 0 1 0 horizontally and 1 0 1 vertically",
			"comment": [
				"Column 6 of A206883"
			],
			"link": [
				"R. H. Hardin, \u003ca href=\"/A206881/b206881.txt\"\u003eTable of n, a(n) for n = 1..210\u003c/a\u003e"
			],
			"example": [
				"Some solutions for n=4",
				"..0..1..1..1..0..0....0..0..0..1..1..0....1..1..1..0..0..0....0..1..1..1..0..0",
				"..1..0..0..1..1..0....0..0..0..0..0..1....0..0..1..1..1..0....1..0..1..1..1..0",
				"..0..0..0..1..1..0....1..1..1..0..0..1....0..0..0..0..1..1....1..0..0..0..1..1",
				"..0..1..1..0..1..1....0..1..1..0..1..1....0..0..0..0..1..1....1..1..0..0..0..1"
			],
			"keyword": "nonn",
			"offset": "1,1",
			"author": "_R. H. Hardin_ Feb 13 2012",
			"references": 1,
			"revision": 5,
			"time": "2012-03-31T12:37:14-04:00",
			"created": "2012-02-13T13:54:12-05:00"
		}
	]
}