{
	"greeting": "Greetings from The On-Line Encyclopedia of Integer Sequences! http://oeis.org/",
	"query": "id:A206971",
	"count": 1,
	"start": 0,
	"results": [
		{
			"number": 206971,
			"data": "882,777924,419203246,223912418544,118749552817647,63023113538493420,33450230674269584063,17747590151499513969141,9414148418043478285995791,4993518944483846036425995889,2648627388902187382824097898184",
			"name": "Number of nX5 0..3 arrays avoiding the pattern z-1 z-1 z in any row, column, nw-to-se diagonal or ne-to-sw antidiagonal",
			"comment": [
				"Column 5 of A206974"
			],
			"link": [
				"R. H. Hardin, \u003ca href=\"/A206971/b206971.txt\"\u003eTable of n, a(n) for n = 1..18\u003c/a\u003e"
			],
			"example": [
				"Some solutions for n=4",
				"..0..2..0..3..3....1..0..1..1..1....0..1..0..2..1....1..3..1..2..2",
				"..3..1..1..3..3....0..3..0..3..3....0..0..2..1..0....1..1..0..3..2",
				"..3..0..1..1..0....0..1..1..3..0....2..2..0..0..2....0..3..1..1..1",
				"..3..1..0..3..3....0..2..3..1..1....1..1..3..3..0....0..0..3..3..1"
			],
			"keyword": "nonn",
			"offset": "1,1",
			"author": "_R. H. Hardin_ Feb 14 2012",
			"references": 1,
			"revision": 5,
			"time": "2012-03-31T12:37:14-04:00",
			"created": "2012-02-14T07:07:29-05:00"
		}
	]
}