{
	"greeting": "Greetings from The On-Line Encyclopedia of Integer Sequences! http://oeis.org/",
	"query": "id:A206501",
	"count": 1,
	"start": 0,
	"results": [
		{
			"number": 206501,
			"data": "2,34,3130,502599,83045488,13752277898,2277207309720,377099217207514,62445595052884887,10340702774554689140,1712370276674504142791,283560339737534813492944",
			"name": "Number of nX4 0..7 arrays with no element equal to another within a city block distance of two, and new values 0..7 introduced in row major order",
			"comment": [
				"Column 4 of A206503"
			],
			"example": [
				"Some solutions for n=4",
				"..0..1..2..0....0..1..2..0....0..1..2..0....0..1..2..0....0..1..2..0",
				"..2..3..4..5....2..3..4..5....2..3..4..5....2..3..4..1....2..3..4..1",
				"..4..5..6..3....1..0..6..1....4..0..6..1....4..5..6..7....1..5..6..7",
				"..6..7..1..4....5..4..2..3....1..2..3..7....7..0..3..2....3..4..1..0"
			],
			"keyword": "nonn",
			"offset": "1,1",
			"author": "_R. H. Hardin_ Feb 08 2012",
			"references": 0,
			"revision": 4,
			"time": "2012-03-31T12:37:11-04:00",
			"created": "2012-02-08T17:58:00-05:00"
		}
	]
}