{
	"greeting": "Greetings from The On-Line Encyclopedia of Integer Sequences! http://oeis.org/",
	"query": "id:A207400",
	"count": 1,
	"start": 0,
	"results": [
		{
			"number": 207400,
			"data": "12,144,612,1782,4212,8692,16284,28362,46652,73272,110772,162174,231012,321372,437932,586002,771564,1001312,1282692,1623942,2034132,2523204,3102012,3782362,4577052,5499912,6565844,7790862,9192132,10788012",
			"name": "Number of n X 5 0..1 arrays avoiding 0 0 1 and 0 1 1 horizontally and 0 0 1 and 1 1 0 vertically.",
			"comment": [
				"Column 5 of A207403."
			],
			"link": [
				"R. H. Hardin, \u003ca href=\"/A207400/b207400.txt\"\u003eTable of n, a(n) for n = 1..210\u003c/a\u003e"
			],
			"formula": [
				"Empirical: a(n) = (1/3)*n^5 + 3*n^4 + (28/3)*n^3 + 7*n^2 - (29/3)*n + 2.",
				"Conjectures from _Colin Barker_, Jun 22 2018: (Start)",
				"G.f.: 2*x*(6 + 36*x - 36*x^2 + 15*x^3 - x^5) / (1 - x)^6.",
				"a(n) = 6*a(n-1) - 15*a(n-2) + 20*a(n-3) - 15*a(n-4) + 6*a(n-5) - a(n-6) for n\u003e6.",
				"(End)"
			],
			"example": [
				"Some solutions for n=4:",
				"..0..0..0..0..0....1..0..1..0..1....1..1..0..1..0....0..1..0..1..0",
				"..0..1..0..0..0....0..1..0..0..0....0..0..0..0..0....0..1..0..0..0",
				"..0..0..0..0..0....0..1..0..0..0....1..1..0..0..0....0..1..0..0..0",
				"..0..0..0..0..0....0..1..0..0..0....1..1..0..0..0....0..1..0..0..0"
			],
			"xref": [
				"Cf. A207403."
			],
			"keyword": "nonn",
			"offset": "1,1",
			"author": "_R. H. Hardin_, Feb 17 2012",
			"references": 1,
			"revision": 8,
			"time": "2018-06-22T08:27:43-04:00",
			"created": "2012-02-17T13:05:42-05:00"
		}
	]
}