{
	"greeting": "Greetings from The On-Line Encyclopedia of Integer Sequences! http://oeis.org/",
	"query": "id:A207796",
	"count": 1,
	"start": 0,
	"results": [
		{
			"number": 207796,
			"data": "1714176,190505040,26462419832,3518595143968,507960770486000,68409320823594368,9906634826573197984",
			"name": "Number of (n+1) X 6 0..3 arrays with every 2 X 3 or 3 X 2 subblock having an unequal number of clockwise and counterclockwise edge increases.",
			"comment": [
				"Column 5 of A207799."
			],
			"example": [
				"Some solutions for n=3:",
				"..3..1..1..2..1..1....1..0..2..0..1..2....0..1..2..1..1..1....1..0..0..0..0..3",
				"..2..1..3..2..2..0....1..3..1..1..3..2....0..2..2..3..3..0....1..2..2..1..1..3",
				"..0..2..2..1..3..2....2..0..0..0..3..2....2..3..0..1..0..1....1..1..3..2..3..3",
				"..3..2..3..3..0..0....1..1..1..2..0..0....0..3..3..1..0..2....0..2..0..0..1..0"
			],
			"keyword": "nonn",
			"offset": "1,1",
			"author": "_R. H. Hardin_, Feb 20 2012",
			"references": 0,
			"revision": 6,
			"time": "2015-10-06T21:51:50-04:00",
			"created": "2012-02-20T07:35:38-05:00"
		}
	]
}