{
	"greeting": "Greetings from The On-Line Encyclopedia of Integer Sequences! http://oeis.org/",
	"query": "id:A207451",
	"count": 1,
	"start": 0,
	"results": [
		{
			"number": 207451,
			"data": "26,676,3354,10088,23530,46956,84266,139984,219258,327860,472186,659256,896714,1192828,1556490,1997216,2525146,3151044,3886298,4742920,5733546,6871436,8170474,9645168,11310650,13182676,15277626,17612504,20204938",
			"name": "Number of n X 6 0..1 arrays avoiding 0 0 0 and 0 0 1 horizontally and 0 0 1 and 1 0 1 vertically.",
			"comment": [
				"Column 6 of A207453."
			],
			"link": [
				"R. H. Hardin, \u003ca href=\"/A207451/b207451.txt\"\u003eTable of n, a(n) for n = 1..210\u003c/a\u003e"
			],
			"formula": [
				"Empirical: a(n) = 26*n^4 + 78*n^3 - 104*n^2 + 26*n.",
				"Conjectures from _Colin Barker_, Jun 23 2018: (Start)",
				"G.f.: 26*x*(1 + 21*x + 9*x^2 - 7*x^3) / (1 - x)^5.",
				"a(n) = 5*a(n-1) - 10*a(n-2) + 10*a(n-3) - 5*a(n-4) + a(n-5) for n\u003e5.",
				"(End)"
			],
			"example": [
				"Some solutions for n=5:",
				"  1 0 1 0 1 1     0 1 1 0 1 0     1 1 1 0 1 0     1 1 0 1 1 0",
				"  1 1 1 1 0 0     0 1 0 1 0 0     0 1 0 1 0 0     0 1 1 1 0 0",
				"  0 1 1 1 0 0     0 1 0 1 0 0     0 1 0 1 0 0     0 1 1 1 0 0",
				"  0 1 0 1 0 0     0 1 0 1 0 0     0 1 0 1 0 0     0 1 0 1 0 0",
				"  0 1 0 1 0 0     0 1 0 1 0 0     0 1 0 1 0 0     0 1 0 1 0 0"
			],
			"xref": [
				"Cf. A207453."
			],
			"keyword": "nonn",
			"offset": "1,1",
			"author": "_R. H. Hardin_, Feb 17 2012",
			"references": 1,
			"revision": 12,
			"time": "2018-06-23T06:07:54-04:00",
			"created": "2012-02-17T19:02:09-05:00"
		}
	]
}