{
	"greeting": "Greetings from The On-Line Encyclopedia of Integer Sequences! http://oeis.org/",
	"query": "id:A207351",
	"count": 1,
	"start": 0,
	"results": [
		{
			"number": 207351,
			"data": "42,1764,8928,43260,186002,684324,2367656,8000806,26057006,82907430,260627110,806084422,2476671718,7545089216,22861190904,68993933764,207422313718,622180142516,1862113694818,5564560256320,16608301418960",
			"name": "Number of 7Xn 0..1 arrays avoiding 0 0 0 and 0 1 1 horizontally and 0 0 0 and 1 1 1 vertically",
			"comment": [
				"Row 7 of A207346"
			],
			"link": [
				"R. H. Hardin, \u003ca href=\"/A207351/b207351.txt\"\u003eTable of n, a(n) for n = 1..210\u003c/a\u003e"
			],
			"example": [
				"Some solutions for n=4",
				"..0..1..0..1....0..1..0..0....1..0..1..0....0..1..0..0....1..1..1..1",
				"..1..0..0..1....0..1..0..1....0..0..1..0....0..1..0..1....1..1..0..1",
				"..0..0..1..0....1..0..1..0....1..1..0..1....1..0..1..0....0..0..1..0",
				"..1..1..1..0....1..0..0..1....1..0..1..0....1..1..1..0....1..1..1..1",
				"..1..0..0..1....0..1..0..1....0..1..0..0....0..1..0..1....0..1..0..1",
				"..0..1..0..1....1..0..1..0....1..0..0..1....1..0..0..1....0..0..1..0",
				"..0..0..1..0....1..1..0..1....1..0..1..0....0..0..1..0....1..1..1..0"
			],
			"keyword": "nonn",
			"offset": "1,1",
			"author": "_R. H. Hardin_ Feb 17 2012",
			"references": 1,
			"revision": 5,
			"time": "2012-03-31T12:37:16-04:00",
			"created": "2012-02-17T06:13:36-05:00"
		}
	]
}