{
	"greeting": "Greetings from The On-Line Encyclopedia of Integer Sequences! http://oeis.org/",
	"query": "id:A207129",
	"count": 1,
	"start": 0,
	"results": [
		{
			"number": 207129,
			"data": "61,3721,197144,10372917,546965177,28848306206,1521486186616,80244105724945,4232124574042091,223204941516339823,11771970446658242928,620861199183478906328,32744614050424872414063,1726971746484789854841910",
			"name": "Number of nX3 0..3 arrays avoiding the pattern z z+1 z in any row or column",
			"comment": [
				"Column 3 of A207134"
			],
			"link": [
				"R. H. Hardin, \u003ca href=\"/A207129/b207129.txt\"\u003eTable of n, a(n) for n = 1..210\u003c/a\u003e"
			],
			"example": [
				"Some solutions for n=4",
				"..1..0..2....3..2..2....0..0..3....1..3..2....0..2..0....2..0..1....0..3..3",
				"..3..2..1....0..2..3....2..3..1....2..0..2....3..0..0....0..2..0....0..1..3",
				"..1..0..3....3..0..1....1..2..0....2..1..1....2..1..1....1..2..2....2..1..1",
				"..3..0..1....2..3..3....1..0..0....0..1..1....0..2..1....3..0..0....2..1..1"
			],
			"keyword": "nonn",
			"offset": "1,1",
			"author": "_R. H. Hardin_ Feb 15 2012",
			"references": 1,
			"revision": 5,
			"time": "2012-03-31T12:37:15-04:00",
			"created": "2012-02-15T09:11:51-05:00"
		}
	]
}