{
	"greeting": "Greetings from The On-Line Encyclopedia of Integer Sequences! http://oeis.org/",
	"query": "id:A207186",
	"count": 1,
	"start": 0,
	"results": [
		{
			"number": 207186,
			"data": "65,4225,151981,6951227,310484943,13575513917,600838995529,26534076780959,1170871871472313,51701095335035709,2282533143749663089,100768156649910377157,4448827811097756475927,196409522544211889696463",
			"name": "Number of 7Xn 0..1 arrays avoiding 0 0 0 horizontally and 0 1 0 vertically",
			"comment": [
				"Row 7 of A207182"
			],
			"link": [
				"R. H. Hardin, \u003ca href=\"/A207186/b207186.txt\"\u003eTable of n, a(n) for n = 1..210\u003c/a\u003e"
			],
			"example": [
				"Some solutions for n=4",
				"..0..0..1..0....1..1..1..0....0..0..1..0....1..0..0..1....0..0..1..1",
				"..1..0..0..1....0..1..0..0....1..1..1..0....0..1..1..1....1..0..1..0",
				"..1..1..0..1....0..0..1..0....1..1..1..0....1..1..1..1....1..1..0..1",
				"..1..1..1..1....1..1..1..0....1..1..0..1....1..1..1..0....0..1..0..1",
				"..0..1..1..0....1..1..1..0....1..0..1..1....0..1..0..0....0..1..0..0",
				"..0..1..1..1....1..0..0..1....0..0..1..1....0..1..0..0....1..0..1..1",
				"..1..0..0..1....0..1..1..1....0..0..1..1....0..1..1..1....1..1..1..1"
			],
			"keyword": "nonn",
			"offset": "1,1",
			"author": "_R. H. Hardin_ Feb 15 2012",
			"references": 1,
			"revision": 5,
			"time": "2012-03-31T12:37:15-04:00",
			"created": "2012-02-15T14:37:18-05:00"
		}
	]
}