{
	"greeting": "Greetings from The On-Line Encyclopedia of Integer Sequences! http://oeis.org/",
	"query": "id:A207106",
	"count": 1,
	"start": 0,
	"results": [
		{
			"number": 207106,
			"data": "6,36,98,200,350,556,826,1168,1590,2100,2706,3416,4238,5180,6250,7456,8806,10308,11970,13800,15806,17996,20378,22960,25750,28756,31986,35448,39150,43100,47306,51776,56518,61540,66850,72456,78366,84588,91130,98000",
			"name": "Number of n X 3 0..1 arrays avoiding 0 0 0 and 0 1 1 horizontally and 0 0 1 and 1 1 0 vertically.",
			"comment": [
				"Column 3 of A207111."
			],
			"link": [
				"R. H. Hardin, \u003ca href=\"/A207106/b207106.txt\"\u003eTable of n, a(n) for n = 1..210\u003c/a\u003e"
			],
			"formula": [
				"Empirical: a(n) = (4/3)*n^3 + 8*n^2 - (10/3)*n.",
				"Conjectures from _Colin Barker_, Feb 20 2018: (Start)",
				"G.f.: 2*x*(3 + 6*x - 5*x^2) / (1 - x)^4.",
				"a(n) = 4*a(n-1) - 6*a(n-2) + 4*a(n-3) - a(n-4) for n\u003e4.",
				"(End)"
			],
			"example": [
				"Some solutions for n=4:",
				"..1..1..1....0..1..0....1..0..0....1..0..0....1..1..1....0..1..0....1..1..0",
				"..1..1..1....1..0..1....0..0..1....1..0..1....1..1..0....1..1..0....0..0..1",
				"..1..1..1....0..0..1....1..0..1....1..0..1....1..1..1....1..1..0....0..1..0",
				"..1..1..1....1..0..1....0..0..1....1..0..1....1..1..1....1..1..0....0..1..0"
			],
			"xref": [
				"Cf. A207111."
			],
			"keyword": "nonn",
			"offset": "1,1",
			"author": "_R. H. Hardin_, Feb 15 2012",
			"references": 4,
			"revision": 11,
			"time": "2018-02-22T05:29:13-05:00",
			"created": "2012-02-15T08:07:56-05:00"
		}
	]
}