{
	"greeting": "Greetings from The On-Line Encyclopedia of Integer Sequences! http://oeis.org/",
	"query": "id:A207197",
	"count": 1,
	"start": 0,
	"results": [
		{
			"number": 207197,
			"data": "69,4761,247002,12539372,632716336,31901664357,1610194874799,81287871720373,4104318500772121,207237297025296600,10464020397550910416,528359580441380112910,26678441328805428234587,1347073335296997275306445",
			"name": "Number of nX4 0..2 arrays avoiding the pattern z-1 z-1 z in any row or column",
			"comment": [
				"Column 4 of A207201"
			],
			"link": [
				"R. H. Hardin, \u003ca href=\"/A207197/b207197.txt\"\u003eTable of n, a(n) for n = 1..210\u003c/a\u003e"
			],
			"example": [
				"Some solutions for n=4",
				"..2..0..1..1....0..2..0..0....1..0..2..0....1..2..2..2....2..0..1..2",
				"..2..1..0..1....0..1..2..0....1..0..0..0....1..2..2..2....0..2..2..0",
				"..1..2..2..0....2..2..2..0....0..2..0..0....1..2..1..1....2..2..0..1",
				"..1..0..0..0....0..1..1..0....2..0..0..0....1..2..1..1....2..1..2..1"
			],
			"keyword": "nonn",
			"offset": "1,1",
			"author": "_R. H. Hardin_ Feb 15 2012",
			"references": 1,
			"revision": 5,
			"time": "2012-03-31T12:37:15-04:00",
			"created": "2012-02-15T17:46:48-05:00"
		}
	]
}