{
	"greeting": "Greetings from The On-Line Encyclopedia of Integer Sequences! http://oeis.org/",
	"query": "id:A207818",
	"count": 1,
	"start": 0,
	"results": [
		{
			"number": 207818,
			"data": "1,3,15,105,981,11775,174309,3070293,62728749,1462046235,38446605975,1131448219263,37011386961477,1337106744965847,53005310776229283,2290750722850361415,107258522028595441911,5410293190992424617243,292567014870308385871989",
			"name": "The sum of the second powers of the numbers of solid standard Young tableaux over all planar partitions of n.",
			"reference": [
				"Shalosh B. Ekhad and Doron Zeilberger, Computational and Theoretical Challenges On Counting Solid Standard Young Tableaux."
			],
			"link": [
				"Thotsaporn Thanatipanonda, \u003ca href=\"/A207818/a207818_1.txt\"\u003eMaple code for A207818\u003c/a\u003e"
			],
			"example": [
				"a(2) = 3 since the planar partitions [[2]], [[1,1]], [[1],[1]] in which each of these has only one tableaux."
			],
			"maple": [
				"# see link above for program."
			],
			"keyword": "nonn",
			"offset": "1,2",
			"author": "_Thotsaporn Thanatipanonda_, Feb 27 2012",
			"references": 1,
			"revision": 12,
			"time": "2012-03-30T19:00:52-04:00",
			"created": "2012-02-29T09:30:22-05:00"
		}
	]
}