{
	"greeting": "Greetings from The On-Line Encyclopedia of Integer Sequences! http://oeis.org/",
	"query": "id:A208363",
	"count": 1,
	"start": 0,
	"results": [
		{
			"number": 208363,
			"data": "10000500001,10000900001,10001610001,10002220001,10002520001,10003630001,10006560001,10008180001,10009290001,10013031001,10013131001,10014741001,10016961001,10021512001",
			"name": "\"3-ply\" palindromic primes.",
			"comment": [
				"From the Ribenboim book: palindromic primes whose length is a palindromic prime whose length is a palindromic prime whose length is NOT a palindromic prime."
			],
			"reference": [
				"Paulo Ribenboim, The New Book of Prime Number Records, Springer-Verlag New York Inc., 1996, pages 160-161."
			],
			"link": [
				"Alvin Hoover Belt, \u003ca href=\"/A208363/b208363.txt\"\u003eTable of n, a(n) for n = 1..100\u003c/a\u003e"
			],
			"example": [
				"a(42042) = 99999199999, a(42043) = 10^100 + 3030*10^48 + 1. [_Charles R Greathouse IV_, Feb 26 2012]"
			],
			"xref": [
				"Cf. A002385, A208362 (number of digits of these numbers)."
			],
			"keyword": "nonn,base",
			"offset": "1,1",
			"author": "_Alvin Hoover Belt_, Feb 25 2012",
			"references": 2,
			"revision": 37,
			"time": "2013-06-24T07:44:03-04:00",
			"created": "2012-03-02T21:24:43-05:00"
		}
	]
}