{
	"greeting": "Greetings from The On-Line Encyclopedia of Integer Sequences! http://oeis.org/",
	"query": "id:A208634",
	"count": 1,
	"start": 0,
	"results": [
		{
			"number": 208634,
			"data": "16,47,150,494,1652,5572,18888,64216,218704,745616,2543520,8679776,29625920,101131840,345250944,1178690944,4024163584,13739075840,46907582976,160151393792,546788836352,1866849412096,6373813684224",
			"name": "Number of n X 5 0..1 arrays with new values 0..1 introduced in row major order and no element equal to more than one of its immediate leftward or upward or right-upward antidiagonal neighbors.",
			"comment": [
				"Column 5 of A208637."
			],
			"link": [
				"R. H. Hardin, \u003ca href=\"/A208634/b208634.txt\"\u003eTable of n, a(n) for n = 1..210\u003c/a\u003e"
			],
			"formula": [
				"Empirical: a(n) = 6*a(n-1) - 10*a(n-2) + 4*a(n-3).",
				"Conjectures from _Colin Barker_, Jul 05 2018: (Start)",
				"G.f.: x*(16 - 49*x + 28*x^2) / ((1 - 2*x)*(1 - 4*x + 2*x^2)).",
				"a(n) = (3*2^(1+n) + (11-2*sqrt(2))*(2-sqrt(2))^n + (2+sqrt(2))^n*(11+2*sqrt(2))) / 4.",
				"(End)"
			],
			"example": [
				"Some solutions for n=4:",
				"..0..0..1..1..0....0..1..1..0..0....0..1..0..0..1....0..1..1..0..0",
				"..1..0..0..1..1....0..0..1..1..0....1..0..1..0..0....1..0..1..1..1",
				"..1..1..0..0..0....1..0..0..1..1....1..0..1..1..1....0..1..0..0..1",
				"..0..1..1..1..0....0..1..0..0..0....1..0..0..0..1....1..0..1..0..1"
			],
			"xref": [
				"Cf. A208637."
			],
			"keyword": "nonn",
			"offset": "1,1",
			"author": "_R. H. Hardin_, Feb 29 2012",
			"references": 1,
			"revision": 9,
			"time": "2018-07-05T08:34:46-04:00",
			"created": "2012-02-29T15:37:56-05:00"
		}
	]
}