{
	"greeting": "Greetings from The On-Line Encyclopedia of Integer Sequences! http://oeis.org/",
	"query": "id:A208413",
	"count": 1,
	"start": 0,
	"results": [
		{
			"number": 208413,
			"data": "187,700075,2646531062,10084768380770,38410047476679936,146298576850884166522,557229580446475130201608,2122405243795588131572978866,8083928267793741312454314127058",
			"name": "Number of 6Xn 0..3 arrays with new values 0..3 introduced in row major order and no element equal to more than two of its immediate leftward or upward or right-upward antidiagonal neighbors",
			"comment": [
				"Row 6 of A208408"
			],
			"link": [
				"R. H. Hardin, \u003ca href=\"/A208413/b208413.txt\"\u003eTable of n, a(n) for n = 1..210\u003c/a\u003e"
			],
			"example": [
				"Some solutions for n=4",
				"..0..1..0..0....0..0..0..0....0..0..0..0....0..0..0..1....0..0..0..0",
				"..1..0..1..0....0..1..0..1....1..1..2..1....1..2..2..0....1..1..2..0",
				"..2..3..1..3....2..1..3..2....1..2..1..3....1..3..1..3....2..2..1..0",
				"..2..2..1..1....1..3..0..3....2..3..1..0....1..0..3..3....3..2..2..0",
				"..3..2..0..1....1..0..2..1....0..1..1..1....3..2..1..3....2..3..3..0",
				"..0..3..3..1....0..3..3..3....1..2..2..3....2..2..2..2....1..2..3..2"
			],
			"keyword": "nonn",
			"offset": "1,1",
			"author": "_R. H. Hardin_ Feb 26 2012",
			"references": 1,
			"revision": 5,
			"time": "2012-03-31T12:37:23-04:00",
			"created": "2012-02-26T07:53:44-05:00"
		}
	]
}