{
	"greeting": "Greetings from The On-Line Encyclopedia of Integer Sequences! http://oeis.org/",
	"query": "id:A208303",
	"count": 1,
	"start": 0,
	"results": [
		{
			"number": 208303,
			"data": "1,5,52,2906,373780,87852626,33093356640,18383354934430,14216420560211868,14670987603972303070,19558496205580909812744,32828323774419481541135978,67939294184199439807451132308,170381709310740181061939305134514,510275358861788633812686061715278224",
			"name": "Number of 3 X n nonnegative integer arrays with new values 0 upwards introduced in row major order and no element equal to any horizontal or antidiagonal neighbor (colorings ignoring permutations of colors).",
			"link": [
				"Andrew Howroyd, \u003ca href=\"/A208303/b208303.txt\"\u003eTable of n, a(n) for n = 0..100\u003c/a\u003e"
			],
			"example": [
				"Some solutions for n=4:",
				"..0..1..2..0....0..1..0..1....0..1..0..2....0..1..0..1....0..1..2..0",
				"..2..1..2..0....0..1..0..1....3..1..0..2....0..1..0..1....3..0..1..0",
				"..0..3..1..0....0..1..2..1....0..1..0..1....2..1..2..0....1..0..3..0"
			],
			"xref": [
				"Row 3 of A208301."
			],
			"keyword": "nonn",
			"offset": "0,2",
			"author": "_R. H. Hardin_, Feb 25 2012",
			"ext": [
				"a(0)=1 prepended and terms a(10) and beyond from _Andrew Howroyd_, May 18 2020"
			],
			"references": 1,
			"revision": 7,
			"time": "2020-05-18T19:56:36-04:00",
			"created": "2012-02-25T05:58:40-05:00"
		}
	]
}