{
	"greeting": "Greetings from The On-Line Encyclopedia of Integer Sequences! http://oeis.org/",
	"query": "id:A208234",
	"count": 1,
	"start": 0,
	"results": [
		{
			"number": 208234,
			"data": "1,2,1,1,2,3,4,2,3,1,1,4,3,2,5,6,2,4,3,5,1,1,6,3,4,5,2,7,8,2,6,4,5,3,7,1,1,8,3,6,5,4,7,2,9,10,2,8,4,6,5,7,3,9,1,1,10,3,8,5,6,7,4,9,2,11",
			"name": "Second inverse function (numbers of columns) for pairing function A188568.",
			"link": [
				"Boris Putievskiy, \u003ca href=\"/A208234/b208234.txt\"\u003eRows n = 1..140 of triangle, flattened\u003c/a\u003e",
				"Boris Putievskiy, \u003ca href=\"http://arxiv.org/abs/1212.2732\"\u003eTransformations Integer Sequences And Pairing Functions\u003c/a\u003e arXiv:1212.2732 [math.CO]"
			],
			"formula": [
				"a(n) = -max(i,j)*((-1)^i-1)/2+min(i,j)*((-1)^i+1)/2,  if i\u003e=j",
				"a(n) =  max(i,j)*((-1)^j+1)/2-min(i,j)*((-1)^j-1)/2,  if i\u003cj,",
				"where t = floor((-1+sqrt(8*n-7))/2), i = n-t*(t+1)/2, j = (t*t+3*t+4)/2-n."
			],
			"example": [
				"The start of the sequence as triangle array read by rows:",
				"1;",
				"2,1;",
				"1,2,3;",
				"4,2,3,1;",
				"1,4,3,2,5;",
				"6,2,4,3,5,1;",
				"1,6,3,4,5,2,7;",
				". . .",
				"Row number k contains permutation numbers form 1 to k."
			],
			"program": [
				"(Python)",
				"t=int((math.sqrt(8*n-7) - 1)/ 2)",
				"i=n-t*(t+1)//2",
				"j=(t*t+3*t+4)//2-n",
				"if i\u003e=j:",
				"    result=-max(i,j)*((-1)**i-1)/2+min(i,j)*((-1)**i+1)/2",
				"else:",
				"    result= max(i,j)*((-1)**j+1)/2-min(i,j)*((-1)**j-1)/2"
			],
			"xref": [
				"Cf. A188568."
			],
			"keyword": "nonn",
			"offset": "1,2",
			"author": "_Boris Putievskiy_, Jan 10 2013",
			"references": 2,
			"revision": 17,
			"time": "2021-05-21T08:09:15-04:00",
			"created": "2013-01-14T21:37:29-05:00"
		}
	]
}