{
	"greeting": "Greetings from The On-Line Encyclopedia of Integer Sequences! http://oeis.org/",
	"query": "id:A208309",
	"count": 1,
	"start": 0,
	"results": [
		{
			"number": 208309,
			"data": "4,18,78,336,1446,6222,26772,115194,495654,2132688,9176478,39484326,169892196,731008002,3145363422,13533793104,58232875254,250562996958,1078116359028,4638892804266,19960114944246,85883896308432",
			"name": "Number of n X 3 0..1 arrays with new values 0..1 introduced in row major order and no element equal to more than one of its immediate leftward or upward neighbors.",
			"comment": [
				"Column 3 of A208314."
			],
			"link": [
				"R. H. Hardin, \u003ca href=\"/A208309/b208309.txt\"\u003eTable of n, a(n) for n = 1..210\u003c/a\u003e"
			],
			"formula": [
				"Empirical: a(n) = 5*a(n-1) - 3*a(n-2).",
				"Conjectures from _Colin Barker_, Jun 30 2018: (Start)",
				"G.f.: 2*x*(2 - x) / (1 - 5*x + 3*x^2).",
				"a(n) = (2^(-n)*((5-sqrt(13))^n*(-7+sqrt(13)) + (5+sqrt(13))^n*(7+sqrt(13)))) / (3*sqrt(13)).",
				"(End)"
			],
			"example": [
				"Some solutions for n=4:",
				"..0..1..0....0..0..0....0..1..1....0..1..1....0..1..1....0..1..0....0..0..0",
				"..1..0..1....1..0..1....1..0..1....1..0..0....0..1..0....1..0..1....0..1..1",
				"..0..1..0....0..1..0....1..1..0....1..1..1....0..1..1....1..0..1....1..0..1",
				"..1..0..1....0..0..1....1..0..1....1..0..1....0..1..0....1..1..0....0..1..0"
			],
			"xref": [
				"Cf. A208314."
			],
			"keyword": "nonn",
			"offset": "1,1",
			"author": "_R. H. Hardin_, Feb 25 2012",
			"references": 1,
			"revision": 8,
			"time": "2018-06-30T14:54:01-04:00",
			"created": "2012-02-25T06:14:51-05:00"
		}
	]
}