{
	"greeting": "Greetings from The On-Line Encyclopedia of Integer Sequences! http://oeis.org/",
	"query": "id:A208880",
	"count": 1,
	"start": 0,
	"results": [
		{
			"number": 208880,
			"data": "1,1,3,30,62,114,202,346,582,966,1590,2602,4242,6898,11198,18158,29422,47650,77146,124874,202102,327062,529254,856410,1385762,2242274,3628142,5870526,9498782,15369426,24868330,40237882,65106342,105344358,170450838,275795338",
			"name": "Number of words either empty or beginning with the first letter of the cyclic n-ary alphabet, where each letter of the alphabet occurs twice and letters of neighboring word positions are equal or neighbors in the alphabet.",
			"comment": [
				"The first and the last letters are considered neighbors in a cyclic alphabet.  The words are not considered cyclic here.",
				"Also the number of (2*n-1)-step walks on n-dimensional cubic lattice from (1,0,...,0) to (2,2,...,2) with positive unit steps in all dimensions such that the indices of dimensions used in consecutive steps differ by less than 2 or are in the set {1,n}."
			],
			"link": [
				"Alois P. Heinz, \u003ca href=\"/A208880/b208880.txt\"\u003eTable of n, a(n) for n = 0..1000\u003c/a\u003e",
				"\u003ca href=\"/index/Rec#order_04\"\u003eIndex entries for linear recurrences with constant coefficients\u003c/a\u003e, signature (3,-2,-1,1)."
			],
			"formula": [
				"G.f.: -(11*x^6-10*x^5-22*x^4+24*x^3+2*x^2-2*x+1)/((x^2+x-1)*(x-1)^2)."
			],
			"example": [
				"a(0) = 1: the empty word.",
				"a(1) = 1 = |{aa}|.",
				"a(2) = 3 = |{aabb, abab, abba}|.",
				"a(3) = 30 = |{aabbcc, aabcbc, aabccb, aacbbc, aacbcb, aaccbb, ababcc, abacbc, abaccb, abbacc, abbcac, abbcca, abcabc, abcacb, abcbac, abcbca, abccab, abccba, acabbc, acabcb, acacbb, acbabc, acbacb, acbbac, acbbca, acbcab, acbcba, accabb, accbab, accbba}|."
			],
			"maple": [
				"a:= n-\u003e `if`(n\u003c3, 1+n*(n-1),",
				"        (\u003c\u003c0|1|0|0\u003e, \u003c0|0|1|0\u003e, \u003c0|0|0|1\u003e, \u003c1|-1|-2|3\u003e\u003e^n.",
				"         \u003c\u003c2, 2, 14, 30\u003e\u003e)[1, 1]):",
				"seq(a(n), n=0..40);"
			],
			"mathematica": [
				"Join[{1,1,3},LinearRecurrence[{3,-2,-1,1},{30,62,114,202},40]] (* _Harvey P. Dale_, Mar 09 2015 *)"
			],
			"xref": [
				"Row n=2 of A208879."
			],
			"keyword": "nonn,walk,easy",
			"offset": "0,3",
			"author": "_Alois P. Heinz_, Mar 02 2012",
			"references": 2,
			"revision": 16,
			"time": "2015-06-13T00:54:11-04:00",
			"created": "2012-03-03T06:34:35-05:00"
		}
	]
}