{
	"greeting": "Greetings from The On-Line Encyclopedia of Integer Sequences! http://oeis.org/",
	"query": "id:A208662",
	"count": 1,
	"start": 0,
	"results": [
		{
			"number": 208662,
			"data": "3,6,15,62,61,209,49,110,173,154,637,572,481,278,1256,1763,691,928,2309,496,1909,3716,6389,2989,13049,1321,11633,5134,9848,3004,17096,11303,2686,18884,6781,4798,11416,29957,3713,44393,25156,48884,24001,56279,30031",
			"name": "Smallest m such that the n-th odd prime is the smallest prime for all decompositions of 2*m into two primes.",
			"comment": [
				"A002373(a(n)) = A065091(n) and A002373(m) != A065091(n) for m \u003c a(n)."
			],
			"link": [
				"Reinhard Zumkeller, \u003ca href=\"/A208662/b208662.txt\"\u003eTable of n, a(n) for n = 1..120\u003c/a\u003e",
				"Eric Weisstein's World of Mathematics, \u003ca href=\"http://mathworld.wolfram.com/GoldbachPartition.html\"\u003eGoldbach Partition\u003c/a\u003e",
				"Wikipedia, \u003ca href=\"http://en.wikipedia.org/wiki/Goldbach%27s_conjecture\"\u003eGoldbach's conjecture\u003c/a\u003e",
				"\u003ca href=\"/index/Go#Goldbach\"\u003eIndex entries for sequences related to Goldbach conjecture\u003c/a\u003e"
			],
			"example": [
				"n=3, a(3)=15: 7 is the 3rd odd prime and the smallest prime in all Goldbach decompositions of 2*15 = 30 = {7+23, 11+19, 13+17}, and 7 doesn't occur as smallest prime in all Goldbach decompositions for even numbers less than 30."
			],
			"program": [
				"(Haskell)",
				"a208662 n = head [m | m \u003c- [1..], let p = a065091 n,",
				"   let q = 2 * m - p, a010051' q == 1,",
				"   all ((== 0) . a010051') $ map (2 * m -) $ take (n - 1) a065091_list]",
				"-- _Reinhard Zumkeller_, Aug 11 2015, Feb 29 2012"
			],
			"xref": [
				"Cf. A002373, A065091, A260485."
			],
			"keyword": "nonn",
			"offset": "1,1",
			"author": "_Reinhard Zumkeller_, Feb 29 2012",
			"references": 3,
			"revision": 14,
			"time": "2015-08-11T16:44:32-04:00",
			"created": "2012-03-01T17:29:15-05:00"
		}
	]
}