{
	"greeting": "Greetings from The On-Line Encyclopedia of Integer Sequences! http://oeis.org/",
	"query": "id:A208210",
	"count": 1,
	"start": 0,
	"results": [
		{
			"number": 208210,
			"data": "1,1,1,2,5,201,2525063,10355298070412763074,8589063344901709900442551790362661608528200120823830773",
			"name": "a(n)=(a(n-1)^2*a(n-2)^3+1)/a(n-3) with a(0)=a(1)=a(2)=1.",
			"comment": [
				"This is the case a=3, b=2, y(0)=y(1)=y(2)=1 of the recurrence shown in the Example 3.2 of \"The Laurent phenomenon\" (see Link lines, p. 10)."
			],
			"link": [
				"Seiichi Manyama, \u003ca href=\"/A208210/b208210.txt\"\u003eTable of n, a(n) for n = 0..10\u003c/a\u003e",
				"Sergey Fomin and Andrei Zelevinsky, \u003ca href=\"https://arxiv.org/abs/math/0104241\"\u003eThe Laurent phenomenon\u003c/a\u003e, arXiv:math/0104241v1 [math.CO] (2001).",
				"Sergey Fomin and Andrei Zelevinsky, \u003ca href=\"https://doi.org/10.1006/aama.2001.0770\"\u003eThe Laurent phenomenon\u003c/a\u003e, Advances in Applied Mathematics 28 (2002), 119-144."
			],
			"formula": [
				"From _Vaclav Kotesovec_, May 20 2015: (Start)",
				"a(n) ~ c1^(d1^n) * c2^(d2^n) * c3^(d3^n), where",
				"d1 = -1.198691243515997113071999692569776193916276872472594369204332359716...",
				"d2 = 0.2864620650316004980582127604312427653427138786836169481458128553091...",
				"d3 = 2.9122291784843966150137869321385334285735629937889774210585195044073...",
				"are the roots of the equation d^3 + 1 = 2*d^2 + 3*d and",
				"c1 = 0.9326266928252752296152676800592959458631493222642463226349218269187...",
				"c2 = 0.2535475214701961189033928082745089316567819534655391761010907360554...",
				"c3 = 1.0248087086665041891835364490857429725941144848712661648932932629036...",
				"(End)"
			],
			"maple": [
				"a:=proc(n) if n\u003c3 then return 1: fi: return (a(n-1)^2*a(n-2)^3+1)/a(n-3): end: seq(a(i),i=0..10);"
			],
			"mathematica": [
				"a[0] = a[1] = a[2] = 1; a[n_] := a[n] = (a[n-1]^2*a[n-2]^3 + 1)/a[n-3];",
				"Array[a, 10, 0] (* _Jean-François Alcover_, Dec 14 2017 *)"
			],
			"xref": [
				"Cf. A005246, A208203, A208209, A208211, A208214."
			],
			"keyword": "nonn",
			"offset": "0,4",
			"author": "_Matthew C. Russell_, Apr 23 2012",
			"references": 5,
			"revision": 24,
			"time": "2017-12-14T04:13:07-05:00",
			"created": "2012-04-24T13:31:07-04:00"
		}
	]
}