{
	"greeting": "Greetings from The On-Line Encyclopedia of Integer Sequences! http://oeis.org/",
	"query": "id:A208035",
	"count": 1,
	"start": 0,
	"results": [
		{
			"number": 208035,
			"data": "9,81,289,961,3249,11025,37249,126025,426409,1442401,4879681,16507969,55845729,188925025,639128961,2162157001,7314525625,24744863025,83711270241,283193201281,958035736849,3241011678961,10964263980289",
			"name": "Number of n X 4 0..1 arrays avoiding 0 0 0 and 0 1 0 horizontally and 0 0 0 and 1 0 1 vertically.",
			"comment": [
				"Column 4 of A208039."
			],
			"link": [
				"R. H. Hardin, \u003ca href=\"/A208035/b208035.txt\"\u003eTable of n, a(n) for n = 1..210\u003c/a\u003e"
			],
			"formula": [
				"Empirical: a(n) = 2*a(n-1) + 3*a(n-2) + 6*a(n-3) - a(n-4) - a(n-6) for n\u003e7.",
				"Empirical g.f.: x*(9 + 63*x + 100*x^2 + 86*x^3 - 17*x^4 - 9*x^5 - 16*x^6) / ((1 + x + x^2 - x^3)*(1 - 3*x - x^2 - x^3)). - _Colin Barker_, Jun 27 2018"
			],
			"example": [
				"Some solutions for n=4:",
				"..0..1..1..0....1..0..1..1....0..0..1..1....1..0..0..1....0..1..1..1",
				"..0..1..1..1....0..0..1..1....1..1..1..1....1..1..0..1....0..1..1..1",
				"..1..0..0..1....0..1..1..0....0..1..1..1....0..1..1..0....1..0..0..1",
				"..1..0..0..1....1..1..1..0....0..1..1..0....0..1..1..0....1..0..0..1"
			],
			"xref": [
				"Cf. A208039."
			],
			"keyword": "nonn",
			"offset": "1,1",
			"author": "_R. H. Hardin_, Feb 22 2012",
			"references": 1,
			"revision": 11,
			"time": "2018-06-27T05:50:34-04:00",
			"created": "2012-02-22T19:18:49-05:00"
		}
	]
}