{
	"greeting": "Greetings from The On-Line Encyclopedia of Integer Sequences! http://oeis.org/",
	"query": "id:A209633",
	"count": 1,
	"start": 0,
	"results": [
		{
			"number": 209633,
			"data": "1,2,7,15,33,59,111,182,307,481,757,1134,1713,2483,3611,5117,7238,10029,13888,18900,25682,34442,46057,60934,80428,105159,137137,177495,229069,293694,375582,477499,605526,764060,961603,1204898,1506142,1875150,2329185,2882939",
			"name": "Number of ordered set partitions of the multiset [a,a,1,1,...,1] with two \"a\" and n \"1\".",
			"comment": [
				"For [a,1,1,...1] one gets A093694, number of one-element transitions from the partitions of n to the partitions of n+1 for labeled parts."
			],
			"link": [
				"Alois P. Heinz, \u003ca href=\"/A209633/b209633.txt\"\u003eTable of n, a(n) for n = 0..1000\u003c/a\u003e",
				"Thomas Wieder, \u003ca href=\"/A209633/a209633.pdf\"\u003eMultiselection (2nd approach)\u003c/a\u003e"
			],
			"example": [
				"For n=4 we have the multiset [a,a,1,1,1,1] with the following a(4) = 33 ordered set partitions:",
				"For [4] one gets [[1,1,1,1]], [[1,1,1,a]], [[1,1,a,a]].",
				"For [3,1] one gets [[1,1,1],[1]], [[1,1,1],[a]], [[1,1,a],[1]], [[1,1,a],[a]], [[1,a,a],[1]].",
				"For [2,2] one gets [[1,1],[1,1]], [[1,1],[1,a]], [[1,1],[a,a]], [[1,a],[1,1]], [[1,a],[1,a]], [[a,a],[1,1]].",
				"For [2,1,1] one gets [[1,1],[1],[1]], [[1,1],[1],[a]], [[1,1],[a],[1]], [[1,1],[a],[a]], [[1,a],[1],[1]], [[1,a],[1],[a]], [[1,a],[a],[1]], [[a,a],[1],[1]].",
				"For [1,1,1,1] one gets [[1],[1],[1],[1]], [[1],[1],[1],[a]], [[1],[1],[a],[1]], [[1],[1],[a],[a]], [[1],[a],[1],[1]], [[1],[a],[1],[a]], [[1],[a],[a],[1]], [[a],[1],[1],[1]], [[a],[1],[1],[a]], [[a],[1],[a],[1]], [[a],[a],[1],[1]]."
			],
			"maple": [
				"p:= (f, g)-\u003e zip((x, y)-\u003e x+y, f, g, 0):",
				"b:= proc(n,i) option remember; local f, g;",
				"      if n=0 then [1, 0, [1]]",
				"    elif i\u003c1 then [0, 0, [0]]",
				"    else f:= b(n, i-1); g:= `if`(i\u003en, [0, 0, [0]], b(n-i, i));",
				"         [f[1]+g[1], f[2]+g[2] +`if`(i\u003e1, g[1], 0), p(f[3], [0, g[3][]])]",
				"      fi",
				"    end:",
				"a:= proc(n) local l, ll;",
				"      if n=0 then return 1 fi;",
				"      l:= b(n, n); ll:= l[3];",
				"      l[2] +add(ll[t+1] *(1+t* (1+(t-1)/2)), t=1..nops(ll)-1)",
				"    end:",
				"seq(a(n), n=0..50);  # _Alois P. Heinz_, Mar 11 2012"
			],
			"mathematica": [
				"zip = With[{m = Max[Length[#1], Length[#2]]}, PadRight[#1, m] + PadRight[#2, m]]\u0026; b[n_, i_] := b[n, i] = Module[{f, g}, Which[n == 0, {1, 0, {1}}, i\u003c1, {0, 0, {0}}, True, f = b[n, i-1]; g = If[i\u003en, {0, 0, {0}}, b[n-i, i]]; {f[[1]] + g[[1]], f[[2]] + g[[2]] + If[i\u003e1, g[[1]], 0], zip[f[[3]], Join[{0}, g[[3]]]]}]]; a[n_] := Module[{l, ll}, If[n == 0, Return[1]]; l = b[n, n]; ll = l[[3]]; l[[2]] + Sum[ll[[t+1]]*(1+t*(1+(t-1)/2)), {t, 1, Length[ll]-1}]]; Table[a[n], {n, 0, 50}] (* _Jean-François Alcover_, Feb 13 2017, after _Alois P. Heinz_ *)"
			],
			"xref": [
				"Cf. A093694."
			],
			"keyword": "nonn",
			"offset": "0,2",
			"author": "_Thomas Wieder_, Mar 11 2012",
			"ext": [
				"More terms from _Alois P. Heinz_, Mar 11 2012"
			],
			"references": 1,
			"revision": 35,
			"time": "2017-02-13T14:21:00-05:00",
			"created": "2012-03-12T11:21:54-04:00"
		}
	]
}