{
	"greeting": "Greetings from The On-Line Encyclopedia of Integer Sequences! http://oeis.org/",
	"query": "id:A209814",
	"count": 1,
	"start": 0,
	"results": [
		{
			"number": 209814,
			"data": "7,34,34,173,302,173,930,2721,2721,930,5193,25505,43209,25505,5193,29782,244208,712829,712829,244208,29782,173789,2377378,11912459,20873080,11912459,2377378,173789,1025274,23398105,201392025,617966001,617966001",
			"name": "T(n,k)=Number of (n+1)X(k+1) 0..3 arrays with every 2X2 subblock having two distinct values, and new values 0..3 introduced in row major order",
			"comment": [
				"Table starts",
				".......7........34.........173............930.............5193",
				"......34.......302........2721..........25505...........244208",
				".....173......2721.......43209.........712829.........11912459",
				".....930.....25505......712829.......20873080........617966001",
				"....5193....244208....11912459......617966001......32449786403",
				"...29782...2377378...201392025....18479672376....1723218327331",
				"..173789..23398105..3428713825...555404234236...91909548662623",
				".1025274.231987361.58668627061.16753667272666.4917823780419687"
			],
			"link": [
				"R. H. Hardin, \u003ca href=\"/A209814/b209814.txt\"\u003eTable of n, a(n) for n = 1..144\u003c/a\u003e"
			],
			"example": [
				"Some solutions for n=4 k=3",
				"..0..0..1..1....0..0..0..1....0..1..0..0....0..0..1..0....0..0..0..0",
				"..2..0..0..0....0..1..0..1....1..0..1..0....0..1..1..0....0..1..1..0",
				"..2..0..1..1....1..0..0..0....0..0..1..0....0..0..0..1....1..0..1..0",
				"..2..0..0..0....1..0..1..0....0..1..0..0....1..0..1..1....1..0..0..1",
				"..0..0..1..0....0..0..0..0....1..0..1..0....1..0..0..0....1..0..1..1"
			],
			"keyword": "nonn,tabl",
			"offset": "1,1",
			"author": "_R. H. Hardin_ Mar 13 2012",
			"references": 9,
			"revision": 5,
			"time": "2012-03-31T12:37:30-04:00",
			"created": "2012-03-13T14:15:25-04:00"
		}
	]
}