{
	"greeting": "Greetings from The On-Line Encyclopedia of Integer Sequences! http://oeis.org/",
	"query": "id:A209675",
	"count": 1,
	"start": 0,
	"results": [
		{
			"number": 209675,
			"data": "2,4,2,8,2,4,2,9,2,4,2,8,2,4,2,10,2,4,2,8,2,4,2,9,2,4,2,8,2,4,2,12,2,4,2,8,2,4,2,9,2,4,2,8,2,4,2,10,2,4,2,8,2,4,2,9,2,4,2,8,2,4,2,16,2,4,2,8,2,4,2,9,2,4,2,8,2,4,2,10,2,4,2,8,2",
			"name": "Radon function at even positions: a(n) = A003484(2*n).",
			"comment": [
				"a(n) \u003e 1;",
				"a(A005408(n))=2; a(A016825(n))=4; a(A017113(n))=8; a(A051062(n))=9."
			],
			"link": [
				"Reinhard Zumkeller, \u003ca href=\"/A209675/b209675.txt\"\u003eTable of n, a(n) for n = 1..10000\u003c/a\u003e"
			],
			"formula": [
				"a(n) = A053381(n-1) + 1."
			],
			"program": [
				"(Haskell)",
				"a209675 = a003484 . (* 2)"
			],
			"xref": [
				"Cf. A003485."
			],
			"keyword": "nonn",
			"offset": "1,1",
			"author": "_Reinhard Zumkeller_, Mar 11 2012",
			"references": 6,
			"revision": 10,
			"time": "2013-07-13T12:04:24-04:00",
			"created": "2012-03-12T17:58:30-04:00"
		}
	]
}