{
	"greeting": "Greetings from The On-Line Encyclopedia of Integer Sequences! http://oeis.org/",
	"query": "id:A209106",
	"count": 1,
	"start": 0,
	"results": [
		{
			"number": 209106,
			"data": "365,254496,125526240,57113932788,25586970618660,11437585318270860,5112092569118325704,2285013663964828552960,1021387683873603848380972,456557468966590708568722520,204080223921705625484844604564",
			"name": "Number of 7Xn 0..2 arrays with new values 0..2 introduced in row major order and no element equal to more than one of its immediate leftward or upward or right-upward antidiagonal neighbors",
			"comment": [
				"Row 7 of A209100"
			],
			"link": [
				"R. H. Hardin, \u003ca href=\"/A209106/b209106.txt\"\u003eTable of n, a(n) for n = 1..158\u003c/a\u003e"
			],
			"example": [
				"Some solutions for n=4",
				"..0..1..0..2....0..1..0..2....0..0..0..0....0..0..0..1....0..0..0..1",
				"..1..2..0..1....2..2..0..1....1..1..1..1....1..2..2..1....2..1..2..2",
				"..1..0..1..2....0..1..2..1....2..2..0..1....2..0..1..2....0..2..0..0",
				"..0..1..2..0....2..1..0..1....0..2..1..0....2..1..2..0....2..0..1..1",
				"..0..2..0..1....1..2..2..2....1..2..0..1....1..2..0..1....2..1..2..1",
				"..0..1..2..0....1..0..0..0....2..0..1..0....1..2..0..2....2..1..0..2",
				"..1..2..0..1....0..1..2..1....0..1..2..0....2..0..1..2....1..2..1..2"
			],
			"keyword": "nonn",
			"offset": "1,1",
			"author": "_R. H. Hardin_ Mar 05 2012",
			"references": 1,
			"revision": 5,
			"time": "2012-03-31T12:37:28-04:00",
			"created": "2012-03-05T07:15:56-05:00"
		}
	]
}