{
	"greeting": "Greetings from The On-Line Encyclopedia of Integer Sequences! http://oeis.org/",
	"query": "id:A209375",
	"count": 1,
	"start": 0,
	"results": [
		{
			"number": 209375,
			"data": "4,17,64,512,2176,52784,242176,22205984,103942144,39954751040,183158185984,304199179800704,1345426301157376,9591893861120254208,41024530124682428416,1232880451618561434845696",
			"name": "1/4 the number of (n+1)X(n+1) 0..2 arrays with every 2X2 subblock having distinct edge sums",
			"comment": [
				"Diagonal of A209382"
			],
			"link": [
				"R. H. Hardin, \u003ca href=\"/A209375/b209375.txt\"\u003eTable of n, a(n) for n = 1..17\u003c/a\u003e"
			],
			"example": [
				"Some solutions for n=4",
				"..2..0..0..0..2....1..2..1..2..2....0..0..1..0..1....0..2..2..1..2",
				"..2..1..2..1..2....0..2..0..0..1....1..2..2..0..2....0..1..0..0..2",
				"..2..0..2..0..2....1..2..1..2..2....0..0..1..0..1....2..2..2..1..2",
				"..1..0..1..0..1....0..2..0..0..1....1..2..2..2..2....0..1..0..0..2",
				"..2..2..2..2..2....1..2..1..2..2....0..0..1..0..1....2..2..2..1..2"
			],
			"keyword": "nonn",
			"offset": "1,1",
			"author": "_R. H. Hardin_ Mar 07 2012",
			"references": 1,
			"revision": 6,
			"time": "2012-03-31T12:37:28-04:00",
			"created": "2012-03-07T05:28:27-05:00"
		}
	]
}