{
	"greeting": "Greetings from The On-Line Encyclopedia of Integer Sequences! http://oeis.org/",
	"query": "id:A209067",
	"count": 1,
	"start": 0,
	"results": [
		{
			"number": 209067,
			"data": "1,3,6,22,70,265,1007,4055,16593,69429,294509,1265692,5494398,24065829,106207739,471840078,2108406146,9470071142,42731427358,193612759011,880517540867",
			"name": "Number of n-bead necklaces labeled with numbers -2..2 not allowing reversal, with sum zero and avoiding the pattern z z+1 z+2.",
			"comment": [
				"Column 2 of A209073."
			],
			"example": [
				"Some solutions for n=6:",
				".-2...-2...-2...-2...-2...-2...-1...-2...-2...-2...-2...-2...-2...-2...-2...-1",
				"..1...-1....2....1...-1....1...-1...-1....2....0....1....1....0...-2...-1...-1",
				"..2....1....0....0...-1....0....1...-2...-1...-1....1...-1....0...-2....2....0",
				"..0....1...-1....1....2....2...-1....1....2....1....0....1....1....2...-1....0",
				"..0...-1....2...-2....1....0....0....2....0....0...-2....1....1....2....0....0",
				".-1....2...-1....2....1...-1....2....2...-1....2....2....0....0....2....2....2"
			],
			"keyword": "nonn",
			"offset": "1,2",
			"author": "_R. H. Hardin_, Mar 04 2012",
			"references": 0,
			"revision": 6,
			"time": "2017-03-13T00:01:33-04:00",
			"created": "2012-03-04T18:47:18-05:00"
		}
	]
}