{
	"greeting": "Greetings from The On-Line Encyclopedia of Integer Sequences! http://oeis.org/",
	"query": "id:A209625",
	"count": 1,
	"start": 0,
	"results": [
		{
			"number": 209625,
			"data": "1,2,6,24,114,600,3372,19824,120422,749848,4760228,30688560,200338740,1321408656,8791205496,58912586784,397228820742,2692522813848,18333530047428,125325068538672,859639878194844",
			"name": "G.f. A(x) satisfies A(A(x)-2*A(x)^2)=x/(1-2*x)",
			"formula": [
				"a(n)=T(n,1), T(n,m)=1/2*(binomial(n-1,m-1)*2^(n-m)-(sum(k=m+1..n-1, T(k,m)*sum(i=k..n, T(n,i)*binomial(k,i-k)*(-2)^(i-k)))+sum(i=m+1,n, T(n,i)*binomial(m,i-m)*(-2)^(i-m)))), T(n,n)=1."
			],
			"program": [
				"(Maxima)",
				"T(n,m):=if n=m then 1 else 1/2*(binomial(n-1,m-1)*2^(n-m)-(sum(T(k,m)*sum(T(n,i)*binomial(k,i-k)*(-2)^(i-k),i,k,n),k,m+1,n-1)+sum(T(n,i)*binomial(m,i-m)*(-2)^(i-m),i,m+1,n)));",
				"makelist(T(n,1),n,1,7);"
			],
			"keyword": "nonn",
			"offset": "1,2",
			"author": "_Vladimir Kruchinin_, Mar 11 2012",
			"references": 0,
			"revision": 6,
			"time": "2012-03-31T10:23:15-04:00",
			"created": "2012-03-12T11:59:17-04:00"
		}
	]
}