{
	"greeting": "Greetings from The On-Line Encyclopedia of Integer Sequences! http://oeis.org/",
	"query": "id:A209270",
	"count": 1,
	"start": 0,
	"results": [
		{
			"number": 209270,
			"data": "2,1,1,2,2,4,6,8,4,6,38,10,14,16,6,2,12,24,100,36,74,46,44,52,18,8,46,114,20,70,6,38,190,44,76,14,118,218,34,14,82,32,28,110,76,126,230,46,578,138,192,306,424,38,148,468,218,210,174,300,244,60,744,482",
			"name": "Duplicate of A083698.",
			"keyword": "dead",
			"offset": "1,1",
			"references": 1,
			"revision": 22,
			"time": "2019-12-30T08:58:46-05:00",
			"created": "2013-01-22T18:32:15-05:00"
		}
	]
}