{
	"greeting": "Greetings from The On-Line Encyclopedia of Integer Sequences! http://oeis.org/",
	"query": "id:A209188",
	"count": 1,
	"start": 0,
	"results": [
		{
			"number": 209188,
			"data": "5,11,19,29,41,5,71,89,109,131,5,181,11,239,271,5,11,379,419,461,5,19,599,11,701,5,811,11,929,991,5,19,29,1259,11,5,1481,1559,11,1721,5,31,1979,2069,2161,5,2351,31,2549",
			"name": "Smallest prime factor of n^2 + n - 1.",
			"link": [
				"Vincenzo Librandi, \u003ca href=\"/A209188/b209188.txt\"\u003eTable of n, a(n) for n = 2..1000\u003c/a\u003e",
				"PrimeFan, \u003ca href=\"http://primefan.tripod.com/EsotericIntegerSequences.html\"\u003eListing of Esoteric Integer Sequences\u003c/a\u003e"
			],
			"mathematica": [
				"SPF[n_] := (FactorInteger[n])[[1]][[1]]; Flatten[Table[SPF[n^2 + (n - 1)], {n, 2, 50}]]",
				"Table[FactorInteger[n^2+n-1][[1,1]],{n,2,50}] (* _Harvey P. Dale_, Aug 20 2014 *)"
			],
			"program": [
				"(MAGMA) [Min(PrimeFactors(n^2+n-1)):n in[2..70]];// _Vincenzo Librandi_, Sep 18 2016",
				"(PARI) a(n) = vecmin(factor(n^2+n-1)[,1]); \\\\ _Michel Marcus_, Sep 18 2016"
			],
			"xref": [
				"Cf. A071182."
			],
			"keyword": "nonn",
			"offset": "2,1",
			"author": "_N. J. A. Sloane_, Mar 05 2012",
			"references": 1,
			"revision": 15,
			"time": "2016-09-18T14:10:10-04:00",
			"created": "2012-03-05T18:28:29-05:00"
		}
	]
}