{
	"greeting": "Greetings from The On-Line Encyclopedia of Integer Sequences! http://oeis.org/",
	"query": "id:A209164",
	"count": 1,
	"start": 0,
	"results": [
		{
			"number": 209164,
			"data": "1,2,1,5,5,1,11,15,6,1,23,41,27,9,1,47,105,95,45,10,1,95,257,295,185,65,13,1,191,609,847,665,315,91,14,1,383,1409,2303,2177,1295,497,119,17,1,767,3201,6015,6657,4767,2289,735,153,18,1,1535,7169,15231",
			"name": "Triangle of coefficients of polynomials u(n,x) jointly generated with A209165; see the Formula section.",
			"comment": [
				"Alternating row sums: 1,1,1,1,1,1,1,1,1,1,1,1,1,1,...",
				"For a discussion and guide to related arrays, see A208510."
			],
			"formula": [
				"u(n,x)=u(n-1,x)+(x+1)*v(n-1,x),",
				"v(n,x)=(x+1)*u(n-1,x)+v(n-1,x)+1,",
				"where u(1,x)=1, v(1,x)=1."
			],
			"example": [
				"First five rows:",
				"1",
				"2....1",
				"5....5....1",
				"11...15...6....1",
				"23...41...27...9...1",
				"First three polynomials v(n,x): 1, 2 + x, 5 + 5x + x^2."
			],
			"mathematica": [
				"u[1, x_] := 1; v[1, x_] := 1; z = 16;",
				"u[n_, x_] := u[n - 1, x] + (x + 1)*v[n - 1, x];",
				"v[n_, x_] := (x + 1)*u[n - 1, x] + v[n - 1, x] + 1;",
				"Table[Expand[u[n, x]], {n, 1, z/2}]",
				"Table[Expand[v[n, x]], {n, 1, z/2}]",
				"cu = Table[CoefficientList[u[n, x], x], {n, 1, z}];",
				"TableForm[cu]",
				"Flatten[%]    (* A209164 *)",
				"Table[Expand[v[n, x]], {n, 1, z}]",
				"cv = Table[CoefficientList[v[n, x], x], {n, 1, z}];",
				"TableForm[cv]",
				"Flatten[%]    (* A209165 *)"
			],
			"xref": [
				"Cf. A209165, A208510."
			],
			"keyword": "nonn,tabl",
			"offset": "1,2",
			"author": "_Clark Kimberling_, Mar 08 2012",
			"references": 3,
			"revision": 5,
			"time": "2012-03-30T18:58:15-04:00",
			"created": "2012-03-08T19:40:32-05:00"
		}
	]
}