{
	"greeting": "Greetings from The On-Line Encyclopedia of Integer Sequences! http://oeis.org/",
	"query": "id:A210064",
	"count": 1,
	"start": 0,
	"results": [
		{
			"number": 210064,
			"data": "0,0,1,11,81,500,2794,14649,73489,356960,1691790,7864950,36000186,162697176,727505972,3223913365,14176874193,61926666824,268931341414,1161913686618,4997204887550,21404922261112,91351116184716,388581750349946,1647982988377786",
			"name": "Total number of 231 patterns in the set of permutations avoiding 123.",
			"comment": [
				"a(n) is the total number of 231 (and also 312) patterns in the set of all 123 avoiding n-permutations. Also the number of 231 (or 213, or 312) patterns in the set of all 132 avoiding n-permutations."
			],
			"link": [
				"G. C. Greubel, \u003ca href=\"/A210064/b210064.txt\"\u003eTable of n, a(n) for n = 1..1000\u003c/a\u003e",
				"Cheyne Homberger, \u003ca href=\"http://www.combinatorics.org/ojs/index.php/eljc/article/view/v19i3p43\"\u003eExpected patterns in permutation classes\u003c/a\u003e, Electronic Journal of Combinatorics, 19(3) (2012), P43."
			],
			"formula": [
				"G.f.: x/(2*(1-4*x)^2) + (x-1)/(2*(1-4*x)^(3/2)) + 1/(2 - 8*x).",
				"a(n) ~ n * 2^(2*n-3) * (1 - 6/sqrt(Pi*n)). - _Vaclav Kotesovec_, Mar 15 2014",
				"Conjecture: n*(n-3)*a(n) +2*(-4*n^2+11*n-2)*a(n-1) +8*(n-1)*(2*n-3)*a(n-2)=0. - _R. J. Mathar_, Oct 08 2016"
			],
			"example": [
				"a(3) = 1 since there is only one 231 pattern in the set {132,213,231,312,321}."
			],
			"mathematica": [
				"Rest[CoefficientList[Series[x/(2*(1-4*x)^2) + (x-1)/(2*(1-4*x)^(3/2)) + 1/(2 - 8*x), {x, 0, 20}], x]] (* _Vaclav Kotesovec_, Mar 15 2014 *)"
			],
			"program": [
				"(PARI) x='x+O('x^50); concat([0,0], Vec(x/(2*(1-4*x)^2) + (x-1)/(2*(1-4*x)^(3/2)) + 1/(2 - 8*x))) \\\\ _G. C. Greubel_, May 31 2017"
			],
			"xref": [
				"Cf. A045720."
			],
			"keyword": "nonn",
			"offset": "1,4",
			"author": "_Cheyne Homberger_, Mar 16 2012",
			"references": 1,
			"revision": 26,
			"time": "2017-05-31T23:01:15-04:00",
			"created": "2012-03-18T23:47:42-04:00"
		}
	]
}