{
	"greeting": "Greetings from The On-Line Encyclopedia of Integer Sequences! http://oeis.org/",
	"query": "id:A210270",
	"count": 1,
	"start": 0,
	"results": [
		{
			"number": 210270,
			"data": "273,5558,113248,2307956,47036870,958632858,19537398722,398181683100,8115136633050,165390438528106,3370737726383882,68697277333917074,1400083986498649180,28534393870466854178,581544851172163483038",
			"name": "Half the number of (n+1)X3 0..2 arrays with every 2X2 subblock having two or three distinct clockwise edge differences",
			"comment": [
				"Column 2 of A210276"
			],
			"link": [
				"R. H. Hardin, \u003ca href=\"/A210270/b210270.txt\"\u003eTable of n, a(n) for n = 1..210\u003c/a\u003e"
			],
			"formula": [
				"Empirical: a(n) = 20*a(n-1) +26*a(n-2) -364*a(n-3) -218*a(n-4) +1203*a(n-5) -418*a(n-6) -394*a(n-7) +216*a(n-8) -20*a(n-9)"
			],
			"example": [
				"Some solutions for n=4",
				"..2..0..1....1..0..2....0..0..2....0..0..2....1..2..1....1..1..2....0..0..2",
				"..2..0..2....0..1..1....0..1..1....0..1..1....1..1..1....1..2..2....1..0..1",
				"..1..0..2....0..0..2....1..2..0....0..1..2....1..0..1....1..1..1....2..0..2",
				"..1..2..2....1..0..0....1..2..2....0..0..1....2..1..2....0..1..2....0..2..2",
				"..2..2..1....2..0..1....0..0..1....0..2..2....0..1..2....2..1..2....2..0..2"
			],
			"keyword": "nonn",
			"offset": "1,1",
			"author": "_R. H. Hardin_ Mar 19 2012",
			"references": 1,
			"revision": 5,
			"time": "2012-03-31T12:37:32-04:00",
			"created": "2012-03-19T20:23:15-04:00"
		}
	]
}