{
	"greeting": "Greetings from The On-Line Encyclopedia of Integer Sequences! http://oeis.org/",
	"query": "id:A210687",
	"count": 1,
	"start": 0,
	"results": [
		{
			"number": 210687,
			"data": "16,104,303,653,1196,1978,3032,4410,6148,8292,10875,13955,17556,21730,26522,31966,38104,44988,52645,61133,70482,80738,91940,104140,117368,131670,147091,163671,181446,200474,220776,242410,265412,289822,315685,343047,371938",
			"name": "The number of triangles in an equipotential triangle divided by medians into n rows of smaller triangles.",
			"comment": [
				"In the equipotential triangle with the medians carried out from vertices, it is possible to find 16 triangles of a different form, size and orientation. Adding to the original triangle 3 triangles equivalent to it (with medians carried out vertices) we can construct a second row of triangles. In the resulting triangle, you can count 104 triangles of different form, size and orientation.",
				"Quasipolynomial of order 30. - _Charles R Greathouse IV_, Aug 04 2013"
			],
			"link": [
				"Lev Volkov, \u003ca href=\"/A210687/b210687.txt\"\u003eTable of n, a(n) for n = 1..10000\u003c/a\u003e",
				"MathPuzzle, \u003ca href=\"http://www.mathpuzzle.com/bdalytriangles.html\"\u003eBill Daly\u003c/a\u003e",
				"\u003ca href=\"/index/Rec#order_13\"\u003eIndex entries for linear recurrences with constant coefficients\u003c/a\u003e, signature (1,0,1,0,0,-1,-1,0,0,1,0,1,-1)."
			],
			"formula": [
				"a(n) = (1678*n^3+3117*n^2+88*n-345*Mod[n,2]-320*Mod[n,3]-90*Mod[n,4]-288*Mod[n^3-n^2+n,5])/240. (Bill Daly)",
				"G.f.: x*(2*x^11 +6*x^10 +68*x^9 +167*x^8 +302*x^7 +417*x^6 +479*x^5 +439*x^4 +334*x^3 +199*x^2 +88*x +16) / ((x -1)^4*(x +1)*(x^2 +1)*(x^2 +x +1)*(x^4 +x^3 +x^2 +x +1)). - _Colin Barker_, Sep 06 2014"
			],
			"mathematica": [
				"a[n_] := (1678*n^3 + 3117*n^2 + 88*n - 345*Mod[n, 2] - 320*Mod[n, 3] - 90*Mod[n, 4] - 288*Mod[n^3 - n^2 + n, 5])/240; Table[a[n], {n, 20}]",
				"LinearRecurrence[{1,0,1,0,0,-1,-1,0,0,1,0,1,-1},{16,104,303,653,1196,1978,3032,4410,6148,8292,10875,13955,17556},40] (* _Harvey P. Dale_, Dec 08 2019 *)"
			],
			"program": [
				"(PARI) a(n)=(1678*n^3+3117*n^2+88*n-n%2*345-n%3*320-n%4*90-(n^3-n^2+n)%5*288)/240 \\\\ _Charles R Greathouse IV_, Aug 04 2013"
			],
			"keyword": "nonn,easy",
			"offset": "1,1",
			"author": "_Lev Volkov_, Mar 28 2012",
			"ext": [
				"Offset corrected by _Andrew Howroyd_, Jan 17 2018"
			],
			"references": 1,
			"revision": 44,
			"time": "2019-12-08T15:43:28-05:00",
			"created": "2012-04-01T15:03:14-04:00"
		}
	]
}