{
	"greeting": "Greetings from The On-Line Encyclopedia of Integer Sequences! http://oeis.org/",
	"query": "id:A210716",
	"count": 1,
	"start": 0,
	"results": [
		{
			"number": 210716,
			"data": "0,0,0,0,0,0,0,0,0,0,0,0,1,1,1,1,1,1,2,2,3,3,4,4,6,6,8,9,12,12,17,17,27,24,66,32,472,44,8172,60,191325,80,4856015,107,127937980,143,3482858430,188,98176518479,248",
			"name": "Number of disconnected regular simple graphs on n vertices with girth exactly 6.",
			"link": [
				"Jason Kimberley, \u003ca href=\"/wiki/User:Jason_Kimberley/D_k-reg_girth_eq_g_index\"\u003eIndex of sequences counting disconnected k-regular simple graphs with girth exactly g\u003c/a\u003e"
			],
			"formula": [
				"a(n) = A185216(n) - A185217(n)."
			],
			"keyword": "nonn,more,hard",
			"offset": "0,19",
			"author": "_Jason Kimberley_, Dec 10 2012",
			"references": 1,
			"revision": 4,
			"time": "2012-12-12T11:25:32-05:00",
			"created": "2012-12-12T11:25:32-05:00"
		}
	]
}