{
	"greeting": "Greetings from The On-Line Encyclopedia of Integer Sequences! http://oeis.org/",
	"query": "id:A210050",
	"count": 1,
	"start": 0,
	"results": [
		{
			"number": 210050,
			"data": "14443,1020363,78792305,6356262535,518401340537,42412428208163,3466529466974219,282766248564198397,23013137181473996275,1868986625137379906677,151505136803711170945819",
			"name": "Number of (n+1)X7 0..2 arrays containing all values 0..2 with every 2X2 subblock having two distinct values, and new values 0..2 introduced in row major order",
			"comment": [
				"Column 6 of A210052"
			],
			"link": [
				"R. H. Hardin, \u003ca href=\"/A210050/b210050.txt\"\u003eTable of n, a(n) for n = 1..210\u003c/a\u003e"
			],
			"example": [
				"Some solutions for n=4",
				"..0..0..0..1..2..1..0....0..1..1..0..1..0..0....0..0..1..2..0..2..1",
				"..2..2..0..1..1..1..0....0..1..0..0..1..0..1....0..1..1..2..0..2..1",
				"..2..0..0..1..2..1..0....0..1..1..0..0..1..0....0..0..1..2..2..2..1",
				"..2..2..0..1..1..1..1....0..0..0..1..0..1..0....1..1..1..2..0..2..1",
				"..1..2..0..1..2..1..2....0..2..0..0..1..0..0....1..2..1..2..0..2..1"
			],
			"keyword": "nonn",
			"offset": "1,1",
			"author": "_R. H. Hardin_ Mar 16 2012",
			"references": 1,
			"revision": 5,
			"time": "2012-03-31T12:37:31-04:00",
			"created": "2012-03-16T18:43:06-04:00"
		}
	]
}