{
	"greeting": "Greetings from The On-Line Encyclopedia of Integer Sequences! http://oeis.org/",
	"query": "id:A210460",
	"count": 1,
	"start": 0,
	"results": [
		{
			"number": 210460,
			"data": "1,2,4,10,23,53,123,285,660,1529,3542,8205,19007,44030,101996,236275,547334,1267906,2937120,6803875,15761261,36511157,84578549,195927260,453867933,1051390708,2435559643,5642004185,13069772820,30276291184",
			"name": "Expansion of x*(1+x)/(1-x-2*x^2-2*x^3-x^4).",
			"comment": [
				"Transform of Fibonacci numbers based on the triangle A030528."
			],
			"link": [
				"\u003ca href=\"/index/Rec#order_04\"\u003eIndex entries for linear recurrences with constant coefficients\u003c/a\u003e, signature (1,2,2,1)."
			],
			"formula": [
				"a(n) = sum(Fibonacci(k)*binomial(k,n-k), k=floor((n-1)/2)+1..n).",
				"G.f.: x*(1+x)/(1-x-2*x^2-2*x^3-x^4).",
				"a(n) = A123392(n-1)+A123392(n-2). [_Bruno Berselli_, Jan 23 2013]"
			],
			"mathematica": [
				"CoefficientList[Series[(1 + x)/(1 - x - 2 x^2 - 2 x^3 - x^4), {x, 0, 30}], x] (* _Bruno Berselli_, Jan 23 2013 *)",
				"LinearRecurrence[{1,2,2,1},{1,2,4,10},30] (* _Harvey P. Dale_, Mar 28 2015 *)"
			],
			"program": [
				"(MAGMA) [\u0026+[Fibonacci(k)*Binomial(k,n-k): k in [Floor((n-1)/2)+1..n]]: n in [1..30]]; // _Bruno Berselli_, Jan 23 2013"
			],
			"xref": [
				"Cf. A000045, A030528, A123392."
			],
			"keyword": "nonn,easy",
			"offset": "1,2",
			"author": "_Perminova Maria_, Jan 22 2013",
			"references": 0,
			"revision": 17,
			"time": "2015-06-13T00:54:12-04:00",
			"created": "2013-01-23T11:18:51-05:00"
		}
	]
}