{
	"greeting": "Greetings from The On-Line Encyclopedia of Integer Sequences! http://oeis.org/",
	"query": "id:A210531",
	"count": 1,
	"start": 0,
	"results": [
		{
			"number": 210531,
			"data": "1,1,1,2,2,1,2,4,2,2,2,3,2,2,4,5,4,2,3,7,5,1,2,7,4,2,7,5,6,1,5,9,4,4,6,9,9,2,5,12,9,3,5,6,8,5,6,13,4,2,8,6,11,6,11,14,8,2,4,7,4,5,7,29,8,3,5,8,11,4,13,16,13,2,7,12,13,6,10,16,10,6,15,9,13,3,9,20,11,8,11,20,9,2,8,22,14,6,15,15",
			"name": "Number of nonnegative integers k\u003cn with n+k^3 practical.",
			"comment": [
				"Conjecture: a(n)\u003e0 for all n\u003e0. Moreover, if n\u003e0 is different from 74, 138, 166, 542, then n+k^3 is practical for some 0\u003c=k\u003c=sqrt(n)*log(n); if n is not equal to 102, then n+k and n+k^3 are both practical for some k=0,...,n-1.",
				"Zhi-Wei Sun also conjectured that any integer n\u003e1 can be written as x^3+y (x,y\u003e0) with 2x and 4xy both practical."
			],
			"link": [
				"Zhi-Wei Sun, \u003ca href=\"/A210531/b210531.txt\"\u003eTable of n, a(n) for n = 1..5000\u003c/a\u003e",
				"G. Melfi, \u003ca href=\"http://dx.doi.org/10.1006/jnth.1996.0012\"\u003eOn two conjectures about practical numbers\u003c/a\u003e, J. Number Theory 56 (1996) 205-210 [\u003ca href=\"http://www.ams.org/mathscinet-getitem?mr=1370203\"\u003eMR96i:11106\u003c/a\u003e].",
				"Zhi-Wei Sun, \u003ca href=\"http://arxiv.org/abs/1211.1588\"\u003eConjectures involving primes and quadratic forms\u003c/a\u003e, arXiv:1211.1588 [math.NT], 2012-2017."
			],
			"example": [
				"a(22)=1 since 22+2^3=30 is practical."
			],
			"mathematica": [
				"f[n_]:=f[n]=FactorInteger[n]",
				"Pow[n_, i_]:=Pow[n, i]=Part[Part[f[n], i], 1]^(Part[Part[f[n], i], 2])",
				"Con[n_]:=Con[n]=Sum[If[Part[Part[f[n], s+1], 1]\u003c=DivisorSigma[1, Product[Pow[n, i], {i, 1, s}]]+1, 0, 1], {s, 1, Length[f[n]]-1}]",
				"pr[n_]:=pr[n]=n\u003e0\u0026\u0026(n\u003c3||Mod[n, 2]+Con[n]==0)",
				"a[n_]:=a[n]=Sum[If[pr[n+k^3]==True,1,0],{k,0,n-1}]",
				"Do[Print[n,\" \",a[n]],{n,1,100}]"
			],
			"xref": [
				"Cf. A005153, A185636, A208243, A208244, A208246, A208249, A209236, A209253, A209254, A209312, A209315, A209320, A210528."
			],
			"keyword": "nonn",
			"offset": "1,4",
			"author": "_Zhi-Wei Sun_, Jan 28 2013",
			"references": 5,
			"revision": 14,
			"time": "2018-12-05T06:13:34-05:00",
			"created": "2013-01-28T10:18:57-05:00"
		}
	]
}