{
	"greeting": "Greetings from The On-Line Encyclopedia of Integer Sequences! http://oeis.org/",
	"query": "id:A211379",
	"count": 1,
	"start": 0,
	"results": [
		{
			"number": 211379,
			"data": "0,0,0,3,7,16,27,45,66,96,130,175,225,288,357,441,532,640,756,891,1035,1200,1375,1573,1782,2016,2262,2535,2821,3136,3465,3825,4200,4608,5032,5491,5967,6480,7011,7581,8170,8800,9450,10143,10857,11616,12397,13225",
			"name": "Number of pairs of parallel diagonals in a regular n-gon.",
			"link": [
				"Eric Weisstein, \u003ca href=\"http://mathworld.wolfram.com/RegularPolygonDivisionbyDiagonals.html\"\u003eRegular Polygon Division by Diagonals\u003c/a\u003e (MathWorld).",
				"\u003ca href=\"/index/Rec#order_06\"\u003eIndex entries for linear recurrences with constant coefficients\u003c/a\u003e, signature (2,1,-4,1,2,-1)."
			],
			"formula": [
				"a(n) = 1/2*n*(binomial(1/2*(n-2),2)+binomial(1/2*(n-4),2)) = 1/8*n*(n-4)^2 for n even;",
				"a(n) = n*binomial(1/2*(n-3),2) = 1/8*n*(n-3)*(n-5) for n odd.",
				"G.f.: -x^6*(x^2-x-3) / ((x-1)^4*(x+1)^2). [_Colin Barker_, Feb 14 2013]"
			],
			"example": [
				"a(6) = 3 since by numbering the vertices from 1 to 6 there are three pairs of parallel diagonals, i. e. {[1, 3], [4, 6]}, {[1, 5], [2, 4]}, {[2, 6], [3, 5]}.",
				"a(7) = 7 since there are the seven pairs {[1, 3], [4, 7]}, {[1, 4], [5, 7]}, {[1, 5], [2, 4]}, {[1, 6], [2, 5]}, {[2, 6], [3, 5]}, {[2, 7], [3, 6]}, {[3, 7], [4, 6]}.",
				"a(8) = 16 since there are the sixteen pairs {[1, 3], [4, 8]}, {[1, 3], [5, 7]}, {[1, 4], [5, 8]}, {[1, 5], [2, 4]}, {[1, 5], [6, 8]}, {[1, 6], [2, 5]}, {[1, 7], [2, 6]}, {[1, 7], [3, 5]}, {[2, 4], [6, 8]}, {[2, 6], [3, 5]}, {[2, 7], [3, 6]}, {[2, 8], [3, 7]}, {[2, 8], [4, 6]}, {[3, 7], [4, 6]}, {[3, 8], [4, 7]}, {[4, 8], [5, 7]}."
			],
			"maple": [
				"a:=n-\u003epiecewise(n mod 2 = 0,1/8*n*(n-4)^2,n mod 2 = 1, 1/8*n*(n-3)*(n-5),0);"
			],
			"xref": [
				"Cf. A000096."
			],
			"keyword": "nonn,easy",
			"offset": "3,4",
			"author": "_Martin Renner_, Feb 07 2013",
			"references": 1,
			"revision": 16,
			"time": "2017-06-18T02:26:44-04:00",
			"created": "2013-02-08T17:37:23-05:00"
		}
	]
}