{
	"greeting": "Greetings from The On-Line Encyclopedia of Integer Sequences! http://oeis.org/",
	"query": "id:A211026",
	"count": 1,
	"start": 0,
	"results": [
		{
			"number": 211026,
			"data": "4,6,8,12,16,24,32,46,62,86,114,156,204,272,354,464,596,773,982,1256,1586,2006,2512,3152,3918,4874,6022,7438,9132,11210,13686,16700,20288,24622,29768,35956,43276,52032,62372,74678,89168,106350",
			"name": "Number of segments needed to draw (on the infinite square grid) a diagram of regions and partitions of n.",
			"comment": [
				"On the infinite square grid the diagram of regions of the set of partitions of n is represented by a rectangle with base = n and height = A000041(n). The rectangle contains n shells. Each shell contains regions. Each row of a region is a part. Each part of size k contains k cells. The number of regions equals the number of partitions of n (see illustrations in the links section). For a minimalist version see A139582. For the definition of \"region of n\" see A206437."
			],
			"link": [
				"Omar E. Pol, \u003ca href=\"http://www.polprimos.com/imagenespub/polpa405.jpg\"\u003eIllustration of initial terms of A211026 and of A066186\u003c/a\u003e",
				"Omar E. Pol, \u003ca href=\"http://www.polprimos.com/imagenespub/polpar02.jpg\"\u003eIllustration of the seven regions of 5\u003c/a\u003e"
			],
			"formula": [
				"a(n) = 2*A000041(n) + 2 = 2*A052810(n) = A139582(n) + 2."
			],
			"xref": [
				"Cf. A000041, A052810, A135010, A139582, A141285, A186412, A186114, A187219, A193870, A194446, A194447, A206437, A211009"
			],
			"keyword": "nonn",
			"offset": "1,1",
			"author": "_Omar E. Pol_, Oct 29 2012",
			"references": 3,
			"revision": 21,
			"time": "2014-03-11T01:34:20-04:00",
			"created": "2012-12-29T13:20:48-05:00"
		}
	]
}