{
	"greeting": "Greetings from The On-Line Encyclopedia of Integer Sequences! http://oeis.org/",
	"query": "id:A211628",
	"count": 1,
	"start": 0,
	"results": [
		{
			"number": 211628,
			"data": "0,4,30,105,249,487,846,1346,2012,2871,3943,5253,6828,8688,10858,13365,16229,19475,23130,27214,31752,36771,42291,48337,54936,62108,69878,78273,87313,97023,107430,118554,130420,143055,156479,170717,185796,201736,218562",
			"name": "Number of ordered triples (w,x,y) with all terms in {-n,...-1,1,...,n} and 3w+x+y\u003e0.",
			"comment": [
				"For a guide to related sequences, see A211422."
			],
			"link": [
				"Colin Barker, \u003ca href=\"/A211628/b211628.txt\"\u003eTable of n, a(n) for n = 0..1000\u003c/a\u003e",
				"\u003ca href=\"/index/Rec#order_06\"\u003eIndex entries for linear recurrences with constant coefficients\u003c/a\u003e, signature (3,-3,2,-3,3,-1)."
			],
			"formula": [
				"a(n) = 3*a(n-1) - 3*a(n-2) + 2*a(n-3) - 3*a(n-4) + 3*a(n-5) - a(n-6) for n\u003e5.",
				"G.f.: x*(4 + 18*x + 27*x^2 + 16*x^3 + 7*x^4) / ((1 - x)^4*(1 + x + x^2)). - _Colin Barker_, Dec 05 2017"
			],
			"mathematica": [
				"t = Compile[{{u, _Integer}},",
				"   Module[{s = 0}, (Do[If[3 w + x + y \u003e 0,",
				"         s = s + 1], {w, #}, {x, #}, {y, #}] \u0026[",
				"      Flatten[{Reverse[-#], #} \u0026[Range[1, u]]]]; s)]];",
				"Map[t[#] \u0026, Range[0, 60]]   (* A211628 *)",
				"FindLinearRecurrence[%]",
				"(* _Peter J. C. Moses_, Apr 13 2012 *)",
				"LinearRecurrence[{3, -3, 2, -3, 3, -1},{0, 4, 30, 105, 249, 487},36] (* _Ray Chandler_, Aug 02 2015 *)"
			],
			"program": [
				"(PARI) concat(0, Vec(x*(4 + 18*x + 27*x^2 + 16*x^3 + 7*x^4) / ((1 - x)^4*(1 + x + x^2)) + O(x^40))) \\\\ _Colin Barker_, Dec 05 2017"
			],
			"xref": [
				"Cf. A211422."
			],
			"keyword": "nonn,easy",
			"offset": "0,2",
			"author": "_Clark Kimberling_, Apr 17 2012",
			"references": 2,
			"revision": 12,
			"time": "2017-12-05T08:22:53-05:00",
			"created": "2012-04-27T16:31:01-04:00"
		}
	]
}