{
	"greeting": "Greetings from The On-Line Encyclopedia of Integer Sequences! http://oeis.org/",
	"query": "id:A211516",
	"count": 1,
	"start": 0,
	"results": [
		{
			"number": 211516,
			"data": "0,0,1,3,3,5,7,9,12,14,16,18,20,24,28,32,34,36,39,43,47,51,55,59,63,67,71,75,79,83,87,91,96,102,108,114,118,122,126,130,134,140,146,152,158,164,170,176,182,186,191,197,203,209,215,221,227,233,239,245",
			"name": "Number of ordered triples (w,x,y) with all terms in {1,...,n} and w^2=x+y.",
			"comment": [
				"For a guide to related sequences, see A211422."
			],
			"formula": [
				"Conjecture: a(n) = -(2*n + 5/3)*w(n) + w(n)^2 + (2/3)*w(n)^3 + (2*n + 5/6)*w(2*n) - (1/2)*w(2*n)^2 - (1/3)*w(2*n)^3, where w = A000196. - _Velin Yanev_, Nov 16 2021"
			],
			"mathematica": [
				"t[n_] := t[n] = Flatten[Table[w^2 - x - y, {w, 1, n}, {x, 1, n}, {y, 1, n}]]",
				"c[n_] := Count[t[n], 0]",
				"t = Table[c[n], {n, 0, 70}]  (* A211516 *)"
			],
			"xref": [
				"Cf. A211422."
			],
			"keyword": "nonn",
			"offset": "0,4",
			"author": "_Clark Kimberling_, Apr 14 2012",
			"references": 2,
			"revision": 7,
			"time": "2021-11-28T13:40:55-05:00",
			"created": "2012-04-21T12:13:55-04:00"
		}
	]
}