{
	"greeting": "Greetings from The On-Line Encyclopedia of Integer Sequences! http://oeis.org/",
	"query": "id:A211174",
	"count": 1,
	"start": 0,
	"results": [
		{
			"number": 211174,
			"data": "1,4,2,5,2,3,2,9,2,1,5,0,1,1,3,5,6,3,9,3,9,0,4,6,2,1,8,8,8,5,1,1,0,8,3,2,8,6,2,0,6,6,0,8,5,8,0,9,7,7,6,1,0,8,8,9,3,7,1,5,4,8,7,4,7,8,3,1,8,7,0,0,1,5,5,5,8,5,3,5,4,3,1,6,2,1,6,2,1,9,4,7,5,4,5,7,5,7,1,5,1,6,4,6,5,5,8,4,8,7,8",
			"name": "Johannes Kepler's polyhedron circumscribing constant.",
			"comment": [
				"The finite solid analogy to the plane polygon circumscribing constant (A051762).",
				"The five Platonic solids are the tetrahedron, the hexahedron or cube, the octahedron, the dodecahedron and the icosahedron.",
				"The geometric interpretation is as follows. Begin with a unit sphere. Circumscribe a tetrahedron and then circumscribe a sphere. Circumscribe a cube and then circumscribe a sphere. Circumscribe an octahedron and then circumscribe a sphere. Circumscribe a dodecahedron and then a sphere. Circumscribe an icosahedron and then a sphere. The constant is the radius of this last sphere. In actuality, it makes no difference the order of the five solids."
			],
			"link": [
				"Rüdiger Appel, \u003ca href=\"http://www.3quarks.com/en/PlatonicSolids/index.html\"\u003e3Quarks: Platonic Solids\u003c/a\u003e (September 2010).",
				"David A. Fontaine, \u003ca href=\"http://davidf.faricy.net/polyhedra/platonic_solids.html\"\u003eThe Five Platonic Solids.\u003c/a\u003e",
				"George W. Hart, Virtual Polyhedra, 1998, \u003ca href=\"http://www.georgehart.com/virtual-polyhedra/kepler.html\"\u003eJohannes Kepler's Polyhedra.\u003c/a\u003e",
				"Omar E. Pol, \u003ca href=\"http://gaussianos.com/circunferencias-concentricas-y-poligonos-regulares-inscritos\"\u003eCircunferencias concéntricas y polígonos regulares inscritos\u003c/a\u003e, gaussianos, Nov 17 2007, 13:17",
				"Wikipedia, \u003ca href=\"http://en.wikipedia.org/wiki/Platonic_solid\"\u003ePlatonic Solids.\u003c/a\u003e",
				"Wikipedia, \u003ca href=\"http://en.wikipedia.org/wiki/Johannes_Kepler\"\u003eJohannes Kepler.\u003c/a\u003e",
				"Wikipedia, \u003ca href=\"http://upload.wikimedia.org/wikipedia/commons/1/19/Kepler-solar-system-1.png\"\u003eKepler solar system.\u003c/a\u003e"
			],
			"formula": [
				"= 9*(15 - 6*sqrt(5))."
			],
			"example": [
				"14.25232921501135639390462188851108328620660858097761088937154874783..."
			],
			"mathematica": [
				"RealDigits[ 9(15 - 6 * Sqrt[5]), 10, 111][[1]]"
			],
			"xref": [
				"Cf. A051762."
			],
			"keyword": "cons,nonn",
			"offset": "2,2",
			"author": "_William H. Richardson_ and _Robert G. Wilson v_, Feb 01 2013",
			"ext": [
				"Offset corrected by _Rick L. Shepherd_, Dec 31 2013"
			],
			"references": 2,
			"revision": 27,
			"time": "2019-10-11T03:03:12-04:00",
			"created": "2013-02-01T16:58:21-05:00"
		}
	]
}