{
	"greeting": "Greetings from The On-Line Encyclopedia of Integer Sequences! http://oeis.org/",
	"query": "id:A211283",
	"count": 1,
	"start": 0,
	"results": [
		{
			"number": 211283,
			"data": "1,3,9,25,70,200,569,1614,4596,13114,37431,106978,306238,877713,2518647,7236947,20820856,59975554,172974739,499480558,1444006498,4179496707,12110820951,35132286213,102025868324,296601381043,863142552053,2514348427139,7331433782002,21397338280852,62506435095245",
			"name": "a(n) = number of n-lettered words in the alphabet {1, 2, 3} with as many occurrences of the substring (consecutive subword) [1, 1, 1] as of [1, 2, 1].",
			"link": [
				"Alois P. Heinz, \u003ca href=\"/A211283/b211283.txt\"\u003eTable of n, a(n) for n = 0..1000\u003c/a\u003e",
				"Shalosh B. Ekhad and Doron Zeilberger, \u003ca href=\"http://arxiv.org/abs/1112.6207\"\u003eAutomatic Solution of Richard Stanley's Amer. Math. Monthly Problem #11610 and ANY Problem of That Type\u003c/a\u003e, arXiv preprint arXiv:1112.6207, 2011. See subpages for rigorous derivations of g.f., recurrence, asymptotics for this sequence."
			],
			"keyword": "nonn",
			"offset": "0,2",
			"author": "_N. J. A. Sloane_, Apr 07 2012",
			"references": 1,
			"revision": 10,
			"time": "2020-09-10T19:29:08-04:00",
			"created": "2012-04-07T16:21:01-04:00"
		}
	]
}