{
	"greeting": "Greetings from The On-Line Encyclopedia of Integer Sequences! http://oeis.org/",
	"query": "id:A211774",
	"count": 1,
	"start": 0,
	"results": [
		{
			"number": 211774,
			"data": "0,0,0,3,12,60,420,3255,28056,270144,2868840,33293205,419329020,5697423732,83069039508,1293734268645,21436030749840,376516868504160,6988441065717744,136675039085498691,2809247116432575420,60543293881318183740,1365186080156105513460",
			"name": "Number of rooted 2-regular labeled graphs on n nodes.",
			"link": [
				"Alois P. Heinz, \u003ca href=\"/A211774/b211774.txt\"\u003eTable of n, a(n) for n = 0..170\u003c/a\u003e"
			],
			"formula": [
				"a(n) = n*A001205(n).",
				"E.g.f.: x*A'(x) where A(x) = exp(-x/2-x^2/4)/sqrt(1-x) is the e.g.f. for A001205.",
				"a(n) ~ sqrt(2) * n^(n+1) / exp(n+3/4). - _Vaclav Kotesovec_, Aug 22 2014"
			],
			"maple": [
				"egf:= x *diff(exp(-x/2-x^2/4)/sqrt(1-x), x):",
				"a:= n-\u003e n! * coeff(series(egf, x, n+1), x, n):",
				"seq(a(n), n=0..30);  # _Alois P. Heinz_, May 18 2012"
			],
			"mathematica": [
				"nn = 20; a = Log[1/(1 - x)]/2 - x/2 - x^2/4; Drop[Range[0, nn]! CoefficientList[Series[x D[Exp[a], x], {x, 0, nn}], x], 3]"
			],
			"keyword": "nonn",
			"offset": "0,4",
			"author": "_Geoffrey Critzer_, May 18 2012",
			"references": 1,
			"revision": 23,
			"time": "2018-03-18T15:45:28-04:00",
			"created": "2012-05-18T18:21:01-04:00"
		}
	]
}