{
	"greeting": "Greetings from The On-Line Encyclopedia of Integer Sequences! http://oeis.org/",
	"query": "id:A211534",
	"count": 1,
	"start": 0,
	"results": [
		{
			"number": 211534,
			"data": "0,0,0,0,0,0,1,1,1,3,3,3,6,6,6,10,10,10,15,15,15,21,21,21,28,28,28,36,36,36,45,45,45,55,55,55,66,66,66,78,78,78,91,91,91,105,105,105,120,120,120,136,136,136,153,153,153,171,171,171,190,190,190,210",
			"name": "Number of ordered triples (w,x,y) with all terms in {1,...,n} and w = 3x + 3y.",
			"comment": [
				"This sequence consists of six 0's followed by triply repeated triangular numbers.",
				"For a guide to related sequences, see A211422."
			],
			"link": [
				"Colin Barker, \u003ca href=\"/A211534/b211534.txt\"\u003eTable of n, a(n) for n = 0..1000\u003c/a\u003e",
				"\u003ca href=\"/index/Rec#order_07\"\u003eIndex entries for linear recurrences with constant coefficients\u003c/a\u003e, signature (1,0,2,-2,0,-1,1)."
			],
			"formula": [
				"a(n) = a(n-1) + 2*a(n-3) - 2*a(n-4) - a(n-6) + a(n-7).",
				"a(n) = floor(n/3)*( floor(n/3) - 1 )/2. - _Luce ETIENNE_, Jul 08 2014",
				"G.f.: -x^6 / ((x-1)^3*(x^2+x+1)^2). - _Colin Barker_, Feb 17 2015",
				"a(n) = Sum_{i=0..n-3} i*0^(i mod 3)/3. - _Wesley Ivan Hurt_, Apr 05 2015"
			],
			"maple": [
				"A211534:=n-\u003efloor(n/3)*(floor(n/3)-1)/2: seq(A211534(n), n=0..100); # _Wesley Ivan Hurt_, Apr 05 2015"
			],
			"mathematica": [
				"t[n_] := t[n] = Flatten[Table[-w + 3 x + 3 y, {w, 1, n}, {x, 1, n}, {y, 1, n}]]",
				"c[n_] := Count[t[n], 0]",
				"t = Table[c[n], {n, 0, 70}]  (* A211534 *)",
				"FindLinearRecurrence[t]",
				"LinearRecurrence[{1, 0, 2, -2, 0, -1, 1}, {0, 0, 0, 0, 0, 0, 1}, 70] (* _Vincenzo Librandi_, Apr 05 2015 *)"
			],
			"program": [
				"(PARI) concat([0,0,0,0,0,0], Vec(-x^6/((x-1)^3*(x^2+x+1)^2) + O(x^100))) \\\\ _Colin Barker_, Feb 17 2015",
				"(MAGMA) [Floor(n/3)*(Floor(n/3)-1)/2 : n in [0..100]]; // _Wesley Ivan Hurt_, Apr 05 2015",
				"(MAGMA) [n le 7 select Floor(n/7) else Self(n-1)+2*Self(n-3)-2*Self(n-4)-Self(n-6)+ Self(n-7): n in [1..70]]; // _Vincenzo Librandi_, Apr 05 2015"
			],
			"xref": [
				"Cf. A211422, A008805 (w = 2x + 2y and doubly repeated triangular numbers)."
			],
			"keyword": "nonn,easy",
			"offset": "0,10",
			"author": "_Clark Kimberling_, Apr 15 2012",
			"references": 3,
			"revision": 25,
			"time": "2015-06-13T00:54:13-04:00",
			"created": "2012-04-22T14:53:20-04:00"
		}
	]
}