{
	"greeting": "Greetings from The On-Line Encyclopedia of Integer Sequences! http://oeis.org/",
	"query": "id:A211240",
	"count": 1,
	"start": 0,
	"results": [
		{
			"number": 211240,
			"data": "1761702947,11085833111,177558051107,473787509537,557149355507,715464238661,2236159108277,2751203698151,3247566894821,3288002848511,3424305123047,3490420408691,3729352769561,3801308473871,4296903559301,4656625081181,4837112125121,5125165470701",
			"name": "Prime numbers p such that x^2 + x + p produces primes for x = 0..11 but not x = 12.",
			"comment": [
				"The first term is A164926(12)."
			],
			"xref": [
				"Cf. A067774, A164926."
			],
			"keyword": "nonn",
			"offset": "1,1",
			"author": "_T. D. Noe_, Apr 10 2012",
			"ext": [
				"a(7)-a(18) from _Donovan Johnson_, Apr 16 2012"
			],
			"references": 1,
			"revision": 7,
			"time": "2013-05-01T20:51:50-04:00",
			"created": "2012-04-10T20:14:01-04:00"
		}
	]
}