{
	"greeting": "Greetings from The On-Line Encyclopedia of Integer Sequences! http://oeis.org/",
	"query": "id:A211959",
	"count": 1,
	"start": 0,
	"results": [
		{
			"number": 211959,
			"data": "0,3,43,499,3304,15021,53038,156458,403574,938134,2006916,4011448,7577023,13642474,23574489,39310561,63534983,99892613,153245449,229977369,338352706,488934643,695069728",
			"name": "Number of lower triangular n X n arrays colored with integers 0 upwards introduced in row major order, with no element equal to any diagonal or antidiagonal neighbor, and containing the value n(n+1)/2-3",
			"comment": [
				"Column 2 of A211963"
			],
			"formula": [
				"Empirical: a(n) = (1/128)*n^8 + (1/32)*n^7 - (29/192)*n^6 - (3/16)*n^5 + (209/128)*n^4 - (205/96)*n^3 - (47/96)*n^2 + (79/24)*n - 1 for n\u003e1"
			],
			"example": [
				"Some solutions for n=4",
				"..0........0........0........0........0........0........0........0",
				"..1.2......1.2......1.2......1.1......1.2......1.2......1.2......1.1",
				"..3.4.5....3.4.0....3.3.4....2.3.4....3.4.4....3.4.0....3.2.4....2.2.3",
				"..6.6.3.7..5.1.6.7..5.6.4.7..5.6.1.7..5.6.7.2..5.6.7.7..1.5.6.7..4.5.6.7"
			],
			"keyword": "nonn",
			"offset": "1,2",
			"author": "_R. H. Hardin_ Apr 26 2012",
			"references": 0,
			"revision": 4,
			"time": "2015-12-18T18:18:09-05:00",
			"created": "2012-04-26T15:16:19-04:00"
		}
	]
}