{
	"greeting": "Greetings from The On-Line Encyclopedia of Integer Sequences! http://oeis.org/",
	"query": "id:A211716",
	"count": 1,
	"start": 0,
	"results": [
		{
			"number": 211716,
			"data": "230,2312,23056,228984,2263896,22292220,218675604,2137539096,20825437008,202270208796,1958886321268,18919069642800",
			"name": "Number of (n+1)X(n+1) -11..11 symmetric matrices with every 2X2 subblock having sum zero and three or four distinct values",
			"comment": [
				"Symmetry and 2X2 block sums zero implies that the diagonal x(i,i) are equal modulo 2 and x(i,j)=(x(i,i)+x(j,j))/2*(-1)^(i-j)"
			],
			"example": [
				"Some solutions for n=3",
				"..4..3.-1.-6...-8..2.-8..2..-10..3.-4..0...-1..4.-3.-4...-7..8.-7..3",
				"..3-10..8.-1....2..4..2..4....3..4.-3..7....4.-7..6..1....8.-9..8.-4",
				".-1..8.-6.-1...-8..2.-8..2...-4.-3..2.-6...-3..6.-5.-2...-7..8.-7..3",
				".-6.-1.-1..8....2..4..2..4....0..7.-6.10...-4..1.-2..9....3.-4..3..1"
			],
			"keyword": "nonn",
			"offset": "1,1",
			"author": "_R. H. Hardin_ Apr 20 2012",
			"references": 0,
			"revision": 3,
			"time": "2012-04-20T06:22:07-04:00",
			"created": "2012-04-20T06:22:07-04:00"
		}
	]
}