{
	"greeting": "Greetings from The On-Line Encyclopedia of Integer Sequences! http://oeis.org/",
	"query": "id:A211424",
	"count": 1,
	"start": 0,
	"results": [
		{
			"number": 211424,
			"data": "1,5,9,21,25,29,49,53,57,69,73,77,105,109,113,125,137,141,161,165,169,181,185,189,217,229,233,261,265,269,297,301,313,325,329,333,369,373,377,389,393,397,417,421,425,445,449,453,497,517,529,541,545",
			"name": "Number of ordered triples (w,x,y) with all terms in {-n,...,0,...,n} and w^2+3*x*y=0.",
			"comment": [
				"For a guide to related sequences, see A211422."
			],
			"link": [
				"Brandon Crofts, \u003ca href=\"/A211424/b211424.txt\"\u003eTable of n, a(n) for n = 0..20000\u003c/a\u003e",
				"Brandon Crofts, \u003ca href=\"/A211424/a211424.txt\"\u003eFaster Mathematica code for A211424\u003c/a\u003e"
			],
			"mathematica": [
				"t[n_] := t[n] = Flatten[Table[w^2 + 3 x*y, {w, -n, n}, {x, -n, n}, {y, -n, n}]]",
				"c[n_] := Count[t[n], 0]",
				"t = Table[c[n], {n, 0, 70}]  (* A211424 *)",
				"(t - 1)/4                    (* integers  *)"
			],
			"xref": [
				"Cf. A211422."
			],
			"keyword": "nonn",
			"offset": "0,2",
			"author": "_Clark Kimberling_, Apr 10 2012",
			"references": 2,
			"revision": 13,
			"time": "2020-06-25T15:14:07-04:00",
			"created": "2012-04-15T14:17:25-04:00"
		}
	]
}