{
	"greeting": "Greetings from The On-Line Encyclopedia of Integer Sequences! http://oeis.org/",
	"query": "id:A211746",
	"count": 1,
	"start": 0,
	"results": [
		{
			"number": 211746,
			"data": "48,330,1764,7968,31786,117270,410460,1386380,4570334,14808240,47415150,150559236,475404140,1495840120,4696349418,14732952836,46209158636,145045251938,455701735566",
			"name": "Number of -3..3 arrays x(i) of n+1 elements i=1..n+1 with set{t,u,v in 0,1}((x[i+t]+x[j+u]+x[k+v])*(-1)^(t+u+v)) having two, three, four, five, six or seven distinct values for every i,j,k\u003c=n",
			"example": [
				"Some solutions for n=5",
				".-1...-1....1...-2....1...-2....2...-3...-3....1...-1....3...-3....0....1...-2",
				"..3....3....2....2....2....1...-1....3...-3....0....2...-3...-2....3....2....2",
				"..2...-3....3....0...-2....2....2...-3....3...-1...-2....1...-3....0....0...-3",
				"..3....2....3....2....0...-1....1....2....3...-3....0...-1....1....1....1....3",
				".-1....0....3....0....2....1....2...-1...-3...-2...-3....0....3...-1....0....1",
				"..3...-2....2....2....0...-2....1....1....0...-3....0....3...-2....2...-1....3"
			],
			"keyword": "nonn",
			"offset": "1,1",
			"author": "_R. H. Hardin_ Apr 20 2012",
			"references": 0,
			"revision": 3,
			"time": "2012-04-20T08:14:58-04:00",
			"created": "2012-04-20T08:14:58-04:00"
		}
	]
}