{
	"greeting": "Greetings from The On-Line Encyclopedia of Integer Sequences! http://oeis.org/",
	"query": "id:A212141",
	"count": 1,
	"start": 0,
	"results": [
		{
			"number": 212141,
			"data": "0,0,7,36,111,274,567,1056,1789,2859,4350,6370,9000,12387,16642,21906,28326,36064,45273,56151,68884,83685,100758,120316,142530,167745,196141,227976,263553,303172,347031,395529,448912,507534,571680",
			"name": "Number of (w,x,y,z) with all terms in {1,...,n} and w \u003c (geometric mean of x,y,z).",
			"comment": [
				"A212141(n)+A212142(n)=n^4.  For a guide to related sequences, see A211795."
			],
			"mathematica": [
				"t = Compile[{{n, _Integer}}, Module[{s = 0},",
				"(Do[If[w^3 \u003c x*y*z, s = s + 1],",
				"{w, 1, #}, {x, 1, #}, {y, 1, #}, {z, 1, #}] \u0026[n]; s)]];",
				"Map[t[#] \u0026, Range[0, 50]] (* A212141 *)",
				"(* _Peter J. C. Moses_, Apr 13 2012 *)"
			],
			"xref": [
				"Cf. A211795."
			],
			"keyword": "nonn",
			"offset": "0,3",
			"author": "_Clark Kimberling_, May 06 2012",
			"references": 2,
			"revision": 5,
			"time": "2016-12-04T19:46:30-05:00",
			"created": "2012-05-23T14:20:08-04:00"
		}
	]
}