{
	"greeting": "Greetings from The On-Line Encyclopedia of Integer Sequences! http://oeis.org/",
	"query": "id:A212541",
	"count": 1,
	"start": 0,
	"results": [
		{
			"number": 212541,
			"data": "0,11,11,11,7,17,13,29,29,23,41,41,37,47,43,59,53,67,61,0,97,97,97,97,89,0,107,103,127,149,109,149,149,151,137,139,167,167,163,179,173,0,227,229,229,233,229,227,223,211,199,0,0,263,263,257,0,281,281",
			"name": "Let p_n=prime(n), n\u003e=1. Then a(n) is the maximal prime p which differs from p_n, for which the intervals (p/2,p_n/2), (p,p_n], if p\u003cp_n, or the intervals (p_n/2,p/2), (p_n,p], if p\u003ep_n, contain the same number of primes, and a(n)=0, if no such prime p exists.",
			"comment": [
				"a(n)\u003cp_n if and only if p_n is Ramanujan prime (A104272).",
				"a(n)=0 if and only if p_n is a peculiar prime, i.e., simultaneously Ramanujan and Labos (A080359) prime (see sequence A164554)."
			],
			"link": [
				"V. Shevelev, \u003ca href=\"http://www.cs.uwaterloo.ca/journals/JIS/VOL15/Shevelev/shevelev19.html\"\u003eRamanujan and Labos primes, their generalizations, and classifications of primes\u003c/a\u003e, J. Integer Seq. 15 (2012) Article 12.5.4"
			],
			"formula": [
				"If p_n is not a Ramanujan prime, then a(n) = A104272(n-pi(p_n/2))."
			],
			"example": [
				"Let n=4, p_n=7. Since 7 is not Ramanujan prime, then a(4) = A104272(4-pi(3.5)) = A104272(2) = 11."
			],
			"xref": [
				"Cf. A212493, A104272, A080359, A164554."
			],
			"keyword": "nonn",
			"offset": "1,2",
			"author": "_Vladimir Shevelev_ and _Peter J. C. Moses_, May 20 2012",
			"references": 4,
			"revision": 16,
			"time": "2013-02-13T23:58:30-05:00",
			"created": "2012-05-22T12:31:04-04:00"
		}
	]
}