{
	"greeting": "Greetings from The On-Line Encyclopedia of Integer Sequences! http://oeis.org/",
	"query": "id:A212283",
	"count": 1,
	"start": 0,
	"results": [
		{
			"number": 212283,
			"data": "2,6,4,6,12,21,8,10,20,12,14,172,30,46,16,18,36,20,22,126,46,24,26,126,28,30,58,60,120,126,32,34,68,36,38,185,78,40,42,126,44,46,90,92,138,48,50,246,52,54,106,108,56,58,114,60,62,120,182,126,188,378",
			"name": "First a(n) \u003e 1 whose sum of digits is the same in base 2 as in base n.",
			"comment": [
				"Theoretically, there might exist an n for which there is no solution, in which case a(n) would be set to 0 by convention; however, no such case was found so far. Problem: does it exist?"
			],
			"link": [
				"Stanislav Sykora, \u003ca href=\"/A212283/b212283.txt\"\u003eTable of n, a(n) for n = 2..10000\u003c/a\u003e"
			],
			"example": [
				"Example: a(13) = 172 because 172 is the first number \u003e1 such that its expansions in base 2 (10101100) and in base 13 (103) have the same sum of digits, namely 4."
			],
			"mathematica": [
				"sdn[n_]:=Module[{a=2},While[Total[IntegerDigits[a,2]]!=Total[ IntegerDigits[ a,n]], a++];a]; Array[sdn,70,2] (* _Harvey P. Dale_, May 29 2013 *)"
			],
			"xref": [
				"Cf. A037301, A212222."
			],
			"keyword": "nonn,base",
			"offset": "2,1",
			"author": "_Stanislav Sykora_, May 08 2012",
			"references": 1,
			"revision": 15,
			"time": "2019-04-28T18:31:40-04:00",
			"created": "2012-05-09T12:22:41-04:00"
		}
	]
}