{
	"greeting": "Greetings from The On-Line Encyclopedia of Integer Sequences! http://oeis.org/",
	"query": "id:A212134",
	"count": 1,
	"start": 0,
	"results": [
		{
			"number": 212134,
			"data": "0,1,12,57,172,405,816,1477,2472,3897,5860,8481,11892,16237,21672,28365,36496,46257,57852,71497,87420,105861,127072,151317,178872,210025,245076,284337,328132,376797,430680,490141,555552,627297,705772,791385,884556,985717",
			"name": "Number of (w,x,y,z) with all terms in {1,...,n} and median\u003c=mean.",
			"comment": [
				"Also, the number of (w,x,y,z) with all terms in {1,...,n} and median\u003e=mean.",
				"For a guide to related sequences, see A211795."
			],
			"link": [
				"Colin Barker, \u003ca href=\"/A212134/b212134.txt\"\u003eTable of n, a(n) for n = 0..1000\u003c/a\u003e",
				"\u003ca href=\"/index/Rec#order_05\"\u003eIndex entries for linear recurrences with constant coefficients\u003c/a\u003e, signature (5,-10,10,-5,1)."
			],
			"formula": [
				"a(n)+ A212135(n) = n^4.",
				"a(n) = n*(n^3 + 2*n^2 - 3*n + 2)/2.",
				"a(n) = 5*a(n-1) - 10*a(n-2) + 10*a(n-3) - 5*a(n-4) + a(n-5).",
				"G.f.: x*(1 + 7*x + 7*x^2 - 3*x^3) /(1 - x)^5. - _Colin Barker_, Dec 02 2017"
			],
			"mathematica": [
				"t = Compile[{{n, _Integer}}, Module[{s = 0}, (Do[If[Apply[Plus, Rest[Most[Sort[{w, x, y, z}]]]]/2 \u003c= (w + x + y + z)/4, s = s + 1], {w, 1, #}, {x, 1, #}, {y, 1, #},",
				"{z, 1, #}] \u0026[n]; s)]];",
				"Flatten[Map[{t[#]} \u0026, Range[0, 50]]]  (* A212134 *)",
				"(* _Peter J. C. Moses_, May 01 2012 *)"
			],
			"program": [
				"(PARI) concat(0, Vec(x*(1 + 7*x + 7*x^2 - 3*x^3) /(1 - x)^5 + O(x^40))) \\\\ _Colin Barker_, Dec 02 2017"
			],
			"xref": [
				"Cf. A211795, A212133."
			],
			"keyword": "nonn,easy",
			"offset": "0,3",
			"author": "_Clark Kimberling_, May 04 2012",
			"references": 3,
			"revision": 15,
			"time": "2017-12-02T08:48:19-05:00",
			"created": "2012-05-22T11:54:54-04:00"
		}
	]
}