{
	"greeting": "Greetings from The On-Line Encyclopedia of Integer Sequences! http://oeis.org/",
	"query": "id:A212265",
	"count": 1,
	"start": 0,
	"results": [
		{
			"number": 212265,
			"data": "1,2,3,7,21,51,138,358,969,2735,7514,21372,60144,171510,485294,1388586,3949211,11296953,32294750,92471813,265484354,762548923,2194099432,6318266076,18214160616,52525201261,151638570041,437959067720,1265890334086,3661612407681",
			"name": "Row square-sums of triangle A096815.",
			"mathematica": [
				"T[n_,k_] := T[n,k] = If[n \u003c k || k \u003c 0, 0, If[k = 1 || k == n, 1, Sum[T[n-k,j]T[k,k-j],{j,0,k}]]]",
				"Table[Sum[T[n,k]^2,{k,0,n}],{n,0,50}]"
			],
			"program": [
				"(Maxima) T(n,k):= if ( n\u003ck or k\u003c0 ) then 0 else",
				"if ( k\u003c=1 or k=n ) then 1 else sum(T(n-k,j)*T(k,k-j),j,0, k);",
				"makelist(sum(T(n,k)^2,k,0,n),n,0,20);"
			],
			"xref": [
				"Cf. A096815, A096816, A212264, A212421, A212422."
			],
			"keyword": "nonn",
			"offset": "0,2",
			"author": "_Emanuele Munarini_, May 12 2012",
			"references": 2,
			"revision": 11,
			"time": "2012-05-16T08:50:35-04:00",
			"created": "2012-05-16T08:50:35-04:00"
		}
	]
}