{
	"greeting": "Greetings from The On-Line Encyclopedia of Integer Sequences! http://oeis.org/",
	"query": "id:A212454",
	"count": 1,
	"start": 0,
	"results": [
		{
			"number": 212454,
			"data": "7,13,18,23,29,34,39,44,49,54,60,65,70,75,80,85,90,95,100,105,110,115,120,125,130,135,140,145,150,156,161,166,171,176,181,186,191,196,201,206,211,216,221,226,231,236,241,246,251,256,261,266,271,276,281",
			"name": "Ceiling(5n + log(5n)).",
			"link": [
				"Vincenzo Librandi, \u003ca href=\"/A212454/b212454.txt\"\u003eTable of n, a(n) for n = 1..1000\u003c/a\u003e"
			],
			"mathematica": [
				"Table[Ceiling[5*n + Log[5*n]], {n, 100}] (* _T. D. Noe_, May 21 2012 *)"
			],
			"program": [
				"(MAGMA) [Ceiling(5*n + Log(5*n)): n in [1..80]]; // _Vincenzo Librandi_, Feb 14 2013"
			],
			"xref": [
				"Cf. A000523, A062153, A102572, A212445-A212453."
			],
			"keyword": "nonn,easy",
			"offset": "1,1",
			"author": "_Mohammad K. Azarian_, May 17 2012",
			"references": 10,
			"revision": 14,
			"time": "2013-06-22T16:06:14-04:00",
			"created": "2012-05-21T12:31:03-04:00"
		}
	]
}