{
	"greeting": "Greetings from The On-Line Encyclopedia of Integer Sequences! http://oeis.org/",
	"query": "id:A212124",
	"count": 1,
	"start": 0,
	"results": [
		{
			"number": 212124,
			"data": "2,6,8,14,16,20,28,32,38,40,50,58,64,68,70,82,92,100,106,110,112,126,136,142,154,162,164,168,184",
			"name": "Total number of states of the first n subshells of the nuclear shell model in which the subshells are ordered by energy level in increasing order.",
			"comment": [
				"First differs from A213364 at a(12)."
			],
			"reference": [
				"M. Goeppert Mayer and J. Hans D. Jensen, Elementary Theory of Nuclear Shell Structure, J. Wiley and Sons, Inc. (1955)."
			],
			"link": [
				"Library of Halexandria, \u003ca href=\"http://www.halexandria.org/dward472.htm\"\u003eNuclear shell model\u003c/a\u003e, Table 1."
			],
			"formula": [
				"a(n) = 2*A212123(n)."
			],
			"example": [
				"Example 1: written as a triangle in which apparently row i is related to the (i-1)st level of nucleus. Triangle begins:",
				"2;",
				"6,     8;",
				"14,   16,  20;",
				"28,   32,  38,  40;",
				"50,   58,  64,  68,  70;",
				"82,   92, 100, 106, 110, 112;",
				"126, 136, 142, 154, 162, 164, 168;",
				"...",
				"Example 2: written as an irregular triangle in which row j is related to the j-th shell of nucleus. In this case note that row 4 has only one term. Triangle begins:",
				"2;",
				"6,     8;",
				"14,   16,  20;",
				"28,",
				"32,   38,  40,  50;",
				"58,   64,  68,  70,  82;",
				"92,  100, 106, 110, 112, 126;",
				"136, 142, 154, 162, 164, 168, 184;",
				"...",
				"First seven terms of right border give the \"magic numbers\" A018226."
			],
			"xref": [
				"Partial sums of A212122. Other versions are A210984, A212014, A213364, A213374.",
				"Cf. A007290, A018226, A033547, A210842, A212121, A212123."
			],
			"keyword": "nonn,tabf,hard,more",
			"offset": "1,1",
			"author": "_Omar E. Pol_, Jun 03 2012",
			"references": 11,
			"revision": 33,
			"time": "2012-09-03T07:13:21-04:00",
			"created": "2012-06-25T21:57:05-04:00"
		}
	]
}