{
	"greeting": "Greetings from The On-Line Encyclopedia of Integer Sequences! http://oeis.org/",
	"query": "id:A212992",
	"count": 1,
	"start": 0,
	"results": [
		{
			"number": 212992,
			"data": "0,1,1,3,9,4,6,5,6,7,12,11,63,16,16,16,16,49,16,50,18,20,19,74,19,19,84,17,29,27,42,37,3023696,37,220,195,234,40,49,49,47,225,45,47,1534,44,258,250,42,48,45,266,45,49,45,41,51,325,53,311,321,335,56,55,54,60,59,370,59,61,59,2418,60,364,62,62,65,381,2632,395,2797,54,44068,66,67113,84,611,611,88,84,5680,119,848,112,117,804,111,897,811,782,132",
			"name": "Base-3 analog of A208059.",
			"link": [
				"Christopher Creutzig, \u003ca href=\"http://chesswanks.com/num/a208059/analogues.txt\"\u003eA208059 analogues (bases 2-16)\u003c/a\u003e",
				"Christopher Creutzig, \u003ca href=\"/A208059/a208059.txt\"\u003eA208059 analogues (bases 2-16)\u003c/a\u003e [Cached copy made Jun 01 2012]"
			],
			"xref": [
				"Cf. A208059, A212991-A213004."
			],
			"keyword": "nonn,base",
			"offset": "0,4",
			"author": "_N. J. A. Sloane_, Jun 01 2012, based on the web page of Christopher Creutzig",
			"references": 0,
			"revision": 6,
			"time": "2015-07-10T23:29:55-04:00",
			"created": "2012-06-01T13:10:37-04:00"
		}
	]
}