{
	"greeting": "Greetings from The On-Line Encyclopedia of Integer Sequences! http://oeis.org/",
	"query": "id:A212518",
	"count": 1,
	"start": 0,
	"results": [
		{
			"number": 212518,
			"data": "0,0,0,0,2,8,18,45,84,144,240,375,540,792,1092,1470,1960,2560,3240,4131,5130,6300,7700,9317,11088,13248,15600,18252,21294,24696,28350,32625,37200,42240,47872,54043,60588,68040,75924,84474,93860,104000,114660,126567",
			"name": "Number of (w,x,y,z) with all terms in {1,...,n} and w\u003e2x and y\u003e3z.",
			"comment": [
				"For a guide to related sequences, see A211795."
			],
			"link": [
				"Colin Barker, \u003ca href=\"/A212518/b212518.txt\"\u003eTable of n, a(n) for n = 0..1000\u003c/a\u003e",
				"\u003ca href=\"/index/Rec#order_16\"\u003eIndex entries for linear recurrences with constant coefficients\u003c/a\u003e, signature (0,2,2,-1,-4,0,2,0,-2,0,4,1,-2,-2,0,1)."
			],
			"formula": [
				"a(n) = 2*a(n-2)+2*a(n-3)-a(n-4)-4*a(n-5)+2*a(n-7)-2*a(n-9)+4*a(n-11)+ a(n-12)-2*a(n-13)-2*a(n-14)+a(n-16).",
				"G.f.: x^4*(2 +8*x +14*x^2 +25*x^3 +34*x^4 +34*x^5 +32*x^6 +32*x^7 +20*x^8 +10*x^9 +4*x^10 +x^11) / ((1 -x)^5*(1 +x)^3*(1 -x +x^2)*(1 +x +x^2)^3). - _Colin Barker_, Dec 11 2015"
			],
			"mathematica": [
				"t = Compile[{{n, _Integer}}, Module[{s = 0},",
				"(Do[If[w \u003e 2 x \u0026\u0026 y \u003e 3 z, s = s + 1],",
				"{w, 1, #}, {x, 1, #}, {y, 1, #}, {z, 1, #}] \u0026[n]; s)]];",
				"Map[t[#] \u0026, Range[0, 50]]   (* A212518 *)"
			],
			"program": [
				"(PARI) concat(vector(4), Vec(x^4*(2 +8*x +14*x^2 +25*x^3 +34*x^4 +34*x^5 +32*x^6 +32*x^7 +20*x^8 +10*x^9 +4*x^10 +x^11) / ((1 -x)^5*(1 +x)^3*(1 -x +x^2)*(1 +x +x^2)^3) + O(x^100))) \\\\ _Colin Barker_, Dec 11 2015"
			],
			"xref": [
				"Cf. A211795, A212508."
			],
			"keyword": "nonn,easy",
			"offset": "0,5",
			"author": "_Clark Kimberling_, May 20 2012",
			"references": 2,
			"revision": 8,
			"time": "2015-12-11T10:44:01-05:00",
			"created": "2012-06-04T02:54:58-04:00"
		}
	]
}