{
	"greeting": "Greetings from The On-Line Encyclopedia of Integer Sequences! http://oeis.org/",
	"query": "id:A212464",
	"count": 1,
	"start": 0,
	"results": [
		{
			"number": 212464,
			"data": "1,2,3,4,6,9,14,21,31,45,66,97,142,208,306,448,656,961,1408,2062,3020,4423,6478,9488,13896,20353,29809,43658,63941,93648,137156,200877,294204,430888,631076,924269,1353677",
			"name": "a(n) = floor( Pi^(n/3) ).",
			"link": [
				"Vincenzo Librandi, \u003ca href=\"/A212464/b212464.txt\"\u003eTable of n, a(n) for n = 1..1000\u003c/a\u003e"
			],
			"maple": [
				"A212464:=n-\u003efloor(Pi^(n/3)): seq(A212464(n), n=1..60); # _Wesley Ivan Hurt_, Feb 09 2017"
			],
			"mathematica": [
				"a[n_]:= Floor[((Pi)^(n/3))]; Table[a[n], {n, 1, 60}] (* _Vincenzo Librandi_, Feb 14 2013 *)"
			],
			"program": [
				"(DERIVE) PROG(y := [], n := 60, LOOP(IF(n = 0, RETURN y), y := ADJOIN(floor((pi)^(n/3)), y), n := n - 1))",
				"(PARI) a(n) = floor(Pi^(n/3)); \\\\ _Michel Marcus_, Jan 11 2016"
			],
			"xref": [
				"Cf. A102475, A102477, A212463."
			],
			"keyword": "easy,nonn",
			"offset": "1,2",
			"author": "_Mohammad K. Azarian_, Jul 02 2012",
			"references": 2,
			"revision": 22,
			"time": "2017-02-10T02:37:18-05:00",
			"created": "2012-07-03T15:38:08-04:00"
		}
	]
}