{
	"greeting": "Greetings from The On-Line Encyclopedia of Integer Sequences! http://oeis.org/",
	"query": "id:A212058",
	"count": 1,
	"start": 0,
	"results": [
		{
			"number": 212058,
			"data": "0,1,5,12,25,41,66,94,132,176,229,285,359,436,522,617,727,840,971,1105,1257,1418,1588,1761,1964,2173,2391,2619,2865,3114,3390,3669,3969,4278,4596,4923,5286,5652,6027,6411,6825,7242,7686,8133,8598",
			"name": "Number of (w,x,y,z) with all terms in {1,...,n} and w\u003e=x*y*z.",
			"comment": [
				"a(n)+A212057(n)=n^4.  For a guide to related sequences, see A211795."
			],
			"formula": [
				"a(n) = Sum_{i=1..n+1} Sum_{j=1..n+1} tau(i)*floor((n+1-j)/i). - _Ridouane Oudra_, Oct 03 2020"
			],
			"mathematica": [
				"t = Compile[{{n, _Integer}}, Module[{s = 0},",
				"(Do[If[w \u003e= x*y*z, s = s + 1],",
				"{w, 1, #}, {x, 1, #}, {y, 1, #}, {z, 1, #}] \u0026[n]; s)]];",
				"Map[t[#] \u0026, Range[0, 50]] (* A212058 *)",
				"(* _Peter J. C. Moses_, Apr 13 2012 *)"
			],
			"xref": [
				"Cf. A211795, A061201."
			],
			"keyword": "nonn",
			"offset": "0,3",
			"author": "_Clark Kimberling_, Apr 30 2012",
			"references": 3,
			"revision": 13,
			"time": "2020-10-05T05:03:02-04:00",
			"created": "2012-05-15T16:37:21-04:00"
		}
	]
}