{
	"greeting": "Greetings from The On-Line Encyclopedia of Integer Sequences! http://oeis.org/",
	"query": "id:A212572",
	"count": 1,
	"start": 0,
	"results": [
		{
			"number": 212572,
			"data": "0,1,14,71,220,533,1094,2015,3416,5449,8270,12071,17044,23421,31430,41343,53424,67985,85326,105799,129740,157541,189574,226271,268040,315353,368654,428455,495236,569549,651910,742911,843104,953121,1073550,1205063,1348284",
			"name": "Number of (w,x,y,z) with all terms in {1,...,n} and |w-x| \u003c= |x-y| + |y-z|.",
			"comment": [
				"For a guide to related sequences, see A211795."
			],
			"link": [
				"Colin Barker, \u003ca href=\"/A212572/b212572.txt\"\u003eTable of n, a(n) for n = 0..1000\u003c/a\u003e",
				"\u003ca href=\"/index/Rec#order_07\"\u003eIndex entries for linear recurrences with constant coefficients\u003c/a\u003e, signature (3,-1,-5,5,1,-3,1)."
			],
			"formula": [
				"a(n) = 3*a(n-1)-a(n-2)-5*a(n-3)+5*a(n-4)+a(n-5)-3*a(n-6)+a(n-7).",
				"From _Colin Barker_, Dec 06 2015: (Start)",
				"a(n) = 1/48*(38*n^4+20*n^3-32*n^2-2*(3*(-1)^n-11)*n+3*((-1)^n-1)).",
				"G.f.: x*(1+11*x+30*x^2+26*x^3+9*x^4-x^5) / ((1-x)^5*(1+x)^2).",
				"(End)"
			],
			"mathematica": [
				"t = Compile[{{n, _Integer}}, Module[{s = 0},",
				"(Do[If[Abs[w - x] \u003c= Abs[x - y] + Abs[y - z], s = s + 1],",
				"{w, 1, #}, {x, 1, #}, {y, 1, #}, {z, 1, #}] \u0026[n]; s)]];",
				"Map[t[#] \u0026, Range[0, 40]]   (* A212572 *)"
			],
			"program": [
				"(PARI) concat(0, Vec(x*(1+11*x+30*x^2+26*x^3+9*x^4-x^5)/((1-x)^5*(1+x)^2) + O(x^100))) \\\\ _Colin Barker_, Dec 06 2015"
			],
			"xref": [
				"Cf. A211795, A212570."
			],
			"keyword": "nonn,easy",
			"offset": "0,3",
			"author": "_Clark Kimberling_, May 22 2012",
			"references": 2,
			"revision": 12,
			"time": "2015-12-07T01:56:18-05:00",
			"created": "2012-06-06T18:02:45-04:00"
		}
	]
}