{
	"greeting": "Greetings from The On-Line Encyclopedia of Integer Sequences! http://oeis.org/",
	"query": "id:A213909",
	"count": 1,
	"start": 0,
	"results": [
		{
			"number": 213909,
			"data": "0,2,40,6,30,46,234,14,276,40,212,58,100,248,562,30,178,294,424,60,126,234,516,82,538,126,81178,276,366,592,80910,62,688,212,446,330,444,462,1894,100,81096,168,1090,278,416,562,80816,130,666,588,926,178,340",
			"name": "Sum of all even numbers in Collatz (3x+1) trajectory of n.",
			"link": [
				"T. D. Noe, \u003ca href=\"/A213909/b213909.txt\"\u003eTable of n, a(n) for n = 1..10000\u003c/a\u003e"
			],
			"example": [
				"a(5)=30 since Collatz trajectory of 5 is 5,16,8,4,2,1."
			],
			"mathematica": [
				"Collatz[n_] := NestWhileList[If[EvenQ[#], #/2, 3 # + 1] \u0026, n, # \u003e 1 \u0026]; Table[Total[Select[Collatz[n], EvenQ]], {n, 100}] (* _T. D. Noe_, Mar 05 2013 *)"
			],
			"xref": [
				"Cf. A033493."
			],
			"keyword": "nonn",
			"offset": "1,2",
			"author": "_Jayanta Basu_, Mar 05 2013",
			"references": 8,
			"revision": 21,
			"time": "2013-03-05T13:59:13-05:00",
			"created": "2013-03-05T13:51:04-05:00"
		}
	]
}