{
	"greeting": "Greetings from The On-Line Encyclopedia of Integer Sequences! http://oeis.org/",
	"query": "id:A213271",
	"count": 1,
	"start": 0,
	"results": [
		{
			"number": 213271,
			"data": "0,1,2,2,18,42,66,168,300,910,1882,3192,5320,7166,8346,9042,7760,6668,4620,2822,1528,942,282,92,32,22,88,256,24",
			"name": "Costas arrays such that the corresponding permutation is a derangement.",
			"comment": [
				"Fixed-point free permutations such that each row in the difference table consists of pairwise distinct elements (see example)."
			],
			"link": [
				"Scott Rickard, \u003ca href=\"http://costasarrays.org/\"\u003ecostasarrays.org\u003c/a\u003e (information and papers about Costas arrays)."
			],
			"example": [
				"The permutation (9, 8, 1, 6, 3, 7, 2, 4, 5) is a derangement and corresponds to a Costas array:",
				"   9  8  1  6  3  7  2  4  5  (Permutation: p(1), p(2), p(3), ..., p(n) )",
				"  -1 -7  5 -3  4 -5  2  1     (step-1 differences: p(2)-p(1), p(3)-p(2), ... )",
				"  -8 -2  2  1 -1 -3  3        (step-2 differences: p(3)-p(1), p(4)-p(2), ... )",
				"  -3 -5  6 -4  1 -2           (step-3 differences: p(4)-p(1), p(5)-p(2), ... )",
				"  -6 -1  1 -2  2              ( etc. )",
				"  -2 -6  3 -1",
				"  -7 -4  4",
				"  -5 -3",
				"  -4"
			],
			"xref": [
				"Cf. A008404 (Costas arrays), A213270 (Costas arrays that are involutions), A213338 (Costas arrays that are cyclic), A213339 (Costas arrays that are connected)."
			],
			"keyword": "nonn,hard,more",
			"offset": "1,3",
			"author": "_Joerg Arndt_, Jun 08 2012",
			"references": 4,
			"revision": 16,
			"time": "2019-10-18T13:30:49-04:00",
			"created": "2012-06-08T10:58:42-04:00"
		}
	]
}