{
	"greeting": "Greetings from The On-Line Encyclopedia of Integer Sequences! http://oeis.org/",
	"query": "id:A213295",
	"count": 1,
	"start": 0,
	"results": [
		{
			"number": 213295,
			"data": "1,7,49,280,1414,6104,23527,83916,296268,1050777,3771418,13717679,50861266,191950441,739460834,2901202157,11612278801,47307362988,196385040929,828929230122,3560359729835,15531007871015,68843517673532,309567264833019,1412620935530761",
			"name": "Number of n-length words w over 7-ary alphabet such that for every prefix z of w we have #(z,a_i) = 0 or #(z,a_i) \u003e= #(z,a_j) for all j\u003ei and #(z,a_i) counts the occurrences of the i-th letter in z.",
			"xref": [
				"Column k=7 of A213276."
			],
			"keyword": "nonn",
			"offset": "0,2",
			"author": "_Alois P. Heinz_, Jun 08 2012",
			"references": 1,
			"revision": 4,
			"time": "2012-06-15T03:54:15-04:00",
			"created": "2012-06-15T03:54:15-04:00"
		}
	]
}