{
	"greeting": "Greetings from The On-Line Encyclopedia of Integer Sequences! http://oeis.org/",
	"query": "id:A213333",
	"count": 1,
	"start": 0,
	"results": [
		{
			"number": 213333,
			"data": "1,1,3,11,45,199,925,4457,22059,111473,572759,2983137,15713985,83570601,448105431,2419865513,13149245161,71844158103,394456062591,2175202340551,12042184753415,66904188191285,372909667831073,2084656444044577,11685284016254365",
			"name": "G.f. satisfies: A(x) = x + A( A(x)^2/(1 - A(x) + A(x)^2) ).",
			"comment": [
				" Compare g.f. to: F(x) = x + F( -F(x)^2/(1 - F(x) + F(x)^2) ) when F(x) = x/(1+x)."
			],
			"example": [
				"G.f.: A(x) = x + x^2 + 3*x^3 + 11*x^4 + 45*x^5 + 199*x^6 + 925*x^7 +...",
				"Related expansions:",
				"A(x)^2 = x^2 + 2*x^3 + 7*x^4 + 28*x^5 + 121*x^6 + 554*x^7 + 2639*x^8 +...",
				"A(x)^2/(1 - A(x) + A(x)^2) = x^2 + 3*x^3 + 10*x^4 + 39*x^5 + 167*x^6 + 760*x^7 + 3607*x^8 + 88440*x^10 +..."
			],
			"program": [
				"(PARI) {a(n)=local(A=x+x^2); for(i=1, n, A=x+subst(A, x, A^2/(1-A+A^2+x*O(x^n)))); polcoeff(A, n)}",
				"for(n=1, 30, print1(a(n), \", \"))"
			],
			"xref": [
				"Cf. A213263, A213264."
			],
			"keyword": "nonn",
			"offset": "1,3",
			"author": "_Paul D. Hanna_, Jun 08 2012",
			"references": 0,
			"revision": 5,
			"time": "2012-06-08T21:50:47-04:00",
			"created": "2012-06-08T21:49:46-04:00"
		}
	]
}