{
	"greeting": "Greetings from The On-Line Encyclopedia of Integer Sequences! http://oeis.org/",
	"query": "id:A213308",
	"count": 1,
	"start": 0,
	"results": [
		{
			"number": 213308,
			"data": "1,4,6,8,9,13,17,22,25,27,29,31,32,33,35,43,47,52,55,57,59,67,71,72,75,77,79,83,97,137,173,223,233,237,313,317,337,353,379,523,537,673,733,737,773,797,1373,3137,3373,3733,3797",
			"name": "Numbers with exactly one nonprime substring (substrings with leading zeros are considered to be nonprime).",
			"comment": [
				"The sequence is finite. Proof: Each 5-digit number has at least 2 nonprime substrings. Thus, each number with more than 5 digits has \u003e= 2 nonprime substrings, too. Consequently, there is a boundary b\u003c10^4, such that all numbers \u003e b have at least 2 nonprime substrings.",
				"The first term is a(1)=1=A213302(1). The last term is a(51)=3797=A213300(1)."
			],
			"link": [
				"Hieronymus Fischer, \u003ca href=\"/A213308/b213308.txt\"\u003eTable of n, a(n) for n = 1..51\u003c/a\u003e"
			],
			"example": [
				"a(1)=1, since 1 has one nonprime substring.",
				"a(51)=3797, since the only nonprime substring of 3797 is 9."
			],
			"xref": [
				"Cf. A019546, A035232, A039996, A046034, A069489, A085823, A211681, A211682, A211684, A211685.",
				"Cf. A035244, A079307, A213300 - A213321."
			],
			"keyword": "nonn,fini,base",
			"offset": "1,2",
			"author": "_Hieronymus Fischer_, Aug 26 2012",
			"references": 1,
			"revision": 7,
			"time": "2012-09-01T11:47:37-04:00",
			"created": "2012-09-01T11:47:37-04:00"
		}
	]
}