{
	"greeting": "Greetings from The On-Line Encyclopedia of Integer Sequences! http://oeis.org/",
	"query": "id:A213563",
	"count": 1,
	"start": 0,
	"results": [
		{
			"number": 213563,
			"data": "1,10,51,182,518,1260,2730,5412,9999,17446,29029,46410,71708,107576,157284,224808,314925,433314,586663,782782,1030722,1340900,1725230,2197260,2772315,3467646,4302585,5298706,6479992,7873008,9507080",
			"name": "Antidiagonal sums of the convolution array A213561.",
			"link": [
				"Clark Kimberling, \u003ca href=\"/A213563/b213563.txt\"\u003eTable of n, a(n) for n = 1..1000\u003c/a\u003e",
				"\u003ca href=\"/index/Rec#order_07\"\u003eIndex entries for linear recurrences with constant coefficients\u003c/a\u003e, signature (7,-21,35,-35,21,-7,1)."
			],
			"formula": [
				"a(n) = 7*a(n-1) - 21*a(n-2) + 35*a(n-3) - 35*a(n-4) + 21*a(n-5) - 7*a(n-6) + a(n-7).",
				"G.f.: x*(1 + 3 x + 2*x^2)/(1 - x)^7."
			],
			"mathematica": [
				"(See A213561.)"
			],
			"xref": [
				"Cf. A213561, A213500."
			],
			"keyword": "nonn,easy",
			"offset": "1,2",
			"author": "_Clark Kimberling_, Jun 18 2012",
			"references": 3,
			"revision": 10,
			"time": "2017-06-17T03:55:10-04:00",
			"created": "2012-07-12T12:23:16-04:00"
		}
	]
}