{
	"greeting": "Greetings from The On-Line Encyclopedia of Integer Sequences! http://oeis.org/",
	"query": "id:A213492",
	"count": 1,
	"start": 0,
	"results": [
		{
			"number": 213492,
			"data": "0,4,18,48,98,178,290,442,640,890,1196,1568,2008,2524,3122,3808,4586,5466,6450,7546,8760,10098,11564,13168,14912,16804,18850,21056,23426,25970,28690,31594,34688,37978,41468,45168,49080,53212,57570",
			"name": "Number of (w,x,y) with all terms in {0,...,n} and w != min(|w-x|,|x-y|,|y-w|).",
			"comment": [
				"a(n)+A213495 = (n+1)^3.",
				"Every term is even.",
				"For a guide to related sequences, see A212959."
			],
			"link": [
				"\u003ca href=\"/index/Rec\"\u003eIndex entries for linear recurrences with constant coefficients\u003c/a\u003e, signature (2,0,-1,-1,0,2,-1)."
			],
			"formula": [
				"a(n) = 2*a(n-1)-a(n-3)-a(n-4)+2*a(n-6)-a(n-7).",
				"G.f.: (2*x*(2 + 5*x + 6*x^2 + 3*x^3 + 2*x^4))/((-1 + x)^4 (1 + x) (1 + x + x^2))."
			],
			"mathematica": [
				"t = Compile[{{n, _Integer}}, Module[{s = 0},",
				"(Do[If[w != Min[Abs[w - x], Abs[x - y], Abs[y - w]], s = s + 1], {w, 0, n}, {x, 0, n}, {y, 0, n}]; s)]];",
				"m = Map[t[#] \u0026, Range[0, 60]]   (* A213492 *)",
				"m/2 (* integers *)"
			],
			"xref": [
				"Cf. A212959."
			],
			"keyword": "nonn,easy",
			"offset": "0,2",
			"author": "_Clark Kimberling_, Jun 14 2012",
			"references": 3,
			"revision": 7,
			"time": "2015-06-13T00:54:16-04:00",
			"created": "2012-06-28T15:33:01-04:00"
		}
	]
}