{
	"greeting": "Greetings from The On-Line Encyclopedia of Integer Sequences! http://oeis.org/",
	"query": "id:A213124",
	"count": 1,
	"start": 0,
	"results": [
		{
			"number": 213124,
			"data": "1,36,324,1996,10154,47448,211888,920744,3930286,16570608,69240296,287379592,1186575444,4879222736,19997163520,81735122832,333327346838,1356783786272,5513802056888,22376476701512,90701190829388",
			"name": "Number of binary arrays of length 2*n+6 with fewer than n ones in any length 2n subsequence (=less than 50% duty cycle).",
			"link": [
				"R. H. Hardin, \u003ca href=\"/A213124/b213124.txt\"\u003eTable of n, a(n) for n = 1..210\u003c/a\u003e"
			],
			"formula": [
				"Empirical (for n\u003e=5): n*(143*n^3 - 1584*n^2 + 5761*n - 6880)*a(n) = 2*(572*n^4 - 6765*n^3 + 27961*n^2 - 46078*n + 23040)*a(n-1) - 8*(2*n-9)*(143*n^3 - 1155*n^2 + 3022*n - 2560)*a(n-2). - _Vaclav Kotesovec_, Nov 20 2012",
				"Empirical (for n\u003e=4): a(n) = 2^(2*n+5) - 12*(1001*n^3 - 4697*n^2 + 6510*n - 2560) * C(2*n-7, n-4) / ((n-2)*(n-1)*n). - _Vaclav Kotesovec_, Nov 20 2012"
			],
			"example": [
				"Some solutions for n=3:",
				"  1  0  0  1  0  1  1  0  0  0  0  0  0  0  1  0",
				"  0  1  1  1  0  0  0  0  0  0  1  1  0  1  0  0",
				"  0  1  1  0  0  0  0  0  0  0  0  1  1  1  0  0",
				"  0  0  0  0  1  0  0  1  1  1  1  0  1  0  0  0",
				"  0  0  0  0  1  0  0  0  0  0  0  0  0  0  0  0",
				"  1  0  0  0  0  0  1  0  0  0  0  0  0  0  0  0",
				"  0  0  0  0  0  1  0  0  0  0  0  0  0  0  1  1",
				"  1  0  0  0  0  0  0  1  0  0  0  0  0  1  0  1",
				"  0  0  1  0  0  0  0  0  0  0  0  1  1  1  1  0",
				"  0  1  0  1  1  0  0  0  1  0  1  1  0  0  0  0",
				"  0  0  1  1  0  0  0  0  0  1  0  0  0  0  0  0",
				"  1  0  0  0  0  1  0  1  1  1  1  0  0  0  0  0"
			],
			"maple": [
				"#verified first terms (holds for all n\u003c=210). - _Vaclav Kotesovec_, Nov 20 2012",
				"with(gfun): A213124:= rectoproc({a(3)=324, a(4)=1996, n*(143*n^3-1584*n^2+5761*n-6880)*a(n) = 2*(572*n^4-6765*n^3+27961*n^2-46078*n+23040)*a(n-1) - 8*(2*n-9)*(143*n^3-1155*n^2+3022*n-2560)*a(n-2)},a(n),remember): 1,36,seq(A213124(n),n=3..20); A213124(210);"
			],
			"xref": [
				"Row 7 of A213118."
			],
			"keyword": "nonn",
			"offset": "1,2",
			"author": "_R. H. Hardin_, Jun 05 2012",
			"references": 1,
			"revision": 16,
			"time": "2019-05-11T02:21:45-04:00",
			"created": "2012-06-05T22:34:43-04:00"
		}
	]
}