{
	"greeting": "Greetings from The On-Line Encyclopedia of Integer Sequences! http://oeis.org/",
	"query": "id:A213529",
	"count": 1,
	"start": 0,
	"results": [
		{
			"number": 213529,
			"data": "7148695169714208807,84392786545,42270067,1254341,514389187,16861093,1730653,1730681,4485343,790841,15692699,992077,2136283,1730681,24683107,9666029,9560713,33282853,9375479,14604599,1247173,19437853,34546507,790841,3781541,1715053,17710319,45501941",
			"name": "Smallest Riesel number that is divisible by the n-th prime.",
			"comment": [
				"Some examples of Riesel numbers that are divisible by 3 are in A187714.",
				"For an odd prime p and odd k, if p divides k, then p does not divide k*2^n - 1 for any n."
			],
			"link": [
				"Arkadiusz Wesolowski, \u003ca href=\"/A213529/b213529.txt\"\u003eTable of n, a(n) for n = 2..1000\u003c/a\u003e",
				"Chris Caldwell, The Prime Glossary, \u003ca href=\"http://primes.utm.edu/glossary/xpage/RieselNumber.html\"\u003eRiesel number\u003c/a\u003e"
			],
			"example": [
				"1254341 is first Riesel number that is divisible by 11, the 5th prime - so a(5) = 1254341."
			],
			"xref": [
				"Cf. A076337, A101036, A187714, A222534."
			],
			"keyword": "nonn",
			"offset": "2,1",
			"author": "_Arkadiusz Wesolowski_, Jun 13 2012",
			"ext": [
				"Offset changed and initial term added by _Arkadiusz Wesolowski_, May 11 2017"
			],
			"references": 4,
			"revision": 18,
			"time": "2017-05-15T09:24:03-04:00",
			"created": "2012-06-15T14:44:17-04:00"
		}
	]
}