{
	"greeting": "Greetings from The On-Line Encyclopedia of Integer Sequences! http://oeis.org/",
	"query": "id:A213418",
	"count": 1,
	"start": 0,
	"results": [
		{
			"number": 213418,
			"data": "1,2,2,4,8,4,8,32,32,8,16,128,253,128,16,32,512,1970,1970,512,32,64,2048,15109,28952,15109,2048,64,128,8192,114302,407498,407498,114302,8192,128,256,32768,854473,5524088,10142461,5524088,854473,32768,256,512,131072",
			"name": "T(n,k) = Half the number of n X k binary arrays with no 3 X 3 submatrix formed with any three rows and columns equal to J-I.",
			"comment": [
				"Table starts",
				"...1......2.........4............8............16.............32.............64",
				"...2......8........32..........128...........512...........2048...........8192",
				"...4.....32.......253.........1970.........15109.........114302.........854473",
				"...8....128......1970........28952........407498........5524088.......72544970",
				"..16....512.....15109.......407498......10142461......235950302.....5190742489",
				"..32...2048....114302......5524088.....235950302.....9107867048...323797652462",
				"..64...8192....854473.....72544970....5190742489...323797652462.18095156337973",
				".128..32768...6323090....927723512..109049720858.10764286026008",
				".256.131072..46390429..11603925098.2205335209381",
				".512.524288.337896422.142479782648"
			],
			"link": [
				"R. H. Hardin, \u003ca href=\"/A213418/b213418.txt\"\u003eTable of n, a(n) for n = 1..96\u003c/a\u003e",
				"R. P. Anstee, \u003ca href=\"http://dx.doi.org/10.1016/0097-3165(80)90008-4\"\u003eProperties of (0,1)-matrices with no triangles\u003c/a\u003e, J. Combin. Theory Ser. A 29 (1980), no. 2, 186--198.",
				"H. J. Ryser, \u003ca href=\"http://www.jstor.org/stable/2099147\"\u003eCombinatorial configurations\u003c/a\u003e, SIAM J. Appl. Math. 17 1969 593--602."
			],
			"example": [
				"Some solutions for n=4 k=4",
				"..0..1..1..0....1..0..1..1....0..1..0..0....1..0..1..0....1..0..0..0",
				"..1..1..0..0....1..0..1..0....1..0..1..1....0..0..0..1....0..1..1..0",
				"..0..1..0..0....1..1..0..0....1..0..0..1....1..0..1..0....1..0..1..1",
				"..0..1..1..0....0..1..0..0....1..0..1..1....1..0..1..1....1..1..1..1"
			],
			"keyword": "nonn,tabl",
			"offset": "1,2",
			"author": "_R. H. Hardin_ and _N. J. A. Sloane_, Jun 10 2012",
			"references": 7,
			"revision": 12,
			"time": "2015-06-26T11:22:24-04:00",
			"created": "2012-06-10T22:03:59-04:00"
		}
	]
}