{
	"greeting": "Greetings from The On-Line Encyclopedia of Integer Sequences! http://oeis.org/",
	"query": "id:A213296",
	"count": 1,
	"start": 0,
	"results": [
		{
			"number": 213296,
			"data": "1,8,64,428,2556,13224,60600,250062,977026,3754472,14486158,56109736,220213038,875120922,3539254104,14534439529,60794185555,258385808222,1118113946883,4915589687030,21983704654711,99825770573061,460645444681024,2156595097630195",
			"name": "Number of n-length words w over 8-ary alphabet such that for every prefix z of w we have #(z,a_i) = 0 or #(z,a_i) \u003e= #(z,a_j) for all j\u003ei and #(z,a_i) counts the occurrences of the i-th letter in z.",
			"xref": [
				"Column k=8 of A213276."
			],
			"keyword": "nonn",
			"offset": "0,2",
			"author": "_Alois P. Heinz_, Jun 08 2012",
			"references": 1,
			"revision": 4,
			"time": "2012-06-15T03:54:23-04:00",
			"created": "2012-06-15T03:54:23-04:00"
		}
	]
}