{
	"greeting": "Greetings from The On-Line Encyclopedia of Integer Sequences! http://oeis.org/",
	"query": "id:A213076",
	"count": 1,
	"start": 0,
	"results": [
		{
			"number": 213076,
			"data": "1,2,8,36,200,1188",
			"name": "Right-hand diagonal of A213074.",
			"link": [
				"N. Metropolis and P. R. Stein, \u003ca href=\"http://dx.doi.org/10.1016/S0021-9800(70)80091-6\"\u003eAn elementary solution to a problem in restricted partitions\u003c/a\u003e, J. Combin. Theory, 9 (1970), 365-376."
			],
			"xref": [
				"Cf. A213074."
			],
			"keyword": "nonn,more",
			"offset": "2,2",
			"author": "_N. J. A. Sloane_, Jun 04 2012",
			"ext": [
				"a(7) from _Alois P. Heinz_, Jul 11 2012"
			],
			"references": 1,
			"revision": 12,
			"time": "2016-05-24T05:46:12-04:00",
			"created": "2012-06-04T12:43:16-04:00"
		}
	]
}