{
	"greeting": "Greetings from The On-Line Encyclopedia of Integer Sequences! http://oeis.org/",
	"query": "id:A213872",
	"count": 1,
	"start": 0,
	"results": [
		{
			"number": 213872,
			"data": "1,3628800,654729075,89575852312675,140633739174235040170,961415357313559098150122721,18131599140232990157442722880124741,725168149513389307543056971716033431701831,51960277212541922189750307005207837858451630919380",
			"name": "Number of words w where each letter of the 10-ary alphabet occurs n times and for every prefix z of w we have #(z,a_i) = 0 or #(z,a_i) \u003e= #(z,a_j) for all j\u003ei and #(z,a_i) counts the occurrences of the i-th letter in z.",
			"example": [
				"a(0) = 1: the empty word.",
				"a(1) = 3628800: all permutations of 10 letters."
			],
			"xref": [
				"Column k=10 of A213275."
			],
			"keyword": "nonn",
			"offset": "0,2",
			"author": "_Alois P. Heinz_, Jun 23 2012",
			"references": 1,
			"revision": 4,
			"time": "2012-06-25T14:19:33-04:00",
			"created": "2012-06-25T14:19:33-04:00"
		}
	]
}