{
	"greeting": "Greetings from The On-Line Encyclopedia of Integer Sequences! http://oeis.org/",
	"query": "id:A213586",
	"count": 1,
	"start": 0,
	"results": [
		{
			"number": 213586,
			"data": "1,6,20,51,112,224,421,758,1324,2263,3808,6336,10457,17158,28036,45675,74256,120544,195485,316790,513116,830831,1344960,2176896,3523057,5701254,9225716,14928483,24155824,39086048,63243733,102331766",
			"name": "Antidiagonal sums of the convolution array A213584.",
			"comment": [
				"a(n) is the number of bit strings of length n+5 with the pattern 01 at least thrice, and without the pattern 110, see example. - _John M. Campbell_, Jan 25 2013"
			],
			"link": [
				"Clark Kimberling, \u003ca href=\"/A213586/b213586.txt\"\u003eTable of n, a(n) for n = 1..500\u003c/a\u003e",
				"\u003ca href=\"/index/Rec#order_05\"\u003eIndex entries for linear recurrences with constant coefficients\u003c/a\u003e, signature (4,-5,1,2,-1)."
			],
			"formula": [
				"a(n) = 4*a(n-1) - 5*a(n-2) + a(n-3) + 2*a(n-4) - a(n-5).",
				"G.f.: x*(1 + 2*x + x^2)/((1 - x - x^2)*(1 - x)^3).",
				"a(n) = Fibonacci(n+8) - (21 + 10*n + 2*n^2). - _G. C. Greubel_, Jul 06 2019"
			],
			"example": [
				"From _John M. Campbell_, Jan 25 2013: (Start)",
				"There are a(3) = 20 bit strings of length 3+5 with the pattern 01 at least thrice, and without the pattern 110:",
				"00010101, 00100101, 00101001, 00101010, 00101011,",
				"01000101, 01001001, 01001010, 01001011, 01010001,",
				"01010010, 01010011, 01010100, 01010101, 01010111,",
				"10010101, 10100101, 10101001, 10101010, 10101011.",
				"(End)"
			],
			"mathematica": [
				"(See A213584.)",
				"With[{F = Fibonacci}, Table[F[n+8] -(21+10*n+2*n^2), {n,40}]] (* _G. C. Greubel_, Jul 06 2019 *)"
			],
			"program": [
				"(PARI) vector(40, n, fibonacci(n+8) -(21+10*n+2*n^2)) \\\\ _G. C. Greubel_, Jul 06 2019",
				"(MAGMA) [Fibonacci(n+8) -(21+10*n+2*n^2): n in [1..40]]; // _G. C. Greubel_, Jul 06 2019",
				"(Sage) [fibonacci(n+8) -(21+10*n+2*n^2) for n in (1..40)] # _G. C. Greubel_, Jul 06 2019",
				"(GAP) List([1..40], n-\u003e Fibonacci(n+8) -(21+10*n+2*n^2)) # _G. C. Greubel_, Jul 06 2019"
			],
			"xref": [
				"Cf. A213500, A213584, A213590."
			],
			"keyword": "nonn,easy",
			"offset": "1,2",
			"author": "_Clark Kimberling_, Jun 18 2012",
			"references": 5,
			"revision": 16,
			"time": "2019-07-06T18:59:31-04:00",
			"created": "2012-07-17T04:00:15-04:00"
		}
	]
}