{
	"greeting": "Greetings from The On-Line Encyclopedia of Integer Sequences! http://oeis.org/",
	"query": "id:A214038",
	"count": 1,
	"start": 0,
	"results": [
		{
			"number": 214038,
			"data": "34,23,16,13,347,225,142,109,298,146,74,46,2347,1842,1526,1387,2008,1001,663,669,19287,16735,15113,13878,6131,9444,7697,8612,15246,6758,5858,8496,163666,141849,126129,112049,132636,81112,65551,67006,118724,58677,60918,87046",
			"name": "Irregular array T(n,k) of the numbers of non-extendable (complete) non-self-adjacent simple paths starting at each of a minimal subset of nodes within a square lattice bounded by rectangles with nodal dimensions n and 8, n \u003e= 2.",
			"comment": [
				"The subset of nodes is contained in the top left-hand quarter of the rectangle and has nodal dimensions floor((n+1)/2) and 4 to capture all geometrically distinct counts.",
				"The quarter-rectangle is read by rows.",
				"The irregular array of numbers is:",
				"...k......1......2......3......4......5......6......7......8......9.....10.....11.....12",
				".n",
				".2.......34.....23.....16.....13",
				".3......347....225....142....109....298....146.....74.....46",
				".4.....2347...1842...1526...1387...2008...1001....663....669",
				".5....19287..16735..15113..13878...6131...9444...7697...8612..15246...6758...5858...8496",
				".6...163666.141849.126129.112049.132636..81112..65551..67006.118724..58677..60918..87046",
				"where k indicates the position of the start node in the quarter-rectangle.",
				"For each n, the maximum value of k is 4*floor((n+1)/2).",
				"Reading this array by rows gives the sequence."
			],
			"link": [
				"C. H. Gribble, \u003ca href=\"https://oeis.org/wiki/Complete_non-self-adjacent_paths:Results_for_Square_Lattice\"\u003eComputed characteristics of complete non-self-adjacent paths in a square lattice bounded by various sizes of rectangle.\u003c/a\u003e",
				"C. H. Gribble, \u003ca href=\"https://oeis.org/wiki/Complete non-self-adjacent paths:Program\"\u003eComputes characteristics of complete non-self-adjacent paths in square and cubic lattices bounded by various sizes of rectangle and rectangular cuboid respectively.\u003c/a\u003e"
			],
			"example": [
				"When n = 2, the number of times (NT) each node in the rectangle is the start node (SN) of a complete non-self-adjacent simple path is",
				"SN  0  1  2  3  4  5  6  7",
				"    8  9 10 11 12 13 14 15",
				"NT 34 23 16 13 13 16 23 34",
				"   34 23 16 13 13 16 23 34",
				"To limit duplication, only the top left-hand corner 34 and the 23, 16 and 13 to its right are stored in the sequence, i.e. T(2,1) = 34, T(2,2) = 23, T(2,3) = 16 and T(2,4) = 13."
			],
			"xref": [
				"Cf. A213106, A213249, A213425, A213478, A213954, A214022, A214023, A214025, A214037"
			],
			"keyword": "nonn,tabf",
			"offset": "2,1",
			"author": "_Christopher Hunt Gribble_, Jul 01 2012",
			"references": 3,
			"revision": 11,
			"time": "2012-07-03T15:54:59-04:00",
			"created": "2012-07-03T15:54:59-04:00"
		}
	]
}