{
	"greeting": "Greetings from The On-Line Encyclopedia of Integer Sequences! http://oeis.org/",
	"query": "id:A214655",
	"count": 1,
	"start": 0,
	"results": [
		{
			"number": 214655,
			"data": "3,5,29,54799",
			"name": "Numbers n such that 25^n - 24^n is prime or a strong pseudoprime.",
			"comment": [
				"All terms are prime.",
				"No other terms less than 10^5. - _Robert Price_, Jul 24 2012"
			],
			"mathematica": [
				"Select[Range[10^5], PrimeQ[25^#-24^# ]\u0026]"
			],
			"xref": [
				"Cf. A000043, A057468, A059801, A059802, A059803, A062572-A062589, A214658, A062592-A062666."
			],
			"keyword": "nonn,hard,bref,more",
			"offset": "1,1",
			"author": "_Robert Price_, Jul 24 2012",
			"ext": [
				"Edited by _M. F. Hasler_, Sep 21 2013"
			],
			"references": 3,
			"revision": 10,
			"time": "2015-10-17T07:48:38-04:00",
			"created": "2012-07-24T14:49:47-04:00"
		}
	]
}