{
	"greeting": "Greetings from The On-Line Encyclopedia of Integer Sequences! http://oeis.org/",
	"query": "id:A214290",
	"count": 1,
	"start": 0,
	"results": [
		{
			"number": 214290,
			"data": "131113,137713,172217,178817,179917,191119,215521,233323,235523,271127,272227,278827,293329,313331,317731,319931,377737,392239,437743,472247,476647,491149,511151,512251,533353,571157,575557,577757,578857,599959,617761,635563,677767",
			"name": "Primes of the form XYYX, where Y is a single digit.",
			"link": [
				"Vincenzo Librandi, \u003ca href=\"/A214290/b214290.txt\"\u003eTable of n, a(n) for n = 1..1000\u003c/a\u003e"
			],
			"mathematica": [
				"f[n_]:=Block[{len=Floor[Log[10,n]+1]},Select[10^(2+len) n+10^len*Table[k (10^2-1)/9,{k,9}]+n,PrimeQ@#\u0026]];Array[f,1009]//Flatten",
				"Select[Flatten[Table[FromDigits[Join[IntegerDigits[n],PadRight[{},2,i], IntegerDigits[ n]]],{n,70},{i,9}]],PrimeQ] (* _Harvey P. Dale_, Jan 27 2015 *)"
			],
			"program": [
				"(MAGMA) m:=2; [p: d in [1..9], n in [1..70 by 2] | IsPrime(p) where p is n*(10^(m+t)+1)+d*10^t*(10^m-1) div 9 where t is #Intseq(n)]; // _Vincenzo Librandi_, Sep 14 2013"
			],
			"xref": [
				"Cf. A154270, A162423."
			],
			"keyword": "nonn,base",
			"offset": "1,1",
			"author": "_Vincenzo Librandi_, Jul 26 2012",
			"references": 6,
			"revision": 19,
			"time": "2015-01-27T13:43:17-05:00",
			"created": "2012-07-26T03:39:25-04:00"
		}
	]
}