{
	"greeting": "Greetings from The On-Line Encyclopedia of Integer Sequences! http://oeis.org/",
	"query": "id:A214471",
	"count": 1,
	"start": 0,
	"results": [
		{
			"number": 214471,
			"data": "1,260,260,260,260,260,260,300,819,819,819,2275,2275,2275,2275,2808,5460,5460,5460,5460,5460,5460,9450,17550,18200,18200,18200,18200,18200,23400,23400,23400,23400,23400,23400,24192,27300,29120,29120,29120,29120,29120",
			"name": "Degrees of irreducible representations of orthogonal group O8+(3).",
			"reference": [
				"J. H. Conway, R. T. Curtis, S. P. Norton, R. A. Parker and R. A. Wilson, ATLAS of Finite Groups. Oxford Univ. Press, 1985."
			],
			"link": [
				"Eric M. Schmidt, \u003ca href=\"/A214471/b214471.txt\"\u003eTable of n, a(n) for n = 1..114\u003c/a\u003e (complete sequence)"
			],
			"program": [
				"(GAP) List(Irr(CharacterTable(\"O8+(3)\")), chi-\u003echi[1]);"
			],
			"keyword": "nonn,fini,full",
			"offset": "1,2",
			"author": "_Eric M. Schmidt_, Jul 18 2012",
			"references": 1,
			"revision": 6,
			"time": "2013-02-12T18:12:01-05:00",
			"created": "2012-07-19T04:36:31-04:00"
		}
	]
}