{
	"greeting": "Greetings from The On-Line Encyclopedia of Integer Sequences! http://oeis.org/",
	"query": "id:A214246",
	"count": 1,
	"start": 0,
	"results": [
		{
			"number": 214246,
			"data": "1,1,1,1,1,2,1,1,2,2,1,1,2,4,3,1,1,2,2,6,2,1,1,2,2,5,11,4,1,1,2,2,3,5,17,2,1,1,2,2,3,4,10,29,4,1,1,2,2,3,2,7,10,47,3,1,1,2,2,3,2,6,8,21,78,4,1,1,2,2,3,2,4,5,9,22,130,2",
			"name": "Number A(n,k) of compositions of n where differences between neighboring parts are in {-k,0,k}; square array A(n,k), n\u003e=0, k\u003e=0, read by antidiagonals.",
			"link": [
				"Alois P. Heinz, \u003ca href=\"/A214246/b214246.txt\"\u003eAntidiagonals n = 0..140, flattened\u003c/a\u003e"
			],
			"example": [
				"A(3,0) = 2: [3], [1,1,1].",
				"A(4,1) = 6: [4], [2,2], [2,1,1], [1,2,1], [1,1,2], [1,1,1,1].",
				"A(5,2) = 5: [5], [3,1,1], [1,3,1], [1,1,3], [1,1,1,1,1].",
				"A(6,3) = 7: [6], [4,1,1], [3,3], [2,2,2], [1,4,1], [1,1,4], [1,1,1,1,1,1].",
				"Square array A(n,k) begins:",
				"  1,  1,  1,  1,  1,  1,  1,  1, ...",
				"  1,  1,  1,  1,  1,  1,  1,  1, ...",
				"  2,  2,  2,  2,  2,  2,  2,  2, ...",
				"  2,  4,  2,  2,  2,  2,  2,  2, ...",
				"  3,  6,  5,  3,  3,  3,  3,  3, ...",
				"  2, 11,  5,  4,  2,  2,  2,  2, ...",
				"  4, 17, 10,  7,  6,  4,  4,  4, ...",
				"  2, 29, 10,  8,  5,  4,  2,  2, ..."
			],
			"maple": [
				"b:= proc(n, i, k) option remember;",
				"      `if`(n\u003c1 or i\u003c1, 0, `if`(n=i, 1, add(b(n-i, i+j, k), j={-k, 0, k})))",
				"    end:",
				"A:= (n, k)-\u003e `if`(n=0, 1, add(b(n, j, k), j=1..n)):",
				"seq(seq(A(n, d-n), n=0..d), d=0..15);"
			],
			"mathematica": [
				"b[n_, i_, k_] := b[n, i, k] = If[n \u003c 1 || i \u003c 1, 0, If[n == i, 1, Sum[b[n - i, i + j, k], {j, Union[{-k, 0, k}]}]]]; A[n_, k_] := If[n == 0, 1, Sum[b[n, j, k], {j, 1, n}]]; Table[Table[A[n, d - n], {n, 0, d}], {d, 0, 15}] // Flatten (* _Jean-François Alcover_, Dec 27 2013, translated from Maple *)"
			],
			"xref": [
				"Column k=0 and main diagonal give: A000005.",
				"Columns k=1, 2 give: A034297, A214253.",
				"Cf. A214247, A214248, A214249, A214257, A214258, A214268, A214269."
			],
			"keyword": "nonn,tabl",
			"offset": "0,6",
			"author": "_Alois P. Heinz_, Jul 08 2012",
			"references": 10,
			"revision": 20,
			"time": "2018-12-31T07:30:39-05:00",
			"created": "2012-07-10T09:14:48-04:00"
		}
	]
}