{
	"greeting": "Greetings from The On-Line Encyclopedia of Integer Sequences! http://oeis.org/",
	"query": "id:A214816",
	"count": 1,
	"start": 0,
	"results": [
		{
			"number": 214816,
			"data": "1,2,5,20,96,644,5839,67834,970568,16256556,308620966,6506035400",
			"name": "Number of unsensed maps with n edges on a surface of genus g, summed on g = 0 through [n/2]..",
			"link": [
				"Timothy R. Walsh, \u003ca href=\"http://www.info2.uqam.ca/~walsh_t/papers/GENERATING NONISOMORPHIC.pdf\"\u003eSpace-efficient generation of nonisomorphic maps and hypermaps\u003c/a\u003e",
				"T. R. Walsh, \u003ca href=\"https://cs.uwaterloo.ca/journals/JIS/VOL18/Walsh/walsh3.html\"\u003eSpace-Efficient Generation of Nonisomorphic Maps and Hypermaps\u003c/a\u003e, J. Int. Seq. 18 (2015) # 15.4.3"
			],
			"xref": [
				"Cf. A006385, A006387, A214814, A214815, A214816."
			],
			"keyword": "nonn",
			"offset": "0,2",
			"author": "_N. J. A. Sloane_, Jul 31 2012",
			"references": 7,
			"revision": 9,
			"time": "2018-04-05T22:44:34-04:00",
			"created": "2012-07-31T23:12:56-04:00"
		}
	]
}