{
	"greeting": "Greetings from The On-Line Encyclopedia of Integer Sequences! http://oeis.org/",
	"query": "id:A214877",
	"count": 1,
	"start": 0,
	"results": [
		{
			"number": 214877,
			"data": "1,1,4,27,256,3125,46656,823543,16777216,387420489,1,11,144,2197,38416,759375,16777216,410338673,11019960576,322687697779,1,21,484,12167,331776,9765625,308915776,10460353203,377801998336,14507145975869,1,31,1024,35937,1336336",
			"name": "n ^ (last digit of n).",
			"comment": [
				"For n\u003c=20, a(n) = A067041(n)."
			],
			"link": [
				"Harvey P. Dale, \u003ca href=\"/A214877/b214877.txt\"\u003eTable of n, a(n) for n = 0..1000\u003c/a\u003e"
			],
			"example": [
				"a(13) = 13**3 = 2197."
			],
			"mathematica": [
				"Join[{1},Table[n^Mod[n,10],{n,40}]] (* _Harvey P. Dale_, Dec 21 2020 *)"
			],
			"program": [
				"(Python)",
				"for n in range(44):",
				"    print n ** (n%10),"
			],
			"xref": [
				"Cf. A063462, A067041. Different from A000312!"
			],
			"keyword": "nonn,base,easy",
			"offset": "0,3",
			"author": "_Alex Ratushnyak_, Jul 29 2012",
			"references": 1,
			"revision": 12,
			"time": "2020-12-21T15:01:36-05:00",
			"created": "2012-07-29T12:04:34-04:00"
		}
	]
}