{
	"greeting": "Greetings from The On-Line Encyclopedia of Integer Sequences! http://oeis.org/",
	"query": "id:A214096",
	"count": 1,
	"start": 0,
	"results": [
		{
			"number": 214096,
			"data": "3,4,7,8,18,19,27,28,36,39,50,50,53,70,71,72,77,85,105,105,106,108,110,111,114,143,144,144,149,149,153,161,165,172,173,173,226,228,228,229,231,232,236,237,238,245,245,246,248,300,300,301,302,303,315,315",
			"name": "Smallest m such that prime(i) + prime(i-1) \u003c prime(2*i-n) for all i\u003e=m.",
			"comment": [
				"Formula given in Deléglise and Nicolas, Lemma 2.4, p.6. A002809 and A159685 are given explicitly on p.2.  Additional values given: a(3675) = 33127."
			],
			"link": [
				"Jean-François Alcover, \u003ca href=\"/A214096/b214096.txt\"\u003eTable of n, a(n) for n = 1..3675\u003c/a\u003e",
				"Marc Deléglise, Jean-Louis Nicolas, \u003ca href=\"http://arxiv.org/abs/1207.0603\"\u003eMaximal product of primes whose sum is bounded\u003c/a\u003e, arXiv:1207.0603v1 [math.NT], June 3, 2012."
			],
			"formula": [
				"a(n) is minimal such that prime(i) + prime(i-1) \u003c prime(2*i-n) for i \u003e= a(n)."
			],
			"mathematica": [
				"a[1] = 3;",
				"a[n_] := a[n] = Module[{}, For[m = a[n-1], True, m++, If[AllTrue[Range[m, 2 m], Prime[#] + Prime[# - 1] \u003c Prime[2# - n]\u0026], Return[m]]]];",
				"Table[Print[n, \" \", a[n]]; a[n], {n, 1, 100}] (* _Jean-François Alcover_, Nov 27 2018 *)"
			],
			"xref": [
				"Cf. A000040, A002809, A159685."
			],
			"keyword": "nonn",
			"offset": "1,1",
			"author": "_Jonathan Vos Post_, Jul 04 2012",
			"ext": [
				"More terms from _Alois P. Heinz_, Jul 07 2012"
			],
			"references": 1,
			"revision": 17,
			"time": "2018-11-27T16:16:50-05:00",
			"created": "2012-07-09T08:04:12-04:00"
		}
	]
}