{
	"greeting": "Greetings from The On-Line Encyclopedia of Integer Sequences! http://oeis.org/",
	"query": "id:A214356",
	"count": 1,
	"start": 0,
	"results": [
		{
			"number": 214356,
			"data": "16814,3778867,205613460,5193620491,79817831414,861351043995,7118347901224,47699363705707,269726763260946,1325185747304093,5782740500683900,22798874223531873,82318717666693690,275194896097342957",
			"name": "Number of 6X6X6 triangular 0..n arrays with no element lying outside the (possibly reversed) range delimited by its sw and se neighbors",
			"comment": [
				"Row 6 of A214352"
			],
			"link": [
				"R. H. Hardin, \u003ca href=\"/A214356/b214356.txt\"\u003eTable of n, a(n) for n = 1..19\u003c/a\u003e"
			],
			"example": [
				"Some solutions for n=1",
				".......0............0............1............0............1............0",
				"......0.0..........0.0..........1.0..........0.0..........0.1..........1.0",
				".....0.0.1........0.0.0........1.0.0........1.0.0........0.1.0........1.0.0",
				"....1.0.1.1......1.0.0.1......1.0.0.0......0.1.0.0......0.1.0.0......1.1.0.0",
				"...0.1.0.1.0....1.0.0.1.1....0.1.0.0.0....1.0.1.0.1....0.1.1.0.1....0.1.1.0.0",
				"..0.1.0.0.1.0..1.1.0.0.1.0..1.0.1.0.0.1..1.0.0.1.0.1..0.0.1.1.0.1..0.1.1.0.1.0"
			],
			"keyword": "nonn",
			"offset": "1,1",
			"author": "_R. H. Hardin_ Jul 13 2012",
			"references": 1,
			"revision": 6,
			"time": "2012-07-13T06:39:39-04:00",
			"created": "2012-07-13T06:36:34-04:00"
		}
	]
}