{
	"greeting": "Greetings from The On-Line Encyclopedia of Integer Sequences! http://oeis.org/",
	"query": "id:A214052",
	"count": 1,
	"start": 0,
	"results": [
		{
			"number": 214052,
			"data": "1,2,1,4,1,6,1,2,1,1,1,5,1,2,1,1,1,18,1,6,1,22,1,24,1,26,1,1,1,4,1,32,1,34,1,2,1,2,1,1,1,42,1,2,1,1,1,48,1,2,1,1,1,4,1,1,1,2,1,5,1,2,1,1,1,66,1,2,1,70,1,72,1,2,1,1,1,2,1,2,1,82,1",
			"name": "Least m\u003e0 such that prime(n)+m and n-m have a common divisor \u003e 1.",
			"link": [
				"Clark Kimberling, \u003ca href=\"/A214052/b214052.txt\"\u003eTable of n, a(n) for n = 1..1000\u003c/a\u003e"
			],
			"example": [
				"prime(8)=19; gcd(19+1,8-1)=1 and gcd(19+2,8-2)=3, so a(8)=2."
			],
			"mathematica": [
				"b[n_]:=Prime[n];c[n_]:=n; Table[m=1;While[GCD[b[n]+m,c[n]-m]==1,m++];m,{n,100}]"
			],
			"keyword": "nonn",
			"offset": "1,2",
			"author": "_Clark Kimberling_, Jul 20 2012",
			"references": 3,
			"revision": 9,
			"time": "2012-07-26T13:58:20-04:00",
			"created": "2012-07-26T13:58:20-04:00"
		}
	]
}