{
	"greeting": "Greetings from The On-Line Encyclopedia of Integer Sequences! http://oeis.org/",
	"query": "id:A214744",
	"count": 1,
	"start": 0,
	"results": [
		{
			"number": 214744,
			"data": "1,2,2,3,4,3,4,3,1,8,6,6,8,8,6,4,6,4,4,6,4,4,3,15,18,2,2,3,3,15,18,15,22,17,18,15,14,15,14,17,18,11,14,15,22,11,6,7,8,9,8,11,45,7,6,45,46,7,54,9,6,42,45,46,4,42,1,30,42,45,45,42,42,42,45,45,42,45,42",
			"name": "Least m\u003e0 such that n-m divides prime(n)-prime(m).",
			"link": [
				"Clark Kimberling, \u003ca href=\"/A214744/b214744.txt\"\u003eTable of n, a(n) for n = 2..1000\u003c/a\u003e"
			],
			"example": [
				"Write x#y if x|y is false; then 7#17, 6#16, 5#14, 4#12, so a(8) = 4."
			],
			"mathematica": [
				"Table[m = 1; While[! Divisible[Prime[n]-Prime[m],n-m], m++]; m, {n, 2, 100}]"
			],
			"xref": [
				"Cf. A214743, A214737."
			],
			"keyword": "nonn,easy",
			"offset": "2,2",
			"author": "_Clark Kimberling_, Jul 29 2012",
			"references": 1,
			"revision": 5,
			"time": "2012-08-01T14:11:48-04:00",
			"created": "2012-08-01T14:11:48-04:00"
		}
	]
}