{
	"greeting": "Greetings from The On-Line Encyclopedia of Integer Sequences! http://oeis.org/",
	"query": "id:A214447",
	"count": 1,
	"start": 0,
	"results": [
		{
			"number": 214447,
			"data": "1,-2,0,40,0,-4032,0,933504,0,-385848320,0,249576198144,0,-232643283353600,0,295306112919306240,0,-489743069731226910720,0,1028154317960939805081600,0,-2665182817368374114506506240,0,8360422228704533182913131315200",
			"name": "(-2)^n * Euler_polynomial(n,1) * binomial(2*n,n).",
			"comment": [
				"Central column of the Euler tangent triangle, a(n) = A081733(2*n,n).",
				"Also a(n) = -A162660(2*n,n) for n \u003e 0. - _Peter Luschny_, Jul 23 2012"
			],
			"formula": [
				"a(n) = [x^n](skp(2*n,x+1)-skp(2*n,x-1))/2) where skp(n,x) are the Swiss-Knife polynomials A153641.",
				"a(n) = (n+1)*2^n*(2*n-1)!!*sum_{k=1..n}sum_{j=0..k}(-1)^(k-j)*(k-j)^n/(j!*(n-j+1)!)  for n \u003e 0. - _Peter Luschny_, Jul 23 2012"
			],
			"maple": [
				"A214447 := n -\u003e binomial(2*n,n)*(-2)^n*euler(n,1):",
				"seq(A214447(n), n=0..23);"
			],
			"program": [
				"(Sage)",
				"from mpmath import mp, fac2",
				"mp.dps = 32",
				"def A214447(n) : return (n+1)*2^n*fac2(2*n-1)*add(add((-1)^(k-j)*(k-j)^n / (factorial(j)*factorial(n-j+1)) for j in (0..k)) for k in (1..n))",
				"print([int(A214447(n)) for n in (0..19)]) # _Peter Luschny_, Jul 23 2012"
			],
			"xref": [
				"A081733, A214445."
			],
			"keyword": "sign",
			"offset": "0,2",
			"author": "_Peter Luschny_, Jul 18 2012",
			"references": 2,
			"revision": 13,
			"time": "2020-03-19T16:37:01-04:00",
			"created": "2012-07-18T19:51:58-04:00"
		}
	]
}