{
	"greeting": "Greetings from The On-Line Encyclopedia of Integer Sequences! http://oeis.org/",
	"query": "id:A214173",
	"count": 1,
	"start": 0,
	"results": [
		{
			"number": 214173,
			"data": "3603244,21350933122,844765198701963,21270302008568180976,596564503952723786971771,16284478223702596964357330050,447626221877601232419684702588971",
			"name": "Number of 0..5 colorings of a 7X(n+1) array circular in the n+1 direction with new values 0..5 introduced in row major order",
			"comment": [
				"Row 7 of A214166"
			],
			"example": [
				"Some solutions for n=4",
				"..0..1..2..0..1....0..1..0..1..2....0..1..0..1..2....0..1..0..1..2",
				"..1..0..1..2..0....1..3..1..0..3....1..2..1..2..3....1..0..1..0..3",
				"..2..3..2..3..4....4..1..5..4..0....2..0..2..1..0....4..3..2..4..2",
				"..4..5..1..0..5....5..2..0..5..1....3..4..5..0..4....5..2..4..2..0",
				"..2..1..5..4..0....1..0..3..4..3....4..2..4..5..3....2..1..5..4..5",
				"..5..4..0..1..4....4..5..1..0..1....2..1..0..1..0....1..5..4..5..4",
				"..0..5..4..5..1....2..0..3..2..4....3..0..3..2..1....4..0..3..1..2"
			],
			"keyword": "nonn",
			"offset": "1,1",
			"author": "_R. H. Hardin_ Jul 05 2012",
			"references": 0,
			"revision": 3,
			"time": "2012-07-05T21:38:28-04:00",
			"created": "2012-07-05T21:38:28-04:00"
		}
	]
}