{
	"greeting": "Greetings from The On-Line Encyclopedia of Integer Sequences! http://oeis.org/",
	"query": "id:A215808",
	"count": 1,
	"start": 0,
	"results": [
		{
			"number": 215808,
			"data": "3,3,17,41,47,67,151,167,199,227,251,257,347,367,557,587,601,607,641,647,727,941,971,1051,1091,1097,1117,1181,1217,1277,1361,1427,1447,1447,1487,1487,1499,1607,1697,1741,1747,1741,1777,1877,1901,2087,2143,2281",
			"name": "Primes of the form 2*prime(k) - prime(k+1).",
			"comment": [
				"Corresponding values of k: 3, 4, 9, 15, 16, 21, 37, 40, 47, 51, 55, 56, 71, 74, 103 (A216075)."
			],
			"link": [
				"Zak Seidov, \u003ca href=\"/A215808/b215808.txt\"\u003eTable of n, a(n) for n = 1..1000\u003c/a\u003e"
			],
			"example": [
				"k=3: 2*5-7=3, k=4: 2*7-11=3, k=9: 2*23-29=17."
			],
			"mathematica": [
				"pr=Prime[Range[1000]]; s=Select[2*Most[pr]-Rest[pr],PrimeQ]",
				"Select[2#[[1]]-#[[2]]\u0026/@Partition[Prime[Range[500]],2,1],PrimeQ] (* _Harvey P. Dale_, Feb 25 2017 *)"
			],
			"xref": [
				"Cf. A062234, A085704, A094104, A094105, A216075."
			],
			"keyword": "nonn",
			"offset": "1,1",
			"author": "_Zak Seidov_, Sep 06 2012",
			"references": 3,
			"revision": 48,
			"time": "2017-02-25T14:06:31-05:00",
			"created": "2012-09-07T17:06:25-04:00"
		}
	]
}