{
	"greeting": "Greetings from The On-Line Encyclopedia of Integer Sequences! http://oeis.org/",
	"query": "id:A215373",
	"count": 1,
	"start": 0,
	"results": [
		{
			"number": 215373,
			"data": "2,3,5,19,41,43,59,79,97,101,139,157,173,193,211,233,269,271,307,347,367,383,401,421,439,443,461,499,557,613,709,727,743,823,839,857,877,937,953,971,991,1009,1013,1031,1051,1069,1123,1181,1237,1259,1279,1297",
			"name": "Primes congruent to {0, 2, 3, 5, 6} mod 19.",
			"link": [
				"Vincenzo Librandi, \u003ca href=\"/A215373/b215373.txt\"\u003eTable of n, a(n) for n = 1..1000\u003c/a\u003e"
			],
			"mathematica": [
				"Select[Prime[Range[400]],MemberQ[{0,2,3,5,6},Mod[#,19]]\u0026]"
			],
			"program": [
				"(MAGMA) [p: p in PrimesUpTo(1500) | p mod 19 in [0, 2, 3, 5, 6]];"
			],
			"xref": [
				"Cf. A000040, A042992, A045469."
			],
			"keyword": "nonn,easy",
			"offset": "1,1",
			"author": "_Vincenzo Librandi_, Aug 09 2012",
			"references": 1,
			"revision": 4,
			"time": "2012-08-09T03:45:17-04:00",
			"created": "2012-08-09T03:45:17-04:00"
		}
	]
}