{
	"greeting": "Greetings from The On-Line Encyclopedia of Integer Sequences! http://oeis.org/",
	"query": "id:A215422",
	"count": 1,
	"start": 0,
	"results": [
		{
			"number": 215422,
			"data": "1,1,2,5,10,22,44,88,177,355,710,1421,2843,5687,11374,22748,45497,90995,181991,363982,727965,1455930,2911861,5823723,11647446,23294892,46589786,93179572,186359144,372718289",
			"name": "Length of binary representation of Fibonacci(2^n).",
			"comment": [
				"a(n+1)/a(n)-\u003e2 as n-\u003einfinity."
			],
			"formula": [
				"a(n) = A070939(A000045(A000079(n))).",
				"a(n) = 2^n * log_2 phi + O(1). - _Charles R Greathouse IV_, Jun 05 2013"
			],
			"mathematica": [
				"IntegerLength[Fibonacci[2^Range[0,30]],2] (* _Harvey P. Dale_, Apr 10 2019 *)"
			],
			"program": [
				"(Python)",
				"TOP = 33",
				"fib2m1 = [0]*TOP  # Fibonacci(2^n-1)",
				"fib2   = [1]*TOP  # Fibonacci(2^n)",
				"print(1, end=',')",
				"for n in range(1,TOP):",
				"    fib2[n]   = (2*fib2m1[n-1] + fib2[n-1])*fib2[n-1]",
				"    fib2m1[n] = fib2m1[n-1]*fib2m1[n-1] + fib2[n-1]*fib2[n-1]",
				"    print(len(bin(fib2[n]))-2, end=',')",
				"(PARI) a(n) =  #binary(fibonacci(2^n)) \\\\ _Michel Marcus_, Jun 05 2013"
			],
			"xref": [
				"Cf. A020909, A215367."
			],
			"keyword": "nonn,base",
			"offset": "0,3",
			"author": "_Alex Ratushnyak_, Aug 10 2012",
			"references": 0,
			"revision": 19,
			"time": "2021-05-10T02:36:43-04:00",
			"created": "2012-08-10T14:01:00-04:00"
		}
	]
}