{
	"greeting": "Greetings from The On-Line Encyclopedia of Integer Sequences! http://oeis.org/",
	"query": "id:A215082",
	"count": 1,
	"start": 0,
	"results": [
		{
			"number": 215082,
			"data": "0,1,1,3,4,5,8,12,17,23,35,43,66,81,124,148,229,266,414,476,742,842,1318,1478,2320,2581,4059,4481,7062,7743,12224,13328,21071,22857,36185,39073,61930,66605,105678,113242,179847,192084,305326,325128,517212,549252",
			"name": "Related to Fibonacci numbers, see the Formula section.",
			"link": [
				"Alois P. Heinz, \u003ca href=\"/A215082/b215082.txt\"\u003eTable of n, a(n) for n = 0..1000\u003c/a\u003e"
			],
			"formula": [
				"a(0) = 0, a(1) = 1, a(2) = 1, a(2n) + a(2n+1) = (n+1)*Fibonacci(n+2), a(2n) = a(2n-1) + a(2n-3).",
				"G.f.: x*(2*x^2+1)*(x^3+x+1) / ((x^2-x+1)*(x^2+x+1)*(x^4+x^2-1)^2). - _Alois P. Heinz_, Aug 02 2012"
			],
			"example": [
				"a(2) + a(3) = 2*2 = 4 -\u003e a(3) = 3.",
				"a(4) = a(3) + a(1) = 3 + 1 = 4.",
				"a(4) + a(5) = 3*3 = 9 -\u003e a(5) = 5.",
				"a(6) = a(5) + a(3) = 5 + 3 = 8 , etc."
			],
			"maple": [
				"a:= n-\u003e (Matrix(6, (i, j)-\u003e `if`(i=j-1, 1, `if`(i=6, [-1, -3, -2, 1, 2, 1][j], 0)))^iquo(n, 2, 'r'). `if`(r=0, \u003c\u003c0, 1, 4, 8, 17, 35\u003e\u003e, \u003c\u003c1, 3, 5, 12, 23, 43\u003e\u003e))[1, 1]: seq (a(n), n=0..50);  # _Alois P. Heinz_, Aug 02 2012"
			],
			"xref": [
				"Cf. A000045, A023607."
			],
			"keyword": "nonn,easy",
			"offset": "0,4",
			"author": "_Philippe Deléham_, Aug 02 2012",
			"references": 4,
			"revision": 17,
			"time": "2013-02-22T14:40:39-05:00",
			"created": "2012-08-02T23:20:15-04:00"
		}
	]
}