{
	"greeting": "Greetings from The On-Line Encyclopedia of Integer Sequences! http://oeis.org/",
	"query": "id:A215316",
	"count": 1,
	"start": 0,
	"results": [
		{
			"number": 215316,
			"data": "2,3,5,19,37,53,71,73,89,107,139,157,173,191,223,241,257,277,293,311,359,379,461,463,479,547,563,599,617,631,683,701,719,733,751,769,787,821,853,887,937,971,991,1039,1091,1093,1109,1193,1229,1277,1279,1297",
			"name": "Primes congruent to {2, 3, 4, 5} mod 17.",
			"link": [
				"Vincenzo Librandi, \u003ca href=\"/A215316/b215316.txt\"\u003eTable of n, a(n) for n = 1..1000\u003c/a\u003e"
			],
			"mathematica": [
				"Select[Prime[Range[500]], MemberQ[{2, 3, 4, 5}, Mod[#, 17]] \u0026]"
			],
			"program": [
				"(MAGMA) [p: p in PrimesUpTo(1300) | p mod 17 in [2..5]];"
			],
			"xref": [
				"Cf. A000040, A045308."
			],
			"keyword": "nonn,easy",
			"offset": "1,1",
			"author": "_Vincenzo Librandi_, Aug 08 2012",
			"references": 1,
			"revision": 6,
			"time": "2012-08-27T03:10:07-04:00",
			"created": "2012-08-08T05:57:33-04:00"
		}
	]
}