{
	"greeting": "Greetings from The On-Line Encyclopedia of Integer Sequences! http://oeis.org/",
	"query": "id:A215397",
	"count": 1,
	"start": 0,
	"results": [
		{
			"number": 215397,
			"data": "1,1,1,3,6,26,84,324,1170,4412,16313,61138,227383,849667,3168419,11831104,44144206,164792736,615027929,2295714687",
			"name": "Number of length n 0..4 arrays connected end-around, with no sequence of L\u003cn elements immediately followed by itself (\"periodic squarefree\"), and new values introduced in order 0..4.",
			"comment": [
				"Column 4 of A215401."
			],
			"example": [
				"Some solutions for n=6:",
				"..0....0....0....0....0....0....0....0....0....0....0....0....0....0....0....0",
				"..1....1....1....1....1....1....1....1....1....1....1....1....1....1....1....1",
				"..2....0....2....2....2....2....2....2....2....2....2....2....0....0....2....2",
				"..3....2....3....1....0....3....3....1....3....1....1....3....2....2....0....3",
				"..2....1....1....0....3....1....4....3....4....0....3....0....3....3....1....2",
				"..4....2....3....2....1....2....2....2....3....3....1....4....4....2....3....1"
			],
			"keyword": "nonn",
			"offset": "1,4",
			"author": "_R. H. Hardin_, Aug 09 2012",
			"references": 0,
			"revision": 6,
			"time": "2017-06-26T23:08:02-04:00",
			"created": "2012-08-09T06:03:38-04:00"
		}
	]
}