{
	"greeting": "Greetings from The On-Line Encyclopedia of Integer Sequences! http://oeis.org/",
	"query": "id:A215195",
	"count": 1,
	"start": 0,
	"results": [
		{
			"number": 215195,
			"data": "1,598,1498,54797260",
			"name": "Numbers n such that A143615(n) = sigma(n) where sigma(n) = A000203(n).",
			"comment": [
				"a(5) (if it exists) \u003e 10^8. - _Hiroaki Yamanouchi_, Sep 11 2014"
			],
			"program": [
				"(PARI) isok(n) = sum(m=1, n, if (gcd(n,m)==1, numdiv(m))) == sigma(n); \\\\ _Michel Marcus_, Nov 08 2014"
			],
			"xref": [
				"Cf. A000203, A143615."
			],
			"keyword": "nonn,more",
			"offset": "1,2",
			"author": "_Naohiro Nomoto_, Aug 05 2012",
			"ext": [
				"a(4) from _Hiroaki Yamanouchi_, Sep 11 2014"
			],
			"references": 0,
			"revision": 22,
			"time": "2014-11-09T08:05:53-05:00",
			"created": "2012-08-05T10:34:04-04:00"
		}
	]
}