{
	"greeting": "Greetings from The On-Line Encyclopedia of Integer Sequences! http://oeis.org/",
	"query": "id:A215913",
	"count": 1,
	"start": 0,
	"results": [
		{
			"number": 215913,
			"data": "3,17,352429681,4581585863",
			"name": "Primes of the form 2*!n-1.",
			"comment": [
				"!n is a subfactorial number (A000166). The corresponding n are  {3, 4, 12, 13, 97,...}."
			],
			"example": [
				"The prime 17 =  2* !4 - 1 = 2*9 -1 is in the sequence."
			],
			"maple": [
				"with(numtheory): f:=n-\u003esum(n!*(((-1)^k)*1/k!), k=0..n):for n from 1 to 150 do: if type(2*f(n)-1,prime) = true then printf(`%d, `,2*f(n)-1):else fi:od:"
			],
			"mathematica": [
				"a={}; Do[p= 2* Subfactorial[n]-1; If[PrimeQ[p], AppendTo[a, p]], {n, 0,800}]; Print[a];"
			],
			"xref": [
				"Cf. A006882, A215912."
			],
			"keyword": "nonn",
			"offset": "0,1",
			"author": "_Michel Lagneau_, Aug 26 2012",
			"references": 0,
			"revision": 6,
			"time": "2012-08-26T14:32:15-04:00",
			"created": "2012-08-26T14:32:15-04:00"
		}
	]
}