{
	"greeting": "Greetings from The On-Line Encyclopedia of Integer Sequences! http://oeis.org/",
	"query": "id:A215012",
	"count": 1,
	"start": 0,
	"results": [
		{
			"number": 215012,
			"data": "12,18,20,24,40,56,88,104,180,196,224,234,240,360,368,420,464,540,600,650,780,992,1080,1344,1504,1872,1888,1890,1952,2016,2184,2352,2376,2688,3192,3276,3724,3744,4284,4320,4680",
			"name": "Composite numbers n such that sigma(n)/n leaves a remainder which divides n.",
			"comment": [
				"The numbers and the program were provided by _Charles R Greathouse IV_.",
				"If n belongs to the sequence, then sigma(n)= d*n + rem, so sigma(n)/n = d + rem/n. Since rem is a divisor of n, n = rem*r, thus rem/n = 1/r. Then sigma(n)/n = d + 1/r and contfrac(sigma(n)/n) = [d, r], and length(contfrac(sigma(n)/n)) = 2. That is, A071862(n) = 2. [_Michel Marcus_, Aug 29 2012]"
			],
			"link": [
				"Donovan Johnson, \u003ca href=\"/A215012/b215012.txt\"\u003eTable of n, a(n) for n = 1..1000\u003c/a\u003e"
			],
			"example": [
				"24 has the divisors 1,2,3,4,6,12,24, which sum to be 60. Divide 60 by 24 and the remainder is 12, which is a divisor of 24."
			],
			"mathematica": [
				"a={}; For[n=1, n\u003c=5000, n++, If[!PrimeQ[n], {s=DivisorSigma[1, n]; If[Mod[n, Mod[s,n]] == 0, AppendTo[a,n]]; }]; ]; a  (* _John W. Layman_, Jul 31 2012] *)",
				"Select[Range[5000],CompositeQ[#]\u0026\u0026Mod[#,Mod[DivisorSigma[1,#],#]]==0\u0026] // Quiet (* _Harvey P. Dale_, May 24 2019 *)"
			],
			"program": [
				"(PARI) is(n)=my(t=sigma(n)%n);t \u0026\u0026 n%t==0 \u0026\u0026 !isprime(n)"
			],
			"xref": [
				"Cf. A000203, A071862."
			],
			"keyword": "nonn",
			"offset": "1,1",
			"author": "_J. M. Bergot_, Jul 31 2012",
			"ext": [
				"Terms a(24)-a(41) from _John W. Layman_, Jul 31 2012"
			],
			"references": 2,
			"revision": 24,
			"time": "2019-05-24T17:39:49-04:00",
			"created": "2012-08-02T00:15:32-04:00"
		}
	]
}