{
	"greeting": "Greetings from The On-Line Encyclopedia of Integer Sequences! http://oeis.org/",
	"query": "id:A215044",
	"count": 1,
	"start": 0,
	"results": [
		{
			"number": 215044,
			"data": "0,1,243,32768,4084101,503284375,61917364224,7615646045657,936668172433707,115202670521319424,14168993617568728125,1742671044798615789551,214334370099947863277568,26361384861716322814590193",
			"name": "a(n) = F(2*n)^5 with F=A000045 (Fibonacci numbers).",
			"link": [
				"Vincenzo Librandi, \u003ca href=\"/A215044/b215044.txt\"\u003eTable of n, a(n) for n = 0..200\u003c/a\u003e",
				"\u003ca href=\"/index/Rec\"\u003eIndex entries for linear recurrences with constant coefficients\u003c/a\u003e, signature (144,-2640,6930,-2640,144,-1)."
			],
			"formula": [
				"O.g.f.: x*(1 + 99*x + 416*x^2 + 99*x^3 + x^4)/((1-3*x+x^2)*(1-18*x+x^2)*(1-123*x+x^2)), (from the even part of the bisection of A056572).",
				"a(n) = (5*F(4*n) - 4*F(8*n) + F(12*n))/(5^2*L(2*n)), with L=A000032 (Lucas). See the third row in the signed triangle A039598, called in a general comment S.",
				"a(n) = (10*F(2*n) - 5*F(6*n) + F(10*n))/5^2, from the partial fraction decomposition of the o.g.f. - _Wolfdieter Lang_, Oct 11 2012"
			],
			"mathematica": [
				"Table[Fibonacci[2*n]^5, {n,0,15}] (* _Vincenzo Librandi_, Sep 02 2012 *)"
			],
			"program": [
				"(MAGMA) [Fibonacci(2*n)^5: n in [0..15]] // _Vincenzo Librandi_, Sep 02 2012",
				"(PARI) a(n)=fibonacci(2*n)^5 \\\\ _Charles R Greathouse IV_, Oct 16 2015"
			],
			"xref": [
				"Cf. A000045, A056572, A215045 (odd part)."
			],
			"keyword": "nonn,easy",
			"offset": "0,3",
			"author": "_Wolfdieter Lang_, Aug 31 2012",
			"references": 4,
			"revision": 22,
			"time": "2015-10-16T15:11:54-04:00",
			"created": "2012-08-31T14:22:06-04:00"
		}
	]
}