{
	"greeting": "Greetings from The On-Line Encyclopedia of Integer Sequences! http://oeis.org/",
	"query": "id:A216537",
	"count": 1,
	"start": 0,
	"results": [
		{
			"number": 216537,
			"data": "0,4,5,7,16,17,19,37,53,71,113,353,503,613,1361,4787,8467,10691,14449,19649,51169,56003,81671,94823,159521,183089,193201,344293,532277,616787,637751,692147",
			"name": "Numbers n such that the n-th Lucas number is prime and can be written in the form a^2 + 7*b^2.",
			"link": [
				"Blair Kelly, \u003ca href=\"http://mersennus.net/fibonacci\"\u003eFactorizations of Fibonacci and Lucas numbers\u003c/a\u003e"
			],
			"xref": [
				"Cf. A000032, A001606."
			],
			"keyword": "nonn",
			"offset": "1,2",
			"author": "_V. Raman_, Sep 08 2012",
			"references": 0,
			"revision": 12,
			"time": "2013-05-02T13:07:05-04:00",
			"created": "2012-09-13T15:16:32-04:00"
		}
	]
}