{
	"greeting": "Greetings from The On-Line Encyclopedia of Integer Sequences! http://oeis.org/",
	"query": "id:A216037",
	"count": 1,
	"start": 0,
	"results": [
		{
			"number": 216037,
			"data": "0,0,0,0,0,0,0,0,0,0,0,0,0,2,6,7,28,35,136,168,978,1276,12720",
			"name": "Number of isomorphism classes of unstretchable simplicial arrangements of n pseudolines in the real projective plane that do not satisfy Pappus's theorem.",
			"comment": [
				"Near-pencil arrangements are excluded."
			],
			"link": [
				"M. Cuntz, \u003ca href=\"https://arxiv.org/abs/1108.3000\"\u003eSimplicial Arrangements with up to 27 Lines\u003c/a\u003e, arXiv:1108.3000 [math.CO], 2011.",
				"M. Cuntz, \u003ca href=\"https://doi.org/10.1007/s00454-012-9423-7\"\u003eSimplicial Arrangements with up to 27 Lines\u003c/a\u003e, Discrete Comput. Geom. 48 (2012), no. 3, 682--701. MR2957638."
			],
			"xref": [
				"Cf. A216037, A216038."
			],
			"keyword": "nonn,more",
			"offset": "2,14",
			"author": "_N. J. A. Sloane_, Aug 30 2012",
			"references": 2,
			"revision": 7,
			"time": "2018-05-27T11:56:50-04:00",
			"created": "2012-08-30T11:09:55-04:00"
		}
	]
}