{
	"greeting": "Greetings from The On-Line Encyclopedia of Integer Sequences! http://oeis.org/",
	"query": "id:A216294",
	"count": 1,
	"start": 0,
	"results": [
		{
			"number": 216294,
			"data": "1,1,1,3,3,1,13,14,6,1,73,84,41,10,1,501,609,325,95,15,1,4051,5155,2944,965,190,21,1,37633,49790,30023,10689,2415,343,28,1,394353,539616,340402,129220,32179,5348,574,36,1,4596553,6478521,4246842,1698374,455511,84567,10794,906,45,1",
			"name": "Triangular array read by rows: T(n,k) is the number of partial permutations of {1,2,...,n} that have exactly k cycles, 0\u003c=k\u003c=n.",
			"comment": [
				"A partial permutation on a set X is a bijection between two subsets of X.",
				"Row sums are A002720.",
				"First column (corresponding to k=0) is A000262."
			],
			"link": [
				"Alois P. Heinz, \u003ca href=\"/A216294/b216294.txt\"\u003eRows n = 0..50, flattened\u003c/a\u003e",
				"Philippe Flajolet and Robert Sedgewick, \u003ca href=\"http://algo.inria.fr/flajolet/Publications/AnaCombi/anacombi.html\"\u003eAnalytic Combinatorics\u003c/a\u003e, Cambridge Univ. Press, 2009, page 132."
			],
			"formula": [
				"E.g.f.: exp(x/(1-x))/(1-x)^y.",
				"From _Peter Bala_, Aug 23 2013: (Start)",
				"Exponential Riordan array [exp(x/(1-x)), log(1/(1-x))].",
				"The row polynomials R(n,y), n \u003e = 0, satisfy the 2nd order recurrence equation R(n,y) = (2*n + y - 1)*R(n-1,y) - (n - 1)*(n + y - 2)*R(n-2,y) with R(0,y) = 1 and R(1,y) = 1 + y.",
				"Modulo variations in offset we have: R(n,0) = A000262, R(n,1) = A002720, R(n,2) = A000262, R(n,3) = A052852, R(n,4) = A062147, R(n,5) = A062266 and R(n,6) = A062192. In general, for fixed k, the sequence {R(n,k)}n\u003e=1 gives the entries on a diagonal of the square array A088699. (End)"
			],
			"example": [
				"1;",
				"1,     1;",
				"3,     3,   1;",
				"13,   14,   6,  1;",
				"73,   84,  41, 10,  1;",
				"501, 609, 325, 95, 15,  1;"
			],
			"mathematica": [
				"nn=10;t=Sum[n^(n-1)x^n/n!,{n,1,nn}];f[list_]:=Select[list,#\u003e0\u0026];Map[f,Range[0,nn]!CoefficientList[Series[Exp[ x/(1-x)]/(1-x)^y,{x,0,nn}],{x,y}]]//Flatten"
			],
			"xref": [
				"Cf. A021009. A000262, A002720, A052852, A062147, A062192, A062266, A088699."
			],
			"keyword": "nonn,tabl",
			"offset": "0,4",
			"author": "_Geoffrey Critzer_, Sep 04 2012",
			"references": 5,
			"revision": 42,
			"time": "2014-11-07T05:23:24-05:00",
			"created": "2012-09-05T13:25:30-04:00"
		}
	]
}