{
	"greeting": "Greetings from The On-Line Encyclopedia of Integer Sequences! http://oeis.org/",
	"query": "id:A216590",
	"count": 1,
	"start": 0,
	"results": [
		{
			"number": 216590,
			"data": "1669,1879,2089,2351,4969,5179,6047,10883,11923,12097,12143,12329,12539,12763,13049,13183,15413,15923,16187,16547,16741,17189,17581,18481,19993,20201,21433,21727,22303,22483,23021,23053,23831,24023,24749,25579,25633,26111,26561",
			"name": "Primes p with property that there exists a number d\u003e0 such that numbers p-k*d, k=1...7, are seven primes.",
			"comment": [
				"Conjecture: only 5254157 primes are not in the sequence: 2, 3, ..., 5082095279.",
				"Conjecture: for any k\u003e0 there exists p0 such that for any prime p\u003ep0 there exists a k-term arithmetic progression of primes with p at the end."
			],
			"example": [
				"1669 is in the sequence because with d=210: 1459, 1249, 1039, 829, 619, 409, 199 are all primes."
			],
			"program": [
				"(PARI) is(n)=my(t); forprime(p=2,n-26,if((n-p)%7==0 \u0026\u0026 isprime((t=(n-p)/7)+p) \u0026\u0026 isprime(2*t+p) \u0026\u0026 isprime(3*t+p) \u0026\u0026 isprime(4*t+p) \u0026\u0026 isprime(5*t+p) \u0026\u0026 isprime(6*t+p) \u0026\u0026 isprime(n), return(1))); 0 \\\\ _Charles R Greathouse IV_, Sep 10 2014"
			],
			"xref": [
				"Cf. A216495, A094383, A216497, A216498, A216468."
			],
			"keyword": "nonn",
			"offset": "1,1",
			"author": "_Alex Ratushnyak_, Sep 09 2012",
			"references": 1,
			"revision": 11,
			"time": "2014-09-10T12:26:50-04:00",
			"created": "2012-09-11T12:32:01-04:00"
		}
	]
}