{
	"greeting": "Greetings from The On-Line Encyclopedia of Integer Sequences! http://oeis.org/",
	"query": "id:A216067",
	"count": 1,
	"start": 0,
	"results": [
		{
			"number": 216067,
			"data": "47,107,113,233,263,307,347,353,557,563,677,743,797,953,967,977,1087,1097,1103,1217,1223,1277,1307,1427,1483,1523,1553,1597,1733,1823,1877,1913,1973,2027,2207,2237,2243,2267,2333,2417,2447,2663,2687,2753,2777",
			"name": "Prime numbers p such that p is odd and is congruent to 2 (mod 5) or 3 (mod 5), but the period of the irreducible polynomial x^2-x-1 in GF(p^2) is not 2*(p+1).",
			"link": [
				"V. Raman, \u003ca href=\"/A216067/b216067.txt\"\u003eTable of n, a(n) for n = 1..10000\u003c/a\u003e"
			],
			"example": [
				"47 is in the sequence because the period of the Fibonacci / Lucas numbers (mod 47) = 32, is not 2*(47+1) = 96."
			],
			"program": [
				"(PARI) forprime(p=3,3000,if(p%5==2||p%5==3,a=1;b=0;c=1;while(a!=0||b!=1,c++;d=a;a=b;a=(a+d)%p;b=d%p);if(c!=(2*(p+1)),print1(p\",\")))) \\\\ _V. Raman_, Nov 22 2012"
			],
			"xref": [
				"Cf. A001175, A060305, A071776.",
				"Cf. A071774."
			],
			"keyword": "nonn",
			"offset": "1,1",
			"author": "_V. Raman_, Sep 01 2012",
			"ext": [
				"Definition corrected by _V. Raman_, Nov 22 2012"
			],
			"references": 2,
			"revision": 11,
			"time": "2016-08-19T00:28:00-04:00",
			"created": "2012-09-01T17:06:53-04:00"
		}
	]
}