{
	"greeting": "Greetings from The On-Line Encyclopedia of Integer Sequences! http://oeis.org/",
	"query": "id:A216158",
	"count": 1,
	"start": 0,
	"results": [
		{
			"number": 216158,
			"data": "0,2,6,24,72,220,652,1848,5160,14130,38102,101296,266328,692740,1785524,4563888,11577888,29170128,73032808,181793136,450100760,1108868820,2719167020,6639085968,16144137800,39107596850,94393612782,227062741160,544439640328,1301446217244",
			"name": "The total number of words in all length n finite languages on an alphabet of two letters.",
			"comment": [
				"A finite language is a set of distinct words with size being the total number of letters in all words."
			],
			"link": [
				"Alois P. Heinz, \u003ca href=\"/A216158/b216158.txt\"\u003eTable of n, a(n) for n = 0..1000\u003c/a\u003e",
				"Philippe Flajolet and Robert Sedgewick, \u003ca href=\"http://algo.inria.fr/flajolet/Publications/AnaCombi/anacombi.html\"\u003eAnalytic Combinatorics\u003c/a\u003e, Cambridge Univ. Press, 2009, page 64."
			],
			"formula": [
				"a(n) = Sum_{k\u003e0} k * A208741(n,k)."
			],
			"example": [
				"a(3) = 24 because the sets (languages) are {a,aa}; {a,ab}; {a,ba}; {a,bb}; {b,aa}; {b,ab}; {b,ba}; {b,bb}; {aaa}; {aab}; {aba}; {abb}; {baa}; {bab}; {bba}; {bbb} where the distinct words are separated by commas."
			],
			"maple": [
				"h:= proc(n, i) option remember; `if`(n=0, [1, 0], `if`(i\u003c1, 0, add(",
				"      (p-\u003e p+[0, p[1]*j])(binomial(2^i, j)*h(n-i*j, i-1)), j=0..n/i)))",
				"    end:",
				"a:= n-\u003e h(n$2)[2]:",
				"seq(a(n), n=0..30);  # _Alois P. Heinz_, Sep 24 2017"
			],
			"mathematica": [
				"nn=30;p=Product[(1+y x^i)^(2^i),{i,1,nn}];CoefficientList[Series[D[p,y]/.y-\u003e1,{x,0,nn}],x]"
			],
			"xref": [
				"Cf. A102866."
			],
			"keyword": "nonn",
			"offset": "0,2",
			"author": "_Geoffrey Critzer_, Sep 03 2012",
			"references": 2,
			"revision": 34,
			"time": "2017-09-24T17:29:45-04:00",
			"created": "2012-09-04T14:09:15-04:00"
		}
	]
}