{
	"greeting": "Greetings from The On-Line Encyclopedia of Integer Sequences! http://oeis.org/",
	"query": "id:A216933",
	"count": 1,
	"start": 0,
	"results": [
		{
			"number": 216933,
			"data": "5,606,175869,64697626,25604764159,10284525151080,4096557367365808,1603120459023088062,614279244262328965406,230325185716748014038168,84558986910490382000466700,30431723356332792599455512216",
			"name": "Number of side-n hexagonal 0..4 arrays with values nondecreasing E, SW and SE",
			"comment": [
				"Column 4 of A216937"
			],
			"link": [
				"R. H. Hardin, \u003ca href=\"/A216933/b216933.txt\"\u003eTable of n, a(n) for n = 1..13\u003c/a\u003e"
			],
			"example": [
				"Some solutions for n=3",
				"......0.0.1..........0.0.0..........0.0.0..........0.0.0..........0.0.0",
				".....0.1.1.3........0.1.1.2........0.0.0.1........0.0.1.1........0.0.1.1",
				"....0.1.1.3.3......1.1.2.3.3......0.1.1.4.4......0.0.1.1.4......1.1.1.1.2",
				".....1.2.3.4........2.2.4.4........2.2.4.4........0.3.4.4........2.2.3.4",
				"......3.3.4..........2.4.4..........2.4.4..........3.4.4..........3.4.4"
			],
			"keyword": "nonn",
			"offset": "1,1",
			"author": "_R. H. Hardin_ Sep 20 2012",
			"references": 1,
			"revision": 4,
			"time": "2012-09-20T15:29:56-04:00",
			"created": "2012-09-20T15:29:56-04:00"
		}
	]
}