{
	"greeting": "Greetings from The On-Line Encyclopedia of Integer Sequences! http://oeis.org/",
	"query": "id:A216469",
	"count": 1,
	"start": 0,
	"results": [
		{
			"number": 216469,
			"data": "1,3,0,0,9,5,0,0,0,9,0,0,0,27,0,0,15,0,0,0,0,7,0,0,0,0,0,0,9,29,0,0,0,33,0,0,0,0,0,0,81,41,0,0,0,0,0,0,0,45,0,0,0,53,0,0,0,0,0,0,55,0,0,0,21,65,0,0,0,69,0,0,0,0,0,0,0,0,0,0,0,81,0,0",
			"name": "a(n) = smallest m such that 2n-1 | (2^m+1)/3, or 0 if no such m exists.",
			"mathematica": [
				"Table[s = MultiplicativeOrder[2, 3*(2*n-1), {-1}]; If[IntegerQ[s], s, 0], {n, 100}] (* _T. D. Noe_, Sep 11 2012 *)"
			],
			"program": [
				"(PARI) for(i=0,200,i++;m=0;for(x=0,i,x++;if(((2^x+1)/3)%i==0,m=x;break));print1(m\",\")) \\\\ _V. Raman_, Nov 22 2012"
			],
			"xref": [
				"Cf. A003558, A002326, A216829, A216833.",
				"Cf. A216833 (multiplicative order of 2 mod 3*(2n-1)).",
				"Cf. A216829 (value of the half of the multiplicative order of 2 mod 3*(2n-1))."
			],
			"keyword": "nonn",
			"offset": "1,2",
			"author": "_V. Raman_, Sep 07 2012.",
			"references": 2,
			"revision": 49,
			"time": "2016-08-19T00:28:00-04:00",
			"created": "2012-09-09T11:17:02-04:00"
		}
	]
}