{
	"greeting": "Greetings from The On-Line Encyclopedia of Integer Sequences! http://oeis.org/",
	"query": "id:A216280",
	"count": 1,
	"start": 0,
	"results": [
		{
			"number": 216280,
			"data": "1,1,0,0,0,0,0,0,0,0,0,0,0,0,0,1,1,0,0,0,0,0,0,0,0,0,0,0,0,0,0,1,0,0,0,0,0,0,0,0,0,0,0,0,0,0,0,0,0,0,0,0,0,0,0,0,0,0,0,0,0,0,0,0,0,0,0,0,0,0,0,0,0,0,0,0,0,0,0,0,1,1,0,0,0,0,0,0,0,0,0,0,0,0,0,0,1,0,0,0,0,0,0,0,0,0,0,0,0,0,0,0,0,0,0,0,0,0,0,0",
			"name": "Number of nonnegative solutions to the equation x^4 + y^4 = n.",
			"comment": [
				"The first n with a(n) \u003e 1 is 635318657 = 41 * 113 * 241 * 569, with a(635318657) = 2. Izadi, Khoshnam, \u0026 Nabardi show that for any n with a(n) \u003e 1, the elliptic curve y^2 = x^3 - nx has rank at least 3. According to gp, y^2 = x^3 - 635318657x has analytic rank 4 (and first nonzero derivative around 35741.7839). - _Charles R Greathouse IV_, Jan 12 2017"
			],
			"link": [
				"Antti Karttunen, \u003ca href=\"/A216280/b216280.txt\"\u003eTable of n, a(n) for n = 1..16561\u003c/a\u003e",
				"F. A. Izadi, F. Khoshnam, K. Nabardi, \u003ca href=\"https://arxiv.org/abs/1202.5676\"\u003eSums of two biquadrates and elliptic curves of rank ≥4\u003c/a\u003e (2012). arXiv:1202.5676 [math.NT], 2012.",
				"F. A. Izadi, F. Khoshnam, K. Nabardi, \u003ca href=\"http://www.math.okayama-u.ac.jp/mjou/mjou56/_05_izadi.pdf\"\u003eSums of two biquadrates and elliptic curves of rank ≥ 4\u003c/a\u003e, Math. J. Okayama Univ. 56 (2014), 51-63."
			],
			"mathematica": [
				"Reap[For[n = 1, n \u003c= 1000, n++, r = Reduce[0 \u003c= x \u003c= y \u0026\u0026 x^4 + y^4 == n, {x, y}, Integers]; sols = Which[r === False, 0, r[[0]] == And, 1, r[[0]] == Or, Length[r], True, Print[n, \" \", r]]; If[sols != 0, Print[n, \" \", sols, \" \", r]]; Sow[sols]]][[2, 1]] (* _Jean-François Alcover_, Feb 22 2019 *)"
			],
			"program": [
				"(PARI) a(n)=my(t=thue(thueinit('x^4+1,1),n)); sum(i=1,#t, t[i][1]\u003e=0 \u0026\u0026 t[i][2]\u003e=t[i][1]) \\\\ _Charles R Greathouse IV_, Jan 12 2017",
				"(PARI) first(n)=my(T=thueinit('x^4+1,1),v=vector(n),t); for(k=1,n, t=thue(T,k); v[k]=sum(i=1,#t, t[i][1]\u003e=0 \u0026\u0026 t[i][2]\u003e=t[i][1])); v \\\\ _Charles R Greathouse IV_, Jan 12 2017"
			],
			"xref": [
				"Cf. A025455, A025446, A000161, A025426, A216284.",
				"Cf. A004831 (positions of nonzero terms)."
			],
			"keyword": "nonn",
			"offset": "1,635318657",
			"author": "_V. Raman_, Sep 03 2012",
			"ext": [
				"Offset added by _Charles R Greathouse IV_, Jan 12 2017"
			],
			"references": 2,
			"revision": 22,
			"time": "2019-02-22T05:17:27-05:00",
			"created": "2012-09-03T20:41:29-04:00"
		}
	]
}