{
	"greeting": "Greetings from The On-Line Encyclopedia of Integer Sequences! http://oeis.org/",
	"query": "id:A216638",
	"count": 1,
	"start": 0,
	"results": [
		{
			"number": 216638,
			"data": "1,1,6,9,4,11,110,93,86,130,11,1638,229,3056,268,1510,10118,11477,727,17711,83295,59861,22334,19659,301848,977089,59943,414086,536681,649382",
			"name": "First appearance of the Fibonacci numbers in the decimals of Pi.",
			"comment": [
				"Fibonacci(4) is 3, 3 appears for the first time in decimals of Pi in position 9."
			],
			"mathematica": [
				"p=RealDigits[N[Pi,1000000]-3][[1]];",
				"n[a_,b_]:=FromDigits[Part[p,a;;b]]",
				"h=0;k=0;v={};Do[Do[If[n[a,a]\u003e0,Do[If[Fibonacci[x]n[a,b],h=a;k=b;Goto[sale]],{b,a,Min[a+Length[IntegerDigits[Fibonacci[x]]]-1,Length[p]]}]],{a,Length[p]}];Label[sale];If[h\u003e0,AppendTo[v,h];Print[{h,k,x,Fibonacci[x]}]],{x,1,30}]; v"
			],
			"xref": [
				"Cf. A000796."
			],
			"keyword": "nonn,base",
			"offset": "1,3",
			"author": "_Vicente Izquierdo Gomez_, Sep 11 2012",
			"references": 0,
			"revision": 8,
			"time": "2012-09-12T03:49:13-04:00",
			"created": "2012-09-11T17:48:32-04:00"
		}
	]
}