{
	"greeting": "Greetings from The On-Line Encyclopedia of Integer Sequences! http://oeis.org/",
	"query": "id:A216122",
	"count": 1,
	"start": 0,
	"results": [
		{
			"number": 216122,
			"data": "94698,1317858,10315218,63835698,349594098,1781094258,8661794418,40799683698,187793424498,849479276658,3790907541618,16734956611698,73223518070898,318024922835058,1372613885896818,5892491154499698,25178059222493298,107144508620089458",
			"name": "The Wiener index of the nanostar dendrimer NS[n], defined pictorially in the Ashrafi et al. reference.",
			"comment": [
				"a(1) has been checked by the direct computation of the Wiener index (using Maple)."
			],
			"link": [
				"A. R. Ashrafi and M. Mirzagar, \u003ca href=\"http://nopr.niscair.res.in/handle/123456789/2084\"\u003ePI, Szeged and edge Szeged indices of an infinite family of nanostar dendrimers\u003c/a\u003e, Indian J. of Chemistry, 47A, 2008, 538-541.",
				"M. Rostami, M. Shabanian, and H. Moghanian, \u003ca href=\"http://www.chalcogen.ro/247_Rostami.pdf\"\u003eSome topological indices for theoretical study of two types of nanostar dendrimers\u003c/a\u003e, Digest J. of Nanomaterials and Biostructures, 7, No. 1, 2012, 247-252.",
				"J. Yang, F. Xia, and S. Chen, \u003ca href=\"http://www.m-hikari.com/ijcms-2011/5-8-2011/yangjgIJCMS5-8-2011-2.pdf\"\u003eSecond-order and third-order connectivity indices of an infinite family of dendrimer nanostars\u003c/a\u003e, Int. J. Contemp. Math. Sciences, 6, 2011, No. 5, 215-220.",
				"\u003ca href=\"/index/Rec#order_05\"\u003eIndex entries for linear recurrences with constant coefficients\u003c/a\u003e, signature (13,-64,148,-160,64)."
			],
			"formula": [
				"a(n) = -55182 + 181020*2^n - 125640*4^n -42000*n*2^n +93600*n*4^n.",
				"G.f.: -6*x*(2112*x^4+10912*x^3-126044*x^2+14464*x+15783) / ((x-1)*(2*x-1)^2*(4*x-1)^2). - _Colin Barker_, Apr 01 2013"
			],
			"maple": [
				"a := proc (n) options operator, arrow: -55182+181020*2^n-125640*4^n+93600*4^n*n-42000*2^n*n end proc: seq(a(n), n = 1 .. 18);"
			],
			"xref": [
				"Cf. A216123."
			],
			"keyword": "nonn,easy",
			"offset": "1,1",
			"author": "_Emeric Deutsch_, Mar 25 2013",
			"references": 1,
			"revision": 17,
			"time": "2016-11-14T16:02:15-05:00",
			"created": "2013-03-26T14:00:14-04:00"
		}
	]
}