{
	"greeting": "Greetings from The On-Line Encyclopedia of Integer Sequences! http://oeis.org/",
	"query": "id:A216560",
	"count": 1,
	"start": 0,
	"results": [
		{
			"number": 216560,
			"data": "5,7,17,29,43,137,449,509,569,571,2971,4723,9677,14431,104911,433781,604711,931517,1049897",
			"name": "Numbers n such that the n-th Fibonacci number is prime, but cannot be written in the form a^2 + 2*b^2.",
			"link": [
				"Blair Kelly, \u003ca href=\"http://mersennus.net/fibonacci\"\u003eFactorizations of Fibonacci and Lucas numbers\u003c/a\u003e"
			],
			"xref": [
				"Cf. A000045, A001605."
			],
			"keyword": "nonn",
			"offset": "1,1",
			"author": "_V. Raman_, Sep 08 2012",
			"references": 0,
			"revision": 12,
			"time": "2013-05-02T13:11:33-04:00",
			"created": "2012-09-13T16:24:47-04:00"
		}
	]
}