{
	"greeting": "Greetings from The On-Line Encyclopedia of Integer Sequences! http://oeis.org/",
	"query": "id:A216445",
	"count": 1,
	"start": 0,
	"results": [
		{
			"number": 216445,
			"data": "0,0,1,2,1,14,25,69,241,251,2481,6830,4921,119547,250489,780584,8507745,5562314,2246113,592853256,853522921,1510777190,67329163881,131984971712,1849868497489,132447220974,29144172315025,92977949123774,608057424846873,1214694444952016",
			"name": "a(n) = !n mod n!!.",
			"comment": [
				"!n is a subfactorial number (A000166).",
				"n!! is a double factorial number (A006882)."
			],
			"link": [
				"Indranil Ghosh, \u003ca href=\"/A216445/b216445.txt\"\u003eTable of n, a(n) for n = 0..800\u003c/a\u003e",
				"Indranil Ghosh, \u003ca href=\"/A216445/a216445_1.txt\"\u003ePython Program to generate the b-file\u003c/a\u003e"
			],
			"example": [
				"a(6) = !6 mod 6!! = 265 mod 48 = 25. - _Indranil Ghosh_, Feb 15 2017"
			],
			"maple": [
				"sf:= proc(n) option remember; n*procname(n-1)+(-1)^n end proc:",
				"sf(0):= 1:",
				"df:= proc(n) option remember; n*procname(n-2) end proc:",
				"df(0):= 1: df(1):= 1:",
				"map(t -\u003e sf(t) mod df(t), [$0..50]); # _Robert Israel_, Nov 16 2017"
			],
			"mathematica": [
				"Table[Mod[Subfactorial[n],n!!],{n, 0,30} ]"
			],
			"xref": [
				"Cf.  A006882, A000166."
			],
			"keyword": "nonn",
			"offset": "0,4",
			"author": "_Michel Lagneau_, Sep 07 2012",
			"references": 1,
			"revision": 20,
			"time": "2017-11-16T00:53:51-05:00",
			"created": "2012-09-07T10:24:00-04:00"
		}
	]
}