{
	"greeting": "Greetings from The On-Line Encyclopedia of Integer Sequences! http://oeis.org/",
	"query": "id:A216952",
	"count": 1,
	"start": 0,
	"results": [
		{
			"number": 216952,
			"data": "1,1,1,2,1,4,1,5,4,7,1,20,1,20,16,44,1,96,1,162,50,282,1,678,16,1113,185,2282,1,4828,1,8972,725,17712,76",
			"name": "A216951(n)/2.",
			"link": [
				"B. Chaffin, J. P. Linderman, N. J. A. Sloane and Allan Wilks, \u003ca href=\"http://arxiv.org/abs/1212.6102\"\u003eOn Curling Numbers of Integer Sequences\u003c/a\u003e, arXiv:1212.6102, Dec 25 2012.",
				"B. Chaffin, J. P. Linderman, N. J. A. Sloane and Allan Wilks, \u003ca href=\"https://cs.uwaterloo.ca/journals/JIS/VOL16/Sloane/sloane3.html\"\u003eOn Curling Numbers of Integer Sequences\u003c/a\u003e, Journal of Integer Sequences, Vol. 16 (2013), Article 13.4.3."
			],
			"xref": [
				"Cf. A216951."
			],
			"keyword": "nonn,more",
			"offset": "1,4",
			"author": "_N. J. A. Sloane_, Sep 24 2012",
			"references": 1,
			"revision": 13,
			"time": "2014-08-02T06:14:09-04:00",
			"created": "2012-09-24T14:28:25-04:00"
		}
	]
}