{
	"greeting": "Greetings from The On-Line Encyclopedia of Integer Sequences! http://oeis.org/",
	"query": "id:A216392",
	"count": 1,
	"start": 0,
	"results": [
		{
			"number": 216392,
			"data": "1,1,1,1,1,1,2,2,5,7,7,13,16,21,35,57,83,143,207,278,457,790,1064,1815,3468,5194,8226",
			"name": "Number of values of k for which sigma(k) is a permutation of decimal digits of k, for k \u003c 2^n.",
			"formula": [
				"a(n) = # { k in A115920 | k \u003c 2^n }. - _M. F. Hasler_, Feb 24 2014"
			],
			"example": [
				"a(10) = 7 because the values of k satisfying the condition for k \u003c 2^10 are {1, 69, 258, 270, 276, 609, 639}. - _V. Raman_, Feb 18 2014"
			],
			"program": [
				"(PARI) a(n)=sum(k=1, 2^n, vecsort(digits(k)) == vecsort(digits(sigma(k)))) \\\\ _V. Raman_, Feb 18 2014, based on edits by _M. F. Hasler_"
			],
			"xref": [
				"Cf. A115920, A000203."
			],
			"keyword": "nonn,base,more",
			"offset": "1,7",
			"author": "_V. Raman_, Sep 06 2012",
			"references": 0,
			"revision": 19,
			"time": "2014-03-29T03:27:49-04:00",
			"created": "2012-09-06T14:28:20-04:00"
		}
	]
}