{
	"greeting": "Greetings from The On-Line Encyclopedia of Integer Sequences! http://oeis.org/",
	"query": "id:A216986",
	"count": 1,
	"start": 0,
	"results": [
		{
			"number": 216986,
			"data": "0,14,264,4794,83304,1435808,24673352,423651134,7272419728,124829530972,2142624332680,36776621687102,631243274484392,10834813398096496,185971344332908696,3192056733158039014,54789226054169999632",
			"name": "Number of city-block distance 1, pressure limit 2 movements in an nX3 array with each element moving exactly one horizontally or vertically, no element acquiring more than two neighbors, and without 2-loops",
			"comment": [
				"Column 3 of A216991"
			],
			"link": [
				"R. H. Hardin, \u003ca href=\"/A216986/b216986.txt\"\u003eTable of n, a(n) for n = 1..210\u003c/a\u003e"
			],
			"formula": [
				"Empirical: a(n) = 24*a(n-1) -121*a(n-2) +28*a(n-3) +649*a(n-4) -844*a(n-5) +175*a(n-6) +80*a(n-7) -2*a(n-8)"
			],
			"example": [
				"Some solutions for n=3 (movement: 0=n 1=e 2=s 3=w)",
				"..1..1..2....1..2..3....1..1..2....2..3..3....1..1..2....2..3..3....1..2..2",
				"..1..0..3....0..1..0....1..0..2....1..2..0....0..0..3....2..3..0....0..3..3",
				"..0..3..3....0..3..0....1..0..3....0..3..3....1..0..3....1..1..0....0..1..0"
			],
			"keyword": "nonn",
			"offset": "1,2",
			"author": "_R. H. Hardin_ Sep 21 2012",
			"references": 1,
			"revision": 4,
			"time": "2012-09-21T17:00:42-04:00",
			"created": "2012-09-21T17:00:42-04:00"
		}
	]
}