{
	"greeting": "Greetings from The On-Line Encyclopedia of Integer Sequences! http://oeis.org/",
	"query": "id:A216838",
	"count": 1,
	"start": 0,
	"results": [
		{
			"number": 216838,
			"data": "7,17,23,31,41,43,47,71,73,79,89,97,103,109,113,127,137,151,157,167,191,193,199,223,229,233,239,241,251,257,263,271,277,281,283,307,311,313,331,337,353,359,367,383,397,401,409,431,433,439,449,457,463,479",
			"name": "Odd primes for which 2 is not a primitive root.",
			"comment": [
				"Alternately, for these primes p, the polynomial (x^p+1)/(x+1) is reducible over GF(2).",
				"The prime p belongs to this sequence if and only if A002326((p-1)/2) != (p-1). If A002326((p-1)/2) = (p-1), then the prime p belongs to the sequence A001122. - _V. Raman_, Dec 01 2012",
				"The only primitive root modulo 2 is 1. See A060749. Hence 2 should be added to this sequence in order to obtain the complement of A001122. - _Wolfdieter Lang_, May 19 2014"
			],
			"link": [
				"Robert Israel, \u003ca href=\"/A216838/b216838.txt\"\u003eTable of n, a(n) for n = 1..10000\u003c/a\u003e"
			],
			"maple": [
				"select(t -\u003e isprime(t) and numtheory[order](2,t) \u003c\u003e t-1, [seq](2*i+1,i=1..1000)); # _Robert Israel_, May 20 2014"
			],
			"mathematica": [
				"Select[Prime[Range[2, 100]], PrimitiveRoot[#] =!= 2 \u0026] (* _T. D. Noe_, Sep 19 2012 *)"
			],
			"program": [
				"(PARI) forprime(p=3, 1000, if(znorder(Mod(2,p))!=p-1, print(p)))",
				"(PARI) forprime(p=3, 1000, if(factormod((x^p+1)/(x+1), 2, 1)[1, 1]!=(p-1), print(p)))"
			],
			"xref": [
				"Cf. A002326 (multiplicative order of 2 mod 2n+1)",
				"Cf. A001122 (Primes for which 2 is a primitive root)."
			],
			"keyword": "nonn",
			"offset": "1,1",
			"author": "_V. Raman_, Sep 17 2012",
			"ext": [
				"Name corrected by _Wolfdieter Lang_, May 19 2014"
			],
			"references": 12,
			"revision": 39,
			"time": "2020-07-11T21:16:59-04:00",
			"created": "2012-09-19T15:06:48-04:00"
		}
	]
}