{
	"greeting": "Greetings from The On-Line Encyclopedia of Integer Sequences! http://oeis.org/",
	"query": "id:A216488",
	"count": 1,
	"start": 0,
	"results": [
		{
			"number": 216488,
			"data": "3352,3837,7239,18503,19344,22628,29363,30994,37514,47058,48201,50371,51702,51857,53586,55469,56248,56668,60560,65206,70610,72171,76554,78310,78380,82628,82952,82993,93615,99751,101179,104469,105347,105379,106327,113251,114970,116751,117313",
			"name": "Numbers k such that the last 9 digits of the k-th Lucas number are 1-9 pandigital.",
			"link": [
				"V. Raman, \u003ca href=\"/A216488/b216488.txt\"\u003eTable of n, a(n) for n = 1..10000\u003c/a\u003e",
				"Project Euler, \u003ca href=\"https://projecteuler.net/problem=104\"\u003eProblem 104: Pandigital Fibonacci ends\u003c/a\u003e."
			],
			"maple": [
				"b:= proc(n) b(n):= `if`(n\u003c2, 2-n, irem(b(n-1)+b(n-2), 10^9)) end:",
				"q:= n-\u003e is({convert(b(n), base, 10)[]}={$1..9}):",
				"select(q, [$1..120000])[];  # _Alois P. Heinz_, Jul 04 2021"
			],
			"mathematica": [
				"Select[Range[39, 120000], Sort[Take[IntegerDigits[LucasL[#]], -9]] == {1, 2, 3, 4, 5, 6, 7, 8, 9} \u0026] (* _Tanya Khovanova_, Jul 04 2021 *)"
			],
			"program": [
				"(Python)",
				"def afind(limit):",
				"    bkm1, bk = 2, 1",
				"    for k in range(2, limit+1):",
				"        bkm1, bk = bk, bkm1 + bk",
				"        if set(str(bk)[-9:]) == set(\"123456789\"): print(k, end=\", \")",
				"afind(10**6)) # _Michael S. Branicky_, Jul 04 2021"
			],
			"xref": [
				"Cf. A000032.",
				"Cf. A112516 for Fibonacci numbers such that first 9 digits are 1-9 pandigital.",
				"Cf. A112371 for Fibonacci numbers such that last 9 digits are 1-9 pandigital."
			],
			"keyword": "nonn,base",
			"offset": "1,1",
			"author": "_V. Raman_, Sep 07 2012",
			"references": 1,
			"revision": 16,
			"time": "2021-07-04T20:45:29-04:00",
			"created": "2012-09-10T23:37:57-04:00"
		}
	]
}