{
	"greeting": "Greetings from The On-Line Encyclopedia of Integer Sequences! http://oeis.org/",
	"query": "id:A216375",
	"count": 1,
	"start": 0,
	"results": [
		{
			"number": 216375,
			"data": "0,1,5,941,23071",
			"name": "Numbers k such that 11^k + k^11 + 1 is prime.",
			"comment": [
				"a(6) \u003e 10^5. - _Robert Price_, Jan 16 2013"
			],
			"mathematica": [
				"Select[Range[0, 5000], PrimeQ[11^# + #^11 + 1] \u0026]"
			],
			"program": [
				"(PARI) is(n)=isprime(11^n+n^11+1) \\\\ _Charles R Greathouse IV_, Feb 17 2017"
			],
			"xref": [
				"Cf. A100357, A215434-A215445."
			],
			"keyword": "nonn,hard,more",
			"offset": "1,3",
			"author": "_Vincenzo Librandi_, Sep 06 2012",
			"ext": [
				"a(5) from _Robert Price_, Jan 16 2014"
			],
			"references": 11,
			"revision": 24,
			"time": "2018-07-12T11:28:20-04:00",
			"created": "2012-09-06T03:19:04-04:00"
		}
	]
}