{
	"greeting": "Greetings from The On-Line Encyclopedia of Integer Sequences! http://oeis.org/",
	"query": "id:A217432",
	"count": 1,
	"start": 0,
	"results": [
		{
			"number": 217432,
			"data": "25,10,20,48,10",
			"name": "3-adic valuation of A217431.",
			"comment": [
				"A217431 consists of numbers of the form (3^r)*(13^s).  This sequence holds the r values."
			],
			"xref": [
				"Cf. A217431, A217433."
			],
			"keyword": "nonn,base,more",
			"offset": "1,1",
			"author": "_James G. Merickel_, Oct 03 2012",
			"references": 2,
			"revision": 12,
			"time": "2014-09-07T08:41:53-04:00",
			"created": "2012-10-16T11:32:15-04:00"
		}
	]
}