{
	"greeting": "Greetings from The On-Line Encyclopedia of Integer Sequences! http://oeis.org/",
	"query": "id:A217073",
	"count": 1,
	"start": 0,
	"results": [
		{
			"number": 217073,
			"data": "10,40,82,113,127,141,170,257,275,287,295,315,344,373,442,468,609,634,646,663,671,710,819,834,857,884,894,904,992,997,1060,1069,1077,1120,1143,1190,1232,1253,1261,1280,1291,1347,1407,1436,1448,1483,1514,1570,1642",
			"name": "Numbers n such that (n^23-1)/(n-1) is prime.",
			"link": [
				"Vincenzo Librandi, \u003ca href=\"/A217073/b217073.txt\"\u003eTable of n, a(n) for n = 1..1000\u003c/a\u003e"
			],
			"mathematica": [
				"Select[Range[2, 1700], PrimeQ[(#^23 - 1)/(# - 1)] \u0026] (* _T. D. Noe_, Sep 26 2012 *)"
			],
			"program": [
				"(MAGMA) [n: n in [2..1700] |IsPrime((n^23 - 1) div (n - 1))]; // _Vincenzo Librandi_, Sep 28 2012",
				"(PARI) is(n)=isprime((n^23-1)/(n-1)) \\\\ _Charles R Greathouse IV_, Feb 17 2017"
			],
			"xref": [
				"Cf. A002384, A049409, A100330, A162862, A217070-A217089."
			],
			"keyword": "nonn,easy",
			"offset": "1,1",
			"author": "_Tim Johannes Ohrtmann_, Sep 26 2012",
			"ext": [
				"More terms from _T. D. Noe_, Sep 26 2012"
			],
			"references": 7,
			"revision": 14,
			"time": "2017-02-17T15:33:25-05:00",
			"created": "2012-09-26T16:38:15-04:00"
		}
	]
}