{
	"greeting": "Greetings from The On-Line Encyclopedia of Integer Sequences! http://oeis.org/",
	"query": "id:A217551",
	"count": 1,
	"start": 0,
	"results": [
		{
			"number": 217551,
			"data": "1,828,508,239499435,4693095288000,561589459200,148245349824000",
			"name": "Smallest numbers n, for a given s, such that s! + n^2 and (s+3)! + n^2 are squares.",
			"comment": [
				"The corresponding values of s are: 4, 8, 9, 15, 21, 24, 27."
			],
			"example": [
				"4! + 1 = 5^2 and 7! + 1 = 71^2.",
				"8! + 828^2 = 852^2 and 11! + 828^2 = 6372^2."
			],
			"program": [
				"(PARI) for(n=4,30,a=n!;b=((n+3)*(n+2)*(n+1)-1)*a;c=divisors(b);for(i=2,#c-1,s=c[i];r=b\\s;if(r\u003cs,next(2),d=abs(s-r)/2;t=d^2-a;if(issquare(t),print([n,d,sqrtint(t)])))))"
			],
			"xref": [
				"Cf. A217277, A217541, A217550, A217551, A217553."
			],
			"keyword": "nonn",
			"offset": "1,2",
			"author": "_Robin Garcia_, Oct 06 2012",
			"references": 3,
			"revision": 16,
			"time": "2012-10-12T13:51:31-04:00",
			"created": "2012-10-12T13:51:31-04:00"
		}
	]
}