{
	"greeting": "Greetings from The On-Line Encyclopedia of Integer Sequences! http://oeis.org/",
	"query": "id:A217791",
	"count": 1,
	"start": 0,
	"results": [
		{
			"number": 217791,
			"data": "180,12000,30996,47940,66780,102816,128040,234300,494088,712272,1133088,1408212,1623072,1692768,1896336,1925196,2024760,2388720,2529090,2836008,3423120,3724320,3822360,4628760,4750920,7219608,7359912,7603488,7749060",
			"name": "Numbers n such that sigma(n) = 3*sigma(n+1).",
			"link": [
				"Donovan Johnson, \u003ca href=\"/A217791/b217791.txt\"\u003eTable of n, a(n) for n = 1..500\u003c/a\u003e"
			],
			"example": [
				"47940 is in the sequence because sigma(47940)=145152, sigma(47941)=48384, and 145152=3*48384.",
				"7749060 is in the sequence because sigma(7749060)=24192000, sigma(7749061)=8064000, and 24192000=3*8064000."
			],
			"maple": [
				"A217791:=proc(q) local n;",
				"for n from 1 to q do if sigma(n)=3*sigma(n+1) then print(n); fi; od; end:",
				"A217791(10^10);"
			],
			"mathematica": [
				"Position[Partition[DivisorSigma[1,Range[78*10^5]],2,1],_?(#[[1]] == 3#[[2]]\u0026), {1},Heads-\u003eFalse]//Flatten (* _Harvey P. Dale_, Oct 17 2016 *)"
			],
			"program": [
				"(MAGMA) [n: n in [1..10^7] | SumOfDivisors(n) eq 3*SumOfDivisors(n+1)]; // _Bruno Berselli_, Mar 25 2013"
			],
			"xref": [
				"Cf. A000203, A002961, A058073, A067081, A077087, A163193, A272027 (3*sigma(n))."
			],
			"keyword": "nonn",
			"offset": "1,1",
			"author": "_Paolo P. Lava_, Mar 25 2013",
			"ext": [
				"More terms from _Bruno Berselli_, Mar 25 2013"
			],
			"references": 3,
			"revision": 27,
			"time": "2019-07-16T17:41:59-04:00",
			"created": "2013-03-25T10:10:44-04:00"
		}
	]
}