{
	"greeting": "Greetings from The On-Line Encyclopedia of Integer Sequences! http://oeis.org/",
	"query": "id:A217089",
	"count": 1,
	"start": 0,
	"results": [
		{
			"number": 217089,
			"data": "12,90,104,234,271,339,420,421,428,429,464,805,909,934,1054,1114,1116,1128,1144,1159,1193,1364,1788,2086,2215,2254,2448,2461,2593,2595,2771,2787,2829,2859,2952,3029,3075,3144,3250,3265,3268,3301,3701,3752,3875,4026",
			"name": "Numbers n such that (n^97-1)/(n-1) is prime.",
			"link": [
				"Vincenzo Librandi, \u003ca href=\"/A217089/b217089.txt\"\u003eTable of n, a(n) for n = 1..300\u003c/a\u003e"
			],
			"mathematica": [
				"Select[Range[2, 1000], PrimeQ[(#^97 - 1)/(# - 1)] \u0026] (* _T. D. Noe_, Sep 26 2012 *)"
			],
			"program": [
				"(PARI) is(n)=isprime((n^97-1)/(n-1)) \\\\ _Charles R Greathouse IV_, Feb 17 2017"
			],
			"xref": [
				"Cf. A002384, A049409, A100330, A162862, A217070-A217088."
			],
			"keyword": "nonn",
			"offset": "1,1",
			"author": "_Tim Johannes Ohrtmann_, Sep 26 2012",
			"ext": [
				"More terms from _T. D. Noe_, Sep 26 2012"
			],
			"references": 26,
			"revision": 13,
			"time": "2017-02-17T11:58:57-05:00",
			"created": "2012-09-26T16:55:24-04:00"
		}
	]
}