{
	"greeting": "Greetings from The On-Line Encyclopedia of Integer Sequences! http://oeis.org/",
	"query": "id:A217750",
	"count": 1,
	"start": 0,
	"results": [
		{
			"number": 217750,
			"data": "0,0,0,0,0,0,18,50,88,156,260,392,555,848,1088",
			"name": "Number of tetragonal regions in the exterior of a regular n-gon with all diagonals drawn.",
			"xref": [
				"Cf. A067151, A217746."
			],
			"keyword": "nonn",
			"offset": "3,7",
			"author": "_Martin Renner_, Mar 23 2013",
			"references": 1,
			"revision": 7,
			"time": "2013-03-23T15:11:24-04:00",
			"created": "2013-03-23T15:11:24-04:00"
		}
	]
}