{
	"greeting": "Greetings from The On-Line Encyclopedia of Integer Sequences! http://oeis.org/",
	"query": "id:A217682",
	"count": 1,
	"start": 0,
	"results": [
		{
			"number": 217682,
			"data": "2,3,8,9,10,13,14,18,21",
			"name": "Record bases for first finding prime by concatenation of numbers decremented from terms of A217681.",
			"comment": [
				"The partner sequence gives a monotone sequence of numbers that require increasing values of a base of arithmetic before any prime can be found by concatenating numbers decremented in sequence through 1. This sequence gives the record base required by each."
			],
			"example": [
				"When numbers are concatenated in decreasing sequence in binary from each number 2-9 (10 to 1001 in binary), inevitably there is a prime in the sequence: 101 is prime in binary, as is 11101, etc. But this is not the case for 10 (binary 1010). The number represented as 1011002221201211 in base 3, the concatenation of the decimal values 10 down to 4, is a prime (16532797 in decimal).  So the record base is 3 for the 2nd entry here."
			],
			"xref": [
				"Cf. A217681."
			],
			"keyword": "nonn,base,less,more",
			"offset": "1,1",
			"author": "_James G. Merickel_, Oct 10 2012",
			"ext": [
				"a(9) added by _James G. Merickel_, May 05 2013"
			],
			"references": 1,
			"revision": 18,
			"time": "2021-05-09T02:19:40-04:00",
			"created": "2012-10-17T11:16:30-04:00"
		}
	]
}