{
	"greeting": "Greetings from The On-Line Encyclopedia of Integer Sequences! http://oeis.org/",
	"query": "id:A217701",
	"count": 1,
	"start": 0,
	"results": [
		{
			"number": 217701,
			"data": "1,1,5,38,393,5144,81445,1512720,32237681,775193984,20759213061,612623724800,19751688891385,690721009155072,26039042401938917,1052645311044368384,45424010394042998625,2083972769418997760000,101288683106200561501189,5199006109868903819575296",
			"name": "Permanent of the n X n matrix with all diagonal entries n and all off diagonal entries 1.",
			"comment": [
				"a(n) is the number of terms that appear before cancellations occur in the evaluation of the determinant of an n X n matrix by the usual sum over permutations of [n], for a matrix whose off diagonal entries are specified, and each of whose diagonal entries is minus the sum of the negatives of the off diagonal entries and one additional term, as in the usual presentation of the matrix in the Matrix Tree Theorem.",
				"The number a(n-1) - n^(n-2) (A000272) is the number of terms which cancel in Zeilberger's proof of the Matrix Tree Theorem. This number is even, as the terms which cancel are equal in magnitude with opposite sign, and as is also apparent from the formula in terms of A087981(n) which is a corollary of Zeilberger's proof.",
				"Formula involves the derangement numbers A000166 which count permutations with no fixed points, also the number A087981 of colored permutations with no fixed points of n elements where each cycle is one of two colors.",
				"Number of permutations of [n] where the fixed points are n-colored and all other points are unicolored. - _Alois P. Heinz_, Apr 23 2020"
			],
			"link": [
				"Alois P. Heinz, \u003ca href=\"/A217701/b217701.txt\"\u003eTable of n, a(n) for n = 0..386\u003c/a\u003e",
				"Doron Zeilberger, \u003ca href=\"https://doi.org/10.1016/0012-365X(85)90192-X\"\u003eA combinatorial approach to matrix algebra\u003c/a\u003e, Discrete Mathematics, 56 (1985), 61-72."
			],
			"formula": [
				"a(n) = Sum_{k=0..n} C(n,k)*D_{n-k}*n^k, where D_n = A000166(n).",
				"a(n) = Sum_{j=0..n} C(n,k)*D_{n-k,2} (n+1)^(j-1) (n-j+1) where D_{n,2} = A087981(n).",
				"a(n) = n! * [x^n] exp((k-1)*x)/(1-x). - _Alois P. Heinz_, Apr 23 2020",
				"a(n) = exp(n-1)*Gamma(n+1, n-1). - _Peter Luschny_, Dec 24 2021"
			],
			"maple": [
				"a:= n-\u003e n!*coeff(series(exp((n-1)*x)/(1-x), x, n+1), x, n):",
				"seq(a(n), n=0..23);  # _Alois P. Heinz_, Apr 23 2020",
				"# second Maple program:",
				"b:= proc(n, k) option remember; `if`(n\u003c1, 1-n,",
				"      (n+k-1)*b(n-1, k)+(k-1)*(1-n)*b(n-2, k))",
				"    end:",
				"a:= n-\u003e b(n$2):",
				"seq(a(n), n=0..23);  # _Alois P. Heinz_, Apr 23 2020",
				"# third Maple program:",
				"b:= proc(n, k) option remember;",
				"      `if`(min(n, k)\u003c0, 0, n*b(n-1, k)+(k-1)^n)",
				"    end:",
				"a:= n-\u003e b(n$2):",
				"seq(a(n), n=0..23);  # _Alois P. Heinz_, Apr 23 2020"
			],
			"mathematica": [
				"derange[0,z_]:=1; derange[n_,z_]:= Pochhammer[z,n] - Sum[ Binomial[n,k] z^(n-k) derange[k,z], {k,0,n-1}]; a[n_]:= Sum[ Binomial[n,k] derange[n-k,1] n^k, {k,0,n}] ; a/@ Range[0,10]",
				"derange[0,z_]:=1; derange[n_,z_]:= Pochhammer[z,n] - Sum[ Binomial[n,k] z^(n-k) derange[k,z], {k,0,n-1}]; a[n_]:= Sum[ Binomial[n,j] derange[n-j,2] (n+1)^(j-1) (n-j+1), {j,0,n}]; a/@ Range[0,10]",
				"(* Alternative: *)",
				"a[n_] := Exp[n - 1] Gamma[n + 1, n - 1];",
				"Table[a[n], {n, 0, 19}]  (* _Peter Luschny_, Dec 24 2021 *)"
			],
			"xref": [
				"Also closely related to A058127.",
				"Main diagonal of A089258.",
				"Cf. A176043."
			],
			"keyword": "nonn",
			"offset": "0,3",
			"author": "_Jim Pitman_, Mar 19 2013",
			"ext": [
				"a(0),a(16)-a(19) from _Alois P. Heinz_, Apr 23 2020"
			],
			"references": 3,
			"revision": 31,
			"time": "2021-12-24T09:44:07-05:00",
			"created": "2013-03-20T12:49:11-04:00"
		}
	]
}