{
	"greeting": "Greetings from The On-Line Encyclopedia of Integer Sequences! http://oeis.org/",
	"query": "id:A217536",
	"count": 1,
	"start": 0,
	"results": [
		{
			"number": 217536,
			"data": "0,1,1,2,3,4,3,6,10,14,4,9,18,32,46,5,12,27,55,101,147,6,15,36,81,168,315,462,7,18,45,108,244,513,975,1437,8,21,54,135,324,736,1564,2539,3976,9,24,63,162,405,973,2222,4761,8737,12713",
			"name": "Square array read by antidiagonals, where the top row is the nonnegative integers and the other numbers are the sum of the neighbors in the preceding row.",
			"comment": [
				"Each number in the top row of the array is determined by the pre-defined sequence (in this case, the nonnegative integers). Each number in lower rows is the sum of the numbers vertically or diagonally above it (so, the number at the left end of each row is the sum of two numbers, and all other numbers the sum of three)."
			],
			"formula": [
				"T(m+1,n) = sum(T(m,k), |k-n| \u003c= 1) (and T(0,n)=n), m, n \u003e= 0. - _M. F. Hasler_, Oct 09 2012"
			],
			"example": [
				"The array starts:",
				"0  1  2  3",
				"1  3  6  9",
				"4  10 18 27",
				"14 32 55 81"
			],
			"keyword": "nonn,tabl",
			"offset": "1,4",
			"author": "_WG Zeist_, Oct 06 2012",
			"references": 0,
			"revision": 21,
			"time": "2013-09-14T13:39:13-04:00",
			"created": "2012-10-12T11:16:47-04:00"
		}
	]
}