{
	"greeting": "Greetings from The On-Line Encyclopedia of Integer Sequences! http://oeis.org/",
	"query": "id:A217165",
	"count": 1,
	"start": 0,
	"results": [
		{
			"number": 217165,
			"data": "0,10,49,66,118,883,2202,6493,62334,135241,353587",
			"name": "a(n) is the least value of k such that the decimal expansion of Fibonacci(k) contains n consecutive identical digits.",
			"mathematica": [
				"k = 0; Join[{0}, Table[While[d = IntegerDigits[Fibonacci[k]]; ! MemberQ[Partition[Differences[d], n - 1, 1], Table[0, {n - 1}]], k++]; k, {n, 2, 8}]] (* _T. D. Noe_, Oct 02 2012 *)"
			],
			"program": [
				"(Python)",
				"def A217165(n):",
				"....if n == 1:",
				"........return 0",
				"....else:",
				"........l, y, x = [str(d)*n for d in range(10)], 0, 1",
				"........for m in range(1,10**9):",
				"............s = str(x)",
				"............for k in l:",
				"................if k in s:",
				"....................return m",
				"............y, x = x, y+x",
				"........return 'search limit reached'",
				"# _Chai Wah Wu_, Dec 17 2014"
			],
			"xref": [
				"Cf. A000045, A045875, A215727, A215728, A215729, A215730, A215731."
			],
			"keyword": "nonn,base,hard",
			"offset": "1,2",
			"author": "_V. Raman_, Sep 27 2012",
			"ext": [
				"a(10)-a(11) from _Chai Wah Wu_, Dec 17 2014"
			],
			"references": 3,
			"revision": 18,
			"time": "2014-12-18T02:12:47-05:00",
			"created": "2012-10-01T14:41:42-04:00"
		}
	]
}