{
	"greeting": "Greetings from The On-Line Encyclopedia of Integer Sequences! http://oeis.org/",
	"query": "id:A217748",
	"count": 1,
	"start": 0,
	"results": [
		{
			"number": 217748,
			"data": "1,4,10,18,28,40,54,70,88,108,130,154,180,208,238,270,304,340,378,418,460,504,550,598,648,700,754,810,868,928,990,1054,1120,1188,1258,1330,1404,1480,1558,1638,1720,1804,1890,1978,2068,2160,2254,2350,2448,2548",
			"name": "Number of regions with infinite area in the exterior of a regular n-gon with all diagonals drawn.",
			"comment": [
				"For n \u003e 3 same as A028552(n-3)."
			],
			"formula": [
				"a(n) = n*(n-3) for n \u003e 3",
				"a(n) = A217745(n) - A217746(n)"
			],
			"example": [
				"a(3) = 1 since the equilateral triangle has no diagonals and therefore one exterior region with infinite area.",
				"a(4) = 4 since the two diagonals of the square divide the exterior in four regions with infinite area.",
				"a(5) = 10 since the ten diagonals of the regular pentagon divide the exterior in ten regions with infinite area of two different shapes."
			],
			"xref": [
				"Cf. A004526, A007678, A028552, A164004, A217745, A217746."
			],
			"keyword": "nonn",
			"offset": "3,2",
			"author": "_Martin Renner_, Mar 23 2013",
			"references": 4,
			"revision": 11,
			"time": "2013-04-06T18:37:11-04:00",
			"created": "2013-03-23T15:10:39-04:00"
		}
	]
}