{
	"greeting": "Greetings from The On-Line Encyclopedia of Integer Sequences! http://oeis.org/",
	"query": "id:A218930",
	"count": 1,
	"start": 0,
	"results": [
		{
			"number": 218930,
			"data": "1,1,1,1,2,3,4,5,6,8,11,14,19,23",
			"name": "Number of maximal supersolvable conjugacy classes of subgroups of the symmetric group.",
			"link": [
				"Liam Naughton and Goetz Pfeiffer, \u003ca href=\"http://arxiv.org/abs/1211.1911\"\u003eInteger sequences realized by the subgroup pattern of the symmetric group\u003c/a\u003e, arXiv:1211.1911",
				"Liam Naughton, \u003ca href=\"http://www.maths.nuigalway.ie/~liam/CountingSubgroups.g\"\u003eCountingSubgroups.g\u003c/a\u003e",
				"Liam Naughton and Goetz Pfeiffer, \u003ca href=\"http://schmidt.nuigalway.ie/tomlib/\"\u003eTomlib, The GAP table of marks library\u003c/a\u003e"
			],
			"keyword": "nonn,more",
			"offset": "0,5",
			"author": "_Liam Naughton_, Nov 12 2012",
			"references": 0,
			"revision": 10,
			"time": "2013-04-15T06:43:45-04:00",
			"created": "2012-11-12T07:24:44-05:00"
		}
	]
}