{
	"greeting": "Greetings from The On-Line Encyclopedia of Integer Sequences! http://oeis.org/",
	"query": "id:A218075",
	"count": 1,
	"start": 0,
	"results": [
		{
			"number": 218075,
			"data": "2,4,4,16,4,16,4,16,64,4,64,16,4,16,64,64,4,64,16,4,64,16,64,256,16,4,16,4,16,16384,16,64,4,1024,4,64,64,16,64,64,4,1024,4,16,4,4096,4096,16,4,16,64,4,1024,64,64,64,4,64,16,4,1024,16384,16,4,16",
			"name": "a(n) = 2^(prime(n+1) - prime(n)).",
			"comment": [
				"Except for the first term, all terms are powers of 4."
			],
			"formula": [
				"a(n) = 2^A001223(n)."
			],
			"mathematica": [
				"Table[2^(Prime[k + 1] - Prime[k]), {k, 100}] (* _T. D. Noe_, Nov 14 2012 *)",
				"2^(#[[2]]-#[[1]])\u0026/@Partition[Prime[Range[70]],2,1] (* _Harvey P. Dale_, Nov 30 2017 *)"
			],
			"xref": [
				"Cf. A001223, A000302."
			],
			"keyword": "nonn,easy",
			"offset": "1,1",
			"author": "_Giovanni Teofilatto_, Oct 20 2012",
			"references": 1,
			"revision": 16,
			"time": "2017-11-30T17:25:01-05:00",
			"created": "2012-10-20T10:37:32-04:00"
		}
	]
}