{
	"greeting": "Greetings from The On-Line Encyclopedia of Integer Sequences! http://oeis.org/",
	"query": "id:A218507",
	"count": 1,
	"start": 0,
	"results": [
		{
			"number": 218507,
			"data": "1,1,2,3,5,7,11,15,21,28,37,48,62,78,98,121,149,181,219,262,313,370,436,510,595,690,797,916,1050,1198,1364,1545,1747,1968,2212,2479,2771,3089,3437,3814,4226,4669,5151,5670,6232,6837,7487,8185,8936,9739,10602",
			"name": "Number of partitions of n in which any two parts differ by at most 5.",
			"link": [
				"Alois P. Heinz, \u003ca href=\"/A218507/b218507.txt\"\u003eTable of n, a(n) for n = 0..1000\u003c/a\u003e",
				"\u003ca href=\"/index/Rec#order_20\"\u003eIndex entries for linear recurrences with constant coefficients\u003c/a\u003e, signature (1,1,0,0,0,-2,-2,1,1,2,1,1,-2,-2,0,0,0,1,1,-1)."
			],
			"formula": [
				"G.f.: 1 + Sum_{j\u003e0} x^j / Product_{i=0..5} (1-x^(i+j)).",
				"G.f.: (x^20 -x^19 -x^18 +x^15 +x^14 +x^13 -x^12 -x^11 -x^10 +x^7 +x^6 -x^5 +1) / ((x -1)^6*(x +1)^2*(x^2 +1)*(x^2 +x +1)*(x^4 +x^3 +x^2 +x +1)^2). - _Colin Barker_, Mar 05 2015"
			],
			"maple": [
				"b:= proc(n, i, k) option remember; `if`(n\u003c0 or k\u003c0, 0,",
				"      `if`(n=0, 1, `if`(i\u003c1, 0, b(n, i-1, k-1) +b(n-i, i, k))))",
				"    end:",
				"a:= n-\u003e `if`(n=0, 1, 0) +add(b(n-i, i, 5), i=1..n):",
				"seq(a(n), n=0..80);"
			],
			"mathematica": [
				"LinearRecurrence[{1,1,0,0,0,-2,-2,1,1,2,1,1,-2,-2,0,0,0,1,1,-1},{1,1,2,3,5,7,11,15,21,28,37,48,62,78,98,121,149,181,219,262,313},60] (* _Harvey P. Dale_, Jan 18 2016 *)"
			],
			"program": [
				"(PARI) Vec((x^20-x^19-x^18+x^15+x^14+x^13-x^12-x^11-x^10+x^7+x^6-x^5+1)/((x-1)^6*(x+1)^2*(x^2+1)*(x^2+x+1)*(x^4+x^3+x^2+x+1)^2) + O(x^100)) \\\\ _Colin Barker_, Mar 05 2015"
			],
			"xref": [
				"Column k=5 of A194621."
			],
			"keyword": "nonn,easy",
			"offset": "0,3",
			"author": "_Alois P. Heinz_, Oct 31 2012",
			"references": 4,
			"revision": 13,
			"time": "2016-01-18T15:37:09-05:00",
			"created": "2012-10-31T14:16:47-04:00"
		}
	]
}