{
	"greeting": "Greetings from The On-Line Encyclopedia of Integer Sequences! http://oeis.org/",
	"query": "id:A218630",
	"count": 1,
	"start": 0,
	"results": [
		{
			"number": 218630,
			"data": "0,0,0,0,0,0,0,1,18,47,124,150,403,477,684,986,1449,1719,2441,2906,3921,4978,6133,7310,9512,11604,14046,17058,20898,24906,30539,36372,43777,52301,62149,73968,88578,104720,123692,145988,172736,203019,239192,280445",
			"name": "Number of partitions of n+9 with largest inscribed rectangle having area \u003c= n.",
			"link": [
				"Alois P. Heinz, \u003ca href=\"/A218630/b218630.txt\"\u003eTable of n, a(n) for n = 0..100\u003c/a\u003e"
			],
			"formula": [
				"a(n) = A182114(n+9,n)."
			],
			"keyword": "nonn",
			"offset": "0,9",
			"author": "_Alois P. Heinz_, Nov 03 2012",
			"references": 2,
			"revision": 4,
			"time": "2012-11-03T17:01:01-04:00",
			"created": "2012-11-03T17:01:01-04:00"
		}
	]
}