{
	"greeting": "Greetings from The On-Line Encyclopedia of Integer Sequences! http://oeis.org/",
	"query": "id:A218322",
	"count": 1,
	"start": 0,
	"results": [
		{
			"number": 218322,
			"data": "1,-5,49,14641,-371293,-410338673,16983563041,124279533640947,-82085029703668817512,6812495416987166882889,-16890053810563300749953435929,-531714676529925182191868570093681,98548851401030959947062957685234211,4247541973383735863138308138153477847255,-62534081783371829558502906501683809565833328077,1581923629964045589238110056212521488781448927448053161",
			"name": "Maillet determinant for prime(n).",
			"link": [
				"Wikipedia, \u003ca href=\"http://en.wikipedia.org/wiki/Maillet%27s_determinant\"\u003eMaillet's determinant\u003c/a\u003e"
			],
			"formula": [
				"a(n) = (-p)^((p-3)/2) * h^-(p) = (-1)^((p-3)/2) * A203411(n) * A000927(n), where p=A000040(n)."
			],
			"program": [
				"(PARI) a(n) = p=prime(n); matdet(matrix((p-1)/2,(p-1)/2,i,j,(i/j)%p))"
			],
			"xref": [
				"Cf. A055513, A203411, A000927, A088922."
			],
			"keyword": "sign",
			"offset": "2,2",
			"author": "_Max Alekseyev_, Oct 25 2012",
			"references": 1,
			"revision": 6,
			"time": "2016-01-30T18:26:28-05:00",
			"created": "2012-10-25T18:04:40-04:00"
		}
	]
}