{
	"greeting": "Greetings from The On-Line Encyclopedia of Integer Sequences! http://oeis.org/",
	"query": "id:A218265",
	"count": 1,
	"start": 0,
	"results": [
		{
			"number": 218265,
			"data": "1,6,36,176,856,3952,18272,83524,384463,1777010,8304636,39254076,188160268,915651672,4527595824,22771294440,116496899100,606656445480,3214574890480,17337658462800,95128543350576,530998366724576,3013524116661952,17385349086129304",
			"name": "Number of standard Young tableaux of n cells and height \u003e= 5.",
			"comment": [
				"Also number of self-inverse permutations in S_n with longest increasing subsequence of length \u003e= 5. a(5)=1: 12345; a(6)=6: 123456, 123465, 123546, 124356, 132456, 213456."
			],
			"link": [
				"Alois P. Heinz, \u003ca href=\"/A218265/b218265.txt\"\u003eTable of n, a(n) for n = 5..800\u003c/a\u003e",
				"Wikipedia, \u003ca href=\"https://en.wikipedia.org/wiki/Involution_(mathematics)\"\u003eInvolution (mathematics)\u003c/a\u003e",
				"Wikipedia, \u003ca href=\"https://en.wikipedia.org/wiki/Young_tableau\"\u003eYoung tableau\u003c/a\u003e"
			],
			"formula": [
				"a(n) = A000085(n) - A005817(n) = A182172(n,n) - A182172(n,4)."
			],
			"maple": [
				"a:= proc(n) option remember; `if`(n\u003c13,",
				"      [0$5, 1, 6, 36, 176, 856, 3952, 18272, 83524][n+1],",
				"      ((n^4-2*n^3-179*n^2+256*n+804) *a(n-1)",
				"      +(n-1)*(n^4+6*n^3-295*n^2+1108*n+100) *a(n-2)",
				"      -4*(n-1)*(n-2)*(6*n^2-83*n+67) *a(n-3)",
				"      -16*(n-11)*(n-1)*(n-3)*(n-2)^2 *a(n-4))/",
				"      ((n-12)*(n-5)*(n+4)*(n+3)))",
				"    end:",
				"seq(a(n), n=5..30);"
			],
			"xref": [
				"Column k=5 of A182222."
			],
			"keyword": "nonn",
			"offset": "5,2",
			"author": "_Alois P. Heinz_, Oct 24 2012",
			"references": 2,
			"revision": 18,
			"time": "2017-02-08T20:25:21-05:00",
			"created": "2012-10-24T19:34:34-04:00"
		}
	]
}