{
	"greeting": "Greetings from The On-Line Encyclopedia of Integer Sequences! http://oeis.org/",
	"query": "id:A218600",
	"count": 1,
	"start": 0,
	"results": [
		{
			"number": 218600,
			"data": "0,1,2,4,7,12,21,38,68,122,220,399,729,1343,2493,4655,8727,16405,30901,58319,110298,209098,397407,757296,1446945,2771951,5323982,10250571,19780122",
			"name": "Partial sums of A213709.",
			"comment": [
				"a(n) tells the position of (2^n)-1 in A179016."
			],
			"program": [
				"(Scheme with _Antti Karttunen_'s Intseq-library): (define A218600 (PARTIALSUMS 1 0 A213709))"
			],
			"xref": [
				"a(n) = A213710(n)-1. A179016(a(n))=(2^n)-1. Cf. A213711."
			],
			"keyword": "nonn",
			"offset": "0,3",
			"author": "_Antti Karttunen_, Nov 05 2012",
			"references": 20,
			"revision": 8,
			"time": "2012-11-05T13:51:56-05:00",
			"created": "2012-11-05T13:51:56-05:00"
		}
	]
}