{
	"greeting": "Greetings from The On-Line Encyclopedia of Integer Sequences! http://oeis.org/",
	"query": "id:A218344",
	"count": 1,
	"start": 0,
	"results": [
		{
			"number": 218344,
			"data": "1,1,2,2,1,1,2,2,1,1,2,2,1,3,4,2,4,1,1,3,2,3,2,1,5,2,1,1,2,4,1,2,4,2,2,1,2,6,2,4,1,1,5,2,3,2,1,2,2,1,1,2,2,3,6,1,3,2,1,4,12,2,4,1,2,6,3,4,3,2,1,2,2,1,1,3,2,1,1,3,2,1,2,4,2,8,6,2",
			"name": "Smallest k such that k*(n-th composite)+1 is prime.",
			"link": [
				"T. D. Noe, \u003ca href=\"/A218344/b218344.txt\"\u003eTable of n, a(n) for n = 1..1000\u003c/a\u003e"
			],
			"example": [
				"The composite numbers are A002808.  a(1) is 1 since the first composite number is 4, and 4*1+1=5, a prime.  a(14)=3 since the 14th composite is 24, and 24*3+1=73 prime, while 25 and 49 are not."
			],
			"mathematica": [
				"t={}; For[k = 4, k \u003c 200, k++, If[!PrimeQ[k], Mult = 1; While[! PrimeQ[k*Mult + 1], Mult = Mult + 1]; AppendTo[t, Mult]]]; t",
				"sk[n_]:=Module[{k=1},While[!PrimeQ[k*n+1],k++];k]; nn=150;With[{cmps= Complement[ Range[4,nn],Prime[Range[PrimePi[nn]]]]},sk/@cmps] (* _Harvey P. Dale_, Apr 16 2013 *)"
			],
			"keyword": "nonn,easy",
			"offset": "1,3",
			"author": "_William J. Keith_, Oct 26 2012",
			"references": 2,
			"revision": 8,
			"time": "2013-04-16T18:12:35-04:00",
			"created": "2012-10-29T12:29:03-04:00"
		}
	]
}