{
	"greeting": "Greetings from The On-Line Encyclopedia of Integer Sequences! http://oeis.org/",
	"query": "id:A218995",
	"count": 1,
	"start": 0,
	"results": [
		{
			"number": 218995,
			"data": "2,3,29,34,82",
			"name": "Integers m that belong to Lucas sequences U(P1,Q1) and V(P2,Q2) with P1, P2 \u003e 0 both different from m, |Q1|=|Q2|=1.",
			"comment": [
				"No other terms below 10^9."
			],
			"link": [
				"Max A. Alekseyev, \u003ca href=\"http://arxiv.org/abs/1002.1679\"\u003eOn the intersections of Fibonacci, Pell, and Lucas numbers\u003c/a\u003e, INTEGERS 11(3) (2011), pp. 239-259. doi:\u003ca href=\"http://dx.doi.org/10.1515/INTEG.2011.021\"\u003e10.1515/INTEG.2011.021\u003c/a\u003e"
			],
			"example": [
				"2, 34 belong to U(1,-1) and V(6,1)",
				"3 belongs to U(1,-1) and V(1,-1)",
				"29 belongs to U(2,-1) and V(1,-1)",
				"82 belongs to U(9,-1) and V(2,-1)"
			],
			"xref": [
				"Cf. A218994"
			],
			"keyword": "nonn,more",
			"offset": "1,1",
			"author": "_Max Alekseyev_, Nov 08 2012",
			"references": 1,
			"revision": 3,
			"time": "2012-11-08T22:18:38-05:00",
			"created": "2012-11-08T22:18:38-05:00"
		}
	]
}