{
	"greeting": "Greetings from The On-Line Encyclopedia of Integer Sequences! http://oeis.org/",
	"query": "id:A218759",
	"count": 1,
	"start": 0,
	"results": [
		{
			"number": 218759,
			"data": "2,6,18,47,134,373,1035,2889,8050,22420,62477,174072,484983,1351277,3764915,10489750,29226504,81430659,226881448,632135485,1761251171,4907184849,13672362150,38093833868,106136756981,295717444696",
			"name": "Unmatched value maps: number of n X 2 binary arrays indicating the locations of corresponding elements not equal to any horizontal or vertical neighbor in a random 0..1 n X 2 array.",
			"comment": [
				"Column 2 of A218765."
			],
			"link": [
				"R. H. Hardin, \u003ca href=\"/A218759/b218759.txt\"\u003eTable of n, a(n) for n = 1..210\u003c/a\u003e"
			],
			"formula": [
				"Empirical: a(n) = 2*a(n-1) + a(n-2) + 3*a(n-3) + 2*a(n-5) + 2*a(n-6) - 2*a(n-7).",
				"Empirical g.f.: x*(2 + 2*x + 4*x^2 - x^3 + 4*x^4 - 2*x^6) / (1 - 2*x - x^2 - 3*x^3 - 2*x^5 - 2*x^6 + 2*x^7). - _Colin Barker_, Mar 10 2018"
			],
			"example": [
				"Some solutions for n=3:",
				"..1..1....0..0....0..1....0..0....1..0....0..0....0..0....0..1....0..0....0..0",
				"..0..0....0..0....0..0....0..1....0..0....0..0....1..0....0..0....1..0....0..0",
				"..0..0....1..1....1..0....1..1....0..0....1..0....0..0....0..0....1..1....0..0"
			],
			"xref": [
				"Cf. A218765."
			],
			"keyword": "nonn",
			"offset": "1,1",
			"author": "_R. H. Hardin_, Nov 05 2012",
			"references": 2,
			"revision": 8,
			"time": "2018-03-10T07:15:27-05:00",
			"created": "2012-11-05T08:26:24-05:00"
		}
	]
}