{
	"greeting": "Greetings from The On-Line Encyclopedia of Integer Sequences! http://oeis.org/",
	"query": "id:A218026",
	"count": 1,
	"start": 0,
	"results": [
		{
			"number": 218026,
			"data": "0,1,1,1,1,1,1,1,1,1,1,2,3,5,7,11,15,22,30,42,57,80,109,152,211,296,415,588,832,1185,1689,2413,3449,4940,7073,10141,14544,20880,29991,43131,62064,89417,128925,186090,268808,388677,562381,814393,1180070,1711131",
			"name": "Shifts 9 places left under Euler transform with a(0)=0 and a(n)=1 for n\u003c9.",
			"link": [
				"Alois P. Heinz, \u003ca href=\"/A218026/b218026.txt\"\u003eTable of n, a(n) for n = 0..1000\u003c/a\u003e",
				"N. J. A. Sloane, \u003ca href=\"/transforms.txt\"\u003eTransforms\u003c/a\u003e"
			],
			"formula": [
				"G.f.: x + x^2 + x^3 + x^4 + x^5 + x^6 + x^7 + x^8 + x^9 / Product_{n\u003e=1} (1 - x^n)^a(n). - _Ilya Gutkovskiy_, May 08 2019"
			],
			"maple": [
				"with(numtheory):",
				"b:= proc(n) option remember; `if`(n=0, 1,",
				"      (add(add(d*a(d), d=divisors(j)) *b(n-j), j=1..n))/n)",
				"    end:",
				"a:= n-\u003e `if`(n\u003c9, signum(n), b(n-9)):",
				"seq(a(n), n=0..60);"
			],
			"xref": [
				"Column k=9 of A144018.",
				"Cf. A316081."
			],
			"keyword": "nonn,eigen",
			"offset": "0,12",
			"author": "_Alois P. Heinz_, Oct 18 2012",
			"references": 3,
			"revision": 13,
			"time": "2019-05-08T22:17:59-04:00",
			"created": "2012-10-20T14:31:22-04:00"
		}
	]
}