{
	"greeting": "Greetings from The On-Line Encyclopedia of Integer Sequences! http://oeis.org/",
	"query": "id:A219518",
	"count": 1,
	"start": 0,
	"results": [
		{
			"number": 219518,
			"data": "7,8,111,821,5799,37442,241413,1557761,9826087,59070992,337978798,1850253044,9729774437,49228958731,239944892209,1128409561360,5129688218941,22582954455191,96444280283840,400188527441697",
			"name": "Number of nX7 arrays of the minimum value of corresponding elements and their horizontal, diagonal or antidiagonal neighbors in a random, but sorted with lexicographically nondecreasing rows and columns, 0..1 nX7 array",
			"comment": [
				"Column 7 of A219519"
			],
			"link": [
				"R. H. Hardin, \u003ca href=\"/A219518/b219518.txt\"\u003eTable of n, a(n) for n = 1..146\u003c/a\u003e"
			],
			"example": [
				"Some solutions for n=3",
				"..0..0..0..0..0..0..1....0..0..0..0..0..0..0....0..0..0..0..0..0..0",
				"..0..0..0..0..0..0..1....0..0..0..0..0..0..0....0..0..0..0..0..0..0",
				"..1..1..1..0..0..0..1....0..0..1..1..1..1..1....1..0..1..1..1..1..1"
			],
			"keyword": "nonn",
			"offset": "1,1",
			"author": "_R. H. Hardin_ Nov 21 2012",
			"references": 1,
			"revision": 4,
			"time": "2012-11-21T05:10:24-05:00",
			"created": "2012-11-21T05:10:24-05:00"
		}
	]
}