{
	"greeting": "Greetings from The On-Line Encyclopedia of Integer Sequences! http://oeis.org/",
	"query": "id:A219889",
	"count": 1,
	"start": 0,
	"results": [
		{
			"number": 219889,
			"data": "1,2,5,23,92,624,5021,47034,494320,5719769,71971687",
			"name": "Number of directed 2-regular graphs on n nodes.",
			"link": [
				"Gunnar Brinkmann, \u003ca href=\"https://doi.org/10.1016/j.disc.2012.09.014\"\u003eGenerating regular directed graphs\u003c/a\u003e, Discrete Math., 313 (2012), 1-7.",
				"R. J. Mathar, \u003ca href=\"/A219889/a219889.pdf\"\u003eOEIS A219889\u003c/a\u003e",
				"Richard J. Mathar, \u003ca href=\"https://arxiv.org/abs/1903.12477\"\u003e2-regular Digraphs of the Lovelock Lagrangian\u003c/a\u003e, arXiv:1903.12477 [math.GM], 2019."
			],
			"xref": [
				"Cf. A096368, A219890, A219891, A219892, A219893, A307155 (connected, inverse Euler Trans.), A007107 (labeled), A306827 (multiedges, connected), A002865 (directed 1-regular unlabeled no loops), A005641 (loops allowed)"
			],
			"keyword": "nonn,more",
			"offset": "3,2",
			"author": "_N. J. A. Sloane_, Nov 30 2012",
			"references": 11,
			"revision": 24,
			"time": "2019-05-12T18:14:14-04:00",
			"created": "2012-11-30T22:53:29-05:00"
		}
	]
}