{
	"greeting": "Greetings from The On-Line Encyclopedia of Integer Sequences! http://oeis.org/",
	"query": "id:A219292",
	"count": 1,
	"start": 0,
	"results": [
		{
			"number": 219292,
			"data": "3,7,77,1540,80488,10000720,2898775988,2236908145276",
			"name": "Number of n X n arrays of the minimum value of corresponding elements and their horizontal, vertical or antidiagonal neighbors in a random, but sorted with lexicographically nondecreasing rows and columns, 0..2 n X n array",
			"comment": [
				"Diagonal of A219299"
			],
			"example": [
				"Some solutions for n=3",
				"..0..0..0....1..1..0....0..0..1....1..0..0....0..0..2....0..0..1....0..0..0",
				"..0..0..1....1..0..0....0..1..0....0..0..0....0..1..2....0..0..1....0..0..2",
				"..1..1..1....2..0..0....1..0..0....0..0..1....1..1..2....0..1..2....0..1..2"
			],
			"keyword": "nonn",
			"offset": "1,1",
			"author": "_R. H. Hardin_ Nov 17 2012",
			"references": 0,
			"revision": 5,
			"time": "2015-12-18T18:18:16-05:00",
			"created": "2012-11-17T06:58:50-05:00"
		}
	]
}