{
	"greeting": "Greetings from The On-Line Encyclopedia of Integer Sequences! http://oeis.org/",
	"query": "id:A219654",
	"count": 1,
	"start": 0,
	"results": [
		{
			"number": 219654,
			"data": "1,1,2,2,2,4,4,4,4,2,4,4,4,4,6,4,4,4,6,6,6,6,6,6,6,6,8,4,2,4,4,4,4,6,4,4,4,6,6,6,6,6,6,6,6,8,6,8,8,6,4,4,4,6,6,6,6,6,6,6,6,8,6,8,8,6,8,10,6,6,6,6,6,6,6,8,6,8,8,6,8,10,8,10,12,6",
			"name": "Run lengths in A219652.",
			"comment": [
				"a(n) tells from how many starting values one can end to 0 in n steps, with the iterative process described in A219652 (if going around in 0-\u003e0 loop is disallowed)."
			],
			"link": [
				"A. Karttunen, \u003ca href=\"/A219654/b219654.txt\"\u003eTable of n, a(n) for n = 0..10080\u003c/a\u003e"
			],
			"formula": [
				"a(n) = A219653(n+1)-A219653(n). (The first differences of A219653)."
			],
			"program": [
				"(Scheme with two different variants):",
				"(define (A219654 n) (- (A219653 (1+ n)) (A219653 n)))",
				"(define (A219654v2 n) (1+ (- (A219655 n) (A219653 n))))"
			],
			"xref": [
				"a(n) = 1+(A219655(n)-A219653(n)). This sequence is based on Factorial number system: A007623. Analogous sequence for binary system: A086876, for Zeckendorf expansion: A219644. Cf. A219652, A219659, A219666."
			],
			"keyword": "nonn",
			"offset": "0,3",
			"author": "_Antti Karttunen_, Nov 25 2012",
			"references": 7,
			"revision": 7,
			"time": "2012-11-25T23:56:30-05:00",
			"created": "2012-11-25T23:56:30-05:00"
		}
	]
}