{
	"greeting": "Greetings from The On-Line Encyclopedia of Integer Sequences! http://oeis.org/",
	"query": "id:A219024",
	"count": 1,
	"start": 0,
	"results": [
		{
			"number": 219024,
			"data": "1,2,3,6,16,48,180,720,3456,17280,100800,604800,4147200,29030400,228614400,1828915200,16257024000,146313216000,1448500838400,14485008384000,158018273280000,1738201006080000,20713561989120000,248562743869440000,3212195459235840000",
			"name": "Number of length n mixed radix numbers with base [2, 3, 4, ...] (factorial base) such that the parities of adjacent digits differ.",
			"comment": [
				"Leading zeros are permitted.",
				"The base [2, 3, 4, ...] in the definition is sometimes called \"rising factorial base\".  Using the \"falling factorial base\" [ ..., 4, 3, 2] gives the same sequence.",
				"The number of such factorial numbers without any condition for the digit is (n+1)!."
			],
			"link": [
				"Alois P. Heinz, \u003ca href=\"/A219024/b219024.txt\"\u003eTable of n, a(n) for n = 0..200\u003c/a\u003e",
				"Wikipedia, \u003ca href=\"http://en.wikipedia.org/wiki/Factorial_number_system\"\u003eFactorial number system\u003c/a\u003e"
			],
			"formula": [
				"For n\u003e1, a(2n-1) = n * a(2n-2) = (n^2-1) * a(2n-3). - _Jon Perry_, Nov 15 2012"
			],
			"example": [
				"The a(4) = 16 such numbers are (dots for zeros):",
				"[ 1]   [ . 1 . 1 ]",
				"[ 2]   [ . 1 . 3 ]",
				"[ 3]   [ . 1 2 1 ]",
				"[ 4]   [ . 1 2 3 ]",
				"[ 5]   [ 1 . 1 . ]",
				"[ 6]   [ 1 . 1 2 ]",
				"[ 7]   [ 1 . 1 4 ]",
				"[ 8]   [ 1 . 3 . ]",
				"[ 9]   [ 1 . 3 2 ]",
				"[10]   [ 1 . 3 4 ]",
				"[11]   [ 1 2 1 . ]",
				"[12]   [ 1 2 1 2 ]",
				"[13]   [ 1 2 1 4 ]",
				"[14]   [ 1 2 3 . ]",
				"[15]   [ 1 2 3 2 ]",
				"[16]   [ 1 2 3 4 ]"
			],
			"maple": [
				"a:= proc(n) option remember; `if`(n\u003c4, 1+(5+(n-3)*n)*n/3,",
				"       (2*(n-6)*(n+1) *a(n-1)+ n*(n-1)*(n-2)*(n+3) *a(n-2))/",
				"       (4*(n-3)*(n+2)))",
				"    end:",
				"seq(a(n), n=0..30);  # _Alois P. Heinz_, Nov 15 2012"
			],
			"mathematica": [
				"a[0] = 1; a[1] = 2; a[n_?EvenQ] = a[n] = n*(n+4)/(2*(n+2))*a[n-1]; a[n_?OddQ] := a[n] = (n+1)/2*a[n-1]; Table[a[n], {n, 0, 30}] (* _Jean-François Alcover_, Apr 08 2015 *)"
			],
			"keyword": "nonn,base",
			"offset": "0,2",
			"author": "_Joerg Arndt_, Nov 10 2012",
			"references": 1,
			"revision": 41,
			"time": "2019-10-11T03:03:30-04:00",
			"created": "2012-11-15T11:29:48-05:00"
		}
	]
}