{
	"greeting": "Greetings from The On-Line Encyclopedia of Integer Sequences! http://oeis.org/",
	"query": "id:A219280",
	"count": 1,
	"start": 0,
	"results": [
		{
			"number": 219280,
			"data": "2,7,97,665857,708158977,150038171394905030432003281854339710977",
			"name": "Smallest prime of the form ChebyshevT[2^n, x].",
			"comment": [
				"ChebyshevT[2^n, x] is the 2^n th Chebyshev polynomial of the first kind evaluated at x.",
				"The corresponding numbers x are {2, 2, 2, 3, 2, 8, 164, 29, ...}.",
				"a(7) = T(128, 29) = 2518958009…2561281 contains 226 decimal digits."
			],
			"reference": [
				"M. Abramowitz and I. A. Stegun, eds., Handbook of Mathematical Functions, National Bureau of Standards Applied Math. Series 55, 1964 (and various reprintings), p. 795.",
				"C. W. Jones, J. C. P. Miller, J. F. C. Conn and R. C. Pankhurst, Tables of Chebyshev polynomials, Proc. Roy. Soc. Edinburgh. Sect. A. 62, (1946), 187-203."
			],
			"example": [
				"T(1, x) = x =\u003e a(0) = T(1,2) = 2 ;",
				"T(2, x) = 2x^2 - 1 =\u003e a(1) = T(2, 2) = 7 ;",
				"T(4, x) = 8x^4 - 8x^2 + 1 =\u003e a(2) = T(4,2) = 97."
			],
			"mathematica": [
				"Table[k = 0; While[!PrimeQ[ChebyshevT[2^n,k]], k++]; ChebyshevT[2^n,k], {n, 0, 7}]"
			],
			"xref": [
				"Cf. A066436, A144131, A144132, A219276, A219277, A219278, A219279."
			],
			"keyword": "nonn",
			"offset": "0,1",
			"author": "_Michel Lagneau_, Nov 17 2012",
			"references": 1,
			"revision": 12,
			"time": "2013-10-16T11:16:21-04:00",
			"created": "2012-11-27T14:44:22-05:00"
		}
	]
}