{
	"greeting": "Greetings from The On-Line Encyclopedia of Integer Sequences! http://oeis.org/",
	"query": "id:A219090",
	"count": 1,
	"start": 0,
	"results": [
		{
			"number": 219090,
			"data": "0,17,610,6433,37366,152243,490222,1334838,3205770,6983372,14071004,26600198,47683715,81721509,134764658,214942297,332956585,502650756,741655290,1072117239,1521517764,2123582899,2919292602,3957993128",
			"name": "Floor((n + 1/2)^7).",
			"comment": [
				"a(n) is the number k such that {k^p} \u003c 1/2 \u003c {(k+1)^p}, where p = 1/7 and { } = fractional part.  Equivalently, the jump sequence of f(x) = x^(1/7), in the sense that these are the nonnegative integers k for which round(k^p) \u003c round((k+1)^p).  It appears that the sequence is linearly recurrent with order 71.  For details and a guide to related sequences, see A219085."
			],
			"link": [
				"Clark Kimberling, \u003ca href=\"/A219090/b219090.txt\"\u003eTable of n, a(n) for n = 0..10000\u003c/a\u003e",
				"\u003ca href=\"/index/Rec\"\u003eIndex entries for linear recurrences with constant coefficients\u003c/a\u003e, signature (7, -21, 35, -35, 21, -7, 1, 0, 0, 0, 0, 0, 0, 0, 0, 0, 0, 0, 0, 0, 0,0, 0, 0, 0, 0, 0, 0, 0, 0, 0, 0, 0, 0, 0, 0, 0, 0, 0, 0, 0, 0, 0, 0, 0, 0, 0, 0, 0, 0, 0, 0, 0, 0, 0, 0, 0, 0, 0, 0, 0, 0, 0, 1, -7, 21, -35, 35, -21, 7, -1)."
			],
			"formula": [
				"a(n) = [(n + 1/2)^7]."
			],
			"mathematica": [
				"Table[Floor[(n + 1/2)^7], {n, 0, 100}]"
			],
			"xref": [
				"Cf. A219085."
			],
			"keyword": "nonn,easy",
			"offset": "0,2",
			"author": "_Clark Kimberling_, Jan 01 2013",
			"references": 2,
			"revision": 9,
			"time": "2021-01-21T03:14:41-05:00",
			"created": "2013-01-02T23:46:52-05:00"
		}
	]
}