{
	"greeting": "Greetings from The On-Line Encyclopedia of Integer Sequences! http://oeis.org/",
	"query": "id:A219594",
	"count": 1,
	"start": 0,
	"results": [
		{
			"number": 219594,
			"data": "28,112,2415,51122,939006,18945258,415752625,9020862207,186931045741,3664369196641",
			"name": "Number of nX7 arrays of the minimum value of corresponding elements and their horizontal or vertical neighbors in a random, but sorted with lexicographically nondecreasing rows and nonincreasing columns, 0..2 nX7 array",
			"comment": [
				"Column 7 of A219595"
			],
			"example": [
				"Some solutions for n=3",
				"..1..1..1..0..0..0..0....0..0..0..0..0..0..0....2..0..0..0..0..0..0",
				"..1..1..0..0..0..0..0....0..0..0..0..0..0..0....2..1..0..0..0..0..0",
				"..2..2..1..0..0..1..2....2..2..2..1..1..1..1....2..1..0..0..0..0..0"
			],
			"keyword": "nonn",
			"offset": "1,1",
			"author": "_R. H. Hardin_ Nov 23 2012",
			"references": 0,
			"revision": 3,
			"time": "2012-11-23T13:47:36-05:00",
			"created": "2012-11-23T13:47:36-05:00"
		}
	]
}