{
	"greeting": "Greetings from The On-Line Encyclopedia of Integer Sequences! http://oeis.org/",
	"query": "id:A219088",
	"count": 1,
	"start": 0,
	"results": [
		{
			"number": 219088,
			"data": "0,7,97,525,1845,5032,11602,23730,44370,77378,127628,201135,305175,448403,640973,894660,1222981,1641308,2166998,2819506,3620506,4594013,5766503,7167031,8827351,10782039,13068609,15727636,18802876",
			"name": "Floor((n + 1/2)^5).",
			"comment": [
				"a(n) is the number k such that {k^p} \u003c 1/2 \u003c {(k+1)^p}, where p = 1/5 and { } = fractional part.  Equivalently, the jump sequence of f(x) = x^(1/5), in the sense that these are the nonnegative integers k for which round(k^p) \u003c round((k+1)^p).  For details and a guide to related sequences, see A219085."
			],
			"link": [
				"Clark Kimberling, \u003ca href=\"/A219088/b219088.txt\"\u003eTable of n, a(n) for n = 0..10000\u003c/a\u003e",
				"\u003ca href=\"/index/Rec\"\u003eIndex entries for linear recurrences with constant coefficients\u003c/a\u003e, signature (5,-10,10,-5,1,0,0,0,0,0,0,0,0,0,0,1,-5,10,-10,5,-1)."
			],
			"formula": [
				"a(n) = [(n + 1/2)^5].",
				"G.f.: x*(x^19 +3*x^18 +68*x^17 +106*x^16 +121*x^15 +122*x^14 +120*x^13 +118*x^12 +120*x^11 +123*x^10 +116*x^9 +123*x^8 +120*x^7 +118*x^6 +120*x^5 +122*x^4 +120*x^3 +110*x^2 +62*x +7) / ((x -1)^6*(x +1)*(x^2 +1)*(x^4 +1)*(x^8 +1)). - _Colin Barker_, Jan 06 2013"
			],
			"mathematica": [
				"Table[Floor[(n + 1/2)^5], {n, 0, 100}]"
			],
			"xref": [
				"Cf. A219085."
			],
			"keyword": "nonn,easy",
			"offset": "0,2",
			"author": "_Clark Kimberling_, Jan 01 2013",
			"references": 2,
			"revision": 12,
			"time": "2015-06-13T00:54:35-04:00",
			"created": "2013-01-02T14:24:25-05:00"
		}
	]
}