{
	"greeting": "Greetings from The On-Line Encyclopedia of Integer Sequences! http://oeis.org/",
	"query": "id:A219995",
	"count": 1,
	"start": 0,
	"results": [
		{
			"number": 219995,
			"data": "1,3,8,1,5,9,8,0,6,6,1,0,6,1,3,8,7,3,5,1,4,8,7,0,9,0,0,1,0,6,3,0,8,6,8,3,0,4,4,8,5,5,2,7,7,2,4,4,3,5,1,0,6,6,5,9,7,7,6,6,9,3,8,2,3,0,0,7,6,5,3,1,7,8,4,9,6,1,7,3,6,5,5,6,6,9,9,2,7,4,9,4,9,2,6,6,8,1,5,0,5,1,8,5,1,6,0,3",
			"name": "Decimal expansion of Sum_{n \u003e= 1, b(n) != 1} 1/b(n)^n, where b(n) = A217626(n).",
			"comment": [
				"Decimal expansion of the limit to which tends the difference between the series for 1/A217626(x) and the Gamma function evaluated for M, where 2\u003cM and 1\u003c=x\u003cM!. - _R. J. Cano_, May 25 2017"
			],
			"link": [
				"R. J. Cano, \u003ca href=\"/A219995/b219995.txt\"\u003eTable of n, a(n) for n = 0..4999\u003c/a\u003e",
				"R. J. Cano, \u003ca href=\"/A219995/a219995_2.txt\"\u003eSequencer program.\u003c/a\u003e"
			],
			"example": [
				"0.138159806610613873514870900106308683044855277244..."
			],
			"mathematica": [
				"First@ RealDigits@ N[#, 108] \u0026@ Total@Map[1/#1^#2 \u0026 @@ # \u0026, DeleteCases[ MapIndexed[{#1, First@ #2} \u0026, #], _?(First@ # == 1 \u0026)]] \u0026@ Differences@ Flatten@ Table[(Drop[#, If[m == 1, 0, (m - 1)!]] - First@ #)/9 \u0026@ Map[FromDigits, Permutations@ Range@ m], {m, 7}] (* _Michael De Vlieger_, May 25 2017, after _Jean-François Alcover_ at A215940 *)"
			],
			"program": [
				"(PARI) See LINKS."
			],
			"xref": [
				"Cf. A215940, A217626."
			],
			"keyword": "nonn,base,easy,cons",
			"offset": "0,2",
			"author": "_R. J. Cano_, Dec 02 2012",
			"ext": [
				"Edited by _N. J. A. Sloane_, Dec 03 2012",
				"Offset corrected by _Rick L. Shepherd_, Jan 14 2014"
			],
			"references": 2,
			"revision": 60,
			"time": "2018-01-17T17:51:02-05:00",
			"created": "2012-12-03T11:33:18-05:00"
		}
	]
}