{
	"greeting": "Greetings from The On-Line Encyclopedia of Integer Sequences! http://oeis.org/",
	"query": "id:A219636",
	"count": 1,
	"start": 0,
	"results": [
		{
			"number": 219636,
			"data": "0,1,3,4,5,6,8,9,11,12,13,14,16,17,18,19,21,22,24,25,26,27,29,30,32,33,34,35,37,38,39,40,42,43,45,46,47,48,50,51,52,53,55,56,58,59,60,61,63,64,66,67,68,69,71,72,73,74,76,77,79,80,81,82,84,85,87",
			"name": "Complement of A035336.",
			"comment": [
				"This gives positions of those numbers in A219641 that occur twice, i.e. A219637."
			],
			"link": [
				"A. Karttunen, \u003ca href=\"/A219636/b219636.txt\"\u003eTable of n, a(n) for n = 1..10000\u003c/a\u003e"
			],
			"xref": [
				"Cf. A035336, A219637."
			],
			"keyword": "nonn",
			"offset": "1,3",
			"author": "_Antti Karttunen_, Nov 24 2012",
			"references": 2,
			"revision": 8,
			"time": "2012-11-25T23:46:43-05:00",
			"created": "2012-11-25T23:46:43-05:00"
		}
	]
}