{
	"greeting": "Greetings from The On-Line Encyclopedia of Integer Sequences! http://oeis.org/",
	"query": "id:A219151",
	"count": 1,
	"start": 0,
	"results": [
		{
			"number": 219151,
			"data": "4,9,32,104,360,1234,4224,14421,49292,168568,576373,1970380,6736149,23030217,78737741,269190899,920316854,3146418782,10757120910,36776888782,125734293267,429865563961,1469642274654,5024473730153",
			"name": "Unchanging value maps: number of n X 3 binary arrays indicating the locations of corresponding elements unequal to no horizontal, antidiagonal or vertical neighbor in a random 0..1 n X 3 array.",
			"comment": [
				"Column 3 of A219156."
			],
			"link": [
				"R. H. Hardin, \u003ca href=\"/A219151/b219151.txt\"\u003eTable of n, a(n) for n = 1..210\u003c/a\u003e"
			],
			"formula": [
				"Empirical: a(n) = 4*a(n-1) - 6*a(n-2) + 14*a(n-3) - 2*a(n-4) + a(n-5) + 11*a(n-6) - 9*a(n-7) + 6*a(n-8) - 3*a(n-9) - 4*a(n-10).",
				"Empirical g.f.: x*(4 - 7*x + 20*x^2 - 26*x^3 + 18*x^4 - 16*x^5 + 3*x^6 + 2*x^7 - 3*x^8) / ((1 - x + x^2)*(1 - 3*x + 2*x^2 - 9*x^3 - 9*x^4 - x^5 - 3*x^6 + 7*x^7 + 4*x^8)). - _Colin Barker_, Jul 25 2018"
			],
			"example": [
				"Some solutions for n=3:",
				"..1..1..1....0..0..0....1..0..0....1..1..0....1..1..0....0..0..0....1..1..0",
				"..1..0..0....0..0..0....1..0..0....0..0..0....1..0..0....0..0..0....0..0..0",
				"..0..0..0....1..0..0....1..0..0....0..0..0....0..0..0....0..0..0....0..0..1"
			],
			"xref": [
				"Cf. A219156."
			],
			"keyword": "nonn",
			"offset": "1,1",
			"author": "_R. H. Hardin_, Nov 12 2012",
			"references": 1,
			"revision": 7,
			"time": "2018-07-25T08:06:00-04:00",
			"created": "2012-11-12T20:52:02-05:00"
		}
	]
}