{
	"greeting": "Greetings from The On-Line Encyclopedia of Integer Sequences! http://oeis.org/",
	"query": "id:A219255",
	"count": 1,
	"start": 0,
	"results": [
		{
			"number": 219255,
			"data": "1,2,3,5,6,7,8,10,17,23,24,25,34,36,37,45,51,120,124,219,231,244,251,2034,2057,3121,4176,5185,9492",
			"name": "Numbers n for which prime(n) divides at least one sum of two consecutive terms in sequence {f_m(k)}, defined in A224523.",
			"comment": [
				"Places of the last elements of runs of the same terms in A224523 are in the sequence. Whether these sequences coincide one to another?"
			],
			"example": [
				"7 is in the sequence, since prime(7)=17 and sequence {f_7(k)} is periodic with period {1,1,2,3,5,8,13,21,2,1,3,4,7,11,18}, such that sum of terms 13+21=34 is divisible by 17."
			],
			"mathematica": [
				"Rest[Flatten[Position[Differences[A224523], Except[0]]]] (* _Peter J. C. Moses_, Apr 13 2013 *)"
			],
			"xref": [
				"Cf. A078414, A078412, A214684, A219328, A224523."
			],
			"keyword": "nonn,more",
			"offset": "1,2",
			"author": "_Vladimir Shevelev_, Apr 11 2013",
			"references": 1,
			"revision": 21,
			"time": "2013-05-23T11:57:44-04:00",
			"created": "2013-04-23T14:09:52-04:00"
		}
	]
}