{
	"greeting": "Greetings from The On-Line Encyclopedia of Integer Sequences! http://oeis.org/",
	"query": "id:A219007",
	"count": 1,
	"start": 0,
	"results": [
		{
			"number": 219007,
			"data": "1,1632,131548,6639893,377629096,22776074699",
			"name": "Unmatched value maps: number of 6Xn binary arrays indicating the locations of corresponding elements not equal to any horizontal, diagonal or antidiagonal neighbor in a random 0..2 6Xn array",
			"comment": [
				"Row 6 of A219002"
			],
			"example": [
				"Some solutions for n=3",
				"..1..0..1....0..0..1....0..0..1....0..1..0....0..0..0....1..0..0....0..0..0",
				"..0..1..0....1..1..0....1..0..1....0..0..1....1..1..1....0..1..1....0..1..1",
				"..0..1..1....1..0..0....1..0..0....1..1..0....0..0..1....1..0..0....1..1..1",
				"..1..0..0....1..1..0....0..1..1....1..1..1....0..1..0....0..1..1....1..0..0",
				"..0..1..0....1..0..1....1..1..1....0..0..1....1..0..1....0..1..0....1..0..1",
				"..1..0..1....0..1..0....1..1..1....0..0..0....0..1..0....1..0..1....1..1..1"
			],
			"keyword": "nonn",
			"offset": "1,2",
			"author": "_R. H. Hardin_ Nov 09 2012",
			"references": 0,
			"revision": 3,
			"time": "2012-11-09T08:42:03-05:00",
			"created": "2012-11-09T08:42:03-05:00"
		}
	]
}