{
	"greeting": "Greetings from The On-Line Encyclopedia of Integer Sequences! http://oeis.org/",
	"query": "id:A219073",
	"count": 1,
	"start": 0,
	"results": [
		{
			"number": 219073,
			"data": "5,47,337,2469,18499,137251,1019123,7573641,56263253,417979331,3105269893,23069495037,171386678155,1273258576351,9459233511263,70274099126769,522077106920261,3878591175268919,28814650755208777",
			"name": "Hilltop maps: number of n X 3 binary arrays indicating the locations of corresponding elements not exceeded by any horizontal, diagonal or antidiagonal neighbor in a random 0..1 n X 3 array.",
			"comment": [
				"Column 3 of A219078."
			],
			"link": [
				"R. H. Hardin, \u003ca href=\"/A219073/b219073.txt\"\u003eTable of n, a(n) for n = 1..210\u003c/a\u003e"
			],
			"formula": [
				"Empirical: a(n) = 5*a(n-1) + 11*a(n-2) + 51*a(n-3) + 7*a(n-4) + 27*a(n-5) - 33*a(n-6) - 3*a(n-7).",
				"Empirical g.f.: x*(5 + 22*x + 47*x^2 + 12*x^3 + 15*x^4 - 54*x^5 - 3*x^6) / (1 - 5*x - 11*x^2 - 51*x^3 - 7*x^4 - 27*x^5 + 33*x^6 + 3*x^7). - _Colin Barker_, Jul 25 2018"
			],
			"example": [
				"Some solutions for n=3.",
				"..0..1..1....1..0..1....1..0..1....0..1..1....1..1..1....1..0..0....1..1..0",
				"..0..0..0....1..0..0....0..0..1....0..0..1....0..1..1....0..1..1....1..1..1",
				"..0..1..0....1..1..1....0..1..1....0..1..1....0..1..0....0..1..1....0..1..1"
			],
			"xref": [
				"Cf. A219078."
			],
			"keyword": "nonn",
			"offset": "1,1",
			"author": "_R. H. Hardin_, Nov 11 2012",
			"references": 1,
			"revision": 8,
			"time": "2018-07-25T05:20:18-04:00",
			"created": "2012-11-11T14:19:25-05:00"
		}
	]
}