{
	"greeting": "Greetings from The On-Line Encyclopedia of Integer Sequences! http://oeis.org/",
	"query": "id:A219902",
	"count": 1,
	"start": 0,
	"results": [
		{
			"number": 219902,
			"data": "0,0,5,14,32,57,97,145,215,295,402,522,675,842,1049,1272",
			"name": "Number of isomorphism classes of IPR nanocones with 3 pentagons and a nearsymmetric boundary of length n.",
			"reference": [
				"G. Brinkmann and N. Van Cleemput, Classification and generation of nanocones, Discrete Applied Mathematics, 159 (2011), 1528-1539."
			],
			"xref": [
				"Cf. A197988, A198014, A198015, A198016, A198086, A219901-A219905."
			],
			"keyword": "nonn",
			"offset": "0,3",
			"author": "_N. J. A. Sloane_, Dec 01 2012",
			"references": 0,
			"revision": 4,
			"time": "2012-12-01T18:11:14-05:00",
			"created": "2012-12-01T18:11:14-05:00"
		}
	]
}