{
	"greeting": "Greetings from The On-Line Encyclopedia of Integer Sequences! http://oeis.org/",
	"query": "id:A219267",
	"count": 1,
	"start": 0,
	"results": [
		{
			"number": 219267,
			"data": "1,7,313,110143,431860201,24185951471887,23238336572015738041,445571476975584446962639039,194201470505208674769594891331807753,2157794122078406207016487628429579826176795887,677208230450612019931822374477208301572175793625037599321",
			"name": "Logarithmic derivative of the hyperfactorials (A002109).",
			"comment": [
				"Hyperfactorial A002109(n) = Product_{k=0..n} k^k."
			],
			"reference": [
				"Mohammad K. Azarian, On the Hyperfactorial Function, Hypertriangular Function, and the Discriminants of Certain Polynomials, International Journal of Pure and Applied Mathematics, Vol. 36, No. 2, 2007, pp. 251-257.  Mathematical Reviews, MR2312537.  Zentralblatt MATH, Zbl 1133.11012."
			],
			"formula": [
				"a(n) ~ A * n^(n*(n+1)/2 + 13/12) / exp(n^2/4), where A = A074962 = 1.2824271291... is the Glaisher-Kinkelin constant. - _Vaclav Kotesovec_, Jul 10 2015"
			],
			"example": [
				"L.g.f.: L(x) = x + 7*x^2/2 + 313*x^3/3 + 110143*x^4/4 + 431860201*x^5/5 +...",
				"where",
				"exp(L(x)) = 1 + x + 4*x^2 + 108*x^3 + 27648*x^4 + 86400000*x^5 + 4031078400000*x^6 +...+ n^n*(n-1)^(n-1)*(n-2)^(n-2)*...*3^3*2^2*1^1*0^0**x^n +..."
			],
			"mathematica": [
				"nmax=15; Rest[CoefficientList[Series[Log[Sum[Product[j^j,{j,1,k}]*x^k,{k,0,nmax}]],{x,0,nmax}],x] * Range[0,nmax]] (* _Vaclav Kotesovec_, Jul 10 2015 *)"
			],
			"program": [
				"(PARI) {a(n)=n*polcoeff(log(sum(k=0,n+1,prod(j=0,k,j^j)*x^k)+x*O(x^n)),n)}",
				"for(n=1,21,print1(a(n),\", \"))"
			],
			"xref": [
				"Cf. A002109, A219266, A219268."
			],
			"keyword": "nonn",
			"offset": "1,2",
			"author": "_Paul D. Hanna_, Nov 16 2012",
			"references": 1,
			"revision": 9,
			"time": "2015-07-10T07:18:33-04:00",
			"created": "2012-11-16T22:33:23-05:00"
		}
	]
}