{
	"greeting": "Greetings from The On-Line Encyclopedia of Integer Sequences! http://oeis.org/",
	"query": "id:A219690",
	"count": 1,
	"start": 0,
	"results": [
		{
			"number": 219690,
			"data": "21,60,655,5726,44816,344926,2709320,21474269,167685059,1273322836,9386203438,67340577300,471427290355,3224592437317,21562151377146,141010883018273,902366368908706,5653483899077449,34695071833947322",
			"name": "Number of 6Xn arrays of the minimum value of corresponding elements and their horizontal, vertical or antidiagonal neighbors in a random, but sorted with lexicographically nondecreasing rows and nonincreasing columns, 0..2 6Xn array",
			"comment": [
				"Row 6 of A219686"
			],
			"link": [
				"R. H. Hardin, \u003ca href=\"/A219690/b219690.txt\"\u003eTable of n, a(n) for n = 1..41\u003c/a\u003e"
			],
			"example": [
				"Some solutions for n=3",
				"..1..0..0....0..0..0....0..0..0....0..0..0....1..0..0....2..1..1....2..0..0",
				"..0..0..0....0..0..0....0..0..0....0..0..0....1..0..0....2..1..1....2..0..0",
				"..0..0..0....0..0..0....1..0..0....1..1..1....1..0..0....2..1..1....2..0..0",
				"..1..1..2....0..0..0....1..1..0....1..1..1....1..0..0....2..1..1....2..1..1",
				"..2..2..2....0..0..0....1..0..0....1..1..0....0..0..0....2..2..2....2..1..1",
				"..2..2..2....2..2..2....2..0..0....1..0..0....0..0..2....2..2..2....2..2..2"
			],
			"keyword": "nonn",
			"offset": "1,1",
			"author": "_R. H. Hardin_ Nov 25 2012",
			"references": 1,
			"revision": 4,
			"time": "2012-11-25T04:55:38-05:00",
			"created": "2012-11-25T04:55:38-05:00"
		}
	]
}