{
	"greeting": "Greetings from The On-Line Encyclopedia of Integer Sequences! http://oeis.org/",
	"query": "id:A220165",
	"count": 1,
	"start": 0,
	"results": [
		{
			"number": 220165,
			"data": "0,0,0,0,0,0,0,0,1,0,0,9,33,104,280,948,3014,9494,30302,98897,323372,1080168,3666666,12604812",
			"name": "Number of nonsquare simple imperfect squared rectangles of order n up to symmetry.",
			"comment": [
				"A squared rectangle is a rectangle dissected into a finite number, two or more, of squares. If no two of these squares have the same size the squared rectangle is perfect. A squared rectangle is simple if it does not contain a smaller squared rectangle. The order of a squared rectangle is the number of constituent squares."
			],
			"reference": [
				"See A002881 and A006983."
			],
			"link": [
				"Stuart E. Anderson, \u003ca href=\"http://www.squaring.net/sq/sr/sisr/sisr.html\"\u003eSimple Imperfect Squared Rectangles, orders 9 to 24\u003c/a\u003e"
			],
			"xref": [
				"Cf. A002881, A006983, A002962, A002839."
			],
			"keyword": "nonn,hard",
			"offset": "1,12",
			"author": "_Stuart E Anderson_, Dec 06 2012",
			"references": 3,
			"revision": 13,
			"time": "2013-03-11T12:13:12-04:00",
			"created": "2012-12-07T11:59:37-05:00"
		}
	]
}