{
	"greeting": "Greetings from The On-Line Encyclopedia of Integer Sequences! http://oeis.org/",
	"query": "id:A220203",
	"count": 1,
	"start": 0,
	"results": [
		{
			"number": 220203,
			"data": "84,567,33804,1594229,70265746,3139823062",
			"name": "Number of nX7 arrays of the minimum value of corresponding elements and their horizontal, vertical or diagonal neighbors in a random, but sorted with lexicographically nondecreasing rows and nonincreasing columns, 0..3 nX7 array",
			"comment": [
				"Column 7 of A220204"
			],
			"example": [
				"Some solutions for n=3",
				"..1..0..0..1..1..1..1....3..1..0..0..0..0..0....2..0..0..1..1..1..1",
				"..1..0..0..0..1..1..1....3..2..1..0..0..0..0....2..0..0..0..1..1..1",
				"..1..1..0..0..0..2..2....3..3..2..2..2..0..0....2..2..0..0..1..2..2"
			],
			"keyword": "nonn",
			"offset": "1,1",
			"author": "_R. H. Hardin_ Dec 07 2012",
			"references": 0,
			"revision": 3,
			"time": "2012-12-07T07:06:13-05:00",
			"created": "2012-12-07T07:06:13-05:00"
		}
	]
}