{
	"greeting": "Greetings from The On-Line Encyclopedia of Integer Sequences! http://oeis.org/",
	"query": "id:A220294",
	"count": 1,
	"start": 0,
	"results": [
		{
			"number": 220294,
			"data": "3,13,241,65281,4294901761,18446744069414584321,340282366920938463444927863358058659841,115792089237316195423570985008687907852929702298719625575994209400481361428481",
			"name": "a(n) = 1 - 2^(2^n) + 2^(2^(n+1)).",
			"comment": [
				"An infinite coprime sequence defined by recursion."
			],
			"formula": [
				"A220161(n+1) = a(n) * A220161(n).",
				"a(n+1) = 1 + (a(n) - 1) * (A220161(n) - 1).",
				"a(n) = A002716(2*n) = 1 + A087046(n+2) = 1 + A111403(n).",
				"a(n) = A002061(A001146(n)). - _Pontus von Brömssen_, Aug 31 2021"
			],
			"mathematica": [
				"Table[4^(2^m) - 2^(2^m) + 1, {m, 0, 7}] (* _Michael De Vlieger_, Aug 02 2016 *)"
			],
			"program": [
				"(PARI) {a(n) = if( n\u003c0, 0, 1 - 2^(2^n) + 2^(2^(n+1)))};",
				"(Maxima) A220294(n):=1 - 2^(2^n) + 2^(2^(n+1))$ makelist(A220294(n),n,0,10); /* _Martin Ettl_, Dec 10 2012 */",
				"(MAGMA) [1 - 2^(2^n) + 2^(2^(n+1)): n in [0..10]]; // _G. C. Greubel_, Aug 10 2018"
			],
			"xref": [
				"Cf. A001146, A002061, A002716, A087046, A111403, A220161, A255770, A255771, A255772."
			],
			"keyword": "nonn",
			"offset": "0,1",
			"author": "_Michael Somos_, Dec 10 2012",
			"references": 7,
			"revision": 30,
			"time": "2021-08-31T14:35:22-04:00",
			"created": "2012-12-10T02:55:01-05:00"
		}
	]
}