{
	"greeting": "Greetings from The On-Line Encyclopedia of Integer Sequences! http://oeis.org/",
	"query": "id:A220040",
	"count": 1,
	"start": 0,
	"results": [
		{
			"number": 220040,
			"data": "20,50,848,8337,74547,595862,4640546,35547836,263385608,1857934074,12439748110,79439449660,486913051008,2878634626483,16468443715880,91373937997461,492567100876598,2583758599155915,13206265883717876",
			"name": "Number of n X 4 arrays of the minimum value of corresponding elements and their horizontal, diagonal or antidiagonal neighbors in a random, but sorted with lexicographically nondecreasing rows and nonincreasing columns, 0..3 n X 4 array.",
			"comment": [
				"Column 4 of A220044."
			],
			"link": [
				"R. H. Hardin, \u003ca href=\"/A220040/b220040.txt\"\u003eTable of n, a(n) for n = 1..210\u003c/a\u003e"
			],
			"example": [
				"Some solutions for n=3:",
				"..2..1..0..1....2..0..0..0....0..0..0..0....2..2..0..1....1..0..0..0",
				"..2..1..0..0....2..0..0..0....0..0..0..0....2..1..0..0....1..0..0..0",
				"..2..2..0..0....2..3..2..3....1..1..0..1....2..1..0..0....3..3..0..3"
			],
			"xref": [
				"Cf. A220044."
			],
			"keyword": "nonn",
			"offset": "1,1",
			"author": "_R. H. Hardin_, Dec 03 2012",
			"references": 1,
			"revision": 8,
			"time": "2014-11-01T03:11:20-04:00",
			"created": "2012-12-03T09:46:53-05:00"
		}
	]
}