{
	"greeting": "Greetings from The On-Line Encyclopedia of Integer Sequences! http://oeis.org/",
	"query": "id:A220080",
	"count": 1,
	"start": 0,
	"results": [
		{
			"number": 220080,
			"data": "0,1,1,2,4,3,3,2,4,2,4,6,8,10,12,14,16,6,8,10,12,6,8,10,12,2,4,6,8,10,12,14,16,2,4,6,8,10,12,14,16,18,20,22,24,26,28,30,32,34,36,38,40,42,44,46,48,50,52,54",
			"name": "Length of longest palindromic suffix of the prefix of length n of the Thue-Morse sequence (A010060).",
			"reference": [
				"A. Blondin-Massé, S. Brlek, A. Garon, and S. Labbé, Combinatorial properties of f-palindromes in the Thue-Morse Sequence, Pure. Math. Appl., 19 (2-3) (2008), 39-52"
			],
			"link": [
				"Alois P. Heinz, \u003ca href=\"/A220080/b220080.txt\"\u003eTable of n, a(n) for n = 0..8192\u003c/a\u003e"
			],
			"example": [
				"a(3) = 2 because the prefix of length 3 of the Thue-Morse sequence is 011, and the longest palindromic suffix of 011 is 11, which is of length 2."
			],
			"xref": [
				"Cf. A010060."
			],
			"keyword": "nonn",
			"offset": "0,4",
			"author": "_Jeffrey Shallit_, Feb 19 2013",
			"references": 4,
			"revision": 49,
			"time": "2019-11-16T15:41:17-05:00",
			"created": "2013-02-19T14:07:47-05:00"
		}
	]
}