{
	"greeting": "Greetings from The On-Line Encyclopedia of Integer Sequences! http://oeis.org/",
	"query": "id:A220000",
	"count": 1,
	"start": 0,
	"results": [
		{
			"number": 220000,
			"data": "16,31,47,63,78,94,109,125,141,156,172,188,203,219,234,250,266,281,297,313,328,344,359,375,391,406,422,438,453,469,484,500,516,531,547,563,578,594,609,625,641,656,672,688,703,719,734,750,766,781",
			"name": "Sixty fourths of an inch in thousandths, rounded to nearest integer.",
			"comment": [
				"Diameter of successive drill bits, in thousandths of an inch, within an ordered set consisting of increments of 1/64th of an inch. Traditionally the sizes of bits in such a set are expressed in simplest reduced fractional inch values: 1/64, 1/32, 3/64, 1/16, etc. Of fundamental importance to machinists, tool and die makers, carpenters, hobbyists, insomnial science teachers, etc."
			],
			"reference": [
				"Jack Erjavec, Automotive Technology, 2010, pages 66-73.",
				"Frank D. Graham, Audels Machinists and Tool Makers Handy Book, 1941, pages 34-48.",
				"IBM Corp., Precision Measurement in the Metal Working Industry, 1939, page 11."
			],
			"link": [
				"Hamuniverse, \u003ca href=\"http://www.hamuniverse.com/antfrac.html\"\u003eHandy Table for Measurements and Conversions\u003c/a\u003e",
				"JGB Enterprises, \u003ca href=\"http://www.jgbhose.com/Data_Returns/fraction_chart.asp\"\u003eFraction-Decimal Conversion Chart\u003c/a\u003e",
				"Kellog Community College, \u003ca href=\"http://academic.kellogg.edu/cad/pdf/decimal_chart.pdf\"\u003eFraction/Decimal/Conversion Chart\u003c/a\u003e",
				"Moam, Inc., \u003ca href=\"http://www.moam-inc.com/DECIMAL_EQ_CHART.pdf\"\u003eDecimal Equivalents: Fractions-Inches-Millimeters-Points\u003c/a\u003e",
				"\u003ca href=\"/index/Rec\"\u003eIndex entries for linear recurrences with constant coefficients\u003c/a\u003e, signature (1,0,0,0,0,0,0,1,-1)."
			],
			"formula": [
				"a(n) = round(125n/8), with 0.5 rounded up."
			],
			"example": [
				"For n = 5 the a(5) term = (5/64)*1000 = 78.125, which is rounded to 78."
			],
			"mathematica": [
				"Table[Floor[1000 n/64+1/2],{n,64}] (* _Harvey P. Dale_, Jan 13 2020 *)"
			],
			"program": [
				"(PARI) a(n)=(125*n+4)\\8 \\\\ _Charles R Greathouse IV_, Dec 06 2012"
			],
			"xref": [
				"Cf. A085269, A029919, A029920, A169860, A169861."
			],
			"keyword": "nonn,easy",
			"offset": "1,1",
			"author": "_Marc Alan Rosner_, Dec 03 2012",
			"references": 0,
			"revision": 20,
			"time": "2020-01-13T16:45:43-05:00",
			"created": "2012-12-06T23:10:18-05:00"
		}
	]
}