{
	"greeting": "Greetings from The On-Line Encyclopedia of Integer Sequences! http://oeis.org/",
	"query": "id:A220059",
	"count": 1,
	"start": 0,
	"results": [
		{
			"number": 220059,
			"data": "1,1,4895,358397,103628653,16939662301,3448441154503,643234164533111,124179182077944123,23649239068131551559,4528155459015015278497,865169296748334990311763,165442366105217743521821785,31626233120646483498726015897,6046521630766477909485058575551",
			"name": "Number of tilings of a 9 X n rectangle using right trominoes and 1 X 1 tiles.",
			"link": [
				"Alois P. Heinz, \u003ca href=\"/A220059/b220059.txt\"\u003eTable of n, a(n) for n = 0..150\u003c/a\u003e"
			],
			"xref": [
				"Column k=9 of A220054."
			],
			"keyword": "nonn",
			"offset": "0,3",
			"author": "_Alois P. Heinz_, Dec 03 2012",
			"references": 2,
			"revision": 4,
			"time": "2012-12-03T17:19:03-05:00",
			"created": "2012-12-03T17:19:03-05:00"
		}
	]
}