{
	"greeting": "Greetings from The On-Line Encyclopedia of Integer Sequences! http://oeis.org/",
	"query": "id:A220825",
	"count": 1,
	"start": 0,
	"results": [
		{
			"number": 220825,
			"data": "5,15,110,965,9376,97775,1068450,12081605,140160650,1658936806,19953117520,243173225615,2996409047690,37268293795255,467259511562294,5899263870621530,74934997567372640,956996551484947905,12280538887616448930,158266409616840974927",
			"name": "Number of rooted gene trees with n leaves on the label set [5].",
			"link": [
				"Andrew Howroyd, \u003ca href=\"/A220825/b220825.txt\"\u003eTable of n, a(n) for n = 1..200\u003c/a\u003e",
				"V. P. Johnson, \u003ca href=\"http://people.math.sc.edu/czabarka/Theses/JohnsonThesis.pdf\"\u003eEnumeration Results on Leaf Labeled Trees\u003c/a\u003e, Ph. D. Dissertation, Univ. Southern Calif., 2012."
			],
			"xref": [
				"Column 5 of A319254."
			],
			"keyword": "nonn",
			"offset": "1,1",
			"author": "_N. J. A. Sloane_, Dec 22 2012",
			"ext": [
				"Terms a(11) and beyond from _Andrew Howroyd_, Sep 17 2018"
			],
			"references": 2,
			"revision": 10,
			"time": "2018-09-17T17:05:58-04:00",
			"created": "2012-12-22T19:50:21-05:00"
		}
	]
}