{
	"greeting": "Greetings from The On-Line Encyclopedia of Integer Sequences! http://oeis.org/",
	"query": "id:A220861",
	"count": 1,
	"start": 0,
	"results": [
		{
			"number": 220861,
			"data": "-4,-3,-20,-7,-11,-52,-68,-19,-23,-116,-31,-148,-164,-43,-47,-212,-59,-244,-67,-71,-292,-79,-83,-356,-388,-404,-103,-107,-436,-452,-127,-131,-548,-139,-596,-151,-628,-163,-167,-692,-179,-724,-191,-772,-788,-199",
			"name": "Choose smallest m\u003e0 such that the n-th rational prime p ramifies in the imaginary quadratic extension field K = Q(sqrt(-m)); a(n) = discriminant(K).",
			"comment": [
				"m=1 if p=2, otherwise m=p."
			],
			"reference": [
				"David A. Cox, \"Primes of the Form x^2 + n y^2\", Wiley, 1989, Cor. 5.17, p. 105."
			],
			"link": [
				"Bruno Berselli, \u003ca href=\"/A220861/b220861.txt\"\u003eTable of n, a(n) for n = 1..1000\u003c/a\u003e"
			],
			"formula": [
				"Let p = prime(n). Then a(n) = -4 if p = 2, -p if p == 3 mod 4, -4p if p == 1 mod 4."
			],
			"xref": [
				"Cf. A088192, A220862, A220863."
			],
			"keyword": "sign",
			"offset": "1,1",
			"author": "_N. J. A. Sloane_, Dec 26 2012",
			"references": 4,
			"revision": 27,
			"time": "2014-01-25T16:39:17-05:00",
			"created": "2012-12-26T17:06:45-05:00"
		}
	]
}