{
	"greeting": "Greetings from The On-Line Encyclopedia of Integer Sequences! http://oeis.org/",
	"query": "id:A220167",
	"count": 1,
	"start": 0,
	"results": [
		{
			"number": 220167,
			"data": "3,6,22,76,247,848,2892,9969,34455,119894,420582,1482874,5254954,18714432,66969859,240739417",
			"name": "Number of simple squared rectangles of order n up to symmetry.",
			"comment": [
				"A squared rectangle (which may be a square) is a rectangle dissected into a finite number, two or more, of integer sized squares. If no two of these squares have the same size the squared rectangle is perfect. A squared rectangle is simple if it does not contain a smaller squared rectangle. The order of a squared rectangle is the number of constituent squares.  This sequence counts simple perfect squared rectangles and simple imperfect squared rectangles."
			],
			"reference": [
				"See A006983 and A217156 for references and links."
			],
			"link": [
				"S. E. Anderson, \u003ca href=\"http://www.squaring.net/sq/sr/spsr/spsr.html\"\u003eSimple Perfect Squared Rectangles\u003c/a\u003e [Nonsquare rectangles only]",
				"S. E. Anderson, \u003ca href=\"http://www.squaring.net/sq/ss/spss/spss.html\"\u003eSimple Perfect Squared Squares\u003c/a\u003e",
				"S. E. Anderson, \u003ca href=\"http://www.squaring.net/sq/sr/sisr/sisr.html\"\u003eSimple Imperfect Squared Rectangles\u003c/a\u003e [Nonsquare rectangles only]",
				"S. E. Anderson, \u003ca href=\"http://www.squaring.net/sq/ss/siss/siss.html\"\u003eSimple Imperfect Squared Squares\u003c/a\u003e"
			],
			"formula": [
				"a(n) = A002839(n) + A002881(n).",
				"a(n) = A006983(n) + A002962(n) + A220165(n) + A219766(n).",
				"a(n) = ((n^(-5/2))*(4^n))/(2^5*sqrt(pi)), from 'A Census of Planar Maps', William Tutte gave an asymptotic formula for the number of perfect squared rectangles where n is the number of elements in the dissection (the order)."
			],
			"xref": [
				"Cf. A002839, A002881, A006983, A002962, A220165, A219766."
			],
			"keyword": "nonn,hard",
			"offset": "1,1",
			"author": "_Stuart E Anderson_, Dec 06 2012",
			"ext": [
				"a(9)-a(24) from _Stuart E Anderson_ Dec 07 2012"
			],
			"references": 0,
			"revision": 6,
			"time": "2012-12-07T12:03:29-05:00",
			"created": "2012-12-07T12:03:29-05:00"
		}
	]
}