{
	"greeting": "Greetings from The On-Line Encyclopedia of Integer Sequences! http://oeis.org/",
	"query": "id:A220607",
	"count": 1,
	"start": 0,
	"results": [
		{
			"number": 220607,
			"data": "1,1,0,5,7,6,7,0,7,2,3,2,9,5,6,7,3,2,6,6,1,9,8,4,9,2,9,4,2,4,7,3,3,7,5,2,9,2,3,1,5,4,6,9,7,6,8,2,0,0,3,8,8,4,8,9,4,5,3,8,0,0,2,3,5,8,6,4,1,8,4,9,3,3,4,7,9,2,0,5,6,2,5,0,3,2,8",
			"name": "Decimal expansion of Gamma(6/7).",
			"comment": [
				"See the second comment of A220086."
			],
			"link": [
				"Vincenzo Librandi, \u003ca href=\"/A220607/b220607.txt\"\u003eTable of n, a(n) for n = 1..1000\u003c/a\u003e",
				"\u003ca href=\"/index/Ga#gamma_function\"\u003eIndex to sequences related to the Gamma function\u003c/a\u003e"
			],
			"formula": [
				"Equals Pi*csc(Pi/7)/A220086, where csc is the cosecant function."
			],
			"mathematica": [
				"RealDigits[Gamma[6/7], 10, 90][[1]]"
			],
			"program": [
				"(Maxima) fpprec:90; ev(bfloat(gamma(6/7)));"
			],
			"xref": [
				"Cf. A160389 (see the first comment of A220086)."
			],
			"keyword": "nonn,cons",
			"offset": "1,4",
			"author": "_Bruno Berselli_, Dec 17 2012",
			"references": 5,
			"revision": 27,
			"time": "2013-01-10T06:43:56-05:00",
			"created": "2012-12-17T06:01:07-05:00"
		}
	]
}