{
	"greeting": "Greetings from The On-Line Encyclopedia of Integer Sequences! http://oeis.org/",
	"query": "id:A221902",
	"count": 1,
	"start": 0,
	"results": [
		{
			"number": 221902,
			"data": "31,103,211,751,1291,2371,2803,3271,5503,6151,8311,9103,9931,17851,23971,25303,32503,42331,49603,51511,68071,82003,94603,97231,105331,119551,122503,137803,157351,167611,171103,174631,192811,204151",
			"name": "Primes of the form 2*n^2 + 10*n + 3.",
			"comment": [
				"Conjecture: After the first term, 2^a(n)-1 is not prime; in other words, these primes (except 31) are included in A054723.",
				"2*a(n) + 19 is a square. - _Vincenzo Librandi_, Apr 10 2015"
			],
			"link": [
				"Vincenzo Librandi, \u003ca href=\"/A221902/b221902.txt\"\u003eTable of n, a(n) for n = 1..1000\u003c/a\u003e"
			],
			"mathematica": [
				"Select[Table[2 n^2 + 10 n + 3,{n, 500}],PrimeQ]"
			],
			"program": [
				"(MAGMA) [a: n in [1..500] | IsPrime(a) where a is 2*n^2 + 10*n + 3];"
			],
			"xref": [
				"Cf. Primes of the form 2*n^2+2*(2*k+3)*n+(2*k+1): A176549 (k=0), A154577 (k=2), A154592 (k=3), A154601 (k=4), A217494 (k=7), A217495 (k=10), A217496 (k=11), A217497 (k=12), A217498 (k=13), A217499 (k=16), A217500 (k=17), A217501 (k=18), A217620 (k=19), A217621 (k=21).",
				"Cf. A054723 (Prime exponents of nonprime Mersenne numbers)."
			],
			"keyword": "nonn,easy",
			"offset": "1,1",
			"author": "_Vincenzo Librandi_, Jan 31 2013",
			"references": 3,
			"revision": 14,
			"time": "2015-04-10T09:26:57-04:00",
			"created": "2013-02-06T02:48:38-05:00"
		}
	]
}