{
	"greeting": "Greetings from The On-Line Encyclopedia of Integer Sequences! http://oeis.org/",
	"query": "id:A221811",
	"count": 1,
	"start": 0,
	"results": [
		{
			"number": 221811,
			"data": "0,41,154,3906,32636,486331,5202774,66756344,772945086,9475253764,112494210565,1359628053466,16269612307575,195771981733605,2348419076818492,28219682481306224,338773827925545799",
			"name": "Number of 3Xn arrays of occupancy after each element moves to some horizontal, vertical or antidiagonal neighbor, without move-in move-out straight through or left turns",
			"comment": [
				"Row 3 of A221809"
			],
			"link": [
				"R. H. Hardin, \u003ca href=\"/A221811/b221811.txt\"\u003eTable of n, a(n) for n = 1..96\u003c/a\u003e"
			],
			"example": [
				"Some solutions for n=3",
				"..0..2..0....0..2..0....0..2..1....1..0..0....1..1..1....1..1..1....1..1..1",
				"..1..3..2....1..2..0....2..3..0....2..2..2....1..2..1....1..0..1....1..2..2",
				"..0..1..0....1..1..2....0..1..0....0..1..1....1..0..1....1..2..1....0..0..1"
			],
			"keyword": "nonn",
			"offset": "1,2",
			"author": "_R. H. Hardin_ Jan 26 2013",
			"references": 1,
			"revision": 4,
			"time": "2013-01-26T06:59:13-05:00",
			"created": "2013-01-26T06:59:13-05:00"
		}
	]
}