{
	"greeting": "Greetings from The On-Line Encyclopedia of Integer Sequences! http://oeis.org/",
	"query": "id:A221029",
	"count": 1,
	"start": 0,
	"results": [
		{
			"number": 221029,
			"data": "1,7,228,24485,12239631,23287585899,183738465400508",
			"name": "Majority value maps: number of n X n binary arrays indicating the locations of corresponding elements equal to at least half of their horizontal and antidiagonal neighbors in a random 0..2 n X n array",
			"comment": [
				"Diagonal of A221035"
			],
			"example": [
				"Some solutions for n=3",
				"..0..0..0....1..1..1....1..0..1....0..0..1....0..0..1....0..0..0....1..1..1",
				"..1..1..1....1..0..0....0..1..1....0..0..0....1..1..0....1..0..0....1..0..1",
				"..1..0..1....1..1..1....1..1..0....1..0..1....1..1..1....0..0..0....0..0..0"
			],
			"keyword": "nonn",
			"offset": "1,2",
			"author": "_R. H. Hardin_ Dec 29 2012",
			"references": 0,
			"revision": 5,
			"time": "2015-12-18T18:18:24-05:00",
			"created": "2012-12-29T10:22:51-05:00"
		}
	]
}