{
	"greeting": "Greetings from The On-Line Encyclopedia of Integer Sequences! http://oeis.org/",
	"query": "id:A221553",
	"count": 1,
	"start": 0,
	"results": [
		{
			"number": 221553,
			"data": "2,71,1930,48018,1200093,29961271,747830157,18664821555,465841969135,11626559958154,290177113520981,7242272238158273,180753392894785450,4511261939241006332,112592541470281392840,2810096262246752615123",
			"name": "Number of 3Xn arrays of occupancy after each element moves to some horizontal, vertical or antidiagonal neighbor, without move-in move-out left turns",
			"comment": [
				"Row 3 of A221551"
			],
			"link": [
				"R. H. Hardin, \u003ca href=\"/A221553/b221553.txt\"\u003eTable of n, a(n) for n = 1..85\u003c/a\u003e"
			],
			"example": [
				"Some solutions for n=3",
				"..1..0..0....2..1..0....2..1..1....0..2..1....1..1..1....0..3..1....1..0..0",
				"..3..0..2....1..0..1....1..1..1....2..0..1....3..0..0....1..0..0....3..0..3",
				"..1..1..1....1..3..0....0..2..0....0..2..1....0..1..2....1..1..2....1..0..1"
			],
			"keyword": "nonn",
			"offset": "1,1",
			"author": "_R. H. Hardin_ Jan 19 2013",
			"references": 1,
			"revision": 4,
			"time": "2013-01-19T20:49:47-05:00",
			"created": "2013-01-19T20:49:47-05:00"
		}
	]
}