{
	"greeting": "Greetings from The On-Line Encyclopedia of Integer Sequences! http://oeis.org/",
	"query": "id:A221389",
	"count": 1,
	"start": 0,
	"results": [
		{
			"number": 221389,
			"data": "0,0,4,94,1450,20689,284702,3856027,51806212,693213401,9256626752,123474805622,1646142914632,21939928353674,292375085482054,3895949812693799,51912242778609770,691699897071467742",
			"name": "Number of 3Xn arrays of occupancy after each element moves to some horizontal or antidiagonal neighbor, with no 2-loops and with no occupancy greater than 2",
			"comment": [
				"Row 3 of A221388"
			],
			"link": [
				"R. H. Hardin, \u003ca href=\"/A221389/b221389.txt\"\u003eTable of n, a(n) for n = 1..37\u003c/a\u003e"
			],
			"example": [
				"All solutions for n=3",
				"..0..2..1....0..2..1....0..2..0....0..2..1",
				"..1..2..1....0..2..1....1..2..1....1..2..0",
				"..0..2..0....1..2..0....1..2..0....1..2..0"
			],
			"keyword": "nonn",
			"offset": "1,3",
			"author": "_R. H. Hardin_ Jan 14 2013",
			"references": 1,
			"revision": 4,
			"time": "2013-01-14T05:22:40-05:00",
			"created": "2013-01-14T05:22:40-05:00"
		}
	]
}