{
	"greeting": "Greetings from The On-Line Encyclopedia of Integer Sequences! http://oeis.org/",
	"query": "id:A221357",
	"count": 1,
	"start": 0,
	"results": [
		{
			"number": 221357,
			"data": "0,5,39,292,2088,14799,104532,737498,5200799,36668393,258507703,1822366939,12846614967,90560097250,638385027225,4500153384191,31722787454665,223622276075576,1576371711149454,11112253094012636",
			"name": "Number of n X 2 arrays of occupancy after each element moves to some horizontal, vertical or antidiagonal neighbor, with no 2-loops and with no occupancy greater than 2.",
			"comment": [
				"Column 2 of A221361."
			],
			"link": [
				"R. H. Hardin, \u003ca href=\"/A221357/b221357.txt\"\u003eTable of n, a(n) for n = 1..192\u003c/a\u003e"
			],
			"formula": [
				"Empirical: a(n) = 12*a(n-1) - 38*a(n-2) + 14*a(n-3) + 59*a(n-4) - 21*a(n-5) - 33*a(n-6) + 16*a(n-7).",
				"Empirical g.f.: x^2*(5 - 21*x + 14*x^2 - 4*x^3 - 2*x^4 + 4*x^5) / (1 - 12*x + 38*x^2 - 14*x^3 - 59*x^4 + 21*x^5 + 33*x^6 - 16*x^7). - _Colin Barker_, Aug 05 2018"
			],
			"example": [
				"Some solutions for n=3:",
				"..1..2....1..1....0..2....1..2....1..1....0..1....0..2....1..0....1..1....1..1",
				"..1..1....1..2....1..1....1..1....2..2....1..1....1..2....2..1....1..1....2..1",
				"..0..1....0..1....1..1....1..0....0..0....2..1....0..1....2..0....1..1....1..0"
			],
			"xref": [
				"Cf. A221361."
			],
			"keyword": "nonn",
			"offset": "1,2",
			"author": "_R. H. Hardin_, Jan 12 2013",
			"references": 1,
			"revision": 10,
			"time": "2018-08-05T08:21:35-04:00",
			"created": "2013-01-12T06:52:05-05:00"
		}
	]
}