{
	"greeting": "Greetings from The On-Line Encyclopedia of Integer Sequences! http://oeis.org/",
	"query": "id:A221261",
	"count": 1,
	"start": 0,
	"results": [
		{
			"number": 221261,
			"data": "0,4096,5822,1250753956,278802326676,1080371161000000,720107530988047980,1273696206975009956961,1220346471047321694829098",
			"name": "Number of 7Xn arrays of occupancy after each element moves to some horizontal or antidiagonal neighbor, with no occupancy greater than 2",
			"comment": [
				"Row 7 of A221255"
			],
			"example": [
				"Some solutions for n=3",
				"..1..2..0....0..2..2....0..2..0....1..2..0....1..2..0....0..2..0....1..2..0",
				"..1..2..0....0..2..0....1..2..0....0..2..0....0..2..1....1..2..0....0..2..0",
				"..0..2..2....0..2..1....2..2..0....1..2..1....0..2..1....1..2..1....1..2..1",
				"..0..2..0....0..2..0....0..2..0....0..2..0....0..2..0....1..2..1....0..2..0",
				"..0..2..1....2..2..0....1..2..1....2..2..0....1..2..2....0..2..1....1..2..0",
				"..0..2..2....0..2..1....1..2..1....0..2..1....0..2..1....0..2..0....1..2..1",
				"..0..2..0....0..2..1....0..2..0....0..2..1....0..2..0....1..2..0....1..2..0"
			],
			"keyword": "nonn",
			"offset": "1,2",
			"author": "_R. H. Hardin_ Jan 06 2013",
			"references": 0,
			"revision": 3,
			"time": "2013-01-06T19:58:23-05:00",
			"created": "2013-01-06T19:58:23-05:00"
		}
	]
}