{
	"greeting": "Greetings from The On-Line Encyclopedia of Integer Sequences! http://oeis.org/",
	"query": "id:A221323",
	"count": 1,
	"start": 0,
	"results": [
		{
			"number": 221323,
			"data": "7,119,2008,33873,571358,9637322,162555929,2741882383,46248186229,780082534460,13157894317753,221938287447408,3743501973486176,63142809559541159,1065049364666447387,17964518161956501475",
			"name": "Number of n X 3 arrays of occupancy after each element stays put or moves to some horizontal or antidiagonal neighbor, with no occupancy greater than 2.",
			"comment": [
				"Column 3 of A221328."
			],
			"link": [
				"R. H. Hardin, \u003ca href=\"/A221323/b221323.txt\"\u003eTable of n, a(n) for n = 1..69\u003c/a\u003e"
			],
			"formula": [
				"Empirical: a(n) = 23*a(n-1) - 110*a(n-2) + 111*a(n-3) - 6*a(n-4) - 8*a(n-5).",
				"Empirical g.f.: x*(1 - x)*(7 - 35*x + 6*x^2 + 8*x^3) / (1 - 23*x + 110*x^2 - 111*x^3 + 6*x^4 + 8*x^5). - _Colin Barker_, Aug 05 2018"
			],
			"example": [
				"Some solutions for n=3:",
				"..2..1..0....2..2..0....1..1..0....1..1..1....2..1..0....1..0..1....1..0..2",
				"..2..0..1....0..2..0....2..0..2....0..2..1....1..0..1....1..2..0....2..1..0",
				"..1..0..2....0..1..2....0..2..1....1..0..2....2..2..0....1..2..1....0..2..1"
			],
			"xref": [
				"Cf. A221328."
			],
			"keyword": "nonn",
			"offset": "1,1",
			"author": "_R. H. Hardin_, Jan 11 2013",
			"references": 1,
			"revision": 8,
			"time": "2018-08-05T08:21:51-04:00",
			"created": "2013-01-11T05:30:06-05:00"
		}
	]
}