{
	"greeting": "Greetings from The On-Line Encyclopedia of Integer Sequences! http://oeis.org/",
	"query": "id:A221668",
	"count": 1,
	"start": 0,
	"results": [
		{
			"number": 221668,
			"data": "8,48,512,3772,31744,262144,2097152,16728064,134140928,1073741824,8587837440,68719476736,549755813888,4397939335680,35184372088832,281474976710656,2251796592459776,18014398509481984,144115185909972992",
			"name": "Sum of neighbor maps: number of 3Xn binary arrays indicating the locations of corresponding elements equal to the sum mod 3 of their horizontal, diagonal and antidiagonal neighbors in a random 0..2 3Xn array",
			"comment": [
				"Row 3 of A221666"
			],
			"link": [
				"R. H. Hardin, \u003ca href=\"/A221668/b221668.txt\"\u003eTable of n, a(n) for n = 1..210\u003c/a\u003e"
			],
			"example": [
				"Some solutions for n=3",
				"..0..1..0....1..1..0....1..1..1....1..0..0....1..0..1....1..1..1....1..0..0",
				"..0..1..0....1..1..1....1..0..1....0..1..0....0..1..1....1..0..1....0..1..1",
				"..0..1..1....1..1..0....1..1..1....1..0..0....0..0..1....1..0..1....0..0..0"
			],
			"keyword": "nonn",
			"offset": "1,1",
			"author": "_R. H. Hardin_ Jan 21 2013",
			"references": 1,
			"revision": 4,
			"time": "2013-01-21T16:30:05-05:00",
			"created": "2013-01-21T16:30:05-05:00"
		}
	]
}