{
	"greeting": "Greetings from The On-Line Encyclopedia of Integer Sequences! http://oeis.org/",
	"query": "id:A221266",
	"count": 1,
	"start": 0,
	"results": [
		{
			"number": 221266,
			"data": "3,19,141,1073,8203,62771,480437,3677345,28147315,215447091,1649090685,12622590641,96616760123,739531104531,5660573328101,43327576375905,331641119361379,2538471829096403,19430157634105069,148723740543110065",
			"name": "Number of n X 2 arrays of occupancy after each element stays put or moves to some king-move neighbor, with no occupancy greater than 2.",
			"comment": [
				"Column 2 of A221269."
			],
			"link": [
				"R. H. Hardin, \u003ca href=\"/A221266/b221266.txt\"\u003eTable of n, a(n) for n = 1..66\u003c/a\u003e"
			],
			"formula": [
				"Empirical: a(n) = 10*a(n-1) - 19*a(n-2) + 8*a(n-3).",
				"Empirical g.f.: x*(1 - x)*(3 - 8*x) / (1 - 10*x + 19*x^2 - 8*x^3). - _Colin Barker_, Aug 04 2018"
			],
			"example": [
				"Some solutions for n=3:",
				"  0 2   2 1   1 2   2 0   0 2   1 2   0 2   1 2   2 0   1 1",
				"  2 0   0 0   0 1   2 1   0 2   1 0   1 1   1 0   2 2   1 0",
				"  1 1   1 2   0 2   1 0   2 0   2 0   0 2   1 1   0 0   2 1"
			],
			"xref": [
				"Cf. A221269."
			],
			"keyword": "nonn",
			"offset": "1,1",
			"author": "_R. H. Hardin_, Jan 08 2013",
			"references": 1,
			"revision": 10,
			"time": "2018-08-04T14:33:03-04:00",
			"created": "2013-01-08T06:11:50-05:00"
		}
	]
}