{
	"greeting": "Greetings from The On-Line Encyclopedia of Integer Sequences! http://oeis.org/",
	"query": "id:A221767",
	"count": 1,
	"start": 0,
	"results": [
		{
			"number": 221767,
			"data": "0,55,3125,141177,7115200,347487163,16949434757,827634377153,40390407683703,1971106075073481,96192307643812016,4694244462294115117,229081654358812855517,11179298440465068878911",
			"name": "Number of nX6 arrays of occupancy after each element moves to some horizontal or vertical neighbor, without 2-loops or left turns",
			"comment": [
				"Column 6 of A221768"
			],
			"example": [
				"Some solutions for n=3",
				"..1..1..0..1..1..0....1..1..1..0..1..1....0..1..1..1..0..1....1..1..1..1..1..1",
				"..2..2..1..1..1..1....2..0..1..1..2..1....1..1..1..1..1..2....1..0..2..1..2..2",
				"..1..1..1..1..1..1....1..1..2..1..1..0....1..1..2..1..1..1....1..0..1..0..1..1"
			],
			"keyword": "nonn",
			"offset": "1,2",
			"author": "_R. H. Hardin_ Jan 25 2013",
			"references": 0,
			"revision": 3,
			"time": "2013-01-25T05:06:52-05:00",
			"created": "2013-01-25T05:06:52-05:00"
		}
	]
}