{
	"greeting": "Greetings from The On-Line Encyclopedia of Integer Sequences! http://oeis.org/",
	"query": "id:A221806",
	"count": 1,
	"start": 0,
	"results": [
		{
			"number": 221806,
			"data": "0,34,154,3426,30716,437374,4798574,60643243,708210084,8638426210,102851006026,1241050341705,14864487744061,178769429361071,2145106707834543,25772189455414412,309421866097564512",
			"name": "Number of nX3 arrays of occupancy after each element moves to some horizontal, vertical or antidiagonal neighbor, without move-in move-out straight through or left turns",
			"comment": [
				"Column 3 of A221809"
			],
			"link": [
				"R. H. Hardin, \u003ca href=\"/A221806/b221806.txt\"\u003eTable of n, a(n) for n = 1..122\u003c/a\u003e"
			],
			"example": [
				"Some solutions for n=3",
				"..1..0..0....1..1..2....2..1..0....1..1..0....1..1..1....1..1..0....0..2..1",
				"..2..2..2....1..1..1....0..2..1....1..2..1....1..1..1....1..1..2....2..2..0",
				"..0..1..1....1..1..0....0..3..0....1..1..1....0..1..2....1..1..1....0..1..1"
			],
			"keyword": "nonn",
			"offset": "1,2",
			"author": "_R. H. Hardin_ Jan 26 2013",
			"references": 1,
			"revision": 4,
			"time": "2013-01-26T06:55:58-05:00",
			"created": "2013-01-26T06:55:58-05:00"
		}
	]
}