{
	"greeting": "Greetings from The On-Line Encyclopedia of Integer Sequences! http://oeis.org/",
	"query": "id:A221169",
	"count": 1,
	"start": 0,
	"results": [
		{
			"number": 221169,
			"data": "0,1,0,1,0,1,2,1,2,1,2,1,0,1,0,1,0,3,0,3,0,3,0,1,0,1,0,1,0,3,0,3,0,3,2,3,2,3,2,3,0,3,0,3,0,1,0,1,0,1,0,3,0,3,0,3,0,1,0,1,0,1,2,1,2,1,2,1,0,1,0,1,0,1,2,1,2,1,2,3,2,3,2,3,2,1,2,1",
			"name": "The infinite generalized Fibonacci word p^[5].",
			"link": [
				"José L. Ramírez, Gustavo N. Rubiano, and Rodrigo de Castro, \u003ca href=\"http://arxiv.org/abs/1212.1368\"\u003eA Generalization of the Fibonacci Word Fractal and the Fibonacci Snowflake\u003c/a\u003e, arXiv preprint arXiv:1212.1368 [cs.DM], 2012-2014."
			],
			"maple": [
				"# sigma01f defined in A221166",
				"A221169 := proc(n)",
				"        sigma01f(n,5) ;",
				"end proc: # _R. J. Mathar_, Jul 09 2013"
			],
			"mathematica": [
				"fibi[n_, i_] := fibi[n, i] = Which[n == 0, {0}, n == 1, Append[Table[0, {j, 1, i - 1}], 1], True, Join[fibi[n - 1, i], fibi[n - 2, i]]];",
				"fibonni[n_, i_] := fibonni[n, i] = Module[{fn, Fn}, For[fn = 0, True, fn++, Fn = fibi[fn, i]; If[Length[Fn] \u003e= n + 1 \u0026\u0026 Length[Fn] \u003e i + 3, Return[Fn[[n + 1]]]]]];",
				"fmorph[n_, i_] := If[fibonni[n, i] == 0, 2, 0];",
				"sigma1f[n_, i_] := If[n == 0, 1, 1 + Mod[Sum[fmorph[j, i], {j, 0, n - 1}], 4]];",
				"sigma01f[n_, i_] := If[n == 0, 0, Mod[Sum[sigma1f[j, i], {j, 0, n - 1}], 4]];a[n_] := sigma01f[n, 5]; Table[a[n], {n, 0, 100}] (* _Jean-François Alcover_, Nov 30 2017, after _R. J. Mathar_ *)"
			],
			"xref": [
				"Cf. A221166, A221167, A221168, A221170, A221171."
			],
			"keyword": "nonn",
			"offset": "0,7",
			"author": "_N. J. A. Sloane_, Jan 04 2013",
			"references": 5,
			"revision": 17,
			"time": "2017-11-30T04:06:12-05:00",
			"created": "2013-01-04T00:36:17-05:00"
		}
	]
}