{
	"greeting": "Greetings from The On-Line Encyclopedia of Integer Sequences! http://oeis.org/",
	"query": "id:A221507",
	"count": 1,
	"start": 0,
	"results": [
		{
			"number": 221507,
			"data": "0,1,0,0,9,0,1,44,64,0,0,446,664,441,0,1,3334,31663,12495,3025,0,0,27540,730874,2691211,221614,20736,0,1,219070,22664752,223123842,219689604,4010052,142129,0,0,1766136,617892584,26917553016,61691224718",
			"name": "T(n,k)=Number of nXk arrays of occupancy after each element moves to some horizontal, diagonal or antidiagonal neighbor, without consecutive moves in the same direction",
			"comment": [
				"Table starts",
				".0......1........0...........1...........0...........1.........0...........1",
				".0......9.......44.........446........3334.......27540....219070.....1766136",
				".0.....64......664.......31663......730874....22664752.617892584.17782943460",
				".0....441....12495.....2691211...223123842.26917553016",
				".0...3025...221614...219689604.61691224718",
				".0..20736..4010052.18054912942",
				".0.142129.72195950",
				".0.974169",
				".0"
			],
			"link": [
				"R. H. Hardin, \u003ca href=\"/A221507/b221507.txt\"\u003eTable of n, a(n) for n = 1..48\u003c/a\u003e"
			],
			"example": [
				"Some solutions for n=3 k=4",
				"..1..1..3..0....0..0..0..0....0..0..1..1....1..0..1..0....1..0..1..1",
				"..1..1..1..1....1..3..2..2....0..4..1..0....1..2..0..3....0..3..0..1",
				"..0..3..0..0....2..1..1..0....2..0..2..1....1..1..2..0....2..0..2..1"
			],
			"xref": [
				"Column 2 is A049684"
			],
			"keyword": "nonn,tabl",
			"offset": "1,5",
			"author": "_R. H. Hardin_ Jan 18 2013",
			"references": 5,
			"revision": 4,
			"time": "2013-01-18T17:49:42-05:00",
			"created": "2013-01-18T17:49:42-05:00"
		}
	]
}