{
	"greeting": "Greetings from The On-Line Encyclopedia of Integer Sequences! http://oeis.org/",
	"query": "id:A221193",
	"count": 1,
	"start": 0,
	"results": [
		{
			"number": 221193,
			"data": "1,1,1,32,1,97,1,1152,1,3361,1,39200,1,114241,1,1331712,1,3880897,1,45239072,1,131836321,1,1536796800,1,4478554081,1,52205852192,1,152139002497,1,1773462177792,1,5168247530881,1,60245508192800,1,175568277047521,1",
			"name": "Simple continued fraction expansion of an infinite product.",
			"comment": [
				"Simple continued fraction expansion of product {k \u003e= 0} (1 - 2*(N - sqrt(N^2-1))^(4*k+3))/(1 - 2*(N - sqrt(N^2-1))^(4*k+1)) at N = 3. For other cases see A221075 (N = 2), A221194 (N = 4) and A221195 (N = 5).",
				"Denoting the present sequence by [1, c(1), 1, c(2), 1, c(3), 1, ...] then for n \u003e= 0 the sequence [1, c(2*n+1), 1, c(2*(2*n+1)), 1, c(3*(2*n+1)), 1, ...] gives the simple continued fraction expansion of product {k \u003e= 0} (1 - 2*((3 - 2*sqrt(2))^(2*n+1))^(4*k+3))/(1 - 2*((3 - 2*sqrt(2))^(2*n+1))^(4*k+1))."
			],
			"link": [
				"P. Bala, \u003ca href=\"/A174500/a174500_2.pdf\"\u003eSome simple continued fraction expansions for an infinite product, Part 1\u003c/a\u003e",
				"\u003ca href=\"/index/Rec\"\u003eIndex entries for linear recurrences with constant coefficients\u003c/a\u003e, signature (0,1,0,34,0,-34,0,-1,0,1)."
			],
			"formula": [
				"a(4*n-1) = (3 + 2*sqrt(2))^(2*n) + (3 - 2*sqrt(2))^(2*n) - 2;",
				"a(4*n+1) = 1/2*((3 + 2*sqrt(2))^(2*n+1) + (3 - 2*sqrt(2))^(2*n+1)) - 2; a(2*n) = 1.",
				"G.f.: -(x^8+x^7+31*x^5-34*x^4+31*x^3+x+1) / ((x-1)*(x+1)*(x^2-2*x-1)*(x^2+2*x-1)*(x^4+6*x^2+1)). [_Colin Barker_, Jan 14 2013]"
			],
			"example": [
				"Product {k \u003e= 0} (1 - 2*(3 - 2*sqrt(2))^(4*k+3))/(1 - 2*(3 - 2*sqrt(2))^(4*k+1)) = 1.50746 49374 34879 05211 ... = 1 + 1/(1 + 1/(1 + 1/(32 + 1/(1 + 1/(97 + ...)))))."
			],
			"xref": [
				"A221075 (N = 2), A221194 (N = 4), A221195 (N = 5)."
			],
			"keyword": "nonn,easy,cofr",
			"offset": "0,4",
			"author": "_Peter Bala_, Jan 08 2013",
			"ext": [
				"More terms from _Colin Barker_, Jan 14 2013"
			],
			"references": 2,
			"revision": 16,
			"time": "2015-06-13T00:54:37-04:00",
			"created": "2013-01-10T01:43:10-05:00"
		}
	]
}