{
	"greeting": "Greetings from The On-Line Encyclopedia of Integer Sequences! http://oeis.org/",
	"query": "id:A222498",
	"count": 1,
	"start": 0,
	"results": [
		{
			"number": 222498,
			"data": "8,122,1758,43771,1466810,71467150,4383248774,279117296608,19384694924376,1301485540374518,91540927588228818,6220763999378553924,436363353981480122270,29824936437413440528530,2084629741778760307931706",
			"name": "Number of nX6 0..3 arrays with exactly floor(nX6/2) elements unequal to at least one horizontal, diagonal or antidiagonal neighbor, with new values introduced in row major 0..3 order",
			"comment": [
				"Column 6 of A222500"
			],
			"link": [
				"R. H. Hardin, \u003ca href=\"/A222498/b222498.txt\"\u003eTable of n, a(n) for n = 1..18\u003c/a\u003e"
			],
			"example": [
				"Some solutions for n=4",
				"..0..1..0..0..0..0....0..0..1..0..2..3....0..1..2..2..2..2....0..1..2..2..2..2",
				"..2..1..0..0..0..0....3..0..0..0..0..3....2..2..2..2..2..2....1..2..2..2..2..2",
				"..3..3..0..0..0..0....0..0..0..0..0..0....0..1..2..2..2..2....1..0..2..2..2..2",
				"..0..2..0..0..0..0....0..0..0..0..0..0....3..3..2..2..2..2....1..1..2..2..2..2"
			],
			"keyword": "nonn",
			"offset": "1,1",
			"author": "_R. H. Hardin_ Feb 23 2013",
			"references": 1,
			"revision": 4,
			"time": "2013-02-23T07:02:34-05:00",
			"created": "2013-02-23T07:02:34-05:00"
		}
	]
}