{
	"greeting": "Greetings from The On-Line Encyclopedia of Integer Sequences! http://oeis.org/",
	"query": "id:A222533",
	"count": 1,
	"start": 0,
	"results": [
		{
			"number": 222533,
			"data": "1,5,77,181,747,88,494,292,4664,9779,464,10901,4884,1991,474,999,838,64946,989,448844,48084,99199,484,73137,48184,94149,11911,390093,46264,567765,26262,28782,3541453,831138,1447441,493394,1309031,46664,8817188,17871",
			"name": "Smallest palindrome which requires at least n iterations of Reverse and Add to reach a palindrome.",
			"comment": [
				"Palindromes themselves are also 'Reverse and Add!'ed!"
			],
			"link": [
				"Arkadiusz Wesolowski, \u003ca href=\"/A222533/b222533.txt\"\u003eTable of n, a(n) for n = 1..110\u003c/a\u003e",
				"Eric Weisstein's World of Mathematics, \u003ca href=\"http://mathworld.wolfram.com/Reverse-Then-AddSequence.html\"\u003eReverse-Then-Add Sequence\u003c/a\u003e",
				"\u003ca href=\"/index/Pac#palindromes\"\u003eIndex entries for sequences related to palindromes\u003c/a\u003e",
				"\u003ca href=\"/index/Res#RAA\"\u003eIndex entries for sequences related to Reverse and Add!\u003c/a\u003e"
			],
			"mathematica": [
				"lst = {}; rev[n_] := FromDigits@Reverse@IntegerDigits[n]; testQ[n_] := ! rev[n] == n; Do[n = 1; While[True, If[! testQ[n], p = n + rev[n]; If[Length@TakeWhile[NestList[# + rev[#] \u0026, p, s - 1], testQ] == s - 1, AppendTo[lst, n]; Break[]]]; n++], {s, 40}]; lst"
			],
			"xref": [
				"Cf. A016016, A033665."
			],
			"keyword": "base,nonn",
			"offset": "1,2",
			"author": "_Arkadiusz Wesolowski_, Feb 24 2013",
			"references": 1,
			"revision": 11,
			"time": "2013-02-24T15:17:17-05:00",
			"created": "2013-02-24T15:17:17-05:00"
		}
	]
}