{
	"greeting": "Greetings from The On-Line Encyclopedia of Integer Sequences! http://oeis.org/",
	"query": "id:A222856",
	"count": 1,
	"start": 0,
	"results": [
		{
			"number": 222856,
			"data": "3,6,18,41,123,310,957,2530,7848,21618,67131,188835,585276,1670602,5161503,14880389,45808419,133004125,408229851,1191329175,3646802121,10684589006,32632896159,95903053435,292350907470,861289976308",
			"name": "Number of nX2 0..1 arrays with every row and column least squares fitting to a nonnegative slope straight line, with a single point array taken as having zero slope",
			"comment": [
				"Column 2 of A222862"
			],
			"link": [
				"R. H. Hardin, \u003ca href=\"/A222856/b222856.txt\"\u003eTable of n, a(n) for n = 1..63\u003c/a\u003e"
			],
			"example": [
				"Some solutions for n=3",
				"..1..1....0..0....0..0....0..0....0..0....0..0....0..1....1..1....0..1....0..1",
				"..0..0....0..0....1..1....0..0....0..0....0..1....0..1....0..1....0..0....0..0",
				"..1..1....1..1....0..1....0..1....0..0....0..0....1..1....1..1....0..1....1..1"
			],
			"keyword": "nonn",
			"offset": "1,1",
			"author": "_R. H. Hardin_ Mar 07 2013",
			"references": 2,
			"revision": 4,
			"time": "2013-03-07T11:00:50-05:00",
			"created": "2013-03-07T11:00:50-05:00"
		}
	]
}