{
	"greeting": "Greetings from The On-Line Encyclopedia of Integer Sequences! http://oeis.org/",
	"query": "id:A222916",
	"count": 1,
	"start": 0,
	"results": [
		{
			"number": 222916,
			"data": "16,654,17518,1309863,26742406,2133576918,43875762623,3643286829221,76890372039924,6535580567066928,141130344695671712,12166904908881796439,267360083380015562049,23255314139393869641038,517565824894996299344331",
			"name": "Number of nX5 0..2 arrays with exactly floor(nX5/2) elements equal to at least one horizontal, vertical or antidiagonal neighbor, with new values introduced in row major 0..2 order",
			"comment": [
				"Column 5 of A222918"
			],
			"link": [
				"R. H. Hardin, \u003ca href=\"/A222916/b222916.txt\"\u003eTable of n, a(n) for n = 1..22\u003c/a\u003e"
			],
			"example": [
				"Some solutions for n=3",
				"..0..1..2..1..0....0..1..0..2..0....0..1..1..2..1....0..1..0..2..2",
				"..2..0..2..0..0....2..2..0..0..2....1..1..0..2..2....2..2..2..0..1",
				"..1..2..2..1..2....2..1..2..1..0....0..2..1..0..1....0..0..1..2..0"
			],
			"keyword": "nonn",
			"offset": "1,1",
			"author": "_R. H. Hardin_ Mar 09 2013",
			"references": 1,
			"revision": 4,
			"time": "2013-03-09T08:12:15-05:00",
			"created": "2013-03-09T08:12:15-05:00"
		}
	]
}