{
	"greeting": "Greetings from The On-Line Encyclopedia of Integer Sequences! http://oeis.org/",
	"query": "id:A222776",
	"count": 1,
	"start": 0,
	"results": [
		{
			"number": 222776,
			"data": "1,2,3,7,20,67,255,1079,4987,24759,129947,710791,4004619,23031191,134328379,790907943,4686298091,27884452663,166383085851,994632987335,5953222496203,35661292725975,213736364551163,1281494949329767",
			"name": "Number of n X 1 0..6 arrays with no element equal to another at a city block distance of exactly two, and new values 0..6 introduced in row major order.",
			"comment": [
				"Column 1 of A222779."
			],
			"link": [
				"R. H. Hardin, \u003ca href=\"/A222776/b222776.txt\"\u003eTable of n, a(n) for n = 1..210\u003c/a\u003e"
			],
			"formula": [
				"Empirical: a(n) = 16*a(n-1) - 95*a(n-2) + 260*a(n-3) - 324*a(n-4) + 144*a(n-5) for n\u003e7.",
				"Empirical g.f.: x*(1 + x)*(1 - 15*x + 81*x^2 - 192*x^3 + 189*x^4 - 53*x^5) / ((1 - x)*(1 - 2*x)*(1 - 3*x)*(1 - 4*x)*(1 - 6*x)). - _Colin Barker_, Aug 16 2018"
			],
			"example": [
				"All solutions for n=3:",
				"..0....0....0",
				"..1....1....0",
				"..2....1....1"
			],
			"xref": [
				"Cf. A222779."
			],
			"keyword": "nonn",
			"offset": "1,2",
			"author": "_R. H. Hardin_, Mar 05 2013",
			"references": 1,
			"revision": 9,
			"time": "2018-08-16T08:58:49-04:00",
			"created": "2013-03-05T12:57:09-05:00"
		}
	]
}