{
	"greeting": "Greetings from The On-Line Encyclopedia of Integer Sequences! http://oeis.org/",
	"query": "id:A222705",
	"count": 1,
	"start": 0,
	"results": [
		{
			"number": 222705,
			"data": "1,0,1,1,2,3,5,5,9,11,17,21,31,37,53,67,90,113,151,186,246,305,392,486,620,762,962,1181,1473,1802,2235,2716,3345,4056,4956,5990,7283,8759,10598,12709,15297,18283,21917,26099,31165,37009,44014,52113,61776,72918",
			"name": "Total number of parts of multiplicity 5 in all partitions of n.",
			"link": [
				"Alois P. Heinz, \u003ca href=\"/A222705/b222705.txt\"\u003eTable of n, a(n) for n = 5..1000\u003c/a\u003e"
			],
			"formula": [
				"G.f.: (x^5/(1-x^5)-x^6/(1-x^6))/Product_{j\u003e0}(1-x^j).",
				"a(n) ~ exp(Pi*sqrt(2*n/3)) / (60*Pi*sqrt(2*n)). - _Vaclav Kotesovec_, May 24 2018"
			],
			"maple": [
				"b:= proc(n, p) option remember; `if`(n=0, [1, 0], `if`(p\u003c1, [0, 0],",
				"      add((l-\u003e`if`(m=5, l+[0, l[1]], l))(b(n-p*m, p-1)), m=0..n/p)))",
				"    end:",
				"a:= n-\u003e b(n, n)[2]:",
				"seq(a(n), n=5..60);"
			],
			"mathematica": [
				"b[n_, p_] := b[n, p] = If[n == 0, {1, 0}, If[p \u003c 1, {0, 0}, Sum[Function[l, If[m == 5, l + {0, l[[1]]}, l]][b[n - p*m, p - 1]], {m, 0, n/p}]]];",
				"a[n_] := b[n, n][[2]];",
				"Table[a[n], {n, 5, 60}] (* _Jean-François Alcover_, Apr 30 2018, after _Alois P. Heinz_ *)"
			],
			"xref": [
				"Column k=5 of A197126."
			],
			"keyword": "nonn",
			"offset": "5,5",
			"author": "_Alois P. Heinz_, Feb 28 2013",
			"references": 2,
			"revision": 10,
			"time": "2018-05-24T04:22:58-04:00",
			"created": "2013-02-28T19:22:11-05:00"
		}
	]
}