{
	"greeting": "Greetings from The On-Line Encyclopedia of Integer Sequences! http://oeis.org/",
	"query": "id:A222650",
	"count": 1,
	"start": 0,
	"results": [
		{
			"number": 222650,
			"data": "1,1,2,11,34,131,438,2150,7676,32491,116096,533186,1945184,8362152,30561808,135650378,501075616,2155759835,7986345032,34780282521,129686419290,555913562689,2079094345694,8947148045345,33609869742022",
			"name": "Number of nX1 0..3 arrays with no more than floor(nX1/2) elements equal to at least one king-move neighbor, with new values introduced in row major 0..3 order",
			"comment": [
				"Column 1 of A222654"
			],
			"link": [
				"R. H. Hardin, \u003ca href=\"/A222650/b222650.txt\"\u003eTable of n, a(n) for n = 1..210\u003c/a\u003e"
			],
			"example": [
				"All solutions for n=3",
				"..0....0",
				"..1....1",
				"..2....0"
			],
			"keyword": "nonn",
			"offset": "1,3",
			"author": "_R. H. Hardin_ Feb 27 2013",
			"references": 5,
			"revision": 5,
			"time": "2013-02-27T16:50:34-05:00",
			"created": "2013-02-27T16:50:34-05:00"
		}
	]
}