{
	"greeting": "Greetings from The On-Line Encyclopedia of Integer Sequences! http://oeis.org/",
	"query": "id:A222353",
	"count": 1,
	"start": 0,
	"results": [
		{
			"number": 222353,
			"data": "1,1,1,4,5,10,12,34,43,101,127,331,424,1044,1340,3406,4409,11008,14296,36039,47031,117866,154276,387709,509126,1276783,1680799,4217763,5565756,13954040,18451152,46258390,61282051,153562565,203775943,510523621",
			"name": "Number of nX1 0..1 arrays with no more than floor(nX1/2) elements unequal to at least one king-move neighbor, with new values introduced in row major 0..1 order",
			"comment": [
				"Column 1 of A222360"
			],
			"link": [
				"R. H. Hardin, \u003ca href=\"/A222353/b222353.txt\"\u003eTable of n, a(n) for n = 1..210\u003c/a\u003e"
			],
			"example": [
				"All solutions for n=4",
				"..0....0....0....0",
				"..0....0....0....1",
				"..0....0....1....1",
				"..1....0....1....1"
			],
			"keyword": "nonn",
			"offset": "1,4",
			"author": "_R. H. Hardin_ Feb 16 2013",
			"references": 5,
			"revision": 4,
			"time": "2013-02-16T06:05:53-05:00",
			"created": "2013-02-16T06:05:53-05:00"
		}
	]
}