{
	"greeting": "Greetings from The On-Line Encyclopedia of Integer Sequences! http://oeis.org/",
	"query": "id:A222625",
	"count": 1,
	"start": 0,
	"results": [
		{
			"number": 222625,
			"data": "1,1,1,3,6,27,108,788,9035,196928,7797877,533938066",
			"name": "Number of simple connected well-covered graphs on n nodes.",
			"comment": [
				"A graph is well-covered if its maximal independent vertex sets are of equal size."
			],
			"link": [
				"Jonathan Baker, K. N. V. Meulen, A. Van Tuyl, \u003ca href=\"https://arxiv.org/abs/1606.04447\"\u003eShedding vertices of vertex decomposable graphs\u003c/a\u003e, arXiv preprint arXiv:1606.04447 [math.CO], 2016.",
				"F. Hüffner, \u003ca href=\"https://github.com/falk-hueffner/tinygraph\"\u003etinygraph\u003c/a\u003e, software for generating integer sequences based on graph properties, version a1db88e",
				"Eric Weisstein's World of Mathematics, \u003ca href=\"http://mathworld.wolfram.com/ConnectedGraph.html\"\u003eConnected Graph\u003c/a\u003e",
				"Eric Weisstein's World of Mathematics, \u003ca href=\"http://mathworld.wolfram.com/Well-CoveredGraph.html\"\u003eWell-Covered Graph\u003c/a\u003e"
			],
			"formula": [
				"a(n) = A222626(n) - A287025(n).",
				"Inverse Euler transform of A222626. - _Andrew Howroyd_, Nov 03 2017"
			],
			"mathematica": [
				"A222626 = {1, 2, 3, 7, 14, 46, 164, 996, 10195, 208168, 8016530, 542165050};",
				"mob[m_, n_] := If[Mod[m, n] == 0, MoebiusMu[m/n], 0];",
				"EULERi[b_] := Module[{a, c, i, d}, c = {}; For[i = 1, i \u003c= Length[b], i++, c = Append[c, i b[[i]] - Sum[c[[d]] b[[i - d]], {d, 1, i - 1}]]]; a = {}; For[i = 1, i \u003c= Length[b], i++, a = Append[a, (1/i)*Sum[mob[i, d] c[[d]], {d, 1, i}]]]; Return[a]];",
				"EULERi[A222626] (* _Jean-François Alcover_, Feb 22 2019, after _Andrew Howroyd_ *)"
			],
			"xref": [
				"Cf. A222626 (number of simple not-necessarily connected well-covered graphs).",
				"Cf. A287025 (number of simple disconnected  well-covered graphs)."
			],
			"keyword": "nonn,more",
			"offset": "1,4",
			"author": "_Eric W. Weisstein_, Feb 26 2013",
			"ext": [
				"a(10) from _Eric W. Weisstein_, Aug 29 2013",
				"a(11)-a(12) added using tinygraph by _Falk Hüffner_, Aug 15 2017"
			],
			"references": 2,
			"revision": 31,
			"time": "2019-02-22T10:16:13-05:00",
			"created": "2013-02-26T19:42:47-05:00"
		}
	]
}