{
	"greeting": "Greetings from The On-Line Encyclopedia of Integer Sequences! http://oeis.org/",
	"query": "id:A222688",
	"count": 1,
	"start": 0,
	"results": [
		{
			"number": 222688,
			"data": "8,237,7248,288829,12765040,589802909,27752564898,1319414370191,63167849881088,3040537134742112,146998128651407720,7133080659964442596,347227736612764543176,16948792785655500564103,829276538811229078591786",
			"name": "Number of nX6 0..2 arrays with exactly floor(nX6/2) elements unequal to at least one horizontal or antidiagonal neighbor, with new values introduced in row major 0..2 order",
			"comment": [
				"Column 6 of A222690"
			],
			"link": [
				"R. H. Hardin, \u003ca href=\"/A222688/b222688.txt\"\u003eTable of n, a(n) for n = 1..84\u003c/a\u003e"
			],
			"example": [
				"Some solutions for n=3",
				"..0..0..1..1..1..0....0..0..0..0..1..1....0..0..0..0..0..0....0..1..1..1..2..2",
				"..1..1..1..1..1..0....0..0..2..1..1..1....0..0..0..1..1..0....1..1..1..1..0..1",
				"..1..1..1..1..1..2....0..2..0..1..1..1....0..0..1..1..1..1....1..1..1..1..1..1"
			],
			"keyword": "nonn",
			"offset": "1,1",
			"author": "_R. H. Hardin_ Feb 28 2013",
			"references": 1,
			"revision": 4,
			"time": "2013-02-28T17:02:06-05:00",
			"created": "2013-02-28T17:02:06-05:00"
		}
	]
}