{
	"greeting": "Greetings from The On-Line Encyclopedia of Integer Sequences! http://oeis.org/",
	"query": "id:A222231",
	"count": 1,
	"start": 0,
	"results": [
		{
			"number": 222231,
			"data": "0,1,7,3,4,5,6,2,8,9,10,11,17,13,14,15,16,12,18,19,70,71,77,73,74,75,76,72,78,79,30,31,37,33,34,35,36,32,38,39,40,41,47,43,44,45,46,42,48,49,50,51,57,53,54,55,56,52,58,59,60,61,67,63,64,65,66,62,68,69,20,21,27,23",
			"name": "In the number n, replace all (decimal) digits '2' with '7' and vice versa.",
			"comment": [
				"The map which is applied to primes in A171036."
			],
			"link": [
				"Vincenzo Librandi, \u003ca href=\"/A222231/b222231.txt\"\u003eTable of n, a(n) for n = 0..1000\u003c/a\u003e"
			],
			"mathematica": [
				"a[n_]:= IntegerDigits[n]/.{2-\u003e7, 7-\u003e2} // FromDigits; Table[a[n], {n, 0, 80}] (* _Vincenzo Librandi_, Jul 30 2013 *)"
			],
			"program": [
				"(PARI) A222231(n,d=[0,1,7,3,4,5,6,2,8,9])=sum(i=1, #n=digits(n), d[n[i]+1]*10^(#n-i)) \\\\ gives correct value for n=0 iff d[1]=0, since digits(0)=[] in PARI (v.2.6)"
			],
			"xref": [
				"Cf. A222210-A222254; A171013-A171016, A175770, A171018-A171057."
			],
			"keyword": "nonn,base,easy",
			"offset": "0,3",
			"author": "_M. F. Hasler_, Feb 12 2013",
			"references": 1,
			"revision": 10,
			"time": "2017-03-31T00:22:17-04:00",
			"created": "2013-02-13T01:05:24-05:00"
		}
	]
}