{
	"greeting": "Greetings from The On-Line Encyclopedia of Integer Sequences! http://oeis.org/",
	"query": "id:A222190",
	"count": 1,
	"start": 0,
	"results": [
		{
			"number": 222190,
			"data": "6,34,158,1459,14676,184854,2445918,33888844,479268556,6886509940,100056170778,1466749421254,21657254505396,321725243553514,4804133557262316,72059797641376804,1085119161923382576,16397231016301629254,248546552679488856498",
			"name": "Number of toroidal n X 4 binary arrays, allowing rotation and/or reflection of the rows and/or the columns.",
			"link": [
				"S. N. Ethier, \u003ca href=\"http://arxiv.org/abs/1301.2352\"\u003eCounting toroidal binary arrays\u003c/a\u003e, arXiv preprint arXiv:1301.2352, 2013 and \u003ca href=\"https://cs.uwaterloo.ca/journals/JIS/VOL16/Ethier/ethier2.html\"\u003eJ. Int. Seq. 16 (2013) #13.4.7\u003c/a\u003e."
			],
			"xref": [
				"A column of A222188."
			],
			"keyword": "nonn",
			"offset": "1,1",
			"author": "_N. J. A. Sloane_, Feb 12 2013",
			"ext": [
				"More terms from _Michel Marcus_, Feb 13 2013"
			],
			"references": 0,
			"revision": 11,
			"time": "2018-01-20T16:10:18-05:00",
			"created": "2013-02-12T12:47:50-05:00"
		}
	]
}