{
	"greeting": "Greetings from The On-Line Encyclopedia of Integer Sequences! http://oeis.org/",
	"query": "id:A222355",
	"count": 1,
	"start": 0,
	"results": [
		{
			"number": 222355,
			"data": "1,1,5,24,27,176,404,2180,3751,21261,44985,238441,483280,2549426,5537716,28412352,62022509,314794248,706911054,3539578743,8030595379,39896971556,91762984752,452730150747,1049361132758,5153972338487,12033114257303",
			"name": "Number of nX3 0..1 arrays with no more than floor(nX3/2) elements unequal to at least one king-move neighbor, with new values introduced in row major 0..1 order",
			"comment": [
				"Column 3 of A222360"
			],
			"link": [
				"R. H. Hardin, \u003ca href=\"/A222355/b222355.txt\"\u003eTable of n, a(n) for n = 1..210\u003c/a\u003e"
			],
			"example": [
				"Some solutions for n=4",
				"..0..0..0....0..0..0....0..0..1....0..1..1....0..0..0....0..1..0....0..0..0",
				"..0..0..0....0..0..0....0..0..1....0..0..0....0..0..0....1..1..1....0..0..0",
				"..0..0..0....0..0..0....0..0..0....0..0..0....0..0..1....1..1..1....0..0..0",
				"..0..0..1....0..0..0....0..0..0....0..0..0....0..0..1....1..1..1....1..0..1"
			],
			"keyword": "nonn",
			"offset": "1,3",
			"author": "_R. H. Hardin_ Feb 16 2013",
			"references": 1,
			"revision": 4,
			"time": "2013-02-16T06:07:44-05:00",
			"created": "2013-02-16T06:07:44-05:00"
		}
	]
}