{
	"greeting": "Greetings from The On-Line Encyclopedia of Integer Sequences! http://oeis.org/",
	"query": "id:A222473",
	"count": 1,
	"start": 0,
	"results": [
		{
			"number": 222473,
			"data": "1,1,1,10,11,126,139,2033,2229,36255,39685,667198,729937,12434879,13604769,233248961,255262081,4393917596,4810289617,83052210509,90956522613,1574365187384,1724848374973,29920297244921,32792034611531",
			"name": "Number of nX2 0..3 arrays with no more than floor(nX2/2) elements unequal to at least one king-move neighbor, with new values introduced in row major 0..3 order",
			"comment": [
				"Column 2 of A222479"
			],
			"link": [
				"R. H. Hardin, \u003ca href=\"/A222473/b222473.txt\"\u003eTable of n, a(n) for n = 1..210\u003c/a\u003e"
			],
			"example": [
				"All solutions for n=4",
				"..0..0....0..0....0..0....0..1....0..1....0..0....0..1....0..0....0..0....0..0",
				"..0..0....0..0....0..0....0..0....1..1....0..0....2..2....0..0....0..0....1..1",
				"..0..0....0..0....0..0....0..0....1..1....0..0....2..2....0..0....1..1....1..1",
				"..0..1....0..0....1..0....0..0....1..1....1..2....2..2....1..1....1..1....1..1"
			],
			"keyword": "nonn",
			"offset": "1,4",
			"author": "_R. H. Hardin_ Feb 21 2013",
			"references": 1,
			"revision": 5,
			"time": "2013-02-21T13:51:44-05:00",
			"created": "2013-02-21T13:51:44-05:00"
		}
	]
}