{
	"greeting": "Greetings from The On-Line Encyclopedia of Integer Sequences! http://oeis.org/",
	"query": "id:A222577",
	"count": 1,
	"start": 0,
	"results": [
		{
			"number": 222577,
			"data": "41,59,500,4790,30766,543064,4102865,98594434,860815001,23440266996,218791888336,6191473414860,58972215470543,1688437861153179,16197610528535176",
			"name": "Number of 5Xn 0..2 arrays with no more than floor(5Xn/2) elements unequal to at least one horizontal, diagonal or antidiagonal neighbor, with new values introduced in row major 0..2 order",
			"comment": [
				"Row 5 of A222573"
			],
			"example": [
				"Some solutions for n=3",
				"..0..0..0....0..0..0....0..0..0....0..0..0....0..1..2....0..0..0....0..0..0",
				"..1..0..0....0..0..0....0..0..0....0..0..0....2..1..2....0..0..0....1..0..0",
				"..2..0..2....0..0..0....1..0..0....0..0..0....1..1..1....0..0..0....1..0..1",
				"..0..0..0....1..0..1....0..0..2....1..0..2....1..1..1....0..0..1....0..0..0",
				"..0..0..0....2..1..0....1..0..0....2..0..1....1..1..1....0..0..0....0..0..0"
			],
			"keyword": "nonn",
			"offset": "1,1",
			"author": "_R. H. Hardin_ Feb 25 2013",
			"references": 0,
			"revision": 3,
			"time": "2013-02-25T05:57:51-05:00",
			"created": "2013-02-25T05:57:51-05:00"
		}
	]
}