{
	"greeting": "Greetings from The On-Line Encyclopedia of Integer Sequences! http://oeis.org/",
	"query": "id:A222764",
	"count": 1,
	"start": 0,
	"results": [
		{
			"number": 222764,
			"data": "0,4,13,96,301,2242,7575,55958,196442,1448568,5188656,38338122,138866688,1029494580,3754449699,27929878716,102325331440,763577070328,2806916894109,21001612120424,77405327921654,580452846750048",
			"name": "Number of nX3 0..1 arrays with exactly floor(nX3/2) elements unequal to at least one horizontal or antidiagonal neighbor, with new values introduced in row major 0..1 order",
			"comment": [
				"Column 3 of A222769"
			],
			"link": [
				"R. H. Hardin, \u003ca href=\"/A222764/b222764.txt\"\u003eTable of n, a(n) for n = 1..210\u003c/a\u003e"
			],
			"example": [
				"Some solutions for n=3",
				"..0..0..0....0..0..0....0..0..0....0..1..0....0..1..0....0..0..0....0..1..1",
				"..0..0..0....0..0..0....1..1..1....0..0..0....1..1..1....0..0..0....1..1..1",
				"..0..1..0....1..1..1....1..1..1....0..0..0....1..1..1....1..0..1....1..1..0"
			],
			"keyword": "nonn",
			"offset": "1,2",
			"author": "_R. H. Hardin_ Mar 05 2013",
			"references": 1,
			"revision": 4,
			"time": "2013-03-05T03:00:38-05:00",
			"created": "2013-03-05T03:00:38-05:00"
		}
	]
}