{
	"greeting": "Greetings from The On-Line Encyclopedia of Integer Sequences! http://oeis.org/",
	"query": "id:A222221",
	"count": 1,
	"start": 0,
	"results": [
		{
			"number": 222221,
			"data": "0,4,2,3,1,5,6,7,8,9,40,44,42,43,41,45,46,47,48,49,20,24,22,23,21,25,26,27,28,29,30,34,32,33,31,35,36,37,38,39,10,14,12,13,11,15,16,17,18,19,50,54,52,53,51,55,56,57,58,59,60,64,62,63,61,65,66,67,68,69,70,74,72,73,71,75",
			"name": "In the number n, replace all (decimal) digits '1' with '4' and vice versa.",
			"comment": [
				"The map which is applied to primes in A171020."
			],
			"link": [
				"Vincenzo Librandi, \u003ca href=\"/A222221/b222221.txt\"\u003eTable of n, a(n) for n = 0..1000\u003c/a\u003e"
			],
			"mathematica": [
				"a[n_]:= IntegerDigits[n]/.{1-\u003e4, 4-\u003e1} // FromDigits; Table[a[n], {n, 0, 80}] (* _Vincenzo Librandi_, Jul 29 2013 *)"
			],
			"program": [
				"(PARI) A222221(n,d=[0,4,2,3,1,5,6,7,8,9])=sum(i=1, #n=digits(n), d[n[i]+1]*10^(#n-i)) \\\\ gives correct value for n=0 iff d[1]=0, since digits(0)=[] in PARI (v.2.6)"
			],
			"xref": [
				"Cf. A222210-A222254; A171013-A171016, A175770, A171018-A171057."
			],
			"keyword": "nonn,base,easy",
			"offset": "0,2",
			"author": "_M. F. Hasler_, Feb 12 2013",
			"references": 1,
			"revision": 11,
			"time": "2017-03-31T00:26:19-04:00",
			"created": "2013-02-13T01:22:37-05:00"
		}
	]
}