{
	"greeting": "Greetings from The On-Line Encyclopedia of Integer Sequences! http://oeis.org/",
	"query": "id:A222805",
	"count": 1,
	"start": 0,
	"results": [
		{
			"number": 222805,
			"data": "0,11,-13,29,109,-67,6571,-415,162573,-23663513,10230003,-564409,854671223,-3380281,66346781597,-2525207721201139,2050779017959603,-513555084749,258395660795799074117,-16860247921174939,32300672599263555985061,-5369365617089977921391189",
			"name": "A bisection of A222803.",
			"xref": [
				"Cf. A222803-A222806."
			],
			"keyword": "sign,frac",
			"offset": "0,2",
			"author": "_N. J. A. Sloane_, Mar 10 2013",
			"ext": [
				"More terms from _Alois P. Heinz_, Mar 13 2013"
			],
			"references": 1,
			"revision": 5,
			"time": "2013-03-13T11:53:09-04:00",
			"created": "2013-03-10T00:39:49-05:00"
		}
	]
}