{
	"greeting": "Greetings from The On-Line Encyclopedia of Integer Sequences! http://oeis.org/",
	"query": "id:A222888",
	"count": 1,
	"start": 0,
	"results": [
		{
			"number": 222888,
			"data": "16,1222,138026,24893100,2737507523,518031070610,57938967907855,11279149298276340,1275220409032117490,252490047545846068708,28751346406380329048124,5756690997936847064344575",
			"name": "Number of nX5 0..2 arrays with exactly floor(nX5/2) elements equal to at least one horizontal or vertical neighbor, with new values introduced in row major 0..2 order",
			"comment": [
				"Column 5 of A222889"
			],
			"link": [
				"R. H. Hardin, \u003ca href=\"/A222888/b222888.txt\"\u003eTable of n, a(n) for n = 1..18\u003c/a\u003e"
			],
			"example": [
				"Some solutions for n=3",
				"..0..1..0..2..1....0..0..0..1..2....0..1..1..0..2....0..1..2..0..2",
				"..2..0..0..0..2....0..1..2..2..1....1..0..0..1..0....1..2..2..0..1",
				"..0..0..0..2..0....0..2..1..0..2....0..0..0..2..1....0..1..0..2..1"
			],
			"keyword": "nonn",
			"offset": "1,1",
			"author": "_R. H. Hardin_ Mar 08 2013",
			"references": 1,
			"revision": 4,
			"time": "2013-03-08T18:54:56-05:00",
			"created": "2013-03-08T18:54:56-05:00"
		}
	]
}