{
	"greeting": "Greetings from The On-Line Encyclopedia of Integer Sequences! http://oeis.org/",
	"query": "id:A222513",
	"count": 1,
	"start": 0,
	"results": [
		{
			"number": 222513,
			"data": "0,8,87,497,2066,17674,81537,800040,3877847,39636760,197167116,2044535652,10266459303,107207411996,541084890084,5674279900642,28738733251005,302282496834886,1535249200603440,16185756541061498",
			"name": "Number of 5Xn 0..1 arrays with exactly floor(5Xn/2) elements unequal to at least one horizontal, diagonal or antidiagonal neighbor, with new values introduced in row major 0..1 order",
			"comment": [
				"Row 5 of A222509"
			],
			"link": [
				"R. H. Hardin, \u003ca href=\"/A222513/b222513.txt\"\u003eTable of n, a(n) for n = 1..42\u003c/a\u003e"
			],
			"example": [
				"Some solutions for n=3",
				"..0..0..0....0..0..0....0..0..0....0..0..1....0..0..0....0..0..0....0..0..0",
				"..0..0..0....0..0..1....0..0..0....0..0..0....1..0..0....0..0..0....1..1..0",
				"..1..0..0....0..0..0....1..0..0....1..0..1....1..1..1....0..0..1....1..1..1",
				"..1..0..0....0..0..0....0..0..1....0..0..0....1..1..1....1..1..1....1..1..1",
				"..1..0..0....0..0..1....0..0..1....0..0..0....1..1..1....1..1..1....1..1..1"
			],
			"keyword": "nonn",
			"offset": "1,2",
			"author": "_R. H. Hardin_ Feb 23 2013",
			"references": 1,
			"revision": 4,
			"time": "2013-02-23T17:11:46-05:00",
			"created": "2013-02-23T17:11:46-05:00"
		}
	]
}