{
	"greeting": "Greetings from The On-Line Encyclopedia of Integer Sequences! http://oeis.org/",
	"query": "id:A222497",
	"count": 1,
	"start": 0,
	"results": [
		{
			"number": 222497,
			"data": "4,14,81,3915,52190,2793098,48860520,3227092882,57081799730,3915919248062,68267995937433,4787071700372358,82404257722169702,5850663181925314192,99909916407510735481,7147096049853937484320",
			"name": "Number of nX5 0..3 arrays with exactly floor(nX5/2) elements unequal to at least one horizontal, diagonal or antidiagonal neighbor, with new values introduced in row major 0..3 order",
			"comment": [
				"Column 5 of A222500"
			],
			"link": [
				"R. H. Hardin, \u003ca href=\"/A222497/b222497.txt\"\u003eTable of n, a(n) for n = 1..34\u003c/a\u003e"
			],
			"example": [
				"Some solutions for n=4",
				"..0..1..1..1..1....0..0..1..0..0....0..0..0..0..0....0..0..1..1..1",
				"..0..1..1..1..1....0..0..1..0..0....0..0..0..0..0....0..0..1..1..1",
				"..1..1..1..1..1....0..0..0..0..2....1..0..0..0..0....0..2..1..1..1",
				"..0..1..1..1..2....0..0..0..0..0....2..1..0..3..0....2..2..1..1..1"
			],
			"keyword": "nonn",
			"offset": "1,1",
			"author": "_R. H. Hardin_ Feb 23 2013",
			"references": 1,
			"revision": 4,
			"time": "2013-02-23T07:01:53-05:00",
			"created": "2013-02-23T07:01:53-05:00"
		}
	]
}