{
	"greeting": "Greetings from The On-Line Encyclopedia of Integer Sequences! http://oeis.org/",
	"query": "id:A222929",
	"count": 1,
	"start": 0,
	"results": [
		{
			"number": 222929,
			"data": "6,36,36,340,864,340,1914,39780,39780,1914,13850,872784,10520570,872784,13850,79266,27173700,1100843406,1100843406,27173700,79266,523133,607177560,176146081651,440499731904,176146081651,607177560,523133",
			"name": "T(n,k)=Number of (n+1)X(k+1) 0..3 arrays with every row and column least squares fitting to a positive slope straight line",
			"comment": [
				"Table starts",
				"........6...........36..............340...............1914..............13850",
				".......36..........864............39780.............872784...........27173700",
				"......340........39780.........10520570.........1100843406.......176146081651",
				".....1914.......872784.......1100843406.......440499731904....295553959528086",
				"....13850.....27173700.....176146081651....295553959528086.909147509028474280",
				"....79266....607177560...18796559253849.119948506672674960",
				"...523133..16686373301.2593203089087409",
				"..3016164.377744379360",
				".19260414"
			],
			"link": [
				"R. H. Hardin, \u003ca href=\"/A222929/b222929.txt\"\u003eTable of n, a(n) for n = 1..49\u003c/a\u003e"
			],
			"example": [
				"Some solutions for n=2 k=4",
				"..0..0..0..0..2....0..0..0..0..2....0..0..0..0..1....0..0..0..0..2",
				"..2..1..2..0..3....0..2..0..3..1....0..0..1..3..3....1..2..3..2..3",
				"..1..1..3..2..3....1..1..3..1..3....2..1..3..2..3....2..1..1..1..3"
			],
			"keyword": "nonn,tabl",
			"offset": "1,1",
			"author": "_R. H. Hardin_ Mar 09 2013",
			"references": 5,
			"revision": 4,
			"time": "2013-03-09T08:54:07-05:00",
			"created": "2013-03-09T08:54:07-05:00"
		}
	]
}