{
	"greeting": "Greetings from The On-Line Encyclopedia of Integer Sequences! http://oeis.org/",
	"query": "id:A222677",
	"count": 1,
	"start": 0,
	"results": [
		{
			"number": 222677,
			"data": "14,150,2398,58167,1999404,96510910,5825299399,372722811899,25643150234387,1732851881279928,121094603385909893,8273098252289456960,577714636773633984180,39641590237948653551078,2761858147163956450688323",
			"name": "Number of nX6 0..3 arrays with no more than floor(nX6/2) elements unequal to at least one horizontal, diagonal or antidiagonal neighbor, with new values introduced in row major 0..3 order",
			"comment": [
				"Column 6 of A222679"
			],
			"link": [
				"R. H. Hardin, \u003ca href=\"/A222677/b222677.txt\"\u003eTable of n, a(n) for n = 1..18\u003c/a\u003e"
			],
			"example": [
				"Some solutions for n=3",
				"..0..1..0..0..0..0....0..1..1..1..1..1....0..0..0..0..0..0....0..1..2..2..2..2",
				"..1..2..0..0..0..0....2..3..1..1..1..1....0..1..0..0..0..0....1..3..2..2..2..2",
				"..2..3..0..0..0..0....3..1..1..1..1..1....2..2..0..0..0..0....2..1..2..2..2..2"
			],
			"keyword": "nonn",
			"offset": "1,1",
			"author": "_R. H. Hardin_ Feb 28 2013",
			"references": 1,
			"revision": 4,
			"time": "2013-02-28T09:18:57-05:00",
			"created": "2013-02-28T09:18:57-05:00"
		}
	]
}