{
	"greeting": "Greetings from The On-Line Encyclopedia of Integer Sequences! http://oeis.org/",
	"query": "id:A222936",
	"count": 1,
	"start": 0,
	"results": [
		{
			"number": 222936,
			"data": "4,16,48,256,1024,4096,15820,65536,262144,1048576,4182016,16777216,67108864,268435456,1073476576,4294967296,17179869184,68719476736,274872664064,1099511627776,4398046511104,17592186044416,70368643424320",
			"name": "Sum of neighbor maps: number of 2Xn binary arrays indicating the locations of corresponding elements equal to the sum mod 4 of their horizontal and antidiagonal neighbors in a random 0..3 2Xn array",
			"comment": [
				"Row 2 of A222935"
			],
			"link": [
				"R. H. Hardin, \u003ca href=\"/A222936/b222936.txt\"\u003eTable of n, a(n) for n = 1..210\u003c/a\u003e"
			],
			"formula": [
				"Empirical: a(n) = 4*a(n-1) +32*a(n-4) -128*a(n-5) -212*a(n-8) +848*a(n-9) -1408*a(n-12) +5632*a(n-13) +10576*a(n-16) -42304*a(n-17) +22016*a(n-20) -88064*a(n-21) -171456*a(n-24) +685824*a(n-25) -149504*a(n-28) +598016*a(n-29) +1181696*a(n-32) -4726784*a(n-33) +458752*a(n-36) -1835008*a(n-37) -3653632*a(n-40) +14614528*a(n-41) -524288*a(n-44) +2097152*a(n-45) +4194304*a(n-48) -16777216*a(n-49)"
			],
			"example": [
				"Some solutions for n=3",
				"..1..0..0....0..1..1....1..0..1....0..0..0....0..0..0....0..0..1....0..0..1",
				"..1..1..0....1..0..0....0..0..0....0..1..0....1..0..1....0..1..1....1..1..0"
			],
			"keyword": "nonn",
			"offset": "1,1",
			"author": "_R. H. Hardin_ Mar 09 2013",
			"references": 1,
			"revision": 4,
			"time": "2013-03-09T10:58:21-05:00",
			"created": "2013-03-09T10:58:21-05:00"
		}
	]
}