{
	"greeting": "Greetings from The On-Line Encyclopedia of Integer Sequences! http://oeis.org/",
	"query": "id:A222463",
	"count": 1,
	"start": 0,
	"results": [
		{
			"number": 222463,
			"data": "5,30,35,40,45,10,55,60,65,70,15,80,85,90,95,4,105,110,115,120,25,130,135,140,145,30,155,160,165,170,35,180,185,190,195,40,205,210,215,220,9,230,235,240,245,50,255,260,265,270,55,280,285,290,295,60",
			"name": "n*5/gcd(n*5,n+5), n \u003e= 5.",
			"comment": [
				"This is the fifth column (m=5) of the triangle A221918."
			],
			"formula": [
				"a(n) = A221918(n,5) = numerator(n*5/(n+5)) = n*5/gcd(n*5,n+5) = n*5/gcd(25,n+5), n \u003e= 5.",
				"a(n) = 2*a(n-25)-a(n-50). [_Colin Barker_, Feb 25 2013]"
			],
			"example": [
				"a(10) = numerator(50/15) = numerator(10/3) = 10 = 50/gcd(50,15)= 50/5 = 50/gcd(25,15)."
			],
			"mathematica": [
				"Table[(5n)/GCD[5n,n +5],{n,5,60}] (* _Harvey P. Dale_, Nov 06 2020 *)"
			],
			"xref": [
				"Cf.  A221918, A000027 (m=1), A145979(m=2), A221920 (m=3), A221921 (m=4)."
			],
			"keyword": "nonn,easy",
			"offset": "5,1",
			"author": "_Wolfdieter Lang_, Feb 21 2013",
			"references": 2,
			"revision": 13,
			"time": "2020-11-06T18:43:20-05:00",
			"created": "2013-02-21T14:53:48-05:00"
		}
	]
}