{
	"greeting": "Greetings from The On-Line Encyclopedia of Integer Sequences! http://oeis.org/",
	"query": "id:A222254",
	"count": 1,
	"start": 0,
	"results": [
		{
			"number": 222254,
			"data": "0,1,2,3,4,5,6,7,9,8,10,11,12,13,14,15,16,17,19,18,20,21,22,23,24,25,26,27,29,28,30,31,32,33,34,35,36,37,39,38,40,41,42,43,44,45,46,47,49,48,50,51,52,53,54,55,56,57,59,58,60,61,62,63,64,65,66,67,69,68,70,71,72,73,74,75",
			"name": "In the number n, replace all (decimal) digits '8' with '9' and vice versa.",
			"comment": [
				"The map which is applied to primes in A171057."
			],
			"link": [
				"Vincenzo Librandi, \u003ca href=\"/A222254/b222254.txt\"\u003eTable of n, a(n) for n = 0..1000\u003c/a\u003e"
			],
			"mathematica": [
				"a[n_]:= IntegerDigits[n]/.{8-\u003e9, 9-\u003e8}//FromDigits; Table[a[n], {n, 0, 80}] (* _Vincenzo Librandi_, Jul 29 2013 *)"
			],
			"program": [
				"(PARI) A222254(n,d=[0, 1, 2, 3, 4, 5, 6, 7, 9, 8])=sum(i=1,#n=digits(n),d[n[i]+1]*10^(#n-i),!n*d[1]) \\\\ N.B.: digits(0)=[] in PARI (v.2.6)"
			],
			"xref": [
				"Cf. A222210-A222254; A171013-A171016, A175770, A171018-A171057."
			],
			"keyword": "nonn,base,easy",
			"offset": "0,3",
			"author": "_M. F. Hasler_, Feb 13 2013",
			"references": 45,
			"revision": 13,
			"time": "2018-01-23T06:51:20-05:00",
			"created": "2013-02-13T00:47:09-05:00"
		}
	]
}