{
	"greeting": "Greetings from The On-Line Encyclopedia of Integer Sequences! http://oeis.org/",
	"query": "id:A223159",
	"count": 1,
	"start": 0,
	"results": [
		{
			"number": 223159,
			"data": "2218,55790,55790,2077712,5026270,2077712,68181369,765677906,765677906,68181369,1978616080,102504263355,566068245194,102504263355,1978616080,57277247088,11137517145396,350946216811545,350946216811545",
			"name": "T(n,k)=Number of (n+2)X(k+2) 0..3 arrays with all rows and columns having a strictly positive second derivative in a quadratic least squares fit",
			"comment": [
				"Table starts",
				"........2218..........55790.........2077712........68181369.....1978616080",
				".......55790........5026270.......765677906....102504263355.11137517145396",
				".....2077712......765677906....566068245194.350946216811545",
				"....68181369...102504263355.350946216811545",
				"..1978616080.11137517145396",
				".57277247088"
			],
			"link": [
				"R. H. Hardin, \u003ca href=\"/A223159/b223159.txt\"\u003eTable of n, a(n) for n = 1..22\u003c/a\u003e"
			],
			"example": [
				"Some solutions for n=1 k=4",
				"..1..2..0..0..1..0....1..2..1..0..0..1....1..1..1..0..3..1....1..0..0..0..2..1",
				"..0..0..0..0..1..1....0..0..0..0..0..1....0..0..0..0..0..1....0..0..0..0..1..1",
				"..2..1..2..1..3..3....2..2..1..3..1..2....3..3..1..1..1..2....3..2..1..2..3..3"
			],
			"keyword": "nonn,tabl",
			"offset": "1,1",
			"author": "_R. H. Hardin_ Mar 16 2013",
			"references": 2,
			"revision": 4,
			"time": "2013-03-16T17:41:04-04:00",
			"created": "2013-03-16T17:41:04-04:00"
		}
	]
}