{
	"greeting": "Greetings from The On-Line Encyclopedia of Integer Sequences! http://oeis.org/",
	"query": "id:A223118",
	"count": 1,
	"start": 0,
	"results": [
		{
			"number": 223118,
			"data": "0,1222,92011,10831996,713593552,92719306520,6216619654268,835754508657402,56886498701051251",
			"name": "Number of 5Xn 0..2 arrays with exactly floor(5Xn/2) elements equal to at least one horizontal, diagonal or antidiagonal neighbor, with new values introduced in row major 0..3 order",
			"comment": [
				"Row 5 of A223114"
			],
			"example": [
				"Some solutions for n=3",
				"..0..1..2....0..1..2....0..1..2....0..1..2....0..0..0....0..1..2....0..1..0",
				"..1..0..1....0..2..0....0..1..1....2..1..0....1..0..1....1..1..0....0..2..0",
				"..1..2..2....1..0..2....1..2..0....0..1..2....2..1..2....2..0..2....2..2..0",
				"..1..0..1....1..2..1....1..1..1....1..0..2....0..1..0....2..1..0....2..0..0",
				"..1..0..2....1..2..1....2..0..2....1..1..1....2..1..2....2..0..2....2..1..2"
			],
			"keyword": "nonn",
			"offset": "1,2",
			"author": "_R. H. Hardin_ Mar 14 2013",
			"references": 0,
			"revision": 3,
			"time": "2013-03-14T21:39:59-04:00",
			"created": "2013-03-14T21:39:59-04:00"
		}
	]
}