{
	"greeting": "Greetings from The On-Line Encyclopedia of Integer Sequences! http://oeis.org/",
	"query": "id:A223422",
	"count": 1,
	"start": 0,
	"results": [
		{
			"number": 223422,
			"data": "416,18464,1033328,50097024,2844612736,139114196992,7939011165696,389154431528960,22244132907945984,1091144538683604992,62401586754017968128,3061680318925083639808,175122575873489263525888",
			"name": "3-level binary fanout graph coloring a rectangular array: number of nX7 0..6 arrays where 0..6 label nodes of a graph with edges 0,1 1,3 1,4 0,2 2,5 2,6 and every array movement to a horizontal or vertical neighbor moves along an edge of this graph",
			"comment": [
				"Column 7 of A223423"
			],
			"link": [
				"R. H. Hardin, \u003ca href=\"/A223422/b223422.txt\"\u003eTable of n, a(n) for n = 1..210\u003c/a\u003e"
			],
			"formula": [
				"Empirical: a(n) = 4144*a(n-2) -4233568*a(n-4) +1423446528*a(n-6) -216571051008*a(n-8) +17498453049344*a(n-10) -823976834072576*a(n-12) +23806610175950848*a(n-14) -433179956841807872*a(n-16) +5014404982720430080*a(n-18) -36922985056839925760*a(n-20) +171827754849678655488*a(n-22) -499189157380780720128*a(n-24) +886405116754355290112*a(n-26) -927140136557417070592*a(n-28) +537868927709415997440*a(n-30) -158472804425401368576*a(n-32) +20342196566879109120*a(n-34) -788129934789836800*a(n-36)"
			],
			"example": [
				"Some solutions for n=3",
				"..0..1..4..1..3..1..3....0..1..0..1..0..2..6....0..1..3..1..4..1..0",
				"..1..3..1..3..1..3..1....1..0..2..0..2..0..2....1..0..1..3..1..0..1",
				"..3..1..3..1..3..1..4....3..1..0..2..5..2..0....0..1..3..1..3..1..0"
			],
			"keyword": "nonn",
			"offset": "1,1",
			"author": "_R. H. Hardin_ Mar 20 2013",
			"references": 1,
			"revision": 4,
			"time": "2013-03-20T05:26:57-04:00",
			"created": "2013-03-20T05:26:57-04:00"
		}
	]
}