{
	"greeting": "Greetings from The On-Line Encyclopedia of Integer Sequences! http://oeis.org/",
	"query": "id:A223178",
	"count": 1,
	"start": 0,
	"results": [
		{
			"number": 223178,
			"data": "0,348,48316,2485972,76317552,3171271500,115722707546,2886324889628,88035882884812",
			"name": "Number of (n+2)X6 0..1 arrays with all rows and columns having a strictly positive second derivative in a quadratic least squares fit",
			"example": [
				"Some solutions for n=2",
				"..1..1..1..0..1..1....1..0..1..1..1..1....1..1..0..1..1..1....1..1..1..0..1..1",
				"..0..1..0..0..0..1....1..0..0..0..0..0....1..0..0..0..0..0....1..0..0..0..1..0",
				"..1..0..0..0..1..0....0..0..1..0..0..1....0..0..0..0..0..1....0..1..0..0..0..1",
				"..1..1..0..1..1..1....1..1..1..1..0..1....1..1..1..0..1..1....1..1..0..1..1..1"
			],
			"xref": [
				"Column 4 of A223179."
			],
			"keyword": "nonn,more",
			"offset": "1,2",
			"author": "_R. H. Hardin_, Mar 17 2013",
			"references": 0,
			"revision": 7,
			"time": "2020-07-28T11:13:06-04:00",
			"created": "2013-03-17T11:37:05-04:00"
		}
	]
}