{
	"greeting": "Greetings from The On-Line Encyclopedia of Integer Sequences! http://oeis.org/",
	"query": "id:A223752",
	"count": 1,
	"start": 0,
	"results": [
		{
			"number": 223752,
			"data": "6,24,117,456,1962,7660,31897,125240,514300,2027832,8266707,32688296,132665572,525661108,2127110678,8440975288,34086061208,135418512296,546011521445,2171164829984,8744100796746,34795052216800,140006637363629",
			"name": "Number of 1X(n+1) 0..3 arrays with every row least squares fitting to a positive slope straight line and every column least squares fitting to a zero or positive slope straight line, with a single point array taken as having zero slope",
			"comment": [
				"Row 1 of A223751"
			],
			"link": [
				"R. H. Hardin, \u003ca href=\"/A223752/b223752.txt\"\u003eTable of n, a(n) for n = 1..200\u003c/a\u003e"
			],
			"example": [
				"Some solutions for n=3",
				"..0..2..1..2....1..3..0..3....1..1..3..3....0..3..3..2....1..3..1..3"
			],
			"keyword": "nonn",
			"offset": "1,1",
			"author": "_R. H. Hardin_ Mar 27 2013",
			"references": 1,
			"revision": 4,
			"time": "2013-03-27T03:51:09-04:00",
			"created": "2013-03-27T03:51:09-04:00"
		}
	]
}