{
	"greeting": "Greetings from The On-Line Encyclopedia of Integer Sequences! http://oeis.org/",
	"query": "id:A223993",
	"count": 1,
	"start": 0,
	"results": [
		{
			"number": 223993,
			"data": "3,31,476,7927,132119,2160036,34534687,540957770,8329684774,126518474741,1901584578700,28359907789963,420651674953990,6217185029060841,91703594406693983",
			"name": "Number of n X n 0..2 arrays with antidiagonals unimodal and rows and diagonals nondecreasing",
			"comment": [
				"Diagonal of A223999"
			],
			"example": [
				"Some solutions for n=3",
				"..0..0..1....0..1..2....0..0..2....1..2..2....0..1..1....0..0..0....0..2..2",
				"..0..0..1....0..0..1....0..1..1....0..1..2....0..1..1....0..1..2....0..0..2",
				"..0..1..1....0..1..2....0..1..1....1..1..1....0..2..2....1..2..2....0..1..1"
			],
			"keyword": "nonn",
			"offset": "1,1",
			"author": "_R. H. Hardin_ Mar 30 2013",
			"references": 0,
			"revision": 5,
			"time": "2015-12-18T18:18:33-05:00",
			"created": "2013-03-30T08:25:50-04:00"
		}
	]
}