{
	"greeting": "Greetings from The On-Line Encyclopedia of Integer Sequences! http://oeis.org/",
	"query": "id:A223182",
	"count": 1,
	"start": 0,
	"results": [
		{
			"number": 223182,
			"data": "125,320,2080,14560,103520,738720,5274720,37664800,268947680,1920431520,13712917600,97917648160,699184991200,4992559175840,35649574015840,254557248560160,1817676496339680,12979193733707680,92678466337073760",
			"name": "Rolling icosahedron footprints: number of n X 4 0..11 arrays starting with 0 where 0..11 label vertices of an icosahedron and every array movement to a horizontal, vertical or antidiagonal neighbor moves along an icosahedral edge.",
			"comment": [
				"Column 4 of A223186."
			],
			"link": [
				"R. H. Hardin, \u003ca href=\"/A223182/b223182.txt\"\u003eTable of n, a(n) for n = 1..210\u003c/a\u003e"
			],
			"formula": [
				"Empirical: a(n) = 10*a(n-1) - 25*a(n-2) + 36*a(n-3) - 24*a(n-4) + 4*a(n-5) for n\u003e6.",
				"Empirical g.f.: 5*x*(25 - 186*x + 401*x^2 - 548*x^3 + 280*x^4 - 36*x^5) / ((1 - x)*(1 - 9*x + 16*x^2 - 20*x^3 + 4*x^4)). - _Colin Barker_, Aug 17 2018"
			],
			"example": [
				"Some solutions for n=3:",
				"..0..5..7.11....0..5.10.11....0..5..7..0....0..6..2..0....0..5.10.11",
				"..7.11..3..7....7.11..5.10....7.11..5..7....2..0..1..7....7.11..9.10",
				"..5..7..1..3....5..7.11..5....3..7..0..5....1..7..0..1....5.10..4..9",
				"Vertex neighbors:",
				"0 -\u003e 1 2 5 6 7",
				"1 -\u003e 0 2 3 7 8",
				"2 -\u003e 0 1 4 6 8",
				"3 -\u003e 1 7 8 9 11",
				"4 -\u003e 2 6 8 9 10",
				"5 -\u003e 0 6 7 10 11",
				"6 -\u003e 0 2 4 5 10",
				"7 -\u003e 0 1 3 5 11",
				"8 -\u003e 1 2 3 4 9",
				"9 -\u003e 3 4 8 10 11",
				"10 -\u003e 4 5 6 9 11",
				"11 -\u003e 3 5 7 9 10"
			],
			"xref": [
				"Cf. A223186."
			],
			"keyword": "nonn",
			"offset": "1,1",
			"author": "_R. H. Hardin_, Mar 18 2013",
			"references": 1,
			"revision": 8,
			"time": "2018-08-17T09:21:53-04:00",
			"created": "2013-03-18T05:15:51-04:00"
		}
	]
}