{
	"greeting": "Greetings from The On-Line Encyclopedia of Integer Sequences! http://oeis.org/",
	"query": "id:A223045",
	"count": 1,
	"start": 0,
	"results": [
		{
			"number": 223045,
			"data": "6,20,120,536,3378,17362,108534,597935,3721248,21071310,130311096,750104699,4613728254,26815009916,164248964064,960731599727,5866192543680,34466973845193,209936262159534,1237576209559222",
			"name": "Number of nX2 0..2 arrays with every row and column least squares fitting to a nonnegative slope straight line, with a single point array taken as having zero slope",
			"comment": [
				"Column 2 of A223048"
			],
			"link": [
				"R. H. Hardin, \u003ca href=\"/A223045/b223045.txt\"\u003eTable of n, a(n) for n = 1..31\u003c/a\u003e"
			],
			"example": [
				"Some solutions for n=3",
				"..1..1....0..0....0..1....1..2....0..1....0..0....0..0....0..0....2..2....1..1",
				"..0..2....0..1....0..1....0..1....2..2....0..1....0..2....0..1....2..2....2..2",
				"..2..2....1..2....2..2....1..2....0..2....2..2....0..1....0..1....2..2....1..1"
			],
			"keyword": "nonn",
			"offset": "1,1",
			"author": "_R. H. Hardin_ Mar 12 2013",
			"references": 2,
			"revision": 4,
			"time": "2013-03-12T18:48:40-04:00",
			"created": "2013-03-12T18:48:40-04:00"
		}
	]
}