{
	"greeting": "Greetings from The On-Line Encyclopedia of Integer Sequences! http://oeis.org/",
	"query": "id:A223193",
	"count": 1,
	"start": 0,
	"results": [
		{
			"number": 223193,
			"data": "387,149769,3407893,1615611339,386807892609,103879396217927,36214510060655577",
			"name": "Number of nX6 0..2 arrays with all rows and columns having a nonnegative second derivative in a quadratic least squares fit, with one and two element arrays taken as having a zero second derivative",
			"comment": [
				"Column 6 of A223195"
			],
			"example": [
				"Some solutions for n=3",
				"..0..0..1..1..0..2....0..0..2..0..0..2....0..1..1..1..1..2....0..0..0..0..0..2",
				"..0..0..0..0..0..1....0..0..0..0..1..1....0..0..0..0..0..1....0..0..0..1..1..1",
				"..0..1..1..0..2..2....0..0..0..0..2..1....2..1..0..0..2..0....0..0..0..2..2..2"
			],
			"keyword": "nonn",
			"offset": "1,1",
			"author": "_R. H. Hardin_ Mar 18 2013",
			"references": 0,
			"revision": 3,
			"time": "2013-03-18T05:43:49-04:00",
			"created": "2013-03-18T05:43:49-04:00"
		}
	]
}