{
	"greeting": "Greetings from The On-Line Encyclopedia of Integer Sequences! http://oeis.org/",
	"query": "id:A223668",
	"count": 1,
	"start": 0,
	"results": [
		{
			"number": 223668,
			"data": "29,841,12577,119150,920106,6789502,51831694,418107416,3535212700,30760010124,270819014018,2389382612136,21054370910762,185252005692892,1628826042317036,14320554615413076,125935880053887644",
			"name": "Number of nX7 0..1 arrays with rows, diagonals and antidiagonals unimodal",
			"comment": [
				"Column 7 of A223669"
			],
			"link": [
				"R. H. Hardin, \u003ca href=\"/A223668/b223668.txt\"\u003eTable of n, a(n) for n = 1..210\u003c/a\u003e"
			],
			"example": [
				"Some solutions for n=4",
				"..0..0..0..0..0..0..0....0..0..1..1..1..1..0....0..0..1..0..0..0..0",
				"..0..0..1..0..0..0..0....0..1..1..1..1..1..0....1..1..1..1..1..1..1",
				"..0..0..0..0..0..0..0....1..1..1..1..0..0..0....0..0..0..0..0..1..1",
				"..0..0..1..0..0..0..0....0..1..0..0..0..0..0....0..0..0..0..0..0..0"
			],
			"keyword": "nonn",
			"offset": "1,1",
			"author": "_R. H. Hardin_ Mar 25 2013",
			"references": 1,
			"revision": 4,
			"time": "2013-03-25T09:35:15-04:00",
			"created": "2013-03-25T09:35:15-04:00"
		}
	]
}