{
	"greeting": "Greetings from The On-Line Encyclopedia of Integer Sequences! http://oeis.org/",
	"query": "id:A223512",
	"count": 1,
	"start": 0,
	"results": [
		{
			"number": 223512,
			"data": "1,10,1,190,30,1,5320,1060,60,1,196840,45600,3400,100,1,9054640,2340040,208800,8300,150,1,498005200,140096880,14241640,690200,17150,210,1,31872332800,9604302400,1080045120,60485040,1856400,31640,280,1,2326680294400",
			"name": "Triangle T(n,k) represents the coefficients of (x^10*d/dx)^n, where n=1,2,3,...;generalization of Stirling numbers of second kind A008277, Lah-numbers A008297.",
			"example": [
				"1;",
				"10,1;",
				"190,30,1;",
				"5320,1060,60,1;",
				"196840,45600,3400,100,1;",
				"9054640,2340040,208800,8300,150,1;",
				"498005200,140096880,14241640,690200,17150,210,1;",
				"31872332800,9604302400,1080045120,60485040,1856400,31640,280,1,2326680294400"
			],
			"maple": [
				"b[0]:=g(x):",
				"for j from 1 to 10 do",
				"b[j]:=simplify(x^10*diff(b[j-1],x$1);",
				"end do;"
			],
			"xref": [
				"Cf. A008277, A019538, A035342, A035469, A049029, A049385, A092082, A132056, A223511-A223522, A223168-A223172, A223523-A223532."
			],
			"keyword": "nonn,easy,tabl",
			"offset": "1,2",
			"author": "_Udita Katugampola_, Mar 23 2013",
			"references": 1,
			"revision": 7,
			"time": "2013-03-23T14:28:46-04:00",
			"created": "2013-03-23T14:28:46-04:00"
		}
	]
}