{
	"greeting": "Greetings from The On-Line Encyclopedia of Integer Sequences! http://oeis.org/",
	"query": "id:A223194",
	"count": 1,
	"start": 0,
	"results": [
		{
			"number": 223194,
			"data": "1143,1306449,52906752,76015542500,49198404222036,36214510060655577,36869649918720635277",
			"name": "Number of nX7 0..2 arrays with all rows and columns having a nonnegative second derivative in a quadratic least squares fit, with one and two element arrays taken as having a zero second derivative",
			"comment": [
				"Column 7 of A223195"
			],
			"example": [
				"Some solutions for n=3",
				"..0..0..0..2..0..1..2....0..0..0..1..2..2..2....0..0..1..0..2..2..2",
				"..0..0..0..1..0..1..1....0..0..0..0..1..1..2....0..0..0..0..0..1..0",
				"..2..0..0..2..0..2..1....0..0..0..0..1..1..2....2..0..0..2..0..2..0"
			],
			"keyword": "nonn",
			"offset": "1,1",
			"author": "_R. H. Hardin_ Mar 18 2013",
			"references": 0,
			"revision": 3,
			"time": "2013-03-18T05:44:07-04:00",
			"created": "2013-03-18T05:44:07-04:00"
		}
	]
}