{
	"greeting": "Greetings from The On-Line Encyclopedia of Integer Sequences! http://oeis.org/",
	"query": "id:A223534",
	"count": 1,
	"start": 0,
	"results": [
		{
			"number": 223534,
			"data": "1,1,4,-1,6,8,5,-10,48,32,-10,15,-10,80,32,110,-145,90,40,480,128,-770,945,-560,140,560,1344,256,-13090,15365,-8820,2940,-6272,-7168,-1024,65450,-74550,41825,-14700,2940,-13440,-9216,-1024,1505350,-1678250,925575",
			"name": "Coefficients of (x^(1/4)*d/dx)^n for n positive integer.",
			"comment": [
				"These are generalized Stirling numbers."
			],
			"link": [
				"U. N. Katugampola, \u003ca href=\"http://authors.elsevier.com/a/1QhUNLvMg0Zs~\"\u003eMellin Transforms of Generalized Fractional Integrals and Derivatives\u003c/a\u003e, Appl. Math. Comput. 257(2015) 566-580."
			],
			"formula": [
				"G.f.: exp(((1+3/4*x*y)^(4/3)-1)/x)."
			],
			"example": [
				"1;",
				"1, 4;",
				"-1, 6, 8;",
				"5, -10, 48, 32;",
				"-10, 15, -10, 80, 32;",
				"110, -145, 90, 40, 480, 128;",
				"-770, 945, -560, 140, 560, 1344, 256;"
			],
			"maple": [
				"# This will generate the sequence as coefficients of pseudo polynomials",
				"# up to a constant multiple.",
				"a[0] := f(x):",
				"for i to 10 do",
				"a[i] := simplify(x^(1/4)*(diff(a[i-1],x$1)))",
				"end do;"
			],
			"xref": [
				"Cf. A223168-A223172, A223533-A223536."
			],
			"keyword": "sign,tabl",
			"offset": "1,3",
			"author": "_Udita Katugampola_, Apr 18 2013",
			"references": 1,
			"revision": 24,
			"time": "2017-06-24T01:17:15-04:00",
			"created": "2013-04-20T13:23:48-04:00"
		}
	]
}