{
	"greeting": "Greetings from The On-Line Encyclopedia of Integer Sequences! http://oeis.org/",
	"query": "id:A223477",
	"count": 1,
	"start": 0,
	"results": [
		{
			"number": 223477,
			"data": "81,3375,147825,6526575,288507825,12755926575,563999907825,24937217326575,1102598111307825,48751338478726575,2155538829022707825,95307078736540126575,4213999366856734107825,186321844088731401526575",
			"name": "Rolling icosahedron face footprints: number of n X 5 0..19 arrays starting with 0 where 0..19 label faces of an icosahedron and every array movement to a horizontal or antidiagonal neighbor moves across an icosahedral edge.",
			"comment": [
				"Column 5 of A223480."
			],
			"link": [
				"R. H. Hardin, \u003ca href=\"/A223477/b223477.txt\"\u003eTable of n, a(n) for n = 1..210\u003c/a\u003e"
			],
			"formula": [
				"Empirical: a(n) = 51*a(n-1) - 300*a(n-2).",
				"Empirical g.f.: 27*x*(3 - 28*x) / (1 - 51*x + 300*x^2). - _Colin Barker_, Aug 20 2018"
			],
			"example": [
				"Some solutions for n=3:",
				"..0..1..6.10.17....0..1..6..7..5....0..2..0..2..0....0..2..0..1..6",
				"..6.10.17.10.12....6..7.11..7..6....8..2..0..5..7....0..1..0..1..4",
				".17.10.12.11.12....6..7..5..7..5....0..5..7.11.14....0..5..0..1..6",
				"Face neighbors:",
				"0 -\u003e 1 2 5",
				"1 -\u003e 0 4 6",
				"2 -\u003e 0 3 8",
				"3 -\u003e 2 4 16",
				"4 -\u003e 3 1 17",
				"5 -\u003e 0 7 9",
				"6 -\u003e 1 7 10",
				"7 -\u003e 6 5 11",
				"8 -\u003e 2 9 13",
				"9 -\u003e 8 5 14",
				"10 -\u003e 6 12 17",
				"11 -\u003e 7 12 14",
				"12 -\u003e 11 10 19",
				"13 -\u003e 8 15 16",
				"14 -\u003e 9 11 15",
				"15 -\u003e 14 13 19",
				"16 -\u003e 3 13 18",
				"17 -\u003e 4 10 18",
				"18 -\u003e 16 17 19",
				"19 -\u003e 15 18 12"
			],
			"xref": [
				"Cf. A223480."
			],
			"keyword": "nonn",
			"offset": "1,1",
			"author": "_R. H. Hardin_, Mar 20 2013",
			"references": 1,
			"revision": 8,
			"time": "2018-08-20T13:30:45-04:00",
			"created": "2013-03-20T11:52:08-04:00"
		}
	]
}