{
	"greeting": "Greetings from The On-Line Encyclopedia of Integer Sequences! http://oeis.org/",
	"query": "id:A223743",
	"count": 1,
	"start": 0,
	"results": [
		{
			"number": 223743,
			"data": "3,3,9,9,39,43,195,243,1209,1539,8007,10557,56277,75595,409431,558117,3061119,4218077,23357223,32466849,181185495,253624579,1424453499,2005655781,11325017397,16024596491,90896159565,129159081787",
			"name": "Number of nX1 0..2 arrays with every row and column least squares fitting to a zero slope straight line, with a single point array taken as having zero slope",
			"comment": [
				"Column 1 of A223747"
			],
			"link": [
				"R. H. Hardin, \u003ca href=\"/A223743/b223743.txt\"\u003eTable of n, a(n) for n = 1..210\u003c/a\u003e"
			],
			"example": [
				"Some solutions for n=6",
				"..2....0....1....1....2....0....2....2....1....0....2....0....1....1....1....0",
				"..1....1....1....1....1....1....2....0....0....2....1....2....2....0....2....1",
				"..0....2....0....2....0....2....0....1....2....2....1....1....1....2....2....1",
				"..0....2....2....0....2....0....0....1....1....2....1....2....2....2....0....1",
				"..1....1....2....0....2....0....2....0....2....2....1....0....0....0....1....1",
				"..2....0....0....2....1....1....2....2....0....0....2....1....2....1....2....0"
			],
			"keyword": "nonn",
			"offset": "1,1",
			"author": "_R. H. Hardin_ Mar 27 2013",
			"references": 2,
			"revision": 5,
			"time": "2013-03-27T03:22:56-04:00",
			"created": "2013-03-27T03:22:56-04:00"
		}
	]
}