{
	"greeting": "Greetings from The On-Line Encyclopedia of Integer Sequences! http://oeis.org/",
	"query": "id:A223093",
	"count": 1,
	"start": 0,
	"results": [
		{
			"number": 223093,
			"data": "0,0,2,4,16,38,132,342,1144,3134,10370,29526,97458,285458,942920,2822310,9341008,28440970,94358558,291294678,968853072,3025232480,10086634316,31797822936,106265437078,337731551446,1131117792978,3620119437762,12148796744234,39118879440938",
			"name": "Number of foldings of n labeled stamps in which leaf 1 is inwards and leaf n outwards (or leaf 1 outwards and leaf n inwards).",
			"comment": [
				"Subset of foldings of n labeled stamps (A000136). - _Stéphane Legendre_, Apr 09 2013"
			],
			"link": [
				"Stéphane Legendre, \u003ca href=\"/A223093/b223093.txt\"\u003eTable of n, a(n) for n = 1..42\u003c/a\u003e",
				"S. Legendre, \u003ca href=\"http://arxiv.org/abs/1302.2025\"\u003eFoldings and Meanders\u003c/a\u003e, arXiv preprint arXiv:1302.2025 [math.CO], 2013.",
				"S. Legendre, \u003ca href=\"http://ajc.maths.uq.edu.au/pdf/58/ajc_v58_p275.pdf\"\u003eFoldings and Meanders\u003c/a\u003e, Aust. J. Comb. 58(2), 275-291, 2014.",
				"\u003ca href=\"/index/Fo#fold\"\u003eIndex entries for sequences obtained by enumerating foldings\u003c/a\u003e"
			],
			"formula": [
				"a(n) = A000682(n+1) - A077014(n). - _Andrew Howroyd_, Dec 06 2015",
				"A217310(n) = 2*a(n) if n is odd and A217310(n) = a(n) if n is even. - _Stéphane Legendre_, Jan 09 2014"
			],
			"mathematica": [
				"A000682 = Cases[Import[\"https://oeis.org/A000682/b000682.txt\", \"Table\"], {_, _}][[All, 2]];",
				"A077014 = Cases[Import[\"https://oeis.org/A077014/b077014.txt\", \"Table\"], {_, _}][[All, 2]];",
				"a[n_] := A000682[[n + 1]] - A077014[[n + 1]];",
				"Array[a, 30] (* _Jean-François Alcover_, Sep 07 2019, after _Andrew Howroyd_ *)"
			],
			"keyword": "nonn",
			"offset": "1,3",
			"author": "_N. J. A. Sloane_, Mar 29 2013",
			"ext": [
				"Name clarified by _Stéphane Legendre_, Apr 09 2013",
				"More terms from _Stéphane Legendre_, Apr 09 2013"
			],
			"references": 3,
			"revision": 44,
			"time": "2019-09-08T03:12:19-04:00",
			"created": "2013-03-29T23:38:33-04:00"
		}
	]
}