{
	"greeting": "Greetings from The On-Line Encyclopedia of Integer Sequences! http://oeis.org/",
	"query": "id:A223046",
	"count": 1,
	"start": 0,
	"results": [
		{
			"number": 223046,
			"data": "18,120,2160,24120,476298,6701732,129263994,2034174870,38872156608,638334265140,12063810334392,203277623324301,3807709928026200,65141220918760312,1212020863903182816,20946272883788339613",
			"name": "Number of nX3 0..2 arrays with every row and column least squares fitting to a nonnegative slope straight line, with a single point array taken as having zero slope",
			"comment": [
				"Column 3 of A223048"
			],
			"link": [
				"R. H. Hardin, \u003ca href=\"/A223046/b223046.txt\"\u003eTable of n, a(n) for n = 1..17\u003c/a\u003e"
			],
			"example": [
				"Some solutions for n=3",
				"..0..1..1....0..0..1....0..0..1....0..2..1....0..1..0....1..1..2....0..0..0",
				"..0..0..0....2..1..2....2..2..2....0..1..0....0..0..0....0..1..2....1..2..1",
				"..0..2..2....1..2..2....1..2..2....1..2..2....1..2..1....1..1..2....2..0..2"
			],
			"keyword": "nonn",
			"offset": "1,1",
			"author": "_R. H. Hardin_ Mar 12 2013",
			"references": 1,
			"revision": 4,
			"time": "2013-03-12T18:49:18-04:00",
			"created": "2013-03-12T18:49:18-04:00"
		}
	]
}