{
	"greeting": "Greetings from The On-Line Encyclopedia of Integer Sequences! http://oeis.org/",
	"query": "id:A223039",
	"count": 1,
	"start": 0,
	"results": [
		{
			"number": 223039,
			"data": "11,1265,229437,42964721,8206670940,1590576924149,311543161837482,61504928367575855,12217149892788877445,2438751075983097268086,488783777099597628446445,98294363180577784998680559",
			"name": "Number of nX4 0..3 arrays with no more than floor(nX4/2) elements equal to at least one horizontal, diagonal or antidiagonal neighbor, with new values introduced in row major 0..3 order",
			"comment": [
				"Column 4 of A223041"
			],
			"link": [
				"R. H. Hardin, \u003ca href=\"/A223039/b223039.txt\"\u003eTable of n, a(n) for n = 1..23\u003c/a\u003e"
			],
			"example": [
				"Some solutions for n=3",
				"..0..1..0..2....0..1..0..1....0..0..1..0....0..1..0..0....0..1..0..2",
				"..3..0..3..0....1..1..2..2....2..0..3..0....2..1..2..2....3..1..0..3",
				"..3..0..1..1....2..0..3..0....3..2..1..2....3..1..0..3....0..0..1..1"
			],
			"keyword": "nonn",
			"offset": "1,1",
			"author": "_R. H. Hardin_ Mar 12 2013",
			"references": 1,
			"revision": 4,
			"time": "2013-03-12T18:33:40-04:00",
			"created": "2013-03-12T18:33:40-04:00"
		}
	]
}