{
	"greeting": "Greetings from The On-Line Encyclopedia of Integer Sequences! http://oeis.org/",
	"query": "id:A223148",
	"count": 1,
	"start": 0,
	"results": [
		{
			"number": 223148,
			"data": "72,5721,487176,36926759,2829178640,219590496125,17348791308859,1392509665602089,113307992984969726",
			"name": "Number of nX6 0..2 arrays with no more than floor(nX6/2) elements equal to at least one horizontal, vertical or antidiagonal neighbor, with new values introduced in row major 0..2 order",
			"comment": [
				"Column 6 of A223149"
			],
			"example": [
				"Some solutions for n=3",
				"..0..1..0..2..0..2....0..0..1..2..0..1....0..0..0..1..2..0....0..0..1..0..1..0",
				"..1..0..1..2..1..0....1..0..2..1..0..0....2..1..0..0..1..1....1..0..2..1..1..1",
				"..2..0..1..0..2..1....2..1..0..2..0..2....0..2..0..2..1..0....2..1..0..2..0..0"
			],
			"keyword": "nonn",
			"offset": "1,1",
			"author": "_R. H. Hardin_ Mar 16 2013",
			"references": 0,
			"revision": 3,
			"time": "2013-03-16T06:16:42-04:00",
			"created": "2013-03-16T06:16:42-04:00"
		}
	]
}