{
	"greeting": "Greetings from The On-Line Encyclopedia of Integer Sequences! http://oeis.org/",
	"query": "id:A223009",
	"count": 1,
	"start": 0,
	"results": [
		{
			"number": 223009,
			"data": "5,41,284,4685,35471,608759,4804753,84081394,677026335,11978593094,97641043662,1740042991754,14302961008158,256194148677872,2118789678447707,38096340418345532,316535808389385463",
			"name": "Number of nX5 0..1 arrays with no more than floor(nX5/2) elements unequal to at least one horizontal or antidiagonal neighbor, with new values introduced in row major 0..1 order",
			"comment": [
				"Column 5 of A223012"
			],
			"link": [
				"R. H. Hardin, \u003ca href=\"/A223009/b223009.txt\"\u003eTable of n, a(n) for n = 1..210\u003c/a\u003e"
			],
			"example": [
				"Some solutions for n=3",
				"..0..0..1..1..1....0..0..0..1..0....0..1..0..0..1....0..0..0..0..0",
				"..0..0..1..1..1....0..0..0..0..0....0..0..0..0..0....0..1..0..0..0",
				"..0..1..1..1..1....1..0..0..0..0....0..0..0..0..0....0..1..0..0..0"
			],
			"keyword": "nonn",
			"offset": "1,1",
			"author": "_R. H. Hardin_ Mar 11 2013",
			"references": 1,
			"revision": 4,
			"time": "2013-03-11T13:42:48-04:00",
			"created": "2013-03-11T13:42:48-04:00"
		}
	]
}