{
	"greeting": "Greetings from The On-Line Encyclopedia of Integer Sequences! http://oeis.org/",
	"query": "id:A223031",
	"count": 1,
	"start": 0,
	"results": [
		{
			"number": 223031,
			"data": "16,136,820,6472,13319,219912,332851,8050444,11698029,312930532,458588405,12544487083,18573947846,512255200908,764258492875,21188231536154,31786908474661,884821126113642,1332941601784243",
			"name": "Number of nX5 0..2 arrays with exactly floor(nX5/2) elements equal to at least one king-move neighbor, with new values introduced in row major 0..2 order",
			"comment": [
				"Column 5 of A223033"
			],
			"link": [
				"R. H. Hardin, \u003ca href=\"/A223031/b223031.txt\"\u003eTable of n, a(n) for n = 1..27\u003c/a\u003e"
			],
			"example": [
				"Some solutions for n=3",
				"..0..1..1..0..2....0..1..2..1..2....0..1..2..0..2....0..1..0..2..1",
				"..2..1..1..1..1....2..2..2..0..0....2..2..2..1..2....2..2..2..2..0",
				"..0..1..2..0..2....0..1..0..1..2....0..1..0..2..0....1..2..0..2..1"
			],
			"keyword": "nonn",
			"offset": "1,1",
			"author": "_R. H. Hardin_ Mar 12 2013",
			"references": 1,
			"revision": 4,
			"time": "2013-03-12T04:10:45-04:00",
			"created": "2013-03-12T04:10:45-04:00"
		}
	]
}