{
	"greeting": "Greetings from The On-Line Encyclopedia of Integer Sequences! http://oeis.org/",
	"query": "id:A224509",
	"count": 1,
	"start": 0,
	"results": [
		{
			"number": 224509,
			"data": "1,3,10,35,125,451,1637,5965,21794,79781,292468,1073296,3941950,14486721,53264010,195909180,720769621,2652351034,9761957789,35933354194,132282020709,487008295675,1793068462212,6602016250702,24309222706566,89511103102442",
			"name": "Expansion of (1-x)*(1-2*x)*(1-3*x)/(1-9*x+28*x^2-35*x^3+15*x^4-x^5).",
			"comment": [
				"A diagonal of the square array A223968."
			],
			"link": [
				"\u003ca href=\"/index/Rec#order_05\"\u003eIndex entries for linear recurrences with constant coefficients\u003c/a\u003e, signature (9,-28,35,-15,1)"
			],
			"formula": [
				"a(n) = A223968(n+1,n).",
				"G.f.: (1-x)*(1-2*x)*(1-3*x)/(1-9*x+28*x^2-35*x^3+15*x^4-x^5).",
				"a(n) = 9*a(n-1) - 28*a(n-2) + 35*a(n-3) - 15*a(n-4) + a(n-5) with a(0) = 1, a(1) = 3, a(2) = 10, a(3) = 35, a(4) = 125."
			],
			"xref": [
				"Cf. A223968"
			],
			"keyword": "nonn,easy",
			"offset": "0,2",
			"author": "_Philippe Deléham_, Apr 08 2013",
			"references": 1,
			"revision": 7,
			"time": "2015-06-13T00:54:38-04:00",
			"created": "2013-04-09T12:16:43-04:00"
		}
	]
}