{
	"greeting": "Greetings from The On-Line Encyclopedia of Integer Sequences! http://oeis.org/",
	"query": "id:A224398",
	"count": 1,
	"start": 0,
	"results": [
		{
			"number": 224398,
			"data": "2,3,5,7,1117,1171,179991179,191797919,337353739,733353337,1193100992213191,1193120192093911,1193900112293191,1193902910213911,1733922710213719,1933913317893391,1933983337193191,3191100999231193,3191949710331913,3371722912019173",
			"name": "Prime numbers with m^2 digits that, if arranged in an m X m matrix, form m-digit reversible primes in each row, column, and in the two main diagonals.",
			"comment": [
				"Subsequence of A224164, in which only the main diagonal is requested to be a reversible prime. Suggested by _Charles R Greathouse IV_.",
				"The smallest terms with 4, 9, 16, 25 and 36 digits are 1117, 179991179, 1193100992213191, 1119710007705077000179111 and 111119100049100049928141172283919913."
			],
			"link": [
				"Giovanni Resta, \u003ca href=\"/A224398/b224398.txt\"\u003eTable of n, a(n) for n = 1..10000\u003c/a\u003e"
			],
			"example": [
				"When the digits of the prime p = 3391382115599173 are arranged in a 4 X 4 matrix:",
				"3391",
				"3821",
				"1559",
				"9173",
				"the rows, the columns and the two main diagonals are 4 digits reversible primes, so p is in the sequence."
			],
			"xref": [
				"Cf. A224164."
			],
			"keyword": "nonn,base",
			"offset": "1,1",
			"author": "_Giovanni Resta_, Apr 05 2013",
			"references": 2,
			"revision": 9,
			"time": "2013-10-11T18:35:49-04:00",
			"created": "2013-04-06T09:50:54-04:00"
		}
	]
}