{
	"greeting": "Greetings from The On-Line Encyclopedia of Integer Sequences! http://oeis.org/",
	"query": "id:A224579",
	"count": 1,
	"start": 0,
	"results": [
		{
			"number": 224579,
			"data": "1,3,28,13,3,1,2,1,1,8,3,4,3,3,15,12,5,2,8,1,24,2,3,5,1,1,3,3,1,1,1,2,1,1,7,12,1,1,1,3,1,1,1,2,1,107,1,3,6,1,26,121,3,2,1,1,12,117,1,2,3,7,5,41,5,1,5,1,1,2,3,1,200,1,4,3,191,1,5,3,5",
			"name": "Continued fraction of (gamma+sqrt(4+gamma^2))/2, where gamma is the Euler-Mascheroni constant.",
			"comment": [
				"Continued fraction of the constant in A224578."
			],
			"link": [
				"Paolo P. Lava, \u003ca href=\"/A224579/b224579.txt\"\u003eTable of n, a(n) for n = 1..1000\u003c/a\u003e"
			],
			"maple": [
				"Digits:=200; a:=evalf(gamma,5000); evalf((a+sqrt(4+a^2))/2,1000);",
				"numtheory[cfrac](%,200,'quotients') ;"
			],
			"mathematica": [
				"ContinuedFraction[(EulerGamma+Sqrt[4+EulerGamma^2])/2, 100] (* _G. C. Greubel_, Aug 30 2018 *)"
			],
			"program": [
				"(PARI) default(realprecision, 100); contfrac((Euler + sqrt(4 + Euler^2))/2) \\\\ _G. C. Greubel_, Aug 30 2018",
				"(MAGMA) SetDefaultRealField(RealField(100)); R:= RealField(); ContinuedFraction((EulerGamma(R) + Sqrt(4+EulerGamma(R)^2))/2); // _G. C. Greubel_, Aug 30 2018"
			],
			"xref": [
				"Cf. A001620, A188640, A224578"
			],
			"keyword": "nonn,cofr",
			"offset": "1,2",
			"author": "_Paolo P. Lava_, Apr 11 2013",
			"references": 2,
			"revision": 13,
			"time": "2018-10-18T03:02:15-04:00",
			"created": "2013-04-12T12:41:14-04:00"
		}
	]
}