{
	"greeting": "Greetings from The On-Line Encyclopedia of Integer Sequences! http://oeis.org/",
	"query": "id:A224035",
	"count": 1,
	"start": 0,
	"results": [
		{
			"number": 224035,
			"data": "6,26,85,252,734,2149,6321,18673,55373,164729,491332,1468446,4395388,13170815,39497285,118511408,355728667,1068051097,3207330581,9632722080,28932821313,86907496260,261060029437,784214341324,2355790958452",
			"name": "Number of n X 5 0..1 arrays with antidiagonals unimodal and rows and diagonals nondecreasing.",
			"comment": [
				"Column 5 of A224038."
			],
			"link": [
				"R. H. Hardin, \u003ca href=\"/A224035/b224035.txt\"\u003eTable of n, a(n) for n = 1..210\u003c/a\u003e"
			],
			"formula": [
				"Empirical: a(n) = 6*a(n-1) - 10*a(n-2) + a(n-3) + 6*a(n-4) + a(n-5) - 4*a(n-6) + 4*a(n-7) - 4*a(n-8) + 8*a(n-9) for n\u003e10.",
				"Empirical g.f.: x*(6 - 10*x - 11*x^2 - 4*x^3 + 10*x^4 + 18*x^5 + 3*x^6 - 14*x^7 - 4*x^9) / ((1 - 2*x)*(1 - 4*x + 2*x^2 + 3*x^3 - x^5 + 2*x^6 + 4*x^8)). - _Colin Barker_, Aug 26 2018"
			],
			"example": [
				"Some solutions for n=3:",
				"..0..0..0..0..0....0..0..0..1..1....0..0..0..0..0....0..0..0..1..1",
				"..0..1..1..1..1....0..1..1..1..1....0..1..1..1..1....0..1..1..1..1",
				"..1..1..1..1..1....0..1..1..1..1....0..0..1..1..1....1..1..1..1..1"
			],
			"xref": [
				"Cf. A224038."
			],
			"keyword": "nonn",
			"offset": "1,1",
			"author": "_R. H. Hardin_, Mar 30 2013",
			"references": 1,
			"revision": 8,
			"time": "2018-08-26T09:50:36-04:00",
			"created": "2013-03-30T10:41:54-04:00"
		}
	]
}