{
	"greeting": "Greetings from The On-Line Encyclopedia of Integer Sequences! http://oeis.org/",
	"query": "id:A224211",
	"count": 1,
	"start": 0,
	"results": [
		{
			"number": 224211,
			"data": "1,1,2,3,6,8,24,50,120,234,120,720,1764,630,5040,11808,7392,40320,109584,69552,362880,954000,763200,151200,3628800,10628640,8165520,1330560,39916800,113891040,109010880,25280640,479001600,1486442880,1345687200,381775680,6227020800,18913184640,19773804960,6763236480,87178291200,283465647360,291950568000,102508005600,10897286400",
			"name": "Irregular triangular array read by rows.  T(n,k) is the number of n-permutations with exactly k distinct cycle lengths; n\u003e=1, 1\u003c=k\u003c=floor( (-1+(1+8n)^(1/2))/2 ).",
			"comment": [
				"Row sums = A007838."
			],
			"link": [
				"Alois P. Heinz, \u003ca href=\"/A224211/b224211.txt\"\u003eRows n = 1..300, flattened\u003c/a\u003e"
			],
			"formula": [
				"E.g.f.: Product_{i\u003e=1} (1 + y*x)^i/i."
			],
			"example": [
				":      1;",
				":      1;",
				":      2,      3;",
				":      6,      8;",
				":     24,     50;",
				":    120,    234,    120;",
				":    720,   1764,    630;",
				":   5040,  11808,   7392;",
				":  40320, 109584,  69552;",
				": 362880, 954000, 763200, 151200;"
			],
			"maple": [
				"b:= proc(n, i) option remember; expand(`if`(n=0, 1,",
				"      `if`(i\u003c1, 0, b(n, i-1)+ (i-1)!*b(n-i, i-1)*",
				"      `if`(i\u003en, 0, binomial(n, i)*x))))",
				"    end:",
				"T:= n-\u003e (p-\u003e seq(coeff(p, x, i), i=1..degree(p)))(b(n$2)):",
				"seq(T(n), n=1..15);  # _Alois P. Heinz_, Oct 21 2015"
			],
			"mathematica": [
				"nn=15;f[list_]:=Select[list,#\u003e0\u0026];Map[f,Drop[Range[0,nn]!CoefficientList[Series[Product[(1+y x^i/i),{i,1,nn}],{x,0,nn}],{x,y}],1]]//Grid"
			],
			"keyword": "nonn,tabf",
			"offset": "1,3",
			"author": "_Geoffrey Critzer_, Apr 01 2013",
			"references": 1,
			"revision": 11,
			"time": "2016-05-14T17:22:14-04:00",
			"created": "2013-04-02T12:00:20-04:00"
		}
	]
}