{
	"greeting": "Greetings from The On-Line Encyclopedia of Integer Sequences! http://oeis.org/",
	"query": "id:A224785",
	"count": 1,
	"start": 0,
	"results": [
		{
			"number": 224785,
			"data": "1,4,12,15,45,48,144,147,441,444,1332,1335,4005,4008,12024,12027,36081,36084,108252,108255,324765,324768,974304,974307,2922921,2922924,8768772,8768775,26306325,26306328,78918984,78918987,236756961,236756964,710270892,710270895",
			"name": "Expansion of (1+4*x+8*x^2-x^3)/((1-x)*(1+x)*(1-3*x^2)).",
			"comment": [
				"A row of the square array A219605."
			],
			"link": [
				"G. C. Greubel, \u003ca href=\"/A224785/b224785.txt\"\u003eTable of n, a(n) for n = 0..1000\u003c/a\u003e",
				"\u003ca href=\"/index/Rec#order_04\"\u003eIndex entries for linear recurrences with constant coefficients\u003c/a\u003e, signature (0,4,0,-3)."
			],
			"formula": [
				"a(n) = a(n-1) + 3 if n odd.",
				"a(n) = 3*a(n-1) if n even.",
				"a(2n) = (11*3^n - 9)/2.",
				"a(2n+1) = (11*3^n - 3)/2.",
				"a(n) = 4*a(n-2) - 3*a(n-4) with n\u003e3, a(0)=1, a(1)=4, a(2)=12, a(3)=15.",
				"a(n) = A219605(3,n).",
				"a(n) = Sum_{k=0..n} A220354(n,k) * 3^k.",
				"a(n) = (11*3^floor(n/2)-3(-1)^n)/2 -3. - _Bruno Berselli_, Apr 27 2013"
			],
			"maple": [
				"seq( (11*3^floor(n/2) -3*(2+(-1)^n))/2, n=0..40); # _G. C. Greubel_, Nov 12 2019"
			],
			"mathematica": [
				"Table[(11*3^Floor[n/2] -3*(2+(-1)^n))/2, {n,0,40}] (* _G. C. Greubel_, Nov 12 2019 *)"
			],
			"program": [
				"(PARI) vector(41, n, (11*3^((n-1)\\2) -3*(2-(-1)^n))/2) \\\\ _G. C. Greubel_, Nov 12 2019",
				"(MAGMA) [(11*3^Floor(n/2) -3*(2+(-1)^n))/2: n in [0..40]]; // _G. C. Greubel_, Nov 12 2019",
				"(Sage) [(11*3^floor(n/2) -3*(2+(-1)^n))/2 for n in (0..40)] # _G. C. Greubel_, Nov 12 2019",
				"(GAP) List([0..40], n-\u003e (11*3^Int(n/2) -3*(2+(-1)^n))/2 ); # _G. C. Greubel_, Nov 12 2019"
			],
			"xref": [
				"Cf. A219605, A220354."
			],
			"keyword": "nonn,easy",
			"offset": "0,2",
			"author": "_Philippe Deléham_, Apr 17 2013",
			"references": 1,
			"revision": 16,
			"time": "2019-11-13T01:49:16-05:00",
			"created": "2013-04-19T12:09:26-04:00"
		}
	]
}