{
	"greeting": "Greetings from The On-Line Encyclopedia of Integer Sequences! http://oeis.org/",
	"query": "id:A224689",
	"count": 1,
	"start": 0,
	"results": [
		{
			"number": 224689,
			"data": "6713,2591,2862,3214,3540,3819,4572,5723,7181,8868,10729,13235,16781,21671,28131,36332,46916,60920,79685,104778,137937,181542,239010,315099,416134,550178,727674,962482,1273220,1684831,2230321,2953139,3910594",
			"name": "Number of (n+4) X 11 0..1 matrices with each 5 X 5 subblock idempotent.",
			"link": [
				"R. H. Hardin, \u003ca href=\"/A224689/b224689.txt\"\u003eTable of n, a(n) for n = 1..210\u003c/a\u003e"
			],
			"formula": [
				"Empirical: a(n) = 4*a(n-1) - 6*a(n-2) + 4*a(n-3) - a(n-4) + a(n-5) - 3*a(n-6) + 3*a(n-7) - a(n-8) for n\u003e12.",
				"Empirical g.f.: x*(6713 - 24261*x + 32776*x^2 - 19540*x^3 + 4205*x^4 - 6627*x^5 + 18090*x^6 - 15825*x^7 + 4297*x^8 + 120*x^9 + 44*x^10 + 5*x^11) / ((1 - x)^3*(1 - x + x^2)*(1 - x^2 - x^3)). - _Colin Barker_, Sep 03 2018"
			],
			"example": [
				"Some solutions for n=2:",
				"..1..0..0..0..0..1..0..0..0..0..0....0..1..0..0..0..0..0..0..0..0..0",
				"..1..0..0..0..0..1..0..0..0..0..1....0..1..0..0..0..0..0..0..0..0..0",
				"..0..0..0..0..0..1..0..0..0..0..0....0..1..0..0..0..0..0..0..0..0..0",
				"..0..0..0..0..0..1..0..0..0..0..0....0..1..0..0..0..0..0..0..0..1..0",
				"..1..0..0..0..0..1..0..0..0..0..1....0..0..0..0..0..0..0..0..0..1..0",
				"..1..0..0..0..0..1..0..0..0..0..1....0..0..0..0..0..0..0..0..0..1..0"
			],
			"xref": [
				"Column 7 of A224690."
			],
			"keyword": "nonn",
			"offset": "1,1",
			"author": "_R. H. Hardin_, Apr 15 2013",
			"references": 1,
			"revision": 7,
			"time": "2018-09-03T11:39:09-04:00",
			"created": "2013-04-15T07:49:07-04:00"
		}
	]
}