{
	"greeting": "Greetings from The On-Line Encyclopedia of Integer Sequences! http://oeis.org/",
	"query": "id:A224286",
	"count": 1,
	"start": 0,
	"results": [
		{
			"number": 224286,
			"data": "16384,16000000,537465766,6172817040,45275725025,274116529912,1597855917875,9622753439382,59980603070388,376494813177039,2313407919278369,13634051825496929,76116429236458083,400003671053134168",
			"name": "Number of 7Xn 0..3 arrays with diagonals and rows unimodal and antidiagonals nondecreasing",
			"comment": [
				"Row 7 of A224281"
			],
			"link": [
				"R. H. Hardin, \u003ca href=\"/A224286/b224286.txt\"\u003eTable of n, a(n) for n = 1..46\u003c/a\u003e"
			],
			"example": [
				"Some solutions for n=3",
				"..0..0..0....0..0..0....0..0..0....0..0..0....0..0..0....0..0..0....0..0..0",
				"..0..0..0....0..0..0....0..0..0....0..0..0....0..0..0....0..0..0....0..0..0",
				"..0..0..0....0..0..0....0..0..0....0..0..0....0..0..0....0..0..1....0..0..0",
				"..0..2..0....2..2..2....3..0..0....0..0..0....0..0..0....3..2..2....3..2..0",
				"..2..2..2....3..2..2....3..2..0....1..2..0....0..1..0....2..2..0....3..0..0",
				"..2..2..2....3..2..2....3..2..2....2..1..0....1..0..0....2..3..2....3..1..0",
				"..3..3..2....2..2..2....3..2..1....1..2..1....3..3..1....3..3..0....2..3..0"
			],
			"keyword": "nonn",
			"offset": "1,1",
			"author": "_R. H. Hardin_ Apr 02 2013",
			"references": 1,
			"revision": 4,
			"time": "2013-04-02T14:50:39-04:00",
			"created": "2013-04-02T14:50:39-04:00"
		}
	]
}