{
	"greeting": "Greetings from The On-Line Encyclopedia of Integer Sequences! http://oeis.org/",
	"query": "id:A224938",
	"count": 1,
	"start": 0,
	"results": [
		{
			"number": 224938,
			"data": "1589,1595,1606,1617,1623,1634,1645,1651,1662,1673,1679,1690,1702,1713,1719,1730,1741,1747,1758,1769,1775,1786,1797,1809,1815,1826,1837,1843,1854,1865,1871,1882,1893,1899,1905,1911,1922,1933,1939,1950,1961,1967,1978,1989,1995",
			"name": "Non-leap years beginning and ending on Sunday.",
			"comment": [
				"Gregorian calendar repeats after every 400 years because number of days in 400 years is 146097 which is a multiple of 7.",
				"Non-century years are leap years if and only if they are multiples of 4 while century years are leap years if and only if they are multiples of 400.",
				"43 occurrences in 400 years.",
				"Months having Friday the 13th: January and October.",
				"365 day ordinary year: 53 Sundays, 52 Mondays, 52 Tuesdays, 52 Wednesdays, 52 Thursdays, 52 Fridays, 52 Saturdays."
			],
			"link": [
				"Time and Date, \u003ca href=\"http://www.timeanddate.com/calendar/gregorian-calendar.html\"\u003eThe Gregorian calendar\u003c/a\u003e",
				"Time and Date, \u003ca href=\"http://www.timeanddate.com/calendar/?year=2006\"\u003e2006\u003c/a\u003e",
				"Wikipedia, \u003ca href=\"http://en.wikipedia.org/wiki/Gregorian_calendar\"\u003eGregorian calendar\u003c/a\u003e"
			],
			"mathematica": [
				"Select[Range[1583, 2600], DayOfWeek[{#, 1, 1}, Calendar -\u003e Gregorian] == Sunday \u0026\u0026 DaysBetween[{#, 1, 1}, {# + 1, 1, 1}, Calendar -\u003e Gregorian] == 365 \u0026, 50] (* _T. D. Noe_, Apr 22 2013 *)"
			],
			"keyword": "nonn",
			"offset": "1,1",
			"author": "_Aswini Vaidyanathan_, Apr 21 2013",
			"references": 0,
			"revision": 19,
			"time": "2013-04-22T18:13:17-04:00",
			"created": "2013-04-21T13:37:48-04:00"
		}
	]
}