{
	"greeting": "Greetings from The On-Line Encyclopedia of Integer Sequences! http://oeis.org/",
	"query": "id:A224248",
	"count": 1,
	"start": 0,
	"results": [
		{
			"number": 224248,
			"data": "0,0,0,0,0,1,20,270,3142,34291,364462,3844051,40632886,432715409,4655417038,50667480496,558143676522,6223527776874,70228214538096,801705888742781,9254554670121572,107975393459449243,1272651313142352772,15145990284267530992",
			"name": "Number of permutations in S_n containing exactly one increasing subsequence of length 5.",
			"reference": [
				"B. Nakamura and D. Zeilberger, Using Noonan-Zeilberger Functional Equations to enumerate (in Polynomial Time!) Generalized Wilf classes, Adv. in Appl. Math. 50 (2013), 356-366."
			],
			"link": [
				"B. Nakamura and D. Zeilberger, \u003ca href=\"http://www.math.rutgers.edu/~zeilberg/mamarim/mamarimhtml/Gwilf.html\"\u003eUsing Noonan-Zeilberger Functional Equations to enumerate (in Polynomial Time!) Generalized Wilf classes\u003c/a\u003e"
			],
			"maple": [
				"# programs can be obtained from the Nakamura and Zeilberger link."
			],
			"xref": [
				"Cf. A047889, A217057."
			],
			"keyword": "nonn",
			"offset": "0,7",
			"author": "_Brian Nakamura_, Apr 02 2013",
			"references": 1,
			"revision": 10,
			"time": "2013-04-03T17:35:05-04:00",
			"created": "2013-04-02T12:41:43-04:00"
		}
	]
}