{
	"greeting": "Greetings from The On-Line Encyclopedia of Integer Sequences! http://oeis.org/",
	"query": "id:A224473",
	"count": 1,
	"start": 0,
	"results": [
		{
			"number": 224473,
			"data": "9,49,249,1249,81249,781249,5781249,25781249,425781249,6425781249,36425781249,836425781249,9836425781249,19836425781249,519836425781249,2519836425781249,12519836425781249,512519836425781249,4512519836425781249,84512519836425781249",
			"name": "(2*5^(2^n) - 1) mod 10^n: a sequence of trimorphic numbers ending in 9.",
			"comment": [
				"a(n) is the unique positive integer less than 10^n such that a(n) - 1 is divisible by 2^n and a(n) + 1 is divisible by 5^n."
			],
			"link": [
				"Eric M. Schmidt, \u003ca href=\"/A224473/b224473.txt\"\u003eTable of n, a(n) for n = 1..1000\u003c/a\u003e",
				"Eric Weisstein's World of Mathematics, \u003ca href=\"http://mathworld.wolfram.com/TrimorphicNumber.html\"\u003eTrimorphic Number\u003c/a\u003e",
				"\u003ca href=\"/index/Ar#automorphic\"\u003eIndex entries for sequences related to automorphic numbers\u003c/a\u003e"
			],
			"formula": [
				"a(n) = (2 * A007185(n) - 1) mod 10^n."
			],
			"program": [
				"(Sage) def A224473(n) : return crt(1, -1, 2^n, 5^n);"
			],
			"xref": [
				"Cf. A033819. Corresponding 10-adic number is A091661. The other trimorphic numbers ending in 9 are included in A002283, A198971 and A224475."
			],
			"keyword": "nonn,base",
			"offset": "1,1",
			"author": "_Eric M. Schmidt_, Apr 07 2013",
			"references": 9,
			"revision": 11,
			"time": "2013-04-08T11:20:17-04:00",
			"created": "2013-04-08T11:20:17-04:00"
		}
	]
}