{
	"greeting": "Greetings from The On-Line Encyclopedia of Integer Sequences! http://oeis.org/",
	"query": "id:A224039",
	"count": 1,
	"start": 0,
	"results": [
		{
			"number": 224039,
			"data": "8,21,37,58,85,119,161,212,273,345,429,526,637,763,905,1064,1241,1437,1653,1890,2149,2431,2737,3068,3425,3809,4221,4662,5133,5635,6169,6736,7337,7973,8645,9354,10101,10887,11713,12580,13489,14441,15437,16478",
			"name": "Number of 3 X n 0..1 arrays with antidiagonals unimodal and rows and diagonals nondecreasing.",
			"comment": [
				"Row 3 of A224038."
			],
			"link": [
				"R. H. Hardin, \u003ca href=\"/A224039/b224039.txt\"\u003eTable of n, a(n) for n = 1..210\u003c/a\u003e"
			],
			"formula": [
				"Empirical: a(n) = (1/6)*n^3 + 1*n^2 + (47/6)*n for n\u003e1.",
				"Conjectures from _Colin Barker_, Aug 26 2018: (Start)",
				"G.f.: x*(8 - 11*x + x^2 + 4*x^3 - x^4) / (1 - x)^4.",
				"a(n) = 4*a(n-1) - 6*a(n-2) + 4*a(n-3) - a(n-4) for n\u003e5.",
				"(End)"
			],
			"example": [
				"Some solutions for n=3:",
				"..0..0..1....1..1..1....0..0..0....0..0..0....0..0..0....0..1..1....0..0..1",
				"..0..0..0....0..1..1....0..0..1....0..1..1....0..0..0....0..1..1....0..0..0",
				"..0..1..1....1..1..1....0..0..1....1..1..1....0..0..0....0..0..1....0..0..0"
			],
			"xref": [
				"Cf. A224038."
			],
			"keyword": "nonn",
			"offset": "1,1",
			"author": "_R. H. Hardin_, Mar 30 2013",
			"references": 1,
			"revision": 8,
			"time": "2018-08-26T11:11:16-04:00",
			"created": "2013-03-30T10:47:06-04:00"
		}
	]
}