{
	"greeting": "Greetings from The On-Line Encyclopedia of Integer Sequences! http://oeis.org/",
	"query": "id:A224001",
	"count": 1,
	"start": 0,
	"results": [
		{
			"number": 224001,
			"data": "27,157,476,1144,2403,4614,8291,14141,23109,36428,55674,82826,120331,171174,238953,327959,443261,590796,777464,1011228,1301219,1657846,2092911,2619729,3253253,4010204,4909206,5970926,7218219,8676278",
			"name": "Number of 3 X n 0..2 arrays with antidiagonals unimodal and rows and diagonals nondecreasing.",
			"comment": [
				"Row 3 of A223999."
			],
			"link": [
				"R. H. Hardin, \u003ca href=\"/A224001/b224001.txt\"\u003eTable of n, a(n) for n = 1..210\u003c/a\u003e"
			],
			"formula": [
				"Empirical: a(n) = (1/144)*n^6 + (5/48)*n^5 + (163/144)*n^4 + (85/16)*n^3 + (895/36)*n^2 - (65/12)*n + 3 for n\u003e2.",
				"Conjectures from _Colin Barker_, Aug 25 2018: (Start)",
				"G.f.: x*(27 - 32*x - 56*x^2 + 164*x^3 - 159*x^4 + 85*x^5 - 32*x^6 + 9*x^7 - x^8) / (1 - x)^7.",
				"a(n) = 7*a(n-1) - 21*a(n-2) + 35*a(n-3) - 35*a(n-4) + 21*a(n-5) - 7*a(n-6) + a(n-7) for n\u003e9.",
				"(End)"
			],
			"example": [
				"Some solutions for n=3:",
				"..1..2..2....0..1..2....0..1..1....1..2..2....0..0..0....0..0..2....2..2..2",
				"..0..1..2....1..2..2....0..1..2....1..1..2....0..1..2....0..0..0....2..2..2",
				"..1..1..1....2..2..2....0..1..1....1..1..1....0..1..1....0..1..2....1..2..2"
			],
			"xref": [
				"Cf. A223999."
			],
			"keyword": "nonn",
			"offset": "1,1",
			"author": "_R. H. Hardin_, Mar 30 2013",
			"references": 1,
			"revision": 8,
			"time": "2018-08-25T15:35:14-04:00",
			"created": "2013-03-30T08:35:22-04:00"
		}
	]
}