{
	"greeting": "Greetings from The On-Line Encyclopedia of Integer Sequences! http://oeis.org/",
	"query": "id:A224401",
	"count": 1,
	"start": 0,
	"results": [
		{
			"number": 224401,
			"data": "1,2,2,3,4,5,4,6,3,5,4,7,4,5,5,8,9,7,9,7,5,10,9,11,3,10,6,7,9,12,9,13,10,10,10,14,9,10,10,11,9,12,9,7,7,10,9,15,16,7,10,17,18,11,10,11,19,19,18,20,18,19,17,21,19,12,18,17,19,12,18,22,18,19",
			"name": "a(n) = row number of triangle A085612 in which n appears.",
			"comment": [
				"Row number of A085612 triangle of prime signatures."
			],
			"link": [
				"Rémy Sigrist, \u003ca href=\"/A224401/b224401.txt\"\u003eTable of n, a(n) for n = 1..10000\u003c/a\u003e (first 150 terms from Matthew Goers)",
				"Rémy Sigrist, \u003ca href=\"/A224401/a224401.gp.txt\"\u003ePARI program for A224401\u003c/a\u003e"
			],
			"example": [
				"a(9) = 3, because 9 is in the 3rd row (1st 3 prime^2) of A085612.",
				"a(10) = 5, because 10 is in the 5th row (1st 5 semiprimes) of A085612.",
				"a(11) = 4, because 11 is in the 4th row (4 primes, prime(3)..prime(6)) of A085612."
			],
			"program": [
				"(Haskell)",
				"import Data.List (findIndex); import Data.Maybe (fromJust)",
				"a224401 = (+ 1) . fromJust . (`findIndex` a085612_tabf) . elem",
				"-- _Reinhard Zumkeller_, Jun 05 2013",
				"(PARI) See Links section."
			],
			"xref": [
				"Cf. A085612, A064839, A085834, A085836.",
				"Cf. A226387."
			],
			"keyword": "nonn",
			"offset": "1,2",
			"author": "_Matthew Goers_, Apr 05 2013",
			"references": 3,
			"revision": 20,
			"time": "2021-04-25T13:08:35-04:00",
			"created": "2013-06-04T14:26:20-04:00"
		}
	]
}