{
	"greeting": "Greetings from The On-Line Encyclopedia of Integer Sequences! http://oeis.org/",
	"query": "id:A224855",
	"count": 1,
	"start": 0,
	"results": [
		{
			"number": 224855,
			"data": "0,1,2,9,14,22,23,25,35,36,39,46,48,50,53,55,60,65,77,79,81,83,86,93,98,111,116,130,148,154,165,168,189,191,193,196,197,198,203,210,226,230,231,232,246,252,256,263,281,284,287,301,308,310,312,314,317,347",
			"name": "Numbers n such that 90*n + 17 and 90*n + 19 are twin primes.",
			"comment": [
				"All matching entries for A202115 and A196000 are twin primes."
			],
			"link": [
				"Harvey P. Dale, \u003ca href=\"/A224855/b224855.txt\"\u003eTable of n, a(n) for n = 1..1000\u003c/a\u003e"
			],
			"mathematica": [
				"Select[Range[0, 499], PrimeQ[90# + 17] \u0026\u0026 PrimeQ[90# + 19] \u0026] (* Copied from: _Alonso del Arte_, Jul 22 2013 *)"
			],
			"xref": [
				"Cf. A202115, A196000."
			],
			"keyword": "nonn",
			"offset": "1,3",
			"author": "_J. W. Helkenberg_, Jul 22 2013",
			"references": 1,
			"revision": 15,
			"time": "2015-02-10T10:30:42-05:00",
			"created": "2013-07-23T20:49:45-04:00"
		}
	]
}