{
	"greeting": "Greetings from The On-Line Encyclopedia of Integer Sequences! http://oeis.org/",
	"query": "id:A224104",
	"count": 1,
	"start": 0,
	"results": [
		{
			"number": 224104,
			"data": "1,-1,35,-217,135989,-236881,435876493,-3174551347,790667708347,-1473406853309,11050163107919893,-20886680047664287,9154917271574968829623,-277315386220087376401,803143323197313772705",
			"name": "Numerators of poly-Cauchy numbers of the second kind hat c_n^(3).",
			"comment": [
				"The poly-Cauchy numbers of the second kind hat c_n^(k) can be expressed in terms of the (unsigned) Stirling numbers of the ﬁrst kind: hat c_n^(k) = (-1)^n*sum(abs(stirling1(n,m))/(m+1)^k, m=0..n)."
			],
			"link": [
				"Vincenzo Librandi, \u003ca href=\"/A224104/b224104.txt\"\u003eTable of n, a(n) for n = 0..300\u003c/a\u003e",
				"Takao Komatsu, \u003ca href=\"http://www.kurims.kyoto-u.ac.jp/~kyodo/kokyuroku/contents/pdf/1806-06.pdf\"\u003ePoly-Cauchy numbers\u003c/a\u003e, RIMS Kokyuroku 1806 (2012)",
				"Takao Komatsu, \u003ca href=\"http://link.springer.com/article/10.1007/s11139-012-9452-0\"\u003ePoly-Cauchy numbers with a q parameter\u003c/a\u003e, Ramanujan J. 31 (2013), 353-371.",
				"Takao Komatsu, \u003ca href=\"http://doi.org/10.2206/kyushujm.67.143\"\u003ePoly-Cauchy numbers\u003c/a\u003e, Kyushu J. Math. 67 (2013), 143-153.",
				"T. Komatsu, V. Laohakosol, K. Liptai, \u003ca href=\"http://dx.doi.org/10.1155/2013/179841\"\u003eA generalization of poly-Cauchy numbers and its properties\u003c/a\u003e, Abstract and Applied Analysis, Volume 2013, Article ID 179841, 8 pages.",
				"Takao Komatsu, FZ Zhao, \u003ca href=\"http://arxiv.org/abs/1603.06725\"\u003eThe log-convexity of the poly-Cauchy numbers\u003c/a\u003e, arXiv preprint arXiv:1603.06725, 2016"
			],
			"mathematica": [
				"Table[Numerator[Sum[StirlingS1[n, k] (-1)^k/ (k + 1)^3, {k, 0, n}]], {n, 0,",
				"  25}]"
			],
			"program": [
				"(PARI) a(n) = numerator(sum(k=0, n, stirling(n, k, 1)*(-1)^k/(k+1)^3)); \\\\ _Michel Marcus_, Nov 14 2015"
			],
			"xref": [
				"Cf. A002657, A223901, A224102, A224103 (denominators)."
			],
			"keyword": "sign,frac",
			"offset": "0,3",
			"author": "_Takao Komatsu_, Mar 31 2013",
			"references": 4,
			"revision": 33,
			"time": "2017-04-07T13:34:50-04:00",
			"created": "2013-03-31T23:00:16-04:00"
		}
	]
}