{
	"greeting": "Greetings from The On-Line Encyclopedia of Integer Sequences! http://oeis.org/",
	"query": "id:A224092",
	"count": 1,
	"start": 0,
	"results": [
		{
			"number": 224092,
			"data": "1,4,-4,88,-3676,13696,-2247872,100066432,-9981213728,350407116928,-99799662414208,62373546298624,-162297422840897152,12327981472543499264,-3665733855982431355904,2212317607288301232207872,-484886817568995013610878976",
			"name": "Numerators of hypergeometric Cauchy numbers c_(4,n).",
			"link": [
				"Vincenzo Librandi, \u003ca href=\"/A224092/b224092.txt\"\u003eTable of n, a(n) for n = 0..300\u003c/a\u003e",
				"Takao Komatsu, \u003ca href=\"https://doi.org/10.1142/S1793042112501473\"\u003eHypergeometric Cauchy numbers\u003c/a\u003e, Int. J. Number Theory 9 (2013), 545-560."
			],
			"mathematica": [
				"With[{nn = 30, hh = 4}, Numerator[CoefficientList[Series[ 1/Hypergeometric2F1[1, hh, hh + 1, -x], {x, 0, nn}], x] Range[0, nn]!]]"
			],
			"xref": [
				"Cf. A006232."
			],
			"keyword": "sign,frac",
			"offset": "0,2",
			"author": "_Takao Komatsu_, Mar 30 2013",
			"references": 1,
			"revision": 29,
			"time": "2018-12-07T12:18:43-05:00",
			"created": "2013-03-31T22:46:40-04:00"
		}
	]
}