{
	"greeting": "Greetings from The On-Line Encyclopedia of Integer Sequences! http://oeis.org/",
	"query": "id:A224139",
	"count": 1,
	"start": 0,
	"results": [
		{
			"number": 224139,
			"data": "1,5,1,7,17,37,41,85,11,23,73,149,1,55,169,341,65,133,137,277,145,293,11,199,161,325,329,661,337,677,227,455,43,29,265,533,91,61,553,1109,289,581,65,391,593,1189,1193,2389,107,215,649,1301,73,439,1321,2645",
			"name": "Double 1's in binary representations of 2*n-1, converting to decimal and dividing by maximal possible power of 3.",
			"link": [
				"Peter J. C. Moses, \u003ca href=\"/A224139/b224139.txt\"\u003eTable of n, a(n) for n = 1..10000\u003c/a\u003e"
			],
			"example": [
				"Let n=6, 2*n-1=11 which in binary 1011. Number with double 1's is 1101111 which in decimal 111. Thus a(6)=111/3=37."
			],
			"mathematica": [
				"Map[#/3^IntegerExponent[#,3]\u0026[FromDigits[Flatten[IntegerDigits[2#-1,2]/.{1-\u003e{1,1}}],2]]\u0026,Range[100]] (* _Peter J. C. Moses_, Mar 31 2013 *)"
			],
			"keyword": "nonn,base",
			"offset": "1,2",
			"author": "_Vladimir Shevelev_, Mar 31 2013",
			"references": 1,
			"revision": 16,
			"time": "2013-04-04T14:35:47-04:00",
			"created": "2013-04-04T14:29:17-04:00"
		}
	]
}