{
	"greeting": "Greetings from The On-Line Encyclopedia of Integer Sequences! http://oeis.org/",
	"query": "id:A224357",
	"count": 1,
	"start": 0,
	"results": [
		{
			"number": 224357,
			"data": "729,46656,349280,1351748,4231138,12340932,34697869,94262290,246254814,616242552,1475123504,3379586703,7423803582,15672970622,31884279651,62668814332,119312143790,220555944774,396752366132,695942226325",
			"name": "Number of 6Xn 0..2 arrays with diagonals and antidiagonals unimodal and rows nondecreasing",
			"comment": [
				"Row 6 of A224353"
			],
			"link": [
				"R. H. Hardin, \u003ca href=\"/A224357/b224357.txt\"\u003eTable of n, a(n) for n = 1..210\u003c/a\u003e"
			],
			"formula": [
				"Empirical: a(n) = (761/8553600)*n^12 + (1733/3326400)*n^11 + (1459/108864)*n^10 + (4187/40320)*n^9 + (1551227/1814400)*n^8 + (72841/12600)*n^7 + (1802801/19440)*n^6 - (66259339/120960)*n^5 + (9020552353/1360800)*n^4 - (817656577/50400)*n^3 + (5508355001/83160)*n^2 - (57456263/1540)*n - 269256 for n\u003e7"
			],
			"example": [
				"Some solutions for n=3",
				"..0..0..0....0..0..0....0..0..0....0..0..0....0..0..2....0..0..2....0..0..1",
				"..2..2..2....1..2..2....0..1..2....0..0..0....0..0..2....1..1..1....0..1..2",
				"..0..1..2....0..1..1....1..1..2....0..0..1....0..2..2....0..1..1....0..2..2",
				"..0..0..1....1..2..2....0..1..1....0..2..2....0..0..2....1..1..1....1..2..2",
				"..0..0..1....2..2..2....1..1..1....0..2..2....0..1..2....1..1..2....0..2..2",
				"..0..0..1....1..2..2....0..2..2....2..2..2....0..0..0....0..1..2....1..1..1"
			],
			"keyword": "nonn",
			"offset": "1,1",
			"author": "_R. H. Hardin_ Apr 04 2013",
			"references": 1,
			"revision": 4,
			"time": "2013-04-04T10:34:16-04:00",
			"created": "2013-04-04T10:34:16-04:00"
		}
	]
}