{
	"greeting": "Greetings from The On-Line Encyclopedia of Integer Sequences! http://oeis.org/",
	"query": "id:A225125",
	"count": 1,
	"start": 0,
	"results": [
		{
			"number": 225125,
			"data": "1,6,9,2,9,9,2,4,6,8,4,1,3,6,0,1,2,4,4,6,7,8,0,1,3,8,3,4,8,9,8,1,0,8,7,0,8,0,7,8,6,9,8,6,7,1,5,6,8,0,7,2,3,4,9,5,6,8,8,0,1,5,7,7,8,9,4,7,6,4,3,7,2,1,3,1,9,8,7,9,8,7,2,7,9,1,8,7,3,6,3,9,6,3,5,4,4,9,4,2",
			"name": "Decimal expansion of Integral_{x=0..Pi/2} x^3*cosec(x) dx.",
			"comment": [
				"The simpler Integral_{x=0..Pi/2} x*cosec(x) dx evaluates as 2*Catalan."
			],
			"link": [
				"G. C. Greubel, \u003ca href=\"/A225125/b225125.txt\"\u003eTable of n, a(n) for n = 1..10000\u003c/a\u003e",
				"StackExchange, \u003ca href=\"http://math.stackexchange.com/questions/302087/a-integral-with-polygamma\"\u003eAn integral with PolyGamma.\u003c/a\u003e"
			],
			"formula": [
				"Equals 3*Catalan*Pi^2/2-1/128*(polygamma(3, 1/4)-polygamma(3, 3/4))."
			],
			"example": [
				"1.6929924684136012446780138348981087080786986715680723495688..."
			],
			"mathematica": [
				"3*Catalan*Pi^2/2-1/128*(PolyGamma[3, 1/4]-PolyGamma[3, 3/4]); (* or *)",
				"3*Catalan*Pi^2/2-3/64*(Zeta[4, 1/4]-Zeta[4, 3/4]) // RealDigits[#, 10, 100] \u0026 // First"
			],
			"program": [
				"(PARI) 3*Catalan*Pi^2/2-3/64*(zetahurwitz(4,1/4)-zetahurwitz(4,3/4)) \\\\ _Charles R Greathouse IV_, Jan 31 2018"
			],
			"xref": [
				"Cf. A006752, A221209."
			],
			"keyword": "nonn,cons,easy",
			"offset": "1,2",
			"author": "_Jean-François Alcover_, Apr 30 2013",
			"references": 3,
			"revision": 31,
			"time": "2018-08-24T21:09:05-04:00",
			"created": "2013-04-30T12:42:07-04:00"
		}
	]
}