{
	"greeting": "Greetings from The On-Line Encyclopedia of Integer Sequences! http://oeis.org/",
	"query": "id:A225573",
	"count": 1,
	"start": 0,
	"results": [
		{
			"number": 225573,
			"data": "0,2,12,90,864,10290,147456,2480058,48000000,1052307234,25798901760,699896958618,20826335158272,674680957031250,23643898043695104,891412022961534330,35982083287879778304,1548474957047229426498,70778880000000000000000",
			"name": "Number of trees over all forests of labeled rooted trees in which some (possibly all or none) of the trees have been specially designated.",
			"comment": [
				"The expected number of trees in each such forest a(n)/A089140(offset) approaches 3 as n gets large."
			],
			"formula": [
				"a(n) = Sum_{k=0..n} binomial(n-1,k-1)*n^(n-k)*2^k*k = 6*n*(n+2)^(n-2)."
			],
			"mathematica": [
				"nn = 18; tx = Sum[n^(n - 1) x^n/n!, {n, 1, nn}]; Range[0, nn]! CoefficientList[Series[D[Exp[y tx]^2, y] /. y -\u003e 1, {x, 0, nn}], x]"
			],
			"xref": [
				"Cf. A225497."
			],
			"keyword": "nonn",
			"offset": "0,2",
			"author": "_Geoffrey Critzer_, May 10 2013",
			"references": 0,
			"revision": 9,
			"time": "2013-05-13T17:12:51-04:00",
			"created": "2013-05-13T00:38:45-04:00"
		}
	]
}