{
	"greeting": "Greetings from The On-Line Encyclopedia of Integer Sequences! http://oeis.org/",
	"query": "id:A225964",
	"count": 1,
	"start": 0,
	"results": [
		{
			"number": 225964,
			"data": "1,9,63,419,2868,20932,165662,1432746,13578086,140951642,1598792812,19739303596,264041415799,3807692229035,58907522237037,973166134330293,17094936849558000,318092941562300736,6248389843759774380,129180041710223480596,2803277432655658573548",
			"name": "Number of permutations of [n] having exactly 3 strong fixed blocks.",
			"comment": [
				"See A186373 for the definition of strong fixed blocks."
			],
			"link": [
				"Alois P. Heinz, \u003ca href=\"/A225964/b225964.txt\"\u003eTable of n, a(n) for n = 7..450\u003c/a\u003e"
			],
			"formula": [
				"a(n) ~ 2 * n! / n^5. - _Vaclav Kotesovec_, Aug 29 2014"
			],
			"xref": [
				"Column k=3 of A186373."
			],
			"keyword": "nonn",
			"offset": "7,2",
			"author": "_Alois P. Heinz_, May 22 2013",
			"references": 2,
			"revision": 9,
			"time": "2015-08-05T16:53:35-04:00",
			"created": "2013-05-22T19:48:55-04:00"
		}
	]
}