{
	"greeting": "Greetings from The On-Line Encyclopedia of Integer Sequences! http://oeis.org/",
	"query": "id:A225751",
	"count": 1,
	"start": 0,
	"results": [
		{
			"number": 225751,
			"data": "1,1,3,5,10,15,26,38,60,85,127,176,253,343,478,639,870,1145,1530,1990,2617,3367,4369,5568,7143,9024,11460,14369,18087,22517,28121,34787,43136,53048,65358,79944,97921,119173,145188,175883,213221,257177,310351,372820",
			"name": "Number of different figures obtained by a putting two Young diagrams of partitions lambda and mu, such that |lambda| + |mu| = n on top of each other.",
			"comment": [
				"See Mukhin reference item 4.3. 'A challenge', sum of p(k) for k = ceiling(n/2) to n with p(k) the partition numbers A000041. Remark that the indexing in the reference misses N_3 (should be N_3=5 and so on)."
			],
			"link": [
				"Alois P. Heinz, \u003ca href=\"/A225751/b225751.txt\"\u003eTable of n, a(n) for n = 0..1000\u003c/a\u003e",
				"Eugene Mukhin, \u003ca href=\"http://mathcircle.berkeley.edu/BMC3/SymPol.pdf\"\u003eSymmetric polynomials and partitions\u003c/a\u003e"
			],
			"formula": [
				"a(n) = Sum_{i=ceiling(n/2)..n} A000041(i).",
				"a(n) = A000070(n) - A000070(ceiling(n/2)-1). - _Alois P. Heinz_, Jul 31 2016"
			],
			"example": [
				"a(3) = 5 is illustrated by the following 5 different results:",
				"{2}   = {1}  \u0026  {2}",
				"{2}   = {2}  \u0026  {1}",
				"{3}   = { }  \u0026  {3}",
				"{1,1} = {1}  \u0026  {1,1}",
				"{1,1} = {1,1}\u0026  {1}",
				"{2,1} =  { } \u0026  {2,1}",
				"{1,1,1}= { } \u0026  {1,1,1}",
				"producing {2}, {3}, {1,1}, {2,1} and {1,1,1} as superpositions of two partitions with sum of lengths = 3."
			],
			"maple": [
				"with(combinat):",
				"a:= n-\u003e add(numbpart(i), i=ceil(n/2)..n):",
				"seq(a(n), n=0..50);  # _Alois P. Heinz_, May 15 2013"
			],
			"mathematica": [
				"Table[Sum[PartitionsP[k],{k,Ceiling[n/2],n}],{n,36}]"
			],
			"program": [
				"(PARI) a(n)=sum(k=ceil(n/2),n,numbpart(k)); \\\\ _Joerg Arndt_, May 15 2013"
			],
			"xref": [
				"Cf. A000041, A000070."
			],
			"keyword": "nonn",
			"offset": "0,3",
			"author": "_Wouter Meeussen_, May 14 2013",
			"references": 1,
			"revision": 15,
			"time": "2016-07-31T12:16:15-04:00",
			"created": "2013-05-15T07:37:21-04:00"
		}
	]
}