{
	"greeting": "Greetings from The On-Line Encyclopedia of Integer Sequences! http://oeis.org/",
	"query": "id:A225618",
	"count": 1,
	"start": 0,
	"results": [
		{
			"number": 225618,
			"data": "0,1,6,29,125,538,2282,9916,43416,195206,891638,4176002,19920914,97248184,483752596,2458123328,12722535412,67155870194,360792258750,1974047659038,10983669569446,62162472053580,357454683655920,2088497013864312,12387836332741800",
			"name": "Number of weak inversions in all standard Young tableaux of size n.",
			"comment": [
				"A weak inversion is a pair of cells (i,j) with i\u003cj where j appears weakly below and weakly left of i. [_Joerg Arndt_, Feb 18 2014]"
			],
			"link": [
				"Alois P. Heinz, \u003ca href=\"/A225618/b225618.txt\"\u003eTable of n, a(n) for n = 1..50\u003c/a\u003e",
				"M. Shynar, \u003ca href=\"http://www-igm.univ-mlv.fr/~fpsac/FPSAC04/ARTICLES/Shynar.pdf\"\u003eOn Inversions in Standard Young Tableaux\u003c/a\u003e",
				"Wikipedia, \u003ca href=\"http://en.wikipedia.org/wiki/Young_tableau\"\u003eYoung tableau\u003c/a\u003e"
			],
			"maple": [
				"b:= proc(l) option remember; `if`({l[]}={0}, [1, 0],",
				"      add(`if`(l[j]\u003e`if`(j=1, 0, l[j-1]), (f-\u003ef+[0, f[1]*",
				"      add(l[h]-l[j]+1, h=j+1..nops(l))])",
				"      (b(subsop(j=l[j]-1, l))), 0), j=1..nops(l)))",
				"    end:",
				"g:= proc(n, i, l) `if`(n=0 or i=1, b([1$n, l[]]),",
				"      `if`(i\u003c1, 0, g(n, i-1, l)+",
				"      `if`(i\u003en, 0, g(n-i, i, [i, l[]]))))",
				"    end:",
				"a:= n-\u003e g(n$2, [])[2]:",
				"seq(a(n), n=1..23);  # _Alois P. Heinz_, Aug 09 2013"
			],
			"mathematica": [
				"inversions[t_?TableauQ]:=Block[{t0},t0=(First[Position[t,#1]]\u0026) /@ Range[Max[t]]; Cases[Table[{i,j},{j,2,Max[t]},{i,j-1}],{i_,j_}/;MatchQ[t0[[i]]-t0[[j]],{_?Negative,_?Positive}]-\u003e{i,j},{2}]];",
				"Table[Tr[Length[weakinversions[#]]\u0026 /@ Tableaux[n]],{n,12}]"
			],
			"xref": [
				"Cf. A225617 (strict inversions), A161125 (descent numbers).",
				"Cf. A000085 (Young tableaux with n cells)."
			],
			"keyword": "nonn",
			"offset": "1,3",
			"author": "_Wouter Meeussen_, Aug 04 2013",
			"ext": [
				"Terms verified and more terms added, _Joerg Arndt_, Aug 07 2013",
				"a(19)-a(25) from _Alois P. Heinz_, Aug 08 2013"
			],
			"references": 2,
			"revision": 31,
			"time": "2014-02-18T12:00:07-05:00",
			"created": "2013-08-07T08:12:26-04:00"
		}
	]
}