{
	"greeting": "Greetings from The On-Line Encyclopedia of Integer Sequences! http://oeis.org/",
	"query": "id:A225931",
	"count": 1,
	"start": 0,
	"results": [
		{
			"number": 225931,
			"data": "95,273,539,1156,3566,5603,8751,18346,34364,75443,95656,146882,308254,426656,576345,762412,990326,1120595,1985636,2976016,3591434,5103526,6017672,8208724,12553402,14326796,17326739,20785106,26163886,29214704,39981062,44156775",
			"name": "Number of conjugacy classes in Chevalley group F_4(q) as q runs through the prime powers.",
			"link": [
				"Eric M. Schmidt, \u003ca href=\"/A225931/b225931.txt\"\u003eTable of n, a(n) for n = 1..1000\u003c/a\u003e",
				"Frank Luebeck, \u003ca href=\"http://www.math.rwth-aachen.de/~Frank.Luebeck/chev/nrclasses/nrclasses.html\"\u003eNumbers of Conjugacy Classes in Finite Groups of Lie Type\u003c/a\u003e."
			],
			"formula": [
				"Let q be the n-th prime power.",
				"a(n) = q^4 + 2q^3 + 6q^2 + 10q + 19 if q == 0 mod 2.",
				"a(n) = q^4 + 2q^3 + 7q^2 + 15q + 30 if q == 0 mod 3.",
				"a(n) = q^4 + 2q^3 + 7q^2 + 15q + 31 otherwise."
			],
			"program": [
				"(Sage) def A225931(q) : return q^4 + 2*q^3 + (6*q^2 + 10*q + 19 if q%2==0 else 7*q^2 + 15*q + 30 if q%3==0 else 7*q^2 + 15*q + 31)"
			],
			"xref": [
				"Cf. A188161, A224790, A225928 - A225938."
			],
			"keyword": "nonn",
			"offset": "1,1",
			"author": "_Eric M. Schmidt_, May 21 2013",
			"references": 1,
			"revision": 7,
			"time": "2013-05-22T20:32:14-04:00",
			"created": "2013-05-22T20:32:14-04:00"
		}
	]
}