{
	"greeting": "Greetings from The On-Line Encyclopedia of Integer Sequences! http://oeis.org/",
	"query": "id:A226140",
	"count": 1,
	"start": 0,
	"results": [
		{
			"number": 226140,
			"data": "0,1,2,7,13,48,95,424,898,4837,10780,68399,158111,1156224,2745145,22744380,55098660,510307001,1255610350,12859037607,32030878113,359498491968,904385401323,11040700820704,28000658588542",
			"name": "a(n) = Sum_{i=1..floor(n/2)} (n-i)^i.",
			"comment": [
				"a(n) is the sum of the larger parts raised to the corresponding smaller parts of the partitions of n into exactly two parts."
			],
			"link": [
				"Michael De Vlieger, \u003ca href=\"/A226140/b226140.txt\"\u003eTable of n, a(n) for n = 1..773\u003c/a\u003e",
				"\u003ca href=\"/index/Par#part\"\u003eIndex entries for sequences related to partitions\u003c/a\u003e"
			],
			"formula": [
				"a(n) = Sum_{i=1..floor(n/2)} (n-i)^i."
			],
			"example": [
				"a(6) = 48; 6 has exactly 3 partitions into two parts: (5,1),(4,2),(3,3). Raising the larger parts to their corresponding smaller parts and adding the results, we get: 5^1 + 4^2 + 3^3 = 5 + 16 + 27 = 48."
			],
			"maple": [
				"A226140:=n-\u003esum((n-i)^i, i=1..n/2): seq(A226140(n), n=1..40);"
			],
			"mathematica": [
				"Array[Sum[(# - i)^i, {i, Floor[#/2]}] \u0026, 25] (* _Michael De Vlieger_, Jan 23 2018 *)"
			],
			"program": [
				"(PARI) a(n) = sum(k=1, n\\2, (n-k)^k); \\\\ _Michel Marcus_, Dec 13 2015"
			],
			"xref": [
				"Cf. A226065."
			],
			"keyword": "nonn,easy",
			"offset": "1,3",
			"author": "_Wesley Ivan Hurt_, May 27 2013",
			"references": 3,
			"revision": 30,
			"time": "2019-06-19T05:17:44-04:00",
			"created": "2013-06-01T03:22:41-04:00"
		}
	]
}