{
	"greeting": "Greetings from The On-Line Encyclopedia of Integer Sequences! http://oeis.org/",
	"query": "id:A226149",
	"count": 1,
	"start": 0,
	"results": [
		{
			"number": 226149,
			"data": "2393,25913,47951,123191,131759,219953,330611,356387,450227,769117,826271,870479,1026143,1500613,1515347,1697797,1846861,1907141,2013541,2217107,2486873,2732383,3229189,3294191,3956101,4338871,4481677,4739297,5022067,5239511,5294591,5774387",
			"name": "Smallest of three consecutive primes whose average is a square.",
			"mathematica": [
				"Select[Partition[Prime[Range[400000]],3,1],IntegerQ[Sqrt[Mean[#]]]\u0026][[All,1]] (* _Harvey P. Dale_, Jan 10 2021 *)"
			],
			"program": [
				"(C)",
				"#include \u003cstdio.h\u003e",
				"#include \u003cstdlib.h\u003e",
				"#include \u003cmath.h\u003e",
				"#define TOP (1ULL\u003c\u003c30)",
				"int main() {",
				"  unsigned long long i, j, p1, p2, r, s;",
				"  unsigned char *c = (unsigned char *)malloc(TOP/8);",
				"  memset(c, 0, TOP/8);",
				"  for (i=3; i \u003c TOP; i+=2)",
				"    if ((c[i\u003e\u003e4] \u0026 (1\u003c\u003c((i\u003e\u003e1) \u0026 7)))==0 /*\u0026\u0026 i\u003c(1ULL\u003c\u003c32)*/)",
				"        for (j=i*i\u003e\u003e1; j\u003cTOP; j+=i)  c[j\u003e\u003e3] |= 1 \u003c\u003c (j\u00267);",
				"  for (p2=2, p1=3, i=5; i \u003c TOP; i+=2)",
				"    if ((c[i\u003e\u003e4] \u0026 (1\u003c\u003c((i\u003e\u003e1) \u0026 7)))==0) {",
				"      s = p2 + p1 + i;",
				"      if ((s%3)==0) {",
				"        s/=3;",
				"        r = sqrt(s);",
				"        if (r*r==s) printf(\"%llu, \", p2);",
				"      }",
				"      p2 = p1, p1 = i;",
				"    }",
				"  return 0;",
				"}"
			],
			"xref": [
				"Cf. A076304, A206279, A226145-A226150."
			],
			"keyword": "nonn",
			"offset": "1,1",
			"author": "_Alex Ratushnyak_, May 28 2013",
			"references": 3,
			"revision": 7,
			"time": "2021-01-10T16:07:52-05:00",
			"created": "2013-05-29T12:17:34-04:00"
		}
	]
}