{
	"greeting": "Greetings from The On-Line Encyclopedia of Integer Sequences! http://oeis.org/",
	"query": "id:A226142",
	"count": 1,
	"start": 0,
	"results": [
		{
			"number": 226142,
			"data": "1,1,2,3,3,4,4",
			"name": "The smallest positive integer k such that the symmetric group S_n is a product of k cyclic groups.",
			"comment": [
				"Since S_{n+1} is a product of a subgroup isomorphic to S_n and the cyclic group \u003c(1,2,3,...,n+1)\u003e we have a(n+1) \u003c= a(n) + 1. On the other hand it is not clear that a(n) \u003c= a(n+1) for all n. A lower bound is given by A226143(n) = ceiling(log(m)(n!)), m = A000793(n), a sequence that is not nondecreasing.",
				"This sequence was suggested by a posting of _L. Edson Jeffery_ on the seqfans mailing list on May 24, 2013.",
				"Cardinality of the smallest subset(s) X of S_n such that every permutation in S_n can be expressed as a product of some elements in X. - _Joerg Arndt_, Dec 13 2015"
			],
			"link": [
				"Miklós Abért, \u003ca href=\"http://dx.doi.org/10.1112/S0024609302001042\"\u003eSymmetric groups as products of Abelian subgroups\u003c/a\u003e, Bull. Lond. Math. Soc., Volume 34, Issue 04, July 2002, pp. 451-456."
			],
			"example": [
				"a(7) = 4 since a factorization of S_7 is given by C_1*C_2*C_3*C_4 where",
				"C_1 = \u003c(1,2,3,4)(5,6,7)\u003e,",
				"C_2 = \u003c(1,4,6)(2,3,5,7)\u003e,",
				"C_3 = \u003c(1,2,5,7)(3,4,6)\u003e,",
				"C_4 = \u003c(1,3,5,6,7)(2,4)\u003e,",
				"and a brute force computation shows that S_7 is not a product of 3 or fewer cyclic subgroups."
			],
			"xref": [
				"Cf. A051625, A225788."
			],
			"keyword": "nonn,hard,more,nice",
			"offset": "1,3",
			"author": "_W. Edwin Clark_, May 27 2013",
			"references": 1,
			"revision": 24,
			"time": "2015-12-13T07:18:02-05:00",
			"created": "2013-05-30T02:14:29-04:00"
		}
	]
}