{
	"greeting": "Greetings from The On-Line Encyclopedia of Integer Sequences! http://oeis.org/",
	"query": "id:A226633",
	"count": 1,
	"start": 0,
	"results": [
		{
			"number": 226633,
			"data": "1,19,65,115,2263,113,109,95,65,989,293,511,505,769,211,311,1085,7471,1291,241,211,3605,1273,3841,313,15415,6329,563,3457,3095,1775,1483,436099,665,2011,2021,1003,1261,24607,1199,665,4397,1153,6839,6073,919,1189",
			"name": "Smallest positive integer in the primitive cycle(s) under iteration by the 3x-k function, where k=A226630(n).",
			"comment": [
				"A cycle is called primitive if its elements are not a common multiple of the elements of another cycle.",
				"The 3x-k function T_k is defined by T_k(x) = x/2 if x is even, (3x-k)/2 if x is odd."
			],
			"link": [
				"Geoffrey H. Morley, \u003ca href=\"/A226633/b226633.txt\"\u003eTable of n, a(n) for n = 1..600\u003c/a\u003e"
			],
			"xref": [
				"Cf. A102280, A226634."
			],
			"keyword": "nonn",
			"offset": "1,2",
			"author": "_Geoffrey H. Morley_, Jun 14 2013",
			"references": 4,
			"revision": 7,
			"time": "2013-06-15T01:28:20-04:00",
			"created": "2013-06-15T01:28:20-04:00"
		}
	]
}