{
	"greeting": "Greetings from The On-Line Encyclopedia of Integer Sequences! http://oeis.org/",
	"query": "id:A226581",
	"count": 1,
	"start": 0,
	"results": [
		{
			"number": 226581,
			"data": "0,8,4,5,2,5,4,7,1,7,5,6,3,6,5,8,2,8,6,7,4,7,6,9,3,9,7,8,5,8,7,10,4,10,8,9,6,9,8,11,5,11,9,10,7,10,9,12,6,12,10,11,8,11,10,13,7,13,11,12,9,12,11,14,8,14,12,13,10,13,12,15,9,15,13,14,11",
			"name": "Smallest number of integer-sided squares needed to tile an 8 X n rectangle.",
			"link": [
				"Alois P. Heinz, \u003ca href=\"/A226581/b226581.txt\"\u003eTable of n, a(n) for n = 0..1000\u003c/a\u003e",
				"\u003ca href=\"/index/Rec#order_09\"\u003eIndex entries for linear recurrences with constant coefficients\u003c/a\u003e, signature (1,0,0,0,0,0,0,1,-1)"
			],
			"formula": [
				"G.f.: x*(2*x^9-2*x^8-6*x^7+3*x^6-x^5+3*x^4-3*x^3+x^2-4*x+8) / (x^9-x^8-x+1).",
				"a(n) = 1 + a(n-8) for n\u003e9."
			],
			"example": [
				"a(17) = 8:",
				"._._._._._._._._._._._._._._._._._.",
				"|               |       |         |",
				"|               |       |         |",
				"|               |       |         |",
				"|               |_______|         |",
				"|               |       |_________|",
				"|               |       |     |   |",
				"|               |       |     |___|",
				"|_______________|_______|_____|_|_|"
			],
			"maple": [
				"a:= n-\u003e `if`(n=1, 8, iquo(n, 8, 'r') +[0, 6, 4, 5, 2, 5, 4, 7][r+1]):",
				"seq(a(n), n=0..100);"
			],
			"mathematica": [
				"LinearRecurrence[{1,0,0,0,0,0,0,1,-1},{0,8,4,5,2,5,4,7,1,7,5},80] (* _Harvey P. Dale_, Sep 07 2016 *)"
			],
			"xref": [
				"Row m=8 of A113881, A219158."
			],
			"keyword": "nonn,easy",
			"offset": "0,2",
			"author": "_Alois P. Heinz_, Jun 12 2013",
			"references": 3,
			"revision": 19,
			"time": "2021-09-05T22:02:26-04:00",
			"created": "2013-06-12T13:02:30-04:00"
		}
	]
}