{
	"greeting": "Greetings from The On-Line Encyclopedia of Integer Sequences! http://oeis.org/",
	"query": "id:A226582",
	"count": 1,
	"start": 0,
	"results": [
		{
			"number": 226582,
			"data": "0,9,6,3,6,6,3,6,7,1,6,7,4,7,7,4,7,8,2,7,8,5,8,8,5,8,9,3,8,9,6,9,9,6,9,10,4,9,10,7,10,10,7,10,11,5,10,11,8,11,11,8,11,12,6,11,12,9,12,12,9,12,13,7,12,13,10,13,13,10,13,14,8,13,14,11,14",
			"name": "Smallest number of integer-sided squares needed to tile a 9 X n rectangle.",
			"link": [
				"Alois P. Heinz, \u003ca href=\"/A226582/b226582.txt\"\u003eTable of n, a(n) for n = 0..1000\u003c/a\u003e",
				"\u003ca href=\"/index/Rec#order_10\"\u003eIndex entries for linear recurrences with constant coefficients\u003c/a\u003e, signature (1,0,0,0,0,0,0,0,1,-1)"
			],
			"formula": [
				"G.f.: x*(4*x^10-4*x^9-6*x^8+x^7+3*x^6-3*x^5+3*x^3-3*x^2-3*x+9) / (x^10-x^9-x+1).",
				"a(n) = 1 + a(n-9) for n\u003e10."
			],
			"example": [
				"a(19) = 7:",
				"._._._._._._._._._._._._._._._._._._._.",
				"|                 |         |         |",
				"|                 |         |         |",
				"|                 |         |         |",
				"|                 |         |         |",
				"|                 |_________|_________|",
				"|                 |       |       |   |",
				"|                 |       |       |___|",
				"|                 |       |       |   |",
				"|_________________|_______|_______|___|"
			],
			"maple": [
				"a:= n-\u003e `if`(n=1, 9, iquo(n, 9, 'r')+[0, 5, 6, 3, 6, 6, 3, 6, 7][r+1]):",
				"seq(a(n), n=0..100);"
			],
			"xref": [
				"Row m=9 of A113881, A219158."
			],
			"keyword": "nonn,easy",
			"offset": "0,2",
			"author": "_Alois P. Heinz_, Jun 12 2013",
			"references": 3,
			"revision": 15,
			"time": "2021-09-05T22:02:35-04:00",
			"created": "2013-06-12T15:15:22-04:00"
		}
	]
}