{
	"greeting": "Greetings from The On-Line Encyclopedia of Integer Sequences! http://oeis.org/",
	"query": "id:A226307",
	"count": 1,
	"start": 0,
	"results": [
		{
			"number": 226307,
			"data": "1,37,6229,1454473,393638933,115921649662,36059466046681,11656478429182365,3876878952705468437,1318042625299425997138,455984891164728575299354,160005530292143438293125981,56811170133331347049469683481,20372514849857567410065222675568,7367851599324133697992581931476613",
			"name": "a(n) = Sum_{k \u003e= 0} binomial(6*n,k)*binomial(3*n,k)*binomial(2*n,k).",
			"link": [
				"Mark C. Wilson, \u003ca href=\"http://www.cs.auckland.ac.nz/~mcw/Research/Outputs/Wils2013.pdf\"\u003eDiagonal asymptotics for products of combinatorial classes\u003c/a\u003e, 2013."
			],
			"mathematica": [
				"Table[Sum[Binomial[6n,k]Binomial[3n,k]Binomial[2n,k],{k,0,n}],{n,0,20}] (* _Harvey P. Dale_, May 29 2014 *)"
			],
			"keyword": "nonn",
			"offset": "0,2",
			"author": "_N. J. A. Sloane_, Jun 07 2013",
			"references": 0,
			"revision": 9,
			"time": "2020-10-12T03:10:30-04:00",
			"created": "2013-06-07T14:23:21-04:00"
		}
	]
}