{
	"greeting": "Greetings from The On-Line Encyclopedia of Integer Sequences! http://oeis.org/",
	"query": "id:A226764",
	"count": 1,
	"start": 0,
	"results": [
		{
			"number": 226764,
			"data": "1,1,1,1,1,1,1,2,2,2,2,2,2,2,2,2,2,2,3,3,3,3,3,3,3,3,3,3,3,3,3,3,4,4,4,4,4,4,4,4,4,4,4,4,4,4,4,4,4,4,5,5,5,5,5,5,5,5,5,5,5,5,5,5,5,5,5,5,5,5,5,6,6,6,6,6,6,6,6,6,6,6,6,6,6,6",
			"name": "Least k such that 1 + 1/2 + ... + 1/k \u003c 1/(k+1) + ... + 1/n.",
			"comment": [
				"For k = 1..20, the runlength of k's is given by 7, 11, 14, 18, 21, 25, 29, 32, 36, 39, 42, 47, 50, 53, 57, 61, 64, 67, 72, 74."
			],
			"link": [
				"Clark Kimberling, \u003ca href=\"/A226764/b226764.txt\"\u003eTable of n, a(n) for n = 4..1000\u003c/a\u003e"
			],
			"formula": [
				"a(n) = Sum_{k\u003e=1} sign(1 - sign(2*H_k - H_n)). - _Mats Granvik_, Apr 06 2021"
			],
			"example": [
				"1/3 + 1/4 + ... + 1/10 \u003c 1 + 1/2 \u003c 1/3 + 1/4 + ... + 1/11, so that a(11) = 2."
			],
			"mathematica": [
				"(* first program *)",
				"h[n_] := HarmonicNumber[n]; f[n_, k_] := f[n, k] = If[2 h[k] \u003c= h[n] \u0026\u0026 2 h[k + 1] \u003e h[n], 1, 0]; t[n_] := t[n] = Table[f[n, k], {k, 1, n}]; a[n_] := First[Position[t[n], 1]]; u = Flatten[Table[a[n], {n, 4, 500}]]",
				"(* second program, with plot *)",
				"a[1] = 0; a[n_] := a[n] = NestWhile[# + 1 \u0026, a[n - 1] + 1, Sum[1/k, {k, 1, #}] \u003c Sum[1/k, {k, # + 1, n}] \u0026] - 1; A226764 = Map[a, Range[4, 500]]; ListLogLogPlot[A226764]  (* _Peter J. C. Moses_, Jun 20 2013 *)"
			],
			"xref": [
				"Cf. A226762."
			],
			"keyword": "nonn",
			"offset": "4,8",
			"author": "_Clark Kimberling_, Jun 19 2013",
			"references": 1,
			"revision": 20,
			"time": "2021-04-10T22:43:08-04:00",
			"created": "2013-06-20T06:11:55-04:00"
		}
	]
}