{
	"greeting": "Greetings from The On-Line Encyclopedia of Integer Sequences! http://oeis.org/",
	"query": "id:A226448",
	"count": 1,
	"start": 0,
	"results": [
		{
			"number": 226448,
			"data": "260054438,597892523,1200695738,3287998643,3423456563,10524308498,13292859563,15646705718,19441707170,33309521438,38848586123,43312628678,61899936935,72422400713,75439031063,85338414662,112419230963,132624705038,136084511063,141236121758",
			"name": "Composite squarefree numbers k such that the ratios (k - 1/2)/(p - 1/2) are integers for each prime p dividing k.",
			"comment": [
				"Also composite squarefree numbers k such that (2p - 1) | (2k - 1)."
			],
			"link": [
				"Giovanni Resta, \u003ca href=\"/A226448/b226448.txt\"\u003eTable of n, a(n) for n = 1..45\u003c/a\u003e (terms \u003c 10^12)"
			],
			"example": [
				"3287998643 is a term since it is equal to 743*787*5623 and 3287998643-1/2 divided by 743-1/2, 787-1/2 and 5623-1/2 gives 3 integers, namely 4428281, 4180545 and 584793."
			],
			"maple": [
				"with(numtheory); ListA226448:=proc(i, j) local c, d, n, ok, p;",
				"for n from 2 to i do if not isprime(n) then p:=ifactors(n)[2]; ok:=1;",
				"for d from 1 to nops(p) do if p[d][2]\u003e1 or not type((n-j)/(p[d][1]-j), integer) then ok:=0; break; fi; od;",
				"if ok=1 then print(n); fi; fi; od; end: ListA226448(10^9, 1/2); # _Paolo P. Lava_, Oct 06 2013"
			],
			"program": [
				"(PARI) is(n, P)=n=2*n-1; for(i=1, #P, if(n%(2*P[i]-1), return(0))); 1",
				"list(lim, P=[], n=1, mx=lim\\2)=my(v=[], t); if(#P\u003e1\u0026\u0026is(n, P), v=[n]); P=concat(P, 0); forprime(p=2, min(lim, mx), P[#P]=p; t=list(lim\\p, P, n*p, p-1); if(#t, v=concat(v, t))); v \\\\ _Charles R Greathouse IV_, Jun 07 2013"
			],
			"xref": [
				"Cf. A208728, A225702-A225720, A226020, A226111-A226114, A226364."
			],
			"keyword": "nonn",
			"offset": "1,1",
			"author": "_Paolo P. Lava_ and _Giovanni Resta_, Jun 07 2013",
			"references": 6,
			"revision": 26,
			"time": "2021-07-16T20:01:51-04:00",
			"created": "2013-06-07T11:26:52-04:00"
		}
	]
}