{
	"greeting": "Greetings from The On-Line Encyclopedia of Integer Sequences! http://oeis.org/",
	"query": "id:A226058",
	"count": 1,
	"start": 0,
	"results": [
		{
			"number": 226058,
			"data": "1,2,12,163,57800,6910401969,69047272940549306735,9431570193753590001558014495854550084583",
			"name": "Denominators of signed Egyptian fractions with sums converging to the Euler-Mascheroni constant.",
			"comment": [
				"Using the algorithm defined at A226049 with r = Euler-Mascheroni constant (0.577216...) and f(n) gives r = 1 - 1/2 + 1/12 - 1/163 + 1/57800 + ..., of which the 12th partial sum differs from the r by less than 10^(-1900).  For a guide to related sequences, see A226049."
			],
			"link": [
				"Clark Kimberling, \u003ca href=\"/A226058/b226058.txt\"\u003eTable of n, a(n) for n = 1..11\u003c/a\u003e"
			],
			"example": [
				"Let r = Euler-Mascheroni constant.  Then",
				"r \u003c 1 , so a(1) = 1.",
				"1 - 1/2 \u003c r, so a(2) = 2.",
				"1 - 1/2 + 1/12 \u003e r, so a(3) = 12."
			],
			"mathematica": [
				"$MaxExtraPrecision = Infinity;",
				"nn = 12; f[n_] := 1/n; r = EulerGamma; s = 0; b[1] = NestWhile[# + 1 \u0026, 1, ! (s += f[#]) \u003e r \u0026]; u[1] = Sum[f[n], {n, 1, b[1]}]; c[1] = Floor[1/(u[1] - r)]; v[1] = u[1] - 1/c[1]; n = 1; While[n \u003c nn/2, n++; b[n] = Floor[1/(r - v[n - 1])]; u[n] = v[n - 1] + 1/b[n]; c[n] = Floor[1/(u[n] - r)]; v[n] = u[n] - 1/c[n]]; a = Riffle[Table[b[i], {i, 1, nn/2}], Table[c[i], {i, 1, nn/2}]]"
			],
			"xref": [
				"Cf. A226049."
			],
			"keyword": "nonn",
			"offset": "1,2",
			"author": "_Clark Kimberling_, May 24 2013",
			"references": 2,
			"revision": 8,
			"time": "2018-02-23T22:02:53-05:00",
			"created": "2013-05-26T14:57:51-04:00"
		}
	]
}