{
	"greeting": "Greetings from The On-Line Encyclopedia of Integer Sequences! http://oeis.org/",
	"query": "id:A226208",
	"count": 1,
	"start": 0,
	"results": [
		{
			"number": 226208,
			"data": "1,1,2,3,2,4,5,2,4,6,2,7,2,4,6,2,8,2,4,9,2,4,6,2,8,2,4,10,2,4,6,2,11,2,4,6,2,8,2,4,10,2,4,6,2,12,2,4,6,2,8,2,4,13,2,4,6,2,8,2,4,10,2,4,6,2,12,2,4,6,2,8,2,4,14,2,4,6,2,8,2,4,10",
			"name": "Zeckendorf distance between n and n+1.",
			"comment": [
				"Zeckendorf distance is defined at A226207."
			],
			"link": [
				"Clark Kimberling, \u003ca href=\"/A226208/b226208.txt\"\u003eTable of n, a(n) for n = 1..1000\u003c/a\u003e"
			],
			"example": [
				"7 = 5 + 2 -\u003e 3 + 1 -\u003e 2, and 8 -\u003e 5 -\u003e 3 -\u003e 2.  The total number of Zeckendorf downshifts (i.e., arrows) is 5, so that a(7) = D(7,8) = 5."
			],
			"mathematica": [
				"zeck[n_Integer] := Block[{k = Ceiling[Log[GoldenRatio, n*Sqrt[5]]], t = n, z = {}},    While[k \u003e 1, If[t \u003e= Fibonacci[k], AppendTo[z, 1]; t = t - Fibonacci[k], AppendTo[z, 0]]; k--]; If[n \u003e 0 \u0026\u0026 z[[1]] == 0, Rest[z], z]]; d[n1_, n2_] := Module[{z1 = zeck[n1], z2 = zeck[n2]}, Length[z1] + Length[z2] - 2 (NestWhile[# + 1 \u0026, 1, z1[[#]] == z2[[#]] \u0026, 1, Min[{Length[z1], Length[z2]}]] - 1)]; lst = Map[d[#, # + 1] \u0026, Range[100]] (* _Peter J. C. Moses_, May 30 2013 *)"
			],
			"xref": [
				"Cf. A226080."
			],
			"keyword": "nonn,easy",
			"offset": "1,3",
			"author": "_Clark Kimberling_, May 31 2013",
			"references": 3,
			"revision": 7,
			"time": "2016-12-04T19:46:31-05:00",
			"created": "2013-06-04T03:29:36-04:00"
		}
	]
}