{
	"greeting": "Greetings from The On-Line Encyclopedia of Integer Sequences! http://oeis.org/",
	"query": "id:A226118",
	"count": 1,
	"start": 0,
	"results": [
		{
			"number": 226118,
			"data": "1,2,136,160,170,204,240,282,716,745,1002,1077,1465,1509,1578,1868,2012,2157,2346,2720,2760,3608,3898,4101,4461,4512,5066,5322,5898,6189,7080,7185,7341,7628,7660,8108,8517,8665,8698,8709,8805,8922,8940,9234,9745,9962",
			"name": "Numbers n such that sigma(tau(phi(n))) = phi(tau(sigma(n))).",
			"link": [
				"Paolo P. Lava, \u003ca href=\"/A226118/b226118.txt\"\u003eTable of n, a(n) for n = 1..1000\u003c/a\u003e"
			],
			"example": [
				"For n=9962 we have:",
				"sigma(9962)=15876 -\u003e tau(15876)=45 -\u003e phi(45)=24.",
				"phi(9962)=4672 -\u003e tau(4672)=14 -\u003e sigma(14)=24."
			],
			"maple": [
				"with(numtheory); A226118:=proc(q) local n;",
				"for n from 1 to q do",
				"if sigma(tau(phi(n)))=phi(tau(sigma(n))) then print(n);",
				"fi; od; end: A226118(10^6);"
			],
			"mathematica": [
				"Select[Range[10000],EulerPhi[DivisorSigma[0,DivisorSigma[1,#]]] == DivisorSigma[ 1, DivisorSigma[ 0, EulerPhi[#]]]\u0026] (* _Harvey P. Dale_, May 26 2016 *)"
			],
			"xref": [
				"Cf. A000005, A000010, A000203, A033632, A067160, A076361, A226117, A226119."
			],
			"keyword": "nonn",
			"offset": "1,2",
			"author": "_Paolo P. Lava_, May 27 2013",
			"references": 3,
			"revision": 10,
			"time": "2016-05-26T12:19:42-04:00",
			"created": "2013-05-28T13:21:44-04:00"
		}
	]
}