{
	"greeting": "Greetings from The On-Line Encyclopedia of Integer Sequences! http://oeis.org/",
	"query": "id:A226851",
	"count": 1,
	"start": 0,
	"results": [
		{
			"number": 226851,
			"data": "957,435829,67929575,9461306257,1426163794260,221491127478033,34196613228139182,5251691844285685771,806309158874436920955,123879593437831099515396",
			"name": "Number of n X 7 (0,1,2) arrays of permanents of 2 X 2 subblocks of some (n+1) X 8 binary array.",
			"comment": [
				"Column 7 of A226852."
			],
			"example": [
				"Some solutions for n=3",
				"..0..0..0..0..1..1..0....0..0..0..0..2..2..2....0..0..0..1..1..1..0",
				"..0..0..0..1..0..0..1....0..0..0..1..2..2..2....0..0..0..2..2..2..1",
				"..0..0..1..1..0..0..2....0..0..0..1..0..0..0....0..0..0..0..0..0..1"
			],
			"xref": [
				"Cf. A226852."
			],
			"keyword": "nonn",
			"offset": "1,1",
			"author": "_R. H. Hardin_ Jun 19 2013",
			"references": 0,
			"revision": 5,
			"time": "2020-04-20T20:38:19-04:00",
			"created": "2013-06-19T06:18:21-04:00"
		}
	]
}