{
	"greeting": "Greetings from The On-Line Encyclopedia of Integer Sequences! http://oeis.org/",
	"query": "id:A226699",
	"count": 1,
	"start": 0,
	"results": [
		{
			"number": 226699,
			"data": "2,1523,2319527,3532638098,5380205503727,8194049449538123,12479531931441057602,19006318937535281189723,28946611262334301810890527,44085669946216204122705082898,67142446381476016544578030363127",
			"name": "Solutions x of the Pell equation x^2 - 61*y^2 = +4.",
			"comment": [
				"x = a(n) and y' = b(n) := A226700(n) are the improper and proper nonnegative solutions x^2 - 61*(3*5*13*y')^2 = +4."
			],
			"reference": [
				"T. Nagell, Introduction to Number Theory, Chelsea Publishing Company, New York, 1964, ch. Vi, 58., p. 204-212."
			],
			"link": [
				"\u003ca href=\"/index/Ch#Cheby\"\u003eIndex entries for sequences related to Chebyshev polynomials.\u003c/a\u003e",
				"\u003ca href=\"/index/Rec#order_02\"\u003eIndex entries for linear recurrences with constant coefficients\u003c/a\u003e, signature (1523,-1)."
			],
			"formula": [
				"a(n) = 2*S(n,1523) - 1523*S(n-1,1523), n \u003e= 0, with the Chebyshev S-polynomials (A049310).",
				"O.g.f.: (2- 1523*x)/(1- 1523*x + x^2).",
				"a(n) = 1523*a(n-1) - a(n-2), n \u003e= 1,  a(-1) = 1523, a(0) = 2."
			],
			"example": [
				"n=0: 2^2 - 0 = +4 (improper),",
				"n=1: 1523^2 - 61*(3*5*13*1)^2 = +4,",
				"n=2: 2319527^2 - 61*(3*5*13*1523)^2 = +4."
			],
			"xref": [
				"A226700."
			],
			"keyword": "nonn,easy",
			"offset": "0,1",
			"author": "_Wolfdieter Lang_, Jun 27 2013",
			"references": 1,
			"revision": 17,
			"time": "2015-08-11T09:16:29-04:00",
			"created": "2013-06-28T12:35:39-04:00"
		}
	]
}