{
	"greeting": "Greetings from The On-Line Encyclopedia of Integer Sequences! http://oeis.org/",
	"query": "id:A226182",
	"count": 1,
	"start": 0,
	"results": [
		{
			"number": 226182,
			"data": "2,2,2,3,2,2,4,2,2,3,2,3,2,2,4,3,2,2,3,5,2,3,2,3,2,2,4,3,2,5,4,3,2,3,2,3,2,2,4,3,2,2,2,7,2,3,2,2,2,5,4,3,2,4,4,2,2,3,2,5,6,3,4,3,2,4,8,2,2,5,4,7,2,2,4,3,2,2,4,5,2,3,2,2,6,7,4",
			"name": "a(n) is the smallest integer k \u003e= 2 such that the number of divisors d\u003e1 of n + k with k|n + d equals A225867(n).",
			"link": [
				"Peter J. C. Moses, \u003ca href=\"/A226182/b226182.txt\"\u003eTable of n, a(n) for n = 6..3005\u003c/a\u003e"
			],
			"example": [
				"Let n = 33. We begin with k = 2. Divisors\u003e1 of 33 + 2 = 35 are d = 5,7,35. For all d, 33 + d is divisible by k = 2. But the number of such d is 3, while A225867(33)= 6. Therefore, a(33) \u003e 2. Consider now k = 3. Divisors\u003e1 of 33 + 3 = 36 are 2,3,4,6,9,12,18,36, but only for d = 3,6,9,12,18,36, 33 + d is divisible by k = 3. Since we have exactly A225867(33) = 6 such divisors, then k = 3 is required and a(33) = 3."
			],
			"maple": [
				"A226182 := proc(n)",
				"    local ak,k,nd,kpiv ;",
				"    ak := 0 ;",
				"    kpiv := 2 ;",
				"    for k from 2 to n/2-1 do",
				"        nd := 0 ;",
				"        for d in numtheory[divisors](n+k) minus {1} do",
				"            if modp(n+d,k) = 0 then",
				"                nd := nd+1;",
				"            end if;",
				"        end do:",
				"        if nd \u003e ak then",
				"            ak := max(ak,nd) ;",
				"            kpiv := k ;",
				"        end if;",
				"    end do:",
				"    kpiv ;",
				"end proc: # _R. J. Mathar_, Jul 04 2013"
			],
			"mathematica": [
				"Table[NestWhile[#+1\u0026, 2, Max[Map[Count[(n+Rest[Divisors[n+#]])/#, _Integer]\u0026, Range[2, Floor[(n-2)/2]]]]-Count[(n+Rest[Divisors[n+#]])/#, _Integer] =!= 0\u0026], {n,6,55}] (* _Peter J. C. Moses_, Jun 03 2013 *)"
			],
			"xref": [
				"Cf. A225867, A225868, A188550, A188794."
			],
			"keyword": "nonn",
			"offset": "6,1",
			"author": "_Vladimir Shevelev_, May 30 2013",
			"references": 2,
			"revision": 15,
			"time": "2013-07-04T15:01:55-04:00",
			"created": "2013-06-04T13:07:19-04:00"
		}
	]
}