{
	"greeting": "Greetings from The On-Line Encyclopedia of Integer Sequences! http://oeis.org/",
	"query": "id:A226704",
	"count": 1,
	"start": 0,
	"results": [
		{
			"number": 226704,
			"data": "2,7,6001,1975081,2421018649",
			"name": "Difference between the smallest 10^n-digit member of a twin prime pair and 10^(10^n - 1).",
			"link": [
				"G. L. Honaker, Jr. and Chris Caldwell, \u003ca href=\"http://primes.utm.edu/curios/cpage/18821.html\"\u003ePrime Curios! 10000...06001 (100-digits)\u003c/a\u003e",
				"Eric Weisstein's World of Mathematics, \u003ca href=\"http://mathworld.wolfram.com/TwinPrimes.html\"\u003eTwin Primes\u003c/a\u003e"
			],
			"mathematica": [
				"lst = {}; Do[s = 10^(10^n - 1); n = NextPrime[s]; While[! PrimeQ[n + 2], n = NextPrime[n]]; AppendTo[lst, n - s], {n, 0, 2}]; lst"
			],
			"xref": [
				"Cf. A001359."
			],
			"keyword": "base,hard,more,nonn",
			"offset": "0,1",
			"author": "_Arkadiusz Wesolowski_, Jun 15 2013",
			"references": 0,
			"revision": 4,
			"time": "2013-06-15T14:42:23-04:00",
			"created": "2013-06-15T14:42:23-04:00"
		}
	]
}