{
	"greeting": "Greetings from The On-Line Encyclopedia of Integer Sequences! http://oeis.org/",
	"query": "id:A226469",
	"count": 1,
	"start": 0,
	"results": [
		{
			"number": 226469,
			"data": "3,2,3,8,0,5,1,1,8,9,4,5,9,5,7,4,2,9,8,2,3,6,0,0,9,8,0,9,8,7,9,7,7,2,9,0,6,0,4,5,1,0,3,3,6,0,4,8,2,5,3,8,5,5,4,1,4,2,0,3,5,9,9,4,7,0,9,8,5,0,0,7,6,9,2,5,8,3,8,0,5,2,5,7,9,5,2,2,5,8,5,8,4,1,9,7,4,6,6,1,3,8,4,3,2",
			"name": "Decimal expansion of the maximum value reached by the function -2*x*log(x)-2*x*(1-x) in the interval (0,1].",
			"comment": [
				"Equals 2(c-c^2) where c = A106533 (the rumor constant)."
			],
			"link": [
				"G. C. Greubel, \u003ca href=\"/A226469/b226469.txt\"\u003eTable of n, a(n) for n = 0..5000\u003c/a\u003e"
			],
			"example": [
				"0.3238051189459574298236009809879772906045103360482538554..."
			],
			"mathematica": [
				"EE = -1/2 ProductLog[-2/(E^2)]; RealDigits[N[2*(EE-EE^2),100]][[1]]"
			],
			"program": [
				"(PARI) {a = solve(x=0.1, x=0.5, 2*log(x) - 4*x + 4)}; -2*a*log(a)-2*a*(1-a) \\\\ _G. C. Greubel_, Nov 16 2017"
			],
			"xref": [
				"Cf. A106533."
			],
			"keyword": "nonn,cons",
			"offset": "0,1",
			"author": "_José María Grau Ribas_, Jun 08 2013",
			"ext": [
				"Offset corrected by _Rick L. Shepherd_, Jan 02 2014",
				"More terms from _Alois P. Heinz_, Jan 11 2014"
			],
			"references": 1,
			"revision": 21,
			"time": "2017-11-16T02:43:22-05:00",
			"created": "2013-06-08T14:24:40-04:00"
		}
	]
}