{
	"greeting": "Greetings from The On-Line Encyclopedia of Integer Sequences! http://oeis.org/",
	"query": "id:A227834",
	"count": 1,
	"start": 0,
	"results": [
		{
			"number": 227834,
			"data": "0,0,0,1,0,2,1,0,0,0,2,0,2,3,0,0,0,1,0,3,1,0,0,0,3,0,3,7,0,0,0,1,0,2,1,0,0,0,2,0,2,3,0,0,0,1,0,4,1,0,0,0,4,0,4,6,0,0,0,1,0,2,1,0,0,0,2,0,2,3,0,0,0,1,0,3,1,0,0,0,3,0,3,6,0,0,0,1,0,2,1,0,0,0,2,0,2,3,0,0,0,1,0,5,1,0,0,0,5,0,5,7,0",
			"name": "2^a(n) is the highest power of 2 dividing A000930(n).",
			"comment": [
				"This is the 2-adic valuation of A000930."
			],
			"link": [
				"G. C. Greubel, \u003ca href=\"/A227834/b227834.txt\"\u003eTable of n, a(n) for n = 0..5000\u003c/a\u003e"
			],
			"mathematica": [
				"A000930[n_] := Sum[Binomial[n - 2*i, i], {i, 0, Floor[n/3]}];",
				"Table[IntegerExponent[A000930[n], 2], {n, 0, 100}] (* _G. C. Greubel_, Apr 26 2017 *)"
			],
			"program": [
				"(MAGMA) A000930:=func\u003ci | \u0026+[Binomial(i-2*k,k): k in [0..i div 3]]\u003e; [Valuation(A000930(n),2): n in [0..120]]; // _Bruno Berselli_, Aug 05 2013"
			],
			"xref": [
				"Cf. A000930, A007814, A227835."
			],
			"keyword": "nonn",
			"offset": "0,6",
			"author": "_N. J. A. Sloane_, Aug 04 2013",
			"references": 2,
			"revision": 11,
			"time": "2017-04-27T10:34:31-04:00",
			"created": "2013-08-04T16:45:14-04:00"
		}
	]
}