{
	"greeting": "Greetings from The On-Line Encyclopedia of Integer Sequences! http://oeis.org/",
	"query": "id:A227588",
	"count": 1,
	"start": 0,
	"results": [
		{
			"number": 227588,
			"data": "1,1,1,1,2,1,1,3,2,1,1,4,4,2,1,1,5,7,5,2,1,1,6,12,12,6,2,1,1,7,18,24,16,7,2,1,1,8,26,46,42,23,8,2,1,1,9,35,83,101,73,29,9,2,1",
			"name": "Maximum label within a minimal labeling of k \u003e= 0 identical n-sided dice (n \u003e= 1) yielding the most possible sums; square array A(n,k), read by antidiagonals.",
			"link": [
				"The \u003ca href=\"http://domino.research.ibm.com/Comm/wwwr_ponder.nsf/Challenges/July2013.html\"\u003eIBM Ponder This July 2013\u003c/a\u003e challenge asks for A(8,3)."
			],
			"example": [
				"Three tetrahedra labeled (1, 2, 8, 12) yield the 20 possible sums 3, 4, 5, 6, 10, 11, 12, 14, 15, 16, 17, 18, 21, 22, 24, 25, 26, 28, 32, 36. No more sums can be obtained by different labelings, and no labeling with labels \u003c 12 yields 20 possible sums. Therefore A(4,3) = 12.",
				"Square array A(n,k) begins:",
				"1, 1,  1,  1,  1, 1, 1, 1, ...",
				"1, 2,  2,  2,  2, 2, 2, ...",
				"1, 3,  4,  5,  6, 7, ...",
				"1, 4,  7, 12, 16, ...",
				"1, 5, 12, 24, ...",
				"1, 6, 18, ...",
				"1, 7, ...",
				"1, ..."
			],
			"xref": [
				"Cf. A227589, A227590, A227358."
			],
			"keyword": "nonn,tabl,more",
			"offset": "1,5",
			"author": "_Jens Voß_, Jul 17 2013",
			"references": 4,
			"revision": 18,
			"time": "2013-09-13T21:00:37-04:00",
			"created": "2013-07-18T10:56:21-04:00"
		}
	]
}