{
	"greeting": "Greetings from The On-Line Encyclopedia of Integer Sequences! http://oeis.org/",
	"query": "id:A227403",
	"count": 1,
	"start": 0,
	"results": [
		{
			"number": 227403,
			"data": "1,2,14,1514,1308582,17304263902,1362702892177706,1323407909279927430346,11218363871234340925730020646,637467717878006909442727527733810142,519660435252919757259949810325837093364580014,2289503386759572781844843312201361014103189493095636611",
			"name": "a(n) = Sum_{k=0..n} binomial(n^2, n*k) * binomial(n*k, k^2).",
			"link": [
				"Seiichi Manyama, \u003ca href=\"/A227403/b227403.txt\"\u003eTable of n, a(n) for n = 0..46\u003c/a\u003e",
				"V. Kotesovec, \u003ca href=\"https://oeis.org/wiki/User:Vaclav_Kotesovec\"\u003eAsymptotic of sequence A227403\u003c/a\u003e, Sep 21 2013"
			],
			"formula": [
				"a(n) = Sum_{k=0..n} (n^2)! / ( (n^2-n*k)! * (n*k-k^2)! * (k^2)! ).",
				"Limit n-\u003einfinity a(n)^(1/n^2) = r^(-(1+r)^2/(2*r)) = 2.93544172048274..., where r = 0.6032326837741362... (see A237421) is the root of the equation (1-r)^(2*r) = r^(2*r+1). - _Vaclav Kotesovec_, Sep 21 2013"
			],
			"example": [
				"The following triangles illustrate the terms involved in the sum",
				"a(n) = Sum_{k=0..n} A209330(n,k) * A228832(n,k).",
				"Triangle A209330(n,k) = binomial(n^2, n*k) begins:",
				"1;",
				"1, 1;",
				"1, 6, 1;",
				"1, 84, 84, 1;",
				"1, 1820, 12870, 1820, 1;",
				"1, 53130, 3268760, 3268760, 53130, 1;",
				"1, 1947792, 1251677700, 9075135300, 1251677700, 1947792, 1;",
				"...",
				"Triangle A228832(n,k) = binomial(n*k, k^2) begins:",
				"1;",
				"1, 1;",
				"1, 2, 1;",
				"1, 3, 15, 1;",
				"1, 4, 70, 220, 1;",
				"1, 5, 210, 5005, 4845, 1;",
				"1, 6, 495, 48620, 735471, 142506, 1; ..."
			],
			"mathematica": [
				"Table[Sum[Binomial[n^2,n*k]*Binomial[n*k,k^2],{k,0,n}],{n,0,10}] (* _Vaclav Kotesovec_, Sep 21 2013 *)",
				"r^(-(1+r)^2/(2*r))/.FindRoot[(1-r)^(2*r) == r^(2*r+1), {r,1/2}, WorkingPrecision-\u003e50] (* program for numerical value of the limit n-\u003einfinity a(n)^(1/n^2), _Vaclav Kotesovec_, Sep 21 2013 *)"
			],
			"program": [
				"(PARI) {a(n)=sum(k=0, n, binomial(n^2, n*k)*binomial(n*k, k^2))}",
				"for(n=0,20,print1(a(n),\", \"))"
			],
			"xref": [
				"Cf. A209330, A228832, A206849, A206152, A237421."
			],
			"keyword": "nonn",
			"offset": "0,2",
			"author": "_Paul D. Hanna_, Sep 20 2013",
			"references": 6,
			"revision": 30,
			"time": "2019-02-20T09:49:48-05:00",
			"created": "2013-09-21T00:03:25-04:00"
		}
	]
}