{
	"greeting": "Greetings from The On-Line Encyclopedia of Integer Sequences! http://oeis.org/",
	"query": "id:A227004",
	"count": 1,
	"start": 0,
	"results": [
		{
			"number": 227004,
			"data": "1,1,1,1,1,0,0,1,1,3,4,2,2,0,0,0,0,1,1,3,13,20,17,6,10,5,0,1,0,0,0,0,0,0,1,1,6,37,138,280,300,255,218,98,43,55,28,20,11,1,0,2,0,0,0,0,0,0,0,0,1",
			"name": "Irregular triangle read by rows: T(n,k) is the number of inequivalent tilings by squares of an n X n square lattice that contain k nodes unconnected to any of their neighbors.",
			"comment": [
				"The n-th row contains (n-1)^2 + 1 elements.",
				"The irregular triangle is shown below.",
				"\\ k 0     1     2     3     4     5     6     7     8     9  ...",
				"n",
				"1   1",
				"2   1     1",
				"3   1     1     0     0     1",
				"4   1     3     4     2     2     0     0     0     0     1",
				"5   1     3    13    20    17     6    10     5     0     1  ...",
				"6   1     6    37   138   280   300   255   218    98    43  ...",
				"7   1     6    75   505  2160  5410  8508  9179  8805  7917  ..."
			],
			"link": [
				"Christopher Hunt Gribble, \u003ca href=\"/A227004/b227004.txt\"\u003eTable of n, a(n) for n = 1..98\u003c/a\u003e",
				"Christopher Hunt Gribble, \u003ca href=\"/A226978/a226978.txt\"\u003eC++ program for A226978, A226979, A226980, A226981, A227004\u003c/a\u003e"
			],
			"formula": [
				"Sum_{k=0..(n-1)^2} T(n,k) = A224239(n)."
			],
			"example": [
				"For n = 4, there are 3 inequivalent tilings that contain 1 isolated node, so T(4,1) = 3.",
				"A 2 X 2 square contains 1 isolated node.",
				"Consider that each tiling is composed of ones and zeros where a one represents a node with one or more links to its neighbors and a zero represents a node with no links to its neighbors.  Then the 3 tilings are:",
				"1 1 1 1 1    1 1 1 1 1    1 1 1 1 1",
				"1 0 1 1 1    1 1 0 1 1    1 1 1 1 1",
				"1 1 1 1 1    1 1 1 1 1    1 1 0 1 1",
				"1 1 1 1 1    1 1 1 1 1    1 1 1 1 1",
				"1 1 1 1 1    1 1 1 1 1    1 1 1 1 1"
			],
			"xref": [
				"Cf. A224239."
			],
			"keyword": "nonn,tabf",
			"offset": "1,10",
			"author": "_Christopher Hunt Gribble_, Jun 26 2013",
			"references": 6,
			"revision": 9,
			"time": "2013-07-04T03:52:53-04:00",
			"created": "2013-07-04T03:52:53-04:00"
		}
	]
}