{
	"greeting": "Greetings from The On-Line Encyclopedia of Integer Sequences! http://oeis.org/",
	"query": "id:A227453",
	"count": 1,
	"start": 0,
	"results": [
		{
			"number": 227453,
			"data": "8,13,20,24,29,33,40,44,48,53,57,61,68,72,76,80,85,89,93,97,104,108,112,116,120,125,129,133,137,141,148,152,156,160,164,168,173,177,181,185,189,193,200,204,208,212,216,220,224,229,233,237,241,245,249,253,260,264,268,272,276,280",
			"name": "Numbers k such that the distance to the largest square less than k is a multiple of 4.",
			"comment": [
				"A071797(a(n)) = 4*m, A053186(a(n)+1) = 4*m, m \u003e 0.",
				"Apparently a bisection of A079896. While it may not be difficult to prove that the sequence is a subsequence of A079896, the apparent fact that a(n) = A079896(2n-1) is by no means obvious."
			],
			"link": [
				"Harvey P. Dale, \u003ca href=\"/A227453/b227453.txt\"\u003eTable of n, a(n) for n = 1..1000\u003c/a\u003e"
			],
			"example": [
				"8 - 2^2 = 1*4 and 24 - 4^2 = 2*4 so 8 and 24 are in the sequence."
			],
			"mathematica": [
				"lsm4Q[n_]:=Module[{s=Floor[Sqrt[n]]^2},s\u003cn\u0026\u0026Divisible[n-s,4]]; Select[ Range[300],lsm4Q] (* _Harvey P. Dale_, Jun 20 2014 *)"
			],
			"program": [
				"(PARI) is(n)=(n-sqrtint(n-1)^2)%4==0"
			],
			"xref": [
				"Cf. A048760, A053186, A071797, A079896."
			],
			"keyword": "nonn",
			"offset": "1,1",
			"author": "_Ralf Stephan_, Sep 22 2013",
			"references": 2,
			"revision": 23,
			"time": "2021-05-10T04:37:30-04:00",
			"created": "2013-09-23T13:23:00-04:00"
		}
	]
}