{
	"greeting": "Greetings from The On-Line Encyclopedia of Integer Sequences! http://oeis.org/",
	"query": "id:A227636",
	"count": 1,
	"start": 0,
	"results": [
		{
			"number": 227636,
			"data": "1,5,39,667,25241,2139328,420651813,196026480660",
			"name": "Number of n X n 0,1 arrays indicating 2X2 subblocks of some larger (n+1)X(n+1) binary array having determinant equal to one, with rows and columns of the latter in nondecreasing lexicographic order",
			"comment": [
				"Diagonal of A227641"
			],
			"example": [
				"Some solutions for n=4",
				"..0..0..0..1....0..0..1..0....0..0..0..0....0..0..0..1....0..0..0..1",
				"..0..0..1..0....0..0..0..0....0..0..0..0....0..0..0..0....0..1..0..0",
				"..0..0..0..0....0..1..0..1....0..0..1..0....0..1..0..0....0..0..0..1",
				"..0..0..0..0....0..1..0..0....0..1..0..1....0..1..1..0....1..0..1..0"
			],
			"keyword": "nonn",
			"offset": "1,2",
			"author": "_R. H. Hardin_ Jul 18 2013",
			"references": 0,
			"revision": 5,
			"time": "2015-12-18T18:18:38-05:00",
			"created": "2013-07-18T21:35:59-04:00"
		}
	]
}