{
	"greeting": "Greetings from The On-Line Encyclopedia of Integer Sequences! http://oeis.org/",
	"query": "id:A227356",
	"count": 1,
	"start": 0,
	"results": [
		{
			"number": 227356,
			"data": "1,2,5,10,20,36,65,112,193,324,544,900,1489,2442,4005,6534,10660,17336,28193,45760,74273,120408,195200,316216,512257,829458,1343077,2174130,3519412,5696124,9219105,14919408,24144289",
			"name": "Partial sums of A129361.",
			"comment": [
				"Sum of labeled numbers of boxes arranged as Pyramid type-II with base Fibonacci(n).",
				"Let us call a Pyramid \"type-I\" when each row starts with the same number as the leftmost base number, and \"type-II\" when each column has the same number as the base.",
				"The Pyramid arrangements are related to other sequences as follows:",
				"   Base Number     Type-I     Type-II",
				"   -----------     ------     -------",
				"   Natural         A002623    A034828",
				"   Odd             A000292    A128624",
				"   Fibonacci       A129696    a(n)",
				"   1               A002620    A002620",
				"   1,0             A008805",
				"See illustration in links."
			],
			"link": [
				"Kival Ngaokrajang, \u003ca href=\"/A227356/a227356.jpg\"\u003eIllustration for some small n.\u003c/a\u003e",
				"\u003ca href=\"/index/Rec#order_07\"\u003eIndex entries for linear recurrences with constant coefficients\u003c/a\u003e, signature (2,1,-3,1,-1,0,1)."
			],
			"formula": [
				"For n \u003e=2, a(n) = a(n-1) + A129361(n-1).",
				"G.f. -x*(1+x)*(x^2-x+1) / ( (x-1)*(x^2+x-1)*(x^4+x^2-1) ). - _Joerg Arndt_, Jul 10 2013",
				"a(n) = 2 + A000045(n+4) - A096748(n+6). - _R. J. Mathar_, Jul 20 2013"
			],
			"program": [
				"(Small Basic)",
				"a[1] = 1",
				"k = 0",
				"s5 = Math.SquareRoot(5)",
				"For n = 2 To 51",
				"  If Math.Remainder(n,2)=0 Then",
				"    i = (n+2)/2",
				"  Else",
				"    i = (n+1)/2",
				"  EndIf",
				"  For j = i To n",
				"    k = k + Math.Round(Math.Power((1+s5)/2,j)/s5)",
				"  EndFor",
				"  a[n] = a[n-1] + k",
				"  TextWindow.Write(a[n-1] + \", \")",
				"  k = 0",
				"EndFor"
			],
			"xref": [
				"Cf. A002623, A034828, A002620, A000292, A128624, A129696, A008805."
			],
			"keyword": "nonn",
			"offset": "1,2",
			"author": "_Kival Ngaokrajang_, Jul 08 2013",
			"references": 1,
			"revision": 24,
			"time": "2015-06-13T00:54:42-04:00",
			"created": "2013-07-29T05:13:47-04:00"
		}
	]
}