{
	"greeting": "Greetings from The On-Line Encyclopedia of Integer Sequences! http://oeis.org/",
	"query": "id:A227182",
	"count": 1,
	"start": 0,
	"results": [
		{
			"number": 227182,
			"data": "0,1,4,3,2,11,10,9,8,7,6,5,24,23,22,21,20,19,18,17,16,15,14,13,12,45,44,43,42,41,40,39,38,37,36,35,34,33,32,31,30,29,28,27,26,25,76,75,74,73,72,71,70,69,68,67,66,65,64,63,62,61,60,59,58,57,56,55,54,53,52,51,50,49,48,47,46",
			"name": "Simple self-inverse permutation of natural numbers: List each block of n^2 - n + 1 numbers from ((n-1)^3 + 2*(n-1))/3 + 1 to (n^3 + 2*n)/3 in reverse order.",
			"comment": [
				"In other words, after zero, list each block of A002061(n) numbers from A116731(n) to A006527(n) in reverse order."
			],
			"link": [
				"Antti Karttunen, \u003ca href=\"/A227182/b227182.txt\"\u003eTable of n, a(n) for n = 0..9951\u003c/a\u003e",
				"\u003ca href=\"/index/Per#IntegerPermutation\"\u003eIndex entries for sequences that are permutations of the natural numbers\u003c/a\u003e"
			],
			"formula": [
				"a(n) = A006527(A227177(n)) - A227179(n)."
			],
			"mathematica": [
				"Flatten[(Reverse/@( (-1+#) (9-5 #+#^2)/3+Range[(#-2) (#-1)+1]-1)\u0026)[Range[7]]] (* _Peter J. C. Moses_, Jul 11 2013 *)"
			],
			"program": [
				"(Scheme): (define (A227182 n) (- (A006527 (A227177 n)) (A227179 n)))"
			],
			"xref": [
				"Cf. A227177, A227179, A227147."
			],
			"keyword": "nonn",
			"offset": "0,3",
			"author": "_Antti Karttunen_, Jul 04 2013",
			"references": 3,
			"revision": 16,
			"time": "2013-07-11T15:41:16-04:00",
			"created": "2013-07-10T02:40:03-04:00"
		}
	]
}