{
	"greeting": "Greetings from The On-Line Encyclopedia of Integer Sequences! http://oeis.org/",
	"query": "id:A227975",
	"count": 1,
	"start": 0,
	"results": [
		{
			"number": 227975,
			"data": "1,2,5,6,10,18,30,82,4866,8784,10170,23364,76296,247166,585570,735480,848754,1559520,2884840,11272940,35642420,56652788,174935486,196398413,679063441,1398826844,1542228164,1665703953,2699813692,5734751503",
			"name": "Numbers m such that m divides Sum_{k=1..m} lambda(k).",
			"comment": [
				"lambda(n) is the Carmichael lambda function (A002322). The corresponding ratios (Sum_{k=1..m} lambda(k))/m are given by the sequence {1, 1, 2, 2, 3, 5, 8, 19, 711, 1221, 1399, 3011, 9034, 27187, 61246, 75971, 86971, 154710, 277344, 1015576,...}.",
				"a(31) \u003e 10^10. - _Dana Jacobsen_, Jul 07 2016"
			],
			"example": [
				"5 is in the sequence because 5 divides Sum_{k=1..5} lambda(k) = 1 + 1 + 2 + 2 + 4 = 2*5."
			],
			"mathematica": [
				"s = 0; Do[s = s + CarmichaelLambda[n]; If[IntegerQ[s/n], Print[n]], {n, 1, 10^9}]"
			],
			"program": [
				"(Perl) use ntheory \":all\"; my $v=0; for my $m (1..1e6) { $v=vecsum($v,carmichael_lambda($m)); say $m unless $v % $m; } # _Dana Jacobsen_, Jul 07 2016"
			],
			"xref": [
				"Cf. A002322, A048290, A162578."
			],
			"keyword": "nonn",
			"offset": "1,2",
			"author": "_Michel Lagneau_, Jun 17 2016",
			"ext": [
				"More terms from _Dana Jacobsen_, Jul 07 2016"
			],
			"references": 0,
			"revision": 45,
			"time": "2016-07-08T06:34:39-04:00",
			"created": "2016-06-29T03:01:24-04:00"
		}
	]
}