{
	"greeting": "Greetings from The On-Line Encyclopedia of Integer Sequences! http://oeis.org/",
	"query": "id:A227666",
	"count": 1,
	"start": 0,
	"results": [
		{
			"number": 227666,
			"data": "1,24,896,33904,1281696,48447504,1831288096,69221669104,2616540574496,98903777810704,3738507768500896,141313513441272304,5341572177372667296,201908456107703653904,7632027293479058673696,288486385024598708555504,10904624832208006924120096",
			"name": "Number of lattice paths from {n}^4 to {0}^4 using steps that decrement one component by 1 such that for each point (p_1,p_2,...,p_4) we have abs(p_{i}-p_{i+1}) \u003c= 1.",
			"link": [
				"Alois P. Heinz, \u003ca href=\"/A227666/b227666.txt\"\u003eTable of n, a(n) for n = 0..500\u003c/a\u003e",
				"\u003ca href=\"/index/Rec#order_03\"\u003eIndex entries for linear recurrences with constant coefficients\u003c/a\u003e, signature (40,-89,220)."
			],
			"formula": [
				"G.f.: (20*x^3-25*x^2+16*x-1)/(220*x^3-89*x^2+40*x-1).",
				"a(n) = 40*a(n-1) -89*a(n-2) +220*a(n-3) for n\u003e3, a(0)=1, a(1)=24, a(2)=896, a(3)=33904."
			],
			"example": [
				"a(1) = 4! = 24."
			],
			"maple": [
				"a:= n-\u003e ceil((\u003c\u003c0|1|0\u003e, \u003c0|0|1\u003e, \u003c220|-89|40\u003e\u003e^n.",
				"        \u003c\u003c10/11, 24, 896\u003e\u003e)[1, 1]):",
				"seq(a(n), n=0..25);"
			],
			"xref": [
				"Column k=4 of A227655.",
				"Cf. A000142."
			],
			"keyword": "nonn,easy",
			"offset": "0,2",
			"author": "_Alois P. Heinz_, Jul 19 2013",
			"references": 2,
			"revision": 11,
			"time": "2015-06-13T00:54:42-04:00",
			"created": "2013-07-19T17:11:18-04:00"
		}
	]
}