{
	"greeting": "Greetings from The On-Line Encyclopedia of Integer Sequences! http://oeis.org/",
	"query": "id:A227514",
	"count": 1,
	"start": 0,
	"results": [
		{
			"number": 227514,
			"data": "8,5,7,7,6,3,8,8,4,9,6,0,7,0,6,7,9,6,4,8,0,1,8,9,6,4,1,2,7,8,7,7,2,4,7,8,1,2,0,7,9,8,6,0,7,7,5,2,5,7,0,2,9,3,9,9,9,7,4,1,9,4,8,1,1,7,9,4,9,9,8,4,0,1,8,3,0,0,2,1,6,0",
			"name": "Decimal expansion of the square root of 2/e.",
			"comment": [
				"This appears for example while integrating the product of the absolute value of H_2(x) exp(-x^2) over the real line, where H_2 is the second Hermite polynomial."
			],
			"link": [
				"R. J. Mathar, \u003ca href=\"http://arxiv.org/abs/physics/9907051\"\u003eOrthogonal linear combinations of Gaussian Type Orbitals\u003c/a\u003e, arXiv:physics/9907051, Section VII."
			],
			"formula": [
				"Square root of A135002 and also the ratio A002193 / A019774 ."
			],
			"example": [
				"0.85776388496070679648018..."
			],
			"maple": [
				"evalf(sqrt(2/exp(1))) ;"
			],
			"program": [
				"(PARI) sqrt(2/exp(1)) \\\\ _Charles R Greathouse IV_, Apr 16 2014"
			],
			"keyword": "cons,nonn,easy",
			"offset": "0,1",
			"author": "_R. J. Mathar_, Jul 14 2013",
			"references": 0,
			"revision": 7,
			"time": "2014-04-16T08:53:09-04:00",
			"created": "2013-07-14T11:25:11-04:00"
		}
	]
}