{
	"greeting": "Greetings from The On-Line Encyclopedia of Integer Sequences! http://oeis.org/",
	"query": "id:A227480",
	"count": 1,
	"start": 0,
	"results": [
		{
			"number": 227480,
			"data": "3,120,528,139128,160554240,812293020528,379188080252621270252095320,2816640597719456759751165488439681098364673273236637971046370174350128",
			"name": "Triangular numbers of the form p^2 - 1 where p is a prime.",
			"example": [
				"139128 is both 527*528/2 and 373^2 - 1 (and 373 is prime)."
			],
			"xref": [
				"Subsequence of A006454 and of A225115."
			],
			"keyword": "nonn",
			"offset": "1,1",
			"author": "_Shreevatsa R_, Jul 12 2013",
			"ext": [
				"a(7)-a(8) from _Giovanni Resta_, Jul 13 2013"
			],
			"references": 0,
			"revision": 7,
			"time": "2013-07-19T11:22:27-04:00",
			"created": "2013-07-19T11:22:27-04:00"
		}
	]
}