{
	"greeting": "Greetings from The On-Line Encyclopedia of Integer Sequences! http://oeis.org/",
	"query": "id:A227328",
	"count": 1,
	"start": 0,
	"results": [
		{
			"number": 227328,
			"data": "2,11,153,4917,366606,66730314,31357593706",
			"name": "Number of n X n 0,1 arrays indicating 2 X 2 subblocks of some larger (n+1) X (n+1) binary array having two adjacent 1's and two adjacent 0's, with rows and columns of the latter in lexicographically nondecreasing order.",
			"comment": [
				"Diagonal of A227333."
			],
			"example": [
				"Some solutions for n=4",
				"..0..0..0..0....0..0..1..0....0..1..1..1....0..0..1..0....0..1..1..0",
				"..0..0..0..0....1..1..0..0....1..0..1..1....0..0..1..0....0..1..1..0",
				"..1..0..1..0....0..1..0..0....0..0..1..1....1..0..1..0....1..0..1..1",
				"..0..1..0..0....0..0..0..0....0..1..0..0....1..0..0..1....0..0..1..0"
			],
			"xref": [
				"Cf. A227333."
			],
			"keyword": "nonn",
			"offset": "1,1",
			"author": "_R. H. Hardin_ Jul 07 2013",
			"references": 0,
			"revision": 7,
			"time": "2020-04-06T00:29:17-04:00",
			"created": "2013-07-07T06:37:18-04:00"
		}
	]
}