{
	"greeting": "Greetings from The On-Line Encyclopedia of Integer Sequences! http://oeis.org/",
	"query": "id:A227950",
	"count": 1,
	"start": 0,
	"results": [
		{
			"number": 227950,
			"data": "3,5,5,7,9,11,13,13,15,17,19,21,25,27,53,81,85,183,191,307,377,409,475,541,565,885,1065,1399,1489,2653,4523,4565,5773,7777,14281",
			"name": "Number of decimal digits in the increasing sequence of primes obtainable by concatenating successive decrements from some power of 10.",
			"comment": [
				"Any even value necessarily involves crossing through an entire string of numbers of the same length (10^k-1 to 10^(k-1)).  Since primes of this kind do not arise for any leading power of 10 less than 5, finding such a number is unlikely using current hardware and software tools."
			],
			"example": [
				"1000999998997 is one of the primes described and provides a value of 13 in this sequence, with 1000000999999 providing the other (A227949(7) and A227949(8), in opposite order for the purposes of the FORMULA at that sequence (technically))."
			],
			"xref": [
				"Cf. A227949,A227951"
			],
			"keyword": "nonn,base",
			"offset": "1,1",
			"author": "_James G. Merickel_, Aug 22 2013",
			"references": 2,
			"revision": 11,
			"time": "2013-09-01T16:30:53-04:00",
			"created": "2013-09-01T16:30:53-04:00"
		}
	]
}