{
	"greeting": "Greetings from The On-Line Encyclopedia of Integer Sequences! http://oeis.org/",
	"query": "id:A227295",
	"count": 1,
	"start": 0,
	"results": [
		{
			"number": 227295,
			"data": "1,4,-8,32,-128,768,-4608,28672,-184320,1212672,-8127488,55318528,-381329408,2656845824,-18680250368,132373807104,-944459216896,6778991403008,-48915734839296,354636355665920,-2582006464118784,18870792427143168,-138396900373037056,1018196233480568832,-7512565092559355904",
			"name": " G.f.: ( Sum_{n\u003e=0} 8^n*x^(n^2) )^(1/2).",
			"example": [
				" G.f.: A(x) = 1 + 4*x - 8*x^2 + 32*x^3 - 128*x^4 + 768*x^5 - 4608*x^6 +...",
				"where",
				"A(x)^2 = 1 + 8*x + 8^2*x^4 + 8^3*x^9 + 8^4*x^16 + 8^5*x^25 + 8^6*x^36 +..."
			],
			"program": [
				" (PARI) {a(n)=polcoeff((sum(k=0,n,8^k*x^(k^2))+x*O(x^n))^(1/2),n)}",
				"for(n=0,36,print1(a(n),\", \"))"
			],
			"xref": [
				" Cf. A227294."
			],
			"keyword": "sign",
			"offset": "0,2",
			"author": "_Paul D. Hanna_, Jul 05 2013",
			"references": 1,
			"revision": 3,
			"time": "2013-07-05T20:30:12-04:00",
			"created": "2013-07-05T20:30:12-04:00"
		}
	]
}