{
	"greeting": "Greetings from The On-Line Encyclopedia of Integer Sequences! http://oeis.org/",
	"query": "id:A227564",
	"count": 1,
	"start": 0,
	"results": [
		{
			"number": 227564,
			"data": "1,2,3,6,9,14,21,30,42,60,81,107,145,186,238,303,382,474,591,723,880,1068,1285,1528,1829,2158,2534,2970,3472,4022,4668,5377,6173,7076,8076,9168,10428,11793,13288,14971,16814,18807,21050,23467,26099,29014,32158",
			"name": "Number of partitions of n into distinct parts with boundary size 7.",
			"comment": [
				"The boundary size is the number of parts having fewer than two neighbors."
			],
			"link": [
				"Alois P. Heinz, \u003ca href=\"/A227564/b227564.txt\"\u003eTable of n, a(n) for n = 37..1000\u003c/a\u003e"
			],
			"xref": [
				"Column k=7 of A227345, A227551."
			],
			"keyword": "nonn",
			"offset": "37,2",
			"author": "_Alois P. Heinz_, Jul 16 2013",
			"references": 3,
			"revision": 7,
			"time": "2016-02-09T11:32:55-05:00",
			"created": "2013-07-16T10:19:06-04:00"
		}
	]
}