{
	"greeting": "Greetings from The On-Line Encyclopedia of Integer Sequences! http://oeis.org/",
	"query": "id:A227953",
	"count": 1,
	"start": 0,
	"results": [
		{
			"number": 227953,
			"data": "3,1,30,63,187,232,348,375,912,620,692,463,864,2303,1615,2806,4844,1239,2239,1383,1835,2236,3716,6575,3447,3670,1384,6894,13422,7486,9131,6462,6480,13703,13039,4958,9908,6368,9912,5534,2767,12734,9719,16598,11060",
			"name": "Smallest m such that A070965(m) = n.",
			"comment": [
				"A070965(a(n)) = n and a070965(m) \u003c\u003e n for m \u003c a(n);",
				"A070965(A227954(n)) = -n."
			],
			"program": [
				"(Haskell)",
				"import Data.List (elemIndex); import Data.Maybe (fromJust)",
				"a227953 = (+ 1) . fromJust . (`elemIndex` a070965_list)"
			],
			"keyword": "nonn",
			"offset": "0,1",
			"author": "_Reinhard Zumkeller_, Aug 01 2013",
			"references": 3,
			"revision": 5,
			"time": "2013-08-01T14:16:34-04:00",
			"created": "2013-08-01T14:16:34-04:00"
		}
	]
}