{
	"greeting": "Greetings from The On-Line Encyclopedia of Integer Sequences! http://oeis.org/",
	"query": "id:A227446",
	"count": 1,
	"start": 0,
	"results": [
		{
			"number": 227446,
			"data": "0,1,3,13,39,539,2631,4283",
			"name": "Numbers k such that 7*2^(2*k)-5*2^kn+1 is prime.",
			"comment": [
				"a(9) \u003e 10000. - _Jinyuan Wang_, Feb 12 2019"
			],
			"link": [
				"Eric L. F. Roettger, \u003ca href=\"http://people.ucalgary.ca/~hwilliam/files/A_Cubic_Extention_of_the_Lucas_Functions.pdf\"\u003eA Cubic Extension of the Lucas Functions\u003c/a\u003e, Ph. D. Dissertation, Dept. Math. and Statistics, Univ. Calgary, 2009 (see page 196)."
			],
			"maple": [
				"select(isprime,[seq(7*2^(2*n)-5*2^n+1,n=0..1000)]); # _Jinyuan Wang_, Feb 12 2019"
			],
			"mathematica": [
				"Select[Range[0, 3000], PrimeQ[7 2^(2 #) - 5 2^# + 1]\u0026]"
			],
			"program": [
				"(PARI) for(n=0,10^6,if(ispseudoprime(7*2^(2*n)-5*2^n+1),print1(n,\", \"))); \\\\ _Joerg Arndt_, Jul 14 2013"
			],
			"xref": [
				"Cf. A058593."
			],
			"keyword": "nonn,more",
			"offset": "1,3",
			"author": "_Vincenzo Librandi_, Jul 14 2013",
			"ext": [
				"a(8) from _Jinyuan Wang_, Feb 12 2019"
			],
			"references": 0,
			"revision": 15,
			"time": "2019-02-12T09:14:18-05:00",
			"created": "2013-07-14T13:35:31-04:00"
		}
	]
}