{
	"greeting": "Greetings from The On-Line Encyclopedia of Integer Sequences! http://oeis.org/",
	"query": "id:A228334",
	"count": 1,
	"start": 0,
	"results": [
		{
			"number": 228334,
			"data": "1,0,1,0,3,1,0,14,10,1,0,84,90,21,1,0,594,825,308,36,1,0,4719,7865,4004,780,55,1,0,40898,78078,49686,13650,1650,78,1,0,379236,804440,606424,214200,37400,3094,105,1,0,3711916,8565960,7379904,3162816,724812,88179,5320,136,1",
			"name": "Triangle read by rows: the X-transformation of the Catalan triangle A033184.",
			"link": [
				"Fangfang Cai, Qing-Hu Hou, Yidong Sun, Arthur L.B. Yang, \u003ca href=\"https://arxiv.org/abs/1808.05736\"\u003eCombinatorial identities related to 2×2 submatrices of recursive matrices\u003c/a\u003e, arXiv:1808.05736 [math.CO], 2018.",
				"Yidong Sun and Fei Ma, \u003ca href=\"http://arxiv.org/abs/1305.2015\"\u003eMinors of a Class of Riordan Arrays Related to Weighted Partial Motzkin Paths\u003c/a\u003e, arXiv preprint arXiv:1305.2015 [math.CO], 2013.",
				"Yidong Sun and Fei Ma, \u003ca href=\"http://arxiv.org/abs/1305.2017\"\u003eFour transformations on the Catalan triangle\u003c/a\u003e, arXiv preprint arXiv:1305.2017 [math.CO], 2013.",
				"Yidong Sun and Fei Ma, \u003ca href=\"http://www.combinatorics.org/ojs/index.php/eljc/article/view/v21i1p33\"\u003eSome new binomial sums related to the Catalan triangle\u003c/a\u003e, Electronic Journal of Combinatorics 21(1) (2014), #P1.33"
			],
			"example": [
				"Triangle begins:",
				"  1;",
				"  0,   1;",
				"  0,   3,   1;",
				"  0,  14,  10,   1;",
				"  0,  84,  90,  21,   1;",
				"  0, 594, 825, 308,  36,   1;",
				"  ..."
			],
			"mathematica": [
				"nn = 9;",
				"c[n_, k_] := Binomial[2n-k, n] (k+1)/(n+1);",
				"a[0, 0] = 1;",
				"a[n_, k_] := Table[c[n+k+i-1, 2k+j-1], {i, 1, 2}, {j, 1, 2}] // Det;",
				"Table[a[n, k], {n, 0, nn}, {k, 0, n}] // Flatten (* _Jean-François Alcover_, Aug 12 2018 *)"
			],
			"program": [
				"(PARI) C(n, k) = (k\u003c=n)*binomial(2*n-k, n)*(k+1)/(n+1);",
				"aX(nn) = {for (n = 0, nn, for (k = 0, n, print1(matdet(matrix(2, 2, i, j, C(n+k+i-1, 2*k+j-1))), \", \");); print(););} \\\\ _Michel Marcus_, Feb 13 2014"
			],
			"xref": [
				"Cf. A033184, A179898, A228335, A228336, A228337."
			],
			"keyword": "nonn,tabl",
			"offset": "0,5",
			"author": "_N. J. A. Sloane_, Aug 26 2013",
			"ext": [
				"More terms from _Michel Marcus_, Feb 13 2014",
				"A-number for Catalan triangle changed by _Michel Marcus_, Feb 13 2014"
			],
			"references": 3,
			"revision": 41,
			"time": "2018-08-20T08:07:14-04:00",
			"created": "2013-08-26T14:22:41-04:00"
		}
	]
}