{
	"greeting": "Greetings from The On-Line Encyclopedia of Integer Sequences! http://oeis.org/",
	"query": "id:A228657",
	"count": 1,
	"start": 0,
	"results": [
		{
			"number": 228657,
			"data": "5,38,335,2844,24109,203762,1720343,14516920,122469941,1033083774,8714026943,73500740436,619954240797,5229079954762,44105207907655,372009451809136,3137746452123621,26465592072488918,223226285220003247",
			"name": "Number of n X 5 binary arrays with top left value 1 and no two ones adjacent horizontally, diagonally or antidiagonally.",
			"link": [
				"R. H. Hardin, \u003ca href=\"/A228657/b228657.txt\"\u003eTable of n, a(n) for n = 1..210\u003c/a\u003e"
			],
			"formula": [
				"Empirical: a(n) = 12*a(n-1) - 27*a(n-2) - 32*a(n-3) + 49*a(n-4) + 20*a(n-5) - 5*a(n-6).",
				"Empirical g.f.: x*(5 - 22*x + 14*x^2 + 10*x^3 - 3*x^4) / (1 - 12*x + 27*x^2 + 32*x^3 - 49*x^4 - 20*x^5 + 5*x^6). - _Colin Barker_, Sep 12 2018"
			],
			"example": [
				"Some solutions for n=4:",
				"..1..0..0..0..0....1..0..1..0..1....1..0..1..0..1....1..0..0..0..1",
				"..1..0..1..0..1....1..0..1..0..1....1..0..1..0..0....1..0..0..0..0",
				"..1..0..0..0..1....0..0..0..0..0....1..0..0..0..0....0..0..0..0..1",
				"..1..0..1..0..1....0..0..0..0..1....1..0..0..0..0....0..0..0..0..0"
			],
			"xref": [
				"Column 5 of A228660."
			],
			"keyword": "nonn",
			"offset": "1,1",
			"author": "_R. H. Hardin_, Aug 29 2013",
			"references": 1,
			"revision": 12,
			"time": "2018-09-12T09:08:52-04:00",
			"created": "2013-08-29T06:39:45-04:00"
		}
	]
}