{
	"greeting": "Greetings from The On-Line Encyclopedia of Integer Sequences! http://oeis.org/",
	"query": "id:A228625",
	"count": 1,
	"start": 0,
	"results": [
		{
			"number": 228625,
			"data": "1021,1031,1051,1061,1091,1151,1171,1181,1201,1231,1291,1301,1321,1361,1381,1451,1471,1481,1511,1531,1571,1601,1621,1721,1741,1801,1811,1831,1861,1871,1901,1931,1951,3023,3083,3163,3203,3253,3313,3323,3343,3373,3413",
			"name": "Primes of the form abcabc..abca.",
			"comment": [
				"The sequence appears to be infinite."
			],
			"link": [
				"Shyam Sunder Gupta and Charles R Greathouse IV, \u003ca href=\"/A228625/b228625.txt\"\u003eTable of n, a(n) for n = 1..829\u003c/a\u003e (all terms with up to 1000 digits; first 500 from Gupta)"
			],
			"example": [
				"a(2)= 1031 is in the sequence because it is a prime of the form abca."
			],
			"mathematica": [
				"s[n_]:=Select[Union@Flatten@Table[FromDigits@Flatten@Join[IntegerDigits@Table[b,{n}],{IntegerDigits@Floor[b/100]}],{b,100,999}],PrimeQ];Array[s,2]//Flatten"
			],
			"program": [
				"(PARI) for(k=1,9,b=10^(3*k+1);for(n=1,999,if(isprime(t=b*n\\999), print1(t\", \")))) \\\\ _Charles R Greathouse IV_, Aug 29 2013"
			],
			"keyword": "nonn,base",
			"offset": "1,1",
			"author": "_Shyam Sunder Gupta_, Aug 28 2013",
			"references": 4,
			"revision": 15,
			"time": "2013-08-29T23:16:21-04:00",
			"created": "2013-08-29T23:12:34-04:00"
		}
	]
}