{
	"greeting": "Greetings from The On-Line Encyclopedia of Integer Sequences! http://oeis.org/",
	"query": "id:A228237",
	"count": 1,
	"start": 0,
	"results": [
		{
			"number": 228237,
			"data": "3,11,14,15,19,27,29,31,35,43,46,47,51,59,62,67,75,78,79,83,91,93,95,99,107,110,111,115,123,124,125,126,127,131,139,142,143,147,155,157,159,163,171,174,175,179,187,190,195,203,206,207,211,219,221,223,227",
			"name": "Numbers n for which there exists such a natural number k \u003e n that k + bitcount(k) = n + bitcount(n), where bitcount(k) (A000120) gives the number of 1's in binary representation of nonnegative integer k.",
			"comment": [
				"In other words, all such terms A228236(n) which satisfy A228236(n) \u003c A228087(A092391(A228236(n))).",
				"Note: 124 is the first term that occurs both here and in A228091."
			],
			"link": [
				"Antti Karttunen, \u003ca href=\"/A228237/b228237.txt\"\u003eTable of n, a(n) for n = 1..10000\u003c/a\u003e"
			],
			"example": [
				"For cases 0 + A000120(0) = 0, 1 + A000120(1) = 2, 2 + A000120(2) = 3 there are no larger solutions yielding the same result.",
				"However, for 3 + A000120(3) = 5 there is a larger solution yielding the same result, namely 4 + A000120(4) = 5, thus 3 is the first term of this sequence.",
				"Next time this occurs for 11, as 11 + A000120(11) = 14 = 12 + A000120(12), and 12 \u003e 11."
			],
			"program": [
				"(Scheme, with _Antti Karttunen_'s IntSeq-library)",
				"(define A228237 (MATCHING-POS 1 1 (lambda (n) (\u003c n (A228087 (A092391 n))))))"
			],
			"xref": [
				"Subset of A228236. Cf. also A228091."
			],
			"keyword": "nonn",
			"offset": "1,1",
			"author": "_Antti Karttunen_, Sep 11 2013",
			"references": 3,
			"revision": 9,
			"time": "2013-09-13T03:34:12-04:00",
			"created": "2013-09-13T03:34:12-04:00"
		}
	]
}