{
	"greeting": "Greetings from The On-Line Encyclopedia of Integer Sequences! http://oeis.org/",
	"query": "id:A228678",
	"count": 1,
	"start": 0,
	"results": [
		{
			"number": 228678,
			"data": "5,19,77,313,1277,5215,21305,87049,355685,1453363,5938613,24265921,99153677,405154783,1655515121,6764650225,27641241413,112945711027,461510880221,1885793543785,7705597945181,31486076453887,128656207802537",
			"name": "Number of nX3 binary arrays with no two ones adjacent horizontally, diagonally or antidiagonally.",
			"comment": [
				"Column 3 of A228683"
			],
			"link": [
				"R. H. Hardin, \u003ca href=\"/A228678/b228678.txt\"\u003eTable of n, a(n) for n = 1..210\u003c/a\u003e"
			],
			"formula": [
				"Empirical: a(n) = 5*a(n-1) -3*a(n-2) -3*a(n-3).",
				"Empirical: G.f. -x*(-5+6*x+3*x^2) / ( 1-5*x+3*x^2+3*x^3 ). - _R. J. Mathar_, Aug 31 2013"
			],
			"example": [
				"Some solutions for n=4",
				"..1..0..1....1..0..0....0..1..0....0..0..1....0..1..0....0..0..1....0..0..0",
				"..1..0..0....1..0..1....0..0..0....0..0..0....0..0..0....0..0..1....0..0..0",
				"..1..0..1....0..0..1....0..1..0....1..0..0....1..0..0....0..0..0....0..0..0",
				"..1..0..0....1..0..0....0..0..0....1..0..1....1..0..1....0..0..0....0..1..0"
			],
			"keyword": "nonn",
			"offset": "1,1",
			"author": "_R. H. Hardin_ Aug 30 2013",
			"references": 1,
			"revision": 10,
			"time": "2013-09-01T17:50:20-04:00",
			"created": "2013-08-30T05:58:52-04:00"
		}
	]
}