{
	"greeting": "Greetings from The On-Line Encyclopedia of Integer Sequences! http://oeis.org/",
	"query": "id:A228844",
	"count": 1,
	"start": 0,
	"results": [
		{
			"number": 228844,
			"data": "24,42,80,100,104,114,120,126,144,162,180,196,200,220,228,234,240,246,272,282,288,304,324,348,350,364,392,402,420,426,440,460,504,572,582,588,594,608,616,624,640,654,660,666,684,700,708,714,728,736,740,786",
			"name": "Smallest sets of 3 consecutive abundant numbers in arithmetic progression. The initial abundant number is listed.",
			"link": [
				"Shyam Sunder Gupta, \u003ca href=\"/A228844/b228844.txt\"\u003eTable of n, a(n) for n = 1..5000\u003c/a\u003e"
			],
			"example": [
				"24, 30, 36 is the smallest set of 3 consecutive abundant numbers in arithmetic progression so 24 is in the list."
			],
			"mathematica": [
				"AbundantQ[n_] := DivisorSigma[1, n] \u003e 2 n; m = 2; z1 = 18; cd = 6; a = {}; Do[If[AbundantQ[n], If[n - z1 == cd, m = m + 1; If[m \u003e 2, AppendTo[a, n - 2*cd]], m = 2; cd = n - z1]; z1 = n], {n, 19, 1000000}]; a"
			],
			"xref": [
				"Cf. A005101, A228433."
			],
			"keyword": "nonn",
			"offset": "1,1",
			"author": "_Shyam Sunder Gupta_, Nov 10 2013",
			"references": 7,
			"revision": 8,
			"time": "2013-11-11T17:22:38-05:00",
			"created": "2013-11-11T17:22:38-05:00"
		}
	]
}