{
	"greeting": "Greetings from The On-Line Encyclopedia of Integer Sequences! http://oeis.org/",
	"query": "id:A228891",
	"count": 1,
	"start": 0,
	"results": [
		{
			"number": 228891,
			"data": "2,3,5,7,13,13,17,17,17,41,59,29,41,53,37,67,79,61,89,101,139,71,67,83,151,101,89,127,163,137,101,103,131,181,139,139,181,181,139,317,191,313,163,197,199,389,191,233,229,337,239,229,347,881,239,283,487",
			"name": "Let A = A050376. Let Q be the smallest term of A more than 1 + Product_{i=1..n} A(i). a(n) = Q - Product_{i=1..n} A(i).",
			"comment": [
				"This sequence is a Fermi-Dirac analog of the Fortunate numbers (A005235)."
			],
			"link": [
				"Peter J. C. Moses, \u003ca href=\"/A228891/b228891.txt\"\u003eTable of n, a(n) for n = 1..1000\u003c/a\u003e"
			],
			"example": [
				"a(1) = 2, since 1 + Product_{i=1} A(i) = 1 + 2 = 3, the smallest term Q of A050376 more than 3 is 4 and a(1) = 4-2 = 2; let n=4, then 1 + Product_{i=1..4} A(i) = 1 + 2*3*4*5 = 121 and the smallest term Q of A050376 more than 121 is 127. So a(4) = 127 - 120 = 7."
			],
			"xref": [
				"Cf. A005235, A050376."
			],
			"keyword": "nonn",
			"offset": "1,1",
			"author": "_Vladimir Shevelev_, Sep 07 2013",
			"ext": [
				"More terms from _Peter J. C. Moses_, Sep 10 2013"
			],
			"references": 1,
			"revision": 23,
			"time": "2021-01-03T12:59:41-05:00",
			"created": "2013-09-22T15:20:38-04:00"
		}
	]
}