{
	"greeting": "Greetings from The On-Line Encyclopedia of Integer Sequences! http://oeis.org/",
	"query": "id:A228122",
	"count": 1,
	"start": 0,
	"results": [
		{
			"number": 228122,
			"data": "0,40,420,1721,14144,139563,3019035,24304266,206583092,3838101265",
			"name": "Smallest nonnegative number x such that x^2 + x + 41 has exactly n prime factors counting multiplicities.",
			"example": [
				"a(1) = 0 because if x = 0 then x^2 + x + 41 = 41, which has 1 prime factor.",
				"a(2) = 40 because if x = 40 then x^2 + x + 41 = 1681 = 41*41, which has 2 prime factors, counting multiplicities.",
				"a(3) = 420 because if x = 420 then x^2 + x + 41 = 176861 = 47*53*71, which has 3 prime factors."
			],
			"mathematica": [
				"a = {}; Do[x = 0; While[PrimeOmega[x^2 + x + 41] != k, x++]; AppendTo[a, x], {k, 9}]; a"
			],
			"program": [
				"(PARI) a(n) = {my(m=0); while (bigomega(m^2+m+41) != n, m++); m;} \\\\ _Michel Marcus_, Jan 31 2016",
				"(Python)",
				"from sympy import factorint",
				"def A228122(n):",
				"    k = 0",
				"    while sum(factorint(k*(k+1)+41).values()) != n:",
				"        k += 1",
				"    return k # _Chai Wah Wu_, Sep 07 2018"
			],
			"xref": [
				"Cf. A005846, A007634, A145292, A145293, A056561."
			],
			"keyword": "nonn,more",
			"offset": "1,2",
			"author": "_Shyam Sunder Gupta_, Aug 11 2013",
			"ext": [
				"a(9) from _Zak Seidov_, Feb 01 2016",
				"a(10) from _Giovanni Resta_, Sep 08 2018"
			],
			"references": 4,
			"revision": 24,
			"time": "2018-09-08T02:29:38-04:00",
			"created": "2013-08-13T18:50:10-04:00"
		}
	]
}