{
	"greeting": "Greetings from The On-Line Encyclopedia of Integer Sequences! http://oeis.org/",
	"query": "id:A228037",
	"count": 1,
	"start": 0,
	"results": [
		{
			"number": 228037,
			"data": "0,1,1,1,3,1,1,5,1,1,7,1,5,9,1,1,11,0,1,13,1,1,24,1,7,17,1,0,19,1,1,21,13,1,23,1,1,25,0,1,27,1,17,29,1,13,31,0,1,33,1,1,56,1,1,37,1,0,39,0,11,41,25,1,43,1,19,45,1,1,47,0,29,49,1,1,51,0,1,53,0,1,88,1,13,57,1,25,59,1,1,61,37,0,63,1,1,65,1",
			"name": "Odd-indexed terms of Agoh's congruence A046094: a(n) is conjectured to be 1 iff 2n+1 is prime.",
			"comment": [
				"Except for A046094(2) = 1, the even-indexed terms of A046094 are all zero since Bernoulli(2n+1) = 0 for n \u003e 0."
			],
			"link": [
				"Alois P. Heinz, \u003ca href=\"/A228037/b228037.txt\"\u003eTable of n, a(n) for n = 0..10000\u003c/a\u003e"
			],
			"formula": [
				"a(n) = - (2n+1)*Bernoulli(2n) mod 2n+1."
			],
			"example": [
				"-(2*1+1)*Bernoulli(2*1) = -3*(1/6) = -1/2 == -2 == 1 mod 3, so a(1) = 1."
			],
			"maple": [
				"a:= n-\u003e -(2*n+1)*bernoulli(2*n) mod (2*n+1):",
				"seq(a(n), n=0..100);  # _Alois P. Heinz_, Aug 13 2013"
			],
			"mathematica": [
				"a[ n_ ] := Mod[ Numerator[ -(2 n + 1)* BernoulliB[ 2 n]] * PowerMod[ Denominator[(2 n + 1)* BernoulliB[ 2 n]], -1, 2 n + 1], 2 n + 1]"
			],
			"xref": [
				"a(n) = A046094(2n+1)."
			],
			"keyword": "nonn",
			"offset": "0,5",
			"author": "_Jonathan Sondow_, Aug 13 2013",
			"references": 4,
			"revision": 23,
			"time": "2019-12-11T07:31:21-05:00",
			"created": "2013-08-13T16:25:41-04:00"
		}
	]
}