{
	"greeting": "Greetings from The On-Line Encyclopedia of Integer Sequences! http://oeis.org/",
	"query": "id:A229644",
	"count": 1,
	"start": 0,
	"results": [
		{
			"number": 229644,
			"data": "1,4,28,244,2396,25324,281140,3232352,38151196,459594316,5628197948,69859456440,876985904276,11115789165888,142066687799680,1828884017527504,23694360858872604,308714491495346028,4042605442981407388,53178663502737007352",
			"name": "Cogrowth function of the group Baumslag-Solitar(2,2).",
			"comment": [
				"a(n) is the number of words of length 2n in the letters a,a^{-1},t,t^{-1} that equal the identity of the group BS(2,2)=\u003ca,t | ta^2=a^2t\u003e."
			],
			"link": [
				"Murray Elder, \u003ca href=\"/A229644/b229644.txt\"\u003eTable of n, a(n) for n = 0..50\u003c/a\u003e",
				"M. Elder, A. Rechnitzer, E. J. Janse van Rensburg, T. Wong, \u003ca href=\"http://arxiv.org/abs/1309.4184\"\u003eThe cogrowth series for BS(N,N) is D-finite\u003c/a\u003e",
				"Wikipedia, \u003ca href=\"http://en.wikipedia.org/wiki/Baumslag%E2%80%93Solitar_group\"\u003eBaumslag-Solitar group\u003c/a\u003e",
				"\u003ca href=\"/index/Gre#groups\"\u003eIndex entries for sequences related to groups\u003c/a\u003e"
			],
			"example": [
				"For n=1 there are 4 words of length 2 equal to the identity: aa^{-1}, a^{-1}a, tt^{-1}, t^{-1}t."
			],
			"xref": [
				"The cogrowth sequences for BS(N,N) for N = 1..10 are A002894, A229644, A229645, A229646, A229647, A229648, A229649, A229650, A229651, A229652."
			],
			"keyword": "nonn,walk",
			"offset": "0,2",
			"author": "_Murray Elder_, Sep 27 2013",
			"references": 10,
			"revision": 31,
			"time": "2015-10-22T14:48:23-04:00",
			"created": "2013-09-28T12:17:19-04:00"
		}
	]
}