{
	"greeting": "Greetings from The On-Line Encyclopedia of Integer Sequences! http://oeis.org/",
	"query": "id:A229853",
	"count": 1,
	"start": 0,
	"results": [
		{
			"number": 229853,
			"data": "1,385,769,1153,1537,1921,2305,2689,3073,3457,3841,4225,4609,4993,5377,5761,6145,6529,6913,7297,7681,8065,8449,8833,9217,9601,9985,10369,10753,11137,11521,11905,12289,12673,13057,13441,13825,14209,14593,14977,15361",
			"name": "384*n + 1.",
			"comment": [
				"Every composite Fermat number has a divisor of the form 384*n + 1, n \u003e 0."
			],
			"link": [
				"Arkadiusz Wesolowski, \u003ca href=\"/A229853/b229853.txt\"\u003eTable of n, a(n) for n = 0..1000\u003c/a\u003e",
				"Wikipedia, \u003ca href=\"http://en.wikipedia.org/wiki/Fermat_number\"\u003eFermat number\u003c/a\u003e",
				"\u003ca href=\"/index/Rec#order_02\"\u003eIndex entries for linear recurrences with constant coefficients\u003c/a\u003e, signature (2,-1)."
			],
			"formula": [
				"G.f.: (1 + 383*x)/(1 - x)^2."
			],
			"maple": [
				"seq(384*n+1, n=0..40);"
			],
			"mathematica": [
				"Table[384*n + 1, {n, 0, 40}]"
			],
			"program": [
				"(MAGMA) [384*n+1 : n in [0..40]]",
				"(PARI) for(n=0, 40, print1(384*n+1, \", \"));"
			],
			"xref": [
				"Cf. A000215, A094358, A229854-A229856."
			],
			"keyword": "nonn,easy",
			"offset": "0,2",
			"author": "_Arkadiusz Wesolowski_, Oct 01 2013",
			"references": 4,
			"revision": 15,
			"time": "2017-06-17T03:04:52-04:00",
			"created": "2013-10-04T11:06:50-04:00"
		}
	]
}