{
	"greeting": "Greetings from The On-Line Encyclopedia of Integer Sequences! http://oeis.org/",
	"query": "id:A229553",
	"count": 1,
	"start": 0,
	"results": [
		{
			"number": 229553,
			"data": "4,9,2,1,5,5,3,6,3,4,5,6,7,5,0,5,0,9,2,4,5,6,7,6,2,3,1,1,7,5,4,4,7,8,7,4,1,5,9,4,4,2,7,6,1,7,3,4,9,9,0,8,3,4,1,5,9,2,3,9,5,5,9,4,5,7,7,3,2,2,2,8,4,7,9,8,0,9,7,9,7,7,6,4,0,8,3",
			"name": "Decimal expansion of the unique solution \u003e 1 of the equation x*log(x)=2(x-1).",
			"reference": [
				"Steven R. Finch, Mathematical Constants (2.23 Diophantine approximation constants), Cambridge University Press, 2003, p. 177."
			],
			"link": [
				"Vincenzo Librandi, \u003ca href=\"/A229553/b229553.txt\"\u003eTable of n, a(n) for n = 1..1000\u003c/a\u003e"
			],
			"formula": [
				"exp(W(-2/e^2)+2) where W is the Lambert/ProductLog function."
			],
			"example": [
				"4.921553634567505092456762311754478741594427617349908341592395594577322284798..."
			],
			"mathematica": [
				"Exp[ProductLog[-2/E^2] + 2] // RealDigits[#, 10, 100]\u0026 // First"
			],
			"keyword": "nonn,cons",
			"offset": "1,1",
			"author": "_Jean-François Alcover_, Sep 30 2013",
			"references": 1,
			"revision": 14,
			"time": "2013-09-30T04:02:14-04:00",
			"created": "2013-09-30T04:01:35-04:00"
		}
	]
}