{
	"greeting": "Greetings from The On-Line Encyclopedia of Integer Sequences! http://oeis.org/",
	"query": "id:A229732",
	"count": 1,
	"start": 0,
	"results": [
		{
			"number": 229732,
			"data": "0,0,0,0,2,6,17,42,97,212,446,910,1813,3542,6809,12912,24202,44910,82609,150786,273353,492532,882598,1573766,2793605,4938670,8698129,15266688,26710610,46595766,81063473,140670426,243530641,420673076,725165006,1247627998,2142593365,3673217414,6287062121",
			"name": "G.f.: x^4*(2 - x^2 + x^3 + x^4)/(1-x-x^2)^3.",
			"link": [
				"S. Kitaev and J. Remmel, \u003ca href=\"http://arxiv.org/abs/1305.6970\"\u003eThe 1-box pattern on pattern avoiding permutations\u003c/a\u003e, arXiv preprint arXiv:1305.6970 [math.CO], 2013. See Th. 7.",
				"\u003ca href=\"/index/Rec#order_06\"\u003eIndex entries for linear recurrences with constant coefficients\u003c/a\u003e, signature (3,0,-5,0,3,1)."
			],
			"mathematica": [
				"Join[{0, 0, 0}, LinearRecurrence[{3, 0, -5, 0, 3, 1}, {0, 2, 6, 17, 42, 97}, 36]] (* _Jean-François Alcover_, Feb 12 2019 *)"
			],
			"keyword": "nonn",
			"offset": "0,5",
			"author": "_N. J. A. Sloane_, Oct 01 2013",
			"references": 0,
			"revision": 13,
			"time": "2019-02-12T10:40:50-05:00",
			"created": "2013-10-01T23:14:34-04:00"
		}
	]
}