{
	"greeting": "Greetings from The On-Line Encyclopedia of Integer Sequences! http://oeis.org/",
	"query": "id:A229693",
	"count": 1,
	"start": 0,
	"results": [
		{
			"number": 229693,
			"data": "120,20691,1400413,75035643,3583403667,159377253183,6749642728251,275739382892979,10957241965280031,425954258229381831,16265054107660003947,611918047133484899067,22734198484723715670855",
			"name": "Number of defective 3-colorings of an n X 7 0..2 array connected horizontally and antidiagonally with exactly two mistakes, and colors introduced in row-major 0..2 order.",
			"comment": [
				"Column 7 of A229694."
			],
			"link": [
				"R. H. Hardin, \u003ca href=\"/A229693/b229693.txt\"\u003eTable of n, a(n) for n = 1..210\u003c/a\u003e"
			],
			"formula": [
				"Empirical: a(n) = 126*a(n-1) - 6345*a(n-2) + 165456*a(n-3) - 2474469*a(n-4) + 22918302*a(n-5) - 138045627*a(n-6) + 554666940*a(n-7) - 1494608922*a(n-8) + 2659094568*a(n-9) - 2986698420*a(n-10) + 1913187600*a(n-11) - 531441000*a(n-12) for n \u003e 14."
			],
			"example": [
				"Some solutions for n=3:",
				"  0 0 1 2 1 2 1      0 0 1 0 1 2 1      0 0 1 0 1 2 0",
				"  1 0 1 2 1 2 2      1 2 1 0 1 0 2      1 0 2 0 2 1 2",
				"  1 2 1 2 1 0 2      1 2 0 2 1 0 2      2 1 2 1 0 1 0"
			],
			"keyword": "nonn",
			"offset": "1,1",
			"author": "_R. H. Hardin_, Sep 27 2013",
			"references": 1,
			"revision": 8,
			"time": "2021-04-28T01:22:24-04:00",
			"created": "2013-09-27T13:40:50-04:00"
		}
	]
}