{
	"greeting": "Greetings from The On-Line Encyclopedia of Integer Sequences! http://oeis.org/",
	"query": "id:A229620",
	"count": 1,
	"start": 0,
	"results": [
		{
			"number": 229620,
			"data": "0,6,38,116,256,478,798,1236,1808,2534,3430,4516,5808,7326,9086,11108,13408,16006,18918,22164,25760,29726,34078,38836,44016,49638,55718,62276,69328,76894,84990,93636,102848,112646,123046,134068,145728,158046,171038,184724,199120,214246,230118,246756,264176,282398,301438,321316,342048,363654",
			"name": "Incorrect version of A045949.",
			"comment": [
				"Arises from the formula in Problem 11 of Zhuravlev and Samovol (2012) paper, which incorrectly claims it to produce sequence A045949. Terms a(n) for n\u003c=3 match those of A045949 but afterwards the two sequences diverge. Nevertheless these sequences satisfy the same linear recurrent relation."
			],
			"link": [
				"V. Zhuravlev, P. Samovol, \u003ca href=\"http://kvant.ras.ru/pdf/2012/2012-01.pdf\"\u003eMathematical enigmas of king Solomon's stamp\u003c/a\u003e, Kvant 1 (2012), 40-43. (in Russian)",
				"\u003ca href=\"/index/Rec\"\u003eIndex entries for linear recurrences with constant coefficients\u003c/a\u003e, signature (3,-2,-2,3,-1)."
			],
			"formula": [
				"For even n, a(n) = n*(6*n^2+9*n-4)/2; for odd n, a(n) = (n+1)*(6*n^2+3*n+1)/2 - 4*n.",
				"For n\u003e=4, a(n) = 3*a(n-1) - 2*a(n-2) - 2*a(n-2) + 3*a(n-3) - a(n-4).",
				"a(n) = (1-(-1)^n-8*n+18*n^2+12*n^3)/4. G.f.: -2*x*(2*x+1)*(x^2-4*x-3) / ((x-1)^4*(x+1)). - _Colin Barker_, Sep 29 2013"
			],
			"program": [
				"(PARI) { a(n) = if(n%2, (n+1)*(6*n^2+3*n+1)/2- 4*n, n*(6*n^2+9*n-4)/2 ) }"
			],
			"keyword": "nonn,easy",
			"offset": "0,2",
			"author": "_Max Alekseyev_, Sep 26 2013",
			"references": 0,
			"revision": 14,
			"time": "2015-06-13T00:54:45-04:00",
			"created": "2013-09-26T21:06:18-04:00"
		}
	]
}