{
	"greeting": "Greetings from The On-Line Encyclopedia of Integer Sequences! http://oeis.org/",
	"query": "id:A229629",
	"count": 1,
	"start": 0,
	"results": [
		{
			"number": 229629,
			"data": "1,6,888,1808,2138,65246,268105",
			"name": "Numbers k such that k is in the middle of decimal expansion of k^k.",
			"comment": [
				"a(6) is greater than 50000.",
				"a(8) \u003e 600000. - _Giovanni Resta_, Oct 08 2013"
			],
			"example": [
				"6 is in the sequence because 6^6 = 46656, which includes a 6 in the middle.",
				"11 is not in the sequence, because even though the substring 11 appears twice in 11^11 = 285311670611, neither occurrence is precisely in the middle."
			],
			"mathematica": [
				"Do[a = IntegerDigits[n^n]; b = Length[a]; c = IntegerLength[n]; If[EvenQ[b - c] \u0026\u0026 FromDigits[Take[a, {(b - c)/2 + 1, (b + c)/2}]] == n, Print[n]], {n, 50000}]"
			],
			"program": [
				"(PARI) is(n)=my(d=digits(n),D=digits(n^n)); if((#d+#D)%2, return(0)); for(i=1,#d, if(d[i]!=D[#D/2-#d/2+i], return(0))); 1 \\\\ _Charles R Greathouse IV_, Jul 30 2016",
				"(Python)",
				"from itertools import islice",
				"def A229629(): # generator of terms",
				"    n = 1",
				"    while True:",
				"        s, sn = str(n**n), str(n)",
				"        l, ln = len(s), len(sn)",
				"        if (ln-l) % 2 == 0 and s[l//2-ln//2:l//2+(ln+1)//2] == sn: yield n",
				"        n += 1",
				"A229629_list = list(islice(A229629(),5)) # _Chai Wah Wu_, Nov 21 2021"
			],
			"xref": [
				"Cf. A033147, A049329, A131495."
			],
			"keyword": "nonn,base,nice,more",
			"offset": "1,2",
			"author": "_Farideh Firoozbakht_, Oct 04 2013",
			"ext": [
				"a(6)-a(7) from _Giovanni Resta_, Oct 08 2013"
			],
			"references": 2,
			"revision": 26,
			"time": "2021-11-21T13:36:01-05:00",
			"created": "2013-10-09T03:04:58-04:00"
		}
	]
}