{
	"greeting": "Greetings from The On-Line Encyclopedia of Integer Sequences! http://oeis.org/",
	"query": "id:A229825",
	"count": 1,
	"start": 0,
	"results": [
		{
			"number": 229825,
			"data": "0,1,1,-1,1,-1,-1,7,1,-21,-1,49,-1,-91,7,119,1,-57,-21,-179,-1,0,49,-2,-1,6,-91,-14,7,28,119,-42,1,28,-57,62,-21,-236,-179,332,-1,-2,0,4,49,-8,-2,14,-1,-14,6,-14,-91,90,-14,-174,7,96,28,396,119,2,-42",
			"name": "Even bisection gives sequence a itself, n-\u003ea(2*(10*n+k)-1) gives k-th differences of a for k=1..10 with a(n)=n for n\u003c2.",
			"link": [
				"Alois P. Heinz, \u003ca href=\"/A229825/b229825.txt\"\u003eTable of n, a(n) for n = 0..10000\u003c/a\u003e"
			],
			"formula": [
				"a(2*n) = a(n),",
				"a(2*(10*n+k)-1) = Sum_{j=0..k} (-1)^j * C(k,j) * a(n+k-j) for k=1..10."
			],
			"maple": [
				"a:= proc(n) option remember; local m, q, r;",
				"      m:= (irem(n, 20, 'q')+1)/2;",
				"      `if`(n\u003c2, n, `if`(irem(n, 2, 'r')=0, a(r),",
				"      add(a(q+m-j)*(-1)^j*binomial(m, j), j=0..m)))",
				"    end:",
				"seq(a(n), n=0..100);"
			],
			"mathematica": [
				"a[n_] := a[n] = Module[{m, q, r, q2, r2}, {q, r} = QuotientRemainder[n, 20]; m = (r+1)/2; If[n\u003c2, n, {q2, r2} = QuotientRemainder[n, 2]; If[r2 == 0, a[q2], Sum[a[q+m-j]*(-1)^j*Binomial[m, j], {j, 0, m}]]]]; Table[a[n], {n, 0, 100}] (* _Jean-François Alcover_, Mar 08 2017, translated from Maple *)"
			],
			"xref": [
				"Cf. A005590, A229817, A229818, A229819, A229820, A229821, A229822, A229823, A229824."
			],
			"keyword": "sign,eigen",
			"offset": "0,8",
			"author": "_Alois P. Heinz_, Sep 30 2013",
			"references": 9,
			"revision": 9,
			"time": "2017-03-08T04:26:38-05:00",
			"created": "2013-09-30T12:35:21-04:00"
		}
	]
}