{
	"greeting": "Greetings from The On-Line Encyclopedia of Integer Sequences! http://oeis.org/",
	"query": "id:A229959",
	"count": 1,
	"start": 0,
	"results": [
		{
			"number": 229959,
			"data": "1,5,2,1,65,17,3,5,1,13,82,37,346,798,10,1,41,257,72829155,65,4238,269,3,17,1,2501,626,2039422,2522,101,3303936030,2567,646,23358,26,1,5185,1297,577,13,1507985,145,15004500051,189987,445445,143733855087930,431211",
			"name": "a(n) is the number m such that f(sqrt(n)) is in the field Q(sqrt(m)), where f(x) is defined from the continued fraction x = [c(0), c(1), ... ] as [c(0)^2, c(1)^2, ...].",
			"example": [
				"f(sqrt(2)) = f([1,2,2,...]) = [1,4,4,...] = -1 + sqrt(5), so a(2) = 5."
			],
			"mathematica": [
				"$MaxExtraPrecision = Infinity;",
				"c[x_] := c[x] = FromContinuedFraction[ContinuedFraction[x]^2]",
				"Table[c[Sqrt[n]], {n, 1, 30}]",
				"f[y_] := Cases[y, x_^(1/2 | -1/2) :\u003e x, Infinity]",
				"t = Table[f[c[Sqrt[n]]], {n, 1, 80}]; Flatten[ t /. {} -\u003e 1]  (* _Peter J. C. Moses_, Oct 04 2013 *)"
			],
			"xref": [
				"Cf. A229956, A229957, A229958."
			],
			"keyword": "nonn",
			"offset": "1,2",
			"author": "_Clark Kimberling_, Oct 04 2013",
			"references": 3,
			"revision": 7,
			"time": "2014-11-16T06:43:49-05:00",
			"created": "2013-10-07T21:42:56-04:00"
		}
	]
}