{
	"greeting": "Greetings from The On-Line Encyclopedia of Integer Sequences! http://oeis.org/",
	"query": "id:A229426",
	"count": 1,
	"start": 0,
	"results": [
		{
			"number": 229426,
			"data": "23,175,1116,5700,24126,87648,281016,812352,2152643,5297329,12231874,26724490,55625600,110928984,212948248,395089316,710860767,1243965435,2122565928,3539121568,5777563514,9250018192,14545817232,22496156480",
			"name": "Number of nX6 0..2 arrays with horizontal differences mod 3 never 1, vertical differences mod 3 never -1, rows lexicographically nondecreasing, and columns lexicographically nonincreasing",
			"comment": [
				"Column 6 of A229428"
			],
			"link": [
				"R. H. Hardin, \u003ca href=\"/A229426/b229426.txt\"\u003eTable of n, a(n) for n = 1..210\u003c/a\u003e"
			],
			"formula": [
				"Empirical: a(n) = (1/11404800)*n^12 + (1/211200)*n^11 + (37/345600)*n^10 + (143/103680)*n^9 + (27977/2419200)*n^8 + (83399/1209600)*n^7 + (321133/1036800)*n^6 + (35291/34560)*n^5 + (66941/28800)*n^4 + (614843/129600)*n^3 + (149511/30800)*n^2 + (19627/3465)*n + 4"
			],
			"example": [
				"Some solutions for n=4",
				"..2..2..1..0..0..0....1..0..0..0..0..0....2..2..1..1..1..0....2..2..2..1..1..1",
				"..2..2..1..1..1..0....2..1..0..0..0..0....2..2..1..1..1..0....2..2..2..1..1..1",
				"..2..2..1..1..1..0....2..1..0..0..0..0....2..2..2..1..1..0....2..2..2..1..1..1",
				"..2..2..2..1..1..0....2..2..1..1..0..0....2..2..2..1..1..0....2..2..2..2..1..1"
			],
			"keyword": "nonn",
			"offset": "1,1",
			"author": "_R. H. Hardin_ Sep 22 2013",
			"references": 2,
			"revision": 4,
			"time": "2013-09-22T21:53:55-04:00",
			"created": "2013-09-22T21:53:55-04:00"
		}
	]
}