{
	"greeting": "Greetings from The On-Line Encyclopedia of Integer Sequences! http://oeis.org/",
	"query": "id:A229493",
	"count": 1,
	"start": 0,
	"results": [
		{
			"number": 229493,
			"data": "2,7,22,4,20,24,6,42,48,295,299,337,341,2096,2390,14675,16731,16735,102728,3,7,10,77,80,84,87,110,113,117,120,848,852,856,882,888,958,962,966,1291,1293,9328,9331,9335,9338,9376,9378,10583,10587,10591,14205,14207",
			"name": "Irregular triangle in which row n has numbers k such that prime(n) divides A001008(k), the numerator of the k-th harmonic number.",
			"comment": [
				"The length of each row is given in A092103."
			],
			"link": [
				"David W. Boyd, \u003ca href=\"http://projecteuclid.org/euclid.em/1048515811\"\u003eA p-adic study of the partial sums of the harmonic series\u003c/a\u003e, Experimental Math., Vol. 3 (1994), No. 4, 287-302. [WARNING: Table 2 contains miscalculations for p=19, 47, 59, ... - _Max Alekseyev_, Oct 23 2012]",
				"A. Eswarathasan and E. Levine, \u003ca href=\"http://dx.doi.org/10.1016/0012-365X(90)90234-9\"\u003ep-integral harmonic sums\u003c/a\u003e, Discrete Math. 91 (1991), 249-257.",
				"C. Sanna, \u003ca href=\"http://dx.doi.org/10.1016/j.jnt.2016.02.020\"\u003eOn the p-adic valuation of harmonic numbers\u003c/a\u003e, J. Number Theory 166 (2016), 41-46."
			],
			"example": [
				"The irregular triangle begins:",
				"2, 7, 22",
				"4, 20, 24",
				"6, 42, 48, 295, 299, 337, 341, 2096, 2390, 14675, 16731, 16735, 102728",
				"3, 7, 10, 77, 80, 84, 87, 110, 113, 117, 120, 848, 852, 856, 882, 888,..."
			],
			"mathematica": [
				"(* rows 2, 3, and part of 4 *) h = ParallelTable[Numerator[HarmonicNumber[i]], {i, 10000}]; Flatten[Table[Position[h, _?(Mod[#, p] == 0 \u0026)], {p, {3, 5, 7}}]]"
			],
			"xref": [
				"Cf. A092103 (number of k for which prime(n) divides A001008(k))."
			],
			"keyword": "nonn,tabf",
			"offset": "2,1",
			"author": "_T. D. Noe_ and _Arkadiusz Wesolowski_, Nov 11 2013",
			"references": 1,
			"revision": 9,
			"time": "2020-11-10T05:31:04-05:00",
			"created": "2013-11-11T13:49:40-05:00"
		}
	]
}