{
	"greeting": "Greetings from The On-Line Encyclopedia of Integer Sequences! http://oeis.org/",
	"query": "id:A229705",
	"count": 1,
	"start": 0,
	"results": [
		{
			"number": 229705,
			"data": "4,1,4,3,2,2,0,4,4,3,2,1,8,2,0,3,9,1,8,6,5,0,0,3,9,4,3,8,3,1,2,4,8,9,5,0,8,4,5,2,7,2,7,4,2,1,4,3,9,5,2,7,7,6,4,7,2,9,3,5,3,3,2,5,6,7,2,0,4,6,7,1,2,4,6,0,4,3,8,5,6,8,8,1,5,6,3,5,8,2,4,3,0,5,0,5,7,7,1,8,2,5,5,4,1",
			"name": "Decimal expansion of sum_{k\u003e=1} 1/binomial(3k,k).",
			"link": [
				"J. M. Borwein, R. Girgensohn, \u003ca href=\"http://dx.doi.org/10.1007/s00010-005-2774-x\"\u003eEvaluations of binomial series\u003c/a\u003e, Aequat. Math. 70 (2005) 25-36, Eq. (39)."
			],
			"example": [
				"0.4143220443218203918650039438312489508452..."
			],
			"mathematica": [
				"HypergeometricPFQ[{1, 3/2, 2}, {4/3, 5/3}, 4/27]/3 // RealDigits[#, 10, 105]\u0026 // First (* _Jean-François Alcover_, Feb 18 2014 *)",
				"Chop[N[(1/3174)*(552 + 2*(-110*69^(2/3)*(2/(-4761 + 997*Sqrt[69]))^(1/3) + 2^(2/3)*(69*(-4761 + 997*Sqrt[69]))^(1/3))* Log[997 + (1/3)*(26757728271/2 - (2973080919*Sqrt[69])/2)^(1/3) + (997*((1/2)*(9 + Sqrt[69]))^(1/3))/3^(2/3)] + (110*69^(2/3)*(1 - I*Sqrt[3])*(2/(-4761 + 997*Sqrt[69]))^(1/3) - 2^(2/3)*(1 + I*Sqrt[3])* (69*(-4761 + 997*Sqrt[69]))^(1/3))* Log[997 - (1/6)*(1 + I*Sqrt[3])*(26757728271/2 - (2973080919*Sqrt[69])/2)^(1/3) - (997*(1 - I*Sqrt[3])*((1/2)*(9 + Sqrt[69]))^(1/3))/(2*3^(2/3))] + (110*69^(2/3)*(1 + I*Sqrt[3])*(2/(-4761 + 997*Sqrt[69]))^(1/3) - 2^(2/3)*(1 - I*Sqrt[3])* (69*(-4761 + 997*Sqrt[69]))^(1/3))* Log[997 - (1/6)*(1 - I*Sqrt[3])*(26757728271/2 - (2973080919*Sqrt[69])/2)^(1/3) - (997*(1 + I*Sqrt[3])*((1/2)*(9 + Sqrt[69]))^(1/3))/(2*3^(2/3))]), 120]] (* _Vaclav Kotesovec_, Nov 14 2020 *)"
			],
			"xref": [
				"Cf. A073016."
			],
			"keyword": "nonn,cons",
			"offset": "0,1",
			"author": "_R. J. Mathar_, Sep 27 2013",
			"ext": [
				"More terms from _Jean-François Alcover_, Feb 18 2014"
			],
			"references": 1,
			"revision": 10,
			"time": "2020-11-14T05:10:19-05:00",
			"created": "2013-09-28T03:25:17-04:00"
		}
	]
}