{
	"greeting": "Greetings from The On-Line Encyclopedia of Integer Sequences! http://oeis.org/",
	"query": "id:A229918",
	"count": 1,
	"start": 0,
	"results": [
		{
			"number": 229918,
			"data": "2,5,29,961,1061329,1292942940721,1919252026700932310361841,4228845073866683906973727166841825390255402119281,20530699713334053449042480498993532340748805163335394099953181550394504111546117863646046977966961",
			"name": "Numerators of convergents of self-generating continued fraction with first term 2.",
			"comment": [
				"For x \u003e 0, define c(x,0) = x and c(x,n) = [c(x,0), ..., c(x,n-1)].  We call f(x) the self-generating continued fraction with first term x.      See A229779."
			],
			"link": [
				"Vincenzo Librandi, \u003ca href=\"/A229918/b229918.txt\"\u003eTable of n, a(n) for n = 0..11\u003c/a\u003e"
			],
			"example": [
				"The first four convergents are 2/1, 5/2, 29/12, 961/396."
			],
			"mathematica": [
				"z = 10; c[x_, 0] := x; c[x_, n_] := c[x, n] = FromContinuedFraction[Table[c[x, k], {k, 0, n - 1}]]; x = 2; t = Table[c[x, k], {k, 1, z}];",
				"Numerator[t]   (* A229918 *)",
				"Denominator[t] (* A229919 *)"
			],
			"xref": [
				"Cf. A229779, A229919, A229920."
			],
			"keyword": "nonn,frac",
			"offset": "0,1",
			"author": "_Clark Kimberling_, Oct 03 2013",
			"ext": [
				"a(8) corrected by _Vincenzo Librandi_, Oct 13 2013"
			],
			"references": 2,
			"revision": 12,
			"time": "2013-10-13T10:06:07-04:00",
			"created": "2013-10-06T14:04:19-04:00"
		}
	]
}