{
	"greeting": "Greetings from The On-Line Encyclopedia of Integer Sequences! http://oeis.org/",
	"query": "id:A229831",
	"count": 1,
	"start": 0,
	"results": [
		{
			"number": 229831,
			"data": "7,13,13,17",
			"name": "Largest prime p such that some elliptic curve over an extension of the rationals of degree n has a point of finite order p.",
			"comment": [
				"a(1) = 7 is due to Mazur; a(2) = 13 to Kamienny, Kenku, and Momose; a(3) = 13 to Parent; and a(4) = 17 to Kamienny, Stein, and Stoll. See Derickx 2011.",
				"For each n = 1..32, an explicit elliptic curve with a point of order p(n) has been found over a number field of degree n where p(n) = 7, 13, 13, 17, 19, 37, 23, 23, 31, 37, 31, 43, 37, 43, 43, 37, 43, 43, 43, 61, 47, 67, 47, 73, 53, 79, 61, 53, 53, 73, 61, 97.  So p(n) is a lower bound for a(n). I suspect most of them are sharp but that would be difficult to prove. - _Mark van Hoeij_, May 21 2014"
			],
			"link": [
				"Maarten Derickx, \u003ca href=\"http://wstein.org/wiki/attachments/seminar(2f)nt(2f)20110318/slides.pdf\"\u003eTorsion points on elliptic curves over number fields of small degree\u003c/a\u003e, UW Number Theory Seminar, 2011",
				"Mark van Hoeij, \u003ca href=\"http://arxiv.org/abs/1202.4355\"\u003eLow Degree Places on the Modular Curve X1(N)\u003c/a\u003e",
				"Wikipedia, \u003ca href=\"http://en.wikipedia.org/wiki/Mazur%27s_torsion_theorem\"\u003eMazur's torsion theorem\u003c/a\u003e"
			],
			"example": [
				"Mazur proved that elliptic curves over the rationals can have p-torsion only for p = 2, 3, 5, 7, so a(1) = 7."
			],
			"xref": [
				"Cf. A221362."
			],
			"keyword": "nonn,more,hard,bref",
			"offset": "1,1",
			"author": "_Jonathan Sondow_, Oct 12 2013",
			"references": 0,
			"revision": 19,
			"time": "2014-05-22T09:38:02-04:00",
			"created": "2013-10-13T10:07:02-04:00"
		}
	]
}