{
	"greeting": "Greetings from The On-Line Encyclopedia of Integer Sequences! http://oeis.org/",
	"query": "id:A229227",
	"count": 1,
	"start": 0,
	"results": [
		{
			"number": 229227,
			"data": "1,1,2,5,15,52,203,877,4140,21147,115975,678569,4213584,27644267,190897305,1382935569,10479884654,82861996310,682044632178,5832378929502,51720008131148,474821737584174,4506150050048604,44145239041717738,445876518513670356",
			"name": "The partition function G(n,10).",
			"comment": [
				"Number G(n,10) of set partitions of {1,...,n} into sets of size at most 10."
			],
			"link": [
				"Alois P. Heinz, \u003ca href=\"/A229227/b229227.txt\"\u003eTable of n, a(n) for n = 0..500\u003c/a\u003e"
			],
			"formula": [
				"E.g.f.: exp(Sum_{j=1..10} x^j/j!)."
			],
			"maple": [
				"G:= proc(n, k) option remember; local j; if k\u003en then G(n, n)",
				"      elif n=0 then 1 elif k\u003c1 then 0 else G(n-k, k);",
				"      for j from k-1 to 1 by -1 do %*(n-j)/j +G(n-j, k) od; % fi",
				"    end:",
				"a:= n-\u003e G(n, 10):",
				"seq(a(n), n=0..30);",
				"# second Maple program:",
				"a:= proc(n) option remember; `if`(n=0, 1, add(",
				"       a(n-i)*binomial(n-1, i-1), i=1..min(n, 10)))",
				"    end:",
				"seq(a(n), n=0..30);  # _Alois P. Heinz_, Sep 22 2016"
			],
			"mathematica": [
				"CoefficientList[Exp[Sum[x^j/j!, {j, 1, 10}]] + O[x]^25, x]*Range[0, 24]! (* _Jean-François Alcover_, May 21 2018 *)"
			],
			"xref": [
				"Column k=10 of A229223.",
				"Cf. A276930."
			],
			"keyword": "nonn",
			"offset": "0,3",
			"author": "_Alois P. Heinz_, Sep 16 2013",
			"references": 3,
			"revision": 10,
			"time": "2018-05-21T15:23:59-04:00",
			"created": "2013-09-16T21:14:13-04:00"
		}
	]
}