{
	"greeting": "Greetings from The On-Line Encyclopedia of Integer Sequences! http://oeis.org/",
	"query": "id:A230555",
	"count": 1,
	"start": 0,
	"results": [
		{
			"number": 230555,
			"data": "1,1,2,4,10,25,66,173,460,1218,3240,8602,22878,60794,161668,429752,1142758,3038173,8078606,21479469,57113888",
			"name": "Number of involutions avoiding 3421.",
			"link": [
				"Miklós Bóna, Cheyne Homberger, Jay Pantone, and Vince Vatter, \u003ca href=\"http://arxiv.org/abs/1310.7003\"\u003ePattern-avoiding involutions: exact and asymptotic enumeration\u003c/a\u003e, arxiv:1310.7003, 2013."
			],
			"example": [
				"Of the 26 involutions of length 5, only 45312 contains the pattern 3421, so a(5) = 25."
			],
			"xref": [
				"Cf. A000085, A001006, A121704, A230551-A230556."
			],
			"keyword": "nonn",
			"offset": "0,3",
			"author": "_Cheyne Homberger_, Oct 23 2013",
			"references": 1,
			"revision": 12,
			"time": "2013-10-28T13:30:31-04:00",
			"created": "2013-10-28T13:30:31-04:00"
		}
	]
}