{
	"greeting": "Greetings from The On-Line Encyclopedia of Integer Sequences! http://oeis.org/",
	"query": "id:A230095",
	"count": 1,
	"start": 0,
	"results": [
		{
			"number": 230095,
			"data": "14,21,22,26,35,38,55,62,69,74,82,87,91,93,94,115,118,122,133,134,143,145,146,155,158,161,185,194,203,205,206,213,214,217,218,247,253,254,259,262,265,274,295,299,301,302,309,314,319,321,327,334,339,341,346",
			"name": "Odious numbers (A000069) that are the product of exactly two distinct primes.",
			"link": [
				"Charles R Greathouse IV, \u003ca href=\"/A230095/b230095.txt\"\u003eTable of n, a(n) for n = 1..10000\u003c/a\u003e",
				"E. Fouvry, C. Mauduit, \u003ca href=\"http://dx.doi.org/10.1007/BF01444238\"\u003eSommes des chiffres et nombres presque premiers\u003c/a\u003e, (French) [Sums of digits and almost primes] Math. Ann. 305 (1996), no. 3, 571--599. MR1397437 (97k:11029)."
			],
			"program": [
				"(PARI) isodious(n)=b = binary(n); sum(i=1, #b, b[i]==1) % 2;",
				"isok(n) = isodious(n) \u0026\u0026 (bigomega(n)==2) \u0026\u0026 (omega(n)==2); \\\\ _Michel Marcus_, Oct 12 2013",
				"(PARI) list(lim)=my(v=List()); forprime(p=2,lim\\2, forprime(q=2,min(lim\\p,p-1), if(hammingweight(p*q)%2, listput(v,p*q)))); Set(v) \\\\ _Charles R Greathouse IV_, Jan 31 2017"
			],
			"xref": [
				"Cf. A000069, A027697, A130593."
			],
			"keyword": "nonn,base",
			"offset": "1,1",
			"author": "_N. J. A. Sloane_, Oct 11 2013",
			"ext": [
				"More terms from _Michel Marcus_, Oct 12 2013"
			],
			"references": 3,
			"revision": 16,
			"time": "2018-04-18T02:39:11-04:00",
			"created": "2013-10-11T12:17:08-04:00"
		}
	]
}