{
	"greeting": "Greetings from The On-Line Encyclopedia of Integer Sequences! http://oeis.org/",
	"query": "id:A230099",
	"count": 1,
	"start": 0,
	"results": [
		{
			"number": 230099,
			"data": "0,2,4,6,8,10,12,14,16,18,10,12,14,16,18,20,22,24,26,28,20,23,26,29,32,35,38,41,44,47,30,34,38,42,46,50,54,58,62,66,40,45,50,55,60,65,70,75,80,85,50,56,62,68,74,80,86,92,98,104,60,67,74,81,88,95,102,109,116,123,70,78,86,94,102,110,118,126",
			"name": "a(n) = n + (product of digits of n).",
			"comment": [
				"A230099, A063114, A098736, A230101 are analogs of A092391 and A062028."
			],
			"link": [
				"Reinhard Zumkeller, \u003ca href=\"/A230099/b230099.txt\"\u003eTable of n, a(n) for n = 0..10000\u003c/a\u003e",
				"\u003ca href=\"/index/Coi#Colombian\"\u003eIndex entries for Colombian or self numbers and related sequences\u003c/a\u003e"
			],
			"maple": [
				"with transforms; [seq(n+digprod(n), n=0..200)];"
			],
			"program": [
				"(Haskell)",
				"a230099 n = a007954 n + n  -- _Reinhard Zumkeller_, Oct 13 2013",
				"(PARI) a(n) = if (n, n + vecprod(digits(n)), 0); \\\\ _Michel Marcus_, Dec 18 2018"
			],
			"xref": [
				"Cf. A007954, A092391, A062028, A004207, A230093, A003052, A176995.",
				"Cf. also A063114, A098736, A230101, A230103, A230104, A230105, A062028, A230102, A063108."
			],
			"keyword": "nonn,base,look",
			"offset": "0,2",
			"author": "_N. J. A. Sloane_, Oct 12 2013",
			"references": 11,
			"revision": 23,
			"time": "2018-12-20T03:22:28-05:00",
			"created": "2013-10-12T14:35:47-04:00"
		}
	]
}