{
	"greeting": "Greetings from The On-Line Encyclopedia of Integer Sequences! http://oeis.org/",
	"query": "id:A230094",
	"count": 1,
	"start": 0,
	"results": [
		{
			"number": 230094,
			"data": "101,103,105,107,109,111,113,115,117,202,204,206,208,210,212,214,216,218,303,305,307,309,311,313,315,317,319,404,406,408,410,412,414,416,418,420,505,507,509,511,513,515,517,519,521,606,608,610,612,614,616,618,620,622,707,709,711,713,715,717,719,721,723,808",
			"name": "Numbers that can be expressed as (m + sum of digits of m) in exactly two ways.",
			"comment": [
				"Numbers n such that A230093(n) = 2.",
				"The sequence \"Numbers n such that A230093(n) = 3\" starts at 10^13+1 (see A230092). This implies that changing the definition of A230094 to \"Numbers n such that A230093(n) \u003e= 2\" (the so-called \"junction numbers\") would produce a sequence which agrees with A230094 up to 10^13.",
				"Makowski shows that the sequence of junction numbers is infinite."
			],
			"reference": [
				"Joshi, V. S. A note on self-numbers. Volume dedicated to the memory of V. Ramaswami Aiyar. Math. Student 39 (1971), 327--328 (1972). MR0330032 (48 #8371)",
				"D. R. Kaprekar, Puzzles of the Self-Numbers. 311 Devlali Camp, Devlali, India, 1959.",
				"D. R. Kaprekar, The Mathematics of the New Self Numbers, Privately Printed, 311 Devlali Camp, Devlali, India, 1963.",
				"Makowski, Andrzej. On Kaprekar's \"junction numbers''. Math. Student 34 1966 77 (1967). MR0223292 (36 #6340)",
				"Narasinga Rao, A. On a technique for obtaining numbers with a multiplicity of generators. Math. Student 34 1966 79--84 (1967). MR0229573 (37 #5147)"
			],
			"link": [
				"Reinhard Zumkeller, \u003ca href=\"/A230094/b230094.txt\"\u003eTable of n, a(n) for n = 1..10000\u003c/a\u003e",
				"Max A. Alekseyev, Donovan Johnson and N. J. A. Sloane, \u003ca href=\"http://neilsloane.com/doc/colombian12302021.pdf\"\u003eOn Kaprekar's Junction Numbers\u003c/a\u003e, Preprint, 2021.",
				"Santanu Bandyopadhyay, \u003ca href=\"https://www.ese.iitb.ac.in/~santanu/RM8.pdf\"\u003eSelf-Number\u003c/a\u003e, Indian Institute of Technology Bombay (Mumbai, India, 2020).",
				"Santanu Bandyopadhyay, \u003ca href=\"/A003052/a003052_3.pdf\"\u003eSelf-Number\u003c/a\u003e, Indian Institute of Technology Bombay (Mumbai, India, 2020). [Local copy]",
				"David A. Corneth, \u003ca href=\"/A230094/a230094.gp.txt\"\u003eExamples\u003c/a\u003e",
				"D. R. Kaprekar, \u003ca href=\"/A003052/a003052_2.pdf\"\u003eThe Mathematics of the New Self Numbers\u003c/a\u003e [annotated and scanned]",
				"\u003ca href=\"/index/Coi#Colombian\"\u003eIndex entries for Colombian or self numbers and related sequences\u003c/a\u003e"
			],
			"example": [
				"a(1) = 101 = 91 + (9+1) = 100 + (1+0+0);",
				"a(10) = 202 = 191 + (1+9+1) = 200 + (2+0+0);",
				"a(100) = 1106 = 1093 + (1+0+9+3) = 1102 + (1+1+0+2);",
				"a(1000) = 10312 = 10295 + (1+0+2+9+5) = 10304 + (1+0+3+0+4)."
			],
			"maple": [
				"For Maple code see A230093."
			],
			"mathematica": [
				"Position[#, 2][[All, 1]] - 1 \u0026@ Sort[Join[#2, Map[{#, 0} \u0026, Complement[Range[#1], #2[[All, 1]]]] ] ][[All, -1]] \u0026 @@ {#, Tally@ Array[# + Total@ IntegerDigits@ # \u0026, # + 1, 0]} \u0026[10^3] (* _Michael De Vlieger_, Oct 28 2020, after _Harvey P. Dale_ at A230093 *)"
			],
			"program": [
				"(Haskell)",
				"a230094 n = a230094_list !! (n-1)",
				"a230094_list = filter ((== 2) . a230093) [0..]",
				"-- _Reinhard Zumkeller_, Oct 11 2013"
			],
			"xref": [
				"Cf. A003052, A007953, A004207, A048528, A062028, A176995, A225793, A227915, A230092, A230093."
			],
			"keyword": "nonn,base",
			"offset": "1,1",
			"author": "_N. J. A. Sloane_, Oct 10 2013, Oct 24 2013",
			"references": 6,
			"revision": 66,
			"time": "2021-12-31T17:31:35-05:00",
			"created": "2013-10-10T23:42:17-04:00"
		}
	]
}