{
	"greeting": "Greetings from The On-Line Encyclopedia of Integer Sequences! http://oeis.org/",
	"query": "id:A230302",
	"count": 1,
	"start": 0,
	"results": [
		{
			"number": 230302,
			"data": "2,7,12,136,260,4233,8206,87112285931760246646623899502532662136846,174224571863520493293247799005065324265486,1852673427797059126777135760139006525739432040582009271277945243629142736371850,3705346855594118253554271520278013051304639509300498049262642688253220148478214",
			"name": "Let M(1)=0 and for n \u003e= 2, let B(n)=M(ceiling(n/2))+M(floor(n/2))+2, M(n)=2^B(n)+M(floor(n/2))+1; sequence gives B(n).",
			"comment": [
				"a(n) is the leading power of 2 in M(n) = A230303(n)."
			],
			"link": [
				"Max Alekseyev, \u003ca href=\"/A230302/a230302_1.txt\"\u003eTable giving values of n and an expression for a(n) for n=2..100\u003c/a\u003e",
				"Max A. Alekseyev, Donovan Johnson and N. J. A. Sloane, \u003ca href=\"http://neilsloane.com/doc/colombian12302021.pdf\"\u003eOn Kaprekar's Junction Numbers\u003c/a\u003e, Preprint, 2021.",
				"\u003ca href=\"/index/Coi#Colombian\"\u003eIndex entries for Colombian or self numbers and related sequences\u003c/a\u003e"
			],
			"example": [
				"The terms after 8206 are 2^136+4110, 2^137+14, 2^260+2^136+136, 2^261+262, 2^4233+2^260+260, ... (see also A230303)."
			],
			"maple": [
				"f:=proc(n) option remember; local B, M;",
				"if n\u003c=1 then RETURN([0,0]);",
				"else",
				"if (n mod 2) = 0 then B:=2*f(n/2)[2]+2;",
				"   else B:=f((n+1)/2)[2]+f((n-1)/2)[2]+2; fi;",
				"M:=2^B+f(floor(n/2))[2]+1; RETURN([B,M]); fi;",
				"end proc;",
				"[seq(f(n)[1],n=1..7)];"
			],
			"xref": [
				"Cf. A228085, A230093, A230303 (for M(n))."
			],
			"keyword": "nonn",
			"offset": "2,1",
			"author": "_N. J. A. Sloane_, Oct 24 2013",
			"ext": [
				"a(11) corrected, expressions for a(2)-a(100) added by _Max Alekseyev_, Nov 02 2013"
			],
			"references": 2,
			"revision": 49,
			"time": "2021-12-31T17:31:35-05:00",
			"created": "2013-10-24T11:31:24-04:00"
		}
	]
}