{
	"greeting": "Greetings from The On-Line Encyclopedia of Integer Sequences! http://oeis.org/",
	"query": "id:A230459",
	"count": 1,
	"start": 0,
	"results": [
		{
			"number": 230459,
			"data": "2,7,71,661,733,2371,3529,13499,46549,98101,163517,197933,1924217,3322441,5370731",
			"name": "Ordered by increasing m with k \u003c m, a(n) is the n-th record value of gcd(k!+1, m!+1).",
			"comment": [
				"The pairs (m,k) generating records are (1,0), (6,3), (9,7), (17,8), (89,51), (174,144), (349,228), (422,81), (650,406), (1415,1718), (1697,161), (1622,773), (1884,1219), (7003,2031) and (17057,660).",
				"Heuristics in concert with a database of 'small' (less than, say, 10^12) prime factors of numbers of this kind would generate faster accurate results with near certainty, while any truly proving program is doomed to be relatively slow by comparison (and see following on a(15)).",
				"Note: An auxiliary program employed a limit of 10^8--in lieu of a database--to generate the likely-but-not-certain value of a(15) shown last."
			],
			"example": [
				"a(1)=2, corresponding to m=1 and k=0.  7 is the first value other than 1 to be the greatest common divisor of two different numbers k!+1 and m!+1, where m is increasing and k is allowed to increase to m-1 for a given m (for m=6 and k=3, m!+1=7*103 and k!+1=7); so that a(2)=7."
			],
			"program": [
				"(PARI)",
				"{",
				"\\\\ The constant L here is arbitrary.\\\\",
				"\\\\ This does not generate a(1).\\\\",
				"rec=2;L=10000;F=vector(L);n=2;",
				"for(k=1,L,n--;n*=k;n++;F[k]=n);",
				"for(m=2,L,",
				"  for(k=1,m-1,",
				"    a=gcd(F[m],F[k]);if(a\u003erec,",
				"      rec=a;print1(a\": \"m\",\"k\"\\n\"))))",
				"}"
			],
			"xref": [
				"Cf. A002583, A002981, A038507, A051301."
			],
			"keyword": "nonn,more,changed",
			"offset": "1,1",
			"author": "_James G. Merickel_, Oct 19 2013",
			"references": 1,
			"revision": 31,
			"time": "2022-01-07T19:32:38-05:00",
			"created": "2014-01-20T16:23:26-05:00"
		}
	]
}