{
	"greeting": "Greetings from The On-Line Encyclopedia of Integer Sequences! http://oeis.org/",
	"query": "id:A230799",
	"count": 1,
	"start": 0,
	"results": [
		{
			"number": 230799,
			"data": "2,1,1,1,1,2,1,1,1,2,1,2,1,2,2,1,1,2,1,2,2,2,1,2,1,2,1,2,1,2,1,1,2,2,2,2,1,2,2,2,1,2,1,2,2,2,1,2,1,2,2,2,1,2,2,2,2,2,1,2,1,2,2,1,2,2,1,2,2,2,1,2,1,2,2,2,2,2,1,2,1,2,1,2,2,2",
			"name": "The number of distinct nonzero coefficients in the n-th cyclotomic polynomial.",
			"comment": [
				"The sum of the coefficients in the n-th cyclotomic polynomial is given by A020500.",
				"The first occurrence of 4 in this sequence is a(330)."
			],
			"link": [
				"Colin Barker, \u003ca href=\"/A230799/b230799.txt\"\u003eTable of n, a(n) for n = 1..1000\u003c/a\u003e"
			],
			"example": [
				"a(12)=2 because the distinct nonzero coefficients of the 12th cyclotomic polynomial, x^4 - x^2 + 1, are 1 and -1."
			],
			"maple": [
				"A230799 := n -\u003e nops({coeffs(numtheory[cyclotomic](n,z),z)}):",
				"seq(A230799(n), n=1..86);  # _Peter Luschny_, Oct 30 2013"
			],
			"mathematica": [
				"a[n_] := List @@ Cyclotomic[n, x] /. x -\u003e 1 // Union // Length;",
				"Array[a, 100] (* _Jean-François Alcover_, Jul 08 2019 *)"
			],
			"program": [
				"(PARI) a(n) = v=vecsort(Vec(polcyclo(n)), , 8); if(has_zero(v), #v-1, #v)",
				"has_zero(v) = for(i=1, #v, if(v[i]==0, return(1))); 0",
				"(PARI) {a(n) = if( n\u003c1, 0, #setminus( Set( Vec( polcyclo(n))), [0]))};",
				"/* _Michael Somos_, Mar 27 2014 */"
			],
			"xref": [
				"Cf. A020500, A230798."
			],
			"keyword": "nonn",
			"offset": "1,1",
			"author": "_Colin Barker_, Oct 30 2013",
			"references": 2,
			"revision": 27,
			"time": "2019-07-08T10:17:58-04:00",
			"created": "2013-10-31T04:08:21-04:00"
		}
	]
}