{
	"greeting": "Greetings from The On-Line Encyclopedia of Integer Sequences! http://oeis.org/",
	"query": "id:A230976",
	"count": 1,
	"start": 0,
	"results": [
		{
			"number": 230976,
			"data": "34944,6885376,916182800,173342326336,35475345905904,7053147648320400,1388708377137781120,274182072337500339600,54206239527447927252960,10714454616856090049527824,2117614541783719562279014352",
			"name": "Number of (n+2)X(7+2) 0..3 arrays x(i,j) with each element diagonally or antidiagonally next to at least one element with value (x(i,j)+1) mod 4, no adjacent elements equal, and upper left element zero",
			"comment": [
				"Column 7 of A230977"
			],
			"link": [
				"R. H. Hardin, \u003ca href=\"/A230976/b230976.txt\"\u003eTable of n, a(n) for n = 1..210\u003c/a\u003e"
			],
			"example": [
				"Some solutions for n=1",
				"..0..2..2..0..2..2..0..2..2....0..0..2..0..1..0..1..3..3",
				"..3..1..1..3..3..1..1..3..3....1..1..3..3..1..2..2..0..0",
				"..0..0..0..2..0..2..0..0..2....0..2..0..2..1..0..3..1..3"
			],
			"keyword": "nonn",
			"offset": "1,1",
			"author": "_R. H. Hardin_, Nov 02 2013",
			"references": 1,
			"revision": 4,
			"time": "2013-11-02T06:29:35-04:00",
			"created": "2013-11-02T06:29:35-04:00"
		}
	]
}