{
	"greeting": "Greetings from The On-Line Encyclopedia of Integer Sequences! http://oeis.org/",
	"query": "id:A231075",
	"count": 1,
	"start": 0,
	"results": [
		{
			"number": 231075,
			"data": "2,3,7,23,37,79,83,97,101,131,149,181,191,269,281,307,337,379,383,397,419,461,541,577,601,617,631,659,691,727,733,787,797,823,827,883,887,911,919,941,977,1013,1019,1051,1061,1129,1151,1153,1163,1171",
			"name": "Primes with a prime number of letters (A005589) in their (American) English name.",
			"comment": [
				"Spaces and hyphens don't count, as in A005589. See A163648 and A231073 for the analogs counting syllables resp. words.",
				"Sequence A072686 is the British English analog, which in particular uses the additional \"and\": It features \"one hundred and nine\", but not \"one hundred and one\". In the present sequence, we do have \"one hundred one\" but not \"one hundred nine\"."
			],
			"link": [
				"\u003ca href=\"/index/Lc#letters\"\u003eIndex entries for sequences related to number of letters in n\u003c/a\u003e"
			],
			"program": [
				"(PARI) is(p)=isprime(A005589(p))\u0026\u0026isprime(p)",
				"(PARI) forprime(p=1,1200,isprime(A005589(p))\u0026\u0026print1(p\",\"))"
			],
			"keyword": "nonn,word",
			"offset": "1,1",
			"author": "_M. F. Hasler_, Nov 03 2013",
			"references": 3,
			"revision": 9,
			"time": "2013-11-05T06:28:45-05:00",
			"created": "2013-11-05T06:28:45-05:00"
		}
	]
}