{
	"greeting": "Greetings from The On-Line Encyclopedia of Integer Sequences! http://oeis.org/",
	"query": "id:A231827",
	"count": 1,
	"start": 0,
	"results": [
		{
			"number": 231827,
			"data": "144,138852,128269829,114066364087,101271407955316,89898324366354186,79797684859445363871,70831430430134151721833,62872486092172191075739307,55807813117284440069439544084,49536955255745171418608535533833",
			"name": "Number of nX7 0..2 arrays with no element having a strict majority of its horizontal, vertical and antidiagonal neighbors equal to itself plus one mod 3, with upper left element zero (rock paper and scissors drawn positions)",
			"comment": [
				"Column 7 of A231828"
			],
			"link": [
				"R. H. Hardin, \u003ca href=\"/A231827/b231827.txt\"\u003eTable of n, a(n) for n = 1..14\u003c/a\u003e"
			],
			"example": [
				"Some solutions for n=2",
				"..0..0..1..2..1..2..2....0..1..0..1..1..1..2....0..0..1..1..2..2..1",
				"..1..0..2..1..0..2..2....0..0..2..2..2..0..2....0..1..1..2..0..1..1"
			],
			"keyword": "nonn",
			"offset": "1,1",
			"author": "_R. H. Hardin_, Nov 14 2013",
			"references": 1,
			"revision": 4,
			"time": "2013-11-14T05:15:13-05:00",
			"created": "2013-11-14T05:15:13-05:00"
		}
	]
}