{
	"greeting": "Greetings from The On-Line Encyclopedia of Integer Sequences! http://oeis.org/",
	"query": "id:A231638",
	"count": 1,
	"start": 0,
	"results": [
		{
			"number": 231638,
			"data": "8,124,5110,193596,7176194,266730604,9902703284,367678630271,13651615789060,506869469707295,18819548834677196,698750427030584024,25943883731772910738,963269692028936919099,35765211805260137301887",
			"name": "Number of nX4 0..2 arrays with no element having a strict majority of its horizontal, vertical, diagonal and antidiagonal neighbors equal to itself plus one mod 3, with upper left element zero (rock paper and scissors drawn positions)",
			"comment": [
				"Column 4 of A231641"
			],
			"link": [
				"R. H. Hardin, \u003ca href=\"/A231638/b231638.txt\"\u003eTable of n, a(n) for n = 1..210\u003c/a\u003e"
			],
			"example": [
				"Some solutions for n=4",
				"..0..0..0..1....0..0..1..1....0..0..1..1....0..0..0..2....0..1..0..1",
				"..2..2..0..0....1..0..0..0....0..2..1..1....1..0..2..1....0..0..0..2",
				"..2..2..1..0....1..1..2..0....1..1..0..1....2..1..1..1....0..0..1..2",
				"..0..2..0..0....2..1..1..2....1..2..2..0....1..1..1..1....1..0..0..1"
			],
			"keyword": "nonn",
			"offset": "1,1",
			"author": "_R. H. Hardin_, Nov 12 2013",
			"references": 1,
			"revision": 4,
			"time": "2013-11-12T09:32:07-05:00",
			"created": "2013-11-12T09:32:07-05:00"
		}
	]
}