{
	"greeting": "Greetings from The On-Line Encyclopedia of Integer Sequences! http://oeis.org/",
	"query": "id:A231330",
	"count": 1,
	"start": 0,
	"results": [
		{
			"number": 231330,
			"data": "0,1,1,3,2,4,8,3,5,7,9,11,21,5,7,11,13,17,19,23,25,29,55,8,10,12,16,18,22,24,26,30,32,34,36,44,46,50,60,64,66,76,144,13,17,19,23,25,29,31,35,37,41,43,47,49,53,55,61,65,67,71,73,77,79,83,89,95",
			"name": "Table of distinct terms in rows of triangle A230871, in natural order.",
			"comment": [
				"A230872 gives the union of all rows;",
				"A231335(n) = number of Fibonacci numbers in row n."
			],
			"link": [
				"Reinhard Zumkeller, \u003ca href=\"/A231330/b231330.txt\"\u003eRows n = 0..14 of triangle, flattened\u003c/a\u003e"
			],
			"example": [
				"Initial rows:",
				".  0:  0;",
				".  1:  1;",
				".  2:  1,3;",
				".  3:  2,4,8                     from a230871(3,*) = [2,2,4,8];",
				".  4:  3,5,7,9,11,21             from a230871(4,*) = [3,5,3,5,7,9,11,21];",
				".  5:  5,7,11,13,17,19,23,25,29,55;",
				".  6:  8,10,12,16,18,22,24,26,30,32,34,36,44,46,50,60,64,66,76,144."
			],
			"program": [
				"(Haskell)",
				"import Data.List (sort, nub)",
				"a231330 n k = a231330_tabf !! n !! k",
				"a231330_row n = a231330_tabf !! n",
				"a231330_tabf = map (sort . nub) a230871_tabf"
			],
			"xref": [
				"Cf. A231331 (row lengths), A000045 (left edge), A001906 (right edge)."
			],
			"keyword": "nonn,look,tabf",
			"offset": "0,4",
			"author": "_Reinhard Zumkeller_, Nov 07 2013",
			"references": 5,
			"revision": 15,
			"time": "2016-04-28T12:40:48-04:00",
			"created": "2013-11-08T03:39:43-05:00"
		}
	]
}