{
	"greeting": "Greetings from The On-Line Encyclopedia of Integer Sequences! http://oeis.org/",
	"query": "id:A231302",
	"count": 1,
	"start": 0,
	"results": [
		{
			"number": 231302,
			"data": "1,2,2,4,5,4,12,16,16,12,32,51,69,51,32,92,174,301,301,174,92,264,617,1414,1934,1414,617,264,756,2223,6850,12150,12150,6850,2223,756,2176,8051,33316,78028,103456,78028,33316,8051,2176,6252,29220,162796,503290",
			"name": "T(n,k)=Number of (n+1)X(k+1) 0..2 arrays with no element unequal to a strict majority of its horizontal, vertical and antidiagonal neighbors, with values 0..2 introduced in row major order",
			"comment": [
				"Table starts",
				"....1......2.......4........12.........32...........92...........264",
				"....2......5......16........51........174..........617..........2223",
				"....4.....16......69.......301.......1414.........6850.........33316",
				"...12.....51.....301......1934......12150........78028........503290",
				"...32....174....1414.....12150.....103456.......894318.......7795257",
				"...92....617....6850.....78028.....894318.....10359556.....122696560",
				"..264...2223...33316....503290....7795257....122696560....1965819189",
				"..756...8051..162796...3300161...68850102...1465475351...31830949407",
				".2176..29220..797293..21613114..608914401..17557687250..517419330480",
				".6252.106109.3906788.142211597.5409898598.211100299699.8451367403478"
			],
			"link": [
				"R. H. Hardin, \u003ca href=\"/A231302/b231302.txt\"\u003eTable of n, a(n) for n = 1..180\u003c/a\u003e"
			],
			"formula": [
				"Empirical for column k:",
				"k=1: a(n) = 2*a(n-1) +3*a(n-2) -4*a(n-4)",
				"k=2: [order 8] for n\u003e9",
				"k=3: [order 14] for n\u003e16",
				"k=4: [order 44] for n\u003e48"
			],
			"example": [
				"Some solutions for n=4 k=4",
				"..0..1..1..1..1....0..0..0..0..0....0..0..1..1..1....0..1..1..1..1",
				"..0..1..1..1..0....0..1..1..0..0....0..0..1..1..1....0..1..1..1..0",
				"..0..0..0..0..0....1..1..1..0..0....0..0..1..1..1....0..1..1..0..0",
				"..0..0..0..1..1....1..1..2..2..2....0..0..0..1..1....0..0..0..0..0",
				"..0..0..1..1..1....1..2..2..2..2....0..0..0..1..1....0..0..0..0..0"
			],
			"keyword": "nonn,tabl",
			"offset": "1,2",
			"author": "_R. H. Hardin_, Nov 07 2013",
			"references": 9,
			"revision": 4,
			"time": "2013-11-07T05:17:13-05:00",
			"created": "2013-11-07T05:17:13-05:00"
		}
	]
}