{
	"greeting": "Greetings from The On-Line Encyclopedia of Integer Sequences! http://oeis.org/",
	"query": "id:A231042",
	"count": 1,
	"start": 0,
	"results": [
		{
			"number": 231042,
			"data": "0,12,2988,375620,36327118,10140483166,1844073908022,383056487876288,74556370297711856,14997676327239628696",
			"name": "Number of 6Xn 0..2 arrays x(i,j) with each element horizontally, diagonally or antidiagonally next to at least one element with value (x(i,j)+1) mod 3 and at least one element with value (x(i,j)-1) mod 3, and upper left element zero",
			"comment": [
				"Row 6 of A231037"
			],
			"example": [
				"Some solutions for n=3",
				"..0..2..0....0..1..0....0..2..0....0..2..0....0..2..0....0..2..0....0..1..0",
				"..1..1..0....2..2..1....2..1..1....2..1..1....2..1..1....2..1..1....2..2..1",
				"..2..0..2....1..0..0....1..0..1....2..0..2....2..0..2....0..0..0....1..0..0",
				"..2..1..1....1..1..0....0..2..2....0..1..2....2..1..2....1..2..0....1..1..1",
				"..2..2..0....2..2..1....1..1..1....0..2..2....1..0..0....2..1..1....2..2..0",
				"..1..0..1....1..0..1....2..0..2....1..0..1....1..2..1....2..0..2....1..0..1"
			],
			"keyword": "nonn",
			"offset": "1,2",
			"author": "_R. H. Hardin_, Nov 03 2013",
			"references": 0,
			"revision": 3,
			"time": "2013-11-03T06:46:53-05:00",
			"created": "2013-11-03T06:46:53-05:00"
		}
	]
}