{
	"greeting": "Greetings from The On-Line Encyclopedia of Integer Sequences! http://oeis.org/",
	"query": "id:A231035",
	"count": 1,
	"start": 0,
	"results": [
		{
			"number": 231035,
			"data": "0,32,9726,677204,79772488,10140483166,1171740348034,139409083454936,16609563930667236,1971906217514092058,234381303676846940902,27859583926828807881986,3311078808356794610011448",
			"name": "Number of nX6 0..2 arrays x(i,j) with each element horizontally, diagonally or antidiagonally next to at least one element with value (x(i,j)+1) mod 3 and at least one element with value (x(i,j)-1) mod 3, and upper left element zero",
			"comment": [
				"Column 6 of A231037"
			],
			"link": [
				"R. H. Hardin, \u003ca href=\"/A231035/b231035.txt\"\u003eTable of n, a(n) for n = 1..89\u003c/a\u003e"
			],
			"example": [
				"Some solutions for n=3",
				"..0..1..0..2..0..2....0..2..2..0..2..0....0..2..1..0..1..2....0..1..0..1..2..1",
				"..0..2..2..1..1..2....1..1..1..0..1..1....1..1..2..0..0..0....2..2..2..0..0..1",
				"..0..1..1..0..2..0....2..0..2..2..0..2....2..0..2..1..2..1....1..0..1..0..1..2"
			],
			"keyword": "nonn",
			"offset": "1,2",
			"author": "_R. H. Hardin_, Nov 03 2013",
			"references": 1,
			"revision": 4,
			"time": "2013-11-03T06:42:04-05:00",
			"created": "2013-11-03T06:42:04-05:00"
		}
	]
}