{
	"greeting": "Greetings from The On-Line Encyclopedia of Integer Sequences! http://oeis.org/",
	"query": "id:A231462",
	"count": 1,
	"start": 0,
	"results": [
		{
			"number": 231462,
			"data": "197,1163,7973,57426,425678,3306466,26262415,212142656,1741747031,14450801854,121069961438,1021416437503,8668044445816,73888049707999,632083330311515,5422351239831629,46617809264465848,401482826179610824",
			"name": "Number of (n+1)X(6+1) 0..3 arrays with no element unequal to a strict majority of its horizontal, diagonal and antidiagonal neighbors, with values 0..3 introduced in row major order",
			"comment": [
				"Column 6 of A231463"
			],
			"link": [
				"R. H. Hardin, \u003ca href=\"/A231462/b231462.txt\"\u003eTable of n, a(n) for n = 1..47\u003c/a\u003e"
			],
			"example": [
				"Some solutions for n=3",
				"..0..0..1..1..0..0..0....0..0..0..0..0..0..1....0..0..0..1..1..1..2",
				"..0..0..1..1..1..0..0....0..0..0..1..1..1..0....0..0..1..1..1..2..2",
				"..0..0..1..1..0..0..0....0..0..1..1..1..0..0....3..3..1..1..1..2..2",
				"..0..1..1..1..0..0..0....0..0..1..1..0..0..0....3..3..3..1..1..1..2"
			],
			"keyword": "nonn",
			"offset": "1,1",
			"author": "_R. H. Hardin_, Nov 09 2013",
			"references": 1,
			"revision": 4,
			"time": "2013-11-09T07:28:55-05:00",
			"created": "2013-11-09T07:28:55-05:00"
		}
	]
}