{
	"greeting": "Greetings from The On-Line Encyclopedia of Integer Sequences! http://oeis.org/",
	"query": "id:A231047",
	"count": 1,
	"start": 0,
	"results": [
		{
			"number": 231047,
			"data": "0,428,5100,310804,10631552,448752816,17477913984,702369644524,27889180833188,1112507026382520,44300516313730388,1765247886383707868,70322056553003374268,2801688699959758846796,111617418686821238798432",
			"name": "Number of nX6 0..3 arrays x(i,j) with each element horizontally, diagonally or antidiagonally next to at least one element with value (x(i,j)+1) mod 4 and at least one element with value (x(i,j)-1) mod 4, no adjacent elements equal, and upper left element zero",
			"comment": [
				"Column 6 of A231049"
			],
			"link": [
				"R. H. Hardin, \u003ca href=\"/A231047/b231047.txt\"\u003eTable of n, a(n) for n = 1..210\u003c/a\u003e",
				"R. H. Hardin, \u003ca href=\"/A231047/a231047.txt\"\u003eEmpirical recurrence of order 93\u003c/a\u003e"
			],
			"formula": [
				"Empirical recurrence of order 93 (see link above)"
			],
			"example": [
				"Some solutions for n=4",
				"..0..1..2..3..2..3....0..1..2..1..0..1....0..3..2..3..2..3....0..1..2..1..0..1",
				"..0..3..2..3..0..1....0..3..0..3..2..3....0..1..0..1..0..1....0..3..2..1..2..3",
				"..0..3..0..1..2..1....2..3..0..3..2..3....0..1..0..3..2..3....2..3..0..3..0..3",
				"..0..1..2..1..0..3....2..1..0..3..0..1....2..3..2..1..0..1....2..1..2..1..2..3"
			],
			"keyword": "nonn",
			"offset": "1,2",
			"author": "_R. H. Hardin_, Nov 03 2013",
			"references": 1,
			"revision": 5,
			"time": "2014-08-11T22:45:54-04:00",
			"created": "2013-11-03T07:15:00-05:00"
		}
	]
}