{
	"greeting": "Greetings from The On-Line Encyclopedia of Integer Sequences! http://oeis.org/",
	"query": "id:A231830",
	"count": 1,
	"start": 0,
	"results": [
		{
			"number": 231830,
			"data": "5,101,1020101,1061522231810040101,1196154511175776540960913502483611007728163340227060101",
			"name": "a(1) = 5; for n \u003e 1, a(n) = 1 + 4*Product_{i=1..n-1} a(i)^2.",
			"comment": [
				"Sequence designed to show that there are an infinity of primes congruent to 1 modulo 4 (A002144). Terms are not necessarily prime. Their smallest prime factors from A002144 are: 5, 101, 1020101, 53, 686743037.",
				"Next term is too large to include."
			],
			"link": [
				"S. A. Shirali, \u003ca href=\"http://www.jstor.org/stable/2690862\"\u003eA family portrait of primes-a case study in discrimination\u003c/a\u003e, Math. Mag. Vol. 70, No. 4 (Oct., 1997), pp. 263-272."
			],
			"program": [
				"(PARI) lista(nn) = {a = vector(nn); a[1] = 5; for (n=2, nn, a[n] = 4*prod(i=1, n-1, a[i]^2) + 1;); a;}"
			],
			"xref": [
				"Cf. A002144, A231831."
			],
			"keyword": "nonn",
			"offset": "1,1",
			"author": "_Michel Marcus_, Nov 14 2013",
			"references": 1,
			"revision": 16,
			"time": "2021-01-03T17:30:11-05:00",
			"created": "2013-11-15T03:19:27-05:00"
		}
	]
}