{
	"greeting": "Greetings from The On-Line Encyclopedia of Integer Sequences! http://oeis.org/",
	"query": "id:A231020",
	"count": 1,
	"start": 0,
	"results": [
		{
			"number": 231020,
			"data": "16,242,724,10534,28128,419878,1144652,16946918,46058744,683352174,1857863476,27552792942,74908095984,1110991043910,3020446141788,44796988899478,121789649054696,1806294227298910,4910772371719684",
			"name": "Number of (n+3)X(2+3) 0..3 black square subarrays x(i,j) with each element diagonally or antidiagonally next to at least one element with value (x(i,j)+1) mod 4, and upper left element zero",
			"comment": [
				"Column 2 of A231023"
			],
			"link": [
				"R. H. Hardin, \u003ca href=\"/A231020/b231020.txt\"\u003eTable of n, a(n) for n = 1..210\u003c/a\u003e"
			],
			"formula": [
				"Empirical: a(n) = 31*a(n-2) +375*a(n-4) +233*a(n-6) -7946*a(n-8) -884*a(n-10) -16296*a(n-12) -203520*a(n-14) +53120*a(n-16)"
			],
			"example": [
				"Some solutions for n=2",
				"..x..0..x..2..x....x..0..x..2..x....x..0..x..2..x....x..0..x..0..x",
				"..3..x..1..x..3....1..x..3..x..1....1..x..3..x..3....3..x..1..x..3",
				"..x..2..x..0..x....x..2..x..2..x....x..2..x..0..x....x..0..x..2..x",
				"..1..x..3..x..3....3..x..1..x..3....3..x..1..x..3....3..x..1..x..3",
				"..x..0..x..2..x....x..0..x..0..x....x..0..x..0..x....x..0..x..0..x"
			],
			"keyword": "nonn",
			"offset": "1,1",
			"author": "_R. H. Hardin_, Nov 03 2013",
			"references": 1,
			"revision": 4,
			"time": "2013-11-03T06:00:23-05:00",
			"created": "2013-11-03T06:00:23-05:00"
		}
	]
}