{
	"greeting": "Greetings from The On-Line Encyclopedia of Integer Sequences! http://oeis.org/",
	"query": "id:A231652",
	"count": 1,
	"start": 0,
	"results": [
		{
			"number": 231652,
			"data": "5,11,17,29,71,197,269,1277,1289,1607,2027,2111,2267,2687,3467,4649,6359,6761,6827,7877,9461,10529,12917,13337,13691,13829,13931,17291,17579,20441,20771,26249,29021,29129,34589,34649,38237,39239,44027,47417,49547,51347",
			"name": "Lesser twin prime p such that p^2-p-2 is the average of a larger twin prime pair.",
			"comment": [
				"There are 265364 members of this sequence up to 10^10, so about 1% of twin primes with fewer than 10 digits are in this sequence. - _Charles R Greathouse IV_, Nov 12 2013"
			],
			"link": [
				"Michael G. Kaarhus, \u003ca href=\"/A231652/b231652.txt\"\u003eTable of n, a(n) for n = 1..10000\u003c/a\u003e",
				"M. G. Kaarhus, \u003ca href=\"http://www.christaboveme.com/pri/newprime.pdf\"\u003enewprime.pdf\u003c/a\u003e"
			],
			"example": [
				"17 is in this sequence because 17 is a lesser twin prime and 17^2 - 17 - 2 is the average of 269 and 271 which is a pair of twin primes."
			],
			"program": [
				"(maxima) y:0$ p:0$ c:0$ f(p):= p^2-p-2$ for p:5 thru 100000 step 6 do (if(primep(p) and primep(p+2)) then (y:f(p), if(primep(y-1) and primep(y+1)) then (c:c+1, print(c,\", \",p,\", \", y))))",
				"(PARI) is(n)=isprime(n^2-n-3) \u0026\u0026 isprime(n^2-n-1) \u0026\u0026 isprime(n+2) \u0026\u0026 isprime(n) \u0026\u0026 n\u003e3 \\\\ _Charles R Greathouse IV_, Nov 12 2013"
			],
			"xref": [
				"Subsequence of A001359."
			],
			"keyword": "nonn",
			"offset": "1,1",
			"author": "_Michael G. Kaarhus_, Nov 12 2013",
			"references": 1,
			"revision": 16,
			"time": "2013-11-13T17:00:20-05:00",
			"created": "2013-11-13T16:59:55-05:00"
		}
	]
}