{
	"greeting": "Greetings from The On-Line Encyclopedia of Integer Sequences! http://oeis.org/",
	"query": "id:A231817",
	"count": 1,
	"start": 0,
	"results": [
		{
			"number": 231817,
			"data": "1,2,3,8,5,8,7,8,4,0,1,6,3,0,5,0,7,0,9,0,8,8,6,8,0,4,6,0,8,0,3,0,4,6,0,0,2,8,8,0,4,0,2,0,0,6,6,0,0,0,0,0,5,0,0,0,0,0,0,0,6,4,0,0,0,0,8,0,2,0,7,0,2,8,0,0,8,0,8,0,0,6,8,0,0,0,0",
			"name": "Multiplicative digital root of concatenation of all divisors of n (A037278).",
			"comment": [
				"Also multiplicative digital root of A190997 (product of digits of all the divisors of n) or A007955 (product of divisors of n).",
				"Conjecture: a(n) = 0 for almost all n.",
				"793 of the first 1000 terms are zeros, and 9147 out of the first 10000 terms are zeros. - _Harvey P. Dale_, Jul 30 2019"
			],
			"link": [
				"Harvey P. Dale, \u003ca href=\"/A231817/b231817.txt\"\u003eTable of n, a(n) for n = 1..1000\u003c/a\u003e"
			],
			"example": [
				"For n=12: 1*2*3*4*6*1*2=288, 2*8*8=128, 1*2*8=16, 1*6=6; a(12)=6."
			],
			"mathematica": [
				"Table[NestWhile[Times@@IntegerDigits[#]\u0026,Times@@Flatten[ IntegerDigits/@ Divisors[ n]], #\u003e9\u0026],{n,90}] (* _Harvey P. Dale_, Jul 30 2019 *)"
			],
			"xref": [
				"Cf. A037278, A007955, A190998 (associative digital root of digits of all the divisors of n), A031347 (multiplicative digital root of n)."
			],
			"keyword": "nonn,base",
			"offset": "1,2",
			"author": "_Jaroslav Krizek_, Nov 13 2013",
			"references": 1,
			"revision": 12,
			"time": "2019-07-30T12:22:26-04:00",
			"created": "2013-11-18T14:15:10-05:00"
		}
	]
}