{
	"greeting": "Greetings from The On-Line Encyclopedia of Integer Sequences! http://oeis.org/",
	"query": "id:A231629",
	"count": 1,
	"start": 0,
	"results": [
		{
			"number": 231629,
			"data": "801339,962649,7353339,21964299,41642139,48049689,55455939,89034939,89851449,92253849,105259539,107948379,109455339,114295449,116754939,122349369,135575979,156009849,159521049,173645439,188586699,192674169,193137849,220301769,221355125",
			"name": "First of 7 consecutive deficient numbers in arithmetic progression.",
			"link": [
				"Shyam Sunder Gupta, \u003ca href=\"/A231629/b231629.txt\"\u003eTable of n, a(n) for n = 1..126\u003c/a\u003e"
			],
			"example": [
				"801339, 801341, 801343, 801345, 801347, 801349, 801351 is the smallest set of 7 consecutive deficient numbers in arithmetic progression so 801339 is in the list."
			],
			"mathematica": [
				"DefQ[n_] := DivisorSigma[1, n] \u003c 2 n; m = 2; z1 = 2; cd = 1; a = {}; Do[If[DefQ[n], If[n - z1 == cd, m = m + 1; If[m \u003e 6, AppendTo[a, n - 6*cd]], m = 2; cd = n - z1]; z1 = n], {n, 3, 1000000000}]; a"
			],
			"xref": [
				"Cf. A005100, A231623, A228964, A231624, A231625, A231626, A231628."
			],
			"keyword": "nonn",
			"offset": "1,1",
			"author": "_Shyam Sunder Gupta_, Nov 11 2013",
			"references": 2,
			"revision": 7,
			"time": "2013-11-13T17:01:24-05:00",
			"created": "2013-11-13T17:01:24-05:00"
		}
	]
}