{
	"greeting": "Greetings from The On-Line Encyclopedia of Integer Sequences! http://oeis.org/",
	"query": "id:A231821",
	"count": 1,
	"start": 0,
	"results": [
		{
			"number": 231821,
			"data": "4,2,2,3,2,4,2,3,3,4,2,3,2,4,4,3,2,3,2,3,4,4,2,3,3,4,3,3,2,2,2,3,4,4,4,3,2,4,4,3,2,2,2,3,3,4,2,3,3,3,4,3,2,3,4,3,4,4,2,3,2,4,3,3,4,2,2,3,4,2,2,3,2,4,3,3,4,2,2,3,3,4,2,3,4,4",
			"name": "a(n) = mu(n) + 3, where mu is the Mobius function (A008683).",
			"comment": [
				"If n is a prime or a semiprime, a(n) gives the number of divisors of n."
			],
			"link": [
				"Antti Karttunen, \u003ca href=\"/A231821/b231821.txt\"\u003eTable of n, a(n) for n = 1..5000\u003c/a\u003e",
				"\u003ca href=\"/index/Eu#epf\"\u003eIndex entries for sequences computed from exponents in factorization of n\u003c/a\u003e"
			],
			"example": [
				"a(6) = 4; mu(6) + 3 = 1 + 3 = 4."
			],
			"maple": [
				"with(numtheory); a:=n-\u003emobius(n)+3; seq(a(n), n=1..100);"
			],
			"mathematica": [
				"Table[MoebiusMu[n] + 3, {n, 100}]"
			],
			"program": [
				"(PARI) a(n) = moebius(n) + 3; \\\\ _Michel Marcus_, Nov 14 2013",
				"(define (A231821 n) (+ 3 (A008683 n))) ;; _Antti Karttunen_, Jul 26 2017"
			],
			"xref": [
				"Cf. A228409.",
				"One more than A080847, two more than A007423."
			],
			"keyword": "nonn,easy",
			"offset": "1,1",
			"author": "_Wesley Ivan Hurt_, Nov 13 2013",
			"references": 2,
			"revision": 13,
			"time": "2017-07-26T09:27:04-04:00",
			"created": "2013-11-14T17:28:38-05:00"
		}
	]
}