{
	"greeting": "Greetings from The On-Line Encyclopedia of Integer Sequences! http://oeis.org/",
	"query": "id:A231643",
	"count": 1,
	"start": 0,
	"results": [
		{
			"number": 231643,
			"data": "10,15,25,45,85,165,325,645,1285,2565,5125,10245,20485,40965,81925,163845,327685,655365,1310725,2621445,5242885,10485765,20971525,41943045,83886085,167772165,335544325,671088645,1342177285,2684354565,5368709125,10737418245",
			"name": "a(n) = 5*2^n + 5.",
			"comment": [
				"For n \u003e 2, decimals given by base 2 pattern: 101...zeros...101.",
				"The ratio between a(n) and a(n+1) tends to 1/2.",
				"Sum(1/a(i), i=0..infinity) = ( psi_2^(0)( 1 - i*Pi/log(2) ) + i*Pi ) / log(32) = 0.252899956069688841838263949451..., where psi_q^(m)(.) is the m-th derivative of the q-digamma function. [_Bruno Berselli_, Nov 15 2013]"
			],
			"link": [
				"\u003ca href=\"/index/Rec#order_02\"\u003eIndex entries for linear recurrences with constant coefficients\u003c/a\u003e, signature (3,-2)."
			],
			"formula": [
				"a(n) = 5*A000051(n). - _Philippe Deléham_, Nov 15 2013",
				"G.f.: 5*(2-3*x)/((1-x)*(1-2*x)). - _Philippe Deléham_, Nov 15 2013",
				"a(n) = 3*a(n-1)-2*a(n-2) for n\u003e1, a(0)=10, a(1)=15. - _Philippe Deléham_, Nov 15 2013"
			],
			"mathematica": [
				"Table[5*2^n + 5, {n, 0, 50}] (* _T. D. Noe_, Nov 15 2013 *)"
			],
			"xref": [
				"Cf. A000079 (powers of 2), A000051."
			],
			"keyword": "nonn,easy",
			"offset": "0,1",
			"author": "_Przemyslaw Wcislo_, Nov 12 2013",
			"references": 4,
			"revision": 19,
			"time": "2021-01-07T20:11:08-05:00",
			"created": "2013-11-15T00:06:27-05:00"
		}
	]
}