{
	"greeting": "Greetings from The On-Line Encyclopedia of Integer Sequences! http://oeis.org/",
	"query": "id:A231901",
	"count": 1,
	"start": 0,
	"results": [
		{
			"number": 231901,
			"data": "1,2,4,4,6,6,11,9,11,10,20,12,15,15,16,16,18,18,23,21,22,22,40,25,27,31,28,28,37,30,42,38,34,36,42,36,110,39,43,40,42,42,56,46,50,46,55,65,51,51,53,52,55,55,73,58,58,58,60,60,63,63,177,68,70,66,82,72",
			"name": "Least k \u003e n such that k!/n! + 1 is a prime, or 0 if no such k exists.",
			"link": [
				"Vincenzo Librandi, \u003ca href=\"/A231901/b231901.txt\"\u003eTable of n, a(n) for n = 0..1000\u003c/a\u003e"
			],
			"mathematica": [
				"Table[k = n + 1; While[! PrimeQ[k!/n! + 1], k++]; k, {n, 100}] (* _T. D. Noe_, Nov 18 2013 *)"
			],
			"program": [
				"(PARI) a(n) = {m = n; while(! isprime(m!/n! +1), m++); m;} \\\\ _Michel Marcus_, Mar 07 2014"
			],
			"xref": [
				"Cf. A002981, A035093, A057217, A075757, A075758, A231549."
			],
			"keyword": "nonn",
			"offset": "0,2",
			"author": "_Alex Ratushnyak_, Nov 15 2013",
			"references": 3,
			"revision": 15,
			"time": "2014-03-09T03:57:52-04:00",
			"created": "2013-11-18T15:32:27-05:00"
		}
	]
}