{
	"greeting": "Greetings from The On-Line Encyclopedia of Integer Sequences! http://oeis.org/",
	"query": "id:A231895",
	"count": 1,
	"start": 0,
	"results": [
		{
			"number": 231895,
			"data": "3,3,5,12,37,138,605,3042,17257,108978,758105,5759322,47439277,421090218,4006875605,40686781602,439122198097,5019624693858,60582649901105,769831261587882,10273367294485717,143649246839399898,2100196647406842605,32044492213621026162,509357494543973054137",
			"name": "a(n) = 2*A000111(n+1)+A000111(n).",
			"comment": [
				"It is clear from the Berry et al. article that they intended to consider 2*A000111(n+1) - A000111(n) (which is A104854), not 2*A000111(n+1) + A000111(n)."
			],
			"link": [
				"D. Berry, J. Broom, D. Dixon, A. Flaherty, \u003ca href=\"https://www.math.lsu.edu/system/files/DeAngelisProject2.pdf\"\u003eUmbral Calculus and the Boustrophedon Transform\u003c/a\u003e, 2013."
			],
			"formula": [
				"E.g.f.: 1+(sec(x)+tan(x)+1)*(sec(x)+tan(x)). - _Sergei N. Gladkovskii_, Jun 11 2015"
			],
			"xref": [
				"Cf. A000111, A104854."
			],
			"keyword": "nonn",
			"offset": "0,1",
			"author": "_N. J. A. Sloane_, Nov 18 2013",
			"references": 1,
			"revision": 10,
			"time": "2015-12-25T02:36:41-05:00",
			"created": "2013-11-18T20:55:57-05:00"
		}
	]
}