{
	"greeting": "Greetings from The On-Line Encyclopedia of Integer Sequences! http://oeis.org/",
	"query": "id:A231350",
	"count": 1,
	"start": 0,
	"results": [
		{
			"number": 231350,
			"data": "4,1,0,8,2,3,5,8,9,9,7",
			"name": "Decimal expansion of the speed c/a in SI units [meter/second], where \"c\" is the speed of light in vacuum and \"a\" is the fine-structure constant (alpha).",
			"comment": [
				"Also phase velocity of de Broglie wave of a particle whose velocity is equal to the Bohr N1 velocity (A081800).",
				"Note that this speed is greater than c."
			],
			"formula": [
				"c^2/V_n1 = A003678 / A003673 = A003678 * A005600 = A182999 / A081800."
			],
			"example": [
				"Close to 41082358997 [m/s]."
			],
			"xref": [
				"Cf. A003673, A003678, A005600, A081800, A081801, A182999, A229952, A229962."
			],
			"keyword": "nonn,cons",
			"offset": "11,1",
			"author": "_Omar E. Pol_, Nov 07 2013",
			"references": 2,
			"revision": 21,
			"time": "2013-11-29T23:38:13-05:00",
			"created": "2013-11-29T23:38:13-05:00"
		}
	]
}