{
	"greeting": "Greetings from The On-Line Encyclopedia of Integer Sequences! http://oeis.org/",
	"query": "id:A231818",
	"count": 1,
	"start": 0,
	"results": [
		{
			"number": 231818,
			"data": "3,1,2,5,6,3,6,39,18,6,12,19,8,23,10,3,76,13,90,26,52,45,124,12,60,27,10,99,126,11,50,27,28,59,6,80,122,71,110,21,72,111,590,147,178,84,238,12,138,236,10,53,6,60,98,72,620,30,166,5,98,18,22,384,126",
			"name": "Least positive k such that k*n^n - 1 is a prime, or 0 if no such k exists.",
			"mathematica": [
				"Table[k = 1; While[! PrimeQ[k*n^n - 1], k++]; k, {n, 65}] (* _T. D. Noe_, Nov 15 2013 *)"
			],
			"xref": [
				"Cf. A035092 (least k such that k*(n^2)+1 is a prime).",
				"Cf. A175763 (least k such that k*(n^n)+1 is a prime).",
				"Cf. A035093 (least k such that k*n!+1    is a prime).",
				"Cf. A193807 (least k such that n*(k^2)+1 is a prime).",
				"Cf. A231119 (least k such that n*(k^k)+1 is a prime).",
				"Cf. A057217 (least k such that n*k!+1    is a prime).",
				"Cf. A034693 (least k such that n*k +1    is a prime).",
				"Cf. A231819 (least k such that k*(n^2)-1 is a prime).",
				"Cf. A083663 (least k such that k*n!-1    is a prime).",
				"Cf. A231734 (least k such that n*(k^2)-1 is a prime).",
				"Cf. A231735 (least k such that n*(k^k)-1 is a prime).",
				"Cf. A231820 (least k such that n*k!-1    is a prime).",
				"Cf. A053989 (least k such that n*k -1    is a prime)."
			],
			"keyword": "nonn",
			"offset": "1,1",
			"author": "_Alex Ratushnyak_, Nov 13 2013",
			"references": 2,
			"revision": 6,
			"time": "2013-11-15T00:28:37-05:00",
			"created": "2013-11-15T00:28:37-05:00"
		}
	]
}