{
	"greeting": "Greetings from The On-Line Encyclopedia of Integer Sequences! http://oeis.org/",
	"query": "id:A231161",
	"count": 1,
	"start": 0,
	"results": [
		{
			"number": 231161,
			"data": "0,1,32,821,25813",
			"name": "Number of Gram blocks [g(j), g(j+5)) up to 10^n with 0 \u003c= j \u003c 10^n.",
			"comment": [
				"We call a Gram point g(j) \"good\" if j is not in A114856, and \"bad\" otherwise. A \"Gram block of length k\" is an interval [g(j), g(j+k)) such that g(j) and g(j+k) are good Gram points, g(j+1), ..., g(j+k-1) are bad Gram points, and k \u003e= 1."
			],
			"link": [
				"Richard P. Brent, \u003ca href=\"http://www.ams.org/journals/mcom/1979-33-148/S0025-5718-1979-0537983-2/\"\u003eOn the Zeros of the Riemann Zeta Function in the Critical Strip\u003c/a\u003e, Math. Comp. 33 (1979), pp. 1361-1372.",
				"Eric Weisstein's World of Mathematics, \u003ca href=\"http://mathworld.wolfram.com/GramBlock.html\"\u003eGram Block\u003c/a\u003e",
				"Eric Weisstein's World of Mathematics, \u003ca href=\"http://mathworld.wolfram.com/GramPoint.html\"\u003eGram Point\u003c/a\u003e"
			],
			"xref": [
				"Cf. A114856, A231157-A231160, A231162-A231165."
			],
			"keyword": "nonn,more",
			"offset": "4,3",
			"author": "_Arkadiusz Wesolowski_, Nov 04 2013",
			"references": 2,
			"revision": 11,
			"time": "2013-11-07T23:17:01-05:00",
			"created": "2013-11-07T23:17:01-05:00"
		}
	]
}