{
	"greeting": "Greetings from The On-Line Encyclopedia of Integer Sequences! http://oeis.org/",
	"query": "id:A231387",
	"count": 1,
	"start": 0,
	"results": [
		{
			"number": 231387,
			"data": "2,3,199,1319,2371,2437,3253,6871,6991,7937,7951,9041,9973,10631,11941,12379,12671,13009,13147,13187,13267,13799,13859,14479,16889,17519,20051,21089,26003,27281,27529,29581,31477,32009,34439,38561,41611,42719,43543,44839",
			"name": "a(n) is a prime number that cannot be the center term of a length 3 arithmetic progression prime group with a common difference whose number of runs in binary expansion is 2.",
			"comment": [
				"Fewer than 0.7% of the first three million primes have this property.",
				"AP-3 is defined as 3 prime groups in arithmetic progression.",
				"Hypothesized property: for n\u003e=3, there exists at least one number k whose number of runs in binary expansion (A005811) equals 4, such that {a(n)-k, a(n), a(n)+k} forms an AP-3 group."
			],
			"link": [
				"Lei Zhou, \u003ca href=\"/A231387/b231387.txt\"\u003eTable of n, a(n) for n = 1..10000\u003c/a\u003e"
			],
			"example": [
				"2 and 3 cannot be the second term of an AP-3 prime group, so a(1)=2 and a(2)=3;",
				"For any prime numbers between 5 and 197, there exists at least one number k in A043569 such that {a-k, a, a+k} forms an AP-3 prime group.  For example, when p=197, there are the following groups {5,197,389}, {101,197,293}, {137,197,257}, and {167,197,227} with corresponding k = 192 = 11000000 base 2 = A043569(23), 96 = 1100000 base 2 = A043569(17), 60 = 111100 base 2 = A043569(14), and 30 = 11110 base 2 = A043569(10).",
				"However, when p = 199, among all six AP-3 groups, {19,199,379}, {31,199,367}, {61,199,337}, {67,199,331}, {127,199,271}, and {157,199,241}, none of k value (180 = 10110100 base 2, 168 = 10101000 base 2, 138 = 10001010 base 2, 132 = 10000100 base 2, 72 = 1001000, and 42 = 101010 respectively) is a term of A043569. None of them is in the form of 1..10..0 base 2 thus not an element of A043569.",
				"So a(3)=199."
			],
			"mathematica": [
				"seed = 1; Table[While[seed = NextPrime[seed]; sum = seed*2; lowbond = sum; cp1 = seed; While[cp1 = NextPrime[cp1]; (lowbond \u003e 2) \u0026\u0026 (cp1 \u003c sum), cp2 = sum - cp1; If[PrimeQ[cp2], test = cp2 - cp1; rank = Length[Length /@ Split[IntegerDigits[test, 2]]]; lowbond = Min[rank, lowbond]]]; lowbond == 2]; seed, {i, 1, 41}]"
			],
			"xref": [
				"Cf. A005811, A043569."
			],
			"keyword": "nonn,base",
			"offset": "1,1",
			"author": "_Lei Zhou_, Nov 08 2013",
			"references": 1,
			"revision": 23,
			"time": "2019-09-12T19:32:31-04:00",
			"created": "2013-11-13T14:53:28-05:00"
		}
	]
}