{
	"greeting": "Greetings from The On-Line Encyclopedia of Integer Sequences! http://oeis.org/",
	"query": "id:A232516",
	"count": 1,
	"start": 0,
	"results": [
		{
			"number": 232516,
			"data": "4,16,16,54,74,218,340,868,1494,3528,6466,14494,27650,59992,117432,249546,496576,1041354,2094122,4354594,8815964,18233764,37073438,76414688,155795194,320416958,654414674,1344022320,2748080744,5638905938",
			"name": "Number of (1+1)X(n+1) 0..2 arrays with every element next to itself plus and minus one within the range 0..2 horizontally, diagonally or antidiagonally, with no adjacent elements equal",
			"comment": [
				"Row 1 of A232515"
			],
			"link": [
				"R. H. Hardin, \u003ca href=\"/A232516/b232516.txt\"\u003eTable of n, a(n) for n = 1..210\u003c/a\u003e"
			],
			"formula": [
				"Empirical: a(n) = 3*a(n-2) +a(n-3) +2*a(n-4) +2*a(n-5).",
				"Empirical: G.f.: -2*x*(2+8*x+2*x^2+x^3+x^4) / ( -1+3*x^2+x^3+2*x^4+2*x^5 ). - _R. J. Mathar_, Nov 23 2014"
			],
			"example": [
				"Some solutions for n=7",
				"..2..1..2..1..0..2..1..0....1..0..1..2..1..0..1..2....1..2..1..2..1..0..1..0",
				"..2..1..0..1..0..2..1..2....1..2..1..2..1..0..1..2....1..0..1..2..1..2..1..0"
			],
			"keyword": "nonn",
			"offset": "1,1",
			"author": "_R. H. Hardin_, Nov 25 2013",
			"references": 1,
			"revision": 6,
			"time": "2014-11-23T17:12:05-05:00",
			"created": "2013-11-25T07:02:10-05:00"
		}
	]
}