{
	"greeting": "Greetings from The On-Line Encyclopedia of Integer Sequences! http://oeis.org/",
	"query": "id:A232943",
	"count": 1,
	"start": 0,
	"results": [
		{
			"number": 232943,
			"data": "9,99,1163,13707,161621,1905737,22471303,264968059,3124343613,36840376337,434399508111,5122177116787,60397624596373,712172377821369,8397507337767063,99018343990785067,1167564617964899501",
			"name": "Number of nX3 0..3 arrays with no element x(i,j) adjacent to value 3-x(i,j) horizontally, vertically or antidiagonally, and top left element zero",
			"comment": [
				"Column 3 of A232948"
			],
			"link": [
				"R. H. Hardin, \u003ca href=\"/A232943/b232943.txt\"\u003eTable of n, a(n) for n = 1..210\u003c/a\u003e"
			],
			"formula": [
				"Empirical: a(n) = 13*a(n-1) -15*a(n-2) +9*a(n-3) -2*a(n-4) for n\u003e5.",
				"Empirical: g.f. 9*x -x*(-99+124*x-73*x^2+16*x^3) / ( 1-13*x+15*x^2-9*x^3+2*x^4 ). - _R. J. Mathar_, Nov 27 2015"
			],
			"example": [
				"Some solutions for n=5",
				"..0..0..1....0..2..3....0..2..0....0..2..3....0..0..0....0..2..0....0..2..2",
				"..0..0..0....2..2..3....2..2..2....0..2..3....0..1..1....0..2..2....0..2..2",
				"..1..1..1....2..2..3....2..2..2....0..2..3....1..0..0....0..0..2....0..0..2",
				"..1..0..1....2..2..3....3..3..3....2..3..2....0..2..2....0..2..2....1..0..0",
				"..1..1..3....3..3..1....2..3..2....2..2..2....2..3..2....2..3..3....0..2..0"
			],
			"keyword": "nonn",
			"offset": "1,1",
			"author": "_R. H. Hardin_, Dec 02 2013",
			"references": 2,
			"revision": 7,
			"time": "2015-11-27T05:36:31-05:00",
			"created": "2013-12-02T18:28:52-05:00"
		}
	]
}