{
	"greeting": "Greetings from The On-Line Encyclopedia of Integer Sequences! http://oeis.org/",
	"query": "id:A232288",
	"count": 1,
	"start": 0,
	"results": [
		{
			"number": 232288,
			"data": "1,15,1313,718483,2885285507,84130295708483,17291702408190208843,25164969879062538935257597,260198076410481338310694223844235,19101564590400937625024602276497985649471",
			"name": "Number of n X n 0..2 arrays with every 0 next to a 1 and every 1 next to a 2 horizontally or antidiagonally",
			"comment": [
				"Diagonal of A232295"
			],
			"link": [
				"R. H. Hardin, \u003ca href=\"/A232288/b232288.txt\"\u003eTable of n, a(n) for n = 1..12\u003c/a\u003e"
			],
			"example": [
				"Some solutions for n=3",
				"..2..0..1....2..1..2....2..2..1....2..1..1....1..2..2....0..1..0....2..2..1",
				"..2..2..2....2..1..0....1..0..2....1..2..2....2..2..1....2..2..1....2..1..0",
				"..0..1..2....2..2..2....1..2..2....0..1..2....2..1..2....2..2..1....0..2..1"
			],
			"keyword": "nonn",
			"offset": "1,2",
			"author": "_R. H. Hardin_, Nov 22 2013",
			"references": 1,
			"revision": 6,
			"time": "2015-12-18T18:18:46-05:00",
			"created": "2013-11-22T07:16:44-05:00"
		}
	]
}