{
	"greeting": "Greetings from The On-Line Encyclopedia of Integer Sequences! http://oeis.org/",
	"query": "id:A232938",
	"count": 1,
	"start": 0,
	"results": [
		{
			"number": 232938,
			"data": "48,120,774,4458,26644,157322,932576,5521380,32701386,193661452,1146912480,6792272698,40225408560,238224086698,1410817796536,8355186864526,49481335558724,293039831819072,1735449179468938",
			"name": "Number of nX5 0..2 arrays with no element x(i,j) adjacent to value 2-x(i,j) horizontally, vertically or antidiagonally",
			"comment": [
				"Column 5 of A232941"
			],
			"link": [
				"R. H. Hardin, \u003ca href=\"/A232938/b232938.txt\"\u003eTable of n, a(n) for n = 1..210\u003c/a\u003e"
			],
			"formula": [
				"Empirical: a(n) = a(n-1) +21*a(n-2) +48*a(n-3) +14*a(n-4) -69*a(n-5) -38*a(n-6) +68*a(n-7) +13*a(n-8) -57*a(n-9) +37*a(n-10) -8*a(n-11) -2*a(n-12) +a(n-13) for n\u003e14"
			],
			"example": [
				"Some solutions for n=5",
				"..2..2..2..2..2....2..1..2..2..1....2..2..2..2..1....1..2..1..2..1",
				"..2..1..2..2..1....2..2..2..2..2....1..2..1..2..2....2..2..2..2..2",
				"..2..2..1..2..2....2..2..2..1..2....2..2..2..2..1....2..1..2..2..2",
				"..1..2..2..2..2....2..2..2..2..2....2..2..1..2..2....2..2..2..2..2",
				"..2..2..2..2..2....1..2..2..2..1....2..2..2..2..1....2..2..2..2..1"
			],
			"keyword": "nonn",
			"offset": "1,1",
			"author": "_R. H. Hardin_, Dec 02 2013",
			"references": 1,
			"revision": 4,
			"time": "2013-12-02T18:15:59-05:00",
			"created": "2013-12-02T18:15:59-05:00"
		}
	]
}