{
	"greeting": "Greetings from The On-Line Encyclopedia of Integer Sequences! http://oeis.org/",
	"query": "id:A232157",
	"count": 1,
	"start": 0,
	"results": [
		{
			"number": 232157,
			"data": "8,218,1284,7770,46702,286770,1767266,10830650,66701686,410364610,2522566124,15524673872,95489164864,587352257166,3613537440642,22227593479382,136734516680534,841147631122416,5174280907720634",
			"name": "Number of nX4 0..3 arrays with every 0 next to a 1, every 1 next to a 2 and every 2 next to a 3 horizontally, vertically or antidiagonally, and no adjacent values equal",
			"comment": [
				"Column 4 of A232161"
			],
			"link": [
				"R. H. Hardin, \u003ca href=\"/A232157/b232157.txt\"\u003eTable of n, a(n) for n = 1..210\u003c/a\u003e",
				"R. H. Hardin, \u003ca href=\"/A232157/a232157.txt\"\u003eEmpirical recurrence of order 94\u003c/a\u003e"
			],
			"formula": [
				"Empirical recurrence of order 94 (see link above)"
			],
			"example": [
				"Some solutions for n=5",
				"..1..3..2..3....1..3..2..1....3..0..1..3....1..3..0..2....0..3..1..2",
				"..2..0..1..2....2..1..3..0....1..2..0..1....2..1..3..1....1..2..0..3",
				"..1..3..0..1....3..0..2..1....3..1..3..2....0..2..0..3....3..1..2..1",
				"..2..1..2..0....2..1..0..3....2..0..1..3....1..3..2..1....2..0..3..2",
				"..0..3..1..3....0..3..1..2....3..2..0..2....0..1..3..2....1..2..0..1"
			],
			"keyword": "nonn",
			"offset": "1,1",
			"author": "_R. H. Hardin_, Nov 19 2013",
			"references": 1,
			"revision": 5,
			"time": "2014-08-11T22:45:55-04:00",
			"created": "2013-11-19T10:29:08-05:00"
		}
	]
}