{
	"greeting": "Greetings from The On-Line Encyclopedia of Integer Sequences! http://oeis.org/",
	"query": "id:A232986",
	"count": 1,
	"start": 0,
	"results": [
		{
			"number": 232986,
			"data": "5,145,205,725,1025,1105,1145,1205,1305,1313,1365,1405,1469,1745,1785,1845,1885,1989,2145,2249,2405,2465,2545,2665,2745,2805,3005,3045,3145,3161,3205,3393,3445,3485,3545,3601,3625,3705,3885,3893,3965",
			"name": "Numbers n == 1 (mod 4) such that the Gauss factorial ((n-1)/4,n)! == 1 (mod n).",
			"comment": [
				"The Gauss factorial n_k! is defined to be Prod_{1\u003c=j\u003c=n, gcd(j,k)=1} j."
			],
			"link": [
				"J. B. Cosgrave and K. Dilcher, \u003ca href=\"http://www.jstor.org/stable/10.4169/amer.math.monthly.118.09.812\"\u003eAn introduction to Gauss factorials\u003c/a\u003e, Amer. Math. Monthly, 118 (2011), 810-828.",
				"J. B. Cosgrave and K. Dilcher, \u003ca href=\"http://dx.doi.org/10.1007/s10474-013-0357-1\"\u003eThe Gauss-Wilson theorem for quarter-intervals\u003c/a\u003e, Acta Mathematica Hungarica, Sept. 2013."
			],
			"example": [
				"n=145 is a term, because 36_145! = 32577412307818387955599294857216 == 1 mod 145."
			],
			"maple": [
				"Gf:=proc(N,n) local j,k; k:=1;",
				"for j from 1 to N do if gcd(j,n)=1 then k:=j*k; fi; od; k; end;",
				"t1:=[];",
				"for i from 1 to 1000 do",
				"n:=4*i+1; if (Gf(i,n) mod n ) = 1 then t1:=[op(t1),n]; fi;",
				"od:",
				"t1;"
			],
			"keyword": "nonn",
			"offset": "1,1",
			"author": "_N. J. A. Sloane_, Dec 08 2013",
			"references": 1,
			"revision": 16,
			"time": "2015-08-01T02:21:09-04:00",
			"created": "2013-12-08T19:20:12-05:00"
		}
	]
}