{
	"greeting": "Greetings from The On-Line Encyclopedia of Integer Sequences! http://oeis.org/",
	"query": "id:A232348",
	"count": 1,
	"start": 0,
	"results": [
		{
			"number": 232348,
			"data": "10503,2435979,426813751,78572361735,14731243506141,2756810145406537,515279597419726895,96318110440124639569,18005610944775756937087,3365946913767010598168561,629222755231792389353704325",
			"name": "Number of (n+1)X(4+1) 0..2 arrays with every element both \u003e= and \u003c= some horizontal, vertical, diagonal or antidiagonal neighbor",
			"comment": [
				"Column 4 of A232352"
			],
			"link": [
				"R. H. Hardin, \u003ca href=\"/A232348/b232348.txt\"\u003eTable of n, a(n) for n = 1..210\u003c/a\u003e"
			],
			"example": [
				"Some solutions for n=1",
				"..0..1..1..0..1....0..2..0..2..2....2..1..2..1..0....1..0..2..1..0",
				"..1..0..1..1..0....0..1..2..0..1....2..1..1..2..0....2..2..0..1..0"
			],
			"keyword": "nonn",
			"offset": "1,1",
			"author": "_R. H. Hardin_, Nov 22 2013",
			"references": 1,
			"revision": 4,
			"time": "2013-11-22T20:14:55-05:00",
			"created": "2013-11-22T20:14:55-05:00"
		}
	]
}