{
	"greeting": "Greetings from The On-Line Encyclopedia of Integer Sequences! http://oeis.org/",
	"query": "id:A232042",
	"count": 1,
	"start": 0,
	"results": [
		{
			"number": 232042,
			"data": "4,15,80,446,2477,13752,76375,424115,2355221,13079032,72630752,403334385,2239803950,12438120321,69071597937,383569664377,2130046094920,11828611039210,65686859759121,364773474308192,2025666747456127",
			"name": "Number of n X 3 0..1 arrays with no element less than a strict majority of its horizontal and antidiagonal neighbors.",
			"link": [
				"R. H. Hardin, \u003ca href=\"/A232042/b232042.txt\"\u003eTable of n, a(n) for n = 1..210\u003c/a\u003e"
			],
			"formula": [
				"Empirical: a(n) = 4*a(n-1) + 9*a(n-2) -a (n-3) - 6*a(n-4) for n\u003e5.",
				"Empirical g.f.: x*(4 - x - 16*x^2 - 5*x^3 + 12*x^4) / (1 - 4*x - 9*x^2 + x^3 + 6*x^4). - _Colin Barker_, Oct 02 2018"
			],
			"example": [
				"Some solutions for n=7:",
				"..1..1..0....1..1..0....0..0..1....1..1..0....1..0..0....1..1..1....1..1..0",
				"..0..0..0....1..0..0....0..1..0....0..0..0....0..0..0....1..0..0....0..0..0",
				"..1..1..0....1..1..1....1..0..0....0..1..0....0..0..0....0..1..0....0..0..0",
				"..1..0..1....0..0..0....1..0..0....0..0..0....1..0..1....0..0..0....0..0..0",
				"..0..1..0....0..0..0....0..1..0....1..1..1....0..1..1....1..0..0....1..1..1",
				"..0..0..0....1..0..1....0..0..0....0..0..0....0..0..0....1..1..1....0..0..1",
				"..0..0..0....0..1..1....0..0..1....1..0..0....0..0..0....0..0..0....0..1..1"
			],
			"xref": [
				"Column 3 of A232047."
			],
			"keyword": "nonn",
			"offset": "1,1",
			"author": "_R. H. Hardin_, Nov 17 2013",
			"references": 1,
			"revision": 7,
			"time": "2018-10-02T06:31:54-04:00",
			"created": "2013-11-17T07:41:11-05:00"
		}
	]
}