{
	"greeting": "Greetings from The On-Line Encyclopedia of Integer Sequences! http://oeis.org/",
	"query": "id:A233476",
	"count": 1,
	"start": 0,
	"results": [
		{
			"number": 233476,
			"data": "8840905,1542165988,264110152411,45223720670867,7732943732414030,1322255733920272536,226068657791038230800,38651333034861710486643,6608229637236101895009182,1129810754947963897221965651",
			"name": "Number of (n+2)X(2+2) 0..3 arrays with no increasing sequence of length 3 horizontally or vertically",
			"comment": [
				"Column 2 of A233480"
			],
			"link": [
				"R. H. Hardin, \u003ca href=\"/A233476/b233476.txt\"\u003eTable of n, a(n) for n = 1..210\u003c/a\u003e"
			],
			"example": [
				"Some solutions for n=1",
				"..0..0..1..0....0..0..1..0....0..0..0..1....0..0..0..1....0..0..1..0",
				"..2..2..0..0....2..3..2..0....3..3..2..0....2..3..0..2....3..0..3..2",
				"..0..0..3..1....0..1..1..2....0..2..2..3....0..2..1..1....3..2..2..2"
			],
			"keyword": "nonn",
			"offset": "1,1",
			"author": "_R. H. Hardin_, Dec 11 2013",
			"references": 1,
			"revision": 4,
			"time": "2013-12-11T04:31:22-05:00",
			"created": "2013-12-11T04:31:22-05:00"
		}
	]
}