{
	"greeting": "Greetings from The On-Line Encyclopedia of Integer Sequences! http://oeis.org/",
	"query": "id:A233020",
	"count": 1,
	"start": 0,
	"results": [
		{
			"number": 233020,
			"data": "3,15,81,435,2337,12555,67449,362355,1946673,10458075,56183721,301834755,1621541217,8711375595,46799960409,251422553235,1350712686993,7256408541435,38983468081161,209430157488675,1125117723605697",
			"name": "Number of n X 2 0..3 arrays with no element x(i,j) adjacent to value 3-x(i,j) horizontally, vertically, diagonally or antidiagonally, and top left element zero.",
			"link": [
				"R. H. Hardin, \u003ca href=\"/A233020/b233020.txt\"\u003eTable of n, a(n) for n = 1..210\u003c/a\u003e"
			],
			"formula": [
				"Empirical: a(n) = 5*a(n-1) + 2*a(n-2).",
				"Conjectures from _Colin Barker_, Oct 06 2018: (Start)",
				"G.f.: 3*x / (1 - 5*x - 2*x^2).",
				"a(n) = sqrt(3/11)*(((5+sqrt(33))/2)^n - ((5-sqrt(33))/2)^n).",
				"(End)"
			],
			"example": [
				"Some solutions for n=5:",
				"..0..2....0..0....0..0....0..1....0..0....0..0....0..1....0..2....0..0....0..0",
				"..2..2....1..1....2..2....1..1....1..1....0..2....0..1....2..0....1..1....0..0",
				"..3..2....1..1....2..3....0..0....0..0....2..2....0..1....2..0....1..1....1..1",
				"..3..2....1..3....3..3....2..2....1..1....2..3....0..1....0..2....3..3....3..1",
				"..2..3....3..3....3..2....0..0....3..1....2..3....0..1....0..2....2..3....3..1"
			],
			"xref": [
				"Column 2 of A233026."
			],
			"keyword": "nonn",
			"offset": "1,1",
			"author": "_R. H. Hardin_, Dec 03 2013",
			"references": 2,
			"revision": 7,
			"time": "2018-10-06T11:45:58-04:00",
			"created": "2013-12-03T07:27:20-05:00"
		}
	]
}