{
	"greeting": "Greetings from The On-Line Encyclopedia of Integer Sequences! http://oeis.org/",
	"query": "id:A233478",
	"count": 1,
	"start": 0,
	"results": [
		{
			"number": 233478,
			"data": "21111771232,45223720670867,94192817031882237,196122261590679299496,407469009947158776878785,846537132143871418217915702,1758426966252867944813771559333,3652590644663404309130794104320920",
			"name": "Number of (n+2)X(4+2) 0..3 arrays with no increasing sequence of length 3 horizontally or vertically",
			"comment": [
				"Column 4 of A233480"
			],
			"link": [
				"R. H. Hardin, \u003ca href=\"/A233478/b233478.txt\"\u003eTable of n, a(n) for n = 1..69\u003c/a\u003e"
			],
			"example": [
				"Some solutions for n=1",
				"..0..0..0..0..1..1....0..0..0..0..1..1....0..0..0..0..0..0....0..0..0..0..1..1",
				"..0..0..0..0..1..1....0..0..0..0..0..0....0..0..0..0..2..0....0..0..0..0..0..0",
				"..2..3..1..3..1..2....0..3..2..2..0..2....3..3..2..0..0..3....1..1..0..3..3..2"
			],
			"keyword": "nonn",
			"offset": "1,1",
			"author": "_R. H. Hardin_, Dec 11 2013",
			"references": 1,
			"revision": 4,
			"time": "2013-12-11T04:32:45-05:00",
			"created": "2013-12-11T04:32:45-05:00"
		}
	]
}