{
	"greeting": "Greetings from The On-Line Encyclopedia of Integer Sequences! http://oeis.org/",
	"query": "id:A233848",
	"count": 1,
	"start": 0,
	"results": [
		{
			"number": 233848,
			"data": "633584640,370375897185,220722832237568,131619893152104448,78444365858611557120,46755385347391762949529,27863681225902674985846368,16605973868272358025738769936,9896317573443618897433551573032",
			"name": "Number of (3+2)X(n+2) 0..3 arrays with no increasing sequence of length 3 horizontally or antidiagonally downwards",
			"comment": [
				"Row 3 of A233845"
			],
			"link": [
				"R. H. Hardin, \u003ca href=\"/A233848/b233848.txt\"\u003eTable of n, a(n) for n = 1..210\u003c/a\u003e"
			],
			"example": [
				"Some solutions for n=1",
				"..0..0..0....0..0..0....0..0..0....0..0..0....0..0..0....0..0..0....0..0..0",
				"..0..0..1....0..0..1....0..0..1....0..0..0....0..0..1....0..0..0....0..0..1",
				"..1..2..1....0..3..1....0..0..0....1..0..2....0..1..1....1..2..0....0..1..1",
				"..2..3..0....1..0..3....2..0..3....1..0..0....2..3..0....1..2..2....2..2..1",
				"..2..0..2....1..2..2....0..0..2....2..1..1....1..3..0....2..0..3....1..1..2"
			],
			"keyword": "nonn",
			"offset": "1,1",
			"author": "_R. H. Hardin_, Dec 16 2013",
			"references": 1,
			"revision": 4,
			"time": "2013-12-16T17:54:42-05:00",
			"created": "2013-12-16T17:54:42-05:00"
		}
	]
}