{
	"greeting": "Greetings from The On-Line Encyclopedia of Integer Sequences! http://oeis.org/",
	"query": "id:A233093",
	"count": 1,
	"start": 0,
	"results": [
		{
			"number": 233093,
			"data": "5,65,941,13721,200165,2920145,42601181,621496841,9066845525,132273701825,1929704454221,28151924602361,410700642310085,5991598087037105,87409767451696061,1275196923253218281",
			"name": "Number of n X 3 0..3 arrays with no element x(i,j) adjacent to value 3-x(i,j) horizontally, diagonally or antidiagonally, top left element zero, and 1 appearing before 2 in row major order.",
			"link": [
				"R. H. Hardin, \u003ca href=\"/A233093/b233093.txt\"\u003eTable of n, a(n) for n = 1..210\u003c/a\u003e"
			],
			"formula": [
				"Empirical: a(n) = 16*a(n-1) - 21*a(n-2) + 6*a(n-3).",
				"Empirical g.f.: x*(5 - 15*x + 6*x^2) / ((1 - x)*(1 - 15*x + 6*x^2)). - _Colin Barker_, Oct 07 2018"
			],
			"example": [
				"Some solutions for n=5:",
				"..0..0..1....0..0..0....0..1..0....0..0..0....0..0..1....0..0..1....0..0..1",
				"..1..1..1....1..1..1....0..2..0....0..1..0....2..0..0....1..1..1....0..1..0",
				"..0..1..0....0..1..0....2..2..0....3..1..3....0..0..2....3..1..3....1..1..0",
				"..3..2..3....0..2..3....2..2..3....0..2..0....1..0..0....3..2..0....3..1..3",
				"..2..3..2....2..2..2....3..3..2....3..2..2....2..0..2....3..2..3....3..1..3"
			],
			"xref": [
				"Column 3 of A233098."
			],
			"keyword": "nonn",
			"offset": "1,1",
			"author": "_R. H. Hardin_, Dec 04 2013",
			"references": 1,
			"revision": 9,
			"time": "2018-10-07T08:02:50-04:00",
			"created": "2013-12-04T06:39:30-05:00"
		}
	]
}