{
	"greeting": "Greetings from The On-Line Encyclopedia of Integer Sequences! http://oeis.org/",
	"query": "id:A233461",
	"count": 1,
	"start": 0,
	"results": [
		{
			"number": 233461,
			"data": "1,2,3,4,5,6,8,9,10,12,15,16,17,20,24,27,30,32,34,39,40,45,48,51,55,57,60,64,68,80,85,90,96,100,102,120,128,136,160,168,170,180,186,192,204,205,216,230,238,240,255,272,285,320,340,360,384,408,480,510",
			"name": "Numbers k such that k divides 1 + Sum_{j=1..k} prime(j)^16.",
			"comment": [
				"a(616) \u003e 1.5*10^13. - _Bruce Garner_, Jun 06 2021"
			],
			"link": [
				"Bruce Garner, \u003ca href=\"/A233461/b233461.txt\"\u003eTable of n, a(n) for n = 1..615\u003c/a\u003e (first 479 terms from Robert Price)",
				"OEIS Wiki, \u003ca href=\"https://oeis.org/wiki/Sums_of_primes_divisibility_sequences\"\u003eSums of powers of primes divisibility sequences\u003c/a\u003e"
			],
			"example": [
				"a(9)=10 because 1 plus the sum of the first 10 primes^16 is 256716898101196243797130 which is divisible by 10."
			],
			"mathematica": [
				"p = 2; k = 0; s = 1; lst = {}; While[k \u003c 40000000000, s = s + p^16; If[Mod[s, ++k] == 0, AppendTo[lst, k]; Print[{k, p}]]; p = NextPrime@ p] (* derived from A128169 *)"
			],
			"xref": [
				"Cf. A085450 (smallest m \u003e 1 such that m divides Sum_{k=1..m} prime(k)^n).",
				"Cf. A007504, A045345, A171399, A128165, A233523, A050247, A050248.",
				"Cf. A024450, A111441, A217599, A128166, A233862, A217600, A217601."
			],
			"keyword": "nonn",
			"offset": "1,2",
			"author": "_Robert Price_, Dec 10 2013",
			"references": 1,
			"revision": 25,
			"time": "2021-06-06T15:50:25-04:00",
			"created": "2013-12-11T14:19:22-05:00"
		}
	]
}