{
	"greeting": "Greetings from The On-Line Encyclopedia of Integer Sequences! http://oeis.org/",
	"query": "id:A233370",
	"count": 1,
	"start": 0,
	"results": [
		{
			"number": 233370,
			"data": "57,849,10477,117318,1206656,11689997,106244229,895749726,6977171013,50507900590",
			"name": "Number of (5+1)X(n+1) 0..1 arrays x(i,j) with row sums sum{j*x(i,j), j=1..n+1} nondecreasing, and column sums sum{i^2*x(i,j), i=1..5+1} nondecreasing",
			"comment": [
				"Row 5 of A233366"
			],
			"example": [
				"Some solutions for n=4",
				"..0..0..0..0..0....1..0..1..0..0....0..0..0..0..0....0..0..1..0..0",
				"..1..0..1..0..0....0..0..0..0..1....1..0..0..0..0....1..0..1..1..0",
				"..0..1..0..0..1....1..0..0..0..1....0..1..0..0..0....0..1..1..0..1",
				"..0..0..0..1..1....0..0..0..1..1....0..0..1..1..1....1..0..0..1..1",
				"..0..0..1..1..1....1..0..0..1..1....0..0..1..1..1....1..0..0..1..1",
				"..0..0..1..1..1....0..1..1..1..1....0..0..1..1..1....0..1..1..1..1"
			],
			"keyword": "nonn",
			"offset": "1,1",
			"author": "_R. H. Hardin_, Dec 08 2013",
			"references": 0,
			"revision": 3,
			"time": "2013-12-08T06:24:56-05:00",
			"created": "2013-12-08T06:24:56-05:00"
		}
	]
}