{
	"greeting": "Greetings from The On-Line Encyclopedia of Integer Sequences! http://oeis.org/",
	"query": "id:A233902",
	"count": 1,
	"start": 0,
	"results": [
		{
			"number": 233902,
			"data": "233984,1521520,8198512,78303216,522622840,7039959748,48247033760,957603465060,5914059260648,174891344286892,934118695666376,37849633348551964,179636533394322960,8888244105543628476",
			"name": "Number of (n+1)X(6+1) 0..6 arrays with every 2X2 subblock having the sum of the squares of all six edge and diagonal differences equal to 35",
			"comment": [
				"Column 6 of A233903"
			],
			"link": [
				"R. H. Hardin, \u003ca href=\"/A233902/b233902.txt\"\u003eTable of n, a(n) for n = 1..29\u003c/a\u003e"
			],
			"example": [
				"Some solutions for n=1",
				"..0..3..2..4..2..1..5....0..2..6..2..6..2..1....4..0..4..6..3..0..4",
				"..2..4..0..3..0..4..3....1..4..3..4..5..4..0....1..2..3..2..4..2..3"
			],
			"keyword": "nonn",
			"offset": "1,1",
			"author": "_R. H. Hardin_, Dec 17 2013",
			"references": 1,
			"revision": 4,
			"time": "2013-12-17T12:30:37-05:00",
			"created": "2013-12-17T12:30:37-05:00"
		}
	]
}