{
	"greeting": "Greetings from The On-Line Encyclopedia of Integer Sequences! http://oeis.org/",
	"query": "id:A233024",
	"count": 1,
	"start": 0,
	"results": [
		{
			"number": 233024,
			"data": "243,12555,959385,75489671,6050598339,487651369463,39386531523609,3183658674622011,257414773440925415,20815582600558673815,1683301058522200223439,136126239210040751513149",
			"name": "Number of nX6 0..3 arrays with no element x(i,j) adjacent to value 3-x(i,j) horizontally, vertically, diagonally or antidiagonally, and top left element zero",
			"comment": [
				"Column 6 of A233026"
			],
			"link": [
				"R. H. Hardin, \u003ca href=\"/A233024/b233024.txt\"\u003eTable of n, a(n) for n = 1..210\u003c/a\u003e",
				"R. H. Hardin, \u003ca href=\"/A233024/a233024.txt\"\u003eEmpirical recurrence of order 50\u003c/a\u003e"
			],
			"formula": [
				"Empirical recurrence of order 50 (see link above)"
			],
			"example": [
				"Some solutions for n=2",
				"..0..0..2..3..3..3....0..2..2..3..2..0....0..1..0..1..0..0....0..0..1..1..1..1",
				"..0..0..2..3..2..3....2..0..2..3..2..2....1..0..1..1..1..1....0..0..1..3..1..3"
			],
			"keyword": "nonn",
			"offset": "1,1",
			"author": "_R. H. Hardin_, Dec 03 2013",
			"references": 1,
			"revision": 5,
			"time": "2014-08-11T22:45:56-04:00",
			"created": "2013-12-03T07:30:32-05:00"
		}
	]
}