{
	"greeting": "Greetings from The On-Line Encyclopedia of Integer Sequences! http://oeis.org/",
	"query": "id:A233641",
	"count": 1,
	"start": 0,
	"results": [
		{
			"number": 233641,
			"data": "4320,99380,2118568,48384788,1060656512,24003655980,531400908604,11957878063196,265950544067684,5965795563741028,132995605031840160,2978341581135279648,66478181781268446932,1487401749339915136108",
			"name": "Number of (n+1)X(5+1) 0..2 arrays with every 2X2 subblock having the sum of the squares of the edge differences equal to 2",
			"comment": [
				"Column 5 of A233644"
			],
			"link": [
				"R. H. Hardin, \u003ca href=\"/A233641/b233641.txt\"\u003eTable of n, a(n) for n = 1..210\u003c/a\u003e",
				"R. H. Hardin, \u003ca href=\"/A233641/a233641.txt\"\u003eEmpirical recurrence of order 66\u003c/a\u003e"
			],
			"formula": [
				"Empirical recurrence of order 66 (see link above)"
			],
			"example": [
				"Some solutions for n=2",
				"..1..0..0..0..1..2....2..1..2..2..2..1....2..1..0..0..1..2....1..1..0..1..1..1",
				"..1..1..1..1..1..1....1..1..1..2..1..1....1..1..1..1..1..1....1..0..0..0..0..0",
				"..2..1..2..1..0..0....2..2..2..2..2..1....1..2..1..2..1..0....1..1..1..1..1..0"
			],
			"keyword": "nonn",
			"offset": "1,1",
			"author": "_R. H. Hardin_, Dec 14 2013",
			"references": 1,
			"revision": 5,
			"time": "2014-08-11T22:45:56-04:00",
			"created": "2013-12-14T08:14:35-05:00"
		}
	]
}