{
	"greeting": "Greetings from The On-Line Encyclopedia of Integer Sequences! http://oeis.org/",
	"query": "id:A233262",
	"count": 1,
	"start": 0,
	"results": [
		{
			"number": 233262,
			"data": "6896,8390656,24461443072,71328837140480,222290692443996160,702177183940808278016,2242238966451009797226496,7190233079434838637629407232,23116065100534863987420040265728",
			"name": "Number of 7Xn 0..5 arrays with no element x(i,j) adjacent to itself or value 5-x(i,j) horizontally or antidiagonally, top left element zero, and 1 appearing before 2 3 and 4, and 2 appearing before 3 in row major order (unlabelled 6-colorings with no clashing color pairs)",
			"comment": [
				"Row 7 of A233256"
			],
			"link": [
				"R. H. Hardin, \u003ca href=\"/A233262/b233262.txt\"\u003eTable of n, a(n) for n = 1..209\u003c/a\u003e",
				"R. H. Hardin, \u003ca href=\"/A233262/a233262.txt\"\u003eEmpirical recurrence of order 28\u003c/a\u003e"
			],
			"formula": [
				"Empirical recurrence of order 28 (see link above)"
			],
			"example": [
				"Some solutions for n=2",
				"..0..1....0..1....0..1....0..1....0..1....0..1....0..1....0..1....0..1....0..1",
				"..0..1....0..1....0..1....0..1....0..1....0..1....0..1....0..1....0..1....0..1",
				"..0..2....0..2....0..1....0..2....0..1....0..1....0..2....0..2....0..2....0..2",
				"..0..1....5..4....5..4....0..4....2..1....0..1....5..2....1..0....4..5....4..0",
				"..0..4....0..4....0..2....2..4....2..0....2..5....1..5....1..3....4..3....1..2",
				"..2..5....2..4....1..5....3..4....4..3....3..4....4..0....4..2....0..4....1..5",
				"..4..0....2..1....3..4....5..2....0..3....0..3....3..4....1..0....5..1....1..2"
			],
			"keyword": "nonn",
			"offset": "1,1",
			"author": "_R. H. Hardin_, Dec 06 2013",
			"references": 1,
			"revision": 5,
			"time": "2014-08-11T22:45:56-04:00",
			"created": "2013-12-06T16:31:50-05:00"
		}
	]
}