{
	"greeting": "Greetings from The On-Line Encyclopedia of Integer Sequences! http://oeis.org/",
	"query": "id:A233027",
	"count": 1,
	"start": 0,
	"results": [
		{
			"number": 233027,
			"data": "0,0,1,2,2,4,2,6,4,6,3,8,2,7,3,4,4,7,2,7,8,3,9,15,7,14,9,10,9,15,6,15,8,16,11,17,8,23,11,15,16,23,8,23,18,18,19,31,13,27,20,19,14,31,10,36,17,24,19,39,16,39,24,22,25,33,18,47,28,31,18,47,15",
			"name": "a(n) is number of nonnegative integers not exceeding n which have no decimal digits occurring in n and respectively prime to n.",
			"link": [
				"Peter J. C. Moses, \u003ca href=\"/A233027/b233027.txt\"\u003eTable of n, a(n) for n = 0..9999\u003c/a\u003e"
			],
			"example": [
				"Let n=12. Numbers which are prime to 12 are 1,5,7,11. However, 1 and 11 are not acceptable by the condition. So, a(12)=2."
			],
			"xref": [
				"Cf. A000010, A232897."
			],
			"keyword": "nonn,base",
			"offset": "0,4",
			"author": "_Vladimir Shevelev_, Dec 03 2013",
			"ext": [
				"More terms from _Peter J. C. Moses_"
			],
			"references": 2,
			"revision": 12,
			"time": "2013-12-05T06:20:57-05:00",
			"created": "2013-12-05T06:20:57-05:00"
		}
	]
}