{
	"greeting": "Greetings from The On-Line Encyclopedia of Integer Sequences! http://oeis.org/",
	"query": "id:A234523",
	"count": 1,
	"start": 0,
	"results": [
		{
			"number": 234523,
			"data": "4,6,8,12,18,24,30,36,40,48,60,72,84,90,96,120,126,144,168,180,192,210,216,240,252,264,270,288,300,360,420,432,480,504,540,600,630,660,720,840,900,960,1008,1080,1260,1320,1440,1512,1680,1800,1848,1980,2016",
			"name": "Sequence of numbers from A234520 such that A234520(n) \u003e A234520(k) for all k \u003c n.",
			"comment": [
				"A234520 = composite numbers n sorted by decreasing values of number beta(n) = sigma(n)^(1/n) - (n+1)^(1/n), where sigma(n) = A000203(n) = the sum of divisors of n."
			],
			"xref": [
				"Cf. A234515, A234516, A234517, A234518, A234519, A234520, A234521, A234522, A234524."
			],
			"keyword": "nonn",
			"offset": "1,1",
			"author": "_Jaroslav Krizek_, Jan 14 2014",
			"references": 9,
			"revision": 4,
			"time": "2014-01-18T13:37:32-05:00",
			"created": "2014-01-18T13:37:32-05:00"
		}
	]
}