{
	"greeting": "Greetings from The On-Line Encyclopedia of Integer Sequences! http://oeis.org/",
	"query": "id:A234353",
	"count": 1,
	"start": 0,
	"results": [
		{
			"number": 234353,
			"data": "8,140,1290,7374,32477,116420,358112,976063,2425756,5560046,11946923,24274195,46975815,87140153",
			"name": "Number of non-equivalent (mod D_3) ways to arrange 5 indistinguishable points on a triangular grid of side n so that no three points are collinear.",
			"comment": [
				"Column 5 of triangle A234350.",
				"Without the restriction \"non-equivalent (mod D_3)\" the numbers are given by A194133."
			],
			"example": [
				"There are a(4) = 8 non-equivalent ways to arrange 5 indistinguishable points (x) on a triangular grid of side 4. Some examples:",
				"      x          x         .          .          .",
				"     x x        . .       x .        x x        x .",
				"    . . .      x . x     x . x      . x .      x . x",
				"   . x x .    . x x .   . x x .    x . . x    . x . x"
			],
			"xref": [
				"Cf. A234350, A194133",
				"Arranging 3 points: A234351",
				"Arranging 4 points: A234352",
				"Arranging 6 points: A234354"
			],
			"keyword": "nonn,more",
			"offset": "4,1",
			"author": "_Heinrich Ludwig_, Dec 30 2013",
			"ext": [
				"a(14)-a(17) from _Heinrich Ludwig_, Apr 19 2016"
			],
			"references": 4,
			"revision": 11,
			"time": "2016-04-19T07:48:38-04:00",
			"created": "2014-01-03T02:50:57-05:00"
		}
	]
}