{
	"greeting": "Greetings from The On-Line Encyclopedia of Integer Sequences! http://oeis.org/",
	"query": "id:A234631",
	"count": 1,
	"start": 0,
	"results": [
		{
			"number": 234631,
			"data": "20305,30507,50711,71113,111317,131719,171923,192329,232931",
			"name": "Timestamps Hmmss where H,mm,ss are three consecutive primes, 0 \u003c H \u003c 24.",
			"link": [
				"A. Kulsha, \u003ca href=\"http://groups.yahoo.com/neo/groups/primenumbers/conversations/messages/25438\"\u003eRe: The probability of occurrence of 3 consecutive primes\u003c/a\u003e, primenumbers group, Dec 28 2013.",
				"A. Kulsha, \u003ca href=\"/A234631/a234631.png\"\u003eRe: The probability of occurrence of 3 consecutive primes\u003c/a\u003e [Cached copy]"
			],
			"example": [
				"The terms correspond to the following timestamps:",
				"    02:03:05",
				"    03:05:07",
				"    05:07:11",
				"    07:11:13",
				"    11:13:17",
				"    13:17:19",
				"    17:19:23",
				"    19:23:29",
				"    23:29:31"
			],
			"program": [
				"(PARI) forprime(h=1,24,printf(\"%d%02d%02d, \",h,m=nextprime(h+1),nextprime(m+1)))"
			],
			"xref": [
				"Cf. A050246, A316603."
			],
			"keyword": "nonn,easy,base,fini,full",
			"offset": "1,1",
			"author": "_M. F. Hasler_, Dec 28 2013",
			"references": 1,
			"revision": 14,
			"time": "2019-11-17T14:51:56-05:00",
			"created": "2013-12-31T09:18:09-05:00"
		}
	]
}