{
	"greeting": "Greetings from The On-Line Encyclopedia of Integer Sequences! http://oeis.org/",
	"query": "id:A234583",
	"count": 1,
	"start": 0,
	"results": [
		{
			"number": 234583,
			"data": "0,0,0,1,0,2,0,3,0,4,0,5,0,6,0,7,0,0,1,0,1,1,0,2,1,0,3,1,0,4,1,0,5,1,0,6,1,0,7,1,0,0,2,0,1,2,0,2,2,0,3,2,0,4,2,0,5,2,0,6,2,0,7,2,0,0,3,0,1,3,0,2,3,0,3,3,0,4,3,0,5,3,0,6,3,0,7,3,0,0,4,0,1,4,0,2,4,0,3,4,0,4,4,0,5",
			"name": "Let S_n = 0 followed by base-8 expansion of n, reversed; sequence is concatenation of S_0, S_1, S_2, ...",
			"comment": [
				"This is a version of the van der Corput sequence in base 8."
			],
			"reference": [
				"Crandall, Richard; Pomerance, Carl. Prime numbers. A computational perspective. Springer-Verlag, New York, 2001. xvi+545 pp. ISBN: 0-387-94777-9 MR1821158 (2002a:11007). See pp. 373-374."
			],
			"maple": [
				"See A234577."
			],
			"mathematica": [
				"Flatten[Table[Join[{0},Reverse[IntegerDigits[n,8]]],{n,0,40}]] (* _Harvey P. Dale_, Oct 26 2015 *)"
			],
			"xref": [
				"Cf. A234577-A234585."
			],
			"keyword": "nonn,base",
			"offset": "0,6",
			"author": "_N. J. A. Sloane_, Dec 29 2013",
			"references": 0,
			"revision": 6,
			"time": "2015-10-26T09:45:42-04:00",
			"created": "2013-12-29T13:43:59-05:00"
		}
	]
}