{
	"greeting": "Greetings from The On-Line Encyclopedia of Integer Sequences! http://oeis.org/",
	"query": "id:A234115",
	"count": 1,
	"start": 0,
	"results": [
		{
			"number": 234115,
			"data": "31,1361,231713,157630963,427196005695,4625943683805313,200376051988817866625,34754816964141969688314115,24157262935852623408023272643359,67332158893994957162261589597358347857",
			"name": "Number of (n+1)X(n+1) 0..2 arrays with every 2X2 subblock having the absolute values of all six edge and diagonal differences no larger than 1",
			"comment": [
				"Diagonal of A234122"
			],
			"link": [
				"R. H. Hardin, \u003ca href=\"/A234115/b234115.txt\"\u003eTable of n, a(n) for n = 1..13\u003c/a\u003e"
			],
			"example": [
				"Some solutions for n=2",
				"..2..1..2....2..1..1....1..2..1....1..1..1....2..1..2....1..1..1....1..0..1",
				"..2..1..2....1..2..1....2..1..2....0..1..0....1..2..2....1..0..1....0..0..1",
				"..2..2..1....1..2..1....2..1..2....0..0..0....2..2..1....0..0..1....1..0..1"
			],
			"keyword": "nonn",
			"offset": "1,1",
			"author": "_R. H. Hardin_, Dec 19 2013",
			"references": 1,
			"revision": 5,
			"time": "2013-12-19T16:57:44-05:00",
			"created": "2013-12-19T16:57:44-05:00"
		}
	]
}