{
	"greeting": "Greetings from The On-Line Encyclopedia of Integer Sequences! http://oeis.org/",
	"query": "id:A234160",
	"count": 1,
	"start": 0,
	"results": [
		{
			"number": 234160,
			"data": "649450,193116778,57647946980,17566272589090,5391006112450218,1661285969383854576,513096321262694789718,158690337181889624875158,49123836190724283158557568,15216294709692549181512831606",
			"name": "Number of (n+1)X(7+1) 0..3 arrays with every 2X2 subblock having the absolute values of all six edge and diagonal differences no larger than 1",
			"comment": [
				"Column 7 of A234161"
			],
			"link": [
				"R. H. Hardin, \u003ca href=\"/A234160/b234160.txt\"\u003eTable of n, a(n) for n = 1..210\u003c/a\u003e"
			],
			"example": [
				"Some solutions for n=1",
				"..0..0..0..0..1..1..1..1....0..0..0..1..1..1..1..0....0..0..1..0..1..1..0..1",
				"..0..1..0..1..1..1..0..1....0..0..1..0..1..0..0..1....1..1..0..0..1..0..0..0"
			],
			"keyword": "nonn",
			"offset": "1,1",
			"author": "_R. H. Hardin_, Dec 20 2013",
			"references": 1,
			"revision": 4,
			"time": "2013-12-20T07:33:42-05:00",
			"created": "2013-12-20T07:33:42-05:00"
		}
	]
}