{
	"greeting": "Greetings from The On-Line Encyclopedia of Integer Sequences! http://oeis.org/",
	"query": "id:A234598",
	"count": 1,
	"start": 0,
	"results": [
		{
			"number": 234598,
			"data": "9,18,35,82,180,385,846,1853,4034,8810,19249,42014,91727,200298,437316,954809,2084746,4551801,9938290,21699138,47377577,103443386,225856667,493131922,1076696324,2350841633,5132790390,11206852917,24468864530",
			"name": "Cardinality of the Weyl alternation set corresponding to the zero-weight in the adjoint representation of the Lie algebra of so(2n).",
			"comment": [
				"Cardinality of the Weyl alternation set corresponding to the zero-weight in the adjoint representation of the Lie algebra of type D and rank n."
			],
			"reference": [
				"P. E. Harris, Combinatorial problems related to Kostant's weight multiplicity formula, PhD Dissertation, University of Wisconsin-Milwaukee, 2012."
			],
			"link": [
				"P. E. Harris, E. Insko, L. K. Williams, \u003ca href=\"http://arxiv.org/abs/1401.0055\"\u003eThe adjoint representation of a Lie algebra and the support of Kostant's weight multiplicity formula\u003c/a\u003e, arXiv preprint arXiv:1401.0055, 2013",
				"B. Kostant, \u003ca href=\"http://www.ncbi.nlm.nih.gov/pmc/articles/PMC528626/\"\u003eA Formula for the Multiplicity of a Weight\u003c/a\u003e, Proc Natl Acad Sci U S A. 1958 June; 44(6): 588-589.",
				"\u003ca href=\"/index/Rec\"\u003eIndex entries for linear recurrences with constant coefficients\u003c/a\u003e, signature (1,1,3,1)."
			],
			"formula": [
				"a(n) = A234597(n) + A234576(n).",
				"a(n) = 3*A234576(n-1) + 2*A234576(n-2) + 6*A234576(n-3) + 2*A234576(n-4).",
				"G.f.: x^4*(2*x^3 + 8*x^2 + 9*x + 9)/(-x^4 - 3*x^3 - x^2 - x + 1). - _Ralf Stephan_, Jan 05 2014"
			],
			"example": [
				"For n = 8, a(n) = 107+73 = 180 and a(n) = 3(34) + 2(14) + 6(7) + 2(4) = 180."
			],
			"maple": [
				"r:=proc(n::nonnegint)",
				"if n\u003c=3 then return 0:",
				"elif n=4 then return 4:",
				"elif n=5 then return 7:",
				"elif n=6 then return 14:",
				"elif n=7 then return 34:",
				"else return",
				"r(n-1)+r(n-2)+3*r(n-3)+r(n-4):",
				"end if;",
				"end proc:",
				"a:=proc(n::nonnegint)",
				"if n\u003c=3 then return 0:",
				"elif n=4 then return 9:",
				"elif n=5 then return 18:",
				"elif n=6 then return 35:",
				"elif n=5 then return 82:",
				"else return",
				"3*r(n-1)+2*r(n-2)+6*r(n-3)+2*r(n-4):",
				"end if;",
				"end proc:"
			],
			"mathematica": [
				"LinearRecurrence[{1, 1, 3, 1}, {9, 18, 35, 82}, 30] (* _Jean-François Alcover_, Dec 06 2017 *)"
			],
			"xref": [
				"Cf. A232163, A232165, A234576, A234597."
			],
			"keyword": "nonn,easy",
			"offset": "4,1",
			"author": "_Erik Insko_, Dec 28 2013",
			"ext": [
				"More terms from _Ralf Stephan_, Jan 05 2014"
			],
			"references": 0,
			"revision": 24,
			"time": "2017-12-06T03:43:52-05:00",
			"created": "2014-01-06T05:17:56-05:00"
		}
	]
}