{
	"greeting": "Greetings from The On-Line Encyclopedia of Integer Sequences! http://oeis.org/",
	"query": "id:A234533",
	"count": 1,
	"start": 0,
	"results": [
		{
			"number": 234533,
			"data": "1,2,3,4,5,6,1,2,3,4,5,6,7,2,3,4,5,6,1,2,3,4,5,6,7,2,3,4,5,6,7,8,3,4,5,6,1,2,3,4,5,6,7,2,3,4,5,6,7,8,3,4,5,6,7,2,3,4,5,6,1,2,3,4,5,6,7,2,3,4,5,6,7,2,3,4,5,6,7,2,3,4,5,6,7,8,3",
			"name": "Smallest number of hex numbers summing to n.",
			"comment": [
				"This sequence is to A003215 as A002828 is to A000290, and as A061336 is to A000217."
			],
			"link": [
				"Lars Blomberg, \u003ca href=\"/A234533/b234533.txt\"\u003eTable of n, a(n) for n = 1..10000\u003c/a\u003e"
			],
			"example": [
				"a(21) = 3, because 21 = 19 + 1 + 1 = 7 + 7 + 7, so there are two ways to express 21 as the sum of 3 hex numbers, but no way to express 21 as the sum of 2 hex numbers."
			],
			"keyword": "nonn",
			"offset": "1,2",
			"author": "_Allan C. Wechsler_, Dec 27 2013",
			"ext": [
				"a(27)-a(87) from _Lars Blomberg_, Jan 07 2014"
			],
			"references": 7,
			"revision": 10,
			"time": "2014-01-08T03:04:08-05:00",
			"created": "2013-12-27T10:15:31-05:00"
		}
	]
}