{
	"greeting": "Greetings from The On-Line Encyclopedia of Integer Sequences! http://oeis.org/",
	"query": "id:A234587",
	"count": 1,
	"start": 0,
	"results": [
		{
			"number": 234587,
			"data": "1,1,3,1,3,5,7,5,7,5,7,5,7,9,11,9,11,13,15,13,15,17,19,17,19,17,19,17,19,21,23,21,23,21,23,21,23,25,27,25,27,25,27,25,27,29,31,29,31,33,35,33,35,37,39,37,39,37,39,37,39,41,43,41,43,45,47,45,47,49,51,49,51,49,51,49,51,53,55,53,55,57",
			"name": "Odd-indexed terms of A234586.",
			"comment": [
				"a(n) = abs(A234586(n+1) - A234586(n)) = A234586(2*n-1). - _Reinhard Zumkeller_, Jul 15 2014"
			],
			"link": [
				"Reinhard Zumkeller, \u003ca href=\"/A234587/b234587.txt\"\u003eTable of n, a(n) for n = 1..10000\u003c/a\u003e"
			],
			"formula": [
				"There is a surprising connection with the Thue-Morse sequence A010060. If the k-th run of equal terms in A010060 (k\u003e=0) has length L (L=1 or 2, see A026465), replace it with 2L copies of the pair 4k+1, 4k+3. This produces the current sequence apart from the initial 1: 0 1 1 0 1 0 0 1 ... becomes 1 3 1 3 5 7 5 7 5 7 5 7 9 11 9 11 13 ... - _N. J. A. Sloane_, Dec 31 2013"
			],
			"program": [
				"(Haskell)",
				"a234587 n = a234587_list !! (n-1)",
				"-- where a234587_list is defined in A234586.",
				"-- _Reinhard Zumkeller_, Jul 15 2014"
			],
			"xref": [
				"Cf. A234586, A010060, A026465."
			],
			"keyword": "nonn",
			"offset": "1,3",
			"author": "_Eric Angelini_, Dec 31 2013",
			"references": 2,
			"revision": 16,
			"time": "2018-05-23T16:42:48-04:00",
			"created": "2014-01-20T11:54:28-05:00"
		}
	]
}