{
	"greeting": "Greetings from The On-Line Encyclopedia of Integer Sequences! http://oeis.org/",
	"query": "id:A234153",
	"count": 1,
	"start": 0,
	"results": [
		{
			"number": 234153,
			"data": "46,2210,411712,305867942,906740091154,10766110422202828,513096321262694789718,98329465854339796818641798,75883578239965077307319666003040",
			"name": "Number of (n+1)X(n+1) 0..3 arrays with every 2X2 subblock having the absolute values of all six edge and diagonal differences no larger than 1",
			"comment": [
				"Diagonal of A234161"
			],
			"link": [
				"R. H. Hardin, \u003ca href=\"/A234153/b234153.txt\"\u003eTable of n, a(n) for n = 1..11\u003c/a\u003e"
			],
			"example": [
				"Some solutions for n=2",
				"..2..2..2....3..2..2....3..3..2....1..0..1....3..2..3....1..1..1....3..2..3",
				"..2..2..3....2..2..1....2..2..2....0..1..1....2..2..2....1..0..1....2..3..2",
				"..2..3..3....3..2..1....1..1..2....1..0..1....1..2..1....0..1..0....2..3..3"
			],
			"keyword": "nonn",
			"offset": "1,1",
			"author": "_R. H. Hardin_, Dec 20 2013",
			"references": 1,
			"revision": 5,
			"time": "2013-12-20T07:26:02-05:00",
			"created": "2013-12-20T07:26:02-05:00"
		}
	]
}