{
	"greeting": "Greetings from The On-Line Encyclopedia of Integer Sequences! http://oeis.org/",
	"query": "id:A234269",
	"count": 1,
	"start": 0,
	"results": [
		{
			"number": 234269,
			"data": "0,0,1,1,4,7,18,39,90,206,470,1085,2492,5762,13314,30849,71556,166210,386562,899976,2097524,4892966,11423984,26693381,62417940,146053272,341970538,801168316,1878016792,4404544926,10335098184,24262063281,56980852484,133877548896",
			"name": "Expansion of (1-2*x^2-sqrt(1-4*x^2-4*x^3))/(2*x*sqrt(1-4*x^2-4*x^3)).",
			"link": [
				"Alois P. Heinz, \u003ca href=\"/A234269/b234269.txt\"\u003eTable of n, a(n) for n = 0..1000\u003c/a\u003e",
				"J.-L. Baril, J.-M. Pallo, \u003ca href=\"http://jl.baril.u-bourgogne.fr/Motzkin.pdf\"\u003eMotzkin subposet and Motzkin geodesics in Tamari lattices\u003c/a\u003e, 2013."
			],
			"formula": [
				"Conjecture D-finite with recurrence: -(n+1)*(2*n-5)*a(n) -2*n*(n-4)*a(n-1) +4*(n-1)*(2*n-3)*a(n-2) +2*(8*n^2-32*n+29)*a(n-3) +4*(n-2)*(2*n-7)*a(n-4)=0. - _R. J. Mathar_, Jan 24 2020"
			],
			"mathematica": [
				"CoefficientList[Series[(1 - 2 x^2 - Sqrt[1 - 4 x^2 - 4 x^3]) / (2 x Sqrt[1 - 4 x^2 - 4 x^3]), {x, 0, 40}], x] (* _Vincenzo Librandi_, Jan 25 2020 *)"
			],
			"program": [
				"(MAGMA)  m:=50; R\u003cx\u003e:=PowerSeriesRing(Rationals(), m); [0,0] cat  Coefficients(R!((1 - 2*x^2 - Sqrt(1 - 4*x^2 - 4*x^3)) / (2*x*Sqrt(1 - 4*x^2 - 4*x^3)))); // _Vincenzo Librandi_, Jan 25 2020",
				"(PARI) seq(n)={Vec((1-2*x^2-sqrt(1-4*x^2-4*x^3 + O(x^2*x^n)))/(2*x*sqrt(1-4*x^2-4*x^3 + O(x*x^n))), -(n+1))} \\\\ _Andrew Howroyd_, Jan 25 2020"
			],
			"xref": [
				"Cf. A234270."
			],
			"keyword": "nonn",
			"offset": "0,5",
			"author": "_N. J. A. Sloane_, Dec 24 2013",
			"ext": [
				"Offset changed to 0 and more terms from _Alois P. Heinz_, Nov 16 2015"
			],
			"references": 2,
			"revision": 19,
			"time": "2020-01-30T21:29:17-05:00",
			"created": "2013-12-24T22:28:30-05:00"
		}
	]
}