{
	"greeting": "Greetings from The On-Line Encyclopedia of Integer Sequences! http://oeis.org/",
	"query": "id:A235825",
	"count": 1,
	"start": 0,
	"results": [
		{
			"number": 235825,
			"data": "2896,91067,2623192,66311937,1570352593,34846608905,739650496878,15108091788156,299564452754368,5794097242570815,109830528586180045,2047182453929500542,37629995994579050559,683660451068283310914",
			"name": "Number of (2+1)X(n+1) 0..3 arrays with the difference of the upper median and minimum value of each 2X2 subblock in lexicographically nondecreasing order columnwise and nonincreasing rowwise",
			"comment": [
				"Row 2 of A235824"
			],
			"link": [
				"R. H. Hardin, \u003ca href=\"/A235825/b235825.txt\"\u003eTable of n, a(n) for n = 1..210\u003c/a\u003e"
			],
			"example": [
				"Some solutions for n=2",
				"..3..1..2....0..3..2....0..2..1....0..1..3....1..3..1....1..2..3....1..2..2",
				"..0..2..0....0..0..1....2..3..0....2..2..3....1..1..2....3..1..0....0..0..0",
				"..2..2..0....0..2..0....2..2..3....1..1..3....2..1..1....1..2..2....1..1..3"
			],
			"keyword": "nonn",
			"offset": "1,1",
			"author": "_R. H. Hardin_, Jan 16 2014",
			"references": 1,
			"revision": 4,
			"time": "2014-01-16T07:04:39-05:00",
			"created": "2014-01-16T07:04:39-05:00"
		}
	]
}