{
	"greeting": "Greetings from The On-Line Encyclopedia of Integer Sequences! http://oeis.org/",
	"query": "id:A235009",
	"count": 1,
	"start": 0,
	"results": [
		{
			"number": 235009,
			"data": "61,601,63841,66553,6208513,60006553,60208513,60983449,62998657,64521217,67807489,69223681,600000001,600000409,600208513,605470081,607163929,607807489,634210201,653379481",
			"name": "Primes which become fourth powers when the digits are rotated once to the left.",
			"comment": [
				"Every term in the sequence begins with the digit 6."
			],
			"example": [
				"The prime 6208513 is in the sequence because 2085136=38^4."
			],
			"mathematica": [
				"Select[Prime[Range[34*10^6]],IntegerQ[Surd[FromDigits[ RotateLeft[ IntegerDigits[ #]]],4]]\u0026] (* _Harvey P. Dale_, Sep 12 2021 *)"
			],
			"program": [
				"(PARI) rotl(a) = my(b, c, d); b=#Str(a); c=floor(a/(10^(b-1))); d=a-c*(10^(b-1)); 10*d+c",
				"s=[]; forprime(n=2, 700000000, if(ispower(rotl(n), 4), s=concat(s, n))); s"
			],
			"xref": [
				"Cf. A235008."
			],
			"keyword": "nonn,base",
			"offset": "1,1",
			"author": "_Colin Barker_, Jan 02 2014",
			"references": 1,
			"revision": 9,
			"time": "2021-09-12T19:47:53-04:00",
			"created": "2014-01-05T12:13:47-05:00"
		}
	]
}