{
	"greeting": "Greetings from The On-Line Encyclopedia of Integer Sequences! http://oeis.org/",
	"query": "id:A235008",
	"count": 1,
	"start": 0,
	"results": [
		{
			"number": 235008,
			"data": "61,46411,84163,8904817,21173611,38458411,47763361,67772161,78506251,378906259,464100001,777963217,1462287361,1713506251,3308633611,3700508017,3874880011,5733506257,6000000001,6981816811,7827420163,12945881761,17139110563,21735672019",
			"name": "Primes which become fourth powers when the digits are rotated once to the right.",
			"link": [
				"Giovanni Resta, \u003ca href=\"/A235008/b235008.txt\"\u003eTable of n, a(n) for n = 1..325\u003c/a\u003e terms \u003c 10^16"
			],
			"example": [
				"The prime 21173611 is in the sequence because 12117361 = 59^4."
			],
			"program": [
				"(PARI) rotr(a) = if(a\u003c10, a, eval(Str(a%10, a\\10)))",
				"s=[]; forprime(n=2, 500000000, if(ispower(rotr(n), 4), s=concat(s, n))); s"
			],
			"xref": [
				"Cf. A235009."
			],
			"keyword": "nonn,base",
			"offset": "1,1",
			"author": "_Colin Barker_, Jan 02 2014",
			"ext": [
				"a(12)-a(24) from _Giovanni Resta_, Jan 02 2014"
			],
			"references": 2,
			"revision": 8,
			"time": "2014-01-02T17:56:15-05:00",
			"created": "2014-01-02T17:56:15-05:00"
		}
	]
}