{
	"greeting": "Greetings from The On-Line Encyclopedia of Integer Sequences! http://oeis.org/",
	"query": "id:A235415",
	"count": 1,
	"start": 0,
	"results": [
		{
			"number": 235415,
			"data": "22500,1826923,149643266,9676094946,623604857055,32662713888028,1724073736174640,76002795623829546,3387480212316840735,129022109042050899256,4972470574066747942531,166872014375969665991253",
			"name": "Number of (n+1)X(3+1) 0..3 arrays with 2X2 subblock sums lexicographically nondecreasing rowwise and nonincreasing columnwise",
			"comment": [
				"Column 3 of A235416"
			],
			"link": [
				"R. H. Hardin, \u003ca href=\"/A235415/b235415.txt\"\u003eTable of n, a(n) for n = 1..28\u003c/a\u003e"
			],
			"example": [
				"Some solutions for n=1",
				"..3..0..2..0....1..2..2..1....3..3..1..0....3..2..0..0....1..3..1..2",
				"..3..2..1..2....2..0..1..1....3..3..0..1....3..0..2..2....1..2..0..2"
			],
			"keyword": "nonn",
			"offset": "1,1",
			"author": "_R. H. Hardin_, Jan 10 2014",
			"references": 1,
			"revision": 4,
			"time": "2014-01-10T07:11:30-05:00",
			"created": "2014-01-10T07:11:30-05:00"
		}
	]
}