{
	"greeting": "Greetings from The On-Line Encyclopedia of Integer Sequences! http://oeis.org/",
	"query": "id:A235066",
	"count": 1,
	"start": 0,
	"results": [
		{
			"number": 235066,
			"data": "4352,22936,126040,727376,4212792,24652260,144439680,851021376,5022415256,29788907152,177026662232,1057318105828,6328071686208,38069139395704,229503044264960,1390863826264104,8446497710589336",
			"name": "Number of (n+1)X(3+1) 0..6 arrays with every 2X2 subblock having its diagonal sum differing from its antidiagonal sum by 3, with no adjacent elements equal (constant stress tilted 1X1 tilings)",
			"comment": [
				"Column 3 of A235071"
			],
			"link": [
				"R. H. Hardin, \u003ca href=\"/A235066/b235066.txt\"\u003eTable of n, a(n) for n = 1..210\u003c/a\u003e"
			],
			"example": [
				"Some solutions for n=3",
				"..4..0..4..0....4..5..4..5....2..3..5..3....2..1..2..3....5..3..4..5",
				"..6..5..6..5....2..0..2..0....6..4..3..4....4..6..4..2....3..4..2..0",
				"..1..3..1..3....0..1..0..1....5..0..2..0....3..2..3..4....5..3..4..5",
				"..5..4..5..4....2..0..2..0....3..1..6..1....2..4..2..6....3..4..2..0"
			],
			"keyword": "nonn",
			"offset": "1,1",
			"author": "_R. H. Hardin_, Jan 03 2014",
			"references": 1,
			"revision": 4,
			"time": "2014-01-03T05:30:41-05:00",
			"created": "2014-01-03T05:30:41-05:00"
		}
	]
}