{
	"greeting": "Greetings from The On-Line Encyclopedia of Integer Sequences! http://oeis.org/",
	"query": "id:A235980",
	"count": 1,
	"start": 0,
	"results": [
		{
			"number": 235980,
			"data": "354015,44112111,4798700327,636000634655,82270776987717,11092727310560751,1487588729246707713,201149401548574576491,27165441057301472088543,3674737831623458795230537",
			"name": "Number of (n+1)X(7+1) 0..2 arrays with the upper median equal to the lower median in every 2X2 subblock",
			"comment": [
				"Column 7 of A235981"
			],
			"link": [
				"R. H. Hardin, \u003ca href=\"/A235980/b235980.txt\"\u003eTable of n, a(n) for n = 1..85\u003c/a\u003e"
			],
			"example": [
				"Some solutions for n=1",
				"..0..0..1..0..1..2..2..2....0..1..1..1..1..1..1..2....0..2..0..0..2..0..2..2",
				"..1..0..0..0..0..1..2..0....2..1..0..1..1..1..1..1....2..2..2..0..0..0..0..2"
			],
			"keyword": "nonn",
			"offset": "1,1",
			"author": "_R. H. Hardin_, Jan 17 2014",
			"references": 1,
			"revision": 4,
			"time": "2014-01-17T17:08:11-05:00",
			"created": "2014-01-17T17:08:11-05:00"
		}
	]
}