{
	"greeting": "Greetings from The On-Line Encyclopedia of Integer Sequences! http://oeis.org/",
	"query": "id:A235815",
	"count": 1,
	"start": 0,
	"results": [
		{
			"number": 235815,
			"data": "256,2648,2648,26852,84300,26852,231182,2904651,2904651,231182,1922672,78133908,401195649,78133908,1922672,14817810,2024258650,40931219364,40931219364,2024258650,14817810,110573053,45232185179,4011288173007",
			"name": "T(n,k)=Number of (n+1)X(k+1) 0..3 arrays with the sum of each 2X2 subblock two median terms lexicographically nondecreasing rowwise and columnwise",
			"comment": [
				"Table starts",
				".......256.........2648...........26852...........231182..........1922672",
				"......2648........84300.........2904651.........78133908.......2024258650",
				".....26852......2904651.......401195649......40931219364....4011288173007",
				"....231182.....78133908.....40931219364...16476607620547.6446221312475127",
				"...1922672...2024258650...4011288173007.6446221312475127",
				"..14817810..45232185179.319846755566490",
				".110573053.960244682353",
				".791130664"
			],
			"link": [
				"R. H. Hardin, \u003ca href=\"/A235815/b235815.txt\"\u003eTable of n, a(n) for n = 1..40\u003c/a\u003e"
			],
			"example": [
				"Some solutions for n=2 k=4",
				"..0..0..0..3..0....0..0..1..3..3....0..0..0..1..2....0..0..3..0..3",
				"..0..0..0..0..1....0..0..2..0..2....0..0..0..1..1....0..0..1..1..3",
				"..0..1..0..2..2....0..0..3..1..0....0..0..0..1..3....0..0..1..3..1"
			],
			"xref": [
				"Column 1 is A235749"
			],
			"keyword": "nonn,tabl",
			"offset": "1,1",
			"author": "_R. H. Hardin_, Jan 16 2014",
			"references": 3,
			"revision": 4,
			"time": "2014-01-16T06:20:13-05:00",
			"created": "2014-01-16T06:20:13-05:00"
		}
	]
}