{
	"greeting": "Greetings from The On-Line Encyclopedia of Integer Sequences! http://oeis.org/",
	"query": "id:A235738",
	"count": 1,
	"start": 0,
	"results": [
		{
			"number": 235738,
			"data": "576,9710,160075,2423417,36199157,523547651,7519969703,106697433668,1509299904955,21253277135453,298927623301734,4197620035630914,58919872257393788,826569038954130084,11594164564872458891",
			"name": "Number of (n+1)X(2+1) 0..2 arrays with the sum of each 2X2 subblock maximum and minimum lexicographically nondecreasing columnwise and nonincreasing rowwise",
			"comment": [
				"Column 2 of A235742"
			],
			"link": [
				"R. H. Hardin, \u003ca href=\"/A235738/b235738.txt\"\u003eTable of n, a(n) for n = 1..210\u003c/a\u003e",
				"R. H. Hardin, \u003ca href=\"/A235738/a235738.txt\"\u003eEmpirical recurrence of order 78\u003c/a\u003e"
			],
			"formula": [
				"Empirical recurrence of order 78 (see link above)"
			],
			"example": [
				"Some solutions for n=3",
				"..2..0..2....1..1..0....0..1..0....1..1..2....1..0..2....0..0..1....2..0..1",
				"..1..1..0....0..2..0....2..0..2....2..0..2....2..1..2....0..2..1....1..2..0",
				"..2..0..2....1..0..1....0..1..1....0..0..0....0..1..0....1..2..0....0..0..2",
				"..0..1..1....2..2..1....0..0..1....2..2..0....1..1..1....2..0..0....2..0..1"
			],
			"keyword": "nonn",
			"offset": "1,1",
			"author": "_R. H. Hardin_, Jan 15 2014",
			"references": 1,
			"revision": 5,
			"time": "2014-08-11T22:46:08-04:00",
			"created": "2014-01-15T07:29:25-05:00"
		}
	]
}