{
	"greeting": "Greetings from The On-Line Encyclopedia of Integer Sequences! http://oeis.org/",
	"query": "id:A235325",
	"count": 1,
	"start": 0,
	"results": [
		{
			"number": 235325,
			"data": "1,1,4,51,1072,31845,1292616,68464207,4555593904,369790197705",
			"name": "Number of ordered pairs of endofunctions f,g on a set of n elements satisfying f(f(x)) = g(g(g(x))).",
			"xref": [
				"Cf. A000248, A000949."
			],
			"keyword": "nonn,more",
			"offset": "0,3",
			"author": "_Chad Brewbaker_, Mar 26 2014",
			"ext": [
				"a(6)-a(7) from _Giovanni Resta_, Mar 26 2014",
				"a(8)-a(9) from _Giovanni Resta_, Mar 28 2014"
			],
			"references": 0,
			"revision": 17,
			"time": "2014-03-28T05:59:25-04:00",
			"created": "2014-03-26T20:21:54-04:00"
		}
	]
}