{
	"greeting": "Greetings from The On-Line Encyclopedia of Integer Sequences! http://oeis.org/",
	"query": "id:A235902",
	"count": 1,
	"start": 0,
	"results": [
		{
			"number": 235902,
			"data": "33,125,125,473,641,473,1797,3265,3265,1797,6849,17001,21697,17001,6849,26189,89857,148945,148945,89857,26189,100457,482809,1030145,1384257,1030145,482809,100457,386517,2633969,7234417,12931393,12931393,7234417",
			"name": "T(n,k)=Number of (n+1)X(k+1) 0..2 arrays with the minimum plus the maximum equal to the lower median plus the upper median in every 2X2 subblock",
			"comment": [
				"Table starts",
				"......33.......125.........473..........1797...........6849............26189",
				".....125.......641........3265.........17001..........89857...........482809",
				".....473......3265.......21697........148945........1030145..........7234417",
				"....1797.....17001......148945.......1384257.......12931393........124394337",
				"....6849.....89857.....1030145......12931393......160019457.......2053474753",
				"...26189....482809.....7234417.....124394337.....2053474753......35883075329",
				"..100457...2633969....51386977....1221438401....26681279873.....632701301249",
				"..386517..14575785...369219409...12293017761...354762714433...11571312666753",
				".1491537..81703841..2679887681..126561018497..4797433339137..216925831550465",
				".5771933.463238873.19633204273.1332373322337.66057474247873.4198207054934401"
			],
			"link": [
				"R. H. Hardin, \u003ca href=\"/A235902/b235902.txt\"\u003eTable of n, a(n) for n = 1..220\u003c/a\u003e"
			],
			"formula": [
				"Empirical for column k (apparently recurrences of order 2k+1):",
				"k=1: a(n) = 7*a(n-1) -10*a(n-2) -8*a(n-3)",
				"k=2: a(n) = 13*a(n-1) -44*a(n-2) -24*a(n-3) +192*a(n-4) +144*a(n-5)",
				"k=3: [order 7]",
				"k=4: [order 9]",
				"k=5: [order 11]",
				"k=6: [order 13]",
				"k=7: [order 15]"
			],
			"example": [
				"Some solutions for n=3 k=4",
				"..0..1..2..2..1....1..2..1..1..0....1..2..1..2..1....1..2..0..1..0",
				"..2..1..2..2..1....1..2..1..1..2....0..1..0..1..0....2..1..1..0..1",
				"..1..0..1..1..2....0..1..2..0..1....1..0..1..2..1....0..1..1..0..1",
				"..1..2..1..1..0....1..0..1..1..2....1..2..1..0..1....0..1..1..2..1"
			],
			"keyword": "nonn,tabl",
			"offset": "1,1",
			"author": "_R. H. Hardin_, Jan 16 2014",
			"references": 9,
			"revision": 4,
			"time": "2014-01-16T14:31:26-05:00",
			"created": "2014-01-16T14:31:26-05:00"
		}
	]
}