{
	"greeting": "Greetings from The On-Line Encyclopedia of Integer Sequences! http://oeis.org/",
	"query": "id:A235697",
	"count": 1,
	"start": 0,
	"results": [
		{
			"number": 235697,
			"data": "1,2,3,4,5,6,7,8,9,10,12,18,20,21,24,27,30,36,40,42,45,48,50,54,60,63,70,72,80,81,84,90,100,108,120,162,180,200,210,216,240,243,270,300,324,360,378,400,405,420,432,450,480,486,500,540,600,630,648,700,720,756,800,810,840,864,900,972,1000,1080,1200,1296,1458",
			"name": "Harshad numbers which when divided by their digital sum, give a quotient which is a Multiple Harshad Numbers-2.",
			"comment": [
				"These numbers are also called MHN-3 or Multiple Harshad Numbers-3.",
				"A Multiple Harshad number is a Harshad number that, when divided by the sum of its digits, produces another Harshad number."
			],
			"link": [
				"Ray Chandler, \u003ca href=\"/A235697/b235697.txt\"\u003eTable of n, a(n) for n = 1..1947\u003c/a\u003e  (all a(n) \u003c= 10^6)",
				"Wikipedia, \u003ca href=\"http://en.wikipedia.org/wiki/Harshad_number\"\u003eHarshad Number\u003c/a\u003e"
			],
			"example": [
				"756 is a term as it gives quotient 42 on division by the digital sum (i.e. 18). 42 gives quotient 7 on division by its digital sum (i.e. 6). As 7 is also a Harshad Number, thus 756 is a MHN-3."
			],
			"xref": [
				"Cf. A005349, A235507."
			],
			"keyword": "nonn,base",
			"offset": "1,2",
			"author": "_Mihir Mathur_, Jan 14 2014",
			"references": 2,
			"revision": 10,
			"time": "2014-01-15T18:42:02-05:00",
			"created": "2014-01-15T18:42:02-05:00"
		}
	]
}