{
	"greeting": "Greetings from The On-Line Encyclopedia of Integer Sequences! http://oeis.org/",
	"query": "id:A235418",
	"count": 1,
	"start": 0,
	"results": [
		{
			"number": 235418,
			"data": "432,5022,60231,533868,4740889,33788761,241566875,1459008798,8848965583,46891736689,249575149293,1188461312849,5682088960329,24740156703465,108084980986187,435986901071266,1763432694210089,6658246691642318",
			"name": "Number of (n+1)X(2+1) 0..2 arrays with 2X2 subblock sum of squares lexicographically nondecreasing rowwise and nonincreasing columnwise",
			"comment": [
				"Column 2 of A235421"
			],
			"link": [
				"R. H. Hardin, \u003ca href=\"/A235418/b235418.txt\"\u003eTable of n, a(n) for n = 1..210\u003c/a\u003e"
			],
			"example": [
				"Some solutions for n=3",
				"..2..1..1....2..0..2....1..1..0....1..0..0....1..2..0....2..0..0....1..1..0",
				"..2..2..2....0..0..0....0..1..0....2..0..0....0..1..1....1..0..2....1..0..1",
				"..2..2..1....1..2..0....2..1..2....1..2..0....2..2..1....2..0..0....2..2..0",
				"..2..2..2....2..1..1....2..0..1....0..2..2....2..1..0....1..2..1....1..1..2"
			],
			"keyword": "nonn",
			"offset": "1,1",
			"author": "_R. H. Hardin_, Jan 10 2014",
			"references": 1,
			"revision": 4,
			"time": "2014-01-10T07:34:53-05:00",
			"created": "2014-01-10T07:34:53-05:00"
		}
	]
}