{
	"greeting": "Greetings from The On-Line Encyclopedia of Integer Sequences! http://oeis.org/",
	"query": "id:A235882",
	"count": 1,
	"start": 0,
	"results": [
		{
			"number": 235882,
			"data": "2571,3345,4911,8097,14631,28185,56751,118257,254391,566025,1307391,3144417,7881351,20543865,55434831,153914577,436967511,1261353705,3684967071,10856716737,32173784871,95728627545,285600432111",
			"name": "Number of (n+1) X (6+1) 0..2 arrays with the minimum plus the upper median equal to the lower median plus the maximum in every 2 X 2 subblock.",
			"link": [
				"R. H. Hardin, \u003ca href=\"/A235882/b235882.txt\"\u003eTable of n, a(n) for n = 1..210\u003c/a\u003e"
			],
			"formula": [
				"Empirical: a(n) = 6*a(n-1) - 11*a(n-2) + 6*a(n-3).",
				"Conjectures from _Colin Barker_, Oct 19 2018: (Start)",
				"G.f.: 3*x*(857 - 4027*x + 4374*x^2) / ((1 - x)*(1 - 2*x)*(1 - 3*x)).",
				"a(n) = 3*(602 + 63*2^(1+n) + 3^n).",
				"(End)"
			],
			"example": [
				"Some solutions for n=5:",
				"..0..0..0..0..0..0..0....0..1..1..0..0..0..1....0..0..2..2..0..0..0",
				"..1..1..1..1..1..1..1....0..1..1..0..0..0..1....0..0..2..2..0..0..0",
				"..2..2..2..2..2..2..2....1..0..0..1..1..1..0....0..0..2..2..0..0..0",
				"..1..1..1..1..1..1..1....0..1..1..0..0..0..1....2..2..0..0..2..2..2",
				"..2..2..2..2..2..2..2....1..0..0..1..1..1..0....2..2..0..0..2..2..2",
				"..2..2..2..2..2..2..2....1..0..0..1..1..1..0....2..2..0..0..2..2..2"
			],
			"xref": [
				"Column 6 of A235884."
			],
			"keyword": "nonn",
			"offset": "1,1",
			"author": "_R. H. Hardin_, Jan 16 2014",
			"references": 1,
			"revision": 7,
			"time": "2018-10-19T09:21:03-04:00",
			"created": "2014-01-16T13:38:48-05:00"
		}
	]
}