{
	"greeting": "Greetings from The On-Line Encyclopedia of Integer Sequences! http://oeis.org/",
	"query": "id:A236013",
	"count": 1,
	"start": 0,
	"results": [
		{
			"number": 236013,
			"data": "1276,3744,13750,34288,110274,313060,1059410,2852400,9387554,25937988,86158450,235806192,779991734,2143722636,7102177066,19487328696,64517987030,177151900644,586666746358,1610397251352,5332485179726",
			"name": "Number of (n+1)X(3+1) 0..2 arrays colored with the sum of the maximum and minimum values of each 2X2 subblock",
			"comment": [
				"Column 3 of A236018"
			],
			"link": [
				"R. H. Hardin, \u003ca href=\"/A236013/b236013.txt\"\u003eTable of n, a(n) for n = 1..210\u003c/a\u003e"
			],
			"formula": [
				"Empirical: a(n) = 5*a(n-2) +42*a(n-4) -21*a(n-6) -207*a(n-8) for n\u003e13"
			],
			"example": [
				"Some solutions for n=5",
				"..1..1..2..0....1..2..1..0....1..1..0..2....1..1..0..0....1..2..0..1",
				"..1..1..2..1....0..1..1..2....1..1..0..0....1..1..0..0....2..2..1..0",
				"..0..0..1..2....1..1..1..2....1..2..1..1....2..2..1..1....0..1..2..2",
				"..2..1..0..1....1..1..0..1....0..1..1..1....2..2..1..1....0..0..1..1",
				"..1..2..1..1....2..2..1..0....0..1..1..0....1..1..0..0....2..1..1..1",
				"..0..2..2..0....2..2..2..0....0..2..2..2....2..0..0..0....2..2..0..0"
			],
			"keyword": "nonn",
			"offset": "1,1",
			"author": "_R. H. Hardin_, Jan 18 2014",
			"references": 1,
			"revision": 4,
			"time": "2014-01-18T14:00:15-05:00",
			"created": "2014-01-18T14:00:15-05:00"
		}
	]
}