{
	"greeting": "Greetings from The On-Line Encyclopedia of Integer Sequences! http://oeis.org/",
	"query": "id:A236094",
	"count": 1,
	"start": 0,
	"results": [
		{
			"number": 236094,
			"data": "119928,1787690,26325004,598026962,14741011576,404990187828,10925012777588,308393157952858,8126880075148544,228570762366967278,6230225361837429020,176578338290493647738,4665314567071176455052",
			"name": "Number of (n+1)X(6+1) 0..2 arrays colored with the difference of the maximum and the upper median in each 2X2 subblock",
			"comment": [
				"Column 6 of A236096"
			],
			"link": [
				"R. H. Hardin, \u003ca href=\"/A236094/b236094.txt\"\u003eTable of n, a(n) for n = 1..202\u003c/a\u003e"
			],
			"example": [
				"Some solutions for n=1",
				"..1..1..1..0..0..0..0....1..0..0..0..0..1..2....1..2..2..1..0..2..2",
				"..1..1..2..2..0..1..1....0..0..0..2..2..0..2....1..0..1..0..1..0..2"
			],
			"keyword": "nonn",
			"offset": "1,1",
			"author": "_R. H. Hardin_, Jan 19 2014",
			"references": 1,
			"revision": 4,
			"time": "2014-01-19T07:49:57-05:00",
			"created": "2014-01-19T07:49:57-05:00"
		}
	]
}