{
	"greeting": "Greetings from The On-Line Encyclopedia of Integer Sequences! http://oeis.org/",
	"query": "id:A236799",
	"count": 1,
	"start": 0,
	"results": [
		{
			"number": 236799,
			"data": "0,0,0,1,0,0,0,2,0,0,0,4,0,0,0,8,0,0,1,6,0,0,3,2,0,0,6,4,0,1,2,8,0,2,5,6,0,5,1,2,1,0,2,4,2,0,4,8,4,0,9,6,8,1,9,3,6,3,8,7,2,7,7,4,5,5,4,9,1,0,9,8,2,1,9,6,4,3,9,2,8,7,8,5,7,5,7,1,5,1,4,3,0,2,8,6,0,5,7,2,1,1,4,4,2",
			"name": "Decimal expansion of 1/9998.",
			"comment": [
				"Generalization [Comments by Daniel Forgues copied and adapted from A022002]:",
				"  1/8 = sum (2^i/10^(i+1)), i \u003e= 0,",
				"  1/98 = sum (2^i/100^(i+1)), i \u003e= 0, (A021102)",
				"  1/998 = sum (2^i/1000^(i+1)), i \u003e= 0, (A022002)",
				"  1/9998 = sum (2^i/10000^(i+1)), i \u003e= 0, (this sequence)... - Daniel Forgues, Oct 28 2011",
				"A \"curiosity\": the first 13 groups of digits in groups of 4 give the successive powers of 2:",
				"0, 0, 0, 1,",
				"0, 0, 0, 2,",
				"0, 0, 0, 4,",
				"0, 0, 0, 8,",
				"0, 0, 1, 6,",
				"0, 0, 3, 2,",
				"0, 0, 6, 4,",
				"0, 1, 2, 8,",
				"0, 2, 5, 6,",
				"0, 5, 1, 2,",
				"1, 0, 2, 4,",
				"2, 0, 4, 8,",
				"4, 0, 9, 6, \u003c-- the last explicit power of 2",
				"8, 1, 9, 3,",
				"6, 3, 8, 7,",
				"etc."
			],
			"link": [
				"Jean-François Alcover, \u003ca href=\"/A236799/b236799.txt\"\u003eTable of n, a(n) for n = 0..359\u003c/a\u003e"
			],
			"example": [
				"0.0001000200040008001600320064012802560512102420484096819363872774554910982..."
			],
			"mathematica": [
				"Join[{0, 0, 0}, RealDigits[1/9998, 10, 102] // First]"
			],
			"program": [
				"(PARI) 1/9998. \\\\ _Charles R Greathouse IV_, Feb 26 2014"
			],
			"xref": [
				"Cf. A021102, A022002."
			],
			"keyword": "nonn,cons,easy",
			"offset": "0,8",
			"author": "_Jean-François Alcover_, Jan 31 2014",
			"references": 1,
			"revision": 18,
			"time": "2014-02-26T13:55:46-05:00",
			"created": "2014-02-03T01:49:54-05:00"
		}
	]
}