{
	"greeting": "Greetings from The On-Line Encyclopedia of Integer Sequences! http://oeis.org/",
	"query": "id:A236484",
	"count": 1,
	"start": 0,
	"results": [
		{
			"number": 236484,
			"data": "2371709,3406727,8890667,45809639,57219497,58674437,73793831,78934589,159935561,207223409",
			"name": "Primes p with p + 2, prime(p) + 2, prime(prime(p)) + 2, prime(prime(prime(p))) + 2, prime(prime(prime(prime(p)))) + 2 all prime.",
			"comment": [
				"By the general conjecture in A236481, this sequence should have infinitely many terms."
			],
			"link": [
				"Zhi-Wei Sun, \u003ca href=\"/A236484/b236484.txt\"\u003eTable of n, a(n) for n = 1..10\u003c/a\u003e"
			],
			"example": [
				"a(1) =  2371709 with  2371709, 2371709 + 2 = 2371711, prime(2371709) + 2 = 38917889 + 2 = 38917891, prime(38917889) + 2 =  754394519 + 2 = 754394521, prime(754394519) + 2 = 16978533527 + 2 = 16978533529 and prime(16978533527) + 2 =  437397516929 + 2 = 437397516931 all prime."
			],
			"mathematica": [
				"p[n_]:=p[n]=PrimeQ[n+2]\u0026\u0026PrimeQ[Prime[n]+2]\u0026\u0026PrimeQ[Prime[Prime[n]]+2]\u0026\u0026PrimeQ[Prime[Prime[Prime[n]]]+2]\u0026\u0026PrimeQ[Prime[Prime[Prime[Prime[n]]]]+2]",
				"n=0;Do[If[p[Prime[m]],n=n+1;Print[n,\" \",Prime[m]]],{m,1,10^7}]"
			],
			"xref": [
				"Cf. A000040, A001359, A006512, A236481, A236482."
			],
			"keyword": "nonn",
			"offset": "1,1",
			"author": "_Zhi-Wei Sun_, Jan 27 2014",
			"references": 4,
			"revision": 9,
			"time": "2014-01-27T02:52:47-05:00",
			"created": "2014-01-27T02:52:47-05:00"
		}
	]
}