{
	"greeting": "Greetings from The On-Line Encyclopedia of Integer Sequences! http://oeis.org/",
	"query": "id:A236920",
	"count": 1,
	"start": 0,
	"results": [
		{
			"number": 236920,
			"data": "1,1,1,1,1,1,1,2,2,3,1,2,2,3,4,2,2,2,4,4,4,2,2,3,4,4,6,6,2,2,3,4,5,6,7,8,2,3,3,5,6,6,7,8,9,2,3,4,5,6,7,8,9,10,10",
			"name": "Triangle read by rows: (3,1) broadcast domination numbers.",
			"link": [
				"D. Blessing, E. Insko, K. Johnson, C. Mauretour, \u003ca href=\"http://arxiv.org/abs/1401.2499\"\u003eOn (t,r) Broadcast Domination Numbers of Grids\u003c/a\u003e, arXiv preprint arXiv:1401.2499, 2014"
			],
			"example": [
				"Triangle begins:",
				"1,",
				"1, 1,",
				"1, 1, 1,",
				"1, 2, 2, 3,",
				"1, 2, 2, 3, 4,",
				"2, 2, 2, 4, 4, 4,",
				"2, 2, 3, 4, 4, 6, 6,",
				"2, 2, 3, 4, 5, 6, 7, 8,",
				"2, 3, 3, 5, 6, 6, 7, 8, 9,",
				"2, 3, 4, 5, 6, 7, 8, 9, 10, 10,",
				"..."
			],
			"xref": [
				"Cf. A236919."
			],
			"keyword": "nonn,tabl,more",
			"offset": "1,8",
			"author": "_N. J. A. Sloane_, Feb 11 2014",
			"references": 1,
			"revision": 7,
			"time": "2015-04-23T12:17:32-04:00",
			"created": "2014-02-11T00:32:44-05:00"
		}
	]
}