{
	"greeting": "Greetings from The On-Line Encyclopedia of Integer Sequences! http://oeis.org/",
	"query": "id:A236579",
	"count": 1,
	"start": 0,
	"results": [
		{
			"number": 236579,
			"data": "1,3,15,75,371,1833,9057,44753,221137,1092699,5399327,26679563,131831075,651413681,3218814561,15905050017,78591236385,388340962771,1918899743823,9481812581835,46852249642771",
			"name": "The number of tilings of a 5 X (4n) floor with 1 X 4 tetrominoes.",
			"comment": [
				"Tilings are counted irrespective of internal symmetry: Tilings that match each other after rotations and/or reflections are counted with their multiplicity.",
				"Related to A002378 by an Invert Transform."
			],
			"link": [
				"R. J. Mathar, \u003ca href=\"http://arxiv.org/abs/1311.6135\"\u003ePaving Rectangular Regions with Rectangular Tiles: Tatami and Non-Tatami Tilings\u003c/a\u003e, arXiv:1311.6135 [math.CO], 2013, Table 34.",
				"R. J. Mathar, \u003ca href=\"http://arxiv.org/abs/1406.7788\"\u003eTilings of Rectangular Regions by Rectangular Tiles: Counts Derived from Transfer Matrices\u003c/a\u003e, arXiv:1406.7788 [math.CO], eq. (24).",
				"\u003ca href=\"/index/Rec#order_04\"\u003eIndex entries for linear recurrences with constant coefficients\u003c/a\u003e, signature (6,-6,4,-1)."
			],
			"formula": [
				"G.f.: (1-x)^3/(-6*x+1+6*x^2-4*x^3+x^4).",
				"a(n) = Sum_{k = 0..n} binomial(n + 3*k, 4*k)*2^k = Sum_{k = 0..n} A109960(n,k)*2^k. - _Peter Bala_, Nov 02 2017",
				"a(n) = hypergeom([(n+1)/3, (n+2)/3, n/3 + 1, -n], [1/4, 1/2, 3/4], -27/128). - _Peter Luschny_, Nov 02 2017"
			],
			"maple": [
				"g := (1-x)^3/(-6*x+1+6*x^2-4*x^3+x^4) ;",
				"taylor(%,x=0,30) ; gfun[seriestolist](%) ;",
				"# Alternatively:",
				"a := n -\u003e hypergeom([(n+1)/3, (n+2)/3, n/3 + 1, -n], [1/4, 1/2, 3/4], -27/128):",
				"seq(simplify(a(n)), n=0..20); # _Peter Luschny_, Nov 02 2017"
			],
			"mathematica": [
				"LinearRecurrence[{6, -6, 4, -1}, {1, 3, 15, 75}, 21] (* _Jean-François Alcover_, Jul 14 2018 *)"
			],
			"xref": [
				"Cf. A003269 (4Xn floor), A236580 - A236582, A109960."
			],
			"keyword": "nonn,easy",
			"offset": "0,2",
			"author": "_R. J. Mathar_, Jan 29 2014",
			"references": 3,
			"revision": 22,
			"time": "2018-07-14T15:37:14-04:00",
			"created": "2014-01-29T10:47:42-05:00"
		}
	]
}