{
	"greeting": "Greetings from The On-Line Encyclopedia of Integer Sequences! http://oeis.org/",
	"query": "id:A236165",
	"count": 1,
	"start": 0,
	"results": [
		{
			"number": 236165,
			"data": "1,1,0,0,2,3,3,5,10,16,24,39,65,105,168,272,442,715,1155,1869,3026,4896,7920,12815,20737,33553,54288,87840,142130,229971,372099,602069,974170,1576240,2550408,4126647,6677057,10803705,17480760,28284464,45765226,74049691",
			"name": "a(n) = a(n-1) + a(n-2) + a(n-3), with a(0) = a(1) = 1, a(2) = 0.",
			"link": [
				"Harvey P. Dale, \u003ca href=\"/A236165/b236165.txt\"\u003eTable of n, a(n) for n = 0..1000\u003c/a\u003e",
				"\u003ca href=\"/index/Rec#order_04\"\u003eIndex entries for linear recurrences with constant coefficients\u003c/a\u003e, signature (1,0,1,1)."
			],
			"formula": [
				"G.f.: (1 - x^2 - x^3) / (1 - x - x^3 - x^4).",
				"a(n+1)*a(n+3) = a(n)*a(n+2) + a(n+1)*a(n+2) for all n in Z.",
				"a(n+1) + a(n-1) = A000045(n) for all n in Z.",
				"a(2n) = A059929(n-1), a(2n-1) = A226205(n)."
			],
			"example": [
				"G.f. = 1 + x + 2*x^4 + 3*x^5 + 3*x^6 + 5*x^7 + 10*x^8 + 16*x^9 + ..."
			],
			"mathematica": [
				"a[ n_] := Fibonacci[ Quotient[ n, 2] - 1] Fibonacci[ Quotient[ n, 2] + 1 + Mod[n, 2]];",
				"LinearRecurrence[{1,0,1,1},{1,1,0,0},50] (* _Harvey P. Dale_, Jan 19 2015 *)",
				"CoefficientList[Series[(1 - x^2 - x^3) / (1 - x - x^3 - x^4), {x, 0, 70}], x] (* _Vincenzo Librandi_, Jan 20 2015 *)"
			],
			"program": [
				"(PARI) {a(n) = fibonacci( n\\2 - 1 ) * fibonacci( n\\2 + 1 + n%2 )};",
				"(MAGMA) I:=[1,1,0,0]; [n le 4 select I[n] else Self(n-1)+Self(n-3)+Self(n-4): n in [1..50]]; // _Vincenzo Librandi_, Jan 20 2015"
			],
			"xref": [
				"Cf. A000045, A059929, A226205."
			],
			"keyword": "nonn,easy",
			"offset": "0,5",
			"author": "_Michael Somos_, Jan 19 2014",
			"references": 2,
			"revision": 22,
			"time": "2015-06-13T00:54:57-04:00",
			"created": "2014-01-19T13:03:28-05:00"
		}
	]
}