{
	"greeting": "Greetings from The On-Line Encyclopedia of Integer Sequences! http://oeis.org/",
	"query": "id:A236177",
	"count": 1,
	"start": 0,
	"results": [
		{
			"number": 236177,
			"data": "33,8,6,10,14,6,14,10,4,10,15,15,4,16,10,5,15,10,15,20,11,4,10,4,10,37,10,15,4,27,5,14,15,9,3,11,15,6,26,5,9,4,31,26,4,10,5,10,14,5,16,10,15,16,13,4,17,10,5,14,11,14,21,10,5,9,15,20,16,24,5",
			"name": "Prime gap pattern of compacting Eratosthenes sieve for prime(6) = 13.",
			"comment": [
				"See A236175 for details."
			],
			"link": [
				"Christopher J. Hanson, \u003ca href=\"/A236177/b236177.txt\"\u003eTable of n, a(n) for n = 1..480\u003c/a\u003e"
			],
			"xref": [
				"Cf. A236175-A236180, A236185-A236190."
			],
			"keyword": "nonn",
			"offset": "1,1",
			"author": "_Christopher J. Hanson_, Jan 19 2014",
			"references": 1,
			"revision": 11,
			"time": "2014-03-10T17:20:02-04:00",
			"created": "2014-03-10T17:20:02-04:00"
		}
	]
}