{
	"greeting": "Greetings from The On-Line Encyclopedia of Integer Sequences! http://oeis.org/",
	"query": "id:A236938",
	"count": 1,
	"start": 0,
	"results": [
		{
			"number": 236938,
			"data": "1,1,1,1,2,1,1,1,11,11,3,1,15,1,7,15,135,1,101,1,101,56,30,1,490,627,56,1575,490,1,627,1,5604,490,176,1255,6842,1,297,1255,10143,1,5604,1,6842,21637,792,1,63261,53174,63261,6842,21637,1,173525,31185,124754",
			"name": "Number of partitions of n such that the parts include all primes, without multiplicity, dividing n.",
			"comment": [
				"a(1) = 1 because the partition [1] contains all the prime factors dividing 1, i.e., none. - _Giovanni Resta_, Feb 04 2014"
			],
			"link": [
				"Alois P. Heinz, \u003ca href=\"/A236938/b236938.txt\"\u003eTable of n, a(n) for n = 0..10000\u003c/a\u003e"
			],
			"example": [
				"With n = 4, 4 = 2^2.  Since 4 - (2) = 2, and the partitions of 2 are {(2), (1,1)}, the partitions of 4 that include (2) are (2, 2) and (2, 1, 1), so a(4) = 2."
			],
			"maple": [
				"with(numtheory): with(combinat):",
				"a:= n-\u003e numbpart(n-add(f, f=factorset(n))):",
				"seq(a(n), n=0..100);  # _Alois P. Heinz_, Feb 04 2014"
			],
			"mathematica": [
				"a[n_] := If[PrimeQ[n], 1, Block[{p = First /@ FactorInteger@n}, Length@ Select[ IntegerPartitions[n], Intersection[#, p] == p \u0026]]]; Array[a, 30] (* _Giovanni Resta_, Feb 04 2014 *)",
				"a[n_] := PartitionsP[n-Sum[f, {f, FactorInteger[n][[All, 1]]}]]; Table[ a[n], {n, 0, 100}] (* _Jean-François Alcover_, Nov 11 2015, after _Alois P. Heinz_ *)"
			],
			"xref": [
				"Cf. A236937, A237125."
			],
			"keyword": "nonn",
			"offset": "0,5",
			"author": "_J. Stauduhar_, Feb 03 2014",
			"ext": [
				"a(15)-a(56) from _Giovanni Resta_, Feb 04 2014"
			],
			"references": 3,
			"revision": 23,
			"time": "2015-11-11T12:01:39-05:00",
			"created": "2014-02-03T16:39:07-05:00"
		}
	]
}