{
	"greeting": "Greetings from The On-Line Encyclopedia of Integer Sequences! http://oeis.org/",
	"query": "id:A236140",
	"count": 1,
	"start": 0,
	"results": [
		{
			"number": 236140,
			"data": "2976,79260,2113860,56388240,1503850638,40110759152,1069867016024,28536871273336,761125924608458,20300768006274458,541469807189678490,14442309765297348684,385207864338207023016,10274348880475607720026",
			"name": "Number of (n+1)X(2+1) 0..3 arrays colored with the maximum plus the upper median plus the minimum minus the lower median of every 2X2 subblock",
			"comment": [
				"Column 2 of A236142"
			],
			"link": [
				"R. H. Hardin, \u003ca href=\"/A236140/b236140.txt\"\u003eTable of n, a(n) for n = 1..210\u003c/a\u003e"
			],
			"example": [
				"Some solutions for n=2",
				"..2..3..1....0..2..2....3..2..3....2..0..0....2..0..1....3..2..3....0..0..0",
				"..0..2..2....3..1..2....0..0..3....1..3..0....2..2..0....0..1..3....1..2..0",
				"..3..1..0....3..0..1....1..0..3....3..2..3....3..0..3....0..1..3....2..3..2"
			],
			"keyword": "nonn",
			"offset": "1,1",
			"author": "_R. H. Hardin_, Jan 19 2014",
			"references": 1,
			"revision": 4,
			"time": "2014-01-19T10:27:29-05:00",
			"created": "2014-01-19T10:27:29-05:00"
		}
	]
}