{
	"greeting": "Greetings from The On-Line Encyclopedia of Integer Sequences! http://oeis.org/",
	"query": "id:A236714",
	"count": 1,
	"start": 0,
	"results": [
		{
			"number": 236714,
			"data": "1940,12276,68892,380270,2285619,13917166,83440732,483431170,2925674836,17483477028,104684817992,614845832954,3705541301812,21989049700170,131802902193173,778701497200782,4678573664798165,27722845606940274",
			"name": "Number of (n+1)X(3+1) 0..2 arrays colored with the maximum plus the lower median of every 2X2 subblock",
			"comment": [
				"Column 3 of A236719"
			],
			"link": [
				"R. H. Hardin, \u003ca href=\"/A236714/b236714.txt\"\u003eTable of n, a(n) for n = 1..210\u003c/a\u003e"
			],
			"example": [
				"Some solutions for n=3",
				"..2..2..2..2....2..1..0..0....0..1..2..2....0..0..0..1....1..0..2..2",
				"..2..0..0..2....2..2..2..1....0..1..0..0....2..1..1..1....2..2..0..1",
				"..2..1..1..1....1..0..2..0....1..2..0..0....2..0..1..2....1..2..1..0",
				"..2..2..0..1....1..0..2..2....2..2..1..0....1..0..0..0....1..2..2..0"
			],
			"keyword": "nonn",
			"offset": "1,1",
			"author": "_R. H. Hardin_, Jan 30 2014",
			"references": 1,
			"revision": 4,
			"time": "2014-01-30T06:28:52-05:00",
			"created": "2014-01-30T06:28:52-05:00"
		}
	]
}