{
	"greeting": "Greetings from The On-Line Encyclopedia of Integer Sequences! http://oeis.org/",
	"query": "id:A236032",
	"count": 1,
	"start": 0,
	"results": [
		{
			"number": 236032,
			"data": "42724,595416,8289258,135945364,2282216166,36483535032,590896758666,9608835890536,156707889598596,2530161441550248,41253382070591756,667683477057494568,10880198870643457606,175975946945076667788",
			"name": "Number of (n+1)X(5+1) 0..2 arrays colored with the difference of the upper median and the lower median in each 2X2 subblock",
			"comment": [
				"Column 5 of A236035"
			],
			"link": [
				"R. H. Hardin, \u003ca href=\"/A236032/b236032.txt\"\u003eTable of n, a(n) for n = 1..170\u003c/a\u003e"
			],
			"example": [
				"Some solutions for n=1",
				"..1..2..0..2..2..2....0..0..0..1..2..2....1..0..2..1..0..2....0..2..1..0..0..0",
				"..1..1..0..2..1..0....1..1..0..1..0..0....1..0..2..2..2..2....2..1..1..0..1..2"
			],
			"keyword": "nonn",
			"offset": "1,1",
			"author": "_R. H. Hardin_, Jan 18 2014",
			"references": 1,
			"revision": 4,
			"time": "2014-01-18T15:31:25-05:00",
			"created": "2014-01-18T15:31:25-05:00"
		}
	]
}