{
	"greeting": "Greetings from The On-Line Encyclopedia of Integer Sequences! http://oeis.org/",
	"query": "id:A236117",
	"count": 1,
	"start": 0,
	"results": [
		{
			"number": 236117,
			"data": "1538144,126117020,10125262296,918481481856,90225427419130,9012213136881004,902330917964333378,90418925607422369932,9127817276899571766750,920252876402921856813060",
			"name": "Number of (n+1)X(5+1) 0..3 arrays colored with the difference of the maximum and the upper median in each 2X2 subblock",
			"comment": [
				"Column 5 of A236118"
			],
			"example": [
				"Some solutions for n=1",
				"..0..0..0..0..0..0....0..0..1..0..2..3....0..0..0..1..2..0....0..0..0..1..3..1",
				"..3..3..1..2..2..1....0..2..1..0..3..3....3..3..2..2..3..3....2..0..1..3..0..0"
			],
			"keyword": "nonn",
			"offset": "1,1",
			"author": "_R. H. Hardin_, Jan 19 2014",
			"references": 0,
			"revision": 3,
			"time": "2014-01-19T08:09:01-05:00",
			"created": "2014-01-19T08:09:01-05:00"
		}
	]
}