{
	"greeting": "Greetings from The On-Line Encyclopedia of Integer Sequences! http://oeis.org/",
	"query": "id:A236167",
	"count": 1,
	"start": 0,
	"results": [
		{
			"number": 236167,
			"data": "5,19,23,79,1783,7681",
			"name": "Numbers k such that (47^k + 1)/48 is prime.",
			"comment": [
				"a(7) \u003e 10^5."
			],
			"link": [
				"J. Brillhart et al., \u003ca href=\"http://dx.doi.org/10.1090/conm/022\"\u003eFactorizations of b^n +- 1\u003c/a\u003e, Contemporary Mathematics, Vol. 22, Amer. Math. Soc., Providence, RI, 3rd edition, 2002.",
				"H. Dubner and T. Granlund, \u003ca href=\"http://www.cs.uwaterloo.ca/journals/JIS/VOL3/DUBNER/dubner.html\"\u003ePrimes of the Form (b^n+1)/(b+1)\u003c/a\u003e, J. Integer Sequences, 3 (2000), #P00.2.7.",
				"H. Lifchitz, \u003ca href=\"http://www.primenumbers.net/Henri/us/MersFermus.htm\"\u003eMersenne and Fermat primes field\u003c/a\u003e.",
				"Eric Weisstein's World of Mathematics, \u003ca href=\"http://mathworld.wolfram.com/Repunit.html\"\u003eRepunit\u003c/a\u003e."
			],
			"mathematica": [
				"Do[ p=Prime[n]; If[ PrimeQ[ (47^p + 1)/48 ], Print[p] ], {n, 1, 9592} ]"
			],
			"program": [
				"(PARI) is(n)=ispseudoprime((47^n+1)/48) \\\\ _Charles R Greathouse IV_, Jun 06 2017",
				"(Python)",
				"from sympy import isprime",
				"def afind(startat=0, limit=10**9):",
				"  pow47 = 47**startat",
				"  for k in range(startat, limit+1):",
				"    q, r = divmod(pow47+1, 48)",
				"    if r == 0 and isprime(q): print(k, end=\", \")",
				"    pow47 *= 47",
				"afind(limit=300) # _Michael S. Branicky_, May 19 2021"
			],
			"xref": [
				"Cf. A000978 = numbers k such that (2^k + 1)/3 is prime. Cf. A007658, A057171, A057172, A057173, A057175, A001562, A057177, A057178, A057179, A057180, A057181, A057182, A057183, A057184, A057185, A057186, A057187, A057188, A057189, A057190, A057191, A071380, A071381, A071382, A084741, A084742, A065507, A126659, A126856, A185240, A229145, A229524, A230036, A229663, A231604, A231865, A235683."
			],
			"keyword": "hard,more,nonn",
			"offset": "1,1",
			"author": "_Robert Price_, Jan 19 2014",
			"references": 2,
			"revision": 19,
			"time": "2021-05-20T04:46:55-04:00",
			"created": "2014-01-20T04:11:53-05:00"
		}
	]
}