{
	"greeting": "Greetings from The On-Line Encyclopedia of Integer Sequences! http://oeis.org/",
	"query": "id:A236178",
	"count": 1,
	"start": 0,
	"results": [
		{
			"number": 236178,
			"data": "54,5,12,18,5,18,12,6,11,20,17,7,18,11,7,18,12,19,26,12,6,11,6,13,44,10,19,6,31,6,18,20,13,19,17,5,31,6,14,5,37,38,13,5,13,19,5,32,18,20,17,7,18,11,6,19,10,44,13,5,13,18,26,19,31,7,11,18,7",
			"name": "Prime gap pattern of compacting Eratosthenes sieve for prime(7) = 17.",
			"comment": [
				"See A236175 for details."
			],
			"link": [
				"Christopher J. Hanson, \u003ca href=\"/A236178/b236178.txt\"\u003eTable of n, a(n) for n = 1..5760\u003c/a\u003e"
			],
			"xref": [
				"Cf. A236175-A236180, A236185-A236190."
			],
			"keyword": "nonn",
			"offset": "1,1",
			"author": "_Christopher J. Hanson_, Jan 19 2014",
			"references": 1,
			"revision": 11,
			"time": "2014-03-10T17:23:04-04:00",
			"created": "2014-03-10T17:23:04-04:00"
		}
	]
}