{
	"greeting": "Greetings from The On-Line Encyclopedia of Integer Sequences! http://oeis.org/",
	"query": "id:A237708",
	"count": 1,
	"start": 0,
	"results": [
		{
			"number": 237708,
			"data": "0,1,1,4,4,7,6,7,7,10,10,16,13,16,16,19,16,22,22,28,25,28,27,28,28,34,28,34,34,37,34,43,40,46,43,46,46,52,46,52,49,52,49,52,52,61,55,67,63",
			"name": "Number of unit cubes, aligned with a three-dimensional Cartesian mesh, partially encircled along the edge of the first octant of a sphere centered at the origin, ordered by increasing radius.",
			"example": [
				"At radius 0, there are no partially filled cubes.  At radius \u003e0 but \u003c sqrt(1), there is 1 partially filled square along the edge of the sphere.  At radius = sqrt(1), there is 1 partially filled cube along the edge of the sphere.  At radius \u003e 1 but \u003c sqrt(2), there  are 4 partially filled cubes."
			],
			"xref": [
				"Cf. A000378 (corresponds to the square radius of alternate entries)",
				"Cf. A234300  (2 dimensional analog)"
			],
			"keyword": "nonn",
			"offset": "0,4",
			"author": "_Rajan Murthy_, Feb 11 2014",
			"references": 3,
			"revision": 8,
			"time": "2014-03-05T00:07:41-05:00",
			"created": "2014-03-05T00:07:41-05:00"
		}
	]
}