{
	"greeting": "Greetings from The On-Line Encyclopedia of Integer Sequences! http://oeis.org/",
	"query": "id:A237478",
	"count": 1,
	"start": 0,
	"results": [
		{
			"number": 237478,
			"data": "25665,1361797,71061267,4188037863,244543486040,14599663417999,868139379770175,51894532499038489,3096658579246734659,185083514232316446680,11053475034839960084747,660534318261998891465133",
			"name": "Number of (n+1)X(5+1) 0..2 arrays with the maximum plus the lower median of every 2X2 subblock equal",
			"comment": [
				"Column 5 of A237481"
			],
			"link": [
				"R. H. Hardin, \u003ca href=\"/A237478/b237478.txt\"\u003eTable of n, a(n) for n = 1..210\u003c/a\u003e"
			],
			"example": [
				"Some solutions for n=1",
				"..1..2..2..1..1..1....1..1..2..0..2..1....0..2..1..0..2..0....1..2..2..1..0..2",
				"..2..1..1..2..2..1....2..0..1..1..1..1....2..1..2..1..1..1....2..1..1..2..1..1"
			],
			"keyword": "nonn",
			"offset": "1,1",
			"author": "_R. H. Hardin_, Feb 08 2014",
			"references": 1,
			"revision": 4,
			"time": "2014-02-08T06:21:58-05:00",
			"created": "2014-02-08T06:21:58-05:00"
		}
	]
}