{
	"greeting": "Greetings from The On-Line Encyclopedia of Integer Sequences! http://oeis.org/",
	"query": "id:A237625",
	"count": 1,
	"start": 0,
	"results": [
		{
			"number": 237625,
			"data": "33040,1064444,1064444,33329056,174401223,33329056,939401016,21067188520,21067188520,939401016,26658031968,3115175178730,13635265490368,3115175178730,26658031968,703602018050,335447670629516,7431167371095728",
			"name": "T(n,k)=Number of (n+2)X(k+2) 0..3 arrays with the (lower) median of each row and column nondecreasing",
			"comment": [
				"Table starts",
				"........33040.........1064444.........33329056........939401016.....26658031968",
				"......1064444.......174401223......21067188520....3115175178730.335447670629516",
				".....33329056.....21067188520...13635265490368.7431167371095728",
				"....939401016...3115175178730.7431167371095728",
				"..26658031968.335447670629516",
				".703602018050"
			],
			"link": [
				"R. H. Hardin, \u003ca href=\"/A237625/b237625.txt\"\u003eTable of n, a(n) for n = 1..23\u003c/a\u003e"
			],
			"example": [
				"Some solutions for n=1 k=1",
				"..0..0..2....1..1..3....1..1..1....1..3..1....0..0..2....1..2..1....3..0..0",
				"..0..1..3....0..2..1....2..2..3....0..2..3....1..2..2....1..1..2....1..1..3",
				"..2..1..2....1..1..3....3..3..3....3..1..3....3..2..2....3..0..2....1..1..2"
			],
			"keyword": "nonn,tabl",
			"offset": "1,1",
			"author": "_R. H. Hardin_, Feb 10 2014",
			"references": 2,
			"revision": 4,
			"time": "2014-02-10T18:02:37-05:00",
			"created": "2014-02-10T18:02:37-05:00"
		}
	]
}