{
	"greeting": "Greetings from The On-Line Encyclopedia of Integer Sequences! http://oeis.org/",
	"query": "id:A237471",
	"count": 1,
	"start": 0,
	"results": [
		{
			"number": 237471,
			"data": "603184,27861088,1299276552,65361132006,3172303208646,151684392243456,7302593738902292,360243701062474580,17487444406970424454,842931592169286911228,40843411425839816108458,1996250937306560360967496",
			"name": "Number of (n+1)X(7+1) 0..2 arrays with the maximum plus the lower median minus the upper median of every 2X2 subblock differing from its horizontal and vertical neighbors by exactly one",
			"comment": [
				"Column 7 of A237472"
			],
			"link": [
				"R. H. Hardin, \u003ca href=\"/A237471/b237471.txt\"\u003eTable of n, a(n) for n = 1..59\u003c/a\u003e"
			],
			"example": [
				"Some solutions for n=1",
				"..0..2..1..1..0..0..1..0....0..0..0..0..1..0..2..2....0..0..1..1..2..1..1..0",
				"..1..0..1..1..0..1..2..0....1..1..2..2..2..1..2..2....1..0..1..0..1..2..1..1"
			],
			"keyword": "nonn",
			"offset": "1,1",
			"author": "_R. H. Hardin_, Feb 08 2014",
			"references": 1,
			"revision": 4,
			"time": "2014-02-08T06:12:56-05:00",
			"created": "2014-02-08T06:12:56-05:00"
		}
	]
}