{
	"greeting": "Greetings from The On-Line Encyclopedia of Integer Sequences! http://oeis.org/",
	"query": "id:A237092",
	"count": 1,
	"start": 0,
	"results": [
		{
			"number": 237092,
			"data": "81,303,1178,4783,19735,83052,352077,1509309,6498030,28174611,122516471,535232028,2342989133,10287655021,45234855966,199291092499,878860456823,3880668135436,17146466326573,75822725082413,335437962362510",
			"name": "Number of (n+1)X(1+1) 0..2 arrays with the maximum plus the lower median minus the upper median of every 2X2 subblock equal",
			"comment": [
				"Column 1 of A237099"
			],
			"link": [
				"R. H. Hardin, \u003ca href=\"/A237092/b237092.txt\"\u003eTable of n, a(n) for n = 1..210\u003c/a\u003e"
			],
			"formula": [
				"Empirical: a(n) = 5*a(n-1) +24*a(n-2) -133*a(n-3) -161*a(n-4) +1148*a(n-5) +166*a(n-6) -3580*a(n-7) +364*a(n-8) +4024*a(n-9) -48*a(n-10) -1120*a(n-11)"
			],
			"example": [
				"Some solutions for n=5",
				"..1..1....2..0....2..1....0..0....2..0....2..1....1..1....2..2....2..2....0..1",
				"..0..1....2..1....2..1....1..0....2..1....2..2....1..1....1..0....0..0....0..0",
				"..1..1....2..1....0..2....2..2....2..1....1..2....2..2....2..2....2..2....1..0",
				"..2..2....2..1....1..0....0..1....1..2....2..2....1..1....0..1....0..0....0..2",
				"..1..0....0..0....1..1....0..2....2..0....1..2....0..1....2..0....0..0....1..0",
				"..2..2....0..1....1..0....0..1....0..1....1..0....1..1....1..2....0..0....2..0"
			],
			"keyword": "nonn",
			"offset": "1,1",
			"author": "_R. H. Hardin_, Feb 03 2014",
			"references": 1,
			"revision": 4,
			"time": "2014-02-03T05:56:45-05:00",
			"created": "2014-02-03T05:56:45-05:00"
		}
	]
}