{
	"greeting": "Greetings from The On-Line Encyclopedia of Integer Sequences! http://oeis.org/",
	"query": "id:A237970",
	"count": 1,
	"start": 0,
	"results": [
		{
			"number": 237970,
			"data": "40442,357672,2609908,25087700,255374826,2480183866,24232087766,242591959184,2393881373820,23436165715384,231406144872410,2289251323274992,22505424261636832,221515001897626222",
			"name": "Number of (n+1)X(4+1) 0..3 arrays with the upper median of every 2X2 subblock differing from its horizontal and vertical neighbors by exactly one",
			"comment": [
				"Column 4 of A237974"
			],
			"link": [
				"R. H. Hardin, \u003ca href=\"/A237970/b237970.txt\"\u003eTable of n, a(n) for n = 1..210\u003c/a\u003e"
			],
			"example": [
				"Some solutions for n=1",
				"..0..3..1..0..3....3..1..3..2..1....1..1..1..2..1....0..1..2..0..0",
				"..0..1..2..1..2....0..1..2..3..0....2..2..0..3..3....2..3..3..1..3"
			],
			"keyword": "nonn",
			"offset": "1,1",
			"author": "_R. H. Hardin_, Feb 16 2014",
			"references": 1,
			"revision": 4,
			"time": "2014-02-16T06:51:13-05:00",
			"created": "2014-02-16T06:51:13-05:00"
		}
	]
}