{
	"greeting": "Greetings from The On-Line Encyclopedia of Integer Sequences! http://oeis.org/",
	"query": "id:A237672",
	"count": 1,
	"start": 0,
	"results": [
		{
			"number": 237672,
			"data": "256,1564,9647,63000,412120,2668500,17280632,112196812,729345568,4730716616,30705881416,199250972104,1294118583944,8396039853104,54516655728608,353723940339776,2297049424994128,14903574260972720",
			"name": "Number of (n+1) X (1+1) 0..3 arrays with the maximum plus the upper median plus the minimum of every 2 X 2 subblock differing from its horizontal and vertical neighbors by exactly one.",
			"comment": [
				"Column 1 of A237677."
			],
			"link": [
				"R. H. Hardin, \u003ca href=\"/A237672/b237672.txt\"\u003eTable of n, a(n) for n = 1..210\u003c/a\u003e"
			],
			"formula": [
				"Empirical: a(n) = 1464*a(n-4) +21444*a(n-6) -217012*a(n-8) -5585804*a(n-10) -12617424*a(n-12) +351921344*a(n-14) +2542892384*a(n-16) +1019240768*a(n-18) -42797024832*a(n-20) -123435815936*a(n-22) +85546957824*a(n-24) +742456289792*a(n-26) +481891066880*a(n-28) -1227137187840*a(n-30) -1305858437120*a(n-32) +134355173376*a(n-34) +344315133952*a(n-36) -1108344832*a(n-38) -26916945920*a(n-40) -3468689408*a(n-42) -369098752*a(n-44) for n\u003e45."
			],
			"example": [
				"Some solutions for n=4",
				"..2..2....0..0....2..2....2..0....3..2....0..2....2..3....2..2....0..2....3..1",
				"..0..1....0..1....0..1....1..0....3..1....0..3....0..3....0..2....3..0....3..3",
				"..2..0....1..0....0..2....0..3....2..2....1..3....2..1....0..3....1..3....2..0",
				"..0..2....0..2....0..0....0..0....2..3....0..2....2..0....1..0....3..1....3..2",
				"..3..1....2..0....2..1....3..1....3..3....1..2....3..0....0..2....3..0....3..0"
			],
			"xref": [
				"Cf. A237677."
			],
			"keyword": "nonn,changed",
			"offset": "1,1",
			"author": "_R. H. Hardin_, Feb 11 2014",
			"references": 1,
			"revision": 7,
			"time": "2022-01-16T00:35:02-05:00",
			"created": "2014-02-11T09:41:03-05:00"
		}
	]
}