{
	"greeting": "Greetings from The On-Line Encyclopedia of Integer Sequences! http://oeis.org/",
	"query": "id:A237410",
	"count": 1,
	"start": 0,
	"results": [
		{
			"number": 237410,
			"data": "87164,1260486,18401364,330330878,6045609040,101410470742,1668740442760,28739211200900,500884807969628,8543128692901112,144626632332405084,2476006354146555628,42573962725861207468,727911488082492382520",
			"name": "Number of (n+1) X (6+1) 0..2 arrays with the maximum plus the upper median plus the minimum of every 2 X 2 subblock differing from its horizontal and vertical neighbors by exactly one.",
			"comment": [
				"Column 6 of A237412."
			],
			"link": [
				"R. H. Hardin, \u003ca href=\"/A237410/b237410.txt\"\u003eTable of n, a(n) for n = 1..82\u003c/a\u003e"
			],
			"example": [
				"Some solutions for n=1",
				"..1..1..0..1..0..2..1....1..1..2..0..1..0..2....1..2..2..0..1..0..0",
				"..0..1..2..2..0..0..1....0..0..0..2..1..0..1....2..2..0..1..0..0..2"
			],
			"keyword": "nonn",
			"offset": "1,1",
			"author": "_R. H. Hardin_, Feb 07 2014",
			"references": 1,
			"revision": 7,
			"time": "2014-02-07T19:22:26-05:00",
			"created": "2014-02-07T05:43:41-05:00"
		}
	]
}