{
	"greeting": "Greetings from The On-Line Encyclopedia of Integer Sequences! http://oeis.org/",
	"query": "id:A237101",
	"count": 1,
	"start": 0,
	"results": [
		{
			"number": 237101,
			"data": "81,385,1881,9491,48569,252415,1324297,7013479,37376009,200312023,1077728201,5817662711,31477339337,170637062839,926272600521,5033545168183,27374673893833,148966846198839,811006553994697",
			"name": "Number of (n+1)X(1+1) 0..2 arrays with the maximum minus the upper median of every 2X2 subblock equal",
			"comment": [
				"Column 1 of A237108"
			],
			"link": [
				"R. H. Hardin, \u003ca href=\"/A237101/b237101.txt\"\u003eTable of n, a(n) for n = 1..210\u003c/a\u003e"
			],
			"formula": [
				"Empirical: a(n) = 9*a(n-1) -166*a(n-3) +224*a(n-4) +820*a(n-5) -1088*a(n-6) -1608*a(n-7) +1712*a(n-8) +1280*a(n-9) -832*a(n-10) -320*a(n-11)"
			],
			"example": [
				"Some solutions for n=5",
				"..1..0....1..2....1..1....0..2....0..1....1..1....0..0....1..2....1..2....1..2",
				"..2..2....0..1....2..2....0..1....1..0....0..1....0..1....0..2....1..2....2..1",
				"..2..2....0..0....0..1....2..1....1..0....2..2....2..0....2..0....2..2....0..2",
				"..1..0....1..2....1..0....0..1....0..1....2..2....1..1....2..2....0..0....0..2",
				"..2..2....1..0....1..0....2..1....1..1....1..1....1..2....0..0....2..2....2..1",
				"..0..1....2..1....1..0....0..1....1..1....0..0....0..0....0..0....1..1....0..2"
			],
			"keyword": "nonn",
			"offset": "1,1",
			"author": "_R. H. Hardin_, Feb 03 2014",
			"references": 1,
			"revision": 4,
			"time": "2014-02-03T06:14:43-05:00",
			"created": "2014-02-03T06:14:43-05:00"
		}
	]
}