{
	"greeting": "Greetings from The On-Line Encyclopedia of Integer Sequences! http://oeis.org/",
	"query": "id:A237932",
	"count": 1,
	"start": 0,
	"results": [
		{
			"number": 237932,
			"data": "1718,19694,228866,2744048,32465580,383375880,4542257982,54067139244,641031056118,7590349989188,90016555755486,1069015366100190,12678249163053274,150277119869692568,1782427688138307804",
			"name": "Number of (n+1)X(2+1) 0..3 arrays with the upper median plus the lower median minus the minimum of every 2X2 subblock differing from its horizontal and vertical neighbors by exactly one",
			"comment": [
				"Column 2 of A237936"
			],
			"link": [
				"R. H. Hardin, \u003ca href=\"/A237932/b237932.txt\"\u003eTable of n, a(n) for n = 1..210\u003c/a\u003e"
			],
			"example": [
				"Some solutions for n=2",
				"..3..1..0....1..0..0....3..2..1....1..3..0....1..1..2....3..3..3....1..3..2",
				"..1..0..2....0..1..0....0..0..0....0..1..2....1..0..3....2..0..3....3..2..3",
				"..2..0..2....1..1..0....1..3..2....2..3..3....0..2..0....2..3..2....3..0..2"
			],
			"keyword": "nonn",
			"offset": "1,1",
			"author": "_R. H. Hardin_, Feb 16 2014",
			"references": 1,
			"revision": 4,
			"time": "2014-02-16T05:46:40-05:00",
			"created": "2014-02-16T05:46:40-05:00"
		}
	]
}