{
	"greeting": "Greetings from The On-Line Encyclopedia of Integer Sequences! http://oeis.org/",
	"query": "id:A237872",
	"count": 1,
	"start": 0,
	"results": [
		{
			"number": 237872,
			"data": "1,4,33,292,10085,48756,2827293,257063528,13779684369,70889442280,72634140523901,314690934778068,140915129117772841,5533416685634616884,251767541303505518145,55644156684309383260624,7481965178603932789388755",
			"name": "Numerator of Sum_{i=1..n} n^i/i.",
			"comment": [
				"The sequence gives the numerators of -n^(n+1)*Phi(n,1,n+1)-log(-n+1) for n\u003e1, where Phi is the Lerch transcendent."
			],
			"link": [
				"Bruno Berselli, \u003ca href=\"/A237872/b237872.txt\"\u003eTable of n, a(n) for n = 1..100\u003c/a\u003e"
			],
			"maple": [
				"A237872:=n-\u003enumer(add(n^i/i, i=1..n)): seq(A237872(n), n=1..20); # _Wesley Ivan Hurt_, Apr 26 2017"
			],
			"mathematica": [
				"f[n_] := Sum[n^i/i, {i, 1, n}]; Table[Numerator[f[n]], {n, 1, 20}]"
			],
			"program": [
				"(MAGMA) terms:=20; s:=[\u0026+[n^i/i: i in [1..n]]: n in [1..terms]]; [Numerator(s[n]): n in [1..terms]];"
			],
			"xref": [
				"Cf. A236772, A237873 (denominators)."
			],
			"keyword": "nonn,frac",
			"offset": "1,2",
			"author": "_Bruno Berselli_, Feb 14 2014",
			"references": 2,
			"revision": 21,
			"time": "2017-04-26T22:28:32-04:00",
			"created": "2014-02-14T11:56:27-05:00"
		}
	]
}