{
	"greeting": "Greetings from The On-Line Encyclopedia of Integer Sequences! http://oeis.org/",
	"query": "id:A237208",
	"count": 1,
	"start": 0,
	"results": [
		{
			"number": 237208,
			"data": "117800,3795060,107553623,3917422192,131209756954,4937949728725,174915940209829,6720032915022118,244904587362771736,9553718420124306088,354283760113111396509,13977477775611867350097,524399755943561661154556",
			"name": "Number of (n+1)X(5+1) 0..3 arrays with the upper median plus the lower median minus the minimum of every 2X2 subblock equal",
			"comment": [
				"Column 5 of A237211"
			],
			"link": [
				"R. H. Hardin, \u003ca href=\"/A237208/b237208.txt\"\u003eTable of n, a(n) for n = 1..81\u003c/a\u003e"
			],
			"example": [
				"Some solutions for n=1",
				"..1..3..1..0..2..2....2..2..0..1..1..2....2..1..0..1..0..2....2..2..2..2..1..1",
				"..3..0..3..3..2..0....3..1..2..3..3..0....2..1..3..1..1..1....2..3..2..2..1..0"
			],
			"keyword": "nonn",
			"offset": "1,1",
			"author": "_R. H. Hardin_, Feb 05 2014",
			"references": 1,
			"revision": 4,
			"time": "2014-02-05T05:21:07-05:00",
			"created": "2014-02-05T05:21:07-05:00"
		}
	]
}