{
	"greeting": "Greetings from The On-Line Encyclopedia of Integer Sequences! http://oeis.org/",
	"query": "id:A238740",
	"count": 1,
	"start": 0,
	"results": [
		{
			"number": 238740,
			"data": "1,19,961,101101,19116721,5895818671,2767218413569,1876349280125881,1765053702368618401,2229877686380646862891,3684146198939103437432641,7785613784940909310055130469,20653334793956901864746843979601,67675129289987844087403319678358151",
			"name": "a(n) = (n+2)!^2*(n+1)!/4*hypergeom([-n],[2,3,3],-1).",
			"comment": [
				"Special values of hypergeometric function of type 1F3.",
				"For all n it seems that the last digit of a(n) is either 1 or 9."
			],
			"maple": [
				"Digits:= 1100:",
				"a:= n-\u003e round(evalf((n+2)!^2*(n+1)!/4*hypergeom([-n], [2, 3, 3], -1))):",
				"seq(a(n), n=0..20);  # _Alois P. Heinz_, Mar 04 2014"
			],
			"mathematica": [
				"Table[(n+2)!^2*(n+1)!/4*HypergeometricPFQ[{-n},{2,3,3},-1],{n,0,10}] (* _Vaclav Kotesovec_, Mar 04 2014 *)"
			],
			"keyword": "nonn",
			"offset": "0,2",
			"author": "_Karol A. Penson_, Mar 04 2014",
			"references": 0,
			"revision": 11,
			"time": "2014-07-03T16:26:47-04:00",
			"created": "2014-07-03T16:26:47-04:00"
		}
	]
}