{
	"greeting": "Greetings from The On-Line Encyclopedia of Integer Sequences! http://oeis.org/",
	"query": "id:A238696",
	"count": 1,
	"start": 0,
	"results": [
		{
			"number": 238696,
			"data": "1,1,2,21,497,18508,3297933,2348121769,2319121509374,4535739243360613,58887253765506968848,1694438232474931034462251,64598311562133275526222276162,8312693334404799592869803398802772,5827069387752679429926992257426553147833",
			"name": "a(n) = Sum_{k=0..floor(n/2)} binomial(n*(n-k), n*k).",
			"link": [
				"G. C. Greubel, \u003ca href=\"/A238696/b238696.txt\"\u003eTable of n, a(n) for n = 0..69\u003c/a\u003e",
				"Vaclav Kotesovec, \u003ca href=\"/A238696/a238696.jpg\"\u003eLimits, graph for 500 terms\u003c/a\u003e"
			],
			"formula": [
				"Maximum is at k = n*(1-1/sqrt(5))/2 = 0.2763932... * n.",
				"Limit n-\u003einfinity a(n)^(1/n^2) = (1+sqrt(5))/2.",
				"Lim sup n-\u003einfinity a(n) / (5^(1/4)/(n*sqrt(2*Pi))*((1+sqrt(5))/2)^(n^2+1)) = JacobiTheta3(0,exp(-5*sqrt(5)/2)) = EllipticTheta[3,0,Exp[-5*Sqrt[5]/2]] = 1.007468786736926147579...",
				"Lim inf n-\u003einfinity a(n) / (5^(1/4)/(n*sqrt(2*Pi))*((1+sqrt(5))/2)^(n^2+1)) = JacobiTheta2(0,exp(-5*sqrt(5)/2)) = EllipticTheta[2,0,Exp[-5*Sqrt[5]/2]] = 0.494414344263155315970...",
				"a(n) = [x^(n^2)] (1-x)^(n-1)/((1-x)^n - x^(2*n)) for n \u003e 0. - _Seiichi Manyama_, Oct 11 2021"
			],
			"mathematica": [
				"Table[Sum[Binomial[n*(n-k), n*k], {k, 0, Floor[n/2]}], {n, 0, 20}]"
			],
			"program": [
				"(PARI) a(n)=sum(k=0,n\\2, binomial(n*(n-k), n*k)) \\\\ _Charles R Greathouse IV_, Jul 29 2016"
			],
			"xref": [
				"Cf. A206849, A207136, A209331."
			],
			"keyword": "nonn,nice",
			"offset": "0,3",
			"author": "_Vaclav Kotesovec_, Mar 03 2014",
			"references": 4,
			"revision": 20,
			"time": "2021-10-12T14:00:03-04:00",
			"created": "2014-03-03T08:33:04-05:00"
		}
	]
}