{
	"greeting": "Greetings from The On-Line Encyclopedia of Integer Sequences! http://oeis.org/",
	"query": "id:A238481",
	"count": 1,
	"start": 0,
	"results": [
		{
			"number": 238481,
			"data": "0,0,1,2,5,6,12,16,22,33,46,57,83,110,138,188,244,308,403,513,642,826,1035,1285,1615,2014,2475,3077,3782,4626,5678,6934,8410,10242,12386,14951,18042,21711,26011,31198,37283,44465,52978,62999,74699,88580,104753",
			"name": "Number of partitions p of n that do not include (min(p) + max(p))/2 as a part.",
			"formula": [
				"A238480(n) + A238481(n) = A000041(n)."
			],
			"example": [
				"a(6) counts these partitions:",
				"  51 (as part (5+1)/2 = 3 is not included),",
				"  42 (as (4+2)/2 = 3 is not included),",
				"  411 (as (4+1)/2 = 2.5 cannot be included),",
				"  3111 (as (3+1)/2 = 2 is not included),",
				"  2211 (as (2+1)/2 = 1.5 cannot be included),",
				"  21111 (ditto).",
				"Thus a(6) = 6."
			],
			"mathematica": [
				"Table[Count[IntegerPartitions[n], p_ /; !MemberQ[p, (Min[p] + Max[p])/2]], {n, 40}]"
			],
			"xref": [
				"Cf. A238480."
			],
			"keyword": "nonn,easy",
			"offset": "1,4",
			"author": "_Clark Kimberling_, Feb 27 2014",
			"references": 3,
			"revision": 11,
			"time": "2014-02-27T20:23:07-05:00",
			"created": "2014-02-27T20:23:07-05:00"
		}
	]
}