{
	"greeting": "Greetings from The On-Line Encyclopedia of Integer Sequences! http://oeis.org/",
	"query": "id:A238996",
	"count": 1,
	"start": 0,
	"results": [
		{
			"number": 238996,
			"data": "255,90841,29422487,8839918663,2576820346901,741313154055591,212231595626785699,60622006079484508011,17303054413357418999617,4936645554621315824547589,1408303888106364409634945519",
			"name": "Number of nX7 0..3 arrays with no element equal to two plus the sum of elements to its left or two plus the sum of the sum of elements above it, modulo 4",
			"comment": [
				"Column 7 of A238997"
			],
			"link": [
				"R. H. Hardin, \u003ca href=\"/A238996/b238996.txt\"\u003eTable of n, a(n) for n = 1..210\u003c/a\u003e"
			],
			"example": [
				"Some solutions for n=2",
				"..0..3..0..0..0..3..1....3..0..3..1..0..0..3....3..3..1..0..0..3..3",
				"..3..2..0..1..3..2..0....0..1..2..2..1..3..0....3..0..0..0..3..3..0"
			],
			"keyword": "nonn",
			"offset": "1,1",
			"author": "_R. H. Hardin_, Mar 08 2014",
			"references": 1,
			"revision": 4,
			"time": "2014-03-08T08:47:48-05:00",
			"created": "2014-03-08T08:47:48-05:00"
		}
	]
}