{
	"greeting": "Greetings from The On-Line Encyclopedia of Integer Sequences! http://oeis.org/",
	"query": "id:A238454",
	"count": 1,
	"start": 0,
	"results": [
		{
			"number": 238454,
			"data": "2,1,4,16,17,68,89,356,697,1337,2449,4001,4417,17668,24329,4633,18532,74128,296512,1186048,1778369,1181833,4727332,18909328,28184177,17830441,71321764,285287056,381898097,9092137,36368548,145474192,581896768,2327587072,9310348288",
			"name": "Difference between 2^(2*n-1) and the next larger square.",
			"formula": [
				"From _Antti Karttunen_, Feb 27 2014: (Start)",
				"a(n) = ceiling(sqrt(2^(2*n-1)))^2 - 2^(2*n-1).",
				"For all n, A000035(abs(A201125(n) - A238454(n))) = 1, because if the nearest square at the other side of 2^(2*n-1) is even, then the nearest square at the other side is odd.",
				"(End)"
			],
			"example": [
				"a(1) = 4 - 2^1 = 2.",
				"a(2) = 9 - 2^3 = 1.",
				"a(3) = 36 - 2^5 = 4."
			],
			"mathematica": [
				"(Floor[Sqrt[#]]+1)^2-#\u0026/@Table[2^(2n-1),{n,40}] (* _Harvey P. Dale_, Jul 05 2019 *)"
			],
			"program": [
				"(Python)",
				"def isqrt(a):",
				"    sr = 1 \u003c\u003c (int.bit_length(int(a)) \u003e\u003e 1)",
				"    while a \u003c sr*sr:  sr\u003e\u003e=1",
				"    b = sr\u003e\u003e1",
				"    while b:",
				"        s = sr + b",
				"        if a \u003e= s*s:  sr = s",
				"        b\u003e\u003e=1",
				"    return sr",
				"def a(n):",
				"    nn = 2**(2*n+1)",
				"    s = isqrt(nn)",
				"    return (s+1)**2-nn",
				"for n in range(77):  print(str(a(n)), end=',')",
				"(Sage)",
				"def a(n):",
				"    return ceil(2^n/sqrt(2))^2 - 2^(2*n-1) # _Ralf Stephan_, Mar 08 2014"
			],
			"xref": [
				"Cf. A000079, A056008, A201125, A236564."
			],
			"keyword": "nonn",
			"offset": "1,1",
			"author": "_Alex Ratushnyak_, Feb 26 2014",
			"references": 4,
			"revision": 30,
			"time": "2020-04-10T07:50:04-04:00",
			"created": "2014-03-08T08:48:50-05:00"
		}
	]
}