{
	"greeting": "Greetings from The On-Line Encyclopedia of Integer Sequences! http://oeis.org/",
	"query": "id:A238815",
	"count": 1,
	"start": 0,
	"results": [
		{
			"number": 238815,
			"data": "1,8,36,194,1281,9701,78735,665135,5762860,50851224,455062596,4118082970,37607992089,346065767407,3204942420924,29844572385359,279238346816393,2623557174778439,24739954338671300,234057667428388199,2220819603016308080,21127269487386615272",
			"name": "Number of prime powers p^k (k \u003e= 0) (A000961) \u003c= 10^n.",
			"formula": [
				"a(n) = A076048(n) + A006880(n).",
				"a(n) ~ 10^n/(n log 10). - _Charles R Greathouse IV_, Mar 05 2014",
				"For n \u003e 0, a(n) = A267712(n) + 1. - _Jon E. Schoenfield_, Apr 19 2018"
			],
			"mathematica": [
				"f[n_] := Block[{k = t = 1}, While[s = PrimePi[ 10^(n/k)]; s != 0, t = t + s; k++]; t]; Array[f, 15, 0]"
			],
			"program": [
				"(PARI) a(n)=sum(k=2,10^n,isprimepower(k)\u003e0)+1 \\\\ _Charles R Greathouse IV_, Mar 05 2014",
				"(PARI) a(n)=sum(e=1,n*log(10)\\log(2),primepi(sqrtnint(10^n,e)))+1 \\\\ _Charles R Greathouse IV_, Mar 05 2014"
			],
			"xref": [
				"Cf. A006880, A076048, A267712."
			],
			"keyword": "nonn",
			"offset": "0,2",
			"author": "_Robert G. Wilson v_, Mar 05 2014",
			"ext": [
				"a(15)-a(21) from _Charles R Greathouse IV_, Mar 05 2014"
			],
			"references": 1,
			"revision": 13,
			"time": "2018-04-20T00:47:14-04:00",
			"created": "2014-03-06T03:09:51-05:00"
		}
	]
}