{
	"greeting": "Greetings from The On-Line Encyclopedia of Integer Sequences! http://oeis.org/",
	"query": "id:A238694",
	"count": 1,
	"start": 0,
	"results": [
		{
			"number": 238694,
			"data": "0,1,1,3,1,3,1,5,25,5,31,5,1,15,49,17,1,5,1,17,9,33,69,89,61,111,199,309,75,297,1,5,49,131,31,17,31,131,165,437,55,33,309,495,361,437,999,89,139,195,129,183,685,315,915,189,585,1035,931,93,1,57,165",
			"name": "Smallest k such that 2^n - k and k*2^n - 1 are both prime or 0 if no such k exists.",
			"comment": [
				"If a(n)=1, then the two primes are same and they are Mersenne primes (A000668)."
			],
			"example": [
				"a(9) = 25 because 2^9 - 25  = 487 and 25*2^9 - 1 = 12799 are both prime."
			],
			"maple": [
				"a:= proc(n) local k, p; p:= 2^n;",
				"      for k while not (isprime(p-k) and isprime(k*p-1))",
				"        do if k\u003e=p then return 0 fi od; k",
				"    end:",
				"seq(a(n), n=1..70);  # _Alois P. Heinz_, Mar 03 2014"
			],
			"xref": [
				"Cf. A238554."
			],
			"keyword": "nonn",
			"offset": "1,4",
			"author": "_Ilya Lopatin_ and _Juri-Stepan Gerasimov_, Mar 03 2014",
			"ext": [
				"More terms from _Alois P. Heinz_, Mar 03 2014"
			],
			"references": 4,
			"revision": 9,
			"time": "2014-03-03T10:19:15-05:00",
			"created": "2014-03-03T10:19:15-05:00"
		}
	]
}