{
	"greeting": "Greetings from The On-Line Encyclopedia of Integer Sequences! http://oeis.org/",
	"query": "id:A238133",
	"count": 1,
	"start": 0,
	"results": [
		{
			"number": 238133,
			"data": "0,1,1,-1,-1,-3,0,-2,1,2,1,2,4,1,-1,4,-2,-1,-3,-1,-2,-2,-6,0,-1,1,-4,0,3,2,2,2,3,0,4,7,0,0,2,-3,7,-2,-1,-3,-2,-4,0,-3,-3,-2,-1,-10,-1,0,1,-1,0,-6,2,2,0,4,3,4,0,2,4,3,0,5,8,2,0,1,-1,1,-3",
			"name": "Difference between A238131(n) and A238132(n).",
			"comment": [
				"Difference between the number of parts in all partitions of n into odd number of distinct parts and the number of parts in all partitions of n into even number of distinct parts.",
				"The convolution of A000005 and A010815."
			],
			"link": [
				"Alois P. Heinz, \u003ca href=\"/A238133/b238133.txt\"\u003eTable of n, a(n) for n = 0..10000\u003c/a\u003e",
				"Mircea Merca, \u003ca href=\"http://dx.doi.org/10.1016/j.jnt.2014.10.009\"\u003eA new look on the generating function for the number of divisors\u003c/a\u003e, Journal of Number Theory, Volume 149, April 2015, Pages 57-69.",
				"Mircea Merca, \u003ca href=\"http://dx.doi.org/10.1016/j.jnt.2015.08.014\"\u003eCombinatorial interpretations of a recent convolution for the number of divisors of a positive integer\u003c/a\u003e, Journal of Number Theory, Volume 160, March 2016, Pages 60-75, difference s_o(n)-s_e(n).",
				"Eric Weisstein's World of Mathematics, \u003ca href=\"http://mathworld.wolfram.com/q-PolygammaFunction.html\"\u003eq-Polygamma Function\u003c/a\u003e, \u003ca href=\"http://mathworld.wolfram.com/q-PochhammerSymbol.html\"\u003eq-Pochhammer Symbol\u003c/a\u003e."
			],
			"formula": [
				"a(n) = Sum_{k=0..A235963(n)-1} (-1)^A110654(k) * A000005(n-A001318(k)).",
				"G.f.: Product_{k\u003e=1} (1-x^k) * Sum_{k\u003e=1} x^k/(1-x^k).",
				"G.f.: (x)_inf * (log(1-x) + psi_x(1))/log(x), where psi_q(z) is the q-digamma function, (q)_inf is the q-Pochhammer symbol (the Euler function)."
			],
			"maple": [
				"A238133 := proc(n)",
				"    add( numtheory[tau](k)*A010815(n-k),k=0..n) ;",
				"end proc: # _R. J. Mathar_, Jun 18 2016",
				"# second Maple program:",
				"b:= proc(n, i) option remember; `if`(i*(i+1)/2\u003cn, 0,",
				"     `if`(n=0, [1, 0$3], b(n, i-1)+`if`(i\u003en, 0, (p-\u003e",
				"      [p[2], p[1], p[4]+p[2], p[3]+p[1]])(b(n-i, i-1)))))",
				"    end:",
				"a:= n-\u003e (p-\u003e p[4]-p[3])(b(n$2)):",
				"seq(a(n), n=0..100);  # _Alois P. Heinz_, Jun 18 2016"
			],
			"mathematica": [
				"Table[SeriesCoefficient[QPochhammer[x] (Log[1 - x] + QPolyGamma[1, x])/Log[x], {x, 0, n}], {n, 0, 80}] (* _Vladimir Reshetnikov_, Nov 20 2016 *)"
			],
			"xref": [
				"Cf. A000005, A001318, A010815, A110654, A235963, A238131, A238132."
			],
			"keyword": "sign,look",
			"offset": "0,6",
			"author": "_Mircea Merca_, Feb 18 2014",
			"references": 2,
			"revision": 49,
			"time": "2017-05-06T10:33:16-04:00",
			"created": "2014-02-20T12:48:48-05:00"
		}
	]
}