{
	"greeting": "Greetings from The On-Line Encyclopedia of Integer Sequences! http://oeis.org/",
	"query": "id:A238584",
	"count": 1,
	"start": 0,
	"results": [
		{
			"number": 238584,
			"data": "11,47,5,337,1171,17,67,37649,1222373689,379,257247841,31,13,6354384973,37,7457,103,23,19,85447,57301,285287,135510460324096326439969913816044529,131,11453399471,14810217908652678241,701,43,3889",
			"name": "Ratios of consecutive terms in A152466.",
			"comment": [
				"The next term of this sequence is known to have at least 20 digits. - _J. Lowell_, Dec 12 2021"
			],
			"xref": [
				"Cf. A152466."
			],
			"keyword": "nonn",
			"offset": "1,1",
			"author": "_J. Lowell_, Mar 01 2014",
			"ext": [
				"a(12)-a(29) from _Charles R Greathouse IV_, Mar 01 2014"
			],
			"references": 1,
			"revision": 21,
			"time": "2021-12-13T02:20:28-05:00",
			"created": "2014-03-02T02:48:33-05:00"
		}
	]
}