{
	"greeting": "Greetings from The On-Line Encyclopedia of Integer Sequences! http://oeis.org/",
	"query": "id:A238627",
	"count": 1,
	"start": 0,
	"results": [
		{
			"number": 238627,
			"data": "0,0,0,0,1,1,2,4,6,10,13,20,27,39,50,70,87,120,147,198,240,315,381,491,594,752,900,1130,1348,1676,1992,2449,2902,3540,4184,5065,5969,7181,8438,10095,11829,14078,16460,19495,22740,26818,31205,36662,42571,49836",
			"name": "Number of partitions p of n such that max(p) - 3*min(p) is a part of p.",
			"example": [
				"a(8) counts these partitions:  521, 431, 4211, 41111."
			],
			"mathematica": [
				"Table[Count[IntegerPartitions[n], p_ /; MemberQ[p, Max[p] - 3*Min[p]]], {n, 50}]"
			],
			"xref": [
				"Cf. A238626."
			],
			"keyword": "nonn,easy",
			"offset": "1,7",
			"author": "_Clark Kimberling_, Mar 02 2014",
			"references": 1,
			"revision": 4,
			"time": "2014-03-06T18:40:58-05:00",
			"created": "2014-03-06T18:40:58-05:00"
		}
	]
}