{
	"greeting": "Greetings from The On-Line Encyclopedia of Integer Sequences! http://oeis.org/",
	"query": "id:A238646",
	"count": 1,
	"start": 0,
	"results": [
		{
			"number": 238646,
			"data": "0,0,0,1,2,2,2,2,3,1,2,1,3,1,3,1,4,2,3,2,5,4,5,1,3,3,4,2,5,3,4,5,8,3,5,1,5,5,7,3,5,2,6,3,6,6,9,4,8,7,7,6,7,4,6,7,8,5,6,4,7,8,9,6,6,6,9,5,7,4,8,6,10,6,5,8,11,7,10,6",
			"name": "Number of primes p \u003c n such that the number of squarefree numbers among 1, ..., n-p is prime.",
			"comment": [
				"Conjecture: a(n) \u003e 0 for all n \u003e 3, and a(n) = 1 only for n = 4, 10, 12, 14, 16, 24, 36.",
				"This is analog of the conjecture in A237705 for squarefree numbers.",
				"We have verified the conjecture for n up to 60000."
			],
			"link": [
				"Zhi-Wei Sun, \u003ca href=\"/A238646/b238646.txt\"\u003eTable of n, a(n) for n = 1..10000\u003c/a\u003e",
				"Zhi-Wei Sun, \u003ca href=\"http://arxiv.org/abs/1402.6641\"\u003eProblems on combinatorial properties of primes\u003c/a\u003e, arXiv:1402.6641, 2014."
			],
			"example": [
				"a(10) = 1 since 7 and 3 are both prime, and there are exactly 3 squarefree numbers among 1, ..., 10-7.",
				"a(36) = 1 since 17 and 13 are both prime, and there are exactly 13 squarefree numbers among 1, ..., 36-17 (namely, 1, 2, 3, 5, 6, 7, 10, 11, 13, 14, 15, 17, 19)."
			],
			"mathematica": [
				"s[n_]:=Sum[If[SquareFreeQ[k],1,0],{k,1,n}]",
				"a[n_]:=Sum[If[PrimeQ[s[n-Prime[k]]],1,0],{k,1,PrimePi[n-1]}]",
				"Table[a[n],{n,1,80}]"
			],
			"xref": [
				"Cf. A000040, A005117, A013928, A237705, A237768, A237769, A238645."
			],
			"keyword": "nonn",
			"offset": "1,5",
			"author": "_Zhi-Wei Sun_, Mar 02 2014",
			"references": 2,
			"revision": 14,
			"time": "2015-07-10T20:05:37-04:00",
			"created": "2014-03-02T10:27:55-05:00"
		}
	]
}