{
	"greeting": "Greetings from The On-Line Encyclopedia of Integer Sequences! http://oeis.org/",
	"query": "id:A238548",
	"count": 1,
	"start": 0,
	"results": [
		{
			"number": 238548,
			"data": "1,1,2,3,5,8,12,16,24,32,43,59,79,102,138,179,232,300,388,492,631,794,1003,1259,1577,1955,2436,3007,3710,4555,5590,6817,8323,10103,12259,14821,17897,21529,25894,31030,37147,44350,52898,62917,74778,88646,104980",
			"name": "Number of partitions p of n such that (number of parts of p) - min(p) is not a part of p.",
			"formula": [
				"a(n) + A238547(n) = A000041(n)."
			],
			"example": [
				"a(6) = 8 counts all 11 partitions of 6 except these:  71, 521, 41111."
			],
			"mathematica": [
				"Table[Count[IntegerPartitions[n], p_ /; MemberQ[p, Length[p]-Min[p]]], {n, 50}]"
			],
			"program": [
				"(PARI) a(n) = my(nb = 0); forpart(p=n, if (!vecsearch(Vec(p), #p-vecmin(p)), nb++);); nb; \\\\ _Michel Marcus_, Jun 18 2015"
			],
			"xref": [
				"Cf. A238547."
			],
			"keyword": "nonn,easy",
			"offset": "1,3",
			"author": "_Clark Kimberling_, Feb 28 2014",
			"references": 1,
			"revision": 8,
			"time": "2015-06-18T03:59:33-04:00",
			"created": "2014-03-03T09:58:34-05:00"
		}
	]
}