{
	"greeting": "Greetings from The On-Line Encyclopedia of Integer Sequences! http://oeis.org/",
	"query": "id:A238218",
	"count": 1,
	"start": 0,
	"results": [
		{
			"number": 238218,
			"data": "0,0,0,0,1,1,0,1,1,1,2,2,2,3,4,5,6,7,9,10,12,15,17,20,24,27,32,38,43,50,59,67,77,90,102,117,135,153,175,200,226,257,292,330,373,422,475,535,603,677,760,853,955,1069,1196,1336,1491,1663,1853,2063,2295",
			"name": "The total number of 3's in all partitions of n into an even number of distinct parts.",
			"comment": [
				"The g.f. for \"number of k's\" is (1/2)*(x^k/(1+x^k))*(Product_{n\u003e=1} 1 + x^n) - (1/2)*(x^k/(1-x^k))*(Product_{n\u003e=1} 1 - x^n)."
			],
			"link": [
				"Andrew Howroyd, \u003ca href=\"/A238218/b238218.txt\"\u003eTable of n, a(n) for n = 0..1000\u003c/a\u003e"
			],
			"formula": [
				"a(n) = Sum_{j=1..round(n/6)} A067659(n-(2*j-1)*3) - Sum_{j=1..floor(n/6)} A067661(n-6*j).",
				"G.f.: (1/2)*(x^3/(1+x^3))*(Product_{n\u003e=1} 1 + x^n) - (1/2)*(x^3/(1-x^3))*(Product_{n\u003e=1} 1 - x^n)."
			],
			"example": [
				"a(13) = 3 because the partitions in question are: 10+3, 7+3+2+1, 5+4+3+1."
			],
			"program": [
				"(PARI) seq(n)={my(A=O(x^(n-2))); Vec(x*(eta(x^2 + A)/(eta(x + A)*(1+x^3)) - eta(x + A)/(1-x^3))/2, -(n+1))} \\\\ _Andrew Howroyd_, May 01 2020"
			],
			"xref": [
				"Column k=3 of A238451.",
				"Cf. A067659, A067661."
			],
			"keyword": "nonn",
			"offset": "0,11",
			"author": "_Mircea Merca_, Feb 20 2014",
			"ext": [
				"Terms a(51) and beyond from _Andrew Howroyd_, May 01 2020"
			],
			"references": 2,
			"revision": 8,
			"time": "2020-05-01T17:51:58-04:00",
			"created": "2014-02-20T13:00:03-05:00"
		}
	]
}