{
	"greeting": "Greetings from The On-Line Encyclopedia of Integer Sequences! http://oeis.org/",
	"query": "id:A238582",
	"count": 1,
	"start": 0,
	"results": [
		{
			"number": 238582,
			"data": "1,4,6,1,1,4,12,3,1,8,28,10,1,8,54,82,49,8,1,1,12,95,283,311,91,10,1,12,146,647,1118,451,68,1,16,212,1300,3380,3076,1200,209,20,1,1,16,288,2260,8443,13336,9364,2819,387,20",
			"name": "Number T(n,k) of equivalence classes of ways of placing k 3 X 3 tiles in an n X 9 rectangle under all symmetry operations of the rectangle; irregular triangle T(n,k), n\u003e=3, 0\u003c=k\u003c=2*floor(n/3), read by rows.",
			"link": [
				"Andrew Howroyd, \u003ca href=\"/A238582/b238582.txt\"\u003eTable of n, a(n) for n = 3..989\u003c/a\u003e",
				"Christopher Hunt Gribble, \u003ca href=\"/A238009/a238009_1.cpp.txt\"\u003eC++ program\u003c/a\u003e"
			],
			"example": [
				"The first 9 rows of T(n,k) are:",
				".\\ k  0     1     2     3     4     5     6     7     8     9",
				"n",
				"3     1     4     6     1",
				"4     1     4    12     3",
				"5     1     8    28    10",
				"6     1     8    54    82    49     8     1",
				"7     1    12    95   283   311    91    10",
				"8     1    12   146   647  1118   451    68",
				"9     1    16   212  1300  3380  3076  1200   209    20     1",
				"10    1    16   288  2260  8443 13336  9364  2819   387    20",
				"11    1    20   379  3709 18203 42412 44599 19051  3682   282"
			],
			"program": [
				"(C++) See Gribble link."
			],
			"xref": [
				"Cf. A034851, A226048, A102541, A226290, A238009, A228570, A225812, A238189, A238190, A228572, A228022, A231145, A231473, A231568, A232440, A228165, A238550-A238552, A228166, A238555, A238556, A228167, A238557-A238559, A228168, A238581, A238583, A228169, A238586, A238592."
			],
			"keyword": "tabf,nonn",
			"offset": "3,2",
			"author": "_Christopher Hunt Gribble_, Mar 01 2014",
			"ext": [
				"Terms corrected and xrefs updated by _Christopher Hunt Gribble_, Apr 27 2015",
				"Terms a(46) and beyond from _Andrew Howroyd_, May 29 2017"
			],
			"references": 12,
			"revision": 19,
			"time": "2017-05-29T20:40:12-04:00",
			"created": "2014-03-10T10:19:12-04:00"
		}
	]
}