{
	"greeting": "Greetings from The On-Line Encyclopedia of Integer Sequences! http://oeis.org/",
	"query": "id:A239084",
	"count": 1,
	"start": 0,
	"results": [
		{
			"number": 239084,
			"data": "1,2,10,3,11,4,12,13,14,15,16,5,6,17,18,7,8,19,20,9,21,30,31,32,22,23,24,25,26,27,28,29,33,34,35,36,37,38,39,40,41,42,43,50,51,52,53,54,44,45,46,47,48,49,55,56,57,58,59,60,61,62,63,64,65,70,71,72,73,74,75,76,66",
			"name": "The sequence S = a(1), a(2), ... is defined by a(1)=1, if d,e,f are consecutive digits then we do not have d \u003c e \u003c= f, and S is always extended with the smallest integer not yet present in S.",
			"comment": [
				"Computed by Lars Blomberg."
			],
			"reference": [
				"Eric Angelini, Posting to Sequence Fans Mailing List, Sep 28 2013"
			],
			"link": [
				"Eric Angelini, \u003ca href=\"http://www.cetteadressecomportecinquantesignes.com/LittleEqualGreat.htm\"\u003eLess than \u003c, Equal to =, Greater than \u003e\u003c/a\u003e (see sequence Sb)",
				"Eric Angelini, \u003ca href=\"/A239083/a239083.pdf\"\u003eLess than \u003c, Equal to =, Greater than \u003e\u003c/a\u003e [Cached copy, with permission of the author]"
			],
			"xref": [
				"The sequences in this family are given in A239083-A239086, A239136-A239139, A239087-A239090, A239215-A239218, A239235."
			],
			"keyword": "nonn,base",
			"offset": "1,2",
			"author": "_N. J. A. Sloane_, Mar 10 2014",
			"references": 0,
			"revision": 10,
			"time": "2016-06-09T10:36:41-04:00",
			"created": "2014-03-10T20:08:09-04:00"
		}
	]
}