{
	"greeting": "Greetings from The On-Line Encyclopedia of Integer Sequences! http://oeis.org/",
	"query": "id:A239585",
	"count": 1,
	"start": 0,
	"results": [
		{
			"number": 239585,
			"data": "2,2,3,2,2,3,3,5,5,7,11,11,13,11,11,13,13,11,17,13,11,17,11,19,13,17,13,11,19,11,11,13,17,11,17,23,13,19,13,11,19,13,17,11,23,11,13,17,19,23,17,11,13,19,11,13,17,11,19,29,23,11,13,19,29,17,11",
			"name": "Prime factor \u003c= other prime factor of n-th brilliant number, cf. A078972.",
			"comment": [
				"a(n) = A020639(A078972(n)) = A078972(n) / A239586(n);",
				"A055642(a(n)) = A055642(A239586(n))."
			],
			"link": [
				"Reinhard Zumkeller, \u003ca href=\"/A239585/b239585.txt\"\u003eTable of n, a(n) for n = 1..20000\u003c/a\u003e",
				"Dario Alpern, \u003ca href=\"http://www.alpertron.com.ar/BRILLIANT.HTM\"\u003eBrilliant Numbers\u003c/a\u003e"
			],
			"example": [
				".       n  | A239585(n) | A239586(n) | A078972(n)   Lengths of factors",
				".  --------+------------+------------+-----------   ------------------",
				".       1  |        2   |        2   |        4          1",
				".       5  |        2   |        7   |       14",
				".      10  |        7   |        7   |       49",
				".          |.........................|              ..................",
				".      11  |       11   |       11   |      121          2",
				".      78  |       11   |       97   |     1067",
				".     100  |       37   |       37   |     1369",
				".     241  |       97   |       97   |     9409",
				".          |.........................|              ..................",
				".     242  |      101   |      101   |    10201          3",
				".    1000  |      193   |      263   |    50759",
				".    2530  |      101   |      997   |   100697",
				".   10000  |      743   |      937   |   696191",
				".   10537  |      997   |      997   |   994009",
				".          |.........................|              ..................",
				".   10538  |     1009   |     1009   |  1018081          4            ."
			],
			"program": [
				"(Haskell)",
				"a239585 = a020639 . a078972"
			],
			"xref": [
				"Subsequence of A084126."
			],
			"keyword": "nonn,base",
			"offset": "1,1",
			"author": "_Reinhard Zumkeller_, Mar 22 2014",
			"references": 3,
			"revision": 5,
			"time": "2014-03-22T11:25:29-04:00",
			"created": "2014-03-22T11:25:29-04:00"
		}
	]
}