{
	"greeting": "Greetings from The On-Line Encyclopedia of Integer Sequences! http://oeis.org/",
	"query": "id:A239102",
	"count": 1,
	"start": 0,
	"results": [
		{
			"number": 239102,
			"data": "1,2,1,6,3,1,20,10,4,1,66,35,15,5,1,222,121,56,21,6,1,756,420,204,84,28,7,1,2598,1464,736,323,120,36,8,1,8994,5122,2643,1215,487,165,45,9,1,31322,17983,9468,4510,1912,706,220,55,10,1",
			"name": "Riordan array read by rows, corresponding to g.f. (1+x*y^3)/((1-x-y)*(1+x*y^3)+x*y^4).",
			"link": [
				"Alois P. Heinz, \u003ca href=\"/A239102/b239102.txt\"\u003eRows n = 0..140, flattened\u003c/a\u003e",
				"D. Baccherini, D. Merlini, R. Sprugnoli, \u003ca href=\"http://dx.doi.org/10.1016/j.disc.2006.07.023\"\u003eBinary words excluding a pattern and proper Riordan arrays\u003c/a\u003e, Discrete Math. 307 (2007), no. 9-10, 1021--1037. MR2292531 (2008a:05003)."
			],
			"example": [
				"Triangle begins:",
				"1",
				"2 1",
				"6 3 1",
				"20 10 4 1",
				"66 35 15 5 1",
				"222 121 56 21 6 1",
				"756 420 204 84 28 7 1",
				"2598 1464 736 323 120 36 8 1",
				"..."
			],
			"keyword": "nonn,tabl",
			"offset": "0,2",
			"author": "_N. J. A. Sloane_, Mar 25 2014",
			"ext": [
				"More terms from _Alois P. Heinz_, Sep 03 2014"
			],
			"references": 1,
			"revision": 12,
			"time": "2014-09-03T22:25:26-04:00",
			"created": "2014-03-25T09:02:06-04:00"
		}
	]
}