{
	"greeting": "Greetings from The On-Line Encyclopedia of Integer Sequences! http://oeis.org/",
	"query": "id:A239378",
	"count": 1,
	"start": 0,
	"results": [
		{
			"number": 239378,
			"data": "1,1,4,27,252,2935,40300,630392",
			"name": "Words of length n over the alphabet {0,...,n-1} that avoid the pattern 1312.",
			"xref": [
				"Cf. A239295."
			],
			"keyword": "nonn,more",
			"offset": "0,3",
			"author": "_Chad Brewbaker_, Mar 17 2014",
			"references": 0,
			"revision": 6,
			"time": "2014-03-19T13:04:56-04:00",
			"created": "2014-03-19T13:04:56-04:00"
		}
	]
}