{
	"greeting": "Greetings from The On-Line Encyclopedia of Integer Sequences! http://oeis.org/",
	"query": "id:A239935",
	"count": 1,
	"start": 0,
	"results": [
		{
			"number": 239935,
			"data": "11,14,15,18,20,27,29,31,34,38,41,43,47,48,50,53,54,58,59,63,64,65,67,69,71,72,75,77,79,83,88,90,94,98,99,102,103,107,109,112,114,118,119,123,125,131,132,134,136,139,141,142,146,150,154,159,161,164,167",
			"name": "Numbers k such that DigitSum(3^k) \u003e DigitSum(3^(k+1)).",
			"link": [
				"Robert Israel, \u003ca href=\"/A239935/b239935.txt\"\u003eTable of n, a(n) for n = 1..8009\u003c/a\u003e"
			],
			"example": [
				"For k=11, we have DigitSum(3^11) = 27 \u003e 18 = DigitSum(3^12)."
			],
			"maple": [
				"N:= 1000: # to get the first N terms",
				"threen:= 3:",
				"digsum:= 3:",
				"count:= 0:",
				"for n from 1 while count \u003c N do",
				"  threen:= 3*threen;",
				"  oldsum:= digsum;",
				"  digsum:= convert(convert(threen,base,10),`+`);",
				"  if oldsum \u003e digsum then",
				"     count:= count+1;",
				"     A239935[count]:= n;",
				"  fi",
				"od: # _Robert Israel_, Apr 18 2014"
			],
			"mathematica": [
				"lis = Table[Total[IntegerDigits[3^n, 10]], {n, 1, 100}];",
				"Flatten[Position[Greater @@@ Partition[lis, 2, 1], True]]"
			],
			"program": [
				"(PARI) isok(k) = sumdigits(3^k) \u003e sumdigits(3^(k+1)); \\\\ _Michel Marcus_, Jul 03 2021"
			],
			"xref": [
				"Cf. A004166, A007953."
			],
			"keyword": "nonn,base",
			"offset": "1,1",
			"author": "_Oliver Bel_, Mar 29 2014",
			"ext": [
				"More terms from _Jon E. Schoenfield_, Mar 29 2014"
			],
			"references": 2,
			"revision": 17,
			"time": "2021-07-03T04:20:30-04:00",
			"created": "2014-04-04T13:32:25-04:00"
		}
	]
}