{
	"greeting": "Greetings from The On-Line Encyclopedia of Integer Sequences! http://oeis.org/",
	"query": "id:A239164",
	"count": 1,
	"start": 0,
	"results": [
		{
			"number": 239164,
			"data": "0,1,12,1240,1655004,32796849930,10743023668660275,62590747974586286694030,6826987264035710020018176749475,14471606032117455546329821353159274382372,613427607589897771307393494301176209875530879140211",
			"name": "Number of partitions of 5^n into parts that are at most n with at least one part of each size.",
			"link": [
				"Alois P. Heinz, \u003ca href=\"/A239164/b239164.txt\"\u003eTable of n, a(n) for n = 0..40\u003c/a\u003e",
				"A. V. Sills and D. Zeilberger, \u003ca href=\"https://arxiv.org/abs/1108.4391\"\u003eFormulae for the number of partitions of n into at most m parts (using the quasi-polynomial ansatz)\u003c/a\u003e, arXiv:1108.4391 [math.CO], 2011."
			],
			"formula": [
				"a(n) = [x^(5^n-n*(n+1)/2)] Product_{j=1..n} 1/(1-x^j).",
				"a(n) ~ 5^(n*(n-1)) / (n!*(n-1)!). - _Vaclav Kotesovec_, Jun 05 2015"
			],
			"example": [
				"a(2) = 12: 2222222222221, 22222222222111, 222222222211111, 2222222221111111, 22222222111111111, 222222211111111111, 2222221111111111111, 22222111111111111111, 222211111111111111111, 2221111111111111111111, 22111111111111111111111, 211111111111111111111111."
			],
			"mathematica": [
				"maxExponent = 45; a[0] = 0; a[1] = 1;",
				"a[n_] := Module[{}, aparts = List @@ (Product[1/(1 - x^j), {j, 1, n}] // Apart); cc = aparts + O[x]^maxExponent // CoefficientList[#, x]\u0026; f[k_] = Total[FindSequenceFunction[#, k]\u0026 /@ cc];f[5^n - n(n+1)/2 + 1] // Round];",
				"Table[an = a[n]; Print[n, \" \", an]; an, {n, 0, 10}] (* _Jean-François Alcover_, Nov 15 2018 *)"
			],
			"xref": [
				"Column k=5 of A238012."
			],
			"keyword": "nonn",
			"offset": "0,3",
			"author": "_Alois P. Heinz_, Mar 11 2014",
			"references": 2,
			"revision": 14,
			"time": "2018-11-15T11:10:41-05:00",
			"created": "2014-03-11T18:14:11-04:00"
		}
	]
}