{
	"greeting": "Greetings from The On-Line Encyclopedia of Integer Sequences! http://oeis.org/",
	"query": "id:A239435",
	"count": 1,
	"start": 0,
	"results": [
		{
			"number": 239435,
			"data": "0,1,4,9,11,16,21,24,25,31,36,39,41,44,49,51,56,61,64,69,71,75,81,84,91,96,99,100,101,104,111,119,121,124,125,129,131,136,141,144,151,156,159,161,164,169,171,175,176,181,184,189,191,196,200,201,204,211",
			"name": "Values of n for which the equation x^2 - 25*y^2 = n has integer solutions.",
			"comment": [
				"This equation is a Pellian equation of the form x^2 - D^2*y^2 = N."
			],
			"link": [
				"Colin Barker, \u003ca href=\"/A239435/b239435.txt\"\u003eTable of n, a(n) for n = 1..1000\u003c/a\u003e"
			],
			"example": [
				"21 is in the sequence because the equation x^2 - 25*y^2 = 21 has the solution (X,Y) = (11,2)."
			],
			"program": [
				"(PARI)",
				"b(n) = sumdiv(n, f, f^2\u003c=n \u0026\u0026 (n-f^2)%(10*f)==0) \\\\ See A239434",
				"s=[]; for(n=0, 250, if(b(n)\u003e0, s=concat(s,n))); s"
			],
			"xref": [
				"Cf. A042965, A230239, A230240, A239434."
			],
			"keyword": "nonn",
			"offset": "1,3",
			"author": "_Colin Barker_, Mar 18 2014",
			"references": 2,
			"revision": 8,
			"time": "2014-10-30T07:30:51-04:00",
			"created": "2014-03-25T10:59:01-04:00"
		}
	]
}