{
	"greeting": "Greetings from The On-Line Encyclopedia of Integer Sequences! http://oeis.org/",
	"query": "id:A239364",
	"count": 1,
	"start": 0,
	"results": [
		{
			"number": 239364,
			"data": "38,1442,54758,2079362,78960998,2998438562,113861704358,4323746327042,164188498723238,6234839205156002,236759701297204838,8990633810088627842,341407325082070653158,12964487719308596192162,492309126008644584648998,18694782300609185620469762",
			"name": "Numbers n such that (n^2-4)/10 is a square.",
			"comment": [
				"Values of x satisfying the Pellian equation x^2 - 10*y^2 = 4."
			],
			"link": [
				"Colin Barker, \u003ca href=\"/A239364/b239364.txt\"\u003eTable of n, a(n) for n = 1..600\u003c/a\u003e",
				"Hacène Belbachir, Soumeya Merwa Tebtoub, and László Németh, \u003ca href=\"https://cs.uwaterloo.ca/journals/JIS/VOL23/Nemeth/nemeth7.html\"\u003eEllipse Chains and Associated Sequences\u003c/a\u003e, J. Int. Seq., Vol. 23 (2020), Article 20.8.5.",
				"\u003ca href=\"/index/Rec#order_02\"\u003eIndex entries for linear recurrences with constant coefficients\u003c/a\u003e, signature (38,-1)."
			],
			"formula": [
				"a(n) = 2*A078986(n).",
				"a(n) = (19+6*sqrt(10))^(-n)+(19+6*sqrt(10))^n.",
				"a(n) = 38*a(n-1)-a(n-2).",
				"G.f.: -2*x*(x-19) / (x^2-38*x+1)."
			],
			"example": [
				"1442 is in the sequence because (1442^2-4)/10 = 207936 = 456^2."
			],
			"mathematica": [
				"LinearRecurrence[{38,-1},{38,1442},30] (* _Harvey P. Dale_, Dec 19 2014 *)"
			],
			"program": [
				"(PARI) Vec(-2*x*(x-19)/(x^2-38*x+1) + O(x^100))"
			],
			"xref": [
				"Cf. A078986, A239365."
			],
			"keyword": "nonn,easy",
			"offset": "1,1",
			"author": "_Colin Barker_, Mar 17 2014",
			"references": 2,
			"revision": 21,
			"time": "2021-01-05T19:06:55-05:00",
			"created": "2014-03-18T03:55:54-04:00"
		}
	]
}