{
	"greeting": "Greetings from The On-Line Encyclopedia of Integer Sequences! http://oeis.org/",
	"query": "id:A239698",
	"count": 1,
	"start": 0,
	"results": [
		{
			"number": 239698,
			"data": "0,2,6,11,18,25,35,45,56,69,83,97,115,131,150,169,189,212,234,258,284",
			"name": "Number of equilateral triangles, distinct up to congruence, on a centered hexagonal grid of size n.",
			"comment": [
				"A centered hexagonal grid of size n is a grid with A003215(n-1) points forming a hexagonal lattice."
			],
			"link": [
				"Eric Weisstein's World of Mathematics, \u003ca href=\"http://mathworld.wolfram.com/HexNumber.html\"\u003eHex Number\u003c/a\u003e.",
				"Eric Weisstein's World of Mathematics, \u003ca href=\"http://mathworld.wolfram.com/EquilateralTriangle.html\"\u003eEquilateral Triangle\u003c/a\u003e."
			],
			"example": [
				"For n = 2 the two kinds of non-congruent equilateral triangles are the following:",
				"/. *     * .",
				". * *   . . *",
				"\\. .     * ."
			],
			"xref": [
				"Cf. A008893."
			],
			"keyword": "nonn,more",
			"offset": "1,2",
			"author": "_Martin Renner_, Apr 17 2014",
			"ext": [
				"a(7) from _Martin Renner_, May 31 2014",
				"a(8)-a(21) from _Giovanni Resta_, May 31 2014"
			],
			"references": 0,
			"revision": 33,
			"time": "2014-05-31T10:37:59-04:00",
			"created": "2014-04-18T01:33:25-04:00"
		}
	]
}