{
	"greeting": "Greetings from The On-Line Encyclopedia of Integer Sequences! http://oeis.org/",
	"query": "id:A239290",
	"count": 1,
	"start": 0,
	"results": [
		{
			"number": 239290,
			"data": "4,7,8,19,55,149,497,1799,6696,26109,106953",
			"name": "Number of pairs of terms of the sequence A228126 less than 10^n.",
			"link": [
				"Giovanni Resta, \u003ca href=\"http://www.numbersaplenty.com/set/eRAP/\"\u003eeRAPs: the 446139 terms \u003c 10^12\u003c/a\u003e",
				"Carlos Rivera, \u003ca href=\"http://www.primepuzzles.net/puzzles/puzz_719.htm\"\u003eExtension to Ruth Aaron pairs\u003c/a\u003e"
			],
			"xref": [
				"Cf. A001414, A006145 Ruth-Aaron numbers (1): sum of prime divisors of n = sum of prime divisors of n+1, A228126 Sum of prime divisors of n (with repetition) is one less than the sum of prime divisors (with repetition) of n+1."
			],
			"keyword": "nonn,hard,more",
			"offset": "1,1",
			"author": "_Abhiram R Devesh_, Jun 14 2014",
			"references": 0,
			"revision": 14,
			"time": "2015-10-08T07:10:45-04:00",
			"created": "2014-06-14T21:30:14-04:00"
		}
	]
}