{
	"greeting": "Greetings from The On-Line Encyclopedia of Integer Sequences! http://oeis.org/",
	"query": "id:A239618",
	"count": 1,
	"start": 0,
	"results": [
		{
			"number": 239618,
			"data": "0,0,5,19,65,242,704,1884",
			"name": "Number of primitive Euler bricks with side length a \u003c b \u003c c \u003c 10^n, i.e., in a boxed parameter space with dimension 10^n.",
			"comment": [
				"An Euler brick is a cuboid of integer side dimensions a, b, c such that the face diagonals are integers. It is called primitive if gcd(a,b,c)=1.",
				"Because the sides of a cuboid are permutable without changing its shape, the total number of primitive Euler bricks in the parameter space a, b, c \u003c 10^n is b(n) = 6*a(n) = 0, 0, 30, 114, 390, ..."
			],
			"link": [
				"Eric Weisstein's World of Mathematics, \u003ca href=\"http://mathworld.wolfram.com/EulerBrick.html\"\u003eEuler Brick\u003c/a\u003e",
				"\u003ca href=\"/index/Br#bricks\"\u003eIndex entries for sequences related to bricks\u003c/a\u003e"
			],
			"example": [
				"a(3) = 5, since there are the five primitive Euler bricks [44, 117, 240], [85, 132, 720], [140, 480, 693], [160, 231, 792], [240, 252, 275] with longest side length \u003c 1000."
			],
			"xref": [
				"Cf. A031173, A031174, A031175, A239620."
			],
			"keyword": "nonn,more",
			"offset": "1,3",
			"author": "_Martin Renner_, Mar 22 2014",
			"ext": [
				"a(6)-a(8) from _Giovanni Resta_, Mar 22 2014"
			],
			"references": 1,
			"revision": 13,
			"time": "2014-03-28T02:05:01-04:00",
			"created": "2014-03-28T02:05:01-04:00"
		}
	]
}