{
	"greeting": "Greetings from The On-Line Encyclopedia of Integer Sequences! http://oeis.org/",
	"query": "id:A239613",
	"count": 1,
	"start": 0,
	"results": [
		{
			"number": 239613,
			"data": "1,16,96,384,960,1536,4032,8192,11664,15360,26400,36864,52416,64512,92160,163840,156672,186624,246240,368640,387072,422400,534336,786432,900000,838656,1259712,1548288,1364160,1474560,1785600,3145728",
			"name": "a(n) = Sum_{0 \u003c x,y,z,t \u003c= n and gcd(x^2 + y^2 + z^2 + t^2, n)=1} gcd(x^2 + y^2 + z^2 + t^2 - 1, n).",
			"comment": [
				"Related to Menon's identity. See Conclusions and further work section of the arXiv file linked."
			],
			"link": [
				"Andrew Howroyd, \u003ca href=\"/A239613/b239613.txt\"\u003eTable of n, a(n) for n = 1..1000\u003c/a\u003e",
				"C. Calderón, J. M. Grau, A. Oller-Marcen, L. Toth, \u003ca href=\"http://arxiv.org/abs/1403.7878\"\u003eCounting invertible sums of squares modulo n and a new generalization of Euler totient function\u003c/a\u003e, arXiv:1403.7878 [math.NT], 2014."
			],
			"mathematica": [
				"g4[n_] := Sum[If[GCD[x^2 + y^2+ z^2+ t^2, n] == 1, GCD[x^2 + y^2+ z^2+ t^2 - 1, n], 0], {x, 1, n}, {y, 1, n},{z,1,n},{t,1,n}]; Array[g4,100]"
			],
			"program": [
				"(PARI) a(n) = {s = 0; for (x=1, n, for (y=1, n, for (z=1, n, for (t=1, n, if (gcd(x^2+y^2+z^2+t^2,n) == 1, s += gcd(x^2+y^2+z^2+t^2-1,n)););););); s;} \\\\ _Michel Marcus_, Jun 29 2014",
				"(PARI) a(n)={my(p=lift(Mod(sum(i=0, n-1, x^(i^2%n)), x^n-1)^4)); sum(i=0, n-1, if(gcd(i,n)==1, polcoeff(p,i)*gcd((i-1)%n,n)))} \\\\ _Andrew Howroyd_, Aug 07 2018"
			],
			"xref": [
				"Cf. A239611, A239612, A239614, A239615, A079458, A053191, A227499."
			],
			"keyword": "nonn,mult",
			"offset": "1,2",
			"author": "_José María Grau Ribas_, Jun 25 2014",
			"ext": [
				"Keyword:mult added by _Andrew Howroyd_, Aug 07 2018"
			],
			"references": 5,
			"revision": 22,
			"time": "2018-08-08T04:31:49-04:00",
			"created": "2014-07-01T23:27:52-04:00"
		}
	]
}