{
	"greeting": "Greetings from The On-Line Encyclopedia of Integer Sequences! http://oeis.org/",
	"query": "id:A239773",
	"count": 1,
	"start": 0,
	"results": [
		{
			"number": 239773,
			"data": "1,1,10,231,9880,644845,58790736,7077540295",
			"name": "Number of pairs of functions f, g from a size n set into itself satisfying f(g(f(x))) = f(f(f(x))).",
			"maple": [
				"s:= proc(n, i) option remember; `if`(i=0, [[]],",
				"       map(x-\u003e seq([j, x[]], j=1..n), s(n, i-1)))",
				"    end:",
				"a:= proc(n) (l-\u003e add(add(`if`([true$n]=[seq(evalb(",
				"       f[g[f[i]]]=f[f[f[i]]]), i=1..n)], 1, 0), g=l), f=l))(s(n$2))",
				"    end:",
				"seq(a(n), n=0..5); # _Alois P. Heinz_, Jul 16 2014"
			],
			"xref": [
				"Cf. A181162."
			],
			"keyword": "nonn,more",
			"offset": "0,3",
			"author": "_Chad Brewbaker_, Mar 26 2014",
			"ext": [
				"a(6)-a(7) from _Giovanni Resta_, Mar 28 2014"
			],
			"references": 13,
			"revision": 14,
			"time": "2014-07-16T19:06:40-04:00",
			"created": "2014-07-16T15:35:54-04:00"
		}
	]
}