{
	"greeting": "Greetings from The On-Line Encyclopedia of Integer Sequences! http://oeis.org/",
	"query": "id:A239714",
	"count": 1,
	"start": 0,
	"results": [
		{
			"number": 239714,
			"data": "19,67,79,271,1039,1087,1279,4099,4111,4159,5119,16447,20479,65539,65551,65599,81919,262147,262399,263167,266239,1049599,1114111,1310719,4194319,4194559,4195327,16842751,17825791,67108879,268435459,268435711,272629759,1073741827,1073741839,1073758207",
			"name": "Primes of the form m = 4^i + 4^j - 1, where i \u003e j \u003e= 0.",
			"comment": [
				"The base-4 representation of a term 4^i + 4^j - 1 has base-4 digital sum = 1 + 3*j == 1 (mod 3).",
				"In base-4 representation the first terms are 103, 1003, 1033, 10033, 100033, 100333, 103333, 1000003, 1000033, 1000333, 1033333, 10000333, 10333333, 100000003, 100000033, 100000333, 103333333, 1000000003, 1000003333, 1000033333, ...",
				"Numbers m which satisfy m = 4^i + 4^j + 1 are never primes, since the base-4 digital sum of m is 3, and thus, m is divisible by 3."
			],
			"link": [
				"Hieronymus Fischer, \u003ca href=\"/A239714/b239714.txt\"\u003eTable of n, a(n) for n = 1..111\u003c/a\u003e"
			],
			"example": [
				"a(1) = 19, since 19 = 4^2 + 4^1 - 1 is prime.",
				"a(4) = 271, since 271 = 4^4 + 4^2 - 1 is prime."
			],
			"program": [
				"(Smalltalk)",
				"A239714",
				"  \"Answer an array of the first n terms of A239714.",
				"  Uses method primesWhichAreDistinctPowersOf: b withOffset: d from A239712.",
				"  Usage: n A239714",
				"  Answer: #(19 67 79 ... ) [a(1) ... a(n)]\"",
				"  ^self primesWhichAreDistinctPowersOf: 4 withOffset: -1"
			],
			"xref": [
				"Cf. A234310."
			],
			"keyword": "nonn",
			"offset": "1,1",
			"author": "_Hieronymus Fischer_, Apr 14 2014",
			"references": 1,
			"revision": 13,
			"time": "2014-04-29T23:12:34-04:00",
			"created": "2014-04-29T22:57:46-04:00"
		}
	]
}