{
	"greeting": "Greetings from The On-Line Encyclopedia of Integer Sequences! http://oeis.org/",
	"query": "id:A239735",
	"count": 1,
	"start": 0,
	"results": [
		{
			"number": 239735,
			"data": "4,3,4,1,570,1,1464,54,60,14025,1932,1,7194,15,3612,0,4746,1,540,150,7060,138,80094,6160,33480,93135,0,366618,26058,1,90510,16836,9824,418875,57246,0,182394,64077,14178,943410,36078,1,314520,15870,194942,15044700,241944,3871,308730",
			"name": "Least number k such that n*k^n +/- 1 are twin primes, or a(n) = 0 if no such number exists.",
			"comment": [
				"a(n) = 1 iff n is in A014574.",
				"If a(n) = 0, then n is in A097764."
			],
			"example": [
				"1*1^1+1 (2) and 1*1^1-1 (0) are not both prime. 1*2^1+1 (3) and 1*2^1-1 (1) are not both prime. 1*3^1+1 (4) and 1*3^1-1 (2) are not both prime. 1*4^1+1 (5) and 1*4^1-1 (3) are both prime. So, a(1) = 4."
			],
			"program": [
				"(PARI) bot(n) = for(k=1, 10^5, if(ispseudoprime(n*k^n-1), if(ispseudoprime(n*k^n+1), return(k))));",
				"n=1; while(n\u003c100, print(bot(n)); n+=1)"
			],
			"xref": [
				"Cf. A097764, A014574, A239938, A239666."
			],
			"keyword": "nonn",
			"offset": "1,1",
			"author": "_Derek Orr_, Mar 30 2014",
			"ext": [
				"a(46) from _Giovanni Resta_, Mar 31 2014"
			],
			"references": 0,
			"revision": 81,
			"time": "2014-06-28T08:34:05-04:00",
			"created": "2014-04-01T17:00:20-04:00"
		}
	]
}