{
	"greeting": "Greetings from The On-Line Encyclopedia of Integer Sequences! http://oeis.org/",
	"query": "id:A239981",
	"count": 1,
	"start": 0,
	"results": [
		{
			"number": 239981,
			"data": "1,4,13,56,261,935,4113,16724,63746,275188,1085962,4300307,18095718,71121297,287888587,1186770242,4693927215,19155022357,77909148678,310802944863,1269055778212,5125935099711,20593563815344,83875501530044",
			"name": "Number of nX3 0..3 arrays with no element equal to zero plus the sum of elements to its left or two plus the sum of elements above it or one plus the sum of the elements diagonally to its northwest, modulo 4",
			"comment": [
				"Column 3 of A239986"
			],
			"link": [
				"R. H. Hardin, \u003ca href=\"/A239981/b239981.txt\"\u003eTable of n, a(n) for n = 1..210\u003c/a\u003e"
			],
			"example": [
				"Some solutions for n=4",
				"..3..0..0....3..0..0....3..0..0....3..0..0....3..0..0....3..0..0....3..0..0",
				"..3..1..3....3..1..3....3..1..3....2..3..0....3..1..3....2..1..0....2..3..0",
				"..2..1..2....3..1..3....2..1..0....2..0..0....3..2..3....2..0..0....2..0..1",
				"..3..2..0....2..1..2....3..2..3....3..2..0....2..3..3....2..1..1....3..0..1"
			],
			"keyword": "nonn",
			"offset": "1,2",
			"author": "_R. H. Hardin_, Mar 30 2014",
			"references": 1,
			"revision": 4,
			"time": "2014-03-30T06:59:27-04:00",
			"created": "2014-03-30T06:59:27-04:00"
		}
	]
}