{
	"greeting": "Greetings from The On-Line Encyclopedia of Integer Sequences! http://oeis.org/",
	"query": "id:A239668",
	"count": 1,
	"start": 0,
	"results": [
		{
			"number": 239668,
			"data": "0,4,9,28,25,85,49,124,117,209,121,397,169,389,394,508,289,841,361,953,730,917,529,1645,775,1265,1089,1757,841,2810,961,2044,1714,2129,1754,3745,1369,2645,2362,3929,1681,5174,1849,4109,3742,3845,2209,6637,2793,5459,3970",
			"name": "Sum of the composite divisors of n^2.",
			"link": [
				"Harvey P. Dale, \u003ca href=\"/A239668/b239668.txt\"\u003eTable of n, a(n) for n = 1..1000\u003c/a\u003e"
			],
			"formula": [
				"a(n) = sigma(n^2) - sopf(n^2) - 1.",
				"a(n) = A000203(n^2) - A008472(n^2) - 1. - _Wesley Ivan Hurt_, Mar 30 2014",
				"a(n) = A023891(n^2). - _Michel Marcus_, Mar 31 2014",
				"a(n) = n^2 if n is prime. - _Zak Seidov_, Mar 31 2014"
			],
			"example": [
				"For n=2, the sum of the composite factors of n^2 is equal to 4."
			],
			"maple": [
				"A008472 := n -\u003e add(d, d = select(isprime, numtheory[divisors](n))):",
				"f:=n-\u003enumtheory[sigma](n^2)-A008472(n)-1; [seq(f(n),n=1..100)]; # _N. J. A. Sloane_, Mar 31 2014"
			],
			"mathematica": [
				"a[n_] := DivisorSum[n^2, If[# == 1 || PrimeQ[#], 0, #]\u0026 ]; Array[a, 60] (* _Jean-François Alcover_, Dec 18 2015 *)",
				"Table[Total[Select[Divisors[n^2],CompositeQ]],{n,60}] (* Requires Mathematica version 10 or later *) (* _Harvey P. Dale_, Jul 06 2017 *)"
			],
			"program": [
				"(PARI) a(n) = sumdiv(n^2, d, d*(!isprime(d) \u0026\u0026 (d != 1))); \\\\ _Michel Marcus_, Mar 31 2014"
			],
			"xref": [
				"Cf. A000040, A000720, A023891."
			],
			"keyword": "nonn",
			"offset": "1,2",
			"author": "_Janet Lee_, Mar 23 2014",
			"ext": [
				"Formula corrected by _Wesley Ivan Hurt_, Mar 30 2014",
				"More terms from _N. J. A. Sloane_, Mar 31 2014"
			],
			"references": 1,
			"revision": 35,
			"time": "2017-07-06T17:41:36-04:00",
			"created": "2014-03-31T04:38:26-04:00"
		}
	]
}