{
	"greeting": "Greetings from The On-Line Encyclopedia of Integer Sequences! http://oeis.org/",
	"query": "id:A239243",
	"count": 1,
	"start": 0,
	"results": [
		{
			"number": 239243,
			"data": "1,1,0,2,1,3,2,4,4,6,7,8,11,11,17,16,25,22,36,31,49,44,68,61,90,85,120,118,156,160,204,217,261,291,337,386,429,507,548,662,694,854,882,1096,1112,1396,1406,1765,1768,2219,2223,2776,2784,3451,3484,4275",
			"name": "Number of partitions of n into distinct parts for which (number of odd parts) \u003e= (number of even parts).",
			"comment": [
				"a(n) = Sum_{k\u003e=0} A240021(n,k). - _Alois P. Heinz_, Apr 02 2014"
			],
			"link": [
				"Alois P. Heinz, \u003ca href=\"/A239243/b239243.txt\"\u003eTable of n, a(n) for n = 0..1000\u003c/a\u003e"
			],
			"formula": [
				"a(n) + A239239(n) = A000009(n) for n \u003e=1."
			],
			"example": [
				"a(8) = 4 counts these partitions:  71, 53, 521, 431."
			],
			"maple": [
				"b:= proc(n, i, t) option remember; `if`(n\u003ei*(i+1)/2, 0,",
				"     `if`(n=0, `if`(t\u003e=0, 1, 0 ), b(n, i-1, t)+`if`(i\u003en, 0,",
				"      b(n-i, i-1, t+`if`(irem(i, 2)=1, 1, -1)))))",
				"    end:",
				"a:= n-\u003e b(n$2, 0):",
				"seq(a(n), n=0..60);  # _Alois P. Heinz_, Mar 15 2014"
			],
			"mathematica": [
				"z = 55; p[n_] := p[n] = IntegerPartitions[n]; d[u_] := d[u] = DeleteDuplicates[u]; g[u_] := g[u] = Length[u];",
				"Table[g[Select[Select[p[n], d[#] == # \u0026], Count[#, _?OddQ] \u003c Count[#, _?EvenQ] \u0026]], {n, 0, z}] (* A239239 *)",
				"Table[g[Select[Select[p[n], d[#] == # \u0026], Count[#, _?OddQ] \u003c= Count[#, _?EvenQ] \u0026]], {n, 0, z}] (* A239240 *)",
				"Table[g[Select[Select[p[n], d[#] == # \u0026], Count[#, _?OddQ] == Count[#, _?EvenQ] \u0026]], {n, 0, z}] (* A239241 *)",
				"Table[g[Select[Select[p[n], d[#] == # \u0026], Count[#, _?OddQ] \u003e Count[#, _?EvenQ] \u0026]], {n, 0, z}] (* A239242 *)",
				"Table[g[Select[Select[p[n], d[#] == # \u0026], Count[#, _?OddQ] \u003e= Count[#, _?EvenQ] \u0026]], {n, 0, z}] (* A239243 *)",
				"(* _Peter J. C. Moses_, Mar 10 2014 *)",
				"b[n_, i_, t_] := b[n, i, t] = If[n\u003ei*(i+1)/2, 0, If[n==0, If[t\u003e=0, 1, 0], b[n, i-1, t]+If[i\u003en, 0, b[n-i, i-1, t+If[Mod[i, 2]==1, 1, -1]]]]]; a[n_] := b[n, n, 0]; Table[a[n], {n, 0, 60}] (* _Jean-François Alcover_, Aug 30 2016, after _Alois P. Heinz_ *)"
			],
			"xref": [
				"Cf. A239239, A239240, A239241, A239242, A000009."
			],
			"keyword": "nonn,easy",
			"offset": "0,4",
			"author": "_Clark Kimberling_, Mar 13 2014",
			"references": 6,
			"revision": 14,
			"time": "2016-08-30T03:53:07-04:00",
			"created": "2014-03-15T14:15:20-04:00"
		}
	]
}