{
	"greeting": "Greetings from The On-Line Encyclopedia of Integer Sequences! http://oeis.org/",
	"query": "id:A240975",
	"count": 1,
	"start": 0,
	"results": [
		{
			"number": 240975,
			"data": "0,1,2,2,2,2,3,2,3,2,4,2,3,2,3,4,2,2,3,2,3,3,4,2,4,3,3,2,4,3,4,3,2,3,4,4,4,2,4,3,3,3,4,3,4,4,4,3,4,2,4,3,4,2,4,4,3,4,3,3,5,2,4,4,3,3,5,3,3,3,4,3,3,4,3,3,3,3,5,2",
			"name": "The number of distinct prime factors of n^3-1.",
			"link": [
				"Jens Kruse Andersen, \u003ca href=\"/A240975/b240975.txt\"\u003eTable of n, a(n) for n = 1..10000\u003c/a\u003e"
			],
			"formula": [
				"a(prime(n)) =  A245909(n).",
				"a(n) = A001221(A068601(n)). - _Michel Marcus_, Aug 06 2014"
			],
			"example": [
				"3^3-1 = 26 = 2*13, so a(3)=2.",
				"0 has no prime factors, so a(1)=0."
			],
			"maple": [
				"A240975 := proc(n)",
				"    A001221(n^3-1) ;",
				"end proc:"
			],
			"program": [
				"(Python)",
				"from sympy import primefactors",
				"def A240975(n):",
				"....return len(primefactors(n**3-1)) # _Chai Wah Wu_, Aug 06 2014",
				"(PARI) a(n) = if(n\u003c=1,0,omega(n^3-1)); \\\\ _Joerg Arndt_, Aug 06 2014"
			],
			"xref": [
				"Cf. A082863, A245909, A001221."
			],
			"keyword": "nonn,easy",
			"offset": "1,3",
			"author": "_R. J. Mathar_, Aug 05 2014",
			"references": 1,
			"revision": 27,
			"time": "2014-08-11T23:16:39-04:00",
			"created": "2014-08-05T18:07:07-04:00"
		}
	]
}