{
	"greeting": "Greetings from The On-Line Encyclopedia of Integer Sequences! http://oeis.org/",
	"query": "id:A240965",
	"count": 1,
	"start": 0,
	"results": [
		{
			"number": 240965,
			"data": "2,3,6,3,4,0,9,0,0,1,6,1,5,4,2,3,1,5,3,6,6,3,2,6,7,4,5,6,6,8,6,5,1,6,4,1,7,4,8,4,1,3,9,5,1,5,8,8,6,1,3,9,3,2,8,8,5,2,9,0,5,2,6,8,0,3,8,1,9,4,8,7,8,2,6,2,0,5,9,5,9,1,2,0,8,1,5,2,0,7,9,6,6,3,0,5,8,8,1,1,6,7,5,5,5",
			"name": "Decimal expansion of integral_(0..1) K(1-x^2)^3 dx, where K is the complete elliptic integral of the first kind.",
			"link": [
				"M. Rogers, J. G. Wan, and I. J. Zucker, \u003ca href=\"http://arxiv.org/abs/1303.2259\"\u003eMoments of elliptic entegrals and critical L-values\u003c/a\u003e.",
				"Eric Weisstein's MathWorld, \u003ca href=\"http://mathworld.wolfram.com/CompleteEllipticIntegraloftheFirstKind.html\"\u003eComplete Elliptic Integral of the First Kind\u003c/a\u003e."
			],
			"formula": [
				"Gamma(1/4)^8/(128*Pi^2)."
			],
			"example": [
				"23.634090016154231536632674566865164174841395158861393288529..."
			],
			"mathematica": [
				"(* NIntegrate[EllipticK[1 - x^2]^3, {x, 0, 1}] *)",
				"RealDigits[Gamma[1/4]^8/(128*Pi^2), 10, 105] // First"
			],
			"xref": [
				"Cf. A068466."
			],
			"keyword": "nonn,cons,easy",
			"offset": "2,1",
			"author": "_Jean-François Alcover_, Aug 05 2014",
			"references": 0,
			"revision": 8,
			"time": "2014-08-05T08:18:13-04:00",
			"created": "2014-08-05T08:18:13-04:00"
		}
	]
}