{
	"greeting": "Greetings from The On-Line Encyclopedia of Integer Sequences! http://oeis.org/",
	"query": "id:A240362",
	"count": 1,
	"start": 0,
	"results": [
		{
			"number": 240362,
			"data": "32,672,10997,165110,2150725,25831820,285724643,2936736845,28324834725,259519577363,2261799767638,18868612860543,151281530916455,1170734322614283,8769954878145582,63745866542977785,450485264170120406",
			"name": "Number of nX5 0..3 arrays with no element equal to one plus the sum of elements to its left or two plus the sum of elements above it or two plus the sum of the elements diagonally to its northwest, modulo 4",
			"comment": [
				"Column 5 of A240364"
			],
			"link": [
				"R. H. Hardin, \u003ca href=\"/A240362/b240362.txt\"\u003eTable of n, a(n) for n = 1..210\u003c/a\u003e"
			],
			"example": [
				"Some solutions for n=4",
				"..0..0..0..3..3....0..3..3..1..1....0..3..3..0..0....0..3..3..0..0",
				"..0..3..1..0..2....3..3..0..2..0....3..3..2..0..3....0..3..2..0..0",
				"..3..3..2..0..0....0..3..2..3..0....0..2..0..0..2....3..1..2..1..3",
				"..0..3..3..0..1....3..1..2..2..2....0..3..1..0..0....3..2..0..0..3"
			],
			"keyword": "nonn",
			"offset": "1,1",
			"author": "_R. H. Hardin_, Apr 04 2014",
			"references": 1,
			"revision": 4,
			"time": "2014-04-04T10:15:29-04:00",
			"created": "2014-04-04T10:15:29-04:00"
		}
	]
}