{
	"greeting": "Greetings from The On-Line Encyclopedia of Integer Sequences! http://oeis.org/",
	"query": "id:A240545",
	"count": 1,
	"start": 0,
	"results": [
		{
			"number": 240545,
			"data": "2,1,1,2,1,2,1,8,3,2,1,2,1,9,3,2,1,2,1,8,3,2,1,9,4,8,3,2,1,2,1,8,4,11,3,2,1,8,3,2,1,2,1,9,3,2,1,10,4,8,3,2,1,9,4,10,3,2,1,2,1,8,4,15,3,2,1,8,3,2,1,2,1,9,4,8,3,2,1,8,3,2",
			"name": "Least k \u003e 0 such that n + p(k) is prime, where p(k) is the number of partitions of k.",
			"comment": [
				"Conjecture of Zhi-Wei Sun: a(n) \u003c n for n \u003e 7.",
				"Verified up to 6*10^8. - _Sean A. Irvine_, Apr 07 2014"
			],
			"link": [
				"Sean A. Irvine, \u003ca href=\"/A240545/b240545.txt\"\u003eTable of n, a(n) for n = 0..9999\u003c/a\u003e",
				"Zhi-Wei Sun, \u003ca href=\"http://arxiv.org/abs/1402.6641\"\u003eProblems on combinatorial properties of primes\u003c/a\u003e, arXiv:1402.6641, 2014. See Conjecture 4.1(ii)."
			],
			"example": [
				"a(7)=8 because k=8 is the smallest k such that 7+A000041(k) is prime."
			],
			"mathematica": [
				"a[n_] := For[k = 1, True, k++, If[PrimeQ[n + PartitionsP[k]], Return[k]]];",
				"Table[a[n], {n, 0, 100}] (* _Jean-François Alcover_, Dec 15 2018 *)"
			],
			"xref": [
				"Cf. A000040, A000041, A238457, A239675."
			],
			"keyword": "nonn",
			"offset": "0,1",
			"author": "_Sean A. Irvine_, Apr 07 2014",
			"references": 2,
			"revision": 11,
			"time": "2018-12-15T08:34:37-05:00",
			"created": "2014-04-14T11:15:42-04:00"
		}
	]
}