{
	"greeting": "Greetings from The On-Line Encyclopedia of Integer Sequences! http://oeis.org/",
	"query": "id:A240546",
	"count": 1,
	"start": 0,
	"results": [
		{
			"number": 240546,
			"data": "1,1,3,4,10,1,9,5,16,9,26,10,33,1,2,49,33,3,35,48,3,32,62,64,4,20,8,62,93,83,64,41,68,79,138,125,88,56,4,169,72,36,40,144,73,140,63,120,24,218,67,48,58,194,126,54,74,223,74,59,176,161,280,208,215,236,82,141,139,344,7",
			"name": "a(n) = prime(n+1)^n mod prime(n).",
			"comment": [
				"(prime(k+1)^k mod prime(k)) = k: 1, 3, 4, 76, 7743, ... ."
			],
			"link": [
				"Alois P. Heinz, \u003ca href=\"/A240546/b240546.txt\"\u003eTable of n, a(n) for n = 1..10000\u003c/a\u003e"
			],
			"example": [
				"a(5) = prime(5+1)^5 mod prime(5) = 13^5 mod 11 = 10."
			],
			"maple": [
				"a:= n-\u003e ithprime(n+1) \u0026^n mod ithprime(n):",
				"seq(a(n), n=1..100);  # _Alois P. Heinz_, Apr 30 2014"
			],
			"mathematica": [
				"Table[Mod[Prime[n + 1]^n, Prime[n]], {n, 80}] (* _Alonso del Arte_, Apr 11 2014 *)",
				"Table[PowerMod[Prime[n+1],n,Prime[n]],{n,80}] (* _Harvey P. Dale_, Jun 11 2019 *)"
			],
			"program": [
				"(MAGMA) [(NthPrime(n+1)^n mod NthPrime(n)): n in [1..100]]; // _Juri-Stepan Gerasimov_, Apr 07 2014",
				"(PARI) a(n)=my(p=prime(n)); lift(Mod(nextprime(p+1),p)^n) \\\\ _Charles R Greathouse IV_, Apr 08 2014"
			],
			"xref": [
				"Cf. A038702."
			],
			"keyword": "nonn,less",
			"offset": "1,3",
			"author": "_Irina Gerasimova_, Apr 07 2014",
			"references": 2,
			"revision": 26,
			"time": "2021-01-14T11:33:43-05:00",
			"created": "2014-04-30T10:51:33-04:00"
		}
	]
}