{
	"greeting": "Greetings from The On-Line Encyclopedia of Integer Sequences! http://oeis.org/",
	"query": "id:A240880",
	"count": 1,
	"start": 0,
	"results": [
		{
			"number": 240880,
			"data": "1,1,-6,33,-162,666,-1836,-2079,79542,-741474,4907628,-24837030,82449900,53319060,-3741922008,38613958497,-274566158298,1475669401398,-5211777090564,-2356585871778,240686500011588,-2593621485808596,19047621883804056,-105353643788834598",
			"name": "Expansion of g.f.: (-1 + sqrt(1+12*x+48*x^2)) / (6*x).",
			"comment": [
				"This sequence is the member (q=-3) of a class of generalized Catalan numbers (see A000108), with g.f. (1-sqrt(1-q*4*x*(1-(q-1)*x)))/(2*q*x), q\u003c\u003e0."
			],
			"link": [
				"Fung Lam, \u003ca href=\"/A240880/b240880.txt\"\u003eTable of n, a(n) for n = 0..1000\u003c/a\u003e"
			],
			"formula": [
				"G.f.: (-1 + sqrt(1+12*x+48*x^2)) / (6*x).",
				"D-finite with recurrence: (n+3)*a(n+2)+6*(2*n+3)*a(n+1)+48*n*a(n)=0, a(0)=1, a(1)=1.",
				"Lim sup n-\u003einfinity |a(n)|^(1/n) = 4*sqrt(3) = 6.9282... - _Vaclav Kotesovec_, May 02 2014",
				"a(n) ~ 3^(n/2-1)*4^n / (n^(3/2)*sqrt(Pi)) * (sqrt(3)*cos(5*Pi*n/6) + 3*sin(5*Pi*n/6) - (15*sqrt(3)*cos(5*Pi*n/6) + 9*sin(5*Pi*n/6))/(8*n)). - _Vaclav Kotesovec_, May 02 2014"
			],
			"xref": [
				"Cf. A000108, A258723."
			],
			"keyword": "sign,easy",
			"offset": "0,3",
			"author": "_Fung Lam_, May 01 2014",
			"references": 3,
			"revision": 24,
			"time": "2020-01-30T21:29:17-05:00",
			"created": "2014-05-05T10:18:02-04:00"
		}
	]
}