{
	"greeting": "Greetings from The On-Line Encyclopedia of Integer Sequences! http://oeis.org/",
	"query": "id:A240755",
	"count": 1,
	"start": 0,
	"results": [
		{
			"number": 240755,
			"data": "2,3,2,2,3,3,2,2,3,2,2,5,3,3,2,2,3,2,2,5,3,2,2,5,2,2,3,3,7,3,2,2,5,2,2,3,5,2,2,3,2,2,5,3,3,2,2,3,2,2,5,5,2,2,3,2,2,3,3,7,3,3,2,2,5,2,2,3,5,2,2,3,2,2,3,3,5,2,2,3,2,2,5,3,2,2,5",
			"name": "Smallest prime which occurs in prime power factorization of A240751(n)! with exponent n.",
			"link": [
				"Peter J. C. Moses, \u003ca href=\"/A240755/b240755.txt\"\u003eTable of n, a(n) for n = 1..1000\u003c/a\u003e"
			],
			"formula": [
				"a(n)^n || A240751(n)!."
			],
			"example": [
				"A240751(4)=6, since 6!=2^4*3^2*5. Here, only the prime 2 is in power 4, thus A240755(4)=2."
			],
			"xref": [
				"Cf. A240537, A240606, A240619, A240620, A240668, A240669, A240670, A240672, A240695, A240751."
			],
			"keyword": "nonn",
			"offset": "1,1",
			"author": "_Vladimir Shevelev_, Apr 12 2014",
			"ext": [
				"More terms from _Peter J. C. Moses_, Apr 12 2014"
			],
			"references": 11,
			"revision": 15,
			"time": "2014-04-14T11:17:41-04:00",
			"created": "2014-04-14T11:17:41-04:00"
		}
	]
}