{
	"greeting": "Greetings from The On-Line Encyclopedia of Integer Sequences! http://oeis.org/",
	"query": "id:A240597",
	"count": 1,
	"start": 0,
	"results": [
		{
			"number": 240597,
			"data": "1,15,24,42,60,64,69,78,90,100,114,123,133,147,153,177,186,198,222,231,240,258,259,270,276,288,289,306,339,360,366,393,402,403,414,429,438,447,459,474,477,492,495,501,507,511,522,582,588,594,600",
			"name": "Numbers k such that sigma(k) == k (mod 9).",
			"comment": [
				"That is, numbers k that satisfy the following:",
				"A010878(k) = A105852(k) or A010878(k) = A010878(A000203(k)).",
				"A010888(k) = A190998(k) or A010888(k) = A010888(A000203(k))."
			],
			"link": [
				"Ivan N. Ianakiev, \u003ca href=\"/A240597/b240597.txt\"\u003eTable of n, a(n) for n = 1..10000\u003c/a\u003e"
			],
			"formula": [
				"A010888(a(n)) = A010888(A000203(a(n))).",
				"A010888(a(n)) = A190998(a(n))."
			],
			"example": [
				"sigma(15) = 24. 24 == 15 (mod 9), therefore 15 is in the sequence."
			],
			"mathematica": [
				"Select[Range[1000],Mod[#,9]==Mod[DivisorSigma[1,#],9]\u0026]"
			],
			"xref": [
				"Cf. A000203, A190998, A010878, A105852, A010888."
			],
			"keyword": "easy,nonn",
			"offset": "1,2",
			"author": "_Ivan N. Ianakiev_, Sep 13 2014",
			"references": 1,
			"revision": 36,
			"time": "2021-02-09T01:57:08-05:00",
			"created": "2014-09-17T21:10:20-04:00"
		}
	]
}