{
	"greeting": "Greetings from The On-Line Encyclopedia of Integer Sequences! http://oeis.org/",
	"query": "id:A241899",
	"count": 1,
	"start": 0,
	"results": [
		{
			"number": 241899,
			"data": "11,22,33,44,55,66,77,88,99,132,264,396",
			"name": "Numbers n equal to the sum of all the two-digit numbers formed without repetition from the digits of n.",
			"comment": [
				"The sequence is complete because the maximum number of partitions of an m-digit number n into sets of 2-digit numbers is 2*binomial(m,2) = m*(m-1). (See the Oblong numbers A002378.) The maximum value of the sum of all the two-digit numbers is M = 99*m*(m-1) where m = floor(log_10(n) + 1). But M \u003c n for n \u003e 1188 because the solution of the equation 99*m*(m-1) = n with m = floor(log_10(n) + 1) is n = 1188."
			],
			"example": [
				"132 is in the sequence because 132 = 12 + 13 + 21 + 23 + 31 + 32."
			],
			"maple": [
				"with(numtheory):",
				"for n from 10 to 10000 do:",
				"     lst:={}:k:=0:x:=convert(n,base,10):n1:=nops(x):",
				"        for i from 1 to n1 do:",
				"          for j from i+1 to n1 do:",
				"          lst:=lst union {x[i]+10*x[j]}:",
				"          od:",
				"        od:",
				"           for a from n1 by -1 to 1 do:",
				"             for b from a-1 by -1 to 1 do:",
				"             lst:=lst union",
				"             {x[a]+10*x[b]}:",
				"             od:",
				"           od:",
				"           n2:=nops(lst):s:=sum('lst[i]', 'i'=1..n2):",
				"           if s=n",
				"             then",
				"             printf(`%d, `,n):",
				"             else",
				"           fi:",
				"  od:"
			],
			"mathematica": [
				"Select[Range[10,400],Total[FromDigits/@Permutations[IntegerDigits[#],{2}]]==#\u0026] (* _Ivan N. Ianakiev_, Oct 24 2014 *)"
			],
			"xref": [
				"Cf. A002378."
			],
			"keyword": "nonn,base,fini,full",
			"offset": "10,1",
			"author": "_Michel Lagneau_, May 01 2014",
			"references": 2,
			"revision": 20,
			"time": "2017-11-16T15:52:25-05:00",
			"created": "2014-05-02T18:02:04-04:00"
		}
	]
}