{
	"greeting": "Greetings from The On-Line Encyclopedia of Integer Sequences! http://oeis.org/",
	"query": "id:A241469",
	"count": 1,
	"start": 0,
	"results": [
		{
			"number": 241469,
			"data": "0,0,0,0,0,0,3,8,51,336",
			"name": "Number of simple connected graphs g on n nodes with |Aut(g)| = 240.",
			"link": [
				"Travis Hoppe and Anna Petrone, \u003ca href=\"https://github.com/thoppe/Encyclopedia-of-Finite-Graphs\"\u003eEncyclopedia of Finite Graphs\u003c/a\u003e",
				"T. Hoppe and A. Petrone, \u003ca href=\"http://arxiv.org/abs/1408.3644\"\u003eInteger sequence discovery from small graphs\u003c/a\u003e, arXiv preprint arXiv:1408.3644, 2014",
				"Eric Weisstein's World of Mathematics, \u003ca href=\"http://mathworld.wolfram.com/GraphAutomorphism.html\"\u003eGraph Automorphism\u003c/a\u003e"
			],
			"xref": [
				"Cf. Values of |Aut(g)| for simple connected graphs, A124059, A241454, A241455, A241456, A241457, A241458, A241459, A241460, A241461, A241462, A241463, A241464, A241465, A241466, A241467, A241468, A241469, A241470, A241471."
			],
			"keyword": "nonn",
			"offset": "1,7",
			"author": "_Travis Hoppe_ and _Anna Petrone_, Apr 25 2014",
			"references": 19,
			"revision": 13,
			"time": "2014-09-14T23:02:30-04:00",
			"created": "2014-04-25T21:19:13-04:00"
		}
	]
}