{
	"greeting": "Greetings from The On-Line Encyclopedia of Integer Sequences! http://oeis.org/",
	"query": "id:A241195",
	"count": 1,
	"start": 0,
	"results": [
		{
			"number": 241195,
			"data": "1,2,2,3,5,3,2,3,11,7,15,3,5,7,23,13,29,15,33,35,3,13,41,11,3,5,51,53,3,7,7,65,17,69,37,15,13,3,83,43,89,15,95,3,7,33,35,37,113,19,29,119,15,5,2,131,67,15,69,35,141,73,51,31,13,79,33,7,173,87,11",
			"name": "Denominator of phi(prime(n)-1)/(prime(n)-1), where phi is Euler's totient function and prime(n) is the n-th prime.",
			"comment": [
				"The numerators are in A241194."
			],
			"link": [
				"T. D. Noe, \u003ca href=\"/A241195/b241195.txt\"\u003eTable of n, a(n) for n = 1..10000\u003c/a\u003e"
			],
			"maple": [
				"with(numtheory): A241195:=n-\u003edenom(phi(ithprime(n)-1) / (ithprime(n)-1)): seq(A241195(n), n=1..100); # _Wesley Ivan Hurt_, Apr 06 2015"
			],
			"mathematica": [
				"Denominator[Table[EulerPhi[p - 1]/(p - 1), {p, Prime[Range[100]]}]]"
			],
			"program": [
				"(PARI) lista(nn) = forprime(p=2, nn, print1(denominator(eulerphi(p-1)/(p-1)), \", \")); \\\\ _Michel Marcus_, Jan 03 2015",
				"(MAGMA) [Denominator(EulerPhi(NthPrime(n)-1)/(NthPrime(n)-1)): n in [1..80]]; // _Vincenzo Librandi_, Apr 06 2015"
			],
			"xref": [
				"Cf. A000010 (phi), A241194 (numerators)."
			],
			"keyword": "nonn,frac",
			"offset": "1,2",
			"author": "_T. D. Noe_, Apr 17 2014",
			"references": 7,
			"revision": 17,
			"time": "2015-04-07T03:56:04-04:00",
			"created": "2014-04-17T17:55:38-04:00"
		}
	]
}