{
	"greeting": "Greetings from The On-Line Encyclopedia of Integer Sequences! http://oeis.org/",
	"query": "id:A241822",
	"count": 1,
	"start": 0,
	"results": [
		{
			"number": 241822,
			"data": "0,0,0,0,0,1,2,4,5,10,12,19,27,37,51,70,90,119,161,200,259,335,428,533,681,845,1065,1317,1636,2010,2496,3036,3719,4538,5523,6686,8096,9760,11759,14138,16943,20263,24216,28852,34308,40801,48315,57206,67590,79748",
			"name": "Number of partitions p = [x(1), ..., x(k)], where x(1) \u003e= x(2) \u003e=  ... \u003e= x(k), of n such that max(x(i) - x(i-1)) \u003e number of distinct parts of p.",
			"formula": [
				"a(n) = A241821(n) - A241820(n) for n \u003e= 0.",
				"a(n) + A241818(n) + A241820(n) = A000041(n) for n \u003e= 0."
			],
			"example": [
				"a(6) counts these 2 partitions:  51, 411."
			],
			"mathematica": [
				"z = 30; f[n_] := f[n] = IntegerPartitions[n]; d[p_] := d[p] = Length[DeleteDuplicates[p]]; g[p_] := Max[-Differences[p]];",
				"Table[Count[f[n], p_ /; g[p] \u003c d[p]], {n, 0, z}]  (* A241818 *)",
				"Table[Count[f[n], p_ /; g[p] \u003c= d[p]], {n, 0, z}] (* A241819 *)",
				"Table[Count[f[n], p_ /; g[p] == d[p]], {n, 0, z}] (* A241820 *)",
				"Table[Count[f[n], p_ /; g[p] \u003e= d[p]], {n, 0, z}] (* A241821 *)",
				"Table[Count[f[n], p_ /; g[p] \u003e d[p]], {n, 0, z}]  (* A241822 *)"
			],
			"xref": [
				"Cf. A241818, A241819, A241820, A241821, A000041."
			],
			"keyword": "nonn,easy",
			"offset": "0,7",
			"author": "_Clark Kimberling_, Apr 30 2014",
			"references": 5,
			"revision": 4,
			"time": "2014-05-06T15:06:44-04:00",
			"created": "2014-05-06T15:06:44-04:00"
		}
	]
}