{
	"greeting": "Greetings from The On-Line Encyclopedia of Integer Sequences! http://oeis.org/",
	"query": "id:A241363",
	"count": 1,
	"start": 0,
	"results": [
		{
			"number": 241363,
			"data": "1,7,460,169982,332185927,3437694358689,188148208461270141,54467029568686929640819",
			"name": "Number of n X n 0..2 arrays with no element equal to fewer vertical neighbors than horizontal neighbors, with new values 0..2 introduced in row major order",
			"comment": [
				"Diagonal of A241370"
			],
			"example": [
				"Some solutions for n=4",
				"..0..1..0..2....0..1..1..0....0..1..0..1....0..1..0..1....0..1..0..1",
				"..0..2..0..2....0..1..1..2....2..1..0..2....1..0..1..0....0..1..2..0",
				"..2..1..0..1....0..0..2..0....1..1..0..2....0..2..0..1....0..2..1..2",
				"..1..0..2..0....0..0..2..0....1..0..2..0....0..1..0..1....1..2..0..2"
			],
			"keyword": "nonn",
			"offset": "1,2",
			"author": "_R. H. Hardin_, Apr 20 2014",
			"references": 0,
			"revision": 5,
			"time": "2015-12-18T18:18:52-05:00",
			"created": "2014-04-20T11:58:03-04:00"
		}
	]
}