{
	"greeting": "Greetings from The On-Line Encyclopedia of Integer Sequences! http://oeis.org/",
	"query": "id:A241139",
	"count": 1,
	"start": 0,
	"results": [
		{
			"number": 241139,
			"data": "0,0,1,1,2,2,3,3,3,3,4,4,5,6,7,7,4,4,5,5,6,6,8,9,10,10,9,9,11,11,12,12,10,9,8,8,9,10,11,11,12,12,11,12,14,14,16,15,15,15,13,13,14,14,14,14,16,16,16,16,17,19,21,21,18,18,19,16,14,14,16,16,17",
			"name": "Number of nonprimes in factorization of n! over distinct terms of A050376.",
			"reference": [
				"V. S. Shevelev, Multiplicative functions in the Fermi-Dirac arithmetic, Izvestia Vuzov of the North-Caucasus region, Nature sciences 4 (1996), 28-43 [Russian]."
			],
			"link": [
				"Amiram Eldar, \u003ca href=\"/A241139/b241139.txt\"\u003eTable of n, a(n) for n = 2..1000\u003c/a\u003e",
				"S. Litsyn and V. S. Shevelev, \u003ca href=\"http://www.emis.de/journals/INTEGERS/papers/h33/h33.Abstract.html\"\u003eOn factorization of integers with restrictions on the exponent\u003c/a\u003e, INTEGERS: Electronic Journal of Combinatorial Number Theory, 7 (2007), #A33, 1-36."
			],
			"formula": [
				"a(n) = A177329(n) - A055460(n)."
			],
			"example": [
				"Factorization of 4! over distinct terms of A050376 is 4! = 2*3*4. This factorization contains only one A050376-nonprime. So a(4)=1."
			],
			"mathematica": [
				"b[n_] := 2^(-1 + Position[Reverse@IntegerDigits[n, 2], _?(# == 1 \u0026)]) // Flatten; a[n_] := Module[{np = PrimePi[n]}, v = Table[0, {np}]; Do[p = Prime[k]; Do[v[[k]] += IntegerExponent[j, p], {j, 2, n}], {k, 1, np}]; Length[Select[(b /@ v) // Flatten, # \u003e 1 \u0026]]]; Array[a, 73, 2]  (* _Amiram Eldar_, Sep 17 2019 *)"
			],
			"program": [
				"(PARI) a(n)={my(f=factor(n!)[,2]); sum(i=1, #f~, hammingweight(f[i]\u003e\u003e1))} \\\\ _Andrew Howroyd_, Sep 17 2019"
			],
			"xref": [
				"Cf. A177329, A177333, A177334, A240537, A240606, A240619, A240620, A240668, A240669, A240670, A240672, A240695, A240751, A240755, A240764, A240905, A240906, A241123, A241124."
			],
			"keyword": "nonn",
			"offset": "2,5",
			"author": "_Vladimir Shevelev_, Apr 16 2014",
			"ext": [
				"More terms from _Peter J. C. Moses_, Apr 17 2014"
			],
			"references": 4,
			"revision": 21,
			"time": "2019-09-17T20:02:00-04:00",
			"created": "2014-04-27T10:08:06-04:00"
		}
	]
}