{
	"greeting": "Greetings from The On-Line Encyclopedia of Integer Sequences! http://oeis.org/",
	"query": "id:A241505",
	"count": 1,
	"start": 0,
	"results": [
		{
			"number": 241505,
			"data": "25,60,120,125,180,240,300,323,360,377,480,540,600,625,660,720,840,900,960,1080,1200,1320,1440,1500,1620,1680,1800,1860,1891,1920,1980,2160,2400,2460,2520,2640,2700,2760,2880,3000,3060,3125,3240,3300,3360,3420",
			"name": "Composite integers n satisfying F_n-(n/5) == 0 (mod n), where F_n is the n-th Fibonacci number and (n/5) is the Kronecker symbol.",
			"comment": [
				"Sequence resembles A090820, although they are not identical."
			],
			"link": [
				"Z. H. Sun and Z. W. Sun, \u003ca href=\"http://matwbn.icm.edu.pl/ksiazki/aa/aa60/aa6046.pdf\"\u003eFibonacci numbers and Fermat's last theorem\u003c/a\u003e, Acta Arithmetica 60(4) (1992), 371-388."
			],
			"mathematica": [
				"Select[Range[2, 5000], ! PrimeQ[#] \u0026\u0026 Mod[Fibonacci[# - JacobiSymbol[#, 5]], #] == 0 \u0026] (* _Jean-François Alcover_, Apr 24 2014 *)"
			],
			"program": [
				"(PARI) forcomposite(n=2, 1e4, if(Mod(fibonacci(n-kronecker(n, 5)), n)==0, print1(n, \", \")))"
			],
			"keyword": "nonn",
			"offset": "1,1",
			"author": "_Felix Fröhlich_, Apr 24 2014",
			"references": 2,
			"revision": 15,
			"time": "2014-07-17T05:20:59-04:00",
			"created": "2014-04-25T11:18:00-04:00"
		}
	]
}