{
	"greeting": "Greetings from The On-Line Encyclopedia of Integer Sequences! http://oeis.org/",
	"query": "id:A241434",
	"count": 1,
	"start": 0,
	"results": [
		{
			"number": 241434,
			"data": "24,181,1272,22712,282527,4122537,79901137,1231102996,26880310825,446955799466",
			"name": "Number of nX7 0..3 arrays with no element equal to one plus the sum of elements to its left or one plus the sum of elements above it or zero plus the sum of the elements diagonally to its northwest or one plus the sum of the elements antidiagonally to its northeast, modulo 4",
			"comment": [
				"Column 7 of A241435"
			],
			"example": [
				"Some solutions for n=3",
				"..3..3..2..2..2..3..2....2..2..3..2..3..3..2....3..3..2..2..2..3..2",
				"..2..1..2..1..1..1..0....2..1..1..2..1..1..2....2..1..2..0..1..1..2",
				"..3..3..2..2..2..2..0....3..3..0..2..2..0..2....3..3..2..2..1..2..0"
			],
			"keyword": "nonn",
			"offset": "1,1",
			"author": "_R. H. Hardin_, Apr 22 2014",
			"references": 0,
			"revision": 3,
			"time": "2014-04-22T07:03:33-04:00",
			"created": "2014-04-22T07:03:33-04:00"
		}
	]
}