{
	"greeting": "Greetings from The On-Line Encyclopedia of Integer Sequences! http://oeis.org/",
	"query": "id:A241571",
	"count": 1,
	"start": 0,
	"results": [
		{
			"number": 241571,
			"data": "0,3,5,6,9,10,12,15,17,18,20,21,24,25,27,30,31,33,35,36,38,39,40,42,45,48,50,51,52,53,54,55,57,59,60,63,64,65,66,69,70,72,73,75,77,78,80,81,84,85,86,87,90,93,94,95,96,97,99,100,101,102,103,105,108",
			"name": "Numbers n such that 2*n+15 is not a prime.",
			"link": [
				"Vincenzo Librandi, \u003ca href=\"/A241571/b241571.txt\"\u003eTable of n, a(n) for n = 1..1000\u003c/a\u003e"
			],
			"mathematica": [
				"Select[Range[0, 200], !PrimeQ[2 # + 15] \u0026]"
			],
			"program": [
				"(MAGMA) [n: n in [0..200] | not IsPrime(2*n+15)];"
			],
			"xref": [
				"Complement of A089559.",
				"Cf. similar sequence listed in A153144."
			],
			"keyword": "nonn,easy",
			"offset": "1,2",
			"author": "_Vincenzo Librandi_, Apr 27 2014",
			"references": 2,
			"revision": 10,
			"time": "2014-04-27T16:39:23-04:00",
			"created": "2014-04-27T16:39:23-04:00"
		}
	]
}