{
	"greeting": "Greetings from The On-Line Encyclopedia of Integer Sequences! http://oeis.org/",
	"query": "id:A241048",
	"count": 1,
	"start": 0,
	"results": [
		{
			"number": 241048,
			"data": "2477,9173,10853,13877,14957,15413,22277,22613,24317,27653,30197,34877,37253,41117,41333,42437,42677,43973,48677,51413,55733,61613,62597,63773,66293,72533,73757,74093,76733,79397,79757,82997,86357,90173,92237,92333,95597",
			"name": "Primes having primitive roots 2, 3, 5, 7, 11, 13, and 17.",
			"link": [
				"T. D. Noe, \u003ca href=\"/A241048/b241048.txt\"\u003eTable of n, a(n) for n = 1..1000\u003c/a\u003e"
			],
			"mathematica": [
				"fQ[p_, n_] := MultiplicativeOrder[p, n] == n - 1; Select[Prime[Range[10000]], fQ[2, #] \u0026\u0026 fQ[3, #] \u0026\u0026 fQ[5, #] \u0026\u0026 fQ[7, #] \u0026\u0026 fQ[11, #] \u0026\u0026 fQ[13, #] \u0026\u0026 fQ[17, #] \u0026]"
			],
			"xref": [
				"Cf. A001122, A019334, A019335, A019337, A019339, A019341, A019344, A213052."
			],
			"keyword": "nonn",
			"offset": "1,1",
			"author": "_T. D. Noe_, Apr 16 2014",
			"references": 1,
			"revision": 4,
			"time": "2014-04-16T18:00:14-04:00",
			"created": "2014-04-16T18:00:14-04:00"
		}
	]
}