{
	"greeting": "Greetings from The On-Line Encyclopedia of Integer Sequences! http://oeis.org/",
	"query": "id:A241904",
	"count": 1,
	"start": 0,
	"results": [
		{
			"number": 241904,
			"data": "1,2,3,8,22,110",
			"name": "The number of graphs G on n vertices such that every unlabeled automorphism of the reduced graph of G is a labeled automorphism of the reduced graph of G.",
			"reference": [
				"R. C. Read and R. J. Wilson, An Atlas of Graphs, Oxford University Press (1999)."
			],
			"link": [
				"J. P. McSorley and T. D. Porter, \u003ca href=\"http://lagrange.math.siu.edu/mcsorley/papers/seqJJFIN.pdf\"\u003eK_p Removable Sequences of Graphs\u003c/a\u003e, Journal of Combinatorial Mathematics and Combinatorial Computing, 45, 43-62, (2003)."
			],
			"xref": [
				"Cf. A004110, A004108, A241905 (similar but with connected graphs)."
			],
			"keyword": "nonn,more",
			"offset": "1,2",
			"author": "_Dayana Adatorwovor_, May 01 2014",
			"references": 1,
			"revision": 16,
			"time": "2014-05-21T00:28:14-04:00",
			"created": "2014-05-21T00:28:14-04:00"
		}
	]
}