{
	"greeting": "Greetings from The On-Line Encyclopedia of Integer Sequences! http://oeis.org/",
	"query": "id:A241677",
	"count": 1,
	"start": 0,
	"results": [
		{
			"number": 241677,
			"data": "9,13,37,133,2053,8197,131077,524293,8388613,536870917,2147483653,137438953477,2199023255557,8796093022213,140737488355333,9007199254740997,576460752303423493,2305843009213693957,147573952589676412933,2361183241434822606853",
			"name": "2^p + 5 where p is prime.",
			"link": [
				"Vincenzo Librandi, \u003ca href=\"/A241677/b241677.txt\"\u003eTable of n, a(n) for n = 1..200\u003c/a\u003e"
			],
			"mathematica": [
				"Table[2^Prime[n] + 5, {n, 40}]"
			],
			"program": [
				"(MAGMA) [2^p + 5: p in PrimesUpTo(100)];"
			],
			"xref": [
				"Cf. similar sequence listed in A241573."
			],
			"keyword": "nonn",
			"offset": "1,1",
			"author": "_Vincenzo Librandi_, Apr 29 2014",
			"references": 2,
			"revision": 12,
			"time": "2014-04-29T09:50:20-04:00",
			"created": "2014-04-29T09:50:20-04:00"
		}
	]
}