{
	"greeting": "Greetings from The On-Line Encyclopedia of Integer Sequences! http://oeis.org/",
	"query": "id:A241079",
	"count": 1,
	"start": 0,
	"results": [
		{
			"number": 241079,
			"data": "0,1,1,0,2,2,1,1,0,2,2,1,1,2,2,0,1,1,2,2,3,1,1,4,0,2,1,1,3,2,2,1,1,2,2,0,1,1,2,2,-1,1,1,4,2,2,1,1,0,2,2,1,1,2,2,4,1,1,2,2,3,1,1,0,2,2,1,1,3,2,2,1,1,2,2,4,1,1,2,2,0,1,1,5,2,2,1",
			"name": "If n is a perfect square, a(n) = 0. If n is not a perfect square, a(n) is the number of final digits necessary to rule out n as a perfect square, or -1 if cannot be ruled out as a perfect square using any group of final digits.",
			"comment": [
				"To define the n-digit ending of a number with fewer than n digits, insert 0's in front of it. For example, the 2-digit ending of 5 is 05."
			],
			"example": [
				"a(24) cannot be 3 because 024 is a valid ending of a square (32^2 = 1024)."
			],
			"xref": [
				"Cf. A241081 (numbers k such that a(k) = -1)."
			],
			"keyword": "sign,base",
			"offset": "1,5",
			"author": "_J. Lowell_, Apr 15 2014",
			"ext": [
				"Terms corrected by and more terms from _Jinyuan Wang_, Aug 21 2021"
			],
			"references": 0,
			"revision": 20,
			"time": "2021-08-21T15:52:48-04:00",
			"created": "2014-04-28T03:26:51-04:00"
		}
	]
}