{
	"greeting": "Greetings from The On-Line Encyclopedia of Integer Sequences! http://oeis.org/",
	"query": "id:A241681",
	"count": 1,
	"start": 0,
	"results": [
		{
			"number": 241681,
			"data": "2,3,5,7,735,2333772",
			"name": "Numbers n such that the decimal digits of n are also the prime divisors of n.",
			"comment": [
				"The sequence is given for a(n) \u003c 10^11.",
				"No more terms \u003c= 10^150. Terms are of the form 2^e2 * 3^e3 * 7^e7 or of the form 3^e3 * 5^e5 * 7^e7, for which no other number \u003c= 10^150 than those listed is a term. - _David A. Corneth_, Sep 28 2019"
			],
			"example": [
				"735 = 3*5*7^2 is in the sequence because the digits 7, 3 and 5 are also the prime divisors of 735."
			],
			"maple": [
				"with(numtheory):nn:=1000000:for n from 1 to 10^11 do:lst:={}:x:=factorset(n):y:=convert(n,base,10):n1:=nops(x):n2:=nops(y): for j from 1 to n2 do:lst:=lst union {y[j]}:od:if x=lst then print(n):else fi:od:"
			],
			"xref": [
				"Cf. A108319, A108347.",
				"Subsequence of A046034."
			],
			"keyword": "nonn,base,hard",
			"offset": "1,1",
			"author": "_Michel Lagneau_, Apr 27 2014",
			"references": 0,
			"revision": 15,
			"time": "2019-09-28T09:30:39-04:00",
			"created": "2014-04-28T04:05:13-04:00"
		}
	]
}