{
	"greeting": "Greetings from The On-Line Encyclopedia of Integer Sequences! http://oeis.org/",
	"query": "id:A241244",
	"count": 1,
	"start": 0,
	"results": [
		{
			"number": 241244,
			"data": "6067,7499,8969,4091,9173,8731,5209,9941,2749,4969,5081,5077,773,4253,2677,4447,3863,2153,7817,3191,9187,1879,6581,8053,1753,5003,2339,9241,3253,2539,2887,6299,8161,7759,2371,3907,7297,8641,2689,4099,991,3169,1693,7019",
			"name": "Primes obtained by merging 4 successive digits in decimal expansion of sqrt(5).",
			"comment": [
				"Some terms in the sequence have fewer than 4 digits because leading zeros are permitted."
			],
			"link": [
				"K. D. Bajpai, \u003ca href=\"/A241244/b241244.txt\"\u003eTable of n, a(n) for n = 1..2940\u003c/a\u003e"
			],
			"example": [
				"a(1) = 6067 which is prime. It is the first occurrence of 4 successive digit prime in decimal expansion of sqrt(5), i.e., 2.23(6067)9774997896964091736687312762354..."
			],
			"mathematica": [
				"t=Sqrt[5];With[{k=FromDigits/@Partition[RealDigits[t,10,25000][[1]],4,1]},Select[k,PrimeQ]]"
			],
			"xref": [
				"Cf. A198161, A198162, A198163, A198164, A198169, A241149."
			],
			"keyword": "nonn,base",
			"offset": "1,1",
			"author": "_K. D. Bajpai_, Apr 18 2014",
			"references": 1,
			"revision": 9,
			"time": "2014-04-23T16:10:00-04:00",
			"created": "2014-04-23T16:10:00-04:00"
		}
	]
}