{
	"greeting": "Greetings from The On-Line Encyclopedia of Integer Sequences! http://oeis.org/",
	"query": "id:A241574",
	"count": 1,
	"start": 0,
	"results": [
		{
			"number": 241574,
			"data": "1,3,9,27,78,222,618,1686,4512,11856,30624,77856,195072,482304,1178112,2846208,6807552,16134144,37920768,88449024,204865536,471465984,1078591488,2454061056,5555355648,12516851712,28078768128,62732107776,139619991552,309640298496,684409749504,1508036837376,3313030397952",
			"name": "Number of ternary words of length n avoiding the pattern 11-11.",
			"link": [
				"Colin Barker, \u003ca href=\"/A241574/b241574.txt\"\u003eTable of n, a(n) for n = 0..1000\u003c/a\u003e",
				"Jair Taylor, \u003ca href=\"http://www.combinatorics.org/ojs/index.php/eljc/article/view/v21i2p1\"\u003eCounting Words with Laguerre Series\u003c/a\u003e, Electron. J. Combin., 21 (2014), P2.1.",
				"\u003ca href=\"/index/Rec#order_04\"\u003eIndex entries for linear recurrences with constant coefficients\u003c/a\u003e, signature (8,-24,32,-16)."
			],
			"formula": [
				"G.f.: (1 - 5*x + 9*x^2 - 5*x^3 - 2*x^4 + 6*x^5 - 6*x^6 + 6*x^7)/ (1 - 8*x + 24*x^2 - 32*x^3 + 16*x^4).",
				"a(n) = 3*2^(n-7)*(16 + 36*n - n^2 + n^3) for n \u003e 3. - _Colin Barker_, Jun 06 2015",
				"a(n) = 8*a(n-1) - 24*a(n-2) + 32*a(n-3) - 16*a(n-4) for n \u003e 7. - _Colin Barker_, Jun 06 2015"
			],
			"program": [
				"(PARI) Vec((6*x^7-6*x^6+6*x^5-2*x^4-5*x^3+9*x^2-5*x+1)/ (16*x^4-32*x^3+24*x^2-8*x+1) + O(x^100)) \\\\ _Colin Barker_, Jun 06 2015"
			],
			"keyword": "nonn,easy",
			"offset": "0,2",
			"author": "_N. J. A. Sloane_, Apr 26 2014",
			"references": 1,
			"revision": 19,
			"time": "2018-11-24T08:14:51-05:00",
			"created": "2014-04-26T13:00:10-04:00"
		}
	]
}