{
	"greeting": "Greetings from The On-Line Encyclopedia of Integer Sequences! http://oeis.org/",
	"query": "id:A242455",
	"count": 1,
	"start": 0,
	"results": [
		{
			"number": 242455,
			"data": "2,3,4,5,6,7,8,10,11,12,13,15,16,17,19,20,23,24,25,29,30,31,32,35,37,40,41,43,47,48,50,53,55,59,60,61,64,67,71,73,75,77,79,80,83,89,96,97,100,101,103,107,109,113,120,121,125,127,128,131,137,139,143",
			"name": "Numbers are the product of k primes: prime(n_1)...prime(n_k), where prime(x) is the x-th prime.  This is a list of maximal numbers given k and the sum n_1+n_2+...+n_k.",
			"comment": [
				"All primes are in the sequence. - _Michel Marcus_, May 23 2014",
				"All powers of 2 are in the sequence. 3*2^n is in the sequence.",
				"3^n and 7^n and 13^n not in the sequence for n \u003e 1.  - _Gordon Hamilton_, May 24 2014"
			],
			"example": [
				"For k = 3 and the sum n_1 + n_2 + n_3 = 7; the numbers 42 = prime(1)*prime(2)*prime(4) and 45 = prime(2)*prime(2)*prime(3) are not in the list because 50 = prime(1)*prime(3)*prime(3) is a larger number which satisfies the constraints.",
				"For k = 2 and the sum n_1 + n_2 = 18; prime(9)*prime(9) = 23*23 = 529 is not on the list because prime(8)*prime(10) = 19*29 = 551 is larger."
			],
			"program": [
				"(PARI) nbk(f) = sum(i=1, #f~, f[i,2]*primepi(f[i, 1]));",
				"snk(f) = sum(i=1, #f~, f[i,2]);",
				"value(digs) = prod(i=1, #digs, if (digs[i], prime(digs[i]), 1));",
				"isok(n) = {f = factor(n); k = nbk(f); sk = snk(f); if (sk == 1, return (1)); for (j=k^(sk-1)+1, k^sk-1, dibk = digits(j, k); val = value(dibk); fv = factor(val); kv = nbk(fv); skv = snk(fv); if ((kv == k) \u0026\u0026 (skv == sk), if (val \u003e n, return (0);););); return (1);} \\\\ _Michel Marcus_, May 23 2014"
			],
			"keyword": "nonn",
			"offset": "1,1",
			"author": "_Gordon Hamilton_, May 14 2014",
			"ext": [
				"More terms from _Michel Marcus_, May 23 2014"
			],
			"references": 0,
			"revision": 19,
			"time": "2014-05-31T21:24:40-04:00",
			"created": "2014-05-31T21:24:40-04:00"
		}
	]
}