{
	"greeting": "Greetings from The On-Line Encyclopedia of Integer Sequences! http://oeis.org/",
	"query": "id:A242883",
	"count": 1,
	"start": 0,
	"results": [
		{
			"number": 242883,
			"data": "1,3,5,6,7,9,15,18,21,24,27,33,39,51,58,60,63,69,75,81,87,99,105,111,123,135,153,165,171,183,186,207,213,219,231,243,249,255,267,279,309,315,351,363,375,387,393,399,423,435,453,465,471,495,501,531,543,579,603,615,627",
			"name": "Numbers n such that (n^n+3^3)/(n+3) is an integer.",
			"link": [
				"Paolo P. Lava, \u003ca href=\"/A242883/b242883.txt\"\u003eTable of n, a(n) for n = 1..500\u003c/a\u003e"
			],
			"example": [
				"(5^5+3^3)/(5+3) = 3152/8 = 394 is an integer. Thus 5 is a member of this sequence."
			],
			"maple": [
				"A242883:=n-\u003e`if`((n^n+27) mod (n+3) = 0, n, NULL): seq(A242883(n), n=1..1000); # _Wesley Ivan Hurt_, Jan 10 2017"
			],
			"mathematica": [
				"t[n_Integer]:=Select[Range[n], Divisible[#^# + 27, # + 3] \u0026]; t[700] (* _Vincenzo Librandi_, Apr 21 2015 *)"
			],
			"program": [
				"(PARI) for(n=1,1000,s=(n^n+3^3)/(n+3);if(floor(s)==s,print1(n, \", \")))",
				"(MAGMA) [n: n in [1..700] | Denominator((n^n+3^3)/(n+3))eq 1]; // _Vincenzo Librandi_, Apr 21 2015"
			],
			"xref": [
				"Cf. A242875."
			],
			"keyword": "nonn",
			"offset": "1,2",
			"author": "_Derek Orr_, May 25 2014",
			"references": 2,
			"revision": 16,
			"time": "2017-01-10T19:39:56-05:00",
			"created": "2014-05-25T12:54:32-04:00"
		}
	]
}