{
	"greeting": "Greetings from The On-Line Encyclopedia of Integer Sequences! http://oeis.org/",
	"query": "id:A242386",
	"count": 1,
	"start": 0,
	"results": [
		{
			"number": 242386,
			"data": "2,3,109,211,347,409,1051,1493,2111,2273,3167,4219,4441,10099,10853,10903,11353,11909,12823,12973,13421,13831,14543,14639,20551,21011,21347,21661,21863,22271,23581,23981,30047,30557,31259,31307,31963,32069,32213,32467,32869,33029",
			"name": "Lesser of consecutive primes whose sum is a palindromic number.",
			"link": [
				"Chai Wah Wu, \u003ca href=\"/A242386/b242386.txt\"\u003eTable of n, a(n) for n = 1..10000\u003c/a\u003e"
			],
			"example": [
				"2111 is in the sequence because 2111 is prime, nextprime(2111) = 2113 and 2111 + 2113 = 4224, palindromic number."
			],
			"program": [
				"(PARI)",
				"palind(n)=Str(n)==concat(Vecrev(Str(n)))",
				"{k=2;while(k\u003c10^5,m=nextprime(k+1);if(palind(k+m),print1(k,\", \"));k=m)}"
			],
			"xref": [
				"Cf. A162571 (resulting palindromes), A242387."
			],
			"keyword": "nonn,base",
			"offset": "1,1",
			"author": "_Antonio Roldán_, May 12 2014",
			"references": 2,
			"revision": 26,
			"time": "2019-01-04T19:00:22-05:00",
			"created": "2014-05-19T02:37:13-04:00"
		}
	]
}