{
	"greeting": "Greetings from The On-Line Encyclopedia of Integer Sequences! http://oeis.org/",
	"query": "id:A242601",
	"count": 1,
	"start": 0,
	"results": [
		{
			"number": 242601,
			"data": "0,0,1,1,-1,-1,2,2,-2,-2,3,3,-3,-3,4,4,-4,-4,5,5,-5,-5,6,6,-6,-6,7,7,-7,-7,8,8,-8,-8,9,9,-9,-9,10,10,-10,-10,11,11,-11,-11,12,12,-12,-12,13,13,-13,-13,14,14,-14,-14,15,15,-15,-15,16,16,-16,-16,17,17,-17,-17,18,18,-18,-18,19,19,-19,-19,20,20,-20,-20",
			"name": "Integers repeated twice in a canonical order.",
			"comment": [
				"This is the second member (k=2) of a k-family of sequences, call them s(k,n) for k = 1, 2, ... and n = 0, 1, ..., with o.g.f. G(k,x) = x^k/((1 + x^k)^2*(1 - x)) = x^k/(1 - x + 2*x^k - 2*x^(k+1) + x^(2*k) - x^(2*k+1)) and the recurrence s(k,n) = s(k,n-1) - 2*s(k,n-k) + 2*s(k,n-k-1) - s(k,n-2*k) + s(k,n-(2*k+1)) with input s(k,n) = 0 if n = 0, 1, ...., k-1, s(k,n) = 1 if n = k, k+1, ..., 2*k-1 and s(k,n) = -1 if n = 2*k. See the Myerson-van der Poorten link, p. 4.",
				"If one prefers the negative integers to precede the positive ones the o.g.f. is -G(k,x)."
			],
			"link": [
				"G. Myerson and A. J. van der Poorten, \u003ca href=\"https://www.jstor.org/stable/2974639\"\u003eSome problems concerning recurrence sequences\u003c/a\u003e, Amer. Math. Monthly 102 (1995), no. 8, 698-705.",
				"\u003ca href=\"/index/Rec#order_05\"\u003eIndex entries for linear recurrences with constant coefficients\u003c/a\u003e, signature (1,-2,2,-1,1)"
			],
			"formula": [
				"O.g.f.: x^2/((1 + x^2)^2*(1-x)) = x^2/(1 - x + 2*x^2 - 2*x^3 + x^4 - x^5).",
				"a(n) = a(n-1) - 2*a(n-2) + 2*a(n-3) - a(n-4) + a(n-5), with a(0) = a(1) = 0, a(2) = a(3) = 1 and a(4) = -1.  This is the sequence s(2,n) defined in a comment above.",
				"a(n) = floor((n+2)/4)*(-1)^floor((n+2)/2), n \u003e= 0."
			],
			"mathematica": [
				"LinearRecurrence[{1,-2,2,-1,1},{0,0,1,1,-1},90] (* _Harvey P. Dale_, Sep 03 2020 *)"
			],
			"xref": [
				"Cf. A001057, A242602, A002265 (unsigned version with two additional leading zeros)."
			],
			"keyword": "sign,easy",
			"offset": "0,7",
			"author": "_Wolfdieter Lang_, Jun 17 2014",
			"references": 1,
			"revision": 25,
			"time": "2020-09-03T12:28:43-04:00",
			"created": "2014-06-17T18:42:21-04:00"
		}
	]
}