{
	"greeting": "Greetings from The On-Line Encyclopedia of Integer Sequences! http://oeis.org/",
	"query": "id:A242820",
	"count": 1,
	"start": 0,
	"results": [
		{
			"number": 242820,
			"data": "1,1,2,6,24,116,4,672,48,4536,504,34944,5376,302896,59488,496,2916992,697856,13952,30899616,8720448,296736,357080064,116109312,5812224,4470310976,1645662912,110697408,349504,60269056512,24776769024,2114735616,17730048",
			"name": "Number T(n,k) of permutations of [n] with exactly k occurrences of the consecutive step pattern up, down, down, down; triangle T(n,k), n\u003e=0, 0\u003c=k\u003c=max(0,floor((n-1)/4)), read by rows.",
			"link": [
				"Alois P. Heinz, \u003ca href=\"/A242820/b242820.txt\"\u003eRows n = 0..140, flattened\u003c/a\u003e"
			],
			"example": [
				"T(5,1) = 4: (1,5,4,3,2), (2,5,4,3,1), (3,5,4,2,1), (4,5,3,2,1).",
				"Triangle T(n,k) begins:",
				":  0 :        1;",
				":  1 :        1;",
				":  2 :        2;",
				":  3 :        6;",
				":  4 :       24;",
				":  5 :      116,       4;",
				":  6 :      672,      48;",
				":  7 :     4536,     504;",
				":  8 :    34944,    5376;",
				":  9 :   302896,   59488,    496;",
				": 10 :  2916992,  697856,  13952;",
				": 11 : 30899616, 8720448, 296736;"
			],
			"maple": [
				"b:= proc(u, o, t) option remember; `if`(u+o=0, 1, expand(",
				"      add(b(u-j, o+j-1, [1, 3, 4, 1][t])*`if`(t=4, x, 1), j=1..u)+",
				"      add(b(u+j-1, o-j, 2), j=1..o)))",
				"    end:",
				"T:= n-\u003e (p-\u003e seq(coeff(p, x, i), i=0..degree(p)))(b(n, 0, 1)):",
				"seq(T(n), n=0..15);"
			],
			"mathematica": [
				"b[u_, o_, t_] := b[u, o, t] = If[u + o == 0, 1, Expand[",
				"     Sum[b[u - j, o + j - 1, {1, 3, 4, 1}[[t]]]*If[t==4, x, 1], {j, 1, u}]+",
				"     Sum[b[u + j - 1, o - j, 2], {j, 1, o}]]];",
				"T[n_] := CoefficientList[b[n, 0, 1], x];",
				"T /@ Range[0, 15] // Flatten (* _Jean-François Alcover_, Mar 23 2021, after _Alois P. Heinz_ *)"
			],
			"xref": [
				"Column k=0 gives A177518.",
				"Row sums give: A000142.",
				"Cf. A242783, A242784, A295987."
			],
			"keyword": "nonn,tabf",
			"offset": "0,3",
			"author": "_Alois P. Heinz_, May 23 2014",
			"references": 4,
			"revision": 14,
			"time": "2021-03-23T16:13:13-04:00",
			"created": "2014-05-23T13:10:04-04:00"
		}
	]
}