{
	"greeting": "Greetings from The On-Line Encyclopedia of Integer Sequences! http://oeis.org/",
	"query": "id:A242821",
	"count": 1,
	"start": 0,
	"results": [
		{
			"number": 242821,
			"data": "1,0,0,2,3,11,14,33,43,82,141,260,514,1049,2321,4789,10454,21735,46213,94782,196060,398662,810178,1631089,3278372,6556096,13088339,26063238,51824061,102926784,204239173,405087125,803109813,1592179369,3156298826,6258390137",
			"name": "Number of compositions of n with equal number of even and odd parts, both counted without multiplicity.",
			"link": [
				"Alois P. Heinz, \u003ca href=\"/A242821/b242821.txt\"\u003eTable of n, a(n) for n = 0..500\u003c/a\u003e"
			],
			"example": [
				"a(3) = 2: [1,2], [2,1].",
				"a(4) = 3: [1,1,2], [1,2,1], [2,1,1].",
				"a(5) = 11: [1,1,1,2], [1,1,2,1], [1,2,1,1], [2,1,1,1], [1,2,2], [2,1,2], [2,2,1], [2,3], [3,2], [1,4], [4,1].",
				"a(6) = 14: [1,1,1,1,2], [1,1,1,2,1], [1,1,2,1,1], [1,2,1,1,1], [2,1,1,1,1], [1,1,2,2], [1,2,1,2], [1,2,2,1], [2,1,1,2], [2,1,2,1], [2,2,1,1], [1,1,4], [1,4,1], [4,1,1]."
			],
			"xref": [
				"Column k=0 of A242626.",
				"Cf. A098123 (counted with multiplicity)."
			],
			"keyword": "nonn",
			"offset": "0,4",
			"author": "_Alois P. Heinz_, May 23 2014",
			"references": 2,
			"revision": 9,
			"time": "2014-05-24T18:00:49-04:00",
			"created": "2014-05-24T18:00:49-04:00"
		}
	]
}