{
	"greeting": "Greetings from The On-Line Encyclopedia of Integer Sequences! http://oeis.org/",
	"query": "id:A242436",
	"count": 1,
	"start": 0,
	"results": [
		{
			"number": 242436,
			"data": "0,-1,28,237,1016,3115,7764,16793,32752,59031,99980,161029,248808,371267,537796,759345,1048544,1419823,1889532,2476061,3199960,4084059,5153588,6436297,7962576,9765575,11881324,14348853,17210312,20511091,24299940,28629089,33554368,39135327,45435356",
			"name": "n^5 - 2n.",
			"comment": [
				"For n \u003e 0, a(n) is the largest number k such that k^5 + n is divisible by k + n, or -1 if k is infinite. When k = n^5 - 2n, (k^5 + n)/(k + n) = n^20 - 9n^16 + 31n^12 - 49n^8 + 31n^4 - 1.",
				"For n \u003e 1 and j \u003e 0, the largest number k such that k^(2j+1) + n is divisible by k + n is given by k = n^(2j+1) - 2n.",
				"For n \u003e 1, a(n) is also the largest number k such that k + n^5 is divisible by k + n. - _Derek Orr_, Oct 16 2014"
			],
			"link": [
				"Michael De Vlieger, \u003ca href=\"/A242436/b242436.txt\"\u003eTable of n, a(n) for n = 0..10000\u003c/a\u003e",
				"\u003ca href=\"/index/Rec#order_06\"\u003eIndex entries for linear recurrences with constant coefficients\u003c/a\u003e, signature (6,-15,20,-15,6,-1)."
			],
			"formula": [
				"From _Wesley Ivan Hurt_, Aug 17 2014: (Start)",
				"G.f.: (-x+34*x^2+54*x^3+34*x^4-x^5) / (x-1)^6;",
				"a(n) = 6*a(n-1)-15*a(n-2)+20*a(n-3)-15*a(n-4)+6*a(n-5)-a(n-6);",
				"a(n) = A000584(n) - A005843(n). (End)"
			],
			"example": [
				"a(2) = 28. 28 is the largest number k such that k^5 + 2 is divisible by k + 2. The resulting integer is 573679 = 2^20 - 9*2^16 + 31*2^12 - 49*2^8 + 31*2^4 - 1."
			],
			"maple": [
				"A242436:=n-\u003en^5-2*n: seq(A242436(n), n=0..30); # _Wesley Ivan Hurt_, Aug 17 2014"
			],
			"mathematica": [
				"Table[n^5 - 2 n, {n, 0, 30}] (* _Wesley Ivan Hurt_, Aug 17 2014 *)",
				"CoefficientList[Series[(-x + 34 x^2 + 54 x^3 + 34 x^4 - x^5)/(-1 + x)^6, {x, 0, 30}], x] (* _Wesley Ivan Hurt_, Aug 17 2014 *)",
				"LinearRecurrence[{6,-15,20,-15,6,-1},{0,-1,28,237,1016,3115},40] (* _Harvey P. Dale_, Apr 07 2017 *)"
			],
			"program": [
				"(PARI) vector(100, n, (n-1)^5 - 2*(n-1))",
				"(MAGMA) [n^5-2*n: n in [0..35]]; // _Vincenzo Librandi_, Oct 17 2014"
			],
			"xref": [
				"Cf. A000584, A005843, A242135."
			],
			"keyword": "sign,easy",
			"offset": "0,3",
			"author": "_Derek Orr_, Aug 16 2014",
			"references": 2,
			"revision": 33,
			"time": "2017-04-07T11:44:01-04:00",
			"created": "2014-08-18T00:46:56-04:00"
		}
	]
}