{
	"greeting": "Greetings from The On-Line Encyclopedia of Integer Sequences! http://oeis.org/",
	"query": "id:A242507",
	"count": 1,
	"start": 0,
	"results": [
		{
			"number": 242507,
			"data": "1,0,9,11,45,121,243,726,1509,3601,8385,17836,40873,87633,188855,409116,859674,1827160,3832786,7981398,16644666,34362355,70866846,145637147,297814569,608309130,1237764177,2512564769,5090761029,10286177231,20750532587,41778968976",
			"name": "Number of compositions of n, where the difference between the number of odd parts and the number of even parts is 9.",
			"comment": [
				"With offset 18 number of compositions of n, where the difference between the number of odd parts and the number of even parts is -9."
			],
			"link": [
				"Alois P. Heinz, \u003ca href=\"/A242507/b242507.txt\"\u003eTable of n, a(n) for n = 9..1000\u003c/a\u003e"
			],
			"formula": [
				"Recurrence (for n\u003e=13): (n-9)*(n+1)*(n+2)*(n+18)*(16*n^4 + 128*n^3 + 344*n^2 + 352*n - 104871)*a(n) = -2592*(n-10)*(n+1)*(n+3)*(n+17)*(2*n+3)*a(n-1) + 2*(n+2)*(16*n^7 + 272*n^6 + 2872*n^5 + 10928*n^4 - 103259*n^3 - 795505*n^2 - 7964385*n - 13572711)*a(n-2) + 2*(n+1)*(n+3)*(2*n+3)*(16*n^5 + 208*n^4 + 1008*n^3 + 3524*n^2 - 96349*n - 123786)*a(n-3) - (n-4)*(n+2)*(n+3)*(n+5)*(16*n^4 + 192*n^3 + 824*n^2 + 1488*n - 104031)*a(n-4). - _Vaclav Kotesovec_, May 20 2014"
			],
			"xref": [
				"Column k=9 of A242498."
			],
			"keyword": "nonn",
			"offset": "9,3",
			"author": "_Alois P. Heinz_, May 16 2014",
			"references": 2,
			"revision": 7,
			"time": "2014-05-20T02:45:17-04:00",
			"created": "2014-05-19T12:45:21-04:00"
		}
	]
}