{
	"greeting": "Greetings from The On-Line Encyclopedia of Integer Sequences! http://oeis.org/",
	"query": "id:A242766",
	"count": 1,
	"start": 0,
	"results": [
		{
			"number": 242766,
			"data": "1,1,1,2,5,11,26,71,200,602,1904,6317,21886,78911,295259,1143535,4574143,18859677,80014834,348776576,1559776268,7147792818,33526120082,160785623545,787685471322,3938427356614,20082117944245,104349745809073,552166953567228",
			"name": "a(n) = floor(sqrt(n!+1)).",
			"link": [
				"Vincenzo Librandi, \u003ca href=\"/A242766/b242766.txt\"\u003eTable of n, a(n) for n = 0..199\u003c/a\u003e"
			],
			"mathematica": [
				"Table[Floor[Sqrt[n! + 1]], {n, 0, 30}]"
			],
			"program": [
				"(MAGMA) [Floor(Sqrt(Factorial(n)+1)): n in [0..30]];",
				"(PARI) a(n)={sqrtint(n!+1)} \\\\ _Andrew Howroyd_, Jan 17 2018"
			],
			"xref": [
				"Cf. A163524."
			],
			"keyword": "nonn",
			"offset": "0,4",
			"author": "_Vincenzo Librandi_, May 29 2014",
			"references": 1,
			"revision": 23,
			"time": "2018-01-17T17:18:13-05:00",
			"created": "2014-06-03T03:21:49-04:00"
		}
	]
}