{
	"greeting": "Greetings from The On-Line Encyclopedia of Integer Sequences! http://oeis.org/",
	"query": "id:A242978",
	"count": 1,
	"start": 0,
	"results": [
		{
			"number": 242978,
			"data": "2,2,6,9,4,3,8,2,5,9,5,3,6,6,6,9,5,1,9,2,8,6,0,2,1,7,1,3,6,9,3,3,3,7,6,5,1,0,2,9,8,9,6,8,9,0,1,3,0,3,1,9,1,3,6,4,8,2,6,0,8,9,4,1,6,4,2,7,1,7,1,2,9,5,6,9,8,3,0,4,2,9,0,4,9,2,5",
			"name": "Decimal expansion of Efimov's scaling constant.",
			"comment": [
				"Usually reported as 22.7."
			],
			"link": [
				"V. N. Efimov, \u003ca href=\"http://www.uibk.ac.at/exphys/ultracold/projects/levt/efimov/SovJNucPhys12.589.efimov.pdf\"\u003eWeakly-bound states of three resonantly-interacting particles\u003c/a\u003e, Soviet Journal of Nuclear Physics 12:5 (1971), pp. 589-595. [Yad. Fiz. 12 (1970), 1080].",
				"Wikipedia, \u003ca href=\"http://en.wikipedia.org/wiki/Efimov_state\"\u003eEfimov state\u003c/a\u003e"
			],
			"mathematica": [
				"RealDigits[E^(Pi/x)/.FindRoot[x*Cosh[Pi*x/2] - 8*Sinh[Pi*x/6]/Sqrt[3], {x, 2}, WorkingPrecision-\u003e105]][[1]] (* _Vaclav Kotesovec_, May 28 2014 *)"
			],
			"program": [
				"(PARI) exp(Pi/solve(x=1,2,x*cosh(Pi*x/2)-8*sinh(Pi*x/6)/sqrt(3)))"
			],
			"keyword": "nonn,cons",
			"offset": "2,1",
			"author": "_Charles R Greathouse IV_, May 28 2014",
			"references": 0,
			"revision": 8,
			"time": "2014-05-28T15:03:19-04:00",
			"created": "2014-05-28T15:03:19-04:00"
		}
	]
}