{
	"greeting": "Greetings from The On-Line Encyclopedia of Integer Sequences! http://oeis.org/",
	"query": "id:A242089",
	"count": 1,
	"start": 0,
	"results": [
		{
			"number": 242089,
			"data": "0,0,0,2,10,16,32,42,66,112,130,192,240,266,322,416,522,560,682,770,816,962,1066,1232,1472,1600,1666,1802,1872,2016,2562,2730,2992,3082,3552,3650,3952,4266,4482,4816,5162,5280,5890,6016,6272,6402,7210,8066,8362,8512",
			"name": "Number of triples (a,b,c) with 0 \u003c a \u003c b \u003c c \u003c p and a + b + c == 0 mod p, where p = prime(n).",
			"comment": [
				"a(n) is even. (Proof. Each triple (a,b,c) with b \u003c p/2 pairs uniquely with a triple (a',b',c') = (p-c,p-b,p-a) with b' \u003e p/2.)"
			],
			"link": [
				"Fausto A. C. Cariboni, \u003ca href=\"/A242089/b242089.txt\"\u003eTable of n, a(n) for n = 1..1000\u003c/a\u003e",
				"Steven J. Miller, \u003ca href=\"http://arxiv.org/pdf/1406.3558.pdf\"\u003eCombinatorial and Additive Number Theory Problem Sessions\u003c/a\u003e, arXiv:1406.3558  [math.NT]. See Nathan Kaplan's Problem 2014.1.4 on p. 30."
			],
			"formula": [
				"a(n) = 2*A242090(n)."
			],
			"example": [
				"For prime(4) = 7 there are 2 triples (a,b,c) with 0 \u003c a \u003c b \u003c c \u003c 7 and a + b + c == 0 mod 7, namely, 1+2+4 = 7 and 3+5+6 = 2*7, so a(4) = 2."
			],
			"mathematica": [
				"Table[ Length[ Reduce[ Mod[a + b + c, Prime[n]] == 0 \u0026\u0026 0 \u003c a \u003c b \u003c c \u003c Prime[n], {a, b, c}, Integers]], {n, 40}]"
			],
			"xref": [
				"Cf. A242090."
			],
			"keyword": "nonn",
			"offset": "1,4",
			"author": "_Jonathan Sondow_, Jun 16 2014",
			"ext": [
				"a(41)-a(50) from _Fausto A. C. Cariboni_, Sep 30 2018"
			],
			"references": 2,
			"revision": 8,
			"time": "2018-10-01T03:33:33-04:00",
			"created": "2014-06-17T02:58:54-04:00"
		}
	]
}