{
	"greeting": "Greetings from The On-Line Encyclopedia of Integer Sequences! http://oeis.org/",
	"query": "id:A242899",
	"count": 1,
	"start": 0,
	"results": [
		{
			"number": 242899,
			"data": "2,2,3,4,3,3,3,2,3,6,8,4,11,5,3,16,7,6,5,5,3,10,5,3,4,5,3,4,11,4,7,11,3,30,5,3,7,19,3,10,7,6,7,11,5,12,14,6,7,5,3,12,13,9,5,8,6,6,11,4,4,6,3,64,5,6,10,6,3,10,6,6,5,37,3,30,7,12,7,20,3,40,19,9",
			"name": "Least number k \u003e 1 such that (n^k+k^n)/(k+n) is an integer.",
			"comment": [
				"a(n) \u003c= n for all n \u003e 1."
			],
			"link": [
				"Seiichi Manyama, \u003ca href=\"/A242899/b242899.txt\"\u003eTable of n, a(n) for n = 1..10000\u003c/a\u003e"
			],
			"example": [
				"(1^2+2^1)/(2+1) = 3/3 = 1 is an integer. Thus a(1) = 2."
			],
			"mathematica": [
				"lnk[n_]:=Module[{k=2},While[!IntegerQ[(n^k+k^n)/(k+n)],k++];k]; Array[lnk,90] (* _Harvey P. Dale_, Sep 02 2015 *)"
			],
			"program": [
				"(PARI) a(n)=if(n==1, 2, for(k=2, n, s=(n^k+k^n)/(k+n); if(floor(s)==s, return(k))))",
				"n=1; while(n\u003c100, print(a(n)); n+=1)",
				"(PARI) a(n) = my(k=2); while (denominator((n^k+k^n)/(k+n))!=1, k++); k; \\\\ _Michel Marcus_, Jun 03 2021"
			],
			"xref": [
				"Cf. A114977, A114978, A242872."
			],
			"keyword": "nonn,look",
			"offset": "1,1",
			"author": "_Derek Orr_, May 25 2014",
			"references": 5,
			"revision": 19,
			"time": "2021-06-03T12:32:42-04:00",
			"created": "2014-05-26T01:30:25-04:00"
		}
	]
}