{
	"greeting": "Greetings from The On-Line Encyclopedia of Integer Sequences! http://oeis.org/",
	"query": "id:A242387",
	"count": 1,
	"start": 0,
	"results": [
		{
			"number": 242387,
			"data": "3,5,7,97,109,281,359,389,409,509,631,653,691,743,827,857,907,937,967,1549,2111,2767,4219,4441,7001,9007,9337,9661,10099,11503,12919,13421,16759,17569,21011,21611,23831,26261,26861,28181,29287,29483,30497,31307,32213,33029,33629",
			"name": "Lesser of consecutive primes whose average is a palindromic number.",
			"link": [
				"Harvey P. Dale, \u003ca href=\"/A242387/b242387.txt\"\u003eTable of n, a(n) for n = 1..1000\u003c/a\u003e"
			],
			"example": [
				"389 is in the sequence because 389 is prime, nextprime(389)=397, and (389+397)/2=393, a palindromic number."
			],
			"mathematica": [
				"Select[Partition[Prime[Range[4000]],2,1],PalindromeQ[Mean[#]]\u0026][[All,1]] (* Requires Mathematica version 10 or later *)  (* _Harvey P. Dale_, Apr 05 2019 *)"
			],
			"program": [
				"(PARI)",
				"palind(n)=Str(n)==concat(Vecrev(Str(n)))",
				"{p=2;while(p\u003c10^5,q=nextprime(p+1);if(palind((p+q)/2),print1(p,\", \"));p=q)}"
			],
			"xref": [
				"Cf. A242386."
			],
			"keyword": "nonn,base,less",
			"offset": "1,1",
			"author": "_Antonio Roldán_, May 12 2014",
			"references": 2,
			"revision": 21,
			"time": "2019-04-05T11:58:42-04:00",
			"created": "2014-05-19T02:38:37-04:00"
		}
	]
}