{
	"greeting": "Greetings from The On-Line Encyclopedia of Integer Sequences! http://oeis.org/",
	"query": "id:A242137",
	"count": 1,
	"start": 0,
	"results": [
		{
			"number": 242137,
			"data": "0,1,2,4,6,9,11,14,16,21,23,26,28,33,35,38,40,45,50,52,55,57,62,64,67,69,74,79,81,84,86,91,93,96,98,103,108,110,115,120,122,125,127,132,134,137,139,144,149,151,154,156,161,163,166,168,173,178,180,185,190",
			"name": "Numbers n such that there are no triangular numbers strictly between n^2 and n^2 + n.",
			"comment": [
				"For n\u003e2, a(n+1) - a(n) = either 2 or 3 or 5 (conjecture; checked up to a(n) = 2^32)."
			],
			"link": [
				"Jens Kruse Andersen, \u003ca href=\"/A242137/b242137.txt\"\u003eTable of n, a(n) for n = 1..10000\u003c/a\u003e"
			],
			"mathematica": [
				"triQ[n_] := IntegerQ@ Sqrt[8n + 1]; fQ[n_] := Union[ triQ@# \u0026 /@ Range[n^2 + 1, n^2 + n - 1]] == {False}; Join[{0, 1}, Select[ Range@ 200, fQ]] (* _Robert G. Wilson v_, Jan 22 2016 *)"
			],
			"program": [
				"(Python)",
				"t = prev = 0",
				"for n in range(1000000):",
				"  sq = n*n",
				"  ob = sq + n",
				"  s = 0",
				"  while 1:",
				"    tn = t*(t+1)/2",
				"    if tn \u003e sq:",
				"        if tn \u003c ob:",
				"            s = 1",
				"        break",
				"    t+=1",
				"  t-=1",
				"  if s==0:",
				"    print str(n)+',',",
				"    #d = n-prev",
				"    #if d!=2 and d!=3 and d!=5: print n,d",
				"    #prev = n",
				"(PARI) isokt(n) = for (k=n^2+1, n^2+n-1, if (ispolygonal(k, 3), return (0))); return(1); \\\\ _Michel Marcus_, Aug 16 2014"
			],
			"xref": [
				"Cf. A000217, A000290, A002378."
			],
			"keyword": "nonn",
			"offset": "1,3",
			"author": "_Alex Ratushnyak_, Aug 16 2014",
			"references": 1,
			"revision": 20,
			"time": "2019-12-07T12:18:27-05:00",
			"created": "2014-08-21T23:35:15-04:00"
		}
	]
}