{
	"greeting": "Greetings from The On-Line Encyclopedia of Integer Sequences! http://oeis.org/",
	"query": "id:A242015",
	"count": 1,
	"start": 0,
	"results": [
		{
			"number": 242015,
			"data": "4,0,9,5,0,6,9,0,3,4,1,1,8,9,5,7,6,8,2,4,5,1,1,6,3,9,5,1,8,3,7,9,7,6,3,7,0,4,3,1,9,9,5,2,9,0,9,8,4,7,1,6,6,3,2,3,4,8,9,0,9,7,6,6,8,2,7,2,5,6,9,2,7,8,0,6,3,7,6,8,8,9,2,1,2,7,2,9,8,5,0,7,0,4,4,6,0,5,2,8,7,7,5",
			"name": "Decimal expansion of the Euler-Kronecker constant (as named by P. Moree) for non-hypotenuse numbers.",
			"reference": [
				"Steven R. Finch, Mathematical Constants, Cambridge University Press, 2003, Section 2.3 Landau-Ramanujan constants, p. 99."
			],
			"link": [
				"Steven R. Finch, \u003ca href=\"http://arxiv.org/abs/2001.00578\"\u003eErrata and Addenda to Mathematical Constants.\u003c/a\u003e p. 11.",
				"Pieter Moree, \u003ca href=\"http://arxiv.org/pdf/1110.0708.pdf\"\u003eCounting numbers in multiplicative sets: Landau versus Ramanujan.\u003c/a\u003e p. 13, arXiv:1110.0708v1 [math.NT] 4 Oct 2011",
				"D. Shanks, \u003ca href=\"http://dx.doi.org/10.1090/S0025-5718-1964-0159174-9\"\u003eThe second-order term in the asymptotic expansion of B(x)\u003c/a\u003e, Mathematics of Computation 18 (1964), pp. 75-86.",
				"Eric Weisstein's World of Mathematics, \u003ca href=\"http://mathworld.wolfram.com/Landau-RamanujanConstant.html\"\u003eLandau-Ramanujan Constant\u003c/a\u003e"
			],
			"formula": [
				"1 - 2*A244662."
			],
			"example": [
				"-0.40950690341189576824511639518379763704319952909847166323489..."
			],
			"mathematica": [
				"digits = 103; m0 = 5; dm = 5; beta[x_] := 1/4^x*(Zeta[x, 1/4] - Zeta[x, 3/4]); L = Pi^(3/2)/Gamma[3/4]^2*2^(1/2)/2; Clear[f]; f[m_] := f[m] = 1/2*(1 - Log[Pi*E^EulerGamma/(2*L)]) - 1/4*NSum[Zeta'[2^k]/Zeta[2^k] - beta'[2^k]/beta[2^k] + Log[2]/(2^(2^k) - 1), {k, 1, m}, WorkingPrecision -\u003e digits + 10]; f[m0]; f[m = m0 + dm]; While[RealDigits[f[m], 10, digits] != RealDigits[f[m - dm], 10, digits], m = m + dm]; RealDigits[1 - 2*f[m] - EulerGamma + Log[Pi] - 4*Log[Gamma[3/4]], 10, digits] // First"
			],
			"xref": [
				"Cf. A242013, A244662."
			],
			"keyword": "nonn,cons",
			"offset": "0,1",
			"author": "_Jean-François Alcover_, Aug 11 2014",
			"references": 0,
			"revision": 13,
			"time": "2020-01-17T05:40:06-05:00",
			"created": "2014-08-11T09:52:12-04:00"
		}
	]
}