{
	"greeting": "Greetings from The On-Line Encyclopedia of Integer Sequences! http://oeis.org/",
	"query": "id:A242569",
	"count": 1,
	"start": 0,
	"results": [
		{
			"number": 242569,
			"data": "-1,-2,0,16,110,708,5026,40304,362862,3628780,39916778,479001576,6227020774,87178291172,1307674367970,20922789887968,355687428095966,6402373705727964,121645100408831962,2432902008176639960,51090942171709439958,1124000727777607679956,25852016738884976639954,620448401733239439359952",
			"name": "n!-2n.",
			"comment": [
				"For n \u003e 2, a(n) is the largest value of k such that (n!+k)/(n+k) is an integer.",
				"For n \u003e 2, a(n) is the largest value of k such that (n!+k)/(n+k) is prime.",
				"For n \u003e 1, a(n) is even."
			],
			"formula": [
				"a(n) = n!-2n."
			],
			"example": [
				"3!-2*3 = 0 so a(3) = 0.",
				"4!-2*4 = 16 so a(4) = 16.",
				"5!-2*5 = 110 so a(5) = 110."
			],
			"program": [
				"(Python)",
				"import math",
				"{print(math.factorial(n)-2*n) for n in range(1,25)}",
				"(PARI) for(n=1,25,print(n!-2*n))"
			],
			"xref": [
				"Cf. A000142, A242567, A242568."
			],
			"keyword": "sign",
			"offset": "1,2",
			"author": "_Derek Orr_, May 17 2014",
			"references": 1,
			"revision": 6,
			"time": "2014-05-20T23:44:41-04:00",
			"created": "2014-05-20T23:44:41-04:00"
		}
	]
}