{
	"greeting": "Greetings from The On-Line Encyclopedia of Integer Sequences! http://oeis.org/",
	"query": "id:A242914",
	"count": 1,
	"start": 0,
	"results": [
		{
			"number": 242914,
			"data": "7,7,1,1,2,5,5,2,3,6,5,5,6,5,8,9,0,9,3,1,7,3,1,7,7,6,3,2,7,7,7,0,6,8,8,5,9,2,1,6,7,8,3,8,8,2,1,1,3,6,1,2,3,2,6,2,6,9,2,6,0,0,9,6,3,5,4,7,4,7,4,0,9,1,4,9,1,8,6,0,3,8,9,3,7,2,3,9,4,0,1,4,6,9,1,2,6,5,5,9,3,6,8,9",
			"name": "Decimal expansion of the trace of the Ruelle-Mayer linear operator G_2.",
			"reference": [
				"Steven R. Finch, Mathematical Constants, Cambridge University Press, 2003, Sections 2.17.1 Ruelle-Mayer Operators, p. 153."
			],
			"formula": [
				"1/2-1/(2*sqrt(5))+1/2*sum_(k\u003e0) (-1)^(k-1)*binomial(2*k,k)*(zeta(2*k)-1)"
			],
			"example": [
				"0.7711255236556589093173177632777..."
			],
			"mathematica": [
				"NIntegrate[BesselJ[1, 2*x]/(Exp[x]-1), {x, 0, Infinity}, WorkingPrecision -\u003e 140] // RealDigits[#, 10, 80]\u0026 // First"
			],
			"xref": [
				"Cf. A007515, A038517."
			],
			"keyword": "nonn,cons",
			"offset": "0,1",
			"author": "_Jean-François Alcover_, May 26 2014",
			"references": 1,
			"revision": 7,
			"time": "2014-05-26T11:35:57-04:00",
			"created": "2014-05-26T11:35:57-04:00"
		}
	]
}