{
	"greeting": "Greetings from The On-Line Encyclopedia of Integer Sequences! http://oeis.org/",
	"query": "id:A242031",
	"count": 1,
	"start": 0,
	"results": [
		{
			"number": 242031,
			"data": "1,2,3,4,5,6,7,8,9,10,11,12,13,14,15,16,17,19,20,21,22,23,24,25,26,27,28,29,30,31,32,33,34,35,36,37,38,39,40,41,42,43,44,45,46,47,48,49,51,52,53,55,56,57,58,59,60,61,62,63,64,65,66,67,68,69,70,71,72",
			"name": "Numbers n such that prime factorization n = p_1^k_1*p_2^k_2*...*p_r^k_r satisfies k_1 \u003e= k_2 \u003e= ... \u003e= k_r.",
			"comment": [
				"Complement sequence begins 18, 50, 54, 75, 90, 98, ... (A071365)."
			],
			"link": [
				"Jens Kruse Andersen, \u003ca href=\"/A242031/b242031.txt\"\u003eTable of n, a(n) for n = 1..10000\u003c/a\u003e"
			],
			"example": [
				"12 = 2^2*3^1 is in the sequence, but 18 = 2^1*3^2 is not."
			],
			"maple": [
				"filter:= proc(n)",
				"local F;",
				"F:= ifactors(n)[2];",
				"F:= sort(F,(s,t) -\u003e s[1]\u003et[1]);",
				"ListTools:-Sorted(map(t -\u003e t[2],F));",
				"end:",
				"select(filter, [$1..100]); # _Robert Israel_, Aug 18 2014"
			],
			"mathematica": [
				"Select[Range[100], GreaterEqual @@ (FactorInteger[#][[All, 2]]) \u0026]"
			],
			"program": [
				"(PARI) s=[]; for(n=1, 10^3, m=factor(n)[,2]; if(vecsort(m,,4)==m, s=concat(s, n))); s \\\\ _Jens Kruse Andersen_, Aug 18 2014"
			],
			"xref": [
				"Cf. A071365, A304686 (strictly decreasing)."
			],
			"keyword": "nonn",
			"offset": "1,2",
			"author": "_Jean-François Alcover_, Aug 14 2014",
			"references": 19,
			"revision": 50,
			"time": "2020-07-11T23:45:24-04:00",
			"created": "2014-08-18T16:35:22-04:00"
		}
	]
}