{
	"greeting": "Greetings from The On-Line Encyclopedia of Integer Sequences! http://oeis.org/",
	"query": "id:A242094",
	"count": 1,
	"start": 0,
	"results": [
		{
			"number": 242094,
			"data": "1,2,3,4,5,6,7,9,10,11,12,13,14,15,16,17,18,19,20,22,23,24,25,26,27,28,30,31,32,33,34,35,36,37,38,39,40,41,43,44,45,46,47,48,49,51,52,53,54,56,57,58,59,60,61,62,64,65,66,67,68,69,70,71,72,73,74",
			"name": "Complement of A003249.",
			"comment": [
				"This is the function named u in [Carlitz].",
				"First differs from A187947 at a(46)=51."
			],
			"link": [
				"L. Carlitz, R. Scoville and T. Vaughan, \u003ca href=\"http://www.fq.math.ca/Scanned/11-4/carlitz.pdf\"\u003eSome arithmetic functions related to Fibonacci numbers\u003c/a\u003e, Fib. Quart., 11 (1973), 337-386."
			],
			"program": [
				"(Haskell)",
				"a242094 n = a242094_list !! (n-1)",
				"a242094_list = c [1..] a003249_list where",
				"   c (v:vs) ws'@(w:ws) = if v == w then c vs ws else v : c vs ws'",
				"-- _Reinhard Zumkeller_, Oct 03 2014"
			],
			"xref": [
				"Cf. A003249."
			],
			"keyword": "nonn",
			"offset": "1,2",
			"author": "_Eric M. Schmidt_, Aug 14 2014",
			"references": 7,
			"revision": 12,
			"time": "2014-10-05T02:23:54-04:00",
			"created": "2014-08-18T00:36:23-04:00"
		}
	]
}