{
	"greeting": "Greetings from The On-Line Encyclopedia of Integer Sequences! http://oeis.org/",
	"query": "id:A242990",
	"count": 1,
	"start": 0,
	"results": [
		{
			"number": 242990,
			"data": "9,21,41,101,143,171,249,251,297,329,333,347,357,489,509,531,537,557,569,611,629,653,657,669,731,773,821,843,861,941,957,983,993,1133,1143,1209,1229,1239,1313,1361,1409,1427,1451,1497,1539,1647,1673,1791,1833",
			"name": "Numbers n such that concatenating 1 with five instances of n produces a prime.",
			"link": [
				"Jens Kruse Andersen, \u003ca href=\"/A242990/b242990.txt\"\u003eTable of n, a(n) for n = 1..10000\u003c/a\u003e"
			],
			"example": [
				"143 is included because 1143143143143143 is a prime."
			],
			"mathematica": [
				"cQ[n_,i_]:=Module[{idn=IntegerDigits[n]},PrimeQ[FromDigits[Flatten[Join[ {1},Table[ idn,{i}]]]]]]; Select[Range[2000],cQ[#,5]\u0026]"
			],
			"program": [
				"(Python)",
				"from sympy import isprime",
				"for n in range(2*10**3):",
				"..if isprime(int('1'+5*str(n))):",
				"....print(n,end=', ')",
				"# _Derek Orr_, Aug 17 2014",
				"(PARI) s=[]; for(n=1, 10^4, d=length(Str(n)); if(isprime(10^(5*d)+(10^(5*d)-1)/(10^d-1)*n), s=concat(s, n))); s \\\\ _Jens Kruse Andersen_, Aug 18 2014"
			],
			"xref": [
				"Cf. A242987, A242988, A242989."
			],
			"keyword": "nonn,base,easy",
			"offset": "1,1",
			"author": "_Harvey P. Dale_, Aug 17 2014",
			"references": 4,
			"revision": 16,
			"time": "2014-08-19T00:51:43-04:00",
			"created": "2014-08-18T16:36:39-04:00"
		}
	]
}