{
	"greeting": "Greetings from The On-Line Encyclopedia of Integer Sequences! http://oeis.org/",
	"query": "id:A242931",
	"count": 1,
	"start": 0,
	"results": [
		{
			"number": 242931,
			"data": "0,0,6,12,0,30,0,56,0,10,0,132,0,182,0,0,0,306,0,380,0,22,0,552,0,26,0,0,0,870,0,992,0,34,0,0,0,1406,0,0,0,1722,0,1892,0,46,0,2256,0,0,0,0,0,2862,0,8,0,58,0,3540,0,3782,0,0,0,0,0,4556,0,0,0,5112,0,5402",
			"name": "Largest number k such that k*n/(k+n) is prime or 0 if no such k exists.",
			"comment": [
				"Since the largest k that makes k*n/(k+n) an integer is n*(n-1), the zero terms are definite."
			],
			"example": [
				"(6*3)/(6+3) = 2 is prime. Since 6 = 3*(3-1), 6 is the largest number that makes k*n/(k+n) an integer. Thus a(3) = 6."
			],
			"program": [
				"(PARI) a(n)=for(k=n*(1-n),0,s=(-k*n)/(-k+n);if(floor(s)==s,if(ispseudoprime(s),return(-k))))",
				"n=1;while(n\u003c100,print1(a(n),\", \");n+=1)"
			],
			"xref": [
				"Cf. A242834, A002378."
			],
			"keyword": "nonn",
			"offset": "1,3",
			"author": "_Derek Orr_, May 27 2014",
			"references": 0,
			"revision": 7,
			"time": "2014-05-31T00:26:40-04:00",
			"created": "2014-05-28T23:53:30-04:00"
		}
	]
}