{
	"greeting": "Greetings from The On-Line Encyclopedia of Integer Sequences! http://oeis.org/",
	"query": "id:A242667",
	"count": 1,
	"start": 0,
	"results": [
		{
			"number": 242667,
			"data": "1,1,2,0,2,2,1,1,0,2,3,0,2,2,1,1,3,1,1,0,3,1,3,2,0,1,1,2,2,1,2,1,2,4,1,1,1,2,2,1,2,3,2,1,2,2,2,1,1,0,2,1,2,0,4,0,3,2,3,0,3,2,1,1,2,3,2,0,3,3,3,3,1,1,1,1,2,3,2,2",
			"name": "Number of ways of representing n as the sum of one or more consecutive squarefree numbers.",
			"link": [
				"Robert Israel, \u003ca href=\"/A242667/b242667.txt\"\u003eTable of n, a(n) for n = 1..10000\u003c/a\u003e"
			],
			"example": [
				"a(6)=2 because n=6 itself is already a squarefree number (sum of 1 term), and 6 can in addition be written as A005117(1)+ A005117(2)+A005117(3), a sum of 3 consecutive squarefree numbers."
			],
			"maple": [
				"A242667 := proc(n)",
				"    a := 0 ;",
				"    for i from 1 do",
				"        if A005117(i) \u003e n then",
				"            return a;",
				"        end if;",
				"        for k from i do",
				"            su := add(A005117(s),s=i..k) ;",
				"            if su = n then",
				"                a := a+1 ;",
				"            elif su \u003e n then",
				"                break;",
				"            fi ;",
				"        end do:",
				"    end do:",
				"end proc:",
				"seq(A242667(n),n=1..80) ; # _R. J. Mathar_, Jun 12 2014",
				"# Alternative:",
				"N:= 1000:# to get the first N entries",
				"A005117:= select(numtheory:-issqrfree,[$1..N]):",
				"M:= nops(A005117);",
				"A:= Array(1..N):",
				"t0:= 0:",
				"for n from 1 to M-1 do",
				"  t0:= t0 + A005117[n];",
				"  t:= t0;",
				"  for i from 1 while t \u003c= N do",
				"     A[t] := A[t]+1;",
				"     if n+i \u003e M then break fi;",
				"     t:= t + A005117[n+i]-A005117[i];",
				"  od;",
				"od:",
				"seq(A[i],i=1..N); # _Robert Israel_, Jun 25 2014"
			],
			"xref": [
				"Cf. A005117."
			],
			"keyword": "nonn",
			"offset": "1,3",
			"author": "_Irina Gerasimova_, May 20 2014",
			"references": 3,
			"revision": 25,
			"time": "2014-06-25T11:34:14-04:00",
			"created": "2014-06-12T13:03:15-04:00"
		}
	]
}