{
	"greeting": "Greetings from The On-Line Encyclopedia of Integer Sequences! http://oeis.org/",
	"query": "id:A242706",
	"count": 1,
	"start": 0,
	"results": [
		{
			"number": 242706,
			"data": "1,2,4,3,8,5,16,6,7,9,32,10,64,12,11,15,128,13,256,17,14,18,512,19,31,20,21,23,1024,22,2048,24,25,33,47,26,4096,34,28,27,8192,35,16384,29,37,36,32768,30,127,40,38,39,65536,41,55,43,42,48",
			"name": "Inverse permutation to A242705.",
			"xref": [
				"Cf. A242705."
			],
			"keyword": "nonn,base",
			"offset": "1,2",
			"author": "_Paul Tek_, May 21 2014",
			"references": 2,
			"revision": 6,
			"time": "2014-05-21T20:27:51-04:00",
			"created": "2014-05-21T20:27:51-04:00"
		}
	]
}