{
	"greeting": "Greetings from The On-Line Encyclopedia of Integer Sequences! http://oeis.org/",
	"query": "id:A242176",
	"count": 1,
	"start": 0,
	"results": [
		{
			"number": 242176,
			"data": "1,2,91,185,387,488,747,800,9901,10115,12043,13118,30981,51496",
			"name": "Numbers k such that k*6^k + 1 is prime.",
			"link": [
				"G. Loeh, \u003ca href=\"http://guenter.loeh.name/gc/status.html\"\u003eGeneralized Cullen primes\u003c/a\u003e"
			],
			"mathematica": [
				"Select[Range[1500], PrimeQ[# 6^# + 1] \u0026]"
			],
			"program": [
				"(MAGMA) [n: n in [0..1500] | IsPrime(n*6^n+1)];",
				"(PARI) is(n)=ispseudoprime(n*6^n+1) \\\\ _Charles R Greathouse IV_, Feb 17 2017"
			],
			"xref": [
				"Cf. numbers n such that n*k^n + 1 is prime: A005849 (k=2), A006552 (k=3), A007646 (k=4), this sequence (k=6), A242177 (k=7), A242178 (k=8), A007647 (k=10), A242196 (k=12), A242197 (k=14), A242198 (k=15), A242199 (k=16), A007648 (k=18)."
			],
			"keyword": "nonn,more",
			"offset": "1,2",
			"author": "_Vincenzo Librandi_, May 08 2014",
			"ext": [
				"a(9)-a(14) from Loeh's list (see Links) - _Bruno Berselli_, May 08 2014"
			],
			"references": 9,
			"revision": 17,
			"time": "2019-04-08T03:08:36-04:00",
			"created": "2014-05-09T03:01:59-04:00"
		}
	]
}