{
	"greeting": "Greetings from The On-Line Encyclopedia of Integer Sequences! http://oeis.org/",
	"query": "id:A242699",
	"count": 1,
	"start": 0,
	"results": [
		{
			"number": 242699,
			"data": "1,1,2,3,5,7,11,15,22,30,42,56,77,101,135,176,231,288,375,472,598,747,936,1156,1436,1762,2163,2638,3216,3891,4712,5672,6816,8164,9759,11622,13869,16444,19481,23050,27201,32053,37708,44295,51913,60828,71089,83032",
			"name": "Number of partitions of n with difference 8 between the number of odd parts and the number of even parts, both counted without multiplicity.",
			"link": [
				"Alois P. Heinz, \u003ca href=\"/A242699/b242699.txt\"\u003eTable of n, a(n) for n = 64..1000\u003c/a\u003e"
			],
			"xref": [
				"Column k=8 of A242618."
			],
			"keyword": "nonn",
			"offset": "64,3",
			"author": "_Alois P. Heinz_, May 20 2014",
			"references": 2,
			"revision": 4,
			"time": "2014-05-20T16:32:50-04:00",
			"created": "2014-05-20T16:32:50-04:00"
		}
	]
}