{
	"greeting": "Greetings from The On-Line Encyclopedia of Integer Sequences! http://oeis.org/",
	"query": "id:A242890",
	"count": 1,
	"start": 0,
	"results": [
		{
			"number": 242890,
			"data": "8,16,16,16,16,16,24",
			"name": "Beginning with a central 'Star' configuration of a centrally symmetric arrangement of 8 rhombi with 8-fold rotational symmetry, number of tiles that can be added to the free edges of the tiling.",
			"link": [
				"S. Weber, \u003ca href=\"http://www.jcrystal.com/steffenweber/JAVA/jtiling/jtiling.html\"\u003eFourier transform on quasiperiodic point sets\u003c/a\u003e (select '8-fold' with 'shift (n-1)/2n')"
			],
			"xref": [
				"Cf. A242128, A242129, A242888, A242889, A242891, A242892, A242893, A242894, A242895."
			],
			"keyword": "nonn,more",
			"offset": "1,1",
			"author": "_Felix Fröhlich_, May 25 2014",
			"references": 8,
			"revision": 16,
			"time": "2019-06-23T17:48:13-04:00",
			"created": "2014-06-12T11:04:29-04:00"
		}
	]
}