{
	"greeting": "Greetings from The On-Line Encyclopedia of Integer Sequences! http://oeis.org/",
	"query": "id:A242947",
	"count": 1,
	"start": 0,
	"results": [
		{
			"number": 242947,
			"data": "1,2,3,2,5,1,7,2,3,2,11,3,13,2,1,2,17,1,19,2,1,2,23,1,5,2,3,2,29,1,31,2,3,2,1,3,37,2,1,2,41,1,43,2,5,2,47,1,7,2,3,2,53,1,1,2,3,2,59,3,61,2",
			"name": "a(n) = n / A242926(n-1).",
			"comment": [
				"a(n) = n: A008578.",
				"a(2n) = 2, 2, 1, 2, 2, 3, 2, 2, 1, 2, 2, 1, 2, 2, 1, 2, 2, 3,... .",
				"A242926 is the denominator of a super autosequence based on 1/n. See A189731 and A242563."
			],
			"example": [
				"a(1)=1/1, a(2)=2/1=2, a(3)=3/1=3, a(4)=4/2=2, a(5)=5/1=5, a(6)=6/6=1, a(7)=7/1=7, a(8)=8/4=2, ... ."
			],
			"xref": [
				"Cf. A242926, A008578, A189731, A242563."
			],
			"keyword": "nonn",
			"offset": "1,2",
			"author": "_Paul Curtz_, May 27 2014",
			"ext": [
				"Edited by _N. J. A. Sloane_, Jun 12 2014"
			],
			"references": 0,
			"revision": 12,
			"time": "2014-06-12T13:18:44-04:00",
			"created": "2014-06-12T13:18:44-04:00"
		}
	]
}