{
	"greeting": "Greetings from The On-Line Encyclopedia of Integer Sequences! http://oeis.org/",
	"query": "id:A242745",
	"count": 1,
	"start": 0,
	"results": [
		{
			"number": 242745,
			"data": "2,1,2,2,3,3,4,4,3,4,5,4,5,6,5,4,5,6,7,5,6,6,7,6,5,6,7,4,5,6,7,8,9,10,5,6,7,8,9,8,9,6,7,8,5,6,7,8,7,8,6,7,8,6,7,8,9,10,11,10,11,12,7,8,5,6,7,8,9,7,8,8,9,10,11,12,7,6,7,8,9,10,11,12,10,6,7,8,9,9,7",
			"name": "Least k \u003e 0 such that (k!-n!)/(k-n) is an integer.",
			"comment": [
				"a(n) \u003c= n for all n \u003e 1.",
				"Further, n-a(n) is a nondecreasing sequence.",
				"Forward differences never exceed 1. - _Robert G. Wilson v_, Jun 05 2014",
				"a(n) is the least k \u003e 0 such that k!/(n-k) is an integer. Proof: note that it is correct for n \u003c 4. If n \u003e= 4, then a(n) \u003c n - 1 since (n! - (n-2)!)/2 is an integer. n! - k! = k!*(n!/k! - 1) is divisible by n - k and n!/k! - 1 can never be divisible by n - k, where k \u003c n - 1. Therefore, k! is divisible by n - k. - _Jinyuan Wang_, Mar 13 2020"
			],
			"link": [
				"Jinyuan Wang, \u003ca href=\"/A242745/b242745.txt\"\u003eTable of n, a(n) for n = 1..1000\u003c/a\u003e"
			],
			"example": [
				"(5!-1!)/(5-1) = 119/4 is not an integer. (5!-2!)/(5-2) = 118/3 is not an integer. (5!-3!)/(5-3) = 114/2 = 57 is an integer. Thus a(5) = 3."
			],
			"mathematica": [
				"f[n_] := Block[{k = 1}, While[ Mod[k! - n!, k - n] != 0, k++]; k]; f[1] = 2; Array[f, 91] (* _Robert G. Wilson v_, Jun 05 2014 *)"
			],
			"program": [
				"(PARI) a(n)= if(n==1, 2, for(k=1, oo, if(k!%(k-n)==0, return(k)))); \\\\ Modified by _Jinyuan Wang_, Mar 13 2020"
			],
			"keyword": "nonn",
			"offset": "1,1",
			"author": "_Derek Orr_, May 21 2014",
			"references": 1,
			"revision": 17,
			"time": "2020-03-13T08:37:30-04:00",
			"created": "2014-05-22T15:42:42-04:00"
		}
	]
}