{
	"greeting": "Greetings from The On-Line Encyclopedia of Integer Sequences! http://oeis.org/",
	"query": "id:A243210",
	"count": 1,
	"start": 0,
	"results": [
		{
			"number": 243210,
			"data": "0,11,266,2344,12907,53307,180876,530654,1391647,3335627,7426885,15544434,30867669,58574800,106838511,188190111,321383808,533857914",
			"name": "Number of inequivalent (mod D_3) ways to place 5 points on a triangular grid of side n so that no three of them are vertices of an equilateral triangle with sides parallel to the grid.",
			"formula": [
				"a(n) = (n^10 + 5*n^9 - 10*n^8 - 195*n^7)/23040 + O(n^6)"
			],
			"xref": [
				"Cf. A243207, A243214, A001399, A227327, A243208, A243209."
			],
			"keyword": "nonn,more",
			"offset": "3,2",
			"author": "_Heinrich Ludwig_, Jun 10 2014",
			"references": 4,
			"revision": 7,
			"time": "2014-06-13T12:06:30-04:00",
			"created": "2014-06-13T12:06:30-04:00"
		}
	]
}