{
	"greeting": "Greetings from The On-Line Encyclopedia of Integer Sequences! http://oeis.org/",
	"query": "id:A243291",
	"count": 1,
	"start": 0,
	"results": [
		{
			"number": 243291,
			"data": "1,1,1,3,2,4,3,7,7,7,6,10,7,10,12,15,10,16,11,17,17,17,14,22,22,20,25,24,19,27,20,31,28,27,31,34,25,30,33,37,28,38,29,39,42,37,32,46,45,47,44,46,37,52,50,52,49,48,42,57,43,51,59,63,59,61,48,61,60",
			"name": "Difference between n and the index of its largest prime factor: a(n) = n - A061395(n).",
			"comment": [
				"All terms are strictly positive because A006530(n) \u003c= n, A049084(n) \u003c n and thus A061395(n) \u003c n. [As A061395(n) = A049084(A006530(n))].",
				"Please see also the comments at A243289."
			],
			"link": [
				"Antti Karttunen, \u003ca href=\"/A243291/b243291.txt\"\u003eTable of n, a(n) for n = 1..8192\u003c/a\u003e"
			],
			"formula": [
				"a(n) = n - A061395(n).",
				"For n \u003e 1, a(2^n) = (2^n)-1."
			],
			"program": [
				"(Scheme) (define (A243291 n) (- n (A061395 n)))"
			],
			"xref": [
				"Cf. A006530, A049084, A061395, A243289, A243290."
			],
			"keyword": "nonn",
			"offset": "1,4",
			"author": "_Antti Karttunen_, Jun 04 2014",
			"references": 4,
			"revision": 11,
			"time": "2014-06-05T10:16:40-04:00",
			"created": "2014-06-05T01:33:35-04:00"
		}
	]
}