{
	"greeting": "Greetings from The On-Line Encyclopedia of Integer Sequences! http://oeis.org/",
	"query": "id:A243014",
	"count": 1,
	"start": 0,
	"results": [
		{
			"number": 243014,
			"data": "1,1,3,13,61,321,1951,13693,109593,986401,9864091,108505101,1302061333,16926797473,236975164791,3554627472061,56874039553201,966858672404673,17403456103284403,330665665962403981,6613313319248079981,138879579704209680001",
			"name": "Number of acyclic digraphs (DAGS) on n labeled nodes, where the indegree and outdegree of each node is at most 1.",
			"comment": [
				"a(n) is the number of acyclic digraphs (DAGS) on n labeled nodes, where the indegree and outdegree of each node is at most 1. For example, with vertex set {A,B,C} the possible ways are: one 3-component graph {A,B,C}, six 2-component graph {{A-\u003eB,C},{B-\u003eA,C},{A-\u003eC,B},{C-\u003eA,B},{C-\u003eB,A},{B-\u003eC,A}}, and six 1-component graph {{A-\u003eB-\u003eC},{B-\u003eA-\u003eC},{A-\u003eC-\u003eB},{C-\u003eA-\u003eB},{C-\u003eB-\u003eA},{B-\u003eC-\u003eA}}."
			],
			"link": [
				"Alois P. Heinz, \u003ca href=\"/A243014/b243014.txt\"\u003eTable of n, a(n) for n = 0..449\u003c/a\u003e",
				"Eric Weisstein's World of Mathematics, \u003ca href=\"http://mathworld.wolfram.com/AcyclicDigraph.html\"\u003eAcyclic Digraph.\u003c/a\u003e",
				"\u003ca href=\"/index/Di#digraphs\"\u003eIndex entries for sequences related to digraphs (or directed graphs)\u003c/a\u003e"
			],
			"formula": [
				"a(n) = (n!*Sum(1/k!))+1, k=0..n-2.",
				"a(n) = (n*(a(n-1)+n-2))+1,  for n\u003e1, a(1)=1.",
				"a(n) = A038154(n)+1.",
				"E.g.f.: exp(x)*(x^2-x+1)/(1-x). - _Alois P. Heinz_, Aug 21 2017"
			],
			"program": [
				"(MATLAB) @(n)(factorial(n)*sum(1./(factorial(0:n-2)))+1)"
			],
			"xref": [
				"Cf. A003024, A038154."
			],
			"keyword": "nonn",
			"offset": "0,3",
			"author": "_Shuaib Ahmed S_, May 29 2014",
			"ext": [
				"a(0)=1 prepended, one term corrected, more terms added by _Alois P. Heinz_, Aug 21 2017"
			],
			"references": 2,
			"revision": 37,
			"time": "2017-08-21T18:43:22-04:00",
			"created": "2014-06-02T09:03:17-04:00"
		}
	]
}