{
	"greeting": "Greetings from The On-Line Encyclopedia of Integer Sequences! http://oeis.org/",
	"query": "id:A243744",
	"count": 1,
	"start": 0,
	"results": [
		{
			"number": 243744,
			"data": "1,0,0,0,0,0,0,0,0,1,10,55,220,715,2002,5005,11440,24310,48621,92388,168025,294260,498850,822712,1327029,2107325,3324750,5280276,8595025,14648920,26637015,52076915,108669142,237787000,535084341,1219016810,2782344676",
			"name": "Number of compositions of n with exactly nine occurrences of the largest part.",
			"link": [
				"Joerg Arndt and Alois P. Heinz, \u003ca href=\"/A243744/b243744.txt\"\u003eTable of n, a(n) for n = 9..650\u003c/a\u003e"
			],
			"maple": [
				"b:= proc(n, p, i) option remember; `if`(n=0, p!,",
				"      `if`(i\u003c1, 0, add(b(n-i*j, p+j, i-1)/j!, j=0..n/i)))",
				"    end:",
				"a:= proc(n) local k; k:=9;",
				"      add(b(n-i*k, k, i-1)/k!, i=1..n/k)",
				"    end:",
				"seq(a(n), n=9..50);"
			],
			"mathematica": [
				"b[n_, p_, i_] := b[n, p, i] = If[n == 0, p!, If[i\u003c1, 0, Sum[b[n-i*j, p+j, i-1]/j!, {j, 0, n/i}]]]; a[n_] := (k=9; Sum[b[n-i*k, k, i-1]/k!, {i, 1, n/k}]); Table[a[n], {n, 9, 50}] (* _Jean-François Alcover_, Feb 10 2015, after Maple *)"
			],
			"xref": [
				"Column k=9 of A238341."
			],
			"keyword": "nonn",
			"offset": "9,11",
			"author": "_Joerg Arndt_ and _Alois P. Heinz_, Jun 09 2014",
			"references": 2,
			"revision": 7,
			"time": "2015-02-10T04:01:06-05:00",
			"created": "2014-06-09T17:09:44-04:00"
		}
	]
}