{
	"greeting": "Greetings from The On-Line Encyclopedia of Integer Sequences! http://oeis.org/",
	"query": "id:A243022",
	"count": 1,
	"start": 0,
	"results": [
		{
			"number": 243022,
			"data": "-1,1,2,2,7,18,61,198,694,2446,8873,32556,121243,455986,1731459,6625258,25527571,98947914,385587017,1509702496,5936181673,23430706276,92805006308,368747893980,1469408091637,5870927247410",
			"name": "Expansion of -(2*x)/(1-sqrt(1-(2*(1-sqrt(1-4*x^2)))/x)).",
			"formula": [
				"a(n) = sum(i=0..n/2, binomial(n-1,i)*binomial(2*n-4*i-2,n-2*i))/(n-1), n\u003e1, a(0)=-1, a(1)=1.",
				"G.f.: A(x) =-1/(C(x^2)*C(x*C(x^2))), where C(x) is g.f. of A000108.",
				"a(n) ~ 4*(17/4)^n / (sqrt(255*Pi) * n^(3/2)). - _Vaclav Kotesovec_, Jun 15 2014",
				"Conjecture D-finite with recurrence: +2*n*(n-1)*(2*n-3)*(5*n-12)*a(n) -(n-1)*(85*n^3-459*n^2+776*n-400)*a(n-1) +4*(-40*n^4+396*n^3-1455*n^2+2324*n-1360)*a(n-2) +4*(n-4)*(170*n^3-1258*n^2+3003*n-2185)*a(n-3) +16*(n-4)*(n-5)*(20*n^2-118*n+143)*a(n-4) -272*(n-4)*(n-5)*(n-6)*(5*n-7)*a(n-5)=0. - _R. J. Mathar_, Jul 15 2017"
			],
			"mathematica": [
				"CoefficientList[Series[2*x/(-1 + Sqrt[(-2 + x + 2*Sqrt[1-4*x^2])/x]), {x, 0, 20}], x] (* _Vaclav Kotesovec_, Jun 15 2014 *)"
			],
			"program": [
				"(Maxima)",
				"a(n):=if n=0 then -1 else if n=1 then 1 else sum(binomial(n-1,i)*binomial(2*n-4*i-2,n-2*i),i,0,n/2)/(n-1);",
				"(PARI) a(n) = if (n==0, -1, if (n==1, 1, sum(k=0, n\\2, binomial(n-1, k)*binomial(2*n-4*k-2, n-2*k))/(n-1))); \\\\ _Michel Marcus_, Jun 10 2014"
			],
			"xref": [
				"Cf. A000108."
			],
			"keyword": "sign",
			"offset": "0,3",
			"author": "_Vladimir Kruchinin_, Jun 09 2014",
			"references": 0,
			"revision": 29,
			"time": "2020-01-30T21:29:17-05:00",
			"created": "2014-06-11T21:30:02-04:00"
		}
	]
}