{
	"greeting": "Greetings from The On-Line Encyclopedia of Integer Sequences! http://oeis.org/",
	"query": "id:A243363",
	"count": 1,
	"start": 0,
	"results": [
		{
			"number": 243363,
			"data": "203457869,203465789,203465897,203468579,203475869,203478659,203485697,203485769,203495867,203548967,203564897,203568947,203574689,203584679,203584769,203594687,203596847,203598467,203645879,203645987,203648957,203654987,203659487,203674589",
			"name": "Numbers with divisors containing all the digits 0-9 and each digit appears exactly once (in base 10).",
			"comment": [
				"Primes made up of distinct digits except 1.",
				"There are no composite numbers with divisors containing all the digits 0-9 and each digit appears exactly once.",
				"Subsequence of A029743 (primes with distinct digits).",
				"Numbers n such that A243360(n) = 9876543210.",
				"Sequence contains 19558 terms, the last term is a(19558) = 987625403."
			],
			"mathematica": [
				"Select[Range[203*10^6,204*10^6],Sort[Flatten[IntegerDigits/@ Divisors[#]]] == Range[0,9]\u0026] (* _Harvey P. Dale_, Aug 22 2016 *)"
			],
			"program": [
				"(MAGMA) [n: n in [1..1000000] | Seqint(Sort(\u0026cat[(Intseq(k)): k in Divisors(n)])) eq 9876543210]"
			],
			"xref": [
				"Cf. A037278, A176558, A243360, A243361, A243362, A243364."
			],
			"keyword": "nonn,base,fini",
			"offset": "1,1",
			"author": "_Jaroslav Krizek_, Jun 04 2014",
			"references": 5,
			"revision": 10,
			"time": "2016-08-22T10:44:11-04:00",
			"created": "2014-06-12T20:51:59-04:00"
		}
	]
}