{
	"greeting": "Greetings from The On-Line Encyclopedia of Integer Sequences! http://oeis.org/",
	"query": "id:A243802",
	"count": 1,
	"start": 0,
	"results": [
		{
			"number": 243802,
			"data": "1,1,6,95,3043,167342,14175447,1715544861,280986929888,59828264507385,16056622678756319,5300955907062294008,2110872493413444115109,997542435957462115205773,551887323312314977683048334,353334615697796170374209624907,259179558930246734075836153918127",
			"name": "E.g.f.: exp( Sum_{n\u003e=1} (exp(n*x) - 1)^n / n ).",
			"comment": [
				"Compare to: exp( Sum_{n\u003e=1} (exp(x) - 1)^n/n ) = 1/(2-exp(x)), the e.g.f. of Fubini numbers (A000670)."
			],
			"link": [
				"Vaclav Kotesovec, \u003ca href=\"/A243802/b243802.txt\"\u003eTable of n, a(n) for n = 0..200\u003c/a\u003e"
			],
			"formula": [
				"a(n) ~ c * d^n * (n!)^2 / n^(3/2), where d = A317855 = (1+exp(1/r))*r^2 = 3.161088653865428813830172202588132491..., r = 0.873702433239668330496568304720719298... is the root of the equation exp(1/r)/r + (1+exp(1/r)) * LambertW(-exp(-1/r)/r) = 0, and c = 0.37498840921734807101035131780130551... . - _Vaclav Kotesovec_, Aug 21 2014"
			],
			"example": [
				"E.g.f.: A(x) = 1 + x + 6*x^2/2! + 95*x^3/3! + 3043*x^4/4! + 167342*x^5/5! +..."
			],
			"program": [
				"(PARI) {a(n) = n!*polcoeff( exp( sum(m=1,n+1, (exp(m*x +x*O(x^n)) - 1)^m / m) ), n)}",
				"for(n=0,20,print1(a(n),\", \"))"
			],
			"xref": [
				"Cf. A244585, A244437."
			],
			"keyword": "nonn",
			"offset": "0,3",
			"author": "_Paul D. Hanna_, Aug 21 2014",
			"references": 4,
			"revision": 16,
			"time": "2018-08-09T09:47:26-04:00",
			"created": "2014-08-21T06:33:37-04:00"
		}
	]
}