{
	"greeting": "Greetings from The On-Line Encyclopedia of Integer Sequences! http://oeis.org/",
	"query": "id:A243891",
	"count": 1,
	"start": 0,
	"results": [
		{
			"number": 243891,
			"data": "233,389,653,953,1061,1289,1409,2069,2213,4253,4649,5273,6869,8933,9209,10061,10949,13829,15569,16661,17033,17789,24413,26693,28109,32573,35729,36269,37361,42473,44249,46061,48533,51713,52361,55661,56333,57689,59753",
			"name": "Primes of the form 2*n^2 + 62*n + 29.",
			"comment": [
				"Subsequence of A040117.",
				"Conjecture: except 4253, 2^a(n) - 1 is not prime; in other words, these primes are included in A054723.",
				"2*a(n) + 903 is a square. - _Vincenzo Librandi_, Jun 29 2016"
			],
			"link": [
				"Vincenzo Librandi, \u003ca href=\"/A243891/b243891.txt\"\u003eTable of n, a(n) for n = 1..1000\u003c/a\u003e"
			],
			"mathematica": [
				"Select[Table[2 n^2 + 62 n + 29, {n, 200}], PrimeQ]"
			],
			"program": [
				"(MAGMA) [a: n in [1..200] | IsPrime(a) where a is 2*n^2+62*n+29];"
			],
			"xref": [
				"Cf. A040117.",
				"Cf. similar sequences listed in A243888."
			],
			"keyword": "nonn,easy",
			"offset": "1,1",
			"author": "_Vincenzo Librandi_, Jun 16 2014",
			"references": 2,
			"revision": 12,
			"time": "2016-06-29T02:35:18-04:00",
			"created": "2014-06-18T09:34:51-04:00"
		}
	]
}