{
	"greeting": "Greetings from The On-Line Encyclopedia of Integer Sequences! http://oeis.org/",
	"query": "id:A243171",
	"count": 1,
	"start": 0,
	"results": [
		{
			"number": 243171,
			"data": "0,2,5,7,8,13,18,20,28,32,37,45,47,50,52,58,63,67,70,72,73,80,83,97,98,112,117,122,125,128,130,137,145,148,158,162,163,167,175,180,182,188,193,197,200,202,203,208,223,227,232,242,245,252,262,268,278,280,288,292,293,305,317,320,325,332,333,338,343,353,358,362,370,377,382,383",
			"name": "Nonnegative integers of the form 2x^2+5xy-5y^2.",
			"comment": [
				"Discriminant 65."
			],
			"link": [
				"N. J. A. Sloane et al., \u003ca href=\"https://oeis.org/wiki/Binary_Quadratic_Forms_and_OEIS\"\u003eBinary Quadratic Forms and OEIS\u003c/a\u003e (Index to related sequences, programs, references)"
			],
			"xref": [
				"Primes in this sequence = A141112."
			],
			"keyword": "nonn",
			"offset": "1,2",
			"author": "_N. J. A. Sloane_, Jun 01 2014",
			"references": 0,
			"revision": 7,
			"time": "2014-06-08T11:19:48-04:00",
			"created": "2014-06-01T11:31:55-04:00"
		}
	]
}