{
	"greeting": "Greetings from The On-Line Encyclopedia of Integer Sequences! http://oeis.org/",
	"query": "id:A243086",
	"count": 1,
	"start": 0,
	"results": [
		{
			"number": 243086,
			"data": "1,1,2,4,8,16,32,64,128,255,511,1013,2026,4007,7969,15728,31081,61127,120063,234991,458813,892999,1733063,3352924,6466805,12432745,23825009,45552282,86701276,164516870,311753791,587855120,1104493663,2072926133,3874661542",
			"name": "Number of compositions of n into parts with multiplicity not larger than 8.",
			"comment": [
				"Number of compositions of n avoiding the pattern {1}^9."
			],
			"link": [
				"Alois P. Heinz, \u003ca href=\"/A243086/b243086.txt\"\u003eTable of n, a(n) for n = 0..1000\u003c/a\u003e"
			],
			"maple": [
				"b:= proc(n, i, p) option remember; `if`(n=0, p!, `if`(i\u003c1, 0,",
				"      add(b(n-i*j, i-1, p+j)/j!, j=0..min(n/i, 8))))",
				"    end:",
				"a:= n-\u003e b(n$2, 0):",
				"seq(a(n), n=0..50);"
			],
			"xref": [
				"Column k=8 of A243081."
			],
			"keyword": "nonn",
			"offset": "0,3",
			"author": "_Alois P. Heinz_, May 29 2014",
			"references": 4,
			"revision": 5,
			"time": "2014-05-29T16:59:27-04:00",
			"created": "2014-05-29T16:59:27-04:00"
		}
	]
}