{
	"greeting": "Greetings from The On-Line Encyclopedia of Integer Sequences! http://oeis.org/",
	"query": "id:A243946",
	"count": 1,
	"start": 0,
	"results": [
		{
			"number": 243946,
			"data": "1,7,91,1345,20995,337877,5544709,92234527,1549694195,26237641045,446925926881,7650344197987,131489964887341,2267722252458475,39224201631222475,680160975405238145,11820134678459908115,205812328555924135045,3589742656727603141425,62707329988264214752675",
			"name": "Expansion of sqrt( (1+x + sqrt(1-18*x+x^2)) / (2*(1-18*x+x^2)) ).",
			"comment": [
				"Square each term to form a bisection of A243945.",
				"Limit a(n+1)/a(n) = 9 + 4*sqrt(5)."
			],
			"link": [
				"Seiichi Manyama, \u003ca href=\"/A243946/b243946.txt\"\u003eTable of n, a(n) for n = 0..500\u003c/a\u003e"
			],
			"formula": [
				"a(n)^2 = Sum_{k=0..2*n} C(2*k, k)^2 * C(2*n+k, 2*n-k).",
				"a(n) ~ sqrt(2+sqrt(5)) * (9+4*sqrt(5))^n / (2*sqrt(2*Pi*n)). - _Vaclav Kotesovec_, Aug 18 2014. Equivalently, a(n) ~ phi^(6*n + 3/2) / (2*sqrt(2*Pi*n)), where phi = A001622 is the golden ratio. - _Vaclav Kotesovec_, Dec 08 2021",
				"From _Peter Bala_, Mar 14 2018: (Start)",
				"a(n) = P(2*n,sqrt(5)), where P(n,x) denotes the n-th Legendre polynomial. See A008316.",
				"a(n) = (1/C(2*n,n))*Sum_{k = 0..n} C(n,k)*C(n+k,k)* C(2*n+2*k,n+k). In general, P(2*n,sqrt(1 + 4*x)) = (1/C(2*n,n))*Sum_{k=0..n} C(n,k)*C(n+k,k)*C(2*n+2*k,n+k)*x^k.",
				"a(n) = Sum_{k = 0..2*n} C(2*n,k)^2 * phi^(2*n-2*k), where phi = (sqrt(5) + 1)/2.",
				"a(n) = Sum_{k = 0..2*n} C(2*n,k)*C(2*n+k,k)*Phi^k, where Phi = (sqrt(5) - 1)/2. (End)",
				"a(n) = hypergeom([-n, n + 1/2], [1], -4). - _Peter Luschny_, Mar 16 2018",
				"Conjecture D-finite with recurrence: n*(2*n-1)*(4*n-5)*a(n) -(4*n-3)*(36*n^2-54*n+11)*a(n-1) +(n-1)*(4*n-1)*(2*n-3)*a(n-2)=0. - _R. J. Mathar_, Jan 20 2020",
				"a(n) = Sum_{k=0..n} 5^(n-k) * binomial(2*k,k) * binomial(2*n,2*k). - _Seiichi Manyama_, Aug 25 2020"
			],
			"example": [
				"G.f.: A(x) = 1 + 7*x + 91*x^2 + 1345*x^3 + 20995*x^4 + 337877*x^5 + ...,",
				"where A(x)^2 = (1+x + sqrt(1-18*x+x^2)) / (2*(1-18*x+x^2))."
			],
			"maple": [
				"seq(add(binomial(n,k)*binomial(n+k,k)*binomial(2*n+2*k,n+k), k = 0..n)/binomial(2*n,n), n = 0..20); # _Peter Bala_, Mar 14 2018"
			],
			"mathematica": [
				"a[n_] := Hypergeometric2F1[-n, n + 1/2, 1, -4];",
				"Table[a[n], {n, 0, 19}] (* _Peter Luschny_, Mar 16 2018 *)",
				"CoefficientList[Series[Sqrt[(1+x+Sqrt[1-18x+x^2])/(2(1-18x+x^2))],{x,0,20}],x] (* _Harvey P. Dale_, Dec 26 2019 *)"
			],
			"program": [
				"(PARI) /* From definition: */",
				"{a(n)=polcoeff( sqrt( (1+x + sqrt(1-18*x+x^2 +x*O(x^n))) / (2*(1-18*x+x^2 +x*O(x^n))) ), n)}",
				"for(n=0, 20, print1(a(n), \", \"))",
				"(PARI) /* From a(n) = sqrt( A243945(2*n) ): */",
				"{a(n)=sqrtint( sum(k=0, 2*n, binomial(2*k, k)^2*binomial(2*n+k, 2*n-k)) )}",
				"for(n=0, 20, print1(a(n), \", \"))",
				"(PARI) {a(n) = sum(k=0, n, 5^(n-k)*binomial(2*k, k)*binomial(2*n, 2*k))} \\\\ _Seiichi Manyama_, Aug 25 2020"
			],
			"xref": [
				"Cf. A243945, A243947, A084769, A245926, A008316."
			],
			"keyword": "nonn,easy",
			"offset": "0,2",
			"author": "_Paul D. Hanna_, Aug 17 2014",
			"references": 8,
			"revision": 30,
			"time": "2021-12-08T11:47:48-05:00",
			"created": "2014-08-17T21:50:47-04:00"
		}
	]
}