{
	"greeting": "Greetings from The On-Line Encyclopedia of Integer Sequences! http://oeis.org/",
	"query": "id:A243995",
	"count": 1,
	"start": 0,
	"results": [
		{
			"number": 243995,
			"data": "1,18,96,560,720,1056,1760,2000,3264,7392,30960,50800,172080,173440,9561600,13304064,195522560,1017856448,1026021024,1568010240,2817884160",
			"name": "Fixed points of the function a(n) = phi(sigma(n) - phi(n) - d(n)), where phi(n) is the Euler totient function, sigma(n) the sum of divisors of n and d(n) the number of divisors of n.",
			"comment": [
				"a(22) \u003e 10^10. - _Amiram Eldar_, Jan 27 2019"
			],
			"example": [
				"sigma(96) = 252, phi(96) = 32, d(96) = 12 and phi(252 - 32 - 12) = 96."
			],
			"maple": [
				"with(numtheory): P:=proc(q) local n;",
				"for n from 1 to q do",
				"if phi(sigma(n)-phi(n)-tau(n))=n then print(n);",
				"fi; od; end: P(10^10);"
			],
			"mathematica": [
				"Select[Range[10^4], EulerPhi[DivisorSigma[1, #] - EulerPhi[#] - DivisorSigma[0, #]] == # \u0026] (* _Alonso del Arte_, Jun 18 2014 *)"
			],
			"program": [
				"(PARI) isok(n) = (spd = sigma(n) - eulerphi(n) - numdiv(n)) \u0026\u0026 (eulerphi(spd) == n); \\\\ _Michel Marcus_, Jun 18 2014"
			],
			"xref": [
				"Cf. A000005, A000010, A000203, A077092."
			],
			"keyword": "nonn,more",
			"offset": "1,2",
			"author": "_Paolo P. Lava_, Jun 18 2014",
			"ext": [
				"a(15)-a(16) from _Jens Kruse Andersen_, Jul 23 2014",
				"a(17)-a(21) from _Amiram Eldar_, Jan 27 2019"
			],
			"references": 1,
			"revision": 18,
			"time": "2019-01-27T05:45:50-05:00",
			"created": "2014-07-12T17:50:29-04:00"
		}
	]
}