{
	"greeting": "Greetings from The On-Line Encyclopedia of Integer Sequences! http://oeis.org/",
	"query": "id:A243980",
	"count": 1,
	"start": 0,
	"results": [
		{
			"number": 243980,
			"data": "4,16,32,60,84,132,164,224,276,348,396,508,564,660,756,880,952,1108,1188,1356,1484,1628,1724,1964,2088,2256,2416,2640,2760,3048,3176,3428,3620,3836,4028,4392,4544,4784,5008,5368,5536,5920,6096,6432,6744,7032,7224,7720",
			"name": "Four times the sum of all divisors of all positive integers \u003c= n.",
			"comment": [
				"Also number of \"ON\" cells at n-th stage in a structure which looks like a simple 2-dimensional cellular automaton (see example). The structure is formed by the reflection on the four quadrants from the diagram of the symmetry of sigma in the first quadrant after n-th stage, hence the area in each quadrant equals the area of each wedge and equals A024916(n); the sum of all divisors of all positive integers \u003c= n. For more information about the diagram see A237593 and A237270."
			],
			"link": [
				"Indranil Ghosh, \u003ca href=\"/A243980/b243980.txt\"\u003eTable of n, a(n) for n = 1..7342\u003c/a\u003e"
			],
			"formula": [
				"a(n) = A016742(n) - 4*A004125(n) = 4*A024916(n).",
				"a(n) = 2*(A006218(n) + A222548(n)) = 2*A327329(n). - _Omar E. Pol_, Sep 25 2019"
			],
			"example": [
				"Illustration of the structure after 16 stages (contains 880 ON cells):",
				".                 _ _ _ _ _ _ _ _ _ _ _ _ _ _ _ _ _ _",
				".                |  _ _ _ _ _ _ _ _ _ _ _ _ _ _ _ _  |",
				".                | |_ _ _ _ _ _ _ _ _ _ _ _ _ _ _ _| |",
				".             _ _| |  _ _ _ _ _ _ _ _ _ _ _ _ _ _  | |_ _",
				".           _|  _ _| |_ _ _ _ _ _ _ _ _ _ _ _ _ _| |_ _  |_",
				".         _|  _|  _| |  _ _ _ _ _ _ _ _ _ _ _ _  | |_  |_  |_",
				".        |  _|   |_ _| |_ _ _ _ _ _ _ _ _ _ _ _| |_ _|   |_  |",
				".   _ _ _| |  _ _|     |  _ _ _ _ _ _ _ _ _ _  |     |_ _  | |_ _ _",
				".  |  _ _ _|_| |      _| |_ _ _ _ _ _ _ _ _ _| |_      | |_|_ _ _  |",
				".  | | |  _ _ _|    _|_ _|  _ _ _ _ _ _ _ _  |_ _|_    |_ _ _  | | |",
				".  | | | | |  _ _ _| |  _| |_ _ _ _ _ _ _ _| |_  | |_ _ _  | | | | |",
				".  | | | | | | |  _ _|_|  _|  _ _ _ _ _ _  |_  |_|_ _  | | | | | | |",
				".  | | | | | | | | |  _ _|   |_ _ _ _ _ _|   |_ _  | | | | | | | | |",
				".  | | | | | | | | | | |  _ _|  _ _ _ _  |_ _  | | | | | | | | | | |",
				".  | | | | | | | | | | | | |  _|_ _ _ _|_  | | | | | | | | | | | | |",
				".  | | | | | | | | | | | | | | |  _ _  | | | | | | | | | | | | | | |",
				".  | | | | | | | | | | | | | | | |   | | | | | | | | | | | | | | | |",
				".  | | | | | | | | | | | | | | | |_ _| | | | | | | | | | | | | | | |",
				".  | | | | | | | | | | | | | |_|_ _ _ _|_| | | | | | | | | | | | | |",
				".  | | | | | | | | | | | |_|_  |_ _ _ _|  _|_| | | | | | | | | | | |",
				".  | | | | | | | | | |_|_    |_ _ _ _ _ _|    _|_| | | | | | | | | |",
				".  | | | | | | | |_|_ _  |_  |_ _ _ _ _ _|  _|  _ _|_| | | | | | | |",
				".  | | | | | |_|_ _  | |_  |_ _ _ _ _ _ _ _|  _| |  _ _|_| | | | | |",
				".  | | | |_|_ _    |_|_ _| |_ _ _ _ _ _ _ _| |_ _|_|    _ _|_| | | |",
				".  | |_|_ _ _  |     |_  |_ _ _ _ _ _ _ _ _ _|  _|     |  _ _ _|_| |",
				".  |_ _ _  | |_|_      | |_ _ _ _ _ _ _ _ _ _| |      _|_| |  _ _ _|",
				".        | |_    |_ _  |_ _ _ _ _ _ _ _ _ _ _ _|  _ _|    _| |",
				".        |_  |_  |_  | |_ _ _ _ _ _ _ _ _ _ _ _| |  _|  _|  _|",
				".          |_  |_ _| |_ _ _ _ _ _ _ _ _ _ _ _ _ _| |_ _|  _|",
				".            |_ _  | |_ _ _ _ _ _ _ _ _ _ _ _ _ _| |  _ _|",
				".                | |_ _ _ _ _ _ _ _ _ _ _ _ _ _ _ _| |",
				".                | |_ _ _ _ _ _ _ _ _ _ _ _ _ _ _ _| |",
				".                |_ _ _ _ _ _ _ _ _ _ _ _ _ _ _ _ _ _|",
				"."
			],
			"mathematica": [
				"Accumulate[4*DivisorSigma[1,Range[50]]] (* _Harvey P. Dale_, May 13 2018 *)"
			],
			"xref": [
				"Partial sums of A239050.",
				"Partial sums give A244050.",
				"Cf. A000203, A000290, A004125, A016742, A024916, A175254, A196020, A235791, A236104, A237270, A237271, A237591, A237593, A239660, A239931-A239934."
			],
			"keyword": "nonn",
			"offset": "1,1",
			"author": "_Omar E. Pol_, Jun 18 2014",
			"references": 10,
			"revision": 29,
			"time": "2019-10-14T11:49:24-04:00",
			"created": "2014-09-30T15:54:04-04:00"
		}
	]
}