{
	"greeting": "Greetings from The On-Line Encyclopedia of Integer Sequences! http://oeis.org/",
	"query": "id:A244541",
	"count": 1,
	"start": 0,
	"results": [
		{
			"number": 244541,
			"data": "1,2,3,4,101,202,247,252,303,348,404,505,606,707,808,843,909,1001,2002,3003,4004,5005,6006,7007,8008,9009,10001,10101,10201,10301,10401,10501,10601,10701,10801,10901,11011,12021,13031,14041,15051,15451,16061,17071,18081,19091,20002",
			"name": "Numbers n such that n +/- the product of digits of n are both palindromes.",
			"example": [
				"252 + 2*5*2 = 272, a palindrome, and 252 - 2*5*2 = 232, also a palindrome. Thus 252 is a member of this sequence."
			],
			"program": [
				"(PARI) rev(n)={r=\"\";for(i=1,#digits(n),r=concat(Str(digits(n)[i]),r));return(eval(r))}",
				"for(n=1,10^5,dig=digits(n);p=prod(k=1,#dig,dig[k]);mi=n-p;ma=n+p;if(rev(mi)==mi\u0026\u0026rev(ma)==ma,print1(n,\", \")))"
			],
			"xref": [
				"Cf. A007954, A229546, A229547."
			],
			"keyword": "nonn,base",
			"offset": "1,2",
			"author": "_Derek Orr_, Jun 29 2014",
			"references": 2,
			"revision": 4,
			"time": "2014-06-29T22:09:02-04:00",
			"created": "2014-06-29T22:09:02-04:00"
		}
	]
}