{
	"greeting": "Greetings from The On-Line Encyclopedia of Integer Sequences! http://oeis.org/",
	"query": "id:A244046",
	"count": 1,
	"start": 0,
	"results": [
		{
			"number": 244046,
			"data": "1,5,4,4,9,4,1,7,0,0,3,7,1,5,9,3,1,5,4,1,8,5,0,9,6,8,3,8,4,7,0,6,2,6,5,8,0,2,4,7,3,6,0,8,2,8,4,0,0,6,7,4,1,7,4,0,8,0,5,1,5,9,4,9,4,3,7,0,0,9,9,5,7,4,2,3,0,0,6,9,8,6,0,6,6,9,0,7,3,8,5,0,8,0,6,1,7,9,7,3,6,3,9,3,7",
			"name": "Decimal expansion of the maximal width of a Reuleaux triangle avoiding all vertices of the integer square lattice.",
			"reference": [
				"Steven R. Finch, Mathematical Constants, Cambridge University Press, 2003, Section 8.10 Reuleaux triangle constants, p. 515."
			],
			"link": [
				"Eric Weisstein's MathWorld, \u003ca href=\"http://mathworld.wolfram.com/ReuleauxTriangle.html\"\u003eReuleaux Triangle\u003c/a\u003e",
				"Wikipedia, \u003ca href=\"http://en.wikipedia.org/wiki/Reuleaux_triangle\"\u003eReuleaux Triangle\u003c/a\u003e"
			],
			"formula": [
				"Smallest positive root of 4*x^6 - 12*x^5 + x^4 + 22*x^3 - 14*x^2 - 4*x + 4."
			],
			"example": [
				"1.54494170037159315418509683847062658..."
			],
			"mathematica": [
				"w = Root[4*x^6 - 12*x^5 + x^4 + 22*x^3 - 14*x^2 - 4*x + 4, x, 3]; RealDigits[w, 10, 105] // First"
			],
			"xref": [
				"Cf. A060708, A066666, A137615."
			],
			"keyword": "nonn,cons",
			"offset": "1,2",
			"author": "_Jean-François Alcover_, Jun 18 2014",
			"references": 1,
			"revision": 6,
			"time": "2014-06-18T08:49:23-04:00",
			"created": "2014-06-18T08:49:23-04:00"
		}
	]
}