{
	"greeting": "Greetings from The On-Line Encyclopedia of Integer Sequences! http://oeis.org/",
	"query": "id:A244562",
	"count": 1,
	"start": 0,
	"results": [
		{
			"number": 244562,
			"data": "78557,2191531,2510177,2576089,7134623,7696009,8184977,10275229,10391933,11201161,12151397,12384413,12756019,13065289,13085029,15168739,16391273,18140153,18156631,19436611,19558853,20312899,20778931,21610427",
			"name": "Odd integers n such that for every integer k\u003e0, n*2^k+1 has a divisor in the set { 3, 5, 7, 13, 19, 37, 73 }.",
			"comment": [
				"For n \u003e 144 a(n) = a(n-144) + 140100870, the first 144 values are in the table."
			],
			"link": [
				"Pierre CAMI, \u003ca href=\"/A244562/b244562.txt\"\u003eTable of n, a(n) for n = 1..144\u003c/a\u003e"
			],
			"formula": [
				"For n \u003e 144 a(n) = a(n-144) + 140100870."
			],
			"xref": [
				"Cf. A076336, A244071, A244561."
			],
			"keyword": "nonn",
			"offset": "1,1",
			"author": "_Pierre CAMI_, Jun 30 2014",
			"references": 6,
			"revision": 10,
			"time": "2014-07-12T16:31:17-04:00",
			"created": "2014-07-12T16:31:17-04:00"
		}
	]
}