{
	"greeting": "Greetings from The On-Line Encyclopedia of Integer Sequences! http://oeis.org/",
	"query": "id:A244351",
	"count": 1,
	"start": 0,
	"results": [
		{
			"number": 244351,
			"data": "84687,429127,508122,1273238,1570311,1656045,2574762,2847748,3048732,3345805,3849481,5076399,5324003,5338292,5908351,6961919,7639428,8167823,8508662,8994775,9078721,9421866,9936270,9950261",
			"name": "Integers n such that for every integer k\u003e0, n*6^k-1 has a divisor in the set { 7, 13, 31, 37, 97 }.",
			"comment": [
				"For n \u003e 24 a(n) = a(n-24) + 10124569, the first 24 values are in the data.",
				"When the number a(n) has 1 or 6 as the last digit the number  a(n)*6^k-1 is always divisible by 5 and have always a divisor in the set { 7, 13, 31, 37, 97 } for every  k."
			],
			"formula": [
				"For n\u003e24 a(n) = a(n-24) + 10124569."
			],
			"xref": [
				"Cf. A076337, A243969, A244070, A244071, A244072, A244073, A244074, A244076, A244211."
			],
			"keyword": "nonn",
			"offset": "1,1",
			"author": "_Pierre CAMI_, Jun 26 2014",
			"references": 0,
			"revision": 21,
			"time": "2014-07-13T10:09:53-04:00",
			"created": "2014-07-13T10:09:53-04:00"
		}
	]
}