{
	"greeting": "Greetings from The On-Line Encyclopedia of Integer Sequences! http://oeis.org/",
	"query": "id:A244016",
	"count": 1,
	"start": 0,
	"results": [
		{
			"number": 244016,
			"data": "1,2,3,5,7,8,9,11,13,14,15,16,18,20,22,24,25,26,28,29,30,31,32,33,35,37,38,40,41,43,44,45,47,49,50,52,53,54,55,56,58,59,60,62,63,65,67,68,70,71,72,74,76,77,79,80,82,84,86,87,88,89,91,93,94,96,97,98,100",
			"name": "Numbers in A243700 sorted into increasing order.",
			"xref": [
				"Cf. A243700, A243864, A244010, A244011, A244017, A244018."
			],
			"keyword": "nonn",
			"offset": "1,2",
			"author": "_Max Alekseyev_ and _N. J. A. Sloane_, Jun 19 2014",
			"references": 3,
			"revision": 7,
			"time": "2014-06-19T13:22:32-04:00",
			"created": "2014-06-19T13:12:38-04:00"
		}
	]
}