{
	"greeting": "Greetings from The On-Line Encyclopedia of Integer Sequences! http://oeis.org/",
	"query": "id:A244793",
	"count": 1,
	"start": 0,
	"results": [
		{
			"number": 244793,
			"data": "12,41,268,941,2424,5101,7730,14519,26882,47381,54282,93567,138214,207081,288862,319535,489922,628893,878082,1128849,1220884,1640461,1997876,2688937,3290036,3680517,4461044,5245231,6537106,7081377,8727400",
			"name": "Number of length 5 0..n arrays with each partial sum starting from the beginning no more than one standard deviation from its mean.",
			"comment": [
				"Row 5 of A244788"
			],
			"link": [
				"R. H. Hardin, \u003ca href=\"/A244793/b244793.txt\"\u003eTable of n, a(n) for n = 1..210\u003c/a\u003e"
			],
			"example": [
				"Some solutions for n=10",
				"..2....3....4....8....7....8....5....3....2....2....6....3....8....4....7....5",
				"..9....3....7....1....3....3....8....7....6....7....0....5....5....9....2....8",
				"..6....6....2....5....2....5....6....8....7....8....9....4....7....2....5....3",
				"..4....6....9....8....9...10....1....0....1....4....5....2....4....3...10....0",
				"..7....9....3....5....0....5....2....1...10....0....0....6....3....7....6....6"
			],
			"keyword": "nonn",
			"offset": "1,1",
			"author": "_R. H. Hardin_, Jul 06 2014",
			"references": 1,
			"revision": 5,
			"time": "2016-11-16T12:37:14-05:00",
			"created": "2014-07-06T08:59:33-04:00"
		}
	]
}