{
	"greeting": "Greetings from The On-Line Encyclopedia of Integer Sequences! http://oeis.org/",
	"query": "id:A244753",
	"count": 1,
	"start": 0,
	"results": [
		{
			"number": 244753,
			"data": "1,4,45,1494,167321,70339178,118127981277,818113700595166,23602509419592675345,2828610325004443707717522,1397057668479359172475738134221,2819825298850525709434498781240666534,23097546959835633409694123795378169234099369",
			"name": "a(n) = Sum_{k=0..n} C(n,k) * (n + 2^k)^k.",
			"formula": [
				"a(n) = Sum_{k=0..n} C(n,k) * (1 + n*2^k)^(n-k) * 2^(k^2).",
				"a(n) ~ 2^(n^2). - _Vaclav Kotesovec_, Aug 24 2017"
			],
			"example": [
				"E.g.f.: A(x) = 1 + 4*x + 45*x^2/2! + 1494*x^3/3! + 167321*x^4/4! + 70339178*x^5/5! +...",
				"ILLUSTRATION OF INITIAL TERMS:",
				"a(1) = (1+2^0)^0 + (1+2^1)^1 = 4;",
				"a(2) = (2+2^0)^0 + 2*(2+2^1)^1 + (2+2^2)^2 = 45;",
				"a(3) = (3+2^0)^0 + 3*(3+2^1)^1 + 3*(3+2^2)^2 + (3+2^3)^3 = 1494;",
				"a(4) = (4+2^0)^0 + 4*(4+2^1)^1 + 6*(4+2^2)^2 + 4*(4+2^3)^3 + (4+2^4)^4 = 167321; ...",
				"where we have the binomial identity:",
				"a(1) = (1+1*2^0)^1*2^0 + (1+2^1)^0*2^1 = 4;",
				"a(2) = (1+2*2^0)^2*2^0 + 2*(1+2*2^1)^1*2^1 + (1+2*2^2)^0*2^4 = 45;",
				"a(3) = (1+3*2^0)^3*2^0 + 3*(1+3*2^1)^2*2^1 + 3*(1+3*2^2)^1*2^4 + (1+3*2^3)^0*2^9 = 1494;",
				"a(4) = (1+4*2^0)^4*2^0 + 4*(1+4*2^1)^3*2^1 + 6*(1+4*2^2)^2*2^4 + 4*(1+4*2^3)^1*2^9 + (1+4*2^4)^0*2^16 = 167321; ..."
			],
			"mathematica": [
				"Table[Sum[Binomial[n,k](n+2^k)^k,{k,0,n}],{n,0,20}] (* _Harvey P. Dale_, Jun 15 2017 *)"
			],
			"program": [
				"(PARI) {a(n) = sum(k=0,n,binomial(n,k) * (n + 2^k)^k )}",
				"for(n=0,15,print1(a(n),\", \"))",
				"(PARI) {a(n) = sum(k=0,n,binomial(n,k) * (1 + n*2^k)^(n-k) * 2^(k^2) )}",
				"for(n=0,15,print1(a(n),\", \"))"
			],
			"keyword": "nonn",
			"offset": "0,2",
			"author": "_Paul D. Hanna_, Jul 05 2014",
			"references": 0,
			"revision": 7,
			"time": "2017-08-24T08:29:53-04:00",
			"created": "2014-07-05T18:28:08-04:00"
		}
	]
}