{
	"greeting": "Greetings from The On-Line Encyclopedia of Integer Sequences! http://oeis.org/",
	"query": "id:A244722",
	"count": 1,
	"start": 0,
	"results": [
		{
			"number": 244722,
			"data": "1,12,106,677,3494,15072,56687,189836,578105,1621690,4241828,10434473,24323694,54053172,115100757,235866109,466850629,895363599,1668452274,3028132617,5364010992,9291348726,15763537852,26234025046,42882816586,68933785785,109087903602",
			"name": "Number of compositions of n with exactly 10 transitions between different parts.",
			"link": [
				"Alois P. Heinz, \u003ca href=\"/A244722/b244722.txt\"\u003eTable of n, a(n) for n = 16..900\u003c/a\u003e"
			],
			"maple": [
				"b:= proc(n, v) option remember; `if`(n=0, [1, 0$10],",
				"      add(`if`(v in [0, i], b(n-i, `if`(i\u003c=n-i, i, -1)),",
				"      [0, b(n-i, `if`(i\u003c=n-i, i, -1))[1..10][]]), i=1..n))",
				"    end:",
				"a:= n-\u003e b(n, 0)[11]:",
				"seq(a(n), n=16..60);"
			],
			"xref": [
				"Column k=10 of A238279."
			],
			"keyword": "nonn",
			"offset": "16,2",
			"author": "_Joerg Arndt_ and _Alois P. Heinz_, Jul 04 2014",
			"references": 2,
			"revision": 5,
			"time": "2014-07-06T16:31:18-04:00",
			"created": "2014-07-06T16:31:18-04:00"
		}
	]
}