{
	"greeting": "Greetings from The On-Line Encyclopedia of Integer Sequences! http://oeis.org/",
	"query": "id:A244502",
	"count": 1,
	"start": 0,
	"results": [
		{
			"number": 244502,
			"data": "33,378,2190,9110,30300,85563,213293,482085,1006950,1971185,3655053,6472533,11017505,18120840,28919970,44942618,68206473,101336700,147703280,211580280,298329258,414609113,568614795,770347395,1031918240,1367889723,1795655703,2335864415",
			"name": "Number of ways to place 4 points on an n X n X n triangular grid so that no pair of them has distance sqrt(3).",
			"comment": [
				"sqrt(3) is the second closest (Euclidean) distance for a pair of points in a triangular grid. For illustration see A244500."
			],
			"link": [
				"Heinrich Ludwig, \u003ca href=\"/A244502/b244502.txt\"\u003eTable of n, a(n) for n = 4..1000\u003c/a\u003e",
				"\u003ca href=\"/index/Rec#order_09\"\u003eIndex entries for linear recurrences with constant coefficients\u003c/a\u003e, signature (9,-36,84,-126,126,-84,36,-9,1)."
			],
			"formula": [
				"a(n) = 1/384*n^8 + 1/96*n^7 - 13/64*n^6 + 5/48*n^5 + 875/128*n^4 - 2543/96*n^3 - 4141/96*n^2 + 3759/8*n - 837, for n \u003e= 5.",
				"G.f.: x^4*(10*x^9 - 30*x^8 + 130*x^6 - 333*x^5 + 444*x^4 - 236*x^3 + 24*x^2 - 81*x - 33) / (x - 1)^9. - _Colin Barker_, Jun 29 2014"
			],
			"maple": [
				"A244502:=n-\u003e`if`(n=4,33,1/384*n^8 + 1/96*n^7 - 13/64*n^6 + 5/48*n^5 + 875/128*n^4 - 2543/96*n^3 - 4141/96*n^2 + 3759/8*n - 837); seq(A244502(n), n=4..30); # _Wesley Ivan Hurt_, Jun 30 2014"
			],
			"mathematica": [
				"CoefficientList[Series[(10*x^9 - 30*x^8 + 130*x^6 - 333*x^5 + 444*x^4 - 236*x^3 + 24*x^2 - 81*x - 33)/(x - 1)^9, {x, 0, 30}], x] (* _Wesley Ivan Hurt_, Jun 30 2014 *)"
			],
			"program": [
				"(PARI) Vec(x^4*(10*x^9-30*x^8+130*x^6-333*x^5+444*x^4-236*x^3+24*x^2-81*x-33)/(x-1)^9 + O(x^100)) \\\\ _Colin Barker_, Jun 29 2014"
			],
			"xref": [
				"Cf. A086274, A244500, A244501, A244503."
			],
			"keyword": "nonn,easy",
			"offset": "4,1",
			"author": "_Heinrich Ludwig_, Jun 29 2014",
			"references": 4,
			"revision": 21,
			"time": "2017-10-11T05:11:26-04:00",
			"created": "2014-07-03T02:55:56-04:00"
		}
	]
}