{
	"greeting": "Greetings from The On-Line Encyclopedia of Integer Sequences! http://oeis.org/",
	"query": "id:A244253",
	"count": 1,
	"start": 0,
	"results": [
		{
			"number": 244253,
			"data": "1,6,40,268,2103,17623,146590,1274284,11272025,101053126,915755611,8372478663,77114448042,714719245204",
			"name": "a(n) = the frequency of the most common final digit of a prime with n digits.",
			"comment": [
				"For the most common final digit, see A244189."
			],
			"example": [
				"Of the 3-digit primes, there are 35 that end in 1, 35 that end in 3, 40 that end in 7, and 33 that end in 9. Thus since 7 has the most, a(3) = 40."
			],
			"program": [
				"(Python)",
				"import sympy",
				"from sympy import isprime",
				"def end1(d,n):",
				"..lst = []",
				"..for k in range(10**(d-1),10**d):",
				"....num = ''",
				"....count = 0",
				"....for i in range(10**(n-d-1),10**(n-d)):",
				"......if isprime(int(str(i)+str(k))):",
				"........count += 1",
				"....lst.append(count)",
				"..return max(lst)",
				"n = 2",
				"while n \u003c 10:",
				"..print(end1(1,n),end=', ')",
				"..n += 1"
			],
			"xref": [
				"Cf. A244189."
			],
			"keyword": "nonn,base,more,hard",
			"offset": "1,2",
			"author": "_Derek Orr_, Jun 24 2014",
			"ext": [
				"a(8)-a(14) from _Hiroaki Yamanouchi_, Jul 10 2014"
			],
			"references": 0,
			"revision": 8,
			"time": "2014-07-11T09:10:41-04:00",
			"created": "2014-06-24T02:38:26-04:00"
		}
	]
}