{
	"greeting": "Greetings from The On-Line Encyclopedia of Integer Sequences! http://oeis.org/",
	"query": "id:A244567",
	"count": 1,
	"start": 0,
	"results": [
		{
			"number": 244567,
			"data": "0,1,1,2,3,1,2,4,5,3,6,7,1,2,4,8,9,5,10,5,10,11,3,6,12,13,7,14,15,1,2,4,8,16,17,9,18,19,20,21,5,10,11,20,22,23,24,25,26,27,28,29,30,31,32,3,6,12,21,30,33,34,35,36,37,38,39,40,41,42,43",
			"name": "Triangle T(n,k) in which the n-th row lists in increasing order all values s such that n is in the trajectory of the 'Reverse and Add!' sequence starting with s; triangle T(n,k), n\u003e=0, 1\u003c=k\u003c=A244569(n), read by rows.",
			"link": [
				"Alois P. Heinz, \u003ca href=\"/A244567/b244567.txt\"\u003eRows n = 0..6000, flattened\u003c/a\u003e"
			],
			"example": [
				"Triangle T(n,k) begins:",
				"   0;",
				"   1;",
				"   1,  2;",
				"   3;",
				"   1,  2,  4;",
				"   5;",
				"   3,  6;",
				"   7;",
				"   1,  2,  4,  8;",
				"   9;",
				"   5, 10;",
				"   5, 10, 11;",
				"   3,  6, 12;",
				"  13;",
				"   7, 14;",
				"  15;",
				"   1,  2,  4,  8,  16;",
				"  17;"
			],
			"xref": [
				"Column k=0 gives A244568.",
				"Last elements of rows give A001477.",
				"Cf. A001127, A033648, A033670, A006960, A004086, A244569."
			],
			"keyword": "nonn,tabf,look",
			"offset": "0,4",
			"author": "_Alois P. Heinz_, Jun 30 2014",
			"references": 3,
			"revision": 18,
			"time": "2019-01-24T20:45:47-05:00",
			"created": "2014-06-30T10:19:33-04:00"
		}
	]
}