{
	"greeting": "Greetings from The On-Line Encyclopedia of Integer Sequences! http://oeis.org/",
	"query": "id:A245825",
	"count": 1,
	"start": 0,
	"results": [
		{
			"number": 245825,
			"data": "1,0,2,0,2,1,0,1,3,1,0,0,5,2,1,0,0,3,7,2,1,0,0,1,10,7,2,1,0,0,0,9,14,8,2,1,0,0,0,4,23,16,9,2,1,0,0,0,1,22,34,19,10,2,1,0,0,0,0,14,50,44,22,11,2,1,0,0,0,0,5,55,77,56,25,12,2,1,0,0,0,0,1,40,117,106,69,28,13,2,1,0,0,0,0,0,20,131,188,140,83,31,14,2,1",
			"name": "Triangle read by rows: T(n,k) is the number of the vertices of the Fibonacci cube G_n that have degree k (0\u003c=k\u003c=n).",
			"comment": [
				"The Fibonacci cube G_n is obtained from the n-cube Q_n by removing all the vertices that contain two consecutive 1s.",
				"Sum of entries in row n is the Fibonacci number F_{n+2}.",
				"Sum of entries in column k (k\u003e=1) is the Fibonacci number F_{2k+3}. - _Emeric Deutsch_, Jun 22 2015",
				"Sum(k*T(n,k), k=0..n) = 2*sum(F(k)*F(n+1-k),k=0..n+1) = 2*A001629(n+1)."
			],
			"link": [
				"S. Klavzar, M. Mollard, M. Petkovsek, \u003ca href=\"http://dx.doi.org/10.1016/j.disc.2011.03.019\"\u003eThe degree sequence of Fibonacci and Lucas cubes\u003c/a\u003e, Discrete Math., 311, 2011, 1310-1322.",
				"S. Klavzar, \u003ca href=\"http://dx.doi.org/10.1007/s10878-011-9433-z\"\u003eStructure of Fibonacci cubes: a survey\u003c/a\u003e, J. Comb. Optim., 25, 2013, 505-522"
			],
			"formula": [
				"T(n,k) = sum(binomial(n-2i, k-i)*binomial(i+1,n-k-i+1), i=0..k).",
				"G.f.: (1 + t*z + (1 - t)*t*z^2)/((1 - t*z)*(1 - t*z^2) - t*z^3)."
			],
			"example": [
				"Row 2 is 0,2,1 because the Fibonacci cube G_2 is the path-tree P_3 having 2 vertices of degree 1 and 1 vertex of degree 2.",
				"Triangle starts:",
				"1;",
				"0,2;",
				"0,2,1;",
				"0,1,3,1;",
				"0,0,5,2,1;",
				"0,0,3,7,2,1;",
				"0,0,1,10,7,2,1;"
			],
			"maple": [
				"T := proc (n, k) options operator, arrow: sum(binomial(n-2*i, k-i)*binomial(i+1, n-k-i+1), i = 0 .. k) end proc: seq(seq(T(n, k), k = 0 .. n), n = 0 .. 13);"
			],
			"xref": [
				"Cf. A000045, A001519, A001629."
			],
			"keyword": "nonn,tabl",
			"offset": "0,3",
			"author": "_Emeric Deutsch_, Aug 03 2014",
			"references": 4,
			"revision": 16,
			"time": "2015-06-22T19:45:08-04:00",
			"created": "2014-08-03T13:42:20-04:00"
		}
	]
}