{
	"greeting": "Greetings from The On-Line Encyclopedia of Integer Sequences! http://oeis.org/",
	"query": "id:A245839",
	"count": 1,
	"start": 0,
	"results": [
		{
			"number": 245839,
			"data": "1,12,1,9,1,24,1,15,1,80,12,21,1,48,1,45,1,92,1,33,18,72,1,39,18,176,1,45,1,96,24,77,1,164,1,87,1,120,24,63,75,448,1,69,1,188,24,75,1,236,36,81,30,168,1,129,1,368,1,131,42,192,1",
			"name": "Arithmetic derivative of (3*n + 2).",
			"comment": [
				"As (prime(n))' = 1, A016789(59) = 179 = prime(41) is confirmed.",
				"The 13025th prime number out of 10^5 prime numbers is prime(25997) = 299993."
			],
			"link": [
				"Freimut Marschner, \u003ca href=\"/A245839/b245839.txt\"\u003eTable of n, a(n) for n = 1..100000\u003c/a\u003e"
			],
			"formula": [
				"a(n) = (3*n + 2)' = (A016789(n))' = A003415(n) (A016789(n))."
			],
			"example": [
				"a(3) = (3*3 + 2)' = (11)' = 1, a(59) = (3*59 + 2)' = (179)' = 1."
			],
			"xref": [
				"Cf. A016777(3n+1), A002476 (Primes of form 6m + 1), A003627(Primes of form 3n-1), A003415."
			],
			"keyword": "nonn",
			"offset": "1,2",
			"author": "_Freimut Marschner_, Aug 06 2014",
			"references": 1,
			"revision": 9,
			"time": "2015-03-14T15:28:08-04:00",
			"created": "2014-08-21T17:35:26-04:00"
		}
	]
}