{
	"greeting": "Greetings from The On-Line Encyclopedia of Integer Sequences! http://oeis.org/",
	"query": "id:A245781",
	"count": 1,
	"start": 0,
	"results": [
		{
			"number": 245781,
			"data": "3,2,8,7,0,9,6,9,1,6,8,5,6,6,3,9,3,0,3,6,2,5,9,7,6,7,0,2,3,8,3,9,6,4,3,4,0,2,0,9,9,7,6,3,8,5,5,5,8,9,8,1,2,8,8,3,0,0,3,1,8,5,4,3,5,4,7,2,1,3,5,2,6,8,4,4,0,5,9,9,7,8,9,5,5,5,3,9,0,6,2,5,7,6,7,9,9,5,6,4,4,7",
			"name": "Decimal expansion of the infinite product of (j/Pi)*sin(Pi/j), for j \u003e= 2, a constant similar to the Kepler-Bouwkamp constant.",
			"reference": [
				"Steven R. Finch, Mathematical Constants, Cambridge University Press, 2003, Section 6.3 Kepler-Bouwkamp constant, p. 428."
			],
			"formula": [
				"exp( -sum_{k \u003e= 1} zeta(2*k)*(zeta(2*k)-1)/k )."
			],
			"example": [
				"0.32870969168566393036259767023839643402099763855589812883..."
			],
			"mathematica": [
				"digits = 102; Exp[-NSum[Zeta[2*k]*(Zeta[2*k]-1)/k, {k, 1, Infinity}, NSumTerms -\u003e 200, WorkingPrecision -\u003e digits+10]] // RealDigits[#, 10, digits]\u0026 // First"
			],
			"xref": [
				"Cf. A085365."
			],
			"keyword": "nonn,cons,easy",
			"offset": "0,1",
			"author": "_Jean-François Alcover_, Aug 01 2014",
			"references": 0,
			"revision": 5,
			"time": "2014-08-01T11:19:41-04:00",
			"created": "2014-08-01T11:19:41-04:00"
		}
	]
}