{
	"greeting": "Greetings from The On-Line Encyclopedia of Integer Sequences! http://oeis.org/",
	"query": "id:A245941",
	"count": 1,
	"start": 0,
	"results": [
		{
			"number": 245941,
			"data": "0,0,59,1040,7014,29580,94105,247884,570220,1184424,2271735,4087160,6977234,11399700,17945109,27360340,40574040,58723984,83186355,115606944,157934270,212454620,281829009,369132060,477892804,612137400,776433775,975938184,1216443690",
			"name": "(16n^6 - 24n^5 + 2n^4 + 11n^3 - 6n^2 + n) / 6.",
			"comment": [
				"For n \u003e 0: a(n) = A245826(2*n-1,n), central terms of triangle A245826."
			],
			"link": [
				"Reinhard Zumkeller, \u003ca href=\"/A245941/b245941.txt\"\u003eTable of n, a(n) for n = 0..10000\u003c/a\u003e",
				"\u003ca href=\"/index/Rec#order_07\"\u003eIndex entries for linear recurrences with constant coefficients\u003c/a\u003e, signature (7,-21,35,-35,21,-7,1)."
			],
			"formula": [
				"G.f.: -x^2*(4*x^4+257*x^3+973*x^2+627*x+59) / (x-1)^7. - _Colin Barker_, Aug 08 2014",
				"a(n) = (n-1)*n*(2*n-1)*(8*n^3-3*n+1)/6. [_Bruno Berselli_, Aug 08 2014]",
				"a(0)=0, a(1)=0, a(2)=59, a(3)=1040, a(4)=7014, a(5)=29580, a(6)=94105, a(n)=7*a(n-1)-21*a(n-2)+35*a(n-3)-35*a(n-4)+21*a(n-5)-7*a(n-6)+a(n-7). - _Harvey P. Dale_, Apr 13 2015"
			],
			"maple": [
				"A245941:=n-\u003e(16*n^6-24*n^5+2*n^4+11*n^3-6*n^2+n)/6: seq(A245941(n), n=0..30); # _Wesley Ivan Hurt_, Aug 09 2014"
			],
			"mathematica": [
				"Table[(16 n^6 - 24 n^5 + 2 n^4 + 11 n^3 - 6 n^2 + n)/6, {n, 0, 30}] (* _Vincenzo Librandi_, Aug 09 2014 *)",
				"LinearRecurrence[{7,-21,35,-35,21,-7,1},{0,0,59,1040,7014,29580,94105},30] (* _Harvey P. Dale_, Apr 13 2015 *)"
			],
			"program": [
				"(Haskell)",
				"a245941 n = n * (16*n^5 - 24*n^4 + 2*n^3 + 11*n^2 - 6*n + 1) `div` 6",
				"(PARI)",
				"concat([0,0], Vec(-x^2*(4*x^4+257*x^3+973*x^2+627*x+59)/(x-1)^7 + O(x^100))) \\\\ _Colin Barker_, Aug 08 2014",
				"(MAGMA) [(16*n^6-24*n^5+2*n^4+11*n^3-6*n^2+n)/6: n in [0..30]] // _Vincenzo Librandi_, Aug 09 2014"
			],
			"keyword": "nonn,easy",
			"offset": "0,3",
			"author": "_Reinhard Zumkeller_, Aug 07 2014",
			"references": 2,
			"revision": 26,
			"time": "2017-06-17T03:55:12-04:00",
			"created": "2014-08-07T17:03:49-04:00"
		}
	]
}