{
	"greeting": "Greetings from The On-Line Encyclopedia of Integer Sequences! http://oeis.org/",
	"query": "id:A245370",
	"count": 1,
	"start": 0,
	"results": [
		{
			"number": 245370,
			"data": "1,0,0,1,0,1,1,0,2,2,1,3,3,3,6,5,6,11,10,13,19,19,27,35,37,52,65,74,100,121,145,192,230,282,365,440,548,695,843,1058,1327,1621,2035,2535,3119,3910,4851,5997,7503,9297,11528,14389,17829,22150,27596,34208,42536,52928,65655,81660,101525,126020,156738,194776,241888",
			"name": "Number of compositions of n into parts 3, 5 and 9.",
			"link": [
				"\u003ca href=\"/index/Rec#order_09\"\u003eIndex entries for linear recurrences with constant coefficients\u003c/a\u003e, signature (0,0,1,0,1,0,0,0,1)."
			],
			"formula": [
				"G.f.: 1/(1-x^3-x^5-x^9).",
				"a(n) = a(n-3) + a(n-5) + a(n-9)."
			],
			"example": [
				"a(28)=100 The compositions of n into parts 3,5 and 9 are the permutations of (9955)(these are 4!/2!2!=6), (555553) (these are 6!/5!=6), (955333) (these are 6!/3!2!=60), (55333333) (these are 8!/6!2!=28)."
			],
			"program": [
				"(PARI) Vec( 1/(1-x^3-x^5-x^9) +O(x^66) ) \\\\ _Joerg Arndt_, Aug 24 2014"
			],
			"xref": [
				"Cf. A079957, A245367, A245369."
			],
			"keyword": "nonn,easy",
			"offset": "0,9",
			"author": "_David Neil McGrath_, Aug 24 2014",
			"references": 0,
			"revision": 15,
			"time": "2015-06-13T00:55:04-04:00",
			"created": "2014-08-28T02:54:29-04:00"
		}
	]
}