{
	"greeting": "Greetings from The On-Line Encyclopedia of Integer Sequences! http://oeis.org/",
	"query": "id:A245644",
	"count": 1,
	"start": 0,
	"results": [
		{
			"number": 245644,
			"data": "1,3,5,7,11,13,14,15,17,19,21,23,24,29,31,33,35,37,39,41,42,43,46,47,51,52,53,55,56,57,59,61,62,65,66,67,69,70,71,73,77,79,80,83,85,87,89,91,93,94,95,97,101,103,105,107,109,111,113,114,115,117,119,120,123,127,129,131,133,137,138,139",
			"name": "Numbers n such that n^3 is an arithmetic number.",
			"comment": [
				"A065091 is a subsequence."
			],
			"link": [
				"Reinhard Zumkeller and Jens Kruse Andersen, \u003ca href=\"/A245644/b245644.txt\"\u003eTable of n, a(n) for n = 1..10000\u003c/a\u003e (first 147 terms from Reinhard Zumkeller)",
				"Wikipedia, \u003ca href=\"http://en.wikipedia.org/wiki/Arithmetic_number\"\u003eArithmetic number\u003c/a\u003e"
			],
			"formula": [
				"A245656(a(n)^3) = 1. - _Reinhard Zumkeller_, Jul 28 2014"
			],
			"maple": [
				"isArithPow := proc(n,e)",
				"    local dvs,d ;",
				"    dvs := numtheory[divisors](n^e) ;",
				"    add(d,d=dvs)/nops(dvs) ;",
				"    if type(%,'integer') then",
				"        true;",
				"    else",
				"        false;",
				"    end if;",
				"end proc:",
				"for n to 300 do",
				"    if isArithPow(n,3) then",
				"        printf(\"%d,\",n) ;",
				"    end if;",
				"end do:"
			],
			"mathematica": [
				"Select[Range[120], IntegerQ[DivisorSigma[1, #^3 ]/DivisorSigma[0, #^3 ]] \u0026] (* _Michael De Vlieger_, Aug 05 2014 after _Stefan Steinerberger_ at A003601 *)"
			],
			"program": [
				"(Haskell)",
				"a245644 n = a245644_list !! (n-1)",
				"a245644_list = filter ((== 1) . a245656 . (^ 3)) [1..]",
				"-- _Reinhard Zumkeller_, Jul 28 2014",
				"(Python) from sympy import divisors, divisor_count",
				"[n for n in range(1,10**3) if not sum(divisors(n**3)) % divisor_count(n**3)] # _Chai Wah Wu_, Aug 04 2014"
			],
			"xref": [
				"Cf. A003601, A107924, A107925.",
				"Cf. A245656."
			],
			"keyword": "nonn",
			"offset": "1,2",
			"author": "_R. J. Mathar_, Jul 28 2014",
			"references": 2,
			"revision": 29,
			"time": "2014-12-01T00:23:43-05:00",
			"created": "2014-07-28T10:16:46-04:00"
		}
	]
}