{
	"greeting": "Greetings from The On-Line Encyclopedia of Integer Sequences! http://oeis.org/",
	"query": "id:A245517",
	"count": 1,
	"start": 0,
	"results": [
		{
			"number": 245517,
			"data": "1,1,4,4,4,12,20,20,12,32,88,96,88,32,80,352,504,504,352,80,192,1328,2592,2880,2592,1328,192,448,4816,12852,17280,17280,12852,4816,448",
			"name": "Irregular triangle read by rows: T(n,L) = number of alpha-labeled graphs with n edges and boundary value L that do not use one number from (1,2,...,n-1) as a label (n \u003e= 4, 1 \u003c= L \u003c= n - 2).",
			"link": [
				"Christian Barrientos, Sarah Minion, \u003ca href=\"https://dx.doi.org/10.7151/dmgt.1985\"\u003eOn the number of alpha-labeled graphs\u003c/a\u003e, Discussiones Mathematicae Graph Theory, to appear.",
				"J. A. Gallian, \u003ca href=\"http://www.combinatorics.org/ojs/index.php/eljc/article/view/DS6\"\u003eA dynamic survey of graph labeling\u003c/a\u003e, Elec. J. Combin., (2013), #DS6.",
				"David A. Sheppard, \u003ca href=\"http://dx.doi.org/10.1016/0012-365X(76)90051-0\"\u003eThe factorial representation of major balanced labelled graphs\u003c/a\u003e, Discrete Math., 15(1976), no. 4, 379-388."
			],
			"formula": [
				"a(n,L,i) = \\sum_{i = 1}^{n - 1} \\prod_{k = 1}^{n} d(L,k,i), where",
				"for i \u003c L,",
				"            d(L,k)       if 1 \u003c= k \u003c= i,",
				"d(L,k,i) ={ d(L,k) - 1   if i \u003c k \u003c n - i,",
				"            d(L,k)       if n - i \u003c= k \u003c= n;",
				"for i \u003e L + 1,",
				"            d(L,k)       if 1 \u003c= k \u003c= n - i,",
				"d(L,k,i) ={ d(L,k) - 1   if n - i \u003c k \u003c n - i + L + 2,",
				"            d(L,k)       if n - i + L + 2 \u003c= k \u003c= n.",
				"          k          if 1 \u003c= k \u003c m,",
				"d(L,k) ={ L + 1      if m \u003c= k \u003c= M,",
				"          n + 1 - k  if M \u003c k \u003c= n,",
				"m = min{L + 1, n - L}, M = max{L + 1, n - L}."
			],
			"example": [
				"For n=9 and L=5, T(9,5) = 2592.",
				"For n=10 and L=4, T(10,4) = 17280.",
				"Triangle begins:",
				"[n\\L]  [1]     [2]     [3]     [4]     [5]     [6]     [7]     [8]",
				"[4]     1,      1;",
				"[5]     4,      4,      4;",
				"[6]     12,     20,     20,     12;",
				"[7]     32,     88,     96,     88,     32;",
				"[8]     80,     352,    504,    504,    352,    80;",
				"[9]     192,    1328,   2592,   2880,   2592,   1328,   192;",
				"[10]    448,    4816,   12852,  17280,  17280,  12852,  4816,   448;",
				"..."
			],
			"xref": [
				"Cf. A241094, A005193."
			],
			"keyword": "nonn,tabf,easy",
			"offset": "4,3",
			"author": "_Sarah Minion_ and _Christian Barrientos_, Jul 24 2014",
			"references": 0,
			"revision": 20,
			"time": "2017-11-22T02:02:39-05:00",
			"created": "2014-07-27T21:27:16-04:00"
		}
	]
}