{
	"greeting": "Greetings from The On-Line Encyclopedia of Integer Sequences! http://oeis.org/",
	"query": "id:A245326",
	"count": 1,
	"start": 0,
	"results": [
		{
			"number": 245326,
			"data": "1,2,1,3,3,2,1,5,4,5,4,3,3,2,1,8,7,7,5,8,7,7,5,5,4,5,4,3,3,2,1,13,11,12,9,11,10,9,6,13,11,12,9,11,10,9,6,8,7,7,5,8,7,7,5,5,4,5,4,3,3,2,1,21,18,19,14,19,17,16,11,18,15,17,13,14,13,11,7,21,18,19,14,19,17,16,11,18,15,17,13,14,13,11,7,13,11,12,9,11",
			"name": "Denominators of an enumeration system of the reduced nonnegative rational numbers.",
			"comment": [
				"A245325(n)/a(n) enumerates all the reduced nonnegative rational numbers exactly once.",
				"If the terms (n\u003e0) are written as an array (left-aligned fashion) with rows of length 2^m, m = 0,1,2,3,...",
				"1,",
				"2, 1,",
				"3, 3, 2,1,",
				"5, 4, 5,4, 3, 3,2,1,",
				"8, 7, 7,5, 8, 7,7,5, 5, 4, 5,4, 3, 3,2,1,",
				"13,11,12,9,11,10,9,6,13,11,12,9,11,10,9,6,8,7,7,5,8,7,7,5,5,4,5,4,3,3,2,1,",
				"then the sum of the m-th row is 3^m (m = 0,1,2,), and each column k is a Fibonacci sequence. These Fibonacci sequences are equal to Fibonacci sequences from A.... except the first terms of those sequences.",
				"If the rows are written in a right-aligned fashion:",
				"                                                                        1,",
				"                                                                      2,1,",
				"                                                                  3,3,2,1,",
				"                                                          5,4,5,4,3,3,2,1,",
				"                                          8,7,7,5,8,7,7,5,5,4,5,4,3,3,2,1,",
				"13,11,12,9,11,10,9,6,13,11,12,9,11,10,9,6,8,7,7,5,8,7,7,5,5,4,5,4,3,3,2,1,",
				"then each column is constant and the terms are from A071585 ( a(2^m-1-k) = A071585(k) , k = 0,1,2,...).",
				"If the sequence is considered by blocks of length 2^m, m = 0,1,2,..., the blocks of this sequence are permutations of terms of blocks from A002487 (Stern's diatomic series or Stern-Brocot sequence), and, more precisely, the reverses of blocks of A071766 ( a(2^m+k) = A071766(2^(m+1)-1-k), m = 0,1,2,..., k = 0,1,2,...,2^m-1). Moreover, each block is the bit-reversed permutation of the corresponding block of A245328."
			],
			"link": [
				"\u003ca href=\"/index/Fo#fraction_trees\"\u003eIndex entries for fraction trees\u003c/a\u003e"
			],
			"formula": [
				"a(n) = A002487(1+A059893(A180200(n))) = A002487(A059893(A154435(n))). - _Yosu Yurramendi_, Sep 20 2021"
			],
			"program": [
				"(R)",
				"blocklevel \u003c- 6 # arbitrary",
				"a \u003c- 1",
				"for(m in 0:blocklevel) for(k in 0:(2^(m-1)-1)){",
				"  a[2^(m+1)+k]             \u003c- a[2^m+k] + a[2^m+2^(m-1)+k]",
				"  a[2^(m+1)+2^(m-1)+k]     \u003c- a[2^(m+1)+k]",
				"  a[2^(m+1)+2^m+k]         \u003c- a[2^m+k]",
				"  a[2^(m+1)+2^m+2^(m-1)+k] \u003c- a[2^m+2^(m-1)+k]",
				"}",
				"a"
			],
			"xref": [
				"Cf. A245325, A002487, A071585, A071766, A273494.",
				"Cf. A002487, A059893, A154435."
			],
			"keyword": "nonn,frac",
			"offset": "1,2",
			"author": "_Yosu Yurramendi_, Jul 18 2014",
			"references": 15,
			"revision": 20,
			"time": "2021-09-29T08:59:04-04:00",
			"created": "2014-07-18T22:55:02-04:00"
		}
	]
}