{
	"greeting": "Greetings from The On-Line Encyclopedia of Integer Sequences! http://oeis.org/",
	"query": "id:A245666",
	"count": 1,
	"start": 0,
	"results": [
		{
			"number": 245666,
			"data": "1,100,5941,275705,11110464,410474625,14353045401,484748595081,16029615164446,523952747921310,17044414451764396,554568496974014588,18113988555378974988,595604303387826752023,19755504320385394380715,662039152774864970449891",
			"name": "Number of permutations of length n with longest increasing subsequence of length 10.",
			"link": [
				"Alois P. Heinz, \u003ca href=\"/A245666/b245666.txt\"\u003eTable of n, a(n) for n = 10..60\u003c/a\u003e"
			],
			"maple": [
				"h:= proc(l) local n; n:= nops(l); add(i, i=l)! /mul(mul(1+l[i]-j",
				"    +add(`if`(l[k]\u003e=j, 1, 0), k=i+1..n), j=1..l[i]), i=1..n) end:",
				"g:= (n, i, l)-\u003e `if`(n=0 or i=1, h([l[], 1$n])^2, `if`(i\u003c1, 0,",
				"                add(g(n-i*j, i-1, [l[], i$j]), j=0..n/i))):",
				"a:= n-\u003e g(n-10, min(n-10, 10), [10]):",
				"seq(a(n), n=10..30);"
			],
			"xref": [
				"Column k=10 of A047874."
			],
			"keyword": "nonn",
			"offset": "10,2",
			"author": "_Alois P. Heinz_, Jul 28 2014",
			"references": 2,
			"revision": 6,
			"time": "2014-07-28T18:22:10-04:00",
			"created": "2014-07-28T18:11:19-04:00"
		}
	]
}