{
	"greeting": "Greetings from The On-Line Encyclopedia of Integer Sequences! http://oeis.org/",
	"query": "id:A245271",
	"count": 1,
	"start": 0,
	"results": [
		{
			"number": 245271,
			"data": "1,2,3,5,8,13,22,36,58,95,154,249,403,652,1056,1709,2766,4475,7241,11717,18959,30676,49635,80311,129947,210258,340205,550464,890670,1441135,2331806,3772941,6104748,9877690,15982438,25860128,41842566,67702694,109545261,177247955",
			"name": "a(n) = floor(sqrt(F(n+2)^2 + F(n)^2)), where F(n) = A000045(n).",
			"comment": [
				"a(n) is the length of the short side (rounded down) of the parallelogram appearing in the dissection fallacy using the square F(n+3) X F(n+3) (see the links and references). Let the actual length of the short side be L(n) and the one of the long side LL(n), then L(n) = LL(n-1). See the Ngaokrajang link for an illustration. Also floor(LL(n)*L(n)) = A014742(n), n \u003e= 1 (proof by _Wolfdieter Lang_ given there).",
				"Note that F(n+2)^2 + F(n)^2 = 3*F(n+1)^2 - 2*(-1)^n = A069921(n). It appears that for n \u003e 1, a(n) = floor(sqrt(3)*F(n+1)). - _Robert Israel_, Jul 16 2014"
			],
			"reference": [
				"T. Koshy, Fibonacci and Lucas Numbers with Applications, John Wiley \u0026 Sons, 2001, ch. 6, pp. 100-108."
			],
			"link": [
				"Kival Ngaokrajang, \u003ca href=\"/A245271/a245271.pdf\"\u003eIllustration of initial terms\u003c/a\u003e",
				"Eric Weisstein's World of Mathematics,\u003ca href=\"http://mathworld.wolfram.com/DissectionFallacy.html\"\u003eDissection Fallacy\u003c/a\u003e",
				"Wikipedia, \u003ca href=\"http://en.wikipedia.org/wiki/Missing_square_puzzle\"\u003eMissing square puzzle\u003c/a\u003e"
			],
			"formula": [
				"a(n) = floor(sqrt(F(n+2)^2 + F(n)^2))), n \u003e= 0, with F(n) = A000045(n), and  F(n+2)^2 + F(n)^2 = A069921(n)."
			],
			"maple": [
				"A245271 := n -\u003e floor(sqrt(3*combinat:-fibonacci(n+1)^2 - 2*(-1)^n)):",
				"seq(A245271(n), n=0..100); # _Robert Israel_, Jul 16 2014"
			],
			"mathematica": [
				"Table[Floor[Sqrt[Fibonacci[n + 2]^2 + Fibonacci[n]^2]], {n, 0, 50}] (* _Wesley Ivan Hurt_, Jul 17 2014 *)"
			],
			"program": [
				"(PARI)a(n) = floor(sqrt((fibonacci(n+2)^2 + fibonacci(n)^2)))",
				"for (n=0,50,print1(a(n),\", \"))"
			],
			"xref": [
				"Cf. A014742, A069921."
			],
			"keyword": "nonn,easy",
			"offset": "0,2",
			"author": "_Kival Ngaokrajang_, Jul 15 2014",
			"ext": [
				"A069921 added to Crossrefs and to the _Robert Israel_ comment by _Wolfdieter Lang_, Jul 17 2014"
			],
			"references": 1,
			"revision": 23,
			"time": "2018-09-02T03:32:24-04:00",
			"created": "2014-07-25T19:04:05-04:00"
		}
	]
}