{
	"greeting": "Greetings from The On-Line Encyclopedia of Integer Sequences! http://oeis.org/",
	"query": "id:A245102",
	"count": 1,
	"start": 0,
	"results": [
		{
			"number": 245102,
			"data": "0,1,2,8,36,180,941,5079,27961,156129,880883,5009625,28668920,164897622,952418882,5520254925,32090787577,187030223470,1092467751427,6393706661582,37484034980109,220093799592140,1294100839792723,7618482099893824,44901233075819275",
			"name": "Number of 2n-node rooted trees of height n.",
			"link": [
				"Alois P. Heinz, \u003ca href=\"/A245102/b245102.txt\"\u003eTable of n, a(n) for n = 0..200\u003c/a\u003e"
			],
			"formula": [
				"a(n) = A034781(2n,n).",
				"a(n) ~ c * d^n / sqrt(n), where d = 6.0313827950978605329935..., c = 0.03944957121899527... . - _Vaclav Kotesovec_, Jul 12 2014"
			],
			"xref": [
				"Cf. A034781."
			],
			"keyword": "nonn",
			"offset": "0,3",
			"author": "_Alois P. Heinz_, Jul 11 2014",
			"references": 4,
			"revision": 8,
			"time": "2014-07-12T03:42:13-04:00",
			"created": "2014-07-11T23:03:42-04:00"
		}
	]
}