{
	"greeting": "Greetings from The On-Line Encyclopedia of Integer Sequences! http://oeis.org/",
	"query": "id:A246137",
	"count": 1,
	"start": 0,
	"results": [
		{
			"number": 246137,
			"data": "0,1,1,1,6,0,120,30,840,0,362880,0,39916800,0,0,64864800,1307674368000,0,355687428096000,0,0,0,51090942171709440000,0,1292600836944248832000,0,35905578804006912000000,0",
			"name": "Number of maximal classes determined by elementary Abelian p-groups.",
			"comment": [
				"Corresponds to r_3(k) in the Rosenberg paper."
			],
			"link": [
				"Rosenberg, Ivo; \u003ca href=\"http://dx.doi.org/10.1016/0097-3165(73)90058-7\"\u003eThe number of maximal closed classes in the set of functions over a finite domain\u003c/a\u003e, J. Combinatorial Theory Ser. A 14 (1973), 1-7."
			],
			"formula": [
				"a(p^m) = (p^m-1)! / (p^binomial(m, 2) * (p-1) * (p^2-1) * ... * (p^m-1)). In all other cases a(n) = 0."
			],
			"xref": [
				"Cf. A002826."
			],
			"keyword": "nonn",
			"offset": "1,5",
			"author": "_Sean A. Irvine_, Aug 25 2014",
			"references": 1,
			"revision": 9,
			"time": "2014-08-26T01:32:05-04:00",
			"created": "2014-08-26T01:32:05-04:00"
		}
	]
}