{
	"greeting": "Greetings from The On-Line Encyclopedia of Integer Sequences! http://oeis.org/",
	"query": "id:A246733",
	"count": 1,
	"start": 0,
	"results": [
		{
			"number": 246733,
			"data": "424,1096,2884,7612,19992,52112,135776,354428,926912,2426008,6344712,16581304,43323852,113217276,295956684,773719596,2022600900,5286817120,13818445276,36118847720,94411371892,246786721208,645084592792",
			"name": "Number of length n+4 0..4 arrays with no pair in any consecutive five terms totalling exactly 4",
			"comment": [
				"Column 4 of A246737"
			],
			"link": [
				"R. H. Hardin, \u003ca href=\"/A246733/b246733.txt\"\u003eTable of n, a(n) for n = 1..210\u003c/a\u003e"
			],
			"formula": [
				"Empirical: a(n) = 2*a(n-1) +a(n-4) +24*a(n-5) +2*a(n-6) +5*a(n-7) +11*a(n-8) -8*a(n-10) -2*a(n-11) +3*a(n-12) +a(n-15) +a(n-16)"
			],
			"example": [
				"Some solutions for n=4",
				"..3....3....4....0....1....2....1....3....3....1....4....4....4....2....0....1",
				"..2....0....1....3....1....0....1....3....0....0....2....1....1....0....2....4",
				"..3....2....4....2....1....3....1....3....0....0....1....4....4....0....1....4",
				"..4....0....2....3....0....3....4....0....3....0....1....4....4....3....1....2",
				"..4....0....4....0....0....0....1....3....3....0....4....1....1....0....0....1",
				"..3....0....4....0....2....0....1....2....3....1....1....1....2....3....0....1",
				"..2....0....4....3....0....0....2....0....2....0....2....1....1....3....0....4",
				"..4....2....3....2....0....0....1....0....3....0....1....1....1....3....2....4"
			],
			"keyword": "nonn",
			"offset": "1,1",
			"author": "_R. H. Hardin_, Sep 02 2014",
			"references": 1,
			"revision": 4,
			"time": "2014-09-02T08:10:01-04:00",
			"created": "2014-09-02T08:10:01-04:00"
		}
	]
}