{
	"greeting": "Greetings from The On-Line Encyclopedia of Integer Sequences! http://oeis.org/",
	"query": "id:A246996",
	"count": 1,
	"start": 0,
	"results": [
		{
			"number": 246996,
			"data": "1,0,0,1,1,2,1,2,1,4,7,11,8,10,20,47,69,86,103,162",
			"name": "Multiplicity of the zero at x=1 of the characteristic polynomial P_n^{F+}.",
			"link": [
				"M. Assis, J. L. Jacobsen, I. Jensen, J.-M. Maillard and B. M. McCoy, \u003ca href=\"http://arxiv.org/abs/1406.5566\"\u003eIntegrability vs non-integrability: Hard hexagons and hard squares compared\u003c/a\u003e, arXiv preprint 1406.5566 [math-ph], 2014. See Eq. A.9."
			],
			"keyword": "nonn,more",
			"offset": "1,6",
			"author": "_N. J. A. Sloane_, Sep 18 2014",
			"ext": [
				"The initial term(s) look wrong to me. I have written to the authors."
			],
			"references": 0,
			"revision": 10,
			"time": "2020-08-13T12:16:26-04:00",
			"created": "2014-09-18T21:40:20-04:00"
		}
	]
}