{
	"greeting": "Greetings from The On-Line Encyclopedia of Integer Sequences! http://oeis.org/",
	"query": "id:A246767",
	"count": 1,
	"start": 0,
	"results": [
		{
			"number": 246767,
			"data": "0,-1,12,75,248,615,1284,2387,4080,6543,9980,14619,20712,28535,38388,50595,65504,83487,104940,130283,159960,194439,234212,279795,331728,390575,456924,531387,614600,707223,809940,923459,1048512,1185855,1336268,1500555,1679544,1874087,2085060",
			"name": "a(n) = n^4 - 2n.",
			"comment": [
				"For n \u003e 0, a(n) is the largest number k such that k + n divides k + n^4, or -1 if k is infinite. In general, for m \u003e 0 and n \u003e 0, the largest number k such that k + n divides k + n^m is given by k = n^m - 2*n. If k = -1 (when n = 1 for any m or when m = 1 for any n), it is infinite."
			],
			"link": [
				"\u003ca href=\"/index/Rec#order_05\"\u003eIndex entries for linear recurrences with constant coefficients\u003c/a\u003e, signature (5,-10,10,-5,1)."
			],
			"formula": [
				"G.f.: -x^2*(3*x^3+5*x^2+17*x-1) / (x-1)^5. - _Colin Barker_, Sep 04 2014",
				"a(n) = 5*a(n-1)-10*a(n-2)+10*a(n-3)-5*a(n-4)+a(n-5). - _Wesley Ivan Hurt_, Jun 07 2021"
			],
			"mathematica": [
				"Table[n^4-2n,{n,0,40}] (* or *) LinearRecurrence[{5,-10,10,-5,1},{0,-1,12,75,248},40] (* _Harvey P. Dale_, May 05 2019 *)"
			],
			"program": [
				"(PARI) vector(100,n,(n-1)^4-2*(n-1))",
				"(PARI) concat(0, Vec(-x^2*(3*x^3+5*x^2+17*x-1)/(x-1)^5 + O(x^100))) \\\\ _Colin Barker_, Sep 04 2014"
			],
			"xref": [
				"Cf. A067998, A242135, A242436."
			],
			"keyword": "sign,easy",
			"offset": "1,3",
			"author": "_Derek Orr_, Sep 04 2014",
			"references": 1,
			"revision": 32,
			"time": "2021-06-07T12:47:10-04:00",
			"created": "2014-09-04T15:07:00-04:00"
		}
	]
}