{
	"greeting": "Greetings from The On-Line Encyclopedia of Integer Sequences! http://oeis.org/",
	"query": "id:A246023",
	"count": 1,
	"start": 0,
	"results": [
		{
			"number": 246023,
			"data": "3,3,4,7,15,26,64,132,253,498,1033,2027,4089,8141,16416,32715,65722,131374,262159,524211,1048630,2097291,4195039,8387885",
			"name": "A070952(2^n).",
			"comment": [
				"Arises from studying behavior of 1-D CA defined by Rule 30 when started with a single ON cell.",
				"I would very much like to see a recurrence or formula.",
				"Subtracting 2^n gives 2, 1, 0, -1, -1, -6, 0, 4, -3, -14, 9, -21, -7, -51, ..."
			],
			"xref": [
				"Cf. A070952, A246024, A246597."
			],
			"keyword": "nonn,more",
			"offset": "0,1",
			"author": "_N. J. A. Sloane_, Aug 14 2014",
			"ext": [
				"a(14)-a(23) from _Hiroaki Yamanouchi_, Sep 12 2014"
			],
			"references": 4,
			"revision": 13,
			"time": "2014-09-12T10:43:13-04:00",
			"created": "2014-08-14T15:40:26-04:00"
		}
	]
}