{
	"greeting": "Greetings from The On-Line Encyclopedia of Integer Sequences! http://oeis.org/",
	"query": "id:A246112",
	"count": 1,
	"start": 0,
	"results": [
		{
			"number": 246112,
			"data": "1,6,351,289716,4947097821,1979525296377132,19909522361922032493690,5304145637506715118807098435916,38963096281905114770318673967657388979120,8141947887028911666338424253996955242756334258901612",
			"name": "Number of inequivalent n X n matrices with entries from [6], where equivalence means permutations of rows or columns.",
			"link": [
				"Alois P. Heinz, \u003ca href=\"/A246112/b246112.txt\"\u003eTable of n, a(n) for n = 0..26\u003c/a\u003e"
			],
			"xref": [
				"Column k=6 of A246106."
			],
			"keyword": "nonn",
			"offset": "0,2",
			"author": "_Alois P. Heinz_, Aug 14 2014",
			"references": 2,
			"revision": 5,
			"time": "2014-08-14T00:42:34-04:00",
			"created": "2014-08-14T00:42:34-04:00"
		}
	]
}