{
	"greeting": "Greetings from The On-Line Encyclopedia of Integer Sequences! http://oeis.org/",
	"query": "id:A246630",
	"count": 1,
	"start": 0,
	"results": [
		{
			"number": 246630,
			"data": "344,4016,16064,39208,69430,130250,1028096,1210928,4843712,16449536,65798144,309997568",
			"name": "Numbers n such that phi(phi(n)) + sigma(sigma(n))=6*n.",
			"comment": [
				"Theorem: If q=2^p-1 is a Mersenne prime greater than 7 then n=251*2^(p-1) is in the sequence.",
				"Proof:  phi(phi(n))+sigma(sigma(n))",
				"      = phi(phi(251*2^(p-1)))+sigma(sigma(251*2^(p-1)))",
				"      = phi(125*2^(p-1))+sigma(252*(2^p-1))",
				"      = 100*2^(p-2)+sigma(2^2*3^2*7)*2^p",
				"      = 25*2^p+7*13*8*2^p",
				"      = 753*2^p",
				"      = 6*n.",
				"Note that multiplicative property of both functions phi and sigma is utilized along with the assumption p\u003e3.",
				"The first four terms of the sequence of the above form are 4016, 16064, 1028096 and 16449536.",
				"If q = 2^p-1 is a Mersenne prime greater than 7 then n = 75683*2^(p-1) is in the sequence. - _Hiroaki Yamanouchi_, Sep 19 2014",
				"a(13) \u003e 2*10^9. - _Hiroaki Yamanouchi_, Sep 19 2014",
				"251 and 75683 are both primes satisfying phi(phi(p)) + 4*sigma(sigma(p)) = 12*p. - _Michel Marcus_, Sep 20 2014"
			],
			"mathematica": [
				"Do[If[EulerPhi[EulerPhi[n]]+DivisorSigma[1,DivisorSigma[1,n]]==6n,Print[n]],{n,16500000}]"
			],
			"program": [
				"(PARI)",
				"for(n=1,10^9,if(sigma(sigma(n))+eulerphi(eulerphi(n)) == 6*n,print1(n,\", \"))) \\\\ _Derek Orr_, Sep 19 2014"
			],
			"xref": [
				"Cf. A000010, A000203, A000668, A244449."
			],
			"keyword": "nonn,more",
			"offset": "1,1",
			"author": "_Jahangeer Kholdi_ and _Farideh Firoozbakht_, Sep 16 2014",
			"ext": [
				"a(11)-a(12) from _Hiroaki Yamanouchi_, Sep 19 2014"
			],
			"references": 2,
			"revision": 26,
			"time": "2015-03-02T17:00:45-05:00",
			"created": "2014-09-17T20:41:05-04:00"
		}
	]
}