{
	"greeting": "Greetings from The On-Line Encyclopedia of Integer Sequences! http://oeis.org/",
	"query": "id:A246842",
	"count": 1,
	"start": 0,
	"results": [
		{
			"number": 246842,
			"data": "37,163,56893,409333,1483087,1867783,10101463,18292957,31284493,52896517,58048057,157861663,175933717,180336193,222640867,258001837,276739747,349693117,371305267,445890307,543764323,613305067,678551833,748576753,828497443",
			"name": "Primes p such that p + m^2 is prime for all m in {2,4,6,8,10,12,14,16}.",
			"comment": [
				"Primes p such that p + m^2, m = 2,4,6,8,10,12,14,16,18 are all primes:",
				"163, 409333, 1483087, 1867783, 222640867, 258001837, 371305267, 748576753, 828497443, 1235054137, ...",
				"Primes p such that p + m^2, m = 2,4,6,8,10,12,14,16,18,20 are all primes:",
				"163, 409333, 828497443, ..."
			],
			"link": [
				"Zak Seidov and Jens Kruse Andersen, \u003ca href=\"/A246842/b246842.txt\"\u003eTable of n, a(n) for n = 1..10000\u003c/a\u003e (first 34 terms from Zak Seidov)"
			],
			"program": [
				"(PARI) s=[]; forprime(p=2, 10e9, forstep(i=2, 16, 2, if(!isprime(p+i^2), next(2))); s=concat(s, p)); s \\\\ _Colin Barker_, Sep 05 2014"
			],
			"xref": [
				"Cf. A049492, A092120."
			],
			"keyword": "nonn",
			"offset": "1,1",
			"author": "_Zak Seidov_, Sep 05 2014",
			"ext": [
				"Typos in data and comments fixed by _Colin Barker_, Sep 05 2014"
			],
			"references": 5,
			"revision": 22,
			"time": "2014-09-09T20:44:28-04:00",
			"created": "2014-09-09T11:52:21-04:00"
		}
	]
}