{
	"greeting": "Greetings from The On-Line Encyclopedia of Integer Sequences! http://oeis.org/",
	"query": "id:A246444",
	"count": 1,
	"start": 0,
	"results": [
		{
			"number": 246444,
			"data": "2,3,4,8,9,10,15,16,17,21,22,23,27,28,29,33,34,35,36,40,41,42,46,47,48,52,53,54,59,60,61,65,66,67,71,72,73,77,78,79,80,84,85,86,90,91,92,96,97,98,103,104,105,109,110,111,115,116,117,121,122,123,124",
			"name": "Nonnegative integers k satisfying sin(k) \u003e sec(k).",
			"link": [
				"Clark Kimberling, \u003ca href=\"/A246444/b246444.txt\"\u003eTable of n, a(n) for n = 1..1000\u003c/a\u003e"
			],
			"mathematica": [
				"z = 200;",
				"Select[Range[0, z], Sin[#] \u003e Sec[#] \u0026]   (* A246444 *)",
				"Select[Range[0, z], Sin[#] \u003c Sec[#] \u0026]   (* A131503 *)"
			],
			"program": [
				"(PARI) is(n) = cos(n) \u003c 0; \\\\ _Michel Marcus_, Oct 15 2016"
			],
			"xref": [
				"Cf. A131503 (complement)."
			],
			"keyword": "nonn,easy",
			"offset": "1,1",
			"author": "_Clark Kimberling_, Aug 26 2014",
			"references": 7,
			"revision": 11,
			"time": "2016-10-15T16:17:27-04:00",
			"created": "2014-09-02T02:00:02-04:00"
		}
	]
}