{
	"greeting": "Greetings from The On-Line Encyclopedia of Integer Sequences! http://oeis.org/",
	"query": "id:A246546",
	"count": 1,
	"start": 0,
	"results": [
		{
			"number": 246546,
			"data": "9,4,5,7,5,5,3,0,2,1,5,9,0,3,7,1,2,3,2,6,7,1,9,5,7,0,9,8,7,0,7,6,6,2,4,4,2,0,9,7,5,1,7,1,3,3,1,3,2,6,5,9,5,8,4,5,2,7,6,1,3,8,6,1,6,0,8,7,6,1,5,9,5,9,5,3,3,6,4,1,2,8,9,0,1,3,2,3,9,7,9,6,4,6,9,8,7,1,2,6,6",
			"name": "Decimal expansion of 'c', a binary search tree constant associated with an asymptotic probability.",
			"link": [
				"J. A. Fill, Ph. Flajolet and N. Kapur, \u003ca href=\"http://arXiv.org/abs/math.CO/0306225\"\u003eSingularity analysis, Hadamard products and tree recurrences\u003c/a\u003e",
				"Steven R. Finch, \u003ca href=\"http://arxiv.org/abs/2001.00578\"\u003eErrata and Addenda to Mathematical Constants.\u003c/a\u003e p. 44."
			],
			"formula": [
				"c = log(4) + sum_{k\u003e=1} log(1 - 2^(-k))/2^k."
			],
			"example": [
				"0.94575530215903712326719570987076624420975171331326595845276..."
			],
			"mathematica": [
				"digits = 101; c = Log[4] + NSum[Log[1 - 2^(-k)]/2^k, {k, 1, Infinity}, WorkingPrecision -\u003e digits+5, NSumTerms -\u003e 100]; First[RealDigits[c, 10, digits]]"
			],
			"xref": [
				"Cf. A094720, A094721."
			],
			"keyword": "nonn,cons,easy",
			"offset": "0,1",
			"author": "_Jean-François Alcover_, Aug 29 2014",
			"references": 0,
			"revision": 10,
			"time": "2020-01-17T05:52:01-05:00",
			"created": "2014-08-29T15:07:35-04:00"
		}
	]
}