{
	"greeting": "Greetings from The On-Line Encyclopedia of Integer Sequences! http://oeis.org/",
	"query": "id:A246707",
	"count": 1,
	"start": 0,
	"results": [
		{
			"number": 246707,
			"data": "1,-2,-2,2,6,4,-14,0,6,-2,-12,-8,42,4,-16,-4,6,-4,-50,8,36,0,-24,16,42,2,-28,2,48,-12,-84,-16,6,8,-36,0,150,-12,-40,-4,36,12,-112,-8,72,4,-48,0,42,14,-62,4,84,4,-158,16,48,-8,-60,-8,252,4,-64,0,6",
			"name": "Expansion of phi(-q) * phi(-q^2) * phi(-q^3) * phi(-q^6) in powers of q.",
			"comment": [
				"Ramanujan theta functions: f(q) (see A121373), phi(q) (A000122), psi(q) (A010054), chi(q) (A000700)."
			],
			"link": [
				"G. C. Greubel, \u003ca href=\"/A246707/b246707.txt\"\u003eTable of n, a(n) for n = 0..1000\u003c/a\u003e",
				"Michael Somos, \u003ca href=\"/A010815/a010815.txt\"\u003eIntroduction to Ramanujan theta functions\u003c/a\u003e",
				"Eric Weisstein's World of Mathematics, \u003ca href=\"http://mathworld.wolfram.com/RamanujanThetaFunctions.html\"\u003eRamanujan Theta Functions\u003c/a\u003e"
			],
			"formula": [
				"Expansion of eta(q)^2 * eta(q^2) * eta(q^3)^2 * eta(q^6) / (eta(q^4) * eta(q^12)) in powers of q.",
				"G.f. is a period 1 Fourier series which satisfies f(-1 / (24 t)) = 384 (t/i)^2 g(t) where q = exp(2 Pi i t) and g() is the g.f. for A033765.",
				"a(2*n + 1) = -2 * A030188(n)."
			],
			"example": [
				"G.f. = 1 - 2*q - 2*q^2 + 2*q^3 + 6*q^4 + 4*q^5 - 14*q^6 + 6*q^8 - 2*q^9 + ..."
			],
			"mathematica": [
				"eta[q_]:= q^(1/24)*QPochhammer[q]; a[n_]:= SeriesCoefficient[eta[q]^2* eta[q^2]*eta[q^3]^2*eta[q^6]/(eta[q^4]*eta[q^12]), {q, 0, n}]; Table[a[n], {n, 0, 50}] (* _G. C. Greubel_, Apr 18 2018 *)"
			],
			"program": [
				"(PARI) {a(n) = local(A); if( n\u003c0, 0, A = x * O(x^n); polcoeff( eta(x + A)^2 * eta(x^2 + A) * eta(x^3 + A)^2 * eta(x^6 + A) / (eta(x^4 + A) * eta(x^12 + A)), n))};",
				"(PARI) q='q+O('q^99); Vec(eta(q)^2*eta(q^2)*eta(q^3)^2*eta(q^6)/(eta(q^4)*eta(q^12))) \\\\ _Altug Alkan_, Apr 18 2018",
				"(MAGMA) A := Basis( ModularForms( Gamma0(24), 2), 26); A[1] - 2*A[2] - 2*A[3] + 2*A[4] + 6*A[5] + 4*A[6] - 14*A[7] + 6*A[8];"
			],
			"xref": [
				"Cf. A030188, A033765."
			],
			"keyword": "sign",
			"offset": "0,2",
			"author": "_Michael Somos_, Sep 01 2014",
			"references": 2,
			"revision": 12,
			"time": "2021-03-12T22:24:47-05:00",
			"created": "2014-09-01T19:01:58-04:00"
		}
	]
}