{
	"greeting": "Greetings from The On-Line Encyclopedia of Integer Sequences! http://oeis.org/",
	"query": "id:A246986",
	"count": 1,
	"start": 0,
	"results": [
		{
			"number": 246986,
			"data": "1,5,21,84,331,1300,5111,20144,79611,315420,1252351,4980904,19837091,79086740,315557991,1259856864,5032285771,20107685260,80366302031,321271760024,1284506433651,5136283390980,20539905484471,82143935602384,328528679208731,1313973518843900,5255470464625311,21020610992695944",
			"name": "Expansion of (1-5*x+6*x^2-x^3)/((1-x)*(1-2*x)*(1-3*x)*(1-4*x)).",
			"link": [
				"Todd Silvestri, \u003ca href=\"/A246986/b246986.txt\"\u003eTable of n, a(n) for n = 0..1660\u003c/a\u003e",
				"A. Prasad, \u003ca href=\"http://arxiv.org/abs/1407.5284\"\u003eEquivalence classes of nodes in trees and rational generating functions\u003c/a\u003e, arXiv:1407.5284 [math.CO], 2014.",
				"\u003ca href=\"/index/Rec#order_04\"\u003eIndex entries for linear recurrences with constant coefficients\u003c/a\u003e, signature (10,-35,50,-24)."
			],
			"formula": [
				"a(n) = (3^(n+1)+7*4^n-3*2^n-1)/6. - _Todd Silvestri_, Nov 16 2014"
			],
			"mathematica": [
				"a[n_Integer/;n\u003e=0]:=(3^(n+1)+7*4^n-3*2^n-1)/6 (* _Todd Silvestri_, Nov 16 2014 *)",
				"CoefficientList[Series[(1 - 5 t + 6 t^2 - t^3) / ((1 - t) (1 - 2 t) (1 - 3 t) (1 - 4 t)), {t, 0, 40}], t] (* _Vincenzo Librandi_, Nov 16 2014 *)",
				"LinearRecurrence[{10,-35,50,-24},{1,5,21,84},30] (* _Harvey P. Dale_, May 12 2017 *)"
			],
			"program": [
				"(MAGMA) [(3^(n+1)+7*4^n-3*2^n-1)/6: n in [0..30]]; // _Vincenzo Librandi_, Nov 16 2014",
				"(PARI) Vec((1-5*x+6*x^2-x^3)/((1-x)*(1-2*x)*(1-3*x)*(1-4*x)) + O(x^30)) \\\\ _Michel Marcus_, Jan 14 2016"
			],
			"keyword": "nonn,easy",
			"offset": "0,2",
			"author": "_N. J. A. Sloane_, Sep 15 2014",
			"references": 1,
			"revision": 17,
			"time": "2017-05-12T11:07:53-04:00",
			"created": "2014-09-15T22:48:27-04:00"
		}
	]
}