{
	"greeting": "Greetings from The On-Line Encyclopedia of Integer Sequences! http://oeis.org/",
	"query": "id:A247452",
	"count": 1,
	"start": 0,
	"results": [
		{
			"number": 247452,
			"data": "1,3,18,135,1215,12636,147987,1917999,27162540,416236401,6848207775,120206639790,2239278203277,44074161731151,913065539247018,19843943547060315,451135755042249987,10701182793462338052,264250529777677991751,6779171511882363638619,180350988089950776032172",
			"name": "a(n)=3^n*Bell(n).",
			"link": [
				"Chai Wah Wu, \u003ca href=\"/A247452/b247452.txt\"\u003eTable of n, a(n) for n = 0..200\u003c/a\u003e"
			],
			"formula": [
				"a(n) = 3^n*A000110(n).",
				"a(n) = sum(k\u003e=0, (3*k)^n/k!)/exp(1), this is a Dobinski-type formula.",
				"O.g.f.: sum(k\u003e=0, 1/(k!*(1-3*k*z)) )/exp(1).",
				"E.g.f.: exp(exp(3*z)-1).",
				"a(n) is the n-th moment of a discrete, positive weight function w(x) consisting of an infinite comb of Dirac delta functions situated at x=3*k, with k = 0, 1, ..., defined as w(x)=sum(k\u003e=0, Dirac(x-3*k)/k!)/exp(1).",
				"G.f.: 1/(1-3x/(1-3x/(1-3x/(1-6x/(1-3x/(1-9x/(1-...)...) (continued fraction). - _Philippe Deléham_, Sep 18 2014",
				"a(0) = 1; a(n) = Sum_{k=1..n} binomial(n-1,k-1) * 3^k * a(n-k). - _Ilya Gutkovskiy_, Jan 16 2020"
			],
			"mathematica": [
				"Table[3^n BellB[n], {n, 0, 20}] (* _Vincenzo Librandi_, Sep 19 2014 *)"
			],
			"program": [
				"(Python)",
				"# Python 3.2 or above required.",
				"from itertools import accumulate",
				"A247452_list, blist, b, n3 = [1,3], [1], 1, 9",
				"for _ in range(2,201):",
				"....blist = list(accumulate([b]+blist))",
				"....b = blist[-1]",
				"....A247452_list.append(b*n3)",
				"....n3 *= 3 # _Chai Wah Wu_, Sep 19 2014",
				"(MAGMA) [3^n*Bell(n): n in [0..20]]; // _Vincenzo Librandi_, Sep 19 2014"
			],
			"xref": [
				"Cf. A000110, A055882."
			],
			"keyword": "nonn",
			"offset": "0,2",
			"author": "_Karol A. Penson_, Sep 17 2014",
			"references": 4,
			"revision": 44,
			"time": "2020-01-16T19:56:03-05:00",
			"created": "2014-09-17T16:01:08-04:00"
		}
	]
}