{
	"greeting": "Greetings from The On-Line Encyclopedia of Integer Sequences! http://oeis.org/",
	"query": "id:A247414",
	"count": 1,
	"start": 0,
	"results": [
		{
			"number": 247414,
			"data": "1,4,2,10,3,23,8,54,9,117,11,245,14,504,18,1026,21,2073,22,4168,24,8360,25,16745,27,33517,28,67062,29,134153,30,268336,32,536704,33,1073441,35,2146917,37,4293871,39,8587781,40,17175602,41,34351245,45,68702535,47",
			"name": "First differences of A024431.",
			"comment": [
				"a(n) = A024431(n+1) - A024431(n) = A115409(n+1,n+1)."
			],
			"link": [
				"Reinhard Zumkeller, \u003ca href=\"/A247414/b247414.txt\"\u003eTable of n, a(n) for n = 0..1000\u003c/a\u003e"
			],
			"program": [
				"(Haskell)",
				"a247414 n = a247414_list !! n",
				"a247414_list = zipWith (-) (tail a024431_list) a024431_list"
			],
			"xref": [
				"Cf. A024431, A115409."
			],
			"keyword": "nonn",
			"offset": "0,2",
			"author": "_Reinhard Zumkeller_, Sep 16 2014",
			"references": 3,
			"revision": 4,
			"time": "2014-09-16T16:13:53-04:00",
			"created": "2014-09-16T16:13:53-04:00"
		}
	]
}