{
	"greeting": "Greetings from The On-Line Encyclopedia of Integer Sequences! http://oeis.org/",
	"query": "id:A247988",
	"count": 1,
	"start": 0,
	"results": [
		{
			"number": 247988,
			"data": "4,11,19,27,36,45,54,64,74,84,94,105,115,126,136,147,158,169,180,191,203,214,225,237,248,260,272,283,295,307,319,331,343,355,367,379,391,403,416,428,440,452,465,477,490,502,515,527,540,552,565,578,590,603",
			"name": "Least number k such that e - k/(k!)^(1/k) \u003c 1/n.",
			"reference": [
				"Steven R. Finch, Mathematical Constants, Cambridge University Press, 2003, p. 14."
			],
			"example": [
				"Let w(n) = e - n/(n!)^(1/n).  Approximations are shown here:",
				"n .... w(n)  ...... 1/n",
				"1 .... 1.71828 .... 1",
				"2 .... 1.30407 .... 0.5",
				"3 .... 1.06732 .... 0.333333",
				"4 .... 0.911078 ... 0.25",
				"5 .... 0.799022 ... 0.2",
				"10 ... 0.510157 ... 0.1",
				"11 ... 0.477609 ... 0.090909",
				"a(2) = 11 because w(11) \u003c 1/2 \u003c w(10)."
			],
			"mathematica": [
				"$MaxExtraPrecision = Infinity;",
				"z = 1000; p[k_] := p[k] = k/(k!)^(1/k) (* Finch p. 14 *)",
				"N[Table[E - p[n], {n, 1, z}]];",
				"f[n_] := f[n] = Select[Range[z], E - p[#] \u003c 1/n \u0026, 1];",
				"u = Flatten[Table[f[n], {n, 1, z/10}]]  (* A247988 *)"
			],
			"xref": [
				"Cf. A247778, A247908, A247911, A247914, A247985."
			],
			"keyword": "nonn,easy",
			"offset": "1,1",
			"author": "_Clark Kimberling_, Sep 29 2014",
			"references": 1,
			"revision": 4,
			"time": "2014-09-30T15:57:21-04:00",
			"created": "2014-09-30T15:57:21-04:00"
		}
	]
}