{
	"greeting": "Greetings from The On-Line Encyclopedia of Integer Sequences! http://oeis.org/",
	"query": "id:A247258",
	"count": 1,
	"start": 0,
	"results": [
		{
			"number": 247258,
			"data": "5171,16402481,467943389,504990743,749554829,857435471,2430292727,4486052477,6659865623,7064402441,7487094743,13947137557,21257639959,30293402473,79101562439,155450409929,169935221737,440301256697,1010752751017,1086948034597",
			"name": "The first of four consecutive primes that add up to a fourth power.",
			"link": [
				"Zak Seidov, \u003ca href=\"/A247258/b247258.txt\"\u003eTable of n, a(n) for n = 1..1189\u003c/a\u003e"
			],
			"example": [
				"5171 is in the sequence because the next three primes are 5179, 5189, 5197, and 5171 + 5179 + 5189 + 5197 = 20736 = 12^4."
			],
			"xref": [
				"Cf. A245577 (base of 4th power), A247259, A247265, A247266 (members of quadruple), subsequence of A206280."
			],
			"keyword": "nonn",
			"offset": "1,1",
			"author": "_Zak Seidov_, Nov 30 2014",
			"references": 4,
			"revision": 17,
			"time": "2014-12-04T17:21:38-05:00",
			"created": "2014-12-04T17:21:38-05:00"
		}
	]
}