{
	"greeting": "Greetings from The On-Line Encyclopedia of Integer Sequences! http://oeis.org/",
	"query": "id:A247903",
	"count": 1,
	"start": 0,
	"results": [
		{
			"number": 247903,
			"data": "1,5,13,29,53,93,149,237,357,541,789,1165,1669,2429,3445,4973,7013,10077,14165,20301,28485,40765,57141,81709,114469,163613,229141,327437,458501,655101,917237,1310445,1834725,2621149,3669717,5242573,7339717,10485437",
			"name": "Start with a single square; at n-th generation add a square at each expandable vertex (this is the \"vertex to side\" version); a(n) is the sum of all label values at n-th generation. (See comment for construction rules.)",
			"comment": [
				"Refer to A247618, which is the \"vertex to vertex\" expansion version. For this case, the expandable vertices of the existing generation will contact the sides of the new ones i.e.\"vertex to side\" expansion version. Let us assign the label \"1\" to the square at the origin; at n-th generation add a square at each expandable vertex, i.e. each vertex where the added generations will not overlap the existing ones, although overlaps among new generations are allowed. The non-overlapping squares will have the same label value as a predecessor; for the overlapping ones, the label value will be sum of label values of predecessors. a(n) is the sum of all label values at n-th generation. The squares count is A001844. See illustration (\"vertex to side\" is equal to \"side to vertex\"). For n \u003e= 1, (a(n) - a(n-1))/4 is A027383."
			],
			"link": [
				"Kival Ngaokrajang, \u003ca href=\"/A247903/a247903_1.pdf\"\u003eIllustration of initial terms (vertex to side)\u003c/a\u003e",
				"Kival Ngaokrajang, \u003ca href=\"/A247903/a247903.pdf\"\u003eIllustration of initial terms (side to vertex)\u003c/a\u003e",
				"\u003ca href=\"/index/Rec#order_04\"\u003eIndex entries for linear recurrences with constant coefficients\u003c/a\u003e, signature (2,1,-4,2)."
			],
			"formula": [
				"a(0) = 1, for n \u003e= 1, a(n) = 4*A027383(n) + a(n-1).",
				"a(n) = 2*a(n-1)+a(n-2)-4*a(n-3)+2*a(n-4). - _Colin Barker_, Sep 26 2014",
				"G.f.: -(2*x^3+2*x^2+3*x+1) / ((x-1)^2*(2*x^2-1)). - _Colin Barker_, Sep 26 2014"
			],
			"program": [
				"(PARI)",
				"{",
				"b=0; a=1; print1(1, \", \");",
				"for (n=0, 50,",
				"     b=b+2^floor(n/2);",
				"     a=a+4*b;",
				"     print1(a, \", \")",
				"    )",
				"}",
				"(PARI)",
				"Vec(-(2*x^3+2*x^2+3*x+1) / ((x-1)^2*(2*x^2-1)) + O(x^100)) \\\\ _Colin Barker_, Sep 26 2014"
			],
			"xref": [
				"Vertex to vertex version: A061777, A247618, A247619, A247620.",
				"Vertex to side version: A101946, A247904, A247905."
			],
			"keyword": "nonn,easy",
			"offset": "0,2",
			"author": "_Kival Ngaokrajang_, Sep 26 2014",
			"ext": [
				"More terms from _Colin Barker_, Sep 26 2014"
			],
			"references": 7,
			"revision": 18,
			"time": "2015-06-13T00:55:16-04:00",
			"created": "2014-09-26T21:47:08-04:00"
		}
	]
}