{
	"greeting": "Greetings from The On-Line Encyclopedia of Integer Sequences! http://oeis.org/",
	"query": "id:A247782",
	"count": 1,
	"start": 0,
	"results": [
		{
			"number": 247782,
			"data": "1,3,4,5,6,7,9,10,11,12,14,15,16,17,18,20,21,22,23,25,26,27,28,29,31,32,33,34,36,37,38,39,40,42,43,44,45,47,48,49,50,51,53,54,55,56,58,59,60,61,63,64,65,66,67,69,70,71,72,74,75,76,77,78,80,81",
			"name": "Numbers k for which A247781(k+1) = A247781(k).",
			"comment": [
				"Every positive integer is in exactly one of the sequences A247782 and A247783."
			],
			"link": [
				"Clark Kimberling, \u003ca href=\"/A247782/b247782.txt\"\u003eTable of n, a(n) for n = 1..4000\u003c/a\u003e"
			],
			"example": [
				"The values of 1/e - (1 - 1/k)^k for n = 1..9 are approximately",
				"0.367879, 0.117879, 0.0715831, 0.0514732, 0.0401994, 0.0329815, 0.0279628, 0.0242705, 0.02144, from which we see that the first 9 terms of A247781 are 1,1,2,2,2,2,2,2,3, so that the first six terms of A247782 are 1,3,4,5,6,7."
			],
			"mathematica": [
				"z = 400; f[n_] := f[n] = Select[Range[z], 1/E - (1 - 1/#)^# \u003c 1/n \u0026, 1];",
				"u = Flatten[Table[f[n], {n, 1, z}]] (*A247781*)",
				"d1 = Flatten[Position[Differences[u], 0]] (*A247782*)",
				"d2 = Flatten[Position[Differences[u], 1]] (*A247783*)"
			],
			"xref": [
				"Cf. A247781, A247783, A247788."
			],
			"keyword": "nonn,easy",
			"offset": "1,2",
			"author": "_Clark Kimberling_, Sep 24 2014",
			"references": 3,
			"revision": 4,
			"time": "2014-09-26T17:24:18-04:00",
			"created": "2014-09-26T17:24:18-04:00"
		}
	]
}