{
	"greeting": "Greetings from The On-Line Encyclopedia of Integer Sequences! http://oeis.org/",
	"query": "id:A247328",
	"count": 1,
	"start": 0,
	"results": [
		{
			"number": 247328,
			"data": "1,3,5,7,9,11,13,15,17,19,21,23,25,27,29,31,33,35,37,39,41,43,45,47,49,51,53,55,57,59,61,63,65,67,69,71,73,75,77,79,81,83,85,87,89,91,93,95,97,99,101,103,105,107,109,111,113,115,117,119,121,123,125",
			"name": "Odd deficient numbers.",
			"comment": [
				"Odd numbers n with sigma(n) \u003c 2n.",
				"945 is the first odd number that is not in the sequence.",
				"Complement of A005231 (odd abundant numbers) with respect to A005408 (odd numbers), assuming that no odd perfect numbers exist. - Comment clarified by _Daniel Forgues_, Jan 19 2015",
				"Complement of A125499 (even deficient numbers) with respect to A005100 (deficient numbers).",
				"Asymptotically, among the deficient numbers, are there more evens than odds? - _Daniel Forgues_, Oct 24 2015"
			],
			"link": [
				"Jaroslav Krizek, \u003ca href=\"/A247328/b247328.txt\"\u003eTable of n, a(n) for n = 1..1000\u003c/a\u003e",
				"Eric Weisstein's World of Mathematics, \u003ca href=\"http://mathworld.wolfram.com/DeficientNumber.html\"\u003eDeficient Number\u003c/a\u003e",
				"Eric Weisstein's World of Mathematics, \u003ca href=\"http://mathworld.wolfram.com/Abundance.html\"\u003eAbundance\u003c/a\u003e",
				"Wikipedia, \u003ca href=\"http://en.wikipedia.org/wiki/Deficient_number\"\u003eDeficient number\u003c/a\u003e"
			],
			"example": [
				"27 is in the sequence because it is odd and its sum of divisors 1+3+9+27 is less than 2*27."
			],
			"mathematica": [
				"a247328[n_Integer] :=",
				"Select[Range[n], And[OddQ[#], DivisorSigma[1, #] \u003c 2 #] \u0026] (* _Michael De Vlieger_, Nov 08 2014 *)"
			],
			"program": [
				"(MAGMA) [n: n in [1..1000 by 2] | IsOdd(n) and SumOfDivisors(n) lt 2*n]",
				"(PARI) select(n-\u003e(sigma(n)\u003c2*n), vector(100, n, 2*n-1)) \\\\ _Michel Marcus_, Nov 06 2014"
			],
			"xref": [
				"Cf. A005100, A005231, A005408, A125499."
			],
			"keyword": "nonn",
			"offset": "1,2",
			"author": "_Jaroslav Krizek_, Nov 05 2014",
			"references": 4,
			"revision": 32,
			"time": "2020-11-20T07:05:29-05:00",
			"created": "2014-11-13T00:14:17-05:00"
		}
	]
}