{
	"greeting": "Greetings from The On-Line Encyclopedia of Integer Sequences! http://oeis.org/",
	"query": "id:A247464",
	"count": 1,
	"start": 0,
	"results": [
		{
			"number": 247464,
			"data": "10,13,14,17,20,26,29,31,32,50,59,77,82,104,164,185,217,263,293,361,437,442,545,547,599,608,623,739,782,1081,1120,1138,1429,2516,2518,4277,4529,5438,5596,11945,12716,13955,14540,31730,31769,42964,46396",
			"name": "Numbers n such that n!!! - 3^4 is prime.",
			"comment": [
				"Large terms correspond to probable primes.",
				"a(48) \u003e 50000."
			],
			"link": [
				"Henri \u0026 Renaud Lifchitz, \u003ca href=\"http://www.primenumbers.net/prptop/searchform.php?form=n!3-81\u0026amp;action=Search\"\u003ePRP Records. Search for n!3-81\u003c/a\u003e",
				"Joe McLean, \u003ca href=\"http://web.archive.org/web/20091027034731/http://uk.geocities.com/nassarawa%40btinternet.com/probprim2.htm\"\u003eInteresting Sources of Probable Primes\u003c/a\u003e",
				"OpenPFGW Project, \u003ca href=\"http://sourceforge.net/projects/openpfgw/\"\u003ePrimality Tester\u003c/a\u003e",
				"Eric Weisstein's World of Mathematics, \u003ca href=\"http://mathworld.wolfram.com/Multifactorial.html\"\u003eMultifactorial\u003c/a\u003e"
			],
			"example": [
				"10!3-81 = 10*7*4*1-81 = 199 is prime, so 10 is in the sequence."
			],
			"mathematica": [
				"MultiFactorial[n_, k_] := If[n \u003c 1, 1, If[n \u003c k + 1, n, n*MultiFactorial[n - k, k]]];",
				"lst={};Do[If[PrimeQ[MultiFactorial[n, 3] - 81], AppendTo[lst, n]], {n, 100}];lst"
			],
			"xref": [
				"Cf. A007661, A037082, A084438, A243078."
			],
			"keyword": "nonn,more",
			"offset": "1,1",
			"author": "_Robert Price_, Sep 17 2014",
			"references": 1,
			"revision": 13,
			"time": "2014-09-27T01:56:06-04:00",
			"created": "2014-09-27T01:56:06-04:00"
		}
	]
}