{
	"greeting": "Greetings from The On-Line Encyclopedia of Integer Sequences! http://oeis.org/",
	"query": "id:A247735",
	"count": 1,
	"start": 0,
	"results": [
		{
			"number": 247735,
			"data": "0,0,0,4,68,744,7088,69176,658776,5995348,52831448,458439732,3944077760,33606901296,283630894720,2375471834288,19779055344468,163866917256420,1351464466008112,11100931884955344,90860898121739864,741378713523090200,6032337718479599100",
			"name": "Total number of F shapes in all tilings of a 5 X n rectangle with pentominoes of any shape.",
			"link": [
				"Alois P. Heinz, \u003ca href=\"/A247735/b247735.txt\"\u003eTable of n, a(n) for n = 0..500\u003c/a\u003e",
				"Wikipedia, \u003ca href=\"https://en.wikipedia.org/wiki/Pentomino\"\u003ePentomino\u003c/a\u003e"
			],
			"formula": [
				"a(n) = Sum_{k\u003e0} k * A247702(n,k)."
			],
			"xref": [
				"Cf. A174249, A233427, A247702."
			],
			"keyword": "nonn",
			"offset": "0,4",
			"author": "_Alois P. Heinz_, Sep 23 2014",
			"references": 2,
			"revision": 7,
			"time": "2017-02-06T18:41:02-05:00",
			"created": "2014-09-23T08:43:13-04:00"
		}
	]
}