{
	"greeting": "Greetings from The On-Line Encyclopedia of Integer Sequences! http://oeis.org/",
	"query": "id:A247532",
	"count": 1,
	"start": 0,
	"results": [
		{
			"number": 247532,
			"data": "848,1616,3220,6584,13668,29012,62108,133716,288996,627654,1366118,2978172,6500008,14206554,31071490,67992670,148845278,325994076,714155690,1564780972,3429103460,7515830880,16474726804,36114808462",
			"name": "Number of length n+3 0..7 arrays with some disjoint pairs in every consecutive four terms having the same sum",
			"comment": [
				"Column 7 of A247533"
			],
			"link": [
				"R. H. Hardin, \u003ca href=\"/A247532/b247532.txt\"\u003eTable of n, a(n) for n = 1..210\u003c/a\u003e"
			],
			"example": [
				"Some solutions for n=6",
				"..6....1....2....6....4....5....5....4....0....1....2....4....3....5....1....4",
				"..7....6....5....4....5....6....6....1....5....2....5....6....5....3....6....4",
				"..3....4....7....5....6....2....5....5....4....1....6....5....6....4....3....5",
				"..2....3....4....5....7....3....6....2....1....2....3....7....4....2....4....5",
				"..6....1....2....4....4....5....5....6....0....3....4....4....7....1....5....4",
				"..7....0....5....6....5....6....4....1....5....4....5....6....5....3....6....6",
				"..3....4....1....5....2....2....5....5....4....3....2....5....6....4....7....5",
				"..2....3....4....3....7....1....6....2....1....4....3....7....6....6....4....7",
				"..6....1....2....4....4....7....7....4....0....3....6....6....7....5....5....4"
			],
			"keyword": "nonn",
			"offset": "1,1",
			"author": "_R. H. Hardin_, Sep 18 2014",
			"references": 1,
			"revision": 4,
			"time": "2014-09-18T14:03:00-04:00",
			"created": "2014-09-18T14:03:00-04:00"
		}
	]
}