{
	"greeting": "Greetings from The On-Line Encyclopedia of Integer Sequences! http://oeis.org/",
	"query": "id:A247779",
	"count": 1,
	"start": 0,
	"results": [
		{
			"number": 247779,
			"data": "1,3,4,6,7,9,11,12,14,15,17,18,20,21,23,25,26,28,29,31,32,34,36,37,39,40,42,43,45,46,48,50,51,53,54,56,57,59,60,62,64,65,67,68,70,71,73,75,76,78,79,81,82,84,85,87,89,90,92,93,95,96,98,99,101,103",
			"name": "Numbers k such that A247778(k+1) - A247778(k) = 1.",
			"comment": [
				"Complement of A247780."
			],
			"link": [
				"Clark Kimberling, \u003ca href=\"/A247779/b247779.txt\"\u003eTable of n, a(n) for n = 1..2000\u003c/a\u003e"
			],
			"example": [
				"The values of e - (1 + 1/k)^k for k = 1..8 are approximately 0.718282, 0.468282, 0.347911, 0.276876, 0.229962, 0.196655, 0.171782, 0.152497, so that the first 6 terms of A247778 are 1,2,4,5,6,8, and the first three terms of A247779 are 1,3,4."
			],
			"mathematica": [
				"z = 600; f[n_] := f[n] = Select[Range[z], E - (1 + 1/#)^# \u003c 1/n \u0026, 1];",
				"u = Flatten[Table[f[n], {n, 1, z}]]       (*A247778*)",
				"d1 = Flatten[Position[Differences[u], 1]] (*A247779*)",
				"d2 = Flatten[Position[Differences[u], 2]] (*A247780*)"
			],
			"xref": [
				"Cf. A247778, A247780."
			],
			"keyword": "nonn,easy",
			"offset": "1,2",
			"author": "_Clark Kimberling_, Sep 23 2014",
			"references": 4,
			"revision": 4,
			"time": "2014-09-25T21:16:00-04:00",
			"created": "2014-09-25T21:16:00-04:00"
		}
	]
}