{
	"greeting": "Greetings from The On-Line Encyclopedia of Integer Sequences! http://oeis.org/",
	"query": "id:A248130",
	"count": 1,
	"start": 0,
	"results": [
		{
			"number": 248130,
			"data": "0,5,1,3,9,7,2,1,2,6,3,6,8,1,9,8,1,4,2,3,7,2,4,2,3,2,1,6,9,1,2,6,2,1,6,9,6,3,8,1,7,2,3,6,8,1,6,3,8,1,7,2,8,1,9,4,2,3,1,2,6,9,8,1,4,2,3,8,1,9,4,2,3,1,2,6,4,2,3,7,2,2,1,6,9,3,6,8,1,7,2",
			"name": "Limiting sequence of digits preceding the 0's in A248128.",
			"formula": [
				"a(n) = A248129(n)/3 = d(m-n) if d(m) := the m-th digit of A248128, equals 0, and m is sufficiently large as to have no digit 0 between the (m-n)th and the m-th digit of A248128."
			],
			"keyword": "nonn,base",
			"offset": "0,2",
			"author": "_M. F. Hasler_, Oct 02 2014",
			"references": 3,
			"revision": 5,
			"time": "2014-10-02T05:37:57-04:00",
			"created": "2014-10-02T05:37:57-04:00"
		}
	]
}