{
	"greeting": "Greetings from The On-Line Encyclopedia of Integer Sequences! http://oeis.org/",
	"query": "id:A248244",
	"count": 1,
	"start": 0,
	"results": [
		{
			"number": 248244,
			"data": "3,2,3,26,842,1210718,3125731485713,19754948045006045983659938,1065761639370207788402744631308304462734917602085737,324026619188969581072902747191745217929877633476958459802312813323913819842709323919885352524528244937458",
			"name": "Egyptian fraction representation of sqrt(15) (A010472) using a greedy function.",
			"mathematica": [
				"Egyptian[nbr_] := Block[{lst = {IntegerPart[nbr]}, cons = N[ FractionalPart[ nbr], 2^20], denom, iter = 8}, While[ iter \u003e 0, denom = Ceiling[ 1/cons]; AppendTo[ lst, denom]; cons -= 1/denom; iter--]; lst]; Egyptian[ Sqrt[ 15]]"
			],
			"xref": [
				"Egyptian fraction representations of the square roots: A006487, A224231, A248235-A248322.",
				"Egyptian fraction representations of the cube roots: A129702, A132480-A132574."
			],
			"keyword": "nonn",
			"offset": "0,1",
			"author": "_Robert G. Wilson v_, Oct 04 2014",
			"references": 0,
			"revision": 6,
			"time": "2019-10-20T12:33:57-04:00",
			"created": "2014-10-06T00:56:13-04:00"
		}
	]
}