{
	"greeting": "Greetings from The On-Line Encyclopedia of Integer Sequences! http://oeis.org/",
	"query": "id:A248248",
	"count": 1,
	"start": 0,
	"results": [
		{
			"number": 248248,
			"data": "4,3,8,73,9617,111131795,26084503201670555,4157115685705509978962832510685264,147322611763368949503218439363472434087529649552239912252006589221170,71615688159358613181735412731094718668653530665367791449989367208307390123881747858538896669229709245658779872053034609094278277577821587",
			"name": "Egyptian fraction representation of sqrt(20) (A010476) using a greedy function.",
			"mathematica": [
				"Egyptian[nbr_] := Block[{lst = {IntegerPart[nbr]}, cons = N[ FractionalPart[ nbr], 2^20], denom, iter = 8}, While[ iter \u003e 0, denom = Ceiling[ 1/cons]; AppendTo[ lst, denom]; cons -= 1/denom; iter--]; lst]; Egyptian[ Sqrt[ 20]]"
			],
			"xref": [
				"Egyptian fraction representations of the square roots: A006487, A224231, A248235-A248322.",
				"Egyptian fraction representations of the cube roots: A129702, A132480-A132574."
			],
			"keyword": "nonn",
			"offset": "0,1",
			"author": "_Robert G. Wilson v_, Oct 04 2014",
			"references": 0,
			"revision": 6,
			"time": "2019-10-20T12:35:35-04:00",
			"created": "2014-10-06T18:11:10-04:00"
		}
	]
}