{
	"greeting": "Greetings from The On-Line Encyclopedia of Integer Sequences! http://oeis.org/",
	"query": "id:A248065",
	"count": 1,
	"start": 0,
	"results": [
		{
			"number": 248065,
			"data": "18636,48316,128556,345760,933004,2517256,6782344,18295612,49388668,133375284,360217146,972778788,2626567836,7093103338,19156815090,51738853632,139730624794,377341692404,1018932082592,2751807058462",
			"name": "Number of length n+5 0..5 arrays with some disjoint triples in each consecutive six terms having the same sum",
			"comment": [
				"Column 5 of A248068"
			],
			"link": [
				"R. H. Hardin, \u003ca href=\"/A248065/b248065.txt\"\u003eTable of n, a(n) for n = 1..210\u003c/a\u003e"
			],
			"example": [
				"Some solutions for n=3",
				"..3....1....0....4....4....1....0....3....2....0....4....3....1....4....3....0",
				"..0....2....3....1....0....3....2....3....4....3....1....3....2....1....2....1",
				"..0....3....2....3....1....1....1....1....0....4....3....1....3....5....4....3",
				"..0....0....4....4....2....0....3....0....3....1....0....3....5....4....0....4",
				"..2....4....3....0....4....3....5....5....0....3....1....2....1....3....4....5",
				"..1....2....0....2....1....2....3....0....3....3....3....2....2....1....5....3",
				"..3....1....4....4....4....1....2....1....4....2....4....3....1....0....3....4",
				"..0....2....5....3....0....5....0....5....2....1....1....1....2....5....2....3"
			],
			"keyword": "nonn",
			"offset": "1,1",
			"author": "_R. H. Hardin_, Sep 30 2014",
			"references": 1,
			"revision": 4,
			"time": "2014-09-30T21:50:13-04:00",
			"created": "2014-09-30T21:50:13-04:00"
		}
	]
}