{
	"greeting": "Greetings from The On-Line Encyclopedia of Integer Sequences! http://oeis.org/",
	"query": "id:A248643",
	"count": 1,
	"start": 0,
	"results": [
		{
			"number": 248643,
			"data": "0,0,-2,0,-4,20,22,96,202,472,914,2000,3940,8108,16264,32640,65264,130964,261802,524128,1048324,2096932,4193798,8388416,16776716,33554120,67108378,134217392,268434644,536870672,1073740894,2147483136,4294966636,8589934048,17179868344",
			"name": "a(n) = phi(2^n) - phi(n^2), with Euler's totient function phi = A000010.",
			"comment": [
				"phi(2^n) and phi(n^2) both are even iff n\u003e1, therefore their sum and difference is always even."
			],
			"formula": [
				"a(n) = 2^(n-1) - n*phi(n) = A000079(n-1) - A002618(n). - _Farideh Firoozbakht_, Oct 11 2014"
			],
			"maple": [
				"with(numtheory): A248643:=n-\u003ephi(2^n)-phi(n^2): seq(A248643(n), n=1..40); # _Wesley Ivan Hurt_, Feb 11 2017"
			],
			"mathematica": [
				"Table[EulerPhi[2^n] - EulerPhi[n^2], {n, 35}] (* _Michael De Vlieger_, Feb 13 2017 *)"
			],
			"program": [
				"(PARI) a(n)=2^(n-1)-n*eulerphi(n)"
			],
			"xref": [
				"Cf. A000010, A000079, A002618."
			],
			"keyword": "sign",
			"offset": "1,3",
			"author": "_M. F. Hasler_, Oct 10 2014",
			"references": 1,
			"revision": 17,
			"time": "2017-02-14T02:35:38-05:00",
			"created": "2014-10-11T10:19:33-04:00"
		}
	]
}