{
	"greeting": "Greetings from The On-Line Encyclopedia of Integer Sequences! http://oeis.org/",
	"query": "id:A248380",
	"count": 1,
	"start": 0,
	"results": [
		{
			"number": 248380,
			"data": "2,2,2,2,1,2,1,2,2,2,1,2,1,2,2",
			"name": "a(n) = 1 if first player in Sylver coinage game can force a win by choosing n as the first number, otherwise a(n) = 2.",
			"comment": [
				"Although a(16) is not known, a few later terms are known. For example a(17)=1.",
				"J. H. Conway offers $1000 for the value (with proof) of a(16)."
			],
			"link": [
				"Joshua Fallon, Kirsten Hogenson, Lauren Keough, Mario Lomelí, Marcus Schaefer, and Pablo Soberón, \u003ca href=\"https://arxiv.org/abs/1808.00385\"\u003eA Note on the Maximum Rectilinear Crossing Number of Spiders\u003c/a\u003e, arXiv:1808.00385 [math.CO], 2018.",
				"Aleksandar Jurišić and Janoš Vidali, \u003ca href=\"https://doi.org/10.22405/2226-8383-2019-20-2-198-206\"\u003eNo strongly regular graph is locally Heawood\u003c/a\u003e, Chebyshevskii Sbornik (2020) Vol. 20, No. 2, 199-206.",
				"OEIS50 DIMACS Conference on Challenges of Identifying Integer Sequences, \u003ca href=\"https://vimeo.com/109815595\"\u003eProblem Session 2, Oct 10 2014\u003c/a\u003e, J. H. Conway, Five $1000 Problems (starting at about 06.44). This sequence is mentioned in the first problem.",
				"Tal Schuster, Ashwin Kalyan, Oleksandr Polozov, and Adam Tauman Kalai, \u003ca href=\"https://arxiv.org/abs/2106.05784\"\u003eProgramming Puzzles\u003c/a\u003e, arXiv:2106.05784 [cs.LG], 2021.",
				"Wikipedia, \u003ca href=\"http://en.wikipedia.org/wiki/Sylver_coinage\"\u003eSylver coinage\u003c/a\u003e",
				"Sa’ar Zehavi and Ivo Fagundes David de Oliveira, \u003ca href=\"https://pdfs.semanticscholar.org/e255/c947033f11fd269f9f9525a7bdfe02a27b77.pdf\"\u003eNot Conway's 99-Graph Problem\u003c/a\u003e, research paper, Department of Computer Science, Technion, Sep 15 2017.",
				"Doron Zeilberger, \u003ca href=\"http://sites.math.rutgers.edu/~zeilberg/oeis50.html\"\u003eVideos of Talks Delivered in SLOANE75/OEIS50 DIMACS Conference on Challenges of Identifying Integer Sequences\u003c/a\u003e (see Problem Session 2, Oct 10 2014)"
			],
			"keyword": "nonn,more,hard",
			"offset": "1,1",
			"author": "_N. J. A. Sloane_, Oct 10 2014",
			"references": 0,
			"revision": 44,
			"time": "2021-09-28T16:11:48-04:00",
			"created": "2014-10-11T21:54:22-04:00"
		}
	]
}