{
	"greeting": "Greetings from The On-Line Encyclopedia of Integer Sequences! http://oeis.org/",
	"query": "id:A248960",
	"count": 1,
	"start": 0,
	"results": [
		{
			"number": 248960,
			"data": "1,3,9,27,81,150,366,870,2022,4686,10974,25614,59742,139398,325350,759198,1771590,4134126,9647262,22512342,52533750,122590422,286071414,667563054,1557794622,3635198310,8482932318,19795382454,46193598486,107795266974,251546100558,586996465758,1369788083022",
			"name": "Number of ternary words of length n in which all digits 0..2 occur in every 5 consecutive digits.",
			"link": [
				"Colin Barker, \u003ca href=\"/A248960/b248960.txt\"\u003eTable of n, a(n) for n = 0..1000\u003c/a\u003e",
				"\u003ca href=\"/index/Rec#order_06\"\u003eIndex entries for linear recurrences with constant coefficients\u003c/a\u003e, signature (1,2,2,2,-1,-1)."
			],
			"formula": [
				"G.f.: (1+2*x+4*x^2+10*x^3+28*x^4-8*x^5-14*x^6-6*x^8+3*x^10) / ((1+x)*(1-2*x-2*x^3+x^5)). - _Colin Barker_, Oct 27 2016",
				"a(n) = a(n-1) + 2*a(n-2) + 2*a(n-3) + 2*a(n-4) - a(n-5) - a(n-6).",
				"a(n) = A242317(n-4) * 6."
			],
			"mathematica": [
				"Join[{1,3,9,27,81},LinearRecurrence[{1,2,2,2,-1,-1},{150,366,870,2022,4686,10974},30]] (* _Harvey P. Dale_, Apr 04 2015 *)"
			],
			"program": [
				"(PARI) Vec((1+2*x+4*x^2+10*x^3+28*x^4-8*x^5-14*x^6-6*x^8+3*x^10)/((1+x)*(1-2*x-2*x^3+x^5)) + O(x^30)) \\\\ _Colin Barker_, Oct 27 2016"
			],
			"xref": [
				"Cf. A242317, A249019."
			],
			"keyword": "nonn,easy",
			"offset": "0,2",
			"author": "_Andrew Woods_, Jan 12 2015",
			"ext": [
				"Changed offset to 0. - _N. J. A. Sloane_, Jan 15 2015"
			],
			"references": 2,
			"revision": 17,
			"time": "2016-10-27T11:46:57-04:00",
			"created": "2015-01-15T11:00:25-05:00"
		}
	]
}