{
	"greeting": "Greetings from The On-Line Encyclopedia of Integer Sequences! http://oeis.org/",
	"query": "id:A248726",
	"count": 1,
	"start": 0,
	"results": [
		{
			"number": 248726,
			"data": "1,3,9,0,4,5,1,1,7,6,6,2,1,8,8,1,2,9,3,5,8,7,2,8,4,7,4,3,6,9,0,8,9,0,5,2,1,3,9,3,6,2,6,4,7,0,6,7,8,1,9,6,0,9,5,5,1,0,3,5,4,9,3,4,7,9,6,7,0,2,0,1,4,5,3,6,6,6,6,0,7,9,8,8,6,3,3,7,9,8,1,3,5,7,6,5,5,0,5,7,9,9,5,5,3",
			"name": "Decimal expansion of Sum_{k\u003e=1} 1/(9^k - 1).",
			"link": [
				"G. C. Greubel, \u003ca href=\"/A248726/b248726.txt\"\u003eTable of n, a(n) for n = 0..10000\u003c/a\u003e"
			],
			"formula": [
				"Equals Sum_{k\u003e=1} d(k)/9^k, where d(k) is the number of divisors of k (A000005). - _Amiram Eldar_, Jun 22 2020"
			],
			"example": [
				"0.13904511766218812935872847436908905213936264706781960955103549347967020145366..."
			],
			"maple": [
				"evalf(sum(1/(9^k-1), k=1..infinity),120) # _Vaclav Kotesovec_, Oct 18 2014"
			],
			"mathematica": [
				"x = 1/9; RealDigits[ Sum[ DivisorSigma[0, k] x^k, {k, 1000}], 10, 105][[1]] (* after an observation and the formula of _Amarnath Murthy_, see A073668 *)"
			],
			"program": [
				"(PARI) suminf(k=1, 1/(9^k-1)) \\\\ _Michel Marcus_, Oct 18 2014"
			],
			"xref": [
				"Cf. A000005, A065442, A073668, A214369, A248721, A248722, A248723, A248724, A248725."
			],
			"keyword": "nonn,cons",
			"offset": "0,2",
			"author": "_Robert G. Wilson v_, Oct 12 2014",
			"references": 7,
			"revision": 22,
			"time": "2020-06-22T01:52:23-04:00",
			"created": "2014-10-18T04:05:08-04:00"
		}
	]
}