{
	"greeting": "Greetings from The On-Line Encyclopedia of Integer Sequences! http://oeis.org/",
	"query": "id:A248788",
	"count": 1,
	"start": 0,
	"results": [
		{
			"number": 248788,
			"data": "1,2,3,3,9,6,7,4,5,6,5,8,5,3,2,6,4,7,9,6,5,6,8,4,3,2,0,0,9,6,0,0,8,2,1,1,1,4,2,1,4,2,6,9,0,8,5,9,3,6,7,5,2,8,6,6,6,6,5,0,3,8,1,1,6,1,4,3,2,5,4,5,5,7,6,6,8,5,1,6,0,0,4,0,2,7,6,0,9,8,2,9,9,6,9,9,8,5,5,4",
			"name": "Decimal expansion of (2-sqrt(e))^2, the mean fraction of guests without a napkin in Conway’s napkin problem.",
			"link": [
				"Anders Claesson and T. Kyle Petersen, \u003ca href=\"http://arxiv.org/abs/math/0505080\"\u003eConway's napkin problem\u003c/a\u003e, arXiv:math/0505080 [math.CO], 2005.",
				"Steven R. Finch, \u003ca href=\"http://arxiv.org/abs/2001.00578\"\u003eErrata and Addenda to Mathematical Constants\u003c/a\u003e, arXiv:2001.00578 [math.HO], 2020, p. 2."
			],
			"formula": [
				"Equals lim_{n-\u003eoo} A341232(n)/A341233(n). - _Pontus von Brömssen_, Feb 08 2021"
			],
			"example": [
				"0.12339674565853264796568432009600821114214269085936752866665..."
			],
			"mathematica": [
				"RealDigits[(2 - Sqrt[E])^2, 10, 100] // First"
			],
			"program": [
				"(PARI) (2-exp(1/2))^2 \\\\ _Charles R Greathouse IV_, Oct 31 2014"
			],
			"xref": [
				"Cf. A000670, A068996, A248789, A341232, A341233."
			],
			"keyword": "nonn,cons,easy",
			"offset": "0,2",
			"author": "_Jean-François Alcover_, Oct 14 2014",
			"references": 3,
			"revision": 27,
			"time": "2021-02-08T19:56:25-05:00",
			"created": "2014-10-14T04:01:00-04:00"
		}
	]
}