{
	"greeting": "Greetings from The On-Line Encyclopedia of Integer Sequences! http://oeis.org/",
	"query": "id:A248142",
	"count": 1,
	"start": 0,
	"results": [
		{
			"number": 248142,
			"data": "1,1,7,2238,5,9,3,3,1,2484,2,2,26,12,24,5,41,32,14,3,29,29,6,15,30,7,8,37,21,5,44,18,5,16,39,34,8,1,6,5,17,8,26,6,865,39,8,13,16,781,356,35,184,65,30,139,18,25,16,123",
			"name": "Least positive integer m such that m + n divides A(m) + A(n), where A(.) is given by A005259.",
			"comment": [
				"Conjecture: a(n) exists for any n \u003e 0."
			],
			"link": [
				"Zhi-Wei Sun, \u003ca href=\"/A248142/b248142.txt\"\u003eTable of n, a(n) for n = 1..2853\u003c/a\u003e"
			],
			"example": [
				" a(3) = 7 since 3 + 7 = 10 divides A(3) + A(7) = 1445 + 584307365 = 584308810."
			],
			"mathematica": [
				"A[0]=1;A[1]=5",
				"A[n_]:=((2n-1)(17*n(n-1)+5)*A[n-1]-(n-1)^3*A[n-2])/n^3",
				"Do[m=1; Label[aa]; If[Mod[A[m]+A[n], m+n]==0, Print[n, \" \", m]; Goto[bb]]; m=m+1; Goto[aa]; Label[bb]; Continue, {n, 1, 60}]"
			],
			"xref": [
				"Cf. A005259, A247824, A247937, A247940, A248124, A248125, A248133, A248136, A248137, A248139."
			],
			"keyword": "nonn",
			"offset": "1,3",
			"author": "_Zhi-Wei Sun_, Oct 02 2014",
			"references": 6,
			"revision": 5,
			"time": "2014-10-02T05:04:33-04:00",
			"created": "2014-10-02T05:04:33-04:00"
		}
	]
}