{
	"greeting": "Greetings from The On-Line Encyclopedia of Integer Sequences! http://oeis.org/",
	"query": "id:A248628",
	"count": 1,
	"start": 0,
	"results": [
		{
			"number": 248628,
			"data": "183,22,15,56,42,320,138,852,93,90,19,39,11,2100,956,140,921,341,44,78,644,13160,212,22,26,855,333330,815,1032,221,400,28,1188,49897,296,369,731,13,680,42,144,651,46,4105,626,52,204,5529,310,525,4557,441,128,9768,102,106,168,442",
			"name": "Least positive integer m such that prime(m+n) divides the m-th Fibonacci number F(m) given by A000045.",
			"link": [
				"Chai Wah Wu, \u003ca href=\"/A248628/b248628.txt\"\u003eTable of n, a(n) for n = 1..718\u003c/a\u003e"
			],
			"example": [
				"a(2) = 22 since prime(22+2) = 89 divides F(22) = 17711 = 89*199."
			],
			"mathematica": [
				"Do[m=1;Label[aa];If[Mod[Fibonacci[m],Prime[m+n]]==0,Print[n,\" \",m];Goto[bb]];m=m+1;Goto[aa];Label[bb];Continue,{n,1,58}]"
			],
			"xref": [
				"Cf. A000040, A000045, A247937, A248593, A248626."
			],
			"keyword": "nonn",
			"offset": "1,1",
			"author": "_Zhi-Wei Sun_, Oct 10 2014",
			"references": 1,
			"revision": 12,
			"time": "2018-01-05T20:34:20-05:00",
			"created": "2014-10-10T16:08:40-04:00"
		}
	]
}