{
	"greeting": "Greetings from The On-Line Encyclopedia of Integer Sequences! http://oeis.org/",
	"query": "id:A248672",
	"count": 1,
	"start": 0,
	"results": [
		{
			"number": 248672,
			"data": "2,4,1,1,0,4,6,0,1,2,0,9,6,8,9,3,7,8,3,6,4,8,4,4,2,7,4,4,6,7,1,4",
			"name": "Decimal expansion of the solution to the Lane-Emden equation for a sphere of polytropic index n = 2.",
			"reference": [
				"Steven R. Finch, Mathematical Constants II, Cambridge University Press, 2018, section 2.14, pp. 338-339."
			],
			"link": [
				"Vassilis S. Geroyannis and Vasileios G. Karageorgopoulos, \u003ca href=\"https://arxiv.org/abs/1604.08019\"\u003eA parallel code for multiprecision computations of the Lane-Emden differential equation\u003c/a\u003e, arXiv:1604.08019 [astro-ph.SR], 2016.",
				"Wikipedia, \u003ca href=\"http://en.wikipedia.org/wiki/Lane-Emden_equation\"\u003eLane-Emden equation\u003c/a\u003e."
			],
			"example": [
				"2.4110460120968937836484427446714..."
			],
			"xref": [
				"Cf. A010480 (n=0), A000796 (n=1), A248673 (n=3), A248674 (n=4), A002194 (n=5)."
			],
			"keyword": "nonn,cons,more",
			"offset": "1,1",
			"author": "_Arkadiusz Wesolowski_, Oct 11 2014",
			"ext": [
				"More terms from Geroyannis and Karageorgopoulos (2016) added by _Amiram Eldar_, May 15 2021"
			],
			"references": 2,
			"revision": 12,
			"time": "2021-05-15T03:53:30-04:00",
			"created": "2014-10-29T23:39:18-04:00"
		}
	]
}