{
	"greeting": "Greetings from The On-Line Encyclopedia of Integer Sequences! http://oeis.org/",
	"query": "id:A249906",
	"count": 1,
	"start": 0,
	"results": [
		{
			"number": 249906,
			"data": "1,0,-1,3,2,5,9,13,89,485,4891",
			"name": "a(n) is the index of the first occurrence of n in A249905, or -1 if n does not occur.",
			"comment": [
				"a(n) is the smallest number of Hamiltonian cycles up to direction which requires at least an n-vertex graph to realize."
			],
			"link": [
				"Erich Friedman, \u003ca href=\"https://erich-friedman.github.io/mathmagic/0912.html\"\u003eMath Magic\u003c/a\u003e (September 2012)"
			],
			"keyword": "sign,hard,more",
			"offset": "1,4",
			"author": "_Jeremy Tan_, Nov 08 2014",
			"ext": [
				"a(10)-a(11) using data from _Johan de Ruiter_ added by _Jeremy Tan_, Nov 02 2018"
			],
			"references": 2,
			"revision": 20,
			"time": "2020-08-13T14:02:28-04:00",
			"created": "2014-11-10T06:48:05-05:00"
		}
	]
}