{
	"greeting": "Greetings from The On-Line Encyclopedia of Integer Sequences! http://oeis.org/",
	"query": "id:A249602",
	"count": 1,
	"start": 0,
	"results": [
		{
			"number": 249602,
			"data": "2,3,4,6,9,10,12,13,16,19,24,27,28,30,31,37,43,45,51,54,55,58,60,61,67,73,76,79,82,85,94,96,97,100,103,106,115,121,124,130,133,136,139,142,144,145,151,160,163,166,169,175,178,187,192,198,201,202,205",
			"name": "Indices of primes in A084937.",
			"link": [
				"Reinhard Zumkeller, \u003ca href=\"/A249602/b249602.txt\"\u003eTable of n, a(n) for n = 1..10000\u003c/a\u003e"
			],
			"program": [
				"(Haskell)",
				"a249602 n = a249602_list !! (n-1)",
				"a249602_list = filter ((== 1) . a010051' . a084937) [1..]",
				"-- _Reinhard Zumkeller_, Nov 04 2014"
			],
			"xref": [
				"Cf. A084937, A249575, A010051."
			],
			"keyword": "nonn",
			"offset": "1,1",
			"author": "_N. J. A. Sloane_, Nov 03 2014",
			"references": 3,
			"revision": 6,
			"time": "2014-11-04T06:08:03-05:00",
			"created": "2014-11-03T22:37:13-05:00"
		}
	]
}