{
	"greeting": "Greetings from The On-Line Encyclopedia of Integer Sequences! http://oeis.org/",
	"query": "id:A249482",
	"count": 1,
	"start": 0,
	"results": [
		{
			"number": 249482,
			"data": "2,906150256,906150308,906150310,906151576,906154582,906154586,906154604,906154606,906154608,906154758,906154762,906154764,906154768,906154770,906154788,906154794,906154824,906154826,906154828,906154830,906154836,906154838,906154856",
			"name": "Numbers n such that the summatory Liouville function L(n) (A002819) is zero and L(n-1)*L(n+1) = -1.",
			"comment": [
				"To create the data, the author studied the b-file of _Donovan Johnson_ in A189229.",
				"For k\u003e=1,",
				"in the interval [a(2k-1), a(2k)], L(n)\u003c=0,",
				"in the interval [a(2k), a(2k+1)], L(n)\u003e=0.",
				"In particular, for k=1, in the interval [2, 906150256], L(n)\u003c=0.",
				"G. Polya (1919) conjectured that L(n)\u003c=0, for n\u003e=2. But this was disproved in 1958 by B. Haselgrove, and in 1980 M. Tanaka found the smallest counterexample, a(2)+1 = 906150257."
			],
			"link": [
				"P. Borwein, R. Ferguson, and M. Mossinghoff, \u003ca href=\"http://dx.doi.org/10.1090/S0025-5718-08-02036-X\"\u003eSign changes in sums of the Liouville function\u003c/a\u003e, Mathematics of Computation 77 (2008), pp. 1681-1694.",
				"M. Tanaka, \u003ca href=\"http://dx.doi.org/10.3836/tjm/1270216093\"\u003eA Numerical Investigation on Cumulative Sum of the Liouville Function\u003c/a\u003e, Tokyo J. Math. 3, 187-189, 1980.",
				"Eric Weisstein's World of Mathematics, \u003ca href=\"http://mathworld.wolfram.com/LiouvilleFunction.html\"\u003eLiouville Function\u003c/a\u003e",
				"Eric Weisstein's World of Mathematics, \u003ca href=\"http://mathworld.wolfram.com/PolyaConjecture.html\"\u003ePolya Conjecture\u003c/a\u003e"
			],
			"xref": [
				"Cf. A002819, A028488, A051470, A189229, A249487, A253174."
			],
			"keyword": "nonn",
			"offset": "1,1",
			"author": "_Vladimir Shevelev_, Jan 13 2015",
			"references": 1,
			"revision": 21,
			"time": "2015-01-15T10:19:29-05:00",
			"created": "2015-01-15T10:19:29-05:00"
		}
	]
}