{
	"greeting": "Greetings from The On-Line Encyclopedia of Integer Sequences! http://oeis.org/",
	"query": "id:A249391",
	"count": 1,
	"start": 0,
	"results": [
		{
			"number": 249391,
			"data": "1,1,0,0,0,0,0,0,1,16,272,2880,32648,333696,3617545,38942336,443291226,5168682752,63523977424,807890646528,10790865576074",
			"name": "The number of down-up permutations of [n] where adjacent elements differ at least by 4.",
			"xref": [
				"Cf. A245377 (at least 2), A249390 (at least 3), A249392-A249393, A179957 (non-alternating)."
			],
			"keyword": "nonn,more",
			"offset": "0,10",
			"author": "_R. J. Mathar_, Oct 27 2014",
			"ext": [
				"a(17)-a(20) from _Alois P. Heinz_, Oct 27 2014"
			],
			"references": 1,
			"revision": 5,
			"time": "2014-10-27T10:13:26-04:00",
			"created": "2014-10-27T10:13:26-04:00"
		}
	]
}