{
	"greeting": "Greetings from The On-Line Encyclopedia of Integer Sequences! http://oeis.org/",
	"query": "id:A249335",
	"count": 1,
	"start": 0,
	"results": [
		{
			"number": 249335,
			"data": "99,1137,1173,1317,1371,1713,1731,3117,3171,3344,3434,3443,3711,4334,4343,4433,7113,7131,7311,11558,11585,11855,15158,15185,15518,15581,15815,15851,18155,18515,18551,22334,22343,22433,23234,23243,23324,23342,23423,23432",
			"name": "Numbers n for which the digital sum contains the same distinct digits as the digital product but the digital sum is not equal to the digital product.",
			"comment": [
				"Numbers n such that A007953(n) contains the same distinct digits as A007954(n) but A007953(n) is not equal to A007954(n).",
				"Complement of A034710 with respect to A249334."
			],
			"link": [
				"Chai Wah Wu, \u003ca href=\"/A249335/b249335.txt\"\u003eTable of n, a(n) for n = 1..10000\u003c/a\u003e (n = 1..100 from Jaroslav Krizek)"
			],
			"example": [
				"1137 is a member since 1+1+3+7 = 12 and 1*1*3*7 = 21."
			],
			"program": [
				"(MAGMA) [n: n in [1..10^6] | (\u0026*Intseq(n)) ne (\u0026+Intseq(n)) and Set(Intseq(\u0026*Intseq(n))) eq Set(Intseq(\u0026+Intseq(n)))]"
			],
			"xref": [
				"Cf. A034710, A007953, A007954, A249334."
			],
			"keyword": "nonn,base",
			"offset": "1,1",
			"author": "_Jaroslav Krizek_, Oct 25 2014",
			"references": 4,
			"revision": 8,
			"time": "2018-02-07T18:17:40-05:00",
			"created": "2014-10-29T01:39:36-04:00"
		}
	]
}