{
	"greeting": "Greetings from The On-Line Encyclopedia of Integer Sequences! http://oeis.org/",
	"query": "id:A249208",
	"count": 1,
	"start": 0,
	"results": [
		{
			"number": 249208,
			"data": "67452,294568,1287632,5630090,24619804,107662502,470797744,2058664560,9001977388,39365277268,172144857638,752792969116,3291974345050,14395810506738,62952737744654,275291694008054,1203850204876356",
			"name": "Number of length n+6 0..4 arrays with no seven consecutive terms having five times the sum of any two elements equal to two times the sum of the remaining five",
			"comment": [
				"Column 4 of A249212"
			],
			"link": [
				"R. H. Hardin, \u003ca href=\"/A249208/b249208.txt\"\u003eTable of n, a(n) for n = 1..210\u003c/a\u003e"
			],
			"example": [
				"Some solutions for n=1",
				"..2....3....2....0....3....3....1....0....0....3....0....4....0....1....1....4",
				"..1....0....3....4....2....4....4....4....3....1....0....3....2....4....4....2",
				"..3....4....4....2....4....1....4....0....2....1....3....4....2....4....2....3",
				"..4....2....0....2....3....3....1....1....2....3....2....4....0....4....4....1",
				"..2....0....3....4....2....1....1....0....0....4....4....0....0....4....3....4",
				"..2....3....0....3....0....1....1....3....3....3....4....2....2....4....0....2",
				"..2....4....1....2....1....2....3....1....0....3....0....0....4....0....2....2"
			],
			"keyword": "nonn",
			"offset": "1,1",
			"author": "_R. H. Hardin_, Oct 23 2014",
			"references": 1,
			"revision": 4,
			"time": "2014-10-23T08:40:21-04:00",
			"created": "2014-10-23T08:40:21-04:00"
		}
	]
}