{
	"greeting": "Greetings from The On-Line Encyclopedia of Integer Sequences! http://oeis.org/",
	"query": "id:A249840",
	"count": 1,
	"start": 0,
	"results": [
		{
			"number": 249840,
			"data": "1920,6916,25206,92190,337396,1234328,4527441,16609691,60928967,223459265,819367574,3005369679,11024516408,40441065859,148341013705,544086364806,1995685513596,7320321927718,26851794805419,98494684671968",
			"name": "Number of length n+4 0..4 arrays with no five consecutive terms having the maximum of any two terms equal to the minimum of the remaining three terms",
			"comment": [
				"Column 4 of A249844"
			],
			"link": [
				"R. H. Hardin, \u003ca href=\"/A249840/b249840.txt\"\u003eTable of n, a(n) for n = 1..210\u003c/a\u003e"
			],
			"example": [
				"Some solutions for n=4",
				"..1....3....0....1....4....1....1....0....4....4....3....2....3....4....4....2",
				"..4....3....3....3....4....2....0....4....4....2....0....2....4....4....1....1",
				"..4....0....1....2....0....1....4....4....4....4....1....1....2....3....4....0",
				"..3....0....0....2....3....2....3....4....3....1....4....0....3....1....1....4",
				"..0....3....1....1....0....3....3....0....0....3....3....4....0....2....3....3",
				"..2....3....0....1....1....0....1....0....2....4....3....0....3....1....4....4",
				"..4....3....2....2....3....4....0....2....3....0....2....3....0....2....2....1",
				"..4....1....3....3....2....4....4....2....4....2....0....4....4....2....4....1"
			],
			"keyword": "nonn",
			"offset": "1,1",
			"author": "_R. H. Hardin_, Nov 07 2014",
			"references": 1,
			"revision": 4,
			"time": "2014-11-07T07:44:23-05:00",
			"created": "2014-11-07T07:44:23-05:00"
		}
	]
}