{
	"greeting": "Greetings from The On-Line Encyclopedia of Integer Sequences! http://oeis.org/",
	"query": "id:A249919",
	"count": 1,
	"start": 0,
	"results": [
		{
			"number": 249919,
			"data": "6,2,8,4,14,10,10,6,20,16,16,12,16,12,12,8,26,22,22,18,22,18,18,14,22,18,18,14,18,14,14,10,32,28,28,24,28,24,24,20,28,24,24,20,24,20,20,16,28,24,24,20,24,20,20,16,24,20,20,16,20,16,16,12,38,34,34,30,34,30,30,26,34,30,30,26,30,26,26",
			"name": "Number of LCD (liquid-crystal display) segments needed to display n in binary.",
			"comment": [
				"The \"LCD\" refers to how 0 and 1 are displayed, such that zero is represented with 6 lines, and one is represented with 2 lines:",
				"   _",
				"  | |        |",
				"  |_|  and   |"
			],
			"link": [
				"Indranil Ghosh, \u003ca href=\"/A249919/b249919.txt\"\u003eTable of n, a(n) for n = 0..32768\u003c/a\u003e"
			],
			"formula": [
				"The formulas below do not include a(0)=6:",
				"a(2^(n-1)) = 2 + 6(n-1).",
				"a((2^n)-1) = 2n.",
				"a(x] = a(2^(n+1) + (2^n)-1) = a(2^(n+2)-1) + 4.",
				"a(y] = a(2^(n+1) + (2^n)) = a(2^(n+1)) - 4.",
				"a(x - u) + 6 = a(x - u + 2^(n+1)).",
				"a(y + u) + 6 = a(y + u + 2^(n+1)).",
				"a(2^(n+1)) + a(2^(n+2)-1) = a(x - u) + a(y + u).",
				"where n=1, 2, ...",
				"and u=0, ..., (2^n)-2.",
				"a(n) = A010371(A007088(n)). - _Michel Marcus_, Aug 01 2015"
			],
			"example": [
				"For n = 4, 4 = 100_2. So, a(4) = 2 + 6 + 6 = 14. - _Indranil Ghosh_, Feb 02 2017"
			],
			"mathematica": [
				"f[n_] := Total[{2, 6}*(Count[ IntegerDigits[n, 2], #] \u0026 /@ {1, 0})]; Array[f, 79, 0] (* _Robert G. Wilson v_, Jul 26 2015 *)"
			],
			"program": [
				"(PARI)  a(n)=if(n==0, 6, 6*#binary(n) - 4*hammingweight(n)); \\\\ _Charles R Greathouse IV_, Feb 28 2015",
				"(C)",
				"// Input: n (no negative offset/term number), Output: a(n)",
				"int A249919 (int n) {",
				"   int m=0, r=0;",
				"   if (n) {",
				"      while (n!=1) {",
				"         m=n\u00261; //equivalent to m=n%2;",
				"         n=n\u003e\u003e1; //equivalent to n/=2;",
				"         if (m) {",
				"            r+=2;",
				"         } else {",
				"            r+=6;",
				"         }",
				"      }",
				"      r+=2;",
				"   } else {",
				"      r+=6;",
				"   }",
				"   return r;",
				"}",
				"// _Arlu Genesis A. Padilla_, Jun 18 2015",
				"(Python)",
				"def A249919(n):",
				"....x=bin(n)[2:]",
				"....s=0",
				"....for i in x:",
				"........s+=[6,2][int(i)]",
				"....return s # _Indranil Ghosh_, Feb 02 2017"
			],
			"xref": [
				"Cf. A007088, A010371, A074458."
			],
			"keyword": "easy,nonn,base",
			"offset": "0,1",
			"author": "_Arlu Genesis A. Padilla_, Jan 14 2015",
			"references": 1,
			"revision": 39,
			"time": "2017-02-02T04:18:50-05:00",
			"created": "2015-02-28T22:04:33-05:00"
		}
	]
}