{
	"greeting": "Greetings from The On-Line Encyclopedia of Integer Sequences! http://oeis.org/",
	"query": "id:A249953",
	"count": 1,
	"start": 0,
	"results": [
		{
			"number": 249953,
			"data": "13,17,19,29,59,79,89,97,107,139,157,163,179,239,241,257,263,271,283,307,349,367,389,409,421,439,457,461,479,509,521,547,563,571,593,613,647,653,691,701,739,751,769,809,821,839,857,863,937,941,953,967,983,1049,1237,1409,1523,1607",
			"name": "Primes with distinct digits: a(n) is the least prime \u003e a(n-1) such that a(n-1) and a(n) share just one digit.",
			"comment": [
				"The last term is a(163) = 102437."
			],
			"link": [
				"Zak Seidov, \u003ca href=\"/A249953/b249953.txt\"\u003eTable of n, a(n) for n = 1..163\u003c/a\u003e"
			],
			"mathematica": [
				"a249953[n_Integer] := Module[{t = {1}, i},",
				"  Do[If[And[DuplicateFreeQ[IntegerDigits[Prime[i]]],",
				"     Length[Intersection[IntegerDigits[Last@t],",
				"        IntegerDigits[Prime[i]]]] == 1], True;",
				"t = Append[t, Prime[i]]], {i, 1, n}]; Rest[t]]; a249953[120000] (* _Michael De Vlieger_, Dec 14 2014 *)",
				"lp1d[n_]:=Module[{p=NextPrime[n]},While[Length[Intersection[ IntegerDigits[ n],IntegerDigits[p]]]!=1||!DuplicateFreeQ[ IntegerDigits[ p]],p= NextPrime[ p]];p]; NestList[lp1d,13,60] (* _Harvey P. Dale_, May 31 2019 *)"
			],
			"xref": [
				"Subsequence of A029743.",
				"Cf. A030284."
			],
			"keyword": "nonn,base,fini,full",
			"offset": "1,1",
			"author": "_Zak Seidov_, Dec 05 2014",
			"references": 2,
			"revision": 25,
			"time": "2019-05-31T13:48:26-04:00",
			"created": "2014-12-14T02:28:14-05:00"
		}
	]
}