{
	"greeting": "Greetings from The On-Line Encyclopedia of Integer Sequences! http://oeis.org/",
	"query": "id:A249305",
	"count": 1,
	"start": 0,
	"results": [
		{
			"number": 249305,
			"data": "2,89,149,151,383,409",
			"name": "Primes p such that 2^p - p^2 is not squarefree.",
			"comment": [
				"Sequence is infinite, containing all primes equal to 2, 4, 89, or 115 mod 147. - _Charles R Greathouse IV_, Oct 28 2014"
			],
			"formula": [
				"a(n) \u003c (21 + e)n log n for any e \u003e 0 and all large enough n. - _Charles R Greathouse IV_, Oct 28 2014"
			],
			"example": [
				"2 is in this sequence because 2 is prime and 2^2 - 2^2 = 0 is not squarefree."
			],
			"program": [
				"(MAGMA) [n: n in [3..269] | IsPrime(n) and not IsSquarefree(2^n - n^2)];",
				"(PARI) is(n)=isprime(n) \u0026\u0026 !issquarefree(2^n-n^2) \\\\ _Charles R Greathouse IV_, Oct 28 2014"
			],
			"xref": [
				"Cf. A005117, A024012."
			],
			"keyword": "nonn,more",
			"offset": "1,1",
			"author": "_Juri-Stepan Gerasimov_, Oct 25 2014",
			"ext": [
				"a(5)-a(6) from _Charles R Greathouse IV_, Oct 28 2014"
			],
			"references": 0,
			"revision": 16,
			"time": "2021-02-16T01:01:15-05:00",
			"created": "2014-10-28T02:04:02-04:00"
		}
	]
}