{
	"greeting": "Greetings from The On-Line Encyclopedia of Integer Sequences! http://oeis.org/",
	"query": "id:A249038",
	"count": 1,
	"start": 0,
	"results": [
		{
			"number": 249038,
			"data": "1,1,1,2,2,2,3,4,4,5,5,5,6,7,7,7,8,9,9,10,10,11,11,11,12,13,13,13,14,15,15,15,16,17,17,17,18,19,19,20,20,21,21,22,22,23,23,23,24,25,25,25,26,27,27,27,28,29,29,29,30,31,31,31,32,33,33,33,34,35,35,35,36,37,37,37,38,39",
			"name": "Number of odd terms in first n terms of A249036.",
			"maple": [
				"See A249036."
			],
			"xref": [
				"Cf. A249036, A249037."
			],
			"keyword": "nonn",
			"offset": "1,4",
			"author": "_N. J. A. Sloane_, Oct 26 2014",
			"references": 3,
			"revision": 6,
			"time": "2014-10-26T18:06:29-04:00",
			"created": "2014-10-26T18:05:01-04:00"
		}
	]
}