{
	"greeting": "Greetings from The On-Line Encyclopedia of Integer Sequences! http://oeis.org/",
	"query": "id:A249525",
	"count": 1,
	"start": 0,
	"results": [
		{
			"number": 249525,
			"data": "3492,12156,42400,147984,516652,1804128,6301554,22009836,76884550,268579888,938237580,3277608092,11449981646,39999390704,139734492670,488151637034,1705321234646,5957415743556,20811807878768,72704583358670",
			"name": "Number of length n+5 0..3 arrays with no six consecutive terms having five times any element equal to the sum of the remaining five",
			"comment": [
				"Column 3 of A249530"
			],
			"link": [
				"R. H. Hardin, \u003ca href=\"/A249525/b249525.txt\"\u003eTable of n, a(n) for n = 1..210\u003c/a\u003e"
			],
			"example": [
				"Some solutions for n=4",
				"..0....1....1....2....0....0....0....1....2....0....2....0....0....0....2....0",
				"..2....2....0....2....2....2....1....0....2....2....2....2....0....3....1....0",
				"..3....1....1....1....3....0....1....0....1....0....2....2....1....1....3....2",
				"..0....0....2....0....1....3....1....0....2....0....0....1....0....3....2....0",
				"..3....0....3....2....2....2....2....3....2....1....3....2....1....1....3....2",
				"..2....3....1....1....2....0....2....1....2....1....2....3....0....0....3....3",
				"..3....2....3....2....3....0....3....1....2....3....2....1....2....2....1....3",
				"..0....2....3....1....2....3....2....3....0....0....2....0....3....3....2....1",
				"..2....3....1....3....1....0....1....3....0....2....1....2....2....2....3....0"
			],
			"keyword": "nonn",
			"offset": "1,1",
			"author": "_R. H. Hardin_, Oct 31 2014",
			"references": 1,
			"revision": 4,
			"time": "2014-10-31T08:17:25-04:00",
			"created": "2014-10-31T08:17:25-04:00"
		}
	]
}