{
	"greeting": "Greetings from The On-Line Encyclopedia of Integer Sequences! http://oeis.org/",
	"query": "id:A250417",
	"count": 1,
	"start": 0,
	"results": [
		{
			"number": 250417,
			"data": "13,161,606,6433,39916,341011,2399000,18334295,130350889,947356115,6693133584,47588393713,334543874696,2356688545513,16526137384381,115977271626785,812415242570854,5692700008978435,39860063264311589",
			"name": "Number of length n+1 0..6 arrays with the sum of the minimum of each adjacent pair multiplied by some arrangement of +-1 equal to zero",
			"comment": [
				"Column 6 of A250419"
			],
			"link": [
				"R. H. Hardin, \u003ca href=\"/A250417/b250417.txt\"\u003eTable of n, a(n) for n = 1..38\u003c/a\u003e"
			],
			"example": [
				"Some solutions for n=5",
				"..1....3....5....5....2....5....1....0....5....1....5....4....5....4....4....4",
				"..2....1....6....5....6....4....1....4....5....5....6....6....5....3....4....1",
				"..5....5....2....1....3....6....6....1....5....1....1....6....1....5....3....3",
				"..6....0....5....6....0....2....6....2....2....0....4....1....3....0....6....3",
				"..1....2....2....5....4....1....5....5....1....2....4....2....4....6....3....6",
				"..4....0....1....2....1....5....1....4....1....5....1....5....5....6....1....0"
			],
			"keyword": "nonn",
			"offset": "1,1",
			"author": "_R. H. Hardin_, Nov 22 2014",
			"references": 1,
			"revision": 4,
			"time": "2014-11-22T19:29:05-05:00",
			"created": "2014-11-22T19:29:05-05:00"
		}
	]
}