{
	"greeting": "Greetings from The On-Line Encyclopedia of Integer Sequences! http://oeis.org/",
	"query": "id:A250178",
	"count": 1,
	"start": 0,
	"results": [
		{
			"number": 250178,
			"data": "2,6,12,13,23,24,26,35,62,69,91,105,147,160,163,183,185,193,229,232,233,236,248,262,269,280,294,303,315,330,376,394,426,430,440,464,469,491,492,508,537,625,629,647,653,666,752,772,775,786,788,832,840,852,854,855,859,905,922,972,993,998",
			"name": "Numbers k such that Phi_22(k) is prime, where Phi is the cyclotomic polynomial.",
			"comment": [
				"Numbers k such that (k^11+1)/(k+1) is a prime. - _Vincenzo Librandi_, May 21 2018"
			],
			"link": [
				"G. C. Greubel, \u003ca href=\"/A250178/b250178.txt\"\u003eTable of n, a(n) for n = 1..10000\u003c/a\u003e"
			],
			"mathematica": [
				"a250178[n_] := Select[Range[n], PrimeQ@Cyclotomic[22, #] \u0026]; a250178[1000] (* _Michael De Vlieger_, Dec 25 2014 *)"
			],
			"program": [
				"(PARI) isok(n) = isprime(polcyclo(22, n)); \\\\ _Michel Marcus_, Sep 29 2015",
				"(MAGMA) [n: n in [1..1000]| IsPrime((n^11+1) div (n+1))]; // _Vincenzo Librandi_, May 21 2018"
			],
			"xref": [
				"See A250177 for references."
			],
			"keyword": "nonn",
			"offset": "1,1",
			"author": "_Eric Chen_, Dec 24 2014",
			"references": 19,
			"revision": 21,
			"time": "2018-05-21T05:12:46-04:00",
			"created": "2014-12-26T08:17:48-05:00"
		}
	]
}