{
	"greeting": "Greetings from The On-Line Encyclopedia of Integer Sequences! http://oeis.org/",
	"query": "id:A250404",
	"count": 1,
	"start": 0,
	"results": [
		{
			"number": 250404,
			"data": "1,2,3,15,255,65535",
			"name": "Numbers n such that the set of all distinct values of phi of all divisors of n equals the set of all proper divisors of n+1 where phi is the Euler totient function (A000010).",
			"reference": [
				"Numbers n such that {distinct values of phi(d); d|n} == {d; d|(n+1), d\u003c(n+1)}.",
				"Conjecture: next and last term is 4294967295.",
				"Sequence differs from A203966 because 83623935 is not in this sequence."
			],
			"example": [
				"2 is in the sequence because {distinct values of phi(d); d|2} == {1} == {d; d|2, d\u003c2}.",
				"15 is in the sequence because {distinct values of phi(d); d|15} == {1, 2, 4, 8} == {d; d|16, d\u003c16}."
			],
			"program": [
				"(MAGMA) [n: n in [1..100000] | Set([EulerPhi(d): d in Divisors(n)]) eq Set([d: d in Divisors(n+1) | d lt n+1 ])]",
				"(PARI) isok(n) = {sphi = []; fordiv(n, d, sphi = Set(concat(sphi, eulerphi(d)))); sphi == setminus(Set(divisors(n+1)), Set(n+1));} \\\\ _Michel Marcus_, Nov 23 2014"
			],
			"xref": [
				"Cf. A000010, A203966, A250405."
			],
			"keyword": "nonn,more",
			"offset": "1,2",
			"author": "_Jaroslav Krizek_, Nov 22 2014",
			"references": 1,
			"revision": 19,
			"time": "2014-12-22T17:45:34-05:00",
			"created": "2014-12-22T17:45:34-05:00"
		}
	]
}