{
	"greeting": "Greetings from The On-Line Encyclopedia of Integer Sequences! http://oeis.org/",
	"query": "id:A250912",
	"count": 1,
	"start": 0,
	"results": [
		{
			"number": 250912,
			"data": "21553018,72721157625,245114118899485,826125782084148708,2784331051704024117237,9384142308556191112974969,31627738616791159166366474706,106596185653227343496197522538691",
			"name": "Number of (n+1)X(7+1) 0..2 arrays with no 2X2 subblock having its maximum diagonal element less than its minimum antidiagonal element",
			"comment": [
				"Column 7 of A250913"
			],
			"link": [
				"R. H. Hardin, \u003ca href=\"/A250912/b250912.txt\"\u003eTable of n, a(n) for n = 1..210\u003c/a\u003e"
			],
			"example": [
				"Some solutions for n=1",
				"..0..0..0..0..0..0..1..1....0..0..0..0..1..0..0..2....0..0..0..0..0..0..2..2",
				"..0..1..1..2..2..0..2..1....1..0..0..2..2..0..0..0....0..0..1..2..1..0..2..2"
			],
			"keyword": "nonn",
			"offset": "1,1",
			"author": "_R. H. Hardin_, Nov 28 2014",
			"references": 1,
			"revision": 4,
			"time": "2014-11-28T12:56:32-05:00",
			"created": "2014-11-28T12:56:32-05:00"
		}
	]
}