{
	"greeting": "Greetings from The On-Line Encyclopedia of Integer Sequences! http://oeis.org/",
	"query": "id:A250116",
	"count": 1,
	"start": 0,
	"results": [
		{
			"number": 250116,
			"data": "0,2,3,8,7,12,14,24,16,20,22,24",
			"name": "Minimal number of edges in any broadcast graph with n nodes.",
			"comment": [
				"The sequence (for n \u003e= 13) continues 29-33, 42, 45, 64, 24-34, 36, 38-39, ..."
			],
			"link": [
				"Arthur L. Liestman, and Joseph G. Peters, \u003ca href=\"http://dx.doi.org/10.1016/0166-218X(92)90148-4\"\u003eMinimum broadcast digraphs\u003c/a\u003e, Discrete Applied Mathematics 37 (1992): 401-419."
			],
			"keyword": "nonn,more",
			"offset": "1,2",
			"author": "_N. J. A. Sloane_, Nov 20 2014",
			"references": 0,
			"revision": 9,
			"time": "2014-11-21T09:10:29-05:00",
			"created": "2014-11-20T15:20:19-05:00"
		}
	]
}