{
	"greeting": "Greetings from The On-Line Encyclopedia of Integer Sequences! http://oeis.org/",
	"query": "id:A250067",
	"count": 1,
	"start": 0,
	"results": [
		{
			"number": 250067,
			"data": "5,8,64,614,47678,4442395",
			"name": "Numbers n such that n = Rev(sigma*(n)), where sigma*(n) is the sum of the anti-divisors of n and Rev(n) is the reverse of n.",
			"example": [
				"Anti-divisors of 5 are 2, 3 and 2 + 3 = 5 = Rev(5).",
				"Anti-divisors of 614 are 3, 4, 409 and 3 + 4 + 409 = 416 = Rev(614)."
			],
			"maple": [
				"with(numtheory):T:=proc(w) local x,y,z; x:=w; y:=0;",
				"for z from 1 to ilog10(x)+1 do y:=10*y+(x mod 10); x:=trunc(x/10); od; y; end:",
				"P:=proc(q) local j,k,n; for n from 1 to q do",
				"k:=0; j:=n; while j mod 2 \u003c\u003e 1 do k:=k+1; j:=j/2; od;",
				"if sigma(2*n+1)+sigma(2*n-1)+sigma(n/2^k)*2^(k+1)-6*n-2=T(n);",
				"then print(n); fi; od; end: P(10^9);"
			],
			"xref": [
				"Cf. A000203, A066417, A178029, A248787."
			],
			"keyword": "nonn,base,more",
			"offset": "1,1",
			"author": "_Paolo P. Lava_, Nov 11 2014",
			"ext": [
				"a(6) from _Chai Wah Wu_, Dec 06 2014"
			],
			"references": 0,
			"revision": 8,
			"time": "2014-12-07T02:27:12-05:00",
			"created": "2014-11-20T13:22:48-05:00"
		}
	]
}