{
	"greeting": "Greetings from The On-Line Encyclopedia of Integer Sequences! http://oeis.org/",
	"query": "id:A250908",
	"count": 1,
	"start": 0,
	"results": [
		{
			"number": 250908,
			"data": "4909,297873,18077319,1096982379,66566704705,4039362762435,245114118899485,14873861407326111,902566310928490467,54768961329136851033,3323455667098397402917,201671846608424737679469",
			"name": "Number of (n+1)X(3+1) 0..2 arrays with no 2X2 subblock having its maximum diagonal element less than its minimum antidiagonal element",
			"comment": [
				"Column 3 of A250913"
			],
			"link": [
				"R. H. Hardin, \u003ca href=\"/A250908/b250908.txt\"\u003eTable of n, a(n) for n = 1..210\u003c/a\u003e"
			],
			"formula": [
				"Empirical: a(n) = 74*a(n-1) -825*a(n-2) +1101*a(n-3) -4926*a(n-4) +231*a(n-5) +1684*a(n-6) +736*a(n-7)"
			],
			"example": [
				"Some solutions for n=1",
				"..2..2..1..2....0..2..2..1....2..1..0..2....0..2..0..0....1..2..1..1",
				"..1..2..2..2....0..1..2..1....2..0..1..1....1..1..0..1....0..2..1..0"
			],
			"keyword": "nonn",
			"offset": "1,1",
			"author": "_R. H. Hardin_, Nov 28 2014",
			"references": 1,
			"revision": 4,
			"time": "2014-11-28T12:53:46-05:00",
			"created": "2014-11-28T12:53:46-05:00"
		}
	]
}