{
	"greeting": "Greetings from The On-Line Encyclopedia of Integer Sequences! http://oeis.org/",
	"query": "id:A250089",
	"count": 1,
	"start": 0,
	"results": [
		{
			"number": 250089,
			"data": "1,2,3,4,5,6,8,9,10,12,15,16,18,20,24,25,27,30,32,36,40,45,48,50,54,100,104,112,115,120,121,130,136,140,148,200,205,208,215,224,230,240,242,300,312,320,336,345,400,403,410,416,430,448,500,520,524,600",
			"name": "5-smooth numbers (A051037) written in base 60, concatenating the decimal values of the sexagesimal digits.",
			"comment": [
				"Each pair of digits constitutes the decimal value of a single sexagesimal digit, as on a digital clock, eliminating the colon (:). Any leading zeros are truncated. Thus decimal 64 appears as \"104\" and not \"0104\"."
			],
			"reference": [
				"D. E. Knuth, Ancient Babylonian Algorithms, Communications of the ACM 15 (1972): 671-677."
			],
			"link": [
				"Michael De Vlieger, \u003ca href=\"/A250089/b250089.txt\"\u003eTable of n, a(n) for n = 1..10540\u003c/a\u003e (Hamming numbers \u003c= 60^10)"
			],
			"example": [
				"a(28) = 112 since A051037(28) = 72. 72 = 1 * 60 + 12, thus sexagesimal 1,12. Concatenating the decimal values of the sexagesimal places gives \"112\"."
			],
			"mathematica": [
				"a250089[n_Integer] := FromDigits /@ Map[StringJoin, If[# \u003c 10, StringJoin[\"0\", ToString[#]], ToString[#]] \u0026 /@ IntegerDigits[#, 60] \u0026 /@ Select[Range[n], Last@Map[First, FactorInteger@#] \u003c 7 \u0026], 2]; a250089[360] (* _Michael De Vlieger_, Nov 11 2014, after _Robert G. Wilson v_ at A051037 *)",
				"With[{n = 360}, Map[FromDigits@ IntegerDigits[#, MixedRadix[ Flatten@ ConstantArray[{6, 10}, {2 Ceiling@ Log[60, n]}]]] \u0026, Union@ Flatten@ Table[2^p1*3^p2*5^p3, {p1, 0, Log[2, n/(1)]}, {p2, 0, Log[3, n/(2^p1)]}, {p3, 0, Log[5, n/(2^p1*3^p2)]}]]] (* Version 10.2, or *)",
				"With[{n = 360}, FromDigits@ StringJoin@ Map[If[# \u003c 10, StringJoin[\"0\", ToString@ #], ToString@ #] \u0026, IntegerDigits[#, 60]] \u0026 /@ Union@ Flatten@ Table[2^p1*3^p2*5^p3, {p1, 0, Log[2, n/(1)]}, {p2, 0, Log[3, n/(2^p1)]}, {p3, 0, Log[5, n/(2^p1*3^p2)]}]] (* _Michael De Vlieger_, Feb 20 2017 *)"
			],
			"xref": [
				"Cf. A051037, A250073, A254334, A254335, A254336."
			],
			"keyword": "nonn,base",
			"offset": "1,2",
			"author": "_Michael De Vlieger_, Nov 11 2014",
			"references": 2,
			"revision": 15,
			"time": "2017-02-20T23:16:17-05:00",
			"created": "2014-11-13T00:12:24-05:00"
		}
	]
}