{
	"greeting": "Greetings from The On-Line Encyclopedia of Integer Sequences! http://oeis.org/",
	"query": "id:A250563",
	"count": 1,
	"start": 0,
	"results": [
		{
			"number": 250563,
			"data": "32,297,1516,5105,13732,31173,63400,117749,204712,336293,529072,800689,1175088,1677185,2338728,3193293,4283108,5649837,7347520,9429021,11959288,15003857,18642524,22951429,28026324,33959013,40858932,48834549",
			"name": "Number of length 4+2 0..n arrays with the sum of second differences multiplied by some arrangement of +-1 equal to zero",
			"comment": [
				"Row 4 of A250561"
			],
			"link": [
				"R. H. Hardin, \u003ca href=\"/A250563/b250563.txt\"\u003eTable of n, a(n) for n = 1..75\u003c/a\u003e"
			],
			"example": [
				"Some solutions for n=6",
				"..2....2....5....6....2....4....2....1....2....5....4....3....6....2....0....5",
				"..2....1....4....5....5....6....0....4....2....2....2....6....6....6....2....6",
				"..5....5....4....3....1....2....0....6....5....0....6....2....4....1....0....6",
				"..4....0....2....3....1....2....1....5....1....0....5....0....4....5....0....2",
				"..6....4....3....1....0....3....1....0....1....4....0....2....3....5....0....1",
				"..4....3....6....2....1....1....1....3....1....1....0....5....1....1....2....2"
			],
			"keyword": "nonn",
			"offset": "1,1",
			"author": "_R. H. Hardin_, Nov 25 2014",
			"references": 1,
			"revision": 4,
			"time": "2014-11-25T09:29:24-05:00",
			"created": "2014-11-25T09:29:24-05:00"
		}
	]
}