{
	"greeting": "Greetings from The On-Line Encyclopedia of Integer Sequences! http://oeis.org/",
	"query": "id:A250111",
	"count": 1,
	"start": 0,
	"results": [
		{
			"number": 250111,
			"data": "1,1,1,3,4,9,13,25,38,68,106,182,288,483,771,1275,2046,3355,5401,8811,14212,23112,37324,60580,97904,158717,256621,415715,672336,1088661,1760997,2850645,4611642,7463884,12075526,19541994,31617520,51163695,82781215",
			"name": "Number of orbits of size 2 in vertices of Fibonacci cube Gamma_n under the action of its automorphism group.",
			"link": [
				"Colin Barker, \u003ca href=\"/A250111/b250111.txt\"\u003eTable of n, a(n) for n = 1..1000\u003c/a\u003e",
				"A. R. Ashrafi, J. Azarija, K. Fathalikhani, S. Klavzar, et al., \u003ca href=\"http://www.fmf.uni-lj.si/~klavzar/preprints/Fib-Luc-orbits-August-11-2014.pdf\"\u003eOrbits of Fibonacci and Lucas cubes, dihedral transformations, and asymmetric strings\u003c/a\u003e, 2014.",
				"A. R. Ashrafi, J. Azarija, K. Fathalikhani, S. Klavzar and M. Petkovsek, \u003ca href=\"http://www.fmf.uni-lj.si/~klavzar/preprints/Fib-Luc-orbits-submit-2014.pdf\"\u003eVertex and edge orbits of Fibonacci and Lucas cubes\u003c/a\u003e, 2014; See Table 1.",
				"\u003ca href=\"/index/Rec#order_06\"\u003eIndex entries for linear recurrences with constant coefficients\u003c/a\u003e, signature (1,2,-1,0,-1,-1)."
			],
			"formula": [
				"a(n) = (1/2) * (F(n+2) - F(floor((n-(-1)^n)/2)+2)) for n \u003e= 2, a(1)=1. - _Joerg Arndt_, Nov 22 2014",
				"a(n) = a(n-1)+2*a(n-2)-a(n-3)-a(n-5)-a(n-6) for n\u003e7. - _Colin Barker_, Dec 01 2014",
				"G.f.: x*(x^6+x^5+x^3-2*x^2+1) / ((x^2+x-1)*(x^4+x^2-1)). - _Colin Barker_, Dec 01 2014"
			],
			"mathematica": [
				"LinearRecurrence[{1,2,-1,0,-1,-1},{1,1,1,3,4,9,13},40] (* _Harvey P. Dale_, Feb 10 2018 *)"
			],
			"program": [
				"(MAGMA) [n eq 1 select 1 else (1/2)*(Fibonacci(n+2)-Fibonacci(Floor((n-(-1)^n)/2)+2)): n in [1..40]]; // _Vincenzo Librandi_, Nov 22 2014",
				"(PARI) a(n)=if(n==1,1,(fibonacci(n+2) - fibonacci((n-(-1)^n)\\2+2))/2); \\\\ _Joerg Arndt_, Nov 22 2014",
				"(PARI) Vec(x*(x^6+x^5+x^3-2*x^2+1)/((x^2+x-1)*(x^4+x^2-1)) + O(x^100)) \\\\ _Colin Barker_, Dec 01 2014"
			],
			"keyword": "nonn,easy",
			"offset": "1,4",
			"author": "_N. J. A. Sloane_, Nov 19 2014",
			"ext": [
				"More terms from _Vincenzo Librandi_, Nov 22 2014"
			],
			"references": 1,
			"revision": 34,
			"time": "2018-02-10T13:04:58-05:00",
			"created": "2014-11-19T20:28:45-05:00"
		}
	]
}