{
	"greeting": "Greetings from The On-Line Encyclopedia of Integer Sequences! http://oeis.org/",
	"query": "id:A250531",
	"count": 1,
	"start": 0,
	"results": [
		{
			"number": 250531,
			"data": "3958,44017,393910,3091263,21783369,142934266,885728348,5269466799,30337133947,170444570767,938858272263,5094247207831,27305253854913,144985807285630,763985644924271,4002062352221853,20864575519057800",
			"name": "Number of (n+1)X(3+1) 0..3 arrays with nondecreasing max(x(i,j),x(i,j-1)) in the i direction and nondecreasing min(x(i,j),x(i-1,j)) in the j direction",
			"comment": [
				"Column 3 of A250536"
			],
			"link": [
				"R. H. Hardin, \u003ca href=\"/A250531/b250531.txt\"\u003eTable of n, a(n) for n = 1..210\u003c/a\u003e",
				"R. H. Hardin, \u003ca href=\"/A250531/a250531.txt\"\u003eEmpirical recurrence of order 65\u003c/a\u003e"
			],
			"formula": [
				"Empirical recurrence of order 65 (see link above)"
			],
			"example": [
				"Some solutions for n=2",
				"..1..1..2..3....0..0..1..3....0..3..1..3....0..1..1..2....0..0..2..2",
				"..3..2..2..3....1..1..1..3....3..1..3..3....0..1..1..3....1..1..2..2",
				"..0..3..3..3....3..3..3..1....0..3..3..3....0..2..1..3....0..2..1..2"
			],
			"keyword": "nonn",
			"offset": "1,1",
			"author": "_R. H. Hardin_, Nov 24 2014",
			"references": 1,
			"revision": 4,
			"time": "2014-11-24T20:50:36-05:00",
			"created": "2014-11-24T20:50:36-05:00"
		}
	]
}