{
	"greeting": "Greetings from The On-Line Encyclopedia of Integer Sequences! http://oeis.org/",
	"query": "id:A250508",
	"count": 1,
	"start": 0,
	"results": [
		{
			"number": 250508,
			"data": "19683,274625,3442951,37595375,371694959,3436115229,30283802613,255685143923,2089787836625,16641921796291,129546535071799,989447338713023,7436913272854057,55111908391372377,403398312288430103",
			"name": "Number of (n+2)X(1+2) 0..2 arrays with nondecreasing maximum minus minimum of every three consecutive values in every row and column",
			"comment": [
				"Column 1 of A250510"
			],
			"link": [
				"R. H. Hardin, \u003ca href=\"/A250508/b250508.txt\"\u003eTable of n, a(n) for n = 1..210\u003c/a\u003e"
			],
			"example": [
				"Some solutions for n=1",
				"..2..1..1....0..1..2....2..1..1....0..0..1....2..1..0....0..0..1....0..0..2",
				"..1..0..0....1..0..0....2..0..0....2..0..0....2..2..2....0..1..0....0..0..0",
				"..0..0..0....1..1..0....2..0..0....1..2..0....2..0..1....1..2..0....2..2..2"
			],
			"keyword": "nonn",
			"offset": "1,1",
			"author": "_R. H. Hardin_, Nov 24 2014",
			"references": 1,
			"revision": 5,
			"time": "2014-11-24T12:05:42-05:00",
			"created": "2014-11-24T12:05:42-05:00"
		}
	]
}