{
	"greeting": "Greetings from The On-Line Encyclopedia of Integer Sequences! http://oeis.org/",
	"query": "id:A251919",
	"count": 1,
	"start": 0,
	"results": [
		{
			"number": 251919,
			"data": "3260,4938,10820,25882,80438,253148,856022,3063064,10885914,39035588,141641316,513510222,1860892000,6752701006,24520021374,89037718964,323273690688,1173779249448,4262540743302,15479263400324,56209300530872",
			"name": "Number of (n+2)X(4+2) 0..3 arrays with every 3X3 subblock row and column sum 2 4 5 or 7 and every diagonal and antidiagonal sum not 2 4 5 or 7",
			"comment": [
				"Column 4 of A251923"
			],
			"link": [
				"R. H. Hardin, \u003ca href=\"/A251919/b251919.txt\"\u003eTable of n, a(n) for n = 1..210\u003c/a\u003e",
				"R. H. Hardin, \u003ca href=\"/A251919/a251919.txt\"\u003eEmpirical recurrence of order 69\u003c/a\u003e"
			],
			"formula": [
				"Empirical recurrence of order 69 (see link above)"
			],
			"example": [
				"Some solutions for n=4",
				"..1..0..1..3..1..0....1..1..3..1..1..0....0..2..3..2..0..2....0..2..0..2..0..2",
				"..3..1..0..1..3..1....0..3..2..0..3..2....2..0..2..0..2..3....2..3..2..0..2..3",
				"..1..3..1..0..1..3....3..0..2..3..0..2....0..2..0..2..0..2....0..2..3..2..0..2",
				"..3..1..3..1..3..1....1..1..0..1..1..0....2..0..2..3..2..0....2..0..2..0..2..0",
				"..1..0..1..3..1..0....0..3..2..0..3..2....0..2..0..2..3..2....3..2..0..2..0..2",
				"..3..1..3..1..0..1....3..0..2..3..0..2....2..3..2..0..2..3....2..0..2..3..2..0"
			],
			"keyword": "nonn",
			"offset": "1,1",
			"author": "_R. H. Hardin_, Dec 11 2014",
			"references": 1,
			"revision": 4,
			"time": "2014-12-11T06:36:56-05:00",
			"created": "2014-12-11T06:36:56-05:00"
		}
	]
}