{
	"greeting": "Greetings from The On-Line Encyclopedia of Integer Sequences! http://oeis.org/",
	"query": "id:A251840",
	"count": 1,
	"start": 0,
	"results": [
		{
			"number": 251840,
			"data": "641,828,1803,2890,8582,21748,40492,128431,339592,639794,2087597,5632271,10609658,35199882,96069006,180868454,605781397,1663988392,3131743910,10543905961,29063878897,54690404276,184648426284,509929622436",
			"name": "Number of (n+2)X(3+2) 0..3 arrays with every 3X3 subblock row and column sum nonprime and every diagonal and antidiagonal sum prime",
			"comment": [
				"Column 3 of A251845"
			],
			"link": [
				"R. H. Hardin, \u003ca href=\"/A251840/b251840.txt\"\u003eTable of n, a(n) for n = 1..210\u003c/a\u003e"
			],
			"formula": [
				"Empirical: a(n) = 32*a(n-3) -310*a(n-6) +1096*a(n-9) -1790*a(n-12) +1558*a(n-15) -803*a(n-18) +238*a(n-21) -20*a(n-24) for n\u003e33"
			],
			"example": [
				"Some solutions for n=4",
				"..0..0..1..0..0....3..0..1..0..3....1..1..2..1..1....0..0..1..3..0",
				"..1..1..2..1..1....1..1..2..1..1....3..0..1..0..0....1..1..2..1..1",
				"..0..0..1..0..0....0..3..1..0..0....0..0..1..0..3....0..0..1..0..0",
				"..3..0..1..3..0....0..0..1..0..3....1..1..2..1..1....0..3..1..0..0",
				"..1..1..2..1..1....1..1..2..1..1....0..0..1..3..0....1..1..2..1..1",
				"..0..0..1..0..3....3..0..1..0..0....3..0..1..0..0....0..0..1..0..3"
			],
			"keyword": "nonn",
			"offset": "1,1",
			"author": "_R. H. Hardin_, Dec 09 2014",
			"references": 1,
			"revision": 4,
			"time": "2014-12-09T15:56:10-05:00",
			"created": "2014-12-09T15:56:10-05:00"
		}
	]
}