{
	"greeting": "Greetings from The On-Line Encyclopedia of Integer Sequences! http://oeis.org/",
	"query": "id:A251254",
	"count": 1,
	"start": 0,
	"results": [
		{
			"number": 251254,
			"data": "84,446,1770,9130,38332,192442,836546,4112126,18298862,88585834,400512170,1918066656,8765618868,41663142968,191790556024,906821509892,4194988138126,19763051033382,91728816380528,431069210118044",
			"name": "Number of (n+1)X(4+1) 0..1 arrays with every 2X2 subblock having a single 1 or two 1s on the same edge",
			"comment": [
				"Column 4 of A251258"
			],
			"link": [
				"R. H. Hardin, \u003ca href=\"/A251254/b251254.txt\"\u003eTable of n, a(n) for n = 1..210\u003c/a\u003e"
			],
			"formula": [
				"Empirical: a(n) = 5*a(n-1) +21*a(n-2) -115*a(n-3) -95*a(n-4) +706*a(n-5) +69*a(n-6) -1492*a(n-7) +208*a(n-8) +987*a(n-9) -228*a(n-10) -111*a(n-11) +28*a(n-12)"
			],
			"example": [
				"Some solutions for n=4",
				"..0..1..0..1..0....0..0..1..0..1....1..1..1..0..0....1..1..1..0..1",
				"..0..0..0..0..0....1..0..0..0..0....0..0..0..0..1....0..0..0..0..0",
				"..1..1..0..1..1....1..0..1..1..1....1..0..1..0..1....0..1..0..1..1",
				"..0..0..0..0..0....0..0..0..0..0....0..0..0..0..1....0..1..0..0..0",
				"..1..0..1..0..1....0..1..0..1..1....0..1..1..0..1....0..0..0..1..1"
			],
			"keyword": "nonn",
			"offset": "1,1",
			"author": "_R. H. Hardin_, Dec 01 2014",
			"references": 1,
			"revision": 4,
			"time": "2014-12-01T07:32:45-05:00",
			"created": "2014-12-01T07:32:45-05:00"
		}
	]
}