{
	"greeting": "Greetings from The On-Line Encyclopedia of Integer Sequences! http://oeis.org/",
	"query": "id:A251787",
	"count": 1,
	"start": 0,
	"results": [
		{
			"number": 251787,
			"data": "6144,14908,44504,149364,541656,1765074,6446816,24880436,90369250,354040208,1437800720,5668460910,23255195002,97097665658,400041205158,1677704911872,7090646094602,29794962043796,126115432891882",
			"name": "Number of (n+2)X(4+2) 0..3 arrays with no row, column, diagonal or antidiagonal in any 3X3 subblock summing to 2 3 6 or 7",
			"comment": [
				"Column 4 of A251791"
			],
			"link": [
				"R. H. Hardin, \u003ca href=\"/A251787/b251787.txt\"\u003eTable of n, a(n) for n = 1..210\u003c/a\u003e"
			],
			"example": [
				"Some solutions for n=4",
				"..0..1..0..0..0..0....2..1..1..2..2..1....0..0..0..0..0..0....0..2..2..0..3..1",
				"..0..0..0..1..0..0....0..0..0..0..0..1....0..0..0..0..0..0....1..0..3..1..0..3",
				"..1..0..0..0..0..0....3..3..3..3..3..2....0..1..0..0..0..1....3..2..0..3..2..0",
				"..0..0..0..0..0..0....1..2..2..1..2..2....0..0..0..1..0..0....0..3..1..0..3..2",
				"..0..1..0..0..0..0....0..0..0..0..0..0....0..0..0..0..0..0....1..0..3..2..0..3",
				"..0..0..0..0..0..1....3..3..3..3..3..3....0..0..0..0..1..0....3..2..0..3..2..0"
			],
			"keyword": "nonn",
			"offset": "1,1",
			"author": "_R. H. Hardin_, Dec 08 2014",
			"references": 1,
			"revision": 4,
			"time": "2014-12-08T20:07:16-05:00",
			"created": "2014-12-08T20:07:16-05:00"
		}
	]
}