{
	"greeting": "Greetings from The On-Line Encyclopedia of Integer Sequences! http://oeis.org/",
	"query": "id:A251288",
	"count": 1,
	"start": 0,
	"results": [
		{
			"number": 251288,
			"data": "125,701,3390,18924,94706,518711,2645966,14292754,73763850,394839392,2052818979,10924134430,57063130832,302529963932,1585024760524,8383254978829,44005652384769,232393583625579,1221371767402917",
			"name": "Number of (n+1)X(4+1) 0..1 arrays with every 2X2 subblock having a single 1 or two 1s on the same edge or main diagonally",
			"comment": [
				"Column 4 of A251292"
			],
			"link": [
				"R. H. Hardin, \u003ca href=\"/A251288/b251288.txt\"\u003eTable of n, a(n) for n = 1..210\u003c/a\u003e"
			],
			"formula": [
				"Empirical: a(n) = 2*a(n-1) +40*a(n-2) -55*a(n-3) -533*a(n-4) +518*a(n-5) +3271*a(n-6) -2001*a(n-7) -10562*a(n-8) +2928*a(n-9) +17984*a(n-10) -637*a(n-11) -15411*a(n-12) -1198*a(n-13) +6419*a(n-14) +561*a(n-15) -1099*a(n-16) -18*a(n-17) +50*a(n-18) -2*a(n-19)"
			],
			"example": [
				"Some solutions for n=4",
				"..1..0..0..1..1....1..0..0..0..1....1..1..1..0..1....0..0..0..0..0",
				"..0..1..0..0..0....1..0..1..0..0....0..0..0..0..1....1..1..1..1..0",
				"..0..0..1..1..0....1..0..0..0..1....1..1..1..0..1....0..0..0..0..1",
				"..1..0..0..0..0....1..0..1..0..0....0..0..0..0..1....1..0..1..0..0",
				"..0..0..1..0..1....1..0..0..1..1....1..1..1..0..1....0..0..0..0..1"
			],
			"keyword": "nonn",
			"offset": "1,1",
			"author": "_R. H. Hardin_, Dec 01 2014",
			"references": 1,
			"revision": 4,
			"time": "2014-12-01T11:29:32-05:00",
			"created": "2014-12-01T11:29:32-05:00"
		}
	]
}