{
	"greeting": "Greetings from The On-Line Encyclopedia of Integer Sequences! http://oeis.org/",
	"query": "id:A251868",
	"count": 1,
	"start": 0,
	"results": [
		{
			"number": 251868,
			"data": "1038,5632,7080,13152,107040,309144,893120,19032128,165273152,765683904,31543581824,1017632821376,5776714371584,549951279116416,49897575625330816,312701410177607424,75341988071758426368",
			"name": "Number of (n+2)X(n+2) 0..3 arrays with every 3X3 subblock row and column sum not 2 4 5 or 7 and every diagonal and antidiagonal sum 2 4 5 or 7",
			"comment": [
				"Diagonal of A251876"
			],
			"link": [
				"R. H. Hardin, \u003ca href=\"/A251868/b251868.txt\"\u003eTable of n, a(n) for n = 1..18\u003c/a\u003e"
			],
			"example": [
				"Some solutions for n=4",
				"..3..1..2..0..1..2....3..3..3..3..3..0....2..1..3..2..1..0....2..3..1..2..0..1",
				"..3..0..3..3..3..0....3..2..1..0..2..1....1..2..0..1..2..3....1..1..1..1..1..1",
				"..3..2..1..0..2..1....0..1..2..3..1..2....0..3..3..3..0..0....3..2..1..3..2..1",
				"..0..1..2..3..1..2....3..3..0..3..0..3....2..1..0..2..1..3....2..3..1..2..0..1",
				"..3..3..0..3..0..3....0..2..1..3..2..1....1..2..3..1..2..3....1..1..1..1..1..1",
				"..0..2..1..3..2..1....0..1..2..0..1..2....0..0..3..0..3..0....3..2..1..3..2..1"
			],
			"keyword": "nonn",
			"offset": "1,1",
			"author": "_R. H. Hardin_, Dec 10 2014",
			"references": 1,
			"revision": 5,
			"time": "2014-12-10T09:14:03-05:00",
			"created": "2014-12-10T09:14:03-05:00"
		}
	]
}