{
	"greeting": "Greetings from The On-Line Encyclopedia of Integer Sequences! http://oeis.org/",
	"query": "id:A251024",
	"count": 1,
	"start": 0,
	"results": [
		{
			"number": 251024,
			"data": "6321,23404,51347,119632,257578,563271,1199576,2590598,5601754,12305560,27283810,61222845,138410707,315015070,719847225,1649954072,3788495903,8709393619,20035602376,46111319584,106149006168,244393023772",
			"name": "Number of (n+1)X(4+1) 0..3 arrays with no 2X2 subblock having the sum of its diagonal elements greater than the maximum of its antidiagonal elements",
			"comment": [
				"Column 4 of A251028"
			],
			"link": [
				"R. H. Hardin, \u003ca href=\"/A251024/b251024.txt\"\u003eTable of n, a(n) for n = 1..210\u003c/a\u003e"
			],
			"formula": [
				"Empirical: a(n) = 8*a(n-1) -25*a(n-2) +35*a(n-3) -7*a(n-4) -49*a(n-5) +77*a(n-6) -55*a(n-7) +20*a(n-8) -3*a(n-9) for n\u003e14"
			],
			"example": [
				"Some solutions for n=4",
				"..0..0..1..2..3....0..0..0..1..0....0..0..0..0..2....0..2..2..2..3",
				"..0..0..0..0..1....2..0..0..1..0....0..0..0..0..2....1..0..0..0..1",
				"..2..2..2..2..2....2..0..0..1..0....0..0..0..0..2....1..0..0..0..1",
				"..0..0..0..0..0....2..0..0..1..0....0..0..0..0..2....1..0..0..0..1",
				"..3..3..3..3..1....3..1..1..1..0....2..2..1..1..1....2..0..0..0..1"
			],
			"keyword": "nonn",
			"offset": "1,1",
			"author": "_R. H. Hardin_, Nov 29 2014",
			"references": 1,
			"revision": 6,
			"time": "2014-12-01T12:50:03-05:00",
			"created": "2014-11-29T17:01:39-05:00"
		}
	]
}