{
	"greeting": "Greetings from The On-Line Encyclopedia of Integer Sequences! http://oeis.org/",
	"query": "id:A251626",
	"count": 1,
	"start": 0,
	"results": [
		{
			"number": 251626,
			"data": "1,7,8,71,150,1271,1421,12639,26699,226231,931623,4884346,44890737,4884346,64428121,327024951,718478023,2482459020,13130773123,41874778389,264379443457,41874778389,348129000235,2826906780269,20136476462118,83372812628741",
			"name": "Denominator of fraction equal to the continued fraction [2,7,1,8,2,...] (first n digits of e).",
			"link": [
				"Harvey P. Dale, \u003ca href=\"/A251626/b251626.txt\"\u003eTable of n, a(n) for n = 1..1000\u003c/a\u003e"
			],
			"mathematica": [
				"Module[{nn=30,pd},pd=RealDigits[E,10,nn][[1]];Table[Denominator[ FromContinuedFraction[Take[pd,n]]],{n,nn}]]"
			],
			"xref": [
				"Cf. A036253, A036254, A249944."
			],
			"keyword": "frac,nonn,base",
			"offset": "1,2",
			"author": "_Harvey P. Dale_, Dec 07 2014",
			"references": 2,
			"revision": 32,
			"time": "2014-12-07T18:08:58-05:00",
			"created": "2014-12-07T18:08:58-05:00"
		}
	]
}