{
	"greeting": "Greetings from The On-Line Encyclopedia of Integer Sequences! http://oeis.org/",
	"query": "id:A251809",
	"count": 1,
	"start": 0,
	"results": [
		{
			"number": 251809,
			"data": "1,0,2,7,7,2,2,5,8,5,9,3,6,8,5,8,5,6,7,8,7,9,2,5,6,6,1,8,0,0,2,2,5,5,7,6,7,2,1,0,1,0,0,3,1,8,5,3,6,9,9,7,4,6,5,3,3,1,0,8,4,7,5,5,1,8,5,2,5,7,7,7,2,4,6,8,5,8,4,9,6,8,0,3,5,1",
			"name": "Decimal expansion of 3*sqrt(2)*Pi^3/128.",
			"comment": [
				"Equals the value of the Dirichlet L-series of the non-principal character modulo 8 (A188510) at s=3. - _Jianing Song_, Nov 16 2019"
			],
			"reference": [
				"L. B. W. Jolley, Summation of series, Dover Publications Inc. (New York), 1961, p. 64 (formula 340)."
			],
			"link": [
				"G. C. Greubel, \u003ca href=\"/A251809/b251809.txt\"\u003eTable of n, a(n) for n = 1..10000\u003c/a\u003e"
			],
			"formula": [
				"Equals Sum_{i \u003e= 0} (-1)^floor(i/2)/(2i+1)^3 = +1 +1/3^3 -1/5^3 -1/7^3 +1/9^3 +1/11^3 - ...",
				"Equals Sum_{i \u003e= 1} A188510(i)/i^3 = Sum_{i \u003e= 1} Kronecker(-8,i)/i^3. - _Jianing Song_, Nov 16 2019"
			],
			"example": [
				"1.027722585936858567879256618002255767210100318536997465331084755185..."
			],
			"mathematica": [
				"RealDigits[3 Sqrt[2] Pi^3/128, 10, 90][[1]]"
			],
			"program": [
				"(PARI) 3*sqrt(2)*Pi^3/128 \\\\ _G. C. Greubel_, Jul 27 2018",
				"(MAGMA) R:= RealField(); 3*Sqrt(2)*Pi(R)^3/128; // _G. C. Greubel_, Jul 27 2018"
			],
			"xref": [
				"Cf. A153071: Sum_{i \u003e= 0} (-1)^i/(2i+1)^3.",
				"Cf. A233091: Sum_{i \u003e= 0} 1/(2i+1)^3.",
				"Cf. A093954, A188510."
			],
			"keyword": "nonn,cons",
			"offset": "1,3",
			"author": "_Bruno Berselli_, Dec 10 2014",
			"references": 10,
			"revision": 28,
			"time": "2019-11-17T01:50:58-05:00",
			"created": "2014-12-10T10:26:35-05:00"
		}
	]
}