{
	"greeting": "Greetings from The On-Line Encyclopedia of Integer Sequences! http://oeis.org/",
	"query": "id:A251476",
	"count": 1,
	"start": 0,
	"results": [
		{
			"number": 251476,
			"data": "586,3904,24182,123739,609565,2696488,11697274,47575204,191527226,740673411,2848714884,10679966309,39919058437,146791696499,538812135978,1957471091980,7102211736792,25606426267704,92214319488546",
			"name": "Number of (n+1)X(2+1) 0..3 arrays with every 2X2 subblock summing to a prime and those sums nondecreasing in every row and column",
			"comment": [
				"Column 2 of A251481"
			],
			"link": [
				"R. H. Hardin, \u003ca href=\"/A251476/b251476.txt\"\u003eTable of n, a(n) for n = 1..210\u003c/a\u003e",
				"R. H. Hardin, \u003ca href=\"/A251476/a251476.txt\"\u003eEmpirical recurrence of order 61\u003c/a\u003e"
			],
			"formula": [
				"Empirical recurrence of order 61 (see link above)"
			],
			"example": [
				"Some solutions for n=4",
				"..1..0..2....1..0..1....0..1..3....2..1..3....1..0..2....2..0..2....0..0..1",
				"..1..1..0....2..0..2....1..0..1....2..0..1....0..1..2....0..0..0....2..0..2",
				"..1..0..2....0..3..0....1..3..1....2..3..3....0..1..1....1..1..1....0..0..3",
				"..0..2..1....1..3..1....1..0..3....2..0..1....1..3..2....3..0..3....1..2..2",
				"..0..1..3....1..2..1....3..1..3....2..3..3....0..1..1....3..1..3....1..3..0"
			],
			"keyword": "nonn",
			"offset": "1,1",
			"author": "_R. H. Hardin_, Dec 02 2014",
			"references": 1,
			"revision": 4,
			"time": "2014-12-02T19:13:18-05:00",
			"created": "2014-12-02T19:13:18-05:00"
		}
	]
}