{
	"greeting": "Greetings from The On-Line Encyclopedia of Integer Sequences! http://oeis.org/",
	"query": "id:A251817",
	"count": 1,
	"start": 0,
	"results": [
		{
			"number": 251817,
			"data": "3349,9040,62457,409196,2670355,17562309,115183429,755607816,4967204967,32613907072,214022771740,1405186467947,9227158423777,60580408167779,397722666715162,2611240940819645,17144272724693792,112560751779945326",
			"name": "Number of (n+2)X(6+2) 0..2 arrays with every row, column, diagonal or antidiagonal in each 3X3 subblock summing to a prime",
			"comment": [
				"Column 6 of A251819"
			],
			"link": [
				"R. H. Hardin, \u003ca href=\"/A251817/b251817.txt\"\u003eTable of n, a(n) for n = 1..210\u003c/a\u003e",
				"R. H. Hardin, \u003ca href=\"/A251817/a251817.txt\"\u003eEmpirical recurrence of order 74\u003c/a\u003e"
			],
			"formula": [
				"Empirical recurrence of order 74 (see link above)"
			],
			"example": [
				"Some solutions for n=3",
				"..1..1..1..1..0..1..1..1....1..0..1..1..1..1..0..1....1..0..1..1..0..1..1..1",
				"..1..0..1..1..1..1..1..1....0..1..1..1..1..1..1..1....1..1..1..1..1..1..1..1",
				"..1..1..1..0..1..1..1..1....1..1..1..1..1..1..1..0....1..1..1..1..1..1..1..1",
				"..0..1..1..1..1..1..0..1....1..1..1..1..1..1..1..1....1..1..1..1..1..0..1..1",
				"..1..1..0..1..1..1..1..1....0..1..1..1..1..1..0..1....0..1..1..0..1..1..1..0"
			],
			"keyword": "nonn",
			"offset": "1,1",
			"author": "_R. H. Hardin_, Dec 09 2014",
			"references": 1,
			"revision": 4,
			"time": "2014-12-09T11:28:39-05:00",
			"created": "2014-12-09T11:28:39-05:00"
		}
	]
}