{
	"greeting": "Greetings from The On-Line Encyclopedia of Integer Sequences! http://oeis.org/",
	"query": "id:A251095",
	"count": 1,
	"start": 0,
	"results": [
		{
			"number": 251095,
			"data": "129,1109,9597,82814,713769,6151051,53009570,456842112,3937123328,33930621210,292418287803,2520096887534,21718506027532,187172766061609,1613078004734497,13901705381759445,119806613163586853",
			"name": "Number of (n+1)X(3+1) 0..1 arrays with no 2X2 subblock having its minimum diagonal element less than its minimum antidiagonal element",
			"comment": [
				"Column 3 of A251100"
			],
			"link": [
				"R. H. Hardin, \u003ca href=\"/A251095/b251095.txt\"\u003eTable of n, a(n) for n = 1..210\u003c/a\u003e"
			],
			"formula": [
				"Empirical: a(n) = 16*a(n-1) -90*a(n-2) +285*a(n-3) -577*a(n-4) +763*a(n-5) -652*a(n-6) +352*a(n-7) -112*a(n-8) +16*a(n-9)"
			],
			"example": [
				"Some solutions for n=4",
				"..0..0..1..0....0..1..0..0....0..1..1..1....1..0..0..0....1..1..0..1",
				"..1..0..1..1....0..0..0..0....0..0..1..1....1..1..0..0....0..0..0..1",
				"..0..0..0..1....0..0..0..0....1..0..0..1....0..1..0..0....1..1..0..0",
				"..1..1..0..1....0..0..1..1....0..1..0..0....0..0..1..0....0..1..1..0",
				"..0..1..0..1....1..0..1..1....0..0..0..1....0..0..0..1....0..0..0..0"
			],
			"keyword": "nonn",
			"offset": "1,1",
			"author": "_R. H. Hardin_, Nov 29 2014",
			"references": 1,
			"revision": 4,
			"time": "2014-11-29T20:54:35-05:00",
			"created": "2014-11-29T20:54:35-05:00"
		}
	]
}