{
	"greeting": "Greetings from The On-Line Encyclopedia of Integer Sequences! http://oeis.org/",
	"query": "id:A251739",
	"count": 1,
	"start": 0,
	"results": [
		{
			"number": 251739,
			"data": "1,4,3,6,5,8,7,8,9,10,10,9,10,10,10,11,11,11,12,11,12,11,11,12,13,12,11,13,12,13,13,13,12,13,13,14,13,14,13,14,14,14,14,14,14,15,15,15,14,14,15,14,15,15,15,15,16,15",
			"name": "Smallest k such that n * sum(i=0..k, binomial(k,i) mod (n-1) ) \u003c= 2^n.",
			"comment": [
				"Aside from the third value, the sequence is the same as A251738."
			],
			"example": [
				"For n = 3,",
				"3 * sum(i=0..1, binomial(1,i) mod 2) = 3 * (1 + 1) = 6 \u003e 2^1,",
				"3 * sum(i=0..2, binomial(2,i) mod 2) = 3 * (1 + 0 + 1) = 6 \u003e 2^2,",
				"3 * sum(i=0..3, binomial(3,i) mod 2) = 3 * (1 + 1 + 1 + 1) = 12 \u003e 2^3,",
				"3 * sum(i=0..4, binomial(4,i) mod 2) = 3 * (1 + 0 + 0 + 0 + 1) = 6 \u003c= 2^4,",
				"so A251739(3) = 4."
			],
			"xref": [
				"Cf. A251738."
			],
			"keyword": "nonn",
			"offset": "2,2",
			"author": "_Jens Voß_, Dec 07 2014",
			"references": 2,
			"revision": 16,
			"time": "2014-12-14T15:09:49-05:00",
			"created": "2014-12-14T15:09:49-05:00"
		}
	]
}