{
	"greeting": "Greetings from The On-Line Encyclopedia of Integer Sequences! http://oeis.org/",
	"query": "id:A251703",
	"count": 1,
	"start": 0,
	"results": [
		{
			"number": 251703,
			"data": "1,1,0,0,2,3,5,10,20,38,73,141,272,524,1010,1947,3753,7234,13944,26878,51809,99865,192496,371048,715218,1378627,2657389,5122282,9873516,19031814,36685001,70712613,136302944,262732372,506432930,976180859",
			"name": "4-step Fibonacci sequence starting with 1,1,0,0.",
			"link": [
				"\u003ca href=\"/index/Rec#order_04\"\u003eIndex entries for linear recurrences with constant coefficients\u003c/a\u003e, signature (1,1,1,1)."
			],
			"formula": [
				"a(n+4) = a(n) + a(n+1) + a(n+2) + a(n+3)."
			],
			"mathematica": [
				"LinearRecurrence[Table[1, {4}], {1, 1, 0, 0}, 36] (* _Michael De Vlieger_, Dec 09 2014 *)"
			],
			"program": [
				"(J) see A251655 for the program and apply it to 1,1,0,0."
			],
			"xref": [
				"Other 4-step Fibonacci sequences are A000078, A000288, A001630, A001631, A001648, A073817, A100532, A251654, A251655, A251656, A251704, A251705."
			],
			"keyword": "nonn,easy",
			"offset": "0,5",
			"author": "_Arie Bos_, Dec 07 2014",
			"references": 6,
			"revision": 20,
			"time": "2015-06-13T00:55:18-04:00",
			"created": "2014-12-10T19:13:54-05:00"
		}
	]
}