{
	"greeting": "Greetings from The On-Line Encyclopedia of Integer Sequences! http://oeis.org/",
	"query": "id:A251605",
	"count": 1,
	"start": 0,
	"results": [
		{
			"number": 251605,
			"data": "226,1046,3881,20206,1970256,57619059,62109258",
			"name": "Numbers k = concat(s,t) such that k = antisigma(s) + antisigma(t), where antisigma(x) = A024816(x).",
			"example": [
				"226 = concat(22,6); 22*23/2 - sigma(22) = 253 - 36 = 217; 6*7/2 - sigma(6) = 21 - 12 = 9. Finally 217 + 9 = 226."
			],
			"maple": [
				"with(numtheory): P:=proc(q) local s, t, k; global n; for n from 1 to q do for k from 1 to ilog10(n) do s:=n mod 10^k; t:=trunc(n/10^k); if s\u003e0 then if s*(s+1)/2-sigma(s)+t*(t+1)/2-sigma(t)=n",
				"then print(n); break; fi; fi; od; od; end: P(10^7);"
			],
			"xref": [
				"Cf. A000203, A024816, A253824, A253825."
			],
			"keyword": "nonn,base,more",
			"offset": "1,1",
			"author": "_Paolo P. Lava_, Feb 02 2015",
			"ext": [
				"Incorrect term 240 removed by and a(6)-a(7) from _Jinyuan Wang_, Feb 16 2021"
			],
			"references": 1,
			"revision": 24,
			"time": "2021-02-16T02:51:26-05:00",
			"created": "2015-02-04T23:40:34-05:00"
		}
	]
}