{
	"greeting": "Greetings from The On-Line Encyclopedia of Integer Sequences! http://oeis.org/",
	"query": "id:A251553",
	"count": 1,
	"start": 0,
	"results": [
		{
			"number": 251553,
			"data": "3,5,7,10,12,17,19,21,24,26,28,31,33,37,39,42,44,47,49,52,55,57,59,64,66,69,71,73,75,78,81,83,85,90,92,95,97,100,102,104,107,109,111,113,115,117,120,123,129,131,133,136,138,140,143,145,149,152,155,157,159,162,164,169,171,173,176,178",
			"name": "Numbers k such that A098550(k) is a multiple of 3.",
			"comment": [
				"This sequence is now known to be infinite."
			],
			"link": [
				"Chai Wah Wu, \u003ca href=\"/A251553/b251553.txt\"\u003eTable of n, a(n) for n = 1..10000\u003c/a\u003e"
			],
			"program": [
				"(Haskell)",
				"a251553 n = a251553_list !! (n-1)",
				"a251553_list = filter ((== 0) . flip mod 3 . a098550) [1..]",
				"-- _Reinhard Zumkeller_, Dec 19 2014"
			],
			"xref": [
				"Cf. A098550.",
				"Second row of array A251716."
			],
			"keyword": "nonn",
			"offset": "1,1",
			"author": "_N. J. A. Sloane_, Dec 18 2014",
			"references": 3,
			"revision": 14,
			"time": "2021-08-06T00:46:33-04:00",
			"created": "2014-12-18T18:44:12-05:00"
		}
	]
}