{
	"greeting": "Greetings from The On-Line Encyclopedia of Integer Sequences! http://oeis.org/",
	"query": "id:A251220",
	"count": 1,
	"start": 0,
	"results": [
		{
			"number": 251220,
			"data": "14,305,20782,4462968,3007738372,6373427948731,42432102644410392,887822645668106069016,58374742677350528694024651,12061621459257582136492647314788,7831831916823870434473136772446378463",
			"name": "Number of (n+1)X(n+1) 0..1 arrays with no 2X2 subblock having the minimum of its diagonal elements greater than the absolute difference of its antidiagonal elements",
			"comment": [
				"Diagonal of A251228"
			],
			"link": [
				"R. H. Hardin, \u003ca href=\"/A251220/b251220.txt\"\u003eTable of n, a(n) for n = 1..15\u003c/a\u003e"
			],
			"example": [
				"Some solutions for n=3",
				"..1..0..0..1....1..0..1..0....1..1..0..0....0..1..1..0....1..1..1..0",
				"..1..0..0..1....0..0..1..1....0..1..0..1....1..0..1..0....1..0..1..1",
				"..0..0..0..1....0..0..0..0....0..1..1..1....1..1..1..1....0..0..0..1",
				"..0..0..0..0....1..1..0..1....0..0..0..1....0..0..1..0....1..0..1..1"
			],
			"keyword": "nonn",
			"offset": "1,1",
			"author": "_R. H. Hardin_, Nov 30 2014",
			"references": 1,
			"revision": 5,
			"time": "2014-11-30T20:36:23-05:00",
			"created": "2014-11-30T20:36:23-05:00"
		}
	]
}