{
	"greeting": "Greetings from The On-Line Encyclopedia of Integer Sequences! http://oeis.org/",
	"query": "id:A251450",
	"count": 1,
	"start": 0,
	"results": [
		{
			"number": 251450,
			"data": "985223,403222305,184506926190,85556587695052,39771181944389404,18495437790197129833,8602687112500228141685,4001407408282839128789885,1861222024227847494165869294,865732686486731790761149075818",
			"name": "Number of (n+1)X(7+1) 0..2 arrays with no 2X2 subblock having the minimum of its diagonal elements less than the absolute difference of its antidiagonal elements",
			"comment": [
				"Column 7 of A251451"
			],
			"link": [
				"R. H. Hardin, \u003ca href=\"/A251450/b251450.txt\"\u003eTable of n, a(n) for n = 1..210\u003c/a\u003e"
			],
			"example": [
				"Some solutions for n=1",
				"..1..1..0..1..0..1..2..2....1..1..2..2..0..2..1..2....1..0..1..2..0..1..2..2",
				"..0..1..1..0..1..2..2..2....0..1..2..2..2..0..2..0....0..1..2..1..1..1..1..2"
			],
			"keyword": "nonn",
			"offset": "1,1",
			"author": "_R. H. Hardin_, Dec 02 2014",
			"references": 1,
			"revision": 4,
			"time": "2014-12-02T18:21:37-05:00",
			"created": "2014-12-02T18:21:37-05:00"
		}
	]
}