{
	"greeting": "Greetings from The On-Line Encyclopedia of Integer Sequences! http://oeis.org/",
	"query": "id:A251648",
	"count": 1,
	"start": 0,
	"results": [
		{
			"number": 251648,
			"data": "1248,4008,9918,24706,98306,245842,610082,2470626,6167962,15277218,62704418,156357898,386711138,1602835938,3993364042,9866146146,41180644322,102536539882,253140113186,1061848619298,2642785323274",
			"name": "Number of (n+2)X(4+2) 0..3 arrays with no row, column, diagonal or antidiagonal in any 3X3 subblock summing to 0 2 4 5 7 or 9",
			"comment": [
				"Column 4 of A251652"
			],
			"link": [
				"R. H. Hardin, \u003ca href=\"/A251648/b251648.txt\"\u003eTable of n, a(n) for n = 1..210\u003c/a\u003e"
			],
			"formula": [
				"Empirical: a(n) = 3*a(n-1) +23*a(n-3) -77*a(n-4) +78*a(n-6) -26*a(n-7) for n\u003e11"
			],
			"example": [
				"Some solutions for n=4",
				"..3..1..2..3..1..2....3..1..2..0..1..2....1..1..1..1..1..1....2..3..1..2..0..1",
				"..0..1..2..3..1..2....2..0..1..2..3..1....3..0..3..0..3..0....2..0..1..2..3..1",
				"..3..1..2..0..1..2....1..2..0..1..2..0....2..2..2..2..2..2....2..3..1..2..3..1",
				"..0..1..2..3..1..2....3..1..2..3..1..2....1..1..1..1..1..1....2..3..1..2..0..1",
				"..3..1..2..0..1..2....2..0..1..2..3..1....3..3..0..0..3..0....2..0..1..2..3..1",
				"..0..1..2..0..1..2....1..2..3..1..2..0....2..2..2..2..2..2....2..0..1..2..3..1"
			],
			"keyword": "nonn",
			"offset": "1,1",
			"author": "_R. H. Hardin_, Dec 06 2014",
			"references": 1,
			"revision": 4,
			"time": "2014-12-06T10:44:47-05:00",
			"created": "2014-12-06T10:44:47-05:00"
		}
	]
}