{
	"greeting": "Greetings from The On-Line Encyclopedia of Integer Sequences! http://oeis.org/",
	"query": "id:A251079",
	"count": 1,
	"start": 0,
	"results": [
		{
			"number": 251079,
			"data": "1,1,1,1,1,1,1,1,1,1,89,225,415,665,981,1369,1835,2385,3025,3761,30169,79903,167957,314911,548011,902339,1422073,2161837,3188141,4580911,12815576,31665861,70135406,142741143,272097694,492367347,853768306,1428360119",
			"name": "Number of tilings of a 30 X n rectangle using 3n decominoes of shape I.",
			"link": [
				"Alois P. Heinz, \u003ca href=\"/A251079/b251079.txt\"\u003eTable of n, a(n) for n = 0..100\u003c/a\u003e",
				"Wikipedia, \u003ca href=\"https://en.wikipedia.org/wiki/Decomino\"\u003eDecomino\u003c/a\u003e"
			],
			"xref": [
				"Column k=10 of A251072.",
				"Cf. A250667."
			],
			"keyword": "nonn",
			"offset": "0,11",
			"author": "_Alois P. Heinz_, Nov 29 2014",
			"references": 3,
			"revision": 8,
			"time": "2017-02-06T18:24:48-05:00",
			"created": "2014-11-30T09:36:56-05:00"
		}
	]
}