{
	"greeting": "Greetings from The On-Line Encyclopedia of Integer Sequences! http://oeis.org/",
	"query": "id:A251962",
	"count": 1,
	"start": 0,
	"results": [
		{
			"number": 251962,
			"data": "5484,11375,11375,27550,26027,27550,101307,149744,149744,101307,417045,1201953,2124017,1201953,417045,1957438,10509427,30761067,30761067,10509427,1957438,10045910,94160979,458358230,736975310,458358230",
			"name": "T(n,k)=Number of (n+2)X(k+2) 0..4 arrays with every row, column, diagonal or antidiagonal in each 3X3 subblock summing to a prime",
			"comment": [
				"Table starts",
				".......5484........11375...........27550...........101307............417045",
				"......11375........26027..........149744..........1201953..........10509427",
				"......27550.......149744.........2124017.........30761067.........458358230",
				".....101307......1201953........30761067........736975310.......18033590706",
				".....417045.....10509427.......458358230......18033590706......731661524537",
				"....1957438.....94160979......6886698489.....446277561777....30091466242073",
				"...10045910....839633727....102836207351...10977331490335..1225476789960343",
				"...53241089...7484563854...1538051208196..270151507070538.49988074220671475",
				"..284500818..66822646537..23018111175603.6654368971046793",
				".1525692838.596375268131.344296818674851"
			],
			"link": [
				"R. H. Hardin, \u003ca href=\"/A251962/b251962.txt\"\u003eTable of n, a(n) for n = 1..84\u003c/a\u003e"
			],
			"example": [
				"Some solutions for n=2 k=4",
				"..0..1..1..1..3..1....1..1..1..1..1..1....1..3..1..3..1..1....0..1..1..1..1..3",
				"..1..1..1..1..1..3....1..1..3..1..3..1....0..1..1..1..1..1....1..1..3..1..3..3",
				"..1..1..1..1..1..1....0..1..1..1..3..1....1..1..3..3..1..1....1..1..1..1..1..1",
				"..1..3..1..1..3..1....1..3..1..1..1..1....1..1..1..1..1..1....3..3..1..3..3..1"
			],
			"keyword": "nonn,tabl",
			"offset": "1,1",
			"author": "_R. H. Hardin_, Dec 11 2014",
			"references": 7,
			"revision": 4,
			"time": "2014-12-11T13:09:58-05:00",
			"created": "2014-12-11T13:09:58-05:00"
		}
	]
}