{
	"greeting": "Greetings from The On-Line Encyclopedia of Integer Sequences! http://oeis.org/",
	"query": "id:A251213",
	"count": 1,
	"start": 0,
	"results": [
		{
			"number": 251213,
			"data": "21,63,191,589,1807,5569,17119,52713,162143,499081,1535535,4725689,14541087,44748169,137696911,423732505,1303909887,4012461097,12347225455,37995389753,116920467935,359791896905,1107162729807,3406999063641",
			"name": "Number of (n+1)X(2+1) 0..1 arrays with no 2X2 subblock having zero or two 1s",
			"comment": [
				"Column 2 of A251219"
			],
			"link": [
				"R. H. Hardin, \u003ca href=\"/A251213/b251213.txt\"\u003eTable of n, a(n) for n = 1..210\u003c/a\u003e"
			],
			"formula": [
				"Empirical: a(n) = 3*a(n-1) +4*a(n-2) -12*a(n-3) +4*a(n-5).",
				"Empirical: G.f.: -x*(21-82*x^2+16*x^3+32*x^4) / ( -1+3*x+4*x^2-12*x^3+4*x^5 ). - _R. J. Mathar_, May 12 2016"
			],
			"example": [
				"Some solutions for n=4",
				"..0..1..1....0..1..1....1..0..1....0..1..0....0..0..0....1..1..1....1..1..1",
				"..1..1..0....1..1..1....1..1..1....0..0..0....1..0..1....1..1..0....0..1..0",
				"..1..1..1....0..1..0....0..1..1....1..0..1....1..1..1....1..1..1....1..1..1",
				"..1..1..1....1..1..1....0..0..1....1..1..1....1..1..0....1..1..1....1..1..1",
				"..1..1..1....1..0..1....0..1..1....1..1..0....0..1..1....1..1..1....1..1..1"
			],
			"keyword": "nonn",
			"offset": "1,1",
			"author": "_R. H. Hardin_, Nov 30 2014",
			"references": 1,
			"revision": 6,
			"time": "2016-05-12T04:54:07-04:00",
			"created": "2014-11-30T20:17:30-05:00"
		}
	]
}