{
	"greeting": "Greetings from The On-Line Encyclopedia of Integer Sequences! http://oeis.org/",
	"query": "id:A251593",
	"count": 1,
	"start": 0,
	"results": [
		{
			"number": 251593,
			"data": "1,0,1,1,6,21,120,702,4851,36549,302031,2687435,25561745,257747493,2738202129,30482602101,353982846285,427126636983,53371267903029,688581489582657,9149097089801836,124906922737719625,1748648316615176130",
			"name": "Dimension of space of invariant tensors in n-th tensor power of second fundamental representation of Sp(8).",
			"program": [
				"(Lie) p_tensor(n,[0,1,0,0],C4)|[0,0,0,0]"
			],
			"xref": [
				"Cf. A251594, A251596, A251598."
			],
			"keyword": "nonn,more",
			"offset": "0,5",
			"author": "_Bruce Westbury_, Dec 05 2014",
			"references": 3,
			"revision": 16,
			"time": "2014-12-05T11:11:35-05:00",
			"created": "2014-12-05T11:11:35-05:00"
		}
	]
}