{
	"greeting": "Greetings from The On-Line Encyclopedia of Integer Sequences! http://oeis.org/",
	"query": "id:A251726",
	"count": 1,
	"start": 0,
	"results": [
		{
			"number": 251726,
			"data": "2,3,4,5,6,7,8,9,11,12,13,15,16,17,18,19,21,23,24,25,27,29,31,32,35,36,37,41,43,45,47,48,49,53,54,55,59,61,63,64,65,67,71,72,73,75,77,79,81,83,85,89,91,95,96,97,101,103,105,107,108,109,113,115,119,121,125,127,128,131,133,135,137,139,143,144",
			"name": "Numbers n \u003e 1 for which gpf(n) \u003c lpf(n)^2, where lpf and gpf (least and greatest prime factor of n) are given by A020639(n) and A006530(n).",
			"comment": [
				"Numbers n \u003e 1 for which there exists r \u003c= gpf(n) such that r^k \u003c= lpf(n) and gpf(n) \u003c r^(k+1) for some k \u003e= 0, where lpf and gpf (least and greatest prime factor of n) are given by A020639(n) and A006530(n) (the original, equivalent definition of the sequence).",
				"Numbers n \u003e 1 such that A252375(n) \u003c 1 + A006530(n). Equally, one can substitute A251725 for A252375.",
				"These are numbers n all of whose prime factors \"fit between\" two consecutive powers of some positive integer which itself is \u003c= the largest prime factor of n.",
				"Conjecture: If any n is in the sequence, then so is A003961(n).",
				"Note: if Legendre's or Brocard's conjecture is true, then the above conjecture is true as well. See my comments at A251728. - _Antti Karttunen_, Jan 01 2015"
			],
			"link": [
				"Antti Karttunen, \u003ca href=\"/A251726/b251726.txt\"\u003eTable of n, a(n) for n = 1..10000\u003c/a\u003e",
				"\u003ca href=\"https://oeis.org/plot2a?name1=A251726\u0026amp;name2=A251727\u0026amp;tform1=untransformed\u0026amp;tform2=untransformed\u0026amp;shift=0\u0026amp;radiop1=ratio\u0026amp;drawlines=true\"\u003eRatio A251726(n)/A251727(n)\u003c/a\u003e (plotted with OEIS-server's Plot2-utility)"
			],
			"formula": [
				"Other identities. For all n \u003e= 1:",
				"A252373(a(n)) = n. [A252373 works as an inverse or ranking function for this sequence.]"
			],
			"example": [
				"For 35 = 5*7, 7 is less than 5^2, thus 35 is included.",
				"For 90 = 2*3*3*5, 5 is not less than 2^2, thus 90 is NOT included.",
				"For 105 = 3*5*7, 7 is less than 3^2, thus 105 is included."
			],
			"mathematica": [
				"pfQ[n_]:=Module[{f=FactorInteger[n]},f[[-1,1]]\u003cf[[1,1]]^2]; Select[ Range[ 200],pfQ] (* _Harvey P. Dale_, May 01 2015 *)"
			],
			"program": [
				"(Scheme with _Antti Karttunen_'s IntSeq-library, three alternative versions)",
				"(define A251726 (MATCHING-POS 1 2 (lambda (n) (\u003c (A006530 n) (A000290 (A020639 n))))))",
				"(define A251726 (MATCHING-POS 1 2 (lambda (n) (\u003c (A251725 n) (+ 1 (A006530 n))))))",
				"(define A251726 (MATCHING-POS 1 2 (lambda (n) (\u003c (A252375 n) (+ 1 (A006530 n))))))",
				"(PARI) for(n=2, 150, if(vecmax(factor(n)[,1]) \u003c vecmin(factor(n)[,1])^2, print1(n,\", \"))) \\\\ _Indranil Ghosh_, Mar 24 2017",
				"(Python)",
				"from sympy import primefactors",
				"print([n for n in range(2, 150) if max(primefactors(n))\u003cmin(primefactors(n))**2]) # _Indranil Ghosh_, Mar 24 2017"
			],
			"xref": [
				"Complement: A251727. Subsequences: A251728, A000961 (after 1).",
				"Characteristic function: A252372. Inverse function: A252373.",
				"Gives the positions of zeros in A252459 (after its initial zero), cf. also A284261.",
				"Cf. A252370 (gives the difference between the prime indices of gpf and lpf for each a(n)).",
				"Sequence gives all n \u003e 1 for which A284252(n) (equally: A284254) is 1, and A284256(n) (equally A284258) is 0, and also n \u003e 1 such that A284260(n) = A006530(n).",
				"Cf. A003961, A006530, A020639, A252375, A251725, A253784.",
				"Related permutations: A252757-A252758."
			],
			"keyword": "nonn",
			"offset": "1,1",
			"author": "_Antti Karttunen_, Dec 17 2014",
			"ext": [
				"A new simpler definition found Jan 01 2015 and the original definition moved to the Comments section."
			],
			"references": 17,
			"revision": 54,
			"time": "2021-03-13T00:56:00-05:00",
			"created": "2014-12-18T02:06:21-05:00"
		}
	]
}