{
	"greeting": "Greetings from The On-Line Encyclopedia of Integer Sequences! http://oeis.org/",
	"query": "id:A252767",
	"count": 1,
	"start": 0,
	"results": [
		{
			"number": 252767,
			"data": "1,12,1728,2558976,38720000000,6009209192448000,9588099190533549457408,157453155560517847607911907328,26625078176206788678765153788526329856,46372286996438096918321753795447236853760000000,831978266205905084594329918959468674594128586559010635776",
			"name": "Number of spanning trees in C_n X P_n.",
			"link": [
				"Alois P. Heinz, \u003ca href=\"/A252767/b252767.txt\"\u003eTable of n, a(n) for n = 1..44\u003c/a\u003e",
				"Eric Weisstein's World of Mathematics, \u003ca href=\"http://mathworld.wolfram.com/CycleGraph.html\"\u003eCycle Graph\u003c/a\u003e",
				"Eric Weisstein's World of Mathematics, \u003ca href=\"http://mathworld.wolfram.com/PathGraph.html\"\u003ePath Graph\u003c/a\u003e",
				"Wikipedia, \u003ca href=\"https://en.wikipedia.org/wiki/Kirchhoff%27s_theorem\"\u003eKirchhoff's theorem\u003c/a\u003e"
			],
			"xref": [
				"Main diagonal of A173958."
			],
			"keyword": "nonn",
			"offset": "1,2",
			"author": "_Alois P. Heinz_, Dec 21 2014",
			"references": 3,
			"revision": 8,
			"time": "2017-02-07T10:28:10-05:00",
			"created": "2014-12-21T11:23:36-05:00"
		}
	]
}