{
	"greeting": "Greetings from The On-Line Encyclopedia of Integer Sequences! http://oeis.org/",
	"query": "id:A252693",
	"count": 1,
	"start": 0,
	"results": [
		{
			"number": 252693,
			"data": "1982,2719,881,6246,4138,18940,25382,82842,168598,474106,1144322,3060306,7815922,20586466,53494154,140277762,366408034,959644570,2510532578,6573087906,17204221018,45040796194,117907050914,308678604858",
			"name": "Number of (n+2) X (6+2) 0..3 arrays with every consecutive three elements in every row and column having exactly two distinct values, and in every diagonal and antidiagonal not having exactly two distinct values, and new values 0 upwards introduced in row major order.",
			"link": [
				"R. H. Hardin, \u003ca href=\"/A252693/b252693.txt\"\u003eTable of n, a(n) for n = 1..210\u003c/a\u003e"
			],
			"formula": [
				"Empirical: a(n) = 5*a(n-1) - 4*a(n-2) - 11*a(n-3) + 9*a(n-4) + 12*a(n-5) + 12*a(n-6) - 34*a(n-7) - 8*a(n-8) + 28*a(n-9) - 8*a(n-10) for n\u003e11.",
				"Empirical g.f.: x*(1982 - 7191*x - 4786*x^2 + 34519*x^3 - 11497*x^4 - 15330*x^5 - 48401*x^6 + 45184*x^7 + 49792*x^8 - 57172*x^9 + 13208*x^10) / ((1 - x)*(1 + x)*(1 - 2*x)*(1 - 3*x + x^2)*(1 - 2*x^2)*(1 - 2*x^3)). - _Colin Barker_, Dec 05 2018"
			],
			"example": [
				"Some solutions for n=4:",
				"..0..1..0..0..1..0..1..1....0..1..1..0..0..1..1..0....0..0..1..0..1..0..1..1",
				"..2..3..2..3..2..3..2..3....0..2..2..3..3..2..2..3....2..3..2..3..2..3..2..3",
				"..2..3..2..3..2..3..2..3....3..1..1..0..0..1..1..0....2..3..2..3..2..3..2..3",
				"..1..0..1..0..1..0..1..0....3..2..2..3..3..2..2..0....0..1..0..1..0..1..0..1",
				"..1..0..1..0..1..0..1..0....0..1..1..0..0..1..1..3....0..1..0..1..0..1..0..1",
				"..3..2..3..2..3..3..2..3....3..2..2..3..3..2..2..0....3..3..2..3..2..2..3..3"
			],
			"xref": [
				"Column 6 of A252695."
			],
			"keyword": "nonn",
			"offset": "1,1",
			"author": "_R. H. Hardin_, Dec 20 2014",
			"references": 1,
			"revision": 7,
			"time": "2018-12-05T08:01:33-05:00",
			"created": "2014-12-20T13:39:05-05:00"
		}
	]
}