{
	"greeting": "Greetings from The On-Line Encyclopedia of Integer Sequences! http://oeis.org/",
	"query": "id:A252344",
	"count": 1,
	"start": 0,
	"results": [
		{
			"number": 252344,
			"data": "562,1386,6986,40756,592230,11021412,249626459,15316883573,776195661759,48304754871426,11765535679080573,1482895646097699360,245504085165829558660,254091374667549037155557",
			"name": "Number of (n+2)X(n+2) 0..3 arrays with every 3X3 subblock row and column sum not equal to 0 3 5 6 or 8 and every 3X3 diagonal and antidiagonal sum equal to 0 3 5 6 or 8",
			"comment": [
				"Diagonal of A252352"
			],
			"example": [
				"Some solutions for n=4",
				"..3..1..3..0..1..0....2..3..2..2..3..2....3..1..3..0..1..3....0..3..1..3..0..1",
				"..2..0..2..2..3..2....3..1..0..3..1..0....2..0..2..2..3..2....2..2..3..2..2..0",
				"..2..3..2..2..3..2....2..3..2..2..3..2....2..3..2..2..0..2....2..2..3..2..2..0",
				"..0..1..3..3..1..3....2..0..2..2..3..2....3..1..3..3..1..3....3..3..1..3..3..1",
				"..2..3..2..2..3..2....3..1..3..3..1..0....2..3..2..2..0..2....2..2..0..2..2..0",
				"..2..3..2..2..0..2....2..0..2..2..0..0....2..0..2..2..0..2....2..2..0..2..2..0"
			],
			"keyword": "nonn",
			"offset": "1,1",
			"author": "_R. H. Hardin_, Dec 16 2014",
			"references": 0,
			"revision": 4,
			"time": "2014-12-16T20:42:48-05:00",
			"created": "2014-12-16T20:42:48-05:00"
		}
	]
}