{
	"greeting": "Greetings from The On-Line Encyclopedia of Integer Sequences! http://oeis.org/",
	"query": "id:A252110",
	"count": 1,
	"start": 0,
	"results": [
		{
			"number": 252110,
			"data": "1600,584,776,1314,1956,2658,4488,7248,10632,17952,28992,42528,71808,115968,170112,287232,463872,680448,1148928,1855488,2721792,4595712,7421952,10887168,18382848,29687808,43548672,73531392,118751232",
			"name": "Number of (n+2) X (4+2) 0..3 arrays with every 3 X 3 subblock row and column sum equal to 0 2 3 6 or 7 and every 3 X 3 diagonal and antidiagonal sum not equal to 0 2 3 6 or 7.",
			"link": [
				"R. H. Hardin, \u003ca href=\"/A252110/b252110.txt\"\u003eTable of n, a(n) for n = 1..210\u003c/a\u003e"
			],
			"formula": [
				"Empirical: a(n) = 4*a(n-3) for n\u003e8.",
				"Empirical g.f.: 2*x*(800 + 292*x + 388*x^2 - 2543*x^3 - 190*x^4 - 223*x^5 - 384*x^6 - 288*x^7) / (1 - 4*x^3). - _Colin Barker_, Dec 01 2018"
			],
			"example": [
				"Some solutions for n=4:",
				"..2..1..3..2..2..3....2..1..0..1..2..3....0..1..2..3..2..2....1..0..1..1..0..2",
				"..3..3..1..3..3..1....1..1..0..1..1..0....3..2..2..3..2..2....0..3..0..0..2..0",
				"..2..2..3..2..2..3....0..0..2..0..0..3....0..3..3..1..3..3....1..0..1..1..0..1",
				"..2..2..3..2..2..3....1..1..0..1..1..0....3..2..2..3..2..2....1..0..1..1..0..1",
				"..3..3..1..3..3..0....2..1..0..1..1..0....3..2..2..3..2..1....0..2..0..0..2..0",
				"..2..2..3..2..2..3....0..0..3..0..0..3....0..3..3..0..3..0....1..0..1..1..0..2"
			],
			"xref": [
				"Column 4 of A252114."
			],
			"keyword": "nonn",
			"offset": "1,1",
			"author": "_R. H. Hardin_, Dec 14 2014",
			"references": 1,
			"revision": 8,
			"time": "2018-12-01T10:13:08-05:00",
			"created": "2014-12-14T07:31:46-05:00"
		}
	]
}