{
	"greeting": "Greetings from The On-Line Encyclopedia of Integer Sequences! http://oeis.org/",
	"query": "id:A252230",
	"count": 1,
	"start": 0,
	"results": [
		{
			"number": 252230,
			"data": "1,2,1,2,3,1,2,2,3,1,2,2,4,3,1,2,2,2,3,3,1,2,2,2,4,3,3,1,2,2,2,2,5,3,3,1,2,2,2,2,4,3,3,3,1,2,2,2,2,2,4,3,3,3,1,2,2,2,2,2,4,5,3,3,3,1,2,2,2,2,2,2,4,3,3,3,3,1,2,2,2,2,2,2,4,6",
			"name": "Triangular array T read by rows:  for j = k+1..2*k, k \u003e=1, T(j,k) = least number of iterations of (h,i) -\u003e (i,h-i) needed to take (k,j) to (k',j') satisfying k' \u003c= j'.",
			"comment": [
				"Max(row n) = A088858(n).  Let F = A000045 (Fibonacci numbers).  Then T(j,k) is the least h such that one of the following holds:  h is odd and F(h+2)/F(h+1) \u003c= j/k, or h is even and F(h+2)/F(h+1) \u003e= j/k."
			],
			"link": [
				"Clark Kimberling, \u003ca href=\"/A252230/b252230.txt\"\u003eRows n = 1..100, flattened\u003c/a\u003e"
			],
			"example": [
				"First 11 rows:",
				"1",
				"2 1",
				"2 3 1",
				"2 2 3 1",
				"2 2 4 3 1",
				"2 2 2 3 3 1",
				"2 2 2 4 3 3 1",
				"2 2 2 2 5 3 3 1",
				"2 2 2 2 4 3 3 3 1",
				"2 2 2 2 2 4 3 3 3 1",
				"2 2 2 2 2 2 4 3 3 3 3 1",
				"Note, for example, that the numbers in row 8 are T(8,9) to T(8,16); e.g., T(8,13) counts these 5 iterations:  (13,8) -\u003e (8,5) -\u003e (5,3) -\u003e (3,2) -\u003e (2,1) -\u003e (1,1)."
			],
			"mathematica": [
				"f[n_] := Fibonacci[n]; h[j_, k_] := Select[Range[40], (OddQ[#] \u0026\u0026 f[# + 2]/f[# + 1]\u003c= j/k) || (EvenQ[#] \u0026\u0026 f[# + 2]/f[# + 1] \u003e= j/k) \u0026, 1]; t[k_] := Flatten[Table[h[j, k], {j, k + 1, 2*k}]];",
				"TableForm[Table[t[k], {k, 1, 26}]] ; (* A252230 array *)",
				"Flatten[Table[h[j, k], {k, 1, 100}, {j, k + 1, 2*k}]] (* A252230 sequence *)"
			],
			"xref": [
				"Cf. A000045, A088858"
			],
			"keyword": "nonn,easy,tabl",
			"offset": "1,2",
			"author": "_Clark Kimberling_, Jan 09 2015",
			"references": 1,
			"revision": 5,
			"time": "2015-01-15T11:51:17-05:00",
			"created": "2015-01-15T11:51:17-05:00"
		}
	]
}