{
	"greeting": "Greetings from The On-Line Encyclopedia of Integer Sequences! http://oeis.org/",
	"query": "id:A252376",
	"count": 1,
	"start": 0,
	"results": [
		{
			"number": 252376,
			"data": "578,555,632,744,1305,2356,3495,6665,13006,20114,40514,81962,128415,264951,543931,856087,1783465",
			"name": "Number of (n+2)X(n+2) 0..3 arrays with every 3X3 subblock row and diagonal sum equal to 0 3 5 6 or 7 and every 3X3 column and antidiagonal sum not equal to 0 3 5 6 or 7",
			"comment": [
				"Diagonal of A252384"
			],
			"example": [
				"Some solutions for n=4",
				"..0..1..2..0..1..2....1..1..3..1..1..3....0..0..0..0..0..0....0..1..2..3..1..2",
				"..0..0..0..0..0..3....0..3..3..0..3..3....0..1..2..0..1..2....1..0..2..1..0..2",
				"..2..1..0..2..1..3....3..0..3..3..0..3....1..0..2..1..0..2....0..3..0..0..3..0",
				"..0..1..2..0..1..2....1..1..3..1..1..3....0..0..0..0..3..0....3..1..2..3..1..2",
				"..0..0..0..0..0..3....0..3..3..0..3..3....0..1..2..3..1..2....1..0..2..1..0..2",
				"..2..1..0..2..1..3....3..0..3..3..0..3....1..0..2..1..0..2....0..3..0..0..3..0"
			],
			"keyword": "nonn",
			"offset": "1,1",
			"author": "_R. H. Hardin_, Dec 17 2014",
			"references": 0,
			"revision": 4,
			"time": "2014-12-17T08:48:22-05:00",
			"created": "2014-12-17T08:48:22-05:00"
		}
	]
}