{
	"greeting": "Greetings from The On-Line Encyclopedia of Integer Sequences! http://oeis.org/",
	"query": "id:A252096",
	"count": 1,
	"start": 0,
	"results": [
		{
			"number": 252096,
			"data": "0,0,3,0,11,0,3,8,39,0,59,24,15,0,111,0,27,8,179,0,15,92,51,0,311,0,71,152,419,36,35,36,107,76,611,0,135,12,759,0,27,348,35,136,1011,44,15,456,1199,20,1299,536,279,0,87,0,11,668,1739,264,1859,764,395",
			"name": "Largest prime divisor of n^2+1 - smallest prime divisor of n^2+1.",
			"link": [
				"Michel Lagneau, \u003ca href=\"/A252096/b252096.txt\"\u003eTable of n, a(n) for n = 1..10000\u003c/a\u003e"
			],
			"formula": [
				"a(n) = A014442(n) - A089120(n).",
				"a(A005574(n)) = 0. - _Michel Marcus_, Dec 15 2014"
			],
			"example": [
				"a(5)= 11 because 5^2+1 = 2*13 and 13-2 = 11."
			],
			"maple": [
				"with(numtheory):",
				"a:= n-\u003e (f-\u003e max(f[])-min(f[]))(factorset(n^2+1)):",
				"seq(a(n), n=1..100);  # _Alois P. Heinz_, Jan 07 2015"
			],
			"mathematica": [
				"f[n_]:=Transpose[FactorInteger[n^2+1]][[1]]; Table[Last[f[n]-First[f[n]]], {n, 200}]"
			],
			"program": [
				"(PARI) a(n) = {my(f = factor(n^2+1)); f[#f~,1] - f[1,1];} \\\\ _Michel Marcus_, Dec 15 2014"
			],
			"xref": [
				"Cf. A002522 (n^2+1), A005574 (n^2+1 is prime).",
				"Cf. A014442 (largest prime factor of n2+1), A089120 (smallest prime factor)."
			],
			"keyword": "nonn,easy",
			"offset": "1,3",
			"author": "_Michel Lagneau_, Dec 14 2014",
			"references": 1,
			"revision": 10,
			"time": "2015-01-07T10:09:59-05:00",
			"created": "2015-01-07T10:09:59-05:00"
		}
	]
}