{
	"greeting": "Greetings from The On-Line Encyclopedia of Integer Sequences! http://oeis.org/",
	"query": "id:A253751",
	"count": 1,
	"start": 0,
	"results": [
		{
			"number": 253751,
			"data": "1998,16625,77414,247252,583698,1204422,2363797,4404701,7884084,14024725,25106259,45066424,81275585,147957366,271721790,502088605,932375372,1738806953,3252858270,6097945230,11448266368,21515673019,40464913904",
			"name": "Number of (3+1)X(n+1) 0..2 arrays with every 2X2 subblock ne-sw antidiagonal difference nondecreasing horizontally and nw+se diagonal sum nondecreasing vertically",
			"comment": [
				"Row 3 of A253749"
			],
			"link": [
				"R. H. Hardin, \u003ca href=\"/A253751/b253751.txt\"\u003eTable of n, a(n) for n = 1..210\u003c/a\u003e"
			],
			"formula": [
				"Empirical: a(n) = 5*a(n-1) -10*a(n-2) +12*a(n-3) -8*a(n-4) -10*a(n-5) +35*a(n-6) -47*a(n-7) +42*a(n-8) -10*a(n-9) -40*a(n-10) +68*a(n-11) -68*a(n-12) +40*a(n-13) +10*a(n-14) -42*a(n-15) +47*a(n-16) -35*a(n-17) +10*a(n-18) +8*a(n-19) -12*a(n-20) +10*a(n-21) -5*a(n-22) +a(n-23) for n\u003e30"
			],
			"example": [
				"Some solutions for n=3",
				"..0..0..0..0....1..0..1..2....0..0..0..0....1..0..0..0....0..1..0..2",
				"..2..1..0..2....1..0..1..1....0..0..0..1....2..0..0..0....1..0..0..1",
				"..1..0..0..2....2..1..1..1....2..0..0..1....2..0..0..1....1..1..1..2",
				"..2..2..2..2....1..1..0..1....2..0..1..1....2..2..1..2....2..2..0..2"
			],
			"keyword": "nonn",
			"offset": "1,1",
			"author": "_R. H. Hardin_, Jan 11 2015",
			"references": 1,
			"revision": 4,
			"time": "2015-01-11T10:03:49-05:00",
			"created": "2015-01-11T10:03:49-05:00"
		}
	]
}