{
	"greeting": "Greetings from The On-Line Encyclopedia of Integer Sequences! http://oeis.org/",
	"query": "id:A253387",
	"count": 1,
	"start": 0,
	"results": [
		{
			"number": 253387,
			"data": "97,97,1,1,2,2,2,2,316,316,2,2,3,3,3,3,3,3,4,4,12,12,4,4,4,4,12,12,11,11,11,11,316,316,11,11,316,316,316,316,6,6,316,316,316,316,316,316,316,316,97,97,316,316,316,316,13,13,316,316,13",
			"name": "A \"mod sequence\" where a(n) is the eventual constant value attained by the sequence defined as b(1) = n, b(m) = (sum_{k=1..m-1} b(k)) mod m, with a(n) = -1 in case a constant run is not found.",
			"link": [
				"Jean-François Alcover, \u003ca href=\"/A253387/b253387.txt\"\u003eTable of n, a(n) for n = 1..1000\u003c/a\u003e",
				"MathOverflow, \u003ca href=\"http://mathoverflow.net/questions/191518\"\u003eMod sequences that seem to become constant\u003c/a\u003e"
			],
			"example": [
				"a(5) = 2, because the b sequence is 5, 1, 0, 2, 3, 5, 2, 2, 2, 2, 2, ..."
			],
			"mathematica": [
				"Clear[a]; constantLength = 10; kMax = 2000; a[n_] := a[n] = Module[{k}, Clear[b]; For[ b[1] = n; b[m_] := b[m] = Mod[Sum[b[j], {j, 1, m-1}], m]; k = constantLength, k \u003c= kMax, k++, If[Equal @@ Table[b[k-j], {j, 0, constantLength-1}], Print[\"a(\", n, \") = \", b[k], \", k = \", k - constantLength+1]; Return[b[k]]]]; Print[\"a(\", n, \") = \", -1, \", k = \", k - constantLength+1, \" constant run not found\"]; Return[-1]]; Table[a[n], {n, 1, 100}]"
			],
			"xref": [
				"Cf. A074482, A117846."
			],
			"keyword": "sign",
			"offset": "1,1",
			"author": "_Jean-François Alcover_, Dec 31 2014",
			"references": 1,
			"revision": 7,
			"time": "2015-01-05T08:57:31-05:00",
			"created": "2015-01-05T08:57:31-05:00"
		}
	]
}