{
	"greeting": "Greetings from The On-Line Encyclopedia of Integer Sequences! http://oeis.org/",
	"query": "id:A253868",
	"count": 1,
	"start": 0,
	"results": [
		{
			"number": 253868,
			"data": "679936,22201600,677982208,20975776000,633276761856,19275379654400,580087707480832,17553685478957824,528547039227200256,15950860925148349184,480352914441114813184,14480337964228891902720",
			"name": "Number of (n+2)X(5+2) 0..1 arrays with every 3X3 subblock diagonal maximum minus antidiagonal minimum nondecreasing horizontally, vertically and ne-to-sw antidiagonally",
			"comment": [
				"Column 5 of A253871"
			],
			"link": [
				"R. H. Hardin, \u003ca href=\"/A253868/b253868.txt\"\u003eTable of n, a(n) for n = 1..210\u003c/a\u003e"
			],
			"example": [
				"Some solutions for n=1",
				"..0..0..1..1..1..0..1....0..0..1..0..0..0..1....1..0..1..0..0..0..0",
				"..1..1..0..0..0..0..0....0..1..0..1..1..1..0....0..0..0..0..1..1..0",
				"..0..0..1..1..1..0..0....1..1..1..1..0..0..1....0..0..0..1..0..0..0"
			],
			"keyword": "nonn",
			"offset": "1,1",
			"author": "_R. H. Hardin_, Jan 17 2015",
			"references": 1,
			"revision": 4,
			"time": "2015-01-17T09:43:42-05:00",
			"created": "2015-01-17T09:43:42-05:00"
		}
	]
}