{
	"greeting": "Greetings from The On-Line Encyclopedia of Integer Sequences! http://oeis.org/",
	"query": "id:A253149",
	"count": 1,
	"start": 0,
	"results": [
		{
			"number": 253149,
			"data": "257,269,293,311,313,347,379,397,419,449,479,491,773,809,823,827,829,857,883,887,947,953,971,977,1013,1283,1289,1297,1301,1307,1321,1327,1367,1373,1399,1409,1429,1439,1451,1453,1481,1483,1511,1523,1801,1811,1847,1867",
			"name": "Primes \u003e= 256 that remain primes when the digits are reversed in base 256.",
			"comment": [
				"Reversing the digits in base 256 is equivalent to reading a number in big-endian format using little-endian order with 8-bit words. See also A238853."
			],
			"link": [
				"Chai Wah Wu, \u003ca href=\"/A253149/b253149.txt\"\u003eTable of n, a(n) for n = 1..7110\u003c/a\u003e",
				"Wikipedia, \u003ca href=\"http://en.wikipedia.org/wiki/Endianness\"\u003eEndianness\u003c/a\u003e"
			],
			"example": [
				"1299647 is prime and written in base 16 is 13 d4 bf whereas bf d4 13 = 12571667 is also prime."
			],
			"program": [
				"(Python)",
				"from sympy import prime, isprime",
				"def reversedigits(n, b=10): # reverse digits of n in base b",
				"    x, y = n, 0",
				"    while x \u003e= b:",
				"        x, r = divmod(x, b)",
				"        y = b*y + r",
				"    return b*y + x",
				"A253149_list = []",
				"for n in range(1, 300):",
				"    p = prime(n)",
				"    if p \u003e 255 and isprime(reversedigits(p,256)):",
				"        A253149_list.append(p)",
				"print(A253149_list)"
			],
			"xref": [
				"Cf. A253147, A253148, A238853."
			],
			"keyword": "nonn,base",
			"offset": "1,1",
			"author": "_Chai Wah Wu_, Dec 30 2014",
			"references": 3,
			"revision": 14,
			"time": "2020-06-04T03:27:42-04:00",
			"created": "2015-01-02T22:50:48-05:00"
		}
	]
}