{
	"greeting": "Greetings from The On-Line Encyclopedia of Integer Sequences! http://oeis.org/",
	"query": "id:A253341",
	"count": 1,
	"start": 0,
	"results": [
		{
			"number": 253341,
			"data": "319172,7426426,237047904,6203113283,143441370184,3788905574401,98349771149487,1926953342923239,46982876350047054,912616386638325080,16956678061495627361,235791177168459306126,4988065327432414551378",
			"name": "Number of (n+2)X(7+2) nonnegative integer arrays with all values the knight distance from the upper left minus as much as 3, with successive minimum path knight move differences either 0 or +1, and any unreachable value zero.",
			"comment": [
				"Column 7 of A253342."
			],
			"link": [
				"R. H. Hardin, \u003ca href=\"/A253341/b253341.txt\"\u003eTable of n, a(n) for n = 1..63\u003c/a\u003e"
			],
			"example": [
				"Some solutions for n=1",
				"..0..1..0..1..1..1..2..2..2....0..1..1..0..0..1..1..2..1",
				"..0..2..0..1..1..2..2..2..3....1..1..0..1..1..1..1..1..2",
				"..1..0..1..1..1..2..2..3..2....0..0..1..1..0..1..1..2..1",
				"Knight distance matrix for n=1",
				"..0..3..2..3..2..3..4..5..4",
				"..3..4..1..2..3..4..3..4..5",
				"..2..1..4..3..2..3..4..5..4"
			],
			"keyword": "nonn",
			"offset": "1,1",
			"author": "_R. H. Hardin_, Dec 30 2014",
			"references": 1,
			"revision": 7,
			"time": "2015-09-27T12:20:34-04:00",
			"created": "2014-12-30T12:29:51-05:00"
		}
	]
}