{
	"greeting": "Greetings from The On-Line Encyclopedia of Integer Sequences! http://oeis.org/",
	"query": "id:A253609",
	"count": 1,
	"start": 0,
	"results": [
		{
			"number": 253609,
			"data": "2,4,3,6,5,9,14,19,11,15,29,57,94,40,22,65,171,483,269,124,23,137,549,2549,1996,1071,187,30,277,1786",
			"name": "Array read by upwards antidiagonals: a(n,k) = index of prime(k)^n in A098550.",
			"comment": [
				"Entry a(n,k), in row n and column k, is the index of the entry in A098550 such that A098550(a(n,k)) = prime(k)^n.",
				"Conjecture: For all natural numbers i, j, k, prime(k)^i precedes prime(k)^(i+1) and prime(k)^j precedes prime(k+1)^j in A098550."
			],
			"example": [
				"Table starts:",
				"{  2,    3,    9,   15,   22,   23,   30,   43,  51,  61, ...}",
				"{  4,    5,   11,   40,  124,  187,  273,  313, 505, 747, ...}",
				"{  6,   19,   94,  269, 1071, 1810, 4142, 5856, ...          }",
				"{ 14,   57,  483, 1996, ...                                  }",
				"{ 29,  171, 2549, ...                                        }",
				"{ 65,  549, ...                                              }",
				"{137, 1786, ...                                              }"
			],
			"xref": [
				"Cf. A098550, A251239-A251240 (rows 1, 2), A251241\\{1} = union A253609."
			],
			"keyword": "nonn,tabl,more",
			"offset": "1,1",
			"author": "_L. Edson Jeffery_, Jan 05 2015",
			"references": 2,
			"revision": 7,
			"time": "2015-01-08T17:13:59-05:00",
			"created": "2015-01-08T17:13:59-05:00"
		}
	]
}