{
	"greeting": "Greetings from The On-Line Encyclopedia of Integer Sequences! http://oeis.org/",
	"query": "id:A253170",
	"count": 1,
	"start": 0,
	"results": [
		{
			"number": 253170,
			"data": "1,1,2,3,5,7,10,13,17,22,28,35,42,50,60,72,85,101,119,139,162,187,215,246,279,315,353,394,437,482,529,579,632,688,748,810,875,944,1016,1094,1177,1263,1351,1443,1538,1637,1742,1852,1966,2083,2205,2330,2460",
			"name": "Row sums of table A333867.",
			"link": [
				"Reinhard Zumkeller, \u003ca href=\"/A253170/b253170.txt\"\u003eTable of n, a(n) for n = 1..500\u003c/a\u003e"
			],
			"program": [
				"(Haskell)",
				"a253170 = sum . a333867_row"
			],
			"xref": [
				"Cf. A333867, A126027, A030719 (first differences)."
			],
			"keyword": "nonn",
			"offset": "1,3",
			"author": "_Reinhard Zumkeller_, Dec 28 2014",
			"references": 4,
			"revision": 7,
			"time": "2020-04-09T15:24:56-04:00",
			"created": "2014-12-28T20:28:00-05:00"
		}
	]
}