{
	"greeting": "Greetings from The On-Line Encyclopedia of Integer Sequences! http://oeis.org/",
	"query": "id:A253718",
	"count": 1,
	"start": 0,
	"results": [
		{
			"number": 253718,
			"data": "0,1,1,3,4,4,3,4,4,5,6,6,6,7,7,6,7,7,5,6,6,6,7,7,6,7,7,7,8,8,8,9,9,8,9,9,8,9,9,9,10,10,9,10,10,8,9,9,9,10,10,9,10,10,7,8,8,8,9,9,8,9,9,8,9,9,9,10,10,9,10,10,8,9,9,9,10,10,9,10,10",
			"name": "Number h such that (h,0) is n steps from (0,0), where steps are as follows: (x,y)-\u003e(x-r, y) if r \u003e 0, and (x,y)-\u003e(y, r/3) otherwise, where r = x mod 3.",
			"comment": [
				"This is column 1 of the array at A253281."
			],
			"link": [
				"Clark Kimberling, \u003ca href=\"/A253718/b253718.txt\"\u003eTable of n, a(n) for n = 0..1000\u003c/a\u003e"
			],
			"mathematica": [
				"f[{x_, y_}] := If[IntegerQ[x/3], {y, x/3}, {x - Mod[x, 3], y}];",
				"g[{x_, y_}] := Drop[FixedPointList[f, {x, y}], -1];",
				"Table[-1 + Length[g[{n, 0}]], {n, 0, 200}]  (* A253718 *)"
			],
			"xref": [
				"Cf. A253281."
			],
			"keyword": "nonn,easy",
			"offset": "0,4",
			"author": "_Clark Kimberling_, May 02 2015",
			"references": 2,
			"revision": 7,
			"time": "2015-05-06T09:48:24-04:00",
			"created": "2015-05-06T09:48:24-04:00"
		}
	]
}