{
	"greeting": "Greetings from The On-Line Encyclopedia of Integer Sequences! http://oeis.org/",
	"query": "id:A253464",
	"count": 1,
	"start": 0,
	"results": [
		{
			"number": 253464,
			"data": "3640,1400,2000,2600,5000,7784,17000,28520,65000,111464,257000,443240,1025000,1770344,4097000,7078760,16385000,28312424,65537000,113247080,262145000,452985704,1048577000,1811940200,4194305000,7247758184",
			"name": "Number of (n+1) X (3+1) 0..2 arrays with every 2 X 2 subblock diagonal maximum minus antidiagonal minimum unequal to its neighbors horizontally, vertically, diagonally and antidiagonally.",
			"link": [
				"R. H. Hardin, \u003ca href=\"/A253464/b253464.txt\"\u003eTable of n, a(n) for n = 1..210\u003c/a\u003e"
			],
			"formula": [
				"Empirical: a(n) = 5*a(n-2) - 4*a(n-4) for n\u003e6.",
				"Empirical g.f.: 8*x*(455 + 175*x - 2025*x^2 - 550*x^3 + 1195*x^4 + 48*x^5) / ((1 - x)*(1 + x)*(1 - 2*x)*(1 + 2*x)). - _Colin Barker_, Dec 14 2018"
			],
			"example": [
				"Some solutions for n=4:",
				"..0..1..1..1....0..0..1..2....2..2..0..2....1..1..1..1....1..0..1..1",
				"..1..1..2..0....1..1..0..1....2..1..2..2....1..1..2..0....0..1..1..2",
				"..0..2..1..2....1..1..2..1....1..2..1..1....0..2..1..1....1..0..2..1",
				"..1..1..2..2....1..2..1..2....1..0..1..1....1..1..2..0....0..1..1..2",
				"..0..2..0..0....1..0..1..1....1..1..0..0....0..2..0..2....1..0..2..0"
			],
			"xref": [
				"Column 3 of A253468."
			],
			"keyword": "nonn",
			"offset": "1,1",
			"author": "_R. H. Hardin_, Jan 01 2015",
			"references": 1,
			"revision": 12,
			"time": "2018-12-14T06:29:27-05:00",
			"created": "2015-01-01T10:10:10-05:00"
		}
	]
}