{
	"greeting": "Greetings from The On-Line Encyclopedia of Integer Sequences! http://oeis.org/",
	"query": "id:A253683",
	"count": 1,
	"start": 0,
	"results": [
		{
			"number": 253683,
			"data": "71,863,1093,2281,3511,13691,20771,54787,950507,1843757,3188089",
			"name": "Primes p in increasing order with p \u003e A253684(n) \u003e A253685(n) such that (p, A253684(n), A253685(n)) forms a Wieferich triple.",
			"comment": [
				"In analogy to a Wieferich pair, a set of three primes p, q, r can be called a 'Wieferich triple' if its members satisfy either of the following two sets of congruences:",
				"p^(q-1) == 1 (mod q^2), q^(r-1) == 1 (mod r^2), r^(p-1) == 1 (mod p^2)",
				"p^(r-1) == 1 (mod r^2), r^(q-1) == 1 (mod q^2), q^(p-1) == 1 (mod p^2)",
				"a(9) \u003e 121637. - _Felix Fröhlich_, Jun 18 2016",
				"a(12) \u003e 5*10^6. - _Giovanni Resta_, Jun 20 2016"
			],
			"link": [
				"Wikipedia, \u003ca href=\"https://en.wikipedia.org/wiki/Wieferich_pair\"\u003eWieferich pair\u003c/a\u003e"
			],
			"program": [
				"(PARI) forprime(p=1, , forprime(q=1, p, forprime(r=1, q, if((Mod(p, q^2)^(q-1)==1 \u0026\u0026 Mod(q, r^2)^(r-1)==1 \u0026\u0026 Mod(r, p^2)^(p-1)==1) || (Mod(p, r^2)^(r-1)==1 \u0026\u0026 Mod(r, q^2)^(q-1)==1 \u0026\u0026 Mod(q, p^2)^(p-1)==1), print1(p, \", \")))))"
			],
			"xref": [
				"Cf. A124121, A124122, A253684, A253685."
			],
			"keyword": "nonn,hard,more",
			"offset": "1,1",
			"author": "_Felix Fröhlich_, Jan 09 2015",
			"ext": [
				"a(8) from _Felix Fröhlich_, Jun 18 2016",
				"Name edited by _Felix Fröhlich_, Jun 18 2016",
				"a(9)-a(11) from _Giovanni Resta_, Jun 20 2016"
			],
			"references": 4,
			"revision": 27,
			"time": "2017-07-20T23:16:39-04:00",
			"created": "2015-02-15T00:26:13-05:00"
		}
	]
}