{
	"greeting": "Greetings from The On-Line Encyclopedia of Integer Sequences! http://oeis.org/",
	"query": "id:A253008",
	"count": 1,
	"start": 0,
	"results": [
		{
			"number": 253008,
			"data": "4,19,54,124,250,14795,309990,2853292,14125312,46481352,116171792,240747928,438003360,725775144,1121905200,1644235704,2310608832,3138866760,4146851664,5352405720,6773371104,8427589992,10332904560",
			"name": "Number of nX5 nonnegative integer arrays with upper left 0 and lower right its king-move distance away minus 3 and every value increasing by 0 or 1 with every step right, diagonally se or down",
			"comment": [
				"Column 5 of A253011"
			],
			"link": [
				"R. H. Hardin, \u003ca href=\"/A253008/b253008.txt\"\u003eTable of n, a(n) for n = 1..210\u003c/a\u003e"
			],
			"formula": [
				"Empirical: a(n) = 2973696*n^3 - 70716096*n^2 + 570494664*n - 1560617160 for n\u003e12"
			],
			"example": [
				"Some solutions for n=6",
				"..0..0..0..0..0....0..0..0..0..0....0..0..0..0..1....0..1..1..1..1",
				"..1..1..1..1..1....0..0..1..1..1....0..0..0..1..1....0..1..1..1..2",
				"..1..1..1..1..1....0..0..1..1..1....0..0..1..1..1....1..1..1..1..2",
				"..1..1..1..1..2....0..0..1..1..1....0..0..1..1..1....1..1..1..1..2",
				"..1..2..2..2..2....0..0..1..2..2....0..1..1..1..2....1..1..1..1..2",
				"..1..2..2..2..2....0..0..1..2..2....1..1..1..1..2....1..1..1..1..2"
			],
			"keyword": "nonn",
			"offset": "1,1",
			"author": "_R. H. Hardin_, Dec 25 2014",
			"references": 1,
			"revision": 4,
			"time": "2014-12-25T19:29:56-05:00",
			"created": "2014-12-25T19:29:56-05:00"
		}
	]
}