{
	"greeting": "Greetings from The On-Line Encyclopedia of Integer Sequences! http://oeis.org/",
	"query": "id:A253458",
	"count": 1,
	"start": 0,
	"results": [
		{
			"number": 253458,
			"data": "1,13,325,8425,218713,5678101,147411901,3827031313,99355402225,2579413426525,66965393687413,1738520822446201,45134575989913801,1171760454915312613,30420637251808214125,789764808092098254625,20503464373142746406113,532300308893619308304301",
			"name": "Indices of centered heptagonal numbers (A069099) which are also centered hexagonal numbers (A003215).",
			"comment": [
				"Also positive integers y in the solutions to 6*x^2 - 7*y^2 - 6*x + 7*y = 0, the corresponding values of x being A253457."
			],
			"link": [
				"Colin Barker, \u003ca href=\"/A253458/b253458.txt\"\u003eTable of n, a(n) for n = 1..708\u003c/a\u003e",
				"Giovanni Lucca, \u003ca href=\"http://forumgeom.fau.edu/FG2016volume16/FG2016volume16.pdf#page=423\"\u003eCircle Chains Inscribed in Symmetrical Lenses and Integer Sequences\u003c/a\u003e, Forum Geometricorum, Volume 16 (2016) 419-427.",
				"\u003ca href=\"/index/Rec#order_03\"\u003eIndex entries for linear recurrences with constant coefficients\u003c/a\u003e, signature (27,-27,1)."
			],
			"formula": [
				"a(n) = 27*a(n-1)-27*a(n-2)+a(n-3).",
				"G.f.: -x*(x^2-14*x+1) / ((x-1)*(x^2-26*x+1)).",
				"a(n) = 1/2+(13+2*sqrt(42))^(-n)*(7+sqrt(42)-(-7+sqrt(42))*(13+2*sqrt(42))^(2*n))/28. - _Colin Barker_, Mar 03 2016"
			],
			"example": [
				"13 is in the sequence because the 13th centered heptagonal number is 547, which is also the 14th centered hexagonal number."
			],
			"program": [
				"(PARI) Vec(-x*(x^2-14*x+1)/((x-1)*(x^2-26*x+1)) + O(x^100))"
			],
			"xref": [
				"Cf. A003215, A069099, A253457, A253546."
			],
			"keyword": "nonn,easy",
			"offset": "1,2",
			"author": "_Colin Barker_, Jan 01 2015",
			"references": 3,
			"revision": 18,
			"time": "2020-10-07T12:13:29-04:00",
			"created": "2015-01-01T16:38:07-05:00"
		}
	]
}