{
	"greeting": "Greetings from The On-Line Encyclopedia of Integer Sequences! http://oeis.org/",
	"query": "id:A253201",
	"count": 1,
	"start": 0,
	"results": [
		{
			"number": 253201,
			"data": "0,1,3,5,6,7,8,10,12,14,17,18,19,20,21,22,23,24,27,29",
			"name": "Nonnegative integers n for which the equation x^4 - n*x^2*y^2 + y^4 = z^2 has no solution in positive integers x, y, z, with x \u003e y.",
			"link": [
				"H. C. Pocklington, \u003ca href=\"http://www.math.harvard.edu/~knill/various/eulercuboid/pocklington/index.html\"\u003eSome Diophantine Impossibilities\u003c/a\u003e, Proc. Cambridge Phil. Soc. 17 (1912), pp. 114-116."
			],
			"xref": [
				"Cf. A253200."
			],
			"keyword": "nonn,more",
			"offset": "1,3",
			"author": "_Arkadiusz Wesolowski_, Mar 21 2015",
			"references": 1,
			"revision": 12,
			"time": "2015-03-25T01:57:32-04:00",
			"created": "2015-03-25T01:57:32-04:00"
		}
	]
}