{
	"greeting": "Greetings from The On-Line Encyclopedia of Integer Sequences! http://oeis.org/",
	"query": "id:A253376",
	"count": 1,
	"start": 0,
	"results": [
		{
			"number": 253376,
			"data": "450,3111,22877,148389,945748,5125790,27587386,130018165,611215024,2593349603,10992085241,43067682706,168673810979,621760259909,2291824059768,8059474696068,28348577031630,96115434260034",
			"name": "Number of (2+1)X(n+1) 0..2 arrays with every 2X2 subblock sum nondecreasing horizontally, vertically and antidiagonally ne-to-sw",
			"comment": [
				"Row 2 of A253375"
			],
			"link": [
				"R. H. Hardin, \u003ca href=\"/A253376/b253376.txt\"\u003eTable of n, a(n) for n = 1..210\u003c/a\u003e",
				"R. H. Hardin, \u003ca href=\"/A253376/a253376.txt\"\u003eEmpirical recurrence of roder 79\u003c/a\u003e"
			],
			"formula": [
				"Empirical recurrence of order 79 (see link above)"
			],
			"example": [
				"Some solutions for n=4",
				"..0..0..1..1..0....0..0..0..0..1....0..0..1..2..1....0..2..0..0..0",
				"..0..0..0..0..2....1..1..2..2..2....1..2..1..1..2....1..0..1..2..2",
				"..2..0..2..1..1....2..0..1..0..2....2..0..2..2..2....1..1..1..0..1"
			],
			"keyword": "nonn",
			"offset": "1,1",
			"author": "_R. H. Hardin_, Dec 30 2014",
			"references": 1,
			"revision": 7,
			"time": "2014-12-30T20:02:22-05:00",
			"created": "2014-12-30T20:00:36-05:00"
		}
	]
}