{
	"greeting": "Greetings from The On-Line Encyclopedia of Integer Sequences! http://oeis.org/",
	"query": "id:A254278",
	"count": 1,
	"start": 0,
	"results": [
		{
			"number": 254278,
			"data": "2,3,4,5,7,8,9,10,11,13,14,15,16,17,19,20,21,22,23,25,26,27,29,30,31,32,33,34,35,37,38,39,41,42,43,44,45,46,47,49,50,51,52,53,55,57,58,59,61,62,63,64,65,66,67,68,69,70,71,73,74,75,76,77,78,79,81,82,83,85,86,87,88,89,91,92,93,94,95,97,98,99,101,102,103,104,105",
			"name": "Numbers that are smaller than the sum of their deficient divisors.",
			"comment": [
				"Contains every deficient number larger than 1 and every primitive abundant number (A071395)."
			],
			"link": [
				"Amiram Eldar, \u003ca href=\"/A254278/b254278.txt\"\u003eTable of n, a(n) for n = 1..10000\u003c/a\u003e"
			],
			"example": [
				"a(16) = 20 since 20 is smaller than 22, which is the sum of its deficient divisors."
			],
			"mathematica": [
				"Select[Range@ 105, Function[n, n \u003c Total@ Select[Divisors@ n, DivisorSigma[1, #] \u003c 2 # \u0026]]] (* _Michael De Vlieger_, Jul 16 2016 *)"
			],
			"program": [
				"(PARI) isok(n) = n \u003c sumdiv(n, d, d*(sigma(d) \u003c 2*d)); \\\\ _Michel Marcus_, Jun 26 2019"
			],
			"xref": [
				"Cf. A005100, supersequence of A071395 and A198471, A091191."
			],
			"keyword": "nonn",
			"offset": "1,1",
			"author": "_Timothy L. Tiffin_, Jul 15 2016",
			"references": 1,
			"revision": 19,
			"time": "2019-06-26T09:29:47-04:00",
			"created": "2016-07-16T10:13:10-04:00"
		}
	]
}