{
	"greeting": "Greetings from The On-Line Encyclopedia of Integer Sequences! http://oeis.org/",
	"query": "id:A254877",
	"count": 1,
	"start": 0,
	"results": [
		{
			"number": 254877,
			"data": "1,1,3,4,8,9,16,18,28,31,45,49,68,73,97,104,134,142,179,189,233,245,297,311,372,388,458,477,557,578,669,693,795,822,936,966,1093,1126,1266,1303,1457,1497,1666,1710,1894,1942,2142,2194,2411,2467,2701,2762,3014",
			"name": "Expansion of (1 - x^5) / ((1 - x) * (1 - x^2)^2 * (1 - x^3) * (1 - x^4)) in powers of x.",
			"comment": [
				"The number of quadruples of integers [x, u, v, w] which satisfy x \u003e u \u003e v \u003e w \u003e=0, n+5 = x+u, and either u+v \u003c= x+w or x+u+v+w is even."
			],
			"link": [
				"G. C. Greubel, \u003ca href=\"/A254877/b254877.txt\"\u003eTable of n, a(n) for n = 0..1000\u003c/a\u003e",
				"\u003ca href=\"/index/Rec#order_11\"\u003eIndex entries for linear recurrences with constant coefficients\u003c/a\u003e, signature (0,2,1,0,-2,-2,0,1,2,0,-1)."
			],
			"formula": [
				"Euler transform of length 5 sequence [ 1, 2, 1, 1, -1].",
				"a(n) = -a(-7-n) for all n in Z.",
				"a(2*n) = A254875(n), a(2*n + 1) = A254874(n)."
			],
			"example": [
				"G.f. = 1 + x + 3*x^2 + 4*x^3 + 8*x^4 + 9*x^5 + 16*x^6 + 18*x^7 + 28*x^8 + ..."
			],
			"mathematica": [
				"a[ n_] := Quotient[ 5 n^3 + If[ OddQ[n], 48 n^2 + 141 n + 162, 57 n^2 + 204 n + 288], 288];",
				"a[ n_] := Module[{m = n}, SeriesCoefficient[ If[ n \u003c 0, m = -7 - n; -1, 1] (1 - x^5)/((1 - x) (1 - x^2)^2 (1 - x^3) (1 - x^4)), {x, 0, m}]];",
				"a[ n_] := Length @ FindInstance[ {x \u003e u, u \u003e v, v \u003e w, w \u003e= 0, x + u == n + 5, ((u + v \u003c= x + w \u0026\u0026 x + u + v + w == 2 k + 1) || x + u + v + w == 2 k)}, {x, u, v, w, k}, Integers, 10^9];"
			],
			"program": [
				"(PARI) {a(n) = (5*n^3 + if( n%2, 48*n^2 + 141*n + 162, 57*n^2 + 204*n + 288 )) \\ 288};",
				"(PARI) {a(n) = my(s=(-1)^(n\u003c0)); if( n\u003c0, n = -7-n); s * polcoeff( (1 - x^5) / ((1 - x) * (1 - x^2)^2 * (1 - x^3) * (1 - x^4)) + x * O(x^n), n)};"
			],
			"xref": [
				"Cf. A254874, A254875."
			],
			"keyword": "nonn,easy",
			"offset": "0,3",
			"author": "_Michael Somos_, Feb 09 2015",
			"references": 1,
			"revision": 15,
			"time": "2017-07-06T01:28:17-04:00",
			"created": "2015-02-09T16:07:11-05:00"
		}
	]
}