{
	"greeting": "Greetings from The On-Line Encyclopedia of Integer Sequences! http://oeis.org/",
	"query": "id:A254852",
	"count": 1,
	"start": 0,
	"results": [
		{
			"number": 254852,
			"data": "38416,42436,87616,271441,902500,3316041,12013156,42016324,136936804,443439364,1467043204,5190626116,18319622500,64283545764,214374556036,710928903556,2357643553444,8182197086116,28358415368644,99194229736900",
			"name": "Number of (n+2)X(6+2) 0..1 arrays with no 3x3 subblock diagonal sum one and no antidiagonal sum two",
			"comment": [
				"Column 6 of A254854"
			],
			"link": [
				"R. H. Hardin, \u003ca href=\"/A254852/b254852.txt\"\u003eTable of n, a(n) for n = 1..210\u003c/a\u003e"
			],
			"example": [
				"Some solutions for n=3",
				"..0..0..0..0..0..1..1..0....1..1..0..1..1..1..1..1....0..0..0..0..1..0..0..0",
				"..0..0..0..0..0..0..1..0....0..0..1..1..0..1..1..1....0..0..0..0..1..0..0..0",
				"..1..0..0..0..0..0..0..0....1..1..1..0..1..1..0..1....0..0..0..0..0..1..1..0",
				"..1..0..0..0..0..0..0..0....1..1..1..1..1..0..1..1....0..0..0..0..0..0..1..1",
				"..0..1..1..0..0..0..0..0....1..0..1..1..1..1..1..1....1..0..0..0..0..0..0..0"
			],
			"keyword": "nonn",
			"offset": "1,1",
			"author": "_R. H. Hardin_, Feb 08 2015",
			"references": 1,
			"revision": 4,
			"time": "2015-02-08T11:32:47-05:00",
			"created": "2015-02-08T11:32:47-05:00"
		}
	]
}