{
	"greeting": "Greetings from The On-Line Encyclopedia of Integer Sequences! http://oeis.org/",
	"query": "id:A254500",
	"count": 1,
	"start": 0,
	"results": [
		{
			"number": 254500,
			"data": "0,7,17,70,111,258,689,454,7133,15977,82869,111044,536687,384769,2750561,7063105",
			"name": "a(n) is the smallest nonnegative integer such that a(n)! contains a string of exactly n consecutive 5's.",
			"comment": [
				"a(14) \u003e 1500000. - _Jon E. Schoenfield_, Mar 31 2015"
			],
			"example": [
				"a(1) = 7 as 7! equals 5040, which contains '5' and 5 is the smallest integer for which the condition is met."
			],
			"mathematica": [
				"A254450[n_] := Module[{m = 0},",
				"   If[n == 0, While[MemberQ[IntegerDigits[m!], 5], m++]; m,",
				"    t = Table[5, n];",
				"    While[! MemberQ[Split[IntegerDigits[m!]], t], m++]; m]];",
				"Table[A254450[n], {n, 0, 13}] (* _Robert Price_, Mar 21 2019 *)"
			],
			"xref": [
				"Cf. A254042, A254447, A254448, A254449, A254501, A254502, A254716, A254717."
			],
			"keyword": "nonn,more,base",
			"offset": "0,2",
			"author": "_Martin Y. Champel_, Jan 31 2015",
			"ext": [
				"a(12)-a(13) from _Jon E. Schoenfield_, Feb 27 2015",
				"a(0) prepended by _Jon E. Schoenfield_, Mar 01 2015",
				"a(14)-a(15) from _Bert Dobbelaere_, Oct 29 2018"
			],
			"references": 10,
			"revision": 41,
			"time": "2019-03-21T13:25:34-04:00",
			"created": "2015-02-06T10:49:48-05:00"
		}
	]
}