{
	"greeting": "Greetings from The On-Line Encyclopedia of Integer Sequences! http://oeis.org/",
	"query": "id:A254723",
	"count": 1,
	"start": 0,
	"results": [
		{
			"number": 254723,
			"data": "11677,76615,520824,3438279,21750375,138938314,888613045,5611704536,35547726137,224988752752,1423190885465,8996675550495,56886752817673,359660082585566,2273998031761468,14377323035637119,90900829840219324",
			"name": "Number of (n+2)X(3+2) 0..1 arrays with every 3X3 subblock sum of the two maximums of the central row and the central column and the two medians of the diagonal and antidiagonal nondecreasing horizontally and vertically",
			"comment": [
				"Column 3 of A254728"
			],
			"link": [
				"R. H. Hardin, \u003ca href=\"/A254723/b254723.txt\"\u003eTable of n, a(n) for n = 1..210\u003c/a\u003e"
			],
			"example": [
				"Some solutions for n=2",
				"..0..0..1..1..0....0..1..0..0..1....0..0..1..0..0....0..0..1..1..0",
				"..0..1..1..1..1....0..1..0..0..1....1..0..0..1..0....1..0..0..0..1",
				"..1..1..1..1..0....0..1..0..1..0....0..0..1..1..0....0..0..1..1..1",
				"..1..1..1..1..0....0..1..1..1..1....0..1..1..1..1....1..0..1..1..1"
			],
			"keyword": "nonn",
			"offset": "1,1",
			"author": "_R. H. Hardin_, Feb 06 2015",
			"references": 1,
			"revision": 4,
			"time": "2015-02-06T12:56:59-05:00",
			"created": "2015-02-06T12:56:59-05:00"
		}
	]
}