{
	"greeting": "Greetings from The On-Line Encyclopedia of Integer Sequences! http://oeis.org/",
	"query": "id:A254545",
	"count": 1,
	"start": 0,
	"results": [
		{
			"number": 254545,
			"data": "11,329,1466,13503,29038,121774,297210,758766,1313695,3093457,4829568,9589613,16150714,27683578,39103727,66543164,90003312,142167902,204453789,297719303,382646786,565510545,762020095,1058506627,1394748594",
			"name": "Number of length 7 1..(n+2) arrays with no leading partial sum equal to a prime",
			"comment": [
				"Row 7 of A254539"
			],
			"link": [
				"R. H. Hardin, \u003ca href=\"/A254545/b254545.txt\"\u003eTable of n, a(n) for n = 1..210\u003c/a\u003e"
			],
			"example": [
				"Some solutions for n=4",
				"..4....6....4....1....4....4....6....1....6....4....6....4....4....4....4....1",
				"..2....6....6....5....4....2....3....5....2....6....4....4....4....2....5....5",
				"..6....2....6....6....4....2....5....2....2....2....4....1....6....6....1....3",
				"..2....4....4....3....3....4....1....2....2....6....6....3....6....3....5....3",
				"..1....2....5....3....1....6....3....6....6....4....6....6....5....5....3....2",
				"..5....4....5....2....6....3....2....6....6....2....2....3....3....6....3....2",
				"..6....2....5....6....5....3....5....4....2....4....5....5....5....2....3....2"
			],
			"keyword": "nonn",
			"offset": "1,1",
			"author": "_R. H. Hardin_, Feb 01 2015",
			"references": 1,
			"revision": 4,
			"time": "2015-02-01T09:45:01-05:00",
			"created": "2015-02-01T09:45:01-05:00"
		}
	]
}