{
	"greeting": "Greetings from The On-Line Encyclopedia of Integer Sequences! http://oeis.org/",
	"query": "id:A254937",
	"count": 1,
	"start": 0,
	"results": [
		{
			"number": 254937,
			"data": "7,9,11,15,19,13,17,19,27,31,21,19,29,37,21,31,25,23,43,29,25,45,49,29,35,27,39,43,41,35,33,53,61,35,47,33,51,55,59,63,43,53,41,39,61,37,73,55,43",
			"name": "Fundamental positive solution y = y2(n) of the second class of the Pell equation x^2 - 2*y^2 = -A007519(n), n\u003e=1 (primes congruent to 1 mod 8).",
			"comment": [
				"The corresponding positive fundamental solution x2(n) of this second class solutions is given in A254936(n).",
				"See the comments and the Nagell reference in A254934."
			],
			"formula": [
				"A254936(n)^2 - 2*a(n)^2 = -A007519(n) gives the second smallest positive (proper) solution of this (generalized) Pell equation.",
				"a(n) = -(2*A254934(n) - 3*A254935(n)), n \u003e= 1."
			],
			"example": [
				"n = 2: 11^2 - 2*9^2 = 121 - 162 = -41.",
				"a(2) = -(2*3 - 3*5) = 9.",
				"See also A254936."
			],
			"xref": [
				"Cf. A007519, A254936, A254934, A254935, A255234, A255248, A254760."
			],
			"keyword": "nonn,look,easy",
			"offset": "1,1",
			"author": "_Wolfdieter Lang_, Feb 18 2015",
			"references": 5,
			"revision": 7,
			"time": "2015-02-24T05:34:07-05:00",
			"created": "2015-02-24T04:39:33-05:00"
		}
	]
}