{
	"greeting": "Greetings from The On-Line Encyclopedia of Integer Sequences! http://oeis.org/",
	"query": "id:A254541",
	"count": 1,
	"start": 0,
	"results": [
		{
			"number": 254541,
			"data": "1,8,15,40,49,105,163,253,307,466,540,768,997,1283,1442,1862,2051,2562,3053,3627,3936,4749,5465,6368,7230,8270,8848,10189,10805,12187,13557,15138,16715,18646,19585,21596,23572,25845,27081,29803,31136,33942,36650",
			"name": "Number of length 3 1..(n+2) arrays with no leading partial sum equal to a prime",
			"comment": [
				"Row 3 of A254539"
			],
			"link": [
				"R. H. Hardin, \u003ca href=\"/A254541/b254541.txt\"\u003eTable of n, a(n) for n = 1..210\u003c/a\u003e"
			],
			"example": [
				"Some solutions for n=4",
				"..1....6....6....4....4....6....4....1....6....6....4....6....6....6....6....4",
				"..5....3....4....6....5....6....2....5....4....2....5....3....3....3....6....2",
				"..2....3....4....2....1....3....6....3....5....6....5....5....6....1....6....2"
			],
			"keyword": "nonn",
			"offset": "1,2",
			"author": "_R. H. Hardin_, Feb 01 2015",
			"references": 1,
			"revision": 4,
			"time": "2015-02-01T09:42:20-05:00",
			"created": "2015-02-01T09:42:20-05:00"
		}
	]
}