{
	"greeting": "Greetings from The On-Line Encyclopedia of Integer Sequences! http://oeis.org/",
	"query": "id:A254159",
	"count": 1,
	"start": 0,
	"results": [
		{
			"number": 254159,
			"data": "1,4,9,2,4,1",
			"name": "Decimal expansion of atomic mass constant energy equivalent in J.",
			"comment": [
				"1.492 417 954(66) * 10^-10 J according to CODATA 2010.",
				"a(-3) is 7 or 8."
			],
			"link": [
				"NIST, \u003ca href=\"http://physics.nist.gov/cgi-bin/cuu/Value?tuj\"\u003eCODATA Value: atomic mass constant energy equivalent\u003c/a\u003e"
			],
			"keyword": "nonn,cons",
			"offset": "-9,2",
			"author": "_Ivan Panchenko_, Jan 26 2015",
			"references": 0,
			"revision": 7,
			"time": "2015-01-29T10:47:51-05:00",
			"created": "2015-01-27T01:09:31-05:00"
		}
	]
}