{
	"greeting": "Greetings from The On-Line Encyclopedia of Integer Sequences! http://oeis.org/",
	"query": "id:A254949",
	"count": 1,
	"start": 0,
	"results": [
		{
			"number": 254949,
			"data": "2,6,12,20,30,40,52,64,76,90,105,113,132,151,172,182,208,219,247,274,303,316,350,382,417,451,490,507,551,568,611,655,701,747,797,817,868,919,974,997,1058,1082,1144,1203,1268,1295,1366,1432,1504,1572,1644,1674,1752",
			"name": "Number of length 2 1..(n+1) arrays with every leading partial sum divisible by 2, 3, 5, 7 or 11",
			"comment": [
				"Row 2 of A254947"
			],
			"link": [
				"R. H. Hardin, \u003ca href=\"/A254949/b254949.txt\"\u003eTable of n, a(n) for n = 1..210\u003c/a\u003e"
			],
			"example": [
				"Some solutions for n=4",
				"..4....5....2....5....3....5....4....3....2....5....2....3....4....3....2....3",
				"..5....1....4....3....2....2....4....1....5....5....2....3....3....4....3....5"
			],
			"keyword": "nonn",
			"offset": "1,1",
			"author": "_R. H. Hardin_, Feb 10 2015",
			"references": 1,
			"revision": 4,
			"time": "2015-02-10T20:05:51-05:00",
			"created": "2015-02-10T20:05:51-05:00"
		}
	]
}