{
	"greeting": "Greetings from The On-Line Encyclopedia of Integer Sequences! http://oeis.org/",
	"query": "id:A254503",
	"count": 1,
	"start": 0,
	"results": [
		{
			"number": 254503,
			"data": "1,2,3,2,5,6,7,4,6,10,11,6,13,14,15,8,17,12,19,10,21,22,23,12,20,26,18,14,29,30,31,16,33,34,35,12,37,38,39,20,41,42,43,22,30,46,47,24,42,40,51,26,53,36,55,28,57,58,59,30,61,62,42,32,65,66,67,34,69,70",
			"name": "Möbius transform of A034448.",
			"link": [
				"Álvar Ibeas, \u003ca href=\"/A254503/b254503.txt\"\u003eTable of n, a(n) for n = 1..10000\u003c/a\u003e"
			],
			"formula": [
				"a(n) = phi(A057521(n)) * A055231(n).",
				"If n is squarefree, a(n) = n; if n is powerful, a(n) = phi(n).",
				"Multiplicative with a(p) = p; a(p^e) = phi(p^e), for e \u003e 1.",
				"Dirichlet g.f.: zeta(s-1) / zeta(2s-1).",
				"a(n) = Sum_{d|n, gcd(n/d, d) = 1} mu(d)^2 * phi(n/d). - _Daniel Suteu_, Jun 27 2018",
				"Sum_{k=1..n} a(k) ~ n^2 / (2*Zeta(3)). - _Vaclav Kotesovec_, Jan 11 2019"
			],
			"mathematica": [
				"Table[DivisorSum[n, MoebiusMu[#]^2*EulerPhi[n/#] \u0026, CoprimeQ[n/#, #] \u0026], {n, 70}] (* _Michael De Vlieger_, Jun 27 2018 *)"
			],
			"program": [
				"(PARI) a(n) = {my(f = factor(n)); for (i=1, #f~, if ((e=f[i, 2]) \u003e 1, f[i, 1] = eulerphi(f[i, 1]^e); f[i, 2] = 1);); factorback(f);} \\\\ _Michel Marcus_, Feb 06 2015",
				"(PARI) a(n) = sumdiv(n, d, if(gcd(n/d, d) == 1, moebius(d)^2 * eulerphi(n/d))); \\\\ _Daniel Suteu_, Jun 27 2018"
			],
			"xref": [
				"Cf. A000010 (totient), A001694 (powerful), A005117 (squarefree), A034448 (usigma), A057521 (powerful part), A055231 (unitary squarefree kernel)."
			],
			"keyword": "mult,nonn",
			"offset": "1,2",
			"author": "_Álvar Ibeas_, Jan 31 2015",
			"references": 4,
			"revision": 32,
			"time": "2019-01-11T13:00:57-05:00",
			"created": "2015-03-09T19:48:15-04:00"
		}
	]
}