{
	"greeting": "Greetings from The On-Line Encyclopedia of Integer Sequences! http://oeis.org/",
	"query": "id:A254693",
	"count": 1,
	"start": 0,
	"results": [
		{
			"number": 254693,
			"data": "464,1116,2764,6808,16276,37204,87892,211672,512684,1241154,2987260,7209620,17496932,42616826,103975836,253892100,620762656,1520766742,3732847376,9175497666,22579411156,55623783944,137178824664,338676930240",
			"name": "Number of length n+4 0..3 arrays with every five consecutive terms having the maximum of some two terms equal to the minimum of the remaining three terms",
			"comment": [
				"Column 3 of A254698"
			],
			"link": [
				"R. H. Hardin, \u003ca href=\"/A254693/b254693.txt\"\u003eTable of n, a(n) for n = 1..210\u003c/a\u003e",
				"R. H. Hardin, \u003ca href=\"/A254693/a254693.txt\"\u003eEmpirical recurrence of order 83\u003c/a\u003e"
			],
			"formula": [
				"Empirical recurrence of order 83 (see link above)"
			],
			"example": [
				"Some solutions for n=7",
				"..1....2....1....2....0....3....0....3....1....1....1....3....1....0....3....3",
				"..0....0....3....3....3....1....0....0....2....1....1....0....2....0....1....2",
				"..1....2....0....1....1....0....3....0....0....3....2....0....1....3....2....1",
				"..1....3....1....0....1....0....0....3....1....2....2....0....2....0....1....2",
				"..2....2....1....1....1....0....0....0....2....1....0....0....1....0....0....2",
				"..1....3....2....1....1....0....2....0....1....0....1....2....0....3....3....2",
				"..1....2....1....1....0....0....0....1....1....1....1....2....1....0....1....2",
				"..0....2....0....1....1....3....0....0....1....3....3....0....2....2....1....3",
				"..1....2....1....3....1....1....1....2....3....1....1....0....1....0....1....1",
				"..3....0....1....0....3....0....0....0....0....3....1....0....3....0....2....2",
				"..2....3....1....1....1....0....2....0....3....1....0....0....1....0....3....3"
			],
			"keyword": "nonn",
			"offset": "1,1",
			"author": "_R. H. Hardin_, Feb 05 2015",
			"references": 1,
			"revision": 6,
			"time": "2015-02-05T21:06:40-05:00",
			"created": "2015-02-05T21:01:54-05:00"
		}
	]
}