{
	"greeting": "Greetings from The On-Line Encyclopedia of Integer Sequences! http://oeis.org/",
	"query": "id:A254517",
	"count": 1,
	"start": 0,
	"results": [
		{
			"number": 254517,
			"data": "833037,8282251,74724261,648678493,6835294784,70328373238,690528516461,6873737047337,67863913445117,665102486533923,6483379051873678,63137552262813647,612196906415543312,5925295206911839909",
			"name": "Number of (6+2)X(n+2) 0..1 arrays with every 3X3 subblock sum of four medians of central row, central column, diagonal and antidiagonal nondecreasing horizontally, vertically and ne-to-sw antidiagonally",
			"comment": [
				"Row 6 of A254512"
			],
			"link": [
				"R. H. Hardin, \u003ca href=\"/A254517/b254517.txt\"\u003eTable of n, a(n) for n = 1..114\u003c/a\u003e"
			],
			"example": [
				"Some solutions for n=1",
				"..0..1..0....0..1..0....1..0..0....0..1..0....0..0..0....0..0..0....0..0..0",
				"..0..0..1....1..0..0....0..0..0....1..0..0....1..0..0....1..0..0....0..0..0",
				"..0..0..0....0..0..0....0..0..0....0..0..0....0..0..0....0..1..0....0..1..0",
				"..0..0..0....0..1..1....0..0..0....0..0..0....0..0..0....0..0..0....0..1..1",
				"..1..1..1....0..0..0....1..1..1....0..0..1....1..1..1....0..1..1....0..1..1",
				"..1..1..1....0..1..1....1..1..1....1..1..0....0..0..0....0..1..1....0..1..1",
				"..0..1..1....0..1..0....1..1..1....0..1..1....1..1..0....1..1..0....0..1..1",
				"..1..1..0....0..1..1....1..1..0....1..1..1....0..0..1....0..1..0....0..0..1"
			],
			"keyword": "nonn",
			"offset": "1,1",
			"author": "_R. H. Hardin_, Jan 31 2015",
			"references": 1,
			"revision": 4,
			"time": "2015-01-31T13:01:09-05:00",
			"created": "2015-01-31T13:01:09-05:00"
		}
	]
}