{
	"greeting": "Greetings from The On-Line Encyclopedia of Integer Sequences! http://oeis.org/",
	"query": "id:A254431",
	"count": 1,
	"start": 0,
	"results": [
		{
			"number": 254431,
			"data": "1,1,2,10,131,3887,262555,42240104,16821037273,17094916187012,45374905859155948",
			"name": "Number of \"feasible\" partitions of the smallest natural number of length n.",
			"comment": [
				"The sequence lists the number of \"feasible\" partitions of the first natural number (3^(n-1)+1)/2 of length n. Here n resembles m in A254296 which describes \"feasible\" partitions."
			],
			"link": [
				"Md Towhidul Islam \u0026 Md Shahidul Islam, \u003ca href=\"http://arxiv.org/abs/1502.07730\"\u003eNumber of Partitions of an n-kilogram Stone into Minimum Number of Weights to Weigh All Integral Weights from 1 to n kg(s) on a Two-pan Balance\u003c/a\u003e, arXiv:1502.07730 [math.CO], 2015."
			],
			"formula": [
				"a(n) = A254296((3^(n-1)+1)/2)."
			],
			"example": [
				"The smallest natural numbers \"feasibly\" partitionable into 1, 2, 3, 4 and 5 parts respectively are 1,2,5,14 and 41. From A254296, the number of \"feasible\" partitions of them are 1,1,2,10 and 131."
			],
			"xref": [
				"Cf. A254296, A254430, A254432, A254433, A254435, A254436, A254437, A254438, A254439, A254440, A254442."
			],
			"keyword": "nonn,more",
			"offset": "1,3",
			"author": "_Md. Towhidul Islam_, Jan 30 2015",
			"ext": [
				"a(10)-a(11) from _Md. Towhidul Islam_, Apr 18 2015"
			],
			"references": 10,
			"revision": 30,
			"time": "2016-04-17T11:50:37-04:00",
			"created": "2015-02-27T23:21:11-05:00"
		}
	]
}