{
	"greeting": "Greetings from The On-Line Encyclopedia of Integer Sequences! http://oeis.org/",
	"query": "id:A255997",
	"count": 1,
	"start": 0,
	"results": [
		{
			"number": 255997,
			"data": "128,256,354,451,568,705,854,1016,1192,1383,1590,1814,2056,2317,2598,2900,3224,3571,3942,4338,4760,5209,5686,6192,6728,7295,7894,8526,9192,9893,10630,11404,12216,13067,13958,14890,15864,16881,17942,19048,20200",
			"name": "Number of length n+6 0..1 arrays with at most one downstep in every n consecutive neighbor pairs.",
			"comment": [
				"Row 6 of A255992."
			],
			"link": [
				"R. H. Hardin, \u003ca href=\"/A255997/b255997.txt\"\u003eTable of n, a(n) for n = 1..210\u003c/a\u003e"
			],
			"formula": [
				"Empirical: a(n) = (1/6)*n^3 + 3*n^2 + (533/6)*n + 28 for n\u003e4.",
				"Empirical g.f.: x*(128 - 256*x + 98*x^2 + 59*x^3 - 8*x^4 - 21*x^5 - 8*x^6 + 9*x^7) / (1 - x)^4. - _Colin Barker_, Jan 26 2018"
			],
			"example": [
				"Some solutions for n=4:",
				"..0....0....0....1....1....0....1....0....1....1....1....0....1....0....0....0",
				"..1....1....0....1....1....1....1....1....0....1....0....1....0....0....0....0",
				"..0....0....0....0....0....0....1....0....0....0....0....1....0....1....1....0",
				"..0....0....1....0....0....0....1....0....0....0....0....0....0....1....1....0",
				"..1....1....0....0....0....1....1....1....1....0....0....0....0....0....0....0",
				"..1....1....0....0....0....1....1....1....1....0....1....0....0....0....0....1",
				"..0....0....0....0....0....1....1....1....1....0....0....1....1....0....1....1",
				"..1....0....0....0....0....1....0....0....1....1....1....1....1....1....1....1",
				"..1....1....0....0....0....1....1....0....1....1....1....0....0....1....0....1",
				"..1....1....0....1....0....1....1....0....0....1....1....0....1....0....1....0"
			],
			"xref": [
				"Cf. A255992."
			],
			"keyword": "nonn",
			"offset": "1,1",
			"author": "_R. H. Hardin_, Mar 13 2015",
			"references": 1,
			"revision": 7,
			"time": "2018-01-26T06:15:34-05:00",
			"created": "2015-03-13T12:45:11-04:00"
		}
	]
}