{
	"greeting": "Greetings from The On-Line Encyclopedia of Integer Sequences! http://oeis.org/",
	"query": "id:A255019",
	"count": 1,
	"start": 0,
	"results": [
		{
			"number": 255019,
			"data": "26,134,1489,21854,480456,16789556,896763036,73759241667,9393184984367,1838801806417472,553960321837762309,257519518174289401196,184540608154581393175412,203698879433082432079178111",
			"name": "Number of (n+2)X(n+2) 0..1 arrays with no 3x3 subblock diagonal sum 0 or 1 and no antidiagonal sum 0 or 1 and no row sum 0 or 1 and no column sum 0 or 1",
			"comment": [
				"Diagonal of A255027"
			],
			"link": [
				"R. H. Hardin, \u003ca href=\"/A255019/b255019.txt\"\u003eTable of n, a(n) for n = 1..15\u003c/a\u003e"
			],
			"example": [
				"Some solutions for n=4",
				"..1..1..1..1..0..1....1..0..1..1..1..1....1..1..1..0..1..1....1..0..1..1..1..0",
				"..1..0..1..1..1..0....1..1..1..1..0..1....1..1..1..1..1..0....1..1..1..1..1..1",
				"..1..1..1..0..1..1....1..1..0..1..1..1....0..1..1..1..1..1....1..1..1..1..1..1",
				"..1..1..1..1..1..1....1..1..1..1..1..0....1..1..0..1..1..1....1..1..1..1..1..0",
				"..1..1..1..1..0..1....1..1..1..1..1..1....1..1..1..1..1..1....0..1..1..1..1..1",
				"..1..1..1..1..1..1....1..1..1..1..0..1....1..0..1..1..1..0....1..1..1..1..1..1"
			],
			"xref": [
				"Cf. A255027"
			],
			"keyword": "nonn",
			"offset": "1,1",
			"author": "_R. H. Hardin_, Feb 13 2015",
			"references": 1,
			"revision": 5,
			"time": "2015-02-13T07:40:40-05:00",
			"created": "2015-02-13T07:40:40-05:00"
		}
	]
}