{
	"greeting": "Greetings from The On-Line Encyclopedia of Integer Sequences! http://oeis.org/",
	"query": "id:A255611",
	"count": 1,
	"start": 0,
	"results": [
		{
			"number": 255611,
			"data": "1,4,18,64,215,660,1938,5400,14527,37728,95278,234344,563506,1326796,3066040,6963048,15564661,34282360,74486376,159785472,338703796,709957616,1472529670,3023894672,6151408852,12402137024,24792822174,49162962280,96737562642",
			"name": "G.f.: Product_{k\u003e=1} 1/(1-x^k)^(4*k).",
			"link": [
				"Vaclav Kotesovec, \u003ca href=\"/A255611/b255611.txt\"\u003eTable of n, a(n) for n = 0..1000\u003c/a\u003e",
				"Vaclav Kotesovec, \u003ca href=\"http://arxiv.org/abs/1509.08708\"\u003eA method of finding the asymptotics of q-series based on the convolution of generating functions\u003c/a\u003e, arXiv:1509.08708 [math.CO], Sep 30 2015, p. 19.",
				"Eric Weisstein's World of Mathematics, \u003ca href=\"http://mathworld.wolfram.com/PlanePartition.html\"\u003ePlane Partition\u003c/a\u003e",
				"Wikipedia, \u003ca href=\"http://en.wikipedia.org/wiki/Plane_partition\"\u003ePlane partition\u003c/a\u003e"
			],
			"formula": [
				"G.f.: Product_{k\u003e=1} 1/(1-x^k)^(4*k).",
				"a(n) ~ 2^(1/3) * Zeta(3)^(5/18) * exp(1/3 + 3 * Zeta(3)^(1/3) * n^(2/3)) / (A^4 * sqrt(3*Pi) * n^(7/9)), where A = A074962 = 1.2824271291... is the Glaisher-Kinkelin constant and Zeta(3) = A002117 = 1.202056903... . - _Vaclav Kotesovec_, Feb 28 2015",
				"G.f.: exp(4*Sum_{k\u003e=1} x^k/(k*(1 - x^k)^2)). - _Ilya Gutkovskiy_, May 29 2018"
			],
			"maple": [
				"a:= proc(n) option remember; `if`(n=0, 1, 4*add(",
				"      a(n-j)*numtheory[sigma][2](j), j=1..n)/n)",
				"    end:",
				"seq(a(n), n=0..30);  # _Alois P. Heinz_, Mar 11 2015"
			],
			"mathematica": [
				"nmax=50; CoefficientList[Series[Product[1/(1-x^k)^(4*k),{k,1,nmax}],{x,0,nmax}],x]"
			],
			"xref": [
				"Cf. A000219, A161870, A255610, A255612, A255613, A255614, A193427.",
				"Column k=4 of A255961."
			],
			"keyword": "nonn",
			"offset": "0,2",
			"author": "_Vaclav Kotesovec_, Feb 28 2015",
			"ext": [
				"New name from _Vaclav Kotesovec_, Mar 12 2015"
			],
			"references": 9,
			"revision": 22,
			"time": "2018-05-29T16:35:19-04:00",
			"created": "2015-02-28T07:35:35-05:00"
		}
	]
}