{
	"greeting": "Greetings from The On-Line Encyclopedia of Integer Sequences! http://oeis.org/",
	"query": "id:A255804",
	"count": 1,
	"start": 0,
	"results": [
		{
			"number": 255804,
			"data": "264,308,8192,16400,88508,236684,504812,12127808,22491308,82310258",
			"name": "Numbers representable as x*y*(x+y), b*c+b+c, and d^e+d+e, where d\u003e1, e\u003e1, b\u003e=c\u003e1 and x\u003e=y\u003e1.",
			"comment": [
				"Intersection of A253775, A254671, A255265."
			],
			"example": [
				"a(2) = 308 = 17^2 + 17 + 2 = 7 * 4 * (7 + 4) = 102 * 2 + 102 + 2."
			],
			"program": [
				"(Python 2)",
				"TOP = 100000000",
				"a = [0]*TOP",
				"c = []",
				"for y in range(2, TOP/2):",
				"  if 2**y + 2 + y \u003e= TOP: break",
				"for x in range(2, TOP/2):",
				"    k = x**y+(x+y)",
				"    if k\u003e=TOP: break",
				"    c.append(k)",
				"for y in range(2, TOP/2):",
				"  if 2*y*y*y \u003e= TOP: break",
				"for x in range(y, TOP/2):",
				"    k = x*y*(x+y)",
				"    if k\u003e=TOP: break",
				"    a[k]=1",
				"for y in range(2, TOP/2):",
				"  if y*(y+2) \u003e= TOP: break",
				"for x in range(y, TOP/2):",
				"    k = x*y+(x+y)",
				"    if k\u003e=TOP: break",
				"    a[k]|=2",
				"    if a[k]==3 and (k in c): print k,",
				"print [n for n in range(TOP) if a[n]==3 and (n in c)]"
			],
			"xref": [
				"Cf. A255267, A254034, A255265, A254671, A253775."
			],
			"keyword": "nonn,more",
			"offset": "1,1",
			"author": "_Alex Ratushnyak_, Mar 07 2015",
			"references": 0,
			"revision": 6,
			"time": "2019-12-07T12:18:27-05:00",
			"created": "2015-03-27T23:25:54-04:00"
		}
	]
}