{
	"greeting": "Greetings from The On-Line Encyclopedia of Integer Sequences! http://oeis.org/",
	"query": "id:A255574",
	"count": 1,
	"start": 0,
	"results": [
		{
			"number": 255574,
			"data": "0,0,1,2,2,3,3,4,4,4,4,5,5,6,6,6,6,7,7,8,8,8,8,9,9,10,10,10,10,11,11,12,12,12,12,12,12,13,13,13,13,14,14,15,15,15,15,16,16,16,16,16,16,17,17,18,18,18,18,19,19,20,20,20,20,20,20,21,21,22,22,23,23,24,24,24,24,25,25,26,26,27,27",
			"name": "a(n) = Number of terms of A206074 in range 0 .. n.",
			"link": [
				"Antti Karttunen, \u003ca href=\"/A255574/b255574.txt\"\u003eTable of n, a(n) for n = 0..65537\u003c/a\u003e"
			],
			"formula": [
				"a(0) = 0; for n \u003e= 1, a(n) = A257000(n) + a(n-1).",
				"Other identities and observations.",
				"For all n \u003e= 0:",
				"a(n) = n - A255573(n).",
				"For all n \u003e= 1:",
				"a(A206074(n)) = n. [This sequence works as a left inverse for injection A206074.]",
				"a(n) \u003e= A000720(n). [Because primes is a subsequence of A206074.]",
				"a(n) \u003e= A091226(n). [Because A014580 is a subsequence of A206074.]"
			],
			"mathematica": [
				"binPol[n_, x_] := With[{bb = IntegerDigits[n, 2]}, bb.x^Range[Length[bb]-1, 0, -1]];",
				"b[n_] := If[IrreduciblePolynomialQ[binPol[n, x]], 1, 0];",
				"b /@ Range[0, 128] // Accumulate (* _Jean-François Alcover_, Dec 20 2021 *)"
			],
			"program": [
				"(PARI)",
				"isA206074(n) = polisirreducible(Pol(binary(n)));",
				"A255574_write_bfile(up_to_n) = { my(n,a_n=0); for(n=0, up_to_n, if(isA206074(n),a_n++); write(\"b255574.txt\", n, \" \", a_n)); };",
				"A255574_write_bfile(65537);",
				"(Scheme) (definec (A255574 n) (if (zero? n) n (+ (A257000 n) (A255574 (- n 1)))))"
			],
			"xref": [
				"Partial sums of A257000.",
				"Cf. A000720, A014580, A091226, A206074, A255572, A255573."
			],
			"keyword": "nonn",
			"offset": "0,4",
			"author": "_Antti Karttunen_, May 14 2015",
			"references": 9,
			"revision": 17,
			"time": "2021-12-20T09:47:06-05:00",
			"created": "2015-05-14T15:58:06-04:00"
		}
	]
}