{
	"greeting": "Greetings from The On-Line Encyclopedia of Integer Sequences! http://oeis.org/",
	"query": "id:A255138",
	"count": 1,
	"start": 0,
	"results": [
		{
			"number": 255138,
			"data": "2,1,7,3,27,11,107,43,427,171,1707,683,6827,2731,27307,10923,109227,43691,436907,174763,1747627,699051,6990507,2796203,27962027,11184811,111848107,44739243,447392427,178956971",
			"name": "a(n) = (1 + 2^n*(3 + 2*(-1)^n))/3.",
			"comment": [
				"Let N_1 be the set of odd natural numbers and v(y) the 2-adic valuation of y. Define the map F : N_1 -\u003e N_1 by F(x) = (3*x+1)/2^v(3*x+1) (see A075677). Let F^(k)(x) denote k-fold iteration of F, with recurrence F^(k)(x) = F(F^(k-1)(x)), k \u003e 0, and initial condition F^(0)(x) = x. Then, for n\u003e0, a(n) is the least m such that F^(n)(4*m-3) == 1 (mod 4). Cf. A257499.",
				"Let k == 1 mod 4, and k(r) be the r-th iteration at which k appears in a Collatz sequence. When n \u003e= 2 and k(r) == [2^(n+1) - a(n)] mod 2^(n+1), then n is the number of halving steps following k(r+1). For instance, since a(5) = 11, there are 5 halving steps following k(r+1) when k(r) == 53 mod 64, because 2^(5+1) = 64 and 64-11 = 53; e.g., k(r) = 117: 117 -\u003e 352 -\u003e 176 -\u003e 88 -\u003e 44 -\u003e 22 -\u003e 11. - _Bob Selcoe_, Feb 09 2017"
			],
			"link": [
				"\u003ca href=\"/index/Rec#order_03\"\u003eIndex entries for linear recurrences with constant coefficients\u003c/a\u003e, signature (1,4,-4)."
			],
			"formula": [
				"a(2*n) = A136412(n); a(2*n+1) = A007583(n).",
				"G.f.: (2-x-2*x^2)/((x-1)*(2*x-1)*(2*x+1)). - _R. J. Mathar_, Jul 25 2015",
				"a(n) = a(n-1) + 4*a(n-2) - 4*a(n-3) for n \u003e 2. - _Wesley Ivan Hurt_, Nov 05 2015",
				"a(n) = 4*a(n-2) - 1. - _Bob Selcoe_, Feb 09 2017"
			],
			"maple": [
				"A255138:=n-\u003e(1 + 2^n*(3 + 2*(-1)^n))/3: seq(A255138(n), n=0..50); # _Wesley Ivan Hurt_, Nov 05 2015"
			],
			"mathematica": [
				"a[n_] := (1 + 2^n*(3 + 2*(-1)^n))/3; Table[a[n], {n, 0, 29}]"
			],
			"program": [
				"(PARI) vector(30, n, n--; (1 + 2^n*(3 + 2*(-1)^n))/3) \\\\ _Altug Alkan_, Nov 05 2015",
				"(MAGMA) [(1 + 2^n*(3 + 2*(-1)^n))/3: n in [0..50]]; // _Wesley Ivan Hurt_, Nov 05 2015"
			],
			"xref": [
				"Cf. A007583, A075677, A136412, A257499."
			],
			"keyword": "nonn,easy",
			"offset": "0,1",
			"author": "_L. Edson Jeffery_, May 04 2015",
			"references": 3,
			"revision": 37,
			"time": "2021-12-28T00:00:14-05:00",
			"created": "2015-11-05T14:32:04-05:00"
		}
	]
}