{
	"greeting": "Greetings from The On-Line Encyclopedia of Integer Sequences! http://oeis.org/",
	"query": "id:A255780",
	"count": 1,
	"start": 0,
	"results": [
		{
			"number": 255780,
			"data": "17325,161602,1968584,18624528,193188995,2128300125,22610019790,240398279606,2591552387296,27827020619579,298246053051175,3202910914945837,34389628326656428,369056555441122577",
			"name": "Number of (n+2)X(5+2) 0..1 arrays with no 3x3 subblock diagonal sum 1 and no antidiagonal sum 1 and no row sum 0 and no column sum 0",
			"comment": [
				"Column 5 of A255783"
			],
			"link": [
				"R. H. Hardin, \u003ca href=\"/A255780/b255780.txt\"\u003eTable of n, a(n) for n = 1..210\u003c/a\u003e"
			],
			"example": [
				"Some solutions for n=2",
				"..0..1..0..1..1..1..1....0..1..1..1..0..1..0....0..1..0..1..1..0..1",
				"..1..0..1..1..1..1..1....1..1..1..1..1..1..1....0..1..1..1..0..1..1",
				"..0..1..0..0..1..1..1....0..1..1..1..1..1..1....1..0..1..0..1..1..0",
				"..0..1..1..0..1..0..1....1..1..1..0..1..0..0....1..0..0..1..1..0..1"
			],
			"xref": [
				"Cf. A255783"
			],
			"keyword": "nonn",
			"offset": "1,1",
			"author": "_R. H. Hardin_, Mar 06 2015",
			"references": 1,
			"revision": 4,
			"time": "2015-03-06T11:37:51-05:00",
			"created": "2015-03-06T11:37:51-05:00"
		}
	]
}