{
	"greeting": "Greetings from The On-Line Encyclopedia of Integer Sequences! http://oeis.org/",
	"query": "id:A255889",
	"count": 1,
	"start": 0,
	"results": [
		{
			"number": 255889,
			"data": "19,73,107,163,233,271,719,733,839,1129,1187,1231,1597,1693,1733,1777,1847,1871,2053,2137,2287,2423,2521,2543,2593,2677,2719,2843,3217,3229,3257,3491,3623,3659,3853,4019,4027,4219,4231,4243,4441,4591",
			"name": "Primes equal to the sum of three successive semiprimes.",
			"link": [
				"Zak Seidov, \u003ca href=\"/A255889/b255889.txt\"\u003eTable of n, a(n) for n = 1..1000\u003c/a\u003e"
			],
			"example": [
				"19 = 4+6+9 = A001358(1)+A001358(2)+A001358(3);",
				"73 = 22+25+26 = A001358(8)+A001358(9)+A001358(10)."
			],
			"mathematica": [
				"Select[Apply[Plus, Partition[Select[Range@ 1500, PrimeOmega[#] == 2 \u0026], 3, 1], {1}], PrimeQ] (* _Michael De Vlieger_, Mar 10 2015 *)"
			],
			"xref": [
				"Cf. A001358, A108183."
			],
			"keyword": "nonn",
			"offset": "1,1",
			"author": "_Zak Seidov_, Mar 09 2015",
			"references": 2,
			"revision": 11,
			"time": "2015-03-11T17:50:12-04:00",
			"created": "2015-03-11T17:50:12-04:00"
		}
	]
}