{
	"greeting": "Greetings from The On-Line Encyclopedia of Integer Sequences! http://oeis.org/",
	"query": "id:A255625",
	"count": 1,
	"start": 0,
	"results": [
		{
			"number": 255625,
			"data": "81,243,729,2040,5088,11386,23298,44361,79692,136494,224676,357603,552993,833979,1230355,1780026,2530683,3541725,4886451,6654546,8954886,11918688,15703032,20494783,26514942,34023456,43324518,54772389,68777775",
			"name": "Number of length n+3 0..2 arrays with at most two downsteps in every n consecutive neighbor pairs.",
			"comment": [
				"Row 3 of A255622."
			],
			"link": [
				"R. H. Hardin, \u003ca href=\"/A255625/b255625.txt\"\u003eTable of n, a(n) for n = 1..210\u003c/a\u003e"
			],
			"formula": [
				"Empirical: a(n) = (1/40320)*n^8 + (1/672)*n^7 + (29/960)*n^6 + (39/80)*n^5 + (2463/640)*n^4 + (1/32)*n^3 + (112103/10080)*n^2 + (44923/840)*n + 12.",
				"Empirical g.f.: x*(81 - 486*x + 1458*x^2 - 2577*x^3 + 2766*x^4 - 1790*x^5 + 672*x^6 - 135*x^7 + 12*x^8) / (1 - x)^9. - _Colin Barker_, Jan 21 2018"
			],
			"example": [
				"Some solutions for n=4:",
				"..2....1....0....0....2....1....1....2....0....0....0....0....1....2....2....0",
				"..1....2....2....0....0....2....2....1....1....0....2....0....1....0....2....1",
				"..1....0....2....2....0....2....0....2....0....0....0....2....1....1....1....2",
				"..0....2....2....1....1....0....0....0....0....0....2....1....1....0....0....0",
				"..2....0....1....2....0....2....1....2....2....0....1....1....0....0....2....1",
				"..2....0....2....1....2....0....1....0....2....1....1....1....2....2....2....1",
				"..0....1....0....2....1....0....1....2....1....1....0....2....0....2....2....0"
			],
			"xref": [
				"Cf. A255622."
			],
			"keyword": "nonn",
			"offset": "1,1",
			"author": "_R. H. Hardin_, Feb 28 2015",
			"references": 1,
			"revision": 7,
			"time": "2018-01-21T09:36:52-05:00",
			"created": "2015-02-28T11:40:15-05:00"
		}
	]
}