{
	"greeting": "Greetings from The On-Line Encyclopedia of Integer Sequences! http://oeis.org/",
	"query": "id:A255430",
	"count": 1,
	"start": 0,
	"results": [
		{
			"number": 255430,
			"data": "2,3,5,6,7,8,22,23,24,25,26,27,28,45,47,48,52,53,55,57,58,62,63,64,65,66,67,68,73,74,75,76,77,78,82,83,84,85,86,87,88,92,93,94,95,97,98,202,205,206,207,208,222,223,225,232,233,234,235,236,238,242,243,244,245,252,253,255",
			"name": "Natural numbers n, not multiples of 10, such that n and n^2 lack the digit 1 in their decimal expansions.",
			"comment": [
				"No trailing zeros allowed."
			],
			"xref": [
				"Cf. A000027, A052383, A067251, A255398."
			],
			"keyword": "nonn,base",
			"offset": "1,1",
			"author": "_Zak Seidov_, Feb 23 2015",
			"references": 2,
			"revision": 6,
			"time": "2015-02-25T12:37:14-05:00",
			"created": "2015-02-25T12:37:14-05:00"
		}
	]
}