{
	"greeting": "Greetings from The On-Line Encyclopedia of Integer Sequences! http://oeis.org/",
	"query": "id:A255522",
	"count": 1,
	"start": 0,
	"results": [
		{
			"number": 255522,
			"data": "0,1,10,145,2570,49860,1027602,22068705,488541820,11068982545,255437694060,5983042467096,141873247900650,3399140192819340,82160878859739650,2001070766525744725,49061025740711233080,1209873601374566796515,29990547373994063764080",
			"name": "Number of rooted identity trees with n nodes and 10-colored non-root nodes.",
			"link": [
				"Alois P. Heinz, \u003ca href=\"/A255522/b255522.txt\"\u003eTable of n, a(n) for n = 0..700\u003c/a\u003e"
			],
			"formula": [
				"a(n) ~ c * d^n / n^(3/2), where d = 26.998860838916733933849490675388336975888308433826638445291076817..., c = 0.0396216952587990270999387393053224285... . - _Vaclav Kotesovec_, Feb 24 2015",
				"From _Ilya Gutkovskiy_, Apr 14 2019: (Start)",
				"G.f. A(x) satisfies: A(x) = x*exp(10*Sum_{k\u003e=1} (-1)^(k+1)*A(x^k)/k).",
				"G.f.: A(x) = Sum_{n\u003e=1} a(n)*x^n = x * Product_{n\u003e=1} (1 + x^n)^(10*a(n)). (End)"
			],
			"maple": [
				"with(numtheory):",
				"a:= proc(n) option remember; `if`(n\u003c2, n, -add(a(n-j)*add(",
				"      10*a(d)*d*(-1)^(j/d), d=divisors(j)), j=1..n-1)/(n-1))",
				"    end:",
				"seq(a(n), n=0..30);"
			],
			"xref": [
				"Column k=10 of A255517."
			],
			"keyword": "nonn",
			"offset": "0,3",
			"author": "_Alois P. Heinz_, Feb 24 2015",
			"references": 2,
			"revision": 11,
			"time": "2019-04-14T07:51:18-04:00",
			"created": "2015-02-24T11:32:26-05:00"
		}
	]
}