{
	"greeting": "Greetings from The On-Line Encyclopedia of Integer Sequences! http://oeis.org/",
	"query": "id:A255325",
	"count": 1,
	"start": 0,
	"results": [
		{
			"number": 255325,
			"data": "0,0,0,0,0,0,0,0,2,1,0,3,2,1,2,3,4,4,5,5,6,8,6,7,9,9,9,9,10,11,15,11,13,12,17,13,14,12,15,21,19,21,21,18,20,19,20,18,17,19,24,25,24,30,28,28,33,31,33,32,36,38,34,35,36,38,40,38,39,36,36,39,37,35,36,42,42,43,42,46,44,42,44,43,47,48,49,52",
			"name": "Half of the difference between the n-th Ludic number and the n-th noncomposite: a(n) = (A003309(n) - A008578(n))/2.",
			"link": [
				"Antti Karttunen, \u003ca href=\"/A255325/b255325.txt\"\u003eTable of n, a(n) for n = 1..10000\u003c/a\u003e"
			],
			"formula": [
				"a(n) = A255324(n)/2 = (A003309(n) - A008578(n))/2."
			],
			"mathematica": [
				"t = Range[2, 1000];",
				"A003309 = {1};",
				"While[Length[t] \u003e 0, k = First[t];",
				"     AppendTo[A003309, k]; t = Drop[t, {1, -1, k}]];",
				"a[n_] := If[n == 1, 0, A003309[[n]] - Prime[n - 1]]/2;",
				"Array[a, Length[A003309]] (* _Jean-François Alcover_, Jan 08 2022, after _Ray Chandler_ in A003309 *)"
			],
			"program": [
				"(Scheme) (define (A255325 n) (/ (A255324 n) 2))"
			],
			"xref": [
				"Cf. A003309, A008578.",
				"Cf. A255324 (the same terms multipled by 2)."
			],
			"keyword": "nonn,changed",
			"offset": "1,9",
			"author": "_Antti Karttunen_, Feb 23 2015",
			"references": 2,
			"revision": 9,
			"time": "2022-01-08T06:31:57-05:00",
			"created": "2015-02-23T23:04:52-05:00"
		}
	]
}