{
	"greeting": "Greetings from The On-Line Encyclopedia of Integer Sequences! http://oeis.org/",
	"query": "id:A255338",
	"count": 1,
	"start": 0,
	"results": [
		{
			"number": 255338,
			"data": "0,1,2,3,4,4,5,6,7,7,8,8,9,9,10,11,12,13,13,14,14,14,15,15,16,16,17,17,18,18,19,20,21,22,22,23,23,23,24,24,25,25,25,26,26,26,27,27,28,29,29,30,30,30,31,31,32,32,33,33,34,34,35,36,37,38,38,39,39,39,40,40,41,41,41,42,42",
			"name": "Each n occurs A255337(n) times.",
			"link": [
				"Antti Karttunen, \u003ca href=\"/A255338/b255338.txt\"\u003eTable of n, a(n) for n = 0..8192\u003c/a\u003e"
			],
			"formula": [
				"a(n) = The least k such that A255057(k) \u003e= n."
			],
			"program": [
				"(Scheme, with _Antti Karttunen_'s IntSeq-library)",
				"(define A255338 (LEAST-GTE-I 0 0 A255057))"
			],
			"xref": [
				"The first differences gives A255339, the characteristic function of A255057.",
				"Cf. A255337."
			],
			"keyword": "nonn",
			"offset": "0,3",
			"author": "_Antti Karttunen_, Feb 21 2015",
			"references": 4,
			"revision": 6,
			"time": "2015-02-21T15:38:19-05:00",
			"created": "2015-02-21T15:38:19-05:00"
		}
	]
}