{
	"greeting": "Greetings from The On-Line Encyclopedia of Integer Sequences! http://oeis.org/",
	"query": "id:A256262",
	"count": 1,
	"start": 0,
	"results": [
		{
			"number": 256262,
			"data": "1,3,1,2,1,2,4,2,4,2,7,2,4,2,13,2,1,2,13,2,4,2,13,2,4,2,1,2,13,2,4,2,13,2,4,2,13,2,16,2,34,2,4,2,13,2,28,2,22,2,13,2,7,2,10,2,7,2,73,2,4,2,1,2,13,2,10,2,67,2,4,2,7,2,4,2,13,2,28,2",
			"name": "Number of successive odd numbers that are not twin primes and number of successive twin primes, interleaved.",
			"comment": [
				"See also both A256252 and A256253 which contain similar diagrams."
			],
			"link": [
				"Antti Karttunen, \u003ca href=\"/A256262/b256262.txt\"\u003eTable of n, a(n) for n = 1..30998\u003c/a\u003e"
			],
			"example": [
				"Consider an irregular array in which the odd-indexed rows list successive odd numbers that are not twin primes (A255763) and the even-indexed rows list successive twin primes (A001097), in the sequence of odd numbers (A005408), as shown below:",
				"1;",
				"3, 5, 7;",
				"9;",
				"11, 13;",
				"15;",
				"17; 19;",
				"21, 23, 25, 27;",
				"39, 31;",
				"...",
				"a(n) is the length of the n-th row.",
				".",
				"Illustration of the first 16 regions of the diagram of the symmetric representation of odd numbers that are not twin primes (A255763) and of twin primes (A001097).",
				".            _ _ _ _ _ _ _ _ _ _ _ _ _ _ _ _",
				".           |_ _ _ _ _ _ _ _ _ _ _ _ _ _ _  |   31",
				".           |_ _ _ _ _ _ _ _ _ _ _ _ _ _  | |   29",
				".           | | | | |_ _ _ _ _ _ _ _ _  | | |   19",
				".           | | | | |_ _ _ _ _ _ _ _  | | | |   17",
				".           | | | | | |_ _ _ _ _ _  | | | | |   13",
				".           | | | | | |_ _ _ _ _  | | | | | |   11",
				".           | | | | | | |_ _ _  | | | | | | |    7",
				".           | | | | | | |_ _  | | | | | | | |    5",
				".   A255763 | | | | | | |_  | | | | | | | | |    3",
				".      1    | | | | | | |_|_|_|_| | | | | | | A001097",
				".      9    | | | | | |_ _ _ _ _|_|_| | | | |",
				".     15    | | | | |_ _ _ _ _ _ _ _|_|_| | |",
				".     21    | | | |_ _ _ _ _ _ _ _ _ _ _| | |",
				".     23    | | |_ _ _ _ _ _ _ _ _ _ _ _| | |",
				".     25    | |_ _ _ _ _ _ _ _ _ _ _ _ _| | |",
				".     27    |_ _ _ _ _ _ _ _ _ _ _ _ _ _|_|_|",
				".",
				"a(n) is also the length of the n-th boundary segment in the zig-zag path of the above diagram, between the two types of numbers, as shown below for n = 1..8:",
				".",
				".                         |_ _ _",
				".                               |_ _",
				".                                   |_ _",
				".                                       |",
				".                                       |",
				".                                       |",
				".                                       |_ _",
				".",
				"The sequence begins:      1,3,1,2,1,2,4,2,...",
				"."
			],
			"program": [
				"(PARI) istwin(n) = isprime(n) \u0026\u0026 (isprime(n-2) || isprime(n+2));",
				"lista(nn) = {my(nb = 1, istp = 0); forstep (n=3, nn, 2, if (bitxor(istp, ! istwin(n)), nb++, print1(nb, \", \"); nb = 1; istp = ! istp););} \\\\ _Michel Marcus_, May 25 2015"
			],
			"xref": [
				"Cf. A005408, A001097, A256252, A256253, A255763."
			],
			"keyword": "nonn",
			"offset": "1,2",
			"author": "_Omar E. Pol_, Mar 31 2015",
			"ext": [
				"More terms from _Michel Marcus_, May 25 2015"
			],
			"references": 4,
			"revision": 29,
			"time": "2021-05-26T02:33:27-04:00",
			"created": "2015-06-11T10:27:06-04:00"
		}
	]
}