{
	"greeting": "Greetings from The On-Line Encyclopedia of Integer Sequences! http://oeis.org/",
	"query": "id:A256821",
	"count": 1,
	"start": 0,
	"results": [
		{
			"number": 256821,
			"data": "128,256,512,1024,1888,3204,5088,7677,11120,15579,21230,28264,36888,47326,59820,74631,92040,112349,135882,162986,194032,229416,269560,314913,365952,423183,487142,558396,637544,725218,822084,928843,1046232",
			"name": "Number of length n+6 0..1 arrays with at most two downsteps in every n consecutive neighbor pairs.",
			"comment": [
				"Row 6 of A256816."
			],
			"link": [
				"R. H. Hardin, \u003ca href=\"/A256821/b256821.txt\"\u003eTable of n, a(n) for n = 1..210\u003c/a\u003e"
			],
			"formula": [
				"Empirical: a(n) = (1/120)*n^5 + (5/24)*n^4 + (111/8)*n^3 - (701/24)*n^2 + (11767/60)*n - 253 for n\u003e4.",
				"Empirical g.f.: x*(128 - 512*x + 896*x^2 - 768*x^3 + 224*x^4 + 68*x^5 - 24*x^6 - 7*x^7 - 14*x^8 + 10*x^9) / (1 - x)^6. - _Colin Barker_, Jan 21 2018"
			],
			"example": [
				"Some solutions for n=4:",
				"..0....0....0....1....0....0....1....1....0....1....1....1....1....1....0....0",
				"..1....1....0....0....1....0....1....0....0....0....1....1....1....1....0....0",
				"..0....1....0....0....1....0....0....1....1....1....0....1....1....1....0....0",
				"..0....0....1....1....1....1....1....1....0....1....1....0....1....1....1....0",
				"..0....0....1....1....1....1....1....1....0....1....0....0....1....0....1....0",
				"..1....0....1....0....1....1....0....0....1....0....0....0....1....0....1....1",
				"..0....0....1....1....0....0....0....1....0....1....1....0....0....1....1....0",
				"..1....0....0....1....0....0....1....0....0....1....1....1....0....1....1....1",
				"..1....0....1....0....1....1....1....1....1....0....1....0....1....1....1....0",
				"..0....0....0....1....1....0....0....0....0....1....0....1....0....0....0....0"
			],
			"xref": [
				"Cf. A256816."
			],
			"keyword": "nonn",
			"offset": "1,1",
			"author": "_R. H. Hardin_, Apr 10 2015",
			"references": 1,
			"revision": 9,
			"time": "2018-01-21T09:37:50-05:00",
			"created": "2015-04-10T14:23:23-04:00"
		}
	]
}