{
	"greeting": "Greetings from The On-Line Encyclopedia of Integer Sequences! http://oeis.org/",
	"query": "id:A256251",
	"count": 1,
	"start": 0,
	"results": [
		{
			"number": 256251,
			"data": "1,4,4,12,4,12,20,28,4,12,20,28,36,44,52,60,4,12,20,28,36,44,52,60,68,76,84,92,100,108,116,124,4,12,20,28,36,44,52,60,68,76,84,92,100,108,116,124,132,140,148,156,164,172,180,188,196,204,212,220,228,236,244,252,4,12,20,28,36,44,52,60,68,76,84,92,100",
			"name": "First differences of A256250.",
			"comment": [
				"Number of cells turned ON at n-th stage in the structure of A256250.",
				"Apart from the initial 1, four times A006257 (Josephus problem)."
			],
			"link": [
				"Danny Rorabaugh, \u003ca href=\"/A256251/b256251.txt\"\u003eTable of n, a(n) for n = 0..10000\u003c/a\u003e",
				"N. J. A. Sloane, \u003ca href=\"/wiki/Catalog_of_Toothpick_and_CA_Sequences_in_OEIS\"\u003eCatalog of Toothpick and Cellular Automata Sequences in the OEIS\u003c/a\u003e",
				"\u003ca href=\"/index/Ce#cell\"\u003eIndex entries for sequences related to cellular automata\u003c/a\u003e",
				"\u003ca href=\"/index/J#Josephus\"\u003eIndex entries for sequences related to the Josephus Problem\u003c/a\u003e"
			],
			"formula": [
				"a(0) = 1. For n \u003e= 1; a(n) = 4*A006257(n).",
				"For n\u003e0, a(n) = 8*(n - 2^floor(log_2(n))) + 4 (by the formula of _Gregory Pat Scandalis_ in A006257). - _Danny Rorabaugh_, Apr 20 2015"
			],
			"example": [
				"Written as an irregular triangle in which the row lengths are the terms of A011782, the sequence begins:",
				"1;",
				"4;",
				"4,12;",
				"4,12,20,28;",
				"4,12,20,28,36,44,52,60;",
				"4,12,20,28,36,44,52,60,68,76,84,92,100,108,116,124;",
				"4,12,20,28,36,44,52,60,68,76,84,92,100,108,116,124,132,140,148,156,164,172,180,188,196,204,212,220,228,236,244,252;",
				"...",
				"Row sums give A000302.",
				"Right border gives A173033."
			],
			"program": [
				"(Sage) [1] + [8*(n - 2^floor(log(n,base=2))) + 4 for n in range(1,77)] # _Danny Rorabaugh_, Apr 20 2015",
				"(PARI) a(n) = if(n, 8*(n - 2^logint(n,2)) + 4, 1)"
			],
			"xref": [
				"Cf. A000302, A006257, A011782, A028399, A139251, A147582, A162793, A169708, A256239."
			],
			"keyword": "nonn,tabf",
			"offset": "0,2",
			"author": "_Omar E. Pol_, Mar 20 2015",
			"references": 4,
			"revision": 29,
			"time": "2020-06-24T05:28:31-04:00",
			"created": "2015-03-29T23:09:24-04:00"
		}
	]
}