{
	"greeting": "Greetings from The On-Line Encyclopedia of Integer Sequences! http://oeis.org/",
	"query": "id:A256457",
	"count": 1,
	"start": 0,
	"results": [
		{
			"number": 256457,
			"data": "2,3,5,7,11,11,13,31,41,61,17,71,19,2,23,29,3,13,31,23,43,53,37,73,83,41,43,47,5,53,59,61,67,7,17,71,37,73,47,67,79,97,83,89,19,29,59,79,97,89,11,11,101,13,31,103,41,401,61,601,17,71,107,701,19,109,11,11",
			"name": "Irregular table by rows: row n lists all prime numbers that can be obtained by permuting the digits of n (including duplicates if n has repeated digits and ignoring leading 0's).",
			"example": [
				"Table begins:",
				"2,",
				"3,",
				"-,",
				"5,",
				"-,",
				"7,",
				"-,",
				"-,",
				"-,",
				"11, 11,",
				"-,",
				"13, 31,",
				"41,",
				"-,",
				"61,",
				"17, 71,",
				"-,",
				"19,",
				"2,",
				"-,",
				"-,",
				"23,",
				"..."
			],
			"keyword": "nonn,tabf,base",
			"offset": "1,1",
			"author": "_José de Jesús Camacho Medina_, Mar 30 2015",
			"references": 0,
			"revision": 36,
			"time": "2020-04-06T00:30:10-04:00",
			"created": "2015-04-04T17:59:24-04:00"
		}
	]
}