{
	"greeting": "Greetings from The On-Line Encyclopedia of Integer Sequences! http://oeis.org/",
	"query": "id:A256320",
	"count": 1,
	"start": 0,
	"results": [
		{
			"number": 256320,
			"data": "0,1,5,12,21,33,48,65,85,108,133,161,192,225,261,300,341,385,432,481,533,588,645,705,768,833,901,972,1045,1121,1200,1281,1365,1452,1541,1633,1728,1825,1925,2028,2133,2241,2352,2465,2581,2700,2821,2945,3072,3201",
			"name": "Number of partitions of 4n into exactly 3 parts.",
			"link": [
				"Colin Barker, \u003ca href=\"/A256320/b256320.txt\"\u003eTable of n, a(n) for n = 0..1000\u003c/a\u003e",
				"\u003ca href=\"/index/Rec#order_05\"\u003eIndex entries for linear recurrences with constant coefficients\u003c/a\u003e, signature (2,-1,1,-2,1)."
			],
			"formula": [
				"a(n) = A184637(n) for n \u003e 2.",
				"a(n) = 2*a(n-1)-a(n-2)+a(n-3)-2*a(n-4)+a(n-5) for n\u003e4.",
				"G.f.: -x*(x+1)^3 / ((x-1)^3*(x^2+x+1)).",
				"a(n) = 2*(6*n^2+cos((2*Pi*n)/3)-1)/9. - _Colin Barker_, Jun 06 2016"
			],
			"example": [
				"For n=2 the 5 partitions of 4*2 = 8 are [1,1,6], [1,2,5], [1,3,4], [2,2,4] and [2,3,3]."
			],
			"mathematica": [
				"Length /@ (Total /@ IntegerPartitions[4 #, {3}] \u0026 /@ Range[0, 49]) (* _Michael De Vlieger_, Mar 24 2015 *)",
				"CoefficientList[Series[-x (x + 1)^3/((x - 1)^3 (x^2 + x + 1)), {x, 0, 49}], x] (* or *)",
				"Table[2 (6 n^2 + Cos[(2 Pi n)/3] - 1)/9, {n, 0, 49}] (* _Michael De Vlieger_, Jun 06 2016 *)"
			],
			"program": [
				"(PARI) concat(0, vector(40, n, k=0; forpart(p=4*n, k++, , [3,3]); k))",
				"(PARI) concat(0, Vec(-x*(x+1)^3/((x-1)^3*(x^2+x+1)) + O(x^100)))"
			],
			"xref": [
				"Cf. A033428 (6n), A256321 (5n), A256322 (7n).",
				"Cf. A184637."
			],
			"keyword": "nonn,easy",
			"offset": "0,3",
			"author": "_Colin Barker_, Mar 24 2015",
			"references": 4,
			"revision": 18,
			"time": "2016-06-07T02:58:54-04:00",
			"created": "2015-03-25T01:45:10-04:00"
		}
	]
}