{
	"greeting": "Greetings from The On-Line Encyclopedia of Integer Sequences! http://oeis.org/",
	"query": "id:A256654",
	"count": 1,
	"start": 0,
	"results": [
		{
			"number": 256654,
			"data": "1,2,3,5,5,8,8,8,13,13,13,13,13,21,21,21,21,21,21,21,21,34,34,34,34,34,34,34,34,34,34,34,34,34,55,55,55,55,55,55,55,55,55,55,55,55,55,55,55,55,55,55,55,55,55,89,89,89,89,89,89,89,89,89,89,89,89",
			"name": "Least Fibonacci number not less than n.",
			"comment": [
				"This sequence plays a role in the definition of minimal alternating Fibonacci representations, introduced at A256655.",
				"Essentially the same as A246104. - _R. J. Mathar_, Apr 14 2015"
			],
			"link": [
				"Clark Kimberling, \u003ca href=\"/A256654/b256654.txt\"\u003eTable of n, a(n) for n = 1..10000\u003c/a\u003e"
			],
			"formula": [
				"Concatenate these numbers:  F(2), F(3), F(4), then F(3) F(5)'s, then F(4) F(6)'s, then F(5) F(7)'s, ... F(n+2) F(n)'s, ..., where F = A000045, the Fibonacci numbers."
			],
			"mathematica": [
				"h[0] = {1}; h[n_] := Join[h[n - 1], Table[Fibonacci[n + 2], {k, 1, Fibonacci[n]}]]; h[10]"
			],
			"xref": [
				"Cf. A000045, A256655."
			],
			"keyword": "nonn,easy",
			"offset": "1,2",
			"author": "_Clark Kimberling_, Apr 08 2015",
			"references": 4,
			"revision": 10,
			"time": "2015-04-14T10:11:27-04:00",
			"created": "2015-04-09T08:02:34-04:00"
		}
	]
}