{
	"greeting": "Greetings from The On-Line Encyclopedia of Integer Sequences! http://oeis.org/",
	"query": "id:A256428",
	"count": 1,
	"start": 0,
	"results": [
		{
			"number": 256428,
			"data": "0,0,1,6,26,102,386,1441,5353,19854,73612,272940,1012137,3753696,13922343,51640040,191546040,710504359,2635506573,9776051185,36263011505,134513166002,498960289449,1850833274594,6865444733208,25466548032582",
			"name": "G.f.: x^2*(1-2*x)/(1-8*x+22*x^2-26*x^3+14*x^4-5*x^5+x^6).",
			"link": [
				"Miklós Bóna, \u003ca href=\"http://arxiv.org/abs/1404.4033\"\u003eA new record for 1324-avoiding permutations\u003c/a\u003e, arXiv:1404.4033 [math.CO], 2014.",
				"Miklós Bóna, \u003ca href=\"http://dx.doi.org/10.1007/s40879-014-0020-6\"\u003eA new record for 1324-avoiding permutations\u003c/a\u003e, European Journal of Mathematics (2015) 1:198-206, DOI 10.1007/s40879-014-0020-6."
			],
			"mathematica": [
				"CoefficientList[Series[x^2 (1 - 2 x)/(1 - 8 x + 22 x^2 - 26 x^3 + 14 x^4 - 5 x^5 + x^6), {x, 0, 25}], x] (* _Michael De Vlieger_, Aug 27 2015 *)"
			],
			"program": [
				"(PARI) concat([0, 0], Vec(x^2*(1-2*x)/(1-8*x+22*x^2-26*x^3+14*x^4-5*x^5+x^6) + O(x^40))) \\\\ _Michel Marcus_, Aug 27 2015"
			],
			"keyword": "nonn",
			"offset": "0,4",
			"author": "_N. J. A. Sloane_, Apr 13 2015",
			"references": 0,
			"revision": 11,
			"time": "2015-08-27T09:14:29-04:00",
			"created": "2015-04-13T21:57:08-04:00"
		}
	]
}