{
	"greeting": "Greetings from The On-Line Encyclopedia of Integer Sequences! http://oeis.org/",
	"query": "id:A256587",
	"count": 1,
	"start": 0,
	"results": [
		{
			"number": 256587,
			"data": "0,1,1,1,1,2,2,2,3,2,4,2,4,2,5,3,4,3,3,5,3,4,2,6,2,4,1,6,2,4,1,4,2,3,3,2,3,1,3,2,4,1,3,1,3,2,4,1,3,1,3,1,4,2,4,1,3,2,3,3,3,3,2,3,2,5,4,3,3,4,3,5,5,4,3,5,3,6,6,5,4,7,3,6,4,7,4,8,3,7,5,6,7,6,5,6,6,6,7,8",
			"name": "Number of ways to write n = r + s + t, where r,s,t are elements of the set {floor(k*(k+1)/4): k = 1,2,3,...} with s odd and r \u003c= s \u003c= t.",
			"comment": [
				"Conjecture: (i) a(n) \u003e 0 for all n \u003e 1.",
				"(ii) If the ordered pair (b,c) is among (1,2), (1,3), (1,4), (1,5), (1,6), (1,8), (1,9), (2,2) and (2,3), then each nonnegative integer can be written as r + b*s + c*t, where r,s,t belong to the set S = {floor(k*(k+1)/4): k = 1, 2, 3, ...}.",
				"We have shown that if b and c are positive integers with b \u003c= c such that every n = 0,1,2,... can be written as r + b*s + c*t with r,s,t in the above set S, then the ordered pair (b,c) must be among (1,1), (1,2,), (1,3), (1,4), (1,5), (1,6), (1,8), (1,9), (2,2) and (2,3)."
			],
			"link": [
				"Zhi-Wei Sun, \u003ca href=\"/A256587/b256587.txt\"\u003eTable of n, a(n) for n = 1..10000\u003c/a\u003e"
			],
			"example": [
				" a(27) = 1 since 27 = 0 + 5 + 22 = floor(1*2/4) + floor(4*5/4) + floor(9*10/4).",
				"a(56) = 1 since 56 = 1 + 3 + 52 = floor(2*3/4) + floor(3*4/4) + floor(14*15/4)."
			],
			"mathematica": [
				"S[n_]:=Union[Table[Floor[k*(k+1)/4],{k,1,(Sqrt[16n+13]-1)/2}]]",
				"L[n_]:=Length[S[n]]",
				"Do[r=0;Do[If[Part[S[n],x]\u003en/3,Goto[cc]];Do[If[Part[S[n],x]+2*Part[S[n],y]\u003en,Goto[bb]];",
				"If[Mod[Part[S[n],y],2]==1\u0026\u0026MemberQ[S[n], n-Part[S[n],x]-Part[S[n],y]]==True,r=r+1];",
				"Continue,{y,x,L[n]}];Label[bb];Continue,{x,1,L[n]}];Label[cc];Print[n,\" \",r];Continue, {n,1,100}]"
			],
			"xref": [
				"Cf. A000217, A256544, A256558."
			],
			"keyword": "nonn",
			"offset": "1,6",
			"author": "_Zhi-Wei Sun_, Apr 02 2015",
			"references": 1,
			"revision": 6,
			"time": "2015-04-03T01:28:09-04:00",
			"created": "2015-04-03T01:28:09-04:00"
		}
	]
}