{
	"greeting": "Greetings from The On-Line Encyclopedia of Integer Sequences! http://oeis.org/",
	"query": "id:A256105",
	"count": 1,
	"start": 0,
	"results": [
		{
			"number": 256105,
			"data": "1,2,10,36,166,556,2724,9000,41542,153164,657644,2325816,11020508,38006264,164662664,634362320,2695771462,9775537676,43527018396,156855914904,687387270260,2605392165928,10799896586616,40214700074800,178809945153820,657023566793400",
			"name": "a(n) = [x^n] 2^(2*n) / Product_{k\u003e=1} (1-x^k)^(2^(-k)).",
			"comment": [
				"Limit n-\u003einfinity a(n)^(1/n) = 4."
			],
			"link": [
				"Vaclav Kotesovec, \u003ca href=\"/A256105/b256105.txt\"\u003eTable of n, a(n) for n = 0..500\u003c/a\u003e",
				"Vaclav Kotesovec, \u003ca href=\"/A256105/a256105.jpg\"\u003eGraph a(n)/4^n\u003c/a\u003e"
			],
			"mathematica": [
				"Table[2^(2*n) * SeriesCoefficient[Product[1/(1-x^k)^(2^(-k)),{k,1,n}],{x,0,n}], {n,0,30}]",
				"Table[4^n * (CoefficientList[Series[Exp[Sum[x^k/(2*k*(1-x^k/2)),{k,1,n}]],{x,0,n}],x])[[n+1]],{n,0,30}] (* faster *)"
			],
			"xref": [
				"Cf. A034899, A144074."
			],
			"keyword": "nonn",
			"offset": "0,2",
			"author": "_Vaclav Kotesovec_, Mar 14 2015",
			"references": 1,
			"revision": 6,
			"time": "2015-03-14T12:12:37-04:00",
			"created": "2015-03-14T12:12:37-04:00"
		}
	]
}