{
	"greeting": "Greetings from The On-Line Encyclopedia of Integer Sequences! http://oeis.org/",
	"query": "id:A256896",
	"count": 1,
	"start": 0,
	"results": [
		{
			"number": 256896,
			"data": "512,9072,202462,2212280,7212370,20148566,20860406,59078346,184212024,632179718,2314423502,8727557690,33524570530,130212627960,509112768360,1998206331062,7859885695566,30956159700748,122020341570654",
			"name": "Number of (n+2)X(n+2) 0..1 arrays with every 3X3 subblock sum of the two medians of the central row and column plus the two sums of the diagonal and antidiagonal nondecreasing horizontally and vertically",
			"comment": [
				"Diagonal of A256904"
			],
			"link": [
				"R. H. Hardin, \u003ca href=\"/A256896/b256896.txt\"\u003eTable of n, a(n) for n = 1..31\u003c/a\u003e"
			],
			"example": [
				"Some solutions for n=2",
				"..0..1..1..0....0..1..0..0....0..1..0..1....1..1..1..1....1..0..1..0",
				"..0..0..0..1....0..1..1..1....0..0..0..1....1..0..0..0....1..0..1..1",
				"..0..0..0..1....0..1..1..1....0..0..0..0....0..0..1..1....1..1..1..1",
				"..0..0..1..1....1..0..0..1....0..1..0..0....1..1..1..1....1..1..0..1"
			],
			"xref": [
				"Cf. A256904"
			],
			"keyword": "nonn",
			"offset": "1,1",
			"author": "_R. H. Hardin_, Apr 12 2015",
			"references": 1,
			"revision": 5,
			"time": "2015-04-12T08:49:21-04:00",
			"created": "2015-04-12T08:49:21-04:00"
		}
	]
}