{
	"greeting": "Greetings from The On-Line Encyclopedia of Integer Sequences! http://oeis.org/",
	"query": "id:A256123",
	"count": 1,
	"start": 0,
	"results": [
		{
			"number": 256123,
			"data": "1854811727,1988791547,2498711497,2866433161,3337303943,3514209079,5078536369,5856521807,6057449263,7402496771,8158654937,8426760781,8829158339,10337846809,11487954299,11867001431,12967520437,14336558143",
			"name": "Primes p such that all six iterations of the map p-\u003e2p+nextprime(p) give primes.",
			"comment": [
				"First prime with 7 iterations all giving primes is a(36)=44439344567."
			],
			"xref": [
				" Subsequence of A255694."
			],
			"keyword": "nonn",
			"offset": "1,1",
			"author": "_Zak Seidov_, Mar 15 2015",
			"references": 0,
			"revision": 4,
			"time": "2015-03-19T07:22:07-04:00",
			"created": "2015-03-19T07:22:07-04:00"
		}
	]
}