{
	"greeting": "Greetings from The On-Line Encyclopedia of Integer Sequences! http://oeis.org/",
	"query": "id:A256569",
	"count": 1,
	"start": 0,
	"results": [
		{
			"number": 256569,
			"data": "1,6,21,61,171,461,1181,2951",
			"name": "a(n) is the total number of pentagrams in a variant of pentagram fractal after n iterations.",
			"comment": [
				"Inspired by A255870. But at the higher iterations, the perimeter would be an irregular polygon instead of a pentagon. The construction rule is vertex to vertex expansion. See illustration in the links."
			],
			"link": [
				"Kival Ngaokrajang, \u003ca href=\"/A256569/a256569.pdf\"\u003eIllustration of initial terms\u003c/a\u003e"
			],
			"xref": [
				"Cf. A255870, A256429, A256571."
			],
			"keyword": "nonn,more",
			"offset": "1,2",
			"author": "_Kival Ngaokrajang_, Apr 02 2015",
			"references": 7,
			"revision": 10,
			"time": "2015-04-02T17:33:10-04:00",
			"created": "2015-04-02T11:41:08-04:00"
		}
	]
}