{
	"greeting": "Greetings from The On-Line Encyclopedia of Integer Sequences! http://oeis.org/",
	"query": "id:A256461",
	"count": 1,
	"start": 0,
	"results": [
		{
			"number": 256461,
			"data": "1,0,0,1,1,1,1,1,0,1,1,1,4,1,0,1,1,1,18,1,5,0,0,1,1,1,1,1,2,0,1,1,1,1,9,1,1,4,1,4,1,4,0,1,1,1,1,1,16,1,0,1,1,1,7,1,1,9,1,5,0,0,1,1,1,1,2,1,1,1,1,1,1,1,4,4,1,7,0,1,5,1,1,4,3,1",
			"name": "Smallest k such that A098550(n) + A098550(n+1) + ... + A098550(n+k) is prime, or -1 if there is no such k.",
			"comment": [
				"Conjecture: a(n)\u003e=0 for all n.",
				"In contrast to this conjecture, for the sequence of the positive integers (A=A000027) there are infinitely many n for which A(n) + A(n+1) + ... + A(n+k) is composite for every k\u003e=0 (cf. A089306, A077654)."
			],
			"link": [
				"Peter J. C. Moses, \u003ca href=\"/A256461/b256461.txt\"\u003eTable of n, a(n) for n = 1..10000\u003c/a\u003e"
			],
			"xref": [
				"Cf. A098550, A000027, A089306, A077654."
			],
			"keyword": "nonn",
			"offset": "1,13",
			"author": "_Vladimir Shevelev_, Mar 30 2015",
			"ext": [
				"More terms from _Peter J. C. Moses_, Mar 30 2015"
			],
			"references": 2,
			"revision": 17,
			"time": "2015-04-04T09:28:31-04:00",
			"created": "2015-04-04T09:28:31-04:00"
		}
	]
}