{
	"greeting": "Greetings from The On-Line Encyclopedia of Integer Sequences! http://oeis.org/",
	"query": "id:A256812",
	"count": 1,
	"start": 0,
	"results": [
		{
			"number": 256812,
			"data": "0,2,0,2,0,0,0,0,5,0,0,6,20,0,0,5,20,0,20,0,5,13,5,5,0,0,0,0,5,0,0,0,0,2,0,0,0,0,0,0,0,6,20,0,41,2,0,5,13,0,0,0,0,6,0,0,0,5,0,0,0,0,0,0,0,0,5,0,20,0,20,41,0,0,0,5,0,0,0,41,0,13,20",
			"name": "Smallest k\u003e=1 such that n^6 + (n+1)^6 + ... + (n+k)^6 is prime or a(n)=0 if there is no such k.",
			"comment": [
				"Using similar arguments as in comment in A256547, we obtain that every term is 0,2,5,6,13,20,41."
			],
			"link": [
				"Peter J. C. Moses, \u003ca href=\"/A256812/b256812.txt\"\u003eTable of n, a(n) for n = 1..1000\u003c/a\u003e"
			],
			"xref": [
				"Cf. A001014, A089306, A256385, A256503, A256546, A256547, A256581."
			],
			"keyword": "nonn",
			"offset": "1,2",
			"author": "_Vladimir Shevelev_ and _Peter J. C. Moses_, Apr 10 2015",
			"references": 1,
			"revision": 8,
			"time": "2015-04-14T10:29:41-04:00",
			"created": "2015-04-14T10:29:41-04:00"
		}
	]
}