{
	"greeting": "Greetings from The On-Line Encyclopedia of Integer Sequences! http://oeis.org/",
	"query": "id:A256828",
	"count": 1,
	"start": 0,
	"results": [
		{
			"number": 256828,
			"data": "2,6,18,48,204,10386,19524,28320",
			"name": "Numbers k such that 7*R_k - 40 is prime, where R_k = 11...1 is the repunit (A002275) of length k.",
			"comment": [
				"Also, numbers k such that (7*10^k - 367)/9 is prime.",
				"Terms from Kamada.",
				"a(9) \u003e 30000."
			],
			"link": [
				"Makoto Kamada, \u003ca href=\"https://stdkmd.net/nrr/aaaba.htm\"\u003eNear-repdigit numbers of the form AA...AABA\u003c/a\u003e.",
				"Makoto Kamada, \u003ca href=\"https://stdkmd.net/nrr/7/77737.htm#prime\"\u003ePrime numbers of the form 77...7737\u003c/a\u003e.",
				"\u003ca href=\"/index/Pri#Pri_rep\"\u003eIndex entries for primes involving repunits\u003c/a\u003e."
			],
			"example": [
				"For k=6, 7*R_6 - 40 = 777777 - 40 = 777737 which is prime."
			],
			"mathematica": [
				"Select[Range[0, 250000], PrimeQ[(7*10^# - 367)/9] \u0026]"
			],
			"program": [
				"(MAGMA) [n: n in [2..300] | IsPrime((7*10^n-367) div 9)]; // _Vincenzo Librandi_, Apr 11 2015"
			],
			"xref": [
				"Cf. A002275."
			],
			"keyword": "more,hard,nonn",
			"offset": "1,1",
			"author": "_Robert Price_, Apr 10 2015",
			"references": 0,
			"revision": 15,
			"time": "2021-07-08T00:56:14-04:00",
			"created": "2015-04-12T02:37:45-04:00"
		}
	]
}