{
	"greeting": "Greetings from The On-Line Encyclopedia of Integer Sequences! http://oeis.org/",
	"query": "id:A257490",
	"count": 1,
	"start": 0,
	"results": [
		{
			"number": 257490,
			"data": "1,1,3,1,15,15,1,28,35,210,105,1,45,210,630,1575,3150,945,1,66,495,462,1485,13860,5775,13860,51975,51975,10395,1,91,1001,3003,3003,45045,42042,105105,45045,630630,525525,315315,1576575,945945,135135",
			"name": "Irregular triangle read by rows in which the n-th row lists multinomials (A036040) for partitions of 2n which have only even parts in Abramowitz-Stegun ordering.",
			"comment": [
				"The length of row n is given by A000041(n).",
				"Each entry in this irregular triangle is the quotient of the respective entries in A257468 and A096162, which is the multinomial called M_3 in Abramowitz-Stegun.",
				"Has the same structure as the triangles in A036036, A096162, A115621 and A257468."
			],
			"link": [
				"M. Abramowitz and I. A. Stegun, eds., \u003ca href=\"http://www.convertit.com/Go/ConvertIt/Reference/AMS55.ASP\"\u003eHandbook of Mathematical Functions\u003c/a\u003e, National Bureau of Standards, Applied Math. Series 55, Tenth Printing, 1972 [alternative scanned copy], pp. 831-832."
			],
			"example": [
				"Brackets group all partitions of the same length when there is more than one partition.",
				"n/m  1    2          3           4    5",
				"1:   1",
				"2:   1    3",
				"3:   1   15         15",
				"4:   1  [28  35]   210         105",
				"5:   1  [45 210]  [630 1575]  3150  945",
				"...",
				"n = 6:  1 [66 495 462] [1485 13860 5775] [13860 51975] 51975  0395",
				"Replacing the bracketed numbers by their sums yields the triangle of A156289."
			],
			"mathematica": [
				"(* triangle2574868[] and triangle096162[] are defined as functions triangle[] in the respective sequences A257468 and A096162 *)",
				"triangle[n_] := triangle257468[n]/triangle096162[n]",
				"a[n_] := Flatten[triangle[n]]",
				"a[7] (* data *)"
			],
			"xref": [
				"Cf. A000041, A036040, A036036, A096162, A115621, A156289, A257468."
			],
			"keyword": "nonn,tabf",
			"offset": "1,3",
			"author": "_Hartmut F. W. Hoft_, Apr 26 2015",
			"ext": [
				"Edited by _Wolfdieter Lang_, May 11 2015"
			],
			"references": 5,
			"revision": 21,
			"time": "2019-08-14T16:09:03-04:00",
			"created": "2015-05-11T17:24:03-04:00"
		}
	]
}