{
	"greeting": "Greetings from The On-Line Encyclopedia of Integer Sequences! http://oeis.org/",
	"query": "id:A257652",
	"count": 1,
	"start": 0,
	"results": [
		{
			"number": 257652,
			"data": "4,6,9,38,39,49,69,169,278,289,299,489,589,689,699,799,899,2899,3899,4989,5899,5999,6999,7999,9899,19999,29999,48999,58999,68999,69999,88999,99899,299899,398999,589989,589999,689999,798999,889999,899999,2899999,3899999",
			"name": "The semiprimes which set new records for the sum of their decimal digits.",
			"comment": [
				"The semiprimes that set new records in A175013. New records of digit sums of 4, 6, 9, 11, 12, 13, 15, 16, 17,.. are set by the semiprimes 4, 6, 9, 38, 39, 49, 69,..."
			],
			"link": [
				"K. D. Bajpai, \u003ca href=\"/A257652/b257652.txt\"\u003eTable of n, a(n) for n = 1..64\u003c/a\u003e"
			],
			"example": [
				"a(4) = 38 = 2 * 19, which is a semiprime with sum of digits = 3 + 8 = 11.",
				"a(5) = 39 = 3 * 13, which is a semiprime with sum of digits = 3 + 9 = 12. Since 12 \u003e 11, 38 and 39 are in list."
			],
			"mathematica": [
				"t = {}; s = 0; Do[If[(x = Total[IntegerDigits[n]]) \u003e s \u0026\u0026 PrimeOmega[n] == 2, AppendTo[t, n]; s = x], {n, 1000000}];t"
			],
			"xref": [
				"Cf. A175013, A068809, A246569.",
				"Subsequence of A213653."
			],
			"keyword": "nonn,base",
			"offset": "1,1",
			"author": "_K. D. Bajpai_, Jul 25 2015",
			"references": 1,
			"revision": 19,
			"time": "2015-08-20T10:43:22-04:00",
			"created": "2015-08-20T10:43:22-04:00"
		}
	]
}