{
	"greeting": "Greetings from The On-Line Encyclopedia of Integer Sequences! http://oeis.org/",
	"query": "id:A257855",
	"count": 1,
	"start": 0,
	"results": [
		{
			"number": 257855,
			"data": "0,1,32,243,1024,3125,7776,846,6487,18098,38949,73270,126371,204762,27072,98893,207584,363615,579136,868097,1246368,205578,541639,991310,1576341,2320882,3251603,68663,866304,1886905,3164576,4736427,6642688,8926829,646649,2643750",
			"name": "a(n) = 2*n^5 - floor(2^(1/5)*n)^5.",
			"comment": [
				"Is there a simple expression for a nontrivial lower bound for a(n) ?"
			],
			"example": [
				"a(6) = 2*6^5 - floor(2^(1/5)*6)^5 = 2*7776 - 6^5 = 7776.",
				"a(7) = 2*7^5 - floor(2^(1/5)*7)^5 = 2*16807 - 8^5 = 846."
			],
			"mathematica": [
				"Table[2 n^5 - Floor[2^(1/5) n]^5, {n, 0, 60}] (* _Vincenzo Librandi_, May 29 2015 *)"
			],
			"program": [
				"(PARI) f(n,e=5,b=2)=n^e*b-floor(sqrtn(b,e)*n)^e",
				"(MAGMA) [2*n^5 - Floor(2^(1/5)*n)^5: n in [0..50]]; // _Vincenzo Librandi_, May 29 2015"
			],
			"xref": [
				"Cf. A087056 (analog for squares), A257853 - A257854 (3rd \u0026 4th power)."
			],
			"keyword": "nonn,easy",
			"offset": "0,3",
			"author": "_M. F. Hasler_, May 28 2015",
			"references": 2,
			"revision": 8,
			"time": "2015-05-31T17:06:21-04:00",
			"created": "2015-05-30T15:51:18-04:00"
		}
	]
}