{
	"greeting": "Greetings from The On-Line Encyclopedia of Integer Sequences! http://oeis.org/",
	"query": "id:A257702",
	"count": 1,
	"start": 0,
	"results": [
		{
			"number": 257702,
			"data": "2,1,3,3,7,2,12,4,6,4,6,8,12,3,11,13,15,5,7,5,7,7,11,5,9,7,9,9,11,13,17,4,10,12,14,14,16,14,18,16,24,6,8,8,10,6,10,8,16,8,10,12,14,6,8,10,16,10,14,8,10,10,12,10,14,12,18,14,16,18,20,5,9",
			"name": "Number of steps from n to 0 using this algorithm:  x -\u003e floor(r*x) if x is odd, and x -\u003e floor(x/r) if x is even, where r = sqrt(5).",
			"link": [
				"Clark Kimberling, \u003ca href=\"/A257702/b257702.txt\"\u003eTable of n, a(n) for n = 1..10000\u003c/a\u003e"
			],
			"example": [
				"5-\u003e11-\u003e24-\u003e10-\u003e4-\u003e1-\u003e2-\u003e0, total of 7 steps, so that a(5) = 7."
			],
			"mathematica": [
				"r = Sqrt[5]; f[x_] := If[OddQ[x], Floor[r *x], Floor[x/r]]",
				"g[x_] := Drop[FixedPointList[f, x], -1];",
				"Table[-1 + Length[g[n]], {n, 1, 200}]"
			],
			"xref": [
				"Cf. A257698-A257701, A257703-A257706."
			],
			"keyword": "nonn,easy",
			"offset": "1,1",
			"author": "_Clark Kimberling_, May 04 2015",
			"references": 3,
			"revision": 4,
			"time": "2015-05-06T09:49:26-04:00",
			"created": "2015-05-06T09:49:26-04:00"
		}
	]
}