{
	"greeting": "Greetings from The On-Line Encyclopedia of Integer Sequences! http://oeis.org/",
	"query": "id:A257256",
	"count": 1,
	"start": 0,
	"results": [
		{
			"number": 257256,
			"data": "1,2,12,18,32,40,64,84,108,124,138,170,206,214,274,296,318,338,348,378,426,454,498,532,564,600,662,678,710,736,766,836,874,920,944,954,1078,1104,1120,1170,1202,1254,1296,1332,1378,1416,1434,1466,1592,1612,1660,1696,1778,1786,1820,1888,1932,1952,2058",
			"name": "Difference between {the first unlucky number removed at the n-th stage of Lucky sieve} and {the n-th Lucky number}: a(n) = A219178(n) - A000959(n).",
			"link": [
				"Antti Karttunen, \u003ca href=\"/A257256/b257256.txt\"\u003eTable of n, a(n) for n = 1..767\u003c/a\u003e"
			],
			"formula": [
				"a(n) = A219178(n) - A000959(n)."
			],
			"program": [
				"(Scheme) (define (A257256 n) (- (A219178 n) (A000959 n)))"
			],
			"xref": [
				"First column of A257255.",
				"Cf. A000959, A219178."
			],
			"keyword": "nonn",
			"offset": "1,2",
			"author": "_Antti Karttunen_, Apr 29 2015",
			"references": 2,
			"revision": 7,
			"time": "2015-04-30T21:44:55-04:00",
			"created": "2015-04-30T21:44:55-04:00"
		}
	]
}