{
	"greeting": "Greetings from The On-Line Encyclopedia of Integer Sequences! http://oeis.org/",
	"query": "id:A257134",
	"count": 1,
	"start": 0,
	"results": [
		{
			"number": 257134,
			"data": "2,1,6,4,6,4,6,4,6,7,4,2,2,2,7,6,3,8,3,0,3,2,0,0,7,3,9,3,0,8,2,3,3,5,8,0,5,5,4,9,5,0,1,9,0,3,8,3,7,4,5,3,8,1,5,3,6,5,9,5,2,4,3,0,8,8,8,2,4,1,2,3,2,3,7,3,9,3,7,6,9,3,1,1,3,8,1,9,2,7,1,8,8,3,3,9,9,8,3,4,4,6,5,9,8",
			"name": "Decimal expansion of Pi^4/45.",
			"reference": [
				"L. J. P. Kilford, Modular Forms: A Classical and Computational Introduction, Imperial College Press, (2008) p. 15."
			],
			"link": [
				"Eric Weisstein's MathWorld, \u003ca href=\"http://mathworld.wolfram.com/EisensteinSeries.html\"\u003eEisenstein Series.\u003c/a\u003e"
			],
			"formula": [
				"Pi^4/45 = 2*zeta(4) = G_4(infinity), where the function G_k(z) is the Eisenstein nonzero modular form of weight k.",
				"Equals -Integral_{x=0..1} log(x)^2 * log(1 - x)/x dx. - _Amiram Eldar_, Jul 21 2020"
			],
			"example": [
				"2.16464646742227638303200739308233580554950190383745381536595243..."
			],
			"mathematica": [
				"RealDigits[Pi^4/45, 10, 105] // First"
			],
			"xref": [
				"Cf. A013662, A092425, A257136."
			],
			"keyword": "nonn,cons,easy",
			"offset": "1,1",
			"author": "_Jean-François Alcover_, Apr 16 2015",
			"references": 1,
			"revision": 14,
			"time": "2020-07-21T03:26:18-04:00",
			"created": "2015-04-16T12:47:32-04:00"
		}
	]
}