{
	"greeting": "Greetings from The On-Line Encyclopedia of Integer Sequences! http://oeis.org/",
	"query": "id:A257016",
	"count": 1,
	"start": 0,
	"results": [
		{
			"number": 257016,
			"data": "6508512,717382656,82198167552,9418319069184,1067360882688000,120962057616000000,13755268072643328000,1564188006382373965824,177670834801998001035264,20181030292033938199471104",
			"name": "Number of (n+2)X(3+2) 0..2 arrays with no 3x3 subblock diagonal sum equal to the antidiagonal sum",
			"comment": [
				"Column 3 of A257017"
			],
			"link": [
				"R. H. Hardin, \u003ca href=\"/A257016/b257016.txt\"\u003eTable of n, a(n) for n = 1..96\u003c/a\u003e"
			],
			"example": [
				"Some solutions for n=1",
				"..0..0..0..1..1....0..0..0..0..1....0..0..0..0..2....0..0..0..1..1",
				"..0..2..0..0..0....1..2..1..0..2....2..0..2..1..0....1..1..2..0..2",
				"..0..2..1..0..0....2..0..1..2..1....2..0..1..2..0....0..1..1..0..1"
			],
			"xref": [
				"Cf. A257017"
			],
			"keyword": "nonn",
			"offset": "1,1",
			"author": "_R. H. Hardin_, Apr 14 2015",
			"references": 1,
			"revision": 4,
			"time": "2015-04-14T12:05:03-04:00",
			"created": "2015-04-14T12:05:03-04:00"
		}
	]
}