{
	"greeting": "Greetings from The On-Line Encyclopedia of Integer Sequences! http://oeis.org/",
	"query": "id:A257276",
	"count": 1,
	"start": 0,
	"results": [
		{
			"number": 257276,
			"data": "0,1,3,6,13,11,16,9,27,31,2,4,5,7,8,10,12,14,15,17,24,18,25,19,26,28,37,30,38,32,23,20,36,41,39,29,42,43,48,53,47,21,40,50,57,58,66,45,69,59,64,22,49,54,65,81,70,60,71,62,80,33,67,61,74,82,95,92,75,96,101,34,68,84,76,83,102",
			"name": "Inverse permutation of A257277 (least unused number having a digit that divides the previous term).",
			"program": [
				"(PARI) vecsort(A257277,,1)[1..200] \\\\ assuming A257277 is defined as vector with enough (nonzero) terms of that sequence."
			],
			"xref": [
				"Cf. A257277."
			],
			"keyword": "nonn,base",
			"offset": "0,3",
			"author": "_M. F. Hasler_, May 07 2015",
			"references": 1,
			"revision": 7,
			"time": "2015-05-07T23:10:18-04:00",
			"created": "2015-05-07T23:10:18-04:00"
		}
	]
}