{
	"greeting": "Greetings from The On-Line Encyclopedia of Integer Sequences! http://oeis.org/",
	"query": "id:A257776",
	"count": 1,
	"start": 0,
	"results": [
		{
			"number": 257776,
			"data": "7,4,3,9,0,8,7,7,4,9,3,2,8,7,6,5,8,2,9,9,7,3,5,2,9,5,0,1,6,9,6,9,3,2,5,5,4,4,3,9,9,6,5,8,6,6,1,3,1,1,6,6,7,2,0,1,4,0,3,4,6,0,1,0,9,9,9,5,7,2,5,4,7,4,4,1,4,7,1,7,5,2,2,9,7,9,6,1,9,1,1,2,0,4,8,2,1,3,7,1,1,6,8,0,0",
			"name": "Decimal expansion of (e/3)^3.",
			"comment": [
				"The coefficient a of the unique cubic function y=a*x^3 which kisses the exponential function y=exp(x). In general, a function y = c*x^n kisses the exponential at some x \u003e 0 iff the coefficient c equals (e/n)^n. The kissing point is (n, e^n)."
			],
			"link": [
				"Stanislav Sykora, \u003ca href=\"/A257776/b257776.txt\"\u003eTable of n, a(n) for n = 0..2000\u003c/a\u003e"
			],
			"example": [
				"0.743908774932876582997352950169693255443996586613116672014034601..."
			],
			"program": [
				"(PARI) (exp(3)/3)^3"
			],
			"xref": [
				"Cf. A001113, A019740; A257775 (n=2), A257777 (n=1)."
			],
			"keyword": "nonn,cons,easy",
			"offset": "0,1",
			"author": "_Stanislav Sykora_, May 12 2015",
			"references": 4,
			"revision": 9,
			"time": "2015-05-25T05:24:44-04:00",
			"created": "2015-05-25T05:11:33-04:00"
		}
	]
}