{
	"greeting": "Greetings from The On-Line Encyclopedia of Integer Sequences! http://oeis.org/",
	"query": "id:A257566",
	"count": 1,
	"start": 0,
	"results": [
		{
			"number": 257566,
			"data": "1,0,1,0,2,1,0,3,4,1,0,5,13,7,1,0,7,30,30,10,1,0,11,76,119,65,14,1,0,15,152,357,306,113,18,1,0,22,330,1119,1375,746,193,23,1,0,30,633,2973,5059,3888,1497,295,28,1,0,42,1245,8036,18605,19423,10298,2930,447,34,1",
			"name": "Triangle read by rows, T(n,k) = Sum_{j=0..n-k+1} P(n,j)*T(n-j,k-1) if k\u003e0 else 0^n where P(n,j) is the number of j-partitions of n; for n\u003e=0 and 0\u003c=k\u003c=n.",
			"formula": [
				"T(n,1) = A000041(n) for n\u003e=1.",
				"T(n,n-1) = A014616(n-1) for n\u003e=2."
			],
			"example": [
				"1;",
				"0,  1;",
				"0,  2,  1;",
				"0,  3,  4,   1;",
				"0,  5, 13,   7,  1;",
				"0,  7, 30,  30, 10,  1;",
				"0, 11, 76, 119, 65, 14, 1;"
			],
			"maple": [
				"T := proc(n,k) option remember; `if`(k=0, 0^n,",
				"add(combinat:-numbpart(n,j)*T(n-j, k-1), j=0..n-k+1)) end:",
				"for n from 0 to 12 do seq(T(n, k), k=0..n) od;"
			],
			"xref": [
				"Cf. A000041, A014616."
			],
			"keyword": "nonn,tabl,easy",
			"offset": "0,5",
			"author": "_Peter Luschny_, Apr 30 2015",
			"references": 1,
			"revision": 8,
			"time": "2015-04-30T21:12:47-04:00",
			"created": "2015-04-30T21:12:47-04:00"
		}
	]
}