{
	"greeting": "Greetings from The On-Line Encyclopedia of Integer Sequences! http://oeis.org/",
	"query": "id:A257512",
	"count": 1,
	"start": 0,
	"results": [
		{
			"number": 257512,
			"data": "10,18,25,34,41,54,56,66,73,86,88,102,110,117,119,130,137,150,152,166,174,181,183,198,206,213,222,229,243,244,246,258,265,278,280,294,302,309,311,326,334,341,350,357,371,372,374,390,398,405,414,421,435,436,446,453,467,468,483,491,498,499,501,514",
			"name": "Those vertices of the binary beanstalk whose children are both leaves.",
			"comment": [
				"Numbers n for which both A079559(A213723(n)) and A079559(A213724(n)) are zero.",
				"Numbers which occur twice in A257507."
			],
			"link": [
				"Antti Karttunen, \u003ca href=\"/A257512/b257512.txt\"\u003eTable of n, a(n) for n = 1..16384\u003c/a\u003e",
				"Paul Tek, \u003ca href=\"/A179016/a179016.png\"\u003eIllustration of how natural numbers in range 0 .. 133 are organized as a binary tree in the binary beanstalk\u003c/a\u003e"
			],
			"example": [
				"10 is present, because A011371(12) = A011371(13) = 10, and both 12 and 13 are terms of A055938. See also Paul Tek's illustration."
			],
			"program": [
				"(Scheme, with _Antti Karttunen_'s IntSeq-library)",
				"(define A257512 (MATCHING-POS 1 0 (lambda (n) (and (zero? (A079559 (A213723 n))) (zero? (A079559 (A213724 n)))))))"
			],
			"xref": [
				"Cf. A011371, A055938, A079559, A213723, A213724, A257507, A257265.",
				"First differences: A256490.",
				"Subsequence of A005187, A213717 and A257508."
			],
			"keyword": "nonn",
			"offset": "1,1",
			"author": "_Antti Karttunen_, May 03 2015",
			"references": 5,
			"revision": 17,
			"time": "2015-05-04T02:16:18-04:00",
			"created": "2015-05-04T02:11:20-04:00"
		}
	]
}