{
	"greeting": "Greetings from The On-Line Encyclopedia of Integer Sequences! http://oeis.org/",
	"query": "id:A257715",
	"count": 1,
	"start": 0,
	"results": [
		{
			"number": 257715,
			"data": "651,354051,196476315,1833809355,1017687528051,564774036750651,313425981747606051,173938318056614696235,1623451323680702588835,900947621231988101541051,499988268427580436128625651,277472588498948806845840543051,153985687725108202266731539138755",
			"name": "Pentagonal numbers (A000326) that are the sum of six consecutive pentagonal numbers.",
			"link": [
				"Colin Barker, \u003ca href=\"/A257715/b257715.txt\"\u003eTable of n, a(n) for n = 1..417\u003c/a\u003e",
				"\u003ca href=\"/index/Rec#order_11\"\u003eIndex entries for linear recurrences with constant coefficients\u003c/a\u003e, signature (1,0,0,0,885289046402,-885289046402,0,0,0,-1,1)."
			],
			"formula": [
				"G.f.: -3*x*(17*x^10 +6808*x^9 +56840*x^8 +35265352*x^7 +19570796200*x^6 -4188939995034*x^5 +338617906232*x^4 +545777680*x^3 +65374088*x^2 +117800*x +217) / ((x -1)*(x^10 -885289046402*x^5 +1))."
			],
			"example": [
				"651 is in the sequence because P(21) = 651 = 51+70+92+117+145+176 = P(6)+ ... +P(11)."
			],
			"mathematica": [
				"CoefficientList[Series[3 (17 x^10 + 6808 x^9 + 56840 x^8 + 35265352 x^7 + 19570796200 x^6 - 4188939995034 x^5 + 338617906232 x^4 + 545777680 x^3 + 65374088 x^2 + 117800 x + 217)/((1 - x) (x^10 - 885289046402 x^5 + 1)), {x, 0, 33}], x] (* _Vincenzo Librandi_, May 06 2015 *)",
				"LinearRecurrence[{1,0,0,0,885289046402,-885289046402,0,0,0,-1,1},{651,354051,196476315,1833809355,1017687528051,564774036750651,313425981747606051,173938318056614696235,1623451323680702588835,900947621231988101541051,499988268427580436128625651},20] (* _Harvey P. Dale_, Dec 14 2015 *)"
			],
			"program": [
				"(PARI) Vec(-3*x*(17*x^10 +6808*x^9 +56840*x^8 +35265352*x^7 +19570796200*x^6 -4188939995034*x^5 +338617906232*x^4 +545777680*x^3 +65374088*x^2 +117800*x +217) / ((x -1)*(x^10 -885289046402*x^5 +1)) + O(x^100))"
			],
			"xref": [
				"Cf. A000326, A133301, A257714, A259402, A259403, A259404."
			],
			"keyword": "nonn,easy",
			"offset": "1,1",
			"author": "_Colin Barker_, May 05 2015",
			"references": 5,
			"revision": 13,
			"time": "2015-12-14T14:48:30-05:00",
			"created": "2015-05-06T04:01:30-04:00"
		}
	]
}