{
	"greeting": "Greetings from The On-Line Encyclopedia of Integer Sequences! http://oeis.org/",
	"query": "id:A257618",
	"count": 1,
	"start": 0,
	"results": [
		{
			"number": 257618,
			"data": "1,2,2,4,40,4,8,472,472,8,16,4928,16992,4928,16,32,49824,433984,433984,49824,32,64,499584,9505728,22567168,9505728,499584,64,128,4999040,192085632,909941120,909941120,192085632,4999040,128",
			"name": "Triangle read by rows: T(n,k) = t(n-k, k); t(n,m) = f(m)*t(n-1,m) + f(n)*t(n,m-1), where f(x) = 8*x + 2.",
			"comment": [
				"Row sums are: 1, 4, 48, 960, 26880, 967680, 42577920, 2214051840, 132843110400, 9033331507200, ... (see A144828)."
			],
			"formula": [
				"T(n,k) = t(n-k, k); t(0,0) = 1, t(n,m) = 0 if n \u003c 0 or m \u003c 0, else t(n,m) = f(m)*t(n-1,m) + f(n)*t(n,m-1), where f(x) = 8*x + 2."
			],
			"example": [
				"1",
				"2 2",
				"4 40 4",
				"8 472 472 8",
				"16 4928 16992 4928 16",
				"32 49824 433984 433984 49824 32",
				"64 499584 9505728 22567168 9505728 499584 64",
				"128 4999040 192085632 909941120 909941120 192085632 4999040 128"
			],
			"xref": [
				"Cf. A167884.",
				"Cf. A038208, A256890, A257609, A257610, A257612, A257614, A257616, A257617, A257619.",
				"Similar sequences listed in A256890."
			],
			"keyword": "nonn,tabl",
			"offset": "0,2",
			"author": "_Dale Gerdemann_, May 09 2015",
			"references": 8,
			"revision": 18,
			"time": "2015-11-04T11:17:36-05:00",
			"created": "2015-05-10T13:53:21-04:00"
		}
	]
}