{
	"greeting": "Greetings from The On-Line Encyclopedia of Integer Sequences! http://oeis.org/",
	"query": "id:A257091",
	"count": 1,
	"start": 0,
	"results": [
		{
			"number": 257091,
			"data": "0,1,1,2,1,2,1,3,2,2,1,3,1,2,2,4,1,3,1,3,2,2,1,4,2,2,3,3,1,3,1,6,2,2,2,4,1,2,2,4,1,3,1,3,3,2,1,5,2,3,2,3,1,4,2,4,2,2,1,4,1,2,3,7,2,3,1,3,2,3,1,5,1,2,3,3,2,3,1,5,4,2,1,4,2,2,2,4,1,4,2,3,2,2,2,7,1,3,3,4",
			"name": "a(n) = log_5 (A256693(n)).",
			"comment": [
				"a(n) is the logarithm to the base 5 of the denominator of the Dirichlet series of zeta(s)^(1/5). For details, see A256693."
			],
			"link": [
				"Robert Israel and Wolfgang Hintze, \u003ca href=\"/A257091/b257091.txt\"\u003eTable of n, a(n) for n = 1..10000\u003c/a\u003e (up to 500 from Wolfgang Hintze)",
				"MathOverflow, \u003ca href=\"http://mathoverflow.net/questions/238725/the-number-of-prime-factors-of-a-natural-number/238726#238726\"\u003eThe number of prime factors of a natural number\u003c/a\u003e."
			],
			"formula": [
				"5^a(n) = A256693(n).",
				"For n\u003c=10000, if n = Product_i p_i^(e_i) is the prime factorization of n, a(n) = A001222(n) + Sum_i floor(e_i/5). - _Robert Israel_, May 13 2016",
				"If n = Product_i p_i^(e_i) is the prime factorization of n, a(n) = Sum_{j \u003e= 0} Sum_i floor(e_i/5^j). - _Robert Israel_, May 16 2016"
			],
			"maple": [
				"F:= proc(n) local e,m;",
				"add(add(floor(e/5^m),m=0..floor(log[5](e))),e=map(t-\u003e t[2],ifactors(n)[2]));",
				"end proc:",
				"seq(F(i),i=1..100);"
			],
			"mathematica": [
				"F[n_] := Sum[Sum[Floor[e/5^m], {m, 0, Floor[Log[5, e]]}], {e, FactorInteger[n][[All, 2]]}];",
				"F[1] = 0;",
				"Array[F, 100] (* _Jean-François Alcover_, Jun 18 2020, after Maple *)"
			],
			"xref": [
				"Cf. A046645 (k = 2, log_2), A257089 (k = 3, log_3), A257090 (k = 4, log_2), A257091 (k = 5, log_5)."
			],
			"keyword": "nonn",
			"offset": "1,4",
			"author": "_Wolfgang Hintze_, Apr 16 2015",
			"references": 3,
			"revision": 26,
			"time": "2020-06-18T08:30:24-04:00",
			"created": "2015-04-16T15:27:32-04:00"
		}
	]
}