{
	"greeting": "Greetings from The On-Line Encyclopedia of Integer Sequences! http://oeis.org/",
	"query": "id:A258465",
	"count": 1,
	"start": 0,
	"results": [
		{
			"number": 258465,
			"data": "1,56,1762,41143,795657,13499449,208050040,2979881876,40300054520,520576172762,6478447651345,78185947269684,919805200917658,10591351937396242,119764715367192468,1333512940732309728,14652754322423701707,159182411488944508232",
			"name": "Number of partitions of n into parts of exactly 10 sorts which are introduced in ascending order.",
			"comment": [
				"In general, column k\u003e1 of A256130 is asymptotic to c*k^n, where c = 1/(k!*Product_{n\u003e=1} (1-1/k^n)) = 1/(k!*QPochhammer[1/k, 1/k]). - _Vaclav Kotesovec_, Jun 01 2015"
			],
			"link": [
				"Alois P. Heinz, \u003ca href=\"/A258465/b258465.txt\"\u003eTable of n, a(n) for n = 10..1000\u003c/a\u003e"
			],
			"formula": [
				"a(n) ~ c * 10^n, where c = 1/(10!*Product_{n\u003e=1} (1-1/10^n)) = 1/(10!*QPochhammer[1/10, 1/10]) = 0.0000003096292864992979803727261336621564... . - _Vaclav Kotesovec_, Jun 01 2015"
			],
			"maple": [
				"b:= proc(n, i, k) option remember; `if`(n=0, 1, `if`(i\u003c1, 0,",
				"      b(n, i-1, k) +`if`(i\u003en, 0, k*b(n-i, i, k))))",
				"    end:",
				"T:= (n, k)-\u003e add(b(n$2, k-i)*(-1)^i/(i!*(k-i)!), i=0..k):",
				"a:= n-\u003e T(n,10):",
				"seq(a(n), n=10..30);"
			],
			"mathematica": [
				"b[n_, i_, k_] := b[n, i, k] = If[n == 0, 1, If[i \u003c 1, 0, b[n, i - 1, k] + If[i \u003e n, 0, k b[n - i, i, k]]]];",
				"T[n_, k_] := Sum[b[n, n, k - i] (-1)^i/(i! (k - i)!), {i, 0, k}];",
				"Table[T[n, 10], {n, 10, 30}] (* _Jean-François Alcover_, Dec 07 2020, after _Alois P. Heinz_ *)"
			],
			"xref": [
				"Column k=10 of A256130.",
				"Cf. A320552."
			],
			"keyword": "nonn",
			"offset": "10,2",
			"author": "_Alois P. Heinz_, May 30 2015",
			"references": 3,
			"revision": 16,
			"time": "2020-12-07T14:00:07-05:00",
			"created": "2015-05-31T01:46:11-04:00"
		}
	]
}