{
	"greeting": "Greetings from The On-Line Encyclopedia of Integer Sequences! http://oeis.org/",
	"query": "id:A258635",
	"count": 1,
	"start": 0,
	"results": [
		{
			"number": 258635,
			"data": "8,50,130,264,511,830,1408,2150,3370,4440,6789,8523,12040,15918,21093,25067,33736,39265,50407,61663,75967,86154,106965,126656,151573,176764,208836,230806,275399,301753,349082,397630,454178,512455,587697,633984",
			"name": "Number of length 4 1..(n+1) arrays with every leading partial sum divisible by 2, 3, 5 or 7",
			"comment": [
				"Row 4 of A258631"
			],
			"link": [
				"R. H. Hardin, \u003ca href=\"/A258635/b258635.txt\"\u003eTable of n, a(n) for n = 1..210\u003c/a\u003e"
			],
			"example": [
				"Some solutions for n=8",
				"..4....9....4....7....9....8....5....6....4....3....6....4....6....6....6....5",
				"..4....9....5....9....6....7....1....1....3....2....3....3....3....9....1....1",
				"..1....6....1....9....3....5....8....8....9....5....9....7....1....6....9....6",
				"..3....8....2....3....9....6....2....3....9....8....4....2....6....3....2....9"
			],
			"xref": [
				"Cf. A258631"
			],
			"keyword": "nonn",
			"offset": "1,1",
			"author": "_R. H. Hardin_, Jun 06 2015",
			"references": 1,
			"revision": 4,
			"time": "2015-06-06T08:43:49-04:00",
			"created": "2015-06-06T08:43:49-04:00"
		}
	]
}