{
	"greeting": "Greetings from The On-Line Encyclopedia of Integer Sequences! http://oeis.org/",
	"query": "id:A258035",
	"count": 1,
	"start": 0,
	"results": [
		{
			"number": 258035,
			"data": "2,37,3,7,13,277,2617,43,2924263,300999679,631112173,1368737917,4428230508349",
			"name": "Smallest prime number p such that p + pssq(1), p + pssq(2), ... p + pssq(n) are all prime but p+pssq(n+1) is not, where pssq(n) is the partial sum of the square of the proper terms of the primorial (A189997(n)-1).",
			"link": [
				"Carlos Rivera's Prime Puzzles, \u003ca href=\"http://www.primepuzzles.net/puzzles/puzz_782.htm\"\u003ePrime Generating Non-Polynomials\u003c/a\u003e"
			],
			"example": [
				"a(3) = 7 because 7 + 4, 7 + 40 and 7 + 940 are primes, but 7 + 45040 = 107 * 421 is not."
			],
			"xref": [
				"Cf. A257466 (analog for partial primorial sum), A257467 (analog for primorial squared)."
			],
			"keyword": "hard,more,nonn",
			"offset": "0,1",
			"author": "_Fred Schneider_, May 16 2015",
			"references": 0,
			"revision": 20,
			"time": "2015-07-09T20:08:57-04:00",
			"created": "2015-07-09T20:08:57-04:00"
		}
	]
}