{
	"greeting": "Greetings from The On-Line Encyclopedia of Integer Sequences! http://oeis.org/",
	"query": "id:A258525",
	"count": 1,
	"start": 0,
	"results": [
		{
			"number": 258525,
			"data": "14184,92996,523716,1455282,3806582,11711440,35610562,114007482,361659778,1120640520,3663319530,11761984674,37533685074,120519971192,385359250346,1242349766402,4027691968226,12950233669160,41756033526570",
			"name": "Number of (n+2)X(3+2) 0..1 arrays with every 3X3 subblock sum of the two maximums of the central row and central column plus the two minimums of the diagonal and antidiagonal nondecreasing horizontally, vertically and ne-to-sw antidiagonally",
			"comment": [
				"Column 3 of A258530"
			],
			"link": [
				"R. H. Hardin, \u003ca href=\"/A258525/b258525.txt\"\u003eTable of n, a(n) for n = 1..210\u003c/a\u003e"
			],
			"formula": [
				"Empirical: a(n) = 2*a(n-1) +11*a(n-2) -8*a(n-3) -27*a(n-4) +14*a(n-5) -83*a(n-6) -1344*a(n-7) +68*a(n-8) +8440*a(n-9) +5152*a(n-10) -15424*a(n-11) -28416*a(n-12) +17280*a(n-13) +47104*a(n-14) -32768*a(n-15) for n\u003e23"
			],
			"example": [
				"Some solutions for n=2",
				"..0..0..0..0..1....0..1..0..1..1....0..1..1..1..0....1..0..1..0..0",
				"..0..1..1..1..1....0..0..1..0..1....0..0..0..1..1....0..0..0..0..0",
				"..1..1..0..0..1....0..0..1..0..0....0..1..1..1..1....0..0..0..1..1",
				"..0..1..0..1..0....0..1..0..1..0....0..1..1..0..1....0..1..0..0..1"
			],
			"xref": [
				"Cf. A258530"
			],
			"keyword": "nonn",
			"offset": "1,1",
			"author": "_R. H. Hardin_, Jun 02 2015",
			"references": 1,
			"revision": 4,
			"time": "2015-06-02T09:12:14-04:00",
			"created": "2015-06-02T09:12:14-04:00"
		}
	]
}