{
	"greeting": "Greetings from The On-Line Encyclopedia of Integer Sequences! http://oeis.org/",
	"query": "id:A258413",
	"count": 1,
	"start": 0,
	"results": [
		{
			"number": 258413,
			"data": "34,79,479,1529,2879,4895,8873,14243,26879,62498,79999,295285,559571,589219,644735,799999,2012897,2181600,2233033,2395488,6399839,7453541,7922023,8598719,22928034,26861727,37894930,55056372,63652895,76820471,144726608,174044214",
			"name": "Numbers n such that antisigma(n) contains sigma(n) as a substring.",
			"comment": [
				"Prime numbers in the sequence: 79, 479, 2879, 14243, 26879, 79999, 559571, 589219 ...",
				"The primes of the form 8*10^k-1, for k\u003e0, like 79 or 79999, are members. See A056721. - _Giovanni Resta_, Jun 08 2015"
			],
			"link": [
				"Giovanni Resta, \u003ca href=\"/A258413/b258413.txt\"\u003eTable of n, a(n) for n = 1..55\u003c/a\u003e (terms \u003c 6*10^10)"
			],
			"example": [
				"sigma(34) = 54 and antisigma(34) = 34*35/2 - 54  = 541 that contains 54 as a substring;",
				"sigma(79) = 80 and antisigma(79) = 79*80/2 - 80 = 3080 that contains 80 as a substring; sigma(479) = 480 and antisigma(479) = 479*480/2 - 480 = 114480 that contains 480 as a substring;"
			],
			"maple": [
				"with(numtheory): P:=proc(q) local a,b,c,d,j,k,n;",
				"for n from 1 to q do a:=sigma(n); c:=ilog10(a)+1; b:=n*(n+1)/2-sigma(n); d:=ilog10(b)+1; for k from 0 to d-c do j:=trunc(b/10^k);",
				"if a=j-trunc(j/10^c)*10^c then print(n); break; fi; od; od; end: P(10^9);"
			],
			"mathematica": [
				"fQ[n_]:=StringMatchQ[ToString[n*(n+1)/2-DivisorSigma[1,n]],___~~ToString[DivisorSigma[1,n]]~~___];Select[Range[10^5],fQ[#]\u0026] (* _Ivan N. Ianakiev_, Jun 18 2015 *)"
			],
			"xref": [
				"Cf. A000203, A024816, A255968, A056721."
			],
			"keyword": "nonn,base",
			"offset": "1,1",
			"author": "_Paolo P. Lava_, May 29 2015",
			"ext": [
				"a(16)-a(32) from _Giovanni Resta_, Jun 08 2015"
			],
			"references": 1,
			"revision": 22,
			"time": "2015-06-20T08:38:57-04:00",
			"created": "2015-06-18T04:09:32-04:00"
		}
	]
}