{
	"greeting": "Greetings from The On-Line Encyclopedia of Integer Sequences! http://oeis.org/",
	"query": "id:A258133",
	"count": 1,
	"start": 0,
	"results": [
		{
			"number": 258133,
			"data": "1,0,0,0,2,-2,2,0,0,0,3,-3,3,0,0,0,4,-4,4,0,0,0,5,-5,5,0,0,0,6,-6,6,0,0,0,7,-7,7,0,0,0,8,-8,8,0,0,0,9,-9,9,0,0,0,10,-10,10,0,0,0,11,-11,11,0,0,0,12,-12,12,0,0,0,13,-13,13,0,0,0,14",
			"name": "Expansion of tri-digit zeros interlaced with an arithmetic progression of positive and negative numbers.",
			"comment": [
				"This series is observed as the second difference in the expansion of 1/((1-x)*(1-x^2)*(1-x^3)*(1-x^6)) (A029000), a sequence noted for its interlaced and structural coordination numbers."
			],
			"link": [
				"Colin Barker, \u003ca href=\"/A258133/b258133.txt\"\u003eTable of n, a(n) for n = 0..1000\u003c/a\u003e",
				"\u003ca href=\"/index/Rec#order_10\"\u003eIndex entries for linear recurrences with constant coefficients\u003c/a\u003e, signature (-1,0,1,1,0,1,1,0,-1,-1)."
			],
			"formula": [
				"a(n) = -a(n-1) + a(n-3) + a(n-4) + a(n-6) + a(n-7) - a(n-9) - a(n-10). a(6*k-2) = -a(6*k-1) = a(6*k) = k+1 for k \u003e= 1.",
				"G.f.: (x^9-x^7-x^6+x^4-x^3+x+1) / ((x-1)^2*(x+1)^2*(x^2-x+1)*(x^2+x+1)^2). - _Colin Barker_, May 24 2015",
				"a(n) = -a(-14-n) for all n in Z. - _Michael Somos_, Jun 07 2015"
			],
			"example": [
				"G.f. = 1 + 2*x^4 - 2*x^5 + 2*x^6 + 3*x^10 - 3*x^11 + 3*x^12 + 4*x^16 + ..."
			],
			"mathematica": [
				"a[ n_] := With[ {m=n-1}, If[ OddQ[ Quotient[ m, 3]], Quotient[ m+9, 6] (-1)^Mod[m, 3], 0]]; (* _Michael Somos_, Jun 07 2015 *)"
			],
			"program": [
				"(PARI) Vec((x^9-x^7-x^6+x^4-x^3+x+1)/((x-1)^2*(x+1)^2*(x^2-x+1)*(x^2+x+1)^2) + O(x^100)) \\\\ _Colin Barker_, May 24 2015",
				"(PARI) {a(n) = n--; if(n\\3%2, (n+9)\\6 * (-1)^(n%3), 0)}; /* _Michael Somos_, Jun 07 2015 */"
			],
			"keyword": "sign,easy",
			"offset": "0,5",
			"author": "_Avi Friedlich_, May 21 2015",
			"references": 1,
			"revision": 35,
			"time": "2015-06-13T00:55:38-04:00",
			"created": "2015-05-31T17:19:25-04:00"
		}
	]
}