{
	"greeting": "Greetings from The On-Line Encyclopedia of Integer Sequences! http://oeis.org/",
	"query": "id:A258382",
	"count": 1,
	"start": 0,
	"results": [
		{
			"number": 258382,
			"data": "144,441,1584,4851,10404,12544,14544,14884,15984,27648,40401,44521,44541,48841,48951,84672,114444,137984,144144,159984,409739,441441,444411,489731,489951,937904,1004004,1022121,1024144,1042441,1044484,1050804",
			"name": "Non-palindromic numbers n such that the square root of n multiplied by the reversal of n is a palindrome.",
			"comment": [
				"This sequence is infinite, because it contains several infinite subsequences such as: sqrt(1584*4851)=2772, sqrt(15984*48951)=27972, sqrt(159..984*489...951)=279...972.",
				"It appears that the first (or last) digit is never 5, 6 or 7."
			],
			"link": [
				"Pieter Post and Giovanni Resta, \u003ca href=\"/A258382/b258382.txt\"\u003eTable of n, a(n) for n = 1..1124\u003c/a\u003e (first 246 terms from Pieter Post, terms \u003c 10^12)"
			],
			"formula": [
				"Numbers n such that sqrt(n*reversal(n)) is a palindrome, where n is not a palindrome."
			],
			"example": [
				"27648 is in the sequence because sqrt(27648*84672)=48384."
			],
			"mathematica": [
				"palQ[n_] := Block[{d = IntegerDigits@ n}, And[IntegerQ@ n, d == Reverse@ d]]; Select[Range@ 100000, And[! palQ@ #, palQ[Sqrt[# FromDigits@ Reverse@ IntegerDigits@ #]]] \u0026] (* _Michael De Vlieger_, May 28 2015 *)"
			],
			"program": [
				"(Python)",
				"for n in range (1, 10**9):",
				"....y=int(str(n)[::-1])",
				"....ya=int(pow(n*y,1/2))",
				"....if ya==int(str(ya)[::-1]) and n*y==ya**2 and n!=y:",
				"........print (n)",
				"(PARI) rev(k) = subst(Polrev(digits(k)), x, 10);",
				"isok(n) = {rn = rev(n); if (rn != n, nrn = n*rn; issquare(nrn) \u0026\u0026 (y=sqrtint(nrn)) \u0026\u0026 (y == rev(y)););} \\\\ _Michel Marcus_, May 29 2015"
			],
			"xref": [
				"Cf. A002113, A002778, A059744, A004086, A117281."
			],
			"keyword": "nonn,base",
			"offset": "1,1",
			"author": "_Pieter Post_, May 28 2015",
			"references": 1,
			"revision": 40,
			"time": "2015-07-19T11:12:49-04:00",
			"created": "2015-07-19T11:12:49-04:00"
		}
	]
}