{
	"greeting": "Greetings from The On-Line Encyclopedia of Integer Sequences! http://oeis.org/",
	"query": "id:A258130",
	"count": 1,
	"start": 0,
	"results": [
		{
			"number": 258130,
			"data": "1045,1325345,1910970885,2755618515265,3973599987865685,5729928426883626945,8262552817966202013445,11914595433578836419585185,17180838352667864150839647765,24774756989951626526674352316385,35725182398671892783600265200403845",
			"name": "Octagonal numbers (A000567) that are the sum of ten consecutive octagonal numbers.",
			"link": [
				"Colin Barker, \u003ca href=\"/A258130/b258130.txt\"\u003eTable of n, a(n) for n = 1..316\u003c/a\u003e",
				"\u003ca href=\"/index/Rec#order_03\"\u003eIndex entries for linear recurrences with constant coefficients\u003c/a\u003e, signature (1443,-1443,1)."
			],
			"formula": [
				"G.f.: -95*x*(63*x^2 - 1922*x + 11)/((x - 1)*(x^2 - 1442*x + 1))."
			],
			"example": [
				"1045 is in the sequence because Oct(19) = 1045 = 1+8+21+40+65+96+133+176+225+280 = Oct(1) + ... + Oct(10)."
			],
			"mathematica": [
				"CoefficientList[Series[-95 x (63 x^2 - 1922 x + 11)/((x - 1) (x^2 - 1442 x + 1)), {x, 0, 50}], x] (* _G. C. Greubel_, Oct 18 2017 *)",
				"LinearRecurrence[{1443,-1443,1},{1045,1325345,1910970885},20] (* _Harvey P. Dale_, Jul 25 2019 *)"
			],
			"program": [
				"(PARI) Vec(-95*x*(63*x^2-1922*x+11)/((x-1)*(x^2-1442*x+1)) + O('x^20))"
			],
			"xref": [
				"Cf. A000567, A258128, A258129, A258131, A258132."
			],
			"keyword": "nonn,easy",
			"offset": "1,1",
			"author": "_Colin Barker_, May 21 2015",
			"references": 5,
			"revision": 13,
			"time": "2019-07-25T15:25:54-04:00",
			"created": "2015-05-21T09:28:15-04:00"
		}
	]
}