{
	"greeting": "Greetings from The On-Line Encyclopedia of Integer Sequences! http://oeis.org/",
	"query": "id:A258320",
	"count": 1,
	"start": 0,
	"results": [
		{
			"number": 258320,
			"data": "49639,496390,736968,4963900,7369680,7989889,8962888,49639000,73696800,79898890,89628880,284799946,467995756,468754968,479593884,479698887,493968877,496390000,736968000,789499856,795875871,796999858,798968787,798988900,896288800",
			"name": "Sum of the digits of n exceeds the sum of the digits of n^2 and the sum of digits of n^3.",
			"comment": [
				"Intersection of A064399 and A064209."
			],
			"link": [
				"Giovanni Resta, \u003ca href=\"/A258320/b258320.txt\"\u003eTable of n, a(n) for n = 1..463\u003c/a\u003e (terms \u003c 2^(128/3))"
			],
			"example": [
				"n = 49639 is in the sequence because sod(n) = 31, sod(n^2) = 25 and  sod(n^3) = 28. Here n^2 = 2464030321 and n^3 = 122312001104119."
			],
			"mathematica": [
				"sod[n_]:=Plus@@ IntegerDigits@ n; Select[Range[10^6], sod[#^3] \u003c sod@# \u0026\u0026 sod[#^2] \u003c sod@# \u0026]"
			],
			"xref": [
				"Cf. A064399, A064209."
			],
			"keyword": "nonn,base",
			"offset": "1,1",
			"author": "_Giovanni Resta_, May 26 2015",
			"references": 1,
			"revision": 5,
			"time": "2015-05-26T08:08:29-04:00",
			"created": "2015-05-26T08:08:29-04:00"
		}
	]
}