{
	"greeting": "Greetings from The On-Line Encyclopedia of Integer Sequences! http://oeis.org/",
	"query": "id:A258701",
	"count": 1,
	"start": 0,
	"results": [
		{
			"number": 258701,
			"data": "0,0,1,0,0,0,2,0,4,0,0,2,1206969",
			"name": "Number of non-isomorphic DST (directed triple system) quasigroups of order n.",
			"comment": [
				"a(n) = 0 if n == 2 (mod 3)."
			],
			"link": [
				"Aleš Drápal, Terry S. Griggs, and Andrew R. Kozlik, \u003ca href=\"https://doi.org/10.1142/S0219498815500899\"\u003eBasics of DTS quasigroups: Algebra, geometry and enumeration\u003c/a\u003e Journal of Algebra and Its Applications, 14.06 (2015): 1550089.",
				"Aleš Drápal, A. Kozlik, and Terry S. Griggs, \u003ca href=\"https://doi.org/10.1016/j.disc.2011.04.025\"\u003eLatin directed triple systems\u003c/a\u003e, Discrete Mathematics, 312.3 (2012): 597-607."
			],
			"keyword": "nonn,more",
			"offset": "1,7",
			"author": "_N. J. A. Sloane_, Jun 07 2015",
			"references": 0,
			"revision": 14,
			"time": "2018-05-24T13:22:35-04:00",
			"created": "2015-06-07T21:59:13-04:00"
		}
	]
}