{
	"greeting": "Greetings from The On-Line Encyclopedia of Integer Sequences! http://oeis.org/",
	"query": "id:A258358",
	"count": 1,
	"start": 0,
	"results": [
		{
			"number": 258358,
			"data": "30,42,136,293,551,892,1765,2570,4273,6747,9770,13958,21206,28280,39702,54913,72227,94682,127095,160046,206119,263581,327790,406354,512372,616764,754412,921169,1100165,1314196,1584835,1854384,2191013,2590565,3006512,3495086",
			"name": "Sum over all partitions lambda of n into 3 distinct parts of Product_{i:lambda} prime(i).",
			"link": [
				"Alois P. Heinz, \u003ca href=\"/A258358/b258358.txt\"\u003eTable of n, a(n) for n = 6..1000\u003c/a\u003e"
			],
			"maple": [
				"g:= proc(n, i) option remember; convert(series(`if`(n=0, 1,",
				"      `if`(i\u003c1, 0, add(g(n-i*j, i-1)*(ithprime(i)*x)^j",
				"      , j=0..min(1, n/i)))), x, 4), polynom)",
				"    end:",
				"a:= n-\u003e coeff(g(n$2), x, 3):",
				"seq(a(n), n=6..60);"
			],
			"mathematica": [
				"g[n_, i_] := g[n, i] = If[n == 0, 1, If[i \u003c 1, 0, Sum[g[n - i j, i - 1] (Prime[i] x)^j, {j, 0, Min[1, n/i]}]]];",
				"a[n_] := Coefficient[g[n, n], x, 3];",
				"a /@ Range[6, 60] (* _Jean-François Alcover_, Dec 11 2020, after _Alois P. Heinz_ *)"
			],
			"xref": [
				"Column k=3 of A258323.",
				"Cf. A000040."
			],
			"keyword": "nonn",
			"offset": "6,1",
			"author": "_Alois P. Heinz_, May 27 2015",
			"references": 2,
			"revision": 9,
			"time": "2020-12-11T07:28:35-05:00",
			"created": "2015-05-27T17:19:37-04:00"
		}
	]
}