{
	"greeting": "Greetings from The On-Line Encyclopedia of Integer Sequences! http://oeis.org/",
	"query": "id:A259283",
	"count": 1,
	"start": 0,
	"results": [
		{
			"number": 259283,
			"data": "165,231,273,357,399,598,715,935,1015,1105,1547,1595,1885,1886,2015,2093,2387,2397,2451,2465,2585,2679,2737,2821,2915,3059,3445,3913,3965,4123,4991,5015,5467,5719,6097,6545,7055,7189,7285,7553,7843,8555,8569,8715,8855",
			"name": "Quasi-Carmichael numbers to at least one positive base.",
			"link": [
				"Tim Johannes Ohrtmann, \u003ca href=\"/A259283/b259283.txt\"\u003eTable of n, a(n) for n = 1..2963\u003c/a\u003e"
			],
			"example": [
				"a(1) = 165 because this is the first squarefree composite number n such that at least one positive integer b except 0 exists such that for every prime factor p of n applies that p+b divides n+b (3): 165=3*5*11 and 6, 8, 14 all divide 168."
			],
			"program": [
				"(PARI) for(n=2, 1000000, if(!isprime(n), if(issquarefree(n), f=factor(n); b=0; until(c==0 || b==n, b++; c=0; for(i=1, #f[, 1], if((n+b)%(f[i, 1]+b)\u003e0, c++)); if(c==0, print1(n, \", \"))))))"
			],
			"xref": [
				"Cf. A257750, A257759, A259282."
			],
			"keyword": "nonn",
			"offset": "1,1",
			"author": "_Tim Johannes Ohrtmann_, Jun 23 2015",
			"references": 4,
			"revision": 9,
			"time": "2015-09-21T20:38:15-04:00",
			"created": "2015-09-21T20:38:15-04:00"
		}
	]
}