{
	"greeting": "Greetings from The On-Line Encyclopedia of Integer Sequences! http://oeis.org/",
	"query": "id:A259518",
	"count": 1,
	"start": 0,
	"results": [
		{
			"number": 259518,
			"data": "38,208,1122,6100,33162,180370,981092,5336678,29029222,157906912,858948710,4672329330,25415560796,138250260726,752024907134,4090708107616,22251780062734,121040588343338,658411326480860",
			"name": "Number of (n+1) X (2+1) 0..1 arrays with each 2 X 2 subblock having clockwise pattern 0000 0001 0011 0101 or 1111.",
			"link": [
				"R. H. Hardin, \u003ca href=\"/A259518/b259518.txt\"\u003eTable of n, a(n) for n = 1..210\u003c/a\u003e"
			],
			"formula": [
				"Empirical: a(n) = 7*a(n-1) - 7*a(n-2) - 10*a(n-3) + 10*a(n-4) + 2*a(n-5).",
				"Empirical g.f.: 2*x*(19 - 29*x - 34*x^2 + 41*x^3 + 8*x^4) / (1 - 7*x + 7*x^2 + 10*x^3 - 10*x^4 - 2*x^5). - _Colin Barker_, Dec 25 2018"
			],
			"example": [
				"Some solutions for n=4:",
				"..1..0..0....1..0..0....0..1..0....0..0..1....0..0..1....1..0..0....0..1..0",
				"..0..0..0....1..0..1....0..1..0....0..0..1....0..1..0....1..0..0....0..0..1",
				"..1..1..1....0..0..1....1..0..0....0..0..0....1..0..1....0..0..0....0..1..0",
				"..0..0..0....0..0..0....0..0..1....0..0..1....0..0..0....0..0..0....0..0..0",
				"..0..0..1....1..1..1....0..1..0....1..0..1....0..1..0....1..1..0....1..0..1"
			],
			"xref": [
				"Column 2 of A259524."
			],
			"keyword": "nonn",
			"offset": "1,1",
			"author": "_R. H. Hardin_, Jun 29 2015",
			"references": 1,
			"revision": 8,
			"time": "2018-12-25T11:15:18-05:00",
			"created": "2015-06-29T15:38:10-04:00"
		}
	]
}