{
	"greeting": "Greetings from The On-Line Encyclopedia of Integer Sequences! http://oeis.org/",
	"query": "id:A259260",
	"count": 1,
	"start": 0,
	"results": [
		{
			"number": 259260,
			"data": "1,7,11,21,29,3,5,13,19,31,41,9,23,27,45,53,75,87,113,15,17,33,39,59,69,93,35,37,61,67,95,105,57,71,91,109,133,155,183,209,79,49,151,137,25,47,51,77,85,43,55,73,89,111,131,157,181,107,135,65,63,99,101,141,147,191,97,103,139,149,189,203,247,145",
			"name": "With a(1) = 1, a(n) is the smallest number not already in the sequence such that the arithmetic mean of two neighboring terms is a square.",
			"comment": [
				"Conjectured to be a permutation of the odd numbers.",
				"A259602(n) = (a(n) + a(n+1)) / 2; a(A259526(n)) = 2*n-1. - _Reinhard Zumkeller_, Jun 29 2015"
			],
			"link": [
				"Reinhard Zumkeller, \u003ca href=\"/A259260/b259260.txt\"\u003eTable of n, a(n) for n = 1..10000\u003c/a\u003e"
			],
			"mathematica": [
				"s={1}; Do[n = Last@ s; a=2; While[(b = 2*a^2 - n) \u003c= 0 || MemberQ[s, b], a++]; AppendTo[s, b], {100}]; s (* _Giovanni Resta_, Jun 23 2015 *)"
			],
			"program": [
				"(PARI) v=[1];n=1;while(#v\u003c100,s=(n+v[#v])/2;if(type(s)==\"t_INT\",if(issquare(s)\u0026\u0026!vecsearch(vecsort(v),n),v=concat(v,n);n=0));n++);v",
				"(Haskell)",
				"import Data.List (delete)",
				"a259260 n = a259260_list !! (n-1)",
				"a259260_list = 1 : f 1 [3, 5 ..] where",
				"   f x zs = g zs where",
				"     g (y:ys) = if a010052 ((x + y) `div` 2) == 1",
				"                   then y : f y (delete y zs) else g ys",
				"-- _Reinhard Zumkeller_, Jun 29 2015"
			],
			"xref": [
				"Cf. A034175, A086517.",
				"Cf. A010052, A005408.",
				"Cf. A259602, A259565, A259429, A259542."
			],
			"keyword": "nonn",
			"offset": "1,2",
			"author": "_Derek Orr_, Jun 22 2015",
			"references": 8,
			"revision": 23,
			"time": "2015-07-31T04:11:44-04:00",
			"created": "2015-06-29T08:48:43-04:00"
		}
	]
}