{
	"greeting": "Greetings from The On-Line Encyclopedia of Integer Sequences! http://oeis.org/",
	"query": "id:A259943",
	"count": 1,
	"start": 0,
	"results": [
		{
			"number": 259943,
			"data": "1,2,3,9,31,169,53281,10984777,12245367,19806045",
			"name": "Integers n dividing A000009(n)+1.",
			"comment": [
				"No other terms below 10^8."
			],
			"xref": [
				"Cf. A000009, A056848, A162468, A203023"
			],
			"keyword": "nonn,more",
			"offset": "1,2",
			"author": "_Max Alekseyev_, Jul 10 2015",
			"references": 2,
			"revision": 3,
			"time": "2015-07-10T06:55:27-04:00",
			"created": "2015-07-10T06:55:27-04:00"
		}
	]
}