{
	"greeting": "Greetings from The On-Line Encyclopedia of Integer Sequences! http://oeis.org/",
	"query": "id:A259851",
	"count": 1,
	"start": 0,
	"results": [
		{
			"number": 259851,
			"data": "48,448,708,6560,279207,350400,1050000,1837500,2480128,2600000,4687500,7562500,10762500,25712000,27337500,28650000,34912500,57450000,62568960,65312500,65871440,106505392,153456128,213939328,245600000,258332000,281600000,285650000",
			"name": "Numbers x such that x = concat(a, b) and a’ * b’ = x, where a’ and b’ are the arithmetic derivatives of a and b.",
			"link": [
				"Lars Blomberg, \u003ca href=\"/A259851/b259851.txt\"\u003eTable of n, a(n) for n = 1..58\u003c/a\u003e",
				"Michel Marcus, \u003ca href=\"/A259851/a259851.txt\"\u003ex = a' * b'\u003c/a\u003e",
				"OEIS Wiki, \u003ca href=\"http://oeis.org/wiki/Arithmetic_derivative\"\u003eArithmetic derivative\u003c/a\u003e."
			],
			"example": [
				"Consider 48 as concat(4,8). We have 4’ = 4, 8’ = 12 and 4 * 12 = 48.",
				"Consider 448 as concat(4,48). We have 4’ = 4, 48’ = 112 and 4 * 112 = 448."
			],
			"maple": [
				"isA259851 := proc(x)",
				"    local i,a,b;",
				"    for i from 1 to ilog10(n) do",
				"        a:=floor(n/10^i);",
				"        b:=n-a*10^i;",
				"        if A003415(a)*A003415(b) = x then",
				"            return true;",
				"        end  if;",
				"    end do:",
				"    false ;",
				"end proc:",
				"for n from 1 do",
				"    if isA259851(n) then",
				"        print(n) ;",
				"    end if;",
				"end do: # _R. J. Mathar_, Jul 08 2015"
			],
			"xref": [
				"Cf. A003415."
			],
			"keyword": "nonn,base",
			"offset": "1,1",
			"author": "_Paolo P. Lava_, Jul 07 2015",
			"ext": [
				"More terms from _Lars Blomberg_, Oct 03 2015"
			],
			"references": 1,
			"revision": 18,
			"time": "2015-10-15T17:28:25-04:00",
			"created": "2015-07-08T06:40:09-04:00"
		}
	]
}