{
	"greeting": "Greetings from The On-Line Encyclopedia of Integer Sequences! http://oeis.org/",
	"query": "id:A259814",
	"count": 1,
	"start": 0,
	"results": [
		{
			"number": 259814,
			"data": "4,24,92,336,1132,3720,11684,36384,110028,331720,979276,2888464,8386412,24349160,69835548,200362176,569268356,1618172568,4563244964,12875108576,36086945324,101200051112,282213901868,787411392176",
			"name": "Total length of self-avoiding walks with n bonds on the square lattice with additional bridges of length 1.",
			"link": [
				"A. J. Guttmann and Y. S. Yang, \u003ca href=\"http://dx.doi.org/10.1088/0305-4470/24/7/031\"\u003eThe shortest path of SAWs with bridges\u003c/a\u003e, Journal of Physics A: Mathematical and General 24.7 (1991): 1603-1609."
			],
			"keyword": "nonn",
			"offset": "1,1",
			"author": "_N. J. A. Sloane_, Jul 08 2015",
			"references": 0,
			"revision": 9,
			"time": "2015-07-09T12:15:32-04:00",
			"created": "2015-07-08T00:39:57-04:00"
		}
	]
}