{
	"greeting": "Greetings from The On-Line Encyclopedia of Integer Sequences! http://oeis.org/",
	"query": "id:A259133",
	"count": 1,
	"start": 0,
	"results": [
		{
			"number": 259133,
			"data": "4,6,54,96,454,574,3384,11440,12624,19446,35460,81214,95326",
			"name": "Numbers k such that 6*R_k + 7*10^k + 1 is prime, where R_k = 11...11 is the repunit (A002275) of length k.",
			"comment": [
				"Also, numbers k such that (23*10^k + 1)/3 is prime.",
				"Terms from Kamada data.",
				"a(14) \u003e 7*10^5."
			],
			"link": [
				"Makoto Kamada, \u003ca href=\"https://stdkmd.net/nrr/abbba.htm\"\u003eNear-repdigit numbers of the form ABB...BBA\u003c/a\u003e.",
				"Makoto Kamada, \u003ca href=\"https://stdkmd.net/nrr/7/76667.htm#prime\"\u003ePrime numbers of the form 766...667\u003c/a\u003e.",
				"\u003ca href=\"/index/Pri#Pri_rep\"\u003eIndex entries for primes involving repunits\u003c/a\u003e."
			],
			"example": [
				"For k=4, 6*R_4 + 7*10^k + 1 = 6666 + 70000 + 1 = 76667 which is prime."
			],
			"mathematica": [
				"Select[Range[0, 700000], PrimeQ[(23*10^#+1)/3] \u0026]"
			],
			"xref": [
				"Cf. A002275."
			],
			"keyword": "nonn,more,hard",
			"offset": "1,1",
			"author": "_Robert Price_, Jun 18 2015",
			"references": 0,
			"revision": 11,
			"time": "2021-07-08T01:30:35-04:00",
			"created": "2015-06-19T04:38:43-04:00"
		}
	]
}