{
	"greeting": "Greetings from The On-Line Encyclopedia of Integer Sequences! http://oeis.org/",
	"query": "id:A259015",
	"count": 1,
	"start": 0,
	"results": [
		{
			"number": 259015,
			"data": "0,1,214,21225,1688424,125055400,9178531200,687848686448,53435249786880,4336107249936384,368887991492608000,32948013484980000000,3090086319932923969536,304136142049322287011840,31382704663810285705887744,3390841628447041935421747200,383124440688361472000000000000",
			"name": "The number of fixed polycubes of size n that span n-4 dimensions.",
			"reference": [
				"G. Barequet, M. Shalah, Automatic Proofs for Formulae Enumerating Proper Polycubes, 31st International Symposium on Computational Geometry (SoCG’15).  Editors: Lars Arge and János Pach; pp. 19-22, 2015."
			],
			"link": [
				"Charles R Greathouse IV, \u003ca href=\"/A259015/b259015.txt\"\u003eTable of n, a(n) for n = 4..351\u003c/a\u003e",
				"G. Barequet and M. Shalah, \u003ca href=\"https://www.youtube.com/watch?v=ojNDm8qKr9A\"\u003eAutomatic Proofs for Formulae Enumerating Proper Polycubes\u003c/a\u003e (video)",
				"G. Barequet and M. Shalah, \u003ca href=\"http://dx.doi.org/10.4230/LIPIcs.SOCG.2015.19\"\u003eAutomatic Proofs for Formulae Enumerating Proper Polycubes\u003c/a\u003e (pdf file)"
			],
			"formula": [
				"a(n) = 2^(n-7)*n^(n-9)*(n-4)*(8*n^8 - 128*n^7 + 828*n^6 - 2930*n^5 + 7404*n^4 - 17523*n^3 + 41527*n^2 - 114302*n + 204960)/6."
			],
			"mathematica": [
				"Table[2^(n - 7) n^(n - 9) (n - 4) (8 n^8 - 128 n^7 + 828 n^6 - 2930 n^5 + 7404 n^4 - 17523 n^3 + 41527 n^2 - 114302 n + 204960)/6, {n, 4, 20}] (* _Michael De Vlieger_, Jun 19 2015 *)"
			],
			"program": [
				"(PARI) a(n)=2^(n-7)*n^(n-9)*(n-4)*(8*n^8-128*n^7+828*n^6 -2930*n^5 +7404*n^4-17523*n^3 +41527*n^2-114302*n +204960)/6 \\\\ _Charles R Greathouse IV_, Jun 16 2015",
				"(MAGMA) [2^(n-7)*n^(n-9)*(n-4)*(8*n^8-128*n^7+828*n^6-2930*n^5 +7404*n^4-17523*n^3+41527*n^2-114302*n+204960)/6: n in [4..20]]; // _Vincenzo Librandi_, Jun 20 2015"
			],
			"xref": [
				"Diagonal 4 of A195739."
			],
			"keyword": "nonn,easy",
			"offset": "4,3",
			"author": "_Mira Shalah_, Jun 16 2015",
			"ext": [
				"Typo in formula fixed by _Colin Barker_, Jun 16 2015"
			],
			"references": 4,
			"revision": 35,
			"time": "2021-01-05T14:47:59-05:00",
			"created": "2015-07-09T11:34:51-04:00"
		}
	]
}