{
	"greeting": "Greetings from The On-Line Encyclopedia of Integer Sequences! http://oeis.org/",
	"query": "id:A259059",
	"count": 1,
	"start": 0,
	"results": [
		{
			"number": 259059,
			"data": "227,265,307,353,403,457,515,577,643,713,787,865,947,1033,1123,1217,1315,1417,1523,1633,1747,1865,1987,2113,2243,2377,2515,2657,2803,2953,3107,3265,3427,3593,3763,3937,4115,4297,4483,4673,4867,5065,5267,5473",
			"name": "One half of numbers representable in at least two different ways as sums of four distinct nonvanishing squares. See A259058 for these numbers and their representations.",
			"comment": [
				"There may be other numbers with this property."
			],
			"reference": [
				"W. Sierpiński, 250 Problems in Elementary Number Theory, American Elsevier Publ. Comp., New York, PWN-Polish Scientific Publishers, Warszawa, 1970, Problem 227, p. 20 and p. 110."
			],
			"link": [
				"\u003ca href=\"/index/Rec#order_03\"\u003eIndex entries for linear recurrences with constant coefficients\u003c/a\u003e, signature (3,-3,1)."
			],
			"formula": [
				"a(n) = A259058(n)/2.",
				"a(n) = 2*n^2 + 36*n + 227.",
				"O.g.f.: (227 - 416*x + 193*x^2)/(1-x)^3.",
				"a(n) = 3*a(n-1)-3*a(n-2)+a(n-3). - _Vincenzo Librandi_, Aug 13 2015"
			],
			"maple": [
				"A259059:=n-\u003e2*n^2 + 36*n + 227: seq(A259059(n), n=0..50); # _Wesley Ivan Hurt_, Aug 13 2015"
			],
			"mathematica": [
				"CoefficientList[Series[(227 - 416 x + 193 x^2)/(1 - x)^3, {x, 0, 50}], x] (* _Vincenzo Librandi_, Aug 13 2015 *)"
			],
			"program": [
				"(MAGMA) [2*n^2+36*n+227: n in [0..50]] /* or */ I:=[227, 265, 307]; [n le 3 select I[n] else 3*Self(n-1)-3*Self(n-2)+Self(n-3): n in [1..50]]; // _Vincenzo Librandi_, Aug 13 2015",
				"(PARI) a(n)=2*n^2+36*n+227 \\\\ _Charles R Greathouse IV_, Jun 17 2017"
			],
			"xref": [
				"Cf. A259058."
			],
			"keyword": "nonn,easy",
			"offset": "0,1",
			"author": "_Wolfdieter Lang_, Aug 12 2015",
			"references": 2,
			"revision": 27,
			"time": "2017-06-17T02:12:33-04:00",
			"created": "2015-08-16T17:35:35-04:00"
		}
	]
}