{
	"greeting": "Greetings from The On-Line Encyclopedia of Integer Sequences! http://oeis.org/",
	"query": "id:A259883",
	"count": 1,
	"start": 0,
	"results": [
		{
			"number": 259883,
			"data": "0,0,0,1,10,100,1001,100110,100110100,1001101001001,1001101001001100110,1001101001001100110100110100,10011010010011001101001101001001101001001,100110100100110011010011010010011010010011001101001001100110",
			"name": "A005204 written in base 2.",
			"link": [
				"Eric M. Schmidt, \u003ca href=\"/A259883/b259883.txt\"\u003eTable of n, a(n) for n = 0..20\u003c/a\u003e",
				"H. W. Gould, J. B. Kim and V. E. Hoggatt, Jr., \u003ca href=\"http://www.fq.math.ca/Scanned/15-4/gould.pdf\"\u003eSequences associated with t-ary coding of Fibonacci's rabbits\u003c/a\u003e, Fib. Quart., 15 (1977), 311-318. See Table 2."
			],
			"xref": [
				"Cf. A005204, A257234."
			],
			"keyword": "nonn,base",
			"offset": "0,5",
			"author": "_N. J. A. Sloane_, Jul 10 2015",
			"ext": [
				"More terms from _Eric M. Schmidt_, Jul 11 2015"
			],
			"references": 1,
			"revision": 12,
			"time": "2015-07-11T10:21:51-04:00",
			"created": "2015-07-10T17:38:33-04:00"
		}
	]
}