{
	"greeting": "Greetings from The On-Line Encyclopedia of Integer Sequences! http://oeis.org/",
	"query": "id:A259322",
	"count": 1,
	"start": 0,
	"results": [
		{
			"number": 259322,
			"data": "1,730,16355,134004,665445,2437006,7263815,18654440,42792009,89837890,175604011,323639900,567780525,955201014,1550024335,2437528016,3728995985,5567261610,8132988019,11651731780,16401836021,22723199070,31026964695",
			"name": "Sum of sixth powers of odd numbers.",
			"link": [
				"Colin Barker, \u003ca href=\"/A259322/b259322.txt\"\u003eTable of n, a(n) for n = 1..1000\u003c/a\u003e",
				"J. L. Bailey, Jr., \u003ca href=\"http://dx.doi.org/10.1214/aoms/1177732978\"\u003eA table to facilitate the fitting of certain logistic curves\u003c/a\u003e, Annals Math. Stat., 2 (1931), 355-359.",
				"J. L. Bailey, \u003ca href=\"/A002309/a002309.pdf\"\u003eA table to facilitate the fitting of certain logistic curves\u003c/a\u003e, Annals Math. Stat., 2 (1931), 355-359. [Annotated scanned copy]",
				"F. E. Croxton and D. J. Cowden, \u003ca href=\"/A000447/a000447.pdf\"\u003eApplied General Statistics\u003c/a\u003e, 2nd Ed., Prentice-Hall, Englewood Cliffs, NJ, 1955 [Annotated scans of just pages 742-743]",
				"\u003ca href=\"/index/Rec#order_08\"\u003eIndex entries for linear recurrences with constant coefficients\u003c/a\u003e, signature (8,-28,56,-70,56,-28,8,-1)."
			],
			"formula": [
				"a(n) = (n*(-31+196*n^2-336*n^4+192*n^6))/21. - _Colin Barker_, Jun 29 2015",
				"G.f.: x*(x^6+722*x^5+10543*x^4+23548*x^3+10543*x^2+722*x+1) / (x-1)^8. - _Colin Barker_, Jun 29 2015"
			],
			"maple": [
				"f:=n-\u003eadd((2*i+1)^6,i=0..n);",
				"[seq(f(n),n=0..40)];"
			],
			"program": [
				"(PARI) Vec(x*(x^6+722*x^5+10543*x^4+23548*x^3+10543*x^2+722*x+1)/(x-1)^8 + O(x^100)) \\\\ _Colin Barker_, Jun 29 2015",
				"(PARI) a(n) = n*(192*n^6-336*n^4+196*n^2-31)/21 \\\\ _Charles R Greathouse IV_, Jun 29 2015"
			],
			"xref": [
				"Cf. A000447, A002309, A016758."
			],
			"keyword": "nonn,easy",
			"offset": "1,2",
			"author": "_N. J. A. Sloane_, Jun 24 2015",
			"references": 3,
			"revision": 19,
			"time": "2015-08-16T12:04:01-04:00",
			"created": "2015-06-24T12:22:25-04:00"
		}
	]
}