{
	"greeting": "Greetings from The On-Line Encyclopedia of Integer Sequences! http://oeis.org/",
	"query": "id:A260974",
	"count": 1,
	"start": 0,
	"results": [
		{
			"number": 260974,
			"data": "91,133,239,481,925,1873,3683,7321,14439,28529,56363,111523,220633,436539,863261,1707243,3376067,6677245,13206405,26120525,51660959,102173689,202075167,399659881,790442205,1563330291,3091935925",
			"name": "Number of (n+2)X(2+2) 0..1 arrays with each 3X3 subblock having clockwise perimeter pattern 00000001 00001001 or 00100101",
			"comment": [
				"Column 2 of A260980"
			],
			"link": [
				"R. H. Hardin, \u003ca href=\"/A260974/b260974.txt\"\u003eTable of n, a(n) for n = 1..210\u003c/a\u003e"
			],
			"formula": [
				"Empirical: a(n) = 2*a(n-2) +2*a(n-3) +a(n-4) +2*a(n-5) +6*a(n-6) +5*a(n-7) -3*a(n-8) -9*a(n-9) -8*a(n-10) -5*a(n-11) for n\u003e14"
			],
			"example": [
				"Some solutions for n=4",
				"..0..1..0..0....0..0..1..0....1..0..0..0....0..0..0..1....0..0..0..0",
				"..0..0..0..1....0..1..0..0....0..0..1..0....0..1..0..0....0..0..1..0",
				"..1..0..0..0....0..0..0..1....1..0..0..1....1..0..0..0....1..0..0..1",
				"..0..0..1..0....1..0..0..0....0..1..0..0....0..0..1..0....0..1..0..0",
				"..1..0..0..1....0..0..1..0....0..0..0..0....0..0..0..1....0..0..0..0",
				"..0..1..0..0....0..0..0..1....1..0..0..0....0..1..0..0....1..0..1..0"
			],
			"xref": [
				"Cf. A260980"
			],
			"keyword": "nonn",
			"offset": "1,1",
			"author": "_R. H. Hardin_, Aug 06 2015",
			"references": 1,
			"revision": 4,
			"time": "2015-08-06T11:12:48-04:00",
			"created": "2015-08-06T11:12:48-04:00"
		}
	]
}