{
	"greeting": "Greetings from The On-Line Encyclopedia of Integer Sequences! http://oeis.org/",
	"query": "id:A260709",
	"count": 1,
	"start": 0,
	"results": [
		{
			"number": 260709,
			"data": "2,5,13,52,241,241,436,1009,1009,1009,2641,2641,8089,8089,8089,8089,18001,18001,53881,53881,53881,53881,87481,87481,87481,87481,87481,87481,117049,117049,515761,515761,515761,515761,515761,515761,1083289,1083289,1083289,1083289",
			"name": "Smallest nonsquare congruent to a square (mod k^2) for all k = 1..n.",
			"comment": [
				"A variant of A081650 which uses the remainder modulo k^2 instead of the congruence (mod k^2).",
				"Suggested by _Don Reble_ and R. Israel and the original title of A081650."
			],
			"link": [
				"Robert Israel and Emmanuel Vantieghem, \u003ca href=\"/A260709/b260709.txt\"\u003eTable of n, a(n) for n = 1..81\u003c/a\u003e[Terms 1 through 70 were computed by R. Israel: terms 71 through 82 by E. Vantieghem. Nov 23 2015]",
				"R. Israel in reply to Don Reble, \u003ca href=\"http://list.seqfan.eu/pipermail/seqfan/2015-November/015643.html\"\u003eA081650\u003c/a\u003e, SeqFan list, Nov. 17, 2015"
			],
			"mathematica": [
				"(* to get the sequence up to B *)",
				"VQR=Table[Union[Mod[Range[(n^2)/2]^2,n^2]],{n,2,17}];",
				"Print[2];k=1;m=2;While[k\u003cB,k++;m--;flag=0;While[flag==0,Label[m$];m++;If[!IntegerQ[Sqrt[m]],j=1;While[j\u003ck,j++;If[! MemberQ[VQR[[j-1]],Mod[m,j^2]],Goto[m$]]];If[j==k,Print[m];flag=1]]]](* _Emmanuel Vantieghem_, Nov 23 2013 *)"
			],
			"program": [
				"(PARI) t=2;for(n=1,90, for(m=t,9e9,issquare(m)\u0026\u0026next; for(k=1,n,issquare(Mod(m,k^2))||next(2)); print1(t=m,\",\");break))",
				"(MATLAB)",
				"N = 2*10^8;  % to get all terms \u003c= N",
				"B = ones(1,N);",
				"B([1:floor(sqrt(N))].^2) = 0;",
				"m = 1;",
				"while true",
				"  nsq = ones(m^2,1);",
				"  sqs = unique(mod([1:m^2/2].^2, m^2));",
				"  sqs = [sqs(sqs \u003e 0), m^2];",
				"  nsq(sqs) = 0;",
				"  S = nsq * ones(1,ceil(N/m^2));",
				"  S = reshape(S,1,numel(S));",
				"  B(S(1:N)\u003e0) = 0;",
				"  v = find(B,1,'first');",
				"  if numel(v) == 0",
				"    break",
				"  end",
				"  A(m) = v;",
				"  m = m + 1;",
				"end",
				"A % _Robert Israel_, Nov 17 2015"
			],
			"xref": [
				"Cf. A081650."
			],
			"keyword": "nonn",
			"offset": "1,1",
			"author": "_M. F. Hasler_, Nov 17 2015",
			"references": 2,
			"revision": 28,
			"time": "2018-07-12T08:53:25-04:00",
			"created": "2015-11-17T18:53:00-05:00"
		}
	]
}