{
	"greeting": "Greetings from The On-Line Encyclopedia of Integer Sequences! http://oeis.org/",
	"query": "id:A260889",
	"count": 1,
	"start": 0,
	"results": [
		{
			"number": 260889,
			"data": "2,7,11,17,71,127,211,227,271,277,727,1117,1171,1217,1277,1721,1777,2111,2221,2711,2777,7121,7127,7177,7211,7717,7727,11117,11171,11177,11717,11777,12211,12227,12277,12721,17117,21121,21211,21221,21227,21277,21727",
			"name": "Primes that contain only the digits (1, 2, 7).",
			"comment": [
				"A020450, A020455 and A020459 are subsequences."
			],
			"link": [
				"Alois P. Heinz, \u003ca href=\"/A260889/b260889.txt\"\u003eTable of n, a(n) for n = 1..10000\u003c/a\u003e"
			],
			"mathematica": [
				"Select[Prime[Range[2 10^5]], Complement[IntegerDigits[#], {1, 2, 7}] == {} \u0026]",
				"Table[Select[FromDigits/@Tuples[{1,2,7},n],PrimeQ],{n,5}]//Flatten (* _Harvey P. Dale_, Apr 12 2018 *)"
			],
			"program": [
				"(MAGMA) [p: p in PrimesUpTo(3*10^4) | Set(Intseq(p)) subset [1, 2, 7]];"
			],
			"xref": [
				"Cf. Primes that contain only the digits (k,1,7): A199327 (k=0), this sequence (k=2), A260379 (k=3), A079651 (k=4), A260828 (k=5), A260891 (k=6), A260892 (k=8), A260893 (k=9).",
				"Cf. A020450, A020455, A020459."
			],
			"keyword": "nonn,easy,base",
			"offset": "1,1",
			"author": "_Vincenzo Librandi_, Aug 04 2015",
			"references": 4,
			"revision": 15,
			"time": "2018-04-12T14:46:35-04:00",
			"created": "2015-08-10T04:57:14-04:00"
		}
	]
}