{
	"greeting": "Greetings from The On-Line Encyclopedia of Integer Sequences! http://oeis.org/",
	"query": "id:A260188",
	"count": 1,
	"start": 0,
	"results": [
		{
			"number": 260188,
			"data": "1,2,2,2,2,6,6,6,6,6,6,6,6,6,6,6,6,6,6,6,6,6,6,6,6,6,6,6,6,30,30,30,30,30,30,30,30,30,30,30,30,30,30,30,30,30,30,30,30,30,30,30,30,30,30,30,30,30,30,30,30,30,30,30,30,30,30,30,30,30,30,30,30,30,30,30,30,30,30,30,30,30,30,30,30,30,30,30,30,30,30,30,30,30,30,30,30",
			"name": "Greatest primorial less than or equal to n.",
			"link": [
				"Charles R Greathouse IV, \u003ca href=\"/A260188/b260188.txt\"\u003eTable of n, a(n) for n = 1..10000\u003c/a\u003e"
			],
			"formula": [
				"a(n) = sup({A034386(i) with i in N and A034386(i) \u003c= n}.",
				"a(n) \u003e\u003e n/log n. - _Charles R Greathouse IV_, Jul 20 2015"
			],
			"example": [
				"a(5) = 2 because 2 is the greatest primorial less than or equal to 5.",
				"a(31) = 30 because 30 is the greatest primorial less than or equal to 31."
			],
			"mathematica": [
				"Table[k = 0; While[Times @@ Prime@ Range[k + 1] \u003c= n, k++]; Times @@ Prime@ Range@ k, {n, 120}] (* _Michael De Vlieger_, Aug 30 2016 *)"
			],
			"program": [
				"(PARI) a(n)=my(t=1,k); forprime(p=2,, k=t*p; if(k\u003en, return(t), t=k)) \\\\ _Charles R Greathouse IV_, Jul 20 2015"
			],
			"xref": [
				"Cf. A034386 (primorials), A048764."
			],
			"keyword": "nonn",
			"offset": "1,2",
			"author": "_Jean-Marc Rebert_, Jul 18 2015",
			"references": 8,
			"revision": 23,
			"time": "2016-08-31T10:31:12-04:00",
			"created": "2015-07-20T10:44:38-04:00"
		}
	]
}