{
	"greeting": "Greetings from The On-Line Encyclopedia of Integer Sequences! http://oeis.org/",
	"query": "id:A260146",
	"count": 1,
	"start": 0,
	"results": [
		{
			"number": 260146,
			"data": "1,1,3,12,44,264,1020,8160,19680,55104,182784,2193408,4608000,64512000,210524160,560849520,964157040,17354826720,32092508448,641850168960,1302952210560,3134374548480,9806680558080,235360333393920,374108929689600,740882390169600",
			"name": "Number of positive divisors of hyperfactorial(n).",
			"link": [
				"Matthew Campbell and Charles R Greathouse IV, \u003ca href=\"/A260146/b260146.txt\"\u003eTable of n, a(n) for n = 0..1866\u003c/a\u003e (terms 0..677 from Campbell)"
			],
			"formula": [
				"a(n) = A000005(A002109(n))."
			],
			"example": [
				"a(2) = sigma(0, hyperfactorial(2)) = sigma(0, 2^2*1^1) = sigma(0, 4). The divisors of 4 are 1, 2, and 4. The number of divisors is a(2) = 3."
			],
			"mathematica": [
				"Table[DivisorSigma[0, Hyperfactorial[n]], {n, 0, 200}]"
			],
			"program": [
				"(PARI) hf(n,p)=my(s); forstep(k=p,n,p, s+=k); if(n\u003cp^2, s, p*hf(n\\p,p)+s)",
				"a(n)=factorback(apply(p-\u003ehf(n,p)+1, primes([2,n]))) \\\\ _Charles R Greathouse IV_, Jul 17 2015"
			],
			"xref": [
				"Cf. A000005, A002109."
			],
			"keyword": "nonn,easy",
			"offset": "0,3",
			"author": "_Matthew Campbell_, Jul 17 2015",
			"references": 3,
			"revision": 26,
			"time": "2018-06-03T02:04:55-04:00",
			"created": "2015-07-18T06:46:41-04:00"
		}
	]
}