{
	"greeting": "Greetings from The On-Line Encyclopedia of Integer Sequences! http://oeis.org/",
	"query": "id:A260087",
	"count": 1,
	"start": 0,
	"results": [
		{
			"number": 260087,
			"data": "284,1210,2924,5564,6368,10856,14595,18416,66992,71145,76084,87633,88730,124155,123152,139815,153176,168730,176336,180848,203432,202444,365084,389924,430402,399592,455344,486178,514736,525915,669688,686072,652664,691256,712216,783556,796696,863835,901424,980984,1043096,1125765",
			"name": "Larger of amicable pair (x, y) as they are listed in A259933.",
			"comment": [
				"Another version of A002046.",
				"First differs from A002046 at a(9)."
			],
			"link": [
				"Laszlo Hars, \u003ca href=\"https://www.mail-archive.com/julia-users@googlegroups.com/msg04022.html\"\u003ePerformance compared to mathematica\u003c/a\u003e Julia-users (2014)",
				"Khelleos, \u003ca href=\"http://www.cyberforum.ru/lisp/thread386611.html\"\u003eAmicable numbers\u003c/a\u003e, CyberForum.ru (2011)",
				"OEIS Wiki, \u003ca href=\"https://oeis.org/wiki/Amicable_numbers\"\u003eAmicable numbers\u003c/a\u003e (This page needs work)",
				"Wikipédia, \u003ca href=\"https://hu.wikipedia.org/wiki/Barátságos_számok\"\u003eBarátságos számok\u003c/a\u003e (contains a mistake: A063990 should be replaced with A259933)"
			],
			"formula": [
				"a(n) = A259933(2n) = A259953(n) - A259933(2n-1) = A259953(n) - A260086(n)."
			],
			"xref": [
				"Cf. A002046, A063990, A259180, A259933, A259953, A260086."
			],
			"keyword": "nonn",
			"offset": "1,1",
			"author": "_Omar E. Pol_, Jul 15 2015",
			"references": 7,
			"revision": 16,
			"time": "2015-07-15T18:03:18-04:00",
			"created": "2015-07-15T18:03:18-04:00"
		}
	]
}