{
	"greeting": "Greetings from The On-Line Encyclopedia of Integer Sequences! http://oeis.org/",
	"query": "id:A260898",
	"count": 1,
	"start": 0,
	"results": [
		{
			"number": 260898,
			"data": "1123,11111111111123,1111111111111123,1111111111111111111111111111111111111123",
			"name": "Primes of the form (10^(k+2) + 107) / 9, (k \u003e 0).",
			"link": [
				"Mikk Heidemaa, \u003ca href=\"/A260898/b260898.txt\"\u003eTable of n, a(n) for n = 1..7\u003c/a\u003e"
			],
			"mathematica": [
				"Select[Table[(10^(n + 2) + 107)/9, {n, 10^3}], PrimeQ] (* or *)",
				"Select[FromDigits /@ Rest@ NestList[\"1\" \u003c\u003e # \u0026, \"23\", 10^3], PrimeQ]"
			],
			"program": [
				"(PARI) is(n)=isprime((10^(n+2) + 107)/9) \\\\ _Anders Hellström_, Nov 27 2015",
				"(MAGMA) [a: n in [1..250] | IsPrime(a) where a is (10^(n+2) + 107) div 9 ]; // _Vincenzo Librandi_, Nov 29 2015"
			],
			"xref": [
				"Cf. A004023, A260899 (values of k)."
			],
			"keyword": "nonn,base,hard,more",
			"offset": "1,1",
			"author": "_Mikk Heidemaa_, Nov 17 2015",
			"references": 2,
			"revision": 52,
			"time": "2020-01-18T07:05:49-05:00",
			"created": "2015-11-28T19:36:02-05:00"
		}
	]
}