{
	"greeting": "Greetings from The On-Line Encyclopedia of Integer Sequences! http://oeis.org/",
	"query": "id:A260656",
	"count": 1,
	"start": 0,
	"results": [
		{
			"number": 260656,
			"data": "1,2,18,396,104940,10808820,160327227060,486432806900040,72152091814676033160,105952244289903723626034120,1697305261921685687642685992397720,108004858262683508632706244802225075247640,266448824855803491635798907952730108331437779905720",
			"name": "a(n) = lcm{!2, !3, ..., !n}, where !n = A000166(n) is subfactorial.",
			"comment": [
				"a(n) \u003c= A131631(n)."
			],
			"link": [
				"Alois P. Heinz, \u003ca href=\"/A260656/b260656.txt\"\u003eTable of n, a(n) for n = 2..45\u003c/a\u003e",
				"\u003ca href=\"/index/Lc#lcm\"\u003eIndex entries for sequences related to lcm's\u003c/a\u003e"
			],
			"example": [
				"For n = 5, a(5) = lcm(!2, !3, !4, !5) = lcm(1, 2, 9, 44) = 396."
			],
			"maple": [
				"b:= proc(n) option remember;",
				"     `if`(n=0, 1, n*b(n-1)+(-1)^n)",
				"    end:",
				"a:= n-\u003e ilcm(seq(b(i), i=2..n)):",
				"seq(a(n), n=2..15);  # _Alois P. Heinz_, May 08 2020"
			],
			"mathematica": [
				"LCM@@@Subfactorial@Range[2, Range[2, 14]]"
			],
			"program": [
				"(PARI) a(n) = lcm(vector(n-1, k, if(k+1,round((k+1)!/exp(1)),1))); \\\\ _Altug Alkan_, Nov 13 2015"
			],
			"xref": [
				"Cf. A000166, A131631."
			],
			"keyword": "nonn",
			"offset": "2,2",
			"author": "_Vladimir Reshetnikov_, Nov 13 2015",
			"references": 1,
			"revision": 23,
			"time": "2020-05-08T22:55:33-04:00",
			"created": "2015-11-20T17:22:11-05:00"
		}
	]
}