{
	"greeting": "Greetings from The On-Line Encyclopedia of Integer Sequences! http://oeis.org/",
	"query": "id:A261844",
	"count": 1,
	"start": 0,
	"results": [
		{
			"number": 261844,
			"data": "1,6,21,308,798,4116,51114,126288,502947,1912318,26074881,55301652,210871038,643901916,2416831656,32128430000,64611765009,218800524222,625968110257,1971079800312,6127902153366,88805517515284,163129580373222,530136843388056",
			"name": "Number of compositions of n into distinct parts where each part i is marked with a word of length i over a senary alphabet whose letters appear in alphabetical order.",
			"comment": [
				"Also matrices with six rows of nonnegative integers with distinct positive column sums and total element sum n."
			],
			"link": [
				"Alois P. Heinz, \u003ca href=\"/A261844/b261844.txt\"\u003eTable of n, a(n) for n = 0..5000\u003c/a\u003e"
			],
			"maple": [
				"b:= proc(n, i, p) option remember;",
				"      `if`(i*(i+1)/2\u003cn, 0, `if`(n=0, p!, b(n, i-1, p)+",
				"      `if`(i\u003en, 0, b(n-i, i-1, p+1)*binomial(i+5, 5))))",
				"    end:",
				"a:= n-\u003e b(n$2, 0):",
				"seq(a(n), n=0..30);"
			],
			"xref": [
				"Column k=6 of A261835."
			],
			"keyword": "nonn",
			"offset": "0,2",
			"author": "_Alois P. Heinz_, Sep 03 2015",
			"references": 2,
			"revision": 4,
			"time": "2015-09-03T06:25:38-04:00",
			"created": "2015-09-03T06:25:38-04:00"
		}
	]
}