{
	"greeting": "Greetings from The On-Line Encyclopedia of Integer Sequences! http://oeis.org/",
	"query": "id:A261212",
	"count": 1,
	"start": 0,
	"results": [
		{
			"number": 261212,
			"data": "1,4,4,8,16,20,25,36,41,48,64,72,81,100,109,120,144,156,173,196,213,228,256,272,300,324,349,368,401,424,457,484",
			"name": "Maximum number of 1's in an fully symmetrical n X n binary matrix with no three 1's adjacent in a line along a row, column or diagonally.",
			"comment": [
				"Fully symmetrical refers to the four symmetry axes: horizontal, vertical and two diagonal.",
				"Note that a(3k+2) = 4*(1+k)^2, for k=0,...,8, but a(29) = 401."
			],
			"link": [
				"Giovanni Resta, \u003ca href=\"/A261212/a261212.pdf\"\u003eIllustration of a(6)-a(30)\u003c/a\u003e"
			],
			"formula": [
				"a(n) \u003c= A181018(n).",
				"a(3k+2) \u003e= 4*(k+1)^2."
			],
			"example": [
				"For n=4, the matrix is",
				"0 1 0",
				"1 0 1",
				"0 1 0",
				"For n=6, the matrix is",
				"1 1 0 0 1 1",
				"1 0 1 1 0 1",
				"0 1 0 0 1 0",
				"0 1 0 0 1 0",
				"1 0 1 1 0 1",
				"1 1 0 0 1 1"
			],
			"xref": [
				"Cf. A181018."
			],
			"keyword": "nonn",
			"offset": "1,2",
			"author": "_V.J. Pohjola_ and _Giovanni Resta_, Aug 12 2015",
			"references": 1,
			"revision": 22,
			"time": "2015-08-19T15:20:17-04:00",
			"created": "2015-08-19T11:32:00-04:00"
		}
	]
}