{
	"greeting": "Greetings from The On-Line Encyclopedia of Integer Sequences! http://oeis.org/",
	"query": "id:A261801",
	"count": 1,
	"start": 0,
	"results": [
		{
			"number": 261801,
			"data": "1,9,126,1704,22986,310086,4183260,56435004,761346207,10271072557,138563678736,1869317246556,25218347263608,340212470558832,4589695110222504,61918074814238448,835316485437693186,11268981358631127288,152026139882340589466",
			"name": "Number of 9-compositions of n: matrices with 9 rows of nonnegative integers with positive column sums and total element sum n.",
			"comment": [
				"Also the number of compositions of n where each part i is marked with a word of length i over a nonary alphabet whose letters appear in alphabetical order."
			],
			"link": [
				"Alois P. Heinz, \u003ca href=\"/A261801/b261801.txt\"\u003eTable of n, a(n) for n = 0..880\u003c/a\u003e"
			],
			"formula": [
				"G.f.: (1-x)^9/(2*(1-x)^9-1).",
				"a(n) = A261780(n,9)."
			],
			"maple": [
				"a:= proc(n) option remember; `if`(n=0, 1,",
				"      add(a(n-j)*binomial(j+8, 8), j=1..n))",
				"    end:",
				"seq(a(n), n=0..20);"
			],
			"xref": [
				"Column k=9 of A261780."
			],
			"keyword": "nonn,easy",
			"offset": "0,2",
			"author": "_Alois P. Heinz_, Sep 01 2015",
			"references": 2,
			"revision": 10,
			"time": "2015-09-01T10:45:59-04:00",
			"created": "2015-09-01T08:02:08-04:00"
		}
	]
}