{
	"greeting": "Greetings from The On-Line Encyclopedia of Integer Sequences! http://oeis.org/",
	"query": "id:A261648",
	"count": 1,
	"start": 0,
	"results": [
		{
			"number": 261648,
			"data": "1,10,50,180,550,1512,3820,9040,20310,43670,90472,181540,354180,674040,1254640,2289104,4101430,7228020,12546030,21473940,36281656,60565920,99974140,163297520,264110180,423211938,672244600,1059013320,1655274320,2568068120",
			"name": "Expansion of Product_{k\u003e=0} ((1+x^(2*k+1))/(1-x^(2*k+1)))^5.",
			"comment": [
				"In general, if j \u003e 0 and g.f. = Product_{k\u003e=0} ((1 + x^(2*k+1))/(1 - x^(2*k+1)))^j, then a(n) ~ exp(Pi*sqrt(j*n/2)) * j^(1/4) / (2^(j/2 + 7/4) * n^(3/4))."
			],
			"link": [
				"Vaclav Kotesovec, \u003ca href=\"http://arxiv.org/abs/1509.08708\"\u003eA method of finding the asymptotics of q-series based on the convolution of generating functions\u003c/a\u003e, arXiv:1509.08708 [math.CO], Sep 30 2015, p. 11."
			],
			"formula": [
				"a(n) ~ exp(Pi*sqrt(5*n/2)) * 5^(1/4) / (16 * 2^(1/4) * n^(3/4))."
			],
			"mathematica": [
				"nmax=60; CoefficientList[Series[Product[((1+x^(2*k+1))/(1-x^(2*k+1)))^5,{k,0,nmax}],{x,0,nmax}],x]"
			],
			"xref": [
				"Cf. A080054 (j=1), A007096 (j=2), A261647 (j=3), A014969 (j=4), A014970 (j=6), A014972 (j=8), A103261 (j=10)."
			],
			"keyword": "nonn",
			"offset": "0,2",
			"author": "_Vaclav Kotesovec_, Aug 28 2015",
			"references": 4,
			"revision": 7,
			"time": "2015-10-01T01:43:15-04:00",
			"created": "2015-08-28T05:06:38-04:00"
		}
	]
}