{
	"greeting": "Greetings from The On-Line Encyclopedia of Integer Sequences! http://oeis.org/",
	"query": "id:A261413",
	"count": 1,
	"start": 0,
	"results": [
		{
			"number": 261413,
			"data": "1,3,7,15,23,31,47,63,87,95,119,127,175,191,239,255,279,287,303,311,319,343,351,375,383,407,415,431,447,463,471,479,503,511,559,567,575,599,607,623,631,639,687,703,751,759,767,815,823,831,847,855,863,895,911,919,927,943,959,1007,1015,1023",
			"name": "Records in A109732.",
			"link": [
				"Alois P. Heinz, \u003ca href=\"/A261413/b261413.txt\"\u003eTable of n, a(n) for n = 1..20000\u003c/a\u003e"
			],
			"xref": [
				"Cf. A109732, A261412."
			],
			"keyword": "nonn",
			"offset": "1,2",
			"author": "_N. J. A. Sloane_, Aug 25 2015",
			"references": 4,
			"revision": 7,
			"time": "2015-08-27T18:40:01-04:00",
			"created": "2015-08-25T00:52:03-04:00"
		}
	]
}