{
	"greeting": "Greetings from The On-Line Encyclopedia of Integer Sequences! http://oeis.org/",
	"query": "id:A261270",
	"count": 1,
	"start": 0,
	"results": [
		{
			"number": 261270,
			"data": "3,7,29,59,239,479,3833,30671,61343,981493,3925973,62815573,502524587,2010098351,16080786809,1029170355779,4116681423119,65866902769909,263467611079637,2107740888637103,134895416872774619,17266613359715151259,1105063255021769680613",
			"name": "Base-10 representation of A261269.",
			"link": [
				"Clark Kimberling, \u003ca href=\"/A261270/b261270.txt\"\u003eTable of n, a(n) for n = 1..500\u003c/a\u003e"
			],
			"mathematica": [
				"b = 2; s = {{1}}; Do[NestWhile[# + 1 \u0026, 0, ! (PrimeQ[FromDigits[tmp = Join[Last[s],(nn = #; IntegerDigits[nn - Sum[b^n, {n, l = NestWhile[# + 1 \u0026, 1, ! (nn - (Sum[b^n, {n, #}]) \u003c 0) \u0026] - 1}], b, l + 1])], b]]) \u0026]; AppendTo[s, tmp], {30}]; Map[FromDigits, s]; Map[FromDigits, s] (* A261200 *)",
				"Map[FromDigits[#, b] \u0026, s] (* A261201 *)",
				"(* _Peter J. C. Moses_, Aug 06 2015 *)"
			],
			"xref": [
				"Cf. A261269."
			],
			"keyword": "nonn,easy,base",
			"offset": "1,1",
			"author": "_Clark Kimberling_, Sep 17 2015",
			"references": 3,
			"revision": 14,
			"time": "2020-09-25T07:13:18-04:00",
			"created": "2015-09-21T20:27:52-04:00"
		}
	]
}