{
	"greeting": "Greetings from The On-Line Encyclopedia of Integer Sequences! http://oeis.org/",
	"query": "id:A261055",
	"count": 1,
	"start": 0,
	"results": [
		{
			"number": 261055,
			"data": "1,5,14,36,83,182,382,778,1546,3013,5778,10932,20447,37867,69526,126690,229309,412570,738308,1314824,2331218,4116731,7243092,12700680,22201165,38696513,67267550,116642832,201791063,348339614,600095386,1031830006",
			"name": "Expansion of ( -1-2*x+x^2+x^3 ) / (x^2+x-1)^3 .",
			"comment": [
				"Third column of A228815."
			],
			"link": [
				"\u003ca href=\"/index/Rec#order_06\"\u003eIndex entries for linear recurrences with constant coefficients\u003c/a\u003e, signature (3,0,-5,0,3,1)."
			],
			"formula": [
				"a(n) = A001628(n) +2*A001628(n-1) -A001628(n-2) -A001628(n-3)."
			],
			"mathematica": [
				"CoefficientList[Series[(-1 - 2 x + x^2 + x^3)/(x^2 + x - 1)^3, {x, 0, 40}], x] (* or *) LinearRecurrence[{3,0,-5,0,3,1},{1,5,14,36,83,182},40] (* _Harvey P. Dale_, Nov 21 2018 *)"
			],
			"xref": [
				"Cf. A228815."
			],
			"keyword": "nonn,easy",
			"offset": "0,2",
			"author": "_R. J. Mathar_, Aug 08 2015",
			"references": 1,
			"revision": 8,
			"time": "2018-11-21T18:18:08-05:00",
			"created": "2015-08-08T10:29:11-04:00"
		}
	]
}