{
	"greeting": "Greetings from The On-Line Encyclopedia of Integer Sequences! http://oeis.org/",
	"query": "id:A261905",
	"count": 1,
	"start": 0,
	"results": [
		{
			"number": 261905,
			"data": "1,2,5,6,8,9,11,14,17,19,22,24,29,34,41",
			"name": "Numbers n with property that there is no number k in the range ceiling(sqrt(3n)) \u003c= k \u003c= floor(sqrt(4n)) with k == n mod 2.",
			"comment": [
				"Cauchy showed that this list is complete [see Dickson]."
			],
			"reference": [
				"L. E. Dickson, History of the Theory of Numbers, Vol. II, Chelsea NY 1992, see pages 18 and 284."
			],
			"maple": [
				"# Maple program that verifies that there are no other terms below 100",
				"ans:=[]; for n from 1 to 100 do",
				"t1:=ceil(sqrt(3*n)); t2:=floor(sqrt(4*n)); sw:=1;",
				"   for i from t1 to t2 do if n-i mod 2 = 0 then sw:=-1; fi; od:",
				"if sw=1 then ans:=[op(ans),n]; fi; od:",
				"ans;"
			],
			"keyword": "nonn,fini,full",
			"offset": "1,2",
			"author": "_N. J. A. Sloane_, Sep 09 2015",
			"references": 0,
			"revision": 10,
			"time": "2015-09-13T09:44:41-04:00",
			"created": "2015-09-09T10:37:47-04:00"
		}
	]
}