{
	"greeting": "Greetings from The On-Line Encyclopedia of Integer Sequences! http://oeis.org/",
	"query": "id:A261861",
	"count": 1,
	"start": 0,
	"results": [
		{
			"number": 261861,
			"data": "333051,4822430,79871395,832560780,9644631215,503145835150,1977105518235,13353202808060,72444344358890,431802346970780,2638310862477610,102808411342614000,286995037461236030,1470656290936993540,5931973064021096010,27203387338778029760",
			"name": "Number of compositions of n into distinct parts where each part i is marked with a word of length i over a denary alphabet whose letters appear in alphabetical order and all letters occur at least once in the composition.",
			"comment": [
				"Also number of matrices with ten rows of nonnegative integer entries and without zero rows or columns such that the sum of all entries is equal to n and the column sums are distinct."
			],
			"link": [
				"Alois P. Heinz, \u003ca href=\"/A261861/b261861.txt\"\u003eTable of n, a(n) for n = 10..2000\u003c/a\u003e"
			],
			"formula": [
				"a(n) = A261836(n,10)."
			],
			"maple": [
				"b:= proc(n, i, p, k) option remember;",
				"      `if`(i*(i+1)/2\u003cn, 0, `if`(n=0, p!, b(n, i-1, p, k)+",
				"      `if`(i\u003en, 0, b(n-i, i-1, p+1, k)*binomial(i+k-1, k-1))))",
				"    end:",
				"a:= n-\u003e(k-\u003eadd(b(n$2, 0, k-i)*(-1)^i*binomial(k, i), i=0..k))(10):",
				"seq(a(n), n=10..30);"
			],
			"xref": [
				"Column k=10 of A261836."
			],
			"keyword": "nonn",
			"offset": "10,1",
			"author": "_Alois P. Heinz_, Sep 03 2015",
			"references": 2,
			"revision": 4,
			"time": "2015-09-03T17:44:48-04:00",
			"created": "2015-09-03T17:44:48-04:00"
		}
	]
}