{
	"greeting": "Greetings from The On-Line Encyclopedia of Integer Sequences! http://oeis.org/",
	"query": "id:A261896",
	"count": 1,
	"start": 0,
	"results": [
		{
			"number": 261896,
			"data": "3,5,11,25,43,89,179,361,727,1459,2921,5843,11689,23383,46769,93543,187093,374193,748391,1496785,2993575,5987157,11974321,23948647,47897299,95794607,191589221,383178449,766356903,1532713827,3065427663,6130855333,12261710675,24523421357,49046842723",
			"name": "Consider the 2^n values of A162795(i)/i^2 for 2^n \u003c= i \u003c 2^(n+1); a(n) = value of i where this quantity is minimized.",
			"comment": [
				"Sequence suggested by _Omar E. Pol_.",
				"Note that all values in this sequence are odd and that a(n) is approximately 2*a(n-1)."
			],
			"reference": [
				"D. Applegate, O. E. Pol and N. J. A. Sloane, The toothpick sequence and other sequences from cellular automata, Congressus Numerantium, v. 206 (2010) 157-191."
			],
			"link": [
				"D. Applegate, O. E. Pol and N. J. A. Sloane, \u003ca href=\"/A000695/a000695_1.pdf\"\u003eThe toothpick sequence and other sequences from cellular automata\u003c/a\u003e; also available at \u003ca href=\"http://arxiv.org/abs/1004.3036\"\u003earXiv:1004.3036v2\u003c/a\u003e, [math.CO], 2010.",
				"Steven R. Finch, \u003ca href=\"/A139250/a139250_1.pdf\"\u003eToothpicks and Live Cells\u003c/a\u003e, July 21, 2015. [Cached copy, with permission of the author]",
				"N. J. A. Sloane, \u003ca href=\"/wiki/Catalog_of_Toothpick_and_CA_Sequences_in_OEIS\"\u003eCatalog of Toothpick and Cellular Automata Sequences in the OEIS\u003c/a\u003e"
			],
			"mathematica": [
				"T = 1; t[0] = 0; t[1] = 1; lst = {1};",
				"Do[twon = 2^n; Tmin = 1; imin = 1;",
				"    Do[If[i==twon, t[i]=twon,",
				"                   t[i]=2*t[i-twon]+t[i-twon+1];",
				"                   If[OddQ[i], T=T+t[i];",
				"                               Ttest=T/(i*i)];",
				"                               If[Ttest\u003cTmin, Tmin=Ttest; imin=i ]],",
				"      {i, twon, 2*twon - 1}];",
				"    AppendTo[lst, imin],",
				"    {n, 1, 15}];",
				"lst",
				"N[Tmin, 10]"
			],
			"xref": [
				"Cf. A139250, A147562, A162795, A170927, A195853, A260239, A261313, A261895."
			],
			"keyword": "nonn",
			"offset": "0,1",
			"author": "_Robert Price_, Sep 05 2015",
			"references": 1,
			"revision": 15,
			"time": "2021-02-24T02:48:19-05:00",
			"created": "2015-09-21T20:40:57-04:00"
		}
	]
}