{
	"greeting": "Greetings from The On-Line Encyclopedia of Integer Sequences! http://oeis.org/",
	"query": "id:A262169",
	"count": 1,
	"start": 0,
	"results": [
		{
			"number": 262169,
			"data": "1,1,2,5,20,87,522,3271,26167,214946,2148500,21869553,262040897,3184440794,44442180413,627992981034,9996086297542,161044694650665,2877551846402242,52059368659632095,1031291013069584902,20699996793232418643,450130761784158558067",
			"name": "Number of permutations p of [n] such that the up-down signature of 0,p has nonnegative partial sums with a maximal value \u003c= 7.",
			"link": [
				"Alois P. Heinz, \u003ca href=\"/A262169/b262169.txt\"\u003eTable of n, a(n) for n = 0..451\u003c/a\u003e"
			],
			"formula": [
				"a(n) = A262163(n,7)."
			],
			"maple": [
				"b:= proc(u, o, c) option remember; `if`(c\u003c0 or c\u003e7, 0, `if`(u+o=0,",
				"       x^c, (p-\u003e add(coeff(p, x, i)*x^max(i, c), i=0..7))(add(",
				"       b(u-j, o-1+j, c-1), j=1..u)+add(b(u+j-1, o-j, c+1), j=1..o))))",
				"    end:",
				"a:= n-\u003e (p-\u003e add(coeff(p, x, i), i=0..min(n, 7)))(b(0, n, 0)):",
				"seq(a(n), n=0..25);"
			],
			"xref": [
				"Column k=7 of A262163."
			],
			"keyword": "nonn",
			"offset": "0,3",
			"author": "_Alois P. Heinz_, Sep 13 2015",
			"references": 4,
			"revision": 4,
			"time": "2015-09-14T15:48:55-04:00",
			"created": "2015-09-14T15:48:55-04:00"
		}
	]
}