{
	"greeting": "Greetings from The On-Line Encyclopedia of Integer Sequences! http://oeis.org/",
	"query": "id:A262659",
	"count": 1,
	"start": 0,
	"results": [
		{
			"number": 262659,
			"data": "0,13031,511303115,3351130311533,333511303115333,1033351130311533301,1051033351130311533301501,35105103335113031153330150153,12135105103335113031153330150153121,12012135105103335113031153330150153121021,331201213510510333511303115333015015312102133",
			"name": "Minimal nested palindromic base-8 primes with seed 0; see Comments.",
			"comment": [
				"Using only base-8 digits 0,1,2,3,4,5,6,7 let s be a palindrome and put a(1) = s. Let a(2) be the least palindromic prime having s in the middle; for n \u003e 2, let a(n) be the least palindromic prime have a(n-1) in the middle. Then (a(n)) is the sequence of minimal nested palindromic base-8 primes with seed s."
			],
			"link": [
				"Clark Kimberling, \u003ca href=\"/A262659/b262659.txt\"\u003eTable of n, a(n) for n = 1..300\u003c/a\u003e"
			],
			"example": [
				"a(3) = 511303115 is the least base-8 prime having a(2) = 13031 in its middle. Triangular format:",
				"         0",
				"       13031",
				"     511303115",
				"   3351130311533",
				"  333511303115333",
				"1033351130311533301"
			],
			"mathematica": [
				"s = {0}; base = 8; z = 20; Do[NestWhile[# + 1 \u0026, 1, ! PrimeQ[tmp = FromDigits[Join[#, IntegerDigits[Last[s]], Reverse[#]] \u0026[IntegerDigits[#, base]], base]] \u0026];",
				"AppendTo[s, FromDigits[IntegerDigits[tmp, base]]], {z}]; s  (* A262659 *)",
				"Map[FromDigits[ToString[#], base] \u0026, s]  (* A262660 *)",
				"(* _Peter J. C. Moses_, Sep 01 2015 *)"
			],
			"xref": [
				"Cf. A261881 (base 10), A262660, A262627."
			],
			"keyword": "nonn,easy,base",
			"offset": "1,2",
			"author": "_Clark Kimberling_, Oct 27 2015",
			"references": 3,
			"revision": 6,
			"time": "2015-10-31T15:11:32-04:00",
			"created": "2015-10-31T15:11:32-04:00"
		}
	]
}