{
	"greeting": "Greetings from The On-Line Encyclopedia of Integer Sequences! http://oeis.org/",
	"query": "id:A262387",
	"count": 1,
	"start": 0,
	"results": [
		{
			"number": 262387,
			"data": "1,120,1008,28800,49896,101088000,5702400,12350257920000,43480172736000,7075668600000,206069667148800,5919216795588096000,581222138112000,8460252005694128640000,18991807088644406016000,1150594272774401495040000,33940540399314092544000,9737059611553100811150566400000,1290633707289706940160000,1263402804161736165764268432000000",
			"name": "Denominators of a semi-convergent series leading to the third Stieltjes constant gamma_3.",
			"comment": [
				"gamma_3 = + 1/120 - 17/1008 + 967/28800 - 4523/49896 + 33735311/101088000 - ..., see formulas (46)-(47) in the reference below."
			],
			"link": [
				"G. C. Greubel, \u003ca href=\"/A262387/b262387.txt\"\u003eTable of n, a(n) for n = 1..500\u003c/a\u003e",
				"Iaroslav V. Blagouchine, \u003ca href=\"http://dx.doi.org/10.1016/j.jnt.2015.06.012\"\u003eExpansions of generalized Euler's constants into the series of polynomials in 1/pi^2 and into the formal enveloping series with rational coefficients only.\u003c/a\u003e Journal of Number Theory (Elsevier), vol. 158, pp. 365-396, 2016. \u003ca href=\"http://arxiv.org/abs/1501.00740\"\u003earXiv version\u003c/a\u003e, 2015."
			],
			"formula": [
				"a(n) = denominator(-B_{2n}*(H^3_{2n-1}-3*H_{2n-1}*H^(2)_{2n-1}+2*H^(3)_{2n-1})/(2n)), where B_n, H_n and H^(k)_n are Bernoulli, harmonic and generalized harmonic numbers respectively."
			],
			"example": [
				"Denominators of -0/1, 1/120, -17/1008, 967/28800, -4523/49896, 33735311/101088000, ..."
			],
			"mathematica": [
				"a[n_] := Denominator[-BernoulliB[2*n]*(HarmonicNumber[2*n - 1]^3 - 3*HarmonicNumber[2*n - 1]*HarmonicNumber[2*n - 1, 2] + 2*HarmonicNumber[2*n - 1, 3])/(2*n)]; Table[a[n], {n, 1, 20}]"
			],
			"program": [
				"(PARI) a(n) = denominator(-bernfrac(2*n)*(sum(k=1,2*n-1,1/k)^3 -3*sum(k=1,2*n-1,1/k)*sum(k=1,2*n-1,1/k^2) + 2*sum(k=1,2*n-1,1/k^3))/(2*n));"
			],
			"xref": [
				"Cf. A001620, A002206, A195189, A075266, A262235, A001067, A006953, A082633, A262382, A262383, A086279, A262384, A262385, A086280, A262386 (numerators of this series)."
			],
			"keyword": "nonn,frac",
			"offset": "1,2",
			"author": "_Iaroslav V. Blagouchine_, Sep 20 2015",
			"references": 8,
			"revision": 20,
			"time": "2018-08-28T15:48:24-04:00",
			"created": "2015-10-02T18:47:24-04:00"
		}
	]
}