{
	"greeting": "Greetings from The On-Line Encyclopedia of Integer Sequences! http://oeis.org/",
	"query": "id:A262701",
	"count": 1,
	"start": 0,
	"results": [
		{
			"number": 262701,
			"data": "9,6,3,9,7,2,3,8,4,4,0,2,1,9,4,1,0,5,2,7,1,1,4,5,9,2,6,2,3,6,4,8,2,3,1,5,6,2,6,7,2,8,9,5,2,5,8,2,1,9,0,6,4,5,6,1,0,9,5,7,9,7,0,0,5,6,4,0,3,5,6,4,7,8,6,3,3,7,0,3,9,0,7,2,2,8,7,3,1,6,5,0,0,8,7,9,6,7,8,8,8,3,1,1,5",
			"name": "Decimal expansion of lowest Dirichlet eigenvalue of the Laplacian within a certain L-shaped region.",
			"comment": [
				"This is the lowest Dirichlet eigenvalue of the Laplacian within the famous L-shape formed by joining two unit-edged squares to adjacent edges of a third. The familiar logo of MathWorks, publisher of MATLAB, is created from the corresponding lowest eigenfunction, with some artistic license. I simply extended the original Fox-Henrici-Moler 1967 eigenvalue calculation to just over 1000 digits using a method substantially identical to the method described in the Fox et al. paper."
			],
			"link": [
				"Robert Stephen Jones, \u003ca href=\"/A262701/b262701.txt\"\u003eTable of n, a(n) for n = 1..1001\u003c/a\u003e",
				"Paolo Amore, John P. Boyd, Francisco M. Fernandez, Boris Rösler, \u003ca href=\"http://arxiv.org/abs/1509.02795\"\u003eHigh order eigenvalues for the Helmholtz equation in complicated non-tensor domains through Richardson Extrapolation of second order finite differences\u003c/a\u003e, arXiv:1509.02795 [physics.comp-ph], 2015.",
				"Timo Betcke and Lloyd N. Trefethen, \u003ca href=\"http://dx.doi.org/10.1137/S0036144503437336\"\u003eReviving the method of particular solutions\u003c/a\u003e, SIAM Rev., 47 (2004), 469-491; \u003ca href=\"http://eprints.maths.ox.ac.uk/1196/1/NA-03-12.pdf\"\u003eOxford, eprints.maths.ox.ac.uk, pdf\u003c/a\u003e.",
				"L. Fox, P. Henrici, and C. Moler, \u003ca href=\"http://www.jstor.org/stable/2949737\"\u003eApproximations and bounds for eigenvalues of elliptic operators\u003c/a\u003e, SIAM J. Numer. Anal., 4 (1967), 89-102; \u003ca href=\"http://blogs.mathworks.com/images/cleve/Fox_Henrici_Moler.pdf\"\u003eblogs.mathworks.com, eprint, pdf\u003c/a\u003e",
				"Robert S. Jones, \u003ca href=\"http://arxiv.org/abs/1602.08636\"\u003eComputing ultra-precise eigenvalues of the Laplacian within polygons\u003c/a\u003e, arXiv preprint arXiv:1602.08636, 2016",
				"MathWorks, \u003ca href=\"http://www.mathworks.com/company/newsletters/articles/the-mathworks-logo-is-an-eigenfunction-of-the-wave-equation.html\"\u003eThe mathworks logo is an eigenfunction of the wave equation\u003c/a\u003e",
				"Wikipedia, \u003ca href=\"http://en.wikipedia.org/wiki/Dirichlet_eigenvalue\"\u003eDirichlet eigenvalue\u003c/a\u003e"
			],
			"example": [
				"9.639723844021941052711459262364823156267289525821906456109579700564035647863370..."
			],
			"keyword": "nonn,cons",
			"offset": "1,1",
			"author": "_Robert Stephen Jones_, Sep 27 2015",
			"references": 2,
			"revision": 41,
			"time": "2017-12-16T18:04:54-05:00",
			"created": "2015-11-25T03:04:31-05:00"
		}
	]
}