{
	"greeting": "Greetings from The On-Line Encyclopedia of Integer Sequences! http://oeis.org/",
	"query": "id:A262376",
	"count": 1,
	"start": 0,
	"results": [
		{
			"number": 262376,
			"data": "1,1,1,4,24,139,853,5886,46198,409069,4037859,43954648,522956236,6749977023,93928268209,1401602636194,22324392524178,378011820620161,6780385526348143,128425485935180124,2561327494111820104,53652269665821260083,1177652997443428940061",
			"name": "a(n) = Sum_{k=0..n} (k! - k).",
			"link": [
				"Daniel Suteu, \u003ca href=\"/A262376/b262376.txt\"\u003eTable of n, a(n) for n = 0..100\u003c/a\u003e"
			],
			"formula": [
				"a(n) = Sum_{k=0..n} k! - k.",
				"a(n) = A003422(n+1) - A000217(n). - _Altug Alkan_, Sep 20 2015"
			],
			"example": [
				"a(3) = 4, which is the following sum: (0!-0) + (1!-1) + (2!-2) + (3!-3)."
			],
			"mathematica": [
				"Table[Sum[k! - k, {k, 0, n}], {n, 0, 22}] (* _Michael De Vlieger_, Sep 21 2015 *)"
			],
			"program": [
				"(Sidef)",
				"var sum = 0;",
				"range(0, 10).each { |n|",
				"    sum += (n! - n);",
				"    say(n, \"\\t\", sum);",
				"};",
				"(PARI) a(n)=sum(i=0,n,i!-i) \\\\ _Anders Hellström_, Sep 20 2015"
			],
			"xref": [
				"Partial sums of A005096.",
				"Cf. A003422, A000217."
			],
			"keyword": "nonn,easy",
			"offset": "0,4",
			"author": "_Daniel Suteu_, Sep 20 2015",
			"references": 1,
			"revision": 31,
			"time": "2015-10-06T08:27:55-04:00",
			"created": "2015-10-06T08:27:55-04:00"
		}
	]
}