{
	"greeting": "Greetings from The On-Line Encyclopedia of Integer Sequences! http://oeis.org/",
	"query": "id:A262096",
	"count": 1,
	"start": 0,
	"results": [
		{
			"number": 262096,
			"data": "2,6,5,8,7,5,18,17,15,14,20,19,17,16,11,24,23,21,20,15,14,26,25,23,22,17,16,14,54,53,51,50,45,44,42,41,56,55,53,52,47,46,44,43,29,60,59,57,56,51,50,48,47,33,32,62,61,59,58,53,52,50,49,35,34,32",
			"name": "Triangle read by rows: numbers c from the set of arithmetic triples a \u003c b \u003c c (three numbers in arithmetic progression) where a and b are terms of A005836.",
			"comment": [
				"The first term in each row of the triangle is a term of A005823; these are also the local maxima. From this term until the next row, the first differences are A236313."
			],
			"link": [
				"Max Barrentine, \u003ca href=\"/A262096/b262096.txt\"\u003eTable of n, a(n) for n = 1..2016\u003c/a\u003e"
			],
			"example": [
				"Each term is generated from arithmetic sequences started from pairs of terms from A005836. The order is according to the arithmetic triples 0, 1, a(1)=2; 0, 3, a(2)=6; 1, 3, a(3)=5; 0, 4, a(4)=8; 1, 4, a(5)=7; 3, 4, a(6)=5; ...",
				"As a triangle, sequence starts:",
				"   2;",
				"   6,  5;",
				"   8,  7,  5;",
				"  18, 17, 15, 14;",
				"  20, 19, 17, 16, 11;",
				"  24, 23, 21, 20, 15, 14;",
				"  26, 25, 23, 22, 17, 16, 14;",
				"  54, 53, 51, 50, 45, 44, 42, 41;",
				"  ..."
			],
			"program": [
				"(PARI) isok(n) = (n==0) || (vecmax(digits(n, 3)) != 2);",
				"lista(nn) = {oks = select(x-\u003eisok(x), vector(nn, n, n-1)); for (n=2, #oks, for (k=1, n-1, print1(2*oks[n]-oks[k], \", \");););} \\\\ _Michel Marcus_, Sep 12 2015"
			],
			"xref": [
				"Cf. A005823, A005836, A074940, A236313, A262097, A262256."
			],
			"keyword": "nonn,look,tabl,base",
			"offset": "1,1",
			"author": "_Max Barrentine_, Sep 10 2015",
			"ext": [
				"Name corrected by _Max Barrentine_, May 24 2016"
			],
			"references": 3,
			"revision": 55,
			"time": "2021-05-09T02:16:54-04:00",
			"created": "2015-10-02T17:12:37-04:00"
		}
	]
}