{
	"greeting": "Greetings from The On-Line Encyclopedia of Integer Sequences! http://oeis.org/",
	"query": "id:A262541",
	"count": 1,
	"start": 0,
	"results": [
		{
			"number": 262541,
			"data": "-3,-12,1107,33345,151593,-17376120,-544200660,-2551628817,298555990425,9538198578972,47571625958796,-5260288747038957,-171603777320158968,-932936371186135044,93260709219956914584,3120592373597958070140,18795651984942284003265",
			"name": "Bisection of A262539.",
			"link": [
				"Morris Newman, \u003ca href=\"/A262308/a262308.pdf\"\u003eFurther identities and congruences for the coefficients of modular forms\u003c/a\u003e [annotated scanned copy], Canadian J. Math 10 (1958): 577-586. See Table 1, column p=3."
			],
			"xref": [
				"Cf. A262539, A262540."
			],
			"keyword": "sign",
			"offset": "0,1",
			"author": "_N. J. A. Sloane_, Oct 04 2015",
			"references": 2,
			"revision": 4,
			"time": "2015-10-04T20:49:59-04:00",
			"created": "2015-10-04T20:49:59-04:00"
		}
	]
}