{
	"greeting": "Greetings from The On-Line Encyclopedia of Integer Sequences! http://oeis.org/",
	"query": "id:A262371",
	"count": 1,
	"start": 0,
	"results": [
		{
			"number": 262371,
			"data": "2,3,5,7,11,14,22,26,31,32,33,36,37,44,48,53,55,62,64,67,68,70,74,82,96,100,110,111,114,127,131,141,146,163,176,179,187,200,211,216,227,228,232,235,251,260,267,268,274,281,283,287,289,292,294,299,314",
			"name": "Positions of prime numbers in A262356.",
			"comment": [
				"In other words, the n-th prime appears in A262356 at position a(n). - _N. J. A. Sloane_, Sep 29 2015",
				"A262363(n) = A262356(a(n))."
			],
			"link": [
				"Reinhard Zumkeller, \u003ca href=\"/A262371/b262371.txt\"\u003eTable of n, a(n) for n = 1..1000\u003c/a\u003e"
			],
			"program": [
				"(Haskell)",
				"a262371 n = a262371_list !! (n-1)",
				"a262371_list = filter ((== 1) . a010051' . a262356) [1..]"
			],
			"xref": [
				"Cf. A262356, A010051, A262363."
			],
			"keyword": "nonn",
			"offset": "1,1",
			"author": "_Reinhard Zumkeller_, Sep 20 2015",
			"references": 3,
			"revision": 8,
			"time": "2015-09-29T09:21:51-04:00",
			"created": "2015-09-21T11:47:20-04:00"
		}
	]
}