{
	"greeting": "Greetings from The On-Line Encyclopedia of Integer Sequences! http://oeis.org/",
	"query": "id:A262833",
	"count": 1,
	"start": 0,
	"results": [
		{
			"number": 262833,
			"data": "2,3,5,7,17,31,43,47,61,71,73,89,101,103,113,127,157,173,197,199,229,239,241,269,271,281,311,337,353,367,379,383,397,409,439,449,463,479,509,521,577,607,617,631,647,661,673,677,719,743,761,827,857,887,911",
			"name": "(7,2)-primes (defined in Comments).",
			"comment": [
				"Let V = (b(1), b(2), ..., b(k)), where k \u003e 1 and b(i) are distinct integers \u003e 1 for j = 1..k. Call p a V-prime if the digits of p in base b(1) spell a prime in each of the bases b(2), ..., b(k)."
			],
			"link": [
				"Clark Kimberling, \u003ca href=\"/A262833/b262833.txt\"\u003eTable of n, a(n) for n = 1..10000\u003c/a\u003e"
			],
			"mathematica": [
				"{b1, b2} = {2, 7};",
				"u = Select[Prime[Range[6000]], PrimeQ[FromDigits[IntegerDigits[#, b1], b2]] \u0026]; (* A235477 *)",
				"v = Select[Prime[Range[6000]], PrimeQ[FromDigits[IntegerDigits[#, b2], b1]] \u0026]; (* A262833 *)",
				"w = Intersection[u, v]; (* A262834 *)",
				"(* _Peter J. C. Moses_, Sep 27 2015 *)"
			],
			"xref": [
				"Cf. A000040, A262729, A262832, A262834."
			],
			"keyword": "nonn,easy,base",
			"offset": "1,1",
			"author": "_Clark Kimberling_, Nov 01 2015",
			"references": 3,
			"revision": 6,
			"time": "2015-11-09T16:23:00-05:00",
			"created": "2015-11-09T16:23:00-05:00"
		}
	]
}