{
	"greeting": "Greetings from The On-Line Encyclopedia of Integer Sequences! http://oeis.org/",
	"query": "id:A262635",
	"count": 1,
	"start": 0,
	"results": [
		{
			"number": 262635,
			"data": "1,12121,111212111,31112121113,133111212111331,123133111212111331321,303123133111212111331321303,3030312313311121211133132130303,30303031231331112121113313213030303,3303030312313311121211133132130303033,11330303031231331112121113313213030303311",
			"name": "Minimal nested base-4 palindromic primes with seed 1.",
			"comment": [
				"Using only base-4 digits 0,1,2,3, let s be a palindrome and put a(1) = s. Let a(2) be the least palindromic prime having s in the middle; for n \u003e 2, let a(n) be the least palindromic prime have a(n-1) in the middle. Then (a(n)) is the sequence of minimal nested base-4 palindromic primes with seed s."
			],
			"link": [
				"Clark Kimberling, \u003ca href=\"/A262635/b262635.txt\"\u003eTable of n, a(n) for n = 1..300\u003c/a\u003e"
			],
			"example": [
				"a(3) = 111212111 is the least base-4 prime having a(2) = 12121 in its middle. Triangular format:",
				"          1",
				"        12121",
				"      111212111",
				"     31112121113",
				"   133111212111331",
				"123133111212111331321"
			],
			"mathematica": [
				"s = {1}; base = 4; z = 20; Do[NestWhile[# + 1 \u0026, 1, ! PrimeQ[tmp = FromDigits[Join[#, IntegerDigits[Last[s]], Reverse[#]] \u0026[IntegerDigits[#, base]], base]] \u0026];",
				"AppendTo[s, FromDigits[IntegerDigits[tmp, base]]], {z}]; s  (* A262635 *)",
				"Map[FromDigits[ToString[#], base] \u0026, s]  (* A262636 *)",
				"(* _Peter J. C. Moses_, Sep 01 2015 *)"
			],
			"xref": [
				"Cf. A261881 (base 10), A262636, A262627. Subsequence of A117699."
			],
			"keyword": "nonn,base",
			"offset": "1,2",
			"author": "_Clark Kimberling_, Oct 02 2015",
			"references": 3,
			"revision": 9,
			"time": "2015-10-23T13:42:06-04:00",
			"created": "2015-10-23T13:42:06-04:00"
		}
	]
}