{
	"greeting": "Greetings from The On-Line Encyclopedia of Integer Sequences! http://oeis.org/",
	"query": "id:A262406",
	"count": 1,
	"start": 0,
	"results": [
		{
			"number": 262406,
			"data": "1,2,5,10,17,34,37,57,74,85,101,114,170,185,197,202,219,257,273,285,370,394,401,438,451,489,505,514,546,570,577,629,677,679,802,902,969,978,985,1010,1057,1095,1154,1258,1285,1297,1354,1358,1365",
			"name": "Squarefree k such that phi(k) is a perfect square.",
			"comment": [
				"The subsequence of primes is A002496 (primes of the form k^2+1). - _Michel Marcus_, Oct 14 2015"
			],
			"link": [
				"Charles R Greathouse IV, \u003ca href=\"/A262406/b262406.txt\"\u003eTable of n, a(n) for n = 1..10000\u003c/a\u003e",
				"W. D. Banks, J. B. Friedlander, C. Pomerance and I. E. Shparlinski, \u003ca href=\"http://math.dartmouth.edu/~carlp/PDF/banksfinal2.pdf\"\u003eMultiplicative structure of values of the Euler function\u003c/a\u003e, in High Primes and Misdemeanours: Lectures in Honour of the Sixtieth Birthday of Hugh Cowie Williams (A. Van der Poorten, ed.), Fields Inst. Comm. 41 (2004), pp. 29-47."
			],
			"formula": [
				"Banks, Friedlander, Pomerance, and Shparlinski show that a(n) = O(n^1.421)."
			],
			"program": [
				"(PARI) is(n)=my(f=factor(n)); issquare(eulerphi(f)) \u0026\u0026 (n==1 || vecmax(f[,2])==1)",
				"(MAGMA) [n: n in [1..1400] | IsSquarefree(n) and IsSquare(EulerPhi(n))]; // _Vincenzo Librandi_, May 05 2016"
			],
			"xref": [
				"Intersection of A039770 and A005117.",
				"Cf. A000010, A002496, A007614, A068560, A004171, A114063."
			],
			"keyword": "nonn",
			"offset": "1,2",
			"author": "_Charles R Greathouse IV_, Oct 13 2015",
			"references": 3,
			"revision": 21,
			"time": "2021-05-25T08:10:41-04:00",
			"created": "2015-10-14T13:01:50-04:00"
		}
	]
}