{
	"greeting": "Greetings from The On-Line Encyclopedia of Integer Sequences! http://oeis.org/",
	"query": "id:A262106",
	"count": 1,
	"start": 0,
	"results": [
		{
			"number": 262106,
			"data": "7,17,54,171,554,1926,6976,25923,99597,395785",
			"name": "Number of (n+1)X(1+1) 0..2 arrays with each row nonprime and column prime, read as a base 3 number with top and left being the most significant digits.",
			"comment": [
				"Column 1 of A262109."
			],
			"example": [
				"Some solutions for n=4",
				"..0..0....2..2....0..0....0..0....2..2....2..2....0..0....2..2....0..1....2..2",
				"..0..0....2..0....2..2....0..0....2..2....0..1....0..0....1..1....0..1....0..0",
				"..0..0....2..0....2..0....0..1....0..0....2..2....0..0....2..2....2..0....0..0",
				"..1..1....1..1....2..2....0..0....2..2....0..1....1..1....1..1....1..1....0..0",
				"..2..0....2..2....1..1....2..2....1..1....1..1....2..2....1..1....2..2....1..1"
			],
			"xref": [
				"Cf. A262109."
			],
			"keyword": "nonn",
			"offset": "1,1",
			"author": "_R. H. Hardin_, Sep 11 2015",
			"references": 0,
			"revision": 4,
			"time": "2015-09-11T09:40:38-04:00",
			"created": "2015-09-11T09:40:38-04:00"
		}
	]
}