{
	"greeting": "Greetings from The On-Line Encyclopedia of Integer Sequences! http://oeis.org/",
	"query": "id:A262683",
	"count": 1,
	"start": 0,
	"results": [
		{
			"number": 262683,
			"data": "1,1,0,1,0,0,0,0,1,0,0,1,0,0,0,1,0,1,0,1,0,0,0,1,1,0,0,1,0,1,0,1,0,0,0,0,0,0,0,1,0,1,0,1,1,0,0,1,1,1,0,1,0,1,0,1,0,0,0,0,0,0,1,1,0,1,0,1,0,1,0,0,0,0,1,1,0,1,0,1,1,0,0,0,0,0,0,1,0,0,0,1,0,0,0,0,0,1,1,0,0,1,0,1,1,0,0,0,0,1,0,1,0,1,0,1,1,0,0,0,1,0,0,1,0,0,0,1",
			"name": "Characteristic function for A182859.",
			"link": [
				"Antti Karttunen, \u003ca href=\"/A262683/b262683.txt\"\u003eTable of n, a(n) for n = 1..10000\u003c/a\u003e"
			],
			"formula": [
				"a(n) = 1 - A000035(A036459(n)).",
				"a(n) = 1 - A262684(n)."
			],
			"program": [
				"(Scheme) (define (A262683 n) (- 1 (A000035 (A036459 n))))"
			],
			"xref": [
				"Cf. A000005, A000035, A036459, A182859.",
				"Binary complement: A262684.",
				"Partial sums: A262685."
			],
			"keyword": "nonn",
			"offset": "1",
			"author": "_Antti Karttunen_, Sep 28 2015",
			"references": 4,
			"revision": 6,
			"time": "2015-10-02T12:15:19-04:00",
			"created": "2015-10-02T12:15:19-04:00"
		}
	]
}