{
	"greeting": "Greetings from The On-Line Encyclopedia of Integer Sequences! http://oeis.org/",
	"query": "id:A262277",
	"count": 1,
	"start": 0,
	"results": [
		{
			"number": 262277,
			"data": "18,27,36,45,54,63,72,81,90,118,181,188,227,272,277,336,363,366,445,454,455,544,545,554,633,636,663,722,727,772,811,818,881,900,909,990,1089,1098,1118,1181,1188,1278,1287,1368,1386,1458,1485,1548,1584,1638",
			"name": "Numbers having in decimal representation the same distinct decimal digits as their 9's complement.",
			"comment": [
				"If d is a digit of any term then also 9 - d;",
				"A227362(A061601(a(n))) = A227362(a(n))."
			],
			"link": [
				"Reinhard Zumkeller, \u003ca href=\"/A262277/b262277.txt\"\u003eTable of n, a(n) for n = 1..10000\u003c/a\u003e"
			],
			"program": [
				"(Haskell)",
				"import Data.List (nub, sort)",
				"a262277 n = a262277_list !! (n-1)",
				"a262277_list = filter f [1..] where",
				"   f x = sort ds' == sort (map (9 -) ds') where",
				"     ds' = nub $ ds x",
				"     ds 0 = []; ds z = d : ds z' where (z', d) = divMod z 10"
			],
			"xref": [
				"Cf. A061601, A227362, subsequences: A111708, A050278, A171102."
			],
			"keyword": "nonn,base",
			"offset": "1,1",
			"author": "_Reinhard Zumkeller_, Sep 17 2015",
			"references": 2,
			"revision": 4,
			"time": "2015-09-17T14:23:12-04:00",
			"created": "2015-09-17T14:23:12-04:00"
		}
	]
}