{
	"greeting": "Greetings from The On-Line Encyclopedia of Integer Sequences! http://oeis.org/",
	"query": "id:A262538",
	"count": 1,
	"start": 0,
	"results": [
		{
			"number": 262538,
			"data": "-1,-7,9,-176,-673,1143,33201,315783,2210985,1790369,44496424,1040502519,-1810005816,7445790947,-134133273672,-627282760902,7903957116411,-22364317249111,-200569974966918,510174845699733,15061484475966460,42739249663260682,758042190595492047",
			"name": "Bisection of A262310.",
			"link": [
				"Morris Newman, \u003ca href=\"/A262308/a262308.pdf\"\u003eFurther identities and congruences for the coefficients of modular forms\u003c/a\u003e [annotated scanned copy], Canadian J. Math 10 (1958): 577-586. See Table 1, column p=7."
			],
			"xref": [
				"Cf. A262310, A262537."
			],
			"keyword": "sign",
			"offset": "0,2",
			"author": "_N. J. A. Sloane_, Oct 04 2015",
			"references": 2,
			"revision": 7,
			"time": "2015-10-04T20:32:48-04:00",
			"created": "2015-10-04T20:31:42-04:00"
		}
	]
}