{
	"greeting": "Greetings from The On-Line Encyclopedia of Integer Sequences! http://oeis.org/",
	"query": "id:A262273",
	"count": 1,
	"start": 0,
	"results": [
		{
			"number": 262273,
			"data": "103,10609,129481,4403641,411861253,41261408089,3605017226155,349760937840517,35889961902343951,3691924453378494385,377481144200284897993,38754821017971389203489,3991173847744285567358317",
			"name": "Number of (n+2)X(7+2) 0..1 arrays with each row and column divisible by 5, read as a binary number with top and left being the most significant bits.",
			"comment": [
				"Column 7 of A262274."
			],
			"link": [
				"R. H. Hardin, \u003ca href=\"/A262273/b262273.txt\"\u003eTable of n, a(n) for n = 1..18\u003c/a\u003e"
			],
			"example": [
				"Some solutions for n=3",
				"..1..1..0..1..0..1..0..0..1....0..0..0..0..0..1..0..1..0",
				"..0..1..0..1..0..1..0..1..0....0..1..0..1..1..1..0..0..1",
				"..1..1..1..0..1..0..0..0..1....0..0..1..0..1..1..0..1..0",
				"..0..1..0..0..0..0..0..1..0....0..1..0..1..1..1..0..0..1",
				"..0..0..1..1..1..1..0..0..0....0..0..1..0..1..0..0..0..0"
			],
			"xref": [
				"Cf. A262274."
			],
			"keyword": "nonn",
			"offset": "1,1",
			"author": "_R. H. Hardin_, Sep 17 2015",
			"references": 1,
			"revision": 4,
			"time": "2015-09-17T08:22:20-04:00",
			"created": "2015-09-17T08:22:20-04:00"
		}
	]
}