{
	"greeting": "Greetings from The On-Line Encyclopedia of Integer Sequences! http://oeis.org/",
	"query": "id:A262344",
	"count": 1,
	"start": 0,
	"results": [
		{
			"number": 262344,
			"data": "67,397,727,859,1321,2311,3037,3301,4159,8581,10891,12409,19471,28909,51217,63559,64747,78541,79861,95107,100981,108571,119659,134707,139921,156157,177211,195427,203809,221101,257797,264991,284659,287167,294757,307627,315481",
			"name": "Centered 11-gonal (or hendecagonal) primes.",
			"comment": [
				"Primes of the form (11*k^2 - 11*k + 2)/2."
			],
			"link": [
				"OEIS Wiki, \u003ca href=\"https://oeis.org/wiki/Figurate_numbers\"\u003eFigurate numbers\u003c/a\u003e",
				"Eric Weisstein's World of Mathematics, \u003ca href=\"http://mathworld.wolfram.com/CenteredPolygonalNumber.html\"\u003eCentered Polygonal Number\u003c/a\u003e",
				"Eric Weisstein's World of Mathematics, \u003ca href=\"http://mathworld.wolfram.com/PrimeNumber.html\"\u003ePrime Number\u003c/a\u003e"
			],
			"program": [
				"(PARI) for(n=1, 1e3, if(isprime(k=(11*n^2-11*n+2)/2), print1(k,\", \"))) \\\\ _Altug Alkan_, Nov 26 2015"
			],
			"xref": [
				"Cf. A069125, A000040."
			],
			"keyword": "nonn",
			"offset": "1,1",
			"author": "_Ilya Gutkovskiy_, Nov 26 2015",
			"references": 1,
			"revision": 74,
			"time": "2015-11-26T08:42:57-05:00",
			"created": "2015-11-26T08:42:57-05:00"
		}
	]
}