{
	"greeting": "Greetings from The On-Line Encyclopedia of Integer Sequences! http://oeis.org/",
	"query": "id:A262893",
	"count": 1,
	"start": 0,
	"results": [
		{
			"number": 262893,
			"data": "6,6,47,47,47,52,52,68,68,70,70,71,72,98,102,102,102,105,105,106,119,119,224,226,227,228,230,235,253,260,260,260,260,261,264,267,267,267,272,272,276,289,291,298,298,298,305,311,312,312,312,312,365,365,365,365,455,456,456,461,461,463,463,464,465,465,477,478,478,481,542,542,542,542,542,542,542,544,661,668,668,670",
			"name": "Partial sums of A262890.",
			"link": [
				"Antti Karttunen, \u003ca href=\"/A262893/b262893.txt\"\u003eTable of n, a(n) for n = 0..8107\u003c/a\u003e"
			],
			"formula": [
				"a(0) = A262890(0); for n \u003e= 1, a(n) = a(n-1) + A262890(n)."
			],
			"program": [
				"(Scheme, with memoization-macro definec)",
				"(definec (A262893 n) (if (zero? n) (A262890 0) (+ (A262893 (- n 1)) (A262890 n))))"
			],
			"xref": [
				"Cf. A262890, A262895.",
				"Cf. also A255333."
			],
			"keyword": "nonn",
			"offset": "0,1",
			"author": "_Antti Karttunen_, Oct 04 2015",
			"references": 3,
			"revision": 6,
			"time": "2015-10-04T13:09:15-04:00",
			"created": "2015-10-04T13:09:15-04:00"
		}
	]
}