{
	"greeting": "Greetings from The On-Line Encyclopedia of Integer Sequences! http://oeis.org/",
	"query": "id:A262301",
	"count": 1,
	"start": 0,
	"results": [
		{
			"number": 262301,
			"data": "1,3,26,367,7142,176766,5304356,186954535,7566084686,345664350778,17592776858796,986961816330662,60502424162842876,4023421969420255644,288464963899330354104,22180309834307193611287,1820641848410408158704734,158897008602951290424279330",
			"name": "Number of normal linear lambda terms of size n with no free variables.",
			"link": [
				"Gheorghe Coserea, \u003ca href=\"/A262301/b262301.txt\"\u003eTable of n, a(n) for n = 1..100\u003c/a\u003e",
				"Paul Tarau, Valeria de Paiva, \u003ca href=\"https://arxiv.org/abs/2009.10241\"\u003eDeriving Theorems in Implicational Linear Logic, Declaratively\u003c/a\u003e, arXiv:2009.10241 [cs.LO], 2020. See also \u003ca href=\"https://vcvpaiva.github.io/includes/pubs/2020-tarau.pdf\"\u003eGithub\u003c/a\u003e, (2020).",
				"Noam Zeilberger, \u003ca href=\"http://arxiv.org/abs/1509.07596\"\u003eCounting isomorphism classes of beta-normal linear lambda terms\u003c/a\u003e, arXiv:1509.07596 [cs.LO], 2015.",
				"Wikipedia, \u003ca href=\"https://en.wikipedia.org/wiki/Lambda_calculus\"\u003eLambda calculus\u003c/a\u003e"
			],
			"formula": [
				"A(x) = F(x,0), where A(x) = Sum_{n\u003e=1} a(n)*x^n and F(x,t) satisfies F = x*t/(1-F) + deriv(F,t), with F(0,t)=0, deriv(F,x)(0,t)=1+t. - Gheorghe Coserea, Apr 01 2017"
			],
			"example": [
				"A(x) = x + 3*x^2 + 26*x^3 + 367*x^4 + 7142*x^5 + ..."
			],
			"mathematica": [
				"terms = 18; F[_, _] = 0;",
				"Do[F[x_, t_] = Series[x t/(1-F[x, t]) + D[F[x, t], t], {x, 0, terms}, {t, 0, terms}] // Normal, {2 terms}];",
				"CoefficientList[F[x, 0], x][[2 ;; terms+1]] (* _Jean-François Alcover_, Sep 02 2018, after _Gheorghe Coserea_ *)"
			],
			"program": [
				"(PARI)",
				"F(N) = {",
				"  my(x='x+O('x^N), t='t, F0=x, F1=0, n=1);",
				"  while(n++,",
				"    F1 = x*t/(1-F0) + deriv(F0,t);",
				"    if (F1 == F0, break()); F0 = F1;);",
				"  F0;",
				"};",
				"seq(N) = Vec(subst(F(N+1), 't, 0));",
				"seq(18) \\\\ _Gheorghe Coserea_, Apr 01 2017"
			],
			"xref": [
				"Column 0 of A318110.",
				"Cf. A062980, A267827."
			],
			"keyword": "nonn",
			"offset": "1,2",
			"author": "_N. J. A. Sloane_, Sep 30 2015",
			"ext": [
				"More terms from _Gheorghe Coserea_, Apr 01 2017"
			],
			"references": 6,
			"revision": 43,
			"time": "2021-01-05T21:36:31-05:00",
			"created": "2015-09-30T10:47:05-04:00"
		}
	]
}