{
	"greeting": "Greetings from The On-Line Encyclopedia of Integer Sequences! http://oeis.org/",
	"query": "id:A263621",
	"count": 1,
	"start": 0,
	"results": [
		{
			"number": 263621,
			"data": "3,6,13,19,30,36",
			"name": "Appears to be an erroneous version of A263620.",
			"link": [
				"G. J. Simmons, \u003ca href=\"/A002778/a002778_2.pdf\"\u003ePalindromic powers\u003c/a\u003e, J. Rec. Math., 3 (No. 2, 1970), 93-98. [Annotated scanned copy] See page 95."
			],
			"keyword": "dead",
			"offset": "1,1",
			"author": "_N. J. A. Sloane_, Oct 23 2015",
			"references": 0,
			"revision": 5,
			"time": "2015-10-23T14:18:20-04:00",
			"created": "2015-10-23T14:18:02-04:00"
		}
	]
}