{
	"greeting": "Greetings from The On-Line Encyclopedia of Integer Sequences! http://oeis.org/",
	"query": "id:A263289",
	"count": 1,
	"start": 0,
	"results": [
		{
			"number": 263289,
			"data": "0,42,504,6960,113028,1428036,21015946,282937866,3899304030,54249804504,760179391290,10624299994980,148755958233888,2082595517998488,29160130611965550,408200027705513862,5715110419878541186",
			"name": "Number of (1+3)X(n+3) 0..1 arrays with each row divisible by 11 and column not divisible by 11, read as a binary number with top and left being the most significant bits.",
			"comment": [
				"Row 1 of A263288."
			],
			"link": [
				"R. H. Hardin, \u003ca href=\"/A263289/b263289.txt\"\u003eTable of n, a(n) for n = 1..210\u003c/a\u003e"
			],
			"example": [
				"Some solutions for n=4",
				"..0..1..1..0..1..1..1....1..1..0..0..0..1..1....1..1..0..0..0..1..1",
				"..1..1..1..1..0..0..1....1..0..1..1..0..0..0....0..0..0..1..0..1..1",
				"..1..0..0..1..1..0..1....0..1..0..1..1..0..0....0..0..1..0..1..1..0",
				"..1..1..1..1..0..0..1....0..0..0..1..0..1..1....0..1..0..0..0..0..1"
			],
			"xref": [
				"Cf. A263288."
			],
			"keyword": "nonn",
			"offset": "1,2",
			"author": "_R. H. Hardin_, Oct 13 2015",
			"references": 1,
			"revision": 4,
			"time": "2015-10-13T12:23:19-04:00",
			"created": "2015-10-13T12:23:19-04:00"
		}
	]
}