{
	"greeting": "Greetings from The On-Line Encyclopedia of Integer Sequences! http://oeis.org/",
	"query": "id:A263730",
	"count": 1,
	"start": 0,
	"results": [
		{
			"number": 263730,
			"data": "0,0,1,0,2,0,1,3,0,4,0,1,2,5,0,6,0,1,3,7,0,2,8,0,1,4,9,0,10,0,1,2,3,5,11,0,12,0,1,6,13,0,2,4,14,0,1,3,7,15,0,16,0,1,2,5,8,17,0,18,0,1,3,4,9,19,0,2,6,20,0,1,10,21,0,22,0,1,2,3,5,7,11,23,0,4,24,0,1,12,25",
			"name": "Irregular triangle read by rows in which row n \u003e 1 lists k such that (k^2 + k*n)/(k + 1) is an integer.",
			"comment": [
				"Minimal value of k is 0 and maximal value of k is n - 2 for n-th row.",
				"Length of rows gives A000005.",
				"Sum of rows gives A065608."
			],
			"link": [
				"Harvey P. Dale, \u003ca href=\"/A263730/b263730.txt\"\u003eTable of n, a(n) for n = 2..1000\u003c/a\u003e"
			],
			"formula": [
				"a(n) = A027750(n) - 1."
			],
			"example": [
				"  n\\k| 0   1   2   3   4   5   6   7   8   9  10",
				"  ---+------------------------------------------",
				"   0 | 0",
				"   1 | 0   1   2   3   4   5   6   7   8   9  10",
				"   2 | 0",
				"   3 | 0   1",
				"   4 | 0   2",
				"   5 | 0   1   3",
				"   6 | 0   4",
				"   7 | 0   1   2   5",
				"   8 | 0   6",
				"   9 | 0   1   3   7",
				"  10 | 0   2   8",
				"  11 | 0   1   4   9",
				"  12 | 0  10",
				"  13 | 0   1   2   3   5  11"
			],
			"mathematica": [
				"Table[Select[Range[0,n-2],Divisible[#^2+n #,#+1]\u0026],{n,30}]//Flatten (* _Harvey P. Dale_, Dec 27 2016 *)"
			],
			"program": [
				"(PARI) tabf(nn) = {for (n=2, nn, for (k=0, n, if (!((k^2 + k*n) % (k+1)), print1(k, \", \"));); print(););} \\\\ _Michel Marcus_, Oct 25 2015"
			],
			"xref": [
				"Cf. A000005, A065608, A027750, A263729."
			],
			"keyword": "nonn,tabf",
			"offset": "2,5",
			"author": "_Juri-Stepan Gerasimov_, Oct 25 2015",
			"references": 5,
			"revision": 23,
			"time": "2016-12-27T19:09:35-05:00",
			"created": "2015-10-25T15:37:36-04:00"
		}
	]
}