{
	"greeting": "Greetings from The On-Line Encyclopedia of Integer Sequences! http://oeis.org/",
	"query": "id:A263226",
	"count": 1,
	"start": 0,
	"results": [
		{
			"number": 263226,
			"data": "0,2,34,96,188,310,462,644,856,1098,1370,1672,2004,2366,2758,3180,3632,4114,4626,5168,5740,6342,6974,7636,8328,9050,9802,10584,11396,12238,13110,14012,14944,15906,16898,17920,18972,20054,21166,22308,23480,24682,25914",
			"name": "a(n) = 15*n^2 - 13*n.",
			"comment": [
				"For n\u003e=3, a(n) = the Wiener index of the Jahangir graph J_{3,n}. The Jahangir graph J_{3,n} is a connected graph consisting of a cycle graph C(3n) and one additional center vertex that is adjacent to n vertices of C(3n) at distances 3 to each other on C(3n).",
				"The Hosoya polynomial of J_(3,n) is 4nx + (1/2)n(n+9)x^2 + 2n(n-1)x^3 + n(2n-5)x^4."
			],
			"link": [
				"M. R. Farahani, \u003ca href=\"http://frdint.com/the_wiener_index_and.pdf\"\u003eThe Wiener index and Hosoya polynomial of a class of Jahangir graphs J_{3,m}\u003c/a\u003e, Fundamental J. Math. and Math. Sci., 3 (1), 91-96, 2015.",
				"\u003ca href=\"/index/Rec#order_03\"\u003eIndex entries for linear recurrences with constant coefficients\u003c/a\u003e, signature (3,-3,1)."
			],
			"formula": [
				"G.f.: 2*x*(1 + 14*x)/(1 - x)^3. - _Vincenzo Librandi_, Oct 13 2015",
				"a(n) = 3*a(n-1) - 3*a(n-2) + a(n-3). - _Vincenzo Librandi_, Oct 13 2015"
			],
			"maple": [
				"seq(15*n^2-13*n, n = 0 .. 40);"
			],
			"mathematica": [
				"Table[15 n^2 - 13 n, {n, 0, 40}] (* _Vincenzo Librandi_, Oct 13 2015 *)",
				"LinearRecurrence[{3,-3,1},{0,2,34},50] (* _Harvey P. Dale_, Jul 27 2018 *)"
			],
			"program": [
				"(PARI) vector(50, n, n--; 15*n^2 - 13*n) \\\\ _Altug Alkan_, Oct 12 2015",
				"(MAGMA) [15*n^2-13*n: n in [0..50]]; // _Bruno Berselli_, Oct 15 2015"
			],
			"xref": [
				"Cf. A049598, A263227, A263228, A263229, A263231."
			],
			"keyword": "nonn,easy",
			"offset": "0,2",
			"author": "_Emeric Deutsch_, Oct 12 2015",
			"references": 4,
			"revision": 22,
			"time": "2018-07-27T17:35:30-04:00",
			"created": "2015-10-13T14:06:26-04:00"
		}
	]
}