{
	"greeting": "Greetings from The On-Line Encyclopedia of Integer Sequences! http://oeis.org/",
	"query": "id:A263712",
	"count": 1,
	"start": 0,
	"results": [
		{
			"number": 263712,
			"data": "1,2,6,24,78,60,50,52,70,116,184,292,449,649,969,1429,2137,3238,4839,7285,10924,16339,24553,36769,55153,82769,124024,186099,279039,418384,627613,940985,1411273,2116505,3173705,4759874,7137847,10704221,16053112",
			"name": "Number of length n arrays of permutations of 0..n-1 with each element moved by -3 to 3 places and every four consecutive elements having its maximum within 4 of its minimum.",
			"link": [
				"R. H. Hardin, \u003ca href=\"/A263712/b263712.txt\"\u003eTable of n, a(n) for n = 1..210\u003c/a\u003e"
			],
			"formula": [
				"Empirical: a(n) = a(n-1) +a(n-3) -a(n-4) +2*a(n-5) -a(n-6) +a(n-7) for n\u003e18.",
				"Empirical g.f.: x*(1 + x + 4*x^2 + 17*x^3 + 53*x^4 - 24*x^5 - 31*x^6 - 63*x^7 - 8*x^8 - 82*x^9 - 28*x^11 - 3*x^12 - 6*x^13 - 2*x^14 - 19*x^15 - 8*x^16 - 9*x^17) / (1 - x - x^3 + x^4 - 2*x^5 + x^6 - x^7). - _Colin Barker_, Jan 02 2019"
			],
			"example": [
				"Some solutions for n=7:",
				"..0....0....1....3....1....0....0....0....0....1....0....0....0....0....0....1",
				"..1....3....0....0....0....1....4....1....4....0....1....4....1....1....1....0",
				"..3....1....2....1....4....3....1....2....1....2....4....1....4....2....4....3",
				"..4....4....4....4....2....4....2....3....3....3....2....2....2....4....2....4",
				"..2....2....3....2....3....2....3....5....5....4....5....5....3....3....3....2",
				"..6....5....6....5....6....5....5....6....2....6....6....3....5....5....6....5",
				"..5....6....5....6....5....6....6....4....6....5....3....6....6....6....5....6"
			],
			"xref": [
				"Column 3 of A263714."
			],
			"keyword": "nonn",
			"offset": "1,2",
			"author": "_R. H. Hardin_, Oct 24 2015",
			"references": 1,
			"revision": 8,
			"time": "2019-01-02T23:12:32-05:00",
			"created": "2015-10-24T11:43:12-04:00"
		}
	]
}