{
	"greeting": "Greetings from The On-Line Encyclopedia of Integer Sequences! http://oeis.org/",
	"query": "id:A263469",
	"count": 1,
	"start": 0,
	"results": [
		{
			"number": 263469,
			"data": "0,2,3,4,5,6,7,15,17,21,42,57,99,312,372",
			"name": "Numbers n such that n! + 2^n + 3 or n! + 2^n - 3 is prime.",
			"comment": [
				"Both n! + 2^n + 3 and n! + 2^n - 3 are prime for n = 3 or 4. Are there any others?",
				"No more terms below 10^4. - _Charles R Greathouse IV_, Nov 17 2015"
			],
			"example": [
				"For n=0, n! + 2^n + 3 = 0! + 2^0 + 3 = 5, which is prime.",
				"For n=2, n! + 2^n - 3 = 2! + 2^2 - 3 = 3, which is prime."
			],
			"mathematica": [
				"Select[Range[0, 10^3], Or[PrimeQ[#! + 2^# + 3], PrimeQ[#! + 2^# - 3]] \u0026] (* _Michael De Vlieger_, Oct 20 2015 *)"
			],
			"program": [
				"(PARI) for(n=0, 1e3, if(isprime(n!+2^n-3) || isprime(n!+2^n+3), print1(n\", \")))",
				"(PARI) is(n)=my(N=n!+2^n); ispseudoprime(N-3) || ispseudoprime(N+3) \\\\ _Charles R Greathouse IV_, Nov 17 2015"
			],
			"xref": [
				"Cf. A007611, A261714, A263482."
			],
			"keyword": "nonn,more",
			"offset": "1,2",
			"author": "_Altug Alkan_, Oct 19 2015",
			"ext": [
				"a(14)-a(15) from _Michael De Vlieger_, Oct 20 2015"
			],
			"references": 1,
			"revision": 17,
			"time": "2015-11-17T16:27:13-05:00",
			"created": "2015-11-17T16:27:13-05:00"
		}
	]
}