{
	"greeting": "Greetings from The On-Line Encyclopedia of Integer Sequences! http://oeis.org/",
	"query": "id:A263623",
	"count": 1,
	"start": 0,
	"results": [
		{
			"number": 263623,
			"data": "1,2,4,8,36",
			"name": "a(1)=1; thereafter, a(n) = smallest k such that the decimal concatenation [a(n-2)+1 a(n-2)+2, ... a(n-1)] divides the decimal concatenation [a(n-1)+1 a(n-1)+2 ... k].",
			"comment": [
				"a(6), if it exists, is \u003e 10^6. - _Lars Blomberg_, Dec 01 2016"
			],
			"example": [
				"n=3: a(3) = 4 because k=4 is the smallest number such that 2 divides the concatenation 345...k.",
				"n=4: a(4) = 8 because k=8 is the smallest number such that 34 divides the concatenation 567...k. See A002782 for the relevant concatenations."
			],
			"xref": [
				"Cf. A002782."
			],
			"keyword": "nonn,base,more",
			"offset": "1,2",
			"author": "_N. J. A. Sloane_, Oct 23 2015",
			"references": 1,
			"revision": 14,
			"time": "2016-12-01T07:48:25-05:00",
			"created": "2015-10-23T21:04:39-04:00"
		}
	]
}