{
	"greeting": "Greetings from The On-Line Encyclopedia of Integer Sequences! http://oeis.org/",
	"query": "id:A263845",
	"count": 1,
	"start": 0,
	"results": [
		{
			"number": 263845,
			"data": "1,2,1,1,1,3,1,1,1,2,1,1,1,2,1,1,1,2,1,1,1,4,1,1,1,2,1,1,1,2,1,1,1,2,1,1,1,3,1,1,1,2,1,1,1,2,1,1,1,2,1,1,1,3,1,1,1,2,1,1,1,2,1,1,1,2,1,1,1,3,1,1,1,2,1,1,1,2,1,1,1,2,1,1,1,5,1,1,1,2,1,1,1,2,1,1,1,2,1",
			"name": "A258059(n)+1.",
			"comment": [
				"Also, a(n) = A258059(n)+1 for n\u003e=1, with a(0)=1.",
				"Zeroless terms of A258059. - _Reinhard Zumkeller_, Nov 08 2015"
			],
			"link": [
				"Reinhard Zumkeller, \u003ca href=\"/A263845/b263845.txt\"\u003eTable of n, a(n) for n = 0..10000\u003c/a\u003e"
			],
			"program": [
				"(Haskell)",
				"a263845 n = a263845_list !! n",
				"a263845_list = filter (\u003e 0) a258059_list",
				"-- _Reinhard Zumkeller_, Nov 08 2015"
			],
			"xref": [
				"Cf. A258059."
			],
			"keyword": "nonn",
			"offset": "0,2",
			"author": "_Richard C. Webster_, Nov 07 2015",
			"references": 2,
			"revision": 7,
			"time": "2015-11-08T08:04:02-05:00",
			"created": "2015-11-07T00:49:30-05:00"
		}
	]
}