{
	"greeting": "Greetings from The On-Line Encyclopedia of Integer Sequences! http://oeis.org/",
	"query": "id:A263198",
	"count": 1,
	"start": 0,
	"results": [
		{
			"number": 263198,
			"data": "22718,366629,366629,5486039,12652497,5486039,76647286,398648507,398648507,76647286,1068732662,11542428929,26007537155,11542428929,1068732662,14937290926,333834894509,1532722380695,1532722380695",
			"name": "T(n,k)=Number of (n+3)X(k+3) 0..1 arrays with each row and column not divisible by 13, read as a binary number with top and left being the most significant bits.",
			"comment": [
				"Table starts",
				"........22718........366629........5486039........76647286.....1068732662",
				".......366629......12652497......398648507.....11542428929...333834894509",
				"......5486039.....398648507....26007537155...1532722380695.90272986428673",
				".....76647286...11542428929..1532722380695.180709892658771",
				"...1068732662..333834894509.90272986428673",
				"..14937290926.9669206035811",
				".209908668003"
			],
			"link": [
				"R. H. Hardin, \u003ca href=\"/A263198/b263198.txt\"\u003eTable of n, a(n) for n = 1..31\u003c/a\u003e"
			],
			"example": [
				"Some solutions for n=1 k=4",
				"..0..1..0..1..1..1..1....0..1..1..0..0..1..0....0..1..1..0..0..0..0",
				"..0..0..0..1..0..0..0....0..0..0..1..1..1..1....0..0..1..0..1..1..1",
				"..0..0..1..0..0..1..1....0..0..1..1..0..1..1....0..0..1..1..0..0..1",
				"..1..0..1..0..0..0..0....1..0..1..0..0..0..1....1..0..0..0..0..1..0"
			],
			"keyword": "nonn,tabl",
			"offset": "1,1",
			"author": "_R. H. Hardin_, Oct 11 2015",
			"references": 4,
			"revision": 4,
			"time": "2015-10-11T20:52:25-04:00",
			"created": "2015-10-11T20:52:25-04:00"
		}
	]
}