{
	"greeting": "Greetings from The On-Line Encyclopedia of Integer Sequences! http://oeis.org/",
	"query": "id:A263354",
	"count": 1,
	"start": 0,
	"results": [
		{
			"number": 263354,
			"data": "1,1,1,3,4,6,3,7,8,0,9,2,9,0,1,7,3,6,6,3,9,7,1,7,6,0,6,2,5,4,4,1,7,1,9,6,4,6,4,2,5,1,4,2,6,3,5,6,4,0,8,4,3,1,8,0,6,7,4,8,8,8,2,6,1,9,6,9,6,7,6,4,2,3,9,0,9,8,2,8,8,0,7,2,9,7,7,2,8,0",
			"name": "Decimal expansion of the generalized hypergeometric function 3F2(1/2,3/2,3/2; 5/2,5/2;x) at x=1/2.",
			"link": [
				"R. J. Mathar, \u003ca href=\"http://arxiv.org/abs/1207.5845\"\u003eYet another table of integrals\u003c/a\u003e, arXiv:1207.5845 v3 Eq. (9.82)."
			],
			"formula": [
				"Equals 9*(4*Catalan-2+Pi*(log 2 -1))/(4*sqrt(2)) = 9*( A247685 -2 - A000796 * A244009)/ A010487."
			],
			"example": [
				"1.113463780929017366397176..."
			],
			"maple": [
				"evalf(hypergeom([1/2,3/2,3/2],[5/2,5/2],1/2)) ;"
			],
			"keyword": "nonn,cons",
			"offset": "1,4",
			"author": "_R. J. Mathar_, Oct 16 2015",
			"references": 1,
			"revision": 5,
			"time": "2015-10-16T06:22:52-04:00",
			"created": "2015-10-16T06:22:52-04:00"
		}
	]
}