{
	"greeting": "Greetings from The On-Line Encyclopedia of Integer Sequences! http://oeis.org/",
	"query": "id:A263351",
	"count": 1,
	"start": 0,
	"results": [
		{
			"number": 263351,
			"data": "1,4,9,18,23,48,54,60,63,77,91,92,93,104,117,126,129,137,151,152,153,167,169,214,229,239,255,256,264,266,267,270,282,285,289,293,295,297,326,342,344,345,348,350,355,364,400,420,428,436,439,440,447,454,458",
			"name": "Fixed points of A243625: integers n such that A243625(n)=n.",
			"comment": [
				"Among first 1000 terms of A243625 there are 124 fixed points.",
				"Almost certainly A243625 is a permutation of natural numbers.",
				"And almost certainly there is no (easy) proof of it."
			],
			"link": [
				"Alois P. Heinz, \u003ca href=\"/A263351/b263351.txt\"\u003eTable of n, a(n) for n = 1..10000\u003c/a\u003e"
			],
			"maple": [
				"with(numtheory):",
				"b:= proc(n) is(n=1) end: h:= 2:",
				"g:= proc(n) option remember; global h; local k, t;",
				"      if n=1 then 1 else t:=g(n-1);",
				"         for k from h while b(k) or bigomega(t+k)\u003c\u003e2",
				"         do od; b(k):=true; while b(h) do h:=h+1 od; k",
				"      fi",
				"    end:",
				"a:= proc(n) option remember; local k;",
				"      for k from 1+`if`(n=1, 0, a(n-1)) do",
				"        if g(k)=k then break fi",
				"      od: k",
				"    end:",
				"seq(a(n), n=1..100);  # _Alois P. Heinz_, Oct 17 2015"
			],
			"mathematica": [
				"b[n_] := n == 1;",
				"h = 2;",
				"g[n_] := g[n] = Module[{k, t}, If[n == 1, 1,  t = g[n - 1]; For[k = h, b[k] || PrimeOmega[t + k] != 2, k++]; b[k] = True; While[b[h], h++]; k]];",
				"a[n_] := a[n] = Module[{k}, For[k = 1 + If[n == 1, 0, a[n - 1]], True, k++, If[g[k] == k, Break[]]]; k];",
				"Array[a, 100] (* _Jean-François Alcover_, Nov 23 2020, after _Alois P. Heinz_ *)"
			],
			"xref": [
				"Cf. A243625."
			],
			"keyword": "nonn",
			"offset": "1,2",
			"author": "_Zak Seidov_, Oct 16 2015",
			"references": 1,
			"revision": 17,
			"time": "2020-11-23T17:09:55-05:00",
			"created": "2015-10-17T11:33:10-04:00"
		}
	]
}