{
	"greeting": "Greetings from The On-Line Encyclopedia of Integer Sequences! http://oeis.org/",
	"query": "id:A263372",
	"count": 1,
	"start": 0,
	"results": [
		{
			"number": 263372,
			"data": "37,1359,1260442,943196037,883978450474,787253224440475",
			"name": "Number of (n+1)X(7+1) 0..2 arrays with each row and column divisible by 7, read as a base-3 number with top and left being the most significant digits.",
			"comment": [
				"Column 7 of A263373."
			],
			"example": [
				"Some solutions for n=2",
				"..0..0..1..0..0..1..0..0....2..2..2..0..2..2..2..2....2..2..0..0..1..0..0..0",
				"..0..2..1..0..2..1..0..0....1..1..1..0..1..1..1..1....1..1..0..2..1..2..2..0",
				"..0..1..2..0..1..2..0..0....0..0..0..0..0..0..0..0....0..0..0..1..2..1..1..0"
			],
			"xref": [
				"Cf. A263373."
			],
			"keyword": "nonn",
			"offset": "1,1",
			"author": "_R. H. Hardin_, Oct 16 2015",
			"references": 0,
			"revision": 3,
			"time": "2015-10-16T07:33:30-04:00",
			"created": "2015-10-16T07:33:30-04:00"
		}
	]
}