{
	"greeting": "Greetings from The On-Line Encyclopedia of Integer Sequences! http://oeis.org/",
	"query": "id:A264723",
	"count": 1,
	"start": 0,
	"results": [
		{
			"number": 264723,
			"data": "17,109,5023,479001563,87178291157,1307674367953,20922789887947,355687428095941,6402373705727939,2432902008176639929,265252859812191058636308479999887,13763753091226345046315979581580902399999843,20397882081197443358640281739902897356799999833",
			"name": "Primes of the form n! - prime(n).",
			"comment": [
				"Subsequence of A261809. - _Altug Alkan_, Nov 22 2015"
			],
			"mathematica": [
				"Select[Table[n! - Prime[n], {n, 50}], PrimeQ]"
			],
			"program": [
				"(MAGMA) [a: n in [1..40] | IsPrime(a) where a is Factorial(n)-NthPrime(n)];",
				"(PARI) for(n=1, 1e2, if(isprime(k=(n!-prime(n))), print1(k, \", \"))) \\\\ _Altug Alkan_, Nov 22 2015"
			],
			"xref": [
				"Cf. A063499, A064278, A064401, A261809."
			],
			"keyword": "nonn",
			"offset": "1,1",
			"author": "_Vincenzo Librandi_, Nov 22 2015",
			"references": 0,
			"revision": 14,
			"time": "2015-11-30T03:49:44-05:00",
			"created": "2015-11-30T03:49:44-05:00"
		}
	]
}