{
	"greeting": "Greetings from The On-Line Encyclopedia of Integer Sequences! http://oeis.org/",
	"query": "id:A264695",
	"count": 1,
	"start": 0,
	"results": [
		{
			"number": 264695,
			"data": "2,2,6,4,4,12,34,20,16,8,68,100,144,314,668,360,288,128,192,400,608,2320,8816,9408,9912,6912,38204,37864,52464,108608,209664,106368,79360,32768,49152,16384",
			"name": "Number of equidistributed binary strings of length n.",
			"comment": [
				"A string w is equidistributed if the number of occurrences of any two factors (contiguous subwords) in w differ by at most 1. Here are examples of equidistributed words for the first few lengths: 0, 01, 010, 0110, 00110, 001101, 0011010, 01001110,011100010, 0101110001, 01011100010, 010111000110.",
				"a(n) is even by symmetry. - _Michael S. Branicky_, Jul 25 2021"
			],
			"link": [
				"Michael S. Branicky, \u003ca href=\"/A264695/a264695.txt\"\u003ePython program\u003c/a\u003e",
				"A. Carpi and A. de Luca, \u003ca href=\"https://doi.org/10.1016/S0196-8858(03)00057-5\"\u003eUniform words\u003c/a\u003e, Advances in Applied Mathematics, 32 (2004), 485-522.",
				"Teturo Kamae and Yu-Mei Xue, \u003ca href=\"http://www14.plala.or.jp/kamae/RandomnessCriterion.pdf\"\u003eAn Easy Criterion for Randomness\u003c/a\u003e, Sankhya: The Indian Journal of Statistics, 2015, Volume 77-A, Part 1, pp. 126-152, DOI:10.1007/s13171-014-0054-3."
			],
			"program": [
				"(Python) # see links for faster version",
				"from itertools import product",
				"from collections import Counter",
				"def e(b):",
				"    if len(b) == 1: return True",
				"    for k in range(1, len(b)):",
				"        c = Counter(b[i:i+k] for i in range(len(b)-k+1))",
				"        if len(c) \u003c 2**k and max(c.values()) \u003e 1: return False",
				"        elif max(c.values()) - min(c.values()) \u003e 1: return False",
				"    return True",
				"def a(n): return 2*sum(e(\"0\"+\"\".join(b)) for b in product(\"01\", repeat=n-1))",
				"print([a(n) for n in range(1, 21)]) # _Michael S. Branicky_, Jul 25 2021"
			],
			"keyword": "nonn,more",
			"offset": "1,1",
			"author": "_Jeffrey Shallit_, Nov 21 2015",
			"ext": [
				"a(15) from _Jeffrey Shallit_, Nov 26 2015",
				"a(16)-a(20) from _Jeffrey Shallit_, Feb 25 2018",
				"a(21)-a(36) from _Michael S. Branicky_, Jul 25 2021"
			],
			"references": 1,
			"revision": 38,
			"time": "2021-07-25T20:42:06-04:00",
			"created": "2015-11-21T14:38:00-05:00"
		}
	]
}