{
	"greeting": "Greetings from The On-Line Encyclopedia of Integer Sequences! http://oeis.org/",
	"query": "id:A264897",
	"count": 1,
	"start": 0,
	"results": [
		{
			"number": 264897,
			"data": "138,163,873,1054,1079,1604,1825,1990,2079,2493,2509,2810,2950,3494,3800,3910,4300,4462,4470,4564,4593,4957,5140,5450,5558,5572,5581,5834,6391,6792,6969,7444,7892,8321,8530,8581,9254,9299,9522,9832,9847,10082,10850",
			"name": "Integers n such that A002110(n) is divisible by A098999(n).",
			"comment": [
				"A002110(138) has 327 digits.",
				"What is the minimum value of a(n) - a(n-1)?"
			],
			"mathematica": [
				"Select[Range@ 10000, Divisible[Product[Prime@ k, {k, #}], Sum[Prime[k]^3, {k, #}]] \u0026] (* _Michael De Vlieger_, Nov 28 2015 *)"
			],
			"program": [
				"(PARI) for(n=1, 11000, if(prod(k=1, n, prime(k)) % sum(k=1, n, prime(k)^3) == 0, print1(n, \", \")))"
			],
			"xref": [
				"Cf. A002110, A051838, A098999, A122137."
			],
			"keyword": "nonn",
			"offset": "1,1",
			"author": "_Altug Alkan_, Nov 27 2015",
			"references": 0,
			"revision": 8,
			"time": "2015-11-28T19:17:18-05:00",
			"created": "2015-11-28T19:17:18-05:00"
		}
	]
}