{
	"greeting": "Greetings from The On-Line Encyclopedia of Integer Sequences! http://oeis.org/",
	"query": "id:A264127",
	"count": 1,
	"start": 0,
	"results": [
		{
			"number": 264127,
			"data": "64,14994,5336100,791859600,149787576576,29534515247673,5905008685374120,1148453710559071056,224609350928681097540,44122398097009194287973,8673148290802546116091008,1703443039446493390387758957",
			"name": "Number of (n+1)X(7+1) arrays of permutations of 0..n*8+7 with each element having index change +-(.,.) 0,0 1,-2 or 2,-1.",
			"comment": [
				"Column 7 of A264128."
			],
			"link": [
				"R. H. Hardin, \u003ca href=\"/A264127/b264127.txt\"\u003eTable of n, a(n) for n = 1..29\u003c/a\u003e"
			],
			"example": [
				"Some solutions for n=2",
				"..0.16..8..3..4.11..6.13....0..1..2..3.10.11.12.22....0.16..8..3.10.11..6..7",
				"..2..9.10..5.18..7.14.15....8..9..4..5..6.19.14.21....2..9..4..5.18.19.20.15",
				"..1.17.12.19.20.21.22.23...16.17.18.13.20.15..7.23....1.17.12.13.14.21.22.23"
			],
			"xref": [
				"Cf. A264128."
			],
			"keyword": "nonn",
			"offset": "1,1",
			"author": "_R. H. Hardin_, Nov 03 2015",
			"references": 1,
			"revision": 6,
			"time": "2015-11-10T11:03:02-05:00",
			"created": "2015-11-03T18:54:29-05:00"
		}
	]
}