{
	"greeting": "Greetings from The On-Line Encyclopedia of Integer Sequences! http://oeis.org/",
	"query": "id:A264681",
	"count": 1,
	"start": 0,
	"results": [
		{
			"number": 264681,
			"data": "0,108,2417,43131,1449467,43095017,1095840260,28215481268,738782370243,19083862672909,487695637623505,12462928299470408,318459601523206145,8122732708229887832,206973840286092630463,5272926892002041935804",
			"name": "Number of (6+1)X(n+1) arrays of permutations of 0..n*7+6 with each element having directed index change -1,-1 1,0 -1,-2 -2,-2 or 0,1.",
			"comment": [
				"Row 6 of A264676."
			],
			"link": [
				"R. H. Hardin, \u003ca href=\"/A264681/b264681.txt\"\u003eTable of n, a(n) for n = 1..63\u003c/a\u003e"
			],
			"example": [
				"Some solutions for n=4",
				"..6..0..1..9..3....6.13..1..2..3....6..8..1..9..3....6..7..8..9..3",
				".11.18..2..7..4....0.18.19..7..4....0..5..2.14..4....0..1..2.14..4",
				"..5.10.19..8.13....5.10.11..8..9...22.17..7.12.13....5.10.24.12.13",
				".22.15.12.17.14...22.15.12.17.14...10.11.23.24.18...22.11.23.17.18",
				".26.16.28.29.23...27.16.28.29.23...15.16.34.29.19...15.16.34.29.19",
				".20.21.34.27.24...20.21.26.34.24...20.21.26.27.28...20.21.26.27.28",
				".25.30.31.32.33...25.30.31.32.33...25.30.31.32.33...25.30.31.32.33"
			],
			"xref": [
				"Cf. A264676."
			],
			"keyword": "nonn",
			"offset": "1,2",
			"author": "_R. H. Hardin_, Nov 20 2015",
			"references": 1,
			"revision": 4,
			"time": "2015-11-20T19:56:44-05:00",
			"created": "2015-11-20T19:56:44-05:00"
		}
	]
}