{
	"greeting": "Greetings from The On-Line Encyclopedia of Integer Sequences! http://oeis.org/",
	"query": "id:A264143",
	"count": 1,
	"start": 0,
	"results": [
		{
			"number": 264143,
			"data": "8,125,1440,15488,168948,1903336,20768650,228712964,2514024565,27630491593,304037924437,3343529124864,36775469678400,404510148892477,4449339039778765,48939316077898664,538295657554650689",
			"name": "Number of (3+1)X(n+1) arrays of permutations of 0..n*4+3 with each element having index change +-(.,.) 0,0 1,-2 or 1,1.",
			"comment": [
				"Row 3 of A264142."
			],
			"link": [
				"R. H. Hardin, \u003ca href=\"/A264143/b264143.txt\"\u003eTable of n, a(n) for n = 1..210\u003c/a\u003e",
				"R. H. Hardin, \u003ca href=\"/A264143/a264143.txt\"\u003eEmpirical recurrence of order 67\u003c/a\u003e"
			],
			"formula": [
				"Empirical recurrence of order 67 (see link above)"
			],
			"example": [
				"Some solutions for n=4",
				"..0..1..5..3..4....0..1..2..3..4....0..1..2..6..4....0..1..5..6..7",
				"..2..6..7.14..9...11..6.10.14..9....5..3.10.14.12....2..3..4.14..9",
				".16..8.18.13.17....7..5.15.13..8...16..8..9..7.17...10..8.12.13.17",
				".15.10.11.12.19...12.16.17.18.19...15.13.11.18.19...15.16.11.18.19"
			],
			"xref": [
				"Cf. A264142."
			],
			"keyword": "nonn",
			"offset": "1,1",
			"author": "_R. H. Hardin_, Nov 04 2015",
			"references": 1,
			"revision": 6,
			"time": "2015-11-10T11:16:55-05:00",
			"created": "2015-11-04T07:25:46-05:00"
		}
	]
}