{
	"greeting": "Greetings from The On-Line Encyclopedia of Integer Sequences! http://oeis.org/",
	"query": "id:A264157",
	"count": 1,
	"start": 0,
	"results": [
		{
			"number": 264157,
			"data": "2,0,1,2,4,0,5,9,8,9,7,9,7,9,8,6,0,6,4,3,9,5,0,3,0,6,3,5,8,0,4,3,0,0,4,4,1,6,5,6,7,8,0,6,5,8,1,2,1,9,2,9,3,2,8,7,8,4,9,0,4,6,9,1,1,7,3",
			"name": "Decimal expansion of M_7, the 7-dimensional analog of Madelung's constant (negated).",
			"reference": [
				"Steven R. Finch, Mathematical Constants, Cambridge University Press, 2003, Sections 1.10 Madelung's constant, p. 77."
			],
			"link": [
				"Eric Weisstein's MathWorld, \u003ca href=\"http://mathworld.wolfram.com/MadelungConstants.html\"\u003e Madelung Constants\u003c/a\u003e"
			],
			"formula": [
				"M_7 = 1/sqrt(Pi) integral_{0..infinity} ((sum_{k=-infinity..infinity} ((-1)^k exp(-k^2 t))^7-1)/sqrt(t) dt"
			],
			"example": [
				"-2.01240598979798606439503063580430044165678065812192932878490469117330..."
			],
			"mathematica": [
				"digits = 32; f[n_, x_] := 1/Sqrt[Pi*x]*(EllipticTheta[4, 0, Exp[-x]]^n - 1); M[7] = NIntegrate[f[7, x], {x, 0, Infinity}, WorkingPrecision -\u003e digits + 5]; RealDigits[M[7], 10, digits] // First"
			],
			"program": [
				"(PARI) th4(x)=1+2*sumalt(n=1,(-1)^n*x^n^2)",
				"intnum(x=0,[oo,1], (th4(exp(-x))^7-1)/sqrt(Pi*x)) \\\\ _Charles R Greathouse IV_, Jun 06 2016"
			],
			"xref": [
				"Cf. A088537, A085469, A090734, A247040, A261805, A264157."
			],
			"keyword": "nonn,cons",
			"offset": "1,1",
			"author": "_Jean-François Alcover_, Nov 06 2015",
			"ext": [
				"More terms from _Charles R Greathouse IV_, Jun 06 2016"
			],
			"references": 2,
			"revision": 10,
			"time": "2016-06-06T22:02:09-04:00",
			"created": "2015-11-06T03:39:33-05:00"
		}
	]
}