{
	"greeting": "Greetings from The On-Line Encyclopedia of Integer Sequences! http://oeis.org/",
	"query": "id:A264323",
	"count": 1,
	"start": 0,
	"results": [
		{
			"number": 264323,
			"data": "1,89,5461,238356,8368831,259770975,7542478135,211794493290,5870838954710,162745118970610,4549825111681964,128994813976541176,3722621639161251074,109622707753571938234,3299453321046315967098,101610430484526744949716,3203896974449174366163207",
			"name": "Number of permutations of [n] with exactly four (possibly overlapping) occurrences of the consecutive pattern 3412.",
			"link": [
				"Alois P. Heinz, \u003ca href=\"/A264323/b264323.txt\"\u003eTable of n, a(n) for n = 10..180\u003c/a\u003e"
			],
			"xref": [
				"Column k=4 of A264319."
			],
			"keyword": "nonn",
			"offset": "10,2",
			"author": "_Alois P. Heinz_, Nov 11 2015",
			"references": 2,
			"revision": 4,
			"time": "2015-11-13T20:26:03-05:00",
			"created": "2015-11-13T20:26:03-05:00"
		}
	]
}