{
	"greeting": "Greetings from The On-Line Encyclopedia of Integer Sequences! http://oeis.org/",
	"query": "id:A264812",
	"count": 1,
	"start": 0,
	"results": [
		{
			"number": 264812,
			"data": "1,1,3,5,13,52,123,366,909,2444,7108,19157,53957,146826,400704,1115852,3059907,8475420,23369304,64225984,177572352,488839323,1349102071,3722419367,10255126169,28303059509,78013005366,215160477217,593488173404,1636220978049",
			"name": "Number of tilings of a 5 X n rectangle using n pentominoes of shapes P, I, X.",
			"link": [
				"Alois P. Heinz, \u003ca href=\"/A264812/b264812.txt\"\u003eTable of n, a(n) for n = 0..1000\u003c/a\u003e",
				"Wikipedia, \u003ca href=\"https://en.wikipedia.org/wiki/Pentomino\"\u003ePentomino\u003c/a\u003e"
			],
			"example": [
				"a(4) = 13:",
				"._______.      ._______.      ._______.      ._______.",
				"| | | | |      |   |   |      |   | | |      |   ._| |",
				"| | | | |      | ._| ._|      | ._| | |      |___|   |",
				"| | | | |      |_| |_| |      |_| | | |      |   |___|",
				"| | | | | (1)  |   |   | (4)  |   | | | (6)  | ._|   | (2)",
				"|_|_|_|_|      |___|___|      |_ _|_|_|      |_|_____|    .",
				"a(5) = 52:",
				"._________.",
				"|   |_.   |",
				"| ._| |___|",
				"|_|_   _| |",
				"|   |_|   | (2)  ...",
				"|_____|___|          ."
			],
			"xref": [
				"Cf. A174249, A233427, A234312, A234931, A247124, A247268, A247443, A249762, A264765, A278330."
			],
			"keyword": "nonn",
			"offset": "0,3",
			"author": "_Alois P. Heinz_, Nov 25 2015",
			"references": 6,
			"revision": 13,
			"time": "2017-02-06T14:28:50-05:00",
			"created": "2015-11-25T20:23:29-05:00"
		}
	]
}