{
	"greeting": "Greetings from The On-Line Encyclopedia of Integer Sequences! http://oeis.org/",
	"query": "id:A264734",
	"count": 1,
	"start": 0,
	"results": [
		{
			"number": 264734,
			"data": "3,5,7,9,11,25,27,29,81,241,59051,450283905890997361,36472996377170786401",
			"name": "Prime powers k such that k - 2 and k + 2 are prime powers.",
			"comment": [
				"From _Robert Israel_, Nov 22 2015: (Start)",
				"a(14) \u003e 3^1000 - 2 if it exists.",
				"One of a(n), a(n)+2 and a(n)-2 must be a power of 3. (End)"
			],
			"example": [
				"81 is in this sequence because 81 - 2 = 79, 81 and 81 + 2 = 83 are all prime powers."
			],
			"maple": [
				"ispp:= proc(x) local p, r;",
				"  if isprime(x) then return true fi;",
				"  p:= 2;",
				"  do",
				"     r:= iroot(x,p);",
				"     if r^p = x then return isprime(r) fi;",
				"     if r \u003c 2 then return false fi;",
				"     p:= nextprime(p);",
				"  od:",
				"end proc:",
				"ispp(1):= true:",
				"A:= NULL;",
				"for n from 1 to 1000 do",
				"  B:= map(ispp, [3^n-4,3^n-2,3^n+2,3^n+4]);",
				"  if B[1] and B[2] then A:= A, 3^n-2 fi;",
				"  if B[2] and B[3] then A:= A, 3^n fi;",
				"  if B[3] and B[4] then A:= A, 3^n+2 fi;",
				"od:",
				"A; # _Robert Israel_, Nov 22 2015"
			],
			"mathematica": [
				"Prepend[Select[Range@ 100000, AllTrue[{# - 2, #, # + 2}, PrimePowerQ] \u0026], 3] (* _Michael De Vlieger_, Dec 03 2015, Version 10 *)"
			],
			"program": [
				"(MAGMA) [n: n in [5..100000] | IsPrimePower(n-2) and IsPrimePower(n) and IsPrimePower(n+2)];",
				"(PARI) is(k) = isprimepower(k) || k==1;",
				"for(k=1, 1e6, if(is(k) \u0026\u0026 is(k+2) \u0026\u0026 is(k-2), print1(k, \", \"))) \\\\ _Altug Alkan_, Nov 22 2015"
			],
			"xref": [
				"Cf. A000961, A144234, A264744."
			],
			"keyword": "nonn,more",
			"offset": "1,1",
			"author": "_Juri-Stepan Gerasimov_, Nov 22 2015",
			"ext": [
				"a(12) and a(13) from _Robert Israel_, Nov 22 2015"
			],
			"references": 2,
			"revision": 27,
			"time": "2015-12-04T02:48:29-05:00",
			"created": "2015-11-22T23:46:47-05:00"
		}
	]
}