{
	"greeting": "Greetings from The On-Line Encyclopedia of Integer Sequences! http://oeis.org/",
	"query": "id:A264761",
	"count": 1,
	"start": 0,
	"results": [
		{
			"number": 264761,
			"data": "0,0,1,1,2,6,17,73,290,1274,5844,27750,135192,676263",
			"name": "Number of irreducible indecomposable spherical curves with n crossings (only ordinary double points), the circle is oriented, the sphere is oriented (OO case).",
			"comment": [
				"Irreducible means not made disconnected by removal of a vertex (no nugatory crossings).",
				"Indecomposable (or prime) means not made disconnected by cutting two distinct lines."
			],
			"link": [
				"J. Betrema, \u003ca href=\"https://github.com/j2b2/TaitCurves\"\u003eTait Curves\u003c/a\u003e",
				"R. Coquereaux, J.-B. Zuber, \u003ca href=\"http://arxiv.org/abs/1507.03163\"\u003eMaps, immersions and permutations\u003c/a\u003e, arXiv preprint arXiv:1507.03163, 2015. Also J. Knot Theory Ramifications 25, 1650047 (2016), DOI: http://dx.doi.org/10.1142/S0218216516500474"
			],
			"program": [
				"(C) See the J. Betrema C program in the Tait Curves link."
			],
			"xref": [
				"Cf. A008986, A008987, A008988, A008989, A007756, A264759, A264760."
			],
			"keyword": "nonn,more",
			"offset": "1,5",
			"author": "_Robert Coquereaux_, Nov 23 2015",
			"references": 3,
			"revision": 14,
			"time": "2016-08-02T08:49:47-04:00",
			"created": "2015-11-24T05:59:12-05:00"
		}
	]
}