{
	"greeting": "Greetings from The On-Line Encyclopedia of Integer Sequences! http://oeis.org/",
	"query": "id:A265533",
	"count": 1,
	"start": 0,
	"results": [
		{
			"number": 265533,
			"data": "0,1,2,3,4,4,6,6,6,6,6,6,12,12,12,12,12,12,18,18,18,18,18,18,24,24,26,26,26,26,26,31,31,31,31,31,36,36,36,36,36,41,41,41,41,41,46,46,46,46,46,46,52,52,52,52,52,57,57,57,57,57,62,62,62,62,62,67,67,67,67,67,72,72,72,72,72,72,78,78,78,78,78",
			"name": "Largest base-5 palindrome m \u003c= n, written in base 10.",
			"xref": [
				"Sequences related to palindromic floor and ceiling: A175298, A206913, A206914, A261423, A262038, and the large block of consecutive sequences beginning at A265509."
			],
			"keyword": "nonn,base",
			"offset": "0,3",
			"author": "_N. J. A. Sloane_, Dec 09 2015",
			"references": 0,
			"revision": 6,
			"time": "2015-12-09T21:41:29-05:00",
			"created": "2015-12-09T21:18:08-05:00"
		}
	]
}