{
	"greeting": "Greetings from The On-Line Encyclopedia of Integer Sequences! http://oeis.org/",
	"query": "id:A265730",
	"count": 1,
	"start": 0,
	"results": [
		{
			"number": 265730,
			"data": "1,2,3,4,5,6,7,8,9,11,16,17,27,47,52,57,78,87,117,131,151,157,158,161,171,177,187,191,247,257,277,417,447,457,487,517,547,557,558,587,592,717,747,757,787,817,857,887,1131,1147,1151,1157,1161,1167,1171,1177,1181,1191,1221,1247,1251,1257,1261,1287,1331,1361,1371,1417",
			"name": "Zeroless numbers n such that the decimal expansion of a/b contains each digit of n, for all a,b \u003e 0 such that concatenate(a,b) = n.",
			"comment": [
				"Termed \"1951 numbers\" by Eric Angelini, cf. LINKS."
			],
			"link": [
				"E. Angelini, \u003ca href=\"http://list.seqfan.eu/pipermail/seqfan/2015-December/015839.html\"\u003e1951-numbers\u003c/a\u003e, SeqFan list, Dec 14, 2015."
			],
			"example": [
				"The single-digit numbers 1,...,9 are in the sequence because there is no possible decomposition a,b.",
				"The number 1951 is in the sequence because 195/1 = 195.0, 19/51 = 0.3725490196... and 1/951 = 0.0010515247108307045215562565720294... all have each of the digits '1', '5' and '9' the number 1951 is made of."
			],
			"mathematica": [
				"fQ[n_] := Block[{d = IntegerDigits@ n, w}, w = Map[Union@ Flatten@ # \u0026, First /@ RealDigits@ Map[FromDigits@ Take[d, #]/FromDigits@ Take[d, -Length@ d + #] \u0026, Reverse@ Range[Length@ d - 1]], {1}]; And @@ Function[k, AllTrue[d, MemberQ[k, #] \u0026]] /@ w]; Select[Select[Range@ 1500, Last@ DigitCount@ # == 0 \u0026], fQ] (* _Michael De Vlieger_, Dec 14 2015 *)"
			],
			"program": [
				"(PARI) is(n,d=Set(digits(n)),p=n+#Str(n))={vecmin(d)\u0026\u0026!for(i=10,n,setminus(d,Set(digits(n\\i*10^p\\(n%i))))\u0026\u0026return;i=i*10-1)}"
			],
			"xref": [
				"Cf. A051626."
			],
			"keyword": "nonn,base",
			"offset": "1,2",
			"author": "_Eric Angelini_ and _M. F. Hasler_, Dec 14 2015",
			"references": 0,
			"revision": 15,
			"time": "2015-12-28T16:15:46-05:00",
			"created": "2015-12-14T23:37:26-05:00"
		}
	]
}