{
	"greeting": "Greetings from The On-Line Encyclopedia of Integer Sequences! http://oeis.org/",
	"query": "id:A265642",
	"count": 1,
	"start": 0,
	"results": [
		{
			"number": 265642,
			"data": "0,2,2,6,6,26,24,94,118,340,464,1298,1842,4860,7448,18188,29344,68900,114638,260558,447954,986664,1739736,3746824,6732712,14241630,26009968,54182570,100266862,206375170,385891332,786632426,1483493024,3000203428,5697403240",
			"name": "Number of binary strings of length n that can be written as the concatenation of nontrivial powers of other strings.",
			"formula": [
				"a(n) = 2^n - A265639(n)."
			],
			"example": [
				"For n = 5, the 6 strings are 00000,00011,00111,11000,11100,11111."
			],
			"maple": [
				"Negate:= proc(S) StringTools:-Map(procname,S) end proc:",
				"Negate(\"0\"):= \"1\":",
				"Negate(\"1\"):= \"0\":",
				"FC:= proc(n)",
				"# set of binary strings of length n starting with 0 that are concatenations",
				"  # of nontrivial powers",
				"option remember;",
				"local m,s,t;",
				"{seq(seq(seq(cat(s,t),s=FC1(m)),t=map(r -\u003e (r,Negate(r)),",
				"     procname(n-m))),m=2..n-2)} union FC1(n)",
				"end proc:",
				"FC(2):= {\"00\"}:",
				"FC1:= proc(n)",
				"# set of nontrivial powers of length n starting with 0",
				"option remember;",
				"local d,s;",
				"{seq(seq(cat(s$d),s = S0(n/d)),d = numtheory:-divisors(n) minus {1})}",
				"end proc:",
				"S0:= proc(n)",
				"# set of binary strings of length n starting with 0",
				"map(t -\u003e cat(\"0\",t), convert(StringTools:-Generate(n-1,\"01\"),set))",
				"end proc:",
				"seq(2*nops(FC(n)),n=1..22); # _Robert Israel_, Dec 11 2015"
			],
			"xref": [
				"Cf. A265639."
			],
			"keyword": "nonn,base",
			"offset": "1,2",
			"author": "_Jeffrey Shallit_, Dec 11 2015",
			"ext": [
				"a(17)-a(25) from _Robert Israel_, Dec 11 2015",
				"a(26)-a(35) from _Lars Blomberg_, Dec 20 2015"
			],
			"references": 1,
			"revision": 20,
			"time": "2015-12-21T01:52:13-05:00",
			"created": "2015-12-11T14:02:09-05:00"
		}
	]
}