{
	"greeting": "Greetings from The On-Line Encyclopedia of Integer Sequences! http://oeis.org/",
	"query": "id:A265384",
	"count": 1,
	"start": 0,
	"results": [
		{
			"number": 265384,
			"data": "1,2,3,5,7,9,11,13,17,21,23,25,27,31,35,39,43,47,55,63,65,67,69,73,77,81,85,89,97,105,109,113,117,125,133,141,149,157,173,189,191,193,195,199,203,207,211,215,223,231,235,239,243,251,259,267,275,283,299,315,319,323,327,335,343,351,359,367,383,399,407,415,423,439,455,471,487,503,535,567",
			"name": "Toothpick sequence starting at the vertex of y=3*abs(x).",
			"comment": [
				"Consider the graph y=3*abs(x). The first toothpick extends vertically from (0,0) to (0,2). Each toothpick is of length 2 and is laid either horizontally or vertically.",
				"Subsequent toothpicks are placed in a similar rule as A139250. Place toothpicks by the following rules:",
				"- Toothpicks must always stay inside the graph of y=3*abs(x).",
				"- Call the end of a toothpick exposed if it does not touch another toothpick, or the line y=3*abs(x)",
				"- Each horizontal toothpick has its midpoint touching an exposed vertical toothpick",
				"- If no horizontal toothpick can be laid, then a vertical toothpick should be laid on any exposed ends, from its end.",
				"The sequence is the number of toothpicks laid after n rounds.",
				"The structure is essentially the same as the Sierpinski's triangle but here every equilateral triangle is replaced with an isosceles triangle and then every isosceles triangle is replaced with seven toothpicks. There are infinitely many sequences of this type. - _Omar E. Pol_, Mar 12 2016"
			],
			"link": [
				"Christopher J. Shore, \u003ca href=\"http://tube.geogebra.org/student/mr4Tpnl0A\"\u003eGeogebra image of the toothpick sequence\u003c/a\u003e.",
				"\u003ca href=\"/index/To#toothpick\"\u003eIndex entries for sequences related to toothpick sequences\u003c/a\u003e"
			],
			"example": [
				"The pattern is the total number of toothpicks laid after n rounds.",
				"Following the rules above, the first round has 1 toothpick, the second and third rounds also have 1 toothpick, but the fourth and fifth round both have 2 toothpicks. Finding the total toothpicks placed in this pattern (1,1,1,2,2) gives 1,2,3,5,7. Subsequent rounds have this same pattern repeated from the emerging branches thus:",
				"(1,1,1,2,2) ---\u003e 1,2,3,5,7",
				"2*(1,1,1,2,2) ---\u003e 9,11,13,17,21",
				"2*((1,1,1,2,2),2*(1,1,1,2,2)) ---\u003e 23,25,27,31,35,39,43,47,55,63",
				"2*((1,1,1,2,2),2*(1,1,1,2,2),2*((1,1,1,2,2),2*(1,1,1,2,2))) ---\u003e 65,67,69,73,77,81,85,89,97,105,109,113,117,125,133,141,149,157,173,189",
				"Summation of 1*the sequence 1,1,1,2,2",
				"  (1)=1",
				"1+(1)=2",
				"2+(1)=3",
				"3+(2)=5",
				"5+(2)=7",
				"Summation of 2*the sequence 1,1,1,2,2",
				"7+2(1)=9",
				"9+2(1)=11",
				"11+2(1)=13",
				"13+2(2)=17",
				"17+2(2)=21",
				"Summation of 3*the sequence 1,1,1,2,2",
				"21+2(1)=23",
				"23+2(1)=25",
				"25+2(1)=27",
				"27+2(2)=31",
				"31+2(2)=35"
			],
			"xref": [
				"Cf. A047999, A151566, A139250."
			],
			"keyword": "nonn",
			"offset": "1,2",
			"author": "_Christopher J. Shore_, Dec 07 2015",
			"references": 0,
			"revision": 28,
			"time": "2018-04-17T03:48:23-04:00",
			"created": "2016-04-05T00:36:11-04:00"
		}
	]
}