{
	"greeting": "Greetings from The On-Line Encyclopedia of Integer Sequences! http://oeis.org/",
	"query": "id:A265389",
	"count": 1,
	"start": 0,
	"results": [
		{
			"number": 265389,
			"data": "6,16,27,36,46,57,66,75,87,96,106,117,126,136,147,156,165,177,186,196,207,216,227,237,246,255,267,276,286,297,306,316,327,336,345,357,366,376,387,396,406,417,426,435,447,456,466,477,486,497,507,516,525,537",
			"name": "The sums from the following procedure: from the list of positive integers, repeatedly remove the first three numbers and their sum.",
			"comment": [
				"This sequence is a solution, along with three other sequences, of a system of four complementary equations; see A297464.  It is the \"anti-tribonacci\" sequence, in analogy with the anti-Fibonacci sequence, A075326. - _Clark Kimberling_, Apr 22 2018"
			],
			"link": [
				"Peter Kagey, \u003ca href=\"/A265389/b265389.txt\"\u003eTable of n, a(n) for n = 1..10000\u003c/a\u003e",
				"William Lowell Putnam Competition, \u003ca href=\"http://kskedlaya.org/putnam-archive/2015.pdf\"\u003eProblem B2\u003c/a\u003e, 2015."
			],
			"maple": [
				"S:= {$1..1000}: A:= NULL:",
				"while nops(S) \u003e= 3 do",
				"  T:= S[1..3];",
				"  s:= convert(T,`+`);",
				"  S:= S[4..-1] minus {s};",
				"  A:= A, s",
				"od:",
				"A; # _Robert Israel_, Dec 22 2015"
			],
			"mathematica": [
				"f[n_] := Block[{a = {}, r = Range@ n, s}, Do[If[Length@ r \u003e 4, s = Total@ Take[r, 3 ]; AppendTo[a, s]; r = Drop[#, 3] \u0026@ DeleteCases[r, x_ /; x == s], Break[]], {k, n}]; a]; f@ 184 (* _Michael De Vlieger_, Dec 22 2015 *)",
				"morph = Nest[Flatten[# /. {0 -\u003e {1, 2, 0}, 1 -\u003e {1, 1, 0}, 2 -\u003e {1, 0, 0}}] \u0026, {0}, 9]; A265389 = Accumulate[Prepend[Drop[Flatten[morph /. Thread[{0, 1, 2} -\u003e {{1, 1, 4}, {1, 2, 3}, {1, 3, 2}}]], 1] + 8, 6]];",
				"Take[A265389, 100]    (* _Peter J. C. Moses_, May 03 2018 *)"
			],
			"program": [
				"(Ruby)",
				"x = (1..10000).to_a",
				"(0...1000).collect do",
				"  y = x.shift(3).reduce(:+); x.delete_at x.index(y); y",
				"end"
			],
			"keyword": "nonn",
			"offset": "1,1",
			"author": "_Peter Kagey_, Dec 08 2015",
			"references": 11,
			"revision": 32,
			"time": "2018-05-05T04:19:24-04:00",
			"created": "2016-01-21T09:00:33-05:00"
		}
	]
}