{
	"greeting": "Greetings from The On-Line Encyclopedia of Integer Sequences! http://oeis.org/",
	"query": "id:A265862",
	"count": 1,
	"start": 0,
	"results": [
		{
			"number": 265862,
			"data": "1,6,1462,1584088,8616332520,71643177829872,1642669067898696816",
			"name": "Number of n X 4 arrays of permutations of 4 copies of 0..n-1 with no element plus any vertical neighbor equal to n-1.",
			"comment": [
				"Column 4 of A265863."
			],
			"example": [
				"Some solutions for n=3",
				"..2..2..2..0....2..1..0..0....0..2..1..0....1..2..0..2....2..0..0..2",
				"..1..1..1..0....1..2..0..0....0..1..2..0....0..1..1..2....1..1..1..1",
				"..0..0..2..1....2..2..1..1....1..2..2..1....0..0..2..1....2..0..0..2"
			],
			"xref": [
				"Cf. A265863."
			],
			"keyword": "nonn",
			"offset": "1,2",
			"author": "_R. H. Hardin_, Dec 17 2015",
			"references": 0,
			"revision": 5,
			"time": "2021-10-02T10:23:08-04:00",
			"created": "2015-12-17T09:26:27-05:00"
		}
	]
}