{
	"greeting": "Greetings from The On-Line Encyclopedia of Integer Sequences! http://oeis.org/",
	"query": "id:A265637",
	"count": 1,
	"start": 0,
	"results": [
		{
			"number": 265637,
			"data": "3,21,2660,85492,2331618,206993090,42763599173,830409551666,118433371523627,3709178084192695,709564144395637629,26474898186117799270,3187921008058618254721,245528729947540095091943",
			"name": "Number of 3Xn 0..3*n-1 arrays with upper left zero and lower right 3*n-1 and each element differing from its horizontal, diagonal and antidiagonal neighbors by a power of two.",
			"comment": [
				"Row 3 of A265635."
			],
			"link": [
				"R. H. Hardin, \u003ca href=\"/A265637/b265637.txt\"\u003eTable of n, a(n) for n = 1..91\u003c/a\u003e"
			],
			"example": [
				"Some solutions for n=4",
				"..0..4..3..1....0..2.10..8....0..4..3..1....0..8..9..1....0..4..6..7",
				"..0..1..3..5....6..8.10..6....3..1..3..1....6..8..9.10....0..2..3..7",
				"..0..1..9.11...10..8.10.11....3..7..9.11....6..8..9.11....3..2..3.11"
			],
			"xref": [
				"Cf. A265635."
			],
			"keyword": "nonn",
			"offset": "1,1",
			"author": "_R. H. Hardin_, Dec 11 2015",
			"references": 1,
			"revision": 4,
			"time": "2015-12-11T07:45:48-05:00",
			"created": "2015-12-11T07:45:48-05:00"
		}
	]
}