{
	"greeting": "Greetings from The On-Line Encyclopedia of Integer Sequences! http://oeis.org/",
	"query": "id:A265248",
	"count": 1,
	"start": 0,
	"results": [
		{
			"number": 265248,
			"data": "0,0,2,5,14,22,43,63,97,140,201,266,371,492,638,837,1079,1377,1748,2207,2756,3471,4287,5317,6537,8081,9840,12069,14643,17837,21543,26113,31385,37877,45318,54433,64944,77682,92341,109995,130373,154769,182866,216350,254905,300648,353259,415392,486843,570867",
			"name": "Sum of the 2nd smallest parts of all the partitions of n (2nd smallest part is defined to be 0 when the partition does not have at least 2 distinct parts).",
			"comment": [
				"a(n) = Sum_{k\u003e=0} k*A265247(n,k)."
			],
			"link": [
				"Alois P. Heinz, \u003ca href=\"/A265248/b265248.txt\"\u003eTable of n, a(n) for n = 1..1000\u003c/a\u003e"
			],
			"formula": [
				"G.f.: G(x) = Sum_{i\u003e=1} x^i/(1-x^i)*Sum_{j\u003e=i+1} j*x^j/Product_{k\u003e=j}(1-x^k)."
			],
			"example": [
				"a(4) = 5 because in [4], [3,1], [2,2], [2,1,1], [1,1,1,1] the 2nd smallest parts are 0,3,0,2,0, respectively."
			],
			"maple": [
				"g := add(x^i*add(j*x^j/mul(1-x^k, k = j .. 100), j = i+1 .. 100)/(1-x^i), i = 1 .. 100): gser := series(g, x = 0, 60): seq(coeff(gser, x, n), n = 1 .. 50);",
				"# second Maple program:",
				"b:= proc(n, i, t) option remember; `if`(n=0, [1, 0],",
				"      `if`(i\u003en, 0, add((p-\u003e `if`(t=1, p+[0, i*p[1]], p))(",
				"       b(n-i*j, i+1, min(t+1,2))), j=1..n/i)+b(n, i+1, t)))",
				"    end:",
				"a:= n-\u003e b(n,1,0)[2]:",
				"seq(a(n), n=1..50);  # _Alois P. Heinz_, Dec 31 2015"
			],
			"mathematica": [
				"Table[Total@ Flatten@ Map[Take[DeleteDuplicates@ #, {-2}] \u0026, Select[IntegerPartitions@ n, Total@ Differences@ # != 0 \u0026\u0026 Length@ # \u003e= 2 \u0026]], {n, 50}] (* _Michael De Vlieger_, Dec 24 2015 *)",
				"(* Second program: *)",
				"b[n_, i_, t_] := b[n, i, t] = If[n == 0, {1, 0},",
				"     If[i \u003e n, {0, 0}, Sum[If[t == 1, # + {0, i*#[[1]]}, #]\u0026[",
				"     b[n - i*j, i+1, Min[t+1, 2]]], {j, 1, n/i}] + b[n, i+1, t]]];",
				"a[n_] := b[n, 1, 0][[2]];",
				"Array[a, 50] (* _Jean-François Alcover_, Jun 05 2021, after _Alois P. Heinz_ *)"
			],
			"xref": [
				"Cf. A265247."
			],
			"keyword": "nonn",
			"offset": "1,3",
			"author": "_Emeric Deutsch_, Dec 24 2015",
			"references": 2,
			"revision": 17,
			"time": "2021-06-05T08:43:33-04:00",
			"created": "2015-12-25T06:51:08-05:00"
		}
	]
}