{
	"greeting": "Greetings from The On-Line Encyclopedia of Integer Sequences! http://oeis.org/",
	"query": "id:A265931",
	"count": 1,
	"start": 0,
	"results": [
		{
			"number": 265931,
			"data": "125,4616,17936,72772,273616,1042020,3883480,14617920,55503312,210277584,791400360,2978940280,11257286824,42533780480,160460490488,604824610736,2282902792488,8619222724444,32528290390168,122688090414988",
			"name": "Number of 3Xn 0..4 arrays with the absolute differences of each element with its with horizontal and antidiagonal neighbors unique.",
			"comment": [
				"Row 3 of A265928."
			],
			"link": [
				"R. H. Hardin, \u003ca href=\"/A265931/b265931.txt\"\u003eTable of n, a(n) for n = 1..210\u003c/a\u003e"
			],
			"example": [
				"Some solutions for n=4",
				"..0..0..4..3....4..1..0..4....1..3..3..4....1..3..0..1....1..4..0..0",
				"..3..4..1..1....3..0..4..1....4..0..0..1....3..0..4..3....4..3..3..4",
				"..2..2..4..0....1..3..0..0....2..3..3..0....2..2..1..4....1..1..4..3"
			],
			"xref": [
				"Cf. A265928."
			],
			"keyword": "nonn",
			"offset": "1,1",
			"author": "_R. H. Hardin_, Dec 18 2015",
			"references": 1,
			"revision": 6,
			"time": "2015-12-19T09:51:37-05:00",
			"created": "2015-12-18T22:42:21-05:00"
		}
	]
}