{
	"greeting": "Greetings from The On-Line Encyclopedia of Integer Sequences! http://oeis.org/",
	"query": "id:A265508",
	"count": 1,
	"start": 0,
	"results": [
		{
			"number": 265508,
			"data": "0,0,0,0,0,0,0,0,0,1,1,3,5,10,15,29,42,68,109,162,240,364,527,749,1096,1529,2162,3026,4179,5702,7926,10650,14412,19437,26042,34560,46077,60617,79893,104850,136851,177884,231526,298868,385221,496159,635725,812342",
			"name": "Number of unordered pairs {p,q} of partitions of n into distinct parts such that p and q are incomparable in the dominance order.",
			"link": [
				"Alois P. Heinz, \u003ca href=\"/A265508/b265508.txt\"\u003eTable of n, a(n) for n = 0..250\u003c/a\u003e",
				"Wikipedia, \u003ca href=\"https://en.wikipedia.org/wiki/Dominance_order\"\u003eDominance Order\u003c/a\u003e"
			],
			"formula": [
				"a(n) = A000217(A000009(n)) - A265506(n)."
			],
			"example": [
				"a(9) = 1: {621,54}.",
				"a(10) = 1: {721,64}.",
				"a(11) = 3: {821,74}, {821,65}, {731,65}.",
				"a(12) = 5: {6321,543}, {921,84}, {921,75}, {831,75}, {732,651}."
			],
			"maple": [
				"b:= proc(n, m, i, j, t) option remember; `if`(n\u003cm, 0, `if`(n=0, 1,",
				"      `if`(i\u003c1, 0, `if`(t and j\u003e0, b(n, m, i, j-1, true), 0)+",
				"      b(n, m, i-1, j, false)+b(n-i, m-j, max(0, min(n-i, i-1)),",
				"      max(0, min(m-j, j-1)), true))))",
				"    end:",
				"g:= proc(n, i) option remember; `if`(i*(i+1)/2\u003cn, 0,",
				"      `if`(n=0, 1, g(n, i-1)+`if`(i\u003en, 0, g(n-i, i-1))))",
				"    end:",
				"a:= n-\u003e (t-\u003e t*(t+1)/2)(g(n$2))-b(n$4, true):",
				"seq(a(n), n=0..45);"
			],
			"mathematica": [
				"b[n_, m_, i_, j_, t_] := b[n, m, i, j, t] = If[n \u003c m, 0, If[n == 0, 1, If[i \u003c 1, 0, If[t \u0026\u0026 j \u003e 0, b[n, m, i, j-1, True], 0] + b[n, m, i-1, j, False] + b[n-i, m-j, Max[0, Min[n-i, i-1]], Max[0, Min[m-j, j-1]], True]]]]; g[n_, i_] := g[n, i] = If[i*(i+1)/2 \u003c n, 0, If[n == 0, 1, g[n, i-1] + If[i \u003e n, 0, g[n-i, i-1]]]]; a[n_] := (#*(#+1)/2\u0026)[g[n, n]] - b[n, n, n, n, True]; Table[a[n], {n, 0, 45}] (* _Jean-François Alcover_, Feb 05 2017, translated from Maple *)"
			],
			"xref": [
				"Cf. A000009, A000217, A248476, A265506."
			],
			"keyword": "nonn",
			"offset": "0,12",
			"author": "_Alois P. Heinz_, Dec 09 2015",
			"references": 3,
			"revision": 13,
			"time": "2017-02-06T12:12:04-05:00",
			"created": "2015-12-09T19:59:01-05:00"
		}
	]
}