{
	"greeting": "Greetings from The On-Line Encyclopedia of Integer Sequences! http://oeis.org/",
	"query": "id:A265517",
	"count": 1,
	"start": 0,
	"results": [
		{
			"number": 265517,
			"data": "0,1,2,3,4,5,0,7,7,7,7,7,0,7,14,14,14,14,0,7,14,21,21,21,0,7,14,21,28,28,0,7,14,21,28,35,0,37,37,37,37,37,0,43,43,43,43,43,0,49,49,49,49,49,0,55,55,55,55,55,0,61,61,61,61,61,0,67,67,67,67,67,0,37,74,74,74,74,0,43,80,80,80,80,0,49,86",
			"name": "a(n) = largest base-6 palindrome m \u003c= n such that every base-6 digit of m is \u003c= the corresponding digit of n; m is written in base 10.",
			"xref": [
				"Sequences related to palindromic floor and ceiling: A175298, A206913, A206914, A261423, A262038, and the large block of consecutive sequences beginning at A265509."
			],
			"keyword": "nonn,base",
			"offset": "0,3",
			"author": "_N. J. A. Sloane_, Dec 09 2015",
			"references": 0,
			"revision": 4,
			"time": "2015-12-09T20:18:42-05:00",
			"created": "2015-12-09T20:18:42-05:00"
		}
	]
}