{
	"greeting": "Greetings from The On-Line Encyclopedia of Integer Sequences! http://oeis.org/",
	"query": "id:A265606",
	"count": 1,
	"start": 0,
	"results": [
		{
			"number": 265606,
			"data": "1,0,1,0,1,1,0,5,3,1,0,45,23,6,1,0,585,275,65,10,1,0,9945,4435,990,145,15,1,0,208845,89775,19285,2730,280,21,1,0,5221125,2183895,456190,62965,6370,490,28,1,0,151412625,62002395,12676265,1715490,171255,13230,798,36,1",
			"name": "Triangle read by rows: The Bell transform of the quartic factorial numbers (A007696).",
			"link": [
				"Richell O. Celeste, Roberto B. Corcino, Ken Joffaniel M. Gonzales. \u003ca href=\"https://cs.uwaterloo.ca/journals/JIS/VOL20/Celeste/celeste3.html\"\u003e Two Approaches to Normal Order Coefficients\u003c/a\u003e. Journal of Integer Sequences, Vol. 20 (2017), Article 17.3.5.",
				"Peter Luschny, \u003ca href=\"https://oeis.org/wiki/User:Peter_Luschny/BellTransform\"\u003eThe Bell transform\u003c/a\u003e"
			],
			"example": [
				"[1],",
				"[0, 1],",
				"[0, 1, 1],",
				"[0, 5, 3, 1],",
				"[0, 45, 23, 6, 1],",
				"[0, 585, 275, 65, 10, 1],",
				"[0, 9945, 4435, 990, 145, 15, 1],",
				"[0, 208845, 89775, 19285, 2730, 280, 21, 1],"
			],
			"mathematica": [
				"(* The function BellMatrix is defined in A264428. *)",
				"rows = 10;",
				"M = BellMatrix[Pochhammer[1/4, #] 4^# \u0026, rows];",
				"Table[M[[n, k]], {n, 1, rows}, {k, 1, n}] // Flatten (* _Jean-François Alcover_, Jul 23 2019 *)"
			],
			"program": [
				"(Sage) # uses[bell_transform from A264428]",
				"def A265606_row(n):",
				"    multifact_4_1 = lambda n: prod(4*k + 1 for k in (0..n-1))",
				"    mfact = [multifact_4_1(k) for k in (0..n)]",
				"    return bell_transform(n, mfact)",
				"[A265606_row(n) for n in (0..7)]"
			],
			"xref": [
				"Cf. A007696, A264428, A264429.",
				"Bell transforms of other multifactorials are: A000369, A004747, A039683, A051141, A051142, A119274, A132062, A132393, A203412."
			],
			"keyword": "nonn,tabl",
			"offset": "0,8",
			"author": "_Peter Luschny_, Dec 30 2015",
			"references": 4,
			"revision": 22,
			"time": "2020-07-03T14:55:05-04:00",
			"created": "2015-12-30T13:08:42-05:00"
		}
	]
}