{
	"greeting": "Greetings from The On-Line Encyclopedia of Integer Sequences! http://oeis.org/",
	"query": "id:A265205",
	"count": 1,
	"start": 0,
	"results": [
		{
			"number": 265205,
			"data": "1,0,3,0,7,2,5,2,9,6,5,10,13,6,11,10,15,10,19,10,23,10,17,20,19,16,25,18,19,20,25,14,37,20,27,26,35,20,37,30,41,24,33,36,39,26,45,36,37,38,41,36,49,44,29,56,39,40,57,40,43,60,39,48,55,44,45,64",
			"name": "Number of ON cells in the n-th iteration of the \"Rule 73\" elementary cellular automaton starting with a single ON cell.",
			"reference": [
				"S. Wolfram, A New Kind of Science, Wolfram Media, 2002; p. 55."
			],
			"link": [
				"Robert Price, \u003ca href=\"/A265205/b265205.txt\"\u003eTable of n, a(n) for n = 0..999\u003c/a\u003e",
				"Eric Weisstein's World of Mathematics, \u003ca href=\"http://mathworld.wolfram.com/ElementaryCellularAutomaton.html\"\u003eElementary Cellular Automaton\u003c/a\u003e",
				"\u003ca href=\"/index/Ce#cell\"\u003eIndex entries for sequences related to cellular automata\u003c/a\u003e",
				"\u003ca href=\"https://oeis.org/wiki/Index_to_Elementary_Cellular_Automata\"\u003eIndex to Elementary Cellular Automata\u003c/a\u003e"
			],
			"mathematica": [
				"rule = 73; rows = 30; Table[Total[Table[Take[CellularAutomaton[rule, {{1},0},rows-1,{All,All}][[k]], {rows-k+1, rows+k-1}], {k,1,rows}][[k]]], {k,1,rows}]"
			],
			"xref": [
				"Cf. A245549, A262448, A265122, A265156."
			],
			"keyword": "nonn,easy",
			"offset": "0,3",
			"author": "_Robert Price_, Dec 04 2015",
			"references": 4,
			"revision": 8,
			"time": "2015-12-05T15:20:41-05:00",
			"created": "2015-12-05T00:10:48-05:00"
		}
	]
}