{
	"greeting": "Greetings from The On-Line Encyclopedia of Integer Sequences! http://oeis.org/",
	"query": "id:A266305",
	"count": 1,
	"start": 0,
	"results": [
		{
			"number": 266305,
			"data": "1,1,7,74,1060,19013,408650,10219360,291158230,9302358947,329192040880,12775809098058,539351216354728,24600280965461923,1205263251360664310,63115789721408960624,3517483455875467926588,207834769804597591153769,12976002600530598793672490",
			"name": "Number of n X n symmetric matrices with nonnegative integer entries and without zero rows or columns such that the sum of all entries is equal to 2n.",
			"link": [
				"Alois P. Heinz, \u003ca href=\"/A266305/b266305.txt\"\u003eTable of n, a(n) for n = 0..200\u003c/a\u003e"
			],
			"formula": [
				"a(n) = A138177(2n,n)."
			],
			"example": [
				"a(2) = 7:",
				"[1 1]  [2 1]  [0 1]  [2 0]  [0 2]  [3 0]  [1 0]",
				"[1 1]  [1 0]  [1 2]  [0 2]  [2 0]  [0 1]  [0 3]."
			],
			"maple": [
				"gf:= k-\u003e 1/((1-x)^k*(1-x^2)^(k*(k-1)/2)):",
				"A:= (n, k)-\u003e coeff(series(gf(k), x, n+1), x, n):",
				"a:= n-\u003e add(A(2*n, n-j)*(-1)^j*binomial(n, j), j=0..n):",
				"seq(a(n), n=0..20);"
			],
			"mathematica": [
				"gf[k_] := 1/((1-x)^k*(1-x^2)^(k*(k-1)/2)); A[n_, k_] := SeriesCoefficient[ gf[k], {x, 0, n}]; a[n_] := Sum[A[2*n, n-j]*(-1)^j*Binomial[n, j], {j, 0, n}]; Table[a[n], {n, 0, 20}] (* _Jean-François Alcover_, Feb 25 2017, translated from Maple *)"
			],
			"xref": [
				"Cf. A138177, A268309."
			],
			"keyword": "nonn",
			"offset": "0,3",
			"author": "_Alois P. Heinz_, Jan 31 2016",
			"references": 3,
			"revision": 30,
			"time": "2017-02-25T02:49:10-05:00",
			"created": "2016-02-01T09:13:08-05:00"
		}
	]
}