{
	"greeting": "Greetings from The On-Line Encyclopedia of Integer Sequences! http://oeis.org/",
	"query": "id:A266950",
	"count": 1,
	"start": 0,
	"results": [
		{
			"number": 266950,
			"data": "0,2,5,21,37,93,133,463,1759,2676,4328,8931,10919,17929,22663,43451,45355,55533,60551,92233,112723,190371,485648,791123,1072318,1458993,2617393",
			"name": "Indices of record values in A266948: least prime p such that p-2 and 6n-p are also prime.",
			"xref": [
				"Goldbach conjecture related: see A266951 (the record values) and A266948 for further information."
			],
			"keyword": "nonn,more",
			"offset": "1,2",
			"author": "_M. F. Hasler_, Jan 06 2016",
			"references": 2,
			"revision": 9,
			"time": "2016-01-09T14:36:58-05:00",
			"created": "2016-01-09T14:36:58-05:00"
		}
	]
}