{
	"greeting": "Greetings from The On-Line Encyclopedia of Integer Sequences! http://oeis.org/",
	"query": "id:A266738",
	"count": 1,
	"start": 0,
	"results": [
		{
			"number": 266738,
			"data": "1,1,20,1680,369600,117392909,46121962742,21198300356500,11003612776114008,6290031043253973544,3887357166155963541538,2562077915376091538040250,1782153151031487742187453640,1297781266782084301101836538690,983066960483171632842827775906144",
			"name": "Number of words on {1,1,1,2,2,2,3,3,3,4,4,4,...,n,n,n} avoiding the pattern 12345.",
			"link": [
				"Ferenc Balogh, \u003ca href=\"http://arxiv.org/abs/1505.01389\"\u003eA generalization of Gessel's generating function to enumerate words with double or triple occurrences in each letter and without increasing subsequences of a given length\u003c/a\u003e, preprint arXiv:1505.01389, 2015.",
				"Shalosh B. Ekhad and Doron Zeilberger, \u003ca href=\"http://www.math.rutgers.edu/~zeilberg/mamarim/mamarimhtml/sloane75.html\"\u003eThe Generating Functions Enumerating 12..d-Avoiding Words with r occurrences of each of 1,2, ..., n are D-finite for all d and all r\u003c/a\u003e, 2014"
			],
			"xref": [
				"Cf. A014606, A220097, A266734, A266735, A266736-A266741."
			],
			"keyword": "nonn",
			"offset": "0,3",
			"author": "_N. J. A. Sloane_, Jan 06 2016",
			"ext": [
				"More terms from _Alois P. Heinz_, Jan 14 2016"
			],
			"references": 0,
			"revision": 12,
			"time": "2016-04-15T13:19:10-04:00",
			"created": "2016-01-06T23:41:19-05:00"
		}
	]
}