{
	"greeting": "Greetings from The On-Line Encyclopedia of Integer Sequences! http://oeis.org/",
	"query": "id:A266419",
	"count": 1,
	"start": 0,
	"results": [
		{
			"number": 266419,
			"data": "9,15,19,21,27,31,33,35,39,45,49,51,55,57,59,63,65,69,73,75,79,81,85,87,93,95,99,101,103,105,109,111,113,117,123,125,129,133,135,137,139,141,145,147,151,153,155,159,163,165,167,169,171,177,183,185,187,189,191,195,197,199,201,203,205,207,213,215",
			"name": "Odd nonludic numbers.",
			"link": [
				"Antti Karttunen, \u003ca href=\"/A266419/b266419.txt\"\u003eTable of n, a(n) for n = 1..10220\u003c/a\u003e"
			],
			"formula": [
				"Other identities. For all n \u003e= 1:",
				"a(n) = 1 + 2*A266410(n)."
			],
			"program": [
				"(Scheme, with _Antti Karttunen_'s IntSeq-library)",
				"(define A266419 (MATCHING-POS 1 1 (lambda (n) (and (odd? n) (zero? (A192490 n))))))"
			],
			"xref": [
				"Intersection of A005408 and A192607.",
				"Cf. A192490, A266410, A237126.",
				"Cf. also A071904, A266420."
			],
			"keyword": "nonn",
			"offset": "1,1",
			"author": "_Antti Karttunen_, Jan 28 2016",
			"references": 3,
			"revision": 9,
			"time": "2016-01-30T03:10:46-05:00",
			"created": "2016-01-30T03:10:46-05:00"
		}
	]
}