{
	"greeting": "Greetings from The On-Line Encyclopedia of Integer Sequences! http://oeis.org/",
	"query": "id:A266611",
	"count": 1,
	"start": 0,
	"results": [
		{
			"number": 266611,
			"data": "1,0,1,0,0,1,0,1,0,1,0,1,0,1,0,1,0,1,0,1,0,1,0,1,0,1,0,1,0,1,0,1,0,1,0,1,0,1,0,1,0,1,0,1,0,1,0,1,0,1,0,1,0,1,0,1,0,1,0,1,0,1,0,1,0,1,0,1,0,1,0,1,0,1,0,1,0,1,0,1,0,1,0,1,0,1",
			"name": "Middle column of the \"Rule 41\" elementary cellular automaton starting with a single ON (black) cell.",
			"link": [
				"Robert Price, \u003ca href=\"/A266611/b266611.txt\"\u003eTable of n, a(n) for n = 0..1000\u003c/a\u003e",
				"Eric Weisstein's World of Mathematics, \u003ca href=\"http://mathworld.wolfram.com/ElementaryCellularAutomaton.html\"\u003eElementary Cellular Automaton\u003c/a\u003e",
				"Stephen Wolfram, \u003ca href=\"http://wolframscience.com/\"\u003eA New Kind of Science\u003c/a\u003e, Wolfram Media, 2002; p. 55.",
				"\u003ca href=\"/index/Ce#cell\"\u003eIndex entries for sequences related to cellular automata\u003c/a\u003e",
				"\u003ca href=\"https://oeis.org/wiki/Index_to_Elementary_Cellular_Automata\"\u003eIndex to Elementary Cellular Automata\u003c/a\u003e"
			],
			"mathematica": [
				"rule=41; rows=20; ca=CellularAutomaton[rule,{{1},0},rows-1,{All,All}]; (* Start with single black cell *) catri=Table[Take[ca[[k]],{rows-k+1,rows+k-1}],{k,1,rows}]; (* Truncated list of each row *) Table[catri[[k]][[k]],{k,1,rows}] (* Keep only middle cell from each row *)"
			],
			"xref": [
				"Cf. A266608, A266612, A266613."
			],
			"keyword": "nonn,easy",
			"offset": "0",
			"author": "_Robert Price_, Jan 01 2016",
			"references": 3,
			"revision": 12,
			"time": "2021-10-09T04:04:12-04:00",
			"created": "2016-01-01T20:07:38-05:00"
		}
	]
}