{
	"greeting": "Greetings from The On-Line Encyclopedia of Integer Sequences! http://oeis.org/",
	"query": "id:A266359",
	"count": 1,
	"start": 0,
	"results": [
		{
			"number": 266359,
			"data": "6,34,173,830,3669,14921,55734,191916,612871,1827072,5118950,13561326,34161206,82219937,189887848,422385924,907900116,1891159167,3827190045,7541618443,14499264935,27245395504,50118187760,90379795961,159985071253",
			"name": "Number of nX5 binary arrays with rows and columns lexicographically nondecreasing and row and column sums nondecreasing.",
			"comment": [
				"Column 5 of A266362."
			],
			"link": [
				"R. H. Hardin, \u003ca href=\"/A266359/b266359.txt\"\u003eTable of n, a(n) for n = 1..31\u003c/a\u003e"
			],
			"example": [
				"Some solutions for n=4",
				"..0..0..0..0..0....0..0..0..1..1....0..0..0..0..0....0..0..0..0..1",
				"..0..0..0..0..1....0..1..1..0..0....0..0..0..0..1....0..0..0..1..1",
				"..0..0..0..1..1....1..0..1..0..1....0..0..0..0..1....0..0..1..0..1",
				"..1..1..1..1..0....1..1..0..1..1....0..0..1..1..1....1..1..0..1..1"
			],
			"xref": [
				"Cf. A266362."
			],
			"keyword": "nonn",
			"offset": "1,1",
			"author": "_R. H. Hardin_, Dec 28 2015",
			"references": 1,
			"revision": 4,
			"time": "2015-12-28T07:04:25-05:00",
			"created": "2015-12-28T07:04:25-05:00"
		}
	]
}