{
	"greeting": "Greetings from The On-Line Encyclopedia of Integer Sequences! http://oeis.org/",
	"query": "id:A266673",
	"count": 1,
	"start": 0,
	"results": [
		{
			"number": 266673,
			"data": "1,1,1010,1001011,1001100,11001010111,1001011000,111001001101111,1001010110000,1111001001011011111,1001001101100000,11111001001010110111111,1001001011011000000,111111001001001101101111111,1001001010110110000000,1111111001001001011011011111111",
			"name": "Binary representation of the n-th iteration of the \"Rule 57\" elementary cellular automaton starting with a single ON (black) cell.",
			"reference": [
				"S. Wolfram, A New Kind of Science, Wolfram Media, 2002; p. 55."
			],
			"link": [
				"Robert Price, \u003ca href=\"/A266673/b266673.txt\"\u003eTable of n, a(n) for n = 0..1000\u003c/a\u003e",
				"Eric Weisstein's World of Mathematics, \u003ca href=\"http://mathworld.wolfram.com/ElementaryCellularAutomaton.html\"\u003eElementary Cellular Automaton\u003c/a\u003e",
				"S. Wolfram, \u003ca href=\"http://wolframscience.com/\"\u003eA New Kind of Science\u003c/a\u003e",
				"\u003ca href=\"/index/Ce#cell\"\u003eIndex entries for sequences related to cellular automata\u003c/a\u003e",
				"\u003ca href=\"https://oeis.org/wiki/Index_to_Elementary_Cellular_Automata\"\u003eIndex to Elementary Cellular Automata\u003c/a\u003e"
			],
			"formula": [
				"Empirical g.f.: (1 +x -10001*x^2 +989000*x^3 -1000000*x^5 -899991000*x^6 +10000000*x^7 +10911000000*x^8 -20000000000*x^10) / ((1 -x)*(1 +x)*(1 -10*x)*(1 -100*x)*(1 +100*x)*(1 -10*x^2)*(1 +10*x +100*x^2)*(1 -1000*x^2)). - _Colin Barker_, Jan 03 2016 and Apr 18 2019"
			],
			"mathematica": [
				"rule=57; rows=20; ca=CellularAutomaton[rule,{{1},0},rows-1,{All,All}]; (* Start with single black cell *) catri=Table[Take[ca[[k]],{rows-k+1,rows+k-1}],{k,1,rows}]; (* Truncated list of each row *) Table[FromDigits[catri[[k]]],{k,1,rows}] (* Binary Representation of Rows *)"
			],
			"xref": [
				"Cf. A266672."
			],
			"keyword": "nonn",
			"offset": "0,3",
			"author": "_Robert Price_, Jan 02 2016",
			"references": 1,
			"revision": 19,
			"time": "2019-04-18T11:45:12-04:00",
			"created": "2016-01-03T02:39:01-05:00"
		}
	]
}