{
	"greeting": "Greetings from The On-Line Encyclopedia of Integer Sequences! http://oeis.org/",
	"query": "id:A266794",
	"count": 1,
	"start": 0,
	"results": [
		{
			"number": 266794,
			"data": "0,1,3,2,5,4,8,4,12,4,16,4,20,4,24,4,28,4,32,4,36,4,40,4,44,4,48,4,52,4,56,4,60,4,64,4,68,4,72,4,76,4,80,4,84,4,88,4,92,4,96,4,100,4,104,4,108,4,112,4,116,4,120,4,124,4,128,4,132,4,136,4",
			"name": "Number of OFF (white) cells in the n-th iteration of the \"Rule 61\" elementary cellular automaton starting with a single ON (black) cell.",
			"reference": [
				"S. Wolfram, A New Kind of Science, Wolfram Media, 2002; p. 55."
			],
			"link": [
				"Robert Price, \u003ca href=\"/A266794/b266794.txt\"\u003eTable of n, a(n) for n = 0..1000\u003c/a\u003e",
				"Eric Weisstein's World of Mathematics, \u003ca href=\"http://mathworld.wolfram.com/ElementaryCellularAutomaton.html\"\u003eElementary Cellular Automaton\u003c/a\u003e",
				"S. Wolfram, \u003ca href=\"http://wolframscience.com/\"\u003eA New Kind of Science\u003c/a\u003e",
				"\u003ca href=\"/index/Ce#cell\"\u003eIndex entries for sequences related to cellular automata\u003c/a\u003e",
				"\u003ca href=\"https://oeis.org/wiki/Index_to_Elementary_Cellular_Automata\"\u003eIndex to Elementary Cellular Automata\u003c/a\u003e"
			],
			"formula": [
				"Conjectures from _Colin Barker_, Jan 04 2016 and Apr 17 2019: (Start)",
				"a(n) = n+(-1)^n*(n-4) for n\u003e4.",
				"a(n) = 2*a(n-2)-a(n-4) for n\u003e7.",
				"G.f.: x*(1+3*x-x^3+x^4+x^5-2*x^6+x^7) / ((1-x)^2*(1+x)^2).",
				"(End)"
			],
			"mathematica": [
				"rule=61; rows=20; ca=CellularAutomaton[rule,{{1},0},rows-1,{All,All}]; (* Start with single black cell *) catri=Table[Take[ca[[k]],{rows-k+1,rows+k-1}],{k,1,rows}]; (* Truncated list of each row *) nbc=Table[Total[catri[[k]]],{k,1,rows}]; (* Number of Black cells in stage n *) Table[Length[catri[[k]]]-nbc[[k]],{k,1,rows}] (* Number of White cells in stage n *)"
			],
			"xref": [
				"Cf. A266786.",
				"Cf. A266795 (partial sums)."
			],
			"keyword": "nonn,easy",
			"offset": "0,3",
			"author": "_Robert Price_, Jan 03 2016",
			"references": 2,
			"revision": 20,
			"time": "2019-04-17T10:03:23-04:00",
			"created": "2016-01-03T12:54:46-05:00"
		}
	]
}