{
	"greeting": "Greetings from The On-Line Encyclopedia of Integer Sequences! http://oeis.org/",
	"query": "id:A266906",
	"count": 1,
	"start": 0,
	"results": [
		{
			"number": 266906,
			"data": "2,13,102,1233,17773,295717,5288444,100047497,1969179263,39719367272,815220460187,16949934465627,355839090710684,7527987550107025,160278461733848589,3431017721283599498,73794099509198635645",
			"name": "Number of 4Xn arrays containing n copies of 0..4-1 with no element 1 greater than its north, west or southwest neighbor modulo 4 and the upper left element equal to 0.",
			"comment": [
				"Row 4 of A266904."
			],
			"link": [
				"R. H. Hardin, \u003ca href=\"/A266906/b266906.txt\"\u003eTable of n, a(n) for n = 1..24\u003c/a\u003e"
			],
			"example": [
				"Some solutions for n=5",
				"..0..2..1..0..3....0..0..2..2..1....0..2..1..3..1....0..0..3..1..3",
				"..3..2..1..0..3....0..2..0..2..1....3..1..0..2..0....2..0..3..1..3",
				"..3..1..0..3..2....3..1..3..1..3....3..1..3..2..0....0..0..2..1..1",
				"..1..1..0..2..2....3..3..1..0..2....1..3..2..0..2....2..2..2..1..3"
			],
			"xref": [
				"Cf. A266904."
			],
			"keyword": "nonn",
			"offset": "1,1",
			"author": "_R. H. Hardin_, Jan 05 2016",
			"references": 1,
			"revision": 6,
			"time": "2016-08-12T06:53:59-04:00",
			"created": "2016-01-05T16:03:04-05:00"
		}
	]
}