{
	"greeting": "Greetings from The On-Line Encyclopedia of Integer Sequences! http://oeis.org/",
	"query": "id:A266664",
	"count": 1,
	"start": 0,
	"results": [
		{
			"number": 266664,
			"data": "0,1,3,2,7,2,11,2,15,2,19,2,23,2,27,2,31,2,35,2,39,2,43,2,47,2,51,2,55,2,59,2,63,2,67,2,71,2,75,2,79,2,83,2,87,2,91,2,95,2,99,2,103,2,107,2,111,2,115,2,119,2,123,2,127,2,131,2,135,2,139,2",
			"name": "Number of OFF (white) cells in the n-th iteration of the \"Rule 47\" elementary cellular automaton starting with a single ON (black) cell.",
			"reference": [
				"S. Wolfram, A New Kind of Science, Wolfram Media, 2002; p. 55."
			],
			"link": [
				"Robert Price, \u003ca href=\"/A266664/b266664.txt\"\u003eTable of n, a(n) for n = 0..1000\u003c/a\u003e",
				"Eric Weisstein's World of Mathematics, \u003ca href=\"http://mathworld.wolfram.com/ElementaryCellularAutomaton.html\"\u003eElementary Cellular Automaton\u003c/a\u003e",
				"S. Wolfram, \u003ca href=\"http://wolframscience.com/\"\u003eA New Kind of Science\u003c/a\u003e",
				"\u003ca href=\"/index/Ce#cell\"\u003eIndex entries for sequences related to cellular automata\u003c/a\u003e",
				"\u003ca href=\"https://oeis.org/wiki/Index_to_Elementary_Cellular_Automata\"\u003eIndex to Elementary Cellular Automata\u003c/a\u003e"
			],
			"formula": [
				"Conjectures from _Colin Barker_, Jan 03 2016 and Apr 18 2019: (Start)",
				"a(n) = (2*(-1)^n*n+2*n-3*(-1)^n+1)/2 for n\u003e1.",
				"a(n) = 2*a(n-2)-a(n-4) for n\u003e5.",
				"G.f.: x*(1+3*x+x^3-x^4) / ((1-x)^2*(1+x)^2).",
				"(End)",
				"a(n) = A266258(n), n\u003e1. - _R. J. Mathar_, Jan 10 2016"
			],
			"mathematica": [
				"rule=47; rows=20; ca=CellularAutomaton[rule,{{1},0},rows-1,{All,All}]; (* Start with single black cell *) catri=Table[Take[ca[[k]],{rows-k+1,rows+k-1}],{k,1,rows}]; (* Truncated list of each row *) nbc=Table[Total[catri[[k]]],{k,1,rows}]; (* Number of Black cells in stage n *) Table[Length[catri[[k]]]-nbc[[k]],{k,1,rows}] (* Number of White cells in stage n *)"
			],
			"xref": [
				"Cf. A266659."
			],
			"keyword": "nonn,easy",
			"offset": "0,3",
			"author": "_Robert Price_, Jan 02 2016",
			"references": 1,
			"revision": 20,
			"time": "2019-04-18T11:03:47-04:00",
			"created": "2016-01-03T02:35:59-05:00"
		}
	]
}