{
	"greeting": "Greetings from The On-Line Encyclopedia of Integer Sequences! http://oeis.org/",
	"query": "id:A266517",
	"count": 1,
	"start": 0,
	"results": [
		{
			"number": 266517,
			"data": "5,11,239,4073",
			"name": "Sophie Germain primes p such that (2^(p+7)*5^(p+5)-204979)/9 is also prime.",
			"comment": [
				"Intersection of A005384 and A266421.",
				"a(n) mod 19, a(n) mod 29, a(n) mod 37, and a(n) mod 59 are also primes.",
				"a(5) \u003e 70000 (if it exists)."
			],
			"mathematica": [
				"Select[ Prime[ Range[600]], PrimeQ[2# + 1] \u0026\u0026 PrimeQ[(2^(#+7) * 5^(#+5) - 204979) / 9] \u0026]"
			],
			"program": [
				"(MAGMA) [p: p in PrimesUpTo(500) | IsPrime(2*p+1) and IsPrime((2^(p+7)*5^(p+5)-204979) div 9)]; // _Vincenzo Librandi_, Jan 07 2016"
			],
			"xref": [
				"Cf. A005384, A266421"
			],
			"keyword": "nonn,hard,more",
			"offset": "1,1",
			"author": "_Mikk Heidemaa_, Dec 30 2015",
			"references": 0,
			"revision": 18,
			"time": "2016-01-09T14:41:55-05:00",
			"created": "2016-01-09T14:41:55-05:00"
		}
	]
}