{
	"greeting": "Greetings from The On-Line Encyclopedia of Integer Sequences! http://oeis.org/",
	"query": "id:A266725",
	"count": 1,
	"start": 0,
	"results": [
		{
			"number": 266725,
			"data": "0,1,4,5,12,13,24,25,40,41,60,61,84,85,112,113,144,145,180,181,220,221,264,265,312,313,364,365,420,421,480,481,544,545,612,613,684,685,760,761,840,841,924,925,1012,1013,1104,1105,1200,1201,1300,1301,1404",
			"name": "Total number of OFF (white) cells after n iterations of the \"Rule 59\" elementary cellular automaton starting with a single ON (black) cell.",
			"reference": [
				"S. Wolfram, A New Kind of Science, Wolfram Media, 2002; p. 55."
			],
			"link": [
				"Robert Price, \u003ca href=\"/A266725/b266725.txt\"\u003eTable of n, a(n) for n = 0..1000\u003c/a\u003e",
				"Eric Weisstein's World of Mathematics, \u003ca href=\"http://mathworld.wolfram.com/ElementaryCellularAutomaton.html\"\u003eElementary Cellular Automaton\u003c/a\u003e",
				"S. Wolfram, \u003ca href=\"http://wolframscience.com/\"\u003eA New Kind of Science\u003c/a\u003e",
				"\u003ca href=\"/index/Ce#cell\"\u003eIndex entries for sequences related to cellular automata\u003c/a\u003e",
				"\u003ca href=\"https://oeis.org/wiki/Index_to_Elementary_Cellular_Automata\"\u003eIndex to Elementary Cellular Automata\u003c/a\u003e"
			],
			"formula": [
				"Conjectures from _Colin Barker_, Jan 05 2016 and Apr 18 2019: (Start)",
				"a(n) = (2*n*(n+(-1)^n+1)-(-1)^n+1)/4.",
				"a(n) = a(n-1)+2*a(n-2)-2*a(n-3)-a(n-4)+a(n-5) for n\u003e4.",
				"G.f.: x*(1+3*x-x^2+x^3) / ((1-x)^3*(1+x)^2).",
				"(End)"
			],
			"mathematica": [
				"rule=59; rows=20; ca=CellularAutomaton[rule,{{1},0},rows-1,{All,All}]; (* Start with single black cell *) catri=Table[Take[ca[[k]],{rows-k+1,rows+k-1}],{k,1,rows}]; (* Truncated list of each row *) nbc=Table[Total[catri[[k]]],{k,1,rows}]; (* Number of Black cells in stage n *) nwc=Table[Length[catri[[k]]]-nbc[[k]],{k,1,rows}]; (* Number of White cells in stage n *) Table[Total[Take[nwc,k]],{k,1,rows}] (* Number of White cells through stage n *)"
			],
			"xref": [
				"Cf. A266716."
			],
			"keyword": "nonn",
			"offset": "0,3",
			"author": "_Robert Price_, Jan 03 2016",
			"references": 2,
			"revision": 17,
			"time": "2019-04-18T11:49:59-04:00",
			"created": "2016-01-03T12:34:58-05:00"
		}
	]
}