{
	"greeting": "Greetings from The On-Line Encyclopedia of Integer Sequences! http://oeis.org/",
	"query": "id:A266519",
	"count": 1,
	"start": 0,
	"results": [
		{
			"number": 266519,
			"data": "1,15,683,62038,9342629,2100483216,658746323647,274730459045232,147034646085347145,98233150285382861440,80135799180812308488851,78391682820973752124219392,90580896598669336052642926957,122061249780317702369474934804480,189729092979696204185243101261174695,336959230406443195042628708778757175296,678101445794980815528276151098815880395921",
			"name": "E.g.f.: Log( Sum_{n\u003e=0} n^(2*n) * x^n/n! ).",
			"program": [
				"(PARI) {a(n) = n! * polcoeff( log( sum(m=0,n, m^(2*m) * x^m/m!) +x*O(x^n)), n)}",
				"for(n=1,20,print1(a(n),\", \"))"
			],
			"xref": [
				" Cf. A266520."
			],
			"keyword": "nonn",
			"offset": "1,2",
			"author": "_Paul D. Hanna_, Dec 31 2015",
			"references": 2,
			"revision": 6,
			"time": "2015-12-31T15:06:24-05:00",
			"created": "2015-12-31T15:03:09-05:00"
		}
	]
}