{
	"greeting": "Greetings from The On-Line Encyclopedia of Integer Sequences! http://oeis.org/",
	"query": "id:A266446",
	"count": 1,
	"start": 0,
	"results": [
		{
			"number": 266446,
			"data": "1,2,4,8,17,34,69,138,277,555,1110,2220,4440,8881,17762,35525,71050,142101,284202,568405,1136810,2273621,4547242,9094485,18188970,36377941,72755882,145511765,291023530,582047061,1164094122,2328188245,4656376490,9312752981",
			"name": "Decimal representation of the middle column of the \"Rule 25\" elementary cellular automaton starting with a single ON (black) cell.",
			"reference": [
				"S. Wolfram, A New Kind of Science, Wolfram Media, 2002; p. 55."
			],
			"link": [
				"Robert Price, \u003ca href=\"/A266446/b266446.txt\"\u003eTable of n, a(n) for n = 0..1000\u003c/a\u003e",
				"Eric Weisstein's World of Mathematics, \u003ca href=\"http://mathworld.wolfram.com/ElementaryCellularAutomaton.html\"\u003eElementary Cellular Automaton\u003c/a\u003e",
				"S. Wolfram, \u003ca href=\"http://wolframscience.com/\"\u003eA New Kind of Science\u003c/a\u003e",
				"\u003ca href=\"/index/Ce#cell\"\u003eIndex entries for sequences related to cellular automata\u003c/a\u003e",
				"\u003ca href=\"https://oeis.org/wiki/Index_to_Elementary_Cellular_Automata\"\u003eIndex to Elementary Cellular Automata\u003c/a\u003e"
			],
			"formula": [
				"Conjectures from _Colin Barker_, Dec 30 2015 and Apr 16 2019: (Start)",
				"a(n) = (-(-1)^n+6661*2^(n-10)-3)/6 for n\u003e10.",
				"G.f.: (1-x^2+x^4+x^9-x^10-x^11+x^13) / ((1-x)*(1+x)*(1-2*x)).",
				"(End)"
			],
			"mathematica": [
				"rule=25; rows=20; ca=CellularAutomaton[rule,{{1},0},rows-1,{All,All}]; (* Start with single black cell *) catri=Table[Take[ca[[k]],{rows-k+1,rows+k-1}],{k,1,rows}]; (* Truncated list of each row *) mc=Table[catri[[k]][[k]],{k,1,rows}]; (* Keep only middle cell from each row *) Table[FromDigits[Take[mc,k],2],{k,1,rows}]  (* Binary Representation of Middle Column *)"
			],
			"xref": [
				"Cf. A266441."
			],
			"keyword": "nonn,easy",
			"offset": "0,2",
			"author": "_Robert Price_, Dec 29 2015",
			"references": 1,
			"revision": 16,
			"time": "2019-04-16T06:26:33-04:00",
			"created": "2015-12-30T12:56:04-05:00"
		}
	]
}