{
	"greeting": "Greetings from The On-Line Encyclopedia of Integer Sequences! http://oeis.org/",
	"query": "id:A266384",
	"count": 1,
	"start": 0,
	"results": [
		{
			"number": 266384,
			"data": "0,0,3,4,11,16,25,28,43,56,73,84,105,120,141,148,179,208,241,268,305,336,373,396,441,480,525,556,605,640,685,700,763,824,889,948,1017,1080,1149,1204,1281,1352,1429,1492,1573,1640,1717,1764,1857,1944,2037,2116",
			"name": "Total number of OFF (white) cells after n iterations of the \"Rule 22\" elementary cellular automaton starting with a single ON (black) cell.",
			"reference": [
				"S. Wolfram, A New Kind of Science, Wolfram Media, 2002; p. 55."
			],
			"link": [
				"Robert Price, \u003ca href=\"/A266384/b266384.txt\"\u003eTable of n, a(n) for n = 0..1000\u003c/a\u003e",
				"Eric Weisstein's World of Mathematics, \u003ca href=\"http://mathworld.wolfram.com/ElementaryCellularAutomaton.html\"\u003eElementary Cellular Automaton\u003c/a\u003e",
				"\u003ca href=\"/index/Ce#cell\"\u003eIndex entries for sequences related to cellular automata\u003c/a\u003e",
				"\u003ca href=\"https://oeis.org/wiki/Index_to_Elementary_Cellular_Automata\"\u003eIndex to Elementary Cellular Automata\u003c/a\u003e"
			],
			"mathematica": [
				"rule = 22; rows = 60; ca = CellularAutomaton[rule, {{1}, 0}, rows - 1, {All, All}]; (* Start with single black cell *) catri = Table[Take[ca[[k]], {rows - k + 1, rows + k - 1}], {k, 1, rows}]; (* Truncated list of each row *) nbc =",
				"Table[Total[catri[[k]]], {k, 1, rows}]; (* Number of Black cells in stage n *) nwc = Table[Length[catri[[k]]] - nbc[[k]], {k, 1, rows}]; (* Number of White cells in stage n *) Table[Total[Take[nwc, k]], {k, 1, rows}] (* Number of White cells through stage n *)"
			],
			"xref": [
				"Cf. A071029."
			],
			"keyword": "nonn,easy",
			"offset": "0,3",
			"author": "_Robert Price_, Dec 28 2015",
			"references": 1,
			"revision": 10,
			"time": "2015-12-28T16:46:34-05:00",
			"created": "2015-12-28T16:38:18-05:00"
		}
	]
}