{
	"greeting": "Greetings from The On-Line Encyclopedia of Integer Sequences! http://oeis.org/",
	"query": "id:A266951",
	"count": 1,
	"start": 0,
	"results": [
		{
			"number": 266951,
			"data": "0,5,7,13,31,109,139,199,241,283,601,619,643,823,859,883,1021,1051,1093,1291,1621,1873,1879,1951,2311,3001,3301",
			"name": "Record values in A266948: least prime p such that p-2 and 6n-p are also prime.",
			"comment": [
				"Goldbach conjecture related. The values of A266948(n) range theoretically between 2 and n. The smaller they are, the easier it was to find a suitable twin prime, and thus the more likely the conjecture \"A266948(n) \u003e 0 for all n \u003e 1\" holds. These record values vs. the respective indices A266950 yield an estimate for the growth of an upper bound."
			],
			"xref": [
				"Cf. A266948."
			],
			"keyword": "nonn,more",
			"offset": "1,2",
			"author": "_M. F. Hasler_, Jan 06 2016",
			"references": 2,
			"revision": 10,
			"time": "2016-01-09T14:38:24-05:00",
			"created": "2016-01-09T14:38:24-05:00"
		}
	]
}