{
	"greeting": "Greetings from The On-Line Encyclopedia of Integer Sequences! http://oeis.org/",
	"query": "id:A267424",
	"count": 1,
	"start": 0,
	"results": [
		{
			"number": 267424,
			"data": "55,17711,5702887,1836311903,591286729879,190392490709135,61305790721611591,160500643816367088,19740274219868223167,6356306993006846248183,2046711111473984623691759,659034621587630041982498215,212207101440105399533740733471,68330027629092351019822533679447",
			"name": "Fibonacci numbers that are not of the form x^2 + y^2 + z^2 where x, y and z are integers.",
			"comment": [
				"Fibonacci numbers that are the sum of 4 but no fewer nonzero squares. See first comment in A004215.",
				"Intersection of A000045 and A004215.",
				"Corresponding index of Fibonacci numbers are 10, 22, 34, 46, 58, 70, 82, 84, 94, 106, 118, 130, 142, 154, 166, 178, 180, 190, 202, 214, 226, 238, 250, 262, 274, 276, 286, 298, 310, 322, ...",
				"First differences of corresponding indexes are 12, 12, 12, 12, 12, 12, 2, 10, 12, 12, 12, 12, 12, 12, 12, 2, 10, 12, 12, 12, 12, ...",
				"From _Robert Israel_, Jan 17 2016: (Start)",
				"A000045(10+12*k) == 7 (mod 8), so these are in the sequence.",
				"A000045(84+96*k) == 4^2*7 (mod 4^2*8), so these are in the sequence.",
				"It appears that A000045((84+96*k)*4^j) == 4^(j+2)*7 (mod 4^(j+2)*8) for j,k\u003e=0, so these are in the sequence. (End)."
			],
			"link": [
				"Robert Israel, \u003ca href=\"/A267424/b267424.txt\"\u003eTable of n, a(n) for n = 1..970\u003c/a\u003e"
			],
			"example": [
				"Fibonacci number 21 is not a term of this sequence because 21 = 1^2 + 2^2 + 4^2.",
				"55 is a term because it is a Fibonacci number and there is no integer values of x, y and z for the equation 55 = x^2 + y^2 + z^2."
			],
			"maple": [
				"is004215:= proc(n) local t;",
				"  t:= padic:-ordp(n,2);",
				"  if t::odd then false else evalb(n/2^t mod 8 = 7) fi",
				"end proc:",
				"select(is004215, [seq(combinat:-fibonacci(n),n=2..1000)]); # _Robert Israel_, Jan 17 2016"
			],
			"program": [
				"(PARI) isA004215(n) = { my(fouri, j) ; fouri=1 ; while( n \u003e=7*fouri, if( n % fouri ==0, j= n/fouri -7 ; if( j % 8 ==0, return(1) ) ; ) ; fouri *= 4 ; ) ; return(0) ; } { for(n=1, 400, if(isA004215(n), print1(n, \", \") ; ) ; ) ; }",
				"f(n) = fibonacci(n);",
				"for(n=0, 1e3, if(isA004215(f(n)), print1(f(n), \", \")));"
			],
			"xref": [
				"Cf. A000045, A004215."
			],
			"keyword": "nonn",
			"offset": "1,1",
			"author": "_Altug Alkan_, Jan 14 2016",
			"references": 2,
			"revision": 15,
			"time": "2016-01-18T18:19:12-05:00",
			"created": "2016-01-18T18:19:12-05:00"
		}
	]
}