{
	"greeting": "Greetings from The On-Line Encyclopedia of Integer Sequences! http://oeis.org/",
	"query": "id:A267067",
	"count": 1,
	"start": 0,
	"results": [
		{
			"number": 267067,
			"data": "3,17,23,37,41,53,59,67,71,79,89,97,113,131,157,163,179,211,223,239,251,269,293,307,311,331,337,367,373,379,383,397,409,419,439,449,487,491,499,503,521,547,593,599,613,631,673,683,691,701,709,719,733,739",
			"name": "Primes p such that mu(p-2) = 1; that is, p-2 is squarefree and has an even number of prime factors, where mu is the Moebius function (A008683).",
			"comment": [
				"From _Robert Israel_, Jan 10 2016 (Start)",
				"Includes all members of A063638 except 11.",
				"The first terms not in A063638 are 3 and 1367. (End)"
			],
			"link": [
				"Robert Israel, \u003ca href=\"/A267067/b267067.txt\"\u003eTable of n, a(n) for n = 1..10000\u003c/a\u003e",
				"E. W. Weisstein, \u003ca href=\"http://mathworld.wolfram.com/MoebiusFunction.html\"\u003eThe World of Mathematics: Moebius Function\u003c/a\u003e"
			],
			"maple": [
				"select(p -\u003e isprime(p) and numtheory:-mobius(p-2)=1, [seq(i,i=3..1000,2)]); # _Robert Israel_, Jan 10 2016"
			],
			"mathematica": [
				"Select[Prime[Range[200]], MoebiusMu[# - 2] == 1 \u0026]"
			],
			"program": [
				"(MAGMA) [n: n in [3..1000] | IsPrime(n) and MoebiusMu(n-2) eq 1];"
			],
			"xref": [
				"Cf. A008683, A063638, A088179."
			],
			"keyword": "nonn",
			"offset": "1,1",
			"author": "_Vincenzo Librandi_, Jan 10 2016",
			"references": 1,
			"revision": 8,
			"time": "2016-01-11T03:18:11-05:00",
			"created": "2016-01-11T03:18:11-05:00"
		}
	]
}