{
	"greeting": "Greetings from The On-Line Encyclopedia of Integer Sequences! http://oeis.org/",
	"query": "id:A267515",
	"count": 1,
	"start": 0,
	"results": [
		{
			"number": 267515,
			"data": "1,2,5,10,21,42,84,169,338,677,1354,2709,5418,10836,21673,43346,86693,173386,346773,693546,1387092,2774185,5548370,11096741,22193482,44386965,88773930,177547860,355095721,710191442,1420382885,2840765770,5681531541,11363063082",
			"name": "Decimal representation of the middle column of the \"Rule 137\" elementary cellular automaton starting with a single ON (black) cell.",
			"reference": [
				"S. Wolfram, A New Kind of Science, Wolfram Media, 2002; p. 55."
			],
			"link": [
				"Robert Price, \u003ca href=\"/A267515/b267515.txt\"\u003eTable of n, a(n) for n = 0..1000\u003c/a\u003e",
				"Eric Weisstein's World of Mathematics, \u003ca href=\"http://mathworld.wolfram.com/ElementaryCellularAutomaton.html\"\u003eElementary Cellular Automaton\u003c/a\u003e",
				"S. Wolfram, \u003ca href=\"http://wolframscience.com/\"\u003eA New Kind of Science\u003c/a\u003e",
				"\u003ca href=\"/index/Ce#cell\"\u003eIndex entries for sequences related to cellular automata\u003c/a\u003e",
				"\u003ca href=\"https://oeis.org/wiki/Index_to_Elementary_Cellular_Automata\"\u003eIndex to Elementary Cellular Automata\u003c/a\u003e"
			],
			"formula": [
				"[Incorrect] conjectures from _Colin Barker_, Jan 16 2016: (Start)",
				"a(n) = 2*a(n-1)+a(n-7)-2*a(n-8) for n\u003e7. [Wrong]",
				"G.f.: (1-x+x^2)*(1+x+x^2) / ((1-x)*(1-2*x)*(1+x+x^2+x^3+x^4+x^5+x^6)). [Wrong]",
				"(End)",
				"The linear recurrence and g.f. are invalid and start to generate erroneous values at a(62). - _R. J. Mathar_, Apr 12 2019"
			],
			"maple": [
				"# Rule 137: value in generation r and column c, where c=0 is the central one",
				"r137 := proc(r::integer,c::integer)",
				"    option remember;",
				"    local up ;",
				"    if r = 0 then",
				"        if c = 0 then",
				"            1;",
				"        else",
				"            0;",
				"        end if;",
				"    else",
				"        # previous 3 bits",
				"        [procname(r-1,c+1),procname(r-1,c),procname(r-1,c-1)] ;",
				"        up := op(3,%)+2*op(2,%)+4*op(1,%) ;",
				"        # rule 137 = 10001001_2: 7-\u003e1, {6,5,4}-\u003e0, 3-\u003e1, {2,1}-\u003e0, 0-\u003e1",
				"        if up in {7,3,0} then",
				"            1;",
				"        else",
				"            0 ;",
				"        end if;",
				"    end if;",
				"end proc:",
				"A267515 := proc(n)",
				"    b := [seq(r137(r,0),r=0..n)] ;",
				"    add(2^(i-1)*op(-i,b),i=1..nops(b)) ;",
				"end proc:",
				"[seq(A267515(n),n=0..62)] ; # _R. J. Mathar_, Apr 12 2019"
			],
			"mathematica": [
				"rule=137; rows=20; ca=CellularAutomaton[rule,{{1},0},rows-1,{All,All}]; (* Start with single black cell *) catri=Table[Take[ca[[k]],{rows-k+1,rows+k-1}],{k,1,rows}]; (* Truncated list of each row *) mc=Table[catri[[k]][[k]],{k,1,rows}]; (* Keep only middle cell from each row *) Table[FromDigits[Take[mc,k],2],{k,1,rows}]  (* Binary Representation of Middle Column *)"
			],
			"xref": [
				"Cf. A267463, A267514."
			],
			"keyword": "nonn,easy",
			"offset": "0,2",
			"author": "_Robert Price_, Jan 16 2016",
			"references": 2,
			"revision": 22,
			"time": "2019-04-12T10:57:06-04:00",
			"created": "2016-01-17T09:11:54-05:00"
		}
	]
}