{
	"greeting": "Greetings from The On-Line Encyclopedia of Integer Sequences! http://oeis.org/",
	"query": "id:A267979",
	"count": 1,
	"start": 0,
	"results": [
		{
			"number": 267979,
			"data": "804,646416,519718464,370962601314,247835569655956,156061390092021574,93595257134450725384,53846326808056805339811,29887153373333642722563504",
			"name": "Number of 5Xn 0..3 arrays with every repeated value in every row greater than or equal to, and in every column greater than, the previous repeated value.",
			"comment": [
				"Row 5 of A267974."
			],
			"example": [
				"Some solutions for n=1",
				"..3....2....0....2....3....3....3....3....0....2....1....2....0....1....3....0",
				"..2....1....2....0....1....2....2....3....2....0....3....1....3....3....0....0",
				"..1....0....0....3....3....0....3....2....3....3....2....2....2....3....0....2",
				"..1....3....1....2....3....3....3....1....2....2....1....1....1....0....1....1",
				"..0....1....1....1....1....2....1....3....3....2....3....0....0....3....1....0"
			],
			"xref": [
				"Cf. A267974."
			],
			"keyword": "nonn",
			"offset": "1,1",
			"author": "_R. H. Hardin_, Jan 23 2016",
			"references": 0,
			"revision": 3,
			"time": "2016-01-23T10:05:24-05:00",
			"created": "2016-01-23T10:05:24-05:00"
		}
	]
}