{
	"greeting": "Greetings from The On-Line Encyclopedia of Integer Sequences! http://oeis.org/",
	"query": "id:A267592",
	"count": 1,
	"start": 0,
	"results": [
		{
			"number": 267592,
			"data": "0,3,3,4,3,4,4,6,3,4,4,5,4,5,5,7,3,4,4,5,4,5,5,7,4,6,6,8,6,8,8,12,3,4,4,5,4,5,5,7,4,5,5,6,5,6,6,8,4,5,5,6,5,6,6,8,5,7,7,9,7,9,9,13,3,4,4,5,4,5,5,7,4,5,5,6,5,6,6,8,4,5,5,6,5,6",
			"name": "Number of OFF (white) cells in the n-th iteration of the \"Rule 169\" elementary cellular automaton starting with a single ON (black) cell.",
			"reference": [
				"S. Wolfram, A New Kind of Science, Wolfram Media, 2002; p. 55."
			],
			"link": [
				"Robert Price, \u003ca href=\"/A267592/b267592.txt\"\u003eTable of n, a(n) for n = 0..1000\u003c/a\u003e",
				"Eric Weisstein's World of Mathematics, \u003ca href=\"http://mathworld.wolfram.com/ElementaryCellularAutomaton.html\"\u003eElementary Cellular Automaton\u003c/a\u003e",
				"S. Wolfram, \u003ca href=\"http://wolframscience.com/\"\u003eA New Kind of Science\u003c/a\u003e",
				"\u003ca href=\"/index/Ce#cell\"\u003eIndex entries for sequences related to cellular automata\u003c/a\u003e",
				"\u003ca href=\"https://oeis.org/wiki/Index_to_Elementary_Cellular_Automata\"\u003eIndex to Elementary Cellular Automata\u003c/a\u003e"
			],
			"mathematica": [
				"rule=169; rows=20; ca=CellularAutomaton[rule,{{1},0},rows-1,{All,All}]; (* Start with single black cell *) catri=Table[Take[ca[[k]],{rows-k+1,rows+k-1}],{k,1,rows}]; (* Truncated list of each row *) nbc=Table[Total[catri[[k]]],{k,1,rows}]; (* Number of Black cells in stage n *) Table[Length[catri[[k]]]-nbc[[k]],{k,1,rows}] (* Number of White cells in stage n *)"
			],
			"xref": [
				"Cf. A264442."
			],
			"keyword": "nonn,easy",
			"offset": "0,2",
			"author": "_Robert Price_, Jan 18 2016",
			"references": 1,
			"revision": 8,
			"time": "2016-01-18T11:29:43-05:00",
			"created": "2016-01-18T08:56:11-05:00"
		}
	]
}