{
	"greeting": "Greetings from The On-Line Encyclopedia of Integer Sequences! http://oeis.org/",
	"query": "id:A267403",
	"count": 1,
	"start": 0,
	"results": [
		{
			"number": 267403,
			"data": "1,126,64,220,795,2814,9469,30728,95802,284725,817017,2266402",
			"name": "Number of nX(n+3) arrays of permutations of n+3 copies of 0..n-1 with every element equal to or 1 greater than any north, west or northwest neighbors modulo n and the upper left element equal to 0.",
			"comment": [
				"Superdiagonal 3 of A267401."
			],
			"example": [
				"Some solutions for n=4",
				"..0..1..2..2..3..3..3....0..1..2..2..3..0..0....0..1..1..2..3..0..0",
				"..1..1..2..2..3..0..0....1..1..2..3..3..0..1....1..1..2..2..3..0..0",
				"..1..1..2..3..3..0..0....1..2..2..3..3..0..1....1..2..2..3..3..0..1",
				"..1..2..2..3..0..0..1....2..2..3..3..0..0..1....2..2..3..3..3..0..1"
			],
			"xref": [
				"Cf. A267401."
			],
			"keyword": "nonn",
			"offset": "1,2",
			"author": "_R. H. Hardin_, Jan 13 2016",
			"references": 0,
			"revision": 3,
			"time": "2016-01-13T20:30:33-05:00",
			"created": "2016-01-13T20:30:33-05:00"
		}
	]
}