{
	"greeting": "Greetings from The On-Line Encyclopedia of Integer Sequences! http://oeis.org/",
	"query": "id:A267163",
	"count": 1,
	"start": 0,
	"results": [
		{
			"number": 267163,
			"data": "1,1,1,1,0,2,1,0,0,6,1,0,1,8,24,1,0,15,260,411,120,1,0,65,5826,68482,30362,720,1,0,202,66670,8718817,41883832,2742512,5040,1,0,537,1168252,1305588167,64580898272,47453493386,317221226,40320,1,0,1559,31032592",
			"name": "T(n,k)=Number of nXk arrays containing k copies of 0..n-1 with no element 1 greater than its west, southwest or northwest neighbor modulo n and the upper left element equal to 0.",
			"comment": [
				"Table starts",
				".....1.........1...........1...........1..........1............1........1....1",
				".....1.........0...........0...........0..........0............0........0....0",
				".....2.........0...........1..........15.........65..........202......537.1559",
				".....6.........8.........260........5826......66670......1168252.31032592",
				"....24.......411.......68482.....8718817.1305588167.272693813849",
				"...120.....30362....41883832.64580898272",
				"...720...2742512.47453493386",
				"..5040.317221226",
				".40320"
			],
			"link": [
				"R. H. Hardin, \u003ca href=\"/A267163/b267163.txt\"\u003eTable of n, a(n) for n = 1..50\u003c/a\u003e"
			],
			"example": [
				"Some solutions for n=4 k=4",
				"..0..2..1..3....0..3..2..1....0..3..2..2....0..2..0..2....0..2..2..0",
				"..3..2..1..0....0..3..2..1....1..3..3..1....2..0..0..2....3..2..2..1",
				"..3..1..0..3....1..0..3..1....1..0..3..2....1..1..3..3....3..3..1..0",
				"..2..1..0..2....2..0..3..2....0..0..2..1....3..3..1..1....1..3..1..0"
			],
			"xref": [
				"Column 1 is A000142(n-1)."
			],
			"keyword": "nonn,tabl",
			"offset": "1,6",
			"author": "_R. H. Hardin_, Jan 11 2016",
			"references": 5,
			"revision": 6,
			"time": "2016-08-12T06:55:34-04:00",
			"created": "2016-01-11T17:56:04-05:00"
		}
	]
}