{
	"greeting": "Greetings from The On-Line Encyclopedia of Integer Sequences! http://oeis.org/",
	"query": "id:A267558",
	"count": 1,
	"start": 0,
	"results": [
		{
			"number": 267558,
			"data": "1,2,5,15,61,350,2437,18530,145263,1156222,9288411,75111303,610606621,4987797081,40929379643,337321631621,2791500307920,23190727949125,193361664061657,1617714495430036,13577128985320094,114285836177458835",
			"name": "Number of 4Xn arrays containing n copies of 0..4-1 with every element equal to or 1 greater than any north or northeast neighbors modulo 4 and the upper left element equal to 0.",
			"comment": [
				"Row 4 of A267553."
			],
			"link": [
				"R. H. Hardin, \u003ca href=\"/A267558/b267558.txt\"\u003eTable of n, a(n) for n = 1..32\u003c/a\u003e"
			],
			"example": [
				"Some solutions for n=4",
				"..0..1..1..1....0..0..1..1....0..1..2..2....0..0..1..1....0..0..0..1",
				"..1..2..2..2....1..1..2..2....1..2..3..3....0..1..2..2....0..1..1..2",
				"..2..3..3..3....2..2..3..3....2..3..0..0....1..2..3..3....1..2..2..3",
				"..3..0..0..0....3..3..0..0....3..0..1..1....2..3..0..3....2..3..3..3"
			],
			"xref": [
				"Cf. A267553."
			],
			"keyword": "nonn",
			"offset": "1,2",
			"author": "_R. H. Hardin_, Jan 17 2016",
			"references": 1,
			"revision": 6,
			"time": "2016-08-12T06:54:01-04:00",
			"created": "2016-01-17T06:34:20-05:00"
		}
	]
}