{
	"greeting": "Greetings from The On-Line Encyclopedia of Integer Sequences! http://oeis.org/",
	"query": "id:A267260",
	"count": 1,
	"start": 0,
	"results": [
		{
			"number": 267260,
			"data": "1,3,6,11,16,23,29,40,46,61,67,86,92,115,121,148,154,185,191,226,232,271,277,320,326,373,379,430,436,491,497,556,562,625,631,698,704,775,781,856,862,941,947,1030,1036,1123,1129,1220,1226,1321,1327,1426,1432",
			"name": "Total number of ON (black) cells after n iterations of the \"Rule 111\" elementary cellular automaton starting with a single ON (black) cell.",
			"reference": [
				"S. Wolfram, A New Kind of Science, Wolfram Media, 2002; p. 55."
			],
			"link": [
				"Robert Price, \u003ca href=\"/A267260/b267260.txt\"\u003eTable of n, a(n) for n = 0..1000\u003c/a\u003e",
				"Eric Weisstein's World of Mathematics, \u003ca href=\"http://mathworld.wolfram.com/ElementaryCellularAutomaton.html\"\u003eElementary Cellular Automaton\u003c/a\u003e",
				"S. Wolfram, \u003ca href=\"http://wolframscience.com/\"\u003eA New Kind of Science\u003c/a\u003e",
				"\u003ca href=\"/index/Ce#cell\"\u003eIndex entries for sequences related to cellular automata\u003c/a\u003e",
				"\u003ca href=\"https://oeis.org/wiki/Index_to_Elementary_Cellular_Automata\"\u003eIndex to Elementary Cellular Automata\u003c/a\u003e"
			],
			"formula": [
				"Conjectures from _Colin Barker_, Jan 13 2016 and Apr 19 2019: (Start)",
				"a(n) = (n^2-((-1)^n-4)*n+4*(-1)^n)/2 for n\u003e3.",
				"G.f.: (1+2*x+x^2+x^3-x^5-x^6+2*x^7-x^8) / ((1-x)^3*(1+x)^2).",
				"(End)"
			],
			"mathematica": [
				"rule=111; rows=20; ca=CellularAutomaton[rule,{{1},0},rows-1,{All,All}]; (* Start with single black cell *) catri=Table[Take[ca[[k]],{rows-k+1,rows+k-1}],{k,1,rows}]; (* Truncated list of each row *) nbc=Table[Total[catri[[k]]],{k,1,rows}]; (* Number of Black cells in stage n *) Table[Total[Take[nbc,k]],{k,1,rows}] (* Number of Black cells through stage n *)"
			],
			"xref": [
				"Cf. A267253."
			],
			"keyword": "nonn,easy",
			"offset": "0,2",
			"author": "_Robert Price_, Jan 12 2016",
			"references": 1,
			"revision": 14,
			"time": "2019-04-19T11:10:10-04:00",
			"created": "2016-01-12T21:25:09-05:00"
		}
	]
}