{
	"greeting": "Greetings from The On-Line Encyclopedia of Integer Sequences! http://oeis.org/",
	"query": "id:A267273",
	"count": 1,
	"start": 0,
	"results": [
		{
			"number": 267273,
			"data": "1,11,11000,11111,110000000,111111111,1100000000000,1111111111111,11000000000000000,11111111111111111,110000000000000000000,111111111111111111111,1100000000000000000000000,1111111111111111111111111,11000000000000000000000000000",
			"name": "Binary representation of the n-th iteration of the \"Rule 117\" elementary cellular automaton starting with a single ON (black) cell.",
			"reference": [
				"S. Wolfram, A New Kind of Science, Wolfram Media, 2002; p. 55."
			],
			"link": [
				"Robert Price, \u003ca href=\"/A267273/b267273.txt\"\u003eTable of n, a(n) for n = 0..1000\u003c/a\u003e",
				"Eric Weisstein's World of Mathematics, \u003ca href=\"http://mathworld.wolfram.com/ElementaryCellularAutomaton.html\"\u003eElementary Cellular Automaton\u003c/a\u003e",
				"S. Wolfram, \u003ca href=\"http://wolframscience.com/\"\u003eA New Kind of Science\u003c/a\u003e",
				"\u003ca href=\"/index/Ce#cell\"\u003eIndex entries for sequences related to cellular automata\u003c/a\u003e",
				"\u003ca href=\"https://oeis.org/wiki/Index_to_Elementary_Cellular_Automata\"\u003eIndex to Elementary Cellular Automata\u003c/a\u003e"
			],
			"formula": [
				"Conjectures from _Colin Barker_, Jan 14 2016 and Apr 19 2019: (Start)",
				"a(n) = 10001*a(n-2)-10000*a(n-4) for n\u003e5.",
				"G.f.: (1+11*x+999*x^2-98900*x^3-1000*x^4+100000*x^5) / ((1-x)*(1+x)*(1-100*x)*(1+100*x)).",
				"(End)",
				"a(n) = A266983(n), n\u003e1. - _R. J. Mathar_, Jan 17 2016"
			],
			"mathematica": [
				"rule=117; rows=20; ca=CellularAutomaton[rule,{{1},0},rows-1,{All,All}]; (* Start with single black cell *) catri=Table[Take[ca[[k]],{rows-k+1,rows+k-1}],{k,1,rows}]; (* Truncated list of each row *) Table[FromDigits[catri[[k]]],{k,1,rows}] (* Binary Representation of Rows *)"
			],
			"xref": [
				"Cf. A267272."
			],
			"keyword": "nonn",
			"offset": "0,2",
			"author": "_Robert Price_, Jan 12 2016",
			"references": 1,
			"revision": 21,
			"time": "2019-04-19T11:18:54-04:00",
			"created": "2016-01-12T21:26:11-05:00"
		}
	]
}