{
	"greeting": "Greetings from The On-Line Encyclopedia of Integer Sequences! http://oeis.org/",
	"query": "id:A267910",
	"count": 1,
	"start": 0,
	"results": [
		{
			"number": 267910,
			"data": "77,35574,16435188,4817531571,1145682971200,235078226435316,43513012231778789,7469598819592006274,1211420059049034851314,188084661205864273984587",
			"name": "Number of nX6 0..2 arrays with every repeated value in every row unequal to the previous repeated value, and in every column equal to the previous repeated value, and new values introduced in row-major sequential order.",
			"comment": [
				"Column 6 of A267911."
			],
			"example": [
				"Some solutions for n=2",
				"..0..1..2..1..1..0....0..0..1..1..2..1....0..1..1..0..2..1....0..1..0..1..2..0",
				"..2..1..1..2..0..0....1..1..2..1..0..0....1..1..0..0..2..2....2..2..0..2..0..0"
			],
			"xref": [
				"Cf. A267911."
			],
			"keyword": "nonn",
			"offset": "1,1",
			"author": "_R. H. Hardin_, Jan 22 2016",
			"references": 0,
			"revision": 3,
			"time": "2016-01-22T07:59:14-05:00",
			"created": "2016-01-22T07:59:14-05:00"
		}
	]
}