{
	"greeting": "Greetings from The On-Line Encyclopedia of Integer Sequences! http://oeis.org/",
	"query": "id:A267240",
	"count": 1,
	"start": 0,
	"results": [
		{
			"number": 267240,
			"data": "4,13,42,141,486,1685,5804,19769,66544,221581,730918,2391717,7772610,25110933,80713016,258280817,823269116,2615088973,8281113730,26150883901,82375282494,258893742933,811984918692,2541865829801,7943330715176",
			"name": "Number of n X 3 binary arrays with row sums nondecreasing and columns lexicographically nondecreasing.",
			"link": [
				"R. H. Hardin, \u003ca href=\"/A267240/b267240.txt\"\u003eTable of n, a(n) for n = 1..210\u003c/a\u003e",
				"Robert Israel, \u003ca href=\"/A267240/a267240.pdf\"\u003eMaple-assisted proof of empirical recurrence\u003c/a\u003e"
			],
			"formula": [
				"Empirical: a(n) = 10*a(n-1) - 39*a(n-2) + 76*a(n-3) - 79*a(n-4) + 42*a(n-5) - 9*a(n-6).",
				"Conjectures from _Colin Barker_, Jan 11 2019: (Start)",
				"G.f.: x*(4 - 27*x + 68*x^2 - 76*x^3 + 42*x^4 - 9*x^5) / ((1 - x)^4*(1 - 3*x)^2).",
				"a(n) = (24 + (31+3^(2+n))*n + 12*n^2 + 2*n^3) / 24.",
				"(End)",
				"Empirical recurrence verified (see link). - _Robert Israel_, Sep 08 2019"
			],
			"example": [
				"Some solutions for n=4:",
				"..0..0..1....0..0..1....0..0..0....0..0..1....0..0..1....0..0..1....0..0..1",
				"..0..1..0....0..1..0....0..1..1....0..0..1....0..1..0....0..0..1....1..1..0",
				"..1..0..0....1..1..0....1..0..1....0..1..1....0..0..1....0..0..1....0..1..1",
				"..1..1..0....1..1..1....0..1..1....0..1..1....0..0..1....1..1..0....1..0..1"
			],
			"xref": [
				"Column 3 of A267245."
			],
			"keyword": "nonn",
			"offset": "1,1",
			"author": "_R. H. Hardin_, Jan 12 2016",
			"references": 1,
			"revision": 11,
			"time": "2019-09-08T02:03:54-04:00",
			"created": "2016-01-12T09:02:21-05:00"
		}
	]
}