{
	"greeting": "Greetings from The On-Line Encyclopedia of Integer Sequences! http://oeis.org/",
	"query": "id:A267867",
	"count": 1,
	"start": 0,
	"results": [
		{
			"number": 267867,
			"data": "1,110,11110,1111110,111111110,11111111110,1111111111110,111111111111110,11111111111111110,1111111111111111110,111111111111111111110,11111111111111111111110,1111111111111111111111110,111111111111111111111111110,11111111111111111111111111110",
			"name": "Binary representation of the n-th iteration of the \"Rule 231\" elementary cellular automaton starting with a single ON (black) cell.",
			"reference": [
				"S. Wolfram, A New Kind of Science, Wolfram Media, 2002; p. 55."
			],
			"link": [
				"Robert Price, \u003ca href=\"/A267867/b267867.txt\"\u003eTable of n, a(n) for n = 0..1000\u003c/a\u003e",
				"Eric Weisstein's World of Mathematics, \u003ca href=\"http://mathworld.wolfram.com/ElementaryCellularAutomaton.html\"\u003eElementary Cellular Automaton\u003c/a\u003e",
				"S. Wolfram, \u003ca href=\"http://wolframscience.com/\"\u003eA New Kind of Science\u003c/a\u003e",
				"\u003ca href=\"/index/Ce#cell\"\u003eIndex entries for sequences related to cellular automata\u003c/a\u003e",
				"\u003ca href=\"https://oeis.org/wiki/Index_to_Elementary_Cellular_Automata\"\u003eIndex to Elementary Cellular Automata\u003c/a\u003e"
			],
			"formula": [
				"Conjectures from _Colin Barker_, Jan 21 2016 and Apr 20 2019: (Start)",
				"a(n) = 101*a(n-1)-100*a(n-2) for n\u003e2.",
				"G.f.: (1+9*x+100*x^2) / ((1-x)*(1-100*x)).",
				"(End)"
			],
			"mathematica": [
				"rule=231; rows=20; ca=CellularAutomaton[rule,{{1},0},rows-1,{All,All}]; (* Start with single black cell *) catri=Table[Take[ca[[k]],{rows-k+1,rows+k-1}],{k,1,rows}]; (* Truncated list of each row *) Table[FromDigits[catri[[k]]],{k,1,rows}]   (* Binary Representation of Rows *)"
			],
			"xref": [
				"Cf. A267866."
			],
			"keyword": "nonn,easy",
			"offset": "0,2",
			"author": "_Robert Price_, Jan 21 2016",
			"references": 1,
			"revision": 15,
			"time": "2019-04-20T05:32:45-04:00",
			"created": "2016-01-21T17:15:18-05:00"
		}
	]
}