{
	"greeting": "Greetings from The On-Line Encyclopedia of Integer Sequences! http://oeis.org/",
	"query": "id:A267388",
	"count": 1,
	"start": 0,
	"results": [
		{
			"number": 267388,
			"data": "1,1,2,6,24,120,720,5040,40320,322560,2943360,30078720,339696000,4196666880,56255149440,812752093440,12585067447680,194465276369280,3220308737573760,56845456896816000,1064856592650695040,21087473349235547520,440007278378842984320",
			"name": "Number of acyclic orientations of the Turán graph T(n,8).",
			"comment": [
				"An acyclic orientation is an assignment of a direction to each edge such that no cycle in the graph is consistently oriented. Stanley showed that the number of acyclic orientations of a graph G is equal to the absolute value of the chromatic polynomial X_G(q) evaluated at q=-1."
			],
			"link": [
				"Alois P. Heinz, \u003ca href=\"/A267388/b267388.txt\"\u003eTable of n, a(n) for n = 0..450\u003c/a\u003e",
				"Richard P. Stanley, \u003ca href=\"http://dx.doi.org/10.1016/0012-365X(73)90108-8\"\u003eAcyclic Orientations of Graphs\u003c/a\u003e, Discrete Mathematics, 5 (1973), pages 171-178, doi:10.1016/0012-365X(73)90108-8",
				"Wikipedia, \u003ca href=\"https://en.wikipedia.org/wiki/Tur%C3%A1n_graph\"\u003eTurán graph\u003c/a\u003e"
			],
			"formula": [
				"a(n) ~ n! / (7 * (1 - log(8/7))^(7/2) * 8^n * (log(8/7))^(n+1)). - _Vaclav Kotesovec_, Feb 18 2017"
			],
			"xref": [
				"Column k=8 of A267383."
			],
			"keyword": "nonn",
			"offset": "0,3",
			"author": "_Alois P. Heinz_, Jan 13 2016",
			"references": 2,
			"revision": 7,
			"time": "2017-02-18T08:37:38-05:00",
			"created": "2016-01-13T17:25:42-05:00"
		}
	]
}