{
	"greeting": "Greetings from The On-Line Encyclopedia of Integer Sequences! http://oeis.org/",
	"query": "id:A268694",
	"count": 1,
	"start": 0,
	"results": [
		{
			"number": 268694,
			"data": "1,3,5,7,144465,4330455",
			"name": "Terms of A268693 that are not divisible by 255.",
			"comment": [
				"The conjecture in A156695 implies that each term greater than 1 can be written in the form p + 2^x, where p is a prime. For example: 144465 - 2^2 = 144461 (a prime), 4330455 - 2^8 = 4330199 (a prime)."
			],
			"xref": [
				"Cf. A156695, A268693."
			],
			"keyword": "nonn,more",
			"offset": "1,2",
			"author": "_Arkadiusz Wesolowski_, Feb 11 2016",
			"references": 1,
			"revision": 7,
			"time": "2016-02-11T19:19:13-05:00",
			"created": "2016-02-11T19:19:13-05:00"
		}
	]
}