{
	"greeting": "Greetings from The On-Line Encyclopedia of Integer Sequences! http://oeis.org/",
	"query": "id:A268104",
	"count": 1,
	"start": 0,
	"results": [
		{
			"number": 268104,
			"data": "2,9,64,615,7536,112476,1981512,40265487,927338710,23873974553,679478391252,21185458961316,718142599280848,26296505423775240,1034431689380433024,43505385550994833263,1948060006167232265688",
			"name": "Number of 1Xn 0..n arrays with every repeated value in every row and column greater than or equal to the previous repeated value.",
			"comment": [
				"Row 1 of A268103."
			],
			"link": [
				"R. H. Hardin, \u003ca href=\"/A268104/b268104.txt\"\u003eTable of n, a(n) for n = 1..193\u003c/a\u003e"
			],
			"example": [
				"Some solutions for n=5",
				"..0..2..1..4..5....2..3..2..1..5....2..3..0..5..2....2..5..0..5..3"
			],
			"xref": [
				"Cf. A268103."
			],
			"keyword": "nonn",
			"offset": "1,1",
			"author": "_R. H. Hardin_, Jan 26 2016",
			"references": 3,
			"revision": 4,
			"time": "2016-01-26T12:19:42-05:00",
			"created": "2016-01-26T12:19:42-05:00"
		}
	]
}