{
	"greeting": "Greetings from The On-Line Encyclopedia of Integer Sequences! http://oeis.org/",
	"query": "id:A268118",
	"count": 1,
	"start": 0,
	"results": [
		{
			"number": 268118,
			"data": "1,35,114,1256,23522,726627,36708187,3039274773",
			"name": "Number of nX(n+2) arrays of permutations of n+2 copies of 0..n-1 with every element equal to or 1 greater than any north or west neighbors modulo n and the upper left element equal to 0.",
			"comment": [
				"Superdiagonal 2 of A268115."
			],
			"example": [
				"Some solutions for n=5",
				"..0..0..1..2..2..3..4....0..0..1..1..2..2..3....0..1..2..2..3..3..4",
				"..1..1..2..2..3..4..0....1..1..2..2..3..3..4....1..2..3..3..4..4..0",
				"..1..2..3..3..4..0..0....2..2..2..3..4..4..0....2..2..3..4..0..0..1",
				"..2..3..3..4..4..0..1....3..3..3..4..0..0..0....2..3..4..4..0..1..1",
				"..2..3..4..4..0..1..1....4..4..4..0..1..1..1....2..3..4..0..0..1..1"
			],
			"xref": [
				"Cf. A268115."
			],
			"keyword": "nonn",
			"offset": "1,2",
			"author": "_R. H. Hardin_, Jan 26 2016",
			"references": 0,
			"revision": 3,
			"time": "2016-01-26T17:19:16-05:00",
			"created": "2016-01-26T17:19:16-05:00"
		}
	]
}