{
	"greeting": "Greetings from The On-Line Encyclopedia of Integer Sequences! http://oeis.org/",
	"query": "id:A268338",
	"count": 1,
	"start": 0,
	"results": [
		{
			"number": 268338,
			"data": "1,2,4,19,23,31,38,41,46",
			"name": "Numbers that cycle under the following transformation: if m is even, divide by 2, if m is congruent to 1 mod 4, multiply by 3 and add 1; if m is congruent to 3 mod 4, multiply by 7 and add 1.",
			"comment": [
				"Some numbers appear to grow indefinitely under these rules, but it is possible that they may eventually cycle at some point.  All numbers up to 50 either cycle or transform to another number that cycles (typically 1).  51 is the first open case: it may eventually cycle or may continue to grow indefinitely."
			],
			"example": [
				"23 is a member of this sequence. 23 is congruent to 3 mod 4.  As a result, 23 transforms to 23*7+1 = 162.  From there 162 -\u003e 81 -\u003e 244 -\u003e 122 -\u003e 61 -\u003e 184 -\u003e 92 -\u003e 46 -\u003e 23.  23 is the least member of this cycle.",
				"49 is not a member of this sequence because it eventually reduces to 19, which cycles."
			],
			"program": [
				"(Python)",
				"a = 1",
				"b = 1",
				"prev = []",
				"keep = []",
				"count = 0",
				"while b \u003c 51:",
				"....keep.append(a)",
				"....flag1 = False",
				"....flag2 = False",
				"....if a % 2 == 0:",
				"........a /= 2",
				"....elif a % 4 == 1:",
				"........a = a*3+1",
				"....else:",
				"........a = a*7+1",
				"....if count \u003e 50:",
				"........b += 1",
				"........a = b",
				"........count = 0",
				"........keep = []",
				"....if keep.count(a) == 2 and a not in prev and a \u003c= 50:",
				"........prev.append(a)",
				"........count = 0",
				"........keep = []",
				"........b += 1",
				"........a = b",
				"....count += 1",
				"print(sorted(prev))",
				"# _David Consiglio, Jr._, Feb 01 2016"
			],
			"xref": [
				"Cf. A267703, A267970, A267969, A006666, A006370, A005186, A267970, A232711."
			],
			"keyword": "nonn,more",
			"offset": "1,2",
			"author": "_David Consiglio, Jr._, Feb 01 2016",
			"ext": [
				"Corrected and edited by _David Consiglio, Jr._, Apr 20 2016"
			],
			"references": 0,
			"revision": 32,
			"time": "2016-04-20T14:00:18-04:00",
			"created": "2016-04-11T23:04:05-04:00"
		}
	]
}