{
	"greeting": "Greetings from The On-Line Encyclopedia of Integer Sequences! http://oeis.org/",
	"query": "id:A268991",
	"count": 1,
	"start": 0,
	"results": [
		{
			"number": 268991,
			"data": "13,103,805,6009,43512,308112,2144780,14730784,100087792,674045392,4505925696,29933341056,197782652096,1300744853760,8519586895104,55600022810880,361688403251200,2346083095244800,15178387509332992",
			"name": "Number of n X 4 binary arrays with some element plus some horizontally or antidiagonally adjacent neighbor totalling two not more than once.",
			"link": [
				"R. H. Hardin, \u003ca href=\"/A268991/b268991.txt\"\u003eTable of n, a(n) for n = 1..210\u003c/a\u003e"
			],
			"formula": [
				"Empirical: a(n) = 16*a(n-1) - 88*a(n-2) + 200*a(n-3) - 208*a(n-4) + 96*a(n-5) - 16*a(n-6) for n\u003e7.",
				"Empirical g.f.: x*(13 - 105*x + 301*x^2 - 407*x^3 + 312*x^4 - 112*x^5 + 4*x^6) / (1 - 8*x + 12*x^2 - 4*x^3)^2. - _Colin Barker_, Jan 17 2019"
			],
			"example": [
				"Some solutions for n=4:",
				"..0..1..0..0. .1..0..0..0. .0..1..0..1. .0..0..0..0. .1..0..0..1",
				"..0..1..0..0. .1..0..1..0. .0..0..0..0. .1..0..1..0. .1..1..0..1",
				"..1..0..0..1. .1..0..1..0. .0..0..0..1. .0..1..0..0. .0..0..0..1",
				"..1..0..0..0. .1..0..0..0. .1..0..0..1. .0..0..0..0. .0..0..0..1"
			],
			"xref": [
				"Column 4 of A268995."
			],
			"keyword": "nonn",
			"offset": "1,1",
			"author": "_R. H. Hardin_, Feb 17 2016",
			"references": 1,
			"revision": 8,
			"time": "2019-01-17T17:20:50-05:00",
			"created": "2016-02-17T07:23:23-05:00"
		}
	]
}