{
	"greeting": "Greetings from The On-Line Encyclopedia of Integer Sequences! http://oeis.org/",
	"query": "id:A268678",
	"count": 1,
	"start": 0,
	"results": [
		{
			"number": 268678,
			"data": "0,1,3,4,5,7,8,11,15,16,18,19,20,22,23,26,27,31,32,34,36,37,40,41,42,47,48,50,52,53,56,57,59,60,64,65,66,69,70,72,74,75,81,82,83,86,87,89,90,92,93,98,101,102,104,105,106,108,109,113,116,117,119,120,121,123,124,127,131,132,134,135,136,138,139,142",
			"name": "Distinct values in A268395; partial sums of A268679.",
			"link": [
				"Antti Karttunen, \u003ca href=\"/A268678/b268678.txt\"\u003eTable of n, a(n) for n = 0..32768\u003c/a\u003e"
			],
			"formula": [
				"a(0) = 0, for n \u003e= 1, a(n) = A268679(n) + a(n-1).",
				"a(n) = A268395(A001969(1+n)).",
				"Other identities. For all n \u003e= 0:",
				"A268680(a(n)) = n."
			],
			"mathematica": [
				"f[n_] := Which[n == 1, 0, OddQ@ #, 0, EvenQ@ #, 1 + f[#/2]] \u0026@ Fold[BitXor, n, Quotient[n, 2^Range[BitLength@ n - 1]]]; Union@ Accumulate@ Array[f, {150}] (* _Michael De Vlieger_, Feb 12 2016, after _Jan Mangaldan_ at A006068 *)"
			],
			"program": [
				"(Scheme, two variants, the first one using also memoizing-macro definec)",
				"(definec (A268678 n) (if (zero? n) n (+ (A268679 n) (A268678 (- n 1)))))",
				"(define (A268678 n) (A268395 (A001969 (+ 1 n))))"
			],
			"xref": [
				"Cf. A001969, A268395, A268679.",
				"Cf. A268677 (complement).",
				"Cf. A268680 (least monotonic left inverse).",
				"Cf. A268712.",
				"Cf. also A004128."
			],
			"keyword": "nonn",
			"offset": "0,3",
			"author": "_Antti Karttunen_, Feb 10 2016",
			"references": 7,
			"revision": 12,
			"time": "2016-02-13T23:16:43-05:00",
			"created": "2016-02-13T23:16:43-05:00"
		}
	]
}