{
	"greeting": "Greetings from The On-Line Encyclopedia of Integer Sequences! http://oeis.org/",
	"query": "id:A268741",
	"count": 1,
	"start": 0,
	"results": [
		{
			"number": 268741,
			"data": "4,5,3,7,-1,15,-17,47,-81,175,-337,687,-1361,2735,-5457,10927,-21841,43695,-87377,174767,-349521,699055,-1398097,2796207,-5592401,11184815,-22369617,44739247,-89478481,178956975,-357913937,715827887,-1431655761,2863311535",
			"name": "a(n) = 2*a(n - 2) - a(n - 1) for n\u003e1,  a(0) = 4, a(1) = 5.",
			"comment": [
				"In general, the ordinary generating function for the recurrence relation b(n) = 2*b(n - 2) - b(n - 1) with n\u003e1 and b(0)=k, b(1)=m, is (k + (k + m)*x)/(1 + x - 2*x^2). This recurrence gives the closed form a(n) = ((-2)^n*(k - m) + 2*k + m)."
			],
			"link": [
				"Ilya Gutkovskiy, \u003ca href=\"/A268741/a268741.pdf\"\u003eExtended graphical example\u003c/a\u003e",
				"\u003ca href=\"/index/Rec#order_02\"\u003eIndex entries for linear recurrences with constant coefficients\u003c/a\u003e, signature (-1,2)."
			],
			"formula": [
				"G.f.: (4 + 9*x)/(1 + x - 2*x^2).",
				"a(n) = (13 - (-2)^n)/3.",
				"a(n) = A084247(n) + 3.",
				"a(n) = (-1)^n*A154570(n+1) + 1.",
				"a(n) = (-1)^(n-1)*A171382(n-1) + 2.",
				"Lim_{n -\u003e infinity} a(n)/a(n + 1) = -1/2."
			],
			"example": [
				"a(0) = (5 + 3)/2 = 4  because a(1) = 5, a(2) = 3;",
				"a(1) = (3 + 7)/2 = 5  because a(2) = 3, a(3) = 7;",
				"a(2) = (7 - 1)/2 = 3  because a(3) = 7, a(4) = -1, etc."
			],
			"mathematica": [
				"Table[(13 - (-2)^n)/3, {n, 0, 33}]",
				"LinearRecurrence[{-1, 2}, {4, 5}, 34]",
				"RecurrenceTable[{a[1] == 4, a[2] == 5, a[n] == 2*a[n-2] - a[n-1]}, a, {n, 50}] (* _Vincenzo Librandi_, Feb 13 2016 *)"
			],
			"program": [
				"(MAGMA) [(13-(-2)^n)/3: n in [0..35]]; // _Vincenzo Librandi_, Feb 13 2016",
				"(PARI) Vec((4 + 9*x)/(1 + x - 2*x^2) + O(x^40)) \\\\ _Michel Marcus_, Feb 25 2016"
			],
			"xref": [
				"Cf. A084247, A140683, A140966, A154570, A171382."
			],
			"keyword": "sign,easy",
			"offset": "0,1",
			"author": "_Ilya Gutkovskiy_, Feb 12 2016",
			"references": 1,
			"revision": 21,
			"time": "2016-02-27T11:10:08-05:00",
			"created": "2016-02-27T11:10:08-05:00"
		}
	]
}