{
	"greeting": "Greetings from The On-Line Encyclopedia of Integer Sequences! http://oeis.org/",
	"query": "id:A268810",
	"count": 1,
	"start": 0,
	"results": [
		{
			"number": 268810,
			"data": "0,2,8,18,30,44,62,84,108,134,164,198,234,272,314,360,408,458,512,570,630,692,758,828,900,974,1052,1134,1218,1304,1394,1488,1584,1682,1784,1890,1998,2108,2222,2340,2460,2582,2708,2838,2970,3104,3242,3384,3528,3674,3824,3978,4134,4292",
			"name": "a(n) = 2*floor(3*n*(n+1)/4).",
			"link": [
				"G. C. Greubel, \u003ca href=\"/A268810/b268810.txt\"\u003eTable of n, a(n) for n = 0..10000\u003c/a\u003e",
				"\u003ca href=\"/index/Rec#order_05\"\u003eIndex entries for linear recurrences with constant coefficients\u003c/a\u003e, signature (3,-4,4,-3,1)."
			],
			"formula": [
				"a(n) = (3*n^2 - 3*n + cos(n*Pi/2) + sin(n*Pi/2) - 1)/2.",
				"a(n) = A268428(n) - 149.",
				"a(n) = (1/4+i/4)*((i-1)+(-i)^n-i*i^n-(-3*i+3)*n+(-3*i+3)*n^2), where i is the imaginary unit.",
				"a(n) = (3*n^2 - 3*n + (-1)^binomial(n+1,2) - 1)/2.",
				"G.f.: (2*(x^3 + x^2 + x)/((1 - x)^3*(x^2 + 1)))."
			],
			"mathematica": [
				"Table[2 Floor[3 n (n + 1)/4], {n, 0, 60}]",
				"LinearRecurrence[{3, -4, 4, -3, 1}, {0, 2, 8, 18, 30}, 60]"
			],
			"program": [
				"(MAGMA) [2*Floor(3*n*(n+1)/4): n in [0..60]]; // _Vincenzo Librandi_, Feb 15 2016",
				"(PARI) vector(60, n, n--; 2*floor(3*n*(n+1)/4)) \\\\ _G. C. Greubel_, Nov 04 2018"
			],
			"xref": [
				"Cf. A087960, A268428."
			],
			"keyword": "nonn,easy",
			"offset": "0,2",
			"author": "_Mikk Heidemaa_, Feb 13 2016",
			"references": 1,
			"revision": 24,
			"time": "2018-11-05T03:05:43-05:00",
			"created": "2016-03-05T13:53:35-05:00"
		}
	]
}