{
	"greeting": "Greetings from The On-Line Encyclopedia of Integer Sequences! http://oeis.org/",
	"query": "id:A268121",
	"count": 1,
	"start": 0,
	"results": [
		{
			"number": 268121,
			"data": "1,2,5,15,111,1687,23522,253472,2290853,18470974,140294987,1065068657,8679331941,80007298457,822840131716,8854238260868,94125422868108,961136731712639,9379785431020093",
			"name": "Number of 5Xn arrays containing n copies of 0..5-1 with every element equal to or 1 greater than any north or west neighbors modulo 5 and the upper left element equal to 0.",
			"comment": [
				"Row 5 of A268115."
			],
			"example": [
				"Some solutions for n=6",
				"..0..1..1..2..3..3....0..1..1..2..3..4....0..1..2..2..3..4....0..1..1..2..3..4",
				"..0..1..2..2..3..4....0..1..2..3..4..0....1..1..2..3..4..0....0..1..2..2..3..4",
				"..0..1..2..3..4..0....1..1..2..3..4..0....1..2..3..4..4..0....0..1..2..3..3..4",
				"..1..2..3..4..4..0....1..2..3..3..4..0....2..3..4..0..0..1....0..1..2..3..4..0",
				"..1..2..3..4..4..0....2..2..3..4..4..0....3..3..4..0..1..2....1..2..3..4..4..0"
			],
			"xref": [
				"Cf. A268115."
			],
			"keyword": "nonn",
			"offset": "1,2",
			"author": "_R. H. Hardin_, Jan 26 2016",
			"references": 0,
			"revision": 5,
			"time": "2016-08-12T06:54:16-04:00",
			"created": "2016-01-26T17:20:47-05:00"
		}
	]
}