{
	"greeting": "Greetings from The On-Line Encyclopedia of Integer Sequences! http://oeis.org/",
	"query": "id:A268074",
	"count": 1,
	"start": 0,
	"results": [
		{
			"number": 268074,
			"data": "1,2,18,1094,637358,4617638834,517992936833258,1088597786720842334698,50735031335891092927048172910,60946941227979732761779089927221771422",
			"name": "Number of n X n nonnegative integer arrays with new values introduced in each row and column in sequential order starting with zero.",
			"comment": [
				"Diagonal of A268079."
			],
			"example": [
				"Some solutions for n=4",
				"..0..0..0..0....0..0..0..0....0..0..0..0....0..0..0..0....0..0..0..0",
				"..0..0..0..0....0..0..1..1....0..1..0..0....0..1..0..0....0..1..0..0",
				"..0..0..0..0....0..1..0..1....0..0..1..1....0..0..0..1....0..1..0..1",
				"..0..1..0..0....0..1..1..2....0..1..0..0....0..0..0..0....0..1..1..0"
			],
			"xref": [
				"Cf. A268079."
			],
			"keyword": "nonn",
			"offset": "1,2",
			"author": "_R. H. Hardin_, Jan 25 2016",
			"references": 0,
			"revision": 6,
			"time": "2020-04-20T19:48:23-04:00",
			"created": "2016-01-25T21:19:32-05:00"
		}
	]
}