{
	"greeting": "Greetings from The On-Line Encyclopedia of Integer Sequences! http://oeis.org/",
	"query": "id:A268900",
	"count": 1,
	"start": 0,
	"results": [
		{
			"number": 268900,
			"data": "36,696,9720,118584,1347192,14644152,154472184,1594323000,16185567096,162200044728,1608569870328,15816054042936,154394813276280,1498006261495224,14458132831535352,138907883786523192",
			"name": "Number of n X 4 0..2 arrays with some element plus some horizontally or antidiagonally adjacent neighbor totalling two exactly once.",
			"link": [
				"R. H. Hardin, \u003ca href=\"/A268900/b268900.txt\"\u003eTable of n, a(n) for n = 1..210\u003c/a\u003e"
			],
			"formula": [
				"Empirical: a(n) = 18*a(n-1) - 81*a(n-2) for n\u003e3.",
				"Conjectures from _Colin Barker_, Jan 16 2019: (Start)",
				"G.f.: 12*x*(3 + 4*x + 9*x^2) / (1 - 9*x)^2.",
				"a(n) = 8 * 3^(2*n-3) * (16*n-3) for n\u003e1.",
				"(End)"
			],
			"example": [
				"Some solutions for n=4:",
				"..0..0..0..1. .1..0..1..2. .2..0..0..0. .2..1..0..0. .1..0..0..1",
				"..0..1..0..0. .1..2..2..1. .1..0..1..2. .1..0..0..0. .1..0..2..2",
				"..0..1..1..0. .2..1..0..1. .1..0..1..2. .0..1..0..0. .1..2..1..2",
				"..0..0..1..2. .2..1..2..0. .1..2..1..2. .2..1..0..0. .2..2..2..1"
			],
			"xref": [
				"Column 4 of A268904."
			],
			"keyword": "nonn",
			"offset": "1,1",
			"author": "_R. H. Hardin_, Feb 15 2016",
			"references": 1,
			"revision": 8,
			"time": "2019-01-16T09:23:37-05:00",
			"created": "2016-02-15T14:55:36-05:00"
		}
	]
}