{
	"greeting": "Greetings from The On-Line Encyclopedia of Integer Sequences! http://oeis.org/",
	"query": "id:A268586",
	"count": 1,
	"start": 0,
	"results": [
		{
			"number": 268586,
			"data": "0,0,0,2,9,30,88,240,624,1568,3840,9216,21760,50688,116736,266240,602112,1351680,3014656,6684672,14745600,32374784,70778880,154140672,334495744,723517440,1560281088,3355443200,7197425664,15401484288,32883343360",
			"name": "Expansion of (x^3*(3*x - 2))/(2*x - 1)^3.",
			"comment": [
				"a(n) is the number of North-East lattice paths from (0,0) to (n,n) that have two east steps below y = x - 1 and no east steps above y = x+1. Details can be found in Section 4.1 in Pan and Remmel's link."
			],
			"link": [
				"Colin Barker, \u003ca href=\"/A268586/b268586.txt\"\u003eTable of n, a(n) for n = 0..1000\u003c/a\u003e",
				"Ran Pan, Jeffrey B. Remmel, \u003ca href=\"http://arxiv.org/abs/1601.07988\"\u003ePaired patterns in lattice paths\u003c/a\u003e, arXiv:1601.07988 [math.CO], 2016.",
				"\u003ca href=\"/index/Rec#order_03\"\u003eIndex entries for linear recurrences with constant coefficients\u003c/a\u003e, signature (6,-12,8)."
			],
			"formula": [
				"G.f.: (x^3*(3*x - 2))/(2*x - 1)^3.",
				"From _Colin Barker_, Feb 08 2016: (Start)",
				"a(n) = 2^(n-5)*(n-2)*(n+5) for n\u003e1.",
				"a(n) = 6*a(n-1)-12*a(n-2)+8*a(n-3) for n\u003e4.",
				"(End)"
			],
			"mathematica": [
				"CoefficientList[Series[(x^3 (3 x - 2))/(2 x - 1)^3, {x, 0, 30}], x] (* _Michael De Vlieger_, Feb 08 2016 *)",
				"LinearRecurrence[{6,-12,8},{0,0,0,2,9},40] (* _Harvey P. Dale_, Apr 25 2020 *)"
			],
			"program": [
				"(PARI) concat(vector(3), Vec(x^3*(2-3*x)/(1-2*x)^3 + O(x^100))) \\\\ _Colin Barker_, Feb 08 2016"
			],
			"keyword": "nonn,easy",
			"offset": "0,4",
			"author": "_Ran Pan_, Feb 07 2016",
			"references": 6,
			"revision": 16,
			"time": "2020-04-25T15:05:20-04:00",
			"created": "2016-02-07T21:42:06-05:00"
		}
	]
}