{
	"greeting": "Greetings from The On-Line Encyclopedia of Integer Sequences! http://oeis.org/",
	"query": "id:A269916",
	"count": 1,
	"start": 0,
	"results": [
		{
			"number": 269916,
			"data": "1,5,21,81,296,1043,3585,12095,40221,132225,430633,1391623,4467689,14262766,45311977,143343279,451768405,1419092951,4444424613,13882255419,43256925753,134492621659,417322590000,1292554593007,3996626787973,12338508959035,38037021764053",
			"name": "Number of ternary strings of length n with maximal run length four containing 11112.",
			"link": [
				"Math StackExchange, \u003ca href=\"http://math.stackexchange.com/questions/1685843\"\u003eWords built with 0,1,2\u003c/a\u003e",
				"Marko Riedel, \u003ca href=\"/A269916/a269916.maple.txt\"\u003eMaple code by total enumeration and by generating function.\u003c/a\u003e"
			],
			"formula": [
				"G.f.: x^5*(x+1)*(x^2+1)*(x^4+x^3+x^2+x+1) / ((x^8+3*x^7+5*x^6+7*x^5 +7*x^4+5*x^3+3*x^2+x-1) * (2*x^4+2*x^3+2*x^2+2*x-1))."
			],
			"mathematica": [
				"Drop[CoefficientList[Series[x^5 (x + 1) (x^2 + 1) (x^4 + x^3 + x^2 + x + 1)/((x^8 + 3 x^7 + 5 x^6 + 7 x^5 + 7 x^4 + 5 x^3 + 3 x^2 + x - 1) (2 x^4 + 2 x^3 + 2 x^2 + 2 x - 1)), {x, 0, 31}], x], 5] (* _Michael De Vlieger_, Mar 08 2016 *)"
			],
			"xref": [
				"Cf. A081038, A269914, A269915, A269917."
			],
			"keyword": "nonn",
			"offset": "5,2",
			"author": "_Marko Riedel_, Mar 07 2016",
			"references": 6,
			"revision": 19,
			"time": "2016-03-09T02:55:45-05:00",
			"created": "2016-03-08T18:28:08-05:00"
		}
	]
}