{
	"greeting": "Greetings from The On-Line Encyclopedia of Integer Sequences! http://oeis.org/",
	"query": "id:A269735",
	"count": 1,
	"start": 0,
	"results": [
		{
			"number": 269735,
			"data": "0,1,-1,2,-3,2,0,2,-5,2,0,2,-2,2,0,2,-7,2,0,2,-2,2,0,2,-4,2,0,2,-2,2,0,2,-9,2,0,2,-2,2,0,2,-4,2,0,2,-2,2,0,2,-6,2,0,2,-2,2,0,2,-4,2,0,2,-2,2,0,2,-11,2,0,2,-2,2,0,2,-4,2,0,2,-2,2,0,2,-6,2,0,2,-2,2,0,2,-4,2,0,2,-2",
			"name": "G.f.: Sum_{k \u003e= 0} x^(2^k)*(1-x^(2^k))/(1+x^(2^k)).",
			"comment": [
				"Second differences of A268289."
			],
			"link": [
				"Antti Karttunen, \u003ca href=\"/A269735/b269735.txt\"\u003eTable of n, a(n) for n = 0..65537\u003c/a\u003e"
			],
			"maple": [
				"t7:=add(x^(2^k)*(1-x^(2^k))/(1+x^(2^k)),k=0..12);",
				"t8:=series(t7,x,256);"
			],
			"program": [
				"(PARI)",
				"up_to = 1024;",
				"A268289list(up_to) =  { my(v=vector(up_to), s = 1); v[1] = s; for(n=2, up_to, s += (2*hammingweight(n) - #binary(n)); v[n] = s); (v); };",
				"v268289 = A268289list(up_to+1);",
				"A268289(n) = if(!n,n,v268289[n]);",
				"almost_firstdiffs_of_A268289(n) = if(!n,1,v268289[n+1]-v268289[n]);",
				"A269735(n) = if(n\u003c=1,n,almost_firstdiffs_of_A268289(n-1)-almost_firstdiffs_of_A268289(n-2)); \\\\ _Antti Karttunen_, Sep 30 2018",
				"(PARI)",
				"up_to_k = 16;",
				"up_to = 1+(2^up_to_k);",
				"x='x+O('x^(up_to+1));",
				"v269735 = Vec(sum(k=0,up_to_k,x^(2^k)*(1-x^(2^k))/(1+x^(2^k))));",
				"A269735(n) = if(!n,n,v269735[n]); \\\\ _Antti Karttunen_, Oct 01 2018"
			],
			"xref": [
				"Cf. A268289, A187038."
			],
			"keyword": "sign",
			"offset": "0,4",
			"author": "_N. J. A. Sloane_, Mar 11 2016",
			"references": 4,
			"revision": 12,
			"time": "2018-10-01T21:07:57-04:00",
			"created": "2016-03-11T20:49:03-05:00"
		}
	]
}