{
	"greeting": "Greetings from The On-Line Encyclopedia of Integer Sequences! http://oeis.org/",
	"query": "id:A269842",
	"count": 1,
	"start": 0,
	"results": [
		{
			"number": 269842,
			"data": "6,669,2456,5642,8255,15855,50704,63752,82621,112384,1151884,1191025,1203999,1228825,1244256,1459371,1661343,1819141,2264191,2445632,2451193,2812562,2875250,3425382,3792000,4866303,5123958,5587967",
			"name": "Integers n such that A000330(n) is the sum of 2 positive cubes.",
			"comment": [
				"Corresponding square pyramidal numbers are 91, 100029995, 4941161316, 59881606785, 187546467680, 1328674410280, ..."
			],
			"example": [
				"6 is a term because A000330(6) = 91 = 3^3 + 4^3."
			],
			"program": [
				"(PARI) isA003325(n) = for(k=1, sqrtnint(n\\2, 3), ispower(n-k^3, 3) \u0026\u0026 return(1));",
				"for(n=0, 1e7, if(isA003325(n*(n+1)*(2*n+1)/6), print1(n, \", \")));"
			],
			"xref": [
				"Cf. A000330, A003325."
			],
			"keyword": "nonn",
			"offset": "1,1",
			"author": "_Altug Alkan_, Mar 06 2016",
			"ext": [
				"a(11)-a(28) from _Chai Wah Wu_, Mar 08 2016"
			],
			"references": 1,
			"revision": 17,
			"time": "2016-03-09T03:09:04-05:00",
			"created": "2016-03-07T12:55:58-05:00"
		}
	]
}