{
	"greeting": "Greetings from The On-Line Encyclopedia of Integer Sequences! http://oeis.org/",
	"query": "id:A269769",
	"count": 1,
	"start": 0,
	"results": [
		{
			"number": 269769,
			"data": "2,5,7,12,23,24,27,47,58,77,119,121,122,167,238,248,287,340,359,503,527,621,723,839,959,1014,1328,1367,1679,1847,2037,2180,2194,2207,2397,2807,3120,3479,3719,4084,4487,4910,5039,5327,6239,6553,6856,6887,7919,8179",
			"name": "Numbers of the form p^k - k where p is a prime number and k \u003e 1.",
			"comment": [
				"Primes of the form p^k - k where p is prime are 2, 5, 7, 23, 47, 167, 359, 503, ...",
				"Subsequence of A057897.",
				"A182474 is a subsequence.",
				"Up to 10^14 all the terms have a unique representation as p^k - k. - _Giovanni Resta_, Mar 21 2017"
			],
			"link": [
				"Robert Israel, \u003ca href=\"/A269769/b269769.txt\"\u003eTable of n, a(n) for n = 1..10000\u003c/a\u003e"
			],
			"example": [
				"    2 is a term because   2 = 2^2 - 2.",
				"    5 is a term because   5 = 2^3 - 3.",
				"    7 is a term because   7 = 3^2 - 2.",
				"   12 is a term because  12 = 2^4 - 4.",
				"  121 is a term because 121 = 2^7 - 7."
			],
			"maple": [
				"N:= 10000: # to get all terms \u003c= N",
				"P:= select(isprime, [$1..floor((N+2)^(1/2))]):",
				"S:= {}:",
				"for k from 2 do",
				"  pmax:= floor((N+k)^(1/k));",
				"  if pmax \u003c 2 then break fi;",
				"  S:= S union {seq(p^k-k, p = select(`\u003c=`,P,pmax))};",
				"od:",
				"sort(convert(S,list)); # _Robert Israel_, Mar 21 2017"
			],
			"xref": [
				"Cf. A000961, A057897, A182474."
			],
			"keyword": "nonn",
			"offset": "1,1",
			"author": "_Altug Alkan_, Mar 04 2016",
			"references": 2,
			"revision": 21,
			"time": "2020-01-20T21:43:14-05:00",
			"created": "2016-03-07T12:52:37-05:00"
		}
	]
}