{
	"greeting": "Greetings from The On-Line Encyclopedia of Integer Sequences! http://oeis.org/",
	"query": "id:A269070",
	"count": 1,
	"start": 0,
	"results": [
		{
			"number": 269070,
			"data": "7,27,123,537,2343,10167,43959,189465,814359,3491691,14937987,63778065,271799175,1156345287,4911870063,20834207313,88251723687,373358554971,1577691954507,6659543294313,28081651307943,118299768626103",
			"name": "Number of n X 3 binary arrays with some element plus some horizontally, diagonally or antidiagonally adjacent neighbor totalling two not more than once.",
			"link": [
				"R. H. Hardin, \u003ca href=\"/A269070/b269070.txt\"\u003eTable of n, a(n) for n = 1..210\u003c/a\u003e"
			],
			"formula": [
				"Empirical: a(n) = 10*a(n-1) - 31*a(n-2) + 24*a(n-3) + 21*a(n-4) - 18*a(n-5) - 9*a(n-6).",
				"Empirical g.f.: x*(7 - 43*x + 70*x^2 - 24*x^3 - 9*x^4 - 9*x^5) / (1 - 5*x + 3*x^2 + 3*x^3)^2. - _Colin Barker_, Jan 18 2019"
			],
			"example": [
				"Some solutions for n=4:",
				"..0..0..0. .0..0..1. .0..1..0. .1..0..1. .1..0..1. .1..0..0. .1..0..1",
				"..0..0..0. .0..1..0. .1..0..0. .0..0..0. .0..0..0. .1..0..1. .0..0..0",
				"..1..0..0. .0..0..0. .1..0..0. .1..0..0. .0..1..0. .0..0..0. .0..0..0",
				"..1..0..1. .1..0..1. .0..0..1. .0..0..1. .1..0..0. .0..0..0. .1..1..0"
			],
			"xref": [
				"Column 3 of A269075."
			],
			"keyword": "nonn",
			"offset": "1,1",
			"author": "_R. H. Hardin_, Feb 19 2016",
			"references": 1,
			"revision": 7,
			"time": "2019-01-18T15:00:33-05:00",
			"created": "2016-02-19T08:40:31-05:00"
		}
	]
}