{
	"greeting": "Greetings from The On-Line Encyclopedia of Integer Sequences! http://oeis.org/",
	"query": "id:A269154",
	"count": 1,
	"start": 0,
	"results": [
		{
			"number": 269154,
			"data": "1,-1,2,-3,9,-13,31,-53,118,-210,452,-866,1793,-3493,7119,-13992,28257,-56253,113035,-225318,451745,-901870,1805976,-3609701,7222075,-14439594,28887060,-57763494,115540784,-231066845,462154358,-924282660,1848598423,-3697142099",
			"name": "Expansion of Product_{k\u003e=1} (1 + k*x^k)/(1 + 2*x^k).",
			"link": [
				"Vaclav Kotesovec, \u003ca href=\"/A269154/b269154.txt\"\u003eTable of n, a(n) for n = 0..3300\u003c/a\u003e"
			],
			"formula": [
				"a(n) ~ c * (-2)^n, where c = Product_{k\u003e=1} ((-2)^k + k)/((-2)^k - 1) = 0.4304067090888734207149852218007129877370867778815471457548443780472..."
			],
			"mathematica": [
				"nmax = 50; CoefficientList[Series[Product[(1+k*x^k)/(1+2*x^k), {k, 1, nmax}], {x, 0, nmax}], x]"
			],
			"xref": [
				"Cf. A022629, A269144, A269153, A269155."
			],
			"keyword": "sign",
			"offset": "0,3",
			"author": "_Vaclav Kotesovec_, Feb 20 2016",
			"references": 2,
			"revision": 9,
			"time": "2016-02-20T09:05:35-05:00",
			"created": "2016-02-20T08:19:17-05:00"
		}
	]
}