{
	"greeting": "Greetings from The On-Line Encyclopedia of Integer Sequences! http://oeis.org/",
	"query": "id:A269610",
	"count": 1,
	"start": 0,
	"results": [
		{
			"number": 269610,
			"data": "14,902,10192,58280,229754,714874,1886252,4405772,9366790,18476654,34284584,60459952,102126002,166254050,262123204,401850644,600997502,879255382,1261218560,1777246904,2464424554,3367619402,4540648412",
			"name": "Number of length-7 0..n arrays with no repeated value differing from the previous repeated value by one or less.",
			"link": [
				"R. H. Hardin, \u003ca href=\"/A269610/b269610.txt\"\u003eTable of n, a(n) for n = 1..210\u003c/a\u003e"
			],
			"formula": [
				"Empirical: a(n) = n^7 + 7*n^6 + 16*n^5 - 12*n^4 - 5*n^3 + 18*n^2 - 15*n + 4.",
				"Conjectures from _Colin Barker_, Jan 25 2019: (Start)",
				"G.f.: 2*x*(7 + 395*x + 1684*x^2 + 608*x^3 - 321*x^4 + 143*x^5 + 6*x^6 - 2*x^7) / (1 - x)^8.",
				"a(n) = 8*a(n-1) - 28*a(n-2) + 56*a(n-3) - 70*a(n-4) + 56*a(n-5) - 28*a(n-6) + 8*a(n-7) - a(n-8) for n\u003e8.",
				"(End)"
			],
			"example": [
				"Some solutions for n=4:",
				"..1. .4. .2. .0. .2. .1. .4. .3. .1. .3. .4. .2. .4. .3. .3. .2",
				"..4. .1. .0. .3. .4. .3. .2. .0. .3. .4. .1. .1. .1. .1. .4. .3",
				"..0. .3. .3. .1. .1. .0. .4. .3. .1. .4. .4. .4. .0. .1. .2. .0",
				"..1. .2. .2. .2. .1. .4. .0. .0. .0. .3. .2. .1. .3. .0. .4. .2",
				"..1. .0. .0. .3. .3. .2. .1. .2. .2. .1. .2. .3. .4. .3. .3. .3",
				"..4. .1. .3. .2. .3. .3. .4. .0. .1. .1. .4. .3. .4. .0. .2. .1",
				"..4. .3. .1. .1. .2. .2. .0. .3. .1. .3. .1. .0. .3. .3. .1. .4"
			],
			"xref": [
				"Row 7 of A269606."
			],
			"keyword": "nonn",
			"offset": "1,1",
			"author": "_R. H. Hardin_, Mar 01 2016",
			"references": 1,
			"revision": 8,
			"time": "2019-01-25T06:37:59-05:00",
			"created": "2016-03-01T12:46:03-05:00"
		}
	]
}