{
	"greeting": "Greetings from The On-Line Encyclopedia of Integer Sequences! http://oeis.org/",
	"query": "id:A269548",
	"count": 1,
	"start": 0,
	"results": [
		{
			"number": 269548,
			"data": "-1,-233,-22961,-2250073,-220484321,-21605213513,-2117090440081,-207453257914553,-20328302185186241,-1991966160890337193,-195192355465067858801,-19126858869415759825433,-1874236976847279395033761,-183656096872163964953483273,-17996423256495221286046327121",
			"name": "Expansion of (-7*x^2 + 134*x + 1)/(x^3 - 99*x^2 + 99*x - 1).",
			"comment": [
				"McLaughlin (2010) gives an identity relating ten sequences, denoted a_k, b_k, ..., f_k, p_k, q_k, r_k, s_k. This is the sequence b_k."
			],
			"link": [
				"J. McLaughlin, \u003ca href=\"http://www.fq.math.ca/Papers1/48-1/McLaughlin.pdf\"\u003eAn identity motivated by an amazing identity of Ramanujan\u003c/a\u003e, Fib. Q., 48 (No. 1, 2010), 34-38.",
				"\u003ca href=\"/index/Rec#order_03\"\u003eIndex entries for linear recurrences with constant coefficients\u003c/a\u003e, signature (99,-99,1)."
			],
			"formula": [
				"G.f.: (-7*x^2 + 134*x + 1)/(x^3 - 99*x^2 + 99*x - 1).",
				"a(n) = 4/3 + ((3*sqrt(6) - 7)/(2*sqrt(6) + 5)^(2*n) - (3*sqrt(6) + 7)*(2*sqrt(6) + 5)^(2*n))/6. - _Bruno Berselli_, Mar 01 2016"
			],
			"mathematica": [
				"CoefficientList[Series[(-7 x^2 + 134 x + 1)/(x^3 - 99 x^2 + 99 x - 1), {x, 0, 20}], x] (* or *) Table[FullSimplify[4/3 + ((3 Sqrt[6] - 7)/(2 Sqrt[6] + 5)^(2 n) - (3 Sqrt[6] + 7) (2 Sqrt[6] + 5)^(2 n))/6], {n, 0, 20}] (* _Bruno Berselli_, Mar 01 2016 *)"
			],
			"program": [
				"(PARI) Vec((-7*x^2 + 134*x + 1)/(x^3 - 99*x^2 + 99*x - 1) + O(x^20))",
				"(Sage)",
				"gf = (-7*x^2+134*x+1)/(x^3-99*x^2+99*x-1)",
				"print(taylor(gf, x, 0, 20).list()) # _Bruno Berselli_, Mar 01 2016",
				"(MAGMA) m:=20; R\u003cx\u003e:=PowerSeriesRing(Integers(), m); Coefficients(R!((-7*x^2+134*x+1)/(x^3-99*x^2+99*x-1))); // _Bruno Berselli_, Mar 01 2016"
			],
			"xref": [
				"Cf. A261004, A269549, A269550, A269551, A269552, A269553, A269554, A269555, A269556."
			],
			"keyword": "sign,easy",
			"offset": "0,2",
			"author": "_Michel Marcus_, Feb 29 2016",
			"references": 8,
			"revision": 21,
			"time": "2020-03-05T17:02:56-05:00",
			"created": "2016-02-29T12:11:56-05:00"
		}
	]
}