{
	"greeting": "Greetings from The On-Line Encyclopedia of Integer Sequences! http://oeis.org/",
	"query": "id:A269971",
	"count": 1,
	"start": 0,
	"results": [
		{
			"number": 269971,
			"data": "1,2,1,1,2,2,3,1,1,2,1,1,2,5,2,1,2,3,1,3,2,1,1,2,2,2,1,1,2,3,2,2,3,2,1,2,1,1,1,1,1,1,1,1,1,2,1,2,2,1,3,2,2,2,1,1,1,1,2,2,1,3,1,1,2,3,1,1,1,1,2,1,1,3,2,1,1,4,2,2,2,1,1,3,1,1",
			"name": "Factorial-nested interval sequence of e-2.",
			"comment": [
				"See A269970 for a definition of factorial-nested interval sequence and guide to related sequences."
			],
			"xref": [
				"Cf. A000142, A269970."
			],
			"keyword": "nonn,easy",
			"offset": "1,2",
			"author": "_Clark Kimberling_, Mar 08 2016",
			"references": 1,
			"revision": 4,
			"time": "2016-03-10T21:01:52-05:00",
			"created": "2016-03-10T21:01:52-05:00"
		}
	]
}