{
	"greeting": "Greetings from The On-Line Encyclopedia of Integer Sequences! http://oeis.org/",
	"query": "id:A269290",
	"count": 1,
	"start": 0,
	"results": [
		{
			"number": 269290,
			"data": "16,216,2124,19188,164556,1363572,11026764,87559668,685523916,5306911092,40706083404,309846524148,2343253251276,17623065834612,131903512372044,983118947312628,7300393156146636,54032675767734132,398738196097092684",
			"name": "Number of 2 X n 0..3 arrays with some element plus some horizontally or antidiagonally adjacent neighbor totalling three no more than once.",
			"link": [
				"R. H. Hardin, \u003ca href=\"/A269290/b269290.txt\"\u003eTable of n, a(n) for n = 1..210\u003c/a\u003e"
			],
			"formula": [
				"Empirical: a(n) = 14*a(n-1) - 49*a(n-2) for n\u003e4.",
				"Conjectures from _Colin Barker_, Jan 21 2019: (Start)",
				"G.f.: 4*x*(4 - 2*x - 29*x^2 + 9*x^3) / (1 - 7*x)^2.",
				"a(n) = 36 * 7^(n-4) * (120*n+53) for n\u003e2.",
				"(End)"
			],
			"example": [
				"Some solutions for n=4:",
				"..0..0..2..1. .1..0..1..3. .1..3..2..2. .2..0..2..2. .3..1..3..2",
				"..2..2..3..3. .1..1..2..2. .3..2..2..0. .1..0..3..1. .0..3..2..0"
			],
			"xref": [
				"Row 2 of A269289."
			],
			"keyword": "nonn",
			"offset": "1,1",
			"author": "_R. H. Hardin_, Feb 21 2016",
			"references": 1,
			"revision": 8,
			"time": "2019-01-21T09:24:48-05:00",
			"created": "2016-02-21T09:28:11-05:00"
		}
	]
}