{
	"greeting": "Greetings from The On-Line Encyclopedia of Integer Sequences! http://oeis.org/",
	"query": "id:A269430",
	"count": 1,
	"start": 0,
	"results": [
		{
			"number": 269430,
			"data": "2,0,7,0,7,9,6,3,2,6,7,9,4,8,9,6,6,1,9,2,3,1,3,2,1,6,9,1,6,3,9,7,5,1,4,4,2,0,9,8,5,8,4,6,9,9,6,8,7,5,5,2,9,1,0,4,8,7,4,7,2,2,9,6,1,5,3,9,0,8,2,0,3,1,4,3,1,0,4,4,9,9,3,1,4,0,1,7,4,1,2,6,7,1,0,5,8,5,3,3,9",
			"name": "Decimal expansion of (1 + Pi)/2.",
			"formula": [
				"Equals A096444 + 1 or A019669 + 1/2.",
				"Equals Sum_{k\u003e=0} 2^k/binomial(2*k+2,k). - _Amiram Eldar_, Jun 30 2020"
			],
			"example": [
				"2.0707963267948966192313216916397514420985846996875529..."
			],
			"program": [
				"(Sage) N((1+pi)/2, digits=110)",
				"(PARI) (1 + Pi)/2 \\\\ _Altug Alkan_, Apr 07 2016"
			],
			"xref": [
				"Cf. A000796, A002193, A002194, A002163, A174968, A001622, A002161, A010767, A011002, A011003, A191502, A053004."
			],
			"keyword": "cons,nonn",
			"offset": "1,1",
			"author": "_Jani Melik_, Feb 26 2016",
			"references": 1,
			"revision": 19,
			"time": "2020-06-30T05:34:13-04:00",
			"created": "2016-04-09T16:16:56-04:00"
		}
	]
}