{
	"greeting": "Greetings from The On-Line Encyclopedia of Integer Sequences! http://oeis.org/",
	"query": "id:A269504",
	"count": 1,
	"start": 0,
	"results": [
		{
			"number": 269504,
			"data": "1,14,420,18332,1261420,134871120,21338020496",
			"name": "Number of nX3 arrays containing 3 copies of 0..n-1 avoiding the pattern down-up in every row and column.",
			"comment": [
				"Column 3 of A269505."
			],
			"example": [
				"Some solutions for n=4",
				"..0..0..3. .0..2..1. .0..2..1. .2..2..1. .0..2..1. .0..0..1. .0..0..1",
				"..1..1..2. .0..3..1. .1..2..2. .0..2..3. .1..2..3. .3..2..2. .3..2..2",
				"..2..3..1. .1..3..3. .3..3..3. .0..3..1. .3..3..2. .1..3..2. .2..3..1",
				"..3..2..0. .0..2..2. .0..0..1. .1..3..0. .0..0..1. .1..3..0. .0..3..1"
			],
			"xref": [
				"Cf. A269505."
			],
			"keyword": "nonn",
			"offset": "1,2",
			"author": "_R. H. Hardin_, Feb 28 2016",
			"references": 0,
			"revision": 5,
			"time": "2016-08-12T07:05:19-04:00",
			"created": "2016-02-28T08:51:21-05:00"
		}
	]
}