{
	"greeting": "Greetings from The On-Line Encyclopedia of Integer Sequences! http://oeis.org/",
	"query": "id:A269096",
	"count": 1,
	"start": 0,
	"results": [
		{
			"number": 269096,
			"data": "5832,7375872,5795398368,3892946216856,2416707037884480,1430390977786967280,819944297332124826720,459338963193935894366016,252910225839761737259917296,137383600294764153686560207128",
			"name": "Number of nX7 0..3 arrays with some element plus some horizontally or vertically adjacent neighbor totalling three exactly once.",
			"comment": [
				"Column 7 of A269097."
			],
			"link": [
				"R. H. Hardin, \u003ca href=\"/A269096/b269096.txt\"\u003eTable of n, a(n) for n = 1..210\u003c/a\u003e",
				"R. H. Hardin, \u003ca href=\"/A269096/a269096.txt\"\u003eEmpirical recurrence of order 64\u003c/a\u003e"
			],
			"formula": [
				"Empirical recurrence of order 64 (see link above)"
			],
			"example": [
				"Some solutions for n=1",
				"..0..3..2..2..0..0..1. .1..1..0..3..1..1..1. .0..1..3..1..0..3..3"
			],
			"xref": [
				"Cf. A269097."
			],
			"keyword": "nonn",
			"offset": "1,1",
			"author": "_R. H. Hardin_, Feb 19 2016",
			"references": 1,
			"revision": 4,
			"time": "2016-02-19T09:51:22-05:00",
			"created": "2016-02-19T09:51:22-05:00"
		}
	]
}