{
	"greeting": "Greetings from The On-Line Encyclopedia of Integer Sequences! http://oeis.org/",
	"query": "id:A269621",
	"count": 1,
	"start": 0,
	"results": [
		{
			"number": 269621,
			"data": "28,222,954,2956,7440,16218,31822,57624,97956,158230,245058,366372,531544,751506,1038870,1408048,1875372,2459214,3180106,4060860,5126688,6405322,7927134,9725256,11835700,14297478,17152722,20446804,24228456",
			"name": "Number of length-5 0..n arrays with no repeated value differing from the previous repeated value by other than plus two, zero or minus 1.",
			"link": [
				"R. H. Hardin, \u003ca href=\"/A269621/b269621.txt\"\u003eTable of n, a(n) for n = 1..210\u003c/a\u003e"
			],
			"formula": [
				"Empirical: a(n) = n^5 + 5*n^4 + 7*n^3 + 12*n^2 + 3*n.",
				"Conjectures from _Colin Barker_, Jan 25 2019: (Start)",
				"G.f.: 2*x*(14 + 27*x + 21*x^2 + x^3 - 3*x^4) / (1 - x)^6.",
				"a(n) = 6*a(n-1) - 15*a(n-2) + 20*a(n-3) - 15*a(n-4) + 6*a(n-5) - a(n-6) for n\u003e6.",
				"(End)"
			],
			"example": [
				"Some solutions for n=8:",
				"..5. .0. .5. .4. .4. .7. .7. .8. .0. .1. .1. .3. .6. .0. .2. .3",
				"..4. .1. .0. .6. .8. .8. .6. .3. .8. .5. .5. .8. .5. .4. .0. .5",
				"..5. .2. .7. .5. .3. .0. .0. .4. .6. .3. .6. .0. .7. .5. .4. .4",
				"..5. .0. .7. .6. .2. .6. .4. .0. .7. .0. .8. .1. .2. .0. .2. .4",
				"..7. .1. .4. .6. .1. .6. .5. .8. .7. .6. .1. .2. .7. .4. .3. .5"
			],
			"xref": [
				"Row 5 of A269619."
			],
			"keyword": "nonn",
			"offset": "1,1",
			"author": "_R. H. Hardin_, Mar 01 2016",
			"references": 1,
			"revision": 8,
			"time": "2019-01-25T08:28:03-05:00",
			"created": "2016-03-01T14:58:43-05:00"
		}
	]
}