{
	"greeting": "Greetings from The On-Line Encyclopedia of Integer Sequences! http://oeis.org/",
	"query": "id:A269474",
	"count": 1,
	"start": 0,
	"results": [
		{
			"number": 269474,
			"data": "105,8112,396792,15663360,544475232,17388675072,522638463744,15007609257984,415870219556352,11199568168353792,294628320168579072,7600751972236394496,192860109239084236800,4824494454867178291200,119207140785929743368192,2913796518104633469566976",
			"name": "Column 2 of A266240.",
			"link": [
				"Vaclav Kotesovec, \u003ca href=\"/A269474/b269474.txt\"\u003eTable of n, a(n) for n = 3..750\u003c/a\u003e"
			],
			"formula": [
				"Recurrence: (n-4)*(n-3)*(n-2)*(2100*n^3 - 22577*n^2 + 77702*n - 86760)*a(n) = 48*(n-4)*(37800*n^5 - 463086*n^4 + 2015601*n^3 - 3767956*n^2 + 2822996*n - 645120)*a(n-2) - 20736*(n-2)*(3*n - 10)*(3*n - 8)*(2100*n^3 - 9977*n^2 + 12594*n - 4864)*a(n-4).",
				"a(n) ~ 7 * 2^(2*n - 9/2) * 3^(3*n/2 - 3/2) * n^(5/2) / (5*sqrt(Pi))."
			],
			"xref": [
				"Cf. A266240."
			],
			"keyword": "nonn",
			"offset": "3,1",
			"author": "_Vaclav Kotesovec_, Feb 27 2016",
			"references": 2,
			"revision": 6,
			"time": "2016-02-27T13:29:16-05:00",
			"created": "2016-02-27T13:29:16-05:00"
		}
	]
}