{
	"greeting": "Greetings from The On-Line Encyclopedia of Integer Sequences! http://oeis.org/",
	"query": "id:A269676",
	"count": 1,
	"start": 0,
	"results": [
		{
			"number": 269676,
			"data": "7,49,336,2282,15358,102606,681254,4499278,29579382,193688894,1263866086,8221560942,53335049558,345145632286,2228595939654,14361269047118,92377858496182,593235919318014,3803941311320486,24358026991712302",
			"name": "Number of length-n 0..6 arrays with no repeated value differing from the previous repeated value by other than plus or minus one modulo 6+1.",
			"link": [
				"R. H. Hardin, \u003ca href=\"/A269676/b269676.txt\"\u003eTable of n, a(n) for n = 1..210\u003c/a\u003e"
			],
			"formula": [
				"Empirical: a(n) = 11*a(n-1) - 22*a(n-2) - 48*a(n-3).",
				"Empirical g.f.: 7*x*(1 - 4*x - 7*x^2) / ((1 - 6*x)*(1 - 5*x - 8*x^2)). - _Colin Barker_, Jan 26 2019"
			],
			"example": [
				"Some solutions for n=6:",
				"..4. .4. .4. .1. .2. .5. .4. .5. .5. .2. .0. .2. .6. .6. .5. .1",
				"..1. .3. .2. .1. .2. .1. .0. .3. .3. .2. .5. .4. .3. .2. .0. .6",
				"..5. .3. .2. .0. .5. .0. .6. .2. .4. .3. .5. .4. .2. .6. .1. .6",
				"..4. .5. .6. .5. .0. .1. .5. .4. .5. .3. .3. .3. .1. .4. .0. .1",
				"..2. .1. .2. .0. .2. .2. .1. .5. .4. .4. .1. .5. .4. .6. .2. .6",
				"..3. .5. .0. .1. .0. .3. .4. .1. .6. .0. .2. .0. .4. .5. .0. .2"
			],
			"xref": [
				"Column 6 of A269678."
			],
			"keyword": "nonn",
			"offset": "1,1",
			"author": "_R. H. Hardin_, Mar 03 2016",
			"references": 1,
			"revision": 8,
			"time": "2019-01-26T11:10:08-05:00",
			"created": "2016-03-03T12:03:52-05:00"
		}
	]
}