{
	"greeting": "Greetings from The On-Line Encyclopedia of Integer Sequences! http://oeis.org/",
	"query": "id:A270160",
	"count": 1,
	"start": 0,
	"results": [
		{
			"number": 270160,
			"data": "1,4,9,32,13,92,45,156,36,309,56,404,85,624,177,764,125,1084,181,1268,209,1576,321,1800,277,2204,313,2584,336,2957,532,3245,456,3941,504,4289,576,4880,749,5284,657,6012,820,6516,833,7076,1185,7560,1025,8476",
			"name": "Number of active (ON,black) cells in n-th stage of growth of two-dimensional cellular automaton defined by \"Rule 105\", based on the 5-celled von Neumann neighborhood.",
			"comment": [
				"Initialized with a single black (ON) cell at stage zero."
			],
			"reference": [
				"S. Wolfram, A New Kind of Science, Wolfram Media, 2002; p. 170."
			],
			"link": [
				"Robert Price, \u003ca href=\"/A270160/b270160.txt\"\u003eTable of n, a(n) for n = 0..128\u003c/a\u003e",
				"Robert Price, \u003ca href=\"/A270160/a270160.tmp.txt\"\u003eDiagrams of the first 20 stages.\u003c/a\u003e",
				"N. J. A. Sloane, \u003ca href=\"http://arxiv.org/abs/1503.01168\"\u003eOn the Number of ON Cells in Cellular Automata\u003c/a\u003e, arXiv:1503.01168 [math.CO], 2015",
				"Eric Weisstein's World of Mathematics, \u003ca href=\"http://mathworld.wolfram.com/ElementaryCellularAutomaton.html\"\u003eElementary Cellular Automaton\u003c/a\u003e",
				"S. Wolfram, \u003ca href=\"http://wolframscience.com/\"\u003eA New Kind of Science\u003c/a\u003e",
				"\u003ca href=\"/index/Ce#cell\"\u003eIndex entries for sequences related to cellular automata\u003c/a\u003e",
				"\u003ca href=\"https://oeis.org/wiki/Index_to_2D_5-Neighbor_Cellular_Automata\"\u003eIndex to 2D 5-Neighbor Cellular Automata\u003c/a\u003e",
				"\u003ca href=\"https://oeis.org/wiki/Index_to_Elementary_Cellular_Automata\"\u003eIndex to Elementary Cellular Automata\u003c/a\u003e"
			],
			"mathematica": [
				"CAStep[rule_,a_]:=Map[rule[[10-#]]\u0026,ListConvolve[{{0,2,0},{2,1,2},{0,2,0}},a,2],{2}];",
				"code=105; stages=128;",
				"rule=IntegerDigits[code,2,10];",
				"g=2*stages+1; (* Maximum size of grid *)",
				"a=PadLeft[{{1}},{g,g},0,Floor[{g,g}/2]]; (* Initial ON cell on grid *)",
				"ca=a;",
				"ca=Table[ca=CAStep[rule,ca],{n,1,stages+1}];",
				"PrependTo[ca,a];",
				"(* Trim full grid to reflect growth by one cell at each stage *)",
				"k=(Length[ca[[1]]]+1)/2;",
				"ca=Table[Table[Part[ca[[n]][[j]],Range[k+1-n,k-1+n]],{j,k+1-n,k-1+n}],{n,1,k}];",
				"Map[Function[Apply[Plus,Flatten[#1]]],ca] (* Count ON cells at each stage *)"
			],
			"keyword": "nonn,easy",
			"offset": "0,2",
			"author": "_Robert Price_, Mar 12 2016",
			"references": 4,
			"revision": 9,
			"time": "2016-03-12T21:53:10-05:00",
			"created": "2016-03-12T16:37:24-05:00"
		}
	]
}