{
	"greeting": "Greetings from The On-Line Encyclopedia of Integer Sequences! http://oeis.org/",
	"query": "id:A270972",
	"count": 1,
	"start": 0,
	"results": [
		{
			"number": 270972,
			"data": "19,8629,9721,12109,13831,15331,17029,17989,25849,33151,56209,70999,73039,78541,92461,97369,97609,103069,103969,147139,174469,179719,203341,217369,221401,242059,249541,269431,277549,283009,285559,324619,333451,346669,393079,404269,409261,424891,440551,488689",
			"name": "Primes p such that p-2, p^2-2 and p^3-2 are all prime.",
			"comment": [
				"Subsequence of A006512. - _Altug Alkan_, Mar 27 2016"
			],
			"example": [
				"p=19; p-2 = 17 (is prime), p^2-2 = 359 (is prime), p^3-2 = 6857 (is prime)."
			],
			"mathematica": [
				"Select[Prime@ Range@ 42000, Function[k, AllTrue[k^# \u0026 /@ Range@ 3 - 2, PrimeQ]]] (* _Michael De Vlieger_, Mar 27 2016, Version 10 *)"
			],
			"program": [
				"(PARI) lista(nn) = {forprime(p=5, nn, if(isprime(p-2) \u0026\u0026 isprime(p^2-2) \u0026\u0026 isprime(p^3-2), print1(p, \", \")));} \\\\ _Altug Alkan_, Mar 27 2016",
				"(MAGMA) [p: p in PrimesUpTo(500000) | IsPrime(p-2) and IsPrime(p^2-2) and IsPrime(p^3-2)]; // _Vincenzo Librandi_, Mar 28 2016"
			],
			"xref": [
				"Cf. A000040, A001248, A006512, A030078, A049001, A040976, A153481."
			],
			"keyword": "nonn",
			"offset": "1,1",
			"author": "_Emre APARI_, Mar 27 2016",
			"ext": [
				"More terms from _Altug Alkan_, Mar 27 2016"
			],
			"references": 0,
			"revision": 22,
			"time": "2017-10-02T03:59:34-04:00",
			"created": "2016-04-04T23:29:33-04:00"
		}
	]
}