{
	"greeting": "Greetings from The On-Line Encyclopedia of Integer Sequences! http://oeis.org/",
	"query": "id:A270001",
	"count": 1,
	"start": 0,
	"results": [
		{
			"number": 270001,
			"data": "3,15,275,382677,1046649251798,2422932913436254796909358,7298956212857760367589586285406004970615840077289,146254918268677439622519920044753993861333975570554456887622664610038423045957554361330873143236585",
			"name": "Denominators of r-Egyptian fraction expansion for 1/e, where r = (1,1/2,1/3,1/4,...)",
			"comment": [
				"Suppose that r is a sequence of rational numbers r(k) \u003c= 1 for k \u003e= 1, and that x is an irrational number in (0,1).  Let f(0) = x, n(k) = floor(r(k)/f(k-1)), and f(k) = f(k-1) - r(k)/n(k).  Then x = r(1)/n(1) + r(2)/n(2) + r(3)/n(3) + ... , the r-Egyptian fraction for x.",
				"See A269993 for a guide to related sequences."
			],
			"link": [
				"Clark Kimberling, \u003ca href=\"/A270001/b270001.txt\"\u003eTable of n, a(n) for n = 1..12\u003c/a\u003e",
				"Eric Weisstein's World of Mathematics, \u003ca href=\"http://mathworld.wolfram.com/EgyptianFraction.html\"\u003eEgyptian Fraction\u003c/a\u003e",
				"\u003ca href=\"/index/Ed#Egypt\"\u003eIndex entries for sequences related to Egyptian fractions\u003c/a\u003e"
			],
			"example": [
				"1/e = 1/3 + 1/(2*15) + 1/(3*275) + ..."
			],
			"mathematica": [
				"r[k_] := 1/k; f[x_, 0] = x; z = 10;",
				"n[x_, k_] := n[x, k] = Ceiling[r[k]/f[x, k - 1]]",
				"f[x_, k_] := f[x, k] = f[x, k - 1] - r[k]/n[x, k]",
				"x = 1/E; Table[n[x, k], {k, 1, z}]"
			],
			"xref": [
				"Cf. A269993."
			],
			"keyword": "nonn,frac,easy",
			"offset": "1,1",
			"author": "_Clark Kimberling_, Mar 15 2016",
			"references": 2,
			"revision": 12,
			"time": "2018-02-23T22:03:49-05:00",
			"created": "2016-03-16T16:54:09-04:00"
		}
	]
}