{
	"greeting": "Greetings from The On-Line Encyclopedia of Integer Sequences! http://oeis.org/",
	"query": "id:A270601",
	"count": 1,
	"start": 0,
	"results": [
		{
			"number": 270601,
			"data": "0,36,312,8808,443088,44168712,8708857332,3419936238138,2684843924352546,4225663875817457520,13361604903790701175254,85018381019087710839691584,1089960283319115969602380739838,28183582557929760913921018421335722",
			"name": "Number of nXnXn triangular 0..3 arrays with some element plus some adjacent element totalling 3+1 or 3-1 exactly once.",
			"comment": [
				"Column 3 of A270606."
			],
			"link": [
				"R. H. Hardin, \u003ca href=\"/A270601/b270601.txt\"\u003eTable of n, a(n) for n = 1..15\u003c/a\u003e"
			],
			"example": [
				"Some solutions for n=4",
				".....0........3........3........1........3........3........3........1",
				"....0.3......0.2......3.3......3.0......0.3......0.3......3.0......3.0",
				"...1.0.0....3.3.3....0.2.3....3.0.3....0.0.0....0.3.3....3.3.3....0.0.3",
				"..3.0.3.3..3.3.0.0..0.3.3.3..0.3.0.0..0.1.1.0..1.3.3.0..2.0.0.0..0.0.0.0"
			],
			"xref": [
				"Cf. A270606."
			],
			"keyword": "nonn",
			"offset": "1,2",
			"author": "_R. H. Hardin_, Mar 20 2016",
			"references": 1,
			"revision": 5,
			"time": "2016-03-20T10:52:30-04:00",
			"created": "2016-03-20T10:52:30-04:00"
		}
	]
}