{
	"greeting": "Greetings from The On-Line Encyclopedia of Integer Sequences! http://oeis.org/",
	"query": "id:A270302",
	"count": 1,
	"start": 0,
	"results": [
		{
			"number": 270302,
			"data": "272,544,1088,2176,4352,4624,5168,6256,7888,8432,8704,9248,10064,10336,11152,11696,12512,12784,14416,15776,16048,16592,16864,17408,18224,18496,19312,19856,20128,20672,21488,22304,22576,23392,24208,25024,25568,26384,27472",
			"name": "Numbers which are representable as a sum of seventeen but no fewer consecutive nonnegative integers.",
			"formula": [
				"A163169(a(n)) = 17. - _Ray Chandler_, Mar 22 2016",
				"a(n) == 0 (mod 272). _Hugo Pfoertner_, Feb 04 2021"
			],
			"example": [
				"153 = 1 + 2 + 3 + ... + 15 + 16 + 17 = 76 + 77 (not in sequence);",
				"272 = 8 + 9 + 10 + ... + 22 + 23 + 24;",
				"544 = 24 + 25 + 26 + ... + 38 + 39 + 40;",
				"1088 = 56 + 57 + 58 + ... + 70 + 71 + 72."
			],
			"xref": [
				"Cf. A138591, A270296, A270297, A270298, A270299, A270300, A270301, A270303."
			],
			"keyword": "nonn",
			"offset": "1,1",
			"author": "_Martin Renner_, Mar 14 2016",
			"references": 7,
			"revision": 14,
			"time": "2021-02-04T18:16:39-05:00",
			"created": "2016-03-15T00:13:08-04:00"
		}
	]
}