{
	"greeting": "Greetings from The On-Line Encyclopedia of Integer Sequences! http://oeis.org/",
	"query": "id:A270041",
	"count": 1,
	"start": 0,
	"results": [
		{
			"number": 270041,
			"data": "12,13,14,15,16,18,18,20,20,22,22,24,24,28,28,28,28,144,144,160,160,162,216,216,216,216,216,216,216,216,216,223,228,316,316,316,316,316,316,316,316,316,316,316,316,316,316,487,487",
			"name": "a(n) = Smallest m \u003e= 11 containing no fives when represented in any base from 6 through n.",
			"comment": [
				"It remains to be determined if the sequence is finite."
			],
			"link": [
				"Nathan Fox, \u003ca href=\"/A270041/b270041.txt\"\u003eTable of n, a(n) for n = 6..109\u003c/a\u003e"
			],
			"mathematica": [
				"Table[SelectFirst[Range[11, 10^3], Total@ Map[Function[k, DigitCount[#, k, 5]], Range[6, n]] == 0 \u0026], {n, 6, 60}] /. n_ /; MissingQ@ n -\u003e Nothing (* _Michael De Vlieger_, Mar 10 2016, Version 10.2 *)"
			],
			"xref": [
				"Cf. A270031, A270037, A270038, A216192, A270039, A270040, A270042, A270043, A270044, A270045."
			],
			"keyword": "nonn,base",
			"offset": "6,1",
			"author": "_Nathan Fox_, Mar 09 2016",
			"references": 10,
			"revision": 14,
			"time": "2016-03-12T22:15:49-05:00",
			"created": "2016-03-10T20:55:20-05:00"
		}
	]
}