{
	"greeting": "Greetings from The On-Line Encyclopedia of Integer Sequences! http://oeis.org/",
	"query": "id:A271480",
	"count": 1,
	"start": 0,
	"results": [
		{
			"number": 271480,
			"data": "1,2,4,8,16,30,53,88,139,210,306,432,594,798,1051,1360",
			"name": "Dimension of n-qubit subspace H^{MPS}_{2,n} for bond dimension 2.",
			"link": [
				"M. Navascues, T. Vertesi, \u003ca href=\"http://arxiv.org/abs/1509.04507\"\u003eThe Structure of Matrix Product States\u003c/a\u003e, arXiv preprint arXiv:1509.04507 [quant-ph], 2015."
			],
			"formula": [
				"Conjectures from _Colin Barker_, Apr 26 2016: (Start)",
				"a(n) = (93+3*(-1)^n+88*n+4*n^2+8*n^3+2*n^4)/96.",
				"a(n) = (n^4+4*n^3+2*n^2+44*n+48)/48 for n even.",
				"a(n) = (n^4+4*n^3+2*n^2+44*n+45)/48 for n odd.",
				"a(n) = 4*a(n-1)-5*a(n-2)+5*a(n-4)-4*a(n-5)+a(n-6) for n\u003e5.",
				"G.f.: (1-2*x+x^2+2*x^3-x^4) / ((1-x)^5*(1+x)).",
				"(End)"
			],
			"keyword": "nonn,more",
			"offset": "0,2",
			"author": "_N. J. A. Sloane_, Apr 12 2016",
			"references": 0,
			"revision": 12,
			"time": "2016-04-26T10:35:18-04:00",
			"created": "2016-04-12T11:37:38-04:00"
		}
	]
}