{
	"greeting": "Greetings from The On-Line Encyclopedia of Integer Sequences! http://oeis.org/",
	"query": "id:A271593",
	"count": 1,
	"start": 0,
	"results": [
		{
			"number": 271593,
			"data": "1,1,2,2,4,5,8,10,15,18,26,32,44,54,72,88,115,140,180,218,276,333,416,500,618,740,906,1080,1312,1558,1880,2224,2666,3143,3746,4402,5220,6114,7216,8426,9903,11530,13498,15672,18280,21168,24608,28424,32940,37956",
			"name": "Expansion of psi(-x^3) / f(-x) in powers of x where psi(), f() are Ramanujan theta functions.",
			"comment": [
				"Ramanujan theta functions: f(q) (see A121373), phi(q) (A000122), psi(q) (A010054), chi(q) (A000700)."
			],
			"link": [
				"Vaclav Kotesovec, \u003ca href=\"/A271593/b271593.txt\"\u003eTable of n, a(n) for n = 0..2000\u003c/a\u003e",
				"Andrew Sills, \u003ca href=\"https://works.bepress.com/andrew_sills/40/\"\u003eRademacher-Type Formulas for Restricted Partition and Overpartition Functions\u003c/a\u003e, Ramanujan Journal, 23 (1-3): 253-264, 2010.",
				"Michael Somos, \u003ca href=\"/A010815/a010815.txt\"\u003eIntroduction to Ramanujan theta functions\u003c/a\u003e",
				"Eric Weisstein's World of Mathematics, \u003ca href=\"http://mathworld.wolfram.com/RamanujanThetaFunctions.html\"\u003eRamanujan Theta Functions\u003c/a\u003e"
			],
			"formula": [
				"Expansion of f(x, x^5) / phi(-x^2) in powers of x where phi(), f(, ) are Ramanujan theta functions.",
				"Expansion of q^(-1/3) * eta(q^3) * eta(q^12) / (eta(q) * eta(q^6)) in powers of q.",
				"Euler transform of period 12 sequence [ 1, 1, 0, 1, 1, 1, 1, 1, 0, 1, 1, 0, ...].",
				"G.f.: Sum_{k\u003e=0} x^(k*(k+1)) * (-x^2, x^2)_k / (x, x)_{2*k+1}.",
				"a(n) ~ Pi * BesselI(1, Pi*sqrt(3*n+1) / sqrt(6)) / (4*sqrt(3*n+1)) ~ exp(sqrt(n/2)*Pi) / (2^(9/4)*sqrt(3)*n^(3/4)) * (1 + (Pi/6 - 3/(4*Pi))/sqrt(2*n) + (Pi^2/144 - 15/(64*Pi^2) - 5/16)/n). - _Vaclav Kotesovec_, Apr 18 2016, extended Jan 10 2017"
			],
			"example": [
				"G.f. = 1 + x + 2*x^2 + 2*x^3 + 4*x^4 + 5*x^5 + 8*x^6 + 10*x^7 + 15*x^8 + ...",
				"G.f. = q + q^4 + 2*q^7 + 2*q^10 + 4*q^13 + 5*q^16 + 8*q^19 + 10*q^22 + ..."
			],
			"mathematica": [
				"nmax = 50; CoefficientList[Series[Product[(1-x^(3*k)) * (1+x^(6*k)) / (1-x^k), {k, 1, nmax}], {x, 0, nmax}], x] (* _Vaclav Kotesovec_, Apr 18 2016 *)"
			],
			"program": [
				"(PARI) {a(n) = my(A); if( n\u003c0, 0, A = x * O(x^n); polcoeff( eta(x^3 + A) * eta(x^12 + A) / (eta(x + A) * eta(x^6 + A)), n))};"
			],
			"keyword": "nonn",
			"offset": "0,3",
			"author": "_Michael Somos_, Apr 10 2016",
			"references": 1,
			"revision": 18,
			"time": "2021-03-12T22:24:48-05:00",
			"created": "2016-04-10T19:01:55-04:00"
		}
	]
}