{
	"greeting": "Greetings from The On-Line Encyclopedia of Integer Sequences! http://oeis.org/",
	"query": "id:A271354",
	"count": 1,
	"start": 0,
	"results": [
		{
			"number": 271354,
			"data": "6,10,15,16,24,26,39,40,42,63,65,68,102,104,105,110,165,168,170,178,267,272,273,275,288,432,440,442,445,466,699,712,714,715,720,754,1131,1152,1155,1157,1165,1220,1830,1864,1869,1870,1872,1885,1974,2961,3016",
			"name": "Products of two distinct Fibonacci numbers, both greater than 1.",
			"comment": [
				"For n \u003e 5, the numbers F(i)*F(j) satisfying F(n-1) \u003c= F(i)*F(j) \u003c= F(n) also satisfy F(n-1) \u003c F(i)*F(j) \u003c F(n).  They are the numbers for which i + j = n + 1, where 2 \u003c i \u003c j, so that the number of such F(i)*F(j) is floor(n/2) - 2.  The least is 3*F(n-3) and the greatest is 2*F(n-2)."
			],
			"link": [
				"Clark Kimberling, \u003ca href=\"/A271354/b271354.txt\"\u003eTable of n, a(n) for n = 1..1000\u003c/a\u003e",
				"Clark Kimberling, \u003ca href=\"http://www.fq.math.ca/Papers1/42-1/quartkimberling01_2004.pdf\"\u003eOrderings of products of Fibonacci numbers\u003c/a\u003e, Fibonacci Quarterly 42:1 (2004), pp. 28-35."
			],
			"formula": [
				"A004526(n) = number of numbers a(k) between F(n+3) and F(n+4), where F = A000045 (Fibonacci numbers)."
			],
			"example": [
				"2*3 = 6, 2*5 = 10, 3*5 = 15, 2*8 = 16."
			],
			"mathematica": [
				"z = 200; f[n_] := Fibonacci[n];",
				"Take[Sort[Flatten[Table[f[m] f[n], {n, 3, z}, {m, 3, n - 1}]]], 100]"
			],
			"program": [
				"(PARI) list(lim)=my(v=List,F=vector(A130233(lim\\2),k,fibonacci(k)),t); for(i=2,#F, for(j=1,i-1, t=F[i]*F[j]; if(t\u003elim,break); listput(v,t))); Set(v) \\\\ _Charles R Greathouse IV_, Oct 07 2016"
			],
			"xref": [
				"Cf. A000045, A004526, A094565, A271356 (difference sequence), subsequence of A049997."
			],
			"keyword": "nonn,easy",
			"offset": "1,1",
			"author": "_Clark Kimberling_, May 02 2016",
			"references": 10,
			"revision": 10,
			"time": "2016-10-07T12:15:12-04:00",
			"created": "2016-05-08T00:42:58-04:00"
		}
	]
}