{
	"greeting": "Greetings from The On-Line Encyclopedia of Integer Sequences! http://oeis.org/",
	"query": "id:A271633",
	"count": 1,
	"start": 0,
	"results": [
		{
			"number": 271633,
			"data": "21,350,366,532,702,1072,5264,7128,23604,24102,30222,30636,32142,32274,34350,47338,70722,78530,113550,137214,197316,235624,292206,357490,367704,398346,406596,453096,453264,464820,479880,485460,504966,509124,512430,519870,539220",
			"name": "Numbers k such that sigma(phi(k)) - phi(k) = phi(sigma(k)), where phi(k) is the Euler totient function of k and sigma(k) is the sum of the divisors of k.",
			"link": [
				"Amiram Eldar, \u003ca href=\"/A271633/b271633.txt\"\u003eTable of n, a(n) for n = 1..215\u003c/a\u003e (terms below 10^9)"
			],
			"example": [
				"sigma(phi(21)) - phi(21) = 28 - 12 = 16 = phi(sigma(21))."
			],
			"maple": [
				"with(numtheory): P:= proc(q) local n; for n from 1 to q do",
				"if sigma(phi(n))-phi(n)=phi(sigma(n)) then print(n); fi;",
				"od; end: P(10^6);"
			],
			"mathematica": [
				"Select[Range[10^6], DivisorSigma[1, #] - # \u0026@ EulerPhi@ # == EulerPhi@ DivisorSigma[1, #] \u0026] (* _Michael De Vlieger_, Apr 21 2016 *)"
			],
			"program": [
				"(PARI) isok(k) = my(x=eulerphi(k)); sigma(x) - x == eulerphi(sigma(k)); \\\\ _Michel Marcus_, Jul 13 2019"
			],
			"xref": [
				"Cf. A000010, A000203, A001065, A033632, A062401."
			],
			"keyword": "nonn",
			"offset": "1,1",
			"author": "_Paolo P. Lava_, Apr 19 2016",
			"references": 1,
			"revision": 17,
			"time": "2019-07-13T12:15:30-04:00",
			"created": "2016-04-22T23:47:00-04:00"
		}
	]
}