{
	"greeting": "Greetings from The On-Line Encyclopedia of Integer Sequences! http://oeis.org/",
	"query": "id:A271677",
	"count": 1,
	"start": 0,
	"results": [
		{
			"number": 271677,
			"data": "0,2,4,132,3440,358792,71771952,39547904272,51276433391328,167894702548149600,1348410361035047416704",
			"name": "Number of ways to move elements of an nXnXn triangular array to themselves or a neighbor, with no more than 1-1 elements moved to themselves.",
			"comment": [
				"Column 1 of A271684."
			],
			"example": [
				"Some solutions for n=4",
				".....5........6........6........5........5........5........6........6",
				"....5.1......6.1......6.1......2.6......4.1......6.1......2.6......2.3",
				"...5.2.5....2.6.6....5.1.6....5.2.6....6.4.3....5.2.6....5.1.6....5.6.6",
				"..4.2.4.1..2.3.3.1..4.1.2.3..2.2.3.3..2.3.4.3..4.1.2.3..4.1.1.3..2.2.3.1",
				"Element moves: 0=itself 1=nw 2=ne 3=w 4=e 5=sw 6=se, reciprocals total 7"
			],
			"xref": [
				"Cf. A271684."
			],
			"keyword": "nonn",
			"offset": "1,2",
			"author": "_R. H. Hardin_, Apr 12 2016",
			"references": 0,
			"revision": 6,
			"time": "2016-04-12T09:03:04-04:00",
			"created": "2016-04-12T08:54:53-04:00"
		}
	]
}