{
	"greeting": "Greetings from The On-Line Encyclopedia of Integer Sequences! http://oeis.org/",
	"query": "id:A271741",
	"count": 1,
	"start": 0,
	"results": [
		{
			"number": 271741,
			"data": "1,8,731,982648,16305532683,3722056510716702,11931439930135002524767",
			"name": "Number of ways to dissect a hexagon with side length n exactly into two identical parts in a triangular lattice.",
			"link": [
				"G. P. Jelliss, \u003ca href=\"http://www.mayhematics.com/j/gpj22.htm#(3)\"\u003eDissected Hexagons\u003c/a\u003e, The Games and Puzzles Journal, Issue 22, January-April 2002."
			],
			"xref": [
				"Cf. A268606, A271857, A113900."
			],
			"keyword": "nonn,more",
			"offset": "1,2",
			"author": "_Andrew Howroyd_, Apr 15 2016",
			"references": 4,
			"revision": 26,
			"time": "2016-04-17T09:31:17-04:00",
			"created": "2016-04-17T09:31:17-04:00"
		}
	]
}