{
	"greeting": "Greetings from The On-Line Encyclopedia of Integer Sequences! http://oeis.org/",
	"query": "id:A271389",
	"count": 1,
	"start": 0,
	"results": [
		{
			"number": 271389,
			"data": "0,1,6,22,66,179,460,1148,2820,6869,16658,40306,97414,235303,568216,1371960,3312392,7997033,19306782,46610958,112529098,271669595,655868772,1583407668,3822684684,9228777661,22280240682,53789259754,129858760974,313506782543,756872326960",
			"name": "a(n) = 2*a(n-1) + a(n-2) + n^2 for n \u003e 1, with a(0) = 0, a(1) = 1.",
			"link": [
				"\u003ca href=\"/index/Rec#order_05\"\u003eIndex entries for linear recurrences with constant coefficients\u003c/a\u003e, signature (5,-8,4,1,-1)."
			],
			"formula": [
				"G.f.: x*(1 + x)/((1 - x)^3*(1 - 2*x - x^2)).",
				"E.g.f.: (1/4)*exp(x)*(-2*(x*(x + 5) + 5) + 7*sqrt(2)*sinh(sqrt(2)*x) + 10*cosh(sqrt(2)*x)).",
				"a(n) = 5*a(n-1) - 8*a(n-2) + 4*a(n-3) + a(n-4) - a(n-5).",
				"a(n) = (1/8)*(-4*(n*(n + 4) + 5) + (10 - 7*sqrt(2))*(1 - sqrt(2))^n + (10 + 7*sqrt(2))*(1 + sqrt(2))^n).",
				"Lim_{n-\u003einfinity} a(n + 1)/a(n) = 1 + sqrt(2) = A014176.",
				"a(n) = (A000129(n+3) - A002522(n+2))/2. - _R. J. Mathar_, Jun 07 2016"
			],
			"mathematica": [
				"RecurrenceTable[{a[0] == 0, a[1] == 1, a[n] == 2 a[n - 1] + a[n - 2] + n^2}, a, {n, 31}]",
				"LinearRecurrence[{5, -8, 4, 1, -1}, {0, 1, 6, 22, 66}, 32]"
			],
			"program": [
				"(PARI) x='x+O('x^99); concat(0, Vec(x*(1+x)/((1-x)^3*(1-2*x-x^2)))) \\\\ _Altug Alkan_, Apr 06 2016"
			],
			"xref": [
				"Cf. A000129, A002522, A014176, A053808."
			],
			"keyword": "nonn,easy",
			"offset": "0,3",
			"author": "_Ilya Gutkovskiy_, Apr 06 2016",
			"references": 0,
			"revision": 14,
			"time": "2021-05-16T01:48:59-04:00",
			"created": "2016-04-09T16:40:33-04:00"
		}
	]
}