{
	"greeting": "Greetings from The On-Line Encyclopedia of Integer Sequences! http://oeis.org/",
	"query": "id:A271438",
	"count": 1,
	"start": 0,
	"results": [
		{
			"number": 271438,
			"data": "1,17,451",
			"name": "Numbers n such that the number formed by concatenating in ascending order the first n multidigit palindromic primes is prime.",
			"link": [
				"G. L. Honaker, Jr. and C. Caldwell, \u003ca href=\"https://primes.utm.edu/curios/page.php?number_id=3700\"\u003e11101...10301 (52-digits)\u003c/a\u003e, Prime Curios!."
			],
			"example": [
				"Concatenating in ascending order the 17 smallest palindromic primes with at least two digits gives 1110113115118119131335337338372775778779791992910301, which is prime, so 17 is a term of the sequence."
			],
			"program": [
				"(PARI) nextpalprime(n) = my(p=nextprime(n)); while(p!=eval(concat(Vecrev(Str(p)))), p=nextprime(p+1)); p",
				"terms(n) = my(i=0, k=1, s=\"\", p=10); while(i \u003c n, p=nextpalprime(p+1); s=Str(s, p); if(ispseudoprime(eval(s)), print1(k, \", \"); i++); k++)",
				"terms(3) \\\\ print initial three terms",
				"(Python)",
				"from sympy import isprime, nextprime",
				"def ispal(n): strn = str(n); return strn == strn[::-1]",
				"def agen():",
				"  np, p, pstr = 1, 11, \"11\"",
				"  while True:",
				"    if isprime(int(pstr)): yield np",
				"    p = nextprime(p)",
				"    while not ispal(p): p = nextprime(p)",
				"    np += 1",
				"    pstr += str(p)",
				"for an in agen(): print(an, end=\", \") # _Michael S. Branicky_, Jan 17 2021"
			],
			"xref": [
				"Cf. A002385."
			],
			"keyword": "nonn,base,more,bref",
			"offset": "1,2",
			"author": "_Felix Fröhlich_, Apr 07 2016",
			"references": 0,
			"revision": 16,
			"time": "2021-01-17T11:57:28-05:00",
			"created": "2016-04-10T09:57:44-04:00"
		}
	]
}