{
	"greeting": "Greetings from The On-Line Encyclopedia of Integer Sequences! http://oeis.org/",
	"query": "id:A271381",
	"count": 1,
	"start": 0,
	"results": [
		{
			"number": 271381,
			"data": "1,2,2,1,1,2,2,1,2,4,3,1,1,3,2,1,3,5,3,1,2,3,2,0,2,5,3,3,3,4,1,2,4,5,3,2,5,4,3,2,4,6,2,3,4,5,2,2,4,3,2,2,5,6,4,3,2,3,2,2,4,4,3,3,5,7,4,5,5,6,4,2,6,9,6,2,4,5,1,3,8",
			"name": "Number of ordered ways to write n as u^2 + v^2 + x^3 + y^3, where u, v, x, y are nonnegative integers with 2 | u*v, u \u003c= v and x \u003c= y.",
			"comment": [
				"Conjecture: (i) a(n) \u003e 0 except for n = 23, and a(n) = 1 only for n = 0, 3, 4, 7, 11, 12, 15, 19, 23, 30, 78, 203, 219.",
				"(ii) Any natural number can be written as the sum of two squares and three fourth powers."
			],
			"link": [
				"Zhi-Wei Sun, \u003ca href=\"/A271381/b271381.txt\"\u003eTable of n, a(n) for n = 0..10000\u003c/a\u003e"
			],
			"example": [
				"a(3) = 1 since 3 = 0^2 + 1^2 + 1^3 + 1^3 with 0 even.",
				"a(4) = 1 since 4 = 0^2 + 2^2 + 0^3 + 0^3 with 0 and 2 even.",
				"a(7) = 1 since 7 = 1^2 + 2^2 + 1^3 + 1^3 with 2 even.",
				"a(11) = 1 since 11 = 0^2 + 3^2 + 1^3 + 1^3 with 0 even.",
				"a(12) = 1 since 12 = 0^2 + 2^2 + 0^3 + 2^3 with 0 and 2 even.",
				"a(15) = 1 since 15 = 2^2 + 3^2 + 1^3 + 1^3 with 2 even.",
				"a(19) = 1 since 19 = 1^2 + 4^2 + 1^3 + 1^3 with 4 even.",
				"a(30) = 1 since 30 = 2^2 + 5^2 + 0^3 + 1^3 with 2 even.",
				"a(78) = 1 since 78 = 2^2 + 3^2 + 1^3 + 4^3 with 2 even.",
				"a(203) = 1 since 203 = 7^2 + 10^2 + 3^3 + 3^3 with 10 even.",
				"a(219) = 1 since 219 = 8^2 + 8^2 + 3^3 + 4^3 with 8 even."
			],
			"mathematica": [
				"SQ[n_]:=SQ[n]=IntegerQ[Sqrt[n]]",
				"Do[r=0;Do[If[SQ[n-x^3-y^3-u^2]\u0026\u0026(Mod[u*Sqrt[n-x^3-y^3-u^2],2]==0),r=r+1],{x,0,(n/2)^(1/3)},{y,x,(n-x^3)^(1/3)},{u,0,((n-x^3-y^3)/2)^(1/2)}];Print[n,\" \",r];Continue,{n,0,80}]"
			],
			"xref": [
				"Cf. A000290, A000578, A000583, A262813, A262824, A262827, A262857, A262880, A270488, A270559, A270969, A271325."
			],
			"keyword": "nonn",
			"offset": "0,2",
			"author": "_Zhi-Wei Sun_, Apr 06 2016",
			"references": 1,
			"revision": 13,
			"time": "2016-04-06T04:11:51-04:00",
			"created": "2016-04-06T04:11:51-04:00"
		}
	]
}