{
	"greeting": "Greetings from The On-Line Encyclopedia of Integer Sequences! http://oeis.org/",
	"query": "id:A271788",
	"count": 1,
	"start": 0,
	"results": [
		{
			"number": 271788,
			"data": "0,1,3,7,16,39,105,314,1035,3723,14494,60670,271544,1293147,6523495,34724247,194357190,1140402612,6995760364,44760085240,298054873358,2061644525813,14787185811993,109804829195145,842928183558160,6680572760715182,54595535222727960",
			"name": "Number of set partitions of [n] having exactly one pair (m,m+1) such that m is in some block b and m+1 is in block b+1.",
			"link": [
				"Alois P. Heinz, \u003ca href=\"/A271788/b271788.txt\"\u003eTable of n, a(n) for n = 1..500\u003c/a\u003e",
				"Wikipedia, \u003ca href=\"https://en.wikipedia.org/wiki/Partition_of_a_set\"\u003ePartition of a set\u003c/a\u003e"
			],
			"example": [
				"a(2) = 1: 1|2.",
				"a(3) = 3: 12|3, 13|2, 1|23.",
				"a(4) = 7: 123|4, 124|3, 12|34, 134|2, 13|2|4, 14|23, 1|234.",
				"a(5) = 16: 1234|5, 1235|4, 123|45, 1245|3, 124|3|5, 125|34, 12|345, 1345|2, 134|2|5, 135|2|4, 13|25|4, 13|2|45, 145|23, 14|23|5, 15|234, 1|2345."
			],
			"maple": [
				"b:= proc(n, i, m, k) option remember; `if`(n=0, `if`(k=0, 1, 0),",
				"       add(`if`(j=i+1 and k=0, 0, b(n-1, j, max(m, j), k-",
				"      `if`(j=i+1, 1, 0))), j=1..m+1))",
				"    end:",
				"a:= n-\u003e b(n, 1, 0, 1):",
				"seq(a(n), n=1..30);"
			],
			"mathematica": [
				"b[n_, i_, m_, k_] := b[n, i, m, k] = If[n == 0, If[k == 0, 1, 0], Sum[If[j == i + 1 \u0026\u0026 k == 0, 0, b[n - 1, j, Max[m, j], k - If[j == i + 1, 1, 0]]], {j, 1, m + 1}]];",
				"a[n_] :=  b[n, 1, 0, 1];",
				"Table[a[n], {n, 1, 30}] (* _Jean-François Alcover_, May 27 2018, translated from Maple *)"
			],
			"xref": [
				"Column k=1 of A185982."
			],
			"keyword": "nonn",
			"offset": "1,3",
			"author": "_Alois P. Heinz_, Apr 14 2016",
			"references": 2,
			"revision": 13,
			"time": "2018-05-27T07:00:54-04:00",
			"created": "2016-04-14T10:31:00-04:00"
		}
	]
}