{
	"greeting": "Greetings from The On-Line Encyclopedia of Integer Sequences! http://oeis.org/",
	"query": "id:A271385",
	"count": 1,
	"start": 0,
	"results": [
		{
			"number": 271385,
			"data": "1,1,4,27,1024,84375,47775744,69486440625,801543976648704,26920470805806965625,8015439766487040000000000,7680724499239438722449399746875,71466466094944065310414602240000000000,2326300251412874049290421829657963142035959375",
			"name": "a(n) = Product_{k=0..floor((n - 1)/2)} (n - 2*k)^(n - 2*k).",
			"comment": [
				"Double hyperfactorial (by analogy with the double factorial)."
			],
			"link": [
				"Ilya Gutkovskiy, \u003ca href=\"/A271385/b271385.txt\"\u003eTable of n, a(n) for n = 0..33\u003c/a\u003e",
				"Ilya Gutkovskiy, \u003ca href=\"/A271385/a271385.pdf\"\u003eDouble hyperfactorial\u003c/a\u003e",
				"Eric Weisstein, \u003ca href=\"http://mathworld.wolfram.com/DoubleFactorial.html\"\u003eDouble Factorial\u003c/a\u003e",
				"Eric Weisstein's World of Mathematics, \u003ca href=\"http://mathworld.wolfram.com/Hyperfactorial.html\"\u003eHyperfactorial\u003c/a\u003e",
				"\u003ca href=\"/index/Fa#factorial\"\u003eIndex entries for sequences related to factorial numbers\u003c/a\u003e"
			],
			"formula": [
				"a(n) = n^n*(n - 2)^(n - 2)*...*5^5*3^3*1^1, for n\u003e0 odd; a(n) = n^n*(n - 2)^(n - 2)*...*6^6*4^4*2^2, for n\u003e0 even; a(n) = 1, for n = 0.",
				"a(n) = n^n*a(n-2), a(0)=1, a(1)=1.",
				"a(n) = (1/a(n-1))*sqrt(a(2n)/2^(n*(n+1))).",
				"a(n)*a(n-1) = A002109(n).",
				"a(n)*a(n-1)*sqrt(a(2n))/((n!)^n*sqrt(2^(n*(n+1)))) = A168510(n)."
			],
			"example": [
				"a(0) = 1;",
				"a(1) = 1^1 = 1;",
				"a(2) = 2^2 = 4;",
				"a(3) = 1^1*3^3 = 27;",
				"a(4) = 2^2*4^4 = 1024;",
				"a(5) = 1^1*3^3*5^5 = 84375;",
				"a(6) = 2^2*4^4*6^6 = 47775744;",
				"a(7) = 1^1*3^3*5^5*7^7 = 69486440625;",
				"a(8) = 2^2*4^4*6^6*8^8 = 801543976648704, etc."
			],
			"mathematica": [
				"Table[Product[(n - 2 k)^(n - 2 k), {k, 0, Floor[(n - 1)/2]}], {n, 0, 13}]",
				"RecurrenceTable[{a[0] == 1, a[1] == 1, a[n] == n^n a[n - 2]}, a, {n, 13}]"
			],
			"program": [
				"(PARI) a(n) = prod(k=0, (n-1)\\2, (n-2*k)^(n-2*k)); \\\\ _Michel Marcus_, Apr 07 2016"
			],
			"xref": [
				"Cf. A002109, A006882, A168510."
			],
			"keyword": "nonn,easy",
			"offset": "0,3",
			"author": "_Ilya Gutkovskiy_, Apr 06 2016",
			"references": 1,
			"revision": 9,
			"time": "2016-04-07T02:12:01-04:00",
			"created": "2016-04-07T02:12:01-04:00"
		}
	]
}