{
	"greeting": "Greetings from The On-Line Encyclopedia of Integer Sequences! http://oeis.org/",
	"query": "id:A271403",
	"count": 1,
	"start": 0,
	"results": [
		{
			"number": 271403,
			"data": "0,0,15,10368,50382432,1107382932648,105922911577754160,45366137571771857371392,88764335084725137561699861768,803430619742909919221237883731275872",
			"name": "Number of nXnXn triangular 0..4 arrays with new values introduced in sequential zero-upwards order and exactly one inverted 2x2x2 triangle having values all equal.",
			"comment": [
				"Column 4 of A271407."
			],
			"link": [
				"R. H. Hardin, \u003ca href=\"/A271403/b271403.txt\"\u003eTable of n, a(n) for n = 1..11\u003c/a\u003e"
			],
			"example": [
				"Some solutions for n=4",
				".....0........0........0........0........0........0........0........0",
				"....1.1......1.0......0.1......1.1......1.0......1.2......1.0......0.1",
				"...1.1.0....2.3.3....0.2.2....2.1.3....1.1.1....1.1.3....2.0.0....2.2.3",
				"..2.0.3.2..4.0.3.2..2.3.2.3..3.2.0.0..0.1.2.1..1.1.4.2..2.3.0.3..4.2.4.3"
			],
			"xref": [
				"Cf. A271407."
			],
			"keyword": "nonn",
			"offset": "1,3",
			"author": "_R. H. Hardin_, Apr 06 2016",
			"references": 1,
			"revision": 4,
			"time": "2016-04-06T09:57:47-04:00",
			"created": "2016-04-06T09:57:47-04:00"
		}
	]
}