{
	"greeting": "Greetings from The On-Line Encyclopedia of Integer Sequences! http://oeis.org/",
	"query": "id:A271761",
	"count": 1,
	"start": 0,
	"results": [
		{
			"number": 271761,
			"data": "0,1,1026,63149,1475239,23407652,309878787,3737612685,42937377908,481614364251,5353760622719,59537802756962,666437711111693,7539316084416469,86438641415398090,1006237980519894441,11908561958667363035,143399541797225954572",
			"name": "Number of set partitions of [n+10] such that n is the largest element of the last block.",
			"link": [
				"Alois P. Heinz, \u003ca href=\"/A271761/b271761.txt\"\u003eTable of n, a(n) for n = 1..567\u003c/a\u003e",
				"Wikipedia, \u003ca href=\"https://en.wikipedia.org/wiki/Partition_of_a_set\"\u003ePartition of a set\u003c/a\u003e"
			],
			"formula": [
				"a(n) = A271466(n+10,n)."
			],
			"xref": [
				"A diagonal of A271466."
			],
			"keyword": "nonn",
			"offset": "1,3",
			"author": "_Alois P. Heinz_, Apr 13 2016",
			"references": 2,
			"revision": 4,
			"time": "2016-04-13T15:36:18-04:00",
			"created": "2016-04-13T15:36:18-04:00"
		}
	]
}