{
	"greeting": "Greetings from The On-Line Encyclopedia of Integer Sequences! http://oeis.org/",
	"query": "id:A271548",
	"count": 1,
	"start": 0,
	"results": [
		{
			"number": 271548,
			"data": "0,1,2,3,9,11,19,27,31,36,42,69,86,98,152,205,533,587,1302,1506,1521,1573,1807,3906,6461,9081,11766,12595,15697,17154,30507,36074,52667,61367,122377,169759",
			"name": "Numbers k such that 4*10^k + 19 is prime.",
			"comment": [
				"For k\u003e1, numbers such that the digit 4 followed by k-2 occurrences of the digit 0 followed by the digits 19 is prime (see Example section).",
				"a(37) \u003e 2*10^5."
			],
			"link": [
				"Makoto Kamada, \u003ca href=\"https://stdkmd.net/nrr\"\u003eFactorization of near-repdigit-related numbers\u003c/a\u003e.",
				"Makoto Kamada, \u003ca href=\"https://stdkmd.net/nrr/prime/primedifficulty.txt\"\u003eSearch for 40w19.\u003c/a\u003e"
			],
			"example": [
				"3 is in this sequence because 4*10^3 + 19 = 4019 is prime.",
				"Initial terms and primes associated:",
				"a(1) = 0, 23;",
				"a(2) = 1, 59;",
				"a(3) = 2, 419;",
				"a(4) = 3, 4019;",
				"a(5) = 9, 4000000019, etc."
			],
			"mathematica": [
				"Select[Range[0, 100000], PrimeQ[4*10^# + 19] \u0026]"
			],
			"program": [
				"(PARI) is(n)=ispseudoprime(4*10^n + 19) \\\\ _Charles R Greathouse IV_, Jun 13 2017"
			],
			"xref": [
				"Cf. A056654, A268448, A269303, A270339, A270613, A270831, A270890, A270929, A271269."
			],
			"keyword": "nonn,more",
			"offset": "1,3",
			"author": "_Robert Price_, Apr 09 2016",
			"ext": [
				"a(35)-a(36) from _Robert Price_, Oct 22 2018"
			],
			"references": 0,
			"revision": 10,
			"time": "2019-01-17T13:44:08-05:00",
			"created": "2016-04-10T10:02:48-04:00"
		}
	]
}