{
	"greeting": "Greetings from The On-Line Encyclopedia of Integer Sequences! http://oeis.org/",
	"query": "id:A271717",
	"count": 1,
	"start": 0,
	"results": [
		{
			"number": 271717,
			"data": "9,11664,36864,38134,345744,1750329,4782969,20820969,47775744,65804544,95004009,150994944,448084224,733055625,1093955625,1416167424",
			"name": "Integers n such that both n and n^3-1 are the sum of two positive cubes (see A003325).",
			"comment": [
				"Values of a^3 + b^3 such that (a^3 + b^3)^3 - 1 is of the form x^3 + y^3 where a, b, x, y \u003e 0.",
				"38134 = 2*23*829 is the first term that is nonsquare. What are the next square terms of this sequence?",
				"n is a member of A007412 and n^3 is a member of A003072, obviously."
			],
			"example": [
				"9 is a term because 9 = 1^3 + 2^3 and 9^3 - 1 = 6^3 + 8^3."
			],
			"program": [
				"(PARI) isA003325(n) = for(k=1, sqrtnint(n\\2, 3), ispower(n-k^3, 3) \u0026\u0026 return(1));",
				"for(n=1, 1e7, if(isA003325(n) \u0026\u0026 isA003325(n^3-1), print1(n, \", \")));"
			],
			"xref": [
				"Cf. A003325, A050787, A068601."
			],
			"keyword": "nonn,more",
			"offset": "1,1",
			"author": "_Altug Alkan_, Apr 12 2016",
			"ext": [
				"a(8)-a(16) from _Chai Wah Wu_, Apr 17 2016"
			],
			"references": 0,
			"revision": 25,
			"time": "2016-04-18T06:46:29-04:00",
			"created": "2016-04-14T02:56:45-04:00"
		}
	]
}