{
	"greeting": "Greetings from The On-Line Encyclopedia of Integer Sequences! http://oeis.org/",
	"query": "id:A271583",
	"count": 1,
	"start": 0,
	"results": [
		{
			"number": 271583,
			"data": "509020,736300,860932,1368340,2431780",
			"name": "Magic sums of 4 X 4 magic squares composed of squares of primes.",
			"link": [
				"The Prime Puzzles and Problems Connection, \u003ca href=\"http://www.primepuzzles.net/puzzles/puzz_288.htm\"\u003ePuzzle 288\u003c/a\u003e",
				"\u003ca href=\"/index/Mag#magic\"\u003eIndex entries for sequences related to magic squares\u003c/a\u003e"
			],
			"example": [
				"Examples of 4 X 4 magic squares composed of squares of primes.",
				".",
				"|-----|-----|-----|-----|",
				"| 29^2| 71^2|277^2|653^2|",
				"|-----|-----|-----|-----|",
				"|191^2|647^2|211^2| 97^2|",
				"|-----|-----|-----|-----|",
				"|673^2|139^2|163^2|101^2|",
				"|-----|-----|-----|-----|",
				"|137^2|257^2|601^2|251^2|",
				"|-----|-----|-----|-----|",
				"The magic constant is 509020 = a(1).",
				".",
				"|-----|-----|-----|-----|",
				"|179^2|107^2|383^2|739^2|",
				"|-----|-----|-----|-----|",
				"|353^2|691^2|331^2|157^2|",
				"|-----|-----|-----|-----|",
				"|761^2|283^2|263^2| 89^2|",
				"|-----|-----|-----|-----|",
				"| 23^2|409^2|641^2|397^2|",
				"|-----|-----|-----|-----|",
				"The magic constant is 736300 = a(2)."
			],
			"xref": [
				"Cf. A271580. Subsequence of A271582."
			],
			"keyword": "nonn,more",
			"offset": "1,1",
			"author": "_Arkadiusz Wesolowski_, Apr 10 2016",
			"references": 1,
			"revision": 7,
			"time": "2016-04-14T10:05:49-04:00",
			"created": "2016-04-14T10:05:49-04:00"
		}
	]
}