{
	"greeting": "Greetings from The On-Line Encyclopedia of Integer Sequences! http://oeis.org/",
	"query": "id:A272383",
	"count": 1,
	"start": 0,
	"results": [
		{
			"number": 272383,
			"data": "78,1014,2418,3354,7566,8502,10842,11622,12246,12714,13026,15054,15366,15522,16458,17394,23946,26286,27222,27534,29562,29874,30342,31434,31902,33774,34242,35646,36114,40794,42198,43602,44538,47814,48126,48282,49218,50154,52494,55302,57174,57642,59046,59982",
			"name": "Numbers n such that Bernoulli number B_{n} has denominator 3318.",
			"comment": [
				"3318 = 2 * 3 * 7 * 79.",
				"All terms are multiples of a(1) = 78.",
				"For these numbers numerator(B_{n}) mod denominator(B_{n}) = 37."
			],
			"link": [
				"Chai Wah Wu, \u003ca href=\"/A272383/b272383.txt\"\u003eTable of n, a(n) for n = 1..10000\u003c/a\u003e"
			],
			"example": [
				"Bernoulli B_{78} is 414846365575400828295179035549542073492199375372400483487/3318, hence 78 is in the sequence."
			],
			"maple": [
				"with(numtheory): P:=proc(q,h) local n;  for n from 2 by 2 to q do",
				"if denom(bernoulli(n))=h then print(n); fi; od; end: P(10^6,3318);"
			],
			"mathematica": [
				"Select[78 Range@ 800, Denominator@ BernoulliB@ # == 3318 \u0026] (* _Michael De Vlieger_, Apr 28 2016 *)"
			],
			"program": [
				"(PARI) lista(nn) = for(n=1, nn, if(denominator(bernfrac(n)) == 3318, print1(n, \", \"))); \\\\ _Altug Alkan_, Apr 28 2016",
				"(Python)",
				"from sympy import divisors, isprime",
				"A272383_list = []",
				"for i in range(78, 10**6, 78):",
				"    for d in divisors(i):",
				"        if d not in (1,2,6,78) and isprime(d+1):",
				"            break",
				"    else:",
				"        A272383_list.append(i) # _Chai Wah Wu_, May 02 2016"
			],
			"xref": [
				"Cf. A045979, A051222, A051225, A051226, A051227, A051228, A051229, A051230, A119456, A119480, A249134, A255684, A271634, A271635, A272138, A272139, A272140, A272183, A272184, A272185, A272186."
			],
			"keyword": "nonn,easy",
			"offset": "1,1",
			"author": "_Paolo P. Lava_, Apr 28 2016",
			"ext": [
				"a(9)-a(22) from _Altug Alkan_, Apr 28 2016",
				"More terms from _Michael De Vlieger_, Apr 28 2016"
			],
			"references": 1,
			"revision": 16,
			"time": "2016-05-02T17:38:13-04:00",
			"created": "2016-05-02T11:55:57-04:00"
		}
	]
}