{
	"greeting": "Greetings from The On-Line Encyclopedia of Integer Sequences! http://oeis.org/",
	"query": "id:A272778",
	"count": 1,
	"start": 0,
	"results": [
		{
			"number": 272778,
			"data": "48,1040,1196,2720,6080,19080,116644,252800,796172,1014800,2370352,2796800,2864000,12200288,13499120,13716716,15252992,21938672,33883520,43218800,62496048,70240000,98392832,129704960,199361792,318836720,548444160,1218624080",
			"name": "Numbers n such that  sigma(n) = concat(s,t) and  n = s * t, where sigma(n) is the sum of the divisors of n.",
			"link": [
				"Giovanni Resta, \u003ca href=\"/A272778/b272778.txt\"\u003eTable of n, a(n) for n = 1..46\u003c/a\u003e (terms \u003c 2.5*10^11)"
			],
			"example": [
				"sigma(48) = 124 = concat(12,4) and 12 * 4 = 48;",
				"sigma(1196) = 2352 = concat(23,52) = and 23 * 52 = 1196."
			],
			"maple": [
				"with(numtheory): P:=proc(q) local a, b, c, i, n;",
				"for n from 1 to q do c:=sigma(n); for i from 1 to ilog10(c) do",
				"a:=trunc(c/10^i);  b:=c-a*10^i; if a*b=n then print(n); break;",
				"fi; od; od; end: P(10^9);"
			],
			"mathematica": [
				"Select[Range[3*10^5], Function[n, Total@ Boole@ Function[k, n == First@ # Last@ # \u0026 /@ Map[FromDigits /@ TakeDrop[IntegerDigits@ k, #] \u0026, Range[IntegerLength@ k - 1]]][DivisorSigma[1, n]] \u003e 0]] (* _Michael De Vlieger_, May 07 2016, Version 10.2 *)"
			],
			"xref": [
				"Cf. A000203, A272779."
			],
			"keyword": "nonn,base",
			"offset": "1,1",
			"author": "_Paolo P. Lava_, May 06 2016",
			"ext": [
				"a(11)-a(28) from _Giovanni Resta_, May 06 2016"
			],
			"references": 2,
			"revision": 14,
			"time": "2016-05-10T00:43:46-04:00",
			"created": "2016-05-10T00:43:46-04:00"
		}
	]
}