{
	"greeting": "Greetings from The On-Line Encyclopedia of Integer Sequences! http://oeis.org/",
	"query": "id:A272265",
	"count": 1,
	"start": 0,
	"results": [
		{
			"number": 272265,
			"data": "1,3,9,21,51,123,285,669,1569,3603,8343,19335,44193,101577,233697,532569,1218345,2789475,6343161,14464101,33004269,74923059,170440203,387945747,879473277,1997066751,4536975315,10273846185",
			"name": "Number of n-step tri-directional self-avoiding walks on the hexagonal lattice.",
			"comment": [
				"Only 3 directions are allowed, separated by 120 degrees.",
				"  o",
				"  x",
				"o   o"
			],
			"mathematica": [
				"mo={{2, 0},{-1, 1}, {-1, -1}}; a[0]=1;",
				"a[tg_, p_:{{0, 0}}] := Block[{e, mv = Complement[Last[p]+# \u0026 /@ mo, p]}, If[tg == 1, Length@mv, Sum[a[tg-1, Append[p, e]], {e, mv}]]];",
				"a /@ Range[0, 10]",
				"(* _Robert FERREOL_, Nov 28 2018; after the program of Giovanni Resta in A001411 *)"
			],
			"program": [
				"(Python)",
				"def add(L,x):",
				"... M=[y for y in L];M.append(x)",
				"... return(M)",
				"plus=lambda L,M : [x+y for x,y in zip(L,M)]",
				"mo=[[2,0],[-1,1],[-1, -1]]",
				"def a(n,P=[[0, 0]]):",
				"... if n==0: return(1)",
				"... mv1 = [plus(P[-1],x) for x in mo]",
				"... mv2=[x for x in mv1 if x not in P]",
				"... if n==1: return(len(mv2))",
				"... else: return(sum(a(n-1,add(P,x)) for x in mv2))",
				"[a(n) for n in range(11)]",
				"# _Robert FERREOL_, Nov 30 2018"
			],
			"xref": [
				"Cf. A001334."
			],
			"keyword": "nonn,walk",
			"offset": "0,2",
			"author": "_Francois Alcover_, May 05 2016",
			"references": 1,
			"revision": 35,
			"time": "2018-12-11T02:05:58-05:00",
			"created": "2016-05-07T15:48:37-04:00"
		}
	]
}