{
	"greeting": "Greetings from The On-Line Encyclopedia of Integer Sequences! http://oeis.org/",
	"query": "id:A272554",
	"count": 1,
	"start": 0,
	"results": [
		{
			"number": 272554,
			"data": "0,1,2,3,4,5,6,7,8,9,10,11,12,13,14,15,16,17,18,19,20,21,22,23,24,25,26,27,28,29,30,31,32,33,34,35,36,37,38,39,40,41,42,43,44,45,46,47,48,49,50,51,52,53,54,57,61,62,63,64,65,66,68,69,70,73,78",
			"name": "Nonnegative numbers n such that abs(1/(36)(n^6 - 126n^5 + 6217n^4 - 153066n^3 + 1987786n^2 - 13055316n + 34747236)) is prime.",
			"comment": [
				"55 is the smallest number not in this sequence."
			],
			"link": [
				"Robert Price, \u003ca href=\"/A272554/b272554.txt\"\u003eTable of n, a(n) for n = 1..2128\u003c/a\u003e",
				"Eric Weisstein's World of Mathematics, \u003ca href=\"http://mathworld.wolfram.com/Prime-GeneratingPolynomial.html\"\u003ePrime-Generating Polynomials\u003c/a\u003e"
			],
			"example": [
				"4 is in this sequence since abs(1/(36)(4^6 - 126*4^5 + 6217*4^4 - 153066*4^3 + 1987786*4^2 - 13055316*4 + 34747236)) = abs((4096 - 129024 + 1591552 - 9796224 + 31804576 - 5222126 + 34747236)/36) = 166693 is prime."
			],
			"mathematica": [
				"Select[Range[0, 100], PrimeQ[1/(36)(#^6 - 126#^5 + 6217#^4 - 153066#^3 + 1987786#^2 - 13055316# + 34747236)] \u0026]"
			],
			"xref": [
				"Cf. A050268, A050267, A005846, A007641, A007635, A048988, A050265, A050266.",
				"Cf. A271980, A272030, A272074, A272075, A272160, A271144, A272285, A272401, A272438, A272444, A272410, A272555."
			],
			"keyword": "nonn",
			"offset": "1,3",
			"author": "_Robert Price_, May 02 2016",
			"references": 3,
			"revision": 10,
			"time": "2016-11-08T20:07:11-05:00",
			"created": "2016-05-03T02:42:53-04:00"
		}
	]
}