{
	"greeting": "Greetings from The On-Line Encyclopedia of Integer Sequences! http://oeis.org/",
	"query": "id:A272042",
	"count": 1,
	"start": 0,
	"results": [
		{
			"number": 272042,
			"data": "4,11,21,31,47,61,69,87,99,113,127,141,161,171,179,209,219,241,259,275,289,307,315,357,361,377,399,419,433,449,459,491,497,535,549,567,589,603,627,645,663,685,695,721,729",
			"name": "a(n) = 2*prime(2n) - prime(n).",
			"formula": [
				"a(n) = 3n*log n + 3n*log log n - (3-log 2)*n + O(n log log n/log n). - _Charles R Greathouse IV_, Apr 18 2016",
				"a(n) = A072473(n) + A031215(n). - _R. J. Mathar_, Apr 20 2016"
			],
			"example": [
				"For n=1, 2*prime(2*1)-prime(1) = 2*3 - 2 = 4.",
				"For n=10, 2*prime(2*10)-prime(10) = 2*71 - 29 = 113."
			],
			"mathematica": [
				"Table[2*Prime[2 n] - Prime[n], {n, 1, 45}]"
			],
			"program": [
				"(PARI) a(n) = 2*prime(2*n) - prime(n) \\\\ _Charles R Greathouse IV_, Apr 18 2016"
			],
			"keyword": "nonn,easy",
			"offset": "1,1",
			"author": "_Andres Cicuttin_, Apr 18 2016",
			"references": 1,
			"revision": 13,
			"time": "2016-04-20T05:08:19-04:00",
			"created": "2016-04-18T16:19:04-04:00"
		}
	]
}