{
	"greeting": "Greetings from The On-Line Encyclopedia of Integer Sequences! http://oeis.org/",
	"query": "id:A272219",
	"count": 1,
	"start": 0,
	"results": [
		{
			"number": 272219,
			"data": "1,6,14,34,66,106,142,242,355,467,607,799,1023,1267,1523,1875,2255,2695,3167,3695,4235,4787,5375,6075,6791,7667,8579,9695,10743,11795,12871,14319,15752,17312,18812,20665,22501,24425,26233,28365,30549,32945,35169",
			"name": "Partial sums of the number of active (ON,black) cells in n-th stage of growth of two-dimensional cellular automaton defined by \"Rule 438\", based on the 5-celled von Neumann neighborhood.",
			"comment": [
				"Initialized with a single black (ON) cell at stage zero."
			],
			"reference": [
				"S. Wolfram, A New Kind of Science, Wolfram Media, 2002; p. 170."
			],
			"link": [
				"Robert Price, \u003ca href=\"/A272219/b272219.txt\"\u003eTable of n, a(n) for n = 0..128\u003c/a\u003e",
				"N. J. A. Sloane, \u003ca href=\"http://arxiv.org/abs/1503.01168\"\u003eOn the Number of ON Cells in Cellular Automata\u003c/a\u003e, arXiv:1503.01168 [math.CO], 2015",
				"Eric Weisstein's World of Mathematics, \u003ca href=\"http://mathworld.wolfram.com/ElementaryCellularAutomaton.html\"\u003eElementary Cellular Automaton\u003c/a\u003e",
				"S. Wolfram, \u003ca href=\"http://wolframscience.com/\"\u003eA New Kind of Science\u003c/a\u003e",
				"\u003ca href=\"/index/Ce#cell\"\u003eIndex entries for sequences related to cellular automata\u003c/a\u003e",
				"\u003ca href=\"https://oeis.org/wiki/Index_to_2D_5-Neighbor_Cellular_Automata\"\u003eIndex to 2D 5-Neighbor Cellular Automata\u003c/a\u003e",
				"\u003ca href=\"https://oeis.org/wiki/Index_to_Elementary_Cellular_Automata\"\u003eIndex to Elementary Cellular Automata\u003c/a\u003e"
			],
			"mathematica": [
				"CAStep[rule_,a_]:=Map[rule[[10-#]]\u0026,ListConvolve[{{0,2,0},{2,1,2},{0,2,0}},a,2],{2}];",
				"code=438; stages=128;",
				"rule=IntegerDigits[code,2,10];",
				"g=2*stages+1; (* Maximum size of grid *)",
				"a=PadLeft[{{1}},{g,g},0,Floor[{g,g}/2]]; (* Initial ON cell on grid *)",
				"ca=a;",
				"ca=Table[ca=CAStep[rule,ca],{n,1,stages+1}];",
				"PrependTo[ca,a];",
				"(* Trim full grid to reflect growth by one cell at each stage *)",
				"k=(Length[ca[[1]]]+1)/2;",
				"ca=Table[Table[Part[ca[[n]][[j]],Range[k+1-n,k-1+n]],{j,k+1-n,k-1+n}],{n,1,k}];",
				"on=Map[Function[Apply[Plus,Flatten[#1]]],ca] (* Count ON cells at each stage *)",
				"Table[Total[Part[on,Range[1,i]]],{i,1,Length[on]}] (* Sum at each stage *)"
			],
			"xref": [
				"Cf. A272217."
			],
			"keyword": "nonn,easy",
			"offset": "0,2",
			"author": "_Robert Price_, Apr 22 2016",
			"references": 1,
			"revision": 7,
			"time": "2016-04-23T10:38:43-04:00",
			"created": "2016-04-22T22:00:28-04:00"
		}
	]
}