{
	"greeting": "Greetings from The On-Line Encyclopedia of Integer Sequences! http://oeis.org/",
	"query": "id:A272370",
	"count": 1,
	"start": 0,
	"results": [
		{
			"number": 272370,
			"data": "0,2,5,9,14,20,27,35,44,54,65,77,90,104,119,135,152,170,189,209,230,252,275,299,324,350,377,405,434,464,495,527,559,591,623,655,687,719,751,783,815,847,879,911,943,975,1007,1039,1071,1103,1135,1167,1199,1231,1263,1295",
			"name": "Number of geometrically inscriptible regular polygons with fewer than 2^n + 1 sides.",
			"comment": [
				"a(n) is the number of terms of A003401, except its first two degenerate case terms, that are less than 2^n + 1."
			],
			"link": [
				"Jinyuan Wang, \u003ca href=\"/A272370/b272370.txt\"\u003eTable of n, a(n) for n = 1..10000\u003c/a\u003e",
				"Raymond Clare Archibald, \u003ca href=\"http://www.jstor.org/stable/2974245\"\u003eRemarks on Klein's \"Famous Problems of Elementary Geometry\"\u003c/a\u003e, The American Mathematical Monthly, Vol. 21, No. 8 (Oct., 1914), pp. 247-259.",
				"Leonard E. Dickson, \u003ca href=\"http://dx.doi.org/10.1090/S0002-9904-1894-00195-5\"\u003eOn the number of inscriptible regular polygons\u003c/a\u003e, Bull. Amer. Math. Soc. 3 (1894), 123-125.",
				"Wilfrid Keller, \u003ca href=\"http://www.prothsearch.com/fermat.html\"\u003ePrime factors k.2^n + 1 of Fermat numbers F_m\u003c/a\u003e"
			],
			"formula": [
				"a(n) = (n-1)*(n+2)/2 if n \u003c 32, otherwise 32*n-497 if n \u003c 2^33."
			],
			"example": [
				"For n=2, there are 2 such polygons, those with 3 and 4 sides, below 2^2+1 = 5."
			],
			"program": [
				"(PARI) a(n) = if(n \u003c 32, (n-1)*(n+2)/2, if(n \u003c 2^33, 32*n-497));",
				"(PARI) a(n) = {i = 2^n; j = 2*n - 2; k = 1; while(i \u003e A045544(k) \u0026\u0026 k \u003c 31, k++; j+=floor(log(i/A045544(k))/log(2))+1); j; } \\\\ _Jinyuan Wang_, Jul 29 2019"
			],
			"xref": [
				"Cf. A000051, A003401, A004169, A019434, A045544."
			],
			"keyword": "nonn",
			"offset": "1,2",
			"author": "_Michel Marcus_, Apr 28 2016",
			"references": 1,
			"revision": 23,
			"time": "2019-07-29T11:57:51-04:00",
			"created": "2016-04-28T21:16:56-04:00"
		}
	]
}