{
	"greeting": "Greetings from The On-Line Encyclopedia of Integer Sequences! http://oeis.org/",
	"query": "id:A272589",
	"count": 1,
	"start": 0,
	"results": [
		{
			"number": 272589,
			"data": "1,2,4,6,7,12,24",
			"name": "Numbers n such that the equation F(n) = sigma(F(i) + F(j)) has a solution with i \u003e= 1 and j \u003e= 0, where F(k) = A000045(k) represents the k-th Fibonacci number.",
			"comment": [
				"Corresponding distinct F(n) values for listed terms are 1, 3, 8, 13, 144, 46368.",
				"Corresponding F(i) + F(j) values are for listed terms are 1, 2, 7, 9, 94, 28678.",
				"It is known that for almost all positive integers n, the sum of divisors of Fibonacci(n) is not a Fibonacci number (see A272412). This sequence focuses on the sums of two Fibonacci numbers for a similar question. Since A000045 is obvious subsequence of A084176 by definition of Fibonacci numbers, the reason of existence of this sequence can be seen as a generalized version of question that is motivation of A272412."
			],
			"example": [
				"7 is a term because Fibonacci(7) = 13 = sigma(1 + 8) and 1, 8 are Fibonacci numbers."
			],
			"xref": [
				"Cf. A000203, A000045, A084176, A272412."
			],
			"keyword": "nonn,more",
			"offset": "1,2",
			"author": "_Altug Alkan_, May 03 2016",
			"references": 0,
			"revision": 18,
			"time": "2016-05-05T21:23:56-04:00",
			"created": "2016-05-05T21:23:56-04:00"
		}
	]
}