{
	"greeting": "Greetings from The On-Line Encyclopedia of Integer Sequences! http://oeis.org/",
	"query": "id:A272271",
	"count": 1,
	"start": 0,
	"results": [
		{
			"number": 272271,
			"data": "1,2,3,23,29,34,35,38,52,57,61,82,186,209,251,366,394,426,786,979,1382,2037,4557,8995,12774,19170,21828,23259,32003,41831,44999,56785,76483,97987,110468",
			"name": "Numbers k such that 7*10^k - 23 is prime.",
			"comment": [
				"For k\u003e1, numbers k such that the digit 6 followed by k-2 occurrences of the digit 9 followed by the digits 77 is prime (see Example section).",
				"a(36) \u003e 2*10^5."
			],
			"link": [
				"Makoto Kamada, \u003ca href=\"https://stdkmd.net/nrr\"\u003eFactorization of near-repdigit-related numbers\u003c/a\u003e.",
				"Makoto Kamada, \u003ca href=\"https://stdkmd.net/nrr/prime/primedifficulty.txt\"\u003eSearch for 69w77\u003c/a\u003e."
			],
			"example": [
				"3 is in this sequence because 7*10^3 - 23 = 6977 is prime.",
				"Initial terms and primes associated:",
				"a(1) = 1, 47;",
				"a(2) = 2, 677;",
				"a(3) = 3, 6977;",
				"a(4) = 23, 699999999999999999999977;",
				"a(5) = 29, 699999999999999999999999999977, etc."
			],
			"mathematica": [
				"Select[Range[0, 100000], PrimeQ[7*10^# - 23] \u0026]"
			],
			"program": [
				"(PARI) is(n)=ispseudoprime(7*10^n - 23) \\\\ _Charles R Greathouse IV_, Jun 13 2017"
			],
			"xref": [
				"Cf. A056654, A268448, A269303, A270339, A270613, A270831, A270890, A270929, A271269."
			],
			"keyword": "nonn,more",
			"offset": "1,2",
			"author": "_Robert Price_, Apr 24 2016",
			"ext": [
				"a(35) from _Robert Price_, Jul 27 2019"
			],
			"references": 0,
			"revision": 12,
			"time": "2019-07-27T11:16:41-04:00",
			"created": "2016-04-24T10:55:12-04:00"
		}
	]
}