{
	"greeting": "Greetings from The On-Line Encyclopedia of Integer Sequences! http://oeis.org/",
	"query": "id:A273941",
	"count": 1,
	"start": 0,
	"results": [
		{
			"number": 273941,
			"data": "5,609359740010477,2887378820390246558653190730940373",
			"name": "Primes of the form 6^n - n.",
			"comment": [
				"Corresponding n are given in A058829.",
				"The next term has 473 digits."
			],
			"mathematica": [
				"Select[Table[6^n - n, {n, 400}], PrimeQ[#] \u0026]"
			],
			"program": [
				"(MAGMA) [a: n in [0..400] | IsPrime(a) where a is 6^n-n ];"
			],
			"xref": [
				"Cf. similar sequences listed in A273940.",
				"Cf. A058829."
			],
			"keyword": "nonn",
			"offset": "1,1",
			"author": "_Vincenzo Librandi_, Jun 05 2016",
			"references": 1,
			"revision": 11,
			"time": "2016-06-08T06:02:21-04:00",
			"created": "2016-06-08T06:02:21-04:00"
		}
	]
}