{
	"greeting": "Greetings from The On-Line Encyclopedia of Integer Sequences! http://oeis.org/",
	"query": "id:A273920",
	"count": 1,
	"start": 0,
	"results": [
		{
			"number": 273920,
			"data": "0,0,0,1,5,145,2969",
			"name": "Number of 10-tuples of primes in arithmetic progression less than 10^n.",
			"reference": [
				"See A113827."
			],
			"example": [
				"The least 10-tuple is {199, 409, 619, 829, 1039, 1249, 1459, 1669, 1879, 2089}, which explains a(4)=1 (and a(n)=0 for n\u003c4)."
			],
			"xref": [
				"Cf. A113827 (prime beginning minimal n-tuple of primes in AP).",
				"Cf. A005115, A115608, A115609, A115610, A115611, A115612, A115613, A273919, A273921, A273922, A273923."
			],
			"keyword": "nonn,hard,more",
			"offset": "1,5",
			"author": "_Jean-Marc Rebert_, Jun 04 2016",
			"references": 4,
			"revision": 14,
			"time": "2016-06-09T04:33:39-04:00",
			"created": "2016-06-09T04:33:39-04:00"
		}
	]
}