{
	"greeting": "Greetings from The On-Line Encyclopedia of Integer Sequences! http://oeis.org/",
	"query": "id:A273945",
	"count": 1,
	"start": 0,
	"results": [
		{
			"number": 273945,
			"data": "5,17,41,193,257,12289,59393,65537,275201,786433,790529,8972801,13631489,21523361,134382593,155189249,448524289,524455937,847036417,3221225473,12348030977,22320686081,77309411329,206158430209,4638564679681,6597069766657,12079910333441",
			"name": "Odd prime factors of generalized Fermat numbers of the form 3^(2^m) + 1 with m \u003e= 0.",
			"comment": [
				"Odd primes p such that the multiplicative order of 3 (mod p) is a power of 2."
			],
			"link": [
				"Arkadiusz Wesolowski, \u003ca href=\"/A273945/b273945.txt\"\u003eTable of n, a(n) for n = 1..35\u003c/a\u003e",
				"Anders Björn and Hans Riesel, \u003ca href=\"http://dx.doi.org/10.1090/S0025-5718-98-00891-6\"\u003eFactors of generalized Fermat numbers\u003c/a\u003e, Math. Comp. 67 (1998), no. 221, pp. 441-446.",
				"Anders Björn and Hans Riesel, \u003ca href=\"http://dx.doi.org/10.1090/S0025-5718-05-01816-8\"\u003eTable errata to “Factors of generalized Fermat numbers”\u003c/a\u003e, Math. Comp. 74 (2005), no. 252, p. 2099.",
				"Anders Björn and Hans Riesel, \u003ca href=\"http://dx.doi.org/10.1090/S0025-5718-10-02371-9\"\u003eTable errata 2 to \"Factors of generalized Fermat numbers\"\u003c/a\u003e, Math. Comp. 80 (2011), pp. 1865-1866.",
				"C. K. Caldwell, Top Twenty page, \u003ca href=\"http://primes.utm.edu/top20/page.php?id=28\"\u003eGeneralized Fermat Divisors (base=3)\u003c/a\u003e",
				"Harvey Dubner and Wilfrid Keller, \u003ca href=\"http://dx.doi.org/10.1090/S0025-5718-1995-1270618-1\"\u003eFactors of Generalized Fermat Numbers\u003c/a\u003e, Math. Comp. 64 (1995), no. 209, pp. 397-405.",
				"OEIS Wiki, \u003ca href=\"/wiki/Generalized_Fermat_numbers\"\u003eGeneralized Fermat numbers\u003c/a\u003e",
				"Hans Riesel, \u003ca href=\"http://dx.doi.org/10.1007/BF01946818\"\u003eCommon prime factors of the numbers A_n=a^(2^n)+1\u003c/a\u003e, BIT 9 (1969), pp. 264-269."
			],
			"mathematica": [
				"Select[Prime@Range[2, 10^5], IntegerQ@Log[2, MultiplicativeOrder[3, #]] \u0026]"
			],
			"xref": [
				"Cf. A023394, A059919, A072982, A268657, A268661, A273946 (base 5), A273947 (base 6), A273948 (base 7), A273949 (base 11), A273950 (base 12)."
			],
			"keyword": "nonn",
			"offset": "1,1",
			"author": "_Arkadiusz Wesolowski_, Jun 05 2016",
			"references": 8,
			"revision": 18,
			"time": "2017-06-21T12:07:39-04:00",
			"created": "2016-06-17T02:22:58-04:00"
		}
	]
}