{
	"greeting": "Greetings from The On-Line Encyclopedia of Integer Sequences! http://oeis.org/",
	"query": "id:A273870",
	"count": 1,
	"start": 0,
	"results": [
		{
			"number": 273870,
			"data": "1,3,5,17,217,257,387,8209,20137,37025,59141,65537,283801,649801,1382401,373164545,535019101,2453039425,4294967297",
			"name": "Numbers m such that 4^(m-1) == 1 (mod (m-1)^2 + 1).",
			"comment": [
				"Also, numbers m such that (4^k)^(m-1) == 1 (mod (m-1)^2 + 1) for all k \u003e= 0.",
				"Contains Fermat numbers (A000215) as subsequence.",
				"Prime terms are in A273871.",
				"a(20) \u003e 2*10^12, if it exists. - _Giovanni Resta_, Feb 26 2020"
			],
			"formula": [
				"a(n) = sqrt(A273999(n)-1) + 1. - _Jinyuan Wang_, Feb 24 2020"
			],
			"example": [
				"5 is a term because 4^(5-1) == 1 (mod (5-1)^2+1), i.e., 255 == 0 (mod 17)."
			],
			"program": [
				"(MAGMA) [n: n in [1..100000] | (4^(n-1)-1) mod ((n-1)^2+1) eq 0]",
				"(PARI) isok(n) = Mod(4, (n-1)^2+1)^(n-1) == 1; \\\\ _Michel Marcus_, Jun 02 2016"
			],
			"xref": [
				"Cf. A000215, A019434, A273871, A273999."
			],
			"keyword": "nonn,more",
			"offset": "1,2",
			"author": "_Jaroslav Krizek_, Jun 01 2016",
			"ext": [
				"a(14)-a(15) from _Michel Marcus_, Jun 02 2016",
				"Edited by _Max Alekseyev_, Apr 30 2018",
				"a(16)-a(19) from _Jinyuan Wang_, Feb 24 2020"
			],
			"references": 2,
			"revision": 28,
			"time": "2021-10-06T15:19:21-04:00",
			"created": "2016-06-06T00:31:18-04:00"
		}
	]
}