{
	"greeting": "Greetings from The On-Line Encyclopedia of Integer Sequences! http://oeis.org/",
	"query": "id:A273372",
	"count": 1,
	"start": 0,
	"results": [
		{
			"number": 273372,
			"data": "1,81,121,361,441,841,961,1521,1681,2401,2601,3481,3721,4761,5041,6241,6561,7921,8281,9801,10201,11881,12321,14161,14641,16641,17161,19321,19881,22201,22801,25281,25921,28561,29241,32041,32761,35721,36481,39601,40401",
			"name": "Squares ending in digit 1.",
			"comment": [
				"Intersection of A000290 and A017281; also, union of A017282 and A017378. The square roots are in A017281 or in A017377 (numbers ending in 1 or 9, respectively). - _David A. Corneth_, May 22 2016"
			],
			"link": [
				"Seiichi Manyama, \u003ca href=\"/A273372/b273372.txt\"\u003eTable of n, a(n) for n = 1..10000\u003c/a\u003e",
				"\u003ca href=\"/index/Rec#order_05\"\u003eIndex entries for linear recurrences with constant coefficients\u003c/a\u003e, signature (1,2,-2,-1,1)."
			],
			"formula": [
				"G.f.: x*(1 + 80*x + 38*x^2 + 80*x^3 + x^4) / ((1 + x)^2*(1 - x)^3).",
				"a(n) = 10*A132356(n-1) + 1 = 5*(10*n+(-1)^n-5)*(2*n+(-1)^n-1)/4+1.",
				"a(n) = (5*n - 5/2 + (3/2)*(-1)^n)^2 = 25*n^2 - 25*n + 17/2 + 15*n*(-1)^n - (15/2)*(-1)^n. - _David A. Corneth_, May 21 2016",
				"a(n) = A090771(n)^2. - _Michel Marcus_, May 25 2016"
			],
			"mathematica": [
				"Table[5 (10 n + (-1)^n - 5) (2 n + (-1)^n - 1)/4 + 1, {n, 1, 50}]"
			],
			"program": [
				"(MAGMA) /* By definition: */ [n^2: n in [0..200] | Modexp(n,2,10) eq 1];",
				"(MAGMA) [5*(10*n+(-1)^n-5)*(2*n+(-1)^n-1)/4+1: n in [1..50]];",
				"(Ruby) p (1..(n + 1) / 2).inject([]){|s, i| s + [(10 * i - 9) ** 2, (10 * i - 1) ** 2]}[0..n - 1] # Seiichi Manyama, May 24 2016",
				"(Python)",
				"A273372_list = [(10*n+m)**2 for n in range(10**3) for m in (1,9)] # _Chai Wah Wu_, May 24 2016"
			],
			"xref": [
				"Cf. A000290, A090771, A132356.",
				"Cf. A017281 (numbers ending in 1), A017283 (cubes ending in 1).",
				"Cf. similar sequences listed in A273373."
			],
			"keyword": "nonn,base,easy",
			"offset": "1,2",
			"author": "_Vincenzo Librandi_, May 21 2016",
			"ext": [
				"Edited by _Bruno Berselli_, May 24 2016"
			],
			"references": 3,
			"revision": 58,
			"time": "2018-10-24T08:20:08-04:00",
			"created": "2016-05-24T10:04:00-04:00"
		}
	]
}