{
	"greeting": "Greetings from The On-Line Encyclopedia of Integer Sequences! http://oeis.org/",
	"query": "id:A273354",
	"count": 1,
	"start": 0,
	"results": [
		{
			"number": 273354,
			"data": "2,4624776",
			"name": "Least number that is the sum of 2 positive cubes in exactly n ways and also the sum of 2 positive squares in exactly n ways.",
			"comment": [
				"4624776 is the first term of A272701.",
				"A011541(k) is not the sum of two nonzero squares for 2 \u003c= k \u003c= 6.",
				"If it exists, what is the a(3)?"
			],
			"example": [
				"a(1) = 2 because 2 = 1^3 + 1^3 = 1^2 + 1^2.",
				"a(2) = 4624776 because 4624776 = 51^3 + 165^3 = 72^3 + 162^3 = 1026^2 + 1890^2 = 1350^2 + 1674^2."
			],
			"xref": [
				"Cf. A001235, A011541, A016032, A272701."
			],
			"keyword": "nonn,hard,less,more,bref",
			"offset": "1,1",
			"author": "_Altug Alkan_, May 20 2016",
			"references": 0,
			"revision": 11,
			"time": "2016-05-22T00:34:21-04:00",
			"created": "2016-05-22T00:34:21-04:00"
		}
	]
}