{
	"greeting": "Greetings from The On-Line Encyclopedia of Integer Sequences! http://oeis.org/",
	"query": "id:A273339",
	"count": 1,
	"start": 0,
	"results": [
		{
			"number": 273339,
			"data": "4,4,4,4,4,4,4,4,4,4,4,4,4,4,4,6,4,4,4,4,4,4,4,4,4,4,4,4,4,4,4,6,4,4,4,4,4,4,4,4,4,4,4,4,4,4,4,6,4,4,4,4,4,4,4,4,4,4,4,4,4,4,4,6,4,4,4,4,4,4,4,4,4,4,4,4,4,4,4,6,4,4,4,4,4,4,4",
			"name": "Smallest composite c such that n^(c-1) =/= 1 (mod c^2), i.e., smallest composite c that is not a \"Wieferich pseudoprime\" to base n.",
			"comment": [
				"Smallest composite c such that n does not occur in row c of the array in A244752. - _Felix Fröhlich_, Jan 07 2017"
			],
			"link": [
				"Felix Fröhlich, \u003ca href=\"/A273339/b273339.txt\"\u003eTable of n, a(n) for n = 2..10000\u003c/a\u003e"
			],
			"program": [
				"(PARI) a(n) = forcomposite(c=1, , if(Mod(n, c^2)^(c-1)!=1, return(c)))"
			],
			"xref": [
				"Cf. A240719, A244752, A256517, A267288, A270776."
			],
			"keyword": "nonn",
			"offset": "2,1",
			"author": "_Felix Fröhlich_, May 20 2016",
			"references": 3,
			"revision": 12,
			"time": "2017-01-07T13:48:12-05:00",
			"created": "2016-05-21T22:53:23-04:00"
		}
	]
}