{
	"greeting": "Greetings from The On-Line Encyclopedia of Integer Sequences! http://oeis.org/",
	"query": "id:A273851",
	"count": 1,
	"start": 0,
	"results": [
		{
			"number": 273851,
			"data": "1,5,9,17,21,29,37,69,97,105,125,173,213,245,293,373,425,417,417,473,557,637,697,761,853,933,989,1101,1241,1337,1393,1553,1673,1657,1709,1781,1881,2001,2073,2249,2441,2441,2533,2813,3037,3197,3341,3597,3857",
			"name": "Number of active (ON,black) cells in n-th stage of growth of two-dimensional cellular automaton defined by \"Rule 974\", based on the 5-celled von Neumann neighborhood.",
			"comment": [
				"Initialized with a single black (ON) cell at stage zero."
			],
			"reference": [
				"S. Wolfram, A New Kind of Science, Wolfram Media, 2002; p. 170."
			],
			"link": [
				"Robert Price, \u003ca href=\"/A273851/b273851.txt\"\u003eTable of n, a(n) for n = 0..128\u003c/a\u003e",
				"Robert Price, \u003ca href=\"/A273851/a273851.tmp.txt\"\u003eDiagrams of the first 20 stages\u003c/a\u003e",
				"N. J. A. Sloane, \u003ca href=\"http://arxiv.org/abs/1503.01168\"\u003eOn the Number of ON Cells in Cellular Automata\u003c/a\u003e, arXiv:1503.01168 [math.CO], 2015",
				"Eric Weisstein's World of Mathematics, \u003ca href=\"http://mathworld.wolfram.com/ElementaryCellularAutomaton.html\"\u003eElementary Cellular Automaton\u003c/a\u003e",
				"S. Wolfram, \u003ca href=\"http://wolframscience.com/\"\u003eA New Kind of Science\u003c/a\u003e",
				"\u003ca href=\"/index/Ce#cell\"\u003eIndex entries for sequences related to cellular automata\u003c/a\u003e",
				"\u003ca href=\"https://oeis.org/wiki/Index_to_2D_5-Neighbor_Cellular_Automata\"\u003eIndex to 2D 5-Neighbor Cellular Automata\u003c/a\u003e",
				"\u003ca href=\"https://oeis.org/wiki/Index_to_Elementary_Cellular_Automata\"\u003eIndex to Elementary Cellular Automata\u003c/a\u003e"
			],
			"mathematica": [
				"CAStep[rule_,a_]:=Map[rule[[10-#]]\u0026,ListConvolve[{{0,2,0},{2,1,2},{0,2,0}},a,2],{2}];",
				"code=974; stages=128;",
				"rule=IntegerDigits[code,2,10];",
				"g=2*stages+1; (* Maximum size of grid *)",
				"a=PadLeft[{{1}},{g,g},0,Floor[{g,g}/2]]; (* Initial ON cell on grid *)",
				"ca=a;",
				"ca=Table[ca=CAStep[rule,ca],{n,1,stages+1}];",
				"PrependTo[ca,a];",
				"(* Trim full grid to reflect growth by one cell at each stage *)",
				"k=(Length[ca[[1]]]+1)/2;",
				"ca=Table[Table[Part[ca[[n]][[j]],Range[k+1-n,k-1+n]],{j,k+1-n,k-1+n}],{n,1,k}];",
				"Map[Function[Apply[Plus,Flatten[#1]]],ca] (* Count ON cells at each stage *)"
			],
			"keyword": "nonn,easy",
			"offset": "0,2",
			"author": "_Robert Price_, Jun 01 2016",
			"references": 4,
			"revision": 12,
			"time": "2016-06-01T19:47:00-04:00",
			"created": "2016-06-01T12:37:40-04:00"
		}
	]
}