{
	"greeting": "Greetings from The On-Line Encyclopedia of Integer Sequences! http://oeis.org/",
	"query": "id:A274193",
	"count": 1,
	"start": 0,
	"results": [
		{
			"number": 274193,
			"data": "1,1,1,1,1,1,1,1,1,1,1,2,1,1,1,1,2,2,1,1,1,1,2,2,2,1,1,1,1,3,3,2,2,1,1,1,1,3,4,3,2,2,1,1,1,1,4,4,4,3,2,2,1,1,1,1,5,6,5,4,3,2,2,1,1,1,1,6,7,7,5,4,3,2,2,1,1,1,1,8,9,8,7,5,4,3",
			"name": "Triangular array read by rows: g(n,k) = 1 for n \u003e= 0; g(n,k) = 0 if k \u003e n; g(n,k) = g(n-1,k-1) + g(n-1,3k) for n \u003e 0, k \u003e 1.",
			"link": [
				"Clark Kimberling, \u003ca href=\"/A274193/b274193.txt\"\u003eTable of n, a(n) for n = 0..10000\u003c/a\u003e"
			],
			"example": [
				"First  10 rows:",
				"1",
				"1   1",
				"1   1   1",
				"1   1   1   1",
				"1   2   1   1   1",
				"1   2   2   1   1   1",
				"1   2   2   2   1   1   1",
				"1   3   3   2   2   1   1   1",
				"1   3   4   3   2   2   1   1   1",
				"1   4   4   4   3   2   2   1   1   1"
			],
			"mathematica": [
				"g[n_, 0] = g[n, 0] = 1;",
				"g[n_, k_] := g[n, k] = If[k \u003e n, 0, g[n - 1, k - 1] + g[n - 1, 3 k]];",
				"t = Table[g[n, k], {n, 0, 14}, {k, 0, n}]",
				"TableForm[t] (* A274193 array *)",
				"u = Flatten[t] (* A274193 sequence *)"
			],
			"xref": [
				"Cf. A274194 (row sums), A274195, A274200 (limiting reverse row), A274190, A274196."
			],
			"keyword": "nonn,tabl,easy",
			"offset": "0,12",
			"author": "_Clark Kimberling_, Jun 14 2016",
			"references": 6,
			"revision": 5,
			"time": "2016-06-16T14:00:55-04:00",
			"created": "2016-06-16T14:00:55-04:00"
		}
	]
}