{
	"greeting": "Greetings from The On-Line Encyclopedia of Integer Sequences! http://oeis.org/",
	"query": "id:A274530",
	"count": 1,
	"start": 0,
	"results": [
		{
			"number": 274530,
			"data": "1,5,9,16,18,31,43,51,66,77,111,146,128,177,168,202,202,266,296,278,327,388,393,405,553,497,634,690,639,736,809,792,816,816,985,1006,1012,1232,1245,1215,1342,1435,1481,1305,1629,1595,1639,1693,1825,1833,2061,2008,2006,2407,2496,2314,2525,2400,2694,2723",
			"name": "Sum of the n-th antidiagonal of infinite Sudoku-type array A269526.",
			"link": [
				"Alois P. Heinz, \u003ca href=\"/A274530/b274530.txt\"\u003eTable of n, a(n) for n = 1..2000\u003c/a\u003e"
			],
			"formula": [
				"a(n) = A274652(n-1) + n."
			],
			"example": [
				"For n = 6 the sum of all elements of the 6th antidiagonal of the square array A269526 is 6 + 7 + 3 + 2 + 8 + 5 = 31, so a(6) = 31."
			],
			"xref": [
				"Cf. A269526, A274529, A274652."
			],
			"keyword": "nonn",
			"offset": "1,2",
			"author": "_Omar E. Pol_, Jun 29 2016",
			"ext": [
				"More terms from _Alois P. Heinz_, Jun 29 2016"
			],
			"references": 4,
			"revision": 26,
			"time": "2016-11-30T01:03:42-05:00",
			"created": "2016-06-30T11:56:00-04:00"
		}
	]
}