{
	"greeting": "Greetings from The On-Line Encyclopedia of Integer Sequences! http://oeis.org/",
	"query": "id:A274937",
	"count": 1,
	"start": 0,
	"results": [
		{
			"number": 274937,
			"data": "0,0,1,1,2,3,6,11,23,46,99,216,488,1121,2644,6334,15437,38132,95368,241029,614968,1582030,4100157,10697038,28075303,74086468,196470902,523383136,1400051585,3759508536,10131097618,27391132238,74283552343,202030012554,550934060120,1506161266348",
			"name": "Number of unlabeled forests on n nodes that have exactly two nonempty components.",
			"link": [
				"Alois P. Heinz, \u003ca href=\"/A274937/b274937.txt\"\u003eTable of n, a(n) for n = 0..1000\u003c/a\u003e"
			],
			"formula": [
				"G.f.: [A(x)^2 + A(x^2)]/2 where A(x) is the o.g.f. for A000055 without the initial constant 1.",
				"a(n) = A095133(n,2). - _R. J. Mathar_, Jul 20 2016"
			],
			"maple": [
				"b:= proc(n) option remember; `if`(n\u003c2, n, (add(add(d*",
				"      b(d), d=divisors(j))*b(n-j), j=1..n-1))/(n-1))",
				"    end:",
				"g:= proc(n) option remember; `if`(n=0, 1, b(n)-add(b(j)*",
				"      b(n-j), j=0..n/2)+`if`(n::odd, 0, (t-\u003et*(t+1)/2)(b(n/2))))",
				"    end:",
				"a:= proc(n) option remember; add(g(j)*g(n-j), j=1..n/2)-",
				"      `if`(n::odd, 0, (t-\u003e t*(t-1)/2)(g(n/2)))",
				"    end:",
				"seq(a(n), n=0..40);  # _Alois P. Heinz_, Jul 20 2016"
			],
			"mathematica": [
				"b[n_] := b[n] = If[n\u003c2, n, Sum[DivisorSum[j, #*b[#]\u0026]*b[n-j], {j, 1, n-1}]/ (n-1)];",
				"g[n_] := g[n] = If[n==0, 1, b[n]-Sum[b[j]*b[n-j], {j, 0, n/2}] + If[OddQ[n], 0, Function[t, t*(t+1)/2][b[n/2]]]];",
				"a[n_] := a[n] = Sum[g[j]*g[n-j], {j, 1, n/2}] - If[OddQ[n], 0, Function[t, t*(t-1)/2][g[n/2]]];",
				"Table[a[n], {n, 0, 40}] (* _Jean-François Alcover_, Mar 14 2017, after _Alois P. Heinz_ *)"
			],
			"xref": [
				"Cf. A000055, A274935, A274936, A274938. [A274935, A274936, A274937, A274938] are analogs for forests of [A275165, A275166, A216785, A274934] for graphs."
			],
			"keyword": "nonn",
			"offset": "0,5",
			"author": "_N. J. A. Sloane_, Jul 19 2016",
			"references": 5,
			"revision": 27,
			"time": "2018-04-29T02:12:55-04:00",
			"created": "2016-07-19T10:33:35-04:00"
		}
	]
}