{
	"greeting": "Greetings from The On-Line Encyclopedia of Integer Sequences! http://oeis.org/",
	"query": "id:A274861",
	"count": 1,
	"start": 0,
	"results": [
		{
			"number": 274861,
			"data": "1,1,2,4,8,16,32,64,128,264,544,1120,2304,4940,10632,22908,49324,112352,258184,596430,1379150,3431265,8639020,21965049,56062850,155582125,436328469,1238168841,3534962983,10951026755,34135076965,107562008116,341226376721",
			"name": "Number of set partitions of [n] such that the difference between each element and its index (in the partition) is a multiple of four.",
			"xref": [
				"Column k=4 of A274859."
			],
			"keyword": "nonn",
			"offset": "0,3",
			"author": "_Alois P. Heinz_, Jul 09 2016",
			"references": 1,
			"revision": 3,
			"time": "2016-07-09T17:35:27-04:00",
			"created": "2016-07-09T17:35:27-04:00"
		}
	]
}