{
	"greeting": "Greetings from The On-Line Encyclopedia of Integer Sequences! http://oeis.org/",
	"query": "id:A274010",
	"count": 1,
	"start": 0,
	"results": [
		{
			"number": 274010,
			"data": "0,0,1,2,3,3,4,4,4,5,5,4,6,6,4,6,7,5,6,6,6,8,6,4,8,9,5,6,8,6,8,8,6,8,6,6,11,9,4,6,10,8,8,8,6,10,8,4,10,11,7,8,8,6,8,10,10,10,6,4,12,12,4,8,11,9,10,8,6,8,10,8,12,12,4,8,10,8,10,8,10",
			"name": "Boris Stechkin function: a(n) is the number of m with 2 \u003c= m \u003c= n and floor(n(m-1)/m) divisible by m-1.",
			"comment": [
				"Stechkin proves:",
				"n-1 is prime iff a(n) = A000005(n).",
				"n-1 and n+1 are twin primes, i.e., n is in A014574, iff a(n)+a(n+1) = 2*A000005(n).",
				"If p \u003c q are odd primes, then Sum_{k=p+1..q} (-1)^k a(k) = 0."
			],
			"reference": [
				"R. K. Guy, Unsolved Problems in Number Theory, Springer 2013, sec. A17."
			],
			"link": [
				"Robert Israel, \u003ca href=\"/A274010/b274010.txt\"\u003eTable of n, a(n) for n = 0..10000\u003c/a\u003e"
			],
			"formula": [
				"Conjecture: a(n) = tau(n) + tau(n-1) - 2, for n\u003e=2. - _Ridouane Oudra_, Feb 28 2020"
			],
			"example": [
				"For n = 6, the values of m are 2,3,5,6 so a(6) = 4."
			],
			"maple": [
				"N:= 1000: # to get a(0) to a(N)",
				"A:= Vector(N):",
				"for m from 2 to N do",
				"  L:= [seq(seq(k*m+j,j=0..1),k=1..N/m)];",
				"  if L[-1] \u003e N then L:= L[1..-2] fi;",
				"  A[L]:= map(`+`,A[L],1);",
				"od:",
				"0, seq(A[i],i=1..N);"
			],
			"mathematica": [
				"a[n_] := Sum[Boole[Divisible[Floor[n(m-1)/m], m-1]], {m, 2, n}];",
				"Table[a[n], {n, 0, 100}] (* _Jean-François Alcover_, Apr 29 2019 *)"
			],
			"program": [
				"(PARI) a(n)=sum(m=2,n,n*(m-1)\\m%(m-1)==0) \\\\ _Charles R Greathouse IV_, Jun 08 2016"
			],
			"xref": [
				"Cf. A000005, A014574, A055004."
			],
			"keyword": "nonn",
			"offset": "0,4",
			"author": "_Robert Israel_, Jun 06 2016",
			"references": 2,
			"revision": 19,
			"time": "2020-03-01T12:13:16-05:00",
			"created": "2016-06-06T22:56:14-04:00"
		}
	]
}