{
	"greeting": "Greetings from The On-Line Encyclopedia of Integer Sequences! http://oeis.org/",
	"query": "id:A274806",
	"count": 1,
	"start": 0,
	"results": [
		{
			"number": 274806,
			"data": "1,0,0,48,960,92160,862848000,300286741708800,1835082219864832081920",
			"name": "Number of diagonal Latin squares of order n.",
			"comment": [
				"A diagonal Latin square is a Latin square in which both the main diagonal and main antidiagonal contain each element. - _Andrew Howroyd_, Oct 05 2020"
			],
			"link": [
				"S. Kochemazov, O. Zaikin, E. Vatutin, A. Belyshev, \u003ca href=\"https://cs.uwaterloo.ca/journals/JIS/VOL23/Zaikin/zaikin3.html\"\u003eEnumerating Diagonal Latin Squares of Order Up to 9\u003c/a\u003e, Journal of Integer Sequences. Vol. 23. Iss. 1. 2020. Article 20.1.2.",
				"M. O. Manzuk, N. N. Nikitina, \u003ca href=\"https://rake.boincfast.ru/rakesearch/forum_thread.php?id=187\"\u003eAbout the number of diagonal Latin squares of order 9 as a one of results of RakeSearch distributed computing project\u003c/a\u003e",
				"E. I. Vatutin, \u003ca href=\"https://vk.com/wall162891802_1315\"\u003eEnumerating the diagonal Latin squares of order 8 using equivalence classes of X-based fillings of diagonals and ESODLS-schemas\u003c/a\u003e (in Russian).",
				"E. I. Vatutin, \u003ca href=\"https://vk.com/wall162891802_1330\"\u003eEnumerating the diagonal Latin squares of order 9 using Gerasim@Home volunteer distributed computing project, equivalence classes of X-based fillings of diagonals and ESODLS-schemas\u003c/a\u003e (in Russian).",
				"E. I. Vatutin, O. S. Zaikin, A. D. Zhuravlev, M. O. Manzuk, S. E. Kochemazov and V. S. Titov, \u003ca href=\"http://evatutin.narod.ru/evatutin_co_ls_dls_1_8_eng.pdf\"\u003eUsing grid systems for enumerating combinatorial objects on example of diagonal Latin squares\u003c/a\u003e, Proceedings of Distributed Computing and grid-technologies in science and education (GRID'16), JINR, Dubna, 2016, pp. 114-115.",
				"E. I. Vatutin, S. E. Kochemazov, O. S. Zaikin, \u003ca href=\"https://doi.org/10.1007/978-3-319-67035-5_9\"\u003eApplying Volunteer and Parallel Computing for Enumerating Diagonal Latin Squares of Order 9\u003c/a\u003e, Parallel Computational Technologies. PCT 2017. Communications in Computer and Information Science, vol. 753, pp. 114-129. doi: 10.1007/978-3-319-67035-5_9.",
				"Eduard I. Vatutin, Stepan E. Kochemazov, Oleq S. Zaikin, Maxim O. Manzuk, Natalia N. Nikitina, Vitaly S. Titov, \u003ca href=\"https://doi.org/10.25045/jpit.v10.i2.01\"\u003eCentral symmetry properties for diagonal Latin squares\u003c/a\u003e, Problems of Information Technology (2019) No. 2, 3-8.",
				"Vatutin E. I., Zaikin O. S., Zhuravlev A. D., Manzuk M. O., Kochemazov S. E., Titov V. S., \u003ca href=\"http://evatutin.narod.ru/evatutin_co_ls_dls_1_8.pdf\"\u003eThe effect of filling cells order to the rate of generation of diagonal Latin squares\u003c/a\u003e, Information-measuring and diagnosing control systems (Diagnostics - 2016). Kursk: SWSU, 2016. pp. 33-39, (in Russian).",
				"E. I. Vatutin, V. S. Titov, O. S. Zaikin, S. E. Kochemazov, S. U. Valyaev, A. D. Zhuravlev, M. O. Manzuk, \u003ca href=\"http://evatutin.narod.ru/evatutin_co_ls_dls_9.pdf\"\u003eUsing grid systems for enumerating combinatorial objects with example of diagonal Latin squares\u003c/a\u003e, Information technologies and mathematical modeling of systems (2016), pp. 154-157, (in Russian).",
				"Eduard I. Vatutin, \u003ca href=\"http://forum.boinc.ru/default.aspx?g=posts\u0026amp;m=84942#post84942\"\u003ea(9) value fixed\u003c/a\u003e",
				"E. I. Vatutin, O. S. Zaikin, A. D. Zhuravlev, M. O. Manzyuk, S. E. Kochemazov, V. S. Titov, \u003ca href=\"http://ceur-ws.org/Vol-1787/486-490-paper-84.pdf\"\u003eUsing grid systems for enumerating combinatorial objects on example of diagonal Latin squares\u003c/a\u003e, CEUR Workshop proceedings. Selected Papers of the 7th International Conference Distributed Computing and Grid-technologies in Science and Education. 2017. Vol. 1787. pp. 486-490. urn:nbn:de:0074-1787-5.",
				"\u003ca href=\"/index/La#Latin\"\u003eIndex entries for sequences related to Latin squares and rectangles\u003c/a\u003e"
			],
			"formula": [
				"a(n) = A274171(n) * n!."
			],
			"xref": [
				"Cf. A000315, A000479, A274171, A287764, A309283."
			],
			"keyword": "nonn,more",
			"offset": "1,4",
			"author": "_Eduard I. Vatutin_, Jul 07 2016",
			"ext": [
				"a(9) from Vatutin et al. (2016) added by _Max Alekseyev_, Oct 05 2016",
				"a(9) corrected by _Eduard I. Vatutin_, Oct 20 2016"
			],
			"references": 11,
			"revision": 58,
			"time": "2020-10-05T10:53:14-04:00",
			"created": "2016-07-11T18:00:16-04:00"
		}
	]
}