{
	"greeting": "Greetings from The On-Line Encyclopedia of Integer Sequences! http://oeis.org/",
	"query": "id:A274587",
	"count": 1,
	"start": 0,
	"results": [
		{
			"number": 274587,
			"data": "1,23,176,5968,888778,30192278,233944673,7947232183,1183597668523,40207478867501,311547395822378,10583440358908726,1576213585538112676,53544862512524597468,414892028679967914251,14094115694115827467213,2099065698850118586101173",
			"name": "Values of n such that 2*n-1 and 4*n-1 are both triangular numbers.",
			"link": [
				"Colin Barker, \u003ca href=\"/A274587/b274587.txt\"\u003eTable of n, a(n) for n = 1..650\u003c/a\u003e",
				"\u003ca href=\"/index/Rec#order_07\"\u003eIndex entries for linear recurrences with constant coefficients\u003c/a\u003e, signature (35,-1189,40391,-40391,1189,-35,1)."
			],
			"formula": [
				"Intersection of A174114 and A213399.",
				"G.f.: x*(1-12*x+560*x^2-13236*x^3+560*x^4-12*x^5+x^6) / ((1-x)*(1-34*x+x^2)*(1+1154*x^2+x^4))."
			],
			"example": [
				"23 is in the sequence because 2*23-1 = 45, 4*23-1 = 91, and 45 and 91 are both triangular numbers."
			],
			"mathematica": [
				"Rest@ CoefficientList[Series[x (1 - 12 x + 560 x^2 - 13236 x^3 + 560 x^4 - 12 x^5 + x^6)/((1 - x) (1 - 34 x + x^2) (1 + 1154 x^2 + x^4)), {x, 0, 17}], x] (* _Michael De Vlieger_, Jun 30 2016 *)",
				"LinearRecurrence[{35,-1189,40391,-40391,1189,-35,1},{1,23,176,5968,888778,30192278,233944673},20] (* _Harvey P. Dale_, Jan 18 2021 *)"
			],
			"program": [
				"(PARI) isok(n) = ispolygonal(2*n-1, 3) \u0026\u0026 ispolygonal(4*n-1, 3)",
				"(PARI) Vec(x*(1-12*x+560*x^2-13236*x^3+560*x^4-12*x^5+x^6)/((1-x)*(1-34*x+x^2)*(1+1154*x^2+x^4)) + O(x^20))"
			],
			"xref": [
				"Cf. A174114, A213399, A274588."
			],
			"keyword": "nonn,easy",
			"offset": "1,2",
			"author": "_Colin Barker_, Jun 29 2016",
			"references": 2,
			"revision": 13,
			"time": "2021-01-18T17:20:59-05:00",
			"created": "2016-06-30T05:50:14-04:00"
		}
	]
}