{
	"greeting": "Greetings from The On-Line Encyclopedia of Integer Sequences! http://oeis.org/",
	"query": "id:A274295",
	"count": 1,
	"start": 0,
	"results": [
		{
			"number": 274295,
			"data": "1,1,3,6,16,43,120,369,1244,4449,16424,61645,233568,890421,3409866,13105083,50517580,195234557,756198408,2934687173,11408742152,44420399805,173191793402,676104404123,2642356839108,10337529692357,40481034411830,158658210122079,622329139387184,2442857958597649",
			"name": "a(n) = n+binomial(2*n-6,n-3)+binomial(2*n-5,n-3)+binomial(n-1,n-3)+Sum_{i=1..n-3} (binomial(n+i-3,n-3)+2*n-i-5).",
			"comment": [
				"For n \u003e= 5 this is the number of residuated maps from the lattice N_n to itself."
			],
			"link": [
				"G. C. Greubel, \u003ca href=\"/A274295/b274295.txt\"\u003eTable of n, a(n) for n = 0..1000\u003c/a\u003e",
				"Erika D. Foreman, \u003ca href=\"http://dx.doi.org/10.18297/etd/2257\"\u003eOrder automorphisms on the lattice of residuated maps of some special nondistributive lattices\u003c/a\u003e, (2015). Univ. Louisville, Electronic Theses and Dissertations. Paper 2257."
			],
			"formula": [
				"G.f.: -11-12/(x - 1)^3 + x*(-4 + 31/(x-1)^3 + x*(1/sqrt(1 - 4*x) - 23/(x - 1)^3 + x/sqrt(1 - 4*x))). - _Benedict W. J. Irwin_, Aug 09 2016",
				"a(n) ~ 5*4^(n-3)/sqrt(Pi*n). - _Ilya Gutkovskiy_, Aug 09 2016",
				"Conjecture: (-n+2)*a(n) +(7*n-18)*a(n-1) +14*(-n+3)*a(n-2) +2*(3*n-2)*a(n-3) +(11*n-90)*a(n-4) +(-13*n+102)*a(n-5) +2*(2*n-17)*a(n-6)=0. - _R. J. Mathar_, Oct 07 2016"
			],
			"maple": [
				"g:=n-\u003en+binomial(2*n-6,n-3)+binomial(2*n-5,n-3)+binomial(n-1,n-3)+add((binomial(n+i-3,n-3)+2*n-i-5),i=1..n-3);",
				"[seq(g(n),n=0..40)];"
			],
			"mathematica": [
				"Table[n + Binomial[2 * n - 6, n - 3] + Binomial[2 * n - 5, n - 3] + Binomial[n - 1, n - 3] + Sum[(Binomial[n + i - 3, n - 3] + 2 * n - i - 5), {i, 1, n - 3}], {n, 0, 20}] (* _Benedict W. J. Irwin_, Aug 09 2016 *)",
				"CoefficientList[Series[-11-12/(x - 1)^3 + x*(-4 + 31/(x-1)^3 + x*(1/Sqrt[1 - 4*x] - 23/(x - 1)^3 + x/Sqrt[1 - 4*x])), {x,0,50}], x] (* _G. C. Greubel_, Jun 05 2017 *)"
			],
			"program": [
				"(PARI) x='x+O('x^50); Vec(-11-12/(x - 1)^3 + x*(-4 + 31/(x-1)^3 + x*(1/sqrt(1 - 4*x) - 23/(x - 1)^3 + x/sqrt(1 - 4*x)))) \\\\ _G. C. Greubel_, Jun 05 2017"
			],
			"keyword": "nonn",
			"offset": "0,3",
			"author": "_N. J. A. Sloane_, Jun 18 2016",
			"references": 2,
			"revision": 29,
			"time": "2017-06-05T19:06:58-04:00",
			"created": "2016-06-18T01:18:38-04:00"
		}
	]
}