{
	"greeting": "Greetings from The On-Line Encyclopedia of Integer Sequences! http://oeis.org/",
	"query": "id:A274955",
	"count": 1,
	"start": 0,
	"results": [
		{
			"number": 274955,
			"data": "6,72,384,2376,14406,87780,536406,3278016,20027574,122367012,747675414,4568374272,27913169094,170551986900,1042088376006,6367256060400,38904520522614,237710201714820,1452431219269686,8874488478680352",
			"name": "Number of nX4 0..2 arrays with no element equal to any value at offset (-1,-1) (-2,0) or (0,-2) and new values introduced in order 0..2.",
			"comment": [
				"Column 4 of A274959."
			],
			"link": [
				"R. H. Hardin, \u003ca href=\"/A274955/b274955.txt\"\u003eTable of n, a(n) for n = 1..210\u003c/a\u003e"
			],
			"formula": [
				"Empirical: a(n) = 6*a(n-1) +4*a(n-3) +13*a(n-4) -74*a(n-5) -8*a(n-6) -4*a(n-8) +8*a(n-9) for n\u003e11"
			],
			"example": [
				"Some solutions for n=4",
				"..0..1..1..0. .0..1..1..0. .0..1..1..2. .0..1..1..2. .0..1..1..0",
				"..1..1..2..0. .2..2..0..0. .2..1..0..0. .2..1..0..0. .2..1..0..0",
				"..1..2..0..1. .2..0..0..1. .2..0..0..1. .1..0..0..1. .1..0..0..1",
				"..2..2..0..1. .1..0..2..2. .0..0..1..1. .1..0..2..2. .0..2..2..1"
			],
			"xref": [
				"Cf. A274959."
			],
			"keyword": "nonn",
			"offset": "1,1",
			"author": "_R. H. Hardin_, Jul 12 2016",
			"references": 1,
			"revision": 4,
			"time": "2016-07-12T08:02:28-04:00",
			"created": "2016-07-12T08:02:28-04:00"
		}
	]
}