{
	"greeting": "Greetings from The On-Line Encyclopedia of Integer Sequences! http://oeis.org/",
	"query": "id:A275911",
	"count": 1,
	"start": 0,
	"results": [
		{
			"number": 275911,
			"data": "1,2,4,16,120,210,216,256,384,2880,6300,7200,15360,15552,26880,27648,32768,49152,73728,83160,120120,189000,510510,921600,1399680,1966080,2365440,2822400,2985984,3440640,4194304,4860000,5670000,6291456,6912000,9437184",
			"name": "Intersection of A025487 and A026477.",
			"reference": [
				"_Don Reble_, Posting to Sequence Fans Mailing List, Aug 26 2016"
			],
			"keyword": "nonn",
			"offset": "1,2",
			"author": "_N. J. A. Sloane_, Aug 26 2016",
			"references": 0,
			"revision": 8,
			"time": "2017-10-19T10:46:18-04:00",
			"created": "2016-08-26T10:40:40-04:00"
		}
	]
}