{
	"greeting": "Greetings from The On-Line Encyclopedia of Integer Sequences! http://oeis.org/",
	"query": "id:A275084",
	"count": 1,
	"start": 0,
	"results": [
		{
			"number": 275084,
			"data": "1,14,192,3088,87924,5038428,512150588,96851464412,34421374000200,22305044857494304,26793208475912331160,59563800755983637416156,244126929061976907515769752",
			"name": "Number of n X n 0..2 arrays with no element equal to any value at offset (0,-2), (-1,-2) or (-2,-1) and new values introduced in order 0..2.",
			"comment": [
				"Diagonal of A275090."
			],
			"example": [
				"Some solutions for n=4",
				"..0..0..1..2. .0..1..2..0. .0..1..1..0. .0..1..1..0. .0..1..2..0",
				"..0..0..1..1. .0..2..1..0. .0..2..1..0. .2..1..1..0. .1..1..2..2",
				"..0..1..1..2. .1..1..2..0. .0..1..2..0. .1..1..0..0. .1..2..2..0",
				"..1..1..2..0. .2..2..0..0. .0..1..1..2. .0..1..2..0. .0..2..2..1"
			],
			"xref": [
				"Cf. A275090."
			],
			"keyword": "nonn",
			"offset": "1,2",
			"author": "_R. H. Hardin_, Jul 16 2016",
			"references": 0,
			"revision": 6,
			"time": "2020-04-21T12:42:39-04:00",
			"created": "2016-07-16T09:17:39-04:00"
		}
	]
}