{
	"greeting": "Greetings from The On-Line Encyclopedia of Integer Sequences! http://oeis.org/",
	"query": "id:A275879",
	"count": 1,
	"start": 0,
	"results": [
		{
			"number": 275879,
			"data": "13,97,193,409,769,2593,4729,6481,12289,15361,55681,331777,417793,737281,786433,2752513,6684673,8650753,36175873,69206017,75079681,155344897,270532609,435486721,824717353,860301577,1380974593,1845657601,3221225473,3255828481,3281584129,8531146753",
			"name": "Nonstandard Jacobi primes.",
			"reference": [
				"J. B. Cosgrave and K. Dilcher, A role for generalized Fermat numbers, Math. Comp., to appear 2016; http://johnbcosgrave.com/publications.php (See paper #10). See Tables 7.4, 7.5.."
			],
			"link": [
				"Dana Jacobsen, \u003ca href=\"/A275879/b275879.txt\"\u003eTable of n, a(n) for n = 1..45\u003c/a\u003e, (from Cosgrave-Dilcher paper)"
			],
			"xref": [
				"Cf. A275878."
			],
			"keyword": "nonn",
			"offset": "1,1",
			"author": "_N. J. A. Sloane_, Aug 17 2016",
			"ext": [
				"a(26)-a(32) from _Vincenzo Librandi_, Aug 18 2016"
			],
			"references": 2,
			"revision": 16,
			"time": "2016-08-18T19:26:54-04:00",
			"created": "2016-08-17T00:25:53-04:00"
		}
	]
}