{
	"greeting": "Greetings from The On-Line Encyclopedia of Integer Sequences! http://oeis.org/",
	"query": "id:A275450",
	"count": 1,
	"start": 0,
	"results": [
		{
			"number": 275450,
			"data": "3,9,21,27,34,35,36,37,38,39,41,42,43,44,45,46,50,51,52,53,56,57,58,59,60,61,62,63,65,66,67,68,69,70,73,74,75,76,77,79,81,82,83,84,85,86,87,88,89,90,91,92,93,94,95,96,97,98,99,103,107",
			"name": "Numbers n such that primorial(n) contains n as a string of digits.",
			"link": [
				"Robert Israel, \u003ca href=\"/A275450/b275450.txt\"\u003eTable of n, a(n) for n = 1..10000\u003c/a\u003e"
			],
			"formula": [
				"A275451(a(n)) \u003e 0."
			],
			"example": [
				"Primorial(3) equals 30, which contains 3, therefore 3 is in the sequence."
			],
			"maple": [
				"count:= 0:",
				"P:= 2; p:= 2;",
				"for n from 2 while count \u003c 1000 do",
				"  p:= nextprime(p);",
				"  P:= P*p;",
				"  if StringTools:-Search(sprintf(\"%d\",n),sprintf(\"%d\",P))\u003c\u003e0 then",
				"     count:= count+1;",
				"     A[count]:= n;",
				"  fi",
				"od:",
				"seq(A[i],i=1..count); # _Robert Israel_, Jul 29 2016"
			],
			"mathematica": [
				"primorial[n_]:=Product[Prime[i],{i,1,n}];",
				"Select[Range@500,StringContainsQ[ToString[primorial[#]],ToString[#]]\u0026]"
			],
			"program": [
				"(Perl) use ntheory \":all\"; my @a275450 = grep { index(pn_primorial($_),$_) \u003e= 0 } 1 .. 1000; say \"@a275450\"; # _Dana Jacobsen_, Aug 09 2016"
			],
			"xref": [
				"Cf. A002110 (primorial numbers), A275451."
			],
			"keyword": "base,easy,nonn",
			"offset": "1,1",
			"author": "_Ivan N. Ianakiev_, Jul 28 2016",
			"references": 2,
			"revision": 15,
			"time": "2016-08-09T14:32:11-04:00",
			"created": "2016-08-08T19:46:44-04:00"
		}
	]
}