{
	"greeting": "Greetings from The On-Line Encyclopedia of Integer Sequences! http://oeis.org/",
	"query": "id:A275188",
	"count": 1,
	"start": 0,
	"results": [
		{
			"number": 275188,
			"data": "27,32,38,44,50,64,90,103,115,125,160,181,187,207,225,325,381,669,778,806,906,1096,1217,1490,1551,1691,1732,1817,1901,2036,2172,2244,2313,2388,2537,2590,2664,2745,2770,2956,3038,3293,3735,3797,3857,4080,4210,4274",
			"name": "Positions of 8 in A274640.",
			"link": [
				"Alois P. Heinz, \u003ca href=\"/A275188/b275188.txt\"\u003eTable of n, a(n) for n = 1..10074\u003c/a\u003e",
				"Alois P. Heinz, \u003ca href=\"/A275188/a275188.jpg\"\u003ePositions of first 1412 8's in plane of A274640\u003c/a\u003e"
			],
			"formula": [
				"A274640(a(n)) = 8."
			],
			"xref": [
				"Cf. A274640, A275172, A275189, A275190, A275191, A275192, A275193, A275194."
			],
			"keyword": "nonn",
			"offset": "1,1",
			"author": "_Zak Seidov_, Jul 19 2016",
			"references": 8,
			"revision": 21,
			"time": "2016-09-01T21:42:48-04:00",
			"created": "2016-07-19T11:38:08-04:00"
		}
	]
}