{
	"greeting": "Greetings from The On-Line Encyclopedia of Integer Sequences! http://oeis.org/",
	"query": "id:A275172",
	"count": 1,
	"start": 0,
	"results": [
		{
			"number": 275172,
			"data": "2,5,16,25,33,40,78,89,158,172,221,237,376,395,415,523,570,749,777,790,876,923,1016,1114,1182,1303,1341,1473,1512,1754,1839,1970,2105,2267,2315,2488,2538,2957,3012,3204,3262,3467,3527,3646,3983,4110,4276,4744,4815",
			"name": "Positions of 3 in A274640.",
			"link": [
				"Alois P. Heinz, \u003ca href=\"/A275172/b275172.txt\"\u003eTable of n, a(n) for n = 1..10074\u003c/a\u003e",
				"Alois P. Heinz, \u003ca href=\"/A275172/a275172.jpg\"\u003ePositions of first 1411 3's in plane of A274640\u003c/a\u003e"
			],
			"formula": [
				"A274640(a(n)) = 3."
			],
			"xref": [
				"Cf. A274640, A273059, A275116, A275188, A275189, A275190, A275191, A275192, A275193, A275194."
			],
			"keyword": "nonn",
			"offset": "1,1",
			"author": "_Zak Seidov_, Jul 19 2016",
			"references": 8,
			"revision": 15,
			"time": "2016-09-01T21:33:05-04:00",
			"created": "2016-07-19T11:07:51-04:00"
		}
	]
}