{
	"greeting": "Greetings from The On-Line Encyclopedia of Integer Sequences! http://oeis.org/",
	"query": "id:A275072",
	"count": 1,
	"start": 0,
	"results": [
		{
			"number": 275072,
			"data": "1,1,1,1,1,1,2,4,8,16,32,80,200,500,1250,3125,9375,28125,84375,253125,759375,2632500,9126000,31636800,109674240,380204032,1484258048,5794315072,22620114608,88305447412,344730881243,1489305334237,6434092503083,27796547414797",
			"name": "Number of set partitions of [n] such that i-j is a multiple of five for all i,j belonging to the same block.",
			"link": [
				"Alois P. Heinz, \u003ca href=\"/A275072/b275072.txt\"\u003eTable of n, a(n) for n = 0..772\u003c/a\u003e",
				"Wikipedia, \u003ca href=\"https://en.wikipedia.org/wiki/Partition_of_a_set\"\u003ePartition of a set\u003c/a\u003e"
			],
			"formula": [
				"a(n) = Product_{i=0..4} A000110(floor((n+i)/5))."
			],
			"example": [
				"a(9) = 16: 16|27|38|49|5, 16|27|38|4|5|9, 16|27|3|49|5|8, 16|27|3|4|5|8|9, 16|2|38|49|5|7, 16|2|38|4|5|7|9, 16|2|3|49|5|7|8, 16|2|3|4|5|7|8|9, 1|27|38|49|5|6, 1|27|38|4|5|6|9, 1|27|3|49|5|6|8, 1|27|3|4|5|6|8|9, 1|2|38|49|5|6|7, 1|2|38|4|5|6|7|9, 1|2|3|49|5|6|7|8, 1|2|3|4|5|6|7|8|9."
			],
			"xref": [
				"Column k=5 of A275069.",
				"Cf. A000110."
			],
			"keyword": "nonn",
			"offset": "0,7",
			"author": "_Alois P. Heinz_, Jul 15 2016",
			"references": 2,
			"revision": 6,
			"time": "2016-07-15T16:54:07-04:00",
			"created": "2016-07-15T15:52:57-04:00"
		}
	]
}