{
	"greeting": "Greetings from The On-Line Encyclopedia of Integer Sequences! http://oeis.org/",
	"query": "id:A275766",
	"count": 1,
	"start": 0,
	"results": [
		{
			"number": 275766,
			"data": "156,3906,97656,2441406,61035156,1525878906,38146972656,953674316406,23841857910156,596046447753906,14901161193847656,372529029846191406,9313225746154785156,232830643653869628906,5820766091346740722656,145519152283668518066406",
			"name": "a(n) = (5^(2*(n + 1)) - 1)/4.",
			"comment": [
				"It seems that these terms are the only numbers n such that n and n + 1 are in A053696."
			],
			"link": [
				"Colin Barker, \u003ca href=\"/A275766/b275766.txt\"\u003eTable of n, a(n) for n = 1..700\u003c/a\u003e",
				"\u003ca href=\"/index/Rec#order_02\"\u003eIndex entries for linear recurrences with constant coefficients\u003c/a\u003e, signature (26,-25)."
			],
			"formula": [
				"a(n) = ((A125831(n+1))^3 - 1)/(A125831(n+1) - 1) - 1.",
				"a(n) = A003463(2*(n+1)).",
				"a(n) = 26*a(n-1) - 25*a(n-2), a(1) = 156, a(2) = 3906.",
				"G.f.: 6*x*(26-25*x) / ((1-x)*(1-25*x)). - _Colin Barker_, Aug 24 2016"
			],
			"example": [
				"3906 written in base 5 is 111111 and 3907 written in base 62 is 111."
			],
			"mathematica": [
				"Table[(5^(2 (n + 1)) - 1)/4, {n, 16}] (* or *)",
				"Rest@ CoefficientList[Series[6 x (26 - 25 x)/((1 - x) (1 - 25 x)), {x, 0, 16}], x] (* _Michael De Vlieger_, Aug 28 2016 *)"
			],
			"program": [
				"(PARI) Vec(6*x*(26-25*x)/((1-x)*(1-25*x)) + O(x^20)) \\\\ _Colin Barker_, Aug 24 2016",
				"(PARI) a(n) = 5^(2*n+2)\\4 \\\\ _Charles R Greathouse IV_, Aug 28 2016"
			],
			"xref": [
				"Cf. A003463, A053696, A125831."
			],
			"keyword": "nonn,easy",
			"offset": "1,1",
			"author": "_Gionata Neri_, Aug 07 2016",
			"references": 1,
			"revision": 15,
			"time": "2016-08-30T04:18:12-04:00",
			"created": "2016-08-28T15:49:03-04:00"
		}
	]
}