{
	"greeting": "Greetings from The On-Line Encyclopedia of Integer Sequences! http://oeis.org/",
	"query": "id:A275930",
	"count": 1,
	"start": 0,
	"results": [
		{
			"number": 275930,
			"data": "5,256,3159,65625,1114112,20421115,363484989,6542701056,117265259375,2105190412273,37769592176640,677792498259891,12162186734914229,218243684178400000,3916209628945328967,70273629018014076105,1261008431526362415104,22627882807257322061611,406040850098667041878125",
			"name": "a(n) = F(n+5)*F(n+2)^5, where F = Fibonacci (A000045).",
			"comment": [
				"The righthand side of Helmut Postl's identity F(2*n+5) + F(n)*F(n+3)^5 = F(n+5)*F(n+2)^5."
			],
			"link": [
				"Colin Barker, \u003ca href=\"/A275930/b275930.txt\"\u003eTable of n, a(n) for n = 0..750\u003c/a\u003e",
				"\u003ca href=\"/index/Rec#order_07\"\u003eIndex entries for linear recurrences with constant coefficients\u003c/a\u003e, signature (13,104,-260,-260,104,13,-1)."
			],
			"formula": [
				"From _Colin Barker_, Aug 31 2016: (Start)",
				"a(n) = 13*a(n-1)+104*a(n-2)-260*a(n-3)-260*a(n-4)+104*a(n-5)+13*a(n-6)-a(n-7) for n\u003e6 .",
				"G.f.: (5+191*x-689*x^2-766*x^3+311*x^4+39*x^5-3*x^6) / ((1+x)*(1-18*x+x^2)*(1-3*x+x^2)*(1+7*x+x^2)).",
				"(End)"
			],
			"mathematica": [
				"Table[(Fibonacci[n + 5] Fibonacci[n + 2]^5), {n, 0, 20}] (* _Vincenzo Librandi_, Sep 02 2016 *)"
			],
			"program": [
				"(PARI) Vec((5+191*x-689*x^2-766*x^3+311*x^4+39*x^5-3*x^6)/((1+x)*(1-18*x+x^2)*(1-3*x+x^2)*(1+7*x+x^2)) + O(x^20)) \\\\ _Colin Barker_, Aug 31 2016",
				"(MAGMA) [Fibonacci(n+5)*Fibonacci(n+2)^5: n in [0..25]]; // _Vincenzo Librandi_, Sep 92 2016"
			],
			"xref": [
				"Cf. A000045."
			],
			"keyword": "nonn",
			"offset": "0,1",
			"author": "_N. J. A. Sloane_, Aug 31 2016",
			"references": 1,
			"revision": 19,
			"time": "2016-09-02T04:07:57-04:00",
			"created": "2016-08-31T10:24:04-04:00"
		}
	]
}