{
	"greeting": "Greetings from The On-Line Encyclopedia of Integer Sequences! http://oeis.org/",
	"query": "id:A276665",
	"count": 1,
	"start": 0,
	"results": [
		{
			"number": 276665,
			"data": "1,2,3,7,27,703,26623",
			"name": "In the '3x+1' problem, these values for the starting value set new records for both the number of steps and the highest point of trajectory before reaching 1.",
			"comment": [
				"Both the 3x+1 steps and the halving steps are counted."
			],
			"link": [
				"José Eduardo Gaboardi de Carvalho, \u003ca href=\"/A276665/a276665.txt\"\u003eJava program\u003c/a\u003e"
			],
			"xref": [
				"Intersection of A006877 and A006884."
			],
			"keyword": "nonn,more",
			"offset": "1,2",
			"author": "_José Eduardo Gaboardi de Carvalho_, Sep 12 2016",
			"references": 1,
			"revision": 14,
			"time": "2016-11-09T12:17:04-05:00",
			"created": "2016-11-05T08:08:05-04:00"
		}
	]
}