{
	"greeting": "Greetings from The On-Line Encyclopedia of Integer Sequences! http://oeis.org/",
	"query": "id:A276679",
	"count": 1,
	"start": 0,
	"results": [
		{
			"number": 276679,
			"data": "1,4,4,6,6,8,4,16,6,8,8,12,6,16,8,10,8,24,4,24,8,8,12,16,9,16,8,24,8,16,4,36,16,8,16,18,4,24,16,16,10,16,8,24,12,16,8,40,6,36,8,12,16,16,8,32,8,16,12,48,6,16,24,14,16,16,8,48,8,16,8,48,8",
			"name": "Number of divisors of the n-th hexagonal number.",
			"link": [
				"Colin Barker, \u003ca href=\"/A276679/b276679.txt\"\u003eTable of n, a(n) for n = 1..1000\u003c/a\u003e"
			],
			"formula": [
				"a(n) = A000005(A000384(n)). - _Omar E. Pol_, Sep 13 2016"
			],
			"example": [
				"a(6) = 8 because the 6th hexagonal number is 66, which has 8 divisors: 1,2,3,6,11,22,33,66."
			],
			"program": [
				"(PARI)",
				"pg(m, n) = (n^2*(m-2)-n*(m-4))/2 \\\\ n-th m-gonal number",
				"vector(100, n, numdiv(pg(6,n)))"
			],
			"xref": [
				"Cf. A000005, A000384.",
				"Number of divisors of m-gonal numbers (m = 3..10): A063440, A048691, A276678, this sequence, A276680, A276681, A276682, A276683."
			],
			"keyword": "nonn",
			"offset": "1,2",
			"author": "_Colin Barker_, Sep 13 2016",
			"references": 6,
			"revision": 18,
			"time": "2016-09-14T05:59:50-04:00",
			"created": "2016-09-13T12:08:10-04:00"
		}
	]
}