{
	"greeting": "Greetings from The On-Line Encyclopedia of Integer Sequences! http://oeis.org/",
	"query": "id:A276566",
	"count": 1,
	"start": 0,
	"results": [
		{
			"number": 276566,
			"data": "5,2,6,5,5,3,6,7,2,3,1,6,3,8,4,1,8,0,7,9,0,9,6,0,4,5,1,9,7,7,4,0,1,1,2,9,9,4,3,5,0,2,8,2,4,8,5,8,7,5,7,0,6,2,1,4,6,8,9,2,6,5,5,3,6,7,2,3,1,6,3,8,4,1,8,0,7,9,0,9,6,0,4,5,1,9",
			"name": "Decimal expansion of 466/885.",
			"comment": [
				"This is the average length of a shortest path between two random points on the infinite Sierpinski gasket of unit side.",
				"The average number of moves in a shortest path between two random configurations in the n-disk Tower of Hanoi is asymptotically (1 + o(1))*466/885*2^n."
			],
			"reference": [
				"A. Hinz, The Tower of Hanoi, L'Enseignement mathématique 35 (1989), 289-321."
			],
			"link": [
				"Burkard Polster, \u003ca href=\"https://www.youtube.com/watch?v=MbonokcLbNo\"\u003eThe ultimate algorithm\u003c/a\u003e, Mathologer video (2021)",
				"T. Chan, \u003ca href=\"http://dx.doi.org/10.1080/00207168908803728\"\u003eA statistical analysis of the Towers of Hanoi problem\u003c/a\u003e, International Journal of Computer Mathematics 28 (1988), 543-623.",
				"A. Hinz, \u003ca href=\"http://dx.doi.org/10.1016/0020-0255(92)90067-I\"\u003eShortest paths between regular states of the Tower of Hanoi\u003c/a\u003e, Information Sciences 63 (1992), 173-181.",
				"A. Hinz and A. Schief, \u003ca href=\"http://dx.doi.org/10.1007/BF01217750\"\u003eThe average distance on the Sierpinski gasket\u003c/a\u003e, Probability Theory and Related Fields 87 (1990), 129-138.",
				"\u003ca href=\"/index/To#Hanoi\"\u003eIndex entries for sequences related to Towers of Hanoi\u003c/a\u003e"
			],
			"example": [
				"466/885 = 0.5265536723... is a repeating decimal with nonperiod length 1 and period length 58.",
				"466/885 = 0.5(2655367231638418079096045197740112994350282485875706214689). - _Andrey Zabolotskiy_, Sep 07 2016"
			],
			"mathematica": [
				"First@ RealDigits@ N[466/885, 120] (* _Michael De Vlieger_, Sep 07 2016 *)"
			],
			"keyword": "nonn,cons,easy",
			"offset": "0,1",
			"author": "_Martin Renner_, Sep 06 2016",
			"references": 0,
			"revision": 24,
			"time": "2021-11-02T22:08:04-04:00",
			"created": "2016-09-07T10:49:54-04:00"
		}
	]
}