{
	"greeting": "Greetings from The On-Line Encyclopedia of Integer Sequences! http://oeis.org/",
	"query": "id:A276995",
	"count": 1,
	"start": 0,
	"results": [
		{
			"number": 276995,
			"data": "1,0,1,0,0,1,0,1,0,1,0,2,4,0,1,0,9,16,9,0,1,0,44,144,54,16,0,1,0,265,1408,729,128,25,0,1,0,1854,16960,10692,2304,250,36,0,1,0,14833,237312,193185,45056,5625,432,49,0,1",
			"name": "Triangle read by rows, T(n,k) = k^(n-k)*(n-k)!*Sum_{j=0..n-k}(-1)^j/j! for 0\u003c=k\u003c=n.",
			"formula": [
				"T(n,k) = k^(n-k)*Gamma(1+n-k,-1)/exp(1)."
			],
			"example": [
				"Triangle starts:",
				"1;",
				"0,    1;",
				"0,    0,     1;",
				"0,    1,     0,     1;",
				"0,    2,     4,     0,    1;",
				"0,    9,    16,     9,    0,   1;",
				"0,   44,   144,    54,   16,   0,  1;",
				"0,  265,  1408,   729,  128,  25,  0,  1;",
				"0, 1854, 16960, 10692, 2304, 250, 36,  0,  1;"
			],
			"maple": [
				"T := (n,k) -\u003e A000166(n-k)*k^(n-k): for n from 0 to 9 do seq(T(n,k), k=0..n) od;"
			],
			"mathematica": [
				"Table[If[n-k == 0, 1, k^(n-k) Subfactorial[n-k]], {n, 0, 10}, {k,0,n}] // Flatten"
			],
			"xref": [
				"Cf. A000166, A277004."
			],
			"keyword": "nonn,tabl",
			"offset": "0,12",
			"author": "_Peter Luschny_, Oct 10 2016",
			"references": 1,
			"revision": 11,
			"time": "2016-10-10T04:19:47-04:00",
			"created": "2016-10-10T04:19:47-04:00"
		}
	]
}