{
	"greeting": "Greetings from The On-Line Encyclopedia of Integer Sequences! http://oeis.org/",
	"query": "id:A276859",
	"count": 1,
	"start": 0,
	"results": [
		{
			"number": 276859,
			"data": "2,3,3,2,3,3,3,2,3,3,2,3,3,3,2,3,3,2,3,3,3,2,3,3,2,3,3,3,2,3,3,2,3,3,3,2,3,3,3,2,3,3,2,3,3,3,2,3,3,2,3,3,3,2,3,3,2,3,3,3,2,3,3,2,3,3,3,2,3,3,2,3,3,3,2,3,3,3,2,3,3,2,3,3,3,2",
			"name": "First differences of the Beatty sequence A022843 for e.",
			"link": [
				"Clark Kimberling, \u003ca href=\"/A276859/b276859.txt\"\u003eTable of n, a(n) for n = 1..10000\u003c/a\u003e"
			],
			"formula": [
				"a(n) = floor(n*r) - floor(n*r - r), where r = e, n \u003e= 1."
			],
			"maple": [
				"A276859:=n-\u003efloor(n*exp(1))-floor((n-1)*exp(1)): seq(A276859(n), n=1..200); # _Wesley Ivan Hurt_, Jan 10 2017"
			],
			"mathematica": [
				"z = 500; r = E; b = Table[Floor[k*r], {k, 0, z}] (* A022843 *)",
				"Differences[b] (* A276859 *)",
				"Differences[Floor[E*Range[0,90]]] (* _Harvey P. Dale_, Nov 24 2016 *)"
			],
			"xref": [
				"Cf. A022843, A276875."
			],
			"keyword": "nonn,easy",
			"offset": "1,1",
			"author": "_Clark Kimberling_, Sep 24 2016",
			"references": 3,
			"revision": 19,
			"time": "2019-01-06T04:54:02-05:00",
			"created": "2016-09-24T10:38:34-04:00"
		}
	]
}