{
	"greeting": "Greetings from The On-Line Encyclopedia of Integer Sequences! http://oeis.org/",
	"query": "id:A276284",
	"count": 1,
	"start": 0,
	"results": [
		{
			"number": 276284,
			"data": "1,1,1,1,1,9,33,385,13825,5474305,8430415841,1398605982547209,30625582893143965429313,3098236789946633955987434183345281,17332850039068891068793031113694107707268123637761",
			"name": "a(0) = a(1) = a(2) = a(3) = a(4) = 1; for n \u003e 4, a(n) = ( a(n-1)+a(n-3)+1 )*( a(n-2)+a(n-4)+1 ) / a(n-5).",
			"link": [
				"Seiichi Manyama, \u003ca href=\"/A276284/b276284.txt\"\u003eTable of n, a(n) for n = 0..21\u003c/a\u003e"
			],
			"formula": [
				"a(n) = (8-4*(-1)^n)*a(n-1)*a(n-3) - a(n-2) - a(n-4) - 1 for n\u003e3."
			],
			"mathematica": [
				"RecurrenceTable[{a[n] == (a[n - 1] + a[n - 3] + 1) (a[n - 2] + a[n - 4] + 1)/a[n - 5], a[0] == a[1] == a[2] == a[3] == a[4] == 1}, a, {n, 0, 14}] (* _Michael De Vlieger_, Aug 27 2016 *)",
				"nxt[{a_,b_,c_,d_,e_}]:={b,c,d,e,(e+c+1) (d+b+1)/a}; NestList[nxt,{1,1,1,1,1},15][[All,1]] (* _Harvey P. Dale_, Dec 14 2021 *)"
			],
			"program": [
				"(Ruby)",
				"def A(m, n)",
				"  a = Array.new(2 * m + 1, 1)",
				"  ary = [1]",
				"  while ary.size \u003c n + 1",
				"    i = (1..m).inject(1){|s, i| s + a[2 * i - 1]} * (1..m).inject(1){|s, i| s + a[2 * i]}",
				"    break if i % a[0] \u003e 0",
				"    a = *a[1..-1], i / a[0]",
				"    ary \u003c\u003c a[0]",
				"  end",
				"  ary",
				"end",
				"def A276284(n)",
				"  A(2, n)",
				"end"
			],
			"xref": [
				"Cf. A276123."
			],
			"keyword": "nonn",
			"offset": "0,6",
			"author": "_Seiichi Manyama_, Aug 27 2016",
			"references": 1,
			"revision": 33,
			"time": "2021-12-14T16:54:01-05:00",
			"created": "2016-08-28T03:31:13-04:00"
		}
	]
}