{
	"greeting": "Greetings from The On-Line Encyclopedia of Integer Sequences! http://oeis.org/",
	"query": "id:A277700",
	"count": 1,
	"start": 0,
	"results": [
		{
			"number": 277700,
			"data": "0,1,1,2,1,1,2,3,1,2,1,3,2,1,3,4,1,3,2,3,1,2,3,3,2,3,1,4,3,1,4,5,1,4,3,3,2,3,3,2,1,1,2,3,3,2,3,3,2,3,3,4,1,3,4,3,3,4,1,5,4,1,5,6,1,5,4,3,3,4,3,3,2,3,3,2,3,3,2,3,1,2,1,3,2,1,3,4,3,3,2,3,3,2,3,3,2,3,3,4,3,3,4,3,1,2,3,3,4,3,3,4,3,3,4,5,1,4,5,3,4",
			"name": "a(n) = A000120(A264977(n)); number of odd terms on row n of A125184.",
			"comment": [
				"Positions of even and odd terms are given by A008585 and A001651, which means that parity-wise the terms match with the Fibonacci numbers, A000045."
			],
			"link": [
				"Antti Karttunen, \u003ca href=\"/A277700/b277700.txt\"\u003eTable of n, a(n) for n = 0..8193\u003c/a\u003e"
			],
			"formula": [
				"a(n) = A000120(A264977(n)).",
				"a(n) = A001221(A277330(n)) = A001222(A277330(n)).",
				"Other identities. For all n \u003e= 0:",
				"a(2n) = a(n).",
				"A000035(a(n)) = A011655(n)."
			],
			"program": [
				"(Scheme) (define (A277700 n) (A000120 (A264977 n)))"
			],
			"xref": [
				"Cf. A000120, A001221, A001222, A125184, A264977, A277330.",
				"Cf. also A000045, A001651, A008585, A011655."
			],
			"keyword": "nonn",
			"offset": "0,4",
			"author": "_Antti Karttunen_, Oct 27 2016",
			"references": 7,
			"revision": 12,
			"time": "2016-10-30T13:44:15-04:00",
			"created": "2016-10-30T13:44:15-04:00"
		}
	]
}