{
	"greeting": "Greetings from The On-Line Encyclopedia of Integer Sequences! http://oeis.org/",
	"query": "id:A277871",
	"count": 1,
	"start": 0,
	"results": [
		{
			"number": 277871,
			"data": "1,4,16,66,279,1203,5275,23474,105853,483108,2229253,10390691,48879588,231879456,1108473015,5335987930,25849521109,125945214309,616833862018,3035286848660,14999774773110,74413424196360,370463714276625,1850251796668899",
			"name": "a(n) = Sum_{i=0..n+1} binomial(2*n-i,n-i+1)*Catalan(i).",
			"comment": [
				"T(2*n+1,n) is diagonal of triangle A125177."
			],
			"link": [
				"Seiichi Manyama, \u003ca href=\"/A277871/b277871.txt\"\u003eTable of n, a(n) for n = 0..1381\u003c/a\u003e"
			],
			"formula": [
				"G.f.: (4*x*(1-sqrt(1-2*(1-sqrt(1-4*x)))))/(1-sqrt(1-4*x))^3/sqrt(1-4*x)-1/x.",
				"a(n) ~ 2^(4*n+1/2) / (sqrt(Pi) * n^(3/2) * 3^(n-3/2)). - _Vaclav Kotesovec_, Nov 05 2016"
			],
			"mathematica": [
				"Table[Sum[Binomial[2*i, i]*Binomial[2*n-i, n-i+1]/(i+1), {i, 0, n+1}], {n, 0, 20}] (* _Vaclav Kotesovec_, Nov 05 2016 *)"
			],
			"program": [
				"(Maxima)",
				"a(n):=sum((binomial(2*i,i)*binomial(2*n-i,n-i+1))/(i+1),i,0,n+1);",
				"(PARI) x='x+O('x^50); Vec((4*x*(1-sqrt(1-2*(1-sqrt(1-4*x)))))/(1-sqrt(1-4*x))^3/sqrt(1-4*x)-1/x) \\\\ _G. C. Greubel_, Apr 09 2017"
			],
			"xref": [
				"Cf. A000108, A125177."
			],
			"keyword": "nonn",
			"offset": "0,2",
			"author": "_Vladimir Kruchinin_, Nov 02 2016",
			"references": 1,
			"revision": 25,
			"time": "2017-04-10T23:00:24-04:00",
			"created": "2016-11-03T08:14:43-04:00"
		}
	]
}