{
	"greeting": "Greetings from The On-Line Encyclopedia of Integer Sequences! http://oeis.org/",
	"query": "id:A277370",
	"count": 1,
	"start": 0,
	"results": [
		{
			"number": 277370,
			"data": "1,3,15,69,2155,34073,876047637,97090036327,420397381695,2125899832395,3177544777277,34434175473881,40845965389135",
			"name": "Positive integers k that divide 7^k + 2.",
			"comment": [
				"All terms are odd.",
				"No other terms below 10^15. Some larger terms: 21419515204636141, 5623143546839445899891, 46186634668308298262543001. - _Max Alekseyev_, Oct 18 2016"
			],
			"formula": [
				"A066438(a(n)) = a(n) - 2 for n \u003e 1."
			],
			"example": [
				"7^3 + 2 = 345 = 3 * 115, so 3 is a term."
			],
			"mathematica": [
				"Select[Range[1, 9999, 2], Divisible[7^# + 2, #] \u0026] (* _Alonso del Arte_, Oct 11 2016 *)"
			],
			"program": [
				"(PARI) is(n) = Mod(7, n)^n==-2 \\\\ _Felix Fröhlich_, Oct 14 2016"
			],
			"xref": [
				"Cf. A066438.",
				"Cf. Solutions to 7^n == k (mod n): A277371 (k=-3), this sequence (k=-2), A015954 (k=-1), A067947 (k=1), A277401 (k=2), A277554 (k=3)."
			],
			"keyword": "nonn,more",
			"offset": "1,2",
			"author": "_Seiichi Manyama_, Oct 11 2016",
			"ext": [
				"a(8)-a(13) from _Max Alekseyev_, Oct 18 2016"
			],
			"references": 6,
			"revision": 34,
			"time": "2021-08-29T12:01:23-04:00",
			"created": "2016-10-16T09:54:50-04:00"
		}
	]
}