{
	"greeting": "Greetings from The On-Line Encyclopedia of Integer Sequences! http://oeis.org/",
	"query": "id:A277739",
	"count": 1,
	"start": 0,
	"results": [
		{
			"number": 277739,
			"data": "1,3,7,30,124,733,4586,33373,259434,2152298",
			"name": "Number of link shadows with n crossings.",
			"link": [
				"J. Cantarella, H. Chapman, M. Mastin, \u003ca href=\"https://arxiv.org/abs/1512.05749\"\u003eKnot Probabilities in Random Diagrams\u003c/a\u003e, arXiv preprint arXiv:1512.05749 [math.GT], 2015. See Tables 1.",
				"Richard Kapolnai, Gabor Domokos, and Timea Szabo, \u003ca href=\"http://dx.doi.org/10.3311/PPee.7074\"\u003eGenerating spherical multiquadrangulations by restricted vertex splittings and the reducibility of equilibrium classes\u003c/a\u003e, Periodica Polytechnica Electrical Engineering, 56(1):11-10, 2012. Also arXiv:1206.1698, 2012"
			],
			"keyword": "nonn,more",
			"offset": "1,2",
			"author": "_N. J. A. Sloane_, Nov 07 2016",
			"references": 0,
			"revision": 13,
			"time": "2016-11-08T15:04:29-05:00",
			"created": "2016-11-07T15:00:05-05:00"
		}
	]
}