{
	"greeting": "Greetings from The On-Line Encyclopedia of Integer Sequences! http://oeis.org/",
	"query": "id:A277366",
	"count": 1,
	"start": 0,
	"results": [
		{
			"number": 277366,
			"data": "1729,670033,6840001,83099521,193708801,321197185,367804801,484662529,1752710401,2320690177,5064928705,12820178449,32220147601,257124585601,270177600001,301036080385,7043394657601,13237329899521,14276860416001,85661522006401,119377939968001",
			"name": "Composite numbers n such that phi(n)*lambda(n) divides (n-1)^2, where phi(n) = A000010(n) and lambda(n) = A002322(n).",
			"comment": [
				"Are there infinitely many such numbers?",
				"Such n must be a Carmichael number since phi(n)*lambda(n) = k*lambda(n)^2 for some integer k. - _Nathan McNew_, Oct 11 2016"
			],
			"link": [
				"Amiram Eldar, \u003ca href=\"/A277366/b277366.txt\"\u003eTable of n, a(n) for n = 1..56\u003c/a\u003e"
			],
			"mathematica": [
				"Select[Range[10^8], CompositeQ[#] \u0026\u0026 Divisible[(# - 1)^2, EulerPhi[#] * CarmichaelLambda[#]] \u0026] (* _Amiram Eldar_, Feb 02 2019 *)"
			],
			"program": [
				"(PARI) lista(nn) = forcomposite(n=4, nn, if (((n-1)^2 % (eulerphi(n)*lcm(znstar(n)[2]))) == 0, print1(n, \", \"));); \\\\ _Michel Marcus_, Oct 11 2016",
				"(PARI) is(n,f=factor(n))=(n-1)^2%(eulerphi(f)*lcm(znstar(f)[2])) == 0 \u0026\u0026 !isprime(n) \u0026\u0026 n\u003e1 \\\\ _Charles R Greathouse IV_, Oct 11 2016"
			],
			"xref": [
				"Subsequence of A002997 and of A173703.",
				"Cf. A000010, A002322, A002997, A173703."
			],
			"keyword": "nonn",
			"offset": "1,1",
			"author": "_Thomas Ordowski_, Oct 11 2016",
			"ext": [
				"a(2)-a(3) from _Michel Marcus_, Oct 11 2016",
				"a(4)-a(8) from _Charles R Greathouse IV_, Oct 11 2016",
				"a(9)-a(13) from _David A. Corneth_, Oct 11 2016",
				"More terms from _Amiram Eldar_, Feb 02 2019"
			],
			"references": 1,
			"revision": 32,
			"time": "2019-02-06T08:58:53-05:00",
			"created": "2016-11-22T21:46:12-05:00"
		}
	]
}