{
	"greeting": "Greetings from The On-Line Encyclopedia of Integer Sequences! http://oeis.org/",
	"query": "id:A277317",
	"count": 1,
	"start": 0,
	"results": [
		{
			"number": 277317,
			"data": "3,6,18,30,270,450,630,2310,6750,9450,22050,510510,727650,2668050,3543750,4961250,25467750,29099070",
			"name": "Numbers n such that A277333(n) is a prime.",
			"comment": [
				"Sequence A277316 sorted into ascending order. See comments in that entry.",
				"Terms k present in A277319 for which A260443(A048675(k)) = k. - _David A. Corneth_ and _Antti Karttunen_, Oct 13 2016"
			],
			"program": [
				"(PARI)",
				"\\\\ Naive program that does not work very far:",
				"A003961(n) = my(f = factor(n)); for (i=1, #f~, f[i, 1] = nextprime(f[i, 1]+1)); factorback(f); \\\\ From _Michel Marcus_",
				"A048675(n) = my(f = factor(n)); sum(k=1, #f~, f[k, 2]*2^primepi(f[k, 1]))/2; \\\\ _Michel Marcus_, Oct 10 2016",
				"A260443(n) = if(n\u003c2, n+1, if(!(n%2), A003961(A260443(n/2)), A260443((n-1)/2) * A260443((n+1)/2)));",
				"A277333(n) = { my(k=A048675(n)); if(A260443(k) == n, k, 0); } ;",
				"isA277317 = n -\u003e isprime(A277333(n));  \\\\ Naive version, very slow.",
				"A061395(n) =  if(1==n, 0, primepi(vecmax(factor(n)[, 1]))); \\\\ After _M. F. Hasler_'s code for A006530.",
				"isA277317(n) = { my(k); if(3==n, 1, if(n%2 || (omega(n) \u003c A061395(n)), 0, k = A048675(n); if((A260443(k) == n), isprime(k), 0))); }; \\\\ Somewhat optimized.",
				"i=0; n=0; while(i \u003c 30, n++; if(isA277317(n), i++; write(\"b277317.txt\", i, \" \", n)));",
				"(Scheme, with _Antti Karttunen_'s IntSeq-library)",
				"(define A277317 (MATCHING-POS 1 1 (lambda (n) (= 1 (A010051 (A277333 n))))))",
				";; Doing search in another order:",
				"(define A277317 (COMPOSE A277319 (MATCHING-POS 1 1 (lambda (n) (= (A260443 (A048675 (A277319 n))) (A277319 n))))))"
			],
			"xref": [
				"Cf. A277316.",
				"Cf. A000040, A010051, A048675, A260443, A277333.",
				"Intersection of A260442 and A277319.",
				"Also, after the initial term, the intersection of A277200 and A277319."
			],
			"keyword": "nonn,more",
			"offset": "1,1",
			"author": "_Antti Karttunen_, Oct 10 2016",
			"references": 6,
			"revision": 29,
			"time": "2016-10-26T15:14:44-04:00",
			"created": "2016-10-26T15:14:44-04:00"
		}
	]
}