{
	"greeting": "Greetings from The On-Line Encyclopedia of Integer Sequences! http://oeis.org/",
	"query": "id:A277413",
	"count": 1,
	"start": 0,
	"results": [
		{
			"number": 277413,
			"data": "1,3,70,4620,599256,128648520,41281606080,18507916627200,11049593741746560,8474451191616009600,8119493428719228192000,9504049395027168805824000,13345312208487981260926464000,22140681034117932250214874624000,42846437958647788197412779939840000,95657301566159892238019686222356480000,244038306493164073323605513327887380480000",
			"name": "E.g.f.: Series_Reversion( x + Sum_{n\u003e=2} (-1)^(n-1) * x^(2*n-1)/(n*(n-1)) )  =  Sum_{n\u003e=1} a(n)*x^(2*n-1)/(2*n-1)!.",
			"example": [
				"E.g.f.: A(x) = x + 3*x^3/3! + 70*x^5/5! + 4620*x^7/7! + 599256*x^9/9! + 128648520*x^11/11! + 41281606080*x^13/13! + 18507916627200*x^15/15! +...",
				"such that",
				"Series_Reversion(A(x)) = x - x^3/(1*2) + x^5/(2*3) - x^7/(3*4) + x^9/(4*5) - x^11/(5*6) + x^13/(6*7) +...+ (-1)^(n-1)*x^(2*n-1)/(n*(n-1)) +..."
			],
			"program": [
				"(PARI) {a(n) = (2*n-1)! * polcoeff( serreverse(x - sum(m=2,n,(-1)^m * x^(2*m-1) / (m*(m-1)) ) +O(x^(2*n+2))), 2*n-1)}",
				"for(n=1,25,print1(a(n),\", \"))"
			],
			"keyword": "nonn",
			"offset": "1,2",
			"author": "_Paul D. Hanna_, Nov 17 2016",
			"references": 0,
			"revision": 7,
			"time": "2016-11-17T00:53:58-05:00",
			"created": "2016-11-17T00:52:48-05:00"
		}
	]
}