{
	"greeting": "Greetings from The On-Line Encyclopedia of Integer Sequences! http://oeis.org/",
	"query": "id:A277704",
	"count": 1,
	"start": 0,
	"results": [
		{
			"number": 277704,
			"data": "1,2,3,4,6,7,8,12,14,15,16,24,28,30,31,32,48,56,60,62,63,64,83,96,112,120,124,126,127,128,166,192,224,240,248,252,254,255,256,332,365,384,448,480,496,504,508,510,511,512,664,730,768,896,960,992,1008,1016,1020,1022,1023,1024,1328,1460,1536,1792,1920,1984,2016",
			"name": "Positions of squares in A277699.",
			"link": [
				"Antti Karttunen, \u003ca href=\"/A277704/b277704.txt\"\u003eTable of n, a(n) for n = 1..311\u003c/a\u003e"
			],
			"program": [
				"(Scheme, with _Antti Karttunen_'s IntSeq-library)",
				"(define A277704 (NONZERO-POS 1 1 (COMPOSE A010052 A277699)))"
			],
			"xref": [
				"Complement: A277706.",
				"Cf. A010052, A065621, A114391, A277699.",
				"Cf. A023758 (a subsequence), A277807 (terms not in A023758).",
				"Differs from A023758(1+n) and A077436(1+n) for the first time at n=23, for which a(23)=83, while A023758(24)=96 and A077436(24)=79."
			],
			"keyword": "nonn",
			"offset": "1,2",
			"author": "_Antti Karttunen_, Nov 01 2016",
			"references": 6,
			"revision": 7,
			"time": "2016-11-05T07:24:36-04:00",
			"created": "2016-11-05T07:24:36-04:00"
		}
	]
}