{
	"greeting": "Greetings from The On-Line Encyclopedia of Integer Sequences! http://oeis.org/",
	"query": "id:A277122",
	"count": 1,
	"start": 0,
	"results": [
		{
			"number": 277122,
			"data": "7,151,1972807,1818989407598411628849054391,21382117680737565169124291737211855035830505403680318251383549467509816267540836044857784735512271804718726595516967",
			"name": "Primes of the form 5^n + 3^n - 1.",
			"comment": [
				"The sequence of corresponding n starts: 1, 3, 9, 39, 165 (A180741).",
				"Primes in A155603. - _Altug Alkan_, Oct 01 2016"
			],
			"xref": [
				"Cf. A000040, A081508, A155603, A180741."
			],
			"keyword": "nonn",
			"offset": "1,1",
			"author": "_Alex Ratushnyak_, Sep 30 2016",
			"references": 0,
			"revision": 10,
			"time": "2016-10-02T00:50:25-04:00",
			"created": "2016-10-02T00:50:25-04:00"
		}
	]
}