{
	"greeting": "Greetings from The On-Line Encyclopedia of Integer Sequences! http://oeis.org/",
	"query": "id:A277856",
	"count": 1,
	"start": 0,
	"results": [
		{
			"number": 277856,
			"data": "1,2,3,4,5,6,7,8,9,11,111,212,216,612,1111,1113,1131,1311,2112,3111,4224,4416,6144,11111,11133,11313,11331,11711,13113,13131,13311,21112,21132,21312,23112,23424,31113,31131,31311,33111,42432,42624,111111,211112,211116",
			"name": "Numbers k such that the product of their digits divides both k and R(k), where R(k) is the digits reverse of k.",
			"comment": [
				"Subsequence of A007602."
			],
			"link": [
				"David A. Corneth, \u003ca href=\"/A277856/b277856.txt\"\u003eTable of n, a(n) for n = 1..1228\u003c/a\u003e (first 200 terms from Paola P. Lava, terms \u003c 10^13)"
			],
			"maple": [
				"R:=proc(w) local x, y, z; x:=w; y:=0; for z from 1 to ilog10(x)+1 do y:=10*y+(x mod 10); x:=trunc(x/10); od; y; end:",
				"P:=proc(q) local a,n; for n from 1 to q do a:=convert(convert(n,base,10),`*`);",
				"if a\u003e0 then if R(n) mod a=0 and n mod a=0 then print(n); fi; fi; od; end: P(10^12);"
			],
			"program": [
				"(PARI) is(n) = { my(d = digits(n), vp = vecprod(d)); if(vp != 0 \u0026\u0026 n%vp == 0 \u0026\u0026 fromdigits(Vecrev(d))%vp == 0, return(1) ); 0 } \\\\ _David A. Corneth_, Mar 30 2021"
			],
			"xref": [
				"Cf. A004086, A007602."
			],
			"keyword": "nonn,base,easy",
			"offset": "1,2",
			"author": "_Paolo P. Lava_, Nov 02 2016",
			"references": 1,
			"revision": 13,
			"time": "2021-03-30T12:02:14-04:00",
			"created": "2016-11-03T08:11:25-04:00"
		}
	]
}