{
	"greeting": "Greetings from The On-Line Encyclopedia of Integer Sequences! http://oeis.org/",
	"query": "id:A277291",
	"count": 1,
	"start": 0,
	"results": [
		{
			"number": 277291,
			"data": "0,4,8,24,16,20,48,42,64,99,40,88,96,117,112,120,0,102,144,76,80,189,0,184,192,100,208,324,0,348,240,372,128,363,272,210,288,444,304,624,320,574,336,258,352,495,0,564,384,588,200,612,416,583,432,440,0,570",
			"name": "Largest number that is n times sum of its digits when written in base 5.",
			"link": [
				"Daniel Mondot, \u003ca href=\"/A277291/b277291.txt\"\u003eTable of n, a(n) for n = 0..37057\u003c/a\u003e"
			],
			"formula": [
				"a(n) = 0 for n in A058901. - _Michel Marcus_, Oct 09 2016"
			],
			"xref": [
				"Cf. A058901, A065880, A277249, A277250, A052489."
			],
			"keyword": "nonn,base,look",
			"offset": "0,2",
			"author": "_Daniel Mondot_, Oct 09 2016",
			"references": 3,
			"revision": 8,
			"time": "2016-11-07T06:17:28-05:00",
			"created": "2016-11-07T06:17:28-05:00"
		}
	]
}