{
	"greeting": "Greetings from The On-Line Encyclopedia of Integer Sequences! http://oeis.org/",
	"query": "id:A278780",
	"count": 1,
	"start": 0,
	"results": [
		{
			"number": 278780,
			"data": "11,21,75,94,98,116,120,125,128,130,133,137,141,142,180,206,231,236,243,248,255,268,292,297,303,305,322,334,340,350,364,386,397,413,415,469,471,487,494,515,550,554,605,606,609,628,631,662,676,692,699,744,745",
			"name": "Numbers n such that A000041(n) is of the form 2^3 * k for odd k.",
			"comment": [
				"Numbers n such that A278478(n) = 3.",
				"Also numbers n such that A000041(n) has three times as many even divisors as odd divisors."
			],
			"link": [
				"Colin Barker, \u003ca href=\"/A278780/b278780.txt\"\u003eTable of n, a(n) for n = 1..1000\u003c/a\u003e"
			],
			"formula": [
				"A000041(a(n)) = A278197(n)."
			],
			"program": [
				"(PARI) isok(n) = valuation(numbpart(n),2)==3;",
				"select(n-\u003eisok(n), vector(1000, n, n))"
			],
			"xref": [
				"Cf. A000041, A278197, A278779, A278781, A278782, A278783, A278784.",
				"Positions of 3's in A278478."
			],
			"keyword": "nonn",
			"offset": "1,1",
			"author": "_Colin Barker_, Nov 28 2016",
			"references": 7,
			"revision": 15,
			"time": "2016-11-29T03:01:42-05:00",
			"created": "2016-11-28T14:36:10-05:00"
		}
	]
}