{
	"greeting": "Greetings from The On-Line Encyclopedia of Integer Sequences! http://oeis.org/",
	"query": "id:A278884",
	"count": 1,
	"start": 0,
	"results": [
		{
			"number": 278884,
			"data": "1,2,30,672,18150,546546,17672928,600935040,21212454582,770748371250,28657235757150,1085694550387200,41778588391394400,1628982594897249312,64234570537702934400,2557710564063135005184,102714012593435476016982,4155894894567674772785250,169274181059121504574121550,6935873114065443534326340000,285716428631735196825345889350,11826871503027977442890882704050,491714173272153004121882711232000",
			"name": "a(n) = binomial(3*n-1,n) * binomial(3*n,n)/(2*n+1).",
			"comment": [
				"Central terms of triangles A278881 and A278882; a(n) = A278881(2*n,n) for n\u003e=0."
			],
			"link": [
				"Seiichi Manyama, \u003ca href=\"/A278884/b278884.txt\"\u003eTable of n, a(n) for n = 0..606\u003c/a\u003e"
			],
			"formula": [
				"4*n^2*(2*n-1)*(2*n+1)*a(n) -9*(3*n-1)^2*(3*n-2)^2*a(n-1)=0. - _R. J. Mathar_, Dec 02 2016"
			],
			"program": [
				"(PARI) {a(n) = binomial(3*n-1,n) * binomial(3*n,n) / (2*n+1)}",
				"for(n=0,20,print1(a(n),\", \"))"
			],
			"xref": [
				"Cf.  A278881, A278882."
			],
			"keyword": "nonn",
			"offset": "0,2",
			"author": "_Paul D. Hanna_, Nov 29 2016",
			"references": 3,
			"revision": 20,
			"time": "2019-02-11T06:56:48-05:00",
			"created": "2016-11-29T23:04:19-05:00"
		}
	]
}