{
	"greeting": "Greetings from The On-Line Encyclopedia of Integer Sequences! http://oeis.org/",
	"query": "id:A278597",
	"count": 1,
	"start": 0,
	"results": [
		{
			"number": 278597,
			"data": "1,2,2,2,3,2,2,3,3,2,2,3,3,3,2,2,3,3,3,3,2,2,3,3,3,3,3,2,2,3,3,3,3,3,3,2,2,3,3,3,3,3,3,3,2,2,3,3,3,3,3,3,3,3,2,2,3,3,3,3,3,3,3,3,3,2,2,3,3,3,3,3,3,3,3,3,3,2,2,3,3,3,3,3,3,3,3,3,3,3,2,2,3,3,3,3,3,3,3,3,3,3,3,3,2",
			"name": "One half of A278481.",
			"comment": [
				"Apart from the left border and the right border, the rest of the elements are 3's."
			],
			"formula": [
				"a(n) = A278481(n)/2."
			],
			"example": [
				"The sequence written as a triangle begins:",
				"                      1;",
				"                    2,  2;",
				"                  2,  3,  2;",
				"                2,  3,  3,  2;",
				"              2,  3,  3,  3,  2;",
				"            2,  3,  3,  3,  3,  2;",
				"          2,  3,  3,  3,  3,  3,  2;",
				"        2,  3,  3,  3,  3,  3,  3,  2;",
				"      2,  3,  3,  3,  3,  3,  3,  3,  2;",
				"    2,  3,  3,  3,  3,  3,  3,  3,  3,  2;",
				"  ..."
			],
			"xref": [
				"Row sums give A016777.",
				"Left border gives A040000, the same as the right border.",
				"Middle column gives A122553.",
				"Every diagonal that is parallel to any of the borders gives the elements greater than 1 of A158799.",
				"Cf. A278481."
			],
			"keyword": "nonn,tabl",
			"offset": "1,2",
			"author": "_Omar E. Pol_, Nov 23 2016",
			"references": 0,
			"revision": 15,
			"time": "2017-06-29T11:46:43-04:00",
			"created": "2016-11-24T09:42:26-05:00"
		}
	]
}