{
	"greeting": "Greetings from The On-Line Encyclopedia of Integer Sequences! http://oeis.org/",
	"query": "id:A278858",
	"count": 1,
	"start": 0,
	"results": [
		{
			"number": 278858,
			"data": "1,0,9,240,36864,7741440,3363235524,2203143038208,2248347011420160,3260265586467690240,6578570637254005920000,17755898734939822501524480,62673017366111480630785474560,282641923592380319367599892725760,1599753679036773033206787507696238848",
			"name": "a(n) = permanent M_n where M_n is the n X n matrix m(i,j) = abs(i^2-j^2).",
			"link": [
				"Vaclav Kotesovec, \u003ca href=\"/A278858/b278858.txt\"\u003eTable of n, a(n) for n = 0..36\u003c/a\u003e"
			],
			"mathematica": [
				"Flatten[{1, Table[Permanent[Table[Abs[i^2-j^2], {i, 1, n}, {j, 1, n}]], {n, 1, 15}]}]"
			],
			"program": [
				"(PARI) {a(n) = matpermanent(matrix(n, n, i, j, abs(i^2-j^2)))}",
				"for(n=0, 20, print1(a(n), \", \")) \\\\ _Vaclav Kotesovec_, Aug 12 2021"
			],
			"xref": [
				"Cf. A085750, A085807, A204249, A278845, A278847, A278857."
			],
			"keyword": "nonn",
			"offset": "0,3",
			"author": "_Vaclav Kotesovec_, Nov 29 2016",
			"references": 2,
			"revision": 9,
			"time": "2021-08-14T07:12:08-04:00",
			"created": "2016-11-29T11:02:24-05:00"
		}
	]
}