{
	"greeting": "Greetings from The On-Line Encyclopedia of Integer Sequences! http://oeis.org/",
	"query": "id:A278193",
	"count": 1,
	"start": 0,
	"results": [
		{
			"number": 278193,
			"data": "0,11794,8803344,7737459027,6545874548694,5537142857552112,4678308031001778581,3951925612543275997042,3338154929554215989823146,2819671588394426773289855424,2381712111047192598048356777986",
			"name": "Number of 6Xn 0..3 arrays with every element plus 1 mod 4 equal to some element at offset (-1,-1) (-1,0) (-1,1) (0,-1) (0,1) or (1,0), with upper left element zero.",
			"comment": [
				"Row 6 of A278188."
			],
			"link": [
				"R. H. Hardin, \u003ca href=\"/A278193/b278193.txt\"\u003eTable of n, a(n) for n = 1..18\u003c/a\u003e"
			],
			"example": [
				"Some solutions for n=2",
				"..0..3. .0..3. .0..1. .0..1. .0..1. .0..2. .0..2. .0..1. .0..1. .0..1",
				"..1..2. .1..2. .1..2. .0..2. .0..2. .1..3. .1..3. .3..2. .0..2. .0..2",
				"..2..0. .1..3. .0..3. .1..3. .2..3. .0..2. .0..0. .1..3. .2..3. .2..3",
				"..3..3. .3..0. .3..2. .0..1. .1..0. .1..3. .3..0. .2..0. .3..1. .3..1",
				"..3..2. .0..2. .3..1. .0..2. .3..1. .1..2. .2..1. .2..3. .0..2. .0..2",
				"..0..1. .1..3. .0..0. .3..3. .0..2. .3..0. .0..3. .1..0. .3..3. .2..3"
			],
			"xref": [
				"Cf. A278188."
			],
			"keyword": "nonn",
			"offset": "1,2",
			"author": "_R. H. Hardin_, Nov 14 2016",
			"references": 1,
			"revision": 4,
			"time": "2016-11-14T22:35:42-05:00",
			"created": "2016-11-14T22:35:42-05:00"
		}
	]
}