{
	"greeting": "Greetings from The On-Line Encyclopedia of Integer Sequences! http://oeis.org/",
	"query": "id:A278730",
	"count": 1,
	"start": 0,
	"results": [
		{
			"number": 278730,
			"data": "155,17352,1410818,99992428,6410559865,374757577056,19983433877142,971720519011047,43159978267689118,1757375854436887414,65916636060336105608,2289699277183162173304,74046423246945148450929",
			"name": "Number of nX4 0..3 arrays with rows in nondecreasing lexicographic order and columns in nonincreasing lexicographic order, but with exactly one mistake.",
			"comment": [
				"Column 4 of A278734."
			],
			"link": [
				"R. H. Hardin, \u003ca href=\"/A278730/b278730.txt\"\u003eTable of n, a(n) for n = 1..133\u003c/a\u003e"
			],
			"example": [
				"Some solutions for n=2",
				"..2..0..3..1. .2..0..2..2. .1..1..2..2. .3..0..3..2. .0..3..1..1",
				"..3..2..0..3. .2..2..2..1. .3..1..2..0. .3..1..0..1. .2..0..1..0"
			],
			"xref": [
				"Cf. A278734."
			],
			"keyword": "nonn",
			"offset": "1,1",
			"author": "_R. H. Hardin_, Nov 27 2016",
			"references": 1,
			"revision": 4,
			"time": "2016-11-27T07:14:31-05:00",
			"created": "2016-11-27T07:14:31-05:00"
		}
	]
}