{
	"greeting": "Greetings from The On-Line Encyclopedia of Integer Sequences! http://oeis.org/",
	"query": "id:A278026",
	"count": 1,
	"start": 0,
	"results": [
		{
			"number": 278026,
			"data": "0,0,1,1,4,14,49,174,626,2276,8346,30821,114495,427481",
			"name": "Number of 1324-avoiding permutations of length n with a non-intersecting boundary of type (t, 2), for some integer t \u003e= 1,",
			"link": [
				"C. Bean, M. Tannock and H. Ulfarsson, \u003ca href=\"http://arxiv.org/abs/1512.08155\"\u003ePattern avoiding permutations and independent sets in graphs\u003c/a\u003e, arXiv:1512.08155 [math.CO], 2015. See Prop. 5.17."
			],
			"keyword": "nonn,more",
			"offset": "0,5",
			"author": "_N. J. A. Sloane_, Nov 09 2016",
			"references": 0,
			"revision": 9,
			"time": "2016-11-09T18:50:10-05:00",
			"created": "2016-11-09T18:44:54-05:00"
		}
	]
}