{
	"greeting": "Greetings from The On-Line Encyclopedia of Integer Sequences! http://oeis.org/",
	"query": "id:A278114",
	"count": 1,
	"start": 0,
	"results": [
		{
			"number": 278114,
			"data": "1,4,7,11,15,20,25,31,37,46,53,61,68,77,87,97,106,118,128,139,152,163,177,190,204,217,231,247,263,278,293,309,326,344,363,377,399,418,436,452,474,492,516,536,558,580,600,623,647,669,692,713,738,765,789,816,842,867",
			"name": "Number of primes \u003c= 2n^2.",
			"comment": [
				"This is the row length sequence for both A278113 and A278115."
			],
			"link": [
				"Jason Kimberley, \u003ca href=\"/A278114/b278114.txt\"\u003eTable of n, a(n) for n = 1..5000\u003c/a\u003e"
			],
			"formula": [
				"a(n) = A000720(A001105(n))."
			],
			"mathematica": [
				"Table[PrimePi[2 n^2], {n, 58}] (* _Michael De Vlieger_, Feb 17 2017 *)"
			],
			"program": [
				"(MAGMA)",
				"A278114:=func\u003cn|#PrimesUpTo(2*n^2)\u003e;",
				"[A278114(n):n in[1..58]];",
				"(PARI) a(n) = primepi(2*n^2); \\\\ _Michel Marcus_, Feb 15 2017"
			],
			"xref": [
				"Cf. A038107, A278100."
			],
			"keyword": "nonn,easy",
			"offset": "1,2",
			"author": "_Jason Kimberley_, Feb 09 2017",
			"references": 5,
			"revision": 13,
			"time": "2017-02-17T10:15:43-05:00",
			"created": "2017-02-16T03:22:10-05:00"
		}
	]
}