{
	"greeting": "Greetings from The On-Line Encyclopedia of Integer Sequences! http://oeis.org/",
	"query": "id:A278877",
	"count": 1,
	"start": 0,
	"results": [
		{
			"number": 278877,
			"data": "1,3,155,11914,728857,42238426,2492016728,147382229321,8704392890599,514207059584879,30367424047335204,1793195869965086337,105893252956708204722,6253339527216096201144,369279138864066223011929,21807048314051213226593407",
			"name": "Number of tilings of a 6 X n rectangle using pentominoes of any shape and monominoes.",
			"link": [
				"Alois P. Heinz, \u003ca href=\"/A278877/b278877.txt\"\u003eTable of n, a(n) for n = 0..300\u003c/a\u003e",
				"Wikipedia, \u003ca href=\"https://en.wikipedia.org/wiki/Pentomino\"\u003ePentomino\u003c/a\u003e"
			],
			"example": [
				"a(1) = 3:",
				"._.   ._.   ._.",
				"|_|   | |   |_|",
				"|_|   | |   | |",
				"|_|   | |   | |",
				"|_|   | |   | |",
				"|_|   |_|   | |",
				"|_|   |_|   |_|  ."
			],
			"xref": [
				"Column k=6 of A278657."
			],
			"keyword": "nonn",
			"offset": "0,2",
			"author": "_Alois P. Heinz_, Nov 29 2016",
			"references": 5,
			"revision": 8,
			"time": "2017-02-06T12:29:02-05:00",
			"created": "2016-11-30T11:49:33-05:00"
		}
	]
}