{
	"greeting": "Greetings from The On-Line Encyclopedia of Integer Sequences! http://oeis.org/",
	"query": "id:A278072",
	"count": 1,
	"start": 0,
	"results": [
		{
			"number": 278072,
			"data": "1,-1,1,1,1,1,-1,4,3,1,1,10,11,5,1,-1,32,37,22,7,1,1,100,128,88,37,9,1,-1,329,444,341,171,56,11,1,1,1101,1558,1297,739,294,79,13,1,-1,3761,5514,4891,3069,1406,465,106,15,1,1,13035,19680,18365,12435,6346,2442,692,137,17,1",
			"name": "Riordan array(1/(1+x), (1-sqrt(1-4*x))/(2*x)).",
			"example": [
				"[   1]",
				"[  -1,   1]",
				"[   1,   1,   1]",
				"[  -1,   4,   3,   1]",
				"[   1,  10,  11,   5,   1]",
				"[  -1,  32,  37,  22,   7,  1]",
				"[   1, 100, 128,  88,  37,  9,  1]",
				"[  -1, 329, 444, 341, 171, 56, 11, 1]"
			],
			"mathematica": [
				"(* The function RiordanArray is defined in A256893. *)",
				"RiordanArray[1/(1+#)\u0026, (1-Sqrt[1-4#])/(2#)\u0026, 11] // Flatten (* _Jean-François Alcover_, Jul 16 2019 *)"
			],
			"program": [
				"(Sage) # uses[riordan_array from A256893]",
				"riordan_array(1/(1+x), (1-sqrt(1-4*x))/(2*x), 8)"
			],
			"xref": [
				"Cf. A033297, A084849."
			],
			"keyword": "sign,tabl",
			"offset": "0,8",
			"author": "_Peter Luschny_, Nov 22 2016",
			"references": 0,
			"revision": 12,
			"time": "2020-03-27T10:55:38-04:00",
			"created": "2016-12-12T16:33:32-05:00"
		}
	]
}