{
	"greeting": "Greetings from The On-Line Encyclopedia of Integer Sequences! http://oeis.org/",
	"query": "id:A278607",
	"count": 1,
	"start": 0,
	"results": [
		{
			"number": 278607,
			"data": "1,16224,5985658,1608427228,371601597959,70116431548595,10962535851392548,1484609498751465944,180746700125333897094,20196427927488082918343,2086680362256607056736883",
			"name": "Number of nX4 0..3 arrays with rows and columns in lexicographic nondecreasing order but with exactly three mistakes.",
			"comment": [
				"Column 4 of A278610."
			],
			"link": [
				"R. H. Hardin, \u003ca href=\"/A278607/b278607.txt\"\u003eTable of n, a(n) for n = 1..132\u003c/a\u003e"
			],
			"example": [
				"Some solutions for n=2",
				"..2..1..3..0. .3..1..2..1. .3..2..2..3. .3..3..1..3. .2..2..0..3",
				"..1..3..0..1. .2..3..2..0. .1..3..0..3. .3..1..0..3. .2..1..0..0"
			],
			"xref": [
				"Cf. A278610."
			],
			"keyword": "nonn",
			"offset": "1,2",
			"author": "_R. H. Hardin_, Nov 23 2016",
			"references": 1,
			"revision": 4,
			"time": "2016-11-23T15:13:36-05:00",
			"created": "2016-11-23T15:13:36-05:00"
		}
	]
}