{
	"greeting": "Greetings from The On-Line Encyclopedia of Integer Sequences! http://oeis.org/",
	"query": "id:A278770",
	"count": 1,
	"start": 0,
	"results": [
		{
			"number": 278770,
			"data": "1,4,159,81296,585396881,61994262028020,98925461617709743975,2414583243140269424293854400,910504281815476426073145299359052745,5341354769384557074743892800174971438265757284,489946515248844365403775650233194419858267427195735348151,705379807799940807283682167156246485805791300481296966713394135535056",
			"name": "Second series of Hankel determinants based on squares of Catalan numbers.",
			"comment": [
				"It would be useful to know the formula for this sequence."
			],
			"formula": [
				"Conjecture: lim n-\u003einfinity log(a(n))/n^2 = 2*log(2). - _Vaclav Kotesovec_, Nov 28 2016"
			],
			"maple": [
				"a:= n-\u003e LinearAlgebra[Determinant](Matrix(n, (i, j)-\u003e",
				"        (t-\u003e (binomial(2*t, t)/(t+1))^2)(i+j))):",
				"seq(a(n), n=0..12);  # _Alois P. Heinz_, May 01 2018"
			],
			"mathematica": [
				"Flatten[{1, Table[Det[Table[(CatalanNumber[i + j])^2, {i, n}, {j, n}]], {n, 11}]}]"
			],
			"xref": [
				"Cf. A000108, A277829."
			],
			"keyword": "nonn",
			"offset": "0,2",
			"author": "_Karol A. Penson_, Nov 28 2016",
			"references": 8,
			"revision": 19,
			"time": "2018-05-01T17:37:59-04:00",
			"created": "2016-11-28T14:26:43-05:00"
		}
	]
}