{
	"greeting": "Greetings from The On-Line Encyclopedia of Integer Sequences! http://oeis.org/",
	"query": "id:A278200",
	"count": 1,
	"start": 0,
	"results": [
		{
			"number": 278200,
			"data": "2323520,37027355200,8030248384943040,55733465144636286656,134508188001572923840,6179690078238084808000,975509982873756796925504,69523232218023552371152320,638864582333908382360557376,1151097146124113726578727360,1204186073016375022219516992",
			"name": "Partition numbers (A000041) of the form 2^6 * k for odd k.",
			"comment": [
				"Also partition numbers having six times as many even divisors as odd divisors."
			],
			"link": [
				"Colin Barker, \u003ca href=\"/A278200/b278200.txt\"\u003eTable of n, a(n) for n = 1..150\u003c/a\u003e"
			],
			"mathematica": [
				"Select[PartitionsP@ Range@ 1500, Count[#, k_ /; EvenQ@ k] == 6 Count[#, k_ /; OddQ@ k] \u0026@ Divisors@ # \u0026] (* _Michael De Vlieger_, Nov 15 2016 *)"
			],
			"program": [
				"(PARI) maxk=1000; L=List(); for(k=1, maxk, p=numbpart(k); if(p%2^6==0 \u0026 p\\2^6%2==1, listput(L, p))); Vec(L)"
			],
			"xref": [
				"Cf. A275029, A278196, A278197, A278198, A278199, A278201."
			],
			"keyword": "nonn",
			"offset": "1,1",
			"author": "_Colin Barker_, Nov 15 2016",
			"references": 7,
			"revision": 12,
			"time": "2016-11-23T10:59:33-05:00",
			"created": "2016-11-23T09:35:58-05:00"
		}
	]
}