{
	"greeting": "Greetings from The On-Line Encyclopedia of Integer Sequences! http://oeis.org/",
	"query": "id:A278680",
	"count": 1,
	"start": 0,
	"results": [
		{
			"number": 278680,
			"data": "1,4,14,40,105,251,570,1226,2540,5075,9855,18630,34439,62340,110805,193624,333235,565415,947040,1567130,2564425,4152535,6658711,10579380,16663755,26033200,40357641,62106290,94912385,144088840,217368655,325945320,485950150,720515475",
			"name": "Expansion of Product_{n\u003e=1} (1 - x^(5*n))/(1 - x^n)^4 in powers of x.",
			"link": [
				"Seiichi Manyama, \u003ca href=\"/A278680/b278680.txt\"\u003eTable of n, a(n) for n = 0..1000\u003c/a\u003e"
			],
			"formula": [
				"G.f.: Product_{n\u003e=1} (1 - x^(5*n))/(1 - x^n)^4.",
				"a(n) ~ 19 * exp(Pi*sqrt(38*n/15)) / (120 * sqrt(10) * n^(3/2)). - _Vaclav Kotesovec_, Nov 10 2017"
			],
			"example": [
				"G.f.: 1 + 4*x + 14*x^2 + 40*x^3 + 105*x^4 + 251*x^5 + 570*x^6 + ..."
			],
			"mathematica": [
				"nmax = 30; CoefficientList[Series[Product[(1 - x^(5*k))/(1 - x^k)^4, {k, 1, nmax}], {x, 0, nmax}], x] (* _Vaclav Kotesovec_, Nov 10 2017 *)"
			],
			"xref": [
				"Cf. Product_{n\u003e=1} (1 - x^(5*n))/(1 - x^n)^k: A035959 (k=1), A160461 (k=2), A278668 (k=3), this sequence (k=4), A277212 (k=5), A182821 (k=6)."
			],
			"keyword": "nonn",
			"offset": "0,2",
			"author": "_Seiichi Manyama_, Nov 25 2016",
			"references": 2,
			"revision": 18,
			"time": "2017-11-10T05:19:25-05:00",
			"created": "2016-11-26T11:33:44-05:00"
		}
	]
}