{
	"greeting": "Greetings from The On-Line Encyclopedia of Integer Sequences! http://oeis.org/",
	"query": "id:A278897",
	"count": 1,
	"start": 0,
	"results": [
		{
			"number": 278897,
			"data": "1,1,14,146275425484,558429168112511379835233509679413804180016",
			"name": "First series of Hankel determinants based on Bell numbers of argument k^2, Bell(k^2).",
			"comment": [
				"If we regard Bell(k^2) as the k-th Stieltjes moment for k\u003e=0, then the solution of the Stieltjes moment problem is given in the P. Blasiak et al. reference, see below. We conjecture that a(n)\u003e0 for n\u003e=0. The positivity of these Hankel determinants a(n), n\u003e=0 is one of the conditions for the existence of a positive solution. Apparently this solution is not unique."
			],
			"link": [
				"P. Blasiak, K. A. Penson and A. I. Solomon, \u003ca href=\"http://arxiv.org/abs/quant-ph/0303030\"\u003eDobinsky-type relations and the log-normal distribution\u003c/a\u003e, J. Phys. A: Math. Gen. 36, L273 (2003), arXiv: quant-ph/0303030."
			],
			"maple": [
				"with(LinearAlgebra), with(combinat):",
				"h20:=(i,j)-\u003ebell((i+j-2)^2):",
				"seq(Determinant(Matrix(kk,kk,h20)),kk=0..6);"
			],
			"mathematica": [
				"Table[Det[Table[BellB[(i + j - 2)^2], {i, n}, {j, n}]], {n, 6",
				"  }], n=\u003e1."
			],
			"xref": [
				"Cf. A000110, A277829, A278770, A278868, A278860."
			],
			"keyword": "nonn",
			"offset": "0,3",
			"author": "_Karol A. Penson_, Nov 30 2016",
			"references": 1,
			"revision": 16,
			"time": "2017-04-07T11:42:58-04:00",
			"created": "2016-11-30T12:57:46-05:00"
		}
	]
}