{
	"greeting": "Greetings from The On-Line Encyclopedia of Integer Sequences! http://oeis.org/",
	"query": "id:A278256",
	"count": 1,
	"start": 0,
	"results": [
		{
			"number": 278256,
			"data": "2,6,12,12,30,30,24,72,60,30,60,60,30,210,240,48,60,60,60,420,210,30,120,360,60,120,360,60,210,210,96,480,210,210,1260,180,30,210,840,120,210,210,60,1260,420,30,240,720,180,420,420,60,120,840,840,840,210,30,420,420,30,420,2880,960,2310,210,60,420,2310,210,360,360,30,420,1260,420,2310",
			"name": "Least number with the same prime signature as the n-th oblong number (A002378).",
			"link": [
				"Antti Karttunen, \u003ca href=\"/A278256/b278256.txt\"\u003eTable of n, a(n) for n = 1..10000\u003c/a\u003e"
			],
			"formula": [
				"a(n) = A046523(A002378(n)).",
				"a(n) = A278259((2*n) + 1)."
			],
			"program": [
				"(Scheme) (define (A278256 n) (A046523 (A002378 n)))"
			],
			"xref": [
				"Odd bisection of A278259.",
				"Cf. A002378, A046523.",
				"Cf. also A278253."
			],
			"keyword": "nonn",
			"offset": "1,1",
			"author": "_Antti Karttunen_, Nov 22 2016",
			"references": 3,
			"revision": 6,
			"time": "2016-11-22T21:50:21-05:00",
			"created": "2016-11-22T21:50:21-05:00"
		}
	]
}