{
	"greeting": "Greetings from The On-Line Encyclopedia of Integer Sequences! http://oeis.org/",
	"query": "id:A279735",
	"count": 1,
	"start": 0,
	"results": [
		{
			"number": 279735,
			"data": "0,2,8,26,80,240,708,2062,5944,16990,48220,136032,381768,1066586,2968040,8230370,22751528,62716752,172447884,473081830,1295113240,3538749862,9652296628,26285128896,71472896400,194075990450,526312559048",
			"name": "Number of n X 2 0..1 arrays with no element equal to a strict majority of its horizontal and antidiagonal neighbors, with the exception of exactly one element, and with new values introduced in order 0 sequentially upwards.",
			"link": [
				"R. H. Hardin, \u003ca href=\"/A279735/b279735.txt\"\u003eTable of n, a(n) for n = 1..210\u003c/a\u003e"
			],
			"formula": [
				"Empirical: a(n) = 6*a(n-1) - 11*a(n-2) + 6*a(n-3) - a(n-4).",
				"Conjectures from _Colin Barker_, Feb 11 2019: (Start)",
				"G.f.: 2*x^2*(1 - 2*x) / (1 - 3*x + x^2)^2.",
				"a(n) = (-1)*(2^(1-n)*(sqrt(5)*((3-sqrt(5))^n-(3+sqrt(5))^n) + 5*(3-sqrt(5))^n*(2+sqrt(5))*n - 5*(-2+sqrt(5))*(3+sqrt(5))^n*n)) / 25.",
				"(End)"
			],
			"example": [
				"Some solutions for n=4:",
				"..0..1. .0..0. .0..1. .0..1. .0..1. .0..0. .0..1. .0..0. .0..1. .0..1",
				"..0..1. .1..1. .0..0. .0..1. .0..0. .1..0. .1..0. .1..0. .0..0. .0..1",
				"..1..0. .0..1. .1..1. .1..1. .0..1. .1..1. .1..1. .1..0. .1..0. .0..0",
				"..1..1. .0..1. .1..0. .0..1. .1..0. .0..1. .1..0. .1..0. .1..1. .1..1"
			],
			"xref": [
				"Column 2 of A279741."
			],
			"keyword": "nonn",
			"offset": "1,2",
			"author": "_R. H. Hardin_, Dec 18 2016",
			"references": 1,
			"revision": 8,
			"time": "2019-02-11T14:22:10-05:00",
			"created": "2016-12-18T07:39:40-05:00"
		}
	]
}