{
	"greeting": "Greetings from The On-Line Encyclopedia of Integer Sequences! http://oeis.org/",
	"query": "id:A279573",
	"count": 1,
	"start": 0,
	"results": [
		{
			"number": 279573,
			"data": "1,1,2,6,23,102,499,2625,14601,84847,510614,3161964,20050770,129718404,853689031,5701759424,38574689104,263936457042,1824032887177,12718193293888,89386742081688,632746535420834,4508140253686638,32308561883462867,232790342330880572",
			"name": "Number of length n inversion sequences avoiding the patterns 120 and 210.",
			"comment": [
				"A length n inversion sequence e_1e_2...e_n is a sequence of integers where 0 \u003c= e_i \u003c= i-1. The term a(n) counts those length n inversion sequences with no entries e_i, e_j, e_k (where i\u003cj\u003ck) such that e_i \u003c\u003e e_j \u003e e_k and e_i \u003e e_k. This is the same as the set of length n inversion sequences avoiding 120 and 210."
			],
			"link": [
				"Alois P. Heinz, \u003ca href=\"/A279573/b279573.txt\"\u003eTable of n, a(n) for n = 0..400\u003c/a\u003e",
				"Megan A. Martinez, Carla D. Savage, \u003ca href=\"https://arxiv.org/abs/1609.08106\"\u003ePatterns in Inversion Sequences II: Inversion Sequences Avoiding Triples of Relations\u003c/a\u003e, arXiv:1609.08106 [math.CO], 2016.",
				"Chunyan Yan, Zhicong Lin, \u003ca href=\"https://arxiv.org/abs/1912.03674\"\u003eInversion sequences avoiding pairs of patterns\u003c/a\u003e, arXiv:1912.03674 [math.CO], 2019."
			],
			"formula": [
				"a(n) ~ c * 8^n / n^(3/2), where c = 0.0013548789253263217919... - _Vaclav Kotesovec_, Oct 07 2021"
			],
			"example": [
				"The length 4 inversion sequences avoiding (120,210) are 0000, 0001, 0002, 0003, 0010, 0011, 0012, 0013, 0020, 0021, 0022, 0023, 0100, 0101, 0102, 0103, 0110, 0111, 0112, 0113, 0121, 0122, 0123."
			],
			"xref": [
				"Cf. A000108, A057552, A263777, A263778, A263779, A263780, A279551, A279552, A279553, A279554, A279555, A279556, A279557, A279558, A279559, A279560, A279561, A279562, A279563, A279564, A279565, A279566, A279567, A279568, A279569, A279570, A279571, A279572."
			],
			"keyword": "nonn",
			"offset": "0,3",
			"author": "_Megan A. Martinez_, Feb 21 2017",
			"ext": [
				"a(10)-a(24) from _Alois P. Heinz_, Feb 21 2017"
			],
			"references": 23,
			"revision": 17,
			"time": "2021-10-07T04:47:26-04:00",
			"created": "2017-02-21T20:54:24-05:00"
		}
	]
}