{
	"greeting": "Greetings from The On-Line Encyclopedia of Integer Sequences! http://oeis.org/",
	"query": "id:A279591",
	"count": 1,
	"start": 0,
	"results": [
		{
			"number": 279591,
			"data": "1,-2,0,3,-2,-4,8,0,-16,16,16,-48,16,79,-108,-52,265,-156,-372,672,80,-1408,1216,1600,-3968,704,7169,-8391,-6000,22463,-10045,-34660,53708,16192,-122112,87120,156688,-325360,7375,636819,-636074,-639771,1883405",
			"name": "Coefficients in the expansion of 1/([r] + [2r]x + [3r]x^2 + ...); [ ] = floor, r = e/2.",
			"link": [
				"Clark Kimberling, \u003ca href=\"/A279591/b279591.txt\"\u003eTable of n, a(n) for n = 0..1000\u003c/a\u003e"
			],
			"formula": [
				"G.f.:  1/([r] + [2r]x + [3r]x^2 + ...); [ ] = floor, r = e/2."
			],
			"mathematica": [
				"z = 30; r = E/2;",
				"f[x_] := f[x] = Sum[Floor[r*(k + 1)] x^k, {k, 0, z}]; f[x]",
				"CoefficientList[Series[1/f[x], {x, 0, 2*z}], x]"
			],
			"program": [
				"(PARI) r = exp(1)/2;",
				"Vec(1/sum(k=0, 70, floor(r*(k + 1))*x^k) + O(x^71)) \\\\ _Indranil Ghosh_, Mar 30 2017"
			],
			"xref": [
				"Cf. A279607."
			],
			"keyword": "sign,easy",
			"offset": "0,2",
			"author": "_Clark Kimberling_, Dec 16 2016",
			"references": 1,
			"revision": 8,
			"time": "2017-03-30T04:30:13-04:00",
			"created": "2016-12-17T17:49:44-05:00"
		}
	]
}