{
	"greeting": "Greetings from The On-Line Encyclopedia of Integer Sequences! http://oeis.org/",
	"query": "id:A279795",
	"count": 1,
	"start": 0,
	"results": [
		{
			"number": 279795,
			"data": "5,7,13,433,571",
			"name": "Numbers n such that F(n) and F(n-2) are both prime where F(n) = A000045(n).",
			"comment": [
				"a(6) \u003e 2904353. - _Daniel Suteu_, Dec 23 2016",
				"Terms n of A001605 such that n-2 is also a term of A001605. Surprisingly, the first 4 terms minus 2, { 3, 5, 11, 431 }, are the first four terms of A101315 which also relates to simultaneously prime { m+2, F(m) and F(m)+2 }, but where F is a different function, m -\u003e (m-1)^2 + 1. - _M. F. Hasler_, Dec 24 2016",
				"Larger primes of the Fibonacci prime pairs in A073340. - _Bobby Jacobs_, Jan 18 2017"
			],
			"formula": [
				"a(n) = A281087(n) + 2. - _Bobby Jacobs_, Jan 18 2017"
			],
			"example": [
				"13 is a term because Fibonacci(13) = 233 and Fibonacci(11) = 89 are both prime."
			],
			"mathematica": [
				"Select[Range[10^4], Times @@ Boole@ Map[PrimeQ@ Fibonacci@ # \u0026, {#, # - 2}] \u003e 0 \u0026] (* _Michael De Vlieger_, Jan 21 2017 *)",
				"Flatten[Position[Partition[Fibonacci[Range[580]],3,1],_?(AllTrue[ {#[[1]],#[[3]]},PrimeQ]\u0026),1,Heads-\u003eFalse]]+2 (* _Harvey P. Dale_, Oct 01 2021 *)"
			],
			"program": [
				"(PARI) isok(n) = isprime(fibonacci(n)) \u0026\u0026 isprime(fibonacci(n-2)); \\\\ _Michel Marcus_, Jan 14 2017"
			],
			"xref": [
				"Cf. A000045, A001605, A006512, A073340, A101315, A281087."
			],
			"keyword": "more,nonn",
			"offset": "1,1",
			"author": "_Altug Alkan_, Dec 18 2016",
			"references": 4,
			"revision": 43,
			"time": "2021-10-01T11:54:23-04:00",
			"created": "2016-12-21T12:46:34-05:00"
		}
	]
}