{
	"greeting": "Greetings from The On-Line Encyclopedia of Integer Sequences! http://oeis.org/",
	"query": "id:A279167",
	"count": 1,
	"start": 0,
	"results": [
		{
			"number": 279167,
			"data": "15,284,7709,203226,5159514,121098448,2708250146,58954576326,1248383818884,25842455526113,526028318802380,10553193022979559,209056148689381340,4097404879908777416,79569078719501719249",
			"name": "Number of nX7 0..1 arrays with no element equal to a strict majority of its king-move neighbors, with the exception of exactly two elements, and with new values introduced in order 0 sequentially upwards.",
			"comment": [
				"Column 7 of A279168."
			],
			"link": [
				"R. H. Hardin, \u003ca href=\"/A279167/b279167.txt\"\u003eTable of n, a(n) for n = 1..55\u003c/a\u003e"
			],
			"example": [
				"Some solutions for n=3",
				"..0..1..1..0..1..1..0. .0..1..0..0..1..0..1. .0..1..0..0..0..1..1",
				"..1..1..0..0..0..1..0. .1..0..1..0..1..0..1. .1..0..1..1..1..0..0",
				"..0..0..1..1..1..0..1. .1..0..1..1..1..0..1. .0..1..1..0..0..1..1"
			],
			"xref": [
				"Cf. A279168."
			],
			"keyword": "nonn",
			"offset": "1,1",
			"author": "_R. H. Hardin_, Dec 07 2016",
			"references": 1,
			"revision": 4,
			"time": "2016-12-07T08:15:17-05:00",
			"created": "2016-12-07T08:15:17-05:00"
		}
	]
}