{
	"greeting": "Greetings from The On-Line Encyclopedia of Integer Sequences! http://oeis.org/",
	"query": "id:A279762",
	"count": 1,
	"start": 0,
	"results": [
		{
			"number": 279762,
			"data": "1,1,13,61,263,1094,4578,18076,69815,262242,965342,3480006,12322360,42896002,147062818,497000146,1657470977,5459160063,17772284155,57225458626,182362100816,575463112191,1799106136923,5575063264825,17130798464652,52216240087807,157937816918539,474197830869573,1413695306175884,4185962563381518",
			"name": "Expansion of Product_{k\u003e=1} 1/(1 - x^k)^(k*(5*k^2-5*k+2)/2).",
			"comment": [
				"Euler transform of the icosahedral numbers (A006564)."
			],
			"link": [
				"M. Bernstein and N. J. A. Sloane, \u003ca href=\"http://arXiv.org/abs/math.CO/0205301\"\u003eSome canonical sequences of integers\u003c/a\u003e, Linear Alg. Applications, 226-228 (1995), 57-72; erratum 320 (2000), 210. [Link to arXiv version]",
				"M. Bernstein and N. J. A. Sloane, \u003ca href=\"/A003633/a003633_1.pdf\"\u003eSome canonical sequences of integers\u003c/a\u003e, Linear Alg. Applications, 226-228 (1995), 57-72; erratum 320 (2000), 210. [Link to Lin. Alg. Applic. version together with omitted figures]",
				"N. J. A. Sloane, \u003ca href=\"/transforms.txt\"\u003eTransforms\u003c/a\u003e",
				"OEIS Wiki, \u003ca href=\"https://oeis.org/wiki/Platonic_numbers\"\u003ePlatonic numbers\u003c/a\u003e"
			],
			"formula": [
				"G.f.: Product_{k\u003e=1} 1/(1 - x^k)^(k*(5*k^2-5*k+2)/2).",
				"a(n) ~ exp(Zeta'(-1) + 5*Zeta(3) / (8*Pi^2) - Pi^16 / (16796160000*Zeta(5)^3) + Pi^8 * Zeta(3) / (648000*Zeta(5)^2) - Zeta(3)^2 / (150*Zeta(5)) + 5*Zeta'(-3)/2 + (-Pi^12/(19440000 * 2^(2/5) * 15^(1/5) * Zeta(5)^(11/5)) + Pi^4 * Zeta(3) / (900 * 2^(2/5) * 15^(1/5) * Zeta(5)^(6/5))) * n^(1/5) + (-Pi^8 / (21600 * 2^(4/5) * 15^(2/5) * Zeta(5)^(7/5)) + Zeta(3) / (2^(4/5) * (15*Zeta(5))^(2/5))) * n^(2/5) + (-Pi^4 / (36 * 2^(1/5) * (15*Zeta(5))^(3/5))) * n^(3/5) + ((5*(15*Zeta(5))^(1/5)) / 2^(8/5)) * n^(4/5)) * (3*Zeta(5))^(9/80) / (2^(11/40) * 5^(31/80) * sqrt(Pi) * n^(49/80)). - _Vaclav Kotesovec_, Nov 09 2017"
			],
			"mathematica": [
				"nmax=29; CoefficientList[Series[Product[1/(1 - x^k)^(k (5 k^2 - 5 k + 2)/2), {k, 1, nmax}], {x, 0, nmax}], x]"
			],
			"xref": [
				"Cf. A000335, A006564, A023872."
			],
			"keyword": "nonn",
			"offset": "0,3",
			"author": "_Ilya Gutkovskiy_, Dec 18 2016",
			"references": 0,
			"revision": 9,
			"time": "2017-11-09T04:46:43-05:00",
			"created": "2016-12-21T10:59:57-05:00"
		}
	]
}