{
	"greeting": "Greetings from The On-Line Encyclopedia of Integer Sequences! http://oeis.org/",
	"query": "id:A279584",
	"count": 1,
	"start": 0,
	"results": [
		{
			"number": 279584,
			"data": "0,3008,547168,86246944,12490527012,1732429706176,232705351295280,30571024321366804,3948460628685790836,503258449385912281884,63463648917297433694668,7933378997893481856831644",
			"name": "Number of 5Xn 0..2 arrays with no element equal to a strict majority of its horizontal and antidiagonal neighbors, with the exception of exactly one element, and with new values introduced in order 0 sequentially upwards.",
			"comment": [
				"Row 5 of A279580."
			],
			"link": [
				"R. H. Hardin, \u003ca href=\"/A279584/b279584.txt\"\u003eTable of n, a(n) for n = 1..25\u003c/a\u003e"
			],
			"example": [
				"Some solutions for n=2",
				"..0..1. .0..0. .0..1. .0..0. .0..1. .0..0. .0..1. .0..0. .0..1. .0..1",
				"..0..0. .1..0. .1..2. .1..0. .2..0. .1..1. .1..2. .1..1. .1..0. .2..2",
				"..0..2. .1..2. .1..2. .2..2. .0..1. .2..0. .1..2. .0..1. .2..1. .0..0",
				"..1..2. .1..0. .1..1. .1..1. .1..1. .2..1. .1..0. .0..2. .1..1. .2..0",
				"..2..1. .1..0. .1..0. .0..2. .2..1. .1..0. .1..1. .1..0. .2..1. .2..2"
			],
			"xref": [
				"Cf. A279580."
			],
			"keyword": "nonn",
			"offset": "1,2",
			"author": "_R. H. Hardin_, Dec 15 2016",
			"references": 1,
			"revision": 4,
			"time": "2016-12-15T11:10:50-05:00",
			"created": "2016-12-15T11:10:50-05:00"
		}
	]
}