{
	"greeting": "Greetings from The On-Line Encyclopedia of Integer Sequences! http://oeis.org/",
	"query": "id:A279065",
	"count": 1,
	"start": 0,
	"results": [
		{
			"number": 279065,
			"data": "1,2,3,4,5,7,11,19,47,169,907,6829,67931,851891,13034887",
			"name": "Fermi-Dirac primeth recurrence: a(0)=1; thereafter a(n+1) = a(n)-th number of the form p^(2^k) where p is prime and k\u003e=0.",
			"comment": [
				"Forgues (see A182979) and Zumkeller (see A213925) describe the increasing sequence of positive integers of the form p^(2^k) where p is prime and k\u003e=0 (A050376 or A084400) as Fermi-Dirac primes, because any positive integer has a unique factorization into distinct terms."
			],
			"link": [
				"OEIS Wiki, \u003ca href=\"/wiki/%22Fermi-Dirac_representation%22_of_n\"\u003e\"Fermi-Dirac representation\" of n\u003c/a\u003e"
			],
			"mathematica": [
				"nn=10000;FDfactor[n_]:=If[n===1,{},Sort[Join@@Cases[FactorInteger[n],{p_,k_}:\u003ePower[p,Cases[Position[IntegerDigits[k,2]//Reverse,1],{m_}-\u003e2^(m-1)]]]]];",
				"FDprimeList=Array[FDfactor,nn,1,Union];",
				"NestWhileList[Part[FDprimeList,#]\u0026,1,#\u003c=Length[FDprimeList]\u0026]"
			],
			"xref": [
				"Cf. A007097, A050376, A084400, A182979, A213925."
			],
			"keyword": "nonn",
			"offset": "0,2",
			"author": "_Gus Wiseman_, Dec 10 2016",
			"references": 16,
			"revision": 37,
			"time": "2016-12-12T09:03:32-05:00",
			"created": "2016-12-12T09:03:32-05:00"
		}
	]
}