{
	"greeting": "Greetings from The On-Line Encyclopedia of Integer Sequences! http://oeis.org/",
	"query": "id:A279403",
	"count": 1,
	"start": 0,
	"results": [
		{
			"number": 279403,
			"data": "1,4,9,16,4,25,8,2,36,16,4,49,24,11,4,64,36,16,6,81,48,27,12,3,100,64,36,19,4,121,80,51,29,13,144,100,64,39,16,6,169,120,83,53,29,8,2,196,144,100,67,36,18,8,225,168,223,82,41,256,196,144,103,64,40",
			"name": "Irregular triangle read by rows: T(n,k) (n\u003e=1, 0 \u003c= k \u003c= n^2) = minimal number of squares not attacked by k queens on an n X n toroidal board, with trailing zeros truncated.",
			"comment": [
				"Row lengths are A279402."
			],
			"formula": [
				"T(n,0) = A000290(n).",
				"T(n,1) = A000290(n)-A047461(n) = A137932(n-1).",
				"T(n,2) = A248825(n-4) for n \u003e= 6."
			],
			"example": [
				"The triangle begins:",
				"1 (0)",
				"4 (0, 0, 0, 0)",
				"9 (0, 0, ...)",
				"16 4 (0, 0, ...)",
				"25 8 2",
				"36 16 4",
				"49 24 11 4",
				"64 36 16 6",
				"81 48 27 12 3",
				"100 64 36 19 4",
				"121 80 51 29 13",
				"144 100 64 39 16 6",
				"169 120 83 53 29 8 2",
				"196 144 100 67 36 18 8",
				"225 168 123 82 41",
				"256 196 144 103 64 40 ..."
			],
			"xref": [
				"Cf. A279402, A279406."
			],
			"keyword": "nonn,tabf",
			"offset": "1,2",
			"author": "_Andrey Zabolotskiy_, Dec 11 2016",
			"references": 2,
			"revision": 10,
			"time": "2017-06-08T16:33:48-04:00",
			"created": "2016-12-15T23:48:25-05:00"
		}
	]
}