{
	"greeting": "Greetings from The On-Line Encyclopedia of Integer Sequences! http://oeis.org/",
	"query": "id:A279009",
	"count": 1,
	"start": 0,
	"results": [
		{
			"number": 279009,
			"data": "1,1,1,-2,0,1,-2,-2,-1,1,4,0,-1,-2,1,4,4,1,1,-3,1,-8,0,3,0,4,-4,1,-8,-8,-3,3,-4,8,-5,1,16,0,-5,-6,7,-12,13,-6,1,16,16,5,1,-13,19,-25,19,-7,1,-32,0,11,4,14,-32,44,-44,26,-8,1",
			"name": "Alternating Jacobsthal triangle A_{-2}(n,k) read by rows.",
			"link": [
				"Kyu-Hwan Lee, Se-jin Oh, \u003ca href=\"http://arxiv.org/abs/1601.06685\"\u003eCatalan triangle numbers and binomial coefficients\u003c/a\u003e, arXiv:1601.06685 [math.CO], 2016."
			],
			"example": [
				"Triangle begins:",
				"1,",
				"1,   1,",
				"-2,  0,  1,",
				"-2, -2, -1,  1,",
				"4,   0, -1, -2,   1,",
				"4,   4,  1,  1,  -3,   1,",
				"-8,  0,  3,  0,   4, - 4,   1,",
				"-8, -8, -3,  3,  -4,   8,  -5,   1,",
				"16,  0, -5, -6,   7, -12,  13,  -6,  1,",
				"16, 16,  5,  1, -13,  19, -25,  19, -7,  1,",
				"-32, 0, 11,  4,  14, -32,  44, -44, 26, -8, 1,",
				"..."
			],
			"mathematica": [
				"a[n_, 0] := (-2)^Floor[n/2]; a[n_, n_] = 1; a[n_, k_] /; 0 \u003c= k \u003c= n := a[n, k] = a[n-1, k-1] - a[n-1, k]; a[_, _] = 0;",
				"Table[a[n, k], {n, 0, 10}, {k, 0, n}] // Flatten (* _Jean-François Alcover_, Oct 05 2018 *)"
			],
			"xref": [
				"Cf. A112468, A279006, A279010."
			],
			"keyword": "sign,tabl",
			"offset": "0,4",
			"author": "_N. J. A. Sloane_, Dec 07 2016",
			"references": 3,
			"revision": 12,
			"time": "2018-10-05T03:47:55-04:00",
			"created": "2016-12-07T23:18:39-05:00"
		}
	]
}