{
	"greeting": "Greetings from The On-Line Encyclopedia of Integer Sequences! http://oeis.org/",
	"query": "id:A279593",
	"count": 1,
	"start": 0,
	"results": [
		{
			"number": 279593,
			"data": "1,-2,1,0,0,0,0,0,-1,3,-3,1,0,0,0,0,0,-1,3,-3,1,0,0,0,1,-4,5,-1,-2,1,0,0,-1,6,-14,15,-6,-1,1,0,0,-1,7,-18,21,-10,0,1,1,-7,18,-18,-3,20,-13,1,0,9,-34,68,-72,29,13,-15,2,0,11,-48,107,-127,69",
			"name": "Coefficients in the expansion of 1/([r] + [2r]x + [3r]x^2 + ...); [ ] = floor, r = sqrt(5)/2.",
			"link": [
				"Clark Kimberling, \u003ca href=\"/A279593/b279593.txt\"\u003eTable of n, a(n) for n = 0..1000\u003c/a\u003e"
			],
			"formula": [
				"G.f.:  1/([r] + [2r]x + [3r]x^2 + ...); [ ] = floor, r = sqrt(5)/2."
			],
			"mathematica": [
				"z = 30; r = Sqrt[5]/2;",
				"f[x_] := f[x] = Sum[Floor[r*(k + 1)] x^k, {k, 0, z}]; f[x]",
				"CoefficientList[Series[1/f[x], {x, 0, 2*z}], x]"
			],
			"program": [
				"(PARI) r = sqrt(5)/2;",
				"Vec(1/sum(k=0, 70, floor(r*(k + 1))*x^k) + O(x^71)) \\\\ _Indranil Ghosh_, Mar 30 2017"
			],
			"xref": [
				"Cf. A279607."
			],
			"keyword": "sign,easy",
			"offset": "0,2",
			"author": "_Clark Kimberling_, Dec 16 2016",
			"references": 1,
			"revision": 9,
			"time": "2017-03-30T04:30:44-04:00",
			"created": "2016-12-17T17:49:55-05:00"
		}
	]
}