{
	"greeting": "Greetings from The On-Line Encyclopedia of Integer Sequences! http://oeis.org/",
	"query": "id:A279743",
	"count": 1,
	"start": 0,
	"results": [
		{
			"number": 279743,
			"data": "0,8,35,106,286,746,1887,4700,11553,28104,67759,162144,385583,912098,2147806,5037496,11773111,27427532,63715400,147634764,341291898,787312776,1812720970,4166252110,9559865376,21903001872,50112866179",
			"name": "Number of 3Xn 0..1 arrays with no element equal to a strict majority of its horizontal and antidiagonal neighbors, with the exception of exactly one element, and with new values introduced in order 0 sequentially upwards.",
			"comment": [
				"Row 3 of A279741."
			],
			"link": [
				"R. H. Hardin, \u003ca href=\"/A279743/b279743.txt\"\u003eTable of n, a(n) for n = 1..210\u003c/a\u003e"
			],
			"formula": [
				"Empirical: a(n) = 6*a(n-1) -13*a(n-2) +10*a(n-3) +10*a(n-4) -30*a(n-5) +21*a(n-6) +2*a(n-7) -14*a(n-8) +10*a(n-9) -7*a(n-10) +6*a(n-11) +6*a(n-12) -2*a(n-13) -a(n-14) -2*a(n-15) -a(n-16) for n\u003e18"
			],
			"example": [
				"Some solutions for n=4",
				"..0..1..0..1. .0..1..1..1. .0..1..0..1. .0..1..0..0. .0..1..0..1",
				"..1..0..0..0. .0..1..0..0. .1..0..0..1. .0..1..1..1. .0..0..0..0",
				"..0..1..1..0. .0..1..1..0. .1..1..0..0. .0..0..0..1. .0..1..1..0"
			],
			"xref": [
				"Cf. A279741."
			],
			"keyword": "nonn",
			"offset": "1,2",
			"author": "_R. H. Hardin_, Dec 18 2016",
			"references": 1,
			"revision": 4,
			"time": "2016-12-18T07:46:22-05:00",
			"created": "2016-12-18T07:46:22-05:00"
		}
	]
}