{
	"greeting": "Greetings from The On-Line Encyclopedia of Integer Sequences! http://oeis.org/",
	"query": "id:A280449",
	"count": 1,
	"start": 0,
	"results": [
		{
			"number": 280449,
			"data": "2,3,5,6,8,11,15,25,38,54,101,105,158,295,303,389,482,558,693,1965,3503,9818,13255,30351,51285,54767,57384,88808,109645,174301,187062",
			"name": "Numbers n such that (2*10^n - 71)/3 is prime.",
			"comment": [
				"For n\u003e1, numbers such that n-2 occurrences of the digit 6 followed by the digits 43 is prime (see Example section).",
				"a(32) \u003e 2*10^5."
			],
			"link": [
				"Makoto Kamada, \u003ca href=\"https://stdkmd.net/nrr\"\u003eFactorization of near-repdigit-related numbers\u003c/a\u003e.",
				"Makoto Kamada, \u003ca href=\"https://stdkmd.net/nrr/prime/primedifficulty.txt\"\u003eSearch for 6w43.\u003c/a\u003e"
			],
			"example": [
				"5 is in this sequence because (2*10^5 - 71) / 3 = 66643 is prime.",
				"Initial terms and primes associated:",
				"a(1) = 2, 43;",
				"a(2) = 3, 643;",
				"a(3) = 5, 66643;",
				"a(4) = 6, 666643;",
				"a(5) = 8, 66666643; etc."
			],
			"mathematica": [
				"Select[Range[2, 100000], PrimeQ[(2*10^# - 71) / 3] \u0026]"
			],
			"program": [
				"(PARI) is(n)=isprime((2*10^n - 71)/3) \\\\ _Charles R Greathouse IV_, Jan 03 2017"
			],
			"xref": [
				"Cf. A056654, A268448, A269303, A270339, A270613, A270831, A270890, A270929, A271269."
			],
			"keyword": "nonn,more,hard",
			"offset": "1,1",
			"author": "_Robert Price_, Jan 03 2017",
			"ext": [
				"a(29) - a(31) from _Robert Price_, Dec 31 2017"
			],
			"references": 0,
			"revision": 10,
			"time": "2019-01-17T13:44:08-05:00",
			"created": "2017-01-03T10:19:11-05:00"
		}
	]
}