{
	"greeting": "Greetings from The On-Line Encyclopedia of Integer Sequences! http://oeis.org/",
	"query": "id:A280432",
	"count": 1,
	"start": 0,
	"results": [
		{
			"number": 280432,
			"data": "2,4,10,30,114,454",
			"name": "Maximum size of a set whose integrity can be checked with n weighings.",
			"comment": [
				"This sequence arises in the following problem: Given a set of binary elements (e.g., coins that may have one of the two weights), determine whether all of them are the same by weighing equally sized non-overlapping subsets n times. a(n) is the maximum size of a set whose integrity can be checked with n weighings.",
				"The next terms are probably a(7) = 2234 and a(8) = 9966 (from the Kozlov/Vu reference). - _Konstantin Knop_, Oct 18 2017",
				"((3^n-1)/2)*(n+1)*n^((n-1)/2) \u003e= a(n) \u003e= 2^((1/2)*n*log(n)-n*(2+o(1))) [Alon\u0026Vu]. - _Andrey Zabolotskiy_, Oct 23 2017"
			],
			"link": [
				" Noga Alon, Dmitry N. Kozlov, \u003ca href=\"https://doi.org/10.1006/jagm.1997.0871\"\u003eCoins with Arbitrary Weights\u003c/a\u003e, Journal of Algorithms, Volume 25, Issue 1, October 1997, Pages 162-176.",
				"Noga Alon, Van H. Vu, \u003ca href=\"https://doi.org/10.1006/jcta.1997.2780\"\u003eAnti-Hadamard Matrices, Coin Weighing, Threshold Gates, and Indecomposable Hypergraphs\u003c/a\u003e, Journal of Combinatorial Theory, Series A, Volume 79, Issue 1, July 1997, Pages 133-160.",
				"IBM Research, \u003ca href=\"https://www.research.ibm.com/haifa/ponderthis/challenges/December2016.html\"\u003ePonder This December 2016 challenge\u003c/a\u003e",
				"IBM Research, \u003ca href=\"https://www.research.ibm.com/haifa/ponderthis/solutions/December2016.html\"\u003eSolutions for n=4 and 5\u003c/a\u003e",
				"Dmitry N. Kozlov, Van H. Vu, \u003ca href=\"https://doi.org/10.1006/jcta.1996.2724\"\u003eCoins and Cones\u003c/a\u003e, Journal of Combinatorial Theory, Series A, Volume 78, Issue 1, April 1997, Pages 1-14 [gives lower bounds for a(n) up to n=15]."
			],
			"keyword": "nonn,more,hard",
			"offset": "1,1",
			"author": "_Serge Batalov_, Jan 02 2017",
			"references": 0,
			"revision": 29,
			"time": "2017-10-28T15:53:56-04:00",
			"created": "2017-01-03T02:39:45-05:00"
		}
	]
}