{
	"greeting": "Greetings from The On-Line Encyclopedia of Integer Sequences! http://oeis.org/",
	"query": "id:A280120",
	"count": 1,
	"start": 0,
	"results": [
		{
			"number": 280120,
			"data": "2,28,168,1030,5802,31608,171100,916768,4882310,25849910,136148532,713757316,3726366076,19383636846,100497836596,519525218302,2678590148146,13777413523624,70710464750916,362190825607320",
			"name": "Number of nX4 0..2 arrays with no element unequal to a strict majority of its horizontal, vertical and antidiagonal neighbors, with the exception of exactly one element, and with new values introduced in order 0 sequentially upwards.",
			"comment": [
				"Column 4 of A280124."
			],
			"link": [
				"R. H. Hardin, \u003ca href=\"/A280120/b280120.txt\"\u003eTable of n, a(n) for n = 1..210\u003c/a\u003e"
			],
			"formula": [
				"Empirical: a(n) = 6*a(n-1) +25*a(n-2) -148*a(n-3) -307*a(n-4) +1228*a(n-5) +2475*a(n-6) -3210*a(n-7) -14762*a(n-8) -9146*a(n-9) +59251*a(n-10) +78496*a(n-11) -107489*a(n-12) -241242*a(n-13) -88943*a(n-14) +526534*a(n-15) +556734*a(n-16) -621460*a(n-17) -529201*a(n-18) -198256*a(n-19) -192232*a(n-20) +1078880*a(n-21) +376432*a(n-22) -508032*a(n-23) +30976*a(n-24) -331776*a(n-25) -28672*a(n-26) +229376*a(n-27) -65536*a(n-28) for n\u003e34"
			],
			"example": [
				"Some solutions for n=4",
				"..0..0..1..1. .0..1..1..1. .0..1..1..1. .0..0..0..0. .0..0..1..1",
				"..0..0..1..0. .0..0..1..1. .0..1..1..1. .1..0..0..0. .0..1..1..1",
				"..0..0..0..0. .0..0..0..1. .1..1..1..0. .2..2..0..0. .0..1..1..1",
				"..0..0..0..0. .0..0..0..1. .1..1..0..0. .2..2..0..0. .0..1..1..1"
			],
			"xref": [
				"Cf. A280124."
			],
			"keyword": "nonn",
			"offset": "1,1",
			"author": "_R. H. Hardin_, Dec 26 2016",
			"references": 1,
			"revision": 4,
			"time": "2016-12-26T07:54:50-05:00",
			"created": "2016-12-26T07:54:50-05:00"
		}
	]
}