{
	"greeting": "Greetings from The On-Line Encyclopedia of Integer Sequences! http://oeis.org/",
	"query": "id:A280751",
	"count": 1,
	"start": 0,
	"results": [
		{
			"number": 280751,
			"data": "1,0,0,0,1,0,0,0,1,0,0,0,2,0,0,0,1,0,1,0,1,0,0,0,2,0,0,0,1,0,0,0,1,0,1,0,1,0,0,0,1,0,0,0,3,0,0,0,2,0,2,0,2,0,0,0,1,0,0,0,1,0,0,0,1,0,1,0,2,0,0,0,1,0,1,0,2,0,0,0,1,0,1,0,1,0,0,0,3,0,0,0,2,0,0,0,2,0,2,0,2",
			"name": "One of a set of five sequences arising in the enumeration of optimal {0,1,-1}-configurations.",
			"comment": [
				"Normally only a bisection of this sequence would be entered (since every second term is zero), but we make an exception here because it is part of a set. (The bisection is A280750.)"
			],
			"link": [
				"Peter J. Grabner and Clemens Heuberger, \u003ca href=\"https://doi.org/10.1007/s10623-005-6158-y\"\u003eOn the number of optimal base 2 representations of integers\u003c/a\u003e, Des. Codes Cryptogr. 40 (2006), no. 1, 25-39.",
				"S. Kropf, S. Wagner, \u003ca href=\"https://arxiv.org/abs/1605.03654\"\u003eq-Quasiadditive functions\u003c/a\u003e, arXiv:1605.03654 [math.CO], 2016."
			],
			"formula": [
				"See Maple code for the five recurrences."
			],
			"maple": [
				"for p from 1 to 5 do u[p][0]:=1; od;",
				"u[1][1]:=1; u[2][1]:=1; u[3][1]:=0; u[4][1]:=0; u[5][1]:=0;",
				"for n from 2 to 100 do",
				"if n mod 2 = 0 then",
				"u[1][n]:=u[1][n/2]; u[2][n]:=u[1][n/2]; u[3][n]:=u[2][n/2]; u[4][n]:=u[1][n/2]; u[5][n]:=u[4][n/2];",
				"else",
				"u[1][n]:=u[2][(n-1)/2]+u[4][(n+1)/2]; u[2][n]:=u[3][(n-1)/2]; u[3][n]:=0; u[4][n]:=u[5][(n-1)/2]; u[5][n]:=0;",
				"fi;",
				"od:",
				"[seq(u[1][n],n=0..100)]; # A280747",
				"[seq(u[2][n],n=0..100)]; # A280748",
				"[seq(u[3][n],n=0..100)]; # A280749",
				"[seq(u[4][n],n=0..100)]; # A280750",
				"[seq(u[5][n],n=0..100)]; # A280751"
			],
			"mathematica": [
				"(* See A280747 *)"
			],
			"xref": [
				"Cf. A280747, A280748, A280749, A280750."
			],
			"keyword": "nonn",
			"offset": "0,13",
			"author": "_N. J. A. Sloane_, Jan 14 2017",
			"references": 5,
			"revision": 16,
			"time": "2018-12-04T07:43:55-05:00",
			"created": "2017-01-14T10:36:55-05:00"
		}
	]
}