{
	"greeting": "Greetings from The On-Line Encyclopedia of Integer Sequences! http://oeis.org/",
	"query": "id:A280771",
	"count": 1,
	"start": 0,
	"results": [
		{
			"number": 280771,
			"data": "2,3,5,6,8,9,12,13,15,16,18,19,21,22,25,26,29,30,32,33,37,38,40,41,45,46,50,51,53,54,56,57,60,61,64,65,67,68,71,72,75,76,78,79,81,82,84,85,88,89,92,93,96,97,99,100,102,103,105,106,109,110,112,113,116,117,122,123,126,127,129,130,133",
			"name": "Positions of even terms in A280864.",
			"comment": [
				"By definition of A280864, this is a sequence of pairs of consecutive numbers, separated by gaps of size at least 1."
			],
			"link": [
				"N. J. A. Sloane, \u003ca href=\"/A280771/b280771.txt\"\u003eTable of n, a(n) for n = 1..10486\u003c/a\u003e"
			],
			"xref": [
				"Cf. A280864, A280770."
			],
			"keyword": "nonn",
			"offset": "1,1",
			"author": "_N. J. A. Sloane_, Jan 17 2017",
			"references": 3,
			"revision": 7,
			"time": "2017-01-17T19:43:29-05:00",
			"created": "2017-01-17T19:35:47-05:00"
		}
	]
}