{
	"greeting": "Greetings from The On-Line Encyclopedia of Integer Sequences! http://oeis.org/",
	"query": "id:A280899",
	"count": 1,
	"start": 0,
	"results": [
		{
			"number": 280899,
			"data": "2,2292,492490,65348136,7083739466,684011230518,61277484218852,5208435552362140,425813044528570428,33785008405748220928,2617623231970413715570,198929682493832699515942",
			"name": "Number of nX5 0..2 arrays with no element equal to more than one of its horizontal and antidiagonal neighbors, with the exception of exactly two elements, and with new values introduced in order 0 sequentially upwards.",
			"comment": [
				"Column 5 of A280902."
			],
			"link": [
				"R. H. Hardin, \u003ca href=\"/A280899/b280899.txt\"\u003eTable of n, a(n) for n = 1..109\u003c/a\u003e"
			],
			"formula": [
				"Empirical: a(n) = 177*a(n-1) -9639*a(n-2) +107900*a(n-3) +2883885*a(n-4) +5871669*a(n-5) -87408440*a(n-6) -250798851*a(n-7) +1108602915*a(n-8) +2445033196*a(n-9) -8693276349*a(n-10) +921374187*a(n-11) +45823231665*a(n-12) -105612340278*a(n-13) -17974034580*a(n-14) +256947247648*a(n-15) -764890720464*a(n-16) +786528800352*a(n-17) -1082015830016*a(n-18) +590857620864*a(n-19) -784830044928*a(n-20) +120654596096*a(n-21) -298074921984*a(n-22) -3182462976*a(n-23) -41854210048*a(n-24) for n\u003e27"
			],
			"example": [
				"Some solutions for n=2",
				"..0..0..1..1..0. .0..0..0..1..2. .0..1..1..2..2. .0..0..1..0..2",
				"..0..1..0..2..2. .0..1..1..2..1. .1..2..1..2..1. .2..1..0..0..0"
			],
			"xref": [
				"Cf. A280902."
			],
			"keyword": "nonn",
			"offset": "1,1",
			"author": "_R. H. Hardin_, Jan 10 2017",
			"references": 1,
			"revision": 4,
			"time": "2017-01-10T10:23:27-05:00",
			"created": "2017-01-10T10:23:27-05:00"
		}
	]
}