{
	"greeting": "Greetings from The On-Line Encyclopedia of Integer Sequences! http://oeis.org/",
	"query": "id:A280541",
	"count": 1,
	"start": 0,
	"results": [
		{
			"number": 280541,
			"data": "1,1,4,10,24,52,125,253,549,1126,2290,4525,8987,17259,33174,62669,117425,217295,399904,726984,1314257,2354807,4191671,7405590,13009916,22696115,39384232,67937488,116584833,199001304,338076500,571507377,961855945,1611567819",
			"name": "G.f.: Product_{i\u003e=1, j\u003e=1} (1 + x^(i*j))^(i*j).",
			"link": [
				"Vaclav Kotesovec, \u003ca href=\"/A280541/b280541.txt\"\u003eTable of n, a(n) for n = 0..10000\u003c/a\u003e"
			],
			"formula": [
				"G.f.: Product_{k\u003e=1} (1 + x^k)^(k*d(k)), where d(k) = number of divisors of k (A000005). - _Ilya Gutkovskiy_, Aug 26 2018",
				"Conjecture: log(a(n)) ~ 3 * Zeta(3)^(1/3) * log(n)^(1/3) * n^(2/3) / 2^(4/3). - _Vaclav Kotesovec_, Aug 29 2018"
			],
			"mathematica": [
				"nmax = 50; CoefficientList[Series[Product[(1+x^(i*j))^(i*j), {i, 1, nmax}, {j, 1, nmax}], {x, 0, nmax}], x]",
				"nmax = 50; s = 1 + x; Do[s *= Sum[Binomial[k*DivisorSigma[0, k], j]*x^(j*k), {j, 0, nmax/k}]; s = Expand[s]; s = Take[s, Min[nmax + 1, Exponent[s, x] + 1, Length[s]]];, {k, 2, nmax}]; CoefficientList[s, x] (* _Vaclav Kotesovec_, Aug 27 2018 *)"
			],
			"xref": [
				"Cf. A000005, A006171, A038040, A061256, A107742, A192065, A280540."
			],
			"keyword": "nonn",
			"offset": "0,3",
			"author": "_Vaclav Kotesovec_, Jan 05 2017",
			"references": 11,
			"revision": 18,
			"time": "2018-08-29T18:03:02-04:00",
			"created": "2017-01-05T14:25:41-05:00"
		}
	]
}