{
	"greeting": "Greetings from The On-Line Encyclopedia of Integer Sequences! http://oeis.org/",
	"query": "id:A280658",
	"count": 1,
	"start": 0,
	"results": [
		{
			"number": 280658,
			"data": "0,1,2,3,4,5,6,7,8,9,91,92,93,94,95,96,97,98,99,181,182,183,184,185,186,187,188,189,271,272,273,274,275,276,277,278,279,361,362,363,364,365,366,367,368,369,451,452,453,454,455,456,457,458,459,541,542,543,544,545,546,547,548,549,631,632,633",
			"name": "Numbers ending with their digital root in decimal representation.",
			"comment": [
				"10% of the nonnegative integers are in the sequence, approximatively."
			],
			"link": [
				"Jean-Marc Falcoz, \u003ca href=\"/A280658/b280658.txt\"\u003eTable of n, a(n) for n = 1..10001\u003c/a\u003e",
				"\u003ca href=\"/index/Rec#order_10\"\u003eIndex entries for linear recurrences with constant coefficients\u003c/a\u003e, signature (1,0,0,0,0,0,0,0,1,-1)."
			],
			"formula": [
				"From _Robert Israel_, Apr 23 2017: (Start)",
				"a(n) = 10*n-19-9*((n-2) mod 9) for n \u003e 1.",
				"G.f.: (x^2+x^3+x^4+x^5+x^6+x^7+x^8+x^9+x^10+81*x^11)/(1-x-x^9+x^10). (End)"
			],
			"example": [
				"The digital root of 91 is 1 and \"1\" is the last digit of \"91\", so 91 is in the sequence.",
				"The digital root of 90 is 9 and \"9\" is not the last digit of \"90\", so 90 is not in the sequence.",
				"The digital root of 92 is 2 and \"2\" is the last digit of \"92\", so 92 is in the sequence.",
				"Etc."
			],
			"maple": [
				"0,seq(10*x-19-9*((x-2) mod 9), x=2..100); # _Robert Israel_, Apr 23 2017"
			],
			"mathematica": [
				"dr[n_]:=NestWhile[Total[IntegerDigits[#]]\u0026,n,#\u003e9\u0026]; Select[Range[ 0,700],Mod[ #,10]==dr[#]\u0026] (* or *) LinearRecurrence[{1,0,0,0,0,0,0,0,1,-1},{0,1,2,3,4,5,6,7,8,9,91},100] (* _Harvey P. Dale_, Aug 20 2021 *)"
			],
			"program": [
				"(PARI) a(n)=if(n==1,0,n--;90*((n-1)\\9)+(n-1)%9+1) \\\\ _David A. Corneth_, Apr 21 2017",
				"(PARI) nxt(n) = if((n-1)%9+1==9\u0026\u0026n,n+82,n+1) \\\\ _David A. Corneth_, Apr 21 2017"
			],
			"xref": [
				"Cf. A010888."
			],
			"keyword": "nonn,base",
			"offset": "1,3",
			"author": "_Eric Angelini_ and _Jean-Marc Falcoz_, Apr 12 2017",
			"references": 2,
			"revision": 23,
			"time": "2021-08-20T17:24:43-04:00",
			"created": "2017-04-21T12:54:05-04:00"
		}
	]
}