{
	"greeting": "Greetings from The On-Line Encyclopedia of Integer Sequences! http://oeis.org/",
	"query": "id:A280192",
	"count": 1,
	"start": 0,
	"results": [
		{
			"number": 280192,
			"data": "1,0,1,1,0,3,1,9,0,19,10,12,114,0,219,31,300,190,2190,0,4231,361,1158,10140,4380,63465,0,130023,2164,26341,46389,451920,148085,2730483,0,6129859,32663,192496,1930852,2381624,27601000,7281288,171636052,0,431723379",
			"name": "Triangle read by rows: T(n,k) = number of topologies on an n-set X such that there are exactly k elements in X that are topologically distinguishable, n\u003e=0, 0\u003c=k\u003c=n.",
			"comment": [
				"T(n,0) = A280202(n) is the number of topologies on an n-set X such that for all x in X there exists a y in X such that x and y have exactly the same neighborhoods."
			],
			"link": [
				"Wikipedia, \u003ca href=\"https://en.wikipedia.org/wiki/Topological_indistinguishability\"\u003eTopological indistinguishability\u003c/a\u003e."
			],
			"formula": [
				"E.g.f.: A(exp(x) - 1 - x + y*x) where A(x) is the e.g.f. for A001035."
			],
			"example": [
				"Triangle begins:",
				"1;",
				"0,    1;",
				"1,    0,     3;",
				"1,    9,     0,     19;",
				"10,   12,    114,   0,      219;",
				"31,   300,   190,   2190,   0,      4231;",
				"361,  1158,  10140, 4380,   63465,  0,       130023;",
				"2164, 26341, 46389, 451920, 148085, 2730483, 0, 6129859;",
				"..."
			],
			"mathematica": [
				"A001035 = Cases[Import[\"https://oeis.org/A001035/b001035.txt\", \"Table\"], {_, _}][[All, 2]];",
				"lg = Length[A001035];",
				"A[x_] = Sum[A001035[[n + 1]] x^n/n!, {n, 0, lg - 1}];",
				"CoefficientList[#, y]\u0026 /@ (CoefficientList[A[Exp[x] - 1 - x + y*x] + O[x]^lg, x]*Range[0, lg - 1]!) // Flatten (* _Jean-François Alcover_, Jan 01 2020 *)"
			],
			"xref": [
				"Right border gives A001035.",
				"Row sums give A000798.",
				"Cf. A280202."
			],
			"keyword": "nonn,tabl",
			"offset": "0,6",
			"author": "_Geoffrey Critzer_, Dec 28 2016",
			"references": 1,
			"revision": 25,
			"time": "2020-01-01T12:06:37-05:00",
			"created": "2016-12-28T17:00:44-05:00"
		}
	]
}