{
	"greeting": "Greetings from The On-Line Encyclopedia of Integer Sequences! http://oeis.org/",
	"query": "id:A280121",
	"count": 1,
	"start": 0,
	"results": [
		{
			"number": 280121,
			"data": "8,80,705,5802,44382,330254,2433834,17647668,127427398,911386034,6487266485,45903055338,323414190242,2268829556858,15859990696273,110499829152634,767646196512392,5318715907077010,36763571759250350",
			"name": "Number of nX5 0..2 arrays with no element unequal to a strict majority of its horizontal, vertical and antidiagonal neighbors, with the exception of exactly one element, and with new values introduced in order 0 sequentially upwards.",
			"comment": [
				"Column 5 of A280124."
			],
			"link": [
				"R. H. Hardin, \u003ca href=\"/A280121/b280121.txt\"\u003eTable of n, a(n) for n = 1..210\u003c/a\u003e",
				"R. H. Hardin, \u003ca href=\"/A280121/a280121.txt\"\u003eEmpirical recurrence of order 86\u003c/a\u003e"
			],
			"formula": [
				"Empirical recurrence of order 86 (see link above)"
			],
			"example": [
				"Some solutions for n=4",
				"..0..0..0..1..0. .0..0..1..0..0. .0..0..1..0..0. .0..0..1..1..1",
				"..2..2..0..0..0. .0..1..1..0..0. .0..1..1..0..0. .0..0..1..1..1",
				"..2..2..0..0..1. .0..1..1..0..0. .2..1..0..0..2. .0..0..1..1..2",
				"..2..2..0..1..1. .1..1..1..0..0. .1..1..0..2..2. .0..2..2..2..2"
			],
			"xref": [
				"Cf. A280124."
			],
			"keyword": "nonn",
			"offset": "1,1",
			"author": "_R. H. Hardin_, Dec 26 2016",
			"references": 1,
			"revision": 4,
			"time": "2016-12-26T07:57:56-05:00",
			"created": "2016-12-26T07:57:56-05:00"
		}
	]
}