{
	"greeting": "Greetings from The On-Line Encyclopedia of Integer Sequences! http://oeis.org/",
	"query": "id:A280805",
	"count": 1,
	"start": 0,
	"results": [
		{
			"number": 280805,
			"data": "0,3,56,332,1578,6540,24490,86010,288426,933792,2940425,9053479,27364145,81436340,239191322,694661663,1997809427,5696648777,16121608346,45319683250,126637762818,351964959409,973463999825,2680515593254",
			"name": "Number of nX3 0..1 arrays with no element equal to more than two of its horizontal, vertical and antidiagonal neighbors, with the exception of exactly two elements, and with new values introduced in order 0 sequentially upwards.",
			"comment": [
				"Column 3 of A280810."
			],
			"link": [
				"R. H. Hardin, \u003ca href=\"/A280805/b280805.txt\"\u003eTable of n, a(n) for n = 1..210\u003c/a\u003e"
			],
			"formula": [
				"Empirical: a(n) = 12*a(n-1) -57*a(n-2) +127*a(n-3) -93*a(n-4) -129*a(n-5) +216*a(n-6) +165*a(n-7) -477*a(n-8) +66*a(n-9) +411*a(n-10) -123*a(n-11) -319*a(n-12) +183*a(n-13) +102*a(n-14) -81*a(n-15) -30*a(n-16) +36*a(n-17) -8*a(n-18) for n\u003e24"
			],
			"example": [
				"Some solutions for n=4",
				"..0..0..1. .0..1..1. .0..0..1. .0..0..0. .0..0..1. .0..0..0. .0..0..0",
				"..0..1..1. .0..1..1. .0..1..0. .1..1..1. .1..1..0. .1..1..1. .0..1..0",
				"..0..0..1. .1..0..0. .1..1..0. .1..0..1. .0..1..1. .0..0..1. .1..1..1",
				"..1..0..0. .0..1..1. .0..1..0. .1..0..0. .0..1..0. .0..0..1. .0..0..0"
			],
			"xref": [
				"Cf. A280810."
			],
			"keyword": "nonn",
			"offset": "1,2",
			"author": "_R. H. Hardin_, Jan 08 2017",
			"references": 1,
			"revision": 4,
			"time": "2017-01-08T09:43:09-05:00",
			"created": "2017-01-08T09:43:09-05:00"
		}
	]
}