{
	"greeting": "Greetings from The On-Line Encyclopedia of Integer Sequences! http://oeis.org/",
	"query": "id:A280507",
	"count": 1,
	"start": 0,
	"results": [
		{
			"number": 280507,
			"data": "0,0,1,1,1,1,0,0,7,7,6,6,6,6,7,7,1,1,0,0,0,0,1,1,6,6,7,7,7,7,6,6,19,19,18,18,18,18,19,19,20,20,21,21,21,21,20,20,18,18,19,19,19,19,18,18,21,21,20,20,20,20,21,21,21,21,20,20,20,20,21,21,18,18,19,19,19,19,18,18,20,20,21,21,21,21,20,20,19,19,18,18,18,18,19,19,6,6",
			"name": "a(n) = n XOR A193231(n).",
			"link": [
				"Antti Karttunen, \u003ca href=\"/A280507/b280507.txt\"\u003eTable of n, a(n) for n = 0..16383\u003c/a\u003e",
				"\u003ca href=\"/index/Bi#binary\"\u003eIndex entries for sequences related to binary expansion of n\u003c/a\u003e",
				"\u003ca href=\"/index/Ge#GF2X\"\u003eIndex entries for sequences operating on polynomials in ring GF(2)[X]\u003c/a\u003e"
			],
			"formula": [
				"a(n) = A003987(n,A193231(n)) = n XOR A193231(n).",
				"Other identities. For all n \u003e= 0:",
				"a(A193231(n)) = a(n)."
			],
			"program": [
				"(PARI)",
				"A193231(n) = { my(x='x); subst(lift(Mod(1, 2)*subst(Pol(binary(n), x), x, 1+x)), x, 2) }; \\\\ From A193231",
				"A280507(n) = bitxor(n,A193231(n)); \\\\ _Antti Karttunen_, Feb 15 2021",
				"(Scheme) (define (A280507 n) (A003987bi n (A193231 n))) ;; Where A003987bi implements A003987 (bitwise-XOR)."
			],
			"xref": [
				"Cf. A003987, A193231, A280501, A280502, A280508.",
				"Cf. A118666 (positions of zeros)."
			],
			"keyword": "nonn,base,look",
			"offset": "0,9",
			"author": "_Antti Karttunen_, Jan 09 2017",
			"references": 3,
			"revision": 13,
			"time": "2021-02-15T22:39:45-05:00",
			"created": "2017-01-10T19:14:37-05:00"
		}
	]
}