{
	"greeting": "Greetings from The On-Line Encyclopedia of Integer Sequences! http://oeis.org/",
	"query": "id:A281666",
	"count": 1,
	"start": 0,
	"results": [
		{
			"number": 281666,
			"data": "1,0,1,2,0,1,2,0,2,4,2,0,2,3,1,4,3,2,6,4,3,5,0,5,9,3,2,7,6,3,11,10,0,9,12,3,11,10,8,11,8,9,9,6,12,19,15,7,15,16,4,20,21,10,23,24,10,16,19,18,20,20,17,24,27,18,28,26,19,33,30,12,33,39,25,36,38,16,32,44,29,41,48,37,41,45,33,39,44,41",
			"name": "Expansion of Sum_{i\u003e=1} x^(i*(i+1)/2)/(1 + x^(i*(i+1)/2)) * Product_{j\u003e=1} (1 + x^(j*(j+1)/2)).",
			"comment": [
				"Total number of parts in all partitions of n into distinct nonzero triangular numbers (A000217)."
			],
			"link": [
				"Vaclav Kotesovec, \u003ca href=\"/A281666/b281666.txt\"\u003eTable of n, a(n) for n = 1..10000\u003c/a\u003e",
				"\u003ca href=\"/index/Par#partN\"\u003eIndex entries for related partition-counting sequences\u003c/a\u003e"
			],
			"formula": [
				"G.f.: Sum_{i\u003e=1} x^(i*(i+1)/2)/(1 + x^(i*(i+1)/2)) * Product_{j\u003e=1} (1 + x^(j*(j+1)/2))."
			],
			"example": [
				"a(10) = 4 because we have [10], [6, 3, 1] and 1 + 3 = 4."
			],
			"mathematica": [
				"nmax = 90; Rest[CoefficientList[Series[Sum[x^(i (i + 1)/2)/(1 + x^(i (i + 1)/2)), {i, 1, nmax}] Product[1 + x^(j (j + 1)/2), {j, 1, nmax}], {x, 0, nmax}], x]]"
			],
			"xref": [
				"Cf. A000217, A015723, A024940, A281542, A281615, A329801."
			],
			"keyword": "nonn",
			"offset": "1,4",
			"author": "_Ilya Gutkovskiy_, Jan 26 2017",
			"references": 1,
			"revision": 8,
			"time": "2021-09-15T03:23:37-04:00",
			"created": "2017-01-27T13:06:46-05:00"
		}
	]
}