{
	"greeting": "Greetings from The On-Line Encyclopedia of Integer Sequences! http://oeis.org/",
	"query": "id:A281596",
	"count": 1,
	"start": 0,
	"results": [
		{
			"number": 281596,
			"data": "0,0,1,6,55,660,9751,170898,3463615,79669320,2050086511,58346365110,1819621847407,61705703989020,2260586259354151,88971796139662842,3743940350046570751,167735288431662235920,7971302827015366403551,400510700317394780627934,21212944650652080893863087",
			"name": "a(n) = ((n-2)^n - 2*(n-1)^n + n^n)/2.",
			"formula": [
				"a(n) ~ n^n*(1/2+(1/2-1/n)*e^(-2)+(1/(2*n)-1)*e^(-1))."
			],
			"maple": [
				"a := n -\u003e ((n-2)^n-2*(n-1)^n+n^n)/2:",
				"seq(a(n), n=0..21);"
			],
			"xref": [
				"Cf. A000312, A045531, A281595."
			],
			"keyword": "nonn",
			"offset": "0,4",
			"author": "_Peter Luschny_, Jan 26 2017",
			"references": 2,
			"revision": 5,
			"time": "2017-01-26T15:08:32-05:00",
			"created": "2017-01-26T13:20:17-05:00"
		}
	]
}