{
	"greeting": "Greetings from The On-Line Encyclopedia of Integer Sequences! http://oeis.org/",
	"query": "id:A281942",
	"count": 1,
	"start": 0,
	"results": [
		{
			"number": 281942,
			"data": "0,1,2,3,4,5,6,7,8,9,12,14,21,23,25,32,36,41,45,47,52,54,56,58,63,65,69,70,74,78,85,87,89,96,98,123,125,145,147,214,236,254,256,258,321,325,365,369,412,452,456,458,470,478,521,523,541,547,563,569,587,589,632,652,654,658,698,741",
			"name": "Nonnegative numbers whose digits can be formed by typing adjacent keys on a 123-456-789-0XX keypad without repeating a digit.",
			"comment": [
				"A subsequence of A010784. - _FUNG Cheok Yin_, Jul 05 2018"
			],
			"link": [
				"FUNG Cheok Yin, \u003ca href=\"/A281942/b281942.txt\"\u003eTable of n, a(n) for n = 1..725\u003c/a\u003e"
			],
			"example": [
				"The keypad is:",
				"+---+---+---+",
				"| 1 | 2 | 3 |",
				"+---+---+---+",
				"| 4 | 5 | 6 |",
				"+---+---+---+",
				"| 7 | 8 | 9 |",
				"+---+---+---+",
				"| 0 | x | x |",
				"+---+---+---+",
				"It is visibly obvious that 470 can be formed on the keypad."
			],
			"xref": [
				"Cf. A010784, A280593, A280594, A280595, A281943, A215009."
			],
			"keyword": "nonn,fini,base,full",
			"offset": "1,3",
			"author": "_FUNG Cheok Yin_, Feb 02 2017",
			"ext": [
				"Initial 0 added by _N. J. A. Sloane_, Feb 05 2017"
			],
			"references": 3,
			"revision": 30,
			"time": "2018-07-08T02:36:33-04:00",
			"created": "2017-02-05T13:28:32-05:00"
		}
	]
}