{
	"greeting": "Greetings from The On-Line Encyclopedia of Integer Sequences! http://oeis.org/",
	"query": "id:A281853",
	"count": 1,
	"start": 0,
	"results": [
		{
			"number": 281853,
			"data": "0,0,1,0,1,2,1,4,3,6,10,8,19,22,26,48,53,78,112,136,205,264,354,504,639,890,1204,1568,2173,2868,3826,5192,6839,9214,12295,16296,21894,28996,38624,51552,68230,90930,120715,159988,212728,281696,373574,495312,655365,868510,1149161,1520020,2011591,2658416,3514446",
			"name": "Expansion of Sum_{k\u003e=2} x^prime(k) / (1 - Sum_{k\u003e=2} x^prime(k))^2.",
			"comment": [
				"Total number of parts in all compositions (ordered partitions) of n into odd primes (A065091)."
			],
			"link": [
				"\u003ca href=\"/index/Com#comp\"\u003eIndex entries for sequences related to compositions\u003c/a\u003e"
			],
			"formula": [
				"G.f.: Sum_{k\u003e=2} x^prime(k) / (1 - Sum_{k\u003e=2} x^prime(k))^2."
			],
			"example": [
				"a(11) = 10 because we have [11], [5, 3, 3], [3, 5, 3], [3, 3, 5] and 1 + 3 + 3 + 3 = 10."
			],
			"mathematica": [
				"nmax = 55; Rest[CoefficientList[Series[Sum[x^Prime[k], {k, 2, nmax}]/(1 - Sum[x^Prime[k], {k, 2, nmax}])^2, {x, 0, nmax}], x]]"
			],
			"xref": [
				"Cf. A002124, A065091, A121304."
			],
			"keyword": "nonn",
			"offset": "1,6",
			"author": "_Ilya Gutkovskiy_, Jan 31 2017",
			"references": 0,
			"revision": 4,
			"time": "2017-02-05T13:17:09-05:00",
			"created": "2017-02-05T13:17:09-05:00"
		}
	]
}