{
	"greeting": "Greetings from The On-Line Encyclopedia of Integer Sequences! http://oeis.org/",
	"query": "id:A281664",
	"count": 1,
	"start": 0,
	"results": [
		{
			"number": 281664,
			"data": "1,2,6,10,18,22,30,42,46,58,66,70,78,82,102,106,126,130,138,150,162,166,178,190,198,210,222,226,238,250,262,270,282,306,310,330,346,358,366,378,382,418,430,438,442,462,466,478,486,490,498,502,522,546,562",
			"name": "Numbers k such that A000005(k) = A000005(A000217(k)).",
			"comment": [
				"Numbers k such that the number of divisors of k is equal to the number of divisors of k*(k+1)/2."
			],
			"link": [
				"Colin Barker, \u003ca href=\"/A281664/b281664.txt\"\u003eTable of n, a(n) for n = 1..1000\u003c/a\u003e"
			],
			"formula": [
				"a(n) = A045326(n) - 1. - _Alois P. Heinz_, Jan 27 2017"
			],
			"maple": [
				"a:= proc(n) option remember; local p; p:= a(n-1)+2;",
				"      while irem(p, 4)\u003c\u003e3 do p:= nextprime(p) od; p-1",
				"    end: a(1):=1:",
				"seq(a(n), n=1..100);  # _Alois P. Heinz_, Jan 27 2017"
			],
			"mathematica": [
				"Select[Range@ 562, DivisorSigma[0, #] == DivisorSigma[0, PolygonalNumber@ #] \u0026] (* _Michael De Vlieger_, Jan 27 2017, Version 10.4 *)"
			],
			"program": [
				"(PARI) select(n-\u003enumdiv(n)==numdiv(n*(n+1)/2), vector(1000, n, n))"
			],
			"xref": [
				"Cf. A000005, A000217, A006093, A045326."
			],
			"keyword": "nonn",
			"offset": "1,2",
			"author": "_Colin Barker_, Jan 26 2017",
			"references": 3,
			"revision": 18,
			"time": "2017-01-27T13:04:26-05:00",
			"created": "2017-01-27T12:32:19-05:00"
		}
	]
}