{
	"greeting": "Greetings from The On-Line Encyclopedia of Integer Sequences! http://oeis.org/",
	"query": "id:A281467",
	"count": 1,
	"start": 0,
	"results": [
		{
			"number": 281467,
			"data": "32,169,87,176,358,706,1422,2858,5793,11986,24812,51020,105433,218415,451445,933860,1933761,4001344,8280221,17142208,35481002,73434221,152010612,314650743,651271763,1348093615,2790464503,5775936332",
			"name": "Number of nX6 0..1 arrays with no element equal to more than two of its horizontal, diagonal or antidiagonal neighbors and with new values introduced in order 0 sequentially upwards.",
			"comment": [
				"Column 6 of A281469."
			],
			"link": [
				"R. H. Hardin, \u003ca href=\"/A281467/b281467.txt\"\u003eTable of n, a(n) for n = 1..210\u003c/a\u003e"
			],
			"formula": [
				"Empirical: a(n) = 2*a(n-1) +3*a(n-3) -4*a(n-4) -4*a(n-5) +a(n-6) -a(n-7) +2*a(n-8) +5*a(n-9) -3*a(n-11) for n\u003e17"
			],
			"example": [
				"Some solutions for n=4",
				"..0..1..1..0..1..0. .0..0..1..0..1..1. .0..0..1..0..1..1. .0..1..0..1..1..0",
				"..0..1..0..0..1..0. .1..0..1..0..1..0. .1..0..1..0..1..0. .0..1..0..1..0..0",
				"..0..1..0..1..1..0. .1..0..1..0..1..1. .1..0..1..0..1..1. .1..1..0..1..0..1",
				"..1..1..0..1..0..0. .0..0..1..0..0..1. .0..1..0..1..0..0. .1..0..0..1..0..1"
			],
			"xref": [
				"Cf. A281469."
			],
			"keyword": "nonn",
			"offset": "1,1",
			"author": "_R. H. Hardin_, Jan 22 2017",
			"references": 1,
			"revision": 4,
			"time": "2017-01-22T07:24:41-05:00",
			"created": "2017-01-22T07:24:41-05:00"
		}
	]
}