{
	"greeting": "Greetings from The On-Line Encyclopedia of Integer Sequences! http://oeis.org/",
	"query": "id:A281296",
	"count": 1,
	"start": 0,
	"results": [
		{
			"number": 281296,
			"data": "0,1,2,8,9,14,15,20,32,37,123,134,135,288,361,414,469,510,6272,11204,11694,16788,20718",
			"name": "Numbers k such that (68*10^k + 1)/3 is prime.",
			"comment": [
				"For k\u003e0, numbers such that the digits 22 followed by k-1 occurrences of the digit 6 followed by the digit 7 is prime (see Example section).",
				"a(24) \u003e 2*10^5."
			],
			"link": [
				"Makoto Kamada, \u003ca href=\"https://stdkmd.net/nrr\"\u003eFactorization of near-repdigit-related numbers\u003c/a\u003e.",
				"Makoto Kamada, \u003ca href=\"https://stdkmd.net/nrr/prime/primedifficulty.txt\"\u003eSearch for 226w7\u003c/a\u003e."
			],
			"example": [
				"2 is in this sequence because (68*10^2 + 1)/3 = 2267 is prime.",
				"Initial terms and primes associated:",
				"a(1) = 0, 23;",
				"a(2) = 1, 227;",
				"a(3) = 2, 2267;",
				"a(4) = 8, 2266666667;",
				"a(5) = 9, 22666666667; etc."
			],
			"mathematica": [
				"Select[Range[0, 100000], PrimeQ[(68*10^# + 1)/3] \u0026]"
			],
			"xref": [
				"Cf. A056654, A268448, A269303, A270339, A270613, A270831, A270890, A270929, A271269."
			],
			"keyword": "nonn,more,hard",
			"offset": "1,3",
			"author": "_Robert Price_, Jan 19 2017",
			"references": 0,
			"revision": 9,
			"time": "2020-02-11T18:50:30-05:00",
			"created": "2017-01-20T13:52:27-05:00"
		}
	]
}