{
	"greeting": "Greetings from The On-Line Encyclopedia of Integer Sequences! http://oeis.org/",
	"query": "id:A281908",
	"count": 1,
	"start": 0,
	"results": [
		{
			"number": 281908,
			"data": "0,1,2,2,3,2,2,3,6,3,3,2,1,0,2,14,13,13,12,8,18,16,14,20,2,23,24,21,19,22,19,15,21,2,25,6,1,26,25,38,33,4,42,19,34,19,14,38,31,18,22,20,14,42,29,13,9,44,38,39,31,9,4,9,25,7,63,22,2,17,7,38,27,44,25",
			"name": "a(n) = (Sum_{k=1..n} C(n,k) mod k) mod n.",
			"link": [
				"Michel Marcus, \u003ca href=\"/A281908/b281908.txt\"\u003eTable of n, a(n) for n = 1..1000\u003c/a\u003e"
			],
			"formula": [
				"a(n) = A076541(n) mod n."
			],
			"program": [
				"(PARI) a(n) = sum(k=1, n, binomial(n, k) % k) % n;"
			],
			"xref": [
				"Cf. A076541, A081371, A280559."
			],
			"keyword": "nonn",
			"offset": "1,3",
			"author": "_Michel Marcus_, Feb 01 2017",
			"references": 1,
			"revision": 7,
			"time": "2017-02-02T02:28:46-05:00",
			"created": "2017-02-01T16:53:16-05:00"
		}
	]
}