{
	"greeting": "Greetings from The On-Line Encyclopedia of Integer Sequences! http://oeis.org/",
	"query": "id:A282930",
	"count": 1,
	"start": 0,
	"results": [
		{
			"number": 282930,
			"data": "1,49,1274,23275,334425,4015011,41818315,387605443,3256150548,25135003348,180196297050,1210028211210,7663549175191,46039891115155,263630633610437,1444741006154614,7604013727493190,38554851707435000,188824087108333495,895363849845490543,4119191297378031000,18420594133878904635,80204828814019528689",
			"name": "Expansion of Product_{k\u003e=1} (1 - x^(7*k))^48/(1 - x^k)^49 in powers of x.",
			"link": [
				"Seiichi Manyama, \u003ca href=\"/A282930/b282930.txt\"\u003eTable of n, a(n) for n = 0..1000\u003c/a\u003e"
			],
			"formula": [
				"G.f.: Product_{n\u003e=1} (1 - x^(7*n))^48/(1 - x^n)^49.",
				"a(n) ~ exp(Pi*sqrt(590*n/21)) * sqrt(295) / (4*sqrt(3) * 7^(49/2) * n). - _Vaclav Kotesovec_, Nov 10 2017"
			],
			"mathematica": [
				"nmax = 20; CoefficientList[Series[Product[(1 - x^(7*k))^48/(1 - x^k)^49, {k, 1, nmax}], {x, 0, nmax}], x] (* _Vaclav Kotesovec_, Nov 10 2017 *)"
			],
			"program": [
				"(PARI) my(N=30, x='x+O('x^N)); Vec(prod(j=1,N, (1 - x^(7*j))^48/(1 - x^j)^49)) \\\\ _G. C. Greubel_, Nov 18 2018",
				"(MAGMA) m:=30; R\u003cx\u003e:=PowerSeriesRing(Integers(), m); Coefficients(R!( (\u0026*[(1 - x^(7*j))^48/(1 - x^j)^49: j in [1..30]]) )); // _G. C. Greubel_, Nov 18 2018",
				"(Sage)",
				"R = PowerSeriesRing(ZZ, 'x')",
				"prec = 30",
				"x = R.gen().O(prec)",
				"s = prod((1 - x^(7*j))^48/(1 - x^j)^49 for j in (1..prec))",
				"print(s.coefficients()) # _G. C. Greubel_, Nov 18 2018"
			],
			"xref": [
				"Cf. A282919."
			],
			"keyword": "nonn",
			"offset": "0,2",
			"author": "_Seiichi Manyama_, Feb 24 2017",
			"references": 2,
			"revision": 30,
			"time": "2020-03-16T09:35:54-04:00",
			"created": "2017-02-25T16:41:36-05:00"
		}
	]
}