{
	"greeting": "Greetings from The On-Line Encyclopedia of Integer Sequences! http://oeis.org/",
	"query": "id:A282166",
	"count": 1,
	"start": 0,
	"results": [
		{
			"number": 282166,
			"data": "1,3,4,7,8,12,13,17,18,22,24,28,30,35,37,42,44,49,51,56,59",
			"name": "a(n) is the minimal sum of a positive integer sequence of length n with no duplicate substrings of length greater than 1, and every number different from its neighbors.",
			"comment": [
				"For example, [1,1] is not a valid sequence because 1 is self-adjacent; [1,2,3,1,2] is not valid because the substring [1,2] appears twice."
			],
			"example": [
				"a(1)  = 1  via [1];",
				"a(2)  = 3  via [1,2];",
				"a(3)  = 4  via [1,2,1];",
				"a(4)  = 7  via [1,2,1,3];",
				"a(5)  = 8  via [1,2,1,3,1];",
				"a(6)  = 12 via [1,2,1,3,1,4];",
				"a(7)  = 13 via [1,2,1,3,1,4,1];",
				"a(8)  = 17 via [1,2,1,3,1,4,2,3];",
				"a(9)  = 18 via [1,2,1,3,2,3,1,4,1];",
				"a(10) = 22 via [1,2,1,3,1,4,2,3,4,1];",
				"a(11) = 24 via [1,2,1,3,2,3,1,4,1,5,1]."
			],
			"mathematica": [
				"Table[Module[{s = Select[Permutations[Range@ n - 1, n], Length@ # \u003e 1 \u0026]}, Total@ First@ MinimalBy[#, Total] \u0026@ DeleteCases[#, w_ /; Apply[Times, If[Length@ # \u003e 0, Rest@ #, #] \u0026@ Union@ Map[SequenceCount[w, #] \u0026, s]] \u003e 1] \u0026@ Apply[Join, Map[MinimalBy[#, Total] \u0026, Table[Select[Tuples[Range@ k, n], Function[w, Times @@ Boole@ {Length@ Union@ w == k, First@ #, If[n \u003e 2, Xor @@ Rest@ #, True]} == 1 \u0026@ Map[Length@ Split@ # == Length@ # \u0026, {w, w[[1 ;; -1 ;; 2]], Rest[w][[1 ;; -1 ;; 2]]}]]], {k, n}]]]], {n, 7}] (* _Michael De Vlieger_, Mar 27 2017, Version 10 *)"
			],
			"xref": [
				"Cf. A259280, A282167, A282168.",
				"Cf. A282169 is the product analog."
			],
			"keyword": "nonn,more",
			"offset": "1,2",
			"author": "_Peter Kagey_, Feb 07 2017",
			"ext": [
				"a(12)-a(21) from _Lars Blomberg_, Jun 10 2017"
			],
			"references": 4,
			"revision": 18,
			"time": "2017-06-10T06:28:53-04:00",
			"created": "2017-02-08T02:06:40-05:00"
		}
	]
}