{
	"greeting": "Greetings from The On-Line Encyclopedia of Integer Sequences! http://oeis.org/",
	"query": "id:A282502",
	"count": 1,
	"start": 0,
	"results": [
		{
			"number": 282502,
			"data": "1,1,1,1,2,3,4,5,7,10,15,21,29,40,57,81,114,159,223,315,445,626,879,1236,1741,2452,3450,4852,6826,9608,13524,19032,26778,37680,53027,74627,105017,147776,207949,292636,411813,579515,815499,1147585,1614917,2272566,3198016,4500318,6332952,8911902,12541080",
			"name": "Expansion of 1/(1 - Sum_{k\u003e=0} x^(3*k*(k+1)/2+1)).",
			"comment": [
				"Number of compositions (ordered partitions) into сentered triangular numbers (A005448).",
				"Conjecture: every number \u003e 1 is the sum of at most 5 сentered triangular numbers."
			],
			"link": [
				"Eric Weisstein's World of Mathematics, \u003ca href=\"http://mathworld.wolfram.com/CenteredTriangularNumber.html\"\u003eCentered Triangular Number\u003c/a\u003e",
				"\u003ca href=\"/index/Ce#CENTRALCUBE\"\u003eIndex entries for sequences related to centered polygonal numbers\u003c/a\u003e",
				"\u003ca href=\"/index/Com#comp\"\u003eIndex entries for sequences related to compositions\u003c/a\u003e"
			],
			"formula": [
				"G.f.: 1/(1 - Sum_{k\u003e=0} x^(3*k*(k+1)/2+1)).",
				"a(n) ~ c / r^n, where r = 0.71061790420456638132596657780064392952867377958... is the root of the equation r^(5/8)*EllipticTheta(2, 0, r^(3/2)) = 2 and c = 0.478786567198436133936216342628844283927491282611910379922933700360643... . - _Vaclav Kotesovec_, Feb 17 2017"
			],
			"example": [
				"a(7) = 5 because we have [4, 1, 1, 1], [1, 4, 1, 1], [1, 1, 4, 1], [1, 1, 1, 4] and [1, 1, 1, 1, 1, 1, 1]."
			],
			"mathematica": [
				"nmax = 50; CoefficientList[Series[1/(1 - Sum[x^(3 k (k + 1)/2 + 1), {k, 0, nmax}]), {x, 0, nmax}], x]"
			],
			"xref": [
				"Cf. A005448, A023361, A280950."
			],
			"keyword": "nonn",
			"offset": "0,5",
			"author": "_Ilya Gutkovskiy_, Feb 16 2017",
			"references": 4,
			"revision": 6,
			"time": "2017-02-17T09:49:28-05:00",
			"created": "2017-02-17T09:49:28-05:00"
		}
	]
}