{
	"greeting": "Greetings from The On-Line Encyclopedia of Integer Sequences! http://oeis.org/",
	"query": "id:A282740",
	"count": 1,
	"start": 0,
	"results": [
		{
			"number": 282740,
			"data": "5,10,13,17,28",
			"name": "Ramsey number R(K_4 - edge, K_n - edge).",
			"link": [
				"S. Radziszowski, \u003ca href=\"http://www.combinatorics.org/ojs/index.php/eljc/article/view/DS1\"\u003eSmall Ramsey Numbers\u003c/a\u003e, Electronic Journal of Combinatorics, Dynamic Survey #DS1, Mar 3, 2017."
			],
			"keyword": "nonn,hard,more",
			"offset": "3,1",
			"author": "_N. J. A. Sloane_, Mar 04 2017",
			"references": 0,
			"revision": 9,
			"time": "2017-03-05T17:01:44-05:00",
			"created": "2017-03-04T13:19:04-05:00"
		}
	]
}