{
	"greeting": "Greetings from The On-Line Encyclopedia of Integer Sequences! http://oeis.org/",
	"query": "id:A282039",
	"count": 1,
	"start": 0,
	"results": [
		{
			"number": 282039,
			"data": "3,33,60,138,315,390,663,1008,1425,1743,2280,2475,3108,3570,4323,4590,6045,8055,8418,9168,11610,12045,13398,14340,14823,15813,22425,23028,24885,26163,32310,33033,34503,35250,42333,43995,46548,49173,51870,52785,58443,60393,61380,66435,67470,70623",
			"name": "Let p = n-th prime == 7 mod 8; a(n) = sum of quadratic residues mod p that are \u003c p/2.",
			"link": [
				"Robert Israel, \u003ca href=\"/A282039/b282039.txt\"\u003eTable of n, a(n) for n = 1..10000\u003c/a\u003e",
				"Aebi, Christian, and Grant Cairns. \u003ca href=\"http://arxiv.org/abs/1512.00896\"\u003eSums of Quadratic residues and nonresidues\u003c/a\u003e, arXiv preprint arXiv:1512.00896 (2015)."
			],
			"maple": [
				"with(numtheory):",
				"Ql:=[]; Qu:=[]; Q:=[]; Nl:=[]; Nu:=[]; N:=[];",
				"for i1 from 1 to 300 do",
				"p:=ithprime(i1);",
				"if (p mod 8) = 7 then",
				"ql:=0; qu:=0; q:=0; nl:=0; nu:=0; n:=0;",
				"for j from 1 to p-1 do",
				"if legendre(j,p)=1 then",
				"  q:=q+j;",
				"  if j\u003cp/2 then ql:=ql+j; else qu:=qu+j; fi;",
				"else",
				"  n:=n+j;",
				"  if j\u003cp/2 then nl:=nl+j; else nu:=nu+j; fi;",
				"fi;",
				"                    od;",
				"Ql:=[op(Ql),ql];",
				"Qu:=[op(Qu),qu];",
				"Q:=[op(Q),q];",
				"Nl:=[op(Nl),nl];",
				"Nu:=[op(Nu),nu];",
				"N:=[op(N),n];",
				"fi;",
				"od:",
				"Ql; Qu; Q; Nl; Nu; N; # A282039, A282040, A282041, A282039 again, A282042, A282043",
				"# alternative:",
				"g:= proc(t,p) if t \u003c p/2 then t else 0 fi end proc;",
				"f:= proc(n) local k;",
				"     add(g(k^2 mod n, n),k=1..n/2)",
				"end proc:",
				"P:= select(isprime, [seq(i,i=7..3000,8)]):",
				"map(f,P); # _Robert Israel_, Nov 09 2020"
			],
			"mathematica": [
				"sum[p_]:= Total[If[#\u003cp/2 \u0026\u0026 JacobiSymbol[#, p] != 1, #, 0]\u0026 /@ Range[p-1]];",
				"sum /@ Select[Range[7, 1100, 8], PrimeQ] (* _Jean-François Alcover_, Aug 31 2018 *)"
			],
			"xref": [
				"Cf. A282035-A282043 and A282721-A282727."
			],
			"keyword": "nonn",
			"offset": "1,1",
			"author": "_N. J. A. Sloane_, Feb 20 2017",
			"references": 5,
			"revision": 15,
			"time": "2020-11-09T20:34:03-05:00",
			"created": "2017-02-20T21:04:55-05:00"
		}
	]
}