{
	"greeting": "Greetings from The On-Line Encyclopedia of Integer Sequences! http://oeis.org/",
	"query": "id:A282303",
	"count": 1,
	"start": 0,
	"results": [
		{
			"number": 282303,
			"data": "1,1,6,3,28,15,96,47,400,223,1632,831,8128,255,32256,767,108800,3583,440832,21503,1793024,77823,7188480,229375,27852800,892927,111468544,3637247,449380352,7176191,1811185664,1507327,7227506688,367656959,29031792640",
			"name": "Decimal representation of the x-axis, from the origin to the right edge, of the n-th stage of growth of the two-dimensional cellular automaton defined by \"Rule 453\", based on the 5-celled von Neumann neighborhood.",
			"comment": [
				"Initialized with a single black (ON) cell at stage zero."
			],
			"reference": [
				"S. Wolfram, A New Kind of Science, Wolfram Media, 2002; p. 170."
			],
			"link": [
				"Robert Price, \u003ca href=\"/A282303/b282303.txt\"\u003eTable of n, a(n) for n = 0..126\u003c/a\u003e",
				"Robert Price, \u003ca href=\"/A282303/a282303.tmp.txt\"\u003eDiagrams of first 20 stages\u003c/a\u003e",
				"N. J. A. Sloane, \u003ca href=\"http://arxiv.org/abs/1503.01168\"\u003eOn the Number of ON Cells in Cellular Automata\u003c/a\u003e, arXiv:1503.01168 [math.CO], 2015",
				"Eric Weisstein's World of Mathematics, \u003ca href=\"http://mathworld.wolfram.com/ElementaryCellularAutomaton.html\"\u003eElementary Cellular Automaton\u003c/a\u003e",
				"S. Wolfram, \u003ca href=\"http://wolframscience.com/\"\u003eA New Kind of Science\u003c/a\u003e",
				"Wolfram Research, \u003ca href=\"http://atlas.wolfram.com/\"\u003eWolfram Atlas of Simple Programs\u003c/a\u003e",
				"\u003ca href=\"/index/Ce#cell\"\u003eIndex entries for sequences related to cellular automata\u003c/a\u003e",
				"\u003ca href=\"https://oeis.org/wiki/Index_to_2D_5-Neighbor_Cellular_Automata\"\u003eIndex to 2D 5-Neighbor Cellular Automata\u003c/a\u003e",
				"\u003ca href=\"https://oeis.org/wiki/Index_to_Elementary_Cellular_Automata\"\u003eIndex to Elementary Cellular Automata\u003c/a\u003e"
			],
			"mathematica": [
				"CAStep[rule_, a_] := Map[rule[[10 - #]] \u0026, ListConvolve[{{0, 2, 0},{2, 1, 2}, {0, 2, 0}}, a, 2],{2}];",
				"code = 453; stages = 128;",
				"rule = IntegerDigits[code, 2, 10];",
				"g = 2 * stages + 1; (* Maximum size of grid *)",
				"a = PadLeft[{{1}}, {g, g}, 0,Floor[{g, g}/2]]; (* Initial ON cell on grid *)",
				"ca = a;",
				"ca = Table[ca = CAStep[rule, ca], {n, 1, stages + 1}];",
				"PrependTo[ca, a];",
				"(* Trim full grid to reflect growth by one cell at each stage *)",
				"k = (Length[ca[[1]]] + 1)/2;",
				"ca = Table[Table[Part[ca[[n]] [[j]],Range[k + 1 - n, k - 1 + n]], {j, k + 1 - n, k - 1 + n}], {n, 1, k}];",
				"Table[FromDigits[Part[ca[[i]] [[i]], Range[i, 2 * i - 1]], 2], {i ,1, stages - 1}]"
			],
			"xref": [
				"Cf. A282300, A282301, A282302."
			],
			"keyword": "nonn,easy",
			"offset": "0,3",
			"author": "_Robert Price_, Feb 11 2017",
			"references": 4,
			"revision": 7,
			"time": "2017-02-12T21:04:56-05:00",
			"created": "2017-02-12T21:04:56-05:00"
		}
	]
}