{
	"greeting": "Greetings from The On-Line Encyclopedia of Integer Sequences! http://oeis.org/",
	"query": "id:A282982",
	"count": 1,
	"start": 0,
	"results": [
		{
			"number": 282982,
			"data": "1,1,1,1,5,5,17,21,65,93,281,345,1049,1473,4509,5529,16777,23721,71849,88745,268457,379561,1149097,1419937,4303021,6073021,18391061,22720469,68715029,97172181,294162453,363501525,1101825493,1554821461,4708676821,5816094741",
			"name": "Decimal representation of the x-axis, from the left edge to the origin, of the n-th stage of growth of the two-dimensional cellular automaton defined by \"Rule 539\", based on the 5-celled von Neumann neighborhood.",
			"comment": [
				"Initialized with a single black (ON) cell at stage zero."
			],
			"reference": [
				"S. Wolfram, A New Kind of Science, Wolfram Media, 2002; p. 170."
			],
			"link": [
				"Robert Price, \u003ca href=\"/A282982/b282982.txt\"\u003eTable of n, a(n) for n = 0..126\u003c/a\u003e",
				"Robert Price, \u003ca href=\"/A282982/a282982.tmp.txt\"\u003eDiagrams of first 20 stages\u003c/a\u003e",
				"N. J. A. Sloane, \u003ca href=\"http://arxiv.org/abs/1503.01168\"\u003eOn the Number of ON Cells in Cellular Automata\u003c/a\u003e, arXiv:1503.01168 [math.CO], 2015",
				"Eric Weisstein's World of Mathematics, \u003ca href=\"http://mathworld.wolfram.com/ElementaryCellularAutomaton.html\"\u003eElementary Cellular Automaton\u003c/a\u003e",
				"S. Wolfram, \u003ca href=\"http://wolframscience.com/\"\u003eA New Kind of Science\u003c/a\u003e",
				"Wolfram Research, \u003ca href=\"http://atlas.wolfram.com/\"\u003eWolfram Atlas of Simple Programs\u003c/a\u003e",
				"\u003ca href=\"/index/Ce#cell\"\u003eIndex entries for sequences related to cellular automata\u003c/a\u003e",
				"\u003ca href=\"https://oeis.org/wiki/Index_to_2D_5-Neighbor_Cellular_Automata\"\u003eIndex to 2D 5-Neighbor Cellular Automata\u003c/a\u003e",
				"\u003ca href=\"https://oeis.org/wiki/Index_to_Elementary_Cellular_Automata\"\u003eIndex to Elementary Cellular Automata\u003c/a\u003e"
			],
			"mathematica": [
				"CAStep[rule_, a_] := Map[rule[[10 - #]] \u0026, ListConvolve[{{0, 2, 0},{2, 1, 2}, {0, 2, 0}}, a, 2],{2}];",
				"code = 539; stages = 128;",
				"rule = IntegerDigits[code, 2, 10];",
				"g = 2 * stages + 1; (* Maximum size of grid *)",
				"a = PadLeft[{{1}}, {g, g}, 0,Floor[{g, g}/2]]; (* Initial ON cell on grid *)",
				"ca = a;",
				"ca = Table[ca = CAStep[rule, ca], {n, 1, stages + 1}];",
				"PrependTo[ca, a];",
				"(* Trim full grid to reflect growth by one cell at each stage *)",
				"k = (Length[ca[[1]]] + 1)/2;",
				"ca = Table[Table[Part[ca[[n]] [[j]],Range[k + 1 - n, k - 1 + n]], {j, k + 1 - n, k - 1 + n}], {n, 1, k}];",
				"Table[FromDigits[Part[ca[[i]] [[i]], Range[1, i]], 2], {i, 1, stages - 1}]"
			],
			"xref": [
				"Cf. A282980, A282981, A282983."
			],
			"keyword": "nonn,easy",
			"offset": "0,5",
			"author": "_Robert Price_, Feb 26 2017",
			"references": 4,
			"revision": 8,
			"time": "2017-02-26T10:37:39-05:00",
			"created": "2017-02-26T10:37:39-05:00"
		}
	]
}