{
	"greeting": "Greetings from The On-Line Encyclopedia of Integer Sequences! http://oeis.org/",
	"query": "id:A283670",
	"count": 1,
	"start": 0,
	"results": [
		{
			"number": 283670,
			"data": "4,4,9,4,4,9,4,4,25,9,4,4,4,4,9,4,49,25,4,9,4,4,9,4,4,25,4,4,9,4,4,9,4,4,49,9,4,4,4,9,4,121,4,25,9,4,4,9,4,4,49,4,25,4,9,4,4,9,4,4,169,9,4,25,4,4,4,9,4,9,4,9,4,4,4,4,4,4,9,4,4",
			"name": "The single square referenced in A190641 (Numbers having exactly one non-unitary prime factor).",
			"link": [
				"Robert Price, \u003ca href=\"/A283670/b283670.txt\"\u003eTable of n, a(n) for n = 1..10000\u003c/a\u003e"
			],
			"example": [
				"A190641(4)=12, 12 = 2*2*3, so 12 has only one square factor, namely 4."
			],
			"xref": [
				"Cf. A190641  A283671."
			],
			"keyword": "nonn",
			"offset": "1,1",
			"author": "_Robert Price_, Mar 13 2017",
			"references": 2,
			"revision": 6,
			"time": "2017-03-14T00:27:34-04:00",
			"created": "2017-03-14T00:27:34-04:00"
		}
	]
}