{
	"greeting": "Greetings from The On-Line Encyclopedia of Integer Sequences! http://oeis.org/",
	"query": "id:A283954",
	"count": 1,
	"start": 0,
	"results": [
		{
			"number": 283954,
			"data": "0,0,8184,283208,8244557,241796070,6763514843,182198176994,4825164796310,125933665031272,3244468947083396,82767450195612832,2094459557648313968,52635795570355253222,1315036944531836311688,32688961006164835305772",
			"name": "Number of 5Xn 0..1 arrays with no 1 equal to more than three of its horizontal, diagonal and antidiagonal neighbors, with the exception of exactly one element.",
			"comment": [
				"Row 5 of A283950."
			],
			"link": [
				"R. H. Hardin, \u003ca href=\"/A283954/b283954.txt\"\u003eTable of n, a(n) for n = 1..210\u003c/a\u003e"
			],
			"example": [
				"Some solutions for n=3",
				"..1..0..1. .1..0..1. .1..1..1. .1..1..1. .1..1..1. .1..1..0. .1..0..1",
				"..1..1..0. .1..1..1. .0..0..1. .0..0..1. .0..0..0. .0..0..0. .1..0..0",
				"..0..1..1. .0..1..0. .1..0..1. .1..1..0. .1..1..1. .1..1..1. .0..0..1",
				"..1..0..0. .0..1..1. .0..1..1. .1..0..1. .1..1..0. .1..1..0. .0..1..1",
				"..0..1..0. .1..0..0. .1..1..0. .1..0..1. .0..1..1. .1..1..1. .1..0..1"
			],
			"xref": [
				"Cf. A283950."
			],
			"keyword": "nonn",
			"offset": "1,3",
			"author": "_R. H. Hardin_, Mar 18 2017",
			"references": 1,
			"revision": 4,
			"time": "2017-03-18T12:28:42-04:00",
			"created": "2017-03-18T12:28:42-04:00"
		}
	]
}