{
	"greeting": "Greetings from The On-Line Encyclopedia of Integer Sequences! http://oeis.org/",
	"query": "id:A283932",
	"count": 1,
	"start": 0,
	"results": [
		{
			"number": 283932,
			"data": "1,1,-6049,220961,-94911125449,671622173,16973944396387813,-46178297272884601,648295260682210793677,58263405848420369,-12621473417377804010947847693,30937406138704675992342953,117859933384302464321297008587517702333",
			"name": "Numerators of poly-Bernoulli numbers B_n^(k) with k = 8.",
			"link": [
				"Seiichi Manyama, \u003ca href=\"/A283932/b283932.txt\"\u003eTable of n, a(n) for n = 0..249\u003c/a\u003e",
				"Wikipedia, \u003ca href=\"https://en.wikipedia.org/wiki/Poly-Bernoulli_number\"\u003ePoly-Bernoulli number\u003c/a\u003e"
			],
			"example": [
				"B_0^(8) = 1, B_1^(8) = 1/256, B_2^(8) = -6049/1679616, B_3^(8) = 220961/71663616, ..."
			],
			"mathematica": [
				"B[n_]:= Sum[((-1)^(m + n))*m!*StirlingS2[n, m] * (m + 1)^(-8), {m, 0, n}]; Table[Numerator[B[n]], {n, 0, 15}] (* _Indranil Ghosh_, Mar 18 2017 *)"
			],
			"program": [
				"(PARI) B(n) = sum(m=0, n, ((-1)^(m + n)) * m! * stirling(n, m, 2) * (m + 1)^(-8)); for(n=0, 15, print1(numerator(B(n)), \", \")) \\\\ _Indranil Ghosh_, Mar 18 2017"
			],
			"xref": [
				"Cf. A283933."
			],
			"keyword": "sign,frac",
			"offset": "0,3",
			"author": "_Seiichi Manyama_, Mar 18 2017",
			"references": 2,
			"revision": 17,
			"time": "2017-03-19T05:51:08-04:00",
			"created": "2017-03-18T11:28:20-04:00"
		}
	]
}