{
	"greeting": "Greetings from The On-Line Encyclopedia of Integer Sequences! http://oeis.org/",
	"query": "id:A284774",
	"count": 1,
	"start": 0,
	"results": [
		{
			"number": 284774,
			"data": "2,5,8,10,13,16,18,21,24,27,30,32,35,38,40,43,46,49,52,54,57,60,62,65,68,70,73,76,78,81,84,87,90,92,95,98,100,103,106,109,112,114,117,120,122,125,128,130,133,136,138,141,144,147,150,152,155,158,160",
			"name": "Positions of 1 in A284772; complement of A284773.",
			"comment": [
				"Conjecture: -1 \u003c n*r - a(n) \u003c 2 for n \u003e= 1, where r = 1 + sqrt(3)."
			],
			"link": [
				"Clark Kimberling, \u003ca href=\"/A284774/b284774.txt\"\u003eTable of n, a(n) for n = 1..10000\u003c/a\u003e"
			],
			"example": [
				"As a word, A284772 = 010010..., in which 1 is in positions 2,5,..."
			],
			"mathematica": [
				"s = Nest[Flatten[# /. {0 -\u003e {0, 1}, 1 -\u003e {0, 0, 1, 0}}] \u0026, {0}, 6] (* A284772 *)",
				"Flatten[Position[s, 0]]  (* A284773 *)",
				"Flatten[Position[s, 1]]  (* A284774 *)"
			],
			"xref": [
				"Cf. A284772, A284773."
			],
			"keyword": "nonn,easy",
			"offset": "1,1",
			"author": "_Clark Kimberling_, Apr 14 2017",
			"references": 3,
			"revision": 4,
			"time": "2017-04-15T09:12:27-04:00",
			"created": "2017-04-15T09:12:27-04:00"
		}
	]
}