{
	"greeting": "Greetings from The On-Line Encyclopedia of Integer Sequences! http://oeis.org/",
	"query": "id:A284072",
	"count": 1,
	"start": 0,
	"results": [
		{
			"number": 284072,
			"data": "0,33,3174,147864,5555954,188451507,6011835223,183456426810,5420265572272,156205777797592,4413231997830430,122681753540269744,3364621054582473645,91226318376089628842,2449248911517215357307",
			"name": "Number of nX5 0..1 arrays with no 1 equal to more than three of its horizontal, diagonal and antidiagonal neighbors, with the exception of exactly two elements.",
			"comment": [
				"Column 5 of A284075."
			],
			"link": [
				"R. H. Hardin, \u003ca href=\"/A284072/b284072.txt\"\u003eTable of n, a(n) for n = 1..210\u003c/a\u003e"
			],
			"example": [
				"Some solutions for n=4",
				"..0..0..1..1..1. .1..0..1..0..0. .0..1..1..1..0. .0..0..0..0..0",
				"..1..0..1..1..1. .0..0..1..1..0. .1..0..0..0..1. .0..1..0..0..1",
				"..1..0..0..0..1. .1..0..1..1..0. .1..0..1..0..1. .1..1..0..1..1",
				"..1..1..1..1..0. .0..1..1..1..1. .1..1..1..1..1. .1..1..1..1..1"
			],
			"xref": [
				"Cf. A284075."
			],
			"keyword": "nonn",
			"offset": "1,2",
			"author": "_R. H. Hardin_, Mar 19 2017",
			"references": 1,
			"revision": 4,
			"time": "2017-03-19T20:09:34-04:00",
			"created": "2017-03-19T20:09:34-04:00"
		}
	]
}