{
	"greeting": "Greetings from The On-Line Encyclopedia of Integer Sequences! http://oeis.org/",
	"query": "id:A284880",
	"count": 1,
	"start": 0,
	"results": [
		{
			"number": 284880,
			"data": "2,4,5,8,10,11,14,15,18,20,22,23,26,28,29,32,33,36,38,40,41,44,45,48,50,52,53,56,58,59,62,64,65,68,69,72,74,76,77,80,82,83,86,87,90,92,94,95,98,99,102,104,106,107,110,112,113,116,118,119,122,123",
			"name": "Positions of 1 in A284878; complement of A284879.",
			"link": [
				"Clark Kimberling, \u003ca href=\"/A284880/b284880.txt\"\u003eTable of n, a(n) for n = 1..10000\u003c/a\u003e"
			],
			"formula": [
				"2n - a(n) = A189629(n) for n \u003e= 1."
			],
			"example": [
				"As a word, A284878 = 010110..., in which 1 is in positions 2,4,5,8,..."
			],
			"mathematica": [
				"s = Nest[Flatten[# /. {0 -\u003e {0, 1}, 1 -\u003e {0, 1, 1, 0}}] \u0026, {0}, 7] (* A284878 *)",
				"Flatten[Position[s, 0]]  (* A284879 *)",
				"Flatten[Position[s, 1]]  (* A284880 *)"
			],
			"xref": [
				"Cf. A284878, A284879."
			],
			"keyword": "nonn,easy",
			"offset": "1,1",
			"author": "_Clark Kimberling_, Apr 15 2017",
			"references": 3,
			"revision": 8,
			"time": "2020-06-04T17:10:22-04:00",
			"created": "2017-04-16T00:14:50-04:00"
		}
	]
}