{
	"greeting": "Greetings from The On-Line Encyclopedia of Integer Sequences! http://oeis.org/",
	"query": "id:A284685",
	"count": 1,
	"start": 0,
	"results": [
		{
			"number": 284685,
			"data": "2,3,5,6,9,11,12,14,17,19,20,21,23,24,27,29,30,31,33,36,38,39,41,42,45,47,48,50,53,55,56,57,59,62,64,65,67,68,71,73,74,75,77,78,81,83,84,86,89,91,92,93,95,96,99,101,102,103,105,108,110,111,113,114",
			"name": "Positions of 1 in A284627; complement of A284684.",
			"comment": [
				"a(n) - a(n-1) is in {1,2,3} for n\u003e=2.  Conjecture: a(n)/n -\u003e 9/5."
			],
			"link": [
				"Clark Kimberling, \u003ca href=\"/A284685/b284685.txt\"\u003eTable of n, a(n) for n = 1..10000\u003c/a\u003e"
			],
			"example": [
				"As a word, A284627 = 0110110010110100101110..., in which 1 is in positions 2,3,5,6,9,..."
			],
			"mathematica": [
				"s = Nest[Flatten[# /. {0 -\u003e {0, 1}, 1 -\u003e {1, 0}}] \u0026, {0}, 9] (* A010060 *)",
				"w = StringJoin[Map[ToString, s]]",
				"w1 = StringReplace[w, {\"0011\" -\u003e \"1\"}]",
				"st = ToCharacterCode[w1] - 48  (* A284627 *)",
				"Flatten[Position[st, 0]]  (* A284684 *)",
				"Flatten[Position[st, 1]]  (* A284685 *)"
			],
			"xref": [
				"Cf. A010060, A284627, A284684."
			],
			"keyword": "nonn,easy",
			"offset": "1,1",
			"author": "_Clark Kimberling_, May 10 2017",
			"references": 3,
			"revision": 4,
			"time": "2017-05-10T17:48:17-04:00",
			"created": "2017-05-10T17:48:17-04:00"
		}
	]
}