{
	"greeting": "Greetings from The On-Line Encyclopedia of Integer Sequences! http://oeis.org/",
	"query": "id:A284803",
	"count": 1,
	"start": 0,
	"results": [
		{
			"number": 284803,
			"data": "5,4,3,2,1,0,34,28,22,16,10,4,33,27,21,15,9,3,32,26,20,14,8,2,31,25,19,13,7,1,30,24,18,12,6,0,214,178,142,106,70,34,208,172,136,100,64,28,202,166,130,94,58,22,196,160,124,88,52,16,190,154,118,82,46",
			"name": "Write in base k, complement, reverse. Case k = 6.",
			"example": [
				"a(13) = 27 because 13 in base 6 is 21, its complement in base 6 is 34 and the digit reverse is 43 that is 27 in base 10."
			],
			"maple": [
				"P:=proc(q,h) local a,b,k,n; print(h-1); for n from 1 to q do a:=convert(n,base,h); b:=0;",
				"for k from 1 to nops(a) do a[k]:=h-1-a[k]; b:=h*b+a[k]; od; print(b); od; end: P(10^2,6);"
			],
			"mathematica": [
				"Table[FromDigits[Reverse[5-IntegerDigits[n,6]],6],{n,0,70}] (* _Harvey P. Dale_, Jan 05 2020 *)"
			],
			"xref": [
				"Cf. A036044, A267193, A284804."
			],
			"keyword": "nonn,base,easy",
			"offset": "0,1",
			"author": "_Paolo P. Lava_, Apr 03 2017",
			"ext": [
				"Example corrected by _Harvey P. Dale_, Jan 05 2020"
			],
			"references": 1,
			"revision": 6,
			"time": "2020-01-05T14:55:55-05:00",
			"created": "2017-04-05T07:50:59-04:00"
		}
	]
}