{
	"greeting": "Greetings from The On-Line Encyclopedia of Integer Sequences! http://oeis.org/",
	"query": "id:A284354",
	"count": 1,
	"start": 0,
	"results": [
		{
			"number": 284354,
			"data": "1,2,7,11,31,47,127,191,511,767,2047,3071,8191,12287,32767,49151,131071,196607,524287,786431,2097151,3145727,8388607,12582911,33554431,50331647,134217727,201326591,536870911,805306367,2147483647,3221225471,8589934591",
			"name": "Decimal representation of the x-axis, from the origin to the right edge, of the n-th stage of growth of the two-dimensional cellular automaton defined by \"Rule 899\", based on the 5-celled von Neumann neighborhood.",
			"comment": [
				"Initialized with a single black (ON) cell at stage zero."
			],
			"reference": [
				"S. Wolfram, A New Kind of Science, Wolfram Media, 2002; p. 170."
			],
			"link": [
				"Robert Price, \u003ca href=\"/A284354/b284354.txt\"\u003eTable of n, a(n) for n = 0..126\u003c/a\u003e",
				"Robert Price, \u003ca href=\"/A284354/a284354.tmp.txt\"\u003eDiagrams of first 20 stages\u003c/a\u003e",
				"N. J. A. Sloane, \u003ca href=\"http://arxiv.org/abs/1503.01168\"\u003eOn the Number of ON Cells in Cellular Automata\u003c/a\u003e, arXiv:1503.01168 [math.CO], 2015",
				"Eric Weisstein's World of Mathematics, \u003ca href=\"http://mathworld.wolfram.com/ElementaryCellularAutomaton.html\"\u003eElementary Cellular Automaton\u003c/a\u003e",
				"S. Wolfram, \u003ca href=\"http://wolframscience.com/\"\u003eA New Kind of Science\u003c/a\u003e",
				"Wolfram Research, \u003ca href=\"http://atlas.wolfram.com/\"\u003eWolfram Atlas of Simple Programs\u003c/a\u003e",
				"\u003ca href=\"/index/Ce#cell\"\u003eIndex entries for sequences related to cellular automata\u003c/a\u003e",
				"\u003ca href=\"https://oeis.org/wiki/Index_to_2D_5-Neighbor_Cellular_Automata\"\u003eIndex to 2D 5-Neighbor Cellular Automata\u003c/a\u003e",
				"\u003ca href=\"https://oeis.org/wiki/Index_to_Elementary_Cellular_Automata\"\u003eIndex to Elementary Cellular Automata\u003c/a\u003e"
			],
			"formula": [
				"Conjectures from _Colin Barker_, Mar 26 2017: (Start)",
				"G.f.: (1 + x + x^2) / ((1 - x)*(1 - 2*x)*(1 + 2*x)).",
				"a(n) = (2^(n+3) - 4)/4 for n even.",
				"a(n) = (3*2^(n+1) - 4)/4 for n odd.",
				"a(n) = a(n-1) + 4*a(n-2) - 4*a(n-3) for n\u003e2.",
				"(End)"
			],
			"mathematica": [
				"CAStep[rule_, a_] := Map[rule[[10 - #]] \u0026, ListConvolve[{{0, 2, 0},{2, 1, 2}, {0, 2, 0}}, a, 2],{2}];",
				"code = 899; stages = 128;",
				"rule = IntegerDigits[code, 2, 10];",
				"g = 2 * stages + 1; (* Maximum size of grid *)",
				"a = PadLeft[{{1}}, {g, g}, 0,Floor[{g, g}/2]]; (* Initial ON cell on grid *)",
				"ca = a;",
				"ca = Table[ca = CAStep[rule, ca], {n, 1, stages + 1}];",
				"PrependTo[ca, a];",
				"(* Trim full grid to reflect growth by one cell at each stage *)",
				"k = (Length[ca[[1]]] + 1)/2;",
				"ca = Table[Table[Part[ca[[n]] [[j]],Range[k + 1 - n, k - 1 + n]], {j, k + 1 - n, k - 1 + n}], {n, 1, k}];",
				"Table[FromDigits[Part[ca[[i]] [[i]], Range[i, 2 * i - 1]], 2], {i ,1, stages - 1}]"
			],
			"xref": [
				"Cf. A284351, A284352, A284353."
			],
			"keyword": "nonn,easy",
			"offset": "0,2",
			"author": "_Robert Price_, Mar 25 2017",
			"references": 4,
			"revision": 10,
			"time": "2017-03-26T08:58:57-04:00",
			"created": "2017-03-25T20:44:03-04:00"
		}
	]
}