{
	"greeting": "Greetings from The On-Line Encyclopedia of Integer Sequences! http://oeis.org/",
	"query": "id:A284382",
	"count": 1,
	"start": 0,
	"results": [
		{
			"number": 284382,
			"data": "5,9,55,59,95,99,555,559,595,599,955,959,995,999,5555,5559,5595,5599,5955,5959,5995,5999,9555,9559,9595,9599,9955,9959,9995,9999,55555,55559,55595,55599,55955,55959,55995,55999,59555,59559,59595,59599,59955,59959",
			"name": "Numbers n with digits 5 and 9 only.",
			"comment": [
				"Prime terms are in A020468."
			],
			"link": [
				"Michael S. Branicky, \u003ca href=\"/A284382/b284382.txt\"\u003eTable of n, a(n) for n = 1..10000\u003c/a\u003e"
			],
			"mathematica": [
				"Join @@ ((FromDigits /@ Tuples[{5, 9}, #]) \u0026 /@ Range@ 5) (* _Giovanni Resta_, Mar 28 2017 *)"
			],
			"program": [
				"(MAGMA) [n: n in [1..100000] | Set(IntegerToSequence(n, 10)) subset {5, 9}]",
				"(Python)",
				"def a(n): return int(bin(n+1)[3:].replace('0', '5').replace('1', '9'))",
				"print([a(n) for n in range(1, 45)]) # _Michael S. Branicky_, May 09 2021"
			],
			"xref": [
				"Numbers n with digits 5 and k only for k = 0 - 4 and 6 - 9: A169964 (k = 0), A276037 (k = 1), A072961 (k = 2), A284379 (k = 3), A256290 (k = 4), A256291 (k = 6), A284380 (k = 7), A284381 (k = 8), this sequence (k = 9)."
			],
			"keyword": "nonn,base",
			"offset": "1,1",
			"author": "_Jaroslav Krizek_, Mar 28 2017",
			"references": 4,
			"revision": 11,
			"time": "2021-05-09T08:18:59-04:00",
			"created": "2017-04-02T12:36:41-04:00"
		}
	]
}