{
	"greeting": "Greetings from The On-Line Encyclopedia of Integer Sequences! http://oeis.org/",
	"query": "id:A284488",
	"count": 1,
	"start": 0,
	"results": [
		{
			"number": 284488,
			"data": "1,2,5,6,11,12,15,16,21,22,25,26,29,30,33,34,39,40,43,44,49,50,53,54,59,60,63,64,69,70,73,74,77,78,81,82,87,88,91,92,97,98,101,102,105,106,109,110,115,116,119,120,125,126,129,130,135,136,139,140,145",
			"name": "Positions of 0 in A284487; complement of A284489.",
			"comment": [
				"Conjecture:  a(n)/n -\u003e (7 + sqrt(13))/6."
			],
			"link": [
				"Clark Kimberling, \u003ca href=\"/A284488/b284488.txt\"\u003eTable of n, a(n) for n = 1..10000\u003c/a\u003e"
			],
			"mathematica": [
				"s = Nest[Flatten[# /. {0 -\u003e {1}, 1 -\u003e {0, 0, 1, 1}}] \u0026, {0}, 14]; (* A284487 *)",
				"Flatten[Position[s, 0]];  (* A284488 *)",
				"Flatten[Position[s, 1]];  (* A284489 *)"
			],
			"xref": [
				"Cf. A284487, A284489, A284491."
			],
			"keyword": "nonn,easy",
			"offset": "1,2",
			"author": "_Clark Kimberling_, Apr 04 2017",
			"references": 6,
			"revision": 4,
			"time": "2017-04-05T07:42:59-04:00",
			"created": "2017-04-05T07:42:59-04:00"
		}
	]
}