{
	"greeting": "Greetings from The On-Line Encyclopedia of Integer Sequences! http://oeis.org/",
	"query": "id:A284418",
	"count": 1,
	"start": 0,
	"results": [
		{
			"number": 284418,
			"data": "1,1,1,7,10,31,69,196,451,1168,2813,7119,17618,44206,111399,277972,709411,1763795,4543873,11269489,29244239,72402587,188977618,467258134,1225383748,3026799348,7969173506,19669004793,51959167749,128161003199,339530403506",
			"name": "Number of self-avoiding planar walks of length n*(n+1)/2 starting at (0,0), ending at (n,0), remaining in the first quadrant and using steps (0,1), (1,0), (1,1), (-1,1), and (1,-1) with the restriction that (0,1) is never used below the diagonal and (1,0) is never used above the diagonal.",
			"link": [
				"Alois P. Heinz, \u003ca href=\"/A284418/a284418.gif\"\u003eAnimation of a(6)=69 walks\u003c/a\u003e",
				"Wikipedia, \u003ca href=\"https://en.wikipedia.org/wiki/Lattice_path\"\u003eLattice path\u003c/a\u003e",
				"Wikipedia, \u003ca href=\"https://en.wikipedia.org/wiki/Self-avoiding_walk\"\u003eSelf-avoiding walk\u003c/a\u003e"
			],
			"formula": [
				"a(n) = A284414(n,n*(n+1)/2)."
			],
			"xref": [
				"Cf. A000217, A284414."
			],
			"keyword": "nonn,walk",
			"offset": "0,4",
			"author": "_Alois P. Heinz_, Mar 26 2017",
			"references": 3,
			"revision": 12,
			"time": "2019-10-09T13:35:01-04:00",
			"created": "2017-03-27T10:21:27-04:00"
		}
	]
}