{
	"greeting": "Greetings from The On-Line Encyclopedia of Integer Sequences! http://oeis.org/",
	"query": "id:A285877",
	"count": 1,
	"start": 0,
	"results": [
		{
			"number": 285877,
			"data": "1,50,2125,96062,4200525,191462298,8509434855,390020597683",
			"name": "Number of possible chess games at the end of the n-th ply starting without pawns.",
			"comment": [
				"Gives the number of possible chess games where both sides start without pawns.",
				"Does not include games which end in fewer than n plies.",
				"The initial terms exceed the corresponding terms in A048987, but this should eventually reverse and we should have A285877(n) \u003c= A048987(n) for large enough n.",
				"Initial terms computed using the Chesspresso engine."
			],
			"link": [
				"\u003ca href=\"http://www.chesspresso.org/\"\u003eChesspresso\u003csup\u003eTM\u003c/sup\u003e\u003c/a\u003e."
			],
			"xref": [
				"Cf. A048987 (standard), A285873 (no queens), A285874 (no rooks), A285875 (no knights), A285876 (no bishops), A285878 (pawns and king)."
			],
			"keyword": "nonn,hard,more,fini",
			"offset": "0,2",
			"author": "_Sean A. Irvine_, Apr 28 2017",
			"references": 7,
			"revision": 6,
			"time": "2017-05-04T00:04:59-04:00",
			"created": "2017-05-04T00:04:59-04:00"
		}
	]
}