{
	"greeting": "Greetings from The On-Line Encyclopedia of Integer Sequences! http://oeis.org/",
	"query": "id:A285697",
	"count": 1,
	"start": 0,
	"results": [
		{
			"number": 285697,
			"data": "2,4,5,10,12,13,15,16,18,19,24,26,27,32,34,35,37,38,40,41,43,44,46,47,52,54,55,60,62,63,65,66,68,69,74,76,77,82,84,85,87,88,90,91,93,94,96,97,99,100,102,103,108,110,111,116,118,119,121,122,124,125",
			"name": "Positions of 1 in A288741; complement of A288742.",
			"comment": [
				"Conjecture: a(n)/n -\u003e 2, and -1/2 \u003c 2 - a(n)/n \u003c 1/3 for n \u003e= 1."
			],
			"link": [
				"Clark Kimberling, \u003ca href=\"/A285697/b285697.txt\"\u003eTable of n, a(n) for n = 1..10000\u003c/a\u003e"
			],
			"mathematica": [
				"s = {0, 0}; w[0] = StringJoin[Map[ToString, s]];",
				"w[n_] := StringReplace[w[n - 1], {\"00\" -\u003e \"1000\", \"10\" -\u003e \"01\"}]",
				"Table[w[n], {n, 0, 8}]",
				"st = ToCharacterCode[w[23]] - 48   (* A288741 *)",
				"Flatten[Position[st, 0]]  (* A288742 *)",
				"Flatten[Position[st, 1]]  (* A285697 *)"
			],
			"xref": [
				"Cf. A288741, A288742."
			],
			"keyword": "nonn,easy",
			"offset": "1,1",
			"author": "_Clark Kimberling_, Jun 17 2017",
			"ext": [
				"Typo in definition corrected by _Felix Fröhlich_, Aug 06 2017"
			],
			"references": 3,
			"revision": 15,
			"time": "2017-08-06T14:06:52-04:00",
			"created": "2017-06-17T18:26:00-04:00"
		}
	]
}