{
	"greeting": "Greetings from The On-Line Encyclopedia of Integer Sequences! http://oeis.org/",
	"query": "id:A285830",
	"count": 1,
	"start": 0,
	"results": [
		{
			"number": 285830,
			"data": "0,1,0,1,1,0,0,0,0,1,0,1,0,0,0,0,1,1,0,1,0,1,0,0,1,0,0,1,0,0,1,0,0,1,0,1,1,0,1,0,0,1,0,0,1,1,0,0,1,0,0,0,1,0,1,0,1,0,1,0,1,0,1,0,0,0,0,1,0,0,0,1,0,0,1,0,1,0,0,1,0,1,0,0,1,0",
			"name": "Triangular array: row n shows the n+1 zero-one subwords of length n that occur in the infinite Fibonacci word A003849, in the order of occurrence.",
			"comment": [
				"Exactly n+1 zero-one-words of length n occur as subwords of the infinite Fibonacci word w = A003849 = 01001010010010100101... For n = 0..5, they are listed here in the order of appearance.",
				"n     subwords of w",
				"0     the empty word",
				"1     0, 1",
				"2     01, 10, 00",
				"3     010 100 001 101",
				"4     0100, 1001, 0010, 0101, 1010",
				"5     01001, 10010, 00101, 01010, 10100, 00100"
			],
			"example": [
				"Starting with n=1, take in order the zeros and ones in the triangle of words shown in Comments: 0, 1, 01, 10, 00, 010, 100, 001, 101, ... ; these are represented as 0,1,0,1,1,0,0,0,0,1,0,1,0,0,0,0,1,1,0,1,..."
			],
			"mathematica": [
				"s = Nest[Flatten[# /. {0 -\u003e {0, 1}, 1 -\u003e {0}}] \u0026, {0}, 10] (* A003849 *)",
				"(w = Table[DeleteDuplicates[Partition[s, k, 1]], {k, Floor[Length[s/2]]}]) // ColumnForm (* A285830, array *)",
				"Map[Sort, w] // ColumnForm (* A285831, array *)",
				"w1 = Map[Sort, w] ;",
				"Flatten[w]  (* A285830, sequence *)",
				"Flatten[w1] (* A285831, sequence *)",
				"(* _Peter J. C. Moses_, Apr 26 2017 *)"
			],
			"xref": [
				"Cf. A285831."
			],
			"keyword": "nonn,easy,tabf",
			"offset": "1",
			"author": "_Clark Kimberling_, May 02 2017",
			"references": 2,
			"revision": 9,
			"time": "2018-05-05T04:17:54-04:00",
			"created": "2017-05-03T08:33:45-04:00"
		}
	]
}