{
	"greeting": "Greetings from The On-Line Encyclopedia of Integer Sequences! http://oeis.org/",
	"query": "id:A285390",
	"count": 1,
	"start": 0,
	"results": [
		{
			"number": 285390,
			"data": "1,1938357,12543605,42052067,42916485,48724977,89483837,94041095,94101375,129136065,138460937,145198547,153488937,172741167,182885915,215999297,217054557,217734965,249913685,271516605,277401597,285433077,295266797,306256175",
			"name": "Numbers n such that n + 2, n^2 + 2^2, n^4 + 2^4, n^8 + 2^8 and n^16 + 2^16 are primes.",
			"comment": [
				"Are there any n such that n^32 + 2^32 is also prime?",
				"a(87) = 2321204055 and a(156) = 5231769977 are the first 2 terms such that n^32 + 2^32 is prime. - _Chai Wah Wu_, Sep 03 2020"
			],
			"link": [
				"Chai Wah Wu, \u003ca href=\"/A285390/b285390.txt\"\u003eTable of n, a(n) for n = 1..6400\u003c/a\u003e"
			],
			"xref": [
				"Subsequence of A192794. Cf. A070689."
			],
			"keyword": "nonn",
			"offset": "1,2",
			"author": "_Zak Seidov_, Apr 18 2017",
			"references": 2,
			"revision": 21,
			"time": "2020-09-10T03:04:35-04:00",
			"created": "2017-04-18T15:46:36-04:00"
		}
	]
}