{
	"greeting": "Greetings from The On-Line Encyclopedia of Integer Sequences! http://oeis.org/",
	"query": "id:A285249",
	"count": 1,
	"start": 0,
	"results": [
		{
			"number": 285249,
			"data": "0,1,0,1,1,0,1,0,0,1,0,1,1,0,0,1,0,1,0,1,0,1,1,0,1,0,0,1,0,1,1,0,0,1,0,1,1,0,0,1,0,1,1,0,0,1,0,1,0,1,0,1,1,0,1,0,0,1,0,1,1,0,0,1,0,1,0,1,0,1,1,0,0,1,0,1,1,0,1,0,0,1,0,1,1,0",
			"name": "0-limiting word of the morphism 0-\u003e10, 1-\u003e 0101.",
			"comment": [
				"The morphism 0-\u003e10, 1-\u003e 0101 has two limiting words.  If the number of iterations is even, the 0-word evolves from 0 -\u003e 10 -\u003e 0101 -\u003e 100101100101 -\u003e 010110100101100101010110100101100101; if the number of iterations is odd, the 1-word evolves from 0 -\u003e 10 -\u003e 0101 -\u003e 100101100101, as in A285252."
			],
			"link": [
				"Clark Kimberling, \u003ca href=\"/A285249/b285249.txt\"\u003eTable of n, a(n) for n = 1..10000\u003c/a\u003e"
			],
			"mathematica": [
				"s = Nest[Flatten[# /. {0 -\u003e {1, 0}, 1 -\u003e {0, 1, 0, 1}}] \u0026, {0}, 12]; (* A285249 *)",
				"Flatten[Position[s, 0]];  (* A285250 *)",
				"Flatten[Position[s, 1]];  (* A285251 *)"
			],
			"xref": [
				"Cf. A285250, A285251, A285252."
			],
			"keyword": "nonn,easy",
			"offset": "1",
			"author": "_Clark Kimberling_, Apr 23 2017",
			"references": 3,
			"revision": 5,
			"time": "2017-04-24T10:33:01-04:00",
			"created": "2017-04-24T10:33:01-04:00"
		}
	]
}