{
	"greeting": "Greetings from The On-Line Encyclopedia of Integer Sequences! http://oeis.org/",
	"query": "id:A285568",
	"count": 1,
	"start": 0,
	"results": [
		{
			"number": 285568,
			"data": "1,1,0,1,1,0,0,1,1,0,1,1,1,1,0,1,1,0,0,1,1,0,1,1,0,1,1,0,0,1,1,0,1,1,0,1,1,0,0,1,1,0,1,1,1,1,0,1,1,0,0,1,1,0,1,1,0,1,1,0,0,1,1,0,0,1,1,0,0,1,1,0,1,1,0,1,1,0,0,1,1,0,1,1,1,1",
			"name": "1-limiting word of the morphism 0-\u003e11, 1-\u003e 0110.",
			"comment": [
				"The morphism 0-\u003e11, 1-\u003e 0110 has two limiting words.  If the number of iterations is even, the 0-word evolves from 0 -\u003e 11 -\u003e 01100110; if the number of iterations is odd, the 1-word evolves from 0 -\u003e 11 -\u003e 01100110 -\u003e 110110011011110110011011, as in A285568."
			],
			"link": [
				"Clark Kimberling, \u003ca href=\"/A285568/b285568.txt\"\u003eTable of n, a(n) for n = 1..10000\u003c/a\u003e"
			],
			"mathematica": [
				"s = Nest[Flatten[# /. {0 -\u003e {1, 1}, 1 -\u003e {0, 1, 1, 0}}] \u0026, {0}, 9] (* A285568 *)",
				"Flatten[Position[s, 0]]  (* A285569 *)",
				"Flatten[Position[s, 1]]  (* A286031 *)"
			],
			"xref": [
				"Cf. A285566, A285569, A286031."
			],
			"keyword": "nonn,easy",
			"offset": "1",
			"author": "_Clark Kimberling_, Apr 30 2017",
			"references": 11,
			"revision": 5,
			"time": "2017-04-30T22:37:46-04:00",
			"created": "2017-04-30T22:37:46-04:00"
		}
	]
}