{
	"greeting": "Greetings from The On-Line Encyclopedia of Integer Sequences! http://oeis.org/",
	"query": "id:A285425",
	"count": 1,
	"start": 0,
	"results": [
		{
			"number": 285425,
			"data": "1,1,1,1,1,2,1,1,4,1,1,1,10,1,2,1,1,28,1,6,2,1,1,82,1,26,4,2,1,1,244,1,126,10,8,1,1,1,730,1,626,28,50,1,3,1,1,2188,1,3126,82,344,1,13,2,1,1,6562,1,15626,244,2402,1,91,6,2,1,1,19684,1,78126,730,16808,1,757,26,12,2",
			"name": "Square array A(n,k), n\u003e=1, k\u003e=0, read by antidiagonals, where column k is the expansion of Sum_{j\u003e=1} (2*j - 1)^k*x^(2*j-1)/(1 - x^(2*j-1)).",
			"comment": [
				"A(n,k) is the sum of k-th powers of odd divisors of n."
			],
			"link": [
				"Eric Weisstein's World of Mathematics, \u003ca href=\"http://mathworld.wolfram.com/OddDivisorFunction.html\"\u003eOdd Divisor Function\u003c/a\u003e",
				"\u003ca href=\"/index/Su#sums_of_divisors\"\u003eIndex entries for sequences related to sums of divisors\u003c/a\u003e"
			],
			"formula": [
				"G.f. of column k: Sum_{j\u003e=1} (2*j - 1)^k*x^(2*j-1)/(1 - x^(2*j-1))."
			],
			"example": [
				"Square array begins:",
				"1,  1,   1,    1,    1,     1,  ...",
				"1,  1,   1,    1,    1,     1,  ...",
				"2,  4,  10,   28,   82,   244,  ...",
				"1,  1,   1,    1,    1,     1,  ...",
				"2,  6,  26,  126,  626,  3126,  ...",
				"2,  4,  10,   28,   82,   244,  ..."
			],
			"mathematica": [
				"Table[Function[k, SeriesCoefficient[Sum[(2 i - 1)^k x^(2 i - 1)/(1 - x^(2 i - 1)), {i, 1, n}], {x, 0, n}]][j - n], {j, 0, 12}, {n, 1, j}] // Flatten"
			],
			"xref": [
				"Columns k=0-5 give: A001227, A000593, A050999, A051000, A051001, A051002.",
				"Cf. A109974, A279394, A292919."
			],
			"keyword": "nonn,tabl",
			"offset": "1,6",
			"author": "_Ilya Gutkovskiy_, May 14 2017",
			"ext": [
				"Offset changed by _Ilya Gutkovskiy_, Oct 25 2018"
			],
			"references": 15,
			"revision": 28,
			"time": "2018-10-25T15:56:38-04:00",
			"created": "2017-05-14T11:24:17-04:00"
		}
	]
}