{
	"greeting": "Greetings from The On-Line Encyclopedia of Integer Sequences! http://oeis.org/",
	"query": "id:A285576",
	"count": 1,
	"start": 0,
	"results": [
		{
			"number": 285576,
			"data": "1,3,10,5,16,12,23,7,6,14,31,9,33,25,18,20,52,4,54,15,27,37,62,11,8,35,21,22,64,13,70,39,29,58,42,2,72,56,46,17,118,26,124,30,19,60,126,28,40,36,50,34,132,38,80,24,76,66,153,41,155,68,43,44,82,48",
			"name": "Inverse permutation to A285575.",
			"link": [
				"Rémy Sigrist, \u003ca href=\"/A285576/b285576.txt\"\u003eTable of n, a(n) for n = 1..10000\u003c/a\u003e",
				"Rémy Sigrist, \u003ca href=\"/A285576/a285576.gp.txt\"\u003ePARI program for A285576\u003c/a\u003e",
				"\u003ca href=\"/index/Per#IntegerPermutation\"\u003eIndex entries for sequences that are permutations of the natural numbers\u003c/a\u003e"
			],
			"example": [
				"A285575(1) = 1,  hence a(1)  = 1.",
				"A285575(2) = 36, hence a(36) = 2.",
				"A285575(3) = 2,  hence a(2)  = 3.",
				"A285575(4) = 18, hence a(18) = 4.",
				"A285575(5) = 4,  hence a(4)  = 5.",
				"A285575(6) = 9,  hence a(9)  = 6.",
				"A285575(7) = 8,  hence a(8)  = 7.",
				"A285575(8) = 25, hence a(25) = 8.",
				"A285575(9) = 12, hence a(12) = 9."
			],
			"xref": [
				"Cf. A285575."
			],
			"keyword": "nonn",
			"offset": "1,2",
			"author": "_Rémy Sigrist_, Apr 22 2017",
			"references": 2,
			"revision": 5,
			"time": "2017-04-24T00:14:03-04:00",
			"created": "2017-04-24T00:14:03-04:00"
		}
	]
}