{
	"greeting": "Greetings from The On-Line Encyclopedia of Integer Sequences! http://oeis.org/",
	"query": "id:A285202",
	"count": 1,
	"start": 0,
	"results": [
		{
			"number": 285202,
			"data": "1,1,2,1,1,2,3,2,1,1,2,3,2,1,1,2,3,4,3,2,1,1,2,3,2,1,1,2,3,4,3,2,1,1,2,3,2,1,1,2,3,4,3,2,1,1,2,3,2,1,1,2,3,4,5,4,3,2,1,1,2,3,2,1,1,2,3,4,3,2,1,1,2,3,2,1,1,2,3,4,3,2,1,1,2,3,2,1,1,2,3,4,5,4,3,2,1",
			"name": "A285200 displayed as an irregular triangle read by rows.",
			"comment": [
				"This is Ken Knowlton's elevator sequence A285200, but with an extra 1 each time the elevator returns to (or starts at) the first floor.",
				"Row lengths are A285204. The row maxima are given in A285203 (for n\u003e0)."
			],
			"example": [
				"Triangle begins:",
				"1,",
				"1, 2, 1,",
				"1, 2, 3, 2, 1,",
				"1, 2, 3, 2, 1,",
				"1, 2, 3, 4, 3, 2, 1,",
				"1, 2, 3, 2, 1,",
				"1, 2, 3, 4, 3, 2, 1,",
				"1, 2, 3, 2, 1,",
				"1, 2, 3, 4, 3, 2, 1,",
				"1, 2, 3, 2, 1,",
				"1, 2, 3, 4, 5, 4, 3, 2, 1,",
				"..."
			],
			"xref": [
				"Cf. A285200, A285201, A285203, A285204."
			],
			"keyword": "nonn,tabf",
			"offset": "0,3",
			"author": "_N. J. A. Sloane_, May 03 2017",
			"references": 2,
			"revision": 13,
			"time": "2017-05-03T17:33:47-04:00",
			"created": "2017-05-03T13:34:13-04:00"
		}
	]
}