{
	"greeting": "Greetings from The On-Line Encyclopedia of Integer Sequences! http://oeis.org/",
	"query": "id:A285712",
	"count": 1,
	"start": 0,
	"results": [
		{
			"number": 285712,
			"data": "0,1,2,3,2,4,6,3,7,9,4,10,5,5,12,15,6,8,16,7,19,21,8,22,13,9,24,11,10,27,30,11,17,31,12,34,36,13,18,37,14,40,20,15,42,28,16,26,45,17,49,51,18,52,54,19,55,29,20,33,25,21,14,57,22,64,43,23,66,69,24,39,35,25,70,75,26,44,76,27,48,79,28,82,61,29,84,23,30,87,90,31,47,46,32",
			"name": "a(1) = 0, and for n \u003e 1, if n = 3k-1, then a(n) = k, otherwise a(n) = (A064216(n)+1)/2.",
			"comment": [
				"For n \u003e= 2, a(n) gives the contents of the parent node of the node containing n in binary trees like A245612.",
				"Every positive integer greater than one occurs exactly twice in this sequence."
			],
			"link": [
				"Antti Karttunen, \u003ca href=\"/A285712/b285712.txt\"\u003eTable of n, a(n) for n = 1..8192\u003c/a\u003e"
			],
			"formula": [
				"a(1) = 0, and for n \u003e 1, if n = 3*k-1, then a(n) = k, otherwise a(n) = (A064216(n)+1)/2.",
				"a(n) = (n+1)/3 + (3*A064216(n) - 2*n + 1)*( (n+1)^2 mod 3 )/6, for n\u003e1. - _Ammar Khatab_, Sep 21 2020"
			],
			"mathematica": [
				"a[n_] := a[n] = Which[n == 1, 0, Mod[n, 3] == 2, Ceiling[n/3], True, (Times @@ Power[If[# == 1, 1, NextPrime[#, -1]] \u0026 /@ First@ #, Last@ #] \u0026@ Transpose@ FactorInteger[2 n - 1] + 1)/2]; Array[a, 95] (* _Michael De Vlieger_, Sep 22 2017 *)"
			],
			"program": [
				"(Scheme) (define (A285712 n) (cond ((\u003c= n 1) (- n 1)) ((= 2 (modulo n 3)) (A002264 (+ 1 n))) (else (/ (+ 1 (A064216 n)) 2))))"
			],
			"xref": [
				"Cf. A002264, A048673, A064216, A245612, A285713, A285714."
			],
			"keyword": "nonn",
			"offset": "1,3",
			"author": "_Antti Karttunen_, Apr 25 2017",
			"references": 12,
			"revision": 22,
			"time": "2020-10-24T18:05:37-04:00",
			"created": "2017-04-25T11:47:11-04:00"
		}
	]
}