{
	"greeting": "Greetings from The On-Line Encyclopedia of Integer Sequences! http://oeis.org/",
	"query": "id:A285094",
	"count": 1,
	"start": 0,
	"results": [
		{
			"number": 285094,
			"data": "0,1,2,3,4,5,6,7,8,9,0,1,2,3,0,2,4,0,3,0,2,4,6,0,5,0,6,0,7,0,4,8,0,3,6,9,0,0,0,0,0,0,0,0,0,0,0,1,2,0,2,0,3,0,2,0,0,0,0,2,4,0,3,0,0,0,0,0,0,0,0,0,0,0,2,0,2,0,0,2,4,0,0,0,0,4,0",
			"name": "Corresponding values of geometric means of digits of numbers from A061430.",
			"link": [
				"Jaroslav Krizek, \u003ca href=\"/A285094/b285094.txt\"\u003eTable of n, a(n) for n = 0..3000\u003c/a\u003e"
			],
			"program": [
				"(MAGMA) [0] cat [Floor(\u0026*Intseq(n) ^ (1/#Intseq(n))): n in [1..100000] | IsIntegral(\u0026*Intseq(n) ^ (1/#Intseq(n)))]"
			],
			"xref": [
				"Cf. A061430 (numbers with integer geometric mean of digits in base 10).",
				"Sequences of numbers n such that a(n) = k for k = 0 - 9: A011540 (k = 0), A002275 (k = 1), A061426 (k = 2), A061427 (k = 3), A061428 (k = 4), A002279 (k = 5), A061429 (k = 6), A002281 (k = 7), A002282 (k = 8), A002283 (k = 9)."
			],
			"keyword": "nonn,base",
			"offset": "0,3",
			"author": "_Jaroslav Krizek_, Apr 14 2017",
			"references": 1,
			"revision": 7,
			"time": "2017-04-15T09:53:06-04:00",
			"created": "2017-04-15T09:53:06-04:00"
		}
	]
}