{
	"greeting": "Greetings from The On-Line Encyclopedia of Integer Sequences! http://oeis.org/",
	"query": "id:A285160",
	"count": 1,
	"start": 0,
	"results": [
		{
			"number": 285160,
			"data": "1,2,6,7,8,12,14,16,17,18,21,22,26,28,29,30,33,34,38,40,41,42,45,46,49,50,54,55,56,60,61,62,66,68,70,71,72,75,76,80,82,83,84,87,88,92,94,95,96,99,100,103,104,108,110,112,113,114,117,118,121,122,126",
			"name": "Positions of 0 in A285159; complement of A285161.",
			"comment": [
				"Conjecture: a(n)/n -\u003e 2."
			],
			"link": [
				"Clark Kimberling, \u003ca href=\"/A285160/b285160.txt\"\u003eTable of n, a(n) for n = 1..10000\u003c/a\u003e"
			],
			"example": [
				"As a word, A285142 = 001110..., in which 0 is in positions 1,2,6,7,8,..."
			],
			"mathematica": [
				"s = Nest[Flatten[# /. {0 -\u003e {1, 0}, 1 -\u003e {0, 0, 1, 1}}] \u0026, {0}, 10]; (* A285159 *)",
				"Flatten[Position[s, 0]];  (* A285160 *)",
				"Flatten[Position[s, 1]];  (* A285161 *)"
			],
			"xref": [
				"Cf. A285159, A285161, A285162."
			],
			"keyword": "nonn,easy",
			"offset": "1,2",
			"author": "_Clark Kimberling_, Apr 21 2017",
			"references": 6,
			"revision": 4,
			"time": "2017-04-22T23:04:44-04:00",
			"created": "2017-04-22T23:04:44-04:00"
		}
	]
}