{
	"greeting": "Greetings from The On-Line Encyclopedia of Integer Sequences! http://oeis.org/",
	"query": "id:A285628",
	"count": 1,
	"start": 0,
	"results": [
		{
			"number": 285628,
			"data": "1,-3,6,-6,0,12,-24,27,-15,-12,48,-81,90,-54,-36,159,-258,267,-138,-123,441,-684,693,-354,-318,1122,-1701,1668,-801,-792,2616,-3876,3753,-1782,-1776,5778,-8451,8046,-3705,-3843,12120,-17496,16506,-7524,-7848,24483",
			"name": "Expansion of r(q)^3 / r(q^3) in powers of q where r() is the Rogers-Ramanujan continued fraction.",
			"link": [
				"Seiichi Manyama, \u003ca href=\"/A285628/b285628.txt\"\u003eTable of n, a(n) for n = 0..10000\u003c/a\u003e"
			],
			"xref": [
				"r(q)^k / r(q^k): A285349 (k=2), this sequence (k=3), A285629 (k=4), A285630 (k=5).",
				"Cf. A285583."
			],
			"keyword": "sign",
			"offset": "0,2",
			"author": "_Seiichi Manyama_, Apr 22 2017",
			"references": 5,
			"revision": 9,
			"time": "2017-04-23T10:09:57-04:00",
			"created": "2017-04-22T23:03:36-04:00"
		}
	]
}