{
	"greeting": "Greetings from The On-Line Encyclopedia of Integer Sequences! http://oeis.org/",
	"query": "id:A286494",
	"count": 1,
	"start": 0,
	"results": [
		{
			"number": 286494,
			"data": "1,4,6,7,10,11,12,13,15,16,17,18,19,22,24,25,28,29,30,31,32,35,37,38,39,40,42,43,46,47,48,49,51,52,53,54,55,58,60,61,62,63,65,66,69,70,71,72,73,76,78,79,82,83,84,85,87,88,89,90,91,94,96,97,100",
			"name": "Positions of 0 in A286493; complement of A286495.",
			"comment": [
				"a(n) - a(n-1) is in {1,2,3} for n\u003e=2.  Conjecture: a(n)/n -\u003e 3/2."
			],
			"link": [
				"Clark Kimberling, \u003ca href=\"/A286494/b286494.txt\"\u003eTable of n, a(n) for n = 1..10000\u003c/a\u003e"
			],
			"example": [
				"As a word, A286493 = 01101001100001000001..., in which 0 is in positions 1,4,6,7,10,..."
			],
			"mathematica": [
				"s = Nest[Flatten[# /. {0 -\u003e {0, 1}, 1 -\u003e {1, 0}}] \u0026, {0}, 9] (* A010060 *)",
				"w = StringJoin[Map[ToString, s]]",
				"w1 = StringReplace[w, {\"1011\" -\u003e \"0\"}]",
				"st = ToCharacterCode[w1] - 48  (* A286493 *)",
				"Flatten[Position[st, 0]]  (* A286494 *)",
				"Flatten[Position[st, 1]]  (* A286495 *)"
			],
			"xref": [
				"Cf. A010060, A286493, A286495."
			],
			"keyword": "nonn,easy",
			"offset": "1,2",
			"author": "_Clark Kimberling_, May 11 2017",
			"references": 3,
			"revision": 4,
			"time": "2017-05-11T20:11:27-04:00",
			"created": "2017-05-11T20:11:27-04:00"
		}
	]
}