{
	"greeting": "Greetings from The On-Line Encyclopedia of Integer Sequences! http://oeis.org/",
	"query": "id:A286546",
	"count": 1,
	"start": 0,
	"results": [
		{
			"number": 286546,
			"data": "0,0,1,-1,3,1,-2,-2,7,5,2,2,-4,-4,-3,-5,15,13,10,10,4,4,5,3,-8,-8,-7,-9,-5,-7,-10,-10,31,29,26,26,20,20,21,19,8,8,9,7,11,9,6,6,-16,-16,-15,-17,-13,-15,-18,-18,-9,-11,-14,-14,-20,-20,-19,-21,63,61,58,58,52,52,53,51,40,40,41,39,43,41,38,38",
			"name": "a(n) = A006068(n) - n.",
			"link": [
				"Antti Karttunen, \u003ca href=\"/A286546/b286546.txt\"\u003eTable of n, a(n) for n = 0..16383\u003c/a\u003e",
				"\u003ca href=\"/index/Bi#binary\"\u003eIndex entries for sequences related to binary expansion of n\u003c/a\u003e"
			],
			"formula": [
				"a(n) = A006068(n) - n.",
				"a(n) = -A286548(A006068(n)). - _Antti Karttunen_, Oct 02 2017"
			],
			"program": [
				"(Scheme) (define (A286546 n) (- (A006068 n) n))"
			],
			"xref": [
				"Cf. A006068, A283999, A286547, A286548, A292601."
			],
			"keyword": "sign,base",
			"offset": "0,5",
			"author": "_Antti Karttunen_, May 18 2017",
			"references": 3,
			"revision": 11,
			"time": "2017-10-02T18:58:01-04:00",
			"created": "2017-05-18T21:49:01-04:00"
		}
	]
}