{
	"greeting": "Greetings from The On-Line Encyclopedia of Integer Sequences! http://oeis.org/",
	"query": "id:A286092",
	"count": 1,
	"start": 0,
	"results": [
		{
			"number": 286092,
			"data": "2,3,8,10,13,19,20,26,37,39,232,308,381,382,706,872,1707,1929,2195,9211,15567,58306",
			"name": "Numbers k such that (199*10^k + 11)/3 is prime.",
			"comment": [
				"For k\u003e0, numbers such that the digits 66 followed by k-1 occurrences of the digit 3 followed by the digit 7 is prime (see Example section).",
				"a(23) \u003e 2*10^5."
			],
			"link": [
				"Makoto Kamada, \u003ca href=\"https://stdkmd.net/nrr\"\u003eFactorization of near-repdigit-related numbers\u003c/a\u003e.",
				"Makoto Kamada, \u003ca href=\"https://stdkmd.net/nrr/prime/primedifficulty.txt\"\u003eSearch for 663w7\u003c/a\u003e."
			],
			"example": [
				"3 is in this sequence because (199*10^3 + 11)/3 = 66337 is prime.",
				"Initial terms and primes associated:",
				"a(1) = 2, 6637;",
				"a(2) = 3, 66337;",
				"a(3) = 8, 6633333337;",
				"a(4) = 10, 663333333337;",
				"a(5) = 13, 663333333333337; etc."
			],
			"mathematica": [
				"Select[Range[0, 100000], PrimeQ[(199*10^# + 11)/3] \u0026]"
			],
			"xref": [
				"Cf. A056654, A268448, A269303, A270339, A270613, A270831, A270890, A270929, A271269."
			],
			"keyword": "nonn,more,hard",
			"offset": "1,1",
			"author": "_Robert Price_, May 01 2017",
			"references": 0,
			"revision": 8,
			"time": "2020-04-19T20:59:50-04:00",
			"created": "2017-05-02T11:37:17-04:00"
		}
	]
}