{
	"greeting": "Greetings from The On-Line Encyclopedia of Integer Sequences! http://oeis.org/",
	"query": "id:A286914",
	"count": 1,
	"start": 0,
	"results": [
		{
			"number": 286914,
			"data": "1,11,383,38437,15179657,23213149395,135207176568283,3008600384479080345,255856229024918222966821,83138455533359719800266401039,103225590675437292878209927396154515,489730115155632619934278544711183719808829",
			"name": "Number of dominating sets in the stacked prism graph C_n X P_n.",
			"link": [
				"Eric Weisstein's World of Mathematics, \u003ca href=\"http://mathworld.wolfram.com/DominatingSet.html\"\u003eDominating Set\u003c/a\u003e",
				"Wikipedia, \u003ca href=\"https://en.wikipedia.org/wiki/Dominating_set\"\u003eDominating set\u003c/a\u003e"
			],
			"xref": [
				"Main diagonal of A286514.",
				"Cf. A284702, A285880."
			],
			"keyword": "nonn",
			"offset": "1,2",
			"author": "_Andrew Howroyd_, May 15 2017",
			"references": 2,
			"revision": 6,
			"time": "2017-05-16T06:01:16-04:00",
			"created": "2017-05-16T06:01:16-04:00"
		}
	]
}