{
	"greeting": "Greetings from The On-Line Encyclopedia of Integer Sequences! http://oeis.org/",
	"query": "id:A286431",
	"count": 1,
	"start": 0,
	"results": [
		{
			"number": 286431,
			"data": "2,3,4,5,8,9,16,17,18,36,54,69,183,200,240,846,1424,2511,4750,13854,15414,103450,128094,132746",
			"name": "Numbers k such that (22*10^k + 53)/3 is prime.",
			"comment": [
				"For k\u003e1, numbers such that the digit 7 followed by k-2 occurrences of the digit 3 followed by the digits 51 is prime (see Example section).",
				"a(25) \u003e 2*10^5."
			],
			"link": [
				"Makoto Kamada, \u003ca href=\"https://stdkmd.net/nrr\"\u003eFactorization of near-repdigit-related numbers\u003c/a\u003e.",
				"Makoto Kamada, \u003ca href=\"https://stdkmd.net/nrr/prime/primedifficulty.txt\"\u003eSearch for 73w51\u003c/a\u003e."
			],
			"example": [
				"3 is in this sequence because (22*10^3 + 53)/3 = 7351 is prime.",
				"Initial terms and primes associated:",
				"a(1) = 2, 751;",
				"a(2) = 3, 7351;",
				"a(3) = 4, 73351;",
				"a(4) = 5, 733351;",
				"a(5) = 8, 733333351; etc."
			],
			"mathematica": [
				"Select[Range[0, 100000], PrimeQ[(22*10^# + 53)/3] \u0026]"
			],
			"xref": [
				"Cf. A056654, A268448, A269303, A270339, A270613, A270831, A270890, A270929, A271269."
			],
			"keyword": "nonn,more,hard",
			"offset": "1,1",
			"author": "_Robert Price_, May 09 2017",
			"ext": [
				"a(22)-a(24) from _Robert Price_, Jul 06 2019"
			],
			"references": 0,
			"revision": 34,
			"time": "2019-07-06T10:30:03-04:00",
			"created": "2017-05-09T22:41:44-04:00"
		}
	]
}