{
	"greeting": "Greetings from The On-Line Encyclopedia of Integer Sequences! http://oeis.org/",
	"query": "id:A286628",
	"count": 1,
	"start": 0,
	"results": [
		{
			"number": 286628,
			"data": "1,0,2,0,1,1,3,0,0,0,2,0,1,1,1,0,1,0,2,1,2,1,3,0,0,0,1,0,1,1,5,0,2,0,2,0,1,1,1,0,1,1,2,1,1,1,4,0,1,0,1,0,1,1,1,1,2,0,2,1,1,2,0,0,1,1,2,1,2,1,3,0,1,0,0,0,2,1,4,0,0,0,2,0,1,1,1,0,1,0,2,1,3,2,1,1,1,0,1,0,1,1,3,0,2,0,2,0,1,1,1,0,1,1,2,1,0,1,2,0",
			"name": "a(n) = exponent of the highest power of A000005(n) (number of divisors of n) dividing A000203(n) (sum of divisors of n), a(1) = 1.",
			"comment": [
				"a(1) = 1 by convention."
			],
			"link": [
				"Antti Karttunen, \u003ca href=\"/A286628/b286628.txt\"\u003eTable of n, a(n) for n = 1..10000\u003c/a\u003e"
			],
			"formula": [
				"a(n) = A286561(A000203(n), A000005(n))."
			],
			"example": [
				"A000005(6) = 4, A000203(6) = 12, 4^1 is the highest power of 4 which divides 12, thus a(6) = 1.",
				"A000005(7) = 2, A000203(7) = 8, 2^3 is the highest power of 2 which divides 8, thus a(7) = 3.",
				"A000005(8) = 4, A000203(8) = 15, 4^0 = 1 is the highest power of 4 which divides 15, thus a(8) = 0."
			],
			"program": [
				"(PARI) A286628(n) = if(1==n,n,valuation(sigma(n), numdiv(n)));"
			],
			"xref": [
				"Cf. A000005, A000203, A051281, A054025, A286561, A286627.",
				"Cf. A049642 (positions of zeros), A003601 (of nonzeros)."
			],
			"keyword": "nonn",
			"offset": "1,3",
			"author": "_Antti Karttunen_, Jun 30 2017",
			"references": 3,
			"revision": 12,
			"time": "2017-07-02T03:58:58-04:00",
			"created": "2017-07-02T03:58:58-04:00"
		}
	]
}