{
	"greeting": "Greetings from The On-Line Encyclopedia of Integer Sequences! http://oeis.org/",
	"query": "id:A286485",
	"count": 1,
	"start": 0,
	"results": [
		{
			"number": 286485,
			"data": "1,4,6,7,10,13,15,18,19,22,24,25,28,31,32,35,37,40,42,43,46,49,51,54,55,58,60,63,65,66,69,72,73,76,78,79,82,85,87,90,91,94,96,97,100,103,104,107,109,112,114,115,118,121,122,125,127,128,131,134,136",
			"name": "Positions of 0 in A286484; complement of A286486.",
			"comment": [
				"a(n) - a(n-1) is in {1,2,3} for n\u003e=2.  Conjecture: a(n)/n -\u003e 9/4."
			],
			"link": [
				"Clark Kimberling, \u003ca href=\"/A286485/b286485.txt\"\u003eTable of n, a(n) for n = 1..10000\u003c/a\u003e"
			],
			"example": [
				"As a word, A286484 = 01101001101101011001..., in which 0 is in positions 1,4,6,7,10,..."
			],
			"mathematica": [
				"s = Nest[Flatten[# /. {0 -\u003e {0, 1}, 1 -\u003e {1, 0}}] \u0026, {0}, 9] (* A010060 *)",
				"w = StringJoin[Map[ToString, s]]",
				"w1 = StringReplace[w, {\"0010\" -\u003e \"0\"}]",
				"st = ToCharacterCode[w1] - 48  (* A286484 *)",
				"Flatten[Position[st, 0]]  (* A286485 *)",
				"Flatten[Position[st, 1]]  (* A286486 *)"
			],
			"xref": [
				"Cf. A010060, A286484, A286486."
			],
			"keyword": "nonn,easy",
			"offset": "1,2",
			"author": "_Clark Kimberling_, May 10 2017",
			"references": 3,
			"revision": 4,
			"time": "2017-05-10T21:33:12-04:00",
			"created": "2017-05-10T21:33:12-04:00"
		}
	]
}