{
	"greeting": "Greetings from The On-Line Encyclopedia of Integer Sequences! http://oeis.org/",
	"query": "id:A286459",
	"count": 1,
	"start": 0,
	"results": [
		{
			"number": 286459,
			"data": "1,1,2,13,3,24,85,25,112,201,5,242,61,15,451,723,64,87,842,393,1107,1355,113,1407,137,22,1744,204,844,2181,2891,313,67,3203,657,3703,4056,243,196,4424,55,4908,196,795,5521,2384,2741,1062,6507,250,7574,8460,651,8590,9122,1935,9393,597,559,1249,833,1507,613,9391,4155,12492,5949,513",
			"name": "Permuted compound filter: a(n) = A286458(A064216(n)).",
			"comment": [
				"For all i, j: a(i) = a(j) =\u003e A285705(i) = A285705(j)."
			],
			"link": [
				"Antti Karttunen, \u003ca href=\"/A286459/b286459.txt\"\u003eTable of n, a(n) for n = 1..10000\u003c/a\u003e"
			],
			"formula": [
				"a(n) = A286458(A064216(n))."
			],
			"program": [
				"(Scheme) (define (A286459 n) (A286458 (A064216 n)))"
			],
			"xref": [
				"Cf. A064216, A285705, A286458."
			],
			"keyword": "nonn",
			"offset": "1,3",
			"author": "_Antti Karttunen_, May 14 2017",
			"references": 2,
			"revision": 6,
			"time": "2017-05-14T15:55:43-04:00",
			"created": "2017-05-14T15:55:43-04:00"
		}
	]
}