{
	"greeting": "Greetings from The On-Line Encyclopedia of Integer Sequences! http://oeis.org/",
	"query": "id:A286128",
	"count": 1,
	"start": 0,
	"results": [
		{
			"number": 286128,
			"data": "0,0,1,-1,-1,0,0,1,0,1,0,0,0,0,-2,1,1,-2,1,0,0,-1,-2,1,1,0,0,0,2,2,-1,-2,0,0,4,-1,-1,0,0,-2,-1,2,-2,-1,2,-1,0,-1,-2,-2,1,4,0,0,0,0,-2,4,-4,2,1,2,4,3,-3,0,2,1,-4,-5,2,-2,0,0,-4,-1,0,0,2,0",
			"name": "Expansion of eta(q) * eta(q^12) * eta(q^15) * eta(q^20) in powers of q.",
			"comment": [
				"Early in 2005 Michael Somos discovered a remarkable eta-product identity: eta(q^2) * eta(q^6) * eta(q^10) * eta(q^30) = eta(q) * eta(q^12) * eta(q^15) * eta(q^20) + eta(q^3) * eta(q^4) * eta(q^5) * eta(q^60).",
				"G.f. is a period 1 Fourier series that satisfies f(-1 / (60 t)) = 60 (t/i)^2 g(t) where q = exp(2 Pi i t) and g() is the g.f. for A286129. - _Michael Somos_, Oct 31 2019"
			],
			"link": [
				"Seiichi Manyama, \u003ca href=\"/A286128/b286128.txt\"\u003eTable of n, a(n) for n = 0..10000\u003c/a\u003e",
				"Michael Somos, \u003ca href=\"http://grail.eecs.csuohio.edu/~somos/retaprod.html\"\u003eA Remarkable eta-product Identity\u003c/a\u003e"
			],
			"formula": [
				"G.f.: x^2 * Prod_{k\u003e0} (1 - x^k) * (1 - x^(12 * k)) * (1 - x^(15 * k)) * (1 - x^(20 * k))."
			],
			"example": [
				"G.f. = x^2 - x^3 - x^4 + x^7 + x^9 - 2*x^14 + x^15 + x^16 - 2*x^17 + x^18 + ... - _Michael Somos_, Oct 31 2019"
			],
			"mathematica": [
				"eta[q_] := q^(1/24)*QPochhammer[q]; CoefficientList[Series[eta[q]* eta[q^12]*eta[q^15]*eta[q^20], {q, 0, 50}], q] (* _G. C. Greubel_, Jul 29 2018 *)"
			],
			"program": [
				"(PARI) q='q+O('q^50); A = eta(q)*eta(q^12)*eta(q^15)*eta(q^20); concat([0,0], Vec(A)) \\\\ _G. C. Greubel_, Jul 29 2018",
				"(PARI) ({a(n) = my(A); n -= 2; if ( n \u003c 0, 0, A = x * O(x^n); polcoeff( eta(x + A) * eta(x^12 + A) * (eta(x^15 + A) * eta(x^20 + A), n))}; /* _Michael Somos_, Oct 31 2019 */"
			],
			"xref": [
				"Cf. A030184 (eta(q) * eta(q^3) * eta(q^5) * eta(q^15)), A286129."
			],
			"keyword": "sign",
			"offset": "0,15",
			"author": "_Seiichi Manyama_, May 03 2017",
			"references": 2,
			"revision": 23,
			"time": "2021-03-12T22:24:48-05:00",
			"created": "2017-05-03T08:35:15-04:00"
		}
	]
}