{
	"greeting": "Greetings from The On-Line Encyclopedia of Integer Sequences! http://oeis.org/",
	"query": "id:A286401",
	"count": 1,
	"start": 0,
	"results": [
		{
			"number": 286401,
			"data": "1,4,7,8,10,13,15,18,19,22,25,26,28,31,32,35,37,40,43,44,46,49,51,54,55,58,60,63,66,67,69,72,73,76,79,80,82,85,87,90,91,94,97,98,100,103,104,107,109,112,115,116,118,121,122,125,128,129,131,134,136",
			"name": "Positions of 0 in A286400; complement of A286402.",
			"comment": [
				"a(n) - a(n-1) is in {1,2,3} for n\u003e=2.  Conjecture: a(n)/n -\u003e 9/4."
			],
			"link": [
				"Clark Kimberling, \u003ca href=\"/A286401/b286401.txt\"\u003eTable of n, a(n) for n = 1..10000\u003c/a\u003e"
			],
			"example": [
				"As a word, A286400 = 011011001011010110011..., in which 0 is in positions 1,4,7,8,10,13,..."
			],
			"mathematica": [
				"s = Nest[Flatten[# /. {0 -\u003e {0, 1}, 1 -\u003e {1, 0}}] \u0026, {0}, 9] (* A010060 *)",
				"w = StringJoin[Map[ToString, s]]",
				"w1 = StringReplace[w, {\"1010\" -\u003e \"1\"}]",
				"st = ToCharacterCode[w1] - 48  (* A286400 *)",
				"Flatten[Position[st, 0]]  (* A286401 *)",
				"Flatten[Position[st, 1]]  (* A286402 *)"
			],
			"xref": [
				"Cf. A010060, A286400, A286402."
			],
			"keyword": "nonn,easy",
			"offset": "1,2",
			"author": "_Clark Kimberling_, May 09 2017",
			"references": 3,
			"revision": 4,
			"time": "2017-05-09T17:39:28-04:00",
			"created": "2017-05-09T17:39:28-04:00"
		}
	]
}