{
	"greeting": "Greetings from The On-Line Encyclopedia of Integer Sequences! http://oeis.org/",
	"query": "id:A286597",
	"count": 1,
	"start": 0,
	"results": [
		{
			"number": 286597,
			"data": "1,2,3,2,4,3,2,5,6,4,3,7,2,5,5,7,8,6,4,9,3,7,7,10,2,5,5,7,5,11,7,9,12,8,6,13,4,9,9,14,3,7,7,10,7,15,10,14,2,5,5,7,5,11,7,9,5,11,11,15,7,15,9,13,16,12,8,17,6,13,13,18,4,9,9,14,9,19,14,20,3,7,7,10,7,15,10,14,7,15,15,21,10,21,14,18,2,5,5,7,5",
			"name": "Restricted growth sequence transform of A286596.",
			"link": [
				"Antti Karttunen, \u003ca href=\"/A286597/b286597.txt\"\u003eTable of n, a(n) for n = 0..65535\u003c/a\u003e"
			],
			"xref": [
				"Cf. A286596, A286599, A286602."
			],
			"keyword": "nonn",
			"offset": "0,2",
			"author": "_Antti Karttunen_, Jun 04 2017",
			"references": 5,
			"revision": 6,
			"time": "2017-06-04T08:01:33-04:00",
			"created": "2017-06-04T08:01:33-04:00"
		}
	]
}