{
	"greeting": "Greetings from The On-Line Encyclopedia of Integer Sequences! http://oeis.org/",
	"query": "id:A286221",
	"count": 1,
	"start": 0,
	"results": [
		{
			"number": 286221,
			"data": "1,1,0,0,0,0,1,1,0,0,1,1,1,1,1,2,2,1,2,2,2,4,4,2,3,4,4,5,6,5,5,6,7,9,10,10,12,11,11,15,16,15,17,18,19,23,26,25,27,30,33,37,38,39,46,50,52,57,59,61,71,77,78,84,91,97,107,114,120,131,139,147,163,172,180,197",
			"name": "Number of partitions of n into distinct parts with an even number of distinct prime divisors.",
			"link": [
				"Amiram Eldar, \u003ca href=\"/A286221/b286221.txt\"\u003eTable of n, a(n) for n = 0..10000\u003c/a\u003e",
				"Eric Weisstein's World of Mathematics, \u003ca href=\"http://mathworld.wolfram.com/DistinctPrimeFactors.html\"\u003eDistinct Prime Factors\u003c/a\u003e",
				"\u003ca href=\"/index/Par#part\"\u003eIndex entries for related partition-counting sequences\u003c/a\u003e"
			],
			"formula": [
				"G.f.: Product_{k\u003e=1} (1 + x^A030231(k))."
			],
			"example": [
				"a(21) = 4 because we have [21], [20, 1], [15, 6] and [14, 6, 1]."
			],
			"mathematica": [
				"nmax = 75; CoefficientList[Series[Product[1 + Boole[EvenQ[PrimeNu[k]]] x^k, {k, 1, nmax}], {x, 0, nmax}], x]"
			],
			"xref": [
				"Cf. A030231, A285798, A286220."
			],
			"keyword": "nonn",
			"offset": "0,16",
			"author": "_Ilya Gutkovskiy_, May 04 2017",
			"references": 5,
			"revision": 8,
			"time": "2019-08-02T13:01:49-04:00",
			"created": "2017-05-04T17:47:13-04:00"
		}
	]
}