{
	"greeting": "Greetings from The On-Line Encyclopedia of Integer Sequences! http://oeis.org/",
	"query": "id:A286885",
	"count": 1,
	"start": 0,
	"results": [
		{
			"number": 286885,
			"data": "1,1,1,1,1,1,1,1,2,1,2,2,2,2,1,3,2,3,1,1,2,2,3,1,2,2,2,2,2,2,2,2,2,1,1,2,4,4,3,2,2,4,2,3,3,3,3,3,2,2,4,3,4,1,3,2,3,4,3,3,3,3,2,3,3,2,4,3,2,3,2",
			"name": "Number of ways to write 6*n+1 as x^2 + 3*y^2 + 54*z^2 with x,y,z nonnegative integers.",
			"comment": [
				"Conjecture: a(n) \u003e 0 for all n = 0,1,2,....",
				"In the a-file, we list the tuples (m,r,a,b,c) with 30 \u003e= m \u003e max{2,r} \u003e= 0, 100 \u003e= a \u003e= b \u003e= c \u003e 0, gcd(a,b,c) = 1, and the form a*x^2+b*y^2+c*z^2 irregular, such that all the numbers m*n+r (n = 0,1,2,...) should be representable by a*x^2+b*y^2+c*z^2 with x,y,z integers."
			],
			"link": [
				"Zhi-Wei Sun, \u003ca href=\"/A286885/b286885.txt\"\u003eTable of n, a(n) for n = 0..10000\u003c/a\u003e",
				"Tomáš Hejda, Vítezslav Kala, \u003ca href=\"https://arxiv.org/abs/1906.02538\"\u003eTernary quadratic forms representing arithmetic progressions\u003c/a\u003e, arXiv:1906.02538 [math.NT], 2019.",
				"Zhi-Wei Sun, \u003ca href=\"/A286885/a286885_1.txt\"\u003eTuples (m,r,a,b,c) with 30 \u003e= m \u003e max{2,r} \u003e= 0 and 100 \u003e= a \u003e= b \u003e= c \u003e 0, for which all the numbers m*n+r (n = 0,1,2,...) should be representable by a*x^2+b*y^2+c*z^2 with x,y,z integers.  \u003c/a\u003e",
				"Zhi-Wei Sun, \u003ca href=\"http://math.scichina.com:8081/sciAe/EN/abstract/abstract517007.shtml\"\u003eOn universal sums of polygonal numbers\u003c/a\u003e, Sci. China Math. 58(2015), 1367-1396.",
				"Zhi-Wei Sun, \u003ca href=\"http://arxiv.org/abs/1502.03056\"\u003eOn universal sums x(ax+b)/2+y(cy+d)/2+z(ez+f)/2\u003c/a\u003e, arXiv:1502.03056 [math.NT], 2015-2017.",
				"Hai-Liang Wu and Zhi-Wei Sun, \u003ca href=\"http://arxiv.org/abs/1707.06223\"\u003eSome universal quadratic sums over the integers\u003c/a\u003e, arXiv:1707.06223 [math.NT], 2017.",
				"Hai-Liang Wu, Zhi-Wei Sun, \u003ca href=\"https://arxiv.org/abs/1811.05855\"\u003eArithmetic progressions represented by diagonal ternary quadratic forms\u003c/a\u003e, arXiv:1811.05855 [math.NT], 2018."
			],
			"example": [
				"a(9) = 1 since 6*9 + 1 = 1^2 + 3*0^2 + 54*1^2.",
				"a(34) = 1 since 6*34 + 1 = 2^2 + 3*7^2 + 54*1^2.",
				"a(125) = 1 since 6*125 + 1 = 26^2 + 3*5^2 + 54*0^2.",
				"a(130) = 1 since 6*130 + 1 = 22^2 + 3*9^2 + 54*1^2.",
				"a(133) = 1 since 6*133 + 1 = 11^2 + 3*8^2 + 54*3^2.",
				"a(203) = 1 since 6*203 + 1 = 25^2 + 3*6^2 + 54*3^2."
			],
			"mathematica": [
				"SQ[n_]:=SQ[n]=IntegerQ[Sqrt[n]];",
				"table={};Do[r=0;Do[If[SQ[6n+1-3y^2-54z^2],r=r+1],{y,0,Sqrt[(6n+1)/3]},{z,0,Sqrt[(6n+1-3y^2)/54]}];table=Append[table,r],{n,0,70}]"
			],
			"xref": [
				"Cf. A000290, A286944, A287616, A290342."
			],
			"keyword": "nonn",
			"offset": "0,9",
			"author": "_Zhi-Wei Sun_, Aug 02 2017",
			"references": 4,
			"revision": 25,
			"time": "2019-06-07T07:47:48-04:00",
			"created": "2017-08-02T15:23:18-04:00"
		}
	]
}