{
	"greeting": "Greetings from The On-Line Encyclopedia of Integer Sequences! http://oeis.org/",
	"query": "id:A286433",
	"count": 1,
	"start": 0,
	"results": [
		{
			"number": 286433,
			"data": "1,6,25,98,399,1746,8271,42284,231939,1357128,8427181,55288860,381798629,2765917074,20960284277,165729739590,1364153612299,11665484410094,103448316470723,949739632313480,9013431476894623,88304011710168668,891917738589610553",
			"name": "Number of entries in the second last blocks of all set partitions of [n].",
			"link": [
				"Alois P. Heinz, \u003ca href=\"/A286433/b286433.txt\"\u003eTable of n, a(n) for n = 2..250\u003c/a\u003e",
				"Wikipedia, \u003ca href=\"https://en.wikipedia.org/wiki/Partition_of_a_set\"\u003ePartition of a set\u003c/a\u003e"
			],
			"example": [
				"a(3) = 6 because the number of entries in the second last blocks of all set partitions of [3] (123, 12|3, 13|2, 1|23, 1|2|3) is 0+2+2+1+1 = 6."
			],
			"xref": [
				"Column k=2 of A286416."
			],
			"keyword": "nonn",
			"offset": "2,2",
			"author": "_Alois P. Heinz_, May 09 2017",
			"references": 2,
			"revision": 4,
			"time": "2017-05-09T19:03:22-04:00",
			"created": "2017-05-09T19:03:22-04:00"
		}
	]
}