{
	"greeting": "Greetings from The On-Line Encyclopedia of Integer Sequences! http://oeis.org/",
	"query": "id:A286842",
	"count": 1,
	"start": 0,
	"results": [
		{
			"number": 286842,
			"data": "4,2,7,1,7,54,3,1,3,5,5,27,3,7,35,2,5,18,3,40,1,11,5,96,2,13,1,14,7,120,5,1,99,68,1,9,3,19,1,20,5,5145000,3,88,80,23,5,48,2,1,323,52,5,6,1,7,1,116,7,60,5,124,1,2,1,1650,3,34,299,35,7,32,5,37,7,19,1,26693550",
			"name": "Least k such that the sum of proper divisors of k*n is a prime number, or -1 if no such k exists.",
			"comment": [
				"Motivated by the fate of sequence A072326.",
				"a(546) \u003e 5*10^9. - _Michel Marcus_, Aug 06 2017",
				"a(546) = 7975795464. When n is even the search can be sped up by observing that the exponents of the odd prime factors of n*a(n) must be even, otherwise the sum of the proper divisors n*a(n) is even and cannot be prime. So, if n is even, a(n) is equal to c*2^s*m^2, where c is the squarefree part of the odd part of n, s is 0 or 1, and m is a suitable integer. - _Giovanni Resta_, Aug 06 2017"
			],
			"link": [
				"Michel Marcus and Giovanni Resta, \u003ca href=\"/A286842/b286842.txt\"\u003eTable of n, a(n) for n = 1..1000\u003c/a\u003e (first 545 terms from Michel Marcus)"
			],
			"formula": [
				"a(A037020(n)) = 1."
			],
			"mathematica": [
				"Table[SelectFirst[Range[10^7], PrimeQ[DivisorSigma[1, #] - #] \u0026[# n] \u0026] /. k_ /; MissingQ@ k -\u003e -1, {n, 77}] (* _Michael De Vlieger_, Aug 01 2017 *)"
			],
			"program": [
				"(PARI) a(n) = {my(k=1); while (!isprime(sigma(k*n)-k*n), k++); k;}"
			],
			"xref": [
				"Cf. A001065, A037020, A072326 (dead)."
			],
			"keyword": "nonn",
			"offset": "1,1",
			"author": "_Altug Alkan_, Aug 01 2017",
			"references": 2,
			"revision": 36,
			"time": "2017-08-06T22:41:29-04:00",
			"created": "2017-08-01T12:09:36-04:00"
		}
	]
}