{
	"greeting": "Greetings from The On-Line Encyclopedia of Integer Sequences! http://oeis.org/",
	"query": "id:A286891",
	"count": 1,
	"start": 0,
	"results": [
		{
			"number": 286891,
			"data": "41203,556243,576193,715849,752263,859249,891799,1107763,1191079,1201999,1210369,1510189,1601599,1893163,2530963,2678719,2881243,3257689,3431479,3545263,3792949,3804919,4041109,4479463,4867309",
			"name": "Initial primes of 6 consecutive primes with 5 consecutive gaps 10, 8, 6, 4, 2.",
			"comment": [
				"All terms = {13,19} mod 30.",
				"For initial primes of 6 consecutive primes with consecutive gaps 2, 4, 6, 8, 10 see A190817."
			],
			"link": [
				"Chai Wah Wu, \u003ca href=\"/A286891/b286891.txt\"\u003eTable of n, a(n) for n = 1..10000\u003c/a\u003e",
				"R. J. Mathar, \u003ca href=\"/A022004/a022004_1.pdf\"\u003eTable of Prime Gap Constellations\u003c/a\u003e"
			],
			"example": [
				"Prime(4313..4318) = {41203, 41213, 41221, 41227, 41231, 41233} and 41203 + 10 = 41213, 41213 + 8 = 41221, 41221 + 6 = 41227, 41227 + 4 = 41231, 41231 + 2 = 41233.",
				"Also, prime(68287..68292) = {859249, 859259, 859267, 859273, 859277, 859279} and 859249 + 10 = 859259, 859259 + 8 = 859267, 859267 + 6 = 859273, 859273 + 4 = 859277, 859277 + 2 = 859279."
			],
			"maple": [
				"K:=10^7: # to get all terms \u003c= K.",
				"Primes:=select(isprime,[seq(i,i=3..K+30,2)]): Primes[select(t-\u003e[Primes[t+1]-Primes[t], Primes[t+2]-Primes[t+1], Primes[t+3]-Primes[t+2], Primes[t+4]-Primes[t+3], Primes[t+5]-Primes[t+4]]=[10,8,6,4,2], [$1..nops(Primes)-5])]; # _Muniru A Asiru_, Aug 15 2017"
			],
			"mathematica": [
				"Select[Partition[Prime[Range[340000]],6,1],Differences[#]=={10,8,6,4,2}\u0026][[All,1]] (* _Harvey P. Dale_, Aug 22 2018 *)"
			],
			"program": [
				"(GAP)",
				"P:=Filtered([1..20000000],IsPrime);;  I:=Reversed([2,4,6,8,10]);;",
				"P1:=List([1..Length(P)-1],i-\u003eP[i+1]-P[i]);;",
				"P2:=List([1..Length(P)-Length(I)],i-\u003e[P1[i],P1[i+1],P1[i+2],P1[i+3],P1[i+4]]);;",
				"P3:=List(Positions(P2,I),i-\u003eP[i]);"
			],
			"xref": [
				"Cf. A078847, A190814, A190817, A190819, A190838, A290161, A290162."
			],
			"keyword": "nonn",
			"offset": "1,1",
			"author": "_Muniru A Asiru_, Jul 22 2017",
			"references": 3,
			"revision": 27,
			"time": "2018-08-22T12:15:23-04:00",
			"created": "2017-08-02T23:39:01-04:00"
		}
	]
}