{
	"greeting": "Greetings from The On-Line Encyclopedia of Integer Sequences! http://oeis.org/",
	"query": "id:A286893",
	"count": 1,
	"start": 0,
	"results": [
		{
			"number": 286893,
			"data": "1,1,6,1,21,351,1,126,12096,2544696,1,666,420876,544638816,705278736576,1,3996,15132096,117564302016,914040184444416,7107572245840091136,1,23436,544230576,25390538401536,1184595336212990976,55268479955808421134336,2578606199622710056510488576",
			"name": "Triangle read by rows: T(n,m) is the number of pattern classes in the (n,m)-rectangular grid with 6 colors and n\u003e=m, two patterns are in the same class if one of them can be obtained by a reflection or 180-degree rotation of the other.",
			"comment": [
				"Computed using Burnside's orbit-counting lemma."
			],
			"link": [
				"María Merino, \u003ca href=\"/A286893/b286893.txt\"\u003eRows n=0..36 of triangle, flattened\u003c/a\u003e",
				"M. Merino and I. Unanue, \u003ca href=\"https://doi.org/10.1387/ekaia.17851\"\u003eCounting squared grid patterns with Pólya Theory\u003c/a\u003e, EKAIA, 34 (2018), 289-316 (in Basque)."
			],
			"formula": [
				"For even n and m: T(n,m) = (6^(m*n) + 3*6^(m*n/2))/4;",
				"for even n and odd m: T(n,m) = (6^(m*n) + 6^((m*n+n)/2) + 2*6^(m*n/2))/4;",
				"for odd n and even m: T(n,m) = (6^(m*n) + 6^((m*n+m)/2) + 2*6^(m*n/2))/4;",
				"for odd n and m: T(n,m) = (6^(m*n) + 6^((m*n+n)/2) + 6^((m*n+m)/2) + 6^((m*n+1)/2))/4."
			],
			"example": [
				"Triangle begins:",
				"============================================================================",
				"n\\m |  0  1     2         3             4                5",
				"----|-----------------------------------------------------------------------",
				"0   |  1",
				"1   |  1  6",
				"2   |  1  21    351",
				"3   |  1  126   12096     2544696",
				"4   |  1  666   420876    544638816     705278736576",
				"5   |  1  3996  15132096  117564302016  914040184444416  7107572245840091136",
				"..."
			],
			"xref": [
				"Cf. A225910, A283432, A283433, A283434."
			],
			"keyword": "nonn,tabl",
			"offset": "0,3",
			"author": "_María Merino_, Imanol Unanue, _Yosu Yurramendi_, May 15 2017",
			"references": 5,
			"revision": 25,
			"time": "2019-04-29T05:41:59-04:00",
			"created": "2017-05-16T10:43:43-04:00"
		}
	]
}