{
	"greeting": "Greetings from The On-Line Encyclopedia of Integer Sequences! http://oeis.org/",
	"query": "id:A287791",
	"count": 1,
	"start": 0,
	"results": [
		{
			"number": 287791,
			"data": "1,2,6,7,8,10,11,15,16,17,21,22,23,25,26,30,31,32,34,35,39,40,41,45,46,47,49,50,54,55,56,60,61,62,64,65,69,70,71,73,74,78,79,80,84,85,86,88,89,93,94,95,97,98,102,103,104,108,109,110,112,113,117",
			"name": "Positions of 0 in A287790; complement of A287792.",
			"comment": [
				"-1 \u003c n*r - a(n) \u003c 3 for n \u003e= 1, where r = (-3  + 3*sqrt(5))/2."
			],
			"link": [
				"Clark Kimberling, \u003ca href=\"/A287791/b287791.txt\"\u003eTable of n, a(n) for n = 1..10000\u003c/a\u003e"
			],
			"mathematica": [
				"s = Nest[Flatten[# /. {0 -\u003e {0, 1}, 1 -\u003e {0}}] \u0026, {0}, 10] (* A003849 *)",
				"w = StringJoin[Map[ToString, s]]",
				"w1 = StringReplace[w, {\"0\" -\u003e \"001\", \"1\" -\u003e \"110\"}]",
				"st = ToCharacterCode[w1] - 48    (* A287790 *)",
				"Flatten[Position[st, 0]]  (* A287791 *)",
				"Flatten[Position[st, 1]]  (* A287792 *)"
			],
			"xref": [
				"Cf. A287790, A287792."
			],
			"keyword": "nonn,easy",
			"offset": "1,2",
			"author": "_Clark Kimberling_, Jun 03 2017",
			"references": 3,
			"revision": 4,
			"time": "2017-06-04T18:18:29-04:00",
			"created": "2017-06-04T18:18:29-04:00"
		}
	]
}