{
	"greeting": "Greetings from The On-Line Encyclopedia of Integer Sequences! http://oeis.org/",
	"query": "id:A287732",
	"count": 1,
	"start": 0,
	"results": [
		{
			"number": 287732,
			"data": "0,1,1,2,3,3,2,1,1,2,3,3,4,5,5,4,5,7,8,7,7,8,7,5,4,5,5,4,3,3,2,1,1,2,3,3,4,5,5,4,5,7,8,7,7,8,7,5,6,9,11,10,11,13,12,9,9,12,13,11,10,11,9,6",
			"name": "Bisection of A287730.",
			"comment": [
				"a(n)/A287731(n) enumerates all reduced fractions along the Stern-Brocot Tree. See the Serov link below."
			],
			"link": [
				"I. V. Serov, \u003ca href=\"/A287732/b287732.txt\"\u003eTable of n, a(n) for n = 1..8192\u003c/a\u003e",
				"I. V. Serov, \u003ca href=\"/A287732/a287732_1.png\"\u003eOEIS: The Stern-Brocot Tree as Sequence A287732/A287731\u003c/a\u003e",
				"N. J. A. Sloane, \u003ca href=\"/stern_brocot.html\"\u003eStern-Brocot or Farey Tree\u003c/a\u003e",
				"\u003ca href=\"/index/Fo#fraction_trees\"\u003eIndex entries for fraction trees\u003c/a\u003e",
				"\u003ca href=\"/index/St#Stern\"\u003eIndex entries for sequences related to Stern's sequences\u003c/a\u003e"
			],
			"formula": [
				"a(n) = A287730(2*n-1), n \u003e 0.",
				"a(n) = A287730(n-1) + A287730(n), n \u003e 0.",
				"a(n) = A007306(n) - A287732(n).",
				"Consider for n \u003e 1 the binary expansion b(1:t) of n-1 without the leading 1.",
				"Recurse: c=s=1; for j=1:t {if b(t-j+1) == mod(t,2) s = s+c; else c = c+s;}",
				"Then: c = A287731(n) and s = a(n);"
			],
			"program": [
				"(Python)",
				"def c(n): return 1 if n==1 else s(n/2) if n%2==0 else s((n - 1)/2) + s((n + 1)/2)",
				"def s(n): return 0 if n==1 else c(n/2) if n%2==0 else c((n - 1)/2) + c((n + 1)/2)",
				"def a(n): return s(2*n - 1) # _Indranil Ghosh_, Jun 08 2017"
			],
			"xref": [
				"Cf. A002487, A007306, A287729, A287730, A287731."
			],
			"keyword": "nonn,frac",
			"offset": "1,4",
			"author": "_I. V. Serov_, Jun 01 2017",
			"references": 3,
			"revision": 36,
			"time": "2017-06-08T05:19:52-04:00",
			"created": "2017-06-03T01:26:16-04:00"
		}
	]
}