{
	"greeting": "Greetings from The On-Line Encyclopedia of Integer Sequences! http://oeis.org/",
	"query": "id:A287447",
	"count": 1,
	"start": 0,
	"results": [
		{
			"number": 287447,
			"data": "0,1,2,2,0,1,1,0,2,1,0,2,0,1,2,2,0,1,2,0,1,0,1,2,1,0,2,2,0,1,0,1,2,1,0,2,0,1,2,2,0,1,1,0,2,1,0,2,0,1,2,2,0,1,1,0,2,0,1,2,2,0,1,0,1,2,2,0,1,1,0,2,2,0,1,0,1,2,1,0,2,1,0,2,0,1",
			"name": "Start with 0 and repeatedly substitute 0-\u003e012, 1-\u003e201, 2-\u003e102.",
			"comment": [
				"This is the fixed point of the morphism 0-\u003e012, 1-\u003e201, 2-\u003e102 starting with 0.  Let u be the (nonperiodic) sequence of positions of 0, and likewise, v for 1 and w for 2; then u(n)/n -\u003e 3, v(n)/n -\u003e 3,  w(n)/n -\u003e 3.",
				"See A287385 for a guide to related sequences."
			],
			"link": [
				"Clark Kimberling, \u003ca href=\"/A287447/b287447.txt\"\u003eTable of n, a(n) for n = 1..10000\u003c/a\u003e",
				"\u003ca href=\"/index/Fi#FIXEDPOINTS\"\u003eIndex entries for sequences that are fixed points of mappings\u003c/a\u003e"
			],
			"example": [
				"First three iterations of the morphism:  012, 012201102, 012201102102012201201012102."
			],
			"mathematica": [
				"s = Nest[Flatten[# /. {0-\u003e{0, 1, 2}, 1-\u003e{2, 0, 1}, 2-\u003e{1, 0, 2}}] \u0026, {0}, 9]; (*A287447*)",
				"Flatten[Position[s, 0]]; (*A189224*)",
				"Flatten[Position[s, 1]]; (*A287449*)",
				"Flatten[Position[s, 2]]; (*A287450*)"
			],
			"xref": [
				"Cf. A189224, A287385, A287449, A287450."
			],
			"keyword": "nonn,easy",
			"offset": "1,3",
			"author": "_Clark Kimberling_, May 26 2017",
			"references": 4,
			"revision": 10,
			"time": "2017-06-01T10:16:04-04:00",
			"created": "2017-05-29T23:59:05-04:00"
		}
	]
}