{
	"greeting": "Greetings from The On-Line Encyclopedia of Integer Sequences! http://oeis.org/",
	"query": "id:A287399",
	"count": 1,
	"start": 0,
	"results": [
		{
			"number": 287399,
			"data": "2,5,7,10,14,17,20,23,25,29,32,34,37,41,44,47,50,52,55,59,62,65,68,70,74,77,79,82,86,89,92,95,97,101,104,106,110,113,115,118,122,125,128,131,133,137,140,142,145,149,152,155,158,160,164,167,169,172,176",
			"name": "Positions of 1 in A287397.",
			"comment": [
				"a(n) - a(n-1) is in {2,3,4} for n \u003e= 1; also, 3n - a(n) is in {1,2} for n \u003e= 1.  The first 20 numbers 3n - a(n) are 1, 1, 2, 2, 1, 1, 1, 1, 2, 1, 1, 2, 2, 1, 1, 1, 1, 2, 2."
			],
			"link": [
				"Clark Kimberling, \u003ca href=\"/A287399/b287399.txt\"\u003eTable of n, a(n) for n = 1..10000\u003c/a\u003e"
			],
			"mathematica": [
				"s = Nest[Flatten[# /. {0-\u003e{0, 1, 2}, 1-\u003e{2, 1, 0}, 2-\u003e{1, 0, 2}}] \u0026, {0}, 9]; (*A287397*)",
				"Flatten[Position[s, 0]]; (*A287398*)",
				"Flatten[Position[s, 1]]; (*A287399*)",
				"Flatten[Position[s, 2]]; (*A287400*)"
			],
			"xref": [
				"Cf. A287397, A287398, A287400."
			],
			"keyword": "nonn,easy",
			"offset": "1,1",
			"author": "_Clark Kimberling_, May 25 2017",
			"references": 5,
			"revision": 4,
			"time": "2017-05-25T17:53:47-04:00",
			"created": "2017-05-25T17:53:47-04:00"
		}
	]
}