{
	"greeting": "Greetings from The On-Line Encyclopedia of Integer Sequences! http://oeis.org/",
	"query": "id:A287089",
	"count": 1,
	"start": 0,
	"results": [
		{
			"number": 287089,
			"data": "3,4,13,14,17,18,21,22,27,28,33,34,43,44,53,54,63,64,67,68,71,72,81,82,85,86,89,90,99,100,103,104,107,108,113,114,119,120,129,130,133,134,137,138,143,144,149,150,159,160,163,164,167,168,173,174,179,180",
			"name": "Positions of 2 in A287086.",
			"link": [
				"Clark Kimberling, \u003ca href=\"/A287089/b287089.txt\"\u003eTable of n, a(n) for n = 1..10000\u003c/a\u003e"
			],
			"mathematica": [
				"s = Nest[Flatten[# /. {0 -\u003e {0, 1}, 1 -\u003e {2, 2}, 2 -\u003e 0}] \u0026, {0}, 10] (* A287086 *)",
				"Flatten[Position[s, 0]] (* A287087 *)",
				"Flatten[Position[s, 1]] (* A287088 *)",
				"Flatten[Position[s, 2]] (* A287089 *)"
			],
			"xref": [
				"Cf. A287086, A287087, A287088."
			],
			"keyword": "nonn,easy",
			"offset": "1,1",
			"author": "_Clark Kimberling_, May 21 2017",
			"references": 4,
			"revision": 4,
			"time": "2017-05-21T21:30:03-04:00",
			"created": "2017-05-21T21:30:03-04:00"
		}
	]
}