{
	"greeting": "Greetings from The On-Line Encyclopedia of Integer Sequences! http://oeis.org/",
	"query": "id:A287322",
	"count": 1,
	"start": 0,
	"results": [
		{
			"number": 287322,
			"data": "5,11,15,19,21,23,29,35,41,45,49,51,53,59,63,67,69,71,77,81,85,87,89,95,97,99,105,107,109,115,121,127,131,135,137,139,145,151,157,161,165,167,169,175,181,187,191,195,197,199,205,209,213,215,217,223,227",
			"name": "Positions of 1 in A287320.",
			"link": [
				"Clark Kimberling, \u003ca href=\"/A287322/b287322.txt\"\u003eTable of n, a(n) for n = 1..10000\u003c/a\u003e"
			],
			"mathematica": [
				"s = Nest[Flatten[# /. {0 -\u003e {1, 0}, 1 -\u003e {2, 2}, 2 -\u003e 0}] \u0026, {0}, 9] (* A287175 *)",
				"Flatten[Position[s, 0]] (* A287321 *)",
				"Flatten[Position[s, 1]] (* A287322 *)",
				"Flatten[Position[s, 2]] (* A287323 *)"
			],
			"xref": [
				"Cf. A287320, A287321, A287323."
			],
			"keyword": "nonn,easy",
			"offset": "1,1",
			"author": "_Clark Kimberling_, May 23 2017",
			"references": 4,
			"revision": 4,
			"time": "2017-05-23T14:32:36-04:00",
			"created": "2017-05-23T14:32:36-04:00"
		}
	]
}