{
	"greeting": "Greetings from The On-Line Encyclopedia of Integer Sequences! http://oeis.org/",
	"query": "id:A287994",
	"count": 1,
	"start": 0,
	"results": [
		{
			"number": 287994,
			"data": "24,413,326,8239,107472,1632152,9719518",
			"name": "Position of the first time an n-digit number appears twice in a row after the decimal point of Pi.",
			"comment": [
				"209209 and 305305 appear in Pi before any 2-digit number appears twice in a row."
			],
			"example": [
				"a(1) = 24 because the first time a 1-digit number appears twice in a row in the decimal expansion of Pi is 24 digits after the decimal point: 3.14159265358979323846264(33)..."
			],
			"mathematica": [
				"s = First@ RealDigits[Pi,10,10^7]; Table[p = Partition[s,k,1];",
				"SelectFirst[ Range[ Length[p] - k], p[[#]] == p[[# + k]] \u0026] - 1, {k,",
				"7}] (* _Giovanni Resta_, Sep 05 2017 *)"
			],
			"xref": [
				"Cf. A000796, A288291, A290977."
			],
			"keyword": "nonn,base,more",
			"offset": "1,1",
			"author": "_Bobby Jacobs_, Sep 01 2017",
			"references": 2,
			"revision": 46,
			"time": "2017-09-08T09:39:23-04:00",
			"created": "2017-09-08T09:39:23-04:00"
		}
	]
}