{
	"greeting": "Greetings from The On-Line Encyclopedia of Integer Sequences! http://oeis.org/",
	"query": "id:A287448",
	"count": 1,
	"start": 0,
	"results": [
		{
			"number": 287448,
			"data": "3,4,10,12,15,16,22,23,27,33,37,40,42,45,46,52,53,59,61,64,65,69,73,76,77,83,84,88,92,95,96,100,106,107,113,117,120,122,125,126,132,133,139,141,144,145,151,152,156,162,166,169,171,174,175,179,183,186",
			"name": "Positions of 1 in A287382; complement of A287440.",
			"comment": [
				"Conjecture: a(n)/n -\u003e 3.19..., and if m denotes this number, then -1 \u003c m - a(n)/n) \u003c 2 for n \u003e= 1."
			],
			"link": [
				"Clark Kimberling, \u003ca href=\"/A287448/b287448.txt\"\u003eTable of n, a(n) for n = 1..10000\u003c/a\u003e"
			],
			"mathematica": [
				"s = {0, 0}; w[0] = StringJoin[Map[ToString, s]];",
				"w[n_] := StringReplace[w[n - 1], {\"00\" -\u003e \"1000\", \"10\" -\u003e \"001\"}]",
				"Table[w[n], {n, 0, 8}]",
				"st = ToCharacterCode[w[23]] - 48   (* A287382 *)",
				"Flatten[Position[st, 0]]  (* A287440 *)",
				"Flatten[Position[st, 1]]  (* A287448 *)"
			],
			"xref": [
				"Cf. A287382, A287440."
			],
			"keyword": "nonn,easy",
			"offset": "1,1",
			"author": "_Clark Kimberling_, Jun 18 2017",
			"references": 3,
			"revision": 6,
			"time": "2017-06-18T22:09:03-04:00",
			"created": "2017-06-18T22:09:03-04:00"
		}
	]
}