{
	"greeting": "Greetings from The On-Line Encyclopedia of Integer Sequences! http://oeis.org/",
	"query": "id:A287667",
	"count": 1,
	"start": 0,
	"results": [
		{
			"number": 287667,
			"data": "1,1,2,5,15,52,203,876,4116,20827,112538,645045,3900512,24769152,164546915,1139818861,8209631792,61331709492,474221335902,3787741281763,31199052157724,264605708064825,2307562757319104,20666169125398768,189855243829576499",
			"name": "Number of set partitions of [n] such that j is member of block b only if b = 1 or at least one of j-1, ..., j-4 is member of a block \u003e= b-1.",
			"link": [
				"Alois P. Heinz, \u003ca href=\"/A287667/b287667.txt\"\u003eTable of n, a(n) for n = 0..90\u003c/a\u003e",
				"Wikipedia, \u003ca href=\"https://en.wikipedia.org/wiki/Partition_of_a_set\"\u003ePartition of a set\u003c/a\u003e"
			],
			"formula": [
				"a(n) = A287641(n,4).",
				"a(n) = A000110(n) for n \u003c= 6."
			],
			"example": [
				"a(7) = 876 = 877 - 1 = A000110(7) - 1 counts all set partitions of [7] except: 13456|2|7."
			],
			"maple": [
				"b:= proc(n, l) option remember; `if`(n=0, 1, add(b(n-1,",
				"      [seq(max(l[i], j), i=2..nops(l)), j]), j=1..l[1]+1))",
				"    end:",
				"a:= n-\u003e b(n, [0$4]):",
				"seq(a(n), n=0..26);"
			],
			"mathematica": [
				"b[n_, l_] := b[n, l] = If[n == 0, 1, Sum[b[n - 1, Append[Table[Max[l[[i]], j], {i, 2, Length[l]}], j]], {j, 1, l[[1]] + 1}]];",
				"a[n_] := b[n, Table[0, 4]];",
				"Table[a[n], {n, 0, 26}] (* _Jean-François Alcover_, May 27 2018, from Maple *)"
			],
			"xref": [
				"Column k=4 of A287641.",
				"Cf. A000110."
			],
			"keyword": "nonn",
			"offset": "0,3",
			"author": "_Alois P. Heinz_, May 29 2017",
			"references": 2,
			"revision": 10,
			"time": "2018-05-27T10:33:04-04:00",
			"created": "2017-05-29T16:21:04-04:00"
		}
	]
}