{
	"greeting": "Greetings from The On-Line Encyclopedia of Integer Sequences! http://oeis.org/",
	"query": "id:A287686",
	"count": 1,
	"start": 0,
	"results": [
		{
			"number": 287686,
			"data": "83,366819,1055019,1947411,2740107,3694179,6627579,8851251,9430899,20243811,28391619,37545291,38242083,49459179,56550291,88205211,101931891,103429491,108060339,135085851,176962659,183973851,194907051,196911171,212874531,249687699,271986651",
			"name": "Numbers that are sums of three consecutive primes (A034961) and also sums of squares of three consecutive primes (A133529).",
			"comment": [
				"The only prime number is 83."
			],
			"link": [
				"Chai Wah Wu, \u003ca href=\"/A287686/b287686.txt\"\u003eTable of n, a(n) for n = 1..10000\u003c/a\u003e"
			],
			"example": [
				"83=A034961(9)=A133529(2),",
				"366819=A034961(11502)=A133529(69),",
				"1055019=A034961(30105)=A133529(107),",
				"1947411=A034961(52758)=A133529(139),",
				"2740107=A034961(72260)=A133529(161),",
				"3694179=A034961(95152)=A133529(185)."
			],
			"program": [
				"(Python)",
				"from __future__ import division",
				"from sympy import prevprime, nextprime, isprime",
				"A287686_list, p2, q2, r2, r = [], 4, 9, 25, 5",
				"while r \u003c 10**6:",
				"    n = p2+q2+r2",
				"    m = n//3",
				"    pm, nm = prevprime(m), nextprime(m)",
				"    k = n - pm - nm",
				"    if isprime(m):",
				"        if m == k:",
				"            A287686_list.append(n)",
				"    else:",
				"        if nextprime(nm) == k or prevprime(pm) == k:",
				"            A287686_list.append(n)",
				"    s = nextprime(r)",
				"    p2, q2, r2, r = q2, r2, s**2, s # _Chai Wah Wu_, May 30 2017"
			],
			"xref": [
				"Cf. A034961 Sums of three consecutive primes. A133529 Sum of squares of three consecutive primes."
			],
			"keyword": "nonn",
			"offset": "1,1",
			"author": "_Zak Seidov_, May 29 2017",
			"references": 1,
			"revision": 10,
			"time": "2017-05-30T23:29:15-04:00",
			"created": "2017-05-30T00:19:52-04:00"
		}
	]
}