{
	"greeting": "Greetings from The On-Line Encyclopedia of Integer Sequences! http://oeis.org/",
	"query": "id:A287589",
	"count": 1,
	"start": 0,
	"results": [
		{
			"number": 287589,
			"data": "1,1,2,5,15,52,203,877,4140,21147,115975,678570,4097621,25396897,160757829,1034542443,6742599834,44362398136,293897938033,1956688777638,13073261821160,87577473173716,587947614677023,3953463212747522,26614587904889651,179316842821307806",
			"name": "Number of set partitions of [n] such that all absolute differences between least elements of consecutive blocks and between consecutive elements within the blocks are not larger than ten.",
			"link": [
				"Alois P. Heinz, \u003ca href=\"/A287589/b287589.txt\"\u003eTable of n, a(n) for n = 0..1000\u003c/a\u003e",
				"Wikipedia, \u003ca href=\"https://en.wikipedia.org/wiki/Partition_of_a_set\"\u003ePartition of a set\u003c/a\u003e"
			],
			"formula": [
				"a(n) = A000110(n) for n \u003c= 11."
			],
			"xref": [
				"Column k=10 of A287417.",
				"Cf. A000110."
			],
			"keyword": "nonn",
			"offset": "0,3",
			"author": "_Alois P. Heinz_, May 26 2017",
			"references": 2,
			"revision": 6,
			"time": "2017-05-26T20:50:41-04:00",
			"created": "2017-05-26T20:50:41-04:00"
		}
	]
}