{
	"greeting": "Greetings from The On-Line Encyclopedia of Integer Sequences! http://oeis.org/",
	"query": "id:A287998",
	"count": 1,
	"start": 0,
	"results": [
		{
			"number": 287998,
			"data": "1,1,1,2,2,3,4,5,6,8,10,12,15,18,22,27,32,37,45,52,61,72,83,96,111,128,146,168,191,217,247,279,314,355,398,446,501,558,622,693,770,853,946,1045,1153,1273,1400,1538,1690,1852,2027,2219,2422,2642,2881,3136,3409",
			"name": "Expansion of 1/((1-x)(1-x^3)(1-x^5) ... (1-x^15)).",
			"comment": [
				"Number of partitions of n into odd parts less than or equal to 15.",
				"Number of partitions (d1,d2,...,d8) of n such that 0 \u003c= d1/1 \u003c= d2/2 \u003c= ... \u003c= d8/8."
			],
			"link": [
				"Seiichi Manyama, \u003ca href=\"/A287998/b287998.txt\"\u003eTable of n, a(n) for n = 0..10000\u003c/a\u003e",
				"\u003ca href=\"/index/Rec#order_64\"\u003eIndex entries for linear recurrences with constant coefficients\u003c/a\u003e, signature (1, 0, 1, -1, 1, -1, 1, -2, 2, -2, 2, -3, 3, -3, 4, -5, 4, -4, 5, -5, 6, -5, 6, -7, 7, -6, 7, -8, 7, -7, 7, -8, 7, -7, 7, -8, 7, -6, 7, -7, 6, -5, 6, -5, 5, -4, 4, -5, 4, -3, 3, -3, 2, -2, 2, -2, 1, -1, 1, -1, 1, 0, 1, -1)."
			],
			"xref": [
				"Cf. A259094."
			],
			"keyword": "nonn",
			"offset": "0,4",
			"author": "_Seiichi Manyama_, Jun 04 2017",
			"references": 2,
			"revision": 15,
			"time": "2021-01-26T03:51:00-05:00",
			"created": "2017-06-04T08:03:06-04:00"
		}
	]
}