{
	"greeting": "Greetings from The On-Line Encyclopedia of Integer Sequences! http://oeis.org/",
	"query": "id:A287968",
	"count": 1,
	"start": 0,
	"results": [
		{
			"number": 287968,
			"data": "1,1,2,5,14,41,130,414,1365,4564,15491,53147,184014,641710,2251113,7937416,28108741,99903584,356181450,1273253851,4561936460,16377201916,58894487282,212108951615,764910126587,2761577715513,9980164366260,36099265669505,130675238973018",
			"name": "Number of Dyck paths of semilength n such that no level has more than four peaks.",
			"link": [
				"Alois P. Heinz, \u003ca href=\"/A287968/b287968.txt\"\u003eTable of n, a(n) for n = 0..1000\u003c/a\u003e",
				"Wikipedia, \u003ca href=\"https://en.wikipedia.org/wiki/Lattice_path#Counting_lattice_paths\"\u003eCounting lattice paths\u003c/a\u003e"
			],
			"formula": [
				"a(n) = A287847(n,4).",
				"a(n) = A000108(n) for n \u003c= 4."
			],
			"xref": [
				"Column k=4 of A287847.",
				"Cf. A000108."
			],
			"keyword": "nonn",
			"offset": "0,3",
			"author": "_Alois P. Heinz_, Jun 03 2017",
			"references": 2,
			"revision": 6,
			"time": "2017-06-03T19:12:36-04:00",
			"created": "2017-06-03T17:46:11-04:00"
		}
	]
}