{
	"greeting": "Greetings from The On-Line Encyclopedia of Integer Sequences! http://oeis.org/",
	"query": "id:A287241",
	"count": 1,
	"start": 0,
	"results": [
		{
			"number": 287241,
			"data": "2,3,6,7,10,12,15,16,19,20,23,25,28,29,32,34,36,39,41,44,45,48,49,52,54,57,58,61,62,65,67,70,71,74,76,78,81,83,86,87,90,91,94,96,99,100,103,105,107,110,112,114,117,119,122,123,126,128,130,133,135",
			"name": "Positions of 0 in A287240.",
			"link": [
				"Clark Kimberling, \u003ca href=\"/A287241/b287241.txt\"\u003eTable of n, a(n) for n = 1..10000\u003c/a\u003e"
			],
			"mathematica": [
				"s = Nest[Flatten[# /. {0 -\u003e {0, 1}, 1 -\u003e {2, 0}, 2 -\u003e 1}] \u0026, {1}, 11] (* A287240 *)",
				"Flatten[Position[s, 0]] (* A287241 *)",
				"Flatten[Position[s, 1]] (* A287242 *)",
				"Flatten[Position[s, 2]] (* A287243 *)"
			],
			"xref": [
				"Cf. A287241, A287242, A287243."
			],
			"keyword": "nonn,easy",
			"offset": "1,1",
			"author": "_Clark Kimberling_, May 24 2017",
			"references": 4,
			"revision": 4,
			"time": "2017-05-24T10:00:09-04:00",
			"created": "2017-05-24T10:00:09-04:00"
		}
	]
}