{
	"greeting": "Greetings from The On-Line Encyclopedia of Integer Sequences! http://oeis.org/",
	"query": "id:A287008",
	"count": 1,
	"start": 0,
	"results": [
		{
			"number": 287008,
			"data": "0,1,2,5,13,43,186,1187,13009,270986",
			"name": "Number of disconnected simple graphs on n vertices whose fractional chromatic number equals its chromatic number.",
			"link": [
				"Eric Weisstein's World of Mathematics, \u003ca href=\"http://mathworld.wolfram.com/ChromaticNumber.html\"\u003eChromatic Number\u003c/a\u003e",
				"Eric Weisstein's World of Mathematics, \u003ca href=\"http://mathworld.wolfram.com/FractionalChromaticNumber.html\"\u003eFractional Chromatic Number\u003c/a\u003e"
			],
			"formula": [
				"a(n) = A287007(n) - A243252(n)."
			],
			"xref": [
				"Cf. A287007 (number of not-necessarily connected simple graphs on n nodes with fractional chromatic number equal to chromatic number).",
				"Cf. A243252 (number of simple connected graphs on n node with fractional chromatic number equal to chromatic number)."
			],
			"keyword": "nonn,more",
			"offset": "1,3",
			"author": "_Eric W. Weisstein_, May 17 2017",
			"references": 3,
			"revision": 12,
			"time": "2017-05-19T02:40:06-04:00",
			"created": "2017-05-17T22:43:15-04:00"
		}
	]
}