{
	"greeting": "Greetings from The On-Line Encyclopedia of Integer Sequences! http://oeis.org/",
	"query": "id:A287838",
	"count": 1,
	"start": 0,
	"results": [
		{
			"number": 287838,
			"data": "1,11,115,1205,12625,132275,1385875,14520125,152130625,1593906875,16699721875,174966753125,1833166140625,19206495171875,201230782421875,2108340300078125,22089556912890625,231437270629296875,2424820490857421875,25405391261720703125",
			"name": "Number of words of length n over the alphabet {0,1,...,10} such that no two consecutive terms have distance 8.",
			"comment": [
				"In general, the number of sequences on {0,1,...,10} such that no two consecutive terms have distance 6+k for k in {0,1,2,3,4} has generating function (-1 - x)/(-1 + 10*x + (2*k+1)*x^2)."
			],
			"link": [
				"Colin Barker, \u003ca href=\"/A287838/b287838.txt\"\u003eTable of n, a(n) for n = 0..900\u003c/a\u003e",
				"\u003ca href=\"/index/Rec#order_02\"\u003eIndex entries for linear recurrences with constant coefficients\u003c/a\u003e, signature (10,5)."
			],
			"formula": [
				"For n \u003e 2, a(n) = 10*a(n-1) + 5*a(n-2), a(0)=1, a(1)=11, a(2)=115.",
				"G.f.: (-1 - x)/(-1 + 10*x + 5*x^2).",
				"a(n) = (((5-sqrt(30))^n*(-6+sqrt(30)) + (5+sqrt(30))^n*(6+sqrt(30)))) / (2*sqrt(30)). - _Colin Barker_, Nov 25 2017"
			],
			"mathematica": [
				"LinearRecurrence[{10, 5}, {1, 11, 115}, 20]"
			],
			"program": [
				"(Python)",
				"def a(n):",
				".if n in [0,1,2]:",
				"..return [1, 11, 115][n]",
				".return 10*a(n-1) + 5*a(n-2)",
				"(PARI) Vec((1 + x) / (1 - 10*x - 5*x^2) + O(x^40)) \\\\ _Colin Barker_, Nov 25 2017"
			],
			"xref": [
				"Cf. A040000, A003945, A083318, A078057, A003946, A126358, A003946, A055099, A003947, A015448, A126473. A287804-A287819. A287825-A287839."
			],
			"keyword": "nonn,easy",
			"offset": "0,2",
			"author": "_David Nacin_, Jun 07 2017",
			"references": 1,
			"revision": 13,
			"time": "2017-11-26T09:44:36-05:00",
			"created": "2017-06-07T19:21:39-04:00"
		}
	]
}