{
	"greeting": "Greetings from The On-Line Encyclopedia of Integer Sequences! http://oeis.org/",
	"query": "id:A287265",
	"count": 1,
	"start": 0,
	"results": [
		{
			"number": 287265,
			"data": "5,6,11,12,13,14,16,17,23,24,29,30,31,32,34,35,37,38,40,41,47,48,50,51,61,62,67,68,69,70,72,73,79,80,85,86,87,88,90,91,93,94,96,97,103,104,106,107,113,114,116,117,123,124,126,127,137,138,143,144,145",
			"name": "Positions of 1 in A287263.",
			"link": [
				"Clark Kimberling, \u003ca href=\"/A287265/b287265.txt\"\u003eTable of n, a(n) for n = 1..13823\u003c/a\u003e"
			],
			"mathematica": [
				"s = Nest[Flatten[# /. {0 -\u003e {1, 1}, 1 -\u003e {0, 2}, 2 -\u003e 0}] \u0026, {0}, 10] (* A287263 *)",
				"Flatten[Position[s, 0]] (* A287264 *)",
				"Flatten[Position[s, 1]] (* A287265 *)",
				"Flatten[Position[s, 2]] (* A287266 *)"
			],
			"xref": [
				"Cf. A287263, A287264, A287266."
			],
			"keyword": "nonn,easy",
			"offset": "1,1",
			"author": "_Clark Kimberling_, May 24 2017",
			"references": 4,
			"revision": 4,
			"time": "2017-05-24T10:00:47-04:00",
			"created": "2017-05-24T10:00:47-04:00"
		}
	]
}