{
	"greeting": "Greetings from The On-Line Encyclopedia of Integer Sequences! http://oeis.org/",
	"query": "id:A287237",
	"count": 1,
	"start": 0,
	"results": [
		{
			"number": 287237,
			"data": "6,13,18,22,29,36,41,45,52,57,61,65,70,74,81,88,93,97,104,111,116,120,127,132,136,140,145,149,156,163,168,172,179,184,188,192,197,201,205,210,214,221,226,230,234,239,243,250,257,262,266,273,280,285,289",
			"name": "Positions of 2 in A287234.",
			"link": [
				"Clark Kimberling, \u003ca href=\"/A287237/b287237.txt\"\u003eTable of n, a(n) for n = 1..10000\u003c/a\u003e"
			],
			"mathematica": [
				"s = Nest[Flatten[# /. {0 -\u003e {0, 1}, 1 -\u003e {2, 0}, 2 -\u003e 1}] \u0026, {1}, 10] (* A287234 *)",
				"Flatten[Position[s, 0]] (* A287235 *)",
				"Flatten[Position[s, 1]] (* A287236 *)",
				"Flatten[Position[s, 2]] (* A287237 *)"
			],
			"xref": [
				"Cf. A287234, A287235, A287236."
			],
			"keyword": "nonn,easy",
			"offset": "1,1",
			"author": "_Clark Kimberling_, May 24 2017",
			"references": 4,
			"revision": 4,
			"time": "2017-05-24T09:59:54-04:00",
			"created": "2017-05-24T09:59:54-04:00"
		}
	]
}