{
	"greeting": "Greetings from The On-Line Encyclopedia of Integer Sequences! http://oeis.org/",
	"query": "id:A288996",
	"count": 1,
	"start": 0,
	"results": [
		{
			"number": 288996,
			"data": "2,4,7,12,22,39,68,121,213,379,676,1206,2155,3832,6823,12156,21658,38584,68716,122402,218016,388317,691583,1231599,2193224,3905575,6954709,12384775,22053977,39271946,69933281,124534373,221766354,394914918,703253649,1252338238",
			"name": "Length of n-th iterate of the mapping 00-\u003e0010, 01-\u003e001, 10-\u003e000, starting with 00.",
			"mathematica": [
				"z = 20; (* number of iterates *)",
				"s = {0, 0}; w[0] = StringJoin[Map[ToString, s]];",
				"w[n_] := StringReplace[w[n - 1], {\"00\" -\u003e \"0010\", \"01\" -\u003e \"001\", \"10\" -\u003e \"000\"}]",
				"TableForm[Table[w[n], {n, 0, 10}]]",
				"Table[StringLength[w[n]], {n, 0, 20}] (* A288996 *)"
			],
			"xref": [
				"Cf. A288991. A288997."
			],
			"keyword": "nonn,easy",
			"offset": "1,1",
			"author": "_Clark Kimberling_, Jun 25 2017",
			"ext": [
				"a(27)-a(35) from _Lars Blomberg_, Jul 05 2017"
			],
			"references": 2,
			"revision": 9,
			"time": "2017-07-05T03:26:10-04:00",
			"created": "2017-06-25T23:01:43-04:00"
		}
	]
}