{
	"greeting": "Greetings from The On-Line Encyclopedia of Integer Sequences! http://oeis.org/",
	"query": "id:A288462",
	"count": 1,
	"start": 0,
	"results": [
		{
			"number": 288462,
			"data": "0,1,0,0,1,0,1,1,0,0,1,0,1,0,0,1,0,1,1,0,0,1,0,0,1,0,1,1,0,0,1,0,1,0,0,1,0,1,1,0,0,1,0,1,1,0,0,1,0,1,0,0,1,0,1,1,0,0,1,0,0,1,0,1,1,0,0,1,0,1,0,0,1,0,1,1,0,0,1,0,1,0,0,1,0,1",
			"name": "Fixed point of the mapping 00-\u003e0101, 1-\u003e10, starting with 00.",
			"comment": [
				"Conjecture: the number of letters (0's and 1's) in the n-th iterate is given by A288465(n)."
			],
			"link": [
				"Clark Kimberling, \u003ca href=\"/A288462/b288462.txt\"\u003eTable of n, a(n) for n = 1..10000\u003c/a\u003e"
			],
			"example": [
				"Iterates, starting with 00:",
				"00",
				"0101",
				"010010",
				"0100101100",
				"010010110010100101",
				"01001011001010010110010010110010"
			],
			"mathematica": [
				"s = {0, 0}; w[0] = StringJoin[Map[ToString, s]];",
				"w[n_] := StringReplace[w[n - 1], {\"00\" -\u003e \"0101\", \"1\" -\u003e \"10\"}]",
				"Table[w[n], {n, 0, 8}]",
				"st = ToCharacterCode[w[11]] - 48   (* A288462 *)",
				"Flatten[Position[st, 0]]  (* A288463 *)",
				"Flatten[Position[st, 1]]  (* A288464 *)",
				"Table[StringLength[w[n]], {n, 1, 35}] (* A288465 conjectured *)"
			],
			"xref": [
				"Cf. A288463, A288464, A288465."
			],
			"keyword": "nonn,easy",
			"offset": "1",
			"author": "_Clark Kimberling_, Jun 11 2017",
			"references": 4,
			"revision": 7,
			"time": "2020-04-06T19:33:24-04:00",
			"created": "2017-06-11T20:51:58-04:00"
		}
	]
}