{
	"greeting": "Greetings from The On-Line Encyclopedia of Integer Sequences! http://oeis.org/",
	"query": "id:A288848",
	"count": 1,
	"start": 0,
	"results": [
		{
			"number": 288848,
			"data": "1,2,10,1000000000",
			"name": "a(1) = 1; thereafter a(n+1) is the smallest integer \u003e a(n) having a(n) digits.",
			"comment": [
				"The next term is too large to include."
			],
			"xref": [
				"A variation on A252707."
			],
			"keyword": "nonn",
			"offset": "1,2",
			"author": "_Benoit Cloitre_, Jun 18 2017",
			"references": 1,
			"revision": 7,
			"time": "2017-06-20T13:18:42-04:00",
			"created": "2017-06-20T13:18:42-04:00"
		}
	]
}