{
	"greeting": "Greetings from The On-Line Encyclopedia of Integer Sequences! http://oeis.org/",
	"query": "id:A288859",
	"count": 1,
	"start": 0,
	"results": [
		{
			"number": 288859,
			"data": "1,5,6,7,11,18,24,29,33,34,35,36,44,55,65,74,82,89,95,100,104,105,106,107,110,126,141,155,168,180,191,201,210,218,225,231,236,240,241,242,243,246,250,251,252,267,287,306,324,341,357,372,386,399,411,422",
			"name": "Positions of 0 in A288858; complement of A288860.",
			"link": [
				"Clark Kimberling, \u003ca href=\"/A288859/b288859.txt\"\u003eTable of n, a(n) for n = 1..10000\u003c/a\u003e"
			],
			"mathematica": [
				"s = {0, 0}; w[0] = StringJoin[Map[ToString, s]];",
				"w[n_] := StringReplace[w[n - 1], {\"00\" -\u003e \"1000\", \"10\" -\u003e \"011\"}]",
				"Table[w[n], {n, 0, 8}]",
				"st = ToCharacterCode[w[52]] - 48   (* A288858 *)",
				"Flatten[Position[st, 0]]  (* A288859 *)",
				"Flatten[Position[st, 1]]  (* A288860 *)"
			],
			"xref": [
				"Cf. A288858, A288860."
			],
			"keyword": "nonn,easy",
			"offset": "1,2",
			"author": "_Clark Kimberling_, Jun 23 2017",
			"references": 3,
			"revision": 4,
			"time": "2017-06-24T01:04:34-04:00",
			"created": "2017-06-24T01:04:34-04:00"
		}
	]
}