{
	"greeting": "Greetings from The On-Line Encyclopedia of Integer Sequences! http://oeis.org/",
	"query": "id:A288740",
	"count": 1,
	"start": 0,
	"results": [
		{
			"number": 288740,
			"data": "2,3,8,9,11,12,14,15,20,21,26,27,29,30,32,33,35,36,38,39,44,45,50,51,53,54,56,57,62,63,68,69,71,72,74,75,77,78,80,81,83,84,86,87,92,93,98,99,101,102,104,105,110,111,116,117,119,120,122,123,125,126",
			"name": "Positions of 1 in A288736; complement of A288737.",
			"comment": [
				"Conjecture:  a(n)/n -\u003e 2, and  -2/3 \u003c 2 - a(n)/n) \u003c 1/2 for n \u003e= 1."
			],
			"link": [
				"Clark Kimberling, \u003ca href=\"/A288740/b288740.txt\"\u003eTable of n, a(n) for n = 1..10000\u003c/a\u003e"
			],
			"mathematica": [
				"s = {0, 0}; w[0] = StringJoin[Map[ToString, s]];",
				"w[n_] := StringReplace[w[n - 1], {\"00\" -\u003e \"1000\", \"10\" -\u003e \"01\"}]",
				"Table[w[n], {n, 0, 8}]",
				"st = ToCharacterCode[w[22]] - 48   (* A288736 *)",
				"Flatten[Position[st, 0]]  (* A288737 *)",
				"Flatten[Position[st, 1]]  (* A288740 *)"
			],
			"xref": [
				"Cf. A288736, A288737."
			],
			"keyword": "nonn,easy",
			"offset": "1,1",
			"author": "_Clark Kimberling_, Jun 16 2017",
			"references": 3,
			"revision": 8,
			"time": "2018-08-04T04:11:08-04:00",
			"created": "2017-06-16T22:23:13-04:00"
		}
	]
}