{
	"greeting": "Greetings from The On-Line Encyclopedia of Integer Sequences! http://oeis.org/",
	"query": "id:A288548",
	"count": 1,
	"start": 0,
	"results": [
		{
			"number": 288548,
			"data": "1,0,0,0,0,0,0,0,0,0,10,461,7205,57165,277705,931347,2377374,5076785,9930755,19006525,36578245,71039375,139303141,283400392,719003238,3354487012,24605098028,182759086971,1191293398162,6729538338238,33388441276835,147969800303361",
			"name": "Number of Dyck paths of semilength n such that the minimal number of peaks over all positive levels equals nine.",
			"link": [
				"Alois P. Heinz, \u003ca href=\"/A288548/b288548.txt\"\u003eTable of n, a(n) for n = 9..300\u003c/a\u003e",
				"Wikipedia, \u003ca href=\"https://en.wikipedia.org/wiki/Lattice_path#Counting_lattice_paths\"\u003eCounting lattice paths\u003c/a\u003e"
			],
			"xref": [
				"Column k=9 of A288387.",
				"Cf. A000108."
			],
			"keyword": "nonn",
			"offset": "9,11",
			"author": "_Alois P. Heinz_, Jun 11 2017",
			"references": 2,
			"revision": 5,
			"time": "2017-06-13T12:07:07-04:00",
			"created": "2017-06-11T11:33:18-04:00"
		}
	]
}