{
	"greeting": "Greetings from The On-Line Encyclopedia of Integer Sequences! http://oeis.org/",
	"query": "id:A288541",
	"count": 1,
	"start": 0,
	"results": [
		{
			"number": 288541,
			"data": "1,0,0,3,13,30,61,172,619,2241,7736,25786,85315,286653,986444,3465777,12342188,44275218,159463056,576136367,2089063623,7607265038,27829092314,102263653872,377340952123,1397457667346,5192248524833,19348310336881,72292940817636",
			"name": "Number of Dyck paths of semilength n such that the minimal number of peaks over all positive levels equals two.",
			"link": [
				"Alois P. Heinz, \u003ca href=\"/A288541/b288541.txt\"\u003eTable of n, a(n) for n = 2..300\u003c/a\u003e",
				"Wikipedia, \u003ca href=\"https://en.wikipedia.org/wiki/Lattice_path#Counting_lattice_paths\"\u003eCounting lattice paths\u003c/a\u003e"
			],
			"example": [
				": a(5) = 3:",
				":",
				":            /\\/\\      /\\/\\      /\\/\\",
				":       /\\/\\/    \\  /\\/    \\/\\  /    \\/\\/\\  ."
			],
			"xref": [
				"Column k=2 of A288387.",
				"Cf. A000108."
			],
			"keyword": "nonn",
			"offset": "2,4",
			"author": "_Alois P. Heinz_, Jun 11 2017",
			"references": 2,
			"revision": 6,
			"time": "2017-06-11T20:44:59-04:00",
			"created": "2017-06-11T11:11:14-04:00"
		}
	]
}