{
	"greeting": "Greetings from The On-Line Encyclopedia of Integer Sequences! http://oeis.org/",
	"query": "id:A288327",
	"count": 1,
	"start": 0,
	"results": [
		{
			"number": 288327,
			"data": "1,1,2,3,4,5,6,7,8,9,10,11,24,39,56,75,96,119,144,171,200,231,528,897,1344,1875,2496,3213,4032,4959,6000,7161,16896,29601,45696,65625,89856,118881,153216,193401,240000,293601,709632,1272843,2010624,2953125,4133376",
			"name": "Decuple factorial, 10-factorial, n!10, n!!!!!!!!!!.",
			"link": [
				"Robert Price, \u003ca href=\"/A288327/b288327.txt\"\u003eTable of n, a(n) for n = 0..803\u003c/a\u003e",
				"Eric Weisstein's World of Mathematics, \u003ca href=\"http://mathworld.wolfram.com/Multifactorial.html\"\u003eMultifactorial\u003c/a\u003e."
			],
			"formula": [
				"a(n)=1 for n \u003c 1, otherwise a(n) = n*a(n-10)."
			],
			"example": [
				"a(13) = 13 * 3 * 1 = 39."
			],
			"maple": [
				"a:= n-\u003e `if`(n\u003c1, 1, n*a(n-10)); seq(a(n), n=0..50); # _G. C. Greubel_, Aug 22 2019"
			],
			"mathematica": [
				"MultiFactorial[n_, k_]:=If[n\u003c1, 1 ,n*MultiFactorial[n-k, k]];",
				"Table[MultiFactorial[i, 10], {i, 0, 100}]",
				"Table[Times@@Range[n,1,-10],{n,0,50}] (* _Harvey P. Dale_, Aug 11 2019 *)"
			],
			"program": [
				"(PARI) a(n)=if(n\u003c1, 1, n*a(n-10));",
				"vector(40, n, n--; a(n) ) \\\\ _G. C. Greubel_, Aug 22 2019",
				"(MAGMA) b:=func\u003c n | n le 10 select n else n*Self(n-10) \u003e;",
				"[1] cat [b(n): n in [1..50]]; // _G. C. Greubel_, Aug 22 2019",
				"(Sage)",
				"def a(n):",
				"    if (n\u003c1): return 1",
				"    else: return n*a(n-10)",
				"[a(n) for n in (0..50)] # _G. C. Greubel_, Aug 22 2019",
				"(GAP)",
				"a:= function(n)",
				"    if n\u003c1 then return 1;",
				"    else return n*a(n-10);",
				"    fi;",
				"  end;",
				"List([0..50], n-\u003e a(n) ); # _G. C. Greubel_, Aug 22 2019"
			],
			"xref": [
				"Cf. A006852, A007661, A007662, A085157, A085158, A114799, A114800, A114806."
			],
			"keyword": "easy,nonn",
			"offset": "0,3",
			"author": "_Robert Price_, Jun 07 2017",
			"references": 8,
			"revision": 19,
			"time": "2019-08-22T04:44:04-04:00",
			"created": "2017-06-07T23:15:03-04:00"
		}
	]
}