{
	"greeting": "Greetings from The On-Line Encyclopedia of Integer Sequences! http://oeis.org/",
	"query": "id:A288686",
	"count": 1,
	"start": 0,
	"results": [
		{
			"number": 288686,
			"data": "1,0,0,0,0,0,0,0,0,0,1,1,1,1,1,1,1,1,1,1,1,12,618,11695,112434,665219,2756389,8890492,24410518,60972735,144203914,329766287,737405644,1623087349,3531560786,7633789153,16745585892,41482511559,152244106469,886899776271",
			"name": "Number of Dyck paths of semilength n such that no positive level has fewer than ten peaks.",
			"link": [
				"Alois P. Heinz, \u003ca href=\"/A288686/b288686.txt\"\u003eTable of n, a(n) for n = 0..300\u003c/a\u003e",
				"Wikipedia, \u003ca href=\"https://en.wikipedia.org/wiki/Lattice_path#Counting_lattice_paths\"\u003eCounting lattice paths\u003c/a\u003e"
			],
			"mathematica": [
				"b[n_, k_, j_]:=b[n, k, j]=If[j==n, 1, Sum[Sum[Binomial[i, m] Binomial[j - 1, i - 1 - m], {m, Max[k, i - j], i - 1}] b[n - j, k, i], {i, n - j}]];  a[n_]:=If[n==0, 1, Sum[b[n, 10, j], {j, 10, n}]]; Table[a[n], {n, 0, 40}] (* _Indranil Ghosh_, Aug 10 2017 *)"
			],
			"program": [
				"(Python)",
				"from sympy.core.cache import cacheit",
				"from sympy import binomial",
				"@cacheit",
				"def b(n, k, j): return 1 if j==n else sum(sum(binomial(i, m)*binomial(j - 1, i - 1 - m) for m in range(max(k, i - j), i))*b(n - j, k, i) for i in range(1, n - j + 1))",
				"def a(n): return 1 if n==0 else sum(b(n, 10, j) for j in range(10, n + 1))",
				"print([a(n) for n in range(41)]) # _Indranil Ghosh_, Aug 10 2017"
			],
			"xref": [
				"Column k=10 of A288386.",
				"Cf. A000108."
			],
			"keyword": "nonn",
			"offset": "0,22",
			"author": "_Alois P. Heinz_, Jun 13 2017",
			"references": 2,
			"revision": 13,
			"time": "2020-05-12T04:44:45-04:00",
			"created": "2017-06-13T16:28:53-04:00"
		}
	]
}