{
	"greeting": "Greetings from The On-Line Encyclopedia of Integer Sequences! http://oeis.org/",
	"query": "id:A288517",
	"count": 1,
	"start": 0,
	"results": [
		{
			"number": 288517,
			"data": "3,1,28,4,19,39,48,89,120,551,447,589,3707,10137,21644,28456,22998,44494,86132,166930,703448,628371,1220814,1608668,11153853,6091437,56676014,268389220,146153797,193010987,916382785,738246947,4702317172,2830095027,12627951809",
			"name": "Least integer k such that A001358(k) + A001358(k+1) is the product of exactly n prime factors (counting multiplicity).",
			"link": [
				"Charles R Greathouse IV, \u003ca href=\"/A288517/b288517.txt\"\u003eTable of n, a(n) for n = 1..50\u003c/a\u003e"
			],
			"example": [
				"n=1: k=3, A001358(3) + A001358(4) = 9 + 10 = 19 = A000040(8) (8th prime),",
				"n=2: k=1, A001358(1)+A001358(2) = 4+6 = 10 = 2*5 = A001358(4) (4th semiprime),",
				"n=11: k=447, A001358(447)+A001358(448) = 1535+1537 = 3072 = 2^10*3 = A069272(2) (2nd 11-almost prime)."
			],
			"xref": [
				"Cf. A000040, A001358, A014612, A014614, A046306, A046308, A046310, A046312, A046314, A069272."
			],
			"keyword": "nonn",
			"offset": "1,1",
			"author": "_Zak Seidov_, Jun 10 2017",
			"ext": [
				"a(21)-a(35) from _Charles R Greathouse IV_, Jun 10 2017"
			],
			"references": 1,
			"revision": 18,
			"time": "2017-07-26T23:18:02-04:00",
			"created": "2017-06-11T00:48:51-04:00"
		}
	]
}