{
	"greeting": "Greetings from The On-Line Encyclopedia of Integer Sequences! http://oeis.org/",
	"query": "id:A288428",
	"count": 1,
	"start": 0,
	"results": [
		{
			"number": 288428,
			"data": "2,6,8,9,12,13,17,18,22,24,25,26,30,32,33,36,37,38,42,44,45,48,49,53,54,55,59,61,62,65,66,70,71,75,77,78,79,80,84,86,87,90,91,95,96,100,102,103,104,108,110,111,114,115,116,117,121,123,124,127,128",
			"name": "Positions of 1 in A288426; complement of A288427.",
			"comment": [
				"Conjecture:  a(n)/n-\u003e2.07..., and if m denotes this number, then -1 \u003c m - a(n)/n \u003c 1 for n \u003e= 1."
			],
			"link": [
				"Clark Kimberling, \u003ca href=\"/A288428/b288428.txt\"\u003eTable of n, a(n) for n = 1..10000\u003c/a\u003e"
			],
			"mathematica": [
				"s = {0, 0}; w[0] = StringJoin[Map[ToString, s]];",
				"w[n_] := StringReplace[w[n - 1], {\"00\" -\u003e \"0101\", \"10\" -\u003e \"100\"}]",
				"Table[w[n], {n, 0, 8}]",
				"st = ToCharacterCode[w[11]] - 48   (* A288426 *)",
				"Flatten[Position[st, 0]]  (* A288427 *)",
				"Flatten[Position[st, 1]]  (* A288428 *)"
			],
			"xref": [
				"Cf. A288426, A288427."
			],
			"keyword": "nonn,easy",
			"offset": "1,1",
			"author": "_Clark Kimberling_, Jun 11 2017",
			"references": 3,
			"revision": 8,
			"time": "2017-06-12T02:57:52-04:00",
			"created": "2017-06-11T20:51:24-04:00"
		}
	]
}