{
	"greeting": "Greetings from The On-Line Encyclopedia of Integer Sequences! http://oeis.org/",
	"query": "id:A288868",
	"count": 1,
	"start": 0,
	"results": [
		{
			"number": 288868,
			"data": "1,1,3,4,30,12,84,4,15,10,22,3,455,105,1,48,510,36,2660,168,660,1320,184,720,27300,6552,216,16,3480,240,114576,176,5355,3570,126,6,959595,10374,630,840",
			"name": "Denominators of the z-sequence for the Sheffer matrix S2*P = A048993*A007318 = A049020.",
			"comment": [
				"The numerators are in A288867 where details and examples are given."
			],
			"formula": [
				"E.g.f. of r(n) = A288867(n)/a(n), n \u003e= 0: (exp(x)-1)/(log(1+x)*exp(x)).",
				"a(n) = denominator(r(n)) (r(n) in lowest terms)."
			],
			"xref": [
				"Cf. A288867."
			],
			"keyword": "nonn,frac,easy",
			"offset": "0,3",
			"author": "_Wolfdieter Lang_, Jun 20 2017",
			"references": 1,
			"revision": 7,
			"time": "2017-06-20T17:32:47-04:00",
			"created": "2017-06-20T09:58:59-04:00"
		}
	]
}