{
	"greeting": "Greetings from The On-Line Encyclopedia of Integer Sequences! http://oeis.org/",
	"query": "id:A288291",
	"count": 1,
	"start": 0,
	"results": [
		{
			"number": 288291,
			"data": "31,49,97,2,112869,5005575,1561314,69682897",
			"name": "Position of the first time an n-digit number appears twice in a row after the decimal point of e.",
			"comment": [
				"18281828 appears in e before any 1-digit, 2-digit, or 3-digit number appears twice in a row."
			],
			"example": [
				"a(1) = 31 because the first time a 1-digit number appears twice in a row in the decimal expansion of e is 31 digits after the decimal point: 2.718281828459045235360287471352(66)..."
			],
			"mathematica": [
				"s = First@ RealDigits[E, 10, 51*^5]; Table[p = Partition[s, k, 1];",
				"SelectFirst[ Range[ Length[p] - k], p[[#]] == p[[# + k]] \u0026] - 1, {k, 7}] (* _Giovanni Resta_, Sep 05 2017 *)"
			],
			"xref": [
				"Cf. A001113, A287994, A290984."
			],
			"keyword": "nonn,base,more",
			"offset": "1,1",
			"author": "_Bobby Jacobs_, Sep 01 2017",
			"ext": [
				"a(6)-a(8) from _Giovanni Resta_, Sep 05 2017"
			],
			"references": 2,
			"revision": 36,
			"time": "2017-09-08T09:43:45-04:00",
			"created": "2017-09-08T09:43:45-04:00"
		}
	]
}