{
	"greeting": "Greetings from The On-Line Encyclopedia of Integer Sequences! http://oeis.org/",
	"query": "id:A288600",
	"count": 1,
	"start": 0,
	"results": [
		{
			"number": 288600,
			"data": "0,1,0,0,1,0,1,0,0,1,1,0,0,1,0,1,1,0,0,1,0,1,0,0,1,1,1,0,0,1,0,1,0,0,1,1,0,0,1,0,1,1,1,0,0,1,0,1,0,0,1,1,0,0,1,0,1,1,0,0,1,0,1,0,0,1,1,1,1,0,0,1,0,1,0,0,1,1,0,0,1,0,1,1,0,0",
			"name": "Fixed point of the mapping 00-\u003e0101, 10-\u003e1001, starting with 00.",
			"comment": [
				"Iterates, starting with 00:",
				"00",
				"0101",
				"010011",
				"01001011",
				"010010100111",
				"010010100110010111",
				"0100101001100101100101001111",
				"Conjecture: the number of letters (0's and 1's) in the n-th iterate is given by A288603(n).",
				"Is this A288375 with a prefixed 0? - _R. J. Mathar_, Nov 04 2017"
			],
			"link": [
				"Clark Kimberling, \u003ca href=\"/A288600/b288600.txt\"\u003eTable of n, a(n) for n = 1..10000\u003c/a\u003e"
			],
			"mathematica": [
				"s = {0, 0}; w[0] = StringJoin[Map[ToString, s]];",
				"w[n_] := StringReplace[w[n - 1], {\"00\" -\u003e \"0101\", \"10\" -\u003e \"1001\"}]",
				"Table[w[n], {n, 0, 8}]",
				"st = ToCharacterCode[w[11]] - 48   (* A288600 *)",
				"Flatten[Position[st, 0]]  (* A288601 *)",
				"Flatten[Position[st, 1]]  (* A288602 *)",
				"Table[StringLength[w[n]], {n, 1, 35}] (* A288603 conjectured *)"
			],
			"xref": [
				"Cf. A288601, A288602, A288603."
			],
			"keyword": "nonn,easy",
			"offset": "1",
			"author": "_Clark Kimberling_, Jun 14 2017",
			"ext": [
				"Definition corrected by _Georg Fischer_, May 28 2021"
			],
			"references": 4,
			"revision": 12,
			"time": "2021-05-28T11:06:08-04:00",
			"created": "2017-06-15T00:03:30-04:00"
		}
	]
}