{
	"greeting": "Greetings from The On-Line Encyclopedia of Integer Sequences! http://oeis.org/",
	"query": "id:A288935",
	"count": 1,
	"start": 0,
	"results": [
		{
			"number": 288935,
			"data": "1,7,6,3,9,3,6,4,4,9,9,6,6,3,4,8,6,0,7,5,0,5,1,3,7,0,4,9,6,4,2,3,6,6,5,0,3,6,2,2,8,4,1,1,4,1,4,0,8,6,2,9,3,2,8,0,5,2,3,4,8,5,0,2,9,4,5,1,5,4,1,4,5,0,4,3,7,6,1,9,7,7,1,1,5,4",
			"name": "Decimal expansion of the limiting ratio of consecutive terms of A288233.",
			"example": [
				"1.7639364499663486075051370496423665036228411..."
			],
			"mathematica": [
				"z = 2000; r = Sqrt[8/3];",
				"u = CoefficientList[Series[1/Sum[Floor[(k + 1)*r] (-x)^k, {k, 0, z}], {x, 0, z}], x];  (* A288233 *)",
				"v = N[u[[z]]/u[[z - 1]], 200]",
				"RealDigits[v, 10][[1]](* A288935 *)"
			],
			"xref": [
				"Cf. A288233, A078140 (includes guide to related constants)."
			],
			"keyword": "nonn,cons,easy",
			"offset": "1,2",
			"author": "_Clark Kimberling_, Jul 14 2017",
			"references": 2,
			"revision": 6,
			"time": "2021-08-28T04:48:28-04:00",
			"created": "2017-07-18T07:55:38-04:00"
		}
	]
}