{
	"greeting": "Greetings from The On-Line Encyclopedia of Integer Sequences! http://oeis.org/",
	"query": "id:A289494",
	"count": 1,
	"start": 0,
	"results": [
		{
			"number": 289494,
			"data": "1,1,1,1,2,2,1,2,2,2,3,4,3,3,3,3,4,4,5,5,5,5,5,4,4,6,6,6,7,6,6,7,7,6,7,6,5,6,6,7,8,9,8,8,9,9,8,9,10,11,10,10,10,10,9,9,10,10,11,11,11,11,12,11,11,11,10,12,12,13,14,14,14,15,14",
			"name": "Number of primes in the interval [3n, 4n].",
			"link": [
				"FUNG Cheok Yin, \u003ca href=\"/A289494/b289494.txt\"\u003eTable of n, a(n) for n = 1..10000\u003c/a\u003e",
				"Andy Loo, \u003ca href=\"http://arxiv.org/abs/1110.2377\"\u003eOn the Primes in the Interval [3n, 4n]\u003c/a\u003e, arXiv:1110.2377 [math.NT], 2011."
			],
			"xref": [
				"Cf. A035250, A289493, A289495, A289496, A289497, A289498, A289499, A289500."
			],
			"keyword": "nonn,easy",
			"offset": "1,5",
			"author": "_FUNG Cheok Yin_, Jul 07 2017",
			"references": 8,
			"revision": 17,
			"time": "2017-07-08T12:15:55-04:00",
			"created": "2017-07-08T12:15:55-04:00"
		}
	]
}