{
	"greeting": "Greetings from The On-Line Encyclopedia of Integer Sequences! http://oeis.org/",
	"query": "id:A289567",
	"count": 1,
	"start": 0,
	"results": [
		{
			"number": 289567,
			"data": "1,252,103572,46355904,21754545876,10493652271032,5153897870227008,2563741466120209536,1287429765611338091988,651251466581383330576956,331360676706818772917367912,169399388595923901462013678656",
			"name": "Coefficients in expansion of 1/E_6^(1/2).",
			"link": [
				"Seiichi Manyama, \u003ca href=\"/A289567/b289567.txt\"\u003eTable of n, a(n) for n = 0..367\u003c/a\u003e"
			],
			"formula": [
				"G.f.: Product_{n\u003e=1} (1-q^n)^(-A288851(n)/2).",
				"a(n) ~ c * exp(2*Pi*n) / sqrt(n), where c = 2^(5/2) * Gamma(3/4)^8 / (3*Pi^(5/2)) = 0.5480868931611627439175185425300450785609564636925943866686455998197... - _Vaclav Kotesovec_, Jul 09 2017, updated Mar 03 2018"
			],
			"mathematica": [
				"nmax = 20; CoefficientList[Series[(1 - 504*Sum[DivisorSigma[5,k]*x^k, {k, 1, nmax}])^(-1/2), {x, 0, nmax}], x] (* _Vaclav Kotesovec_, Jul 09 2017 *)"
			],
			"xref": [
				"1/E_k^(1/2): A289565 (k=2), A289566 (k=4), this sequence (k=6), A001943 (k=8), A289568 (k=10), A289569 (k=14).",
				"E_6^(k/12): A289570 (k=-18), A000706 (k=-12), this sequence (k=-6), A109817 (k=1), A289325 (k=2), A289326 (k=3), A289327 (k=4), A289328 (k=5), A289293 (k=6), A289345 (k=7), A289346 (k=8), A289347 (k=9), A289348 (k=10), A289349 (k=11).",
				"Cf. A000706 (1/E_6), A288851, A289293 (E_6^(1/2))."
			],
			"keyword": "nonn",
			"offset": "0,2",
			"author": "_Seiichi Manyama_, Jul 08 2017",
			"references": 7,
			"revision": 19,
			"time": "2018-03-05T06:29:27-05:00",
			"created": "2017-07-08T12:11:50-04:00"
		}
	]
}