{
	"greeting": "Greetings from The On-Line Encyclopedia of Integer Sequences! http://oeis.org/",
	"query": "id:A289821",
	"count": 1,
	"start": 0,
	"results": [
		{
			"number": 289821,
			"data": "151,2504901671,664565853951271,3091650738175271,26582634158079271,126757680265215271,142299187144047333874073599271,546216992715109618958387336810111087297326406997164406744285183999999999271",
			"name": "Primes of the form k!3-729, where k!3 is the triple factorial number (A007661).",
			"link": [
				"Robert Price, \u003ca href=\"/A289821/b289821.txt\"\u003eTable of n, a(n) for n = 1..13\u003c/a\u003e",
				"Henri \u0026 Renaud Lifchitz, \u003ca href=\"http://www.primenumbers.net/prptop/searchform.php?form=n3-729\u0026amp;action=Search\"\u003ePRP Records.Search for n!3-729.\u003c/a\u003e",
				"Joe McLean, \u003ca href=\"http://web.archive.org/web/20091027034731/http://uk.geocities.com/nassarawa%40btinternet.com/probprim2.htm\"\u003eInteresting Sources of Probable Primes\u003c/a\u003e",
				"OpenPFGW Project, \u003ca href=\"http://sourceforge.net/projects/openpfgw/\"\u003ePrimality Tester\u003c/a\u003e"
			],
			"mathematica": [
				"MultiFactorial[n_, k_] := If[n\u003c1, 1, n*MultiFactorial[n-k, k]];",
				"Select[Table[MultiFactorial[i, 3] - 729, {i, 11, 100}], PrimeQ[#]\u0026]"
			],
			"xref": [
				"Cf. A247466."
			],
			"keyword": "nonn",
			"offset": "1,1",
			"author": "_Robert Price_, Jul 12 2017",
			"references": 1,
			"revision": 4,
			"time": "2017-07-13T21:27:21-04:00",
			"created": "2017-07-13T21:27:21-04:00"
		}
	]
}