{
	"greeting": "Greetings from The On-Line Encyclopedia of Integer Sequences! http://oeis.org/",
	"query": "id:A289017",
	"count": 1,
	"start": 0,
	"results": [
		{
			"number": 289017,
			"data": "1,2,4,5,6,7,8,9,11,12,13,15,16,18,19,20,22,23,25,26,27,29,30,31,32,33,34,36,37,38,39,40,42,43,44,46,47,49,50,51,53,54,55,57,58,59,61,62,63,64,65,66,68,69,70,72,73,74,75,76,77,79,80,81,82,83,85",
			"name": "Positions of 0 in A289016; complement of A289018.",
			"comment": [
				"Conjecture: a(n)/n -\u003e 1.28..., and if m denotes this number, then -1 \u003c m - a(n)/n \u003c -1 + m for n \u003e= 1."
			],
			"link": [
				"Clark Kimberling, \u003ca href=\"/A289017/b289017.txt\"\u003eTable of n, a(n) for n = 1..10000\u003c/a\u003e"
			],
			"mathematica": [
				"z = 11; (* number of iterates *)",
				"s = {0, 0}; w[0] = StringJoin[Map[ToString, s]];",
				"w[n_] := StringReplace[w[n - 1], {\"00\" -\u003e \"0010\", \"01\" -\u003e \"010\", \"10\" -\u003e \"000\"}]",
				"TableForm[Table[w[n], {n, 0, 10}]]",
				"st = ToCharacterCode[w[z]] - 48   (* A289016 *)",
				"Flatten[Position[st, 0]]  (* A289017 *)",
				"Flatten[Position[st, 1]]  (* A289018 *)"
			],
			"xref": [
				"Cf. A289016, A289018."
			],
			"keyword": "nonn,easy",
			"offset": "1,2",
			"author": "_Clark Kimberling_, Jun 26 2017",
			"references": 3,
			"revision": 6,
			"time": "2017-06-26T22:16:43-04:00",
			"created": "2017-06-26T22:16:43-04:00"
		}
	]
}