{
	"greeting": "Greetings from The On-Line Encyclopedia of Integer Sequences! http://oeis.org/",
	"query": "id:A289644",
	"count": 1,
	"start": 0,
	"results": [
		{
			"number": 289644,
			"data": "0,2,61,8554,2662095,5675111511,35072966294346,1096128160677176696,121691314711314375091217",
			"name": "Number of n X n 0..1 arrays with the number of 1's horizontally, antidiagonally or vertically adjacent to some 0 two less than the number of 0's adjacent to some 1.",
			"comment": [
				"Diagonal of A289651."
			],
			"example": [
				"Some solutions for n=4",
				"..0..1..0..1. .1..1..0..0. .0..1..0..1. .0..0..1..1. .0..0..0..1",
				"..0..1..0..1. .1..1..0..1. .0..0..0..0. .1..1..0..0. .1..1..0..1",
				"..1..0..0..0. .1..0..1..1. .0..0..1..0. .0..1..0..0. .0..0..1..1",
				"..1..0..0..0. .0..0..0..0. .1..1..1..1. .1..0..0..1. .0..1..0..0"
			],
			"xref": [
				"Cf. A289651."
			],
			"keyword": "nonn",
			"offset": "1,2",
			"author": "_R. H. Hardin_, Jul 09 2017",
			"references": 0,
			"revision": 6,
			"time": "2020-04-06T00:36:45-04:00",
			"created": "2017-07-09T10:23:34-04:00"
		}
	]
}