{
	"greeting": "Greetings from The On-Line Encyclopedia of Integer Sequences! http://oeis.org/",
	"query": "id:A289998",
	"count": 1,
	"start": 0,
	"results": [
		{
			"number": 289998,
			"data": "1,1,2,12,134,14066,195344902",
			"name": "Number of (undirected) Hamiltonian paths in the n-Fibonacci cube graph.",
			"link": [
				"Eric Weisstein's World of Mathematics, \u003ca href=\"http://mathworld.wolfram.com/FibonacciCubeGraph.html\"\u003eFibonacci Cube Graph\u003c/a\u003e",
				"Eric Weisstein's World of Mathematics, \u003ca href=\"http://mathworld.wolfram.com/HamiltonianPath.html\"\u003eHamiltonian Path\u003c/a\u003e"
			],
			"keyword": "nonn,more",
			"offset": "1,3",
			"author": "_Eric W. Weisstein_, Sep 03 2017",
			"ext": [
				"a(7) from _Andrew Howroyd_, Sep 03 2017"
			],
			"references": 1,
			"revision": 10,
			"time": "2017-09-03T18:13:08-04:00",
			"created": "2017-09-03T10:48:25-04:00"
		}
	]
}