{
	"greeting": "Greetings from The On-Line Encyclopedia of Integer Sequences! http://oeis.org/",
	"query": "id:A289809",
	"count": 1,
	"start": 0,
	"results": [
		{
			"number": 289809,
			"data": "1,4,12,38,114,354,1076,3311,10120,31043,95044,291284,892242,2733804,8375092,25659298,78610859,240840496,737856017,2260561368,6925635380,21217961710,65005083598,199154984626,610147638720,1869298875531,5726938575936,17545523113507",
			"name": "p-INVERT of (1,2,1,3,1,4,1,5,...) (A133622), where p(S) = 1 - S - S^2.",
			"comment": [
				"Suppose s = (c(0), c(1), c(2), ...) is a sequence and p(S) is a polynomial. Let S(x) = c(0)*x + c(1)*x + ^2c(2)*x^3 + ... and T(x) = (-p(0) + 1/p(S(x)))/x. The p-INVERT of s is the sequence t(s) of coefficients in the Maclaurin series for T(x). Taking p(S) = 1 - S gives the INVERT transform of s, so that p-INVERT is a generalization of the INVERT transform (e.g., A033453).",
				"See A289780 for a guide to related sequences."
			],
			"link": [
				"Clark Kimberling, \u003ca href=\"/A289809/b289809.txt\"\u003eTable of n, a(n) for n = 0..1000\u003c/a\u003e",
				"\u003ca href=\"/index/Rec#order_08\"\u003eIndex entries for linear recurrences with constant coefficients\u003c/a\u003e, signature (1, 7, 1, -9, -3, 5, 1, -1)"
			],
			"formula": [
				"G.f.: (1 + 3 x + x^2 - 3 x^3 - 3 x^4 + x^5 + x^6)/(1 - x - 7 x^2 - x^3 +",
				"9 x^4 + 3 x^5 - 5 x^6 - x^7 + x^8).",
				"a(n) = a(n-1) + 7*a(n-2) + a(n-3) - 9*a(n-4) - 3*a(n-5) + 5*a(n-6) + a(n-7) - a(n-8).."
			],
			"mathematica": [
				"z = 60; s = x (1 + 2 x - x^2 - x^3)/(1 - x^2)^2; p = 1 - s - s^2;",
				"Drop[CoefficientList[Series[s, {x, 0, z}], x], 1] (* A133622 *)",
				"u = Drop[CoefficientList[Series[1/p, {x, 0, z}], x], 1] (* A289809 *)"
			],
			"xref": [
				"Cf. A133622, A289780."
			],
			"keyword": "nonn,easy",
			"offset": "0,2",
			"author": "_Clark Kimberling_, Aug 12 2017",
			"references": 2,
			"revision": 12,
			"time": "2017-08-14T14:17:58-04:00",
			"created": "2017-08-12T21:00:02-04:00"
		}
	]
}