{
	"greeting": "Greetings from The On-Line Encyclopedia of Integer Sequences! http://oeis.org/",
	"query": "id:A289019",
	"count": 1,
	"start": 0,
	"results": [
		{
			"number": 289019,
			"data": "2,4,7,12,22,39,69,122,217,386,687,1224,2181,3883,6910,12305,21906,38991,69421,123609,220110,391929,697931,1242873,2213237,3941323,7018445,12497917,22255832,39632383,70576606,125680814,223808756",
			"name": "Length of n-th iterate of the mapping 00-\u003e0010, 01-\u003e010, 10-\u003e000, starting with 00.",
			"mathematica": [
				"z = 32; (* number of iterates *)",
				"s = {0, 0}; w[0] = StringJoin[Map[ToString, s]];",
				"w[n_] := StringReplace[w[n - 1], {\"00\" -\u003e \"0010\", \"01\" -\u003e \"010\", \"10\" -\u003e \"000\"}]",
				"Table[StringLength[w[n]], {n, 0, z}] (* A289019 *)"
			],
			"xref": [
				"Cf. A289016."
			],
			"keyword": "nonn,easy",
			"offset": "1,1",
			"author": "_Clark Kimberling_, Jun 27 2017",
			"references": 2,
			"revision": 4,
			"time": "2017-06-27T21:37:07-04:00",
			"created": "2017-06-27T21:37:07-04:00"
		}
	]
}