{
	"greeting": "Greetings from The On-Line Encyclopedia of Integer Sequences! http://oeis.org/",
	"query": "id:A289451",
	"count": 1,
	"start": 0,
	"results": [
		{
			"number": 289451,
			"data": "1,1,1,2,8,32,117,408,1402,4826,16751",
			"name": "Related to number of mesh patterns of length 2 that avoid the pattern 231.",
			"link": [
				"Murray Tannock, \u003ca href=\"https://skemman.is/bitstream/1946/25589/1/msc-tannock-2016.pdf\"\u003eEquivalence classes of mesh patterns with a dominating pattern\u003c/a\u003e, MSc Thesis, Reykjavik Univ., May 2016. See Appendix B1."
			],
			"formula": [
				"Conjectures from _Vladimir Kruchinin_, Jan 06 2022: (Start)",
				"a(n) = binomial(2*n,n)/(n+1) - (n-1)*n/2.",
				"G.f.: (1-sqrt(1-4*x))/(2*x) - x^2/((1-x))^3. (End)"
			],
			"keyword": "nonn,more,changed",
			"offset": "1,4",
			"author": "_N. J. A. Sloane_, Jul 08 2017",
			"references": 0,
			"revision": 18,
			"time": "2022-01-08T16:09:02-05:00",
			"created": "2017-07-08T12:04:49-04:00"
		}
	]
}