{
	"greeting": "Greetings from The On-Line Encyclopedia of Integer Sequences! http://oeis.org/",
	"query": "id:A289728",
	"count": 1,
	"start": 0,
	"results": [
		{
			"number": 289728,
			"data": "19,47,83,397,1721,229627,21827567,295540237,13299311017,678264862267,3879320022245629336367,817800727933873464057151867,85869076433056713726000946867,9531467484069295223586105103117,15873007435437477980505511601565617",
			"name": "Primes of the form k!6-8, where k!6 is the sextuple factorial number (A085158).",
			"link": [
				"Robert Price, \u003ca href=\"/A289728/b289728.txt\"\u003eTable of n, a(n) for n = 1..26\u003c/a\u003e",
				"Henri \u0026 Renaud Lifchitz, \u003ca href=\"http://www.primenumbers.net/prptop/searchform.php?form=n6-8\u0026amp;action=Search\"\u003ePRP Records.Search for n!6-8.\u003c/a\u003e",
				"Joe McLean, \u003ca href=\"http://web.archive.org/web/20091027034731/http://uk.geocities.com/nassarawa%40btinternet.com/probprim2.htm\"\u003eInteresting Sources of Probable Primes\u003c/a\u003e",
				"OpenPFGW Project, \u003ca href=\"http://sourceforge.net/projects/openpfgw/\"\u003ePrimality Tester\u003c/a\u003e"
			],
			"mathematica": [
				"MultiFactorial[n_, k_] := If[n\u003c1, 1, n*MultiFactorial[n-k, k]];",
				"Select[Table[MultiFactorial[i, 6] - 8, {i, 8, 100}], PrimeQ[#]\u0026]"
			],
			"xref": [
				"Cf. A289686."
			],
			"keyword": "nonn",
			"offset": "1,1",
			"author": "_Robert Price_, Jul 10 2017",
			"references": 1,
			"revision": 7,
			"time": "2017-07-10T22:51:50-04:00",
			"created": "2017-07-10T22:51:50-04:00"
		}
	]
}