{
	"greeting": "Greetings from The On-Line Encyclopedia of Integer Sequences! http://oeis.org/",
	"query": "id:A289747",
	"count": 1,
	"start": 0,
	"results": [
		{
			"number": 289747,
			"data": "1,6,720,120960,2264371200,48920701648896000,1570969121006520000000000000",
			"name": "Number of round-robin tournament schedules with 2*n participants.",
			"formula": [
				"a(n) = A000438(n) * (2n-1)!."
			],
			"xref": [
				"Cf. A000438, A009445."
			],
			"keyword": "nonn,more",
			"offset": "1,2",
			"author": "_Alexander Karpov_, Jul 11 2017",
			"references": 0,
			"revision": 14,
			"time": "2017-08-20T09:36:19-04:00",
			"created": "2017-08-20T09:36:19-04:00"
		}
	]
}