{
	"greeting": "Greetings from The On-Line Encyclopedia of Integer Sequences! http://oeis.org/",
	"query": "id:A289751",
	"count": 1,
	"start": 0,
	"results": [
		{
			"number": 289751,
			"data": "0,1,2,5,8,13,18,31,42,43,48,53,210,792,1324,1868,2544,5609,10210,10514,11232,14731,36583,50060,128510,198268",
			"name": "Numbers k such that (4*10^k + 137)/3 is prime.",
			"comment": [
				"For k\u003e1, numbers such that the digit 1 followed by k-2 occurrences of the digit 3 followed by the digits 79 is prime (see Example section).",
				"a(27) \u003e 2*10^5."
			],
			"link": [
				"Makoto Kamada, \u003ca href=\"https://stdkmd.net/nrr\"\u003eFactorization of near-repdigit-related numbers\u003c/a\u003e.",
				"Makoto Kamada, \u003ca href=\"https://stdkmd.net/nrr/prime/primedifficulty.txt\"\u003eSearch for 13w79\u003c/a\u003e"
			],
			"example": [
				"5 is in this sequence because (4*10^5 + 137)/3 = 179 is prime.",
				"Initial terms and primes associated:",
				"a(1) = 0, 47;",
				"a(2) = 1, 59;",
				"a(3) = 2, 179;",
				"a(4) = 5, 133379;",
				"a(5) = 8, 133333379; etc."
			],
			"mathematica": [
				"Select[Range[0, 100000], PrimeQ[(4*10^# + 137)/3] \u0026]"
			],
			"xref": [
				"Cf. A056654, A268448, A269303, A270339, A270613, A270831, A270890, A270929, A271269."
			],
			"keyword": "nonn,more,hard",
			"offset": "1,3",
			"author": "_Robert Price_, Jul 11 2017",
			"ext": [
				"a(25)-a(26) from _Robert Price_, Mar 21 2018"
			],
			"references": 0,
			"revision": 12,
			"time": "2019-01-17T13:44:09-05:00",
			"created": "2017-07-12T10:15:32-04:00"
		}
	]
}