{
	"greeting": "Greetings from The On-Line Encyclopedia of Integer Sequences! http://oeis.org/",
	"query": "id:A290079",
	"count": 1,
	"start": 0,
	"results": [
		{
			"number": 290079,
			"data": "1,0,1,0,1,0,1,0,1,0,0,0,1,0,1,0,0,0,1,0,1,0,1,0,1,0,1,0,0,0,0,0,0,0,0,0,1,0,1,0,0,0,1,0,1,0,0,0,0,0,0,0,0,0,1,0,1,0,1,0,1,0,1,0,0,0,1,0,1,0,0,0,1,0,1,0,1,0,1,0,1,0,0,0,0,0,0,0,0,0,0,0,0,0,0,0,0,0,0,0,0,0,0,0,0,0,0,0,1,0,1,0,0,0,1,0,1,0,0,0,0",
			"name": "Characteristic function for A249721: a(n) = 1 if there are either no 1-digits at all in base-3 representation of n, or if there are exactly two 1's next to each other, a(n) = 0 in any other cases.",
			"link": [
				"Antti Karttunen, \u003ca href=\"/A290079/b290079.txt\"\u003eTable of n, a(n) for n = 0..59049\u003c/a\u003e",
				"\u003ca href=\"/index/Ch#char_fns\"\u003eIndex entries for characteristic functions\u003c/a\u003e"
			],
			"formula": [
				"If n is even and 9 ∤ C(n,n/2), then a(n) = 1, otherwise a(n) = 0."
			],
			"example": [
				"   n A007089(n) a(n) = 1 if 1-free, except for possibly a single 11-pair,",
				"                       0 otherwise",
				"  ------------------",
				"   0    0         1",
				"   1    1         0",
				"   2    2         1",
				"   3   10         0",
				"   4   11         1",
				"   5   12         0",
				"   6   20         1",
				"   7   21         0",
				"   8   22         1",
				"   9  100         0",
				"  10  101         0",
				"  11  102         0",
				"  12  110         1",
				"  13  111         0",
				"  14  112         1",
				"  15  120         0"
			],
			"program": [
				"(PARI) A290079(n) = if((!(n%2)\u0026\u0026(binomial(n,n/2)%9)),1,0);",
				"(Scheme) (define (A290079 n) (if (in_A249721? n) 1 0)) ;; See under A249721 for in_A249721?"
			],
			"xref": [
				"Cf. A007089, A051382, A249721, A290093."
			],
			"keyword": "nonn,base",
			"offset": "0",
			"author": "_Antti Karttunen_, Jul 25 2017",
			"references": 3,
			"revision": 11,
			"time": "2017-07-26T09:27:52-04:00",
			"created": "2017-07-26T09:27:52-04:00"
		}
	]
}