{
	"greeting": "Greetings from The On-Line Encyclopedia of Integer Sequences! http://oeis.org/",
	"query": "id:A290126",
	"count": 1,
	"start": 0,
	"results": [
		{
			"number": 290126,
			"data": "2,2,4,28,16,140,24,90,120,108,60,144,300,288,120,672,252,432,240,630,960,756,480,1200,1080,1728,1680,1008,720,2016,840,3150,2160,2700,1980,4800,2520,3780,3240,8736,3960,3600,6720,6930,10800,6300,4200,16848,9240,5040",
			"name": "Least k such that the sum of the n greatest divisors of k is a prime number.",
			"comment": [
				"The corresponding primes are 2, 3, 7, 53, 31, 307, 59, 223, 331, 277, 167, 397, 853, 809, 359, 1973, 727, 1237, ...",
				"The squares of the sequence are 4, 16, 144, 3600, ..."
			],
			"link": [
				"Chai Wah Wu, \u003ca href=\"/A290126/b290126.txt\"\u003eTable of n, a(n) for n = 1..1000\u003c/a\u003e"
			],
			"example": [
				"a(4)=28 because the sum of the last 4 divisors of 28: 28+14+7+4 = 53 is a prime number."
			],
			"maple": [
				"M:= 20000: # to get all terms before the first term \u003e M",
				"R:= 'R':",
				"for k from 2 to M do",
				"   F:= ListTools:-PartialSums(sort(convert(",
				"      numtheory:-divisors(k),list),`\u003e`));",
				"   for n in select(t -\u003e isprime(F[t]),[$1..nops(F)]) do",
				"    if not assigned(R[n]) then R[n]:= k fi",
				"   od",
				"od:",
				"inds:= map(op,{indices(R)}):",
				"N:= min({$1..max(inds)+1} minus inds):",
				"seq(R[i],i=1..N-1);  # _Robert Israel_, Jul 24 2017"
			],
			"mathematica": [
				"Table[k=1;While[Nand[Length@#\u003e=n,PrimeQ[Total@Take[PadLeft[#,n],n]]]\u0026@Divisors@k,k++];k,{n,1,20}](* Program from _Michael De Vlieger_ adapted for this sequence. See A289776 *)"
			],
			"program": [
				"(PARI) a(n) = {my(i = 2, d);  while(1, d = divisors(i); if(#d \u003e= n, if(isprime(sum(j=#d-n+1,#d,d[j])), return(i), i++), i++)); i} \\\\ _David A. Corneth_, Jul 20 2017",
				"(Python)",
				"from sympy import divisors, isprime",
				"def A290126(n):",
				"    i = 1",
				"    while len(divisors(i)) \u003c n or not isprime(sum(divisors(i)[-n:])):",
				"        i += 1",
				"    return i # _Chai Wah Wu_, Aug 05 2017"
			],
			"xref": [
				"Cf. A000290, A027750, A240698, A289776."
			],
			"keyword": "nonn",
			"offset": "1,1",
			"author": "_Michel Lagneau_, Jul 20 2017",
			"references": 2,
			"revision": 26,
			"time": "2021-08-31T02:43:20-04:00",
			"created": "2017-08-04T15:53:50-04:00"
		}
	]
}