{
	"greeting": "Greetings from The On-Line Encyclopedia of Integer Sequences! http://oeis.org/",
	"query": "id:A290905",
	"count": 1,
	"start": 0,
	"results": [
		{
			"number": 290905,
			"data": "0,1,4,12,36,111,344,1064,3288,10161,31404,97060,299980,927135,2865456,8856144,27371312,84595361,261455316,808068924,2497464564,7718808463,23856195976,73731339384,227878342920,704293989585,2176731748220,6727533066836,20792502889884",
			"name": "a(n) = (1/2)*A290904(n).",
			"link": [
				"Clark Kimberling, \u003ca href=\"/A290905/b290905.txt\"\u003eTable of n, a(n) for n = 0..1000\u003c/a\u003e",
				"\u003ca href=\"/index/Rec#order_04\"\u003eIndex entries for linear recurrences with constant coefficients\u003c/a\u003e, signature (4, -4, 4, -1)"
			],
			"formula": [
				"G.f.: x/(1 - 4 x + 4 x^2 - 4 x^3 + x^4).",
				"a(n) = 4*a(n-1) - 4*a(n-2) + 4*a(n-3) - a(n-4).",
				"a(n) = (1/2)*A290904(n) for n \u003e= 0."
			],
			"mathematica": [
				"z = 60; s = x/(1 - x)^2; p = 1 - 2 s^2;",
				"Drop[CoefficientList[Series[s, {x, 0, z}], x], 1] (* A000027 *)",
				"u = Drop[CoefficientList[Series[1/p, {x, 0, z}], x], 1] (* A290904 *)",
				"u/2 (* A290905 *)"
			],
			"xref": [
				"Cf. A000027, A290890, A290904."
			],
			"keyword": "nonn,easy",
			"offset": "0,3",
			"author": "_Clark Kimberling_, Aug 17 2017",
			"references": 2,
			"revision": 8,
			"time": "2017-08-18T18:49:59-04:00",
			"created": "2017-08-18T18:49:59-04:00"
		}
	]
}