{
	"greeting": "Greetings from The On-Line Encyclopedia of Integer Sequences! http://oeis.org/",
	"query": "id:A290878",
	"count": 1,
	"start": 0,
	"results": [
		{
			"number": 290878,
			"data": "0,1,2,3,8,18,20,24,40,57,84,92,111,135,138,272,423,540,542,1147,1246,1713,2217,2767,3486,30586,34183,61119,113658,194668",
			"name": "Numbers k such that 4*10^k + 49 is prime.",
			"comment": [
				"For k \u003e 1, numbers such that the digit 4 followed by k-2 occurrences of the digit 0 followed by the digits 49 is prime (see Example section).",
				"a(31) \u003e 2*10^5."
			],
			"link": [
				"Makoto Kamada, \u003ca href=\"https://stdkmd.net/nrr\"\u003eFactorization of near-repdigit-related numbers\u003c/a\u003e.",
				"Makoto Kamada, \u003ca href=\"https://stdkmd.net/nrr/prime/primedifficulty.txt\"\u003eSearch for 40w49.\u003c/a\u003e"
			],
			"example": [
				"3 is in this sequence because 4*10^3 + 49 = 4049 is prime.",
				"Initial terms and primes associated:",
				"a(1) = 0, 53;",
				"a(2) = 1, 89;",
				"a(3) = 2, 449;",
				"a(4) = 3; 4049;",
				"a(5) = 8, 400000049; etc."
			],
			"mathematica": [
				"Select[Range[0, 100000], PrimeQ[4*10^# + 49] \u0026]"
			],
			"program": [
				"(PARI) isok(k) = ispseudoprime(4*10^k + 49) \\\\ _Altug Alkan_, Aug 13 2017"
			],
			"xref": [
				"Cf. A056654, A268448, A269303, A270339, A270613, A270831, A270890, A270929, A271269."
			],
			"keyword": "nonn,more,hard",
			"offset": "1,3",
			"author": "_Robert Price_, Aug 13 2017",
			"ext": [
				"a(29)-a(30) from _Robert Price_, Jan 21 2019"
			],
			"references": 0,
			"revision": 13,
			"time": "2019-01-21T20:14:10-05:00",
			"created": "2017-08-14T04:08:05-04:00"
		}
	]
}