{
	"greeting": "Greetings from The On-Line Encyclopedia of Integer Sequences! http://oeis.org/",
	"query": "id:A290354",
	"count": 1,
	"start": 0,
	"results": [
		{
			"number": 290354,
			"data": "1,1,2,6,30,170,1337,12166,133476,1676364,23970089,383172262,6783362586,131697494825,2783238819896,63605879539200,1563127601683456,41107799958703376,1151957989511106438,34268629198432285436,1078577860182473404134,35809701458658690462644",
			"name": "a(n) is the n-th term of the n-th Euler transform of the sequence with g.f. 1+x.",
			"comment": [
				"a(n) is also the number of unlabeled rooted trees with exactly n leaves, all in level n. a(3) = 6:",
				":    o        o       o        o        o       o",
				":    |        |       |       / \\      / \\     /|\\",
				":    o        o       o      o   o    o   o   o o o",
				":    |       / \\     /|\\     |   |   ( )  |   | | |",
				":    o      o   o   o o o    o   o   o o  o   o o o",
				":   /|\\    ( )  |   | | |   ( )  |   | |  |   | | |",
				":  o o o   o o  o   o o o   o o  o   o o  o   o o o"
			],
			"link": [
				"Alois P. Heinz, \u003ca href=\"/A290354/b290354.txt\"\u003eTable of n, a(n) for n = 0..414\u003c/a\u003e",
				"B. A. Huberman and T. Hogg, \u003ca href=\"https://doi.org/10.1016/0167-2789(86)90308-1\"\u003eComplexity and adaptation\u003c/a\u003e, Evolution, games and learning (Los Alamos, N.M., 1985). Phys. D 22 (1986), no. 1-3, 376-384.",
				"\u003ca href=\"/index/Ro#rooted\"\u003eIndex entries for sequences related to rooted trees\u003c/a\u003e"
			],
			"formula": [
				"a(n) = A290353(n,n).",
				"Conjecture: a(n) ~ c * 2^n * n^(n-4/3) / Pi^n, where c = 4.4923... - _Vaclav Kotesovec_, Aug 14 2017"
			],
			"maple": [
				"with(numtheory):",
				"b:= proc(n, k) option remember; `if`(n\u003c2, 1, `if`(k=0, 0, add(",
				"      add(b(d, k-1)*d, d=divisors(j))*b(n-j, k), j=1..n)/n))",
				"    end:",
				"a:= n-\u003e b(n$2):",
				"seq(a(n), n=0..25);"
			],
			"mathematica": [
				"b[n_, k_]:=b[n, k]=If[n\u003c2, 1, If[k==0, 0, Sum[Sum[b[d, k - 1]*d, {d, Divisors[j]}] b[n - j, k], {j, n}]/n]]; Table[b[n, n], {n, 0, 30}] (* _Indranil Ghosh_, Jul 30 2017, after Maple code *)"
			],
			"xref": [
				"Main diagonal of A290353.",
				"Cf. A139383, A305725."
			],
			"keyword": "nonn",
			"offset": "0,3",
			"author": "_Alois P. Heinz_, Jul 28 2017",
			"references": 5,
			"revision": 26,
			"time": "2018-06-21T18:22:38-04:00",
			"created": "2017-07-28T15:46:35-04:00"
		}
	]
}