{
	"greeting": "Greetings from The On-Line Encyclopedia of Integer Sequences! http://oeis.org/",
	"query": "id:A290798",
	"count": 1,
	"start": 0,
	"results": [
		{
			"number": 290798,
			"data": "3,2,6,2,1,1,5,2,4,0,1,4,5,3,6,0,0,0,2,0,0,2,2,0,1,2,6,3,2,2,2,6,5,3,4,4,6,0,5,1,5,2,6,0,4,5,6,6,0,5,1,5,6,2,3,3,0,2,6,5,5,0,1,4,1,5,2,0,2,2,1,6,5,2,4,0,5,4,6,0,0,3,3,1,4,4,6,5",
			"name": "Coefficients in 7-adic expansion of sqrt(-5).",
			"link": [
				"Seiichi Manyama, \u003ca href=\"/A290798/b290798.txt\"\u003eTable of n, a(n) for n = 0..10000\u003c/a\u003e"
			],
			"program": [
				"(PARI) Vecrev(digits(lift(sqrt(-5+O(7^99))), 7))"
			],
			"xref": [
				"Cf. A290799, A290806."
			],
			"keyword": "nonn",
			"offset": "0,1",
			"author": "_Seiichi Manyama_, Aug 10 2017",
			"references": 7,
			"revision": 12,
			"time": "2019-08-03T08:34:20-04:00",
			"created": "2017-08-14T04:57:41-04:00"
		}
	]
}