{
	"greeting": "Greetings from The On-Line Encyclopedia of Integer Sequences! http://oeis.org/",
	"query": "id:A291759",
	"count": 1,
	"start": 0,
	"results": [
		{
			"number": 291759,
			"data": "0,1,0,1,0,3,2,1,0,1,2,5,0,3,4,1,0,1,0,1,0,5,2,9,6,7,8,5,2,7,4,1,2,1,0,1,4,3,2,1,4,1,6,9,2,3,0,17,10,13,4,13,0,23,4,9,8,5,0,13,2,9,8,1,10,3,0,1,12,3,0,1,0,11,2,5,12,5,2,1,10,9,4,1,8,11,14,17,4,5,0,5,0,15,0,33,6,21,16,25,6,11,8,25,16,3,8,45,8,9,4,17,8",
			"name": "Binary encoding of 2-digits in ternary representation of A048673(n).",
			"link": [
				"Antti Karttunen, \u003ca href=\"/A291759/b291759.txt\"\u003eTable of n, a(n) for n = 1..16384\u003c/a\u003e",
				"\u003ca href=\"/index/Bi#binary\"\u003eIndex entries for sequences related to binary expansion of n\u003c/a\u003e"
			],
			"formula": [
				"a(n) = A289814(A048673(n))."
			],
			"xref": [
				"Cf. A048673, A286585, A286586, A289814, A291760, A291763."
			],
			"keyword": "nonn,base",
			"offset": "1,6",
			"author": "_Antti Karttunen_, Sep 12 2017",
			"references": 14,
			"revision": 7,
			"time": "2017-09-12T10:23:23-04:00",
			"created": "2017-09-12T10:23:23-04:00"
		}
	]
}