{
	"greeting": "Greetings from The On-Line Encyclopedia of Integer Sequences! http://oeis.org/",
	"query": "id:A291016",
	"count": 1,
	"start": 0,
	"results": [
		{
			"number": 291016,
			"data": "4,19,90,426,2016,9540,45144,213624,1010880,4783536,22635936,107114400,506870784,2398538304,11350005120,53708800896,254152774656,1202663842560,5691066407424,26930415389184,127436093890560,603034071008256,2853587862706176",
			"name": "p-INVERT of (1,1,1,1,1,...), where p(S) = 1 - 4 S + S^2.",
			"comment": [
				"Suppose s = (c(0), c(1), c(2),...) is a sequence and p(S) is a polynomial. Let S(x) = c(0)*x + c(1)*x^2 + c(2)*x^3 + ... and T(x) = (-p(0) + 1/p(S(x)))/x. The p-INVERT of s is the sequence t(s) of coefficients in the Maclaurin series for T(x).  Taking p(S) = 1 - S gives the \"INVERT\" transform of s, so that p-INVERT is a generalization of the \"INVERT\" transform (e.g., A033453).",
				"See A291000 for a guide to related sequences."
			],
			"link": [
				"Clark Kimberling, \u003ca href=\"/A291016/b291016.txt\"\u003eTable of n, a(n) for n = 0..1000\u003c/a\u003e",
				"\u003ca href=\"/index/Rec#order_02\"\u003eIndex entries for linear recurrences with constant coefficients\u003c/a\u003e, signature (6, -6)"
			],
			"formula": [
				"G.f.: (4 - 5 x)/(1 - 6 x + 6 x^2).",
				"a(n) = 6*a(n-1) - 6*a(n-2) n \u003e= 3."
			],
			"mathematica": [
				"z = 60; s = x/(1 - x); p = 1 - 4 s + s^2;",
				"Drop[CoefficientList[Series[s, {x, 0, z}], x], 1]  (* A000012 *)",
				"Drop[CoefficientList[Series[1/p, {x, 0, z}], x], 1]  (* A291016 *)"
			],
			"xref": [
				"Cf. A000012, A289780, A291000."
			],
			"keyword": "nonn,easy",
			"offset": "0,1",
			"author": "_Clark Kimberling_, Aug 23 2017",
			"references": 2,
			"revision": 4,
			"time": "2017-08-23T23:37:06-04:00",
			"created": "2017-08-23T23:37:06-04:00"
		}
	]
}