{
	"greeting": "Greetings from The On-Line Encyclopedia of Integer Sequences! http://oeis.org/",
	"query": "id:A291622",
	"count": 1,
	"start": 0,
	"results": [
		{
			"number": 291622,
			"data": "2,9,94,777,3286,10771,29366,69873,149950,297111,553114,980953,1677014,2793771,4584286,7492065,12335422,20688751,35673698,63602601,117391702,223644675,437338630,872239057,1763820926,3599298951,7386070186,15205369593,31353128470",
			"name": "Number of irredundant sets in the n X n rook complement graph.",
			"comment": [
				"The irredundant sets are the distinct subsets of the maximal irredundant sets. These are either any subset of vertices in a single row or column or otherwise have cardinality of at most four (see A291623). - _Andrew Howroyd_, Aug 30 2017"
			],
			"link": [
				"Andrew Howroyd, \u003ca href=\"/A291622/b291622.txt\"\u003eTable of n, a(n) for n = 1..200\u003c/a\u003e",
				"Eric Weisstein's World of Mathematics, \u003ca href=\"http://mathworld.wolfram.com/IrredundantSet.html\"\u003eIrredundant Set\u003c/a\u003e",
				"Eric Weisstein's World of Mathematics, \u003ca href=\"http://mathworld.wolfram.com/RookComplementGraph.html\"\u003eRook Complement Graph\u003c/a\u003e",
				"\u003ca href=\"/index/Rec#order_09\"\u003eIndex entries for linear recurrences with constant coefficients\u003c/a\u003e, signature (11, -53, 147, -259, 301, -231, 113, -32, 4)."
			],
			"formula": [
				"From _Andrew Howroyd_, Aug 30 2017: (Start)",
				"a(n) = 2*n*(2^n) + (5*n^6 - 21*n^5 + 47*n^4 - 51*n^3 + 8*n^2 - 24*n + 12)/12 for n \u003e 3.",
				"a(n) = 11*a(n-1) - 53*a(n-2) + 147*a(n-3) - 259*a(n-4) + 301*a(n-5) - 231*a(n-6) + 113*a(n-7) - 32*a(n-8) + 4*a(n-9) for n \u003e 12.",
				"G.f.: x*(2 - 13*x + 101*x^2 - 74*x^3 - 1084*x^4 + 3717*x^5 - 7077*x^6 + 9470*x^7 - 7634*x^8 + 3876*x^9 - 1128*x^10 + 144*x^11)/((1 - x)^7*(1 - 2*x)^2).",
				"(End)"
			],
			"mathematica": [
				"Table[Piecewise[{{9, n == 2}, {94, n == 3}}, 2 n (2^n) + (5 n^6 - 21 n^5 + 47 n^4 - 51 n^3 + 8 n^2 - 24 n + 12)/12], {n, 20}]",
				"Join[{2, 9, 94}, LinearRecurrence[{11, -53, 147, -259, 301, -231, 113, -32, 4}, {777, 3286, 10771, 29366, 69873, 149950, 297111, 553114, 980953}, 20]]",
				"CoefficientList[Series[(2 - 13 x + 101 x^2 - 74 x^3 - 1084 x^4 + 3717 x^5 - 7077 x^6 + 9470 x^7 - 7634 x^8 + 3876 x^9 - 1128 x^10 + 144 x^11)/((1 - x)^7 (1 - 2 x)^2), {x, 0, 20}], x]"
			],
			"program": [
				"(PARI) a(n) = if(n\u003c4, [2, 9, 94][n], 2*n*(2^n) + (5*n^6 - 21*n^5 + 47*n^4 - 51*n^3 + 8*n^2 - 24*n + 12)/12); \\\\ _Andrew Howroyd_, Aug 30 2017"
			],
			"xref": [
				"Cf. A291623."
			],
			"keyword": "nonn",
			"offset": "1,1",
			"author": "_Eric W. Weisstein_, Aug 28 2017",
			"ext": [
				"Terms a(6) and beyond from _Andrew Howroyd_, Aug 30 2017"
			],
			"references": 2,
			"revision": 17,
			"time": "2017-09-18T10:07:35-04:00",
			"created": "2017-08-28T09:20:51-04:00"
		}
	]
}