{
	"greeting": "Greetings from The On-Line Encyclopedia of Integer Sequences! http://oeis.org/",
	"query": "id:A291052",
	"count": 1,
	"start": 0,
	"results": [
		{
			"number": 291052,
			"data": "2,31,103,1321,2003,3001,3221,10303,21323,23021,30203,30313,31123,31223,31321,32003,33013,33211,100003,102241,103231,113023,122033,122321,130223,131203,132001,132103,133201,133213,200003,203311,210233,213203,220411,221303,223211",
			"name": "Primes p such that the sum of the cubes of digits of p equals the sum of digits of p^3.",
			"example": [
				"a(2)=31 is prime: [3^3 + 1^3 = 27 + 1] = 28; [31^3 = 29791, 2+9+7+9+1] = 28.",
				"a(4)=1321 is prime: [1^3 + 3^3 + 2^3 + 1^3 = 1 + 27 + 8 + 1] = 37; [31^3 = 2305199161, 2+3+0+5+1+9+9+1+6+1] = 37."
			],
			"mathematica": [
				"Select[Prime[Range[30000]], Total[IntegerDigits[#]^3] == Plus @@ IntegerDigits[#^3] \u0026]"
			],
			"program": [
				"(PARI) forprime(p=1, 30000, d=digits(p); if(sum(i=1, length(d), d[i]^3) == sumdigits(p^3), print1(p\", \")));"
			],
			"xref": [
				"Intersection of A000040 and A165551.",
				"Cf. A000578, A030078, A235398, A290972."
			],
			"keyword": "nonn,base",
			"offset": "1,1",
			"author": "_K. D. Bajpai_, Aug 17 2017",
			"references": 0,
			"revision": 13,
			"time": "2017-08-29T03:38:44-04:00",
			"created": "2017-08-29T03:38:44-04:00"
		}
	]
}