{
	"greeting": "Greetings from The On-Line Encyclopedia of Integer Sequences! http://oeis.org/",
	"query": "id:A291295",
	"count": 1,
	"start": 0,
	"results": [
		{
			"number": 291295,
			"data": "1,1,2,3,4,5,8,12,17,25,39",
			"name": "Domination number of n-Fibonacci cube graph.",
			"link": [
				"Jernej Azarija, S. Klavzar, Y. Rho, S. Sim, \u003ca href=\"https://www.fmf.uni-lj.si/~klavzar/preprints/Total-dom-cubes-submit.pdf\"\u003eOn domination-type invariants of Fibonacci cubes and hypercubes\u003c/a\u003e, Preprint 2016; See Table 2.",
				"Jernej Azarija, S. Klavzar, Y. Rho, S. Sim, \u003ca href=\"https://amc-journal.eu/index.php/amc/article/view/1172\"\u003eOn domination-type invariants of Fibonacci cubes and hypercubes\u003c/a\u003e, Ars Mathematica Contemporanea, 14 (2018) 387-395. See Table 2.",
				"Eric Weisstein's World of Mathematics, \u003ca href=\"http://mathworld.wolfram.com/DominationNumber.html\"\u003eDomination Number\u003c/a\u003e",
				"Eric Weisstein's World of Mathematics, \u003ca href=\"http://mathworld.wolfram.com/FibonacciCubeGraph.html\"\u003eFibonacci Cube Graph\u003c/a\u003e",
				"Wikipedia, \u003ca href=\"https://en.wikipedia.org/wiki/Fibonacci_cube\"\u003eFibonacci cube\u003c/a\u003e"
			],
			"xref": [
				"Cf. A291573."
			],
			"keyword": "nonn,more",
			"offset": "1,3",
			"author": "_N. J. A. Sloane_, Aug 30 2017",
			"references": 2,
			"revision": 12,
			"time": "2018-03-10T08:34:31-05:00",
			"created": "2017-08-30T08:07:39-04:00"
		}
	]
}