{
	"greeting": "Greetings from The On-Line Encyclopedia of Integer Sequences! http://oeis.org/",
	"query": "id:A291117",
	"count": 1,
	"start": 0,
	"results": [
		{
			"number": 291117,
			"data": "1,1,1,1,1,1,3,2,1,1,7,8,4,1,1,15,30,20,7,1,1,31,104,102,46,11,1,1,63,342,496,300,96,16,1,1,127,1088,2294,1891,786,183,22,1,1,255,3390,10200,11417,6167,1862,323,29,1,1,511,10424,44062,66256,46417,17801,4040,535,37,1,1,1023,31782,186416,372190,336022,162372,46425,8127,841,46,1",
			"name": "Triangle read by rows: T(n,k) = number of ways of partitioning the (n+2)-element multiset {1,1,1,2,3,...,n} into exactly k nonempty parts, n \u003e= 0 and 1 \u003c= k \u003c= n + 2.",
			"link": [
				"M. Griffiths, I. Mezo, \u003ca href=\"https://cs.uwaterloo.ca/journals/JIS/VOL13/Griffiths/griffiths11.html\"\u003eA generalization of Stirling Numbers of the Second Kind via a special multiset\u003c/a\u003e, JIS 13 (2010) #10.2.5.",
				"Marko Riedel, \u003ca href=\"https://math.stackexchange.com/questions/2386814/\"\u003ePartitions into bounded blocks\u003c/a\u003e, Math Stack Exchange.",
				"Marko Riedel, \u003ca href=\"/A291117/a291117_2.maple.txt\"\u003eMaple code for sequences A241500, A291117, A291118, A291119, A291120.\u003c/a\u003e"
			],
			"formula": [
				"Formula including proof is at web link."
			],
			"example": [
				"Triangle begins:",
				"1,   1;",
				"1,   1,   1;",
				"1,   3,   2,   1;",
				"1,   7,   8,   4,   1;",
				"1,  15,  30,  20,   7,  1;",
				"1,  31, 104, 102,  46, 11,  1;",
				"1,  63, 342, 496, 300, 96, 16, 1;"
			],
			"xref": [
				"Cf. A241500, A291118, A291119, A291120.",
				"Columns k=1..4: A000012, A255047, A168605, A168606."
			],
			"keyword": "nonn,tabf",
			"offset": "0,7",
			"author": "_Marko Riedel_, Aug 17 2017",
			"references": 5,
			"revision": 29,
			"time": "2018-01-15T03:30:08-05:00",
			"created": "2017-08-18T10:25:22-04:00"
		}
	]
}