{
	"greeting": "Greetings from The On-Line Encyclopedia of Integer Sequences! http://oeis.org/",
	"query": "id:A291580",
	"count": 1,
	"start": 0,
	"results": [
		{
			"number": 291580,
			"data": "1,2,3,4,5,6,7,8,9,10,11,12,13,14,15,8,16,9,16,10,14,11,16,8,16,13,9,14,16,10,16,8,11,16,14,9,16,16,13,8,16,14,16,11,9,16,16,8,14,10,16,13,16,9,11,8,16,16,16,10,16,16,9,8,13,11,16,16,16,10",
			"name": "The arithmetic function uhat(n,8,3).",
			"comment": [
				"uhat(8,5) also generates this sequence."
			],
			"link": [
				"Bela Bajnok, \u003ca href=\"https://arxiv.org/abs/1705.07444\"\u003eAdditive Combinatorics: A Menu of Research Problems\u003c/a\u003e, arXiv:1705.07444 [math.NT], May 2017. See Table in Section 1.6.4."
			],
			"mathematica": [
				"delta[r_, k_, d_] := If[r \u003c k, (k - r)*r - (d - 1), If[k \u003c r \u0026\u0026 r \u003c d, (d - r)*(r - k) - (d - 1), If[k == r \u0026\u0026 r == d, d - 1, 0]]] uhat[n_, m_, h_] := (dx = Divisors[n]; dmin = n; For[i = 1, i ≤ Length[dx], i++, d = dx[[i]]; k = m - d*Ceiling[m/d] + d; r = h - d*Ceiling[h/d] + d; If[h ≤ Min[k, d - 1], dmin = Min[dmin, n, (h*Ceiling[m/d] - h + 1)*d, h*m - h*h + 1], dmin = Min[dmin, n, h*m - h*h + 1 - delta[r, k, d]]]]; dmin) Table[uhat[n, 8, 3], {n, 1, 70}]"
			],
			"xref": [
				"Cf. A289435, A289436, A289437, A289438, A289439, A289440, A289441."
			],
			"keyword": "nonn",
			"offset": "1,2",
			"author": "_Robert Price_, Aug 26 2017",
			"references": 0,
			"revision": 7,
			"time": "2017-08-30T18:24:43-04:00",
			"created": "2017-08-27T12:52:18-04:00"
		}
	]
}