{
	"greeting": "Greetings from The On-Line Encyclopedia of Integer Sequences! http://oeis.org/",
	"query": "id:A291170",
	"count": 1,
	"start": 0,
	"results": [
		{
			"number": 291170,
			"data": "1,1,0,0,0,-1,0,0,0,1,0,0,0,-1,1,0,0,1,-2,0,0,-1,3,-1,0,1,-4,3,0,-1,4,-6,1,1,-4,10,-4,-1,4,-13,10,0,-4,15,-20,4,5,-16,32,-14,-5,16,-44,34,1,-17,54,-65,13,19,-60,105,-48,-18,64,-149,113,4,-69,189",
			"name": "Expansion of 1 + x/(1 + x^4/(1 + x^9/(1 + x^16/(1 + x^25/(1 + ... + x^(k^2)/(1 + ...)))))), a continued fraction.",
			"formula": [
				"Convolution inverse of A285408."
			],
			"xref": [
				"Cf. A003823."
			],
			"keyword": "sign",
			"offset": "0,19",
			"author": "_Seiichi Manyama_, Aug 19 2017",
			"references": 0,
			"revision": 7,
			"time": "2017-08-20T09:23:33-04:00",
			"created": "2017-08-20T09:23:33-04:00"
		}
	]
}