{
	"greeting": "Greetings from The On-Line Encyclopedia of Integer Sequences! http://oeis.org/",
	"query": "id:A291517",
	"count": 1,
	"start": 0,
	"results": [
		{
			"number": 291517,
			"data": "-39,-39,-39,-39,-39,-39,-39,-39,-39,-40,-44,-48,-52,-56,-60,-64,-68,-72,-76,-80,-84,-88,-92,-96,-100,-104,-108,-112,-116,-120,-124,-128,-132,-136,-140,-144,-148,-152,-156,-160,-164,-168,-172,-176,-180,-184,-188,-192,-196,-200,-204,-208,-212,-216,-220,-224,-228,-232,-236,-240,-244,-248,-252,-256,-260,-264,-268,-272,-276,-280",
			"name": "The arithmetic function uhat(n,3,8).",
			"link": [
				"Bela Bajnok, \u003ca href=\"https://arxiv.org/abs/1705.07444\"\u003eAdditive Combinatorics: A Menu of Research Problems\u003c/a\u003e, arXiv:1705.07444 [math.NT], May 2017. See Table in Section 1.6.4."
			],
			"mathematica": [
				"delta[r_, k_, d_] := If[r \u003c k, (k - r)*r - (d - 1), If[k \u003c r \u0026\u0026 r \u003c d, (d - r)*(r - k) - (d - 1), If[k == r \u0026\u0026 r == d, d - 1, 0]]] uhat[n_, m_, h_] := (dx = Divisors[n]; dmin = n; For[i = 1, i ≤ Length[dx], i++, d = dx[[i]]; k = m - d*Ceiling[m/d] + d; r = h - d*Ceiling[h/d] + d; If[h ≤ Min[k, d - 1], dmin = Min[dmin, n, (h*Ceiling[m/d] - h + 1)*d, h*m - h*h + 1], dmin = Min[dmin, n, h*m - h*h + 1 - delta[r, k, d]]]]; dmin) Table[uhat[n, 3, 8], {n, 1, 70}]"
			],
			"xref": [
				"Cf. A289435, A289436, A289437, A289438, A289439, A289440, A289441."
			],
			"keyword": "sign",
			"offset": "1,1",
			"author": "_Robert Price_, Aug 25 2017",
			"references": 0,
			"revision": 4,
			"time": "2017-08-26T08:35:52-04:00",
			"created": "2017-08-26T08:35:52-04:00"
		}
	]
}