{
	"greeting": "Greetings from The On-Line Encyclopedia of Integer Sequences! http://oeis.org/",
	"query": "id:A291987",
	"count": 1,
	"start": 0,
	"results": [
		{
			"number": 291987,
			"data": "1,1,3,6,14,20,45,69,135,210,378,576,1057,1561,2667,4110,6902,10220,17109,25485,41583,62250,99666,147960,238633,350881,553107,825126,1292942,1899620,2977821,4381269,6791127,10025730,15415722,22645296,34970545,51140521",
			"name": "Expansion of 1/((1-x)*(1-2*x^2)*(1-3*x^3)*(1-4*x^4)).",
			"link": [
				"Seiichi Manyama, \u003ca href=\"/A291987/b291987.txt\"\u003eTable of n, a(n) for n = 0..6271\u003c/a\u003e",
				"\u003ca href=\"/index/Rec#order_10\"\u003eIndex entries for linear recurrences with constant coefficients\u003c/a\u003e, signature (1,2,1,1,-10,-2,-4,12,24,-24)."
			],
			"formula": [
				"a(n) = a(n-1) + 2*a(n-2) + a(n-3) + a(n-4) - 10*a(n-5) - 2*a(n-6) - 4*a(n-7) + 12*a(n-8) + 24*a(n-9) - 24*a(n-10) for n \u003e= 11. - _Muniru A Asiru_, Sep 07 2017"
			],
			"program": [
				"(PARI) Vec(1/((1-x)*(1-2*x^2)*(1-3*x^3)*(1-4*x^4)) + O(x^100))",
				"(GAP)",
				"a:=[1,1,3,6,14,20,45,69,135,210];;",
				"for n in [11..10^2] do a[n]:=a[n-1]+2*a[n-2]+a[n-3]+a[n-4]-10*a[n-5]-2*a[n-6]-4*a[n-7]+12*a[n-8]+24*a[n-9]-24*a[n-10]; od; a; # _Muniru A Asiru_, Sep 07 2017"
			],
			"xref": [
				"Cf. A291960, A291986, A291988."
			],
			"keyword": "nonn,easy",
			"offset": "0,3",
			"author": "_Seiichi Manyama_, Sep 07 2017",
			"references": 3,
			"revision": 16,
			"time": "2017-09-09T21:43:29-04:00",
			"created": "2017-09-07T09:08:39-04:00"
		}
	]
}