{
	"greeting": "Greetings from The On-Line Encyclopedia of Integer Sequences! http://oeis.org/",
	"query": "id:A291046",
	"count": 1,
	"start": 0,
	"results": [
		{
			"number": 291046,
			"data": "30,60,70,90,105,120,140,150,154,165,180,182,195,210,231,240,270,273,280,286,300,308,315,330,350,357,360,364,374,385,390,399,418,420,429,442,450,455,462,480,490,494,495,510,525,540,546,560,561,570,572,585,595,598,600,616,627",
			"name": "Minimal multiplicative semigroup of numbers n \u003e 1 such that in the prime factorization of n an initial product of primes is greater than a later prime in the factorization.",
			"comment": [
				"Definition: Let a number n\u003e1 have prime factorization n=p1^e1*...*pi^ei*..*pm^em, with the primes written in ascending order and the ei\u003e0. If an initial product p1*..*pi is greater than some later prime p(i+1), then n is in the sequence. The definition contains a more restrictive requirement than A289484 does, so it is a proper subsemigroup of A289484.  It can be seen that if s and t are in the sequence, the so is s*t. More strongly, if n is in the sequence, so is every multiple of n. Any number in it is divisible by at least 3 primes, although that is not a sufficient condition.",
				"Differs from A212666 first at a(93), because 930=2*3*5*31 is in this sequence but not in A212666. - _R. J. Mathar_, Sep 02 2018"
			],
			"link": [
				"Robert Israel, \u003ca href=\"/A291046/b291046.txt\"\u003eTable of n, a(n) for n = 1..10000\u003c/a\u003e"
			],
			"maple": [
				"filter:= proc(n) local S,p,i;",
				"  S:= sort(convert(numtheory:-factorset(n),list));",
				"  p:= 1;",
				"  for i from 1 to nops(S)-1 do",
				"    p:= p*S[i];",
				"    if p \u003e S[i+1] then return true fi;",
				"  od;",
				"  false",
				"end proc:",
				"select(filter, [$1..1000]); # _Robert Israel_, Aug 26 2018"
			],
			"xref": [
				"Cf. A212666, A289484."
			],
			"keyword": "nonn",
			"offset": "1,1",
			"author": "_Richard Locke Peterson_, Aug 16 2017",
			"references": 1,
			"revision": 21,
			"time": "2018-09-02T10:32:54-04:00",
			"created": "2018-04-15T14:31:57-04:00"
		}
	]
}