{
	"greeting": "Greetings from The On-Line Encyclopedia of Integer Sequences! http://oeis.org/",
	"query": "id:A291286",
	"count": 1,
	"start": 0,
	"results": [
		{
			"number": 291286,
			"data": "1,2,4,16,88,632,5552,57824,695776,9500128,145097152,2451080192,45373649024,913400022656,19865889564928,464227147597312,11599471170191872,308605525316616704,8709955613991289856,259922447412719218688,8177253768239405504512",
			"name": "a(0)=1, a(1)=2, thereafter a(n) = n*a(n-1)+(n-1)*(n-2)*a(n-2).",
			"maple": [
				"f:=proc(n) option remember;",
				"if n \u003c= 1 then n+1 else",
				"n*f(n-1)+(n-1)*(n-2)*f(n-2); fi; end;",
				"[seq(f(n),n=0..40)];"
			],
			"xref": [
				"A244430 and A291287 have the same recurrence."
			],
			"keyword": "nonn",
			"offset": "0,2",
			"author": "_N. J. A. Sloane_, Aug 27 2017",
			"references": 1,
			"revision": 7,
			"time": "2017-08-27T13:42:49-04:00",
			"created": "2017-08-27T11:26:00-04:00"
		}
	]
}