{
	"greeting": "Greetings from The On-Line Encyclopedia of Integer Sequences! http://oeis.org/",
	"query": "id:A291747",
	"count": 1,
	"start": 0,
	"results": [
		{
			"number": 291747,
			"data": "1,8,15,22,36,50,57,64,78,85,92,99,106,120,134,141,148,155,162,169,176,183,190,204,218,225,232,246,253,260,267,274,288,295,302,309,316,323,330,344,351,358,365,372,386,393,400,407,414,428,435,442,456,470,477,484,498",
			"name": "Nonprimes of the form 7*k + 1.",
			"comment": [
				"Subsequence of A018252."
			],
			"mathematica": [
				"DeleteCases[7 Range[0, 200] + 1, _?PrimeQ]"
			],
			"program": [
				"(MAGMA) [n: n in [1..500 by 7] | not IsPrime(n)];"
			],
			"xref": [
				"Cf. A016993, A091113, A091300, A140444, A291745, A291746."
			],
			"keyword": "nonn,easy",
			"offset": "1,2",
			"author": "_Vincenzo Librandi_, Aug 31 2017",
			"references": 2,
			"revision": 8,
			"time": "2017-08-31T03:14:28-04:00",
			"created": "2017-08-31T03:06:05-04:00"
		}
	]
}