{
	"greeting": "Greetings from The On-Line Encyclopedia of Integer Sequences! http://oeis.org/",
	"query": "id:A291779",
	"count": 1,
	"start": 0,
	"results": [
		{
			"number": 291779,
			"data": "0,1,2,4,12,24,48,112,224,448,960,1920,3840,7936,15872,31744,64512,129024,258048,520192,1040384,2080768,4177920,8355840,16711680,33488896,66977792,133955584,268173312,536346624,1072693248,2146435072,4292870144,8585740288,17175674880,34351349760,68702699520",
			"name": "a(n) = 2^n - 2^floor(2n/3).",
			"link": [
				"Robert Israel, \u003ca href=\"/A291779/b291779.txt\"\u003eTable of n, a(n) for n = 0..3318\u003c/a\u003e",
				"\u003ca href=\"/index/Rec#order_04\"\u003eIndex entries for linear recurrences with constant coefficients\u003c/a\u003e, signature (2,0,4,-8)."
			],
			"formula": [
				"G.f.: x/((1-2*x)*(1-4*x^3)). - _Robert Israel_, Sep 01 2017"
			],
			"maple": [
				"seq(2^n-2^floor(2*n/3),n=0..50); # _Robert Israel_, Sep 01 2017"
			],
			"mathematica": [
				"LinearRecurrence[{2, 0, 4, -8}, {0, 1, 2, 4}, 37] (* _Jean-François Alcover_, Apr 02 2019 *)"
			],
			"xref": [
				"Cf. A004523, A291778."
			],
			"keyword": "nonn",
			"offset": "0,3",
			"author": "_Don Reble_ and _N. J. A. Sloane_, Sep 01 2017",
			"references": 5,
			"revision": 13,
			"time": "2019-04-02T11:49:17-04:00",
			"created": "2017-09-01T14:01:05-04:00"
		}
	]
}