{
	"greeting": "Greetings from The On-Line Encyclopedia of Integer Sequences! http://oeis.org/",
	"query": "id:A292143",
	"count": 1,
	"start": 0,
	"results": [
		{
			"number": 292143,
			"data": "1,0,1,0,1,0,1,-4,0,1,-4,0,1,-8,0,1,-8,-4,0,1,-12,-4,0,1,-12,-8,0,1,-16,-12,0,1,-16,-16,16,0,1,-20,-20,16,0,1,-20,-28,32,0,1,-24,-32,48,0,1,-24,-40,80,0,1,-28,-48,96,16,0,1,-28,-56,144,16,0,1,-32",
			"name": "Triangle read by rows: T(n,k) = (-4)^(1 - k mod 2) * T(n-k,k-1) + T(n-k,k) with T(0,0) = 1 for 0 \u003c= k \u003c= A003056(n).",
			"link": [
				"Seiichi Manyama, \u003ca href=\"/A292143/b292143.txt\"\u003eRows n = 0..481, flattened\u003c/a\u003e"
			],
			"example": [
				"First few rows are:",
				"  1;",
				"  0, 1;",
				"  0, 1;",
				"  0, 1,  -4;",
				"  0, 1,  -4;",
				"  0, 1,  -8;",
				"  0, 1,  -8,  -4;",
				"  0, 1, -12,  -4;",
				"  0, 1, -12,  -8;",
				"  0, 1, -16, -12;",
				"  0, 1, -16, -16, 16."
			],
			"xref": [
				"Row sums give A292141.",
				"Columns 0-1 give A000007, A000012.",
				"Cf. A292049."
			],
			"keyword": "sign,tabf",
			"offset": "0,8",
			"author": "_Seiichi Manyama_, Sep 09 2017",
			"references": 2,
			"revision": 14,
			"time": "2017-09-17T03:55:58-04:00",
			"created": "2017-09-10T15:00:36-04:00"
		}
	]
}