{
	"greeting": "Greetings from The On-Line Encyclopedia of Integer Sequences! http://oeis.org/",
	"query": "id:A292460",
	"count": 1,
	"start": 0,
	"results": [
		{
			"number": 292460,
			"data": "1,1,2,4,8,17,37,82,185,423,978,2283,5373,12735,30372,72832,175502,424748,1032004,2516347,6155441,15101701,37150472,91618049,226460893,560954047,1392251012,3461824644,8622571758,21511212261,53745962199,134474581374",
			"name": "Expansion of (1 - x - x^2 - sqrt((1 - x - x^2)^2 - 4*x^3))/(2*x^3) in powers of x.",
			"comment": [
				"Number of U_{k}D-equivalence classes of Łukasiewicz paths. Łukasiewicz paths are P-equivalent iff the positions of pattern P are identical in these paths. - _Sergey Kirgizov_, Apr 08 2018"
			],
			"link": [
				"G. C. Greubel, \u003ca href=\"/A292460/b292460.txt\"\u003eTable of n, a(n) for n = 0..1000\u003c/a\u003e",
				"Jean-Luc Baril, Sergey Kirgizov and Armen Petrossian, \u003ca href=\"https://arxiv.org/abs/1804.01293\"\u003eEnumeration of Łukasiewicz paths modulo some patterns\u003c/a\u003e, arXiv:1804.01293 [math.CO], 2018."
			],
			"formula": [
				"G.f.: 1/(1-x-x^2-x^3/(1-x-x^2-x^3/(1-x-x^2-x^3/(1-x-x^2-x^3/(1-x-x^2-x^3/(... (continued fraction).",
				"a(n) = A004148(n+1).",
				"a(n) ~ 5^(1/4) * phi^(2*n + 4) / (2*sqrt(Pi)*n^(3/2)), where phi is the golden ratio (1+sqrt(5))/2. - _Vaclav Kotesovec_, Sep 17 2017",
				"D-finite with recurrence: (n+3)*a(n) +(-2*n-3)*a(n-1) -n*a(n-2) +(-2*n+3)*a(n-3) +(n-3)*a(n-4)=0. - _R. J. Mathar_, Jan 23 2020",
				"a(0) = a(1) = 1; a(n) = a(n-1) + a(n-2) + Sum_{k=0..n-3} a(k) * a(n-k-3). - _Ilya Gutkovskiy_, Nov 09 2021"
			],
			"mathematica": [
				"CoefficientList[Series[(1-x-x^2 -Sqrt[(1-x-x^2)^2 -4*x^3])/(2*x^3), {x, 0, 50}], x] (* _G. C. Greubel_, Aug 13 2018 *)"
			],
			"program": [
				"(PARI) x='x+O('x^50); Vec((1-x-x^2 -sqrt((1-x-x^2)^2 -4*x^3))/(2*x^3)) \\\\ _G. C. Greubel_, Aug 13 2018",
				"(MAGMA) m:=25; R\u003cx\u003e:=PowerSeriesRing(Integers(), m); Coefficients(R!((1-x-x^2 -Sqrt((1-x-x^2)^2 -4*x^3))/(2*x^3))); // _G. C. Greubel_, Aug 13 2018"
			],
			"xref": [
				"Cf. A001006, A004148, A292461."
			],
			"keyword": "nonn",
			"offset": "0,3",
			"author": "_Seiichi Manyama_, Sep 16 2017",
			"references": 3,
			"revision": 33,
			"time": "2021-11-11T20:46:36-05:00",
			"created": "2017-09-17T22:12:37-04:00"
		}
	]
}