{
	"greeting": "Greetings from The On-Line Encyclopedia of Integer Sequences! http://oeis.org/",
	"query": "id:A292036",
	"count": 1,
	"start": 0,
	"results": [
		{
			"number": 292036,
			"data": "612,794976,954380016",
			"name": "Wiener index of the n-Menger sponge graph.",
			"link": [
				"Eric Weisstein's World of Mathematics, \u003ca href=\"http://mathworld.wolfram.com/MengerSpongeGraph.html\"\u003eMenger Sponge Graph\u003c/a\u003e",
				"Eric Weisstein's World of Mathematics, \u003ca href=\"http://mathworld.wolfram.com/WienerIndex.html\"\u003eWiener Index\u003c/a\u003e"
			],
			"keyword": "nonn,more,bref",
			"offset": "1,1",
			"author": "_Eric W. Weisstein_, Sep 08 2017",
			"references": 0,
			"revision": 10,
			"time": "2017-09-13T11:12:39-04:00",
			"created": "2017-09-08T05:25:38-04:00"
		}
	]
}