{
	"greeting": "Greetings from The On-Line Encyclopedia of Integer Sequences! http://oeis.org/",
	"query": "id:A292497",
	"count": 1,
	"start": 0,
	"results": [
		{
			"number": 292497,
			"data": "1,0,0,0,1,0,6,0,20,5,258,62,2510,914,24285,16403,263945,222240,3068971,3241157,35286928,46638022,426740187,650095127,5330192371,9185814630,67064945191,129902075662,864443143567,1833530501143,11336065334984,25990268638322",
			"name": "Number of solutions to 1^2 +- 3^2 +- 5^2 +- 7^2 +- ... +- (4*n-1)^2 = 0.",
			"link": [
				"Seiichi Manyama, \u003ca href=\"/A292497/b292497.txt\"\u003eTable of n, a(n) for n = 0..100\u003c/a\u003e"
			],
			"formula": [
				"For n\u003e0 constant term in the expansion of 1/2 * Product_{k=1..2*n} (x^(2*k-1)^2+1/x^(2*k-1)^2).",
				"a(n) = A292496(n)/2 for n\u003e0."
			],
			"xref": [
				"Cf. A083527, A156700, A292496."
			],
			"keyword": "nonn",
			"offset": "0,7",
			"author": "_Seiichi Manyama_, Sep 17 2017",
			"references": 2,
			"revision": 18,
			"time": "2017-09-18T19:25:15-04:00",
			"created": "2017-09-17T22:14:12-04:00"
		}
	]
}