{
	"greeting": "Greetings from The On-Line Encyclopedia of Integer Sequences! http://oeis.org/",
	"query": "id:A292886",
	"count": 1,
	"start": 0,
	"results": [
		{
			"number": 292886,
			"data": "1,1,1,2,1,2,1,3,2,2,1,4,1,2,2,4,1,4,1,4,2,2,1,7,2,2,3,4,1,5,1,6,2,2,2,8,1,2,2,7,1,5,1,4,4,2,1,11,2,4,2,4,1,7,2,7,2,2,1,11,1,2,4,7,2,5,1,4,2,5,1,15,1,2,4,4,2,5,1,11,4,2,1,11,2",
			"name": "Number of knapsack factorizations of n.",
			"comment": [
				"A knapsack factorization is a finite multiset of positive integers greater than one such that every distinct submultiset has a different product.",
				"The sequence giving the number of factorizations of n is described as \"the multiplicative partition function\" (see A001055), so knapsack factorizations are a multiplicative generalization of knapsack partitions. - _Gus Wiseman_, Oct 24 2017"
			],
			"link": [
				"Vincenzo Librandi, \u003ca href=\"/A292886/b292886.txt\"\u003eTable of n, a(n) for n = 1..2000\u003c/a\u003e"
			],
			"example": [
				"The a(36) = 8 factorizations are 2*2*3*3, 2*2*9, 2*18, 3*3*4, 3*12, 4*9, 6*6, 36. The factorization 2*3*6 is not knapsack."
			],
			"mathematica": [
				"postfacs[n_]:=If[n\u003c=1,{{}},Join@@Table[Map[Prepend[#,d]\u0026,Select[postfacs[n/d],Min@@#\u003e=d\u0026]],{d,Rest[Divisors[n]]}]];",
				"Table[Length[Select[postfacs[n],UnsameQ@@Times@@@Union[Subsets[#]]\u0026]],{n,100}]"
			],
			"xref": [
				"Cf. A001055, A045778, a(p^n) = A108917(n), A162247, A259936, A275972, A281116."
			],
			"keyword": "nonn",
			"offset": "1,4",
			"author": "_Gus Wiseman_, Sep 26 2017",
			"references": 32,
			"revision": 15,
			"time": "2017-10-29T02:35:50-04:00",
			"created": "2017-10-01T00:06:46-04:00"
		}
	]
}