{
	"greeting": "Greetings from The On-Line Encyclopedia of Integer Sequences! http://oeis.org/",
	"query": "id:A292745",
	"count": 1,
	"start": 0,
	"results": [
		{
			"number": 292745,
			"data": "1,1,0,1,1,1,1,1,2,1,1,1,3,3,2,1,1,3,6,5,2,1,1,3,7,13,7,4,1,1,3,7,19,26,11,4,1,1,3,7,20,52,54,15,7,1,1,3,7,20,62,151,108,22,8,1,1,3,7,20,63,217,442,219,30,12,1,1,3,7,20,63,232,803,1314,439,42,14",
			"name": "Number A(n,k) of partitions of n with k sorts of part 1 which are introduced in ascending order; square array A(n,k), n\u003e=0, k\u003e=0, read by antidiagonals.",
			"link": [
				"Alois P. Heinz, \u003ca href=\"/A292745/b292745.txt\"\u003eAntidiagonals n = 0..140, flattened\u003c/a\u003e"
			],
			"formula": [
				"A(n,k) = Sum_{j=0..k} A292746(n,j).",
				"A(n,k) = A(n,n) for all k \u003e= n."
			],
			"example": [
				"A(3,2) = 6: 3, 21a, 1a1a1a, 1a1a1b, 1a1b1a, 1a1b1b.",
				"Square array A(n,k) begins:",
				"  1,  1,   1,    1,    1,    1,    1,    1,    1, ...",
				"  0,  1,   1,    1,    1,    1,    1,    1,    1, ...",
				"  1,  2,   3,    3,    3,    3,    3,    3,    3, ...",
				"  1,  3,   6,    7,    7,    7,    7,    7,    7, ...",
				"  2,  5,  13,   19,   20,   20,   20,   20,   20, ...",
				"  2,  7,  26,   52,   62,   63,   63,   63,   63, ...",
				"  4, 11,  54,  151,  217,  232,  233,  233,  233, ...",
				"  4, 15, 108,  442,  803,  944,  965,  966,  966, ...",
				"  7, 22, 219, 1314, 3092, 4158, 4425, 4453, 4454, ..."
			],
			"maple": [
				"f:= (n, k)-\u003e add(Stirling2(n, j), j=0..k):",
				"b:= proc(n, i, k) option remember; `if`(n=0 or i\u003c2,",
				"      f(n, k), add(b(n-i*j, i-1, k), j=0..n/i))",
				"    end:",
				"A:= (n, k)-\u003e b(n$2, k):",
				"seq(seq(A(n, d-n), n=0..d), d=0..14);"
			],
			"mathematica": [
				"f[n_, k_] := Sum[StirlingS2[n, j], {j, 0, k}];",
				"b[n_, i_, k_] := b[n, i, k] = If[n == 0 || i \u003c 2, f[n, k], Sum[b[n - i*j, i - 1, k], {j, 0, n/i}]];",
				"A[n_, k_] := b[n, n, k];",
				"Table[A[n, d - n], {d, 0, 14}, {n, 0, d}] // Flatten (* _Jean-François Alcover_, May 17 2018, translated from Maple *)"
			],
			"xref": [
				"Columns k=0-10 give: A002865, A000041, A320733, A320734, A320735, A320736, A320737, A320738, A320739, A320740, A320741.",
				"Main diagonal gives A292503.",
				"Cf. A292508, A292622, A292741, A292746."
			],
			"keyword": "nonn,tabl",
			"offset": "0,9",
			"author": "_Alois P. Heinz_, Sep 22 2017",
			"references": 15,
			"revision": 22,
			"time": "2018-10-20T14:16:22-04:00",
			"created": "2017-09-23T15:18:07-04:00"
		}
	]
}