{
	"greeting": "Greetings from The On-Line Encyclopedia of Integer Sequences! http://oeis.org/",
	"query": "id:A292495",
	"count": 1,
	"start": 0,
	"results": [
		{
			"number": 292495,
			"data": "0,1,1,0,-2,-4,-1,-1,3,11,0,2,4,-2,-24,1,1,-3,-11,-7,41,0,-2,-4,2,24,38,-44,-1,-1,3,11,7,-41,-117,-29,0,2,4,-2,-24,-38,44,278,336,1,1,-3,-11,-7,41,117,29,-527,-1199,0,-2,-4,2,24,38,-44,-278,-336,718",
			"name": "Triangle read by rows: T(n,k) = (-2)*T(n-1,k-1) + T(n,k-1) with T(2*m,0) = 0 and T(2*m+1,0) = (-1)^m.",
			"link": [
				"Seiichi Manyama, \u003ca href=\"/A292495/b292495.txt\"\u003eRows n = 0..139, flattened\u003c/a\u003e"
			],
			"formula": [
				"T(n+1,n)^2 + T(n,n)^2 = 5^n."
			],
			"example": [
				"First few rows are:",
				"   0;",
				"   1,  1;",
				"   0, -2, -4;",
				"  -1, -1,  3,  11;",
				"   0,  2,  4,  -2, -24;",
				"   1,  1, -3, -11,  -7,  41;",
				"   0, -2, -4,   2,  24,  38,  -44;",
				"  -1, -1,  3,  11,   7, -41, -117, -29;",
				"   0,  2,  4,  -2, -24, -38,   44, 278, 336."
			],
			"xref": [
				"The diagonal of the triangle is related to A099456.",
				"The next diagonal of the triangle is related to A139011.",
				"Cf. A006495, A006496.",
				"T(n,k) = b*T(n-1,k-1) + T(n,k-1): A292789 (b=-3), this sequence (b=-2), A117918 and A228405 (b=1), A227418 (b=2), A292466 (b=4)."
			],
			"keyword": "sign,tabl,look",
			"offset": "0,5",
			"author": "_Seiichi Manyama_, Sep 22 2017",
			"references": 3,
			"revision": 46,
			"time": "2017-09-26T09:26:29-04:00",
			"created": "2017-09-24T21:03:07-04:00"
		}
	]
}