{
	"greeting": "Greetings from The On-Line Encyclopedia of Integer Sequences! http://oeis.org/",
	"query": "id:A292473",
	"count": 1,
	"start": 0,
	"results": [
		{
			"number": 292473,
			"data": "2,3,11,5,23,29,7,37,43,157,13,41,47,173,113,17,59,53,181,151,223,19,67,71,229,163,239",
			"name": "Square array read by antidiagonals downwards: A(n,k) = k-th prime p such that A001222(2^p-1) = n.",
			"comment": [
				"A permutation of the prime numbers.",
				"Is this the same as k-th prime p such that A001221(2^p-1) = n?"
			],
			"example": [
				"Array starts",
				"    2,   3,   5,   7,  13,  17, ....",
				"   11,  23,  37,  41,  59,  67, ....",
				"   29,  43,  47,  53,  71,  73, ....",
				"  157, 173, 181, 229, 233, 263, ....",
				"  113, 151, 163, 191, 251, 307, ....",
				"  223, 239, 359, 463, 587, 641, ....",
				"  ....",
				"A(2, 3) = 37, because the 3rd prime p such that 2^p-1 has 2 prime factors is 37, with 2^37-1 = 223 * 616318177."
			],
			"mathematica": [
				"With[{s = Array[PrimeOmega[2^Prime@ # - 1] \u0026, 50]}, Function[t, Function[u, Table[Prime@ u[[#, k]] \u0026[n - k + 1], {n, Length@t}, {k, n, 1, -1}]]@ Map[PadRight[#, Length@ t] \u0026, t]]@ Values@ KeySort@ PositionIndex@ s] // Flatten (* _Michael De Vlieger_, Sep 17 2017 *)"
			],
			"xref": [
				"Cf. A000043 (row 1), A135978 (row 2), A140745 (column 1).",
				"Cf. A001222, A088863."
			],
			"keyword": "nonn,tabl,hard,more",
			"offset": "1,1",
			"author": "_Felix Fröhlich_, Sep 17 2017",
			"ext": [
				"More terms from _Michael De Vlieger_, Sep 17 2017"
			],
			"references": 0,
			"revision": 12,
			"time": "2017-10-28T09:58:27-04:00",
			"created": "2017-10-28T09:58:27-04:00"
		}
	]
}