{
	"greeting": "Greetings from The On-Line Encyclopedia of Integer Sequences! http://oeis.org/",
	"query": "id:A292776",
	"count": 1,
	"start": 0,
	"results": [
		{
			"number": 292776,
			"data": "3,2,5,4,3,11,3,4,5,14,5,7,11,7,31,4,5,8,10,11,34,6,6,19,11,24,15,69,5,9,11,12,25,22,22,82,7,7,20,21,33,23,49,30,139",
			"name": "Triangle read by rows: row n gives number of Ramsey partitions of n+k (2 \u003c= k \u003c= n).",
			"comment": [
				"See McAvaney et al. for definition of Ramsey partition: If k1 and k2 are positive integers, the partition P = (p1,p2,...,pn) of k1+k2 is said to be a Ramsey partition for the pair k1, k2 if for any sublist L of P, either there is a sublist of L which sums to k1 or a sublist of P -L which sums to k2."
			],
			"reference": [
				"Kevin McAvaney, Jack Robertson, William Webb, Ramsey partitions of integers and pair divisions, Combinatorica, 12 (2) (1992), 193-201."
			],
			"link": [
				"Kevin McAvaney, Jack Robertson, William Webb, \u003ca href=\"https://doi.org/10.1007/BF01204722\"\u003eRamsey partitions of integers and fair divisions\u003c/a\u003e. Combinatorica 12, pp. 193-201 (1992)."
			],
			"example": [
				"Triangle begins:",
				"  3;",
				"  2,  5;",
				"  4,  3, 11;",
				"  3,  4,  5, 14;",
				"  5,  7, 11,  7, 31;",
				"  4,  5,  8, 10, 11, 34;",
				"  6,  6, 19, 11, 24, 15, 69;",
				"  5,  9, 11, 12, 25, 22, 22, 82;",
				"  7,  7, 20, 21, 33, 23, 49, 30, 139;",
				"  ..."
			],
			"keyword": "nonn,tabl,more",
			"offset": "2,1",
			"author": "_N. J. A. Sloane_, Oct 01 2017",
			"references": 0,
			"revision": 6,
			"time": "2020-02-25T18:33:42-05:00",
			"created": "2017-10-01T14:31:09-04:00"
		}
	]
}