{
	"greeting": "Greetings from The On-Line Encyclopedia of Integer Sequences! http://oeis.org/",
	"query": "id:A292598",
	"count": 1,
	"start": 0,
	"results": [
		{
			"number": 292598,
			"data": "0,0,1,0,1,1,2,0,0,1,2,1,2,2,2,0,1,0,1,1,1,2,3,1,1,2,2,2,3,2,3,0,0,1,1,0,1,1,1,1,2,1,2,2,2,3,4,1,1,1,1,2,3,2,2,2,2,3,4,2,3,3,3,0,0,0,1,1,1,1,2,0,1,1,1,1,1,1,2,1,1,2,3,1,1,2,2,2,3,2,2,3,3,4,4,1,2,1,1,1,2,1,2,2,2",
			"name": "a(n) is the number of odd primes in the sequence [n, floor(n/2), floor(n/4), ..., 1].",
			"link": [
				"Antti Karttunen, \u003ca href=\"/A292598/b292598.txt\"\u003eTable of n, a(n) for n = 1..16384\u003c/a\u003e"
			],
			"formula": [
				"a(1) = a(2) = 0; for n \u003e 2, a(n) = A010051(n) + a(floor(n/2)).",
				"a(n) = A000120(A292596(n)).",
				"For all n \u003e= 1, a(n) \u003c= A078349(n)."
			],
			"program": [
				"(Scheme, with memoization-macro definec)",
				"(definec (A292598 n) (if (\u003c= n 2) 0 (+ (A010051 n) (A292598 (floor-\u003eexact (/ n 2))))))"
			],
			"xref": [
				"Cf. A010051, A065091, A078349, A292596."
			],
			"keyword": "nonn",
			"offset": "1,7",
			"author": "_Antti Karttunen_, Sep 27 2017",
			"references": 4,
			"revision": 9,
			"time": "2017-09-27T21:21:41-04:00",
			"created": "2017-09-27T21:21:41-04:00"
		}
	]
}