{
	"greeting": "Greetings from The On-Line Encyclopedia of Integer Sequences! http://oeis.org/",
	"query": "id:A292137",
	"count": 1,
	"start": 0,
	"results": [
		{
			"number": 292137,
			"data": "0,1,1,0,0,0,-1,-2,-2,-2,-2,-3,-3,-2,-2,-2,-1,1,2,2,4,6,7,8,10,13,14,14,15,17,17,15,15,16,14,10,8,6,1,-5,-10,-14,-21,-31,-38,-43,-53,-64,-71,-77,-86,-97,-104,-108,-115,-124,-127,-125,-127,-130,-125,-116",
			"name": "G.f.: Im(1/(i*x; x)_inf), where (a; q)_inf is the q-Pochhammer symbol, i = sqrt(-1).",
			"link": [
				"Seiichi Manyama, \u003ca href=\"/A292137/b292137.txt\"\u003eTable of n, a(n) for n = 0..1000\u003c/a\u003e",
				"Eric Weisstein's World of Mathematics, \u003ca href=\"http://mathworld.wolfram.com/q-PochhammerSymbol.html\"\u003eq-Pochhammer Symbol\u003c/a\u003e."
			],
			"formula": [
				"1/(i*x; x)_inf is the g.f. for A292136(n) + i*a(n).",
				"a(n) = Sum (-1)^((k - 1)/2) where the sum is over all integer partitions of n into an odd number of parts and k is the number of parts. - _Gus Wiseman_, Mar 08 2018",
				"G.f.: Sum_{n \u003e= 0} (-1)^n * x^(2*n+1)/Product_{k = 1..2*n+1} (1 - x^k). - _Peter Bala_, Jan 15 2021"
			],
			"example": [
				"Product_{k\u003e=1} 1/(1 - i*x^k) = 1 + (0+1i)*x + (-1+1i)*x^2 + (-1+0i)*x^3 + (-1+0i)*x^4 + (-1+0i)*x^5 + (-2-1i)*x^6 + (-1-2i)*x^7 + ..."
			],
			"maple": [
				"N:= 100:",
				"S := convert(series( add( (-1)^n*x^(2*n+1)/(mul(1 - x^k,k = 1..2*n+1)), n = 0..N ), x, N+1 ), polynom):",
				"seq(coeff(S, x, n), n = 0..N); # _Peter Bala_, Jan 15 2021"
			],
			"mathematica": [
				"Im[CoefficientList[Series[1/QPochhammer[I*x, x], {x, 0, 100}], x]] (* _Vaclav Kotesovec_, Sep 17 2017 *)"
			],
			"xref": [
				"Cf. A000108, A010815, A027193, A063834, A067659, A081362, A099323, A196545, A220418, A290261, A292042, A292043, A292136, A292138, A298118, A300355."
			],
			"keyword": "sign,look",
			"offset": "0,8",
			"author": "_Seiichi Manyama_, Sep 09 2017",
			"references": 7,
			"revision": 26,
			"time": "2021-01-19T21:53:48-05:00",
			"created": "2017-09-09T12:02:19-04:00"
		}
	]
}