{
	"greeting": "Greetings from The On-Line Encyclopedia of Integer Sequences! http://oeis.org/",
	"query": "id:A292392",
	"count": 1,
	"start": 0,
	"results": [
		{
			"number": 292392,
			"data": "1,3,9,21,39,63,117,273,819,2067,3081,6201,9243,12807,14469,21567,43407,48711,50877,64701,89649,146133,149331,163293,166491,221169,340977,356139,447993,489879,546819,661401,663507,1022931,1143051,1165437,1548183,1639911,1640457",
			"name": "Numbers n such that n^2 divides (17^n + 1).",
			"comment": [
				"After a(1), all the terms are multiples of 3.",
				"From _Robert Israel_, Sep 18 2017: (Start)",
				"All terms are odd.",
				"If m and n are terms then lcm(m,n) is a term.",
				"If n is a term not divisible by 9, then 3n is a term. (End)"
			],
			"example": [
				"3 appears is a term because 3^2 divides (17^3 + 1): 4914/9 = 546.",
				"9 appears is a term because 9^2 divides (17^9 + 1): 118587876498/81 = 1464047858."
			],
			"maple": [
				"A292392:= proc(n) if(17 \u0026^ n+1)mod (n^2)=0  then RETURN (n); fi; end: seq(A292392(n), n=1..50000);"
			],
			"mathematica": [
				"Select[Range[50000], IntegerQ[(PowerMod[17, #, #^2] + 1)/#^2] \u0026]"
			],
			"program": [
				"(PARI) for(n=1, 5e6, if (Mod(17, n^2)^n==-1, print1(n, \", \")));",
				"(PARI) is(n) = Mod(17, n^2)^n==-1 \\\\ _Felix Fröhlich_, Sep 16 2017"
			],
			"xref": [
				"Cf. A015951, A123047, A123052, A177813, A292331."
			],
			"keyword": "nonn",
			"offset": "1,2",
			"author": "_K. D. Bajpai_, Sep 15 2017",
			"references": 1,
			"revision": 28,
			"time": "2017-10-07T22:39:20-04:00",
			"created": "2017-10-07T22:39:20-04:00"
		}
	]
}