{
	"greeting": "Greetings from The On-Line Encyclopedia of Integer Sequences! http://oeis.org/",
	"query": "id:A292909",
	"count": 1,
	"start": 0,
	"results": [
		{
			"number": 292909,
			"data": "1,0,1,-3,9,-40,210,-1176,7273,-49932,372060,-2971540,25359411,-230364498,2215550428,-22460391240,239236043985,-2669869110856,31134833803728,-378485082644400,4786085290280275,-62838103267148790,855122923978737876",
			"name": "E.g.f.: exp(1/2! * x^2 * exp(-x)).",
			"link": [
				"Seiichi Manyama, \u003ca href=\"/A292909/b292909.txt\"\u003eTable of n, a(n) for n = 0..530\u003c/a\u003e"
			],
			"formula": [
				"a(n) = (-1)^n * A133189(n)."
			],
			"program": [
				"(PARI) x='x+O('x^66); Vec(serlaplace(exp(1/2!*x^2*exp(-x))))"
			],
			"xref": [
				"Column k=2 of A292948.",
				"Cf. A133189, A292907."
			],
			"keyword": "sign",
			"offset": "0,4",
			"author": "_Seiichi Manyama_, Sep 26 2017",
			"references": 3,
			"revision": 19,
			"time": "2017-09-27T18:51:00-04:00",
			"created": "2017-09-26T20:25:12-04:00"
		}
	]
}