{
	"greeting": "Greetings from The On-Line Encyclopedia of Integer Sequences! http://oeis.org/",
	"query": "id:A293246",
	"count": 1,
	"start": 0,
	"results": [
		{
			"number": 293246,
			"data": "2,2,3,7,25,121,241,1681,13441,40321,403201,2016001,3225601,41932801,609638401",
			"name": "a(n) is the smallest k \u003e 1 such that A000166(k) is divisible by n!.",
			"comment": [
				"a(n) is the smallest k \u003e 1 such that round(k!/e) is divisible by n!.",
				"Terms are 0! + 1, 1! + 1, 2! + 1, 3! + 1, 4! + 1, 5! + 1, 6!/3 + 1, 7!/3 + 1, ..."
			],
			"example": [
				"a(3) = 7 because the smallest nonzero subfactorial number that is divisible by 3! is A000166(7) = 1854."
			],
			"maple": [
				"f:= proc(n) local k, t, p;",
				"p:= n!;",
				"t:= 0;",
				"for k from 2 do",
				"  t:= k*t + (-1)^k mod p;",
				"  if t = 0 then return k fi",
				"od:",
				"end proc:",
				"seq(f(n),n=0..13); # _Robert Israel_, Oct 03 2017"
			],
			"xref": [
				"Cf. A000142, A000166."
			],
			"keyword": "nonn,more",
			"offset": "0,1",
			"author": "_Altug Alkan_, Oct 03 2017",
			"ext": [
				"a(8)-a(14) from _Robert Israel_, Oct 03 2017"
			],
			"references": 0,
			"revision": 23,
			"time": "2019-05-20T10:09:23-04:00",
			"created": "2017-10-04T14:13:32-04:00"
		}
	]
}