{
	"greeting": "Greetings from The On-Line Encyclopedia of Integer Sequences! http://oeis.org/",
	"query": "id:A293250",
	"count": 1,
	"start": 0,
	"results": [
		{
			"number": 293250,
			"data": "1,1,3,8,30,133,48,181,262,530,738,1750,1939,5672,6704,20065,11306,20362,36780,53926,77234,116988,146955,219604,353518,479638,643753,1156116,1393784,1778612,3767018,3224712,4227504,6058692,9406426,13136745,15425494,19723654",
			"name": "G.f.: Product_{m\u003e0} (1 + x^m + 2!*x^(2*m) + 3!*x^(3*m) + 4!*x^(4*m) + 5!*x^(5*m)).",
			"link": [
				"Seiichi Manyama, \u003ca href=\"/A293250/b293250.txt\"\u003eTable of n, a(n) for n = 0..500\u003c/a\u003e"
			],
			"maple": [
				"b:= proc(n, i) option remember; `if`(n=0, 1, `if`(i\u003c1, 0,",
				"      add(b(n-i*j, i-1)*j!, j=0..min(5, n/i))))",
				"    end:",
				"a:= n-\u003e b(n$2):",
				"seq(a(n), n=0..50);  # _Alois P. Heinz_, Oct 04 2017"
			],
			"xref": [
				"Column k=5 of A293202."
			],
			"keyword": "nonn",
			"offset": "0,3",
			"author": "_Seiichi Manyama_, Oct 03 2017",
			"references": 3,
			"revision": 11,
			"time": "2017-10-04T09:50:37-04:00",
			"created": "2017-10-04T09:03:19-04:00"
		}
	]
}