{
	"greeting": "Greetings from The On-Line Encyclopedia of Integer Sequences! http://oeis.org/",
	"query": "id:A293872",
	"count": 1,
	"start": 0,
	"results": [
		{
			"number": 293872,
			"data": "12,112,120,121,122,123,124,125,126,127,128,129,212,312,412,512,612,712,812,912,1012,1112,1120,1121,1122,1123,1124,1125,1126,1127,1128,1129,1200,1201,1202,1203,1204,1205,1206,1207,1208,1209,1210,1211,1212,1213,1214,1215,1216,1217,1218",
			"name": "Numbers having '12' as a substring of their digits.",
			"comment": [
				"Row 12 of A292690 and A293869. A121032 is the subsequence of multiples of 12."
			],
			"link": [
				"Robert Israel, \u003ca href=\"/A293872/b293872.txt\"\u003eTable of n, a(n) for n = 1..10000\u003c/a\u003e",
				"\u003ca href=\"/index/Ar#10-automatic\"\u003eIndex entries for 10-automatic sequences\u003c/a\u003e"
			],
			"maple": [
				"f:= proc(d) local i,x,y;",
				"  sort(convert({seq(seq(seq(x+10^i*12+10^(i+2)*y, y=10^(d-3-i)..10^(d-2-i)-1),x=0..10^i-1),i=0..d-3),",
				"seq(12*10^(d-2)+x,x=0..10^(d-2)-1)},list))",
				"end proc:",
				"seq(op(f(d)),d=2..4); # _Robert Israel_, Nov 20 2017"
			],
			"mathematica": [
				"Select[Range@ 1220, SequenceCount[IntegerDigits[#], {1, 2}] \u003e 0 \u0026] (* _Michael De Vlieger_, Nov 20 2017 *)"
			],
			"program": [
				"(PARI) is_A293872 = has(n, p=12, m=10^#Str(p))=until(p\u003en\\=10, n%m==p\u0026\u0026return(1))"
			],
			"xref": [
				"Cf. A292690, A293869.",
				"Cf. A011540, A011531, A011532, A011533, A011534, A011535, A011536, A011537, A011538, A011539: analog for '0' - '9'.",
				"Cf. A293870, A293871, A293873, A293874, A293875, A293876, A293877, A293878, A293879, A293880: same for '10' - '20'.",
				"Cf. A121041, A121022, A121023, A121024, A121025, A121026, A121027, A121028, A121029, A121030, A121031, A121032, A121033, A121034, A121035, A121036, A121037, A121038, A121039, A121040: subsequences of the above, containing only multiples of the pattern p."
			],
			"keyword": "nonn,base,easy",
			"offset": "1,1",
			"author": "_M. F. Hasler_, Oct 18 2017",
			"references": 13,
			"revision": 15,
			"time": "2020-04-18T01:52:21-04:00",
			"created": "2017-10-18T20:23:52-04:00"
		}
	]
}