{
	"greeting": "Greetings from The On-Line Encyclopedia of Integer Sequences! http://oeis.org/",
	"query": "id:A293816",
	"count": 1,
	"start": 0,
	"results": [
		{
			"number": 293816,
			"data": "2,9,3,7,9,9,8,9,4,6,0,9,6,3,4,7,2,5,5,5,8,4,5,6,9,1,2,3,6,1,2,8,5,4,9,0,3,0,6,9,9,8,8,4,4,8,3,4,7,0,3,3,6,1,2,5,8,4,3,1,2,0,3,0,4,4,7,8,0,6,9,6,6,7,6,1,4,0,8,6,0,4,3,0,5,8,5,7,2,9,7,0,3,4,0,1,4,2,6,8,7,5,0,8,3",
			"name": "Decimal expansion of the volume of one cubic parsec in cubic meters, as defined in 2015.",
			"comment": [
				"Volume of a cube with sides equal to one parsec.",
				"The volume of a cubic parsec is used to describe the stellar density of star clusters.",
				"The volume of cosmic voids is often measured in orders of magnitude of the cubic parsec. For example, the KBC void, a large, roughly spherical region of space with an underdensity of galaxies, containing the Milky Way, has a volume of about 10^8 cubic megaparsecs. - _Felix Fröhlich_, Oct 19 2017"
			],
			"formula": [
				"Equals A292525^3."
			],
			"example": [
				"1 pc^3 = 29379989460963472555845691236128549030699884483470.336... m^3 = 2.9... * 10^49 m^3."
			],
			"program": [
				"(MAGMA) pi:=Pi(RealField(106)); n:=(96939420213600000/pi)^3; Reverse(Intseq(Floor(10^55*n)));",
				"(PARI) (96939420213600000/Pi)^3"
			],
			"xref": [
				"Cf. A292525."
			],
			"keyword": "nonn,cons",
			"offset": "50,1",
			"author": "_Arkadiusz Wesolowski_, Oct 16 2017",
			"references": 0,
			"revision": 8,
			"time": "2017-10-29T14:01:59-04:00",
			"created": "2017-10-29T14:01:59-04:00"
		}
	]
}