{
	"greeting": "Greetings from The On-Line Encyclopedia of Integer Sequences! http://oeis.org/",
	"query": "id:A294901",
	"count": 1,
	"start": 0,
	"results": [
		{
			"number": 294901,
			"data": "0,1,1,2,1,3,1,2,2,3,1,3,1,3,3,2,1,3,1,3,3,3,1,3,2,3,2,3,1,4,1,2,3,3,3,3,1,3,3,3,1,4,1,3,3,3,1,3,2,4,3,3,1,3,3,3,3,3,1,4,1,3,3,2,3,4,1,3,3,4,1,3,1,3,4,3,3,4,1,3,2,3,1,4,3,3,3,3,1,4,3,3,3,3,3,3,1,3,3,4,1,4,1,3,4,3,1,3,1,4,3,3,1,4,3,3,3,3,3,4",
			"name": "Number of proper divisors of n that are in A257691.",
			"link": [
				"Antti Karttunen, \u003ca href=\"/A294901/b294901.txt\"\u003eTable of n, a(n) for n = 1..25000\u003c/a\u003e"
			],
			"formula": [
				"a(n) = Sum_{d|n, d\u003cn} A294905(d).",
				"a(n) = A294903(n) - A294905(n).",
				"a(n) + A294902(n) = A032741(n)."
			],
			"program": [
				"(PARI)",
				"A292257(n) = sumdiv(n,d,(d\u003cn)*hammingweight(d));",
				"A294905(n) = (A292257(n) \u003c= hammingweight(n));",
				"A294901(n) = sumdiv(n,d,(d\u003cn)*A294905(d));"
			],
			"xref": [
				"Cf. A000120, A257691, A292257, A294902, A294903, A294904, A294905.",
				"Cf. also A294891."
			],
			"keyword": "nonn",
			"offset": "1,4",
			"author": "_Antti Karttunen_, Nov 10 2017",
			"references": 7,
			"revision": 9,
			"time": "2017-11-11T12:06:16-05:00",
			"created": "2017-11-11T12:06:16-05:00"
		}
	]
}