{
	"greeting": "Greetings from The On-Line Encyclopedia of Integer Sequences! http://oeis.org/",
	"query": "id:A294372",
	"count": 1,
	"start": 0,
	"results": [
		{
			"number": 294372,
			"data": "1,-8,37,-144,540,-2016,7524,-28080,104796,-391104,1459620,-5447376,20329884,-75872160,283158756,-1056762864,3943892700,-14718807936,54931339044,-205006548240,765094853916,-2855372867424,10656396615780,-39770213595696,148424457767004",
			"name": "Expansion of (1-x)^4/(x^2 + 4*x + 1).",
			"link": [
				"Seiichi Manyama, \u003ca href=\"/A294372/b294372.txt\"\u003eTable of n, a(n) for n = 0..1746\u003c/a\u003e",
				"\u003ca href=\"/index/Rec#order_02\"\u003eIndex entries for linear recurrences with constant coefficients\u003c/a\u003e, signature (-4,-1)."
			],
			"formula": [
				"G.f.: 1/Sum_{k\u003e=0} (k+1)^3*x^k.",
				"From _Colin Barker_, Dec 19 2017: (Start)",
				"a(n) = -6*sqrt(3)*((-2-sqrt(3))^n*(-2+sqrt(3)) + (-2+sqrt(3))^n*(2+sqrt(3))) for n \u003e 2.",
				"a(n) = -4*a(n-1) - a(n-2) for n \u003e 4.",
				"(End)"
			],
			"program": [
				"(PARI) N=66; x='x+O('x^N); Vec((1-x)^4/(x^2+4*x+1))"
			],
			"xref": [
				"Cf. A000578, A296617."
			],
			"keyword": "sign,easy",
			"offset": "0,2",
			"author": "_Seiichi Manyama_, Dec 19 2017",
			"references": 3,
			"revision": 41,
			"time": "2017-12-20T03:29:48-05:00",
			"created": "2017-12-19T09:27:29-05:00"
		}
	]
}