{
	"greeting": "Greetings from The On-Line Encyclopedia of Integer Sequences! http://oeis.org/",
	"query": "id:A294920",
	"count": 1,
	"start": 0,
	"results": [
		{
			"number": 294920,
			"data": "1,2,4,6,17,19,36,60,70,83,92,276,324,330,486,3514,6062,10760,53958,58920,101892",
			"name": "Numbers k such that 41*10^k - 1 is prime.",
			"comment": [
				"For k \u003e 1, numbers such that the digits 40 followed by k occurrences of the digit 9 is prime (see Example section).",
				"a(22) \u003e 2*10^5."
			],
			"link": [
				"Makoto Kamada, \u003ca href=\"https://stdkmd.net/nrr\"\u003eFactorization of near-repdigit-related numbers\u003c/a\u003e.",
				"Makoto Kamada, \u003ca href=\"https://stdkmd.net/nrr/prime/primedifficulty.txt\"\u003eSearch for 409w\u003c/a\u003e."
			],
			"example": [
				"2 is in this sequence because 41*10^2 - 1 = 409 is prime.",
				"Initial terms and primes associated:",
				"a(1) = 1, 409;",
				"a(2) = 2, 4099;",
				"a(3) = 4, 409999;",
				"a(4) = 6, 40999999;",
				"a(5) = 17, 4099999999999999999; etc."
			],
			"mathematica": [
				"Select[Range[0, 100000], PrimeQ[41*10^# - 1] \u0026]"
			],
			"xref": [
				"Cf. A056654, A268448, A269303, A270339, A270613, A270831, A270890, A270929, A271269."
			],
			"keyword": "nonn,more,hard",
			"offset": "1,2",
			"author": "_Robert Price_, Nov 10 2017",
			"ext": [
				"a(21) from _Robert Price_, Jan 31 2020"
			],
			"references": 0,
			"revision": 8,
			"time": "2020-01-31T20:09:19-05:00",
			"created": "2017-11-10T21:14:42-05:00"
		}
	]
}