{
	"greeting": "Greetings from The On-Line Encyclopedia of Integer Sequences! http://oeis.org/",
	"query": "id:A294317",
	"count": 1,
	"start": 0,
	"results": [
		{
			"number": 294317,
			"data": "0,2,1,4,3,2,6,5,4,3,8,7,6,5,4,10,9,8,7,6,5,12,11,10,9,8,7,6,14,13,12,11,10,9,8,7,16,15,14,13,12,11,10,9,8,18,17,16,15,14,13,12,11,10,9,20,19,18,17,16,15,14,13,12,11,10",
			"name": "Triangle read by rows: T(n, k) = 2*n-k, k \u003c= n.",
			"link": [
				"Muniru A Asiru, \u003ca href=\"/A294317/b294317.txt\"\u003eTable of n, a(n) for n = 0..100000\u003c/a\u003e",
				"Thomas H. Sidebotham, \u003ca href=\"https://books.google.com/books?id=VsAZa5PWLz8C\u0026amp;pg=PA181\"\u003eThe A to Z of Mathematics: A Basic Guide\u003c/a\u003e, John Wiley \u0026 Sons, p. 181, (2003) ISBN 9780471461630."
			],
			"formula": [
				"T(n, k) = 2*n - k, 0 \u003c= k \u003c= n."
			],
			"example": [
				"Triangle begins:",
				"   0;",
				"   2,  1;",
				"   4,  3,  2;",
				"   6,  5,  4,  3;",
				"   8,  7,  6,  5,  4;",
				"  10,  9,  8,  7,  6,  5;",
				"  12, 11, 10,  9,  8,  7,  6;",
				"  14, 13, 12, 11, 10,  9,  8,  7;",
				"  16, 15, 14, 13, 12, 11, 10,  9,  8;",
				"  18, 17, 16, 15, 14, 13, 12, 11, 10, 9;",
				"  20, 19, 18, 17, 16, 15, 14, 13, 12, 11, 10;",
				"..."
			],
			"mathematica": [
				"Column[Table[2*n-k, {n, 0, 10}, {k, 0, n}], Center]"
			],
			"program": [
				"(Python)",
				"def f(x):",
				"    a=[]",
				"    for k in range(x):",
				"        for m in range (k+1):",
				"            a.append(2*k-m)",
				"    return a",
				"print(f(10))",
				"(GAP) A294317 := Flat(List([0..149],n-\u003eList([0..n],k-\u003e2*n-k))); # _Muniru A Asiru_, Dec 29 2017"
			],
			"xref": [
				"T(n, 2*m) = A005843(n), n \u003e= m \u003e= 0 (even-indexed columns).",
				"T(n, 2*m+1) = A005408(n), n \u003e= m \u003e= 0 (odd-indexed columns).",
				"T(n, n-m) = A001477(n+m), n \u003e= m \u003e= 0 (diagonals m \u003e= 0).",
				"2*A287326(n, k) = A287326(T(n, k),k) + A287326(T(n, k),0)."
			],
			"keyword": "nonn,tabl,easy",
			"offset": "0,2",
			"author": "_Kolosov Petro_, Oct 28 2017",
			"ext": [
				"Edited by _Wolfdieter Lang_, Dec 08 2017"
			],
			"references": 4,
			"revision": 45,
			"time": "2021-05-06T09:45:19-04:00",
			"created": "2017-12-08T03:44:21-05:00"
		}
	]
}