{
	"greeting": "Greetings from The On-Line Encyclopedia of Integer Sequences! http://oeis.org/",
	"query": "id:A294411",
	"count": 1,
	"start": 0,
	"results": [
		{
			"number": 294411,
			"data": "0,0,1,0,1,2,0,1,4,9,0,1,6,18,64,0,1,8,33,116,625,0,1,10,54,216,1060,7776,0,1,12,81,388,1865,12702,117649,0,1,14,114,656,3340,21228,187810,2097152,0,1,16,153,1044,5905,36414,303765,3296120,43046721,0,1,18,198,1576,10100,63480,500374,5222864,66897288,1000000000",
			"name": "Square array A(n,k), n \u003e= 0, k \u003e= 0, read by antidiagonals, where column k is the expansion of e.g.f. -exp(k*x)*LambertW(-x).",
			"link": [
				"G. C. Greubel, \u003ca href=\"/A294411/b294411.txt\"\u003eTable of n, a(n) for the first 50 antidiagonals, flattened\u003c/a\u003e"
			],
			"formula": [
				"E.g.f. of column k: -exp(k*x)*LambertW(-x)."
			],
			"example": [
				"E.g.f. of column k: A_k(x) = x/1! + 2*(k + 1)*x^2/2! + 3*(k^2 + 2*k + 3)*x^3/3! + 4*(k^3 + 3*k^2 + 9*k + 16)*x^4/4! + ...",
				"Square array begins:",
				"    0,     0,     0,     0,     0,      0, ...",
				"    1,     1,     1,     1,     1,      1, ...",
				"    2,     4,     6,     8,    10,     12, ...",
				"    9,    18,    33,    54,    81,    114, ...",
				"   64,   116,   216,   388,   656,   1044, ...",
				"  625,  1060,  1895,  3340,  5905,  10100, ..."
			],
			"mathematica": [
				"Table[Function[k, n! SeriesCoefficient[-Exp[k x] LambertW[-x], {x, 0, n}]][j - n], {j, 0, 10}, {n, 0, j}] // Flatten"
			],
			"xref": [
				"Columns k=0..2 give A000169, A277473, A277485.",
				"Main diagonal gives A292633.",
				"Cf. A290824."
			],
			"keyword": "nonn,tabl",
			"offset": "0,6",
			"author": "_Ilya Gutkovskiy_, Oct 30 2017",
			"references": 2,
			"revision": 10,
			"time": "2017-11-09T21:18:42-05:00",
			"created": "2017-10-30T18:00:54-04:00"
		}
	]
}