{
	"greeting": "Greetings from The On-Line Encyclopedia of Integer Sequences! http://oeis.org/",
	"query": "id:A294231",
	"count": 1,
	"start": 0,
	"results": [
		{
			"number": 294231,
			"data": "0,1,3,6,7,12,31,33,997,1134,3253,3462,6154,9345,10558,13251,15169,18511,19219,22476,25536,31399,35997,51793,124735",
			"name": "Numbers k such that (56*10^k + 367)/9 is prime.",
			"comment": [
				"For k\u003e1, numbers such that the digit 6 followed by k-2 occurrences of the digit 2 followed by the digits 63 is prime (see Example section).",
				"a(26) \u003e 2*10^5."
			],
			"link": [
				"Makoto Kamada, \u003ca href=\"https://stdkmd.net/nrr\"\u003eFactorization of near-repdigit-related numbers\u003c/a\u003e.",
				"Makoto Kamada, \u003ca href=\"https://stdkmd.net/nrr/prime/primedifficulty.txt\"\u003eSearch for 62w63\u003c/a\u003e."
			],
			"example": [
				"3 is in this sequence because (56*10^3 + 367)/9 = 6263 is prime.",
				"Initial terms and primes associated:",
				"a(1) = 0, 47;",
				"a(2) = 1, 103;",
				"a(3) = 3, 6263;",
				"a(4) = 6, 6222263;",
				"a(5) = 7, 62222263; etc."
			],
			"mathematica": [
				"Select[Range[0, 100000], PrimeQ[(56*10^# + 367)/9] \u0026]"
			],
			"xref": [
				"Cf. A056654, A268448, A269303, A270339, A270613, A270831, A270890, A270929, A271269."
			],
			"keyword": "nonn,more,hard",
			"offset": "1,3",
			"author": "_Robert Price_, Oct 25 2017",
			"ext": [
				"a(25) from _Robert Price_, Jun 06 2019"
			],
			"references": 0,
			"revision": 9,
			"time": "2019-06-06T09:51:19-04:00",
			"created": "2017-10-25T14:38:43-04:00"
		}
	]
}