{
	"greeting": "Greetings from The On-Line Encyclopedia of Integer Sequences! http://oeis.org/",
	"query": "id:A294420",
	"count": 1,
	"start": 0,
	"results": [
		{
			"number": 294420,
			"data": "1,3,14,31,62,113,198,337,564,933,1532,2503,4078,6628,10756,17437,28249,45745,74056,119866,193990,313927,507991,821995,1330066,2152144,3482296,5634529,9116919,14751546,23868566,38620216,62488889,101109215,163598217,264707548",
			"name": "Solution of the complementary equation a(n) = a(n-1) + a(n-2) + 2*b(n-1) + b(n-2), where a(0) = 1, a(1) = 3, b(0) = 2, b(1) = 4.",
			"comment": [
				"The complementary sequences a() and b() are uniquely determined by the titular equation and initial values.  See A294414 for a guide to related sequences.",
				"Conjecture: a(n)/a(n-1) -\u003e (1 + sqrt(5))/2, the golden ratio."
			],
			"link": [
				"Clark Kimberling, \u003ca href=\"https://cs.uwaterloo.ca/journals/JIS/VOL10/Kimberling/kimberling26.html\"\u003eComplementary equations\u003c/a\u003e, J. Int. Seq. 19 (2007), 1-13."
			],
			"example": [
				"a(0) = 1, a(1) = 3, b(0) = 2, b(1) = 4, so that",
				"a(2)  = a(1) + a(0) + 2*b(1) + b(n-2) = 14",
				"Complement: (b(n)) = (2, 4, 5, 6, 7, 8, 9, 10, 11, 12, 13, 15, 17,...)"
			],
			"mathematica": [
				"mex := First[Complement[Range[1, Max[#1] + 1], #1]] \u0026;",
				"a[0] = 1; a[1] = 3; b[0] = 2; b[1] = 4;",
				"a[n_] := a[n] = a[n - 1] + a[n - 2] + 2 b[n - 1] + b[n - 2];",
				"b[n_] := b[n] = mex[Flatten[Table[Join[{a[n]}, {a[i], b[i]}], {i, 0, n - 1}]]];",
				"Table[a[n], {n, 0, 40}]  (* A294420 *)",
				"Table[b[n], {n, 0, 10}]"
			],
			"xref": [
				"Cf. A293076, A293765, A294414."
			],
			"keyword": "nonn,easy",
			"offset": "0,2",
			"author": "_Clark Kimberling_, Oct 31 2017",
			"references": 2,
			"revision": 9,
			"time": "2017-11-01T20:54:32-04:00",
			"created": "2017-10-31T18:10:26-04:00"
		}
	]
}