{
	"greeting": "Greetings from The On-Line Encyclopedia of Integer Sequences! http://oeis.org/",
	"query": "id:A294028",
	"count": 1,
	"start": 0,
	"results": [
		{
			"number": 294028,
			"data": "49,77,121,203,319,413,679,721,749,841,869,1057,1211,1351,1393,1397,1441,1639,1687,1757,1769,1883,2167,2189,2219,2359,2429,2581,2651,2761,2959,3031,3073,3101,3227,3409,3437,3485,3487,3563,3899,4037,4039,4109,4279",
			"name": "Composite numbers k such that  k | 1 - A078712(k).",
			"comment": [
				"A018187 (restricted Perrin pseudoprimes) is the intersection of A013998 (unrestricted Perrin pseudoprimes) with this sequence."
			],
			"link": [
				"William Adams and Daniel Shanks, \u003ca href=\"http://dx.doi.org/10.1090/S0025-5718-1982-0658231-9\"\u003eStrong primality tests that are not sufficient\u003c/a\u003e, Math. Comp. 39 (1982), 255-300."
			],
			"mathematica": [
				"a={}; b=-Drop[CoefficientList[Series[(2x+3)/(x^3-x-1), {x, 0, 10^4}], x] ,1];",
				"Do[If[!PrimeQ[k]\u0026\u0026Divisible[b[[k]]+1,k],AppendTo[a,k]],{k, 2, Length[b]}]; a"
			],
			"xref": [
				"Cf. A001608, A013998, A018187, A078712."
			],
			"keyword": "nonn",
			"offset": "1,1",
			"author": "_Amiram Eldar_, Oct 22 2017",
			"references": 0,
			"revision": 13,
			"time": "2021-09-08T21:17:18-04:00",
			"created": "2017-12-27T01:29:30-05:00"
		}
	]
}