{
	"greeting": "Greetings from The On-Line Encyclopedia of Integer Sequences! http://oeis.org/",
	"query": "id:A294916",
	"count": 1,
	"start": 0,
	"results": [
		{
			"number": 294916,
			"data": "1,2,3,6,7,13,18,33,39,126,154,168,213,4150,4153,5658,6394,21993,29674,38936,47095,94096,135174,139398",
			"name": "Numbers k such that (10^k + 191)/3 is prime.",
			"comment": [
				"For k \u003e 1, numbers such that k-2 occurrences of the digit 3 followed by the digits 97 is prime (see Example section).",
				"a(25) \u003e 2*10^5."
			],
			"link": [
				"Makoto Kamada, \u003ca href=\"https://stdkmd.net/nrr\"\u003eFactorization of near-repdigit-related numbers\u003c/a\u003e.",
				"Makoto Kamada, \u003ca href=\"https://stdkmd.net/nrr/prime/primedifficulty.txt\"\u003eSearch for 3w97\u003c/a\u003e"
			],
			"example": [
				"2 is in this sequence because (10^2 + 191)/3 = 97 is prime.",
				"Initial terms and primes associated:",
				"a(1) = 1, 67;",
				"a(2) = 2, 97;",
				"a(3) = 3, 397;",
				"a(4) = 6, 333397;",
				"a(5) = 7, 3333397; etc."
			],
			"mathematica": [
				"Select[Range[0, 100000], PrimeQ[(10^# + 191)/3] \u0026]"
			],
			"xref": [
				"Cf. A056654, A268448, A269303, A270339, A270613, A270831, A270890, A270929, A271269."
			],
			"keyword": "nonn,more,hard",
			"offset": "1,2",
			"author": "_Robert Price_, Nov 10 2017",
			"ext": [
				"a(23)-a(24) from _Robert Price_, Feb 14 2018"
			],
			"references": 0,
			"revision": 10,
			"time": "2019-01-17T13:44:10-05:00",
			"created": "2017-11-10T16:33:24-05:00"
		}
	]
}