{
	"greeting": "Greetings from The On-Line Encyclopedia of Integer Sequences! http://oeis.org/",
	"query": "id:A295792",
	"count": 1,
	"start": 0,
	"results": [
		{
			"number": 295792,
			"data": "1,2,6,28,152,1008,7936,70208,689664,7618816,92013824,1202362368,17053410304,258928934912,4197838491648,72840915607552,1334630802489344,25799982480556032,527187369241870336,11292834065764450304,253498950169144590336,5965951790211865772032,146341359815078034538496",
			"name": "Expansion of e.g.f. Product_{k\u003e=1} ((1 + x^k)/(1 - x^k))^(1/k).",
			"comment": [
				"Convolution of A028342 and A168243. - _Vaclav Kotesovec_, Sep 07 2018"
			],
			"link": [
				"Vaclav Kotesovec, \u003ca href=\"/A295792/b295792.txt\"\u003eTable of n, a(n) for n = 0..445\u003c/a\u003e"
			],
			"formula": [
				"E.g.f.: exp(2*Sum_{k\u003e=1} A001227(k)*x^k/k).",
				"E.g.f.: exp(Sum_{k\u003e=1} A054844(k)*x^k/k)."
			],
			"maple": [
				"a:=series(mul(((1+x^k)/(1-x^k))^(1/k),k=1..100),x=0,23): seq(n!*coeff(a,x,n),n=0..22); # _Paolo P. Lava_, Mar 27 2019"
			],
			"mathematica": [
				"nmax = 22; CoefficientList[Series[Product[((1 + x^k)/(1 - x^k))^(1/k), {k, 1, nmax}], {x, 0, nmax}], x] Range[0, nmax]!"
			],
			"xref": [
				"Cf. A001227, A028342, A028343, A054844, A156616, A168243, A206303, A294356."
			],
			"keyword": "nonn",
			"offset": "0,2",
			"author": "_Ilya Gutkovskiy_, Nov 27 2017",
			"references": 6,
			"revision": 13,
			"time": "2019-03-27T10:03:08-04:00",
			"created": "2017-11-28T10:23:21-05:00"
		}
	]
}