{
	"greeting": "Greetings from The On-Line Encyclopedia of Integer Sequences! http://oeis.org/",
	"query": "id:A295017",
	"count": 1,
	"start": 0,
	"results": [
		{
			"number": 295017,
			"data": "576,676,1764,2704,3721,4761,5476,5776,6724,7056,7225,7744,15376,17161,17424,20736,23716,27225,27556,30276,32761,35721,37636,47524,50176,51076,54756,57121,57600,67600,70225,70756,72361,73441,75076,75625,76176,101761,106276,126736,137641,141376",
			"name": "Squares whose largest digit is 7.",
			"formula": [
				"a(n) = A295007(n)^2."
			],
			"program": [
				"(PARI) is_A295017(n)=issquare(n)\u0026\u0026n\u0026\u0026vecmax(digits(n))==7 \\\\ The \"n\u0026\u0026\" avoids an error message for n=0."
			],
			"xref": [
				"Cf. A295007 (square roots of the terms),  A277946 .. A277948 (same for digit 2 .. 4), A295015 .. A295019 (same for digit 5 .. 9), A295022 (same for cubes).",
				"Cf. A000290 (the squares)."
			],
			"keyword": "nonn,base",
			"offset": "1,1",
			"author": "_M. F. Hasler_, Nov 12 2017",
			"references": 2,
			"revision": 7,
			"time": "2017-11-13T22:13:56-05:00",
			"created": "2017-11-13T22:13:56-05:00"
		}
	]
}