{
	"greeting": "Greetings from The On-Line Encyclopedia of Integer Sequences! http://oeis.org/",
	"query": "id:A295821",
	"count": 1,
	"start": 0,
	"results": [
		{
			"number": 295821,
			"data": "2,12,16,24,28,36,40,48,52,60,64,72,76,84,88,96,100,108,112,120,124,132,136,144,148,156,160,168,172,180,184,192,196,204,208,216,220,228,232,240,244,252,256,264,268,276,280,288,292,300,304,312,316,324,328",
			"name": "Number of coprime pairs (a,b) with -n \u003c= a \u003c= n, -2 \u003c= b \u003c= 2.",
			"xref": [
				"Column k=2 of A295782.",
				"Cf. A137243."
			],
			"keyword": "nonn",
			"offset": "0,1",
			"author": "_Seiichi Manyama_, Nov 28 2017",
			"references": 1,
			"revision": 9,
			"time": "2017-11-28T10:26:52-05:00",
			"created": "2017-11-28T10:26:52-05:00"
		}
	]
}