{
	"greeting": "Greetings from The On-Line Encyclopedia of Integer Sequences! http://oeis.org/",
	"query": "id:A295825",
	"count": 1,
	"start": 0,
	"results": [
		{
			"number": 295825,
			"data": "1,2,7,10,16,22,32,85,106,310,374,410,421,502,850,938,1213,2362,4597,50578,59509,77572,136141,174790",
			"name": "Numbers k such that (47*10^k + 493)/9 is prime.",
			"comment": [
				"For k \u003e 1, numbers such that the digit 5 followed by k-2 occurrences of the digit 2 followed by the digits 77 is prime (see Example section).",
				"a(25) \u003e 2*10^5."
			],
			"link": [
				"Makoto Kamada, \u003ca href=\"https://stdkmd.net/nrr\"\u003eFactorization of near-repdigit-related numbers\u003c/a\u003e.",
				"Makoto Kamada, \u003ca href=\"https://stdkmd.net/nrr/prime/primedifficulty.txt\"\u003eSearch for 52w77\u003c/a\u003e"
			],
			"example": [
				"2 is in this sequence because (47*10^2 + 493)/9 = 577 is prime.",
				"Initial terms and primes associated:",
				"a(1) = 1, 107;",
				"a(2) = 2, 577;",
				"a(3) = 7, 52222277;",
				"a(4) = 10, 52222222277;",
				"a(5) = 16, 52222222222222277; etc."
			],
			"mathematica": [
				"Select[Range[0, 100000], PrimeQ[(47*10^# + 493)/9] \u0026]"
			],
			"xref": [
				"Cf. A056654, A268448, A269303, A270339, A270613, A270831, A270890, A270929, A271269."
			],
			"keyword": "nonn,more,hard",
			"offset": "1,2",
			"author": "_Robert Price_, Nov 28 2017",
			"ext": [
				"a(23)-a(24) from _Robert Price_, Mar 23 2019"
			],
			"references": 0,
			"revision": 10,
			"time": "2019-03-23T12:37:30-04:00",
			"created": "2017-11-28T11:55:27-05:00"
		}
	]
}