{
	"greeting": "Greetings from The On-Line Encyclopedia of Integer Sequences! http://oeis.org/",
	"query": "id:A295401",
	"count": 1,
	"start": 0,
	"results": [
		{
			"number": 295401,
			"data": "1,2,4,14,19,22,87,141,228,274,441,514,721,2725,2858,4658,19862,20175,25474,1674,1710,30309,34740",
			"name": "Numbers k such that 3*10^k + 97 is prime.",
			"comment": [
				"For k \u003e 1, numbers such that the digit 3 followed by k-2 occurrences of the digit 0 followed by the digits 97 is prime (see Example section).",
				"a(24) \u003e 2*10^5."
			],
			"link": [
				"Makoto Kamada, \u003ca href=\"https://stdkmd.net/nrr\"\u003eFactorization of near-repdigit-related numbers\u003c/a\u003e.",
				"Makoto Kamada, \u003ca href=\"https://stdkmd.net/nrr/prime/primedifficulty.txt\"\u003eSearch for 30w97\u003c/a\u003e"
			],
			"example": [
				"2 is in this sequence because 3*10^2 + 97 = 397 is prime.",
				"Initial terms and primes associated:",
				"a(1) = 1, 127;",
				"a(2) = 2, 397;",
				"a(3) = 4, 30097;",
				"a(4) = 14, 300000000000097;",
				"a(5) = 19, 30000000000000000097; etc."
			],
			"mathematica": [
				"Select[Range[0, 100000], PrimeQ[3*10^# + 97] \u0026]"
			],
			"program": [
				"(PARI) isok(k) = isprime(3*10^k + 97); \\\\ _Michel Marcus_, Nov 22 2017"
			],
			"xref": [
				"Cf. A056654, A268448, A269303, A270339, A270613, A270831, A270890, A270929, A271269."
			],
			"keyword": "nonn,more,hard",
			"offset": "1,2",
			"author": "_Robert Price_, Nov 21 2017",
			"references": 0,
			"revision": 11,
			"time": "2019-01-17T13:44:10-05:00",
			"created": "2017-11-23T23:47:33-05:00"
		}
	]
}