{
	"greeting": "Greetings from The On-Line Encyclopedia of Integer Sequences! http://oeis.org/",
	"query": "id:A295096",
	"count": 1,
	"start": 0,
	"results": [
		{
			"number": 295096,
			"data": "13,276,4151,70982,1182050,19730839,329926211,5515740725,92205260806,1541063984572,25759534940464,430584699866692,7197345587681614,120305799118958433,2010947909346600680,33613611708635276941",
			"name": "Number of nX7 0..1 arrays with each 1 horizontally or vertically adjacent to 1 or 3 1s.",
			"comment": [
				"Column 7 of A295097."
			],
			"link": [
				"R. H. Hardin, \u003ca href=\"/A295096/b295096.txt\"\u003eTable of n, a(n) for n = 1..210\u003c/a\u003e"
			],
			"example": [
				"Some solutions for n=5",
				"..0..0..0..0..0..1..1. .0..0..1..0..0..0..0. .0..0..1..1..0..0..0",
				"..0..0..0..0..0..0..0. .0..1..1..0..0..0..0. .0..0..0..0..0..0..0",
				"..0..0..0..0..0..1..1. .0..0..1..0..0..1..1. .0..0..1..1..0..1..0",
				"..0..1..1..0..1..0..0. .0..0..0..1..1..0..0. .0..0..0..0..0..1..0",
				"..0..0..0..1..1..1..0. .1..1..0..0..0..1..1. .0..0..1..1..0..0..0"
			],
			"xref": [
				"Cf. A295097."
			],
			"keyword": "nonn",
			"offset": "1,1",
			"author": "_R. H. Hardin_, Nov 14 2017",
			"references": 1,
			"revision": 4,
			"time": "2017-11-14T11:17:05-05:00",
			"created": "2017-11-14T11:17:05-05:00"
		}
	]
}