{
	"greeting": "Greetings from The On-Line Encyclopedia of Integer Sequences! http://oeis.org/",
	"query": "id:A295801",
	"count": 1,
	"start": 0,
	"results": [
		{
			"number": 295801,
			"data": "37,40,42,46,48,49,50,52,53,62,65",
			"name": "Numbers that have exactly four representations as a sum of seven positive squares.",
			"comment": [
				"It appears that this sequence is finite and complete. See the von Eitzen link for a proof for the 5 positive squares case."
			],
			"reference": [
				"E. Grosswald, Representations of Integers as Sums of Squares. Springer-Verlag, New York, 1985, p. 86, Theorem 1."
			],
			"link": [
				"H. von Eitzen, in reply to user James47, \u003ca href=\"http://math.stackexchange.com/questions/811824/what-is-the-largest-integer-with-only-one-representation-as-a-sum-of-five-nonzer\"\u003eWhat is the largest integer with only one representation as a sum of five nonzero squares?\u003c/a\u003e on stackexchange.com, May 2014",
				"D. H. Lehmer, \u003ca href=\"http://www.jstor.org/stable/2305380\"\u003eOn the Partition of Numbers into Squares\u003c/a\u003e, The American Mathematical Monthly, Vol. 55, No. 8, October 1948, pp. 476-481."
			],
			"xref": [
				"Cf. A025431, A287166, A295694."
			],
			"keyword": "nonn,more",
			"offset": "1,1",
			"author": "_Robert Price_, Nov 27 2017",
			"references": 0,
			"revision": 11,
			"time": "2017-12-03T00:42:53-05:00",
			"created": "2017-11-28T11:55:04-05:00"
		}
	]
}