{
	"greeting": "Greetings from The On-Line Encyclopedia of Integer Sequences! http://oeis.org/",
	"query": "id:A295123",
	"count": 1,
	"start": 0,
	"results": [
		{
			"number": 295123,
			"data": "1,-1,-7,-14,10,93,242,229,-410,-2446,-5500,-6458,4062,38899,104715,165843,103045,-327200,-1393131,-3075317,-4305200,-2069461,9129361,35219829,75832840,109569915,74818084,-143480059,-686408279,-1607860793,-2614721006,-2674073316",
			"name": "Expansion of Product_{k\u003e=1} 1/(1 + x^k)^(k*(3*k-2)).",
			"comment": [
				"This sequence is obtained from the generalized Euler transform in A266964 by taking f(n) = n*(3*n-2), g(n) = -1."
			],
			"link": [
				"Seiichi Manyama, \u003ca href=\"/A295123/b295123.txt\"\u003eTable of n, a(n) for n = 0..10000\u003c/a\u003e"
			],
			"formula": [
				"Convolution inverse of A294838.",
				"G.f.: Product_{k\u003e=1} 1/(1 + x^k)^A000567(k).",
				"a(0) = 1 and a(n) = (1/n) * Sum_{k=1..n} b(k)*a(n-k) where b(n) = Sum_{d|n} d^2*(3*d-2)*(-1)^(n/d)."
			],
			"program": [
				"(PARI) N=66; x='x+O('x^N); Vec(1/prod(k=1, N, (1+x^k)^(k*(3*k-2))))"
			],
			"xref": [
				"Cf. A294846 (b=3), A284896 (b=4), A295086 (b=5), A295121 (b=6), A295122 (b=7), this sequence (b=8)."
			],
			"keyword": "sign",
			"offset": "0,3",
			"author": "_Seiichi Manyama_, Nov 15 2017",
			"references": 4,
			"revision": 12,
			"time": "2017-11-15T09:56:19-05:00",
			"created": "2017-11-15T08:50:17-05:00"
		}
	]
}