{
	"greeting": "Greetings from The On-Line Encyclopedia of Integer Sequences! http://oeis.org/",
	"query": "id:A295601",
	"count": 1,
	"start": 0,
	"results": [
		{
			"number": 295601,
			"data": "5,20,83,338,1425,6080,26249,114298,501405,2211832,9799095,43554852,194071913,866357594,3872915901,17331341902,77618369051,347815345000,1559266623743,6992481752642,31365036076887,140713926545922",
			"name": "Number of n X 3 0..1 arrays with each 1 horizontally or vertically adjacent to 0, 2, 3 or 4 1s.",
			"comment": [
				"Column 3 of A295606."
			],
			"link": [
				"R. H. Hardin, \u003ca href=\"/A295601/b295601.txt\"\u003eTable of n, a(n) for n = 1..210\u003c/a\u003e",
				"Robert Israel, \u003ca href=\"/A295601/a295601_1.pdf\"\u003eMaple-assisted proof of formula\u003c/a\u003e"
			],
			"formula": [
				"Empirical: a(n) = 7*a(n-1) - 9*a(n-2) - 11*a(n-3) + 14*a(n-4) - 53*a(n-5) + 19*a(n-6) + 42*a(n-7) - 23*a(n-8) + 72*a(n-9) + 36*a(n-10) - 25*a(n-11) - 12*a(n-12).",
				"Formula confirmed by _Robert Israel_, Nov 24 2017 (see link)."
			],
			"example": [
				"Some solutions for n=7:",
				"  0 0 0   0 0 1   0 1 0   0 0 0   0 0 1   1 0 0   0 1 0",
				"  1 1 0   0 1 0   0 0 1   0 0 1   1 0 0   0 0 0   1 0 0",
				"  1 1 1   0 0 1   0 0 0   0 1 0   0 1 0   1 0 0   0 1 0",
				"  1 1 1   0 0 0   0 1 1   0 0 1   1 0 1   0 0 0   1 0 0",
				"  0 0 0   1 1 0   1 1 1   0 0 0   0 1 0   0 1 1   0 0 0",
				"  0 0 1   1 1 0   1 0 1   1 0 0   0 0 0   0 1 1   0 0 1",
				"  0 0 0   0 0 0   1 1 1   0 0 1   1 0 1   0 1 1   1 0 0"
			],
			"xref": [
				"Cf. A295606."
			],
			"keyword": "nonn",
			"offset": "1,1",
			"author": "_R. H. Hardin_, Nov 24 2017",
			"references": 1,
			"revision": 13,
			"time": "2017-11-26T13:59:45-05:00",
			"created": "2017-11-24T07:20:35-05:00"
		}
	]
}