{
	"greeting": "Greetings from The On-Line Encyclopedia of Integer Sequences! http://oeis.org/",
	"query": "id:A295857",
	"count": 1,
	"start": 0,
	"results": [
		{
			"number": 295857,
			"data": "0,0,2,3,9,14,31,49,96,153,281,450,795,1277,2200,3541,5997,9666,16175,26097,43296,69905,115249,186178,305523,493749,807464,1305309,2129157,3442658,5604583,9063625,14733744,23830137,38694953,62590626,101547723,164269421",
			"name": "a(n) = a(n-1) + 3*a(n-2) -2*a(n-3) - 2*a(n-4), where a(0) = 0, a(1) = 0, a(2) = 2, a(3) = 3.",
			"comment": [
				"a(n)/a(n-1) -\u003e (1 + sqrt(5))/2 = golden ratio (A001622), so that a( ) has the growth rate of the Fibonacci numbers (A000045)."
			],
			"link": [
				"Clark Kimberling, \u003ca href=\"/A295857/b295857.txt\"\u003eTable of n, a(n) for n = 0..2000\u003c/a\u003e",
				"\u003ca href=\"/index/Rec#order_04\"\u003eIndex entries for linear recurrences with constant coefficients\u003c/a\u003e, signature (1, 3, -2, -2)"
			],
			"formula": [
				"a(n) = a(n-1) + a(n-3) + a(n-4), where a(0) = 0, a(1) = 0, a(2) = 2, a(3) = 3.",
				"G.f.: (x^2 (2 + x))/((-1 + x + x^2) (-1 + 2 x^2))."
			],
			"mathematica": [
				"LinearRecurrence[{1, 3, -2, -2}, {0, 0, 2, 3}, 100]"
			],
			"xref": [
				"Cf. A001622, A000045."
			],
			"keyword": "nonn,easy",
			"offset": "0,3",
			"author": "_Clark Kimberling_, Dec 01 2017",
			"references": 1,
			"revision": 6,
			"time": "2021-08-27T21:07:20-04:00",
			"created": "2017-12-01T18:50:29-05:00"
		}
	]
}