{
	"greeting": "Greetings from The On-Line Encyclopedia of Integer Sequences! http://oeis.org/",
	"query": "id:A295434",
	"count": 1,
	"start": 0,
	"results": [
		{
			"number": 295434,
			"data": "1,99,22287,5663700,1517599215,418974963099,117912668329092,33631821857441592,9687910353619450095,2811928784155292169225,821085376403131135219287,240930004359452293067067600,70981901511015157572343133700,20983636110818804086505029904100,6221192124050298514903984159997400",
			"name": "a(n) = (12*n)!*(3*n)!/((8*n)!*(6*n)!*n!).",
			"formula": [
				"G.f.: hypergeom([1/12, 1/3, 5/12, 7/12, 2/3, 11/12], [1/8, 3/8, 1/2, 5/8, 7/8], 19683/64*x)."
			],
			"mathematica": [
				"Array[(12 #)!*(3 #)!/((8 #)!*(6 #)!*#!) \u0026, 15, 0] (* _Michael De Vlieger_, Nov 23 2017 *)",
				"CoefficientList[ Series[ HypergeometricPFQ[{1/12, 1/3, 5/12, 7/12, 2/3, 11/12}, {1/8, 3/8, 1/2, 5/8, 7/8}, 19683/64 x], {x, 0, 14}], x] (* _Robert G. Wilson v_, Nov 23 2017 *)"
			],
			"xref": [
				"Cf. A295431."
			],
			"keyword": "nonn",
			"offset": "0,2",
			"author": "_Gheorghe Coserea_, Nov 23 2017",
			"references": 1,
			"revision": 10,
			"time": "2017-11-26T19:31:14-05:00",
			"created": "2017-11-26T19:31:14-05:00"
		}
	]
}