{
	"greeting": "Greetings from The On-Line Encyclopedia of Integer Sequences! http://oeis.org/",
	"query": "id:A296721",
	"count": 1,
	"start": 0,
	"results": [
		{
			"number": 296721,
			"data": "8,57,258,1463,8315,44668,246923,1364492,7488185,41248981,227181202,1250158875,6882921586,37893304923,208596893793,1148368776132,6321957544699,34802982675152,191595381104801,1054758528503751",
			"name": "Number of nX4 0..1 arrays with each 1 adjacent to 0, 2 or 4 king-move neighboring 1s.",
			"comment": [
				"Column 4 of A296725."
			],
			"link": [
				"R. H. Hardin, \u003ca href=\"/A296721/b296721.txt\"\u003eTable of n, a(n) for n = 1..210\u003c/a\u003e"
			],
			"formula": [
				"Empirical: a(n) = 4*a(n-1) +7*a(n-2) +31*a(n-3) -103*a(n-4) -134*a(n-5) -197*a(n-6) +354*a(n-7) +31*a(n-8) -17*a(n-9) -3*a(n-10) +404*a(n-11) +53*a(n-12) -162*a(n-13) +194*a(n-14) +92*a(n-15) -37*a(n-16) -24*a(n-17) -4*a(n-18)"
			],
			"example": [
				"Some solutions for n=5",
				"..0..1..0..0. .1..0..0..0. .1..0..1..1. .0..0..1..0. .0..0..0..0",
				"..0..0..0..1. .0..0..0..1. .0..0..0..1. .0..0..0..0. .0..0..1..0",
				"..0..0..0..0. .1..0..0..0. .0..0..1..1. .1..0..0..0. .1..1..1..0",
				"..0..0..1..1. .1..1..0..0. .1..0..0..0. .0..0..1..1. .1..0..0..0",
				"..1..0..0..1. .0..0..0..0. .0..0..1..0. .1..0..1..0. .0..0..1..0"
			],
			"xref": [
				"Cf. A296725."
			],
			"keyword": "nonn",
			"offset": "1,1",
			"author": "_R. H. Hardin_, Dec 19 2017",
			"references": 1,
			"revision": 4,
			"time": "2017-12-19T13:14:53-05:00",
			"created": "2017-12-19T13:14:53-05:00"
		}
	]
}