{
	"greeting": "Greetings from The On-Line Encyclopedia of Integer Sequences! http://oeis.org/",
	"query": "id:A296442",
	"count": 1,
	"start": 0,
	"results": [
		{
			"number": 296442,
			"data": "3,7,3,1,2,8,1,5,8,5,2,1,2,8,1,9,5,2,1,2,9,6,9,6,1,2,1,1,6,1,1,2,1,6,7,2,1,1,1,1,7,3,3,1,2,8,3,1,2,8,1,8,3,3,2,1,9,3,2,3,1,1,2,4,1,2,4,2,2,1,1,1,3,1,1,1,1,3,5,1,1,5,5,2,1,2,1,3,5,2,3,1,3,6,1,2,1,6,2,7",
			"name": "Initial digit of n-th Mersenne number.",
			"link": [
				"Robert Israel, \u003ca href=\"/A296442/b296442.txt\"\u003eTable of n, a(n) for n = 1..10000\u003c/a\u003e",
				"Zhaodong Cai, Matthew Faust, A.J. Hildebrand, Junxian Li, Yuan Zhang, \u003ca href=\"https://arxiv.org/abs/1712.04425\"\u003eLeading Digits of Mersenne Numbers\u003c/a\u003e, arXiv:1712.04425 [math.NT], 2017."
			],
			"formula": [
				"a(n) = A000030(A001348(n))."
			],
			"example": [
				"The 4th Mersenne number is 127, so a(4) = 1."
			],
			"maple": [
				"initialdig:= n -\u003e floor(n/10^ilog10(n)):",
				"seq(initialdig(2^ithprime(i)-1),i=1..100); # _Robert Israel_, Dec 13 2017"
			],
			"mathematica": [
				"Array[First@ IntegerDigits[2^Prime[#] - 1] \u0026, 105] (* _Michael De Vlieger_, Dec 13 2017 *)"
			],
			"program": [
				"(PARI) a(n) = digits(2^prime(n)-1)[1];"
			],
			"xref": [
				"Cf. A000030, A001348.",
				"A135613, for Mersenne primes, is a subsequence."
			],
			"keyword": "nonn,base",
			"offset": "1,1",
			"author": "_Michel Marcus_, Dec 13 2017",
			"references": 1,
			"revision": 14,
			"time": "2017-12-14T03:44:35-05:00",
			"created": "2017-12-13T04:19:55-05:00"
		}
	]
}