{
	"greeting": "Greetings from The On-Line Encyclopedia of Integer Sequences! http://oeis.org/",
	"query": "id:A296400",
	"count": 1,
	"start": 0,
	"results": [
		{
			"number": 296400,
			"data": "1,8,24,82,316,1182,4560,17508,67310,259398,999368,3851828,14846772,57226834,220589358,850295818,3277615080,12634174925,48700783032,187726368115,723626846696,2789356995974,10752106442068,41446037382414",
			"name": "Number of nX3 0..1 arrays with each 1 horizontally, vertically or antidiagonally adjacent to 2 or 3 neighboring 1s.",
			"comment": [
				"Column 3 of A296405."
			],
			"link": [
				"R. H. Hardin, \u003ca href=\"/A296400/b296400.txt\"\u003eTable of n, a(n) for n = 1..210\u003c/a\u003e"
			],
			"formula": [
				"Empirical: a(n) = 5*a(n-1) -6*a(n-2) +8*a(n-3) -10*a(n-4) +22*a(n-5) -50*a(n-6) +37*a(n-7) -59*a(n-8) -3*a(n-10) -50*a(n-11) +10*a(n-12) -36*a(n-13) -17*a(n-14) -7*a(n-15) -19*a(n-16) -7*a(n-17) -4*a(n-18) -4*a(n-19) -a(n-20)"
			],
			"example": [
				"Some solutions for n=7",
				"..1..1..1. .0..1..1. .1..1..0. .0..1..1. .0..0..0. .0..1..0. .1..1..1",
				"..1..0..1. .0..1..0. .1..0..0. .1..1..0. .0..0..0. .1..1..0. .1..0..1",
				"..1..1..0. .1..0..0. .1..1..1. .0..0..0. .0..0..0. .0..1..1. .0..0..1",
				"..0..0..0. .1..1..0. .0..1..0. .1..1..0. .1..1..1. .0..0..1. .0..1..0",
				"..1..1..1. .0..1..1. .0..0..0. .1..1..1. .1..0..1. .0..1..1. .1..0..1",
				"..1..0..1. .1..0..1. .0..0..0. .0..0..1. .0..1..0. .1..0..1. .1..1..1",
				"..1..1..1. .1..1..1. .0..0..0. .0..1..1. .1..1..0. .1..1..1. .0..0..0"
			],
			"xref": [
				"Cf. A296405."
			],
			"keyword": "nonn",
			"offset": "1,2",
			"author": "_R. H. Hardin_, Dec 11 2017",
			"references": 1,
			"revision": 4,
			"time": "2017-12-11T15:32:05-05:00",
			"created": "2017-12-11T15:32:05-05:00"
		}
	]
}