{
	"greeting": "Greetings from The On-Line Encyclopedia of Integer Sequences! http://oeis.org/",
	"query": "id:A296967",
	"count": 1,
	"start": 0,
	"results": [
		{
			"number": 296967,
			"data": "1,5,31,274,13543,1154298,222799447,143300513381,227497889396792",
			"name": "Number of n X n 0..1 arrays with each 1 adjacent to 2, 4 or 5 king-move neighboring 1's.",
			"comment": [
				"Diagonal of A296974."
			],
			"example": [
				"Some solutions for n=5",
				"..0..0..0..0..0. .0..0..1..1..1. .0..0..1..1..1. .1..1..0..1..1",
				"..0..1..1..1..0. .0..0..1..0..1. .0..1..1..1..0. .0..1..0..1..0",
				"..1..0..0..0..1. .1..0..0..0..0. .1..1..0..0..0. .0..1..1..0..1",
				"..0..1..1..1..0. .1..1..0..1..1. .1..1..0..0..0. .1..0..1..1..0",
				"..1..1..1..1..1. .0..0..0..1..0. .1..0..0..0..0. .0..1..0..1..0"
			],
			"xref": [
				"Cf. A296974."
			],
			"keyword": "nonn",
			"offset": "1,2",
			"author": "_R. H. Hardin_, Dec 22 2017",
			"references": 0,
			"revision": 6,
			"time": "2020-04-26T21:08:54-04:00",
			"created": "2017-12-22T12:50:57-05:00"
		}
	]
}