{
	"greeting": "Greetings from The On-Line Encyclopedia of Integer Sequences! http://oeis.org/",
	"query": "id:A296479",
	"count": 1,
	"start": 0,
	"results": [
		{
			"number": 296479,
			"data": "2,5,7,1,9,7,1,3,6,9,3,0,7,5,7,8,2,4,5,3,4,0,6,7,2,4,8,9,6,7,2,0,8,7,6,5,9,8,7,6,8,8,8,2,5,4,5,3,3,3,9,6,3,8,1,9,6,8,6,9,0,7,4,2,8,4,3,0,5,5,0,2,3,7,4,6,4,3,3,1,8,4,7,3,5,0",
			"name": "Decimal expansion of ratio-sum for A295951; see Comments.",
			"comment": [
				"Suppose that A = (a(n)), for n \u003e= 0, is a sequence, and g is a real number such that a(n)/a(n-1) -\u003e g. The ratio-sum for A is |a(1)/a(0) - g| + |a(2)/a(1) - g| + ..., assuming that this series converges. For A = A295951, we have g = (1 + sqrt(5))/2, the golden ratio (A001622). See the guide at A296469 for related sequences."
			],
			"example": [
				"ratio-sum = 2.571971369307578245340672489672087659876..."
			],
			"mathematica": [
				"a[0] = 2; a[1] = 3; b[0] = 1; b[1 ] = 4; b[2] = 5;",
				"a[n_] := a[n] = a[n - 1] + a[n - 2] + b[n];",
				"j = 1; While[j \u003c 13, k = a[j] - j - 1;",
				"While[k \u003c a[j + 1] - j + 1, b[k] = j + k + 2; k++]; j++];",
				"Table[a[n], {n, 0, k}]; (* A295951 *)",
				"g = GoldenRatio; s = N[Sum[- g + a[n]/a[n - 1], {n, 1, 1000}], 200]",
				"Take[RealDigits[s, 10][[1]], 100]  (* A296479 *)"
			],
			"xref": [
				"Cf. A001622, A295951, A296284, A296480."
			],
			"keyword": "nonn,easy,cons",
			"offset": "1,1",
			"author": "_Clark Kimberling_, Jan 05 2018",
			"references": 3,
			"revision": 7,
			"time": "2021-07-25T20:53:35-04:00",
			"created": "2018-01-05T21:59:00-05:00"
		}
	]
}