{
	"greeting": "Greetings from The On-Line Encyclopedia of Integer Sequences! http://oeis.org/",
	"query": "id:A296074",
	"count": 1,
	"start": 0,
	"results": [
		{
			"number": 296074,
			"data": "0,1,1,2,1,4,1,3,3,6,1,5,1,8,7,4,1,9,1,9,9,12,1,2,5,14,8,13,1,16,1,5,13,18,11,3,1,20,15,8,1,24,1,21,18,24,1,-9,7,27,19,25,1,20,15,14,21,30,1,-1,1,32,24,6,17,40,1,33,25,40,1,-27,1,38,32,37,17,48,1,-1,22,42,1,9,21,44,31,26,1,18,19,45,33,48,23,-36,1,53,36,33",
			"name": "Sum of deficiencies of the proper divisors of n.",
			"link": [
				"Antti Karttunen, \u003ca href=\"/A296074/b296074.txt\"\u003eTable of n, a(n) for n = 1..16384\u003c/a\u003e"
			],
			"formula": [
				"a(n) = Sum_{d|n, d\u003cn} A033879(d).",
				"a(n) = A296075(n) - A033879(n)."
			],
			"example": [
				"For n = 6, whose proper divisors are 1, 2, 3, their deficiencies are 1, 1, 2, thus a(6) = 1+1+2 = 4.",
				"For n = 12, whose proper divisors are 1, 2, 3, 4, 6, their deficiencies are 1, 1, 2, 1, 0, thus a(12) = 1+1+2+1+0 = 5."
			],
			"program": [
				"(PARI)",
				"A033879(n) = ((2*n)-sigma(n));",
				"A296074(n) = sumdiv(n,d,(d\u003cn)*A033879(d));"
			],
			"xref": [
				"Cf. A033879.",
				"Cf. also A294886, A294887, A294888, A294889, A293438 (product of)."
			],
			"keyword": "sign",
			"offset": "1,4",
			"author": "_Antti Karttunen_, Dec 04 2017",
			"references": 6,
			"revision": 7,
			"time": "2017-12-04T18:37:09-05:00",
			"created": "2017-12-04T18:37:09-05:00"
		}
	]
}