{
	"greeting": "Greetings from The On-Line Encyclopedia of Integer Sequences! http://oeis.org/",
	"query": "id:A296596",
	"count": 1,
	"start": 0,
	"results": [
		{
			"number": 296596,
			"data": "12,494,9194,194743,4254377,91004329,1952733110,41935988643,900218672974,19325491197627,414876662231432,8906447290570770,191201120842341933,4104653067345905449,88117551274637580431,1891683137253836217680",
			"name": "Number of nX5 0..1 arrays with each 1 horizontally, vertically or antidiagonally adjacent to 1, 2 or 3 neighboring 1s.",
			"comment": [
				"Column 5 of A296599."
			],
			"link": [
				"R. H. Hardin, \u003ca href=\"/A296596/b296596.txt\"\u003eTable of n, a(n) for n = 1..210\u003c/a\u003e",
				"Robert Israel, \u003ca href=\"/A296596/a296596.txt\"\u003eLinear recurrence of order 110\u003c/a\u003e",
				"Robert Israel, \u003ca href=\"/A296596/a296596.pdf\"\u003eMaple-assisted derivation of recurrence\u003c/a\u003e"
			],
			"formula": [
				"Linear recurrence of order 110: see links. - _Robert Israel_, Oct 16 2019"
			],
			"example": [
				"Some solutions for n=4",
				"..0..0..0..1..1. .0..1..0..1..1. .1..1..0..1..0. .0..0..1..1..0",
				"..0..0..0..0..0. .0..1..1..0..1. .0..0..0..1..1. .1..0..0..1..1",
				"..0..0..0..1..1. .0..0..0..1..1. .1..1..1..0..1. .1..0..1..0..1",
				"..1..1..1..0..0. .0..0..0..0..1. .0..0..0..0..0. .0..1..1..0..0"
			],
			"xref": [
				"Cf. A296599."
			],
			"keyword": "nonn",
			"offset": "1,1",
			"author": "_R. H. Hardin_, Dec 16 2017",
			"references": 1,
			"revision": 8,
			"time": "2019-10-16T15:18:15-04:00",
			"created": "2017-12-16T08:13:05-05:00"
		}
	]
}