{
	"greeting": "Greetings from The On-Line Encyclopedia of Integer Sequences! http://oeis.org/",
	"query": "id:A296269",
	"count": 1,
	"start": 0,
	"results": [
		{
			"number": 296269,
			"data": "2,3,10,37,82,167,312,567,987,1697,2852,4744,7820,12819,20927,34069,55356,89824,145620,235927,382075,618577,1001276,1620528,2622532,4243843,6867215,11111957,17980132,29093112,47074332,76168599,123244155,199414084,322659643",
			"name": "Solution of the complementary equation a(n) = a(n-1) + a(n-2) + b(n-2)*b(n), where a(0) = 2, a(1) = 3, b(0) = 1, b(1) = 4, b(2) = 5, and (a(n)) and (b(n)) are increasing complementary sequences.",
			"comment": [
				"The increasing complementary sequences a() and b() are uniquely determined by the titular equation and initial values. a(n)/a(n-1) -\u003e (1 + sqrt(5))/2 = golden ratio (A001622). See A296245 for a guide to related sequences."
			],
			"link": [
				"Clark Kimberling, \u003ca href=\"/A296269/b296269.txt\"\u003eTable of n, a(n) for n = 0..1000\u003c/a\u003e",
				"Clark Kimberling, \u003ca href=\"https://cs.uwaterloo.ca/journals/JIS/VOL10/Kimberling/kimberling26.html\"\u003eComplementary equations\u003c/a\u003e, J. Int. Seq. 19 (2007), 1-13."
			],
			"example": [
				"a(0) = 2, a(1) = 3, b(0) = 1, b(1) = 4, b(2) = 5;",
				"a(2) = a(0) + a(1) + b(0)*b(2) = 10;",
				"Complement: (b(n)) = (1, 4, 5, 6, 7, 8, 9, 11, 12, 13, 14, 15, ...)"
			],
			"mathematica": [
				"a[0] = 2; a[1] = 3; b[0] = 1; b[1] = 4; b[2] = 5;",
				"a[n_] := a[n] = a[n - 1] + a[n - 2] + b[n - 2] b[n];",
				"j = 1; While[j \u003c 10, k = a[j] - j - 1;",
				"While[k \u003c a[j + 1] - j + 1, b[k] = j + k + 2; k++]; j++];",
				"Table[a[n], {n, 0, k}];  (* A296269 *)",
				"Table[b[n], {n, 0, 20}]  (* complement *)"
			],
			"xref": [
				"Cf. A001622, A296245."
			],
			"keyword": "nonn,easy",
			"offset": "0,1",
			"author": "_Clark Kimberling_, Dec 12 2017",
			"references": 2,
			"revision": 6,
			"time": "2017-12-12T16:37:49-05:00",
			"created": "2017-12-12T16:37:49-05:00"
		}
	]
}