{
	"greeting": "Greetings from The On-Line Encyclopedia of Integer Sequences! http://oeis.org/",
	"query": "id:A296936",
	"count": 1,
	"start": 0,
	"results": [
		{
			"number": 296936,
			"data": "3,13,17,23,29,31,41,47,59,61,67,71,73,101,103,109,149,163,173,179,191,193,197,199,223,233,241,251,277,281,293,311,331,337,349,367,373,379,383,409,419,443,457,461,463,467,487,499,541,557,569,587,593,599,601",
			"name": "Inert rational primes in the field Q(sqrt(11)).",
			"link": [
				"\u003ca href=\"https://oeis.org/wiki/Index_to_OEIS:_Section_Pri#primes_decomp_of\"\u003eIndex to sequences related to decomposition of primes in quadratic fields\u003c/a\u003e"
			],
			"maple": [
				"Load the Maple program HH given in A296920. Then run HH(11, 200); This produces A296935, A296936, A038881, A038882."
			],
			"xref": [
				"Cf. A038882."
			],
			"keyword": "nonn",
			"offset": "1,1",
			"author": "_N. J. A. Sloane_, Dec 26 2017",
			"references": 3,
			"revision": 8,
			"time": "2018-01-03T06:50:58-05:00",
			"created": "2017-12-26T20:24:28-05:00"
		}
	]
}