{
	"greeting": "Greetings from The On-Line Encyclopedia of Integer Sequences! http://oeis.org/",
	"query": "id:A296707",
	"count": 1,
	"start": 0,
	"results": [
		{
			"number": 296707,
			"data": "10,11,12,13,14,15,19,20,21,22,23,28,29,30,31,37,38,39,46,47,55,74,75,76,77,78,79,82,83,84,85,86,87,91,92,93,94,95,100,101,102,103,109,110,111,118,119,127,147,148,149,150,151,155,156,157,158,159,164",
			"name": "Numbers n whose base-8 digits d(m), d(m-1), ..., d(0) have #(rises) \u003e #(falls); see Comments.",
			"comment": [
				"A rise is an index i such that d(i) \u003c d(i+1); a fall is an index i such that d(i) \u003e d(i+1). The sequences A296706-A296707 partition the natural numbers. See the guide at A296712."
			],
			"link": [
				"Clark Kimberling, \u003ca href=\"/A296707/b296707.txt\"\u003eTable of n, a(n) for n = 1..10000\u003c/a\u003e"
			],
			"example": [
				"The base-8 digits of 164 are 2,4,4; here #(rises) = 1 and #(falls) = 0, so that 164 is in the sequence."
			],
			"mathematica": [
				"z = 200; b = 8; d[n_] := Sign[Differences[IntegerDigits[n, b]]];",
				"Select[Range [z], Count[d[#], -1] == Count[d[#], 1] \u0026] (* A296706 *)",
				"Select[Range [z], Count[d[#], -1] \u003c Count[d[#], 1] \u0026]  (* A296707 *)",
				"Select[Range [z], Count[d[#], -1] \u003e Count[d[#], 1] \u0026]  (* A296708 *)"
			],
			"xref": [
				"Cf. A296708, A296709, A296712."
			],
			"keyword": "nonn,easy,base",
			"offset": "1,1",
			"author": "_Clark Kimberling_, Jan 08 2018",
			"references": 4,
			"revision": 4,
			"time": "2018-01-08T09:41:17-05:00",
			"created": "2018-01-08T09:41:17-05:00"
		}
	]
}