{
	"greeting": "Greetings from The On-Line Encyclopedia of Integer Sequences! http://oeis.org/",
	"query": "id:A296737",
	"count": 1,
	"start": 0,
	"results": [
		{
			"number": 296737,
			"data": "21,881,13322,261354,5692727,114153198,2324267560,47816866681,977475485051,19995290562764,409424488722963,8379383231723319,171496319503906722,3510231619208724703,71845872758808645456",
			"name": "Number of nX6 0..1 arrays with each 1 adjacent to 1, 2 or 4 king-move neighboring 1s.",
			"comment": [
				"Column 6 of A296739."
			],
			"link": [
				"R. H. Hardin, \u003ca href=\"/A296737/b296737.txt\"\u003eTable of n, a(n) for n = 1..210\u003c/a\u003e"
			],
			"example": [
				"Some solutions for n=5",
				"..0..1..0..0..1..0. .0..1..0..0..0..0. .0..1..0..0..1..0. .0..0..0..0..0..0",
				"..0..0..1..1..0..1. .0..1..0..0..0..1. .0..1..0..1..0..1. .0..0..1..0..0..1",
				"..0..0..0..0..0..1. .0..0..0..0..1..0. .0..0..1..1..1..0. .0..0..1..0..1..1",
				"..0..0..0..0..0..0. .0..0..1..1..0..0. .0..0..1..0..0..1. .0..0..1..0..0..0",
				"..0..0..0..0..0..0. .0..0..1..0..1..1. .0..0..1..1..0..0. .0..0..0..0..1..1"
			],
			"xref": [
				"Cf. A296739."
			],
			"keyword": "nonn",
			"offset": "1,1",
			"author": "_R. H. Hardin_, Dec 19 2017",
			"references": 1,
			"revision": 4,
			"time": "2017-12-19T13:43:15-05:00",
			"created": "2017-12-19T13:43:15-05:00"
		}
	]
}