{
	"greeting": "Greetings from The On-Line Encyclopedia of Integer Sequences! http://oeis.org/",
	"query": "id:A296782",
	"count": 1,
	"start": 0,
	"results": [
		{
			"number": 296782,
			"data": "0,1,63,6216",
			"name": "Detour index of the n-permutation star graph.",
			"comment": [
				"Agrees with DetourIndex of the n-Bruhat graph up to at least n = 4. - _Eric W. Weisstein_, Jul 29 2018"
			],
			"link": [
				"Eric Weisstein's World of Mathematics, \u003ca href=\"http://mathworld.wolfram.com/BruhatGraph.html\"\u003eBruhat Graph\u003c/a\u003e",
				"Eric Weisstein's World of Mathematics, \u003ca href=\"http://mathworld.wolfram.com/DetourIndex.html\"\u003eDetour Index\u003c/a\u003e",
				"Eric Weisstein's World of Mathematics, \u003ca href=\"http://mathworld.wolfram.com/PermutationStarGraph.html\"\u003ePermutation Star Graph\u003c/a\u003e"
			],
			"keyword": "nonn,more",
			"offset": "1,3",
			"author": "_Eric W. Weisstein_, Dec 20 2017",
			"references": 1,
			"revision": 7,
			"time": "2018-07-29T11:37:08-04:00",
			"created": "2017-12-20T14:40:04-05:00"
		}
	]
}