{
	"greeting": "Greetings from The On-Line Encyclopedia of Integer Sequences! http://oeis.org/",
	"query": "id:A296108",
	"count": 1,
	"start": 0,
	"results": [
		{
			"number": 296108,
			"data": "1,2,6,16,503,29003,1993970,1061506422,1365762093736,2515747231264231",
			"name": "Number of n X n 0..1 arrays with each 1 adjacent to 3 or 4 king-move neighboring 1's.",
			"comment": [
				"Diagonal of A296115."
			],
			"example": [
				"Some solutions for n=6",
				"..1..1..0..0..0..0. .0..1..1..1..1..0. .0..1..0..1..1..0. .0..1..1..1..1..1",
				"..1..1..0..0..1..1. .1..1..0..1..1..0. .1..1..1..0..1..1. .1..1..0..0..1..1",
				"..1..0..0..0..1..1. .0..1..0..0..0..0. .0..1..0..0..1..0. .1..0..0..0..0..0",
				"..0..1..0..0..0..0. .0..1..0..0..0..0. .1..0..0..0..1..0. .0..1..0..0..0..0",
				"..0..1..1..0..0..0. .1..1..1..0..1..1. .1..1..1..1..1..0. .1..1..0..1..1..0",
				"..0..1..1..0..0..0. .0..1..0..0..1..1. .0..1..0..1..0..0. .1..1..0..1..1..0"
			],
			"xref": [
				"Cf. A296115."
			],
			"keyword": "nonn",
			"offset": "1,2",
			"author": "_R. H. Hardin_, Dec 04 2017",
			"references": 0,
			"revision": 6,
			"time": "2020-04-26T20:57:25-04:00",
			"created": "2017-12-04T20:29:44-05:00"
		}
	]
}