{
	"greeting": "Greetings from The On-Line Encyclopedia of Integer Sequences! http://oeis.org/",
	"query": "id:A296185",
	"count": 1,
	"start": 0,
	"results": [
		{
			"number": 296185,
			"data": "112,240,368,496,624,752,880,1008,1136,1264,1392,1520,1648,1776,1904,2032,2160,2288,2416,2544,2672,2800,2928,3056,3184,3312,3440,3568,3696,3824,3952,4080,4208,4336,4464,4592,4720,4848,4976,5104,5232,5360,5488,5616",
			"name": "Numbers that are not the sum of 3 squares and an 8th power.",
			"comment": [
				"When k is in this sequence, 9k and k^9 are also in this sequence.",
				"For nonnegative integers a, b, k, n, x, y, z and w, n = x^2 + y^2 + z^2 + w^8 if and only if n is not of the form 4^(4k + 2) * (8b + 7).",
				"1. If n is not of the form 4^a * (8b + 7), then it follows from Legendre's three-square theorem that the equation x^2 + y^2 + z^2 + w^8 = n has a solution with w = 0.",
				"2. n = 4^a * (8b + 7), then (c, d, i, j and m are nonnegative integers):",
				"(1) a = 4k, n - (2^k)^8 = 4^(4k) * (8b + 6), the equation has a solution with w = 2^k.",
				"(2) a = 4k + 1, n - (2^k)^8 = 4^(4k) * (32b + 27) is the form 4^c * (8d + 3), the equation has a solution with w = 2^k.",
				"(3) a = 4k + 3, n - [(2^(k + 1)]^8 = 4^a * (8b + 3), the equation has a solution with w = 2^(k + 1).",
				"(4) If a = 4k + 2 and m = (2i + 1)^8, then n == 0 (mod 8), m == 1 (mod 8), n - m is number of the form 8c + 7. i.e. the equation has not a solution with w is an odd.",
				"If a = 4k + 2 and m = (4j + 2)^8, then n - m = 16 * [4^(4k) * (8b + 7) - 16 * (2j + 1)^8] = 4^4 * [4^(4k - 4) * (8b + 7) - (2j + 1)^8]. When k = 0, n - m is number of the form 16 * (8c + 7), when k \u003e 0, n - m is number of the form 4^4 * (8d + 7). Therefore, the equation has not a solution with w = 4j + 2. Similarly, it can be proved that w = 4j is not the solution of the equation."
			],
			"link": [
				"Wikipedia, \u003ca href=\"https://en.wikipedia.org/wiki/Legendre%27s_three-square_theorem\"\u003eLegendre's three-square theorem\u003c/a\u003e"
			],
			"mathematica": [
				"t1={};",
				"Do[Do[If[x^2+y^2+z^2+w^8==n, AppendTo[t1,n]\u0026\u0026Break[]], {x,0,n^(1/2)}, {y,x,(n-x^2)^(1/2)}, {z,y,(n-x^2-y^2)^(1/2)}, {w,0,(n-x^2-y^2-z^2)^(1/8)}], {n,0,5700}];",
				"t2={};",
				"Do[If[FreeQ[t1,k]==True, AppendTo[t2,k]], {k,0,5700}];",
				"t2"
			],
			"xref": [
				"Cf. A004215, A022552, A022557, A022561, A022566, A111151."
			],
			"keyword": "nonn",
			"offset": "1,1",
			"author": "_XU Pingya_, Jan 13 2018",
			"references": 1,
			"revision": 33,
			"time": "2018-01-14T14:59:10-05:00",
			"created": "2018-01-14T14:59:10-05:00"
		}
	]
}