{
	"greeting": "Greetings from The On-Line Encyclopedia of Integer Sequences! http://oeis.org/",
	"query": "id:A297167",
	"count": 1,
	"start": 0,
	"results": [
		{
			"number": 297167,
			"data": "0,0,1,1,2,1,3,2,2,2,4,2,5,3,2,3,6,2,7,3,3,4,8,3,3,5,3,4,9,2,10,4,4,6,3,3,11,7,5,4,12,3,13,5,3,8,14,4,4,3,6,6,15,3,4,5,7,9,16,3,17,10,4,5,5,4,18,7,8,3,19,4,20,11,3,8,4,5,21,5,4,12,22,4,6,13,9,6,23,3,5,9,10,14,7,5,24,4,5,4,25,6,26,7,3",
			"name": "a(1) = 0, for n \u003e 1, a(n) = -1 + the excess of n (A046660) + the index of the largest prime factor (A061395).",
			"link": [
				"Antti Karttunen, \u003ca href=\"/A297167/b297167.txt\"\u003eTable of n, a(n) for n = 1..10000\u003c/a\u003e",
				"\u003ca href=\"/index/Pri#prime_indices\"\u003eIndex entries for sequences computed from indices in prime factorization\u003c/a\u003e"
			],
			"formula": [
				"a(n) = A252464(n) - A001221(n).",
				"For n \u003e 1, a(n) = A033265(A156552(n)) = A297113(n) - 1.",
				"For n \u003e 1, a(n) = A046660(n) + A061395(n) - 1. - _Antti Karttunen_, Mar 13 2018"
			],
			"mathematica": [
				"Array[-1 + PrimeOmega@ # - PrimeNu@ # + PrimePi[FactorInteger[#][[-1, 1]]] /. k_ /; k \u003c 0 -\u003e 0 \u0026, 105] (* or, slightly faster *)",
				"Array[-1 + Length@ # - Length@ Union@ # + PrimePi@ Last@ # /. k_ /; k \u003c 0 -\u003e 0 \u0026@ Flatten@ Map[ConstantArray[#1, #2] \u0026 @@ # \u0026, #] \u0026@ FactorInteger[#] \u0026, 105] (* _Michael De Vlieger_, Mar 13 2018 *)"
			],
			"program": [
				"(PARI)",
				"A061395(n) = if(1==n, 0, primepi(vecmax(factor(n)[, 1]))); \\\\ After _M. F. Hasler_'s code for A006530.",
				"A252464(n) = if(1==n, 0, (bigomega(n) + A061395(n) - 1));",
				"A297167(n) = (A252464(n) - omega(n));",
				"\\\\ Or just as:",
				"A297167(n) = if(1==n, 0, (A061395(n) + (bigomega(n)-omega(n)) - 1));",
				"\\\\ _Antti Karttunen_, Mar 13 2018",
				"(Scheme) (define (A297167 n) (- (A252464 n) (A001221 n)))"
			],
			"xref": [
				"Cf. A001221, A033265, A046660, A061395, A156552, A252464, A297113, A297168, A300827."
			],
			"keyword": "nonn",
			"offset": "1,5",
			"author": "_Antti Karttunen_, Feb 27 2018",
			"ext": [
				"Name changed, original equivalent definition is the first entry in the Formula section - _Antti Karttunen_, Mar 13 2018"
			],
			"references": 25,
			"revision": 20,
			"time": "2018-03-24T18:53:13-04:00",
			"created": "2018-02-28T08:33:01-05:00"
		}
	]
}