{
	"greeting": "Greetings from The On-Line Encyclopedia of Integer Sequences! http://oeis.org/",
	"query": "id:A297972",
	"count": 1,
	"start": 0,
	"results": [
		{
			"number": 297972,
			"data": "0,1,3,6,17,41,104,261,655,1646,4133,10381,26072,65481,164459,413046,1037385,2605441,6543688,16434781,41276727,103668446,260368189,653926981,1642368440,4124885761,10359845043,26019239206,65348545857,164125953561",
			"name": "Number of n X 2 0..1 arrays with every element equal to 2, 3, 4 or 5 king-move adjacent elements, with upper left element zero.",
			"comment": [
				"Column 2 of A297978."
			],
			"link": [
				"R. H. Hardin, \u003ca href=\"/A297972/b297972.txt\"\u003eTable of n, a(n) for n = 1..210\u003c/a\u003e"
			],
			"formula": [
				"Empirical: a(n) = a(n-1) + 3*a(n-2) + 2*a(n-3).",
				"Empirical g.f.: x^2*(1 + 2*x) / (1 - x - 3*x^2 - 2*x^3). - _Colin Barker_, Feb 19 2018"
			],
			"example": [
				"Some solutions for n=7:",
				"..0..0. .0..0. .0..0. .0..0. .0..0. .0..0. .0..0. .0..0. .0..0. .0..0",
				"..0..0. .0..0. .0..0. .1..0. .0..1. .0..0. .0..0. .0..0. .0..0. .0..0",
				"..1..1. .0..0. .0..0. .1..1. .1..1. .1..1. .1..0. .0..0. .0..0. .1..1",
				"..1..0. .0..0. .0..1. .0..0. .1..0. .1..1. .1..1. .1..0. .0..1. .1..1",
				"..0..0. .1..0. .1..1. .0..0. .0..0. .1..1. .1..1. .1..1. .1..1. .1..0",
				"..1..1. .1..1. .0..0. .1..0. .1..0. .1..1. .1..0. .0..0. .1..0. .0..0",
				"..1..1. .1..1. .0..0. .1..1. .1..1. .1..1. .0..0. .0..0. .0..0. .0..0"
			],
			"xref": [
				"Cf. A297978."
			],
			"keyword": "nonn",
			"offset": "1,3",
			"author": "_R. H. Hardin_, Jan 10 2018",
			"references": 8,
			"revision": 7,
			"time": "2018-02-19T14:15:58-05:00",
			"created": "2018-01-10T06:51:22-05:00"
		}
	]
}