{
	"greeting": "Greetings from The On-Line Encyclopedia of Integer Sequences! http://oeis.org/",
	"query": "id:A297695",
	"count": 1,
	"start": 0,
	"results": [
		{
			"number": 297695,
			"data": "4,8,26,60,176,436,1216,3120,8488,22160,59552,156816,418880,1107712,2950048,7817664,20789248,55148864,146548736,388957440,1033216640,2742970624,7285063168,19342708992,51367846912,136396150784,362207435264",
			"name": "Number of 2Xn 0..1 arrays with every 1 horizontally, diagonally or antidiagonally adjacent to 0, 2 or 4 neighboring 1s.",
			"comment": [
				"Row 2 of A297694."
			],
			"link": [
				"R. H. Hardin, \u003ca href=\"/A297695/b297695.txt\"\u003eTable of n, a(n) for n = 1..210\u003c/a\u003e"
			],
			"formula": [
				"Empirical: a(n) = 2*a(n-1) +4*a(n-2) -6*a(n-3)"
			],
			"example": [
				"Some solutions for n=7",
				"..1..0..0..0..0..1..0. .1..0..1..0..0..0..0. .1..0..0..1..0..1..1",
				"..1..0..1..0..0..1..0. .1..0..0..0..1..0..0. .1..0..1..1..1..1..0"
			],
			"xref": [
				"Cf. A297694."
			],
			"keyword": "nonn",
			"offset": "1,1",
			"author": "_R. H. Hardin_, Jan 03 2018",
			"references": 1,
			"revision": 4,
			"time": "2018-01-03T12:29:02-05:00",
			"created": "2018-01-03T12:29:02-05:00"
		}
	]
}