{
	"greeting": "Greetings from The On-Line Encyclopedia of Integer Sequences! http://oeis.org/",
	"query": "id:A297879",
	"count": 1,
	"start": 0,
	"results": [
		{
			"number": 297879,
			"data": "7,5,2,13,7,5,2,13,2,3,11,19,17,13,23,11,13,17,19,31,19,23,19,23,31,37,31,29,19,23,31,29,31,17,23,5,7,2,19,43,37,47,41,61,59,47,41,43,37,41,61,53,79,73,59,53,73,71,67,83,79,73,67,83,79,73,109,2",
			"name": "a(n) = A297706(n) XOR A297706(n+1) XOR A297706(n+2) (where XOR denotes the bitwise XOR operator).",
			"comment": [
				"All terms are prime."
			],
			"link": [
				"Rémy Sigrist, \u003ca href=\"/A297879/b297879.txt\"\u003eTable of n, a(n) for n = 1..10000\u003c/a\u003e",
				"Rémy Sigrist, \u003ca href=\"/A297879/a297879.png\"\u003eScatterplot of the first 25000 terms\u003c/a\u003e (with terms such that a(n) = 2 highlighted)"
			],
			"example": [
				"a(7) = A297706(7) XOR A297706(8) XOR A297706(9) = 9 XOR 7 XOR 12 = 2."
			],
			"xref": [
				"Cf. A297706."
			],
			"keyword": "nonn,base",
			"offset": "1,1",
			"author": "_Rémy Sigrist_, Jan 07 2018",
			"references": 2,
			"revision": 9,
			"time": "2018-01-07T23:49:24-05:00",
			"created": "2018-01-07T12:39:59-05:00"
		}
	]
}