{
	"greeting": "Greetings from The On-Line Encyclopedia of Integer Sequences! http://oeis.org/",
	"query": "id:A297160",
	"count": 1,
	"start": 0,
	"results": [
		{
			"number": 297160,
			"data": "0,4,16,48,96,144,240,480,720,960,1440,2880,3360,5040,6720,10080,20160,30240,40320,60480,80640,100800,110880,181440,201600,221760,332640,443520,665280,887040,1108800,1330560,1995840,2217600,2661120,2882880,4324320,5765760,8648640,11531520,14414400,17297280,25945920",
			"name": "Positions of records in A220400.",
			"comment": [
				"Except 0, this sequence is a subsequence of A055932."
			],
			"xref": [
				"Cf. A055932, A220400."
			],
			"keyword": "nonn",
			"offset": "1,2",
			"author": "_Antti Karttunen_ \u0026 _David A. Corneth_, Dec 27 2017",
			"references": 2,
			"revision": 6,
			"time": "2017-12-28T19:34:32-05:00",
			"created": "2017-12-28T19:34:32-05:00"
		}
	]
}