{
	"greeting": "Greetings from The On-Line Encyclopedia of Integer Sequences! http://oeis.org/",
	"query": "id:A297415",
	"count": 1,
	"start": 0,
	"results": [
		{
			"number": 297415,
			"data": "25,36,52,92,124,306,361,630,656,1648,1780,2508,3300,3540,5728,6260,6450,7500,10820,12656,14076,14132,18836,20960,23456,24272,35280,43136",
			"name": "Numbers k such that A019320(k) is in A217465.",
			"program": [
				"(PARI) is_A297415(n) = my(m=polcyclo(n, 2)); (m\u003e1) \u0026\u0026 Mod(2, m*(m+1))^m==2 \u0026\u0026 !ispseudoprime(m);"
			],
			"xref": [
				"Cf. A019320, A217465, A297412.",
				"Set difference of A297414 and ({1} U A072226)."
			],
			"keyword": "nonn,more",
			"offset": "1,1",
			"author": "_Max Alekseyev_, Dec 29 2017",
			"references": 2,
			"revision": 12,
			"time": "2021-07-17T23:36:07-04:00",
			"created": "2017-12-30T09:38:22-05:00"
		}
	]
}