{
	"greeting": "Greetings from The On-Line Encyclopedia of Integer Sequences! http://oeis.org/",
	"query": "id:A297581",
	"count": 1,
	"start": 0,
	"results": [
		{
			"number": 297581,
			"data": "13,183,2085,20771,284289,3355439,38609160,476513137,5731862594,67900170433,820250735104,9868451991387,117996838335341,1418191530812586,17043255221943522,204368024253087875,2453682222488823920",
			"name": "Number of nX7 0..1 arrays with every 1 horizontally, diagonally or antidiagonally adjacent to 1 or 4 neighboring 1s.",
			"comment": [
				"Column 7 of A297582."
			],
			"link": [
				"R. H. Hardin, \u003ca href=\"/A297581/b297581.txt\"\u003eTable of n, a(n) for n = 1..210\u003c/a\u003e"
			],
			"example": [
				"Some solutions for n=4",
				"..0..1..1..0..1..1..1. .1..0..0..0..1..0..1. .0..0..0..0..0..0..0",
				"..0..0..0..0..1..0..1. .0..1..0..0..1..1..0. .0..0..0..1..1..0..0",
				"..0..0..1..0..0..0..1. .0..0..0..0..0..0..1. .0..1..0..0..0..0..0",
				"..0..1..0..0..0..1..0. .0..0..0..1..1..0..0. .1..0..0..0..1..1..0"
			],
			"xref": [
				"Cf. A297582."
			],
			"keyword": "nonn",
			"offset": "1,1",
			"author": "_R. H. Hardin_, Jan 01 2018",
			"references": 1,
			"revision": 4,
			"time": "2018-01-01T11:11:24-05:00",
			"created": "2018-01-01T11:11:24-05:00"
		}
	]
}