{
	"greeting": "Greetings from The On-Line Encyclopedia of Integer Sequences! http://oeis.org/",
	"query": "id:A297331",
	"count": 1,
	"start": 0,
	"results": [
		{
			"number": 297331,
			"data": "1,1,0,1,0,0,1,4,2,0,1,12,4,0,0,1,24,6,0,0,0,1,40,24,24,4,0,0,1,60,90,96,12,8,0,0,1,84,252,240,24,24,0,0,0,1,112,574,544,200,144,8,0,2,0,1,144,1136,1288,1020,560,96,48,4,0,0,1,180,2034,3136,3444,1560,400,192,6,4,0,0",
			"name": "Square array A(n,k), n \u003e= 0, k \u003e= 0, read by antidiagonals, where column k is the expansion of (theta_3(q^(1/2))^k + theta_4(q^(1/2))^k)/2.",
			"link": [
				"J. H. Conway and N. J. A. Sloane, \u003ca href=\"http://dx.doi.org/10.1007/978-1-4757-2016-7\"\u003eSphere Packings, Lattices and Groups\u003c/a\u003e, Springer-Verlag, p. 118."
			],
			"formula": [
				"G.f. of column k: (theta_3(q^(1/2))^k + theta_4(q^(1/2))^k)/2, where theta_() is the Jacobi theta function."
			],
			"example": [
				"Square array begins:",
				"1,  1,  1,   1,    1,    1,  ...",
				"0,  0,  4,  12,   24,   40,  ...",
				"0,  2,  4,   6,   24,   90,  ...",
				"0,  0,  0,  24,   96,  240,  ...",
				"0,  0,  4,  12,   24,  200,  ...",
				"0,  0,  8,  24,  144,  560,  ..."
			],
			"mathematica": [
				"Table[Function[k, SeriesCoefficient[(EllipticTheta[3, 0, q^(1/2)]^k + EllipticTheta[4, 0, q^(1/2)]^k)/2, {q, 0, n}]][j - n], {j, 0, 11}, {n, 0, j}] // Flatten"
			],
			"xref": [
				"Columns k=0..32 give A000007, A089798 (absolute values), A004018, A004015, A004011, A005930, A008428, A008429, A008430, A008431, A008432, A022042, A022043, A022044, A022045, A022046, A022047, A022048, A022049, A022050, A022051, A022052, A022053, A022054, A022055, A022056, A022057, A022058, A022059, A022060, A022061, A022062, A022063.",
				"Main diagonal gives A303333.",
				"Cf. A122141, A286815."
			],
			"keyword": "nonn,tabl",
			"offset": "0,8",
			"author": "_Ilya Gutkovskiy_, Dec 28 2017",
			"references": 1,
			"revision": 10,
			"time": "2018-04-22T05:10:39-04:00",
			"created": "2017-12-28T18:32:48-05:00"
		}
	]
}