{
	"greeting": "Greetings from The On-Line Encyclopedia of Integer Sequences! http://oeis.org/",
	"query": "id:A297387",
	"count": 1,
	"start": 0,
	"results": [
		{
			"number": 297387,
			"data": "1,16,4032,15240192,851527696384,698020036891115520,8357968487643562314301440,1457789983634180266210347100143616,3696916888496244614672984462362519120379904",
			"name": "Number of Eulerian cycles in the n-triangular grid graph.",
			"link": [
				"Eric Weisstein's World of Mathematics, \u003ca href=\"http://mathworld.wolfram.com/EulerianCycle.html\"\u003eEulerian Cycle\u003c/a\u003e",
				"Eric Weisstein's World of Mathematics, \u003ca href=\"http://mathworld.wolfram.com/TriangularGridGraph.html\"\u003eTriangular Grid Graph\u003c/a\u003e"
			],
			"keyword": "nonn,more",
			"offset": "1,2",
			"author": "_Eric W. Weisstein_, Dec 29 2017",
			"ext": [
				"a(5)-a(9) from _Andrew Howroyd_, Jan 11 2018"
			],
			"references": 1,
			"revision": 10,
			"time": "2018-01-11T23:43:01-05:00",
			"created": "2017-12-30T10:15:08-05:00"
		}
	]
}