{
	"greeting": "Greetings from The On-Line Encyclopedia of Integer Sequences! http://oeis.org/",
	"query": "id:A297258",
	"count": 1,
	"start": 0,
	"results": [
		{
			"number": 297258,
			"data": "6,12,13,18,19,20,24,25,26,27,30,31,32,33,34,36,42,48,54,60,66,72,73,78,79,84,85,90,91,96,97,102,103,108,109,110,114,115,116,120,121,122,126,127,128,132,133,134,138,139,140,144,145,146,147,150,151,152",
			"name": "Numbers whose base-6 digits have greater down-variation than up-variation; see Comments.",
			"comment": [
				"Suppose that n has base-b digits b(m), b(m-1), ..., b(0).  The base-b down-variation of n is the sum DV(n,b) of all d(i)-d(i-1) for which d(i) \u003e d(i-1); the base-b up-variation of n is the sum UV(n,b) of all d(k-1)-d(k) for which d(k) \u003c d(k-1).  The total base-b variation of n is the sum TV(n,b) = DV(n,b) + UV(n,b).  See the guide at A297330."
			],
			"link": [
				"Clark Kimberling, \u003ca href=\"/A297258/b297258.txt\"\u003eTable of n, a(n) for n = 1..10000\u003c/a\u003e"
			],
			"example": [
				"152 in base-6:  4,1,2, having DV = 3, UV = 1, so that 152 is in the sequence."
			],
			"mathematica": [
				"g[n_, b_] := Map[Total, GatherBy[Differences[IntegerDigits[n, b]], Sign]];",
				"x[n_, b_] := Select[g[n, b], # \u003c 0 \u0026]; y[n_, b_] := Select[g[n, b], # \u003e 0 \u0026];",
				"b = 6; z = 2000; p = Table[x[n, b], {n, 1, z}]; q = Table[y[n, b], {n, 1, z}];",
				"w = Sign[Flatten[p /. {} -\u003e {0}] + Flatten[q /. {} -\u003e {0}]];",
				"Take[Flatten[Position[w, -1]], 120]   (* A297258 *)",
				"Take[Flatten[Position[w, 0]], 120]    (* A297259 *)",
				"Take[Flatten[Position[w, 1]], 120]    (* A297260 *)"
			],
			"xref": [
				"Cf. A297330, A297259, A297260."
			],
			"keyword": "nonn,base,easy",
			"offset": "1,1",
			"author": "_Clark Kimberling_, Jan 15 2018",
			"references": 4,
			"revision": 4,
			"time": "2018-01-15T21:08:21-05:00",
			"created": "2018-01-15T21:08:21-05:00"
		}
	]
}