{
	"greeting": "Greetings from The On-Line Encyclopedia of Integer Sequences! http://oeis.org/",
	"query": "id:A297471",
	"count": 1,
	"start": 0,
	"results": [
		{
			"number": 297471,
			"data": "1,1,10,900,647520,4779786496,478835488935936,751143210488064000000,21219054324352295044090429440,12058466910590476741745310502905446400,152894149853918130236030979823862137011289718784,47493814580095591414083394894826323264052517057498653392896",
			"name": "Number of maximal matchings in the n X n bishop graph.",
			"link": [
				"Eric Weisstein's World of Mathematics, \u003ca href=\"http://mathworld.wolfram.com/BishopGraph.html\"\u003eBishop Graph\u003c/a\u003e",
				"Eric Weisstein's World of Mathematics, \u003ca href=\"http://mathworld.wolfram.com/Matching.html\"\u003eMatching\u003c/a\u003e",
				"Eric Weisstein's World of Mathematics, \u003ca href=\"http://mathworld.wolfram.com/MaximalIndependentEdgeSet.html\"\u003eMaximal Independent Edge Set\u003c/a\u003e"
			],
			"formula": [
				"a(n) = A297472(n) * A297490(n). - _Andrew Howroyd_, Dec 30 2017"
			],
			"xref": [
				"Cf. A287248, A297472, A297490."
			],
			"keyword": "nonn",
			"offset": "1,3",
			"author": "_Eric W. Weisstein_, Dec 30 2017",
			"ext": [
				"a(6)-a(12) from _Andrew Howroyd_, Dec 30 2017"
			],
			"references": 3,
			"revision": 10,
			"time": "2018-01-04T07:41:13-05:00",
			"created": "2017-12-30T17:28:14-05:00"
		}
	]
}