{
	"greeting": "Greetings from The On-Line Encyclopedia of Integer Sequences! http://oeis.org/",
	"query": "id:A297502",
	"count": 1,
	"start": 0,
	"results": [
		{
			"number": 297502,
			"data": "7,68,314,2281,14201,88808,573119,3613793,22999331,146183595,928047561,5898371728,37468267405,238038322708,1512327060362,9607753234896,61039432234655,387788945511548,2463656446529920,15651856594703719",
			"name": "Number of nX4 0..1 arrays with every 1 horizontally, diagonally or antidiagonally adjacent to 1 or 2 neighboring 1s.",
			"comment": [
				"Column 4 of A297506."
			],
			"link": [
				"R. H. Hardin, \u003ca href=\"/A297502/b297502.txt\"\u003eTable of n, a(n) for n = 1..210\u003c/a\u003e"
			],
			"formula": [
				"Empirical: a(n) = 2*a(n-1) +19*a(n-2) +58*a(n-3) -7*a(n-4) -41*a(n-5) -196*a(n-6) -202*a(n-7) -78*a(n-8) +196*a(n-9) +176*a(n-10) +122*a(n-11) +19*a(n-12) +37*a(n-13) +22*a(n-14) +21*a(n-15) +10*a(n-16) -a(n-17) -a(n-18)"
			],
			"example": [
				"Some solutions for n=6",
				"..1..1..1..0. .1..1..1..0. .0..1..0..0. .0..1..1..0. .0..1..0..0",
				"..0..1..0..0. .0..0..0..1. .1..1..0..0. .0..0..0..0. .1..0..0..1",
				"..0..1..0..1. .1..1..0..0. .1..0..0..1. .0..1..0..0. .0..0..1..0",
				"..1..0..1..0. .0..0..1..0. .0..0..1..0. .0..1..1..0. .0..0..0..1",
				"..0..0..0..0. .0..0..1..0. .1..0..0..0. .0..0..1..0. .0..1..1..0",
				"..1..1..0..0. .1..1..0..0. .1..1..0..0. .1..1..0..0. .0..0..1..0"
			],
			"xref": [
				"Cf. A297506."
			],
			"keyword": "nonn",
			"offset": "1,1",
			"author": "_R. H. Hardin_, Dec 31 2017",
			"references": 1,
			"revision": 4,
			"time": "2017-12-31T07:25:28-05:00",
			"created": "2017-12-31T07:25:28-05:00"
		}
	]
}