{
	"greeting": "Greetings from The On-Line Encyclopedia of Integer Sequences! http://oeis.org/",
	"query": "id:A297380",
	"count": 1,
	"start": 0,
	"results": [
		{
			"number": 297380,
			"data": "128,16384,899565,67012245,5201484239,383128155296,28559447121714,2136915074062801,159485442516170020,11906501694015288457,889085359991168514569,66384075576730768153403,4956603963267788832571902",
			"name": "Number of 7Xn 0..1 arrays with every 1 horizontally or antidiagonally adjacent to 0, 1 or 2 neighboring 1s.",
			"comment": [
				"Row 7 of A297374."
			],
			"link": [
				"R. H. Hardin, \u003ca href=\"/A297380/b297380.txt\"\u003eTable of n, a(n) for n = 1..210\u003c/a\u003e"
			],
			"example": [
				"Some solutions for n=5",
				"..0..0..0..0..0. .0..0..0..0..0. .0..0..0..0..0. .0..0..0..0..0",
				"..0..0..0..0..0. .0..0..0..0..0. .0..0..0..0..0. .0..0..0..0..0",
				"..0..0..0..0..0. .0..0..0..0..0. .0..0..0..0..0. .0..0..0..0..0",
				"..0..0..0..0..0. .0..1..0..1..0. .0..1..0..1..0. .0..1..0..1..0",
				"..1..0..0..0..1. .1..0..1..0..0. .0..1..1..0..0. .1..0..0..0..1",
				"..1..1..0..1..0. .1..0..0..1..0. .0..0..0..0..0. .0..0..0..1..1",
				"..0..0..1..1..1. .0..0..0..0..1. .1..1..1..1..0. .1..0..0..1..0"
			],
			"xref": [
				"Cf. A297374."
			],
			"keyword": "nonn",
			"offset": "1,1",
			"author": "_R. H. Hardin_, Dec 29 2017",
			"references": 1,
			"revision": 4,
			"time": "2017-12-29T07:46:19-05:00",
			"created": "2017-12-29T07:46:19-05:00"
		}
	]
}