{
	"greeting": "Greetings from The On-Line Encyclopedia of Integer Sequences! http://oeis.org/",
	"query": "id:A297720",
	"count": 1,
	"start": 0,
	"results": [
		{
			"number": 297720,
			"data": "1,2,1,4,10,1,7,34,29,1,12,83,145,87,1,21,258,523,747,280,1,37,865,2717,4212,4090,876,1,65,2651,14462,36981,34319,21116,2735,1,114,8041,68919,336653,512354,268630,110551,8583,1,200,25114,332306,2699832,8103241",
			"name": "T(n,k)=Number of nXk 0..1 arrays with every 1 horizontally, diagonally or antidiagonally adjacent to 1, 2 or 4 neighboring 1s.",
			"comment": [
				"Table starts",
				".1.....2.......4.........7..........12............21..............37",
				".1....10......34........83.........258...........865............2651",
				".1....29.....145.......523........2717.........14462...........68919",
				".1....87.....747......4212.......36981........336653.........2699832",
				".1...280....4090.....34319......512354.......8103241.......107787351",
				".1...876...21116....268630.....6812856.....183324631......4021047904",
				".1..2735..110551...2139403....91994155....4238895126....154327332017",
				".1..8583..582755..17031173..1242370107...98184350818...5920531350715",
				".1.26900.3055652.135252357.16741579726.2265008802005.226188909640209"
			],
			"link": [
				"R. H. Hardin, \u003ca href=\"/A297720/b297720.txt\"\u003eTable of n, a(n) for n = 1..180\u003c/a\u003e"
			],
			"formula": [
				"Empirical for column k:",
				"k=1: a(n) = a(n-1)",
				"k=2: a(n) = 2*a(n-1) +2*a(n-2) +5*a(n-3) -a(n-5) -a(n-6)",
				"k=3: [order 13]",
				"k=4: [order 42]",
				"k=5: [order 87]",
				"Empirical for row n:",
				"n=1: a(n) = 2*a(n-1) -a(n-2) +a(n-3)",
				"n=2: a(n) = 4*a(n-1) -3*a(n-2) +3*a(n-3) -2*a(n-4) -24*a(n-5) +24*a(n-6)",
				"n=3: [order 18]",
				"n=4: [order 51]"
			],
			"example": [
				"Some solutions for n=4 k=4",
				"..0..1..0..1. .1..1..0..0. .1..0..1..0. .0..0..1..0. .0..0..1..1",
				"..0..0..1..1. .0..1..0..0. .0..1..1..0. .0..0..0..1. .0..0..1..0",
				"..0..1..0..0. .0..1..0..0. .1..1..0..0. .1..1..1..1. .1..0..0..0",
				"..1..0..0..0. .1..1..0..0. .1..0..1..1. .0..1..0..0. .1..1..0..0"
			],
			"xref": [
				"Column 2 is A295525.",
				"Row 1 is A005251(n+2)."
			],
			"keyword": "nonn,tabl",
			"offset": "1,2",
			"author": "_R. H. Hardin_, Jan 04 2018",
			"references": 13,
			"revision": 4,
			"time": "2018-01-04T21:59:14-05:00",
			"created": "2018-01-04T21:59:14-05:00"
		}
	]
}