{
	"greeting": "Greetings from The On-Line Encyclopedia of Integer Sequences! http://oeis.org/",
	"query": "id:A297184",
	"count": 1,
	"start": 0,
	"results": [
		{
			"number": 297184,
			"data": "0,0,0,0,2,4,12,20,42,76,144,256,488,892,1672,3092,5798,10856,20512,38652,73344,139212,265312,506464,969552,1858784,3571368,6871692,13244040,25558888,49392068,95555560,185075058,358812020,696308312,1352420168,2628949868",
			"name": "Number of closed binary words of length n that are not privileged.",
			"link": [
				"G. Badkobeh, G. Fici, Z. Lipták, \u003ca href=\"http://dx.doi.org/10.1007/978-3-319-15579-1_29\"\u003eOn the number of closed factors in a word\u003c/a\u003e, in A.-H. Dediu et al., eds., LATA 2015, LNCS 8977, 2015, pp. 381-390. Available at \u003ca href=\"http://arxiv.org/abs/1305.6395\"\u003earXiv\u003c/a\u003e, arXiv:1305.6395 [cs.FL], 2013-2014.",
				"Gabriele Fici, \u003ca href=\"http://bulletin.eatcs.org/index.php/beatcs/article/view/508\"\u003eOpen and Closed Words\u003c/a\u003e, in Giovanni Pighizzini, ed., The Formal Language Theory Column, Bulletin of EATCS, 2017."
			],
			"xref": [
				"Equals A226452-A231208.",
				"Cf. A297185."
			],
			"keyword": "nonn",
			"offset": "0,5",
			"author": "_N. J. A. Sloane_, Dec 28 2017",
			"references": 3,
			"revision": 7,
			"time": "2020-11-03T06:33:50-05:00",
			"created": "2017-12-28T11:44:44-05:00"
		}
	]
}