{
	"greeting": "Greetings from The On-Line Encyclopedia of Integer Sequences! http://oeis.org/",
	"query": "id:A297058",
	"count": 1,
	"start": 0,
	"results": [
		{
			"number": 297058,
			"data": "0,41,236942616,73674727501216431238735,1455076937962639373651947379634071842025652735048",
			"name": "Number of edge covers in the n X n queen graph.",
			"link": [
				"Eric Weisstein's World of Mathematics, \u003ca href=\"http://mathworld.wolfram.com/EdgeCover.html\"\u003eEdge Cover\u003c/a\u003e",
				"Eric Weisstein's World of Mathematics, \u003ca href=\"http://mathworld.wolfram.com/QueenGraph.html\"\u003eQueen Graph\u003c/a\u003e"
			],
			"keyword": "nonn,more",
			"offset": "1,2",
			"author": "_Eric W. Weisstein_, Dec 24 2017",
			"ext": [
				"a(4)-a(5) from _Andrew Howroyd_, Dec 27 2017"
			],
			"references": 0,
			"revision": 7,
			"time": "2017-12-27T03:09:56-05:00",
			"created": "2017-12-25T11:29:49-05:00"
		}
	]
}