{
	"greeting": "Greetings from The On-Line Encyclopedia of Integer Sequences! http://oeis.org/",
	"query": "id:A298789",
	"count": 1,
	"start": 0,
	"results": [
		{
			"number": 298789,
			"data": "1,4,7,10,15,18,20,26,29,30,37,40,40,48,51,50,59,62,60,70,73,70,81,84,80,92,95,90,103,106,100,114,117,110,125,128,120,136,139,130,147,150,140,158,161,150,169,172,160,180,183,170,191,194,180,202,205,190",
			"name": "Coordination sequence for bey tiling (or net) with respect to a tetravalent node.",
			"link": [
				"Rémy Sigrist, \u003ca href=\"/A298789/b298789.txt\"\u003eTable of n, a(n) for n = 0..1000\u003c/a\u003e",
				"Reticular Chemistry Structure Resource (RCSR), \u003ca href=\"http://rcsr.net/layers/bey\"\u003eThe bey tiling (or net)\u003c/a\u003e",
				"Rémy Sigrist, \u003ca href=\"/A298789/a298789.png\"\u003eIllustration of the first terms\u003c/a\u003e",
				"Rémy Sigrist, \u003ca href=\"/A298789/a298789.gp.txt\"\u003ePARI program for A298789\u003c/a\u003e"
			],
			"formula": [
				"Conjectures from _Colin Barker_, Jan 29 2018: (Start)",
				"G.f.: (1 + x)^4*(1 + x^2) / ((1 - x)^2*(1 + x + x^2)^2).",
				"a(n) = 2*a(n-3) - a(n-6) for n\u003e6.",
				"(End)"
			],
			"program": [
				"(PARI) See Links section."
			],
			"xref": [
				"Cf. A298788, A298790, A298791."
			],
			"keyword": "nonn",
			"offset": "0,2",
			"author": "_N. J. A. Sloane_, Jan 27 2018",
			"ext": [
				"More terms from _Rémy Sigrist_, Jan 28 2018"
			],
			"references": 3,
			"revision": 12,
			"time": "2018-01-30T21:18:44-05:00",
			"created": "2018-01-27T13:52:18-05:00"
		}
	]
}