{
	"greeting": "Greetings from The On-Line Encyclopedia of Integer Sequences! http://oeis.org/",
	"query": "id:A298939",
	"count": 1,
	"start": 0,
	"results": [
		{
			"number": 298939,
			"data": "1,1,1,4,1,286,7582,202028,6473625,226029577,8338249868,391526193477,19990594900630,1159906506684446,74890158861242740,5119732406649036418,380146984328280974281,30198665638519565614034,2555354508318427693497565",
			"name": "Number of ordered ways of writing n^3 as a sum of n squares of positive integers.",
			"link": [
				"\u003ca href=\"/index/Su#ssq\"\u003eIndex entries for sequences related to sums of squares\u003c/a\u003e"
			],
			"formula": [
				"a(n) = [x^(n^3)] (Sum_{k\u003e=1} x^(k^2))^n."
			],
			"example": [
				"a(3) = 4 because we have [25, 1, 1], [9, 9, 9], [1, 25, 1] and [1, 1, 25]."
			],
			"mathematica": [
				"Table[SeriesCoefficient[(-1 + EllipticTheta[3, 0, x])^n/2^n, {x, 0, n^3}], {n, 0, 18}]"
			],
			"xref": [
				"Cf. A000290, A000578, A006456, A030273, A037444, A066535, A218494, A232173, A287617, A298329, A298330, A298935, A298937, A298938."
			],
			"keyword": "nonn",
			"offset": "0,4",
			"author": "_Ilya Gutkovskiy_, Jan 29 2018",
			"references": 3,
			"revision": 4,
			"time": "2018-01-29T21:12:37-05:00",
			"created": "2018-01-29T21:12:37-05:00"
		}
	]
}