{
	"greeting": "Greetings from The On-Line Encyclopedia of Integer Sequences! http://oeis.org/",
	"query": "id:A298803",
	"count": 1,
	"start": 0,
	"results": [
		{
			"number": 298803,
			"data": "1,4,8,16,30,50,88,150,260,448,768,1328,2284,3930,6776,11662,20082,34592,59560,102570,176642,304180,523830,902084,1553452,2675184,4606892,7933444,13662066,23527220,40515838,69771678,120152672,206912968,356321478,613615442",
			"name": "Growth series for group with presentation \u003c S, T : S^3 = T^3 = (S*T)^4 = 1 \u003e.",
			"link": [
				"Colin Barker, \u003ca href=\"/A298803/b298803.txt\"\u003eTable of n, a(n) for n = 0..1000\u003c/a\u003e",
				"\u003ca href=\"/index/Rec#order_06\"\u003eIndex entries for linear recurrences with constant coefficients\u003c/a\u003e, signature (0,1,3,1,0,-1)."
			],
			"formula": [
				"G.f.: (1 + 4*x + 7*x^2 + 9*x^3 + 9*x^4 + 6*x^5 + 3*x^6 - 2*x^7) / ((1 + x + x^2)*(1 - x - x^2 - x^3 + x^4)). [Corrected by _Colin Barker_, Feb 04 2018]",
				"a(n) = a(n-2) + 3*a(n-3) + a(n-4) - a(n-6) for n\u003e7. - _Colin Barker_, Feb 04 2018"
			],
			"mathematica": [
				"LinearRecurrence[{0,1,3,1,0,-1},{1,4,8,16,30,50,88,150},40] (* _Harvey P. Dale_, May 03 2019 *)"
			],
			"program": [
				"(MAGMA)",
				"R\u003cx\u003e := RationalFunctionField(Integers());",
				"PSR25 := PowerSeriesRing(Integers():Precision := 25);",
				"FG\u003cS,T\u003e := FreeGroup(2);",
				"TG := quo\u003cFG | S^3, T^3, (S*T)^4 \u003e;",
				"f, A :=IsAutomaticGroup(TG);",
				"gf := GrowthFunction(A);",
				"R!gf;",
				"Coefficients(PSR25!gf);",
				"(PARI) Vec((1 + 4*x + 7*x^2 + 9*x^3 + 9*x^4 + 6*x^5 + 3*x^6 - 2*x^7) / ((1 + x + x^2)*(1 - x - x^2 - x^3 + x^4)) + O(x^40)) \\\\ _Colin Barker_, Feb 04 2018"
			],
			"xref": [
				"Cf. A008579, A298802."
			],
			"keyword": "nonn,easy",
			"offset": "0,2",
			"author": "_John Cannon_ and _N. J. A. Sloane_, Feb 04 2018",
			"references": 1,
			"revision": 12,
			"time": "2019-05-03T11:28:04-04:00",
			"created": "2018-02-04T10:46:40-05:00"
		}
	]
}