{
	"greeting": "Greetings from The On-Line Encyclopedia of Integer Sequences! http://oeis.org/",
	"query": "id:A298759",
	"count": 1,
	"start": 0,
	"results": [
		{
			"number": 298759,
			"data": "2,6,30,42,1722,1806",
			"name": "Numbers n such that bphi(n) = n/2, where bphi is the bi-unitary analog of Euler's totient function (A116550).",
			"comment": [
				"With Euler's totient function, phi(n) = n/2 only for powers of 2 (A000079, except for 1). With the unitary totient function (A047994) the corresponding sequence is A030163.",
				"No more terms below 10^5."
			],
			"example": [
				"42 is in the sequence since bphi(42) = 21 = 42/2."
			],
			"mathematica": [
				"bphi[1] = 1; bphi[n_] :=  With[{pp = Power @@@ FactorInteger[n]},   Count[Range[n], m_ /; Intersection[pp, Power @@@ FactorInteger[m]] == {}]]; aQ[n_] := bphi[n] == n/2; Select[Range[10000], aQ]"
			],
			"program": [
				"(PARI) udivs(n) = {my(d = divisors(n)); select(x-\u003e(gcd(x, n/x)==1), d); }",
				"gcud(n, m) = vecmax(setintersect(udivs(n), udivs(m)));",
				"bphi(n) = if (n==1, 1, sum(k=1, n-1, gcud(n, k) == 1));",
				"isok(n) = bphi(n) == n/2; \\\\ _Michel Marcus_, Jan 26 2018"
			],
			"xref": [
				"Cf. A047994, A030163, A116550."
			],
			"keyword": "nonn,more",
			"offset": "1,1",
			"author": "_Amiram Eldar_, Jan 26 2018",
			"references": 0,
			"revision": 7,
			"time": "2018-02-12T11:14:07-05:00",
			"created": "2018-02-12T11:14:07-05:00"
		}
	]
}