{
	"greeting": "Greetings from The On-Line Encyclopedia of Integer Sequences! http://oeis.org/",
	"query": "id:A298189",
	"count": 1,
	"start": 0,
	"results": [
		{
			"number": 298189,
			"data": "2,8,26,88,298,1012,3440,11700,39804,135432,460832,1568112,5336024,18157728,61788368,210258064,715482384,2434699680,8284988960,28192819392,95936772448,326461301312,1110908566656,3780288336704,12863866903872",
			"name": "Number of nX2 0..1 arrays with every element equal to 0, 1, 2, 3 or 5 king-move adjacent elements, with upper left element zero.",
			"comment": [
				"Column 2 of A298195."
			],
			"link": [
				"R. H. Hardin, \u003ca href=\"/A298189/b298189.txt\"\u003eTable of n, a(n) for n = 1..210\u003c/a\u003e"
			],
			"formula": [
				"Empirical: a(n) = 4*a(n-1) -2*a(n-2) +2*a(n-3) -6*a(n-4) -4*a(n-5)"
			],
			"example": [
				"Some solutions for n=7",
				"..0..1. .0..1. .0..1. .0..1. .0..1. .0..1. .0..1. .0..1. .0..0. .0..0",
				"..0..0. .0..1. .1..0. .1..1. .1..1. .1..1. .0..1. .1..0. .0..1. .0..1",
				"..1..1. .1..0. .1..0. .0..0. .0..0. .0..1. .1..0. .1..1. .1..0. .1..0",
				"..0..1. .1..1. .1..0. .1..0. .1..0. .0..1. .1..0. .0..0. .1..1. .1..0",
				"..0..0. .0..0. .1..1. .0..1. .0..1. .0..1. .0..1. .1..0. .0..0. .1..0",
				"..0..1. .1..0. .1..0. .1..1. .1..0. .1..1. .1..0. .0..1. .1..1. .1..0",
				"..1..0. .0..1. .0..1. .1..0. .1..1. .1..0. .1..0. .1..0. .0..0. .1..0"
			],
			"xref": [
				"Cf. A298195."
			],
			"keyword": "nonn",
			"offset": "1,1",
			"author": "_R. H. Hardin_, Jan 14 2018",
			"references": 8,
			"revision": 4,
			"time": "2018-01-14T09:49:15-05:00",
			"created": "2018-01-14T09:49:15-05:00"
		}
	]
}