{
	"greeting": "Greetings from The On-Line Encyclopedia of Integer Sequences! http://oeis.org/",
	"query": "id:A298920",
	"count": 1,
	"start": 0,
	"results": [
		{
			"number": 298920,
			"data": "1,8,2,3,7,6,9,20,22,35,59,90,145,240,378,611,991,1598,2585,4188,6766,10947,17715,28658,46369,75032,121394,196419,317815,514230,832041,1346276,2178310,3524579,5702891,9227466,14930353,24157824,39088170",
			"name": "Number of nX4 0..1 arrays with every element equal to 1, 3, 5, 7 or 8 king-move adjacent elements, with upper left element zero.",
			"comment": [
				"Column 4 of A298924."
			],
			"link": [
				"R. H. Hardin, \u003ca href=\"/A298920/b298920.txt\"\u003eTable of n, a(n) for n = 1..210\u003c/a\u003e"
			],
			"formula": [
				"Empirical: a(n) = a(n-1) +a(n-2) +a(n-6) -a(n-7) -a(n-8)"
			],
			"example": [
				"Some solutions for n=5",
				"..0..0..0..0. .0..1..0..1. .0..0..0..0. .0..0..0..0. .0..0..1..1",
				"..0..0..0..0. .0..1..0..1. .0..0..0..0. .0..0..0..0. .0..0..1..1",
				"..1..1..1..1. .1..1..0..0. .0..0..0..0. .0..0..0..0. .0..0..1..1",
				"..1..1..1..1. .0..1..0..1. .1..1..1..1. .0..0..0..0. .0..0..1..1",
				"..1..1..1..1. .0..1..0..1. .1..1..1..1. .0..0..0..0. .0..0..1..1"
			],
			"xref": [
				"Cf. A298924."
			],
			"keyword": "nonn",
			"offset": "1,2",
			"author": "_R. H. Hardin_, Jan 29 2018",
			"references": 1,
			"revision": 4,
			"time": "2018-01-29T07:57:06-05:00",
			"created": "2018-01-29T07:57:06-05:00"
		}
	]
}