{
	"greeting": "Greetings from The On-Line Encyclopedia of Integer Sequences! http://oeis.org/",
	"query": "id:A298708",
	"count": 1,
	"start": 0,
	"results": [
		{
			"number": 298708,
			"data": "1,13,2,11,32,87,110,385,908,2760,6454,17925,51777,141793,378486,1095621,3060776,8412703,23884402,67448745,187193308,529617392,1496665754,4179115507,11797048913,33344442453,93407406180,263365123043",
			"name": "Number of nX4 0..1 arrays with every element equal to 1, 3, 4, 6 or 7 king-move adjacent elements, with upper left element zero.",
			"comment": [
				"Column 4 of A298712."
			],
			"link": [
				"R. H. Hardin, \u003ca href=\"/A298708/b298708.txt\"\u003eTable of n, a(n) for n = 1..210\u003c/a\u003e",
				"R. H. Hardin, \u003ca href=\"/A298708/a298708.txt\"\u003eEmpirical recurrence of order 70\u003c/a\u003e"
			],
			"formula": [
				"Empirical recurrence of order 70 (see link above)"
			],
			"example": [
				"Some solutions for n=5",
				"..0..1..0..0. .0..0..0..0. .0..0..1..1. .0..1..0..0. .0..0..1..0",
				"..0..1..0..0. .0..0..1..1. .0..0..1..1. .0..1..0..0. .0..0..1..0",
				"..1..1..1..0. .1..1..1..1. .1..1..0..0. .1..1..1..1. .0..1..1..1",
				"..0..1..0..0. .0..0..0..0. .0..0..1..1. .0..1..0..0. .0..0..1..0",
				"..0..1..0..0. .0..0..1..1. .0..0..1..1. .0..1..0..0. .0..0..1..0"
			],
			"xref": [
				"Cf. A298712."
			],
			"keyword": "nonn",
			"offset": "1,2",
			"author": "_R. H. Hardin_, Jan 25 2018",
			"references": 1,
			"revision": 4,
			"time": "2018-01-25T08:34:03-05:00",
			"created": "2018-01-25T08:34:03-05:00"
		}
	]
}