{
	"greeting": "Greetings from The On-Line Encyclopedia of Integer Sequences! http://oeis.org/",
	"query": "id:A298080",
	"count": 1,
	"start": 0,
	"results": [
		{
			"number": 298080,
			"data": "1,2,4,16,25,64,81,100,121,256,289,484,529,729,841,1024,1156,1296,1600,1681,2116,2209,2401,2809,3025,3364,3481,4096,4624,5041,5184,6400,6724,6889,7225,7921,8464,8836,10201,11236,11449,11664,12100,12769,13225,13456,13924",
			"name": "Integers m such that both phi(m) and sigma(m) are coprime to tau(m).",
			"link": [
				"Amiram Eldar, \u003ca href=\"/A298080/b298080.txt\"\u003eTable of n, a(n) for n = 1..10000\u003c/a\u003e",
				"Jean-Marie De Koninck and Imre Kátai, \u003ca href=\"https://www.emis.de/journals/PIMB/101/9.html\"\u003eOn the coprimality of some arithmetic functions\u003c/a\u003e, Publications de l'Institut Mathématique, 2010 87(101):121-128."
			],
			"mathematica": [
				"Select[Range[14000], CoprimeQ[EulerPhi[#], (d = DivisorSigma[0, #])] \u0026\u0026 CoprimeQ[DivisorSigma[1, #], d] \u0026] (* _Amiram Eldar_, Aug 08 2020 *)"
			],
			"program": [
				"(PARI) isok(n) = (gcd(eulerphi(n), numdiv(n))==1) \u0026\u0026 (gcd(sigma(n), numdiv(n)) == 1);"
			],
			"xref": [
				"Intersection of A046678 and A225983."
			],
			"keyword": "nonn",
			"offset": "1,2",
			"author": "_Michel Marcus_, Jan 12 2018",
			"references": 1,
			"revision": 13,
			"time": "2020-08-08T11:30:11-04:00",
			"created": "2018-01-12T05:54:46-05:00"
		}
	]
}