{
	"greeting": "Greetings from The On-Line Encyclopedia of Integer Sequences! http://oeis.org/",
	"query": "id:A298665",
	"count": 1,
	"start": 0,
	"results": [
		{
			"number": 298665,
			"data": "1,1,8,9,38,169,238,1019,3112,7518,25887,74736,218787,690826,2069920,6363967,19855161,61528839,192963096,609853755,1933979526,6175400889,19859400627,64164744962,208511225451,681665542190,2238543624216",
			"name": "Number of nX6 0..1 arrays with every element equal to 0, 3, 4, 6 or 7 king-move adjacent elements, with upper left element zero.",
			"comment": [
				"Column 6 of A298667."
			],
			"link": [
				"R. H. Hardin, \u003ca href=\"/A298665/b298665.txt\"\u003eTable of n, a(n) for n = 1..210\u003c/a\u003e"
			],
			"example": [
				"Some solutions for n=8",
				"..0..1..1..0..1..0. .0..0..1..0..0..1. .0..0..0..0..0..1. .0..0..1..1..0..0",
				"..1..1..1..1..1..1. .0..0..0..0..0..0. .0..0..1..0..0..0. .0..0..1..1..0..0",
				"..1..0..1..1..1..1. .0..1..0..0..1..0. .1..0..0..0..0..0. .0..1..1..1..1..0",
				"..1..1..1..1..0..1. .0..0..0..0..0..0. .0..0..0..0..0..1. .0..1..1..1..0..0",
				"..1..0..1..1..1..1. .1..0..0..1..0..0. .0..0..1..0..0..0. .0..0..1..1..0..0",
				"..1..1..1..1..1..0. .0..0..0..0..0..1. .1..0..0..0..1..0. .0..1..1..1..1..0",
				"..1..1..1..0..1..1. .0..0..0..0..0..0. .0..0..0..0..0..0. .0..0..1..1..0..0",
				"..0..1..1..1..1..1. .1..0..0..1..0..0. .1..0..0..1..0..0. .0..0..1..1..0..0"
			],
			"xref": [
				"Cf. A298667."
			],
			"keyword": "nonn",
			"offset": "1,3",
			"author": "_R. H. Hardin_, Jan 24 2018",
			"references": 1,
			"revision": 4,
			"time": "2018-01-24T10:27:51-05:00",
			"created": "2018-01-24T10:27:51-05:00"
		}
	]
}