{
	"greeting": "Greetings from The On-Line Encyclopedia of Integer Sequences! http://oeis.org/",
	"query": "id:A298972",
	"count": 1,
	"start": 0,
	"results": [
		{
			"number": 298972,
			"data": "0,0,1,0,2,0,1,0,3,0,1,2,2,0,1,0,4,0,1,0,0,0,4,0,0,0,0,0,0,0,0,0,0,5,0,0,0,0,0,0,0,0,0,0,8,0,0,0,0,0,0,0,0,0,0,6,0,0,0,0,0,0,0,0,0,0,11,0,0,0,0,0,0,0,0,0,0,11,0,0,0,0,0,0,0,0",
			"name": "Number of positive integers k \u003c n such that n occurs in the Reverse-and-Add trajectory of k.",
			"comment": [
				"Number of integers k \u003c n such that n occurs in row k of A243238.",
				"For n \u003e 0, a(n) = 0 iff n is a term of A067031.",
				"For n \u003e 0, a(n) \u003e 0 iff n is a term of A067030."
			],
			"link": [
				"\u003ca href=\"/index/Res#RAA\"\u003eIndex entries for sequences related to Reverse and Add!\u003c/a\u003e"
			],
			"example": [
				"For n = 22: There exist 4 positive integers k \u003c 22 such that 22 occurs in the Reverse-and-Add trajectory of k, namely 5, 10, 11 and 20, so a(22) = 4."
			],
			"mathematica": [
				"Block[{nn = 85, s}, s = Array[Union@ NestWhileList[# + IntegerReverse@ # \u0026, #, # \u003c nn \u0026, 1, nn] \u0026, nn]; Array[Count[Take[s, # - 1], #, 2] \u0026, nn + 1, 0]] (* _Michael De Vlieger_, Feb 01 2018 *)"
			],
			"program": [
				"(PARI) a(n) = my(i=0); for(k=1, n-1, my(x=k); while(x \u003c n, x=x+eval(concat(Vecrev(Str(x))))); if(x==n, i++)); i"
			],
			"xref": [
				"Cf. A056964, A067030, A067031, A243238."
			],
			"keyword": "nonn,base",
			"offset": "0,5",
			"author": "_Felix Fröhlich_, Jan 30 2018",
			"references": 0,
			"revision": 8,
			"time": "2018-02-02T09:01:57-05:00",
			"created": "2018-02-02T09:01:57-05:00"
		}
	]
}