{
	"greeting": "Greetings from The On-Line Encyclopedia of Integer Sequences! http://oeis.org/",
	"query": "id:A298686",
	"count": 1,
	"start": 0,
	"results": [
		{
			"number": 298686,
			"data": "13440,19440,19800,24480,49680,61560,104160,229320,298200,311040,329400,436800,471240,600600,1202040,1299600,1468800,1564920,1702800,2031120,2352240,2402400,2499840,2762760,2805600,2937600,2962080,3150840,3262680,3405600,3843840",
			"name": "Numbers i such that Fibonacci(i) is divisible by i+k for k=0,1,2,3,4.",
			"comment": [
				"A subsequence of A298685."
			],
			"link": [
				"Chai Wah Wu, \u003ca href=\"/A298686/b298686.txt\"\u003eTable of n, a(n) for n = 1..147\u003c/a\u003e"
			],
			"program": [
				"(PARI) isone(n, k) = !(fibonacci(n) % (n+k));",
				"isok(n) = isone(n,0) \u0026\u0026 isone(n,1) \u0026\u0026 isone(n,2) \u0026\u0026 isone(n,3) \u0026\u0026 isone(n,4); \\\\ _Michel Marcus_, Jan 28 2018"
			],
			"xref": [
				"Cf. A000045, A023172, A217738, A221018, A225219, A298684, A298685."
			],
			"keyword": "nonn",
			"offset": "1,1",
			"author": "_Alex Ratushnyak_, Jan 24 2018",
			"ext": [
				"More terms from _Alois P. Heinz_, Jan 25 2018"
			],
			"references": 6,
			"revision": 14,
			"time": "2018-01-28T13:12:20-05:00",
			"created": "2018-01-26T14:04:03-05:00"
		}
	]
}