{
	"greeting": "Greetings from The On-Line Encyclopedia of Integer Sequences! http://oeis.org/",
	"query": "id:A298092",
	"count": 1,
	"start": 0,
	"results": [
		{
			"number": 298092,
			"data": "8,95,53,149,150,203,229,365,410,734,917,1484,2077,2943,4659,7326,10594,16709,24739,37132,60254,95030,143625,222697,342265,533190,851163,1336970,2070432,3224282,5018051,7927851,12585422,19740586,30869728",
			"name": "Number of nX7 0..1 arrays with every element equal to 1, 2, 4 or 7 king-move adjacent elements, with upper left element zero.",
			"comment": [
				"Column 7 of A298093."
			],
			"link": [
				"R. H. Hardin, \u003ca href=\"/A298092/b298092.txt\"\u003eTable of n, a(n) for n = 1..210\u003c/a\u003e"
			],
			"example": [
				"Some solutions for n=7",
				"..0..1..0..1..0..1..1. .0..1..1..1..0..0..0. .0..1..1..1..0..1..1",
				"..0..1..0..1..0..1..0. .0..1..0..1..0..1..0. .0..1..0..1..0..1..0",
				"..1..1..1..0..0..0..0. .1..1..0..0..0..1..1. .1..1..0..1..1..1..0",
				"..0..0..1..0..1..1..1. .1..1..0..0..0..1..1. .1..1..0..1..1..1..0",
				"..1..1..1..0..0..0..0. .0..1..0..1..0..1..0. .0..1..0..1..0..1..0",
				"..0..1..0..1..0..1..0. .1..0..1..0..1..0..1. .0..1..1..0..1..0..1",
				"..0..1..0..1..0..1..1. .0..0..1..1..1..0..0. .1..0..1..0..0..0..1"
			],
			"xref": [
				"Cf. A298093."
			],
			"keyword": "nonn",
			"offset": "1,1",
			"author": "_R. H. Hardin_, Jan 12 2018",
			"references": 1,
			"revision": 4,
			"time": "2018-01-12T09:32:17-05:00",
			"created": "2018-01-12T09:32:17-05:00"
		}
	]
}