{
	"greeting": "Greetings from The On-Line Encyclopedia of Integer Sequences! http://oeis.org/",
	"query": "id:A298198",
	"count": 1,
	"start": 0,
	"results": [
		{
			"number": 298198,
			"data": "4,40,320,2368,16832,116608,793088,5318656,35271680,231786496,1511653376,9795518464,63126683648,404881506304,2586017398784,16456474427392,104381066510336,660139718213632,4163958223142912,26202468819927040,164527129801785344",
			"name": "Number of Eulerian cycles in the graph Cartesian product of C_n and a double edge.",
			"comment": [
				"When n = 2 the graph is the Cartesian product of two double edges.",
				"a(n) is divisible by 2^(n + 1)."
			],
			"link": [
				"Andrew Howroyd, \u003ca href=\"/A298198/b298198.txt\"\u003eTable of n, a(n) for n = 1..500\u003c/a\u003e",
				"Eric Weisstein's World of Mathematics, \u003ca href=\"http://mathworld.wolfram.com/EulerianCycle.html\"\u003eEulerian Cycle\u003c/a\u003e"
			],
			"formula": [
				"a(n) = 14*a(n-1) - 60*a(n-2) + 72*a(n-3) for n \u003e 3.",
				"G.f.: 4*x*(1 - 4*x)/((1 - 2*x)*(1 - 6*x)^2)."
			],
			"program": [
				"(PARI) Vec(4*(1 - 4*x)/((1 - 2*x)*(1 - 6*x)^2) + O(x^30))"
			],
			"xref": [
				"Row 2 of A298117."
			],
			"keyword": "nonn",
			"offset": "1,1",
			"author": "_Andrew Howroyd_, Jan 14 2018",
			"references": 2,
			"revision": 14,
			"time": "2019-10-06T01:50:48-04:00",
			"created": "2018-01-14T18:25:37-05:00"
		}
	]
}