{
	"greeting": "Greetings from The On-Line Encyclopedia of Integer Sequences! http://oeis.org/",
	"query": "id:A298188",
	"count": 1,
	"start": 0,
	"results": [
		{
			"number": 298188,
			"data": "1,8,92,1609,45143,1863192,114087318,10570868743,1486791095951",
			"name": "Number of n X n 0..1 arrays with every element equal to 0, 1, 2, 3 or 5 king-move adjacent elements, with upper left element zero.",
			"comment": [
				"Diagonal of A298195."
			],
			"example": [
				"Some solutions for n=5",
				"..0..1..1..0..1. .0..0..0..0..0. .0..0..1..1..1. .0..1..1..0..1",
				"..1..1..0..1..1. .0..1..1..1..1. .0..1..1..0..0. .1..1..0..0..1",
				"..1..0..1..0..1. .1..0..0..0..0. .1..0..0..0..1. .1..0..1..1..0",
				"..0..1..0..0..1. .1..0..1..1..1. .0..0..0..1..0. .0..0..1..0..0",
				"..0..0..1..0..1. .0..0..0..1..0. .0..1..1..0..1. .1..1..1..1..0"
			],
			"xref": [
				"Cf. A298195."
			],
			"keyword": "nonn",
			"offset": "1,2",
			"author": "_R. H. Hardin_, Jan 14 2018",
			"references": 0,
			"revision": 6,
			"time": "2020-05-03T15:45:42-04:00",
			"created": "2018-01-14T09:48:26-05:00"
		}
	]
}