{
	"greeting": "Greetings from The On-Line Encyclopedia of Integer Sequences! http://oeis.org/",
	"query": "id:A298705",
	"count": 1,
	"start": 0,
	"results": [
		{
			"number": 298705,
			"data": "1,2,3,5,6,7,10,13,14,15",
			"name": "Numbers from the 15-theorem for universal Hermitian lattices.",
			"comment": [
				"Unlike the fifteen theorem for universal quadratic forms (A030050), this theorem includes the number 13 arising from the case Q(sqrt(-39))."
			],
			"link": [
				"Byeong Moon Kim, Ji Young Kim, and Poo-Sung Park, \u003ca href=\"https://doi.org/10.1090/S0025-5718-09-02287-X\"\u003eThe Fifteen Theorem for Universal Hermitian Lattices over Imaginary Quadratic Fields\u003c/a\u003e, Math. Comp. 79 (2010), 1123-1144."
			],
			"xref": [
				"Cf. A030050, A183071."
			],
			"keyword": "nonn,fini,full",
			"offset": "1,2",
			"author": "_Ralf Steiner_, Jan 29 2018",
			"references": 0,
			"revision": 46,
			"time": "2018-03-04T19:34:44-05:00",
			"created": "2018-03-04T15:53:27-05:00"
		}
	]
}