{
	"greeting": "Greetings from The On-Line Encyclopedia of Integer Sequences! http://oeis.org/",
	"query": "id:A298992",
	"count": 1,
	"start": 0,
	"results": [
		{
			"number": 298992,
			"data": "0,0,5,12,35,58,112,160,258,340,495,620,845,1022,1330,1568,1972,2280,2793,3180,3815,4290,5060,5632,6550,7228,8307,9100,10353,11270,12710,13760,15400,16592,18445,19788,21867,23370,25688,27360,29930,31780,34615,36652",
			"name": "a(n) = (2*n-3-(-1)^n)*(22*n^2-21*n+5*n*(-1)^n)/96.",
			"comment": [
				"Consider the partitions of n into two distinct parts (p,q) where p \u003c q. Then a(n) is the total area of the family of rectangles (and the areas of the squares on their sides) with dimensions p and |q - p|."
			],
			"link": [
				"Colin Barker, \u003ca href=\"/A298992/b298992.txt\"\u003eTable of n, a(n) for n = 1..1000\u003c/a\u003e",
				"\u003ca href=\"/index/Par#part\"\u003eIndex entries for sequences related to partitions\u003c/a\u003e",
				"\u003ca href=\"/index/Rec#order_07\"\u003eIndex entries for linear recurrences with constant coefficients\u003c/a\u003e, signature (1,3,-3,-3,3,1,-1)."
			],
			"formula": [
				"a(n) = Sum_{i=1..floor((n-1)/2)} i*(n-2*i) + 2*i^2 + 2*(n-2*i)^2.",
				"From _Colin Barker_, Apr 23 2019: (Start)",
				"G.f.: x^3*(5 + 7*x + 8*x^2 + 2*x^3) / ((1 - x)^4*(1 + x)^3).",
				"a(n) = a(n-1) + 3*a(n-2) - 3*a(n-3) - 3*a(n-4) + 3*a(n-5) + a(n-6) - a(n-7) for n\u003e7.",
				"(End)"
			],
			"mathematica": [
				"Table[(2 n - 3 - (-1)^n) (22 n^2 - 21 n + 5 n (-1)^n)/96, {n, 50}]"
			],
			"program": [
				"(PARI) concat([0,0], Vec(x^3*(5 + 7*x + 8*x^2 + 2*x^3) / ((1 - x)^4*(1 + x)^3) + O(x^40))) \\\\ _Colin Barker_, Apr 23 2019"
			],
			"xref": [
				"Cf. A302647, A302758."
			],
			"keyword": "nonn,easy",
			"offset": "1,3",
			"author": "_Wesley Ivan Hurt_, Apr 16 2018",
			"references": 1,
			"revision": 27,
			"time": "2020-09-17T16:49:12-04:00",
			"created": "2018-04-16T19:01:14-04:00"
		}
	]
}