{
	"greeting": "Greetings from The On-Line Encyclopedia of Integer Sequences! http://oeis.org/",
	"query": "id:A298300",
	"count": 1,
	"start": 0,
	"results": [
		{
			"number": 298300,
			"data": "1,4,11,31,87,246,699,1996,5723,16468,47533,137567,399073,1160082,3378483,9855207,28790403,84218052,246651729,723165765,2122391109,6234634266,18330019029,53932825926,158802303429,467898288676,1379485436579,4069450219561",
			"name": "Analog of Motzkin numbers for Coxeter type D.",
			"formula": [
				"a(n) = A002426(n-1) + A290380(n) (the latter being extended by A290380(2)=0).",
				"Conjectural algebraic equation: 3*t+2+(3*t^2+5*t-2)*f(t)+(3*t^3-t^2)*f(t)^2 = 0.",
				"From _Peter Luschny_, Jan 23 2018: (Start)",
				"a(n) = hypergeom([(1-n)/2,1-n/2],[1],4]+(n-2)*hypergeom([1-n/2,3/2-n/2],[2],4).",
				"a(n) = G(n-1,1-n,-1/2) + G(n-2,1-n,-1/2)*(n-2)/(n-1) where G(n,a,x) denotes the n-th Gegenbauer polynomial. (End)"
			],
			"mathematica": [
				"b[n_] := Hypergeometric2F1[(1 - n)/2, 1 - n/2, 1, 4];",
				"c[n_] := (n-2) Hypergeometric2F1[1 - n/2, 3/2 - n/2, 2, 4];",
				"Table[b[n] + c[n], {n, 2, 29}] (* _Peter Luschny_, Jan 23 2018 *)"
			],
			"program": [
				"(Sage)",
				"def a(n):",
				"     return (sum(ZZ(n - 2) / i * binomial(2 * i - 2, i - 1) *",
				"         binomial(n - 2, 2 * i - 2)",
				"                 for i in range(1, floor(n / 2) + 1)) +",
				"             sum(binomial(n - 1, k) * binomial(n - 1 - k, k)",
				"                 for k in range(floor((n - 1) / 2) + 1)))"
			],
			"xref": [
				"Cf. A001006 (type A), A002426 (type B), A290380."
			],
			"keyword": "nonn",
			"offset": "2,2",
			"author": "_F. Chapoton_, Jan 16 2018",
			"references": 1,
			"revision": 23,
			"time": "2018-01-23T05:02:40-05:00",
			"created": "2018-01-23T04:51:00-05:00"
		}
	]
}