{
	"greeting": "Greetings from The On-Line Encyclopedia of Integer Sequences! http://oeis.org/",
	"query": "id:A298711",
	"count": 1,
	"start": 0,
	"results": [
		{
			"number": 298711,
			"data": "0,125,22,110,2409,9586,17377,241249,1201122,6055242,45702804,299335380,1843128506,13177259868,89426659750,604369128394,4250651593956,29338538378352,203129511477403,1429210885229805,9929275442796545",
			"name": "Number of nX7 0..1 arrays with every element equal to 1, 3, 4, 6 or 7 king-move adjacent elements, with upper left element zero.",
			"comment": [
				"Column 7 of A298712."
			],
			"link": [
				"R. H. Hardin, \u003ca href=\"/A298711/b298711.txt\"\u003eTable of n, a(n) for n = 1..210\u003c/a\u003e"
			],
			"example": [
				"Some solutions for n=5",
				"..0..1..1..1..0..1..1. .0..0..1..1..0..0..1. .0..1..0..1..1..0..0",
				"..1..0..1..1..0..1..1. .1..1..1..1..0..0..1. .0..1..0..1..1..0..0",
				"..1..1..1..0..0..0..0. .1..1..1..1..1..1..1. .1..1..1..1..1..1..1",
				"..1..1..1..1..0..1..1. .0..0..1..1..0..0..1. .0..1..0..1..1..1..1",
				"..0..0..1..1..0..1..1. .1..1..1..1..0..0..1. .0..1..0..1..1..0..0"
			],
			"xref": [
				"Cf. A298712."
			],
			"keyword": "nonn",
			"offset": "1,2",
			"author": "_R. H. Hardin_, Jan 25 2018",
			"references": 1,
			"revision": 4,
			"time": "2018-01-25T08:36:34-05:00",
			"created": "2018-01-25T08:36:34-05:00"
		}
	]
}