{
	"greeting": "Greetings from The On-Line Encyclopedia of Integer Sequences! http://oeis.org/",
	"query": "id:A299260",
	"count": 1,
	"start": 0,
	"results": [
		{
			"number": 299260,
			"data": "1,8,29,74,153,275,450,687,996,1387,1869,2452,3145,3958,4901,5983,7214,8603,10160,11895,13817,15936,18261,20802,23569,26571,29818,33319,37084,41123,45445,50060,54977,60206,65757,71639,77862,84435,91368,98671,106353",
			"name": "Partial sums of A299254.",
			"link": [
				"Colin Barker, \u003ca href=\"/A299260/b299260.txt\"\u003eTable of n, a(n) for n = 0..1000\u003c/a\u003e",
				"\u003ca href=\"/index/Rec#order_08\"\u003eIndex entries for linear recurrences with constant coefficients\u003c/a\u003e, signature (3,-3,1,0,1,-3,3,-1)."
			],
			"formula": [
				"From _Colin Barker_, Feb 09 2018: (Start)",
				"G.f.: (1 + x)*(1 + x + x^2)*(1 + 3*x + 3*x^3 + x^4) / ((1 - x)^4*(1 + x + x^2 + x^3 + x^4)).",
				"a(n) = 3*a(n-1) - 3*a(n-2) + a(n-3) + a(n-5) - 3*a(n-6) + 3*a(n-7) - a(n-8) for n\u003e7.",
				"(End)"
			],
			"program": [
				"(PARI) Vec((1 + x)*(1 + x + x^2)*(1 + 3*x + 3*x^3 + x^4) / ((1 - x)^4*(1 + x + x^2 + x^3 + x^4)) + O(x^60)) \\\\ _Colin Barker_, Feb 09 2018"
			],
			"xref": [
				"Cf. A299254.",
				"The 28 uniform 3D tilings: cab: A299266, A299267; crs: A299268, A299269; fcu: A005901, A005902; fee: A299259, A299265; flu-e: A299272, A299273; fst: A299258, A299264; hal: A299274, A299275; hcp: A007899, A007202; hex: A005897, A005898; kag: A299256, A299262; lta: A008137, A299276; pcu: A005899, A001845; pcu-i: A299277, A299278; reo: A299279, A299280; reo-e:  A299281, A299282; rho: A008137, A299276; sod: A005893, A005894; sve: A299255, A299261; svh: A299283, A299284; svj: A299254, A299260; svk: A010001, A063489; tca: A299285, A299286; tcd: A299287, A299288; tfs: A005899, A001845; tsi: A299289, A299290; ttw: A299257, A299263; ubt: A299291, A299292; bnn: A007899, A007202. See the Proserpio link in A299266 for overview."
			],
			"keyword": "nonn,easy",
			"offset": "0,2",
			"author": "_N. J. A. Sloane_, Feb 07 2018",
			"references": 51,
			"revision": 9,
			"time": "2018-02-12T12:34:55-05:00",
			"created": "2018-02-07T15:44:10-05:00"
		}
	]
}