{
	"greeting": "Greetings from The On-Line Encyclopedia of Integer Sequences! http://oeis.org/",
	"query": "id:A299315",
	"count": 1,
	"start": 0,
	"results": [
		{
			"number": 299315,
			"data": "1,1,15,12,1306,44381,7885194,3745566028,4909629881306",
			"name": "Number of n X n 0..1 arrays with every element equal to 0, 3, 4, 5, 6 or 7 king-move adjacent elements, with upper left element zero.",
			"comment": [
				"Diagonal of A299321."
			],
			"example": [
				"Some solutions for n=5",
				"..0..0..0..0..1. .0..0..0..1..1. .0..1..1..1..1. .0..0..1..1..1",
				"..0..0..0..0..0. .0..0..0..1..1. .1..1..1..1..1. .0..0..1..1..1",
				"..1..0..1..0..0. .0..0..1..1..0. .0..1..0..1..0. .0..0..0..1..1",
				"..0..0..0..0..0. .0..0..0..1..1. .1..1..1..1..1. .0..0..0..0..0",
				"..0..0..0..0..1. .1..0..0..1..1. .1..1..1..1..1. .1..0..1..0..0"
			],
			"xref": [
				"Cf. A299321."
			],
			"keyword": "nonn",
			"offset": "1,3",
			"author": "_R. H. Hardin_, Feb 06 2018",
			"references": 0,
			"revision": 6,
			"time": "2020-06-15T14:25:25-04:00",
			"created": "2018-02-06T13:45:12-05:00"
		}
	]
}