{
	"greeting": "Greetings from The On-Line Encyclopedia of Integer Sequences! http://oeis.org/",
	"query": "id:A299159",
	"count": 1,
	"start": 0,
	"results": [
		{
			"number": 299159,
			"data": "1,2,5,15,32,42,60,110,120,152,215,242,260,315,357,390,392,425,470,495,560,732,735,840,1055,1082,1127,1275,1307,1352,1457,1562,1590,1755,1782,1797,1887,1925,1967,2055,2112,2132,2150,2175,2205,2360,2387,2472,2517,2567,2667,2717,2822,2882,2930,2945",
			"name": "Numbers k such that 4*k-1, 6*k-1 and 12*k-1 are prime.",
			"link": [
				"Robert Israel, \u003ca href=\"/A299159/b299159.txt\"\u003eTable of n, a(n) for n = 1..10000\u003c/a\u003e"
			],
			"maple": [
				"select(j -\u003e isprime(4*j-1) and isprime(6*j-1) and isprime(12*j-1), [$1..10000]);"
			],
			"mathematica": [
				"Select[Range[3000], And@@PrimeQ/@({4, 6, 12} # - 1) \u0026] (* _Vincenzo Librandi_, Feb 04 2018 *)"
			],
			"program": [
				"(MAGMA) [n: n in [0..3000] |IsPrime(4*n-1) and IsPrime(6*n-1) and IsPrime(12*n-1)]; // _Vincenzo Librandi_, Feb 04 2018"
			],
			"xref": [
				"Cf. A299068."
			],
			"keyword": "nonn",
			"offset": "1,2",
			"author": "_Robert Israel_, Feb 04 2018",
			"references": 2,
			"revision": 11,
			"time": "2018-02-05T02:55:59-05:00",
			"created": "2018-02-04T03:30:59-05:00"
		}
	]
}