{
	"greeting": "Greetings from The On-Line Encyclopedia of Integer Sequences! http://oeis.org/",
	"query": "id:A299991",
	"count": 1,
	"start": 0,
	"results": [
		{
			"number": 299991,
			"data": "30,42,60,66,70,74,78,82,84,86,90,94,98,102,106,110,114,118,120,122,126,130,132,134,138,140,142,146,150,154,156,158,162,165,166,168,170,174,178,180,182,186,190,194,195,198,202,204,206,210,214,218,220,222,226",
			"name": "Numbers n for which A243822(n) \u003e A000005(n).",
			"comment": [
				"Composite numbers m have nondivisors k in the cototient such that k | n^e with e \u003e 1. These k appear in row n of A272618 and are enumerated by A243822(n). These nondivisors k are a kind of \"regular\" number along with divisors d of n; both are listed in row n of A162306 and are together enumerated by A010846(n).",
				"This sequence lists numbers that have more nondivisors k in the cototient of n than divisors d.",
				"This sequence contains all n for which A299990(n) is positive.",
				"The smallest odd term is 165.",
				"For m \u003e= 3, A002110(m) is in a(n).",
				"For m \u003e= 9, A244052(m) is in a(n)."
			],
			"link": [
				"Michael De Vlieger, \u003ca href=\"/A299991/b299991.txt\"\u003eTable of n, a(n) for n = 1..10000\u003c/a\u003e"
			],
			"example": [
				"30 is the first term since it is the smallest number for which A243822(n) \u003e A000005(n), alternatively, for which A010846(n) \u003e 2*A000005(n)."
			],
			"mathematica": [
				"Select[Range@ 226, Function[n, Count[Range[n], _?(PowerMod[n, Floor@ Log2@ n, #] == 0 \u0026)] \u003e 2 DivisorSigma[0, n]]]"
			],
			"xref": [
				"Cf. A000005, A002110, A010846, A162306, A243822, A272618, A299990."
			],
			"keyword": "nonn",
			"offset": "1,1",
			"author": "_Michael De Vlieger_, Feb 25 2018",
			"references": 6,
			"revision": 7,
			"time": "2018-02-27T10:38:06-05:00",
			"created": "2018-02-26T11:26:14-05:00"
		}
	]
}