{
	"greeting": "Greetings from The On-Line Encyclopedia of Integer Sequences! http://oeis.org/",
	"query": "id:A299615",
	"count": 1,
	"start": 0,
	"results": [
		{
			"number": 299615,
			"data": "1,4,1,9,7,4,8,7,9,2,4,2,3,5,0,9,3,6,4,3,4,6,4,4,1,0,7,6,9,0,5,6,7,3,0,1,6,6,5,2,2,6,9,0,8,7,3,3,7,9,1,6,0,1,6,9,0,7,2,3,8,4,7,3,8,7,5,5,6,0,8,5,8,7,6,0,9,4,7,6,1,1,5,8,9,7",
			"name": "Decimal expansion of W(1) + W(2), where w is the Lambert W function (or PowerLog); see Comments.",
			"comment": [
				"The Lambert W function satisfies the functional equations W(x) + W(y) = W(x*y(1/W(x) + 1/W(y)) = log(x*y)/(W(x)*W(y)) for x and y greater than -1/e, so that W(1) + W(2) = W(2/W(1) + 2/W(2)) = log(2) - log(W(1)) - log(W(2))  See A299613 for a guide to related sequences."
			],
			"link": [
				"G. C. Greubel, \u003ca href=\"/A299615/b299615.txt\"\u003eTable of n, a(n) for n = 1..10000\u003c/a\u003e",
				"Eric Weisstein's World of Mathematics, \u003ca href=\"http://mathworld.wolfram.com/LambertW-Function.html\"\u003eLambert W-Function\u003c/a\u003e"
			],
			"example": [
				"W(1) + W(2) = 1.41974879242350936434644..."
			],
			"mathematica": [
				"w[x_] := ProductLog[x]; x = 1; y = 2; u = N[w[x] + w[y], 100]",
				"RealDigits[u, 10][[1]]  (* A299615 *)",
				"RealDigits[LambertW[1] + LambertW[2], 10, 100][[1]] (* _G. C. Greubel_, Mar 03 2018 *)"
			],
			"program": [
				"(PARI) lambertw(1) + lambertw(2) \\\\ _G. C. Greubel_, Mar 03 2018"
			],
			"xref": [
				"Cf. A299613, A299616."
			],
			"keyword": "nonn,cons,easy",
			"offset": "1,2",
			"author": "_Clark Kimberling_, Mar 01 2018",
			"references": 3,
			"revision": 8,
			"time": "2018-03-04T04:11:45-05:00",
			"created": "2018-03-01T14:55:27-05:00"
		}
	]
}