{
	"greeting": "Greetings from The On-Line Encyclopedia of Integer Sequences! http://oeis.org/",
	"query": "id:A299107",
	"count": 1,
	"start": 0,
	"results": [
		{
			"number": 299107,
			"data": "5,19,71,3691,191861,138907099,26947261171,436315574686414344004975231616076636245689199862837798457639364993981991744926792179",
			"name": "Probable primes in sequence {s_k(4)}, where s_k(4) = 4*s_{k-1}(4) - s_{k-2}(4), k \u003e= 2, s_0(4) = 1, s_1(4) = 5.",
			"comment": [
				"From a problem in A269254. For detailed theory, see [Hone].",
				"Subsequent terms have too many digits to display."
			],
			"link": [
				"Andrew N. W. Hone, et al., \u003ca href=\"https://arxiv.org/abs/1802.01793\"\u003eOn a family of sequences related to Chebyshev polynomials\u003c/a\u003e, arXiv:1802.01793 [math.NT], 2018."
			],
			"formula": [
				"a(n) = s_{A299100(n)}(4) = A001834(A299100(n))."
			],
			"xref": [
				"A269254, A001834, A294099 (row 4),",
				"Cf. A285992, A299107, A299109, A088165, A117522, A299100, A299101, A113501, A269253, A298675, A298677, A298878, A299045, A299071, A086386."
			],
			"keyword": "nonn,hard,more",
			"offset": "1,1",
			"author": "_L. Edson Jeffery_, _Bob Selcoe_ and _Andrew Hone_, Feb 02 2018",
			"references": 15,
			"revision": 21,
			"time": "2018-02-20T12:25:16-05:00",
			"created": "2018-02-03T12:43:20-05:00"
		}
	]
}