{
	"greeting": "Greetings from The On-Line Encyclopedia of Integer Sequences! http://oeis.org/",
	"query": "id:A299896",
	"count": 1,
	"start": 0,
	"results": [
		{
			"number": 299896,
			"data": "1,4,8,14,21,34,53,71,90,108,133,161,198,248,286,317,349,395,446,514,585,640,688,735,817,889,975,1052,1115,1177,1260,1365,1465,1550,1640,1744,1833,1951,2086,2195,2282,2356,2502,2625,2763,2909,3025",
			"name": "Coordination sequence for \"bar\" 3D tiling with respect to second type of node.",
			"comment": [
				"First 127 terms computed by _Davide M. Proserpio_ using ToposPro.",
				"For this sequence there is not even a conjectured g.f."
			],
			"link": [
				"Davide M. Proserpio, \u003ca href=\"/A299896/b299896.txt\"\u003eTable of n, a(n) for n = 0..127\u003c/a\u003e",
				"V. A. Blatov, A. P. Shevchenko, D. M. Proserpio, \u003ca href=\"http://pubs.acs.org/doi/pdf/10.1021/cg500498k\"\u003eApplied Topological Analysis of Crystal Structures with the Program Package ToposPro\u003c/a\u003e, Cryst. Growth Des. 2014, 14, 3576-3586.",
				"Reticular Chemistry Structure Resource (RCSR), \u003ca href=\"http://rcsr.net/nets/bar\"\u003eThe bar tiling (or net)\u003c/a\u003e"
			],
			"xref": [
				"Cf. A299894 (first type), A299897 (partial sums)."
			],
			"keyword": "nonn",
			"offset": "0,2",
			"author": "_N. J. A. Sloane_, Feb 21 2018",
			"references": 3,
			"revision": 13,
			"time": "2018-02-22T10:21:33-05:00",
			"created": "2018-02-21T21:40:09-05:00"
		}
	]
}