{
	"greeting": "Greetings from The On-Line Encyclopedia of Integer Sequences! http://oeis.org/",
	"query": "id:A299876",
	"count": 1,
	"start": 0,
	"results": [
		{
			"number": 299876,
			"data": "16,73,102,585,3068,11263,53159,246537,1098723,5019660,22917571,104989861,479576859,2190011558,10043013903,45967831277,210240594170,963216934915,4411537777349,20194722945604,92489561346114",
			"name": "Number of nX5 0..1 arrays with every element equal to 0, 1, 2, 4, 5, 7 or 8 king-move adjacent elements, with upper left element zero.",
			"comment": [
				"Column 5 of A299879."
			],
			"link": [
				"R. H. Hardin, \u003ca href=\"/A299876/b299876.txt\"\u003eTable of n, a(n) for n = 1..210\u003c/a\u003e"
			],
			"example": [
				"Some solutions for n=5",
				"..0..1..0..1..0. .0..1..1..0..1. .0..1..0..0..0. .0..1..0..1..0",
				"..0..0..0..1..1. .0..0..1..0..0. .1..1..0..1..0. .0..1..0..0..0",
				"..0..0..0..0..0. .0..0..0..0..0. .0..0..0..0..0. .1..0..0..0..0",
				"..0..0..1..1..0. .1..0..1..1..0. .1..0..1..1..1. .1..0..0..0..1",
				"..0..1..1..1..1. .0..0..1..0..0. .0..1..0..0..0. .1..0..1..0..1"
			],
			"xref": [
				"Cf. A299879."
			],
			"keyword": "nonn",
			"offset": "1,1",
			"author": "_R. H. Hardin_, Feb 21 2018",
			"references": 1,
			"revision": 4,
			"time": "2018-02-21T11:49:47-05:00",
			"created": "2018-02-21T11:49:47-05:00"
		}
	]
}