{
	"greeting": "Greetings from The On-Line Encyclopedia of Integer Sequences! http://oeis.org/",
	"query": "id:A299842",
	"count": 1,
	"start": 0,
	"results": [
		{
			"number": 299842,
			"data": "32,1841,30535,664377,14831535,325878154,7216925214,160460196001,3565906147902,79255908181392,1762054243512316,39176135133557632,871006798482982450,19365460655748184716,430563276032234307086",
			"name": "Number of nX6 0..1 arrays with every element equal to 0, 1, 2, 3, 4, 7 or 8 king-move adjacent elements, with upper left element zero.",
			"comment": [
				"Column 6 of A299844."
			],
			"link": [
				"R. H. Hardin, \u003ca href=\"/A299842/b299842.txt\"\u003eTable of n, a(n) for n = 1..210\u003c/a\u003e"
			],
			"example": [
				"Some solutions for n=5",
				"..0..1..0..0..0..1. .0..1..1..1..0..0. .0..0..1..1..0..0. .0..0..1..0..0..1",
				"..0..0..1..0..0..0. .0..0..1..0..1..0. .0..0..1..0..0..1. .0..0..1..0..1..1",
				"..0..1..1..1..1..1. .0..0..1..0..1..0. .0..1..1..0..1..1. .0..1..1..0..0..1",
				"..0..1..0..0..0..1. .0..1..1..0..1..0. .0..1..0..0..1..0. .0..1..0..0..1..0",
				"..0..1..0..1..0..0. .0..1..0..1..0..1. .0..1..1..0..0..1. .0..0..1..1..0..0"
			],
			"xref": [
				"Cf. A299844."
			],
			"keyword": "nonn",
			"offset": "1,1",
			"author": "_R. H. Hardin_, Feb 20 2018",
			"references": 1,
			"revision": 4,
			"time": "2018-02-20T08:23:01-05:00",
			"created": "2018-02-20T08:23:01-05:00"
		}
	]
}