{
	"greeting": "Greetings from The On-Line Encyclopedia of Integer Sequences! http://oeis.org/",
	"query": "id:A299019",
	"count": 1,
	"start": 0,
	"results": [
		{
			"number": 299019,
			"data": "1,-2,-2,2,3,6,-1,-2,-10,-14,-7,-2,11,26,43,30,28,-6,-40,-92,-128,-132,-115,-48,54,200,339,484,499,476,274,-32,-501,-998,-1539,-1924,-2042,-1838,-1139,12,1664,3540,5588,7258,8392,8230,6812,3480,-1472,-8150,-15737,-23670,-30478",
			"name": "Expansion of Product_{k\u003e=1} (1 - x^k)^(k+1).",
			"comment": [
				"Convolution of A010815 and A073592.",
				"Convolution inverse of A005380."
			],
			"formula": [
				"G.f.: exp(-Sum_{k\u003e=1} (sigma_1(k) + sigma_2(k))*x^k/k)."
			],
			"mathematica": [
				"nmax = 52; CoefficientList[Series[Product[(1 - x^k)^(k + 1), {k, 1, nmax}], {x, 0, nmax}], x]",
				"nmax = 52; CoefficientList[Series[Exp[-Sum[(DivisorSigma[1, k] + DivisorSigma[2, k]) x^k/k, {k, 1, nmax}]], {x, 0, nmax}], x]",
				"a[n_] := a[n] = If[n == 0, 1, -Sum[Sum[d (d + 1), {d, Divisors[k]}] a[n - k], {k, 1, n}]/n]; Table[a[n], {n, 0, 52}]"
			],
			"xref": [
				"Cf. A005380, A010815, A073592, A092346."
			],
			"keyword": "sign",
			"offset": "0,2",
			"author": "_Ilya Gutkovskiy_, Aug 11 2018",
			"references": 1,
			"revision": 22,
			"time": "2018-08-11T21:57:00-04:00",
			"created": "2018-08-11T21:57:00-04:00"
		}
	]
}