{
	"greeting": "Greetings from The On-Line Encyclopedia of Integer Sequences! http://oeis.org/",
	"query": "id:A299217",
	"count": 1,
	"start": 0,
	"results": [
		{
			"number": 299217,
			"data": "1,37,81,427,2338,13458,84948,543741,3534493,23192676,152386263,1003140993,6609135301,43551719814,287046844098,1892053858627,12471668276710,82210001337166,541910867484011,3572172049448373",
			"name": "Number of nX4 0..1 arrays with every element equal to 0, 2, 3, 4, 6 or 7 king-move adjacent elements, with upper left element zero.",
			"comment": [
				"Column 4 of A299221."
			],
			"link": [
				"R. H. Hardin, \u003ca href=\"/A299217/b299217.txt\"\u003eTable of n, a(n) for n = 1..210\u003c/a\u003e",
				"R. H. Hardin, \u003ca href=\"/A299217/a299217.txt\"\u003eEmpirical recurrence of order 66\u003c/a\u003e"
			],
			"formula": [
				"Empirical recurrence of order 66 (see link above)"
			],
			"example": [
				"Some solutions for n=5",
				"..0..1..1..1. .0..1..1..0. .0..1..0..1. .0..0..0..1. .0..1..1..0",
				"..0..0..1..0. .1..1..0..0. .1..1..0..0. .1..0..1..1. .1..1..1..1",
				"..0..1..1..1. .1..0..0..1. .1..1..0..0. .1..1..0..1. .1..1..1..0",
				"..0..1..0..0. .1..0..0..0. .0..0..1..1. .0..1..0..1. .0..0..1..1",
				"..0..0..0..1. .1..1..0..0. .0..0..1..0. .0..0..1..1. .0..1..1..1"
			],
			"xref": [
				"Cf. A299221."
			],
			"keyword": "nonn",
			"offset": "1,2",
			"author": "_R. H. Hardin_, Feb 05 2018",
			"references": 2,
			"revision": 4,
			"time": "2018-02-05T12:47:30-05:00",
			"created": "2018-02-05T12:47:30-05:00"
		}
	]
}