{
	"greeting": "Greetings from The On-Line Encyclopedia of Integer Sequences! http://oeis.org/",
	"query": "id:A299655",
	"count": 1,
	"start": 0,
	"results": [
		{
			"number": 299655,
			"data": "1,8,227,22087,7411398,8607101770,34546300829517,478911551660693464,22930235691929943217996",
			"name": "Number of n X n 0..1 arrays with every element equal to 0, 1, 2, 3, 4, 5 or 7 king-move adjacent elements, with upper left element zero.",
			"comment": [
				"Diagonal of A299661."
			],
			"example": [
				"Some solutions for n=5",
				"..0..0..0..0..0. .0..0..0..0..0. .0..0..0..0..0. .0..0..0..0..0",
				"..0..1..0..1..0. .0..1..0..0..1. .0..0..0..0..0. .0..0..1..1..1",
				"..1..0..1..1..1. .0..1..1..1..1. .0..0..1..0..0. .1..1..1..1..0",
				"..0..0..0..1..1. .0..0..0..1..0. .1..1..1..0..1. .0..0..0..0..1",
				"..1..0..0..0..0. .1..0..1..0..1. .0..1..0..0..1. .0..1..0..0..0"
			],
			"xref": [
				"Cf. A299661."
			],
			"keyword": "nonn",
			"offset": "1,2",
			"author": "_R. H. Hardin_, Feb 15 2018",
			"references": 0,
			"revision": 6,
			"time": "2020-06-15T14:49:57-04:00",
			"created": "2018-02-15T14:45:03-05:00"
		}
	]
}