{
	"greeting": "Greetings from The On-Line Encyclopedia of Integer Sequences! http://oeis.org/",
	"query": "id:A299693",
	"count": 1,
	"start": 0,
	"results": [
		{
			"number": 299693,
			"data": "1,3,4,7,6,0,12,8,15,13,18,12,0,28,14,24,0,24,31,18,39,20,0,42,32,36,24,0,60,31,42,40,0,56,30,0,72,32,63,48,54,0,48,91,38,60,56,0,90,42,0,96,44,84,0,78,72,48,0,124,57,93,72,98,54,0,120,72,0,120,80,90,60,0,168,62,96,0,104,127,84,0",
			"name": "Irregular triangle read by rows in which row n lists the total sum of the divisors of all numbers k such that the largest Dyck path of the symmetric representation of sigma(k) contains the point (n,n); or row n is 0 if no such k exists.",
			"formula": [
				"T(n,m) = A000203(A279385(n,m) if A279385(n,m) \u003e 0, otherwise T(n,m) = 0."
			],
			"example": [
				"Triangle begins:",
				"   1;",
				"   3,  4;",
				"   7,  6;",
				"   0;",
				"  12,  8;",
				"  15;",
				"  13, 18, 12;",
				"   0;",
				"  28, 14, 24;",
				"   0;",
				"  24;",
				"  31, 18;",
				"  39, 20;",
				"   0;",
				"  42, 32, 36, 24;",
				"   0;",
				"..."
			],
			"xref": [
				"Nonzero terms give A000203.",
				"Row sums give A299472.",
				"Cf. A259179(n) is the number of positive terms in row n.",
				"Cf. A071562, A196020, A235791, A236104, A237048, A237591, A237593, A240542, A244050, A245092, A276112, A277437, A279286, A279385, A280919, A280223, A282131, A282197, A280295, A281012."
			],
			"keyword": "nonn,tabf",
			"offset": "1,2",
			"author": "_Omar E. Pol_, Feb 19 2018",
			"references": 1,
			"revision": 22,
			"time": "2018-06-24T11:23:03-04:00",
			"created": "2018-06-24T11:23:03-04:00"
		}
	]
}