{
	"greeting": "Greetings from The On-Line Encyclopedia of Integer Sequences! http://oeis.org/",
	"query": "id:A299677",
	"count": 1,
	"start": 0,
	"results": [
		{
			"number": 299677,
			"data": "4,13,20,45,147,506,1561,5017,16429,53365,172859,562276,1828820,5943264,19318649,62811656,204197935,663816782,2158064264,7015860029,22808258862,74148897744,241056311862,783667226084,2547678766746,8282432122501",
			"name": "Number of nX3 0..1 arrays with every element equal to 0, 1, 2, 4, 5, 6 or 7 king-move adjacent elements, with upper left element zero.",
			"comment": [
				"Column 3 of A299682."
			],
			"link": [
				"R. H. Hardin, \u003ca href=\"/A299677/b299677.txt\"\u003eTable of n, a(n) for n = 1..210\u003c/a\u003e"
			],
			"formula": [
				"Empirical: a(n) = 4*a(n-1) -2*a(n-2) +4*a(n-3) -16*a(n-4) -13*a(n-5) +12*a(n-6) +40*a(n-7) +23*a(n-8) -37*a(n-9) +15*a(n-10) -88*a(n-11) +52*a(n-12) -48*a(n-13) +49*a(n-14) -8*a(n-15) +20*a(n-16) for n\u003e17"
			],
			"example": [
				"Some solutions for n=5",
				"..0..0..1. .0..0..1. .0..1..0. .0..1..0. .0..1..0. .0..1..0. .0..0..1",
				"..0..1..1. .1..1..0. .0..1..1. .0..1..0. .0..0..0. .1..0..1. .1..1..1",
				"..0..0..0. .0..1..1. .1..1..1. .0..1..0. .0..0..0. .0..0..1. .0..1..1",
				"..0..0..1. .0..1..1. .0..0..1. .0..1..0. .1..0..0. .0..0..1. .0..1..1",
				"..0..1..1. .1..0..1. .0..1..1. .0..1..0. .1..1..0. .1..0..1. .0..1..0"
			],
			"xref": [
				"Cf. A299682."
			],
			"keyword": "nonn",
			"offset": "1,1",
			"author": "_R. H. Hardin_, Feb 16 2018",
			"references": 1,
			"revision": 4,
			"time": "2018-02-16T07:33:08-05:00",
			"created": "2018-02-16T07:33:08-05:00"
		}
	]
}