{
	"greeting": "Greetings from The On-Line Encyclopedia of Integer Sequences! http://oeis.org/",
	"query": "id:A300715",
	"count": 1,
	"start": 0,
	"results": [
		{
			"number": 300715,
			"data": "1,0,0,0,0,0,0,0,0,0,0,0,0,2,0,0,0,3,0,0,0,4,3,0,0,7,6,0,0,14,10,4,0,22,20,10,0,32,39,20,0,49,70,42,0,12,116,88,0,128,156,174,11,207,3,320,0,333,551,575,0,555,914,0,0,959,1502,1829,44,1691,2486,3192,0,3000,4172,4005",
			"name": "Number of compositions (ordered partitions) of n into squares that do not divide n.",
			"link": [
				"Alois P. Heinz, \u003ca href=\"/A300715/b300715.txt\"\u003eTable of n, a(n) for n = 0..5000\u003c/a\u003e",
				"\u003ca href=\"/index/Com#comp\"\u003eIndex entries for sequences related to compositions\u003c/a\u003e",
				"\u003ca href=\"/index/Su#ssq\"\u003eIndex entries for sequences related to sums of squares\u003c/a\u003e"
			],
			"example": [
				"a(21) = 4 because we have [9, 4, 4, 4], [4, 9, 4, 4], [4, 4, 9, 4] and [4, 4, 4, 9]."
			],
			"maple": [
				"a:= proc(m) option remember; local b; b:= proc(n) option",
				"      remember; `if`(n=0, 1, add((s-\u003e`if`(s\u003en or irem(m, s)",
				"       =0, 0, b(n-s)))(j^2), j=2..isqrt(n))) end; b(m)",
				"    end:",
				"seq(a(n), n=0..100);  # _Alois P. Heinz_, Mar 11 2018"
			],
			"mathematica": [
				"Table[SeriesCoefficient[1/(1 - Sum[Boole[Mod[n, k] != 0 \u0026\u0026 IntegerQ[k^(1/2)]] x^k, {k, 1, n}]), {x, 0, n}], {n, 0, 75}]"
			],
			"xref": [
				"Cf. A000290, A006456, A294105, A294265, A294266, A300702, A300703, A300704, A300706."
			],
			"keyword": "nonn",
			"offset": "0,14",
			"author": "_Ilya Gutkovskiy_, Mar 11 2018",
			"references": 1,
			"revision": 10,
			"time": "2018-03-15T19:23:57-04:00",
			"created": "2018-03-11T17:19:44-04:00"
		}
	]
}