{
	"greeting": "Greetings from The On-Line Encyclopedia of Integer Sequences! http://oeis.org/",
	"query": "id:A300687",
	"count": 1,
	"start": 0,
	"results": [
		{
			"number": 300687,
			"data": "5,307,7187,150558,3179333,67479838,1431755828,30366081812,643942334598,13656056835393,289603801565185,6141624884160687,130245342969245790,2762110283944810229,58576019807838267185,1242220527820363713104",
			"name": "Number of nX6 0..1 arrays with every element equal to 1, 2, 3 or 6 horizontally, vertically or antidiagonally adjacent elements, with upper left element zero.",
			"comment": [
				"Column 6 of A300689."
			],
			"link": [
				"R. H. Hardin, \u003ca href=\"/A300687/b300687.txt\"\u003eTable of n, a(n) for n = 1..210\u003c/a\u003e"
			],
			"example": [
				"Some solutions for n=5",
				"..0..0..0..1..0..1. .0..0..0..0..1..1. .0..0..0..0..1..0. .0..0..0..0..1..0",
				"..0..1..1..0..0..1. .0..1..0..1..0..1. .0..1..0..1..0..1. .0..1..0..1..0..0",
				"..0..0..1..1..0..0. .0..1..1..1..0..1. .0..1..1..0..1..0. .0..1..0..1..0..1",
				"..0..1..0..1..0..0. .0..0..0..1..0..0. .0..0..1..1..1..0. .0..1..0..0..1..0",
				"..1..0..0..1..1..1. .1..1..0..1..0..0. .1..1..0..0..1..0. .1..0..1..1..0..0"
			],
			"xref": [
				"Cf. A300689."
			],
			"keyword": "nonn",
			"offset": "1,1",
			"author": "_R. H. Hardin_, Mar 11 2018",
			"references": 1,
			"revision": 4,
			"time": "2018-03-11T08:49:57-04:00",
			"created": "2018-03-11T08:49:57-04:00"
		}
	]
}