{
	"greeting": "Greetings from The On-Line Encyclopedia of Integer Sequences! http://oeis.org/",
	"query": "id:A300421",
	"count": 1,
	"start": 0,
	"results": [
		{
			"number": 300421,
			"data": "1,3,10,30,96,307,981,3137,10034,32096,102669,328423,1050581,3360673,10750367,34389071,110006322,351896433,1125672593,3600885592,11518781894,36847140260,117869385707,377049398986,1206133793206,3858270908444",
			"name": "Number of n X 2 0..1 arrays with every element equal to 1, 2 or 3 horizontally, vertically or antidiagonally adjacent elements, with upper left element zero.",
			"comment": [
				"Column 2 of A300427."
			],
			"link": [
				"R. H. Hardin, \u003ca href=\"/A300421/b300421.txt\"\u003eTable of n, a(n) for n = 1..210\u003c/a\u003e",
				"Simon Plouffe, \u003ca href=\"http://vixra.org/abs/1409.0048\"\u003e Conjectures of the OEIS, as of June 20, 2018.\u003c/a\u003e"
			],
			"formula": [
				"Empirical: a(n) = 3*a(n-1) + a(n-2) - 3*a(n-4) - 2*a(n-5) - a(n-6) for n \u003e 7.",
				"Empirical g.f.: -x*(-x^6+x^4+3*x^3-1)/(x^6+2*x^5+3*x^4-x^2-3*x+1). - _Simon Plouffe_, Jun 20 2018"
			],
			"example": [
				"Some solutions for n=5:",
				"  0 1   0 1   0 0   0 0   0 1   0 0   0 0   0 0   0 1   0 0",
				"  0 1   0 1   0 1   1 1   0 1   0 1   1 0   1 1   0 1   0 0",
				"  0 0   1 0   0 1   1 1   0 0   1 0   1 1   0 0   1 0   1 1",
				"  1 1   0 1   1 0   0 1   0 1   0 1   0 0   0 0   1 0   0 1",
				"  0 0   1 1   0 0   0 0   0 1   1 1   1 1   1 1   1 1   0 0"
			],
			"xref": [
				"Cf. A300427."
			],
			"keyword": "nonn",
			"offset": "1,2",
			"author": "_R. H. Hardin_, Mar 05 2018",
			"references": 4,
			"revision": 14,
			"time": "2018-06-21T05:43:06-04:00",
			"created": "2018-03-05T14:36:00-05:00"
		}
	]
}