{
	"greeting": "Greetings from The On-Line Encyclopedia of Integer Sequences! http://oeis.org/",
	"query": "id:A300400",
	"count": 1,
	"start": 0,
	"results": [
		{
			"number": 300400,
			"data": "2,24,246,2491,25009,249940,2499751,25000026,249997694,2499999305,24999974939,249999962302",
			"name": "a(n) = number of primes that end in 9 among the first 10^n primes.",
			"link": [
				"Caldwell and Honaker, \u003ca href=\"https://primes.utm.edu/curios/page.php/2499751.html\"\u003ePrime Curios!\u003c/a\u003e"
			],
			"formula": [
				"a(n) = A185715(A006988(n)). - _Michel Marcus_, Mar 20 2018"
			],
			"example": [
				"a(1) = 2 because the first 10 primes are 2, 3, 5, 7, 11, 13, 17, 19, 23, 29, among which there are two primes ending in 9."
			],
			"program": [
				"(PARI) a(n) = #select(x-\u003e((x % 10) == 9), primes(10^n)); \\\\ _Michel Marcus_, Mar 07 2018"
			],
			"xref": [
				"Cf. A006988, A030433, A185715, A300397, A300398, A300399."
			],
			"keyword": "nonn,base,more",
			"offset": "1,1",
			"author": "_G. L. Honaker, Jr._, Mar 05 2018",
			"ext": [
				"a(3)-a(8) from Chuck Gaydos",
				"a(9) from _Jon E. Schoenfield_, Mar 20 2018",
				"a(10)-a(12) from _Giovanni Resta_, Mar 27 2018"
			],
			"references": 3,
			"revision": 25,
			"time": "2018-03-27T05:54:56-04:00",
			"created": "2018-03-27T05:54:56-04:00"
		}
	]
}