{
	"greeting": "Greetings from The On-Line Encyclopedia of Integer Sequences! http://oeis.org/",
	"query": "id:A300877",
	"count": 1,
	"start": 0,
	"results": [
		{
			"number": 300877,
			"data": "8,50,148,589,2264,8739,34693,138559,556973,2247619,9087826,36797650,149145738,604912470,2454539244,9962718432,40445652520,164218445897,666820225171,2707820511258,10996313658874,44656547438787",
			"name": "Number of nX4 0..1 arrays with every element equal to 0, 1, 2, 4 or 5 horizontally, vertically or antidiagonally adjacent elements, with upper left element zero.",
			"comment": [
				"Column 4 of A300881."
			],
			"link": [
				"R. H. Hardin, \u003ca href=\"/A300877/b300877.txt\"\u003eTable of n, a(n) for n = 1..210\u003c/a\u003e",
				"R. H. Hardin, \u003ca href=\"/A300877/a300877.txt\"\u003eEmpirical recurrence of order 97\u003c/a\u003e"
			],
			"formula": [
				"Empirical recurrence of order 97 (see link above)"
			],
			"example": [
				"Some solutions for n=5",
				"..0..1..0..0. .0..0..1..1. .0..1..0..1. .0..1..1..0. .0..1..1..0",
				"..0..0..1..1. .0..1..0..1. .1..1..1..0. .0..0..1..0. .1..0..0..1",
				"..1..1..0..1. .1..0..1..0. .0..1..1..1. .1..1..0..1. .0..1..1..1",
				"..0..0..1..0. .0..1..0..1. .0..1..0..0. .0..0..1..0. .1..0..1..1",
				"..1..1..0..0. .0..1..1..0. .1..1..0..1. .1..1..0..0. .0..1..0..0"
			],
			"xref": [
				"Cf. A300881."
			],
			"keyword": "nonn",
			"offset": "1,1",
			"author": "_R. H. Hardin_, Mar 14 2018",
			"references": 1,
			"revision": 4,
			"time": "2018-03-14T07:18:00-04:00",
			"created": "2018-03-14T07:18:00-04:00"
		}
	]
}