{
	"greeting": "Greetings from The On-Line Encyclopedia of Integer Sequences! http://oeis.org/",
	"query": "id:A300277",
	"count": 1,
	"start": 0,
	"results": [
		{
			"number": 300277,
			"data": "1,2,5,11,24,48,96,184,348,645,1169,2140,3761,6687,11645,20326,34635,59854,100579,171211,285718,479325,791315,1318955,2156805,3553589,5783306,9445861,15250215,24759156,39713787,63991400,102197851,163548416,259744930,413761633,653715967",
			"name": "G.f.: 1 + Sum_{n\u003e=1} a(n)*x^n/(1 - x^n) = Product_{n\u003e=1} 1/(1 - n*x^n).",
			"comment": [
				"Moebius transform of A006906."
			],
			"link": [
				"Vaclav Kotesovec, \u003ca href=\"/A300277/b300277.txt\"\u003eTable of n, a(n) for n = 1..6000\u003c/a\u003e",
				"N. J. A. Sloane, \u003ca href=\"/transforms.txt\"\u003eTransforms\u003c/a\u003e"
			],
			"formula": [
				"a(n) = Sum_{d|n} mu(n/d)*A006906(d)."
			],
			"mathematica": [
				"nn = 37; f[x_] := 1 + Sum[a[n] x^n/(1 - x^n), {n, 1, nn}]; sol = SolveAlways[0 == Series[f[x] - Product[1/(1 - n x^n), {n, 1, nn}], {x, 0, nn}], x]; Table[a[n], {n, 1, nn}] /. sol // Flatten",
				"s[n_] := SeriesCoefficient[Product[1/(1 - k x^k), {k, 1, n}], {x, 0, n}]; a[n_] := Sum[MoebiusMu[n/d] s[d], {d, Divisors[n]}]; Table[a[n], {n, 1, 37}]"
			],
			"xref": [
				"Cf. A000837, A006906, A078374, A085410, A300274, A300275, A300276, A300278."
			],
			"keyword": "nonn",
			"offset": "1,2",
			"author": "_Ilya Gutkovskiy_, Mar 01 2018",
			"references": 6,
			"revision": 8,
			"time": "2021-06-07T13:22:45-04:00",
			"created": "2018-03-01T14:54:07-05:00"
		}
	]
}