{
	"greeting": "Greetings from The On-Line Encyclopedia of Integer Sequences! http://oeis.org/",
	"query": "id:A300572",
	"count": 1,
	"start": 0,
	"results": [
		{
			"number": 300572,
			"data": "1,2,12,52,75,90,98,150,338,528,560,722,867,912,1452,1456,1525,1734,1922,2064,2340,2890,3050,3120,3216,3698,4144,4950,5043,6348,6516,6804,7350,7824,8176,8880,9024,9920,10086,10128,10304,10443,10658,11340,11858,13584",
			"name": "Numbers k such that k and the sum of the divisors of k have the same prime signature.",
			"comment": [
				"2 is the only prime. - _Michel Marcus_, Mar 10 2018"
			],
			"link": [
				"Alois P. Heinz, \u003ca href=\"/A300572/b300572.txt\"\u003eTable of n, a(n) for n = 1..3000\u003c/a\u003e"
			],
			"formula": [
				"{ k | A046523(k) = A046523(A000203(k)) }."
			],
			"maple": [
				"s:= n-\u003e sort(map(i-\u003e i[2], ifactors(n)[2])):",
				"a:= proc(n) option remember; local k; for k from 1+",
				"      a(n-1) while s(k)\u003c\u003es(numtheory[sigma](k)) do od; k",
				"    end: a(0):=0:",
				"seq(a(n), n=1..60);"
			],
			"program": [
				"(PARI) isok(k) = vecsort(factor(k)[, 2]) == vecsort(factor(sigma(k))[, 2]); \\\\ _Michel Marcus_, Mar 10 2018"
			],
			"xref": [
				"Cf. A000203, A008578, A046523, A300216, A300573."
			],
			"keyword": "nonn",
			"offset": "1,2",
			"author": "_Alois P. Heinz_, Mar 08 2018",
			"references": 2,
			"revision": 13,
			"time": "2018-03-10T05:57:41-05:00",
			"created": "2018-03-09T20:04:00-05:00"
		}
	]
}