{
	"greeting": "Greetings from The On-Line Encyclopedia of Integer Sequences! http://oeis.org/",
	"query": "id:A300745",
	"count": 1,
	"start": 0,
	"results": [
		{
			"number": 300745,
			"data": "1,4,12,18,31,51,76,109,133,164,210,257,302,356,416,467,536,612,685,758,839,924,1029,1124,1194,1314,1439,1540,1651,1757,1892,2047,2164,2263,2457,2592,2707,2900,3067,3173,3386,3557,3698,3916,4089,4235",
			"name": "Coordination sequence T7 for Zeolite Code *BEA.",
			"link": [
				"R. W. Grosse-Kunstleve, \u003ca href=\"/A300745/b300745.txt\"\u003eTable of n, a(n) for n = 0..1000\u003c/a\u003e",
				"R. W. Grosse-Kunstleve, \u003ca href=\"/A005897/a005897.html\"\u003eCoordination Sequences and Encyclopedia of Integer Sequences\u003c/a\u003e",
				"R. W. Grosse-Kunstleve, G. O. Brunner and N. J. A. Sloane, \u003ca href=\"http://neilsloane.com/doc/ac96cs/\"\u003eAlgebraic Description of Coordination Sequences and Exact Topological Densities for Zeolites\u003c/a\u003e, Acta Cryst., A52 (1996), pp. 879-889.",
				"Sean A. Irvine, \u003ca href=\"/A008000/a008000_1.pdf\"\u003eGenerating Functions for Coordination Sequences of Zeolites, after Grosse-Kunstleve, Brunner, and Sloane\u003c/a\u003e",
				"International Zeolite Association, \u003ca href=\"http://www.iza-structure.org/databases/\"\u003eDatabase of Zeolite Structures\u003c/a\u003e"
			],
			"keyword": "nonn",
			"offset": "0,2",
			"author": "_Sean A. Irvine_, Mar 11 2018",
			"references": 1,
			"revision": 10,
			"time": "2018-04-08T16:04:10-04:00",
			"created": "2018-03-13T04:44:06-04:00"
		}
	]
}