{
	"greeting": "Greetings from The On-Line Encyclopedia of Integer Sequences! http://oeis.org/",
	"query": "id:A300738",
	"count": 1,
	"start": 0,
	"results": [
		{
			"number": 300738,
			"data": "0,0,3,4,5,9,7,4,12,25,22,25,39,49,68,100,119,144,209,289,367,484,644,841,1130,1521,1983,2601,3480,4624,6107,8100,10717,14161,18807,24964,33004,43681,57918,76729,101639,134689,178364,236196,313007,414736,549289",
			"name": "Number of minimal total dominating sets in the n-cycle graph.",
			"link": [
				"Andrew Howroyd, \u003ca href=\"/A300738/b300738.txt\"\u003eTable of n, a(n) for n = 1..1000\u003c/a\u003e",
				"Eric Weisstein's World of Mathematics, \u003ca href=\"http://mathworld.wolfram.com/CycleGraph.html\"\u003eCycle Graph\u003c/a\u003e",
				"Eric Weisstein's World of Mathematics, \u003ca href=\"http://mathworld.wolfram.com/TotalDominatingSet.html\"\u003eTotal Dominating Set\u003c/a\u003e",
				"\u003ca href=\"/index/Rec#order_09\"\u003eIndex entries for linear recurrences with constant coefficients\u003c/a\u003e, signature (0,0,1,1,1,1,0,-1,-1)."
			],
			"formula": [
				"a(n) = a(n-3) + a(n-4) + a(n-5) + a(n-6) - a(n-8) - a(n-9) for n \u003e 9.",
				"G.f.: x^2*(3 + 4*x + 5*x^2 + 6*x^3 - 8*x^5 - 9*x^6)/((1 - x^2 - x^3)*(1 + x^2 - x^6)).",
				"a(2*n) = A001608(n)^2.",
				"a(2*n-1) = A001608(2*n-1), where A001608 are the Perrin numbers."
			],
			"mathematica": [
				"Table[RootSum[-1 - # + #^3 \u0026, #^n \u0026] + (1 + (-1)^n) RootSum[-1 + #^2 + #^3 \u0026, #^(n/2) \u0026], {n, 20}]",
				"Perrin[n_] := RootSum[-1 - # + #^3 \u0026, #^n \u0026]; Table[With[{b = Mod[n, 2, 1]}, Perrin[n/b]^b], {n, 20}]",
				"LinearRecurrence[{0, 0, 1, 1, 1, 1, 0, -1, -1}, {0, 0, 3, 4, 5, 9, 7, 4, 12}, 20]",
				"CoefficientList[Series[x^2 (3 + 4 x + 5 x^2 + 6 x^3 - 8 x^5 - 9 x^6)/(1 - x^3 - x^4 - x^5 - x^6 + x^8 + x^9), {x, 0, 20}], x]"
			],
			"program": [
				"(PARI) concat([0,0], Vec((3 + 4*x + 5*x^2 + 6*x^3 - 8*x^5 - 9*x^6)/((1 - x^2 - x^3)*(1 + x^2 - x^6)) + O(x^50)))"
			],
			"xref": [
				"Cf. A001608, A001638 (total dominating sets), A253413, A302653, A302655, A302918."
			],
			"keyword": "nonn,easy",
			"offset": "1,3",
			"author": "_Andrew Howroyd_, Apr 15 2018",
			"references": 4,
			"revision": 28,
			"time": "2021-09-10T04:08:47-04:00",
			"created": "2018-04-15T21:50:56-04:00"
		}
	]
}