{
	"greeting": "Greetings from The On-Line Encyclopedia of Integer Sequences! http://oeis.org/",
	"query": "id:A300602",
	"count": 1,
	"start": 0,
	"results": [
		{
			"number": 300602,
			"data": "1,13,23,141,615,2394,11752,56417,267220,1288938,6174598,29660929,142473501,684767996,3289838593,15810180948,75973685362,365101919123,1754526797629,8431612710548,40519184505939,194720508520524",
			"name": "Number of nX5 0..1 arrays with every element equal to 0, 2, 3 or 5 horizontally, vertically or antidiagonally adjacent elements, with upper left element zero.",
			"comment": [
				"Column 5 of A300605."
			],
			"link": [
				"R. H. Hardin, \u003ca href=\"/A300602/b300602.txt\"\u003eTable of n, a(n) for n = 1..210\u003c/a\u003e"
			],
			"example": [
				"Some solutions for n=5",
				"..0..0..1..1..1. .0..0..1..0..0. .0..0..0..0..1. .0..1..1..0..1",
				"..0..1..1..0..1. .0..1..1..0..1. .0..1..0..0..0. .1..0..1..1..1",
				"..0..0..0..0..1. .0..0..1..0..0. .1..1..1..1..0. .1..1..0..0..0",
				"..1..1..1..1..0. .0..1..0..1..0. .0..0..1..1..0. .0..1..0..1..0",
				"..1..0..1..0..0. .1..1..0..0..0. .0..1..1..0..0. .1..1..0..0..0"
			],
			"xref": [
				"Cf. A300605."
			],
			"keyword": "nonn",
			"offset": "1,2",
			"author": "_R. H. Hardin_, Mar 09 2018",
			"references": 1,
			"revision": 4,
			"time": "2018-03-09T17:21:52-05:00",
			"created": "2018-03-09T17:21:52-05:00"
		}
	]
}