{
	"greeting": "Greetings from The On-Line Encyclopedia of Integer Sequences! http://oeis.org/",
	"query": "id:A300145",
	"count": 1,
	"start": 0,
	"results": [
		{
			"number": 300145,
			"data": "0,240,510,37739,913701,21602016,783899343,25183985328,731705422933,24145928730995,782705967561256,24287059815435142,779967263846099970,25085775450729557701,794088056276227934131,25351753054137053670219",
			"name": "Number of nX7 0..1 arrays with every element equal to 1, 3, 4, 5, 6, 7 or 8 king-move adjacent elements, with upper left element zero.",
			"comment": [
				"Column 7 of A300146."
			],
			"link": [
				"R. H. Hardin, \u003ca href=\"/A300145/b300145.txt\"\u003eTable of n, a(n) for n = 1..210\u003c/a\u003e"
			],
			"example": [
				"Some solutions for n=5",
				"..0..0..0..0..0..1..0. .0..0..1..0..0..0..1. .0..0..0..0..1..1..1",
				"..0..0..1..1..0..0..1. .0..0..0..1..0..1..0. .0..0..1..1..1..1..1",
				"..0..0..0..0..0..0..0. .0..0..0..0..0..1..1. .0..0..0..0..0..0..0",
				"..0..0..1..1..0..0..1. .0..1..1..0..1..1..1. .0..0..0..0..1..0..0",
				"..1..1..1..1..0..0..1. .0..1..1..1..1..0..0. .0..0..0..1..0..0..0"
			],
			"xref": [
				"Cf. A300146."
			],
			"keyword": "nonn",
			"offset": "1,2",
			"author": "_R. H. Hardin_, Feb 26 2018",
			"references": 1,
			"revision": 4,
			"time": "2018-02-26T08:10:50-05:00",
			"created": "2018-02-26T08:10:50-05:00"
		}
	]
}