{
	"greeting": "Greetings from The On-Line Encyclopedia of Integer Sequences! http://oeis.org/",
	"query": "id:A300409",
	"count": 1,
	"start": 0,
	"results": [
		{
			"number": 300409,
			"data": "1,1,1,2,1,1,1,2,1,2,1,2,1,1,1,2,1,1,2,3,1,1,1,2,1,1,1,2,1,2,2,2,1,1,1,2,1,2,1,3,1,1,1,2,1,2,1,2,1,2,1,2,1,1,1,2,2,1,1,3,1,2,1,3,1,1,1,2,1,2,1,2,1,1,1,3,1,1,1,3,1,1,1,2,2,1,1,2,1,2,1,3,2,1,2,2,1,1,1,3",
			"name": "Number of centered triangular numbers dividing n.",
			"link": [
				"Robert Israel, \u003ca href=\"/A300409/b300409.txt\"\u003eTable of n, a(n) for n = 1..10000\u003c/a\u003e",
				"Eric Weisstein's World of Mathematics, \u003ca href=\"http://mathworld.wolfram.com/CenteredTriangularNumber.html\"\u003eCentered Triangular Number\u003c/a\u003e",
				"\u003ca href=\"/index/Ce#CENTRALCUBE\"\u003eIndex entries for sequences related to centered polygonal numbers\u003c/a\u003e"
			],
			"formula": [
				"G.f.: Sum_{k\u003e=0} x^(3*k*(k+1)/2+1)/(1 - x^(3*k*(k+1)/2+1))."
			],
			"example": [
				"a(20) = 3 because 20 has 6 divisors {1, 2, 4, 5, 10, 20} among which 3 divisors {1, 4, 10} are centered triangular numbers."
			],
			"maple": [
				"N:= 100: # for a(1)..a(N)",
				"V:= Vector(N,1):",
				"for k from 1 do",
				"  m:= 3*k*(k+1)/2+1;",
				"  if m \u003e N then break fi;",
				"  r:= [seq(i,i=m..N,m)];",
				"  V[r]:= map(t-\u003et+1, V[r]);",
				"od:",
				"convert(V,list); # _Robert Israel_, Mar 05 2018"
			],
			"mathematica": [
				"nmax = 100; Rest[CoefficientList[Series[Sum[x^(3 k (k + 1)/2 + 1)/(1 - x^(3 k (k + 1)/2 + 1)), {k, 0, nmax}], {x, 0, nmax}], x]]"
			],
			"xref": [
				"Cf. A005448, A007862, A279495, A300410."
			],
			"keyword": "nonn",
			"offset": "1,4",
			"author": "_Ilya Gutkovskiy_, Mar 05 2018",
			"references": 4,
			"revision": 9,
			"time": "2018-03-06T02:50:18-05:00",
			"created": "2018-03-05T16:52:12-05:00"
		}
	]
}