{
	"greeting": "Greetings from The On-Line Encyclopedia of Integer Sequences! http://oeis.org/",
	"query": "id:A300266",
	"count": 1,
	"start": 0,
	"results": [
		{
			"number": 300266,
			"data": "64,3440,25034,412094,12622937,298472434,6717267728,162737578821,3942079842968,94361285192110,2267096616986688,54573852949272578,1312484927351655626,31563343981991328303,759236121487442954159",
			"name": "Number of nX7 0..1 arrays with every element equal to 0, 1, 2, 3, 5, 6, 7 or 8 king-move adjacent elements, with upper left element zero.",
			"comment": [
				"Column 7 of A300267."
			],
			"link": [
				"R. H. Hardin, \u003ca href=\"/A300266/b300266.txt\"\u003eTable of n, a(n) for n = 1..210\u003c/a\u003e"
			],
			"example": [
				"Some solutions for n=5",
				"..0..0..0..0..0..1..0. .0..0..0..1..1..0..1. .0..1..0..1..0..0..0",
				"..1..1..1..1..0..1..0. .0..0..0..1..0..0..1. .1..1..0..0..1..0..1",
				"..0..0..0..1..0..1..0. .0..0..0..0..0..0..0. .0..0..0..0..0..1..0",
				"..0..0..0..1..0..1..1. .0..0..1..0..0..1..1. .0..0..1..0..0..1..0",
				"..0..0..0..1..0..0..0. .0..0..1..0..0..1..0. .0..0..1..0..1..0..1"
			],
			"xref": [
				"Cf. A300267."
			],
			"keyword": "nonn",
			"offset": "1,1",
			"author": "_R. H. Hardin_, Mar 01 2018",
			"references": 1,
			"revision": 4,
			"time": "2018-03-01T07:57:20-05:00",
			"created": "2018-03-01T07:57:20-05:00"
		}
	]
}