{
	"greeting": "Greetings from The On-Line Encyclopedia of Integer Sequences! http://oeis.org/",
	"query": "id:A300462",
	"count": 1,
	"start": 0,
	"results": [
		{
			"number": 300462,
			"data": "0,9,22,142,1146,7456,55663,400028,2906875,21162204,153677233,1117612488,8123629685,59057261422,429317113075,3120977422852,22688267741133,164934718709179,1199012026918226,8716348960310287,63364478025520501",
			"name": "Number of nX5 0..1 arrays with every element equal to 2, 3 or 4 horizontally, vertically or antidiagonally adjacent elements, with upper left element zero.",
			"comment": [
				"Column 5 of A300465."
			],
			"link": [
				"R. H. Hardin, \u003ca href=\"/A300462/b300462.txt\"\u003eTable of n, a(n) for n = 1..210\u003c/a\u003e"
			],
			"example": [
				"Some solutions for n=5",
				"..0..0..0..1..1. .0..0..0..0..0. .0..0..1..0..0. .0..0..1..1..0",
				"..0..0..1..1..0. .0..1..0..0..1. .0..1..1..0..0. .0..0..1..0..0",
				"..1..1..0..0..0. .1..1..0..1..1. .1..1..1..0..0. .0..0..1..1..1",
				"..1..0..1..1..1. .1..1..0..1..1. .0..0..1..1..1. .0..1..1..1..0",
				"..0..0..1..1..1. .1..0..0..1..1. .0..1..1..1..1. .0..0..0..0..0"
			],
			"xref": [
				"Cf. A300465."
			],
			"keyword": "nonn",
			"offset": "1,2",
			"author": "_R. H. Hardin_, Mar 06 2018",
			"references": 1,
			"revision": 4,
			"time": "2018-03-06T11:27:25-05:00",
			"created": "2018-03-06T11:27:25-05:00"
		}
	]
}