{
	"greeting": "Greetings from The On-Line Encyclopedia of Integer Sequences! http://oeis.org/",
	"query": "id:A300762",
	"count": 1,
	"start": 0,
	"results": [
		{
			"number": 300762,
			"data": "35333,42799,49981,60787,150851,162193,164737,241001,253241,256999,280601,452051,481573,556169,617093,665333,722201,838861,1016801,1252697,1507963,1534541,1678541,1826203,2134277,2269093,2304167,2313697,2537641,2617451,2811271",
			"name": "Numbers k \u003e 1 such that 2^k == 2 (mod k) and gcd(k, 3^k - 3) = 1.",
			"comment": [
				"Numbers k \u003e 1 such that 2^(k-1) == 1 (mod k) and gcd(k, 3^(k-1)-1) = 1.",
				"Are there infinitely many such \"anti-Carmichael pseudoprimes (2,3)\"?"
			],
			"mathematica": [
				"Select[Range[2 10^6], PowerMod[2, #, #] == 2 \u0026\u0026 GCD[#, # + PowerMod[3, #, #] - 3] == 1 \u0026] (* _Giovanni Resta_, Aug 18 2018 *)"
			],
			"program": [
				"(PARI) isok(k) = (k != 1) \u0026\u0026 (Mod(2, k)^k == Mod(2, k)) \u0026\u0026 (gcd(k, 3^k - 3) == 1); \\\\ _Michel Marcus_, Aug 15 2018"
			],
			"xref": [
				"Subsequence of A001567 and of A316907 and probably of A121707."
			],
			"keyword": "nonn",
			"offset": "1,1",
			"author": "_Thomas Ordowski_, Aug 15 2018",
			"ext": [
				"More terms from _Michel Marcus_, Aug 15 2018",
				"More terms from _Giovanni Resta_, Aug 18 2018"
			],
			"references": 1,
			"revision": 16,
			"time": "2018-08-18T05:57:15-04:00",
			"created": "2018-08-18T05:57:15-04:00"
		}
	]
}