{
	"greeting": "Greetings from The On-Line Encyclopedia of Integer Sequences! http://oeis.org/",
	"query": "id:A300432",
	"count": 1,
	"start": 0,
	"results": [
		{
			"number": 300432,
			"data": "3,37,87,238,704,2104,6235,18461,54864,165251,497102,1500726,4542437,13802952,42043561,128343104,392429834,1201823739,3685689654,11316538154,34781400484,106992787236,329361530696,1014490511414,3126320933296",
			"name": "Number of nX5 0..1 arrays with every element equal to 1, 2 or 4 horizontally, vertically or antidiagonally adjacent elements, with upper left element zero.",
			"comment": [
				"Column 5 of A300435."
			],
			"link": [
				"R. H. Hardin, \u003ca href=\"/A300432/b300432.txt\"\u003eTable of n, a(n) for n = 1..210\u003c/a\u003e"
			],
			"example": [
				"Some solutions for n=5",
				"..0..0..1..1..0. .0..0..0..1..1. .0..0..0..1..1. .0..1..1..1..1",
				"..0..1..0..1..0. .0..0..1..0..0. .0..0..1..0..1. .0..1..1..1..0",
				"..1..0..1..0..1. .0..1..0..1..1. .0..1..0..1..0. .1..0..0..1..0",
				"..1..1..0..1..1. .1..0..1..0..0. .1..0..1..0..0. .0..1..0..0..1",
				"..0..0..1..1..1. .1..0..1..1..0. .0..1..0..0..0. .1..0..0..0..1"
			],
			"xref": [
				"Cf. A300435."
			],
			"keyword": "nonn",
			"offset": "1,1",
			"author": "_R. H. Hardin_, Mar 05 2018",
			"references": 1,
			"revision": 4,
			"time": "2018-03-05T14:49:35-05:00",
			"created": "2018-03-05T14:49:35-05:00"
		}
	]
}