{
	"greeting": "Greetings from The On-Line Encyclopedia of Integer Sequences! http://oeis.org/",
	"query": "id:A300256",
	"count": 1,
	"start": 0,
	"results": [
		{
			"number": 300256,
			"data": "16,472,6585,100823,1588195,24735890,385299869,6015414147,93883095950,1465112676070,22867430882165,356916911760639,5570755321012946,86949055431487852,1357115151790133239,21182075354753253187",
			"name": "Number of nX5 0..1 arrays with every element equal to 0, 1, 2, 3, 4, 6, 7 or 8 king-move adjacent elements, with upper left element zero.",
			"comment": [
				"Column 5 of A300259."
			],
			"link": [
				"R. H. Hardin, \u003ca href=\"/A300256/b300256.txt\"\u003eTable of n, a(n) for n = 1..210\u003c/a\u003e"
			],
			"example": [
				"Some solutions for n=5",
				"..0..0..0..0..1. .0..0..0..0..0. .0..0..0..0..0. .0..0..0..0..0",
				"..0..1..0..1..1. .0..1..1..0..1. .1..0..1..1..1. .0..1..1..0..1",
				"..0..1..0..1..0. .1..0..0..0..0. .1..1..0..0..1. .0..1..0..0..0",
				"..1..1..0..1..1. .1..1..1..0..1. .1..0..0..1..0. .1..0..1..1..0",
				"..0..0..1..0..0. .0..0..0..0..0. .1..1..0..1..0. .1..1..0..1..0"
			],
			"xref": [
				"Cf. A300259."
			],
			"keyword": "nonn",
			"offset": "1,1",
			"author": "_R. H. Hardin_, Mar 01 2018",
			"references": 1,
			"revision": 4,
			"time": "2018-03-01T07:45:40-05:00",
			"created": "2018-03-01T07:45:40-05:00"
		}
	]
}