{
	"greeting": "Greetings from The On-Line Encyclopedia of Integer Sequences! http://oeis.org/",
	"query": "id:A300930",
	"count": 1,
	"start": 0,
	"results": [
		{
			"number": 300930,
			"data": "0,1,1,1,3,1,2,11,11,2,3,37,75,37,3,5,129,508,508,129,5,8,450,3447,6638,3447,450,8,13,1568,23404,87561,87561,23404,1568,13,21,5464,158855,1155263,2244335,1155263,158855,5464,21,34,19041,1078231,15238332",
			"name": "T(n,k)=Number of nXk 0..1 arrays with every element equal to 1, 2, 3, 4 or 5 horizontally, vertically or antidiagonally adjacent elements, with upper left element zero.",
			"comment": [
				"Table starts",
				"..0.....1.......1..........2............3...............5..................8",
				"..1.....3......11.........37..........129.............450...............1568",
				"..1....11......75........508.........3447...........23404.............158855",
				"..2....37.....508.......6638........87561.........1155263...........15238332",
				"..3...129....3447......87561......2244335........57594572.........1477281166",
				"..5...450...23404....1155263.....57594572......2875574552.......143498589629",
				"..8..1568..158855...15238332...1477281166....143498589629.....13930396115571",
				".13..5464.1078231..200997959..37892542998...7160975085336...1352339873296663",
				".21.19041.7318522.2651226860.971951600750.357354070296570.131283287305824217"
			],
			"link": [
				"R. H. Hardin, \u003ca href=\"/A300930/b300930.txt\"\u003eTable of n, a(n) for n = 1..311\u003c/a\u003e"
			],
			"formula": [
				"Empirical for column k:",
				"k=1: a(n) = a(n-1) +a(n-2)",
				"k=2: a(n) = 4*a(n-1) -2*a(n-2) +a(n-3) -a(n-4) for n\u003e5",
				"k=3: [order 8] for n\u003e10",
				"k=4: [order 26] for n\u003e27",
				"k=5: [order 64] for n\u003e67"
			],
			"example": [
				"Some solutions for n=5 k=4",
				"..0..1..1..1. .0..1..1..1. .0..0..1..0. .0..0..1..1. .0..0..1..0",
				"..0..1..0..1. .0..1..0..0. .1..1..0..0. .0..0..1..0. .0..1..0..0",
				"..0..1..0..1. .1..1..0..0. .0..0..1..0. .0..0..1..0. .0..1..1..0",
				"..1..1..1..0. .1..1..1..1. .1..1..0..0. .0..0..1..1. .1..1..1..1",
				"..1..0..0..0. .1..0..0..1. .1..0..0..0. .1..1..1..1. .1..0..0..0"
			],
			"xref": [
				"Column 1 is A000045(n-1).",
				"Column 2 is A232031(n-1)."
			],
			"keyword": "nonn,tabl",
			"offset": "1,5",
			"author": "_R. H. Hardin_, Mar 15 2018",
			"references": 7,
			"revision": 4,
			"time": "2018-03-15T19:01:09-04:00",
			"created": "2018-03-15T19:01:09-04:00"
		}
	]
}