{
	"greeting": "Greetings from The On-Line Encyclopedia of Integer Sequences! http://oeis.org/",
	"query": "id:A301959",
	"count": 1,
	"start": 0,
	"results": [
		{
			"number": 301959,
			"data": "3,6,16,40,100,252,632,1588,3988,10016,25156,63180,158680,398532,1000932,2513888,6313748,15857276,39826296,100025620,251219060,630948512,1584656932,3979940588,9995808408,25104944036,63052250436,158358699360",
			"name": "Number of nX3 0..1 arrays with every element equal to 0, 1 or 4 horizontally or antidiagonally adjacent elements, with upper left element zero.",
			"comment": [
				"Column 3 of A301964."
			],
			"link": [
				"R. H. Hardin, \u003ca href=\"/A301959/b301959.txt\"\u003eTable of n, a(n) for n = 1..210\u003c/a\u003e"
			],
			"formula": [
				"Empirical: a(n) = a(n-1) +3*a(n-2) +2*a(n-3)"
			],
			"example": [
				"Some solutions for n=5",
				"..0..1..0. .0..1..0. .0..0..1. .0..1..0. .0..1..0. .0..1..0. .0..0..1",
				"..1..0..1. .1..0..1. .1..0..1. .0..1..0. .0..1..0. .0..0..0. .1..0..1",
				"..1..1..1. .1..1..1. .1..1..1. .0..1..0. .0..1..1. .0..1..0. .0..1..0",
				"..1..0..0. .1..0..1. .1..0..0. .0..1..1. .0..0..1. .0..1..0. .0..1..0",
				"..1..1..0. .1..0..0. .1..1..0. .0..0..1. .1..0..1. .0..1..1. .0..1..0"
			],
			"xref": [
				"Cf. A301964."
			],
			"keyword": "nonn",
			"offset": "1,1",
			"author": "_R. H. Hardin_, Mar 29 2018",
			"references": 1,
			"revision": 4,
			"time": "2018-03-29T12:58:40-04:00",
			"created": "2018-03-29T12:58:40-04:00"
		}
	]
}