{
	"greeting": "Greetings from The On-Line Encyclopedia of Integer Sequences! http://oeis.org/",
	"query": "id:A301666",
	"count": 1,
	"start": 0,
	"results": [
		{
			"number": 301666,
			"data": "3,61,407,2793,21224,146841,1073621,7703565,55506215,399555430,2875870497,20706418377,149059329261,1073124611823,7725565402834,55617663607353,400401309675815,2882556650714509,20752023117855145",
			"name": "Number of nX5 0..1 arrays with every element equal to 1, 2 or 4 horizontally or vertically adjacent elements, with upper left element zero.",
			"comment": [
				"Column 5 of A301669."
			],
			"link": [
				"R. H. Hardin, \u003ca href=\"/A301666/b301666.txt\"\u003eTable of n, a(n) for n = 1..210\u003c/a\u003e"
			],
			"example": [
				"Some solutions for n=5",
				"..0..1..1..0..1. .0..0..0..1..1. .0..0..1..1..0. .0..0..1..1..1",
				"..0..0..1..0..1. .0..1..1..1..1. .1..1..1..0..0. .1..1..0..0..0",
				"..1..0..1..0..0. .0..1..0..1..0. .0..0..0..1..1. .1..0..0..1..0",
				"..1..0..0..1..1. .0..1..0..1..0. .0..1..1..1..0. .1..0..1..1..0",
				"..1..1..0..1..1. .0..0..0..1..1. .0..1..0..0..0. .1..0..1..0..0"
			],
			"xref": [
				"Cf. A301669."
			],
			"keyword": "nonn",
			"offset": "1,1",
			"author": "_R. H. Hardin_, Mar 25 2018",
			"references": 1,
			"revision": 4,
			"time": "2018-03-25T11:36:23-04:00",
			"created": "2018-03-25T11:36:23-04:00"
		}
	]
}