{
	"greeting": "Greetings from The On-Line Encyclopedia of Integer Sequences! http://oeis.org/",
	"query": "id:A301123",
	"count": 1,
	"start": 0,
	"results": [
		{
			"number": 301123,
			"data": "1,4,9,17,29,46,70,100,130,155,179,215,271,337,396,443,486,539,610,694,785,876,957,1026,1095,1184,1299,1422,1530,1621,1714,1828,1964,2106,2243,2375,2505,2636,2771,2918,3080,3246,3407,3567,3735,3912,4089",
			"name": "Coordination sequence T1 for Zeolite Code MOZ.",
			"link": [
				"R. W. Grosse-Kunstleve, \u003ca href=\"/A301123/b301123.txt\"\u003eTable of n, a(n) for n = 0..1000\u003c/a\u003e",
				"Sean A. Irvine, \u003ca href=\"/A008000/a008000_1.pdf\"\u003eGenerating Functions for Coordination Sequences of Zeolites, after Grosse-Kunstleve, Brunner, and Sloane\u003c/a\u003e",
				"International Zeolite Association, \u003ca href=\"http://www.iza-structure.org/databases/\"\u003eDatabase of Zeolite Structures\u003c/a\u003e"
			],
			"keyword": "nonn",
			"offset": "0,2",
			"author": "_Sean A. Irvine_, Mar 18 2018",
			"references": 1,
			"revision": 6,
			"time": "2018-04-08T16:04:10-04:00",
			"created": "2018-03-18T05:30:47-04:00"
		}
	]
}