{
	"greeting": "Greetings from The On-Line Encyclopedia of Integer Sequences! http://oeis.org/",
	"query": "id:A301957",
	"count": 1,
	"start": 0,
	"results": [
		{
			"number": 301957,
			"data": "1,1,2,1,2,2,2,1,3,2,2,2,2,2,4,1,2,3,2,2,4,2,2,2,3,2,4,2,2,4,2,1,4,2,4,3,2,2,4,2,2,4,2,2,6,2,2,2,3,3,4,2,2,4,4,2,4,2,2,4,2,2,5,1,4,4,2,2,4,4,2,3,2,2,6,2,4,4,2,2,5,2,2,4,4,2,4,2,2,6,4,2,4,2,4,2,2,3,6,3,2,4,2,2,8",
			"name": "Number of distinct subset-products of the integer partition with Heinz number n.",
			"comment": [
				"A subset-product of an integer partition y is a product of some submultiset of y. The Heinz number of an integer partition (y_1,...,y_k) is prime(y_1)*...*prime(y_k).",
				"Number of distinct values obtained when A003963 is applied to all divisors of n. - _Antti Karttunen_, Sep 05 2018"
			],
			"link": [
				"Antti Karttunen, \u003ca href=\"/A301957/b301957.txt\"\u003eTable of n, a(n) for n = 1..65537\u003c/a\u003e",
				"\u003ca href=\"/index/Pri#prime_indices\"\u003eIndex entries for sequences computed from indices in prime factorization\u003c/a\u003e"
			],
			"example": [
				"The distinct subset-products of (4,2,1,1) are 1, 2, 4, and 8, so a(84) = 4.",
				"The distinct subset-products of (6,3,2) are 1, 2, 3, 6, 12, 18, and 36, so a(195) = 7."
			],
			"mathematica": [
				"Table[If[n===1,1,Length[Union[Times@@@Subsets[Join@@Cases[FactorInteger[n],{p_,k_}:\u003eTable[PrimePi[p],{k}]]]]]],{n,100}]"
			],
			"program": [
				"(PARI)",
				"up_to = 65537;",
				"A003963(n) = { n=factor(n); n[, 1]=apply(primepi, n[, 1]); factorback(n) }; \\\\ From A003963",
				"v003963 = vector(up_to,n,A003963(n));",
				"A301957(n) = { my(m=Map(),s,k=0,c); fordiv(n,d,if(!mapisdefined(m,s = v003963[d],\u0026c), mapput(m,s,s); k++)); (k); }; \\\\ _Antti Karttunen_, Sep 05 2018"
			],
			"xref": [
				"Cf. A000712, A001055, A001227, A002865, A003963, A108917, A162247, A276024, A292886, A301854, A301855, A301856, A301970, A301979, A304793."
			],
			"keyword": "nonn",
			"offset": "1,3",
			"author": "_Gus Wiseman_, Mar 29 2018",
			"ext": [
				"More terms from _Antti Karttunen_, Sep 05 2018"
			],
			"references": 19,
			"revision": 16,
			"time": "2018-09-07T04:42:26-04:00",
			"created": "2018-04-08T20:10:14-04:00"
		}
	]
}