{
	"greeting": "Greetings from The On-Line Encyclopedia of Integer Sequences! http://oeis.org/",
	"query": "id:A301138",
	"count": 1,
	"start": 0,
	"results": [
		{
			"number": 301138,
			"data": "1,4,8,20,40,52,82,116,132,184,236,252,322,396,416,500,592,620,722,828,860,984,1108,1140,1282,1428,1464,1620,1784,1828,2002,2180,2228,2424,2620,2668,2882,3100,3152,3380,3616,3676,3922,4172,4236,4504,4772",
			"name": "Coordination sequence T2 for Zeolite Code NAB.",
			"link": [
				"R. W. Grosse-Kunstleve, \u003ca href=\"/A301138/b301138.txt\"\u003eTable of n, a(n) for n = 0..1000\u003c/a\u003e",
				"Sean A. Irvine, \u003ca href=\"/A008000/a008000_1.pdf\"\u003eGenerating Functions for Coordination Sequences of Zeolites, after Grosse-Kunstleve, Brunner, and Sloane\u003c/a\u003e",
				"International Zeolite Association, \u003ca href=\"http://www.iza-structure.org/databases/\"\u003eDatabase of Zeolite Structures\u003c/a\u003e"
			],
			"formula": [
				"G.f.: (1 + 4*x + 8*x^2 + 18*x^3 + 31*x^4 + 32*x^5 + 35*x^6 + 22*x^7 + 4*x^8 + 4*x^9 + x^10) / (1 - x^3)^2 / (1 - x^4)."
			],
			"keyword": "nonn",
			"offset": "0,2",
			"author": "_Sean A. Irvine_, Mar 18 2018",
			"references": 1,
			"revision": 6,
			"time": "2018-04-08T16:04:10-04:00",
			"created": "2018-03-18T05:57:59-04:00"
		}
	]
}