{
	"greeting": "Greetings from The On-Line Encyclopedia of Integer Sequences! http://oeis.org/",
	"query": "id:A301054",
	"count": 1,
	"start": 0,
	"results": [
		{
			"number": 301054,
			"data": "1,4,12,21,39,65,92,119,157,208,256,290,357,435,511,563,629,729,836,921,1001,1113,1223,1337,1462,1587,1714,1837,1989,2141,2280,2418,2588,2770,2943,3105,3269,3468,3661,3863,4054,4257,4475,4679,4916,5145,5352",
			"name": "Coordination sequence T1 for Zeolite Code IMF.",
			"link": [
				"R. W. Grosse-Kunstleve, \u003ca href=\"/A301054/b301054.txt\"\u003eTable of n, a(n) for n = 0..1000\u003c/a\u003e",
				"Sean A. Irvine, \u003ca href=\"/A008000/a008000_1.pdf\"\u003eGenerating Functions for Coordination Sequences of Zeolites, after Grosse-Kunstleve, Brunner, and Sloane\u003c/a\u003e",
				"International Zeolite Association, \u003ca href=\"http://www.iza-structure.org/databases/\"\u003eDatabase of Zeolite Structures\u003c/a\u003e"
			],
			"keyword": "nonn",
			"offset": "0,2",
			"author": "_Sean A. Irvine_, Mar 17 2018",
			"references": 1,
			"revision": 7,
			"time": "2018-04-08T16:04:10-04:00",
			"created": "2018-03-18T04:25:13-04:00"
		}
	]
}