{
	"greeting": "Greetings from The On-Line Encyclopedia of Integer Sequences! http://oeis.org/",
	"query": "id:A301800",
	"count": 1,
	"start": 0,
	"results": [
		{
			"number": 301800,
			"data": "1,1,1,5,5,11,21,29,53,86,139,211,346,524,806,1264,1866,2838,4253,6306,9304,13751,20018,29142,42365,60900,87569,125326,178535,253371,358974,505673,710871,996658,1391551,1938801,2693543,3730901,5154610,7106235,9767649",
			"name": "Expansion of Product_{k\u003e=1} (1 + x^k)^A000593(k).",
			"link": [
				"Vaclav Kotesovec, \u003ca href=\"/A301800/b301800.txt\"\u003eTable of n, a(n) for n = 0..1000\u003c/a\u003e"
			],
			"formula": [
				"a(n) ~ exp(3 * Pi^(2/3) * Zeta(3)^(1/3) * n^(2/3)/4) * Zeta(3)^(1/6) / (2^(25/24) * sqrt(3) * Pi^(1/6) * n^(2/3))."
			],
			"mathematica": [
				"nmax = 40; CoefficientList[Series[Exp[Sum[-(-1)^j * Sum[DivisorSum[k, -(-1)^# k / # \u0026] * x^(j*k) / j, {k, 1, Floor[nmax/j] + 1}], {j, 1, nmax}]], {x, 0, nmax}], x] (* _Vaclav Kotesovec_, Mar 31 2018 *)"
			],
			"xref": [
				"Cf. A000593, A002131, A301798, A301799."
			],
			"keyword": "nonn",
			"offset": "0,4",
			"author": "_Vaclav Kotesovec_, Mar 26 2018",
			"references": 6,
			"revision": 7,
			"time": "2018-03-31T07:01:36-04:00",
			"created": "2018-03-26T18:40:03-04:00"
		}
	]
}