{
	"greeting": "Greetings from The On-Line Encyclopedia of Integer Sequences! http://oeis.org/",
	"query": "id:A301320",
	"count": 1,
	"start": 0,
	"results": [
		{
			"number": 301320,
			"data": "16,138,293,726,1649,3649,8035,17751,39436,88008,197077,442264,993792,2234792,5027626,11313294,25460611,57302948,128973323,290288905,653378578,1470622946,3310082320,7450351492,16769302128,37744471436",
			"name": "Number of nX5 0..1 arrays with every element equal to 0, 1, 2, 5 or 6 horizontally, vertically or antidiagonally adjacent elements, with upper left element zero.",
			"comment": [
				"Column 5 of A301323."
			],
			"link": [
				"R. H. Hardin, \u003ca href=\"/A301320/b301320.txt\"\u003eTable of n, a(n) for n = 1..210\u003c/a\u003e"
			],
			"formula": [
				"Empirical: a(n) = 4*a(n-1) -3*a(n-2) -4*a(n-3) +4*a(n-4) +2*a(n-6) -5*a(n-8) +2*a(n-9) +4*a(n-10) -2*a(n-11) -2*a(n-12) +a(n-14) for n\u003e16"
			],
			"example": [
				"Some solutions for n=5",
				"..0..0..1..1..1. .0..1..0..1..1. .0..0..0..1..1. .0..1..0..0..0",
				"..1..0..0..0..0. .0..0..1..0..0. .1..1..0..0..1. .1..0..1..1..1",
				"..1..1..1..1..0. .1..1..0..1..1. .0..1..1..0..1. .1..0..0..0..1",
				"..0..0..0..1..1. .0..0..1..0..0. .0..0..1..0..1. .1..1..1..0..1",
				"..1..1..0..0..1. .1..1..0..1..1. .1..0..1..0..0. .0..0..1..0..1"
			],
			"xref": [
				"Cf. A301323."
			],
			"keyword": "nonn",
			"offset": "1,1",
			"author": "_R. H. Hardin_, Mar 18 2018",
			"references": 1,
			"revision": 4,
			"time": "2018-03-18T08:30:30-04:00",
			"created": "2018-03-18T08:30:30-04:00"
		}
	]
}