{
	"greeting": "Greetings from The On-Line Encyclopedia of Integer Sequences! http://oeis.org/",
	"query": "id:A301093",
	"count": 1,
	"start": 0,
	"results": [
		{
			"number": 301093,
			"data": "1,4,11,20,27,43,73,99,117,147,198,246,281,325,377,428,491,567,645,712,766,843,949,1039,1109,1199,1325,1446,1527,1614,1750,1888,1991,2100,2251,2407,2523,2649,2823,2977,3098,3256,3463,3641,3751,3898,4129",
			"name": "Coordination sequence T4 for Zeolite Code IWR.",
			"link": [
				"R. W. Grosse-Kunstleve, \u003ca href=\"/A301093/b301093.txt\"\u003eTable of n, a(n) for n = 0..1000\u003c/a\u003e",
				"Sean A. Irvine, \u003ca href=\"/A008000/a008000_1.pdf\"\u003eGenerating Functions for Coordination Sequences of Zeolites, after Grosse-Kunstleve, Brunner, and Sloane\u003c/a\u003e",
				"International Zeolite Association, \u003ca href=\"http://www.iza-structure.org/databases/\"\u003eDatabase of Zeolite Structures\u003c/a\u003e"
			],
			"keyword": "nonn",
			"offset": "0,2",
			"author": "_Sean A. Irvine_, Mar 18 2018",
			"references": 1,
			"revision": 7,
			"time": "2018-04-08T16:04:10-04:00",
			"created": "2018-03-18T05:12:02-04:00"
		}
	]
}