{
	"greeting": "Greetings from The On-Line Encyclopedia of Integer Sequences! http://oeis.org/",
	"query": "id:A301964",
	"count": 1,
	"start": 0,
	"results": [
		{
			"number": 301964,
			"data": "1,2,2,3,5,4,5,6,13,8,8,9,16,34,16,13,14,25,40,89,32,21,22,41,64,100,233,64,34,35,74,111,169,252,610,128,55,56,132,219,311,441,632,1597,256,89,90,239,443,749,874,1156,1588,4181,512,144,145,437,904,1803,2544,2454",
			"name": "T(n,k)=Number of nXk 0..1 arrays with every element equal to 0, 1 or 4 horizontally or antidiagonally adjacent elements, with upper left element zero.",
			"comment": [
				"Table starts",
				"...1....2....3....5.....8.....13.....21......34.......55........89.......144",
				"...2....5....6....9....14.....22.....35......56.......90.......145.......234",
				"...4...13...16...25....41.....74....132.....239......437.......800......1468",
				"...8...34...40...64...111....219....443.....904.....1860......3856......8015",
				"..16...89..100..169...311....749...1803....4257....10353.....25491.....62623",
				"..32..233..252..441...874...2544...7795...22456....66659....203926....621905",
				"..64..610..632.1156..2454...8705..33860..120603...444357...1715911...6574776",
				".128.1597.1588.3025..6906..29750.148299..655332..3014296..14863160..72345489",
				".256.4181.3988.7921.19427.101869.646838.3557239.20467528.129324707.802690313"
			],
			"link": [
				"R. H. Hardin, \u003ca href=\"/A301964/b301964.txt\"\u003eTable of n, a(n) for n = 1..880\u003c/a\u003e"
			],
			"formula": [
				"Empirical for column k:",
				"k=1: a(n) = 2*a(n-1)",
				"k=2: a(n) = 3*a(n-1) -a(n-2)",
				"k=3: a(n) = a(n-1) +3*a(n-2) +2*a(n-3)",
				"k=4: a(n) = 2*a(n-1) +2*a(n-2) -a(n-3) for n\u003e4",
				"k=5: a(n) = 2*a(n-1) +3*a(n-2) -a(n-3) -2*a(n-4) -3*a(n-5) +2*a(n-6) for n\u003e8",
				"k=6: [order 11] for n\u003e12",
				"k=7: [order 14] for n\u003e17",
				"Empirical for row n:",
				"n=1: a(n) = a(n-1) +a(n-2)",
				"n=2: a(n) = 2*a(n-1) -a(n-3) for n\u003e5",
				"n=3: a(n) = 2*a(n-1) -a(n-4) for n\u003e6",
				"n=4: a(n) = 2*a(n-1) +a(n-3) -a(n-4) -2*a(n-6) +a(n-7) for n\u003e9",
				"n=5: [order 14] for n\u003e17",
				"n=6: [order 27] for n\u003e32",
				"n=7: [order 47] for n\u003e52"
			],
			"example": [
				"Some solutions for n=5 k=4",
				"..0..1..0..1. .0..1..0..1. .0..1..0..1. .0..1..1..0. .0..0..1..0",
				"..0..1..0..1. .0..0..0..1. .0..1..0..1. .0..0..1..0. .1..1..1..0",
				"..0..0..0..1. .0..1..0..1. .0..1..0..1. .1..0..1..1. .1..0..1..0",
				"..0..1..1..1. .0..1..1..1. .1..0..1..0. .1..0..0..1. .0..1..0..1",
				"..0..1..0..1. .0..1..0..1. .1..0..1..1. .1..1..0..1. .0..1..0..1"
			],
			"xref": [
				"Column 1 is A000079(n-1).",
				"Column 2 is A001519(n+1).",
				"Row 1 is A000045(n+1).",
				"Row 2 is A301791."
			],
			"keyword": "nonn,tabl",
			"offset": "1,2",
			"author": "_R. H. Hardin_, Mar 29 2018",
			"references": 12,
			"revision": 4,
			"time": "2018-03-29T13:02:06-04:00",
			"created": "2018-03-29T13:02:06-04:00"
		}
	]
}