{
	"greeting": "Greetings from The On-Line Encyclopedia of Integer Sequences! http://oeis.org/",
	"query": "id:A301267",
	"count": 1,
	"start": 0,
	"results": [
		{
			"number": 301267,
			"data": "1,4,12,20,28,51,73,100,144,172,208,256,287,365,438,490,532,598,690,774,865,952,1040,1097,1225,1358,1443,1561,1673,1787,1926,2056,2192,2329,2462,2643,2751,2890,3130,3273,3404,3563,3794,3974,4121,4328,4553",
			"name": "Coordination sequence T10 for Zeolite Code UTL.",
			"link": [
				"R. W. Grosse-Kunstleve, \u003ca href=\"/A301267/b301267.txt\"\u003eTable of n, a(n) for n = 0..1000\u003c/a\u003e",
				"Sean A. Irvine, \u003ca href=\"/A008000/a008000_1.pdf\"\u003eGenerating Functions for Coordination Sequences of Zeolites, after Grosse-Kunstleve, Brunner, and Sloane\u003c/a\u003e",
				"International Zeolite Association, \u003ca href=\"http://www.iza-structure.org/databases/\"\u003eDatabase of Zeolite Structures\u003c/a\u003e"
			],
			"keyword": "nonn",
			"offset": "0,2",
			"author": "_Sean A. Irvine_, Mar 20 2018",
			"references": 1,
			"revision": 6,
			"time": "2018-04-08T16:04:10-04:00",
			"created": "2018-03-20T01:41:13-04:00"
		}
	]
}