{
	"greeting": "Greetings from The On-Line Encyclopedia of Integer Sequences! http://oeis.org/",
	"query": "id:A301962",
	"count": 1,
	"start": 0,
	"results": [
		{
			"number": 301962,
			"data": "13,22,74,219,749,2544,8705,29750,101869,348726,1194018,4088095,13997248,47925030,164090446,561828851,1923644742,6586363735,22551038555,77212460575,264367602921,905167759481,3099202251216,10611352989541",
			"name": "Number of nX6 0..1 arrays with every element equal to 0, 1 or 4 horizontally or antidiagonally adjacent elements, with upper left element zero.",
			"comment": [
				"Column 6 of A301964."
			],
			"link": [
				"R. H. Hardin, \u003ca href=\"/A301962/b301962.txt\"\u003eTable of n, a(n) for n = 1..210\u003c/a\u003e"
			],
			"formula": [
				"Empirical: a(n) = a(n-1) +8*a(n-2) +4*a(n-3) -8*a(n-4) -7*a(n-5) -a(n-6) -3*a(n-7) +a(n-8) +5*a(n-9) -3*a(n-10) +a(n-11) for n\u003e12"
			],
			"example": [
				"Some solutions for n=5",
				"..0..0..1..0..1..0. .0..0..1..0..1..0. .0..1..1..0..1..0. .0..1..0..1..0..1",
				"..1..1..1..0..1..1. .1..0..0..0..1..0. .0..0..1..0..1..0. .0..0..0..1..1..1",
				"..1..0..1..0..0..1. .1..0..1..0..0..0. .1..0..0..0..1..0. .0..1..0..1..0..1",
				"..1..0..1..1..0..0. .1..1..1..0..1..0. .1..0..1..1..1..0. .0..1..0..1..1..1",
				"..1..0..0..1..1..0. .1..0..1..0..1..1. .1..0..1..0..1..1. .0..1..0..1..0..1"
			],
			"xref": [
				"Cf. A301964."
			],
			"keyword": "nonn",
			"offset": "1,1",
			"author": "_R. H. Hardin_, Mar 29 2018",
			"references": 1,
			"revision": 4,
			"time": "2018-03-29T13:00:41-04:00",
			"created": "2018-03-29T13:00:41-04:00"
		}
	]
}