{
	"greeting": "Greetings from The On-Line Encyclopedia of Integer Sequences! http://oeis.org/",
	"query": "id:A301024",
	"count": 1,
	"start": 0,
	"results": [
		{
			"number": 301024,
			"data": "1,4,9,17,30,49,73,97,120,154,199,237,273,322,381,439,488,549,627,698,768,843,930,1022,1102,1196,1300,1402,1506,1608,1729,1849,1961,2088,2217,2354,2487,2622,2775,2917,3065,3224,3386,3552,3706,3880,4066",
			"name": "Coordination sequence T4 for Zeolite Code EZT.",
			"link": [
				"R. W. Grosse-Kunstleve, \u003ca href=\"/A301024/b301024.txt\"\u003eTable of n, a(n) for n = 0..1000\u003c/a\u003e",
				"Sean A. Irvine, \u003ca href=\"/A008000/a008000_1.pdf\"\u003eGenerating Functions for Coordination Sequences of Zeolites, after Grosse-Kunstleve, Brunner, and Sloane\u003c/a\u003e",
				"International Zeolite Association, \u003ca href=\"http://www.iza-structure.org/databases/\"\u003eDatabase of Zeolite Structures\u003c/a\u003e"
			],
			"formula": [
				"G.f.: (1 + 4*x + 30*x^4 + 47*x^5 + 90*x^9 + 9*x^2 + 17*x^3 + 65*x^6 + 79*x^7 + 85*x^8 + 93*x^10 + 78*x^11 + 58*x^12 + 52*x^13 + 37*x^14 + 7*x^15 - 8*x^16 - 11*x^17 - 29*x^18 - 52*x^19 - 64*x^20 - 74*x^21 - 83*x^22 - 93*x^24 - 13*x^29 - 4*x^31 - 79*x^25 - 51*x^27 - 38*x^28 - x^30 - x^32 - 2*x^36 + 4*x^33 - 4*x^35 - 90*x^23 - 59*x^26) / (1 - x^5)^2 / (1 - x^8) / (1 - x^14)."
			],
			"keyword": "nonn",
			"offset": "0,2",
			"author": "_Sean A. Irvine_, Mar 17 2018",
			"references": 1,
			"revision": 6,
			"time": "2018-04-08T16:04:10-04:00",
			"created": "2018-03-17T23:10:03-04:00"
		}
	]
}