{
	"greeting": "Greetings from The On-Line Encyclopedia of Integer Sequences! http://oeis.org/",
	"query": "id:A301486",
	"count": 1,
	"start": 0,
	"results": [
		{
			"number": 301486,
			"data": "4,18,52,148,441,1372,4326,13641,42741,133208,414303,1289070,4015530,12519594,39044533,121754095,379591807,1183290025,3688511653,11498007929,35843459506,111739411177,348340800464,1085925223300,3385266114712",
			"name": "Number of nX3 0..1 arrays with every element equal to 0, 1, 2, 4, 5 or 6 horizontally, vertically or antidiagonally adjacent elements, with upper left element zero.",
			"comment": [
				"Column 3 of A301491."
			],
			"link": [
				"R. H. Hardin, \u003ca href=\"/A301486/b301486.txt\"\u003eTable of n, a(n) for n = 1..210\u003c/a\u003e"
			],
			"formula": [
				"Empirical: a(n) = 8*a(n-1) -22*a(n-2) +15*a(n-3) +44*a(n-4) -86*a(n-5) +a(n-6) +87*a(n-7) -13*a(n-8) -39*a(n-9) +19*a(n-10) -56*a(n-11) -26*a(n-12) +38*a(n-13) +90*a(n-14) +118*a(n-15) -46*a(n-16) -18*a(n-17) -120*a(n-18) -6*a(n-19) -15*a(n-20) +26*a(n-21) +3*a(n-23) -a(n-24) for n\u003e25"
			],
			"example": [
				"Some solutions for n=5",
				"..0..1..0. .0..1..1. .0..1..1. .0..0..0. .0..1..0. .0..1..0. .0..0..1",
				"..1..0..1. .1..0..0. .1..0..1. .1..1..0. .1..0..1. .1..1..1. .1..0..0",
				"..0..1..0. .0..1..1. .0..1..0. .0..1..1. .1..0..0. .0..1..0. .1..1..0",
				"..0..1..0. .1..0..1. .1..0..1. .0..0..1. .1..1..1. .0..0..1. .0..1..0",
				"..0..1..0. .0..0..1. .1..0..0. .1..1..0. .0..0..1. .1..1..0. .1..0..1"
			],
			"xref": [
				"Cf. A301491."
			],
			"keyword": "nonn",
			"offset": "1,1",
			"author": "_R. H. Hardin_, Mar 22 2018",
			"references": 1,
			"revision": 4,
			"time": "2018-03-22T11:45:58-04:00",
			"created": "2018-03-22T11:45:58-04:00"
		}
	]
}