{
	"greeting": "Greetings from The On-Line Encyclopedia of Integer Sequences! http://oeis.org/",
	"query": "id:A301829",
	"count": 1,
	"start": 0,
	"results": [
		{
			"number": 301829,
			"data": "0,1,1,3,1,4,1,7,3,4,1,12,1,4,4,15,1,12,1,12,4,4,1,29,3,4,7,12,1,17,1,29,4,4,4,37,1,4,4,29,1,17,1,12,12,4,1,64,3,12,4,12,1,29,4,29,4,4,1,53,1,4,12,54,4,17,1,12,4,17,1,92,1,4,12,12,4,17",
			"name": "Number of ways to choose a nonempty submultiset of a factorization of n into factors greater than one.",
			"formula": [
				"a(n) = Sum_{d|n, d\u003e1} f(d) * f(n/d) where f(n) = A001055(n) is the number of factorizations of n into factors greater than 1."
			],
			"example": [
				"The a(12) = 12 submultisets (\"\u003c\" means subset or equal):",
				"(2)\u003c(2*2*3), (3)\u003c(2*2*3), (2*2)\u003c(2*2*3), (2*3)\u003c(2*2*3), (2*2*3)\u003c(2*2*3),",
				"(2)\u003c(2*6), (6)\u003c(2*6), (2*6)\u003c(2*6),",
				"(3)\u003c(3*4), (4)\u003c(3*4), (3*4)\u003c(3*4),",
				"(12)\u003c(12)."
			],
			"mathematica": [
				"facs[n_]:=If[n\u003c=1,{{}},Join@@Table[Map[Prepend[#,d]\u0026,Select[facs[n/d],Min@@#\u003e=d\u0026]],{d,Rest[Divisors[n]]}]];",
				"Table[Sum[Length[facs[d]]*Length[facs[n/d]],{d,Rest[Divisors[n]]}],{n,100}]"
			],
			"xref": [
				"Cf. A000712, A001055, A001222, A001405, A122768, A276024, A281113, A284640, A295632, A299701, A299702, A299729, A301830."
			],
			"keyword": "nonn",
			"offset": "1,4",
			"author": "_Gus Wiseman_, Mar 27 2018",
			"references": 7,
			"revision": 5,
			"time": "2018-04-16T18:52:19-04:00",
			"created": "2018-04-16T18:52:19-04:00"
		}
	]
}