{
	"greeting": "Greetings from The On-Line Encyclopedia of Integer Sequences! http://oeis.org/",
	"query": "id:A301888",
	"count": 1,
	"start": 0,
	"results": [
		{
			"number": 301888,
			"data": "16,89,289,673,1961,8829,33853,122356,439781,1684392,6453460,24681438,94429284,362493684,1391521355,5344223744,20538410002,78964625841,303575679612,1167193062685,4488137643340,17259059593492,66369856821954",
			"name": "Number of 5Xn 0..1 arrays with every element equal to 0, 1 or 3 horizontally or antidiagonally adjacent elements, with upper left element zero.",
			"comment": [
				"Row 5 of A301884."
			],
			"link": [
				"R. H. Hardin, \u003ca href=\"/A301888/b301888.txt\"\u003eTable of n, a(n) for n = 1..210\u003c/a\u003e"
			],
			"example": [
				"Some solutions for n=5",
				"..0..0..1..1..0. .0..1..0..1..0. .0..1..0..1..0. .0..1..0..1..0",
				"..1..0..0..1..0. .1..0..0..1..0. .1..0..1..0..0. .0..1..0..1..0",
				"..1..1..0..1..0. .0..1..1..1..1. .1..0..0..1..0. .0..1..0..1..0",
				"..0..1..0..1..0. .0..0..1..0..1. .1..0..0..1..0. .0..0..0..1..0",
				"..0..1..0..0..0. .1..0..1..1..1. .0..1..0..1..1. .1..1..0..0..0"
			],
			"xref": [
				"Cf. A301884."
			],
			"keyword": "nonn",
			"offset": "1,1",
			"author": "_R. H. Hardin_, Mar 28 2018",
			"references": 1,
			"revision": 4,
			"time": "2018-03-28T11:01:57-04:00",
			"created": "2018-03-28T11:01:57-04:00"
		}
	]
}