{
	"greeting": "Greetings from The On-Line Encyclopedia of Integer Sequences! http://oeis.org/",
	"query": "id:A301722",
	"count": 1,
	"start": 0,
	"results": [
		{
			"number": 301722,
			"data": "1,5,10,15,22,27,31,38,43,47,54,59,63,70,75,79,86,91,95,102,107,111,118,123,127,134,139,143,150,155,159,166,171,175,182,187,191,198,203,207,214,219,223,230,235,239,246,251,255,262,267,271,278,283,287,294,299,303,310,315,319,326,331,335,342,347,351,358,363,367,374,379,383,390,395,399,406,411,415,422,427,431,438,443,447,454,459,463,470,475,479,486,491,495,502,507,511,518,523,527,534",
			"name": "Coordination sequence for node of type V2 in \"krb\" 2-D tiling (or net).",
			"reference": [
				"Branko Grünbaum and G. C. Shephard, Tilings and Patterns. W. H. Freeman, New York, 1987. See Table 2.2.1, page 66, 1st row, 2nd tiling."
			],
			"link": [
				"Brian Galebach, \u003ca href=\"http://probabilitysports.com/tilings.html\"\u003eCollection of n-Uniform Tilings\u003c/a\u003e. See Number 19 from the list of 20 2-uniform tilings.",
				"Brian Galebach, \u003ca href=\"/A250120/a250120.html\"\u003ek-uniform tilings (k \u003c= 6) and their A-numbers\u003c/a\u003e",
				"Reticular Chemistry Structure Resource (RCSR), \u003ca href=\"http://rcsr.net/layers/krb\"\u003eThe krb tiling (or net)\u003c/a\u003e"
			],
			"formula": [
				"Conjecture: G.f. = -(-x^6-6*x^5-9*x^4-16*x^3-9*x^2-6*x-1)/(x^6-2*x^3+1). - _N. J. A. Sloane_, Mar 29 2018"
			],
			"xref": [
				"Cf. A301720.",
				"Coordination sequences for the 20 2-uniform tilings in the order in which they appear in the Galebach catalog, together with their names in the RCSR database (two sequences per tiling): #1 krt A265035, A265036; #2 cph A301287, A301289; #3 krm A301291, A301293; #4 krl A301298, A298024; #5 krq A301299, A301301; #6 krs A301674, A301676; #7 krr A301670, A301672; #8 krk A301291, A301293; #9 krn A301678, A301680; #10 krg A301682, A301684; #11 bew A008574, A296910; #12 krh A301686, A301688; #13 krf A301690, A301692; #14 krd A301694, A219529; #15 krc A301708, A301710; #16 usm A301712, A301714; #17 krj A219529, A301697; #18 kre A301716, A301718; #19 krb A301720, A301722; #20 kra A301724, A301726."
			],
			"keyword": "nonn,more",
			"offset": "0,2",
			"author": "_N. J. A. Sloane_, Mar 26 2018",
			"ext": [
				"a(11)-a(100) from _Davide M. Proserpio_, Mar 28 2018",
				"DATA section contains 100 terms - this was deliberate. If you want to shorten this section, kindly add a b-file first. - _N. J. A. Sloane_, Mar 29 2018"
			],
			"references": 38,
			"revision": 12,
			"time": "2018-06-21T13:54:19-04:00",
			"created": "2018-03-26T13:30:49-04:00"
		}
	]
}