{
	"greeting": "Greetings from The On-Line Encyclopedia of Integer Sequences! http://oeis.org/",
	"query": "id:A301437",
	"count": 1,
	"start": 0,
	"results": [
		{
			"number": 301437,
			"data": "1,8,232,23672,8525992,10857946336,48849438137664,776405369595079784,43592748615027181849168,8646411638193087437385791320,6058323543759078862550444562319392",
			"name": "Number of n X n 0..1 arrays with every element equal to 0, 1, 2, 3, 4 or 6 horizontally, vertically or antidiagonally adjacent elements, with upper left element zero.",
			"comment": [
				"Diagonal of A301443."
			],
			"link": [
				"R. H. Hardin, \u003ca href=\"/A301437/b301437.txt\"\u003eTable of n, a(n) for n = 1..12\u003c/a\u003e"
			],
			"example": [
				"Some solutions for n=5",
				"..0..0..0..0..0. .0..0..0..0..0. .0..0..0..0..0. .0..0..0..0..0",
				"..0..1..0..0..0. .0..1..0..0..1. .0..0..1..0..0. .0..0..1..1..1",
				"..0..1..0..0..0. .0..1..0..1..1. .1..1..0..1..0. .0..1..1..1..1",
				"..0..0..1..1..0. .1..0..1..0..0. .0..1..1..1..1. .0..0..0..0..0",
				"..1..1..1..0..0. .0..0..1..0..0. .0..0..0..0..0. .1..0..0..0..0"
			],
			"xref": [
				"Cf. A301443."
			],
			"keyword": "nonn",
			"offset": "1,2",
			"author": "_R. H. Hardin_, Mar 21 2018",
			"references": 1,
			"revision": 7,
			"time": "2020-04-20T00:00:34-04:00",
			"created": "2018-03-21T11:43:30-04:00"
		}
	]
}