{
	"greeting": "Greetings from The On-Line Encyclopedia of Integer Sequences! http://oeis.org/",
	"query": "id:A302852",
	"count": 1,
	"start": 0,
	"results": [
		{
			"number": 302852,
			"data": "0,1,6,3,2,5,16,7,12,9,8,11,22,13,18,15,14,17,4,19,24,21,20,23,58,25,30,27,26,29,40,31,36,33,32,35,46,37,42,39,38,41,28,43,48,45,44,47,82,49,54,51,50,53,64,55,60,57,56,59,70,61,66,63,62,65,52,67,72,69,68,71,106,73,78,75,74,77,88,79,84,81,80,83,94,85",
			"name": "Permutation of nonnegative integers: a(0) = 0; for n \u003e= 1, a(n) = 1+A225901(A225901(n)-1))",
			"link": [
				"Antti Karttunen, \u003ca href=\"/A302852/b302852.txt\"\u003eTable of n, a(n) for n = 0..10079\u003c/a\u003e",
				"David Newman, et al., \u003ca href=\"http://list.seqfan.eu/pipermail/seqfan/2018-January/018239.html\"\u003eNew sequences from old, Discussion on SeqFan-mailing list\u003c/a\u003e, January 2018.",
				"\u003ca href=\"/index/Fa#facbase\"\u003eIndex entries for sequences related to factorial base representation\u003c/a\u003e",
				"\u003ca href=\"/index/Per#IntegerPermutation\"\u003eIndex entries for sequences that are permutations of the natural numbers\u003c/a\u003e"
			],
			"formula": [
				"a(0) = 0; for n \u003e= 1, a(n) = 1+A225901(A225901(n)-1))."
			],
			"program": [
				"(PARI)",
				"A225901(n) = { my(s=0, d, k=2); while(n, d=n%k; n=n\\k; if(d, s += (k-d)*(k-1)!); k=k+1); (s); };",
				"A302852(n) = if(!n,n,1+A225901(A225901(n)-1));"
			],
			"xref": [
				"Cf. A302851 (inverse).",
				"Cf. A225901."
			],
			"keyword": "nonn,base",
			"offset": "0,3",
			"author": "_Antti Karttunen_, Apr 26 2018",
			"references": 2,
			"revision": 7,
			"time": "2021-02-12T11:55:25-05:00",
			"created": "2018-04-26T17:43:35-04:00"
		}
	]
}