{
	"greeting": "Greetings from The On-Line Encyclopedia of Integer Sequences! http://oeis.org/",
	"query": "id:A302600",
	"count": 1,
	"start": 0,
	"results": [
		{
			"number": 302600,
			"data": "1,2,3,5,6,10,11,17,22,31,34,41,59,62,67,82,83,109,118,127,134,157,166,179,191,211,218,241,254,277,283,314,331,353,358,367,382,401,422,431,461,482,509,547,554,563,566,587,599,617,662,706,709,734,739,773",
			"name": "1, 2, prime numbers of prime index, and prime numbers of prime index times 2.",
			"comment": [
				"A prime index of n is a number m such that prime(m) divides n.",
				"Also squarefree numbers whose prime indices other than 1 are equal prime numbers."
			],
			"example": [
				"Entry A302242 describes a correspondence between positive integers and multiset multisystems. In this case it gives the following sequence of set systems.",
				"01: {}",
				"02: {{}}",
				"03: {{1}}",
				"05: {{2}}",
				"06: {{},{1}}",
				"10: {{},{2}}",
				"11: {{3}}",
				"17: {{4}}",
				"22: {{},{3}}",
				"31: {{5}}",
				"34: {{},{4}}",
				"41: {{6}}",
				"59: {{7}}",
				"62: {{},{5}}",
				"67: {{8}}",
				"82: {{},{6}}",
				"83: {{9}}"
			],
			"mathematica": [
				"Select[Range[1000],SquareFreeQ[#]\u0026\u0026SameQ@@DeleteCases[primeMS[#],1]\u0026\u0026And@@PrimeQ/@DeleteCases[primeMS[#],1]\u0026]"
			],
			"xref": [
				"Cf. A000961, A001222, A003963, A005117, A007716, A056239, A275024, A047966, A281113, A296134, A301766, A302242, A302243."
			],
			"keyword": "nonn",
			"offset": "1,2",
			"author": "_Gus Wiseman_, Apr 10 2018",
			"references": 0,
			"revision": 5,
			"time": "2018-04-10T21:50:19-04:00",
			"created": "2018-04-10T21:50:19-04:00"
		}
	]
}