{
	"greeting": "Greetings from The On-Line Encyclopedia of Integer Sequences! http://oeis.org/",
	"query": "id:A302994",
	"count": 1,
	"start": 0,
	"results": [
		{
			"number": 302994,
			"data": "0,14,147,1553,15450,155395,1549818,15498814,155079196,1550331185,15503061466,155037242668,1550370696100,15503650949671,155036854371220,1550366484701654,15503648102080675",
			"name": "Number of bi-unitary abundant numbers \u003c 10^n.",
			"formula": [
				"Conjecture: Lim_{n-\u003eoo} a(n)/10^n = 0.15... is the density of bi-unitary abundant numbers."
			],
			"mathematica": [
				"f[n_] := Select[Divisors[n], Function[d, CoprimeQ[d, n/d]]]; bsigma[m_] :=",
				"DivisorSum[m, # \u0026, Last@Intersection[f@#, f[m/#]] == 1 \u0026]; babQ[n_] := bsigma[n] \u003e 2 n; c = 0; k = 1; seq={}; Do[While[k \u003c 10^n, If[babQ[k], c++]; k++]; AppendTo[seq, c], {n, 1, 5}]; seq"
			],
			"program": [
				"(PARI) biusigma(n) = {f = factor(n); for (i=1, #f~, p = f[i, 1]; e = f[i, 2]; f[i, 1] = if (e % 2, (p^(e+1)-1)/(p-1), (p^(e+1)-1)/(p-1) -p^(e/2)); f[i, 2] = 1; ); factorback(f); }",
				"a(n) = sum(k=1, 10^n-1, biusigma(k) \u003e 2*k); \\\\ _Michel Marcus_, Apr 17 2018"
			],
			"xref": [
				"Cf. A188999, A292982, A302992."
			],
			"keyword": "nonn,more",
			"offset": "1,2",
			"author": "_Amiram Eldar_, Apr 17 2018",
			"ext": [
				"a(8)-a(17) from _Hiroaki Yamanouchi_, Aug 24 2018"
			],
			"references": 5,
			"revision": 16,
			"time": "2018-12-05T05:11:41-05:00",
			"created": "2018-04-22T05:18:43-04:00"
		}
	]
}