{
	"greeting": "Greetings from The On-Line Encyclopedia of Integer Sequences! http://oeis.org/",
	"query": "id:A302958",
	"count": 1,
	"start": 0,
	"results": [
		{
			"number": 302958,
			"data": "0,1172,164916,12365841,1212025201,130376252119,13578993819785,1403559107071889,145479455454006812,15089882967228651401,1564791955810116030473,162255388684026120105462",
			"name": "Number of 7Xn 0..1 arrays with every element equal to 1, 2, 3, 4 or 5 horizontally, diagonally or antidiagonally adjacent elements, with upper left element zero.",
			"comment": [
				"Row 7 of A302953."
			],
			"link": [
				"R. H. Hardin, \u003ca href=\"/A302958/b302958.txt\"\u003eTable of n, a(n) for n = 1..210\u003c/a\u003e"
			],
			"example": [
				"Some solutions for n=5",
				"..0..0..0..0..0. .0..0..0..0..0. .0..0..0..0..0. .0..0..0..0..0",
				"..0..0..0..0..0. .0..0..0..1..0. .0..0..0..1..0. .0..0..0..1..0",
				"..0..0..1..1..0. .0..0..1..0..0. .0..0..1..1..0. .0..0..1..1..0",
				"..0..0..0..0..0. .0..0..1..0..0. .0..0..0..0..0. .0..0..0..0..1",
				"..0..1..0..0..0. .1..1..1..1..1. .0..1..1..0..0. .0..1..0..0..0",
				"..0..0..1..1..0. .0..1..1..0..1. .1..0..1..0..1. .1..1..1..0..0",
				"..1..1..1..0..0. .1..0..1..0..0. .1..1..1..1..1. .1..1..0..1..1"
			],
			"xref": [
				"Cf. A302953."
			],
			"keyword": "nonn",
			"offset": "1,2",
			"author": "_R. H. Hardin_, Apr 16 2018",
			"references": 1,
			"revision": 4,
			"time": "2018-04-16T11:45:00-04:00",
			"created": "2018-04-16T11:45:00-04:00"
		}
	]
}