{
	"greeting": "Greetings from The On-Line Encyclopedia of Integer Sequences! http://oeis.org/",
	"query": "id:A302181",
	"count": 1,
	"start": 0,
	"results": [
		{
			"number": 302181,
			"data": "1,5,62,1065,21714,492366,12004740,308559537,8255788970,227976044010,6457854821340,186814834574550,5500292590186380,164387681345290500,4976887208815547640,152378485941172462785,4711642301137121933850,146964278352052950118770,4619875954522866283392300",
			"name": "Number of 3D walks of type abb.",
			"comment": [
				"See Dershowitz (2017) for precise definition."
			],
			"link": [
				"Nachum Dershowitz, \u003ca href=\"https://cs.uwaterloo.ca/journals/JIS/VOL20/Dershowitz/dersh3.html\"\u003eTouchard's Drunkard\u003c/a\u003e, Journal of Integer Sequences, Vol. 20 (2017), #17.1.5."
			],
			"xref": [
				"Cf. A000108, A000984, A002212, A002896, A005572, A026375, A064037, A081671, A138547, A145847, A145867, A150500, A202814."
			],
			"keyword": "nonn,walk",
			"offset": "0,2",
			"author": "_N. J. A. Sloane_, Apr 09 2018",
			"ext": [
				"a(8)-a(18) from _Nachum Dershowitz_, Aug 03 2020"
			],
			"references": 0,
			"revision": 21,
			"time": "2020-08-03T18:51:43-04:00",
			"created": "2018-04-09T22:48:20-04:00"
		}
	]
}