{
	"greeting": "Greetings from The On-Line Encyclopedia of Integer Sequences! http://oeis.org/",
	"query": "id:A302311",
	"count": 1,
	"start": 0,
	"results": [
		{
			"number": 302311,
			"data": "4,6,13,26,48,121,275,600,1296,2998,6731,15022,33412,75480,169232,379265,848913,1907065,4276079,9589159,21494910,48224727,108142434,242526545,543834226,1219737296,2735350513,6134430103,13756843652,30852213480",
			"name": "Number of 3Xn 0..1 arrays with every element equal to 0, 1, 3 or 4 horizontally, diagonally or antidiagonally adjacent elements, with upper left element zero.",
			"comment": [
				"Row 3 of A302309."
			],
			"link": [
				"R. H. Hardin, \u003ca href=\"/A302311/b302311.txt\"\u003eTable of n, a(n) for n = 1..210\u003c/a\u003e"
			],
			"formula": [
				"Empirical: a(n) = a(n-1) +3*a(n-2) -a(n-3) +8*a(n-4) -7*a(n-5) -22*a(n-6) +9*a(n-7) -14*a(n-8) +10*a(n-9) +39*a(n-10) -19*a(n-11) +6*a(n-12) -18*a(n-14) +9*a(n-15) for n\u003e16"
			],
			"example": [
				"Some solutions for n=5",
				"..0..1..0..1..0. .0..0..1..0..1. .0..0..1..0..1. .0..1..1..1..0",
				"..0..1..0..1..1. .0..1..0..0..1. .1..1..1..0..0. .0..1..0..1..0",
				"..0..1..0..1..0. .0..1..0..1..0. .0..0..1..0..1. .0..1..0..0..0"
			],
			"xref": [
				"Cf. A302309."
			],
			"keyword": "nonn",
			"offset": "1,1",
			"author": "_R. H. Hardin_, Apr 05 2018",
			"references": 1,
			"revision": 4,
			"time": "2018-04-05T09:40:01-04:00",
			"created": "2018-04-05T09:40:01-04:00"
		}
	]
}