{
	"greeting": "Greetings from The On-Line Encyclopedia of Integer Sequences! http://oeis.org/",
	"query": "id:A302963",
	"count": 1,
	"start": 0,
	"results": [
		{
			"number": 302963,
			"data": "32,1405,19868,314989,5122000,83644490,1365216668,22301032112,364489574945,5958753041614,97427941260642,1593122104163405,26051813455660353,426031529087524529,6967143696100020839",
			"name": "Number of nX6 0..1 arrays with every element equal to 0, 1, 2, 3 or 6 horizontally, diagonally or antidiagonally adjacent elements, with upper left element zero.",
			"comment": [
				"Column 6 of A302965."
			],
			"link": [
				"R. H. Hardin, \u003ca href=\"/A302963/b302963.txt\"\u003eTable of n, a(n) for n = 1..210\u003c/a\u003e"
			],
			"example": [
				"Some solutions for n=5",
				"..0..1..0..0..1..0. .0..0..1..0..0..1. .0..1..0..0..1..0. .0..0..1..1..1..1",
				"..0..0..0..1..1..0. .0..0..1..0..1..1. .0..0..0..1..1..0. .0..0..1..0..0..0",
				"..0..1..0..0..1..1. .0..0..1..0..0..0. .0..1..0..1..1..0. .0..0..1..1..0..1",
				"..0..1..1..0..1..0. .0..0..1..1..0..1. .0..1..0..1..1..0. .0..1..1..1..0..0",
				"..1..0..0..0..0..1. .1..1..0..1..0..1. .1..1..0..0..0..0. .0..0..0..0..0..1"
			],
			"xref": [
				"Cf. A302965."
			],
			"keyword": "nonn",
			"offset": "1,1",
			"author": "_R. H. Hardin_, Apr 16 2018",
			"references": 1,
			"revision": 4,
			"time": "2018-04-16T11:54:02-04:00",
			"created": "2018-04-16T11:54:02-04:00"
		}
	]
}