{
	"greeting": "Greetings from The On-Line Encyclopedia of Integer Sequences! http://oeis.org/",
	"query": "id:A302394",
	"count": 1,
	"start": 0,
	"results": [
		{
			"number": 302394,
			"data": "1,1,0,1,5,388,477965,19199206747,48058624241034238,14791854612528152343049939,112039538006858119010793653395340973,42077073837090084518028123082446810913910363417140",
			"name": "Number of families of 3-subsets of an n-set that cover all 2-subsets.",
			"comment": [
				"Number of 3-uniform simple hypergraphs on n vertices such that each pair of vertices are together in some edge."
			],
			"formula": [
				"a(n) = SUM (-1)^e(G) (n!/a(G)) 2^t(G), where the sum is over the unlabeled graphs G with n vertices, e(G) is the number of edges in the complement of G, a(G) is the order of the automorphism group of G, and t(G) is the number of triangles in G."
			],
			"example": [
				"For n=4 the a(4)=5 solutions are {123,124,134}, {123,124,234},{123,134,234},{124,134,234}, {123,124,134,234}"
			],
			"keyword": "nonn,hard",
			"offset": "0,5",
			"author": "_Brendan McKay_, Apr 07 2018",
			"references": 17,
			"revision": 7,
			"time": "2018-04-07T03:55:35-04:00",
			"created": "2018-04-07T03:55:35-04:00"
		}
	]
}