{
	"greeting": "Greetings from The On-Line Encyclopedia of Integer Sequences! http://oeis.org/",
	"query": "id:A302887",
	"count": 1,
	"start": 0,
	"results": [
		{
			"number": 302887,
			"data": "1,168,818,12782,200186,3452246,60501563,1073161270,19073141368,339253565677,6036219398919,107408100263993,1911291205759074,34011097898139499,605224662587072998,10769933859504334253",
			"name": "Number of nX6 0..1 arrays with every element equal to 0, 2, 3, 4 or 5 horizontally, diagonally or antidiagonally adjacent elements, with upper left element zero.",
			"comment": [
				"Column 6 of A302889."
			],
			"link": [
				"R. H. Hardin, \u003ca href=\"/A302887/b302887.txt\"\u003eTable of n, a(n) for n = 1..210\u003c/a\u003e"
			],
			"example": [
				"Some solutions for n=5",
				"..0..1..0..0..0..0. .0..1..1..0..0..0. .0..0..0..1..1..0. .0..0..0..1..1..1",
				"..0..1..0..0..0..1. .0..1..1..1..0..0. .0..0..0..1..1..1. .0..0..0..1..1..1",
				"..1..1..1..0..0..0. .1..1..1..1..0..0. .1..1..0..0..1..1. .1..1..1..1..0..0",
				"..0..1..0..0..0..1. .1..1..1..0..0..0. .0..1..1..1..1..1. .0..1..0..0..0..1",
				"..1..1..1..0..0..1. .0..1..1..1..0..0. .1..1..1..1..1..1. .0..1..0..0..0..0"
			],
			"xref": [
				"Cf. A302889."
			],
			"keyword": "nonn",
			"offset": "1,2",
			"author": "_R. H. Hardin_, Apr 15 2018",
			"references": 1,
			"revision": 4,
			"time": "2018-04-15T10:48:50-04:00",
			"created": "2018-04-15T10:48:50-04:00"
		}
	]
}