{
	"greeting": "Greetings from The On-Line Encyclopedia of Integer Sequences! http://oeis.org/",
	"query": "id:A302578",
	"count": 1,
	"start": 0,
	"results": [
		{
			"number": 302578,
			"data": "10,11,13,14,17,19,20,22,23,26,28,30,31,32,33,35,37,39,40,41,44,46,50,53,55,60,62,64,66,69,70,71,73,77,80,82,88,90,91,93,96,99,100,101,102,103,104,106,108,109,110,113,118,119,120,121,122,123,125,127,129,131,136,139,140,142,145,149,150",
			"name": "Numbers N such that N modulo N's digitsum is a substring of N.",
			"comment": [
				"It seems that about third of all numbers belong to the sequence."
			],
			"link": [
				"Jean-Marc Falcoz, \u003ca href=\"/A302578/b302578.txt\"\u003eTable of n, a(n) for n = 1..33333\u003c/a\u003e"
			],
			"example": [
				"10 has a digitsum of 1; 10/1 has 0 as remainder; 0 is a substring of 10;",
				"11 has a digitsum of 2; 11/2 has 1 as remainder; 1 is a substring of 11;",
				"12 has a digitsum of 3; 12/3 has 0 as remainder; 0 is not a substring of 12, thus 12 is not in the sequence;",
				"13 has a digitsum of 4; 13/4 has 1 as remainder; 1 is a substring of 13;",
				"...",
				"2018 has a digitsum of 11; 2018 modulo 11 is 5; 5 is not a substring of 2018, thus 2018 is not in the sequence;",
				"etc."
			],
			"maple": [
				"op(select(n-\u003esearchtext(convert(n mod convert(convert(n,base,10),`+`),string),convert(n,string))\u003e0,[$1...150])); # _Paolo P. Lava_, Sep 05 2018"
			],
			"keyword": "nonn,base",
			"offset": "1,1",
			"author": "_Eric Angelini_ and _Jean-Marc Falcoz_, Apr 10 2018",
			"references": 1,
			"revision": 12,
			"time": "2018-09-05T04:16:56-04:00",
			"created": "2018-04-10T09:34:27-04:00"
		}
	]
}