{
	"greeting": "Greetings from The On-Line Encyclopedia of Integer Sequences! http://oeis.org/",
	"query": "id:A302226",
	"count": 1,
	"start": 0,
	"results": [
		{
			"number": 302226,
			"data": "0,11,43,164,760,3425,15569,70323,318438,1441136,6522237,29519913,133601253,604673484,2736676090,12385962613,56057588893,253711291691,1148272314748,5196968663084,23520972129705,106453623089577",
			"name": "Number of 3Xn 0..1 arrays with every element equal to 1, 2 or 3 horizontally, diagonally or antidiagonally adjacent elements, with upper left element zero.",
			"comment": [
				"Row 3 of A302224."
			],
			"link": [
				"R. H. Hardin, \u003ca href=\"/A302226/b302226.txt\"\u003eTable of n, a(n) for n = 1..210\u003c/a\u003e"
			],
			"formula": [
				"Empirical: a(n) = a(n-1) +17*a(n-2) +12*a(n-3) -59*a(n-4) -83*a(n-5) +10*a(n-6) +87*a(n-7) +108*a(n-8) +22*a(n-9) -104*a(n-10) -71*a(n-11) +2*a(n-13) +a(n-14) +2*a(n-15) for n\u003e17"
			],
			"example": [
				"Some solutions for n=5",
				"..0..0..1..0..0. .0..0..0..1..1. .0..0..0..0..1. .0..0..1..0..0",
				"..1..0..1..1..0. .0..0..1..1..0. .1..1..0..1..0. .1..0..1..1..0",
				"..1..1..0..0..1. .1..1..1..0..0. .1..1..1..0..1. .0..1..0..0..0"
			],
			"xref": [
				"Cf. A302224."
			],
			"keyword": "nonn",
			"offset": "1,2",
			"author": "_R. H. Hardin_, Apr 03 2018",
			"references": 2,
			"revision": 4,
			"time": "2018-04-03T12:18:00-04:00",
			"created": "2018-04-03T12:18:00-04:00"
		}
	]
}