{
	"greeting": "Greetings from The On-Line Encyclopedia of Integer Sequences! http://oeis.org/",
	"query": "id:A302410",
	"count": 1,
	"start": 0,
	"results": [
		{
			"number": 302410,
			"data": "4,17,30,120,441,1431,4754,16423,55848,188797,641401,2181141,7403533,25137442,85383840,289971604,984703839,3344148948,11357024856,38568809117,130981523021,444820935270,1510634631331,5130191496078",
			"name": "Number of nX3 0..1 arrays with every element equal to 0, 1, 2 or 5 horizontally, diagonally or antidiagonally adjacent elements, with upper left element zero.",
			"comment": [
				"Column 3 of A302415."
			],
			"link": [
				"R. H. Hardin, \u003ca href=\"/A302410/b302410.txt\"\u003eTable of n, a(n) for n = 1..210\u003c/a\u003e"
			],
			"formula": [
				"Empirical: a(n) = 2*a(n-1) +2*a(n-2) +11*a(n-3) +a(n-4) -18*a(n-5) -14*a(n-6) -24*a(n-7) +52*a(n-8) -4*a(n-9) +8*a(n-10) -24*a(n-11) +24*a(n-12) -32*a(n-13)"
			],
			"example": [
				"Some solutions for n=5",
				"..0..1..1. .0..1..0. .0..1..0. .0..0..1. .0..0..1. .0..1..0. .0..1..0",
				"..0..1..0. .1..0..1. .1..1..0. .1..1..1. .1..0..1. .0..1..1. .0..1..0",
				"..1..1..0. .1..1..1. .1..0..0. .1..0..1. .0..0..1. .0..0..1. .0..1..1",
				"..1..0..0. .1..0..0. .1..0..1. .0..0..1. .0..1..1. .1..0..1. .0..0..1",
				"..1..0..1. .0..1..1. .1..0..1. .0..1..1. .0..1..0. .1..0..0. .1..0..1"
			],
			"xref": [
				"Cf. A302415."
			],
			"keyword": "nonn",
			"offset": "1,1",
			"author": "_R. H. Hardin_, Apr 07 2018",
			"references": 1,
			"revision": 4,
			"time": "2018-04-07T16:57:37-04:00",
			"created": "2018-04-07T16:57:37-04:00"
		}
	]
}