{
	"greeting": "Greetings from The On-Line Encyclopedia of Integer Sequences! http://oeis.org/",
	"query": "id:A303359",
	"count": 1,
	"start": 0,
	"results": [
		{
			"number": 303359,
			"data": "24,40,56,80,88,104,120,224,360,432,672,832,992,1008,1296,1456,1504,1584,1888,1952,2016,2160,2800,3800,5624,5800,7424,7616,9112,10080,11096,13736,15872,16256,17816,22848,24448,28544,30592,32128,33728,51136,62464,66368",
			"name": "Bi-unitary near-perfect numbers: bi-unitary abundant numbers k such that the abundance d = bsigma(k) - 2*k is a bi-unitary divisor of k, where bsigma(k) is the sum of bi-unitary divisors of k (A188999).",
			"comment": [
				"The bi-unitary version of A181595."
			],
			"link": [
				"Amiram Eldar, \u003ca href=\"/A303359/b303359.txt\"\u003eTable of n, a(n) for n = 1..183\u003c/a\u003e"
			],
			"example": [
				"24 is in the sequence since the sum of its bi-unitary divisors is 1 + 2 + 3 + 4 + 6 + 8 + 12 + 24 = 60 and 60 - 2*24 = 12 is a bi-unitary divisor of 24."
			],
			"mathematica": [
				"f[n_] := Select[Divisors[n], Function[d, CoprimeQ[d, n/d]]]; bsigma[m_] := DivisorSum[m, # \u0026, Last@Intersection[f@#, f[m/#]] == 1 \u0026]; biunitaryDivisorQ[ div_, n_] := If[Mod[#2, #1]==0, Last@Apply[Intersection, Map[Select[Divisors[#], Function[d, CoprimeQ[d, #/d]]]\u0026, {#1, #2/#1}]]==1, False]\u0026 @@{div, n}; aQ[n_] := Module[{d=bsigma[n]-2n},If[d\u003c=0, False,biunitaryDivisorQ[d,n]]]; s={}; Do[If[ aQ[n], AppendTo[s,n] ], {n, 1, 10000}]; s"
			],
			"program": [
				"(PARI) udivs(n) = {my(d = divisors(n)); select(x-\u003e(gcd(x, n/x)==1), d); }",
				"gcud(n, m) = vecmax(setintersect(udivs(n), udivs(m)));",
				"biudivs(n) = select(x-\u003e(gcud(x, n/x)==1), divisors(n));",
				"isok(n) = my(divs = biudivs(n), sig = vecsum(divs)); (sig \u003e 2*n) \u0026\u0026 vecsearch(divs, sig - 2*n); \\\\ _Michel Marcus_, Apr 27 2018"
			],
			"xref": [
				"Cf. A153501, A181595, A188999, A292982, A303358."
			],
			"keyword": "nonn",
			"offset": "1,1",
			"author": "_Amiram Eldar_ and _Michael De Vlieger_, Apr 22 2018",
			"references": 2,
			"revision": 15,
			"time": "2020-01-25T06:18:29-05:00",
			"created": "2018-05-31T03:03:22-04:00"
		}
	]
}