{
	"greeting": "Greetings from The On-Line Encyclopedia of Integer Sequences! http://oeis.org/",
	"query": "id:A303038",
	"count": 1,
	"start": 0,
	"results": [
		{
			"number": 303038,
			"data": "13,113,150,869,3069,13597,63254,298328,1487003,7748342,41876150,234739185,1358331357,8044921674,48567141833,297402619344,1839614527950,11463650530293,71813104193006,451521024746927,2846294049645254",
			"name": "Number of nX6 0..1 arrays with every element equal to 0, 1, 3, 4 or 6 horizontally, diagonally or antidiagonally adjacent elements, with upper left element zero.",
			"comment": [
				"Column 6 of A303040."
			],
			"link": [
				"R. H. Hardin, \u003ca href=\"/A303038/b303038.txt\"\u003eTable of n, a(n) for n = 1..210\u003c/a\u003e"
			],
			"example": [
				"Some solutions for n=5",
				"..0..1..0..1..1..0. .0..1..0..1..1..1. .0..1..0..1..0..1. .0..0..1..0..1..0",
				"..0..1..0..1..0..1. .0..1..0..1..0..1. .1..0..0..1..1..0. .0..1..0..0..1..0",
				"..0..1..0..1..0..1. .0..1..0..1..0..1. .1..0..1..0..1..0. .0..1..0..0..0..0",
				"..0..1..0..1..0..1. .0..1..0..1..0..1. .1..0..1..0..1..0. .0..1..1..0..1..0",
				"..0..0..1..1..0..1. .0..1..0..0..1..1. .1..0..1..0..1..0. .0..1..0..1..1..0"
			],
			"xref": [
				"Cf. A303040."
			],
			"keyword": "nonn",
			"offset": "1,1",
			"author": "_R. H. Hardin_, Apr 17 2018",
			"references": 1,
			"revision": 4,
			"time": "2018-04-17T13:22:17-04:00",
			"created": "2018-04-17T13:22:17-04:00"
		}
	]
}