{
	"greeting": "Greetings from The On-Line Encyclopedia of Integer Sequences! http://oeis.org/",
	"query": "id:A303664",
	"count": 1,
	"start": 0,
	"results": [
		{
			"number": 303664,
			"data": "1,2,3,6,9,14,25,38,57,84,141,206,307,440,633,984,1419,2036,2887,4064,5619,8370,11667,16424,22717,31478,42783,58386,82701,113162,155029,210770,285645,383688,514497,682922,940327,1256300,1687365,2245692,2997183,3955448,5233315,6854588,8978175,11998806",
			"name": "Expansion of (1/(1 - x))*Sum_{k\u003e=0} k!*x^(k*(k+1)/2)/Product_{j=1..k} (1 - x^j).",
			"comment": [
				"Partial sums of A032020."
			],
			"link": [
				"\u003ca href=\"/index/Com#comp\"\u003eIndex entries for sequences related to compositions\u003c/a\u003e"
			],
			"maple": [
				"T:= proc(n, k) option remember; `if`(k\u003c0 or n\u003c0, 0,",
				"      `if`(k=0, `if`(n=0, 1, 0), T(n-k, k) +k*T(n-k, k-1)))",
				"    end:",
				"b:= n-\u003e add(T(n, k), k=0..floor((sqrt(8*n+1)-1)/2)):",
				"a:= proc(n) option remember;",
				"      `if`(n\u003c0, 0, b(n)+a(n-1))",
				"    end:",
				"seq(a(n), n=0..50);  # _Alois P. Heinz_, Apr 28 2018"
			],
			"mathematica": [
				"nmax = 45; CoefficientList[Series[1/(1 - x) Sum[k! x^(k (k + 1)/2)/Product[1 - x^j, {j, 1, k}], {k, 0, nmax}], {x, 0, nmax}], x]"
			],
			"xref": [
				"Cf. A000079, A032020, A036469."
			],
			"keyword": "nonn",
			"offset": "0,2",
			"author": "_Ilya Gutkovskiy_, Apr 28 2018",
			"references": 1,
			"revision": 6,
			"time": "2018-04-28T17:13:50-04:00",
			"created": "2018-04-28T17:13:50-04:00"
		}
	]
}