{
	"greeting": "Greetings from The On-Line Encyclopedia of Integer Sequences! http://oeis.org/",
	"query": "id:A303680",
	"count": 1,
	"start": 0,
	"results": [
		{
			"number": 303680,
			"data": "13,49,39,64,110,177,245,335,467,657,949,1391,2035,2937,4221,6079,8771,12657,18269,26383,38091,54969,79317,114471,165219,238457,344157,496719,716907,1034681,1493309,2155247,3110611,4489449,6479477,9351631,13496923",
			"name": "Number of nX6 0..1 arrays with every element unequal to 0, 1 or 3 king-move adjacent elements, with upper left element zero.",
			"comment": [
				"Column 6 of A303682."
			],
			"link": [
				"R. H. Hardin, \u003ca href=\"/A303680/b303680.txt\"\u003eTable of n, a(n) for n = 1..210\u003c/a\u003e"
			],
			"formula": [
				"Empirical: a(n) = a(n-1) +a(n-4) +a(n-7) for n\u003e12"
			],
			"example": [
				"Some solutions for n=5",
				"..0..1..1..1..1..0. .0..0..0..0..0..0. .0..0..0..0..0..0. .0..1..1..0..0..0",
				"..1..1..1..1..1..1. .1..0..0..0..0..0. .0..0..0..0..0..0. .1..1..1..1..0..0",
				"..1..1..1..1..1..1. .1..1..0..0..0..0. .0..0..0..0..0..0. .1..1..1..1..1..0",
				"..1..1..1..1..1..1. .1..1..1..0..0..0. .0..0..0..0..0..0. .1..1..1..1..1..1",
				"..1..1..1..1..1..0. .1..1..1..1..0..0. .0..0..0..0..0..1. .1..1..1..1..1..1"
			],
			"xref": [
				"Cf. A303682."
			],
			"keyword": "nonn",
			"offset": "1,1",
			"author": "_R. H. Hardin_, Apr 28 2018",
			"references": 1,
			"revision": 4,
			"time": "2018-04-28T09:22:03-04:00",
			"created": "2018-04-28T09:22:03-04:00"
		}
	]
}