{
	"greeting": "Greetings from The On-Line Encyclopedia of Integer Sequences! http://oeis.org/",
	"query": "id:A303311",
	"count": 1,
	"start": 0,
	"results": [
		{
			"number": 303311,
			"data": "8,7,24,50,139,349,853,2180,5525,13824,34900,88161,221923,559409,1411020,3556271,8964218,22600998,56974213,143622769,362071261,912756908,2300972077,5800604608,14622927344,36863258801,92929626827,234268970653",
			"name": "Number of nX5 0..1 arrays with every element equal to 0, 1, 4, 5 or 6 horizontally, diagonally or antidiagonally adjacent elements, with upper left element zero.",
			"comment": [
				"Column 5 of A303314."
			],
			"link": [
				"R. H. Hardin, \u003ca href=\"/A303311/b303311.txt\"\u003eTable of n, a(n) for n = 1..210\u003c/a\u003e"
			],
			"formula": [
				"Empirical: a(n) = a(n-1) +9*a(n-3) +2*a(n-4) +4*a(n-5) -10*a(n-6) -6*a(n-7) +4*a(n-9) for n\u003e12"
			],
			"example": [
				"Some solutions for n=5",
				"..0..1..1..1..0. .0..1..0..1..0. .0..0..0..1..0. .0..0..0..1..0",
				"..0..1..0..1..0. .0..0..1..1..0. .0..1..0..1..0. .0..1..0..1..0",
				"..0..1..0..1..0. .0..1..0..1..0. .0..1..0..1..0. .0..1..0..1..0",
				"..0..1..0..1..0. .0..1..0..1..0. .0..0..0..1..0. .0..0..0..1..0",
				"..0..1..1..1..0. .0..0..0..1..0. .0..1..0..1..0. .1..1..0..1..0"
			],
			"xref": [
				"Cf. A303314."
			],
			"keyword": "nonn",
			"offset": "1,1",
			"author": "_R. H. Hardin_, Apr 21 2018",
			"references": 1,
			"revision": 4,
			"time": "2018-04-21T12:46:20-04:00",
			"created": "2018-04-21T12:46:20-04:00"
		}
	]
}