{
	"greeting": "Greetings from The On-Line Encyclopedia of Integer Sequences! http://oeis.org/",
	"query": "id:A303525",
	"count": 1,
	"start": 0,
	"results": [
		{
			"number": 303525,
			"data": "1,2,2,3,3,4,5,11,6,8,8,21,18,10,16,13,31,37,39,21,32,21,113,80,103,95,42,64,34,363,286,359,340,246,86,128,55,813,916,1875,1758,1115,687,179,256,89,1751,2532,8676,13031,9225,4112,2023,370,512,144,5001,7477,36072",
			"name": "T(n,k)=Number of nXk 0..1 arrays with every element equal to 0, 1, 3, 4, 5 or 6 horizontally, diagonally or antidiagonally adjacent elements, with upper left element zero.",
			"comment": [
				"Table starts",
				"...1...2....3.....5.......8........13.........21...........34............55",
				"...2...3...11....21......31.......113........363..........813..........1751",
				"...4...6...18....37......80.......286........916.........2532..........7477",
				"...8..10...39...103.....359......1875.......8676........36072........166784",
				"..16..21...95...340....1758.....13031......87730.......569770.......4036330",
				"..32..42..246..1115....9225....102779....1052163.....10663440.....122173279",
				"..64..86..687..4112...56046....965150...15768709....258412452....4730074082",
				".128.179.2023.16640..366415...9961980..260078546...6835357512..199276300520",
				".256.370.6126.71025.2519399.109395622.4544413190.190464446456.8858057538977"
			],
			"link": [
				"R. H. Hardin, \u003ca href=\"/A303525/b303525.txt\"\u003eTable of n, a(n) for n = 1..180\u003c/a\u003e"
			],
			"formula": [
				"Empirical for column k:",
				"k=1: a(n) = 2*a(n-1)",
				"k=2: a(n) = 2*a(n-1) +a(n-2) -a(n-3) -2*a(n-4) +a(n-5)",
				"k=3: [order 12] for n\u003e15",
				"k=4: [order 47] for n\u003e49",
				"Empirical for row n:",
				"n=1: a(n) = a(n-1) +a(n-2)",
				"n=2: a(n) = 2*a(n-1) -a(n-2) +4*a(n-3) +12*a(n-4) -16*a(n-5) for n\u003e6",
				"n=3: [order 20] for n\u003e21",
				"n=4: [order 58] for n\u003e60"
			],
			"example": [
				"Some solutions for n=5 k=4",
				"..0..1..1..1. .0..1..1..1. .0..1..1..1. .0..0..1..1. .0..1..1..0",
				"..0..1..0..1. .0..1..0..1. .0..1..0..1. .0..1..0..1. .0..0..0..0",
				"..0..1..0..1. .0..1..0..1. .0..1..0..1. .0..1..0..1. .1..1..1..0",
				"..0..0..0..1. .0..1..0..1. .1..0..0..1. .0..0..0..1. .1..0..1..0",
				"..0..1..1..1. .0..1..1..0. .1..0..1..0. .0..1..1..1. .1..0..1..0"
			],
			"xref": [
				"Column 1 is A000079(n-1).",
				"Column 2 is A240513.",
				"Row 1 is A000045(n+1).",
				"Row 2 is A302310."
			],
			"keyword": "nonn,tabl",
			"offset": "1,2",
			"author": "_R. H. Hardin_, Apr 25 2018",
			"references": 12,
			"revision": 4,
			"time": "2018-04-25T12:41:08-04:00",
			"created": "2018-04-25T12:41:08-04:00"
		}
	]
}