{
	"greeting": "Greetings from The On-Line Encyclopedia of Integer Sequences! http://oeis.org/",
	"query": "id:A303108",
	"count": 1,
	"start": 0,
	"results": [
		{
			"number": 303108,
			"data": "2,5,24,166,1488,16344,212352,3184560,54132480,1028476800,21597649920,496742319360,12418518067200,335299508812800,9723679528550400,301433978206771200,9947319973149081600,348156178137427968000,12881778235397406720000,502389344778125156352000",
			"name": "a(n) = (2*n-1)*a(n-1) - (n-2)!, with a(1) = 2, n \u003e 1.",
			"link": [
				"Chai Wah Wu, \u003ca href=\"/A303108/b303108.txt\"\u003eTable of n, a(n) for n = 1..404\u003c/a\u003e",
				"Travis Sherman, \u003ca href=\"http://math.arizona.edu/~rta/001/sherman.travis/series.pdf\"\u003eSummation of Glaisher- and Apery-like Series\u003c/a\u003e, University of Arizona, May 23 2000, p. 15, (3.94) - (3.98)."
			],
			"formula": [
				"a(n) = f1(n)*2*(n-1)!, where f1(n) corresponds to the x values such that Sum_{k\u003e=0} 2^k/(binomial(2*k,k)*(k+n))) = x*Pi - y*Pi^2 - z. (See examples for connection with a(n) in terms of material at Links section.)",
				"f2(n) corresponds to the y values, so f2(n) = (1/2^(n+2))*((2*n-1)!/((n-1)!)^2).",
				"a(n) = 3*(n-1)*a(n-1) - (2n-3)*(n-2)*a(n-2) for n \u003e 2. - _Chai Wah Wu_, Apr 20 2018"
			],
			"example": [
				"Examples ((3.94) - (3.98)) at page 15 in Links section as follows, respectively.",
				"For n=1, f1(1) = 1, so a(1) = 2.",
				"For n=2, f1(2) = 5/2, so a(2) = 5.",
				"For n=3, f1(3) = 6, so a(3) = 24.",
				"For n=4, f1(4) = 83/6, so a(4) = 166.",
				"For n=5, f1(5) = 31, so a(5) = 1488."
			],
			"mathematica": [
				"RecurrenceTable[{a[n] == (2*n-1)*a[n-1] - (n-2)!, a[1] == 2}, a, {n, 1, 15}] (* _Altug Alkan_, Apr 20 2018 *)",
				"nmax = 15; Table[CoefficientList[Expand[FunctionExpand[Table[Sum[ 2^j/(Binomial[2*j, j]*(j + m)), {j, 0, Infinity}], {m, 1, nmax}]]], Pi][[n, 2]]*2*(n-1)!, {n, 1, nmax}] (* _Vaclav Kotesovec_, Apr 20 2018 *)"
			],
			"program": [
				"(PARI) a=vector(20); a[1]=2; for(n=2, #a, a[n]=(2*n-1)*a[n-1] - (n-2)!); a",
				"(Python)",
				"A303108_list = [2,5]",
				"for n in range(3,501):",
				"    A303108_list.append(3*(n-1)*A303108_list[-1]-(2*n-3)*(n-2)*A303108_list[-2]) # _Chai Wah Wu_, Apr 20 2018",
				"(MAGMA) I:=[2,5]; [n le 2 select I[n] else 3*(n-1)*Self(n-1)- (2*n-3)*(n-2)*Self(n-2): n in [1..30]]; // _Vincenzo Librandi_, Apr 20 2018"
			],
			"xref": [
				"Cf. A303109."
			],
			"keyword": "nonn",
			"offset": "1,1",
			"author": "_Detlef Meya_, Apr 18 2018",
			"references": 2,
			"revision": 30,
			"time": "2018-04-20T13:23:36-04:00",
			"created": "2018-04-20T11:26:04-04:00"
		}
	]
}