{
	"greeting": "Greetings from The On-Line Encyclopedia of Integer Sequences! http://oeis.org/",
	"query": "id:A303666",
	"count": 1,
	"start": 0,
	"results": [
		{
			"number": 303666,
			"data": "1,2,4,7,13,23,41,72,128,226,400,706,1248,2204,3894,6877,12149,21459,37907,66957,118275,208919,369037,651863,1151453,2033921,3592719,6346167,11209863,19801075,34976589,61782572,109132628,192771658,340511506,601478868,1062451154,1876711698,3315020026",
			"name": "Expansion of 1/((1 - x)*(1 - Sum_{k\u003e=0} x^(2^k))).",
			"comment": [
				"Partial sums of A023359."
			],
			"link": [
				"\u003ca href=\"/index/Com#comp\"\u003eIndex entries for sequences related to compositions\u003c/a\u003e"
			],
			"maple": [
				"b:= proc(n) option remember;",
				"      `if`(n=0, 1, add(b(n-2^i), i=0..ilog2(n)))",
				"    end:",
				"a:= proc(n) option remember;",
				"      `if`(n\u003c0, 0, b(n)+a(n-1))",
				"    end:",
				"seq(a(n), n=0..50);  # _Alois P. Heinz_, Apr 28 2018"
			],
			"mathematica": [
				"nmax = 38; CoefficientList[Series[1/((1 - x) (1 - Sum[x^2^k, {k, 0, nmax}])), {x, 0, nmax}], x]",
				"a[0] = 1; a[n_] := a[n] = Sum[Boole[k == 2^IntegerExponent[k, 2]] a[n - k], {k, 1, n}]; Accumulate[Table[a[n], {n, 0, 38}]]"
			],
			"xref": [
				"Cf. A000079, A000123, A023359, A209229."
			],
			"keyword": "nonn",
			"offset": "0,2",
			"author": "_Ilya Gutkovskiy_, Apr 28 2018",
			"references": 1,
			"revision": 6,
			"time": "2018-04-28T17:14:06-04:00",
			"created": "2018-04-28T17:14:06-04:00"
		}
	]
}