{
	"greeting": "Greetings from The On-Line Encyclopedia of Integer Sequences! http://oeis.org/",
	"query": "id:A303473",
	"count": 1,
	"start": 0,
	"results": [
		{
			"number": 303473,
			"data": "32,2048,39098,872026,19374638,427097893,9459086839,209307775365,4631027050408,102476059849475,2267535893974609,50174934890184604,1110249088638046980,24567091613015417289,543609599779313016247",
			"name": "Number of 6Xn 0..1 arrays with every element equal to 0, 1, 2, 3, 5 or 6 horizontally, diagonally or antidiagonally adjacent elements, with upper left element zero.",
			"comment": [
				"Row 6 of A303469."
			],
			"link": [
				"R. H. Hardin, \u003ca href=\"/A303473/b303473.txt\"\u003eTable of n, a(n) for n = 1..210\u003c/a\u003e"
			],
			"example": [
				"Some solutions for n=5",
				"..0..0..0..0..0. .0..0..0..0..0. .0..0..0..0..0. .0..0..0..0..0",
				"..0..0..1..1..1. .0..0..1..1..0. .0..0..1..1..0. .0..0..1..1..0",
				"..0..1..0..0..1. .1..0..1..0..1. .1..0..1..1..1. .0..1..0..1..1",
				"..0..1..0..1..0. .0..0..1..0..1. .0..1..0..0..0. .1..1..1..1..0",
				"..0..1..0..1..0. .1..1..0..1..0. .1..1..0..1..1. .1..0..0..1..1",
				"..1..1..1..0..1. .0..1..1..0..0. .0..1..0..0..1. .0..0..0..1..1"
			],
			"xref": [
				"Cf. A303469."
			],
			"keyword": "nonn",
			"offset": "1,1",
			"author": "_R. H. Hardin_, Apr 24 2018",
			"references": 1,
			"revision": 4,
			"time": "2018-04-24T10:46:17-04:00",
			"created": "2018-04-24T10:46:17-04:00"
		}
	]
}