{
	"greeting": "Greetings from The On-Line Encyclopedia of Integer Sequences! http://oeis.org/",
	"query": "id:A303602",
	"count": 1,
	"start": 0,
	"results": [
		{
			"number": 303602,
			"data": "0,3,25,154,837,4246,20618,97140,447661,2028478,9070110,40122028,175913250,765561564,3310623412,14238676712,60949133949,259809601870,1103420316566,4670886541308,19714134528598,82985455688276,348481959315660,1460179866076504,6106070639175122",
			"name": "a(n) = Sum_{k = 0..n} k*binomial(2*n+1, k).",
			"comment": [
				"Second bisection of A185251; the first bisection is A002699.",
				"The terms are not congruent to 5 (mod 6)."
			],
			"formula": [
				"E.g.f.: ((1 + 8*x)*exp(2*x) - (1 + 4*x)*I_0(2*x) - 4*x*I_1(2*x))*exp(2*x)/2, where I_m(.) is the modified Bessel function of the first kind.",
				"From _Vaclav Kotesovec_, May 10 2018: (Start)",
				"G.f.: (1 + 4*x - sqrt(1 - 4*x)) / (2*(1 - 4*x)^2).",
				"D-finite with recurrence: n*(2*n-1)*a(n) = 2*(2*n+1)*(4*n-3)*a(n-1) - 8*(2*n-1)*(2*n+1)*a(n-2). (End)",
				"a(n) = (2*n + 1)*(4^n - binomial(2*n, n))/2.",
				"a(n+1) - 4*a(n) = A164991(2*n+3)."
			],
			"maple": [
				"seq(add(k*binomial(2*n+1,k),k=0..n),n=0..24); # _Paolo P. Lava_, May 10 2018"
			],
			"mathematica": [
				"Table[Sum[k Binomial[2 n + 1, k], {k, 0, n}], {n, 0, 30}]",
				"CoefficientList[Series[(1 + 4*x - Sqrt[1 - 4*x]) / (2*(1 - 4*x)^2), {x, 0, 25}], x] (* _Vaclav Kotesovec_, May 10 2018 *)"
			],
			"program": [
				"(Sage) [(2*n+1)*(4^n-binomial(2*n,n))/2 for n in (0..30)]"
			],
			"xref": [
				"Cf. A000346, A002699, A005408, A047226, A164991, A185251."
			],
			"keyword": "nonn,easy",
			"offset": "0,2",
			"author": "_Bruno Berselli_, May 09 2018",
			"references": 2,
			"revision": 38,
			"time": "2020-01-30T21:29:18-05:00",
			"created": "2018-05-10T17:56:12-04:00"
		}
	]
}