{
	"greeting": "Greetings from The On-Line Encyclopedia of Integer Sequences! http://oeis.org/",
	"query": "id:A303044",
	"count": 1,
	"start": 0,
	"results": [
		{
			"number": 303044,
			"data": "32,42,186,544,2494,13597,59654,251705,1186522,5869222,27381443,126165687,604239638,2948606295,14144665365,67469024030,326726182958,1595597953024,7746571268500,37522290645262,182886057727441",
			"name": "Number of 6Xn 0..1 arrays with every element equal to 0, 1, 3, 4 or 6 horizontally, diagonally or antidiagonally adjacent elements, with upper left element zero.",
			"comment": [
				"Row 6 of A303040."
			],
			"link": [
				"R. H. Hardin, \u003ca href=\"/A303044/b303044.txt\"\u003eTable of n, a(n) for n = 1..210\u003c/a\u003e"
			],
			"example": [
				"Some solutions for n=5",
				"..0..1..0..1..0. .0..1..0..1..0. .0..1..1..1..0. .0..0..0..1..0",
				"..0..1..0..0..0. .0..1..1..1..0. .1..1..1..1..1. .0..1..0..1..0",
				"..1..1..0..1..0. .0..1..0..1..0. .0..1..1..1..0. .0..1..0..1..1",
				"..0..1..0..1..0. .0..1..0..1..0. .0..1..0..1..0. .0..1..0..1..0",
				"..0..1..0..1..0. .0..1..0..1..0. .0..1..0..1..0. .0..1..0..1..0",
				"..0..1..1..0..0. .0..1..0..1..0. .0..1..0..0..1. .0..0..1..1..0"
			],
			"xref": [
				"Cf. A303040."
			],
			"keyword": "nonn",
			"offset": "1,1",
			"author": "_R. H. Hardin_, Apr 17 2018",
			"references": 1,
			"revision": 4,
			"time": "2018-04-17T13:26:29-04:00",
			"created": "2018-04-17T13:26:29-04:00"
		}
	]
}