{
	"greeting": "Greetings from The On-Line Encyclopedia of Integer Sequences! http://oeis.org/",
	"query": "id:A303413",
	"count": 1,
	"start": 0,
	"results": [
		{
			"number": 303413,
			"data": "0,162,2327,3256,21361,236326,1716995,8688851,56229035,428784791,3021617644,19058753004,128800589241,899664264951,6188584855591,41513163165807,282748964373121,1940464266658865,13278427810584311",
			"name": "Number of 6Xn 0..1 arrays with every element equal to 1, 2, 4, 5 or 6 horizontally, diagonally or antidiagonally adjacent elements, with upper left element zero.",
			"comment": [
				"Row 6 of A303410."
			],
			"link": [
				"R. H. Hardin, \u003ca href=\"/A303413/b303413.txt\"\u003eTable of n, a(n) for n = 1..210\u003c/a\u003e"
			],
			"example": [
				"Some solutions for n=5",
				"..0..0..0..0..0. .0..1..0..1..1. .0..0..1..0..0. .0..0..1..0..0",
				"..0..0..0..0..0. .1..0..1..0..0. .1..0..1..1..0. .1..0..1..1..1",
				"..1..1..1..1..1. .1..1..1..1..1. .1..1..0..0..0. .0..1..1..0..0",
				"..1..0..1..0..1. .0..0..1..0..0. .0..0..1..0..0. .1..0..1..0..1",
				"..1..1..0..1..1. .1..0..1..0..1. .1..0..1..1..0. .1..0..1..1..1",
				"..0..0..1..0..0. .1..1..1..1..1. .1..1..1..0..1. .0..1..0..0..1"
			],
			"xref": [
				"Cf. A303410."
			],
			"keyword": "nonn",
			"offset": "1,2",
			"author": "_R. H. Hardin_, Apr 23 2018",
			"references": 1,
			"revision": 4,
			"time": "2018-04-23T10:44:02-04:00",
			"created": "2018-04-23T10:44:02-04:00"
		}
	]
}