{
	"greeting": "Greetings from The On-Line Encyclopedia of Integer Sequences! http://oeis.org/",
	"query": "id:A304548",
	"count": 1,
	"start": 0,
	"results": [
		{
			"number": 304548,
			"data": "1,82,217,2186,16782,127607,1061345,8678318,70215574,577416272,4726737248,38660295862,316896797330,2595679202847,21259473458379,174175307343534,1426821139278556,11688308432092316,95752925469921338",
			"name": "Number of nX5 0..1 arrays with every element unequal to 0, 2, 3, 4 or 6 king-move adjacent elements, with upper left element zero.",
			"comment": [
				"Column 5 of A304551."
			],
			"link": [
				"R. H. Hardin, \u003ca href=\"/A304548/b304548.txt\"\u003eTable of n, a(n) for n = 1..210\u003c/a\u003e"
			],
			"example": [
				"Some solutions for n=5",
				"..0..0..1..0..1. .0..1..0..0..1. .0..1..1..0..1. .0..1..0..0..1",
				"..1..1..1..1..0. .1..1..1..0..0. .0..1..1..0..1. .0..1..0..0..1",
				"..0..0..1..0..0. .0..1..1..1..0. .1..0..1..1..0. .0..1..0..0..0",
				"..1..1..0..0..1. .1..0..1..0..1. .1..0..1..1..0. .0..0..1..1..1",
				"..0..1..1..0..1. .1..0..1..0..1. .1..0..1..1..0. .1..0..1..1..1"
			],
			"xref": [
				"Cf. A304551."
			],
			"keyword": "nonn",
			"offset": "1,2",
			"author": "_R. H. Hardin_, May 14 2018",
			"references": 1,
			"revision": 4,
			"time": "2018-05-14T08:49:19-04:00",
			"created": "2018-05-14T08:49:19-04:00"
		}
	]
}