{
	"greeting": "Greetings from The On-Line Encyclopedia of Integer Sequences! http://oeis.org/",
	"query": "id:A304155",
	"count": 1,
	"start": 0,
	"results": [
		{
			"number": 304155,
			"data": "0,702,1722,60352,839935,12806826,217640633,3520683600,56360283031,925790421949,14995653106319,243449572143143,3961555586460616,64339957150977924,1045521379732970185,16993284073070123472",
			"name": "Number of nX7 0..1 arrays with every element unequal to 2, 3, 4 or 6 king-move adjacent elements, with upper left element zero.",
			"comment": [
				"Column 7 of A304156."
			],
			"link": [
				"R. H. Hardin, \u003ca href=\"/A304155/b304155.txt\"\u003eTable of n, a(n) for n = 1..210\u003c/a\u003e"
			],
			"example": [
				"Some solutions for n=5",
				"..0..1..1..0..0..0..1. .0..1..0..0..1..1..0. .0..1..1..1..1..0..1",
				"..0..1..1..0..1..1..0. .0..1..0..0..1..0..1. .0..1..0..0..0..1..0",
				"..0..1..1..1..1..1..0. .1..0..0..1..1..1..0. .0..0..0..0..0..0..0",
				"..1..1..1..0..0..1..0. .1..0..0..1..1..0..1. .1..0..1..1..0..1..1",
				"..0..0..1..0..1..1..0. .0..1..0..1..1..0..1. .0..1..0..0..1..0..0"
			],
			"xref": [
				"Cf. A304156."
			],
			"keyword": "nonn",
			"offset": "1,2",
			"author": "_R. H. Hardin_, May 07 2018",
			"references": 1,
			"revision": 4,
			"time": "2018-05-07T09:04:00-04:00",
			"created": "2018-05-07T09:04:00-04:00"
		}
	]
}