{
	"greeting": "Greetings from The On-Line Encyclopedia of Integer Sequences! http://oeis.org/",
	"query": "id:A304983",
	"count": 1,
	"start": 0,
	"results": [
		{
			"number": 304983,
			"data": "1,1,3,14,118,2916,819473",
			"name": "Number of unlabeled clutters (connected antichains) spanning n vertices with singleton edges allowed.",
			"formula": [
				"Inverse Euler transform of A304997. - _Andrew Howroyd_, Aug 14 2019"
			],
			"example": [
				"Non-isomorphic representatives of the a(3) = 14 clutters:",
				"  {{1,2,3}}",
				"  {{1,3},{2,3}}",
				"  {{3},{1,2,3}}",
				"  {{1,2},{1,3},{2,3}}",
				"  {{3},{1,2},{2,3}}",
				"  {{3},{1,3},{2,3}}",
				"  {{2},{3},{1,2,3}}",
				"  {{1},{2},{3},{1,2,3}}",
				"  {{2},{3},{1,2},{1,3}}",
				"  {{3},{1,2},{1,3},{2,3}}",
				"  {{2},{3},{1,3},{2,3}}",
				"  {{1},{2},{3},{1,3},{2,3}}",
				"  {{2},{3},{1,2},{1,3},{2,3}}",
				"  {{1},{2},{3},{1,2},{1,3},{2,3}}"
			],
			"xref": [
				"Cf. A048143, A198085, A261006, A304912, A304981, A304982, A304983, A304984, A304985, A304986, A304997."
			],
			"keyword": "nonn,more",
			"offset": "0,3",
			"author": "_Gus Wiseman_, May 23 2018",
			"ext": [
				"a(5)-a(6) from _Andrew Howroyd_, Aug 14 2019"
			],
			"references": 8,
			"revision": 10,
			"time": "2019-08-14T19:19:55-04:00",
			"created": "2018-05-23T23:13:01-04:00"
		}
	]
}