{
	"greeting": "Greetings from The On-Line Encyclopedia of Integer Sequences! http://oeis.org/",
	"query": "id:A304327",
	"count": 1,
	"start": 0,
	"results": [
		{
			"number": 304327,
			"data": "1,1,1,1,1,1,1,2,1,1,1,1,1,1,1,2,1,1,1,1,1,1,1,2,1,1,2,1,1,1,1,2,1,1,1,1,1,1,1,2,1,1,1,1,1,1,1,2,1,1,1,1,1,2,1,2,1,1,1,1,1,1,1,2,1,1,1,1,1,1,1,1,1,1,1,1,1,1,1,2,2,1,1,1,1,1,1,2,1,1,1,1,1,1,1,2,1,1,1,1,1,1,1,2,1",
			"name": "Number of ways to write n as a product of a perfect power and a squarefree number.",
			"comment": [
				"First term greater than 2 is a(746496) = 3."
			],
			"link": [
				"Antti Karttunen, \u003ca href=\"/A304327/b304327.txt\"\u003eTable of n, a(n) for n = 1..65537\u003c/a\u003e"
			],
			"example": [
				"The a(746496) = 3 ways are 12^5*3, 72^3*2, 864^2*1."
			],
			"mathematica": [
				"Table[Length[Select[Divisors[n],(#===1||GCD@@FactorInteger[#][[All,2]]\u003e1)\u0026\u0026SquareFreeQ[n/#]\u0026]],{n,100}]"
			],
			"program": [
				"(PARI) A304327(n) = sumdiv(n,d,issquarefree(n/d)*((1==d)||ispower(d))); \\\\ _Antti Karttunen_, Jul 29 2018"
			],
			"xref": [
				"Cf. A000961, A001055, A001597, A005117, A007916, A034444, A091050, A183096, A203025, A246549, A303386, A304326, A304328."
			],
			"keyword": "nonn",
			"offset": "1,8",
			"author": "_Gus Wiseman_, May 10 2018",
			"ext": [
				"More terms from _Antti Karttunen_, Jul 29 2018"
			],
			"references": 8,
			"revision": 10,
			"time": "2018-07-30T13:47:37-04:00",
			"created": "2018-05-12T14:41:40-04:00"
		}
	]
}