{
	"greeting": "Greetings from The On-Line Encyclopedia of Integer Sequences! http://oeis.org/",
	"query": "id:A304062",
	"count": 1,
	"start": 0,
	"results": [
		{
			"number": 304062,
			"data": "0,61,376,5580,79185,1105513,15790468,223280583,3167599806,44921636772,636902565140,9032140947293,128074347136150,1816136639942716,25753285123979094,365187542346834275,5178454500347438324",
			"name": "Number of nX5 0..1 arrays with every element unequal to 2, 3, 4 or 5 king-move adjacent elements, with upper left element zero.",
			"comment": [
				"Column 5 of A304065."
			],
			"link": [
				"R. H. Hardin, \u003ca href=\"/A304062/b304062.txt\"\u003eTable of n, a(n) for n = 1..210\u003c/a\u003e"
			],
			"example": [
				"Some solutions for n=5",
				"..0..1..1..0..0. .0..1..1..0..1. .0..0..1..1..0. .0..1..0..0..0",
				"..1..1..0..1..1. .1..0..1..1..0. .1..1..0..0..1. .1..0..1..1..1",
				"..1..0..0..1..0. .0..0..1..0..0. .0..0..1..1..0. .1..0..1..0..0",
				"..0..0..1..1..1. .0..1..0..1..1. .0..0..0..1..1. .0..1..0..0..0",
				"..1..1..0..1..0. .1..0..1..0..0. .1..1..0..0..0. .0..1..1..1..1"
			],
			"xref": [
				"Cf. A304065."
			],
			"keyword": "nonn",
			"offset": "1,2",
			"author": "_R. H. Hardin_, May 05 2018",
			"references": 1,
			"revision": 4,
			"time": "2018-05-05T15:28:17-04:00",
			"created": "2018-05-05T15:28:17-04:00"
		}
	]
}