{
	"greeting": "Greetings from The On-Line Encyclopedia of Integer Sequences! http://oeis.org/",
	"query": "id:A304761",
	"count": 1,
	"start": 0,
	"results": [
		{
			"number": 304761,
			"data": "0,3,16,1321,316639,292676592,969267512820,11630662747620895,503933308340733338752",
			"name": "Number of n X n 0..1 arrays with every element unequal to 2, 3, 4, 5 or 6 king-move adjacent elements, with upper left element zero.",
			"comment": [
				"Diagonal of A304767."
			],
			"example": [
				"Some solutions for n=5",
				"..0..1..0..1..0. .0..0..0..0..0. .0..1..0..1..0. .0..1..0..0..0",
				"..1..0..1..0..1. .1..1..1..1..1. .0..1..1..0..1. .0..1..0..1..1",
				"..0..0..0..0..0. .1..0..0..1..0. .1..0..1..1..0. .0..1..0..0..1",
				"..0..1..1..1..1. .1..0..0..0..1. .1..0..0..1..1. .0..0..1..0..1",
				"..0..1..0..0..0. .0..1..0..1..0. .0..1..0..0..0. .1..1..1..0..1"
			],
			"xref": [
				"Cf. A304767."
			],
			"keyword": "nonn",
			"offset": "1,2",
			"author": "_R. H. Hardin_, May 18 2018",
			"references": 0,
			"revision": 6,
			"time": "2020-10-20T19:27:12-04:00",
			"created": "2018-05-18T08:03:09-04:00"
		}
	]
}