{
	"greeting": "Greetings from The On-Line Encyclopedia of Integer Sequences! http://oeis.org/",
	"query": "id:A304947",
	"count": 1,
	"start": 0,
	"results": [
		{
			"number": 304947,
			"data": "1,7,13,21,29,58,120,250,515,1100,2302,4973,10539,22512,48417,103240,222483,476629,1023567,2201683,4721852,10159934,21815950,46884155,100796318,216507106,465528729,1000276465,2149938118,4621346273",
			"name": "Number of nX3 0..1 arrays with every element unequal to 0, 2, 3, 5 or 7 king-move adjacent elements, with upper left element zero.",
			"comment": [
				"Column 3 of A304952."
			],
			"link": [
				"R. H. Hardin, \u003ca href=\"/A304947/b304947.txt\"\u003eTable of n, a(n) for n = 1..210\u003c/a\u003e"
			],
			"formula": [
				"Empirical: a(n) = 3*a(n-1) +2*a(n-2) -9*a(n-3) -8*a(n-4) +27*a(n-5) -8*a(n-6) -22*a(n-7) +29*a(n-8) -9*a(n-9) -22*a(n-10) +9*a(n-11) +44*a(n-12) -33*a(n-13) -10*a(n-14) +30*a(n-15) -32*a(n-16) +4*a(n-17) +6*a(n-18) for n\u003e19"
			],
			"example": [
				"Some solutions for n=5",
				"..0..0..0. .0..1..0. .0..0..0. .0..1..0. .0..0..0. .0..0..0. .0..1..0",
				"..1..1..1. .1..0..1. .0..0..0. .1..1..1. .0..0..0. .0..0..0. .1..0..1",
				"..1..1..1. .1..1..0. .0..0..0. .0..0..0. .0..0..0. .1..1..1. .0..1..1",
				"..1..1..1. .1..0..1. .1..1..1. .0..0..0. .0..0..0. .1..1..1. .1..0..1",
				"..0..0..0. .0..1..0. .0..1..0. .0..0..0. .1..1..1. .1..1..1. .0..1..0"
			],
			"xref": [
				"Cf. A304952."
			],
			"keyword": "nonn",
			"offset": "1,2",
			"author": "_R. H. Hardin_, May 22 2018",
			"references": 2,
			"revision": 4,
			"time": "2018-05-22T11:15:46-04:00",
			"created": "2018-05-22T11:15:46-04:00"
		}
	]
}