{
	"greeting": "Greetings from The On-Line Encyclopedia of Integer Sequences! http://oeis.org/",
	"query": "id:A304660",
	"count": 1,
	"start": 0,
	"results": [
		{
			"number": 304660,
			"data": "1,2,4,6,8,18,16,30,36,54,32,150,64,162,108,210,128,450,256,750,324,486,512,1470,216,1458,900,3750,1024,2250,2048,2310,972,4374,648,7350,4096,13122,2916,10290,8192,11250,16384,18750,4500,39366,32768,25410,1296",
			"name": "A run-length describing inverse to A181819. The multiplicity of prime(k) in a(n) is the k-th smallest prime index of n, which is A112798(n,k).",
			"comment": [
				"A permutation of A133808. a(n) is the smallest member m of A133808 such that A181819(m) = n."
			],
			"formula": [
				"a(n) = Product_{i = 1...Omega(n)} prime(i)^A112798(n,i)."
			],
			"example": [
				"Sequence of normalized prime multisets together with the normalized prime multisets of their images begins:",
				"   1:        {} -\u003e {}",
				"   2:       {1} -\u003e {1}",
				"   3:       {2} -\u003e {1,1}",
				"   4:     {1,1} -\u003e {1,2}",
				"   5:       {3} -\u003e {1,1,1}",
				"   6:     {1,2} -\u003e {1,2,2}",
				"   7:       {4} -\u003e {1,1,1,1}",
				"   8:   {1,1,1} -\u003e {1,2,3}",
				"   9:     {2,2} -\u003e {1,1,2,2}",
				"  10:     {1,3} -\u003e {1,2,2,2}",
				"  11:       {5} -\u003e {1,1,1,1,1}",
				"  12:   {1,1,2} -\u003e {1,2,3,3}",
				"  13:       {6} -\u003e {1,1,1,1,1,1}",
				"  14:     {1,4} -\u003e {1,2,2,2,2}",
				"  15:     {2,3} -\u003e {1,1,2,2,2}",
				"  16: {1,1,1,1} -\u003e {1,2,3,4}",
				"  17:       {7} -\u003e {1,1,1,1,1,1,1}",
				"  18:   {1,2,2} -\u003e {1,2,2,3,3}"
			],
			"mathematica": [
				"Table[With[{y=If[n===1,{},Flatten[Cases[FactorInteger[n],{p_,k_}:\u003eTable[PrimePi[p],{k}]]]]},Times@@Power[Array[Prime,Length[y]],y]],{n,100}]"
			],
			"xref": [
				"Cf. A055932, A056239, A112798, A130091, A133808, A181819, A181821, A182850, A182857, A275870, A304455."
			],
			"keyword": "nonn",
			"offset": "1,2",
			"author": "_Gus Wiseman_, May 16 2018",
			"references": 21,
			"revision": 5,
			"time": "2018-05-17T21:36:12-04:00",
			"created": "2018-05-17T21:36:12-04:00"
		}
	]
}