{
	"greeting": "Greetings from The On-Line Encyclopedia of Integer Sequences! http://oeis.org/",
	"query": "id:A304654",
	"count": 1,
	"start": 0,
	"results": [
		{
			"number": 304654,
			"data": "0,0,4,27,328,6500,192216,7952112,438941952,31185057024,2772643115520,301622403456000,39413353102848000,6091955683706880000,1099401414283210752000,229088914497045356544000,54589580461769879715840000,14750581694440372638842880000",
			"name": "a(n) = (n!)^2 * Sum_{k=1..n-1} 1/(k^2*(n-k)).",
			"formula": [
				"Recurrence: (2*n - 3)*a(n) = (6*n^3 - 25*n^2 + 33*n - 12)*a(n-1) - (n-2)^2*(6*n^3 - 29*n^2 + 42*n - 15)*a(n-2) + (n-3)^3*(n-2)^3*(2*n - 1)*a(n-3).",
				"a(n)/(n!)^2 ~ Pi^2/(6*n)."
			],
			"mathematica": [
				"Table[(n!)^2 * Sum[1/(k^2*(n-k)), {k, 1, n-1}], {n, 0, 20}]"
			],
			"xref": [
				"Cf. A052517, A302827, A304589, A304655."
			],
			"keyword": "nonn",
			"offset": "0,3",
			"author": "_Vaclav Kotesovec_, May 16 2018",
			"references": 2,
			"revision": 4,
			"time": "2018-05-16T04:05:35-04:00",
			"created": "2018-05-16T04:05:35-04:00"
		}
	]
}