{
	"greeting": "Greetings from The On-Line Encyclopedia of Integer Sequences! http://oeis.org/",
	"query": "id:A305045",
	"count": 1,
	"start": 0,
	"results": [
		{
			"number": 305045,
			"data": "1,49,17,17,201,137,42,5165,6357,5846,188507,395242,807954,8663043,25748810,74038793,473267062,1684410691,5713158552,28622444576,110454531459,407922983655,1823045922549,7269915840634,28075575562716",
			"name": "Number of nX6 0..1 arrays with every element unequal to 0, 2, 3, 6 or 7 king-move adjacent elements, with upper left element zero.",
			"comment": [
				"Column 6 of A305047."
			],
			"link": [
				"R. H. Hardin, \u003ca href=\"/A305045/b305045.txt\"\u003eTable of n, a(n) for n = 1..210\u003c/a\u003e"
			],
			"example": [
				"Some solutions for n=5",
				"..0..1..1..0..1..0. .0..1..0..0..1..0. .0..1..0..1..1..0. .0..1..1..0..0..1",
				"..1..1..0..1..0..1. .1..0..1..1..0..1. .1..1..0..0..1..0. .0..1..0..0..1..0",
				"..1..0..1..1..1..1. .1..1..1..1..1..1. .0..0..0..0..0..0. .0..0..0..0..0..0",
				"..1..0..1..1..0..1. .1..0..1..1..0..1. .0..1..0..0..1..0. .1..1..0..0..1..1",
				"..0..1..1..0..0..1. .0..1..0..0..1..0. .1..0..1..1..0..1. .0..1..0..0..1..0"
			],
			"xref": [
				"Cf. A305047."
			],
			"keyword": "nonn",
			"offset": "1,2",
			"author": "_R. H. Hardin_, May 24 2018",
			"references": 2,
			"revision": 4,
			"time": "2018-05-24T08:50:05-04:00",
			"created": "2018-05-24T08:50:05-04:00"
		}
	]
}