{
	"greeting": "Greetings from The On-Line Encyclopedia of Integer Sequences! http://oeis.org/",
	"query": "id:A305511",
	"count": 1,
	"start": 0,
	"results": [
		{
			"number": 305511,
			"data": "1,2,5,6,8,19,33,60,107,204,375,677,1253,2329,4252,7824,14454,26591,48908,90088,165947,305495,562342,1035675,1907146,3511035,6465055,11904935,21919763,40360338,74316988,136840634,251963379,463940762",
			"name": "Number of nX3 0..1 arrays with every element unequal to 1, 2, 5, 6 or 8 king-move adjacent elements, with upper left element zero.",
			"comment": [
				"Column 3 of A305516."
			],
			"link": [
				"R. H. Hardin, \u003ca href=\"/A305511/b305511.txt\"\u003eTable of n, a(n) for n = 1..210\u003c/a\u003e"
			],
			"formula": [
				"Empirical: a(n) = a(n-2) +4*a(n-3) +3*a(n-4) -4*a(n-6) -5*a(n-7) -a(n-8) -3*a(n-9) -2*a(n-10) for n\u003e13"
			],
			"example": [
				"Some solutions for n=5",
				"..0..0..0. .0..0..0. .0..1..0. .0..1..0. .0..0..0. .0..0..0. .0..1..0",
				"..0..1..0. .0..1..0. .0..0..0. .0..0..0. .1..0..1. .0..1..0. .0..0..0",
				"..0..0..0. .1..0..1. .0..0..0. .0..1..0. .0..0..0. .0..0..0. .0..0..0",
				"..0..1..0. .1..1..1. .0..1..0. .1..0..1. .0..0..0. .0..0..0. .1..0..1",
				"..0..0..0. .1..0..1. .0..0..0. .1..1..1. .0..1..0. .0..1..0. .0..0..0"
			],
			"xref": [
				"Cf. A305516."
			],
			"keyword": "nonn",
			"offset": "1,2",
			"author": "_R. H. Hardin_, Jun 03 2018",
			"references": 1,
			"revision": 4,
			"time": "2018-06-03T13:17:08-04:00",
			"created": "2018-06-03T13:17:08-04:00"
		}
	]
}