{
	"greeting": "Greetings from The On-Line Encyclopedia of Integer Sequences! http://oeis.org/",
	"query": "id:A305576",
	"count": 1,
	"start": 0,
	"results": [
		{
			"number": 305576,
			"data": "0,0,1,0,-1,1,1,-1,-1,0,2,0,-2,1,2,2,1,-1,-2,-2,-1,2,2,-2,-2,0,3,0,-3,1,3,3,1,-1,-3,-3,-1,2,3,3,2,-2,-3,-3,-2,0,4,0,-4,1,4,4,1,-1,-4,-4,-1,3,3,-3,-3,2,4,4,2,-2,-4,-4,-2,0,3,4,5,4,3,0,-3,-4,-5,-4,-3,1",
			"name": "List points (x,y) having integer coordinates, sorted first by radial coordinate r and in case of ties, by polar angle 0 \u003c= phi \u003c 2*Pi in a polar coordinate system. Sequence gives y-coordinates.",
			"comment": [
				"Similar to A283308, but with secondary sorting by polar angle."
			],
			"link": [
				"Rainer Rosenthal, \u003ca href=\"/A305576/b305576.txt\"\u003eTable of n, a(n) for n = 0..17664\u003c/a\u003e, covering range r \u003c= 75 (terms 0..7844 from Hugo Pfoertner)."
			],
			"example": [
				"See A305575."
			],
			"program": [
				"(PARI) provided in A305575."
			],
			"xref": [
				"For the x-coordinates see A305575.",
				"Cf. A000328, A004018, A283307, A283308, A307014, A307016, A307017, A308080, A308081."
			],
			"keyword": "sign,look",
			"offset": "0,11",
			"author": "_Hugo Pfoertner_, Jun 05 2018",
			"references": 13,
			"revision": 26,
			"time": "2019-05-17T22:08:48-04:00",
			"created": "2018-06-05T22:35:19-04:00"
		}
	]
}