{
	"greeting": "Greetings from The On-Line Encyclopedia of Integer Sequences! http://oeis.org/",
	"query": "id:A305673",
	"count": 1,
	"start": 0,
	"results": [
		{
			"number": 305673,
			"data": "2,15,55,108,195,256,370,419,437,782,1616,1857,3055,4806,5851,6142,6275,6487,7161,7278,7591,13041,13122,13179,14904,14979,15451,21767,32056,39478,79649,148518,174716,273952,400581",
			"name": "Indices i where a run of zeros starts in A305671.",
			"comment": [
				"Numbers i such that A305671(i) = 0 and A305671(i-1) != 0."
			],
			"mathematica": [
				"Block[{c = Select[Range[10^3], CompositeQ], s}, s = DivisorSigma[1, c]; Select[SplitBy[Partition[Position[Array[If[Length@ # == 1, #[[1, 1]], 0] \u0026@ Last@ SplitBy[SortBy[Tally@ Take[s, #], Last], Last] \u0026, Length@ s], 0][[All, 1]], 2, 1], Differences], Length@ # \u003e 1 \u0026][[All, 1, 1]]] (* _Michael De Vlieger_, Jun 14 2018 *)"
			],
			"program": [
				"(PARI) mcv(v) = my(w=vecsort(v, , 8), count=vector(#w), ind=0, i=0); for(x=1, #w, for(y=1, #v, if(w[x]==v[y], count[x]++))); for(k=1, #count, if(count[k]==vecmax(count), ind=k; i++)); if(i \u003e 1, return(0), return(w[ind]))",
				"my(v=[], i=1, t=0); forcomposite(c=1, , v=concat(v, [sigma(c)]); if(mcv(v)==0, if(t==0, print1(i, \", \")); t++, t=0); i++)"
			],
			"xref": [
				"Cf. A305671, A305672, A305674, A305675, A305676."
			],
			"keyword": "nonn,more",
			"offset": "1,1",
			"author": "_Felix Fröhlich_, Jun 08 2018",
			"ext": [
				"More terms from _Michael De Vlieger_, Jun 14 2018"
			],
			"references": 5,
			"revision": 15,
			"time": "2018-08-04T14:44:55-04:00",
			"created": "2018-08-04T14:44:55-04:00"
		}
	]
}