{
	"greeting": "Greetings from The On-Line Encyclopedia of Integer Sequences! http://oeis.org/",
	"query": "id:A305521",
	"count": 1,
	"start": 0,
	"results": [
		{
			"number": 305521,
			"data": "32,2048,68603,2102155,66949063,2122076804,67425576120,2143769629842,68172646692968,2168401071221921,68974486652205867,2194111059481734303,69796733046371194006,2220322980877280334126,70631601099061814360473",
			"name": "Number of nX6 0..1 arrays with every element unequal to 0, 1, 2, 3, 4 or 5 king-move adjacent elements, with upper left element zero.",
			"comment": [
				"Column 6 of A305523."
			],
			"link": [
				"R. H. Hardin, \u003ca href=\"/A305521/b305521.txt\"\u003eTable of n, a(n) for n = 1..210\u003c/a\u003e"
			],
			"example": [
				"Some solutions for n=5",
				"..0..0..0..1..1..0. .0..0..0..0..1..1. .0..0..1..1..1..0. .0..0..1..0..0..1",
				"..0..0..0..1..1..1. .0..0..1..1..0..0. .0..0..0..1..0..0. .0..0..0..1..0..0",
				"..0..0..0..0..1..0. .0..0..1..1..1..0. .0..0..1..1..0..1. .0..0..1..1..1..1",
				"..0..0..0..1..0..1. .0..0..0..1..1..0. .0..0..0..1..1..0. .0..0..1..1..1..1",
				"..0..0..1..1..0..0. .0..0..1..0..0..1. .0..0..0..0..0..0. .0..0..0..1..0..1"
			],
			"xref": [
				"Cf. A305523."
			],
			"keyword": "nonn",
			"offset": "1,1",
			"author": "_R. H. Hardin_, Jun 04 2018",
			"references": 1,
			"revision": 4,
			"time": "2018-06-04T11:55:34-04:00",
			"created": "2018-06-04T11:55:34-04:00"
		}
	]
}