{
	"greeting": "Greetings from The On-Line Encyclopedia of Integer Sequences! http://oeis.org/",
	"query": "id:A305881",
	"count": 1,
	"start": 0,
	"results": [
		{
			"number": 305881,
			"data": "1,-2,1,-7,16,-28,62,-118,303,-630,1152,-2426,5315,-10718,20482,-43449,91111,-179254,358910,-727829,1484601,-2995681,5924606,-11935441,24382120,-48702245,96682698,-195063604,392983826,-784903199,1569490057,-3146479152,6317124649,-12652202092",
			"name": "Expansion of Product_{k\u003e=1} 1/(1 + prime(k)*x^k).",
			"comment": [
				"Convolution inverse of A147655."
			],
			"link": [
				"Alois P. Heinz, \u003ca href=\"/A305881/b305881.txt\"\u003eTable of n, a(n) for n = 0..3321\u003c/a\u003e"
			],
			"formula": [
				"G.f.: exp(Sum_{k\u003e=1} Sum_{j\u003e=1} (-1)^k*prime(j)^k*x^(j*k)/k)."
			],
			"maple": [
				"b:= proc(n, i) option remember; `if`(n=0, 1, `if`(i\u003c1, 0,",
				"      b(n, i-1) +`if`(i\u003en, 0, b(n-i, i-1)*ithprime(i))))",
				"    end:",
				"a:= proc(n) option remember; `if`(n=0, 1,",
				"      -add(b(n-i$2)*a(i$2), i=0..n-1))",
				"    end:",
				"seq(a(n), n=0..40);  # _Alois P. Heinz_, Jun 13 2018"
			],
			"mathematica": [
				"nmax = 33; CoefficientList[Series[Product[1/(1 + Prime[k] x^k), {k, 1, nmax}], {x, 0, nmax}], x]",
				"nmax = 33; CoefficientList[Series[Exp[Sum[Sum[(-1)^k Prime[j]^k x^(j k)/k, {j, 1, nmax}], {k, 1, nmax}]], {x, 0, nmax}], x]",
				"a[n_] := a[n] = If[n == 0, 1, Sum[Sum[d (-Prime[d])^(k/d), {d, Divisors[k]}] a[n - k], {k, 1, n}]/n]; Table[a[n], {n, 0, 33}]"
			],
			"xref": [
				"Cf. A000040, A002099, A061151, A145519, A147655, A298160, A304791, A305882."
			],
			"keyword": "sign",
			"offset": "0,2",
			"author": "_Ilya Gutkovskiy_, Jun 13 2018",
			"references": 2,
			"revision": 9,
			"time": "2018-06-15T10:28:07-04:00",
			"created": "2018-06-14T19:47:41-04:00"
		}
	]
}