{
	"greeting": "Greetings from The On-Line Encyclopedia of Integer Sequences! http://oeis.org/",
	"query": "id:A305156",
	"count": 1,
	"start": 0,
	"results": [
		{
			"number": 305156,
			"data": "58,194,466,1010,2098,4274,8626,17330,34738,69554,139186,278450,556978,1114034,2228146,4456370,8912818,17825714,35651506,71303090,142606258,285212594,570425266,1140850610,2281701298,4563402674,9126805426,18253610930,36507221938,73014443954,146028887986,292057776050",
			"name": "a(n) = 136*2^n - 78 (n\u003e=0).",
			"comment": [
				"a(n) (n\u003e=0) is  the first Zagreb index of the nanostar dendrimer G(n), defined pictorially in the Darafsheh et al. reference (see Fig. 1, where G(2) is shown).",
				"The first Zagreb index of a simple connected graph is the sum of the squared degrees of its vertices. Alternatively, it is the sum of the degree sums d(i) + d(j) over all edges ij of the graph.",
				"The M-polynomial of G(n) is M(G(n); x, y) = 8*2^n*x^2*y^2 + (16*2^n - 12)*x^2*y^3 + (4*2^n - 3)*x^3*y^3"
			],
			"reference": [
				"M. R. Darafsheh, M. H. Khalifeh,  Calculation of the Wiener, Szeged, and PI indices of a certain nanostar dendrimer,  Ars Comb., 100, 2011, 289-298."
			],
			"link": [
				"Colin Barker, \u003ca href=\"/A305156/b305156.txt\"\u003eTable of n, a(n) for n = 0..1000\u003c/a\u003e",
				"E. Deutsch and Sandi Klavzar, \u003ca href=\"http://dx.doi.org/10.22052/ijmc.2015.10106\"\u003eM-polynomial and degree-based topological indices\u003c/a\u003e, Iranian J. Math. Chemistry, 6, No. 2, 2015, 93-102.",
				"\u003ca href=\"/index/Rec#order_02\"\u003eIndex entries for linear recurrences with constant coefficients\u003c/a\u003e, signature (3,-2)."
			],
			"formula": [
				"From _Colin Barker_, May 29 2018: (Start)",
				"G.f.: 2*(29 + 10*x) / ((1 - x)*(1 - 2*x)).",
				"a(n) = 3*a(n-1) - 2*a(n-2) for n\u003e1.",
				"(End)"
			],
			"maple": [
				"seq(136*2^n-78, n = 0 .. 40);"
			],
			"program": [
				"(PARI) Vec(2*(29 + 10*x) / ((1 - x)*(1 - 2*x)) + O(x^50)) \\\\ _Colin Barker_, May 29 2018"
			],
			"xref": [
				"Cf. A226264, A305155, A305157."
			],
			"keyword": "nonn,easy",
			"offset": "0,1",
			"author": "_Emeric Deutsch_, May 28 2018",
			"references": 3,
			"revision": 20,
			"time": "2018-06-01T10:19:04-04:00",
			"created": "2018-05-28T19:48:45-04:00"
		}
	]
}