{
	"greeting": "Greetings from The On-Line Encyclopedia of Integer Sequences! http://oeis.org/",
	"query": "id:A305792",
	"count": 1,
	"start": 0,
	"results": [
		{
			"number": 305792,
			"data": "1,2,2,4,2,12,2,8,6,20,2,72,2,28,30,16,2,180,2,200,42,44,2,432,10,44,30,392,2,11700,2,32,66,20,70,5400,2,44,66,2000,2,29988,2,968,1950,76,2,2592,14,1100,30,968,2,20700,110,5488,66,76,2,4563000,2,116,3570,64,110,21780,2,200,114,53900,2,162000,2,68,4290,968,154,82764,2,20000",
			"name": "a(n) = Product_{d|n, d\u003cn} prime(A286622(d)-1).",
			"link": [
				"Antti Karttunen, \u003ca href=\"/A305792/b305792.txt\"\u003eTable of n, a(n) for n = 1..8192\u003c/a\u003e"
			],
			"formula": [
				"a(n) = Product_{d|n, d\u003cn} A008578(A286622(d)).",
				"For all k \u003e= 0, a(2^k) = 2^k."
			],
			"program": [
				"(PARI) A305792(n) = { my(m=1); fordiv(n,d,if(d\u003cn, m *= prime(A286622(d)-1))); (m); }; \\\\ Needs also code from A286622."
			],
			"xref": [
				"Cf. A008578, A278222, A286622, A305793 (rgs-transform), A305794.",
				"Cf. also A293214, A304102."
			],
			"keyword": "nonn",
			"offset": "1,2",
			"author": "_Antti Karttunen_, Jun 11 2018",
			"references": 5,
			"revision": 9,
			"time": "2018-06-12T10:17:12-04:00",
			"created": "2018-06-12T10:17:12-04:00"
		}
	]
}