{
	"greeting": "Greetings from The On-Line Encyclopedia of Integer Sequences! http://oeis.org/",
	"query": "id:A305393",
	"count": 1,
	"start": 0,
	"results": [
		{
			"number": 305393,
			"data": "1,2,1,1,1,2,1,1,2,1,1,1,2,1,2,1,1,1,2,1,1,2,1,1,1,2,1,1,1,2,1,1,2,1,1,1,2,1,2,1,1,1,2,1,1,2,1,1,1,2,1,1,2,1,1,1,2,1,2,1,1,1,2,1,1,2,1,1,1,2,1,1,1,2,1,1,2,1,1,1,2,1,2,1,1,1,2,1,1,2,1,1,1,2,1,2,1,1",
			"name": "First differences of A140102.",
			"comment": [
				"Although initially this agrees with A293630, the sequences are distinct.",
				"From _Michel Dekking_, Mar 18 2019: (Start)",
				"Let x be the tribonacci word x = A092782 = 1,2,1,3,1,2,1,1,...",
				"Consider the morphism delta:",
				"      1 -\u003e 1112,",
				"      2 -\u003e 112,",
				"      3 -\u003e 12.",
				"Conjecture: (a(n)) =  12 delta(x).",
				"(End)",
				"Conjecture: This sequence (prefixed by 1 since A140102 should really begin with 0) is 1.TTW(1,2,1) where TTW is the ternary tribonacci word defined in A080843, or equally it is THETA(1,2,1), where THETA is defined in A275925. - _N. J. A. Sloane_, Mar 19 2019",
				"All these conjectures are now theorems - see the Dekking et al. paper. - _N. J. A. Sloane_, Jul 22 2019"
			],
			"link": [
				"N. J. A. Sloane, \u003ca href=\"/A305393/b305393.txt\"\u003eTable of n, a(n) for n = 1..49999\u003c/a\u003e",
				"F. Michel Dekking, Jeffrey Shallit, and N. J. A. Sloane, \u003ca href=\"https://www.combinatorics.org/ojs/index.php/eljc/article/view/v27i1p52/8039\"\u003eQueens in exile: non-attacking queens on infinite chess boards\u003c/a\u003e, Electronic J. Combin., 27:1 (2020), #P1.52."
			],
			"formula": [
				"a(n) = A140102(n+1)-A140102(n), n \u003e= 1."
			],
			"xref": [
				"For first differences of A140100, A140101, A140102, A140103 see A305392, A305374, A305393, A305394.",
				"Cf. A293630."
			],
			"keyword": "nonn",
			"offset": "1,2",
			"author": "_N. J. A. Sloane_, Jun 23 2018",
			"references": 8,
			"revision": 26,
			"time": "2020-03-07T13:50:20-05:00",
			"created": "2018-06-23T22:14:29-04:00"
		}
	]
}