{
	"greeting": "Greetings from The On-Line Encyclopedia of Integer Sequences! http://oeis.org/",
	"query": "id:A305478",
	"count": 1,
	"start": 0,
	"results": [
		{
			"number": 305478,
			"data": "5,17,21,48,98,192,368,732,1480,2932,5776,11486,22896,45464,90186,179214,356304,707856,1405988,2793618,5551294,11029574,21913242,43539452,86510224,171885810,341514604,678553342,1348218756,2678763818,5322403858",
			"name": "Number of nX4 0..1 arrays with every element unequal to 0, 1, 3, 6 or 8 king-move adjacent elements, with upper left element zero.",
			"comment": [
				"Column 4 of A305482."
			],
			"link": [
				"R. H. Hardin, \u003ca href=\"/A305478/b305478.txt\"\u003eTable of n, a(n) for n = 1..210\u003c/a\u003e"
			],
			"formula": [
				"Empirical: a(n) = a(n-1) +5*a(n-3) +a(n-5) -7*a(n-6) -7*a(n-7) -2*a(n-8) +2*a(n-9) +2*a(n-10) for n\u003e13"
			],
			"example": [
				"Some solutions for n=5",
				"..0..0..0..1. .0..1..1..1. .0..1..1..0. .0..1..1..1. .0..0..0..1",
				"..0..0..0..0. .1..1..1..1. .1..1..1..1. .1..1..1..1. .0..0..0..0",
				"..0..0..1..1. .1..1..1..1. .1..1..1..1. .1..1..1..1. .0..0..0..0",
				"..0..0..0..1. .1..1..1..1. .1..1..1..0. .1..0..1..1. .0..0..1..0",
				"..0..0..0..0. .0..1..1..0. .1..1..0..0. .1..1..1..1. .1..0..1..1"
			],
			"xref": [
				"Cf. A305482."
			],
			"keyword": "nonn",
			"offset": "1,1",
			"author": "_R. H. Hardin_, Jun 02 2018",
			"references": 1,
			"revision": 4,
			"time": "2018-06-02T08:51:53-04:00",
			"created": "2018-06-02T08:51:53-04:00"
		}
	]
}