{
	"greeting": "Greetings from The On-Line Encyclopedia of Integer Sequences! http://oeis.org/",
	"query": "id:A305456",
	"count": 1,
	"start": 0,
	"results": [
		{
			"number": 305456,
			"data": "0,702,9889,418382,16062787,612656116,23996865179,926180069711,35989846262523,1395378271164822,54135760975112693,2100037513280966131,81464733115621938829,3160246655805521489939,122592970503091781121979",
			"name": "Number of nX7 0..1 arrays with every element unequal to 2, 3, 4, 5 or 8 king-move adjacent elements, with upper left element zero.",
			"comment": [
				"Column 7 of A305457."
			],
			"link": [
				"R. H. Hardin, \u003ca href=\"/A305456/b305456.txt\"\u003eTable of n, a(n) for n = 1..210\u003c/a\u003e"
			],
			"example": [
				"Some solutions for n=5",
				"..0..1..0..0..1..0..1. .0..1..0..1..0..1..0. .0..1..1..0..0..1..1",
				"..0..1..1..0..0..0..1. .0..1..1..1..1..0..1. .0..1..0..0..1..0..0",
				"..0..0..1..1..0..0..1. .0..0..1..1..0..1..1. .0..0..1..1..1..0..1",
				"..0..1..0..0..1..1..0. .0..1..0..0..1..0..0. .0..1..1..0..1..1..0",
				"..1..0..1..1..0..0..1. .0..1..1..0..1..0..1. .0..1..0..0..0..0..1"
			],
			"xref": [
				"Cf. A305457."
			],
			"keyword": "nonn",
			"offset": "1,2",
			"author": "_R. H. Hardin_, Jun 01 2018",
			"references": 1,
			"revision": 4,
			"time": "2018-06-01T11:10:35-04:00",
			"created": "2018-06-01T11:10:35-04:00"
		}
	]
}