{
	"greeting": "Greetings from The On-Line Encyclopedia of Integer Sequences! http://oeis.org/",
	"query": "id:A305258",
	"count": 1,
	"start": 0,
	"results": [
		{
			"number": 305258,
			"data": "0,0,1,0,-1,-1,0,1,2,1,0,-1,-2,-2,-1,0,1,2,3,2,1,0,-1,-2,-3,-3,-2,-1,0,1,2,3,4,3,2,1,0,-1,-2,-3,-4,-4,-3,-2,-1,0,1,2,3,4,5,4,3,2,1,0,-1,-2,-3,-4,-5,-5,-4,-3,-2,-1,0,1,2,3,4,5,6,5,4,3,2,1,0,-1,-2,-3",
			"name": "List of y-coordinates of a point moving in a smooth counterclockwise spiral rotated by Pi/4.",
			"link": [
				"Hugo Pfoertner, \u003ca href=\"/A305258/a305258.png\"\u003eIllustration of spiral\u003c/a\u003e.",
				"\u003ca href=\"/index/Con#coordinates_2D_curves\"\u003eIndex entries for sequences related to coordinates of 2D curves\u003c/a\u003e"
			],
			"formula": [
				"a(n) = A053616(n)*sign(sin(Pi*(1+sqrt(1+8*n))/2)), so that abs(a(n)) = A053616(n).",
				"a(n) = A010751(n-floor((1/2)*(sqrt(2n-1)+1))). - _William McCarty_, Jul 29 2021"
			],
			"example": [
				"Sequence gives y-coordinate of the n-th point of the following spiral:",
				"   d:",
				"   4 |                  32  49",
				"     |                 /   \\   \\",
				"   3 |              33  18  31  48",
				"     |             /   /   \\   \\   \\",
				"   2 |          34  19   8  17  30  47",
				"     |         /   /   /   \\   \\   \\   \\",
				"   1 |      35  20   9   2   7  16  29  46",
				"     |     /   /   /   /   \\   \\   \\   \\   \\",
				"   0 |  36  21  10   3   0---1   6  15  28  45",
				"     |     \\   \\   \\   \\       /   /   /   /",
				"  -1 |      37  22  11   4---5  14  27  44",
				"     |         \\   \\   \\      /    /   /",
				"  -2 |          38  23  12--13  26  43",
				"     |             \\   \\       /   /",
				"  -3 |              39  24--25  42",
				"     |                 \\       /",
				"  -4 |                  40--41",
				"       _______________________________________",
				"  x:    -4  -3  -2  -1   0   1   2   3   4   5"
			],
			"program": [
				"(PARI) up=-1;print1(x=0,\", \");for(stride=1,12,up=-up;x+=stride;y=x+stride+1;for(k=x,y-1,print1(up*min(k-x,y-k), \", \"))) \\\\ _Hugo Pfoertner_, Jun 02 2018"
			],
			"xref": [
				"A010751 gives sequence of x-coordinates.",
				"Cf. A053616.",
				"Cf. A000384, A001105, A002024, A014105, A046092."
			],
			"keyword": "sign",
			"offset": "0,9",
			"author": "_Hugo Pfoertner_, May 29 2018",
			"references": 6,
			"revision": 34,
			"time": "2021-07-30T08:34:53-04:00",
			"created": "2018-05-29T07:35:58-04:00"
		}
	]
}