{
	"greeting": "Greetings from The On-Line Encyclopedia of Integer Sequences! http://oeis.org/",
	"query": "id:A305857",
	"count": 1,
	"start": 0,
	"results": [
		{
			"number": 305857,
			"data": "1,2,3,6,15,87,3528,47174113",
			"name": "Number of unlabeled intersecting antichains on up to n vertices.",
			"comment": [
				"An intersecting antichain S is a finite set of finite nonempty sets (edges), any two of which have a nonempty intersection, and none of which is a subset of any other."
			],
			"formula": [
				"a(n) = A305855(0) + A305855(1) + ... + A305855(n). - _Brendan McKay_, May 11 2020"
			],
			"example": [
				"Non-isomorphic representatives of the a(4) = 15 intersecting antichains:",
				"  {}",
				"  {{1}}",
				"  {{1,2}}",
				"  {{1,2,3}}",
				"  {{1,2,3,4}}",
				"  {{1,3},{2,3}}",
				"  {{1,4},{2,3,4}}",
				"  {{1,3,4},{2,3,4}}",
				"  {{1,2},{1,3},{2,3}}",
				"  {{1,4},{2,4},{3,4}}",
				"  {{1,3},{1,4},{2,3,4}}",
				"  {{1,2},{1,3,4},{2,3,4}}",
				"  {{1,2,4},{1,3,4},{2,3,4}}",
				"  {{1,2},{1,3},{1,4},{2,3,4}}",
				"  {{1,2,3},{1,2,4},{1,3,4},{2,3,4}}"
			],
			"xref": [
				"Cf. A001206, A006126, A051185, A261006, A283877, A304998, A305843, A305844, A305854, A305855, A305856."
			],
			"keyword": "nonn,more",
			"offset": "0,2",
			"author": "_Gus Wiseman_, Jun 11 2018",
			"ext": [
				"a(6) from _Andrew Howroyd_, Aug 13 2019",
				"a(7) from _Brendan McKay_, May 11 2020"
			],
			"references": 16,
			"revision": 19,
			"time": "2020-05-11T09:50:17-04:00",
			"created": "2018-06-12T10:27:46-04:00"
		}
	]
}