{
	"greeting": "Greetings from The On-Line Encyclopedia of Integer Sequences! http://oeis.org/",
	"query": "id:A305905",
	"count": 1,
	"start": 0,
	"results": [
		{
			"number": 305905,
			"data": "1,4,35,396,15460,595490,42789430,7157370110,1710658272713,714934693797269",
			"name": "Number of nXn 0..1 arrays with every element unequal to 0, 1, 2, 4, 5 or 7 king-move adjacent elements, with upper left element zero.",
			"comment": [
				"Diagonal of A305911."
			],
			"example": [
				"Some solutions for n=5",
				"..0..0..0..0..0. .0..1..0..1..0. .0..1..1..1..1. .0..0..0..0..1",
				"..1..0..0..0..0. .1..0..0..0..1. .0..0..0..1..1. .1..1..0..1..0",
				"..1..0..0..1..1. .0..0..0..0..0. .0..0..0..0..0. .0..0..0..0..0",
				"..1..1..1..1..1. .0..0..0..0..0. .0..1..0..0..0. .0..0..0..0..1",
				"..1..0..0..1..1. .1..1..0..1..0. .1..0..0..1..0. .0..0..0..1..0"
			],
			"xref": [
				"Cf. A305911."
			],
			"keyword": "nonn",
			"offset": "1,2",
			"author": "_R. H. Hardin_, Jun 14 2018",
			"references": 0,
			"revision": 4,
			"time": "2018-06-14T06:55:40-04:00",
			"created": "2018-06-14T06:55:40-04:00"
		}
	]
}