{
	"greeting": "Greetings from The On-Line Encyclopedia of Integer Sequences! http://oeis.org/",
	"query": "id:A306333",
	"count": 1,
	"start": 0,
	"results": [
		{
			"number": 306333,
			"data": "1,1,2,1,1,1,1,3,1,1,4,1,3,1,1,4,1,3,1,3,1,3,1,1,4,1,3,1,3,1,3,1,3,1,3,1,3,1,3,1,1,4,1,3,1,3,1,3,1,3,1,3,1,3,1,3,1,3,1,3,1,3,1,3,1,3,1,3,1,3,1,3,1,1,4,1,3,1,3,1,3,1,3,1,3,1,3",
			"name": "Last term in each generation of A306211.",
			"comment": [
				"The first 65 generations of A306211 were computed explicitly. Since the tail of each generation is the RUNS of the tail of the previous generation, if we start with a complete generation then we can get just the tail of some further generations by iterating RUNS on it. This allowed the computation of the remaining 55 terms.",
				"Generations 11, 16, 25, 42, and 75 end in a 4. The number of generations in between those which end in a 4 is thus 4, 8, 16, 32."
			],
			"link": [
				"Benjamin Chaffin, \u003ca href=\"/A306333/b306333.txt\"\u003eTable of n, a(n) for n = 1..120\u003c/a\u003e"
			],
			"xref": [
				"Cf. A306211."
			],
			"keyword": "nonn",
			"offset": "1,3",
			"author": "_Benjamin Chaffin_, Feb 08 2019",
			"references": 2,
			"revision": 11,
			"time": "2019-02-09T02:32:23-05:00",
			"created": "2019-02-08T12:46:08-05:00"
		}
	]
}