{
	"greeting": "Greetings from The On-Line Encyclopedia of Integer Sequences! http://oeis.org/",
	"query": "id:A306961",
	"count": 1,
	"start": 0,
	"results": [
		{
			"number": 306961,
			"data": "3,720,604891,5599451,7353370,1242001,5242,35460,187201,2419311,3634680,2123281,1815410,1849711,6053070,786963,6351120,182271,2419400,3638982,7410330,611292,3780200,2420013,5952,3689370,6200641,307542,640891,5599451,7353370,1242001,5242,35460,187201,2419311,3634680,2123281,1815410,1849711",
			"name": "Trajectory of 3 under repeated application of x -\u003e A306958(x).",
			"comment": [
				"At the third step the trajectory enters a cycle of length 26: (5599451, 7353370, 1242001, 5242, 35460, 187201, 2419311, 3634680, 2123281, 1815410, 1849711, 6053070, 786963, 6351120, 182271, 2419400, 3638982, 7410330, 611292, 3780200, 2420013, 5952, 3689370, 6200641, 307542, 640891)."
			],
			"reference": [
				"P. Kiss, A generalization of a problem in number theory, Math. Sem. Notes Kobe Univ., 5 (1977), no. 3, 313-317. MR 0472667 (57 #12362)."
			],
			"link": [
				"P. Kiss, \u003ca href=\"http://real-j.mtak.hu/9373/1/MTA_MatematikaiLapok_1974.pdf\"\u003eA generalization of a problem in number theory\u003c/a\u003e, [Hungarian], Mat. Lapok, 25 (No. 1-2, 1974), 145-149.",
				"H. J. J. te Riele, \u003ca href=\"https://ir.cwi.nl/pub/6662\"\u003eIteration of number-theoretic functions\u003c/a\u003e, Nieuw Archief v. Wiskunde, (4) 1 (1983), 345-360. See Example I.1.d."
			],
			"xref": [
				"Cf. A306957, A306958, A306959, A306960, A306962."
			],
			"keyword": "nonn,base",
			"offset": "1,1",
			"author": "_N. J. A. Sloane_, Mar 18 2019",
			"references": 2,
			"revision": 8,
			"time": "2019-03-18T19:57:22-04:00",
			"created": "2019-03-18T14:46:38-04:00"
		}
	]
}