{
	"greeting": "Greetings from The On-Line Encyclopedia of Integer Sequences! http://oeis.org/",
	"query": "id:A306290",
	"count": 1,
	"start": 0,
	"results": [
		{
			"number": 306290,
			"data": "1,20,252,2860,30940,325584,3364900,34337160,347103900,3483301360,34754081648,345120260940,3413758188932,33655718658800,330869721936600,3244839440755920,31754250910172700,310165459118369712,3024542552887591120,29449493278116018800,286360607519186119920",
			"name": "a(n) = 1/(Integral_{x=0..1} (x^3 - x^4)^n dx).",
			"formula": [
				"a(n) = 1/Beta(3*n+1,n+1) = (4*n+1)!/(n! * (3*n)!)."
			],
			"mathematica": [
				"Table[1/Beta[3*n+1, n+1], {n, 0, 20}]"
			],
			"program": [
				"(PARI) vector(20, n, n--; (4*n+1)!/(n!*(3*n)!))",
				"(MAGMA) [Factorial(4*n+1)/(Factorial(n)*Factorial(3*n)): n in [0..20]];",
				"(Sage) [1/beta(3*n+1,n+1) for n in range(20)]",
				"(GAP) List([0..30], n -\u003e Factorial(4*n+1)/(Factorial(n)*Factorial(3*n)));"
			],
			"xref": [
				"Cf. A002457, A090816, A090957, A090969."
			],
			"keyword": "nonn,easy",
			"offset": "0,2",
			"author": "_G. C. Greubel_, Feb 03 2019",
			"references": 0,
			"revision": 7,
			"time": "2019-02-04T09:08:02-05:00",
			"created": "2019-02-04T09:08:02-05:00"
		}
	]
}