{
	"greeting": "Greetings from The On-Line Encyclopedia of Integer Sequences! http://oeis.org/",
	"query": "id:A306689",
	"count": 1,
	"start": 0,
	"results": [
		{
			"number": 306689,
			"data": "11,22,33,44,55,66,77,88,99,121,242,363,484,1001,1092,1111,1207,1221,1275,1331,1441,1458,1512,1551,1661,1729,1771,1785,1881,1932,1991,2002,2112,2184,2222,2332,2442,2552,2662,2772,2882,2992,3003,3276,3333,3663,3993,4004,4032",
			"name": "Integers m with decimal expansion m = abc...z such that m is a multiple of both az and za; z may not be zero.",
			"comment": [
				"Every power of 11 is a term. - _N. J. A. Sloane_, Jul 14 2019"
			],
			"example": [
				"1512 is in the list since 12*126=1512 and 21*72=1512."
			],
			"program": [
				"(Python)",
				"for a in range(1,1000):",
				"...for b in range (1, 10):",
				"......numb = 10*a + b",
				"......f = int(str(zahl)[0])",
				"......first = 10*f + b",
				"......last = 10*b + f",
				"......if numb %  first == 0 and numb % last == 0 :",
				".........print(numb)"
			],
			"xref": [
				"Cf. A073729."
			],
			"keyword": "nonn,base",
			"offset": "1,1",
			"author": "_Reiner Moewald_, Mar 05 2019",
			"references": 0,
			"revision": 20,
			"time": "2019-07-14T13:30:31-04:00",
			"created": "2019-07-14T13:28:31-04:00"
		}
	]
}