{
	"greeting": "Greetings from The On-Line Encyclopedia of Integer Sequences! http://oeis.org/",
	"query": "id:A306436",
	"count": 1,
	"start": 0,
	"results": [
		{
			"number": 306436,
			"data": "1,0,3,2,5,4,7,6,9,8,1,0,3,2,5,4,7,6,9,8,31,30,33,32,35,34,37,36,39,38,21,20,23,22,25,24,27,26,29,28,51,50,53,52,55,54,57,56,59,58,41,40,43,42,45,44,47,46,49,48,71,70,73,72,75,74,77,76,79,78,61,60,63,62,65,64,67,66,69,68,91,90,93,92,95,94,97,96,99,98,81,80,83,82,85,84,87,86,89,88,11,10",
			"name": "The nonnegative integers, the ten successive digits being swapped by pairs.",
			"comment": [
				"0\u003c-\u003e1, 2\u003c-\u003e3, 4\u003c-\u003e5, 6\u003c-\u003e7, 8\u003c-\u003e9.",
				"a(2n) = 1, 3, 5, 7, 9, 1, 3, 5, 7, 9, 31, 33, 35, 37, 39, 21, 23, 25, 27, 29, 51, ... ."
			],
			"link": [
				"Robert Israel, \u003ca href=\"/A306436/b306436.txt\"\u003eTable of n, a(n) for n = 0..10000\u003c/a\u003e"
			],
			"example": [
				"a(0)=1, a(1)=0, a(2)=3, ... , a(10)=01=1, a(11)=00=0, a(12)=03=3, ... , a(20)=31, ... , a(100)=011=11, a(101)=010=10, a(102)=013=13."
			],
			"maple": [
				"f:= proc(n) option remember; local d;",
				"d:= n mod 10;",
				"d + (-1)^d + 10*procname((n-d)/10)",
				"end proc:",
				"for i from 0 to 9 do f(i):= i + (-1)^i od:",
				"map(f, [$0..100]); # _Robert Israel_, Feb 20 2019"
			],
			"program": [
				"(PARI) substi(d)=my(vs = [1,0,3,2,5,4,7,6,9,8]); fromdigits(apply(x-\u003evs[x+1], d));",
				"a(n) = if (n==0, substi([0]), substi(digits(n))); \\\\ _Michel Marcus_, Feb 15 2019"
			],
			"xref": [
				"Cf. A001477."
			],
			"keyword": "nonn,base,easy",
			"offset": "0,3",
			"author": "_Paul Curtz_, Feb 15 2019",
			"references": 1,
			"revision": 18,
			"time": "2019-02-20T15:17:55-05:00",
			"created": "2019-02-19T09:48:37-05:00"
		}
	]
}