{
	"greeting": "Greetings from The On-Line Encyclopedia of Integer Sequences! http://oeis.org/",
	"query": "id:A306525",
	"count": 1,
	"start": 0,
	"results": [
		{
			"number": 306525,
			"data": "0,1,3,12,53,282,1753,12566,102233,931746,9408941,104310042,1259745925,16464164978,231539899697,3486551697582,55972130401073,954322312212546,17222351842894933,327979242711784226,6573122342554664381,138292026914011788882",
			"name": "Row sums of A306234.",
			"link": [
				"Alois P. Heinz, \u003ca href=\"/A306525/b306525.txt\"\u003eTable of n, a(n) for n = 0..450\u003c/a\u003e"
			],
			"maple": [
				"a:= proc(n) option remember; `if`(n\u003c5, [0, 1, 3, 12, 53][n+1],",
				"      (2*(2*n^2-9*n+6)*a(n-1)  -(2*n^3-13*n^2+21*n-8)*a(n-2)",
				"      -(4*n^2-21*n+30)*a(n-3) +(2*n^3-19*n^2+63*n-71)*a(n-4)",
				"        -(2*n-5)*(n-4)*a(n-5)) / (2*n-7))",
				"    end:",
				"seq(a(n), n=0..23);"
			],
			"xref": [
				"Row sums of A306234."
			],
			"keyword": "nonn",
			"offset": "0,3",
			"author": "_Alois P. Heinz_, Feb 21 2019",
			"references": 2,
			"revision": 9,
			"time": "2019-02-21T20:43:43-05:00",
			"created": "2019-02-21T16:58:13-05:00"
		}
	]
}