{
	"greeting": "Greetings from The On-Line Encyclopedia of Integer Sequences! http://oeis.org/",
	"query": "id:A306131",
	"count": 1,
	"start": 0,
	"results": [
		{
			"number": 306131,
			"data": "1,8,13,64,240,842,3302,12740,48468,187112,723138,2786916,10760740,41576054,160572130,620281406,2396512260,9258772148,35771455196,138208433662,533989093282,2063152495586,7971370390066,30798897460570",
			"name": "Number of nX3 0..1 arrays with every element unequal to 0, 2, 3, 4, 6 or 7 king-move adjacent elements, with upper left element zero.",
			"comment": [
				"Column 3 of A306136."
			],
			"link": [
				"R. H. Hardin, \u003ca href=\"/A306131/b306131.txt\"\u003eTable of n, a(n) for n = 1..210\u003c/a\u003e"
			],
			"formula": [
				"Empirical: a(n) = 5*a(n-1) -3*a(n-2) +2*a(n-3) -29*a(n-4) -18*a(n-5) +80*a(n-6) -17*a(n-7) +7*a(n-8) +102*a(n-9) -112*a(n-10) -65*a(n-11) +61*a(n-12) -71*a(n-13) +49*a(n-14) +68*a(n-15) -72*a(n-16) -14*a(n-17) -16*a(n-19) -4*a(n-20)"
			],
			"example": [
				"Some solutions for n=5",
				"..0..0..0. .0..1..0. .0..1..0. .0..1..0. .0..1..0. .0..1..1. .0..1..0",
				"..1..1..1. .0..1..0. .0..1..1. .1..0..1. .0..1..0. .0..1..1. .1..1..1",
				"..0..0..0. .1..1..1. .0..0..0. .0..0..0. .1..1..1. .1..0..0. .0..0..1",
				"..0..0..1. .0..0..1. .0..1..0. .0..1..0. .0..1..0. .1..0..0. .1..1..0",
				"..1..1..0. .1..0..1. .1..0..1. .1..0..1. .1..0..1. .0..1..1. .1..1..0"
			],
			"xref": [
				"Cf. A306136."
			],
			"keyword": "nonn",
			"offset": "1,2",
			"author": "_R. H. Hardin_, Jun 22 2018",
			"references": 2,
			"revision": 4,
			"time": "2018-06-22T07:41:22-04:00",
			"created": "2018-06-22T07:41:22-04:00"
		}
	]
}