{
	"greeting": "Greetings from The On-Line Encyclopedia of Integer Sequences! http://oeis.org/",
	"query": "id:A306159",
	"count": 1,
	"start": 0,
	"results": [
		{
			"number": 306159,
			"data": "5,15,40,165,624,2620,11160,48915,217000,976872,4438920,20346320,93900240,435970980,2034504992,9536767665,44878791360,211927733500,1003867701480,4768372070592,22706531339280,108372083629260,518301258916440,2483526875798820",
			"name": "Inverse Weigh transform of 5^n.",
			"link": [
				"Seiichi Manyama, \u003ca href=\"/A306159/b306159.txt\"\u003eTable of n, a(n) for n = 1..1000\u003c/a\u003e",
				"N. J. A. Sloane, \u003ca href=\"/transforms.txt\"\u003eTransforms\u003c/a\u003e"
			],
			"formula": [
				"Product_{k\u003e=1} (1+x^k)^a(k) = 1/(1-5x).",
				"a(n) = 1/n*(5^n + Sum_{d\u003cn and d|n} (-1)^(n/d)*d*a(d))."
			],
			"example": [
				"(1+x)^5*(1+x^2)^15*(1+x^3)^40*(1+x^4)^165* ... = 1 + 5*x + 25*x^2 + 125*x^3 + 625*x^4 + ... ."
			],
			"xref": [
				"Inverse Weigh transform of b^n: A306156 (b=2), A306157 (b=3), A306158 (b=4), this sequence (b=5).",
				"Cf. A000351, A038070."
			],
			"keyword": "nonn",
			"offset": "1,1",
			"author": "_Seiichi Manyama_, Jun 23 2018",
			"references": 4,
			"revision": 15,
			"time": "2018-06-23T14:54:44-04:00",
			"created": "2018-06-23T14:18:36-04:00"
		}
	]
}