{
	"greeting": "Greetings from The On-Line Encyclopedia of Integer Sequences! http://oeis.org/",
	"query": "id:A306107",
	"count": 1,
	"start": 0,
	"results": [
		{
			"number": 306107,
			"data": "0,1,2,3,4,10,20,21,30,31,32,40,41,42,43,101,102,103,104,201,202,203,204,212,213,214,301,302,303,304,312,313,314,323,324,401,402,403,404,412,413,414,423,424,434,1010,1020,1021,1030,1031,1032,1040,1041,1042,1043,2010,2020,2021,2030,2031,2032,2040,2041",
			"name": "Numbers with digits in {0,1,2,3,4} such that every other digit is strictly less than its neighbors.",
			"comment": [
				"Terms of A032860 written in base 5."
			],
			"formula": [
				"a(n) = A007091(A032860(n))."
			],
			"program": [
				"(PARI) A(Nmax=100, K=4, A=[0..K], i=vector(2*K, i, max(1, i-K+1)), c(T, v)=apply(t-\u003et+T, v))={for(n=0, oo, for(k=10, K*11, if(k%10\u003ck\\10, k%10|| i=concat(i, 1+#A))\u0026\u0026 A=concat(A, c(k*10^n, A[i[K*n+k%10+1]..i[K*n+K+1]-1])); #A\u003cNmax||return(A)))}"
			],
			"xref": [
				"Cf. A306105 .. A306111 and A297147: analog for bases 3..9 and 10.",
				"Cf. A032860 and A032858 .. A032865 for other bases 3..10."
			],
			"keyword": "nonn,base",
			"offset": "1,3",
			"author": "_M. F. Hasler_, Oct 05 2018",
			"references": 0,
			"revision": 7,
			"time": "2018-10-06T09:37:58-04:00",
			"created": "2018-10-06T09:37:58-04:00"
		}
	]
}