{
	"greeting": "Greetings from The On-Line Encyclopedia of Integer Sequences! http://oeis.org/",
	"query": "id:A306381",
	"count": 1,
	"start": 0,
	"results": [
		{
			"number": 306381,
			"data": "1,415,8623,64405,289981,965071,2626975,6195673,13123945,25572511,46610191,80439085,132644773,210471535,323122591,482085361,701481745,998443423,1393512175,1911065221,2579765581,3433037455,4509566623,5853825865,7516625401,9555688351",
			"name": "a(n) is the number of semimagic 4 X 3 matrices whose entries are nonnegative integers, with row sum = 3*n and column sum = 4*n.",
			"comment": [
				"This sequence was found during Doron Zeilberger's Experimental Mathematics class on Feb. 11, 2019. All class members contributed to the discovery of this sequence."
			],
			"link": [
				"Andrew Howroyd, \u003ca href=\"/A306381/b306381.txt\"\u003eTable of n, a(n) for n = 0..1000\u003c/a\u003e",
				"Doron Zeilberger, \u003ca href=\"http://sites.math.rutgers.edu/~zeilberg/EM19/C6.txt\"\u003eExperimental Mathematics Class in Spring 2019\u003c/a\u003e, C6.txt; \u003ca href=\"/A306381/a306381.txt\"\u003eLocal copy\u003c/a\u003e"
			],
			"formula": [
				"a(n) = (139/4)*n^6 + (417/4)*n^5 + (535/4)*n^4 + (375/4)*n^3 + (77/2)*n^2 + 9*n + 1."
			],
			"example": [
				"For n=1 the a(1)= 415 because there are 415 4 X 3 matrices with nonnegative integer entries, whose row sum is 3 and column sum is 4."
			],
			"maple": [
				"#Comp(n,k): inputs non-neg. integers n and k and outputs the SET of # compositions of n into k parts (vectors of non-neg. integers that add-up to n) #of length k Comp:=proc(n,k) local S,a1,S1, s1: option remember: if k\u003c0 or n\u003c0 then RETURN({}): fi: if n=0 then RETURN({[0$k]}): fi: if k=0 then if n=0 then RETURN({[]}): else RETURN({}): fi: fi: S:={}: for a1 from 0 to n do S1:=Comp(n-a1,k-1): S:=S union {seq([a1,op(s1)], s1 in S1)}: od: S: end:",
				"#NuM(A,k,c):The number of vectors of length k whose components are #members of A that add-up to c. For example the number of 3 by 3 magic squares #with row sums and column sums all equal to 5 is NuM(Comp(5,3),3,[5,5,5]); NuM:=proc(A,k,c) local r,a,su: option remember: if not (type(c,list) and type (A,set)) then print(`Bad input`): RETURN(FAIL): fi: r:=nops(c): if k=0 then if c=[0$r] then RETURN(1): else RETURN(0): fi: fi: su:=0: for a in A do su:=su+NuM(A,k-1,c-a): od: su: end:",
				"seq(NuM(Comp(3*i, 3), 4, [4*i, 4*i, 4*i]), i = 1 .. 10);"
			],
			"program": [
				"a(n) = {(139*n^6 + 417*n^5 + 535*n^4 + 375*n^3 + 154*n^2 + 36*n + 4)/4} \\\\ _Andrew Howroyd_, Mar 01 2020"
			],
			"keyword": "nonn",
			"offset": "0,2",
			"author": "_Yukun Yao_, Feb 11 2019",
			"ext": [
				"a(0)=1 prepended and terms a(11) and beyond from _Andrew Howroyd_, Mar 01 2020"
			],
			"references": 1,
			"revision": 19,
			"time": "2021-03-30T14:55:07-04:00",
			"created": "2019-02-11T22:03:34-05:00"
		}
	]
}