{
	"greeting": "Greetings from The On-Line Encyclopedia of Integer Sequences! http://oeis.org/",
	"query": "id:A307854",
	"count": 1,
	"start": 0,
	"results": [
		{
			"number": 307854,
			"data": "1,15,27,35,39,51,63,69,75,77,87,91,95,99,115,119,123,125,135,143,147,153,155,159,171,175,183,187,189,195,203,207,215,219,231,235,237,243,245,247,249,255,259,267,275,279,285,287,291,299,303,305,309,315,319,323",
			"name": "Numbers k such that phi(r) + phi(s) = k has no solution, where phi is Euler totient function.",
			"comment": [
				"Problem C1 of Unsolved Problems in Number Theory asks if there are even numbers in this sequence."
			],
			"reference": [
				"Richard K. Guy, Unsolved Problems in Number Theory, Springer, 2004, section C1, p. 160."
			],
			"formula": [
				"a(n) = A005277(n-1) + 1 if there are no even numbers in this sequence."
			],
			"mathematica": [
				"v = Union@ EulerPhi@ Range@ 1680; Complement[Range@ 400, Join[2 v, Plus @@@ Subsets[v, {2}]]] (* _Giovanni Resta_, Jul 18 2019 *)"
			],
			"program": [
				"(PARI) is(n)=sum(i=1,n-1,istotient(i)\u0026\u0026istotient(n-i))==0"
			],
			"xref": [
				"Cf. A000010, A002202, A005277, A307853."
			],
			"keyword": "nonn",
			"offset": "1,2",
			"author": "_Jack Zhang_, May 01 2019",
			"ext": [
				"More terms from _Jinyuan Wang_, May 03 2019"
			],
			"references": 1,
			"revision": 29,
			"time": "2019-08-20T19:51:21-04:00",
			"created": "2019-08-20T19:51:21-04:00"
		}
	]
}