{
	"greeting": "Greetings from The On-Line Encyclopedia of Integer Sequences! http://oeis.org/",
	"query": "id:A307918",
	"count": 1,
	"start": 0,
	"results": [
		{
			"number": 307918,
			"data": "3,26,111,396,1235,3414,8463,19064,39555,76530,139535,241860,401427,641774,993135,1493616,2190467,3141450,4416303,6098300,8285907,11094534,14658383,19132392,24694275,31546658,39919311,50071476,62294291,76913310,94291119,114830048",
			"name": "Number of (undirected) paths in the n-dipyramidal graph.",
			"comment": [
				"Extended to a(1)-a(2) using the formula/recurrence."
			],
			"link": [
				"Eric Weisstein's World of Mathematics, \u003ca href=\"http://mathworld.wolfram.com/DipyramidalGraph.html\"\u003eDipyramidal Graph\u003c/a\u003e",
				"Eric Weisstein's World of Mathematics, \u003ca href=\"http://mathworld.wolfram.com/GraphPath.html\"\u003eGraph Path\u003c/a\u003e",
				"\u003ca href=\"/index/Rec#order_07\"\u003eIndex entries for linear recurrences with constant coefficients\u003c/a\u003e, signature (7, -21, 35, -35, 21, -7, 1)."
			],
			"formula": [
				"a(n) = n*(-135 + 293*n - 180*n^2 + 80*n^3 - 15*n^4 + 2*n^5)/15.",
				"a(n) = 7*a(n-1) - 21*a(n-2) + 35*a(n-3) - 35*a(n-4) + 21*a(n-5) - 7*a(n-6) + a(n-7).",
				"G.f.: x*(-3 - 5*x + 8*x^2 - 60*x^3 + 11*x^4 - 47*x^5)/(-1 + x)^7."
			],
			"mathematica": [
				"Table[n (-135 + 293 n - 180 n^2 + 80 n^3 - 15 n^4 + 2 n^5)/15, {n, 20}]",
				"LinearRecurrence[{7, -21, 35, -35, 21, -7, 1}, {3, 26, 111, 396, 1235, 3414, 8463}, 20]",
				"CoefficientList[Series[(-3 - 5 x + 8 x^2 - 60 x^3 + 11 x^4 - 47 x^5)/(-1 + x)^7, {x, 0, 20}], x]"
			],
			"keyword": "nonn,easy",
			"offset": "1,1",
			"author": "_Eric W. Weisstein_, May 06 2019",
			"references": 0,
			"revision": 7,
			"time": "2019-05-06T15:52:28-04:00",
			"created": "2019-05-06T15:52:28-04:00"
		}
	]
}