{
	"greeting": "Greetings from The On-Line Encyclopedia of Integer Sequences! http://oeis.org/",
	"query": "id:A307827",
	"count": 1,
	"start": 0,
	"results": [
		{
			"number": 307827,
			"data": "0,1,232,27972,76867,25555552,7154664517,158229922851,2028787878202,2040061600402,2733623263372,52667666676625,675972505279576,28519896169891582,73542836563824537,74529570707592547,25552469511596425552,27835145788754153872",
			"name": "Palindromic decagonal (or 10-gonal) numbers.",
			"link": [
				"Robert Price, \u003ca href=\"/A307827/b307827.txt\"\u003eTable of n, a(n) for n = 1..22\u003c/a\u003e",
				"P. De Geest, \u003ca href=\"http://www.worldofnumbers.com/nona.htm\"\u003ePalindromic nonagonals\u003c/a\u003e"
			],
			"mathematica": [
				"Select[PolygonalNumber[10, Range[0, 10^5]], PalindromeQ]"
			],
			"xref": [
				"Cf. A001107, A082723."
			],
			"keyword": "nonn,base",
			"offset": "1,3",
			"author": "_Robert Price_, Apr 30 2019",
			"references": 4,
			"revision": 8,
			"time": "2019-04-30T22:04:39-04:00",
			"created": "2019-04-30T21:48:25-04:00"
		}
	]
}