{
	"greeting": "Greetings from The On-Line Encyclopedia of Integer Sequences! http://oeis.org/",
	"query": "id:A307125",
	"count": 1,
	"start": 0,
	"results": [
		{
			"number": 307125,
			"data": "0,1,2,4,17,123,1052,10568,125750,1726189,26730394,460982300,8766443952,182229703043,4110207945794,99970680376908,2608221938476016,72656914458625593,2152355976206481570,67562405794276542004,2240111797037473955984,78229640115171735522015,2870092624821982184377202",
			"name": "Expansion of e.g.f. log(1 - log(1 - x*exp(x))).",
			"maple": [
				"a:=series(log(1-log(1-x*exp(x))),x=0,23): seq(n!*coeff(a,x,n),n=0..22); # _Paolo P. Lava_, Apr 03 2019"
			],
			"mathematica": [
				"nmax = 22; CoefficientList[Series[Log[1 - Log[1 - x Exp[x]]], {x, 0, nmax}], x] Range[0, nmax]!"
			],
			"program": [
				"(PARI) my(x = 'x + O('x^30)); concat(0, Vec(serlaplace(log(1 - log(1 - x*exp(x)))))) \\\\ _Michel Marcus_, Mar 26 2019"
			],
			"xref": [
				"Cf. A007550, A009444, A089064, A307126."
			],
			"keyword": "nonn",
			"offset": "0,3",
			"author": "_Ilya Gutkovskiy_, Mar 26 2019",
			"references": 1,
			"revision": 10,
			"time": "2019-04-03T09:03:39-04:00",
			"created": "2019-03-26T21:07:08-04:00"
		}
	]
}