{
	"greeting": "Greetings from The On-Line Encyclopedia of Integer Sequences! http://oeis.org/",
	"query": "id:A307169",
	"count": 1,
	"start": 0,
	"results": [
		{
			"number": 307169,
			"data": "4,65,1036,16511,263140,4193729,66836524,1065190655,16976213956,270554232641,4311891508300,68719709900159,1095203466894244,17454535760407745,278177368699629676,4433383363433667071,70655956446239043460,1126061919776391028289,17946334759976017409164",
			"name": "First class of all proper positive solutions y1(n) = a(n) of the Pell equation x^2 - 7*y^2 = 9.",
			"comment": [
				"The corresponding x1 solutions are given in A307168.",
				"For details see A307168."
			],
			"link": [
				"\u003ca href=\"/index/Ch#Cheby\"\u003eIndex entries for sequences related to Chebyshev polynomials.\u003c/a\u003e",
				"\u003ca href=\"/index/Rec#order_02\"\u003eIndex entries for linear recurrences with constant coefficients\u003c/a\u003e, signature (16,-1)."
			],
			"formula": [
				"G.f.: x*(4 + x)/(1 - 16*x + x^2).",
				"a(n) = -S(n, 16) + 20*S(n-1, 16) for n \u003e= 1, with S(n,16) = A077412(n).",
				"a(n) = sqrt((A307168(n)^2 - 9)/7) for n \u003e= 1."
			],
			"xref": [
				"Cf. A077412, A307168."
			],
			"keyword": "nonn,easy",
			"offset": "1,1",
			"author": "_Wolfdieter Lang_, Mar 27 2019",
			"references": 3,
			"revision": 11,
			"time": "2019-04-01T03:00:34-04:00",
			"created": "2019-03-28T03:32:46-04:00"
		}
	]
}