{
	"greeting": "Greetings from The On-Line Encyclopedia of Integer Sequences! http://oeis.org/",
	"query": "id:A307392",
	"count": 1,
	"start": 0,
	"results": [
		{
			"number": 307392,
			"data": "1,1,1,1,2,3,3,3,3,4,6,9,11,12,12,12,13,15,18,22,27,34,42,50,56,60,63,66,70,76,84,94,106,120,136,154,177,206,241,279,317,352,381,404,423,442,464,492,528,574,630,694,764,839,920,1008,1104,1213,1341,1494,1674,1878",
			"name": "Number of partitions of n with at most one part in the interval [i*(i+1)/2, i+(i*(i+1)/2)] for all nonnegative integers i.",
			"comment": [
				"The intervals are: [1,2], [3,5], [6,9], [10,14], [15,20], [21,27], [28,35], [36,44], [45,54], [55,65], ... ."
			],
			"formula": [
				"G.f.: Product_{n\u003e=0} (1 + Sum_{k=(n*(n+1)/2)..(n*(n+3)/2)} x^k)."
			],
			"example": [
				"a(0)=1 by definition of the empty partition.",
				"a(10)=6 because 10=9+1=8+2=7+3=6+4=6+3+1 (for example, you cannot take 5+5 or 7+2+1 because of the definition of a(n))."
			],
			"maple": [
				"f:= n-\u003e 1+add(x^j, j=n*(n+1)/2..n*(n+3)/2):",
				"a:= n-\u003e coeff(mul(f(k), k=1..ceil((sqrt(9+8*n)-3)/2)), x, n):",
				"seq(a(n), n=0..61);"
			],
			"program": [
				"(PARI) f(n, x) = (1+sum(j=n*(n+1)/2, n*(n+3)/2, x^j));",
				"a(n) = polcoef(prod(k=1, ceil((sqrt(9+8*n)-3)/2), f(k, x)), n, x); \\\\ version 2.11.0 or newer; _Michel Marcus_, Apr 08 2019",
				"(PARI) first(n) = v = Vecrev(Vec(a(n))); vector(n, i, v[i]) \\\\ using a(n) from above \\\\ _David A. Corneth_, Apr 08 2019"
			],
			"xref": [
				"Cf. A000217, A057944."
			],
			"keyword": "nonn",
			"offset": "0,5",
			"author": "_Igor Haladjian_, Apr 06 2019",
			"references": 0,
			"revision": 55,
			"time": "2019-04-19T10:23:07-04:00",
			"created": "2019-04-19T10:23:07-04:00"
		}
	]
}