{
	"greeting": "Greetings from The On-Line Encyclopedia of Integer Sequences! http://oeis.org/",
	"query": "id:A307559",
	"count": 1,
	"start": 0,
	"results": [
		{
			"number": 307559,
			"data": "0,0,2,6,12,24,40,60,90,126,168,224,288,360,450,550,660,792,936,1092,1274,1470,1680,1920,2176,2448,2754,3078,3420,3800,4200,4620,5082,5566,6072,6624,7200,7800,8450,9126,9828,10584,11368,12180,13050,13950,14880,15872",
			"name": "a(n) = floor(n/3)*(n - floor(n/3))*(n - floor(n/3) - 1).",
			"comment": [
				"a(n) is an upper bound for the irregularity of a graph with n vertices (see Theorem 3.2 of the Tavakoli et al. reference)."
			],
			"link": [
				"M. Tavakoli, F. Rahbarnia, M. Mirzavaziri, A. R. Ashrafi, and I. Gutman, \u003ca href=\"https://imi.pmf.kg.ac.rs/kjm/pub/13681216896539_tavakoligutman.pdf\"\u003eExtremely irregular graphs\u003c/a\u003e, Kragujevac J. Math., 37 (1), 2013, 135-139."
			],
			"formula": [
				"a(n) = 2*A200067(n)."
			],
			"example": [
				"a(4) = floor(4/3)*(4 - floor(4/3))*(4-floor(4/3)-1) = 1*3*2 = 6."
			],
			"maple": [
				"a:=n-\u003efloor(n/3)*(n-floor(n/3))*(n-floor(n/3)-1): seq(a(n), n=1..50);"
			],
			"xref": [
				"Cf. A200067."
			],
			"keyword": "nonn,easy",
			"offset": "1,3",
			"author": "_Emeric Deutsch_, Apr 14 2019",
			"references": 0,
			"revision": 18,
			"time": "2020-03-08T23:21:02-04:00",
			"created": "2019-04-15T01:28:58-04:00"
		}
	]
}