{
	"greeting": "Greetings from The On-Line Encyclopedia of Integer Sequences! http://oeis.org/",
	"query": "id:A307757",
	"count": 1,
	"start": 0,
	"results": [
		{
			"number": 307757,
			"data": "1,-1,0,0,-1,0,2,-2,0,2,-2,0,4,-4,0,4,-5,0,8,-8,0,8,-10,0,14,-15,0,16,-18,0,24,-26,0,28,-32,0,42,-44,0,48,-54,0,68,-72,0,80,-88,0,108,-115,0,128,-140,0,170,-180,0,200,-218,0,260,-276,0,308,-333,0,392,-416,0,464",
			"name": "Expansion of Product_{k\u003e=1} 1/(1 + x^k/(1 + x^(2*k))).",
			"mathematica": [
				"m = 70; CoefficientList[Series[Product[1/(1 + x^k/(1 + x^(2*k))), {k, 1, m}], {x, 0, m}], x] (* _Amiram Eldar_, May 07 2021 *)"
			],
			"program": [
				"(PARI) N=66; x='x+O('x^N); Vec(1/prod(k=1, N, 1+x^k/(1+x^(2*k))))"
			],
			"xref": [
				"Cf. A309733, A327686, A327688."
			],
			"keyword": "sign",
			"offset": "0,7",
			"author": "_Seiichi Manyama_, Sep 22 2019",
			"references": 3,
			"revision": 45,
			"time": "2021-05-07T05:09:48-04:00",
			"created": "2019-09-22T20:45:38-04:00"
		}
	]
}