{
	"greeting": "Greetings from The On-Line Encyclopedia of Integer Sequences! http://oeis.org/",
	"query": "id:A307041",
	"count": 1,
	"start": 0,
	"results": [
		{
			"number": 307041,
			"data": "1,1,1,1,1,1,1,0,-7,-35,-119,-329,-791,-1715,-3430,-6419,-11319,-18767,-28763,-38759,-38759,0,149205,571781,1613129,3964051,8934121,18874261,37748522,71705865,129080161,218205281,339081225,459957169,459957169,0,-1749692735",
			"name": "a(n) = Sum_{k=0..floor(n/7)} (-1)^k*binomial(n,7*k).",
			"link": [
				"Seiichi Manyama, \u003ca href=\"/A307041/b307041.txt\"\u003eTable of n, a(n) for n = 0..3000\u003c/a\u003e",
				"\u003ca href=\"/index/Rec#order_06\"\u003eIndex entries for linear recurrences with constant coefficients\u003c/a\u003e, signature (7,-21,35,-35,21,-7)."
			],
			"formula": [
				"G.f.: (1 - x)^6/((1 - x)^7 + x^7).",
				"a(n) = 7*a(n-1) - 21*a(n-2) + 35*a(n-3) - 35*a(n-4) + 21*a(n-5) - 7*a(n-6) for n \u003e 6."
			],
			"mathematica": [
				"a[n_] := Sum[(-1)^k * Binomial[n,7*k], {k,0,Floor[n/7]}]; Array[a, 37, 0] (* _Amiram Eldar_, May 25 2021 *)"
			],
			"program": [
				"(PARI) {a(n) = sum(k=0, n\\7, (-1)^k*binomial(n, 7*k))}",
				"(PARI) N=66; x='x+O('x^N); Vec((1-x)^6/((1-x)^7+x^7))"
			],
			"xref": [
				"Column 7 of A307039.",
				"Cf. A306852."
			],
			"keyword": "sign,easy",
			"offset": "0,9",
			"author": "_Seiichi Manyama_, Mar 21 2019",
			"references": 2,
			"revision": 17,
			"time": "2021-05-26T00:55:54-04:00",
			"created": "2019-03-21T04:39:30-04:00"
		}
	]
}