{
	"greeting": "Greetings from The On-Line Encyclopedia of Integer Sequences! http://oeis.org/",
	"query": "id:A307894",
	"count": 1,
	"start": 0,
	"results": [
		{
			"number": 307894,
			"data": "13,17,37,53,73,97,109,113,137,149,193,197,233,277,317,337,401,449,457,541,613,641,653,673,709,757,809,821,877,1009,1061,1093,1117,1129,1201,1289,1297,1381,1481,1549,1733,1873,1877,1913,1933,1997,2017,2053,2153,2213,2221,2377,2417,2437,2557,2797",
			"name": "Hypotenuses of primitive Pythagorean triangles with prime length, having the property that the sum and absolute difference of the shorter legs are both prime numbers.",
			"comment": [
				"Replacing the shorter legs with the sum and absolute difference of the shorter legs may result in an integer-sided triangle, but this is not always the case. For example, {5,12,13}-\u003e{7,13,17} and {7,13,17} are the sides of a triangle. However, {60,91,109}-\u003e{31,109,151}, but {31,109,151} are not the sides of a triangle. If the replacement results in such a triangle, then the triangle is a scalene integer triangle (A070112) with sides of prime length, and a(n) is a term of A070081."
			],
			"example": [
				"13 is a term because 12 +  5 = 17 and 12 -  5 =  7.",
				"17 is a term because 15 +  8 = 23 and 15 -  8 =  7.",
				"37 is a term because 35 + 12 = 47 and 35 - 12 = 23."
			],
			"xref": [
				"Cf. A070081, A070112.",
				"Subset of A008846.",
				"Subset of A307880."
			],
			"keyword": "nonn",
			"offset": "1,1",
			"author": "_Torlach Rush_, May 03 2019",
			"references": 0,
			"revision": 25,
			"time": "2019-05-07T15:15:04-04:00",
			"created": "2019-05-07T15:15:04-04:00"
		}
	]
}