{
	"greeting": "Greetings from The On-Line Encyclopedia of Integer Sequences! http://oeis.org/",
	"query": "id:A307450",
	"count": 1,
	"start": 0,
	"results": [
		{
			"number": 307450,
			"data": "1,1,2,8,2,2,3,4,3",
			"name": "Number of cubic graphs with minimal crossing number n and the minimal possible number of vertices.",
			"comment": [
				"a(0) = 1 from the complete graph K_4.",
				"a(1) = 1 from the utility graph K_{3,3}.",
				"a(2) = 2 from the Petersen graph (and 1 other).",
				"a(3) = 8 from the Heawood graph, GP(7,2) (and 6 others).",
				"a(4) = 2 from the Moebius-Kantor and 8-crossed prism graphs.",
				"a(5) = 2 from the Pappus graph (and 1 other).",
				"a(6) = 3 from the Desargues graph (and 2 others based on 10_3 configurations).",
				"a(7) = 4 from the 7-crossing graphs (4 in total).",
				"a(8) = 3 from the McGee and Nauru graphs (and 1 other).",
				"a(9) \u003e= 3 from GP(13,5), the Coxeter-1, and McGee+1 graphs (and unknown others). - _Eric W. Weisstein_, Apr 12 2019",
				"a(10) \u003e= 2 from the Levi-1 (=McGee+2) graph and graph from 2019 Clancy et al. preprint (and unknown others). - _Eric W. Weisstein_, Apr 12 2019",
				"a(11) \u003e= 1 from the Coxeter graph (and unknown others).",
				"a(13) \u003e= 1 from the Levi graph (and unknown others)."
			],
			"link": [
				"A. E. Brouwer, \u003ca href=\"http://www.win.tue.nl/~aeb/drg/graphs/Heawood.html\"\u003eThe Heawood Graph\u003c/a\u003e",
				"Geoff Exoo, \u003ca href=\"https://web.archive.org/web/20190119121623/http://isu.indstate.edu/ge/COMBIN/RECTILINEAR/\"\u003eRectilinear Drawings of Famous Graphs\u003c/a\u003e",
				"Michael Haythorpe and Alex Newcombe, \u003ca href=\"https://arxiv.org/abs/1804.10336\"\u003eThere are no Cubic Graphs on 26 Vertices with Crossing Number 11\u003c/a\u003e, arXiv preprint arXiv:1804.10336 [math.CO], 2018.",
				"Ed Pegg, Jr., \u003ca href=\"http://www.maa.org/editorial/mathgames/mathgames_12_29_03.html\"\u003eCubic Symmetric Graphs\u003c/a\u003e",
				"Ed Pegg, Jr., \u003ca href=\"http://mathworld.wolfram.com/CubicSymmetricGraph.html\"\u003eCubic Symmetric Graphs\u003c/a\u003e",
				"Ed Pegg, Jr., \u003ca href=\"/A110507/a110507.png\"\u003eHeawood graph shown with crossing number 3 and more symmetrically\u003c/a\u003e",
				"Eric Weisstein's World of Mathematics, \u003ca href=\"http://mathworld.wolfram.com/SmallestCubicCrossingNumberGraph.html\"\u003eSmallest Cubic Crossing Number Graph\u003c/a\u003e"
			],
			"xref": [
				"Cf. A110507."
			],
			"keyword": "nonn,more",
			"offset": "0,3",
			"author": "_Ed Pegg Jr_, Apr 08 2019",
			"references": 1,
			"revision": 20,
			"time": "2019-04-12T14:08:49-04:00",
			"created": "2019-04-10T08:29:59-04:00"
		}
	]
}