{
	"greeting": "Greetings from The On-Line Encyclopedia of Integer Sequences! http://oeis.org/",
	"query": "id:A307787",
	"count": 1,
	"start": 0,
	"results": [
		{
			"number": 307787,
			"data": "1,1,1,2,5,14,43,140,477,1683,6106,22664,85735,329572,1284440,5065828,20188877,81201801,329281059,1345059602,5530600618,22876354484,95137126194,397610249052,1669285639455,7037395810149,29782584966376",
			"name": "Number of valid hook configurations of 132-avoiding permutations of [n].",
			"comment": [
				"Also the number of valid hook configurations of 231-avoiding permutations of [n].",
				"For n \u003e 0, a(n) is the number of intervals in the Motzkin-Tamari poset introduced by Fang."
			],
			"link": [
				"Colin Defant, \u003ca href=\"http://arxiv.org/abs/1904.10451\"\u003eMotzkin intervals and valid hook configurations\u003c/a\u003e, arXiv preprint arXiv:1904.10451 [math.CO], 2019.",
				"Wenjie Fang, \u003ca href=\"http://arxiv.org/abs/1801.04809\"\u003eA partial order on Motzkin paths\u003c/a\u003e, arXiv preprint arXiv:1801.04809 [math.CO], 2018."
			],
			"formula": [
				"O.g.f. A(x) satisfies (-1 + 6 x + 15 x^2 + 8 x^3) + (1 - 11 x + 28 x^3 + 16 x^4)*A(x) + (4 x - 19 x^2 - 14 x^3)*A(x)^2 + (6 x^2 - 9 x^3 + 8 x^4)*A(x)^3 + 4 x^3*A(x)^4 + x^4*A(x)^5 = 0.",
				"a(n) ~ (b*r^n)/((Pi*n^5)^(1/2)), where b = 0.805810... is the unique positive real root of 41472*x^6 - 34749*x^4 + 5472*x^2 - 256 and r = 4.658905... is the unique real root of 256*x^3 - 645*x^2 - 2112*x - 2048."
			],
			"mathematica": [
				"m = 30; A[_] = 0;",
				"Do[A[x_] = (-x^4 A[x]^5 - 4x^3 A[x]^4 + x^2 (-8x^2 + 9x - 6) A[x]^3 + x (14x^2 + 19x - 4) A[x]^2 - (x + 1)^2 (8x - 1))/(16x^4 + 28x^3 - 11x + 1) + O[x]^m, {m}];",
				"CoefficientList[A[x], x] (* _Jean-François Alcover_, Sep 28 2019 *)"
			],
			"xref": [
				"Cf. A001006, A344498."
			],
			"keyword": "nonn",
			"offset": "0,4",
			"author": "_Colin Defant_, Apr 28 2019",
			"references": 2,
			"revision": 20,
			"time": "2020-05-07T14:03:11-04:00",
			"created": "2019-05-08T15:54:45-04:00"
		}
	]
}