{
	"greeting": "Greetings from The On-Line Encyclopedia of Integer Sequences! http://oeis.org/",
	"query": "id:A307522",
	"count": 1,
	"start": 0,
	"results": [
		{
			"number": 307522,
			"data": "1,-2,2,-2,4,-10,22,-42,72,-116,188,-332,662,-1432,3148,-6736,13784,-26894,50254,-90782,160856,-285230,518170,-983710,1964800,-4090002,8705322,-18582722,39219572,-81148034,163946630,-323136562,622125982,-1173528562,2179230066",
			"name": "Expansion of Product_{k\u003e=1} ((1 + x)^k - x^k)/((1 + x)^k + x^k).",
			"formula": [
				"G.f.: theta_4(x/(1 + x)), where theta_4() is the Jacobi theta function."
			],
			"mathematica": [
				"m = 34; CoefficientList[Series[Product[((1 + x)^k - x^k)/((1 + x)^k + x^k), {k, 1, m}], {x, 0, m}], x] (* _Amiram Eldar_, May 14 2021 *)"
			],
			"program": [
				"(PARI) N=66; x='x+O('x^N); Vec(prod(k=1, N, ((1+x)^k-x^k)/((1+x)^k+x^k)))"
			],
			"xref": [
				"Cf. A002448, A307520, A307521, A318570."
			],
			"keyword": "sign",
			"offset": "0,2",
			"author": "_Seiichi Manyama_, Apr 12 2019",
			"references": 2,
			"revision": 13,
			"time": "2021-05-14T02:53:12-04:00",
			"created": "2019-04-13T08:12:46-04:00"
		}
	]
}