{
	"greeting": "Greetings from The On-Line Encyclopedia of Integer Sequences! http://oeis.org/",
	"query": "id:A308538",
	"count": 1,
	"start": 0,
	"results": [
		{
			"number": 308538,
			"data": "1,-1,3,-11,-47,2111,-18589,-671803,24578625,328227551,-44122149981,-17436709707,129678315723089,-1671362093527073,-621466693739336509,16245508786340273349,4705502566521408713473,-172007688705762528111809,-54084940569279187064459581",
			"name": "a(n) = exp(1) * Sum_{k\u003e=0} (-1)^k*(k*(k + 1))^n/k!.",
			"formula": [
				"a(n) = Sum_{k=0..n} binomial(n,k)*A000587(2*n-k)."
			],
			"mathematica": [
				"Table[Exp[1] Sum[(-1)^k (k (k + 1))^n/k!, {k, 0, Infinity}], {n, 0, 18}]",
				"Table[Sum[Binomial[n, k] BellB[2 n - k, -1], {k, 0, n}], {n, 0, 18}]"
			],
			"xref": [
				"Cf. A000587, A020556, A090211, A094577."
			],
			"keyword": "sign",
			"offset": "0,3",
			"author": "_Ilya Gutkovskiy_, Jun 06 2019",
			"references": 0,
			"revision": 5,
			"time": "2019-06-06T21:59:53-04:00",
			"created": "2019-06-06T21:59:53-04:00"
		}
	]
}