{
	"greeting": "Greetings from The On-Line Encyclopedia of Integer Sequences! http://oeis.org/",
	"query": "id:A308273",
	"count": 1,
	"start": 0,
	"results": [
		{
			"number": 308273,
			"data": "1,1,2,5,13,35,98,286,858,2626,8174,25809,82426,265773,864055,2829271,9321987,30883103,102812795,343766977,1153937954,3887228976,13137039376,44528001849,151335579837,515617409850,1760800369203,6025806553007,20662226579437",
			"name": "Number of lattice paths from (0,0) to (n,n) that do not go above the diagonal x=y and consist of steps (h,v) with h, v prime or one.",
			"link": [
				"Alois P. Heinz, \u003ca href=\"/A308273/b308273.txt\"\u003eTable of n, a(n) for n = 0..600\u003c/a\u003e",
				"Wikipedia, \u003ca href=\"https://en.wikipedia.org/wiki/Lattice_path#Counting_lattice_paths\"\u003eCounting lattice paths\u003c/a\u003e"
			],
			"maple": [
				"b:= proc(x, y) option remember; `if`(y=0, 1, add(add(",
				"     `if`((h=1 or isprime(h)) and (v=1 or isprime(v))",
				"      and (x-h\u003c=y-v), b(x-h, y-v), 0), v=1..y), h=1..x))",
				"    end:",
				"a:= n-\u003e b(n$2):",
				"seq(a(n), n=0..30);"
			],
			"mathematica": [
				"f[p_List] := p + {0, p[[1]]}; f[0] = 0;",
				"b[{x_, y_}] := b[{x, y}] = If[y == 0, {1, 1}, f[Sum[Sum[",
				"     If[(h == 1 || PrimeQ[h]) \u0026\u0026 (v == 1 || PrimeQ[v])",
				"     \u0026\u0026 x - h \u003c= y - v, b[Sort@{x - h, y - v}], {0, 0}],",
				"     {v, 1, y}], {h, 1, x}]]];",
				"a[n_] := b[{n, n}][[1]];",
				"a /@ Range[0, 30] (* _Jean-François Alcover_, Apr 05 2021, after _Alois P. Heinz_ *)"
			],
			"xref": [
				"Cf. A000040, A008578, A308240, A308274."
			],
			"keyword": "nonn",
			"offset": "0,3",
			"author": "_Alois P. Heinz_, May 17 2019",
			"references": 3,
			"revision": 14,
			"time": "2021-04-05T09:18:23-04:00",
			"created": "2019-05-25T15:20:35-04:00"
		}
	]
}