{
	"greeting": "Greetings from The On-Line Encyclopedia of Integer Sequences! http://oeis.org/",
	"query": "id:A308104",
	"count": 1,
	"start": 0,
	"results": [
		{
			"number": 308104,
			"data": "11,22,33,44,55,66,77,88,99,101,112,123,134,145,156,167,178,189,202,213,224,235,246,257,268,279,303,314,325,336,347,358,369,404,415,426,437,448,459,505,516,527,538,549,606,617,628,639,707,718,729,808,819,909,1010",
			"name": "Distinct values taken by the DENEAT operator (A073053) in increasing order.",
			"comment": [
				"This sequence corresponds to numbers of the form e.o.(e+o) with e, o \u003e= 0 and e+o \u003e 0 (where \".\" denotes concatenation in decimal).",
				"This sequence first differs from A108203 for n = 55: a(55) = 1010 whereas A108203(55) = 1001."
			],
			"link": [
				"Rémy Sigrist, \u003ca href=\"/A308104/a308104.png\"\u003eScatterplot of the first difference of the first 188281 terms (the terms \u003c 100000000)\u003c/a\u003e",
				"Rémy Sigrist, \u003ca href=\"/A308104/a308104.gp.txt\"\u003ePARI program for A308104\u003c/a\u003e"
			],
			"program": [
				"(PARI) See Links section."
			],
			"xref": [
				"See A308106 for the values in order of appearance.",
				"Cf. A073053, A108203."
			],
			"keyword": "nonn,base",
			"offset": "1,1",
			"author": "_Rémy Sigrist_, May 13 2019",
			"references": 3,
			"revision": 8,
			"time": "2019-05-16T14:27:39-04:00",
			"created": "2019-05-16T14:27:39-04:00"
		}
	]
}