{
	"greeting": "Greetings from The On-Line Encyclopedia of Integer Sequences! http://oeis.org/",
	"query": "id:A308599",
	"count": 1,
	"start": 0,
	"results": [
		{
			"number": 308599,
			"data": "2,8,45,301,2281,19321,181441,1874881,21168001,259459201,3432844801,48778329601,741015475201,11987015040001,205740767232001,3734717995008001,71493173047296001,1439467021504512001,30411275102208000001,672697405260840960001,15548676734256906240001",
			"name": "Number of (not necessarily maximum) cliques in the n-alternating group graph.",
			"comment": [
				"The maximum size of a clique in the n-alternating graph is 3. Cliques are then triangles, edges, vertices and the empty set. - _Andrew Howroyd_, Sep 08 2019"
			],
			"link": [
				"Andrew Howroyd, \u003ca href=\"/A308599/b308599.txt\"\u003eTable of n, a(n) for n = 2..200\u003c/a\u003e",
				"Eric Weisstein's World of Mathematics, \u003ca href=\"http://mathworld.wolfram.com/AlternatingGroupGraph.html\"\u003eAlternating Group Graph\u003c/a\u003e",
				"Eric Weisstein's World of Mathematics, \u003ca href=\"http://mathworld.wolfram.com/Clique.html\"\u003eClique\u003c/a\u003e"
			],
			"formula": [
				"a(n) = 1 + (4*n - 5)*n!/6. - _Andrew Howroyd_, Sep 08 2019"
			],
			"program": [
				"(PARI) a(n) = 1 + (4*n - 5)*n!/6; \\\\ _Andrew Howroyd_, Sep 08 2019"
			],
			"xref": [
				"Cf. A001710, A317527."
			],
			"keyword": "nonn",
			"offset": "2,1",
			"author": "_Eric W. Weisstein_, Jun 09 2019",
			"ext": [
				"Offset corrected and terms a(7) and beyond from _Andrew Howroyd_, Sep 08 2019"
			],
			"references": 1,
			"revision": 11,
			"time": "2019-09-08T12:28:53-04:00",
			"created": "2019-06-10T06:17:09-04:00"
		}
	]
}