{
	"greeting": "Greetings from The On-Line Encyclopedia of Integer Sequences! http://oeis.org/",
	"query": "id:A308224",
	"count": 1,
	"start": 0,
	"results": [
		{
			"number": 308224,
			"data": "0,0,1,0,0,0,0,0,0,0,0,5,0,0,7,7,0,15,0,17,9,9,11,53,11,21,37,60,26,103,13,68,28,74,49,193,34,115,106,210,74,291,76,227,97,214,107,464,132,345,205,414,117,592,198,488,223,454,214,1037,274,591,491",
			"name": "Sum of the largest sides of all integer-sided triangles with perimeter n whose side lengths are mutually coprime.",
			"link": [
				"Wikipedia, \u003ca href=\"https://en.wikipedia.org/wiki/Integer_triangle\"\u003eInteger Triangle\u003c/a\u003e"
			],
			"formula": [
				"a(n) = Sum_{k=1..floor(n/3)} Sum_{i=k..floor((n-k)/2)} sign(floor((i+k)/(n-i-k+1))) * [gcd(i,k) * gcd(i,n-i-k) * gcd(k,n-i-k) = 1] * (n-i-k), where [] is the Iverson Bracket."
			],
			"mathematica": [
				"Table[Sum[Sum[(n - i - k)*Floor[1/(GCD[i, k]*GCD[i, n - i - k]*GCD[k, n - i - k])]*Sign[Floor[(i + k)/(n - i - k + 1)]], {i, k, Floor[(n - k)/2]}], {k, Floor[n/3]}], {n, 100}]"
			],
			"xref": [
				"Cf. A308223."
			],
			"keyword": "nonn",
			"offset": "1,12",
			"author": "_Wesley Ivan Hurt_, May 16 2019",
			"references": 1,
			"revision": 7,
			"time": "2020-06-16T14:32:59-04:00",
			"created": "2019-05-16T08:43:38-04:00"
		}
	]
}