{
	"greeting": "Greetings from The On-Line Encyclopedia of Integer Sequences! http://oeis.org/",
	"query": "id:A308296",
	"count": 1,
	"start": 0,
	"results": [
		{
			"number": 308296,
			"data": "1,1,7,842,7958726,15467641899285,10893033763705794846727,4247805448772073978048752721163278,1299618941291522676629215597535104557826094801396,419715170056359079715862408734598208208707081189266290220651371206",
			"name": "a(n) = (1/n!) * Sum_{i_1=1..n} Sum_{i_2=1..n} ... Sum_{i_n=1..n} multinomial(i_1+i_2+...+i_n; i_1, i_2, ... , i_n).",
			"link": [
				"Seiichi Manyama, \u003ca href=\"/A308296/b308296.txt\"\u003eTable of n, a(n) for n = 0..27\u003c/a\u003e"
			],
			"formula": [
				"a(n) = A144510(n,n)."
			],
			"example": [
				"a(2) = (1/2) * (binomial(1+1,1) + binomial(1+2,2) + binomial(2+1,1) + binomial(2+2,2)) = 7."
			],
			"program": [
				"(PARI) {a(n) = sum(i=n, n^2, i!*polcoef(sum(j=1, n, x^j/j!)^n, i))/n!}"
			],
			"xref": [
				"Cf. A144510, A144512, A274762, A281901."
			],
			"keyword": "nonn",
			"offset": "0,3",
			"author": "_Seiichi Manyama_, May 19 2019",
			"references": 4,
			"revision": 25,
			"time": "2019-05-24T12:39:03-04:00",
			"created": "2019-05-19T06:19:22-04:00"
		}
	]
}