{
	"greeting": "Greetings from The On-Line Encyclopedia of Integer Sequences! http://oeis.org/",
	"query": "id:A308103",
	"count": 1,
	"start": 0,
	"results": [
		{
			"number": 308103,
			"data": "0,0,0,0,0,0,0,0,0,0,0,0,1,1,2,1,0,1,0,0,1,1,3,2,0,1,2,2,4,5,7,5,3,4,6,4,4,5,7,5,4,5,7,5,9,11,13,10,9,10,9,6,10,11,10,7,6,8,9,8,12,16,17,14,13,16,18,13,22,24,27,20,19,23,24,22,29,34",
			"name": "Number of scalene triangles with perimeter n whose side lengths are squarefree.",
			"link": [
				"Wikipedia, \u003ca href=\"https://en.wikipedia.org/wiki/Integer_triangle\"\u003eInteger Triangle\u003c/a\u003e"
			],
			"formula": [
				"a(n) = Sum_{k=1..floor((n-1)/3)} Sum_{i=k+1..floor((n-k-1)/2)} sign(floor((i+k)/(n-i-k+1))) * mu(i)^2 * mu(k)^2 * mu(n-i-k)^2, where mu is the Möbius function (A008683)."
			],
			"mathematica": [
				"Table[Sum[Sum[MoebiusMu[i]^2*MoebiusMu[k]^2*MoebiusMu[n - i - k]^2*Sign[Floor[(i + k)/(n - i - k + 1)]], {i, k + 1, Floor[(n - k - 1)/2]}], {k, Floor[(n - 1)/3]}], {n, 100}]"
			],
			"xref": [
				"Cf. A008683, A308061."
			],
			"keyword": "nonn",
			"offset": "1,15",
			"author": "_Wesley Ivan Hurt_, May 12 2019",
			"references": 1,
			"revision": 10,
			"time": "2020-06-16T14:24:20-04:00",
			"created": "2019-05-13T08:13:00-04:00"
		}
	]
}