{
	"greeting": "Greetings from The On-Line Encyclopedia of Integer Sequences! http://oeis.org/",
	"query": "id:A308341",
	"count": 1,
	"start": 0,
	"results": [
		{
			"number": 308341,
			"data": "13,421,1861,5101,16381,60901,83641,100801,106261,135721,161881,205441,218461,337021,388081,431521,571381,637321,697381,926161,1108561,1460341,1515541,1806901,1899301,2334961,2574181,2601481,2740141,2834581,2853661,3248701,3403441,3723721,3889261,4503001",
			"name": "Hypotenuses of primitive Pythagorean triangles two sides of which are Pythagorean primes.",
			"comment": [
				"Hypotenuses of primitive Pythagorean triangles of the form (2m+1, 2m^2+2m, 2m^2+2m+1), where the hypotenuse and longer leg differ by one.",
				"Except for the first term a(n) is of the form 60k + 1, hence the longer leg is 60k. 60 is the largest number that always divides the product of the sides of any Pythagorean triangle."
			],
			"link": [
				"Wikipedia, \u003ca href=\"https://en.m.wikipedia.org/wiki/Pythagorean_triple\"\u003ePythagorean triple\u003c/a\u003e"
			],
			"example": [
				"13 is a term because 13 and 5 are Pythagorean primes and are sides of {5,12,13}.",
				"421 is a term because 421 and 29 are Pythagorean primes and are sides of {29,420,421}.",
				"1861 is a term because 1861 and 61 are Pythagorean primes and are sides of {61,1860,1861}.",
				"5101 is a term because 5101 and 101 are Pythagorean primes and are sides of {101,5100,5101}."
			],
			"program": [
				"(PARI) hyp(n) = {return((2*((n-1)/2)^2) + (2*((n-1)/2)) + 1);}",
				"lista(n) = forprime(p=2, n, if((p%4 == 1) \u0026\u0026 isprime(p) \u0026\u0026 isprime(hyp(p)), print1(hyp(p), \", \")));",
				"lista(3100)"
			],
			"xref": [
				"Cf. A002144, A008846.",
				"Subset of A027862."
			],
			"keyword": "nonn",
			"offset": "1,1",
			"author": "_Torlach Rush_, May 20 2019",
			"references": 0,
			"revision": 28,
			"time": "2019-07-29T12:23:01-04:00",
			"created": "2019-07-29T12:23:01-04:00"
		}
	]
}