{
	"greeting": "Greetings from The On-Line Encyclopedia of Integer Sequences! http://oeis.org/",
	"query": "id:A308056",
	"count": 1,
	"start": 0,
	"results": [
		{
			"number": 308056,
			"data": "1,2,3,2,5,6,7,6,3,10,11,6,13,14,15,10,17,6,19,10,21,22,23,18,5,26,12,14,29,30,31,30,33,34,35,6,37,38,39,30,41,42,43,22,15,46,47,30,7,10,51,26,53,24,55,42,57,58,59,30,61,62,21,34,65,66,67,34,69",
			"name": "a(1) = 1, a(n) is the sum of the divisors d of n such that d and n are exponentially coprime.",
			"comment": [
				"The sequence of the number of those divisors is A072911."
			],
			"link": [
				"Amiram Eldar, \u003ca href=\"/A308056/b308056.txt\"\u003eTable of n, a(n) for n = 1..10000\u003c/a\u003e",
				"László Tóth, \u003ca href=\"http://ac.inf.elte.hu/Vol_024_2004/285.pdf\"\u003eOn certain arithmetic functions involving exponential divisors\u003c/a\u003e, Annales Univ. Sci. Budapest., Sect. Comp., Vol. 24 (2004), pp. 285-294, \u003ca href=\"https://arxiv.org/abs/math/0610274\"\u003earXiv preprint\u003c/a\u003e, arXiv:math/0610274v2 [math.NT] (2006)."
			],
			"formula": [
				"Multiplicative with a(p^e) = Sum_{i=1..e, gcd(i,e)=1} p^i."
			],
			"mathematica": [
				"fun[p_, e_] := Sum[If[GCD[i,e]==1, p^i, 0], {i,1,e}]; a[1] = 1; a[n_] := Times @@ (fun @@@ FactorInteger[n]); Array[a, 100]"
			],
			"xref": [
				"Cf. A072911."
			],
			"keyword": "nonn,mult",
			"offset": "1,2",
			"author": "_Amiram Eldar_, May 10 2019",
			"references": 1,
			"revision": 8,
			"time": "2019-07-23T03:25:41-04:00",
			"created": "2019-05-14T11:05:24-04:00"
		}
	]
}