{
	"greeting": "Greetings from The On-Line Encyclopedia of Integer Sequences! http://oeis.org/",
	"query": "id:A308285",
	"count": 1,
	"start": 0,
	"results": [
		{
			"number": 308285,
			"data": "1,-144,8208,-225216,2634192,1488672,-209742912,-503961984,8575185744,91347182640,524570699232,2230073940672,7794083954880,23627036677536,64145226215808,159373702203264,368012313906768,798872890993632,1644874069475664,3234829827767616",
			"name": "Coefficients in q-expansion of E_2^6, where E_2 is the Eisenstein series A006352.",
			"link": [
				"Seiichi Manyama, \u003ca href=\"/A308285/b308285.txt\"\u003eTable of n, a(n) for n = 0..10000\u003c/a\u003e"
			],
			"xref": [
				"E_2^b: A006352 (b=1), A281374 (b=2), A282018 (b=3), A282210 (b=4), A282431 (b=5), this sequence (b=6)."
			],
			"keyword": "sign",
			"offset": "0,2",
			"author": "_Seiichi Manyama_, May 18 2019",
			"references": 2,
			"revision": 10,
			"time": "2019-05-18T23:37:58-04:00",
			"created": "2019-05-18T16:56:53-04:00"
		}
	]
}