{
	"greeting": "Greetings from The On-Line Encyclopedia of Integer Sequences! http://oeis.org/",
	"query": "id:A308091",
	"count": 1,
	"start": 0,
	"results": [
		{
			"number": 308091,
			"data": "0,0,0,0,0,0,0,0,0,0,0,6,0,0,0,12,0,12,0,0,0,0,0,24,0,0,0,0,0,30,0,72,0,0,0,198,0,0,0,60,0,126,0,66,0,0,0,288,0,180,0,0,0,360,0,84,0,0,0,330,0,0,0,648,0,132,0,204,0,420,0,876,0,0,0,114",
			"name": "Sum of the areas of the integer-sided triangles with perimeter n and integer area.",
			"link": [
				"Wikipedia, \u003ca href=\"https://en.wikipedia.org/wiki/Integer_triangle\"\u003eInteger Triangle\u003c/a\u003e"
			],
			"formula": [
				"a(n) = Sum_{k=1..floor(n/3)} Sum_{i=k..floor((n-k)/2)} m * (1 - ceiling(m) + floor(m)) * sign(floor((i+k)/(n-i-k+1))), where m = sqrt((n/2)*(n/2-i)*(n/2-k)*(i+k-n/2))."
			],
			"mathematica": [
				"Table[Sum[Sum[Sqrt[(n/2) (n/2 - i) (n/2 - k) (i + k - n/2)] (1 - Ceiling[Sqrt[(n/2) (n/2 - i) (n/2 - k) (i + k - n/2)]] + Floor[Sqrt[(n/2) (n/2 - i) (n/2 - k) (i + k - n/2)]])*Sign[Floor[(i + k)/(n - i - k + 1)]], {i, k, Floor[(n - k)/2]}], {k, Floor[n/3]}], {n, 100}]"
			],
			"xref": [
				"Cf. A051516."
			],
			"keyword": "nonn",
			"offset": "1,12",
			"author": "_Wesley Ivan Hurt_, May 12 2019",
			"references": 1,
			"revision": 9,
			"time": "2021-02-01T21:18:36-05:00",
			"created": "2019-05-12T15:14:19-04:00"
		}
	]
}