{
	"greeting": "Greetings from The On-Line Encyclopedia of Integer Sequences! http://oeis.org/",
	"query": "id:A308576",
	"count": 1,
	"start": 0,
	"results": [
		{
			"number": 308576,
			"data": "1,3,7,11,23,35,71,75,87,159,319,321,481,483,559,583,659,1143,1303,1625,1661,1669,3295,3367,3443,4747,5331,5813,6957,12289,13915,19729,20873,22017,23643,24947,49895,51521,71251,122773,123257,123579,124163,127459,152407",
			"name": "a(n) = a(n-1) + a(a(n-1) mod n) + 1, a(0) = 1.",
			"formula": [
				"a(n) = a(n-1) + a(a(n-1) mod n) + 1, a(0) = 1."
			],
			"maple": [
				"a:= proc(n) option remember; `if`(n=0, 1,",
				"      a(n-1) + a(a(n-1) mod n) + 1)",
				"    end:",
				"seq(a(n), n=0..50); # _Alois P. Heinz_, Jul 08 2019"
			],
			"mathematica": [
				"a[0]=1; a[n_] := a[n] = a[n-1] + a[Mod[a[n-1], n]] + 1; Array[a, 50, 0] (* _Amiram Eldar_, Jul 08 2019 *)"
			],
			"program": [
				"(Java)",
				"int f(int n) {",
				"   int[] a = new int[n + 1];",
				"   a[0] = 1;",
				"   for (int i = 1; i \u003c n + 1; i++) a[i] = a[i - 1] + a[a[i - 1] % i] + 1;",
				"   return a[n];",
				"}",
				"(Haskell)",
				"a 0 = 1",
				"a n = (a (n - 1)) + (a (a (n - 1) `mod` n)) + 1",
				"(PARI) getV(n, v) = if (!v[n+1], v[n+1] = getV(n-1, v) + getV(getV(n-1, v) % n, v) + 1); v[n+1];",
				"lista(nn) = {my(v=vector(nn+1)); v[1] = 1; for (n=1, nn, v[n+1] = getV(n, v);); v;} \\\\ _Michel Marcus_, Jun 09 2019"
			],
			"keyword": "nonn",
			"offset": "0,2",
			"author": "_Artem Yashin_, Jun 08 2019",
			"ext": [
				"More terms from _Michel Marcus_, Jun 09 2019"
			],
			"references": 0,
			"revision": 17,
			"time": "2019-07-08T19:05:22-04:00",
			"created": "2019-07-08T19:05:22-04:00"
		}
	]
}