{
	"greeting": "Greetings from The On-Line Encyclopedia of Integer Sequences! http://oeis.org/",
	"query": "id:A308309",
	"count": 1,
	"start": 0,
	"results": [
		{
			"number": 308309,
			"data": "1,1,1,1,16,23800,448605624",
			"name": "Number of maximal matchings in the n X n fiveleaper graph.",
			"link": [
				"Eric Weisstein's World of Mathematics, \u003ca href=\"http://mathworld.wolfram.com/FiveleaperGraph.html\"\u003eFiveleaper Graph\u003c/a\u003e",
				"Eric Weisstein's World of Mathematics, \u003ca href=\"http://mathworld.wolfram.com/Matching.html\"\u003eMatching\u003c/a\u003e",
				"Eric Weisstein's World of Mathematics, \u003ca href=\"http://mathworld.wolfram.com/MaximalIndependentEdgeSet.html\"\u003eMaximal Independent Edge Set\u003c/a\u003e"
			],
			"keyword": "nonn,more",
			"offset": "1,5",
			"author": "_Eric W. Weisstein_, May 19 2019",
			"references": 0,
			"revision": 5,
			"time": "2019-05-19T20:38:59-04:00",
			"created": "2019-05-19T20:38:59-04:00"
		}
	]
}