{
	"greeting": "Greetings from The On-Line Encyclopedia of Integer Sequences! http://oeis.org/",
	"query": "id:A309127",
	"count": 1,
	"start": 0,
	"results": [
		{
			"number": 309127,
			"data": "1,2,3,4,5,6,7,8,9,10,11,12,13,14,15,32,33,34,35,36,37,38,39,40,41,42,43,44,45,46,47,64,65,66,67,68,69,70,71,72,73,74,75,76,77,78,79,96,97,98,99,100,101,102,103,104,105,106,107,108,109,110,111,128,129,130,131,132,133,134,135,136,137,138,139",
			"name": "a(n) = n + 2^4 * floor(n/2^4) + 3^4 * floor(n/3^4) + 4^4 * floor(n/4^4) + ...",
			"comment": [
				"Partial sums of A300909."
			],
			"link": [
				"Seiichi Manyama, \u003ca href=\"/A309127/b309127.txt\"\u003eTable of n, a(n) for n = 1..10000\u003c/a\u003e"
			],
			"formula": [
				"G.f.: (1/(1 - x)) * Sum_{k\u003e=1} k^4 * x^(k^4)/(1 - x^(k^4)).",
				"a(n) ~ zeta(5/4)*n^(5/4)/5 - n/2. - _Vaclav Kotesovec_, Aug 30 2021"
			],
			"mathematica": [
				"Table[Sum[k^4 Floor[n/k^4], {k, 1, n}], {n, 1, 75}]",
				"nmax = 75; CoefficientList[Series[1/(1 - x) Sum[k^4 x^(k^4)/(1 - x^(k^4)), {k, 1, Floor[nmax^(1/4)] + 1}], {x, 0, nmax}], x] // Rest"
			],
			"program": [
				"(PARI) a(n) = sum(k=1, n, k^4*(n\\k^4)); \\\\ _Seiichi Manyama_, Aug 30 2021"
			],
			"xref": [
				"Cf. A013938, A024916, A300909, A309125, A309126."
			],
			"keyword": "nonn",
			"offset": "1,2",
			"author": "_Ilya Gutkovskiy_, Jul 13 2019",
			"references": 4,
			"revision": 11,
			"time": "2021-08-30T03:12:21-04:00",
			"created": "2019-07-13T21:20:44-04:00"
		}
	]
}