{
	"greeting": "Greetings from The On-Line Encyclopedia of Integer Sequences! http://oeis.org/",
	"query": "id:A309071",
	"count": 1,
	"start": 0,
	"results": [
		{
			"number": 309071,
			"data": "0,4,5,720",
			"name": "Complete list of solutions to y^2 = x^3 + 20*x; sequence gives x values.",
			"comment": [
				"(x,y) = (0,0) is this solution. Consider x \u003e 0. If x is square, x^2 + 20 is square and we get (x,y) = (4,12). If x is not square, x = i^2*j where j is squarefree. j | x^2 + 20, so j is 2,5 or 10. If j = 2 or 10, there is no such (x,y). If j = 5, (y/5)^2 = i^2*(5*i^4 + 4). So 5*i^4 + 4 = k^2. That is k^2 - 5*i^4 = 4. i^2 is a square Fibonacci number. i^2 = 1 or 144, so x = 5 or 720."
			],
			"example": [
				"  0^3 + 20*  0 =         0 =     0^2.",
				"  4^3 + 20*  4 =       144 =    12^2.",
				"  5^3 + 20*  5 =       225 =    15^2.",
				"720^3 + 20*720 = 373262400 = 19320^2."
			],
			"program": [
				"(PARI) for(k=0, 1e5, if(issquare(k*(k^2+20)), print1(k\", \")))",
				"(SageMath) [i[0] for i in EllipticCurve([20, 0]).integral_points()] # _Seiichi Manyama_, Aug 25 2019"
			],
			"xref": [
				"Cf. A029728, A116108, A126203."
			],
			"keyword": "nonn,fini,full",
			"offset": "1,2",
			"author": "_Seiichi Manyama_, Jul 10 2019",
			"references": 1,
			"revision": 31,
			"time": "2021-12-28T23:10:44-05:00",
			"created": "2019-07-13T01:23:43-04:00"
		}
	]
}