{
	"greeting": "Greetings from The On-Line Encyclopedia of Integer Sequences! http://oeis.org/",
	"query": "id:A309610",
	"count": 1,
	"start": 0,
	"results": [
		{
			"number": 309610,
			"data": "9,4,6,5,9,6,4,6,9,6,3,6,9,7,3,3,0,2,6,9,3,9,8,4,7,8,8,6,1,5,5,7,1,8,4,4,0,3,6,1,8,2,1,5,9,2,0,3,8,9,5,6,4,1,5,7,2,0,1,8,9,8,3,1,1,7,3,6,8,6,1,3,7,2,5,7,1,7,7,3,7,1,7,6,9,7,1,7,0,3,1,8,7,3,1,0,6,2,3,3",
			"name": "Digits of the 10-adic integer (41/9)^(1/3).",
			"link": [
				"Seiichi Manyama, \u003ca href=\"/A309610/b309610.txt\"\u003eTable of n, a(n) for n = 0..10000\u003c/a\u003e"
			],
			"formula": [
				"Define the sequence {b(n)} by the recurrence b(0) = 0 and b(1) = 9, b(n) = b(n-1) + 7 * (9 * b(n-1)^3 - 41) mod 10^n for n \u003e 1, then a(n) = (b(n+1) - b(n))/10^n"
			],
			"example": [
				"       9^3 == 9      (mod 10).",
				"      49^3 == 49     (mod 10^2).",
				"     649^3 == 449    (mod 10^3).",
				"    5649^3 == 4449   (mod 10^4).",
				"   95649^3 == 44449  (mod 10^5).",
				"  695649^3 == 444449 (mod 10^6)."
			],
			"program": [
				"(PARI) N=100; Vecrev(digits(lift(chinese(Mod((41/9+O(2^N))^(1/3), 2^N), Mod((41/9+O(5^N))^(1/3), 5^N)))), N)",
				"(Ruby)",
				"def A309610(n)",
				"  ary = [9]",
				"  a = 9",
				"  n.times{|i|",
				"    b = (a + 7 * (9 * a ** 3 - 41)) % (10 ** (i + 2))",
				"    ary \u003c\u003c (b - a) / (10 ** (i + 1))",
				"    a = b",
				"  }",
				"  ary",
				"end",
				"p A309610(100)"
			],
			"xref": [
				"Cf. A173776, A309600, A309611."
			],
			"keyword": "nonn,base",
			"offset": "0,1",
			"author": "_Seiichi Manyama_, Aug 10 2019",
			"references": 3,
			"revision": 22,
			"time": "2019-08-12T10:17:17-04:00",
			"created": "2019-08-10T23:48:08-04:00"
		}
	]
}