{
	"greeting": "Greetings from The On-Line Encyclopedia of Integer Sequences! http://oeis.org/",
	"query": "id:A309110",
	"count": 1,
	"start": 0,
	"results": [
		{
			"number": 309110,
			"data": "1,81,75582720,217225462874112000,19228688422470957567836160000000,52425105093745505455227317179687895040000000000000,20582183665033346731252760185588627707250626464317440000000000000000000",
			"name": "Number of possible permutations of a Pyraminx of size n, including the trivial rotation of the tips.",
			"comment": [
				"The Pyraminx is a regular tetrahedron puzzle in the style of Rubik's Cube. The rotational axes of the pieces are perpendicular to the faces. As a result, the only rotation of the Pyraminx of size 2 is the trivial rotation of the tips (it is not the same as the Pyramorphix, which is totally a different puzzle). For n \u003e= 3, see the Michael Gottlieb link below for an explanation of the term a(n)."
			],
			"link": [
				"Amiram Eldar, \u003ca href=\"/A309110/b309110.txt\"\u003eTable of n, a(n) for n = 1..23\u003c/a\u003e",
				"Michael Gottlieb, \u003ca href=\"https://michael-gottlieb.blogspot.com/2008/05/number-of-positions-of-generalized.html\"\u003eNotes on Twisty Puzzles\u003c/a\u003e",
				"Wikipedia, \u003ca href=\"https://en.wikipedia.org/wiki/Pyraminx\"\u003ePyraminx\u003c/a\u003e"
			],
			"formula": [
				"a(n) = 272097792 * 369600^(2*n-6) * a(n-3) for n \u003e= 6.",
				"a(n) = 81 * A309109(n) for n \u003e= 2."
			],
			"program": [
				"(PARI) a(n) = if(n==1, 1, 81 * if(n==2, 1, 5 * (if(!(n%3), 2^(2*n^2-3*n-1) * 3^(n^2/3+3*n-6) * 1925^(n^2/3-n), 2^(2*n^2-3*n-1) * 3^(n^2/3+3*n-16/3) * 1925^(n^2/3-n-1/3)))))"
			],
			"xref": [
				"Number of possible permutations of: tetrahedron puzzle (without tips: A309109, with tips: this sequence); cube puzzle (A075152); octahedron puzzle (without tips: A309111, with tips: A309112); dodecahedron (A309113)."
			],
			"keyword": "nonn",
			"offset": "1,2",
			"author": "_Jianing Song_, Jul 13 2019",
			"references": 6,
			"revision": 15,
			"time": "2019-08-24T14:25:08-04:00",
			"created": "2019-07-27T16:45:32-04:00"
		}
	]
}