{
	"greeting": "Greetings from The On-Line Encyclopedia of Integer Sequences! http://oeis.org/",
	"query": "id:A309094",
	"count": 1,
	"start": 0,
	"results": [
		{
			"number": 309094,
			"data": "2,2,6,6,20,16,4,46,8,136,36,402,102,1186,334,14,988,62",
			"name": "The analog of A309078(n), but for fractional powers.",
			"comment": [
				"Here a(n) is the number of binary strings having the maximum possible (fractional) weight -- that weight is given by A309093(n)."
			],
			"xref": [
				"Cf. A309093, A309078."
			],
			"keyword": "nonn,more",
			"offset": "1,1",
			"author": "_Jeffrey Shallit_, Jul 12 2019",
			"references": 1,
			"revision": 9,
			"time": "2019-10-27T11:17:31-04:00",
			"created": "2019-07-12T20:22:01-04:00"
		}
	]
}