{
	"greeting": "Greetings from The On-Line Encyclopedia of Integer Sequences! http://oeis.org/",
	"query": "id:A309604",
	"count": 1,
	"start": 0,
	"results": [
		{
			"number": 309604,
			"data": "3,0,6,8,5,0,7,1,6,9,9,9,1,7,3,8,5,6,2,9,8,1,0,9,6,8,3,0,5,1,5,1,5,7,7,1,1,5,9,9,9,9,1,2,9,9,2,1,0,3,6,9,9,5,9,4,0,5,3,0,3,0,7,9,8,1,4,6,7,9,8,7,9,4,2,0,6,6,0,5,4,3,7,9,6,8,6,4,8,5,9,4,1,7,4,2,7,3,5,0",
			"name": "Digits of the 10-adic integer (43/9)^(1/3).",
			"link": [
				"Seiichi Manyama, \u003ca href=\"/A309604/b309604.txt\"\u003eTable of n, a(n) for n = 0..10000\u003c/a\u003e"
			],
			"formula": [
				"Define the sequence {b(n)} by the recurrence b(0) = 0 and b(1) = 3, b(n) = b(n-1) + 3 * (9 * b(n-1)^3 - 43) mod 10^n for n \u003e 1, then a(n) = (b(n+1) - b(n))/10^n."
			],
			"example": [
				"      3^3 == 7      (mod 10).",
				"      3^3 == 27     (mod 10^2).",
				"    603^3 == 227    (mod 10^3).",
				"   8603^3 == 2227   (mod 10^4).",
				"  58603^3 == 22227  (mod 10^5).",
				"  58603^3 == 222227 (mod 10^6)."
			],
			"program": [
				"(PARI) N=100; Vecrev(digits(lift(chinese(Mod((43/9+O(2^N))^(1/3), 2^N), Mod((43/9+O(5^N))^(1/3), 5^N)))), N)",
				"(Ruby)",
				"def A309604(n)",
				"  ary = [3]",
				"  a = 3",
				"  n.times{|i|",
				"    b = (a + 3 * (9 * a ** 3 - 43)) % (10 ** (i + 2))",
				"    ary \u003c\u003c (b - a) / (10 ** (i + 1))",
				"    a = b",
				"  }",
				"  ary",
				"end",
				"p A309604(100)"
			],
			"xref": [
				"Cf. A309600, A309644."
			],
			"keyword": "nonn",
			"offset": "0,1",
			"author": "_Seiichi Manyama_, Aug 09 2019",
			"references": 3,
			"revision": 18,
			"time": "2019-08-12T02:40:18-04:00",
			"created": "2019-08-09T22:13:06-04:00"
		}
	]
}