{
	"greeting": "Greetings from The On-Line Encyclopedia of Integer Sequences! http://oeis.org/",
	"query": "id:A309284",
	"count": 1,
	"start": 0,
	"results": [
		{
			"number": 309284,
			"data": "3277,5173601,2329584217,188985961,5113747913401,30990302851201,2528509579568281,5189206896360728641,12155831039329417441",
			"name": "a(n) is the smallest odd composite k such that prime(n)^((k-1)/2) == -1 (mod k) and b^((k-1)/2) == 1 (mod k) for every natural b \u003c prime(n).",
			"comment": [
				"a(n) is a Euler pseudoprime to base 2, so it is also a Fermat pseudoprime to base 2.",
				"This sequence is analogous to the sequence A000229 of primes.",
				"Conjecture: the smallest quadratic non-residue modulo a(n) is prime(n), i.e., A020649(a(n)) = prime(n).",
				"a(10) \u003c= 41154189126635405260441. - _Daniel Suteu_, Jul 22 2019"
			],
			"formula": [
				"According to the data, b^((a(n)-1)/2) == (b / a(n)) (mod a(n)) for every natural b \u003c= prime(n), where (x / y) is the Jacobi symbol."
			],
			"program": [
				"(PARI) isok(n,k) = (k%2==1) \u0026\u0026 !isprime(k) \u0026\u0026 Mod(prime(n), k)^((k-1)/2) == Mod(-1, k) \u0026\u0026 !for(b=2, prime(n)-1, if(Mod(b, k)^((k-1)/2) != Mod(1, k), return(0)));",
				"a(n) = for(k=9, oo, if(isok(n, k), return(k))); \\\\ _Daniel Suteu_, Jul 22 2019"
			],
			"xref": [
				"Cf. A000229, A001567, A006970, A307767, A309285."
			],
			"keyword": "nonn,hard,more",
			"offset": "1,1",
			"author": "_Thomas Ordowski_, Jul 21 2019",
			"ext": [
				"a(5)-a(9) from _Amiram Eldar_, Jul 21 2019"
			],
			"references": 1,
			"revision": 27,
			"time": "2019-07-23T04:25:38-04:00",
			"created": "2019-07-22T08:41:14-04:00"
		}
	]
}