{
	"greeting": "Greetings from The On-Line Encyclopedia of Integer Sequences! http://oeis.org/",
	"query": "id:A309105",
	"count": 1,
	"start": 0,
	"results": [
		{
			"number": 309105,
			"data": "1,1,3,9,25,71,198,543,1486,4045,11007,29931,81371,221197,601294,1634497,4443046,12077467,32829975,89241140,242582583,659407855,1792456409,4872401706,13244561047,36002449653,97864804698,266024120284,723128532126,1965667148553",
			"name": "a(n) = Sum_{k \u003e= 0} floor(n^(2*k) / (2*k)!).",
			"comment": [
				"This sequence is inspired by the Maclaurin series for the hyperbolic cosine function."
			],
			"link": [
				"Wikipedia, \u003ca href=\"https://en.wikipedia.org/wiki/Taylor_series#Hyperbolic_functions\"\u003eTaylor series: Hyperbolic functions\u003c/a\u003e"
			],
			"formula": [
				"a(n) ~ cosh(n) as n tends to infinity.",
				"a(n) \u003c= A000501(n)."
			],
			"example": [
				"For n = 5:",
				"- we have:",
				"  k   5^(2*k)/(2*k)!",
				"  --  --------------",
				"   0               1",
				"   1              12",
				"   2              26",
				"   3              21",
				"   4               9",
				"   5               2",
				"   6               0",
				"- hence a(5) = 1 + 12 + 26 + 21 + 9 + 2 = 71."
			],
			"program": [
				"(PARI) a(n) = { my (v=0, d=1); forstep (k=1, oo, 2, if (d\u003c1, return (v), v += floor(d); d *= n^2/(k*(k+1)))) }"
			],
			"xref": [
				"See A309087 for similar sequences.",
				"Cf. A000501."
			],
			"keyword": "nonn",
			"offset": "0,3",
			"author": "_Rémy Sigrist_, Jul 12 2019",
			"ext": [
				"Definition corrected by _Rémy Sigrist_, Aug 06 2020"
			],
			"references": 1,
			"revision": 10,
			"time": "2020-08-06T15:29:36-04:00",
			"created": "2019-07-14T06:26:42-04:00"
		}
	]
}