{
	"greeting": "Greetings from The On-Line Encyclopedia of Integer Sequences! http://oeis.org/",
	"query": "id:A309102",
	"count": 1,
	"start": 0,
	"results": [
		{
			"number": 309102,
			"data": "0,1,5,6,7,8,12,15,22,23,28,29,31,34,35,39,40,43,46,47,50,51,53,55,56,59,63,66,67,70,71,75,77,79,83,87,91,94,95,99,101,103,107,111,115,118,119,121,123,125,127,131,135,139,142,143,147,149,151,155,159",
			"name": "Nonnegative integers that are not the sum of two refactorable numbers.",
			"link": [
				"Eric Weisstein's World of Mathematics, \u003ca href=\"http://mathworld.wolfram.com/RefactorableNumber.html\"\u003eRefactorable Number\u003c/a\u003e"
			],
			"mathematica": [
				"Flatten[Table[If[Sum[(1 - Ceiling[i/DivisorSigma[0, i]] + Floor[i/DivisorSigma[0, i]]) (1 - Ceiling[(n - i)/DivisorSigma[0, n - i]] + Floor[(n - i)/DivisorSigma[0, n - i]]), {i, Floor[n/2]}] == 0, n, {}], {n, 0, 200}]]"
			],
			"program": [
				"(PARI) isok(n) = n%numdiv(n) == 0;",
				"is(n) = sum(j=1,n-1,isok(j)\u0026\u0026isok(n-j)) == 0; \\\\ _Jinyuan Wang_, Jul 27 2019"
			],
			"xref": [
				"Cf. A033950, A309346."
			],
			"keyword": "nonn",
			"offset": "1,3",
			"author": "_Wesley Ivan Hurt_, Jul 27 2019",
			"references": 0,
			"revision": 24,
			"time": "2020-04-21T20:38:02-04:00",
			"created": "2019-07-27T14:47:20-04:00"
		}
	]
}