{
	"greeting": "Greetings from The On-Line Encyclopedia of Integer Sequences! http://oeis.org/",
	"query": "id:A309959",
	"count": 1,
	"start": 0,
	"results": [
		{
			"number": 309959,
			"data": "0,1,2,3,4,5,6,7,0,1,2,3,4,5,6,7,0,2,4,6,8,10,12,14,0,3,6,9,12,15,18,21,0,4,8,12,16,20,24,28,0,5,10,15,20,25,30,35,0,6,12,18,24,30,36,42,0,7,14,21,28,35,42,49,0,0,0,0,0,0,0,0,0,1,2,3,4,5,6,7,0,2,4,6,8,10,12,14,0,3,6,9,12,15,18,21,0,4,8,12,16",
			"name": "Product of digits of (n written in base 8).",
			"link": [
				"Seiichi Manyama, \u003ca href=\"/A309959/b309959.txt\"\u003eTable of n, a(n) for n = 0..10000\u003c/a\u003e"
			],
			"formula": [
				"G.f. A(x) satisfies: A(x) = x * (1 + 2*x + 3*x^2 + 4*x^3 + 5*x^4 + 6*x^5 + 7*x^6) * (1 + A(x^8))."
			],
			"mathematica": [
				"Table[Times @@ IntegerDigits[n, 8], {n, 0, 100}]"
			],
			"program": [
				"(MAGMA) [0] cat [\u0026*Intseq(n,8):n in [1..100]]; // _Marius A. Burtea_, Aug 25 2019"
			],
			"xref": [
				"Product of digits of (n written in base k): A309953 (k = 3), A309954 (k = 4), A309956 (k = 5), A309957 (k = 6), A309958 (k = 7), this sequence (k = 8), A309788 (k = 9), A007954 (k = 10).",
				"Cf. A007094, A053829."
			],
			"keyword": "nonn,base",
			"offset": "0,3",
			"author": "_Ilya Gutkovskiy_, Aug 24 2019",
			"references": 4,
			"revision": 14,
			"time": "2019-09-09T01:53:37-04:00",
			"created": "2019-09-08T11:57:55-04:00"
		}
	]
}