{
	"greeting": "Greetings from The On-Line Encyclopedia of Integer Sequences! http://oeis.org/",
	"query": "id:A310108",
	"count": 1,
	"start": 0,
	"results": [
		{
			"number": 310108,
			"data": "1,3,6,11,16,21,22,27,30,33,38,47,50,53,57,62,63,69,74,79,81,84,87,93,98,105,109,112,111,115,118,125,133,138,141,145,144,147,151,160,165,169,172,175,177,182,187,195,196,199",
			"name": "Coordination sequence Gal.5.16.1 where G.u.t.v denotes the coordination sequence for a vertex of type v in tiling number t in the Galebach list of u-uniform tilings.",
			"comment": [
				"Note that there may be other vertices in the Galebach list of u-uniform tilings with u \u003c= 6 that have this same coordination sequence. See the Galebach link for the complete list of A-numbers for all these tilings."
			],
			"link": [
				"Brian Galebach, \u003ca href=\"/A250120/a250120.html\"\u003ek-uniform tilings (k \u003c= 6) and their A-numbers\u003c/a\u003e"
			],
			"keyword": "nonn",
			"offset": "0,2",
			"author": "_Brian Galebach_ and _N. J. A. Sloane_, Jun 18 2018",
			"references": 0,
			"revision": 2,
			"time": "2018-06-25T09:21:43-04:00",
			"created": "2018-06-23T14:05:47-04:00"
		}
	]
}