{
	"greeting": "Greetings from The On-Line Encyclopedia of Integer Sequences! http://oeis.org/",
	"query": "id:A310748",
	"count": 1,
	"start": 0,
	"results": [
		{
			"number": 310748,
			"data": "1,4,7,11,16,19,24,28,34,35,39,47,48,52,56,61,64,67,76,77,78,86,91,93,94,102,107,106,114,119,120,124,131,137,134,139,149,149,152,158,163,165,168,178,178,178,187,192,194,195",
			"name": "Coordination sequence Gal.6.47.4 where G.u.t.v denotes the coordination sequence for a vertex of type v in tiling number t in the Galebach list of u-uniform tilings.",
			"comment": [
				"Note that there may be other vertices in the Galebach list of u-uniform tilings with u \u003c= 6 that have this same coordination sequence. See the Galebach link for the complete list of A-numbers for all these tilings."
			],
			"link": [
				"Brian Galebach, \u003ca href=\"/A250120/a250120.html\"\u003ek-uniform tilings (k \u003c= 6) and their A-numbers\u003c/a\u003e"
			],
			"keyword": "nonn",
			"offset": "0,2",
			"author": "_Brian Galebach_ and _N. J. A. Sloane_, Jun 18 2018",
			"references": 0,
			"revision": 2,
			"time": "2018-06-25T09:21:45-04:00",
			"created": "2018-06-23T14:05:47-04:00"
		}
	]
}