{
	"greeting": "Greetings from The On-Line Encyclopedia of Integer Sequences! http://oeis.org/",
	"query": "id:A310345",
	"count": 1,
	"start": 0,
	"results": [
		{
			"number": 310345,
			"data": "1,4,10,12,20,22,28,32,38,40,48,50,56,60,64,70,72,82,80,90,92,96,104,104,112,114,122,124,130,134,138,144,148,152,156,164,164,174,174,180,186,188,196,196,206,206,214,218,220,228",
			"name": "Coordination sequence Gal.6.536.6 where G.u.t.v denotes the coordination sequence for a vertex of type v in tiling number t in the Galebach list of u-uniform tilings.",
			"comment": [
				"Note that there may be other vertices in the Galebach list of u-uniform tilings with u \u003c= 6 that have this same coordination sequence. See the Galebach link for the complete list of A-numbers for all these tilings."
			],
			"link": [
				"Brian Galebach, \u003ca href=\"/A250120/a250120.html\"\u003ek-uniform tilings (k \u003c= 6) and their A-numbers\u003c/a\u003e"
			],
			"keyword": "nonn",
			"offset": "0,2",
			"author": "_Brian Galebach_ and _N. J. A. Sloane_, Jun 18 2018",
			"references": 0,
			"revision": 2,
			"time": "2018-06-25T09:21:44-04:00",
			"created": "2018-06-23T14:05:47-04:00"
		}
	]
}