{
	"greeting": "Greetings from The On-Line Encyclopedia of Integer Sequences! http://oeis.org/",
	"query": "id:A310607",
	"count": 1,
	"start": 0,
	"results": [
		{
			"number": 310607,
			"data": "1,4,6,14,15,23,21,31,30,40,38,48,44,56,52,65,61,73,69,82,78,90,84,98,92,106,101,115,107,123,116,132,124,140,132,148,140,157,147,165,155,174,164,182,170,190,178,198,187,207",
			"name": "Coordination sequence Gal.6.419.4 where G.u.t.v denotes the coordination sequence for a vertex of type v in tiling number t in the Galebach list of u-uniform tilings.",
			"comment": [
				"Note that there may be other vertices in the Galebach list of u-uniform tilings with u \u003c= 6 that have this same coordination sequence. See the Galebach link for the complete list of A-numbers for all these tilings."
			],
			"link": [
				"Brian Galebach, \u003ca href=\"/A250120/a250120.html\"\u003ek-uniform tilings (k \u003c= 6) and their A-numbers\u003c/a\u003e"
			],
			"keyword": "nonn",
			"offset": "0,2",
			"author": "_Brian Galebach_ and _N. J. A. Sloane_, Jun 18 2018",
			"references": 0,
			"revision": 2,
			"time": "2018-06-25T09:21:44-04:00",
			"created": "2018-06-23T14:05:47-04:00"
		}
	]
}