{
	"greeting": "Greetings from The On-Line Encyclopedia of Integer Sequences! http://oeis.org/",
	"query": "id:A310630",
	"count": 1,
	"start": 0,
	"results": [
		{
			"number": 310630,
			"data": "1,4,6,14,16,26,24,34,28,44,40,52,44,60,52,70,64,86,68,94,74,106,78,114,86,122,92,134,112,134,120,144,132,152,136,160,140,170,152,194,144,202,154,214,162,222,170,230,176,242",
			"name": "Coordination sequence Gal.6.422.6 where G.u.t.v denotes the coordination sequence for a vertex of type v in tiling number t in the Galebach list of u-uniform tilings.",
			"comment": [
				"Note that there may be other vertices in the Galebach list of u-uniform tilings with u \u003c= 6 that have this same coordination sequence. See the Galebach link for the complete list of A-numbers for all these tilings."
			],
			"link": [
				"Brian Galebach, \u003ca href=\"/A250120/a250120.html\"\u003ek-uniform tilings (k \u003c= 6) and their A-numbers\u003c/a\u003e"
			],
			"keyword": "nonn",
			"offset": "0,2",
			"author": "_Brian Galebach_ and _N. J. A. Sloane_, Jun 18 2018",
			"references": 0,
			"revision": 2,
			"time": "2018-06-25T09:21:44-04:00",
			"created": "2018-06-23T14:05:47-04:00"
		}
	]
}