{
	"greeting": "Greetings from The On-Line Encyclopedia of Integer Sequences! http://oeis.org/",
	"query": "id:A310225",
	"count": 1,
	"start": 0,
	"results": [
		{
			"number": 310225,
			"data": "1,3,7,12,15,18,22,25,32,37,39,43,48,53,55,60,61,67,75,75,78,84,87,92,97,97,101,110,112,115,120,120,127,136,133,137,143,147,153,157,156,159,172,172,172,181,178,187,198,192",
			"name": "Coordination sequence Gal.6.51.1 where G.u.t.v denotes the coordination sequence for a vertex of type v in tiling number t in the Galebach list of u-uniform tilings.",
			"comment": [
				"Note that there may be other vertices in the Galebach list of u-uniform tilings with u \u003c= 6 that have this same coordination sequence. See the Galebach link for the complete list of A-numbers for all these tilings."
			],
			"link": [
				"Brian Galebach, \u003ca href=\"/A250120/a250120.html\"\u003ek-uniform tilings (k \u003c= 6) and their A-numbers\u003c/a\u003e"
			],
			"keyword": "nonn",
			"offset": "0,2",
			"author": "_Brian Galebach_ and _N. J. A. Sloane_, Jun 18 2018",
			"references": 0,
			"revision": 2,
			"time": "2018-06-25T09:21:43-04:00",
			"created": "2018-06-23T14:05:47-04:00"
		}
	]
}