{
	"greeting": "Greetings from The On-Line Encyclopedia of Integer Sequences! http://oeis.org/",
	"query": "id:A310117",
	"count": 1,
	"start": 0,
	"results": [
		{
			"number": 310117,
			"data": "1,3,6,11,18,21,23,26,29,32,39,48,49,49,52,55,58,67,78,77,75,78,81,84,95,108,105,101,104,107,110,123,138,133,127,130,133,136,151,168,161,153,156,159,162,179,198,189,179,182",
			"name": "Coordination sequence Gal.5.20.1 where G.u.t.v denotes the coordination sequence for a vertex of type v in tiling number t in the Galebach list of u-uniform tilings.",
			"comment": [
				"Note that there may be other vertices in the Galebach list of u-uniform tilings with u \u003c= 6 that have this same coordination sequence. See the Galebach link for the complete list of A-numbers for all these tilings."
			],
			"link": [
				"Brian Galebach, \u003ca href=\"/A250120/a250120.html\"\u003ek-uniform tilings (k \u003c= 6) and their A-numbers\u003c/a\u003e"
			],
			"formula": [
				"Conjectures from _Chai Wah Wu_, Dec 10 2018: (Start)",
				"a(n) = 2*a(n-7) - a(n-14) for n \u003e 14.",
				"G.f.: (x^14 + 3*x^13 + 7*x^12 + 12*x^11 + 17*x^10 + 20*x^9 + 23*x^8 + 24*x^7 + 23*x^6 + 21*x^5 + 18*x^4 + 11*x^3 + 6*x^2 + 3*x + 1)/(x^14 - 2*x^7 + 1). (End)"
			],
			"keyword": "nonn",
			"offset": "0,2",
			"author": "_Brian Galebach_ and _N. J. A. Sloane_, Jun 18 2018",
			"references": 0,
			"revision": 9,
			"time": "2018-12-16T04:04:02-05:00",
			"created": "2018-06-23T14:05:47-04:00"
		}
	]
}