{
	"greeting": "Greetings from The On-Line Encyclopedia of Integer Sequences! http://oeis.org/",
	"query": "id:A310507",
	"count": 1,
	"start": 0,
	"results": [
		{
			"number": 310507,
			"data": "1,4,10,16,20,29,31,35,42,45,55,59,64,68,74,77,85,93,94,100,106,109,117,123,128,130,138,141,149,155,158,164,168,173,181,187,190,194,202,203,213,219,222,226,232,237,243,251,254,258",
			"name": "Coordination sequence Gal.6.499.1 where G.u.t.v denotes the coordination sequence for a vertex of type v in tiling number t in the Galebach list of u-uniform tilings.",
			"comment": [
				"Note that there may be other vertices in the Galebach list of u-uniform tilings with u \u003c= 6 that have this same coordination sequence. See the Galebach link for the complete list of A-numbers for all these tilings."
			],
			"link": [
				"Brian Galebach, \u003ca href=\"/A250120/a250120.html\"\u003ek-uniform tilings (k \u003c= 6) and their A-numbers\u003c/a\u003e"
			],
			"keyword": "nonn",
			"offset": "0,2",
			"author": "_Brian Galebach_ and _N. J. A. Sloane_, Jun 18 2018",
			"references": 0,
			"revision": 2,
			"time": "2018-06-25T09:21:44-04:00",
			"created": "2018-06-23T14:05:47-04:00"
		}
	]
}