{
	"greeting": "Greetings from The On-Line Encyclopedia of Integer Sequences! http://oeis.org/",
	"query": "id:A310149",
	"count": 1,
	"start": 0,
	"results": [
		{
			"number": 310149,
			"data": "1,3,6,9,11,15,21,22,24,28,30,34,36,39,41,46,50,53,55,57,62,63,68,69,72,77,82,83,86,89,90,96,96,101,101,107,112,114,116,119,123,123,130,129,134,137,143,145,147,150",
			"name": "Coordination sequence Gal.6.93.2 where G.u.t.v denotes the coordination sequence for a vertex of type v in tiling number t in the Galebach list of u-uniform tilings.",
			"comment": [
				"Note that there may be other vertices in the Galebach list of u-uniform tilings with u \u003c= 6 that have this same coordination sequence. See the Galebach link for the complete list of A-numbers for all these tilings."
			],
			"link": [
				"Brian Galebach, \u003ca href=\"/A250120/a250120.html\"\u003ek-uniform tilings (k \u003c= 6) and their A-numbers\u003c/a\u003e"
			],
			"keyword": "nonn",
			"offset": "0,2",
			"author": "_Brian Galebach_ and _N. J. A. Sloane_, Jun 18 2018",
			"references": 0,
			"revision": 2,
			"time": "2018-06-25T09:21:43-04:00",
			"created": "2018-06-23T14:05:47-04:00"
		}
	]
}