{
	"greeting": "Greetings from The On-Line Encyclopedia of Integer Sequences! http://oeis.org/",
	"query": "id:A310746",
	"count": 1,
	"start": 0,
	"results": [
		{
			"number": 310746,
			"data": "1,4,7,11,16,19,23,29,32,36,41,44,49,54,56,61,66,68,73,78,81,86,91,93,98,103,105,110,115,117,122,127,129,135,140,142,147,152,154,159,164,166,171,176,178,183,189,191,196,201",
			"name": "Coordination sequence Gal.6.41.3 where G.u.t.v denotes the coordination sequence for a vertex of type v in tiling number t in the Galebach list of u-uniform tilings.",
			"comment": [
				"Note that there may be other vertices in the Galebach list of u-uniform tilings with u \u003c= 6 that have this same coordination sequence. See the Galebach link for the complete list of A-numbers for all these tilings."
			],
			"link": [
				"Brian Galebach, \u003ca href=\"/A250120/a250120.html\"\u003ek-uniform tilings (k \u003c= 6) and their A-numbers\u003c/a\u003e"
			],
			"keyword": "nonn",
			"offset": "0,2",
			"author": "_Brian Galebach_ and _N. J. A. Sloane_, Jun 18 2018",
			"references": 0,
			"revision": 2,
			"time": "2018-06-25T09:21:45-04:00",
			"created": "2018-06-23T14:05:47-04:00"
		}
	]
}