{
	"greeting": "Greetings from The On-Line Encyclopedia of Integer Sequences! http://oeis.org/",
	"query": "id:A310131",
	"count": 1,
	"start": 0,
	"results": [
		{
			"number": 310131,
			"data": "1,3,6,6,12,12,16,20,21,26,23,34,34,36,30,38,56,45,42,45,68,62,50,52,70,84,61,64,79,94,78,74,82,94,102,89,96,97,112,108,110,96,106,138,125,112,105,150,148,122",
			"name": "Coordination sequence Gal.5.45.3 where G.u.t.v denotes the coordination sequence for a vertex of type v in tiling number t in the Galebach list of u-uniform tilings.",
			"comment": [
				"Note that there may be other vertices in the Galebach list of u-uniform tilings with u \u003c= 6 that have this same coordination sequence. See the Galebach link for the complete list of A-numbers for all these tilings."
			],
			"link": [
				"Brian Galebach, \u003ca href=\"/A250120/a250120.html\"\u003ek-uniform tilings (k \u003c= 6) and their A-numbers\u003c/a\u003e"
			],
			"keyword": "nonn",
			"offset": "0,2",
			"author": "_Brian Galebach_ and _N. J. A. Sloane_, Jun 18 2018",
			"references": 0,
			"revision": 2,
			"time": "2018-06-25T09:21:43-04:00",
			"created": "2018-06-23T14:05:47-04:00"
		}
	]
}