{
	"greeting": "Greetings from The On-Line Encyclopedia of Integer Sequences! http://oeis.org/",
	"query": "id:A310296",
	"count": 1,
	"start": 0,
	"results": [
		{
			"number": 310296,
			"data": "1,3,8,13,16,21,24,27,34,41,45,48,51,51,58,67,71,76,77,77,82,91,97,102,105,103,108,115,121,128,131,131,134,141,145,152,157,157,162,167,171,176,181,183,188,195,197,202,205,207",
			"name": "Coordination sequence Gal.6.52.1 where G.u.t.v denotes the coordination sequence for a vertex of type v in tiling number t in the Galebach list of u-uniform tilings.",
			"comment": [
				"Note that there may be other vertices in the Galebach list of u-uniform tilings with u \u003c= 6 that have this same coordination sequence. See the Galebach link for the complete list of A-numbers for all these tilings."
			],
			"link": [
				"Brian Galebach, \u003ca href=\"/A250120/a250120.html\"\u003ek-uniform tilings (k \u003c= 6) and their A-numbers\u003c/a\u003e"
			],
			"keyword": "nonn",
			"offset": "0,2",
			"author": "_Brian Galebach_ and _N. J. A. Sloane_, Jun 18 2018",
			"references": 0,
			"revision": 2,
			"time": "2018-06-25T09:21:43-04:00",
			"created": "2018-06-23T14:05:47-04:00"
		}
	]
}