{
	"greeting": "Greetings from The On-Line Encyclopedia of Integer Sequences! http://oeis.org/",
	"query": "id:A311994",
	"count": 1,
	"start": 0,
	"results": [
		{
			"number": 311994,
			"data": "1,4,8,13,17,23,27,33,37,42,46,50,54,58,63,67,73,77,83,87,92,96,100,104,108,113,117,123,127,133,137,142,146,150,154,158,163,167,173,177,183,187,192,196,200,204,208,213,217,223",
			"name": "Coordination sequence Gal.6.231.2 where G.u.t.v denotes the coordination sequence for a vertex of type v in tiling number t in the Galebach list of u-uniform tilings.",
			"comment": [
				"Note that there may be other vertices in the Galebach list of u-uniform tilings with u \u003c= 6 that have this same coordination sequence. See the Galebach link for the complete list of A-numbers for all these tilings."
			],
			"link": [
				"Brian Galebach, \u003ca href=\"/A250120/a250120.html\"\u003ek-uniform tilings (k \u003c= 6) and their A-numbers\u003c/a\u003e"
			],
			"keyword": "nonn",
			"offset": "0,2",
			"author": "_Brian Galebach_ and _N. J. A. Sloane_, Jun 18 2018",
			"references": 0,
			"revision": 2,
			"time": "2018-06-25T09:21:48-04:00",
			"created": "2018-06-23T14:05:47-04:00"
		}
	]
}