{
	"greeting": "Greetings from The On-Line Encyclopedia of Integer Sequences! http://oeis.org/",
	"query": "id:A311807",
	"count": 1,
	"start": 0,
	"results": [
		{
			"number": 311807,
			"data": "1,4,8,13,17,21,25,29,34,38,42,46,50,55,59,63,67,71,76,80,84,88,92,97,101,105,109,113,118,122,126,130,134,139,143,147,151,155,160,164,168,172,176,181,185,189,193,197,202,206",
			"name": "Coordination sequence Gal.3.12.2 where G.u.t.v denotes the coordination sequence for a vertex of type v in tiling number t in the Galebach list of u-uniform tilings.",
			"comment": [
				"Note that there may be other vertices in the Galebach list of u-uniform tilings with u \u003c= 6 that have this same coordination sequence. See the Galebach link for the complete list of A-numbers for all these tilings."
			],
			"link": [
				"Brian Galebach, \u003ca href=\"/A250120/a250120.html\"\u003ek-uniform tilings (k \u003c= 6) and their A-numbers\u003c/a\u003e"
			],
			"keyword": "nonn",
			"offset": "0,2",
			"author": "_Brian Galebach_ and _N. J. A. Sloane_, Jun 18 2018",
			"references": 0,
			"revision": 2,
			"time": "2018-06-25T09:21:47-04:00",
			"created": "2018-06-23T14:05:47-04:00"
		}
	]
}