{
	"greeting": "Greetings from The On-Line Encyclopedia of Integer Sequences! http://oeis.org/",
	"query": "id:A311071",
	"count": 1,
	"start": 0,
	"results": [
		{
			"number": 311071,
			"data": "1,4,8,11,16,23,27,30,33,37,46,51,51,56,62,65,71,74,75,85,90,89,97,103,103,110,113,113,126,131,127,136,142,141,151,154,151,165,170,165,177,183,179,190,193,189,206,211,203,216",
			"name": "Coordination sequence Gal.6.58.4 where G.u.t.v denotes the coordination sequence for a vertex of type v in tiling number t in the Galebach list of u-uniform tilings.",
			"comment": [
				"Note that there may be other vertices in the Galebach list of u-uniform tilings with u \u003c= 6 that have this same coordination sequence. See the Galebach link for the complete list of A-numbers for all these tilings."
			],
			"link": [
				"Brian Galebach, \u003ca href=\"/A250120/a250120.html\"\u003ek-uniform tilings (k \u003c= 6) and their A-numbers\u003c/a\u003e"
			],
			"keyword": "nonn",
			"offset": "0,2",
			"author": "_Brian Galebach_ and _N. J. A. Sloane_, Jun 18 2018",
			"references": 0,
			"revision": 2,
			"time": "2018-06-25T09:21:45-04:00",
			"created": "2018-06-23T14:05:47-04:00"
		}
	]
}