{
	"greeting": "Greetings from The On-Line Encyclopedia of Integer Sequences! http://oeis.org/",
	"query": "id:A311333",
	"count": 1,
	"start": 0,
	"results": [
		{
			"number": 311333,
			"data": "1,4,8,12,16,21,28,32,36,42,50,50,57,63,68,68,77,80,88,85,98,101,109,105,118,121,127,124,138,141,146,144,156,159,161,162,176,180,183,184,196,198,200,202,216,217,222,222,234,232",
			"name": "Coordination sequence Gal.6.22.3 where G.u.t.v denotes the coordination sequence for a vertex of type v in tiling number t in the Galebach list of u-uniform tilings.",
			"comment": [
				"Note that there may be other vertices in the Galebach list of u-uniform tilings with u \u003c= 6 that have this same coordination sequence. See the Galebach link for the complete list of A-numbers for all these tilings."
			],
			"link": [
				"Brian Galebach, \u003ca href=\"/A250120/a250120.html\"\u003ek-uniform tilings (k \u003c= 6) and their A-numbers\u003c/a\u003e"
			],
			"keyword": "nonn",
			"offset": "0,2",
			"author": "_Brian Galebach_ and _N. J. A. Sloane_, Jun 18 2018",
			"references": 0,
			"revision": 2,
			"time": "2018-06-25T09:21:46-04:00",
			"created": "2018-06-23T14:05:47-04:00"
		}
	]
}