{
	"greeting": "Greetings from The On-Line Encyclopedia of Integer Sequences! http://oeis.org/",
	"query": "id:A311065",
	"count": 1,
	"start": 0,
	"results": [
		{
			"number": 311065,
			"data": "1,4,8,11,16,21,24,28,37,40,42,51,52,56,62,62,72,77,76,84,89,94,94,98,113,108,110,123,120,130,131,131,152,144,144,159,154,166,165,165,190,180,179,194,191,202,196,202,228,211",
			"name": "Coordination sequence Gal.5.6.3 where G.u.t.v denotes the coordination sequence for a vertex of type v in tiling number t in the Galebach list of u-uniform tilings.",
			"comment": [
				"Note that there may be other vertices in the Galebach list of u-uniform tilings with u \u003c= 6 that have this same coordination sequence. See the Galebach link for the complete list of A-numbers for all these tilings."
			],
			"link": [
				"Brian Galebach, \u003ca href=\"/A250120/a250120.html\"\u003ek-uniform tilings (k \u003c= 6) and their A-numbers\u003c/a\u003e"
			],
			"keyword": "nonn",
			"offset": "0,2",
			"author": "_Brian Galebach_ and _N. J. A. Sloane_, Jun 18 2018",
			"references": 0,
			"revision": 2,
			"time": "2018-06-25T09:21:45-04:00",
			"created": "2018-06-23T14:05:47-04:00"
		}
	]
}