{
	"greeting": "Greetings from The On-Line Encyclopedia of Integer Sequences! http://oeis.org/",
	"query": "id:A311936",
	"count": 1,
	"start": 0,
	"results": [
		{
			"number": 311936,
			"data": "1,4,8,13,17,22,26,31,36,40,45,48,54,57,63,62,72,74,82,83,91,91,100,100,109,102,118,117,128,126,137,134,146,143,155,142,164,160,174,169,183,177,192,186,201,182,210,203,220,212",
			"name": "Coordination sequence Gal.6.300.2 where G.u.t.v denotes the coordination sequence for a vertex of type v in tiling number t in the Galebach list of u-uniform tilings.",
			"comment": [
				"Note that there may be other vertices in the Galebach list of u-uniform tilings with u \u003c= 6 that have this same coordination sequence. See the Galebach link for the complete list of A-numbers for all these tilings."
			],
			"link": [
				"Brian Galebach, \u003ca href=\"/A250120/a250120.html\"\u003ek-uniform tilings (k \u003c= 6) and their A-numbers\u003c/a\u003e"
			],
			"formula": [
				"Conjectures from _Chai Wah Wu_, Sep 24 2020: (Start)",
				"a(n) = 2*a(n-10) - a(n-20) for n \u003e 23.",
				"G.f.: (-x^23 - x^21 + 2*x^20 + 3*x^19 + 10*x^18 + 12*x^17 + 20*x^16 + 18*x^15 + 29*x^14 + 31*x^13 + 38*x^12 + 40*x^11 + 43*x^10 + 40*x^9 + 36*x^8 + 31*x^7 + 26*x^6 + 22*x^5 + 17*x^4 + 13*x^3 + 8*x^2 + 4*x + 1)/(x^20 - 2*x^10 + 1). (End)"
			],
			"keyword": "nonn",
			"offset": "0,2",
			"author": "_Brian Galebach_ and _N. J. A. Sloane_, Jun 18 2018",
			"references": 0,
			"revision": 6,
			"time": "2020-09-25T04:18:44-04:00",
			"created": "2018-06-23T14:05:47-04:00"
		}
	]
}