{
	"greeting": "Greetings from The On-Line Encyclopedia of Integer Sequences! http://oeis.org/",
	"query": "id:A311223",
	"count": 1,
	"start": 0,
	"results": [
		{
			"number": 311223,
			"data": "1,4,8,12,16,20,26,30,32,36,40,46,52,58,64,64,68,72,74,80,82,88,92,98,102,110,110,118,124,122,128,126,134,140,146,148,156,154,164,170,168,178,176,184,188,192,192,204,200,212",
			"name": "Coordination sequence Gal.6.272.1 where G.u.t.v denotes the coordination sequence for a vertex of type v in tiling number t in the Galebach list of u-uniform tilings.",
			"comment": [
				"Note that there may be other vertices in the Galebach list of u-uniform tilings with u \u003c= 6 that have this same coordination sequence. See the Galebach link for the complete list of A-numbers for all these tilings."
			],
			"link": [
				"Brian Galebach, \u003ca href=\"/A250120/a250120.html\"\u003ek-uniform tilings (k \u003c= 6) and their A-numbers\u003c/a\u003e"
			],
			"keyword": "nonn",
			"offset": "0,2",
			"author": "_Brian Galebach_ and _N. J. A. Sloane_, Jun 18 2018",
			"references": 0,
			"revision": 2,
			"time": "2018-06-25T09:21:46-04:00",
			"created": "2018-06-23T14:05:47-04:00"
		}
	]
}