{
	"greeting": "Greetings from The On-Line Encyclopedia of Integer Sequences! http://oeis.org/",
	"query": "id:A311306",
	"count": 1,
	"start": 0,
	"results": [
		{
			"number": 311306,
			"data": "1,4,8,12,16,21,26,31,34,39,42,48,53,59,60,66,68,72,80,80,89,90,97,99,108,106,117,117,120,129,124,138,138,147,147,157,150,166,165,169,180,170,187,184,196,195,207,196,215,211",
			"name": "Coordination sequence Gal.6.273.2 where G.u.t.v denotes the coordination sequence for a vertex of type v in tiling number t in the Galebach list of u-uniform tilings.",
			"comment": [
				"Note that there may be other vertices in the Galebach list of u-uniform tilings with u \u003c= 6 that have this same coordination sequence. See the Galebach link for the complete list of A-numbers for all these tilings."
			],
			"link": [
				"Brian Galebach, \u003ca href=\"/A250120/a250120.html\"\u003ek-uniform tilings (k \u003c= 6) and their A-numbers\u003c/a\u003e"
			],
			"keyword": "nonn",
			"offset": "0,2",
			"author": "_Brian Galebach_ and _N. J. A. Sloane_, Jun 18 2018",
			"references": 0,
			"revision": 2,
			"time": "2018-06-25T09:21:46-04:00",
			"created": "2018-06-23T14:05:47-04:00"
		}
	]
}