{
	"greeting": "Greetings from The On-Line Encyclopedia of Integer Sequences! http://oeis.org/",
	"query": "id:A311864",
	"count": 1,
	"start": 0,
	"results": [
		{
			"number": 311864,
			"data": "1,4,8,13,17,21,26,31,36,40,44,49,51,57,60,67,68,73,79,83,90,91,99,98,106,107,116,116,120,128,129,139,139,148,146,155,154,165,163,168,177,176,187,186,198,193,205,201,214,210",
			"name": "Coordination sequence Gal.6.147.3 where G.u.t.v denotes the coordination sequence for a vertex of type v in tiling number t in the Galebach list of u-uniform tilings.",
			"comment": [
				"Note that there may be other vertices in the Galebach list of u-uniform tilings with u \u003c= 6 that have this same coordination sequence. See the Galebach link for the complete list of A-numbers for all these tilings."
			],
			"link": [
				"Brian Galebach, \u003ca href=\"/A250120/a250120.html\"\u003ek-uniform tilings (k \u003c= 6) and their A-numbers\u003c/a\u003e"
			],
			"keyword": "nonn",
			"offset": "0,2",
			"author": "_Brian Galebach_ and _N. J. A. Sloane_, Jun 18 2018",
			"references": 0,
			"revision": 2,
			"time": "2018-06-25T09:21:47-04:00",
			"created": "2018-06-23T14:05:47-04:00"
		}
	]
}