{
	"greeting": "Greetings from The On-Line Encyclopedia of Integer Sequences! http://oeis.org/",
	"query": "id:A311664",
	"count": 1,
	"start": 0,
	"results": [
		{
			"number": 311664,
			"data": "1,4,8,12,21,20,29,31,34,43,46,52,52,62,60,70,74,76,85,82,92,93,103,104,108,116,111,130,126,132,139,138,147,148,159,157,164,169,167,183,180,187,192,192,200,206,214,210,221,222",
			"name": "Coordination sequence Gal.6.514.2 where G.u.t.v denotes the coordination sequence for a vertex of type v in tiling number t in the Galebach list of u-uniform tilings.",
			"comment": [
				"Note that there may be other vertices in the Galebach list of u-uniform tilings with u \u003c= 6 that have this same coordination sequence. See the Galebach link for the complete list of A-numbers for all these tilings."
			],
			"link": [
				"Brian Galebach, \u003ca href=\"/A250120/a250120.html\"\u003ek-uniform tilings (k \u003c= 6) and their A-numbers\u003c/a\u003e"
			],
			"keyword": "nonn",
			"offset": "0,2",
			"author": "_Brian Galebach_ and _N. J. A. Sloane_, Jun 18 2018",
			"references": 0,
			"revision": 2,
			"time": "2018-06-25T09:21:47-04:00",
			"created": "2018-06-23T14:05:47-04:00"
		}
	]
}