{
	"greeting": "Greetings from The On-Line Encyclopedia of Integer Sequences! http://oeis.org/",
	"query": "id:A311003",
	"count": 1,
	"start": 0,
	"results": [
		{
			"number": 311003,
			"data": "1,4,8,10,16,20,21,26,31,36,39,38,45,53,53,55,62,66,68,70,76,83,85,84,89,99,100,100,107,112,114,117,120,128,132,130,135,143,146,147,152,157,160,163,167,172,177,177,181,189",
			"name": "Coordination sequence Gal.6.492.6 where G.u.t.v denotes the coordination sequence for a vertex of type v in tiling number t in the Galebach list of u-uniform tilings.",
			"comment": [
				"Note that there may be other vertices in the Galebach list of u-uniform tilings with u \u003c= 6 that have this same coordination sequence. See the Galebach link for the complete list of A-numbers for all these tilings."
			],
			"link": [
				"Brian Galebach, \u003ca href=\"/A250120/a250120.html\"\u003ek-uniform tilings (k \u003c= 6) and their A-numbers\u003c/a\u003e"
			],
			"keyword": "nonn",
			"offset": "0,2",
			"author": "_Brian Galebach_ and _N. J. A. Sloane_, Jun 18 2018",
			"references": 0,
			"revision": 2,
			"time": "2018-06-25T09:21:45-04:00",
			"created": "2018-06-23T14:05:47-04:00"
		}
	]
}