{
	"greeting": "Greetings from The On-Line Encyclopedia of Integer Sequences! http://oeis.org/",
	"query": "id:A311970",
	"count": 1,
	"start": 0,
	"results": [
		{
			"number": 311970,
			"data": "1,4,8,13,17,22,28,30,38,37,47,46,58,53,66,62,77,71,87,78,95,87,106,95,114,103,125,112,136,119,144,127,155,135,164,143,174,152,185,160,193,168,203,176,212,185,222,193,233,201",
			"name": "Coordination sequence Gal.6.520.3 where G.u.t.v denotes the coordination sequence for a vertex of type v in tiling number t in the Galebach list of u-uniform tilings.",
			"comment": [
				"Note that there may be other vertices in the Galebach list of u-uniform tilings with u \u003c= 6 that have this same coordination sequence. See the Galebach link for the complete list of A-numbers for all these tilings."
			],
			"link": [
				"Brian Galebach, \u003ca href=\"/A250120/a250120.html\"\u003ek-uniform tilings (k \u003c= 6) and their A-numbers\u003c/a\u003e"
			],
			"keyword": "nonn",
			"offset": "0,2",
			"author": "_Brian Galebach_ and _N. J. A. Sloane_, Jun 18 2018",
			"references": 0,
			"revision": 2,
			"time": "2018-06-25T09:21:48-04:00",
			"created": "2018-06-23T14:05:47-04:00"
		}
	]
}