{
	"greeting": "Greetings from The On-Line Encyclopedia of Integer Sequences! http://oeis.org/",
	"query": "id:A311689",
	"count": 1,
	"start": 0,
	"results": [
		{
			"number": 311689,
			"data": "1,4,8,13,16,20,25,30,34,39,42,46,50,54,59,63,67,71,75,79,85,89,93,96,100,105,109,113,118,122,125,130,134,139,143,147,151,155,159,164,168,172,177,180,184,188,193,198,202,205",
			"name": "Coordination sequence Gal.6.226.4 where G.u.t.v denotes the coordination sequence for a vertex of type v in tiling number t in the Galebach list of u-uniform tilings.",
			"comment": [
				"Note that there may be other vertices in the Galebach list of u-uniform tilings with u \u003c= 6 that have this same coordination sequence. See the Galebach link for the complete list of A-numbers for all these tilings."
			],
			"link": [
				"Brian Galebach, \u003ca href=\"/A250120/a250120.html\"\u003ek-uniform tilings (k \u003c= 6) and their A-numbers\u003c/a\u003e"
			],
			"keyword": "nonn",
			"offset": "0,2",
			"author": "_Brian Galebach_ and _N. J. A. Sloane_, Jun 18 2018",
			"references": 0,
			"revision": 2,
			"time": "2018-06-25T09:21:47-04:00",
			"created": "2018-06-23T14:05:47-04:00"
		}
	]
}