{
	"greeting": "Greetings from The On-Line Encyclopedia of Integer Sequences! http://oeis.org/",
	"query": "id:A311527",
	"count": 1,
	"start": 0,
	"results": [
		{
			"number": 311527,
			"data": "1,4,8,12,17,22,27,30,33,38,44,50,55,60,61,63,67,73,81,82,85,89,94,103,109,114,114,117,120,124,133,133,137,141,146,156,161,167,166,169,173,178,188,184,187,192,198,210,215,220",
			"name": "Coordination sequence Gal.6.185.1 where G.u.t.v denotes the coordination sequence for a vertex of type v in tiling number t in the Galebach list of u-uniform tilings.",
			"comment": [
				"Note that there may be other vertices in the Galebach list of u-uniform tilings with u \u003c= 6 that have this same coordination sequence. See the Galebach link for the complete list of A-numbers for all these tilings."
			],
			"link": [
				"Brian Galebach, \u003ca href=\"/A250120/a250120.html\"\u003ek-uniform tilings (k \u003c= 6) and their A-numbers\u003c/a\u003e"
			],
			"keyword": "nonn",
			"offset": "0,2",
			"author": "_Brian Galebach_ and _N. J. A. Sloane_, Jun 18 2018",
			"references": 0,
			"revision": 2,
			"time": "2018-06-25T09:21:47-04:00",
			"created": "2018-06-23T14:05:47-04:00"
		}
	]
}