{
	"greeting": "Greetings from The On-Line Encyclopedia of Integer Sequences! http://oeis.org/",
	"query": "id:A312903",
	"count": 1,
	"start": 0,
	"results": [
		{
			"number": 312903,
			"data": "1,4,9,13,17,22,27,31,35,40,44,48,53,57,61,66,71,75,79,84,88,92,97,101,105,110,115,119,123,128,132,136,141,145,149,154,159,163,167,172,176,180,185,189,193,198,203,207,211,216",
			"name": "Coordination sequence Gal.5.65.2 where G.u.t.v denotes the coordination sequence for a vertex of type v in tiling number t in the Galebach list of u-uniform tilings.",
			"comment": [
				"Note that there may be other vertices in the Galebach list of u-uniform tilings with u \u003c= 6 that have this same coordination sequence. See the Galebach link for the complete list of A-numbers for all these tilings."
			],
			"link": [
				"Brian Galebach, \u003ca href=\"/A250120/a250120.html\"\u003ek-uniform tilings (k \u003c= 6) and their A-numbers\u003c/a\u003e"
			],
			"keyword": "nonn",
			"offset": "0,2",
			"author": "_Brian Galebach_ and _N. J. A. Sloane_, Jun 18 2018",
			"references": 0,
			"revision": 2,
			"time": "2018-06-25T09:21:50-04:00",
			"created": "2018-06-23T14:05:47-04:00"
		}
	]
}