{
	"greeting": "Greetings from The On-Line Encyclopedia of Integer Sequences! http://oeis.org/",
	"query": "id:A312961",
	"count": 1,
	"start": 0,
	"results": [
		{
			"number": 312961,
			"data": "1,4,9,13,18,24,28,34,39,43,48,52,56,61,65,70,76,80,86,91,95,100,104,108,113,117,122,128,132,138,143,147,152,156,160,165,169,174,180,184,190,195,199,204,208,212,217,221,226,232",
			"name": "Coordination sequence Gal.6.152.2 where G.u.t.v denotes the coordination sequence for a vertex of type v in tiling number t in the Galebach list of u-uniform tilings.",
			"comment": [
				"Note that there may be other vertices in the Galebach list of u-uniform tilings with u \u003c= 6 that have this same coordination sequence. See the Galebach link for the complete list of A-numbers for all these tilings."
			],
			"link": [
				"Brian Galebach, \u003ca href=\"/A250120/a250120.html\"\u003ek-uniform tilings (k \u003c= 6) and their A-numbers\u003c/a\u003e"
			],
			"formula": [
				"Conjectures from _Chai Wah Wu_, Feb 14 2020: (Start)",
				"a(n) = a(n-1) + a(n-11) - a(n-12) for n \u003e 12.",
				"G.f.: (x^12 + 3*x^11 + 5*x^10 + 4*x^9 + 5*x^8 + 6*x^7 + 4*x^6 + 6*x^5 + 5*x^4 + 4*x^3 + 5*x^2 + 3*x + 1)/(x^12 - x^11 - x + 1). (End)"
			],
			"keyword": "nonn",
			"offset": "0,2",
			"author": "_Brian Galebach_ and _N. J. A. Sloane_, Jun 18 2018",
			"references": 0,
			"revision": 6,
			"time": "2020-02-15T00:08:04-05:00",
			"created": "2018-06-23T14:05:47-04:00"
		}
	]
}