{
	"greeting": "Greetings from The On-Line Encyclopedia of Integer Sequences! http://oeis.org/",
	"query": "id:A312768",
	"count": 1,
	"start": 0,
	"results": [
		{
			"number": 312768,
			"data": "1,4,8,16,18,22,26,34,38,44,42,52,54,66,64,68,70,82,84,94,84,100,100,112,114,110,120,126,132,140,130,146,148,158,160,156,166,176,176,188,172,196,194,206,206,198,216,222,226,232",
			"name": "Coordination sequence Gal.5.194.2 where G.u.t.v denotes the coordination sequence for a vertex of type v in tiling number t in the Galebach list of u-uniform tilings.",
			"comment": [
				"Note that there may be other vertices in the Galebach list of u-uniform tilings with u \u003c= 6 that have this same coordination sequence. See the Galebach link for the complete list of A-numbers for all these tilings."
			],
			"link": [
				"Brian Galebach, \u003ca href=\"/A250120/a250120.html\"\u003ek-uniform tilings (k \u003c= 6) and their A-numbers\u003c/a\u003e"
			],
			"keyword": "nonn",
			"offset": "0,2",
			"author": "_Brian Galebach_ and _N. J. A. Sloane_, Jun 18 2018",
			"references": 0,
			"revision": 2,
			"time": "2018-06-25T09:21:50-04:00",
			"created": "2018-06-23T14:05:47-04:00"
		}
	]
}