{
	"greeting": "Greetings from The On-Line Encyclopedia of Integer Sequences! http://oeis.org/",
	"query": "id:A312271",
	"count": 1,
	"start": 0,
	"results": [
		{
			"number": 312271,
			"data": "1,4,8,14,16,22,24,30,32,38,40,46,48,58,56,66,64,74,72,82,80,90,86,98,100,106,108,114,116,122,124,130,132,134,140,150,148,158,156,166,164,174,172,182,174,190,192,198,200,206",
			"name": "Coordination sequence Gal.6.116.6 where G.u.t.v denotes the coordination sequence for a vertex of type v in tiling number t in the Galebach list of u-uniform tilings.",
			"comment": [
				"Note that there may be other vertices in the Galebach list of u-uniform tilings with u \u003c= 6 that have this same coordination sequence. See the Galebach link for the complete list of A-numbers for all these tilings."
			],
			"link": [
				"Brian Galebach, \u003ca href=\"/A250120/a250120.html\"\u003ek-uniform tilings (k \u003c= 6) and their A-numbers\u003c/a\u003e"
			],
			"keyword": "nonn",
			"offset": "0,2",
			"author": "_Brian Galebach_ and _N. J. A. Sloane_, Jun 18 2018",
			"references": 0,
			"revision": 2,
			"time": "2018-06-25T09:21:48-04:00",
			"created": "2018-06-23T14:05:47-04:00"
		}
	]
}