{
	"greeting": "Greetings from The On-Line Encyclopedia of Integer Sequences! http://oeis.org/",
	"query": "id:A312487",
	"count": 1,
	"start": 0,
	"results": [
		{
			"number": 312487,
			"data": "1,4,8,14,18,22,26,34,32,46,38,54,52,58,66,62,74,78,76,94,78,102,96,102,114,102,122,122,120,142,118,150,140,146,162,142,170,166,164,190,158,198,184,190,210,182,218,210,208,238",
			"name": "Coordination sequence Gal.3.30.2 where G.u.t.v denotes the coordination sequence for a vertex of type v in tiling number t in the Galebach list of u-uniform tilings.",
			"comment": [
				"Note that there may be other vertices in the Galebach list of u-uniform tilings with u \u003c= 6 that have this same coordination sequence. See the Galebach link for the complete list of A-numbers for all these tilings."
			],
			"link": [
				"Brian Galebach, \u003ca href=\"/A250120/a250120.html\"\u003ek-uniform tilings (k \u003c= 6) and their A-numbers\u003c/a\u003e"
			],
			"keyword": "nonn",
			"offset": "0,2",
			"author": "_Brian Galebach_ and _N. J. A. Sloane_, Jun 18 2018",
			"references": 0,
			"revision": 2,
			"time": "2018-06-25T09:21:49-04:00",
			"created": "2018-06-23T14:05:47-04:00"
		}
	]
}