{
	"greeting": "Greetings from The On-Line Encyclopedia of Integer Sequences! http://oeis.org/",
	"query": "id:A312807",
	"count": 1,
	"start": 0,
	"results": [
		{
			"number": 312807,
			"data": "1,4,8,16,21,24,27,33,38,46,51,59,55,62,65,76,80,87,92,89,94,102,112,115,121,124,123,128,140,148,150,151,159,155,166,175,186,181,186,191,193,200,211,219,215,218,228,229,235,245",
			"name": "Coordination sequence Gal.6.573.1 where G.u.t.v denotes the coordination sequence for a vertex of type v in tiling number t in the Galebach list of u-uniform tilings.",
			"comment": [
				"Note that there may be other vertices in the Galebach list of u-uniform tilings with u \u003c= 6 that have this same coordination sequence. See the Galebach link for the complete list of A-numbers for all these tilings."
			],
			"link": [
				"Brian Galebach, \u003ca href=\"/A250120/a250120.html\"\u003ek-uniform tilings (k \u003c= 6) and their A-numbers\u003c/a\u003e"
			],
			"keyword": "nonn",
			"offset": "0,2",
			"author": "_Brian Galebach_ and _N. J. A. Sloane_, Jun 18 2018",
			"references": 0,
			"revision": 2,
			"time": "2018-06-25T09:21:50-04:00",
			"created": "2018-06-23T14:05:47-04:00"
		}
	]
}