{
	"greeting": "Greetings from The On-Line Encyclopedia of Integer Sequences! http://oeis.org/",
	"query": "id:A312995",
	"count": 1,
	"start": 0,
	"results": [
		{
			"number": 312995,
			"data": "1,4,9,14,17,19,22,28,35,40,43,46,51,56,59,62,68,76,82,83,83,87,95,103,106,107,111,118,123,123,124,132,143,149,147,145,151,162,170,170,169,175,185,190,187,186,196,210,216,211",
			"name": "Coordination sequence Gal.5.211.1 where G.u.t.v denotes the coordination sequence for a vertex of type v in tiling number t in the Galebach list of u-uniform tilings.",
			"comment": [
				"Note that there may be other vertices in the Galebach list of u-uniform tilings with u \u003c= 6 that have this same coordination sequence. See the Galebach link for the complete list of A-numbers for all these tilings."
			],
			"link": [
				"Brian Galebach, \u003ca href=\"/A250120/a250120.html\"\u003ek-uniform tilings (k \u003c= 6) and their A-numbers\u003c/a\u003e"
			],
			"keyword": "nonn",
			"offset": "0,2",
			"author": "_Brian Galebach_ and _N. J. A. Sloane_, Jun 18 2018",
			"references": 0,
			"revision": 2,
			"time": "2018-06-25T09:21:50-04:00",
			"created": "2018-06-23T14:05:47-04:00"
		}
	]
}