{
	"greeting": "Greetings from The On-Line Encyclopedia of Integer Sequences! http://oeis.org/",
	"query": "id:A312926",
	"count": 1,
	"start": 0,
	"results": [
		{
			"number": 312926,
			"data": "1,4,9,13,18,22,26,30,34,39,43,48,52,56,61,65,70,74,78,82,86,91,95,100,104,108,113,117,122,126,130,134,138,143,147,152,156,160,165,169,174,178,182,186,190,195,199,204,208,212",
			"name": "Coordination sequence Gal.6.118.4 where G.u.t.v denotes the coordination sequence for a vertex of type v in tiling number t in the Galebach list of u-uniform tilings.",
			"comment": [
				"Note that there may be other vertices in the Galebach list of u-uniform tilings with u \u003c= 6 that have this same coordination sequence. See the Galebach link for the complete list of A-numbers for all these tilings."
			],
			"link": [
				"Brian Galebach, \u003ca href=\"/A250120/a250120.html\"\u003ek-uniform tilings (k \u003c= 6) and their A-numbers\u003c/a\u003e"
			],
			"formula": [
				"Conjectures from _Chai Wah Wu_, Feb 14 2020: (Start)",
				"a(n) = 2*a(n-1) - a(n-2) - a(n-4) + 2*a(n-5) - a(n-6) - a(n-8) + 2*a(n-9) - a(n-10) for n \u003e 10.",
				"G.f.: (x^10 + 2*x^9 + 2*x^8 - x^7 + 2*x^6 + x^5 + 2*x^4 - x^3 + 2*x^2 + 2*x + 1)/((x^8 + x^4 + 1)*(x - 1)^2). (End)"
			],
			"keyword": "nonn",
			"offset": "0,2",
			"author": "_Brian Galebach_ and _N. J. A. Sloane_, Jun 18 2018",
			"references": 0,
			"revision": 7,
			"time": "2020-02-14T21:46:53-05:00",
			"created": "2018-06-23T14:05:47-04:00"
		}
	]
}