{
	"greeting": "Greetings from The On-Line Encyclopedia of Integer Sequences! http://oeis.org/",
	"query": "id:A312625",
	"count": 1,
	"start": 0,
	"results": [
		{
			"number": 312625,
			"data": "1,4,8,14,19,24,30,34,39,41,47,50,58,61,70,71,79,78,86,87,96,98,109,109,118,116,125,124,135,134,148,146,158,153,165,161,174,171,186,183,197,191,204,199,213,208,225,219,236,228",
			"name": "Coordination sequence Gal.6.296.2 where G.u.t.v denotes the coordination sequence for a vertex of type v in tiling number t in the Galebach list of u-uniform tilings.",
			"comment": [
				"Note that there may be other vertices in the Galebach list of u-uniform tilings with u \u003c= 6 that have this same coordination sequence. See the Galebach link for the complete list of A-numbers for all these tilings."
			],
			"link": [
				"Brian Galebach, \u003ca href=\"/A250120/a250120.html\"\u003ek-uniform tilings (k \u003c= 6) and their A-numbers\u003c/a\u003e"
			],
			"keyword": "nonn",
			"offset": "0,2",
			"author": "_Brian Galebach_ and _N. J. A. Sloane_, Jun 18 2018",
			"references": 0,
			"revision": 2,
			"time": "2018-06-25T09:21:49-04:00",
			"created": "2018-06-23T14:05:47-04:00"
		}
	]
}