{
	"greeting": "Greetings from The On-Line Encyclopedia of Integer Sequences! http://oeis.org/",
	"query": "id:A312362",
	"count": 1,
	"start": 0,
	"results": [
		{
			"number": 312362,
			"data": "1,4,8,14,17,22,24,32,33,40,40,48,51,58,62,64,69,72,78,82,84,90,94,100,105,108,114,114,123,122,128,132,139,142,148,150,157,158,168,164,172,172,184,184,193,192,200,200,211,208",
			"name": "Coordination sequence Gal.6.305.5 where G.u.t.v denotes the coordination sequence for a vertex of type v in tiling number t in the Galebach list of u-uniform tilings.",
			"comment": [
				"Note that there may be other vertices in the Galebach list of u-uniform tilings with u \u003c= 6 that have this same coordination sequence. See the Galebach link for the complete list of A-numbers for all these tilings."
			],
			"link": [
				"Brian Galebach, \u003ca href=\"/A250120/a250120.html\"\u003ek-uniform tilings (k \u003c= 6) and their A-numbers\u003c/a\u003e"
			],
			"keyword": "nonn",
			"offset": "0,2",
			"author": "_Brian Galebach_ and _N. J. A. Sloane_, Jun 18 2018",
			"references": 0,
			"revision": 2,
			"time": "2018-06-25T09:21:49-04:00",
			"created": "2018-06-23T14:05:47-04:00"
		}
	]
}