{
	"greeting": "Greetings from The On-Line Encyclopedia of Integer Sequences! http://oeis.org/",
	"query": "id:A312676",
	"count": 1,
	"start": 0,
	"results": [
		{
			"number": 312676,
			"data": "1,4,8,14,20,26,30,30,36,38,44,50,58,66,70,68,74,72,80,86,94,102,108,106,114,110,118,122,130,138,144,140,152,148,158,162,168,174,180,174,188,182,196,202,208,214,218,208,224,216",
			"name": "Coordination sequence Gal.5.187.4 where G.u.t.v denotes the coordination sequence for a vertex of type v in tiling number t in the Galebach list of u-uniform tilings.",
			"comment": [
				"Note that there may be other vertices in the Galebach list of u-uniform tilings with u \u003c= 6 that have this same coordination sequence. See the Galebach link for the complete list of A-numbers for all these tilings."
			],
			"link": [
				"Brian Galebach, \u003ca href=\"/A250120/a250120.html\"\u003ek-uniform tilings (k \u003c= 6) and their A-numbers\u003c/a\u003e"
			],
			"keyword": "nonn",
			"offset": "0,2",
			"author": "_Brian Galebach_ and _N. J. A. Sloane_, Jun 18 2018",
			"references": 0,
			"revision": 2,
			"time": "2018-06-25T09:21:49-04:00",
			"created": "2018-06-23T14:05:47-04:00"
		}
	]
}