{
	"greeting": "Greetings from The On-Line Encyclopedia of Integer Sequences! http://oeis.org/",
	"query": "id:A312549",
	"count": 1,
	"start": 0,
	"results": [
		{
			"number": 312549,
			"data": "1,4,8,14,18,24,28,32,36,40,46,50,56,60,64,68,72,78,82,88,92,96,100,104,110,114,120,124,128,132,136,142,146,152,156,160,164,168,174,178,184,188,192,196,200,206,210,216,220,224",
			"name": "Coordination sequence Gal.4.61.1 where G.u.t.v denotes the coordination sequence for a vertex of type v in tiling number t in the Galebach list of u-uniform tilings.",
			"comment": [
				"Note that there may be other vertices in the Galebach list of u-uniform tilings with u \u003c= 6 that have this same coordination sequence. See the Galebach link for the complete list of A-numbers for all these tilings."
			],
			"link": [
				"Brian Galebach, \u003ca href=\"/A250120/a250120.html\"\u003ek-uniform tilings (k \u003c= 6) and their A-numbers\u003c/a\u003e"
			],
			"formula": [
				"Conjectures from _Chai Wah Wu_, Jul 24 2020: (Start)",
				"a(n) = a(n-1) + a(n-7) - a(n-8) for n \u003e 8.",
				"G.f.: (x^8 + 3*x^7 + 4*x^6 + 6*x^5 + 4*x^4 + 6*x^3 + 4*x^2 + 3*x + 1)/(x^8 - x^7 - x + 1). (End)"
			],
			"keyword": "nonn",
			"offset": "0,2",
			"author": "_Brian Galebach_ and _N. J. A. Sloane_, Jun 18 2018",
			"references": 0,
			"revision": 6,
			"time": "2020-07-25T10:42:22-04:00",
			"created": "2018-06-23T14:05:47-04:00"
		}
	]
}