{
	"greeting": "Greetings from The On-Line Encyclopedia of Integer Sequences! http://oeis.org/",
	"query": "id:A312158",
	"count": 1,
	"start": 0,
	"results": [
		{
			"number": 312158,
			"data": "1,4,8,13,18,24,29,32,37,40,46,49,54,57,63,70,76,79,84,85,91,93,100,102,109,115,121,124,131,132,138,138,145,146,155,161,167,168,176,177,185,185,192,191,200,206,213,213,222,221",
			"name": "Coordination sequence Gal.6.285.2 where G.u.t.v denotes the coordination sequence for a vertex of type v in tiling number t in the Galebach list of u-uniform tilings.",
			"comment": [
				"Note that there may be other vertices in the Galebach list of u-uniform tilings with u \u003c= 6 that have this same coordination sequence. See the Galebach link for the complete list of A-numbers for all these tilings."
			],
			"link": [
				"Brian Galebach, \u003ca href=\"/A250120/a250120.html\"\u003ek-uniform tilings (k \u003c= 6) and their A-numbers\u003c/a\u003e"
			],
			"keyword": "nonn",
			"offset": "0,2",
			"author": "_Brian Galebach_ and _N. J. A. Sloane_, Jun 18 2018",
			"references": 0,
			"revision": 2,
			"time": "2018-06-25T09:21:48-04:00",
			"created": "2018-06-23T14:05:47-04:00"
		}
	]
}