{
	"greeting": "Greetings from The On-Line Encyclopedia of Integer Sequences! http://oeis.org/",
	"query": "id:A312491",
	"count": 1,
	"start": 0,
	"results": [
		{
			"number": 312491,
			"data": "1,4,8,14,18,22,27,31,37,43,45,50,53,58,64,68,73,77,79,86,93,95,101,102,108,114,117,123,128,129,136,142,143,151,152,159,164,166,173,178,178,187,193,192,200,200,209,215,216,223",
			"name": "Coordination sequence Gal.6.309.2 where G.u.t.v denotes the coordination sequence for a vertex of type v in tiling number t in the Galebach list of u-uniform tilings.",
			"comment": [
				"Note that there may be other vertices in the Galebach list of u-uniform tilings with u \u003c= 6 that have this same coordination sequence. See the Galebach link for the complete list of A-numbers for all these tilings."
			],
			"link": [
				"Brian Galebach, \u003ca href=\"/A250120/a250120.html\"\u003ek-uniform tilings (k \u003c= 6) and their A-numbers\u003c/a\u003e"
			],
			"keyword": "nonn",
			"offset": "0,2",
			"author": "_Brian Galebach_ and _N. J. A. Sloane_, Jun 18 2018",
			"references": 0,
			"revision": 2,
			"time": "2018-06-25T09:21:49-04:00",
			"created": "2018-06-23T14:05:47-04:00"
		}
	]
}