{
	"greeting": "Greetings from The On-Line Encyclopedia of Integer Sequences! http://oeis.org/",
	"query": "id:A312143",
	"count": 1,
	"start": 0,
	"results": [
		{
			"number": 312143,
			"data": "1,4,8,13,18,23,28,33,38,42,46,50,54,59,64,69,74,79,84,88,92,96,100,105,110,115,120,125,130,134,138,142,146,151,156,161,166,171,176,180,184,188,192,197,202,207,212,217,222,226",
			"name": "Coordination sequence Gal.5.55.2 where G.u.t.v denotes the coordination sequence for a vertex of type v in tiling number t in the Galebach list of u-uniform tilings.",
			"comment": [
				"Note that there may be other vertices in the Galebach list of u-uniform tilings with u \u003c= 6 that have this same coordination sequence. See the Galebach link for the complete list of A-numbers for all these tilings."
			],
			"link": [
				"Brian Galebach, \u003ca href=\"/A250120/a250120.html\"\u003ek-uniform tilings (k \u003c= 6) and their A-numbers\u003c/a\u003e"
			],
			"keyword": "nonn",
			"offset": "0,2",
			"author": "_Brian Galebach_ and _N. J. A. Sloane_, Jun 18 2018",
			"references": 0,
			"revision": 2,
			"time": "2018-06-25T09:21:48-04:00",
			"created": "2018-06-23T14:05:47-04:00"
		}
	]
}