{
	"greeting": "Greetings from The On-Line Encyclopedia of Integer Sequences! http://oeis.org/",
	"query": "id:A313351",
	"count": 1,
	"start": 0,
	"results": [
		{
			"number": 313351,
			"data": "1,4,9,16,23,29,32,36,43,49,56,59,66,68,76,80,89,94,97,102,107,114,121,126,132,132,142,144,155,158,163,168,171,180,185,192,196,198,208,208,221,222,229,232,237,246,249,258,260,264",
			"name": "Coordination sequence Gal.6.490.1 where G.u.t.v denotes the coordination sequence for a vertex of type v in tiling number t in the Galebach list of u-uniform tilings.",
			"comment": [
				"Note that there may be other vertices in the Galebach list of u-uniform tilings with u \u003c= 6 that have this same coordination sequence. See the Galebach link for the complete list of A-numbers for all these tilings."
			],
			"link": [
				"Brian Galebach, \u003ca href=\"/A250120/a250120.html\"\u003ek-uniform tilings (k \u003c= 6) and their A-numbers\u003c/a\u003e"
			],
			"keyword": "nonn",
			"offset": "0,2",
			"author": "_Brian Galebach_ and _N. J. A. Sloane_, Jun 18 2018",
			"references": 0,
			"revision": 2,
			"time": "2018-06-25T09:21:51-04:00",
			"created": "2018-06-23T14:05:47-04:00"
		}
	]
}