{
	"greeting": "Greetings from The On-Line Encyclopedia of Integer Sequences! http://oeis.org/",
	"query": "id:A313021",
	"count": 1,
	"start": 0,
	"results": [
		{
			"number": 313021,
			"data": "1,4,9,14,18,21,27,34,37,42,46,51,58,61,63,68,75,81,86,88,93,98,103,107,110,118,122,127,131,134,139,144,148,154,162,164,169,171,176,183,186,191,195,203,207,210,212,217,224,230",
			"name": "Coordination sequence Gal.6.386.1 where G.u.t.v denotes the coordination sequence for a vertex of type v in tiling number t in the Galebach list of u-uniform tilings.",
			"comment": [
				"Note that there may be other vertices in the Galebach list of u-uniform tilings with u \u003c= 6 that have this same coordination sequence. See the Galebach link for the complete list of A-numbers for all these tilings."
			],
			"link": [
				"Brian Galebach, \u003ca href=\"/A250120/a250120.html\"\u003ek-uniform tilings (k \u003c= 6) and their A-numbers\u003c/a\u003e"
			],
			"keyword": "nonn",
			"offset": "0,2",
			"author": "_Brian Galebach_ and _N. J. A. Sloane_, Jun 18 2018",
			"references": 0,
			"revision": 2,
			"time": "2018-06-25T09:21:50-04:00",
			"created": "2018-06-23T14:05:47-04:00"
		}
	]
}