{
	"greeting": "Greetings from The On-Line Encyclopedia of Integer Sequences! http://oeis.org/",
	"query": "id:A313466",
	"count": 1,
	"start": 0,
	"results": [
		{
			"number": 313466,
			"data": "1,5,10,14,17,24,27,36,37,46,43,52,52,65,64,77,74,82,77,92,89,106,101,118,105,120,114,133,126,147,138,152,139,162,151,174,163,188,167,190,178,203,188,215,200,220,201,234,215,244",
			"name": "Coordination sequence Gal.5.185.4 where G.u.t.v denotes the coordination sequence for a vertex of type v in tiling number t in the Galebach list of u-uniform tilings.",
			"comment": [
				"Note that there may be other vertices in the Galebach list of u-uniform tilings with u \u003c= 6 that have this same coordination sequence. See the Galebach link for the complete list of A-numbers for all these tilings."
			],
			"link": [
				"Brian Galebach, \u003ca href=\"/A250120/a250120.html\"\u003ek-uniform tilings (k \u003c= 6) and their A-numbers\u003c/a\u003e"
			],
			"keyword": "nonn",
			"offset": "0,2",
			"author": "_Brian Galebach_ and _N. J. A. Sloane_, Jun 18 2018",
			"references": 0,
			"revision": 2,
			"time": "2018-06-25T09:21:51-04:00",
			"created": "2018-06-23T14:05:47-04:00"
		}
	]
}