{
	"greeting": "Greetings from The On-Line Encyclopedia of Integer Sequences! http://oeis.org/",
	"query": "id:A313300",
	"count": 1,
	"start": 0,
	"results": [
		{
			"number": 313300,
			"data": "1,4,9,16,15,24,27,38,32,42,45,56,53,60,63,74,70,82,81,92,87,100,103,110,104,118,121,132,121,136,139,150,142,154,157,168,159,176,175,186,176,194,197,204,193,212,215,226,210,230",
			"name": "Coordination sequence Gal.5.123.3 where G.u.t.v denotes the coordination sequence for a vertex of type v in tiling number t in the Galebach list of u-uniform tilings.",
			"comment": [
				"Note that there may be other vertices in the Galebach list of u-uniform tilings with u \u003c= 6 that have this same coordination sequence. See the Galebach link for the complete list of A-numbers for all these tilings."
			],
			"link": [
				"Brian Galebach, \u003ca href=\"/A250120/a250120.html\"\u003ek-uniform tilings (k \u003c= 6) and their A-numbers\u003c/a\u003e"
			],
			"keyword": "nonn",
			"offset": "0,2",
			"author": "_Brian Galebach_ and _N. J. A. Sloane_, Jun 18 2018",
			"references": 0,
			"revision": 2,
			"time": "2018-06-25T09:21:51-04:00",
			"created": "2018-06-23T14:05:47-04:00"
		}
	]
}