{
	"greeting": "Greetings from The On-Line Encyclopedia of Integer Sequences! http://oeis.org/",
	"query": "id:A313931",
	"count": 1,
	"start": 0,
	"results": [
		{
			"number": 313931,
			"data": "1,5,10,16,22,28,35,41,46,50,56,62,69,76,81,84,88,94,100,109,117,122,124,128,134,141,150,157,160,162,166,172,181,191,198,200,202,206,213,222,231,236,238,240,244,253,263,272,276,278",
			"name": "Coordination sequence Gal.6.629.5 where G.u.t.v denotes the coordination sequence for a vertex of type v in tiling number t in the Galebach list of u-uniform tilings.",
			"comment": [
				"Note that there may be other vertices in the Galebach list of u-uniform tilings with u \u003c= 6 that have this same coordination sequence. See the Galebach link for the complete list of A-numbers for all these tilings."
			],
			"link": [
				"Brian Galebach, \u003ca href=\"/A250120/a250120.html\"\u003ek-uniform tilings (k \u003c= 6) and their A-numbers\u003c/a\u003e"
			],
			"keyword": "nonn",
			"offset": "0,2",
			"author": "_Brian Galebach_ and _N. J. A. Sloane_, Jun 18 2018",
			"references": 0,
			"revision": 2,
			"time": "2018-06-25T09:21:52-04:00",
			"created": "2018-06-23T14:05:47-04:00"
		}
	]
}