{
	"greeting": "Greetings from The On-Line Encyclopedia of Integer Sequences! http://oeis.org/",
	"query": "id:A313271",
	"count": 1,
	"start": 0,
	"results": [
		{
			"number": 313271,
			"data": "1,4,9,15,20,26,31,36,39,45,48,55,61,66,72,77,82,83,91,91,101,107,112,118,123,128,126,137,134,147,153,158,164,169,174,169,183,177,193,199,204,210,215,220,212,229,220,239,245,250",
			"name": "Coordination sequence Gal.6.439.1 where G.u.t.v denotes the coordination sequence for a vertex of type v in tiling number t in the Galebach list of u-uniform tilings.",
			"comment": [
				"Note that there may be other vertices in the Galebach list of u-uniform tilings with u \u003c= 6 that have this same coordination sequence. See the Galebach link for the complete list of A-numbers for all these tilings."
			],
			"link": [
				"Brian Galebach, \u003ca href=\"/A250120/a250120.html\"\u003ek-uniform tilings (k \u003c= 6) and their A-numbers\u003c/a\u003e"
			],
			"keyword": "nonn",
			"offset": "0,2",
			"author": "_Brian Galebach_ and _N. J. A. Sloane_, Jun 18 2018",
			"references": 0,
			"revision": 2,
			"time": "2018-06-25T09:21:51-04:00",
			"created": "2018-06-23T14:05:47-04:00"
		}
	]
}