{
	"greeting": "Greetings from The On-Line Encyclopedia of Integer Sequences! http://oeis.org/",
	"query": "id:A313856",
	"count": 1,
	"start": 0,
	"results": [
		{
			"number": 313856,
			"data": "1,5,10,16,21,25,29,35,42,45,49,57,63,66,68,75,84,85,88,98,105,107,107,115,126,125,127,139,147,148,146,155,168,165,166,180,189,189,185,195,210,205,205,221,231,230,224,235,252,245",
			"name": "Coordination sequence Gal.6.482.5 where G.u.t.v denotes the coordination sequence for a vertex of type v in tiling number t in the Galebach list of u-uniform tilings.",
			"comment": [
				"Note that there may be other vertices in the Galebach list of u-uniform tilings with u \u003c= 6 that have this same coordination sequence. See the Galebach link for the complete list of A-numbers for all these tilings."
			],
			"link": [
				"Brian Galebach, \u003ca href=\"/A250120/a250120.html\"\u003ek-uniform tilings (k \u003c= 6) and their A-numbers\u003c/a\u003e"
			],
			"keyword": "nonn",
			"offset": "0,2",
			"author": "_Brian Galebach_ and _N. J. A. Sloane_, Jun 18 2018",
			"references": 0,
			"revision": 2,
			"time": "2018-06-25T09:21:52-04:00",
			"created": "2018-06-23T14:05:47-04:00"
		}
	]
}