{
	"greeting": "Greetings from The On-Line Encyclopedia of Integer Sequences! http://oeis.org/",
	"query": "id:A314360",
	"count": 1,
	"start": 0,
	"results": [
		{
			"number": 314360,
			"data": "1,5,7,15,17,21,27,32,32,43,44,44,59,54,60,70,69,71,85,83,81,102,93,97,114,106,110,128,120,120,144,132,134,157,145,147,172,157,159,187,169,173,199,184,184,215,196,196,231,206",
			"name": "Coordination sequence Gal.4.113.4 where G.u.t.v denotes the coordination sequence for a vertex of type v in tiling number t in the Galebach list of u-uniform tilings.",
			"comment": [
				"Note that there may be other vertices in the Galebach list of u-uniform tilings with u \u003c= 6 that have this same coordination sequence. See the Galebach link for the complete list of A-numbers for all these tilings."
			],
			"link": [
				"Brian Galebach, \u003ca href=\"/A250120/a250120.html\"\u003ek-uniform tilings (k \u003c= 6) and their A-numbers\u003c/a\u003e"
			],
			"keyword": "nonn",
			"offset": "0,2",
			"author": "_Brian Galebach_ and _N. J. A. Sloane_, Jun 18 2018",
			"references": 0,
			"revision": 2,
			"time": "2018-06-25T09:21:54-04:00",
			"created": "2018-06-23T14:05:47-04:00"
		}
	]
}