{
	"greeting": "Greetings from The On-Line Encyclopedia of Integer Sequences! http://oeis.org/",
	"query": "id:A314377",
	"count": 1,
	"start": 0,
	"results": [
		{
			"number": 314377,
			"data": "1,5,8,10,12,14,18,25,32,35,34,34,36,38,44,55,64,65,60,58,60,62,70,85,96,95,86,82,84,86,96,115,128,125,112,106,108,110,122,145,160,155,138,130,132,134,148,175,192,185",
			"name": "Coordination sequence Gal.6.109.6 where G.u.t.v denotes the coordination sequence for a vertex of type v in tiling number t in the Galebach list of u-uniform tilings.",
			"comment": [
				"Note that there may be other vertices in the Galebach list of u-uniform tilings with u \u003c= 6 that have this same coordination sequence. See the Galebach link for the complete list of A-numbers for all these tilings."
			],
			"link": [
				"Brian Galebach, \u003ca href=\"/A250120/a250120.html\"\u003ek-uniform tilings (k \u003c= 6) and their A-numbers\u003c/a\u003e"
			],
			"formula": [
				"Conjectures from _Chai Wah Wu_, Apr 10 2021: (Start)",
				"a(n) = 2*a(n-1) - 3*a(n-2) + 4*a(n-3) - 5*a(n-4) + 6*a(n-5) - 7*a(n-6) + 8*a(n-7) - 7*a(n-8) + 6*a(n-9) - 5*a(n-10) + 4*a(n-11) - 3*a(n-12) + 2*a(n-13) - a(n-14) for n \u003e 14.",
				"G.f.: (x^14 + 3*x^13 + x^12 + 5*x^11 + x^10 + 7*x^9 + 3*x^8 + 12*x^7 + 3*x^6 + 7*x^5 + x^4 + 5*x^3 + x^2 + 3*x + 1)/((x - 1)^2*(x^2 + 1)^2*(x^4 + 1)^2). (End)"
			],
			"keyword": "nonn",
			"offset": "0,2",
			"author": "_Brian Galebach_ and _N. J. A. Sloane_, Jun 18 2018",
			"references": 0,
			"revision": 9,
			"time": "2021-10-05T11:52:36-04:00",
			"created": "2018-06-23T14:05:47-04:00"
		}
	]
}