{
	"greeting": "Greetings from The On-Line Encyclopedia of Integer Sequences! http://oeis.org/",
	"query": "id:A314667",
	"count": 1,
	"start": 0,
	"results": [
		{
			"number": 314667,
			"data": "1,5,9,13,17,20,28,32,37,41,45,48,52,64,64,68,72,75,82,85,95,95,100,103,107,118,117,126,126,130,137,140,149,148,158,157,162,173,172,180,179,188,191,195,204,203,212,210,220,227",
			"name": "Coordination sequence Gal.6.29.3 where G.u.t.v denotes the coordination sequence for a vertex of type v in tiling number t in the Galebach list of u-uniform tilings.",
			"comment": [
				"Note that there may be other vertices in the Galebach list of u-uniform tilings with u \u003c= 6 that have this same coordination sequence. See the Galebach link for the complete list of A-numbers for all these tilings."
			],
			"link": [
				"Brian Galebach, \u003ca href=\"/A250120/a250120.html\"\u003ek-uniform tilings (k \u003c= 6) and their A-numbers\u003c/a\u003e"
			],
			"keyword": "nonn",
			"offset": "0,2",
			"author": "_Brian Galebach_ and _N. J. A. Sloane_, Jun 18 2018",
			"references": 0,
			"revision": 2,
			"time": "2018-06-25T09:21:55-04:00",
			"created": "2018-06-23T14:05:47-04:00"
		}
	]
}