{
	"greeting": "Greetings from The On-Line Encyclopedia of Integer Sequences! http://oeis.org/",
	"query": "id:A314235",
	"count": 1,
	"start": 0,
	"results": [
		{
			"number": 314235,
			"data": "1,5,11,17,23,28,32,38,46,51,54,60,68,74,77,81,89,97,100,103,111,119,123,126,132,140,146,149,154,162,168,172,177,183,189,195,200,205,211,217,223,228,232,238,246,251,254,260,268,274",
			"name": "Coordination sequence Gal.5.144.4 where G.u.t.v denotes the coordination sequence for a vertex of type v in tiling number t in the Galebach list of u-uniform tilings.",
			"comment": [
				"Note that there may be other vertices in the Galebach list of u-uniform tilings with u \u003c= 6 that have this same coordination sequence. See the Galebach link for the complete list of A-numbers for all these tilings."
			],
			"link": [
				"Brian Galebach, \u003ca href=\"/A250120/a250120.html\"\u003ek-uniform tilings (k \u003c= 6) and their A-numbers\u003c/a\u003e"
			],
			"keyword": "nonn",
			"offset": "0,2",
			"author": "_Brian Galebach_ and _N. J. A. Sloane_, Jun 18 2018",
			"references": 0,
			"revision": 2,
			"time": "2018-06-25T09:21:53-04:00",
			"created": "2018-06-23T14:05:47-04:00"
		}
	]
}