{
	"greeting": "Greetings from The On-Line Encyclopedia of Integer Sequences! http://oeis.org/",
	"query": "id:A314416",
	"count": 1,
	"start": 0,
	"results": [
		{
			"number": 314416,
			"data": "1,5,8,12,19,23,29,33,35,41,46,53,54,59,67,66,78,77,78,93,90,101,100,101,115,112,127,121,125,140,132,152,143,146,166,156,174,166,169,187,180,200,187,192,212,200,224,211,213,238",
			"name": "Coordination sequence Gal.6.515.6 where G.u.t.v denotes the coordination sequence for a vertex of type v in tiling number t in the Galebach list of u-uniform tilings.",
			"comment": [
				"Note that there may be other vertices in the Galebach list of u-uniform tilings with u \u003c= 6 that have this same coordination sequence. See the Galebach link for the complete list of A-numbers for all these tilings."
			],
			"link": [
				"Brian Galebach, \u003ca href=\"/A250120/a250120.html\"\u003ek-uniform tilings (k \u003c= 6) and their A-numbers\u003c/a\u003e"
			],
			"keyword": "nonn",
			"offset": "0,2",
			"author": "_Brian Galebach_ and _N. J. A. Sloane_, Jun 18 2018",
			"references": 0,
			"revision": 2,
			"time": "2018-06-25T09:21:54-04:00",
			"created": "2018-06-23T14:05:47-04:00"
		}
	]
}