{
	"greeting": "Greetings from The On-Line Encyclopedia of Integer Sequences! http://oeis.org/",
	"query": "id:A314645",
	"count": 1,
	"start": 0,
	"results": [
		{
			"number": 314645,
			"data": "1,5,9,12,20,23,27,30,36,44,44,50,53,60,65,66,74,76,83,86,90,97,98,105,109,115,118,120,128,133,137,139,145,151,155,158,163,169,172,178,181,187,190,194,202,204,210,211,218,225",
			"name": "Coordination sequence Gal.5.251.5 where G.u.t.v denotes the coordination sequence for a vertex of type v in tiling number t in the Galebach list of u-uniform tilings.",
			"comment": [
				"Note that there may be other vertices in the Galebach list of u-uniform tilings with u \u003c= 6 that have this same coordination sequence. See the Galebach link for the complete list of A-numbers for all these tilings."
			],
			"link": [
				"Brian Galebach, \u003ca href=\"/A250120/a250120.html\"\u003ek-uniform tilings (k \u003c= 6) and their A-numbers\u003c/a\u003e"
			],
			"keyword": "nonn",
			"offset": "0,2",
			"author": "_Brian Galebach_ and _N. J. A. Sloane_, Jun 18 2018",
			"references": 0,
			"revision": 2,
			"time": "2018-06-25T09:21:55-04:00",
			"created": "2018-06-23T14:05:47-04:00"
		}
	]
}