{
	"greeting": "Greetings from The On-Line Encyclopedia of Integer Sequences! http://oeis.org/",
	"query": "id:A314257",
	"count": 1,
	"start": 0,
	"results": [
		{
			"number": 314257,
			"data": "1,5,11,18,22,27,33,41,46,50,55,63,69,74,78,85,91,96,101,107,114,118,123,129,137,142,146,151,159,165,170,174,181,187,192,197,203,210,214,219,225,233,238,242,247,255,261,266,270,277",
			"name": "Coordination sequence Gal.4.148.1 where G.u.t.v denotes the coordination sequence for a vertex of type v in tiling number t in the Galebach list of u-uniform tilings.",
			"comment": [
				"Note that there may be other vertices in the Galebach list of u-uniform tilings with u \u003c= 6 that have this same coordination sequence. See the Galebach link for the complete list of A-numbers for all these tilings."
			],
			"link": [
				"Brian Galebach, \u003ca href=\"/A250120/a250120.html\"\u003ek-uniform tilings (k \u003c= 6) and their A-numbers\u003c/a\u003e"
			],
			"keyword": "nonn",
			"offset": "0,2",
			"author": "_Brian Galebach_ and _N. J. A. Sloane_, Jun 18 2018",
			"references": 0,
			"revision": 2,
			"time": "2018-06-25T09:21:53-04:00",
			"created": "2018-06-23T14:05:47-04:00"
		}
	]
}