{
	"greeting": "Greetings from The On-Line Encyclopedia of Integer Sequences! http://oeis.org/",
	"query": "id:A314260",
	"count": 1,
	"start": 0,
	"results": [
		{
			"number": 314260,
			"data": "1,5,11,18,23,27,32,41,45,48,57,63,68,71,77,86,89,93,102,109,111,116,123,129,134,139,147,152,157,161,166,175,179,184,191,197,202,205,211,220,225,227,236,243,245,250,257,265,268,273",
			"name": "Coordination sequence Gal.4.147.1 where G.u.t.v denotes the coordination sequence for a vertex of type v in tiling number t in the Galebach list of u-uniform tilings.",
			"comment": [
				"Note that there may be other vertices in the Galebach list of u-uniform tilings with u \u003c= 6 that have this same coordination sequence. See the Galebach link for the complete list of A-numbers for all these tilings."
			],
			"link": [
				"Brian Galebach, \u003ca href=\"/A250120/a250120.html\"\u003ek-uniform tilings (k \u003c= 6) and their A-numbers\u003c/a\u003e"
			],
			"keyword": "nonn",
			"offset": "0,2",
			"author": "_Brian Galebach_ and _N. J. A. Sloane_, Jun 18 2018",
			"references": 0,
			"revision": 2,
			"time": "2018-06-25T09:21:53-04:00",
			"created": "2018-06-23T14:05:47-04:00"
		}
	]
}