{
	"greeting": "Greetings from The On-Line Encyclopedia of Integer Sequences! http://oeis.org/",
	"query": "id:A314354",
	"count": 1,
	"start": 0,
	"results": [
		{
			"number": 314354,
			"data": "1,5,7,15,14,22,23,28,33,35,41,42,52,49,60,61,63,71,68,80,77,88,89,91,101,96,110,105,116,117,119,127,124,140,131,148,145,147,157,150,168,159,176,173,175,187,178,198,187,204",
			"name": "Coordination sequence Gal.5.8.4 where G.u.t.v denotes the coordination sequence for a vertex of type v in tiling number t in the Galebach list of u-uniform tilings.",
			"comment": [
				"Note that there may be other vertices in the Galebach list of u-uniform tilings with u \u003c= 6 that have this same coordination sequence. See the Galebach link for the complete list of A-numbers for all these tilings."
			],
			"link": [
				"Brian Galebach, \u003ca href=\"/A250120/a250120.html\"\u003ek-uniform tilings (k \u003c= 6) and their A-numbers\u003c/a\u003e"
			],
			"keyword": "nonn",
			"offset": "0,2",
			"author": "_Brian Galebach_ and _N. J. A. Sloane_, Jun 18 2018",
			"references": 0,
			"revision": 2,
			"time": "2018-06-25T09:21:54-04:00",
			"created": "2018-06-23T14:05:47-04:00"
		}
	]
}