{
	"greeting": "Greetings from The On-Line Encyclopedia of Integer Sequences! http://oeis.org/",
	"query": "id:A314551",
	"count": 1,
	"start": 0,
	"results": [
		{
			"number": 314551,
			"data": "1,5,8,15,19,24,29,34,38,45,48,53,62,62,67,77,77,82,91,92,95,107,106,110,122,121,126,137,135,140,153,150,153,169,163,168,184,178,182,200,194,196,215,208,211,231,221,226,245,236",
			"name": "Coordination sequence Gal.6.597.3 where G.u.t.v denotes the coordination sequence for a vertex of type v in tiling number t in the Galebach list of u-uniform tilings.",
			"comment": [
				"Note that there may be other vertices in the Galebach list of u-uniform tilings with u \u003c= 6 that have this same coordination sequence. See the Galebach link for the complete list of A-numbers for all these tilings."
			],
			"link": [
				"Brian Galebach, \u003ca href=\"/A250120/a250120.html\"\u003ek-uniform tilings (k \u003c= 6) and their A-numbers\u003c/a\u003e"
			],
			"keyword": "nonn",
			"offset": "0,2",
			"author": "_Brian Galebach_ and _N. J. A. Sloane_, Jun 18 2018",
			"references": 0,
			"revision": 2,
			"time": "2018-06-25T09:21:55-04:00",
			"created": "2018-06-23T14:05:47-04:00"
		}
	]
}