{
	"greeting": "Greetings from The On-Line Encyclopedia of Integer Sequences! http://oeis.org/",
	"query": "id:A314031",
	"count": 1,
	"start": 0,
	"results": [
		{
			"number": 314031,
			"data": "1,5,11,15,20,26,30,34,40,45,49,55,60,65,71,75,80,86,90,94,100,105,109,115,120,125,131,135,140,146,150,154,160,165,169,175,180,185,191,195,200,206,210,214,220,225,229,235,240,245",
			"name": "Coordination sequence Gal.6.340.5 where G.u.t.v denotes the coordination sequence for a vertex of type v in tiling number t in the Galebach list of u-uniform tilings.",
			"comment": [
				"Note that there may be other vertices in the Galebach list of u-uniform tilings with u \u003c= 6 that have this same coordination sequence. See the Galebach link for the complete list of A-numbers for all these tilings."
			],
			"link": [
				"Brian Galebach, \u003ca href=\"/A250120/a250120.html\"\u003ek-uniform tilings (k \u003c= 6) and their A-numbers\u003c/a\u003e"
			],
			"keyword": "nonn",
			"offset": "0,2",
			"author": "_Brian Galebach_ and _N. J. A. Sloane_, Jun 18 2018",
			"references": 0,
			"revision": 2,
			"time": "2018-06-25T09:21:53-04:00",
			"created": "2018-06-23T14:05:47-04:00"
		}
	]
}