{
	"greeting": "Greetings from The On-Line Encyclopedia of Integer Sequences! http://oeis.org/",
	"query": "id:A314508",
	"count": 1,
	"start": 0,
	"results": [
		{
			"number": 314508,
			"data": "1,5,8,14,19,22,31,36,34,43,52,51,56,64,67,72,77,80,88,93,92,101,110,108,113,122,125,130,134,137,146,151,150,158,167,166,171,180,182,187,192,195,204,208,207,216,225,224,228,237",
			"name": "Coordination sequence Gal.3.25.3 where G.u.t.v denotes the coordination sequence for a vertex of type v in tiling number t in the Galebach list of u-uniform tilings.",
			"comment": [
				"Note that there may be other vertices in the Galebach list of u-uniform tilings with u \u003c= 6 that have this same coordination sequence. See the Galebach link for the complete list of A-numbers for all these tilings."
			],
			"link": [
				"Brian Galebach, \u003ca href=\"/A250120/a250120.html\"\u003ek-uniform tilings (k \u003c= 6) and their A-numbers\u003c/a\u003e"
			],
			"keyword": "nonn",
			"offset": "0,2",
			"author": "_Brian Galebach_ and _N. J. A. Sloane_, Jun 18 2018",
			"references": 0,
			"revision": 2,
			"time": "2018-06-25T09:21:55-04:00",
			"created": "2018-06-23T14:05:47-04:00"
		}
	]
}