{
	"greeting": "Greetings from The On-Line Encyclopedia of Integer Sequences! http://oeis.org/",
	"query": "id:A314966",
	"count": 1,
	"start": 0,
	"results": [
		{
			"number": 314966,
			"data": "1,5,9,14,20,26,29,34,40,47,51,53,61,66,71,76,79,87,90,95,103,105,111,114,121,130,129,135,140,147,155,153,161,166,171,180,179,187,190,195,207,205,211,214,221,234,229,235,240,247",
			"name": "Coordination sequence Gal.6.471.3 where G.u.t.v denotes the coordination sequence for a vertex of type v in tiling number t in the Galebach list of u-uniform tilings.",
			"comment": [
				"Note that there may be other vertices in the Galebach list of u-uniform tilings with u \u003c= 6 that have this same coordination sequence. See the Galebach link for the complete list of A-numbers for all these tilings."
			],
			"link": [
				"Brian Galebach, \u003ca href=\"/A250120/a250120.html\"\u003ek-uniform tilings (k \u003c= 6) and their A-numbers\u003c/a\u003e"
			],
			"keyword": "nonn",
			"offset": "0,2",
			"author": "_Brian Galebach_ and _N. J. A. Sloane_, Jun 18 2018",
			"references": 0,
			"revision": 2,
			"time": "2018-06-25T09:21:56-04:00",
			"created": "2018-06-23T14:05:47-04:00"
		}
	]
}