{
	"greeting": "Greetings from The On-Line Encyclopedia of Integer Sequences! http://oeis.org/",
	"query": "id:A314986",
	"count": 1,
	"start": 0,
	"results": [
		{
			"number": 314986,
			"data": "1,5,9,14,21,25,32,35,43,46,51,57,62,65,71,78,79,89,92,99,103,108,113,117,122,127,135,136,145,149,154,159,165,170,173,179,184,189,193,202,205,211,216,221,225,230,235,241,246,249",
			"name": "Coordination sequence Gal.6.491.3 where G.u.t.v denotes the coordination sequence for a vertex of type v in tiling number t in the Galebach list of u-uniform tilings.",
			"comment": [
				"Note that there may be other vertices in the Galebach list of u-uniform tilings with u \u003c= 6 that have this same coordination sequence. See the Galebach link for the complete list of A-numbers for all these tilings."
			],
			"link": [
				"Brian Galebach, \u003ca href=\"/A250120/a250120.html\"\u003ek-uniform tilings (k \u003c= 6) and their A-numbers\u003c/a\u003e"
			],
			"keyword": "nonn",
			"offset": "0,2",
			"author": "_Brian Galebach_ and _N. J. A. Sloane_, Jun 18 2018",
			"references": 0,
			"revision": 2,
			"time": "2018-06-25T09:21:56-04:00",
			"created": "2018-06-23T14:05:47-04:00"
		}
	]
}