{
	"greeting": "Greetings from The On-Line Encyclopedia of Integer Sequences! http://oeis.org/",
	"query": "id:A314464",
	"count": 1,
	"start": 0,
	"results": [
		{
			"number": 314464,
			"data": "1,5,8,13,21,23,28,37,39,43,51,56,55,69,67,74,79,88,82,101,96,104,108,119,110,132,125,134,137,151,137,164,153,165,165,183,164,196,182,195,194,214,192,227,211,225,223,246,219,259",
			"name": "Coordination sequence Gal.6.562.3 where G.u.t.v denotes the coordination sequence for a vertex of type v in tiling number t in the Galebach list of u-uniform tilings.",
			"comment": [
				"Note that there may be other vertices in the Galebach list of u-uniform tilings with u \u003c= 6 that have this same coordination sequence. See the Galebach link for the complete list of A-numbers for all these tilings."
			],
			"link": [
				"Brian Galebach, \u003ca href=\"/A250120/a250120.html\"\u003ek-uniform tilings (k \u003c= 6) and their A-numbers\u003c/a\u003e"
			],
			"keyword": "nonn",
			"offset": "0,2",
			"author": "_Brian Galebach_ and _N. J. A. Sloane_, Jun 18 2018",
			"references": 0,
			"revision": 2,
			"time": "2018-06-25T09:21:54-04:00",
			"created": "2018-06-23T14:05:47-04:00"
		}
	]
}