{
	"greeting": "Greetings from The On-Line Encyclopedia of Integer Sequences! http://oeis.org/",
	"query": "id:A314961",
	"count": 1,
	"start": 0,
	"results": [
		{
			"number": 314961,
			"data": "1,5,9,14,20,25,30,36,41,45,50,55,59,64,70,75,80,86,91,95,100,105,109,114,120,125,130,136,141,145,150,155,159,164,170,175,180,186,191,195,200,205,209,214,220,225,230,236,241,245",
			"name": "Coordination sequence Gal.5.137.2 where G.u.t.v denotes the coordination sequence for a vertex of type v in tiling number t in the Galebach list of u-uniform tilings.",
			"comment": [
				"Note that there may be other vertices in the Galebach list of u-uniform tilings with u \u003c= 6 that have this same coordination sequence. See the Galebach link for the complete list of A-numbers for all these tilings."
			],
			"link": [
				"Brian Galebach, \u003ca href=\"/A250120/a250120.html\"\u003ek-uniform tilings (k \u003c= 6) and their A-numbers\u003c/a\u003e"
			],
			"keyword": "nonn",
			"offset": "0,2",
			"author": "_Brian Galebach_ and _N. J. A. Sloane_, Jun 18 2018",
			"references": 0,
			"revision": 2,
			"time": "2018-06-25T09:21:56-04:00",
			"created": "2018-06-23T14:05:47-04:00"
		}
	]
}