{
	"greeting": "Greetings from The On-Line Encyclopedia of Integer Sequences! http://oeis.org/",
	"query": "id:A314033",
	"count": 1,
	"start": 0,
	"results": [
		{
			"number": 314033,
			"data": "1,5,11,15,20,26,31,35,39,43,48,56,62,66,70,73,79,87,93,96,98,101,107,117,124,127,129,131,138,148,155,157,157,159,166,178,186,188,188,189,197,209,217,218,216,217,225,239,248,249",
			"name": "Coordination sequence Gal.6.494.6 where G.u.t.v denotes the coordination sequence for a vertex of type v in tiling number t in the Galebach list of u-uniform tilings.",
			"comment": [
				"Note that there may be other vertices in the Galebach list of u-uniform tilings with u \u003c= 6 that have this same coordination sequence. See the Galebach link for the complete list of A-numbers for all these tilings."
			],
			"link": [
				"Brian Galebach, \u003ca href=\"/A250120/a250120.html\"\u003ek-uniform tilings (k \u003c= 6) and their A-numbers\u003c/a\u003e"
			],
			"keyword": "nonn",
			"offset": "0,2",
			"author": "_Brian Galebach_ and _N. J. A. Sloane_, Jun 18 2018",
			"references": 0,
			"revision": 2,
			"time": "2018-06-25T09:21:53-04:00",
			"created": "2018-06-23T14:05:47-04:00"
		}
	]
}