{
	"greeting": "Greetings from The On-Line Encyclopedia of Integer Sequences! http://oeis.org/",
	"query": "id:A314784",
	"count": 1,
	"start": 0,
	"results": [
		{
			"number": 314784,
			"data": "1,5,9,13,21,22,29,32,41,38,49,51,59,57,70,69,77,75,91,84,99,94,111,100,119,113,127,121,140,131,145,139,161,144,169,158,181,160,189,177,195,183,210,195,213,201,231,206,239,220",
			"name": "Coordination sequence Gal.6.365.3 where G.u.t.v denotes the coordination sequence for a vertex of type v in tiling number t in the Galebach list of u-uniform tilings.",
			"comment": [
				"Note that there may be other vertices in the Galebach list of u-uniform tilings with u \u003c= 6 that have this same coordination sequence. See the Galebach link for the complete list of A-numbers for all these tilings."
			],
			"link": [
				"Brian Galebach, \u003ca href=\"/A250120/a250120.html\"\u003ek-uniform tilings (k \u003c= 6) and their A-numbers\u003c/a\u003e"
			],
			"keyword": "nonn",
			"offset": "0,2",
			"author": "_Brian Galebach_ and _N. J. A. Sloane_, Jun 18 2018",
			"references": 0,
			"revision": 2,
			"time": "2018-06-25T09:21:55-04:00",
			"created": "2018-06-23T14:05:47-04:00"
		}
	]
}