{
	"greeting": "Greetings from The On-Line Encyclopedia of Integer Sequences! http://oeis.org/",
	"query": "id:A315806",
	"count": 1,
	"start": 0,
	"results": [
		{
			"number": 315806,
			"data": "1,6,6,14,14,22,26,30,34,34,48,42,50,58,54,70,66,70,74,78,92,86,94,94,98,114,106,114,118,118,136,130,130,138,142,158,150,154,158,158,184,170,174,182,178,206,190,194,202,202",
			"name": "Coordination sequence Gal.4.4.4 where G.u.t.v denotes the coordination sequence for a vertex of type v in tiling number t in the Galebach list of u-uniform tilings.",
			"comment": [
				"Note that there may be other vertices in the Galebach list of u-uniform tilings with u \u003c= 6 that have this same coordination sequence. See the Galebach link for the complete list of A-numbers for all these tilings."
			],
			"link": [
				"Brian Galebach, \u003ca href=\"/A250120/a250120.html\"\u003ek-uniform tilings (k \u003c= 6) and their A-numbers\u003c/a\u003e"
			],
			"keyword": "nonn",
			"offset": "0,2",
			"author": "_Brian Galebach_ and _N. J. A. Sloane_, Jun 18 2018",
			"references": 0,
			"revision": 2,
			"time": "2018-06-25T09:21:58-04:00",
			"created": "2018-06-23T14:05:47-04:00"
		}
	]
}