{
	"greeting": "Greetings from The On-Line Encyclopedia of Integer Sequences! http://oeis.org/",
	"query": "id:A315000",
	"count": 1,
	"start": 0,
	"results": [
		{
			"number": 315000,
			"data": "1,5,9,15,18,22,27,33,36,42,47,53,58,61,64,69,76,77,85,88,96,102,102,106,113,118,118,128,129,139,145,144,147,157,162,158,171,170,182,188,185,189,200,206,200,213,211,225,231,226",
			"name": "Coordination sequence Gal.6.294.4 where G.u.t.v denotes the coordination sequence for a vertex of type v in tiling number t in the Galebach list of u-uniform tilings.",
			"comment": [
				"Note that there may be other vertices in the Galebach list of u-uniform tilings with u \u003c= 6 that have this same coordination sequence. See the Galebach link for the complete list of A-numbers for all these tilings."
			],
			"link": [
				"Brian Galebach, \u003ca href=\"/A250120/a250120.html\"\u003ek-uniform tilings (k \u003c= 6) and their A-numbers\u003c/a\u003e"
			],
			"keyword": "nonn",
			"offset": "0,2",
			"author": "_Brian Galebach_ and _N. J. A. Sloane_, Jun 18 2018",
			"references": 0,
			"revision": 2,
			"time": "2018-06-25T09:21:56-04:00",
			"created": "2018-06-23T14:05:47-04:00"
		}
	]
}