{
	"greeting": "Greetings from The On-Line Encyclopedia of Integer Sequences! http://oeis.org/",
	"query": "id:A315695",
	"count": 1,
	"start": 0,
	"results": [
		{
			"number": 315695,
			"data": "1,6,12,17,23,27,33,37,43,48,54,60,66,72,77,83,87,93,97,103,108,114,120,126,132,137,143,147,153,157,163,168,174,180,186,192,197,203,207,213,217,223,228,234,240,246,252,257,263,267",
			"name": "Coordination sequence Gal.6.620.5 where G.u.t.v denotes the coordination sequence for a vertex of type v in tiling number t in the Galebach list of u-uniform tilings.",
			"comment": [
				"Note that there may be other vertices in the Galebach list of u-uniform tilings with u \u003c= 6 that have this same coordination sequence. See the Galebach link for the complete list of A-numbers for all these tilings."
			],
			"link": [
				"Brian Galebach, \u003ca href=\"/A250120/a250120.html\"\u003ek-uniform tilings (k \u003c= 6) and their A-numbers\u003c/a\u003e"
			],
			"keyword": "nonn",
			"offset": "0,2",
			"author": "_Brian Galebach_ and _N. J. A. Sloane_, Jun 18 2018",
			"references": 0,
			"revision": 2,
			"time": "2018-06-25T09:21:57-04:00",
			"created": "2018-06-23T14:05:47-04:00"
		}
	]
}