{
	"greeting": "Greetings from The On-Line Encyclopedia of Integer Sequences! http://oeis.org/",
	"query": "id:A315195",
	"count": 1,
	"start": 0,
	"results": [
		{
			"number": 315195,
			"data": "1,6,10,14,19,24,29,34,38,42,48,54,58,62,67,72,77,82,86,90,96,102,106,110,115,120,125,130,134,138,144,150,154,158,163,168,173,178,182,186,192,198,202,206,211,216,221,226,230,234",
			"name": "Coordination sequence Gal.6.249.4 where G.u.t.v denotes the coordination sequence for a vertex of type v in tiling number t in the Galebach list of u-uniform tilings.",
			"comment": [
				"Note that there may be other vertices in the Galebach list of u-uniform tilings with u \u003c= 6 that have this same coordination sequence. See the Galebach link for the complete list of A-numbers for all these tilings."
			],
			"link": [
				"Brian Galebach, \u003ca href=\"/A250120/a250120.html\"\u003ek-uniform tilings (k \u003c= 6) and their A-numbers\u003c/a\u003e"
			],
			"keyword": "nonn",
			"offset": "0,2",
			"author": "_Brian Galebach_ and _N. J. A. Sloane_, Jun 18 2018",
			"references": 0,
			"revision": 2,
			"time": "2018-06-25T09:21:56-04:00",
			"created": "2018-06-23T14:05:47-04:00"
		}
	]
}