{
	"greeting": "Greetings from The On-Line Encyclopedia of Integer Sequences! http://oeis.org/",
	"query": "id:A315309",
	"count": 1,
	"start": 0,
	"results": [
		{
			"number": 315309,
			"data": "1,6,10,16,20,26,30,36,42,46,52,56,62,66,72,78,82,88,92,98,102,108,114,118,124,128,134,138,144,150,154,160,164,170,174,180,186,190,196,200,206,210,216,222,226,232,236,242,246,252",
			"name": "Coordination sequence Gal.4.133.4 where G.u.t.v denotes the coordination sequence for a vertex of type v in tiling number t in the Galebach list of u-uniform tilings.",
			"comment": [
				"Note that there may be other vertices in the Galebach list of u-uniform tilings with u \u003c= 6 that have this same coordination sequence. See the Galebach link for the complete list of A-numbers for all these tilings."
			],
			"link": [
				"Brian Galebach, \u003ca href=\"/A250120/a250120.html\"\u003ek-uniform tilings (k \u003c= 6) and their A-numbers\u003c/a\u003e"
			],
			"keyword": "nonn",
			"offset": "0,2",
			"author": "_Brian Galebach_ and _N. J. A. Sloane_, Jun 18 2018",
			"references": 0,
			"revision": 2,
			"time": "2018-06-25T09:21:57-04:00",
			"created": "2018-06-23T14:05:47-04:00"
		}
	]
}