{
	"greeting": "Greetings from The On-Line Encyclopedia of Integer Sequences! http://oeis.org/",
	"query": "id:A315822",
	"count": 1,
	"start": 0,
	"results": [
		{
			"number": 315822,
			"data": "1,6,6,18,20,22,30,30,38,42,44,62,58,54,72,66,70,86,88,94,94,98,102,102,116,126,122,130,136,130,138,146,160,158,154,178,166,162,188,190,186,194,204,202,202,214,228,218,222,242",
			"name": "Coordination sequence Gal.6.509.4 where G.u.t.v denotes the coordination sequence for a vertex of type v in tiling number t in the Galebach list of u-uniform tilings.",
			"comment": [
				"Note that there may be other vertices in the Galebach list of u-uniform tilings with u \u003c= 6 that have this same coordination sequence. See the Galebach link for the complete list of A-numbers for all these tilings."
			],
			"link": [
				"Brian Galebach, \u003ca href=\"/A250120/a250120.html\"\u003ek-uniform tilings (k \u003c= 6) and their A-numbers\u003c/a\u003e"
			],
			"keyword": "nonn",
			"offset": "0,2",
			"author": "_Brian Galebach_ and _N. J. A. Sloane_, Jun 18 2018",
			"references": 0,
			"revision": 2,
			"time": "2018-06-25T09:21:58-04:00",
			"created": "2018-06-23T14:05:47-04:00"
		}
	]
}