{
	"greeting": "Greetings from The On-Line Encyclopedia of Integer Sequences! http://oeis.org/",
	"query": "id:A315890",
	"count": 1,
	"start": 0,
	"results": [
		{
			"number": 315890,
			"data": "1,6,8,14,16,22,28,38,40,46,44,50,60,66,68,78,72,82,88,98,92,110,100,114,120,126,120,138,128,146,152,158,144,170,152,178,184,190,172,198,180,206,216,222,200,230,204,238,244,254",
			"name": "Coordination sequence Gal.5.242.4 where G.u.t.v denotes the coordination sequence for a vertex of type v in tiling number t in the Galebach list of u-uniform tilings.",
			"comment": [
				"Note that there may be other vertices in the Galebach list of u-uniform tilings with u \u003c= 6 that have this same coordination sequence. See the Galebach link for the complete list of A-numbers for all these tilings."
			],
			"link": [
				"Brian Galebach, \u003ca href=\"/A250120/a250120.html\"\u003ek-uniform tilings (k \u003c= 6) and their A-numbers\u003c/a\u003e"
			],
			"keyword": "nonn",
			"offset": "0,2",
			"author": "_Brian Galebach_ and _N. J. A. Sloane_, Jun 18 2018",
			"references": 0,
			"revision": 2,
			"time": "2018-06-25T09:21:58-04:00",
			"created": "2018-06-23T14:05:47-04:00"
		}
	]
}