{
	"greeting": "Greetings from The On-Line Encyclopedia of Integer Sequences! http://oeis.org/",
	"query": "id:A316559",
	"count": 1,
	"start": 0,
	"results": [
		{
			"number": 316559,
			"data": "1,5,34,147,251,309,890,10683,2440,2487,3088",
			"name": "Number of abelian subgroups of the group GL(2, Z(n)), counting conjugates as distinct.",
			"program": [
				"(GAP) Concatenation([1], List([2..7], n-\u003eSum( Filtered( ConjugacyClassesSubgroups( GL(2, Integers mod n)), x-\u003eIsAbelian( Representative(x))), Size)));"
			],
			"xref": [
				"Cf. A316536, A316560."
			],
			"keyword": "nonn,more",
			"offset": "1,2",
			"author": "_Andrew Howroyd_, Jul 06 2018",
			"references": 2,
			"revision": 5,
			"time": "2018-07-06T23:13:29-04:00",
			"created": "2018-07-06T23:13:29-04:00"
		}
	]
}