{
	"greeting": "Greetings from The On-Line Encyclopedia of Integer Sequences! http://oeis.org/",
	"query": "id:A316558",
	"count": 1,
	"start": 0,
	"results": [
		{
			"number": 316558,
			"data": "1,85,17467988,2652709797555700,-31887567679999704368444416,-19545503919145188068282045605299993931776,4067279303127129300135103866787550140697786459885666304000,34322785008286059488919151392862698816528603867951539153613244229443277820002304000",
			"name": "Discriminant of characteristic polynomial of n X n matrix containing the first n^2 primes in increasing order.",
			"comment": [
				"a(n) is even for n \u003e= 3."
			],
			"link": [
				"Robert Israel, \u003ca href=\"/A316558/b316558.txt\"\u003eTable of n, a(n) for n = 1..25\u003c/a\u003e"
			],
			"maple": [
				"f:= n -\u003e discrim(LinearAlgebra:-CharacteristicPolynomial(Matrix(n,n,[seq(ithprime(i),i=1..n^2)]),t),t):",
				"map(f, [$1..20]);"
			],
			"program": [
				"(PARI) a(n) = my(k = 0, m = matrix(n, n, x, y, prime(k=k+1))); poldisc(charpoly(m)); \\\\ _Michel Marcus_, Jul 07 2018"
			],
			"xref": [
				"Cf. A067276."
			],
			"keyword": "sign",
			"offset": "1,2",
			"author": "_Robert Israel_, Jul 06 2018",
			"references": 1,
			"revision": 11,
			"time": "2018-07-07T01:48:46-04:00",
			"created": "2018-07-06T17:11:26-04:00"
		}
	]
}