{
	"greeting": "Greetings from The On-Line Encyclopedia of Integer Sequences! http://oeis.org/",
	"query": "id:A316098",
	"count": 1,
	"start": 0,
	"results": [
		{
			"number": 316098,
			"data": "20,36,56,66,80,84,96,104,108,140,156,176,192,200,204,216,224,260,272,276,300,308,320,336,360,368,380,392,396,416,440,444,456,464,476,486,500,516,528,540,546,560,572,576,608,612,620,636,644,650,680,696,704",
			"name": "Abundant numbers that differ from the next abundant number by 4.",
			"link": [
				"Muniru A Asiru, \u003ca href=\"/A316098/b316098.txt\"\u003eTable of n, a(n) for n = 1..10000\u003c/a\u003e"
			],
			"example": [
				"20 is abundant, 21, 22 and 23 are deficient, 24 is abundant.",
				"36 is abundant, 37, 38 and 39 are deficient, 40 is abundant."
			],
			"maple": [
				"with(numtheory):  A:=select(n-\u003esigma(n)\u003e2*n,[$1..800]): a:=seq(A[i],i in select(n-\u003eA[n+1]-A[n]=4,[$1..nops(A)-1]));"
			],
			"mathematica": [
				"q[n_] := DivisorSigma[1,n] \u003e 2 n; Select[Range[704], q[#] \u0026\u0026 q[# + 4] \u0026\u0026 ! q[# + 1] \u0026\u0026 ! q[# + 2] \u0026\u0026 ! q[# + 3] \u0026] (* _Giovanni Resta_, Jul 01 2018 *)"
			],
			"program": [
				"(GAP) A:=Filtered([1..800],n-\u003eSigma(n)\u003e2*n);;  a:=List(Filtered([1..Length(A)-1],i-\u003eA[i+1]-A[i]=4),j-\u003eA[j]);"
			],
			"xref": [
				"Subsequence of A005101.",
				"Abundant numbers that differ from the next abundant number by k: A096399 (k=1), A228382 (k=3), this sequence (k=4), A306497 (k=5), A316099 (k=6)."
			],
			"keyword": "nonn",
			"offset": "1,1",
			"author": "_Muniru A Asiru_, Jun 25 2018",
			"references": 4,
			"revision": 18,
			"time": "2020-03-30T08:48:36-04:00",
			"created": "2018-07-01T10:56:31-04:00"
		}
	]
}