{
	"greeting": "Greetings from The On-Line Encyclopedia of Integer Sequences! http://oeis.org/",
	"query": "id:A316005",
	"count": 1,
	"start": 0,
	"results": [
		{
			"number": 316005,
			"data": "1,6,9,14,20,24,28,31,36,44,50,47,56,62,68,72,71,80,86,94,87,98,104,110,116,111,124,130,136,127,142,146,152,158,151,168,174,180,165,186,190,194,200,189,212,218,224,205,228,234",
			"name": "Coordination sequence Gal.5.75.5 where G.u.t.v denotes the coordination sequence for a vertex of type v in tiling number t in the Galebach list of u-uniform tilings.",
			"comment": [
				"Note that there may be other vertices in the Galebach list of u-uniform tilings with u \u003c= 6 that have this same coordination sequence. See the Galebach link for the complete list of A-numbers for all these tilings."
			],
			"link": [
				"Brian Galebach, \u003ca href=\"/A250120/a250120.html\"\u003ek-uniform tilings (k \u003c= 6) and their A-numbers\u003c/a\u003e"
			],
			"keyword": "nonn",
			"offset": "0,2",
			"author": "_Brian Galebach_ and _N. J. A. Sloane_, Jun 18 2018",
			"references": 0,
			"revision": 2,
			"time": "2018-06-25T09:21:58-04:00",
			"created": "2018-06-23T14:05:47-04:00"
		}
	]
}