{
	"greeting": "Greetings from The On-Line Encyclopedia of Integer Sequences! http://oeis.org/",
	"query": "id:A316026",
	"count": 1,
	"start": 0,
	"results": [
		{
			"number": 316026,
			"data": "1,6,9,15,18,24,30,33,39,42,48,54,57,63,66,72,78,81,87,90,96,102,105,111,114,120,126,129,135,138,144,150,153,159,162,168,174,177,183,186,192,198,201,207,210,216,222,225,231,234",
			"name": "Coordination sequence Gal.3.36.3 where G.u.t.v denotes the coordination sequence for a vertex of type v in tiling number t in the Galebach list of u-uniform tilings.",
			"comment": [
				"Note that there may be other vertices in the Galebach list of u-uniform tilings with u \u003c= 6 that have this same coordination sequence. See the Galebach link for the complete list of A-numbers for all these tilings."
			],
			"link": [
				"Brian Galebach, \u003ca href=\"/A250120/a250120.html\"\u003ek-uniform tilings (k \u003c= 6) and their A-numbers\u003c/a\u003e"
			],
			"keyword": "nonn",
			"offset": "0,2",
			"author": "_Brian Galebach_ and _N. J. A. Sloane_, Jun 18 2018",
			"references": 0,
			"revision": 2,
			"time": "2018-06-25T09:21:58-04:00",
			"created": "2018-06-23T14:05:47-04:00"
		}
	]
}