{
	"greeting": "Greetings from The On-Line Encyclopedia of Integer Sequences! http://oeis.org/",
	"query": "id:A316920",
	"count": 1,
	"start": 0,
	"results": [
		{
			"number": 316920,
			"data": "3,9,13,31,81,184,492,1457,4371,13738,44698,147992,497182,1687343,5760403,19745581,67869355,233664175,805343315,2777680268,9584619952,33081967287,114206172731,394310805436,1361508413616,4701358974926",
			"name": "Number of nX3 0..1 arrays with every element unequal to 0, 1, 3, 4, 5, 6 or 7 king-move adjacent elements, with upper left element zero.",
			"comment": [
				"Column 3 of A316925."
			],
			"link": [
				"R. H. Hardin, \u003ca href=\"/A316920/b316920.txt\"\u003eTable of n, a(n) for n = 1..210\u003c/a\u003e"
			],
			"formula": [
				"Empirical: a(n) = 5*a(n-1) -6*a(n-2) +14*a(n-3) -52*a(n-4) +39*a(n-5) -20*a(n-6) +84*a(n-7) -17*a(n-8) -6*a(n-9) -7*a(n-10) -50*a(n-11) -16*a(n-12) -47*a(n-13) +144*a(n-14) -64*a(n-15) -12*a(n-16) +8*a(n-17) for n\u003e19"
			],
			"example": [
				"Some solutions for n=5",
				"..0..1..1. .0..0..0. .0..1..1. .0..0..1. .0..1..1. .0..0..0. .0..0..0",
				"..1..1..1. .0..0..0. .0..0..1. .0..0..0. .1..1..1. .0..0..0. .0..1..0",
				"..1..1..1. .1..0..0. .1..1..1. .0..0..0. .0..0..1. .0..0..1. .1..1..1",
				"..1..1..1. .0..0..0. .0..0..0. .0..0..1. .1..1..1. .0..0..0. .0..0..0",
				"..1..0..1. .0..0..0. .0..1..0. .0..0..0. .0..1..1. .0..0..0. .0..1..0"
			],
			"xref": [
				"Cf. A316925."
			],
			"keyword": "nonn",
			"offset": "1,1",
			"author": "_R. H. Hardin_, Jul 16 2018",
			"references": 1,
			"revision": 4,
			"time": "2018-07-16T12:50:14-04:00",
			"created": "2018-07-16T12:50:14-04:00"
		}
	]
}