{
	"greeting": "Greetings from The On-Line Encyclopedia of Integer Sequences! http://oeis.org/",
	"query": "id:A316325",
	"count": 1,
	"start": 0,
	"results": [
		{
			"number": 316325,
			"data": "1,3,6,10,12,15,17,20,24,26,29,32,34,37,41,43,46,50,52,55,58,60,63,67,69,72,74,77,81,83,86,89,91,94,98,100,103,105,108,112,114,117,120,122,125,129,131,134,138,140,143,146,148,151,155,157,160,162,165",
			"name": "Indices of 2's in A305389.",
			"link": [
				"Robert Israel, \u003ca href=\"/A316325/b316325.txt\"\u003eTable of n, a(n) for n = 1..10000\u003c/a\u003e"
			],
			"maple": [
				"f:= 'f':",
				"f(1):= 2: f(2):= 3: f(3):= (1,2,3):",
				"S:= [1];",
				"for i from 1 to 5 do T:= map(f,S); U:= map(f,T); S:= map(f,U); od:",
				"select(t -\u003e S[t+1]=2, [$0..nops(S)-1]); # _Robert Israel_, May 07 2019"
			],
			"xref": [
				"Cf. A305389.",
				"A316324, A316325, A316326 have the same relation to A305389 as A003144, A003145, A003146 do to the ternary tribonacci word A080843 (or A092782)."
			],
			"keyword": "nonn",
			"offset": "1,2",
			"author": "_N. J. A. Sloane_, Jul 09 2018",
			"references": 5,
			"revision": 9,
			"time": "2019-05-07T23:13:49-04:00",
			"created": "2018-07-09T22:42:42-04:00"
		}
	]
}