{
	"greeting": "Greetings from The On-Line Encyclopedia of Integer Sequences! http://oeis.org/",
	"query": "id:A316722",
	"count": 1,
	"start": 0,
	"results": [
		{
			"number": 316722,
			"data": "1,1,1,2,3,4,5,7,10,13,16,21,28,35,43,55,70,86,105,130,161,195,234,284,345,412,489,585,698,824,969,1143,1347,1575,1834,2141,2496,2891,3339,3862,4460,5125,5876,6740,7720,8810,10031,11423,12993,14730,16669,18862,21315",
			"name": "Expansion of Product_{k=1..10} (1+x^(2*k-1))/(1-x^(2*k)).",
			"link": [
				"Seiichi Manyama, \u003ca href=\"/A316722/b316722.txt\"\u003eTable of n, a(n) for n = 0..10000\u003c/a\u003e"
			],
			"program": [
				"(PARI) N=99; x='x+O('x^N); Vec(prod(k=1, 10, (1+x^(2*k-1))/(1-x^(2*k))))"
			],
			"xref": [
				"Product_{k=1..b} (1+x^(2*k-1))/(1-x^(2*k)): A000012 (b=1), A004525(n+1) (b=2), A000933(n+5) (b=3), A089597 (b=4), A014670 (b=5), A316718 (b=6), A316719 (b=7), A316720 (b=8), A316721 (b=9), this sequence (b=10).",
				"Cf. A316675."
			],
			"keyword": "nonn",
			"offset": "0,4",
			"author": "_Seiichi Manyama_, Jul 11 2018",
			"references": 6,
			"revision": 9,
			"time": "2018-07-12T02:54:00-04:00",
			"created": "2018-07-11T15:35:15-04:00"
		}
	]
}