{
	"greeting": "Greetings from The On-Line Encyclopedia of Integer Sequences! http://oeis.org/",
	"query": "id:A316539",
	"count": 1,
	"start": 0,
	"results": [
		{
			"number": 316539,
			"data": "1,4,26,136,4219,114514,5074646,681913008,140688693646,48442426003864,36951311160860211",
			"name": "Number of nXn 0..1 arrays with every element unequal to 0, 1, 2, 4, 7 or 8 king-move adjacent elements, with upper left element zero.",
			"comment": [
				"Diagonal of A316545."
			],
			"example": [
				"Some solutions for n=5",
				"..0..0..0..1..1. .0..0..0..0..1. .0..1..1..0..0. .0..1..0..0..0",
				"..0..0..0..0..0. .0..0..0..1..0. .0..0..0..0..0. .0..1..0..0..0",
				"..0..0..0..0..0. .0..0..0..0..0. .0..0..0..0..0. .0..0..0..0..0",
				"..0..0..1..0..1. .0..0..0..1..0. .1..1..0..1..0. .1..0..0..1..0",
				"..0..0..1..0..1. .1..1..0..0..0. .1..1..1..0..0. .1..0..0..1..0"
			],
			"xref": [
				"Cf. A316545."
			],
			"keyword": "nonn",
			"offset": "1,2",
			"author": "_R. H. Hardin_, Jul 06 2018",
			"references": 0,
			"revision": 4,
			"time": "2018-07-06T12:22:56-04:00",
			"created": "2018-07-06T12:22:56-04:00"
		}
	]
}