{
	"greeting": "Greetings from The On-Line Encyclopedia of Integer Sequences! http://oeis.org/",
	"query": "id:A316252",
	"count": 1,
	"start": 0,
	"results": [
		{
			"number": 316252,
			"data": "2,7,8,4,2,1,8,6,9,1,4,5,7,7,1,0,3,6,2,9,3,4,7,1,2,0,7,9,4,9,9,5,2,7,6,9,9,7,2,1,3,3,0,0,6,8,6,0,9,4,7,7,6,7,5,2,0,9,6,7,9,6,7,8,0,8,9,4,7,0,4,6,2,8,4,7,5,0,2,0,0,0,9,4,2,3",
			"name": "Decimal expansion of the least x such that 1/x + 1/(x+2) + 1/(x+3) = 3.",
			"comment": [
				"Equivalently, the least root of 3*x^3 + 12*x^2 + 8 x - 6;",
				"Middle root: A316253;",
				"Greatest root: A316254.",
				"See A305328 for a guide to related sequences."
			],
			"formula": [
				"greatest root: -(4/3) + (4/3) sqrt(2) cos((1/3) arctan(sqrt(391)/11))",
				"****",
				"middle: -(4/3) - (2/3) sqrt(2) cos((1/3) arctan(sqrt(391)/11)) + 2 sqrt(2/3) sin((1/3) arctan(sqrt(391)/11))",
				"****",
				"least: -(4/3) - (2/3) sqrt(2) cos((1/3) arctan(sqrt(391)/11)) - 2 sqrt(2/3) sin((1/3) arctan(sqrt(391)/11))"
			],
			"example": [
				"greatest root: 0.4351172195495135109...",
				"middle root: -1.650898528091803148...",
				"least root: -2.784218691457710362..."
			],
			"mathematica": [
				"a = 1; b = 1; c = 1; u = 0; v = 2; w = 3; d = 3;",
				"r[x_] := a/(x + u) + b/(x + v) + c/(x + w);",
				"t = x /. ComplexExpand[Solve[r[x] == d, x]]",
				"N[t, 20]",
				"y = Re[N[t, 200]];",
				"RealDigits[y[[1]]] (* A316254, greatest *)",
				"RealDigits[y[[2]]] (* A316252, least *)",
				"RealDigits[y[[3]]] (* A316253, middle *)"
			],
			"xref": [
				"Cf. A305328, A316253, A316254."
			],
			"keyword": "nonn,cons",
			"offset": "1,1",
			"author": "_Clark Kimberling_, Sep 08 2018",
			"references": 4,
			"revision": 5,
			"time": "2018-09-08T22:14:47-04:00",
			"created": "2018-09-08T22:14:47-04:00"
		}
	]
}