{
	"greeting": "Greetings from The On-Line Encyclopedia of Integer Sequences! http://oeis.org/",
	"query": "id:A316314",
	"count": 1,
	"start": 0,
	"results": [
		{
			"number": 316314,
			"data": "0,1,1,1,1,3,1,1,1,3,1,4,1,3,3,1,1,4,1,4,3,3,1,5,1,3,1,4,1,5,1,1,3,3,3,5,1,3,3,5,1,7,1,4,4,3,1,6,1,4,3,4,1,5,3,5,3,3,1,8,1,3,4,1,3,7,1,4,3,7,1,7,1,3,4,4,3,7,1,6,1,3,1,8,3,3,3,5,1,7,3,4,3,3,3,7,1,4,4,5,1,7,1,5,5",
			"name": "Number of distinct nonempty-subset-averages of the integer partition with Heinz number n.",
			"comment": [
				"A rational number q is a nonempty-subset-average of an integer partition y if there exists a nonempty submultiset of y with average q.",
				"The Heinz number of an integer partition (y_1,...,y_k) is prime(y_1)*...*prime(y_k)."
			],
			"link": [
				"Antti Karttunen, \u003ca href=\"/A316314/b316314.txt\"\u003eTable of n, a(n) for n = 1..65537\u003c/a\u003e",
				"\u003ca href=\"/index/Pri#prime_indices\"\u003eIndex entries for sequences computed from indices in prime factorization\u003c/a\u003e",
				"\u003ca href=\"/index/He#Heinz\"\u003eIndex entries for sequences related to Heinz numbers\u003c/a\u003e"
			],
			"formula": [
				"a(n) = A316398(n) - 1."
			],
			"example": [
				"The a(42) = 7 subset-averages of (4,2,1) are 1, 3/2, 2, 7/3, 5/2, 3, 4.",
				"The a(72) = 7 subset-averages of (2,2,1,1,1) are 1, 5/4, 4/3, 7/5, 3/2, 5/3, 2."
			],
			"mathematica": [
				"primeMS[n_]:=If[n===1,{},Flatten[Cases[FactorInteger[n],{p_,k_}:\u003eTable[PrimePi[p],{k}]]]];",
				"Table[Length[Union[Mean/@Rest[Subsets[primeMS[n]]]]],{n,100}]"
			],
			"program": [
				"(PARI)",
				"up_to = 65537;",
				"A056239(n) = { my(f); if(1==n, 0, f=factor(n); sum(i=1, #f~, f[i,2] * primepi(f[i,1]))); }",
				"v056239 = vector(up_to,n,A056239(n));",
				"A316314(n) = { my(m=Map(),s,k=0); fordiv(n,d,if((d\u003e1)\u0026\u0026!mapisdefined(m,s = v056239[d]/bigomega(d)), mapput(m,s,s); k++)); (k); }; \\\\ _Antti Karttunen_, Sep 23 2018"
			],
			"xref": [
				"Cf. A032302, A056239, A108917, A122768, A275972, A276024, A296150, A299701, A299702, A301899, A301957, A304793, A316313.",
				"One less than A316398."
			],
			"keyword": "nonn",
			"offset": "1,6",
			"author": "_Gus Wiseman_, Jun 29 2018",
			"ext": [
				"More terms from _Antti Karttunen_, Sep 23 2018"
			],
			"references": 18,
			"revision": 11,
			"time": "2018-09-23T21:26:15-04:00",
			"created": "2018-06-30T20:40:36-04:00"
		}
	]
}