{
	"greeting": "Greetings from The On-Line Encyclopedia of Integer Sequences! http://oeis.org/",
	"query": "id:A316570",
	"count": 1,
	"start": 0,
	"results": [
		{
			"number": 316570,
			"data": "1,3,4,7,6,2,8,5,3,8,2,6,4,8,8,3,8,4,0,8,6,8,8,0,3,8,0,0,0,4,6,8,6,0,6,9,8,0,0,0,8,0,6,6,0,4,6,8,5,4,4,4,0,0,4,0,0,0,0,6,2,0,0,4,6,6,6,2,0,6,4,0,6,4,8,0,0,6,0,6,2,2,6,6,0,6,0",
			"name": "Multiplicative digital root of sigma(n).",
			"comment": [
				"Multiplicative digital root of A000203(n)."
			],
			"formula": [
				"a(n) = A031347(A000203(n))."
			],
			"example": [
				"For n = 12: sigma(12) = 28; a(n) = 6 because 2 * 8 = 16; 1 * 6 = 6."
			],
			"maple": [
				"m:= n-\u003e `if`(n\u003c10, n, m(mul(d, d=convert(n, base, 10)))):",
				"a:= n-\u003e m(numtheory[sigma](n)):",
				"seq(a(n), n=1..100);  # _Alois P. Heinz_, Jul 21 2018"
			],
			"program": [
				"(PARI) a031347(n) = while(n\u003e9, n=prod(i=1, #n=digits(n), n[i])); n;",
				"a(n) = a031347(sigma(n)); \\\\ _Michel Marcus_, Jul 07 2018"
			],
			"xref": [
				"Cf. A000203, A031347.",
				"Cf. A190998 (additive digital root of sigma(n))."
			],
			"keyword": "nonn,base",
			"offset": "1,2",
			"author": "_Jaroslav Krizek_, Jul 07 2018",
			"references": 0,
			"revision": 23,
			"time": "2018-07-21T17:54:07-04:00",
			"created": "2018-07-16T16:33:12-04:00"
		}
	]
}