{
	"greeting": "Greetings from The On-Line Encyclopedia of Integer Sequences! http://oeis.org/",
	"query": "id:A316965",
	"count": 1,
	"start": 0,
	"results": [
		{
			"number": 316965,
			"data": "0,4,3,5,13,10,11,12,14,26,21,22,23,24,25,27,43,36,37,38,39,40,41,42,44,64,55,56,57,58,59,60,61,62,63,65,89,78,79,80,81,82,83,84,85,86,87,88,90,118,105,106,107,108,109,110,111,112,113,114,115,116",
			"name": "Same as A316670, except numbering of the squares starts at 0 rather than 1.",
			"comment": [
				"a(n) = A316670(n+1)-1.",
				"See A316670 for further information."
			],
			"link": [
				"Daniël Karssen, \u003ca href=\"/A316965/b316965.txt\"\u003eTable of n, a(n) for n = 0..999\u003c/a\u003e",
				"Daniël Karssen, \u003ca href=\"/A316965/a316965.svg\"\u003eFigure showing the first 10 steps of the sequence\u003c/a\u003e"
			],
			"xref": [
				"Cf. A316670"
			],
			"keyword": "nonn",
			"offset": "0,2",
			"author": "_Daniël Karssen_, Jul 17 2018",
			"references": 1,
			"revision": 9,
			"time": "2019-01-28T06:43:50-05:00",
			"created": "2018-07-19T03:05:40-04:00"
		}
	]
}