{
	"greeting": "Greetings from The On-Line Encyclopedia of Integer Sequences! http://oeis.org/",
	"query": "id:A317464",
	"count": 1,
	"start": 0,
	"results": [
		{
			"number": 317464,
			"data": "0,702,23769,2461839,217053933,19791556259,1798167135483,163704740864606,14901625879985868,1356614521758787991,123505280880147646092,11243904551087304512854,1023645417762237809385664",
			"name": "Number of nX7 0..1 arrays with every element unequal to 2, 3, 4, 5, 6, 7 or 8 king-move adjacent elements, with upper left element zero.",
			"comment": [
				"Column 7 of A317465."
			],
			"link": [
				"R. H. Hardin, \u003ca href=\"/A317464/b317464.txt\"\u003eTable of n, a(n) for n = 1..210\u003c/a\u003e"
			],
			"example": [
				"Some solutions for n=5",
				"..0..1..0..0..1..1..0. .0..1..1..1..0..1..0. .0..1..1..0..1..0..1",
				"..0..1..0..1..0..0..1. .0..1..0..0..1..0..1. .0..1..0..0..1..1..0",
				"..0..0..0..0..1..0..0. .0..0..0..0..1..0..0. .0..0..0..0..1..0..1",
				"..0..1..0..0..1..1..1. .0..1..0..0..0..1..0. .0..1..0..1..0..0..1",
				"..0..1..1..1..1..0..0. .0..1..1..1..1..0..1. .0..1..0..1..0..0..1"
			],
			"xref": [
				"Cf. A317465."
			],
			"keyword": "nonn",
			"offset": "1,2",
			"author": "_R. H. Hardin_, Jul 28 2018",
			"references": 1,
			"revision": 4,
			"time": "2018-07-28T21:01:37-04:00",
			"created": "2018-07-28T21:01:37-04:00"
		}
	]
}