{
	"greeting": "Greetings from The On-Line Encyclopedia of Integer Sequences! http://oeis.org/",
	"query": "id:A317374",
	"count": 1,
	"start": 0,
	"results": [
		{
			"number": 317374,
			"data": "5,1145,15382,360940,9218534,205048072,4822465183,113269475813,2632551285887,61549245853900,1437353385073449,33549341770653025,783459380604674480,18292712871538837327,427107599362092484477",
			"name": "Number of nX6 0..1 arrays with every element unequal to 1, 2, 3, 4, 6, 7 or 8 king-move adjacent elements, with upper left element zero.",
			"comment": [
				"Column 6 of A317376."
			],
			"link": [
				"R. H. Hardin, \u003ca href=\"/A317374/b317374.txt\"\u003eTable of n, a(n) for n = 1..210\u003c/a\u003e"
			],
			"example": [
				"Some solutions for n=5",
				"..0..0..1..0..1..0. .0..1..1..0..1..0. .0..0..1..0..0..1. .0..1..0..0..0..0",
				"..0..1..0..1..0..0. .0..1..0..0..0..1. .0..1..0..1..1..1. .0..1..0..1..0..1",
				"..0..0..0..0..0..1. .0..0..0..0..1..0. .0..0..0..1..1..0. .0..0..0..1..1..0",
				"..0..0..0..0..1..1. .0..0..1..0..1..0. .0..0..0..1..0..0. .0..0..0..1..1..1",
				"..0..1..1..1..0..1. .0..1..1..0..0..0. .0..1..1..0..1..0. .1..0..0..0..1..0"
			],
			"xref": [
				"Cf. A317376."
			],
			"keyword": "nonn",
			"offset": "1,1",
			"author": "_R. H. Hardin_, Jul 26 2018",
			"references": 1,
			"revision": 4,
			"time": "2018-07-26T16:51:26-04:00",
			"created": "2018-07-26T16:51:26-04:00"
		}
	]
}