{
	"greeting": "Greetings from The On-Line Encyclopedia of Integer Sequences! http://oeis.org/",
	"query": "id:A317357",
	"count": 1,
	"start": 0,
	"results": [
		{
			"number": 317357,
			"data": "4,341,473,6,10,133,497,14,12,15,15,16,18,143,35,20,32,51,57,38,28,77,253,36,30,65,39,36,58,115,155,62,36,187,119,40,74,57,247,52,80,287,2051,86,55,69,69,94,54,175,85,65,65,159,69,70,64,551,1711,72",
			"name": "a(n) is the smallest composite k \u003e n such that 1^(k-1) + 2^(k-1) + ... + n^(k-1) == n (mod k).",
			"comment": [
				"According to the Agoh-Giuga conjecture, a(n) \u003e n+1.",
				"a(n) \u003e A151800(n) for all n \u003c 33.",
				"a(n) \u003c= A271221(n) for n \u003e 1."
			],
			"link": [
				"Chai Wah Wu, \u003ca href=\"/A317357/b317357.txt\"\u003eTable of n, a(n) for n = 1..9661\u003c/a\u003e",
				"Wikipedia, \u003ca href=\"https://en.wikipedia.org/wiki/Agoh%E2%80%93Giuga_conjecture\"\u003eAgoh-Giuga conjecture\u003c/a\u003e"
			],
			"mathematica": [
				"a[n_] := Block[{k = n+1}, While[PrimeQ[k] || Mod[Sum[PowerMod[j, k-1, k], {j, n}], k] != n, k++]; k]; Array[a, 60] (* _Giovanni Resta_, Jul 26 2018 *)"
			],
			"program": [
				"(PARI) a(n) = forcomposite(k=n+1,, if (sum(j=1,n, Mod(j,k)^(k-1)) == n, return (k));); \\\\ _Michel Marcus_, Jul 26 2018",
				"(Python)",
				"from sympy import isprime",
				"def g(n,p,q): # compute (-n + sum_{k=1,n} k^p)  mod q",
				"    c = (-n) % q",
				"    for k in range(1,n+1):",
				"        c = (c+pow(k,p,q)) % q",
				"    return c",
				"def A317357(n):",
				"    k = n+1",
				"    while isprime(k) or g(n,k-1,k):",
				"        k += 1",
				"    return k # _Chai Wah Wu_, Jul 31 2018"
			],
			"xref": [
				"Cf. A151800, A271221, A317058, A317358."
			],
			"keyword": "nonn",
			"offset": "1,1",
			"author": "_Thomas Ordowski_, Jul 26 2018",
			"ext": [
				"More terms from _Giovanni Resta_, Jul 26 2018"
			],
			"references": 5,
			"revision": 34,
			"time": "2018-08-15T22:36:08-04:00",
			"created": "2018-07-29T02:40:07-04:00"
		}
	]
}