{
	"greeting": "Greetings from The On-Line Encyclopedia of Integer Sequences! http://oeis.org/",
	"query": "id:A317859",
	"count": 1,
	"start": 0,
	"results": [
		{
			"number": 317859,
			"data": "2,10,19,56,155,313,851,2147,5513,14288,37168,97738,256043,672477,1769569,4660622,12294064,32431038,85627690,226117938,597377797,1578473210,4171676388,11026596808,29148466909,77059555630,203733482276",
			"name": "Number of nX4 0..1 arrays with every element unequal to 1, 2 or 4 horizontally, vertically or antidiagonally adjacent elements, with upper left element zero.",
			"comment": [
				"Column 4 of A317863."
			],
			"link": [
				"R. H. Hardin, \u003ca href=\"/A317859/b317859.txt\"\u003eTable of n, a(n) for n = 1..210\u003c/a\u003e"
			],
			"example": [
				"Some solutions for n=5",
				"..0..1..1..0. .0..1..0..1. .0..1..0..1. .0..1..0..1. .0..0..0..0",
				"..0..1..0..1. .1..1..1..1. .0..0..0..1. .1..1..1..0. .1..0..1..1",
				"..0..0..1..1. .0..1..0..0. .0..1..1..0. .1..1..1..1. .0..0..1..1",
				"..1..1..1..0. .1..1..0..1. .0..1..1..1. .0..0..1..0. .0..0..1..0",
				"..1..0..1..1. .0..0..0..0. .0..1..1..0. .0..1..1..1. .1..1..1..1"
			],
			"xref": [
				"Cf. A317863."
			],
			"keyword": "nonn",
			"offset": "1,1",
			"author": "_R. H. Hardin_, Aug 09 2018",
			"references": 1,
			"revision": 4,
			"time": "2018-08-09T09:44:38-04:00",
			"created": "2018-08-09T09:44:38-04:00"
		}
	]
}