{
	"greeting": "Greetings from The On-Line Encyclopedia of Integer Sequences! http://oeis.org/",
	"query": "id:A317813",
	"count": 1,
	"start": 0,
	"results": [
		{
			"number": 317813,
			"data": "1,10,8,56,94,142,434,1071,2279,6087,15953,40210,104488,270430,701710,1825318,4749330,12368352,32279336,84388645,220794188,577879166,1513375097,3965597997,10397097617,27277536409,71596450975,187986384248",
			"name": "Number of nX6 0..1 arrays with every element unequal to 0, 2 or 3 horizontally, vertically or antidiagonally adjacent elements, with upper left element zero.",
			"comment": [
				"Column 6 of A317815."
			],
			"link": [
				"R. H. Hardin, \u003ca href=\"/A317813/b317813.txt\"\u003eTable of n, a(n) for n = 1..210\u003c/a\u003e"
			],
			"example": [
				"Some solutions for n=5",
				"..0..0..1..0..0..0. .0..1..0..1..0..0. .0..1..0..0..0..1. .0..0..0..1..0..1",
				"..0..1..1..0..0..0. .1..0..0..1..1..1. .1..1..0..0..1..0. .0..0..1..1..0..0",
				"..1..1..1..1..1..1. .1..0..1..1..0..0. .0..1..1..1..1..0. .0..1..1..1..0..1",
				"..0..0..0..1..1..0. .0..0..1..0..0..1. .0..1..0..0..1..1. .1..1..1..0..0..1",
				"..0..0..0..1..0..0. .1..0..1..0..1..0. .1..0..0..0..1..0. .0..0..1..0..1..0"
			],
			"xref": [
				"Cf. A317815."
			],
			"keyword": "nonn",
			"offset": "1,2",
			"author": "_R. H. Hardin_, Aug 07 2018",
			"references": 1,
			"revision": 4,
			"time": "2018-08-07T21:58:53-04:00",
			"created": "2018-08-07T21:58:53-04:00"
		}
	]
}