{
	"greeting": "Greetings from The On-Line Encyclopedia of Integer Sequences! http://oeis.org/",
	"query": "id:A317838",
	"count": 1,
	"start": 0,
	"results": [
		{
			"number": 317838,
			"data": "1,2,3,3,4,6,4,4,7,8,6,9,6,8,10,5,6,14,8,12,14,12,8,12,11,12,15,12,8,20,6,6,14,12,16,21,12,16,18,16,12,28,14,18,26,16,10,15,13,22,20,18,14,30,20,16,20,16,12,30,10,12,24,7,16,28,12,18,24,32,14,28,16,24,35,24,26,36,14,20,29,24,20,42,30,28,28,24",
			"name": "a(n) = Sum_{d|n} A002487(d).",
			"comment": [
				"Inverse Möbius transform of A002487, Stern's Diatomic sequence."
			],
			"link": [
				"Antti Karttunen, \u003ca href=\"/A317838/b317838.txt\"\u003eTable of n, a(n) for n = 1..16384\u003c/a\u003e",
				"\u003ca href=\"/index/St#Stern\"\u003eIndex entries for sequences related to Stern's sequences\u003c/a\u003e"
			],
			"formula": [
				"a(n) = Sum_{d|n} A002487(d).",
				"a(n) = A317837(n) + A002487(n)."
			],
			"program": [
				"(PARI)",
				"A002487(n) = { my(a=1, b=0); while(n\u003e0, if(bitand(n, 1), b+=a, a+=b); n\u003e\u003e=1); (b); }; \\\\ From A002487",
				"A317838(n) = sumdiv(n,d,A002487(d));"
			],
			"xref": [
				"Cf. A002487, A317837, A317839, A317840, A317841, A317843."
			],
			"keyword": "nonn",
			"offset": "1,2",
			"author": "_Antti Karttunen_, Aug 09 2018",
			"references": 5,
			"revision": 6,
			"time": "2018-08-10T09:06:22-04:00",
			"created": "2018-08-10T09:06:22-04:00"
		}
	]
}