{
	"greeting": "Greetings from The On-Line Encyclopedia of Integer Sequences! http://oeis.org/",
	"query": "id:A317951",
	"count": 1,
	"start": 0,
	"results": [
		{
			"number": 317951,
			"data": "0,1,4,2,4,4,3,4,4,4,0,4,4,4,4,1,4,4,4,4,4,2,4,4,4,4,4,4,3,4,4,4,4,4,4,4,0,4,4,4,4,4,4,4,4,1,4,4,4,4,4,4,4,4,4,2,4,4,4,4,4,4,4,4,4,4,3,4,4,4,4,4,4,4,4,4,4,4,0,4,4,4,4,4,4,4,4",
			"name": "An S-automatic sequence for the system S = (a*b*, {a,b}, a\u003cb).",
			"link": [
				"Michel Rigo and Arnaud Maes, \u003ca href=\"https://www.jalc.de/issues/2002/issue_7_3/abs-351.pdf\"\u003eMore on generalized automatic sequences\u003c/a\u003e, Journal of Automata, Languages and Combinatorics 7.3 (2002): 351-376. See Fig. 1."
			],
			"formula": [
				"a(A000217(k)) = A010873(k) for any k; all other terms are equal to 4. - _Andrey Zabolotskiy_, Aug 20 2018"
			],
			"xref": [
				"Cf. other sequences from Rigo \u0026 Maes: A010060, A010052, A317948.",
				"Cf. A010873, A000217."
			],
			"keyword": "nonn,easy",
			"offset": "0,3",
			"author": "_N. J. A. Sloane_, Aug 19 2018",
			"ext": [
				"Terms a(37) and beyond from _Andrey Zabolotskiy_, Aug 20 2018"
			],
			"references": 0,
			"revision": 13,
			"time": "2020-12-27T11:23:04-05:00",
			"created": "2018-08-19T13:31:17-04:00"
		}
	]
}