{
	"greeting": "Greetings from The On-Line Encyclopedia of Integer Sequences! http://oeis.org/",
	"query": "id:A317423",
	"count": 1,
	"start": 0,
	"results": [
		{
			"number": 317423,
			"data": "16,18,23,34,44,45,42,84,128,116,54,133,132,159,196,134,124,156,145,144,225,149,261,153,143,148,147,142,229,263",
			"name": "a(n) is the smallest number such that with the letters of the name of that number we can spell the name of n numbers smaller than a(n) in Spanish.",
			"example": [
				"a(4) = 34 because with the letters of 34 (treinta y cuatro) we can spell these numbers: 1 (uno), 4 (cuatro), 11 (once) and 30 (treinta). Note that we can also write 40 cuarenta, but 40 is bigger than 34 so it does not count."
			],
			"xref": [
				"Cf. A317422 (English)."
			],
			"keyword": "nonn,word,more",
			"offset": "1,1",
			"author": "_Claudio Meller_, Jul 27 2018",
			"references": 1,
			"revision": 15,
			"time": "2018-08-23T17:00:20-04:00",
			"created": "2018-08-23T17:00:20-04:00"
		}
	]
}