{
	"greeting": "Greetings from The On-Line Encyclopedia of Integer Sequences! http://oeis.org/",
	"query": "id:A317969",
	"count": 1,
	"start": 0,
	"results": [
		{
			"number": 317969,
			"data": "6,3,8,1,8,5,8,2,0,8,6,0,6,4,4,1,5,3,0,1,5,5,0,3,6,5,9,4,4,4,0,6,7,7,0,1,2,6,5,1,5,7,5,4,3,9,7,7,9,9,7,6,8,3,4,2,1,0,6,2,0,8,1,5,8,0,5,7,5,4,8,5,1,3,9,7,0,7,9,2,5,0,2,7,6",
			"name": "Decimal expansion of (2^(1/3)-1)^(1/3).",
			"comment": [
				"(2^(1/3)-1)^(1/3) = (1/9)^(1/3) - (2/9)^(1/3) + (4/9)^(1/3) is a famous and remarkable identity of Ramanujan's.",
				"Ramanujan's question 1076 (ii), see Berndt and Rankin in References: Show that (4*(2/3)^(1/3)-5*(1/3)^(1/3))^(1/8) = (4/9)^(1/3)-(2/9)^(1/3)+(1/9)^(1/3). - _Hugo Pfoertner_, Aug 28 2018"
			],
			"reference": [
				"B. C. Berndt and R. A. Rankin, Ramanujan: Essays and Surveys, American Mathematical Society, 2001, ISBN 0-8218-2624-7, page 222 (JIMS 11, page 199).",
				"S. Ramanujan, Coll. Papers, Chelsea, 1962, page 331, Question 682; page 334 Question 1076."
			],
			"link": [
				"Susan Landau, \u003ca href=\"https://www.researchgate.net/publication/2629046_Simplification_of_Nested_Radicals\"\u003eSimplification of nested radicals\u003c/a\u003e, SIAM Journal on Computing 21.1 (1992): 85-110. See page 85. [Do not confuse this paper with the short FOCS conference paper with the same title, which is only a few pages long.]",
				"S. Ramanujan, \u003ca href=\"https://www.imsc.res.in/~rao/ramanujan/CamUnivCpapers/question/q682.htm\"\u003eQuestion 682\u003c/a\u003e, Journal of the Indian Mathematical Society, VII, p. 160.",
				"S. Ramanujan, \u003ca href=\"https://www.imsc.res.in/~rao/ramanujan/CamUnivCpapers/question/q1076.htm\"\u003eQuestion 1076\u003c/a\u003e, Journal of the Indian Mathematical Society, XI, p. 199.",
				"Vincent Thill, \u003ca href=\"http://vincent-thill.fr/2021/04/identite-du-mois-davril-2021/\"\u003eRadicaux et Ramanujan\u003c/a\u003e, April 2021, see k."
			],
			"formula": [
				"From _Michel Marcus_, Jan 08 2022: (Start)",
				"Equals (A002580-1)^(1/3).",
				"k^(3*n) = x(n) + A002580*y(n) + A005480*z(n) where k is this constant z(n) = A108369(n-1), y(n) = z(n)+z(n+1), x(n) = y(n)+y(n+1); A002580 and A005480 are the cube root of 2 and 4. (End)"
			],
			"example": [
				"0.638185820860644153015503659444067701265157543977997683421..."
			],
			"maple": [
				"evalf((4*(2/3)^(1/3)-5*(1/3)^(1/3))^(1/8)); # _Muniru A Asiru_, Aug 28 2018"
			],
			"program": [
				"(PARI) (4*(2/3)^(1/3)-5*(1/3)^(1/3))^(1/8) /* _Hugo Pfoertner_ Aug 28 2018 */",
				"(PARI) sqrtn(1/9, 3) - sqrtn(2/9, 3) + sqrtn(4/9, 3) \\\\ _Michel Marcus_, Jan 07 2022"
			],
			"xref": [
				"Cf. A318526.",
				"Cf. A002580, A005480, A108369."
			],
			"keyword": "nonn,cons,changed",
			"offset": "0,1",
			"author": "_N. J. A. Sloane_, Aug 27 2018",
			"references": 1,
			"revision": 19,
			"time": "2022-01-08T13:11:06-05:00",
			"created": "2018-08-27T22:03:23-04:00"
		}
	]
}