{
	"greeting": "Greetings from The On-Line Encyclopedia of Integer Sequences! http://oeis.org/",
	"query": "id:A317633",
	"count": 1,
	"start": 0,
	"results": [
		{
			"number": 317633,
			"data": "1,7,9,11,17,19,21,27,29,31,37,39,41,47,49,51,57,59,61,67,69,71,77,79,81,87,89,91,97,99,101,107,109,111,117,119,121,127,129,131,137,139,141,147,149,151,157,159,161,167,169",
			"name": "Numbers congruent to {1, 7, 9} mod 10.",
			"comment": [
				"When multiplied by 10, one gets the numbers ending in \"dix\" in French (10, 70, 90, 110, ...)."
			],
			"link": [
				"G. C. Greubel, \u003ca href=\"/A317633/b317633.txt\"\u003eTable of n, a(n) for n = 1..5000\u003c/a\u003e",
				"\u003ca href=\"/index/Rec#order_04\"\u003eIndex entries for linear recurrences with constant coefficients\u003c/a\u003e, signature (1,0,1,-1)."
			],
			"formula": [
				"a(n) = a(n-3) + 10, a(1) = 1, a(2) = 7, a(3) = 9.",
				"From _Bruno Berselli_, Jul 02 2018: (Start)",
				"G.f.: x*(1 + 6*x + 2*x^2 + x^3)/((1 - x)^2*(1 + x + x^2)).",
				"a(n) = 2*n + 4*floor((n+1)/3) - 1. (End)"
			],
			"example": [
				"G.f. = x + 7*x^2 + 9*x^3+ 11*x^4 + 17*x^5 + 19*x^6 + 21*x^7 + 27*x^8 + ... - _Michael Somos_, Aug 19 2018"
			],
			"mathematica": [
				"Table[2 n + 4 Floor[(n + 1)/3] - 1, {n, 1, 60}] (* _Bruno Berselli_, Jul 02 2018 *)",
				"Select[Range[0, 250], MemberQ[{1, 7, 9}, Mod[#, 10]]\u0026] (* _Vincenzo Librandi_, Aug 05 2018 *)",
				"CoefficientList[ Series[(x^3 + 2x^2 + 6x + 1)/((x - 1)^2 (x^2 + x + 1)), {x, 0, 60}], x] (* or *)",
				"LinearRecurrence[{1, 0, 1, -1}, {1, 7, 9, 11}, 61] (* _Robert G. Wilson v_, Aug 08 2018 *)"
			],
			"program": [
				"(MAGMA) [n: n in [0..170]|n mod 10 in {1, 7, 9}]; // _Vincenzo Librandi_, Aug 05 2018",
				"(PARI) x='x+O('x^60); Vec(x*(1+6*x+2*x^2+x^3)/((1-x)^2*(1+x+x^2))) \\\\ _G. C. Greubel_, Aug 08 2018"
			],
			"xref": [
				"Cf. A008592, A010692."
			],
			"keyword": "nonn,easy",
			"offset": "1,2",
			"author": "_Paul Curtz_, Aug 02 2018",
			"ext": [
				"Definition from _Jianing Song_, Aug 02 2018"
			],
			"references": 3,
			"revision": 47,
			"time": "2018-11-16T22:43:39-05:00",
			"created": "2018-08-02T08:53:00-04:00"
		}
	]
}