{
	"greeting": "Greetings from The On-Line Encyclopedia of Integer Sequences! http://oeis.org/",
	"query": "id:A317156",
	"count": 1,
	"start": 0,
	"results": [
		{
			"number": 317156,
			"data": "5,21,29,105,379,1245,5458,25315,111407,527886,2563160,12170793,58396626,282895106,1362930990,6568303800,31746692725,153297619453,739913361896,3573891092629,17261311752935,83352383451568,402555795489298",
			"name": "Number of nX4 0..1 arrays with every element unequal to 0, 1, 3, 4, 5, 7 or 8 king-move adjacent elements, with upper left element zero.",
			"comment": [
				"Column 4 of A317160."
			],
			"link": [
				"R. H. Hardin, \u003ca href=\"/A317156/b317156.txt\"\u003eTable of n, a(n) for n = 1..210\u003c/a\u003e",
				"R. H. Hardin, \u003ca href=\"/A317156/a317156.txt\"\u003eEmpirical recurrence of order 66\u003c/a\u003e"
			],
			"formula": [
				"Empirical recurrence of order 66 (see link above)"
			],
			"example": [
				"Some solutions for n=5",
				"..0..0..0..1. .0..0..0..1. .0..0..1..1. .0..0..1..1. .0..0..0..1",
				"..0..0..1..1. .1..0..0..0. .0..1..1..1. .0..1..1..1. .1..0..0..0",
				"..1..0..1..1. .0..0..0..0. .1..1..1..1. .1..1..1..1. .0..0..0..0",
				"..0..0..1..1. .0..0..0..0. .1..1..1..0. .1..1..1..1. .0..0..0..0",
				"..0..0..0..1. .0..0..0..0. .1..1..1..1. .0..1..1..0. .0..1..0..0"
			],
			"xref": [
				"Cf. A317160."
			],
			"keyword": "nonn",
			"offset": "1,1",
			"author": "_R. H. Hardin_, Jul 22 2018",
			"references": 1,
			"revision": 4,
			"time": "2018-07-22T15:53:43-04:00",
			"created": "2018-07-22T15:53:43-04:00"
		}
	]
}