{
	"greeting": "Greetings from The On-Line Encyclopedia of Integer Sequences! http://oeis.org/",
	"query": "id:A317843",
	"count": 1,
	"start": 0,
	"results": [
		{
			"number": 317843,
			"data": "1,-1,-2,0,-3,2,-3,0,0,3,-5,0,-5,3,8,0,-5,0,-7,0,4,5,-7,0,2,5,0,0,-7,-8,-5,0,14,5,9,0,-11,7,10,0,-11,-4,-13,0,-8,7,-9,0,0,-2,8,0,-13,0,19,0,18,7,-11,0,-9,5,14,0,23,-14,-11,0,14,-9,-13,0,-15,11,-20,0,13,-10,-13,0,2,11,-19,0,9,13,10,0,-17,8,11,0",
			"name": "Dirichlet inverse of Stern's diatomic sequence (A002487).",
			"link": [
				"Antti Karttunen, \u003ca href=\"/A317843/b317843.txt\"\u003eTable of n, a(n) for n = 1..16384\u003c/a\u003e",
				"\u003ca href=\"/index/St#Stern\"\u003eIndex entries for sequences related to Stern's sequences\u003c/a\u003e"
			],
			"formula": [
				"a(1) = 1; for n \u003e 1, a(n) = -Sum_{d|n, d\u003cn} A002487(n/d)*a(d)."
			],
			"mathematica": [
				"s[0] = 0; s[1] = 1;",
				"s[n_] := s[n] = If[EvenQ[n], s[n/2], s[(n-1)/2] + s[(n+1)/2]];",
				"a[n_] := a[n] = If[n == 1, 1, -Sum[s[n/d] a[d], {d, Most@ Divisors[n]}]];",
				"Array[a, 100] (* _Jean-François Alcover_, Feb 16 2020 *)"
			],
			"program": [
				"(PARI)",
				"A002487(n) = { my(a=1, b=0); while(n\u003e0, if(bitand(n, 1), b+=a, a+=b); n\u003e\u003e=1); (b); }; \\\\ From A002487",
				"A317843(n) = if(1==n,1,-sumdiv(n,d,if(d\u003cn,A002487(n/d)*A317843(d),0)));"
			],
			"xref": [
				"Cf. A002487, A317839, A317841, A317842."
			],
			"keyword": "sign",
			"offset": "1,3",
			"author": "_Antti Karttunen_, Aug 09 2018",
			"references": 10,
			"revision": 11,
			"time": "2020-02-16T07:56:14-05:00",
			"created": "2018-08-10T09:06:56-04:00"
		}
	]
}