{
	"greeting": "Greetings from The On-Line Encyclopedia of Integer Sequences! http://oeis.org/",
	"query": "id:A317904",
	"count": 1,
	"start": 0,
	"results": [
		{
			"number": 317904,
			"data": "3,9,5,6,1,8,4,2,0,3,0,2,6,1,6,9,7,5,4,5,4,0,8,0,2,1,8,1,8,7,8,3,0,0,8,3,3,2,9,9,9,9,8,8,0,9,5,2,5,5,5,4,0,9,8,1,6,4,9,6,2,1,1,3,0,9,3,2,8,8,5,1,3,1,4,6,2,5,2,1,2,3,0,3,1,1,5,8,9,4,8,8,4,1,6,4,0,9,6,0,7,4,7,6,5",
			"name": "Decimal expansion of a constant related to the asymptotics of A302598.",
			"example": [
				"3.9561842030261697545408021818783008332999988095..."
			],
			"xref": [
				"Cf. A302598, A302700, A317350, A317351, A317355, A317356, A322737, A323311, A323313."
			],
			"keyword": "nonn,cons",
			"offset": "1,1",
			"author": "_Vaclav Kotesovec_, Aug 10 2018",
			"references": 9,
			"revision": 11,
			"time": "2021-08-11T17:30:00-04:00",
			"created": "2018-08-10T12:06:05-04:00"
		}
	]
}