{
	"greeting": "Greetings from The On-Line Encyclopedia of Integer Sequences! http://oeis.org/",
	"query": "id:A317983",
	"count": 1,
	"start": 0,
	"results": [
		{
			"number": 317983,
			"data": "420,7140,41160,148680,411180,955500,1963920,3684240,6439860,10639860,16789080,25498200,37493820,53628540,74891040,102416160,137494980,181584900,236319720,303519720,385201740,483589260,601122480,740468400,904530900,1096460820",
			"name": "Expansion of 420*x*(1 + x)*(1 + 10*x + x^2) / (1 - x)^6.",
			"comment": [
				"Seems to be the negative of the third column of A316387."
			],
			"link": [
				"Colin Barker, \u003ca href=\"/A317983/b317983.txt\"\u003eTable of n, a(n) for n = 1..1000\u003c/a\u003e",
				"\u003ca href=\"/index/Rec#order_06\"\u003eIndex entries for linear recurrences with constant coefficients\u003c/a\u003e, signature (6,-15,20,-15,6,-1)."
			],
			"formula": [
				"G.f.: 420*x*(1 + x)*(1 + 10*x + x^2) / (1 - x)^6.",
				"a(n) = 420 * A000538(n).",
				"a(n) = 84*n^5 + 210*n^4 + 140*n^3 - 14*n.",
				"a(n) = 6*a(n-1) - 15*a(n-2) + 20*a(n-3) - 15*a(n-4) + 6*a(n-5) - a(n-6) for n\u003e6."
			],
			"program": [
				"(PARI) Vec(420*x*(1 + x)*(1 + 10*x + x^2) / (1 - x)^6 + O(x^40))",
				"(PARI) a(n) = 84*n^5 + 210*n^4 + 140*n^3 - 14*n"
			],
			"xref": [
				"Cf. A000538, A316387, A317981, A317982, A317984."
			],
			"keyword": "nonn,easy",
			"offset": "1,1",
			"author": "_Colin Barker_, Aug 13 2018",
			"references": 5,
			"revision": 8,
			"time": "2018-08-18T11:24:25-04:00",
			"created": "2018-08-13T09:04:20-04:00"
		}
	]
}