{
	"greeting": "Greetings from The On-Line Encyclopedia of Integer Sequences! http://oeis.org/",
	"query": "id:A317150",
	"count": 1,
	"start": 0,
	"results": [
		{
			"number": 317150,
			"data": "16,94,389,2313,19580,120427,786868,5565982,37386216,251404385,1722010358,11697694067,79375389161,540651642191,3678216292153,25014927442397,170248905205895,1158541580615472,7883259866047483",
			"name": "Number of nX5 0..1 arrays with every element unequal to 0, 1, 2, 4, 5, 7 or 8 king-move adjacent elements, with upper left element zero.",
			"comment": [
				"Column 5 of A317153."
			],
			"link": [
				"R. H. Hardin, \u003ca href=\"/A317150/b317150.txt\"\u003eTable of n, a(n) for n = 1..210\u003c/a\u003e"
			],
			"example": [
				"Some solutions for n=5",
				"..0..0..0..0..0. .0..1..0..0..0. .0..1..1..0..1. .0..0..1..1..0",
				"..1..0..0..0..0. .1..0..0..0..0. .1..0..1..1..0. .1..1..1..1..0",
				"..0..0..0..0..0. .0..0..0..0..0. .1..1..1..1..1. .0..0..1..1..1",
				"..0..1..0..1..1. .1..0..0..0..0. .0..1..1..1..0. .1..1..1..1..0",
				"..0..1..0..1..1. .0..0..0..1..1. .0..1..1..1..0. .1..1..1..1..1"
			],
			"xref": [
				"Cf. A317153."
			],
			"keyword": "nonn",
			"offset": "1,1",
			"author": "_R. H. Hardin_, Jul 22 2018",
			"references": 1,
			"revision": 4,
			"time": "2018-07-22T15:46:20-04:00",
			"created": "2018-07-22T15:46:20-04:00"
		}
	]
}