{
	"greeting": "Greetings from The On-Line Encyclopedia of Integer Sequences! http://oeis.org/",
	"query": "id:A317152",
	"count": 1,
	"start": 0,
	"results": [
		{
			"number": 317152,
			"data": "64,752,4091,49746,786868,8398085,100639070,1322153771,16079639203,197080980236,2478248260746,30736946463877,380701037947962,4743575989254534,58981199987184372,732782748455024292",
			"name": "Number of nX7 0..1 arrays with every element unequal to 0, 1, 2, 4, 5, 7 or 8 king-move adjacent elements, with upper left element zero.",
			"comment": [
				"Column 7 of A317153."
			],
			"link": [
				"R. H. Hardin, \u003ca href=\"/A317152/b317152.txt\"\u003eTable of n, a(n) for n = 1..210\u003c/a\u003e"
			],
			"example": [
				"Some solutions for n=5",
				"..0..0..0..1..1..0..0. .0..0..0..0..1..0..0. .0..0..1..0..0..1..1",
				"..0..0..0..0..0..0..0. .0..1..0..0..0..0..0. .1..0..0..0..0..1..1",
				"..0..0..0..0..0..0..0. .0..0..0..1..0..0..1. .0..0..0..0..0..0..0",
				"..0..0..0..0..1..0..0. .0..0..0..0..0..0..1. .0..0..0..0..0..0..0",
				"..0..0..0..0..1..0..0. .0..0..0..0..0..0..0. .0..0..0..1..1..0..0"
			],
			"xref": [
				"Cf. A317153."
			],
			"keyword": "nonn",
			"offset": "1,1",
			"author": "_R. H. Hardin_, Jul 22 2018",
			"references": 1,
			"revision": 4,
			"time": "2018-07-22T15:47:37-04:00",
			"created": "2018-07-22T15:47:37-04:00"
		}
	]
}