{
	"greeting": "Greetings from The On-Line Encyclopedia of Integer Sequences! http://oeis.org/",
	"query": "id:A317041",
	"count": 1,
	"start": 0,
	"results": [
		{
			"number": 317041,
			"data": "13,125,204,2516,35318,393048,7760044,159647483,2883656719,56973226585,1162322888273,22895315515777,455569131110547,9174923681688618,183481545833256864,3668262718415754799,73581418052482057172",
			"name": "Number of nX6 0..1 arrays with every element unequal to 0, 1, 3, 4, 5, 6 or 8 king-move adjacent elements, with upper left element zero.",
			"comment": [
				"Column 6 of A317043."
			],
			"link": [
				"R. H. Hardin, \u003ca href=\"/A317041/b317041.txt\"\u003eTable of n, a(n) for n = 1..210\u003c/a\u003e"
			],
			"example": [
				"Some solutions for n=5",
				"..0..0..1..0..0..1. .0..0..1..0..1..1. .0..1..1..1..1..1. .0..1..1..1..0..0",
				"..1..0..1..1..1..1. .0..1..1..0..0..1. .1..1..1..1..1..0. .1..1..1..1..1..0",
				"..1..1..0..1..0..0. .0..0..1..0..1..1. .1..1..1..1..1..1. .0..0..0..0..0..0",
				"..1..1..0..0..1..1. .1..1..0..1..0..0. .0..1..1..1..1..1. .1..0..0..0..1..1",
				"..1..0..1..1..0..1. .1..0..0..1..1..0. .1..1..1..1..1..1. .0..0..0..0..0..1"
			],
			"xref": [
				"Cf. A317043."
			],
			"keyword": "nonn",
			"offset": "1,1",
			"author": "_R. H. Hardin_, Jul 19 2018",
			"references": 1,
			"revision": 4,
			"time": "2018-07-19T19:39:55-04:00",
			"created": "2018-07-19T19:39:55-04:00"
		}
	]
}