{
	"greeting": "Greetings from The On-Line Encyclopedia of Integer Sequences! http://oeis.org/",
	"query": "id:A318043",
	"count": 1,
	"start": 0,
	"results": [
		{
			"number": 318043,
			"data": "1,17,377,6179,116212,2098813,37826270,685931021,12431437346,225185610429,4079648110833,73911910191705,1339060286964873,24259745271648515,439514170442137673,7962682122862778107",
			"name": "Number of nX6 0..1 arrays with every element unequal to 0, 2, 3 or 4 horizontally, vertically or antidiagonally adjacent elements, with upper left element zero.",
			"comment": [
				"Column 6 of A318045."
			],
			"link": [
				"R. H. Hardin, \u003ca href=\"/A318043/b318043.txt\"\u003eTable of n, a(n) for n = 1..210\u003c/a\u003e"
			],
			"example": [
				"Some solutions for n=5",
				"..0..1..0..1..1..1. .0..1..0..1..1..0. .0..1..0..1..0..1. .0..1..0..0..1..0",
				"..1..1..0..0..0..0. .1..1..0..1..0..1. .1..1..1..0..1..0. .1..1..0..1..1..1",
				"..0..1..1..0..0..1. .0..1..0..1..0..0. .0..1..1..0..1..0. .0..1..0..0..0..1",
				"..0..1..1..1..1..0. .1..0..1..1..1..1. .0..1..0..0..1..0. .1..1..1..0..1..0",
				"..0..1..0..0..0..1. .1..0..1..0..1..0. .1..0..1..1..0..1. .0..0..1..1..0..0"
			],
			"xref": [
				"Cf. A318045."
			],
			"keyword": "nonn",
			"offset": "1,2",
			"author": "_R. H. Hardin_, Aug 13 2018",
			"references": 1,
			"revision": 4,
			"time": "2018-08-13T14:32:44-04:00",
			"created": "2018-08-13T14:32:44-04:00"
		}
	]
}