{
	"greeting": "Greetings from The On-Line Encyclopedia of Integer Sequences! http://oeis.org/",
	"query": "id:A318282",
	"count": 1,
	"start": 0,
	"results": [
		{
			"number": 318282,
			"data": "0,0,0,0,1,0,1,0,1,1,2,0,2,0,2,0,2,1,0,1,0,1,1,2,2,3,0,3,1,2,1,0,1,1,2,3,3,4,2,0,2,1,4,2,3,2,2,3,4,3,0,3,1,4,2,3,2,3,3,4,2,4,4,5,3,2,3,2,2,3,4,3,4,4,5",
			"name": "a(n) = (A318281(n) - 1)/3.",
			"link": [
				"Rok Cestnik, \u003ca href=\"/A318282/b318282.txt\"\u003eTable of n, a(n) for n = 1..9999\u003c/a\u003e",
				"Rok Cestnik, \u003ca href=\"/A318282/a318282.pdf\"\u003eVisualization\u003c/a\u003e"
			],
			"program": [
				"(C)",
				"#include\u003cstdio.h\u003e",
				"#include\u003cstdlib.h\u003e",
				"#include\u003cmath.h\u003e",
				"int main(void){",
				"  int N = 100; //number of terms",
				"  int *a = (int*)malloc((N+1)*sizeof(int));",
				"  printf(\"1 0\\n2 0\\n3 0\\n4 0\\n\");",
				"  a[1] = 0;",
				"  a[2] = 0;",
				"  a[3] = 0;",
				"  a[4] = 0;",
				"  for(int i = 4; i \u003c N; ++i){",
				"    if(a[i-1] != a[i]) a[i+1] = a[i-(3*a[i]+1)];",
				"    else a[i+1] = a[i]+1;",
				"    printf(\"%d %d\\n\", i+1, a[i+1]);",
				"  }",
				"  free(a);",
				"  return 0;",
				"}"
			],
			"xref": [
				"Cf. A318281, A281130, A291598, A004001, A005185, A005229."
			],
			"keyword": "nonn",
			"offset": "1,11",
			"author": "_Rok Cestnik_, Aug 23 2018",
			"references": 2,
			"revision": 6,
			"time": "2018-10-22T14:08:35-04:00",
			"created": "2018-10-22T14:08:35-04:00"
		}
	]
}