{
	"greeting": "Greetings from The On-Line Encyclopedia of Integer Sequences! http://oeis.org/",
	"query": "id:A318079",
	"count": 1,
	"start": 0,
	"results": [
		{
			"number": 318079,
			"data": "8,11,18,34,51,126,272,616,1347,2910,6602,15218,34152,76465,171830,389133,881565,1994946,4498694,10161192,22988303,52066761,117762774,266167800,601747214,1361703901,3081288330,6969596507,15760588028",
			"name": "Number of nX5 0..1 arrays with every element unequal to 0, 1, 3 or 5 horizontally, vertically or antidiagonally adjacent elements, with upper left element zero.",
			"comment": [
				"Column 5 of A318082."
			],
			"link": [
				"R. H. Hardin, \u003ca href=\"/A318079/b318079.txt\"\u003eTable of n, a(n) for n = 1..210\u003c/a\u003e"
			],
			"example": [
				"Some solutions for n=5",
				"..0..0..0..1..1. .0..0..0..1..0. .0..0..0..0..0. .0..0..1..1..0",
				"..0..0..0..0..1. .0..1..1..0..0. .0..0..0..0..0. .0..0..0..0..0",
				"..1..0..0..0..0. .0..0..1..0..0. .1..0..0..0..0. .0..0..1..1..0",
				"..1..1..0..0..0. .0..0..0..0..0. .1..1..0..0..0. .0..0..0..0..0",
				"..1..1..1..0..0. .0..0..0..0..0. .1..1..1..0..0. .0..0..1..1..0"
			],
			"xref": [
				"Cf. A318082."
			],
			"keyword": "nonn",
			"offset": "1,1",
			"author": "_R. H. Hardin_, Aug 15 2018",
			"references": 1,
			"revision": 4,
			"time": "2018-08-15T13:26:18-04:00",
			"created": "2018-08-15T13:26:18-04:00"
		}
	]
}