{
	"greeting": "Greetings from The On-Line Encyclopedia of Integer Sequences! http://oeis.org/",
	"query": "id:A318663",
	"count": 1,
	"start": 0,
	"results": [
		{
			"number": 318663,
			"data": "0,0,1,0,1,1,1,1,3,1,1,1,1,1,2,1,1,3,1,1,2,1,1,2,3,1,4,1,1,2,1,1,2,1,2,3,1,1,2,2,1,2,1,1,4,1,1,2,3,3,2,1,1,4,2,2,2,1,1,2,1,1,4,3,2,2,1,1,2,2,1,4,1,1,4,1,2,2,1,2,7,1,1,2,2,1,2,2,1,4,2,1,2,1,2,2,1,3,4,3,1,2,1,2,3",
			"name": "The 2-adic valuation of A318662.",
			"link": [
				"Antti Karttunen, \u003ca href=\"/A318663/b318663.txt\"\u003eTable of n, a(n) for n = 1..65537\u003c/a\u003e"
			],
			"formula": [
				"a(n) = A007814(A318662(n))."
			],
			"program": [
				"(PARI) \\\\ Use the program given in A318662."
			],
			"xref": [
				"Cf. A007814, A318662."
			],
			"keyword": "nonn",
			"offset": "1,9",
			"author": "_Antti Karttunen_, Sep 03 2018",
			"references": 3,
			"revision": 5,
			"time": "2018-09-03T23:01:40-04:00",
			"created": "2018-09-03T23:01:40-04:00"
		}
	]
}