{
	"greeting": "Greetings from The On-Line Encyclopedia of Integer Sequences! http://oeis.org/",
	"query": "id:A318223",
	"count": 1,
	"start": 0,
	"results": [
		{
			"number": 318223,
			"data": "1,1,-3,13,-71,441,-2699,9157,206193,-8443151,236126701,-6169406979,161388751657,-4327824442967,120012465557349,-3450029411174219,102741264191105761,-3160671409312412703,99982488984008583133,-3230094912866216253971,105481073534842477321881,-3423260541695907002392679",
			"name": "Expansion of e.g.f. exp(x/(1 + 2*x)).",
			"link": [
				"G. C. Greubel, \u003ca href=\"/A318223/b318223.txt\"\u003eTable of n, a(n) for n = 0..250\u003c/a\u003e"
			],
			"formula": [
				"E.g.f.: Product_{k\u003e=1} exp((-2)^(k-1)*x^k).",
				"a(n) = Sum_{k=0..n} (-2)^(n-k)*binomial(n-1,k-1)*n!/k!.",
				"a(0) = 1; a(n) = Sum_{k=1..n} (-2)^(k-1)*k!*binomial(n-1,k-1)*a(n-k)."
			],
			"maple": [
				"seq(n!*coeff(series(exp(x/(1+2*x)),x=0,22),x,n),n=0..21); # _Paolo P. Lava_, Jan 09 2019"
			],
			"mathematica": [
				"nmax = 21; CoefficientList[Series[Exp[x/(1 + 2 x)], {x, 0, nmax}], x] Range[0, nmax]!",
				"Table[Sum[(-2)^(n - k) Binomial[n - 1, k - 1] n!/k!, {k, 0, n}], {n, 0, 21}]",
				"a[n_] := a[n] = Sum[(-2)^(k - 1) k! Binomial[n - 1, k - 1] a[n - k], {k, 1, n}]; a[0] = 1; Table[a[n], {n, 0, 21}]",
				"Join[{1}, Table[(-2)^(n - 1) n! Hypergeometric1F1[1 - n, 2, 1/2], {n, 21}]]"
			],
			"program": [
				"(PARI) my(x='x+O('x^30)); Vec(serlaplace(exp(x/(1+2*x)))) \\\\ _G. C. Greubel_, Feb 07 2019",
				"(MAGMA) m:=30; R\u003cx\u003e:=PowerSeriesRing(Rationals(), m); b:=Coefficients(R!( Exp(x/(1+2*x)) )); [Factorial(n-1)*b[n]: n in [1..m]]; // _G. C. Greubel_, Feb 07 2019",
				"(Sage) m = 30; T = taylor(exp(x/(1+2*x)), x, 0, m); [factorial(n)*T.coefficient(x, n) for n in (0..m)] # _G. C. Greubel_, Feb 07 2019"
			],
			"xref": [
				"Cf. A002866, A025168, A111884, A122803."
			],
			"keyword": "sign",
			"offset": "0,3",
			"author": "_Ilya Gutkovskiy_, Aug 21 2018",
			"references": 2,
			"revision": 12,
			"time": "2019-02-08T00:09:44-05:00",
			"created": "2018-08-22T02:29:04-04:00"
		}
	]
}