{
	"greeting": "Greetings from The On-Line Encyclopedia of Integer Sequences! http://oeis.org/",
	"query": "id:A318181",
	"count": 1,
	"start": 0,
	"results": [
		{
			"number": 318181,
			"data": "1,1,-5,19,1,-1103,15211,-123821,120865,19464193,-474727877,7017193075,-50549088671,-931708750607,49742453940331,-1276858353426317,21239149342811329,-100057086073774463,-9091588769200298501,454849803186974314579,-13529950476868715792063,262961916344710204693681",
			"name": "Expansion of e.g.f. exp((1 - exp(-6*x))/6).",
			"link": [
				"Eric Weisstein's World of Mathematics, \u003ca href=\"http://mathworld.wolfram.com/BellPolynomial.html\"\u003eBell Polynomial\u003c/a\u003e"
			],
			"formula": [
				"a(n) = Sum_{k=0..n} (-6)^(n-k)*Stirling2(n,k).",
				"a(0) = 1; a(n) = Sum_{k=1..n} (-6)^(k-1)*binomial(n-1,k-1)*a(n-k).",
				"a(n) = (-6)^n*BellPolynomial_n(-1/6). - _Peter Luschny_, Aug 20 2018"
			],
			"maple": [
				"seq(n!*coeff(series(exp((1-exp(-6*x))/6),x=0,22),x,n),n=0..21); # _Paolo P. Lava_, Jan 09 2019"
			],
			"mathematica": [
				"nmax = 21; CoefficientList[Series[Exp[(1 - Exp[-6 x])/6], {x, 0, nmax}], x] Range[0, nmax]!",
				"Table[Sum[(-6)^(n - k) StirlingS2[n, k], {k, 0, n}], {n, 0, 21}]",
				"a[n_] := a[n] = Sum[(-6)^(k - 1) Binomial[n - 1, k - 1] a[n - k], {k, 1, n}]; a[0] = 1; Table[a[n], {n, 0, 21}]",
				"Table[(-6)^n BellB[n, -1/6], {n, 0, 21}] (* _Peter Luschny_, Aug 20 2018 *)"
			],
			"xref": [
				"Cf. A005012, A008542, A009235, A014182, A317996, A318179, A318180."
			],
			"keyword": "sign",
			"offset": "0,3",
			"author": "_Ilya Gutkovskiy_, Aug 20 2018",
			"references": 6,
			"revision": 10,
			"time": "2019-01-09T09:18:03-05:00",
			"created": "2018-08-20T16:45:12-04:00"
		}
	]
}