{
	"greeting": "Greetings from The On-Line Encyclopedia of Integer Sequences! http://oeis.org/",
	"query": "id:A318028",
	"count": 1,
	"start": 0,
	"results": [
		{
			"number": 318028,
			"data": "1,1,2,3,5,8,12,17,25,35,51,69,96,129,175,235,312,410,539,700,913,1173,1508,1923,2450,3105,3920,4926,6177,7710,9614,11923,14766,18218,22435,27550,33750,41231,50278,61150,74259,89932,108744,131193,158025,189979,227998,273125,326692",
			"name": "Expansion of Product_{k\u003e=1} 1/((1 - x^k)*(1 - x^(5*k))).",
			"comment": [
				"Convolution of A000712 and A145466.",
				"Convolution inverse of A030202.",
				"Number of partitions of n if there are 2 kinds of parts that are multiples of 5."
			],
			"link": [
				"Zakir Ahmed, Nayandeep Deka Baruah, Manosij Ghosh Dastidar, \u003ca href=\"https://doi.org/10.1016/j.jnt.2015.05.002\"\u003eNew congruences modulo 5 for the number of 2-color partitions\u003c/a\u003e, Journal of Number Theory, Volume 157, December 2015, Pages 184-198.",
				"\u003ca href=\"/index/Par#part\"\u003eIndex entries for sequences related to partitions\u003c/a\u003e"
			],
			"formula": [
				"G.f.: exp(Sum_{k\u003e=1} x^k*(1 + x^k + x^(2*k) + x^(3*k) + 2*x^(4 k))/(k*(1 - x^(5*k)))).",
				"a(n) ~ exp(2*Pi*sqrt(n/5)) / (4 * 5^(1/4) * n^(5/4)). - _Vaclav Kotesovec_, Aug 14 2018"
			],
			"example": [
				"a(5) = 8 because we have [5], [5'], [4, 1], [3, 2], [3, 1, 1], [2, 2, 1], [2, 1, 1, 1] and [1, 1, 1, 1, 1]."
			],
			"maple": [
				"a:=series(mul(1/((1-x^k)*(1-x^(5*k))),k=1..55),x=0,49): seq(coeff(a,x,n),n=0..48); # _Paolo P. Lava_, Apr 02 2019"
			],
			"mathematica": [
				"nmax = 48; CoefficientList[Series[Product[1/((1 - x^k) (1 - x^(5 k))), {k, 1, nmax}], {x, 0, nmax}], x]",
				"nmax = 48; CoefficientList[Series[1/(QPochhammer[x] QPochhammer[x^5]), {x, 0, nmax}], x]",
				"nmax = 48; CoefficientList[Series[Exp[Sum[x^k (1 + x^k + x^(2 k) + x^(3 k) + 2 x^(4 k))/(k (1 - x^(5 k))), {k, 1, nmax}]], {x, 0, nmax}], x]",
				"Table[Sum[PartitionsP[k] PartitionsP[n - 5 k], {k, 0, n/5}], {n, 0, 48}]"
			],
			"xref": [
				"Cf. A000712, A002513, A030202, A030205, A145466, A318026, A318027."
			],
			"keyword": "nonn",
			"offset": "0,3",
			"author": "_Ilya Gutkovskiy_, Aug 13 2018",
			"references": 2,
			"revision": 13,
			"time": "2020-05-08T12:45:43-04:00",
			"created": "2018-08-18T04:14:08-04:00"
		}
	]
}