{
	"greeting": "Greetings from The On-Line Encyclopedia of Integer Sequences! http://oeis.org/",
	"query": "id:A318009",
	"count": 1,
	"start": 0,
	"results": [
		{
			"number": 318009,
			"data": "1,8,118,3062,133136,10674882,1493271874,372575745070,164750515621344,129310307945204804,180180042920234266842,445515876091580535689544",
			"name": "Number of nXn 0..1 arrays with every element unequal to 0, 1, 2 or 3 horizontally, vertically or antidiagonally adjacent elements, with upper left element zero.",
			"comment": [
				"Diagonal of A318016."
			],
			"example": [
				"Some solutions for n=5",
				"..0..1..0..1..1. .0..1..0..0..0. .0..0..0..0..0. .0..0..0..0..1",
				"..1..0..0..0..1. .1..0..0..0..0. .0..1..1..1..0. .0..0..0..1..1",
				"..0..0..0..0..1. .0..0..0..0..0. .1..1..1..1..1. .1..1..1..1..1",
				"..0..0..0..1..1. .0..0..0..0..1. .0..0..1..1..1. .0..1..1..1..0",
				"..0..0..1..1..0. .0..1..1..1..0. .0..0..0..0..1. .0..0..1..1..0"
			],
			"xref": [
				"Cf. A318016."
			],
			"keyword": "nonn",
			"offset": "1,2",
			"author": "_R. H. Hardin_, Aug 12 2018",
			"references": 0,
			"revision": 4,
			"time": "2018-08-12T19:32:27-04:00",
			"created": "2018-08-12T19:32:27-04:00"
		}
	]
}