{
	"greeting": "Greetings from The On-Line Encyclopedia of Integer Sequences! http://oeis.org/",
	"query": "id:A318540",
	"count": 1,
	"start": 0,
	"results": [
		{
			"number": 318540,
			"data": "3,3,6,13,26,52,107,218,442,899,1829,3720,7565,15384,31288,63632,129408,263180,535236,1088521,2213749,4502149,9156120,18621004,37869943,77016935,156631035,318543977,647829886,1317505875,2679440650,5449237333",
			"name": "Number of nX3 0..1 arrays with every element unequal to 0, 1, 4 or 6 horizontally, vertically or antidiagonally adjacent elements, with upper left element zero.",
			"comment": [
				"Column 3 of A318545."
			],
			"link": [
				"R. H. Hardin, \u003ca href=\"/A318540/b318540.txt\"\u003eTable of n, a(n) for n = 1..210\u003c/a\u003e"
			],
			"formula": [
				"Empirical: a(n) = a(n-1) +3*a(n-3) +a(n-4) +3*a(n-5) +a(n-7) for n\u003e8"
			],
			"example": [
				"Some solutions for n=5",
				"..0..0..0. .0..1..0. .0..0..0. .0..0..0. .0..1..0. .0..0..0. .0..0..0",
				"..0..0..0. .0..0..0. .0..0..1. .0..0..0. .0..0..0. .1..0..0. .1..0..0",
				"..0..0..0. .0..0..0. .0..0..0. .0..0..0. .0..0..1. .0..0..1. .0..0..0",
				"..0..0..1. .0..0..0. .0..0..0. .0..1..0. .0..0..0. .0..0..0. .0..0..1",
				"..0..0..0. .0..1..0. .0..0..0. .0..0..0. .0..0..0. .0..0..0. .0..0..0"
			],
			"xref": [
				"Cf. A318545."
			],
			"keyword": "nonn",
			"offset": "1,1",
			"author": "_R. H. Hardin_, Aug 28 2018",
			"references": 1,
			"revision": 4,
			"time": "2018-08-28T11:03:39-04:00",
			"created": "2018-08-28T11:03:39-04:00"
		}
	]
}