{
	"greeting": "Greetings from The On-Line Encyclopedia of Integer Sequences! http://oeis.org/",
	"query": "id:A318690",
	"count": 1,
	"start": 0,
	"results": [
		{
			"number": 318690,
			"data": "1,2,3,4,5,7,8,9,11,16,17,19,23,25,27,31,32,36,49,53,59,64,67,81,83,97,100,103,121,125,127,128,131,151,196,216,225,227,241,243,256,277,289,311,331,343,361,419,431,441,484,509,512,529,541,563,625,661,691",
			"name": "Matula-Goebel numbers of powerful uniform rooted trees.",
			"comment": [
				"A prime index of n is a number m such that prime(m) divides n. A positive integer n is a Matula-Goebel number of a powerful uniform rooted tree iff either n = 1 or n is a prime number whose prime index is a Matula-Goebel number of a powerful uniform rooted tree or n is a squarefree number taken to a power \u003e 1 whose prime indices are all Matula-Goebel numbers of powerful uniform rooted trees."
			],
			"link": [
				"Gus Wiseman, \u003ca href=\"/A318690/a318690.png\"\u003eThe first 96 powerful uniform rooted trees.\u003c/a\u003e"
			],
			"example": [
				"The sequence of all powerful uniform rooted trees together with their Matula-Goebel numbers begins:",
				"   1: o",
				"   2: (o)",
				"   3: ((o))",
				"   4: (oo)",
				"   5: (((o)))",
				"   7: ((oo))",
				"   8: (ooo)",
				"   9: ((o)(o))",
				"  11: ((((o))))",
				"  16: (oooo)",
				"  17: (((oo)))",
				"  19: ((ooo))",
				"  23: (((o)(o)))",
				"  25: (((o))((o)))",
				"  27: ((o)(o)(o))",
				"  31: (((((o)))))",
				"  32: (ooooo)",
				"  36: (oo(o)(o))",
				"  49: ((oo)(oo))"
			],
			"mathematica": [
				"powunQ[n_]:=Or[n==1,If[PrimeQ[n],powunQ[PrimePi[n]],And[SameQ@@FactorInteger[n][[All,2]],Min@@FactorInteger[n][[All,2]]\u003e1,And@@powunQ/@PrimePi/@FactorInteger[n][[All,1]]]]];",
				"Select[Range[100],powunQ]"
			],
			"xref": [
				"Cf. A000081, A001694, A061775, A072774, A214577, A317705, A317707, A317710, A317717, A317719, A318611, A318612, A318689, A318692."
			],
			"keyword": "nonn",
			"offset": "1,2",
			"author": "_Gus Wiseman_, Aug 31 2018",
			"references": 3,
			"revision": 8,
			"time": "2018-09-02T08:21:10-04:00",
			"created": "2018-09-02T08:21:10-04:00"
		}
	]
}