{
	"greeting": "Greetings from The On-Line Encyclopedia of Integer Sequences! http://oeis.org/",
	"query": "id:A318720",
	"count": 1,
	"start": 0,
	"results": [
		{
			"number": 318720,
			"data": "900,1764,1800,2700,3528,3600,4356,4500,4900,5292,5400,6084,6300,7056,7200,8100,8712,8820,9000,9800,9900,10404,10584,10800,11025,11700,12100,12168,12348,12600,12996,13068,13500,14112,14400,14700,15300,15876,16200,16900",
			"name": "Numbers k such that there exists a strict relatively prime factorization of k in which no pair of factors is relatively prime.",
			"comment": [
				"From _Amiram Eldar_, Nov 01 2020: (Start)",
				"Also, numbers with more than two non-unitary prime divisors, i.e., numbers k such that A056170(k) \u003e 2, or equivalently, numbers divisible by the squares of three distinct primes.",
				"The complement of the union of A005117, A190641 and A338539.",
				"The asymptotic density of this sequence is 1 - 6/Pi^2 - (6/Pi^2)*A154945 - (3/Pi^2)*(A154945^2 - A324833) = 0.0033907041... (End)"
			],
			"link": [
				"Amiram Eldar, \u003ca href=\"/A318720/b318720.txt\"\u003eTable of n, a(n) for n = 1..10000\u003c/a\u003e"
			],
			"example": [
				"900 is in the sequence because the factorization 900 = (6*10*15) is relatively prime (since the GCD of (6,10,15) is 1) but each of the pairs (6,10), (6,15), (10,15) has a common divisor \u003e 1. Larger examples are:",
				"1800 = (6*15*20) = (10*12*15).",
				"9900 = (6*10*165) = (6*15*110) = (10*15*66).",
				"5400 = (6*20*45) = (10*12*45) = (10*15*36) = (15*18*20).",
				"60 is not in the sequence because all its possible factorizations (4 * 15, 3 * 4 * 5, etc.) contain at least one pair that is coprime, if not more than one prime."
			],
			"mathematica": [
				"strfacs[n_] := If[n \u003c= 1, {{}}, Join@@Table[(Prepend[#1, d] \u0026)/@Select[strfacs[n/d], Min@@#1 \u003e d \u0026], {d, Rest[Divisors[n]]}]]; Select[Range[10000], Function[n, Select[strfacs[n], And[GCD@@# == 1, And@@(GCD[##] \u003e 1 \u0026)@@@Select[Tuples[#, 2], Less@@# \u0026]] \u0026] != {}]]",
				"Select[Range[20000], Count[FactorInteger[#][[;;,2]], _?(#1 \u003e 1 \u0026)] \u003e 2 \u0026] (* _Amiram Eldar_, Nov 01 2020 *)"
			],
			"xref": [
				"Cf. A001055, A001221, A001222, A007716, A045778, A051185, A078374, A281116, A303140, A303283, A305843, A305854, A317748, A318715, A318717, A318721.",
				"Cf. A005117, A036785, A056170, A154945, A190641, A324833, A338539."
			],
			"keyword": "nonn",
			"offset": "1,1",
			"author": "_Gus Wiseman_, Sep 02 2018",
			"references": 8,
			"revision": 22,
			"time": "2020-11-01T21:42:48-05:00",
			"created": "2018-09-15T15:44:23-04:00"
		}
	]
}