{
	"greeting": "Greetings from The On-Line Encyclopedia of Integer Sequences! http://oeis.org/",
	"query": "id:A318348",
	"count": 1,
	"start": 0,
	"results": [
		{
			"number": 318348,
			"data": "13,18,41,55,136,345,842,2167,5544,14244,36572,94381,243153,629090,1626951,4215276,10927245,28335336,73504819,190696269,494767839,1283719592,3330784937,8642038996,22422738925,58177733612,150947560518",
			"name": "Number of nX6 0..1 arrays with every element unequal to 0, 1, 3 or 6 horizontally, vertically or antidiagonally adjacent elements, with upper left element zero.",
			"comment": [
				"Column 6 of A318350."
			],
			"link": [
				"R. H. Hardin, \u003ca href=\"/A318348/b318348.txt\"\u003eTable of n, a(n) for n = 1..210\u003c/a\u003e"
			],
			"example": [
				"Some solutions for n=5",
				"..0..0..0..1..1..1. .0..1..1..1..1..0. .0..0..0..0..0..0. .0..0..0..0..1..1",
				"..0..0..0..0..1..1. .0..0..1..1..1..1. .0..0..0..0..1..0. .0..0..0..0..0..1",
				"..1..0..0..0..0..1. .0..0..0..1..1..1. .0..0..0..0..0..0. .0..1..0..0..0..0",
				"..1..1..0..0..0..0. .0..0..0..0..1..1. .1..0..0..0..0..0. .0..0..0..0..0..0",
				"..1..1..1..0..0..0. .1..0..0..0..0..1. .1..1..0..0..0..0. .0..0..0..0..0..0"
			],
			"xref": [
				"Cf. A318350."
			],
			"keyword": "nonn",
			"offset": "1,1",
			"author": "_R. H. Hardin_, Aug 24 2018",
			"references": 1,
			"revision": 4,
			"time": "2018-08-24T11:11:17-04:00",
			"created": "2018-08-24T11:11:17-04:00"
		}
	]
}