{
	"greeting": "Greetings from The On-Line Encyclopedia of Integer Sequences! http://oeis.org/",
	"query": "id:A318704",
	"count": 1,
	"start": 0,
	"results": [
		{
			"number": 318704,
			"data": "0,1,1,2,4,1,5,2,4,5,1,2,8,5,5,2,16,25,17,26,4,9,5,10,20,29,17,26,8,13,5,10,16,17,25,26,20,17,29,26,4,5,9,10,8,5,13,10,32,41,41,50,20,25,29,34,20,29,25,34,8,13,13,18,64,49,65,50,100,81,101",
			"name": "For any n \u003e= 0 with binary expansion Sum_{k=0..w} b_k * 2^k, let f(n) = Sum_{k=0..w} b_k * i^k * 2^floor(k/2) (where i denotes the imaginary unit); a(n) is the square of the modulus of f(n).",
			"comment": [
				"See A318702 for the real part of f and additional comments."
			],
			"link": [
				"Rémy Sigrist, \u003ca href=\"/A318704/b318704.txt\"\u003eTable of n, a(n) for n = 0..16383\u003c/a\u003e",
				"\u003ca href=\"/index/Bi#binary\"\u003eIndex entries for sequences related to binary expansion of n\u003c/a\u003e"
			],
			"formula": [
				"a(n) = A318702(n)^2 + A318703(n)^2.",
				"a(4 * k) = 4 * a(k) for any k \u003e= 0."
			],
			"program": [
				"(PARI) a(n) = my (b=Vecrev(binary(n))); norm(sum(k=1, #b, b[k] * I^(k-1) * 2^floor((k-1)/2)))"
			],
			"xref": [
				"Cf. A318702."
			],
			"keyword": "nonn,base,look",
			"offset": "0,4",
			"author": "_Rémy Sigrist_, Sep 01 2018",
			"references": 2,
			"revision": 9,
			"time": "2018-09-02T13:34:37-04:00",
			"created": "2018-09-02T08:25:18-04:00"
		}
	]
}