{
	"greeting": "Greetings from The On-Line Encyclopedia of Integer Sequences! http://oeis.org/",
	"query": "id:A318464",
	"count": 1,
	"start": 0,
	"results": [
		{
			"number": 318464,
			"data": "0,1,1,1,1,2,1,1,1,2,1,2,1,2,2,2,1,2,1,2,2,2,1,2,1,2,1,2,1,3,1,1,2,2,2,2,1,2,2,2,1,3,1,2,2,2,1,3,1,2,2,2,1,2,2,2,2,2,1,3,1,2,2,2,2,3,1,2,2,3,1,2,1,2,2,2,2,3,1,3,2,2,1,3,2,2,2,2,1,3,2,2,2,2,2,2,1,2,2,2,1,3,1,2,3",
			"name": "Additive with a(p^e) = A007895(e), where A007895(n) gives the number of terms in Zeckendorf representation of n.",
			"link": [
				"Antti Karttunen, \u003ca href=\"/A318464/b318464.txt\"\u003eTable of n, a(n) for n = 1..65537\u003c/a\u003e",
				"\u003ca href=\"/index/Eu#epf\"\u003eIndex entries for sequences computed from exponents in factorization of n\u003c/a\u003e"
			],
			"formula": [
				"a(n) = A007814(A318465(n)).",
				"a(n) = A001222(A318469(n))."
			],
			"program": [
				"(PARI)",
				"A072649(n) = { my(m); if(n\u003c1, 0, m=0; until(fibonacci(m)\u003en, m++); m-2); }; \\\\ From A072649",
				"A007895(n) = { my(s=0); while(n\u003e0, s++; n -= fibonacci(1+A072649(n))); (s); }",
				"A318464(n) = vecsum(apply(e -\u003e A007895(e),factor(n)[,2]));"
			],
			"xref": [
				"Cf. A007895, A318465, A318469."
			],
			"keyword": "nonn",
			"offset": "1,6",
			"author": "_Antti Karttunen_, Aug 30 2018",
			"references": 3,
			"revision": 7,
			"time": "2018-08-30T22:42:40-04:00",
			"created": "2018-08-30T22:42:40-04:00"
		}
	]
}