{
	"greeting": "Greetings from The On-Line Encyclopedia of Integer Sequences! http://oeis.org/",
	"query": "id:A319088",
	"count": 1,
	"start": 0,
	"results": [
		{
			"number": 319088,
			"data": "1,13,40,136,211,535,682,1322,1808,2708,3071,5663,6170,7934,9959,13799,14666,20498,21581,28781,32750,37106,38693,55973,59723,65807,73097,87209,89732,114032,116915,138419,148220,158624,169649,216305,220412,233408,247097",
			"name": "a(n) = Sum_{k=1..n} k^2*tau_3(k), where tau_3 is A007425.",
			"link": [
				"G. C. Greubel, \u003ca href=\"/A319088/b319088.txt\"\u003eTable of n, a(n) for n = 1..10000\u003c/a\u003e",
				"Eric Weisstein's World of Mathematics, \u003ca href=\"http://mathworld.wolfram.com/StieltjesConstants.html\"\u003eStieltjes Constants\u003c/a\u003e",
				"Wikipedia, \u003ca href=\"http://en.wikipedia.org/wiki/Stieltjes_constants\"\u003eStieltjes constants\u003c/a\u003e"
			],
			"formula": [
				"a(n) ~ n^3 * (log(n)^2/6 + (gamma - 1/9)*log(n) + gamma^2 - gamma/3 - g1 + 1/27), where gamma is the Euler-Mascheroni constant A001620 and g1 is the first Stieltjes constant A082633."
			],
			"mathematica": [
				"nmax = 50; Accumulate[Table[k^2*Sum[DivisorSigma[0, d], {d, Divisors[k]}], {k, 1, nmax}]]"
			],
			"xref": [
				"Cf. A007425, A061201, A318750."
			],
			"keyword": "nonn",
			"offset": "1,2",
			"author": "_Vaclav Kotesovec_, Sep 10 2018",
			"references": 1,
			"revision": 8,
			"time": "2019-12-16T22:10:34-05:00",
			"created": "2018-09-10T10:12:12-04:00"
		}
	]
}