{
	"greeting": "Greetings from The On-Line Encyclopedia of Integer Sequences! http://oeis.org/",
	"query": "id:A319292",
	"count": 1,
	"start": 0,
	"results": [
		{
			"number": 319292,
			"data": "1,1,6,48,455,5700,83138,1454870",
			"name": "Number of series-reduced locally nonintersecting rooted trees whose leaves span an initial interval of positive integers with multiplicities an integer partition of n.",
			"comment": [
				"A rooted tree is series-reduced if every non-leaf node has at least two branches. It is locally nonintersecting if the intersection of all branches directly under any given node with at least two branches is empty."
			],
			"example": [
				"The a(3) = 6 trees are: (1(12)), (112), (1(23)), (2(13)), (3(12)), (123). Missing from this list but counted by A316651 are: (1(11)), (2(11)), (111)."
			],
			"mathematica": [
				"nonintQ[u_]:=Intersection@@u=={};",
				"sps[{}]:={{}};sps[set:{i_,___}]:=Join@@Function[s,Prepend[#,s]\u0026/@sps[Complement[set,s]]]/@Cases[Subsets[set],{i,___}];",
				"mps[set_]:=Union[Sort[Sort/@(#/.x_Integer:\u003eset[[x]])]\u0026/@sps[Range[Length[set]]]];",
				"gro[m_]:=gro[m]=If[Length[m]==1,{m},Select[Union[Sort/@Join@@(Tuples[gro/@#]\u0026/@Select[mps[m],Length[#]\u003e1\u0026])],nonintQ]];",
				"Table[Sum[Length[gro[m]],{m,Flatten[MapIndexed[Table[#2,{#1}]\u0026,#]]\u0026/@IntegerPartitions[n]}],{n,5}]"
			],
			"xref": [
				"Cf. A000081, A007562, A273873, A289509, A301700, A316470, A316473, A316475, A316651, A319271."
			],
			"keyword": "nonn,more",
			"offset": "1,3",
			"author": "_Gus Wiseman_, Sep 16 2018",
			"references": 0,
			"revision": 5,
			"time": "2018-09-17T08:34:53-04:00",
			"created": "2018-09-17T08:34:53-04:00"
		}
	]
}