{
	"greeting": "Greetings from The On-Line Encyclopedia of Integer Sequences! http://oeis.org/",
	"query": "id:A319015",
	"count": 1,
	"start": 0,
	"results": [
		{
			"number": 319015,
			"data": "1,5,6,4,4,6,8,4,1,3,6,0,5,9,3,8,5,7,9,3,3,4,7,2,9,2,7,4,2,7,2,4,7,5,6,6,2,3,0,6,2,5,8,2,6,9,9,7,0,4,3,9,0,4,6,4,4,4,5,0,5,5,9,6,0,2,8,4,8,0,1,3,3,1,7,9,5,7,8,4,0,6,6,5,9,1,3,0,6,4,0,1,6,2,4,6,9,1,4,8,4,4,7,4,0,2,4,7,1,6",
			"name": "Decimal expansion of Sum_{k\u003e=0} 1/2^(k^2).",
			"comment": [
				"The binary expansion is the characteristic function of the squares (A010052).",
				"This constant is transcendental (Nesterenko, 1996). - _Amiram Eldar_, Apr 30 2020"
			],
			"link": [
				"David H. Bailey, Jonathan M. Borwein, Richard E. Crandall, and Carl Pomerance, \u003ca href=\"https://doi.org/10.5802/jtnb.457\"\u003eOn the binary expansions of algebraic numbers\u003c/a\u003e, Journal de théorie des nombres de Bordeaux, Vol. 16, No. 3 (2004), pp. 487-518. See p. 490.",
				"Yu. V. Nesterenko, \u003ca href=\"https://doi.org/10.4213/sm158\"\u003eModular functions and transcendence questions\u003c/a\u003e (in Russian), Sbornik: Mathematics, Vol. 187 (1996), pp. 65-96, \u003ca href=\"http://dx.doi.org/10.1070/SM1996v187n09ABEH000158\"\u003eEnglish translation\u003c/a\u003e, ibid., pp. 1319-1348."
			],
			"formula": [
				"Equals (1 + theta_3(1/2))/2, where theta_3 is the Jacobi theta function.",
				"Equals 1 + Sum_{k\u003e=1) lambda(k)/(2^k - 1), where lambda is the Liouville function (A008836). - _Amiram Eldar_, Apr 30 2020"
			],
			"example": [
				"1.5644684136059385793347... = (1.1001000010000001000000001...)_2.",
				"                               | |  |    |      |        |",
				"                               0 1  4    9     16       25"
			],
			"mathematica": [
				"RealDigits[(1 + EllipticTheta[3, 0, 1/2])/2, 10, 110] [[1]]"
			],
			"program": [
				"(PARI) suminf(k=0, 1/2^(k^2)) \\\\ _Michel Marcus_, Sep 08 2018"
			],
			"xref": [
				"Cf. A000290, A002416, A008836, A010052, A190405, A299998."
			],
			"keyword": "nonn,cons",
			"offset": "1,2",
			"author": "_Ilya Gutkovskiy_, Sep 07 2018",
			"references": 2,
			"revision": 16,
			"time": "2020-04-30T03:30:28-04:00",
			"created": "2018-09-08T09:53:25-04:00"
		}
	]
}