{
	"greeting": "Greetings from The On-Line Encyclopedia of Integer Sequences! http://oeis.org/",
	"query": "id:A319402",
	"count": 1,
	"start": 0,
	"results": [
		{
			"number": 319402,
			"data": "0,0,0,0,0,0,0,0,0,1,1,2,2,4,4,6,7,10,11,13,14,18,18,22,23,27,26,31,30,36,36,39,39,45,43,49,49,55,52,58,56,63,62,65,64,71,68,73,72,79,77,82,81,87,86,90,89,96,93,96,96,101,100,101,100,107,103,108",
			"name": "Number of partitions of n into exactly nine positive Fibonacci numbers.",
			"link": [
				"Alois P. Heinz, \u003ca href=\"/A319402/b319402.txt\"\u003eTable of n, a(n) for n = 0..17711\u003c/a\u003e"
			],
			"formula": [
				"a(n) = [x^n y^9] 1/Product_{j\u003e=2} (1-y*x^A000045(j))."
			],
			"maple": [
				"h:= proc(n) option remember; `if`(n\u003c1, 0, `if`((t-\u003e",
				"      issqr(t+4) or issqr(t-4))(5*n^2), n, h(n-1)))",
				"    end:",
				"b:= proc(n, i, t) option remember; `if`(n=0, 1, `if`(i\u003c1 or",
				"      t\u003c1, 0, b(n, h(i-1), t)+b(n-i, h(min(n-i, i)), t-1)))",
				"    end:",
				"a:= n-\u003e (k-\u003e b(n, h(n), k)-b(n, h(n), k-1))(9):",
				"seq(a(n), n=0..120);"
			],
			"xref": [
				"Column k=9 of A319394.",
				"Cf. A000045."
			],
			"keyword": "nonn,look",
			"offset": "0,12",
			"author": "_Alois P. Heinz_, Sep 18 2018",
			"references": 2,
			"revision": 6,
			"time": "2020-10-05T11:05:46-04:00",
			"created": "2018-09-18T16:35:03-04:00"
		}
	]
}