{
	"greeting": "Greetings from The On-Line Encyclopedia of Integer Sequences! http://oeis.org/",
	"query": "id:A319849",
	"count": 1,
	"start": 0,
	"results": [
		{
			"number": 319849,
			"data": "1,2,1,1,3,2,4,1,1,5,2,6,1,3,1,7,2,4,8,1,1,3,9,2,10,1,5,1,11,2,4,6,12,1,3,1,13,2,14,1,7,1,3,5,15,2,4,8,16,1,1,17,2,6,18,1,3,9,1,19,2,4,10,20,1,5,1,3,7,21,2,22,1,11,1,23,2,4,6,8,12,24,1,3,1,5,25,2,26,1,13,1,3,9,27",
			"name": "Irregular triangle read by rows in which row n lists the even divisors of n in increasing order together with the odd divisors of n in increasing order.",
			"comment": [
				"Consider the diagram with overlapping periodic curves that appears in the Links section (figure 1). The number of curves that contain the point [n,0] equals the number of divisors of n. The simpler interpretation of the diagram is that the curve of diameter d represents the divisor d of n. Now here we introduce a new interpretation: the curve of diameter d that contains the point [n,0] represents the divisor c of n, where c = n/d. This model has the property that each odd quadrant centered at [n,0] contains the curves that represent the even divisors of n, and each even quadrant centered at [n,0] contains the curves that represent the odd divisors of n.",
				"We can find the n-th row of the triangle as follows:",
				"Consider only the semicircumferences that contain the point [n,0].",
				"If n is an even number, in the first quadrant from top to bottom we can see the curves that represent the even divisors of n in increasing order. Also we can see these curves in the third quadrant from bottom to top.",
				"Then, in the second quadrant from top to bottom we can see the curves that represent the odd divisors of n in increasing order. Also we can see these curves in the fourth quadrant from bottom to top (see example).",
				"Sequences of the same family are shown below:",
				"-----------------------------------",
				"Triangle    Order of divisors of n",
				"-----------------------------------",
				"A299481      odd  v   t.w.  even ^",
				"A299483      odd  ^   t.w.  even v",
				"A319844      even v   t.w.  odd  ^",
				"A319845      even ^   t.w.  odd  v",
				"A319846      odd  v   t.w.  even v",
				"A319847      odd  ^   t.w.  even ^",
				"A319848      even v   t.w.  odd  v",
				"This seq.    even ^   t.w.  odd  ^",
				"-----------------------------------",
				"In the above table we have that:",
				"\"even v\" means \"even divisors of n in decreasing order\".",
				"\"even ^\" means \"even divisors of n in increasing order\".",
				"\"odd v\"  means \"odd divisors of n in decreasing order\".",
				"\"odd ^\"  means \"odd divisors of n in increasing order\".",
				"\"t.w.\" means \"together with\"."
			],
			"link": [
				"Omar E. Pol, \u003ca href=\"http://www.polprimos.com/imagenespub/poldiv01.jpg\"\u003eFigure 1: Geometric model of divisors with periodic curves (for n = 1..16)\u003c/a\u003e, \u003ca href=\"http://www.polprimos.com/imagenespub/poldiv02.jpg\"\u003efigure 2: Upper part\u003c/a\u003e, \u003ca href=\"http://www.polprimos.com/imagenespub/poldiv03.jpg\"\u003efigure 3: Lower part upside down.\u003c/a\u003e",
				"\u003ca href=\"/index/Di#divisors\"\u003eIndex entries for sequences related to divisors of numbers\u003c/a\u003e"
			],
			"example": [
				"Triangle begins:",
				"   1;",
				"   2,  1;",
				"   1,  3;",
				"   2,  4,  1;",
				"   1,  5;",
				"   2,  6,  1,  3;",
				"   1,  7;",
				"   2,  4,  8,  1;",
				"   1,  3,  9;",
				"   2, 10,  1,  5;",
				"   1, 11;",
				"   2,  4,  6, 12,  1,  3;",
				"   1, 13;",
				"   2, 14,  1,  7;",
				"   1,  3,  5, 15;",
				"   2,  4,  8, 16,  1;",
				"   1, 17;",
				"   2,  6, 18,  1,  3,  9;",
				"   1, 19;",
				"   2,  4, 10, 20,  1,  5;",
				"   1,  3,  7, 21;",
				"   2, 22,  1, 11;",
				"   1, 23;",
				"   2,  4,  6,  8, 12, 24,  1,  3;",
				"   1,  5, 25;",
				"   2, 26,  1, 13;",
				"   1,  3,  9, 27;",
				"   2,  4, 14, 28,  1,  7;",
				"...",
				"For n = 12 the divisors of 12 are [1, 2, 3, 4, 6, 12]. The even divisors of 12 in increasing order are [2, 4, 6, 12], and the odd divisors of 12 in increasing order are [1, 3], so the 12th row of triangle is [2, 4, 6, 12, 1, 3].",
				"On the other hand, consider the diagram that appears in the Links section (figure 1). Then consider only the semicircumferences that contain the point [12,0]. In the first quadrant, from top to bottom, we can see the curves with diameters [6, 3, 2, 1]. Also we can see these curves in the third quadrant from bottom to top. The associated numbers c = 12/d are [2, 4, 6, 12] respectively. These are the even divisors of n in increasing order. Then, in the second quadrant, from top to bottom, we can see the curves with diameters [12, 4]. Also we can see these curves in the fourth quadrant from bottom to top. The associated numbers c = 12/d are [1, 3] respectively. These are the odd divisors of 12 in increasing order. Finally all numbers c obtained are [2, 4, 6, 12, 1, 3] equaling the 12th row of triangle."
			],
			"program": [
				"(PARI) row(n) = my(d=divisors(n)); concat(select(x-\u003e!(x%2), d), select(x-\u003e(x%2), d));",
				"lista(nn) = {for (n=1, nn, my(r = row(n)); for (k=1, #r, print1(r[k], \", \")););} \\\\ _Michel Marcus_, Jan 17 2019"
			],
			"xref": [
				"Row sums give A000203.",
				"Row n has length A000005(n).",
				"Column 1 gives A000034.",
				"Right border gives A000265.",
				"Other permutations of A027750 are A056538, A210959, A299481, A299483, A319844, A319845, A319846, A319847, A319848.",
				"Cf. A001227, A183063, A299480, A299485."
			],
			"keyword": "nonn,tabf",
			"offset": "1,2",
			"author": "_Omar E. Pol_, Sep 29 2018",
			"references": 7,
			"revision": 29,
			"time": "2019-01-18T04:43:47-05:00",
			"created": "2019-01-18T04:43:47-05:00"
		}
	]
}