{
	"greeting": "Greetings from The On-Line Encyclopedia of Integer Sequences! http://oeis.org/",
	"query": "id:A319594",
	"count": 1,
	"start": 0,
	"results": [
		{
			"number": 319594,
			"data": "2,4,4,12,12,0,12,16,0,36,24,0,20,36,0,60",
			"name": "Number of solutions to dft(p)^2 + dft(q)^2 = (4n-3), where p and q are even sequences of length 2n-1, p(0)=0, p(k)=+1,-1 when k\u003c\u003e0, q(k) is +1,-1 for all k, and dft(x) denotes the discrete Fourier transform of x.",
			"comment": [
				"Each solution (p,q) corresponds to a family of symmetric Hadamard matrices of size 8n-4.  To construct one member from this family, set A = circulant(p) + I, B = circulant(q), C = B, D = A - 2 I and H = [ [A, B, C, D], [B, D, -A, -C], [C, -A, -D, B], [D, -C, B, -A]]. Then A, B, C and D are symmetric and H is Hadamard and symmetric.",
				"Since p and q are assumed to be even, dft(p) and dft(q) are real-valued.",
				"2 divides a(n) for all n. If (p,q) is a solution, then (p,-q) is also a solution.",
				"4 divides a(n) when n\u003e1. If (p,q) is a solution, then (+/-p,+/-q) are also solutions. When n=1, p is the length-1 sequence, (0).",
				"It is known that a(n)\u003e0 for n=25, 26, 29."
			],
			"reference": [
				"J. Kline, Geometric Search for Hadamard Matrices. Submitted. (2018)."
			],
			"link": [
				"Jeffery Kline, \u003ca href=\"/A319594/a319594_1.txt\"\u003eList of all pairs (p,q)\u003c/a\u003e that are counted by a(n), for 1\u003c=n\u003c=16.",
				"Jeffery Kline, \u003ca href=\"/A319594/a319594_2.txt\"\u003eList of pairs (p,q)\u003c/a\u003e that establish a(n)\u003e0, for n=25, 26, and 29.",
				"J. Seberry and N.A. Balonin, \u003ca href=\"https://arxiv.org/abs/1512.01732\"\u003eThe Propus Construction for Symmetric Hadamard Matrices\u003c/a\u003e, arXiv:1512.01732 [math.CO], 2015.",
				"J. Seberry and N.A. Balonin, \u003ca href=\"https://ajc.maths.uq.edu.au/pdf/69/ajc_v69_p349.pdf\"\u003eTwo infinite families of symmetric Hadamard matrices\u003c/a\u003e, Australasian Journal of Combinatorics, 69 (2015), 349-357."
			],
			"example": [
				"For n=1, the a(1)=2 solutions are ((0),(-)) and ((0),(+)). For n=2, the a(2)=4 solutions are ((0,-,-), (-,+,+)), ((0,-,-), (+,-,-)), ((0,+,+),(-,+,+)) and ((0,+,+), (+,-,-))."
			],
			"xref": [
				"Cf. A007299, A020985, A185064, A258218, A321851, A322617, A322639."
			],
			"keyword": "nonn,more",
			"offset": "1,1",
			"author": "_Jeffery Kline_, Dec 16 2018",
			"references": 5,
			"revision": 45,
			"time": "2019-02-05T21:12:15-05:00",
			"created": "2019-02-05T21:12:15-05:00"
		}
	]
}