{
	"greeting": "Greetings from The On-Line Encyclopedia of Integer Sequences! http://oeis.org/",
	"query": "id:A319958",
	"count": 1,
	"start": 0,
	"results": [
		{
			"number": 319958,
			"data": "9,36,40,103,296,97,193,1195,1140,147,282,2853,5920,2491,152,478,5985,18505,16384,3575,108,619,11432,48103,64256,28570,3425,59",
			"name": "Triangle read by rows: T(n,k) (n \u003e= 5, 4 \u003c= k \u003c= n-1) = number of lattice 3-polytopes of width larger than 1, size n, and k vertices.",
			"link": [
				"Mónica Blanco and Francisco Santos, \u003ca href=\"https://arxiv.org/abs/1601.02577\"\u003eEnumeration of lattice 3-polytopes by their number of lattice points\u003c/a\u003e, arXiv:1601.02577 [math.CO], 2016-2017."
			],
			"xref": [
				"Row sums are A319957."
			],
			"keyword": "nonn,more,tabl",
			"offset": "5,1",
			"author": "_N. J. A. Sloane_, Oct 04 2018",
			"references": 3,
			"revision": 9,
			"time": "2018-10-04T12:13:48-04:00",
			"created": "2018-10-04T11:54:22-04:00"
		}
	]
}