{
	"greeting": "Greetings from The On-Line Encyclopedia of Integer Sequences! http://oeis.org/",
	"query": "id:A319599",
	"count": 1,
	"start": 0,
	"results": [
		{
			"number": 319599,
			"data": "0,1,10,20,1101,1121,11311,31101,40210,340210,4620020,5431101,7211311,12040210,24120020,151651121,165631101,1135531101,8084220020,9117311311,894105331101",
			"name": "Numbers k such that k mod (2, 3, 4, ... , i+1) = (d_i, d_i-1, ..., d_1), where d_1, d_2, ..., d_i are the digits of k, with MSD(k) = d_1 and LSD(k) = d_i.",
			"example": [
				"a(11) = 5431101 because:",
				"5431101 mod 2 = 1, 5431101 mod 3 = 0, 5431101 mod 4 = 1,",
				"5431101 mod 5 = 1, 5431101 mod 6 = 3, 5431101 mod 7 = 4,",
				"5431101 mod 8 = 5."
			],
			"maple": [
				"P:=proc(q) local a,i,j,n,ok; print(0); print(1); for n from 1 to q do",
				"for i from 0 to 1 do a:=10*n+i; ok:=1; for j from 1 to ilog10(a)+1 do",
				"if (a mod 10)\u003c\u003e((10*n+i) mod (j+1)) then ok:=0; break; else",
				"a:=trunc(a/10); fi; od; if ok=1 then print(10*n+i); break; fi;",
				"od; od; end: P(10^12);"
			],
			"xref": [
				"Cf. A266181, A284815."
			],
			"keyword": "nonn,base,more",
			"offset": "0,3",
			"author": "_Paolo P. Lava_, Sep 24 2018",
			"references": 0,
			"revision": 15,
			"time": "2021-05-10T09:59:34-04:00",
			"created": "2018-09-28T22:26:25-04:00"
		}
	]
}