{
	"greeting": "Greetings from The On-Line Encyclopedia of Integer Sequences! http://oeis.org/",
	"query": "id:A319058",
	"count": 1,
	"start": 0,
	"results": [
		{
			"number": 319058,
			"data": "0,0,0,0,0,1,0,0,0,1,0,2,0,1,1,0,0,2,0,2,1,1,0,3,0,1,0,2,0,4,0,0,1,1,1,4,0,1,1,3,0,4,0,2,2,1,0,5,0,2,1,2,0,3,1,3,1,1,0,8,0,1,2,0,1,4,0,2,1,4,0,9,0,1,2,2,1,4,0,5,0,1,0,8,1,1,1",
			"name": "Number of relatively prime aperiodic factorizations of n into factors \u003e 1.",
			"comment": [
				"A factorization is relatively prime if the factors have no common divisor \u003e 1, and aperiodic if the factors appear with relatively prime multiplicities."
			],
			"example": [
				"The a(144) = 14 factorizations:",
				"  (2*2*2*2*9), (2*2*2*3*6), (2*2*3*3*4),",
				"  (2*2*3*12), (2*2*4*9), (2*3*3*8), (2*3*4*6),",
				"  (2*3*24), (2*8*9), (3*3*16), (3*4*12), (3*6*8), (4*4*9),",
				"  (9*16).",
				"The 2 relatively prime but not aperiodic factorizations missing from this list are (2*2*2*2*3*3) and (3*3*4*4), while the 11 missing factorizations that are not relatively prime but are aperiodic are (2*2*2*18), (2*2*36), (2*4*18), (2*6*12), (2*72), (3*48), (4*6*6), (4*36), (6*24), (8*18), and (144), while the 2 missing factorizations that are neither relatively prime nor aperiodic are (2*2*6*6) and (12*12), for a total of A001055(144) = 29 factorizations."
			],
			"mathematica": [
				"facs[n_]:=If[n\u003c=1,{{}},Join@@Table[(Prepend[#1,d]\u0026)/@Select[facs[n/d],Min@@#1\u003e=d\u0026],{d,Rest[Divisors[n]]}]];",
				"Table[Length[Select[facs[n],And[GCD@@#==1,GCD@@Length/@Split[#]==1]\u0026]],{n,100}]"
			],
			"xref": [
				"Cf. A000740, A000837, A001055, A007916, A045778, A100953, A162247, A281116, A303386."
			],
			"keyword": "nonn",
			"offset": "1,12",
			"author": "_Gus Wiseman_, Sep 09 2018",
			"references": 0,
			"revision": 5,
			"time": "2018-09-10T06:12:18-04:00",
			"created": "2018-09-10T06:12:18-04:00"
		}
	]
}