{
	"greeting": "Greetings from The On-Line Encyclopedia of Integer Sequences! http://oeis.org/",
	"query": "id:A319601",
	"count": 1,
	"start": 0,
	"results": [
		{
			"number": 319601,
			"data": "1,1,7,46,427,4266,56424,772888,12882984,226946552,4546150566,95857685949,2267911223257,55671787777419,1496799152925925,42138629446101195,1273072014409479719,40078261700215782164,1346081462070844724125,46899893904515009262290",
			"name": "Number of plane partitions of n into parts of sorts {1, 2, ... }.",
			"comment": [
				"All sorts up to the highest have to be present."
			],
			"link": [
				"Alois P. Heinz, \u003ca href=\"/A319601/b319601.txt\"\u003eTable of n, a(n) for n = 0..50\u003c/a\u003e",
				"Eric Weisstein's World of Mathematics, \u003ca href=\"http://mathworld.wolfram.com/PlanePartition.html\"\u003ePlane partition\u003c/a\u003e",
				"Wikipedia, \u003ca href=\"https://en.wikipedia.org/wiki/Plane_partition\"\u003ePlane partition\u003c/a\u003e"
			],
			"formula": [
				"a(n) = Sum_{k=0..n} A319600(n,k)."
			],
			"xref": [
				"Row sums of A319600.",
				"Cf. A000219."
			],
			"keyword": "nonn",
			"offset": "0,3",
			"author": "_Alois P. Heinz_, Sep 24 2018",
			"references": 2,
			"revision": 9,
			"time": "2018-09-28T05:20:32-04:00",
			"created": "2018-09-28T05:20:32-04:00"
		}
	]
}