{
	"greeting": "Greetings from The On-Line Encyclopedia of Integer Sequences! http://oeis.org/",
	"query": "id:A319787",
	"count": 1,
	"start": 0,
	"results": [
		{
			"number": 319787,
			"data": "1,1,3,8,27,95,373,1532,6724",
			"name": "Number of intersecting multiset partitions of normal multisets of size n.",
			"comment": [
				"A multiset is normal if it spans an initial interval of positive integers.",
				"A multiset partition is intersecting iff no two parts are disjoint."
			],
			"example": [
				"The a(1) = 1 through a(3) = 8 multiset partitions:",
				"1: {{1}}",
				"2: {{1,1}}",
				"   {{1,2}}",
				"   {{1},{1}}",
				"3: {{1,1,1}}",
				"   {{1,2,2}}",
				"   {{1,1,2}}",
				"   {{1,2,3}}",
				"   {{1},{1,1}}",
				"   {{2},{1,2}}",
				"   {{1},{1,2}}",
				"   {{1},{1},{1}}"
			],
			"xref": [
				"Cf. A007716, A049311, A283877, A305854, A306006, A316980, A317752.",
				"Cf. A319755, A319759, A319760, A319765, A319779, A319787, A319782, A319784, A319789."
			],
			"keyword": "nonn,more",
			"offset": "0,3",
			"author": "_Gus Wiseman_, Sep 27 2018",
			"references": 9,
			"revision": 7,
			"time": "2018-09-28T15:24:39-04:00",
			"created": "2018-09-28T15:24:39-04:00"
		}
	]
}