{
	"greeting": "Greetings from The On-Line Encyclopedia of Integer Sequences! http://oeis.org/",
	"query": "id:A319761",
	"count": 1,
	"start": 0,
	"results": [
		{
			"number": 319761,
			"data": "1,1,2,24,5971968,295334114577121602242226794587320483840",
			"name": "a(n) = Product_{i=1..n} i^s(n,i), where s is an unsigned Stirling number of the 1st kind.",
			"example": [
				"For n = 4 we have a(n) = 1^6*2^11*3^6*4^1 = 5971968."
			],
			"maple": [
				"f:= n -\u003e mul(i^abs(Stirling1(n,i)),i=1..n):",
				"map(f, [$0..6]); # _Robert Israel_, Sep 27 2018"
			],
			"program": [
				"(PARI) a(n) = prod(i=1, n, i^abs(stirling(n, i, 1))); \\\\ _Michel Marcus_, Sep 27 2018"
			],
			"xref": [
				"Cf. A132393."
			],
			"keyword": "nonn",
			"offset": "0,3",
			"author": "_Jeffrey Shallit_, Sep 27 2018",
			"references": 0,
			"revision": 16,
			"time": "2018-09-28T10:56:12-04:00",
			"created": "2018-09-27T18:56:12-04:00"
		}
	]
}