{
	"greeting": "Greetings from The On-Line Encyclopedia of Integer Sequences! http://oeis.org/",
	"query": "id:A319054",
	"count": 1,
	"start": 0,
	"results": [
		{
			"number": 319054,
			"data": "1,2,3,4,6,8,12,18,24,36,54,72,108,162,216,324,486,648,972,1458,1944,2916,4374,5832,8748,13122,17496,26244,39366,52488,78732,118098,157464,236196,354294,472392,708588,1062882,1417176,2125764,3188646,4251528,6377292",
			"name": "Maximum product of an aperiodic integer partition of n.",
			"comment": [
				"An integer partition is aperiodic if its multiplicities are relatively prime."
			],
			"example": [
				"Among the aperiodic partitions of 9, those with maximum product are (432) and (3222), so a(9) = 24. If periodic partitions were allowed, we would have (333) with product 27."
			],
			"mathematica": [
				"Table[Max[Times@@@Select[IntegerPartitions[n],GCD@@Length/@Split[#]==1\u0026]],{n,30}]"
			],
			"xref": [
				"Cf. A000740, A000792, A000793, A000837, A007916, A100953, A281116, A289508, A289509, A296302."
			],
			"keyword": "nonn",
			"offset": "1,2",
			"author": "_Gus Wiseman_, Sep 09 2018",
			"references": 1,
			"revision": 6,
			"time": "2018-09-10T06:11:56-04:00",
			"created": "2018-09-10T06:11:56-04:00"
		}
	]
}