{
	"greeting": "Greetings from The On-Line Encyclopedia of Integer Sequences! http://oeis.org/",
	"query": "id:A319657",
	"count": 1,
	"start": 0,
	"results": [
		{
			"number": 319657,
			"data": "0,1,2,3,4,5,6,7,8,1,10,11,12,13,14,15,16,17,2,11,20,21,22,23,24,25,26,3,12,21,30,31,32,33,34,35,4,13,22,31,40,41,42,43,44,5,14,23,32,41,50,51,52,53,6,15,24,33,42,51,60,61,62,7,16,25,34,43,52,61,70,71",
			"name": "Write n in 9-ary, sort digits into increasing order.",
			"link": [
				"Seiichi Manyama, \u003ca href=\"/A319657/b319657.txt\"\u003eTable of n, a(n) for n = 0..6560\u003c/a\u003e"
			],
			"program": [
				"(Ruby)",
				"def A(k, n)",
				"  (0..n).map{|i| i.to_s(k).split('').sort.join.to_i(k)}",
				"end",
				"p A(9, 100)",
				"(PARI) a(n) = fromdigits(vecsort(digits(n, 9)), 9); \\\\ _Michel Marcus_, Sep 25 2018"
			],
			"xref": [
				"b-ary: A038573 (b=2), A038574 (b=3), A319652 (b=4), A319653 (b=5), A319654 (b=6), A319655 (b=7), A319656 (b=8), this sequence (b=9), A004185 (b=10).",
				"Cf. A165110."
			],
			"keyword": "nonn,base,look",
			"offset": "0,3",
			"author": "_Seiichi Manyama_, Sep 25 2018",
			"references": 9,
			"revision": 15,
			"time": "2018-09-26T08:54:40-04:00",
			"created": "2018-09-25T20:52:37-04:00"
		}
	]
}