{
	"greeting": "Greetings from The On-Line Encyclopedia of Integer Sequences! http://oeis.org/",
	"query": "id:A319542",
	"count": 1,
	"start": 0,
	"results": [
		{
			"number": 319542,
			"data": "1,51,531,2571,15703,90271,102053,530102,4550102,4570102,4580102,22900501,134003006,1002003005,5001002003,5003001002,30005001002,30005002001,200030005001,1000200030005,5000100020003,5000300010002",
			"name": "Record values in A039932.",
			"comment": [
				"The positive integer n belongs to the sequence iff there exists a positive integer k so that each of the first k multiples of n contains the decimal digit 1, but no smaller n has this property for the same value of k."
			],
			"example": [
				"51 is a term because the first three multiples of 51 (51, 102, 153) all contain the digit 1, and 51 is the least positive integer with this property."
			],
			"xref": [
				"Cf. A319548, A039932, A317173. Subset of A011531."
			],
			"keyword": "nonn,base",
			"offset": "1,2",
			"author": "_David Radcliffe_, Sep 22 2018",
			"references": 1,
			"revision": 6,
			"time": "2018-11-20T21:51:53-05:00",
			"created": "2018-11-20T21:51:53-05:00"
		}
	]
}