{
	"greeting": "Greetings from The On-Line Encyclopedia of Integer Sequences! http://oeis.org/",
	"query": "id:A320283",
	"count": 1,
	"start": 0,
	"results": [
		{
			"number": 320283,
			"data": "0,1,-2,-1,-4,-3,-6,-5,8,9,6,7,4,5,2,3,16,17,14,15,12,13,10,11,24,25,22,23,20,21,18,19,-32,-31,-34,-33,-36,-35,-38,-37,-24,-23,-26,-25,-28,-27,-30,-29,-16,-15,-18,-17,-20,-19,-22,-21,-8,-7,-10,-9,-12,-11,-14,-13,-64,-63,-66,-65,-68,-67,-70,-69",
			"name": "Lexicographical ordering of pure imaginary integers in the base (-1+i) numeral system.",
			"comment": [
				"For ordering of pure real integers in same system see A073791.",
				"All integers appear in this sequence."
			],
			"link": [
				"Andrey Zabolotskiy, \u003ca href=\"/A320283/b320283.txt\"\u003eTable of n, a(n) for n = 0..8191\u003c/a\u003e (terms up to 255 from Andreas K. Badea)",
				"Solomon I. Khmelnik, \u003ca href=\"http://lib.izdatelstwo.com/Papers2/s4.djvu\"\u003eSpecialized Digital Computer for Operations with Complex Numbers\u003c/a\u003e, Questions of Radio Electronics, 12 (1964), 60-82 [in Russian].",
				"W. J. Penney, \u003ca href=\"https://www.nsa.gov/Portals/70/documents/news-features/declassified-documents/tech-journals/a-binary-system.pdf\"\u003eA \"binary\" system for complex numbers\u003c/a\u003e, NSA Technical Journal, Vol. X, No. 2 (1965), 13-15.",
				"W. J. Penney, \u003ca href=\"https://doi.org/10.1145/321264.321274\"\u003eA \"binary\" system for complex numbers\u003c/a\u003e, JACM 12 (1965), 247-248."
			],
			"formula": [
				"From _Andrey Zabolotskiy_, Jan 31 2019: (Start)",
				"a(n) = A073791(2*n)/2.",
				"a(n) = -a(4*n)/4.",
				"a(n) = -4*a(floor(n/4)) + a(n mod 4). (End)"
			],
			"xref": [
				"Cf. A066321, A256441, A073791."
			],
			"keyword": "sign,easy",
			"offset": "0,3",
			"author": "_Andreas K. Badea_, Oct 09 2018",
			"references": 2,
			"revision": 29,
			"time": "2019-01-31T08:22:45-05:00",
			"created": "2019-01-30T06:48:26-05:00"
		}
	]
}