{
	"greeting": "Greetings from The On-Line Encyclopedia of Integer Sequences! http://oeis.org/",
	"query": "id:A320511",
	"count": 1,
	"start": 0,
	"results": [
		{
			"number": 320511,
			"data": "147,171,189,207,243,261,275,279,297,333,351,363,369,387,423,429,465,477,507,531,549,555,595,603,605,615,639,645,657,663,705,711,715,741,747,795,801,833,845,867,873,885,909,915,927,931,935,963,969,981,1005,1017,1045,1065,1071,1083,1095,1105,1127",
			"name": "Numbers k with the property that the symmetric representation of sigma(k) has six parts.",
			"example": [
				"147 is in the sequence because the 147th row of A237593 is [74, 25, 13, 8, 5, 4, 4, 2, 2, 2, 2, 1, 1, 2, 1, 1, 1, 1, 2, 1, 1, 2, 2, 2, 2, 4, 4, 5, 8, 13, 25, 74], and the 146th row of the same triangle is [74, 25, 12, 8, 6, 4, 3, 2, 2, 2, 2, 1, 2, 1, 1, 1, 1, 1, 1, 2, 1, 2, 2, 2, 2, 3, 4, 6, 8, 12, 25, 74], therefore between both symmetric Dyck paths there are six parts: [74, 26, 14, 14, 26, 74].",
				"Note that the sum of these parts is 74 + 26 + 14 + 14 + 26 + 74 = 228, equaling the sum of the divisors of 147: 1 + 3 + 7 + 21 + 49 + 147 = 228.",
				"(The diagram of the symmetric representation of sigma(147) = 228 is too large to include.)"
			],
			"xref": [
				"Column 6 of A240062.",
				"Cf. A237270 (the parts), A237271 (number of parts), A238443 = A174973 (one part), A239929 (two parts), A279102 (three parts), A280107 (four parts), A320066 (five parts).",
				"Cf. A000203, A018303, A196020, A235791, A236104, A237048, A237591, A237593, A239663, A239665, A245092, A262626, A296508."
			],
			"keyword": "nonn",
			"offset": "1,1",
			"author": "_Omar E. Pol_, Oct 14 2018",
			"references": 1,
			"revision": 12,
			"time": "2018-10-19T13:27:36-04:00",
			"created": "2018-10-19T13:27:36-04:00"
		}
	]
}