{
	"greeting": "Greetings from The On-Line Encyclopedia of Integer Sequences! http://oeis.org/",
	"query": "id:A320593",
	"count": 1,
	"start": 0,
	"results": [
		{
			"number": 320593,
			"data": "1,2,3,5,8,11,16,21,28,36,46,57,71,86,104,124,148,173,203,235,272,312,357,405,460,518,583,652,729,810,900,995,1099,1209,1329,1455,1593,1737,1893,2057,2234,2419,2618,2826,3049,3282,3531,3790,4067,4355,4661,4980",
			"name": "Number of partitions of n with five parts in which no part occurs more than twice.",
			"link": [
				"Alois P. Heinz, \u003ca href=\"/A320593/b320593.txt\"\u003eTable of n, a(n) for n = 9..10000\u003c/a\u003e"
			],
			"formula": [
				"G.f.: (x^5-x-1)*x^9/((x^2+x+1)*(x^4+x^3+x^2+x+1)*(x^2+1)*(x+1)^2*(x-1)^5)."
			],
			"xref": [
				"Column k=5 of A209318."
			],
			"keyword": "nonn,easy",
			"offset": "9,2",
			"author": "_Alois P. Heinz_, Oct 16 2018",
			"references": 2,
			"revision": 4,
			"time": "2018-10-16T16:39:58-04:00",
			"created": "2018-10-16T16:39:58-04:00"
		}
	]
}