{
	"greeting": "Greetings from The On-Line Encyclopedia of Integer Sequences! http://oeis.org/",
	"query": "id:A320000",
	"count": 1,
	"start": 0,
	"results": [
		{
			"number": 320000,
			"data": "2,1,3,1,1,0,1,0,0,4,1,0,0,1,0,1,0,0,1,0,4,1,0,0,1,0,2,0,1,0,0,0,0,1,0,5,1,0,0,0,0,1,0,1,0,1,0,0,0,0,1,0,0,0,2,1,0,0,0,0,1,0,0,0,1,0,1,0,0,0,0,0,0,0,0,1,0,6,1,0,0,0,0,0,0,0,0,1,0,2,0,1,0,0,0,0,0,0,0,0,1,0,1,0,0",
			"name": "Square array A(n, k) read by descending antidiagonals: A(1, 1) = 2, A(1, k) = 1 for k \u003e 1, and for n \u003e 1, A(n, k) = Sum_{d|n, d\u003e=k} A010051(1+d)*[Sum_{i=0..valuation(n,1+d)} A((n/d)/((1+d)^i), 1+d)].",
			"comment": [
				"This square array gives the values obtained from the recursive PARI-program that _M. F. Hasler_ has provided Oct 05 2009 for A014197, in its two-argument form."
			],
			"link": [
				"Antti Karttunen, \u003ca href=\"/A320000/b320000.txt\"\u003eTable of n, a(n) for n = 1..10585; the first 145 antidiagonals of the array\u003c/a\u003e"
			],
			"example": [
				"Array begins as:",
				"n  | k=1, 2, 3, 4, 5, 6, 7, 8, 9,10,11,12,13,14,15,16, ...",
				"---+------------------------------------------------",
				"1  |   2, 1, 1, 1, 1, 1, 1, 1, 1, 1, 1, 1, 1, 1, 1, 1, ...",
				"2  |   3, 1, 0, 0, 0, 0, 0, 0, 0, 0, 0, 0, 0, 0, 0, 0, ...",
				"3  |   0, 0, 0, 0, 0, 0, 0, 0, 0, 0, 0, 0, 0, 0, 0, 0, ...",
				"4  |   4, 1, 1, 1, 0, 0, 0, 0, 0, 0, 0, 0, 0, 0, 0, 0, ...",
				"5  |   0, 0, 0, 0, 0, 0, 0, 0, 0, 0, 0, 0, 0, 0, 0, 0, ...",
				"6  |   4, 2, 1, 1, 1, 1, 0, 0, 0, 0, 0, 0, 0, 0, 0, 0, ...",
				"7  |   0, 0, 0, 0, 0, 0, 0, 0, 0, 0, 0, 0, 0, 0, 0, 0, ...",
				"8  |   5, 1, 0, 0, 0, 0, 0, 0, 0, 0, 0, 0, 0, 0, 0, 0, ...",
				"9  |   0, 0, 0, 0, 0, 0, 0, 0, 0, 0, 0, 0, 0, 0, 0, 0, ...",
				"10 |   2, 1, 1, 1, 1, 1, 1, 1, 1, 1, 0, 0, 0, 0, 0, 0, ...",
				"11 |   0, 0, 0, 0, 0, 0, 0, 0, 0, 0, 0, 0, 0, 0, 0, 0, ...",
				"12 |   6, 2, 1, 1, 1, 1, 1, 1, 1, 1, 1, 1, 0, 0, 0, 0, ...",
				"13 |   0, 0, 0, 0, 0, 0, 0, 0, 0, 0, 0, 0, 0, 0, 0, 0, ...",
				"14 |   0, 0, 0, 0, 0, 0, 0, 0, 0, 0, 0, 0, 0, 0, 0, 0, ...",
				"15 |   0, 0, 0, 0, 0, 0, 0, 0, 0, 0, 0, 0, 0, 0, 0, 0, ...",
				"16 |   6, 1, 1, 1, 1, 1, 1, 1, 1, 1, 1, 1, 1, 1, 1, 1, ..."
			],
			"program": [
				"(PARI)",
				"up_to = 120;",
				"A320000sq(n, k) = if(1==n, if(1==k,2,1), sumdiv(n, d, if(d\u003e=k \u0026\u0026 isprime(d+1), my(p=d+1, q=n/d); sum(i=0, valuation(n, p), A320000sq(q/(p^i), p))))); \\\\ After _M. F. Hasler_'s code in A014197",
				"A320000list(up_to) = { my(v = vector(up_to), i=0); for(a=1,oo, for(col=1,a, i++; if(i \u003e up_to, return(v)); v[i] = A320000sq(col,(a-(col-1))))); (v); };",
				"v320000 = A320000list(up_to);",
				"A320000(n) = v320000[n];"
			],
			"xref": [
				"Cf. A014197 (column 1).",
				"Cf. A000010, A322310."
			],
			"keyword": "nonn,tabl",
			"offset": "1,1",
			"author": "_Antti Karttunen_, Dec 03 2018",
			"references": 5,
			"revision": 17,
			"time": "2018-12-03T18:29:14-05:00",
			"created": "2018-12-03T18:29:14-05:00"
		}
	]
}