{
	"greeting": "Greetings from The On-Line Encyclopedia of Integer Sequences! http://oeis.org/",
	"query": "id:A320130",
	"count": 1,
	"start": 0,
	"results": [
		{
			"number": 320130,
			"data": "1,4,6,8,12,8,8,16,8,20,36,24,48,40,16,48,24,40,78,40,72,64,24,48,32,60,84,80,96,40,48,64,24,96,108,96,156,72,40,112,48,104,192,88,144,168,48,96,96,100,186,144,168,136,80,144,64,160,180,120,288,104,64,208",
			"name": "Number of integer solutions to a^2 + b^2 + 2*c^2 + 8*d^2 = n.",
			"comment": [
				"a(n) \u003e 0 for n \u003e= 0."
			],
			"link": [
				"Seiichi Manyama, \u003ca href=\"/A320130/b320130.txt\"\u003eTable of n, a(n) for n = 0..10000\u003c/a\u003e"
			],
			"formula": [
				"G.f.: theta_3(q)^2 * theta_3(q^2) * theta_3(q^8)."
			],
			"xref": [
				"Cf. A097057, A320124, A320125, A320126, A320127, A320128, A320131, A320132, A320133, A320134, A320135, A320136."
			],
			"keyword": "nonn",
			"offset": "0,2",
			"author": "_Seiichi Manyama_, Oct 06 2018",
			"references": 9,
			"revision": 11,
			"time": "2018-10-07T03:33:22-04:00",
			"created": "2018-10-06T13:49:31-04:00"
		}
	]
}