{
	"greeting": "Greetings from The On-Line Encyclopedia of Integer Sequences! http://oeis.org/",
	"query": "id:A320512",
	"count": 1,
	"start": 0,
	"results": [
		{
			"number": 320512,
			"data": "1,5,31,258,2702,33821,492978,8198218,153136209,3173544162,72241986729,1791612993205,48074653669593,1387590910289915,42863756641047136,1410904918289665343,49296029555617568097,1822020250023113834772,71023629427964322798782",
			"name": "Total number of nodes summed over all self-avoiding planar walks starting at (0,0), ending at (n,0), remaining in the first quadrant and using steps (0,1), (1,0), (1,1), (-1,1), and (1,-1) such that (0,1) is never used directly before or after (1,0) or (1,1).",
			"link": [
				"Alois P. Heinz, \u003ca href=\"/A320512/b320512.txt\"\u003eTable of n, a(n) for n = 0..402\u003c/a\u003e"
			],
			"formula": [
				"a(n) ~ c * n! * 2^n * n^(7/4), where c = 0.1758027947... - _Vaclav Kotesovec_, May 14 2020"
			],
			"maple": [
				"b:= proc(x, y, i) option remember; (l-\u003e `if`(min(x, y)\u003c0, 0,",
				"      `if`(max(x, y)=0, [1$2], add(`if`({i, j} in {{1, 2}, {3, 5},",
				"       {4, 5}}, 0, (p-\u003e p+[0, p[1]])(b(x-l[j][1], y-l[j][2], j))),",
				"       j=1..5))))([[-1, 1], [1, -1], [1, 1], [1, 0], [0, 1]])",
				"    end:",
				"a:= n-\u003e b(n, 0$2)[2]:",
				"seq(a(n), n=0..20);"
			],
			"mathematica": [
				"b[x_, y_, i_] := b[x, y, i] = With[{l = {{-1, 1}, {1, -1}, {1, 1}, {1, 0}, {0, 1}}}, If[Min[x, y] \u003c 0, {0, 0}, If[Max[x, y] == 0, {1, 1}, Sum[If[ MemberQ[{{1, 2}, {3, 5}, {4, 5}}, Sort@{i, j}], {0, 0}, Function[p, p + {0, p[[1]]}][b[x - l[[j]][[1]], y - l[[j]][[2]], j]]], {j, 5}]]]];",
				"a[n_] := b[n, 0, 0][[2]];",
				"a /@ Range[0, 20] (* _Jean-François Alcover_, May 14 2020, after Maple *)"
			],
			"xref": [
				"Cf. A317985."
			],
			"keyword": "nonn,walk",
			"offset": "0,2",
			"author": "_Alois P. Heinz_, Oct 22 2018",
			"references": 2,
			"revision": 33,
			"time": "2020-05-14T08:59:30-04:00",
			"created": "2018-11-05T10:06:19-05:00"
		}
	]
}