{
	"greeting": "Greetings from The On-Line Encyclopedia of Integer Sequences! http://oeis.org/",
	"query": "id:A320439",
	"count": 1,
	"start": 0,
	"results": [
		{
			"number": 320439,
			"data": "1,1,0,2,0,1,0,3,0,1,0,2,0,1,1,5,0,1,0,2,0,1,0,4,0,1,0,2,0,2,0,7,1,1,1,3,0,1,0,4,0,1,0,2,1,1,0,7,0,1,1,2,0,1,1,4,0,1,0,5,0,1,0,11,0,2,0,2,1,2,0,6,0,1,1,2,1,1,0,7,0,1,0,3,1,1,0",
			"name": "Number of factorizations of n into factors \u003e 1 where each factor's prime indices are relatively prime. Number of factorizations of n using elements of A289509.",
			"comment": [
				"Also the number of multiset partitions of the multiset of prime indices of n using multisets each of which is relatively prime.",
				"A prime index of n is a number m such that prime(m) divides n. The multiset of prime indices of n is row n of A112798.",
				"Two or more numbers are relatively prime if they have no common divisor \u003e 1. A single number is not considered to be relatively prime unless it is equal to 1."
			],
			"link": [
				"Antti Karttunen, \u003ca href=\"/A320439/b320439.txt\"\u003eTable of n, a(n) for n = 1..20000\u003c/a\u003e",
				"\u003ca href=\"/index/Pri#prime_indices\"\u003eIndex entries for sequences computed from indices in prime factorization\u003c/a\u003e"
			],
			"example": [
				"The a(72) = 6 factorizations are (2*2*18), (2*6*6), (2*36), (4*18), (6*12), (72)."
			],
			"mathematica": [
				"primeMS[n_]:=If[n==1,{},Flatten[Cases[FactorInteger[n],{p_,k_}:\u003eTable[PrimePi[p],{k}]]]];",
				"facsrp[n_]:=If[n\u003c=1,{{}},Join@@Table[(Prepend[#,d]\u0026)/@Select[facsrp[n/d],Min@@#\u003e=d\u0026],{d,Select[Rest[Divisors[n]],GCD@@primeMS[#]==1\u0026]}]];",
				"Table[Length[facsrp[n]],{n,100}]"
			],
			"program": [
				"(PARI) A320439(n, m=n) = if(1==n, 1, my(s=0); fordiv(n, d, if((d\u003c=m)\u0026\u0026(1==gcd(apply(x-\u003eprimepi(x), factor(d)[, 1]))), s += A320439(n/d, d))); (s)); \\\\ _Antti Karttunen_, Dec 06 2021"
			],
			"xref": [
				"Positions of 0's are A318978.",
				"Cf. A000837, A001055, A007359, A085945, A289508, A289509, A302569, A302696, A320424."
			],
			"keyword": "nonn",
			"offset": "1,4",
			"author": "_Gus Wiseman_, Jan 08 2019",
			"references": 2,
			"revision": 14,
			"time": "2021-12-06T11:03:13-05:00",
			"created": "2019-01-09T13:04:59-05:00"
		}
	]
}