{
	"greeting": "Greetings from The On-Line Encyclopedia of Integer Sequences! http://oeis.org/",
	"query": "id:A320055",
	"count": 1,
	"start": 0,
	"results": [
		{
			"number": 320055,
			"data": "1,2,3,5,7,11,13,15,17,19,21,23,25,29,31,33,35,37,39,41,43,47,49,51,53,55,57,59,61,65,67,69,71,73,77,79,83,85,87,89,91,93,95,97,101,103,107,109,111,113,115,119,121,123,127,129,131,133,137,139,141,143",
			"name": "Heinz numbers of sum-product knapsack partitions.",
			"comment": [
				"A sum-product knapsack partition is a finite multiset m of positive integers such that every sum of products of parts of any multiset partition of any submultiset of m is distinct.",
				"The Heinz number of an integer partition (y_1, ..., y_k) is prime(y_1) * ... * prime(y_k).",
				"Differs from A320056 in having 2, 845, ... and lacking 245, 455, 847, ...."
			],
			"example": [
				"A complete list of sums of products of multiset partitions of submultisets of the partition (6,6,3) is:",
				"            0 = 0",
				"          (3) = 3",
				"          (6) = 6",
				"        (3*6) = 18",
				"        (6*6) = 36",
				"      (3*6*6) = 108",
				"      (3)+(6) = 9",
				"    (3)+(6*6) = 39",
				"      (6)+(6) = 12",
				"    (6)+(3*6) = 24",
				"  (3)+(6)+(6) = 15",
				"These are all distinct, and the Heinz number of (6,6,3) is 845, so 845 belongs to the sequence."
			],
			"mathematica": [
				"multWt[n_]:=If[n==1,1,Times@@Cases[FactorInteger[n],{p_,k_}:\u003ePrimePi[p]^k]];",
				"facs[n_]:=If[n\u003c=1,{{}},Join@@Table[Map[Prepend[#,d]\u0026,Select[facs[n/d],Min@@#\u003e=d\u0026]],{d,Rest[Divisors[n]]}]];",
				"Select[Range[100],UnsameQ@@Table[Plus@@multWt/@f,{f,Join@@facs/@Divisors[#]}]\u0026]"
			],
			"xref": [
				"Cf. A001970, A056239, A066739, A108917, A112798, A292886, A299702, A301899, A318949, A319318, A319913.",
				"Cf. A267597, A320052, A320053, A320054, A320056, A320057, A320058."
			],
			"keyword": "nonn",
			"offset": "1,2",
			"author": "_Gus Wiseman_, Oct 04 2018",
			"references": 7,
			"revision": 7,
			"time": "2018-10-05T18:47:05-04:00",
			"created": "2018-10-05T18:47:05-04:00"
		}
	]
}