{
	"greeting": "Greetings from The On-Line Encyclopedia of Integer Sequences! http://oeis.org/",
	"query": "id:A320168",
	"count": 1,
	"start": 0,
	"results": [
		{
			"number": 320168,
			"data": "1,1,2,2,7,12,22,26,85,226,717,1695,5071,14275,47405,176747,638329,2166516",
			"name": "Number of ways to group the first 2*n positive integers into n pairs (xi, yi) with xi \u003c yi, and such that the n numbers (yi mod xi) are all different.",
			"comment": [
				"How does a(n+1)/a(n) behave as n increases?"
			],
			"link": [
				"David A. Corneth, \u003ca href=\"/A320168/a320168_2.png\"\u003eIllustration for a(4)\u003c/a\u003e"
			],
			"example": [
				"a(3) = 2 because {(1,3), (2,5), (4,6)} and {(1,5), (2,3), (4,6)} are corresponding sets.",
				"a(4) = 7 because {(1,6), (2,5), (3,8), (4,7)}, {(1,3), (2,7), (4,6), (5,8)}, {(1,7), (2,3), (4,6), (5,8)}, {(1,3), (2,5), (4,7), (6,8)}, {(1,5), (2,3), (4,7), (6,8)}, {(1,2), (3,7), (4,6), (5,8)}, {(1,2), (3,8), (4,7), (5,6)} are corresponding sets."
			],
			"xref": [
				"Cf. A002968, A060963, A272363, A320129."
			],
			"keyword": "nonn,more",
			"offset": "0,3",
			"author": "_Altug Alkan_, Oct 07 2018",
			"ext": [
				"a(13)-a(17) from _Rémy Sigrist_, Oct 07 2018"
			],
			"references": 2,
			"revision": 41,
			"time": "2018-10-21T04:10:59-04:00",
			"created": "2018-10-08T11:01:31-04:00"
		}
	]
}