{
	"greeting": "Greetings from The On-Line Encyclopedia of Integer Sequences! http://oeis.org/",
	"query": "id:A320993",
	"count": 1,
	"start": 0,
	"results": [
		{
			"number": 320993,
			"data": "1,1,6,81,2796,285205,96322648,112087066485,458071927263177,6665704296474517580,349377209492189224235030,66602723163954143548104716149,46557323273646194397454383970079368,120168498151800396724425771086539073209571,1152049915423012273792614840558950392103437052846",
			"name": "Number of connected self-dual marked graphs on 2n nodes.",
			"link": [
				"Andrew Howroyd, \u003ca href=\"/A320993/b320993.txt\"\u003eTable of n, a(n) for n = 0..50\u003c/a\u003e",
				"Edward A. Bender and E. Rodney Canfield, \u003ca href=\"https://doi.org/10.1016/0095-8956(83)90040-0\"\u003eEnumeration of connected invariant graphs\u003c/a\u003e, Journal of Combinatorial Theory, Series B 34.3 (1983): 268-278. See p. 274.",
				"Andrew Howroyd, \u003ca href=\"/A320993/a320993_1.txt\"\u003ePARI Program\u003c/a\u003e"
			],
			"formula": [
				"a(2*n-1) = b(2*n-1) - A054921(2*n-1)/2, a(2*n) = b(2*n) - (A054921(2*n)-a(n))/2 where b is the Inverse Euler transform of A000595. - _Andrew Howroyd_, Jan 27 2020"
			],
			"program": [
				"(PARI) \\\\ See link for program.",
				"A320993seq(15) \\\\ _Andrew Howroyd_, Jan 27 2020"
			],
			"xref": [
				"Cf. A000666 (not necessarily connected marked graphs), A000595 (self dual on 2n nodes), A054921 (connected marked graphs)."
			],
			"keyword": "nonn",
			"offset": "0,3",
			"author": "_N. J. A. Sloane_, Oct 26 2018",
			"ext": [
				"a(0)=1 prepended and terms a(7) and beyond from _Andrew Howroyd_, Jan 26 2020"
			],
			"references": 1,
			"revision": 12,
			"time": "2020-01-27T17:33:47-05:00",
			"created": "2018-10-26T01:17:22-04:00"
		}
	]
}