{
	"greeting": "Greetings from The On-Line Encyclopedia of Integer Sequences! http://oeis.org/",
	"query": "id:A320460",
	"count": 1,
	"start": 0,
	"results": [
		{
			"number": 320460,
			"data": "1,4,15,48,190,600,2205,6720,29988,95760,364980,1108800,4813380,15135120,57432375,172972800,892371480,2916033120,11616348744,35384469120,162510369840,514937142720,1992665514840,5996736345600,30797112654000,100124080056000",
			"name": "Alphabetic length of a divide-and-conquer approach to the regular expression for permutations of n symbols.",
			"comment": [
				"Consider generating a regular expression for the permutations of a set S.  We can do this by divide-and-conquer:  sum over all subsets T of S of size floor(n/2), and for each subset, concatenate the (recursive) result for T to the result for S-T.  For example, for S = {1,2,3,4} one gets (12+21)(34+43)+(13+31)(24+42)+(23+32)(14+41)+(14+41)(23+32)+(24+42)(13+31)+(34+43)(12+21).  The length of such an expression (where one counts only elements of S) is a(n).",
				"It is easy to prove that a(n) \u003c= 4^n."
			],
			"link": [
				"Michael De Vlieger, \u003ca href=\"/A320460/b320460.txt\"\u003eTable of n, a(n) for n = 1..1673\u003c/a\u003e",
				"Antonio Molina Lovett, Jeffrey Shallit, \u003ca href=\"https://arxiv.org/abs/1812.06347\"\u003eOptimal Regular Expressions for Permutations\u003c/a\u003e, arXiv:1812.06347 [cs.FL], 2018."
			],
			"formula": [
				"a(n) = binomial(n, floor(n/2))*(a(floor(n/2)) + a(ceiling(n/2))), a(1) = 1."
			],
			"mathematica": [
				"Nest[Append[#1, Binomial[#2, Floor[#2/2]] (#1[[Floor[#2/2] ]] + #1[[Ceiling[#2/2]]] )] \u0026 @@ {#, Length@ # + 1} \u0026, {1}, 25] (* _Michael De Vlieger_, Feb 07 2019 *)"
			],
			"keyword": "nonn",
			"offset": "1,2",
			"author": "_Jeffrey Shallit_, Oct 13 2018",
			"references": 1,
			"revision": 12,
			"time": "2019-02-07T19:32:06-05:00",
			"created": "2018-10-13T12:26:20-04:00"
		}
	]
}