{
	"greeting": "Greetings from The On-Line Encyclopedia of Integer Sequences! http://oeis.org/",
	"query": "id:A320097",
	"count": 1,
	"start": 0,
	"results": [
		{
			"number": 320097,
			"data": "1,15,463,16372,583199,20788249,741026781,26415034787,941604528692,33564941612743,1196473967526971,42650154782713601,1520330364358307239,54194514148101568538,1931846809485041315873,68863650758427752078777,2454750745501814744040599",
			"name": "Number of no-leaf subgraphs of the 4 X n grid.",
			"comment": [
				"Also, the number of ways to lay unit-length matchsticks on a 4 X n grid of points in such a way that no end is \"orphaned\"."
			],
			"link": [
				"Peter Kagey, \u003ca href=\"/A320097/b320097.txt\"\u003eTable of n, a(n) for n = 1..500\u003c/a\u003e"
			],
			"formula": [
				"Conjecture: a(n) = 36*a(n-1) - 7*a(n-2) - 201*a(n-3) + 49*a(n-4) + 20*a(n-5) - 5*a(n-6) for all n \u003e 6.",
				"Empirical g.f.: x*(1 - 21*x - 70*x^2 + 10*x^3 + 14*x^4 - 3*x^5) / (1 - 36*x + 7*x^2 + 201*x^3 - 49*x^4 - 20*x^5 + 5*x^6). - _Colin Barker_, Oct 20 2018"
			],
			"example": [
				"Three of the a(3) = 463 subgraphs of the 4 X 3 grid with no leaf vertices are",
				"  +   +---+          +   +   +          +   +---+",
				"      |   |                                 |   |",
				"  +---+---+          +---+---+          +   +---+",
				"  |   |    ,         |   |   |,   and            .",
				"  +---+   +          +   +---+          +---+   +",
				"  |   |              |   |              |   |",
				"  +---+   +          +---+   +          +---+   +"
			],
			"xref": [
				"A093129 is analogous for 2 X (n+1) grids.",
				"A301976 is analogous for 3 X n grids."
			],
			"keyword": "nonn",
			"offset": "1,2",
			"author": "_Peter Kagey_, Oct 05 2018",
			"references": 3,
			"revision": 21,
			"time": "2018-10-20T04:00:14-04:00",
			"created": "2018-10-06T14:29:00-04:00"
		}
	]
}