{
	"greeting": "Greetings from The On-Line Encyclopedia of Integer Sequences! http://oeis.org/",
	"query": "id:A320337",
	"count": 1,
	"start": 0,
	"results": [
		{
			"number": 320337,
			"data": "1,1,7,161,7631,607009,72605303,12172272321,2722634203807,783282749905601,281751782666559239,123890976070562785633,65380371270827869603439,40779819387085820255904481,29677003954344675666092048791,24921035407468294238607282809729",
			"name": "a(n) = A271697(2*n, n).",
			"comment": [
				"Central coefficients of the triangles A046739 and A271697."
			],
			"formula": [
				"a(n) = Sum_{k=0..n} (-1)^(n-k)*E(n+k, n)*binomial(2*n,n-k) where E are the Eulerian numbers A173018. - _Peter Luschny_, Dec 19 2018",
				"a(n) ~ sqrt(3) * 2^(2*n + 1) * n^(2*n) / exp(2*n + 1). - _Vaclav Kotesovec_, Dec 19 2018"
			],
			"maple": [
				"a := n -\u003e add((-1)^(n-k)*combinat:-eulerian1(n+k,n)*binomial(2*n,n-k), k=0..n): seq(a(n), n=0..15); # _Peter Luschny_, Dec 19 2018"
			],
			"mathematica": [
				"E1[n_ /; n \u003e= 0, 0] = 1; E1[n_, k_] /; k \u003c 0 || k \u003e n = 0; E1[n_, k_] := E1[n, k] = (n - k) E1[n - 1, k - 1] + (k + 1) E1[n - 1, k];",
				"a[n_] := Sum[(-1)^(n - k) E1[n + k, n] Binomial[2 n, n - k], {k, 0, n}];",
				"Table[a[n], {n, 0, 15}] (* _Jean-François Alcover_, Dec 30 2018, after _Peter Luschny_ *)"
			],
			"xref": [
				"Cf. A173018, A046739, A062868, A180056, A271697."
			],
			"keyword": "nonn",
			"offset": "0,3",
			"author": "_Maxwell Jiang_, Dec 18 2018 (added without permission by editors)",
			"references": 3,
			"revision": 25,
			"time": "2018-12-30T15:40:28-05:00",
			"created": "2018-12-18T19:49:05-05:00"
		}
	]
}