{
	"greeting": "Greetings from The On-Line Encyclopedia of Integer Sequences! http://oeis.org/",
	"query": "id:A320096",
	"count": 1,
	"start": 0,
	"results": [
		{
			"number": 320096,
			"data": "1,1,9,212,9418,675014,71092502,10334690232,1982433606264,485065343565072,147433546709109408,54493722609862927632,24069397682825072219040,12520250948941157091235344,7575515622713954399390221008,5275250174853125498317783254528",
			"name": "a(n) = Sum_{k=1..n} (-1)^(n-k) * stirling1(n,k) * k! * k^n, with a(0)=1.",
			"formula": [
				"a(n) ~ c * d^n * n^(2*n + 1/2), where",
				"w = -LambertW(-1, -exp(-r)*r) = 1.1628296650659469964248518258036278907318113...",
				"r = 0.8531304407911771560472963194514988627832723535823134189532... is the root of the equation r^2*(2*r - w) - exp(2*r - 2*w)*(w - 2*w^2 + r*(-1 + 2*w + w^2)) + (r*(exp(2*w)*r^2 + exp(2*r)*(1 - 2*w))*(r-w)* log(w-r))/exp(2*w) = 0",
				"d = exp(-1)*r*w*(w-r)^(r-1) = 0.433513333588184444899487502412976956849408575992...",
				"c = 1.959633090979666812031505093625147349925787002426082..."
			],
			"mathematica": [
				"Flatten[{1, Table[Sum[(-1)^(n-k)*StirlingS1[n, k]*k!*k^n, {k, 1, n}], {n, 1, 20}]}]"
			],
			"xref": [
				"Cf. A220181, A320083."
			],
			"keyword": "nonn",
			"offset": "0,3",
			"author": "_Vaclav Kotesovec_, Oct 05 2018",
			"references": 2,
			"revision": 6,
			"time": "2018-10-06T03:35:23-04:00",
			"created": "2018-10-05T17:07:31-04:00"
		}
	]
}