{
	"greeting": "Greetings from The On-Line Encyclopedia of Integer Sequences! http://oeis.org/",
	"query": "id:A320601",
	"count": 1,
	"start": 0,
	"results": [
		{
			"number": 320601,
			"data": "10,11,12,17,20,21,22,23,26,29,30,38,40,41,42,43,44,45,46,47,48,50,52,53,54,55,56,57,58,59,60,61,62,63,64,65,66,68,69,70,71,73,74,75,78,79,80,82,83,84,85,87,88,89,90,91,92,93,94,95,96,97,98,99,100,101,102,103,104,105",
			"name": "Exponents of powers of two having a digit zero in decimal.",
			"comment": [
				"Complement of A007377. It is a long-standing open problem to show that this sequence contains all numbers \u003e 86."
			],
			"formula": [
				"{ n | A027870(n) \u003e 0}, where A027870 = A055641 o A000079."
			],
			"example": [
				"The first term is a(1) = 10 since 2^10 = 1024 is the smallest power of 2 having a digit 0."
			],
			"program": [
				"(PARI) for(n=1,199,vecmin(digits(2^n))||print1(n\",\"))"
			],
			"xref": [
				"Cf. A000079, A007377, A027870, A055641."
			],
			"keyword": "nonn,base",
			"offset": "1,1",
			"author": "_M. F. Hasler_, Oct 16 2018",
			"references": 1,
			"revision": 8,
			"time": "2018-10-17T06:26:38-04:00",
			"created": "2018-10-17T06:26:38-04:00"
		}
	]
}