{
	"greeting": "Greetings from The On-Line Encyclopedia of Integer Sequences! http://oeis.org/",
	"query": "id:A320407",
	"count": 1,
	"start": 0,
	"results": [
		{
			"number": 320407,
			"data": "32,257,1970,18725,191615,1957026,19677729,199877194,2025592349,20591906814,209152278873,2125269466703,21596517936302,219473499133689,2230457205782323,22667637795146693,230368898318395100",
			"name": "Number of nX6 0..1 arrays with every element unequal to 0, 1, 2, 4 or 5 horizontally, vertically or antidiagonally adjacent elements, with upper left element zero.",
			"comment": [
				"Column 6 of A320409."
			],
			"link": [
				"R. H. Hardin, \u003ca href=\"/A320407/b320407.txt\"\u003eTable of n, a(n) for n = 1..210\u003c/a\u003e"
			],
			"example": [
				"Some solutions for n=5",
				"..0..1..0..1..0..0. .0..0..0..1..0..0. .0..1..0..1..1..1. .0..1..0..0..0..0",
				"..0..0..0..0..0..0. .1..0..0..0..0..0. .0..0..0..1..0..1. .0..0..0..0..1..0",
				"..1..0..0..0..0..0. .0..0..0..0..0..1. .0..0..0..0..1..0. .0..1..1..0..1..0",
				"..0..1..1..0..1..1. .0..1..0..0..0..0. .0..0..0..0..0..0. .0..0..0..1..0..0",
				"..0..0..0..0..1..1. .1..0..0..0..0..1. .0..1..0..0..0..0. .1..1..1..0..0..0"
			],
			"xref": [
				"Cf. A320409."
			],
			"keyword": "nonn",
			"offset": "1,1",
			"author": "_R. H. Hardin_, Oct 12 2018",
			"references": 1,
			"revision": 4,
			"time": "2018-10-12T12:39:29-04:00",
			"created": "2018-10-12T12:39:29-04:00"
		}
	]
}