{
	"greeting": "Greetings from The On-Line Encyclopedia of Integer Sequences! http://oeis.org/",
	"query": "id:A321683",
	"count": 1,
	"start": 0,
	"results": [
		{
			"number": 321683,
			"data": "0,1,2,4,5,10,13,14,19,20,22,23,25,26,28,29,52,58,79,80,85,86,95,100,103,104,115,116,118,119,125,130,133,134,139,140,142,143,155,160,163,164,169,170,172,173,175,176,178,179,185,190,193,194,199,200,202,203",
			"name": "Numbers with distinct digits in primorial base.",
			"comment": [
				"This sequence is a variant of A010784 (numbers with distinct digits in decimal). The final term of that sequence is 9876543210. This sequence, by contrast, has infinitely many terms (for example, all the terms of A057588 belong to this sequence)."
			],
			"link": [
				"Rémy Sigrist, \u003ca href=\"/A321683/b321683.txt\"\u003eTable of n, a(n) for n = 1..10000\u003c/a\u003e",
				"\u003ca href=\"/index/Pri#primorialbase\"\u003eIndex entries for sequences related to primorial base\u003c/a\u003e"
			],
			"example": [
				"13 in primorial base is 201, which has no repeated digits, hence 13 is in the sequence.",
				"14 in primorial base is 210, which has no repeated digits, hence 14 is also in the sequence.",
				"15 in primorial base is 211, so 15 is not in the sequence on account of the digit 1 appearing twice in its primorial base representation."
			],
			"program": [
				"(PARI) is(n) = my (s=0); forprime (p=2, oo, if (n==0, return (1)); my (d=n%p); if (bittest(s,d), return (0), s+=2^d; n\\=p))"
			],
			"xref": [
				"See A321682 for the factorial base variant.",
				"Cf. A049345, A057588, A276150, A321682."
			],
			"keyword": "nonn,base",
			"offset": "1,3",
			"author": "_Rémy Sigrist_, Nov 17 2018",
			"references": 3,
			"revision": 18,
			"time": "2018-12-01T04:54:04-05:00",
			"created": "2018-11-18T09:59:57-05:00"
		}
	]
}