{
	"greeting": "Greetings from The On-Line Encyclopedia of Integer Sequences! http://oeis.org/",
	"query": "id:A321730",
	"count": 1,
	"start": 0,
	"results": [
		{
			"number": 321730,
			"data": "1,1,1,3,8,23,79,303,1294,5934,29385,156232,884893",
			"name": "Number of ways to partition the Young diagram of an integer partition of n into vertical sections of the same sizes as the parts of the original partition.",
			"comment": [
				"A vertical section is a partial Young diagram with at most one square in each row. For example, a suitable partition (shown as a coloring by positive integers) of the Young diagram of (322) is:",
				"  1 2 3",
				"  1 2",
				"  2 3"
			],
			"example": [
				"The a(5) = 23 partitions of Young diagrams of integer partitions of 5 into vertical sections of the same sizes as the parts of the original partition, shown as colorings by positive integers:",
				"  1 2 3   1 2 3   1 2 3",
				"  1       2       3",
				"  1       2       3",
				".",
				"  1 2   1 2   1 2   1 2   1 2   1 2   1 2   1 2   1 2   1 2",
				"  1 2   1 3   1 3   2 1   3 1   3 1   2 3   3 2   2 3   3 2",
				"  3     2     3     3     2     3     1     1     3     3",
				".",
				"  1 2   1 2   1 2   1 2   1 2   1 2   1 2   1 2   1 2",
				"  1     3     3     2     3     3     3     3     3",
				"  3     1     4     3     2     4     3     4     4",
				"  4     4     1     4     4     2     4     3     4",
				".",
				"  1",
				"  2",
				"  3",
				"  4",
				"  5"
			],
			"mathematica": [
				"spsu[_,{}]:={{}};spsu[foo_,set:{i_,___}]:=Join@@Function[s,Prepend[#,s]\u0026/@spsu[Select[foo,Complement[#,Complement[set,s]]=={}\u0026],Complement[set,s]]]/@Cases[foo,{i,___}];",
				"ptnpos[y_]:=Position[Table[1,{#}]\u0026/@y,1];",
				"ptnverts[y_]:=Select[Join@@Table[Subsets[ptnpos[y],{k}],{k,Reverse[Union[y]]}],UnsameQ@@First/@#\u0026];",
				"Table[Sum[Length[Select[spsu[ptnverts[y],ptnpos[y]],Function[p,Sort[Length/@p]==Sort[y]]]],{y,IntegerPartitions[n]}],{n,5}]"
			],
			"xref": [
				"Cf. A000110, A000258, A000700, A000701, A006052, A007016, A008277, A321728, A321729, A321731, A321737, A321738."
			],
			"keyword": "nonn,more",
			"offset": "0,4",
			"author": "_Gus Wiseman_, Nov 18 2018",
			"references": 5,
			"revision": 5,
			"time": "2018-11-19T07:21:48-05:00",
			"created": "2018-11-19T07:21:48-05:00"
		}
	]
}