{
	"greeting": "Greetings from The On-Line Encyclopedia of Integer Sequences! http://oeis.org/",
	"query": "id:A321374",
	"count": 1,
	"start": 0,
	"results": [
		{
			"number": 321374,
			"data": "1,0,0,0,0,0,0,0,1,0,0,0,1,0,0,0,1,0,1,0,2,0,0,0,3,0,1,1,3,0,2,0,5,0,1,1,8,0,3,1,8,0,5,1,12,2,4,2,18,0,9,3,18,2,14,3,28,3,13,5,39,2,22,10,42,5,32,8,61,8,34,14,85,7,52,22,91,14,74,20,132,24,80",
			"name": "Expansion of Product_{1 \u003c i \u003c= j \u003c= k} (1 + x^(i*j*k)).",
			"link": [
				"Seiichi Manyama, \u003ca href=\"/A321374/b321374.txt\"\u003eTable of n, a(n) for n = 0..10000\u003c/a\u003e"
			],
			"formula": [
				"G.f.: Product_{k\u003e0} (1 + x^k)^A122179(k)."
			],
			"xref": [
				"Cf. A122179, A211857, A321359."
			],
			"keyword": "nonn",
			"offset": "0,21",
			"author": "_Seiichi Manyama_, Nov 08 2018",
			"references": 2,
			"revision": 9,
			"time": "2018-11-08T10:14:37-05:00",
			"created": "2018-11-08T08:49:33-05:00"
		}
	]
}