{
	"greeting": "Greetings from The On-Line Encyclopedia of Integer Sequences! http://oeis.org/",
	"query": "id:A321165",
	"count": 1,
	"start": 0,
	"results": [
		{
			"number": 321165,
			"data": "1,7,25,61,136,244,440,680,1022,1472,2198,2882,4065,5241,6681,8265,10866,13116,16726,19786,23566,27922,34270,38902,45502,52600,60430,68326,80941,89671,105047,116855,130913,146519,163214,177002,203013,224673,247605,268005,303306",
			"name": "Sum of distinct products i*j with 1 \u003c= i, j \u003c= n",
			"link": [
				"Seiichi Manyama, \u003ca href=\"/A321165/b321165.txt\"\u003eTable of n, a(n) for n = 1..1000\u003c/a\u003e"
			],
			"formula": [
				"a(p) = a(p - 1) + p ^ 2 * (p + 1) / 2 for prime p. - _David A. Corneth_, Jan 10 2019"
			],
			"example": [
				"a(2) = 1 + 2 + 4 = 7.",
				"a(3) = 1 + 2 + 3 + 4 + 6 + 9 = 25."
			],
			"program": [
				"(PARI) a(n) = vecsum(setbinop((x, y)-\u003ex*y, vector(n, i, i); )); \\\\ _Michel Marcus_, Jan 10 2019"
			],
			"xref": [
				"Column 2 of A321163.",
				"Cf. A027424."
			],
			"keyword": "nonn",
			"offset": "1,2",
			"author": "_Seiichi Manyama_, Jan 10 2019",
			"references": 2,
			"revision": 17,
			"time": "2019-01-10T23:38:18-05:00",
			"created": "2019-01-10T15:22:07-05:00"
		}
	]
}