{
	"greeting": "Greetings from The On-Line Encyclopedia of Integer Sequences! http://oeis.org/",
	"query": "id:A321612",
	"count": 1,
	"start": 0,
	"results": [
		{
			"number": 321612,
			"data": "2,4,6,7,9,13,16,21,31",
			"name": "Numbers k such that all k - t are triangular numbers where t is a triangular number in range k/2 \u003c= t \u003c k.",
			"comment": [
				"The following is a quotation from Hage-Hassan in his paper (see Link below). \"The (concept of) right and left symmetry is fundamental in physics. This incites us to ask whether this symmetry is in (the) primes. Find the numbers n with a + a' = n. a, a' are primes and {a} are all the primes with: n/2 ≤ a \u003cn and n = 2,3, ...\"",
				"This sequence is analogous to A320447. Instead of the sequence of primes it uses the sequence of triangular numbers (A000217). It is conjectured that the sequence is finite and full."
			],
			"link": [
				"Mehdi Hage-Hassan, \u003ca href=\"https://hal.archives-ouvertes.fr/hal-00879586/document\"\u003e An elementary introduction to Quantum mechanic\u003c/a\u003e, hal-00879586 2013 pp 58."
			],
			"example": [
				"a(9) = 31, because the triangular numbers in the range 16 \u003c= p \u003c 31 are {21}. Also the complementary set {10} has all its members triangular numbers. This is the 9th occurrence of such a number."
			],
			"mathematica": [
				"TriangularQ[n_] := Module[{m=0}, While[n\u003em(m+1)/2, m++]; If[n==m(m+1)/2, True, False]]; plst[n_] := Select[Range[Ceiling[n/2], n-1], TriangularQ]; lst={}; Do[If[plst[n]!={}\u0026\u0026AllTrue[n-plst[n], TriangularQ], AppendTo[lst, n]], {n, 1, 200}]; lst"
			],
			"xref": [
				"Cf. A000217, A320447."
			],
			"keyword": "nonn,more",
			"offset": "1,1",
			"author": "_Frank M Jackson_, Dec 18 2018",
			"references": 0,
			"revision": 21,
			"time": "2018-12-22T16:28:48-05:00",
			"created": "2018-12-22T16:28:48-05:00"
		}
	]
}