{
	"greeting": "Greetings from The On-Line Encyclopedia of Integer Sequences! http://oeis.org/",
	"query": "id:A321543",
	"count": 1,
	"start": 0,
	"results": [
		{
			"number": 321543,
			"data": "1,-3,10,-19,26,-30,50,-83,91,-78,122,-190,170,-150,260,-339,290,-273,362,-494,500,-366,530,-830,651,-510,820,-950,842,-780,962,-1363,1220,-870,1300,-1729,1370,-1086,1700,-2158,1682,-1500,1850,-2318,2366,-1590,2210,-3390,2451,-1953,2900,-3230,2810,-2460,3172",
			"name": "a(n) = Sum_{d|n} (-1)^(d-1)*d^2.",
			"link": [
				"Seiichi Manyama, \u003ca href=\"/A321543/b321543.txt\"\u003eTable of n, a(n) for n = 1..10000\u003c/a\u003e",
				"J. W. L. Glaisher, \u003ca href=\"https://books.google.com/books?id=bLs9AQAAMAAJ\u0026amp;pg=RA1-PA1\"\u003eOn the representations of a number as the sum of two, four, six, eight, ten, and twelve squares\u003c/a\u003e, Quart. J. Math. 38 (1907), 1-62 (see p. 4 and p. 8).",
				"\u003ca href=\"/index/Ge#Glaisher\"\u003eIndex entries for sequences mentioned by Glaisher\u003c/a\u003e"
			],
			"formula": [
				"G.f.: Sum_{k\u003e=1} (-1)^(k-1)*k^2*x^k/(1 - x^k). - _Ilya Gutkovskiy_, Dec 23 2018",
				"G.f.: Sum_{n \u003e= 1} x^n*(1 - x^n)/(1 + x^n)^3. - _Peter Bala_, Jan 11 2021"
			],
			"maple": [
				"with(numtheory):",
				"a := n -\u003e add( (-1)^(d-1)*d^2, d in divisors(n) ): seq(a(n), n = 1..40);",
				"#  _Peter Bala_, Jan 11 2021"
			],
			"program": [
				"(PARI) apply( a(n)=sumdiv(n, d, (-1)^(d-1)*d^2), [1..30]) \\\\ _M. F. Hasler_, Nov 26 2018"
			],
			"xref": [
				"Apart from signs, same as A064027.",
				"Glaisher's zeta_i, i=0..12: A048272, A002129, A321543, A138503, A279395, A321544, A321545, A321546, A321547, A321548, A321549, A321550, A321551.",
				"Cf. A321552 - A321565, A321807 - A321836 for similar sequences."
			],
			"keyword": "sign,mult",
			"offset": "1,2",
			"author": "_N. J. A. Sloane_, Nov 23 2018",
			"references": 54,
			"revision": 20,
			"time": "2021-01-11T23:20:17-05:00",
			"created": "2018-11-23T13:24:10-05:00"
		}
	]
}