{
	"greeting": "Greetings from The On-Line Encyclopedia of Integer Sequences! http://oeis.org/",
	"query": "id:A321264",
	"count": 1,
	"start": 0,
	"results": [
		{
			"number": 321264,
			"data": "1,1,4,34,456,12388,677244,69513187,13727785600,5551190294478,4378921597198116,6705804947252051188,21038823519531799964724,131183284379709847290156854,1603688086811508900855649976528,40293997364837932973226463649637881,2031337795407293560044987268598542021504",
			"name": "a(n) = [x^n] Product_{k\u003e=1} 1/(1 - x^k)^J_n(k), where J_() is the Jordan function.",
			"link": [
				"Wikipedia, \u003ca href=\"http://en.wikipedia.org/wiki/Jordan%27s_totient_function\"\u003eJordan's totient function\u003c/a\u003e"
			],
			"formula": [
				"a(n) = [x^n] exp(Sum_{k\u003e=1} ( Sum_{d|k} Sum_{j|d} d*j^n*mu(d/j) ) * x^k/k)."
			],
			"mathematica": [
				"Table[SeriesCoefficient[Product[1/(1 - x^k)^Sum[d^n MoebiusMu[k/d], {d, Divisors[k]}], {k, 1, n}], {x, 0, n}], {n, 0, 16}]",
				"Table[SeriesCoefficient[Exp[Sum[Sum[Sum[d j^n MoebiusMu[d/j], {j, Divisors[d]}], {d, Divisors[k]}] x^k/k, {k, 1, n}]], {x, 0, n}], {n, 0, 16}]"
			],
			"xref": [
				"Cf. A059379, A059380, A061255, A301875, A319647, A321265."
			],
			"keyword": "nonn",
			"offset": "0,3",
			"author": "_Ilya Gutkovskiy_, Nov 01 2018",
			"references": 1,
			"revision": 5,
			"time": "2018-11-01T18:21:44-04:00",
			"created": "2018-11-01T18:21:44-04:00"
		}
	]
}