{
	"greeting": "Greetings from The On-Line Encyclopedia of Integer Sequences! http://oeis.org/",
	"query": "id:A321633",
	"count": 1,
	"start": 0,
	"results": [
		{
			"number": 321633,
			"data": "1,0,2,1092,2265024,11804626080,131402141197200,2778291737177034960,102284730928300590754560,6134232798447803932455457920,568598490353320413296928514444800,78076149156802562231395694989534464000,15336188146163145199585928509793662920345600",
			"name": "Number of permutations of the multiset {1,1,1,1,2,2,2,2,3,3,3,3,...,n,n,n,n} with no two consecutive terms equal.",
			"link": [
				"Seiichi Manyama, \u003ca href=\"/A321633/b321633.txt\"\u003eTable of n, a(n) for n = 0..129\u003c/a\u003e",
				"Mathematics.StackExchange, \u003ca href=\"https://math.stackexchange.com/questions/129451/find-the-number-of-arrangements-of-k-mbox-1s-k-mbox-2s-cdots\"\u003eFind the number of k 1's, k 2's, ... , k n's - total kn cards\u003c/a\u003e, Apr 08 2012."
			],
			"formula": [
				"a(n) = n! * A190830(n).",
				"a(n) = Integral_{0..infinity} (-x + 3/2 * x^2 - 1/2 * x^3 + 1/24 * x^4)^n * exp(-x) dx."
			],
			"example": [
				"a(2) = 2 because there are two permutations of {1,1,1,1,2,2,2,2} avoiding equal consecutive terms: 12121212 and 21212121."
			],
			"mathematica": [
				"a[n_] := Integrate[(-x + 3/2 * x^2 - 1/2 * x^3 + 1/24 * x^4)^n  * Exp[-x],  {x, 0, Infinity}]; Array[a, 10, 0] (* _Stefano Spezia_, Nov 27 2018 *)"
			],
			"xref": [
				"Row 4 of A322093.",
				"Cf. A000142, A114938, A190830, A193638."
			],
			"keyword": "nonn",
			"offset": "0,3",
			"author": "_Seiichi Manyama_, Nov 15 2018",
			"references": 5,
			"revision": 23,
			"time": "2018-11-27T11:37:30-05:00",
			"created": "2018-11-15T17:32:31-05:00"
		}
	]
}