{
	"greeting": "Greetings from The On-Line Encyclopedia of Integer Sequences! http://oeis.org/",
	"query": "id:A321037",
	"count": 1,
	"start": 0,
	"results": [
		{
			"number": 321037,
			"data": "7752,942172,69858360,4110110550,211675627240,10018481786544,448004505210535,19256258184412314,804574034878107648,32931600573236529164,1327621591399983233480,52924527085674622431690,2092267882428782767625532,82204203906811813227807616",
			"name": "Number of words of length 3n such that all letters of the septenary alphabet occur at least once and are introduced in ascending order and which can be built by repeatedly inserting triples of identical letters into the initially empty word.",
			"link": [
				"Alois P. Heinz, \u003ca href=\"/A321037/b321037.txt\"\u003eTable of n, a(n) for n = 7..627\u003c/a\u003e"
			],
			"maple": [
				"b:= (n, k)-\u003e `if`(n=0, 1, k/n*add(binomial(3*n, j)*(n-j)*(k-1)^j, j=0..n-1)):",
				"a:= n-\u003e (k-\u003e add((-1)^i*b(n, k-i)/(i!*(k-i)!), i=0..k))(7):",
				"seq(a(n), n=7..25);"
			],
			"xref": [
				"Column k=7 of A256311."
			],
			"keyword": "nonn",
			"offset": "7,1",
			"author": "_Alois P. Heinz_, Oct 26 2018",
			"references": 2,
			"revision": 4,
			"time": "2018-10-26T16:25:42-04:00",
			"created": "2018-10-26T16:25:42-04:00"
		}
	]
}