{
	"greeting": "Greetings from The On-Line Encyclopedia of Integer Sequences! http://oeis.org/",
	"query": "id:A321565",
	"count": 1,
	"start": 0,
	"results": [
		{
			"number": 321565,
			"data": "1,-513,19684,-261633,1953126,-10097892,40353608,-133955073,387440173,-1001953638,2357947692,-5149983972,10604499374,-20701400904,38445332184,-68584996353,118587876498,-198756808749,322687697780,-511002214758",
			"name": "a(n) = Sum_{d divides n} (-1)^(d + n/d) * d^9.",
			"link": [
				"Seiichi Manyama, \u003ca href=\"/A321565/b321565.txt\"\u003eTable of n, a(n) for n = 1..10000\u003c/a\u003e",
				"J. W. L. Glaisher, \u003ca href=\"https://books.google.com/books?id=bLs9AQAAMAAJ\u0026amp;pg=RA1-PA1\"\u003eOn the representations of a number as the sum of two, four, six, eight, ten, and twelve squares\u003c/a\u003e, Quart. J. Math. 38 (1907), 1-62 (see p. 4 and p. 8).",
				"\u003ca href=\"/index/Ge#Glaisher\"\u003eIndex entries for sequences mentioned by Glaisher\u003c/a\u003e"
			],
			"formula": [
				"G.f.: Sum_{k\u003e=1} (-1)^(k+1)*k^9*x^k/(1 + x^k). - _Ilya Gutkovskiy_, Dec 22 2018"
			],
			"mathematica": [
				"CoefficientList[Series[Sum[(-1)^(k+1) k^9 x^k/(1+x^k),{k,20}],{x,0,20}],x] (* _Harvey P. Dale_, Apr 09 2019 *)"
			],
			"program": [
				"(PARI) apply( A321565(n)=sumdiv(n, d, (-1)^(n\\d-d)*d^9), [1..30]) \\\\ _M. F. Hasler_, Nov 26 2018"
			],
			"xref": [
				"Column k=9 of A322083.",
				"Cf. A321543 - A321564, A321807 - A321836 for similar sequences."
			],
			"keyword": "sign,mult",
			"offset": "1,2",
			"author": "_N. J. A. Sloane_, Nov 23 2018",
			"references": 52,
			"revision": 16,
			"time": "2019-04-09T09:53:09-04:00",
			"created": "2018-11-23T23:22:09-05:00"
		}
	]
}