{
	"greeting": "Greetings from The On-Line Encyclopedia of Integer Sequences! http://oeis.org/",
	"query": "id:A321310",
	"count": 1,
	"start": 0,
	"results": [
		{
			"number": 321310,
			"data": "0,0,1,1,2,5,5,2,8,8,11,11,12,51,15,21,18,81,21,15,22,55,25,25,28,85,51,12,52,52,55,22,58,82,81,18,82,58,85,28,88,88,101,101,102,501,105,201,108,801,111,111,112,511,115,211,118,811,121,151,122,551",
			"name": "List of pairs of numbers with mirror symmetry (calculator-style numerals).",
			"comment": [
				"2 and 5 are taken as mirror images (as on calculator displays)."
			],
			"example": [
				"The sequence begins:",
				"   0,  0;",
				"   1,  1;",
				"   2,  5;",
				"   5,  2;",
				"   8,  8;",
				"  11, 11;",
				"  12, 51;",
				"  15, 21;",
				"  18, 81;",
				"  21, 15;",
				"  22, 55;",
				"  25, 25;",
				"  28, 85;",
				"...",
				"81 has its reflection as 18 in a mirror.",
				"125 has its reflection as 251 in a mirror."
			],
			"mathematica": [
				"{0, 0}~Join~Array[If[Mod[#, 10] == 0, Nothing, If[IntegerLength[#1] == Length[#2], {#1, FromDigits@ #2}, Nothing] \u0026 @@ {#, Reverse@ IntegerDigits@ # /. {2 -\u003e 5, 3 -\u003e Nothing, 4 -\u003e Nothing, 5 -\u003e 2, 6 -\u003e Nothing, 7 -\u003e Nothing, 9 -\u003e Nothing}}] \u0026, 123] // Flatten (* _Michael De Vlieger_, Nov 05 2018 *)"
			],
			"xref": [
				"Cf. A018846, A053701, A080228."
			],
			"keyword": "nonn,base,tabf",
			"offset": "0,5",
			"author": "_Kritsada Moomuang_, Nov 03 2018",
			"references": 0,
			"revision": 25,
			"time": "2018-12-01T09:39:17-05:00",
			"created": "2018-12-01T09:39:17-05:00"
		}
	]
}