{
	"greeting": "Greetings from The On-Line Encyclopedia of Integer Sequences! http://oeis.org/",
	"query": "id:A321546",
	"count": 1,
	"start": 0,
	"results": [
		{
			"number": 321546,
			"data": "1,-127,2188,-16511,78126,-277876,823544,-2113663,4785157,-9922002,19487172,-36126068,62748518,-104590088,170939688,-270549119,410338674,-607714939,893871740,-1289938386,1801914272,-2474870844,3404825448,-4624694644,6103593751,-7969061786,10465138360,-13597534984,17249876310",
			"name": "a(n) = Sum_{d|n} (-1)^(d-1)*d^7.",
			"link": [
				"Seiichi Manyama, \u003ca href=\"/A321546/b321546.txt\"\u003eTable of n, a(n) for n = 1..10000\u003c/a\u003e",
				"J. W. L. Glaisher, \u003ca href=\"https://books.google.com/books?id=bLs9AQAAMAAJ\u0026amp;pg=RA1-PA1\"\u003eOn the representations of a number as the sum of two, four, six, eight, ten, and twelve squares\u003c/a\u003e, Quart. J. Math. 38 (1907), 1-62 (see p. 4 and p. 8).",
				"\u003ca href=\"/index/Ge#Glaisher\"\u003eIndex entries for sequences mentioned by Glaisher\u003c/a\u003e"
			],
			"formula": [
				"G.f.: Sum_{k\u003e=1} (-1)^(k-1)*k^7*x^k/(1 - x^k). - _Ilya Gutkovskiy_, Dec 23 2018"
			],
			"program": [
				"(PARI) apply( a(n)=sumdiv(n, d, (-1)^(d-1)*d^7), [1..30]) \\\\ _M. F. Hasler_, Nov 26 2018"
			],
			"xref": [
				"Cf. A321543 - A321565, A321807 - A321836 for similar sequences."
			],
			"keyword": "sign,mult",
			"offset": "1,2",
			"author": "_N. J. A. Sloane_, Nov 23 2018",
			"references": 3,
			"revision": 13,
			"time": "2018-12-25T10:06:05-05:00",
			"created": "2018-11-23T14:58:15-05:00"
		}
	]
}