{
	"greeting": "Greetings from The On-Line Encyclopedia of Integer Sequences! http://oeis.org/",
	"query": "id:A321809",
	"count": 1,
	"start": 0,
	"results": [
		{
			"number": 321809,
			"data": "1,-4097,531442,-16773121,244140626,-2177317874,13841287202,-68702695425,282430067923,-1000244144722,3138428376722,-8913940970482,23298085122482,-56707753666594,129746582562692,-281406240452609,582622237229762",
			"name": "a(n) = Sum_{d divides n} (-1)^(d + n/d) * d^12.",
			"link": [
				"Seiichi Manyama, \u003ca href=\"/A321809/b321809.txt\"\u003eTable of n, a(n) for n = 1..10000\u003c/a\u003e",
				"J. W. L. Glaisher, \u003ca href=\"https://books.google.com/books?id=bLs9AQAAMAAJ\u0026amp;pg=RA1-PA1\"\u003eOn the representations of a number as the sum of two, four, six, eight, ten, and twelve squares\u003c/a\u003e, Quart. J. Math. 38 (1907), 1-62 (see p. 4 and p. 8).",
				"\u003ca href=\"/index/Ge#Glaisher\"\u003eIndex entries for sequences mentioned by Glaisher\u003c/a\u003e"
			],
			"formula": [
				"G.f.: Sum_{k\u003e=1} (-1)^(k+1)*k^12*x^k/(1 + x^k). - _Ilya Gutkovskiy_, Dec 22 2018"
			],
			"program": [
				"(PARI) apply( A321809(n)=sumdiv(n, d, (-1)^(n\\d-d)*d^12), [1..30]) \\\\ _M. F. Hasler_, Nov 26 2018"
			],
			"xref": [
				"Column k=12 of A322083.",
				"Cf. A321543 - A321565, A321807 - A321836 for similar sequences."
			],
			"keyword": "sign,mult",
			"offset": "1,2",
			"author": "_N. J. A. Sloane_, Nov 23 2018",
			"references": 3,
			"revision": 15,
			"time": "2018-12-22T12:07:53-05:00",
			"created": "2018-11-23T23:23:13-05:00"
		}
	]
}