{
	"greeting": "Greetings from The On-Line Encyclopedia of Integer Sequences! http://oeis.org/",
	"query": "id:A321028",
	"count": 1,
	"start": 0,
	"results": [
		{
			"number": 321028,
			"data": "5,4,3,3,3,3,1,1,2,2,1,1,1,1,1,1,1,2,0,1,1,1,1,1,1,1,1,0,0,1,0,0,0,1,0,0,0,0,0,0,0,0,1,0,1,1,0,1,0,1,0,0,0,0,1,0,0,0,0,0,0,0,0,0,0,0,0,0,-1,0,0,0,0,0,0,0,-1,-1,0,0,0,0,0,0,-1,0,-1,0,-1,0,-1,0,0,0,1,0,0,0,0,0,0,0,0,1,0,0,0,0,0,0,0,0,-1,0,0,0,0,0,0,0,0,0,0,0,0",
			"name": "a(n) = 6 + round(n^3) - (minimal number of squares in a dissection of an (n) X (n+1) oblong into squares).",
			"comment": [
				"After a(18)=2, all terms through a(387) are in (-1,0,1). The first known term outside of this range is a(969) \u003e= 2."
			],
			"link": [
				"B. Felgenhauer, \u003ca href=\"http://int-e.eu/~bf3/squares/\"\u003eFilling Rectangles with Integer-Sided Squares\u003c/a\u003e",
				"Ed Pegg Jr, \u003ca href=\"http://demonstrations.wolfram.com/MinimallySquaredRectangles/\"\u003eMinimally Squared Rectangles\u003c/a\u003e",
				"Ed Pegg Jr on StackExchange, \u003ca href=\"http://math.stackexchange.com/questions/2057290/oblongs-into-minimal-squares\"\u003eOblongs into minimal squares\u003c/a\u003e, Dec 13 2016."
			],
			"formula": [
				"a(n) = 6 + A105209(n) - A279317(n)."
			],
			"xref": [
				"Cf. A105209, A279317."
			],
			"keyword": "hard,sign",
			"offset": "1,1",
			"author": "_Ed Pegg Jr_, Oct 26 2018",
			"references": 0,
			"revision": 20,
			"time": "2019-05-17T17:52:47-04:00",
			"created": "2018-12-10T03:01:04-05:00"
		}
	]
}