{
	"greeting": "Greetings from The On-Line Encyclopedia of Integer Sequences! http://oeis.org/",
	"query": "id:A322724",
	"count": 1,
	"start": 0,
	"results": [
		{
			"number": 322724,
			"data": "0,10,112,968,9863,99691,1000278,9997209,99998052,999992793",
			"name": "Number of times the digit 9 appears in the first 10^n decimal digits of Euler's number e = exp(1), counting starts after the decimal point.",
			"comment": [
				"It is not known if e is normal, but the distribution of decimal digits found for the first 10^n digits of e shows no statistically significant departure from a uniform distribution."
			],
			"link": [
				"Eric Weisstein's World of Mathematics, \u003ca href=\"http://mathworld.wolfram.com/eDigits.html\"\u003ee Digits\u003c/a\u003e."
			],
			"maple": [
				"a:=proc(n)",
				"  local digits, EXP1, C, i;",
				"  digits:=10^n+100;",
				"  EXP1:=convert(frac(evalf[digits](exp(1))), string)[2..digits-99];",
				"  C:=0;",
				"  for i from 1 to length(EXP1) do",
				"    if EXP1[i]=\"9\" then C:=C+1; fi;",
				"  od;",
				"  return(C);",
				"end;"
			],
			"mathematica": [
				"Table[Count[IntegerDigits[IntegerPart[(E - 2)*10^10^n]], 9], {n, 7}] (* _Robert Price_, Apr 07 2019 *)"
			],
			"xref": [
				"Cf. A001113, A099300, A322650, A322715, A322716, A322717, A322718, A322719, A322720, A322721, A322722, A322723."
			],
			"keyword": "nonn,base,more",
			"offset": "1,2",
			"author": "_Martin Renner_, Dec 24 2018",
			"references": 9,
			"revision": 9,
			"time": "2019-04-08T03:14:20-04:00",
			"created": "2018-12-24T11:06:57-05:00"
		}
	]
}