{
	"greeting": "Greetings from The On-Line Encyclopedia of Integer Sequences! http://oeis.org/",
	"query": "id:A322338",
	"count": 1,
	"start": 0,
	"results": [
		{
			"number": 322338,
			"data": "0,1,1,0,1,0,1,0,2,0,1,0,1,0,0,0,1,0,1,0,2,0,1,0,2,0,3,0,1,0,1,0,0,0,0,0,1,0,2,0,1,0,1,0,0,0,1,0,2,0,0,0,1,0,0,0,2,0,1,0,1,0,3,0,2,0,1,0,0,0,1,0,1,0,0,0,0,0,1,0,4,0,1,0,0,0,2",
			"name": "Edge-connectivity of the integer partition with Heinz number n.",
			"comment": [
				"The Heinz number of an integer partition (y_1, ..., y_k) is prime(y_1) * ... * prime(y_k).",
				"The edge-connectivity of an integer partition is the minimum number of parts that must be removed so that the prime factorizations of the remaining parts form a disconnected (or empty) hypergraph."
			],
			"link": [
				"Wikipedia, \u003ca href=\"https://en.wikipedia.org/wiki/K-edge-connected_graph\"\u003ek-edge-connected graph\u003c/a\u003e"
			],
			"example": [
				"2093 is the Heinz number of (9,6,4), corresponding to the multiset partition {{1,1},{1,2},{2,2}}, which can be made disconnected by removing only the part {1,2}, so a(2093) = 1."
			],
			"mathematica": [
				"primeMS[n_]:=If[n==1,{},Flatten[Cases[FactorInteger[n],{p_,k_}:\u003eTable[PrimePi[p],{k}]]]];",
				"csm[s_]:=With[{c=Select[Tuples[Range[Length[s]],2],And[OrderedQ[#],UnsameQ@@#,Length[Intersection@@s[[#]]]\u003e0]\u0026]},If[c=={},s,csm[Sort[Append[Delete[s,List/@c[[1]]],Union@@s[[c[[1]]]]]]]]];",
				"Table[PrimeOmega[n]-Max@@PrimeOmega/@Select[Divisors[n],Length[csm[primeMS/@primeMS[#]]]!=1\u0026],{n,100}]"
			],
			"xref": [
				"Cf. A001222, A003963, A013922, A054921, A056239, A095983, A112798, A302242, A304714, A304716, A305078, A305079, A322335, A322336, A322337."
			],
			"keyword": "nonn",
			"offset": "1,9",
			"author": "_Gus Wiseman_, Dec 04 2018",
			"references": 22,
			"revision": 5,
			"time": "2018-12-05T07:58:26-05:00",
			"created": "2018-12-05T07:58:26-05:00"
		}
	]
}