{
	"greeting": "Greetings from The On-Line Encyclopedia of Integer Sequences! http://oeis.org/",
	"query": "id:A322098",
	"count": 1,
	"start": 0,
	"results": [
		{
			"number": 322098,
			"data": "1,1,1,37,43,439,31321,3555900001,3555900001,3563253697383401592719,3563253697383401592719,2069957682701324503311258278145695430463576158940397351,7609174114451381087553287043297264970128251910800933517241956209",
			"name": "a(1)=1, a(2)=1; for n \u003e 2, a(n) is the largest noncomposite proper divisor of the concatenation of terms a(1) through a(n-1).",
			"mathematica": [
				"FromDigits /@ Nest[Append[#, IntegerDigits@ Select[Divisors[FromDigits[Join @@ #]], ! CompositeQ@ # \u0026][[-1]] ] \u0026, {{1}, {1}, {1}}, 7] (* _Michael De Vlieger_, Nov 26 2018 *)"
			],
			"xref": [
				"Cf. A322097."
			],
			"keyword": "nonn,base",
			"offset": "1,4",
			"author": "_John Mason_, Nov 26 2018",
			"ext": [
				"a(12) corrected and a(13) added by _Daniel Suteu_, Jan 19 2019"
			],
			"references": 1,
			"revision": 22,
			"time": "2019-01-19T12:41:30-05:00",
			"created": "2019-01-18T01:36:38-05:00"
		}
	]
}