{
	"greeting": "Greetings from The On-Line Encyclopedia of Integer Sequences! http://oeis.org/",
	"query": "id:A322669",
	"count": 1,
	"start": 0,
	"results": [
		{
			"number": 322669,
			"data": "7,17,23,41,47,59,67,73,83,103,107,109,137,151,167,179,181,193,197,233,239,251,257,271,281,283,313,317,349,359,379,383,409,421,431,433,443,449,467,491,503,523,571,587,593,599,607,613,617,643,647,659,661,677,683,733,739",
			"name": "a(n) is the least prime(k+n-1) satisfying k \u003e 0 and prime(k+n-1) \u003c prime(k) + prime(k+1).",
			"link": [
				"Seiichi Manyama, \u003ca href=\"/A322669/b322669.txt\"\u003eTable of n, a(n) for n = 3..10000\u003c/a\u003e"
			],
			"mathematica": [
				"Array[Block[{k = 1, p}, While[Set[p, Prime[k + # - 1]] \u003e= Total@ Prime@ {k, k + 1}, k++]; p] \u0026, 57, 3] (* _Michael De Vlieger_, Jan 01 2019 *)"
			],
			"program": [
				"(PARI) a(n) = {my(p=2, k=1); while(!(prime(k+n-1) \u003c p+nextprime(p+1)), p = nextprime(p+1); k++); prime(k+n-1);} \\\\ _Michel Marcus_, Dec 23 2018"
			],
			"xref": [
				"Cf. A322668."
			],
			"keyword": "nonn",
			"offset": "3,1",
			"author": "_Seiichi Manyama_, Dec 23 2018",
			"references": 1,
			"revision": 21,
			"time": "2019-03-17T04:09:36-04:00",
			"created": "2019-01-02T10:53:02-05:00"
		}
	]
}