{
	"greeting": "Greetings from The On-Line Encyclopedia of Integer Sequences! http://oeis.org/",
	"query": "id:A322046",
	"count": 1,
	"start": 0,
	"results": [
		{
			"number": 322046,
			"data": "1,1,1,1,1,2,4,2,1,1,3,8,10,8,3,1,1,4,13,24,31,24,13,4,1,1,5,19,45,78,93,78,45,19,5,1,1,6,26,74,158,248,290,248,158,74,26,6,1",
			"name": "Irregular triangle read by rows: a Pascal \"rhombus\", third in the sequence after A059317 and A027907.",
			"reference": [
				"Sheng-Liang Yang et al., The Pascal rhombus and Riordan arrays, Fib. Q., 56:4 (2018), 337-347. See Fig. 4."
			],
			"example": [
				"Triangle begins:",
				"1,",
				"1,1,1,",
				"1,2,4,2,1,",
				"1,3,8,10,8,3,1,,",
				"1,4,13,24,31,24,13,4,1,,",
				"1,5,19,45,78,93,78,45,19,5,1,,",
				"1,6,26,74,158,248,290,248,158,74,26,6,1,",
				"..."
			],
			"xref": [
				"Cf. A059317 and A027907."
			],
			"keyword": "nonn,tabl,more",
			"offset": "0,6",
			"author": "_N. J. A. Sloane_, Dec 07 2018",
			"references": 0,
			"revision": 5,
			"time": "2018-12-07T12:11:16-05:00",
			"created": "2018-12-07T12:10:05-05:00"
		}
	]
}