{
	"greeting": "Greetings from The On-Line Encyclopedia of Integer Sequences! http://oeis.org/",
	"query": "id:A322090",
	"count": 1,
	"start": 0,
	"results": [
		{
			"number": 322090,
			"data": "0,7,124,124,13306,70428,1926893,40541365,542529501,2989721664,45407719156,458983194703,18380587135073,111572927624997,2231698673770768,2231698673770768,462904735800587581,5120821000082846468,74324148355133549932,1423789031778622267480,10195310774031298931542",
			"name": "One of the two successive approximations up to 13^n for 13-adic integer sqrt(3). Here the 7 (mod 13) case (except for n = 0).",
			"comment": [
				"For n \u003e 0, a(n) is the unique solution to x^2 == -3 (mod 13^n) in the range [0, 13^n - 1] and congruent to 7 modulo 13.",
				"A322089 is the approximation (congruent to 6 mod 13) of another square root of -3 over the 13-adic field."
			],
			"link": [
				"Wikipedia, \u003ca href=\"https://en.wikipedia.org/wiki/P-adic_number\"\u003ep-adic number\u003c/a\u003e"
			],
			"formula": [
				"For n \u003e 0, a(n) = 13^n - A322089(n).",
				"a(n) = Sum_{i=0..n-1} A322092(i)*13^i.",
				"a(n) = A286840(n)*A322085(n) mod 13^n = A286841(n)*A322086(n) mod 13^n."
			],
			"example": [
				"7^2 = 49 = 4*13 - 3.",
				"124^2 = 15376 = 91*13^2 - 3 = 7*13^3 - 3.",
				"13306^2 = 177049636 = 6199*13^4 - 3."
			],
			"program": [
				"(PARI) a(n) = truncate(-sqrt(-3+O(13^n)))"
			],
			"xref": [
				"Cf. A286840, A286841, A322085, A322086, A322089, A322092."
			],
			"keyword": "nonn",
			"offset": "0,2",
			"author": "_Jianing Song_, Nov 26 2018",
			"references": 4,
			"revision": 8,
			"time": "2018-12-22T16:49:53-05:00",
			"created": "2018-12-22T16:49:53-05:00"
		}
	]
}