{
	"greeting": "Greetings from The On-Line Encyclopedia of Integer Sequences! http://oeis.org/",
	"query": "id:A322311",
	"count": 1,
	"start": 0,
	"results": [
		{
			"number": 322311,
			"data": "1,2,3,4,3,5,3,6,3,7,3,8,3,3,3,9,3,5,3,10,3,7,3,11,3,3,3,7,3,7,3,12,3,3,3,13,3,3,3,14,3,5,3,2,3,7,3,15,3,3,3,7,3,7,3,2,3,7,3,16,3,3,3,17,3,7,3,3,3,7,3,18,3,3,3,3,3,7,3,19,3,7,3,20,3,3,3,8,3,3,3,2,3,3,3,21,3,3,3,5,3,7,3,2,3",
			"name": "Lexicographically earliest such sequence a that a(i) = a(j) =\u003e A322310(i) = A322310(j) for all i, j.",
			"comment": [
				"Restricted growth sequence transform of A322310.",
				"For all i, j: a(i) = a(j) =\u003e A014197(i) = A014197(j)."
			],
			"link": [
				"Antti Karttunen, \u003ca href=\"/A322311/b322311.txt\"\u003eTable of n, a(n) for n = 1..65537\u003c/a\u003e"
			],
			"program": [
				"(PARI)",
				"up_to = 65537;",
				"rgs_transform(invec) = { my(om = Map(), outvec = vector(length(invec)), u=1); for(i=1, length(invec), if(mapisdefined(om,invec[i]), my(pp = mapget(om, invec[i])); outvec[i] = outvec[pp] , mapput(om,invec[i],i); outvec[i] = u; u++ )); outvec; };",
				"A320000sq(n, k) = if(1==n, if(1==k,2,1), sumdiv(n, d, if(d\u003e=k \u0026\u0026 isprime(d+1), my(p=d+1, q=n/d); sum(i=0, valuation(n, p), A320000sq(q/(p^i), p))))); \\\\ Cf. A320000",
				"A322310(n) = if(1==n,3,my(m=1); fordiv(n,d, my(s, p=d+1, q=n/d); if(isprime(p) \u0026\u0026 (s = sum(i=0,valuation(n, p), A320000sq(q/(p^i),p))), m *= prime(s))); (m));",
				"v322311 = rgs_transform(vector(up_to, n, A322310(n)));",
				"A322311(n) = v322311[n];"
			],
			"xref": [
				"Cf. A014197, A320000, A322310, A322313."
			],
			"keyword": "nonn",
			"offset": "1,2",
			"author": "_Antti Karttunen_, Dec 03 2018",
			"references": 2,
			"revision": 9,
			"time": "2018-12-03T18:29:46-05:00",
			"created": "2018-12-03T18:29:46-05:00"
		}
	]
}