{
	"greeting": "Greetings from The On-Line Encyclopedia of Integer Sequences! http://oeis.org/",
	"query": "id:A322045",
	"count": 1,
	"start": 0,
	"results": [
		{
			"number": 322045,
			"data": "10,15,21,28,36,45,55,66,78,91,5050,5151",
			"name": "Triangular numbers that are 2-digit-repblocks.",
			"reference": [
				"Bir Kafle et al., Triangular repblocks, Fib. Q., 56:4 (2018), 325-328."
			],
			"xref": [
				"Cf. A010785."
			],
			"keyword": "nonn,fini,full",
			"offset": "1,1",
			"author": "_N. J. A. Sloane_, Dec 07 2018",
			"references": 0,
			"revision": 3,
			"time": "2018-12-07T11:31:26-05:00",
			"created": "2018-12-07T11:31:26-05:00"
		}
	]
}