{
	"greeting": "Greetings from The On-Line Encyclopedia of Integer Sequences! http://oeis.org/",
	"query": "id:A322451",
	"count": 1,
	"start": 0,
	"results": [
		{
			"number": 322451,
			"data": "1,0,0,1,3,29,2102,7011184,1788775603336,53304526022885280592,366299663378889804782337225824,1171638318502622784366970315264281830913536,3517726593606524901243694560022510194223171115509135178240",
			"name": "Number of unlabeled 3-regular hypergraphs spanning n vertices.",
			"link": [
				"Andrew Howroyd, \u003ca href=\"/A322451/b322451.txt\"\u003eTable of n, a(n) for n = 0..25\u003c/a\u003e"
			],
			"example": [
				"Non-isomorphic representatives of the a(5) = 29 hypergraphs:",
				"  {{125}{345}}",
				"  {{123}{245}{345}}",
				"  {{135}{245}{345}}",
				"  {{145}{245}{345}}",
				"  {{123}{145}{245}{345}}",
				"  {{124}{135}{245}{345}}",
				"  {{125}{135}{245}{345}}",
				"  {{134}{235}{245}{345}}",
				"  {{145}{235}{245}{345}}",
				"  {{123}{124}{135}{245}{345}}",
				"  {{123}{145}{235}{245}{345}}",
				"  {{124}{134}{235}{245}{345}}",
				"  {{134}{145}{235}{245}{345}}",
				"  {{135}{145}{235}{245}{345}}",
				"  {{145}{234}{235}{245}{345}}",
				"  {{123}{124}{134}{235}{245}{345}}",
				"  {{123}{134}{145}{235}{245}{345}}",
				"  {{123}{145}{234}{235}{245}{345}}",
				"  {{124}{135}{145}{235}{245}{345}}",
				"  {{125}{135}{145}{235}{245}{345}}",
				"  {{135}{145}{234}{235}{245}{345}}",
				"  {{123}{124}{135}{145}{235}{245}{345}}",
				"  {{124}{135}{145}{234}{235}{245}{345}}",
				"  {{125}{135}{145}{234}{235}{245}{345}}",
				"  {{134}{135}{145}{234}{235}{245}{345}}",
				"  {{123}{124}{135}{145}{234}{235}{245}{345}}",
				"  {{125}{134}{135}{145}{234}{235}{245}{345}}",
				"  {{124}{125}{134}{135}{145}{234}{235}{245}{345}}",
				"  {{123}{124}{125}{134}{135}{145}{234}{235}{245}{345}}"
			],
			"xref": [
				"First differences of A000665.",
				"Cf. A006126, A006129, A038041, A299471, A301922, A302374, A302394, A306017, A306021."
			],
			"keyword": "nonn",
			"offset": "0,5",
			"author": "_Gus Wiseman_, Dec 09 2018",
			"ext": [
				"a(12) from _Andrew Howroyd_, Dec 15 2018"
			],
			"references": 14,
			"revision": 7,
			"time": "2018-12-15T17:30:33-05:00",
			"created": "2018-12-09T12:28:38-05:00"
		}
	]
}