{
	"greeting": "Greetings from The On-Line Encyclopedia of Integer Sequences! http://oeis.org/",
	"query": "id:A322949",
	"count": 1,
	"start": 0,
	"results": [
		{
			"number": 322949,
			"data": "1,3,6,9,20,22,27,32,72,97,99,104,107,120,140,142,151,180,304,305,342,440,489,521,635,665,673,767,876,1040,1313,1359,1764,2032,2224,2280,2783,2832,2875,5256,8225,10297,11124,12124,17552,18592,24435,30704,37467",
			"name": "Numbers k such that 315*2^k+1 is prime.",
			"link": [
				"Jeppe Stig Nielsen, \u003ca href=\"/A322949/b322949.txt\"\u003eTable of n, a(n) for n = 1..77\u003c/a\u003e (terms n = 1..74 from Robert Price)",
				"Ray Ballinger, \u003ca href=\"http://www.prothsearch.com/index.html\"\u003eProth Search Page\u003c/a\u003e",
				"Ray Ballinger and Wilfrid Keller, \u003ca href=\"http://www.prothsearch.com/riesel1a.html\"\u003eList of primes k.2^n + 1 for 300 \u003c k \u003c 600\u003c/a\u003e",
				"Y. Gallot, \u003ca href=\"http://www.utm.edu/research/primes/programs/gallot/index.html\"\u003eProth.exe: Windows Program for Finding Large Primes\u003c/a\u003e",
				"Wilfrid Keller, \u003ca href=\"http://www.prothsearch.com/riesel2.html\"\u003eList of primes k.2^n - 1 for k \u003c 300\u003c/a\u003e",
				"Eric Weisstein's World of Mathematics, \u003ca href=\"http://mathworld.wolfram.com/ProthPrime.html\"\u003eProth Prime\u003c/a\u003e",
				"\u003ca href=\"/index/Pri#riesel\"\u003eIndex entries for sequences of n such that k*2^n-1 (or k*2^n+1) is prime\u003c/a\u003e"
			],
			"mathematica": [
				"Select[Range[1000], PrimeQ[315*2^# + 1] \u0026] (* _Robert Price_, Dec 31 2018 *)"
			],
			"xref": [
				"Cf. A002255, A050527."
			],
			"keyword": "nonn,hard",
			"offset": "1,2",
			"author": "_Robert Price_, Dec 31 2018",
			"references": 1,
			"revision": 17,
			"time": "2020-01-05T02:25:33-05:00",
			"created": "2018-12-31T13:19:26-05:00"
		}
	]
}