{
	"greeting": "Greetings from The On-Line Encyclopedia of Integer Sequences! http://oeis.org/",
	"query": "id:A322398",
	"count": 1,
	"start": 0,
	"results": [
		{
			"number": 322398,
			"data": "1,1,1,2,4,3,1,5,15,21,18,10,4,1,14,56,112,148,143,109,68,35,15,5,1,42,210,540,945,1255,1353,1236,984,696,441,250,126,56,21,6,1,132,792,2475,5335,8866,12112,14182,14654,13646,11619,9131,6662,4529,2870,1691,922,462,210,84,28,7,1,429,3003",
			"name": "Triangle of the coefficients of Touchard's chord enumerating polynomials, [x^k] S(n,x) 0\u003c=k\u003c=n(n-1)/2.",
			"link": [
				"J. Touchard, \u003ca href=\"http://dx.doi.org/10.4153/CJM-1952-001-8\"\u003eSur un problème de configurations et sur les fractions continues\u003c/a\u003e, Canad. J. Math., 4 (1952), 2-25, S_n(x)."
			],
			"example": [
				"The triangle starts",
				"    1;",
				"    1,    1;",
				"    2,    4,    3,    1;",
				"    5,   15,   21,   18,   10,    4,    1;",
				"   14,   56,  112,  148,  143,  109,   68,   35,   15,    5,    1;"
			],
			"maple": [
				"# page 3 prior to equation 2",
				"Dpq := proc(p,q)",
				"    (p-q+1)*binomial(p+q,q)/(p+1) ;",
				"end proc:",
				"# page 12 top",
				"fp1 := proc(p,x)",
				"    add( (-1)^i*Dpq(2*p-i,i)*x^((p+1-i)*(p-i)/2),i=0..p) ;",
				"end proc:",
				"# page 12",
				"gnx := proc(n,x)",
				"    fp1(n,x)/(x-1)^n ;",
				"    taylor(%,x=0,1+n*(n+1)/2) ;",
				"    convert(%,polynom) ;",
				"end proc:",
				"Snx := proc(n,x)",
				"    if n =0 then",
				"        0;",
				"    elif n =1 then",
				"        1;",
				"    else",
				"        # recurrence page 17",
				"        gnx(n,x)-add( gnx(n-i,x)*procname(i,x),i=1..n-1) ;",
				"        taylor(%,x=1,1+n*(n+1)/2) ;",
				"        convert(%,polynom) ;",
				"        expand(%) ;",
				"    end if;",
				"end proc:",
				"for n from 1 to 8 do",
				"    S := Snx(n,x) ;",
				"    seq( coeff(S,x,i),i=0..n*(n-1)/2) ;",
				"    printf(\"\\n\") ;",
				"end do:"
			],
			"xref": [
				"Cf. A000108 (leading column), A001791 (2nd column), A000698 (row sums)"
			],
			"keyword": "nonn,tabf",
			"offset": "1,4",
			"author": "_R. J. Mathar_, Dec 06 2018",
			"references": 2,
			"revision": 5,
			"time": "2018-12-06T10:53:18-05:00",
			"created": "2018-12-06T10:53:18-05:00"
		}
	]
}