{
	"greeting": "Greetings from The On-Line Encyclopedia of Integer Sequences! http://oeis.org/",
	"query": "id:A322092",
	"count": 1,
	"start": 0,
	"results": [
		{
			"number": 322092,
			"data": "7,9,0,6,2,5,8,8,3,4,3,10,4,7,0,9,7,8,12,6,7,11,10,6,7,3,8,3,11,11,8,6,1,9,11,0,7,10,10,6,9,1,1,4,8,7,2,2,5,3,7,5,5,5,4,12,11,12,5,5,12,3,0,2,4,11,6,11,10,2,10,3,5,10,11,2,1,8,9,7,6",
			"name": "Digits of one of the two 13-adic integers sqrt(-3).",
			"comment": [
				"This square root of -3 in the 13-adic field ends with digit 7. The other, A322091, ends with digit 6."
			],
			"link": [
				"Seiichi Manyama, \u003ca href=\"/A322092/b322092.txt\"\u003eTable of n, a(n) for n = 0..10000\u003c/a\u003e",
				"Wikipedia, \u003ca href=\"https://en.wikipedia.org/wiki/P-adic_number\"\u003ep-adic number\u003c/a\u003e"
			],
			"formula": [
				"a(n) = (A322090(n+1) - A322090(n))/13^n.",
				"For n \u003e 0, a(n) = 12 - A322091(n).",
				"Equals A286838*A322087 = A286839*A322088."
			],
			"example": [
				"...96AA70B9168BB38376AB76C879074A34388526097."
			],
			"program": [
				"(PARI) a(n) = truncate(-sqrt(-3+O(13^(n+1))))\\13^n"
			],
			"xref": [
				"Cf. A286838, A286839, A322087, A322088, A322090, A322091."
			],
			"keyword": "nonn,base",
			"offset": "0,1",
			"author": "_Jianing Song_, Nov 26 2018",
			"references": 7,
			"revision": 15,
			"time": "2019-08-26T09:56:39-04:00",
			"created": "2018-12-22T16:50:07-05:00"
		}
	]
}