{
	"greeting": "Greetings from The On-Line Encyclopedia of Integer Sequences! http://oeis.org/",
	"query": "id:A322763",
	"count": 1,
	"start": 0,
	"results": [
		{
			"number": 322763,
			"data": "1,1,1,2,1,1,1,1,2,3,1,1,1,1,2,1,1,2,1,2,3,4,1,1,1,1,1,1,1,2,1,2,1,1,1,2,3,1,2,3,4,5,1,1,1,1,1,1,1,2,1,2,1,1,1,1,1,2,3,1,2,3,1,2,1,2,1,1,2,3,4,1,2,3,4,5,6,1,1,1,1,1,1,1,2,1,1,1,1,1,1,1,2,3,1,2,1,1,1,2,1,1,1,2,1,1,2,3,4,1,2,3,1,1,2,1,2,3,1,1,2,3,4,5,1,2,3,4,5,6,7",
			"name": "Irregular triangle read by rows: to get row n, take partitions of n ordered as in A080577, and in each partition, change each j-th occurrence of k to j; use uncompressed notation as in A080577.",
			"comment": [
				"The compressed form seems easier to understand. This is A322762 but with each partition, after it has been transformed, written as the string of its parts."
			],
			"reference": [
				"D. E. Knuth, The Art of Computer Programming, Vol. 4A, Section 7.2.1.5, Problem 73, pp. 415, 761."
			],
			"link": [
				"Alois P. Heinz, \u003ca href=\"/A322763/b322763.txt\"\u003eRows n = 1..24, flattened\u003c/a\u003e"
			],
			"example": [
				"In compressed form (see A322762) triangle begins:",
				"  1,",
				"  1, 12,",
				"  1, 11, 123,",
				"  1, 11, 12, 112, 1234,",
				"  1, 11, 11, 112, 121, 1123, 12345,",
				"  1, 11, 11, 112, 12, 111, 1123, 123, 1212, 11234, 123456,",
				"  ...",
				"For example, the 11 partitions of 6 are:",
				"6, 51, 42, 411, 33, 321, 3111, 222, 2211, 21111, 111111,",
				"and applying the transformation we get:",
				"1, 11, 11, 112, 12, 111, 1123, 123, 1212, 11234, 123456.",
				"In the uncompressed notation the triangle begins:",
				"  {1},",
				"  {1}, {1,2},",
				"  {1}, {1,1}, {1,2,3},",
				"  {1}, {1,1}, {1,2}, {1,1,2}, {1,2,3,4},",
				"  {1}, {1,1}, {1,1}, {1,1,2}, {1,2,1}, {1,1,2,3}, {1,2,3,4,5},",
				"  ..."
			],
			"maple": [
				"b:= (n, i)-\u003e `if`(n=0 or i=1, [[$1..n]], [(t-\u003e",
				"    seq(map(x-\u003e [$1..(t+1-j), x[]], b(n-i*(t+1-j)",
				"    , i-1))[], j=1..t))(iquo(n, i)), b(n, i-1)[]]):",
				"T:= n-\u003e map(x-\u003e x[], b(n$2))[]:",
				"seq(T(n), n=1..10);  # _Alois P. Heinz_, Dec 30 2018"
			],
			"xref": [
				"Cf. A080577, A066633, A322761, A322763."
			],
			"keyword": "nonn,tabf,base",
			"offset": "1,4",
			"author": "_N. J. A. Sloane_, Dec 30 2018",
			"ext": [
				"More terms from _Alois P. Heinz_, Dec 30 2018"
			],
			"references": 2,
			"revision": 15,
			"time": "2019-02-14T19:19:41-05:00",
			"created": "2018-12-30T18:24:17-05:00"
		}
	]
}