{
	"greeting": "Greetings from The On-Line Encyclopedia of Integer Sequences! http://oeis.org/",
	"query": "id:A322320",
	"count": 1,
	"start": 0,
	"results": [
		{
			"number": 322320,
			"data": "1,1,1,1,1,1,1,1,1,1,1,2,1,1,1,1,1,1,1,2,1,1,1,2,1,1,1,2,1,1,1,1,1,1,1,2,1,1,1,4,1,1,1,2,1,1,1,2,1,1,1,2,1,1,1,2,1,1,1,2,1,1,3,1,1,1,1,2,1,1,1,2,1,1,1,2,1,1,1,4,1,1,1,2,1,1,1,2,1,1,1,2,1,1,1,2,1,1,1,2,1,1,1,4,1",
			"name": "a(n) = gcd(A003557(n), A173557(n)).",
			"link": [
				"Antti Karttunen, \u003ca href=\"/A322320/b322320.txt\"\u003eTable of n, a(n) for n = 1..20000\u003c/a\u003e"
			],
			"formula": [
				"a(n) = gcd(A003557(n), A173557(n)) = gcd(A322351(n), A322352(n)).",
				"a(n) = A000010(n) / A322321(n)."
			],
			"mathematica": [
				"a[n_] := If[n == 1, 1, Module[{f=FactorInteger[n]}, GCD[ Times@@ (First[#] ^(Last[#]-1)\u0026 /@  f), Times@@((#-1)\u0026 @@@ f)]]]; Array[a, 120] (* _Amiram Eldar_, Dec 05 2018 *)"
			],
			"program": [
				"(PARI)",
				"A003557(n) = { my(f=factor(n)); for (i=1, #f~, f[i, 2] = f[i, 2]-1); factorback(f); }; \\\\ From A003557",
				"A173557(n) = factorback(apply(p -\u003e p-1, factor(n)[, 1]));",
				"A322320(n) = gcd(A173557(n), A003557(n));"
			],
			"xref": [
				"Cf. A000010, A003557, A173557, A322321, A322351, A322352.",
				"Cf. also A066086, A322318."
			],
			"keyword": "nonn",
			"offset": "1,12",
			"author": "_Antti Karttunen_, Dec 05 2018",
			"references": 7,
			"revision": 9,
			"time": "2018-12-05T17:23:55-05:00",
			"created": "2018-12-05T17:23:55-05:00"
		}
	]
}