{
	"greeting": "Greetings from The On-Line Encyclopedia of Integer Sequences! http://oeis.org/",
	"query": "id:A322126",
	"count": 1,
	"start": 0,
	"results": [
		{
			"number": 322126,
			"data": "1,0,2,7188,134631576,7946203275000,1210527140790855600,411490045733601418421040,280031356887267221923677137280,351026687723982522494728236869341440,758933713536173718404757245269681913222400",
			"name": "Number of permutations of the multiset {1,1,1,1,1,2,2,2,2,2,3,3,3,3,3,...,n,n,n,n,n} with no two consecutive terms equal.",
			"link": [
				"Seiichi Manyama, \u003ca href=\"/A322126/b322126.txt\"\u003eTable of n, a(n) for n = 0..106\u003c/a\u003e"
			],
			"formula": [
				"a(n) = n! * A190833(n).",
				"a(n) = Integral_{0..infinity} (x - 2 * x^2 + x^3 - 1/6 * x^4 + 1/120 * x^5)^n * exp(-x) dx."
			],
			"mathematica": [
				"a[n_] := Integrate[(x - 2 * x^2 + x^3 - 1/6 * x^4 + 1/120 * x^5)^n * Exp[-x],  {x, 0, Infinity}]; Array[a, 10, 0] (* _Stefano Spezia_, Nov 27 2018 *)"
			],
			"xref": [
				"Row 5 of A322093.",
				"Cf. A190833, A322127, A322128."
			],
			"keyword": "nonn",
			"offset": "0,3",
			"author": "_Seiichi Manyama_, Nov 27 2018",
			"references": 2,
			"revision": 13,
			"time": "2018-11-28T07:11:02-05:00",
			"created": "2018-11-27T11:37:41-05:00"
		}
	]
}