{
	"greeting": "Greetings from The On-Line Encyclopedia of Integer Sequences! http://oeis.org/",
	"query": "id:A322586",
	"count": 1,
	"start": 0,
	"results": [
		{
			"number": 322586,
			"data": "1,1,0,1,0,1,0,0,0,0,0,1,0,0,0,0,0,0,0,0,0,0,0,1,0,0,0,0,0,0,0,0,0,0,0,1,0,0,0,0,0,0,0,0,0,0,0,1,0,0,0,0,0,0,0,0,0,0,0,1,0,0,0,0,0,0,0,0,0,0,0,0,0,0,0,0,0,0,0,0,0,0,0,0,0,0,0,0,0,0,0,0,0,0,0,0,0,0,0,0,0,0,0,0,0,0,0,0,0,0,0,0,0,0,0,0,0,0,0,1",
			"name": "a(n) = 1 if n is a highly composite number (A002182), 0 otherwise.",
			"comment": [
				"Characteristic function of A002182, first differences of A261100, Möbius transform of A181801."
			],
			"link": [
				"Antti Karttunen, \u003ca href=\"/A322586/b322586.txt\"\u003eTable of n, a(n) for n = 1..83160\u003c/a\u003e",
				"\u003ca href=\"/index/Ch#char_fns\"\u003eIndex entries for characteristic functions\u003c/a\u003e"
			],
			"formula": [
				"a(1) = 1; for n \u003e 1, a(n) = A261100(n) - A261100(n-1).",
				"For all n, a(n) \u003c= A322585(n)."
			],
			"program": [
				"(PARI)",
				"v002182 = vector(128); v002182[1] = 1; \\\\ For memoization.",
				"A002182(n) = { my(d,k); if(v002182[n],v002182[n], k = A002182(n-1); d = numdiv(k); while(numdiv(k) \u003c= d, k=k+1); v002182[n] = k; k); };",
				"A261100(n) = { my(k=1); while(A002182(k)\u003c=n,k=k+1); (k-1); };",
				"A322586(n) = if(1==n,1,(A261100(n)-A261100(n-1)));"
			],
			"xref": [
				"Cf. A002182, A181801, A261100 (partial sums), A322585."
			],
			"keyword": "nonn",
			"offset": "1",
			"author": "_Antti Karttunen_, Dec 20 2018",
			"references": 3,
			"revision": 7,
			"time": "2018-12-20T23:19:24-05:00",
			"created": "2018-12-20T23:19:24-05:00"
		}
	]
}