{
	"greeting": "Greetings from The On-Line Encyclopedia of Integer Sequences! http://oeis.org/",
	"query": "id:A322472",
	"count": 1,
	"start": 0,
	"results": [
		{
			"number": 322472,
			"data": "13,17,37,73,89,97,109,113,127,131,139,149,151,157,197,227,251,257,271,277,293,307,311,313,337,359,379,397,409,419,421,433,439,457,463,487,499,503,521,523,541,569,577,587,599,601,613,617,619,631,653,661,683,733,739,743,757,761",
			"name": "Primes that are not base-9 deletable primes (written in base 10).",
			"comment": [
				"A prime p is a base-b deletable prime if when written in base b it has the property that removing some digit leaves either the empty string or another deletable prime.",
				"Deleting a digit cannot leave any leading zeros in the new string. For example, deleting the 2 in 2003 to obtain 003 is not allowed.",
				"Complement of all primes and A322471."
			],
			"link": [
				"Robert Price, \u003ca href=\"/A322472/b322472.txt\"\u003eTable of n, a(n) for n = 1..889\u003c/a\u003e"
			],
			"mathematica": [
				"b = 9; d = {};",
				"p = Select[Range[2, 10000], PrimeQ[#] \u0026];",
				"For[i = 1, i \u003c= Length[p], i++,",
				"c = IntegerDigits[p[[i]], b];",
				"If[Length[c] == 1, AppendTo[d, p[[i]]]; Continue[]];",
				"For[j = 1, j \u003c= Length[c], j++,",
				"t = Delete[c, j];",
				"If[t[[1]] == 0, Continue[]];",
				"If[MemberQ[d, FromDigits[t, b]], AppendTo[d, p[[i]]]; Break[]]]]; Complement[Table[Prime[n], {n, PrimePi[Last[d]]}], d] (* _Robert Price_, Dec 09 2018 *)"
			],
			"xref": [
				"Cf. A080608, A080603, A096235-A096246, A321657."
			],
			"keyword": "nonn,base,easy",
			"offset": "1,1",
			"author": "_Robert Price_, Dec 09 2018",
			"references": 1,
			"revision": 7,
			"time": "2018-12-10T02:41:33-05:00",
			"created": "2018-12-09T21:29:52-05:00"
		}
	]
}