{
	"greeting": "Greetings from The On-Line Encyclopedia of Integer Sequences! http://oeis.org/",
	"query": "id:A323364",
	"count": 1,
	"start": 0,
	"results": [
		{
			"number": 323364,
			"data": "2,0,0,9,0,24,0,9,16,36,0,12,0,48,48,27,0,24,0,18,64,72,0,60,36,84,32,24,0,0,0,45,96,108,96,84,0,120,112,90,0,0,0,36,48,144,0,84,64,72,144,42,0,120,144,120,160,180,0,216,0,192,64,99,168,0,0,54,192,0,0,132,0,228,96,60,192,0,0,126,112,252,0,288,216,264,240,180,0",
			"name": "Sum of Dedekind's psi, A001615, and its Dirichlet inverse, A323363.",
			"link": [
				"Antti Karttunen, \u003ca href=\"/A323364/b323364.txt\"\u003eTable of n, a(n) for n = 1..16384\u003c/a\u003e"
			],
			"program": [
				"(PARI)",
				"A001615(n) = (n * sumdivmult(n, d, issquarefree(d)/d)); \\\\ From A001615",
				"A323363(n) = if(1==n,1,-sumdiv(n,d,if(d\u003cn,A001615(n/d)*A323363(d),0)));",
				"A323364(n) = (A001615(n) + A323363(n));"
			],
			"xref": [
				"Cf. A001615, A323363.",
				"Cf. also A319340, A322581, A323365, A323372, A323399."
			],
			"keyword": "nonn",
			"offset": "1,1",
			"author": "_Antti Karttunen_, Jan 13 2019",
			"references": 7,
			"revision": 9,
			"time": "2019-01-13T19:29:01-05:00",
			"created": "2019-01-13T19:29:01-05:00"
		}
	]
}