{
	"greeting": "Greetings from The On-Line Encyclopedia of Integer Sequences! http://oeis.org/",
	"query": "id:A323781",
	"count": 1,
	"start": 0,
	"results": [
		{
			"number": 323781,
			"data": "1,15,429,609,6003,9156,20943,75579,90252,93849,115773,331359,631764,744993,817191,837655,925083,1130766,1141191,2349087,2491740,2512965,3040728,3266253,3796143,4314891,4365231,5025930,5294340,6135624,6629271,7210671,10906175",
			"name": "Numbers m such that Sum_{d|m} (tau(d)/sigma(d)) is an integer h where tau(k) = the number of the divisors of k (A000005) and sigma(k) = the sum of the divisors of k (A000203).",
			"comment": [
				"Sum_{d|n} (tau(d)/sigma(d)) \u003e 1 for all n \u003e 2.",
				"Corresponding values of integers h: 1, 2, 2, 2, 2, 4, 2, 2, 4, 2, 2, 2, 5, 2, 2, 2, 2, 4, 2, 2, 5, 3, 4, 2, 2, 2, 2, 5, 5, 5, 2, 2, 2, ...",
				"The smallest number m such that Sum_{d|m} (tau(d)/sigma(d)) is an integer h for h \u003e= 1:  1, 15, 2512965, 9156, 631764, ..."
			],
			"formula": [
				"A323780(a(n)) = 1."
			],
			"example": [
				"15 is a term because Sum_{d|15} (tau(d)/sigma(d)) = tau(1)/sigma(1) + tau(3)/sigma(3) + tau(5)/sigma(5) + tau(15)/sigma(15) = 1/1 + 2/4 + 2/6 + 4/24 = 2 (integer)."
			],
			"mathematica": [
				"Select[Range[10^5], IntegerQ@ DivisorSum[#, Divide @@ DivisorSigma[{0, 1}, #] \u0026] \u0026] (* _Michael De Vlieger_, Feb 17 2019 *)"
			],
			"program": [
				"(MAGMA) [n: n in [1..1000000] | Denominator(\u0026+[NumberOfDivisors(d) / SumOfDivisors(d): d in Divisors(n)]) eq 1]",
				"(PARI) isok(n) = !frac(sumdiv(n, d, numdiv(d)/sigma(d))); \\\\ _Michel Marcus_, Feb 16 2019"
			],
			"xref": [
				"Cf. A000005, A000203, A323779, A323780."
			],
			"keyword": "nonn",
			"offset": "1,2",
			"author": "_Jaroslav Krizek_, Feb 16 2019",
			"references": 3,
			"revision": 14,
			"time": "2021-10-06T12:34:39-04:00",
			"created": "2019-03-01T23:39:37-05:00"
		}
	]
}