{
	"greeting": "Greetings from The On-Line Encyclopedia of Integer Sequences! http://oeis.org/",
	"query": "id:A323715",
	"count": 1,
	"start": 0,
	"results": [
		{
			"number": 323715,
			"data": "2,10,130,4550,441350,121371250,96247401250,222812733893750,1518914406953693750,30674476448429845281250,1842707823686526095580531250,330204028465507043697553297343750,176836474792332245660656600199579843750",
			"name": "a(n) = Product_{k=0..n} (2^k + 3^k).",
			"formula": [
				"a(n) ~ c * 3^(n*(n+1)/2), where c = QPochhammer[-1, 2/3] = 10.934481779448897533..."
			],
			"mathematica": [
				"Table[Product[2^k+3^k, {k, 0, n}], {n, 0, 12}]",
				"Table[2^(n*(n+1)/2)*QPochhammer[-1, 3/2, n+1], {n, 0, 12}]"
			],
			"program": [
				"(PARI) a(n) = prod(k=0, n, 2^k+3^k); \\\\ _Michel Marcus_, Jan 25 2019"
			],
			"xref": [
				"Cf. A000079, A000244, A007689, A323716."
			],
			"keyword": "nonn",
			"offset": "0,1",
			"author": "_Vaclav Kotesovec_, Jan 25 2019",
			"references": 1,
			"revision": 7,
			"time": "2019-01-25T04:25:01-05:00",
			"created": "2019-01-25T04:04:11-05:00"
		}
	]
}