{
	"greeting": "Greetings from The On-Line Encyclopedia of Integer Sequences! http://oeis.org/",
	"query": "id:A323363",
	"count": 1,
	"start": 0,
	"results": [
		{
			"number": 323363,
			"data": "1,-3,-4,3,-6,12,-8,-3,4,18,-12,-12,-14,24,24,3,-18,-12,-20,-18,32,36,-24,12,6,42,-4,-24,-30,-72,-32,-3,48,54,48,12,-38,60,56,18,-42,-96,-44,-36,-24,72,-48,-12,8,-18,72,-42,-54,12,72,24,80,90,-60,72,-62,96,-32,3,84,-144,-68,-54,96,-144,-72,-12,-74,114,-24",
			"name": "Dirichlet inverse of Dedekind's psi, A001615.",
			"link": [
				"Antti Karttunen, \u003ca href=\"/A323363/b323363.txt\"\u003eTable of n, a(n) for n = 1..16384\u003c/a\u003e"
			],
			"formula": [
				"G.f. A(x) satisfies: A(x) = x - Sum_{k\u003e=2} psi(k) * A(x^k). - _Ilya Gutkovskiy_, Sep 04 2019",
				"From _Amiram Eldar_, Oct 14 2020: (Start)",
				"Multiplicative with a(p^e) = (-1)^e * (p+1).",
				"a(n) = A008836(n) * A048250(n). (End)"
			],
			"mathematica": [
				"psi[n_] := If[n == 1, 1, n Times @@ (1 + 1/FactorInteger[n][[All, 1]])];",
				"a[n_] := a[n] = If[n == 1, 1, -Sum[psi[n/d] a[d], {d, Most@ Divisors[n]}]];",
				"Array[a, 75] (* _Jean-François Alcover_, Feb 15 2020 *)",
				"f[p_, e_] := (-1)^e * (p + 1); a[1] = 1; a[n_] := Times @@ (f @@@ FactorInteger[n]); Array[a, 100] (* _Amiram Eldar_, Oct 14 2020 *)"
			],
			"program": [
				"(PARI)",
				"A001615(n) = (n * sumdivmult(n, d, issquarefree(d)/d)); \\\\ From A001615",
				"A323363(n) = if(1==n,1,-sumdiv(n,d,if(d\u003cn,A001615(n/d)*A323363(d),0)));"
			],
			"xref": [
				"Cf. A048250 (absolute values).",
				"Cf. A001615, A008836, A323364, A323372."
			],
			"keyword": "sign,mult,easy",
			"offset": "1,2",
			"author": "_Antti Karttunen_, Jan 13 2019",
			"references": 12,
			"revision": 18,
			"time": "2020-10-14T10:15:53-04:00",
			"created": "2019-01-13T19:28:54-05:00"
		}
	]
}