{
	"greeting": "Greetings from The On-Line Encyclopedia of Integer Sequences! http://oeis.org/",
	"query": "id:A323160",
	"count": 1,
	"start": 0,
	"results": [
		{
			"number": 323160,
			"data": "1,1,1,1,1,6,1,1,1,2,1,4,1,2,3,1,1,6,1,2,1,2,1,12,1,2,1,4,1,6,1,1,3,2,1,2,1,2,1,2,1,6,1,4,3,2,1,4,1,2,3,2,1,6,1,8,1,2,1,12,1,2,1,1,1,6,1,2,3,2,1,6,1,2,1,4,1,6,1,2,1,2,1,4,1,2,3,4,1,18,7,4,1,2,5,12,1,2,3,2,1,6,1,2,3",
			"name": "a(n) = gcd(n, A323159(n)) = gcd(n, A034448(n), A048250(n)).",
			"link": [
				"Antti Karttunen, \u003ca href=\"/A323160/b323160.txt\"\u003eTable of n, a(n) for n = 1..65537\u003c/a\u003e"
			],
			"formula": [
				"a(n) = gcd(n, A323159(n)) = gcd(A048250(n), A323166(n)).",
				"a(n) = gcd(n, A034448(n), A048250(n))."
			],
			"program": [
				"(PARI)",
				"A034448(n) = { my(f=factorint(n)); prod(k=1, #f~, 1+(f[k, 1]^f[k, 2])); }; \\\\ After code in A034448",
				"A048250(n) = factorback(apply(p -\u003e p+1,factor(n)[,1]));",
				"A323160(n) = gcd(n, gcd(A034448(n), A048250(n)));"
			],
			"xref": [
				"Cf. A034448, A048250, A323159, A323163, A323166."
			],
			"keyword": "nonn",
			"offset": "1,6",
			"author": "_Antti Karttunen_, Jan 09 2019",
			"references": 3,
			"revision": 8,
			"time": "2019-01-09T21:22:46-05:00",
			"created": "2019-01-09T21:22:46-05:00"
		}
	]
}