{
	"greeting": "Greetings from The On-Line Encyclopedia of Integer Sequences! http://oeis.org/",
	"query": "id:A323429",
	"count": 1,
	"start": 0,
	"results": [
		{
			"number": 323429,
			"data": "1,1,3,5,10,14,26,35,58,81,124,169,257,345,501,684,968,1304,1830,2452,3387,4541,6188,8257,11193,14865,19968,26481,35341,46674,62007,81611,107860,141602,186292,243800,319610,416984,544601,708690,922472,1197018,1553442",
			"name": "Number of rectangular plane partitions of n.",
			"comment": [
				"Number of ways to fill a (not necessarily square) matrix with the parts of an integer partition of n so that the rows and columns are weakly decreasing."
			],
			"example": [
				"The a(5) = 14 matrices:",
				"  [5] [4 1] [3 2] [3 1 1] [2 2 1] [2 1 1 1] [1 1 1 1 1]",
				".",
				"  [4] [3] [2 1]",
				"  [1] [2] [1 1]",
				".",
				"  [3] [2]",
				"  [1] [2]",
				"  [1] [1]",
				".",
				"  [2]",
				"  [1]",
				"  [1]",
				"  [1]",
				".",
				"  [1]",
				"  [1]",
				"  [1]",
				"  [1]",
				"  [1]"
			],
			"mathematica": [
				"Table[Sum[Length[Select[Union[Sort/@Tuples[IntegerPartitions[#,{k}]\u0026/@ptn]],And@@OrderedQ/@Transpose[#]\u0026]],{ptn,IntegerPartitions[n]},{k,Min[ptn]}],{n,30}]"
			],
			"xref": [
				"Cf. A000219, A003293, A047966, A101509, A114736, A117433, A299968, A319066.",
				"Cf. A323301, A323307, A323430, A323431, A323432, A323435, A323436, A323438."
			],
			"keyword": "nonn",
			"offset": "0,3",
			"author": "_Gus Wiseman_, Jan 15 2019",
			"references": 15,
			"revision": 6,
			"time": "2019-01-15T09:24:28-05:00",
			"created": "2019-01-15T09:24:28-05:00"
		}
	]
}