{
	"greeting": "Greetings from The On-Line Encyclopedia of Integer Sequences! http://oeis.org/",
	"query": "id:A323813",
	"count": 1,
	"start": 0,
	"results": [
		{
			"number": 323813,
			"data": "2083,2719,3324,3752,7775,5631,7410,8561,14075,8468,9230,22701,14660,21709,21077,25808,27111,24707,19843,26942,26736,32448,31365,45035,37852,37187,43317,62094,67400,68735,70847,62788,63222,69244,85384",
			"name": "Squares where A323809 gets stuck.",
			"link": [
				"Daniël Karssen, \u003ca href=\"/A323813/b323813.txt\"\u003eTable of n, a(n) for n = 1..57\u003c/a\u003e"
			],
			"xref": [
				"Cf. A323809."
			],
			"keyword": "nonn",
			"offset": "1,1",
			"author": "_Daniël Karssen_, Jan 28 2019",
			"references": 1,
			"revision": 12,
			"time": "2019-01-30T14:28:58-05:00",
			"created": "2019-01-30T14:28:58-05:00"
		}
	]
}