{
	"greeting": "Greetings from The On-Line Encyclopedia of Integer Sequences! http://oeis.org/",
	"query": "id:A323789",
	"count": 1,
	"start": 0,
	"results": [
		{
			"number": 323789,
			"data": "1,1,4,15,64,269,1310,6460",
			"name": "Number of non-isomorphic weight-n sets of sets of multisets.",
			"comment": [
				"Also the number of non-isomorphic strict multiset partitions, with strict parts, of multiset partitions of weight n.",
				"All sets and multisets must be finite, and only the outermost may be empty.",
				"The weight of an atom is 1, and the weight of a multiset is the sum of weights of its elements, counting multiplicity."
			],
			"example": [
				"Non-isomorphic representatives of the a(1) = 1 through a(3) = 15 multiset partition partitions:",
				"  {{1}}  {{11}}      {{111}}",
				"         {{12}}      {{112}}",
				"         {{1}{2}}    {{123}}",
				"         {{1}}{{2}}  {{1}{11}}",
				"                     {{1}{12}}",
				"                     {{1}{23}}",
				"                     {{2}{11}}",
				"                     {{1}}{{11}}",
				"                     {{1}}{{12}}",
				"                     {{1}}{{23}}",
				"                     {{1}{2}{3}}",
				"                     {{2}}{{11}}",
				"                     {{1}}{{1}{2}}",
				"                     {{1}}{{2}{3}}",
				"                     {{1}}{{2}}{{3}}"
			],
			"xref": [
				"Cf. A007716, A049311, A050343, A283877, A316980, A317791, A318564, A318565, A318566, A318812.",
				"Cf. A323787, A323788, A323790, A323791, A323792, A323793, A323794, A323795."
			],
			"keyword": "nonn,more",
			"offset": "0,3",
			"author": "_Gus Wiseman_, Jan 27 2019",
			"references": 9,
			"revision": 5,
			"time": "2019-01-28T08:07:05-05:00",
			"created": "2019-01-28T08:07:05-05:00"
		}
	]
}