{
	"greeting": "Greetings from The On-Line Encyclopedia of Integer Sequences! http://oeis.org/",
	"query": "id:A323763",
	"count": 1,
	"start": 0,
	"results": [
		{
			"number": 323763,
			"data": "1,10,3,6,9,4,7,2,5,8,11,14,18,15,12,16,19,22,41,17,33,30,34,13,27,23,20,24,44,40,21,39,36,60,31,53,26,46,25,28,32,29,51,47,75,42,45,71,74,70,38,35,59,56,86,50,78,49,52,80,83,79,115,73,107,67,64",
			"name": "Squares visited by gnu (A.K.A. wildebeest; (1,2)+(1,3)-leaper chess piece) moves on a spirally numbered board and moving to the lowest available unvisited square at each step.",
			"comment": [
				"In fairy chess the (1,2)+(1,3)-leaper is called a Gnu. - _Vaclav Kotesovec_, Jan 28 2019",
				"Board is numbered with the square spiral:",
				".",
				"  17--16--15--14--13",
				"   |               |",
				"  18   5---4---3  12   .",
				"   |   |       |   |",
				"  19   6   1---2  11   .",
				"   |   |           |",
				"  20   7---8---9--10   .",
				"   |",
				"  21--22--23--24--25--26",
				".",
				"This sequence is finite: At step 12899744968 square 12851850258 is visited, after which there are no unvisited squares within one move."
			],
			"link": [
				"Wikipedia, \u003ca href=\"https://en.wikipedia.org/wiki/Fairy_chess_piece\"\u003eFairy chess piece\u003c/a\u003e",
				"Wikipedia, \u003ca href=\"https://en.wikipedia.org/wiki/Wildebeest_Chess\"\u003eWildebeest Chess\u003c/a\u003e"
			],
			"xref": [
				"Cf. A316667, A317106."
			],
			"keyword": "nonn,fini",
			"offset": "1,2",
			"author": "_Jonathan Allan_, Jan 26 2019",
			"references": 0,
			"revision": 23,
			"time": "2019-02-04T08:36:03-05:00",
			"created": "2019-02-04T08:36:03-05:00"
		}
	]
}