{
	"greeting": "Greetings from The On-Line Encyclopedia of Integer Sequences! http://oeis.org/",
	"query": "id:A323761",
	"count": 1,
	"start": 0,
	"results": [
		{
			"number": 323761,
			"data": "1,1,2,3,2,2,2,3,2,2,2,1,2,2,16,15,2,1,2,9,16,2,2,1,6,2,8,9,2,8,2,45,16,2,16,1,2,2,16,9,2,8,2,9,32,2,2,25,6,9,16,9,2,1,16,9,16,2,2,1,2,2,32,315,16,8,2,9,16,8,2,1,2,2,32,9,16,8,2,9",
			"name": "Denominator of Product_{d|n} (pod(d)/tau(d)) where pod(k) = the product of the divisors of k and tau(k) = the number of the divisors of k.",
			"comment": [
				"Product_{d|n} (pod(d)/tau(d)) \u003e 1 for all n \u003e 2."
			],
			"link": [
				"Antti Karttunen, \u003ca href=\"/A323761/b323761.txt\"\u003eTable of n, a(n) for n = 1..20000\u003c/a\u003e"
			],
			"formula": [
				"a(p) = 2 for prime p \u003e 2.",
				"a(n) = 1 for numbers in A323762."
			],
			"example": [
				"For n=4; Product_{d|4} (pod(d)/tau(d)) = (pod(1)/tau(1))*(pod(2)/tau(2))*(pod(4)/tau(4)) = (1/1)*(2/2)*(8/3) = 8/3; a(4) = 3."
			],
			"maple": [
				"A323761 := proc(n)",
				"    denom(A266265(n)/A211776(n)) ;",
				"end proc:",
				"seq(A323761(n),n=1..20) ; # _R. J. Mathar_, Feb 13 2019"
			],
			"program": [
				"(MAGMA) [Denominator(\u0026*[\u0026*[c: c in Divisors(d)] / NumberOfDivisors(d): d in Divisors(n)]): n in [1..100]]",
				"(PARI) a(n) = my(p=1, vd); fordiv(n, d, vd = divisors(d); p *= vecprod(vd)/#vd); denominator(p); \\\\ _Michel Marcus_, Jan 27 2019"
			],
			"xref": [
				"Cf. A211776, A266265, A323760 (numerator), A323762."
			],
			"keyword": "nonn,frac",
			"offset": "1,3",
			"author": "_Jaroslav Krizek_, Jan 27 2019",
			"references": 3,
			"revision": 13,
			"time": "2021-12-06T11:01:27-05:00",
			"created": "2019-02-13T09:33:19-05:00"
		}
	]
}