{
	"greeting": "Greetings from The On-Line Encyclopedia of Integer Sequences! http://oeis.org/",
	"query": "id:A323027",
	"count": 1,
	"start": 0,
	"results": [
		{
			"number": 323027,
			"data": "2,6,14,36,62,92,122,292,758,4436,5526,11066,14076,17036,23618,25412,33692,61358,71018,92156,158476,334026,641606",
			"name": "Numbers k such that 373*2^k+1 is prime.",
			"link": [
				"Ray Ballinger, \u003ca href=\"http://www.prothsearch.com/index.html\"\u003eProth Search Page\u003c/a\u003e",
				"Ray Ballinger and Wilfrid Keller, \u003ca href=\"http://www.prothsearch.com/riesel1a.html\"\u003eList of primes k.2^n + 1 for 300 \u003c k \u003c 600\u003c/a\u003e",
				"Y. Gallot, \u003ca href=\"http://www.utm.edu/research/primes/programs/gallot/index.html\"\u003eProth.exe: Windows Program for Finding Large Primes\u003c/a\u003e",
				"Wilfrid Keller, \u003ca href=\"http://www.prothsearch.com/riesel2.html\"\u003eList of primes k.2^n - 1 for k \u003c 300\u003c/a\u003e",
				"Eric Weisstein's World of Mathematics, \u003ca href=\"http://mathworld.wolfram.com/ProthPrime.html\"\u003eProth Prime\u003c/a\u003e",
				"\u003ca href=\"/index/Pri#riesel\"\u003eIndex entries for sequences of n such that k*2^n-1 (or k*2^n+1) is prime\u003c/a\u003e"
			],
			"maple": [
				"select(k-\u003eisprime(373*2^k+1),[$1..1000]); # _Muniru A Asiru_, Jan 02 2019"
			],
			"mathematica": [
				"Select[Range[1000], PrimeQ[373*2^# + 1] \u0026] (* _Robert Price_, Jan 02 2019 *)"
			],
			"keyword": "nonn,more,hard",
			"offset": "1,1",
			"author": "_Robert Price_, Jan 02 2019",
			"references": 0,
			"revision": 6,
			"time": "2019-01-02T23:15:29-05:00",
			"created": "2019-01-02T23:15:29-05:00"
		}
	]
}