{
	"greeting": "Greetings from The On-Line Encyclopedia of Integer Sequences! http://oeis.org/",
	"query": "id:A323043",
	"count": 1,
	"start": 0,
	"results": [
		{
			"number": 323043,
			"data": "4,6,16,24,30,36,40,52,60,78,132,204,352,556,1936,4876,5278,6450,6546,9498,10878,13012,22356,24498,28768,29952,41050,46242,56874,61414,74148,81306,118090,134056,391200,598342,825972,1293028,2598796",
			"name": "Numbers k such that 397*2^k+1 is prime.",
			"link": [
				"Ray Ballinger, \u003ca href=\"http://www.prothsearch.com/index.html\"\u003eProth Search Page\u003c/a\u003e",
				"Ray Ballinger and Wilfrid Keller, \u003ca href=\"http://www.prothsearch.com/riesel1a.html\"\u003eList of primes k.2^n + 1 for 300 \u003c k \u003c 600\u003c/a\u003e",
				"Y. Gallot, \u003ca href=\"http://www.utm.edu/research/primes/programs/gallot/index.html\"\u003eProth.exe: Windows Program for Finding Large Primes\u003c/a\u003e",
				"Wilfrid Keller, \u003ca href=\"http://www.prothsearch.com/riesel2.html\"\u003eList of primes k.2^n - 1 for k \u003c 300\u003c/a\u003e",
				"Eric Weisstein's World of Mathematics, \u003ca href=\"http://mathworld.wolfram.com/ProthPrime.html\"\u003eProth Prime\u003c/a\u003e",
				"\u003ca href=\"/index/Pri#riesel\"\u003eIndex entries for sequences of n such that k*2^n-1 (or k*2^n+1) is prime\u003c/a\u003e"
			],
			"mathematica": [
				"Select[Range[1000], PrimeQ[397*2^# + 1] \u0026] (* _Robert Price_, Jan 03 2019 *)"
			],
			"keyword": "nonn,more,hard",
			"offset": "1,1",
			"author": "_Robert Price_, Jan 03 2019",
			"ext": [
				"a(39) from _Jeppe Stig Nielsen_, Jan 04 2020"
			],
			"references": 0,
			"revision": 8,
			"time": "2020-01-04T08:12:44-05:00",
			"created": "2019-01-03T13:27:58-05:00"
		}
	]
}