{
	"greeting": "Greetings from The On-Line Encyclopedia of Integer Sequences! http://oeis.org/",
	"query": "id:A323928",
	"count": 1,
	"start": 0,
	"results": [
		{
			"number": 323928,
			"data": "0,0,0,1,6,27,132,644,3165",
			"name": "Polycyclic aromatic hydrocarbons (for precise definition see He and He, 1986).",
			"link": [
				"Wenchen He and Wenjie He, \u003ca href=\"https://doi.org/10.1016/S0040-4020(01)82078-0\"\u003eGeneration and enumeration of planar polycyclic aromatic hydrocarbons\u003c/a\u003e, Tetrahedron 42.19 (1986): 5291-5299. See Table 1."
			],
			"xref": [
				"Cf. A003104, A323923-A323930."
			],
			"keyword": "nonn,more",
			"offset": "1,5",
			"author": "_N. J. A. Sloane_, Feb 09 2019",
			"references": 0,
			"revision": 8,
			"time": "2019-02-10T17:17:21-05:00",
			"created": "2019-02-09T17:53:49-05:00"
		}
	]
}