{
	"greeting": "Greetings from The On-Line Encyclopedia of Integer Sequences! http://oeis.org/",
	"query": "id:A323353",
	"count": 1,
	"start": 0,
	"results": [
		{
			"number": 323353,
			"data": "2,3,7,11,13,73,401,421,677,3673,4903,13147,24547",
			"name": "Numbers k such that A015525(k) is prime.",
			"program": [
				"(PARI) print1(2,\", \");anm2=1;anm1=3;for(n=3,1000,an=3*anm1+8*anm2;anm2=anm1;anm1=an;if(isprime(an),print1(n,\", \")))",
				"(Perl) use ntheory \":all\"; sub isok { is_prob_prime(lucasu(3, -8, $_[0])) }; for (1..700) { print \"$_\\n\" if isok($_) }; # _Daniel Suteu_, Jan 12 2019"
			],
			"xref": [
				"Cf. A015525, A323354."
			],
			"keyword": "nonn,more,hard",
			"offset": "1,1",
			"author": "_Hugo Pfoertner_, Jan 12 2019",
			"ext": [
				"a(13) from _Daniel Suteu_, Jan 12 2019"
			],
			"references": 1,
			"revision": 11,
			"time": "2019-01-13T03:24:41-05:00",
			"created": "2019-01-12T08:05:42-05:00"
		}
	]
}