{
	"greeting": "Greetings from The On-Line Encyclopedia of Integer Sequences! http://oeis.org/",
	"query": "id:A323302",
	"count": 1,
	"start": 0,
	"results": [
		{
			"number": 323302,
			"data": "1,1,1,2,1,0,1,2,2,0,1,0,1,0,0,3,1,0,1,0,0,0,1,0,2,0,2,0,1,0,1,2,0,0,0,2,1,0,0,0,1,0,1,0,0,0,1,0,2,0,0,0,1,0,0,0,0,0,1,0,1,0,0,4,0,0,1,0,0,0,1,0,1,0,0,0,0,0,1,0,3,0,1,0,0,0,0",
			"name": "Number of ways to arrange the parts of the integer partition with Heinz number n into a matrix with equal row-sums and equal column-sums.",
			"comment": [
				"The Heinz number of an integer partition (y_1, ..., y_k) is prime(y_1) * ... * prime(y_k)."
			],
			"example": [
				"The a(900) = 12 matrix-arrangements of (3,3,2,2,1,1):",
				"  [1 2 3] [1 3 2] [2 1 3] [2 3 1] [3 1 2] [3 2 1]",
				"  [3 2 1] [3 1 2] [2 3 1] [2 1 3] [1 3 2] [1 2 3]",
				".",
				"  [1 3] [1 3] [2 2] [2 2] [3 1] [3 1]",
				"  [2 2] [3 1] [1 3] [3 1] [1 3] [2 2]",
				"  [3 1] [2 2] [3 1] [1 3] [2 2] [1 3]"
			],
			"mathematica": [
				"primeMS[n_]:=If[n==1,{},Flatten[Cases[FactorInteger[n],{p_,k_}:\u003eTable[PrimePi[p],{k}]]]];",
				"facs[n_]:=If[n\u003c=1,{{}},Join@@Table[Map[Prepend[#,d]\u0026,Select[facs[n/d],Min@@#\u003e=d\u0026]],{d,Rest[Divisors[n]]}]];",
				"ptnmats[n_]:=Union@@Permutations/@Select[Union@@(Tuples[Permutations/@#]\u0026/@Map[primeMS,facs[n],{2}]),SameQ@@Length/@#\u0026];",
				"Table[Length[Select[ptnmats[n],And[SameQ@@Total/@#,SameQ@@Total/@Transpose[#]]\u0026]],{n,100}]"
			],
			"xref": [
				"Positions of zeros are a superset of A106543.",
				"Cf. A000005, A001222, A006052, A007016, A008480, A056239, A112798, A120733, A319056, A321719, A321721.",
				"Cf. A323300, A323303, A323305, A323306, A323347, A323349."
			],
			"keyword": "nonn",
			"offset": "1,4",
			"author": "_Gus Wiseman_, Jan 13 2019",
			"references": 6,
			"revision": 4,
			"time": "2019-01-13T08:50:28-05:00",
			"created": "2019-01-13T08:50:28-05:00"
		}
	]
}