{
	"greeting": "Greetings from The On-Line Encyclopedia of Integer Sequences! http://oeis.org/",
	"query": "id:A324496",
	"count": 1,
	"start": 0,
	"results": [
		{
			"number": 324496,
			"data": "0,0,0,0,0,0,0,0,2,2,1,2,1,1,1,0,1,1,1,1,1,1,2,1,1,1,2,1,2,2,2,0,2,2,3,2,3,3,4,2,3,3,4,3,4,4,1,2,3,3,4,3,4,4,1,3,4,4,1,4,1,1,1,0,0,0,3,0,3,3,4,0,3,3,4,3,4,4,11,0,3,3,4,3,4",
			"name": "Numerator of fractional part of average number of bit toggles to reach n as defined in A324495. The denominator is given in A324497.",
			"link": [
				"Hugo Pfoertner, \u003ca href=\"/A324496/b324496.txt\"\u003eTable of n, a(n) for n = 1..4096\u003c/a\u003e (first 511 terms from Rainer Rosenthal)"
			],
			"xref": [
				"Cf. A003149, A324495, A324497."
			],
			"keyword": "nonn,frac",
			"offset": "1,9",
			"author": "_Hugo Pfoertner_, Mar 05 2019",
			"ext": [
				"a(33)-a(64) from _Rainer Rosenthal_, Mar 07 2019",
				"More terms from _Rainer Rosenthal_, Mar 19 2019"
			],
			"references": 3,
			"revision": 25,
			"time": "2020-07-09T14:56:00-04:00",
			"created": "2019-03-06T08:35:30-05:00"
		}
	]
}