{
	"greeting": "Greetings from The On-Line Encyclopedia of Integer Sequences! http://oeis.org/",
	"query": "id:A324897",
	"count": 1,
	"start": 0,
	"results": [
		{
			"number": 324897,
			"data": "7425,76545,92565,236925,831105,954765,1401345,2011905,2048445,2129985,2253825,2445345,2621745,2974725,3283245,3847725,5709825,6447105,8422785,8503425,8945685,10781505,12488385,13470345,14322945,15213825,15340545,19470465,19502145,20075265,22749825,25740225,25756605,26215245,27009045",
			"name": "Odd numbers k such that A318458(k) (bitwise-AND of k and sigma(k)-k) is equal to k.",
			"comment": [
				"If this sequence has no common terms with A324647, or no terms common with A324727, then there are no odd perfect numbers.",
				"The first 16 terms factored:",
				"      7425 = 3^3 * 5^2 * 11,",
				"     76545 = 3^7 * 5 * 7,",
				"     92565 = 3^2 * 5 * 11^2 * 17,",
				"    236925 = 3^6 * 5^2 * 13,",
				"    831105 = 3^2 * 5 * 11 * 23 * 73,",
				"    954765 = 3^2 * 5 * 7^2 * 433,",
				"   1401345 = 3^2 * 5 * 11 * 19 * 149,",
				"   2011905 = 3^3 * 5 * 7 * 2129,",
				"   2048445 = 3^2 * 5 * 7^2 * 929,",
				"   2129985 = 3^2 * 5 * 11 * 13 * 331,",
				"   2253825 = 3^5 * 5^2 * 7 * 53,",
				"   2445345 = 3^2 * 5 * 7^2 * 1109,",
				"   2621745 = 3^2 * 5 * 7^2 * 29 * 41,",
				"   2974725 = 3^4 * 5^2 * 13 * 113,",
				"   3283245 = 3^2 * 5 * 7^2 * 1489,",
				"   3847725 = 3^2 * 5^2 * 7^2 * 349."
			],
			"link": [
				"Antti Karttunen, \u003ca href=\"/A324897/b324897.txt\"\u003eTable of n, a(n) for n = 1..611\u003c/a\u003e",
				"\u003ca href=\"/index/Bi#binary\"\u003eIndex entries for sequences related to binary expansion of n\u003c/a\u003e",
				"\u003ca href=\"/index/O#opnseqs\"\u003eIndex entries for sequences where any odd perfect numbers must occur\u003c/a\u003e",
				"\u003ca href=\"/index/Si#SIGMAN\"\u003eIndex entries for sequences related to sigma(n)\u003c/a\u003e"
			],
			"mathematica": [
				"Select[Range[1, 10^7, 2], BitAnd[#, DivisorSigma[1, #] - #] == # \u0026] (* _Michael De Vlieger_, Jun 22 2019, after _Vincenzo Librandi_ at A318458 *)"
			],
			"program": [
				"(PARI) isok(k) = (k%2) \u0026\u0026 (bitand(k, sigma(k)-k) == k); \\\\ _Michel Marcus_, Jul 18 2021"
			],
			"xref": [
				"Subsequence of A324649.",
				"Cf. A318458, A324647, A324898 (a subsequence)."
			],
			"keyword": "nonn",
			"offset": "1,1",
			"author": "_Antti Karttunen_, Apr 19 2019",
			"references": 4,
			"revision": 21,
			"time": "2021-07-18T07:13:12-04:00",
			"created": "2019-04-20T08:08:33-04:00"
		}
	]
}