{
	"greeting": "Greetings from The On-Line Encyclopedia of Integer Sequences! http://oeis.org/",
	"query": "id:A324392",
	"count": 1,
	"start": 0,
	"results": [
		{
			"number": 324392,
			"data": "1,2,1,3,1,4,1,4,1,4,1,6,1,2,1,5,1,6,1,6,3,2,1,8,1,2,1,3,1,6,1,6,2,4,1,9,1,2,2,8,1,8,1,3,1,2,1,10,1,4,1,3,1,6,2,4,2,2,1,12,1,2,3,7,1,8,1,6,2,4,1,12,1,2,2,3,1,6,1,10,2,2,1,12,1,2,1,4,1,8,1,6,1,2,1,12,1,2,2,6,1,6,1,4,4",
			"name": "a(n) is the number of divisors d of n such that A000120(d) divides n, where A000120(d) gives the binary weight of d.",
			"comment": [
				"Number of such positive integers k that both k and A000120(k) [the Hamming weight of k] divide n."
			],
			"link": [
				"Antti Karttunen, \u003ca href=\"/A324392/b324392.txt\"\u003eTable of n, a(n) for n = 1..65537\u003c/a\u003e",
				"\u003ca href=\"/index/Bi#binary\"\u003eIndex entries for sequences related to binary expansion of n\u003c/a\u003e"
			],
			"formula": [
				"a(n) = Sum_{d|n} [A000120(d) does divide n], where [ ] is the Iverson bracket.",
				"a(n) = A000005(n) - A324393(n).",
				"a(p) = 1 for all odd primes p."
			],
			"mathematica": [
				"a[n_] := DivisorSum[n, 1 \u0026, Divisible[n, DigitCount[#, 2, 1]] \u0026]; Array[a, 100] (* _Amiram Eldar_, Dec 04 2020 *)"
			],
			"program": [
				"(PARI) A324392(n) = sumdiv(n, d, !(n%hammingweight(d)));"
			],
			"xref": [
				"Cf. A000005, A000120, A324393.",
				"Cf. also A093653, A192895, A266342, A292257."
			],
			"keyword": "nonn,base",
			"offset": "1,2",
			"author": "_Antti Karttunen_, Mar 05 2019",
			"references": 2,
			"revision": 14,
			"time": "2020-12-04T09:22:06-05:00",
			"created": "2019-03-05T18:19:14-05:00"
		}
	]
}