{
	"greeting": "Greetings from The On-Line Encyclopedia of Integer Sequences! http://oeis.org/",
	"query": "id:A324436",
	"count": 1,
	"start": 0,
	"results": [
		{
			"number": 324436,
			"data": "1,0,0,0,0,0,0,0,0,0,1,199,26071,2076337,128036597,6885473559,341688260735,16496710343843,792460210118481,38341661821182976,1882679817632403839,94308395144305086977,4834964742446401521057,254210075409129027824513",
			"name": "Number of labeled cyclic chord diagrams with n chords such that every chord has length at least ten.",
			"link": [
				"Alois P. Heinz, \u003ca href=\"/A324436/b324436.txt\"\u003eTable of n, a(n) for n = 0..30\u003c/a\u003e"
			],
			"xref": [
				"Column k=10 of A324428."
			],
			"keyword": "nonn",
			"offset": "0,12",
			"author": "_Alois P. Heinz_, Feb 27 2019",
			"references": 4,
			"revision": 6,
			"time": "2019-02-28T12:16:21-05:00",
			"created": "2019-02-28T12:16:21-05:00"
		}
	]
}