{
	"greeting": "Greetings from The On-Line Encyclopedia of Integer Sequences! http://oeis.org/",
	"query": "id:A324485",
	"count": 1,
	"start": 0,
	"results": [
		{
			"number": 324485,
			"data": "1,0,5,6,24,40,120,250,640,1452,3600,8510,20880,50460,124024,303750,750120,1853120,4600200,11437548,28527320,71281800,178526880,447893250,1125750120,2833844040,7144449920,18036271740,45591631800,115381449692,292329067800,741410192250",
			"name": "a(n) = A324484(n)/n.",
			"link": [
				"Seiichi Manyama, \u003ca href=\"/A324485/b324485.txt\"\u003eTable of n, a(n) for n = 1..2000\u003c/a\u003e",
				"M. Baake, J. Hermisson, and P. Pleasants, \u003ca href=\"http://dx.doi.org/10.1088/0305-4470/30/9/016\"\u003eThe torus parametrization of quasiperiodic LI-classes\u003c/a\u003e, J. Phys. A 30 (1997), no. 9, 3029-3056. See Table 4."
			],
			"formula": [
				"From _Seiichi Manyama_, Apr 29 2021: (Start)",
				"a(n) = (1/n) * Sum_{d|n} mu(n/d) * A001350(d)^2 = (1/n) * Sum_{d|n} mu(n/d) * A152152(d).",
				"G.f.: Sum_{k\u003e=1} mu(k) * log(f(x^k))/k , where f(x) = ((1-x-x^2) * (1+x-x^2))^2/((1-3*x+x^2) * (1-x)^2 * (1+x)^4). (End)"
			],
			"program": [
				"(PARI) a001350(n) = fibonacci(n+1)+fibonacci(n-1)-1-(-1)^n;",
				"a(n) = sumdiv(n, d, moebius(n/d)*a001350(d)^2)/n; \\\\ _Seiichi Manyama_, Apr 29 2021",
				"(PARI) f(x) = ((1-x-x^2)*(1+x-x^2))^2/((1-3*x+x^2)*(1-x)^2*(1+x)^4);",
				"my(N=40, x='x+O('x^N)); Vec(sum(k=1, N, moebius(k)*log(f(x^k))/k)) \\\\ _Seiichi Manyama_, Apr 29 2021"
			],
			"xref": [
				"Cf. A001350, A060280, A152152, A324483, A324484, A324489."
			],
			"keyword": "nonn",
			"offset": "1,3",
			"author": "_N. J. A. Sloane_, Mar 12 2019",
			"ext": [
				"More terms from _Seiichi Manyama_, Apr 29 2021"
			],
			"references": 4,
			"revision": 28,
			"time": "2021-04-30T02:57:39-04:00",
			"created": "2019-03-12T22:18:24-04:00"
		}
	]
}