{
	"greeting": "Greetings from The On-Line Encyclopedia of Integer Sequences! http://oeis.org/",
	"query": "id:A324042",
	"count": 1,
	"start": 0,
	"results": [
		{
			"number": 324042,
			"data": "4,14,32,70,124,226,360,566,820,1218,1696,2310,3020,4018,5160,6590,8196,10218,12464,15110,18012,21650,25624,30142,35028,40954,47344,54558,62284,71034,80360,90806,101892,114770,128416,143286,158972,176914,195816,216350,237908,261546,286304,313102,341100",
			"name": "Number of triangular regions into which a figure made up of a row of n adjacent congruent rectangles is divided upon drawing diagonals of all possible rectangles.",
			"comment": [
				"A row of n adjacent congruent rectangles can only be divided into triangles or quadrilaterals when drawing diagonals. A proof is given in Alekseyev et al. (2015) using the mapping to a dissection of a a right isosceles triangle described in A306302."
			],
			"link": [
				"Chai Wah Wu, \u003ca href=\"/A324042/b324042.txt\"\u003eTable of n, a(n) for n = 1..10000\u003c/a\u003e",
				"M. A. Alekseyev, M. Basova, and N. Yu. Zolotykh. \u003ca href=\"https://doi.org/10.1137/140978090\"\u003eOn the minimal teaching sets of two-dimensional threshold functions\u003c/a\u003e. SIAM Journal on Discrete Mathematics 29:1 (2015), 157-165.",
				"Lars Blomberg, Scott R. Shannon, and N. J. A. Sloane, \u003ca href=\"http://neilsloane.com/doc/rose_5.pdf\"\u003eGraphical Enumeration and Stained Glass Windows, 1: Rectangular Grids\u003c/a\u003e, (2021). Also arXiv:2009.07918.",
				"Robert Israel, \u003ca href=\"/A324042/a324042.txt\"\u003eMaple program\u003c/a\u003e",
				"Jinyuan Wang, \u003ca href=\"/A324042/a324042.png\"\u003eIllustration for n = 1, 2, 3, 4, 5\u003c/a\u003e"
			],
			"formula": [
				"a(n) = A177719(n+1) + 2*(n+1) = 2 * ( (n+1)*n + Sum_{i,j=1..n; gcd(i,j)=2} (n+1-i)*(n+1-j) ). - _Max Alekseyev_, Jul 08 2019",
				"a(n) = A306302(n) - A324043(n).",
				"a(n) = 2*(2*n^2-n+1+2*Sum_{i=2..floor(n/2)} (n+1-2*i)*(n+1-i)*phi(i)). - _Chai Wah Wu_, Aug 16 2021"
			],
			"example": [
				"For k adjacent congruent rectangles, the number of triangular regions in the j-th rectangle is:",
				"k\\j|  1   2   3   4   5   6   7  ...",
				"---+--------------------------------",
				"1  |  4,  0,  0,  0,  0,  0,  0, ...",
				"2  |  7,  7,  0,  0,  0,  0,  0, ...",
				"3  |  9, 14,  9,  0,  0,  0,  0, ...",
				"4  | 11, 24, 24, 11,  0,  0,  0, ...",
				"5  | 13, 30, 38, 30, 13,  0,  0, ...",
				"6  | 15, 38, 60, 60, 38, 15,  0, ...",
				"7  | 17, 44, 76, 86, 76, 44, 17, ...",
				"...",
				"a(4) = 11 + 24 + 24 + 11 = 70."
			],
			"maple": [
				"V := proc(m,n,q) local a,i,j; a:=0;",
				"for i from 1 to m do for j from 1 to n do",
				"if gcd(i,j)=q then a:=a+(m+1-i)*(n+1-j); fi; od: od: a; end;",
				"a := n -\u003e 2*( n*(n+1) + V(n,n,2) );",
				"[seq(a(n), n=1..30)]; # _N. J. A. Sloane_, Mar 04 2020",
				"See also Robert Israel link."
			],
			"mathematica": [
				"Table[2 * (n^2 + n + Sum[Sum[Boole[GCD[i, j] == 2] * (n + 1 - i) * (n + 1 - j), {j, 1, n}], {i, 1, n}]), {n, 1, 45}]  (* _Joshua Oliver_, Feb 05 2020 *)"
			],
			"program": [
				"(PARI) { A324042(n) = 2*((n+1)*n + sum(i=1, n, sum(j=1, n, (gcd(i, j)==2)*(n+1-i)*(n+1-j))) ); } \\\\ _Max Alekseyev_, Jul 08 2019",
				"(Python)",
				"from sympy import totient",
				"def A324042(n): return 2*(2*n**2-n+1 + 2*sum(totient(i)*(n+1-2*i)*(n+1-i) for i in range(2,n//2+1))) # _Chai Wah Wu_, Aug 16 2021"
			],
			"xref": [
				"Cf. A177719, A306302, A324043, A333286, A333287, A333288."
			],
			"keyword": "nonn",
			"offset": "1,1",
			"author": "_Jinyuan Wang_, May 01 2019",
			"ext": [
				"a(8)-a(23) from _Robert Israel_, Jul 07 2019",
				"Terms a(24) onward from _Max Alekseyev_, Jul 08 2019"
			],
			"references": 9,
			"revision": 57,
			"time": "2021-08-16T13:47:05-04:00",
			"created": "2019-07-08T03:59:43-04:00"
		}
	]
}