{
	"greeting": "Greetings from The On-Line Encyclopedia of Integer Sequences! http://oeis.org/",
	"query": "id:A324764",
	"count": 1,
	"start": 0,
	"results": [
		{
			"number": 324764,
			"data": "1,1,1,1,3,4,9,20,41,89,196,443,987,2246,5114,11757,27122,62898,146392,342204,802429,1887882",
			"name": "Number of anti-transitive rooted identity trees with n nodes.",
			"comment": [
				"A rooted identity tree is an unlabeled rooted tree with no repeated branches directly under the same root. It is anti-transitive if the branches of the branches of the root are disjoint from the branches of the root.",
				"Also the number of finitary sets S with n brackets where no element of an element of S is also an element of S. For example, the a(8) = 20 finitary sets are (o = {}):",
				"  {{{{{{{o}}}}}}}",
				"  {{{{{o,{o}}}}}}",
				"  {{{{o,{{o}}}}}}",
				"  {{{o,{{{o}}}}}}",
				"  {{{o,{o,{o}}}}}",
				"  {{{{o},{{o}}}}}",
				"  {{o,{{{{o}}}}}}",
				"  {{o,{{o,{o}}}}}",
				"  {{o,{o,{{o}}}}}",
				"  {{{o},{{{o}}}}}",
				"  {{{o},{o,{o}}}}",
				"  {{o,{o},{{o}}}}",
				"  {o,{{{{{o}}}}}}",
				"  {o,{{{o,{o}}}}}",
				"  {o,{{o,{{o}}}}}",
				"  {o,{{o},{{o}}}}",
				"  {{o},{{{{o}}}}}",
				"  {{o},{{o,{o}}}}",
				"  {{o},{o,{{o}}}}",
				"  {{{o}},{o,{o}}}"
			],
			"link": [
				"Gus Wiseman, \u003ca href=\"/A324764/a324764.png\"\u003eThe a(9) = 41 anti-transitive rooted identity trees\u003c/a\u003e."
			],
			"example": [
				"The a(1) = 1 through a(7) = 9 anti-transitive rooted identity trees:",
				"  o  (o)  ((o))  (((o)))  ((o(o)))   (((o(o))))   ((o(o(o))))",
				"                          (o((o)))   ((o((o))))   (o((o(o))))",
				"                          ((((o))))  (o(((o))))   ((((o(o)))))",
				"                                     (((((o)))))  (((o)((o))))",
				"                                                  (((o((o)))))",
				"                                                  ((o)(((o))))",
				"                                                  ((o(((o)))))",
				"                                                  (o((((o)))))",
				"                                                  ((((((o))))))"
			],
			"mathematica": [
				"idall[n_]:=If[n==1,{{}},Select[Union[Sort/@Join@@(Tuples[idall/@#]\u0026/@IntegerPartitions[n-1])],UnsameQ@@#\u0026]];",
				"Table[Length[Select[idall[n],Intersection[Union@@#,#]=={}\u0026]],{n,10}]"
			],
			"xref": [
				"Cf. A000081, A004111, A276625, A279861, A290689, A304360, A306844 (non-identity version), A316500, A317787, A318185.",
				"Cf. A324694, A324751, A324756, A324758, A324765, A324767, A324768, A324770, A324839, A324840, A324844."
			],
			"keyword": "nonn,more",
			"offset": "1,5",
			"author": "_Gus Wiseman_, Mar 17 2019",
			"ext": [
				"a(21)-a(22) from _Jinyuan Wang_, Jun 20 2020"
			],
			"references": 17,
			"revision": 11,
			"time": "2020-06-20T02:04:59-04:00",
			"created": "2019-03-18T08:15:02-04:00"
		}
	]
}