{
	"greeting": "Greetings from The On-Line Encyclopedia of Integer Sequences! http://oeis.org/",
	"query": "id:A324205",
	"count": 1,
	"start": 0,
	"results": [
		{
			"number": 324205,
			"data": "1,8,57,616,7465,117636,2054451,42912896,987654564,25915636800,736867916290,23297940244152,789024560946557,29174313555611252,1147797409031506920,48649494479090875520,2178349008754768757872,104127216885225393371514",
			"name": "The largest zeroless polydivisible number in base n (written in base 10).",
			"link": [
				"Wikipedia, \u003ca href=\"https://en.wikipedia.org/wiki/Polydivisible_number\"\u003ePolydivisible number\u003c/a\u003e"
			],
			"formula": [
				"a(n) is A324020(n)-th zeroless polydivisible number in base n (written in base 10)."
			],
			"example": [
				"a(3) = (22)_3 = 8.",
				"a(4) = (321)_4 = 57.",
				"a(5) = (4431)_5 = 616.",
				"a(6) = (54321)_6 = 7465.",
				"a(7) = (666651)_7 = 117636.",
				"a(8) = (7654463)_8 = 2054451.",
				"a(9) = (88665375)_9 = 42912896.",
				"a(10) = 987654564.",
				"a(11) = (AA99779559)_11 = 25915636800.",
				"a(12) = (BA9876A836A)_12 = 736867916290."
			],
			"xref": [
				"Cf. A109032, A324019, A324020."
			],
			"keyword": "nonn,base",
			"offset": "2,2",
			"author": "_Seiichi Manyama_, Sep 02 2019",
			"references": 2,
			"revision": 22,
			"time": "2019-09-03T09:59:28-04:00",
			"created": "2019-09-03T09:59:28-04:00"
		}
	]
}