{
	"greeting": "Greetings from The On-Line Encyclopedia of Integer Sequences! http://oeis.org/",
	"query": "id:A324172",
	"count": 1,
	"start": 0,
	"results": [
		{
			"number": 324172,
			"data": "0,0,0,0,2,10,32,84,198,438,932,1936,3962,8034,16200,32556,65294,130798,261836,523944,1048194,2096730,4193840,8388100,16776662,33553830,67108212,134217024,268434698,536870098,1073740952,2147482716,4294966302,8589933534,17179868060",
			"name": "Number of subsets of {1,...,n} that cross their complement.",
			"comment": [
				"Two sets cross each other if they are of the form {{...x...y...}, {...z...t...}} where x \u003c z \u003c y \u003c t or z \u003c x \u003c t \u003c y."
			],
			"link": [
				"Colin Barker, \u003ca href=\"/A324172/b324172.txt\"\u003eTable of n, a(n) for n = 0..1000\u003c/a\u003e",
				"\u003ca href=\"/index/Rec#order_04\"\u003eIndex entries for linear recurrences with constant coefficients\u003c/a\u003e, signature (5,-9,7,-2)."
			],
			"formula": [
				"a(0) = 0; a(n) = 2^n - n^2 + n - 2.",
				"a(n) = 2*A002662(n-1) for n \u003e 0.",
				"G.f.: 2*x^4/((1-2*x)*(1-x)^3).",
				"a(n) = 5*a(n-1) - 9*a(n-2) + 7*a(n-3) - 2*a(n-4) for n\u003e4. - _Colin Barker_, Feb 18 2019"
			],
			"example": [
				"The a(5) = 10 subsets are {1,3}, {1,4}, {2,4}, {2,5}, {3,5}, {1,2,4}, {1,3,4}, {1,3,5}, {2,3,5}, {2,4,5}."
			],
			"mathematica": [
				"croXQ[stn_]:=MatchQ[stn,{___,{___,x_,___,y_,___},___,{___,z_,___,t_,___},___}/;x\u003cz\u003cy\u003ct||z\u003cx\u003ct\u003cy];",
				"Table[Length[Select[Subsets[Range[n]],croXQ[{#,Complement[Range[n],#]}]\u0026]],{n,0,10}]"
			],
			"program": [
				"(PARI) concat([0,0,0,0], Vec(2*x^4 / ((1 - x)^3*(1 - 2*x)) + O(x^40))) \\\\ _Colin Barker_, Feb 19 2019"
			],
			"xref": [
				"Cf. A000108, A000110, A000124, A001263, A002061, A002662, A016098, A306438.",
				"Cf. A324166, A324167, A324168, A324169, A324173."
			],
			"keyword": "nonn,easy",
			"offset": "0,5",
			"author": "_Gus Wiseman_, Feb 17 2019",
			"references": 17,
			"revision": 18,
			"time": "2019-02-19T09:20:27-05:00",
			"created": "2019-02-18T12:06:20-05:00"
		}
	]
}