{
	"greeting": "Greetings from The On-Line Encyclopedia of Integer Sequences! http://oeis.org/",
	"query": "id:A324842",
	"count": 1,
	"start": 0,
	"results": [
		{
			"number": 324842,
			"data": "1,2,4,6,8,12,16,18,24,28,32,36,48,54,56,64,72,78,84,96,108,112,128,144,152,156,162,168,192,196,216,224,234,252,256,288,304,312,324,336,384,392,432,444,448,456,468,486,504,512,576,588,608,624,648,672,702",
			"name": "Matula-Goebel numbers of rooted trees where the branches of any branch of any terminal subtree form a submultiset of the branches of the same subtree.",
			"example": [
				"The sequence of rooted trees together with their Matula-Goebel numbers begins:",
				"   1: o",
				"   2: (o)",
				"   4: (oo)",
				"   6: (o(o))",
				"   8: (ooo)",
				"  12: (oo(o))",
				"  16: (oooo)",
				"  18: (o(o)(o))",
				"  24: (ooo(o))",
				"  28: (oo(oo))",
				"  32: (ooooo)",
				"  36: (oo(o)(o))",
				"  48: (oooo(o))",
				"  54: (o(o)(o)(o))",
				"  56: (ooo(oo))",
				"  64: (oooooo)",
				"  72: (ooo(o)(o))",
				"  78: (o(o)(o(o)))",
				"  84: (oo(o)(oo))",
				"  96: (ooooo(o))"
			],
			"mathematica": [
				"primeMS[n_]:=If[n==1,{},Flatten[Cases[FactorInteger[n],{p_,k_}:\u003eTable[PrimePi[p],{k}]]]];",
				"qaQ[n_]:=And[And@@Table[Divisible[n,x],{x,primeMS[n]}],And@@qaQ/@primeMS[n]];",
				"Select[Range[1000],qaQ]"
			],
			"xref": [
				"A subsequence of A120383.",
				"Cf. A000081, A007097, A112798, A279861, A290689, A290760, A290822, A318186.",
				"Cf. A324704, A324736, A324748, A324753, A324843, A324847, A324848, A324854."
			],
			"keyword": "nonn",
			"offset": "1,2",
			"author": "_Gus Wiseman_, Mar 18 2019",
			"references": 2,
			"revision": 5,
			"time": "2019-03-19T07:14:52-04:00",
			"created": "2019-03-19T07:14:52-04:00"
		}
	]
}