{
	"greeting": "Greetings from The On-Line Encyclopedia of Integer Sequences! http://oeis.org/",
	"query": "id:A324426",
	"count": 1,
	"start": 0,
	"results": [
		{
			"number": 324426,
			"data": "2,2592,134425267200,3120795915109442519040000,180825857777547616919759624941086965760000000,99356698720512072045648926659510730227553351200000695922065408000000000",
			"name": "a(n) = Product_{i=1..n, j=1..n} (i^3 + j^3).",
			"formula": [
				"a(n) ~ A * 2^(2*n*(n+1) + 1/4) * exp(Pi*(n*(n+1) + 1/6)/sqrt(3) - 9*n^2/2 - 1/12) * n^(3*n^2 - 3/4) / (3^(5/6) * Pi^(1/6) * Gamma(2/3)^2), where A is the Glaisher-Kinkelin constant A074962."
			],
			"mathematica": [
				"Table[Product[i^3+j^3, {i, 1, n}, {j, 1, n}], {n, 1, 10}]"
			],
			"program": [
				"(PARI) a(n) = prod(i=1, n, prod(j=1, n, i^3+j^3)); \\\\ _Michel Marcus_, Feb 27 2019"
			],
			"xref": [
				"Cf. A079478, A307210, A324403, A324437, A324438, A324439, A324440."
			],
			"keyword": "nonn",
			"offset": "1,1",
			"author": "_Vaclav Kotesovec_, Feb 27 2019",
			"references": 7,
			"revision": 13,
			"time": "2019-03-28T18:20:09-04:00",
			"created": "2019-02-27T10:56:50-05:00"
		}
	]
}