{
	"greeting": "Greetings from The On-Line Encyclopedia of Integer Sequences! http://oeis.org/",
	"query": "id:A324169",
	"count": 1,
	"start": 0,
	"results": [
		{
			"number": 324169,
			"data": "1,0,1,4,25,176,1353,11012,93329,815104,7285489,66324644,612863337,5733381616,54195878137,516852285668,4966883732129,48049936644736,467566946973537,4573486005681092,44942852084894777,443484037981300144,4392621673072766505",
			"name": "Number of labeled graphs covering the vertex set {1,...,n} with no crossing edges.",
			"comment": [
				"Two edges {x,y}, {z,t} are crossing if either x \u003c z \u003c y \u003c t or z \u003c x \u003c t \u003c y. If the vertices are arranged in a circle, this is equivalent to crossing of chords.",
				"Covering means there are no isolated vertices."
			],
			"link": [
				"Gus Wiseman, \u003ca href=\"/A324169/a324169.png\"\u003eThe a(4) = 25 graphs covering {1,2,3,4} with no crossing edges.\u003c/a\u003e",
				"Gus Wiseman, \u003ca href=\"/A324169/a324169_1.png\"\u003eThe a(5) = 176 graphs covering 5 vertices with no crossing edges, radial embedding.\u003c/a\u003e"
			],
			"formula": [
				"Inverse binomial transform of A054726."
			],
			"mathematica": [
				"nn=8;",
				"croXQ[stn_]:=MatchQ[stn,{___,{___,x_,___,y_,___},___,{___,z_,___,t_,___},___}/;x\u003cz\u003cy\u003ct||z\u003cx\u003ct\u003cy];",
				"stableSets[u_,Q_]:=If[Length[u]===0,{{}},With[{w=First[u]},Join[stableSets[DeleteCases[u,w],Q],Prepend[#,w]\u0026/@stableSets[DeleteCases[u,r_/;r===w||Q[r,w]||Q[w,r]],Q]]]];",
				"Table[Length[Select[stableSets[Subsets[Range[n],{2}],croXQ[{#1,#2}]\u0026],Union@@#==Range[n]\u0026]],{n,0,nn}]"
			],
			"xref": [
				"Cf. A000108, A000124, A001006, A001764, A003465, A007297 (connected case), A016098, A054726 (non-crossing graphs), A099947, A306438.",
				"Cf. A324167, A324171, A324173."
			],
			"keyword": "nonn",
			"offset": "0,4",
			"author": "_Gus Wiseman_, Feb 17 2019",
			"references": 25,
			"revision": 6,
			"time": "2019-02-19T00:07:59-05:00",
			"created": "2019-02-19T00:07:59-05:00"
		}
	]
}