{
	"greeting": "Greetings from The On-Line Encyclopedia of Integer Sequences! http://oeis.org/",
	"query": "id:A324887",
	"count": 1,
	"start": 0,
	"results": [
		{
			"number": 324887,
			"data": "2,6,30,36,210,300,2310,120,1260,2940,30030,15000,510510,50820,21176820,3600,9699690,88200,223092870,288120,2232166860,780780,6469693230,42000,645668100,17357340,11880,12298440,200560490130,66555720,7420738134810,672,66899572740,368588220,228227900600700,216090000,304250263527210",
			"name": "a(n) = A108951(n) * A276086(A108951(n)).",
			"link": [
				"Antti Karttunen, \u003ca href=\"/A324887/b324887.txt\"\u003eTable of n, a(n) for n = 1..210\u003c/a\u003e",
				"\u003ca href=\"/index/Pri#prime_indices\"\u003eIndex entries for sequences computed from indices in prime factorization\u003c/a\u003e",
				"\u003ca href=\"/index/Pri#primorialbase\"\u003eIndex entries for sequences related to primorial base\u003c/a\u003e",
				"\u003ca href=\"/index/Pri#primorial_numbers\"\u003eIndex entries for sequences related to primorial numbers\u003c/a\u003e"
			],
			"formula": [
				"a(n) = A324580(A108951(n)) = A108951(n) * A324886(n)."
			],
			"program": [
				"(PARI)",
				"A034386(n) = prod(i=1, primepi(n), prime(i));",
				"A108951(n) = { my(f=factor(n)); prod(i=1, #f~, A034386(f[i, 1])^f[i, 2]) };  \\\\ From A108951",
				"A276086(n) = { my(i=0,m=1,pr=1,nextpr); while((n\u003e0),i=i+1; nextpr = prime(i)*pr; if((n%nextpr),m*=(prime(i)^((n%nextpr)/pr));n-=(n%nextpr));pr=nextpr); m; };",
				"A324886(n) = A276086(A108951(n));",
				"A324887(n) = (A324886(n)*A108951(n));"
			],
			"xref": [
				"Cf. A034386, A108951, A276086, A324580, A324886, A324888.",
				"Permutation of A324577."
			],
			"keyword": "nonn",
			"offset": "1,1",
			"author": "_Antti Karttunen_, Mar 30 2019",
			"references": 3,
			"revision": 5,
			"time": "2019-03-31T00:17:39-04:00",
			"created": "2019-03-31T00:17:39-04:00"
		}
	]
}