{
	"greeting": "Greetings from The On-Line Encyclopedia of Integer Sequences! http://oeis.org/",
	"query": "id:A324191",
	"count": 1,
	"start": 0,
	"results": [
		{
			"number": 324191,
			"data": "1,1,1,1,1,2,1,1,1,2,1,3,1,2,2,1,1,3,1,2,2,2,1,4,1,2,1,2,1,5,1,1,2,2,2,5,1,2,2,3,1,5,1,2,3,2,1,5,1,3,2,2,1,4,2,2,2,2,1,8,1,2,2,1,2,5,1,2,2,5,1,7,1,2,3,2,2,5,1,4,1,2,1,7,2,2,2,2,1,8,2,2,2,2,2,6,1,3,2,4,1,5,1,2,5",
			"name": "Number of divisors of n minus the number of distinct values that A297167 obtains over the divisors \u003e 1 of n: a(n) = A000005(n) - A324190(n).",
			"comment": [
				"a(p^k) = 1 for all primes p and all exponents k \u003e= 0, because with prime powers there are k divisors larger than 1 and A297167 obtains a distinct value for each one of them."
			],
			"link": [
				"Antti Karttunen, \u003ca href=\"/A324191/b324191.txt\"\u003eTable of n, a(n) for n = 1..65537\u003c/a\u003e",
				"\u003ca href=\"/index/Pri#prime_indices\"\u003eIndex entries for sequences computed from indices in prime factorization\u003c/a\u003e"
			],
			"formula": [
				"a(n) = A000005(n) - A324190(n)."
			],
			"program": [
				"(PARI)",
				"A061395(n) = if(1==n, 0, primepi(vecmax(factor(n)[, 1])));",
				"A297167(n) = if(1==n, 0, (A061395(n) + (bigomega(n)-omega(n)) - 1));",
				"A324190(n) = #Set(apply(A297167, select(d -\u003e d\u003e1,divisors(n))));",
				"A324191(n) = (numdiv(n)-A324190(n));"
			],
			"xref": [
				"Cf. A000005, A001221, A001222, A046660, A061395, A297167, A324120, A324179, A324120, A324190, A324192.",
				"Cf. A000961 (positions of ones)."
			],
			"keyword": "nonn",
			"offset": "1,6",
			"author": "_Antti Karttunen_, Feb 19 2019",
			"references": 7,
			"revision": 13,
			"time": "2019-02-19T18:20:20-05:00",
			"created": "2019-02-19T18:20:20-05:00"
		}
	]
}