{
	"greeting": "Greetings from The On-Line Encyclopedia of Integer Sequences! http://oeis.org/",
	"query": "id:A324779",
	"count": 1,
	"start": 0,
	"results": [
		{
			"number": 324779,
			"data": "0,3,5,4,13,9,10,22,15,17,20,23,18,28,45,43,29,30,57,35,32,42,40,38,39,78,77,82,46,90,56,61,55,53,60,62,58,65,114,64,72,71,74,75,130,143,91,83,80,70,81,86,163,99,171,105,103,173,178,181,104,100,190",
			"name": "South-West spoke of spiral in A274641.",
			"link": [
				"F. Michel Dekking, Jeffrey Shallit, and N. J. A. Sloane, \u003ca href=\"https://www.combinatorics.org/ojs/index.php/eljc/article/view/v27i1p52/8039\"\u003eQueens in exile: non-attacking queens on infinite chess boards\u003c/a\u003e, Electronic J. Combin., 27:1 (2020), #P1.52."
			],
			"xref": [
				"Cf. A274640, A274641.",
				"The 8 spokes are A324774-A324781. To get them, subtract 1 from A274924-A274931, respectively."
			],
			"keyword": "nonn",
			"offset": "0,2",
			"author": "_N. J. A. Sloane_, Jul 05 2019",
			"references": 0,
			"revision": 7,
			"time": "2020-03-07T13:50:20-05:00",
			"created": "2019-07-05T17:32:52-04:00"
		}
	]
}