{
	"greeting": "Greetings from The On-Line Encyclopedia of Integer Sequences! http://oeis.org/",
	"query": "id:A324314",
	"count": 1,
	"start": 0,
	"results": [
		{
			"number": 324314,
			"data": "4,35,402,5334,77472,1197459,19371000,324457562,5585968752,98334394470,1763204413488,32108212934100,592453862089920,11056844466818451,208406532039094530,3962553996669046002,75926241110870890200,1464873759398352892050,28437685246012526646228,555153133514289017625900",
			"name": "Expansion of the generating function of quartic rooted planar Eulerian orientations, counted by vertices.",
			"link": [
				"Mireille Bousquet-Mélou, Andrew Elvey Price, Andrew Price, \u003ca href=\"https://arxiv.org/abs/1803.08265\"\u003eThe generating function of planar Eulerian orientations\u003c/a\u003e, arXiv:1803.08265 [math.CO], 2018.",
				"Mireille Bousquet-Mélou, Andrew Elvey Price, Paul Zinn-Justin, \u003ca href=\"https://arxiv.org/abs/1902.07369\"\u003eEulerian orientations and the six-vertex model on planar map\u003c/a\u003e, arXiv:1902.07369 [math.CO], 2019. See Theorem 2."
			],
			"formula": [
				"G.f.: (1/(3t^2))*(t-3t^2-R(t)) where R(t) is A324313."
			],
			"program": [
				"(PARI) lista(nn) = {nn += 2; my(v = vector(nn), R, P, c, r, s); kill(y); for (n=1, nn, v[n] = y; R = sum(k=1, n, v[k]*t^k); P = sum(k=0, n, binomial(2*k,k)*binomial(3*k,k)/(k+1)*R^(k+1)); c = polcoef(P, n, t); r = polcoef(c, 0, y); s = polcoef(c, 1, y); if (n==1, v[n] = (1-r)/s, v[n] = -r/s);); R = sum(k=1, #v, v[k]*t^k); vector(nn-2, k, polcoef((t - 3*t^2 - R)/(3*t^2), k, t));}"
			],
			"xref": [
				"Cf. A324311, A324312, A324313."
			],
			"keyword": "nonn",
			"offset": "1,1",
			"author": "_Michel Marcus_, Feb 21 2019",
			"references": 3,
			"revision": 7,
			"time": "2019-02-22T06:03:52-05:00",
			"created": "2019-02-22T06:03:52-05:00"
		}
	]
}