{
	"greeting": "Greetings from The On-Line Encyclopedia of Integer Sequences! http://oeis.org/",
	"query": "id:A324271",
	"count": 1,
	"start": 0,
	"results": [
		{
			"number": 324271,
			"data": "181,54820394293197793,16603732764981619615170330497629,5028857331023091670255052219467889871886268137,1523115700170851818946635098990437850680396062232555484942661,461313830041580805547042416276650834293620917849684448198307537920811805233,139720475446324270671242216643939258928764157180440338773843068067157129372210783782659949",
			"name": "a(n) = 181*13^(13*n).",
			"comment": [
				"x = a(n) and y = A324272(n) satisfy the Lebesgue-Ramanujan-Nagell equation x^2 + 7^(26*n+1) = 4*y^13 (see Theorem 2.1 in Chakraborty, Hoque and Sharma)."
			],
			"link": [
				"K. Chakraborty, A. Hoque, R. Sharma, \u003ca href=\"https://arxiv.org/abs/1812.11874\"\u003eComplete solutions of certain Lebesgue-Ramanujan-Nagell type equations\u003c/a\u003e, arXiv:1812.11874 [math.NT], 2018.",
				"\u003ca href=\"/index/Rec#order_01\"\u003eIndex entries for linear recurrences with constant coefficients\u003c/a\u003e, signature (302875106592253)."
			],
			"formula": [
				"O.g.f.: 181/(1 - 302875106592253*x).",
				"E.g.f.: 181*exp(302875106592253*x).",
				"a(n) = 302875106592253*a(n-1) for n \u003e 0.",
				"a(n) = 181*302875106592253^n.",
				"a(n) = 181*A010801(A001022(n))."
			],
			"example": [
				"For a(0) = 181 and A324272(0) = 2, 181^2 + 7 = 32768 = 4*2^13."
			],
			"maple": [
				"a:=n-\u003e181*302875106592253^n: seq(a(n), n=0..20);"
			],
			"mathematica": [
				"181 302875106592253^Range[0, 20]"
			],
			"program": [
				"(GAP) List([0..20], n-\u003e181*302875106592253^n);",
				"(MAGMA) [181*302875106592253^n: n in [0..20]];",
				"(PARI) a(n) = 181*302875106592253^n;"
			],
			"xref": [
				"Cf. A324272: 2*13^(2*n); A010801: n^13; A001022: 13^n."
			],
			"keyword": "nonn,easy",
			"offset": "0,1",
			"author": "_Stefano Spezia_, Mar 28 2019",
			"references": 1,
			"revision": 8,
			"time": "2019-04-24T04:45:03-04:00",
			"created": "2019-04-24T04:45:03-04:00"
		}
	]
}