{
	"greeting": "Greetings from The On-Line Encyclopedia of Integer Sequences! http://oeis.org/",
	"query": "id:A325196",
	"count": 1,
	"start": 0,
	"results": [
		{
			"number": 325196,
			"data": "3,4,9,10,12,15,18,20,42,45,50,60,63,70,75,84,90,100,105,126,140,150,294,315,330,350,420,441,462,490,495,525,550,588,630,660,693,700,735,770,825,882,924,980,990,1050,1100,1155,1386,1470,1540,1650,2730,3234",
			"name": "Heinz numbers of integer partitions such that the difference between the length of the minimal triangular partition containing and the maximal triangular partition contained in the Young diagram is 1.",
			"comment": [
				"The enumeration of these partitions by sum is given by A325191."
			],
			"link": [
				"Gus Wiseman, \u003ca href=\"/A325196/a325196.png\"\u003eYoung diagrams for their first 60 terms\u003c/a\u003e.",
				"FindStat, \u003ca href=\"http://www.findstat.org/StatisticsDatabase/St000783\"\u003eSt000783: The maximal number of occurrences of a colour in a proper colouring of a Ferrers diagram\u003c/a\u003e",
				"FindStat, \u003ca href=\"http://www.findstat.org/StatisticsDatabase/St000384\"\u003eSt000384: The maximal part of the shifted composition of an integer partition\u003c/a\u003e."
			],
			"example": [
				"The sequence of terms together with their prime indices begins:",
				"    3: {2}",
				"    4: {1,1}",
				"    9: {2,2}",
				"   10: {1,3}",
				"   12: {1,1,2}",
				"   15: {2,3}",
				"   18: {1,2,2}",
				"   20: {1,1,3}",
				"   42: {1,2,4}",
				"   45: {2,2,3}",
				"   50: {1,3,3}",
				"   60: {1,1,2,3}",
				"   63: {2,2,4}",
				"   70: {1,3,4}",
				"   75: {2,3,3}",
				"   84: {1,1,2,4}",
				"   90: {1,2,2,3}",
				"  100: {1,1,3,3}",
				"  105: {2,3,4}",
				"  126: {1,2,2,4}"
			],
			"mathematica": [
				"primeptn[n_]:=If[n==1,{},Reverse[Flatten[Cases[FactorInteger[n],{p_,k_}:\u003eTable[PrimePi[p],{k}]]]]];",
				"otb[ptn_]:=Min@@MapIndexed[#1+#2[[1]]-1\u0026,Append[ptn,0]];",
				"otbmax[ptn_]:=Max@@MapIndexed[#1+#2[[1]]-1\u0026,Append[ptn,0]];",
				"Select[Range[1000],otbmax[primeptn[#]]-otb[primeptn[#]]==1\u0026]"
			],
			"xref": [
				"Cf. A060687, A065770, A256617, A325166, A325169, A325179, A325181, A325183, A325185, A325188, A325189, A325191, A325195, A325200."
			],
			"keyword": "nonn",
			"offset": "1,1",
			"author": "_Gus Wiseman_, Apr 11 2019",
			"references": 9,
			"revision": 12,
			"time": "2019-04-24T10:11:27-04:00",
			"created": "2019-04-11T21:00:17-04:00"
		}
	]
}