{
	"greeting": "Greetings from The On-Line Encyclopedia of Integer Sequences! http://oeis.org/",
	"query": "id:A325709",
	"count": 1,
	"start": 0,
	"results": [
		{
			"number": 325709,
			"data": "1,2,3,4,13,6,89,8,9,26,659,12,5443,178,39,16,49033,18,484037,52,267,1318,5222429,24,169,10886,27,356,61194647,78,774825383,32,1977,98066,1157,36,10552185239,968074,16329,104,153903050137,534,2394322471421,2636,117",
			"name": "Replace k with k! in the prime indices of n.",
			"comment": [
				"The union is A308299."
			],
			"link": [
				"\u003ca href=\"/index/Pri#prime_indices\"\u003eIndex entries for sequences computed from indices in prime factorization\u003c/a\u003e"
			],
			"formula": [
				"Completely multiplicative with a(prime(n)) = prime(n!)."
			],
			"example": [
				"The sequence of terms together with their prime indices begins:",
				"       1: {}",
				"       2: {1}",
				"       3: {2}",
				"       4: {1,1}",
				"      13: {6}",
				"       6: {1,2}",
				"      89: {24}",
				"       8: {1,1,1}",
				"       9: {2,2}",
				"      26: {1,6}",
				"     659: {120}",
				"      12: {1,1,2}",
				"    5443: {720}",
				"     178: {1,24}",
				"      39: {2,6}",
				"      16: {1,1,1,1}",
				"   49033: {5040}",
				"      18: {1,2,2}",
				"  484037: {40320}",
				"      52: {1,1,6}."
			],
			"mathematica": [
				"Table[Times@@Prime/@(If[n==1,{},Flatten[Cases[FactorInteger[n],{p_,k_}:\u003eTable[PrimePi[p],{k}]]]]!),{n,20}]"
			],
			"program": [
				"(PARI) A325709(n) = { my(f=factor(n)); prod(i=1,#f~,prime(primepi(f[i, 1])!)^f[i, 2]); }; \\\\ _Antti Karttunen_, Nov 17 2019"
			],
			"xref": [
				"Cf. A000142, A056239, A062439, A064986, A076934, A112798, A115944, A284605, A308299, A322583, A325509, A325616, A325618, A325704."
			],
			"keyword": "nonn,mult",
			"offset": "1,2",
			"author": "_Gus Wiseman_, May 19 2019",
			"ext": [
				"Keyword:mult added by _Antti Karttunen_, Nov 17 2019"
			],
			"references": 4,
			"revision": 13,
			"time": "2019-11-17T09:31:34-05:00",
			"created": "2019-05-19T20:33:26-04:00"
		}
	]
}