{
	"greeting": "Greetings from The On-Line Encyclopedia of Integer Sequences! http://oeis.org/",
	"query": "id:A325513",
	"count": 1,
	"start": 0,
	"results": [
		{
			"number": 325513,
			"data": "1,2,2,8,8,32,144,432,2160,27000,582120,7623000,336936600,6740402760,543454231320,57619849046760,4683793138766280,412882704970215480,88171665744392750520,12780536107937124847320,2685589660883755945879560,942036670625665177379096280",
			"name": "Heinz number of the integer partition whose parts are the multiplicities in the multiset union of all strict integer partitions of n.",
			"comment": [
				"Also the Heinz number of row n of A015716 (with zeros removed).",
				"The Heinz number of an integer partition (y_1,...,y_k) is prime(y_1)*...*prime(y_k)."
			],
			"formula": [
				"a(n) = A181819(A003963(A325505(n))).",
				"A056239(a(n)) = A015723(n)."
			],
			"example": [
				"The strict integer partitions of 6 are {(6), (5,1), (4,2), (3,2,1)}, with multiset union {1,1,2,2,3,4,5,6}, with multiplicities (2,2,1,1,1,1), so a(6) = prime(1)^4*prime(2)^2 = 144.",
				"The sequence of terms together with their prime indices begins:",
				"               1: {}",
				"               2: {1}",
				"               2: {1}",
				"               8: {1,1,1}",
				"               8: {1,1,1}",
				"              32: {1,1,1,1,1}",
				"             144: {1,1,1,1,2,2}",
				"             432: {1,1,1,1,2,2,2}",
				"            2160: {1,1,1,1,2,2,2,3}",
				"           27000: {1,1,1,2,2,2,3,3,3}",
				"          582120: {1,1,1,2,2,2,3,4,4,5}",
				"         7623000: {1,1,1,2,2,3,3,3,4,5,5}",
				"       336936600: {1,1,1,2,2,3,3,4,5,5,6,7}",
				"      6740402760: {1,1,1,2,2,3,4,4,4,6,6,7,8}",
				"    543454231320: {1,1,1,2,2,3,4,4,5,6,7,8,9,10}",
				"  57619849046760: {1,1,1,2,2,3,4,5,5,6,8,9,10,11,12}"
			],
			"mathematica": [
				"Table[Times@@Prime/@Length/@Split[Sort[Join@@Select[IntegerPartitions[n],UnsameQ@@#\u0026]]],{n,0,15}]"
			],
			"xref": [
				"Cf. A006128, A015716, A015723, A022629, A056239, A066633, A112798, A246867, A325500, A325504, A325506."
			],
			"keyword": "nonn",
			"offset": "0,2",
			"author": "_Gus Wiseman_, May 07 2019",
			"references": 8,
			"revision": 4,
			"time": "2019-05-08T22:20:19-04:00",
			"created": "2019-05-08T22:20:19-04:00"
		}
	]
}