{
	"greeting": "Greetings from The On-Line Encyclopedia of Integer Sequences! http://oeis.org/",
	"query": "id:A325531",
	"count": 1,
	"start": 0,
	"results": [
		{
			"number": 325531,
			"data": "3,2,1,3,6,2,4,2,1,1,2,2,4,3,1,2,2,1,3,6,2,4,3,1,2,2,4,2,6,4,6,2,4,2,1,1,2,2,4,3,1,2,2,4,2,4,2,4,3,1,2,2,4,3,1,2,2,1,1,2,4,2,2,4,2,1,1,2,2,4,3,1,2,2,4,6,2,4,3,1,2,2,4,2,4,2",
			"name": "Difference sequence of A325441.",
			"comment": [
				"See A325417 for a guide to related sequences. Conjecture: every term is in {1,2,3,4,6}; note that 5 is missing."
			],
			"link": [
				"Clark Kimberling, \u003ca href=\"/A325531/b325531.txt\"\u003eTable of n, a(n) for n = 1..10000\u003c/a\u003e"
			],
			"mathematica": [
				"a = {1}; Do[AppendTo[a, NestWhile[# + 1 \u0026, Last[a] + 1, Apply[Or,",
				"Map[MemberQ[a, #] \u0026, Select[Flatten[{(#+1)/2, (#+1)/3}],",
				"IntegerQ]]] \u0026]], {20000}]; a;        (* A315440 *)",
				"c = Complement[Range[Last[a]], a] ;  (* A325441 *)",
				"Differences[a]  (* A325530 *)",
				"Differences[c]  (* A325531 *)",
				"(* _Peter J. C. Moses_, Apr 23 2019 *)"
			],
			"xref": [
				"Cf. A325417, A325441, A325530."
			],
			"keyword": "nonn,easy",
			"offset": "1,1",
			"author": "_Clark Kimberling_, May 07 2019",
			"references": 3,
			"revision": 8,
			"time": "2019-07-13T00:42:31-04:00",
			"created": "2019-07-13T00:42:31-04:00"
		}
	]
}