{
	"greeting": "Greetings from The On-Line Encyclopedia of Integer Sequences! http://oeis.org/",
	"query": "id:A325722",
	"count": 1,
	"start": 0,
	"results": [
		{
			"number": 325722,
			"data": "1,1,2,2,4,4,8,8,16,3,6,3,12,6,4,6,18,12,24,5,24,6,8,10,16,5,12,20,30,32,7,0,8,36,10,9,14,16,0,9,0,12,18,7,0,40,15,42,10,0,9,11,24,12,48,0,18,0,13,20,14,48,14,0,28,0,15,15,32,22,16,0,0,27,17,18,24,36,19,26,40,56,0,20,64,0,21,18,28,0,22,44,48,72",
			"name": "Start the sequence with a(1) = 1 and read the digits one by one from there. The sequence is always extended with the product d*k, d being the digit read and k the number of d digits present so far in the sequence.",
			"link": [
				"Carole Dubois, \u003ca href=\"/A325722/b325722.txt\"\u003eTable of n, a(n) for n = 1..5001\u003c/a\u003e",
				"Carole Dubois, \u003ca href=\"/A325722/a325722_1.png\"\u003eDigit-count for this sequence and two others visible in the Xref section\u003c/a\u003e"
			],
			"example": [
				"The sequence starts with a(1) = 1.",
				"We read this 1, see that there is only one digit 1 so far in the sequence, thus k = 1; we have then d*k = 1 and this 1 becomes a(2);",
				"We read a(2) = 1, see that this 1 is the 2nd digit 1 so far in the sequence, thus k = 2; we have then d*k = 2 and this 2 becomes a(3);",
				"We read a(3) = 2, see that there is only one digit 2 so far in the sequence, thus k = 1; we have then d*k = 2 and this 2 becomes a(4);",
				"We read a(4) = 2, see that this 2 is the 2nd digit 2 so far in the sequence, thus k = 2; we have then d*k = 4 and this 4 becomes a(5);",
				"...",
				"We read now the first digit of a(9) = 16 and see that this 1 is the 3rd digit 1 so far in the sequence, thus k = 3; we have then d*k = 3 and this 3 becomes a(10);",
				"We read now the second digit of a(9) = 16 and see that this 6 is the 1st digit 6 so far in the sequence, thus k = 1; we have then d*k = 6 and this 6 becomes a(11); etc."
			],
			"xref": [
				"Cf. A325721 where the same idea is developed, but with d+k instead of d*k. See also A308232 for the concatenation kd.",
				"Cf. A322182."
			],
			"keyword": "base,nonn",
			"offset": "1,3",
			"author": "_Eric Angelini_ and _Carole Dubois_, May 16 2019",
			"references": 3,
			"revision": 25,
			"time": "2019-05-25T12:09:39-04:00",
			"created": "2019-05-25T12:08:39-04:00"
		}
	]
}