{
	"greeting": "Greetings from The On-Line Encyclopedia of Integer Sequences! http://oeis.org/",
	"query": "id:A325838",
	"count": 1,
	"start": 0,
	"results": [
		{
			"number": 325838,
			"data": "1,3,36,100,225,441,21952,10077696,91125,3025,18974736,37015056,8281,121550625,42998169600000000,342102016,3581577,5000211,1303210000,3782285936100000000,2847396321,64009,442032795979776,19683000000000000000000,34328125,15178486401",
			"name": "Product of divisors of n-th triangular number.",
			"formula": [
				"a(n) = A007955(A000217(n))."
			],
			"example": [
				"5th triangular number is 15 with divisors 1, 3, 5 and 15, their product is 225."
			],
			"mathematica": [
				"pd[n_] := n^(DivisorSigma[0, n]/2); t[n_] := n (n + 1)/2; pd /@ t /@ Range[26] (* _Amiram Eldar_, Sep 07 2019 *)"
			],
			"program": [
				"(MAGMA) [\u0026*[d: d in Divisors(n * (n+1) div 2)] : n in [1..1000]]",
				"(PARI) a(n) = vecprod(divisors(n*(n+1)/2)); \\\\ _Michel Marcus_, Oct 14 2019"
			],
			"xref": [
				"Cf. A000005, A000203, A000217, A007955.",
				"See A063440 and A074285 for number and sum of such divisors."
			],
			"keyword": "nonn",
			"offset": "1,2",
			"author": "_Jaroslav Krizek_, Sep 07 2019",
			"references": 0,
			"revision": 16,
			"time": "2019-10-14T13:57:34-04:00",
			"created": "2019-10-14T12:00:03-04:00"
		}
	]
}