{
	"greeting": "Greetings from The On-Line Encyclopedia of Integer Sequences! http://oeis.org/",
	"query": "id:A325665",
	"count": 1,
	"start": 0,
	"results": [
		{
			"number": 325665,
			"data": "-2,1,-2,4,-8,16,-31,56,-91,126,-126,1,449,-1624,4249,-9499,18998,-34356,55453,-75734,70889,26334,-379050,1352079,-3713651,9000226,-20136807,42409969,-84819938,161567266,-292710631,501416816,-801992971,1167081366,-1453179126",
			"name": "First term of n-th difference sequence of (floor(k*r)), r = -sqrt(2), k \u003e= 0.",
			"link": [
				"Clark Kimberling, \u003ca href=\"/A325665/b325665.txt\"\u003eTable of n, a(n) for n = 1..200\u003c/a\u003e"
			],
			"mathematica": [
				"Table[First[Differences[Table[Floor[-Sqrt[2]*n], {n, 0, 50}], n]], {n, 1, 50}]"
			],
			"xref": [
				"Cf. A001951, A325664."
			],
			"keyword": "easy,sign",
			"offset": "1,1",
			"author": "_Clark Kimberling_, May 12 2019",
			"references": 2,
			"revision": 10,
			"time": "2019-05-22T22:57:41-04:00",
			"created": "2019-05-13T01:11:18-04:00"
		}
	]
}