{
	"greeting": "Greetings from The On-Line Encyclopedia of Integer Sequences! http://oeis.org/",
	"query": "id:A326618",
	"count": 1,
	"start": 0,
	"results": [
		{
			"number": 326618,
			"data": "1,3,262657,387440173,68719738881,3814699218751,101559966746113,1628413638264057,18014398643699713,150094635684419611,1000000001000000001,5559917315850179173,26623333286045024257,112455406962561892503,426878854231297789441,1477891880073843750001",
			"name": "a(n) = n^18 + n^9 + 1.",
			"comment": [
				"a(n) = Phi_27(n) where Phi_k(x) is the k-th cyclotomic polynomial."
			],
			"link": [
				"Richard N. Smith, \u003ca href=\"/A326618/b326618.txt\"\u003eTable of n, a(n) for n = 0..2000\u003c/a\u003e",
				"OEIS Wiki, \u003ca href=\"https://oeis.org/wiki/Cyclotomic Polynomials at x=n, n! and sigma(n)\"\u003eCyclotomic Polynomials at x=n, n! and sigma(n)\u003c/a\u003e",
				"Eric Weisstein's World of Mathematics, \u003ca href=\"http://mathworld.wolfram.com/CyclotomicPolynomial.html\"\u003eCyclotomic Polynomial\u003c/a\u003e",
				"\u003ca href=\"/index/Cy#CyclotomicPolynomialsValuesAtX\"\u003eIndex to values of cyclotomic polynomials of integer argument\u003c/a\u003e"
			],
			"mathematica": [
				"Table[n^18 + n^9 + 1, {n, 0, 17}] (* _Vincenzo Librandi_, Jul 15 2019 *)",
				"Table[Cyclotomic[27, n], {n, 0, 17}]"
			],
			"program": [
				"(MAGMA) [n^18+n^9+1: n in [0..17]]; // _Vincenzo Librandi_, Jul 15 2019",
				"(PARI) a(n) = polcyclo(27, n); \\\\ _Michel Marcus_, Jul 20 2019"
			],
			"xref": [
				"Sequences of the type Phi_k(n), where Phi_k is the k-th cyclotomic polynomial: A000012 (k=0), A023443 (k=1), A000027 (k=2), A002061 (k=3), A002522 (k=4), A053699 (k=5), A002061 (k=6), A053716 (k=7), A002523 (k=8), A060883 (k=9), A060884 (k=10), A060885 (k=11), A060886 (k=12), A060887 (k=13), A060888 (k=14), A060889 (k=15), A060890 (k=16), A269442 (k=17), A060891 (k=18), A269446 (k=19), A060892 (k=20), A269483 (k=21), A269486 (k=22), A060893 (k=24), A269527 (k=25), A266229 (k=26), this sequence (k=27), A270204 (k=28), A060894 (k=30), A060895 (k=32), A060896 (k=36).",
				"Cf. A153440 (indices of prime terms)."
			],
			"keyword": "nonn",
			"offset": "0,2",
			"author": "_Richard N. Smith_, Jul 15 2019",
			"references": 1,
			"revision": 25,
			"time": "2019-07-20T11:06:28-04:00",
			"created": "2019-07-20T11:06:28-04:00"
		}
	]
}