{
	"greeting": "Greetings from The On-Line Encyclopedia of Integer Sequences! http://oeis.org/",
	"query": "id:A326431",
	"count": 1,
	"start": 0,
	"results": [
		{
			"number": 326431,
			"data": "1,3,26,393,8806,268011,10496566,509611213,29841622422,2063796756103,165781539363706,15259755609383885,1591551797382262450,186311156677551137459,24281772775240615369662,3498626608233846654660989,553893001173840022047130286,95833008154703833096894957199,18033356856862268626280345672162",
			"name": "E.g.f.: exp(-2) * Sum_{n\u003e=0} ((1+x)^n + 1)^n / n!.",
			"comment": [
				"More generally, the following sums are equal:",
				"(1) exp(-r*(p+1)) * Sum_{n\u003e=0} (q^n + p)^n * r^n / n!,",
				"(2) exp(-r*(p+1)) * Sum_{n\u003e=0} q^(n^2) * exp(p*q^n*r) * r^n / n!,",
				"here, q = 1+x, p = 1, r = 1."
			],
			"link": [
				"Paul D. Hanna, \u003ca href=\"/A326431/b326431.txt\"\u003eTable of n, a(n) for n = 0..300\u003c/a\u003e"
			],
			"formula": [
				"E.g.f.: exp(-2) * Sum_{n\u003e=0} ((1+x)^n + 1)^n / n!.",
				"E.g.f.: exp(-2) * Sum_{n\u003e=0} (1+x)^(n^2) * exp( (1+x)^n ) / n!."
			],
			"example": [
				"E.g.f.: A(x) = 1 + 3*x + 26*x^2/2! + 393*x^3/3! + 8806*x^4/4! + 268011*x^5/5! + 10496566*x^6/6! + 509611213*x^7/7! + 29841622422*x^8/8! + 2063796756103*x^9/9! + 165781539363706*x^10/10! + ...",
				"such that",
				"A(x) = exp(-2) * (1 + ((1+x) + 1) + ((1+x)^2 + 1)^2/2! + ((1+x)^3 + 1)^3/3! + ((1+x)^4 + 1)^4/4! + ((1+x)^5 + 1)^5/5! + ((1+x)^6 + 1)^6/6! + ...)",
				"also,",
				"A(x) = exp(-2) * (exp(1) + (1+x)*exp(1+x) + (1+x)^4*exp((1+x)^2)/2! + (1+x)^9*exp((1+x)^3)/3! + (1+x)^16*exp((1+x)^4)/4! + (1+x)^25*exp((1+x)^5)/5! + (1+x)^36*exp((1+x)^6)/6! + ...)."
			],
			"program": [
				"(PARI) /* Requires appropriate precision */",
				"\\p200",
				"{a(n) = my(A = exp(-2) * sum(m=0,n+300, ((1+x)^m + 1 +x*O(x^n))^m / m! )); round(n!*polcoeff(A,n))}",
				"for(n=0,20,print1(a(n),\", \"))"
			],
			"xref": [
				"Cf. A326432."
			],
			"keyword": "nonn",
			"offset": "0,2",
			"author": "_Paul D. Hanna_, Jul 09 2019",
			"references": 2,
			"revision": 10,
			"time": "2019-07-11T20:08:13-04:00",
			"created": "2019-07-09T21:48:07-04:00"
		}
	]
}