{
	"greeting": "Greetings from The On-Line Encyclopedia of Integer Sequences! http://oeis.org/",
	"query": "id:A326669",
	"count": 1,
	"start": 0,
	"results": [
		{
			"number": 326669,
			"data": "1,2,4,5,7,8,10,14,16,17,20,21,27,28,31,32,34,35,39,40,42,49,54,56,57,62,64,65,68,70,73,78,80,84,85,93,98,99,107,108,112,114,119,124,127,128,130,133,136,140,141,146,147,155,156,160,161,167,168,170,175",
			"name": "Numbers k such that the average position of the ones in the binary expansion of k is an integer.",
			"comment": [
				"These are numbers whose exponents in their representation as a sum of distinct powers of 2 have integer average."
			],
			"example": [
				"42 is in the sequence because 42 = 2^1 + 2^3 + 2^5 and the average of {1,3,5} is 3, an integer."
			],
			"mathematica": [
				"Select[Range[100],IntegerQ[Mean[Join@@Position[IntegerDigits[#,2],1]]]\u0026]"
			],
			"program": [
				"(PARI) isok(m) = my(b=binary(m)); denominator(vecsum(Vec(select(x-\u003e(x==1), b, 1)))/hammingweight(m)) == 1; \\\\ _Michel Marcus_, Jul 02 2021"
			],
			"xref": [
				"Cf. A000120, A051293, A070939, A102627, A291165, A291166, A316413, A326622, A326668, A326672, A326673."
			],
			"keyword": "nonn,base",
			"offset": "1,2",
			"author": "_Gus Wiseman_, Jul 17 2019",
			"references": 16,
			"revision": 18,
			"time": "2021-07-02T03:37:07-04:00",
			"created": "2019-07-18T06:18:49-04:00"
		}
	]
}