{
	"greeting": "Greetings from The On-Line Encyclopedia of Integer Sequences! http://oeis.org/",
	"query": "id:A326718",
	"count": 1,
	"start": 0,
	"results": [
		{
			"number": 326718,
			"data": "0,0,0,2,0,-48,0,1632,0,-79360,0,5306880,0,-469733376,0,53305204736,0,-7555152347136,0,1308999830077440,0,-272332392921825280,0,67017976509452255232,0,-19259875454836222722048,0,6392895745958900349796352,0,-2427514339720007773354721280",
			"name": "a(n) = n! * [x^n] (tanh(x) + x*(2*x*tanh(x) - 1)*sech(x)^2)/8.",
			"formula": [
				"E.g.f.:"
			],
			"maple": [
				"egf := (tanh(x) + x*(2*x*tanh(x) - 1)*sech(x)^2)/8; ser := series(egf, x, 30):",
				"seq(n!*coeff(ser, x, n), n=0..29);"
			],
			"xref": [
				"a(n) = A326722(n, 4) for n \u003e= 0."
			],
			"keyword": "sign",
			"offset": "0,4",
			"author": "_Peter Luschny_, Aug 09 2019",
			"references": 1,
			"revision": 3,
			"time": "2019-08-09T14:29:27-04:00",
			"created": "2019-08-09T14:29:27-04:00"
		}
	]
}