{
	"greeting": "Greetings from The On-Line Encyclopedia of Integer Sequences! http://oeis.org/",
	"query": "id:A326362",
	"count": 1,
	"start": 0,
	"results": [
		{
			"number": 326362,
			"data": "1,1,1,2,16,163,11742,12160640",
			"name": "Number of maximal intersecting antichains of nonempty, non-singleton subsets of {1..n}.",
			"comment": [
				"A set system (set of sets) is an antichain if no part is a subset of any other, and is intersecting if no two parts are disjoint."
			],
			"formula": [
				"For n \u003e 1, a(n) = A326363(n) - n - 1 = A007363(n + 1) - n."
			],
			"example": [
				"The a(4) = 16 maximal intersecting antichains:",
				"  {{1,2,3,4}}",
				"  {{1,2},{1,3},{2,3}}",
				"  {{1,2},{1,4},{2,4}}",
				"  {{1,3},{1,4},{3,4}}",
				"  {{2,3},{2,4},{3,4}}",
				"  {{1,2},{1,3,4},{2,3,4}}",
				"  {{1,3},{1,2,4},{2,3,4}}",
				"  {{1,4},{1,2,3},{2,3,4}}",
				"  {{2,3},{1,2,4},{1,3,4}}",
				"  {{2,4},{1,2,3},{1,3,4}}",
				"  {{3,4},{1,2,3},{1,2,4}}",
				"  {{1,2},{1,3},{1,4},{2,3,4}}",
				"  {{1,2},{2,3},{2,4},{1,3,4}}",
				"  {{1,3},{2,3},{3,4},{1,2,4}}",
				"  {{1,4},{2,4},{3,4},{1,2,3}}",
				"  {{1,2,3},{1,2,4},{1,3,4},{2,3,4}}"
			],
			"mathematica": [
				"stableSets[u_,Q_]:=If[Length[u]==0,{{}},With[{w=First[u]},Join[stableSets[DeleteCases[u,w],Q],Prepend[#,w]\u0026/@stableSets[DeleteCases[u,r_/;r==w||Q[r,w]||Q[w,r]],Q]]]];",
				"fasmax[y_]:=Complement[y,Union@@(Most[Subsets[#]]\u0026/@y)];",
				"Table[Length[fasmax[stableSets[Subsets[Range[n],{2,n}],Or[Intersection[#1,#2]=={},SubsetQ[#1,#2]]\u0026]]],{n,0,5}]",
				"(* 2nd program *)",
				"n = 2^6; g = CompleteGraph[n]; i = 0;",
				"While[i \u003c n, i++; j = i; While[j \u003c n, j++; If[BitAnd[i, j] == 0 || BitAnd[i, j] == i || BitAnd[i, j] == j, g = EdgeDelete[g, i \u003c-\u003e j]]]];",
				"sets = FindClique[g, Infinity, All];",
				"Length[sets]-Log[2,n]-1 (* _Elijah Beregovsky_, May 06 2020 *)"
			],
			"xref": [
				"Antichains of nonempty, non-singleton sets are A307249.",
				"Minimal covering antichains are A046165.",
				"Maximal intersecting antichains are A007363.",
				"Maximal antichains of nonempty sets are A326359.",
				"Cf. A000372, A003182, A006126, A006602, A014466, A051185, A058891, A261005, A305000, A305844, A326358, A326360, A326361, A326363."
			],
			"keyword": "nonn,more",
			"offset": "0,4",
			"author": "_Gus Wiseman_, Jul 01 2019",
			"ext": [
				"a(7) from _Elijah Beregovsky_, May 06 2020"
			],
			"references": 12,
			"revision": 15,
			"time": "2020-05-26T21:57:45-04:00",
			"created": "2019-07-02T11:17:38-04:00"
		}
	]
}