{
	"greeting": "Greetings from The On-Line Encyclopedia of Integer Sequences! http://oeis.org/",
	"query": "id:A326214",
	"count": 1,
	"start": 0,
	"results": [
		{
			"number": 326214,
			"data": "0,0,12,384,53184",
			"name": "Number of labeled n-vertex digraphs (with loops) containing a (directed) Hamiltonian path.",
			"comment": [
				"A path is Hamiltonian if it passes through every vertex exactly once."
			],
			"link": [
				"Wikipedia, \u003ca href=\"https://en.wikipedia.org/wiki/Hamiltonian_path\"\u003eHamiltonian path\u003c/a\u003e",
				"Gus Wiseman, \u003ca href=\"http://arxiv.org/abs/0709.0430\"\u003eEnumeration of paths and cycles and e-coefficients of incomparability graphs\u003c/a\u003e."
			],
			"formula": [
				"A002416(n) = a(n) + A326213(n)."
			],
			"example": [
				"The a(2) = 12 edge-sets:",
				"  {12}",
				"  {21}",
				"  {11,12}",
				"  {11,21}",
				"  {12,21}",
				"  {12,22}",
				"  {21,22}",
				"  {11,12,21}",
				"  {11,12,22}",
				"  {11,21,22}",
				"  {12,21,22}",
				"  {11,12,21,22}"
			],
			"mathematica": [
				"Table[Length[Select[Subsets[Tuples[Range[n],2]],FindHamiltonianPath[Graph[Range[n],DirectedEdge@@@#]]!={}\u0026]],{n,4}] (* Mathematica 10.2+ *)"
			],
			"xref": [
				"The unlabeled case is A326221.",
				"The undirected case is A326206.",
				"The case without loops is A326217.",
				"Digraphs not containing a Hamiltonian path are A326213.",
				"Digraphs containing a Hamiltonian cycle are A326204.",
				"Cf. A000595, A002416, A003024, A003216, A057864, A326224, A326225, A326226."
			],
			"keyword": "nonn,more",
			"offset": "0,3",
			"author": "_Gus Wiseman_, Jun 15 2019",
			"references": 6,
			"revision": 6,
			"time": "2019-06-16T22:33:28-04:00",
			"created": "2019-06-16T22:33:28-04:00"
		}
	]
}