{
	"greeting": "Greetings from The On-Line Encyclopedia of Integer Sequences! http://oeis.org/",
	"query": "id:A326375",
	"count": 1,
	"start": 0,
	"results": [
		{
			"number": 326375,
			"data": "2,2,2,3,29,1961,1379274,229755337550,423295079757497714060",
			"name": "Number of intersecting antichains of subsets of {1..n} with empty intersection (meaning there is no vertex in common to all the edges).",
			"comment": [
				"A set system (set of sets) is an antichain if no edge is a subset of any other, and is intersecting if no two edges are disjoint."
			],
			"formula": [
				"a(n) = A326366(n) + 1."
			],
			"example": [
				"The a(4) = 29 antichains:",
				"  {}",
				"  {{}}",
				"  {{1,2},{1,3},{2,3}}",
				"  {{1,2},{1,4},{2,4}}",
				"  {{1,3},{1,4},{3,4}}",
				"  {{2,3},{2,4},{3,4}}",
				"  {{1,2},{1,3},{2,3,4}}",
				"  {{1,2},{1,4},{2,3,4}}",
				"  {{1,2},{2,3},{1,3,4}}",
				"  {{1,2},{2,4},{1,3,4}}",
				"  {{1,3},{1,4},{2,3,4}}",
				"  {{1,3},{2,3},{1,2,4}}",
				"  {{1,3},{3,4},{1,2,4}}",
				"  {{1,4},{2,4},{1,2,3}}",
				"  {{1,4},{3,4},{1,2,3}}",
				"  {{2,3},{2,4},{1,3,4}}",
				"  {{2,3},{3,4},{1,2,4}}",
				"  {{2,4},{3,4},{1,2,3}}",
				"  {{1,2},{1,3,4},{2,3,4}}",
				"  {{1,3},{1,2,4},{2,3,4}}",
				"  {{1,4},{1,2,3},{2,3,4}}",
				"  {{2,3},{1,2,4},{1,3,4}}",
				"  {{2,4},{1,2,3},{1,3,4}}",
				"  {{3,4},{1,2,3},{1,2,4}}",
				"  {{1,2},{1,3},{1,4},{2,3,4}}",
				"  {{1,2},{2,3},{2,4},{1,3,4}}",
				"  {{1,3},{2,3},{3,4},{1,2,4}}",
				"  {{1,4},{2,4},{3,4},{1,2,3}}",
				"  {{1,2,3},{1,2,4},{1,3,4},{2,3,4}}"
			],
			"mathematica": [
				"stableSets[u_,Q_]:=If[Length[u]==0,{{}},With[{w=First[u]},Join[stableSets[DeleteCases[u,w],Q],Prepend[#,w]\u0026/@stableSets[DeleteCases[u,r_/;r==w||Q[r,w]||Q[w,r]],Q]]]];",
				"Table[Length[Select[stableSets[Subsets[Range[n]],Or[Intersection[#1,#2]=={},SubsetQ[#1,#2]]\u0026],#=={}||Intersection@@#=={}\u0026]],{n,0,4}]"
			],
			"xref": [
				"The case without empty edges is A326366.",
				"Intersecting antichains are A326372.",
				"Antichains of nonempty sets with empty intersection are A006126 or A307249.",
				"Cf. A001206, A007363, A014466, A051185, A058891, A305001, A305843, A305844, A318128, A318129, A326363, A326365, A326373."
			],
			"keyword": "nonn,more",
			"offset": "0,1",
			"author": "_Gus Wiseman_, Jul 03 2019",
			"ext": [
				"a(7)-a(8) from _Andrew Howroyd_, Aug 14 2019"
			],
			"references": 1,
			"revision": 9,
			"time": "2019-08-14T18:26:04-04:00",
			"created": "2019-07-03T18:27:04-04:00"
		}
	]
}