{
	"greeting": "Greetings from The On-Line Encyclopedia of Integer Sequences! http://oeis.org/",
	"query": "id:A326057",
	"count": 1,
	"start": 0,
	"results": [
		{
			"number": 326057,
			"data": "1,1,1,1,1,3,3,1,1,1,1,1,3,1,1,1,1,3,3,1,1,1,1,3,1,1,1,43,1,3,5,1,1,1,1,1,3,1,1,1,1,3,3,1,1,5,1,1,1,1,1,1,1,3,19,1,1,1,1,3,5,1,1,1,1,3,3,5,7,1,1,3,1,1,1,1,1,3,3,1,1,1,1,1,1,1,1,1,1,3,5,1,1,1,1,3,3,1,1,1,1,3,3,1,1",
			"name": "a(n) = gcd(A003961(n)-2n, A003961(n)-sigma(n)), where A003961(n) is fully multiplicative function with a(prime(k)) = prime(k+1).",
			"comment": [
				"Terms a(n) larger than 1 and equal to A252748(n) occur at n = 6, 28, 69, 91, 496, ..., see A326134.",
				"Records 1, 3, 43, 45, 2005, 79243, ... occur at n = 1, 6, 28, 360, 496, 8128, ..."
			],
			"link": [
				"Antti Karttunen, \u003ca href=\"/A326057/b326057.txt\"\u003eTable of n, a(n) for n = 1..65537\u003c/a\u003e",
				"\u003ca href=\"/index/Pri#prime_indices\"\u003eIndex entries for sequences computed from indices in prime factorization\u003c/a\u003e",
				"\u003ca href=\"/index/Si#SIGMAN\"\u003eIndex entries for sequences related to sigma(n)\u003c/a\u003e"
			],
			"formula": [
				"a(n) = gcd(A252748(n), A286385(n)) = gcd(A003961(n) - 2n, A003961(n) - A000203(n))."
			],
			"mathematica": [
				"Array[GCD[#3 - #1, #3 - #2] \u0026 @@ {2 #, DivisorSigma[1, #], Times @@ Map[#1^#2 \u0026 @@ # \u0026, FactorInteger[#] /. {p_, e_} /; e \u003e 0 :\u003e {Prime[PrimePi@ p + 1], e}] - Boole[# == 1]} \u0026, 78] (* _Michael De Vlieger_, Feb 22 2021 *)"
			],
			"program": [
				"(PARI)",
				"A003961(n) = my(f = factor(n)); for (i=1, #f~, f[i, 1] = nextprime(f[i, 1]+1)); factorback(f); \\\\ From A003961",
				"A252748(n) = (A003961(n) - (2*n));",
				"A286385(n) = (A003961(n) - sigma(n));",
				"A326057(n) = gcd(A252748(n), A286385(n));"
			],
			"xref": [
				"Cf. A000203, A000360, A003961, A033879, A252748, A286385, A326134.",
				"Cf. also A009194, A325385, A325813, A325975, A326046, A326047, A326048, A326056, A326060, A326062."
			],
			"keyword": "nonn",
			"offset": "1,6",
			"author": "_Antti Karttunen_, Jun 06 2019",
			"references": 17,
			"revision": 18,
			"time": "2021-02-22T21:19:54-05:00",
			"created": "2019-06-06T21:58:54-04:00"
		}
	]
}