{
	"greeting": "Greetings from The On-Line Encyclopedia of Integer Sequences! http://oeis.org/",
	"query": "id:A326729",
	"count": 1,
	"start": 0,
	"results": [
		{
			"number": 326729,
			"data": "0,0,3,1,5,7,4,3,9,11,8,15,14,9,10,7,17,19,16,23,22,17,18,31,26,29,30,19,24,21,22,15,33,35,32,39,38,33,34,47,42,45,46,35,40,37,38,63,50,53,54,59,48,61,62,39,60,49,50,43,52,45,46,31,65,67,64,71,70,65,66,79,74,77,78,67,72,69,70,95,82,85,86,91,80,93,94,71,92,81,82,75,84,77,78,127,98,101,102,107,96",
			"name": "a(0) = 0; for n \u003e= 1, a(n) is the result of inverting s-th bit (from right) in n, where s is the number of ones in the binary representation of n.",
			"comment": [
				"Iterations of a(n) always reach 0 (cf. A326730), see Problem 5 of IMO 2019."
			],
			"link": [
				"Robert Israel, \u003ca href=\"/A326729/b326729.txt\"\u003eTable of n, a(n) for n = 0..10000\u003c/a\u003e",
				"International Mathematical Olympiad, \u003ca href=\"https://www.imo-official.org/problems.aspx\"\u003eProblem 5 of IMO 2019\u003c/a\u003e.",
				"\u003ca href=\"/index/O#Olympiads\"\u003eIndex to sequences related to Olympiads\u003c/a\u003e."
			],
			"formula": [
				"For n\u003e=1, a(n) = n XOR 2^(A000120(n)-1).",
				"From _Robert Israel_, Oct 01 2020: (Start)",
				"a(2*n+1) = 2*a(n).",
				"a(2*n + 2^k) = 2*a(n)+2^k if 2^k \u003e 2*n. (End)"
			],
			"maple": [
				"f:= proc(n) local s;",
				"  s:= convert(convert(n,base,2),`+`);",
				"  Bits:-Xor(n,2^(s-1))",
				"end proc:",
				"f(0):= 0:",
				"map(f, [$0..100]); # _Robert Israel_, Oct 01 2020"
			],
			"program": [
				"(PARI) A326729(n) = if(n==0,return(0)); bitxor(n,2^(hammingweight(n)-1));"
			],
			"xref": [
				"Cf. A000120, A326730, A326731, A326732."
			],
			"keyword": "base,nonn,look",
			"offset": "0,3",
			"author": "_Max Alekseyev_, Jul 22 2019",
			"references": 4,
			"revision": 22,
			"time": "2020-10-02T09:03:39-04:00",
			"created": "2019-07-23T04:23:05-04:00"
		}
	]
}