{
	"greeting": "Greetings from The On-Line Encyclopedia of Integer Sequences! http://oeis.org/",
	"query": "id:A326565",
	"count": 1,
	"start": 0,
	"results": [
		{
			"number": 326565,
			"data": "1,0,1,1,4,13,91,1318,73581,51913025",
			"name": "Number of covering antichains of nonempty, non-singleton subsets of {1..n}, all having the same sum.",
			"comment": [
				"An antichain is a finite set of finite sets, none of which is a subset of any other. It is covering if its union is {1..n}. The edge-sums are the sums of vertices in each edge, so for example the edge sums of {{1,3},{2,5},{3,4,5}} are {4,7,12}."
			],
			"example": [
				"The a(2) = 1 through a(5) = 13 antichains:",
				"  {{1,2}}  {{1,2,3}}  {{1,2,3,4}}      {{1,2,3,4,5}}",
				"                      {{1,4},{2,3}}    {{1,2,5},{1,3,4}}",
				"                      {{2,4},{1,2,3}}  {{1,3,5},{2,3,4}}",
				"                      {{3,4},{1,2,4}}  {{1,4,5},{2,3,5}}",
				"                                       {{1,4,5},{1,2,3,4}}",
				"                                       {{2,3,5},{1,2,3,4}}",
				"                                       {{2,4,5},{1,2,3,5}}",
				"                                       {{3,4,5},{1,2,4,5}}",
				"                                       {{1,5},{2,4},{1,2,3}}",
				"                                       {{2,5},{3,4},{1,2,4}}",
				"                                       {{3,5},{1,2,5},{1,3,4}}",
				"                                       {{4,5},{1,3,5},{2,3,4}}",
				"                                       {{1,4,5},{2,3,5},{1,2,3,4}}"
			],
			"mathematica": [
				"stableSets[u_,Q_]:=If[Length[u]==0,{{}},With[{w=First[u]},Join[stableSets[DeleteCases[u,w],Q],Prepend[#,w]\u0026/@stableSets[DeleteCases[u,r_/;r==w||Q[r,w]||Q[w,r]],Q]]]];",
				"cleq[n_]:=Select[stableSets[Subsets[Range[n],{2,n}],SubsetQ[#1,#2]||Total[#1]!=Total[#2]\u0026],Union@@#==Range[n]\u0026];",
				"Table[Length[cleq[n]],{n,0,5}]"
			],
			"xref": [
				"Cf. A000372, A006126, A035470, A307249, A321455, A321717, A321718, A326360, A326518, A326534, A326566."
			],
			"keyword": "nonn,more",
			"offset": "0,5",
			"author": "_Gus Wiseman_, Jul 13 2019",
			"ext": [
				"a(9) from _Andrew Howroyd_, Aug 14 2019"
			],
			"references": 8,
			"revision": 11,
			"time": "2019-08-14T17:46:48-04:00",
			"created": "2019-07-14T06:30:53-04:00"
		}
	]
}