{
	"greeting": "Greetings from The On-Line Encyclopedia of Integer Sequences! http://oeis.org/",
	"query": "id:A326581",
	"count": 1,
	"start": 0,
	"results": [
		{
			"number": 326581,
			"data": "1,3,5,7,9,11,13,17,19,23,25,29,31,37,41,43,47,49,53,59,61,67,71,73,79,81,83,89,97,101,103,107,109,113,121,127,131,137,139,149,151,157,163,167,169,173,179,181,191,193,197,199,211,223,225,227,229,233,239,241",
			"name": "Odd integers which are prime or square.",
			"formula": [
				"Union of A065091 and A016754."
			],
			"maple": [
				"s := n -\u003e if irem(n, 2) = 1 and (isprime(n) or issqr(n)) then n else NULL fi:",
				"seq(s(n), n=0..241);"
			],
			"mathematica": [
				"Select[Range[1, 241, 2], Or[IntegerQ@ Sqrt@ #, PrimeQ@ #] \u0026] (* _Michael De Vlieger_, Jul 15 2019 *)"
			],
			"xref": [
				"Cf. A065091, A000040, A016754, A000290, A326583."
			],
			"keyword": "nonn",
			"offset": "1,2",
			"author": "_Peter Luschny_, Jul 15 2019",
			"references": 1,
			"revision": 7,
			"time": "2019-07-15T16:58:35-04:00",
			"created": "2019-07-15T16:58:35-04:00"
		}
	]
}