{
	"greeting": "Greetings from The On-Line Encyclopedia of Integer Sequences! http://oeis.org/",
	"query": "id:A326724",
	"count": 1,
	"start": 0,
	"results": [
		{
			"number": 326724,
			"data": "1,-1,1,5,-10,5,-61,183,-183,61,1385,-5540,8310,-5540,1385,-50521,252605,-505210,505210,-252605,50521,2702765,-16216590,40541475,-54055300,40541475,-16216590,2702765,-199360981,1395526867,-4186580601,6977634335,-6977634335,4186580601,-1395526867,199360981",
			"name": "Triangle with Euler (secant) numbers, read by rows, T(n, k) for 0 \u003c= k \u003c= n.",
			"formula": [
				"T(n, k) = (2*n)! [x^k] [y^(2*n)] sec(y*sqrt(x - 1)).",
				"Sum_{k=0..n} (-1)^(n-k)*T(n, k) = |A012816(n+1)|."
			],
			"example": [
				"Triangle starts:",
				"[0]       1;",
				"[1]      -1,         1;",
				"[2]       5,       -10,        5;",
				"[3]     -61,       183,     -183,        61;",
				"[4]    1385,     -5540,     8310,     -5540,     1385;",
				"[5]  -50521,    252605,  -505210,    505210,  -252605,     50521;",
				"[6] 2702765, -16216590, 40541475, -54055300, 40541475, -16216590, 2702765;"
			],
			"mathematica": [
				"gf := Sec[y Sqrt[x - 1]]; ser := Series[gf, {y, 0, 26}];",
				"cy[n_] := n! Coefficient[ser, y, n]; row[n_] := CoefficientList[cy[2 n], x];",
				"Table[row[n], {n, 0, 7}] // Flatten"
			],
			"xref": [
				"Cf. A000364, A012816, A326722."
			],
			"keyword": "sign,tabl",
			"offset": "0,4",
			"author": "_Peter Luschny_, Aug 06 2019",
			"references": 1,
			"revision": 10,
			"time": "2019-08-10T02:49:39-04:00",
			"created": "2019-08-09T07:02:17-04:00"
		}
	]
}