{
	"greeting": "Greetings from The On-Line Encyclopedia of Integer Sequences! http://oeis.org/",
	"query": "id:A326701",
	"count": 1,
	"start": 0,
	"results": [
		{
			"number": 326701,
			"data": "0,1,2,3,4,8,9,10,11,12,16,18,32,33,64,128,129,130,131,132,136,137,138,139,140,144,146,160,161,192,256,258,264,266,288,512,513,520,521,528,1024,1032,2048,2049,2050,2051,2052,4096,4098,8192,8193,16384,32768,32769",
			"name": "BII-numbers of set partitions.",
			"comment": [
				"A binary index of n is any position of a 1 in its reversed binary expansion. We define the set-system with BII-number n to be obtained by taking the binary indices of each binary index of n. For example, 18 has reversed binary expansion (0,1,0,0,1), and since the binary indices of 2 and 5 are {2} and {1,3} respectively, and {{2},{1,3}} is a set partition, it follows that 18 belongs to the sequence."
			],
			"example": [
				"The sequence of all set partitions together with their BII numbers begins:",
				"    0: {}",
				"    1: {{1}}",
				"    2: {{2}}",
				"    3: {{1},{2}}",
				"    4: {{1,2}}",
				"    8: {{3}}",
				"    9: {{1},{3}}",
				"   10: {{2},{3}}",
				"   11: {{1},{2},{3}}",
				"   12: {{1,2},{3}}",
				"   16: {{1,3}}",
				"   18: {{2},{1,3}}",
				"   32: {{2,3}}",
				"   33: {{1},{2,3}}",
				"   64: {{1,2,3}}",
				"  128: {{4}}",
				"  129: {{1},{4}}",
				"  130: {{2},{4}}",
				"  131: {{1},{2},{4}}",
				"  132: {{1,2},{4}}",
				"  136: {{3},{4}}"
			],
			"mathematica": [
				"bpe[n_]:=Join@@Position[Reverse[IntegerDigits[n,2]],1];",
				"Select[Range[0,1000],UnsameQ@@Join@@bpe/@bpe[#]\u0026]"
			],
			"xref": [
				"MM-numbers of set partitions are A302521.",
				"BII-numbers of chains of nonempty sets are A326703.",
				"BII-numbers of antichains of nonempty sets are A326704.",
				"Cf. A000120, A029931, A035327, A048793, A070939, A291166, A326031, A326675, A326702."
			],
			"keyword": "nonn",
			"offset": "1,3",
			"author": "_Gus Wiseman_, Jul 21 2019",
			"references": 26,
			"revision": 6,
			"time": "2019-07-27T14:57:51-04:00",
			"created": "2019-07-21T22:02:06-04:00"
		}
	]
}