{
	"greeting": "Greetings from The On-Line Encyclopedia of Integer Sequences! http://oeis.org/",
	"query": "id:A327158",
	"count": 1,
	"start": 0,
	"results": [
		{
			"number": 327158,
			"data": "1,6,60,90,87360",
			"name": "Unitary multiply-perfect numbers: n divides usigma(n), where usigma is the sum of unitary divisors of n (A034448).",
			"comment": [
				"10^13 \u003c a(6) \u003c= 146361946186458562560000. - _Giovanni Resta_, Aug 29 2019"
			],
			"link": [
				"Peter Hagis, Jr., \u003ca href=\"https://www.fq.math.ca/Scanned/25-2/hagis.pdf\"\u003eLower bounds for unitary multiperfect numbers\u003c/a\u003e, Fibonacci Quarterly, Vol. 22, No. 2 (1984), pp. 140-143."
			],
			"program": [
				"(PARI)",
				"A034448(n) = { my(f=factorint(n)); prod(k=1, #f~, 1+(f[k, 1]^f[k, 2])); }; \\\\ After code in A034448",
				"isA327158(n) = (gcd(n,A034448(n))==n);"
			],
			"xref": [
				"Fixed points of A323166, positions of zeros in A327164.",
				"Cf. A002827 (a subsequence), A034448, A327163.",
				"Cf. also A007691."
			],
			"keyword": "nonn,more",
			"offset": "1,2",
			"author": "_Antti Karttunen_, Aug 28 2019",
			"references": 8,
			"revision": 15,
			"time": "2019-09-05T20:48:10-04:00",
			"created": "2019-09-05T20:48:10-04:00"
		}
	]
}