{
	"greeting": "Greetings from The On-Line Encyclopedia of Integer Sequences! http://oeis.org/",
	"query": "id:A327965",
	"count": 1,
	"start": 0,
	"results": [
		{
			"number": 327965,
			"data": "0,0,1,1,1,1,5,1,3,6,7,1,1,1,9,2,2,1,21,1,6,10,13,1,11,10,15,1,2,1,31,1,5,14,19,3,15,1,21,1,17,1,41,1,3,39,25,1,7,14,45,5,14,1,3,1,23,22,31,1,23,1,33,51,3,18,61,1,18,26,59,1,39,1,39,55,5,18,71,1,11,1,43,1,31,22,45,2,35,1,123,5,6",
			"name": "\"Tamed variant\" of arithmetic derivative: a(0) = a(1) = 0; for n \u003e 1, a(n) = A327938(A003415(n)).",
			"comment": [
				"Applying A327938 to the result of A003415(n) ensures that all terms stay in A048103, and that all iteration paths will (hopefully) terminate in zero. See A327966."
			],
			"link": [
				"Antti Karttunen, \u003ca href=\"/A327965/b327965.txt\"\u003eTable of n, a(n) for n = 0..20000\u003c/a\u003e",
				"Antti Karttunen, \u003ca href=\"/A327965/a327965.txt\"\u003eData supplement: n, a(n) computed for n = 0..100000\u003c/a\u003e"
			],
			"formula": [
				"a(0) = a(1) = 0; for n \u003e 1, a(n) = A327938(A003415(n))."
			],
			"program": [
				"(PARI)",
				"A003415(n) = {my(fac); if(n\u003c1, 0, fac=factor(n); sum(i=1, matsize(fac)[1], n*fac[i, 2]/fac[i, 1]))}; \\\\ From A003415",
				"A327938(n) = { my(f = factor(n)); for(k=1, #f~, f[k,2] = (f[k,2]%f[k,1])); factorback(f); };",
				"A327965(n) = if(n\u003c=1,0,A327938(A003415(n)));"
			],
			"xref": [
				"Cf. A003415, A048103, A327938, A327966, A327967.",
				"Cf. also A327859."
			],
			"keyword": "nonn",
			"offset": "0,7",
			"author": "_Antti Karttunen_, Oct 01 2019",
			"references": 13,
			"revision": 13,
			"time": "2019-10-01T19:51:47-04:00",
			"created": "2019-10-01T19:51:47-04:00"
		}
	]
}