{
	"greeting": "Greetings from The On-Line Encyclopedia of Integer Sequences! http://oeis.org/",
	"query": "id:A327882",
	"count": 1,
	"start": 0,
	"results": [
		{
			"number": 327882,
			"data": "1,1,4,72,2880,201600,21772800,3353011200,697426329600,188305108992000,64023737057280000,26761922089943040000,13488008733331292160000,8065829222532112711680000,5646080455772478898176000000,4573325169175707907522560000000,4244045756995056938180935680000000",
			"name": "a(n) = n*(2*(n-1))! for n \u003e 0, a(0) = 1.",
			"comment": [
				"Even denominators of coefficients in Taylor series expansion of 2 - 2*cos(x) - 2*x*sin(x) + x^2.",
				"Equivalent to the even denominators of expansion of (1 - cos(x)^2 + (x-sin(x))^2, which is the square of the secant length measured from the origin (0,0) to the cycloid point (1-cos(x), x-sin(x)). Note that only x^4 has the first nonzero coefficient of the series.",
				"Numerators of the Taylor series expansion are given by A327883.",
				"The Taylor series itself has an expansion Sum_{k\u003e=2} (-1)^k*2*(2*k-1)/(2*k)!*x^(2*k)."
			],
			"formula": [
				"a(n) = (2*n)!/(2*(2*n-1)) for n \u003e= 1.",
				"a(n) = A171005(2*n-1) for n \u003e= 2. - _Andrew Howroyd_, Oct 09 2019",
				"a(n) = (1/2)*(2*n)!*[x^(2*n)](1 + x*arctanh(x)) for n \u003e 0. - _Peter Luschny_, Oct 09 2019"
			],
			"example": [
				"2 + x^2 - 2*cos(x) - 2*x*sin(x) = (1/4)*x^4 - (1/72)*x^6 + (1/2880)*x^8 - (1/201600)*x^10 + (1/21772800)*x^12 - ..."
			],
			"mathematica": [
				"Denominator[CoefficientList[ Series[2 - 2 Cos[x] - (2 x) Sin[x] + x^2, {x, 0, 33}], x][[ ;; ;; 2]]]"
			],
			"program": [
				"(PARI) a(n) = {if(n\u003c1, n==0, (2*n)!/(2*(2*n-1)))} \\\\ _Andrew Howroyd_, Oct 09 2019"
			],
			"xref": [
				"Cf. A052558, A171005."
			],
			"keyword": "nonn",
			"offset": "0,3",
			"author": "_Bruno Zürcher_, Sep 28 2019",
			"references": 0,
			"revision": 20,
			"time": "2019-10-10T15:08:57-04:00",
			"created": "2019-10-10T15:08:57-04:00"
		}
	]
}