{
	"greeting": "Greetings from The On-Line Encyclopedia of Integer Sequences! http://oeis.org/",
	"query": "id:A327951",
	"count": 1,
	"start": 0,
	"results": [
		{
			"number": 327951,
			"data": "3,8,2,6,0,8",
			"name": "Decimal expansion of neutron g factor, negated.",
			"comment": [
				"This dimensionless constant measures the neutron's magnetic moment and angular momentum. - _Charles R Greathouse IV_, Oct 15 2021"
			],
			"link": [
				"NIST, \u003ca href=\"https://physics.nist.gov/cgi-bin/cuu/Value?gnn#mid\"\u003eCODATA Value: neutron g factor\u003c/a\u003e",
				"Wikipedia, \u003ca href=\"https://en.wikipedia.org/wiki/G-factor_(physics)\"\u003eg-factor (physics)\u003c/a\u003e"
			],
			"example": [
				"-3.82608545(90)."
			],
			"xref": [
				"Cf. A003675, A006833, A230848, A254289, A276558, A327949, A327950."
			],
			"keyword": "nonn,cons,more",
			"offset": "1,1",
			"author": "_Felix Fröhlich_, Sep 30 2019",
			"references": 1,
			"revision": 11,
			"time": "2021-10-16T06:11:00-04:00",
			"created": "2019-10-08T22:20:12-04:00"
		}
	]
}