{
	"greeting": "Greetings from The On-Line Encyclopedia of Integer Sequences! http://oeis.org/",
	"query": "id:A327645",
	"count": 1,
	"start": 0,
	"results": [
		{
			"number": 327645,
			"data": "1,1,6,88,2489,112669,8204101,799422247,109633217402,19157475773052,4260985739868007,1161511740640164091,388990633971649889649,152369510393132343133762,70914541309488196549283707,38152280583855500772704976704,23639325145221113389859164367779",
			"name": "Number of proper n-times partitions of 2n.",
			"comment": [
				"In each step at least one part is replaced by the partition of itself into smaller parts. The parts are not resorted."
			],
			"link": [
				"Alois P. Heinz, \u003ca href=\"/A327645/b327645.txt\"\u003eTable of n, a(n) for n = 0..232\u003c/a\u003e"
			],
			"formula": [
				"a(n) = A327639(2n,n)."
			],
			"example": [
				"a(2) = 6: 4-\u003e31-\u003e211, 4-\u003e31-\u003e1111, 4-\u003e22-\u003e112, 4-\u003e22-\u003e211, 4-\u003e22-\u003e1111, 4-\u003e211-\u003e1111."
			],
			"maple": [
				"b:= proc(n, i, k) option remember; `if`(n=0 or k=0, 1, `if`(i\u003e1,",
				"      b(n, i-1, k), 0) +b(i$2, k-1)*b(n-i, min(n-i, i), k))",
				"    end:",
				"a:= n-\u003e add(b(2*n$2, i)*(-1)^(n-i)*binomial(n, i), i=0..n):",
				"seq(a(n), n=0..17);"
			],
			"mathematica": [
				"b[n_, i_, k_] := b[n, i, k] = If[n == 0 || k == 0, 1, If[i \u003e 1, b[n, i - 1, k], 0] + b[i, i, k - 1] b[n - i, Min[n - i, i], k]];",
				"a[n_] := Sum[b[2n, 2n, i] (-1)^(n - i) Binomial[n, i], {i, 0, n}];",
				"a /@ Range[0, 17] (* _Jean-François Alcover_, Dec 18 2020, after _Alois P. Heinz_ *)"
			],
			"xref": [
				"Cf. A327639."
			],
			"keyword": "nonn",
			"offset": "0,3",
			"author": "_Alois P. Heinz_, Sep 20 2019",
			"references": 2,
			"revision": 9,
			"time": "2020-12-18T04:01:04-05:00",
			"created": "2019-09-20T17:23:16-04:00"
		}
	]
}