{
	"greeting": "Greetings from The On-Line Encyclopedia of Integer Sequences! http://oeis.org/",
	"query": "id:A327573",
	"count": 1,
	"start": 0,
	"results": [
		{
			"number": 327573,
			"data": "1,3,5,7,9,13,15,19,21,25,27,31,33,37,41,43,45,49,51,55,59,63,65,73,75,79,83,87,89,97,99,103,107,111,115,119,121,125,129,137,139,147,149,153,157,161,163,167,169,173,177,181,183,191,195,203,207,211,213,221",
			"name": "Partial sums of the number of infinitary divisors function: a(n) = Sum_{k=1..n} id(k), where id is A037445.",
			"comment": [
				"Differs from A306069 at n \u003e= 16."
			],
			"reference": [
				"Steven R. Finch, Mathematical Constants II, Cambridge University Press, 2018, section 1.7.5, pp. 53-54."
			],
			"link": [
				"Amiram Eldar, \u003ca href=\"/A327573/b327573.txt\"\u003eTable of n, a(n) for n = 1..10000\u003c/a\u003e",
				"Graeme L. Cohen and Peter Hagis, Jr., \u003ca href=\"http://dx.doi.org/10.1155/S0161171293000456\"\u003eArithmetic functions associated with infinitary divisors of an integer\u003c/a\u003e, International Journal of Mathematics and Mathematical Sciences, Vol. 16, No. 2 (1993), pp. 373-383."
			],
			"formula": [
				"a(n) ~ 2 * c * n * log(n), where c = 0.366625... (A327576). [Corrected by _Amiram Eldar_, May 07 2021]"
			],
			"mathematica": [
				"f[p_, e_] := 2^DigitCount[e, 2, 1]; id[1] = 1; id[n_] := Times @@ (f @@@ FactorInteger[n]); Accumulate[Array[id, 100]]"
			],
			"xref": [
				"Cf. A037445, A327576.",
				"Cf. A006218 (all divisors), A064608 (unitary), A306069 (bi-unitary), A145353 (exponential)."
			],
			"keyword": "nonn",
			"offset": "1,2",
			"author": "_Amiram Eldar_, Sep 17 2019",
			"references": 4,
			"revision": 13,
			"time": "2021-05-07T08:45:35-04:00",
			"created": "2019-09-17T08:26:32-04:00"
		}
	]
}