{
	"greeting": "Greetings from The On-Line Encyclopedia of Integer Sequences! http://oeis.org/",
	"query": "id:A327634",
	"count": 1,
	"start": 0,
	"results": [
		{
			"number": 327634,
			"data": "1,2,3,4,5,6,8,10,12,14,18,21,22,24,30,40,42,54,66,72,78,88,96,102,114,120,168,210,216,264,312,330,360,378,384,408,456,480,510,546,552,600,672,690,696,744,840,1080,1320,1512,1560,1848,1920,2040,2184,2280,2688",
			"name": "Infinitary highly abundant numbers: numbers m such that isigma(m) \u003e isigma(k) for all k \u003c m, where isigma(k) is the sum of infinitary divisors of n (A049417).",
			"comment": [
				"The infinitary version of A002093."
			],
			"link": [
				"Amiram Eldar, \u003ca href=\"/A327634/b327634.txt\"\u003eTable of n, a(n) for n = 1..930\u003c/a\u003e"
			],
			"example": [
				"The first 10 values of isigma(k) for k = 1 to 10 are: 1, 3, 4, 5, 6, 12, 8, 15, 10, 18. Record values are reached for all these values of k except for 7 and 9, therefore the sequence begins with 1, 2, 3, 4, 5, 6, 8, 10, ..."
			],
			"mathematica": [
				"f[p_, e_] := p^(2^(-1 + Position[Reverse @ IntegerDigits[e, 2], _?(# == 1 \u0026)])); isigma[1] = 1; isigma[n_] := Times @@ (Flatten @ (f @@@ FactorInteger[n]) + 1); seq = {};sm = 0; Do[s = isigma[n]; If[s \u003e sm, sm = s; AppendTo[seq, n]], {n, 1, 10^4}]; seq"
			],
			"xref": [
				"Cf. A002093, A037992, A049417, A285614, A292983."
			],
			"keyword": "nonn,look",
			"offset": "1,2",
			"author": "_Amiram Eldar_, Sep 20 2019",
			"references": 6,
			"revision": 11,
			"time": "2019-09-20T21:08:40-04:00",
			"created": "2019-09-20T08:59:04-04:00"
		}
	]
}