{
	"greeting": "Greetings from The On-Line Encyclopedia of Integer Sequences! http://oeis.org/",
	"query": "id:A327757",
	"count": 1,
	"start": 0,
	"results": [
		{
			"number": 327757,
			"data": "1,-1,1,-1,0,1,-1,2,-1,0,0,-2,2,-2,2,0,-2,3,-5,4,-2,0,4,-6,7,-6,4,1,-4,8,-10,8,-4,-2,9,-13,14,-12,3,4,-14,20,-21,17,-8,-6,19,-28,31,-23,10,10,-28,41,-41,32,-10,-16,40,-58,58,-44,13,24,-61,81,-84,59,-16,-37,84",
			"name": "Expansion of Product_{k\u003e=1} (1 - x^k)^(3/k), where (m/n) is the Kronecker symbol.",
			"link": [
				"Seiichi Manyama, \u003ca href=\"/A327757/b327757.txt\"\u003eTable of n, a(n) for n = 0..1000\u003c/a\u003e",
				"Eric Weisstein's World of Mathematics, \u003ca href=\"http://mathworld.wolfram.com/KroneckerSymbol.html\"\u003eKronecker Symbol\u003c/a\u003e"
			],
			"program": [
				"(PARI) N=66; x='x+O('x^N); Vec(prod(k=1, N, (1-x^k)^kronecker(3, k)))"
			],
			"xref": [
				"Product_{k\u003e=1} (1 - x^k)^(b/k): A092869 (b=2), A081362 (b=4), A007325 (b=5), A092876 (b=13).",
				"Cf. A091338, A327758."
			],
			"keyword": "sign,look",
			"offset": "0,8",
			"author": "_Seiichi Manyama_, Sep 24 2019",
			"references": 2,
			"revision": 19,
			"time": "2019-09-24T17:33:49-04:00",
			"created": "2019-09-24T12:36:46-04:00"
		}
	]
}