{
	"greeting": "Greetings from The On-Line Encyclopedia of Integer Sequences! http://oeis.org/",
	"query": "id:A327067",
	"count": 1,
	"start": 0,
	"results": [
		{
			"number": 327067,
			"data": "1,1,3,6,15,26,57,101,202,358,670,1165,2113,3614,6326,10691,18275,30408,50969,83716,137943,223883,363547,583369,935524,1485673,2355496,3705275,5815497,9066696,14100325,21802824,33622951,51592978,78949673,120278899,182742752",
			"name": "Expansion of Product_{k\u003e=1} (Product_{j=1..k} 1/(1 - x^(k*j))^k).",
			"link": [
				"Vaclav Kotesovec, \u003ca href=\"/A327067/b327067.txt\"\u003eTable of n, a(n) for n = 0..10000\u003c/a\u003e"
			],
			"mathematica": [
				"nmax = 40; CoefficientList[Series[Product[Product[1/(1-x^(k*j))^k, {j, 1, Min[k, nmax/k]}], {k, 1, nmax}], {x, 0, nmax}], x]"
			],
			"xref": [
				"Cf. A000294, A061256, A182269, A279216, A280540, A327064, A327066, A327068."
			],
			"keyword": "nonn",
			"offset": "0,3",
			"author": "_Vaclav Kotesovec_, Aug 19 2019",
			"references": 4,
			"revision": 7,
			"time": "2019-08-21T15:49:01-04:00",
			"created": "2019-08-19T06:24:13-04:00"
		}
	]
}