{
	"greeting": "Greetings from The On-Line Encyclopedia of Integer Sequences! http://oeis.org/",
	"query": "id:A327309",
	"count": 1,
	"start": 0,
	"results": [
		{
			"number": 327309,
			"data": "2,4,6,11,13,15,20,22,24,26,31,33,35,40,42,44,46,51,53,55,60,62,64,71,73,75,80,82,84,91,93,95,100,102,104,109,111,113,115,120,122,124,129,131,133,135,140,142,144,149,151,153,155,160,162,164,169,171,173",
			"name": "Positions of 2's in {A327306(n) : n \u003e 0}.",
			"comment": [
				"The positive integers are partitioned by A327307, A327308, and A327309.",
				"Although a(n)/n-\u003e3, the sequence a(n)-3n appears to be unbounded.",
				"Positive integers k such that A327306(k) = 2. - _Jianing Song_, Sep 30 2019"
			],
			"link": [
				"Clark Kimberling and Jianing Song, \u003ca href=\"/A327309/b327309.txt\"\u003eTable of n, a(n) for n = 1..10000\u003c/a\u003e"
			],
			"mathematica": [
				"r = Sqrt[6]; z = 300;",
				"t = Table[Floor[3 n*r] - 3 Floor[n*r], {n, 1, z}]  (* {A327306(n) : n \u003e 0} *)",
				"Flatten[Position[t, 0]]  (* A327307 *)",
				"Flatten[Position[t, 1]]  (* A327308 *)",
				"Flatten[Position[t, 2]]  (* A327309 *)"
			],
			"xref": [
				"Cf. A327306, A327307, A327308."
			],
			"keyword": "nonn,easy",
			"offset": "1,1",
			"author": "_Clark Kimberling_, Sep 07 2019",
			"ext": [
				"Corrected by _Jianing Song_, Sep 30 2019"
			],
			"references": 5,
			"revision": 15,
			"time": "2019-09-30T10:47:23-04:00",
			"created": "2019-09-09T01:19:30-04:00"
		}
	]
}