{
	"greeting": "Greetings from The On-Line Encyclopedia of Integer Sequences! http://oeis.org/",
	"query": "id:A327771",
	"count": 1,
	"start": 0,
	"results": [
		{
			"number": 327771,
			"data": "2546,2410496,508344041,48286178405,2734250190712,106823899382728,3143746885297470,73830872731991927,1440681502991063990,24058683492974200054,351628923073820626951,4577202012225445531319,53811955397591074514675,577896157936323089053580",
			"name": "a(n) = p(49*n + 47)/49, where p(k) denotes the k-th partition number (i.e., A000041).",
			"comment": [
				"Watson (1938), p. 120, proved that p(7*n + 5) == 0 (mod 7) and p(49*n + 47) == 0 (mod 49) for n \u003e= 0, where p() = A000041(). For more general congruence results modulo a power of 7 by George Neville Watson regarding the partition function, see A327582 and A327770."
			],
			"link": [
				"G. N. Watson, \u003ca href=\"http://www.digizeitschriften.de/dms/resolveppn/?PID=GDZPPN002174499\"\u003eRamanujans Vermutung über Zerfällungsanzahlen\u003c/a\u003e, J. Reine Angew. Math. (Crelle), 179 (1938), 97-128; see p. 120.",
				"Eric Weisstein's World of Mathematics, \u003ca href=\"http://mathworld.wolfram.com/PartitionFunctionPCongruences.html\"\u003ePartition Function P Congruences\u003c/a\u003e.",
				"Wikipedia, \u003ca href=\"https://en.wikipedia.org/wiki/G._N._Watson\"\u003eG. N. Watson\u003c/a\u003e."
			],
			"formula": [
				"a(n) = A000041(49*n + 47)/49."
			],
			"mathematica": [
				"Table[PartitionsP[49n+47]/49,{n, 0, 13}] (* _Metin Sariyar_, Sep 25 2019 *)"
			],
			"program": [
				"(PARI) a(n) = numbpart(49*n + 47)/49; \\\\ _Michel Marcus_, Sep 25 2019"
			],
			"xref": [
				"Cf. A000041, A052462, A052463, A052465, A052466, A071746, A213261, A327714, A327582, A327770."
			],
			"keyword": "nonn",
			"offset": "0,1",
			"author": "_Petros Hadjicostas_, Sep 24 2019",
			"references": 0,
			"revision": 23,
			"time": "2019-09-26T01:56:00-04:00",
			"created": "2019-09-26T01:56:00-04:00"
		}
	]
}