{
	"greeting": "Greetings from The On-Line Encyclopedia of Integer Sequences! http://oeis.org/",
	"query": "id:A327007",
	"count": 1,
	"start": 0,
	"results": [
		{
			"number": 327007,
			"data": "0,1,2,1,2,2,2,3,2,2,2,3,3,3,3,3,3,3,3,3,3,3,3,4,3,3,3,3,3,3,3,4,4,4,4,3,3,3,3,4,4,4,4,4,4,4,4,5,4,4,4,4,4,4,4,4,4,4,4,4,4,4,5,4,4,4,4,4,4,4,4,4,4,4,4,4,5,5,5,5,4,4,4,4,4,4,4,4,4,4,5,5,5,5,5,5,5,5,5,4",
			"name": "a(n) = number of iterations of f(x)=floor((x^2+n)/(2x)) starting at x=n to reach the value floor(sqrt(n)) (=A000196(n)).",
			"comment": [
				"Also, we have f(x) = floor((x + floor(n/x))/2).",
				"Notice that f(n) = f(1) = floor((n+1)/2), and so the starting value x = 1 gives the same sequence.",
				"Iterations f(f(...f(a))...) reach floor(sqrt(n)) for any starting integer a \u003e= 1. They either stabilize to floor(sqrt(n)) or alternate between floor(sqrt(n)) and ceiling(sqrt(n))."
			],
			"program": [
				"(PARI) { A327007(n,a=n) = my(k = 0); while(1, my(b = (a+n\\a)\\2); if(b \u003e= a,break); a = b; k++); k; }"
			],
			"xref": [
				"Cf. A000196, A327008, A327009, A327010."
			],
			"keyword": "nonn",
			"offset": "1,3",
			"author": "_Max Alekseyev_, Aug 12 2019",
			"references": 4,
			"revision": 8,
			"time": "2019-08-12T23:26:25-04:00",
			"created": "2019-08-12T23:26:25-04:00"
		}
	]
}