{
	"greeting": "Greetings from The On-Line Encyclopedia of Integer Sequences! http://oeis.org/",
	"query": "id:A327796",
	"count": 1,
	"start": 0,
	"results": [
		{
			"number": 327796,
			"data": "1,6,9,17,21,23,25,32,37,40,91,107,118,143,154,66,77,89,94,98,109,392,455,507,513,552,560,595,145,163,173,177,197,207,218,230,233,255,273,310,325,335,357,378,390,462,498,539,561,623,658,686,711,717,763",
			"name": "Values of x in the n solutions corresponding to the least number A300419(n) expressible in exactly n ways as x^2 + x*y + y^2 with x \u003e= y \u003e= 1, with x written as triangle T(n,k), k \u003c= n. y is given in A327797.",
			"comment": [
				"A combined table for the solutions corresponding to A300419(n) was provided by _Robert G. Wilson v_ as a text file, see link."
			],
			"link": [
				"Hugo Pfoertner, \u003ca href=\"/A327796/b327796.txt\"\u003eTable of n, a(n) for n = 1..171\u003c/a\u003e, rows 1..18 of triangle, flattened",
				"Robert G. Wilson v, \u003ca href=\"/A300419/a300419.txt\"\u003eSolutions of a(n) for n \u003c= 16\u003c/a\u003e"
			],
			"example": [
				"The triangle begins",
				"    1,",
				"    6,   9,",
				"   17,  21,  23,",
				"   25,  32,  37,  40,",
				"   91, 107, 118, 143, 154,",
				"   66,  77,  89,  94,  98, 109,",
				"  392, 455, 507, 513, 552, 560, 595,",
				"  145, 163, 173, 177, 197, 207, 218, 230",
				".",
				"T(3,1)=17, T(3,2)=21, T(3,3)=23 because",
				"A300419(3) = 637 corresponds to the 3 solutions",
				"637 = 17^2 + 17*12 + 12^2 = 21^2 + 21*7 + 7^2 = 23^2 + 23*4 + 4^2, using the y-values 12, 7, 4 from A327797."
			],
			"xref": [
				"Cf. A300419, A327797."
			],
			"keyword": "nonn,tabl",
			"offset": "1,2",
			"author": "_Hugo Pfoertner_, Sep 25 2019",
			"references": 3,
			"revision": 14,
			"time": "2021-07-31T22:55:19-04:00",
			"created": "2019-09-25T20:33:31-04:00"
		}
	]
}