{
	"greeting": "Greetings from The On-Line Encyclopedia of Integer Sequences! http://oeis.org/",
	"query": "id:A328056",
	"count": 1,
	"start": 0,
	"results": [
		{
			"number": 328056,
			"data": "313,523,733,823,824,943,944,973,1153,1363,1573,1753,1783,1813,1993,2143,2413,2473,2623,2803,3043,3133,3134,3253,3313,3463,3703,3883,4093,4123,4303,4387,4388,4513,4723,4873,4874,4933,5113,5143,5353,5443,5444,5563,5564",
			"name": "Numbers k such that phi(k) \u003e phi(k+1) \u003e phi(k+2) where phi is the Euler totient function (A000010).",
			"comment": [
				"Contains all members k of A206581 such that k==103 (mod 210) except 103.- _Robert Israel_, Oct 16 2019"
			],
			"link": [
				"Robert Israel, \u003ca href=\"/A328056/b328056.txt\"\u003eTable of n, a(n) for n = 1..10000\u003c/a\u003e"
			],
			"example": [
				"313 is in the sequence since phi(313) = 312, phi(314) = 156, phi(315) = 144, and 312 \u003e 156 \u003e 144."
			],
			"maple": [
				"R:= NULL: count:= 0:",
				"q:= false: s:= 0:",
				"for i from 1 while count \u003c 100 do",
				"  t:= numtheory:-phi(i);",
				"  r:= q;",
				"  q:= evalb(t\u003cs);",
				"  if r and q then count:= count+1; R:= R, i-2 fi;",
				"  s:= t;",
				"od:",
				"R; # _Robert Israel_, Oct 16 2019"
			],
			"mathematica": [
				"Flatten[Position[Partition[EulerPhi[Range[5600]], 3, 1], _?(Max[Differences[#]] \u003c 0 \u0026)] // Quiet] (* _Amiram Eldar_, Oct 06 2019 after _Harvey P. Dale_ at A078776 *)"
			],
			"program": [
				"(MAGMA) [k:k in [1..5600]| EulerPhi(k) gt EulerPhi(k+1) and EulerPhi(k+1) gt EulerPhi(k+2)]; // _Marius A. Burtea_, Oct 07 2019"
			],
			"xref": [
				"Cf. A000010, A078776, A161962, A161963, A206581, A327880.",
				"Supersequence of A326817."
			],
			"keyword": "nonn",
			"offset": "1,1",
			"author": "_Kritsada Moomuang_, Oct 03 2019",
			"references": 2,
			"revision": 21,
			"time": "2019-10-27T16:37:28-04:00",
			"created": "2019-10-14T12:17:38-04:00"
		}
	]
}