{
	"greeting": "Greetings from The On-Line Encyclopedia of Integer Sequences! http://oeis.org/",
	"query": "id:A328074",
	"count": 1,
	"start": 0,
	"results": [
		{
			"number": 328074,
			"data": "1,12,16,16,40,52,96,84,72,92,128,104,68,104,112,148,168,140,136,248,208,264,264,284,264,364,384,412,328,404,400,496,392,408,416,424,372,408,456,468,468,504,540,576,572,616,608,616,576,616,556,576,620,612",
			"name": "Coordination sequence for a certain multiscale substitution tiling of the plane by squares.",
			"comment": [
				"This substitution rule dissects the unit square into a central square of side 3/5 and 16 surrounding squares of side 1/5.",
				"What is the limiting shape of the contours (if it exists)?",
				"From _Lars Blomberg_, Oct 18 2019: (Start)",
				"Let s be the size of a square. The substitution rule is to replace it by one central square (size s*3/5) and sixteen smaller squares around it (size s*1/5).",
				"Start with a single square as generation 0.",
				"For each new generation first substitute the central square, let c be the size of the new central square.",
				"Then substitute all non-central squares with size \u003e= c. Repeat the last step if required. (End)"
			],
			"link": [
				"Lars Blomberg, \u003ca href=\"/A328074/b328074.txt\"\u003eTable of n, a(n) for n = 0..596\u003c/a\u003e",
				"Lars Blomberg, \u003ca href=\"/A328074/a328074.png\"\u003eIllustration of coordination sequence for generation 12\u003c/a\u003e",
				"Yotam Smilansky, \u003ca href=\"https://vimeo.com/364312799\"\u003ePatterns and Partitions\u003c/a\u003e, Experimental Mathematics Seminar, Rutgers University, Oct 03 2019.",
				"Yotam Smilansky, \u003ca href=\"/A328074/a328074.pdf\"\u003eCentral portion of the tiling.\u003c/a\u003e",
				"Yotam Smilansky, \u003ca href=\"/A328074/a328074_1.pdf\"\u003eColored picture of central portion of tiling showing contours.\u003c/a\u003e",
				"Yotam Smilansky, Yaar Solomon, \u003ca href=\"https://arxiv.org/abs/2003.11735\"\u003eMultiscale Substitution Tilings\u003c/a\u003e, arXiv:2003.11735 [math.DS], 2020."
			],
			"keyword": "nonn",
			"offset": "0,2",
			"author": "_N. J. A. Sloane_, Oct 07 2019, based on an email message from _Yotam Smilansky_",
			"ext": [
				"More terms from _Lars Blomberg_, Oct 18 2019"
			],
			"references": 3,
			"revision": 32,
			"time": "2020-03-28T10:12:32-04:00",
			"created": "2019-10-07T09:42:29-04:00"
		}
	]
}