{
	"greeting": "Greetings from The On-Line Encyclopedia of Integer Sequences! http://oeis.org/",
	"query": "id:A328547",
	"count": 1,
	"start": 0,
	"results": [
		{
			"number": 328547,
			"data": "1,2,5,8,16,26,44,68,108,162,245,356,521,740,1053,1468,2045,2804,3836,5184,6988,9326,12409,16376,21546,28154,36674,47492,61317,78764,100880,128628,163553,207134,261630,329288,413395,517316,645803,803844,998282",
			"name": "Number of 3-regular bipartitions of n.",
			"reference": [
				"Kathiravan, T., and S. N. Fathima. \"On L-regular bipartitions modulo L.\" The Ramanujan Journal 44.3 (2017): 549-558."
			],
			"maple": [
				"f:=(k,M) -\u003e mul(1-q^(k*j),j=1..M);",
				"LRBP := (L,M) -\u003e (f(L,M)/f(1,M))^2;",
				"S := L -\u003e seriestolist(series(LRBP(L,80),q,60));",
				"S(3);"
			],
			"xref": [
				"Number of r-regular bipartitions of n for r = 2,3,4,5,6: A022567, A328547, A001936, A263002, A328548."
			],
			"keyword": "nonn",
			"offset": "0,2",
			"author": "_N. J. A. Sloane_, Oct 19 2019",
			"references": 5,
			"revision": 5,
			"time": "2019-10-20T09:46:05-04:00",
			"created": "2019-10-20T09:46:05-04:00"
		}
	]
}