{
	"greeting": "Greetings from The On-Line Encyclopedia of Integer Sequences! http://oeis.org/",
	"query": "id:A328119",
	"count": 1,
	"start": 0,
	"results": [
		{
			"number": 328119,
			"data": "0,1,2,3,4,5,9,10,11,13,14,15,16,17,18,19,20,21,22,23,24,25,26,27,28,29,41,44,45,46,47,48,49,50,51,52,53,54,55,56,57,58,59,69,70,71,73,74,75,76,77,78,79,80,81,82,83,84,85,86,87,88,89,94,95,97,98,99,100,101,102,103,104,105,106,107,108,109,110",
			"name": "Numbers n for which A276086(n) \u003e A002620(n).",
			"link": [
				"Antti Karttunen, \u003ca href=\"/A328119/b328119.txt\"\u003eTable of n, a(n) for n = 1..10000\u003c/a\u003e"
			],
			"program": [
				"(PARI)",
				"A002620(n) = ((n^2)\u003e\u003e2);",
				"A276086(n) = { my(i=0,m=1,pr=1,nextpr); while((n\u003e0),i=i+1; nextpr = prime(i)*pr; if((n%nextpr),m*=(prime(i)^((n%nextpr)/pr));n-=(n%nextpr));pr=nextpr); m; };",
				"isA328119(n) = (A276086(n) \u003e A002620(n));"
			],
			"xref": [
				"Cf. A002620, A276086.",
				"Cf. A328118 (complement)."
			],
			"keyword": "nonn",
			"offset": "1,3",
			"author": "_Antti Karttunen_, Oct 08 2019",
			"references": 2,
			"revision": 5,
			"time": "2019-10-08T16:27:00-04:00",
			"created": "2019-10-08T16:27:00-04:00"
		}
	]
}