{
	"greeting": "Greetings from The On-Line Encyclopedia of Integer Sequences! http://oeis.org/",
	"query": "id:A328564",
	"count": 1,
	"start": 0,
	"results": [
		{
			"number": 328564,
			"data": "0,0,0,1,0,3,2,4,0,7,6,13,4,14,8,11,0,15,14,30,12,41,26,39,8,38,28,49,16,41,22,26,0,31,30,63,28,92,60,91,24,109,82,142,52,135,78,101,16,94,76,139,56,159,98,138,32,117,82,133,44,100,52,57,0,63,62",
			"name": "a(n) is the sum of the elements of the set A_n = {(n-k) AND k, k = 0..n} (where AND denotes the bitwise AND operator).",
			"comment": [
				"The number of elements of the set A_n appears to be A002487(n+1); a(-1) = 0 as A_{-1} is the empty set.",
				"Row sums of A326819."
			],
			"link": [
				"Rémy Sigrist, \u003ca href=\"/A328564/b328564.txt\"\u003eTable of n, a(n) for n = -1..8192\u003c/a\u003e",
				"Rémy Sigrist, \u003ca href=\"/A328564/a328564.png\"\u003eScatterplot of (x, y) where x = 0..1023 and y belongs to A_x\u003c/a\u003e"
			],
			"formula": [
				"a(n) \u003c= A006581(n).",
				"Apparently, a(n) + A328565(n) = A328566(n)."
			],
			"maple": [
				"a:= n-\u003e add(i, i={seq(Bits[And](n-k, k), k=0..n)}):",
				"seq(a(n), n=-1..80);  # _Alois P. Heinz_, Oct 20 2019"
			],
			"program": [
				"(PARI) a(n) = vecsum(Set(apply(k -\u003e bitand(k, n-k), [0..n])))"
			],
			"xref": [
				"Cf. A328565 (XOR variant), A328566 (OR variant).",
				"Cf. A002487, A006581, A326819."
			],
			"keyword": "nonn,look,base",
			"offset": "-1,6",
			"author": "_Rémy Sigrist_, Oct 20 2019",
			"references": 4,
			"revision": 17,
			"time": "2019-10-20T15:09:18-04:00",
			"created": "2019-10-20T13:59:16-04:00"
		}
	]
}