{
	"greeting": "Greetings from The On-Line Encyclopedia of Integer Sequences! http://oeis.org/",
	"query": "id:A328225",
	"count": 1,
	"start": 0,
	"results": [
		{
			"number": 328225,
			"data": "1,4,12,24,48,78,6,56,120,206,50,176,318,86,254,448,118,342,612,192,488,14,366,744,146,596,1058,368,860,134,730,1342,438,1098,100,828,1596,472,1300,102,992,1900,566,1546,152,1172,2270,650,1860,186,1428,2694,932,2288,416",
			"name": "a(1) = 1, a(n) = a(n-1) - prime(prime(n)) - prime(n-1) if this produces a positive integer not yet in the sequence, otherwise a(n) = a(n-1) + prime(prime(n)) - prime(n-1).",
			"link": [
				"Connor O'Higgins, \u003ca href=\"/A328225/b328225.txt\"\u003eTable of n, a(n) for n = 1..10000\u003c/a\u003e",
				"Connor O'Higgins, \u003ca href=\"/A328225/a328225_2.txt\"\u003eMatlab code for a(n) for n = 1..10000\u003c/a\u003e"
			],
			"keyword": "nonn,look",
			"offset": "1,2",
			"author": "_Connor O'Higgins_, Oct 08 2019",
			"references": 1,
			"revision": 27,
			"time": "2019-10-31T01:56:42-04:00",
			"created": "2019-10-31T01:55:15-04:00"
		}
	]
}