{
	"greeting": "Greetings from The On-Line Encyclopedia of Integer Sequences! http://oeis.org/",
	"query": "id:A328875",
	"count": 1,
	"start": 0,
	"results": [
		{
			"number": 328875,
			"data": "1,0,80,2160,121200,6136800,356570960,21225304800,1321586558320,84398804078400,5518934916677280,367489108030524480,24852668879410144080,1702677155195779963200,117960677109321028039200,8251450286371615261498560,582087494621171173360817520",
			"name": "Constant term in the expansion of (-1 + (1 + w + 1/w) * (1 + x + 1/x) * (1 + y + 1/y) * (1 + z + 1/z))^n.",
			"comment": [
				"Also number of n-step closed walks (from origin to origin) in 4-dimensional lattice, using steps (t_1,t_2,t_3,t_4) (t_k = -1, 1 or 0 for 1 \u003c= k \u003c= 4) except for (0,0,0,0).",
				"For fixed m \u003e 1, Sum_{k=0..n} (-1)^(n-k) * binomial(n,k) * A002426(k)^m ~ (3^m - 1)^(n + m/2) / (2^m * 3^(m*(m-1)/2) * Pi^(m/2) * n^(m/2)). - _Vaclav Kotesovec_, Oct 30 2019"
			],
			"link": [
				"Seiichi Manyama, \u003ca href=\"/A328875/b328875.txt\"\u003eTable of n, a(n) for n = 0..528\u003c/a\u003e"
			],
			"formula": [
				"a(n) = Sum_{k=0..n} (-1)^(n-k) * binomial(n,k) * A002426(k)^4.",
				"a(n) ~ 5 * 80^(n+1) / (729 * Pi^2 * n^2). - _Vaclav Kotesovec_, Oct 30 2019"
			],
			"mathematica": [
				"Table[Sum[(-1)^(n-k) * Binomial[n, k] * Sum[Binomial[k, 2*j]*Binomial[2*j, j], {j, 0, k}]^4, {k, 0, n}], {n, 0, 20}] (* _Vaclav Kotesovec_, Oct 30 2019 *)"
			],
			"program": [
				"(PARI) {a(n) = sum(k=0, n, (-1)^(n-k)*binomial(n, k)*polcoef((1+x+1/x)^k, 0)^4)}"
			],
			"xref": [
				"Sum_{k=0..n} (-1)^(n-k) * binomial(n,k) * A002426(k)^m: A126869 (m=1), A094061 (m=2), A328874 (m=3), this sequence (m=4).",
				"Cf. A326920."
			],
			"keyword": "nonn",
			"offset": "0,3",
			"author": "_Seiichi Manyama_, Oct 29 2019",
			"references": 5,
			"revision": 34,
			"time": "2019-10-30T08:04:47-04:00",
			"created": "2019-10-29T12:18:06-04:00"
		}
	]
}