{
	"greeting": "Greetings from The On-Line Encyclopedia of Integer Sequences! http://oeis.org/",
	"query": "id:A328020",
	"count": 1,
	"start": 0,
	"results": [
		{
			"number": 328020,
			"data": "1,1,2,22,515,56734,19846102,23437350133",
			"name": "Number of distinct tilings of an n X n square with free n-polyominoes.",
			"link": [
				"Jeff Bowermaster, \u003ca href=\"/A328020/a328020.png\"\u003eIllustration of a(1)..a(4)\u003c/a\u003e",
				"Jeff Bowermaster, \u003ca href=\"/A328020/a328020_1.png\"\u003eIllustration of a(5)\u003c/a\u003e",
				"Code Golf Stack Exchange, \u003ca href=\"https://codegolf.stackexchange.com/q/194056/53884\"\u003eNumber of distinct tilings of an n X n square with free n-polyominoes\u003c/a\u003e"
			],
			"xref": [
				"Cf. A172477, A268427, A291806."
			],
			"keyword": "nonn,hard,more,nice",
			"offset": "1,3",
			"author": "_Jeff Bowermaster_, Oct 01 2019",
			"ext": [
				"a(7) from _Peter Kagey_, Oct 10 2019, based on the Stack Exchange link.",
				"a(8) from _Christian Sievers_, Oct 13 2019, based on the Stack Exchange link."
			],
			"references": 4,
			"revision": 30,
			"time": "2019-10-14T01:26:52-04:00",
			"created": "2019-10-07T14:39:35-04:00"
		}
	]
}