{
	"greeting": "Greetings from The On-Line Encyclopedia of Integer Sequences! http://oeis.org/",
	"query": "id:A328137",
	"count": 1,
	"start": 0,
	"results": [
		{
			"number": 328137,
			"data": "193,397,613,661,757,1093,1237,1453,1657,2137,2341,2593,2917,3217,4177,4621,5233,6121,6133,7057,7537,8101,8317,8353,8677,8893,9013,9721,10957,11677,11701,12421,12433,12541,12853,13933,15277,15733,16033,16381,16417,16633,17257,17293,18013,18253,18481",
			"name": "Primes p such that p+1 is the product of two distinct primes and p+2 is the product of three distinct primes.",
			"comment": [
				"All terms == 1 (mod 12).",
				"Members k of A112998 such that k+2 is squarefree."
			],
			"link": [
				"Robert Israel, \u003ca href=\"/A328137/b328137.txt\"\u003eTable of n, a(n) for n = 1..10000\u003c/a\u003e"
			],
			"example": [
				"a(3)=613 is in the sequence because 613 is prime, 614=2*307 is the product of two distinct primes, and 615=3*5*41 is the product of three distinct primes."
			],
			"maple": [
				"select(t -\u003e isprime(t) and isprime((t+1)/2) and numtheory:-issqrfree(t+2) and numtheory:-bigomega(t+2)=3, [seq(i,i=1..10^5,12)]);"
			],
			"program": [
				"(MAGMA) [p:p in PrimesUpTo(20000)| IsPrime((p+1) div 2) and IsSquarefree(p+2) and #PrimeDivisors(p+2) eq 3]; // _Marius A. Burtea_, Oct 04 2019"
			],
			"xref": [
				"Contained in A005383, A100363 and A112998."
			],
			"keyword": "nonn",
			"offset": "1,1",
			"author": "_J. M. Bergot_ and _Robert Israel_, Oct 04 2019",
			"references": 2,
			"revision": 17,
			"time": "2019-10-06T02:01:29-04:00",
			"created": "2019-10-04T21:10:06-04:00"
		}
	]
}