{
	"greeting": "Greetings from The On-Line Encyclopedia of Integer Sequences! http://oeis.org/",
	"query": "id:A328980",
	"count": 1,
	"start": 0,
	"results": [
		{
			"number": 328980,
			"data": "3,7,8,8,17,14,18",
			"name": "Erroneous version of A328910: Number of solutions to Erdős's Last Equation in n variables.",
			"comment": [
				"The equation is x_1*x_2*...*x_n = n*(x_1+...+x_n) (n \u003e= 2).",
				"These are the terms are given as f(n) in a table on p. 803 in the cited paper. However, the sets C_L(n) of solutions with L+1 components \u003e 1 can't be nonempty for L = n, as listed there for n = 2 and n = 3. The author (pers. comm.) confirms that a(2) = 2, a(3) = 6 and a(8) = 19. Sequence A328910 gives the correct terms. - _M. F. Hasler_, Nov 07 2019",
				"Included in accordance with OEIS policy of including published but erroneous sequences to serve as pointers to the correct values."
			],
			"link": [
				"Peter Shiu, \u003ca href=\"https://doi.org/10.1080/00029890.2019.1639466\"\u003eOn Erdős's Last Equation\u003c/a\u003e, Amer. Math. Monthly, 126 (2019), 802-808; correction, 127:5 (2020), 478."
			],
			"xref": [
				"Cf. A328910, A328911."
			],
			"keyword": "dead",
			"offset": "2,1",
			"author": "_N. J. A. Sloane_, Jun 04 2020",
			"references": 3,
			"revision": 32,
			"time": "2020-06-04T00:49:22-04:00",
			"created": "2019-11-04T14:06:52-05:00"
		}
	]
}