{
	"greeting": "Greetings from The On-Line Encyclopedia of Integer Sequences! http://oeis.org/",
	"query": "id:A328627",
	"count": 1,
	"start": 0,
	"results": [
		{
			"number": 328627,
			"data": "1,2,3,18,9,6,5,10,375,450,225,750,25,50,15,11250,5625,30,125,250,1875,90,45,3750,625,1250,75,2250,1125,150,7,14,21,126,63,42,12005,24010,18375,7563150,3781575,36750,420175,840350,36015,3858750,1929375,72030,6125,12250,643125,216090,108045,1286250,214375,428750",
			"name": "Twisted variant of A276086.",
			"link": [
				"Antti Karttunen, \u003ca href=\"/A328627/b328627.txt\"\u003eTable of n, a(n) for n = 0..2310\u003c/a\u003e",
				"\u003ca href=\"/index/Pri#primorialbase\"\u003eIndex entries for sequences related to primorial base\u003c/a\u003e"
			],
			"formula": [
				"a(n) = A276086(A328626(n))."
			],
			"program": [
				"(PARI) A328627(n) = { my(m=1, p=2, d=0); while(n, d = lift(Mod(n,p)/(d+1)); m *= (p^d); n = n\\p; p = nextprime(1+p)); (m); };"
			],
			"xref": [
				"Cf. A276086, A328624, A328626, A328629."
			],
			"keyword": "nonn",
			"offset": "0,2",
			"author": "_Antti Karttunen_, Oct 25 2019",
			"references": 7,
			"revision": 7,
			"time": "2019-10-25T18:08:37-04:00",
			"created": "2019-10-25T18:08:37-04:00"
		}
	]
}