{
	"greeting": "Greetings from The On-Line Encyclopedia of Integer Sequences! http://oeis.org/",
	"query": "id:A328249",
	"count": 1,
	"start": 0,
	"results": [
		{
			"number": 328249,
			"data": "5,15,21,31,43,79,91,98,104,106,223,229,231,254,255,289,291,301,305,423,453,456,487,670,674,677,692,702,730,736,2343,2378,2380,2400,2409,2534,2537,2543,2552,2562,2585,2602,2618,2629,2767,2804,2821,2831,2839,2942,2943,2957,2962,2963,2974,4621,4669,4672,4687,4717,4841,4844",
			"name": "Numbers k such that the third arithmetic derivative of A276086(k) is prime.",
			"comment": [
				"Numbers k such that A003415(A003415(A327860(k))) = A099306(A276086(k)) is a prime.",
				"Numbers k such that A276086(k) is in A328239.",
				"For all n, A327969(a(n)) \u003c= 6. This is sharp for example with a(7) = 91."
			],
			"link": [
				"Antti Karttunen, \u003ca href=\"/A328249/b328249.txt\"\u003eTable of n, a(n) for n = 1..1315\u003c/a\u003e"
			],
			"program": [
				"(PARI)",
				"A003415(n) = if(n\u003c=1, 0, my(f=factor(n)); n*sum(i=1, #f~, f[i, 2]/f[i, 1]));",
				"A327860(n) = { my(m=1, i=0, s=0, pr=1, nextpr); while((n\u003e0), i=i+1; nextpr = prime(i)*pr; if((n%nextpr), my(e=((n%nextpr)/pr)); m *= (prime(i)^e); s += (e / prime(i)); n-=(n%nextpr)); pr=nextpr); (s*m); };",
				"isA328249(n) = isprime(A003415(A003415(A327860(n))));"
			],
			"xref": [
				"Cf. A003415, A099306, A276086, A327860, A327969, A328239, A328233, A328240."
			],
			"keyword": "nonn",
			"offset": "1,1",
			"author": "_Antti Karttunen_, Oct 11 2019",
			"references": 2,
			"revision": 13,
			"time": "2021-07-02T01:56:20-04:00",
			"created": "2019-10-12T19:07:39-04:00"
		}
	]
}