{
	"greeting": "Greetings from The On-Line Encyclopedia of Integer Sequences! http://oeis.org/",
	"query": "id:A328073",
	"count": 1,
	"start": 0,
	"results": [
		{
			"number": 328073,
			"data": "1,2,21,211,212,2111,2112,2122,21111,21112,21121,21122,21221,21222,211111,211112,211121,211122,211221,211222,212211,212221,212222,2111111,2111112,2111121,2111122,2111211,2111221,2111222,2112121,2112211,2112221,2112222,2122111,2122112,2122121,2122211,2122212,2122221,2122222",
			"name": "List of Nyldon words over {1,2}.",
			"link": [
				"Émilie Charlier, Manon Philibert, Manon Stipulanti, \u003ca href=\"https://arxiv.org/abs/1804.09735\"\u003eNyldon words\u003c/a\u003e, arXiv:1804.09735 [math.CO], 2018. Also J. Comb. Thy. A, 167 (2019), 60-90. See Table 1."
			],
			"xref": [
				"Cf. A001037, A102659, A328072."
			],
			"keyword": "nonn",
			"offset": "1,2",
			"author": "_N. J. A. Sloane_, Oct 07 2019",
			"references": 1,
			"revision": 6,
			"time": "2019-10-07T09:06:00-04:00",
			"created": "2019-10-07T09:05:02-04:00"
		}
	]
}