{
	"greeting": "Greetings from The On-Line Encyclopedia of Integer Sequences! http://oeis.org/",
	"query": "id:A329459",
	"count": 1,
	"start": 0,
	"results": [
		{
			"number": 329459,
			"data": "0,1,4,56,80,203,572,847,1402,93496,128180,431060,467852,1465676,7742920,8727388,8923840,9582707,18245944,18304588,25154692,27262924,115404434,209060644,763786258,860973806,2042328148,4719261289,5236838932,18202403140,42897493894,77310551669",
			"name": "Numbers whose ternary and Zeckendorf representations are both palindromic.",
			"comment": [
				"Intersection of A014190 and A094202."
			],
			"link": [
				"Chai Wah Wu, \u003ca href=\"/A329459/b329459.txt\"\u003eTable of n, a(n) for n = 1..56\u003c/a\u003e (n = 1..43 from Daniel Suteu)"
			],
			"xref": [
				"Cf. A014190, A094202, A060792, A095309."
			],
			"keyword": "nonn,base",
			"offset": "1,3",
			"author": "_Alex Ratushnyak_, Nov 13 2019",
			"ext": [
				"a(24)-a(32) from _Daniel Suteu_, Nov 16 2019"
			],
			"references": 2,
			"revision": 17,
			"time": "2021-02-09T01:55:36-05:00",
			"created": "2019-11-16T03:48:49-05:00"
		}
	]
}