{
	"greeting": "Greetings from The On-Line Encyclopedia of Integer Sequences! http://oeis.org/",
	"query": "id:A329189",
	"count": 1,
	"start": 0,
	"results": [
		{
			"number": 329189,
			"data": "180,240,360,420,504,540,600,780,1080,1344,1872,1890,2016,2184,2352,2376,2688,3192,3276,3744,4284,4320,4680,5292,5376,5796,6048,6552,7128,7344,7440,8190,9504,10296,10416,13776,14850,18600,19824,19872,20496,21528,22932",
			"name": "3-admirable numbers: 3-abundant numbers (A068403) k such that exists a proper divisor d of k such that sigma(k) - 2*d = 3*k, where sigma(k) is the sum of divisors of k (A000203).",
			"comment": [
				"Analogous to admirable numbers (A111592) as 3-perfect numbers (A005820) are analogous to perfect numbers (A000396).",
				"The proper divisors of each term k can be added to a sum of 2*k with one divisor taken with a minus sign."
			],
			"link": [
				"Amiram Eldar, \u003ca href=\"/A329189/b329189.txt\"\u003eTable of n, a(n) for n = 1..810\u003c/a\u003e (terms below 10^11)"
			],
			"example": [
				"180 is a term since its proper divisors can be added to 1 + 2 - 3 + 4 + 5 + 6 + 9 + 10 + 12 + 15 + 18 + 20 + 30 + 36 + 45 + 60 + 90 = 360 = 2 * 180, with one divisor, 3, taken with a minus sign."
			],
			"mathematica": [
				"aQ[n_] := (ab = DivisorSigma[1, n] - 3 n) \u003e 0 \u0026\u0026 EvenQ[ab] \u0026\u0026 ab/2 \u003c n \u0026\u0026 Divisible[n, ab/2]; Select[Range[23000], aQ]"
			],
			"xref": [
				"Cf. A000203, A000396, A068403, A111592."
			],
			"keyword": "nonn",
			"offset": "1,1",
			"author": "_Amiram Eldar_, Nov 07 2019",
			"references": 2,
			"revision": 15,
			"time": "2019-11-08T03:16:39-05:00",
			"created": "2019-11-07T18:18:54-05:00"
		}
	]
}