{
	"greeting": "Greetings from The On-Line Encyclopedia of Integer Sequences! http://oeis.org/",
	"query": "id:A329112",
	"count": 1,
	"start": 0,
	"results": [
		{
			"number": 329112,
			"data": "7,9,11,13,15,19,21,23,29,35,37,55,57,77,85,139,243,251,433,667,671,895,2127,2263,2293,2645,2733,2845,3675,4381,6453,6825,36557,78531",
			"name": "Numbers k such that k![4] - 8 is prime, where k![4] = A007662(k) = quadruple factorial.",
			"comment": [
				"a(35) \u003e 10^5.",
				"The first 6 primes associated with this sequence are: 13, 37, 223, 577, 3457, 65827."
			],
			"link": [
				"C. K. Caldwell, The Prime Glossary, \u003ca href=\"http://primes.utm.edu/glossary/page.php/MultifactorialPrime.html\"\u003emultifactorial prime\u003c/a\u003e",
				"C. Caldwell and H. Dubner (Eds): \u003ca href=\"http://primes.utm.edu/lists/top_ten/\"\u003eThe top ten prime numbers: from the unpublished collections of R. Ondrejka\u003c/a\u003e (May 2001), Table 21 F, p. 75",
				"Ken Davis, \u003ca href=\"http://mfprimes.free-dc.org\"\u003eStatus of Search for Multifactorial Primes\u003c/a\u003e.",
				"Joe McLean, \u003ca href=\"http://web.archive.org/web/20091027034731/http://uk.geocities.com/nassarawa%40btinternet.com/probprim2.htm\"\u003eInteresting Sources of Probable Primes\u003c/a\u003e"
			],
			"mathematica": [
				"MultiFactorial[n_, k_] := If[n \u003c 1, 1, n*MultiFactorial[n - k, k]];",
				"Select[Range[1000], (x = MultiFactorial[#, 4] - 8; x \u003e 0 \u0026\u0026 PrimeQ[x]) \u0026]"
			],
			"xref": [
				"Cf. A007662, A283553."
			],
			"keyword": "nonn",
			"offset": "1,1",
			"author": "_Robert Price_, Nov 06 2019",
			"references": 0,
			"revision": 33,
			"time": "2019-11-06T20:54:39-05:00",
			"created": "2019-11-06T20:54:39-05:00"
		}
	]
}