{
	"greeting": "Greetings from The On-Line Encyclopedia of Integer Sequences! http://oeis.org/",
	"query": "id:A329466",
	"count": 1,
	"start": 0,
	"results": [
		{
			"number": 329466,
			"data": "1,1,2,2,1,3,2,2,3,3,2,4,2,3,3,4,2,5,3,5,5,4,1,6,4,3,4,7,3,7,5,7,3,5,5,8,5,6,6,8,3,10,4,7,8,7,5,10,7,10,5,10,6,9,9,13,7,8,6,14,7,10,10,14,9,12,9,12,7,17,8,14,10,14,12,17,12,12,10,20",
			"name": "Expansion of Sum_{k\u003e=1} (-1 + Product_{j\u003e=1} (1 + x^(k*j*(j + 1)/2))).",
			"comment": [
				"Inverse Moebius transform of A024940."
			],
			"formula": [
				"G.f.: Sum_{k\u003e=1} A024940(k) * x^k / (1 - x^k).",
				"a(n) = Sum_{d|n} A024940(d)."
			],
			"mathematica": [
				"nmax = 80; CoefficientList[Series[Sum[-1 + Product[(1 + x^(k j (j + 1)/2)), {j, 1, nmax}], {k, 1, nmax}], {x, 0, nmax}], x] // Rest"
			],
			"xref": [
				"Cf. A024940, A047966, A047968, A329462, A329465."
			],
			"keyword": "nonn",
			"offset": "1,3",
			"author": "_Ilya Gutkovskiy_, Nov 13 2019",
			"references": 1,
			"revision": 4,
			"time": "2019-11-15T21:35:50-05:00",
			"created": "2019-11-15T21:35:50-05:00"
		}
	]
}