{
	"greeting": "Greetings from The On-Line Encyclopedia of Integer Sequences! http://oeis.org/",
	"query": "id:A329539",
	"count": 1,
	"start": 0,
	"results": [
		{
			"number": 329539,
			"data": "3618,5840,7716,17502,19460,22398,23520,26852,33824,41202,45848,47328,62138,72950,82722,101084,118062,127160,128784,134012,136380,148940,165240,173658,175220,175310,177516,187556,193692,203310,230802,234032,279102,281754,285518,289970,295196,298652",
			"name": "Numbers m such that the sum of the first m primes as well as the sum of the squares and the sum of the cubes of the first m primes are all prime.",
			"link": [
				"G. L. Honaker, Jr. and Chris Caldwell, \u003ca href=\"https://primes.utm.edu/curios/page.php?short=3618\"\u003ePrime Curios! 3618\u003c/a\u003e",
				"Carlos Rivera, \u003ca href=\"https://www.primepuzzles.net/puzzles/puzz_978.htm\"\u003ePuzzle 978. Improve this curio\u003c/a\u003e, Prime Puzzles and Problems Connection."
			],
			"mathematica": [
				"Module[{nn=300000,prs,m1,m2,m3},prs=Prime[Range[nn]];m1=Accumulate[ prs];m2 = Accumulate[prs^2];m3=Accumulate[prs^3];Position[Thread[ {m1,m2,m3}],_? (Total[ Boole[ PrimeQ[#]]]==3\u0026)]]//Flatten (* _Harvey P. Dale_, Jul 28 2021 *)"
			],
			"program": [
				"(PARI) s=0; t=0; u=0; n=0; forprime(p=2, 1e6, s+=p; t+=p^2; u+=p^3; n++; if(isprime(u) \u0026\u0026 isprime(t) \u0026\u0026 isprime(s), print1(n, \", \")))"
			],
			"xref": [
				"Cf. A013916, A098561, A124225."
			],
			"keyword": "nonn",
			"offset": "1,1",
			"author": "_Michel Marcus_, Nov 16 2019",
			"ext": [
				"Name (description) modified by _Harvey P. Dale_, Jul 28 2021"
			],
			"references": 1,
			"revision": 11,
			"time": "2021-07-28T16:44:52-04:00",
			"created": "2019-11-16T10:32:02-05:00"
		}
	]
}