{
	"greeting": "Greetings from The On-Line Encyclopedia of Integer Sequences! http://oeis.org/",
	"query": "id:A329074",
	"count": 1,
	"start": 0,
	"results": [
		{
			"number": 329074,
			"data": "1,1,1,1,0,1,1,8,0,1,1,24,16,0,1,1,216,48,24,0,1,1,1200,1200,72,32,0,1,1,8840,10200,3336,96,40,0,1,1,58800,165760,34800,7008,120,48,0,1,1,423640,2032800,912840,82800,12600,144,56,0,1",
			"name": "Square array T(n,k), n\u003e=0, k\u003e=0, read by antidiagonals, where T(n,k) is the constant term in the expansion of ((Sum_{j=-n..n} x^j) * (Sum_{j=-n..n} y^j) - (Sum_{j=-n+1..n-1} x^j) * (Sum_{j=-n+1..n-1} y^j))^k.",
			"comment": [
				"T(n,k) is the number of k-step closed paths (from origin to origin) in 2-dimensional lattice, using steps (t_1,t_2) (|t_1| + |t_2| = 2*n).",
				"T(n,k) is the constant term in the expansion of (Sum_{j=0..2*n} (x^j + 1/x^j)*(y^(2*n-j) + 1/y^(2*n-j)) - x^(2*n) - 1/x^(2*n) - y^(2*n) - 1/y^(2*n))^k for n \u003e 0."
			],
			"link": [
				"Seiichi Manyama, \u003ca href=\"/A329074/b329074.txt\"\u003eAntidiagonals n = 0..100, flattened\u003c/a\u003e",
				"Wikipedia, \u003ca href=\"https://en.wikipedia.org/wiki/Taxicab_geometry\"\u003eTaxicab geometry\u003c/a\u003e."
			],
			"formula": [
				"T(0,k) = 1^k = 1.",
				"See the second code written in PARI."
			],
			"example": [
				"Square array begins:",
				"   1, 1,  1,   1,     1,      1, ...",
				"   1, 0,  8,  24,   216,   1200, ...",
				"   1, 0, 16,  48,  1200,  10200, ...",
				"   1, 0, 24,  72,  3336,  34800, ...",
				"   1, 0, 32,  96,  7008,  82800, ...",
				"   1, 0, 40, 120, 12600, 162000, ..."
			],
			"program": [
				"(PARI) {T(n, k) = if(n==0, 1, polcoef(polcoef((sum(j=0, 2*n, (x^j+1/x^j)*(y^(2*n-j)+1/y^(2*n-j)))-x^(2*n)-1/x^(2*n)-y^(2*n)-1/y^(2*n))^k, 0), 0))}",
				"(PARI) f(n) = (x^(n+1)-1/x^n)/(x-1);",
				"T(n, k) = if(n==0, 1, sum(j=0, k, (-1)^(k-j)*binomial(k, j)*polcoef(f(n)^j*f(n-1)^(k-j), 0)^2))"
			],
			"xref": [
				"Rows n=0-3 give A000012, A094061, A329075, A329077.",
				"Main diagonal gives A329076.",
				"Cf. A329066."
			],
			"keyword": "nonn,tabl,walk",
			"offset": "0,8",
			"author": "_Seiichi Manyama_, Nov 03 2019",
			"references": 6,
			"revision": 40,
			"time": "2019-11-05T14:09:42-05:00",
			"created": "2019-11-04T06:13:36-05:00"
		}
	]
}