{
	"greeting": "Greetings from The On-Line Encyclopedia of Integer Sequences! http://oeis.org/",
	"query": "id:A329027",
	"count": 1,
	"start": 0,
	"results": [
		{
			"number": 329027,
			"data": "0,2,0,1,0,2,2,2,0,3,0,1,3,3,0,1,0,1,2,2,0,1,0,1,2,2,0,1,0,2,2,2,2,3,3,2,2,2,0,3,0,3,3,3,0,3,0,2,2,2,0,4,0,2,2,2,0,3,0,1,3,3,3,1,3,3,3,3,0,3,0,1,3,3,0,1,0,1,4,4,0,1,0,1,3,3,0,1,0,1,2,2,2,1,4,2,2,2,0,4,0,1,4,4,0",
			"name": "The least missing digit in the primorial base expansion of n. Only significant digits are considered, as the leading zeros are ignored.",
			"comment": [
				"For n = 0 the value is ambiguous, thus the sequence starts from n=1."
			],
			"link": [
				"Antti Karttunen, \u003ca href=\"/A329027/b329027.txt\"\u003eTable of n, a(n) for n = 1..32768\u003c/a\u003e",
				"\u003ca href=\"/index/Pri#primorialbase\"\u003eIndex entries for sequences related to primorial base\u003c/a\u003e"
			],
			"example": [
				"19 in primorial base (A049345) is written as \"301\". The least missing digit is 2, thus a(19) = 2."
			],
			"program": [
				"(PARI) A329027(n) = { my(m=Map(), p=2); while(n, mapput(m,(n%p),1); n = n\\p; p = nextprime(1+p)); for(k=0,oo,if(!mapisdefined(m,k),return(k))); };"
			],
			"xref": [
				"Cf. A049345, A329028.",
				"Cf. A328574 (after its initial term, gives the positions of zeros in this sequence), A328840 (after its initial term, gives the positions of ones in this sequence)."
			],
			"keyword": "nonn,base",
			"offset": "1,2",
			"author": "_Antti Karttunen_, Nov 03 2019",
			"references": 4,
			"revision": 9,
			"time": "2019-11-07T14:38:29-05:00",
			"created": "2019-11-07T14:38:29-05:00"
		}
	]
}