{
	"greeting": "Greetings from The On-Line Encyclopedia of Integer Sequences! http://oeis.org/",
	"query": "id:A329105",
	"count": 1,
	"start": 0,
	"results": [
		{
			"number": 329105,
			"data": "113,72486,22959360,6667719680,1907342690028,546566353351560,157644511058113920,45818502502241488320,13418569988503429983660,3957929725047766692949256,1175070020071246825359359232,350933963579387124964687828224,105365902497675176184788931496400,31787539718100094004136084118514400",
			"name": "a(n) = (Sum_{k=0..n-1} (1435*k+113)*3240^(n-1-k)*T_k(7,1)*T_k(10,10)^2)/(n*10^(n-1)), where T_k(b,c) denotes the coefficient of x^k in the expansion of (x^2+b*x+c)^k.",
			"comment": [
				"Conjecture 1: (i) a(n) is an integer for each n \u003e 0. Moreover, we have Sum_{k\u003e=0}((1435*k+113)/3240^k)*T_k(7,1)*T_k(10,10)^2 = 1452*sqrt(5)/Pi.",
				"(ii) Let p \u003e 3 be a prime. Then Sum_{k=0..p-1}((1435*k+113)/3240^k)*T_k(7,1)*T_k(10,10)^2 == p/9*(2420*Leg(-5/p) + 105*Leg(5/p) - 1508) (mod p^2), where Leg(a/p) denotes the Legendre symbol. For the sum S(p) = Sum_{k=0..p-1}T_k(7,1)*T_k(10,10)^2/3240^k, if Leg(-15/p) = -1 then S(p) == 0 (mod p^2); if p == 1,4 (mod 15) and p = x^2 + 15*y^2 with x and y integers then S(p) == 4*x^2-2p (mod p^2); if p == 2,8 (mod 15) and p = 3*x^2 + 5*y^2 with x and y integers then S(p) == 12*x^2-2p (mod p^2).",
				"Conjecture 2: (i) For each n \u003e 0, the number (Sum_{k=0..n-1}(1435*k+1322)*50^(n-1-k)*T_k(7,1)*T_k(10,10)^2)*3/(2n*10^(n-1)) is an integer.",
				"(ii) Let p \u003e 5 be a prime. Then Sum_{k=0..p-1}((1435*k+1322)/50^k)*T_k(7,1)*T_k(10,10)^2 == p/3*(3432*Leg(5/p) + 968*Leg(-1/p) - 434) (mod p^2). For the sum T(p) = Sum_{k=0..p-1}T_k(7,1)*T_k(10,10)^2/50^k, if Leg(-15/p) = -1 then T(p) == 0 (mod p^2); if p == 1,4 (mod 15) and p = x^2 + 15*y^2 with x and y integers then T(p) == 4*x^2-2p (mod p^2); if p == 2,8 (mod 15) and p = 3*x^2 + 5*y^2 with x and y integers then T(p) == 2p-12*x^2 (mod p^2)."
			],
			"link": [
				"Zhi-Wei Sun, \u003ca href=\"/A329105/b329105.txt\"\u003eTable of n, a(n) for n = 1..70\u003c/a\u003e",
				"Zhi-Wei Sun, \u003ca href=\"http://dx.doi.org/10.1007/s11425-014-4809-z\"\u003eCongruences involving generalized central trinomial coefficients\u003c/a\u003e, Sci. China Math. 57(2014), no.7, 1375-1400.",
				"Zhi-Wei Sun, \u003ca href=\"https://doi.org/10.1007/978-1-4939-1601-6_18\"\u003eOn sums related to central binomial and trinomial coefficients\u003c/a\u003e, in: M. B. Nathanson (ed.), Combinatorial and Additive Number Theory: CANT 2011 and 2012, Springer Proc. in Math. \u0026 Stat., Vol. 101, Springer, New York, 2014, pp. 257-312. Also available from \u003ca href=\"https://arxiv.org/abs/1101.0600v25\"\u003e arXiv:1101.0600 [math.NT]\u003c/a\u003e, 2011-2014."
			],
			"example": [
				"a(1) = 113 since ((1435*0+113)*3240^(1-1-0)*T_0(7,1)*T_0(10,10)^2)/(1*10^(1-1)) = 113."
			],
			"mathematica": [
				"T[b_,c_,0]=1;T[b_,c_,1]=b;",
				"T[b_,c_,n_]:=T[b,c,n]=(b(2n-1)T[b,c,n-1]-(b^2-4c)(n-1)T[b,c,n-2])/n;",
				"a[n_]:=a[n]=Sum[(1435k+113)T[7,1,k]T[10,10,k]^2*3240^(n-1-k),{k,0,n-1}]/(n*10^(n-1));",
				"Table[a[n],{n,1,14}]"
			],
			"xref": [
				"Cf. A104454, A328786, A329073, A329107."
			],
			"keyword": "nonn",
			"offset": "1,1",
			"author": "_Zhi-Wei Sun_, Nov 04 2019",
			"references": 3,
			"revision": 18,
			"time": "2019-11-06T08:47:40-05:00",
			"created": "2019-11-06T08:47:40-05:00"
		}
	]
}