{
	"greeting": "Greetings from The On-Line Encyclopedia of Integer Sequences! http://oeis.org/",
	"query": "id:A329209",
	"count": 1,
	"start": 0,
	"results": [
		{
			"number": 329209,
			"data": "2,9,3,6,6,4,7,6,7,9,1,7,4,0,7,5,6,0,2,6,2,7,8,3,0,1,3,8,6,0,5,7,9,6,1,0,4,8,0,7,2,5,8,4,6,7,7,7,5,4,3,6,2,5,3,2,6,5,7,3,5,7,8,6,7,4,5,8,8,5,4,6,9,2,5,0,5,0,6,2,4,5,2,1,7,2,5,9,5,0,0",
			"name": "Decimal expansion of the fundamental frequency of the note D4 in hertz.",
			"comment": [
				"In 12-tone equal temperament, when A4 (the fifth A on the Piano keyboard) is tuned to 440 Hz, the frequency of the note D4 (7 semitones below A4) is 440*2^(-7/12) Hz = 293.7 Hz."
			],
			"link": [
				"Wikipedia, \u003ca href=\"https://en.wikipedia.org/wiki/Piano_key_frequencies\"\u003ePiano key frequencies\u003c/a\u003e",
				"\u003ca href=\"/index/Mu#music\"\u003eIndex entries for sequences based on music\u003c/a\u003e"
			],
			"formula": [
				"Equals 220 * 2^(5/12)."
			],
			"example": [
				"Frequencies of notes in an octave (Hz):",
				"   \u003e--------------------------------------------------",
				"  |",
				"  |  C4                  261.6255653005...  (A329207)",
				"  |           +---------------------------------------",
				"   \u003e----------| C#4/Db4  277.1826309768...  (A329208)",
				"  |           +---------------------------------------",
				"  |  D4                  293.6647679174...  (this seq)",
				"  |           +---------------------------------------",
				"   \u003e----------| D#4/Eb4  311.1269837220...  (A329210)",
				"  |           +---------------------------------------",
				"  |  E4                  329.6275569128...  (A329211)",
				"  |",
				"   \u003e--------------------------------------------------",
				"  |",
				"  |  F4                  349.2282314330...  (A329212)",
				"  |           +---------------------------------------",
				"   \u003e----------| F#4/Gb4  369.9944227116...  (A329213)",
				"  |           +---------------------------------------",
				"  |  G4                  391.9954359817...  (A329214)",
				"  |           +---------------------------------------",
				"   \u003e----------| G#4/Ab4  415.3046975799...  (A329215)",
				"  |           +---------------------------------------",
				"  |  A4                  440.0000000000",
				"  |           +---------------------------------------",
				"   \u003e----------| A#4/Bb4  466.1637615180...  (A329217)",
				"  |           +---------------------------------------",
				"  |  B4                  493.8833012561...  (A329218)",
				"  |",
				"   \u003e--------------------------------------------------",
				"[New layout from _Jon E. Schoenfield_, Nov 08 2019]"
			],
			"mathematica": [
				"RealDigits[440 1/Surd[2^7,12],10,120][[1]] (* _Harvey P. Dale_, Aug 01 2021 *)"
			],
			"program": [
				"(PARI) default(realprecision, 100); 440 * 2^(-7/12)"
			],
			"xref": [
				"See the Example section above for the fundamental frequency of some other notes."
			],
			"keyword": "nonn,easy,cons",
			"offset": "3,1",
			"author": "_Jianing Song_, Nov 08 2019",
			"references": 10,
			"revision": 11,
			"time": "2021-08-01T13:34:14-04:00",
			"created": "2019-11-08T22:25:57-05:00"
		}
	]
}