{
	"greeting": "Greetings from The On-Line Encyclopedia of Integer Sequences! http://oeis.org/",
	"query": "id:A329575",
	"count": 1,
	"start": 0,
	"results": [
		{
			"number": 329575,
			"data": "3,12,15,21,27,33,39,48,51,57,60,69,75,84,87,93,105,108,111,123,129,132,135,141,147,156,159,165,177,183,189,192,195,201,204,213,219,228,231,237,240,243,249,255,267,273,276,285,291,297,300,303,309,321,327,336,339,345",
			"name": "Numbers whose smallest Fermi-Dirac factor is 3.",
			"comment": [
				"Every positive integer is the product of a unique subset of the terms of A050376 (sometimes called Fermi-Dirac primes). This sequence lists the numbers where the relevant subset includes 3 but not 2.",
				"Numbers whose squarefree part is divisible by 3 but not 2.",
				"Positive multiples of 3 that survive sieving by the rule: if m appears then 2m, 3m and 6m do not. Asymptotic density is 1/6."
			],
			"link": [
				"Amiram Eldar, \u003ca href=\"/A329575/b329575.txt\"\u003eTable of n, a(n) for n = 1..10000\u003c/a\u003e"
			],
			"formula": [
				"A223490(a(n)) = 3.",
				"A007913(a(n)) == 3 (mod 6).",
				"A059897(2, a(n)) = 2 * a(n).",
				"A059897(3, a(n)) * 3 = a(n).",
				"{a(n) : n \u003e= 1} = {k : 3 * A307150(k) = 2 * k}.",
				"A003159 = {a(n) / 3 : n \u003e= 1} U {a(n) : n \u003e= 1}.",
				"A036668 = {a(n) / 3 : n \u003e= 1} U {a(n) * 2 : n \u003e= 1}.",
				"A145204 \\ {0} = {a(n) : n \u003e= 1} U {a(n) * 2 : n \u003e= 1}."
			],
			"example": [
				"6 is the product of the following terms of A050376: 2, 3. These terms include 2, so 6 is not in the sequence.",
				"12 is the product of the following terms of A050376: 3, 4. These terms include 3, but not 2, so 12 is in the sequence.",
				"20 is the product of the following terms of A050376: 4, 5. These terms do not include 3, so 20 is not in the sequence."
			],
			"mathematica": [
				"f[p_, e_] := p^(2^IntegerExponent[e, 2]); fdmin[n_] := Min @@ f @@@ FactorInteger[n]; Select[Range[350], fdmin[#] == 3 \u0026] (* _Amiram Eldar_, Nov 27 2020 *)"
			],
			"program": [
				"(PARI) isok(m) = core(m) % 6 == 3; \\\\ _Michel Marcus_, May 01 2020"
			],
			"xref": [
				"Cf. A007913, A036668, A050376, A059897, A223490, A307150.",
				"Intersection of any 2 of A003159, A145204 and A325424; also subsequence of A028983.",
				"Ordered 3rd quadrisection of A052330."
			],
			"keyword": "nonn",
			"offset": "1,1",
			"author": "_Peter Munn_, Apr 27 2020",
			"references": 6,
			"revision": 25,
			"time": "2020-11-27T04:52:04-05:00",
			"created": "2020-05-29T02:22:55-04:00"
		}
	]
}