{
	"greeting": "Greetings from The On-Line Encyclopedia of Integer Sequences! http://oeis.org/",
	"query": "id:A329051",
	"count": 1,
	"start": 0,
	"results": [
		{
			"number": 329051,
			"data": "1,8,49,162,289,529,961,1517,1681,2491,2809,3481,4489,5041,5329,6889,7921,10403,10609,11663,12769,16129,17161,18769,22499,22801,24649,28891,29929,32041,37249,38021,38809,39601,50621,51529,52441,57121,58081,63001,66049,72899,73441,76729,78961,85849,94249,96721,100489",
			"name": "Positions of records in A329040.",
			"comment": [
				"Conjecturally also the position of the first occurrence of each n in A329040.",
				"Most terms seem to be squares of primes."
			],
			"link": [
				"Antti Karttunen, \u003ca href=\"/A329051/b329051.txt\"\u003eTable of n, a(n) for n = 1..81\u003c/a\u003e"
			],
			"xref": [
				"Cf. A329040."
			],
			"keyword": "nonn",
			"offset": "1,2",
			"author": "_Antti Karttunen_, Nov 11 2019",
			"references": 3,
			"revision": 7,
			"time": "2019-11-11T18:43:23-05:00",
			"created": "2019-11-11T18:43:23-05:00"
		}
	]
}