{
	"greeting": "Greetings from The On-Line Encyclopedia of Integer Sequences! http://oeis.org/",
	"query": "id:A329506",
	"count": 1,
	"start": 0,
	"results": [
		{
			"number": 329506,
			"data": "1,4,8,8,6,6,6,6,6,6,6,6,6,6,6,6,6,6,6,6,6,6,6,6,6,6,6,6,6,6,6,6,6,6,6,6,6,6,6,6,6,6,6,6,6,6,6,6,6,6,6,6,6,6,6,6,6,6,6,6,6,6,6,6,6,6,6,6,6,6,6,6,6,6,6,6,6,6,6,6,6,6,6,6,6",
			"name": "Expansion of (1 + x)*(1 + 2*x + 2*x^2 - 2*x^3) / (1 - x).",
			"formula": [
				"a(n) = 6 for n \u003e= 4."
			],
			"program": [
				"(PARI) Vec((1 + x)*(1 + 2*x + 2*x^2 - 2*x^3) / (1 - x) + O(x^80)) \\\\ _Colin Barker_, Nov 21 2019"
			],
			"xref": [
				"Row 3 of array in A329504."
			],
			"keyword": "nonn,easy",
			"offset": "0,2",
			"author": "_N. J. A. Sloane_, Nov 20 2019",
			"references": 1,
			"revision": 14,
			"time": "2019-11-27T02:47:17-05:00",
			"created": "2019-11-20T19:07:04-05:00"
		}
	]
}