{
	"greeting": "Greetings from The On-Line Encyclopedia of Integer Sequences! http://oeis.org/",
	"query": "id:A329701",
	"count": 1,
	"start": 0,
	"results": [
		{
			"number": 329701,
			"data": "1,1,2,2,4,5,11,17,38,67,148,282,616,1231,2674,5511,11957,25162,54673,116748,254393,549035,1200429,2611594,5730385,12544520,27620602,60766999,134232576,296533559,657000238,1456401504,3235647966,7193884621,16022254616,35714681625",
			"name": "Number of excursions of length n with Motzkin-steps avoiding the consecutive steps UH and HU.",
			"comment": [
				"The Motzkin step set is U=(1,1), H=(1,0) and D=(1,-1). An excursion is a path starting at (0,0), ending at (n,0) and never crossing the x-axis, i.e., staying at nonnegative altitude."
			],
			"link": [
				"Andrei Asinowski, Cyril Banderier, and Valerie Roitner, \u003ca href=\"https://lipn.univ-paris13.fr/~banderier/Papers/several_patterns.pdf\"\u003eGenerating functions for lattice paths with several forbidden patterns\u003c/a\u003e, preprint, 2019."
			],
			"formula": [
				"G.f.: (1 - t + t^3 - sqrt(1-2*t-3*t^2+6*t^3-2*t^4+t^6))/(2*t^2*(1-t)).",
				"G.f. A(x) satisfies: A(x) = x / (1 - x) + 1 / (1 - x^2 * A(x)). - _Ilya Gutkovskiy_, Nov 03 2021"
			],
			"example": [
				"a(4)=4 since we have 4 excursions of length 4, namely: UUDD, UDUD, UDHH and HHHH."
			],
			"mathematica": [
				"CoefficientList[Series[(1 - x + x^3 - Sqrt[1 - 2 x - 3 x^2 + 6 x^3 - 2 x^4 + x^6])/(2 x^2*(1 - x)), {x, 0, 35}], x] (* _Michael De Vlieger_, Dec 27 2019 *)"
			],
			"program": [
				"(PARI) Vec((1 - x + x^3 - sqrt(1-2*x-3*x^2+6*x^3-2*x^4+x^6+O(x^40)))/(2*x^2*(1-x))) \\\\ _Andrew Howroyd_, Dec 20 2019"
			],
			"xref": [
				"Cf. A329702."
			],
			"keyword": "nonn,walk",
			"offset": "0,3",
			"author": "_Valerie Roitner_, Dec 16 2019",
			"references": 1,
			"revision": 15,
			"time": "2021-11-03T12:51:07-04:00",
			"created": "2020-01-12T11:40:17-05:00"
		}
	]
}