{
	"greeting": "Greetings from The On-Line Encyclopedia of Integer Sequences! http://oeis.org/",
	"query": "id:A329621",
	"count": 1,
	"start": 0,
	"results": [
		{
			"number": 329621,
			"data": "1,1,1,2,1,1,1,1,2,2,1,4,1,1,1,4,1,1,1,1,6,2,1,1,6,1,2,2,1,6,1,1,1,2,1,2,1,1,2,2,1,1,1,1,1,2,1,2,8,1,3,4,1,1,2,1,2,1,1,1,1,2,2,2,1,4,1,1,1,2,1,1,1,1,2,2,9,3,1,1,8,2,1,4,2,1,6,8,1,4,2,1,1,2,1,1,1,1,3,8,1,2,1,1,1",
			"name": "a(n) = gcd(A056239(n), A324888(n)) = gcd(A001222(A108951(n)), A001222(A324886(n))).",
			"link": [
				"Antti Karttunen, \u003ca href=\"/A329621/b329621.txt\"\u003eTable of n, a(n) for n = 1..65537\u003c/a\u003e",
				"\u003ca href=\"/index/Pri#prime_indices\"\u003eIndex entries for sequences computed from indices in prime factorization\u003c/a\u003e",
				"\u003ca href=\"/index/Pri#primorialbase\"\u003eIndex entries for sequences related to primorial base\u003c/a\u003e",
				"\u003ca href=\"/index/Pri#primorial_numbers\"\u003eIndex entries for sequences related to primorial numbers\u003c/a\u003e"
			],
			"formula": [
				"a(n) = gcd(A056239(n), A324888(n)) = gcd(A001222(A108951(n)), A001222(A324886(n)))."
			],
			"mathematica": [
				"With[{b = MixedRadix[Reverse@ Prime@ Range@ 500]}, Array[GCD @@ PrimeOmega@ {#, Function[k, Times @@ Power @@@ # \u0026@ Transpose@ {Prime@ Range@ Length@ k, Reverse@ k}]@ IntegerDigits[#, b]} \u0026@ Apply[Times, Map[#1^#2 \u0026 @@ # \u0026, FactorInteger[#] /. {p_, e_} /; e \u003e 0 :\u003e {Times @@ Prime@ Range@ PrimePi@ p, e}]] \u0026, 105]] (* _Michael De Vlieger_, Nov 18 2019 *)"
			],
			"program": [
				"(PARI) A034386(n) = prod(i=1, primepi(n), prime(i));",
				"A108951(n) = { my(f=factor(n)); prod(i=1, #f~, A034386(f[i, 1])^f[i, 2]) };  \\\\ From A108951",
				"A276086(n) = { my(m=1, p=2); while(n, m *= (p^(n%p)); n = n\\p; p = nextprime(1+p)); (m); };",
				"A329621(n) = { my(u=A108951(n)); gcd(bigomega(u), bigomega(A276086(u))); };"
			],
			"xref": [
				"Cf. A001222, A034386, A056239, A108951, A276086, A324886, A324888, A329618, A329622."
			],
			"keyword": "nonn",
			"offset": "1,4",
			"author": "_Antti Karttunen_, Nov 18 2019",
			"references": 4,
			"revision": 9,
			"time": "2019-11-18T22:04:31-05:00",
			"created": "2019-11-18T22:04:31-05:00"
		}
	]
}