{
	"greeting": "Greetings from The On-Line Encyclopedia of Integer Sequences! http://oeis.org/",
	"query": "id:A329032",
	"count": 1,
	"start": 0,
	"results": [
		{
			"number": 329032,
			"data": "0,0,0,0,1,1,0,0,0,0,1,1,1,1,1,1,8,8,10,10,10,10,55,55,75,75,75,75,350,350,0,0,0,0,1,1,0,0,0,0,1,1,1,1,1,1,8,8,10,10,10,10,55,55,75,75,75,75,350,350,1,1,1,1,10,10,1,1,1,1,10,10,12,12,12,12,71,71,95,95,95,95,460,460,650,650,650,650,2825,2825,14,14,14,14",
			"name": "a(n) = A327860(A328842(n)).",
			"link": [
				"Antti Karttunen, \u003ca href=\"/A329032/b329032.txt\"\u003eTable of n, a(n) for n = 0..2589\u003c/a\u003e",
				"Antti Karttunen, \u003ca href=\"/A329032/a329032.txt\"\u003eData supplement: n, a(n) computed for n = 0..32768\u003c/a\u003e",
				"\u003ca href=\"/index/Pri#primorialbase\"\u003eIndex entries for sequences related to primorial base\u003c/a\u003e"
			],
			"formula": [
				"a(n) = A327860(A328842(n)) = A003415(A276086(A328842(n))) = A003415(A328572(n))."
			],
			"program": [
				"(PARI) A329032(n) = { my(s=0, m=1, p=2, e); while(n, e = (n%p); if(e, m *= (p^(e-1)); s += ((e-1)/p)); n = n\\p; p = nextprime(1+p)); (s*m); };"
			],
			"xref": [
				"Cf. A003415, A276086, A327860, A328572, A328842, A329031.",
				"Cf. A276156 (positions of zeros)."
			],
			"keyword": "nonn",
			"offset": "0,17",
			"author": "_Antti Karttunen_, Nov 07 2019",
			"references": 3,
			"revision": 11,
			"time": "2019-11-07T14:39:11-05:00",
			"created": "2019-11-07T14:39:11-05:00"
		}
	]
}