{
	"greeting": "Greetings from The On-Line Encyclopedia of Integer Sequences! http://oeis.org/",
	"query": "id:A329970",
	"count": 1,
	"start": 0,
	"results": [
		{
			"number": 329970,
			"data": "0,0,-2,3,0,-3,-7,16,2,-15,-21,31,24,-15,-57,34,25,-17,-27,77,8,-99,-111,155,117,-36,-140,40,25,-80,-96,259,112,-157,-249,202,183,-156,-354,224,203,-40,-62,342,-21,-524,-548,562,488,-34,-358,194,167,-262",
			"name": "a(n) = (-1)^(n + 1) * n * ceiling(n/2) + Sum_{k=1..n} (-1)^k * k^2 * floor(n/k).",
			"link": [
				"Amiram Eldar, \u003ca href=\"/A329970/b329970.txt\"\u003eTable of n, a(n) for n = 1..10000\u003c/a\u003e"
			],
			"formula": [
				"G.f.: x * (1 - x + 2*x^2) / ((1 - x)^2 * (1 + x)^3) + (1/(1 - x)) * Sum_{k\u003e=1} (-1)^k * k^2 * x^k / (1 - x^k).",
				"a(n) = Sum_{k=1..n} (-1)^(k + 1) * (n mod k) * k."
			],
			"mathematica": [
				"Table[(-1)^(n + 1) n Ceiling[n/2] + Sum[(-1)^k k^2 Floor[n/k], {k, 1, n}], {n, 1, 54}]",
				"nmax = 54; CoefficientList[Series[x (1 - x + 2 x^2)/((1 - x)^2 (1 + x)^3) + 1/(1 - x) Sum[(-1)^k k^2 x^k/(1 - x^k), {k, 1, nmax}], {x, 0, nmax}], x] // Rest",
				"Table[Sum[(-1)^(k + 1) Mod[n, k] k, {k, 1, n}], {n, 1, 54}]"
			],
			"program": [
				"(PARI) a(n) = (-1)^(n + 1)*n*ceil(n/2) + sum(k=1, n, (-1)^k * k^2 * (n\\k)); \\\\ _Michel Marcus_, Sep 20 2021"
			],
			"xref": [
				"Cf. A004125, A051126, A093005, A154585, A309176."
			],
			"keyword": "sign",
			"offset": "1,3",
			"author": "_Ilya Gutkovskiy_, Nov 26 2019",
			"references": 1,
			"revision": 11,
			"time": "2021-09-20T22:14:34-04:00",
			"created": "2019-11-26T20:06:23-05:00"
		}
	]
}