{
	"greeting": "Greetings from The On-Line Encyclopedia of Integer Sequences! http://oeis.org/",
	"query": "id:A329812",
	"count": 1,
	"start": 0,
	"results": [
		{
			"number": 329812,
			"data": "1,2,6,8,120,12,5040,128,1296,240,39916800,48,6227020800,10080,720,8192,355687428096000,2592,121645100408832000,960,30240,79833600,25852016738884976640000,768,384000000,12454041600,25509168,40320,8841761993739701954543616000000,1440",
			"name": "Number of permutation polynomials (mod n).",
			"comment": [
				"a(n) is the number of unique bijective functions from Z/nZ to itself induced by polynomials over Z/nZ."
			],
			"link": [
				"Kenneth G. Hawes, \u003ca href=\"/A329812/b329812.txt\"\u003eTable of n, a(n) for n = 1..456\u003c/a\u003e",
				"G. Keller and F. R. Olson, \u003ca href=\"https://doi.org/10.1215/S0012-7094-68-03589-8\"\u003eCounting polynomial function (mod p^n)\u003c/a\u003e, Duke Mathematical Journal, 35 (1968), 835-838.",
				"Kenneth G. Hawes, \u003ca href=\"/A329812/a329812_1.txt\"\u003eSageMath program for generating the sequence\u003c/a\u003e",
				"Kenneth G. Hawes, \u003ca href=\"/A329812/a329812_2.txt\"\u003eAdditional terms including those with more than 1000 digits, n = 1..5000\u003c/a\u003e"
			],
			"formula": [
				"a(n) = Product_{i=1..r} a(p_i^k_i) for n having the unique prime factorization n = Product_{i=1..r} p_i^k_i.",
				"a(p^k) = p! if k=1, a(p^k) = p!*(p-1)^p*p^p if k=2, and a(p^k) = p!*(p-1)^p*p^(p+f(p,k)) if k\u003e2, where f(p,k) = Sum_{i=3..k} A002034(p^i)."
			],
			"example": [
				"For n=3, since it is a prime number, a(3)=3!=6.",
				"For n=4=2^2, a(4)=2!*(2-1)^2*2^2=8."
			],
			"xref": [
				"Formula involves the Kempner function A002034."
			],
			"keyword": "nonn,mult",
			"offset": "1,2",
			"author": "_Kenneth G. Hawes_, Nov 21 2019",
			"references": 1,
			"revision": 23,
			"time": "2019-12-30T19:47:59-05:00",
			"created": "2019-12-30T19:47:59-05:00"
		}
	]
}