{
	"greeting": "Greetings from The On-Line Encyclopedia of Integer Sequences! http://oeis.org/",
	"query": "id:A329191",
	"count": 1,
	"start": 0,
	"results": [
		{
			"number": 329191,
			"data": "2,3,5,7,11,13,17,19,23,29,31,37,41,43,47,59,67,71",
			"name": "The prime divisors of the orders of the sporadic finite simple groups.",
			"comment": [
				"This list is complete according to the classification theorem for finite simple groups.",
				"This list includes all primes \u003c 72 except 53 and 61, which do not divide the order of any sporadic finite simple group.",
				"All entries on this list divide the order of the Monster, except 37, 43, and 67."
			],
			"reference": [
				"J. H. Conway, R. T. Curtis, S. P. Norton, R. A. Parker and R. A. Wilson, ATLAS of Finite Groups. Oxford Univ. Press, 1985."
			],
			"link": [
				"R. A. Wilson et al., ATLAS of Finite Group Representations, version 3, \u003ca href=\"http://brauer.maths.qmul.ac.uk/Atlas/v3/spor/\"\u003eSporadic groups\u003c/a\u003e"
			],
			"example": [
				"The first term is necessarily 2, by the Feit-Thompson theorem."
			],
			"xref": [
				"Cf. A001228, A005180, A174670."
			],
			"keyword": "nonn,fini,full",
			"offset": "1,1",
			"author": "_Hal M. Switkay_, Nov 07 2019",
			"references": 0,
			"revision": 4,
			"time": "2019-11-07T22:00:57-05:00",
			"created": "2019-11-07T22:00:57-05:00"
		}
	]
}