{
	"greeting": "Greetings from The On-Line Encyclopedia of Integer Sequences! http://oeis.org/",
	"query": "id:A330372",
	"count": 1,
	"start": 0,
	"results": [
		{
			"number": 330372,
			"data": "0,1,0,2,1,2,2,3,1,1,3,2,1,4,1,1,1,4,2,1,1,3,3,2,5,1,1,1,1,3,3,3,5,2,1,1,1,4,3,2,1,6,1,1,1,1,1,4,3,3,1,6,2,1,1,1,1,5,3,2,1,1,4,4,2,2,7,1,1,1,1,1,1,5,3,3,1,1,4,4,3,2",
			"name": "Irregular triangle read by rows in which row n lists the self-conjugate partitions of n, ordered by their k-th largest parts, or 0 if such partitions does not exist.",
			"comment": [
				"Row n lists the partitions of n whose Ferrers diagrams are symmetrics.",
				"The k-th part of a partition equals the number of parts \u003e= k of its conjugate partition. Hence, the k-th part of a self-conjugate partition equals the number of parts \u003e= k.",
				"The k-th rank of a partition is the k-th part minus the number of parts \u003e= k. Thus all ranks of a conjugate-partitions are zero. Therefore row n lists the partitions of n whose n ranks are zero, n \u003e= 1. For more information about the k-th ranks see A208478."
			],
			"link": [
				"Freddy Barrera, \u003ca href=\"/A330372/b330372.txt\"\u003eRows n = 0..50, flattened\u003c/a\u003e"
			],
			"example": [
				"Triangle begins (rows n = 0..10):",
				"[0];",
				"[1];",
				"[0];",
				"[2, 1];",
				"[2, 2];",
				"[3, 1, 1];",
				"[3, 2, 1];",
				"[4, 1, 1, 1];",
				"[4, 2, 1, 1], [3, 3, 2];",
				"[5, 1, 1, 1, 1], [3, 3, 3];",
				"[5, 2, 1, 1, 1], [4, 3, 2, 1];",
				"...",
				"For n = 10 there are only two partitions of 10 whose Ferrers diagram are symmetric, they are [5, 2, 1, 1, 1] and [4, 3, 2, 1] as shown below:",
				"  * * * * *",
				"  * *",
				"  *",
				"  *",
				"  *",
				"            * * * *",
				"            * * *",
				"            * *",
				"            *",
				"So these partitions form the 10th row of triangle.",
				"On the other hand, only two partitions of 10 have all their ranks equal to zero, they are [5, 2, 1, 1, 1] and [4, 3, 2, 1], so these partitions form the 10th row of triangle."
			],
			"xref": [
				"Row n contains A000700(n) partitions.",
				"The number of positive terms in row n is A067619(n).",
				"Row sums give A330373.",
				"Column 2 gives A000034.",
				"Column 3 gives A000012.",
				"For \"k-th rank\" of a partition see also: A181187, A208478, A208479, A208482, A208483, A330370."
			],
			"keyword": "nonn,tabf",
			"offset": "0,4",
			"author": "_Omar E. Pol_, Dec 17 2019",
			"ext": [
				"More terms from _Freddy Barrera_, Dec 31 2019"
			],
			"references": 3,
			"revision": 50,
			"time": "2020-02-20T13:57:32-05:00",
			"created": "2019-12-31T08:26:05-05:00"
		}
	]
}