{
	"greeting": "Greetings from The On-Line Encyclopedia of Integer Sequences! http://oeis.org/",
	"query": "id:A330713",
	"count": 1,
	"start": 0,
	"results": [
		{
			"number": 330713,
			"data": "1,7475,10205,13740,40754,52479,93044,95984,141911,151487,196416,198255,202824,202895,213920,231552,335535,339744,363320,366876,404719,408680,434259,446480,487710,495159,504440,528408,585599,607410,645560,646575,665567,735020,736280",
			"name": "Numbers k such that both k and k+1 are Zeckendorf-Niven numbers (A328208) and lazy-Fibonacci-Niven numbers (A328212).",
			"comment": [
				"Can 3 consecutive numbers be both Zeckendorf-Niven numbers and lazy-Fibonacci-Niven numbers? Equivalently, are there numbers that are both in A328210 and A328214?"
			],
			"link": [
				"Amiram Eldar, \u003ca href=\"/A330713/b330713.txt\"\u003eTable of n, a(n) for n = 1..1000\u003c/a\u003e"
			],
			"example": [
				"7475 is a term since A007895(7475) = 5 and A112310(7475) = 13 and both 5 and 13 are divisors of 7475, and A007895(7476) = 6 and A112310(7476) = 12 and both 6 and 12 are divisors of 7476."
			],
			"xref": [
				"Intersection of A328209 and A328213.",
				"Cf. A328208, A328210, A328212, A328214, A330711."
			],
			"keyword": "nonn",
			"offset": "1,2",
			"author": "_Amiram Eldar_, Dec 27 2019",
			"references": 3,
			"revision": 11,
			"time": "2019-12-28T14:19:07-05:00",
			"created": "2019-12-27T19:15:00-05:00"
		}
	]
}