{
	"greeting": "Greetings from The On-Line Encyclopedia of Integer Sequences! http://oeis.org/",
	"query": "id:A330500",
	"count": 1,
	"start": 0,
	"results": [
		{
			"number": 330500,
			"data": "1,1,2,3,4,5,6,7,9,11,13,16,19,22,26,30,34,39,44,49,55,61,67,74,81,88,97,106,115,126,137,148,161,174,187,203,219,235,254,273,292,314,336,358,384,410,436,466,496,526,560,594,628,667,706,745,789,833,877",
			"name": "a(n) = a(n-1) + a(floor(n/3)), a(1) = a(2) = 1.",
			"comment": [
				"Also, the number of finite sequences b(1..r) satisfying b(1) = 1 and b(i+1) \u003e= 3*b(i) and b(r) \u003c= n."
			],
			"example": [
				"For n = 10 the 11 sequences enumerated are (1), (1,3), (1,4), (1,5), (1,6), (1,7), (1,8), (1,9), (1,10), (1,3,9), (1,3,10)."
			],
			"maple": [
				"a:= proc(n) option remember;",
				"      `if`(n\u003c2, n, a(n-1)+a(iquo(n, 3)))",
				"    end:",
				"seq(a(n), n=1..75);  # _Alois P. Heinz_, Dec 16 2019"
			],
			"mathematica": [
				"Nest[Append[#1, #1[[-1]] + #1[[Floor[#2/3] ]] ] \u0026 @@ {#, Length@ # + 1} \u0026, {1, 1}, 57] (* _Michael De Vlieger_, Dec 16 2019 *)"
			],
			"xref": [
				"An analog of A033485."
			],
			"keyword": "nonn",
			"offset": "1,3",
			"author": "_Jeffrey Shallit_, Dec 16 2019",
			"references": 1,
			"revision": 22,
			"time": "2019-12-16T20:05:20-05:00",
			"created": "2019-12-16T20:05:20-05:00"
		}
	]
}