{
	"greeting": "Greetings from The On-Line Encyclopedia of Integer Sequences! http://oeis.org/",
	"query": "id:A330413",
	"count": 1,
	"start": 0,
	"results": [
		{
			"number": 330413,
			"data": "268,4336,69568,73014378496,18691696623616,80280230208715249156096,5516815412193254337299253840314368,22596875928343569838211798520159010816,106710729501573572985208420194451100911225778218295042768896,7689318425915528602346510723233181380859942271270135051778769275060995751936",
			"name": "Integers m such that sigma(m) + sigma(16*m) = 34*m.",
			"comment": [
				"This is the case h = 16 of the h-perfect numbers as defined in the Harborth link."
			],
			"link": [
				"Heiko Harborth, \u003ca href=\"http://ami.ektf.hu/uploads/papers/finalpdf/AMI_41_from57to62.pdf\"\u003eOn h-perfect numbers\u003c/a\u003e, Annales Mathematicae et Informaticae, 41 (2013) pp. 57-62."
			],
			"formula": [
				"a(n) = 2^A001774(n) * (17*2^A001774(n) - 1)."
			],
			"example": [
				"268 is a term since sigma(268) + sigma(16*268) = 9112, that is 34*268."
			],
			"program": [
				"(PARI) isok(m) = sigma(m) + sigma(16*m) == 34*m;"
			],
			"xref": [
				"Cf. A000203, A000396, A001774, A136539, A281993, A330412."
			],
			"keyword": "nonn",
			"offset": "1,1",
			"author": "_Jinyuan Wang_, Feb 12 2020",
			"references": 2,
			"revision": 7,
			"time": "2020-02-24T04:25:00-05:00",
			"created": "2020-02-24T04:25:00-05:00"
		}
	]
}