{
	"greeting": "Greetings from The On-Line Encyclopedia of Integer Sequences! http://oeis.org/",
	"query": "id:A330171",
	"count": 1,
	"start": 0,
	"results": [
		{
			"number": 330171,
			"data": "9,19,30,40,51,60,70,81,91,102,112,121,132,142,153,163,174,183,193,204,214,225,235,244,255,265,276,286,297,306,316,327,337,348,357,367,378,388,399,409,418,429,439,450,460,471,480,490,501,511,522,532,541,552",
			"name": "a(n) = n + floor(ns/r) + floor(nt/r), where r = sqrt(2) - 1, s = sqrt(2), t = sqrt(2) + 1.",
			"comment": [
				"This is one of three sequences that partition the positive integers.  In general, suppose that r, s, t are positive real numbers for which the sets {i/r: i\u003e=1}, {j/s: j\u003e=1}, {k/t: k\u003e=1} are disjoint. Let a(n) be the rank of n/r when all the numbers in the three sets are jointly ranked.  Define b(n) and c(n) as the ranks of n/s and n/t.  It is easy to prove that",
				"a(n)=n+[ns/r]+[nt/r],",
				"b(n)=n+[nr/s]+[nt/s],",
				"c(n)=n+[nr/t]+[ns/t], where []=floor.",
				"Taking r = sqrt(2) - 1, s = sqrt(2), t = sqrt(2) + 1 yields",
				"a=A330171, b=A016789, c=A330172."
			],
			"formula": [
				"a(n) = n + floor(ns/r) + floor(nt/r), where r = sqrt(2) - 1, s = sqrt(2), t = sqrt(2) + 1."
			],
			"mathematica": [
				"r = Sqrt[2] - 1; s = Sqrt[2]; t = Sqrt[2] + 1;",
				"a[n_] := n + Floor[n*s/r] + Floor[n*t/r];",
				"b[n_] := n + Floor[n*r/s] + Floor[n*t/s];",
				"c[n_] := n + Floor[n*r/t] + Floor[n*s/t]",
				"Table[a[n], {n, 1, 120}]  (* A330171 *)",
				"Table[b[n], {n, 1, 120}]  (* A016789 *)",
				"Table[c[n], {n, 1, 120}]  (* A330172 *)"
			],
			"xref": [
				"Cf. A016789, A330172."
			],
			"keyword": "nonn,easy",
			"offset": "1,1",
			"author": "_Clark Kimberling_, Jan 04 2020",
			"references": 2,
			"revision": 5,
			"time": "2020-01-05T08:13:08-05:00",
			"created": "2020-01-05T08:13:08-05:00"
		}
	]
}