{
	"greeting": "Greetings from The On-Line Encyclopedia of Integer Sequences! http://oeis.org/",
	"query": "id:A330542",
	"count": 1,
	"start": 0,
	"results": [
		{
			"number": 330542,
			"data": "2,6,12,30,60,120,252,504,504,504,504,2730,16380,32760,65520,65520,65520,65520,65520,65520,65520,65520,65520,65520,65520,65520,65520,131040,131040,131040,131040,171864,171864,171864,171864,1919190,11515140,69090840",
			"name": "Maximum value in n-th row of A330541.",
			"comment": [
				"This sequence is weakly increasing."
			],
			"link": [
				"Peter Kagey, \u003ca href=\"/A330542/b330542.txt\"\u003eTable of n, a(n) for n = 2..1000\u003c/a\u003e"
			],
			"keyword": "nonn",
			"offset": "2,1",
			"author": "_Peter Kagey_, Dec 17 2019",
			"references": 2,
			"revision": 10,
			"time": "2019-12-22T16:18:13-05:00",
			"created": "2019-12-21T14:32:07-05:00"
		}
	]
}