{
	"greeting": "Greetings from The On-Line Encyclopedia of Integer Sequences! http://oeis.org/",
	"query": "id:A330958",
	"count": 1,
	"start": 0,
	"results": [
		{
			"number": 330958,
			"data": "0,1,1,1,1,1,3,3,1,1,2,3,2,3,3,3,1,1,2,3,2,3,3,3,3,3,3,3,6,7,7,7,1,1,2,3,2,3,3,3,3,3,3,3,5,5,7,7,3,3,3,3,5,5,6,7,6,7,6,7,6,7,7,7,1,1,2,3,2,3,3,3,3,3,3,3,5,5,7,7,3,3,3,3,5,5,6",
			"name": "For any n \u003e= 0: consider all pairs of numbers (x, y) whose binary representations can be interleaved (or shuffled) to produce the binary representation of n (possibly with leading zeros); a(n) is the least possible value of x OR y (where OR denotes the bitwise OR operator).",
			"link": [
				"Rémy Sigrist, \u003ca href=\"/A330958/a330958.txt\"\u003eC program for A330958\u003c/a\u003e",
				"\u003ca href=\"/index/Bi#binary\"\u003eIndex entries for sequences related to binary expansion of n\u003c/a\u003e"
			],
			"example": [
				"For n = 5:",
				"- the binary representation of 5 is \"101\",",
				"- the possible values for (x, y), restricted to x \u003e= y without loss of generality, are:",
				"  bin(5)   x  y  x OR y",
				"  -------  -  -  ------",
				"  \"101\"    5  0       5",
				"  \"1/01\"   1  1       1",
				"  \"10/1\"   2  1       3",
				"  \"1/0/1\"  3  0       3",
				"- hence a(5) = 1."
			],
			"program": [
				"(C) See Links section."
			],
			"xref": [
				"See A330925 for similar sequences.",
				"Cf. A327186."
			],
			"keyword": "nonn,base",
			"offset": "0,7",
			"author": "_Rémy Sigrist_, Jan 04 2020",
			"references": 2,
			"revision": 7,
			"time": "2020-01-05T12:58:07-05:00",
			"created": "2020-01-05T12:58:07-05:00"
		}
	]
}