{
	"greeting": "Greetings from The On-Line Encyclopedia of Integer Sequences! http://oeis.org/",
	"query": "id:A330846",
	"count": 1,
	"start": 0,
	"results": [
		{
			"number": 330846,
			"data": "19,301,1753,6913,17713,38497,80473,139927,225595,356329,549967,756901,1113283,1474867,1913365,2620789,3418081,4119175,5428993,6453235,7861957,9761335,11913115,13695055,16489633,19439797,22464883,25997329,30860593,33866305",
			"name": "The number of vertices inside a hexagon formed by the straight line segments mutually connecting all vertices and all points that divide the sides into n equal parts.",
			"comment": [
				"See the links in A331931 for images of the hexagons."
			],
			"xref": [
				"Cf. A331931 (regions), A331932 (n-gons), A330845 (edges), A092866, A332599, A007569."
			],
			"keyword": "nonn",
			"offset": "1,1",
			"author": "_Scott R. Shannon_ and _N. J. A. Sloane_, Mar 07 2020",
			"ext": [
				"a(9)-a(30) from _Lars Blomberg_, May 12 2020"
			],
			"references": 9,
			"revision": 32,
			"time": "2020-05-12T05:45:04-04:00",
			"created": "2020-03-07T19:46:34-05:00"
		}
	]
}