{
	"greeting": "Greetings from The On-Line Encyclopedia of Integer Sequences! http://oeis.org/",
	"query": "id:A330801",
	"count": 1,
	"start": 0,
	"results": [
		{
			"number": 330801,
			"data": "1,4,30,264,2490,24396,244790,2496528,25763058,268243860,2812481870,29653804824,314097641130,3339741725404,35626286189670,381098437754912,4086504567333858,43912100376527652,472743964145437310,5097853987059017000,55054474579787825562",
			"name": "a(n) = A080247(2*n, n), the central values of the Big-Schröder triangle.",
			"formula": [
				"a(n) = ((n+1)/(2*n+1))*Sum_{j=0..n} binomial(2*n+1, n+j+1)*binomial(2*n+j, j).",
				"a(n) = ((n+1)/(2*n+1))*binomial(2*n+1, n+1)*hypergeom([-n, 2*n + 1], [n + 2], -1)."
			],
			"maple": [
				"a := n -\u003e ((n+1)/(2*n+1))*binomial(2*n+1, n+1)*hypergeom([-n, 2*n+1], [n+2], -1):",
				"seq(simplify(a(n)), n=0..20);",
				"# Alternative:",
				"alias(C = binomial):",
				"a := n -\u003e ((n+1)/(2*n+1))*add(C(2*n+1, n+j+1)*C(2*n+j, j), j=0..n):",
				"seq(a(n), n=0..20);"
			],
			"mathematica": [
				"a[n_]:= (1/Sqrt[Pi]) 4^n (1 + n) Gamma[1/2 + n] Hypergeometric2F1Regularized[-n, 1 + 2 n, 2 + n, -1]; Table[a[n], {n, 0, 20}]"
			],
			"xref": [
				"Row sums of A330798.",
				"Cf. A080247."
			],
			"keyword": "nonn",
			"offset": "0,2",
			"author": "_Peter Luschny_, Jan 02 2020",
			"references": 1,
			"revision": 4,
			"time": "2020-01-02T08:59:12-05:00",
			"created": "2020-01-02T08:59:12-05:00"
		}
	]
}