{
	"greeting": "Greetings from The On-Line Encyclopedia of Integer Sequences! http://oeis.org/",
	"query": "id:A330429",
	"count": 1,
	"start": 0,
	"results": [
		{
			"number": 330429,
			"data": "9,15,1005079920836,13695542245376,26160864154416,27402841561095,27599063056565,110263115897935,124632211478775,127400054266476,154090744843026,205849483744896,231019991767556,339938754880725,459718637643265,632733228632505,646552697065275,683008674773416,884965354448175",
			"name": "Numbers k such that phi(k) = phi(k+9), where phi (A000010) is Euler's totient function.",
			"comment": [
				"a(20) \u003e 10^15."
			],
			"link": [
				"Kevin Ford, \u003ca href=\"https://arxiv.org/abs/2002.12155\"\u003eSolutions of phi(n)=phi(n+k) and sigma(n)=sigma(n+k)\u003c/a\u003e, arXiv:2002.12155 [math.NT], 2020.",
				"S. W. Graham, J. J. Holt, and C. Pomerance, \u003ca href=\"https://math.dartmouth.edu/~carlp/phi.pdf\"\u003eOn the solutions to phi(n) = phi(n+k)\u003c/a\u003e, Number Theory in Progress, K. Gyory, H. Iwaniec, and J. Urbanowicz, eds., vol. 2, de Gruyter, Berlin and New York, 1999, pp. 867-882."
			],
			"xref": [
				"Cf. A000010, A007015.",
				"Cf. A001274, A001494, A330251, A179186, A179187, A179188, A179189, A179202.",
				"Cf. A276503, A276504, A217139."
			],
			"keyword": "nonn",
			"offset": "1,1",
			"author": "_Giovanni Resta_, Mar 01 2020",
			"references": 1,
			"revision": 10,
			"time": "2020-03-01T08:15:37-05:00",
			"created": "2020-03-01T08:15:37-05:00"
		}
	]
}