{
	"greeting": "Greetings from The On-Line Encyclopedia of Integer Sequences! http://oeis.org/",
	"query": "id:A330086",
	"count": 1,
	"start": 0,
	"results": [
		{
			"number": 330086,
			"data": "2,1,4,2,1,1,3,4,2,1,1,2,1,1,3,8,2,1,4,2,1,1,1,4,2,1,1,2,1,1,3,16,2,1,4,2,1,1,3,4,2,1,1,2,1,1,1,8,2,1,4,2,1,1,1,4,2,1,1,2,1,1,3,32,2,1,4,2,1,1,3,4,2,1,1,2,1,1,3,8,2,1,4,2,1,1",
			"name": "Least positive integer k such that A014577(k - 1) != A014577(n + k - 1).",
			"comment": [
				"a(2n) = A006519(n) and a(2n+1) = b(n), where (b(n))_{n \u003e= 0} is a 2-automatic sequence defined by applying the coding tau(01234) = 24131 to the fixed point of the morphism defined by 0 -\u003e 01, 1 -\u003e 23, 2 -\u003e 04, 3 -\u003e 23, 4 -\u003e 24."
			],
			"link": [
				"Peter Luschny, \u003ca href=\"/A330086/b330086.txt\"\u003eTable of n, a(n) for n = 1..1000\u003c/a\u003e"
			],
			"maple": [
				"with(ListTools): with(numtheory):",
				"J := (n, k) -\u003e jacobi(-1, k) \u003c\u003e jacobi(-1, n+k):",
				"a := n -\u003e SelectFirst(k -\u003e J(n, k), [seq(k, k=1..100000)]):",
				"seq(a(n), n=1..86); # _Peter Luschny_, Dec 02 2019"
			],
			"mathematica": [
				"Block[{nn = 86, s}, s = Array[Boole[EvenQ[((# + 1)/2^IntegerExponent[# + 1, 2] - 1)/2]] \u0026, 3 nn, 0]; Array[Block[{i = 1}, While[s[[i]] == s[[# + i]], i++]; i] \u0026, nn]] (* _Michael De Vlieger_, Dec 01 2019 *)"
			],
			"xref": [
				"Cf. A014577, A006519."
			],
			"keyword": "nonn",
			"offset": "1,1",
			"author": "_Jeffrey Shallit_, Dec 01 2019",
			"references": 1,
			"revision": 16,
			"time": "2019-12-03T05:12:23-05:00",
			"created": "2019-12-02T14:04:47-05:00"
		}
	]
}