{
	"greeting": "Greetings from The On-Line Encyclopedia of Integer Sequences! http://oeis.org/",
	"query": "id:A330585",
	"count": 1,
	"start": 0,
	"results": [
		{
			"number": 330585,
			"data": "60,168,360,504,660,1092,2448,2520,3420,4080,5616,6048,6072,7800,7920,12180,14880,20160,20160,25920,29120,32736,58800,62400,95040,102660,126000,175560,178920,181440,265680,372000,443520,604800",
			"name": "The orders, with repetition, of the non-cyclic finite simple groups that are subquotients of the sporadic finite simple groups.",
			"comment": [
				"By the classification theorem for finite simple groups, there are exactly 26 sporadic finite simple groups, whose orders form A001228. The online ATLAS includes lists of the maximal subgroups of these groups, and entries for their simple subquotients.",
				"Subsequence of A083207. - _Ivan N. Ianakiev_, Jan 02 2020"
			],
			"reference": [
				"J. H. Conway, R. T. Curtis, S. P. Norton, R. A. Parker and R. A. Wilson, ATLAS of Finite Groups. Oxford Univ. Press, 1985."
			],
			"link": [
				"Hal M. Switkay, \u003ca href=\"/A330585/b330585.txt\"\u003eTable of n, a(n) for n = 1..82\u003c/a\u003e",
				"Ivan N. Ianakiev, \u003ca href=\"/A330585/a330585.txt\"\u003eSubsequence of A083207, Proof\u003c/a\u003e",
				"David A. Madore, \u003ca href=\"http://www.madore.org/~david/math/simplegroups.html\"\u003eOrders of non-abelian simple groups\u003c/a\u003e",
				"R. A. Wilson et al., \u003ca href=\"http://brauer.maths.qmul.ac.uk/Atlas/v3/\"\u003eATLAS of Finite Group Representations - Version 3\u003c/a\u003e"
			],
			"example": [
				"This list includes the orders of all non-cyclic simple groups of order less than 9828. L2(27), of order 9828, does not appear as a subquotient of any of the sporadic finite simple groups."
			],
			"xref": [
				"Cf. A109379, A001228, A083207."
			],
			"keyword": "nonn,fini,full",
			"offset": "1,1",
			"author": "_Hal M. Switkay_, Dec 18 2019",
			"references": 2,
			"revision": 29,
			"time": "2020-01-06T21:27:28-05:00",
			"created": "2020-01-02T08:45:50-05:00"
		}
	]
}