{
	"greeting": "Greetings from The On-Line Encyclopedia of Integer Sequences! http://oeis.org/",
	"query": "id:A330479",
	"count": 1,
	"start": 0,
	"results": [
		{
			"number": 330479,
			"data": "1,2,7,7,8,1,1,2,1,9,7,8,6,1,3,0,0,4,5,4,4,6,0,8,5,4,9,2,1,1,5,0,0,1,5,6,2,6,3,6,0,6,3,1,1,4,1,1,0,3,6,9,4,6,4,8,1,7,4,2,5,5,6,4,5,0,4,5,1,4,7,5,9,2,1,5,8,1,1,5,5,2,6,7,6,8,6,2,4,9,7,0,1,5,8,2,4,3,5,8,9,5,4,7,5",
			"name": "Decimal expansion of 2*e^2-2 (or 2*(e^2-1)).",
			"comment": [
				"Solution of the equation W(x+W(x+W(...))) = 2, where W(x) is the Lambert W function.",
				"2*e^2-2 is a transcendental number."
			],
			"formula": [
				"Equals 2*(A072334 - 1)."
			],
			"example": [
				"12.7781121978613004544608549211500156263606311411036946481742556450..."
			],
			"mathematica": [
				"RealDigits[2*(E^2-1), 10, 105][[1]] (* _Amiram Eldar_, Dec 19 2019 *)"
			],
			"xref": [
				"Cf. A001113, A072334."
			],
			"keyword": "easy,cons,nonn",
			"offset": "2,2",
			"author": "_Eder Vanzei_, Dec 15 2019",
			"references": 0,
			"revision": 12,
			"time": "2020-01-24T13:52:57-05:00",
			"created": "2020-01-24T13:52:57-05:00"
		}
	]
}