{
	"greeting": "Greetings from The On-Line Encyclopedia of Integer Sequences! http://oeis.org/",
	"query": "id:A330054",
	"count": 1,
	"start": 0,
	"results": [
		{
			"number": 330054,
			"data": "1,0,0,0,1,0,4,4,16,26,87",
			"name": "Number of non-isomorphic set-systems of weight n with no endpoints.",
			"comment": [
				"A set-system is a finite set of finite nonempty set of positive integers. An endpoint is a vertex appearing only once (degree 1). The weight of a set-system is the sum of sizes of its parts. Weight is generally not the same as number of vertices."
			],
			"link": [
				"Wikipedia, \u003ca href=\"https://en.wikipedia.org/wiki/Degree_(graph_theory)\"\u003eDegree (graph theory)\u003c/a\u003e"
			],
			"example": [
				"Non-isomorphic representatives of the a(0) = 1 through a(8) = 16 multiset partitions (empty columns not shown):",
				"  0  {1}{2}{12}  {12}{13}{23}    {13}{23}{123}      {12}{134}{234}",
				"                 {1}{23}{123}    {1}{3}{23}{123}    {1}{234}{1234}",
				"                 {1}{2}{13}{23}  {3}{12}{13}{23}    {12}{34}{1234}",
				"                 {1}{2}{3}{123}  {1}{2}{3}{13}{23}  {1}{12}{34}{234}",
				"                                                    {12}{13}{24}{34}",
				"                                                    {1}{2}{134}{234}",
				"                                                    {1}{2}{34}{1234}",
				"                                                    {2}{13}{14}{234}",
				"                                                    {2}{13}{23}{123}",
				"                                                    {3}{13}{23}{123}",
				"                                                    {1}{2}{13}{24}{34}",
				"                                                    {1}{2}{3}{14}{234}",
				"                                                    {1}{2}{3}{23}{123}",
				"                                                    {1}{2}{3}{4}{1234}",
				"                                                    {2}{3}{12}{13}{23}",
				"                                                    {1}{2}{3}{4}{12}{34}"
			],
			"xref": [
				"The complement is counted by A330052.",
				"The multiset partition version is A302545.",
				"Non-isomorphic set-systems with no singletons are A306005.",
				"Non-isomorphic set-systems counted by vertices are A000612.",
				"Non-isomorphic set-systems counted by weight are A283877.",
				"Cf. A007716, A055621, A317533, A317794, A319559, A320665, A330055, A330056, A330058."
			],
			"keyword": "nonn,more",
			"offset": "0,7",
			"author": "_Gus Wiseman_, Nov 30 2019",
			"references": 9,
			"revision": 5,
			"time": "2019-11-30T10:23:15-05:00",
			"created": "2019-11-30T10:23:15-05:00"
		}
	]
}