{
	"greeting": "Greetings from The On-Line Encyclopedia of Integer Sequences! http://oeis.org/",
	"query": "id:A331024",
	"count": 1,
	"start": 0,
	"results": [
		{
			"number": 331024,
			"data": "1,1,1,1,1,1,1,2,1,1,1,3,1,1,1,2,1,3,1,3,1,1,1,5,1,1,2,3,1,1,1,3,1,1,1,5,1,1,1,5,1,1,1,3,3,1,1,7,1,3,1,3,1,5,1,5,1,1,1,9,1,1,3,4,1,1,1,3,1,1,1,9,1,1,3,3,1,1,1,7,2,1,1,9,1,1,1,5,1,9,1,3,1,1,1,10,1,3,3,5,1,1,1,5,1",
			"name": "Denominator: factorizations divided by strict factorizations A001055(n)/A045778(n).",
			"comment": [
				"A factorization of n is a finite, nondecreasing sequence of positive integers \u003e 1 with product n. It is strict if the factors are all different. Factorizations and strict factorizations are counted by A001055 and A045778 respectively."
			],
			"link": [
				"Antti Karttunen, \u003ca href=\"/A331024/b331024.txt\"\u003eTable of n, a(n) for n = 1..65537\u003c/a\u003e",
				"\u003ca href=\"/index/Eu#epf\"\u003eIndex entries for sequences computed from exponents in factorization of n\u003c/a\u003e"
			],
			"formula": [
				"a(2^n) = A330995(n)."
			],
			"mathematica": [
				"facs[n_]:=If[n\u003c=1,{{}},Join@@Table[Map[Prepend[#,d]\u0026,Select[facs[n/d],Min@@#\u003e=d\u0026]],{d,Rest[Divisors[n]]}]];",
				"Table[Length[facs[n]]/Length[Select[facs[n],UnsameQ@@#\u0026]],{n,100}]//Denominator"
			],
			"program": [
				"(PARI)",
				"A001055(n, m=n) = if(1==n, 1, my(s=0); fordiv(n, d, if((d\u003e1)\u0026\u0026(d\u003c=m), s += A001055(n/d, d))); (s));",
				"A045778(n, m=n) = ((n\u003c=m) + sumdiv(n, d, if((d\u003e1)\u0026\u0026(d\u003c=m)\u0026\u0026(d\u003cn), A045778(n/d, d-1))));",
				"A331024(n) = denominator(A001055(n)/A045778(n)); \\\\ _Antti Karttunen_, May 27 2021"
			],
			"xref": [
				"Positions of 1's include all elements of A001248 as well as A005117. The first position of a 1 that is not in A167207 is 128.",
				"The numerators are A331023.",
				"The rounded quotients are A331048.",
				"The same for integer partitions is A330995.",
				"Cf. A001055, A005117, A045778, A045779, A045780, A045782, A045783, A325755, A326028, A326622, A328966, A330972, A330977, A330991."
			],
			"keyword": "nonn,frac",
			"offset": "1,8",
			"author": "_Gus Wiseman_, Jan 08 2020",
			"ext": [
				"More terms from _Antti Karttunen_, May 27 2021"
			],
			"references": 9,
			"revision": 11,
			"time": "2021-05-28T00:56:14-04:00",
			"created": "2020-01-09T18:13:58-05:00"
		}
	]
}