{
	"greeting": "Greetings from The On-Line Encyclopedia of Integer Sequences! http://oeis.org/",
	"query": "id:A331885",
	"count": 1,
	"start": 0,
	"results": [
		{
			"number": 331885,
			"data": "1,0,1,1,2,1,4,1,5,3,8,1,16,1,16,9,22,1,51,1,51,17,57,1,147,7,102,30,152,1,620,1,231,58,298,21,946,1,491,103,921,1,3249,1,1060,325,1256,1,4866,15,3157,299,2539,1,10369,62,4846,492,4566,1,45786,1,6843",
			"name": "Number of partitions of n into parts having a common factor \u003e 1 with n.",
			"link": [
				"Alois P. Heinz, \u003ca href=\"/A331885/b331885.txt\"\u003eTable of n, a(n) for n = 0..1000\u003c/a\u003e",
				"\u003ca href=\"/index/Par#part\"\u003eIndex entries for sequences related to partitions\u003c/a\u003e"
			],
			"formula": [
				"a(n) = [x^n] Product_{k: gcd(n,k) \u003e 1} 1 / (1 - x^k)."
			],
			"example": [
				"a(6) = 4 because we have [6], [4, 2], [3, 3] and [2, 2, 2]."
			],
			"maple": [
				"a:= proc(m) option remember; local b; b:=",
				"      proc(n, i) option remember; `if`(n=0, 1, `if`(i\u003c2, 0,",
				"       `if`(igcd(i, m)\u003e1, b(n-i, min(i, n-i)), 0)+b(n, i-1)))",
				"      end; forget(b); b(m$2)",
				"    end:",
				"seq(a(n), n=0..82);  # _Alois P. Heinz_, Jan 30 2020"
			],
			"mathematica": [
				"Table[SeriesCoefficient[Product[1/(1 - Boole[GCD[k, n] \u003e 1] x^k), {k, 1, n}], {x, 0, n}], {n, 0, 62}]"
			],
			"xref": [
				"Cf. A182986 (positions of 1's), A018783, A057562, A121998, A331887, A331888."
			],
			"keyword": "nonn",
			"offset": "0,5",
			"author": "_Ilya Gutkovskiy_, Jan 30 2020",
			"references": 4,
			"revision": 10,
			"time": "2020-01-31T21:50:51-05:00",
			"created": "2020-01-30T18:14:53-05:00"
		}
	]
}