{
	"greeting": "Greetings from The On-Line Encyclopedia of Integer Sequences! http://oeis.org/",
	"query": "id:A331268",
	"count": 1,
	"start": 0,
	"results": [
		{
			"number": 331268,
			"data": "1,2,3,4,5,5,6,7,8,9,10,10,11,12,11,13,14,11,14,15,11,16,15,17,14,15,18,16,19,17,19,20,17,21,20,22,23,23,24,25,26,27,28,28,29,30,29,31,28,32,30,32,33,31,34,31,32,35,34,36,29,32,37,34,37,38,32,33",
			"name": "a(n) is the least divisor u of A331220(n) such that the ternary representations of u and of A331220(n)/u have the same number of digits d for d = 0..2.",
			"link": [
				"Rémy Sigrist, \u003ca href=\"/A331268/b331268.txt\"\u003eTable of n, a(n) for n = 1..10000\u003c/a\u003e"
			],
			"formula": [
				"a(n) * A331269(n) = A331220(n)."
			],
			"program": [
				"(PARI) b=3; k=68; for (n=1, oo, fordiv (n, u, if (vecsort(digits(u,b))==vecsort(digits(n/u,b)), print1 (u\", \"); break (if (k--, 1, 2)))))"
			],
			"xref": [
				"Cf. A331220, A331269."
			],
			"keyword": "nonn,base",
			"offset": "1,2",
			"author": "_Rémy Sigrist_, Jan 13 2020",
			"references": 3,
			"revision": 10,
			"time": "2020-01-13T18:26:18-05:00",
			"created": "2020-01-13T15:15:21-05:00"
		}
	]
}