{
	"greeting": "Greetings from The On-Line Encyclopedia of Integer Sequences! http://oeis.org/",
	"query": "id:A331022",
	"count": 1,
	"start": 0,
	"results": [
		{
			"number": 331022,
			"data": "0,1,2,3,4,6,9,16,20,29,34,45",
			"name": "Numbers k such that the number of strict integer partitions of k is a power of 2.",
			"comment": [
				"An integer partition of n is a finite, nonincreasing sequence of positive integers (parts) summing to n. It is strict if the parts are all different. Integer partitions and strict integer partitions are counted by A000041 and A000009 respectively.",
				"Conjecture: This sequence is finite.",
				"Conjecture: The analogous sequence for non-strict partitions is: 0, 1, 2.",
				"Next term \u003e 5*10^4 if it exists. - _Seiichi Manyama_, Jan 12 2020"
			],
			"example": [
				"The strict integer partitions of the initial terms:",
				"  (1)  (2)  (3)    (4)    (6)      (9)",
				"            (2,1)  (3,1)  (4,2)    (5,4)",
				"                          (5,1)    (6,3)",
				"                          (3,2,1)  (7,2)",
				"                                   (8,1)",
				"                                   (4,3,2)",
				"                                   (5,3,1)",
				"                                   (6,2,1)"
			],
			"mathematica": [
				"Select[Range[0,1000],IntegerQ[Log[2,PartitionsQ[#]]]\u0026]"
			],
			"xref": [
				"The version for primes instead of powers of 2 is A035359.",
				"The version for factorizations instead of strict partitions is A330977.",
				"Numbers whose number of partitions is prime are A046063.",
				"Cf. A000009, A000079, A001055, A036498, A045778, A318286, A330989, A330990, A330994/A330995, A330996."
			],
			"keyword": "nonn,more",
			"offset": "0,3",
			"author": "_Gus Wiseman_, Jan 10 2020",
			"references": 8,
			"revision": 15,
			"time": "2020-01-12T10:20:26-05:00",
			"created": "2020-01-11T15:35:38-05:00"
		}
	]
}