{
	"greeting": "Greetings from The On-Line Encyclopedia of Integer Sequences! http://oeis.org/",
	"query": "id:A331069",
	"count": 1,
	"start": 0,
	"results": [
		{
			"number": 331069,
			"data": "1,3,8,12,13,16,17,12,7,3",
			"name": "Coordination sequence for second kind of trivalent vertex in 1-skeleton of pentagonal hexecontahedron.",
			"comment": [
				"Computed by Tom Karzes (see link)."
			],
			"link": [
				"Tom Karzes, \u003ca href=\"/A298808/a298808.html\"\u003ePolyhedron Coordination Sequences\u003c/a\u003e"
			],
			"xref": [
				"Cf. A331068, A331070."
			],
			"keyword": "nonn,fini,full",
			"offset": "0,2",
			"author": "_N. J. A. Sloane_, Jan 08 2020",
			"references": 2,
			"revision": 7,
			"time": "2020-01-08T21:16:22-05:00",
			"created": "2020-01-08T21:13:10-05:00"
		}
	]
}