{
	"greeting": "Greetings from The On-Line Encyclopedia of Integer Sequences! http://oeis.org/",
	"query": "id:A331002",
	"count": 1,
	"start": 0,
	"results": [
		{
			"number": 331002,
			"data": "0,0,-2,-2,1,1,-2,-2,2,2,-3,-3,3,3,-2,-2,3,3,-4,-4,2,2,-4,-4,4,4,-3,-3,5,5,-2,-2,6,6,-4,-4,4,4,-5,-5,5,5,-4,-4,5,5,-6,-6,3,3,-6,-6,6,6,-5,-5,6,6,-4,-4,6,6,-7,-7,3,3,-8,-8,4,4,-7,-7,7,7,-6",
			"name": "a(n) is the real part of f(n) (as defined in A330779).",
			"link": [
				"Rémy Sigrist, \u003ca href=\"/A331002/b331002.txt\"\u003eTable of n, a(n) for n = 0..10000\u003c/a\u003e",
				"Rémy Sigrist, \u003ca href=\"/A331002/a331002.gp.txt\"\u003ePARI program for A331002\u003c/a\u003e"
			],
			"formula": [
				"a(2*k+1) = a(2*k) for any k \u003e= 0.",
				"a(2*k) = a(2*k-1) + A330779(2*k) * (-1)^k for any k \u003e 0."
			],
			"program": [
				"(PARI) See Links section."
			],
			"xref": [
				"Cf. A330779."
			],
			"keyword": "sign",
			"offset": "0,3",
			"author": "_Rémy Sigrist_, Jan 05 2020",
			"references": 2,
			"revision": 9,
			"time": "2020-01-06T09:15:07-05:00",
			"created": "2020-01-05T17:53:04-05:00"
		}
	]
}