{
	"greeting": "Greetings from The On-Line Encyclopedia of Integer Sequences! http://oeis.org/",
	"query": "id:A331136",
	"count": 1,
	"start": 0,
	"results": [
		{
			"number": 331136,
			"data": "0,0,1,2,1,2,4,3,2,3,3,6,4,2,7,5,3,6,5,7,7,7,7,7,5,3,10,10,6,8,9,9,9,7,4,13,9,6,15,7,7,14,11,10,11,9,12,16,9,7,12,13,11,15,14,13,17,12,7,16,11,8,23,12,9,17,14,16,18,15,15,21,12,10,17,19,16,20,16,11,22,15,14,27,14,11,29,20,12,18",
			"name": "a(n) = Sum_{primes p \u003c n} r_2(n-p)/4, where r_2(n) = A004018(n).",
			"link": [
				"Yoichi Motohashi, \u003ca href=\"http://matwbn.icm.edu.pl/ksiazki/aa/aa16/aa1633.pdf\"\u003eOn the distribution of prime numbers which are of the form x^2+y^2+1\u003c/a\u003e, Acta Arith. 16 (1969/70), 351-363. MR0288086 (44 #5284)."
			],
			"xref": [
				"Cf. A004018, A331134."
			],
			"keyword": "nonn",
			"offset": "1,4",
			"author": "_N. J. A. Sloane_, Jan 11 2020",
			"references": 0,
			"revision": 9,
			"time": "2020-01-11T15:29:58-05:00",
			"created": "2020-01-11T08:31:40-05:00"
		}
	]
}