{
	"greeting": "Greetings from The On-Line Encyclopedia of Integer Sequences! http://oeis.org/",
	"query": "id:A331749",
	"count": 1,
	"start": 0,
	"results": [
		{
			"number": 331749,
			"data": "1,0,0,0,0,1,0,0,0,4,1,2,0,-1,0,-1,0,9,4,4,1,10,2,2,0,5,-1,1,0,1,-1,0,0,16,9,34,4,23,4,37,1,5,10,10,2,14,2,4,0,7,5,11,-1,5,1,6,0,-4,1,0,-1,-3,0,-1,0,57,16,116,9,98,34,84,4,69,23,103,4,9,37,98,1,52,5,70,10,19,10,39,2,19,14,38,2,34,4,18,0,39",
			"name": "a(n) = A002487(A163511(n)) - A002487(n).",
			"link": [
				"Antti Karttunen, \u003ca href=\"/A331749/b331749.txt\"\u003eTable of n, a(n) for n = 0..16384\u003c/a\u003e",
				"Antti Karttunen, \u003ca href=\"/A331749/a331749.txt\"\u003eData supplement: n, a(n) computed for n = 0..65537\u003c/a\u003e",
				"\u003ca href=\"/index/Bi#binary\"\u003eIndex entries for sequences related to binary expansion of n\u003c/a\u003e",
				"\u003ca href=\"/index/St#Stern\"\u003eIndex entries for sequences related to Stern's sequences\u003c/a\u003e"
			],
			"formula": [
				"a(n) = A323901(n) - A002487(n) = A002487(A163511(n)) - A002487(n).",
				"a(2^n) = 0 for all n \u003e= 0."
			],
			"program": [
				"(PARI)",
				"A002487(n) = { my(a=1, b=0); while(n\u003e0, if(bitand(n, 1), b+=a, a+=b); n\u003e\u003e=1); (b); }; \\\\ From A002487",
				"A005940(n) = { my(p=2, t=1); n--; until(!n\\=2, if((n%2), (t*=p), p=nextprime(p+1))); t }; \\\\ From A005940",
				"A054429(n) = ((3\u003c\u003c#binary(n\\2))-n-1); \\\\ From A054429",
				"A163511(n) = if(!n,1,A005940(1+A054429(n)));",
				"A331749(n) = (A002487(A163511(n)) - A002487(n));"
			],
			"xref": [
				"Cf. A002487, A163511, A323901, A331743, A331748."
			],
			"keyword": "sign",
			"offset": "0,10",
			"author": "_Antti Karttunen_, Feb 05 2020",
			"references": 3,
			"revision": 8,
			"time": "2020-02-05T16:53:49-05:00",
			"created": "2020-02-05T16:53:49-05:00"
		}
	]
}