{
	"greeting": "Greetings from The On-Line Encyclopedia of Integer Sequences! http://oeis.org/",
	"query": "id:A331725",
	"count": 1,
	"start": 0,
	"results": [
		{
			"number": 331725,
			"data": "1,0,3,4,57,216,2755,18348,247569,2368432,35256771,436248660,7235178313,108919083144,2010150360387,35421547781116,723689454172065,14543895730321248,326843345169621379,7354350135365751972,180610925178770615001,4488323611011676811320",
			"name": "E.g.f.: exp(x/(1 - x)) / (1 + x).",
			"formula": [
				"a(n) = Sum_{k=0..n} (-1)^k * binomial(n,k) * k! * A000262(n-k).",
				"a(n) ~ n^(n - 1/4) / (2^(3/2) * exp(1/2 - 2*sqrt(n) + n)). - _Vaclav Kotesovec_, Jan 26 2020",
				"D-finite with recurrence a(n) +(-n+1)*a(n-1) -(n-1)*(n+1)*a(n-2) +(n-1)*(n-2)^2*a(n-3)=0. - _R. J. Mathar_, Aug 20 2021"
			],
			"maple": [
				"A331725 := proc(n)",
				"    add((-1)^k*binomial(n,k)*k!*A000262(n-k),k=0..n) ;",
				"end proc:",
				"seq(A331725(n),n=0..42) ; # _R. J. Mathar_, Aug 20 2021"
			],
			"mathematica": [
				"nmax = 21; CoefficientList[Series[Exp[x/(1 - x)]/(1 + x), {x, 0, nmax}], x] Range[0, nmax]!",
				"A000262[n_] := If[n == 0, 1, n! Sum[Binomial[n - 1, k]/(k + 1)!, {k, 0, n - 1}]]; a[n_] := Sum[(-1)^k Binomial[n, k] k! A000262[n - k], {k, 0, n}]; Table[a[n], {n, 0, 21}]"
			],
			"program": [
				"(PARI) seq(n)={Vec(serlaplace(exp(x/(1 - x) + O(x*x^n)) / (1 + x)))} \\\\ _Andrew Howroyd_, Jan 25 2020"
			],
			"xref": [
				"Cf. A000262, A002720, A009940, A133942, A182386."
			],
			"keyword": "nonn",
			"offset": "0,3",
			"author": "_Ilya Gutkovskiy_, Jan 25 2020",
			"references": 1,
			"revision": 10,
			"time": "2021-08-20T05:35:18-04:00",
			"created": "2020-01-25T20:56:44-05:00"
		}
	]
}