{
	"greeting": "Greetings from The On-Line Encyclopedia of Integer Sequences! http://oeis.org/",
	"query": "id:A331032",
	"count": 1,
	"start": 0,
	"results": [
		{
			"number": 331032,
			"data": "0,0,1,0,2,0,4,2,0,1,6,0,10,3,0,4,12,3,16,0,2,5,18,2,0,9,1,1,22,0,28,12,4,11,0,9,30,15,8,5,36,0,40,3,4,17,42,11,0,3,10,7,46,15,2,0,14,21,52,7,58,27,0,2,6,1,60,9,16,0,66,11,70,29,10,13",
			"name": "Number of iterations of n -\u003e n + gpf(n) needed for the trajectory of n to join the trajectory of A076271, where gpf(n) is the greatest prime factor of n.",
			"comment": [
				"Record values occur at prime values of n, and equal one less than the next lowest prime number (see Formula). Because of this, a(n) is always less than n, so for any positive integer starting value n, iterations of n -\u003e n + gpf(n) will eventually join A076271."
			],
			"link": [
				"Rémy Sigrist, \u003ca href=\"/A331032/b331032.txt\"\u003eTable of n, a(n) for n = 1..10000\u003c/a\u003e"
			],
			"formula": [
				"a(k*p) = prevprime(p) - k for all k \u003c= prevprime(p).",
				"a(p) = prevprime(p) - 1 for p \u003e 2."
			],
			"example": [
				"a(8)=2 because the trajectory for 1 (sequence A076271) starts 1-\u003e2-\u003e4-\u003e6-\u003e9-\u003e12-\u003e15-\u003e20... and the trajectory for 8 starts 8-\u003e10-\u003e15-\u003e20... so the sequence beginning with 8 joins A076271 after 2 steps."
			],
			"program": [
				"(PARI) gpf(n) = if (n==1, 1, my (f=factor(n)); f[#f~, 1])",
				"a(n) = { my (o=1); for (k=0, oo, while (o\u003cn, o=o+gpf(o)); if (o==n, return (k), n=n+gpf(n))) } \\\\ _Rémy Sigrist_, Apr 05 2020"
			],
			"xref": [
				"Cf. A006530, A076271."
			],
			"keyword": "nonn",
			"offset": "1,5",
			"author": "_Michael C. Case_, Jan 08 2020",
			"references": 1,
			"revision": 27,
			"time": "2020-05-04T13:39:21-04:00",
			"created": "2020-05-04T00:27:06-04:00"
		}
	]
}