{
	"greeting": "Greetings from The On-Line Encyclopedia of Integer Sequences! http://oeis.org/",
	"query": "id:A331664",
	"count": 1,
	"start": 0,
	"results": [
		{
			"number": 331664,
			"data": "4847,5371,7141,7913,22891,23243,27053,27469,47863,48599,60349,61277,69211,73343,77251,80623,81863,89339,100201,111841,114293,116729,126649,130289,138623,180163,200693,260833,286141,319381,348121,371899,383339,388561,439517,453037",
			"name": "Odd composite numbers k all of whose divisors larger than 1 are not binary palindromes (A006995) such that the divisors of the binary reversal of k (A030101) are the binary reversals of the divisors of k.",
			"link": [
				"Amiram Eldar, \u003ca href=\"/A331664/b331664.txt\"\u003eTable of n, a(n) for n = 1..2000\u003c/a\u003e"
			],
			"example": [
				"4847 is a term since the binary representations of its divisors, 1, 37, 131 and 4847, are 1, 100101, 10000011 and 1001011101111, and their binary reversals, 1, 101001, 11000001 and 1111011101001, or 1, 41, 193 and 7913 in decimal representation, are the divisors of 7913, and none of the divisors of 4847 except 1 are binary palindromes."
			],
			"mathematica": [
				"binPalQ[n_] := PalindromeQ @ IntegerDigits[n, 2]; Select[Range[1, 5*10^5, 2], CompositeQ[#] \u0026\u0026 (Divisors@IntegerReverse[#, 2]) == IntegerReverse[(d = Divisors[#]), 2] \u0026\u0026 !AnyTrue[Rest[d], binPalQ] \u0026]"
			],
			"xref": [
				"Cf. A006995, A030101, A329419.",
				"Subsequence of A331662 and A331663."
			],
			"keyword": "nonn,base",
			"offset": "1,1",
			"author": "_Amiram Eldar_, Jan 23 2020",
			"references": 3,
			"revision": 10,
			"time": "2020-01-25T09:08:02-05:00",
			"created": "2020-01-24T21:00:15-05:00"
		}
	]
}