{
	"greeting": "Greetings from The On-Line Encyclopedia of Integer Sequences! http://oeis.org/",
	"query": "id:A331435",
	"count": 1,
	"start": 0,
	"results": [
		{
			"number": 331435,
			"data": "1,2,1,6,5,4,10,11,10,14,15,1,14,5,9,20,21,24,19,4,6,26,26,12,14,29,16,31,29,22,24,31,34,1,26,5,28,35,40,19,41,39,44,38,29,45,42,4,6,35,51,16,46,20,51,54,55,56,56,30,52,54,34,36,56,58,40,9,11",
			"name": "a(n) is the least positive k such that A028916(n) - k^2 is a fourth power.",
			"link": [
				"Rémy Sigrist, \u003ca href=\"/A331435/b331435.txt\"\u003eTable of n, a(n) for n = 1..10000\u003c/a\u003e",
				"Rémy Sigrist, \u003ca href=\"/A331435/a331435.gp.txt\"\u003ePARI program for A331435\u003c/a\u003e",
				"Wikipedia, \u003ca href=\"http://en.wikipedia.org/wiki/Friedlander%E2%80%93Iwaniec_theorem\"\u003eFriedlander-Iwaniec theorem\u003c/a\u003e"
			],
			"example": [
				"The first terms, alongside A028916(n), are:",
				"  n   a(n)  A028916(n)",
				"  --  ----  ----------------",
				"   1     1    2 =  1^2 + 1^4",
				"   2     2    5 =  2^2 + 1^4",
				"   3     1   17 =  1^2 + 2^4",
				"   4     6   37 =  6^2 + 1^4",
				"   5     5   41 =  5^2 + 2^4",
				"   6     4   97 =  4^2 + 3^4",
				"   7    10  101 = 10^2 + 1^4",
				"   8    11  137 = 11^2 + 2^4",
				"   9    10  181 = 10^2 + 3^4",
				"  10    14  197 = 14^2 + 1^4"
			],
			"program": [
				"(PARI) See Links section."
			],
			"xref": [
				"See A002331, A331521, A331522, A331523, A331524, A331525, A331526 and A331527 for similar sequences.",
				"Cf. A000583, A028916."
			],
			"keyword": "nonn",
			"offset": "1,2",
			"author": "_Rémy Sigrist_, Jan 18 2020",
			"references": 8,
			"revision": 29,
			"time": "2020-01-20T12:52:34-05:00",
			"created": "2020-01-20T07:55:02-05:00"
		}
	]
}