{
	"greeting": "Greetings from The On-Line Encyclopedia of Integer Sequences! http://oeis.org/",
	"query": "id:A331875",
	"count": 1,
	"start": 0,
	"results": [
		{
			"number": 331875,
			"data": "1,1,2,3,6,14,32,79,198,522,1368,3716,9992,27612,75692,212045,589478,1668630,4690792,13387332,37980664,109098556,311717768,900846484,2589449032,7515759012,21720369476,63305262126,183726039404,537364221200,1565570459800,4592892152163",
			"name": "Number of enriched identity p-trees of weight n.",
			"comment": [
				"An enriched identity p-tree of weight n is either the number n itself or a finite sequence of distinct enriched identity p-trees whose weights are weakly decreasing and sum to n."
			],
			"link": [
				"Andrew Howroyd, \u003ca href=\"/A331875/b331875.txt\"\u003eTable of n, a(n) for n = 1..500\u003c/a\u003e"
			],
			"example": [
				"The a(1) = 1 through a(6) = 14 enriched p-trees:",
				"  1  2  3     4        5           6",
				"        (21)  (31)     (32)        (42)",
				"              ((21)1)  (41)        (51)",
				"                       ((21)2)     (321)",
				"                       ((31)1)     ((21)3)",
				"                       (((21)1)1)  ((31)2)",
				"                                   ((32)1)",
				"                                   (3(21))",
				"                                   ((41)1)",
				"                                   ((21)21)",
				"                                   (((21)1)2)",
				"                                   (((21)2)1)",
				"                                   (((31)1)1)",
				"                                   ((((21)1)1)1)"
			],
			"mathematica": [
				"eptrid[n_]:=Prepend[Select[Join@@Table[Tuples[eptrid/@p],{p,Rest[IntegerPartitions[n]]}],UnsameQ@@#\u0026],n];",
				"Table[Length[eptrid[n]],{n,10}]"
			],
			"program": [
				"(PARI) seq(n)={my(v=vector(n)); for(n=1, n, v[n] = 1 + polcoef(prod(k=1, n-1, sum(j=0, n\\k, j!*binomial(v[k],j)*x^(k*j)) + O(x*x^n)), n)); v} \\\\ _Andrew Howroyd_, Feb 09 2020"
			],
			"xref": [
				"The orderless version is A300660.",
				"The locally disjoint case is A331684.",
				"Identity trees are A004111.",
				"P-trees are A196545.",
				"Enriched p-trees are A289501.",
				"Cf. A000669, A141268, A306200, A316471, A331683, A331685, A331686, A331783."
			],
			"keyword": "nonn",
			"offset": "1,3",
			"author": "_Gus Wiseman_, Jan 31 2020",
			"ext": [
				"Terms a(21) and beyond from _Andrew Howroyd_, Feb 09 2020"
			],
			"references": 10,
			"revision": 8,
			"time": "2020-02-09T15:18:09-05:00",
			"created": "2020-02-01T14:39:59-05:00"
		}
	]
}