{
	"greeting": "Greetings from The On-Line Encyclopedia of Integer Sequences! http://oeis.org/",
	"query": "id:A331465",
	"count": 1,
	"start": 0,
	"results": [
		{
			"number": 331465,
			"data": "15,1390,1369,11763,47802,1529690,4628217,1544053,804607562,4747704789",
			"name": "a(n) begins the first run of exactly n consecutive binary Smith numbers (A278909).",
			"comment": [
				"a(11) \u003e 5*10^10."
			],
			"example": [
				"a(2) = 1390 since 1390 and 1391 are binary Smith numbers.",
				"a(3) = 1369 since 1369, 1370, and 1371 are binary Smith numbers."
			],
			"mathematica": [
				"binWt[n_] := Total@IntegerDigits[n, 2]; binSmithQ[n_] := CompositeQ[n] \u0026\u0026 Plus @@ (Last@# * binWt[ First@# ] \u0026 /@ FactorInteger[n]) == binWt[n]; n = 1; count = 0; max = 6; seq = Table[0, {max}]; While[count \u003c max, n1 = n; If[binSmithQ[n], While[binSmithQ[++n1]]; d = n1 - n; If[d \u003c= max \u0026\u0026 seq[[d]] == 0, count++; seq[[d]] = n]]; n = n1 + 1]; seq"
			],
			"xref": [
				"Cf. A278909, A329942, A331464."
			],
			"keyword": "nonn,base,more",
			"offset": "1,1",
			"author": "_Amiram Eldar_, Jan 17 2020",
			"references": 1,
			"revision": 5,
			"time": "2020-01-17T17:44:20-05:00",
			"created": "2020-01-17T17:44:20-05:00"
		}
	]
}