{
	"greeting": "Greetings from The On-Line Encyclopedia of Integer Sequences! http://oeis.org/",
	"query": "id:A332967",
	"count": 1,
	"start": 0,
	"results": [
		{
			"number": 332967,
			"data": "1,2,19,410,14343,1139166,89131918,10861230692,1271028562739,203393524967230,52274418436233714,11160490802017899420,3415612116240107778630,1088775430914588654276060,311608007930071575510930780,99738699420765496000734958440",
			"name": "Sum of all integers m satisfying Omega(m) = n and pi(p) \u003c= n for all prime factors p of m.",
			"link": [
				"Alois P. Heinz, \u003ca href=\"/A332967/b332967.txt\"\u003eTable of n, a(n) for n = 0..279\u003c/a\u003e"
			],
			"formula": [
				"a(n) = [x^n] Product_{i=1..n} 1/(1-prime(i)*x).",
				"a(n) = A124960(2n,n).",
				"a(n) = Sum_{k=1..A088218(n)} A330394(n,k).",
				"a(n) = A343751(n,n)."
			],
			"example": [
				"a(2) = 4 + 6 + 9 = 2*2 + 2*3 + 3*3 = 19."
			],
			"maple": [
				"b:= proc(n, i) option remember; `if`(n=0, 1,",
				"      add(ithprime(j)*b(n-1, j), j=1..i))",
				"    end:",
				"a:= n-\u003e b(n$2):",
				"seq(a(n), n=0..17);"
			],
			"xref": [
				"Row sums of A330394.",
				"Main diagonal of A343751.",
				"Cf. A000040, A000720, A001222, A027748, A088218, A124960."
			],
			"keyword": "nonn",
			"offset": "0,2",
			"author": "_Alois P. Heinz_, Mar 04 2020",
			"references": 4,
			"revision": 18,
			"time": "2021-04-28T11:16:22-04:00",
			"created": "2020-03-04T16:32:39-05:00"
		}
	]
}