{
	"greeting": "Greetings from The On-Line Encyclopedia of Integer Sequences! http://oeis.org/",
	"query": "id:A332845",
	"count": 1,
	"start": 0,
	"results": [
		{
			"number": 332845,
			"data": "1,0,1,2,3,0,5,6,7,0,9,2,11,0,3,14,15,0,17,6,5,0,21,6,23,0,25,10,27,0,29,30,9,0,15,14,35,0,11,18,39,0,41,18,21,0,45,14,47,0,15,22,51,0,27,30,17,0,57,6,59,0,35,62,33,0,65,30,21,0,69,42,71",
			"name": "a(n) = (-1)^omega(n) * Sum_{k=1..n} (-1)^omega(n/gcd(n, k)), where omega = A001221.",
			"formula": [
				"a(n) = (-1)^omega(n) * Sum_{d|n} (-1)^omega(d) * phi(d).",
				"a(p) = p - 2, where p is prime."
			],
			"mathematica": [
				"Table[(-1)^PrimeNu[n] Sum[(-1)^PrimeNu[n/GCD[n, k]], {k, 1, n}], {n, 1, 73}]",
				"Table[(-1)^PrimeNu[n] Sum[(-1)^PrimeNu[d] EulerPhi[d], {d, Divisors[n]}], {n, 1, 73}]"
			],
			"program": [
				"(PARI) a(n) = (-1)^omega(n) * sum(k=1, n, (-1)^omega(n/gcd(n, k))); \\\\ _Michel Marcus_, Feb 26 2020"
			],
			"xref": [
				"Cf. A000010, A001221, A016825 (positions of 0's), A049060, A058026, A074722, A076479."
			],
			"keyword": "nonn,mult",
			"offset": "1,4",
			"author": "_Ilya Gutkovskiy_, Feb 26 2020",
			"references": 0,
			"revision": 6,
			"time": "2020-02-26T17:18:18-05:00",
			"created": "2020-02-26T17:18:18-05:00"
		}
	]
}