{
	"greeting": "Greetings from The On-Line Encyclopedia of Integer Sequences! http://oeis.org/",
	"query": "id:A332879",
	"count": 1,
	"start": 0,
	"results": [
		{
			"number": 332879,
			"data": "756,768,780,816,840,864,924,960,972,984,1008,1020,1056,1080,1092,1116,1140,1188,1260,1296,1320,1344,1380,1404,1500,1512,1536,1620,1632,1680,1716,1740,1824,1836,1848,1920,1980,2016,2088,2160,2184,2244,2376,2436,2460",
			"name": "Areas of integer-sided triangles whose area equals 6 times their perimeter.",
			"link": [
				"Hugo Pfoertner, \u003ca href=\"/A332879/b332879.txt\"\u003eTable of n, a(n) for n = 1..127\u003c/a\u003e, providing the full sequence."
			],
			"xref": [
				"6th row in A290451.",
				"Cf. A098030, A289155, A289218, A289219, A289220, A289221, A289253.",
				"Cf. A332926 (listing distinct triangles with identical areas separately)."
			],
			"keyword": "nonn,fini,full",
			"offset": "1,1",
			"author": "_Hugo Pfoertner_, Mar 02 2020",
			"references": 4,
			"revision": 27,
			"time": "2020-03-04T18:10:33-05:00",
			"created": "2020-03-02T08:52:09-05:00"
		}
	]
}