{
	"greeting": "Greetings from The On-Line Encyclopedia of Integer Sequences! http://oeis.org/",
	"query": "id:A332876",
	"count": 1,
	"start": 0,
	"results": [
		{
			"number": 332876,
			"data": "12,14,36,28,105,102,147,136,108,120,242,204,286,238,330,352,374,306,2109,140,462,484,2047,408,150,572,594,756,3219,360,682,864,2937,1326,770,792,4107,2128,4329,280,3649,1638,3827,1232,990,2530,5217,1344,5439,1050",
			"name": "a(n) is the smallest positive multiple of n whose decimal expansion includes a digit (other than a trailing zero) whose removal yields a proper multiple of n.",
			"comment": [
				"This sequence is a variant of A309631; but here, when we strike out the right digit, it is forbidden that the obtained number is equal to n.",
				"About the origin of this sequence, see comments in A309631.",
				"The first quotients a(n)/n are 12, 7, 12, 7, 21 ,17, 21, 17, 12, 12, 22, 17, 22, 17, 22, ..."
			],
			"reference": [
				"Roman Fedorov, Alexei Belov, Alexander Kovaldzhi, Ivan Yashchenko, Moscow Mathematical Olympiads, 2000-2005,Problem 3, Level D, 2004, MSRI, 2011, p. 21 and 130/131"
			],
			"link": [
				"\u003ca href=\"/index/O#Olympiads\"\u003eIndex to sequences related to Olympiads\u003c/a\u003e."
			],
			"example": [
				"a(7) = 147 because 147 = 7*21 and if we strike out \"7\", 14 is also divisible by 7, and there is no integer \u003c 147 with that property."
			],
			"mathematica": [
				"del[n_] := Block[{m = 10^IntegerExponent[n, 10], d}, d = IntegerDigits[n/m]; Table[ FromDigits[Delete[d, k]] m, {k, Length@ d}]]; a[n_] := Block[{k = n, v},  While[! AnyTrue[del[k], # \u003e n \u0026\u0026 Mod[#, n] == 0 \u0026], k += n]; k]; Array[a, 50] (* _Giovanni Resta_, Feb 28 2020 *)"
			],
			"xref": [
				"Cf. A309631 (original version), A328567 (binary variant)."
			],
			"keyword": "nonn,base",
			"offset": "1,1",
			"author": "_Bernard Schott_, Feb 28 2020",
			"ext": [
				"More terms from _Giovanni Resta_, Feb 28 2020",
				"Name improved by _Rémy Sigrist_ and _Jon E. Schoenfield_, Feb 28 2020"
			],
			"references": 0,
			"revision": 38,
			"time": "2020-10-01T20:33:37-04:00",
			"created": "2020-03-01T09:52:36-05:00"
		}
	]
}