{
	"greeting": "Greetings from The On-Line Encyclopedia of Integer Sequences! http://oeis.org/",
	"query": "id:A332738",
	"count": 1,
	"start": 0,
	"results": [
		{
			"number": 332738,
			"data": "5642,9758,15402,51051,72105,73815,113883,134805,149226,202895,270655,352495,443555,552958,627095,650845,831369,831831,841269,870870,881705,956242,1000110,1088255,1135290,1255110,1255215,1418395,1447095,1455762,1610070,1718717,1746955",
			"name": "Composite squarefree numbers k = Product_{i} p_i such that k^2 is divisible by Sum_{i} p_i^2.",
			"link": [
				"Amiram Eldar, \u003ca href=\"/A332738/b332738.txt\"\u003eTable of n, a(n) for n = 1..1000\u003c/a\u003e"
			],
			"example": [
				"5642 = 2 * 7 * 13 * 31 is a term since 5642^2/(2^2 + 7^2 + 13^2 + 31^2) = 26908 is an integer."
			],
			"mathematica": [
				"Select[Range[10^6], CompositeQ[#] \u0026\u0026 SquareFreeQ[#] \u0026\u0026 Divisible[#^2, Plus @@ (FactorInteger[#][[;;,1]]^2)] \u0026]"
			],
			"xref": [
				"Cf. A131647."
			],
			"keyword": "nonn",
			"offset": "1,1",
			"author": "_Amiram Eldar_, Feb 21 2020",
			"references": 1,
			"revision": 7,
			"time": "2020-02-22T12:52:07-05:00",
			"created": "2020-02-22T08:33:44-05:00"
		}
	]
}