{
	"greeting": "Greetings from The On-Line Encyclopedia of Integer Sequences! http://oeis.org/",
	"query": "id:A332492",
	"count": 1,
	"start": 0,
	"results": [
		{
			"number": 332492,
			"data": "7,23,52,54,86,303,389,5112,60392,87491,94788,97115,616916,672938066",
			"name": "Self-locating numbers within the decimal expansion of log(2): strings k beginning at position k (first digit after decimal point is position 2).",
			"comment": [
				"a(15) \u003e 10^9.",
				"52 and 54 are self-locating numbers which appear consecutively in log(2) = 0.693...5254...."
			],
			"example": [
				"For 0.693147..., if 6 appears at position 2, then 7 appears at position 7."
			],
			"mathematica": [
				"dlog2 = RealDigits[Log[2], 10, 1000010][[1]]; Select[Range[2, 1000000], FromDigits[Take[dlog2, {# - 1, # - 2 + IntegerLength[#]}]] == # \u0026] (* _Vaclav Kotesovec_, Feb 18 2020 *)"
			],
			"xref": [
				"Decimal expansion of log(2): A002162.",
				"Self-locating digits of Pi: A057679, A153220."
			],
			"keyword": "nonn,base,more",
			"offset": "1,1",
			"author": "_S. Alwin Mao_, Feb 14 2020",
			"references": 0,
			"revision": 19,
			"time": "2020-02-22T07:03:11-05:00",
			"created": "2020-02-22T07:03:11-05:00"
		}
	]
}