{
	"greeting": "Greetings from The On-Line Encyclopedia of Integer Sequences! http://oeis.org/",
	"query": "id:A332304",
	"count": 1,
	"start": 0,
	"results": [
		{
			"number": 332304,
			"data": "0,1,1,1,1,1,7,7,13,19,25,31,43,49,61,193,205,337,475,727,985,1363,1741,2359,2983,3841,4705,5929,12193,13777,20527,27631,39901,52651,75601,99151,132907,172297,227053,287569,373525,465241,587563,725839,899761,1457683",
			"name": "Number of compositions (ordered partitions) of n into distinct parts such that number of parts is odd.",
			"link": [
				"Alois P. Heinz, \u003ca href=\"/A332304/b332304.txt\"\u003eTable of n, a(n) for n = 0..5000\u003c/a\u003e",
				"\u003ca href=\"/index/Com#comp\"\u003eIndex entries for sequences related to compositions\u003c/a\u003e"
			],
			"formula": [
				"G.f.: Sum_{k\u003e=1} (2*k - 1)! * x^(k*(2*k - 1)) / Product_{j=1..2*k-1} (1 - x^j).",
				"a(n) = A032020(n) - A332305(n)."
			],
			"example": [
				"a(6) = 7 because we have [6], [3, 2, 1], [3, 1, 2], [2, 3, 1], [2, 1, 3], [1, 3, 2] and [1, 2, 3]."
			],
			"maple": [
				"b:= proc(n, i, p) option remember; `if`(i*(i+1)/2\u003cn, 0, `if`(n=0,",
				"      irem(p, 2)*p!, add(b(n-i*j, i-1, p+j), j=0..min(1, n/i))))",
				"    end:",
				"a:= n-\u003e b(n$2, 0):",
				"seq(a(n), n=0..55);  # _Alois P. Heinz_, Feb 09 2020"
			],
			"mathematica": [
				"nmax = 45; CoefficientList[Series[Sum[(2 k - 1)! x^(k (2 k - 1))/Product[1 - x^j, {j, 1, 2 k - 1}], {k, 1, nmax}], {x, 0, nmax}], x]"
			],
			"xref": [
				"Cf. A027193, A032020, A067659, A166444, A332305."
			],
			"keyword": "nonn",
			"offset": "0,7",
			"author": "_Ilya Gutkovskiy_, Feb 09 2020",
			"references": 14,
			"revision": 9,
			"time": "2020-02-13T11:17:56-05:00",
			"created": "2020-02-09T18:36:49-05:00"
		}
	]
}