{
	"greeting": "Greetings from The On-Line Encyclopedia of Integer Sequences! http://oeis.org/",
	"query": "id:A332515",
	"count": 1,
	"start": 0,
	"results": [
		{
			"number": 332515,
			"data": "15,16,20,24,25,30,33,44,50,51,64,66,68,69,80,87,92,96,102,116,120,123,138,141,159,164,165,174,176,177,188,200,212,213,220,236,246,249,255,256,264,267,272,275,282,284,289,300,303,318,320,321,330,332,339,340",
			"name": "Numbers k such that phi(k) == 8 (mod 12), where phi is the Euler totient function (A000010).",
			"comment": [
				"Dence and Pomerance showed that the asymptotic number of the terms below x is ~ c2 * x/sqrt(log(x)), where c2 = (sqrt(2*sqrt(3))/(3*Pi)) * c3^(-1/2) * (2*c3 - c4) = 0.3284176245..., c3 = Product_{primes p == 2 (mod 3)} (1 + 1/(p^2-1)), and c4 = Product_{primes p == 2 (mod 3)} (1 - 1/(p+1)^2)."
			],
			"link": [
				"Amiram Eldar, \u003ca href=\"/A332515/b332515.txt\"\u003eTable of n, a(n) for n = 1..10000\u003c/a\u003e",
				"Thomas Dence and Carl Pomerance, \u003ca href=\"https://doi.org/10.1007/978-1-4757-4507-8_2\"\u003eEuler's function in residue classes\u003c/a\u003e, in: K. Alladi, P. D. T. A. Elliott, A. Granville and G. Tenebaum (eds.), Analytic and Elementary Number Theory, Developments in Mathematics, Vol. 1, Springer, Boston, MA, 1998, pp. 7-20, \u003ca href=\"https://math.dartmouth.edu/~carlp/PDF/paper116.pdf\"\u003ealternative link\u003c/a\u003e."
			],
			"example": [
				"25 is a term since phi(25) = 20 == 8 (mod 12)."
			],
			"mathematica": [
				"Select[Range[400], Mod[EulerPhi[#], 12] == 8 \u0026]"
			],
			"program": [
				"(MAGMA) [k:k in [1..350]| EulerPhi(k) mod 12 eq 8]; // _Marius A. Burtea_, Feb 14 2020"
			],
			"xref": [
				"Cf. A000010, A017617, A175646, A332511, A332512, A332513, A332514, A332516."
			],
			"keyword": "nonn",
			"offset": "1,1",
			"author": "_Amiram Eldar_, Feb 14 2020",
			"references": 6,
			"revision": 16,
			"time": "2020-02-15T05:18:24-05:00",
			"created": "2020-02-14T18:56:15-05:00"
		}
	]
}