{
	"greeting": "Greetings from The On-Line Encyclopedia of Integer Sequences! http://oeis.org/",
	"query": "id:A332397",
	"count": 1,
	"start": 0,
	"results": [
		{
			"number": 332397,
			"data": "3,1,2,4,1,8,8,1,2,3,9,7,4,4,2,7,8,8,6,4,5,1,7,7,7,6,1,7,2,9,9,3,5,8,2,8,5,1,6,5,4,5,3,5,3,4,6,2,6,5,2,2,9,1,1,2,6,3,2,1,4,4,9,2,8,3,8,6,3,9,3,4,3,5,4,1,6,3,2,9,2,9,8,6,7,8,1,3,2,7,8,7,1,5,8,8,5,3,6,8,1,3,6,5,3,8,6,8",
			"name": "Expansion of Pi in bijective base-9 numeration.",
			"comment": [
				"The digit set for bijective base-9 numeration is {1, 2, ..., 9}.",
				"The initial 9 digits coincide with those of A004608."
			],
			"link": [
				"Alois P. Heinz, \u003ca href=\"/A332397/b332397.txt\"\u003eTable of n, a(n) for n = 1..10000\u003c/a\u003e",
				"R. R. Forslund, \u003ca href=\"http://www.emis.de/journals/SWJPAM/Vol1_1995/rrf01.ps\"\u003eA logical alternative to the existing positional number system\u003c/a\u003e, Southwest Journal of Pure and Applied Mathematics, Vol. 1, 1995, 27-29.",
				"Eric Weisstein's World of Mathematics, \u003ca href=\"http://mathworld.wolfram.com/Zerofree.html\"\u003eZerofree\u003c/a\u003e",
				"Wikipedia, \u003ca href=\"https://en.wikipedia.org/wiki/Bijective_numeration\"\u003eBijective numeration\u003c/a\u003e"
			],
			"example": [
				"3.124188123974427886451777617299358285165453534626522911263214492838639..."
			],
			"xref": [
				"Cf. A000796, A004608, A214676, A332395."
			],
			"keyword": "nonn,cons,base",
			"offset": "1,1",
			"author": "_Alois P. Heinz_, Feb 10 2020",
			"references": 2,
			"revision": 14,
			"time": "2020-02-13T11:26:42-05:00",
			"created": "2020-02-12T11:00:45-05:00"
		}
	]
}