{
	"greeting": "Greetings from The On-Line Encyclopedia of Integer Sequences! http://oeis.org/",
	"query": "id:A332145",
	"count": 1,
	"start": 0,
	"results": [
		{
			"number": 332145,
			"data": "5,454,44544,4445444,444454444,44444544444,4444445444444,444444454444444,44444444544444444,4444444445444444444,444444444454444444444,44444444444544444444444,4444444444445444444444444,444444444444454444444444444,44444444444444544444444444444,4444444444444445444444444444444",
			"name": "a(n) = 4*(10^(2*n+1)-1)/9 + 10^n.",
			"link": [
				"\u003ca href=\"/index/Rec#order_03\"\u003eIndex entries for linear recurrences with constant coefficients\u003c/a\u003e, signature (111,-1110,1000)."
			],
			"formula": [
				"a(n) = 4*A138148(n) + 5*10^n = A002278(2n+1) + 10^n.",
				"G.f.: (5 - 101*x - 300*x^2)/((1 - x)(1 - 10*x)(1 - 100*x)).",
				"a(n) = 111*a(n-1) - 1110*a(n-2) + 1000*a(n-3) for n \u003e 2."
			],
			"maple": [
				"A332145 := n -\u003e 4*(10^(2*n+1)-1)/9+10^n;"
			],
			"mathematica": [
				"Array[4 (10^(2 # + 1)-1)/9 + 10^# \u0026, 15, 0]"
			],
			"program": [
				"(PARI) apply( {A332145(n)=10^(n*2+1)\\9*4+10^n}, [0..15])",
				"(Python) def A332145(n): return 10**(n*2+1)//9*4+10**n"
			],
			"xref": [
				"Cf. A002275 (repunits R_n = (10^n-1)/9), A002278 (4*R_n), A011557 (10^n).",
				"Cf. A138148 (cyclops numbers with binary digits), A002113 (palindromes).",
				"Cf. A332115 .. A332195 (variants with different repeated digit 1, ..., 9).",
				"Cf. A332140 .. A332149 (variants with different middle digit 0, ..., 9)."
			],
			"keyword": "nonn,base,easy",
			"offset": "0,1",
			"author": "_M. F. Hasler_, Feb 09 2020",
			"references": 1,
			"revision": 7,
			"time": "2020-02-11T08:09:08-05:00",
			"created": "2020-02-09T10:56:02-05:00"
		}
	]
}