{
	"greeting": "Greetings from The On-Line Encyclopedia of Integer Sequences! http://oeis.org/",
	"query": "id:A332807",
	"count": 1,
	"start": 0,
	"results": [
		{
			"number": 332807,
			"data": "1,2,3,4,6,5,7,8,10,9,12,11,13,14,16,15,18,17,21,19,24,20,25,22,26,23,29,27,30,28,33,31,35,32,37,34,40,36,42,38,44,39,45,41,50,43,51,46,53,47,55,48,57,49,59,52,60,54,62,56,65,58,66,61,68,63,70,64,71,67,74,69,77,72,78,73,79,75,80,76,82,81,84,83,87,85,88,86",
			"name": "a(n) = A000720(A108546(n)).",
			"link": [
				"Antti Karttunen, \u003ca href=\"/A332807/b332807.txt\"\u003eTable of n, a(n) for n = 1..50507\u003c/a\u003e",
				"\u003ca href=\"/index/Per#IntegerPermutation\"\u003eIndex entries for sequences that are permutations of the natural numbers\u003c/a\u003e"
			],
			"formula": [
				"a(n) = A000720(A108546(n))."
			],
			"program": [
				"(PARI)",
				"up_to = 50507;",
				"A332807list(up_to) = { my(v=vector(up_to), p,q); v[1] = 2; v[2] = 3; v[3] = 5; for(n=4,up_to, p = v[n-2]; q = nextprime(1+p); while(q%4 != p%4, q=nextprime(1+q)); v[n] = q); apply(primepi,v); };",
				"v332807 = A332807list(up_to);",
				"A332807(n) = v332807[n];"
			],
			"xref": [
				"Cf. A332805 (inverse permutation).",
				"Fixed points are given by A000720(A108547(n)), n\u003e=1.",
				"Cf. A000720, A108546.",
				"Cf. also A267100."
			],
			"keyword": "nonn",
			"offset": "1,2",
			"author": "_Antti Karttunen_, Feb 27 2020",
			"references": 3,
			"revision": 7,
			"time": "2020-02-27T22:48:53-05:00",
			"created": "2020-02-27T22:48:53-05:00"
		}
	]
}