{
	"greeting": "Greetings from The On-Line Encyclopedia of Integer Sequences! http://oeis.org/",
	"query": "id:A332307",
	"count": 1,
	"start": 0,
	"results": [
		{
			"number": 332307,
			"data": "1,1,1,1,4,1,1,8,8,1,1,14,20,14,1,1,22,62,62,22,1,1,32,132,276,132,32,1,1,44,336,1006,1006,336,44,1,1,58,688,3610,4324,3610,688,58,1,1,74,1578,12010,26996,26996,12010,1578,74,1,1,92,3190,38984,109722,229348,109722,38984,3190,92,1",
			"name": "Array read by antidiagonals: T(m,n) is the number of (undirected) Hamiltonian paths in the m X n grid graph.",
			"link": [
				"Andrew Howroyd, \u003ca href=\"/A332307/b332307.txt\"\u003eTable of n, a(n) for n = 1..435\u003c/a\u003e",
				"J. L. Jacobsen, \u003ca href=\"http://dx.doi.org/10.1088/1751-8113/40/49/003\"\u003eExact enumeration of Hamiltonian circuits, walks and chains in two and three dimensions\u003c/a\u003e, J. Phys. A: Math. Theor. 40 (2007) 14667-14678.",
				"J.-M. Mayer, C. Guez and J. Dayantis, \u003ca href=\"http://dx.doi.org/10.1103/PhysRevB.42.660\"\u003eExact computer enumeration of the number of Hamiltonian paths in small square plane lattices\u003c/a\u003e, Physical Review B, Vol. 42 Number 1, 1990.",
				"Eric Weisstein's World of Mathematics, \u003ca href=\"http://mathworld.wolfram.com/GridGraph.html\"\u003eGrid Graph\u003c/a\u003e",
				"Eric Weisstein's World of Mathematics, \u003ca href=\"http://mathworld.wolfram.com/HamiltonianPath.html\"\u003eHamiltonian Path\u003c/a\u003e"
			],
			"formula": [
				"T(n,m) = T(m,n)."
			],
			"example": [
				"Array begins:",
				"================================================",
				"m\\n | 1  2   3     4      5       6        7",
				"----+-------------------------------------------",
				"  1 | 1  1   1     1      1       1        1 ...",
				"  2 | 1  4   8    14     22      32       44 ...",
				"  3 | 1  8  20    62    132     336      688 ...",
				"  4 | 1 14  62   276   1006    3610    12010 ...",
				"  5 | 1 22 132  1006   4324   26996   109722 ...",
				"  6 | 1 32 336  3610  26996  229348  1620034 ...",
				"  7 | 1 44 688 12010 109722 1620034 13535280 ...",
				"  ..."
			],
			"xref": [
				"Rows n=1..6 are A000012, A003682, A003685, A003695, A003778, A145402.",
				"Main diagonal is A120443.",
				"Cf. A064298, A231829, A271465, A271592, A288518, A321172."
			],
			"keyword": "nonn,tabl",
			"offset": "1,5",
			"author": "_Andrew Howroyd_, Feb 09 2020",
			"references": 7,
			"revision": 7,
			"time": "2020-02-10T11:48:26-05:00",
			"created": "2020-02-10T11:48:26-05:00"
		}
	]
}