{
	"greeting": "Greetings from The On-Line Encyclopedia of Integer Sequences! http://oeis.org/",
	"query": "id:A333984",
	"count": 1,
	"start": 0,
	"results": [
		{
			"number": 333984,
			"data": "0,1,7,82,1839,69630,3950650,313747050,33224570175,4523562983350,769859662962750,160137417877796250,39971947204607486250,11791483690935887486250,4058152793413483423916250,1611522009185095020022068750,731368135285580087866788609375,376178084508304435598172207843750",
			"name": "a(0) = 0; a(n) = 5^(n-1) + (1/n) * Sum_{k=1..n-1} binomial(n,k)^2 * 5^(k-1) * (n-k) * a(n-k).",
			"formula": [
				"Sum_{n\u003e=0} a(n) * x^n / (n!)^2 = -log((6 - BesselI(0,2*sqrt(5*x))) / 5)."
			],
			"mathematica": [
				"a[0] = 0; a[n_] := a[n] = 5^(n - 1) + (1/n) Sum[Binomial[n, k]^2 5^(k - 1) (n - k) a[n - k], {k, 1, n - 1}]; Table[a[n],{n, 0, 17}]",
				"nmax = 17; CoefficientList[Series[-Log[(6 - BesselI[0, 2 Sqrt[5 x]])/5], {x, 0, nmax}], x] Range[0, nmax]!^2"
			],
			"xref": [
				"Cf. A102223, A333981, A333982, A333983, A333985, A337595."
			],
			"keyword": "nonn",
			"offset": "0,3",
			"author": "_Ilya Gutkovskiy_, Sep 04 2020",
			"references": 4,
			"revision": 8,
			"time": "2020-09-04T10:07:07-04:00",
			"created": "2020-09-04T10:07:07-04:00"
		}
	]
}