{
	"greeting": "Greetings from The On-Line Encyclopedia of Integer Sequences! http://oeis.org/",
	"query": "id:A333676",
	"count": 1,
	"start": 0,
	"results": [
		{
			"number": 333676,
			"data": "1,1,29,4,1,1,6,2,3,3,2,4,2,6,1,1,3,12,6,7,3,4,13,4,1,13,2,21,12,3,16,1,5,5,19,8,22,15,4,13,2,5,2,26,1,15,38,6,16,12,10,13,1,2,8,4,38,5,15,205,2,5,10,31,4,6,16,8,31,20,5,7,2,4,4,18,3,3,4,1,3,8,1,2,10,8,15,12",
			"name": "Least positive integer k such that k*prime(n) is an Ulam number (A002858).",
			"comment": [
				"Conjecture: For any prime number p there exists a positive integer k such that k*p is an Ulam number."
			],
			"link": [
				"Amiram Eldar, \u003ca href=\"/A333676/b333676.txt\"\u003eTable of n, a(n) for n = 1..10000\u003c/a\u003e",
				"Eric Weisstein's World of Mathematics, \u003ca href=\"http://mathworld.wolfram.com/UlamSequence.html\"\u003eUlam Sequence\u003c/a\u003e.",
				"Wikipedia, \u003ca href=\"https://en.wikipedia.org/wiki/Ulam_number\"\u003eUlam number\u003c/a\u003e."
			],
			"example": [
				"a(3) = 29 because 5*29 gives the Ulam number 145 and this is the smallest Ulam number divisible by 5."
			],
			"mathematica": [
				"lst1 = ReadList[\"https://oeis.org/A002858/b002858.txt\", {Number, Number}]; lst = {}; Do[n=1; While[!IntegerQ[k=lst1[[n]][[2]]/Prime[m]], n++]; AppendTo[lst, k], {m, 1, 100}]; lst"
			],
			"xref": [
				"Cf. A002858, A322372."
			],
			"keyword": "nonn",
			"offset": "1,3",
			"author": "_Frank M Jackson_, Apr 01 2020",
			"references": 1,
			"revision": 17,
			"time": "2020-08-22T09:45:39-04:00",
			"created": "2020-04-29T20:34:35-04:00"
		}
	]
}