{
	"greeting": "Greetings from The On-Line Encyclopedia of Integer Sequences! http://oeis.org/",
	"query": "id:A333524",
	"count": 1,
	"start": 0,
	"results": [
		{
			"number": 333524,
			"data": "1,1,1,2,2,3,3,4,6,8,8,9,9,11,14,16,16,18,18,20,24,28,28,29,38,44,52,58,58,59,59,63,73,83,100,102,102,115,131,135,135,139,139,148,159,176,176,178,216,226",
			"name": "Normalized volume of polytope representing the number n.",
			"link": [
				"Ya-Ping Lu and Shu-Fang Deng, \u003ca href=\"http://arxiv.org/abs/2003.08968\"\u003eProperties of Polytopes Representing Natural Numbers\u003c/a\u003e, arXiv:2003.08968 [math.GM], 2020. See Table 3.1."
			],
			"xref": [
				"Cf. A333524-A333528, A335152."
			],
			"keyword": "nonn,more",
			"offset": "1,4",
			"author": "_N. J. A. Sloane_, Mar 26 2020",
			"references": 3,
			"revision": 11,
			"time": "2020-05-25T16:33:04-04:00",
			"created": "2020-03-26T14:22:11-04:00"
		}
	]
}