{
	"greeting": "Greetings from The On-Line Encyclopedia of Integer Sequences! http://oeis.org/",
	"query": "id:A333135",
	"count": 1,
	"start": 0,
	"results": [
		{
			"number": 333135,
			"data": "139,94,34,3,1,2383,2421,760,167,13,2,5307,5958,2113,563,80,17,2,13083,13560,4479,1002,153,16,1,18827,20896,8256,2139,377,49,6,1,42992,45400,15930,3771,579,60,5,63526,79275,28922,7315,1404,202,14,4",
			"name": "Irregular table read by rows: Take a triangle with Pythagorean triple leg lengths with all diagonals drawn, as in A332978. Then T(n,k) = number of k-sided polygons in that figure for k \u003e= 3 where the legs are divided into unit length parts.",
			"comment": [
				"See A332978 for the Pythagorean triple ordering and the links for images of the triangles."
			],
			"link": [
				"Lars Blomberg, \u003ca href=\"/A333135/b333135.txt\"\u003eTable of n, a(n) for n = 1..213\u003c/a\u003e (the first 24 rows)"
			],
			"example": [
				"Table begins:",
				"139, 94, 34, 3, 1;",
				"2383, 2421, 760, 167, 13, 2;",
				"5307, 5958, 2113, 563, 80, 17, 2;",
				"13083, 13560, 4479, 1002, 153, 16, 1;",
				"18827, 20896, 8256, 2139, 377, 49, 6, 1;",
				"42992, 45400, 15930, 3771, 579, 60, 5;",
				"63526, 79275, 28922, 7315, 1404, 202, 14, 4;",
				"The row sums are A332978."
			],
			"xref": [
				"Cf. A332978 (regions), A333136 (vertices), A333137 (edges), A103605 (Pythagorean triple ordering), A007678, A092867, A331452."
			],
			"keyword": "nonn,tabf",
			"offset": "1,1",
			"author": "_Scott R. Shannon_ and _N. J. A. Sloane_, Mar 09 2020",
			"ext": [
				"Corrected typo in a(12) and a(49) and beyond from _Lars Blomberg_, Jun 07 2020"
			],
			"references": 4,
			"revision": 17,
			"time": "2020-08-24T10:20:15-04:00",
			"created": "2020-03-09T09:24:57-04:00"
		}
	]
}