{
	"greeting": "Greetings from The On-Line Encyclopedia of Integer Sequences! http://oeis.org/",
	"query": "id:A333860",
	"count": 1,
	"start": 0,
	"results": [
		{
			"number": 333860,
			"data": "1,1,2,1,2,2,3,1,3,2,3,2,3,3,4,1,3,3,4,2,3,3,4,2,4,3,8,3,4,4,8,1,4,3,4,3,3,4,5,2,8,3,4,3,4,4,8,2,3,4,4,3,4,8,8,3,4,4,5,4,5,8,8,1,3,4,4,3,3,4,8,3,8,3,4,4,4,5,6,2,5,8,8,3,4,4,5",
			"name": "The maximum Hamming weight of the elements of the Collatz orbit of n.",
			"link": [
				"Markus Sigg, \u003ca href=\"/A333860/b333860.txt\"\u003eTable of n, a(n) for n = 1..10000\u003c/a\u003e"
			],
			"example": [
				"The Collatz orbit of 3 is 3,10,5,16,8,4,2,1. The Hamming weights are 2,2,2,1,1,1,1,1. The maximum is a(3) = 2."
			],
			"program": [
				"(PARI) a(n) = {",
				"my(c = hammingweight(n));",
				"while(n\u003e1, n = if(n%2 == 0, n/2, 3*n+1); c = max(c, hammingweight(n)));",
				"c;",
				"}"
			],
			"xref": [
				"Cf. A000120, A008908, A070165, A333861."
			],
			"keyword": "nonn,easy,base",
			"offset": "1,3",
			"author": "_Markus Sigg_, Apr 08 2020",
			"references": 2,
			"revision": 26,
			"time": "2020-04-11T10:22:18-04:00",
			"created": "2020-04-11T08:20:43-04:00"
		}
	]
}