{
	"greeting": "Greetings from The On-Line Encyclopedia of Integer Sequences! http://oeis.org/",
	"query": "id:A333107",
	"count": 1,
	"start": 0,
	"results": [
		{
			"number": 333107,
			"data": "0,0,1,4,16,56,190,637,2131,7156,24215,82758,285991,999715,3534394,12631420,45601759,166169360,610650687,2261234467,8430749631,31625520000,119281312293,452077280484,1720796968459,6575385383602,25212139233077,96970372087853",
			"name": "Total area under all nonnegative lattice paths from (0,0) to (n,0) where the allowed steps at (x,y) are (1,v) with v in {-1,0,...,max(y,1)}.",
			"link": [
				"Alois P. Heinz, \u003ca href=\"/A333107/b333107.txt\"\u003eTable of n, a(n) for n = 0..1665\u003c/a\u003e",
				"Wikipedia, \u003ca href=\"https://en.wikipedia.org/wiki/Lattice_path#Counting_lattice_paths\"\u003eCounting lattice paths\u003c/a\u003e",
				"Wikipedia, \u003ca href=\"https://en.wikipedia.org/wiki/Motzkin_number\"\u003eMotzkin number\u003c/a\u003e"
			],
			"maple": [
				"b:= proc(x, y) option remember; `if`(x=0, [1, 0], add(",
				"      (p-\u003e p+[0, p[1]*(y+j/2)])(b(x-1, y+j)),",
				"       j=-min(1, y)..min(max(1, y), x-y-1)))",
				"    end:",
				"a:= n-\u003e b(n, 0)[2]:",
				"seq(a(n), n=0..29);"
			],
			"mathematica": [
				"b[x_, y_] := b[x, y] = If[x == 0, {1, 0}, Sum[",
				"     Function[p, p + {0, p[[1]]*(y + j/2)}][b[x - 1, y + j]],",
				"     {j, -Min[1, y], Min[Max[1, y], x - y - 1]}]];",
				"a[n_] :=  b[n, 0][[2]];",
				"a /@ Range[0, 29] (* _Jean-François Alcover_, Apr 05 2021, after _Alois P. Heinz_ *)"
			],
			"xref": [
				"Cf. A333071, A333105, A333106, A333608."
			],
			"keyword": "nonn",
			"offset": "0,4",
			"author": "_Alois P. Heinz_, Mar 07 2020",
			"references": 5,
			"revision": 15,
			"time": "2021-04-05T09:18:41-04:00",
			"created": "2020-03-28T17:36:32-04:00"
		}
	]
}