{
	"greeting": "Greetings from The On-Line Encyclopedia of Integer Sequences! http://oeis.org/",
	"query": "id:A333288",
	"count": 1,
	"start": 0,
	"results": [
		{
			"number": 333288,
			"data": "4,8,8,12,22,12,16,36,36,16,20,52,70,52,20,24,66,100,100,66,24,28,82,134,160,134,82,28,32,98,166,218,218,166,98,32,36,116,198,276,310,276,198,116,36,40,134,230,328,396,396,328,230,134,40,44,154,266,386",
			"name": "Triangle read by rows: consider a figure made up of a row of n congruent rectangles and the diagonals of all visible rectangles; T(n,k) (1 \u003c= k \u003c= n) is the number of regions in the k-th rectangle.",
			"comment": [
				"This was originally based on the data in _Jinyuan Wang_'s A324042, and then extended by _Lars Blomberg_.",
				"Since the cells are either triangles or quadrilaterals, this is the sum of the two arrays A333286 and A333287.",
				"It would be nice to have a formula for these entries. It is easy to see that the first column is 4n for n\u003e=1."
			],
			"link": [
				"Lars Blomberg, \u003ca href=\"/A333288/b333288.txt\"\u003eTable of n, a(n) for n = 1..3240 (the first 80 rows)\u003c/a\u003e",
				"Lars Blomberg, Scott R. Shannon and N. J. A. Sloane, \u003ca href=\"http://neilsloane.com/doc/rose_5.pdf\"\u003eGraphical Enumeration and Stained Glass Windows, 1: Rectangular Grids\u003c/a\u003e, (2021). Also arXiv:2009.07918."
			],
			"example": [
				"Triangle begins:",
				"   4;",
				"   8,   8;",
				"  12,  22,  12;",
				"  16,  36,  36,  16;",
				"  20,  52,  70,  52,  20;",
				"  24,  66, 100, 100,  66,  24;",
				"  28,  82, 134, 160, 134,  82,  28;",
				"  ..."
			],
			"xref": [
				"Cf. A306302, A331452, A324042, A324043, A333286, A333287, A333288, A335056, A335074."
			],
			"keyword": "nonn,tabl",
			"offset": "1,1",
			"author": "_N. J. A. Sloane_, Mar 20 2020",
			"ext": [
				"a(29) and beyond from _Lars Blomberg_, Apr 23 2020"
			],
			"references": 11,
			"revision": 27,
			"time": "2021-08-31T04:37:49-04:00",
			"created": "2020-03-20T14:01:42-04:00"
		}
	]
}