{
	"greeting": "Greetings from The On-Line Encyclopedia of Integer Sequences! http://oeis.org/",
	"query": "id:A333166",
	"count": 1,
	"start": 0,
	"results": [
		{
			"number": 333166,
			"data": "1,2,3,12,118,9638,10622074,135037240786,18621890255342234,28688490385422625653266,511030957184968000138445253202",
			"name": "Number of n-regular graphs on 2n unlabeled vertices with half-edges.",
			"comment": [
				"A half-edge is like a loop except it only adds 1 to the degree of its vertex.",
				"a(n) is the number of non-isomorphic 2n X 2n symmetric matrices with entries in {+1, -1} and all rows and columns summing to zero where isomorphism is up to simultaneous permutation of rows and columns. The case where rows and columns can be permuted independently is covered by A333165."
			],
			"formula": [
				"a(n) = A333161(2*n, n).",
				"Cf. A333164, A333165."
			],
			"example": [
				"The a(1) = 1 matrix is:",
				"  [+ -]",
				"  [- +]",
				".",
				"The a(2) = 2 matrices are:",
				"  [+ + - -]   [- - + +]   [+ + - -]",
				"  [+ + - -]   [- - + +]   [+ - + -]",
				"  [- - + +]   [+ + - -]   [- + - +]",
				"  [- - + +]   [+ + - -]   [- - + +]"
			],
			"xref": [
				"Central coefficients of A333161."
			],
			"keyword": "nonn,more",
			"offset": "0,2",
			"author": "_Andrew Howroyd_, Mar 12 2020",
			"references": 3,
			"revision": 4,
			"time": "2020-03-14T18:54:16-04:00",
			"created": "2020-03-14T18:54:16-04:00"
		}
	]
}