{
	"greeting": "Greetings from The On-Line Encyclopedia of Integer Sequences! http://oeis.org/",
	"query": "id:A333552",
	"count": 1,
	"start": 0,
	"results": [
		{
			"number": 333552,
			"data": "3,6,7,9,11,18,19,21,33,34,36,39,66,67,69,71,73,75,101,102,104,106,108,113,114,115,117,121,123,125,127,133,134,172,173,175,177,179,181,183,186,188,189,190,194,224,225,227,229,231,233,236,238,240,242,244,246,248,287,288,290,292,294,296,298,300,302,304",
			"name": "List of numbers k defined by property that when the Recamán term A005132(k) is being computed, we are unable to subtract k from A005132(k-1) because, although A003132(k-1) \u003e= k, the result of the subtraction, A005132(k-1)-k, is already in A005132.",
			"comment": [
				"Positions k of addition steps in Recamán's sequence where A005132(k-1)-k = A005132(m) for some 0 \u003c= m \u003c k.",
				"This is A187922 together with the terms in A333548.  (The difference between A187922 and the present sequence is explained by the fact that originally A005132 began at 1 rather than 0.)"
			],
			"link": [
				"N. J. A. Sloane, \u003ca href=\"/A333552/b333552.txt\"\u003eTable of n, a(n) for n = 1..22288\u003c/a\u003e",
				"\u003ca href=\"/index/Rea#Recaman\"\u003eIndex entries for sequences related to Recamán's sequence\u003c/a\u003e"
			],
			"example": [
				"After we have found A005132(6)=13, we attempt to subtract 7 from 13 to get a(7). However, this would give 6, which is a collision, since we already have A005132(3)=6. So 7 gets added to the current sequence."
			],
			"xref": [
				"Cf. A005132, A187921, A187922, A333548, A333549, A334494."
			],
			"keyword": "nonn",
			"offset": "1,1",
			"author": "_N. J. A. Sloane_, May 03 2020",
			"references": 5,
			"revision": 21,
			"time": "2021-01-09T21:04:20-05:00",
			"created": "2020-05-03T12:17:45-04:00"
		}
	]
}