{
	"greeting": "Greetings from The On-Line Encyclopedia of Integer Sequences! http://oeis.org/",
	"query": "id:A333504",
	"count": 1,
	"start": 0,
	"results": [
		{
			"number": 333504,
			"data": "0,0,1,3,9,28,88,282,921,3058,10302,35159,121406,423704,1493046,5307276,19014642,68609686,249149529,910000728,3341113126,12325295866,45664033813,169846998495,634020229888,2374550269819,8920273989351,33604033638696,126919824985533",
			"name": "Sum of the heights of all lattice paths from (0,0) to (n,0) that do not go below the x-axis, and at (x,y) only allow steps (1,v) with v in {-1,0,1,...,y+1}.",
			"link": [
				"Alois P. Heinz, \u003ca href=\"/A333504/b333504.txt\"\u003eTable of n, a(n) for n = 0..400\u003c/a\u003e",
				"Wikipedia, \u003ca href=\"https://en.wikipedia.org/wiki/Lattice_path#Counting_lattice_paths\"\u003eCounting lattice paths\u003c/a\u003e"
			],
			"maple": [
				"b:= proc(x, y, h) option remember; `if`(x=0, h, add((t-\u003e",
				"     `if`(x\u003et, b(x-1, t, max(h, t)), 0))(y-j), j=-1-y..min(1, y)))",
				"    end:",
				"a:= n-\u003e b(n, 0$2):",
				"seq(a(n), n=0..33);"
			],
			"mathematica": [
				"b[x_, y_, h_] := b[x, y, h] = If[x == 0, h, Sum[With[{t = y - j},",
				"     If[x \u003e t, b[x - 1, t, Max[h, t]], 0]], {j, -1 - y, Min[1, y]}]];",
				"a[n_] := b[n, 0, 0];",
				"a /@ Range[0, 33] (* _Jean-François Alcover_, Apr 26 2021, after _Alois P. Heinz_ *)"
			],
			"xref": [
				"Cf. A333069, A333070, A333071, A333498, A333608."
			],
			"keyword": "nonn",
			"offset": "0,4",
			"author": "_Alois P. Heinz_, Mar 24 2020",
			"references": 6,
			"revision": 13,
			"time": "2021-04-26T05:23:12-04:00",
			"created": "2020-03-24T19:14:31-04:00"
		}
	]
}