{
	"greeting": "Greetings from The On-Line Encyclopedia of Integer Sequences! http://oeis.org/",
	"query": "id:A333916",
	"count": 1,
	"start": 0,
	"results": [
		{
			"number": 333916,
			"data": "4,10,30,550,1540,48070,223300,2634940,402610950,1570545340,13960282700,5677137442900,248297918605660",
			"name": "a(n) is the least integer that is pyramidal in exactly n ways.",
			"comment": [
				"a(n) has exactly n representations as an m-gonal pyramidal number P(m, k) = k*(k + 1)*(k*(m - 2) - m + 5) / 6, with m \u003e 2, k \u003e 1.",
				"a(12) \u003e 5*10^11. - _Giovanni Resta_, Apr 11 2020"
			],
			"link": [
				"Eric Weisstein's World of Mathematics, \u003ca href=\"https://mathworld.wolfram.com/PyramidalNumber.html\"\u003ePyramidal Number\u003c/a\u003e",
				"\u003ca href=\"/index/Ps#pyramidal_numbers\"\u003eIndex to sequences related to pyramidal numbers\u003c/a\u003e"
			],
			"example": [
				"a(3) = 30 because 30 is the least integer which is pyramidal in 3 ways (30 is the fourth square pyramidal number, the third octagonal pyramidal number and also the second 31-gonal pyramidal number)."
			],
			"xref": [
				"Cf. A063778, A080851, A261720, A333915."
			],
			"keyword": "nonn,more",
			"offset": "1,1",
			"author": "_Ilya Gutkovskiy_, Apr 09 2020",
			"ext": [
				"a(9) from _Jinyuan Wang_, Apr 10 2020",
				"a(10)-a(11) from _Giovanni Resta_, Apr 10 2020",
				"a(12)-a(13) from _Bert Dobbelaere_, Apr 12 2020"
			],
			"references": 2,
			"revision": 20,
			"time": "2020-04-12T10:25:18-04:00",
			"created": "2020-04-09T23:50:03-04:00"
		}
	]
}