{
	"greeting": "Greetings from The On-Line Encyclopedia of Integer Sequences! http://oeis.org/",
	"query": "id:A333165",
	"count": 1,
	"start": 0,
	"results": [
		{
			"number": 333165,
			"data": "1,1,2,5,66,7937,10211144,133506398361,18551599312980440,28652629505982770906471,510824181488832447063505273252",
			"name": "Number of non-isomorphic 2n X 2n symmetric matrices with entries in {+1, -1} and all rows and columns summing to zero.",
			"comment": [
				"a(n) is the number of non-isomorphic 2n X 2n symmetric binary matrices with n ones in every row and column."
			],
			"formula": [
				"a(n) = A333159(2*n, n)."
			],
			"example": [
				"The a(1) = 1 matrix is:",
				"  [+ -]",
				"  [- +]",
				"The a(2) = 2 matrices are:",
				"  [+ + - -]   [+ + - -]",
				"  [+ + - -]   [+ - + -]",
				"  [- - + +]   [- + - +]",
				"  [- - + +]   [- - + +]"
			],
			"xref": [
				"Central coefficients of A333159.",
				"Cf. A333164, A333166."
			],
			"keyword": "nonn,more",
			"offset": "0,3",
			"author": "_Andrew Howroyd_, Mar 11 2020",
			"references": 3,
			"revision": 5,
			"time": "2020-03-14T18:54:09-04:00",
			"created": "2020-03-14T18:54:09-04:00"
		}
	]
}