{
	"greeting": "Greetings from The On-Line Encyclopedia of Integer Sequences! http://oeis.org/",
	"query": "id:A334115",
	"count": 1,
	"start": 0,
	"results": [
		{
			"number": 334115,
			"data": "0,1,4,10,16,20,35,40,56,64,80,84,100,120,140,160,165,200,220,224,256,286,320,336,350,364,400,455,480,560,640,660,680,700,800,816,840,880,896,969,1000,1024,1120,1140,1144,1200,1225,1280,1330,1344,1400,1456,1540,1600",
			"name": "Numbers that can be written as a product of tetrahedral numbers.",
			"comment": [
				"For n \u003e 1, numbers that appear at least once in A007426."
			],
			"link": [
				"David A. Corneth, \u003ca href=\"/A334115/b334115.txt\"\u003eTable of n, a(n) for n = 1..10000\u003c/a\u003e",
				"Eric Weisstein's World of Mathematics, \u003ca href=\"http://mathworld.wolfram.com/TetrahedralNumber.html\"\u003eTetrahedral Number\u003c/a\u003e"
			],
			"xref": [
				"Cf. A000292, A007426, A085782, A265010."
			],
			"keyword": "nonn",
			"offset": "1,3",
			"author": "_Ilya Gutkovskiy_, Apr 14 2020",
			"ext": [
				"More terms from _David A. Corneth_, Mar 22 2021"
			],
			"references": 2,
			"revision": 11,
			"time": "2021-03-23T01:12:50-04:00",
			"created": "2020-04-14T13:26:41-04:00"
		}
	]
}