{
	"greeting": "Greetings from The On-Line Encyclopedia of Integer Sequences! http://oeis.org/",
	"query": "id:A334822",
	"count": 1,
	"start": 0,
	"results": [
		{
			"number": 334822,
			"data": "1,2,3,144689999986441,154698898896451,226589999985622,234779999977432,243788999887342,244788898887442,253698898896352,254689878986452,254788878887452,254797797797452,333878999878333,334878898878433,335598898895533,336589878985633,336688878886633",
			"name": "Palindromes k such that k*sod(k) and k/sod(k) are both palindromes, where sod(k) denotes the sum of digits of k (A007953).",
			"comment": [
				"Intersection of A002113 and A229549 and A334416. Palindromes in A334533.",
				"For the first 10000 terms, most of them have digit sum 91. The only terms a(n) for n \u003c= 10000 for which the digit sum is not 91 are 1, 2, 3 and a(1076) = 426666666666666624. - _Chai Wah Wu_, May 15 2020"
			],
			"link": [
				"Chai Wah Wu, \u003ca href=\"/A334822/b334822.txt\"\u003eTable of n, a(n) for n = 1..10000\u003c/a\u003e"
			],
			"example": [
				"35479654545697453 is a palindrome whose sum of digits is 91. 35479654545697453/91 = 389886313688983 and 35479654545697453*91 = 3228648563658468223 which are both palindromes. So 35479654545697453 is a term."
			],
			"xref": [
				"Cf. A002113, A007953, A229549, A334416, A334533."
			],
			"keyword": "nonn,base",
			"offset": "1,2",
			"author": "_Chai Wah Wu_, May 12 2020",
			"references": 1,
			"revision": 14,
			"time": "2020-05-16T01:45:44-04:00",
			"created": "2020-05-13T10:38:28-04:00"
		}
	]
}