{
	"greeting": "Greetings from The On-Line Encyclopedia of Integer Sequences! http://oeis.org/",
	"query": "id:A334345",
	"count": 1,
	"start": 0,
	"results": [
		{
			"number": 334345,
			"data": "115,355,1266,1555,1686,1795,4195,4206,4962,5155,5298,6978,9235,10002,11230,13315,18822,21752,22602,23106,26072,29816,40616,42258,60056,60730,64690,68802,83586,87272,91736,94616,100990,107526,108910,109448,113192,121112,125436",
			"name": "Numbers k such that k and k+1 are both binary Moran numbers (A334344).",
			"link": [
				"Amiram Eldar, \u003ca href=\"/A334345/b334345.txt\"\u003eTable of n, a(n) for n = 1..10000\u003c/a\u003e"
			],
			"example": [
				"115 is a term since 115/A000120(115) = 23 and 116/A000120(116) = 29 are both prime numbers."
			],
			"maple": [
				"q:= n-\u003e (p-\u003e is(p, integer) and isprime(p))(n/add(i, i=Bits[Split](n))):",
				"select(k-\u003e q(k) and q(k+1), [$1..126000])[];  # _Alois P. Heinz_, Apr 23 2020"
			],
			"mathematica": [
				"binMoranQ[n_] := PrimeQ[n / DigitCount[n, 2, 1]]; Select[Range[10^5], binMoranQ[#] \u0026\u0026 binMoranQ[# + 1] \u0026]"
			],
			"xref": [
				"Subsequence of A330931 and A334344.",
				"Cf. A000120, A085775."
			],
			"keyword": "nonn,base",
			"offset": "1,1",
			"author": "_Amiram Eldar_, Apr 23 2020",
			"references": 3,
			"revision": 9,
			"time": "2020-04-24T03:48:21-04:00",
			"created": "2020-04-23T20:42:11-04:00"
		}
	]
}