{
	"greeting": "Greetings from The On-Line Encyclopedia of Integer Sequences! http://oeis.org/",
	"query": "id:A334674",
	"count": 1,
	"start": 0,
	"results": [
		{
			"number": 334674,
			"data": "24,36,48,60,64,72,80,84,88,90,96,108,112,120,126,128,132,136,140,144,150,152,156,160,162,168,176,180,192,196,198,200,204,208,210,216,220,224,228,234,240,252,256,260,264,270,272,276,280,288,294,300,304,308,312,320",
			"name": "Perimeters of nonprimitive Heronian triangles with mutually distinct side lengths.",
			"link": [
				"Eric Weisstein's World of Mathematics, \u003ca href=\"http://mathworld.wolfram.com/HeronianTriangle.html\"\u003eHeronian Triangle\u003c/a\u003e",
				"Wikipedia, \u003ca href=\"https://en.wikipedia.org/wiki/Heronian_triangle\"\u003eHeronian triangle\u003c/a\u003e",
				"Wikipedia, \u003ca href=\"https://en.wikipedia.org/wiki/Integer_triangle\"\u003eInteger Triangle\u003c/a\u003e"
			],
			"example": [
				"a(1) = 24; there is one nonprimitive Heronian triangle with perimeter 24 whose side lengths are mutually distinct, [6,8,10].",
				"a(2) = 36; there is one nonprimitive Heronian triangle with perimeter 36 whose side lengths are mutually distinct, [9,12,15]."
			],
			"xref": [
				"Cf. A331366, A334665."
			],
			"keyword": "nonn",
			"offset": "1,1",
			"author": "_Wesley Ivan Hurt_, May 07 2020",
			"references": 1,
			"revision": 9,
			"time": "2021-02-01T19:11:57-05:00",
			"created": "2020-05-07T23:26:51-04:00"
		}
	]
}