{
	"greeting": "Greetings from The On-Line Encyclopedia of Integer Sequences! http://oeis.org/",
	"query": "id:A334085",
	"count": 1,
	"start": 0,
	"results": [
		{
			"number": 334085,
			"data": "1,1,1,2,1,6,1,2,3,10,1,6,1,14,15,2,1,6,1,10,21,22,1,6,5,26,3,14,1,30,1,2,33,34,35,6,1,38,39,10,1,42,1,22,15,46,1,6,7,10,51,26,1,6,55,14,57,58,1,30,1,62,21,2",
			"name": "GCD of n and the product of all primes \u003c n.",
			"comment": [
				"a(n) = 1 iff n is prime."
			],
			"link": [
				"Christoph Schreier, \u003ca href=\"/A334085/b334085.txt\"\u003eTable of n, a(n) for n = 1..1000\u003c/a\u003e"
			],
			"formula": [
				"a(n) = gcd(n, A034386(n-1)).",
				"a(n) = 1 if n is prime, else a(n) = A007947(n)."
			],
			"example": [
				"For n=8 the product of all primes \u003c 8 = A034386(7) = 210; gcd(8,210) = 2."
			],
			"maple": [
				"a:= n-\u003e `if`(isprime(n), 1, mul(i[1], i=ifactors(n)[2])):",
				"seq(a(n), n=1..80);  # _Alois P. Heinz_, Apr 17 2020"
			],
			"mathematica": [
				"a[n_] := GCD[n, Times @@ Select[Range[n - 1], PrimeQ]]; Array[a, 60] (* _Amiram Eldar_, Apr 14 2020 *)"
			],
			"program": [
				"(Python)",
				"def is_prime(n):",
				"    if n == 2 or n == 3:",
				"        return True",
				"    if n % 2 == 0 or n \u003c 2:",
				"        return False",
				"    for i in range(3,int(n**0.5)+1,2):",
				"        if n % i == 0:",
				"            return False",
				"    return True",
				"def A(n):",
				"    if n \u003c 3:",
				"        raise ValueError('n must be \u003e 2')",
				"    else:",
				"        a = 1",
				"        for i in range(n):",
				"            if is_prime(i):",
				"                a *= i",
				"    return math.gcd(n,a)",
				"(PARI) a(n) = gcd(n, prod(k=1, n-1, if (isprime(k), k, 1))); \\\\ _Michel Marcus_, Apr 14 2020",
				"(PARI) a(n,f=factor(n))=if(f[,2]==[1]~,1,factorback(f[,1])) \\\\ _Charles R Greathouse IV_, Apr 14 2020"
			],
			"xref": [
				"Cf. A000040, A034386, A007947."
			],
			"keyword": "nonn,easy",
			"offset": "1,4",
			"author": "_Christoph Schreier_, Apr 14 2020",
			"references": 1,
			"revision": 27,
			"time": "2020-04-17T15:30:29-04:00",
			"created": "2020-04-14T10:29:55-04:00"
		}
	]
}