{
	"greeting": "Greetings from The On-Line Encyclopedia of Integer Sequences! http://oeis.org/",
	"query": "id:A334903",
	"count": 1,
	"start": 0,
	"results": [
		{
			"number": 334903,
			"data": "6,40,54,918,1240,1288,1408,1480,1672,1720,1768,1974,2440,2728,2838,2968,3198,3318,4134,4264,4422,4480,4758,5248,6102,6270,6424,7590,7830,10624,11128,13110,13182,14248,15496,15928,16254,16768,18088,19864,21112,21318,21630",
			"name": "Numbers k such that k and k+2 are both infinitary practical numbers (A334901).",
			"link": [
				"Amiram Eldar, \u003ca href=\"/A334903/b334903.txt\"\u003eTable of n, a(n) for n = 1..10000\u003c/a\u003e"
			],
			"example": [
				"6 is a term since 6 and 6 + 2 = 8 are both infinitary practical numbers."
			],
			"mathematica": [
				"bin[n_] := 2^(-1 + Position[Reverse @ IntegerDigits[n, 2], _?(# == 1 \u0026)] // Flatten); f[p_, e_] := p^bin[e]; icomp[n_] := Flatten[f @@@ FactorInteger[n]]; fun[p_, e_] := Module[{b = IntegerDigits[e, 2]}, m = Length[b]; Product[If[b[[j]] \u003e 0, 1 + p^(2^(m - j)), 1], {j, 1, m}]]; isigma[1] = 1; isigma[n_] := Times @@ fun @@@ FactorInteger[n]; infPracQ[n_] := Module[{f, p, e, prod = 1, ok = True}, If[n \u003c 1 || (n \u003e 1 \u0026\u0026 OddQ[n]), False, If[n == 1, True, r = Sort[icomp[n]]; Do[If[r[[i]] \u003e 1 + isigma[prod], ok = False; Break[]]; prod = prod*r[[i]], {i, Length[r]}]; ok]]]; seq = {}; q1 = infPracQ[2]; Do[q2 = infPracQ[n]; If[q1 \u0026\u0026 q2, AppendTo[seq, n - 2]]; q1 = q2, {n, 4, 10^4, 2}]; seq"
			],
			"xref": [
				"Cf. A287681, A330871, A334882, A334900, A334901."
			],
			"keyword": "nonn",
			"offset": "1,1",
			"author": "_Amiram Eldar_, May 16 2020",
			"references": 2,
			"revision": 8,
			"time": "2020-05-17T02:15:31-04:00",
			"created": "2020-05-16T14:27:19-04:00"
		}
	]
}