{
	"greeting": "Greetings from The On-Line Encyclopedia of Integer Sequences! http://oeis.org/",
	"query": "id:A334660",
	"count": 1,
	"start": 0,
	"results": [
		{
			"number": 334660,
			"data": "1,-16,-81,0,-625,1296,-2401,0,0,10000,-14641,0,-28561,38416,50625,0,-83521,0,-130321,0,194481,234256,-279841,0,0,456976,0,0,-707281,-810000,-923521,0,1185921,1336336,1500625,0,-1874161,2085136,2313441,0,-2825761,-3111696,-3418801,0,0,4477456",
			"name": "Dirichlet g.f.: 1 / zeta(s-4).",
			"comment": [
				"Dirichlet inverse of A000583.",
				"Moebius transform of A189922.",
				"Inverse Moebius transform of A053826."
			],
			"formula": [
				"G.f. A(x) satisfies: A(x) = x - 2^4 * A(x^2) - 3^4 * A(x^3) - 4^4 * A(x^4) - ...",
				"a(1) = 1; a(n) = -n^4 * Sum_{d|n, d \u003c n} a(d) / d^4.",
				"a(n) = mu(n) * n^4."
			],
			"mathematica": [
				"Table[MoebiusMu[n] n^4, {n, 46}]"
			],
			"xref": [
				"Cf. A000583, A008683, A053826, A055615, A189922, A334657, A334659."
			],
			"keyword": "sign,mult",
			"offset": "1,2",
			"author": "_Ilya Gutkovskiy_, May 07 2020",
			"references": 3,
			"revision": 4,
			"time": "2020-05-07T22:32:28-04:00",
			"created": "2020-05-07T22:32:28-04:00"
		}
	]
}