{
	"greeting": "Greetings from The On-Line Encyclopedia of Integer Sequences! http://oeis.org/",
	"query": "id:A335715",
	"count": 1,
	"start": 0,
	"results": [
		{
			"number": 335715,
			"data": "6,210,546,915,1785,7230,13395,16206,17490,20930,76245,104006,228486,508530,563766",
			"name": "Squarefree numbers m such that the equation x*(x+1)*(x+2) = m*y^2 has more than one solution (x,y) with x\u003e0 and y\u003e0.",
			"comment": [
				"7453355, 9147666, 19073886, 61622814, 648402306, 22023958326, 748181603526 are also terms. - _Jinyuan Wang_, Jul 28 2020"
			],
			"link": [
				"Michael A. Bennett, \u003ca href=\"http://dx.doi.org/10.4064/aa105-4-3\"\u003eLucas' square pyramid problem revisited\u003c/a\u003e, Acta Arithmetica 105 (2002), 341-347.",
				"Michel Marcus and Jinyuan Wang, \u003ca href=\"/A335715/a335715.txt\"\u003ePARI program\u003c/a\u003e"
			],
			"example": [
				"6 is a term since x*(x+1)*(x+2) = 6*y^2 has 3 positive integer solutions : (1,1), (2,2) and (48,140) that give (1,1) and (24,70) for s*(s+1)*(2s+1) = 6*t^2 with a (x=2s, y=2t) variable change (see A000330 where A000330(n) = n*(n+1)*(2*n+1)/6)."
			],
			"xref": [
				"Cf. A000330 (square pyramidal numbers), A005117 (squarefree numbers).",
				"Cf. A335785 (at least one solution), A336145."
			],
			"keyword": "nonn,more",
			"offset": "1,1",
			"author": "_Michel Marcus_, Jun 18 2020",
			"ext": [
				"a(12) from _Michel Marcus_, Jun 24 2020",
				"a(13)-a(15) from _Jinyuan Wang_, Jul 28 2020"
			],
			"references": 3,
			"revision": 28,
			"time": "2020-07-29T03:25:54-04:00",
			"created": "2020-06-19T04:02:43-04:00"
		}
	]
}