{
	"greeting": "Greetings from The On-Line Encyclopedia of Integer Sequences! http://oeis.org/",
	"query": "id:A335290",
	"count": 1,
	"start": 0,
	"results": [
		{
			"number": 335290,
			"data": "6,28,350,490,496,770,910,1190,1330,1610,2030,2170,2590,2870,3010,3290,3710,4130,4270,4690,4970,5110,5530,5810,6230,6790,7070,7210,7490,7630,7910,8128,8890,9170,9196,9590,9730,15884,19228,24244,25916,30932,34276,35948",
			"name": "Primitive pseudoperfect numbers (A006036) that are not primitive abundant (A071395).",
			"comment": [
				"Includes all the perfect numbers (A000396). The nonperfect terms have an abundant proper divisor which is not pseudoperfect, i.e., a proper divisor which is a weird number (A006037).",
				"The first term with one weird divisor is a(3) = 350, having the weird divisor 70.",
				"The first term with 2 weird divisors is a(202) = 658312, having the 2 weird divisors 9272 and 10792.",
				"The first term with 3 weird divisors is a(353) = 1574930, having the 3 weird divisors 70, 10430 and 10570."
			],
			"link": [
				"Amiram Eldar, \u003ca href=\"/A335290/b335290.txt\"\u003eTable of n, a(n) for n = 1..2500\u003c/a\u003e"
			],
			"example": [
				"350 is a term since it is pseudoperfect: 1 + 5 + 14 + 35 + 50 + 70 + 175 = 350. All of its proper divisors, {1, 2, 5, 7, 10, 14, 25, 35, 50, 70, 175} are not pseudoperfect, and it is not primitive abundant, since its divisor 70 is abundant."
			],
			"mathematica": [
				"pspQ[n_] := Module[{d = Most @ Divisors[n], x}, Plus @@d \u003e= n \u0026\u0026 SeriesCoefficient[Series[Product[1 + x^d[[i]], {i, Length[d]}], {x, 0, n}], n] \u003e 0]; primPspQ[n_] := pspQ[n] \u0026\u0026 AllTrue[Most @ Divisors[n], !pspQ[#] \u0026]; primAbQ[n_] := DivisorSigma[1, n] \u003e 2*n \u0026\u0026 AllTrue[Most @ Divisors[n], DivisorSigma[1, #] \u003c 2*# \u0026]; Select[Range[1000], primPspQ[#] \u0026\u0026 !primAbQ[#] \u0026]"
			],
			"xref": [
				"Cf. A000396, A006036, A006037, A071395, A306987."
			],
			"keyword": "nonn",
			"offset": "1,1",
			"author": "_Amiram Eldar_, May 30 2020",
			"references": 1,
			"revision": 9,
			"time": "2020-05-31T02:12:28-04:00",
			"created": "2020-05-30T19:13:32-04:00"
		}
	]
}