{
	"greeting": "Greetings from The On-Line Encyclopedia of Integer Sequences! http://oeis.org/",
	"query": "id:A335928",
	"count": 1,
	"start": 0,
	"results": [
		{
			"number": 335928,
			"data": "1,0,5,8,0,9,5,5,0,1,3,9,2,5,6,3,0,5,7,7,2,7,8,8,9,3,9,1,9,3,5,9,4,6,8,8,7,7,4,8,4,9,0,4,9,9,7,7,9,6,9,1,9,3,0,5,6,0,6,4,4,6,2,4,4,1,1,6,8,2,6,3,6,1,2,3,6,9,4,7,9,4,8,0,8,2",
			"name": "Decimal expansion of the arclength on y = sin(x) from (0,0) to (Pi/4,sqrt(2)).",
			"example": [
				"arclength = 1.05809550139256305772788939193594688774..."
			],
			"mathematica": [
				"r = NIntegrate[Sqrt[1 + Cos[t]^2], {t, 0, Pi/4}, WorkingPrecision -\u003e 200]",
				"RealDigits[r][[1]]"
			],
			"xref": [
				"Cf. A335929, A335930, A335931."
			],
			"keyword": "nonn,cons",
			"offset": "1,3",
			"author": "_Clark Kimberling_, Jul 01 2020",
			"references": 6,
			"revision": 5,
			"time": "2020-07-01T22:31:37-04:00",
			"created": "2020-07-01T22:31:37-04:00"
		}
	]
}