{
	"greeting": "Greetings from The On-Line Encyclopedia of Integer Sequences! http://oeis.org/",
	"query": "id:A335776",
	"count": 1,
	"start": 0,
	"results": [
		{
			"number": 335776,
			"data": "0,0,4,42,436,5650,96544,2185610,65108236",
			"name": "Number of idempotent non-symmetric n X n (0,1)-matrices over the reals.",
			"comment": [
				"Off diagonal entries of an idempotent symmetric n X n (0,1)-matrix must be zero."
			],
			"formula": [
				"a(n) = A086922(n) - A000079(n)."
			],
			"example": [
				"a(2) = 4 because [1,1]  [0,1]  [0,0]  [1,0]",
				"                 [0,0], [0,1], [1,1], [1,0], are non-symmetric and idemponent."
			],
			"xref": [
				"Cf. A000079, A086922."
			],
			"keyword": "nonn,more",
			"offset": "0,3",
			"author": "_Torlach Rush_, Jun 22 2020",
			"references": 0,
			"revision": 16,
			"time": "2020-08-17T13:34:53-04:00",
			"created": "2020-08-17T13:34:53-04:00"
		}
	]
}