{
	"greeting": "Greetings from The On-Line Encyclopedia of Integer Sequences! http://oeis.org/",
	"query": "id:A335551",
	"count": 1,
	"start": 0,
	"results": [
		{
			"number": 335551,
			"data": "0,0,1,5,18,58,177,522,1503,4252,11869,32787,89821,244415,661415,1781654,4780776,12786704,34104792,90749209,240982564,638800052,1690764378,4469170031,11799684559,31122693066,82016622160,215969175981,568313267862,1494601936229",
			"name": "Number of words of length n over the alphabet {0,1,2} that contain the substring 12 but not the substring 01.",
			"link": [
				"\u003ca href=\"/index/Rec#order_05\"\u003eIndex entries for linear recurrences with constant coefficients\u003c/a\u003e, signature (6,-12,10,-5,1)."
			],
			"formula": [
				"a(n) = Sum_{i=1..n} A001906(n-i) * A052921(i-1).",
				"G.f.: x^2*(x-1)/((x^2-3*x+1)*(x^3-2*x^2+3*x-1)). - _Alois P. Heinz_, Sep 15 2020"
			],
			"example": [
				"a(0) = a(1) = 0, because no word of length n \u003c 2 can contain 12.",
				"a(2) = 1, because there is one word of length 2 and it is 12.",
				"a(3) = 5, because there are 5 words of length 3 and they are 121, 112, 212, 122, 120."
			],
			"xref": [
				"Cf. A001906, A052921."
			],
			"keyword": "nonn,easy",
			"offset": "0,4",
			"author": "_Mauricio J. Santos_, Sep 15 2020",
			"ext": [
				"a(20)-a(29) from _Alois P. Heinz_, Sep 15 2020"
			],
			"references": 0,
			"revision": 34,
			"time": "2020-09-16T07:44:42-04:00",
			"created": "2020-09-16T07:44:42-04:00"
		}
	]
}