{
	"greeting": "Greetings from The On-Line Encyclopedia of Integer Sequences! http://oeis.org/",
	"query": "id:A335067",
	"count": 1,
	"start": 0,
	"results": [
		{
			"number": 335067,
			"data": "1,179,239,359,719,839,1259,3359,5039,10079,25199,27719,50399,55439,110879,166319,360359,665279,831599,1081079,1441439,2162159,3603599,4324319,12972959,21621599,43243199,61261199,73513439,122522399,205405199,245044799,410810399",
			"name": "Numbers k where records occur for sigma(k+1)/sigma(k), where sigma(k) is the sum of divisors of k (A000203).",
			"comment": [
				"Shapiro (1978) proved that the closure of the set {sigma(k+1)/sigma(k) | k \u003e= 1} consists of all the nonnegative reals. In particular, sigma(k+1)/sigma(k) is unbounded and therefore this sequence is infinite.",
				"25199 is the first composite term."
			],
			"link": [
				"Roy E. DeMeo, Jr., \u003ca href=\"https://www.jstor.org/stable/2319367\"\u003eProblem 6107\u003c/a\u003e, Advanced Problems, The American Mathematical Monthly, Vol. 83, No. 7 (1976), p. 573, \u003ca href=\"https://www.jstor.org/stable/2321187\"\u003eThe Closure of sigma(n+1)/sigma(n)\u003c/a\u003e, solution by Harold N. Shapiro, ibid., Vol. 85, No. 4 (1978), pp. 287-289."
			],
			"example": [
				"The values of sigma(k+1)/sigma(k) for the first terms are 3, 3.033..., 3.1, 3.25, 3.358..., ..."
			],
			"mathematica": [
				"rm = 0; s1 = 1; seq = {}; Do[s2 = DivisorSigma[1,n]; If[(r = s2/s1) \u003e rm, rm = r; AppendTo[seq, n-1]]; s1 = s2, {n, 2, 10^5}]; seq"
			],
			"xref": [
				"Cf. A000203, A282531, A326393, A335068."
			],
			"keyword": "nonn",
			"offset": "1,2",
			"author": "_Amiram Eldar_, May 22 2020",
			"references": 1,
			"revision": 9,
			"time": "2021-01-08T22:04:55-05:00",
			"created": "2020-05-22T07:55:26-04:00"
		}
	]
}