{
	"greeting": "Greetings from The On-Line Encyclopedia of Integer Sequences! http://oeis.org/",
	"query": "id:A335915",
	"count": 1,
	"start": 0,
	"results": [
		{
			"number": 335915,
			"data": "1,1,1,1,3,1,3,1,1,3,15,1,21,3,3,1,9,1,45,3,3,15,33,1,9,21,1,3,105,3,15,1,15,9,9,1,171,45,21,3,105,3,231,15,3,33,69,1,9,9,9,21,351,1,45,3,45,105,435,3,465,15,3,1,63,15,561,9,33,9,315,1,333,171,9,45,45,21,195,3,1,105,861,3,27,231,105,15,495,3,63,33,15,69",
			"name": "Fully multiplicative with a(2) = 1, and a(p) = A000265(p-1)*A000265(p+1) = A000265(p^2 - 1), for odd primes p.",
			"comment": [
				"For all i, j: A324400(i) = A324400(j) =\u003e a(i) = a(j) =\u003e A336118(i) = A336118(j)."
			],
			"link": [
				"Antti Karttunen, \u003ca href=\"/A335915/b335915.txt\"\u003eTable of n, a(n) for n = 1..8192\u003c/a\u003e",
				"Antti Karttunen, \u003ca href=\"/A335915/a335915.txt\"\u003eData supplement: n, a(n) computed for n = 1..65537\u003c/a\u003e"
			],
			"formula": [
				"Completely multiplicative with a(2) = 1, and for odd primes p, a(p) = A000265(p-1)*A000265(p+1).",
				"For all n \u003e= 1, A335904(a(n)) = A336118(n).",
				"For all n \u003e= 0, a(2^n) = a(3^n) = 1, a(5^n) = a(7^n) = 3^n.",
				"a(n) = A336466(n) * A336467(n). - _Antti Karttunen_, Jan 31 2021"
			],
			"program": [
				"(PARI)",
				"A000265(n) = (n\u003e\u003evaluation(n,2));",
				"A335915(n) = { my(f=factor(n)); prod(k=1,#f~,if(2==f[k,1],1,(A000265(f[k,1]-1)*A000265(f[k,1]+1))^f[k,2])); };"
			],
			"xref": [
				"Cf. A000265.",
				"Cf. also A167344, A324400, A335904, A336118, A336455, A336456, A336466, A336467."
			],
			"keyword": "nonn,mult,look",
			"offset": "1,5",
			"author": "_Antti Karttunen_, Jul 09 2020",
			"references": 21,
			"revision": 17,
			"time": "2021-01-31T08:11:50-05:00",
			"created": "2020-07-09T22:39:24-04:00"
		}
	]
}