{
	"greeting": "Greetings from The On-Line Encyclopedia of Integer Sequences! http://oeis.org/",
	"query": "id:A335560",
	"count": 1,
	"start": 0,
	"results": [
		{
			"number": 335560,
			"data": "1,16,131,335,851,2207,5891,16175,45491,130367,378851,1112015,3286931,9762527,29091011,86879855,259853171,777986687,2330814371,6986151695,20945872211,62812450847,188387020931,565060399535,1694979872051,5084536963007,15252805582691",
			"name": "Number of ways to tile an n X n square with 1 X 1 squares and (n-1) X 1 vertical or horizontal strips.",
			"link": [
				"Colin Barker, \u003ca href=\"/A335560/b335560.txt\"\u003eTable of n, a(n) for n = 1..1000\u003c/a\u003e",
				"\u003ca href=\"/index/Rec#order_03\"\u003eIndex entries for linear recurrences with constant coefficients\u003c/a\u003e, signature (6,-11,6)."
			],
			"formula": [
				"a(n) = 2*3^n + 12*2^n - 19, for n \u003e= 3.",
				"From _Colin Barker_, Jun 14 2020: (Start)",
				"G.f.: x*(1 + 10*x + 46*x^2 - 281*x^3 + 186*x^4) / ((1 - x)*(1 - 2*x)*(1 - 3*x)).",
				"a(n) = 6*a(n-1) - 11*a(n-2) + 6*a(n-3) for n\u003e5.",
				"(End)"
			],
			"example": [
				"Here is one of the 131 ways to tile a 3 X 3 square, in this case using two horizontal and two vertical strips:",
				"   _ _ _",
				"  |_ _| |",
				"  | |_|_|",
				"  |_|_ _|"
			],
			"mathematica": [
				"Join[{1, 16}, LinearRecurrence[{6, -11, 6}, {131, 335, 851}, 25]] (* _Amiram Eldar_, Jun 16 2020 *)"
			],
			"program": [
				"(PARI) Vec(x*(1 + 10*x + 46*x^2 - 281*x^3 + 186*x^4) / ((1 - x)*(1 - 2*x)*(1 - 3*x)) + O(x^30)) \\\\ _Colin Barker_, Jun 14 2020"
			],
			"xref": [
				"Cf. A063443 and A211348 (tiling an n X n square with smaller squares).",
				"Cf. A028420 (tiling an n X n square with monomers and dimers)."
			],
			"keyword": "nonn,easy",
			"offset": "1,2",
			"author": "_Oluwatobi Jemima Alabi_, Jun 14 2020",
			"references": 2,
			"revision": 32,
			"time": "2020-06-22T07:00:07-04:00",
			"created": "2020-06-18T10:10:49-04:00"
		}
	]
}