{
	"greeting": "Greetings from The On-Line Encyclopedia of Integer Sequences! http://oeis.org/",
	"query": "id:A335803",
	"count": 1,
	"start": 0,
	"results": [
		{
			"number": 335803,
			"data": "0,0,0,0,0,0,0,1,10,30,120,0,0,0,0,0,0,0,0,0,0,0,0,0,0,0,1,50,150,240,60,20,0,0,0,0,0,0,0,0,0,0,0,0,0,1,250,140,40,10,300,510,130,30,0,10,0,0,0,0,0,0,0,0,0,0,0,1,120,90,10",
			"name": "Irregular table read by rows: n-sect the angles of a decagon. Then T(n,k) = number of k-sided polygons in that figure for k \u003e= 3.",
			"example": [
				"The table begins",
				"0, 0, 0, 0, 0, 0, 0, 1;",
				"10;",
				"30, 120, 0, 0, 0, 0, 0, 0, 0, 0, 0, 0, 0, 0, 0, 0, 0, 1;",
				"50;",
				"150, 240, 60, 20, 0, 0, 0, 0, 0, 0, 0, 0, 0, 0, 0, 0, 0, 1;",
				"250, 140, 40, 10;",
				"300, 510, 130, 30, 0, 10, 0, 0, 0, 0, 0, 0, 0, 0, 0, 0, 0, 1;"
			],
			"xref": [
				"Cf. A332417 (n-sected sides, not angles), A335800 (regions), A335801 (vertices), A335802 (edges)."
			],
			"keyword": "nonn,tabf",
			"offset": "1,9",
			"author": "_Lars Blomberg_, Jun 25 2020",
			"references": 3,
			"revision": 5,
			"time": "2020-06-25T06:26:56-04:00",
			"created": "2020-06-25T06:26:56-04:00"
		}
	]
}