{
	"greeting": "Greetings from The On-Line Encyclopedia of Integer Sequences! http://oeis.org/",
	"query": "id:A335688",
	"count": 1,
	"start": 0,
	"results": [
		{
			"number": 335688,
			"data": "1,1,2,1,3,2,6,5,126,115,297108,1370225,200590993732752,531984953824739375,27113273919595441588692453206842987776,56653874513318656544104537473266204894369805859375",
			"name": "Numerator of b(n), where b(1)=b(2)=1, and for n\u003e2, b(n) = (1+b(n-2))/b(n-1).",
			"comment": [
				"With a tiny change in subscripts {b(n)} becomes the Lyness 5-cycle, a sequence of period 5, as illustrated in A076839."
			],
			"example": [
				"1, 1, 2, 1, 3, 2/3, 6, 5/18, 126/5, 115/2268, 297108/575, 1370225/673840944, 200590993732752/787879375, ..."
			],
			"xref": [
				"Cf. A076839, A335689."
			],
			"keyword": "nonn,frac",
			"offset": "1,3",
			"author": "_N. J. A. Sloane_, Jul 17 2020",
			"references": 2,
			"revision": 20,
			"time": "2020-07-18T18:25:13-04:00",
			"created": "2020-07-17T23:41:41-04:00"
		}
	]
}