{
	"greeting": "Greetings from The On-Line Encyclopedia of Integer Sequences! http://oeis.org/",
	"query": "id:A335748",
	"count": 1,
	"start": 0,
	"results": [
		{
			"number": 335748,
			"data": "1,0,1,0,-1,4,0,1,-12,30,0,-1,28,-180,336,0,1,-60,750,-3360,5040,0,-1,124,-2700,21840,-75600,95040,0,1,-252,9030,-117600,705600,-1995840,2162160,0,-1,508,-28980,571536,-5292000,25280640,-60540480,57657600",
			"name": "T(n,k) = (-1)^n*(binomial(2*k,k)/(k+1))*Sum_{j=0..n} (-1)^j*binomial(k,j)*j^n. Triangle read by rows, T(n, k) for n \u003e= 0 and 0 \u003c= k \u003c= n.",
			"formula": [
				"T(n, k) = (-1)^n*CatalanNumber(k)*Sum_{j=0..n}(-1)^j*binomial(k, j)*j^n."
			],
			"example": [
				"                             [0] 1",
				"                           [1] 0, 1",
				"                         [2] 0, -1, 4",
				"                       [3] 0, 1, -12, 30",
				"                   [4] 0, -1, 28, -180, 336",
				"                [5] 0, 1, -60, 750, -3360, 5040",
				"          [6] 0, -1, 124, -2700, 21840, -75600, 95040",
				"   [7] 0, 1, -252, 9030, -117600, 705600, -1995840, 2162160",
				"[8] 0, -1, 508, -28980, 571536, -5292000, 25280640, -60540480, 57657600"
			],
			"xref": [
				"Cf. A006531 (row sums), A052895 (absolute row sums), T(n,n) = A001761(n) (signed A292220(n))."
			],
			"keyword": "sign,tabl",
			"offset": "0,6",
			"author": "_Peter Luschny_, Jul 09 2020",
			"references": 0,
			"revision": 9,
			"time": "2020-07-09T16:11:46-04:00",
			"created": "2020-07-09T16:11:46-04:00"
		}
	]
}