{
	"greeting": "Greetings from The On-Line Encyclopedia of Integer Sequences! http://oeis.org/",
	"query": "id:A335997",
	"count": 1,
	"start": 0,
	"results": [
		{
			"number": 335997,
			"data": "1,1,1,1,2,2,1,6,12,12,1,24,144,288,288,1,120,2880,17280,34560,34560,1,720,86400,2073600,12441600,24883200,24883200,1,5040,3628800,435456000,10450944000,62705664000,125411328000,125411328000",
			"name": "Triangle read by rows: T(n,k) = Product_{i=n-k+1..n} i! for 0 \u003c= k \u003c= n.",
			"comment": [
				"Based on some integer sequence a(n), n\u003e0, define triangular arrays A(a;n,k) by recurrence: A(a;0,0) = 1, and A(a;i,j) = 0 if j\u003c0 or j\u003ei, and A(a;n,k) = n! / (n-k)! * A(a;n-1,k) + a(n) * A(a;n-1,k-1) for 0\u003c=k\u003c=n. Then, Product_{i=1..n} (1 + (a(i) / i!) * x) = Sum_{k=0..n} A(a;n,k) / T(n,k) * x^k for n\u003e=0 with empty product 1 (case n=0)."
			],
			"formula": [
				"T(n,k) = T(n,1) * T(n-1,k-1) for 0 \u003c k \u003c= n.",
				"T(2*n,n) = A093002(n+1) for n \u003e= 0.",
				"T(n,k)/T(k,k) = A009963(n,k) for 0 \u003c= k \u003c= n.",
				"(Sum_{k=0..n} T(n,k) * T(n,n-k))/T(n,n) = A193520(n) for n \u003e= 0."
			],
			"example": [
				"The triangle starts:",
				"n\\k :  0     1      2        3         4         5         6",
				"============================================================",
				"  0 :  1",
				"  1 :  1     1",
				"  2 :  1     2      2",
				"  3 :  1     6     12       12",
				"  4 :  1    24    144      288       288",
				"  5 :  1   120   2880    17280     34560     34560",
				"  6 :  1   720  86400  2073600  12441600  24883200  24883200",
				"  etc."
			],
			"mathematica": [
				"T[n_, k_] := Product[i!, {i, n - k + 1, n}]; Table[T[n, k], {n, 0, 7}, {k, 0, n}] // Flatten (* _Amiram Eldar_, Jul 08 2020 *)"
			],
			"xref": [
				"Cf. A000012 (col_0), A000142 (col_1), A010790 (col_2), A176037 (col_3), A000178 (main diagonal and first subdiagonal).",
				"Row sums equal A051399(n+1).",
				"Cf. A009963, A093002, A193520."
			],
			"keyword": "nonn,easy,tabl",
			"offset": "0,5",
			"author": "_Werner Schulte_, Jul 08 2020",
			"references": 0,
			"revision": 26,
			"time": "2020-08-30T02:33:27-04:00",
			"created": "2020-08-30T02:33:27-04:00"
		}
	]
}