{
	"greeting": "Greetings from The On-Line Encyclopedia of Integer Sequences! http://oeis.org/",
	"query": "id:A335976",
	"count": 1,
	"start": 0,
	"results": [
		{
			"number": 335976,
			"data": "0,11,13,17,29,31,41,43,47,53,61,71,73,79,81,83,89,97,101,103",
			"name": "Numbers k such that Fibonacci(6*k) is not a totient.",
			"comment": [
				"Conjecture: Sequence contains infinitely many primes."
			],
			"example": [
				"11 is a term since Fibonacci(66) = 27777890035288 is not a totient number."
			],
			"program": [
				"(PARI) isok(n) = !istotient(fibonacci(6*n))"
			],
			"xref": [
				"Cf. A000010, A007617, A134492, A280592, A280681."
			],
			"keyword": "nonn,more",
			"offset": "1,2",
			"author": "_Altug Alkan_, Jul 03 2020",
			"ext": [
				"a(12)-a(20) from _Max Alekseyev_, Aug 02 2020"
			],
			"references": 1,
			"revision": 23,
			"time": "2020-08-02T16:32:59-04:00",
			"created": "2020-07-05T03:36:45-04:00"
		}
	]
}