{
	"greeting": "Greetings from The On-Line Encyclopedia of Integer Sequences! http://oeis.org/",
	"query": "id:A335422",
	"count": 1,
	"start": 0,
	"results": [
		{
			"number": 335422,
			"data": "2,3,5,4,7,10,9,6,11,36,21,50,25,16,15,8,13,154,225,486,55,84,147,98,49,90,81,28,35,30,27,12,17,2500,429,8918,1225,1080,9375,840,91,2662,495,3750,605,220,363,1250,121,88,525,240,625,490,99,126,77,64,105,72,125,22,45,18,19,26950,21609,43350,1105,186340,67881",
			"name": "a(n) = A005940(1+A163511(n)).",
			"comment": [
				"Permutation of natural numbers larger than one."
			],
			"link": [
				"Antti Karttunen, \u003ca href=\"/A335422/b335422.txt\"\u003eTable of n, a(n) for n = 0..16384\u003c/a\u003e",
				"\u003ca href=\"/index/Bi#binary\"\u003eIndex entries for sequences related to binary expansion of n\u003c/a\u003e"
			],
			"formula": [
				"a(n) = A005940(1+A163511(n)).",
				"For all n \u003e= 0, a(2^n) = A000040(2+n).",
				"A001222(a(n)) = A335420(n)."
			],
			"program": [
				"(PARI)",
				"A005940(n) = { my(p=2, t=1); n--; until(!n\\=2, if((n%2), (t*=p), p=nextprime(p+1))); t }; \\\\ From A005940",
				"A054429(n) = ((3\u003c\u003c#binary(n\\2))-n-1); \\\\ From A054429",
				"A163511(n) = if(!n,1,A005940(1+A054429(n)))",
				"A335422(n) = A005940(1+A163511(n));"
			],
			"xref": [
				"Cf. A001222, A005940, A054429, A163511, A335420, A335421."
			],
			"keyword": "nonn",
			"offset": "0,1",
			"author": "_Antti Karttunen_, Jun 09 2020",
			"references": 3,
			"revision": 7,
			"time": "2020-06-09T22:12:41-04:00",
			"created": "2020-06-09T22:12:41-04:00"
		}
	]
}