{
	"greeting": "Greetings from The On-Line Encyclopedia of Integer Sequences! http://oeis.org/",
	"query": "id:A335270",
	"count": 1,
	"start": 0,
	"results": [
		{
			"number": 335270,
			"data": "228,1645,7725,88473,20295895122,22550994580",
			"name": "Numbers that are not powers of primes (A024619) whose harmonic mean of their proper unitary divisors is an integer.",
			"comment": [
				"Since 1 is the only proper unitary divisor of powers of prime (A000961), they are trivial terms and hence they are excluded from this sequence.",
				"The corresponding harmonic means are 4, 5, 5, 9.",
				"Equivalently, numbers m such that omega(m) \u003e 1 and (usigma(m)-1) | m*(2^omega(m)-1), where usigma is the sum of unitary divisors (A034448), and 2^omega(m) - 1 = A034444(m) - 1 = A309307(m) is the number of the proper unitary divisors of m.",
				"The squarefree terms of A247077 are also terms of this sequence.",
				"a(7) \u003e 10^12, if it exists. - _Giovanni Resta_, May 30 2020",
				"Conjecture: all terms are of the form n*(usigma(n)-1) where usigma(n)-1 is prime. - _Chai Wah Wu_, Dec 17 2020"
			],
			"example": [
				"228 is a term since the harmonic mean of its proper unitary divisors, {1, 3, 4, 12, 19, 57, 76} is 4 which is an integer."
			],
			"mathematica": [
				"usigma[1] = 1; usigma[n_] := Times @@ (1 + Power @@@ FactorInteger[n]); Select[Range[10^5], (omega = PrimeNu[#]) \u003e 1 \u0026\u0026 Divisible[# * (2^omega-1), usigma[#] - 1] \u0026]"
			],
			"xref": [
				"The unitary version of A247077.",
				"Cf. A006086, A000961, A024619, A034444, A034448, A077610, A309307, A335268, A335269."
			],
			"keyword": "nonn,hard,more",
			"offset": "1,1",
			"author": "_Amiram Eldar_, May 29 2020",
			"ext": [
				"a(5)-a(6) from _Giovanni Resta_, May 30 2020"
			],
			"references": 2,
			"revision": 14,
			"time": "2020-12-18T02:32:59-05:00",
			"created": "2020-05-29T20:42:09-04:00"
		}
	]
}