{
	"greeting": "Greetings from The On-Line Encyclopedia of Integer Sequences! http://oeis.org/",
	"query": "id:A335386",
	"count": 1,
	"start": 0,
	"results": [
		{
			"number": 335386,
			"data": "1,2,6,24,120,840,7560,83160,1081080,18378360,349188840,8031343320,200783583000,5822723907000,180504441117000,6678664321329000,273825237174489000,11774485198503027000,553400804329642269000,27116639412152471181000,1437181888844080972593000",
			"name": "Tri-unitary highly composite numbers: where the number of tri-unitary divisors (A335385) increases to a record.",
			"link": [
				"Amiram Eldar, \u003ca href=\"/A335386/b335386.txt\"\u003eTable of n, a(n) for n = 1..32\u003c/a\u003e"
			],
			"formula": [
				"A335385(a(n)) = 2^(n-1)."
			],
			"mathematica": [
				"f[p_, e_] := If[e == 3 || e == 6, 4, 2]; d[1] = 1; d[n_] := Times @@ (f @@@ FactorInteger[n]); dm = 0; s = {}; Do[If[(d1 = d[n]) \u003e dm, dm = d1; AppendTo[s, n]], {n, 1, 1100000}]; s"
			],
			"xref": [
				"Analogous sequences: A002182 (highly composite), A002110 (unitary), A037992 (infinitary), A293185 (bi-unitary), A318278 (exponential), A306736 (exponential infinitary), A307845 (exponential unitary), A309141 (nonunitary), A322484 (semi-unitary).",
				"Cf. A335385."
			],
			"keyword": "nonn",
			"offset": "1,2",
			"author": "_Amiram Eldar_, Jun 04 2020",
			"references": 3,
			"revision": 7,
			"time": "2020-06-06T03:18:50-04:00",
			"created": "2020-06-05T09:58:15-04:00"
		}
	]
}