{
	"greeting": "Greetings from The On-Line Encyclopedia of Integer Sequences! http://oeis.org/",
	"query": "id:A335766",
	"count": 1,
	"start": 0,
	"results": [
		{
			"number": 335766,
			"data": "1,1,2,2,3,3,4,5,6,7,9,10,12,14,18,20,24,27,31,35,41,47,54,61,70,78,90,101,116,129,146,162,182,203,228,254,284,314,351,388,433,478,531,584,646,711,785,863,952,1044,1149,1258,1384,1513,1660,1812,1983,2163",
			"name": "a(n) is the number of partitions of n into parts congruent to 1, 2, or 4 modulo 6 where only parts congruent to 1 modulo 6 may be repeated.",
			"link": [
				"Alois P. Heinz, \u003ca href=\"/A335766/b335766.txt\"\u003eTable of n, a(n) for n = 0..10000\u003c/a\u003e",
				"J. Lovejoy, \u003ca href=\"https://doi.org/10.1007/978-3-319-68376-8_26\"\u003eAsymmetric generalizations of Schur's theorem\u003c/a\u003e, in: Andrews G., Garvan F. (eds) Analytic Number Theory, Modular Forms and q-Hypergeometric Series. ALLADI60 2016. Springer Proceedings in Mathematics \u0026 Statistics, vol 221. Springer, Cham."
			],
			"formula": [
				"G.f.: Product_{k\u003e=1} (1+q^(6*k-2))*(1+q^(6*k-4))/(1-q^(6*k-5)).",
				"a(n) ~ Gamma(1/6) * exp(sqrt(2*n)*Pi/3) / (2^(23/12) * sqrt(3) * Pi^(5/6) * n^(7/12)). - _Vaclav Kotesovec_, Jan 14 2021"
			],
			"example": [
				"a(8) = 6, the relevant partitions being [8], [7,1], [4,2,1,1], [4,1,1,1,1],[2,1,1,1,1,1,1], [1,1,1,1,1,1,1,1]."
			],
			"maple": [
				"b:= proc(n, i) option remember; `if`(n=0, 1, `if`(i\u003c1, 0, add(",
				"      b(n-i*j, i-1), j=0..min(n/i, [0, n, 1, 0, 1, 0][irem(i, 6)+1]))))",
				"    end:",
				"a:= n-\u003e b(n$2):",
				"seq(a(n), n=0..60);  # _Alois P. Heinz_, Jun 21 2020"
			],
			"mathematica": [
				"b[n_, i_] := b[n, i] = If[n == 0, 1, If[i \u003c 1, 0, Sum[b[n - i j, i - 1], {j, 0, Min[n/i, {0, n, 1, 0, 1, 0}[[Mod[i, 6] + 1]]]}]]];",
				"a[n_] := b[n, n];",
				"a /@ Range[0, 60] (* _Jean-François Alcover_, Dec 01 2020, after _Alois P. Heinz_ *)",
				"nmax = 60; CoefficientList[Series[Product[(1 + x^(6*k-2)) * (1 + x^(6*k-4)) / (1 - x^(6*k-5)), {k, 1, nmax/6}], {x, 0, nmax}], x] (* _Vaclav Kotesovec_, Jan 14 2021 *)"
			],
			"xref": [
				"Cf. A253144."
			],
			"keyword": "nonn",
			"offset": "0,3",
			"author": "_Jeremy Lovejoy_, Jun 21 2020",
			"references": 1,
			"revision": 20,
			"time": "2021-01-14T11:54:06-05:00",
			"created": "2020-06-21T17:51:17-04:00"
		}
	]
}