{
	"greeting": "Greetings from The On-Line Encyclopedia of Integer Sequences! http://oeis.org/",
	"query": "id:A335485",
	"count": 1,
	"start": 0,
	"results": [
		{
			"number": 335485,
			"data": "6,12,13,14,20,22,24,25,26,27,28,29,30,38,40,41,44,45,46,48,49,50,51,52,53,54,55,56,57,58,59,60,61,62,70,72,76,77,78,80,81,82,83,84,86,88,89,90,91,92,93,94,96,97,98,99,100,101,102,103,104,105,106",
			"name": "Numbers k such that the k-th composition in standard order (A066099) is not weakly decreasing.",
			"comment": [
				"Also compositions matching the pattern (1,2).",
				"A composition of n is a finite sequence of positive integers summing to n. The k-th composition in standard order (graded reverse-lexicographic, A066099) is obtained by taking the set of positions of 1's in the reversed binary expansion of k, prepending 0, taking first differences, and reversing again. This gives a bijective correspondence between nonnegative integers and integer compositions."
			],
			"link": [
				"Wikipedia, \u003ca href=\"https://en.wikipedia.org/wiki/Permutation_pattern\"\u003ePermutation pattern\u003c/a\u003e",
				"Gus Wiseman, \u003ca href=\"https://oeis.org/A102726/a102726.txt\"\u003eSequences counting and ranking compositions by the patterns they match or avoid.\u003c/a\u003e",
				"Gus Wiseman, \u003ca href=\"https://docs.google.com/document/d/e/2PACX-1vTCPiJVFUXN8IqfLlCXkgP15yrGWeRhFS4ozST5oA4Bl2PYS-XTA3sGsAEXvwW-B0ealpD8qnoxFqN3/pub\"\u003eStatistics, classes, and transformations of standard compositions\u003c/a\u003e"
			],
			"example": [
				"The sequence of terms together with the corresponding compositions begins:",
				"   6: (1,2)",
				"  12: (1,3)",
				"  13: (1,2,1)",
				"  14: (1,1,2)",
				"  20: (2,3)",
				"  22: (2,1,2)",
				"  24: (1,4)",
				"  25: (1,3,1)",
				"  26: (1,2,2)",
				"  27: (1,2,1,1)",
				"  28: (1,1,3)",
				"  29: (1,1,2,1)",
				"  30: (1,1,1,2)",
				"  38: (3,1,2)",
				"  40: (2,4)"
			],
			"mathematica": [
				"stc[n_]:=Reverse[Differences[Prepend[Join@@Position[Reverse[IntegerDigits[n,2]],1],0]]];",
				"Select[Range[0,100],MatchQ[stc[#],{___,x_,___,y_,___}/;x\u003cy]\u0026]"
			],
			"xref": [
				"The complement A114994 is the avoiding version.",
				"The (2,1)-matching version is A335486.",
				"Patterns matching this pattern are counted by A002051 (by length).",
				"Permutations of prime indices matching this pattern are counted by A335447.",
				"These compositions are counted by A056823 (by sum).",
				"Constant patterns are counted by A000005 and ranked by A272919.",
				"Permutations are counted by A000142 and ranked by A333218.",
				"Patterns are counted by A000670 and ranked by A333217.",
				"Non-unimodal compositions are counted by A115981 and ranked by A335373.",
				"Combinatory separations are counted by A269134.",
				"Patterns matched by standard compositions are counted by A335454.",
				"Minimal patterns avoided by a standard composition are counted by A335465.",
				"Cf. A034691, A056986, A108917, A114994, A238279, A333224, A333257, A335456, A335458."
			],
			"keyword": "nonn",
			"offset": "1,1",
			"author": "_Gus Wiseman_, Jun 18 2020",
			"references": 4,
			"revision": 9,
			"time": "2020-06-30T01:55:13-04:00",
			"created": "2020-06-18T07:38:20-04:00"
		}
	]
}