{
	"greeting": "Greetings from The On-Line Encyclopedia of Integer Sequences! http://oeis.org/",
	"query": "id:A336284",
	"count": 1,
	"start": 0,
	"results": [
		{
			"number": 336284,
			"data": "1,0,5,4,1,7,0,5,1,1,5,2,2,8,9,7,1,5,9,1,2,6,9,7,1,5,3,3,6,0,6,3,0,9,2,9,4,7,4,7,1,7,4,8,9,9,6,5,8,8,3,0,6,5,0,3,6,9,4,9,0,6,6,6,9,0,8,6,3,4,7,2,6,3,5,4,3,0,5,7,7,0,2,9,3,5,9,9,7",
			"name": "Decimal expansion of Sum_{n\u003e=2} n^(log(n))/log(n)^n.",
			"comment": [
				"This series is convergent because there exists n_1 such that for n \u003e= n_1, n^(log(n))/(log(n)^n \u003c= (1/sqrt(e))^n."
			],
			"formula": [
				"Equals Sum_{n\u003e=2} n^(log(n))/log(n)^n."
			],
			"example": [
				"10.5417051152289715912697153360630929474717489965883..."
			],
			"maple": [
				"evalf(sum(n^(log(n))/log(n)^n, n=2..infinity),100);"
			],
			"program": [
				"(PARI) suminf(n=2, n^(log(n))/log(n)^n) \\\\ _Michel Marcus_, Jul 17 2020"
			],
			"xref": [
				"Cf. A073009 (1/n^n), A099870 (1/n^log(n)), A099871 (1/log(n)^n), A308915 (1/(log(n)^log(n)).",
				"Cf. A092605 (1/sqrt(e))."
			],
			"keyword": "nonn,cons",
			"offset": "2,3",
			"author": "_Bernard Schott_, Jul 17 2020",
			"references": 2,
			"revision": 23,
			"time": "2020-07-20T11:52:48-04:00",
			"created": "2020-07-20T11:52:48-04:00"
		}
	]
}