{
	"greeting": "Greetings from The On-Line Encyclopedia of Integer Sequences! http://oeis.org/",
	"query": "id:A336322",
	"count": 1,
	"start": 0,
	"results": [
		{
			"number": 336322,
			"data": "1,2,3,4,6,8,5,16,9,12,10,32,15,24,18,256,30,64,7,48,27,20,14,512,36,40,81,96,21,128,42,65536,54,60,72,1024,35,120,45,768,70,192,105,80,162,28,210,131072,25,144,90,160,11,4096,108,1536,135,56,22,2048,33,84,243,4294967296,216,384,66,240,270,288,55,262144,110,168,324,480,50",
			"name": "a(n) = A225546(A122111(n)).",
			"comment": [
				"A225546 and A122111 are both self-inverse permutations of the positive integers based on prime factorizations, and they share further common properties. For instance, they map the prime numbers to powers of 2: A225546 maps the k-th prime to 2^2^(k-1), whereas A122111 maps it to 2^k.",
				"In composing these permutations, this sequence maps the list of prime numbers to the squarefree numbers, as listed in A019565; and the \"normal\" numbers (A055932), as listed in A057335, to ascending powers of 2."
			],
			"link": [
				"\u003ca href=\"/index/Per#IntegerPermutation\"\u003eIndex entries for sequences that are permutations of the natural numbers\u003c/a\u003e"
			],
			"formula": [
				"a(A033844(m)) = A000040(m).",
				"a(A000040(m)) = A019565(m).",
				"a(A057335(m)) = 2^m.",
				"For m \u003e= 1, a(2^m) = A001146(m-1).",
				"a(A253563(m)) = A334866(m)."
			],
			"xref": [
				"Cf. A336321 (inverse permutation).",
				"Cf. A122111, A225546.",
				"Sorted even bisection: A335738.",
				"Sorted odd bisection (excluding 1): A335740."
			],
			"keyword": "nonn",
			"offset": "1,2",
			"author": "_Antti Karttunen_ and _Peter Munn_, Jul 17 2020",
			"references": 3,
			"revision": 10,
			"time": "2020-08-20T21:23:38-04:00",
			"created": "2020-08-20T21:23:38-04:00"
		}
	]
}