{
	"greeting": "Greetings from The On-Line Encyclopedia of Integer Sequences! http://oeis.org/",
	"query": "id:A336959",
	"count": 1,
	"start": 0,
	"results": [
		{
			"number": 336959,
			"data": "1,1,-2,-6,40,120,-1872,-3920,155776,56448,-19946240,44799744,3588719616,-21265587200,-850126505984,9423227873280,251457224998912,-4665150579572736,-88212028284665856,2663461772025462784,34353949630376181760,-1756678038088484388864",
			"name": "E.g.f.: 1 / (1 - x * exp(-2*x)).",
			"formula": [
				"a(n) = n! * Sum_{k=0..n} (-2 * (n-k))^k / k!.",
				"a(0) = 1; a(n) = Sum_{k=1..n} binomial(n,k) * k * (-2)^(k-1) * a(n-k)."
			],
			"mathematica": [
				"nmax = 21; CoefficientList[Series[1/(1 - x Exp[-2 x]), {x, 0, nmax}], x] Range[0, nmax]!",
				"Join[{1}, Table[n! Sum[(-2 (n - k))^k/k!, {k, 0, n}], {n, 1, 21}]]",
				"a[0] = 1; a[n_] := a[n] = Sum[Binomial[n, k] k (-2)^(k - 1) a[n - k], {k, 1, n}]; Table[a[n], {n, 0, 21}]"
			],
			"xref": [
				"Cf. A001787, A155585, A302397, A336950, A336958."
			],
			"keyword": "sign",
			"offset": "0,3",
			"author": "_Ilya Gutkovskiy_, Aug 09 2020",
			"references": 1,
			"revision": 5,
			"time": "2020-08-10T00:20:30-04:00",
			"created": "2020-08-10T00:20:30-04:00"
		}
	]
}