{
	"greeting": "Greetings from The On-Line Encyclopedia of Integer Sequences! http://oeis.org/",
	"query": "id:A336040",
	"count": 1,
	"start": 0,
	"results": [
		{
			"number": 336040,
			"data": "1,1,0,0,0,0,0,1,1,0,0,1,0,0,0,0,0,1,0,0,0,0,0,1,0,0,0,0,0,0,0,0,0,0,0,1,0,0,0,1,0,0,0,0,0,0,0,0,0,0,0,0,0,0,0,1,0,0,0,1,0,0,0,0,0,0,0,0,0,0,0,1,0,0,0,0,0,0,0,1,0,0,0,1,0,0,0,1,0,0,0,0",
			"name": "Characteristic function of refactorable numbers (A033950).",
			"link": [
				"Antti Karttunen, \u003ca href=\"/A336040/b336040.txt\"\u003eTable of n, a(n) for n = 1..65537\u003c/a\u003e",
				"Eric Weisstein's World of Mathematics, \u003ca href=\"http://mathworld.wolfram.com/RefactorableNumber.html\"\u003eRefactorable Number\u003c/a\u003e",
				"\u003ca href=\"/index/Ch#char_fns\"\u003eIndex entries for characteristic functions\u003c/a\u003e"
			],
			"formula": [
				"a(n) = 1 - ceiling(n/d(n)) + floor(n/d(n)), where d(n) is the number of divisors of n (A000005).",
				"a(n) = [A054008(n) == 0], where [ ] is the Iverson bracket. - _Antti Karttunen_, Nov 24 2021",
				"a(p) = 0 for odd primes p. - _Wesley Ivan Hurt_, Nov 28 2021"
			],
			"example": [
				"a(1) = 1 since d(1) = 1 and 1 divides 1.",
				"a(2) = 1 since d(2) = 2 and 2 divides 2.",
				"a(3) = 0 since d(3) = 2, but 2 does not divide 3."
			],
			"mathematica": [
				"a[n_] := Boole @ Divisible[n, DivisorSigma[0, n]]; Array[a, 100] (* _Amiram Eldar_, Jul 08 2020 *)"
			],
			"program": [
				"(PARI) a(n) = n%numdiv(n) == 0; \\\\ _Michel Marcus_, Jul 07 2020"
			],
			"xref": [
				"Cf. A000005, A033950, A054008, A336041 (inverse Möbius transform), A335182, A335665, A349322."
			],
			"keyword": "nonn,easy",
			"offset": "1,1",
			"author": "_Wesley Ivan Hurt_, Jul 07 2020",
			"references": 5,
			"revision": 26,
			"time": "2021-11-28T10:27:07-05:00",
			"created": "2020-07-10T09:31:40-04:00"
		}
	]
}