{
	"greeting": "Greetings from The On-Line Encyclopedia of Integer Sequences! http://oeis.org/",
	"query": "id:A336545",
	"count": 1,
	"start": 0,
	"results": [
		{
			"number": 336545,
			"data": "1,1,2,8,44,333,3771,67099,2026711,108874798,10682063400",
			"name": "Sum over all unlabeled connected graphs of order n, of the number of connected graphs obtainable by deletion of a single vertex in the graph.",
			"link": [
				"Sean A. Irvine, \u003ca href=\"/A336544/a336544.pdf\"\u003eIllustration of initial terms\u003c/a\u003e",
				"Sean A. Irvine, \u003ca href=\"https://github.com/archmageirvine/joeis/blob/master/src/irvine/oeis/a336/A336545.java\"\u003eJava program\u003c/a\u003e (github)"
			],
			"xref": [
				"Cf. A336544."
			],
			"keyword": "nonn,more",
			"offset": "1,3",
			"author": "_Sean A. Irvine_, Jul 25 2020",
			"references": 2,
			"revision": 7,
			"time": "2020-07-27T11:24:35-04:00",
			"created": "2020-07-27T11:24:35-04:00"
		}
	]
}