{
	"greeting": "Greetings from The On-Line Encyclopedia of Integer Sequences! http://oeis.org/",
	"query": "id:A336364",
	"count": 1,
	"start": 0,
	"results": [
		{
			"number": 336364,
			"data": "2,3,1,5,4,9,7,6,15,26,11,8,21,34,93,13,10,25,50,117,118,17,12,27,56,123,122,119,19,14,33,64,143,144,121,120,23,16,35,76,145,186,205,300,531,29,18,39,86,185,204,217,324,533,532,31,20,45,92,187,206",
			"name": "Rectangular array by antidiagonals: row n shows the positive integers whose distance to the nearest prime is n.",
			"comment": [
				"Row 1: the primes, A000040. Every positive integer occurs exactly once, so that as a sequence, this is a permutation of the positive integers."
			],
			"link": [
				"Sean A. Irvine, \u003ca href=\"https://github.com/archmageirvine/joeis/blob/master/src/irvine/oeis/a336/A336364.java\"\u003eJava program\u003c/a\u003e (github).",
				"\u003ca href=\"/index/Per#IntegerPermutation\"\u003eIndex entries for sequences that are permutations of the natural numbers\u003c/a\u003e"
			],
			"example": [
				"Corner:",
				"   2   3   5   7  11   13   17   19   23   29   31   37",
				"   1   4   6   8  10   12   14   16   18   20   22   24",
				"   9  15  21  24  27   33   35   39   45   49   51   55",
				"  26  34  50  56  64   76   86   92   94  116  124  134",
				"  93 117 123 143 145  185  187  203  207  215  219  245"
			],
			"mathematica": [
				"a[_?PrimeQ] = 0; a[n_] := Min[NextPrime[n] - n, n - NextPrime[n, -1]];",
				"t = Table[a[n], {n, 1, 2000}]; (* A051699 *)",
				"r[n_] := Flatten[Position[t, n]]; u[n_, k_] := r[n][[k]];",
				"TableForm[Table[u[n, k], {n, 0, 15}, {k, 1, Length[r[n]]}] (* A337364, array *)",
				"Table[u[n - k, k], {n, 0, 15}, {k, n, 1, -1}] // Flatten   (* A337364, sequence *)"
			],
			"xref": [
				"Cf. A000040, A051699, A336365."
			],
			"keyword": "nonn,tabl",
			"offset": "1,1",
			"author": "_Clark Kimberling_, Jul 19 2020",
			"references": 2,
			"revision": 14,
			"time": "2020-09-05T00:28:18-04:00",
			"created": "2020-09-04T15:43:13-04:00"
		}
	]
}