{
	"greeting": "Greetings from The On-Line Encyclopedia of Integer Sequences! http://oeis.org/",
	"query": "id:A336359",
	"count": 1,
	"start": 0,
	"results": [
		{
			"number": 336359,
			"data": "4,8,9,16,18,25,32,36,48,50,64,72,80,81,96,100,112,128,144,160,162,176,180,192,196,200,208,225,240,243,256,272,288,289,300,304,320,324,360,384,392,400,405,416,432,441,448,450,464,468,484,486,512,576,578,592,600,624,625,640,648,656,676,688,704,720,729,768",
			"name": "Numbers k for which bigomega(sigma(k)) \u003c bigomega(k), where bigomega (A001222) gives the number of prime factors with multiplicity, and sigma (A000203) gives the sum of divisors.",
			"comment": [
				"Numbers k such that A058063(k) \u003c A001222(k).",
				"If terms x and y are present and gcd(x,y) = 1, then x*y is present also. This follows because both A001222 and A058063 are additive sequences, their difference A336386 is also."
			],
			"link": [
				"Dumitru Damian, \u003ca href=\"/A336359/b336359.txt\"\u003eTable of n, a(n) for n = 1..20000\u003c/a\u003e"
			],
			"program": [
				"(PARI) isA336359(n) = (bigomega(sigma(n))\u003cbigomega(n));",
				"(SageMath) b=sloane.A001222; [n for n in range(2,10^3) if b(sigma(n))\u003cb(n)] # _Dumitru Damian_, Nov 18 2021"
			],
			"xref": [
				"Cf. A000203, A001222, A058063.",
				"Cf. A336356 (characteristic function), A336360 (complement).",
				"Positions of negative terms in A336386."
			],
			"keyword": "nonn",
			"offset": "1,1",
			"author": "_Antti Karttunen_, Jul 20 2020",
			"references": 5,
			"revision": 20,
			"time": "2021-11-19T07:39:46-05:00",
			"created": "2020-07-24T10:57:19-04:00"
		}
	]
}