{
	"greeting": "Greetings from The On-Line Encyclopedia of Integer Sequences! http://oeis.org/",
	"query": "id:A336318",
	"count": 1,
	"start": 0,
	"results": [
		{
			"number": 336318,
			"data": "1,2,1,2,1,2,1,4,3,2,1,6,1,2,2,4,1,6,1,2,2,2,1,8,5,2,6,2,1,4,1,8,2,2,2,18,1,2,2,8,1,4,1,2,3,2,1,4,7,10,2,2,1,12,2,8,2,2,1,12,1,2,3,8,2,4,1,2,2,4,1,12,1,2,15,2,2,4,1,20,9,2,1,12,2,2,2,8,1,6",
			"name": "Square root of the largest square dividing n*d(n), where d(n) is the number of divisors of n, A000005.",
			"link": [
				"Antti Karttunen, \u003ca href=\"/A336318/b336318.txt\"\u003eTable of n, a(n) for n = 1..10000\u003c/a\u003e",
				"Antti Karttunen, \u003ca href=\"/A336318/a336318.txt\"\u003eData supplement: n, a(n) computed for n = 1..65537\u003c/a\u003e"
			],
			"formula": [
				"a(n) = A000188(A038040(n)) = A000188(n*A000005(n)).",
				"a(n) = A000196(A038040(n)/A336319(n))."
			],
			"program": [
				"(PARI)",
				"A000188(n) = core(n, 1)[2]; \\\\ From A000188",
				"A336318(n) = A000188(n*numdiv(n));"
			],
			"xref": [
				"Cf. A000005, A000188, A000196, A038040, A336319."
			],
			"keyword": "nonn",
			"offset": "1,2",
			"author": "_Antti Karttunen_, Jul 19 2020",
			"references": 2,
			"revision": 10,
			"time": "2020-07-20T02:08:26-04:00",
			"created": "2020-07-20T02:08:26-04:00"
		}
	]
}