{
	"greeting": "Greetings from The On-Line Encyclopedia of Integer Sequences! http://oeis.org/",
	"query": "id:A336566",
	"count": 1,
	"start": 0,
	"results": [
		{
			"number": 336566,
			"data": "1,1,2,1,4,0,6,1,1,2,10,2,12,4,6,1,16,3,18,2,10,8,22,6,1,10,2,14,28,12,30,1,18,14,22,1,36,16,22,10,40,12,42,2,3,20,46,14,1,1,30,2,52,12,38,2,34,26,58,6,60,28,1,1,46,12,66,2,42,4,70,3,72,34,1,2,58,12,78,2,1,38,82,14,62,40,54,2,88",
			"name": "a(n) = gcd(A336563(n), A336564(n)) = gcd(A057723(n)-n, n-A308135(n));",
			"link": [
				"Antti Karttunen, \u003ca href=\"/A336566/b336566.txt\"\u003eTable of n, a(n) for n = 1..20000\u003c/a\u003e"
			],
			"formula": [
				"a(n) = gcd(A336563(n), A336564(n)) = gcd(A057723(n)-n, n-A308135(n));"
			],
			"program": [
				"(PARI)",
				"A007947(n) = factorback(factorint(n)[, 1]);",
				"A057723(n) = { my(r=A007947(n)); (r*sigma(n/r)); };",
				"A308135(n) = (sigma(n)-A057723(n));",
				"A336563(n) = (A057723(n)-n);",
				"A336564(n) = (n - A308135(n));",
				"A336566(n) = gcd(A336563(n), A336564(n));"
			],
			"xref": [
				"Cf. A057723, A308135, A336563, A336564, A336565.",
				"Differs from A326144 at the positions given by A336555, for the first time at n=45, where a(45) = 3, while A326144(45) = 6."
			],
			"keyword": "nonn",
			"offset": "1,3",
			"author": "_Antti Karttunen_, Jul 27 2020",
			"references": 6,
			"revision": 6,
			"time": "2020-07-28T14:01:56-04:00",
			"created": "2020-07-28T14:01:56-04:00"
		}
	]
}