{
	"greeting": "Greetings from The On-Line Encyclopedia of Integer Sequences! http://oeis.org/",
	"query": "id:A336583",
	"count": 1,
	"start": 0,
	"results": [
		{
			"number": 336583,
			"data": "8,12,24,30,36,40,42,48,56,60,66,70,72,84,90,96,112,120,132,144,156,168,180,184,198,204,210,216,220,222,224,228,232,234,240,246,252,260,264,276,280,288,294,296,300,304,312,318,330,336,340,360,372,374,380,384,390",
			"name": "Numbers k with a Goldbach partition (p,q) such that k | (p*q + 1).",
			"comment": [
				"k is even.",
				"A335495 = A336582 U A336583."
			],
			"link": [
				"Eric Weisstein's World of Mathematics,  \u003ca href=\"http://mathworld.wolfram.com/GoldbachPartition.html\"\u003eGoldbach Partition.\u003c/a\u003e",
				"Wikipedia, \u003ca href=\"http://en.wikipedia.org/wiki/Goldbach%27s_conjecture\"\u003eGoldbach's conjecture.\u003c/a\u003e",
				"\u003ca href=\"/index/Go#Goldbach\"\u003eIndex entries for sequences related to Goldbach conjecture\u003c/a\u003e",
				"\u003ca href=\"/index/Par#part\"\u003eIndex entries for sequences related to partitions\u003c/a\u003e"
			],
			"example": [
				"8 is in the sequence since it has a Goldbach partition, (5,3) such that 8 | (3*5 + 1) = 16;",
				"12 is in the sequence since it has a Goldbach partition, (7,5) such that 12 | (5*7 + 1) = 36;",
				"42 is in the sequence since it has a Goldbach partition, (13,29) such that 42 | (13*29 + 1) = 378 = 9*42; etc."
			],
			"mathematica": [
				"fQ[n_] := Block[{p = 3, q}, While[q = n - p; m = Mod[p*q, n] + 1; p \u003c q \u0026\u0026 ! PrimeQ@q || m != n, p = NextPrime@p]; p \u003c q]; Select[2 Range@200, fQ]"
			],
			"xref": [
				"Cf. A335495, A336582, A336584."
			],
			"keyword": "nonn",
			"offset": "1,1",
			"author": "_Wesley Ivan Hurt_ and _Robert G. Wilson v_, Jul 26 2020",
			"references": 3,
			"revision": 13,
			"time": "2020-08-22T13:10:45-04:00",
			"created": "2020-08-15T13:09:28-04:00"
		}
	]
}