{
	"greeting": "Greetings from The On-Line Encyclopedia of Integer Sequences! http://oeis.org/",
	"query": "id:A336491",
	"count": 1,
	"start": 0,
	"results": [
		{
			"number": 336491,
			"data": "0,0,0,1,2,2,2,12,26,20,10,38,74,118,102,114,126,178,238,306,382,466,558,762,774,778,774,942,1126,1326,1542,1910,2310,2742,2762,3070,3394,3734,4090,4294,4498,4966,5458,6434,6910,7402,7910,8834,9806,10410,11030",
			"name": "Consider the figure made up of a row of n adjacent congruent rectangles, with diagonals of all possible rectangles drawn; a(n) = number of interior vertices where exactly five lines cross.",
			"link": [
				"Lars Blomberg, \u003ca href=\"/A336491/b336491.txt\"\u003eTable of n, a(n) for n = 1..500\u003c/a\u003e"
			],
			"xref": [
				"Cf. A334701, A336489, A336490."
			],
			"keyword": "nonn",
			"offset": "1,5",
			"author": "_Lars Blomberg_, Jul 25 2020",
			"references": 3,
			"revision": 7,
			"time": "2020-07-25T14:00:53-04:00",
			"created": "2020-07-25T09:52:51-04:00"
		}
	]
}