{
	"greeting": "Greetings from The On-Line Encyclopedia of Integer Sequences! http://oeis.org/",
	"query": "id:A336352",
	"count": 1,
	"start": 0,
	"results": [
		{
			"number": 336352,
			"data": "0,1,0,1,0,0,0,2,1,0,0,1,0,0,0,1,0,1,0,1,0,0,0,1,1,0,1,0,0,0,0,2,0,0,0,2,0,0,0,0,0,0,0,0,1,0,0,1,1,1,0,0,0,1,0,0,0,0,0,1,0,0,1,1,0,0,0,0,0,0,0,2,0,0,1,0,0,0,0,1,1,0,0,0,0,0,0,0,0,1,0,0,0,0,0,1,0,1,1,2,0,0,0,0,0",
			"name": "Number of prime divisors of sigma(n) that are larger than the largest prime factor of n; a(1) = 0.",
			"link": [
				"Antti Karttunen, \u003ca href=\"/A336352/b336352.txt\"\u003eTable of n, a(n) for n = 1..65537\u003c/a\u003e",
				"\u003ca href=\"/index/Si#SIGMAN\"\u003eIndex entries for sequences related to sigma(n)\u003c/a\u003e"
			],
			"formula": [
				"For all n \u003e= 1, a(n) \u003c= A058062(n)."
			],
			"program": [
				"(PARI) A336352(n) = if(1==n,0,my(gp=vecmax(factor(n)[, 1])); #select(p -\u003e (p\u003egp), factor(sigma(n))[, 1]));"
			],
			"xref": [
				"Cf. A000203, A006530, A058062, A336353 (positions of zeros)."
			],
			"keyword": "nonn",
			"offset": "1,8",
			"author": "_Antti Karttunen_, Jul 19 2020",
			"references": 8,
			"revision": 8,
			"time": "2020-07-20T02:08:57-04:00",
			"created": "2020-07-20T02:08:57-04:00"
		}
	]
}