{
	"greeting": "Greetings from The On-Line Encyclopedia of Integer Sequences! http://oeis.org/",
	"query": "id:A336964",
	"count": 1,
	"start": 0,
	"results": [
		{
			"number": 336964,
			"data": "1,2,3,2,5,2,3,7,2,3,2,3,2,5,11,2,3,13,2,7,3,5,2,17,2,3,19,2,5,3,7,2,11,23,2,3,2,5,2,13,3,2,7,29,2,3,5,31,2,5,3,11,2,17,5,7,2,3,37,2,19,3,13,2,3,5,41,2,3,7,43,2,11,2,3,5,2,23,47,2,3",
			"name": "Irregular triangle in which first row is 1, n-th row (n \u003e 1) lists distinct prime numbers in the prime tower factorization of n.",
			"comment": [
				"The prime tower factorization of a number is defined in A182318.",
				"The n-th row includes the n-th row of A027748."
			],
			"link": [
				"Rémy Sigrist, \u003ca href=\"/A336964/b336964.txt\"\u003eTable of n, a(n) for n = 1..10001\u003c/a\u003e (rows for n = 1..4045)"
			],
			"example": [
				"Triangle begins:",
				"     1    [1]",
				"     2    [2]",
				"     3    [3]",
				"     4    [2]",
				"     5    [5]",
				"     6    [2, 3]",
				"     7    [7]",
				"     8    [2, 3]",
				"     9    [2, 3]",
				"    10    [2, 5]",
				"    11    [11]",
				"    12    [2, 3]",
				"    13    [13]",
				"    14    [2, 7]",
				"    15    [3, 5]"
			],
			"program": [
				"(PARI) row(n) = { my (f=factor(n), p=f[,1]~); for (k=1, #f~, if (f[k,2]\u003e1, p=concat(p, row(f[k,2])));); if (#p==0, [1], Set(p)) }"
			],
			"xref": [
				"Cf. A027748, A115588 (row lengths), A182318, A336965."
			],
			"keyword": "nonn,tabf",
			"offset": "1,2",
			"author": "_Rémy Sigrist_, Aug 09 2020",
			"references": 2,
			"revision": 14,
			"time": "2020-08-13T10:11:45-04:00",
			"created": "2020-08-13T08:59:00-04:00"
		}
	]
}