{
	"greeting": "Greetings from The On-Line Encyclopedia of Integer Sequences! http://oeis.org/",
	"query": "id:A336056",
	"count": 1,
	"start": 0,
	"results": [
		{
			"number": 336056,
			"data": "8,9,2,9,2,7,7,0,2,8,2,4,1,4,9,7,5,5,6,8,7,7,9,2,8,3,8,8,4,3,0,2,1,7,7,3,1,1,4,3,3,4,9,2,4,0,6,5,9,3,4,3,4,7,2,7,6,5,3,8,0,2,0,2,7,1,7,3,6,7,0,5,1,0,4,9,7,0,1,2,2,6,0,6,6,5",
			"name": "Decimal expansion of the solution c of s/c = 6, where s = arclength and c = chord length on the unit circle.",
			"comment": [
				"See A336043 for a guide to related sequences."
			],
			"example": [
				"s = 5.357566216944898534126757033058130638686009544395606...",
				"c = 0.892927702824149755687792838843021773114334924065934..."
			],
			"mathematica": [
				"t = t /.FindRoot[t == 6 Sqrt[2 - 2 Cos[t]], {t, 4}, WorkingPrecision -\u003e 200]",
				"c = t/6",
				"RealDigits[t][[1]]   (* A336055 *)",
				"RealDigits[c][[1]]   (* A336056 *)"
			],
			"xref": [
				"Cf. A336043, A336055."
			],
			"keyword": "nonn,cons",
			"offset": "0,1",
			"author": "_Clark Kimberling_, Jul 10 2020",
			"references": 3,
			"revision": 8,
			"time": "2021-03-06T02:04:21-05:00",
			"created": "2020-07-10T22:09:14-04:00"
		}
	]
}