{
	"greeting": "Greetings from The On-Line Encyclopedia of Integer Sequences! http://oeis.org/",
	"query": "id:A336880",
	"count": 1,
	"start": 0,
	"results": [
		{
			"number": 336880,
			"data": "0,11,110,111,202,1100,1110,1111,2020,2222,3003,3113,11000,11011,11100,11110,11111,11202,20200,20202,20211,22220,22222,23203,30030,30232,31130,33033,40004,40114,41104,41114,42024,110000,110011,110110,110111,110202,111000",
			"name": "Numbers with decimal expansion d_1, ..., d_w such that for any k in 1..w there is some m in 1..w such that d_k = d_m = abs(k - m).",
			"comment": [
				"This sequence has similarities with A336668.",
				"All repunits (A002275) belong to this sequence.",
				"The concatenation of two terms is also a term.",
				"The digit reversal (A004086) of a term is also a term.",
				"For any d in 1..9, d * (1 + 10^d) is the first term containing the digit d."
			],
			"link": [
				"Rémy Sigrist, \u003ca href=\"/A336880/b336880.txt\"\u003eTable of n, a(n) for n = 1..10000\u003c/a\u003e"
			],
			"example": [
				"Regarding 30232:",
				"- the first digit 3 is 3 positions away from the second digit 3 and vice versa,",
				"- the digit 0 matches itself,",
				"- the first digit 2 is 2 positions away from the second digit 2 and vice versa,",
				"- so 30232 belongs to this sequence."
			],
			"program": [
				"(PARI) is(n, base=10) = { my (d=digits(n, base)); for (k=1, #d, if ((k-d[k]\u003c1 || d[k-d[k]]!=d[k]) \u0026\u0026 (k+d[k]\u003e#d || d[k+d[k]]!=d[k]), return (0)));",
				"return (1) }"
			],
			"xref": [
				"Cf. A002275, A144795 (binary analog), A336668."
			],
			"keyword": "nonn,base",
			"offset": "1,2",
			"author": "_Rémy Sigrist_, Aug 06 2020",
			"references": 3,
			"revision": 9,
			"time": "2020-08-11T20:52:41-04:00",
			"created": "2020-08-10T22:20:31-04:00"
		}
	]
}