{
	"greeting": "Greetings from The On-Line Encyclopedia of Integer Sequences! http://oeis.org/",
	"query": "id:A336224",
	"count": 1,
	"start": 0,
	"results": [
		{
			"number": 336224,
			"data": "1,2,3,5,6,7,10,11,13,14,15,16,17,19,21,22,23,26,29,30,31,33,34,35,36,37,38,39,41,42,43,46,47,48,51,53,55,57,58,59,61,62,65,66,67,69,70,71,73,74,77,78,79,80,81,82,83,85,86,87,89,91,93,94,95,97,100",
			"name": "Numbers k such that the largest square dividing k is a unitary divisor of k and its square root has an even number of prime divisors (counted with multiplicity).",
			"comment": [
				"Terms k of A335275 such that A000188(k) is a term of A028260.",
				"Numbers whose powerful part (A057521) is a square term of A028260.",
				"The squarefree numbers (A005117) are terms of this sequence since if k is squarefree, then the largest square dividing k is 1 which is a unitary divisor, sqrt(1) has 0 prime divisors, and 0 is even.",
				"The asymptotic density of this sequence is (5 * Product_{p prime} (1 - 1/(p^2*(p+1))) + 2 * Product_{p prime} (1 + 1/(p^2*(p+1))))/10 = (5 * 0.881513... + 2 * 1.125606...)/10 = 0.665878294481337275662425136416469977597382409701642... (Cohen, 1964; the first product is A065465)."
			],
			"link": [
				"Amiram Eldar, \u003ca href=\"/A336224/b336224.txt\"\u003eTable of n, a(n) for n = 1..10000\u003c/a\u003e",
				"Eckford Cohen, \u003ca href=\"https://doi.org/10.1090/S0002-9947-1964-0166181-5\"\u003eSome asymptotic formulas in the theory of numbers\u003c/a\u003e, Trans. Amer. Math. Soc., Vol. 112 (1964), pp. 214-227."
			],
			"example": [
				"16 is a term since the largest square dividing 16 is 16, which is a unitary divisor, sqrt(16) = 4, 4 = 2 * 2 has 2 prime divisors, and 2 is even."
			],
			"mathematica": [
				"seqQ[n_] := AllTrue[(e = FactorInteger[n][[;; , 2]]), # == 1 || EvenQ[#] \u0026] \u0026\u0026 EvenQ @ Total[Select[e, # \u003e 1 \u0026]/2]; Select[Range[100], seqQ]"
			],
			"xref": [
				"Intersection of A335275 and A336222.",
				"Cf. A000188, A001222, A005117, A028260, A057521, A065465."
			],
			"keyword": "nonn",
			"offset": "1,2",
			"author": "_Amiram Eldar_, Jul 12 2020",
			"references": 1,
			"revision": 12,
			"time": "2020-07-14T03:37:42-04:00",
			"created": "2020-07-13T07:54:03-04:00"
		}
	]
}