{
	"greeting": "Greetings from The On-Line Encyclopedia of Integer Sequences! http://oeis.org/",
	"query": "id:A337568",
	"count": 1,
	"start": 0,
	"results": [
		{
			"number": 337568,
			"data": "4,9,15,525,35,1617,2145,5005,4641,586245,1616615,1550913,21505,7436429,21489,985982745,3038795305,78337,13844919,10393190665,12838371,6896776665,7292509103495,12023917269,70691995,37198413949697,62483343,80309179885,98755025688454681,138969249",
			"name": "Product of all the parts in the Goldbach partitions (p,q) of 2n (or 1 if no such partition exists).",
			"link": [
				"Eric Weisstein's World of Mathematics, \u003ca href=\"http://mathworld.wolfram.com/GoldbachPartition.html\"\u003eGoldbach Partition\u003c/a\u003e",
				"Wikipedia, \u003ca href=\"http://en.wikipedia.org/wiki/Goldbach%27s_conjecture\"\u003eGoldbach's conjecture\u003c/a\u003e",
				"\u003ca href=\"/index/Go#Goldbach\"\u003eIndex entries for sequences related to Goldbach conjecture\u003c/a\u003e",
				"\u003ca href=\"/index/Par#part\"\u003eIndex entries for sequences related to partitions\u003c/a\u003e"
			],
			"formula": [
				"a(n) = Product_{i=1..n} (i*(2*n-i))^(c(i)*c(2*n-i)), where c is the prime characteristic (A010051)."
			],
			"example": [
				"a(9) = 5005; 2*9 = 18 has Goldbach partitions (13,5) and (11,7). The product of all the parts is 13 * 5 * 11 * 7 = 5005."
			],
			"mathematica": [
				"Table[Product[(i*(2 n - i))^((PrimePi[i] - PrimePi[i - 1]) (PrimePi[2 n - i] - PrimePi[2 n - i - 1])), {i, n}], {n, 2, 40}]"
			],
			"xref": [
				"Cf. A010051, A045917, A238711."
			],
			"keyword": "nonn",
			"offset": "2,1",
			"author": "_Wesley Ivan Hurt_, Sep 29 2020",
			"references": 1,
			"revision": 16,
			"time": "2020-10-04T23:31:03-04:00",
			"created": "2020-10-04T23:31:03-04:00"
		}
	]
}