{
	"greeting": "Greetings from The On-Line Encyclopedia of Integer Sequences! http://oeis.org/",
	"query": "id:A337464",
	"count": 1,
	"start": 0,
	"results": [
		{
			"number": 337464,
			"data": "1,1,6,1,5,30,1,4,11,140,1,3,-6,-29,630,1,2,-21,-120,-365,2772,1,1,-34,-139,-266,-1409,12012,1,0,-45,-92,531,2520,-155,51480,1,-1,-54,15,1654,6489,17380,29485,218790,1,-2,-61,176,2755,4828,-9723,-13104,170035,923780",
			"name": "Square array T(n,k), n \u003e= 0, k \u003e= 0, read by antidiagonals, where column k is the expansion of sqrt(2 / ( (1+2*(k-4)*x+((k+4)*x)^2) * (1-(k+4)*x+sqrt(1+2*(k-4)*x+((k+4)*x)^2)) )).",
			"link": [
				"Seiichi Manyama, \u003ca href=\"/A337464/b337464.txt\"\u003eAntidiagonals n = 0..139, flattened\u003c/a\u003e"
			],
			"formula": [
				"T(n,k) = Sum_{j=0..n} (-k)^(n-j) * binomial(2*j,j) * binomial(2*n+1,2*j).",
				"T(0,k) = 1, T(1,k) = 6-k and n * (2*n+1) * (4*n-3) * T(n,k) = (4*n-1) * (-4*(k-4)*n^2+2*(k-4)*n+k-2) * T(n-1,k) - (k+4)^2 * (n-1) * (2*n-1) * (4*n+1) * T(n-2,k) for n \u003e 1. - _Seiichi Manyama_, Aug 29 2020"
			],
			"example": [
				"Square array begins:",
				"     1,     1,    1,    1,    1,     1, ...",
				"     6,     5,    4,    3,    2,     1, ...",
				"    30,    11,   -6,  -21,  -34,   -45, ...",
				"   140,   -29, -120, -139,  -92,    15, ...",
				"   630,  -365, -266,  531, 1654,  2755, ...",
				"  2772, -1409, 2520, 6489, 4828, -5853, ..."
			],
			"mathematica": [
				"T[n_, k_] := Sum[If[k == n-j == 0, 1, (-k)^(n-j)] * Binomial[2*j, j] * Binomial[2*n+1, 2*j], {j, 0, n}]; Table[T[k, n - k], {n, 0, 9}, {k, 0, n}] // Flatten (* _Amiram Eldar_, Apr 29 2021 *)"
			],
			"program": [
				"(PARI) {T(n, k) = sum(j=0, n, (-k)^(n-j)*binomial(2*j, j)*binomial(2*n+1, 2*j))}"
			],
			"xref": [
				"Columns k=0..4 give A002457, A337394, A337466, A337467, A337397.",
				"Main diagonal gives A337465.",
				"Cf. A337369, A337419."
			],
			"keyword": "sign,tabl",
			"offset": "0,3",
			"author": "_Seiichi Manyama_, Aug 28 2020",
			"references": 8,
			"revision": 21,
			"time": "2021-04-29T04:35:40-04:00",
			"created": "2020-08-28T08:09:34-04:00"
		}
	]
}