{
	"greeting": "Greetings from The On-Line Encyclopedia of Integer Sequences! http://oeis.org/",
	"query": "id:A337738",
	"count": 1,
	"start": 0,
	"results": [
		{
			"number": 337738,
			"data": "738,3492,14184,58896,236448,954432,2549700",
			"name": "Terms of A171641 with a record number of divisors.",
			"comment": [
				"Non-deficient numbers (A023196) with an even sum of divisors (A000203) which cannot be partitioned into two disjoint sets with equal sum, and having a record number of divisors.",
				"The corresponding numbers of divisors are 12, 18, 24, 30, 36, 42, 54, ..."
			],
			"example": [
				"The number of divisors of each of the first 33 terms of A171641 is 12. A171641(34) = 3492 has 18 divisors, and it is the first term with more than 12 divisors. Therefore, a(2) = 3492."
			],
			"mathematica": [
				"nonZumQ[n_] := Module[{d = Divisors[n], sum, x}, sum = Plus @@ d; sum \u003e= 2*n \u0026\u0026 EvenQ[sum] \u0026\u0026 CoefficientList[Product[1 + x^i, {i, d}], x][[1 + sum/2]] == 0]; dm = 0; s = {}; Do[d = DivisorSigma[0, n]; If[d \u003e dm, q = nonZumQ[n]; If[q \u0026\u0026 d \u003e dm, dm = d; AppendTo[s, n]]], {n, 1, 60000}]; s"
			],
			"xref": [
				"Cf. A000005, A000203, A023196, A083207, A171641, A335008."
			],
			"keyword": "nonn,more",
			"offset": "1,1",
			"author": "_Amiram Eldar_, Sep 17 2020",
			"references": 1,
			"revision": 5,
			"time": "2020-09-17T20:30:29-04:00",
			"created": "2020-09-17T20:30:29-04:00"
		}
	]
}