{
	"greeting": "Greetings from The On-Line Encyclopedia of Integer Sequences! http://oeis.org/",
	"query": "id:A337716",
	"count": 1,
	"start": 0,
	"results": [
		{
			"number": 337716,
			"data": "1,1,2,4,8,16,35,77,179,440,1160,3264,9950,33206,121943,494011,2235399,11391306,65287199,422908306,3130775625,26490210964,255257056748,2825013955541,36147331371446,531237157370531,8965348473026888",
			"name": "Number of graphs, where vertices are labeled with positive integers summing to n, and where identically labeled vertices are indistinguishable and cannot be connected with an edge.",
			"link": [
				"Andrew Howroyd, \u003ca href=\"/A337716/b337716.txt\"\u003eTable of n, a(n) for n = 0..50\u003c/a\u003e (terms 0..30 from Max Alekseyev)"
			],
			"program": [
				"(PARI)",
				"permcount(v) = {my(m=1, s=0, k=0, t); for(i=1, #v, t=v[i]; k=if(i\u003e1\u0026\u0026t==v[i-1], k+1, 1); m*=t*k; s+=t); s!/m}",
				"cross(u, v) = {sum(i=1, #u, sum(j=1, #v, gcd(u[i], v[j])))}",
				"R(n,m,u)={if(n==0, 1, sum(k=if(m==1, n, 0), n\\m, my(s=0); forpart(p=k, s+=self()(n-m*k, m-1, concat(u,Vec(p)))*2^cross(p,u)*permcount(p)); s/k!))}",
				"a(n)={R(n,n,[])} \\\\ _Andrew Howroyd_, Sep 18 2020"
			],
			"xref": [
				"Cf. A337717."
			],
			"keyword": "nonn",
			"offset": "0,3",
			"author": "_Max Alekseyev_ following a suggestion from _Franklin T. Adams-Watters_, Sep 16 2020",
			"references": 3,
			"revision": 18,
			"time": "2021-04-28T19:09:27-04:00",
			"created": "2020-09-20T03:14:29-04:00"
		}
	]
}