{
	"greeting": "Greetings from The On-Line Encyclopedia of Integer Sequences! http://oeis.org/",
	"query": "id:A337632",
	"count": 1,
	"start": 0,
	"results": [
		{
			"number": 337632,
			"data": "1,1,2,1,3,2,1,4,2,3,1,5,2,3,2,1,6,4,6,4,6,1,7,2,3,4,3,2,1,8,2,5,2,5,2,5,1,9,2,3,4,3,2,7,2,1,10,4,6,4,10,4,6,4,10,1,11,2,3,2,3,6,3,2,3,2,1,12,4,9,4,9,4,9,4,9,4,9,1,13,2,3,4,5,2",
			"name": "Triangle read by rows: T(n,k) is the number of nonnegative integers m \u003c n such that m^k - m == 0 (mod n), where 0 \u003c= k \u003c n.",
			"link": [
				"Peter Kagey, \u003ca href=\"/A337632/b337632.txt\"\u003eTable of n, a(n) for n = 1..10011\u003c/a\u003e (first 141 rows, flattened)"
			],
			"formula": [
				"T(n,k) = A334006(n,k) * A337633(n,k)."
			],
			"example": [
				"Triangle begins:",
				"  n\\k| 0   1  2  3  4   5  6  7  8   9",
				"  ---+--------------------------------",
				"   1 | 1;",
				"   2 | 1,  2;",
				"   3 | 1,  3, 2;",
				"   4 | 1,  4, 2, 3;",
				"   5 | 1,  5, 2, 3, 2;",
				"   6 | 1,  6, 4, 6, 4,  6;",
				"   7 | 1,  7, 2, 3, 4,  3, 2;",
				"   8 | 1,  8, 2, 5, 2,  5, 2, 5;",
				"   9 | 1,  9, 2, 3, 4,  3, 2, 7, 2;",
				"  10 | 1, 10, 4, 6, 4, 10, 4, 6, 4, 10;",
				"...",
				"T(10,2) = 4 because",
				"0^2 - 0 == 0 (mod 10),",
				"1^2 - 1 == 0 (mod 10),",
				"5^2 - 5 == 0 (mod 10), and",
				"6^2 - 6 == 0 (mod 10)."
			],
			"program": [
				"(Haskell)",
				"a337632t n k = length $ filter (\\m -\u003e (m^k - m) `mod` n == 0) [0..n-1]",
				"(PARI) T(n,k) = sum(m=0, n-1, Mod(m,n)^k == Mod(m,n)); \\\\ _Michel Marcus_, Sep 13 2020",
				"(MAGMA)  [[#[m: m in [0..n-1] | m^k mod n eq m]: k in [0..n-1]]: n in [1..17]]; // _Juri-Stepan Gerasimov_, Oct 12 2020"
			],
			"xref": [
				"Cf. A334006, A337633."
			],
			"keyword": "nonn,tabl",
			"offset": "1,3",
			"author": "_Peter Kagey_, Sep 12 2020",
			"references": 3,
			"revision": 25,
			"time": "2020-10-12T14:44:11-04:00",
			"created": "2020-09-13T15:11:38-04:00"
		}
	]
}