{
	"greeting": "Greetings from The On-Line Encyclopedia of Integer Sequences! http://oeis.org/",
	"query": "id:A337685",
	"count": 1,
	"start": 0,
	"results": [
		{
			"number": 337685,
			"data": "1,2,7,38,303,3424,53365,1121412,31197241,1131759944,52851880791,3141661092280,235381934211847,22034726000877312,2557207299577993717,365328083228276428304,63837414801921587915025,13564359864218330055841312,3485934653871954826576733959",
			"name": "Number of labeled n-node graphs with no cycles of length less than 5.",
			"comment": [
				"Equivalently, labeled graphs of girth at least 5. Disconnected graphs are included."
			],
			"xref": [
				"LOG transform of A345349.",
				"A006787 counts isomorphism classes."
			],
			"keyword": "nonn,hard",
			"offset": "1,2",
			"author": "_Brendan McKay_, Sep 15 2020",
			"references": 1,
			"revision": 13,
			"time": "2021-06-17T09:11:36-04:00",
			"created": "2020-09-16T06:33:03-04:00"
		}
	]
}