{
	"greeting": "Greetings from The On-Line Encyclopedia of Integer Sequences! http://oeis.org/",
	"query": "id:A337991",
	"count": 1,
	"start": 0,
	"results": [
		{
			"number": 337991,
			"data": "1,1,1,1,2,1,2,5,4,1,4,13,15,7,1,9,35,52,36,11,1,21,96,175,160,75,16,1,51,267,576,655,415,141,22,1,127,750,1869,2541,2030,952,245,29,1,323,2123,6000,9492,9156,5488,1988,400,37,1,835,6046,19107,34476,38976,28476,13356,3852,621,46,1",
			"name": "Triangle T(n,m)= Sum_{i=1..n} C(n,i-m)*C(n+m-i,i-1)*C(n+m-i,m)/n, T(0,0)=1.",
			"formula": [
				"G.f.: (-sqrt(x^2*(y^2-2*y-3)+x*(-2*y-2)+1)-x*(y-1)+1)/(2*x)."
			],
			"example": [
				"1,",
				"1, 1,",
				"1, 2, 1,",
				"2, 5, 4, 1,",
				"4, 13, 15, 7, 1,",
				"9, 35, 52, 36, 11, 1,",
				"21, 96, 175, 160, 75, 16, 1,",
				"51, 267, 576, 655, 415, 141, 22, 1"
			],
			"mathematica": [
				"T[0, 0] = 1; T[n_, m_] := Sum[Binomial[n, i - m] * Binomial[n + m - i, i - 1] * Binomial[n + m - i, m]/n, {i, 1, n}]; Table[T[n, m], {n, 0, 10}, {m, 0, n}] // Flatten (* _Amiram Eldar_, Oct 06 2020 *)"
			],
			"program": [
				"(Maxima)",
				"T(n,m):=if m=n then 1 else if n=0 then 0 else sum(binomial(n,i-m)*binomial(n+m-i,i-1)*binomial(n+m-i,m),i,1,n)/n;"
			],
			"xref": [
				"Cf. A001006, A005773, A025227, A132894."
			],
			"keyword": "nonn,tabl",
			"offset": "0,5",
			"author": "_Vladimir Kruchinin_, Oct 06 2020",
			"references": 0,
			"revision": 10,
			"time": "2020-10-14T11:07:46-04:00",
			"created": "2020-10-14T11:07:46-04:00"
		}
	]
}