{
	"greeting": "Greetings from The On-Line Encyclopedia of Integer Sequences! http://oeis.org/",
	"query": "id:A337152",
	"count": 1,
	"start": 0,
	"results": [
		{
			"number": 337152,
			"data": "1,1,9,161,5153,257649,18550729,1817971441,232700344449,37697455800737,7539491160147401,1824556860755671041,525472375897633259809,177609663053400041815441,69622987916932816391652873,31330344562619767376243792849,16041136416061320896636821938689",
			"name": "a(n) = 2^n * (n!)^2 * Sum_{k=0..n} 1 / ((-2)^k * (k!)^2).",
			"formula": [
				"Sum_{n\u003e=0} a(n) * x^n / (n!)^2 = BesselJ(0,2*sqrt(x)) / (1 - 2*x).",
				"a(0) = 1; a(n) = 2 * n^2 * a(n-1) + (-1)^n."
			],
			"mathematica": [
				"Table[2^n n!^2 Sum[1/((-2)^k k!^2), {k, 0, n}], {n, 0, 16}]",
				"nmax = 16; CoefficientList[Series[BesselJ[0, 2 Sqrt[x]]/(1 - 2 x), {x, 0, nmax}], x] Range[0, nmax]!^2"
			],
			"program": [
				"(PARI) a(n) = 2^n * (n!)^2 * sum(k=0, n, 1 / ((-2)^k * (k!)^2)); \\\\ _Michel Marcus_, Jan 28 2021"
			],
			"xref": [
				"Cf. A000354, A073701, A336804, A337153, A337154, A337155."
			],
			"keyword": "nonn",
			"offset": "0,3",
			"author": "_Ilya Gutkovskiy_, Jan 27 2021",
			"references": 3,
			"revision": 12,
			"time": "2021-01-28T11:11:45-05:00",
			"created": "2021-01-27T22:36:50-05:00"
		}
	]
}