{
	"greeting": "Greetings from The On-Line Encyclopedia of Integer Sequences! http://oeis.org/",
	"query": "id:A337700",
	"count": 1,
	"start": 0,
	"results": [
		{
			"number": 337700,
			"data": "12,16,20,24,63,72,315,350,385,408,767,826,2085,2224,2363,2340,3762,3960,7644,8008,8372,8448,11850,12324,20466,21224,21982,21480,28985,29920,45177,46546,47915,48456,60273,61902,87555,89800,92045,91896,111972,114576",
			"name": "Place two n-gons with radii 1 and 2 concentrically, forming an annular area between them. Connect all the vertices with line segments that lie entirely within that area. Then a(n) is the number of regions in that figure.",
			"comment": [
				"Because of symmetry, a(n) is divisible by n."
			],
			"link": [
				"Lars Blomberg, \u003ca href=\"/A337700/b337700.txt\"\u003eTable of n, a(n) for n = 3..102\u003c/a\u003e",
				"Lars Blomberg, \u003ca href=\"/A337700/a337700.png\"\u003eIllustration for n = 3\u003c/a\u003e",
				"Lars Blomberg, \u003ca href=\"/A337700/a337700_1.png\"\u003eIllustration for n = 4\u003c/a\u003e",
				"Lars Blomberg, \u003ca href=\"/A337700/a337700_2.png\"\u003eIllustration for n = 5\u003c/a\u003e",
				"Lars Blomberg, \u003ca href=\"/A337700/a337700_3.png\"\u003eIllustration for n = 7\u003c/a\u003e",
				"Lars Blomberg, \u003ca href=\"/A337700/a337700_4.png\"\u003eIllustration for n = 10\u003c/a\u003e",
				"Lars Blomberg, \u003ca href=\"/A337700/a337700_5.png\"\u003eIllustration for n = 29\u003c/a\u003e",
				"Lars Blomberg, \u003ca href=\"/A337700/a337700_6.png\"\u003eIllustration for n = 32\u003c/a\u003e"
			],
			"formula": [
				"a(n) = A337702(n) - A337701(n) by Euler's formula, there being 1 hole."
			],
			"xref": [
				"Cf. A337701, A337702, A337703."
			],
			"keyword": "nonn",
			"offset": "3,1",
			"author": "_Lars Blomberg_, Sep 16 2020",
			"references": 4,
			"revision": 12,
			"time": "2020-09-16T12:50:50-04:00",
			"created": "2020-09-16T10:37:19-04:00"
		}
	]
}