{
	"greeting": "Greetings from The On-Line Encyclopedia of Integer Sequences! http://oeis.org/",
	"query": "id:A337175",
	"count": 1,
	"start": 0,
	"results": [
		{
			"number": 337175,
			"data": "0,1,1,2,1,4,1,4,2,4,1,9,1,4,4,6,1,9,1,9,4,4,1,16,2,4,4,9,1,16,1,9,4,4,4,20,1,4,4,16,1,16,1,9,9,4,1,25,2,9,4,9,1,16,4,16,4,4,1,36,1,4,9,12,4,16,1,9,4,16,1,36,1,4,9,9,4,16,1,25,6,4,1,36,4,4",
			"name": "Number of pairs of divisors of n, (d1,d2), such that d1 \u003c= d2 and d1*d2 \u003c n.",
			"formula": [
				"a(n) = Sum_{d1|n, d2|n} (1 - sign(floor(d1*d2/n))).",
				"a(n) = tau^2/4 if tau is even and a(n) = (tau-1)*(tau+1)/4 if tau is odd, where tau = A000005(n) is the number of divisors of n, i.e., a(n) = A002620(A000005(n)) = floor(A000005(n)^2/4). - _Chai Wah Wu_, Jan 29 2021"
			],
			"example": [
				"a(9) = 2; (1,1), (1,3).",
				"a(10) = 4; (1,1), (1,2), (1,5), (2,2).",
				"a(11) = 1; (1,1).",
				"a(12) = 9; (1,1), (1,2), (1,3), (1,4), (1,6), (2,2), (2,3), (2,4), (3,3)."
			],
			"mathematica": [
				"Table[Sum[Sum[(1 - Sign[Floor[i*k/n]]) (1 - Ceiling[n/k] + Floor[n/k]) (1 - Ceiling[n/i] + Floor[n/i]), {i, k}], {k, n}], {n, 80}]"
			],
			"program": [
				"(Python)",
				"from sympy import divisor_count",
				"def A337175(n):",
				"    return divisor_count(n)**2//4  # _Chai Wah Wu_, Jan 29 2021"
			],
			"xref": [
				"Cf. A000005, A002620, A337174."
			],
			"keyword": "nonn",
			"offset": "1,4",
			"author": "_Wesley Ivan Hurt_, Jan 28 2021",
			"references": 3,
			"revision": 22,
			"time": "2021-01-30T23:25:27-05:00",
			"created": "2021-01-28T21:29:20-05:00"
		}
	]
}