{
	"greeting": "Greetings from The On-Line Encyclopedia of Integer Sequences! http://oeis.org/",
	"query": "id:A337878",
	"count": 1,
	"start": 0,
	"results": [
		{
			"number": 337878,
			"data": "3,4,6,5,12,8,9,22,28,10,36,20,7,46,52,29,60,33,70,18,78,41,22,48,100,102,53,36,28,14,65,68,69,148,30,52,81,166,172,89,180,190,96,196,198,105,74,113,76,58,238,24,25,16,262,268,270,92,35,47,292,51",
			"name": "a(n) is the smallest m \u003e 0 such that the n-th prime divides Jacobsthal(m).",
			"comment": [
				"All positive Jacobsthal numbers are odd, so the index starts at n = 2.",
				"The set of primitive prime factors of J_k is given by {A000040(j) | a(j) = k}."
			],
			"link": [
				"Eric Weisstein's World of Mathematics, \u003ca href=\"http://mathworld.wolfram.com/PrimitivePrimeFactor.html\"\u003ePrimitive Prime Factor\u003c/a\u003e"
			],
			"formula": [
				"a(n) = 1 (mod A000040(n)) for n \u003e 2."
			],
			"example": [
				"The 4th prime number is 7, and 7 divides 21 which is Jacobsthal(6), so a(4) = 6. The second prime number, 3, divides Jacobsthal(6) as well, but it divides also the smaller Jacobsthal(3), i.e., a(2) = 3."
			],
			"mathematica": [
				"m = 300; j = LinearRecurrence[{1, 2}, {3, 5}, m]; s = {}; p = 3; While[(ind = Select[Range[m], Divisible[j[[#]], p] \u0026, 1]) != {}, AppendTo[s, ind[[1]] + 2]; p = NextPrime[p]]; s (* _Amiram Eldar_, Sep 28 2020 *)"
			],
			"program": [
				"(Python)",
				"n = 1",
				"while n \u003c 63:",
				"    n, J0, J1, a = n+1, 3, 1, 3",
				"    p = A000040(n)",
				"    J0 = J0%p",
				"    while J0 != 0:",
				"        J0, J1, a = (J0+2*J1)%p, J0, a+1",
				"    print(n,a)",
				"(PARI) J(n) = (2^n - (-1)^n)/3; \\\\ A001045",
				"a(n) = {my(k=1, p=prime(n)); while (J(k) % p, k++); k;} \\\\ _Michel Marcus_, Sep 29 2020"
			],
			"xref": [
				"Cf. A000040 (primes), A001045 (Jacobsthal numbers), A001602 (similar for Fibonacci numbers), A129738."
			],
			"keyword": "nonn",
			"offset": "2,1",
			"author": "_A.H.M. Smeets_, Sep 27 2020",
			"references": 0,
			"revision": 27,
			"time": "2020-10-05T01:05:42-04:00",
			"created": "2020-10-05T01:05:42-04:00"
		}
	]
}