{
	"greeting": "Greetings from The On-Line Encyclopedia of Integer Sequences! http://oeis.org/",
	"query": "id:A337316",
	"count": 1,
	"start": 0,
	"results": [
		{
			"number": 337316,
			"data": "1729,12801,247105,1224721,2704801,5079361,8355841,26906881,30240001,34479361,36426241,45318561,48188161,49871361,61485601,107714881,170947105,178312321,193708801,393760321,446569201,475683841,740376001,781347841,878169601,987275521,1022304361",
			"name": "Composite numbers k such that phi(k) divides d*(k - 1) for some squarefree divisor d of k - 1.",
			"comment": [
				"All terms of this sequence are terms of A173703 (2-Lehmer numbers) and all Lehmer numbers (if there are any) are contained in this sequence."
			],
			"example": [
				"phi(247105) = 194688 divides 2 * 13 * 247104."
			],
			"mathematica": [
				"divQ[n_] := AnyTrue[Select[Divisors[n - 1], SquareFreeQ]*(n - 1), Divisible[#, EulerPhi[n]] \u0026]; Select[Range[250000], CompositeQ[#] \u0026\u0026 divQ[#] \u0026] (* _Amiram Eldar_, Oct 14 2020 *)"
			],
			"program": [
				"(PARI) is(n)={my(s=denominator((n-1)/eulerphi(n))); !isprime(n) \u0026\u0026 issquarefree(s) \u0026\u0026 ((n-1)%s==0) \u0026\u0026 n\u003e1}",
				"{ forcomposite(n=1, 2^28, if(is(n), print1(n, \", \"))) }"
			],
			"xref": [
				"Cf. A173703 (2-Lehmer numbers), A238574 (k-Lehmer numbers for some k).",
				"Cf. A000010 (phi), A005117 (squarefree numbers)."
			],
			"keyword": "nonn",
			"offset": "1,1",
			"author": "_Tomohiro Yamada_, Sep 28 2020",
			"ext": [
				"More terms from _Amiram Eldar_, Oct 14 2020"
			],
			"references": 1,
			"revision": 45,
			"time": "2021-04-08T07:18:54-04:00",
			"created": "2020-10-15T05:16:26-04:00"
		}
	]
}