{
	"greeting": "Greetings from The On-Line Encyclopedia of Integer Sequences! http://oeis.org/",
	"query": "id:A337188",
	"count": 1,
	"start": 0,
	"results": [
		{
			"number": 337188,
			"data": "1,2,3,4,5,7,13,37,194,2263,81209,15670815,35447299799,2878604306322646,45110072663945746399499,1599030269628449375351280360624211,4602975420092714513333476912306224941820648781605",
			"name": "a(n) = determinant([a(n-1), a(n-2); a(n-4), a(n-3)]) for n \u003e= 5, a(n) = n otherwise.",
			"reference": [
				"B. Muslu, Sayılar ve Bağlantılar, Luna, 2021, pp. 18-22."
			],
			"formula": [
				"a(n) = a(n-1)*a(n-3) - a(n-2)*a(n-4) for n \u003e= 5, a(n) = n for n \u003c= 4."
			],
			"maple": [
				"a:= proc(n) option remember; `if`(n\u003c5, n,",
				"      a(n-1)*a(n-3)-a(n-2)*a(n-4))",
				"    end:",
				"seq(a(n), n=1..18);  # _Alois P. Heinz_, Jan 29 2021"
			],
			"mathematica": [
				"a[n_] := a[n] = If[n \u003c 5, n, Det @ Map[a, n - {{1, 2}, {4, 3}}, {2}]]; Array[a, 20] (* _Amiram Eldar_, Jan 29 2021 *)"
			],
			"program": [
				"(PARI) a(n) = if (n\u003c=4, n, a(n-1)*a(n-3) - a(n-2)*a(n-4)); \\\\ _Michel Marcus_, Jan 29 2021"
			],
			"keyword": "nonn",
			"offset": "1,2",
			"author": "_Burak Muslu_, Jan 29 2021",
			"references": 0,
			"revision": 30,
			"time": "2021-02-12T16:28:35-05:00",
			"created": "2021-02-12T16:28:35-05:00"
		}
	]
}