{
	"greeting": "Greetings from The On-Line Encyclopedia of Integer Sequences! http://oeis.org/",
	"query": "id:A337772",
	"count": 1,
	"start": 0,
	"results": [
		{
			"number": 337772,
			"data": "0,1,1,1,2,1,1,2,1,1,2,2,1,2,1,1,3,2,0,2,1,2,3,3,2,1,1,2,2,2,1,3,2,1,2,1,2,3,3,1,1,3,1,2,2,1,1,2,1,2,1,2,3,3,2,3,3,2,2,3,0,2,2,0,3,2,2,1,1,2,3,4,1,2,1,1,4,2,0,2,2,1,2,4,1,2,3,2,1,2,1,4,2",
			"name": "Number of Goldbach partitions (p,q) of 2n such that any one of p+-1 or q+-1 is a perfect square.",
			"link": [
				"Eric Weisstein's World of Mathematics, \u003ca href=\"http://mathworld.wolfram.com/GoldbachPartition.html\"\u003eGoldbach Partition\u003c/a\u003e",
				"Wikipedia, \u003ca href=\"http://en.wikipedia.org/wiki/Goldbach%27s_conjecture\"\u003eGoldbach's conjecture\u003c/a\u003e",
				"\u003ca href=\"/index/Go#Goldbach\"\u003eIndex entries for sequences related to Goldbach conjecture\u003c/a\u003e",
				"\u003ca href=\"/index/Par#part\"\u003eIndex entries for sequences related to partitions\u003c/a\u003e"
			],
			"formula": [
				"a(n) = Sum_{i=1..n} sign(s(i-1) + s(i+1) + s(2*n-i-1) + s(2*n-i+1)) * c(i) * c(2*n-i), where s is the square characteristic (A010052) and c is the prime characteristic (A010051)."
			],
			"example": [
				"a(5) = 2; 2*5 = 10 has two Goldbach partitions, (7,3) and (5,5). Since 3+1 = 4 is a square and 5-1 = 4 is a square, a(5) = 2.",
				"a(17) = 3; 2*17 = 34 has the four Goldbach partitions, (31,3), (29,5), (23,11) and (17,17). Since 3+1 = 4 (square), 5-1 = 4 (square), and 17-1 = 16 (square), a(17) = 3."
			],
			"mathematica": [
				"Table[Sum[Sign[(Floor[Sqrt[i - 1]] - Floor[Sqrt[i - 2]]) + (Floor[Sqrt[2 n - i - 1]] - Floor[Sqrt[2 n - i - 2]]) + (Floor[Sqrt[i + 1]] - Floor[Sqrt[i]]) + (Floor[Sqrt[2 n - i + 1]] - Floor[Sqrt[2 n - i]])] * (PrimePi[i] - PrimePi[i - 1]) (PrimePi[2 n - i] - PrimePi[2 n - i - 1]), {i, n}], {n, 100}]"
			],
			"xref": [
				"Cf. A010051, A010052, A045917."
			],
			"keyword": "nonn",
			"offset": "1,5",
			"author": "_Wesley Ivan Hurt_, Sep 19 2020",
			"references": 1,
			"revision": 6,
			"time": "2020-09-23T16:16:56-04:00",
			"created": "2020-09-23T16:16:56-04:00"
		}
	]
}