{
	"greeting": "Greetings from The On-Line Encyclopedia of Integer Sequences! http://oeis.org/",
	"query": "id:A337122",
	"count": 1,
	"start": 0,
	"results": [
		{
			"number": 337122,
			"data": "5,4,17,5,17,17,53,9,53,17,53,17,17,53,59,17,53,53,74,17,18,53,59,25,61,34,1829,53,74,59,1829,27,101,53,44,53,93,74,225,17,1829,18,163,53,57,59,1829,39,77,61,95,53,34,1829,1829,57,197,74,225,89",
			"name": "a(n) is the smallest positive integer k for which the mod-k Collatz orbit has the same length as the ordinary Collatz orbit.",
			"comment": [
				"1829 appears so often because the number 27 has a long orbit."
			],
			"link": [
				"Markus Sigg, \u003ca href=\"/A337122/b337122.txt\"\u003eTable of n, a(n) for n = 1..10000\u003c/a\u003e"
			],
			"program": [
				"(PARI) orbitSize(n, k) = { my(S = Set([])); if (k, n = n % k); while(!setsearch(S, n), S = setunion(S, Set([n])); n = if(n % 2, 3*n+1, n/2); if(k, n = n % k);); return(#S); };",
				"a(n) = { my(o = orbitSize(n, 0), k); for(k = 1, oo, if(orbitSize(n, k) == o, return(k))); };",
				"makeVec(m) = { my(v = [], n); for(n = 1, m, v = concat(v, a(n))); return(v); };",
				"makeVec(60)"
			],
			"xref": [
				"Cf. A294643."
			],
			"keyword": "nonn",
			"offset": "1,1",
			"author": "_Markus Sigg_, Aug 17 2020",
			"references": 1,
			"revision": 15,
			"time": "2020-08-18T05:43:08-04:00",
			"created": "2020-08-17T22:40:20-04:00"
		}
	]
}