{
	"greeting": "Greetings from The On-Line Encyclopedia of Integer Sequences! http://oeis.org/",
	"query": "id:A337372",
	"count": 1,
	"start": 0,
	"results": [
		{
			"number": 337372,
			"data": "4,6,9,10,14,15,21,35,39,49,57,69,91,125,242,275,286,325,338,363,418,425,442,475,494,506,561,575,598,646,682,715,722,725,754,775,782,806,845,847,867,874,925,957,962,1023,1025,1045,1054,1058,1066,1075,1105,1118,1175,1178,1221,1222,1235,1265,1309,1325,1334,1353",
			"name": "Primitive terms of A246282: Numbers that are included in that sequence, but none of whose proper divisors are.",
			"comment": [
				"Numbers k whose only divisor in A246282 is k itself, i.e., A003961(k) \u003e 2k, but for none of the proper divisors d|k, d\u003ck it holds that A003961(d) \u003e 2d.",
				"Question: Do the odd terms in A326134 all occur here? Answer is yes, if the following conjecture holds: This is a subsequence of A263837, nonabundant numbers. In other words, we claim that any abundant number k (A005101) has A337345(k) \u003e 1 and thus is a term of A341610."
			],
			"link": [
				"Antti Karttunen, \u003ca href=\"/A337372/b337372.txt\"\u003eTable of n, a(n) for n = 1..20000\u003c/a\u003e",
				"\u003ca href=\"/index/Pri#prime_indices\"\u003eIndex entries for sequences computed from indices in prime factorization\u003c/a\u003e"
			],
			"formula": [
				"{k: 1==A337345(k)}."
			],
			"mathematica": [
				"Block[{a = {}, b = {}}, Do[If[2 i \u003c Times @@ Map[#1^#2 \u0026 @@ # \u0026, FactorInteger[i] /. {p_, e_} /; e \u003e 0 :\u003e {Prime[PrimePi@ p + 1], e}] - Boole[i == 1], AppendTo[a, i]; If[IntersectingQ[Most@ Divisors[i], a], AppendTo[b, i]]], {i, 1400}]; Complement[a, b]] (* _Michael De Vlieger_, Feb 22 2021 *)"
			],
			"program": [
				"(PARI)",
				"A003961(n) = { my(f = factor(n)); for (i=1, #f~, f[i, 1] = nextprime(f[i, 1]+1)); factorback(f); };",
				"A252742(n) = (A003961(n) \u003e (2*n));",
				"A337346(n) = sumdiv(n,d,(d\u003cn)\u0026\u0026A252742(d));",
				"isA337372(n) = ((1==A252742(n))\u0026\u0026(0==A337346(n)));"
			],
			"xref": [
				"Setwise difference A246282 \\ A341610.",
				"Cf. A003961, A246281, A252742, A337346.",
				"Positions of ones in A337345 and in A341609 (characteristic function).",
				"Subsequence of A263837 and thus also of A341614. XXX - Check!",
				"Cf. also A091191, A326134."
			],
			"keyword": "nonn",
			"offset": "1,1",
			"author": "_Antti Karttunen_, Aug 27 2020",
			"references": 11,
			"revision": 24,
			"time": "2021-03-06T01:33:41-05:00",
			"created": "2020-08-27T08:57:50-04:00"
		}
	]
}