{
	"greeting": "Greetings from The On-Line Encyclopedia of Integer Sequences! http://oeis.org/",
	"query": "id:A337198",
	"count": 1,
	"start": 0,
	"results": [
		{
			"number": 337198,
			"data": "1,1,1,1,1,1,1,1,2,2,1,1,1,1,1,1,2,2,2,2,1,2,1,1,1,2,2,1,1,2,1,1,1,2,1,2,2,1,1,2,2,1,2,2,2,2,1,1,2,2,2,2,2,1,2,1,2,2,1,2,1,1,2,1,2,2,2,1,1,2,2,2,2,2,1,2,1,2,2,2,2,1,2,1,2,2,1,2,2,2,1,2,1,2,1,1,2,2,2,2,2,2,2,2,1",
			"name": "Number of distinct prime factors in A337194(n) = 1+A000265(sigma(n)), where A000265(k) gives the odd part of k.",
			"comment": [
				"The first 3 occurs at a(137)."
			],
			"link": [
				"Antti Karttunen, \u003ca href=\"/A337198/b337198.txt\"\u003eTable of n, a(n) for n = 1..65537\u003c/a\u003e",
				"\u003ca href=\"/index/Si#SIGMAN\"\u003eIndex entries for sequences related to sigma(n)\u003c/a\u003e"
			],
			"formula": [
				"a(n) = A001221(A337194(n)) = 1 + A001221(A336698(n))."
			],
			"program": [
				"(PARI)",
				"A000265(n) = (n\u003e\u003evaluation(n,2));",
				"A337198(n) = (omega(1+A000265(sigma(n))));"
			],
			"xref": [
				"Cf. A000203, A000265, A001221, A161942, A336698, A337194.",
				"Cf. also A058062, A336691, A337199."
			],
			"keyword": "nonn",
			"offset": "1,9",
			"author": "_Antti Karttunen_, Aug 20 2020",
			"references": 3,
			"revision": 9,
			"time": "2020-08-20T21:24:54-04:00",
			"created": "2020-08-20T21:24:54-04:00"
		}
	]
}