{
	"greeting": "Greetings from The On-Line Encyclopedia of Integer Sequences! http://oeis.org/",
	"query": "id:A337002",
	"count": 1,
	"start": 0,
	"results": [
		{
			"number": 337002,
			"data": "0,1,18,135,796,4605,28926,204883,1643160,14795001,147960010,1627574751,19530917748,253901959285,3554627468406,53319412076715,853110593292976,14502880086064113,261051841549259010,4959984989436051511,99199699788721190220",
			"name": "a(n) = n! * Sum_{k=0..n} k^4 / k!.",
			"comment": [
				"Exponential convolution of fourth powers (A000583) and factorial numbers (A000142)."
			],
			"link": [
				"Seiichi Manyama, \u003ca href=\"/A337002/b337002.txt\"\u003eTable of n, a(n) for n = 0..449\u003c/a\u003e"
			],
			"formula": [
				"E.g.f.: x * (1 + 7*x + 6*x^2 + x^3) * exp(x) / (1 - x).",
				"a(0) = 0; a(n) = n * (n^3 + a(n-1))."
			],
			"mathematica": [
				"Table[n! Sum[k^4/k!, {k, 0, n}], {n, 0, 20}]",
				"nmax = 20; CoefficientList[Series[x (1 + 7 x + 6 x^2 + x^3) Exp[x]/(1 - x), {x, 0, nmax}], x] Range[0, nmax]!",
				"a[0] = 0; a[n_] := a[n] = n (n^3 + a[n - 1]); Table[a[n], {n, 0, 20}]"
			],
			"program": [
				"(PARI) a(n) = n! * sum(k=0, n, k^4/k!); \\\\ _Michel Marcus_, Aug 12 2020"
			],
			"xref": [
				"Cf. A000142, A000522, A000583, A007526, A030297, A256016, A337001."
			],
			"keyword": "nonn",
			"offset": "0,3",
			"author": "_Ilya Gutkovskiy_, Aug 10 2020",
			"references": 4,
			"revision": 10,
			"time": "2020-08-14T22:43:34-04:00",
			"created": "2020-08-10T22:16:47-04:00"
		}
	]
}