{
	"greeting": "Greetings from The On-Line Encyclopedia of Integer Sequences! http://oeis.org/",
	"query": "id:A337793",
	"count": 1,
	"start": 0,
	"results": [
		{
			"number": 337793,
			"data": "2,16,144,9216,57600,14515200,203212800,65028096000,1580182732800,421382062080000,6373403688960000,38546345510830080000,310206304349061120000,212801524783455928320000,47880343076277583872000000",
			"name": "Number of graceful labelings of the complete bipartite graph K_{n,n}.",
			"comment": [
				"For n \u003e 1, a(n) is a nonzero multiple of 4*(n!)^2. - _Bert Dobbelaere_, Sep 30 2020"
			],
			"link": [
				"Eric Weisstein's World of Mathematics, \u003ca href=\"http://mathworld.wolfram.com/CompleteBipartiteGraph.html\"\u003eComplete Bipartite Graph\u003c/a\u003e",
				"Eric Weisstein's World of Mathematics, \u003ca href=\"http://mathworld.wolfram.com/GracefulLabeling.html\"\u003eGraceful Labeling\u003c/a\u003e"
			],
			"formula": [
				"a(n) = 4*(n!)^2 A335619(n) for n \u003e 1."
			],
			"xref": [
				"Cf. A335619 (number of fundamentally different graceful labelings)."
			],
			"keyword": "nonn,more",
			"offset": "1,1",
			"author": "_Eric W. Weisstein_, Sep 22 2020",
			"ext": [
				"a(5)-a(9) from _Bert Dobbelaere_, Sep 30 2020",
				"a(10)-a(15) (using terms in A335619) from _Alois P. Heinz_, Dec 08 2020"
			],
			"references": 1,
			"revision": 21,
			"time": "2020-12-08T21:59:46-05:00",
			"created": "2020-09-26T10:51:06-04:00"
		}
	]
}