{
	"greeting": "Greetings from The On-Line Encyclopedia of Integer Sequences! http://oeis.org/",
	"query": "id:A338496",
	"count": 1,
	"start": 0,
	"results": [
		{
			"number": 338496,
			"data": "1,2,3,4,5,6,7,8,1,2,3,4,5,6,7,8,9,2,3,4,5,6,7,8,9,10,3,4,5,1,2,3,4,5,6,4,5,6,2,3,4,5,6,7,5,6,7,3,4,5,6,7,8,6,7,8,4,5,6,2,3,4,5,6,7,5,6,7,3,1,2,3,4,5,6,7,8,4,2,3,4,5,6,7,8,9,5,3,4,3,4,5,6,7,8,6,4,5,4,2,3",
			"name": "Least number of octagonal pyramidal numbers needed to represent n.",
			"link": [
				"Eric Weisstein's World of Mathematics, \u003ca href=\"https://mathworld.wolfram.com/PyramidalNumber.html\"\u003ePyramidal Number\u003c/a\u003e",
				"\u003ca href=\"/index/Ps#pyramidal_numbers\"\u003eIndex to sequences related to pyramidal numbers\u003c/a\u003e"
			],
			"xref": [
				"Cf. A002414, A104246, A338458, A338481, A338493, A338494, A338495."
			],
			"keyword": "nonn",
			"offset": "1,2",
			"author": "_Ilya Gutkovskiy_, Oct 31 2020",
			"references": 1,
			"revision": 4,
			"time": "2020-10-31T07:07:13-04:00",
			"created": "2020-10-31T07:07:13-04:00"
		}
	]
}