{
	"greeting": "Greetings from The On-Line Encyclopedia of Integer Sequences! http://oeis.org/",
	"query": "id:A338224",
	"count": 1,
	"start": 0,
	"results": [
		{
			"number": 338224,
			"data": "1,2,3,5,7,6,11,13,17,14,19,15,23,22,21,29,31,34,37,35,33,38,41,39,43,46,47,55,53,42,59,61,57,62,77,85,67,74,69,91,71,66,73,95,119,82,79,87,83,86,93,115,89,94,133,143,111,106,97,105,101,118,187,103",
			"name": "Multiplicative with a(A246655(k)) = prime(k) for any k \u003e 0 (where prime(k) denotes the k-th prime number).",
			"comment": [
				"All terms are distinct and squarefree.",
				"This sequence has similarities with A160102, however some squarefree numbers do not appear here."
			],
			"link": [
				"Rémy Sigrist, \u003ca href=\"/A338224/b338224.txt\"\u003eTable of n, a(n) for n = 1..10000\u003c/a\u003e"
			],
			"example": [
				"a(3) = a(A246655(2)) = prime(2) = 3.",
				"a(4) = a(A246655(3)) = prime(3) = 5.",
				"a(12) = a(3) * a(4) = 3*5 = 15."
			],
			"program": [
				"(PARI) pk = select(v -\u003e omega(v)==1, [1..m=64]); for (n=1, m, f=factor(n); print1 (prod(k=1, #f~, prime(setsearch(pk, f[k,1]^f[k,2])))\", \"))"
			],
			"xref": [
				"Cf. A005117, A160102, A246655."
			],
			"keyword": "nonn,mult",
			"offset": "1,2",
			"author": "_Rémy Sigrist_, Jan 30 2021",
			"references": 1,
			"revision": 13,
			"time": "2021-01-31T17:07:59-05:00",
			"created": "2021-01-31T08:13:03-05:00"
		}
	]
}