{
	"greeting": "Greetings from The On-Line Encyclopedia of Integer Sequences! http://oeis.org/",
	"query": "id:A338589",
	"count": 1,
	"start": 0,
	"results": [
		{
			"number": 338589,
			"data": "0,1,2,3,5,10,14,18,15,25,33,41,39,56,70,68,68,75,95,115,119,132,161,190,125,169,180,217,203,260,279,296,286,289,350,339,333,380,455,490,410,469,473,561,525,598,658,716,539,575,697,715,689,738,880,966,836,841,944,1105,915",
			"name": "Sum of the remainders (s*t mod n), where s + t = n and 1 \u003c= s \u003c= t.",
			"formula": [
				"a(n) = Sum_{i=1..floor(n/2)} ( i*(n-i) mod n )."
			],
			"example": [
				"a(6) = 10; ((1*5) mod 6) + ((2*4) mod 6) + ((3*3) mod 6) = 5 + 2 + 3 = 10."
			],
			"mathematica": [
				"Table[Sum[Mod[i (n - i), n], {i, Floor[n/2]}], {n, 80}]"
			],
			"keyword": "nonn",
			"offset": "1,3",
			"author": "_Wesley Ivan Hurt_, Nov 07 2020",
			"references": 0,
			"revision": 10,
			"time": "2020-11-22T21:32:44-05:00",
			"created": "2020-11-22T21:32:44-05:00"
		}
	]
}