{
	"greeting": "Greetings from The On-Line Encyclopedia of Integer Sequences! http://oeis.org/",
	"query": "id:A338356",
	"count": 1,
	"start": 0,
	"results": [
		{
			"number": 338356,
			"data": "1,2,3,5,7,9,13,16,20,23,27,33,36,42,46,49,53,60,66,69,75,80,83,89,93,99,107,112,115,119,122,127,140,145,151,154,163,166,173,179,183,190,196,199,210,213,217,220,231,242,246,249,254,261,264,275,281,287,294,297,303,307,310,321",
			"name": "Indices of records in A283312.",
			"comment": [
				"The records themselves are essentially twice the primes (A001747)."
			],
			"link": [
				"N. J. A. Sloane, \u003ca href=\"/A338356/b338356.txt\"\u003eTable of n, a(n) for n = 1..7100\u003c/a\u003e"
			],
			"xref": [
				"Cf. A001747, A283312."
			],
			"keyword": "nonn",
			"offset": "1,2",
			"author": "_N. J. A. Sloane_, Nov 03 2020",
			"references": 2,
			"revision": 10,
			"time": "2020-11-03T22:07:03-05:00",
			"created": "2020-11-03T14:58:31-05:00"
		}
	]
}