{
	"greeting": "Greetings from The On-Line Encyclopedia of Integer Sequences! http://oeis.org/",
	"query": "id:A338607",
	"count": 1,
	"start": 0,
	"results": [
		{
			"number": 338607,
			"data": "33256080,42325920,49884120,53721360,62078016,64664600,68468400,71628480,72747675,73513440,81477396,82162080,83140200,85765680,88682880,90530440,95855760,98017920,101846745,106696590,110270160,110853600,121938960,122522400,126095970",
			"name": "Resistance values R \u003c 1 ohm, multiplied by a common denominator 232792560 (= A338600(7)), that can be obtained from a network of exactly 7 one-ohm resistors, but not from any network with fewer than 7 one-ohm resistors.",
			"comment": [
				"The list of the A338197(7)/2 = 57 resistance values \u003c 1 ohm is A338587(n)/A338597(n). a(n) = 232792560 * [1/7, 2/11, 3/14, 3/13, 4/15, 5/18, 5/17, ..., 19/21, 11/12, 12/13, 13/14, 14/15, 15/16, 18/19]."
			],
			"link": [
				"Hugo Pfoertner, \u003ca href=\"/A338607/b338607.txt\"\u003eTable of n, a(n) for n = 1..57\u003c/a\u003e"
			],
			"xref": [
				"Cf. A180414, A338197, A338587, A338597, A338600, A338605, A338606, A338608, A338609."
			],
			"keyword": "nonn,fini,full",
			"offset": "1,1",
			"author": "_Hugo Pfoertner_, Nov 05 2020",
			"references": 7,
			"revision": 7,
			"time": "2020-11-16T02:09:13-05:00",
			"created": "2020-11-06T08:38:46-05:00"
		}
	]
}