{
	"greeting": "Greetings from The On-Line Encyclopedia of Integer Sequences! http://oeis.org/",
	"query": "id:A338104",
	"count": 1,
	"start": 0,
	"results": [
		{
			"number": 338104,
			"data": "1,4,1200,2074464,10883911680,128615328600000,2881502756476710912,109416128865750000000000,6508595325997684722663161856,572150341080161420030586961966080,71062412455566037275496151040000000000",
			"name": "Number of spanning trees in the join of the disjoint union of two complete graphs each on n vertices with the empty graph on n+1 vertices.",
			"comment": [
				"Equivalently, the graph can be described as the graph on 3*n + 1 vertices with labels 0..3*n and with i and j adjacent iff A011655(i + j) = 1.",
				"These graphs are cographs."
			],
			"link": [
				"H-Y. Ching, R. Florez, and A. Mukherjee, \u003ca href=\"https://arxiv.org/abs/2009.02770\"\u003eFamilies of Integral Cographs within a Triangular Arrays\u003c/a\u003e, arXiv:2009.02770 [math.CO], 2020.",
				"Eric Weisstein's World of Mathematics, \u003ca href=\"http://mathworld.wolfram.com/SpanningTree.html\"\u003eSpanning Tree\u003c/a\u003e"
			],
			"formula": [
				"a(n) = (n + 1)*(2*n)^n*(2*n + 1)^(2*(n - 1))."
			],
			"example": [
				"The adjacency matrix of the graph associated with n = 2 is: (compare A204437)",
				"  [0, 1, 1, 0, 1, 1, 0]",
				"  [1, 0, 0, 1, 1, 0, 1]",
				"  [1, 0, 0, 1, 0, 1, 1]",
				"  [0, 1, 1, 0, 1, 1, 0]",
				"  [1, 1, 0, 1, 0, 0, 1]",
				"  [1, 0, 1, 1, 0, 0, 1]",
				"  [0, 1, 1, 0, 1, 1, 0]",
				"a(2) = 1200 because the graph has 1200 spanning trees."
			],
			"mathematica": [
				"Table[(n + 1)*(2 n)^n*(2 n + 1)^(2 (n - 1)), {n, 1, 10}]"
			],
			"xref": [
				"Cf. A011655, A204437, A338109."
			],
			"keyword": "nonn",
			"offset": "0,2",
			"author": "_Rigoberto Florez_, Oct 10 2020",
			"references": 4,
			"revision": 40,
			"time": "2020-11-07T12:02:06-05:00",
			"created": "2020-11-07T12:02:06-05:00"
		}
	]
}