{
	"greeting": "Greetings from The On-Line Encyclopedia of Integer Sequences! http://oeis.org/",
	"query": "id:A338387",
	"count": 1,
	"start": 0,
	"results": [
		{
			"number": 338387,
			"data": "1,3,4,6,7,9,12,13,15,16,17,20,21,23,24,26,27,28,29,30,32,34,35,38,39,40,41,43,44,45,47,49,50,54,56,60,61,62,63,64,66,68,69,71,74,75,76,77,79,80,81,83,84,85,86,89,90,91,95,97,99,100,101,105,106,107",
			"name": "Numbers k such that there are no biquadratefree powerful numbers (A338325) between k^2 and (k+1)^2.",
			"comment": [
				"Positions of 0's in A338326.",
				"The asymptotic density of this sequence is 0.623265038... (Dehkordi, 1998)."
			],
			"link": [
				"Amiram Eldar, \u003ca href=\"/A338387/b338387.txt\"\u003eTable of n, a(n) for n = 1..10000\u003c/a\u003e",
				"Massoud H. Dehkordi, \u003ca href=\"https://hdl.handle.net/2134/12177\"\u003eAsymptotic formulae for some arithmetic functions in number theory\u003c/a\u003e, Ph.D. thesis, Loughborough University, 1998."
			],
			"example": [
				"1 is a term since the two numbers between 1^2 = 1 and (1+1)^2 = 4, 2 and 3, are not biquadratefree powerful.",
				"2 is not a term since there is a biquadratefree powerful number, 8 = 2^3, between 2^2 = 4 and (2+1)^2 = 9."
			],
			"mathematica": [
				"bqfpowQ[n_] := AllTrue[FactorInteger[n][[;; , 2]], MemberQ[{2, 3}, #] \u0026]; Select[Range[100], !AnyTrue[Range[#^2 + 1, (# + 1)^2 - 1], bqfpowQ] \u0026]"
			],
			"xref": [
				"Cf. A336175, A338325, A338326, A338327, A338388, A338389, A338390, A338391, A338392."
			],
			"keyword": "nonn",
			"offset": "1,2",
			"author": "_Amiram Eldar_, Oct 23 2020",
			"references": 6,
			"revision": 10,
			"time": "2020-10-24T04:03:42-04:00",
			"created": "2020-10-23T18:18:07-04:00"
		}
	]
}