{
	"greeting": "Greetings from The On-Line Encyclopedia of Integer Sequences! http://oeis.org/",
	"query": "id:A338823",
	"count": 1,
	"start": 0,
	"results": [
		{
			"number": 338823,
			"data": "1,1,2,2,4,1,6,8,1,10,2,13,1,16,2,17,4,4,8,8,16,4,18,5,24,1,26,2,28,3,32,1,36,2,32,4,24,32,7,40,1,42,2,44,1,48,2,49,4,40,8,49,6,48,4,56,2,57,4,58,5,64,1,66,2,68,3,72,1,76,2,72,4,64,8,71",
			"name": "Lexicographically earliest sequence of positive integers such that for any distinct m and n, a(m) OR a(m+1) \u003c\u003e a(n) OR a(n+1) (where OR denotes the bitwise OR operator).",
			"link": [
				"Rémy Sigrist, \u003ca href=\"/A338823/b338823.txt\"\u003eTable of n, a(n) for n = 1..10000\u003c/a\u003e",
				"Rémy Sigrist, \u003ca href=\"/A338823/a338823.png\"\u003eColored scatterplot of the first 10000 terms\u003c/a\u003e (where the color is function of the parity of n)",
				"Rémy Sigrist, \u003ca href=\"/A338823/a338823.txt\"\u003eC program for A338823\u003c/a\u003e"
			],
			"example": [
				"The first terms, alongside a(n) OR a(n+1), are:",
				"  n   a(n)  a(n) OR a(n+1)",
				"  --  ----  --------------",
				"   1     1               1",
				"   2     1               3",
				"   3     2               2",
				"   4     2               6",
				"   5     4               5",
				"   6     1               7",
				"   7     6              14",
				"   8     8               9",
				"   9     1              11",
				"  10    10              10",
				"  11     2              15",
				"  12    13              13"
			],
			"mathematica": [
				"Block[{a = {1, 1}, b = {1}}, Do[Block[{k = 1, m}, While[! FreeQ[b, Set[m, BitOr @@ {a[[-1]], k}]], k++]; AppendTo[a, k]; AppendTo[b, m]], {i, 3, 76}]; a] (* _Michael De Vlieger_, Nov 12 2020 *)"
			],
			"program": [
				"(C) See Links section."
			],
			"xref": [
				"Cf. A088177, A338824."
			],
			"keyword": "nonn,base",
			"offset": "1,3",
			"author": "_Rémy Sigrist_, Nov 11 2020",
			"references": 2,
			"revision": 12,
			"time": "2020-11-14T01:50:51-05:00",
			"created": "2020-11-13T14:21:10-05:00"
		}
	]
}