{
	"greeting": "Greetings from The On-Line Encyclopedia of Integer Sequences! http://oeis.org/",
	"query": "id:A338583",
	"count": 1,
	"start": 0,
	"results": [
		{
			"number": 338583,
			"data": "1,2,3,10,29,94,343,1291,5206,22061,96908,439837,2053916,9841412,48319944,242857491,1248629027,6563581656,35258560001,193463945790",
			"name": "Number of unlabeled 3-connected nonplanar graphs with n edges.",
			"link": [
				"Hugo Pfoertner, \u003ca href=\"/A338583/a338583.pdf\"\u003eIllustrations of terms a(9) - a(12)\u003c/a\u003e."
			],
			"formula": [
				"a(n) = A338511(n) - A002840(n).",
				"a(n) \u003c= A338593(n). The difference A338584(n) = A338593(n)-a(n) are the counts of nonplanar connected graphs with minimum degree 3 at each node that are not 3-connected."
			],
			"xref": [
				"Cf. A002840, A006290, A337517, A338197, A338511, A338573, A338584, A338593, A338594, A338604."
			],
			"keyword": "nonn,more",
			"offset": "9,2",
			"author": "_Hugo Pfoertner_, Nov 21 2020",
			"references": 5,
			"revision": 6,
			"time": "2020-12-01T17:10:09-05:00",
			"created": "2020-12-01T17:10:09-05:00"
		}
	]
}