{
	"greeting": "Greetings from The On-Line Encyclopedia of Integer Sequences! http://oeis.org/",
	"query": "id:A338785",
	"count": 1,
	"start": 0,
	"results": [
		{
			"number": 338785,
			"data": "1,2,13,4,6,8,21,11,30,14,18,27,44,41,29,43,37,34,68,36,42,94,147,58,88,47,186,93,142,75,110,90,112,67,178,228,82,114,100,222,187,105,191,143,204,131,180,115,172,177,197,133,263,272,353,175,231,242,322,157",
			"name": "a(n) is the least number k such that continued fraction for sqrt(prime(k)) has period n.",
			"link": [
				"Robert Israel, \u003ca href=\"/A338785/b338785.txt\"\u003eTable of n, a(n) for n = 1..1000\u003c/a\u003e"
			],
			"formula": [
				"a(n) = A000720(A059800(n))."
			],
			"example": [
				"sqrt(prime(1))  = sqrt(2)  = 1 + 1/(2 + 1/(2 + ...)), period 1.",
				"sqrt(prime(2))  = sqrt(3)  = 1 + 1/(1 + 1/(2 + 1/(1 + 1/(2 + ...)))), period 2.",
				"sqrt(prime(13)) = sqrt(41) = 6 + 1/(2 + 1/(2 + 1/(12 + 1/(2 + 1/(2 + 1/(12 + ...)))))), period 3."
			],
			"maple": [
				"N:= 100: # for a(1)..a(N)",
				"A:= Vector(N): count:= 0: p:= 1:",
				"for n from 1 while count \u003c N do",
				"  p:= nextprime(p);",
				"  v:= nops(numtheory:-cfrac(sqrt(p),periodic,quotients)[2]);",
				"  if v \u003c= N and A[v] = 0 then count:= count+1; A[v]:= n; fi",
				"od:",
				"convert(A,list); # _Robert Israel_, Nov 11 2020"
			],
			"mathematica": [
				"Table[SelectFirst[Range[500], Length[Last[ContinuedFraction[Sqrt[Prime[#]]]]] == n \u0026], {n, 60}]"
			],
			"xref": [
				"Cf. A000720, A013646, A054269, A059800."
			],
			"keyword": "nonn",
			"offset": "1,2",
			"author": "_Ilya Gutkovskiy_, Nov 08 2020",
			"references": 1,
			"revision": 11,
			"time": "2020-11-11T19:37:57-05:00",
			"created": "2020-11-08T23:14:14-05:00"
		}
	]
}