{
	"greeting": "Greetings from The On-Line Encyclopedia of Integer Sequences! http://oeis.org/",
	"query": "id:A338016",
	"count": 1,
	"start": 0,
	"results": [
		{
			"number": 338016,
			"data": "0,0,9,0,12,16,0,30,40,100,0,54,72,180,324,0,69,92,230,414,529,0,102,136,340,612,782,1156,0,165,220,550,990,1265,1870,3025,0,201,268,670,1206,1541,2278,3685,4489,0,279,372,930,1674,2139,3162,5115,6231,8649",
			"name": "Triangular array read by rows: T(n,k) = A338012(n) * A338012(k) for 1 \u003c= k \u003c= n.",
			"link": [
				"Peter Kagey, \u003ca href=\"/A338016/b338016.txt\"\u003eTable of n, a(n) for n = 1..10011\u003c/a\u003e (first 141 rows, flattened)"
			],
			"example": [
				"Multiplication table begins:",
				"   * | 0   3   4  10   18   23   34   55   67",
				"-----+---------------------------------------",
				"   0 | 0",
				"   3 | 0   9",
				"   4 | 0  12  16",
				"  10 | 0  30  40 100",
				"  18 | 0  54  72 180  324",
				"  23 | 0  69  92 230  414  529",
				"  34 | 0 102 136 340  612  782 1156",
				"  55 | 0 165 220 550  990 1265 1870 3025",
				"  67 | 0 201 268 670 1206 1541 2278 3685 4489"
			],
			"xref": [
				"Cf. A338012, A338014 (addition), A338017 (by antidiagonals).",
				"Cf. A337661, A337974."
			],
			"keyword": "nonn,tabl",
			"offset": "1,3",
			"author": "_Peter Kagey_, Oct 06 2020",
			"references": 6,
			"revision": 12,
			"time": "2020-10-09T03:35:40-04:00",
			"created": "2020-10-07T19:59:22-04:00"
		}
	]
}