{
	"greeting": "Greetings from The On-Line Encyclopedia of Integer Sequences! http://oeis.org/",
	"query": "id:A338322",
	"count": 1,
	"start": 0,
	"results": [
		{
			"number": 338322,
			"data": "0,0,0,4,32,116,320,728,1472,2796,5056,8584,13792,21136,31168,45464,64704,90036,122784,164472,216864,281584,360416,457400,574304,714644,881312,1077612,1306720,1575088,1884928,2245336,2658592,3130028,3665376,4277376,4967424",
			"name": "a(n) is the number of regular hexagons with all six vertices (x,y,z) in the set {1,2,...,n}^3.",
			"link": [
				"Peter Kagey, \u003ca href=\"/A338322/b338322.txt\"\u003eTable of n, a(n) for n = 0..100\u003c/a\u003e",
				"Code Golf Stack Exchange, \u003ca href=\"https://codegolf.stackexchange.com/q/213988/53884\"\u003ePolygons in a cube\u003c/a\u003e",
				"Burkard Polster, \u003ca href=\"https://youtu.be/sDfzCIWpS7Q?t=799\"\u003eWhat does this prove? Some of the most gorgeous visual \"shrink\" proofs ever invented\u003c/a\u003e, Mathologer video (2020)."
			],
			"formula": [
				"a(n) \u003e= 4*(n-2)^3 for n \u003e= 2."
			],
			"example": [
				"The a(3) = 4 hexagons with integer coordinates in {1,2,3} have vertices:",
				"  (1,1,2), (1,2,3), (2,1,1), (2,3,3), (3,2,1), (3,3,2);",
				"  (1,1,2), (1,2,1), (2,1,3), (2,3,1), (3,2,3), (3,3,2);",
				"  (1,2,1), (1,3,2), (2,1,1), (2,3,3), (3,1,2), (3,2,3); and",
				"  (1,2,3), (1,3,2), (2,1,3), (2,3,1), (3,1,2), (3,2,1).",
				"One the a(5) = 116 hexagons has vertices:",
				"  (2,2,1), (1,4,2), (2,5,4), (4,4,5), (5,2,4), (4,1,2)."
			],
			"xref": [
				"Cf. A102698 (equilateral triangles), A334881 (squares), A338323 (regular polygons)."
			],
			"keyword": "nonn",
			"offset": "0,4",
			"author": "_Peter Kagey_, Oct 22 2020",
			"references": 2,
			"revision": 20,
			"time": "2020-11-03T02:45:10-05:00",
			"created": "2020-10-24T17:22:10-04:00"
		}
	]
}