{
	"greeting": "Greetings from The On-Line Encyclopedia of Integer Sequences! http://oeis.org/",
	"query": "id:A338776",
	"count": 1,
	"start": 0,
	"results": [
		{
			"number": 338776,
			"data": "0,0,0,1,1,1,1,1,1,2,1,2,3,2,1,3,1,2,3,2,2,3,2,2,4,2,2,4,2,3,5,2,3,4,1,4,5,3,3,5,3,4,7,3,3,8,3,4,6,3,5,7,3,4,6,4,5,8,4,5,11,4,4,10,3,6,8,4,4,6,6,5,9,5,4,11,3,6,9,4,6,8,4,5,11",
			"name": "a(n) = card(GB(2*n)), where GB(n) is the set of primes which are Goldbach-associated with n.",
			"comment": [
				"For an integer n \u003e= 0 we say a prime p is gb-associated with n if sqrt(n) \u003c p \u003c= n/2 and no prime q which is \u003c= sqrt(n) divides p*(p - n). Let GB(n) be the set of integers which are gb-associated with n (for examples see A338777). a(n) is the number of primes which are gb-associated with n.",
				"If a(n) \u003e 0 for n \u003e= 3 then Goldbach's conjecture is true."
			],
			"link": [
				"Peter Luschny, \u003ca href=\"/A338776/b338776.txt\"\u003eTable of n, a(n) for n = 0..1000\u003c/a\u003e"
			],
			"formula": [
				"a(n) \u003c= A002375(n).",
				"a(n) = A002375(n) \u003c=\u003e n in A244408 (for n \u003e= 2)."
			],
			"example": [
				"Comparison of the sets whose cardinality is given by A002375(n) resp. a(n).",
				"m  A002375          A338776",
				"32 [29, 19]         [19]",
				"34 [31, 29, 23, 17] [23, 17]",
				"36 [31, 29, 23, 19] [29, 23, 19]",
				"38 [31, 19]         [31, 19]"
			],
			"program": [
				"(SageMath) # [using gb_associated from A338777]",
				"def A338776(n):",
				"    return len(gb_associated(2*n))",
				"print([A338776(n) for n in range(87)])"
			],
			"xref": [
				"Cf. A338777, A002375, A244408."
			],
			"keyword": "nonn",
			"offset": "0,10",
			"author": "_Peter Luschny_, Nov 08 2020",
			"references": 2,
			"revision": 14,
			"time": "2020-11-09T08:35:06-05:00",
			"created": "2020-11-08T10:18:40-05:00"
		}
	]
}