{
	"greeting": "Greetings from The On-Line Encyclopedia of Integer Sequences! http://oeis.org/",
	"query": "id:A338426",
	"count": 1,
	"start": 0,
	"results": [
		{
			"number": 338426,
			"data": "1,2,28,154,1206,8364,60614,432636,3104484,22235310,159360540,1141875800,8182608226,58634396372,420162632840,3010793013534,21574706493988,154599722419136,1107828637412194,7938463325113516,56885333141857872,407628148378295190",
			"name": "a(n) is the number of paths a chess king can take from (0,0) to (n+1,0) touching each point in {-1,0,1} X {1,2,...,n} exactly once.",
			"link": [
				"Peter Kagey, \u003ca href=\"/A338426/b338426.txt\"\u003eTable of n, a(n) for n = 0..1000\u003c/a\u003e",
				"Code Golf Stack Exchange user Bubbler, \u003ca href=\"https://codegolf.stackexchange.com/q/206897/53884\"\u003eCounting King's Hamiltonian Paths through 3-by-N grid\u003c/a\u003e"
			],
			"formula": [
				"a(n) = 7*a(n-1) + 6*a(n-2) - 39*a(n-3) + 29*a(n-4) + 28*a(n-5) - 26*a(n-6) - 10*a(n-7) + 6*a(n-8) for n \u003e= 8."
			],
			"example": [
				"For n = 1, the a(1) = 2 paths are (0,0)-\u003e(1,1)-\u003e(1,0)-\u003e(1,-1)-\u003e(2,0) and (0,0)-\u003e(1,-1)-\u003e(1,0)-\u003e(1,1)-\u003e(2,0).",
				"An example of one of the a(2) = 28 paths is (0,0)-\u003e(1,1)-\u003e(2,1)-\u003e(2,0)-\u003e(1,-1)-\u003e(1,0)-\u003e(2,-1)-\u003e(3,0)."
			],
			"xref": [
				"Cf. A140518, A158651, A193168, A272445."
			],
			"keyword": "nonn,walk",
			"offset": "0,2",
			"author": "_Peter Kagey_, Oct 25 2020",
			"references": 1,
			"revision": 17,
			"time": "2020-11-01T16:17:58-05:00",
			"created": "2020-10-25T22:57:13-04:00"
		}
	]
}