{
	"greeting": "Greetings from The On-Line Encyclopedia of Integer Sequences! http://oeis.org/",
	"query": "id:A338917",
	"count": 1,
	"start": 0,
	"results": [
		{
			"number": 338917,
			"data": "1,2,2,4,7,7,25,34,151,331,1690,3265,26449,64528,574513,1671208,16090657,54199564,559922497,2133503863,23506132363",
			"name": "a(n) = sum_of_digits(a(n-1)^a(n-2)) where a(1)=1 and a(2)=2.",
			"link": [
				"GeeksforGeeks, \u003ca href=\"https://www.geeksforgeeks.org/sum-digits-given-number-given-power\"\u003eSum of digits of a given number to a given power\u003c/a\u003e"
			],
			"formula": [
				"a(n) == 7 (mod 9) for n \u003e= 5. - _Hugo Pfoertner_, Nov 15 2020"
			],
			"example": [
				"for n=6, a(6) = sum_of_digits(7^7) = sum_of_digits(823543) = 25"
			],
			"mathematica": [
				"a[1]:=1; a[2]:=2; a[n_]:=Total[IntegerDigits[a[n-1]^a[n-2]]]; Array[a,19] (* _Stefano Spezia_, Nov 15 2020 *)"
			],
			"program": [
				"(SageMath)",
				"a,b=1,2",
				"L=[a,b]",
				"for n in [1..17]:",
				"    c=b^a",
				"    c=sum(c.digits())",
				"    L.append(c)",
				"    a,b=b,c",
				"print(L)",
				"(PARI) a338917(nmax)={my(x=vector(nmax));x[1]=1;x[2]=2;for(k=3,nmax,x[k]=sumdigits(x[k-1]^x[k-2]));x};",
				"a338917(18) \\\\ _Hugo Pfoertner_, Nov 15 2020"
			],
			"xref": [
				"Cf. A007953."
			],
			"keyword": "nonn,base,more",
			"offset": "1,2",
			"author": "_Sean Lestrange_, Nov 15 2020",
			"ext": [
				"a(20) from _Hugo Pfoertner_, Nov 15 2020",
				"a(21) from _Chai Wah Wu_, Nov 19 2020"
			],
			"references": 1,
			"revision": 21,
			"time": "2020-11-19T18:36:14-05:00",
			"created": "2020-11-15T12:48:38-05:00"
		}
	]
}