{
	"greeting": "Greetings from The On-Line Encyclopedia of Integer Sequences! http://oeis.org/",
	"query": "id:A338360",
	"count": 1,
	"start": 0,
	"results": [
		{
			"number": 338360,
			"data": "1,2,3,5,7,9,14,16,21,23,28,35,37,43,47,49,54,62,67,69,76,81,83,90,95,100,109,113,115,120,122,128,142,147,152,155,166,168,174,180,185,192,199,201,212,214,219,221,234,245,247,250,257,262,264,277,284,290,295,297,304,308,310,325",
			"name": "Indices of records in A280985.",
			"comment": [
				"The records themselves are essentially twice the primes (A001747)."
			],
			"link": [
				"N. J. A. Sloane, \u003ca href=\"/A338360/b338360.txt\"\u003eTable of n, a(n) for n = 1..7098\u003c/a\u003e"
			],
			"xref": [
				"Cf. A001747, A280985."
			],
			"keyword": "nonn",
			"offset": "1,2",
			"author": "_N. J. A. Sloane_, Nov 03 2020",
			"references": 1,
			"revision": 7,
			"time": "2020-11-03T22:19:53-05:00",
			"created": "2020-11-03T22:17:15-05:00"
		}
	]
}