{
	"greeting": "Greetings from The On-Line Encyclopedia of Integer Sequences! http://oeis.org/",
	"query": "id:A339579",
	"count": 1,
	"start": 0,
	"results": [
		{
			"number": 339579,
			"data": "4,3,5,2,0,4,0,1,0,0,0,3,0,1,0,0,0,1,0,1,0,0,0,2,0,0,0,0,0,2,0,1,0,0,0,0,0,1,0,0,0,3,0,1,0,0,0,1,0,0,0,0,0,2,0,0,0,0,0,1,0,1,0,0,0,0,0,1,0,0,0,1,0,1,0,0,0,0,0,1,0,0,0,2,0,0,0,0,0,6,0,0,0,0,0",
			"name": "a(n) = least nonnegative integer k such that n*2^k - 1 is composite.",
			"comment": [
				"Conjectured to grow without limit.",
				"A063377 is an essentially identical sequence, although with a slightly different definition, different initial terms, and different offset."
			],
			"reference": [
				"Carl Pomerance, Problem 81:21 (= 321), in R. K. Guy problem list."
			],
			"link": [
				"Antti Karttunen, \u003ca href=\"/A339579/b339579.txt\"\u003eTable of n, a(n) for n = 1..65537\u003c/a\u003e",
				"R. K. Guy, editor, \u003ca href=\"/A339579/a339579.pdf\"\u003eWestern Number Theory Problems, 1985-12-21 \u0026 23\u003c/a\u003e, Typescript, Jul 13 1986, Dept. of Math. and Stat., Univ. Calgary, 11 pages. Annotated scan of pages 1, 3, 7, 9, with permission."
			],
			"formula": [
				"For n \u003e= 3, a(n) = A063377(n-1)."
			],
			"program": [
				"(PARI) A339579(n) = for(k=0,oo,my(t=(n*(2^k))-1); if((t\u003e1)\u0026\u0026!isprime(t), return(k))); \\\\ _Antti Karttunen_, Dec 24 2020"
			],
			"xref": [
				"See A339580 for records.",
				"Cf. A063377, A063378, A339581."
			],
			"keyword": "nonn",
			"offset": "1,1",
			"author": "_N. J. A. Sloane_, Dec 24 2020",
			"references": 8,
			"revision": 26,
			"time": "2020-12-25T10:37:40-05:00",
			"created": "2020-12-24T08:24:42-05:00"
		}
	]
}