{
	"greeting": "Greetings from The On-Line Encyclopedia of Integer Sequences! http://oeis.org/",
	"query": "id:A339215",
	"count": 1,
	"start": 0,
	"results": [
		{
			"number": 339215,
			"data": "1,4,11,18,25,32,35,42,49,56,63,66,73,80,87,94,97,104,111,118,125,128,135,142,149,156,159,166,173,180,187,190,197,204,229,236,243,246,253,260,267,274,277,284,291,298,305,308,315,322,329,336,339,346,353,360",
			"name": "Primorial-base self numbers: numbers not of the form k + A276150(k).",
			"comment": [
				"Analogous to self numbers (A003052) using primorial base representation (A049345) instead of decimal expansion."
			],
			"reference": [
				"József Sándor and Borislav Crstici, Handbook of Number theory II, Kluwer Academic Publishers, 2004, Chapter 4, pp. 384-386."
			],
			"link": [
				"Amiram Eldar, \u003ca href=\"/A339215/b339215.txt\"\u003eTable of n, a(n) for n = 1..10000\u003c/a\u003e",
				"Eric Weisstein's World of Mathematics, \u003ca href=\"http://mathworld.wolfram.com/SelfNumber.html\"\u003eSelf Number\u003c/a\u003e.",
				"Wikipedia, \u003ca href=\"https://en.wikipedia.org/wiki/Mixed_radix#Primorial_number_system\"\u003ePrimorial number system\u003c/a\u003e.",
				"Wikipedia, \u003ca href=\"http://en.wikipedia.org/wiki/Self_number\"\u003eSelf number\u003c/a\u003e.",
				"\u003ca href=\"/index/Coi#Colombian\"\u003eIndex entries for Colombian or self numbers and related sequences\u003c/a\u003e"
			],
			"mathematica": [
				"max = 4; bases = Prime@Range[max, 1, -1]; m = Times @@ bases; s[n_] := n + Plus @@ IntegerDigits[n, MixedRadix[bases]]; Complement[Range[m], Array[s, m]]"
			],
			"xref": [
				"Cf. A003052, A010061, A010064, A010067, A010070, A049345, A276150, A333426, A339211, A339212, A339213, A339214."
			],
			"keyword": "nonn,base",
			"offset": "1,2",
			"author": "_Amiram Eldar_, Nov 27 2020",
			"references": 8,
			"revision": 10,
			"time": "2021-02-16T09:51:37-05:00",
			"created": "2020-11-28T09:11:45-05:00"
		}
	]
}