{
	"greeting": "Greetings from The On-Line Encyclopedia of Integer Sequences! http://oeis.org/",
	"query": "id:A339974",
	"count": 1,
	"start": 0,
	"results": [
		{
			"number": 339974,
			"data": "3,7,11,19,31,37,59,61,83,103,107,131",
			"name": "Odd primes that do not occur as the greatest prime divisor of any such odd composite k for which the odd part of phi(k) divides k-1.",
			"comment": [
				"Odd primes that do not occur as the greatest prime divisor (A006530) of any of the terms of A339880.",
				"Naive way of computing (essentially an exhaustive search): apply A000523 to the terms of A339973, select unique values, add +2, and take the corresponding prime.",
				"Questions: Is this sequence finite? If infinite, are there still only a finite number of 4k+1 primes (A002144) like 37 and 61?",
				"a(13) \u003e= 149, if it exists."
			],
			"example": [
				"Prime 127 is NOT a member, because there exists a squarefree composite number 10697881195 = 5*29*53*97*113*127, for which A053575(10697881195) = A336466(10697881195) = 120393, which is a divisor of 10697881195-1. Note that 10697881195 is a term of A339880, but not that of A339870."
			],
			"xref": [
				"Cf. A000523, A002144, A006530, A053575, A336466, A339870, A339880, A339973.",
				"Cf. also A339869."
			],
			"keyword": "nonn,more,hard",
			"offset": "1,1",
			"author": "_Antti Karttunen_, Dec 27 2020",
			"references": 3,
			"revision": 28,
			"time": "2020-12-27T19:32:13-05:00",
			"created": "2020-12-27T19:32:13-05:00"
		}
	]
}