{
	"greeting": "Greetings from The On-Line Encyclopedia of Integer Sequences! http://oeis.org/",
	"query": "id:A339270",
	"count": 1,
	"start": 0,
	"results": [
		{
			"number": 339270,
			"data": "0,1,1,2,1,2,1,2,4,1,2,3,1,2,4,5,1,2,3,1,2,3,4,6,3,1,2,1,2,4,3,4,1,2,1,2,5,3,4,5,1,2,1,2,1,2,11,3,1,2,4,1,2,5,5,5,1,2,3,1,2,10,3,1,2,4,5,6,1,2,4,6,5,5,3,4,6,3,4,8,1,2,1,2,3,4,6,3,1,2,4,7",
			"name": "a(n) is the largest m such that there is no prime except prime(n) from prime(n)-m+1 to prime(n)+m.",
			"comment": [
				"For a prime p, the degree of insulation is formally defined as D(p) = Max_{m=1..oo} U where the set U = {m: A000720(p+m) - A000720(p-m) = 1}.",
				"This sequence is employed in defining insulated primes and highly insulated primes."
			],
			"link": [
				"Robert Israel, \u003ca href=\"/A339270/b339270.txt\"\u003eTable of n, a(n) for n = 1..10000\u003c/a\u003e",
				"Abhimanyu Kumar and Anuraag Saxena, \u003ca href=\"https://arxiv.org/abs/2011.14210\"\u003eInsulated primes\u003c/a\u003e, arXiv:2011.14210 [math.NT], 2020."
			],
			"maple": [
				"f:= p -\u003e min(nextprime(p)-p-1, p-prevprime(p)): f(2):= 0:",
				"map(f@ithprime, [$1..100]); # _Robert Israel_, Dec 24 2020"
			],
			"mathematica": [
				"{0}~Join~Array[Min[NextPrime[# + 1] - # - 1, # - NextPrime[# - 1, -1]] \u0026@ Prime@ # \u0026, 91, 2] (* _Michael De Vlieger_, Dec 11 2020 *)"
			],
			"program": [
				"(PARI)",
				"D(p)={min(nextprime(p+1)-p-1, p-precprime(p-1))}",
				"forprime(p=2, 1000, print1(D(p), \", \"))"
			],
			"xref": [
				"Cf. A000040, A000720, A339148 (insulated primes), A339188 (highly insulated primes).",
				"Related sequences: A046929."
			],
			"keyword": "nonn",
			"offset": "1,4",
			"author": "_Abhimanyu Kumar_, Nov 29 2020",
			"references": 1,
			"revision": 16,
			"time": "2020-12-24T21:10:56-05:00",
			"created": "2020-12-23T08:43:25-05:00"
		}
	]
}