{
	"greeting": "Greetings from The On-Line Encyclopedia of Integer Sequences! http://oeis.org/",
	"query": "id:A339053",
	"count": 1,
	"start": 0,
	"results": [
		{
			"number": 339053,
			"data": "3,3,3,3,7,7,7,7,7,7,45,45,45,45,45,45,45,45,45,45,45,45,45,45,45,45,45,45,45,45,45,45,45,45,45,45,45,45,45,45,45,45,45,45,45,45,45,45,45,45,45,45,45,45,45,45,45,45,45,45,45,45,45,45,45,45,45",
			"name": "a(n) = least k such that the first n-block in A339051 occurs in A339052 beginning at the k-th term.",
			"comment": [
				"The sequence begins with 4 3's, 6 7's, 62 45's, 116 117's, 1104 799's, followed by 2091.  Conjecture: the sequence includes infinitely many distinct numbers; if so, then every finite block in A339051 occurs infinitely many times in A339052."
			],
			"example": [
				"Let W denote the infinite Fibonacci word A096270.",
				"A339051 = even bisection of W: 00111011100110011001110 . . .",
				"A339052 = odd bisection of W:  11001100111011101110011 . . .",
				"Using offset 1 for A339052, block #1 of A339051 is 0, which first occurs in A339052 beginning at the 3rd term, so a(1) = 3; block #5 of A339051 is 00110, which first occurs in A339052 beginning at the 7th term, so a(5) = 7."
			],
			"mathematica": [
				"r = (1 + Sqrt[5])/2; z = 3000;",
				"f[n_] := Floor[(n + 1) r] - Floor[n r] - 1   (* A096270 *)",
				"u = Table [f[2 n], {n, 0, Floor[z/2]}];      (* A339051 *)",
				"v = Table [f[2 n + 1], {n, 0, Floor[z/2]}];  (* A339052 *)",
				"a[n_] := Select[Range[z], Take[u, n] == Take[v, {#, # + n - 1}] \u0026, 1]",
				"Flatten[Table[a[n], {n, 1, 300}]]  (* A339053 *)"
			],
			"xref": [
				"Cf. A001622, A096270, A339051, A339052, A339054."
			],
			"keyword": "nonn",
			"offset": "1,1",
			"author": "_Clark Kimberling_, Dec 08 2020",
			"references": 4,
			"revision": 9,
			"time": "2020-12-18T04:24:07-05:00",
			"created": "2020-12-18T04:24:07-05:00"
		}
	]
}