{
	"greeting": "Greetings from The On-Line Encyclopedia of Integer Sequences! http://oeis.org/",
	"query": "id:A339910",
	"count": 1,
	"start": 0,
	"results": [
		{
			"number": 339910,
			"data": "1,5,7,9,11,13,17,19,21,23,25,29,31,33,37,41,43,46,47,49,51,53,55,57,59,61,65,67,69,71,73,77,79,81,82,83,85,89,91,93,97,101,103,105,106,107,109,111,113,115,118,121,127,129,131,133,137,139,141,145,149,151,153,155,157,161,163,166,167,169,173,177,179",
			"name": "After 1, numbers k \u003e 1 such that k has less prime divisors than k-1, when they are counted with multiplicity.",
			"comment": [
				"List of starts of nondecreasing runs of values of A001222 (= bigomega, number of prime factors, when counted with multiplicity).",
				"Differs from A303578 (a similar sequence computed for tau, the number of divisors) for the first time at n=44, where a(44) = 105, a term missing from A303578."
			],
			"link": [
				"Antti Karttunen, \u003ca href=\"/A339910/b339910.txt\"\u003eTable of n, a(n) for n = 1..28208; all terms \u003c= 65537\u003c/a\u003e"
			],
			"mathematica": [
				"1 + {0}~Join~Position[Sign@ Differences[Array[PrimeOmega, 180]], -1][[All, 1]] (* _Michael De Vlieger_, Dec 22 2020 *)"
			],
			"program": [
				"(PARI) isA339910(n) = ((1==n)||(bigomega(n)\u003cbigomega(n-1)));"
			],
			"xref": [
				"Cf. A001222.",
				"One more than A322839.",
				"Cf. A339911, A339912 for subsequences,",
				"Cf. also A303578."
			],
			"keyword": "nonn",
			"offset": "1,2",
			"author": "_Antti Karttunen_, Dec 22 2020",
			"references": 4,
			"revision": 14,
			"time": "2020-12-23T04:11:35-05:00",
			"created": "2020-12-23T04:11:35-05:00"
		}
	]
}