{
	"greeting": "Greetings from The On-Line Encyclopedia of Integer Sequences! http://oeis.org/",
	"query": "id:A339551",
	"count": 1,
	"start": 0,
	"results": [
		{
			"number": 339551,
			"data": "513059433,3007912105,4791685641,11555664153,44615854297,111890605585,121111724905,163901238153",
			"name": "Starts of runs of 3 consecutive numbers with the same product of the binary weights of their divisors (A339549).",
			"comment": [
				"Analogous to A338453 as A339549 is analogous to A093653."
			],
			"example": [
				"513059433 is a term since A339549(513059433) = A339549(513059434) = A339549(513059435) = 1166400."
			],
			"mathematica": [
				"f[n_] := Times @@ (DigitCount[#, 2, 1] \u0026 /@ Divisors[n]); s = {}; m = 3; fs = f /@ Range[m]; Do[If[Equal @@  fs, AppendTo[s, n - m]]; fs = Rest @ AppendTo[fs, f[n]], {n, m + 1, 5*10^9}]; s"
			],
			"xref": [
				"Cf. A000120, A093653, A338453, A339549.",
				"Subsequence of A339550."
			],
			"keyword": "nonn,base,more",
			"offset": "1,1",
			"author": "_Amiram Eldar_, Dec 08 2020",
			"references": 0,
			"revision": 4,
			"time": "2020-12-08T17:05:54-05:00",
			"created": "2020-12-08T17:05:54-05:00"
		}
	]
}