{
	"greeting": "Greetings from The On-Line Encyclopedia of Integer Sequences! http://oeis.org/",
	"query": "id:A339366",
	"count": 1,
	"start": 0,
	"results": [
		{
			"number": 339366,
			"data": "1,0,0,0,0,1,0,0,0,0,1,0,0,1,0,0,0,1,0,0,1,0,0,0,0,1,1,0,0,1,1,0,0,0,1,0,0,1,0,1,1,1,0,0,0,1,1,0,0,0,2,1,1,1,1,0,0,1,1,0,0,1,1,1,0,3,1,0,1,0,1,1,0,1,2,1,0,0,3,1,1,1,1,0,1,3,1,1,0,1,3",
			"name": "Number of partitions of n into an even number of distinct squares.",
			"link": [
				"\u003ca href=\"/index/Par#part\"\u003eIndex entries for sequences related to partitions\u003c/a\u003e",
				"\u003ca href=\"/index/Su#ssq\"\u003eIndex entries for sequences related to sums of squares\u003c/a\u003e"
			],
			"formula": [
				"G.f.: (1/2) * (Product_{k\u003e=1} (1 + x^(k^2)) + Product_{k\u003e=1} (1 - x^(k^2))).",
				"a(n) = (A033461(n) + A276516(n)) / 2."
			],
			"example": [
				"a(50) = 2 because we have [49, 1] and [36, 9, 4, 1]."
			],
			"mathematica": [
				"nmax = 90; CoefficientList[Series[(1/2) (Product[(1 + x^(k^2)), {k, 1, Floor[nmax^(1/2)] + 1}] + Product[(1 - x^(k^2)), {k, 1, Floor[nmax^(1/2)] + 1}]), {x, 0, nmax}], x]"
			],
			"xref": [
				"Cf. A000290, A033461, A067661, A276516, A339364, A339365, A339367."
			],
			"keyword": "nonn",
			"offset": "0,51",
			"author": "_Ilya Gutkovskiy_, Dec 01 2020",
			"references": 5,
			"revision": 5,
			"time": "2020-12-02T01:01:06-05:00",
			"created": "2020-12-02T01:01:06-05:00"
		}
	]
}