{
	"greeting": "Greetings from The On-Line Encyclopedia of Integer Sequences! http://oeis.org/",
	"query": "id:A339255",
	"count": 1,
	"start": 0,
	"results": [
		{
			"number": 339255,
			"data": "1,2,3,4,1,1,1,1,1,2,2,2,2,2,3,3,3,3,3,4,4,4,4,4,1,1,1,1,1,1,1,1,1,1,1,1,1,1,1,1,1,1,1,1,1,1,1,1,1,2,2,2,2,2,2,2,2,2,2,2,2,2,2,2,2,2,2,2,2,2,2,2,2,2,3,3,3,3,3,3,3,3,3,3,3,3,3,3",
			"name": "Leading digit of n in base 5.",
			"link": [
				"Kevin Ryde, \u003ca href=\"/A339255/b339255.txt\"\u003eTable of n, a(n) for n = 1..10000\u003c/a\u003e"
			],
			"formula": [
				"a(n) = floor(n / 5^floor(log_5(n))).",
				"G.f.: (x + Sum_{k\u003e=0} Sum_{d=2..4} (x^(d*5^k)-x^(5^(k+1))) )/(1-x)."
			],
			"mathematica": [
				"IntegerDigits[#,5][[1]]\u0026/@Range[100] (* _Harvey P. Dale_, Sep 04 2021 *)"
			],
			"program": [
				"(PARI) a(n) = n\\5^logint(n,5);"
			],
			"xref": [
				"Cf. A007091 (base 5), A073851 (partial sums).",
				"In other bases: A122586, A122587, A339256, A000030, A099563, A276153."
			],
			"keyword": "base,nonn",
			"offset": "1,2",
			"author": "_Kevin Ryde_, Nov 28 2020",
			"references": 3,
			"revision": 11,
			"time": "2021-09-04T19:12:50-04:00",
			"created": "2020-12-02T06:41:21-05:00"
		}
	]
}