{
	"greeting": "Greetings from The On-Line Encyclopedia of Integer Sequences! http://oeis.org/",
	"query": "id:A339598",
	"count": 1,
	"start": 0,
	"results": [
		{
			"number": 339598,
			"data": "1,6479,11663,51983,196559",
			"name": "Numbers k such that k | Sum_{i=1..k} A000045(i) and k+1 | Sum_{i=1..k+1} A000045(i).",
			"comment": [
				"a(1)-a(5) are given on p. 11 in Yaqubi, Fatehizadeh, 2020. According to the authors there are no other terms up to 10^6.",
				"Apparently an erroneous version of A331977.",
				"Included in accordance with OEIS policy of including published but erroneous sequences to serve as pointers to the correct values."
			],
			"link": [
				"D. Yaqubi and A. Fatehizadeh, \u003ca href=\"https://arxiv.org/abs/2001.11839\"\u003eSome results on average of Fibonacci and Lucas sequences\u003c/a\u003e, arXiv:2001.11839 [math.CO], 2020."
			],
			"program": [
				"(PARI) is(n) = my(s=sum(i=1, n, fibonacci(i))); lift(Mod(s, n))==0 \u0026\u0026 lift(Mod(s+fibonacci(n+1), n+1))==0"
			],
			"xref": [
				"Cf. A000045, A111035."
			],
			"keyword": "nonn,hard,more",
			"offset": "1,2",
			"author": "_Felix Fröhlich_, Dec 09 2020",
			"references": 0,
			"revision": 7,
			"time": "2020-12-12T06:30:38-05:00",
			"created": "2020-12-12T06:30:38-05:00"
		}
	]
}