{
	"greeting": "Greetings from The On-Line Encyclopedia of Integer Sequences! http://oeis.org/",
	"query": "id:A339218",
	"count": 1,
	"start": 0,
	"results": [
		{
			"number": 339218,
			"data": "1,0,0,0,1,0,2,0,1,1,3,0,3,1,4,3,5,1,6,4,8,6,9,5,12,9,14,11,17,13,22,17,24,21,31,26,37,31,42,39,52,46,61,56,71,67,84,79,100,95,114,111,135,131,158,154,180,180,212,209,244,244,280,283,324,325,372,378,426,434,487",
			"name": "Number of partitions of n into prime parts where every part appears at least 2 times.",
			"link": [
				"\u003ca href=\"/index/Par#part\"\u003eIndex entries for sequences related to partitions\u003c/a\u003e"
			],
			"formula": [
				"G.f.: Product_{k\u003e=1} (1 + x^(2*prime(k)) / (1 - x^prime(k)))."
			],
			"example": [
				"a(10) = 3 because we have [5, 5], [3, 3, 2, 2] and [2, 2, 2, 2, 2]."
			],
			"mathematica": [
				"nmax = 70; CoefficientList[Series[Product[1 + x^(2 Prime[k])/(1 - x^Prime[k]), {k, 1, nmax}], {x, 0, nmax}], x]"
			],
			"xref": [
				"Cf. A000040, A000607, A007690, A161077."
			],
			"keyword": "nonn",
			"offset": "0,7",
			"author": "_Ilya Gutkovskiy_, Nov 27 2020",
			"references": 3,
			"revision": 4,
			"time": "2020-11-28T09:12:05-05:00",
			"created": "2020-11-28T09:12:05-05:00"
		}
	]
}