{
	"greeting": "Greetings from The On-Line Encyclopedia of Integer Sequences! http://oeis.org/",
	"query": "id:A339893",
	"count": 1,
	"start": 0,
	"results": [
		{
			"number": 339893,
			"data": "0,0,0,0,1,0,1,0,1,1,2,0,2,1,1,0,3,1,3,1,2,2,3,0,2,2,1,1,3,1,3,0,3,3,3,1,4,3,3,1,4,2,4,2,2,3,4,0,3,2,3,2,4,1,3,1,3,3,4,1,4,3,2,0,4,3,5,3,4,3,5,1,5,4,3,3,4,3,5,1,2,4,5,2,4,4,4,2,5,2,4,3,4,4,4,0,5,3,3,2,5,3,5,2,3",
			"name": "a(n) = A000523(n) - A001222(n); floor(log_2(n)) minus the number of prime divisors of n, counted with multiplicity.",
			"link": [
				"Antti Karttunen, \u003ca href=\"/A339893/b339893.txt\"\u003eTable of n, a(n) for n = 1..65537\u003c/a\u003e"
			],
			"formula": [
				"a(n) = A000523(n) - A001222(n).",
				"a(n) = A339895(A122111(n))."
			],
			"program": [
				"(PARI) A339893(n) = (#binary(n) - 1 - bigomega(n));"
			],
			"xref": [
				"Cf. A000523, A001222, A029744, A339895.",
				"Cf. also A339823."
			],
			"keyword": "nonn",
			"offset": "1,11",
			"author": "_Antti Karttunen_, Dec 21 2020",
			"references": 3,
			"revision": 12,
			"time": "2020-12-21T23:03:36-05:00",
			"created": "2020-12-21T23:03:36-05:00"
		}
	]
}