{
	"greeting": "Greetings from The On-Line Encyclopedia of Integer Sequences! http://oeis.org/",
	"query": "id:A340371",
	"count": 1,
	"start": 0,
	"results": [
		{
			"number": 340371,
			"data": "1,1,1,1,1,1,1,1,0,1,1,1,1,1,0,1,1,0,1,1,0,1,1,1,0,1,0,1,1,0,1,1,0,1,0,0,1,1,0,1,1,0,1,1,0,1,1,1,0,0,0,1,1,0,0,1,0,1,1,0,1,1,0,1,0,0,1,1,0,0,1,0,1,1,0,1,0,0,1,1,0,1,1,0,0,1,0,1,1,0,0,1,0,1,0,1,1,0,0,0,1,0,1,1,0",
			"name": "a(n) = 1 if the odd part of n is noncomposite, 0 otherwise.",
			"comment": [
				"a(n) = 1 if n is of the form 2^i * p^j, for some odd prime p, with i \u003e= 0, 0 \u003c= j \u003c= 1, and 0 otherwise."
			],
			"link": [
				"Antti Karttunen, \u003ca href=\"/A340371/b340371.txt\"\u003eTable of n, a(n) for n = 1..65537\u003c/a\u003e",
				"\u003ca href=\"/index/Ch#char_fns\"\u003eIndex entries for characteristic functions\u003c/a\u003e"
			],
			"formula": [
				"a(n) = A080339(A000265(n)).",
				"For n \u003e 1, a(n) = abs(A304438(n))."
			],
			"program": [
				"(PARI) A340371(n) = (2\u003ebigomega(n\u003e\u003evaluation(n,2)));"
			],
			"xref": [
				"Cf. A000265, A080339.",
				"Characteristic function of A093641.",
				"After the initial term, the absolute values of A304438.",
				"Cf. also A340370, A340373.",
				"Differs from A340374 for the first time at n=561, where a(561) = 0."
			],
			"keyword": "nonn",
			"offset": "1",
			"author": "_Antti Karttunen_, Jan 06 2021",
			"references": 3,
			"revision": 6,
			"time": "2021-01-07T08:37:20-05:00",
			"created": "2021-01-07T08:37:20-05:00"
		}
	]
}