{
	"greeting": "Greetings from The On-Line Encyclopedia of Integer Sequences! http://oeis.org/",
	"query": "id:A340100",
	"count": 1,
	"start": 0,
	"results": [
		{
			"number": 340100,
			"data": "0,1,2,3,4,6,730,1449,4803,8506,10837,17012,18321,21674,43348,86696,103622,103628,153696,173392,185395,207244,227393,370780,454786,693568,936337,989572,1172353,1284865,1387136,1413399,1820929,1872674,2344706,2569730,2774272,2826798",
			"name": "Fixed points of A340069.",
			"comment": [
				"A subset of A077436 because A000120(a(n)) = A000120(a(n)^2)."
			],
			"formula": [
				"a(n) = A340069(a(n))."
			],
			"xref": [
				"Cf. A340069, A077436, A000120."
			],
			"keyword": "nonn,more",
			"offset": "1,3",
			"author": "_Thomas Scheuerle_, Dec 28 2020",
			"ext": [
				"Incorrect terms removed and a(16)-a(33) added by _Chai Wah Wu_, Jan 08 2021",
				"a(34)-a(38) from _Chai Wah Wu_, Jan 14 2021"
			],
			"references": 1,
			"revision": 26,
			"time": "2021-01-14T20:14:29-05:00",
			"created": "2021-01-04T14:49:33-05:00"
		}
	]
}