{
	"greeting": "Greetings from The On-Line Encyclopedia of Integer Sequences! http://oeis.org/",
	"query": "id:A340805",
	"count": 1,
	"start": 0,
	"results": [
		{
			"number": 340805,
			"data": "1,1,1,2,2,3,2,3,2,3,2,4,2,4,3,4,2,5,2,4,3,4,2,6,2,4,4,5,2,6,2,5,4,4,2,7,2,4,4,6,2,6,2,6,5,4,2,8,2,5,4,6,2,6,3,6,4,4,2,10,2,4,4,6,4,7,2,6,4,6,2,9,2,4,6,6,2,7,2,8,4,4,2,10,4,4,4",
			"name": "a(n) is the number of solutions of the equation x*(y - 1) + (2*x - y - 1)*(x mod 2) = 2*n for 0 \u003c x \u003c= y.",
			"comment": [
				"Also the number of times 2*n+1 appears in A340804.",
				"Offset is 1 because the equation x*(y - 1) + (2*x - y - 1)*(x mod 2) = 0 has an infinite number of positive integer solutions satisfying the inequality x \u003c= y, or equivalently, A005408(0) = 1 appears infinitely many times in A340804."
			],
			"formula": [
				"a(n) = Sum_{d|n} ([d \u003c= floor((1 + sqrt(1 + 8*n))/4)] + [d \u003c= floor((sqrt(1 + 2*n) - 1)/2)]), where [ ] is the Iverson bracket.",
				"A038548(n) \u003c= a(n) \u003c= A000005(n).",
				"a(p) = A000005(p) = 2 if p is a prime greater than or equal to 5."
			],
			"example": [
				"a(6) = 3 since there are 3 positive integer solutions (x, y) satisfying the inequality x \u003c= y, i.e., (2, 4), (3, 5) and (4, 7)."
			],
			"mathematica": [
				"Table[Sum[Boole[d\u003c=Floor[(1+Sqrt[1+8n])/4]]+Boole[d\u003c=Floor[(Sqrt[1+2n]-1)/2]],{d,Divisors[n]}],{n,87}]"
			],
			"program": [
				"(PARI) T(n, k) = 1 + k*(n - 1) + (2*k - n - 1)*(k % 2); \\\\ A340804",
				"a(n) = sum(i=1, 2*n+1, sum(k=1, i, T(i, k) == 2*n+1)); \\\\ _Michel Marcus_, Jan 25 2021",
				"(PARI) a(n) = sumdiv(n, d, (d \u003c= (1 + sqrt(1 + 8*n))\\4) + (d \u003c= (sqrt(1 + 2*n) - 1)\\2)); \\\\ _Michel Marcus_, Jan 25 2021"
			],
			"xref": [
				"Cf. A000005, A005408 (2*n+1), A038548, A340804."
			],
			"keyword": "nonn",
			"offset": "1,4",
			"author": "_Stefano Spezia_, Jan 22 2021",
			"references": 2,
			"revision": 32,
			"time": "2021-02-19T18:31:57-05:00",
			"created": "2021-02-19T18:31:57-05:00"
		}
	]
}