{
	"greeting": "Greetings from The On-Line Encyclopedia of Integer Sequences! http://oeis.org/",
	"query": "id:A340721",
	"count": 1,
	"start": 0,
	"results": [
		{
			"number": 340721,
			"data": "1,4,8,9,1,9,2,2,4,8,8,1,2,8,1,7,1,0,2,3,9,4,3,3,3,3,8,8,3,2,1,3,4,2,2,8,1,3,2,0,5,9,9,0,3,8,7,5,9,9,2,4,7,3,5,3,3,8,6,7,9,5,6,4,0,4,5,0,8,0,1,6,3,1,2,1,9,3,4,9,3,8,2",
			"name": "Decimal expansion of Gamma(3/5).",
			"link": [
				"DLMF, \u003ca href=\"https://dlmf.nist.gov/5.5\"\u003eGamma function properties\u003c/a\u003e, DLMF section 5.5.",
				"Eric Weisstein's MathWorld, \u003ca href=\"http://mathworld.wolfram.com/GammaFunction.html\"\u003eGamma Function\u003c/a\u003e",
				"Wikipedia, \u003ca href=\"http://en.wikipedia.org/wiki/Particular_values_of_the_Gamma_function\"\u003eParticular values of the Gamma function\u003c/a\u003e",
				"\u003ca href=\"/index/Ga#gamma_function\"\u003eIndex to sequences related to gamma function\u003c/a\u003e"
			],
			"formula": [
				"this * A246745 = Pi/A019881. [DLMF (5.5.3)]",
				"this * A256191 *2^(7/10)/sqrt(2*Pi) = 2*A175380 [DLMF (5.5.5)]"
			],
			"example": [
				"1.489192248812817102.."
			],
			"maple": [
				"evalf(GAMMA(3/5),120) ;"
			],
			"xref": [
				"Cf. A246745, A256191, A175380."
			],
			"keyword": "nonn,cons",
			"offset": "1,2",
			"author": "_R. J. Mathar_, Jan 17 2021",
			"references": 3,
			"revision": 13,
			"time": "2021-01-18T13:24:21-05:00",
			"created": "2021-01-17T10:59:03-05:00"
		}
	]
}