{
	"greeting": "Greetings from The On-Line Encyclopedia of Integer Sequences! http://oeis.org/",
	"query": "id:A340820",
	"count": 1,
	"start": 0,
	"results": [
		{
			"number": 340820,
			"data": "7,3,5,8,4,0,3,0,6,8,0,6,4,9,8,9,3,4,0,3,7,6,1,7,8,1,6,5,4,0,2,4,1,0,4,3,7,1,2,9,6,3,1,9,1,0,0,3,4,9,3,4,4,1,8,1,7,8,6,8,6,2,7,7,0,8,8,6,6,0,5,8,3,7,9,8,4,1,3,7,2,0,4,8,1,0,5",
			"name": "Decimal expansion of (1 + Product_{p prime} (1 - 2/(p*(p+1)))/2.",
			"comment": [
				"The asymptotic density of numbers k such that A046660(k) is even (A162644).",
				"Detrey et al. (2016) calculated 1000 decimal digits of this constant."
			],
			"link": [
				"Jérémie Detrey, Pierre-Jean Spaenlehauer and Paul Zimmermann, \u003ca href=\"https://members.loria.fr/PZimmermann/papers/rho.pdf\"\u003eComputing the rho constant\u003c/a\u003e, 2016.",
				"Michael J. Mossinghoff and Timothy S. Trudgian, \u003ca href=\"https://arxiv.org/abs/1906.02847\"\u003eA tale of two omegas\u003c/a\u003e, arXiv:1906.02847 [math.NT], 2019. See page 9."
			],
			"formula": [
				"Equals (1 + A065472/zeta(2))/2.",
				"Equals lim_{n-\u003eoo} A340818(n)/A340819(n)."
			],
			"example": [
				"0.735840306806498934037617816540241043712963191003493..."
			],
			"program": [
				"(PARI) (prodeulerrat(1 - 2/(p*(p+1))) + 1)/2"
			],
			"xref": [
				"Cf. A013661, A046660, A065472, A162644, A340818, A340819."
			],
			"keyword": "nonn,cons",
			"offset": "0,1",
			"author": "_Amiram Eldar_, Jan 22 2021",
			"references": 2,
			"revision": 5,
			"time": "2021-01-22T20:52:58-05:00",
			"created": "2021-01-22T20:52:58-05:00"
		}
	]
}