{
	"greeting": "Greetings from The On-Line Encyclopedia of Integer Sequences! http://oeis.org/",
	"query": "id:A340310",
	"count": 1,
	"start": 0,
	"results": [
		{
			"number": 340310,
			"data": "3,6,1,7,7,8,2,5,8,3,9,0,0,2,1,2,1,9,7,9,2,6,8,8,6,2,4,7,3,1,1,9,2,4,5,5,2,7,1,9,3,1,2,2,1,8,1,0,1,6,8,2,1,4,1,7,8,4,2,1,0,9,8,7,8,3,4,2,7,8,1,0,5,6,6,7,2,5,5,9,2,4,0,9,2,4,2,8,0,6,2,8,3,1,1,6,8,7,4,3,8,4,9,6,9,6",
			"name": "Decimal expansion of a constant related to the asymptotics of A000107.",
			"link": [
				"Vaclav Kotesovec, \u003ca href=\"/A340310/b340310.txt\"\u003eTable of n, a(n) for n = 0..1000\u003c/a\u003e"
			],
			"formula": [
				"Equals lim_{n-\u003einfinity} A000107(n) * sqrt(n) / A051491^n."
			],
			"example": [
				"0.36177825839002121979268862473119245527193122181016821417842109878342781..."
			],
			"xref": [
				"Cf. A000107."
			],
			"keyword": "nonn,cons",
			"offset": "0,1",
			"author": "_Vaclav Kotesovec_, Jan 04 2021",
			"references": 3,
			"revision": 4,
			"time": "2021-01-04T02:08:43-05:00",
			"created": "2021-01-04T02:08:43-05:00"
		}
	]
}