{
	"greeting": "Greetings from The On-Line Encyclopedia of Integer Sequences! http://oeis.org/",
	"query": "id:A340276",
	"count": 1,
	"start": 0,
	"results": [
		{
			"number": 340276,
			"data": "0,0,1,1,1,2,2,3,4,5,5,7,8,10,11,12,13,16,17,20,22,24,25,29,30,33,35,38,40,45,47,52,55,58,60,64,66,72,75,79,81,88,90,97,101,105,108,116,119,126,130,135,139,148,151,157,161,167,171,181,183,193,198,204,209,217",
			"name": "Number of partitions of n into 3 parts whose largest two parts are relatively prime.",
			"link": [
				"\u003ca href=\"/index/Par#part\"\u003eIndex entries for sequences related to partitions\u003c/a\u003e"
			],
			"formula": [
				"a(n) = Sum_{k=1..floor(n/3)} Sum_{i=k..floor((n-k)/2)} floor(1/gcd(i,n-i-k))."
			],
			"mathematica": [
				"Table[Sum[Sum[Floor[1/GCD[i, n - i - k]], {i, k, Floor[(n - k)/2]}], {k, Floor[n/3]}], {n, 80}]"
			],
			"xref": [
				"Cf. A023023, A340275, A340278."
			],
			"keyword": "nonn",
			"offset": "1,6",
			"author": "_Wesley Ivan Hurt_, Jan 02 2021",
			"references": 2,
			"revision": 5,
			"time": "2021-01-03T15:54:14-05:00",
			"created": "2021-01-03T15:54:14-05:00"
		}
	]
}