{
	"greeting": "Greetings from The On-Line Encyclopedia of Integer Sequences! http://oeis.org/",
	"query": "id:A340323",
	"count": 1,
	"start": 0,
	"results": [
		{
			"number": 340323,
			"data": "1,3,4,3,6,12,8,3,8,18,12,12,14,24,24,3,18,24,20,18,32,36,24,12,24,42,16,24,30,72,32,3,48,54,48,24,38,60,56,18,42,96,44,36,48,72,48,12,48,72,72,42,54,48,72,24,80,90,60,72,62,96,64,3,84,144,68,54",
			"name": "Multiplicative with a(p^e) = (p + 1) * (p - 1)^(e - 1).",
			"comment": [
				"Starting with any integer and repeatedly applying the map x -\u003e a(x) reaches the fixed point 12 or the loop {3, 4}."
			],
			"link": [
				"Antti Karttunen, \u003ca href=\"/A340323/b340323.txt\"\u003eTable of n, a(n) for n = 1..20000\u003c/a\u003e"
			],
			"formula": [
				"a(n) = A167344(n) / A340368(n) = A048250(n) * A326297(n). - _Antti Karttunen_, Jan 06 2021"
			],
			"example": [
				"a(2^s) = 3 for all s\u003e0."
			],
			"maple": [
				"f:= proc(n) local  t;",
				"  mul((t[1]+1)*(t[1]-1)^(t[2]-1),t=ifactors(n)[2])",
				"end proc:",
				"map(f, [$1..100]); # _Robert Israel_, Jan 07 2021"
			],
			"mathematica": [
				"fa[n_]:=fa[n]=FactorInteger[n];",
				"phi[1]=1; phi[p_, s_]:= (p + 1)*( p - 1)^(s - 1)",
				"phi[n_]:=Product[phi[fa[n][[i, 1]], fa[n][[i, 2]]], {i,Length[fa[n]]}];",
				"Array[phi, 245]"
			],
			"program": [
				"(PARI) A340323(n) = if(1==n,n,my(f=factor(n)); prod(i=1,#f~,(f[i,1]+1)*((f[i,1]-1)^(f[i,2]-1)))); \\\\ _Antti Karttunen_, Jan 06 2021"
			],
			"xref": [
				"Cf. A003958, A003963, A048250, A064989, A167344, A327938, A293442, A064988, A108548, A124859, A279513, A324106, A322360, A326297, A340324, A340325, A340368."
			],
			"keyword": "nonn,mult",
			"offset": "1,2",
			"author": "_José María Grau Ribas_, Jan 04 2021",
			"references": 5,
			"revision": 31,
			"time": "2021-11-19T11:12:38-05:00",
			"created": "2021-01-07T15:39:27-05:00"
		}
	]
}