{
	"greeting": "Greetings from The On-Line Encyclopedia of Integer Sequences! http://oeis.org/",
	"query": "id:A340723",
	"count": 1,
	"start": 0,
	"results": [
		{
			"number": 340723,
			"data": "2,9,9,1,5,6,8,9,8,7,6,8,7,5,9,0,6,2,8,3,1,2,5,1,6,5,1,5,9,0,4,9,1,7,7,9,1,1,1,2,8,0,6,0,2,4,9,2,1,7,1,5,1,1,2,7,4,4,1,1,9,6,5,0,9,5,6,3,8,8,7,6,7,8,7,6,3,2,0,2,1,7,9",
			"name": "Decimal expansion of Gamma(3/10).",
			"link": [
				"DLMF, \u003ca href=\"https://dlmf.nist.gov/5.5\"\u003eGamma function properties\u003c/a\u003e, DLMF section 5.5.",
				"\u003ca href=\"/index/Ga#gamma_function\"\u003eIndex to sequences related to gamma function\u003c/a\u003e"
			],
			"formula": [
				"this * A340724 = Pi/A019863 [DLMF (5.5.3)]",
				"this * A340722 * 2^(1/10)/sqrt(2*Pi) = A340721. [DLMF (5.5.5)]"
			],
			"example": [
				"2.991568987687590628312..."
			],
			"maple": [
				"evalf(GAMMA(3/10),120) ;"
			],
			"xref": [
				"Cf. A340724, A340722, A340721."
			],
			"keyword": "nonn,cons",
			"offset": "1,1",
			"author": "_R. J. Mathar_, Jan 17 2021",
			"references": 2,
			"revision": 8,
			"time": "2021-01-18T13:23:28-05:00",
			"created": "2021-01-17T10:59:18-05:00"
		}
	]
}