{
	"greeting": "Greetings from The On-Line Encyclopedia of Integer Sequences! http://oeis.org/",
	"query": "id:A340908",
	"count": 1,
	"start": 0,
	"results": [
		{
			"number": 340908,
			"data": "28,214,239,266,318,326,364,494,497,563,598,613,637,695,819,2114,2139,2168,2285,2313,2356,2369,2419,2594,2639,2791,3118,3126,3148,3213,3235,3238,3259,3354,3365,3561,3698,3786,4138,4145,4188,4219,4338,4346,4353,4368,4395",
			"name": "Primitive numbers m without zero digits such that pod(m + pod(m)) = pod(m) where pod is the product of digits, A007954.",
			"comment": [
				"When a number k belongs to A327750, the integer 111..11//k obtained by concatenation of 111..11 and k is another term; hence, there exist primitive terms as 28, 214, 239, ... that are proposed in this sequence.",
				"Equivalently, terms of A327750 that do not begin with 1."
			],
			"reference": [
				"Roman Fedorov, Alexei Belov, Alexander Kovaldzhi, and Ivan Yashchenko, Moscow-Mathematical Olympiads, 2000-2005, Level A, Problem 2, 2003; MSRI, 2011, pp. 15 and 97."
			],
			"link": [
				"\u003ca href=\"/index/O#Olympiads\"\u003eIndex to sequences related to Olympiads\u003c/a\u003e."
			],
			"example": [
				"pod(28 + pod(28)) = pod(28 + 2*8) = pod(28 + 16) = pod(44) = 4*4 = 16 = pod(28), hence 28 that does not begin with 1 is a term."
			],
			"mathematica": [
				"pod[n_] := Times @@ IntegerDigits[n]; q[n_] := First[IntegerDigits[n]] \u003e 1 \u0026\u0026 (p = pod[n]) \u003e 0 \u0026\u0026 pod[n + p] == p; Select[Range[5000], q] (* _Amiram Eldar_, Jan 31 2021 *)"
			],
			"program": [
				"(PARI) isok(n) = my(d = digits(n), p); vecmin(d) \u0026\u0026 ((d[1]!=1) \u0026\u0026 p=vecprod(d)) \u0026\u0026 (vecprod(digits(n+p)) == p); \\\\ _Michel Marcus_, Feb 01 2021"
			],
			"xref": [
				"Cf. A007954, A247888, A340907.",
				"Subsequence of A327750."
			],
			"keyword": "nonn,base",
			"offset": "1,1",
			"author": "_Bernard Schott_, Jan 31 2021",
			"references": 2,
			"revision": 17,
			"time": "2021-02-04T09:27:48-05:00",
			"created": "2021-02-04T09:27:48-05:00"
		}
	]
}