{
	"greeting": "Greetings from The On-Line Encyclopedia of Integer Sequences! http://oeis.org/",
	"query": "id:A340665",
	"count": 1,
	"start": 0,
	"results": [
		{
			"number": 340665,
			"data": "1,1,3,5,7,6,4,8,7,8,6,6,8,9,2,1,6,2,6,8,6,8,6,4,3,0,0,9,4,7,2,0,8,2,2,8,9,5,1,1,9,3,6,4,1,3,0,0,5,4,6,8,7,4,4,1,6,4,9,9,7,4,3,0,1,6,3,4,0,6,4,3,1,6,7,2,0,0,2,9,6,6,0,9,9,0,0,6,8,4,6,0,3,7,1,9,8,3,9,6,8,5,1,9",
			"name": "Decimal expansion of Product_{primes p == 3 (mod 5)} p^2/(p^2-1).",
			"link": [
				"Vaclav Kotesovec, \u003ca href=\"/A340665/b340665.txt\"\u003eTable of n, a(n) for n = 1..501\u003c/a\u003e",
				"R. J. Mathar, \u003ca href=\"https://arxiv.org/abs/1008.2547\"\u003eTable of Dirichlet L-series and prime zeta modulo functions...\u003c/a\u003e, arXiv:1008.2547 Zeta_{m=5,n=3}(s=2).",
				"For links see A340628."
			],
			"formula": [
				"Equals Sum_{k\u003e=1} 1/A004617(k)^2. - _Amiram Eldar_, Jan 24 2021"
			],
			"example": [
				"1.135764878668921626868643009472082289511936413..."
			],
			"mathematica": [
				"(* Using Vaclav Kotesovec's function Z from A301430. *)",
				"$MaxExtraPrecision = 100; digits = 50; (* Adjust as needed. *)",
				"digitize[c_] := RealDigits[Chop[N[c, digits+10]], 10, digits][[1]];",
				"digitize[Z[5, 3, 2]]"
			],
			"xref": [
				"Cf. A004617, A175646, A175647, A248930, A248938, A301429, A333240, A334826, A335963, A340576, A340577, A340578, A340628, A340628, A340004, A340127."
			],
			"keyword": "nonn,cons",
			"offset": "1,3",
			"author": "_Artur Jasinski_, Jan 15 2021",
			"references": 8,
			"revision": 31,
			"time": "2021-01-27T05:19:58-05:00",
			"created": "2021-01-16T10:51:41-05:00"
		}
	]
}