{
	"greeting": "Greetings from The On-Line Encyclopedia of Integer Sequences! http://oeis.org/",
	"query": "id:A341398",
	"count": 1,
	"start": 0,
	"results": [
		{
			"number": 341398,
			"data": "1,19,163,835,2869,7189,14581,27253,49861,84663,129303,190071,284055,409335,550455,732855,995241,1312617,1656153,2077497,2634777,3300057,4003641,4804281,5872665,7129227,8363307,9784491,11635755,13670475,15727755,18066315,20950491",
			"name": "Number of integer solutions to (x_1)^2 + (x_2)^2 + ... + (x_9)^2 \u003c= n.",
			"comment": [
				"Partial sums of A008452."
			],
			"link": [
				"\u003ca href=\"/index/Su#ssq\"\u003eIndex entries for sequences related to sums of squares\u003c/a\u003e"
			],
			"formula": [
				"G.f.: theta_3(x)^9 / (1 - x).",
				"a(n^2) = A055415(n)."
			],
			"maple": [
				"b:= proc(n, k) option remember; `if`(n=0, 1, `if`(n\u003c0 or k\u003c1, 0,",
				"      b(n, k-1)+2*add(b(n-j^2, k-1), j=1..isqrt(n))))",
				"    end:",
				"a:= proc(n) option remember; b(n, 9)+`if`(n\u003e0, a(n-1), 0) end:",
				"seq(a(n), n=0..32);  # _Alois P. Heinz_, Feb 10 2021"
			],
			"mathematica": [
				"nmax = 32; CoefficientList[Series[EllipticTheta[3, 0, x]^9/(1 - x), {x, 0, nmax}], x]",
				"Table[SquaresR[9, n], {n, 0, 32}] // Accumulate"
			],
			"xref": [
				"Cf. A000122, A001650, A008452, A046895, A055408, A055415, A057655, A117609, A122510, A175360, A175361, A302860, A341396, A341397, A341399."
			],
			"keyword": "nonn",
			"offset": "0,2",
			"author": "_Ilya Gutkovskiy_, Feb 10 2021",
			"references": 4,
			"revision": 8,
			"time": "2021-02-10T19:29:17-05:00",
			"created": "2021-02-10T19:29:17-05:00"
		}
	]
}