{
	"greeting": "Greetings from The On-Line Encyclopedia of Integer Sequences! http://oeis.org/",
	"query": "id:A341996",
	"count": 1,
	"start": 0,
	"results": [
		{
			"number": 341996,
			"data": "0,0,0,0,1,0,0,0,1,0,0,0,1,0,0,1,1,0,0,0,1,0,0,0,1,0,0,1,1,0,0,0,1,0,0,1,1,0,0,1,1,0,0,0,1,0,0,0,1,0,0,1,1,0,1,1,1,0,0,0,1,0,0,0,1,0,0,0,1,0,0,0,1,0,0,0,1,0,0,0,1,1,0,0,1,0,0,1,1,0,0,1,1,0,0,1,1,0,0,0,1,0,0,0,1,0",
			"name": "a(n) = 1 if there is at least one such prime p that p^p divides the arithmetic derivative of n, A003415(n); a(0) = a(1) = 0 by convention.",
			"link": [
				"Antti Karttunen, \u003ca href=\"/A341996/b341996.txt\"\u003eTable of n, a(n) for n = 0..65537\u003c/a\u003e",
				"\u003ca href=\"/index/Ch#char_fns\"\u003eIndex entries for characteristic functions\u003c/a\u003e"
			],
			"formula": [
				"a(n) = [A327928(n)\u003e0], where [ ] is the Iverson bracket.",
				"For all n \u003e 1, a(n) \u003e= [A129251(n)\u003e0], i.e., if A129251(n) is nonzero, then certainly a(n) = 1.",
				"For all n \u003e= 0, a(n) \u003c= A341999(n)."
			],
			"program": [
				"(PARI)",
				"A003415(n) = {my(fac); if(n\u003c1, 0, fac=factor(n); sum(i=1, matsize(fac)[1], n*fac[i, 2]/fac[i, 1]))}; \\\\ From A003415",
				"A129251(n) = { my(f = factor(n)); sum(k=1, #f~, (f[k, 2]\u003e=f[k, 1])); };",
				"A327928(n) = if(n\u003c=1,0,A129251(A003415(n)));",
				"A341996(n) = (A327928(n)\u003e0);"
			],
			"xref": [
				"Characteristic function of A327929.",
				"Cf. A003415, A129251, A327928, A341994, A341995, A341997, A341999.",
				"Differs from A327928 for the first time at n=81, where a(81)=1."
			],
			"keyword": "nonn",
			"offset": "0",
			"author": "_Antti Karttunen_, Feb 28 2021",
			"references": 5,
			"revision": 11,
			"time": "2021-02-28T20:30:11-05:00",
			"created": "2021-02-28T20:30:11-05:00"
		}
	]
}