{
	"greeting": "Greetings from The On-Line Encyclopedia of Integer Sequences! http://oeis.org/",
	"query": "id:A341555",
	"count": 1,
	"start": 0,
	"results": [
		{
			"number": 341555,
			"data": "0,1,-36,-81,784,-1314",
			"name": "Fourier coefficients of the modular form (1/t_{3A}) * sqrt( 1-108/t_{3A} ) * F_{3A}^10.",
			"link": [
				"Masao Koike, \u003ca href=\"/A004016/a004016.pdf\"\u003eModular forms on non-compact arithmetic triangle groups\u003c/a\u003e, Unpublished manuscript [Extensively annotated with OEIS A-numbers by N. J. A. Sloane, Feb 14 2021. Sloane wrote 2005 on the first page but the internal evidence suggests 1997.] See page 29."
			],
			"keyword": "sign,more",
			"offset": "0,3",
			"author": "_Robert C. Lyons_, Feb 14 2021",
			"references": 0,
			"revision": 9,
			"time": "2021-02-14T21:04:24-05:00",
			"created": "2021-02-14T21:04:24-05:00"
		}
	]
}