{
	"greeting": "Greetings from The On-Line Encyclopedia of Integer Sequences! http://oeis.org/",
	"query": "id:A341556",
	"count": 1,
	"start": 0,
	"results": [
		{
			"number": 341556,
			"data": "1,72,2376,47592,646344",
			"name": "Fourier coefficients of the modular form F_{3A}^12.",
			"link": [
				"Masao Koike, \u003ca href=\"/A004016/a004016.pdf\"\u003eModular forms on non-compact arithmetic triangle groups\u003c/a\u003e, Unpublished manuscript [Extensively annotated with OEIS A-numbers by N. J. A. Sloane, Feb 14 2021. Sloane wrote 2005 on the first page but the internal evidence suggests 1997.] See page 30."
			],
			"keyword": "nonn,more",
			"offset": "0,2",
			"author": "_Robert C. Lyons_, Feb 14 2021",
			"references": 0,
			"revision": 11,
			"time": "2021-02-14T21:05:53-05:00",
			"created": "2021-02-14T21:05:53-05:00"
		}
	]
}