{
	"greeting": "Greetings from The On-Line Encyclopedia of Integer Sequences! http://oeis.org/",
	"query": "id:A341487",
	"count": 1,
	"start": 0,
	"results": [
		{
			"number": 341487,
			"data": "2,1,5,6,3,4,8,7,17,18,22,21,20,19,23,24,9,10,14,13,12,11,15,16,26,25,29,30,27,28,32,31,65,66,70,69,68,67,71,72,82,81,85,86,83,84,88,87,74,73,77,78,75,76,80,79,89,90,94,93,92,91,95,96,33,34,38",
			"name": "Second row of A341458.",
			"comment": [
				"This sequence is a self-inverse permutation of the positive integers.",
				"This sequence has similarities with A057300."
			],
			"link": [
				"Rémy Sigrist, \u003ca href=\"/A341487/b341487.txt\"\u003eTable of n, a(n) for n = 1..2048\u003c/a\u003e",
				"Rémy Sigrist, \u003ca href=\"/A341487/a341487.gp.txt\"\u003ePARI program for A341487\u003c/a\u003e",
				"\u003ca href=\"/index/Per#IntegerPermutation\"\u003eIndex entries for sequences that are permutations of the natural numbers\u003c/a\u003e"
			],
			"formula": [
				"a(n) = A341458(2, n)."
			],
			"example": [
				"a(7) = A341458(2, 7) = 8."
			],
			"program": [
				"(PARI) See Links section."
			],
			"xref": [
				"Cf. A057300, A341458."
			],
			"keyword": "nonn,base",
			"offset": "1,1",
			"author": "_Rémy Sigrist_, Feb 13 2021",
			"references": 2,
			"revision": 9,
			"time": "2021-02-14T21:11:53-05:00",
			"created": "2021-02-14T13:04:44-05:00"
		}
	]
}