{
	"greeting": "Greetings from The On-Line Encyclopedia of Integer Sequences! http://oeis.org/",
	"query": "id:A341890",
	"count": 1,
	"start": 0,
	"results": [
		{
			"number": 341890,
			"data": "3,2,3,4,2,3,3,2,3,5,9,4,11,14,3,16,6,3,5,5,3,10,5,3,5,6,3,4,4,4,7,18,3,17,5,9,7,26,3,10,7,6,7,20,5,7,23,6,7,8,3,12,13,10,5,8,13,3,11,3,16,6,3,29,5,6,21,6,3,5,9,6,5,17,3,19,7,12,7,20,3,5,19,12,15,42,3,13,4,6,7,14,15,34,5,12,15,14,3",
			"name": "Least k \u003e 1 such that (n^n+k^k)/(n+k) is an integer.",
			"link": [
				"Seiichi Manyama, \u003ca href=\"/A341890/b341890.txt\"\u003eTable of n, a(n) for n = 1..10000\u003c/a\u003e"
			],
			"formula": [
				"a(n) \u003c= n for all n \u003e 1."
			],
			"mathematica": [
				"a[n_] := Module[{k = 2}, While[! Divisible[n^n + k^k, n + k], k++]; k]; Array[a, 100] (* _Amiram Eldar_, Jun 04 2021 *)"
			],
			"program": [
				"(PARI) a(n) = my(k=2); while((n^n+k^k)%(n+k)!=0, k++); k;"
			],
			"xref": [
				"Cf. A242801, A242899, A341760, A341844, A341889."
			],
			"keyword": "nonn,look",
			"offset": "1,1",
			"author": "_Seiichi Manyama_, Jun 04 2021",
			"references": 4,
			"revision": 16,
			"time": "2021-06-05T10:54:14-04:00",
			"created": "2021-06-04T14:46:33-04:00"
		}
	]
}