{
	"greeting": "Greetings from The On-Line Encyclopedia of Integer Sequences! http://oeis.org/",
	"query": "id:A341184",
	"count": 1,
	"start": 0,
	"results": [
		{
			"number": 341184,
			"data": "1,5,15,35,70,126,210,330,495,710,981,1310,1695,2130,2605,3106,3615,4110,4575,4980,5311,5555,5705,5760,5725,5611,5435,5210,4975,4735,4511,4320,4170,4065,4005,3986,4005,4040,4100,4175,4241,4310,4380,4450,4520,4590,4665,4740,4810",
			"name": "Number of ways to write n as an ordered sum of 5 nonzero decimal palindromes.",
			"link": [
				"Alois P. Heinz, \u003ca href=\"/A341184/b341184.txt\"\u003eTable of n, a(n) for n = 5..10000\u003c/a\u003e"
			],
			"mathematica": [
				"nmax = 53; CoefficientList[Series[Sum[Boole[PalindromeQ[k]] x^k, {k, 1, nmax}]^5, {x, 0, nmax}], x] // Drop[#, 5] \u0026"
			],
			"xref": [
				"Cf. A002113, A136522, A319470, A341158, A341191, A341192, A341193, A341203, A341204, A341205, A341206, A341207."
			],
			"keyword": "nonn,base",
			"offset": "5,2",
			"author": "_Ilya Gutkovskiy_, Feb 06 2021",
			"references": 6,
			"revision": 16,
			"time": "2021-02-07T12:41:04-05:00",
			"created": "2021-02-07T07:05:46-05:00"
		}
	]
}