{
	"greeting": "Greetings from The On-Line Encyclopedia of Integer Sequences! http://oeis.org/",
	"query": "id:A341540",
	"count": 1,
	"start": 0,
	"results": [
		{
			"number": 341540,
			"data": "1,1,1,0,1,0,0,0,1,0,0,1,1,0,1,1,0,0,1,1,0,1,0,0,0,0,1,1,0,0,1,1,0,0,1,1,0,0,0,0,0,1,1,1,1,1,0,1,1,0,1,1,1,0,1,0,0,1,0,1,1,1,1,0,1,1,0,0,0,1,1,1,1,1,0,0,1,0,1,0,0,1,1,0,1,1,0,1,1,1,1",
			"name": "Expansion of the 2-adic integer sqrt(17) that ends in 11.",
			"comment": [
				"Over the 2-adic integers there are 2 solutions to x^2 = 17, one ends in 01 and the other ends in 11. This sequence gives the latter one. See A341539 for detailed information."
			],
			"link": [
				"Jianing Song, \u003ca href=\"/A341540/b341540.txt\"\u003eTable of n, a(n) for n = 0..1000\u003c/a\u003e"
			],
			"formula": [
				"a(0) = 1, a(1) = 0; for n \u003e= 2, a(n) = 0 if A341539(n)^2 - 17 is divisible by 2^(n+2), otherwise 1.",
				"a(n) = 1 - A322217(n) for n \u003e= 1.",
				"For n \u003e= 2, a(n) = (A341539(n+1) - A341539(n))/2^n."
			],
			"example": [
				"If x = ...00000110011001100001011001101100100010111, then x^2 = 10001_2 = 17."
			],
			"program": [
				"(PARI) a(n) = if(n==1, 1, truncate(-sqrt(17+O(2^(n+2))))\\2^n)"
			],
			"xref": [
				"Cf. A322217, A341539 (successive approximations of the associated 2-adic square root of 17), A318962, A318963 (expansion of sqrt(-7))."
			],
			"keyword": "nonn,base",
			"offset": "0",
			"author": "_Jianing Song_, Feb 13 2021",
			"references": 5,
			"revision": 16,
			"time": "2021-02-18T02:53:46-05:00",
			"created": "2021-02-14T13:19:03-05:00"
		}
	]
}