{
	"greeting": "Greetings from The On-Line Encyclopedia of Integer Sequences! http://oeis.org/",
	"query": "id:A341391",
	"count": 1,
	"start": 0,
	"results": [
		{
			"number": 341391,
			"data": "1,16,152,1072,6204,31024,138544,564824,2135902,7580944,25485560,81734696,251514840,746123304,2142114356,5971477112,16208165181,42936937488,111240873128,282363615336,703303327288,1721329848680,4144792701532,9829483710112",
			"name": "Expansion of (-1 + Product_{k\u003e=1} (1 + x^k)^k)^8.",
			"link": [
				"Alois P. Heinz, \u003ca href=\"/A341391/b341391.txt\"\u003eTable of n, a(n) for n = 8..10000\u003c/a\u003e"
			],
			"maple": [
				"g:= proc(n) option remember; `if`(n=0, 1, add(g(n-j)*add(d^2/",
				"     `if`(d::odd, 1, 2), d=numtheory[divisors](j)), j=1..n)/n)",
				"    end:",
				"b:= proc(n, k) option remember; `if`(k=0, 1, `if`(k=1, `if`(n=0, 0,",
				"      g(n)), (q-\u003e add(b(j, q)*b(n-j, k-q), j=0..n))(iquo(k, 2))))",
				"    end:",
				"a:= n-\u003e b(n, 8):",
				"seq(a(n), n=8..31);  # _Alois P. Heinz_, Feb 10 2021"
			],
			"mathematica": [
				"nmax = 31; CoefficientList[Series[(-1 + Product[(1 + x^k)^k, {k, 1, nmax}])^8, {x, 0, nmax}], x] // Drop[#, 8] \u0026"
			],
			"xref": [
				"Cf. A026007, A321953, A327386, A341384, A341385, A341386, A341387, A341388, A341390."
			],
			"keyword": "nonn",
			"offset": "8,2",
			"author": "_Ilya Gutkovskiy_, Feb 10 2021",
			"references": 10,
			"revision": 8,
			"time": "2021-02-10T18:56:26-05:00",
			"created": "2021-02-10T15:00:59-05:00"
		}
	]
}