{
	"greeting": "Greetings from The On-Line Encyclopedia of Integer Sequences! http://oeis.org/",
	"query": "id:A341536",
	"count": 1,
	"start": 0,
	"results": [
		{
			"number": 341536,
			"data": "1,2,4,8,16,36,80,194,500,1342,3623,9835,26412,70505,187805,500627",
			"name": "Number of distinct resistances that can be produced using at most n unit resistors in series, parallel, bridge or fork configurations.",
			"comment": [
				"Cumulative sequence based on A337516"
			],
			"xref": [
				"Cf. A048211, A153588, A174283, A174283, A337516, A180414."
			],
			"keyword": "nonn,more",
			"offset": "0,2",
			"author": "_Rainer Rosenthal_, Feb 14 2021",
			"references": 0,
			"revision": 21,
			"time": "2021-02-16T17:54:53-05:00",
			"created": "2021-02-15T22:39:58-05:00"
		}
	]
}