{
	"greeting": "Greetings from The On-Line Encyclopedia of Integer Sequences! http://oeis.org/",
	"query": "id:A341114",
	"count": 1,
	"start": 0,
	"results": [
		{
			"number": 341114,
			"data": "0,1,16,17,84,185,1379,1564,2943,7450,17843,132351,547247,679598,1906443,2586041,157068903,159654944,636033735,795688679,2227411093,18614977423,95302298208,113917275631,323136849470,437054125101,760190974571,1197245099672",
			"name": "Denominators of continued fraction convergents to 2^(1/12).",
			"link": [
				"Eric Weisstein's World of Mathematics, \u003ca href=\"http://mathworld.wolfram.com/ContinuedFraction.html\"\u003eContinued Fraction\u003c/a\u003e",
				"Wikipedia, \u003ca href=\"http://en.wikipedia.org/wiki/Twelfth_root_of_two\"\u003eTwelfth root of two\u003c/a\u003e",
				"\u003ca href=\"/index/Mu#music\"\u003eIndex entries for sequences based on music\u003c/a\u003e"
			],
			"formula": [
				"a(0) = 0, a(1) = 1, a(n) = A103922(n-1) * a(n-1) + a(n-2) for n \u003e 1."
			],
			"mathematica": [
				"Join[{0}, Denominator[Convergents[2^(1/12), 27]]] (* _Amiram Eldar_, Feb 05 2021 *)"
			],
			"xref": [
				"For numerators see A341113.",
				"Cf. A002351, A010774, A103922."
			],
			"keyword": "nonn,frac",
			"offset": "0,3",
			"author": "_Seiichi Manyama_, Feb 05 2021",
			"references": 1,
			"revision": 22,
			"time": "2021-02-07T00:08:11-05:00",
			"created": "2021-02-07T00:08:11-05:00"
		}
	]
}