{
	"greeting": "Greetings from The On-Line Encyclopedia of Integer Sequences! http://oeis.org/",
	"query": "id:A341464",
	"count": 1,
	"start": 0,
	"results": [
		{
			"number": 341464,
			"data": "1,1,1,1,2,2,4,4,5,7,7,9,12,14,15,19,21,27,29,35,38,47,49,59,65,77,82,96,102,119,128,147,157,181,189,216,231,260,276,309,327,366,387,431,454,505,529,584,617,678,713,780,818,892,938,1020,1071,1164,1213,1311,1378",
			"name": "Number of partitions of n into 5 distinct nonprime parts.",
			"maple": [
				"b:= proc(n, i, t) option remember; `if`(n=0,",
				"      `if`(t=0, 1, 0), `if`(i\u003c1 or t\u003c1, 0, b(n, i-1, t)+",
				"      `if`(isprime(i), 0, b(n-i, min(n-i, i-1), t-1))))",
				"    end:",
				"a:= n-\u003e b(n$2, 5):",
				"seq(a(n), n=28..88);  # _Alois P. Heinz_, Feb 12 2021"
			],
			"mathematica": [
				"b[n_, i_, t_] := b[n, i, t] = If[n == 0,",
				"     If[t == 0, 1, 0], If[i \u003c 1 || t \u003c 1, 0, b[n, i - 1, t] +",
				"     If[PrimeQ[i], 0, b[n - i, Min[n - i, i - 1], t - 1]]]];",
				"a[n_] := b[n, n, 5];",
				"Table[a[n], {n, 28, 88}] (* _Jean-François Alcover_, Jul 13 2021, after _Alois P. Heinz_ *)"
			],
			"xref": [
				"Cf. A005171, A018252, A096258, A219199, A302479, A341452, A341461, A341462, A341465, A341466, A341467."
			],
			"keyword": "nonn",
			"offset": "28,5",
			"author": "_Ilya Gutkovskiy_, Feb 12 2021",
			"references": 8,
			"revision": 10,
			"time": "2021-07-13T16:59:48-04:00",
			"created": "2021-02-12T20:31:49-05:00"
		}
	]
}