{
	"greeting": "Greetings from The On-Line Encyclopedia of Integer Sequences! http://oeis.org/",
	"query": "id:A341947",
	"count": 1,
	"start": 0,
	"results": [
		{
			"number": 341947,
			"data": "1,1,2,2,4,3,5,4,6,4,7,4,9,6,10,6,12,6,14,8,15,8,18,9,21,10,20,9,23,10,26,12,27,12,31,13,34,13,33,14,39,15,42,16,43,17,48,18,53,19,52,19,58,20,61,20,61,20,68,23,73,23,73,26,82,26,84,23,84,27,92,28,98",
			"name": "Number of partitions of n into 4 primes (counting 1 as a prime).",
			"maple": [
				"b:= proc(n, i) option remember; series(`if`(n=0, 1,",
				"     `if`(i\u003c0, 0, (p-\u003e `if`(p\u003en, 0, x*b(n-p, i)))(",
				"     `if`(i=0, 1, ithprime(i)))+b(n, i-1))), x, 5)",
				"    end:",
				"a:= n-\u003e coeff(b(n, numtheory[pi](n)), x, 4):",
				"seq(a(n), n=4..76);  # _Alois P. Heinz_, Feb 24 2021"
			],
			"xref": [
				"Cf. A008578, A034891, A259194, A341945, A341946, A341948, A341949, A341950, A341951."
			],
			"keyword": "nonn",
			"offset": "4,3",
			"author": "_Ilya Gutkovskiy_, Feb 24 2021",
			"references": 11,
			"revision": 8,
			"time": "2021-02-24T15:59:13-05:00",
			"created": "2021-02-24T15:59:13-05:00"
		}
	]
}