{
	"greeting": "Greetings from The On-Line Encyclopedia of Integer Sequences! http://oeis.org/",
	"query": "id:A341725",
	"count": 1,
	"start": 0,
	"results": [
		{
			"number": 341725,
			"data": "1,3,1,13,6,1,81,39,9,1,673,324,78,12,1,6993,3365,810,130,15,1,87193,41958,10095,1620,195,18,1",
			"name": "Triangle read by rows: coefficients in expansion of Asveld's polynomials p_j(x).",
			"reference": [
				"Anthony G. Shannon and Richard L. Ollerton. \"A note on Ledin’s summation problem.\" The Fibonacci Quarterly 59:1 (2021), 47-56. See Table 5."
			],
			"link": [
				"P. R. J. Asveld, \u003ca href=\"http://www.fq.math.ca/Scanned/25-4/asveld.pdf\"\u003eA family of Fibonacci-like sequences\u003c/a\u003e, Fib. Quart., 25 (1987), 81-83."
			],
			"example": [
				"Triangle begins:",
				"1,",
				"3, 1,",
				"13, 6, 1,",
				"81, 39, 9, 1,",
				"673, 324, 78, 12, 1,",
				"6993, 3365, 810, 130, 15, 1,",
				"87193, 41958, 10095, 1620, 195, 18, 1,",
				"..."
			],
			"xref": [
				"Cf. A341724.",
				"Column 0 is A005923, column 1 is A341728."
			],
			"keyword": "nonn,tabl,more",
			"offset": "0,2",
			"author": "_N. J. A. Sloane_, Mar 04 2021",
			"references": 1,
			"revision": 16,
			"time": "2021-05-01T02:14:55-04:00",
			"created": "2021-03-04T20:34:23-05:00"
		}
	]
}