{
	"greeting": "Greetings from The On-Line Encyclopedia of Integer Sequences! http://oeis.org/",
	"query": "id:A342747",
	"count": 1,
	"start": 0,
	"results": [
		{
			"number": 342747,
			"data": "2,1,7,5,4,22,3,16,13,12,67,10,9,49,40,8,37,202,35,31,28,6,148,121,26,25,112,21,607,106,20,94,85,102,19,445,17,364,79,15,76,337,75,64,62,319,61,14,283",
			"name": "a(n) = position in A341334 of binary complement of the n-th word in A341334.",
			"comment": [
				"This is a permutation of the positive integers."
			],
			"example": [
				"First 20 words in A341334: 0, 1, 10, 00, 11, 110, 01, 100, 111, 010, 1110, 101, 000, 1100, 1111, 011, 1010, 11110, 0110, 1101.",
				"The 3rd word is 10; its binary complement, 01, is in position 7, so that a(3) = 7."
			],
			"mathematica": [
				"(See A341334.)"
			],
			"xref": [
				"Cf. A341334."
			],
			"keyword": "nonn",
			"offset": "1,1",
			"author": "_Clark Kimberling_, Apr 08 2021",
			"references": 1,
			"revision": 4,
			"time": "2021-04-09T09:33:21-04:00",
			"created": "2021-04-09T09:33:21-04:00"
		}
	]
}