{
	"greeting": "Greetings from The On-Line Encyclopedia of Integer Sequences! http://oeis.org/",
	"query": "id:A342199",
	"count": 1,
	"start": 0,
	"results": [
		{
			"number": 342199,
			"data": "1,1,33,519,43111,5068111,840782023,291086377719,139698959369111,90748115988081551,90809507057803456103,124011515918275951611959,217278911997171247450862041,509237348184229328050319432621,1567286639251140454692258569881053",
			"name": "a(0) = 1; a(n) = Sum_{k=1..n} binomial(n,k)^5 * a(k-1).",
			"mathematica": [
				"a[0] = 1; a[n_] := a[n] = Sum[Binomial[n, k]^5 a[k - 1], {k, 1, n}]; Table[a[n], {n, 0, 14}]"
			],
			"xref": [
				"Cf. A040027, A061686, A336197, A342196, A342197, A342198."
			],
			"keyword": "nonn",
			"offset": "0,3",
			"author": "_Ilya Gutkovskiy_, Mar 04 2021",
			"references": 3,
			"revision": 5,
			"time": "2021-03-04T20:56:01-05:00",
			"created": "2021-03-04T20:56:01-05:00"
		}
	]
}