{
	"greeting": "Greetings from The On-Line Encyclopedia of Integer Sequences! http://oeis.org/",
	"query": "id:A342580",
	"count": 1,
	"start": 0,
	"results": [
		{
			"number": 342580,
			"data": "43664,2248976,85045184,2880236192,93044373104,2941433979056,92045266123424,2866350051682112,89051296064477264,2763508542463136336,85712552167491668864,2657746010652834993632,82399980314514994098224,2554547203590738451564016",
			"name": "Number of sets in the geometry determined by the Hausdorff metric at each location between two sets defined by a complete bipartite graph K(5,n) (with n at least 4) missing three edges, where all three removed edges are incident to the same vertex in the 5-point set.",
			"comment": [
				"Start with a complete bipartite graph K(5,n) with vertex sets A and B where |A| = 5 and |B| is at least 4. We can arrange the points in sets A and B such that h(A,B) = d(a,b) for all a in A and b in B, where h is the Hausdorff metric. The pair [A,B] is a configuration. Then a set C is between A and B at location s if h(A,C) = h(C,B) = h(A,B) and h(A,C) = s. Call a pair ab, where a is in A and b is in B an edge. This sequence provides the number of sets between sets A' and B' at location s in a new configuration [A',B'] obtained from [A,B] by removing three edges, where all three removed edges are incident to the same point in A. So this sequence tells the number of sets at each location on the line segment between A' and B'.",
				"Number of {0,1} 5 X n matrices (with n at least 4) with three fixed zero entries all in the same row and no zero rows or columns.",
				"Take a complete bipartite graph K(5,n) (with n at least 4) having parts A and B where |A| = 5. This sequence gives the number of edge covers of the graph obtained from this K(5,n) graph after removing three edges, where all three removed edges are incident same vertex in A."
			],
			"reference": [
				"S. Schlicker, R. Vasquez, R. Wofford, Integer Sequences from Configurations in the Hausdorff Metric Geometry via Edge Covers of Bipartite Graphs. In preparation."
			],
			"link": [
				"\u003ca href=\"/index/Rec#order_05\"\u003eIndex entries for linear recurrences with constant coefficients\u003c/a\u003e, signature (57,-1002,6562,-15381,9765)."
			],
			"formula": [
				"a(n) = 3375*31^(n-3) - 4747*15^(n-3) - 166*3^(n-3) + 1534*7^(n-3) + 4."
			],
			"xref": [
				"Sequences of segments from removing edges from bipartite graphs A335608-A335613, A337416-A337418, A340173-A340175, A340199-A340201, A340897-A340899, A342580, A342796, A342850, A340403-A340405, A340433-A340438, A341551-A341553, A342327-A342328, A343372-A343374, A343800.",
				"Polygonal chain sequences A152927, A152928, A152929, A152930, A152931, A152932, A152933, A152934, A152939.",
				"Number of {0,1} n X n matrices with no zero rows or columns A048291."
			],
			"keyword": "easy,nonn",
			"offset": "4,1",
			"author": "_Roman I. Vasquez_, Mar 24 2021",
			"references": 36,
			"revision": 42,
			"time": "2021-09-29T09:03:09-04:00",
			"created": "2021-05-22T18:55:58-04:00"
		}
	]
}