{
	"greeting": "Greetings from The On-Line Encyclopedia of Integer Sequences! http://oeis.org/",
	"query": "id:A342644",
	"count": 1,
	"start": 0,
	"results": [
		{
			"number": 342644,
			"data": "2,2,7,23,19,43,137,139,239,283,373,491,1019,929,2609,2699,1499,4451,3191,4441,5261,3251,6373,7853,8623,9013,6359,10289,9109,6833,7703,13417,19441,15329,19793,9311,16319,13109,12539,23899,26347,10111,11351,19687,27851,13627,34129,18521,27277,35537",
			"name": "Primes in A340180.",
			"comment": [
				"Terms are listed in the order in which they appear in A340180, including repetitions.",
				"Repeated terms include a(1) = a(2) = 2, a(55) = a(56) = 17333, and a(233) = a(319) = 1253761. Are there any others?"
			],
			"link": [
				"Robert Israel, \u003ca href=\"/A342644/b342644.txt\"\u003eTable of n, a(n) for n = 1..5000\u003c/a\u003e"
			],
			"formula": [
				"a(n) = A340180(A342630(n))."
			],
			"example": [
				"a(4) = A340180(A342630(4)) = A340180(14) = 23."
			],
			"maple": [
				"f:= proc(n) local s,k;",
				"  s:= numtheory:-sigma(n);",
				"  add(`if`(igcd(n,k)=1, s mod k, 0),k=1..n-1);",
				"end proc:",
				"select(isprime,map(f, [$1..1000]));"
			],
			"mathematica": [
				"Select[Array[Sum[Mod[DivisorSigma[1, #], k] Floor[1/GCD[k, #]], {k, # - 1}] \u0026, 500], PrimeQ] (* _Michael De Vlieger_, Mar 17 2021 *)"
			],
			"xref": [
				"Cf. A340180, A342630."
			],
			"keyword": "nonn",
			"offset": "1,1",
			"author": "_J. M. Bergot_ and _Robert Israel_, Mar 17 2021",
			"references": 1,
			"revision": 9,
			"time": "2021-03-18T20:19:17-04:00",
			"created": "2021-03-17T17:57:41-04:00"
		}
	]
}