{
	"greeting": "Greetings from The On-Line Encyclopedia of Integer Sequences! http://oeis.org/",
	"query": "id:A342729",
	"count": 1,
	"start": 0,
	"results": [
		{
			"number": 342729,
			"data": "1,3,5,7,9,22,24,26,39,41,43,56,58,60,73,75,77,90,92,94,107,109,111,136,138,140,153,155,157,170,172,174,199,201,203,216,218,220,233,235,237,262,264,266,279,281,283,296,298,300,313,315,317,330,332,334,347,349",
			"name": "Self numbers in base i-1: numbers not of the form k + A066323(k).",
			"comment": [
				"Equivalently, self numbers in base -4, since A066323(k) is also the sum of the digits of k in base -4.",
				"Analogous to self numbers (A003052) using base i-1 representation (A271472) instead of decimal expansion.",
				"The number of terms not exceeding 10^k, for k=1,2,..., is 5, 20, 155, 1507, 15008, 150007, 1500014, 15000011. Is the asymptotic density of this sequence exactly 3/20?"
			],
			"reference": [
				"József Sándor and Borislav Crstici, Handbook of Number theory II, Kluwer Academic Publishers, 2004, Chapter 4, p. 384-386."
			],
			"link": [
				"Amiram Eldar, \u003ca href=\"/A342729/b342729.txt\"\u003eTable of n, a(n) for n = 1..10000\u003c/a\u003e",
				"Walter Penney, \u003ca href=\"http://dx.doi.org/10.1145/321264.321274\"\u003eA \"binary\" system for complex numbers\u003c/a\u003e, Journal of the ACM, Vol. 12, No. 2 (1965), pp. 247-248.",
				"Eric Weisstein's World of Mathematics, \u003ca href=\"http://mathworld.wolfram.com/SelfNumber.html\"\u003eSelf Number\u003c/a\u003e.",
				"Wikipedia, \u003ca href=\"http://en.wikipedia.org/wiki/Self_number\"\u003eSelf number\u003c/a\u003e."
			],
			"mathematica": [
				"s[n_] := Module[{v = {{0, 0, 0, 0}, {0, 0, 0, 1}, {1, 1, 0, 0}, {1, 1, 0, 1}}}, Plus @@ Flatten @ v[[1 + Reverse @ Most[Mod[NestWhileList[(# - Mod[#, 4])/-4 \u0026, n, # != 0 \u0026], 4]]]]]; f[n_] := n + s[n]; m = 1000; Complement[Range[m], Select[Union@Array[f, m], # \u003c= m \u0026]]"
			],
			"xref": [
				"Cf. A007608, A066323, A066321, A271472, A342725, A342726, A342727, A342728.",
				"Similar sequences: A003052 (decimal), A010061 (binary), A010064 (base 4), A010067 (base 6), A010070 (base 8), A339211 (Zeckendorf), A339212 (dual Zeckendorf), A339213 (base phi), A339214 (factorial base), A339215 (primorial base)."
			],
			"keyword": "nonn,base",
			"offset": "1,2",
			"author": "_Amiram Eldar_, Mar 19 2021",
			"references": 7,
			"revision": 8,
			"time": "2021-03-21T01:05:32-04:00",
			"created": "2021-03-20T10:57:42-04:00"
		}
	]
}