{
	"greeting": "Greetings from The On-Line Encyclopedia of Integer Sequences! http://oeis.org/",
	"query": "id:A342385",
	"count": 1,
	"start": 0,
	"results": [
		{
			"number": 342385,
			"data": "0,1,1,2,1,2,3,2,2,3,4,3,4,3,4,5,4,6,6,4,5,6,5,8,9,8,5,6,7,6,10,12,12,10,6,7,8,7,12,15,16,15,12,7,8,9,8,14,18,20,20,18,14,8,9,10,9,16,21,24,25,24,21,16,9,10,11,10,18,24,28,30,30,28,24,18,10,11",
			"name": "Triangle with n\u003e=0 as first column and main diagonal. The (n+2)-th column is (n+1)*A028310(n).",
			"comment": [
				"Row sums: A177787(n) with A177787(0) = 0.",
				"First subtriangle: A003991(n+1).",
				"Second subtriangle: A173395(n+1).",
				"A000290(n) is a subsequence via (2*n+1)-th rows."
			],
			"example": [
				"Triangle T:",
				"  0;",
				"  1,  1;",
				"  2,  1,  2;",
				"  3,  2,  2,  3;",
				"  4,  3,  4,  3,  4;",
				"  5,  4,  6,  6,  4,  5;",
				"  6,  5,  8,  9,  8,  5,  6;",
				"  7,  6, 10, 12, 12, 10,  6,  7;",
				"  8,  7, 12, 15, 16, 15, 12,  7,  8;",
				"  9,  8, 14, 18, 20, 20, 18, 14,  8,  9;",
				"  ... ."
			],
			"xref": [
				"Cf. A000290, A001477, A003991, A028310, A173395, A177787."
			],
			"keyword": "nonn,tabl",
			"offset": "0,4",
			"author": "_Paul Curtz_, Mar 10 2021",
			"references": 0,
			"revision": 9,
			"time": "2021-03-11T03:23:58-05:00",
			"created": "2021-03-11T03:23:58-05:00"
		}
	]
}