{
	"greeting": "Greetings from The On-Line Encyclopedia of Integer Sequences! http://oeis.org/",
	"query": "id:A343911",
	"count": 1,
	"start": 0,
	"results": [
		{
			"number": 343911,
			"data": "0,0,1,1,2,1,2,2,2,2,2,2,3,2,3,3,4,2,3,3,3,2,2,3,3,3,3,3,3,3,3,4,3,4,4,3,4,3,4,4,4,3,3,3,4,2,2,4,3,3,5,4,3,3,4,4,4,3,2,4,4,3,4,5,5,3,3,5,3,4,3,4,5,4,4,4,4,4,3,5,4,4,2,4,6,3,4,4,4,4,5,3,4,2",
			"name": "a(n) = Omega(phi(n)), where Omega is the number of prime factors of n with multiplicity and phi is the Euler totient function.",
			"formula": [
				"a(n) = A001222(A000010(n))."
			],
			"mathematica": [
				"Table[PrimeOmega[EulerPhi[n]], {n, 100}]"
			],
			"xref": [
				"Cf. A000010 (phi), A001222 (Omega)."
			],
			"keyword": "nonn",
			"offset": "1,5",
			"author": "_Wesley Ivan Hurt_, May 03 2021",
			"references": 0,
			"revision": 5,
			"time": "2021-05-03T21:30:59-04:00",
			"created": "2021-05-03T21:30:59-04:00"
		}
	]
}