{
	"greeting": "Greetings from The On-Line Encyclopedia of Integer Sequences! http://oeis.org/",
	"query": "id:A343353",
	"count": 1,
	"start": 0,
	"results": [
		{
			"number": 343353,
			"data": "1,1,9,73,621,5229,44293,374277,3162447,26694159,225163687,1897751079,15983278059,134519816427,1131395821587,9509592524371,79880259426102,670590654977718,5626336598011078,47179486350900358,395410837699366686,3312225325409475038,27731588831310844302",
			"name": "Expansion of Product_{k\u003e=1} 1 / (1 - x^k)^(8^(k-1)).",
			"formula": [
				"a(n) ~ exp(sqrt(n/2) - 1/16 + c/8) * 2^(3*n - 7/4) / (sqrt(Pi)*n^(3/4)), where c = Sum_{j\u003e=2} 1/(j * (8^(j-1) - 1)). - _Vaclav Kotesovec_, Apr 12 2021"
			],
			"maple": [
				"a:= proc(n) option remember; `if`(n=0, 1, add(a(n-j)*add(",
				"      d*8^(d-1), d=numtheory[divisors](j)), j=1..n)/n)",
				"    end:",
				"seq(a(n), n=0..22);  # _Alois P. Heinz_, Apr 12 2021"
			],
			"mathematica": [
				"nmax = 22; CoefficientList[Series[Product[1/(1 - x^k)^(8^(k - 1)), {k, 1, nmax}], {x, 0, nmax}], x]",
				"a[n_] := a[n] = If[n == 0, 1, (1/n) Sum[Sum[d 8^(d - 1), {d, Divisors[k]}] a[n - k], {k, 1, n}]]; Table[a[n], {n, 0, 22}]"
			],
			"xref": [
				"Cf. A034691, A104460, A144072, A343349, A343350, A343351, A343352, A343354, A343355."
			],
			"keyword": "nonn",
			"offset": "0,3",
			"author": "_Ilya Gutkovskiy_, Apr 12 2021",
			"references": 7,
			"revision": 9,
			"time": "2021-04-12T12:14:25-04:00",
			"created": "2021-04-12T09:24:38-04:00"
		}
	]
}