{
	"greeting": "Greetings from The On-Line Encyclopedia of Integer Sequences! http://oeis.org/",
	"query": "id:A343517",
	"count": 1,
	"start": 0,
	"results": [
		{
			"number": 343517,
			"data": "1,4,12,42,130,506,1722,6622,24426,93427,352726,1359388,5200312,20097156,77567064,300787366,1166803126,4539197723,17672631918,68933307843,269129530770,1052113994340,4116715363822,16124224571368,63205303313900,247961973949536",
			"name": "a(n) = Sum_{1 \u003c= x_1 \u003c= x_2 \u003c= ... \u003c= x_n \u003c= n} gcd(x_1, x_2, ... , x_n, n).",
			"link": [
				"Vaclav Kotesovec, \u003ca href=\"/A343517/b343517.txt\"\u003eTable of n, a(n) for n = 1..1650\u003c/a\u003e"
			],
			"formula": [
				"a(n) = Sum_{d|n} phi(n/d) * binomial(d+n-1, n).",
				"a(n) = [x^n] Sum_{k \u003e= 1} phi(k) * x^k/(1 - x^k)^(n+1).",
				"a(n) ~ 2^(2*n - 1) / sqrt(Pi*n). - _Vaclav Kotesovec_, May 23 2021"
			],
			"mathematica": [
				"a[n_] := DivisorSum[n, EulerPhi[n/#] * Binomial[n + # - 1, n] \u0026]; Array[a, 25] (* _Amiram Eldar_, Apr 18 2021 *)"
			],
			"program": [
				"(PARI) a(n) = sumdiv(n, d, eulerphi(n/d)*binomial(d+n-1, n));"
			],
			"xref": [
				"Main diagonal of A343516.",
				"Cf. A000010, A156834, A332508, A332517."
			],
			"keyword": "nonn",
			"offset": "1,2",
			"author": "_Seiichi Manyama_, Apr 17 2021",
			"references": 6,
			"revision": 23,
			"time": "2021-05-23T08:48:04-04:00",
			"created": "2021-04-18T07:33:46-04:00"
		}
	]
}