{
	"greeting": "Greetings from The On-Line Encyclopedia of Integer Sequences! http://oeis.org/",
	"query": "id:A343888",
	"count": 1,
	"start": 0,
	"results": [
		{
			"number": 343888,
			"data": "12,13,14,15,16,17,18,19,109,120,102,102,124,125,126,127,128,129,130,130,123,103,103,135,136,137,138,139,140,140,134,124,104,104,146,147,148,149,150,150,145,135,125,105,105,157,158,159,160,160,156,146,136,126,106,106,168,169,170,170",
			"name": "Smallest positive integer such that the decimal representations of a(n) and of a(n)+9n (both without leading zeros) are permutations of each other.",
			"comment": [
				"A concatenation of 10 and n provides the proof of existence and also an upper bound for a(n).",
				"The bound is exact for n = 9, 90, 900, ..."
			],
			"link": [
				"Rémy Sigrist, \u003ca href=\"/A343888/b343888.txt\"\u003eTable of n, a(n) for n = 1..8999\u003c/a\u003e"
			],
			"example": [
				"102 + 9*11 = 201 which is a permutation of digits of 102, and no smaller number has this feature, hence a(11)=102."
			],
			"program": [
				"(PARI) a(n) = { for (v=1, oo, if (vecsort(digits(v))==vecsort(digits(v+9*n)), return (v))) } \\\\ _Rémy Sigrist_, May 03 2021"
			],
			"xref": [
				"Cf. A328447, A343852."
			],
			"keyword": "nonn,look,base",
			"offset": "1,1",
			"author": "_Ivan Neretin_, May 02 2021",
			"references": 2,
			"revision": 17,
			"time": "2021-05-03T12:20:16-04:00",
			"created": "2021-05-02T22:02:56-04:00"
		}
	]
}