{
	"greeting": "Greetings from The On-Line Encyclopedia of Integer Sequences! http://oeis.org/",
	"query": "id:A343871",
	"count": 1,
	"start": 0,
	"results": [
		{
			"number": 343871,
			"data": "1,0,15,70,432,4320,30855,294840,2883240,28175952,310690800,3458941920,40459730640,499638948480,6324655705200,83653192972800,1145266802114400,16145338385736000,235579813593453000,3535776409508703360,54571687068401395200,866268656574795936000",
			"name": "Number of labeled 3-connected planar graphs with n edges.",
			"link": [
				"Andrew Howroyd, \u003ca href=\"/A343871/b343871.txt\"\u003eTable of n, a(n) for n = 6..200\u003c/a\u003e",
				"M. Bodirsky, C. Groepl and M. Kang, \u003ca href=\"https://doi.org/10.1016/j.tcs.2007.02.045\"\u003eGenerating Labeled Planar Graphs Uniformly At Random\u003c/a\u003e, Theoretical Computer Science, Volume 379, Issue 3, 15 June 2007, pp. 377-386."
			],
			"formula": [
				"a(n) = Sum_{k=2+floor((n+2)/3)..floor(2*n/3)} k!*A290326(n-k+1, k-1)/(4*n)."
			],
			"program": [
				"(PARI)",
				"Q(n,k) = { \\\\ c-nets with n-edges, k-vertices (see A290326)",
				"  if (k \u003c 2+(n+2)\\3 || k \u003e 2*n\\3, return(0));",
				"  sum(i=2, k, sum(j=k, n, (-1)^((i+j+1-k)%2)*binomial(i+j-k,i)*i*(i-1)/2*",
				"  (binomial(2*n-2*k+2,k-i)*binomial(2*k-2, n-j) -",
				"  4*binomial(2*n-2*k+1, k-i-1)*binomial(2*k-3, n-j-1))));",
				"};",
				"a(n)={sum(k=2+(n+2)\\3, 2*n\\3, k!*Q(n,k))/(4*n)} \\\\ _Andrew Howroyd_, May 05 2021"
			],
			"xref": [
				"Cf. A000287, A002840 (unlabeled case), A096330, A290326, A291841, A338414."
			],
			"keyword": "nonn,changed",
			"offset": "6,3",
			"author": "_Andrew Howroyd_, May 05 2021",
			"references": 2,
			"revision": 11,
			"time": "2022-01-02T14:13:28-05:00",
			"created": "2021-05-05T20:52:56-04:00"
		}
	]
}