{
	"greeting": "Greetings from The On-Line Encyclopedia of Integer Sequences! http://oeis.org/",
	"query": "id:A343932",
	"count": 1,
	"start": 0,
	"results": [
		{
			"number": 343932,
			"data": "0,1,2,0,3,5,5,4,1,7,3,4,11,13,3,4,0,15,0,4,14,13,10,20,22,11,25,20,21,1,18,4,6,17,27,12,31,27,20,28,6,41,34,32,31,45,45,4,11,25,39,48,21,45,46,12,53,47,41,32,9,5,55,4,25,7,47,8,45,19,12,60,50,43,20,60,54,29,72,36,70,31,74,40,69,7,18,20,63,3,24,32",
			"name": "a(n) = (Sum_{k=1..n} k^k) mod n.",
			"link": [
				"Seiichi Manyama, \u003ca href=\"/A343932/b343932.txt\"\u003eTable of n, a(n) for n = 1..10000\u003c/a\u003e"
			],
			"formula": [
				"a(n) = A001923(n) mod n."
			],
			"mathematica": [
				"a[n_] := Mod[Sum[PowerMod[k, k, n], {k, 1, n}], n]; Array[a, 100] (* _Amiram Eldar_, May 04 2021 *)"
			],
			"program": [
				"(PARI) a(n) = sum(k=1, n, k^k)%n;"
			],
			"xref": [
				"Cf. A001923, A128981, A182398, A188775, A188776."
			],
			"keyword": "nonn,easy",
			"offset": "1,3",
			"author": "_Seiichi Manyama_, May 04 2021",
			"references": 1,
			"revision": 16,
			"time": "2021-05-05T01:54:11-04:00",
			"created": "2021-05-04T15:26:06-04:00"
		}
	]
}