{
	"greeting": "Greetings from The On-Line Encyclopedia of Integer Sequences! http://oeis.org/",
	"query": "id:A343001",
	"count": 1,
	"start": 0,
	"results": [
		{
			"number": 343001,
			"data": "7,9,13,19,31,37,43,61,63,67,73,79,91,97,103,109,117,127,133,139,151,157,163,171,181,193,199,211,217,223,229,241,247,259,271,277,279,283,301,307,313,331,333,337,349,367,373,379,387,397,403,409,421,427",
			"name": "Square roots of discriminants of cyclic cubic fields.",
			"comment": [
				"Numbers k such that k^2 is in A006832.",
				"Numbers k such that A160498(k) \u003e= 2.",
				"Each term k is associated with A343003(k) cyclic cubic fields.",
				"Let D be a discriminant of a cubic field F, then F is a cyclic cubic field if and only if D is a square. For D = k^2, k must be of the form (p_1)*(p_2)*...*(p_t) or 9*(p_1)*(p_2)*...*(p_{t-1}) with distinct primes p_i == 1 (mod 3), in which case there are exactly 2^(t-1) = 2^(omega(k)-1) (cyclic) cubic fields with discriminant D. See Page 17, Theorem 2.7 of the Ka Lun Wong link."
			],
			"link": [
				"Jianing Song, \u003ca href=\"/A343001/b343001.txt\"\u003eTable of n, a(n) for n = 1..3200\u003c/a\u003e",
				"LMFDB, \u003ca href=\"https://www.lmfdb.org/NumberField/?degree=3\"\u003eCubic fields\u003c/a\u003e",
				"Wikipedia, \u003ca href=\"https://en.m.wikipedia.org/wiki/Cubic_field\"\u003eCubic field\u003c/a\u003e",
				"Ka Lun Wong, \u003ca href=\"https://scholarsarchive.byu.edu/etd/2781\"\u003eMaximal Unramified Extensions of Cyclic Cubic Fields\u003c/a\u003e, (2011), Theses and Dissertations, 2781."
			],
			"formula": [
				"a(n) = sqrt(A343001(n))."
			],
			"example": [
				"7 is a term since 7^2 = 49 is the discriminant of the cyclic cubic field Q[x]/(x^3 - x^2 - 2*x + 1).",
				"9 is a term since 9^2 = 81 is the discriminant of the cyclic cubic field Q[x]/(x^3 - 3*x - 1)."
			],
			"program": [
				"(PARI) isA343001(n) = my(L=factor(n), w=omega(n)); for(i=1, w, if(!((L[i,1]%3==1 \u0026\u0026 L[i,2]==1) || L[i,1]^L[i,2] == 9), return(0))); (n\u003e1)"
			],
			"xref": [
				"Discriminants and their square roots of cyclic cubic fields:",
				"At least 1 associated cyclic cubic field: A343000, this sequence.",
				"Exactly 1 associated cyclic cubic field: A343022, A002476 U {9}.",
				"At least 2 associated cyclic cubic fields: A343024, A343025.",
				"Exactly 2 associated cyclic cubic fields: A343002, A343003.",
				"Cf. A006832, A160498, A343023."
			],
			"keyword": "nonn,easy",
			"offset": "1,1",
			"author": "_Jianing Song_, Apr 02 2021",
			"references": 8,
			"revision": 20,
			"time": "2021-11-20T20:47:14-05:00",
			"created": "2021-04-03T09:49:15-04:00"
		}
	]
}