{
	"greeting": "Greetings from The On-Line Encyclopedia of Integer Sequences! http://oeis.org/",
	"query": "id:A343788",
	"count": 1,
	"start": 0,
	"results": [
		{
			"number": 343788,
			"data": "1,1,3,13,75,540,4671,47125,543371,7048453,101589591,1610634433,27856938387,521953586233,10532102378983,227699187663961,5250934660206219,128659152359921997,3337861722359261475,91406502629924948053,2634888477782107003707,79751100251346500871481",
			"name": "Number of ordered partitions of an n-set without blocks of size 5.",
			"formula": [
				"E.g.f.: 1 / (2 + x^5/5! - exp(x))."
			],
			"maple": [
				"a:= proc(n) option remember; `if`(n=0, 1, add(",
				"      `if`(j=5, 0, a(n-j)*binomial(n, j)), j=1..n))",
				"    end:",
				"seq(a(n), n=0..21);  # _Alois P. Heinz_, Apr 29 2021"
			],
			"mathematica": [
				"nmax = 21; CoefficientList[Series[1/(2 + x^5/5! - Exp[x]), {x, 0, nmax}], x] Range[0, nmax]!",
				"a[n_] := a[n] = If[n == 0, 1, Sum[If[k == 5, 0, Binomial[n, k] a[n - k]], {k, 1, n}]]; Table[a[n], {n, 0, 21}]"
			],
			"xref": [
				"Cf. A000670, A032032, A337058, A337059, A343665, A343787, A343789, A343790, A343791, A343792, A343793."
			],
			"keyword": "nonn",
			"offset": "0,3",
			"author": "_Ilya Gutkovskiy_, Apr 29 2021",
			"references": 6,
			"revision": 7,
			"time": "2021-04-29T18:51:24-04:00",
			"created": "2021-04-29T18:51:24-04:00"
		}
	]
}