{
	"greeting": "Greetings from The On-Line Encyclopedia of Integer Sequences! http://oeis.org/",
	"query": "id:A343180",
	"count": 1,
	"start": 0,
	"results": [
		{
			"number": 343180,
			"data": "1,2,3,2,1,4,3,2,1,2,3,4,1,4,3,2,1,2,3,2,1,4,3,4,1,2,3,4,1,4,3,2,1,2,3,2,1,4,3,2,1,2,3,4,1,4,3,4,1,2,3,2,1,4,3,4,1,2,3,4,1,4,3,2,1,2,3,2,1,4,3,2,1,2,3,4,1,4,3,2,1,2,3,2,1,4,3,4,1,2,3,4,1,4,3",
			"name": "Trajectory of 1 under the morphism 1 -\u003e 12, 2 -\u003e 32, 3 -\u003e 14, 4 -\u003e 34.",
			"link": [
				"J.-P. Allouche and M. Mendes France, \u003ca href=\"https://webusers.imj-prg.fr/~jean-paul.allouche/allmendeshouches.pdf\"\u003eAutomata and Automatic Sequences\u003c/a\u003e, in: Axel F. and Gratias D. (eds), Beyond Quasicrystals. Centre de Physique des Houches, vol 3. Springer, Berlin, Heidelberg, pp. 293-367, 1995; DOI https://doi.org/10.1007/978-3-662-03130-8_11. See page 6.",
				"J.-P. Allouche and M. Mendes France, \u003ca href=\"/A003842/a003842.pdf\"\u003eAutomata and Automatic Sequences\u003c/a\u003e, in: Axel F. and Gratias D. (eds), Beyond Quasicrystals. Centre de Physique des Houches, vol 3. Springer, Berlin, Heidelberg, pp. 293-367, 1995; DOI https://doi.org/10.1007/978-3-662-03130-8_11. See page 6. [Local copy]"
			],
			"maple": [
				"f(1):= (1,2): f(2):= (3,2): f(3) := (1,4); f(4) := (3,4);  #",
				"A:= [1]:",
				"for i from 1 to 8 do A:= map(f, A) od:",
				"A;"
			],
			"xref": [
				"A112658 is another version of the same sequence."
			],
			"keyword": "nonn",
			"offset": "0,2",
			"author": "_N. J. A. Sloane_, May 02 2021",
			"references": 1,
			"revision": 8,
			"time": "2021-05-02T11:39:32-04:00",
			"created": "2021-05-02T11:38:41-04:00"
		}
	]
}