{
	"greeting": "Greetings from The On-Line Encyclopedia of Integer Sequences! http://oeis.org/",
	"query": "id:A343949",
	"count": 1,
	"start": 0,
	"results": [
		{
			"number": 343949,
			"data": "1,2,4,8,12,18,26,36,52,70,102,136,200,266,394,524,780,1038,1550,2064,3088,4114,6162,8212,12308,16406,24598,32792,49176,65562,98330,131100,196636,262174,393246,524320,786464,1048610,1572898,2097188,3145764,4194342,6291494",
			"name": "Shortest distance from curve start to end along the segments of dragon curve expansion level n, and which is the diameter of the curve as a graph.",
			"comment": [
				"Expansion level n is the first 2^n segments of the curve, and can be taken as a graph with visited points as vertices and segments as edges."
			],
			"link": [
				"Kevin Ryde, \u003ca href=\"/A343949/b343949.txt\"\u003eTable of n, a(n) for n = 0..1000\u003c/a\u003e",
				"Kevin Ryde, \u003ca href=\"http://user42.tuxfamily.org/dragon/index.html\"\u003eIterations of the Dragon Curve\u003c/a\u003e, see index \"Diameter\".",
				"\u003ca href=\"/index/Rec#order_05\"\u003eIndex entries for linear recurrences with constant coefficients\u003c/a\u003e, signature (1,3,-3,-2,2)."
			],
			"formula": [
				"a(0) = 1.",
				"a(2*n)   = 3*2^n + 2*n - 4 = 2*A275970(n-1), for n\u003e=1.",
				"a(2*n+1) = 4*2^n + 2*n - 2 = 2*A083706(n).",
				"a(n+1) - a(n) = 2*A228693(n), for n\u003e=1.",
				"a(n) = a(n-1) + 3*a(n-2) - 3*a(n-3) - 2*a(n-4) + 2*a(n-5) for n \u003e= 6.",
				"G.f.: (1 + x - x^2 + x^3 - 4*x^5) / ((1+x) * (1-x)^2 * (1-2*x^2)).",
				"G.f.: 2 - (1/2)/(1+x) - (9/2)/(1-x) + 1/(1-x)^2  + (3 + 4*x)/(1 - 2*x^2)."
			],
			"example": [
				"Curve n=4:",
				"     *--*  *--*",
				"     |  |  |  |        Start S to end E along segments.",
				"     *--*--*  *--*     Distance a(4) = 12,",
				"        |        |     which is also graph diameter.",
				"  E  *--*     S--*",
				"  |  |",
				"  *--*"
			],
			"program": [
				"(PARI) a(n) = if(n==0,1, my(t=n%2); (3+t)\u003c\u003c(n\u003e\u003e1) + n-4 + t);"
			],
			"xref": [
				"Cf. A275970, A083706, A228693.",
				"Cf. A332383, A332384 (curve coordinates)."
			],
			"keyword": "nonn,easy",
			"offset": "0,2",
			"author": "_Kevin Ryde_, May 05 2021",
			"references": 1,
			"revision": 10,
			"time": "2021-05-11T05:58:25-04:00",
			"created": "2021-05-05T13:52:55-04:00"
		}
	]
}