{
	"greeting": "Greetings from The On-Line Encyclopedia of Integer Sequences! http://oeis.org/",
	"query": "id:A343481",
	"count": 1,
	"start": 0,
	"results": [
		{
			"number": 343481,
			"data": "1,3,3,6,6,10,11,11,10,15,16,22,21,21,23,30,32,40,42,42,39,48,52,53,49,52,53,63,66,77,83,82,76,77,82,94,87,85,90,103,107,121,123,129,120,135,144,147,153,150,151,167,176,178,185,181,168,185,194,212,199",
			"name": "a(n) is the sum of all digits of n in every prime base 2 \u003c= p \u003c= n.",
			"link": [
				"Amiram Eldar, \u003ca href=\"/A343481/b343481.txt\"\u003eTable of n, a(n) for n = 2..10001\u003c/a\u003e",
				"Robin Fissum, \u003ca href=\"http://dx.doi.org/10.13140/RG.2.2.17412.35201\"\u003eDigit sums and the number of prime factors of the factorial n!=1.2...n\u003c/a\u003e, Bachelor's project in BMAT, Norwegian University of Science and Technology, 2020."
			],
			"formula": [
				"a(n) ~ (1-Pi^2/12)*n^2/log(n) + c*n^2/log(n)^2 + o(n^2/log(n)^2), where c = 1 - Pi^2/24 + zeta'(2)/2 = 1 - A222171 - (1/2)*A073002 = 0.1199923561... (Fissum, 2020)."
			],
			"example": [
				"a(5) = 6 since in the prime bases 2, 3 and 5 the representations of 5 are 101_2, 12_3 and 10_5, respectively, and (1 + 0 + 1) + (1 + 2) + (1 + 0) = 6."
			],
			"mathematica": [
				"s[n_, b_] := Plus @@ IntegerDigits[n, b]; ps[n_] := Select[Range[n], PrimeQ]; a[n_] := Sum[s[n, b], {b, ps[n]}]; Array[a, 100, 2]"
			],
			"program": [
				"(PARI) a(n) = sum(b=2, n, if (isprime(b), sumdigits(n, b))); \\\\ _Michel Marcus_, Apr 17 2021"
			],
			"xref": [
				"Cf. A014837, A043306, A072691, A073002, A222171."
			],
			"keyword": "nonn,base",
			"offset": "2,2",
			"author": "_Amiram Eldar_, Apr 16 2021",
			"references": 1,
			"revision": 18,
			"time": "2021-04-17T05:53:23-04:00",
			"created": "2021-04-17T01:55:28-04:00"
		}
	]
}