{
	"greeting": "Greetings from The On-Line Encyclopedia of Integer Sequences! http://oeis.org/",
	"query": "id:A343839",
	"count": 1,
	"start": 0,
	"results": [
		{
			"number": 343839,
			"data": "2,16,24,160,270,272,1456,3398,3418,3420,3422,13120,44686,118096,674934,1062880",
			"name": "Semi-one numbers: Positive integers k such that exactly half of the integers 1..k have a 1 in their decimal expansion.",
			"comment": [
				"There are only these 16 semi-one numbers. That there can only be finitely many is fairly easy to show: consider how many 100-billion-digit numbers have no 1s in them. Eventually the proportion of 1-less numbers drops below 50% and stays there. 5217031 numbers up to 9999999 have a 1 in them so proportion of 1-ful numbers can't drop below 50% for numbers with more digits. Hence the search program can stop at 10 million."
			],
			"link": [
				"Gary Gordon and Glen Whitney, \u003ca href=\"http://digitaleditions.sheridan.com/publication/?i=483313\u0026amp;article_id=3039776\"\u003eThe Playground\u003c/a\u003e, Math Horizons vol XXV issue 4, April 2018, Problem C21, semi-one numbers (and other semi-n)."
			],
			"example": [
				"16 is semi-1 because 1,10,11,12,13,14,15,16 have a 1 in them, there are 8 such numbers, and 8 is half of 16. 2 is semi-1 because 1 has a 1 in it and 2 does not."
			],
			"mathematica": [
				"s = {}; c = 0; Do[If[DigitCount[n, 10, 1] \u003e 0, c++]; If[n == 2*c, AppendTo[s, n]], {n, 1, 1062880}]; s (* _Amiram Eldar_, May 01 2021 *)"
			],
			"program": [
				"(Perl)",
				"for (1..10000000) {",
				"        if (/1/) {",
				"                $s++;",
				"                }",
				"        if ($_==2*$s) {",
				"                print $_.\"\\n\";",
				"                }",
				"        }",
				"(PARI) lista(nn) = {my(va = vector(nn)); va[1] = 1; for (n=2, #va, va[n] = va[n-1] + (#select(x-\u003e(x==1), digits(n)) \u003e 0);); for (n=1, nn, if (va[n] == n/2 , print1(n, \", \")););} \\\\ _Michel Marcus_, May 02 2021"
			],
			"xref": [
				"Cf. A011531, A344636."
			],
			"keyword": "nonn,base,fini,full",
			"offset": "1,1",
			"author": "_Adam Atkinson_, May 01 2021",
			"references": 2,
			"revision": 47,
			"time": "2021-07-30T07:55:15-04:00",
			"created": "2021-06-25T16:02:33-04:00"
		}
	]
}