{
	"greeting": "Greetings from The On-Line Encyclopedia of Integer Sequences! http://oeis.org/",
	"query": "id:A343723",
	"count": 1,
	"start": 0,
	"results": [
		{
			"number": 343723,
			"data": "0,0,0,0,0,0,1,0,1,0,2,0,2,2,0,0,0,2,4,0,3,4,5,0,4,4,4,4,6,0,7,0,6,0,5,4,8,8,6,0,8,6,10,8,5,10,11,0,10,8,0,8,12,8,10,8,12,12,14,0,14,14,12,0,10,12,16,0,15,10,17,8,16,16,12,16,17,12,19",
			"name": "a(n) is 1/4 of the number of starting residues r modulo n from which repeated iterations of the mapping r -\u003e r^2 mod n never reach a fixed point.",
			"formula": [
				"a(n) = A343722(n)/4."
			],
			"program": [
				"(PARI) pos(list, r) = forstep (k=#list, 1, -1, if (list[k] == r, return (#list - k + 1)););",
				"isok(r, n) = {my(list = List()); listput(list, r); for (k=1, oo, r = lift(Mod(r, n)^2); my(i = pos(list, r)); if (i==1, return (1)); if (i\u003e1, return(0)); listput(list, r); );}",
				"a(n) = sum(r=0, n-1, 1 - isok(r, n))/4; \\\\ _Michel Marcus_, May 02 2021"
			],
			"xref": [
				"Cf. A343722."
			],
			"keyword": "nonn",
			"offset": "1,11",
			"author": "_Jon E. Schoenfield_, May 02 2021",
			"references": 0,
			"revision": 9,
			"time": "2021-05-07T00:43:29-04:00",
			"created": "2021-05-07T00:43:29-04:00"
		}
	]
}