{
	"greeting": "Greetings from The On-Line Encyclopedia of Integer Sequences! http://oeis.org/",
	"query": "id:A344774",
	"count": 1,
	"start": 0,
	"results": [
		{
			"number": 344774,
			"data": "1,2,1,3,1,3,1,4,2,3,1,5,1,3,2,5,1,4,1,5,1,3,1,7,2,3,3,1,1,5,1,6,1,3,1,7,1,3,2,7,1,5,1,5,2,3,1,9,2,4,2,1,1,5,1,6,1,3,1,9,1,3,3,7,1,1,1,5,1,1,1,10,1,3,3,1,1,5,1,9,4,3,1,8,2,3,2,7,1,7,1,5,1,3,1,11,1,4,3,7,1,5,1,6,1",
			"name": "Number of divisors d of n for which A049559(d) = A049559(n), where A049559(n) = gcd(n-1, phi(n)).",
			"link": [
				"Antti Karttunen, \u003ca href=\"/A344774/b344774.txt\"\u003eTable of n, a(n) for n = 1..65537\u003c/a\u003e"
			],
			"formula": [
				"a(n) = Sum_{d|n} [A049559(d) = A049559(n)], where [ ] is the Iverson bracket.",
				"a(n) \u003c= A330747(n)."
			],
			"program": [
				"(PARI)",
				"A049559(n) = gcd(n-1, eulerphi(n));",
				"A344774(n) = { my(x=A049559(n)); sumdiv(n,d,A049559(d)==x); };"
			],
			"xref": [
				"Cf. A000010, A049559, A330747.",
				"Cf. also A344773."
			],
			"keyword": "nonn",
			"offset": "1,2",
			"author": "_Antti Karttunen_, May 31 2021",
			"references": 2,
			"revision": 8,
			"time": "2021-06-30T19:47:50-04:00",
			"created": "2021-05-31T17:46:48-04:00"
		}
	]
}