{
	"greeting": "Greetings from The On-Line Encyclopedia of Integer Sequences! http://oeis.org/",
	"query": "id:A344570",
	"count": 1,
	"start": 0,
	"results": [
		{
			"number": 344570,
			"data": "0,4,6,7,10,5,10,4,15,0,13,5,16,3,57,2,8,2,5,1,119,1,13,8,39,5,55,2,53,7,12,7,76,1,193,2,21,2,59,11,35,15,42,7,541,7,17,20,37,1,233,3,32,2,373,19,65,0,15,16,181,15,8637,5,175,15",
			"name": "Number of pairs of n-digit squares such that the final (n-1) digits of the first square coincide with the initial (n-1) digits of the second.",
			"comment": [
				"For n=2, certain numbers (16 and 64) appear in more than one pair. No such numbers have been observed up to n=9, but so far there is no proof of this property.",
				"a(10)=0 was found by Andrew Howroyd. Does this sequence contain infinitely many nonzero terms?",
				"The sequence is inspired by a problem from the 2020 Polish Juniors' Mathematics Olympiad. It is problem 1: 'Is there a six-digit positive integer such that any two consecutive digits form a perfect square?'",
				"Are there any other terms such that a(n) = 0 besides n=1 and n=10? - _Chai Wah Wu_, May 26 2021"
			],
			"link": [
				"Stowarzyszenie na rzecz Edukacji Matematycznej, \u003ca href=\"https://omj.edu.pl/uploads/attachments/1etap20.pdf\"\u003eOlimpiada Matematyczna Juniorów 2020/2021, etap 1\u003c/a\u003e (in Polish).",
				"Chai Wah Wu, \u003ca href=\"/A344570/a344570_1.txt\"\u003epairs of squares for n = 1..46\u003c/a\u003e",
				"\u003ca href=\"/index/O#Olympiads\"\u003eIndex to sequences related to Olympiads\u003c/a\u003e."
			],
			"example": [
				"For n=2: (81,16), (16,64), (36,64), (64,49).",
				"For n=3: (144,441), (196,961), (225,256), (625,256), (484,841), (784,841).",
				"For n=4: (3136,1369), (4624,6241), (5184,1849), (5476,4761), (7396,3969), (7921,9216), (9409,4096).",
				"For n=20: (64764644930975528100, 47646449309755281001) is the only pair. - _Andrew Howroyd_, May 23 2021"
			],
			"program": [
				"(PARI) a(n)={sum(k=sqrtint(10^(n-1))+1, sqrtint(10^n-1), my(t=k^2*10%10^n); t\u003e=10^(n-1) \u0026\u0026 sqrtint(t+9)^2\\10==t\\10)} \\\\ _Andrew Howroyd_, May 24 2021"
			],
			"xref": [
				"Cf. A343855."
			],
			"keyword": "nonn,base,more",
			"offset": "1,2",
			"author": "_Igor Trujnara_, May 23 2021",
			"ext": [
				"a(10)-a(20) from _Andrew Howroyd_, May 24 2021",
				"a(21)-a(46) from _Chai Wah Wu_, May 26 2021",
				"a(47)-a(66) from _Chai Wah Wu_, Jun 02 2021"
			],
			"references": 2,
			"revision": 39,
			"time": "2021-06-02T03:04:59-04:00",
			"created": "2021-05-26T03:15:59-04:00"
		}
	]
}