{
	"greeting": "Greetings from The On-Line Encyclopedia of Integer Sequences! http://oeis.org/",
	"query": "id:A344656",
	"count": 1,
	"start": 0,
	"results": [
		{
			"number": 344656,
			"data": "1,25,332,3771,40408,421502,4335421,44238545,449152466,4544947489,45881945187,462392087982,4653934463161,46795058249198,470155429577331,4720761658966075,47376442842345767,475260045712259140,4765942332723655393,47779180397439081160,478872730513981268072,4798532713310684093710",
			"name": "Number of odd composites \u003c= 10^n.",
			"formula": [
				"a(n) = 10^n/2 - A006880(n)."
			],
			"example": [
				"a(1) = 1 because 9 is the only odd composite number \u003c= 10^1."
			],
			"mathematica": [
				"Table[Length@Select[Range[2,10^n],OddQ@#\u0026\u0026!PrimeQ@#\u0026],{n,7}]",
				"(* or *)",
				"Table[10^n/2-PrimePi[10^n],{n,10}]"
			],
			"xref": [
				"Cf. A071904, A006880."
			],
			"keyword": "nonn",
			"offset": "1,2",
			"author": "_Giorgos Kalogeropoulos_, May 26 2021",
			"references": 0,
			"revision": 17,
			"time": "2021-07-03T02:34:11-04:00",
			"created": "2021-07-03T02:34:11-04:00"
		}
	]
}