{
	"greeting": "Greetings from The On-Line Encyclopedia of Integer Sequences! http://oeis.org/",
	"query": "id:A344114",
	"count": 1,
	"start": 0,
	"results": [
		{
			"number": 344114,
			"data": "1,14,506,65512,33554312,68719476016,562949953416272,18446744073709511296,2417851639229258349049472,1267650600228229401496699576576",
			"name": "a(n) = 2^(n^2) - n!.",
			"comment": [
				"a(n) is the number of relations on a set with n elements that are not one-to-one functions."
			],
			"example": [
				"a(1) = 2^(1^2)-1! = 1.",
				"a(2) = 2^(2^2)-2! = 14.",
				"a(3) = 2^(3^2)-3! = 506."
			],
			"mathematica": [
				"Table[2^(n^2) - n!, {n, 16}] // Flatten"
			],
			"xref": [
				"Cf. A000312, A002416, A036679, A101030, A199656, A344110, A344112, A344113."
			],
			"keyword": "nonn,easy",
			"offset": "1,2",
			"author": "_Mohammad K. Azarian_, Jun 04 2021",
			"references": 3,
			"revision": 12,
			"time": "2021-06-21T01:04:23-04:00",
			"created": "2021-06-21T01:04:23-04:00"
		}
	]
}