{
	"greeting": "Greetings from The On-Line Encyclopedia of Integer Sequences! http://oeis.org/",
	"query": "id:A344396",
	"count": 1,
	"start": 0,
	"results": [
		{
			"number": 344396,
			"data": "1,5,25,133,726,4037,22737,129285,740554,4266830,24701425,143567173,837212650,4896136845,28703894775,168640510725,992671051482,5853000551090,34562387229046,204368928058958,1209916827501876,7170955214476509,42543879586512435,252638095187722437",
			"name": "a(n) = binomial(2*n + 1, n)*hypergeom([-(n + 1)/2, -n/2], [n + 2], 4).",
			"comment": [
				"Related to the Motzkin triangle A064189 counting certain lattice paths."
			],
			"formula": [
				"a(n) = Sum_{j=0..2*n+1)} C(2*n + 1, j)*(C(2*n + 1 - j, j + n) - C(2*n + 1 - j, j + n + 2)).",
				"a(n) = A064189(2*n+1, n).",
				"a(n) = A026300(2*n+1, n+1).",
				"a(n) ~ sqrt((5242 + 18674/sqrt(13))/2187) * ((70 + 26*sqrt(13))/27)^n / sqrt(Pi*n). - _Vaclav Kotesovec_, May 19 2021"
			],
			"maple": [
				"alias(C=binomial):",
				"a := n -\u003e add(C(2*n + 1, j)*(C(2*n + 1 - j, j + n) - C(2*n + 1 - j, j + n + 2)), j = 0..2*n+1): seq(a(n), n=0..23);"
			],
			"mathematica": [
				"a[n_] := Binomial[2 n + 1, n] Hypergeometric2F1[-(n + 1)/2, -n/2, n + 2, 4];",
				"Table[a[n], {n, 0, 23}]"
			],
			"xref": [
				"Cf. A064189, A026300, A344394, A327871."
			],
			"keyword": "nonn",
			"offset": "0,2",
			"author": "_Peter Luschny_, May 19 2021",
			"references": 1,
			"revision": 8,
			"time": "2021-05-19T11:52:15-04:00",
			"created": "2021-05-19T11:52:15-04:00"
		}
	]
}