{
	"greeting": "Greetings from The On-Line Encyclopedia of Integer Sequences! http://oeis.org/",
	"query": "id:A344543",
	"count": 1,
	"start": 0,
	"results": [
		{
			"number": 344543,
			"data": "1,2,3,4,5,6,7,8,9,12,13,14,15,16,17,18,19,22,23,24,25,26,27,28,29,32,33,34,35,36,37,38,39,42,43,44,45,46,47,48,49,52,53,54,55,56,57,58,59,62,63,64,65,66,67,68,69,72,73,74,75,76,77,78,79,82,83,84,85,86,87,88,89,92,93,94,95,96,97,98",
			"name": "Lexicographically earliest sequence S of distinct positive terms such that the product of the last k digits of S is even, k being the rightmost digit of a(n).",
			"comment": [
				"No term ends with zero."
			],
			"example": [
				"a(7) = 7, k = 7, and the product 1*2*3*4*5*6*7 (= 5040) is even;",
				"a(8) = 8, k = 8, and the product 1*2*3*4*5*6*7*8 (= 40320) is even;",
				"a(9) = 9, k = 9, and the product 1*2*3*4*5*6*7*8*9 (= 362880) is even;",
				"a(10) = 12, k = 2, and the product 1*2 (= 2) is even;",
				"a(11) = 13, k = 3, and the product 1*2*3 (= 6) is even;",
				"a(12) = 14, k = 4, and the product 1*2*3*4 (= 24) is even; etc."
			],
			"xref": [
				"Cf. A344542."
			],
			"keyword": "base,nonn",
			"offset": "1,2",
			"author": "_Eric Angelini_ and _Carole Dubois_, May 30 2021",
			"references": 1,
			"revision": 11,
			"time": "2021-06-09T10:09:16-04:00",
			"created": "2021-05-31T21:21:36-04:00"
		}
	]
}