{
	"greeting": "Greetings from The On-Line Encyclopedia of Integer Sequences! http://oeis.org/",
	"query": "id:A344144",
	"count": 1,
	"start": 0,
	"results": [
		{
			"number": 344144,
			"data": "5,0,9,0,6,7,8,7,2,9,3,1,7,1,6,5,6,2,2,9,7,8,6,7,7,7,1,9,9,0,7,4,9,8,4,3,7,9,7,3,8,5,1,6,8,0,2,0,9,3,7,5,6,1,6,5,2,5,1,2,7,2,4,3,1,1,0,6,5,3,6,0,2,5,8,4,9,1,7,7,9,7,4,3,9,3,5",
			"name": "Decimal expansion of Sum_{n\u003e=0} A000108(n)/n!.",
			"formula": [
				"Equals e^2 * BesselI(2,2) = A072334 * A229020. - _Amiram Eldar_, May 17 2021"
			],
			"example": [
				"5.09067872931716562297867771990749843797385168020937561652512724311065360258491..."
			],
			"mathematica": [
				"RealDigits[E^2 * BesselI[2, 2], 10, 100][[1]] (* _Amiram Eldar_, May 17 2021 *)"
			],
			"program": [
				"(PARI) suminf(n=0, (2*n)!/(n!*n!*(n+1)!)) \\\\ _Michel Marcus_, May 16 2021"
			],
			"xref": [
				"Cf. A000108, A072334, A229020."
			],
			"keyword": "cons,nonn",
			"offset": "1,1",
			"author": "_Ya-Ping Lu_, May 10 2021",
			"references": 0,
			"revision": 17,
			"time": "2021-06-12T22:32:25-04:00",
			"created": "2021-06-12T22:32:25-04:00"
		}
	]
}