{
	"greeting": "Greetings from The On-Line Encyclopedia of Integer Sequences! http://oeis.org/",
	"query": "id:A344356",
	"count": 1,
	"start": 0,
	"results": [
		{
			"number": 344356,
			"data": "2147874,2266338,2690658,3189603,3464178,3754674,3847554,4030419,4165794,4457298,4884114,5229378,5624739,5978883,5980178,5981283,6014178,6044418,6134994,6258723,6313953,6400194,6576339,6593538,6612354,6899603,7088898,7498323,7811874,7918498,8064018,8292323",
			"name": "Numbers that are the sum of four fourth powers in five or more ways.",
			"link": [
				"David Consiglio, Jr., \u003ca href=\"/A344356/b344356.txt\"\u003eTable of n, a(n) for n = 1..20000\u003c/a\u003e"
			],
			"example": [
				"2690658 is a term of this sequence because 2690658 = 2^4 + 8^4 + 33^4 + 35^4 = 3^4 + 4^4 + 19^4 + 40^4 = 7^4 + 8^4 + 30^4 + 37^4 = 9^4 + 21^4 + 30^4 + 36^4 = 16^4 + 25^4 + 32^4 + 33^4."
			],
			"program": [
				"(Python)",
				"from itertools import combinations_with_replacement as cwr",
				"from collections import defaultdict",
				"keep = defaultdict(lambda: 0)",
				"power_terms = [x**4 for x in range(1, 50)]",
				"for pos in cwr(power_terms, 4):",
				"    tot = sum(pos)",
				"    keep[tot] += 1",
				"rets = sorted([k for k, v in keep.items() if v \u003e= 5])",
				"for x in range(len(rets)):",
				"    print(rets[x])"
			],
			"xref": [
				"Cf. A343987, A344352, A344357, A344358, A344364, A344904."
			],
			"keyword": "nonn",
			"offset": "1,1",
			"author": "_David Consiglio, Jr._, May 15 2021",
			"references": 7,
			"revision": 12,
			"time": "2021-07-31T18:21:58-04:00",
			"created": "2021-05-15T22:17:15-04:00"
		}
	]
}