{
	"greeting": "Greetings from The On-Line Encyclopedia of Integer Sequences! http://oeis.org/",
	"query": "id:A344417",
	"count": 1,
	"start": 0,
	"results": [
		{
			"number": 344417,
			"data": "1,1,1,2,1,1,1,2,2,1,1,2,1,1,1,4,1,2,1,2,1,1,1,2,2,1,2,2,1,1,1,4,1,1,1,5,1,1,1,2,1,1,1,2,2,1,1,4,2,2,1,2,1,2,1,2,1,1,1,2,1,1,2,7,1,1,1,2,1,1,1,5,1,1,2,2,1,1,1,4,4,1,1,2,1,1,1",
			"name": "Number of palindromic factorizations of n.",
			"comment": [
				"A palindrome is a sequence that is the same whether it is read forward or in reverse. A palindromic factorization of n is a finite multiset of positive integers \u003e 1 with product n that can be permuted into a palindrome."
			],
			"formula": [
				"a(2^n) = A025065(n).",
				"a(n) = A057567(A000188(n)). - _Andrew Howroyd_, May 22 2021"
			],
			"example": [
				"The palindromic factorizations for n = 2, 4, 16, 36, 64, 144:",
				"  (2)  (4)    (16)       (36)       (64)           (144)",
				"       (2*2)  (4*4)      (6*6)      (8*8)          (12*12)",
				"              (2*2*4)    (2*2*9)    (4*4*4)        (4*4*9)",
				"              (2*2*2*2)  (3*3*4)    (2*2*16)       (4*6*6)",
				"                         (2*2*3*3)  (2*2*4*4)      (2*2*36)",
				"                                    (2*2*2*2*4)    (3*3*16)",
				"                                    (2*2*2*2*2*2)  (2*2*6*6)",
				"                                                   (3*3*4*4)",
				"                                                   (2*2*2*2*9)",
				"                                                   (2*2*3*3*4)",
				"                                                   (2*2*2*2*3*3)"
			],
			"mathematica": [
				"facs[n_]:=If[n\u003c=1,{{}},Join@@Table[Map[Prepend[#,d]\u0026,Select[facs[n/d],Min@@#\u003e=d\u0026]],{d,Rest[Divisors[n]]}]];",
				"palQ[y_]:=Select[Permutations[y],#==Reverse[#]\u0026]!={};",
				"Table[Length[Select[facs[n],palQ]],{n,50}]"
			],
			"xref": [
				"Positions of 1's are A005117.",
				"The case of palindromic compositions is A016116.",
				"The additive version (palindromic partitions) is A025065.",
				"The case of palindromic prime signature is A242414.",
				"The case of palindromic plane trees is A319436.",
				"A001055 counts factorizations.",
				"A229153 ranks non-palindromic partitions.",
				"A265640 ranks palindromic partitions.",
				"Cf. A000041, A000070, A000188, A004526, A030229, A056503, A057567, A082293, A344414."
			],
			"keyword": "nonn",
			"offset": "1,4",
			"author": "_Gus Wiseman_, May 22 2021",
			"references": 1,
			"revision": 9,
			"time": "2021-05-23T00:20:08-04:00",
			"created": "2021-05-23T00:20:08-04:00"
		}
	]
}