{
	"greeting": "Greetings from The On-Line Encyclopedia of Integer Sequences! http://oeis.org/",
	"query": "id:A344916",
	"count": 1,
	"start": 0,
	"results": [
		{
			"number": 344916,
			"data": "7,3,6,7,8,9,9,1,1,4,1,3,4,4,8,6,4,3,9,8,8,3,7,4,5,7,5,4,4,4,3,2,1,6,9,3,3,6,5,5,4,6,5,6,9,1,1,0,0,6,1,3,2,8,5,2,8,9,1,1,1,8,7,0,5,5,9,8,7,7,0,3,5,4,0,1,4,7,4,6,1,2,9,2,0,4",
			"name": "Decimal expansion of Integral_{x=0..1} -x*zeta(1 - x).",
			"example": [
				"0.736789911413448643988374575444321693365546569110..."
			],
			"maple": [
				"Digits:=100: Int(-s*Zeta(1 - s), s=0..1): evalf(%*10^90):",
				"ListTools:-Reverse(convert(floor(%), base, 10));"
			],
			"mathematica": [
				"ndig = 100; RealDigits[N[-Integrate[x*Zeta[1 - x], {x, 0, 1}], ndig + 1], 10, ndig][[1]] (* _Amiram Eldar_, Jul 15 2021 *)"
			],
			"program": [
				"(PARI) intnum(x=0, 1, -x*zeta(1-x)) \\\\ _Michel Marcus_, Jul 15 2021"
			],
			"keyword": "nonn,cons",
			"offset": "0,1",
			"author": "_Peter Luschny_, Jul 15 2021",
			"references": 0,
			"revision": 11,
			"time": "2021-07-16T01:58:12-04:00",
			"created": "2021-07-15T07:22:29-04:00"
		}
	]
}