{
	"greeting": "Greetings from The On-Line Encyclopedia of Integer Sequences! http://oeis.org/",
	"query": "id:A345990",
	"count": 1,
	"start": 0,
	"results": [
		{
			"number": 345990,
			"data": "1,1,1,2,3,1,5,2,7,3,9,2,11,5,3,6,15,7,17,3,5,9,21,2,23,11,25,6,27,3,29,14,9,15,5,7,35,17,11,4,39,5,41,10,8,21,45,6,47,23,15,11,51,25,9,6,17,27,57,3,59,29,7,30,13,9,65,15,21,5,69,7,71,35,23,18,20,11,77,8,79,39,81,6,15,41,27,10,87,8",
			"name": "Smallest m such that n divides m*(m+1)*(m+2).",
			"link": [
				"N. J. A. Sloane, \u003ca href=\"/A345990/b345990.txt\"\u003eTable of n, a(n) for n = 1..10000\u003c/a\u003e"
			],
			"xref": [
				"Cf. A011772, A344005, A265647, A345989, A345991."
			],
			"keyword": "nonn",
			"offset": "1,4",
			"author": "_N. J. A. Sloane_, Jul 13 2021",
			"references": 2,
			"revision": 7,
			"time": "2021-07-13T18:12:12-04:00",
			"created": "2021-07-13T14:09:54-04:00"
		}
	]
}