{
	"greeting": "Greetings from The On-Line Encyclopedia of Integer Sequences! http://oeis.org/",
	"query": "id:A345585",
	"count": 1,
	"start": 0,
	"results": [
		{
			"number": 345585,
			"data": "17972,17987,19492,19507,19747,20116,20787,21268,21283,21333,21348,21413,21508,21523,21588,21892,21957,22067,22132,22563,22628,23172,23237,23252,23587,23588,23603,23653,23668,23733,23843,23908,24277,24452,24802,24948,25363",
			"name": "Numbers that are the sum of eight fourth powers in ten or more ways.",
			"link": [
				"Sean A. Irvine, \u003ca href=\"/A345585/b345585.txt\"\u003eTable of n, a(n) for n = 1..10000\u003c/a\u003e"
			],
			"example": [
				"17987 is a term because 17987 = 1^4 + 1^4 + 1^4 + 6^4 + 6^4 + 6^4 + 8^4 + 10^4 = 1^4 + 2^4 + 2^4 + 2^4 + 3^4 + 6^4 + 9^4 + 10^4 = 1^4 + 2^4 + 5^4 + 6^4 + 6^4 + 8^4 + 8^4 + 9^4 = 2^4 + 2^4 + 2^4 + 2^4 + 4^4 + 5^4 + 7^4 + 11^4 = 2^4 + 2^4 + 2^4 + 3^4 + 5^4 + 6^4 + 6^4 + 11^4 = 2^4 + 2^4 + 3^4 + 3^4 + 6^4 + 7^4 + 8^4 + 10^4 = 2^4 + 4^4 + 4^4 + 4^4 + 7^4 + 7^4 + 7^4 + 10^4 = 2^4 + 4^4 + 5^4 + 7^4 + 7^4 + 8^4 + 8^4 + 8^4 = 3^4 + 4^4 + 4^4 + 6^4 + 6^4 + 7^4 + 7^4 + 10^4 = 3^4 + 5^4 + 6^4 + 6^4 + 7^4 + 8^4 + 8^4 + 8^4."
			],
			"program": [
				"(Python)",
				"from itertools import combinations_with_replacement as cwr",
				"from collections import defaultdict",
				"keep = defaultdict(lambda: 0)",
				"power_terms = [x**4 for x in range(1, 1000)]",
				"for pos in cwr(power_terms, 8):",
				"    tot = sum(pos)",
				"    keep[tot] += 1",
				"    rets = sorted([k for k, v in keep.items() if v \u003e= 10])",
				"    for x in range(len(rets)):",
				"        print(rets[x])"
			],
			"xref": [
				"Cf. A345540, A345576, A345584, A345594, A345618, A345842."
			],
			"keyword": "nonn",
			"offset": "1,1",
			"author": "_David Consiglio, Jr._, Jun 20 2021",
			"references": 7,
			"revision": 6,
			"time": "2021-07-31T17:51:55-04:00",
			"created": "2021-06-20T22:42:42-04:00"
		}
	]
}