{
	"greeting": "Greetings from The On-Line Encyclopedia of Integer Sequences! http://oeis.org/",
	"query": "id:A345704",
	"count": 1,
	"start": 0,
	"results": [
		{
			"number": 345704,
			"data": "282,840,1596,1794,1920,2496,2928,3108,3522,3540,3594,4008,4188,4602,4620,4998,5268,5862,6060,6708,6888,7086,7788,7968,8382,8400,9048,9840,10362,10542,10920,11100,11568,12126,12162,12180,13422,14106,14322,14394,14880,15348",
			"name": "Zumkeller numbers k (A083207) such that the next Zumkeller number is k + 12.",
			"comment": [
				"Frank Buss and _T. D. Noe_ conjectured (see A083207) and _Robert Gerbicz_ proved that the largest possible gap between Zumkeller numbers is 12 (SeqFan post, 2010). A proof was also published by Mahanta et al. (2020)."
			],
			"link": [
				"Robert Gerbicz, \u003ca href=\"http://list.seqfan.eu/pipermail/seqfan/2010-July/005225.html\"\u003eA083207 On an observation of Frank Buss\u003c/a\u003e, posts to the SeqFan list, July 2010.",
				"Pankaj Jyoti Mahanta, Manjil P. Saikia and Daniel Yaqubi, \u003ca href=\"https://doi.org/10.1016/j.jnt.2020.05.003\"\u003eSome properties of Zumkeller numbers and k-layered numbers\u003c/a\u003e, Journal of Number Theory, Vol. 217 (2020), pp. 218-236."
			],
			"example": [
				"282 is a term since it is a Zumkeller number, and the next Zumkeller number is 282 + 12 = 294."
			],
			"mathematica": [
				"zumQ[n_] := Module[{d = Divisors[n], sum, x}, sum = Plus @@ d;  EvenQ[sum] \u0026\u0026 CoefficientList[Product[1 + x^i, {i, d}], x][[1 + sum/2]] \u003e 0]; z = Select[Range[5000], zumQ]; z[[Position[Differences[z], 12] // Flatten]]"
			],
			"xref": [
				"Cf. A083207, A179529, A328327."
			],
			"keyword": "nonn",
			"offset": "1,1",
			"author": "_Amiram Eldar_, Jun 24 2021",
			"references": 0,
			"revision": 5,
			"time": "2021-06-25T02:31:13-04:00",
			"created": "2021-06-25T02:31:13-04:00"
		}
	]
}