{
	"greeting": "Greetings from The On-Line Encyclopedia of Integer Sequences! http://oeis.org/",
	"query": "id:A345381",
	"count": 1,
	"start": 0,
	"results": [
		{
			"number": 345381,
			"data": "12,18,20,24,28,40,44,45,48,50,52,54,56,63,68,75,76,80,88,92,96,98,99,104,112,116,117,124,135,136,147,148,152,153,160,162,164,171,172,175,176,184,188,189,192,207,208,212,224,232,236,242,244,245,248,250,261,268,272,275",
			"name": "Numbers with exactly 2 semiprime divisors.",
			"comment": [
				"Numbers of the form p*q^k, where p and q are distinct primes and k\u003e1."
			],
			"link": [
				"Amiram Eldar, \u003ca href=\"/A345381/b345381.txt\"\u003eTable of n, a(n) for n = 1..10000\u003c/a\u003e"
			],
			"example": [
				"50 is in the sequence since it has exactly 2 semiprime divisors, 10 and 25."
			],
			"mathematica": [
				"Select[Range[300], Length[(e = Sort[FactorInteger[#][[;; , 2]]])] == 2 \u0026\u0026 Min[e] == 1 \u0026\u0026 Max[e] \u003e 1 \u0026] (* _Amiram Eldar_, Sep 30 2021 *)"
			],
			"program": [
				"(Python)",
				"from sympy import factorint",
				"def ok(n):",
				"    e = sorted(factorint(n).values())",
				"    return len(e) == 2 and e[0] == 1 and e[1] \u003e 1",
				"print([k for k in range(276) if ok(k)]) # _Michael S. Branicky_, Dec 18 2021"
			],
			"xref": [
				"Cf. A001358 (semiprimes).",
				"Supersequence of A054753, A096156."
			],
			"keyword": "nonn",
			"offset": "1,1",
			"author": "_Wesley Ivan Hurt_, Jun 16 2021",
			"references": 9,
			"revision": 11,
			"time": "2021-12-18T08:07:20-05:00",
			"created": "2021-06-16T20:32:37-04:00"
		}
	]
}