{
	"greeting": "Greetings from The On-Line Encyclopedia of Integer Sequences! http://oeis.org/",
	"query": "id:A345557",
	"count": 1,
	"start": 0,
	"results": [
		{
			"number": 345557,
			"data": "632,651,658,688,695,714,721,736,740,745,752,754,756,771,773,778,780,782,790,792,795,797,799,801,806,808,812,813,815,816,818,819,821,823,825,832,834,841,843,845,847,848,849,850,851,852,853,855,856,857,858,860",
			"name": "Numbers that are the sum of ten cubes in nine or more ways.",
			"link": [
				"Sean A. Irvine, \u003ca href=\"/A345557/b345557.txt\"\u003eTable of n, a(n) for n = 1..10000\u003c/a\u003e"
			],
			"example": [
				"651 is a term because 651 = 1^3 + 1^3 + 1^3 + 1^3 + 2^3 + 2^3 + 2^3 + 3^3 + 5^3 + 6^3 = 1^3 + 1^3 + 1^3 + 1^3 + 3^3 + 3^3 + 3^3 + 3^3 + 3^3 + 7^3 = 1^3 + 1^3 + 1^3 + 3^3 + 3^3 + 3^3 + 3^3 + 4^3 + 4^3 + 5^3 = 1^3 + 1^3 + 2^3 + 2^3 + 2^3 + 4^3 + 4^3 + 4^3 + 4^3 + 4^3 = 1^3 + 1^3 + 2^3 + 3^3 + 3^3 + 3^3 + 3^3 + 3^3 + 5^3 + 5^3 = 1^3 + 2^3 + 2^3 + 2^3 + 2^3 + 3^3 + 4^3 + 4^3 + 4^3 + 5^3 = 1^3 + 2^3 + 2^3 + 2^3 + 3^3 + 3^3 + 3^3 + 3^3 + 3^3 + 6^3 = 2^3 + 2^3 + 2^3 + 2^3 + 2^3 + 3^3 + 3^3 + 4^3 + 5^3 + 5^3 = 3^3 + 3^3 + 3^3 + 3^3 + 3^3 + 3^3 + 3^3 + 3^3 + 4^3 + 4^3."
			],
			"program": [
				"(Python)",
				"from itertools import combinations_with_replacement as cwr",
				"from collections import defaultdict",
				"keep = defaultdict(lambda: 0)",
				"power_terms = [x**3 for x in range(1, 1000)]",
				"for pos in cwr(power_terms, 10):",
				"    tot = sum(pos)",
				"    keep[tot] += 1",
				"    rets = sorted([k for k, v in keep.items() if v \u003e= 9])",
				"    for x in range(len(rets)):",
				"        print(rets[x])"
			],
			"xref": [
				"Cf. A345548, A345556, A345558, A345602, A345811."
			],
			"keyword": "nonn",
			"offset": "1,1",
			"author": "_David Consiglio, Jr._, Jun 20 2021",
			"references": 6,
			"revision": 6,
			"time": "2021-08-05T15:17:04-04:00",
			"created": "2021-06-20T21:49:04-04:00"
		}
	]
}