{
	"greeting": "Greetings from The On-Line Encyclopedia of Integer Sequences! http://oeis.org/",
	"query": "id:A345977",
	"count": 1,
	"start": 0,
	"results": [
		{
			"number": 345977,
			"data": "2,5,331,89,5297,11149,2960267,6189857,1645492081,1490842261,763377367829,1692363920551",
			"name": "a(n) is the first term in the n-term sum corresponding to A345976(n).",
			"example": [
				"See A345976."
			],
			"program": [
				"(Python)",
				"from sympy import nextprime, prime, primefactors, primerange",
				"def a(n):",
				"    plst = [p for p in primerange(1, prime(n)+1)]",
				"    while len(primefactors(sum(plst))) != n:",
				"        plst = plst[1:] + [nextprime(plst[-1])]",
				"    return plst[0]",
				"print([a(n) for n in range(1, 7)]) # _Michael S. Branicky_, Jul 16 2021"
			],
			"xref": [
				"Cf. A001221, A345976, A346382."
			],
			"keyword": "nonn,more",
			"offset": "1,1",
			"author": "_Hugo Pfoertner_, Jul 16 2021",
			"ext": [
				"a(8)-a(10) from _Michael S. Branicky_, Jul 16 2021",
				"a(11)-a(12) from _Martin Ehrenstein_, Jul 17 2021"
			],
			"references": 2,
			"revision": 22,
			"time": "2021-07-17T13:23:36-04:00",
			"created": "2021-07-16T19:58:49-04:00"
		}
	]
}