{
	"greeting": "Greetings from The On-Line Encyclopedia of Integer Sequences! http://oeis.org/",
	"query": "id:A345424",
	"count": 1,
	"start": 0,
	"results": [
		{
			"number": 345424,
			"data": "1,2,3,4,5,6,6,8,7,7,8,10,3,8,6,4,6,3,-6,2,-8,-7,-3,5,-24,-24,-25,-39,-30,-18,-30,-16,-52,-64,-56,-70,-91,-70,-78,-90,-94,-84,-137,-87,-99,-114,-108,-124,-194,-214,-206,-190,-209,-212,-226,-198,-192,-232,-221,-237,-358,-277,-287,-337",
			"name": "For 1\u003c=x\u003c=n, 1\u003c=y\u003c=n, with gcd(x,y)=1, write 1 = gcd(x,y) = u*x+v*y with u,v minimal; a(n) = sum of the values of v.",
			"comment": [
				"Minimal means minimize u^2+v^2. We follow Maple, PARI, etc., in setting u=0 and v=1 when x=y."
			],
			"program": [
				"(Python)",
				"from sympy.core.numbers import igcdex",
				"def A345424(n): return sum(v for u, v, w in (igcdex(x,y) for x in range(1,n+1) for y in range(1,n+1)) if w == 1) # _Chai Wah Wu_, Jun 22 2021"
			],
			"xref": [
				"Cf. A345415-A345428."
			],
			"keyword": "sign",
			"offset": "1,2",
			"author": "_N. J. A. Sloane_, Jun 22 2021",
			"references": 3,
			"revision": 15,
			"time": "2021-06-25T00:33:19-04:00",
			"created": "2021-06-22T06:18:59-04:00"
		}
	]
}