{
	"greeting": "Greetings from The On-Line Encyclopedia of Integer Sequences! http://oeis.org/",
	"query": "id:A345469",
	"count": 1,
	"start": 0,
	"results": [
		{
			"number": 345469,
			"data": "1,2,12,6,14,30,111,74,117,198,89,336,174,116,489,264,101,1251,2730,308,3219,4836,1274,2466,3999,1130,7266,15571,440,3225,4989,866,4674,8916,1154,22395,24786,1226,30126,26439,3110,26781,27366,3191,4149,12729,446,54759,26946,3779,16044,26841,4301",
			"name": "a(n) is the least k such that A345468(k) = 2*n-1.",
			"comment": [
				"a(n) is the least k such that (2*n-1)^2+4*k is prime but (2*m-1)^2+4*k is composite for all m from 1 to n-1."
			],
			"example": [
				"a(4) = 6 because 2*4-1 = 7 and 7^2+4*6 = 73 is prime but 1^2+4*6 = 25, 3^2+4*6 = 33 and 5^2+4*6=49 are not."
			],
			"maple": [
				"f:= proc(n) local k,m;",
				"  m:= 4*n;",
				"  for k from 1 by 2 do",
				"    if isprime(k^2+m) then return k fi",
				"  od",
				"end proc:",
				"V:= Vector(119):",
				"count:= 0:",
				"for n from 1 while count \u003c 60 do",
				"  v:= f(n);",
				"  if v \u003c= 119 and V[v]=0 then V[v]:= n; count:= count+1 fi",
				"od:",
				"seq(V[2*i-1],i=1..60);"
			],
			"xref": [
				"Cf. A345468."
			],
			"keyword": "nonn",
			"offset": "1,2",
			"author": "_Robert Israel_, Jun 20 2021",
			"references": 1,
			"revision": 5,
			"time": "2021-06-20T11:08:13-04:00",
			"created": "2021-06-20T11:08:13-04:00"
		}
	]
}