{
	"greeting": "Greetings from The On-Line Encyclopedia of Integer Sequences! http://oeis.org/",
	"query": "id:A345134",
	"count": 1,
	"start": 0,
	"results": [
		{
			"number": 345134,
			"data": "3,-6,18,-84,465,-2808,18123,-123240,871695,-6357570,47537226,-362856240,2818107513,-22211989086,177313630590,-1431231230160,11665618290897,-95907615415722,794586464675577,-6628717765058460",
			"name": "Diagonal Donaldson-Thomas invariants for the Kronecker quiver K3.",
			"comment": [
				"Apparently all terms are divisible by 3 and signs are alternating."
			],
			"link": [
				"Dmitry Galakhov, Pietro Longhi, Tom Mainiero, Gregory W. Moore and Andrew Neitzke, \u003ca href=\"https://arxiv.org/abs/1305.5454\"\u003eWild Wall Crossing and BPS Giants\u003c/a\u003e, arXiv:1305.5454 [hep-th], 2013.",
				"Thomas Joseph Mainiero, \u003ca href=\"http://hdl.handle.net/2152/31637\"\u003eBeyond Wild Walls there is Algebraicity and Exponential Growth (of BPS indices)\u003c/a\u003e, Ph.D. dissertation, University of Texas at Austin, 2015."
			],
			"formula": [
				"See appendix C (page 206) of Mainiero dissertation reference."
			],
			"mathematica": [
				"b[m_, n_] := Binomial[(m-1)^2*n, n];",
				"omega[m_, n_] := Sum[(-1)^(m*(n+d))*MoebiusMu[n/d]*",
				"    b[m, d], {d, Divisors[n]}]*(-1)^(m*n+1)*m/(m-1)^2/n^2;",
				"a[n_] := omega[3, n];",
				"a /@ Range[20] (* _Jean-François Alcover_, Jun 11 2021, from Sage code *)"
			],
			"program": [
				"(Sage)",
				"def b(m,n):",
				"    return binomial((m-1)**2*n, n)",
				"def omega(m,n):",
				"    step = sum((-1)**(m*(n+d))*moebius(n//d)*b(m,d) for d in divisors(n))",
				"    return (-1)**(m*n+1)*m/(m-1)**2/n**2 * step",
				"[omega(3,n) for n in range(1,12)]"
			],
			"xref": [
				"Related to A000260."
			],
			"keyword": "sign",
			"offset": "1,1",
			"author": "_F. Chapoton_, Jun 09 2021",
			"references": 0,
			"revision": 14,
			"time": "2021-06-11T17:15:05-04:00",
			"created": "2021-06-09T23:34:22-04:00"
		}
	]
}