{
	"greeting": "Greetings from The On-Line Encyclopedia of Integer Sequences! http://oeis.org/",
	"query": "id:A345066",
	"count": 1,
	"start": 0,
	"results": [
		{
			"number": 345066,
			"data": "1,3,2,0,1,7,3,2,8,3,7,6,2,7,8,0,8,4,1,2,7,9,1,6,3,1,7,8,7,2,4,9,1,9,9,5,6,0,3,8,5,9,1,9,0,9,8,5,7,5,7,3,3,9,7,9,8,3,4,2,5,1,4,1,8,4,7,3,3,6,1,5,8,0,1,0,0,9",
			"name": "Decimal expansion of phi^gamma, where gamma is the Euler-Mascheroni constant.",
			"example": [
				"1.3201732837627808412791631787249199560385919098575733979834..."
			],
			"mathematica": [
				"RealDigits[GoldenRatio^EulerGamma, 10, 100][[1]] (* _Amiram Eldar_, Jun 06 2021 *)"
			],
			"xref": [
				"Cf. A001622, A001620."
			],
			"keyword": "nonn,cons",
			"offset": "1,2",
			"author": "_Christoph B. Kassir_, Jun 06 2021",
			"references": 3,
			"revision": 18,
			"time": "2021-06-21T00:23:58-04:00",
			"created": "2021-06-21T00:23:58-04:00"
		}
	]
}