{
	"greeting": "Greetings from The On-Line Encyclopedia of Integer Sequences! http://oeis.org/",
	"query": "id:A345922",
	"count": 1,
	"start": 0,
	"results": [
		{
			"number": 345922,
			"data": "2,11,12,14,37,40,42,47,51,52,54,59,60,62,137,144,146,151,157,163,164,166,171,172,174,181,184,186,191,197,200,202,207,211,212,214,219,220,222,229,232,234,239,243,244,246,251,252,254,529,544,546,551,557,569",
			"name": "Numbers k such that the k-th composition in standard order (row k of A066099) has reverse-alternating sum 2.",
			"comment": [
				"The reverse-alternating sum of a sequence (y_1,...,y_k) is Sum_i (-1)^(k-i) y_i.",
				"The k-th composition in standard order (graded reverse-lexicographic, A066099) is obtained by taking the set of positions of 1's in the reversed binary expansion of k, prepending 0, taking first differences, and reversing again. This gives a bijective correspondence between nonnegative integers and integer compositions."
			],
			"example": [
				"The initial terms and the corresponding compositions:",
				"      2: (2)            144: (3,5)",
				"     11: (2,1,1)        146: (3,3,2)",
				"     12: (1,3)          151: (3,2,1,1,1)",
				"     14: (1,1,2)        157: (3,1,1,2,1)",
				"     37: (3,2,1)        163: (2,4,1,1)",
				"     40: (2,4)          164: (2,3,3)",
				"     42: (2,2,2)        166: (2,3,1,2)",
				"     47: (2,1,1,1,1)    171: (2,2,2,1,1)",
				"     51: (1,3,1,1)      172: (2,2,1,3)",
				"     52: (1,2,3)        174: (2,2,1,1,2)",
				"     54: (1,2,1,2)      181: (2,1,2,2,1)",
				"     59: (1,1,2,1,1)    184: (2,1,1,4)",
				"     60: (1,1,1,3)      186: (2,1,1,2,2)",
				"     62: (1,1,1,1,2)    191: (2,1,1,1,1,1,1)",
				"    137: (4,3,1)        197: (1,4,2,1)"
			],
			"mathematica": [
				"stc[n_]:=Differences[Prepend[Join@@Position[Reverse[IntegerDigits[n,2]],1],0]]//Reverse;",
				"sats[y_]:=Sum[(-1)^(i-Length[y])*y[[i]],{i,Length[y]}];",
				"Select[Range[0,100],sats[stc[#]]==2\u0026]"
			],
			"xref": [
				"These compositions are counted by A088218.",
				"The case of partitions is counted by A120452.",
				"These are the positions of 2's in A344618.",
				"The opposite (negative 2) version is A345923.",
				"The version for unreversed alternating sum is A345925.",
				"The version for Heinz numbers of partitions is A345961.",
				"A000041 counts partitions of 2n with alternating sum 0, ranked by A000290.",
				"A011782 counts compositions.",
				"A097805 counts compositions by alternating (or reverse-alternating) sum.",
				"A103919 counts partitions by sum and alternating sum (reverse: A344612).",
				"A316524 gives the alternating sum of prime indices (reverse: A344616).",
				"A344610 counts partitions by sum and positive reverse-alternating sum.",
				"A344611 counts partitions of 2n with reverse-alternating sum \u003e= 0.",
				"A345197 counts compositions by sum, length, and alternating sum.",
				"Standard compositions: A000120, A066099, A070939, A228351, A124754, A344618.",
				"Compositions of n, 2n, or 2n+1 with alternating/reverse-alternating sum k:",
				"- k = 0:  counted by A088218, ranked by A344619/A344619.",
				"- k = 1:  counted by A000984, ranked by A345909/A345911.",
				"- k = -1: counted by A001791, ranked by A345910/A345912.",
				"- k = 2:  counted by A088218, ranked by A345925/A345922.",
				"- k = -2: counted by A002054, ranked by A345924/A345923.",
				"- k \u003e= 0: counted by A116406, ranked by A345913/A345914.",
				"- k \u003c= 0: counted by A058622(n-1), ranked by A345915/A345916.",
				"- k \u003e 0:  counted by A027306, ranked by A345917/A345918.",
				"- k \u003c 0:  counted by A294175, ranked by A345919/A345920.",
				"- k != 0: counted by A058622, ranked by A345921/A345921.",
				"- k even: counted by A081294, ranked by A053754/A053754.",
				"- k odd:  counted by A000302, ranked by A053738/A053738.",
				"Cf. A000070, A000097, A025047, A027193, A034871, A114121, A163493, A236913, A344607, A344608, A344741, A344743."
			],
			"keyword": "nonn",
			"offset": "1,1",
			"author": "_Gus Wiseman_, Jul 10 2021",
			"references": 28,
			"revision": 6,
			"time": "2021-07-12T18:01:59-04:00",
			"created": "2021-07-12T18:01:59-04:00"
		}
	]
}