{
	"greeting": "Greetings from The On-Line Encyclopedia of Integer Sequences! http://oeis.org/",
	"query": "id:A346158",
	"count": 1,
	"start": 0,
	"results": [
		{
			"number": 346158,
			"data": "0,1,3,9,29,98,341,1210,4356,15860,58276,215748,803779,3010514,11327360,42789497,162200621,616735888,2351425517,8987222524,34425268864,132128622038,508050009119,1956763431726,7548022312030,29156726321546,112773951773678,436719024636650",
			"name": "Total number of weak left-to-right maxima in Dyck paths of semilength n.",
			"link": [
				"Aubrey Blecher and Arnold Knopfmacher, \u003ca href=\"https://arxiv.org/abs/2107.03102\"\u003eLeft to right maxima in Dyck Paths\u003c/a\u003e, arXiv:2107.03102 [math.CO], 2021. See Theorem 9 p. 12."
			],
			"formula": [
				"a(n) = Sum_{r=1..n} (d(r+2)-d(r))*(binomial(2*n-1,n-r)-binomial(2*n-1, n-r-1)) where d is A000005 and binomial is A007318."
			],
			"maple": [
				"a:= n-\u003e (d-\u003e add((binomial(2*n-1, n-r)-binomial(2*n-1, n-r-1))",
				"                 *(d(r+2)-d(r)), r=1..n))(numtheory[tau]):",
				"seq(a(n), n=0..27);  # _Alois P. Heinz_, Jul 08 2021"
			],
			"program": [
				"(PARI) a(n) = sum(r=1, n, (numdiv(r+2)-numdiv(r))*(binomial(2*n-1,n-r)-binomial(2*n-1, n-r-1)));"
			],
			"xref": [
				"Cf. A000005, A007318, A346157, A346195."
			],
			"keyword": "nonn",
			"offset": "0,3",
			"author": "_Michel Marcus_, Jul 08 2021",
			"references": 2,
			"revision": 10,
			"time": "2021-07-10T14:42:48-04:00",
			"created": "2021-07-08T21:01:40-04:00"
		}
	]
}