{
	"greeting": "Greetings from The On-Line Encyclopedia of Integer Sequences! http://oeis.org/",
	"query": "id:A346111",
	"count": 1,
	"start": 0,
	"results": [
		{
			"number": 346111,
			"data": "0,1,2,4,5,8,9,12,13,14,15,24,25,23,23,30,31,35,36,44,41,37,38,61,60,48,46,59,60,71,72,79,74,63,58,95,96,79,66,95,96,102,103,110,108,98,99,142,138,114,102,116,117,136,129,152,134,110,111,191,192,154,142",
			"name": "a(n) = Sum_{primes p \u003c=n} sigma(floor(n/p)).",
			"link": [
				"Michel Marcus, \u003ca href=\"/A346111/b346111.txt\"\u003eTable of n, a(n) for n = 1..10000\u003c/a\u003e"
			],
			"mathematica": [
				"a[n_] := Plus @@ DivisorSigma[1, Floor[n/Select[Range[n], PrimeQ]]]; Array[a, 100] (* _Amiram Eldar_, Jul 05 2021 *)"
			],
			"program": [
				"(PARI) a(n) = my(s=0); forprime(p=2, n, s+=sigma(n\\p)); s;"
			],
			"xref": [
				"Cf. A000203, A013939 (with k instead of sigma(k)), A344672 (with phi instead)."
			],
			"keyword": "nonn",
			"offset": "1,3",
			"author": "_Michel Marcus_, Jul 05 2021",
			"references": 3,
			"revision": 19,
			"time": "2021-12-25T12:02:56-05:00",
			"created": "2021-07-06T07:31:25-04:00"
		}
	]
}