{
	"greeting": "Greetings from The On-Line Encyclopedia of Integer Sequences! http://oeis.org/",
	"query": "id:A346564",
	"count": 1,
	"start": 0,
	"results": [
		{
			"number": 346564,
			"data": "1,2,20,26426,61390791862967,769671787836269530451291677988751813890576",
			"name": "Number of compositions (ordered partitions) of 3^n into powers of 3.",
			"comment": [
				"The next term is too large to include."
			],
			"link": [
				"\u003ca href=\"/index/Com#comp\"\u003eIndex entries for sequences related to compositions\u003c/a\u003e"
			],
			"formula": [
				"a(n) = [x^(3^n)] 1 / (1 - Sum_{k\u003e=0} x^(3^k)).",
				"a(n) = A078932(A000244(n))."
			],
			"mathematica": [
				"Table[SeriesCoefficient[1/(1 - Sum[x^(3^k), {k, 0, n}]), {x, 0, 3^n}], {n, 0, 5}]"
			],
			"xref": [
				"Cf. A000244, A078125, A078932, A248377, A337990, A346565."
			],
			"keyword": "nonn",
			"offset": "0,2",
			"author": "_Ilya Gutkovskiy_, Jul 23 2021",
			"references": 1,
			"revision": 5,
			"time": "2021-07-23T21:02:51-04:00",
			"created": "2021-07-23T21:02:51-04:00"
		}
	]
}