{
	"greeting": "Greetings from The On-Line Encyclopedia of Integer Sequences! http://oeis.org/",
	"query": "id:A346104",
	"count": 1,
	"start": 0,
	"results": [
		{
			"number": 346104,
			"data": "1,-1,-1,-1,-1,0,-1,-5,-11,0,-1,1,-1,0,-4,-1,-1,1,-1,1,-4,0,-1,-8,-49,0,7,1,-1,-48,-1,25,-4,0,-124,12,-1,0,-4,0,-1,-10,-1,1,-13,0,-1,41,-1485,1,-4,1,-1,22,-92,10,-4,0,-1,76,-1,0,-39,23,-262,2,-1,1,-4,134,-1,-138,-1,0,-1033,1,-240,2,-1,11,-201,0,-1,6",
			"name": "Dirichlet inverse of A342920.",
			"comment": [
				"The lowermost scatter plot gives an appearance of an elliptic galaxy seen from its side."
			],
			"link": [
				"Antti Karttunen, \u003ca href=\"/A346104/b346104.txt\"\u003eTable of n, a(n) for n = 1..10000\u003c/a\u003e",
				"\u003ca href=\"/index/Pri#primorialbase\"\u003eIndex entries for sequences related to primorial base\u003c/a\u003e",
				"\u003ca href=\"/index/Pri#primorial_numbers\"\u003eIndex entries for sequences related to primorial numbers\u003c/a\u003e"
			],
			"program": [
				"(PARI)",
				"up_to = 2310;",
				"DirInverseCorrect(v) = { my(u=vector(#v)); u[1] = (1/v[1]); for(n=2, #v, u[n] = (-u[1])*sumdiv(n, d, if(d\u003cn, v[n/d]*u[d], 0))); (u) }; \\\\ Compute the Dirichlet inverse of the sequence given in input vector v (correctly!)",
				"A034386(n) = prod(i=1, primepi(n), prime(i));",
				"A108951(n) = { my(f=factor(n)); prod(i=1, #f~, A034386(f[i, 1])^f[i, 2]) };  \\\\ From A108951",
				"A342002(n) = { my(s=0, m=1, p=2, e); while(n, e = (n%p); m *= p^(e\u003e0); s += (e/p); n = n\\p; p = nextprime(1+p)); (s*m); };",
				"A342920(n) = A342002(A108951(n));",
				"v346104 = DirInverseCorrect(vector(up_to,n,A342920(n)));",
				"A346104(n) = v346104[n];"
			],
			"xref": [
				"Cf. A108951, A324886, A342001, A342002, A342920, A346103.",
				"Cf. also A342417."
			],
			"keyword": "sign,look",
			"offset": "1,8",
			"author": "_Antti Karttunen_, Jul 09 2021",
			"references": 2,
			"revision": 17,
			"time": "2021-07-12T18:00:36-04:00",
			"created": "2021-07-09T22:17:13-04:00"
		}
	]
}