{
	"greeting": "Greetings from The On-Line Encyclopedia of Integer Sequences! http://oeis.org/",
	"query": "id:A346976",
	"count": 1,
	"start": 0,
	"results": [
		{
			"number": 346976,
			"data": "1,10,65,350,1666,6510,7855,-270050,-4942894,-63052990,-682650605,-6309889950,-42960995804,348211510,7739540496935,202902567668150,3863986259609686,61527382177040010,807717870749781475,7066953051021894250,-33781117662453993424",
			"name": "E.g.f.: log( 1 + (exp(x) - 1)^4 / 4! ).",
			"formula": [
				"a(n) = Stirling2(n,4) - (1/n) * Sum_{k=1..n-1} binomial(n,k) * Stirling2(n-k,4) * k * a(k).",
				"a(n) ~ -(n-1)! * 2^(n+1) * cos(n*arctan((2*arctan(1/(1 + 1/6^(1/4)))) / log(1 + 2*6^(1/4) + 2*6^(1/2)))) / (4*arctan(1/(1 + 1/6^(1/4)))^2 + log(1 + 2*6^(1/4) + 2*6^(1/2))^2)^(n/2). - _Vaclav Kotesovec_, Aug 09 2021"
			],
			"mathematica": [
				"nmax = 24; CoefficientList[Series[Log[1 + (Exp[x] - 1)^4/4!], {x, 0, nmax}], x] Range[0, nmax]! // Drop[#, 4] \u0026",
				"a[n_] := a[n] = StirlingS2[n, 4] - (1/n) Sum[Binomial[n, k] StirlingS2[n - k, 4] k a[k], {k, 1, n - 1}]; Table[a[n], {n, 4, 24}]"
			],
			"xref": [
				"Cf. A000453, A327505, A346954, A346974, A346975, A346977."
			],
			"keyword": "sign",
			"offset": "4,2",
			"author": "_Ilya Gutkovskiy_, Aug 09 2021",
			"references": 3,
			"revision": 7,
			"time": "2021-08-09T16:50:09-04:00",
			"created": "2021-08-09T16:50:09-04:00"
		}
	]
}