{
	"greeting": "Greetings from The On-Line Encyclopedia of Integer Sequences! http://oeis.org/",
	"query": "id:A346889",
	"count": 1,
	"start": 0,
	"results": [
		{
			"number": 346889,
			"data": "1,0,0,1,4,10,40,315,2296,15204,117720,1127445,11531740,120909646,1370809804,17111895255,227853866800,3182209445640,47003318806896,737325061500009,12187616610231540,210930852047426770,3821604062633503300,72479758506840597451",
			"name": "E.g.f.: 1 / (1 - x^3 * exp(x) / 3!).",
			"formula": [
				"a(0) = 1; a(n) = Sum_{k=1..n} binomial(n,k) * binomial(k,3) * a(n-k).",
				"a(n) ~ n! / ((1 + LambertW(2^(1/3)/3^(2/3))) * 3^(n+1) * LambertW(2^(1/3)/3^(2/3))^n). - _Vaclav Kotesovec_, Aug 08 2021"
			],
			"mathematica": [
				"nmax = 23; CoefficientList[Series[1/(1 - x^3 Exp[x]/3!), {x, 0, nmax}], x] Range[0, nmax]!",
				"a[0] = 1; a[n_] := a[n] = Sum[Binomial[n, k] Binomial[k, 3] a[n - k], {k, 1, n}]; Table[a[n], {n, 0, 23}]"
			],
			"program": [
				"(PARI) my(x='x+O('x^25)); Vec(serlaplace(1/(1-x^3*exp(x)/3!))) \\\\ _Michel Marcus_, Aug 06 2021"
			],
			"xref": [
				"Cf. A000292, A006153, A145453, A346888, A346890, A346893."
			],
			"keyword": "nonn",
			"offset": "0,5",
			"author": "_Ilya Gutkovskiy_, Aug 06 2021",
			"references": 3,
			"revision": 9,
			"time": "2021-08-08T12:51:09-04:00",
			"created": "2021-08-07T08:36:53-04:00"
		}
	]
}