{
	"greeting": "Greetings from The On-Line Encyclopedia of Integer Sequences! http://oeis.org/",
	"query": "id:A346269",
	"count": 1,
	"start": 0,
	"results": [
		{
			"number": 346269,
			"data": "1,1,5,25,195,1781,20043,260317,3881083,64978861,1209674883,24764370533,553130762451,13383468009445,348741065652619,9736370899180813,289948812396124875,9174320178178480829,307362076657095903411,10869452423023391315413,404614540610985119535715",
			"name": "Expansion of e.g.f. 1/(2 - x^2 - exp(x)).",
			"formula": [
				"a(n) ~ n! / ((2 + 2*r - r^2) * r^(n+1)), where r = A201752 = 0.5372744491738566... is the positive root of the equation 2 - r^2 - exp(r) = 0."
			],
			"mathematica": [
				"nmax = 20; CoefficientList[Normal[Series[1/(2-x^2-E^x), {x, 0, nmax}]], x] * Range[0, nmax]!"
			],
			"program": [
				"(PARI) my(x='x+O('x^25)); Vec(serlaplace(1/(2 - x^2 - exp(x)))) \\\\ _Michel Marcus_, Jul 12 2021"
			],
			"xref": [
				"Cf. A006155, A201752."
			],
			"keyword": "nonn",
			"offset": "0,3",
			"author": "_Vaclav Kotesovec_, Jul 12 2021",
			"references": 0,
			"revision": 12,
			"time": "2021-07-12T11:15:47-04:00",
			"created": "2021-07-12T10:58:43-04:00"
		}
	]
}