{
	"greeting": "Greetings from The On-Line Encyclopedia of Integer Sequences! http://oeis.org/",
	"query": "id:A346046",
	"count": 1,
	"start": 0,
	"results": [
		{
			"number": 346046,
			"data": "1,5,6,2,7,6,0,9,3,4,4,4,6,9,3,7,4,5,5,0,1,4,2,2,7,3,0,8,4,8,9,5,3,0,3,0,1,9,1,3,8,7,6,8,8,9,0,8,2,0,4,0,0,1,5,0,4,8,3,3,3,6,8,0,8,5,8,4,1,0,8,5,3,7,9,2,5,4,1,2,0,5,2,7,9,4,5,4,4,6,2,0,0,6,2,3,0,4,7,7",
			"name": "Decimal expansion of Sum_{k\u003e=1} 1/A053657(k).",
			"comment": [
				"This constant is irrational (Mingarelli, 2013)."
			],
			"link": [
				"Angelo B. Mingarelli, \u003ca href=\"http://nntdm.net/volume-19-2013/number-4/43-76/\"\u003eAbstract factorials\u003c/a\u003e, Notes on Number Theory and Discrete Mathematics, Vol. 19, No. 4 (2013), pp. 43-76 (see p. 60); \u003ca href=\"https://arxiv.org/abs/0705.4299\"\u003earXiv preprint\u003c/a\u003e, arXiv:0705.4299 [math.NT], 2007-2012."
			],
			"example": [
				"1.56276093444693745501422730848953030191387688908204..."
			],
			"mathematica": [
				"f[n_] := Product[p^Sum[Floor[(n - 1)/((p - 1) p^k)], {k, 0, n}], {p, Prime[Range[n]]}]; RealDigits[Sum[1/f[n], {n, 1, 100}], 10, 100] [[1]]"
			],
			"xref": [
				"Cf. A053657."
			],
			"keyword": "nonn,cons",
			"offset": "1,2",
			"author": "_Amiram Eldar_, Jul 02 2021",
			"references": 0,
			"revision": 5,
			"time": "2021-07-05T02:36:39-04:00",
			"created": "2021-07-05T02:36:39-04:00"
		}
	]
}