{
	"greeting": "Greetings from The On-Line Encyclopedia of Integer Sequences! http://oeis.org/",
	"query": "id:A346909",
	"count": 1,
	"start": 0,
	"results": [
		{
			"number": 346909,
			"data": "3,3,3,30,330,303000,33003300000,3030000030300000000000,3300330000000000330033000000000000000000000,30300000303000000000000000000000303000003030000000000000000000000000000000000000000000",
			"name": "Continued fraction expansion of the constant whose decimal expansion is A269707.",
			"comment": [
				"The next term has 171 digits and is too large to include in the Data section."
			],
			"reference": [
				"André Blanchard and Michel Mendès France, Symétrie et transcendance, Bull. Sc. Math., 2nd series, Vol. 106 (1982), pp. 325-335."
			],
			"link": [
				"M. Mendes France and A. J. van der Poorten, \u003ca href=\"https://doi.org/10.1112/S0025579300006380\"\u003eSome explicit continued fraction expansions\u003c/a\u003e, Mathematika, Vol. 38, No. 1 (1991), pp. 1-9."
			],
			"formula": [
				"a(n) = 3 * 10^((4^((n-3)/2)-1)/3) * Product_{k=0..(n-5)/2} (1 + 10^(4^k)), if n \u003e 2 is odd, and 3 * 10^((2*4^(n/2-2)+1)/3) * Product_{k=0..n/2-3} (1 + 10^(2*4^k)), if n \u003e 2 is even."
			],
			"example": [
				"3 + 1/(3 + 1/(3 + 1/(30 + 1/(330 + ... )))) = 3.30033000000000033... (A269707)."
			],
			"mathematica": [
				"a[1] = a[2] = 3; a[n_] := 3 * If[OddQ[n], 10^((4^((n - 3)/2) - 1)/3) * Product[1 + 10^(4^k), {k, 0, (n - 5)/2}], 10^((2*4^(n/2 - 2) + 1)/3) * Product[1 + 10^(2*4^k), {k, 0, n/2 - 3}]]; Array[a, 10]"
			],
			"xref": [
				"Cf. A269707."
			],
			"keyword": "nonn,cofr,base",
			"offset": "1,1",
			"author": "_Amiram Eldar_, Aug 06 2021",
			"references": 0,
			"revision": 9,
			"time": "2021-08-07T01:39:59-04:00",
			"created": "2021-08-07T01:39:59-04:00"
		}
	]
}