{
	"greeting": "Greetings from The On-Line Encyclopedia of Integer Sequences! http://oeis.org/",
	"query": "id:A346170",
	"count": 1,
	"start": 0,
	"results": [
		{
			"number": 346170,
			"data": "2,9,1,4,7,3,1,9,2,0,1,0,1,7,6,3,1,5,4,2,9,6,3,8,4,7,0,2,2,2,8,6,7,5,6,9,0,0,8,5,7,2,9,7,0,4,5,2,7,2,7,9,0,5,2,5,4,5,3,4,1,2,5,0,1,7,0,0,1,9,0,4,5,1,8,8,0,5,4,7,3,9,1,0,2,6,5,8,7,3,3,4,0,5,5,0,4,8,1,2",
			"name": "Decimal expansion of Sum_{k\u003e=1} 2^primepi(k)/k!.",
			"comment": [
				"This constant is irrational (Hančl and Tijdeman, 2010)."
			],
			"link": [
				"Jaroslav Hančl and Robert Tijdeman, \u003ca href=\"http://dx.doi.org/10.1016/j.jnt.2009.10.005\"\u003eOn the irrationality of factorial series II\u003c/a\u003e, Journal of Number Theory, Vol. 130, No. 3 (2010), pp. 595-607."
			],
			"example": [
				"2.91473192010176315429638470222867569008572970452727..."
			],
			"mathematica": [
				"RealDigits[Sum[2^PrimePi[i]/i!, {i, 1, 100}], 10, 100][[1]]"
			],
			"program": [
				"(PARI) suminf(k=1, 2^primepi(k)/k!) \\\\ _Michel Marcus_, Jul 09 2021"
			],
			"xref": [
				"Cf. A000142, A000720, A048656, A346171."
			],
			"keyword": "nonn,cons",
			"offset": "1,1",
			"author": "_Amiram Eldar_, Jul 08 2021",
			"references": 1,
			"revision": 9,
			"time": "2021-07-09T07:25:20-04:00",
			"created": "2021-07-08T22:09:37-04:00"
		}
	]
}