{
	"greeting": "Greetings from The On-Line Encyclopedia of Integer Sequences! http://oeis.org/",
	"query": "id:A346646",
	"count": 1,
	"start": 0,
	"results": [
		{
			"number": 346646,
			"data": "1,2,7,38,257,1935,15505,129519,1115061,9823160,88121887,802227794,7392428009,68819554003,646276497617,6114880542117,58237420303109,557850829527246,5370956411708779,51947475492561014,504492516832543885,4917564488572565160",
			"name": "a(n) = Sum_{k=0..n} binomial(n,k) * binomial(4*k,k) / (3*k + 1).",
			"comment": [
				"Binomial transform of A002293."
			],
			"link": [
				"Seiichi Manyama, \u003ca href=\"/A346646/b346646.txt\"\u003eTable of n, a(n) for n = 0..500\u003c/a\u003e"
			],
			"formula": [
				"G.f. A(x) satisfies: A(x) = 1 / (1 - x) + x * (1 - x)^2 * A(x)^4.",
				"G.f.: Sum_{k\u003e=0} ( binomial(4*k,k) / (3*k + 1) ) * x^k / (1 - x)^(k+1).",
				"a(n) ~ 283^(n + 3/2) / (2048 * sqrt(2*Pi) * n^(3/2) * 3^(3*n + 3/2)). - _Vaclav Kotesovec_, Jul 30 2021"
			],
			"mathematica": [
				"Table[Sum[Binomial[n, k] Binomial[4 k, k]/(3 k + 1), {k, 0, n}], {n, 0, 21}]",
				"nmax = 21; A[_] = 0; Do[A[x_] = 1/(1 - x) + x (1 - x)^2 A[x]^4 + O[x]^(nmax + 1) // Normal, nmax + 1]; CoefficientList[A[x], x]",
				"nmax = 21; CoefficientList[Series[Sum[(Binomial[4 k, k]/(3 k + 1)) x^k/(1 - x)^(k + 1), {k, 0, nmax}], {x, 0, nmax}], x]",
				"Table[HypergeometricPFQ[{1/4, 1/2, 3/4, -n}, {2/3, 1, 4/3}, -256/27], {n, 0, 21}]"
			],
			"program": [
				"(PARI) a(n) = sum(k=0, n, binomial(n,k)*binomial(4*k,k)/(3*k + 1)); \\\\ _Michel Marcus_, Jul 26 2021"
			],
			"xref": [
				"Cf. A002293, A007317, A104859, A188687, A226974, A346647, A346648, A346649, A346650."
			],
			"keyword": "nonn",
			"offset": "0,2",
			"author": "_Ilya Gutkovskiy_, Jul 26 2021",
			"references": 11,
			"revision": 13,
			"time": "2021-11-16T03:07:19-05:00",
			"created": "2021-07-26T20:55:47-04:00"
		}
	]
}