{
	"greeting": "Greetings from The On-Line Encyclopedia of Integer Sequences! http://oeis.org/",
	"query": "id:A347158",
	"count": 1,
	"start": 0,
	"results": [
		{
			"number": 347158,
			"data": "0,0,0,0,0,16,0,16,0,16,0,97,0,16,81,16,0,97,0,16,81,16,0,97,0,16,81,16,0,722,0,16,81,16,625,97,0,16,81,641,0,97,0,16,706,16,0,97,0,641,81,16,0,97,625,2417,81,16,0,722,0,16,2482,16,625,97,0,16,81,3042",
			"name": "Sum of 4th powers of distinct prime divisors of n that are \u003c sqrt(n).",
			"formula": [
				"G.f.: Sum_{k\u003e=1} prime(k)^4 * x^(prime(k)*(prime(k) + 1)) / (1 - x^prime(k))."
			],
			"mathematica": [
				"Table[DivisorSum[n, #^4 \u0026, # \u003c Sqrt[n] \u0026\u0026 PrimeQ[#] \u0026], {n, 1, 70}]",
				"nmax = 70; CoefficientList[Series[Sum[Prime[k]^4 x^(Prime[k] (Prime[k] + 1))/(1 - x^Prime[k]), {k, 1, nmax}], {x, 0, nmax}], x] // Rest"
			],
			"xref": [
				"Cf. A001159, A005065, A005068, A333806, A333808, A347142, A347156, A347157."
			],
			"keyword": "nonn",
			"offset": "1,6",
			"author": "_Ilya Gutkovskiy_, Aug 20 2021",
			"references": 3,
			"revision": 4,
			"time": "2021-08-20T22:52:29-04:00",
			"created": "2021-08-20T22:52:29-04:00"
		}
	]
}