{
	"greeting": "Greetings from The On-Line Encyclopedia of Integer Sequences! http://oeis.org/",
	"query": "id:A347934",
	"count": 1,
	"start": 0,
	"results": [
		{
			"number": 347934,
			"data": "5,25601,193601,1144901,1464101,4326401,6100901,12390401,23522501,72931601,127012901,245862401,256960901,351937601,441840401,732784901,802588901,951722501,1621672901,2024100101,2070250001,2217468101,2219352101,2428518401,2930056901,2963713601",
			"name": "Primes p such that p+2 and 2p+1 are also prime and p is of the form k^2+1.",
			"comment": [
				"All primes (except 5) in the sequence are of the form 100*k^2+1."
			],
			"mathematica": [
				"Select[Range[50000]^2 + 1, AllTrue[{#, # + 2, 2*# + 1}, PrimeQ] \u0026] (* _Amiram Eldar_, Sep 20 2021 *)"
			],
			"xref": [
				"Intersection of A002496 and A045536."
			],
			"keyword": "nonn",
			"offset": "1,1",
			"author": "_Angad Singh_, Sep 20 2021",
			"references": 0,
			"revision": 23,
			"time": "2021-10-29T02:23:14-04:00",
			"created": "2021-10-29T02:23:14-04:00"
		}
	]
}