{
	"greeting": "Greetings from The On-Line Encyclopedia of Integer Sequences! http://oeis.org/",
	"query": "id:A347617",
	"count": 1,
	"start": 0,
	"results": [
		{
			"number": 347617,
			"data": "0,1,1,1,1,0,1,1,1,0,1,1,2,1,0,1,1,4,7,1,0,1,1,8,61,34,1,0,1,1,16,547,1906,192,1,0,1,1,32,4921,117874,91606,1206,1,0,1,1,64,44287,7478386,53830967,6023602,8033,1,0,1,1,128,398581,477568114,33219689231,43054503928,505853354,55974,1,0",
			"name": "Square array T(n,k), n \u003e= 0, k \u003e= 0, read by antidiagonals downwards, where T(n,k) is the number of partitions of n^k into exactly n parts.",
			"formula": [
				"T(n,k) = [x^(n^k-n)] Product_{j=1..n} 1/(1-x^j)."
			],
			"example": [
				"Square array begins:",
				"  0, 1,   1,     1,        1,           1, ...",
				"  1, 1,   1,     1,        1,           1, ...",
				"  0, 1,   2,     4,        8,          16, ...",
				"  0, 1,   7,    61,      547,        4921, ...",
				"  0, 1,  34,  1906,   117874,     7478386, ...",
				"  0, 1, 192, 91606, 53830967, 33219689231, ..."
			],
			"program": [
				"(PARI) T(n, k) = if(k==0, n==1, polcoef(prod(j=1, n, 1/(1-x^j+x*O(x^(n^k-n)))), n^k-n));"
			],
			"xref": [
				"Columns k=0..3 give A063524, A000012, A206240, A304176.",
				"Main diagonal gives A347606.",
				"Cf. A238016, A347615, A347618."
			],
			"keyword": "nonn,tabl",
			"offset": "0,13",
			"author": "_Seiichi Manyama_, Sep 08 2021",
			"references": 2,
			"revision": 15,
			"time": "2021-09-09T10:42:10-04:00",
			"created": "2021-09-09T10:42:10-04:00"
		}
	]
}