{
	"greeting": "Greetings from The On-Line Encyclopedia of Integer Sequences! http://oeis.org/",
	"query": "id:A347138",
	"count": 1,
	"start": 0,
	"results": [
		{
			"number": 347138,
			"data": "3,293,461,11867,90089",
			"name": "Numbers k such that (100^k + 1)/101 is prime.",
			"comment": [
				"These are the repunit primes in base -100. It is unusual to represent numbers in a negative base, but it follows the same formulation as any base: numbers are represented as a sum of powers in that base, i.e., a0*1 + a1*b^1 + a2*b^2 + a3*b^3 ... Since the base is negative, the terms will be alternating positive/negative. For repunits the coefficients are all ones so the sum reduces to 1 + b + b^2 + b^3 + ... + b^(k-1) = (b^k-1)/(b-1). Since b is negative and k is an odd prime, the sum equals (|b|^k+1)/(|b|+1). For k=3, the sum is 9901, which is prime. As with all repunits, we only need to PRP test the prime exponents. The factors of repunits base -100 will be of the form p=2*k*m+1 where m must be even, which is common for (negative) bases that are squares."
			],
			"link": [
				"Paul Bourdelais, \u003ca href=\"https://listserv.nodak.edu/cgi-bin/wa.exe?A2=NMBRTHRY;417ab0d6.0906\"\u003eA Generalized Repunit Conjecture\u003c/a\u003e"
			],
			"example": [
				"3 is a term since (100^3 + 1)/101 = 9901 is a prime."
			],
			"mathematica": [
				"Do[ If[ PrimeQ[ (100^n + 1)/101], Print[n]], {n, 0, 18000}]"
			],
			"program": [
				"(PARI) is(n)=isprime((100^n+1)/101)"
			],
			"xref": [
				"Cf. A309533, A309532, A237052, A229145, A057191, A057182, A057175."
			],
			"keyword": "nonn,hard,more",
			"offset": "1,1",
			"author": "_Paul Bourdelais_, Aug 19 2021",
			"references": 0,
			"revision": 37,
			"time": "2021-09-22T03:20:05-04:00",
			"created": "2021-09-21T11:56:36-04:00"
		}
	]
}