{
	"greeting": "Greetings from The On-Line Encyclopedia of Integer Sequences! http://oeis.org/",
	"query": "id:A347146",
	"count": 1,
	"start": 0,
	"results": [
		{
			"number": 347146,
			"data": "0,4,27,1028,3125,233311,823543,201327620,2324522961,70000003129,285311670611,142657607406431,302875106592253,100008061430845691,3503151123046878152,590295810358906979332,827240261886336764177,826274569581229613840149,1978419655660313589123979",
			"name": "a(n) = Sum_{d|n} (d^d)', where ' is the arithmetic derivative.",
			"link": [
				"Michael De Vlieger, \u003ca href=\"/A347146/b347146.txt\"\u003eTable of n, a(n) for n = 1..385\u003c/a\u003e"
			],
			"formula": [
				"a(n) = Sum_{d|n} A068327(d). - _R. J. Mathar_, Oct 19 2021"
			],
			"example": [
				"a(4) = (1^1)' + (2^2)' + (4^4)' = 1' + 4' + 256' = 0 + 4 + 1024 = 1028."
			],
			"maple": [
				"A347146 := proc(n)",
				"    add(A068327(d),d=numtheory[divisors](n)) ;",
				"end proc:",
				"seq( A347146(n),n=1..10) ; # _R. J. Mathar_, Oct 19 2021"
			],
			"mathematica": [
				"d[0] = d[1] = 0; d[n_] := n * Plus @@ ((Last[#]/First[#]) \u0026 /@ FactorInteger[n]); a[n_] := DivisorSum[n, d[#^#] \u0026]; Array[a, 20] (* _Amiram Eldar_, Oct 16 2021 *)"
			],
			"program": [
				"(PARI) ad(n) = vecsum([n/f[1]*f[2]|f\u003c-factor(n+!n)~]); \\\\ A003415",
				"a(n) = sumdiv(n, d, ad(d^d)); \\\\ _Michel Marcus_, Oct 18 2021"
			],
			"xref": [
				"Cf. A003415, A068327."
			],
			"keyword": "nonn",
			"offset": "1,2",
			"author": "_Wesley Ivan Hurt_, Oct 16 2021",
			"references": 1,
			"revision": 43,
			"time": "2021-12-31T21:01:21-05:00",
			"created": "2021-10-17T15:44:59-04:00"
		}
	]
}