{
	"greeting": "Greetings from The On-Line Encyclopedia of Integer Sequences! http://oeis.org/",
	"query": "id:A347826",
	"count": 1,
	"start": 0,
	"results": [
		{
			"number": 347826,
			"data": "",
			"name": "allocated for Eric Chen",
			"keyword": "allocated",
			"references": 0,
			"revision": 1,
			"time": "2021-09-15T08:44:04-04:00",
			"created": "0000-12-31T19:03:58-04:56"
		}
	]
}