{
	"greeting": "Greetings from The On-Line Encyclopedia of Integer Sequences! http://oeis.org/",
	"query": "id:A347569",
	"count": 1,
	"start": 0,
	"results": [
		{
			"number": 347569,
			"data": "2320,244817,3421052,18420699,64025680,131223239,431008820,681922142",
			"name": "Number of ways 1/n can be expressed as the sum of six distinct unit fractions: 1/n = 1/p + 1/q + 1/r + 1/s + 1/t + 1/u, with 0 \u003c p \u003c q \u003c r \u003c s \u003c t \u003c u.",
			"xref": [
				"Cf. A002966, A073546, A227610, A241883, A347566."
			],
			"keyword": "nonn,hard,more",
			"offset": "1,1",
			"author": "_Jud McCranie_, Sep 06 2021",
			"ext": [
				"a(7) and a(8) from _Jud McCranie_, Oct 15 2021"
			],
			"references": 3,
			"revision": 25,
			"time": "2021-10-17T15:47:00-04:00",
			"created": "2021-09-12T12:53:10-04:00"
		}
	]
}