{
	"greeting": "Greetings from The On-Line Encyclopedia of Integer Sequences! http://oeis.org/",
	"query": "id:A347843",
	"count": 1,
	"start": 0,
	"results": [
		{
			"number": 347843,
			"data": "1,7,249,44643,40065301,179833594207,4036127700341649,452932494435315724443,254139954749268142006053901,712988623255130761190069046824407,10001434425838325885839124865408303623049",
			"name": "a(n) is the number of (strict) chains of subspaces with ends 0 and (F_5)^n.",
			"link": [
				"Álvar Ibeas, \u003ca href=\"/A347843/b347843.txt\"\u003eTable of n, a(n) for n = 1..40\u003c/a\u003e"
			],
			"formula": [
				"a(n) = Sum_{L partition of n} A347488(n, L) * A036038(len(L), sig(L)), where sig(L) is the partition composed by the part multiplicities of L."
			],
			"example": [
				"a(3) = 249 = 1 * 1 + 31 * 2 + 186 * 1, counting:",
				"the unrefined chain 0 \u003c (F_5)^3;",
				"31 chains 0 \u003c V \u003c (F_5)^3, with dim(V) = 1; another",
				"31 chains 0 \u003c V \u003c (F_5)^3, with dim(V) = 2; and",
				"186 chains 0 \u003c V_1 \u003c V_2 \u003c (F_5)^3."
			],
			"xref": [
				"Cf. A289545, A347488, A036038."
			],
			"keyword": "nonn",
			"offset": "1,2",
			"author": "_Álvar Ibeas_, Sep 15 2021",
			"references": 2,
			"revision": 9,
			"time": "2021-09-18T07:44:33-04:00",
			"created": "2021-09-16T02:20:40-04:00"
		}
	]
}