{
	"greeting": "Greetings from The On-Line Encyclopedia of Integer Sequences! http://oeis.org/",
	"query": "id:A347881",
	"count": 1,
	"start": 0,
	"results": [
		{
			"number": 347881,
			"data": "105,201,231,237,259,273,315,333,399,429,455,469,483,525,553,555,585,603,627,651,665,693,711,741,763,777,819,855,871,903,975,1001,1005,1027,1057,1071,1085,1113,1119,1141,1155,1185,1197,1209,1221,1235,1273,1281,1287,1295,1351,1365,1395,1407,1443,1449,1463,1467,1501",
			"name": "Odd numbers k for which A003415(sigma(k^2)) \u003e k^2, where A003415 is the arithmetic derivative.",
			"comment": [
				"Odd numbers k such that A342926(k^2) is strictly positive.",
				"Square roots of odd squares present in A343218."
			],
			"mathematica": [
				"ad[1] = 0; ad[n_] := n * Total@(Last[#]/First[#]\u0026 /@ FactorInteger[n]); Select[Range[1, 1501, 2], ad[DivisorSigma[1, #^2]] \u003e #^2 \u0026] (* _Amiram Eldar_, Sep 18 2021 *)"
			],
			"program": [
				"(PARI)",
				"A003415(n) = if(n\u003c=1, 0, my(f=factor(n)); n*sum(i=1, #f~, f[i, 2]/f[i, 1]));",
				"isA347881(n) = ((n%2)\u0026\u0026(A003415(sigma(n^2))\u003e(n^2)));"
			],
			"xref": [
				"Cf. A000203, A003415, A343218, A342926, A347882 (subsequence)."
			],
			"keyword": "nonn",
			"offset": "1,1",
			"author": "_Antti Karttunen_, Sep 18 2021",
			"references": 3,
			"revision": 9,
			"time": "2021-09-18T22:05:20-04:00",
			"created": "2021-09-18T22:05:20-04:00"
		}
	]
}