{
	"greeting": "Greetings from The On-Line Encyclopedia of Integer Sequences! http://oeis.org/",
	"query": "id:A347481",
	"count": 1,
	"start": 0,
	"results": [
		{
			"number": 347481,
			"data": "4,10,25,54,104,205,410,814,1609,3190,6340,12609,25094,49990,99665,198814,396784,792205,1582210,3160854,6315929,12622510,25229900,50435329,100831054,201598030,403092385,806017014,1611762584,3223085965,6445461290,12889772734",
			"name": "Number of total dominating sets in the n-dipyramidal graph.",
			"comment": [
				"Sequence extended to a(1) using the formula/recurrence."
			],
			"link": [
				"Eric Weisstein's World of Mathematics, \u003ca href=\"http://mathworld.wolfram.com/DipyramidalGraph.html\"\u003eDipyramidal Graph\u003c/a\u003e",
				"Eric Weisstein's World of Mathematics, \u003ca href=\"http://mathworld.wolfram.com/TotalDominatingSet.html\"\u003eTotal Dominating Set\u003c/a\u003e",
				"\u003ca href=\"/index/Rec#order_06\"\u003eIndex entries for linear recurrences with constant coefficients\u003c/a\u003e, signature (4,-5,3,-2,-1,2)."
			],
			"formula": [
				"a(n) = Lucas(n) + 2*cos(n*Pi/2) + 3*2^n - 3.",
				"a(n) = 4*a(n-1) - 5*a(n-2) + 3*a(n-3) - 2*a(n-4) - a(n-5) + 2*a(n-6).",
				"G.f.: -(x*(4 - 6*x + 5*x^2 - 8*x^3 - 9*x^4 + 8*x^5)/((-1 + x)*(-1 +",
				"    2*x)*(1 + x^2)*(-1 + x + x^2))."
			],
			"mathematica": [
				"Table[LucasL[n] + 2 Cos[n Pi/2] + 3 2^n - 3, {n, 50}]",
				"LinearRecurrence[{4, -5, 3, -2, -1, 2}, {4, 10, 25, 54, 104, 205}, 20]",
				"CoefficientList[Series[-(4 - 6 x + 5 x^2 - 8 x^3 - 9 x^4 + 8 x^5)/((-1 + x) (-1 + 2 x) (1 + x^2) (-1 + x + x^2)), {x, 0, 20}], x]"
			],
			"keyword": "nonn",
			"offset": "1,1",
			"author": "_Eric W. Weisstein_, Sep 03 2021",
			"references": 0,
			"revision": 11,
			"time": "2021-09-05T19:22:07-04:00",
			"created": "2021-09-03T14:02:15-04:00"
		}
	]
}