{
	"greeting": "Greetings from The On-Line Encyclopedia of Integer Sequences! http://oeis.org/",
	"query": "id:A347643",
	"count": 1,
	"start": 0,
	"results": [
		{
			"number": 347643,
			"data": "1,1,2,2,3,3,3,3,4,4,4,4,4,4,4,3,5,4,5,4,5,4,4,3,5,4,5,5,5,4,6,4,8,5,7,4,7,3,6,4,6,4,6,4,6,5,6,3,8,4,8,4,6,3,9,3,7,4,6,3,8,4,7,4,8,3,9,3,8,5,7,3,10,4,8,6",
			"name": "Number of partitions of n into at most 2 prime powers (including 1).",
			"xref": [
				"Cf. A000961, A023893, A071330, A347644, A347645, A347646, A347647."
			],
			"keyword": "nonn",
			"offset": "0,3",
			"author": "_Ilya Gutkovskiy_, Sep 09 2021",
			"references": 4,
			"revision": 5,
			"time": "2021-09-09T15:58:07-04:00",
			"created": "2021-09-09T15:58:07-04:00"
		}
	]
}