{
	"greeting": "Greetings from The On-Line Encyclopedia of Integer Sequences! http://oeis.org/",
	"query": "id:A347145",
	"count": 1,
	"start": 0,
	"results": [
		{
			"number": 347145,
			"data": "1,8,4,8,2,5,4,5,1,7,6,1,1,2,1,8,9,0,3,8,1,1,9,3,1,4,9,3,9,6",
			"name": "Decimal expansion of Sum_{n\u003e=1} 1/(n*H(n)^2) where H(n) is the n-th harmonic number.",
			"comment": [
				"Theorem: If u(n) is a series with positive terms such that u(n) -\u003e 0 when n -\u003e oo and that is divergent, i.e., Sum_{n\u003e=0} u(n) = oo, let S(n) = Sum_{k=0..n} u(k) then, the series of term v(n) = u(n)/S(n)^q is convergent iff q\u003e1.",
				"The simplest application is for u(n) = 1/n, S(n) = H(n) = 1 + 1/2 + ... + 1/n, then the series of term w(n) = 1/(n*H(n)^q) is convergent iff q\u003e1.",
				"This sequence gives this limit when q = 2."
			],
			"reference": [
				"Xavier Gourdon, Analyse, Les Maths en tête, Exercice 5, page 213, Ellipses, 1994.",
				"J. Lelong-Ferrand and J. M. Arnaudiès, Cours de Mathématiques, Tome 2, Analyse, 4ème édition, Classes préparatoires, 1er cycle universitaire, Exercice 21, p. 599, Dunod Université, 1977."
			],
			"example": [
				"1.84825451761121890381193149396..."
			],
			"mathematica": [
				"RealDigits[N[Sum[1/(n*HarmonicNumber[n]^2), {n, 1, Infinity}], 33], 10, 30][[1]] (* _Amiram Eldar_, Oct 02 2021 *)"
			],
			"xref": [
				"Cf. A001008, A002805, A115563."
			],
			"keyword": "nonn,cons,more",
			"offset": "1,2",
			"author": "_Bernard Schott_, Oct 02 2021",
			"ext": [
				"More terms from _Amiram Eldar_, Oct 02 2021"
			],
			"references": 1,
			"revision": 39,
			"time": "2021-10-21T15:14:07-04:00",
			"created": "2021-10-03T15:38:53-04:00"
		}
	]
}