{
	"greeting": "Greetings from The On-Line Encyclopedia of Integer Sequences! http://oeis.org/",
	"query": "id:A347841",
	"count": 1,
	"start": 0,
	"results": [
		{
			"number": 347841,
			"data": "1,5,79,3851,567733,251790113,335313799327,1340040415899803,16067553466179577453,577986341168068075687337,62375143109859674070751394743,20194282336027244435564571244298243,19614041602745899032342581715038226919285",
			"name": "a(n) is the number of (strict) chains of subspaces with ends 0 and (F_3)^n.",
			"link": [
				"Álvar Ibeas, \u003ca href=\"/A347841/b347841.txt\"\u003eTable of n, a(n) for n = 1..40\u003c/a\u003e"
			],
			"formula": [
				"a(n) = Sum_{L partition of n} A347486(n, L) * A036038(len(L), sig(L)), where sig(L) is the partition composed by the part multiplicities of L."
			],
			"example": [
				"a(3) = 79 = 1 * 1 + 13 * 2 + 52 * 1, counting:",
				"the unrefined chain 0 \u003c (F_3)^3;",
				"13 chains 0 \u003c V \u003c (F_3)^3, with dim(V) = 1; another",
				"13 chains 0 \u003c V \u003c (F_3)^3, with dim(V) = 2; and",
				"52 chains 0 \u003c V_1 \u003c V_2 \u003c (F_3)^3."
			],
			"xref": [
				"Cf. A289545, A347486, A036038."
			],
			"keyword": "nonn",
			"offset": "1,2",
			"author": "_Álvar Ibeas_, Sep 15 2021",
			"references": 2,
			"revision": 11,
			"time": "2021-09-16T17:38:46-04:00",
			"created": "2021-09-16T02:20:22-04:00"
		}
	]
}