{
	"greeting": "Greetings from The On-Line Encyclopedia of Integer Sequences! http://oeis.org/",
	"query": "id:A347538",
	"count": 1,
	"start": 0,
	"results": [
		{
			"number": 347538,
			"data": "3,6,5,3,14,8,3,25,11,3,39,14,3,56,17,3,76,20,3,99,23,3,125,26,3,154,29,3,186,32,3,221,35,3,259,38,3,300,41,3,344,44,3,391,47,3,441,50,3,494,53,3,550,56,3,609,59,3,671,62,3,736,65,3,804,68,3",
			"name": "Number of minimum dominating sets in the cycle graph C_n.",
			"link": [
				"Eric Weisstein's World of Mathematics, \u003ca href=\"http://mathworld.wolfram.com/CycleGraph.html\"\u003eCycle Graph\u003c/a\u003e",
				"Eric Weisstein's World of Mathematics, \u003ca href=\"http://mathworld.wolfram.com/MinimumDominatingSet.html\"\u003eMinimum Dominating Set\u003c/a\u003e",
				"\u003ca href=\"/index/Rec#order_09\"\u003eIndex entries for linear recurrences with constant coefficients\u003c/a\u003e, signature (0, 0, 3, 0, 0, -3, 0, 0, 1)."
			],
			"formula": [
				"a(n) = 3         if n == 0 (mod 3),",
				"       n*(n+5)/6 if n == 1 (mod 3),",
				"       n         if n == 2 (mod 3).",
				"a(n) = 3*a(n-3) - 3*a(n-6) + a(n-9).",
				"G.f.: -(x*(3 + 6*x + 5*x^2 - 6*x^3 - 4*x^4 - 7*x^5 + 3*x^6 + x^7 + 2*x^8))/((-1 + x)^3*(1 + x + x^2)^3)."
			],
			"mathematica": [
				"Table[Piecewise[{{3, Mod[n, 3] == 0}, {n (n + 5)/6, Mod[n, 3] == 1}, {n, Mod[n, 3] == 2}}], {n, 3, 20}]",
				"CoefficientList[Series[-(3 + 6 x + 5 x^2 - 6 x^3 - 4 x^4 - 7 x^5 + 3 x^6 + x^7 + 2 x^8)/((-1 + x)^3 (1 + x + x^2)^3), {x, 0, 20}], x]",
				"LinearRecurrence[{0, 0, 3, 0, 0, -3, 0, 0, 1}, {3, 6, 5, 3, 14, 8, 3, 25, 11}, 20]"
			],
			"keyword": "nonn,easy",
			"offset": "3,1",
			"author": "_Eric W. Weisstein_, Sep 05 2021",
			"references": 0,
			"revision": 6,
			"time": "2021-09-08T13:12:18-04:00",
			"created": "2021-09-08T13:12:18-04:00"
		}
	]
}