{
	"greeting": "Greetings from The On-Line Encyclopedia of Integer Sequences! http://oeis.org/",
	"query": "id:A347613",
	"count": 1,
	"start": 0,
	"results": [
		{
			"number": 347613,
			"data": "48,322,18690",
			"name": "Number of maximal irredundant sets in the torus grid graph C_n square C_n.",
			"link": [
				"Eric Weisstein's World of Mathematics, \u003ca href=\"http://mathworld.wolfram.com/MaximalIrredundantSet.html\"\u003eMaximal Irredundant Set\u003c/a\u003e",
				"Eric Weisstein's World of Mathematics, \u003ca href=\"http://mathworld.wolfram.com/TorusGridGraph.html\"\u003eTorus Grid Graph\u003c/a\u003e"
			],
			"keyword": "nonn,bref,more",
			"offset": "3,1",
			"author": "_Eric W. Weisstein_, Sep 08 2021",
			"references": 0,
			"revision": 4,
			"time": "2021-09-09T16:20:46-04:00",
			"created": "2021-09-09T16:20:46-04:00"
		}
	]
}