{
	"greeting": "Greetings from The On-Line Encyclopedia of Integer Sequences! http://oeis.org/",
	"query": "id:A348651",
	"count": 1,
	"start": 0,
	"results": [
		{
			"number": 348651,
			"data": "1,1,1,4,29,293,2566,24844,259437,2908263,35102629,455204360,6321171774",
			"name": "Number of ones in the binary expansion of (n!)!.",
			"link": [
				"\u003ca href=\"/index/Fa#factorial\"\u003eIndex entries for sequences related to factorial numbers\u003c/a\u003e"
			],
			"formula": [
				"a(n) = A000120(A000197(n))."
			],
			"example": [
				"a(3) = 4 because (3!)! = 6! = 720 = 1011010000_2 which has 4 ones."
			],
			"maple": [
				"a:= n-\u003e add(i, i=Bits[Split](n!!)):",
				"seq(a(n), n=0..10);"
			],
			"mathematica": [
				"a[n_] := DigitCount[(n!)!, 2, 1]; Array[a, 10, 0] (* _Amiram Eldar_, Oct 29 2021 *)"
			],
			"program": [
				"(Python)",
				"from gmpy2 import fac, popcount",
				"def A348651(n): return popcount(fac(fac(n))) # _Chai Wah Wu_, Oct 28 2021",
				"(PARI) a(n) = hammingweight((n!)!); \\\\ _Michel Marcus_, Oct 29 2021"
			],
			"xref": [
				"Cf. A000120, A000142, A000197, A079584, A152168, A301861."
			],
			"keyword": "nonn,base,more",
			"offset": "0,4",
			"author": "_Alois P. Heinz_, Oct 27 2021",
			"ext": [
				"a(11)-a(12) from _Chai Wah Wu_, Oct 28 2021"
			],
			"references": 1,
			"revision": 22,
			"time": "2021-10-29T04:57:14-04:00",
			"created": "2021-10-28T19:17:20-04:00"
		}
	]
}