{
	"greeting": "Greetings from The On-Line Encyclopedia of Integer Sequences! http://oeis.org/",
	"query": "id:A348098",
	"count": 1,
	"start": 0,
	"results": [
		{
			"number": 348098,
			"data": "44,75,98,116,135,147,152,171,175,188,207,244,296,332,351,368,375,387,404,423,424,507,548,567,603,604,639,656,711,724,775,832,844,847,872,891,908,927,931,963,1016,1028,1052,1075,1083,1107,1183,1215,1250,1251,1268",
			"name": "Number k such that k and k+1 both have an equal number of unitary and nonunitary prime divisors (A348097).",
			"link": [
				"Amiram Eldar, \u003ca href=\"/A348098/b348098.txt\"\u003eTable of n, a(n) for n = 1..10000\u003c/a\u003e"
			],
			"example": [
				"44 is a term since 44 = 2^2 * 11 and 44 + 1 = 45 = 3^2 * 5 both have one unitary prime divisor and one nonunitary prime divisor."
			],
			"mathematica": [
				"q[n_] := n == 1 || Count[(e = FactorInteger[n][[;; , 2]]), 1] == Length[e]/2; Select[Range[10^3], q[#] \u0026\u0026 q[# + 1] \u0026]"
			],
			"xref": [
				"Subsequence of A348097.",
				"Cf. A335328."
			],
			"keyword": "nonn",
			"offset": "1,1",
			"author": "_Amiram Eldar_, Sep 30 2021",
			"references": 4,
			"revision": 11,
			"time": "2021-09-30T18:17:25-04:00",
			"created": "2021-09-30T11:46:37-04:00"
		}
	]
}