{
	"greeting": "Greetings from The On-Line Encyclopedia of Integer Sequences! http://oeis.org/",
	"query": "id:A348951",
	"count": 1,
	"start": 0,
	"results": [
		{
			"number": 348951,
			"data": "0,1,-1,1,-1,0,-1,2,-1,0,-1,3,-1,0,-2,2,-1,1,-1,1,-2,0,-1,4,-1,0,-2,1,-1,2,-1,3,-2,0,-2,2,-1,0,-2,4,-1,0,-1,1,-3,0,-1,5,-1,1,-2,1,-1,0,-2,4,-2,0,-1,4,-1,0,-3,3,-2,0,-1,1,-2,2,-1,4,-1,0,-3,1,-2,0,-1,5",
			"name": "a(n) = Sum_{d|n, d \u003c sqrt(n)} (-1)^(n/d).",
			"link": [
				"Antti Karttunen, \u003ca href=\"/A348951/b348951.txt\"\u003eTable of n, a(n) for n = 1..20000\u003c/a\u003e"
			],
			"formula": [
				"G.f.: Sum_{k\u003e=1} (-1)^(k + 1) * x^(k*(k + 1)) / (1 + x^k)."
			],
			"mathematica": [
				"Table[DivisorSum[n, (-1)^(n/#) \u0026, # \u003c Sqrt[n] \u0026], {n, 1, 80}]",
				"nmax = 80; CoefficientList[Series[Sum[(-1)^(k + 1) x^(k (k + 1))/(1 + x^k), {k, 1, nmax}], {x, 0, nmax}], x] // Rest"
			],
			"program": [
				"(PARI) A348951(n) = sumdiv(n,d,if((d*d)\u003cn,(-1)^(n/d),0)); \\\\ _Antti Karttunen_, Nov 05 2021"
			],
			"xref": [
				"Cf. A048272, A056924, A113652, A228441, A333809, A348515, A348952, A348953, A348954, A348955, A348956."
			],
			"keyword": "sign",
			"offset": "1,8",
			"author": "_Ilya Gutkovskiy_, Nov 04 2021",
			"references": 5,
			"revision": 10,
			"time": "2021-12-14T12:10:40-05:00",
			"created": "2021-11-05T21:11:33-04:00"
		}
	]
}