{
	"greeting": "Greetings from The On-Line Encyclopedia of Integer Sequences! http://oeis.org/",
	"query": "id:A348058",
	"count": 1,
	"start": 0,
	"results": [
		{
			"number": 348058,
			"data": "2,3,10,5,14,7,15,16,22,11,21,13,114,156,34,17,38,19,33,25,45,23,35,80,186,228,58,29,30,31,51,64,63,76,57,37,258,2244,55,41,86,43,69,104,94,47,65,160,1518,372,106,53,354,81,87,624,99,59,77,61,402",
			"name": "a(n) = Min {k \u003e n : A235137(k) == n (mod k)}, or -1 if no such minimum exists.",
			"comment": [
				"Conjecture: For all n, a(n) \u003e 0.",
				"If a(673) \u003e 0 then a(673) \u003e 10^10."
			],
			"link": [
				"José María Grau Ribas, \u003ca href=\"/A348058/b348058.txt\"\u003eTable of n, a(n) for n = 1..672\u003c/a\u003e"
			],
			"mathematica": [
				"Giuga1[mu_][n_] := Giuga1[mu][n] =",
				"Mod[Sum[PowerMod[i, EulerPhi[n], n], {i, 1, n}] - mu, n] == 0;",
				"A348058[n_] := A348058[n] =",
				"{Clear[ww];  Do[If[Giuga1[n][i], ww = i; Break[]], {i, n + 1, 20000000}]; ww}[1]];",
				"Table[A348058[n],{n,408}]"
			],
			"program": [
				"(PARI) a(n) = my(k=n+1); while (sum(i=1, k , Mod(i, k)^eulerphi(k)) != n, k++); k; \\\\ _Michel Marcus_, Sep 28 2021"
			],
			"xref": [
				"Cf. A235137, A348059."
			],
			"keyword": "nonn",
			"offset": "1,1",
			"author": "_José María Grau Ribas_, Sep 26 2021",
			"references": 4,
			"revision": 51,
			"time": "2021-10-24T12:32:29-04:00",
			"created": "2021-10-24T12:32:29-04:00"
		}
	]
}