{
	"greeting": "Greetings from The On-Line Encyclopedia of Integer Sequences! http://oeis.org/",
	"query": "id:A348590",
	"count": 1,
	"start": 0,
	"results": [
		{
			"number": 348590,
			"data": "0,1,0,9,68,845,12474,218827,4435864,102030777,2625176150,74701061831,2329237613988,78972674630005,2892636060014050,113828236497224355,4789121681108775344,214528601554419809777,10193616586275094959534,512100888749268955942015",
			"name": "Number of endofunctions on [n] with exactly one isolated fixed point.",
			"link": [
				"Alois P. Heinz, \u003ca href=\"/A348590/b348590.txt\"\u003eTable of n, a(n) for n = 0..386\u003c/a\u003e"
			],
			"formula": [
				"a(n) mod 2 = A000035(n)."
			],
			"example": [
				"a(3) = 9: 122, 133, 132, 121, 323, 321, 113, 223, 213."
			],
			"maple": [
				"g:= proc(n) option remember; add(n^(n-j)*(n-1)!/(n-j)!, j=1..n) end:",
				"b:= proc(n, t) option remember; `if`(n=0, t, add(g(i)*",
				"      b(n-i, `if`(i=1, 1, t))*binomial(n-1, i-1), i=1+t..n))",
				"    end:",
				"a:= n-\u003e b(n, 0):",
				"seq(a(n), n=0..23);"
			],
			"xref": [
				"Column k=1 of A350212.",
				"Cf. A000035, A000240, A001865, A250105."
			],
			"keyword": "nonn",
			"offset": "0,4",
			"author": "_Alois P. Heinz_, Dec 20 2021",
			"references": 2,
			"revision": 22,
			"time": "2021-12-20T06:13:37-05:00",
			"created": "2021-12-20T06:13:37-05:00"
		}
	]
}