{
	"greeting": "Greetings from The On-Line Encyclopedia of Integer Sequences! http://oeis.org/",
	"query": "id:A348496",
	"count": 1,
	"start": 0,
	"results": [
		{
			"number": 348496,
			"data": "1,1,1,1,1,5,1,1,1,1,1,4,1,3,1,2,1,21,1,36,5,1,1,1,1,15,3,4,1,1,1,1,7,1,3,1,1,3,1,1,1,1,1,12,3,5,1,10,1,3,5,4,1,9,1,1,1,1,1,12,1,3,1,1,9,1,1,12,1,1,1,1,1,3,1,4,3,1,1,2,1,1,1,4,11,15,1,35,1,3,5,36,1,1,3,1,1,3,3,1,1",
			"name": "a(n) = gcd(A018804(n), A347130(n)) / A003557(n).",
			"formula": [
				"a(n) = A348495(n) / A003557(n).",
				"a(n) = gcd(A347128(n), A347129(n))."
			],
			"mathematica": [
				"Table[GCD[Total@ GCD[n, Range[n]], DivisorSum[n, #*(If[# \u003c 2, 0, # Total[#2/#1 \u0026 @@@ FactorInteger[#]]] \u0026[n/#]) \u0026]]/Apply[Times, Map[#1^(#2 - 1) \u0026 @@ # \u0026, FactorInteger[n]]], {n, 101}] (* _Michael De Vlieger_, Oct 21 2021 *)"
			],
			"program": [
				"(PARI)",
				"\\\\ Needs also code from A348495:",
				"A003557(n) = (n/factorback(factorint(n)[, 1]));",
				"A348496(n) = (A348495(n)/A003557(n));"
			],
			"xref": [
				"Cf. A003557, A018804, A347128, A347129, A347130, A348495, A348501 [= a(A276086(n))].",
				"Cf. also A348494, A348498."
			],
			"keyword": "nonn",
			"offset": "1,6",
			"author": "_Antti Karttunen_, Oct 21 2021",
			"references": 6,
			"revision": 11,
			"time": "2021-11-03T22:16:01-04:00",
			"created": "2021-11-03T22:16:01-04:00"
		}
	]
}