{
	"greeting": "Greetings from The On-Line Encyclopedia of Integer Sequences! http://oeis.org/",
	"query": "id:A348734",
	"count": 1,
	"start": 0,
	"results": [
		{
			"number": 348734,
			"data": "1,1,1,9,1,1,1,3,8,1,1,9,1,1,1,81,1,8,1,9,1,1,1,3,18,1,16,9,1,1,1,81,1,1,1,72,1,1,1,3,1,1,1,9,8,1,1,81,32,18,1,9,1,16,1,3,1,1,1,9,1,1,8,729,1,1,1,9,1,1,1,24,1,1,18,9,1,1,1,81,128,1,1,9,1,1,1,3,1,8,1,9,1,1,1,81,1,32,8",
			"name": "Numerator of Product((p+1)^e / ((p^e)+1)), when n = Product(p^e), with p primes, and e their exponents.",
			"comment": [
				"This is not multiplicative. The first point where a(m*n) = a(m)*a(n) does not hold for coprime m and n is 1444 = 2^2 * 19^2, where a(1444) = 360 != 1800 = 9*200 = a(4)*a(361). See A348740 for the list of such positions."
			],
			"link": [
				"Antti Karttunen, \u003ca href=\"/A348734/b348734.txt\"\u003eTable of n, a(n) for n = 1..21125\u003c/a\u003e"
			],
			"formula": [
				"a(n) = A003959(n) / gcd(A003959(n), A034448(n))."
			],
			"mathematica": [
				"f[p_, e_] := (p + 1)^e/(p^e + 1); a[1] = 1; a[n_] := Numerator[Times @@ f @@@ FactorInteger[n]]; Array[a, 100] (* _Amiram Eldar_, Nov 05 2021 *)"
			],
			"program": [
				"(PARI)",
				"A003959(n) = { my(f = factor(n)); for(i=1, #f~, f[i, 1]++); factorback(f); };",
				"A034448(n) = { my(f = factor(n)); prod(k=1, #f~, 1+(f[k, 1]^f[k, 2])); }; \\\\ After code in A034448",
				"A348734(n) = { my(u=A003959(n)); (u/gcd(u, A034448(n))); };",
				"(PARI) A348734(n) = { my(f = factor(n)); numerator(prod(k=1, #f~, ((1+f[k, 1])^f[k, 2])/(1+(f[k, 1]^f[k, 2])))); };"
			],
			"xref": [
				"Cf. A003959, A034448, A348733, A348735 (denominators), A348740."
			],
			"keyword": "nonn,frac",
			"offset": "1,4",
			"author": "_Antti Karttunen_, Nov 05 2021",
			"references": 6,
			"revision": 14,
			"time": "2021-11-05T21:08:42-04:00",
			"created": "2021-11-05T18:26:34-04:00"
		}
	]
}