{
	"greeting": "Greetings from The On-Line Encyclopedia of Integer Sequences! http://oeis.org/",
	"query": "id:A348895",
	"count": 1,
	"start": 0,
	"results": [
		{
			"number": 348895,
			"data": "9,79,799,9887,98999,999599,9999968,99998989,999989999,9999989998,99999999799,999999999959,9999999799999,99999999998999,999999999999797,9999999999989999,99999999999999988,999999999999979999,9999999999999998999,99999899999999999989,999999999999999899998",
			"name": "Largest n-digit number such that the remainder after dividing by sum of digits is A348730(n).",
			"comment": [
				"Subsequence of A348799."
			],
			"link": [
				"Chai Wah Wu, \u003ca href=\"/A348895/b348895.txt\"\u003eTable of n, a(n) for n = 1..494\u003c/a\u003e"
			],
			"program": [
				"(Python)",
				"from functools import lru_cache",
				"from sympy.combinatorics.partitions import IntegerPartition",
				"from sympy.utilities.iterables import partitions, multiset_permutations",
				"@lru_cache(maxsize=None)",
				"def intpartition(n,m): return tuple(''.join(str(d) for d in IntegerPartition(p).partition+[0]*(m-s)) for s, p in partitions(n,k=9,m=m,size=True))",
				"def A348895(n):",
				"    l, c, nmax, k = 9*n, 0, 0, 10**(n-1)",
				"    while l \u003e c:",
				"        for p in intpartition(l,n):",
				"            for q in multiset_permutations(p):",
				"                w = int(''.join(q))",
				"                if w \u003e= k:",
				"                    wr = w % l",
				"                    if wr \u003e c:",
				"                        c = wr",
				"                        nmax = w",
				"                    if wr == c and nmax \u003c w:",
				"                        nmax = w",
				"        l -= 1",
				"    return nmax"
			],
			"xref": [
				"Cf. A348730, A348799, A348894."
			],
			"keyword": "nonn,base",
			"offset": "1,1",
			"author": "_Chai Wah Wu_, Nov 02 2021",
			"references": 2,
			"revision": 17,
			"time": "2021-11-03T18:21:48-04:00",
			"created": "2021-11-03T10:46:14-04:00"
		}
	]
}