{
	"greeting": "Greetings from The On-Line Encyclopedia of Integer Sequences! http://oeis.org/",
	"query": "id:A348205",
	"count": 1,
	"start": 0,
	"results": [
		{
			"number": 348205,
			"data": "1,-3,5,-68,204,-1394,16862,-413776,2377512,-35594832,558727872,-8067263280,185546362416,-4108304962176,82441247589360,-3519099528152064,50908186083448320,-1465023121035418368,38998680958184088960,-1219845314470474404864,36452994894649858339584",
			"name": "Product_{n\u003e=1} 1 / (1 - a(n)*x^n/n!) = 1 + log(1 + x).",
			"formula": [
				"Product_{n\u003e=1} 1 / (1 - a(n)*x^n/n!) = 1 - Sum_{n\u003e=1} (-x)^n/n."
			],
			"xref": [
				"Cf. A006973, A137852, A157159, A157164, A348206, A348207."
			],
			"keyword": "sign",
			"offset": "1,2",
			"author": "_Ilya Gutkovskiy_, Oct 06 2021",
			"references": 2,
			"revision": 6,
			"time": "2021-10-08T03:46:35-04:00",
			"created": "2021-10-08T03:46:35-04:00"
		}
	]
}