{
	"greeting": "Greetings from The On-Line Encyclopedia of Integer Sequences! http://oeis.org/",
	"query": "id:A348901",
	"count": 1,
	"start": 0,
	"results": [
		{
			"number": 348901,
			"data": "1,1,5,49,893,30649,2030213,264198625,68180168717,35046644401609,35958357173552597,73714882938928013809,302083844634245306686685,2475275541582550287356775001,40559867144321249927245807932197,1329146863668196853655964629931680001",
			"name": "G.f. A(x) satisfies: A(x) = 1 / (1 + x - 2 * x * A(2*x)).",
			"formula": [
				"a(0) = 1; a(n) = -a(n-1) + Sum_{k=0..n-1} 2^(k+1) * a(k) * a(n-k-1).",
				"a(n) ~ 2^(n*(n+1)/2). - _Vaclav Kotesovec_, Nov 03 2021"
			],
			"mathematica": [
				"nmax = 15; A[_] = 0; Do[A[x_] = 1/(1 + x - 2 x A[2 x]) + O[x]^(nmax + 1) // Normal, nmax + 1]; CoefficientList[A[x], x]",
				"a[0] = 1; a[n_] := a[n] = -a[n - 1] + Sum[2^(k + 1) a[k] a[n - k - 1], {k, 0, n - 1}]; Table[a[n], {n, 0, 15}]"
			],
			"xref": [
				"Cf. A001003, A015083, A348188, A348902."
			],
			"keyword": "nonn",
			"offset": "0,3",
			"author": "_Ilya Gutkovskiy_, Nov 03 2021",
			"references": 4,
			"revision": 7,
			"time": "2021-11-03T10:15:14-04:00",
			"created": "2021-11-03T10:15:14-04:00"
		}
	]
}