{
	"greeting": "Greetings from The On-Line Encyclopedia of Integer Sequences! http://oeis.org/",
	"query": "id:A349611",
	"count": 1,
	"start": 0,
	"results": [
		{
			"number": 349611,
			"data": "0,0,1,1,5,11,32,44,82,120,207,277,405,541,768,966,1272,1592,2087,2489,3103,3719,4588,5348,6386,7522,8891,10175,11909,13623,15818,17742,20278,22720,25923,28917,32361,36031,40368,44488,49400,54358,60377,65835,72341",
			"name": "Number of solutions to x^2 + y^2 + z^2 + w^2 \u003c= n^2, where x, y, z, w are positive odd integers.",
			"link": [
				"\u003ca href=\"/index/Su#ssq\"\u003eIndex entries for sequences related to sums of squares\u003c/a\u003e"
			],
			"formula": [
				"a(n) = [x^(n^2)] theta_2(x^4)^4 / (16 * (1 - x))."
			],
			"example": [
				"a(4) = 5 since there are solutions (1,1,1,1), (3,1,1,1), (1,3,1,1), (1,1,3,1), (1,1,1,3)."
			],
			"mathematica": [
				"Table[SeriesCoefficient[EllipticTheta[2, 0, x^4]^4/(16 (1 - x)), {x, 0, n^2}], {n, 0, 44}]"
			],
			"xref": [
				"Cf. A055403, A055410, A341423, A349609, A349610."
			],
			"keyword": "nonn",
			"offset": "0,5",
			"author": "_Ilya Gutkovskiy_, Nov 23 2021",
			"references": 2,
			"revision": 10,
			"time": "2021-11-24T09:18:38-05:00",
			"created": "2021-11-24T09:18:38-05:00"
		}
	]
}