{
	"greeting": "Greetings from The On-Line Encyclopedia of Integer Sequences! http://oeis.org/",
	"query": "id:A349874",
	"count": 1,
	"start": 0,
	"results": [
		{
			"number": 349874,
			"data": "1,3,15,106,990,11688,168529,2886039,57372984,1299676869,33049616319,931991169660,28856822050546,972979199567826,35480222492288493,1391109691131953417,58351612093156552572,2607190821521732751855,123613763047459102476027",
			"name": "Expansion of A(x)^3, where A(x) is g.f. of n^n (A000312).",
			"formula": [
				"a(n) ~ 3 * n^n."
			],
			"mathematica": [
				"nmax = 20; CoefficientList[Series[(1 + Sum[n^n * x^n, {n,1,nmax}])^3, {x,0,nmax}],x]"
			],
			"xref": [
				"Cf. A000312, A053729, A100262."
			],
			"keyword": "nonn",
			"offset": "0,2",
			"author": "_Vaclav Kotesovec_, Dec 03 2021",
			"references": 1,
			"revision": 6,
			"time": "2021-12-03T09:56:40-05:00",
			"created": "2021-12-03T09:56:40-05:00"
		}
	]
}