{
	"greeting": "Greetings from The On-Line Encyclopedia of Integer Sequences! http://oeis.org/",
	"query": "id:A349096",
	"count": 1,
	"start": 0,
	"results": [
		{
			"number": 349096,
			"data": "15,21,36,45,65,72,75,76,77,89,90,105,118,131,132,133,151,152,153,165,166,169,189,190,206,207,208,209,225,227,229,241,242,245,273,276,292,293,294,295,297,312,317,318,320,322,348,349,373,374,375,376,387,391,400,431",
			"name": "Where ones occur in A349083. These correspond to rationals, 0 \u003c p/q \u003c 1, that have a unique solution, p/q = 1/x + 1/y + 1/z, 0 \u003c x \u003c y \u003c z.",
			"comment": [
				"For index k, p/q = A002260(k)/A003057(k)."
			],
			"example": [
				"15 is a term because A349083(15)=1, indicating that 5/6 = 1/x + 1/y + 1/z has a unique solution: 1/2 + 1/4 + 1/12."
			],
			"xref": [
				"Cf. A349083, A002260, A003057, A349090, A349095."
			],
			"keyword": "nonn",
			"offset": "1,1",
			"author": "_Jud McCranie_, Dec 26 2021",
			"references": 2,
			"revision": 6,
			"time": "2021-12-30T15:40:31-05:00",
			"created": "2021-12-30T15:40:31-05:00"
		}
	]
}