{
	"greeting": "Greetings from The On-Line Encyclopedia of Integer Sequences! http://oeis.org/",
	"query": "id:A349939",
	"count": 1,
	"start": 0,
	"results": [
		{
			"number": 349939,
			"data": "187,245,275,403,425,427,437,473,583,605,637,665,731,763,775,805,845,847,875,893,931,1003,1075,1085,1127,1183,1235,1265,1267,1309,1357,1375,1397,1421,1435,1445,1463,1525,1547,1573,1577,1615,1625,1643,1645,1705,1757",
			"name": "Terms in A328897 that are not divisible by 3: numbers k \u003e 1 not divisible by 2 or 3 such that A005179(k-1) \u003e A005179(k) \u003c A005179(k+1).",
			"comment": [
				"Numbers k not divisible by 2 or 3 such that, the smallest number with exactly k divisors is smaller than the smallest number with exactly k-1 or k+1 divisors."
			],
			"example": [
				"The smallest numbers with exactly 186, 187 and 188 divisors are 48318382080, 3869835264 and 1055531162664960 respectively. The smallest number with exactly 187 divisors is smaller than the smallest number with exactly 186 or 188 divisors, and 187 is not divisible by 2 or 3, so 187 is a term.",
				"The smallest numbers with exactly 244, 245 and 246 divisors are 17293822569102704640, 29160000 and 49478023249920 respectively. The smallest number with exactly 245 divisors is smaller than the smallest number with exactly 244 or 246 divisors, and 245 is not divisible by 2 or 3, so 245 is a term."
			],
			"program": [
				"(PARI) isA349939(k) = (k%2\u0026\u0026k%3\u0026\u0026k\u003e1) \u0026\u0026 A005179(k)\u003cA005179(k-1) \u0026\u0026 A005179(k)\u003cA005179(k+1) \\\\ See A005179 for its program"
			],
			"xref": [
				"Cf. A005179, A328897, A349940."
			],
			"keyword": "nonn",
			"offset": "1,1",
			"author": "_Jianing Song_, Dec 05 2021",
			"references": 1,
			"revision": 10,
			"time": "2021-12-10T11:15:59-05:00",
			"created": "2021-12-10T11:15:59-05:00"
		}
	]
}