{
	"greeting": "Greetings from The On-Line Encyclopedia of Integer Sequences! http://oeis.org/",
	"query": "id:A349959",
	"count": 1,
	"start": 0,
	"results": [
		{
			"number": 349959,
			"data": "1,0,0,0,3,20,190,1764,17773,192632,2250036,28254600,380304639,5468906508,83750505826,1361579283596,23431400945145,425669127018416,8142731710207432,163636478165355408,3447201944202849819,75973975479088955460,1748531872985454054246,41951755708613404583732",
			"name": "a(n) = Sum_{k=0..floor(n/2)} (k-1)^2*A106828(n, k).",
			"comment": [
				"For all p prime, a(p) == 0 (mod p*(p-1))."
			],
			"formula": [
				"E.g.f.: (-2 - x + (3 + log((1 - x)^(1 + 2*x)) + (log(1 - x))^2) / (1 - x)) / exp(x).",
				"a(n) ~ n! * exp(-1) * log(n)^2 * (1 + (2*gamma - 3)/log(n)), where gamma is the Euler-Mascheroni constant A001620. - _Vaclav Kotesovec_, Dec 09 2021"
			],
			"example": [
				"E.g.f.: 1 + 3*x^4/4! + 20*x^5/5! + 190*x^6/6! + 1764*x^7/7! + 17773*x^8/8! + 192632*x^9/9! + ...",
				"a(13) = Sum_{k=0..6} (k-1)^2*A106828(13, k).",
				"a(13) =  1*0 + 0*479001600 + 1*967524480 + 4*647536032 + 9*177331440 + 16*18858840 + 25*540540 = 5468906508.",
				"For k = 0, A106828(13, 0) = 0.",
				"For k = 1, (1-1)^2 = 0.",
				"For 2 \u003c= k \u003c= 6, A106828(13, k) == 0 (mod 13*12).",
				"Result a(13) == 0 (mod 13*12)."
			],
			"maple": [
				"a := n -\u003e add((k-1)^2*A106828(n, k), k=0..iquo(n, 2)):",
				"seq(a(n), n=0..23);",
				"# second program:",
				"a := series((-2-x+(3+log((1-x)^(1+2*x))+(log(1-x))^2)/(1-x))/exp(x), x=0, 24):",
				"seq(n!*coeff(a, x, n), n=0..23);"
			],
			"mathematica": [
				"CoefficientList[Series[(-2-x+(3+Log[(1-x)^(1+2*x)]+(Log[1-x])^2)/(1-x))/Exp[x], {x, 0, 23}], x]*Range[0, 23]!"
			],
			"program": [
				"(PARI) E2(n, m) = sum(k=0, n-m, (-1)^(n+k)*binomial(2*n+1, k)*stirling(2*n-m-k+1, n-m-k+1, 1)); \\\\ A008517",
				"ast1(n, k) = if ((n==0) \u0026\u0026 (k==0), 1, sum(j=0, n-k, binomial(j, n-2*k)*E2(n-k, j+1))); \\\\ A106828",
				"a(n) = sum(k=0, n\\2, (k-1)^2*ast1(n, k)); \\\\ _Michel Marcus_, Dec 07 2021"
			],
			"xref": [
				"Cf. A106828, A347210, A347571, A348208."
			],
			"keyword": "nonn",
			"offset": "0,5",
			"author": "_Mélika Tebni_, Dec 07 2021",
			"references": 0,
			"revision": 9,
			"time": "2021-12-19T11:07:20-05:00",
			"created": "2021-12-19T11:07:20-05:00"
		}
	]
}