{
	"greeting": "Greetings from The On-Line Encyclopedia of Integer Sequences! http://oeis.org/",
	"query": "id:A349892",
	"count": 1,
	"start": 0,
	"results": [
		{
			"number": 349892,
			"data": "3,9,7,1,1,7,6,9,4,9,8,1,5,7,7,1,6,9,6,9,2,9,0,3,8,2,9,9,1,6,6,0,7,6,7,9,2,3,3,5,2,6,2,6,5,0,5,2,4,4,3,5,7,6,1,5,2,0,6,0,4,0,8,5,6,2,5,1,4,2,7,4,4,3,7,3,6,7,9,5,5,2,4,2,7,0,5,9,8,6,8,6,2,3,3,7,4,4,0,3,7,8,9,5",
			"name": "Decimal expansion of erf(1/e).",
			"link": [
				"Michael Ian Shamos, \u003ca href=\"https://citeseerx.ist.psu.edu/viewdoc/summary?doi=10.1.1.366.9997\"\u003eShamos's catalog of the real numbers\u003c/a\u003e, (2011)."
			],
			"example": [
				"0.3971176949815771696929038299166076792335..."
			],
			"maple": [
				"evalf(erf(exp(-1)), 120);  # _Alois P. Heinz_, Dec 13 2021"
			],
			"mathematica": [
				"RealDigits[Erf[1/E], 10, 100][[1]] (* _Amiram Eldar_, Dec 04 2021 *)"
			],
			"program": [
				"(PARI) 1 - erfc(1/exp(1)) \\\\ _Michel Marcus_, Dec 04 2021"
			],
			"xref": [
				"Cf. A001113, A068985, A099286, A110894."
			],
			"keyword": "nonn,cons",
			"offset": "0,1",
			"author": "_Christoph B. Kassir_, Dec 04 2021",
			"references": 0,
			"revision": 22,
			"time": "2021-12-14T08:06:12-05:00",
			"created": "2021-12-14T08:06:12-05:00"
		}
	]
}