{
	"greeting": "Greetings from The On-Line Encyclopedia of Integer Sequences! http://oeis.org/",
	"query": "id:A349852",
	"count": 1,
	"start": 0,
	"results": [
		{
			"number": 349852,
			"data": "0,1,1,0,2,1,-5,20,-28,-47,525,-2056,3902,9633,-129033,664364,-1837904,-2388687,67004697,-478198544,1994889946,-1669470783,-56929813933,615188040196,-3794477505572,12028579019537,50780206473221,-1172949397924184,10766410530764118",
			"name": "Expansion of Sum_{k\u003e=0} k * x^k/(1 + k * x).",
			"formula": [
				"a(n) = -Sum_{k=0..n} (-k)^(n-k+1)."
			],
			"mathematica": [
				"a[n_] := -Sum[(-k)^(n - k + 1), {k, 0, n}]; Array[a, 29, 0] (* _Amiram Eldar_, Dec 02 2021 *)"
			],
			"program": [
				"(PARI) a(n, s=1, t=1) = sum(k=0, n, (-k^t)^(n-k)*k^s);",
				"(PARI) my(N=40, x='x+O('x^N)); concat(0, Vec(sum(k=0, N, k*x^k/(1+k*x))))"
			],
			"xref": [
				"Cf. A038125, A349853, A349854, A349855, A349859, A349860, A349861."
			],
			"keyword": "sign",
			"offset": "0,5",
			"author": "_Seiichi Manyama_, Dec 02 2021",
			"references": 4,
			"revision": 28,
			"time": "2021-12-03T09:54:33-05:00",
			"created": "2021-12-03T09:54:33-05:00"
		}
	]
}