{
	"greeting": "Greetings from The On-Line Encyclopedia of Integer Sequences! http://oeis.org/",
	"query": "id:A349300",
	"count": 1,
	"start": 0,
	"results": [
		{
			"number": 349300,
			"data": "1,0,1,4,21,114,651,3844,23301,144169,906866,5782350,37289431,242793439,1593918916,10538988984,70121101825,469133993094,3154115695476,21299373321344,144402246424591,982506791975780,6706724412165956,45917245477282994",
			"name": "G.f. A(x) satisfies: A(x) = 1 / ((1 + x) * (1 - x * A(x)^4)).",
			"link": [
				"Seiichi Manyama, \u003ca href=\"/A349300/b349300.txt\"\u003eTable of n, a(n) for n = 0..500\u003c/a\u003e"
			],
			"formula": [
				"a(n) = Sum_{k=0..n} (-1)^(n-k) * binomial(n+3*k,4*k) * binomial(5*k,k) / (4*k+1).",
				"a(n) = (-1)^5*F([1/5, 2/5, 3/5, 4/5, (1+n)/3, (2+n)/3, (3+n)/3, -n], [1/4, 1/2, 1/2, 3/4, 3/4, 1, 5/4], 3^3*5^5/2^16), where F is the generalized hypergeometric function. - _Stefano Spezia_, Nov 14 2021",
				"a(n) ~ sqrt(1 - 3*r) / (2 * 5^(3/4) * sqrt(2*Pi*(1+r)) * n^(3/2) * r^(n + 1/4)), where r = 0.136824361675510443450981569282313811786270109272790613523286... is the root of the equation 5^5 * r = 4^4 * (1+r)^4. - _Vaclav Kotesovec_, Nov 14 2021"
			],
			"mathematica": [
				"nmax = 23; A[_] = 0; Do[A[x_] = 1/((1 + x) (1 - x A[x]^4)) + O[x]^(nmax + 1) // Normal, nmax + 1]; CoefficientList[A[x], x]",
				"Table[Sum[(-1)^(n - k) Binomial[n + 3 k, 4 k] Binomial[5 k, k]/(4 k + 1), {k, 0, n}], {n, 0, 23}]"
			],
			"program": [
				"(PARI) a(n) = sum(k=0, n, (-1)^(n-k) * binomial(n+3*k,4*k) * binomial(5*k,k) / (4*k+1)); \\\\ _Michel Marcus_, Nov 14 2021"
			],
			"xref": [
				"Cf. A002294, A005043, A346627, A346665, A349290, A349299, A349301, A349302, A349303."
			],
			"keyword": "nonn",
			"offset": "0,4",
			"author": "_Ilya Gutkovskiy_, Nov 13 2021",
			"references": 6,
			"revision": 14,
			"time": "2021-11-19T07:13:32-05:00",
			"created": "2021-11-14T06:20:20-05:00"
		}
	]
}