{
	"greeting": "Greetings from The On-Line Encyclopedia of Integer Sequences! http://oeis.org/",
	"query": "id:A349472",
	"count": 1,
	"start": 0,
	"results": [
		{
			"number": 349472,
			"data": "1,3,2,4,6,8,5,13,10,12,23,7,14,16,31,47,18,9,20,15,21,43,11,25,22,24,17,27,26,28,59,35,30,32,67,103,34,33,36,19,38,40,83,127,42,44,39,29,45,50,101,48,202,46,303,359,52,54,113,173,51,226,68,55,56,58,60,62,131,57,64,66",
			"name": "a(1)=1; for n \u003e 1, a(n) is the smallest unused positive number such that gcd(a(n-1)+n,a(n)) \u003e 1.",
			"comment": [
				"After 200000 terms the smallest unused number is 28349, although like similar sequences this is almost certainly a permutation of the positive integers. In the same range the fixed points are 4, 21, 50, 1269; it is likely no more exist. See the linked image."
			],
			"link": [
				"Scott R. Shannon, \u003ca href=\"/A349472/a349472.png\"\u003eImage of the first 200000 terms\u003c/a\u003e. The green line is y = n."
			],
			"example": [
				"a(2) = 3 as a(1) + 2 = 3, 3 has not previously appeared, and gcd(3,3) \u003e 1.",
				"a(3) = 2 as a(2) + 3 = 6, 2 has not previously appeared, and gcd(6,2) \u003e 1.",
				"a(12) = 7 as a(11) + 12 = 35, 7 has not previously appeared, and gcd(35,7) \u003e 1."
			],
			"program": [
				"(Python)",
				"from math import gcd",
				"terms, appears = [1], {}",
				"for n in range(2, 100):",
				"    t = 2",
				"    while True:",
				"        if appears.get(t) is None and gcd(terms[-1]+n, t) \u003e 1  :",
				"            appears[t] = True; terms.append(t); break",
				"        t += 1",
				"print(terms) #_Gleb Ivanov_, Nov 19 2021"
			],
			"xref": [
				"Cf. A064413, A347113, A098550, A336957."
			],
			"keyword": "nonn",
			"offset": "1,2",
			"author": "_Scott R. Shannon_, Nov 19 2021",
			"references": 3,
			"revision": 11,
			"time": "2021-11-19T07:25:14-05:00",
			"created": "2021-11-19T07:25:14-05:00"
		}
	]
}