{
	"greeting": "Greetings from The On-Line Encyclopedia of Integer Sequences! http://oeis.org/",
	"query": "id:A349844",
	"count": 1,
	"start": 0,
	"results": [
		{
			"number": 349844,
			"data": "-1,6,38,340,3482,38740,457500,5654440,72412410,953696900,12844323828,176130113432,2450987760676,34524885571400,491309242342264,7052495781361488,101992452504973882,1484590294804096356,21732695236734410500,319745609409940857144",
			"name": "Expansion of -(1 - 16*x)^(1/2) / (1 - 8*x)^(1/4).",
			"comment": [
				"Let b(n) = -a(n)/(-8)^n, {b(n)} = {1, 3/4, -19/32, 85/128, -1741/2048, 9685/8192, -114375/65536, ...}, then Sum_{n\u003e=0} b(n) is clearly divergent since Sum_{n\u003e=0} a(n)*x^n has radius of convergence 1/16. Let c(n) = -A349846(n)/(-4)^n, {c(n)} = {1, 3/2, -5/8, 7/16, -45/128, 77/256, -273/1024, ...}, then Sum_{n\u003e=1} c(n) is the Cauchy product of Sum_{n\u003e=0} b(n) with itself. Since |c(n)| ~ 1/sqrt(Pi*n) and |c(n+1)|/|c(n)| = ((2*n-1)*(2*n+3)) / ((2*n+1)*(2*n+2)) \u003c 1, Sum_{n\u003e=0} c(n) is conditionally convergent by Leibniz's criterion. {b(n)} serves as an example such that the Cauchy product of a divergent series with itself can be conditionally convergent."
			],
			"link": [
				"Wikipedia, \u003ca href=\"https://en.m.wikipedia.org/wiki/Cauchy_product\"\u003eCauchy product\u003c/a\u003e"
			],
			"formula": [
				"a(n) = (Sum_{k=0..n-1} 2^(2*k+3) * CatalanNumber(k) * A004981(n-1-k)) - A004981(n)."
			],
			"example": [
				"Let C(n) denote the Catalan numbers, P = A004981.",
				"a(0) = -P(0) = -1;",
				"a(1) = 2^3 * C(0) * P(0) - P(1) = 6;",
				"a(2) = 2^3 * C(0) * P(1) + 2^5 * C(1) * P(0) - P(2) = 38;",
				"a(3) = 2^3 * C(0) * P(2) + 2^5 * C(1) * P(1) + 2^7 * C(2) * P(0) - P(3) = 340;",
				"a(4) = 2^3 * C(0) * P(3) + 2^5 * C(1) * P(2) + 2^7 * C(2) * P(1) + 2^9 * C(3) * P(0) - P(4) = 3482."
			],
			"program": [
				"(PARI) C(n) = binomial(2*n,n)/(n+1)",
				"a(n) = sum(k=0, n-1, 2^(2*k+3) * C(k) * A004981(n-1-k)) - A004981(n) \\\\ See A004981 for its program"
			],
			"xref": [
				"Cf. A000108, A004981, A349845, A349846."
			],
			"keyword": "sign",
			"offset": "0,2",
			"author": "_Jianing Song_, Dec 01 2021",
			"references": 2,
			"revision": 18,
			"time": "2021-12-04T06:40:47-05:00",
			"created": "2021-12-04T06:40:47-05:00"
		}
	]
}