{
	"greeting": "Greetings from The On-Line Encyclopedia of Integer Sequences! http://oeis.org/",
	"query": "id:A349286",
	"count": 1,
	"start": 0,
	"results": [
		{
			"number": 349286,
			"data": "1,1,7,148,8695,1455433,715092412,1046279830240,4581706851060703,60144130721142806611,2367934845363738749478583,279660212608573899258160179472,99083333806943049370375436233999876,105314387436569180750449877597844106742044",
			"name": "G.f. A(x) satisfies: A(x) = 1 / (1 - x * A(3*x)^2).",
			"formula": [
				"a(0) = 1; a(n) = Sum_{i=0..n-1} Sum_{j=0..n-i-1} 3^(i+j) * a(i) * a(j) * a(n-i-j-1).",
				"a(n) ~ c * 3^(n*(n-1)/2) * 2^n, where c = 0.7827821536020754599551185976017878354967268590673601224489106938395... - _Vaclav Kotesovec_, Nov 13 2021"
			],
			"mathematica": [
				"nmax = 13; A[_] = 0; Do[A[x_] = 1/(1 - x A[3 x]^2) + O[x]^(nmax + 1) // Normal, nmax + 1]; CoefficientList[A[x], x]",
				"a[0] = 1; a[n_] := a[n] = Sum[Sum[3^(i + j) a[i] a[j] a[n - i - j - 1], {j, 0, n - i - 1}], {i, 0, n - 1}]; Table[a[n], {n, 0, 13}]"
			],
			"xref": [
				"Cf. A001764, A015084, A171192, A349287."
			],
			"keyword": "nonn",
			"offset": "0,3",
			"author": "_Ilya Gutkovskiy_, Nov 13 2021",
			"references": 1,
			"revision": 7,
			"time": "2021-11-13T12:43:52-05:00",
			"created": "2021-11-13T12:43:52-05:00"
		}
	]
}