{
	"greeting": "Greetings from The On-Line Encyclopedia of Integer Sequences! http://oeis.org/",
	"query": "id:A349659",
	"count": 1,
	"start": 0,
	"results": [
		{
			"number": 349659,
			"data": "0,0,3,4,5,9,7,4,3,15,11,13,13,21,23,20,17,9,19,39,31,33,23,13,30,39,30,53,29,69,31,52,47,51,47,13,37,57,55,39,41,93,43,81,68,69,47,77,56,90,71,95,53,90,71,53,79,87,59,93,61,93,94,116,83,141,67,123,95,141,71",
			"name": "Sum of the nonrefactorable divisors of n.",
			"link": [
				"Eric Weisstein's World of Mathematics, \u003ca href=\"http://mathworld.wolfram.com/RefactorableNumber.html\"\u003eRefactorable Number\u003c/a\u003e"
			],
			"formula": [
				"a(n) = A000203(n) - A335182(n).",
				"a(p) = p for odd primes p. - _Wesley Ivan Hurt_, Nov 28 2021"
			],
			"mathematica": [
				"a[n_] := DivisorSum[n, # \u0026, !Divisible[#, DivisorSigma[0, #]] \u0026]; Array[a, 100] (* _Amiram Eldar_, Nov 24 2021 *)"
			],
			"program": [
				"(PARI) a(n) = sumdiv(n, d, if (d%numdiv(d), d)); \\\\ _Michel Marcus_, Nov 24 2021"
			],
			"xref": [
				"Cf. A000203, A335182."
			],
			"keyword": "nonn",
			"offset": "1,3",
			"author": "_Wesley Ivan Hurt_, Nov 23 2021",
			"references": 0,
			"revision": 12,
			"time": "2021-11-28T09:55:55-05:00",
			"created": "2021-11-24T08:53:25-05:00"
		}
	]
}