{
	"greeting": "Greetings from The On-Line Encyclopedia of Integer Sequences! http://oeis.org/",
	"query": "id:A349102",
	"count": 1,
	"start": 0,
	"results": [
		{
			"number": 349102,
			"data": "",
			"name": "allocated for Jud McCranie",
			"keyword": "allocated",
			"references": 0,
			"revision": 1,
			"time": "2021-11-07T22:32:18-05:00",
			"created": "0000-12-31T19:03:58-04:56"
		}
	]
}