{
	"greeting": "Greetings from The On-Line Encyclopedia of Integer Sequences! http://oeis.org/",
	"query": "id:A349577",
	"count": 1,
	"start": 0,
	"results": [
		{
			"number": 349577,
			"data": "5,6,8,4,0,6,0,7,2,9,4,4,5,1,7,9,9,9,1,0,9,1,4,0,0,6,0,5,7,0,2,5,7,1,4,7,7,6,0,0,9,4,4,0,5,1,4,5,8,3,9,0,2,6,8,8,1,0,0,0,3,6,3,0,9,5,7,5,6,8,6,9,2,0,0,3,4,8,5,7,6,7,4,1,3,7,3,4,5,3,3,2,5,9,6,4,3,6,5,9,7,7,1,4,9",
			"name": "Decimal expansion of the volume of the solid formed by the intersection of 4 right circular unit-diameter cylinders whose axes pass through the diagonals of a cube.",
			"comment": [
				"Equivalently, the axes of the cylinders can be placed along the lines joining the vertices of a regular tetrahedron with the centers of the faces on the opposite sides.",
				"This constant was first calculated by Moore (1974).",
				"The corresponding volumes in the analogous cases of 2 and 3 mutually orthogonal cylinders are 2/3 (A010722) and 2 - sqrt(2) (A101465), respectively."
			],
			"link": [
				"Paul Bourke, \u003ca href=\"http://paulbourke.net/geometry/cylinders/\"\u003eIntersecting cylinders\u003c/a\u003e, 2003-2016.",
				"Moreton Moore, \u003ca href=\"http://www.jstor.org/stable/3615957\"\u003eSymmetrical Intersections of Right Circular Cylinders\u003c/a\u003e, The Mathematical Gazette, Vol. 58, No. 405 (1974), pp. 181-185.",
				"Eric Weisstein's World of Mathematics, \u003ca href=\"https://mathworld.wolfram.com/SteinmetzSolid.html\"\u003eSteinmetz Solid\u003c/a\u003e.",
				"Wikipedia, \u003ca href=\"https://en.wikipedia.org/wiki/Steinmetz_solid\"\u003eSteinmetz solid\u003c/a\u003e."
			],
			"formula": [
				"Equals (3/2) * sqrt(2) * (2 - sqrt(3))."
			],
			"example": [
				"0.56840607294451799910914006057025714776009440514583..."
			],
			"mathematica": [
				"RealDigits[(3/2) * Sqrt[2] * (2 - Sqrt[3]), 10, 100][[1]]"
			],
			"xref": [
				"Cf. A010722, A101465, A349578, A349579, A349580."
			],
			"keyword": "nonn,cons",
			"offset": "0,1",
			"author": "_Amiram Eldar_, Nov 22 2021",
			"references": 3,
			"revision": 6,
			"time": "2021-11-22T08:09:02-05:00",
			"created": "2021-11-22T08:09:02-05:00"
		}
	]
}