{
	"greeting": "Greetings from The On-Line Encyclopedia of Integer Sequences! http://oeis.org/",
	"query": "id:A349260",
	"count": 1,
	"start": 0,
	"results": [
		{
			"number": 349260,
			"data": "1,2,6,8,24,120,216,128,384,1920,3456,17280,120960,432000,279936,32768,98304,491520,884736,4423680,30965760,110592000,71663616,358318080,2508226560,8957952000,62705664000,689762304000,3072577536000,5598720000000,470184984576,2147483648",
			"name": "a(n) is the least number k such that A349258(k) = n.",
			"link": [
				"Amiram Eldar, \u003ca href=\"/A349260/b349260.txt\"\u003eTable of n, a(n) for n = 0..111\u003c/a\u003e"
			],
			"example": [
				"a(2) = 6 since A349258(6) = 2 and A349258(k) != 2 for all k \u003c 6."
			],
			"mathematica": [
				"f[p_, e_] := 2^DigitCount[e, 2, 1] - 1; d[1] = 0; d[n_] := Plus @@ f @@@ FactorInteger[n]; seq[len_, nmax_] := Module[{s = Table[0, {len}], k = 0, n = 1, i}, While[k \u003c len \u0026\u0026 n \u003c nmax, i = d[n] + 1; If[i \u003c= len \u0026\u0026 s[[i]] == 0, k++; s[[i]] = n]; n++]; TakeWhile[s, # \u003e 0 \u0026]]; seq[15, 10^6]"
			],
			"xref": [
				"Cf. A349258, A349259."
			],
			"keyword": "nonn",
			"offset": "0,2",
			"author": "_Amiram Eldar_, Nov 12 2021",
			"references": 2,
			"revision": 7,
			"time": "2021-11-12T20:04:57-05:00",
			"created": "2021-11-12T12:22:10-05:00"
		}
	]
}