{
	"greeting": "Greetings from The On-Line Encyclopedia of Integer Sequences! http://oeis.org/",
	"query": "id:A350533",
	"count": 1,
	"start": 0,
	"results": [
		{
			"number": 350533,
			"data": "1,7,10,70,100,133,190,192,230,280,320,392,440,644,700,736,820,874,888,910,912,1000,1088,1090,1092,1122,1125,1128,1141,1148,1152,1185,1188,1212,1215,1233,1251,1274,1275,1300,1323,1330,1332,1512,1521,1547,1679,1725",
			"name": "Happy Niven (or happy harshad) numbers.",
			"comment": [
				"Numbers that are divisible by the sum of their digits and whose trajectory under iteration of sum of squares of digits map includes 1."
			],
			"link": [
				"Alois P. Heinz, \u003ca href=\"/A350533/b350533.txt\"\u003eTable of n, a(n) for n = 1..10000\u003c/a\u003e",
				"Wikipedia, \u003ca href=\"https://en.wikipedia.org/wiki/Happy_number\"\u003eHappy number\u003c/a\u003e",
				"Wikipedia, \u003ca href=\"http://en.wikipedia.org/wiki/Harshad_number\"\u003eHarshad number\u003c/a\u003e"
			],
			"formula": [
				"{ A005349 } intersect { A007770 }."
			],
			"example": [
				"133 is a term because 133/7 = 19 and its trajectory under iteration of sum of squares of digits map is 133 -\u003e 19 -\u003e 82 -\u003e 68 -\u003e 100 -\u003e 1."
			],
			"maple": [
				"q:= proc(n) local m, s; m, s:= n, {};",
				"      if irem(n, add(i, i=convert(n, base, 10)))\u003e0 then return false fi;",
				"      do if m=1 then return true",
				"       elif m in s then return false",
				"       else s, m:= s union {m}, add(i^2, i=convert(m, base, 10))",
				"         fi",
				"      od",
				"    end:",
				"select(q, [$1..2000])[];"
			],
			"xref": [
				"Cf. A003132, A005349, A007770."
			],
			"keyword": "nonn,base,new",
			"offset": "1,2",
			"author": "_Alois P. Heinz_, Jan 03 2022",
			"references": 1,
			"revision": 17,
			"time": "2022-01-03T23:32:09-05:00",
			"created": "2022-01-03T23:01:16-05:00"
		}
	]
}