{
	"greeting": "Greetings from The On-Line Encyclopedia of Integer Sequences! http://oeis.org/",
	"query": "id:A350606",
	"count": 1,
	"start": 0,
	"results": [
		{
			"number": 350606,
			"data": "1,3,7,15,30,60,119,237,472,940,1874,3740,7469,14918,29805,59561,119043,237966,475750,951213,1901981,3803271,7605468,15209251,30415896,60827703,121648985,243287862,486559789,973094453,1946149237",
			"name": "a(n) is the number of elements in row n of A350605.",
			"program": [
				"(Python)",
				"from itertools import chain, islice",
				"def A350606_gen(): # generator of terms",
				"    s = {1}",
				"    while True:",
				"        yield len(s)",
				"        s = set(chain.from_iterable((x,2*x+1,3*x+1) for x in s))",
				"A350606_list = list(islice(A350606_gen(),20)) # _Chai Wah Wu_, Jan 12 2022"
			],
			"xref": [
				"Cf. A350605."
			],
			"keyword": "nonn,more,new",
			"offset": "1,2",
			"author": "_N. J. A. Sloane_, Jan 12 2022",
			"ext": [
				"a(14)-a(31) from _Chai Wah Wu_, Jan 12 2022"
			],
			"references": 1,
			"revision": 11,
			"time": "2022-01-12T20:06:20-05:00",
			"created": "2022-01-12T18:49:27-05:00"
		}
	]
}