{
	"greeting": "Greetings from The On-Line Encyclopedia of Integer Sequences! http://oeis.org/",
	"query": "id:A350464",
	"count": 1,
	"start": 0,
	"results": [
		{
			"number": 350464,
			"data": "",
			"name": "allocated for Peter Luschny",
			"keyword": "allocated",
			"references": 0,
			"revision": 1,
			"time": "2022-01-01T07:26:39-05:00",
			"created": "0000-12-31T19:03:58-04:56"
		}
	]
}