{
	"greeting": "Greetings from The On-Line Encyclopedia of Integer Sequences! http://oeis.org/",
	"query": "id:A350526",
	"count": 1,
	"start": 0,
	"results": [
		{
			"number": 350526,
			"data": "",
			"name": "allocated for Clark Kimberling",
			"keyword": "allocated",
			"references": 0,
			"revision": 2,
			"time": "2022-01-03T14:28:05-05:00",
			"created": "0000-12-31T19:03:58-04:56"
		}
	]
}