{
	"greeting": "Greetings from The On-Line Encyclopedia of Integer Sequences! http://oeis.org/",
	"query": "id:A350074",
	"count": 1,
	"start": 0,
	"results": [
		{
			"number": 350074,
			"data": "",
			"name": "allocated for Antti Karttunen",
			"keyword": "allocated",
			"references": 0,
			"revision": 1,
			"time": "2021-12-12T07:56:39-05:00",
			"created": "0000-12-31T19:03:58-04:56"
		}
	]
}