{
	"greeting": "Greetings from The On-Line Encyclopedia of Integer Sequences! http://oeis.org/",
	"query": "id:A350278",
	"count": 1,
	"start": 0,
	"results": [
		{
			"number": 350278,
			"data": "1,3,6,7,14,19,54,109,110,73,146,145,328,129,342,345,398,337,462,313,3708,353,470,14673,5838,10855,23718,14473,60216,26283,60220,60221,500726,155897,1098404,445089,1098406,1316099,1168014,1386505,3932646,1169865,4424230",
			"name": "Index of first occurrence of n in A349325.",
			"link": [
				"Chai Wah Wu, \u003ca href=\"/A350278/b350278.txt\"\u003eTable of n, a(n) for n = 1..82\u003c/a\u003e",
				"\u003ca href=\"/index/3#3x1\"\u003eIndex entries for sequences related to 3x+1 (or Collatz) problem\u003c/a\u003e"
			],
			"example": [
				"a(5) = 14 because 5 occurs for the first time at position 14 in A349325."
			],
			"mathematica": [
				"A349325[n_]:=A349325[n]=Module[{h=1,c=n,prevc=n},While[c\u003e1,If[OddQ[c],c=(3c+1)/2;If[prevc\u003cn\u0026\u0026c\u003en,h++],c/=2^IntegerExponent[c,2];If[prevc\u003en\u0026\u0026c\u003cn,h++]];prevc=c];h]",
				"nterms=30;Table[i=0;While[A349325[++i]!=n];i,{n,nterms}]"
			],
			"program": [
				"(Python)",
				"def A349325(n):",
				"    prevc = c = n",
				"    h = 1",
				"    while c \u003e 1:",
				"        if c % 2:",
				"            c = (3*c+1) // 2",
				"            if prevc \u003c n and c \u003e n: h += 1",
				"        else:",
				"            c //= 2",
				"            if prevc \u003e n and c \u003c n: h += 1",
				"        prevc = c",
				"    return h",
				"def A349325_fo_idx(n):",
				"    i = 1",
				"    while A349325(i) != n:",
				"        i += 1",
				"    return i",
				"print([A349325_fo_idx(n) for n in range(1, 20)])"
			],
			"xref": [
				"Cf. A349325, A350277."
			],
			"keyword": "nonn,hard,new",
			"offset": "1,2",
			"author": "_Paolo Xausa_, Dec 22 2021",
			"ext": [
				"a(36)-a(43) from _Chai Wah Wu_, Jan 04 2022"
			],
			"references": 2,
			"revision": 26,
			"time": "2022-01-10T13:41:27-05:00",
			"created": "2022-01-04T05:25:17-05:00"
		}
	]
}