{
	"greeting": "Greetings from The On-Line Encyclopedia of Integer Sequences! http://oeis.org/",
	"query": "id:A350351",
	"count": 1,
	"start": 0,
	"results": [
		{
			"number": 350351,
			"data": "1,1,1,1,1,1,1,2,-3,-4,1,1,1,-4,-4,1,1,1,-3,3,-1,1,2,-2,-3,-3,-5,13,1,2,-2,-5,8,14,-27,-40,1,1,3,-3,2,4,13,-22,-68,1,2,-3,-3,-1,3,-3,10,48,96,1,1,1,-4,-4,3,3,2,-48,96,80",
			"name": "Array read by antidiagonals: T(n,k) is the determinant of the Hankel matrix of the 2*n-1 consecutive terms of A350330 starting at the k-th term, n \u003e= 0, k \u003e= 1.",
			"comment": [
				"By definition of A350330, no term is zero."
			],
			"link": [
				"Wikipedia, \u003ca href=\"https://en.wikipedia.org/wiki/Hankel_matrix\"\u003eHankel matrix\u003c/a\u003e"
			],
			"example": [
				"Array begins:",
				"  n\\k|   1   2   3   4   5   6   7   8",
				"  ---+--------------------------------",
				"   0 |   1   1   1   1   1   1   1   1",
				"   1 |   1   1   2   1   1   2   2   1",
				"   2 |   1  -3   1   1  -2  -2   3  -3",
				"   3 |  -4  -4  -3  -3  -5  -3  -3  -4",
				"   4 |  -4   3  -3   8   2  -1  -4  -4",
				"   5 |  -1  -5  14   4   3   3  -1   7",
				"   6 |  13 -27  13  -3   3  -5  13  11",
				"   7 | -40 -22  10   2 -14 -32 -36 -46",
				"   8 | -68  48 -48  52 -40  16   8  27"
			],
			"xref": [
				"Cf. A350330."
			],
			"keyword": "sign,tabl,changed",
			"offset": "0,8",
			"author": "_Pontus von Brömssen_, Dec 26 2021",
			"references": 1,
			"revision": 7,
			"time": "2022-01-04T16:27:09-05:00",
			"created": "2021-12-26T14:16:01-05:00"
		}
	]
}