{
	"greeting": "Greetings from The On-Line Encyclopedia of Integer Sequences! http://oeis.org/",
	"query": "id:A350173",
	"count": 1,
	"start": 0,
	"results": [
		{
			"number": 350173,
			"data": "4,3,25,7,121,13,289,19,529,29,961,37,1681,43,2209,53,3481,61,4489,71,5329,79,6889,89,9409,101,10609,107,11881,113,16129,131,18769,139,22201,151,24649,163,27889,173,32041,181,36481,193,38809,199,44521,223,51529,229,54289,239,58081,251,66049,263,72361,271,76729,281,80089,293",
			"name": "Write the square of 1st prime, then the 2nd prime, then the square of 3rd prime, alternately squaring or not.",
			"reference": [
				"J.-P. Delahaye, Des suites fractales d’entiers, Pour la Science, No. 531 January 2022. Sequence f) p. 82."
			],
			"maple": [
				"[seq(ithprime(n)^(1+(n mod 2)),n=1..80)]; # _N. J. A. Sloane_, Dec 18 2021"
			],
			"program": [
				"(Python)",
				"from sympy import prime",
				"def A350173(n): return prime(n)**(n%2+1) # _Chai Wah Wu_, Dec 19 2021"
			],
			"xref": [
				"Cf. A000040, A001248."
			],
			"keyword": "nonn",
			"offset": "1,1",
			"author": "_Michel Marcus_, Dec 18 2021",
			"references": 1,
			"revision": 10,
			"time": "2021-12-19T02:10:05-05:00",
			"created": "2021-12-18T13:37:24-05:00"
		}
	]
}