{
	"greeting": "Greetings from The On-Line Encyclopedia of Integer Sequences! http://oeis.org/",
	"query": "id:A350721",
	"count": 1,
	"start": 0,
	"results": [
		{
			"number": 350721,
			"data": "",
			"name": "allocated for Karl-Heinz Hofmann",
			"keyword": "allocated",
			"references": 0,
			"revision": 1,
			"time": "2022-01-10T19:04:18-05:00",
			"created": "0000-12-31T19:03:58-04:56"
		}
	]
}