{
	"greeting": "Greetings from The On-Line Encyclopedia of Integer Sequences! http://oeis.org/",
	"query": "id:A350670",
	"count": 1,
	"start": 0,
	"results": [
		{
			"number": 350670,
			"data": "",
			"name": "allocated for Wolfdieter Lang",
			"keyword": "allocated",
			"references": 0,
			"revision": 1,
			"time": "2022-01-10T14:54:36-05:00",
			"created": "0000-12-31T19:03:58-04:56"
		}
	]
}